<?xml version="1.0" standalone="no"?>
<!DOCTYPE svg PUBLIC "-//W3C//DTD SVG 20010904//EN"
 "http://www.w3.org/TR/2001/REC-SVG-20010904/DTD/svg10.dtd">
<svg version="1.0" xmlns="http://www.w3.org/2000/svg"
 width="128.000000pt" height="128.000000pt" viewBox="0 0 128.000000 128.000000"
 preserveAspectRatio="xMidYMid meet">
<metadata>
Created by potrace 1.16, written by Peter Selinger 2001-2019
</metadata>
<g transform="translate(0.000000,128.000000) scale(0.100000,-0.100000)"
fill="#000000" stroke="none">
<path d="M854 1076 c-67 1 -125 -1 -128 -4 -3 -3 -6 -14 -6 -24 0 -10 -11 -23
-25 -30 -13 -6 -29 -24 -35 -41 -5 -16 -10 -32 -10 -33 0 -2 18 -3 41 -2 35 1
40 4 37 22 -2 12 6 30 19 43 16 16 25 18 30 10 4 -7 8 -19 8 -27 0 -11 9 -14
35 -12 19 1 62 5 95 7 39 4 64 11 73 22 6 9 12 25 12 34 0 10 -5 21 -12 25 -6
4 -66 8 -134 10z"/>
<path d="M623 1018 c-10 5 -25 7 -33 3 -8 -3 -25 -15 -38 -26 -12 -11 -22 -25
-22 -32 0 -7 9 -13 20 -13 13 0 20 7 20 20 0 15 7 20 29 20 17 0 32 4 36 9 3
6 -2 14 -12 19z"/>
<path d="M444 946 c-5 1 -31 -6 -57 -16 -26 -10 -54 -24 -62 -30 -7 -6 -19
-10 -27 -9 -7 1 -22 1 -33 0 -19 -2 -19 -2 -2 -12 10 -6 24 -8 32 -5 7 2 19
-2 26 -10 7 -8 21 -20 31 -25 14 -8 26 -6 43 5 13 8 36 27 51 41 22 20 26 30
18 42 -6 9 -15 18 -20 19z"/>
<path d="M1055 920 c-14 0 -25 -8 -28 -19 -2 -11 4 -39 15 -62 10 -24 29 -57
42 -74 13 -16 26 -43 30 -60 4 -16 14 -40 22 -52 8 -13 24 -23 35 -23 12 0 34
9 50 21 22 16 29 28 29 55 0 21 6 37 15 40 11 4 5 15 -23 46 -20 22 -57 50
-82 63 -25 13 -54 32 -64 44 -11 12 -29 21 -41 21z"/>
<path d="M584 890 c-6 0 -20 -9 -33 -21 -15 -14 -20 -27 -15 -38 4 -9 10 -32
13 -51 6 -33 9 -35 48 -37 38 -2 41 0 47 30 3 17 2 35 -4 41 -5 5 -10 17 -10
26 0 9 -8 24 -18 33 -10 10 -23 17 -28 17z"/>
<path d="M765 779 c-11 0 -36 -11 -56 -24 -20 -13 -39 -33 -42 -44 -3 -11 -17
-25 -31 -31 -21 -7 -26 -16 -26 -42 0 -22 -7 -37 -20 -46 -11 -7 -20 -22 -20
-35 0 -12 4 -27 8 -33 4 -6 17 -14 30 -18 16 -6 24 -3 28 11 3 10 11 28 17 41
8 17 8 31 -1 55 -9 24 -9 33 1 39 6 4 35 8 62 8 28 0 66 5 87 10 20 6 38 17
41 24 3 8 -9 30 -26 50 -18 20 -41 36 -52 35z"/>
<path d="M358 620 c-4 0 -8 -9 -8 -19 0 -11 5 -23 10 -26 6 -4 18 -4 27 -1 14
6 14 9 -2 26 -10 11 -22 20 -27 20z"/>
<path d="M452 620 c-4 0 -14 -5 -22 -10 -13 -9 -13 -11 0 -19 9 -6 19 -6 27 1
7 6 10 14 7 19 -3 5 -8 9 -12 9z"/>
<path d="M598 488 c-11 9 -18 10 -23 2 -3 -5 -3 -19 0 -30 4 -11 15 -20 26
-20 11 0 22 -7 25 -15 4 -8 15 -15 25 -15 10 0 19 -6 19 -13 0 -7 -5 -18 -11
-24 -7 -7 -9 -18 -6 -26 3 -8 20 -14 37 -15 18 0 43 6 57 15 17 11 35 14 66 9
23 -4 83 -6 133 -6 69 1 104 -4 145 -20 30 -11 60 -20 67 -20 7 0 24 11 36 24
20 19 23 29 17 57 -4 21 -16 38 -31 47 -16 8 -42 10 -72 6 -38 -5 -55 -2 -81
15 -29 18 -39 19 -66 10 -18 -6 -56 -9 -84 -6 -29 3 -72 1 -97 -5 -25 -5 -52
-13 -61 -18 -9 -4 -22 -4 -30 1 -8 5 -24 9 -36 9 -12 0 -26 6 -30 13 -4 6 -15
18 -25 25z"/>
<path d="M550 385 c-19 17 -31 20 -50 15 -14 -4 -64 -26 -111 -49 -48 -22 -96
-41 -108 -41 -12 0 -21 -5 -21 -11 0 -7 -11 -8 -30 -4 -29 6 -32 4 -47 -34
-14 -35 -20 -41 -45 -41 -18 0 -28 5 -28 15 0 8 -7 15 -15 15 -8 0 -15 -6 -15
-14 0 -8 -10 -16 -22 -18 -15 -2 -23 -10 -23 -23 0 -17 8 -20 56 -23 41 -2 59
1 69 13 7 8 23 15 35 15 12 0 28 7 35 15 7 8 21 15 31 15 11 0 38 9 62 19 23
11 67 25 97 31 30 7 63 17 74 22 10 6 33 10 52 10 19 0 40 8 50 19 16 18 16
19 -2 25 -11 4 -30 17 -44 29z"/>
<path d="M799 235 c-35 2 -72 2 -81 -1 -10 -3 -18 -9 -18 -14 0 -4 24 -24 53
-44 41 -28 68 -39 109 -43 49 -5 57 -3 67 15 9 16 7 24 -5 37 -9 9 -27 23 -39
31 -12 8 -51 16 -86 19z"/>
<path d="M514 170 c-18 0 -36 -4 -39 -10 -3 -5 -3 -14 0 -20 3 -5 23 -10 44
-10 21 0 41 3 44 7 4 3 2 12 -4 20 -6 7 -26 13 -45 13z"/>
</g>
</svg>
