<?xml version="1.0" standalone="no"?>
<!DOCTYPE svg PUBLIC "-//W3C//DTD SVG 20010904//EN"
 "http://www.w3.org/TR/2001/REC-SVG-20010904/DTD/svg10.dtd">
<svg version="1.0" xmlns="http://www.w3.org/2000/svg"
 width="128.000000pt" height="128.000000pt" viewBox="0 0 128.000000 128.000000"
 preserveAspectRatio="xMidYMid meet">
<metadata>
Created by potrace 1.16, written by Peter Selinger 2001-2019
</metadata>
<g transform="translate(0.000000,128.000000) scale(0.100000,-0.100000)"
fill="#000000" stroke="none">
<path d="M579 1280 c-5 0 -9 -4 -9 -10 0 -5 -15 -13 -32 -18 -18 -4 -33 -15
-33 -23 0 -8 16 -22 35 -31 19 -9 61 -30 93 -45 54 -26 60 -27 85 -12 15 8 33
28 41 44 13 26 12 30 -10 48 -20 16 -33 18 -87 12 -59 -6 -64 -5 -69 14 -3 12
-9 21 -14 21z"/>
<path d="M748 1100 c-2 0 -21 -11 -43 -25 -22 -14 -56 -32 -75 -40 -19 -9 -44
-20 -55 -25 -11 -5 -33 -12 -50 -16 -16 -4 -52 -7 -80 -8 -27 0 -65 3 -82 7
-27 7 -33 6 -33 -7 0 -9 12 -21 28 -28 15 -6 41 -17 57 -24 26 -11 40 -10 100
6 39 11 76 20 83 20 6 0 12 -8 12 -18 0 -10 -31 -49 -70 -87 -69 -68 -70 -71
-70 -121 0 -38 5 -55 20 -69 18 -16 22 -17 54 -1 19 9 50 16 70 16 33 0 38 -4
57 -46 12 -25 39 -63 60 -85 22 -23 55 -68 75 -102 31 -53 35 -67 29 -102 -3
-22 -17 -57 -30 -77 -14 -20 -34 -42 -44 -48 -11 -5 -22 -7 -24 -3 -2 5 -9 28
-16 53 -7 25 -21 61 -31 80 -10 20 -33 43 -54 54 -32 16 -41 16 -69 5 -18 -7
-51 -26 -74 -43 -23 -17 -54 -53 -69 -80 -21 -38 -25 -57 -22 -91 4 -28 19
-62 47 -102 23 -32 58 -67 77 -78 29 -15 40 -16 72 -7 20 6 58 14 84 17 29 4
59 16 77 31 16 13 38 24 48 24 11 0 30 11 42 24 12 13 31 39 41 57 10 19 26
50 35 69 12 26 15 55 12 115 -2 44 -9 98 -15 120 -8 29 -27 55 -71 95 -33 30
-72 73 -87 95 -15 22 -35 59 -45 82 -12 29 -30 49 -58 65 -23 13 -41 30 -41
38 0 8 28 40 63 72 45 43 72 60 100 65 24 3 44 14 53 28 8 12 12 29 8 38 -3 8
-25 25 -50 36 -24 12 -45 21 -46 21z m-202 -800 c12 0 26 -6 32 -13 6 -7 18
-34 27 -60 9 -27 15 -58 13 -70 -2 -17 -11 -23 -38 -25 -24 -2 -43 4 -63 20
-18 15 -30 36 -34 61 -5 31 -1 42 17 62 13 14 33 25 46 25z"/>
</g>
</svg>
