<?xml version="1.0" standalone="no"?>
<!DOCTYPE svg PUBLIC "-//W3C//DTD SVG 20010904//EN"
 "http://www.w3.org/TR/2001/REC-SVG-20010904/DTD/svg10.dtd">
<svg version="1.0" xmlns="http://www.w3.org/2000/svg"
 width="128.000000pt" height="128.000000pt" viewBox="0 0 128.000000 128.000000"
 preserveAspectRatio="xMidYMid meet">
<metadata>
Created by potrace 1.16, written by Peter Selinger 2001-2019
</metadata>
<g transform="translate(0.000000,128.000000) scale(0.100000,-0.100000)"
fill="#000000" stroke="none">
<path d="M712 1259 c-4 0 -61 -28 -127 -63 -80 -42 -142 -67 -187 -76 -68 -14
-68 -14 -110 18 -24 18 -56 38 -73 45 -16 8 -62 16 -101 20 -38 3 -76 2 -83
-3 -9 -5 -11 -17 -8 -32 4 -15 29 -41 63 -64 31 -21 73 -49 93 -61 20 -12 56
-26 81 -32 25 -6 80 -18 122 -27 61 -14 79 -23 89 -41 10 -19 10 -28 1 -43 -7
-11 -12 -28 -12 -38 0 -9 -8 -40 -19 -67 -10 -28 -24 -61 -30 -75 -6 -14 -22
-43 -36 -65 -13 -22 -30 -54 -38 -71 -8 -17 -20 -35 -26 -38 -6 -4 -17 -19
-25 -34 -7 -15 -17 -46 -21 -69 -6 -39 -5 -44 18 -54 21 -9 32 -7 73 17 27 15
53 34 58 42 4 8 26 33 48 55 32 33 43 39 56 30 11 -6 18 -27 20 -54 2 -24 -2
-82 -8 -129 -7 -47 -21 -111 -31 -143 -10 -31 -19 -72 -19 -90 0 -17 9 -51 20
-75 20 -43 20 -43 107 -38 49 3 122 8 163 12 41 3 79 10 84 15 6 5 25 9 43 9
19 0 49 7 68 15 21 8 39 25 45 40 6 15 10 41 10 60 0 19 5 37 10 40 5 3 10 14
10 23 0 10 -20 40 -45 69 -25 28 -45 57 -45 65 0 8 -13 32 -30 54 -22 31 -29
50 -27 80 2 37 4 39 37 42 19 2 49 9 67 17 17 8 35 15 39 15 4 0 17 8 28 19
12 10 44 34 72 53 27 20 60 38 71 42 12 4 24 14 28 24 4 9 6 52 6 95 -2 67 -5
83 -29 116 -15 22 -39 46 -54 55 -25 15 -30 15 -82 -5 -31 -11 -56 -26 -56
-34 0 -7 16 -25 35 -39 19 -15 35 -36 35 -46 0 -11 -33 -53 -74 -95 -45 -45
-82 -75 -94 -75 -12 0 -32 -14 -45 -32 -14 -18 -37 -56 -51 -85 -14 -29 -26
-65 -26 -81 0 -16 9 -65 19 -108 11 -44 23 -102 27 -131 6 -47 4 -52 -17 -64
-13 -7 -58 -19 -99 -27 -41 -7 -86 -14 -99 -14 -14 0 -30 8 -37 17 -8 11 -9
26 -4 45 4 15 19 48 33 72 13 23 28 63 31 88 4 24 18 77 31 117 25 73 25 73
-5 122 -17 27 -37 52 -45 55 -9 3 -28 3 -44 0 -16 -3 -38 -1 -50 5 -11 7 -21
19 -21 27 0 8 10 32 22 54 16 27 39 46 78 66 37 18 77 51 124 103 52 58 77 95
102 156 18 44 33 92 34 106 0 14 -10 35 -23 47 -13 12 -49 29 -81 37 -31 8
-60 15 -64 14z m-10 -179 c9 0 19 -9 23 -19 3 -10 -2 -37 -10 -59 -11 -27 -36
-55 -75 -86 -32 -25 -63 -46 -69 -46 -6 0 -13 11 -17 24 -3 13 -1 49 6 80 6
31 18 62 25 70 8 7 24 12 37 9 13 -2 32 3 43 11 11 8 28 16 37 16z"/>
</g>
</svg>
