<?xml version="1.0" standalone="no"?>
<!DOCTYPE svg PUBLIC "-//W3C//DTD SVG 20010904//EN"
 "http://www.w3.org/TR/2001/REC-SVG-20010904/DTD/svg10.dtd">
<svg version="1.0" xmlns="http://www.w3.org/2000/svg"
 width="128.000000pt" height="128.000000pt" viewBox="0 0 128.000000 128.000000"
 preserveAspectRatio="xMidYMid meet">
<metadata>
Created by potrace 1.16, written by Peter Selinger 2001-2019
</metadata>
<g transform="translate(0.000000,128.000000) scale(0.100000,-0.100000)"
fill="#000000" stroke="none">
<path d="M718 1259 c-7 -1 -24 -4 -38 -8 -19 -5 -26 -15 -30 -41 -5 -33 -8
-35 -56 -45 -28 -5 -59 -16 -67 -23 -15 -13 -13 -18 16 -54 18 -22 42 -44 55
-49 12 -5 22 -17 22 -27 0 -10 -5 -23 -12 -30 -7 -7 -20 -12 -29 -12 -10 0
-30 -10 -46 -23 -15 -13 -57 -34 -93 -47 -36 -13 -71 -29 -79 -36 -7 -6 -10
-17 -7 -23 4 -6 13 -11 21 -11 8 0 38 -9 68 -20 34 -13 58 -29 64 -43 6 -13 9
-36 6 -51 -3 -15 -20 -43 -38 -62 -21 -21 -42 -34 -58 -34 -14 0 -28 4 -31 9
-3 4 -29 11 -58 14 -32 4 -77 0 -112 -8 -33 -8 -65 -20 -72 -27 -7 -7 -22 -30
-33 -51 -17 -31 -19 -44 -12 -80 5 -23 17 -71 26 -107 9 -36 22 -96 28 -135 7
-39 25 -90 40 -115 15 -25 33 -52 40 -61 6 -9 26 -23 42 -31 17 -9 49 -19 72
-23 26 -4 50 -2 65 6 13 6 26 17 30 23 5 8 13 7 28 -1 11 -7 30 -13 44 -13 13
0 29 6 35 14 9 10 8 15 -4 20 -8 3 -15 15 -15 26 0 13 -7 20 -20 21 -11 1 -24
2 -30 3 -5 0 -10 5 -11 9 -1 5 16 31 38 59 21 27 52 66 69 86 17 20 34 44 37
52 4 8 20 35 35 60 16 25 37 47 47 49 16 3 17 -2 11 -40 -4 -24 -10 -59 -13
-77 -3 -19 0 -44 7 -57 9 -17 9 -28 1 -43 -6 -11 -11 -30 -11 -42 0 -13 -10
-24 -27 -31 -16 -6 -39 -12 -53 -14 -14 -1 -36 -3 -49 -3 -22 -2 -23 -3 -9
-19 9 -10 18 -27 20 -38 3 -18 10 -20 62 -17 32 2 69 8 83 13 22 8 24 13 18
49 -4 21 -4 44 0 50 4 7 12 7 26 0 10 -6 19 -18 19 -26 0 -11 6 -14 16 -10 9
3 18 6 21 6 3 0 0 7 -7 15 -10 12 -9 16 3 21 9 3 21 3 26 -1 6 -3 8 -19 5 -35
-5 -24 -3 -29 17 -32 17 -2 25 -11 27 -27 3 -17 -4 -30 -20 -43 -23 -17 -23
-18 42 -17 47 0 60 2 48 9 -9 6 -19 23 -23 39 -3 17 -2 38 4 49 6 11 7 31 2
48 -6 23 -14 30 -42 34 -31 5 -34 8 -34 41 0 20 -6 42 -12 51 -7 8 -10 18 -6
21 3 4 10 7 15 7 4 0 8 -9 8 -20 0 -11 3 -20 7 -20 4 0 23 16 43 35 36 35 36
35 77 14 39 -19 43 -19 72 -4 17 8 31 24 31 34 0 9 -10 27 -22 38 -13 11 -44
32 -70 47 -45 25 -48 29 -48 69 0 23 -7 52 -15 64 -9 13 -35 31 -59 42 -24 10
-46 24 -50 29 -4 6 4 28 18 49 14 21 34 49 45 63 11 14 21 36 20 50 0 14 -6
33 -13 43 -7 9 -18 17 -23 17 -5 0 -38 -18 -72 -40 -42 -27 -73 -40 -96 -40
-19 0 -35 3 -35 8 0 4 9 21 20 39 10 18 33 39 50 48 16 8 30 19 30 24 0 5 17
31 38 58 22 27 44 59 51 71 10 18 10 27 0 38 -6 8 -29 14 -52 14 -23 0 -48 -7
-58 -16 -10 -9 -35 -17 -56 -18 -27 -1 -38 3 -41 16 -2 10 11 25 38 41 23 14
50 39 61 56 10 17 19 38 19 47 0 8 -11 26 -25 39 -13 14 -30 25 -37 24z m-155
-349 c13 0 17 -9 17 -40 0 -24 -5 -42 -12 -45 -7 -2 -29 -1 -48 3 -20 4 -36
15 -38 24 -2 9 11 24 30 37 18 11 41 21 51 21z m89 -104 c5 -8 3 -27 -4 -43
-7 -15 -17 -31 -23 -35 -5 -4 -15 -8 -21 -8 -7 0 -14 6 -17 13 -2 6 0 23 4 36
8 19 12 21 24 11 12 -10 15 -9 15 7 0 11 3 23 7 27 4 3 11 0 15 -8z m113 -66
c14 0 25 -6 25 -12 0 -7 -3 -23 -6 -36 -5 -16 -13 -22 -28 -20 -11 2 -22 11
-24 21 -2 10 -1 25 2 33 3 8 17 14 31 14z m45 -85 c5 -3 10 -15 10 -25 0 -10
-5 -22 -10 -25 -6 -3 -13 1 -16 9 -3 9 -3 23 0 32 3 8 10 12 16 9z m-127 -18
c7 -2 13 -10 15 -18 1 -8 -7 -24 -18 -36 -11 -12 -20 -27 -20 -33 0 -7 -10
-20 -22 -31 -13 -10 -30 -18 -38 -19 -9 0 -21 5 -28 12 -7 7 -12 19 -12 27 0
9 14 31 31 49 16 17 39 32 49 32 10 0 22 5 25 11 4 5 12 8 18 6z m-451 -17 c8
0 23 -7 35 -15 11 -8 39 -17 61 -21 23 -3 49 -15 58 -25 9 -11 23 -19 29 -19
7 0 43 -14 81 -31 38 -17 70 -32 70 -33 1 0 5 -11 8 -23 5 -16 -4 -35 -38 -76
-25 -31 -52 -73 -61 -93 -9 -22 -13 -50 -10 -66 5 -20 0 -37 -16 -59 -19 -27
-26 -30 -58 -25 -20 3 -47 8 -61 10 -13 3 -33 17 -45 33 -11 15 -35 59 -52 98
-23 48 -33 85 -33 120 0 28 -4 67 -9 88 -7 27 -5 48 3 70 7 18 16 40 19 50 4
9 12 17 19 17z m580 -80 c5 0 23 -7 39 -16 28 -14 30 -19 24 -51 -3 -19 -3
-48 0 -64 5 -22 12 -29 31 -29 13 0 24 -5 24 -10 0 -6 -7 -13 -16 -17 -8 -3
-26 -1 -38 5 -21 9 -26 5 -58 -41 -19 -29 -41 -52 -49 -52 -10 0 -15 16 -17
56 -2 39 1 59 11 68 12 9 21 9 41 0 14 -7 29 -10 32 -6 3 3 3 15 -1 26 -4 13
-15 21 -30 21 -13 0 -30 3 -39 6 -9 4 -16 18 -16 34 0 19 9 36 26 49 15 12 31
21 36 21z m-457 -440 c8 0 16 -4 20 -9 3 -5 1 -13 -5 -16 -6 -4 -18 -4 -26 -1
-8 3 -12 10 -9 16 3 5 12 10 20 10z"/>
<path d="M1094 186 c-27 1 -58 0 -69 -2 -11 -3 -26 -7 -34 -10 -10 -3 -11 -7
-1 -19 9 -11 17 -12 31 -4 11 5 24 7 29 4 6 -3 10 -19 10 -36 0 -24 -4 -29
-25 -29 -23 0 -25 -4 -25 -45 0 -44 1 -45 33 -44 17 1 42 4 54 7 12 4 33 24
47 45 14 21 26 50 26 66 0 15 -6 35 -13 45 -9 13 -29 20 -63 22z"/>
</g>
</svg>
