<?xml version="1.0" standalone="no"?>
<!DOCTYPE svg PUBLIC "-//W3C//DTD SVG 20010904//EN"
 "http://www.w3.org/TR/2001/REC-SVG-20010904/DTD/svg10.dtd">
<svg version="1.0" xmlns="http://www.w3.org/2000/svg"
 width="128.000000pt" height="128.000000pt" viewBox="0 0 128.000000 128.000000"
 preserveAspectRatio="xMidYMid meet">
<metadata>
Created by potrace 1.16, written by Peter Selinger 2001-2019
</metadata>
<g transform="translate(0.000000,128.000000) scale(0.100000,-0.100000)"
fill="#000000" stroke="none">
<path d="M745 1279 c-11 -1 -30 -12 -42 -25 -12 -13 -33 -24 -45 -24 -13 0
-36 -7 -52 -15 -15 -8 -39 -15 -52 -15 -12 0 -26 -4 -29 -10 -3 -5 -16 -10
-28 -10 -12 0 -35 -7 -50 -15 -20 -10 -35 -12 -53 -5 -14 6 -36 10 -50 10 -14
0 -27 -7 -31 -16 -3 -9 -2 -19 3 -23 5 -3 15 -34 22 -69 7 -35 16 -102 19
-150 3 -48 9 -91 13 -97 5 -5 11 -40 15 -77 6 -52 4 -73 -7 -90 -8 -13 -22
-43 -32 -67 -10 -25 -26 -58 -38 -73 -16 -23 -17 -32 -8 -43 7 -8 23 -15 35
-15 12 0 28 7 36 16 11 14 13 14 21 0 5 -9 20 -16 33 -16 15 0 25 -6 25 -14 0
-7 -6 -29 -14 -48 -8 -19 -32 -52 -53 -74 -22 -21 -49 -56 -61 -76 -22 -36
-22 -37 -3 -43 11 -3 29 -1 40 4 11 6 21 21 23 33 2 15 18 30 47 45 24 12 64
43 88 70 33 35 42 53 38 68 -3 11 -7 27 -8 35 -1 9 10 17 33 22 19 3 60 11 90
16 30 6 59 6 64 2 4 -5 0 -32 -9 -62 -10 -29 -28 -63 -41 -74 -12 -12 -30 -36
-39 -55 -10 -18 -24 -39 -31 -47 -8 -7 -14 -17 -14 -22 0 -4 -16 -27 -35 -51
-20 -23 -41 -51 -46 -62 -10 -18 -9 -19 24 -13 30 6 38 3 59 -21 13 -16 38
-38 56 -50 17 -13 44 -23 59 -23 16 0 40 8 53 17 14 9 30 24 36 33 7 8 32 26
57 38 25 12 60 41 79 65 19 23 42 55 50 70 8 16 25 34 38 40 18 9 28 26 36 65
7 30 14 56 17 59 3 2 13 6 24 7 10 2 23 14 29 27 7 13 17 41 24 63 11 34 10
40 -8 58 -16 16 -38 21 -121 25 -64 4 -110 2 -124 -5 -12 -6 -49 -13 -82 -16
-33 -3 -78 -9 -100 -15 -22 -6 -68 -17 -101 -25 -34 -7 -97 -15 -140 -17 -74
-4 -79 -3 -76 16 2 11 12 39 23 62 10 23 19 54 19 69 0 16 11 39 26 55 26 27
26 27 5 39 -20 10 -22 18 -19 88 3 71 5 77 27 82 14 3 26 11 29 18 2 7 -6 12
-22 12 -16 0 -30 8 -37 21 -7 14 -9 41 -5 71 5 37 3 56 -8 73 -15 23 -15 24
35 34 27 6 58 11 67 11 10 0 22 4 28 9 5 5 27 12 49 15 22 3 45 3 51 -1 6 -5
13 -40 16 -80 3 -39 2 -75 -1 -80 -3 -4 -16 -14 -28 -20 -13 -7 -31 -13 -42
-13 -10 0 -35 -7 -55 -15 -20 -8 -36 -20 -36 -26 0 -7 19 -9 53 -7 28 2 60 8
70 12 13 6 20 1 31 -24 9 -23 11 -45 5 -78 -5 -25 -11 -48 -14 -51 -4 -3 -27
-11 -53 -19 -26 -7 -55 -13 -65 -13 -10 0 -21 -7 -24 -15 -3 -8 -3 -17 0 -20
3 -3 11 -3 17 1 7 4 33 8 58 9 26 2 59 -1 74 -6 17 -6 34 -6 47 1 11 7 25 21
31 32 7 11 13 50 16 87 2 37 8 85 12 108 5 22 12 46 16 52 4 6 11 49 16 94 10
83 10 83 -23 130 -21 32 -39 48 -52 47z m260 -744 c6 -1 14 -14 20 -29 6 -19
5 -36 -4 -59 -7 -18 -19 -48 -26 -67 -7 -19 -24 -43 -37 -55 -13 -11 -32 -32
-41 -48 -10 -15 -48 -64 -84 -110 -67 -82 -67 -82 -117 -82 -40 0 -55 5 -68
22 -10 11 -18 29 -18 40 0 10 14 42 30 71 17 28 34 52 39 52 5 0 28 19 50 43
22 23 41 47 41 53 0 6 9 19 19 28 16 14 19 28 16 72 -3 49 -1 55 18 59 12 3
51 6 87 8 36 2 70 2 75 2z"/>
<path d="M291 450 c-6 0 -13 -5 -16 -10 -4 -6 -15 -8 -26 -5 -11 4 -31 -2 -48
-14 -16 -12 -33 -21 -38 -21 -5 0 -24 -14 -41 -32 -18 -17 -31 -36 -29 -42 2
-6 10 -12 18 -14 8 -1 30 11 49 28 19 16 50 35 68 41 17 6 32 15 32 20 0 5 9
9 20 9 13 0 20 7 20 20 0 11 -4 20 -9 20z"/>
<path d="M277 180 c-8 0 -17 -3 -20 -6 -4 -4 -4 -10 -1 -15 2 -4 11 -6 19 -2
8 3 15 9 15 14 0 5 -6 9 -13 9z"/>
<path d="M495 97 c-6 2 -23 -9 -38 -25 -15 -15 -27 -36 -27 -45 0 -10 8 -17
18 -17 11 0 26 8 35 18 8 9 17 28 19 41 1 13 -2 26 -7 28z"/>
</g>
</svg>
