<?xml version="1.0" standalone="no"?>
<!DOCTYPE svg PUBLIC "-//W3C//DTD SVG 20010904//EN"
 "http://www.w3.org/TR/2001/REC-SVG-20010904/DTD/svg10.dtd">
<svg version="1.0" xmlns="http://www.w3.org/2000/svg"
 width="128.000000pt" height="128.000000pt" viewBox="0 0 128.000000 128.000000"
 preserveAspectRatio="xMidYMid meet">
<metadata>
Created by potrace 1.16, written by Peter Selinger 2001-2019
</metadata>
<g transform="translate(0.000000,128.000000) scale(0.100000,-0.100000)"
fill="#000000" stroke="none">
<path d="M721 1239 c-14 0 -36 -7 -48 -16 -18 -12 -20 -19 -12 -34 5 -10 26
-27 46 -38 37 -18 37 -18 34 -117 -1 -55 -5 -109 -8 -121 -3 -12 -21 -30 -41
-40 -21 -10 -63 -35 -95 -56 -31 -20 -59 -37 -62 -37 -2 0 -11 14 -20 30 -9
17 -24 30 -33 30 -10 0 -29 -12 -43 -27 -13 -16 -30 -38 -36 -50 -7 -13 -13
-28 -13 -34 0 -6 -15 -34 -34 -62 -18 -29 -40 -69 -47 -90 -7 -21 -19 -43 -26
-48 -7 -6 -17 -8 -23 -4 -5 3 -10 17 -10 29 0 13 -7 40 -15 59 -8 20 -15 50
-15 66 0 17 6 34 14 38 7 4 26 46 42 93 15 46 35 90 44 97 8 7 29 25 46 40 16
16 40 43 53 61 16 23 21 41 17 58 -4 13 -25 38 -48 54 -22 17 -47 30 -55 30
-7 0 -22 -9 -33 -20 -20 -20 -20 -20 1 -64 15 -29 20 -52 15 -70 -3 -14 -13
-26 -21 -26 -7 0 -25 -10 -38 -22 -13 -13 -29 -42 -36 -64 -6 -23 -26 -66 -44
-95 -18 -30 -47 -74 -65 -98 -17 -24 -32 -51 -32 -59 0 -9 -7 -24 -17 -34 -9
-10 -17 -36 -17 -60 -1 -22 4 -43 10 -45 6 -2 32 17 58 42 26 25 52 42 57 39
5 -3 9 -20 9 -37 0 -18 -9 -57 -21 -87 -11 -30 -27 -80 -35 -110 -9 -30 -15
-74 -16 -97 0 -22 5 -50 11 -61 6 -12 21 -24 33 -28 17 -5 30 2 59 33 27 30
39 53 44 87 4 25 15 57 25 69 10 13 22 41 26 63 4 21 20 68 36 104 16 36 43
93 60 128 17 34 34 65 38 67 4 3 26 -5 48 -18 41 -22 41 -22 69 4 15 14 43 36
60 48 18 12 37 20 42 17 5 -3 12 -31 16 -61 5 -46 10 -55 26 -55 11 0 29 4 39
10 10 5 43 12 73 16 54 6 55 6 71 -24 9 -17 16 -48 16 -69 0 -21 -7 -76 -14
-121 -9 -59 -20 -90 -34 -105 -21 -20 -21 -20 -90 53 -61 64 -76 74 -118 82
-27 5 -64 12 -81 15 -25 4 -33 2 -33 -10 0 -8 43 -56 96 -106 61 -59 94 -98
92 -109 -2 -12 -21 -20 -68 -29 -36 -7 -90 -12 -120 -13 -30 0 -61 -4 -69 -9
-8 -5 -12 -15 -9 -23 3 -7 25 -27 48 -43 34 -24 52 -29 94 -28 28 0 83 12 123
25 45 16 82 36 98 54 25 29 25 29 53 -3 16 -18 34 -33 40 -33 7 0 36 -13 65
-28 28 -15 77 -37 107 -49 30 -12 82 -23 115 -25 49 -2 60 0 59 12 -1 9 -13
34 -27 56 -21 35 -32 42 -66 47 -22 3 -52 14 -67 26 -15 12 -39 21 -53 21 -15
0 -50 12 -79 26 -29 14 -52 29 -52 33 0 3 8 18 18 31 9 14 38 67 65 119 26 52
47 107 47 121 0 15 -19 55 -42 91 -24 35 -59 74 -78 87 -27 19 -44 23 -77 19
-28 -3 -46 0 -53 8 -7 8 -8 28 -4 49 3 20 11 39 16 42 5 3 33 9 61 14 29 4 87
14 130 21 77 13 77 13 77 59 0 25 -7 55 -16 68 -8 12 -24 26 -34 32 -15 8 -23
6 -39 -11 -10 -11 -36 -25 -58 -31 -21 -5 -47 -10 -58 -11 -18 -2 -21 6 -25
78 -3 44 -10 88 -16 97 -5 10 -25 29 -44 43 -19 14 -45 25 -59 24z"/>
</g>
</svg>
