<?xml version="1.0" standalone="no"?>
<!DOCTYPE svg PUBLIC "-//W3C//DTD SVG 20010904//EN"
 "http://www.w3.org/TR/2001/REC-SVG-20010904/DTD/svg10.dtd">
<svg version="1.0" xmlns="http://www.w3.org/2000/svg"
 width="128.000000pt" height="128.000000pt" viewBox="0 0 128.000000 128.000000"
 preserveAspectRatio="xMidYMid meet">
<metadata>
Created by potrace 1.16, written by Peter Selinger 2001-2019
</metadata>
<g transform="translate(0.000000,128.000000) scale(0.100000,-0.100000)"
fill="#000000" stroke="none">
<path d="M285 1280 c-38 0 -55 -4 -55 -13 0 -7 5 -18 12 -25 7 -7 23 -12 36
-12 13 0 32 5 43 10 10 6 19 17 19 25 0 11 -13 15 -55 15z"/>
<path d="M840 1245 c-24 4 -41 1 -55 -9 -11 -8 -29 -16 -40 -16 -11 0 -42 -11
-70 -25 -27 -13 -59 -25 -70 -25 -12 0 -26 -5 -31 -10 -6 -6 -47 -25 -92 -44
-63 -26 -91 -33 -121 -29 -33 5 -40 10 -48 37 -7 24 -14 31 -33 31 -21 0 -28
-9 -49 -65 -13 -36 -30 -92 -37 -125 -7 -33 -21 -89 -29 -125 -9 -36 -25 -94
-35 -130 -11 -36 -25 -108 -32 -160 -7 -52 -12 -113 -11 -135 1 -22 6 -67 11
-100 5 -33 13 -69 18 -80 4 -11 22 -44 41 -73 20 -32 40 -52 51 -52 11 0 27 8
36 19 9 10 19 34 22 52 4 22 -2 58 -17 99 -19 57 -22 87 -23 235 -1 151 1 173
17 196 11 15 22 49 24 75 3 27 12 57 21 67 13 14 13 21 2 41 -11 21 -10 28 9
52 13 17 21 41 21 66 0 40 0 40 73 33 49 -5 78 -13 91 -25 10 -10 22 -39 26
-65 5 -34 3 -50 -7 -61 -8 -8 -31 -14 -51 -14 -20 0 -54 -3 -74 -6 -21 -4 -38
-10 -38 -15 0 -5 9 -13 20 -19 10 -5 53 -13 95 -17 70 -5 78 -8 86 -31 5 -14
12 -51 16 -83 5 -53 4 -59 -13 -59 -10 0 -32 16 -47 35 -22 28 -35 35 -62 35
-19 0 -35 -3 -36 -7 0 -5 -2 -39 -4 -78 -2 -38 -5 -97 -6 -130 -1 -33 -6 -67
-12 -76 -8 -12 -6 -28 4 -55 10 -26 22 -40 39 -45 14 -3 37 0 54 8 21 11 31
12 40 3 8 -9 0 -21 -31 -50 -24 -21 -43 -42 -43 -48 0 -6 12 -20 27 -32 25
-19 36 -21 88 -15 33 3 105 8 159 10 100 3 100 3 130 -29 17 -18 59 -53 92
-78 34 -25 70 -49 82 -52 12 -4 33 1 55 14 26 15 34 26 30 40 -3 11 -10 21
-17 21 -6 1 -15 1 -19 0 -5 -1 -7 16 -5 36 2 30 8 39 24 41 14 2 24 -5 32 -24
10 -21 15 -24 27 -14 8 7 15 21 15 32 0 10 -7 21 -15 24 -8 4 -15 10 -15 16 0
5 7 17 16 26 14 14 15 30 9 117 -5 55 -7 117 -6 139 1 21 -3 62 -8 90 -7 40
-6 63 4 93 11 30 12 56 5 106 -6 36 -7 73 -4 82 4 8 0 22 -7 31 -7 8 -13 41
-14 72 -1 31 -6 74 -10 95 -4 20 -11 40 -16 43 -5 3 -9 14 -9 24 0 11 -12 33
-27 50 -26 29 -34 31 -108 35 -44 2 -96 7 -115 10z m32 -96 c10 1 33 -13 53
-30 19 -17 35 -36 35 -43 0 -7 5 -17 12 -24 6 -6 12 -35 13 -65 2 -30 10 -69
20 -87 11 -21 15 -44 11 -65 -4 -19 -3 -36 2 -39 5 -3 13 -29 17 -58 5 -29 9
-60 10 -69 1 -9 5 -21 9 -27 3 -6 2 -32 -4 -59 -6 -26 -9 -58 -5 -70 3 -12 17
-29 32 -36 26 -14 26 -14 -3 -28 -19 -10 -30 -23 -32 -41 -2 -15 4 -40 12 -57
10 -18 13 -41 10 -59 -4 -17 -1 -32 5 -36 6 -4 9 -11 6 -16 -3 -5 -12 -7 -19
-4 -9 4 -16 -5 -21 -24 -3 -17 -12 -32 -18 -35 -7 -2 -22 -1 -34 4 -13 5 -23
13 -23 18 0 5 5 13 11 16 7 5 6 12 -4 23 -8 10 -16 24 -19 32 -3 9 -22 21 -41
27 -26 8 -48 7 -84 -2 -26 -7 -66 -11 -88 -10 -22 2 -48 6 -57 10 -10 4 -18
14 -18 22 0 8 5 23 10 34 6 10 25 26 43 35 18 9 57 39 87 66 30 28 70 63 87
79 18 16 38 29 46 29 7 0 20 13 30 29 9 16 17 41 17 56 0 15 -8 40 -17 55 -9
16 -26 31 -38 34 -12 3 -34 17 -49 31 -21 19 -31 23 -45 15 -10 -5 -44 -34
-76 -65 -32 -30 -66 -55 -75 -55 -10 0 -23 7 -30 15 -7 9 -18 39 -23 68 -5 29
-10 70 -11 92 -1 40 -1 40 56 40 49 0 60 4 88 30 17 17 36 38 41 47 7 14 3 21
-21 33 -18 9 -40 13 -53 9 -12 -3 -42 -16 -65 -27 -44 -22 -44 -22 -79 16 -32
35 -33 40 -20 60 8 12 33 27 57 34 23 7 47 17 54 22 6 5 39 14 71 20 33 5 71
14 85 20 14 5 33 10 42 10z m-408 -469 c2 0 11 -3 20 -6 9 -3 16 -17 16 -30 0
-13 -4 -24 -10 -24 -5 0 -14 9 -20 19 -5 11 -10 24 -10 30 0 6 2 11 4 11z
m361 -12 c16 -2 19 -9 17 -35 -3 -25 1 -33 13 -33 9 0 13 -5 10 -10 -3 -6 -16
-8 -29 -4 -18 4 -36 -9 -92 -68 -39 -40 -87 -84 -106 -98 -20 -14 -42 -25 -49
-25 -8 0 -15 10 -17 21 -2 12 5 35 15 51 10 17 33 42 51 57 17 15 32 34 32 42
0 7 30 34 68 59 37 25 76 44 87 43z m109 -38 c11 0 16 -9 16 -26 0 -16 -5 -24
-12 -22 -7 3 -14 14 -16 26 -2 15 2 22 12 22z m-452 -82 c7 -3 13 -10 13 -16
0 -7 -4 -12 -10 -13 -5 0 -12 7 -13 17 -3 10 1 15 10 12z m69 -158 c5 0 9 -6
9 -14 0 -8 -4 -17 -9 -21 -5 -3 -12 -1 -16 5 -3 5 -3 15 0 20 3 6 10 10 16 10z"/>
<path d="M716 42 c-13 3 -32 1 -42 -3 -11 -4 -26 -14 -33 -23 -12 -14 -6 -16
59 -16 71 0 73 1 56 19 -9 10 -27 21 -40 23z"/>
</g>
</svg>
