<?xml version="1.0" standalone="no"?>
<!DOCTYPE svg PUBLIC "-//W3C//DTD SVG 20010904//EN"
 "http://www.w3.org/TR/2001/REC-SVG-20010904/DTD/svg10.dtd">
<svg version="1.0" xmlns="http://www.w3.org/2000/svg"
 width="128.000000pt" height="128.000000pt" viewBox="0 0 128.000000 128.000000"
 preserveAspectRatio="xMidYMid meet">
<metadata>
Created by potrace 1.16, written by Peter Selinger 2001-2019
</metadata>
<g transform="translate(0.000000,128.000000) scale(0.100000,-0.100000)"
fill="#000000" stroke="none">
<path d="M1020 1130 c-9 5 -28 -1 -50 -16 -22 -15 -57 -26 -95 -29 -33 -4 -72
-11 -88 -17 -15 -6 -37 -24 -48 -39 -14 -20 -29 -29 -49 -29 -16 0 -31 4 -34
9 -3 5 -27 14 -52 20 -32 8 -50 9 -57 2 -7 -7 4 -16 34 -29 25 -11 66 -41 92
-67 45 -44 49 -46 66 -31 9 8 25 41 35 71 15 48 20 55 43 55 14 0 31 -7 38
-16 10 -14 15 -14 32 -4 11 7 28 10 37 7 9 -4 16 -10 16 -15 0 -5 -12 -25 -27
-45 -16 -20 -43 -57 -62 -82 -19 -26 -68 -80 -110 -121 -41 -41 -81 -74 -88
-74 -7 0 -24 -17 -38 -37 -15 -23 -25 -52 -25 -74 0 -19 3 -38 6 -42 4 -3 23
1 42 9 20 8 44 22 54 31 10 9 18 21 18 27 0 6 -5 5 -12 -2 -7 -7 -15 -12 -18
-12 -4 0 -17 9 -29 19 -13 11 -20 25 -16 30 3 6 14 11 25 11 10 0 20 7 24 15
3 8 13 15 21 15 11 0 15 -7 13 -24 -1 -13 3 -31 11 -40 7 -9 22 -16 33 -16 15
0 18 -4 13 -17 -4 -10 -13 -38 -20 -62 -8 -25 -12 -48 -9 -53 3 -4 11 -8 19
-8 7 0 15 -7 18 -15 4 -8 -4 -22 -17 -32 -12 -10 -28 -27 -35 -38 -10 -17 -11
-15 -9 23 3 38 1 42 -19 42 -13 0 -23 6 -23 13 0 7 5 18 12 25 6 6 9 15 5 18
-3 3 -17 -7 -31 -22 -14 -16 -28 -37 -31 -47 -4 -9 3 -32 14 -50 11 -17 33
-45 49 -60 16 -16 38 -28 48 -27 11 1 24 2 30 1 6 0 38 -32 70 -71 32 -38 64
-70 71 -70 8 0 24 10 37 22 12 13 40 32 61 43 21 11 67 49 102 85 35 36 76 92
93 125 16 33 34 84 41 113 6 28 15 52 20 52 5 0 9 16 9 35 0 19 -3 35 -8 35
-4 0 -15 22 -24 48 -13 36 -28 55 -59 75 -22 15 -47 27 -54 27 -8 0 -17 5 -20
10 -3 6 -22 10 -42 10 -20 0 -45 -8 -55 -17 -15 -13 -23 -15 -36 -6 -12 7 -26
7 -45 0 -19 -6 -32 -6 -39 1 -7 7 -6 17 4 31 8 11 38 46 68 78 29 31 68 77 87
101 18 24 33 48 33 53 0 6 -12 21 -27 35 -16 14 -35 29 -43 34z m90 -360 c5 0
12 -5 16 -11 3 -6 2 -15 -4 -21 -6 -6 -15 -7 -21 -4 -5 4 -8 13 -4 21 3 8 9
15 13 15z m76 -40 c3 0 3 -14 -1 -30 -5 -22 -3 -32 9 -36 11 -4 16 -19 16 -44
0 -23 -13 -63 -35 -106 -19 -38 -41 -74 -48 -82 -8 -7 -21 -10 -30 -6 -9 3
-19 14 -22 24 -3 10 -30 35 -60 55 -51 33 -54 38 -48 67 5 27 1 35 -27 58 -24
19 -31 32 -27 45 4 10 13 15 22 12 8 -4 42 -1 77 4 34 6 68 15 75 21 9 7 22 7
44 -2 27 -12 33 -11 41 3 5 9 11 17 14 17z m-374 -70 c4 0 8 -6 8 -13 0 -7 -5
-18 -12 -25 -7 -7 -16 -12 -20 -12 -4 0 -8 6 -8 13 0 7 5 18 12 25 7 7 16 12
20 12z m35 -60 c14 0 32 -8 39 -17 7 -10 14 -24 14 -30 0 -7 -12 -18 -27 -26
-16 -7 -40 -11 -55 -9 -16 2 -28 8 -28 13 0 6 7 23 15 39 11 22 23 30 42 30z
m64 -100 c5 0 9 -6 9 -14 0 -8 -4 -17 -9 -21 -5 -3 -12 -1 -16 5 -3 5 -3 15 0
20 3 6 10 10 16 10z m-71 -50 c5 0 12 -5 16 -11 4 -7 23 -9 48 -5 35 4 47 0
86 -28 25 -18 46 -42 48 -54 3 -17 -10 -28 -69 -58 -71 -35 -73 -36 -106 -20
-24 11 -33 22 -33 40 0 13 7 29 15 36 8 7 15 24 15 37 0 16 -7 27 -19 30 -12
3 -17 11 -14 19 3 8 9 14 13 14z"/>
<path d="M415 990 c-7 0 -22 -11 -35 -25 -13 -14 -48 -36 -77 -50 -36 -16 -64
-22 -82 -19 -17 4 -32 1 -36 -6 -4 -6 1 -21 12 -32 10 -11 43 -37 73 -57 30
-21 63 -40 73 -44 13 -5 17 -18 17 -55 0 -35 -5 -54 -18 -65 -10 -10 -27 -17
-38 -17 -11 0 -25 -5 -31 -11 -6 -6 -40 -12 -75 -13 -54 -1 -63 -4 -63 -19 0
-13 16 -24 55 -39 30 -11 74 -19 98 -19 23 1 46 0 50 -3 4 -2 3 -40 -3 -83
-10 -75 -12 -79 -50 -105 -22 -15 -47 -27 -55 -28 -8 0 -34 -7 -57 -16 -24 -9
-43 -21 -43 -26 0 -5 -15 -6 -34 -3 -21 4 -36 2 -41 -5 -5 -8 -10 -8 -20 0
-10 8 -15 8 -20 0 -4 -7 -1 -18 6 -25 8 -7 42 -27 75 -44 34 -17 71 -31 82
-31 11 0 32 6 47 14 16 8 31 18 34 23 3 5 35 19 71 31 36 13 85 30 110 37 25
8 67 17 93 20 42 6 50 10 64 40 9 18 13 40 10 49 -3 8 -18 22 -32 32 -24 16
-27 16 -45 -1 -10 -9 -27 -14 -37 -11 -10 3 -24 2 -32 -3 -8 -5 -11 -16 -7
-26 5 -14 2 -16 -20 -11 -14 4 -32 2 -39 -4 -10 -8 -15 -8 -20 1 -4 6 -3 14 2
18 6 3 13 35 16 70 4 35 9 67 12 70 3 3 22 4 41 3 29 -2 42 4 70 32 23 23 34
43 34 62 0 16 -9 40 -19 54 -16 20 -29 25 -68 25 -48 1 -48 1 -51 47 -3 45 -2
46 35 58 21 7 42 16 48 21 5 5 17 9 27 9 10 0 24 13 32 29 12 22 13 37 5 64
-5 20 -15 40 -22 44 -7 4 -34 16 -62 25 -27 10 -54 18 -60 18z m-15 -110 c5 0
12 -5 15 -11 4 -6 4 -13 1 -16 -3 -3 -12 -3 -21 1 -9 3 -13 10 -10 16 3 5 10
10 15 10z m-179 -640 c5 0 9 -6 9 -14 0 -8 -4 -17 -9 -20 -4 -3 -11 -3 -14 0
-3 3 -3 12 0 20 3 8 9 14 14 14z"/>
</g>
</svg>
