<?xml version="1.0" standalone="no"?>
<!DOCTYPE svg PUBLIC "-//W3C//DTD SVG 20010904//EN"
 "http://www.w3.org/TR/2001/REC-SVG-20010904/DTD/svg10.dtd">
<svg version="1.0" xmlns="http://www.w3.org/2000/svg"
 width="128.000000pt" height="128.000000pt" viewBox="0 0 128.000000 128.000000"
 preserveAspectRatio="xMidYMid meet">
<metadata>
Created by potrace 1.16, written by Peter Selinger 2001-2019
</metadata>
<g transform="translate(0.000000,128.000000) scale(0.100000,-0.100000)"
fill="#000000" stroke="none">
<path d="M529 1240 c-14 0 -29 -3 -32 -7 -4 -3 -7 -24 -7 -46 0 -24 -8 -51
-22 -70 -12 -18 -37 -49 -56 -71 -31 -35 -34 -43 -29 -83 5 -43 2 -48 -41 -92
-25 -25 -55 -51 -66 -57 -17 -8 -21 -19 -20 -60 1 -28 10 -67 22 -90 16 -31
18 -44 9 -59 -6 -11 -33 -44 -61 -74 -28 -30 -66 -68 -83 -85 -28 -25 -33 -37
-33 -73 0 -25 5 -53 10 -64 6 -10 21 -19 34 -19 17 0 35 15 63 53 22 28 47 66
54 82 8 17 22 30 32 30 10 0 32 -18 48 -40 16 -22 38 -59 49 -82 10 -24 26
-43 33 -43 8 0 26 15 41 34 15 20 26 48 26 65 0 17 -6 40 -12 51 -10 16 -10
24 0 40 6 11 12 42 12 69 0 28 -5 62 -12 76 -9 21 -9 31 0 46 7 11 12 54 12
101 0 59 -6 95 -19 124 -10 23 -24 45 -30 48 -6 4 -11 16 -11 26 0 10 12 29
28 42 15 13 51 51 80 85 28 34 52 70 52 80 0 11 -10 29 -23 41 -13 12 -35 22
-48 22z m-152 -440 c6 0 16 -7 23 -15 10 -13 8 -22 -15 -56 -23 -32 -34 -39
-54 -37 -14 2 -27 10 -29 19 -2 9 12 33 31 53 19 20 39 36 44 36z m22 -220
c11 0 23 -5 26 -10 4 -6 1 -26 -5 -46 -9 -28 -17 -34 -33 -32 -12 2 -23 10
-25 19 -1 8 2 28 7 42 7 17 18 27 30 27z"/>
<path d="M914 1130 c-16 0 -42 -9 -59 -20 -16 -11 -44 -20 -61 -20 -20 0 -34
-6 -38 -16 -4 -11 6 -20 37 -34 34 -15 54 -17 104 -11 34 4 68 13 77 20 9 8
16 19 16 25 0 7 -10 22 -23 34 -13 12 -36 22 -53 22z"/>
<path d="M842 1000 c-4 -1 -22 -9 -41 -18 -19 -9 -36 -23 -39 -29 -2 -8 6 -13
21 -13 13 0 36 9 51 21 14 11 24 25 21 30 -4 5 -9 9 -13 9z"/>
<path d="M1055 978 c-31 2 -50 -4 -78 -23 -21 -14 -55 -34 -75 -44 -20 -10
-48 -21 -62 -24 -14 -4 -32 -11 -40 -17 -13 -9 -13 -11 -1 -19 8 -5 29 -7 48
-4 18 3 33 2 33 -1 0 -4 -9 -29 -21 -56 -11 -27 -27 -51 -35 -54 -8 -3 -14
-14 -14 -24 0 -10 -13 -36 -30 -58 -17 -23 -30 -51 -30 -70 0 -16 5 -35 12
-42 7 -7 24 -12 38 -12 15 0 48 7 74 16 44 15 48 15 67 -2 14 -13 19 -26 15
-44 -2 -14 -9 -43 -14 -65 -5 -22 -13 -48 -17 -57 -4 -10 -16 -18 -27 -18 -12
0 -32 12 -45 26 -22 24 -26 25 -46 11 -12 -8 -23 -24 -25 -36 -2 -12 2 -29 9
-37 7 -8 11 -36 10 -61 -1 -26 4 -62 10 -81 6 -19 25 -47 42 -62 17 -15 27
-32 23 -38 -4 -7 -17 -12 -30 -12 -13 0 -37 -5 -55 -11 -17 -6 -31 -17 -31
-24 0 -7 10 -15 22 -18 11 -3 33 0 47 7 16 9 76 16 155 19 99 4 132 9 144 21
15 14 14 18 -5 43 -17 23 -29 28 -69 30 -27 1 -59 2 -70 2 -12 1 -33 13 -48
27 -14 15 -26 37 -26 49 0 12 11 34 25 49 13 14 33 26 44 26 11 0 23 6 28 13
4 6 8 74 8 149 0 80 4 141 10 147 6 6 35 14 65 18 44 7 56 12 58 28 2 14 -14
34 -47 62 -44 38 -53 42 -75 33 -14 -5 -26 -15 -27 -22 -1 -7 -1 -22 0 -34 1
-11 -7 -28 -19 -39 -11 -10 -41 -21 -66 -25 -33 -5 -49 -3 -59 7 -11 10 -12
20 -4 41 6 15 22 44 36 65 15 21 38 44 52 52 14 7 42 29 61 47 19 19 50 52 68
73 18 21 31 46 30 54 -2 11 -17 17 -43 19z"/>
<path d="M763 869 c-10 -1 -31 -4 -48 -8 -16 -4 -41 -13 -54 -20 -17 -9 -20
-16 -12 -24 8 -8 24 -8 58 1 26 7 53 18 60 24 7 6 13 14 13 19 0 5 -8 9 -17 8z"/>
</g>
</svg>
