<?xml version="1.0" standalone="no"?>
<!DOCTYPE svg PUBLIC "-//W3C//DTD SVG 20010904//EN"
 "http://www.w3.org/TR/2001/REC-SVG-20010904/DTD/svg10.dtd">
<svg version="1.0" xmlns="http://www.w3.org/2000/svg"
 width="128.000000pt" height="128.000000pt" viewBox="0 0 128.000000 128.000000"
 preserveAspectRatio="xMidYMid meet">
<metadata>
Created by potrace 1.16, written by Peter Selinger 2001-2019
</metadata>
<g transform="translate(0.000000,128.000000) scale(0.100000,-0.100000)"
fill="#000000" stroke="none">
<path d="M860 1280 c-5 0 -10 -4 -10 -10 0 -5 -9 -10 -20 -10 -11 0 -23 -7
-27 -16 -3 -8 4 -25 16 -38 11 -12 21 -31 21 -42 0 -10 -15 -38 -33 -61 -17
-23 -58 -62 -89 -85 -31 -24 -82 -58 -112 -77 -31 -18 -56 -37 -56 -41 0 -4 5
-22 11 -41 7 -19 18 -41 26 -50 8 -10 23 -15 34 -12 11 3 27 15 37 28 10 12
41 30 70 39 29 10 57 26 62 37 6 10 19 19 30 19 10 0 22 5 25 10 3 6 17 10 31
10 17 0 24 -5 24 -19 0 -11 -15 -31 -33 -45 -19 -15 -39 -26 -45 -26 -6 0 -15
-6 -19 -13 -4 -8 -27 -26 -50 -41 -23 -16 -49 -39 -58 -52 -8 -13 -21 -24 -28
-24 -8 0 -24 -11 -36 -24 -18 -19 -21 -28 -12 -44 6 -11 22 -23 37 -26 14 -4
40 -3 58 3 17 5 57 12 89 15 32 4 68 13 81 21 19 13 25 13 41 1 18 -13 18 -20
8 -91 -6 -42 -16 -82 -21 -87 -8 -8 -20 -7 -40 1 -25 11 -35 10 -61 -3 -19
-10 -31 -24 -31 -37 0 -11 6 -22 14 -25 8 -3 25 -22 38 -42 13 -20 30 -56 38
-80 13 -42 13 -44 -12 -65 -14 -12 -35 -36 -47 -54 -11 -17 -45 -45 -74 -62
-28 -17 -74 -51 -102 -76 -49 -45 -49 -45 -3 -45 37 0 50 5 65 23 10 12 29 30
43 40 13 9 36 17 51 17 14 0 34 9 44 20 10 11 24 20 31 20 7 0 29 13 47 30 19
16 42 30 50 30 9 0 28 11 42 24 15 14 29 40 32 61 5 30 1 41 -22 65 -26 27
-27 30 -16 80 6 28 11 100 11 159 0 89 3 113 18 130 10 13 34 24 57 28 22 3
46 10 53 16 6 5 12 22 12 37 0 18 -8 33 -23 43 -13 8 -32 16 -42 18 -12 3 -21
14 -23 28 -2 14 7 37 26 60 16 20 35 52 42 73 12 32 11 40 -3 61 -9 14 -26 28
-37 32 -13 4 -28 1 -38 -9 -10 -8 -36 -18 -60 -22 -32 -5 -43 -3 -47 8 -3 8 1
36 10 63 14 39 14 52 5 70 -7 13 -30 31 -51 41 -22 9 -39 21 -39 26 0 4 -4 8
-10 8z m75 -440 c14 0 25 -6 25 -13 0 -8 -17 -28 -39 -45 -21 -17 -50 -34 -64
-37 -14 -4 -27 -2 -31 3 -3 5 8 21 24 37 17 17 35 25 44 22 11 -5 16 0 16 13
0 15 7 20 25 20z"/>
<path d="M549 1254 c-31 3 -59 3 -62 -1 -4 -3 -7 -14 -7 -24 0 -10 9 -20 19
-24 11 -3 25 -12 32 -21 10 -12 0 -27 -63 -92 -68 -71 -76 -82 -88 -139 -7
-34 -10 -73 -6 -87 4 -16 1 -30 -10 -40 -9 -9 -32 -16 -56 -16 -22 0 -56 -7
-75 -17 -19 -9 -37 -23 -40 -31 -3 -8 0 -18 8 -23 8 -5 35 -9 61 -9 32 0 50
-5 56 -16 5 -9 5 -36 -1 -66 -7 -35 -16 -53 -31 -60 -12 -5 -33 -29 -49 -53
-15 -23 -27 -47 -27 -52 0 -5 -18 -27 -40 -48 -30 -29 -40 -47 -40 -70 0 -18
3 -35 6 -38 4 -3 16 0 28 8 11 8 26 15 33 15 8 0 13 -13 13 -33 0 -23 8 -41
24 -56 14 -13 44 -33 68 -45 30 -15 44 -28 46 -45 2 -14 11 -35 19 -48 8 -13
21 -23 28 -23 6 0 19 8 27 18 12 14 15 59 17 254 1 154 -2 239 -9 243 -5 3
-10 14 -10 22 0 9 14 46 32 81 32 64 32 64 15 125 -10 34 -20 72 -24 84 -4 18
6 34 48 76 30 30 66 57 81 61 16 3 34 18 43 36 8 16 15 51 15 78 0 28 -6 54
-12 59 -7 6 -38 13 -69 17z m-213 -721 c8 -3 18 -17 22 -32 4 -14 6 -68 6
-119 -1 -52 -7 -99 -12 -104 -7 -7 -23 -4 -49 8 -21 11 -44 31 -52 46 -14 24
-13 29 13 67 23 33 27 48 23 76 -5 28 -2 38 15 49 11 8 27 12 34 9z"/>
</g>
</svg>
