<?xml version="1.0" standalone="no"?>
<!DOCTYPE svg PUBLIC "-//W3C//DTD SVG 20010904//EN"
 "http://www.w3.org/TR/2001/REC-SVG-20010904/DTD/svg10.dtd">
<svg version="1.0" xmlns="http://www.w3.org/2000/svg"
 width="128.000000pt" height="128.000000pt" viewBox="0 0 128.000000 128.000000"
 preserveAspectRatio="xMidYMid meet">
<metadata>
Created by potrace 1.16, written by Peter Selinger 2001-2019
</metadata>
<g transform="translate(0.000000,128.000000) scale(0.100000,-0.100000)"
fill="#000000" stroke="none">
<path d="M1079 1260 c-27 0 -42 -5 -46 -16 -3 -8 1 -22 9 -30 10 -10 24 -13
41 -9 14 4 31 13 37 21 7 7 9 18 5 24 -3 5 -24 10 -46 10z"/>
<path d="M576 1230 c-8 0 -17 -8 -21 -19 -3 -10 -34 -51 -69 -90 -34 -39 -78
-80 -97 -90 -19 -10 -35 -26 -37 -35 -2 -9 4 -19 12 -22 9 -3 37 4 64 16 26
12 70 41 97 63 28 22 55 47 62 55 7 8 10 34 8 61 -2 25 -4 49 -4 54 -1 4 -7 7
-15 7z"/>
<path d="M972 1139 c-35 0 -78 -10 -112 -24 -30 -12 -56 -27 -58 -33 -2 -6 16
-16 40 -23 24 -6 60 -18 81 -25 34 -13 42 -12 73 2 19 9 41 26 49 38 8 11 15
28 15 37 0 9 -7 20 -16 23 -9 3 -41 6 -72 5z"/>
<path d="M1052 944 c-26 13 -29 13 -65 -19 -30 -27 -49 -35 -95 -40 -31 -4
-70 -11 -86 -16 -16 -5 -39 -9 -52 -9 -14 0 -25 -8 -29 -21 -5 -14 -1 -27 9
-37 13 -14 19 -14 43 -2 15 8 38 23 50 33 13 12 38 20 62 21 22 0 46 -5 52
-11 9 -9 4 -19 -20 -43 -17 -17 -31 -38 -31 -45 0 -8 -13 -23 -29 -34 -16 -12
-39 -37 -51 -56 -13 -21 -30 -35 -42 -35 -11 0 -36 -7 -55 -17 -19 -9 -39 -28
-44 -42 -9 -21 -7 -29 11 -43 12 -10 33 -18 46 -18 13 0 42 9 64 21 22 12 44
27 48 34 4 6 17 17 29 24 12 6 31 11 42 11 18 0 21 6 21 39 0 39 0 39 29 28
24 -9 41 -7 84 6 29 9 65 17 79 17 14 0 31 -7 38 -15 11 -13 11 -20 0 -40 -7
-14 -35 -49 -62 -79 -29 -33 -63 -59 -84 -66 -19 -7 -37 -10 -39 -8 -2 2 -10
22 -17 43 -9 28 -20 41 -34 43 -11 2 -26 -4 -33 -11 -6 -8 -13 -49 -14 -90 -2
-44 -8 -81 -16 -91 -7 -9 -22 -16 -32 -16 -9 0 -24 -7 -32 -15 -10 -10 -13
-28 -10 -62 3 -26 16 -72 30 -101 13 -29 23 -56 21 -61 -2 -6 -27 -22 -57 -38
-30 -16 -56 -34 -59 -41 -2 -8 10 -12 40 -12 24 0 67 9 96 20 29 11 62 20 75
20 12 0 37 9 55 20 25 15 32 27 32 50 0 21 -9 39 -27 56 -19 18 -34 23 -50 19
-22 -5 -23 -3 -19 32 3 20 0 43 -5 50 -6 7 -8 17 -4 23 4 6 8 24 10 40 2 16
11 43 20 61 12 23 20 28 28 20 6 -6 20 -11 32 -11 11 0 36 13 55 30 19 16 42
29 51 30 9 0 41 25 72 56 33 33 57 67 61 86 3 17 6 41 6 53 0 13 -11 30 -26
40 -16 10 -35 14 -50 11 -13 -4 -52 -9 -86 -11 -34 -3 -67 -10 -72 -15 -6 -6
-20 -10 -33 -10 -20 0 -23 4 -17 28 3 15 21 41 40 58 19 17 34 37 34 43 0 7 9
24 20 38 11 14 20 34 20 44 0 10 -12 25 -28 33z"/>
<path d="M405 860 c-13 0 -27 -5 -30 -10 -4 -6 -6 -30 -5 -53 2 -23 2 -50 1
-59 0 -10 -29 -36 -63 -58 -35 -22 -74 -43 -88 -46 -14 -3 -34 -9 -46 -14 -12
-4 -48 -11 -80 -15 -32 -4 -67 -9 -76 -11 -10 -3 -18 -14 -18 -24 0 -11 8 -23
18 -28 9 -5 47 -13 83 -16 63 -7 67 -6 120 29 30 21 66 43 81 51 17 9 29 10
33 4 4 -6 -8 -36 -26 -68 -18 -31 -41 -69 -52 -85 -10 -15 -37 -37 -60 -48
-23 -12 -52 -31 -65 -42 -13 -12 -22 -32 -22 -49 0 -21 6 -31 22 -37 15 -6 32
-4 50 5 14 8 50 41 79 74 37 43 56 57 63 50 6 -6 10 -47 9 -98 -2 -61 2 -97
13 -119 8 -18 18 -33 22 -33 4 0 12 4 18 8 6 4 19 21 27 39 15 29 15 39 2 116
-10 60 -13 126 -10 223 3 76 10 143 15 148 6 6 25 15 42 20 18 6 37 21 43 34
6 13 19 22 32 22 12 0 24 4 27 9 4 5 3 16 0 24 -3 8 -17 17 -32 20 -15 3 -37
-1 -49 -9 -21 -13 -23 -12 -38 16 -11 21 -23 30 -40 30z"/>
</g>
</svg>
