<?xml version="1.0" standalone="no"?>
<!DOCTYPE svg PUBLIC "-//W3C//DTD SVG 20010904//EN"
 "http://www.w3.org/TR/2001/REC-SVG-20010904/DTD/svg10.dtd">
<svg version="1.0" xmlns="http://www.w3.org/2000/svg"
 width="128.000000pt" height="128.000000pt" viewBox="0 0 128.000000 128.000000"
 preserveAspectRatio="xMidYMid meet">
<metadata>
Created by potrace 1.16, written by Peter Selinger 2001-2019
</metadata>
<g transform="translate(0.000000,128.000000) scale(0.100000,-0.100000)"
fill="#000000" stroke="none">
<path d="M323 1067 c-6 2 -16 -5 -22 -16 -6 -11 -11 -31 -11 -45 0 -14 -8 -31
-17 -38 -10 -7 -28 -33 -41 -58 -12 -25 -22 -49 -22 -55 0 -5 -19 -36 -42 -70
-23 -33 -55 -76 -72 -96 -17 -19 -44 -53 -61 -74 -17 -21 -30 -45 -30 -53 0
-9 5 -17 11 -19 6 -2 43 28 83 67 40 38 79 70 87 70 7 0 18 -8 23 -18 6 -11 8
-52 5 -93 -3 -41 -10 -94 -16 -119 -5 -25 -14 -57 -20 -72 -7 -19 -6 -49 2
-98 8 -45 18 -74 27 -77 8 -3 19 -1 25 5 5 5 11 80 14 168 2 88 6 196 10 240
5 73 4 83 -13 95 -11 8 -23 20 -27 26 -4 8 10 41 32 80 22 38 52 93 67 125 16
35 25 68 23 89 -2 18 -8 34 -15 36z"/>
<path d="M947 1040 c-13 0 -48 -26 -87 -64 -36 -36 -76 -79 -90 -97 -14 -18
-30 -45 -37 -61 -7 -15 -17 -28 -22 -28 -6 0 -15 9 -21 19 -5 11 -10 31 -10
46 0 14 -7 39 -15 55 -8 16 -24 34 -34 40 -11 5 -24 10 -30 10 -5 0 -12 -9
-16 -20 -3 -11 0 -34 8 -52 8 -18 19 -60 26 -94 6 -33 11 -83 11 -111 0 -34
-5 -55 -16 -64 -11 -9 -14 -24 -10 -53 5 -41 5 -41 -64 -86 -39 -25 -70 -52
-70 -61 0 -8 15 -29 33 -46 17 -18 44 -36 60 -42 16 -6 95 -9 200 -7 94 2 195
0 224 -5 29 -6 66 -12 83 -14 17 -2 61 -4 98 -5 37 -1 77 -1 90 -1 13 1 22 7
22 16 0 9 -12 27 -27 40 -17 14 -46 26 -73 30 -25 3 -60 10 -77 16 -22 7 -50
7 -89 0 -42 -8 -61 -8 -71 1 -10 8 -30 8 -81 -1 -37 -6 -112 -13 -167 -15 -72
-2 -108 0 -127 11 -16 7 -28 17 -28 22 0 4 19 15 42 24 31 13 45 14 55 5 10
-8 18 -7 31 5 9 8 38 24 64 36 26 11 58 21 71 21 14 0 49 12 78 26 30 14 72
35 94 48 32 17 39 27 37 46 -1 14 -19 39 -40 57 -20 18 -49 35 -64 38 -16 4
-28 10 -28 14 0 5 5 22 11 39 6 17 17 33 24 36 8 3 37 40 65 83 27 42 50 80
50 84 0 4 -14 19 -31 33 -17 14 -40 26 -52 26z m-70 -110 c7 0 13 -4 13 -9 0
-4 -9 -20 -20 -34 -11 -14 -20 -32 -20 -41 0 -9 -9 -35 -21 -57 -17 -35 -18
-45 -9 -75 7 -19 22 -42 36 -50 23 -16 23 -16 -5 -40 -16 -13 -32 -24 -37 -24
-4 0 -17 -8 -28 -19 -12 -10 -35 -23 -52 -29 -22 -7 -35 -7 -42 0 -6 6 -9 25
-6 42 3 17 12 49 21 71 8 22 20 51 27 65 6 14 27 50 46 80 19 30 46 70 59 88
14 17 31 32 38 32z"/>
</g>
</svg>
