<?xml version="1.0" standalone="no"?>
<!DOCTYPE svg PUBLIC "-//W3C//DTD SVG 20010904//EN"
 "http://www.w3.org/TR/2001/REC-SVG-20010904/DTD/svg10.dtd">
<svg version="1.0" xmlns="http://www.w3.org/2000/svg"
 width="128.000000pt" height="128.000000pt" viewBox="0 0 128.000000 128.000000"
 preserveAspectRatio="xMidYMid meet">
<metadata>
Created by potrace 1.16, written by Peter Selinger 2001-2019
</metadata>
<g transform="translate(0.000000,128.000000) scale(0.100000,-0.100000)"
fill="#000000" stroke="none">
<path d="M645 1060 c-13 0 -25 -7 -29 -15 -3 -8 -1 -28 6 -43 6 -15 15 -37 20
-48 6 -12 8 -44 5 -70 -3 -27 -10 -74 -17 -104 -6 -30 -23 -73 -36 -96 -13
-22 -24 -55 -24 -73 0 -18 5 -42 11 -54 7 -11 22 -31 34 -44 21 -24 21 -24
117 27 53 27 103 50 112 50 9 0 33 11 54 25 20 13 44 30 53 37 9 7 19 25 23
40 6 24 0 34 -46 78 -48 44 -52 51 -40 69 6 12 12 29 12 40 0 10 7 24 15 31 8
7 13 16 10 20 -3 4 2 21 10 36 8 16 15 34 15 40 0 6 -11 21 -24 33 -18 17 -33
22 -66 19 -42 -3 -45 -5 -76 -63 -17 -33 -35 -71 -39 -85 -8 -24 -7 -24 18 -7
14 9 38 28 53 42 15 14 32 24 38 22 6 -2 12 -18 14 -36 2 -17 -4 -66 -14 -109
-9 -42 -17 -87 -18 -100 0 -13 -8 -29 -17 -35 -9 -7 -21 -22 -28 -35 -6 -12
-28 -29 -49 -37 -34 -15 -38 -15 -49 1 -7 10 -13 32 -13 49 0 17 9 57 21 90
11 32 27 68 35 79 8 11 14 26 14 33 0 7 -11 13 -24 13 -22 0 -24 4 -28 75 -3
41 -11 81 -18 90 -7 8 -23 15 -35 15z"/>
<path d="M205 1020 c-2 0 -15 -15 -28 -32 -13 -18 -36 -63 -51 -101 -16 -37
-32 -70 -37 -73 -5 -3 -27 -32 -49 -64 -32 -47 -40 -68 -40 -104 0 -26 5 -46
10 -46 6 0 23 6 38 14 15 8 42 35 61 60 19 25 40 46 47 46 6 0 14 -10 17 -22
3 -12 -1 -68 -8 -125 -8 -57 -19 -111 -24 -121 -5 -9 -16 -42 -25 -73 -9 -31
-16 -73 -16 -93 0 -21 5 -46 10 -57 6 -11 21 -19 36 -19 15 0 34 10 44 23 11
12 22 42 26 67 4 25 9 50 13 55 3 6 6 48 7 95 1 47 4 123 8 169 5 82 5 86 -25
135 -30 48 -30 51 -15 77 9 15 16 39 16 53 0 14 5 36 11 49 9 19 7 31 -5 56
-9 17 -18 31 -21 31z"/>
<path d="M445 440 c-23 0 -38 -5 -42 -16 -3 -8 -1 -26 6 -40 6 -14 27 -32 47
-40 20 -8 89 -20 154 -25 77 -7 125 -7 137 -1 10 6 39 13 65 17 26 4 52 13 58
20 8 10 20 11 42 4 18 -5 47 -5 70 0 29 7 49 5 75 -5 19 -9 41 -13 48 -10 7 2
22 -2 33 -10 11 -8 48 -17 81 -21 61 -6 61 -6 61 21 0 17 -11 36 -32 55 -23
20 -51 32 -100 41 -47 9 -110 11 -208 6 -88 -4 -155 -12 -177 -21 -22 -9 -68
-15 -120 -15 -64 0 -93 5 -123 20 -22 11 -55 20 -75 20z"/>
</g>
</svg>
