<?xml version="1.0" standalone="no"?>
<!DOCTYPE svg PUBLIC "-//W3C//DTD SVG 20010904//EN"
 "http://www.w3.org/TR/2001/REC-SVG-20010904/DTD/svg10.dtd">
<svg version="1.0" xmlns="http://www.w3.org/2000/svg"
 width="128.000000pt" height="128.000000pt" viewBox="0 0 128.000000 128.000000"
 preserveAspectRatio="xMidYMid meet">
<metadata>
Created by potrace 1.16, written by Peter Selinger 2001-2019
</metadata>
<g transform="translate(0.000000,128.000000) scale(0.100000,-0.100000)"
fill="#000000" stroke="none">
<path d="M320 1154 c-19 3 -41 3 -47 0 -7 -3 -13 -21 -13 -39 0 -24 9 -45 30
-68 17 -19 30 -42 30 -51 0 -9 -20 -38 -44 -64 -24 -26 -46 -56 -50 -67 -3
-11 -17 -32 -31 -47 -14 -16 -32 -28 -39 -28 -7 0 -27 -18 -44 -39 -18 -22
-37 -51 -43 -65 -7 -14 -20 -28 -31 -31 -14 -5 -18 -16 -18 -50 0 -30 5 -45
16 -49 8 -3 28 1 44 9 16 8 42 15 57 15 15 0 34 -4 41 -9 7 -4 22 -52 33 -107
18 -85 19 -109 10 -166 -6 -37 -11 -90 -11 -117 0 -51 0 -51 44 -51 40 0 45 3
54 30 6 16 27 51 47 77 30 39 35 53 30 79 -4 21 1 47 14 76 10 23 24 54 30 68
6 14 20 41 31 60 15 25 20 53 20 102 0 60 3 69 24 83 13 8 32 34 42 58 10 23
34 66 53 95 20 31 41 52 52 52 10 0 25 -12 32 -27 8 -16 17 -73 20 -128 3 -55
1 -118 -4 -140 -5 -22 -11 -52 -14 -66 -2 -14 -22 -45 -43 -68 -29 -32 -45
-41 -70 -41 -26 0 -35 -5 -42 -26 -7 -17 -7 -39 0 -64 6 -21 17 -43 25 -50 10
-8 27 -10 52 -4 21 4 58 6 83 5 25 -2 53 -7 62 -12 10 -6 45 -5 90 3 40 6 81
18 90 26 15 12 20 12 39 -1 20 -14 26 -14 69 3 26 10 63 19 81 19 19 1 54 2
79 3 31 2 46 8 48 18 1 9 -13 33 -32 54 -33 35 -39 38 -78 33 -24 -3 -66 -10
-93 -14 -28 -5 -56 -12 -63 -17 -6 -4 -31 -9 -55 -11 -23 -2 -69 -8 -102 -14
-33 -6 -77 -8 -98 -4 -20 3 -39 9 -42 12 -2 4 -1 12 3 18 4 6 56 28 115 47 60
20 114 36 121 36 7 0 26 10 42 23 16 12 44 28 64 34 19 7 46 13 60 13 14 0 30
4 35 8 6 4 21 24 33 45 12 21 22 44 22 51 0 8 7 19 15 26 9 7 15 20 13 29 -2
8 -23 22 -48 31 -37 13 -46 20 -48 43 -2 16 4 39 12 52 9 13 16 29 16 36 0 6
8 27 17 46 12 26 14 40 6 52 -5 9 -33 25 -62 35 -46 17 -57 17 -94 6 -23 -8
-60 -26 -82 -41 -22 -15 -49 -36 -59 -48 -11 -11 -25 -21 -31 -21 -7 0 -29 20
-49 45 -21 25 -46 50 -57 55 -14 8 -33 7 -71 -5 -28 -8 -60 -24 -71 -36 -11
-12 -35 -46 -53 -77 -19 -31 -34 -65 -34 -75 0 -11 -16 -44 -36 -74 -20 -30
-40 -71 -46 -91 -5 -20 -17 -44 -25 -54 -8 -9 -20 -36 -28 -61 -9 -29 -10 -48
-4 -54 7 -7 5 -16 -6 -27 -9 -9 -21 -14 -26 -11 -5 4 -9 16 -9 27 0 11 -8 27
-17 34 -11 8 -23 39 -31 86 -7 40 -16 92 -19 116 -3 26 0 48 7 57 7 8 20 15
29 15 10 0 27 14 40 31 12 16 30 33 39 37 9 4 32 17 50 27 18 11 36 31 39 45
4 14 7 41 6 61 0 20 -12 61 -27 92 -20 43 -32 57 -53 61 -16 3 -44 8 -63 10z
m660 -217 c12 -2 16 -24 20 -104 3 -62 10 -107 18 -115 6 -6 12 -31 12 -55 0
-32 -5 -45 -19 -53 -11 -5 -30 -10 -43 -10 -13 0 -50 -11 -83 -24 -56 -23 -61
-24 -78 -8 -17 15 -18 26 -12 92 4 41 15 93 24 115 10 22 35 60 56 85 20 25
49 53 64 63 14 9 33 16 41 14z"/>
</g>
</svg>
