<?xml version="1.0" standalone="no"?>
<!DOCTYPE svg PUBLIC "-//W3C//DTD SVG 20010904//EN"
 "http://www.w3.org/TR/2001/REC-SVG-20010904/DTD/svg10.dtd">
<svg version="1.0" xmlns="http://www.w3.org/2000/svg"
 width="56.000000pt" height="56.000000pt" viewBox="0 0 56.000000 56.000000"
 preserveAspectRatio="xMidYMid meet">
<metadata>
Created by potrace 1.16, written by Peter Selinger 2001-2019
</metadata>
<g transform="translate(0.000000,56.000000) scale(0.100000,-0.100000)"
fill="#000000" stroke="none">
<path d="M263 500 c-10 -1 -56 -41 -103 -90 -46 -50 -92 -92 -100 -95 -9 -3
-27 -19 -39 -36 -13 -17 -19 -34 -15 -38 5 -3 9 -15 9 -26 0 -11 5 -20 11 -20
6 0 34 20 63 45 29 25 58 50 65 56 7 6 26 15 44 19 17 3 34 11 37 16 3 4 23
16 43 25 20 9 55 25 78 36 34 16 44 17 67 7 15 -7 35 -30 46 -53 10 -23 21
-56 25 -73 3 -18 2 -33 -2 -33 -4 0 -16 -17 -27 -37 -11 -21 -27 -43 -35 -50
-8 -7 -37 -23 -65 -37 -27 -14 -59 -27 -70 -28 -11 -2 -21 -11 -23 -21 -3 -14
4 -17 38 -15 22 1 43 5 46 10 3 4 15 8 27 8 12 0 50 22 84 50 34 27 64 59 68
70 3 11 11 20 16 20 5 0 9 27 9 60 0 35 -4 60 -11 60 -5 0 -16 15 -24 34 -8
19 -28 44 -44 55 -19 14 -45 21 -75 21 -26 0 -54 -4 -64 -9 -9 -5 -30 -15 -47
-22 -16 -8 -52 -26 -79 -42 -26 -15 -53 -26 -58 -25 -5 2 20 32 56 67 36 34
66 69 66 77 0 8 -8 14 -17 14z"/>
</g>
</svg>
