<?xml version="1.0" standalone="no"?>
<!DOCTYPE svg PUBLIC "-//W3C//DTD SVG 20010904//EN"
 "http://www.w3.org/TR/2001/REC-SVG-20010904/DTD/svg10.dtd">
<svg version="1.0" xmlns="http://www.w3.org/2000/svg"
 width="56.000000pt" height="56.000000pt" viewBox="0 0 56.000000 56.000000"
 preserveAspectRatio="xMidYMid meet">
<metadata>
Created by potrace 1.16, written by Peter Selinger 2001-2019
</metadata>
<g transform="translate(0.000000,56.000000) scale(0.100000,-0.100000)"
fill="#000000" stroke="none">
<path d="M30 530 c-4 0 -10 -3 -13 -7 -4 -3 -7 -29 -7 -57 1 -28 5 -70 9 -94
5 -25 20 -55 35 -71 15 -16 35 -43 45 -62 10 -18 25 -37 33 -43 8 -5 23 -6 33
-2 14 5 17 14 13 44 -3 20 -16 54 -29 75 -13 21 -39 60 -56 87 -18 27 -33 56
-33 64 0 8 -5 27 -12 41 -6 14 -14 25 -18 25z"/>
<path d="M436 530 c-6 0 -37 -14 -69 -29 -41 -21 -80 -31 -137 -36 -44 -4 -80
-11 -80 -16 0 -5 11 -27 24 -48 14 -21 32 -55 40 -75 8 -20 21 -36 29 -36 7 0
19 11 27 24 7 14 10 34 7 45 -3 13 5 29 24 47 22 21 41 29 74 30 35 2 49 -2
65 -18 11 -12 19 -34 18 -52 0 -17 -2 -50 -5 -73 -3 -31 -9 -44 -24 -48 -11
-4 -31 -23 -45 -43 -13 -20 -40 -48 -60 -62 -20 -14 -50 -36 -67 -50 -18 -14
-41 -30 -52 -36 -11 -6 -20 -17 -20 -25 0 -11 14 -13 55 -12 30 1 65 5 77 8
13 3 55 33 94 67 42 36 77 75 86 97 8 20 26 51 41 70 20 27 23 37 14 52 -8 12
-8 20 -2 24 6 4 4 12 -5 21 -8 9 -15 27 -15 40 0 14 -5 35 -11 47 -6 12 -25
37 -42 55 -17 17 -36 32 -41 32z"/>
</g>
</svg>
