<?xml version="1.0" standalone="no"?>
<!DOCTYPE svg PUBLIC "-//W3C//DTD SVG 20010904//EN"
 "http://www.w3.org/TR/2001/REC-SVG-20010904/DTD/svg10.dtd">
<svg version="1.0" xmlns="http://www.w3.org/2000/svg"
 width="56.000000pt" height="56.000000pt" viewBox="0 0 56.000000 56.000000"
 preserveAspectRatio="xMidYMid meet">
<metadata>
Created by potrace 1.16, written by Peter Selinger 2001-2019
</metadata>
<g transform="translate(0.000000,56.000000) scale(0.100000,-0.100000)"
fill="#000000" stroke="none">
<path d="M299 540 c-10 0 -27 -8 -38 -19 -10 -10 -37 -43 -58 -73 -22 -29 -77
-98 -122 -151 -44 -54 -81 -107 -81 -117 0 -10 3 -25 6 -34 3 -9 11 -16 18
-16 6 0 49 34 94 75 45 41 94 81 109 89 16 7 57 23 92 35 35 12 79 21 96 21
18 0 39 -8 47 -17 9 -10 19 -28 22 -40 4 -12 2 -39 -3 -60 -6 -22 -27 -54 -48
-75 -21 -20 -54 -45 -74 -56 -20 -11 -45 -25 -55 -30 -11 -6 -27 -13 -36 -16
-10 -3 -18 -13 -18 -21 0 -13 6 -15 33 -10 17 4 36 11 42 16 5 5 15 9 22 9 7
0 44 20 81 45 43 29 79 62 100 94 27 42 32 59 32 108 0 50 -3 59 -23 69 -12 6
-36 19 -54 30 -32 19 -33 19 -110 -2 -43 -12 -95 -29 -115 -38 -36 -15 -38
-15 -38 2 0 10 25 51 56 90 30 40 52 76 49 82 -3 5 -15 10 -26 10z"/>
</g>
</svg>
