<?xml version="1.0" standalone="no"?>
<!DOCTYPE svg PUBLIC "-//W3C//DTD SVG 20010904//EN"
 "http://www.w3.org/TR/2001/REC-SVG-20010904/DTD/svg10.dtd">
<svg version="1.0" xmlns="http://www.w3.org/2000/svg"
 width="56.000000pt" height="56.000000pt" viewBox="0 0 56.000000 56.000000"
 preserveAspectRatio="xMidYMid meet">
<metadata>
Created by potrace 1.16, written by Peter Selinger 2001-2019
</metadata>
<g transform="translate(0.000000,56.000000) scale(0.100000,-0.100000)"
fill="#000000" stroke="none">
<path d="M235 560 c-33 0 -45 -4 -42 -12 2 -8 20 -13 42 -13 22 0 40 5 43 13
2 8 -10 12 -43 12z"/>
<path d="M446 535 c-23 25 -23 25 -50 -1 -14 -15 -26 -35 -26 -45 0 -11 -4
-19 -10 -19 -5 0 -10 -9 -10 -20 0 -11 -7 -23 -15 -26 -8 -3 -22 1 -30 10 -9
9 -21 16 -26 16 -5 0 -17 -9 -26 -19 -9 -11 -22 -39 -30 -63 -8 -24 -24 -63
-35 -88 -12 -25 -33 -57 -47 -72 -14 -16 -28 -28 -33 -28 -4 0 -8 22 -8 50 0
34 8 63 26 96 14 25 23 49 19 52 -3 3 -13 2 -22 -4 -9 -6 -20 -17 -23 -25 -4
-8 -12 -24 -18 -36 -7 -13 -12 -30 -12 -38 0 -8 -6 -24 -12 -35 -10 -16 -10
-28 2 -62 11 -31 21 -44 37 -46 15 -2 34 9 60 36 21 22 44 53 52 68 7 16 17
37 22 46 5 10 9 27 9 37 0 11 4 22 9 25 4 3 11 19 14 36 4 16 12 30 19 30 7 0
21 -14 30 -30 9 -17 24 -30 33 -30 10 0 15 10 15 29 0 16 10 48 22 70 12 23
27 41 33 41 6 0 16 -26 23 -58 7 -32 12 -96 12 -143 0 -46 -5 -102 -11 -124
-6 -22 -16 -54 -24 -70 -8 -17 -25 -44 -39 -60 -14 -17 -22 -31 -16 -33 5 -2
29 8 54 23 31 18 51 40 66 70 20 40 21 56 17 167 -3 68 -8 141 -12 163 -3 22
-8 50 -11 62 -2 12 -15 34 -28 48z"/>
<path d="M58 90 c-5 0 -8 -13 -8 -29 0 -16 3 -36 6 -45 3 -9 17 -16 30 -16 13
0 24 4 24 9 0 5 -5 22 -11 38 -5 15 -16 31 -22 35 -7 4 -15 8 -19 8z"/>
</g>
</svg>
