<?xml version="1.0" standalone="no"?>
<!DOCTYPE svg PUBLIC "-//W3C//DTD SVG 20010904//EN"
 "http://www.w3.org/TR/2001/REC-SVG-20010904/DTD/svg10.dtd">
<svg version="1.0" xmlns="http://www.w3.org/2000/svg"
 width="56.000000pt" height="56.000000pt" viewBox="0 0 56.000000 56.000000"
 preserveAspectRatio="xMidYMid meet">
<metadata>
Created by potrace 1.16, written by Peter Selinger 2001-2019
</metadata>
<g transform="translate(0.000000,56.000000) scale(0.100000,-0.100000)"
fill="#000000" stroke="none">
<path d="M217 560 c-15 0 -28 -9 -35 -22 -6 -13 -13 -36 -17 -53 -3 -16 -10
-61 -15 -100 -5 -38 -16 -124 -25 -190 -15 -110 -15 -123 -1 -157 9 -21 22
-38 29 -38 6 0 19 5 27 10 12 7 15 32 15 117 0 59 4 133 9 163 8 51 8 54 -7
41 -15 -12 -17 -10 -17 20 1 19 7 62 14 97 8 35 21 71 30 81 9 10 16 21 16 24
0 4 -10 7 -23 7z"/>
<path d="M347 490 c-7 0 -17 -15 -22 -32 -8 -26 -17 -34 -43 -39 -18 -4 -39
-15 -47 -25 -8 -11 -14 -26 -14 -34 0 -12 2 -11 10 3 5 9 21 17 34 17 13 0 26
-4 30 -9 3 -5 -6 -26 -20 -47 -14 -20 -25 -40 -25 -45 0 -4 5 -11 11 -14 5 -4
19 1 30 11 20 18 20 18 17 -31 -3 -48 -2 -50 25 -53 25 -3 28 -7 23 -28 -4
-13 -19 -45 -35 -72 -16 -27 -32 -59 -36 -70 -5 -18 -2 -22 14 -22 11 0 28 12
38 28 10 15 25 41 33 57 8 17 23 42 33 57 14 21 16 32 7 47 -5 11 -24 28 -41
38 -22 13 -29 24 -27 43 2 19 15 30 51 47 26 13 47 30 47 38 0 9 -7 18 -16 22
-9 3 -30 -2 -46 -11 -16 -10 -32 -15 -35 -12 -4 3 -1 16 5 28 7 13 17 31 24
40 9 13 9 22 0 42 -6 14 -17 26 -25 26z"/>
</g>
</svg>
