<?xml version="1.0" standalone="no"?>
<!DOCTYPE svg PUBLIC "-//W3C//DTD SVG 20010904//EN"
 "http://www.w3.org/TR/2001/REC-SVG-20010904/DTD/svg10.dtd">
<svg version="1.0" xmlns="http://www.w3.org/2000/svg"
 width="56.000000pt" height="56.000000pt" viewBox="0 0 56.000000 56.000000"
 preserveAspectRatio="xMidYMid meet">
<metadata>
Created by potrace 1.16, written by Peter Selinger 2001-2019
</metadata>
<g transform="translate(0.000000,56.000000) scale(0.100000,-0.100000)"
fill="#000000" stroke="none">
<path d="M381 509 c-3 0 -27 -8 -53 -17 -26 -9 -64 -32 -85 -50 -21 -18 -62
-51 -92 -73 -30 -21 -62 -39 -70 -39 -9 -1 -29 -11 -45 -24 -19 -16 -27 -30
-23 -40 4 -9 17 -16 31 -16 14 0 28 -4 31 -10 3 -5 15 -10 25 -10 11 0 48 28
82 61 35 34 83 76 107 95 31 24 54 34 80 34 20 0 46 -8 57 -18 12 -9 30 -33
39 -52 10 -19 20 -48 21 -63 3 -18 -2 -30 -11 -33 -8 -4 -15 -12 -15 -19 0 -8
-24 -38 -52 -67 -29 -29 -68 -65 -87 -79 -25 -18 -33 -30 -28 -42 5 -13 13
-16 34 -11 15 4 49 23 75 41 26 19 50 43 53 54 4 10 19 26 35 34 15 8 31 26
34 40 4 14 13 25 21 25 11 0 15 12 15 44 0 25 -4 47 -9 50 -5 3 -12 18 -16 33
-3 16 -17 42 -30 59 -13 17 -45 46 -71 63 -26 17 -50 31 -53 30z"/>
</g>
</svg>
