<?xml version="1.0" standalone="no"?>
<!DOCTYPE svg PUBLIC "-//W3C//DTD SVG 20010904//EN"
 "http://www.w3.org/TR/2001/REC-SVG-20010904/DTD/svg10.dtd">
<svg version="1.0" xmlns="http://www.w3.org/2000/svg"
 width="56.000000pt" height="56.000000pt" viewBox="0 0 56.000000 56.000000"
 preserveAspectRatio="xMidYMid meet">
<metadata>
Created by potrace 1.16, written by Peter Selinger 2001-2019
</metadata>
<g transform="translate(0.000000,56.000000) scale(0.100000,-0.100000)"
fill="#000000" stroke="none">
<path d="M308 560 c-28 0 -38 -8 -68 -52 -19 -28 -45 -67 -56 -87 -12 -19 -27
-37 -34 -39 -8 -3 -24 -17 -36 -31 -13 -14 -24 -30 -24 -34 0 -4 -18 -36 -40
-69 -22 -34 -40 -66 -40 -70 0 -5 7 -25 15 -45 9 -20 20 -42 27 -50 8 -11 20
-4 59 32 26 25 52 45 56 45 4 0 33 23 63 51 30 27 74 63 98 79 24 17 56 36 71
44 25 13 31 13 59 -4 17 -11 34 -31 38 -45 3 -14 3 -40 0 -59 -4 -19 -13 -47
-21 -64 -9 -16 -34 -45 -58 -64 -23 -19 -64 -48 -92 -64 -50 -29 -50 -29 -13
-32 25 -2 54 6 91 25 30 15 73 50 96 76 41 48 41 48 41 131 0 80 -1 83 -33
114 -27 26 -41 32 -78 32 -28 0 -64 -9 -94 -24 -26 -14 -62 -38 -79 -54 -17
-16 -56 -45 -87 -66 -31 -20 -63 -36 -73 -36 -9 0 -16 3 -16 8 0 4 10 18 21
32 11 14 35 49 54 78 19 29 60 78 91 110 31 31 65 71 75 87 10 17 19 33 19 38
0 4 -15 7 -32 7z"/>
</g>
</svg>
