<?xml version="1.0" standalone="no"?>
<!DOCTYPE svg PUBLIC "-//W3C//DTD SVG 20010904//EN"
 "http://www.w3.org/TR/2001/REC-SVG-20010904/DTD/svg10.dtd">
<svg version="1.0" xmlns="http://www.w3.org/2000/svg"
 width="56.000000pt" height="56.000000pt" viewBox="0 0 56.000000 56.000000"
 preserveAspectRatio="xMidYMid meet">
<metadata>
Created by potrace 1.16, written by Peter Selinger 2001-2019
</metadata>
<g transform="translate(0.000000,56.000000) scale(0.100000,-0.100000)"
fill="#000000" stroke="none">
<path d="M397 560 c-51 0 -54 -2 -102 -54 -26 -30 -53 -52 -60 -50 -6 3 -20
-4 -30 -16 -10 -11 -22 -20 -27 -20 -5 0 -26 -12 -48 -26 -22 -15 -40 -33 -40
-40 0 -8 -18 -26 -40 -40 -26 -17 -40 -34 -40 -48 0 -11 -3 -31 -6 -43 -5 -19
-2 -21 20 -19 15 2 32 8 38 14 5 5 16 21 24 34 7 12 18 35 25 51 6 15 22 30
35 33 15 4 34 0 49 -10 18 -12 36 -15 62 -10 20 4 48 13 62 20 14 8 37 14 50
14 14 0 41 -6 60 -12 20 -7 41 -20 48 -28 7 -8 13 -22 13 -31 0 -9 -7 -30 -16
-48 -9 -17 -40 -50 -70 -72 -30 -22 -54 -45 -54 -51 0 -7 -18 -33 -41 -60 -40
-48 -40 -48 -11 -48 15 0 47 9 71 21 29 13 41 25 37 35 -4 10 2 14 20 14 14 0
38 7 54 15 17 9 30 22 30 30 0 7 11 22 25 33 25 20 25 20 0 26 -14 4 -25 10
-25 15 0 5 7 14 15 21 8 7 15 25 15 40 0 15 -6 43 -14 61 -8 19 -29 48 -46 64
-28 27 -37 30 -93 29 -34 -1 -75 -4 -91 -5 -16 -2 -31 1 -33 7 -2 6 39 39 92
73 52 35 95 67 95 72 0 5 -24 9 -53 9z"/>
</g>
</svg>
