<?xml version="1.0" standalone="no"?>
<!DOCTYPE svg PUBLIC "-//W3C//DTD SVG 20010904//EN"
 "http://www.w3.org/TR/2001/REC-SVG-20010904/DTD/svg10.dtd">
<svg version="1.0" xmlns="http://www.w3.org/2000/svg"
 width="56.000000pt" height="56.000000pt" viewBox="0 0 56.000000 56.000000"
 preserveAspectRatio="xMidYMid meet">
<metadata>
Created by potrace 1.16, written by Peter Selinger 2001-2019
</metadata>
<g transform="translate(0.000000,56.000000) scale(0.100000,-0.100000)"
fill="#000000" stroke="none">
<path d="M128 529 c-13 -1 -39 -4 -58 -8 -29 -5 -36 -12 -44 -41 -5 -19 -9
-64 -8 -99 1 -44 7 -70 19 -83 11 -12 30 -18 60 -18 39 0 49 5 76 36 18 20 60
61 95 90 48 41 71 54 96 54 21 0 39 -8 52 -22 10 -13 25 -33 32 -45 6 -13 12
-35 12 -50 0 -16 -16 -52 -38 -83 -24 -34 -62 -70 -102 -97 -36 -24 -80 -48
-100 -54 -19 -6 -53 -26 -74 -44 -22 -18 -36 -37 -32 -43 4 -7 19 -9 38 -5 18
3 46 16 64 28 18 12 47 27 65 34 19 7 43 17 54 21 11 4 36 14 55 21 19 6 49
21 67 31 17 10 40 36 52 57 11 22 23 55 26 75 4 20 11 36 16 36 5 0 9 14 9 30
0 17 -4 30 -9 30 -5 0 -14 12 -20 28 -7 15 -23 40 -36 56 -18 23 -36 31 -77
38 -29 5 -67 11 -83 14 -24 4 -40 -2 -75 -29 -25 -18 -65 -47 -90 -63 -25 -16
-55 -34 -67 -40 -12 -7 -24 -10 -27 -7 -2 3 0 17 6 31 6 15 24 44 40 64 15 20
28 42 28 47 0 6 -10 10 -22 10z"/>
</g>
</svg>
