<?xml version="1.0" standalone="no"?>
<!DOCTYPE svg PUBLIC "-//W3C//DTD SVG 20010904//EN"
 "http://www.w3.org/TR/2001/REC-SVG-20010904/DTD/svg10.dtd">
<svg version="1.0" xmlns="http://www.w3.org/2000/svg"
 width="56.000000pt" height="56.000000pt" viewBox="0 0 56.000000 56.000000"
 preserveAspectRatio="xMidYMid meet">
<metadata>
Created by potrace 1.16, written by Peter Selinger 2001-2019
</metadata>
<g transform="translate(0.000000,56.000000) scale(0.100000,-0.100000)"
fill="#000000" stroke="none">
<path d="M405 500 c-5 0 -17 -5 -25 -10 -8 -5 -33 -10 -56 -10 -27 0 -55 -10
-88 -30 -34 -22 -68 -33 -116 -39 -37 -5 -79 -6 -94 -4 -19 4 -26 1 -26 -10 0
-9 19 -32 42 -51 23 -20 51 -36 63 -36 12 0 32 11 45 25 13 14 46 36 74 50 27
14 55 25 62 25 6 0 17 6 23 14 6 8 23 16 36 19 14 2 25 0 25 -4 0 -5 10 -8 23
-7 12 1 35 -7 50 -17 16 -10 32 -28 37 -39 4 -12 3 -34 -3 -51 -6 -16 -27 -55
-46 -85 -20 -30 -43 -68 -51 -85 -8 -16 -21 -36 -27 -43 -7 -7 -13 -18 -13
-23 0 -5 -7 -9 -15 -9 -8 0 -15 -7 -15 -15 0 -9 9 -15 21 -15 13 0 44 23 78
59 31 32 71 80 90 107 18 26 36 65 39 86 2 21 9 38 13 38 5 0 9 9 9 20 0 10
-12 32 -27 47 -16 15 -48 43 -73 61 -25 17 -49 32 -55 32z"/>
</g>
</svg>
