<?xml version="1.0" standalone="no"?>
<!DOCTYPE svg PUBLIC "-//W3C//DTD SVG 20010904//EN"
 "http://www.w3.org/TR/2001/REC-SVG-20010904/DTD/svg10.dtd">
<svg version="1.0" xmlns="http://www.w3.org/2000/svg"
 width="56.000000pt" height="56.000000pt" viewBox="0 0 56.000000 56.000000"
 preserveAspectRatio="xMidYMid meet">
<metadata>
Created by potrace 1.16, written by Peter Selinger 2001-2019
</metadata>
<g transform="translate(0.000000,56.000000) scale(0.100000,-0.100000)"
fill="#000000" stroke="none">
<path d="M356 560 c-9 0 -16 -4 -16 -10 0 -5 -10 -18 -22 -30 -12 -11 -30 -20
-40 -20 -10 0 -18 -7 -18 -15 0 -11 11 -15 36 -15 35 0 36 -1 31 -32 -4 -18
-9 -47 -12 -64 -5 -24 -3 -33 10 -38 10 -3 24 -1 32 5 7 7 16 10 18 7 3 -2 -3
-24 -12 -47 -17 -42 -16 -44 7 -89 14 -25 23 -56 21 -70 -2 -21 0 -23 21 -17
12 4 33 18 45 31 12 13 20 31 17 39 -3 8 -21 24 -40 36 -22 13 -34 28 -34 42
0 12 18 47 40 77 37 50 38 55 23 72 -9 10 -23 18 -31 18 -7 0 -27 -9 -43 -21
-20 -14 -29 -16 -29 -7 0 7 9 36 19 63 16 41 17 53 6 68 -7 9 -20 17 -29 17z"/>
<path d="M125 440 c-9 0 -15 -20 -18 -57 -3 -32 -11 -114 -18 -182 -12 -117
-12 -125 6 -160 14 -25 28 -37 46 -39 18 -2 29 3 33 14 3 9 3 52 0 97 -6 72
-9 78 -21 61 -12 -17 -13 -12 -6 36 4 30 8 75 7 100 -1 25 -5 64 -9 88 -4 23
-13 42 -20 42z"/>
</g>
</svg>
