<?xml version="1.0" standalone="no"?>
<!DOCTYPE svg PUBLIC "-//W3C//DTD SVG 20010904//EN"
 "http://www.w3.org/TR/2001/REC-SVG-20010904/DTD/svg10.dtd">
<svg version="1.0" xmlns="http://www.w3.org/2000/svg"
 width="56.000000pt" height="56.000000pt" viewBox="0 0 56.000000 56.000000"
 preserveAspectRatio="xMidYMid meet">
<metadata>
Created by potrace 1.16, written by Peter Selinger 2001-2019
</metadata>
<g transform="translate(0.000000,56.000000) scale(0.100000,-0.100000)"
fill="#000000" stroke="none">
<path d="M224 560 c-19 0 -28 -7 -35 -29 -6 -16 -19 -31 -30 -34 -11 -3 -19
-11 -18 -19 1 -7 -2 -22 -6 -33 -5 -11 -11 -22 -14 -25 -3 -3 -22 -30 -42 -60
-19 -30 -40 -66 -46 -80 -6 -14 -13 -35 -16 -46 -2 -12 -1 -56 3 -98 5 -52 13
-83 25 -97 10 -10 22 -16 26 -12 5 5 24 48 44 98 20 50 43 100 51 112 8 12 14
30 14 39 0 9 15 36 33 60 17 24 38 46 45 48 7 3 21 -9 33 -29 12 -19 29 -35
39 -35 11 0 29 18 44 44 14 25 26 51 26 58 0 8 13 27 30 43 16 16 32 26 34 24
3 -3 10 -36 15 -74 6 -39 12 -130 13 -203 3 -133 3 -133 -36 -143 -28 -8 -46
-7 -67 1 -17 8 -47 9 -79 5 -34 -5 -54 -13 -60 -25 -6 -10 -10 -26 -10 -35 0
-12 8 -16 33 -13 25 2 33 8 35 26 3 19 8 23 25 18 12 -4 42 -11 67 -16 25 -4
58 -13 73 -19 16 -6 36 -11 46 -11 17 0 18 16 16 247 -3 247 -3 247 -29 270
-15 13 -36 23 -47 23 -11 0 -22 -7 -25 -15 -4 -8 -20 -30 -38 -49 -17 -18 -38
-44 -47 -57 -17 -24 -17 -24 -43 0 -23 22 -29 23 -64 13 -34 -10 -41 -19 -72
-88 -19 -42 -40 -86 -47 -98 -7 -11 -17 -31 -23 -44 -5 -13 -14 -20 -20 -17
-5 3 -10 18 -10 31 0 14 21 68 46 120 26 52 50 94 55 94 5 0 17 17 27 37 9 21
25 45 35 55 9 10 17 23 17 28 0 6 -11 10 -26 10z"/>
</g>
</svg>
