<?xml version="1.0" standalone="no"?>
<!DOCTYPE svg PUBLIC "-//W3C//DTD SVG 20010904//EN"
 "http://www.w3.org/TR/2001/REC-SVG-20010904/DTD/svg10.dtd">
<svg version="1.0" xmlns="http://www.w3.org/2000/svg"
 width="56.000000pt" height="56.000000pt" viewBox="0 0 56.000000 56.000000"
 preserveAspectRatio="xMidYMid meet">
<metadata>
Created by potrace 1.16, written by Peter Selinger 2001-2019
</metadata>
<g transform="translate(0.000000,56.000000) scale(0.100000,-0.100000)"
fill="#000000" stroke="none">
<path d="M180 560 c-11 0 -20 -4 -20 -8 0 -5 -11 -22 -25 -38 -14 -16 -25 -32
-25 -36 0 -4 -13 -26 -28 -50 -16 -24 -37 -65 -46 -93 -10 -27 -20 -67 -23
-88 -3 -20 -2 -44 1 -53 5 -13 9 -14 33 -1 16 8 57 30 93 48 35 18 83 46 106
63 23 17 56 40 75 51 19 11 49 25 67 32 24 9 40 10 53 3 10 -6 23 -28 29 -50
6 -21 8 -57 4 -79 -4 -22 -15 -48 -25 -57 -11 -9 -19 -22 -19 -29 0 -6 -29
-38 -65 -70 -36 -32 -78 -64 -93 -72 -15 -8 -31 -18 -37 -24 -5 -5 0 -9 16 -9
13 0 41 11 61 25 20 14 43 25 51 25 8 0 20 7 27 15 7 8 18 15 25 15 8 0 22 11
33 25 11 14 24 25 29 25 6 0 17 8 26 18 8 9 21 37 28 62 7 25 12 54 11 64 -1
11 3 23 10 28 9 6 10 10 2 16 -6 4 -16 17 -23 29 -6 12 -11 32 -11 46 0 13
-10 33 -23 45 -14 14 -36 22 -57 22 -18 0 -50 -6 -69 -12 -20 -7 -88 -43 -151
-80 -63 -38 -122 -68 -132 -68 -11 0 -18 7 -18 18 0 9 6 28 13 42 8 14 23 41
34 61 12 20 27 47 35 60 7 12 21 32 31 43 9 11 17 23 17 28 0 4 -9 8 -20 8z"/>
</g>
</svg>
