<?xml version="1.0" standalone="no"?>
<!DOCTYPE svg PUBLIC "-//W3C//DTD SVG 20010904//EN"
 "http://www.w3.org/TR/2001/REC-SVG-20010904/DTD/svg10.dtd">
<svg version="1.0" xmlns="http://www.w3.org/2000/svg"
 width="56.000000pt" height="56.000000pt" viewBox="0 0 56.000000 56.000000"
 preserveAspectRatio="xMidYMid meet">
<metadata>
Created by potrace 1.16, written by Peter Selinger 2001-2019
</metadata>
<g transform="translate(0.000000,56.000000) scale(0.100000,-0.100000)"
fill="#000000" stroke="none">
<path d="M385 480 c-5 0 -38 -14 -72 -30 -35 -17 -70 -30 -78 -30 -8 0 -23 -4
-33 -9 -9 -5 -28 -13 -42 -19 -14 -5 -38 -15 -53 -21 -16 -6 -32 -9 -37 -6 -4
2 -15 20 -24 39 -11 24 -21 33 -31 30 -11 -5 -15 -23 -15 -70 0 -53 3 -65 21
-78 20 -14 30 -11 139 45 64 32 123 59 132 59 9 0 33 7 54 16 29 12 43 13 56
5 10 -6 24 -11 32 -11 7 0 20 -15 27 -32 8 -18 13 -58 13 -89 -1 -42 -8 -68
-26 -100 -15 -24 -38 -55 -52 -68 -14 -13 -23 -28 -20 -32 3 -5 22 -9 42 -9
33 0 40 5 67 48 16 26 35 59 42 75 6 15 17 27 23 27 5 0 10 21 10 46 0 27 -6
51 -15 60 -8 9 -15 25 -15 37 0 13 -10 38 -23 56 -16 24 -37 38 -68 47 -24 8
-48 14 -54 14z"/>
</g>
</svg>
