<?xml version="1.0" standalone="no"?>
<!DOCTYPE svg PUBLIC "-//W3C//DTD SVG 20010904//EN"
 "http://www.w3.org/TR/2001/REC-SVG-20010904/DTD/svg10.dtd">
<svg version="1.0" xmlns="http://www.w3.org/2000/svg"
 width="56.000000pt" height="56.000000pt" viewBox="0 0 56.000000 56.000000"
 preserveAspectRatio="xMidYMid meet">
<metadata>
Created by potrace 1.16, written by Peter Selinger 2001-2019
</metadata>
<g transform="translate(0.000000,56.000000) scale(0.100000,-0.100000)"
fill="#000000" stroke="none">
<path d="M263 559 c-10 -1 -33 -16 -50 -33 -18 -18 -33 -38 -33 -45 0 -7 -9
-24 -20 -38 -11 -14 -20 -32 -20 -39 0 -8 -9 -23 -21 -35 -14 -14 -19 -29 -16
-45 2 -14 -2 -29 -10 -36 -8 -7 -19 -23 -24 -36 -6 -17 -5 -33 6 -56 9 -18 16
-54 17 -79 0 -33 5 -47 15 -47 7 0 16 -7 19 -15 4 -8 14 -15 24 -15 10 0 23 6
29 14 7 8 11 36 11 63 -1 26 7 93 17 148 10 55 22 106 27 113 4 6 11 12 16 12
5 0 7 -6 4 -14 -4 -9 6 -21 26 -31 25 -13 35 -14 46 -4 8 6 14 27 14 46 0 18
7 49 14 68 8 19 22 35 31 35 8 0 20 -12 26 -27 6 -17 7 -92 1 -217 -4 -106
-12 -197 -16 -204 -4 -7 -22 -12 -41 -12 -21 0 -37 6 -43 17 -6 10 -16 14 -27
9 -14 -5 -15 -10 -7 -18 8 -8 7 -15 -6 -24 -14 -11 -2 -13 80 -14 53 0 99 4
102 8 3 5 7 113 10 240 4 191 2 233 -10 243 -8 6 -14 17 -14 24 0 7 -7 16 -16
19 -9 3 -26 6 -38 6 -13 0 -29 -8 -37 -17 -8 -10 -26 -40 -39 -66 -15 -30 -28
-46 -37 -43 -7 3 -24 1 -37 -4 -14 -5 -29 -17 -35 -28 -5 -10 -19 -64 -30
-121 -12 -56 -20 -105 -20 -109 1 -4 1 -11 0 -16 0 -5 -8 -3 -16 4 -10 8 -15
31 -15 71 0 32 5 61 10 64 6 3 10 16 10 29 0 12 4 26 8 31 5 6 15 26 23 45 7
19 25 53 40 75 15 22 37 49 48 59 12 11 21 25 21 33 0 7 -8 12 -17 12z"/>
</g>
</svg>
