<?xml version="1.0" standalone="no"?>
<!DOCTYPE svg PUBLIC "-//W3C//DTD SVG 20010904//EN"
 "http://www.w3.org/TR/2001/REC-SVG-20010904/DTD/svg10.dtd">
<svg version="1.0" xmlns="http://www.w3.org/2000/svg"
 width="56.000000pt" height="56.000000pt" viewBox="0 0 56.000000 56.000000"
 preserveAspectRatio="xMidYMid meet">
<metadata>
Created by potrace 1.16, written by Peter Selinger 2001-2019
</metadata>
<g transform="translate(0.000000,56.000000) scale(0.100000,-0.100000)"
fill="#000000" stroke="none">
<path d="M348 540 c-25 0 -46 -16 -122 -93 -50 -51 -107 -106 -128 -121 -20
-15 -39 -38 -42 -53 -6 -20 -12 -24 -31 -20 -20 3 -25 0 -25 -18 0 -12 10 -27
24 -34 20 -11 29 -10 65 9 23 11 66 36 96 55 29 19 57 39 60 45 4 6 33 24 65
40 33 17 73 30 90 30 27 0 34 -6 55 -52 14 -29 25 -59 25 -65 0 -7 -17 -37
-37 -65 -20 -29 -59 -79 -85 -110 -27 -32 -46 -62 -43 -68 3 -5 18 -10 32 -10
14 0 40 7 59 16 19 9 55 39 79 66 25 28 45 59 45 69 0 11 7 22 15 25 9 4 15
19 15 40 0 19 -4 34 -10 34 -5 0 -10 9 -10 20 0 12 -11 43 -25 70 -14 27 -35
56 -48 65 -18 12 -34 13 -82 5 -34 -6 -63 -6 -68 -1 -5 5 -4 17 2 29 6 11 24
32 41 46 17 14 28 30 25 36 -3 5 -20 10 -37 10z"/>
</g>
</svg>
