<?xml version="1.0" standalone="no"?>
<!DOCTYPE svg PUBLIC "-//W3C//DTD SVG 20010904//EN"
 "http://www.w3.org/TR/2001/REC-SVG-20010904/DTD/svg10.dtd">
<svg version="1.0" xmlns="http://www.w3.org/2000/svg"
 width="56.000000pt" height="56.000000pt" viewBox="0 0 56.000000 56.000000"
 preserveAspectRatio="xMidYMid meet">
<metadata>
Created by potrace 1.16, written by Peter Selinger 2001-2019
</metadata>
<g transform="translate(0.000000,56.000000) scale(0.100000,-0.100000)"
fill="#000000" stroke="none">
<path d="M400 520 c-8 0 -23 -5 -33 -11 -11 -6 -24 -12 -30 -13 -7 -1 -31 -12
-54 -24 -23 -12 -51 -22 -62 -22 -11 0 -22 -4 -25 -9 -3 -4 -29 -11 -57 -14
-32 -4 -58 -2 -66 4 -9 9 -14 7 -19 -6 -5 -12 -14 -15 -30 -11 -14 4 -24 2
-24 -4 0 -5 5 -10 11 -10 6 0 20 -11 31 -25 11 -14 30 -25 43 -25 13 0 27 -4
30 -10 3 -5 17 -10 31 -10 14 0 45 14 69 30 24 17 48 30 53 30 6 0 12 3 14 8
2 4 32 20 68 35 36 15 70 27 76 27 6 0 17 6 23 14 10 11 7 17 -11 30 -12 9
-29 16 -38 16z"/>
<path d="M488 460 c-13 0 -18 -8 -19 -27 -1 -16 0 -32 1 -38 2 -5 3 -17 2 -25
0 -8 -3 -32 -6 -52 -2 -20 -19 -63 -38 -95 -18 -32 -39 -69 -46 -83 -7 -14
-18 -32 -25 -41 -7 -8 -24 -24 -39 -33 -15 -10 -25 -22 -22 -27 3 -5 21 -9 41
-9 29 0 42 8 76 46 23 26 61 83 85 127 23 44 42 91 42 104 0 13 5 23 10 23 6
0 10 15 10 34 0 23 -9 44 -27 65 -15 17 -35 31 -45 31z"/>
</g>
</svg>
