<?xml version="1.0" standalone="no"?>
<!DOCTYPE svg PUBLIC "-//W3C//DTD SVG 20010904//EN"
 "http://www.w3.org/TR/2001/REC-SVG-20010904/DTD/svg10.dtd">
<svg version="1.0" xmlns="http://www.w3.org/2000/svg"
 width="56.000000pt" height="56.000000pt" viewBox="0 0 56.000000 56.000000"
 preserveAspectRatio="xMidYMid meet">
<metadata>
Created by potrace 1.16, written by Peter Selinger 2001-2019
</metadata>
<g transform="translate(0.000000,56.000000) scale(0.100000,-0.100000)"
fill="#000000" stroke="none">
<path d="M372 560 c-34 0 -44 -7 -94 -62 -32 -35 -90 -98 -131 -140 -40 -43
-78 -78 -84 -78 -5 0 -18 -9 -27 -19 -13 -14 -16 -28 -11 -55 4 -19 14 -41 22
-48 13 -10 18 -8 34 12 10 14 33 44 51 67 25 32 38 41 53 36 11 -3 43 -8 71
-10 43 -4 55 -1 80 20 16 13 40 26 54 29 14 3 33 9 43 13 14 6 17 2 17 -19 0
-14 7 -44 16 -66 16 -40 16 -40 -16 -74 -18 -18 -52 -43 -76 -55 -24 -12 -46
-26 -49 -32 -4 -5 -36 -24 -73 -41 -62 -31 -65 -33 -37 -36 17 -2 46 4 65 13
19 10 43 21 53 26 9 5 27 15 40 22 12 6 24 14 27 17 3 3 15 11 27 18 13 6 29
12 38 12 8 0 27 18 41 40 24 36 26 45 19 97 -5 42 -14 65 -33 86 -21 22 -35
27 -71 27 -28 0 -59 -8 -77 -19 -18 -11 -52 -22 -77 -26 -26 -4 -47 -3 -51 3
-3 5 7 27 23 48 16 22 61 71 100 109 39 39 71 73 71 78 0 4 -17 7 -38 7z"/>
</g>
</svg>
