<?xml version="1.0" standalone="no"?>
<!DOCTYPE svg PUBLIC "-//W3C//DTD SVG 20010904//EN"
 "http://www.w3.org/TR/2001/REC-SVG-20010904/DTD/svg10.dtd">
<svg version="1.0" xmlns="http://www.w3.org/2000/svg"
 width="56.000000pt" height="56.000000pt" viewBox="0 0 56.000000 56.000000"
 preserveAspectRatio="xMidYMid meet">
<metadata>
Created by potrace 1.16, written by Peter Selinger 2001-2019
</metadata>
<g transform="translate(0.000000,56.000000) scale(0.100000,-0.100000)"
fill="#000000" stroke="none">
<path d="M172 420 c-15 0 -37 -8 -49 -18 -12 -9 -37 -37 -57 -60 -23 -28 -36
-54 -36 -72 0 -16 7 -36 16 -44 8 -9 22 -16 30 -16 8 0 23 9 34 20 11 11 28
20 38 20 10 0 36 15 58 34 21 18 50 37 64 41 14 4 42 17 63 28 35 20 41 20 80
7 32 -12 46 -24 61 -53 15 -31 16 -44 7 -63 -6 -13 -16 -24 -23 -24 -7 0 -25
-12 -40 -25 -16 -13 -28 -29 -28 -35 0 -5 5 -10 11 -10 6 0 20 5 32 12 12 6
28 19 35 30 7 10 18 18 23 18 6 0 -2 -15 -16 -34 -22 -29 -23 -34 -9 -40 8 -3
33 -6 55 -6 39 0 39 0 39 45 0 25 -4 45 -10 45 -5 0 -10 13 -10 28 0 15 -13
49 -29 74 -17 26 -44 53 -63 62 -18 9 -46 16 -63 17 -16 1 -50 -4 -75 -10 -25
-7 -61 -21 -80 -31 -19 -10 -52 -26 -73 -36 -25 -11 -42 -13 -48 -7 -7 7 9 23
45 48 31 21 53 42 50 46 -3 5 -17 9 -32 9z"/>
<path d="M544 420 c-10 0 -14 -7 -12 -22 2 -12 9 -23 16 -26 7 -2 12 6 12 22
0 17 -5 26 -16 26z"/>
</g>
</svg>
