<?xml version="1.0" standalone="no"?>
<!DOCTYPE svg PUBLIC "-//W3C//DTD SVG 20010904//EN"
 "http://www.w3.org/TR/2001/REC-SVG-20010904/DTD/svg10.dtd">
<svg version="1.0" xmlns="http://www.w3.org/2000/svg"
 width="56.000000pt" height="56.000000pt" viewBox="0 0 56.000000 56.000000"
 preserveAspectRatio="xMidYMid meet">
<metadata>
Created by potrace 1.16, written by Peter Selinger 2001-2019
</metadata>
<g transform="translate(0.000000,56.000000) scale(0.100000,-0.100000)"
fill="#000000" stroke="none">
<path d="M84 560 c-13 0 -14 -7 -8 -42 4 -24 7 -47 6 -53 -1 -5 -6 -44 -12
-85 -5 -41 -16 -110 -24 -154 -12 -68 -11 -87 1 -145 8 -36 19 -70 24 -75 5
-5 15 -4 24 4 13 11 15 28 9 105 -4 54 -2 127 5 180 7 49 17 97 22 107 6 12 5
24 -3 38 -10 15 -10 22 0 32 6 6 12 21 12 33 0 11 -9 28 -20 38 -11 9 -27 17
-36 17z"/>
<path d="M350 560 c-8 -1 -21 -8 -29 -17 -13 -14 -12 -18 7 -31 14 -9 22 -25
22 -41 0 -15 -5 -32 -12 -39 -9 -9 -9 -18 0 -37 7 -14 12 -35 12 -45 0 -11 -9
-24 -20 -30 -11 -6 -20 -17 -20 -26 0 -8 7 -17 15 -20 12 -5 14 -15 9 -41 -4
-24 -2 -39 9 -51 10 -11 13 -27 10 -44 -3 -16 -12 -28 -20 -28 -8 0 -28 13
-44 29 -16 16 -29 39 -29 50 0 12 9 29 20 38 11 10 20 25 20 35 0 12 -8 18
-24 18 -17 0 -34 -12 -50 -33 -15 -19 -26 -45 -26 -58 0 -15 19 -43 52 -77 53
-53 53 -53 26 -77 -16 -13 -28 -27 -28 -31 0 -3 19 -4 43 0 23 3 59 8 80 12
20 3 37 12 37 18 0 7 17 26 38 42 20 17 45 33 55 37 9 3 17 14 17 24 0 10 -11
32 -24 48 -19 24 -32 30 -63 30 -38 0 -38 0 -35 55 2 30 9 66 15 80 7 14 25
31 40 38 15 7 27 21 27 32 0 11 -5 31 -12 45 -7 16 -23 28 -40 32 -17 3 -35
17 -45 34 -10 16 -24 29 -33 29z m65 -110 c8 0 15 -6 15 -13 0 -7 -7 -22 -15
-33 -14 -18 -14 -17 -15 14 0 22 5 32 15 32z m5 -280 c11 0 20 -5 20 -10 0 -6
-7 -25 -16 -41 -8 -17 -21 -28 -27 -26 -7 2 -11 15 -9 28 1 13 4 30 7 37 2 6
14 12 25 12z"/>
<path d="M226 440 c-13 0 -27 -8 -31 -17 -4 -12 1 -24 15 -35 12 -10 32 -18
44 -18 12 0 32 7 44 16 12 8 20 19 17 24 -3 4 -15 6 -26 3 -14 -4 -25 0 -31
11 -5 9 -20 16 -32 16z"/>
</g>
</svg>
