<?xml version="1.0" standalone="no"?>
<!DOCTYPE svg PUBLIC "-//W3C//DTD SVG 20010904//EN"
 "http://www.w3.org/TR/2001/REC-SVG-20010904/DTD/svg10.dtd">
<svg version="1.0" xmlns="http://www.w3.org/2000/svg"
 width="56.000000pt" height="56.000000pt" viewBox="0 0 56.000000 56.000000"
 preserveAspectRatio="xMidYMid meet">
<metadata>
Created by potrace 1.16, written by Peter Selinger 2001-2019
</metadata>
<g transform="translate(0.000000,56.000000) scale(0.100000,-0.100000)"
fill="#000000" stroke="none">
<path d="M285 538 c-23 2 -37 -5 -59 -28 -15 -17 -42 -37 -60 -45 -17 -8 -45
-23 -61 -32 -17 -10 -45 -29 -62 -43 -26 -21 -32 -34 -37 -85 -7 -60 -7 -60
13 -27 12 17 25 32 31 32 5 0 10 7 10 15 0 9 11 27 24 41 23 26 23 26 66 5 24
-12 52 -21 63 -21 10 0 27 5 37 10 10 6 47 14 81 19 62 8 62 8 106 -38 42 -44
44 -48 40 -98 -2 -34 -11 -60 -23 -74 -10 -12 -29 -25 -41 -30 -16 -6 -23 -17
-23 -34 0 -18 -8 -29 -27 -38 -16 -6 -33 -19 -40 -27 -6 -8 -9 -18 -7 -22 3
-5 13 -8 22 -8 10 0 23 9 30 20 7 11 18 20 25 20 6 0 43 27 80 60 38 33 72 60
78 60 5 0 9 20 9 44 0 24 -3 46 -7 48 -5 2 -19 24 -32 50 -13 26 -39 65 -57
87 -30 34 -39 39 -71 37 -21 -2 -66 -9 -100 -16 -35 -7 -63 -17 -63 -23 0 -7
-4 -7 -12 1 -7 7 -20 12 -30 12 -10 0 -18 4 -18 9 0 5 12 18 28 29 15 11 47
31 71 44 23 13 44 29 45 34 0 5 -12 10 -29 12z"/>
</g>
</svg>
