<?xml version="1.0" standalone="no"?>
<!DOCTYPE svg PUBLIC "-//W3C//DTD SVG 20010904//EN"
 "http://www.w3.org/TR/2001/REC-SVG-20010904/DTD/svg10.dtd">
<svg version="1.0" xmlns="http://www.w3.org/2000/svg"
 width="56.000000pt" height="56.000000pt" viewBox="0 0 56.000000 56.000000"
 preserveAspectRatio="xMidYMid meet">
<metadata>
Created by potrace 1.16, written by Peter Selinger 2001-2019
</metadata>
<g transform="translate(0.000000,56.000000) scale(0.100000,-0.100000)"
fill="#000000" stroke="none">
<path d="M400 469 c-8 0 -40 -14 -70 -31 -30 -16 -69 -40 -87 -54 -18 -13 -53
-33 -78 -44 -26 -11 -54 -20 -62 -20 -8 0 -29 12 -46 26 -27 22 -32 24 -45 10
-12 -12 -13 -20 -3 -43 6 -15 25 -36 42 -45 17 -10 45 -18 62 -18 21 0 50 13
82 36 28 20 60 40 73 45 12 5 47 27 78 49 33 25 63 40 77 38 12 -2 32 -18 44
-37 13 -19 23 -45 23 -58 0 -13 -9 -43 -21 -66 -11 -23 -43 -63 -71 -89 -27
-27 -54 -48 -59 -48 -5 0 -9 -9 -9 -20 0 -11 6 -23 14 -26 8 -3 45 15 83 40
51 34 75 58 93 93 14 27 28 50 33 51 4 2 7 31 7 64 0 53 -3 63 -33 94 -20 22
-48 39 -72 44 -22 5 -47 9 -55 9z"/>
</g>
</svg>
