<?xml version="1.0" standalone="no"?>
<!DOCTYPE svg PUBLIC "-//W3C//DTD SVG 20010904//EN"
 "http://www.w3.org/TR/2001/REC-SVG-20010904/DTD/svg10.dtd">
<svg version="1.0" xmlns="http://www.w3.org/2000/svg"
 width="56.000000pt" height="56.000000pt" viewBox="0 0 56.000000 56.000000"
 preserveAspectRatio="xMidYMid meet">
<metadata>
Created by potrace 1.16, written by Peter Selinger 2001-2019
</metadata>
<g transform="translate(0.000000,56.000000) scale(0.100000,-0.100000)"
fill="#000000" stroke="none">
<path d="M361 560 c-21 0 -32 -6 -36 -20 -3 -11 -10 -20 -15 -20 -4 0 -17 -15
-28 -34 -11 -19 -53 -58 -92 -86 -55 -40 -68 -55 -60 -65 7 -8 7 -16 2 -19 -6
-3 -12 1 -16 9 -3 8 -11 15 -17 15 -7 0 -31 -15 -55 -33 -24 -17 -44 -35 -44
-39 0 -4 11 -18 24 -32 13 -15 27 -26 32 -26 5 0 20 9 34 20 14 11 48 35 75
54 28 19 71 46 97 60 26 14 49 30 53 36 3 5 15 10 26 10 10 0 34 -10 52 -22
18 -11 47 -43 65 -69 18 -27 32 -58 32 -69 0 -11 -28 -52 -62 -92 -34 -40 -65
-74 -69 -76 -3 -1 -21 -16 -39 -32 -34 -30 -34 -30 7 -30 25 0 46 6 54 16 7 9
32 29 56 45 24 17 43 35 43 41 0 6 14 26 30 45 17 18 30 40 30 48 0 8 5 15 10
15 6 0 10 10 10 23 0 12 -9 33 -20 47 -11 14 -20 30 -20 35 0 6 -17 27 -37 47
-21 20 -49 42 -63 49 -14 7 -43 15 -64 18 -22 4 -41 11 -43 17 -2 6 15 31 37
56 22 25 40 49 40 52 0 3 -13 6 -29 6z"/>
</g>
</svg>
