<?xml version="1.0" standalone="no"?>
<!DOCTYPE svg PUBLIC "-//W3C//DTD SVG 20010904//EN"
 "http://www.w3.org/TR/2001/REC-SVG-20010904/DTD/svg10.dtd">
<svg version="1.0" xmlns="http://www.w3.org/2000/svg"
 width="56.000000pt" height="56.000000pt" viewBox="0 0 56.000000 56.000000"
 preserveAspectRatio="xMidYMid meet">
<metadata>
Created by potrace 1.16, written by Peter Selinger 2001-2019
</metadata>
<g transform="translate(0.000000,56.000000) scale(0.100000,-0.100000)"
fill="#000000" stroke="none">
<path d="M355 479 c-24 0 -62 -12 -95 -29 -30 -16 -78 -34 -105 -40 -28 -7
-68 -17 -90 -23 -22 -6 -44 -12 -48 -15 -4 -2 -3 -10 4 -18 6 -8 26 -21 43
-28 17 -8 38 -16 46 -18 8 -3 71 24 139 59 78 40 134 63 150 61 20 -2 32 -16
53 -58 15 -30 28 -70 28 -89 0 -22 -10 -47 -27 -70 -15 -20 -36 -42 -46 -50
-11 -8 -39 -32 -63 -54 -24 -22 -41 -44 -38 -49 3 -4 16 -8 30 -8 14 0 44 13
68 29 23 16 58 47 78 70 20 22 42 58 49 80 7 23 16 41 21 41 4 0 8 11 8 25 0
14 -4 25 -8 25 -5 0 -14 18 -21 40 -6 22 -22 52 -34 66 -13 14 -41 32 -62 40
-22 7 -58 13 -80 13z"/>
</g>
</svg>
