<?xml version="1.0" standalone="no"?>
<!DOCTYPE svg PUBLIC "-//W3C//DTD SVG 20010904//EN"
 "http://www.w3.org/TR/2001/REC-SVG-20010904/DTD/svg10.dtd">
<svg version="1.0" xmlns="http://www.w3.org/2000/svg"
 width="56.000000pt" height="56.000000pt" viewBox="0 0 56.000000 56.000000"
 preserveAspectRatio="xMidYMid meet">
<metadata>
Created by potrace 1.16, written by Peter Selinger 2001-2019
</metadata>
<g transform="translate(0.000000,56.000000) scale(0.100000,-0.100000)"
fill="#000000" stroke="none">
<path d="M260 560 c-20 0 -30 -5 -30 -15 0 -8 -17 -41 -37 -72 -21 -32 -43
-69 -50 -82 -7 -13 -13 -29 -13 -35 0 -7 -14 -33 -30 -59 -17 -26 -30 -56 -30
-67 0 -10 4 -21 9 -24 5 -4 15 -4 23 -1 7 3 26 26 42 50 15 25 36 50 45 55 12
6 27 3 50 -11 17 -10 36 -19 42 -19 6 0 25 11 43 25 18 14 40 25 50 25 9 0 19
7 23 16 3 8 1 20 -4 25 -6 6 -22 5 -44 -2 -19 -6 -44 -15 -55 -21 -15 -7 -28
-7 -44 2 -12 6 -33 9 -46 6 -13 -4 -24 -2 -24 3 0 5 14 35 31 67 17 33 41 73
55 91 13 17 24 34 24 37 0 3 -13 6 -30 6z"/>
<path d="M434 340 c-13 0 -24 -4 -24 -9 0 -6 5 -13 10 -16 6 -3 10 -24 10 -46
0 -21 -10 -59 -22 -82 -13 -24 -40 -56 -60 -73 -21 -16 -51 -48 -68 -71 -29
-43 -29 -43 -1 -43 24 0 42 14 93 73 36 39 74 86 86 104 12 17 22 41 22 53 0
11 -5 41 -11 66 -10 37 -15 44 -35 44z"/>
</g>
</svg>
