<?xml version="1.0" standalone="no"?>
<!DOCTYPE svg PUBLIC "-//W3C//DTD SVG 20010904//EN"
 "http://www.w3.org/TR/2001/REC-SVG-20010904/DTD/svg10.dtd">
<svg version="1.0" xmlns="http://www.w3.org/2000/svg"
 width="56.000000pt" height="56.000000pt" viewBox="0 0 56.000000 56.000000"
 preserveAspectRatio="xMidYMid meet">
<metadata>
Created by potrace 1.16, written by Peter Selinger 2001-2019
</metadata>
<g transform="translate(0.000000,56.000000) scale(0.100000,-0.100000)"
fill="#000000" stroke="none">
<path d="M240 560 c-17 0 -30 -5 -30 -12 -1 -7 -14 -29 -30 -48 -17 -19 -30
-40 -30 -47 0 -7 -4 -13 -8 -13 -5 0 -18 -28 -30 -63 -11 -34 -24 -98 -28
-142 -5 -67 -4 -83 9 -94 14 -11 19 -6 42 40 14 29 25 57 25 61 0 5 8 26 19
48 10 22 15 44 10 51 -5 9 -13 4 -26 -19 -10 -18 -21 -32 -25 -32 -5 0 -8 5
-8 10 0 6 7 27 15 47 8 19 15 42 15 51 0 8 19 40 42 71 24 31 49 60 55 64 7 4
13 12 13 17 0 6 -13 10 -30 10z"/>
<path d="M403 560 c-4 0 -20 -13 -35 -30 -14 -16 -34 -45 -44 -65 -9 -20 -28
-41 -40 -46 -16 -5 -22 -14 -18 -24 4 -9 14 -20 24 -25 13 -7 21 -5 32 8 7 9
20 35 27 57 8 22 21 50 29 63 8 12 18 22 22 22 4 0 13 -20 19 -44 6 -25 11
-125 11 -222 0 -171 -1 -177 -18 -161 -10 10 -22 17 -26 17 -5 0 -5 -17 -1
-37 4 -21 11 -46 16 -55 5 -10 21 -18 34 -18 21 0 25 5 26 30 1 17 3 42 5 58
2 15 7 83 10 152 3 69 1 158 -4 199 -9 59 -16 79 -36 98 -14 13 -29 23 -33 23z"/>
<path d="M205 390 c-8 0 -15 -7 -15 -15 0 -8 7 -15 15 -15 8 0 15 7 15 15 0 8
-7 15 -15 15z"/>
<path d="M278 228 c-9 2 -18 -1 -20 -5 -3 -4 -6 -56 -7 -115 -2 -102 -1 -108
17 -108 13 0 20 7 22 23 0 12 2 62 3 112 2 76 0 90 -15 93z"/>
<path d="M148 40 c-10 0 -18 -6 -18 -14 0 -8 7 -17 16 -20 9 -3 24 -6 35 -6
10 0 19 3 19 6 0 4 -8 13 -17 20 -10 7 -26 14 -35 14z"/>
</g>
</svg>
