<?xml version="1.0" standalone="no"?>
<!DOCTYPE svg PUBLIC "-//W3C//DTD SVG 20010904//EN"
 "http://www.w3.org/TR/2001/REC-SVG-20010904/DTD/svg10.dtd">
<svg version="1.0" xmlns="http://www.w3.org/2000/svg"
 width="56.000000pt" height="56.000000pt" viewBox="0 0 56.000000 56.000000"
 preserveAspectRatio="xMidYMid meet">
<metadata>
Created by potrace 1.16, written by Peter Selinger 2001-2019
</metadata>
<g transform="translate(0.000000,56.000000) scale(0.100000,-0.100000)"
fill="#000000" stroke="none">
<path d="M313 513 c-5 3 -24 -9 -44 -26 -19 -18 -55 -57 -80 -86 -24 -30 -53
-64 -64 -76 -11 -12 -44 -46 -73 -77 -28 -31 -52 -64 -52 -75 0 -10 5 -24 12
-31 7 -7 19 -12 27 -12 8 0 35 17 60 38 25 21 82 62 126 92 44 29 99 61 121
70 40 18 43 18 71 0 16 -10 40 -30 52 -45 12 -16 24 -39 27 -51 4 -17 -3 -36
-27 -66 -18 -24 -46 -56 -62 -71 -16 -15 -27 -31 -24 -34 3 -3 20 0 38 6 18 6
52 32 76 58 27 30 43 57 43 73 0 14 6 32 13 39 10 11 10 14 0 18 -7 3 -13 10
-13 17 0 7 -25 38 -56 69 -50 52 -59 57 -97 57 -31 0 -53 -9 -81 -30 -22 -17
-44 -30 -50 -30 -6 0 -31 -14 -55 -30 -24 -17 -48 -30 -53 -30 -5 0 -5 6 -1
14 4 7 37 46 73 86 36 40 73 80 83 88 9 9 17 22 17 29 0 6 -3 14 -7 16z"/>
<path d="M200 140 c-4 0 -13 -6 -19 -14 -10 -11 -9 -21 4 -45 11 -22 23 -31
40 -31 14 0 35 6 46 13 17 10 23 10 26 0 3 -7 18 -13 34 -13 26 0 29 3 29 33
0 18 -5 38 -12 45 -7 7 -23 12 -37 12 -13 0 -40 -6 -59 -12 -28 -10 -36 -10
-39 0 -3 6 -8 12 -13 12z"/>
</g>
</svg>
