<?xml version="1.0" standalone="no"?>
<!DOCTYPE svg PUBLIC "-//W3C//DTD SVG 20010904//EN"
 "http://www.w3.org/TR/2001/REC-SVG-20010904/DTD/svg10.dtd">
<svg version="1.0" xmlns="http://www.w3.org/2000/svg"
 width="56.000000pt" height="56.000000pt" viewBox="0 0 56.000000 56.000000"
 preserveAspectRatio="xMidYMid meet">
<metadata>
Created by potrace 1.16, written by Peter Selinger 2001-2019
</metadata>
<g transform="translate(0.000000,56.000000) scale(0.100000,-0.100000)"
fill="#000000" stroke="none">
<path d="M293 540 c-17 0 -35 -4 -38 -10 -3 -5 11 -16 31 -25 20 -8 40 -15 45
-15 5 0 9 -3 9 -6 0 -3 -5 -14 -10 -24 -6 -11 -26 -22 -47 -26 -37 -7 -37 -7
-10 -30 15 -13 27 -25 27 -28 0 -3 -13 -27 -30 -53 -16 -26 -30 -51 -30 -56 0
-5 24 -7 53 -5 52 3 52 3 52 -56 0 -38 4 -61 12 -63 7 -3 22 -12 34 -22 20
-16 19 -17 -53 -66 -73 -50 -73 -50 -36 -53 20 -2 49 4 65 13 15 8 37 21 48
28 11 6 22 15 25 18 3 4 16 9 30 10 14 2 26 11 28 20 1 8 -2 28 -7 42 -9 23
-17 27 -49 27 -21 0 -43 5 -50 12 -7 7 -12 24 -12 39 0 21 10 35 45 60 25 18
45 36 45 40 0 4 -8 17 -19 30 -17 21 -21 22 -50 9 -19 -8 -36 -9 -41 -4 -6 6
-4 25 4 48 8 23 23 43 35 48 11 4 21 14 21 22 0 7 -7 16 -15 20 -8 3 -22 3
-30 0 -10 -4 -15 0 -15 11 0 10 -8 24 -17 31 -10 7 -32 14 -50 14z"/>
<path d="M86 530 c-8 0 -19 -6 -25 -14 -9 -11 -6 -18 15 -35 28 -22 28 -22 11
-69 -9 -26 -17 -57 -17 -69 0 -12 -4 -25 -10 -28 -6 -3 -9 -53 -8 -116 1 -110
1 -110 39 -148 22 -21 51 -41 66 -44 16 -3 31 0 36 6 4 7 4 21 0 32 -3 11 -7
39 -7 62 0 24 -5 43 -11 43 -6 0 -19 -10 -29 -21 -18 -21 -18 -21 -32 6 -12
23 -12 43 -3 114 7 51 21 105 35 133 13 26 24 56 24 67 0 10 -16 33 -35 50
-20 17 -42 31 -49 31z"/>
<path d="M474 517 c-5 2 -13 0 -17 -3 -4 -4 -7 -14 -7 -21 0 -8 8 -13 18 -11
9 2 17 10 17 17 0 8 -5 16 -11 18z"/>
</g>
</svg>
