<?xml version="1.0" standalone="no"?>
<!DOCTYPE svg PUBLIC "-//W3C//DTD SVG 20010904//EN"
 "http://www.w3.org/TR/2001/REC-SVG-20010904/DTD/svg10.dtd">
<svg version="1.0" xmlns="http://www.w3.org/2000/svg"
 width="56.000000pt" height="56.000000pt" viewBox="0 0 56.000000 56.000000"
 preserveAspectRatio="xMidYMid meet">
<metadata>
Created by potrace 1.16, written by Peter Selinger 2001-2019
</metadata>
<g transform="translate(0.000000,56.000000) scale(0.100000,-0.100000)"
fill="#000000" stroke="none">
<path d="M270 560 c-16 0 -20 -6 -18 -32 3 -28 -2 -35 -32 -50 -19 -9 -39 -19
-45 -21 -6 -3 -6 -9 2 -17 10 -10 19 -10 46 4 19 9 39 16 44 16 5 0 8 -27 7
-61 -1 -33 -5 -63 -8 -67 -3 -3 -6 -11 -6 -19 0 -7 6 -13 13 -13 7 0 27 14 45
30 18 17 38 30 44 30 6 0 8 -10 5 -22 -3 -13 -11 -41 -17 -63 -7 -22 -14 -58
-16 -79 -2 -22 4 -61 12 -88 9 -26 22 -52 29 -58 7 -6 41 -18 74 -26 34 -9 68
-13 76 -10 8 3 15 12 15 21 0 8 -10 19 -22 24 -13 5 -41 13 -63 17 -30 7 -46
18 -66 49 -17 25 -24 44 -18 50 5 5 9 30 9 55 0 25 4 50 9 55 5 6 19 27 30 48
12 21 21 43 21 50 0 7 -13 20 -29 30 -25 15 -30 15 -41 2 -7 -8 -19 -15 -28
-15 -12 0 -14 10 -9 59 6 55 5 59 -18 69 -14 7 -25 16 -25 22 0 5 -9 10 -20
10z"/>
<path d="M111 505 c-6 3 -17 -10 -25 -30 -9 -19 -23 -51 -32 -70 -8 -19 -21
-68 -27 -108 -8 -43 -10 -90 -5 -117 4 -25 17 -75 29 -112 19 -59 25 -68 45
-68 18 0 24 6 25 23 1 12 1 26 0 31 -1 4 3 24 10 43 6 18 8 41 5 50 -6 14 -9
14 -26 -2 -15 -13 -24 -15 -31 -8 -6 6 -11 42 -11 81 0 39 3 81 7 94 4 13 15
42 26 65 10 24 19 61 19 82 0 22 -4 42 -9 46z"/>
</g>
</svg>
