<?xml version="1.0" standalone="no"?>
<!DOCTYPE svg PUBLIC "-//W3C//DTD SVG 20010904//EN"
 "http://www.w3.org/TR/2001/REC-SVG-20010904/DTD/svg10.dtd">
<svg version="1.0" xmlns="http://www.w3.org/2000/svg"
 width="56.000000pt" height="56.000000pt" viewBox="0 0 56.000000 56.000000"
 preserveAspectRatio="xMidYMid meet">
<metadata>
Created by potrace 1.16, written by Peter Selinger 2001-2019
</metadata>
<g transform="translate(0.000000,56.000000) scale(0.100000,-0.100000)"
fill="#000000" stroke="none">
<path d="M143 518 c-22 2 -44 -2 -48 -8 -3 -5 0 -13 8 -16 8 -3 30 -4 49 -2
18 2 33 8 33 13 0 6 -19 11 -42 13z"/>
<path d="M400 498 c-19 -1 -60 -14 -90 -30 -30 -16 -64 -37 -75 -47 -11 -10
-48 -37 -82 -60 -34 -22 -64 -41 -67 -41 -3 0 -17 20 -32 45 -14 25 -30 42
-35 39 -5 -3 -9 -18 -9 -35 0 -16 4 -37 9 -47 5 -9 12 -25 15 -35 3 -9 13 -20
22 -24 10 -4 38 5 68 22 28 16 89 54 136 85 47 30 98 61 113 68 15 7 38 12 51
12 13 0 28 -6 34 -12 5 -7 15 -43 21 -79 6 -36 11 -79 11 -95 0 -19 -12 -42
-34 -66 -19 -21 -40 -38 -48 -38 -7 0 -28 -9 -46 -20 -18 -11 -38 -20 -45 -20
-7 0 -28 -13 -47 -29 -32 -26 -33 -30 -16 -37 10 -4 27 -2 37 4 10 7 25 12 33
12 8 0 52 23 98 51 46 28 91 58 101 66 12 11 17 31 17 64 0 27 -5 82 -11 124
-11 74 -12 76 -53 100 -25 15 -56 24 -76 23z"/>
</g>
</svg>
