<?xml version="1.0" standalone="no"?>
<!DOCTYPE svg PUBLIC "-//W3C//DTD SVG 20010904//EN"
 "http://www.w3.org/TR/2001/REC-SVG-20010904/DTD/svg10.dtd">
<svg version="1.0" xmlns="http://www.w3.org/2000/svg"
 width="56.000000pt" height="56.000000pt" viewBox="0 0 56.000000 56.000000"
 preserveAspectRatio="xMidYMid meet">
<metadata>
Created by potrace 1.16, written by Peter Selinger 2001-2019
</metadata>
<g transform="translate(0.000000,56.000000) scale(0.100000,-0.100000)"
fill="#000000" stroke="none">
<path d="M402 480 c-61 0 -71 -3 -102 -30 -19 -16 -47 -29 -61 -30 -14 0 -34
-9 -43 -19 -10 -11 -31 -23 -48 -26 -16 -4 -32 -13 -35 -20 -2 -8 -24 -17 -47
-20 -24 -4 -49 -11 -57 -16 -11 -6 -11 -13 -3 -26 7 -12 26 -19 54 -21 23 -2
48 2 53 7 6 6 19 11 28 11 10 0 27 14 39 30 12 17 27 30 34 30 7 0 30 13 52
29 25 18 56 30 89 34 37 4 59 0 88 -14 21 -11 41 -27 44 -36 3 -8 1 -42 -5
-74 -9 -51 -17 -64 -61 -106 -28 -27 -51 -54 -51 -61 0 -7 10 -12 23 -12 12 0
29 9 37 20 8 11 20 20 28 20 7 0 19 6 25 13 7 7 22 27 35 44 12 18 22 37 22
43 0 5 5 10 10 10 6 0 10 25 10 55 0 30 -4 55 -10 55 -5 0 -10 9 -10 20 0 12
-16 36 -35 55 -32 33 -38 35 -103 35z"/>
<path d="M340 116 c-8 1 -27 -5 -43 -13 -15 -8 -25 -18 -22 -24 4 -5 24 -9 46
-9 36 0 40 2 37 22 -2 13 -10 24 -18 24z"/>
</g>
</svg>
