<?xml version="1.0" standalone="no"?>
<!DOCTYPE svg PUBLIC "-//W3C//DTD SVG 20010904//EN"
 "http://www.w3.org/TR/2001/REC-SVG-20010904/DTD/svg10.dtd">
<svg version="1.0" xmlns="http://www.w3.org/2000/svg"
 width="56.000000pt" height="56.000000pt" viewBox="0 0 56.000000 56.000000"
 preserveAspectRatio="xMidYMid meet">
<metadata>
Created by potrace 1.16, written by Peter Selinger 2001-2019
</metadata>
<g transform="translate(0.000000,56.000000) scale(0.100000,-0.100000)"
fill="#000000" stroke="none">
<path d="M325 560 c-14 0 -25 -4 -25 -10 0 -5 -8 -10 -18 -10 -10 0 -37 -16
-59 -35 -23 -19 -46 -35 -52 -35 -5 0 -42 -27 -82 -60 -39 -33 -76 -60 -81
-60 -5 0 -8 -19 -6 -42 2 -32 8 -44 21 -46 12 -2 34 12 61 40 23 23 68 61 100
83 32 22 68 50 80 62 14 15 33 23 56 23 19 0 41 4 49 9 9 6 23 5 38 -2 12 -5
23 -14 23 -20 0 -5 11 -23 25 -41 14 -17 36 -44 48 -59 15 -20 27 -26 40 -22
9 4 17 18 17 31 0 13 -4 24 -10 24 -5 0 -10 5 -10 11 0 6 -16 33 -36 60 -20
27 -43 49 -52 49 -10 0 -26 7 -36 15 -11 8 -30 15 -43 15 -13 0 -23 5 -23 10
0 6 -11 10 -25 10z"/>
<path d="M553 320 c-5 -1 -23 -11 -41 -24 -18 -13 -45 -39 -60 -59 -15 -20
-32 -36 -38 -37 -5 0 -23 -13 -39 -30 -16 -16 -38 -30 -50 -30 -11 0 -36 -12
-55 -28 -19 -15 -48 -34 -65 -41 -16 -8 -45 -21 -63 -30 -19 -9 -38 -22 -44
-28 -8 -10 -4 -13 16 -13 14 0 45 7 68 16 24 9 72 30 107 48 35 17 66 37 68
44 3 6 14 12 24 12 10 0 36 15 56 33 21 18 51 38 66 45 16 7 31 21 34 32 3 11
9 20 14 20 5 0 9 16 9 35 0 19 -3 35 -7 35z"/>
</g>
</svg>
