<?xml version="1.0" standalone="no"?>
<!DOCTYPE svg PUBLIC "-//W3C//DTD SVG 20010904//EN"
 "http://www.w3.org/TR/2001/REC-SVG-20010904/DTD/svg10.dtd">
<svg version="1.0" xmlns="http://www.w3.org/2000/svg"
 width="56.000000pt" height="56.000000pt" viewBox="0 0 56.000000 56.000000"
 preserveAspectRatio="xMidYMid meet">
<metadata>
Created by potrace 1.16, written by Peter Selinger 2001-2019
</metadata>
<g transform="translate(0.000000,56.000000) scale(0.100000,-0.100000)"
fill="#000000" stroke="none">
<path d="M176 560 c-19 0 -23 -4 -19 -20 3 -11 21 -29 39 -41 19 -11 34 -26
34 -32 0 -7 -15 -31 -33 -54 -17 -22 -53 -69 -79 -104 -27 -35 -48 -66 -48
-70 0 -4 8 -17 18 -30 19 -22 19 -22 62 40 23 35 77 99 119 142 42 43 82 79
90 79 9 0 11 -8 6 -27 -4 -16 -22 -53 -40 -84 -19 -30 -43 -63 -55 -74 -11
-10 -20 -31 -20 -47 0 -17 6 -31 15 -35 9 -3 42 6 74 21 32 14 64 26 70 26 6
0 11 -10 11 -23 0 -13 -25 -64 -55 -114 -30 -50 -55 -96 -55 -102 0 -6 16 -11
35 -11 31 0 37 5 62 51 16 28 38 69 50 92 12 23 22 59 23 79 0 26 -7 44 -22
58 -12 11 -30 20 -39 20 -10 0 -30 -5 -44 -12 -14 -6 -28 -8 -32 -5 -4 4 4 21
16 38 12 16 36 50 52 74 16 23 29 52 29 63 0 12 -14 30 -31 42 -30 22 -30 22
-74 -1 -44 -24 -44 -24 -78 9 -18 17 -38 32 -45 32 -7 0 -12 5 -12 10 0 6 -11
10 -24 10z"/>
</g>
</svg>
