<?xml version="1.0" standalone="no"?>
<!DOCTYPE svg PUBLIC "-//W3C//DTD SVG 20010904//EN"
 "http://www.w3.org/TR/2001/REC-SVG-20010904/DTD/svg10.dtd">
<svg version="1.0" xmlns="http://www.w3.org/2000/svg"
 width="56.000000pt" height="56.000000pt" viewBox="0 0 56.000000 56.000000"
 preserveAspectRatio="xMidYMid meet">
<metadata>
Created by potrace 1.16, written by Peter Selinger 2001-2019
</metadata>
<g transform="translate(0.000000,56.000000) scale(0.100000,-0.100000)"
fill="#000000" stroke="none">
<path d="M170 560 c-13 0 -20 -7 -20 -19 0 -11 -4 -23 -10 -26 -5 -3 -10 -24
-10 -46 0 -22 -4 -48 -9 -57 -5 -10 -5 -47 0 -86 5 -37 14 -75 21 -83 6 -8 20
-12 30 -10 10 3 18 2 18 -3 0 -4 -10 -10 -22 -13 -20 -6 -20 -8 -6 -28 8 -13
22 -27 31 -33 9 -6 19 -7 23 -3 5 4 9 49 10 100 1 51 5 111 8 134 7 37 11 42
42 48 23 4 41 2 50 -6 12 -10 14 -27 9 -78 -3 -36 -11 -91 -16 -121 -6 -30
-15 -73 -21 -95 -6 -22 -17 -57 -24 -78 -8 -20 -14 -42 -14 -47 0 -6 6 -10 14
-10 8 0 24 16 37 36 12 20 26 55 31 78 5 22 13 70 18 106 6 36 13 94 16 130 4
36 10 73 16 83 5 9 15 17 23 17 8 0 15 6 15 14 0 8 -14 26 -31 40 -24 21 -34
24 -50 16 -10 -6 -19 -17 -19 -25 0 -9 -9 -15 -21 -15 -12 0 -38 -9 -59 -21
-32 -18 -39 -29 -49 -73 -6 -28 -12 -71 -14 -96 -2 -43 -3 -44 -15 -22 -8 13
-14 51 -14 85 0 34 7 91 16 127 9 36 16 68 16 73 0 4 -9 7 -20 7z"/>
<path d="M186 80 c-8 0 -18 -5 -21 -10 -4 -6 -4 -24 0 -40 5 -23 12 -30 31
-30 14 0 24 6 24 14 0 8 -4 26 -10 40 -5 14 -16 26 -24 26z"/>
</g>
</svg>
