<?xml version="1.0" standalone="no"?>
<!DOCTYPE svg PUBLIC "-//W3C//DTD SVG 20010904//EN"
 "http://www.w3.org/TR/2001/REC-SVG-20010904/DTD/svg10.dtd">
<svg version="1.0" xmlns="http://www.w3.org/2000/svg"
 width="56.000000pt" height="56.000000pt" viewBox="0 0 56.000000 56.000000"
 preserveAspectRatio="xMidYMid meet">
<metadata>
Created by potrace 1.16, written by Peter Selinger 2001-2019
</metadata>
<g transform="translate(0.000000,56.000000) scale(0.100000,-0.100000)"
fill="#000000" stroke="none">
<path d="M118 560 c-29 0 -36 -6 -53 -42 -14 -30 -20 -62 -20 -112 0 -39 6
-86 14 -104 8 -18 23 -38 34 -44 18 -9 24 -7 36 12 9 13 32 40 52 62 30 30 44
38 73 38 21 0 39 -6 42 -13 2 -7 -4 -40 -15 -72 -10 -33 -35 -95 -55 -138 -19
-43 -44 -91 -56 -106 -11 -16 -20 -32 -20 -35 0 -3 11 -6 23 -6 13 0 31 8 39
18 8 9 29 42 47 73 17 31 42 92 56 135 14 43 25 88 25 99 0 11 4 26 9 34 7 10
28 14 79 12 65 -2 71 -1 77 20 6 17 2 27 -16 42 -19 15 -33 18 -75 12 -49 -6
-52 -5 -58 20 -4 17 -21 32 -50 47 -24 11 -51 18 -60 15 -9 -4 -16 -11 -16
-16 0 -6 13 -17 29 -25 16 -9 31 -22 34 -30 4 -9 2 -18 -3 -21 -5 -3 -33 -13
-62 -22 -29 -8 -65 -24 -80 -34 -15 -11 -29 -15 -33 -10 -3 6 -1 40 5 77 6 37
15 75 20 85 6 10 10 20 10 23 0 3 -15 6 -32 6z"/>
</g>
</svg>
