<?xml version="1.0" standalone="no"?>
<!DOCTYPE svg PUBLIC "-//W3C//DTD SVG 20010904//EN"
 "http://www.w3.org/TR/2001/REC-SVG-20010904/DTD/svg10.dtd">
<svg version="1.0" xmlns="http://www.w3.org/2000/svg"
 width="56.000000pt" height="56.000000pt" viewBox="0 0 56.000000 56.000000"
 preserveAspectRatio="xMidYMid meet">
<metadata>
Created by potrace 1.16, written by Peter Selinger 2001-2019
</metadata>
<g transform="translate(0.000000,56.000000) scale(0.100000,-0.100000)"
fill="#000000" stroke="none">
<path d="M136 560 c-9 0 -16 -4 -16 -9 0 -5 -16 -16 -36 -26 -31 -14 -35 -21
-31 -43 3 -15 10 -46 16 -70 9 -32 8 -65 0 -125 -6 -45 -13 -96 -16 -112 -3
-21 5 -50 24 -90 17 -36 36 -61 47 -63 10 -2 22 2 27 9 4 7 3 22 -3 32 -5 11
-7 37 -4 59 6 37 5 38 -14 28 -11 -6 -20 -16 -20 -23 -1 -7 -8 1 -17 17 -12
23 -13 34 -4 48 6 10 11 26 11 36 0 10 3 22 7 26 5 4 13 39 19 77 9 62 8 73
-8 100 -10 16 -18 37 -18 46 0 9 11 31 26 50 19 25 22 33 10 33z"/>
<path d="M431 470 c-5 0 -17 -7 -25 -16 -9 -8 -16 -31 -16 -49 0 -25 -6 -38
-21 -46 -13 -7 -42 -8 -79 -4 -34 4 -60 3 -64 -3 -3 -5 2 -16 12 -25 11 -10
41 -17 82 -19 65 -3 65 -3 68 -43 2 -22 -2 -58 -8 -80 -7 -22 -18 -52 -26 -67
-8 -14 -14 -36 -14 -47 0 -14 6 -21 18 -21 12 0 26 15 40 43 11 23 26 71 32
107 6 36 10 83 8 104 -3 37 -2 39 36 50 22 6 41 16 43 21 2 6 -15 29 -37 53
-22 23 -44 42 -49 42z m13 -63 c5 -2 12 -9 14 -15 2 -7 -6 -12 -17 -12 -12 0
-21 4 -21 8 0 5 3 12 7 16 4 3 11 5 17 3z"/>
<path d="M191 284 c-5 3 -11 0 -14 -8 -3 -8 -3 -17 0 -20 4 -3 10 -6 15 -6 4
0 8 6 8 14 0 8 -4 17 -9 20z"/>
<path d="M300 20 c-5 0 -12 -4 -15 -10 -3 -5 3 -10 15 -10 12 0 18 5 15 10 -3
6 -10 10 -15 10z"/>
</g>
</svg>
