<?xml version="1.0" standalone="no"?>
<!DOCTYPE svg PUBLIC "-//W3C//DTD SVG 20010904//EN"
 "http://www.w3.org/TR/2001/REC-SVG-20010904/DTD/svg10.dtd">
<svg version="1.0" xmlns="http://www.w3.org/2000/svg"
 width="56.000000pt" height="56.000000pt" viewBox="0 0 56.000000 56.000000"
 preserveAspectRatio="xMidYMid meet">
<metadata>
Created by potrace 1.16, written by Peter Selinger 2001-2019
</metadata>
<g transform="translate(0.000000,56.000000) scale(0.100000,-0.100000)"
fill="#000000" stroke="none">
<path d="M175 560 c-13 0 -15 -9 -9 -49 6 -48 6 -48 -55 -111 -44 -46 -61 -71
-61 -91 0 -15 -2 -33 -5 -41 -3 -7 0 -22 8 -31 12 -17 16 -15 65 23 29 23 59
54 66 69 8 14 38 50 67 79 45 44 59 52 89 52 23 0 43 -7 53 -18 10 -10 17 -26
17 -35 0 -9 -8 -29 -17 -45 -10 -15 -60 -67 -112 -114 -52 -48 -100 -97 -107
-110 -8 -13 -13 -28 -14 -34 0 -7 25 -22 55 -34 40 -16 57 -29 61 -46 5 -19
13 -24 39 -24 24 0 39 7 54 26 12 15 21 35 21 44 0 10 -16 27 -35 39 -20 11
-38 28 -42 38 -5 11 3 24 26 42 18 13 61 59 97 102 55 67 64 82 64 117 0 35
-6 45 -42 76 -23 20 -52 36 -65 36 -13 0 -44 -5 -69 -11 -40 -10 -49 -9 -89
12 -25 13 -45 27 -45 31 0 5 -7 8 -15 8z"/>
</g>
</svg>
