<?xml version="1.0" standalone="no"?>
<!DOCTYPE svg PUBLIC "-//W3C//DTD SVG 20010904//EN"
 "http://www.w3.org/TR/2001/REC-SVG-20010904/DTD/svg10.dtd">
<svg version="1.0" xmlns="http://www.w3.org/2000/svg"
 width="56.000000pt" height="56.000000pt" viewBox="0 0 56.000000 56.000000"
 preserveAspectRatio="xMidYMid meet">
<metadata>
Created by potrace 1.16, written by Peter Selinger 2001-2019
</metadata>
<g transform="translate(0.000000,56.000000) scale(0.100000,-0.100000)"
fill="#000000" stroke="none">
<path d="M90 560 c-23 0 -31 -5 -34 -22 -3 -13 -8 -41 -11 -63 -4 -22 -9 -74
-11 -115 -5 -71 -4 -78 28 -132 24 -43 38 -57 53 -55 13 1 21 12 25 33 4 16
19 55 33 86 15 31 27 63 27 71 0 8 6 19 13 25 6 5 27 13 45 17 17 3 32 11 32
16 0 5 -11 14 -24 19 -13 5 -37 5 -52 1 -15 -4 -31 -14 -35 -22 -3 -7 -21 -44
-39 -81 -17 -38 -36 -68 -40 -68 -5 0 -12 15 -16 33 -4 17 -7 67 -6 110 1 43
4 87 7 98 4 10 13 19 21 19 8 0 14 7 14 15 0 10 -10 15 -30 15z"/>
<path d="M311 517 c-23 -1 -44 -5 -47 -8 -2 -4 0 -10 5 -13 5 -3 16 -3 25 0
11 4 19 -2 25 -18 5 -14 9 -33 8 -44 -1 -13 5 -20 20 -22 19 -3 21 -8 17 -31
-4 -17 -1 -32 5 -36 7 -4 18 -1 26 5 8 7 15 23 15 36 0 21 5 24 39 24 22 0 41
-5 43 -12 3 -7 12 -9 24 -4 18 7 18 8 -6 26 -14 11 -30 20 -36 20 -7 0 -15 7
-18 15 -5 13 -10 14 -27 5 -11 -6 -27 -9 -35 -6 -8 3 -14 14 -14 24 0 11 -6
24 -13 30 -7 6 -32 10 -56 9z"/>
<path d="M276 140 c-22 0 -44 -11 -75 -40 -24 -22 -50 -40 -57 -40 -8 0 -14
-7 -14 -15 0 -9 9 -15 25 -15 14 0 25 4 25 9 0 5 24 19 54 31 30 12 62 30 70
39 9 10 13 21 9 24 -3 4 -20 7 -37 7z"/>
<path d="M249 20 c-10 0 -19 -4 -19 -10 0 -5 12 -10 26 -10 14 0 23 4 19 10
-3 6 -15 10 -26 10z"/>
</g>
</svg>
