<?xml version="1.0" standalone="no"?>
<!DOCTYPE svg PUBLIC "-//W3C//DTD SVG 20010904//EN"
 "http://www.w3.org/TR/2001/REC-SVG-20010904/DTD/svg10.dtd">
<svg version="1.0" xmlns="http://www.w3.org/2000/svg"
 width="56.000000pt" height="56.000000pt" viewBox="0 0 56.000000 56.000000"
 preserveAspectRatio="xMidYMid meet">
<metadata>
Created by potrace 1.16, written by Peter Selinger 2001-2019
</metadata>
<g transform="translate(0.000000,56.000000) scale(0.100000,-0.100000)"
fill="#000000" stroke="none">
<path d="M376 560 c-20 0 -26 -5 -26 -21 0 -12 7 -48 15 -80 12 -44 13 -64 5
-79 -6 -11 -19 -20 -29 -20 -10 0 -21 -3 -25 -7 -4 -4 -47 -9 -96 -10 -89 -2
-89 -2 -100 30 -7 18 -14 43 -16 56 -1 13 -7 28 -12 33 -6 6 -17 6 -29 -1 -18
-9 -19 -16 -12 -58 5 -26 13 -66 19 -88 6 -22 15 -56 19 -75 5 -19 12 -44 16
-55 4 -11 17 -28 29 -37 12 -10 31 -18 44 -18 12 0 22 5 22 11 0 6 -13 30 -30
54 -17 25 -30 57 -30 74 0 30 0 30 68 27 37 -2 89 1 115 6 27 5 51 7 54 4 4
-3 6 -29 5 -56 0 -28 -8 -65 -16 -82 -9 -17 -16 -37 -16 -44 0 -7 -17 -26 -38
-42 -21 -17 -58 -38 -83 -48 -24 -9 -48 -21 -54 -26 -5 -4 20 -8 57 -8 37 0
70 5 73 10 4 6 24 19 45 30 24 12 45 33 54 52 7 18 18 47 24 64 6 18 6 37 1
46 -5 9 -4 28 2 46 6 17 9 41 7 54 -2 18 4 25 26 34 17 6 31 15 33 21 2 6 -4
13 -13 17 -9 3 -22 2 -29 -4 -9 -7 -15 -8 -19 -1 -4 5 -4 41 -1 79 4 58 2 72
-14 90 -10 12 -30 22 -45 22z"/>
</g>
</svg>
