<?xml version="1.0" standalone="no"?>
<!DOCTYPE svg PUBLIC "-//W3C//DTD SVG 20010904//EN"
 "http://www.w3.org/TR/2001/REC-SVG-20010904/DTD/svg10.dtd">
<svg version="1.0" xmlns="http://www.w3.org/2000/svg"
 width="56.000000pt" height="56.000000pt" viewBox="0 0 56.000000 56.000000"
 preserveAspectRatio="xMidYMid meet">
<metadata>
Created by potrace 1.16, written by Peter Selinger 2001-2019
</metadata>
<g transform="translate(0.000000,56.000000) scale(0.100000,-0.100000)"
fill="#000000" stroke="none">
<path d="M198 559 c-14 -1 -44 -24 -75 -58 -40 -43 -53 -65 -53 -88 0 -16 5
-45 11 -64 6 -19 15 -45 21 -59 5 -14 20 -45 32 -70 13 -25 31 -46 40 -48 14
-3 16 3 10 40 -4 24 -8 66 -8 93 -1 44 1 50 18 47 10 -2 46 -7 80 -10 57 -7
61 -9 59 -32 -1 -14 -8 -55 -14 -92 -9 -52 -20 -77 -50 -115 -21 -26 -48 -60
-59 -75 -21 -28 -21 -28 6 -28 21 0 42 14 81 55 28 31 63 79 77 108 24 47 25
57 16 111 -5 32 -7 63 -4 67 3 5 23 9 45 9 32 0 39 3 39 20 0 11 -16 34 -35
51 -24 23 -35 41 -35 61 0 16 -6 31 -15 34 -8 4 -22 1 -30 -6 -11 -9 -14 -23
-9 -46 3 -19 3 -45 0 -59 -5 -21 -12 -25 -44 -25 -20 0 -54 4 -74 9 -31 7 -40
5 -54 -10 -9 -11 -23 -19 -29 -19 -7 0 -15 15 -18 33 -2 17 1 44 9 58 7 14 29
40 48 57 20 17 36 36 36 42 0 5 -10 9 -22 9z"/>
</g>
</svg>
