<?xml version="1.0" standalone="no"?>
<!DOCTYPE svg PUBLIC "-//W3C//DTD SVG 20010904//EN"
 "http://www.w3.org/TR/2001/REC-SVG-20010904/DTD/svg10.dtd">
<svg version="1.0" xmlns="http://www.w3.org/2000/svg"
 width="56.000000pt" height="56.000000pt" viewBox="0 0 56.000000 56.000000"
 preserveAspectRatio="xMidYMid meet">
<metadata>
Created by potrace 1.16, written by Peter Selinger 2001-2019
</metadata>
<g transform="translate(0.000000,56.000000) scale(0.100000,-0.100000)"
fill="#000000" stroke="none">
<path d="M146 560 c-32 0 -35 -3 -57 -57 -18 -44 -22 -73 -20 -126 1 -38 8
-93 16 -121 8 -28 23 -73 33 -101 11 -27 29 -56 40 -63 12 -8 26 -11 32 -7 5
3 10 21 10 39 0 19 -7 50 -15 69 -11 28 -13 47 -5 86 5 28 16 64 25 81 9 16
22 30 29 30 7 0 30 -11 50 -25 20 -14 43 -25 51 -25 8 0 19 -8 24 -18 7 -13 3
-37 -14 -85 -13 -37 -37 -89 -54 -115 -16 -26 -44 -61 -61 -77 -16 -16 -30
-32 -30 -37 0 -4 21 -8 48 -8 32 0 43 3 32 10 -12 7 -9 13 13 30 15 12 27 27
27 35 0 7 7 18 15 25 9 7 23 29 32 49 9 20 20 38 23 41 4 3 12 20 18 39 7 19
12 53 12 77 0 39 2 43 28 46 20 2 28 9 30 27 2 13 -1 28 -6 33 -7 7 -16 7 -28
0 -15 -9 -25 -3 -56 29 -20 21 -44 39 -52 39 -8 0 -18 -5 -22 -11 -3 -6 -1
-16 5 -22 6 -6 11 -17 11 -24 0 -7 -8 -13 -19 -13 -10 0 -24 7 -31 15 -7 8
-21 15 -32 15 -11 0 -40 -16 -64 -36 -29 -24 -44 -44 -44 -60 0 -12 -4 -25 -9
-28 -5 -3 -12 1 -15 9 -3 8 -3 30 0 48 3 17 10 50 16 72 6 22 15 52 20 68 6
15 14 27 19 27 5 0 9 5 9 10 0 6 -15 10 -34 10z"/>
</g>
</svg>
