<?xml version="1.0" standalone="no"?>
<!DOCTYPE svg PUBLIC "-//W3C//DTD SVG 20010904//EN"
 "http://www.w3.org/TR/2001/REC-SVG-20010904/DTD/svg10.dtd">
<svg version="1.0" xmlns="http://www.w3.org/2000/svg"
 width="56.000000pt" height="56.000000pt" viewBox="0 0 56.000000 56.000000"
 preserveAspectRatio="xMidYMid meet">
<metadata>
Created by potrace 1.16, written by Peter Selinger 2001-2019
</metadata>
<g transform="translate(0.000000,56.000000) scale(0.100000,-0.100000)"
fill="#000000" stroke="none">
<path d="M385 560 c-14 0 -25 -4 -25 -10 0 -5 -19 -18 -42 -29 -24 -10 -58
-24 -76 -31 -27 -11 -35 -10 -50 3 -9 9 -43 18 -74 21 -31 3 -59 2 -62 -2 -3
-4 -2 -13 2 -18 4 -6 24 -19 45 -29 20 -9 37 -24 37 -31 0 -8 -13 -40 -29 -72
-16 -31 -38 -68 -50 -81 -13 -14 -21 -38 -21 -58 0 -19 5 -43 10 -54 6 -10 19
-19 29 -19 12 0 31 19 51 50 17 27 40 72 51 101 11 28 24 72 30 99 6 30 17 50
27 54 9 3 42 14 72 25 44 16 61 18 88 10 17 -6 32 -16 32 -23 0 -7 -20 -26
-45 -44 -25 -18 -50 -43 -54 -56 -5 -13 -15 -51 -22 -85 -12 -62 -12 -63 23
-130 36 -67 36 -67 14 -97 -11 -16 -24 -30 -28 -32 -5 -2 -8 -8 -8 -13 0 -5
16 -9 34 -9 30 0 41 8 80 56 26 31 46 63 46 71 0 8 -25 38 -55 66 -30 27 -55
58 -55 68 0 10 5 38 12 62 10 39 15 44 41 45 21 0 41 12 63 34 17 18 35 45 38
61 6 25 3 29 -49 52 -30 14 -55 30 -55 35 0 6 -11 10 -25 10z"/>
</g>
</svg>
