<?xml version="1.0" standalone="no"?>
<!DOCTYPE svg PUBLIC "-//W3C//DTD SVG 20010904//EN"
 "http://www.w3.org/TR/2001/REC-SVG-20010904/DTD/svg10.dtd">
<svg version="1.0" xmlns="http://www.w3.org/2000/svg"
 width="56.000000pt" height="56.000000pt" viewBox="0 0 56.000000 56.000000"
 preserveAspectRatio="xMidYMid meet">
<metadata>
Created by potrace 1.16, written by Peter Selinger 2001-2019
</metadata>
<g transform="translate(0.000000,56.000000) scale(0.100000,-0.100000)"
fill="#000000" stroke="none">
<path d="M55 560 c-8 0 -15 -9 -15 -20 0 -11 7 -23 15 -26 11 -4 13 -18 10
-52 -3 -26 -8 -90 -11 -142 -3 -52 -5 -115 -5 -140 1 -25 4 -66 7 -91 4 -33
13 -53 31 -69 21 -18 31 -21 56 -14 30 9 30 9 32 127 1 91 -1 117 -11 117 -7
0 -18 -19 -25 -42 -6 -24 -13 -49 -15 -57 -3 -9 -8 -11 -14 -5 -6 6 -12 34
-14 63 -3 30 -9 58 -15 64 -6 6 -4 18 6 33 8 13 17 36 18 52 1 15 5 34 7 42 3
8 9 29 14 45 7 19 6 40 0 58 -6 16 -20 30 -33 33 -13 4 -23 10 -23 15 0 5 -7
9 -15 9z m52 -450 c1 0 3 -9 3 -19 0 -10 -7 -22 -16 -25 -9 -4 -19 -4 -22 -1
-3 3 3 14 13 25 10 11 20 20 22 20z"/>
<path d="M288 560 c-7 -1 -19 -7 -25 -15 -7 -8 -13 -18 -13 -22 1 -4 19 -20
40 -35 24 -16 40 -36 40 -47 0 -11 5 -23 10 -26 6 -3 10 -12 10 -18 0 -7 -19
-25 -41 -42 -22 -16 -38 -36 -37 -44 2 -9 15 -17 30 -18 15 -1 30 2 33 8 4 5
17 9 29 9 20 0 25 -6 29 -37 3 -24 -1 -44 -9 -54 -8 -8 -14 -24 -14 -35 0 -11
-8 -42 -19 -69 -10 -28 -23 -62 -29 -76 -6 -15 -8 -30 -5 -33 4 -3 17 -6 29
-6 18 0 28 12 48 56 14 31 26 69 26 84 0 14 3 30 7 34 4 3 7 14 8 24 1 9 5 45
9 79 8 61 8 61 43 56 32 -5 35 -4 31 18 -2 13 -11 25 -21 27 -10 2 -27 -4 -38
-14 -15 -14 -22 -15 -32 -5 -6 7 -13 26 -14 44 -1 18 -5 46 -8 62 -5 21 -22
40 -56 63 -27 17 -54 32 -61 32z"/>
<path d="M252 320 c-5 0 -12 -3 -15 -7 -4 -3 -7 -10 -7 -15 0 -4 7 -8 15 -8 8
0 15 7 15 15 0 8 -4 15 -8 15z"/>
</g>
</svg>
