<?xml version="1.0" standalone="no"?>
<!DOCTYPE svg PUBLIC "-//W3C//DTD SVG 20010904//EN"
 "http://www.w3.org/TR/2001/REC-SVG-20010904/DTD/svg10.dtd">
<svg version="1.0" xmlns="http://www.w3.org/2000/svg"
 width="56.000000pt" height="56.000000pt" viewBox="0 0 56.000000 56.000000"
 preserveAspectRatio="xMidYMid meet">
<metadata>
Created by potrace 1.16, written by Peter Selinger 2001-2019
</metadata>
<g transform="translate(0.000000,56.000000) scale(0.100000,-0.100000)"
fill="#000000" stroke="none">
<path d="M139 538 c-18 24 -18 24 -25 -2 -3 -14 -1 -53 4 -86 6 -34 7 -72 3
-87 -5 -16 -14 -63 -20 -105 -9 -59 -9 -91 0 -140 6 -35 13 -69 15 -75 2 -7 8
-13 14 -13 6 0 22 12 35 26 13 14 29 23 34 19 6 -3 11 -22 11 -41 0 -32 2 -34
34 -34 18 0 38 6 44 12 5 7 22 37 37 66 15 29 34 81 41 115 7 34 13 80 14 102
0 36 4 42 41 63 22 13 38 29 36 35 -2 7 -15 18 -29 25 -14 6 -33 10 -41 6 -8
-3 -17 -15 -20 -26 -5 -17 -11 -20 -38 -14 -18 3 -48 3 -66 0 -23 -4 -38 -15
-48 -34 -8 -16 -21 -48 -29 -72 -8 -24 -17 -62 -21 -85 -4 -24 -11 -45 -16
-49 -5 -3 -9 5 -10 18 -1 13 0 37 0 53 1 17 6 44 11 60 5 17 13 64 18 105 6
48 5 86 -1 105 -6 17 -18 41 -28 53z m151 -188 c22 0 40 -6 43 -13 2 -7 1 -35
-4 -62 -4 -28 -17 -82 -27 -122 -11 -40 -29 -87 -40 -105 -21 -32 -21 -32 -27
-5 -4 14 -13 31 -21 38 -9 7 -14 31 -14 65 0 29 5 77 11 106 7 29 18 63 26 75
12 17 25 23 53 23z"/>
<path d="M306 560 c-17 0 -26 -5 -26 -16 0 -10 7 -14 22 -12 12 2 23 9 26 16
2 7 -6 12 -22 12z"/>
</g>
</svg>
