<?xml version="1.0" standalone="no"?>
<!DOCTYPE svg PUBLIC "-//W3C//DTD SVG 20010904//EN"
 "http://www.w3.org/TR/2001/REC-SVG-20010904/DTD/svg10.dtd">
<svg version="1.0" xmlns="http://www.w3.org/2000/svg"
 width="56.000000pt" height="56.000000pt" viewBox="0 0 56.000000 56.000000"
 preserveAspectRatio="xMidYMid meet">
<metadata>
Created by potrace 1.16, written by Peter Selinger 2001-2019
</metadata>
<g transform="translate(0.000000,56.000000) scale(0.100000,-0.100000)"
fill="#000000" stroke="none">
<path d="M156 560 c-21 0 -26 -5 -26 -25 0 -14 -4 -33 -9 -43 -5 -9 -16 -42
-25 -72 -12 -43 -14 -69 -7 -111 5 -31 9 -62 8 -70 -1 -8 2 -41 7 -74 4 -33
14 -68 21 -79 8 -11 21 -16 30 -13 8 4 29 4 46 0 23 -4 35 -15 45 -39 10 -23
21 -34 34 -34 12 0 25 11 32 26 10 21 9 27 -3 36 -12 8 -12 9 2 5 10 -3 21 6
32 26 9 18 23 67 31 111 9 43 16 80 16 82 0 2 16 4 35 4 27 0 35 4 35 18 0 10
-10 28 -22 39 -13 11 -34 26 -47 33 -20 10 -26 10 -36 -3 -9 -13 -14 -13 -35
-1 -14 7 -44 16 -66 19 -26 4 -50 2 -64 -5 -13 -7 -26 -8 -31 -3 -5 5 -4 32 1
63 6 30 13 67 16 83 6 24 4 27 -20 27z m33 -206 c14 -4 44 -10 66 -14 22 -3
50 -12 63 -19 12 -6 22 -20 22 -31 0 -10 -6 -43 -14 -72 -8 -29 -21 -70 -30
-90 -9 -21 -20 -38 -25 -38 -5 0 -11 9 -14 21 -5 17 -11 20 -35 14 -19 -4 -33
-2 -37 5 -4 6 -13 37 -21 69 -7 32 -14 76 -15 97 -2 22 1 46 5 53 5 8 17 10
35 5z"/>
</g>
</svg>
