<?xml version="1.0" standalone="no"?>
<!DOCTYPE svg PUBLIC "-//W3C//DTD SVG 20010904//EN"
 "http://www.w3.org/TR/2001/REC-SVG-20010904/DTD/svg10.dtd">
<svg version="1.0" xmlns="http://www.w3.org/2000/svg"
 width="56.000000pt" height="56.000000pt" viewBox="0 0 56.000000 56.000000"
 preserveAspectRatio="xMidYMid meet">
<metadata>
Created by potrace 1.16, written by Peter Selinger 2001-2019
</metadata>
<g transform="translate(0.000000,56.000000) scale(0.100000,-0.100000)"
fill="#000000" stroke="none">
<path d="M211 534 c-6 4 -14 0 -17 -8 -3 -9 -3 -27 0 -41 5 -19 2 -25 -9 -25
-9 0 -27 7 -40 16 -23 15 -25 15 -25 1 0 -9 8 -20 17 -26 15 -8 15 -11 4 -25
-12 -14 -12 -23 0 -58 8 -26 24 -47 41 -57 15 -9 28 -24 28 -33 0 -9 5 -20 10
-23 6 -3 10 -15 10 -27 0 -11 -9 -32 -19 -47 -10 -14 -20 -37 -21 -51 -1 -14
-2 -37 -1 -51 1 -14 12 -38 26 -53 18 -19 34 -26 63 -26 22 0 45 6 51 13 6 8
8 17 4 20 -3 4 -22 7 -42 7 -20 0 -44 7 -53 14 -13 9 -18 27 -18 57 0 24 7 52
14 61 7 10 22 18 32 18 10 0 35 6 54 13 20 6 47 19 60 28 14 10 35 27 48 38
12 12 22 26 22 31 0 6 -12 10 -27 10 -16 0 -39 -7 -53 -15 -14 -8 -33 -18 -43
-21 -17 -6 -17 -7 0 -20 16 -11 12 -13 -32 -11 -48 2 -50 3 -53 33 -3 29 0 32
41 42 24 6 52 21 63 33 19 21 19 21 -21 55 -21 19 -51 37 -65 40 -14 3 -31 7
-38 10 -9 3 -11 14 -7 38 4 20 2 36 -4 40z m-31 -124 c13 0 20 -5 18 -12 -3
-7 -11 -13 -18 -13 -7 0 -15 6 -17 13 -3 7 4 12 17 12z"/>
</g>
</svg>
