<?xml version="1.0" standalone="no"?>
<!DOCTYPE svg PUBLIC "-//W3C//DTD SVG 20010904//EN"
 "http://www.w3.org/TR/2001/REC-SVG-20010904/DTD/svg10.dtd">
<svg version="1.0" xmlns="http://www.w3.org/2000/svg"
 width="56.000000pt" height="56.000000pt" viewBox="0 0 56.000000 56.000000"
 preserveAspectRatio="xMidYMid meet">
<metadata>
Created by potrace 1.16, written by Peter Selinger 2001-2019
</metadata>
<g transform="translate(0.000000,56.000000) scale(0.100000,-0.100000)"
fill="#000000" stroke="none">
<path d="M75 560 c-12 0 -25 -3 -28 -7 -4 -3 -7 -16 -7 -28 0 -11 5 -26 11
-32 7 -7 6 -25 -4 -61 -9 -28 -19 -102 -22 -164 -7 -109 -6 -116 18 -163 14
-28 39 -63 57 -80 31 -30 31 -30 51 -5 13 17 17 33 13 50 -4 14 -6 54 -5 90 1
36 7 82 13 103 6 21 21 45 32 53 13 9 46 14 91 14 38 0 75 -4 81 -8 6 -4 15
-17 18 -30 4 -13 8 -43 8 -68 0 -26 -9 -62 -22 -87 -12 -23 -37 -61 -56 -84
-19 -23 -34 -44 -34 -47 0 -3 16 -6 36 -6 27 0 41 7 62 32 15 17 37 57 50 87
20 47 23 70 20 146 -3 90 -3 90 29 90 18 0 39 7 48 16 9 8 13 23 10 31 -4 9
-13 19 -20 22 -7 2 -27 0 -43 -6 -16 -6 -36 -8 -46 -5 -11 4 -16 18 -16 42 0
22 -8 43 -20 55 -11 11 -33 20 -50 20 -18 0 -33 -6 -37 -15 -3 -9 1 -23 10
-33 8 -9 18 -27 21 -38 4 -14 1 -28 -10 -39 -10 -9 -26 -14 -37 -11 -11 3 -43
0 -70 -7 -39 -9 -54 -18 -66 -40 -9 -16 -24 -40 -34 -53 -10 -13 -25 -24 -32
-24 -7 0 -15 8 -17 18 -2 9 0 33 4 52 5 19 13 58 17 86 5 28 7 70 4 93 -5 34
-9 41 -28 41z"/>
</g>
</svg>
