<?xml version="1.0" standalone="no"?>
<!DOCTYPE svg PUBLIC "-//W3C//DTD SVG 20010904//EN"
 "http://www.w3.org/TR/2001/REC-SVG-20010904/DTD/svg10.dtd">
<svg version="1.0" xmlns="http://www.w3.org/2000/svg"
 width="56.000000pt" height="56.000000pt" viewBox="0 0 56.000000 56.000000"
 preserveAspectRatio="xMidYMid meet">
<metadata>
Created by potrace 1.16, written by Peter Selinger 2001-2019
</metadata>
<g transform="translate(0.000000,56.000000) scale(0.100000,-0.100000)"
fill="#000000" stroke="none">
<path d="M258 560 c-27 -1 -39 -9 -68 -48 -20 -26 -42 -60 -50 -77 -8 -16 -17
-32 -21 -35 -3 -3 -12 -21 -20 -40 -9 -22 -13 -65 -12 -118 1 -69 6 -90 27
-127 15 -24 31 -47 37 -51 6 -3 15 -2 21 4 6 6 5 30 -3 71 -10 53 -9 64 5 86
9 13 28 32 42 41 13 9 43 20 66 24 23 5 48 6 55 3 8 -3 13 -24 13 -59 0 -33
-8 -73 -21 -102 -11 -26 -27 -61 -34 -78 -8 -19 -10 -36 -4 -45 6 -11 13 -11
26 -3 10 6 30 31 45 55 22 34 29 62 34 127 4 45 9 82 11 82 2 0 12 -6 23 -12
14 -9 23 -9 30 -2 6 6 8 17 5 25 -3 8 -25 27 -49 42 -35 22 -45 35 -51 65 -4
20 -16 47 -28 60 -11 12 -28 22 -38 22 -10 0 -21 -5 -24 -11 -4 -5 5 -21 19
-34 14 -13 28 -35 32 -49 3 -13 3 -29 0 -34 -3 -5 -27 -13 -53 -17 -26 -4 -59
-13 -74 -20 -14 -8 -31 -21 -38 -29 -8 -9 -18 -16 -24 -16 -6 0 -7 20 -3 53 4
28 16 64 26 79 11 15 20 32 20 38 0 5 25 34 55 64 30 29 55 56 55 60 0 3 -15
6 -32 6z"/>
</g>
</svg>
