<?xml version="1.0" standalone="no"?>
<!DOCTYPE svg PUBLIC "-//W3C//DTD SVG 20010904//EN"
 "http://www.w3.org/TR/2001/REC-SVG-20010904/DTD/svg10.dtd">
<svg version="1.0" xmlns="http://www.w3.org/2000/svg"
 width="56.000000pt" height="56.000000pt" viewBox="0 0 56.000000 56.000000"
 preserveAspectRatio="xMidYMid meet">
<metadata>
Created by potrace 1.16, written by Peter Selinger 2001-2019
</metadata>
<g transform="translate(0.000000,56.000000) scale(0.100000,-0.100000)"
fill="#000000" stroke="none">
<path d="M230 560 c-56 0 -60 -2 -60 -23 0 -13 5 -28 11 -34 7 -7 9 -29 6 -55
-3 -23 -10 -79 -17 -123 -6 -44 -9 -97 -7 -118 3 -21 13 -47 23 -58 9 -10 25
-19 35 -19 10 0 21 10 25 23 4 12 8 51 9 87 1 36 3 71 4 78 0 7 15 12 36 12
24 0 35 -5 35 -14 0 -8 -4 -18 -10 -21 -6 -3 -10 -19 -10 -35 0 -16 -4 -32
-10 -35 -6 -3 -10 -15 -10 -26 0 -11 -9 -39 -20 -61 -11 -23 -20 -47 -20 -52
0 -6 -11 -24 -25 -40 -14 -16 -25 -33 -25 -38 0 -4 4 -8 9 -8 5 0 23 12 40 26
17 14 31 34 31 45 0 10 9 34 20 54 11 20 20 43 20 51 0 9 10 50 22 92 12 43
31 84 42 93 19 16 19 16 -2 35 -12 10 -22 26 -22 36 0 10 -6 18 -14 18 -10 0
-16 -13 -18 -37 -3 -33 -7 -39 -38 -48 -19 -5 -41 -14 -47 -18 -8 -5 -13 -30
-13 -62 0 -29 -3 -60 -6 -69 -3 -9 -11 -16 -16 -16 -7 0 -8 28 -3 78 4 42 8
116 9 163 1 57 5 85 12 82 6 -2 23 1 37 6 15 6 27 15 27 21 0 6 -26 10 -60 10z"/>
<path d="M367 40 c-18 0 -38 -5 -45 -12 -7 -7 -12 -15 -12 -19 0 -4 20 -7 45
-7 37 1 45 5 45 20 0 14 -8 18 -33 18z"/>
</g>
</svg>
