<?xml version="1.0" standalone="no"?>
<!DOCTYPE svg PUBLIC "-//W3C//DTD SVG 20010904//EN"
 "http://www.w3.org/TR/2001/REC-SVG-20010904/DTD/svg10.dtd">
<svg version="1.0" xmlns="http://www.w3.org/2000/svg"
 width="56.000000pt" height="56.000000pt" viewBox="0 0 56.000000 56.000000"
 preserveAspectRatio="xMidYMid meet">
<metadata>
Created by potrace 1.16, written by Peter Selinger 2001-2019
</metadata>
<g transform="translate(0.000000,56.000000) scale(0.100000,-0.100000)"
fill="#000000" stroke="none">
<path d="M198 560 c-2 -1 -9 -7 -16 -16 -7 -8 -10 -19 -7 -24 3 -6 12 -10 20
-10 7 0 16 -7 19 -16 3 -8 3 -27 0 -41 -4 -13 -17 -46 -30 -73 -13 -27 -27
-51 -33 -54 -5 -3 -18 -24 -30 -46 -14 -26 -19 -50 -15 -65 3 -14 10 -25 14
-25 4 0 33 39 64 87 31 48 64 111 72 140 15 50 14 56 -2 81 -9 15 -25 35 -35
45 -10 9 -19 17 -21 17z"/>
<path d="M313 560 c-12 0 -23 -3 -23 -7 1 -5 15 -17 33 -28 17 -11 33 -28 35
-38 2 -10 -4 -43 -14 -75 -9 -31 -40 -100 -68 -152 -27 -52 -54 -97 -58 -98
-4 -2 -8 -12 -8 -21 0 -10 3 -21 7 -24 3 -4 30 7 58 23 29 17 67 30 84 30 26
0 31 -4 31 -22 0 -13 -14 -50 -30 -83 -17 -33 -30 -61 -30 -62 0 -2 11 -3 24
-3 13 0 28 6 34 12 5 7 19 30 31 51 13 22 21 55 21 82 0 37 -5 48 -25 61 -17
11 -37 15 -60 11 -19 -3 -36 -3 -39 1 -2 4 11 36 29 72 18 36 40 80 50 98 9
18 19 51 22 73 4 23 1 45 -7 54 -7 8 -26 21 -43 30 -16 8 -41 15 -54 15z"/>
</g>
</svg>
