<?xml version="1.0" standalone="no"?>
<!DOCTYPE svg PUBLIC "-//W3C//DTD SVG 20010904//EN"
 "http://www.w3.org/TR/2001/REC-SVG-20010904/DTD/svg10.dtd">
<svg version="1.0" xmlns="http://www.w3.org/2000/svg"
 width="56.000000pt" height="56.000000pt" viewBox="0 0 56.000000 56.000000"
 preserveAspectRatio="xMidYMid meet">
<metadata>
Created by potrace 1.16, written by Peter Selinger 2001-2019
</metadata>
<g transform="translate(0.000000,56.000000) scale(0.100000,-0.100000)"
fill="#000000" stroke="none">
<path d="M123 560 c-10 0 -38 -16 -63 -36 -25 -20 -44 -44 -43 -53 1 -9 9 -54
17 -101 8 -47 20 -119 26 -160 7 -41 14 -85 16 -98 4 -19 10 -23 37 -20 32 3
32 3 29 62 -3 44 2 73 20 118 23 59 23 59 73 52 28 -3 66 -12 85 -18 35 -11
35 -11 32 -76 -2 -36 -8 -78 -14 -95 -6 -16 -24 -49 -40 -72 -15 -23 -28 -47
-28 -53 0 -6 10 -10 22 -8 13 2 39 28 67 68 46 65 46 65 47 165 1 91 2 100 20
101 10 0 39 7 63 14 23 8 45 20 48 27 3 8 -3 20 -13 28 -11 8 -26 15 -35 15
-9 0 -23 10 -32 23 -8 12 -18 19 -23 14 -4 -4 -2 -13 4 -19 7 -7 12 -22 12
-34 0 -12 -6 -24 -12 -26 -7 -3 -19 -3 -25 -1 -8 3 -13 21 -13 43 0 23 6 42
14 47 8 4 15 15 16 23 1 8 2 21 1 28 0 6 -10 12 -21 12 -11 0 -29 -9 -40 -20
-16 -16 -20 -33 -20 -85 0 -65 0 -65 -85 -65 -47 0 -85 -4 -85 -9 0 -6 -13
-24 -30 -42 -16 -18 -31 -31 -34 -28 -2 2 -9 27 -16 54 -7 28 -14 77 -17 110
-4 58 -4 61 26 78 17 10 31 22 31 28 0 5 -8 9 -17 9z"/>
</g>
</svg>
