<?xml version="1.0" standalone="no"?>
<!DOCTYPE svg PUBLIC "-//W3C//DTD SVG 20010904//EN"
 "http://www.w3.org/TR/2001/REC-SVG-20010904/DTD/svg10.dtd">
<svg version="1.0" xmlns="http://www.w3.org/2000/svg"
 width="56.000000pt" height="56.000000pt" viewBox="0 0 56.000000 56.000000"
 preserveAspectRatio="xMidYMid meet">
<metadata>
Created by potrace 1.16, written by Peter Selinger 2001-2019
</metadata>
<g transform="translate(0.000000,56.000000) scale(0.100000,-0.100000)"
fill="#000000" stroke="none">
<path d="M131 560 c-17 0 -31 -6 -35 -16 -3 -9 -6 -20 -6 -25 0 -5 8 -9 18 -9
12 0 24 -18 40 -58 12 -32 22 -62 22 -68 0 -6 -12 -22 -27 -36 -16 -14 -36
-28 -46 -30 -10 -1 -18 -7 -18 -13 0 -5 16 -11 35 -13 27 -2 33 -7 29 -22 -3
-10 0 -27 6 -39 11 -20 13 -20 42 -6 16 9 34 13 39 10 6 -3 10 -13 10 -22 0
-9 -6 -24 -14 -32 -7 -9 -17 -25 -20 -37 -4 -14 -1 -26 10 -35 9 -7 28 -14 42
-15 15 -1 33 -2 40 -3 6 0 12 -4 12 -8 0 -5 -14 -22 -30 -40 -17 -18 -30 -34
-30 -37 0 -4 10 -6 21 -6 13 0 42 21 70 48 38 38 47 53 42 71 -3 12 -21 30
-39 39 -19 8 -34 20 -34 25 0 5 14 26 32 46 17 19 42 41 56 48 13 7 34 13 46
13 12 0 27 5 34 12 7 7 12 18 12 25 0 7 -11 13 -24 13 -13 0 -50 -14 -82 -31
-33 -17 -66 -37 -75 -45 -8 -8 -23 -14 -31 -14 -9 0 -18 6 -21 14 -3 8 -3 23
0 34 3 12 -3 27 -15 38 -11 11 -30 53 -42 94 -13 41 -27 79 -32 85 -4 5 -8 17
-8 27 0 13 -8 18 -29 18z"/>
<path d="M225 560 c-17 0 -25 -5 -22 -12 2 -7 12 -13 22 -13 10 0 20 6 23 13
2 7 -6 12 -23 12z"/>
<path d="M350 560 c-13 0 -20 -5 -17 -12 2 -7 10 -13 17 -13 7 0 15 6 18 13 2
7 -5 12 -18 12z"/>
</g>
</svg>
