<?xml version="1.0" standalone="no"?>
<!DOCTYPE svg PUBLIC "-//W3C//DTD SVG 20010904//EN"
 "http://www.w3.org/TR/2001/REC-SVG-20010904/DTD/svg10.dtd">
<svg version="1.0" xmlns="http://www.w3.org/2000/svg"
 width="56.000000pt" height="56.000000pt" viewBox="0 0 56.000000 56.000000"
 preserveAspectRatio="xMidYMid meet">
<metadata>
Created by potrace 1.16, written by Peter Selinger 2001-2019
</metadata>
<g transform="translate(0.000000,56.000000) scale(0.100000,-0.100000)"
fill="#000000" stroke="none">
<path d="M325 560 c-19 0 -35 -5 -35 -10 0 -6 -16 -34 -35 -63 -19 -28 -35
-55 -35 -59 0 -5 7 -8 15 -8 8 0 39 24 70 54 30 30 55 61 55 70 0 12 -10 16
-35 16z"/>
<path d="M435 560 c-8 0 -14 -22 -19 -62 -3 -35 -13 -69 -23 -80 -10 -11 -30
-18 -51 -18 -20 0 -44 -7 -54 -17 -10 -9 -28 -21 -41 -27 -12 -6 -40 -45 -62
-88 -22 -43 -48 -86 -57 -95 -13 -12 -21 -14 -28 -7 -6 6 -13 27 -16 46 -4 23
2 60 16 106 14 45 20 83 17 104 -3 18 -9 48 -13 66 -3 17 -12 32 -19 32 -9 0
-15 -19 -18 -57 -2 -32 -10 -97 -17 -145 -7 -48 -9 -106 -6 -130 5 -28 19 -57
41 -83 28 -32 38 -38 51 -30 9 6 25 26 35 45 10 19 25 59 34 88 9 30 26 69 38
87 12 19 32 39 45 45 13 5 41 10 62 10 39 0 40 -1 40 -33 0 -19 -9 -63 -21
-98 -12 -35 -31 -83 -44 -107 -13 -24 -35 -57 -49 -73 -14 -16 -26 -31 -26
-34 0 -3 18 -5 41 -5 26 0 38 4 33 11 -3 6 7 29 24 52 16 23 39 62 51 87 12
24 26 74 32 110 6 36 16 75 21 87 6 12 20 23 32 25 12 2 21 10 21 18 0 8 -10
19 -22 25 -20 8 -23 17 -23 62 0 28 -3 58 -6 67 -3 9 -12 16 -19 16z"/>
</g>
</svg>
