<?xml version="1.0" standalone="no"?>
<!DOCTYPE svg PUBLIC "-//W3C//DTD SVG 20010904//EN"
 "http://www.w3.org/TR/2001/REC-SVG-20010904/DTD/svg10.dtd">
<svg version="1.0" xmlns="http://www.w3.org/2000/svg"
 width="56.000000pt" height="56.000000pt" viewBox="0 0 56.000000 56.000000"
 preserveAspectRatio="xMidYMid meet">
<metadata>
Created by potrace 1.16, written by Peter Selinger 2001-2019
</metadata>
<g transform="translate(0.000000,56.000000) scale(0.100000,-0.100000)"
fill="#000000" stroke="none">
<path d="M101 560 c-6 0 -1 -16 11 -37 13 -24 21 -55 20 -83 0 -25 -1 -96 -2
-158 -1 -63 4 -135 11 -165 7 -28 18 -58 25 -65 9 -11 17 -11 32 -3 10 6 22
25 26 42 3 17 6 52 6 78 0 25 3 63 6 83 5 29 11 38 26 38 11 0 28 -5 39 -10
10 -6 19 -18 19 -27 0 -13 3 -13 15 -3 13 11 15 8 15 -17 0 -16 -7 -52 -15
-81 -9 -28 -31 -72 -50 -97 -19 -25 -35 -47 -35 -50 0 -3 9 -5 19 -5 11 0 37
22 61 53 23 28 47 63 52 77 6 14 14 49 19 79 4 31 16 62 28 75 12 12 21 28 21
34 0 7 -11 17 -25 22 -14 5 -25 17 -25 25 0 9 -7 29 -15 45 -10 20 -23 30 -39
30 -12 0 -25 -2 -28 -5 -3 -3 3 -22 14 -43 10 -20 17 -46 16 -57 -2 -16 -9
-19 -33 -16 -16 2 -41 5 -55 5 -20 1 -30 -8 -47 -44 -13 -24 -23 -57 -23 -73
0 -18 -4 -27 -12 -24 -9 3 -13 28 -11 88 0 46 4 113 8 149 7 64 6 65 -28 103
-19 20 -40 37 -46 37z"/>
</g>
</svg>
