<?xml version="1.0" standalone="no"?>
<!DOCTYPE svg PUBLIC "-//W3C//DTD SVG 20010904//EN"
 "http://www.w3.org/TR/2001/REC-SVG-20010904/DTD/svg10.dtd">
<svg version="1.0" xmlns="http://www.w3.org/2000/svg"
 width="56.000000pt" height="56.000000pt" viewBox="0 0 56.000000 56.000000"
 preserveAspectRatio="xMidYMid meet">
<metadata>
Created by potrace 1.16, written by Peter Selinger 2001-2019
</metadata>
<g transform="translate(0.000000,56.000000) scale(0.100000,-0.100000)"
fill="#000000" stroke="none">
<path d="M135 560 c-24 0 -25 -2 -25 -64 0 -36 -4 -67 -9 -70 -5 -3 -11 -20
-14 -38 -4 -18 -9 -48 -13 -66 -5 -24 -2 -38 11 -52 10 -11 22 -17 26 -14 5 3
9 20 9 37 0 18 9 61 20 97 11 36 20 89 20 118 0 49 -1 52 -25 52z"/>
<path d="M346 539 c-12 0 -27 -3 -33 -6 -7 -2 -13 -13 -13 -24 0 -14 7 -19 25
-19 18 0 28 -7 35 -26 6 -14 10 -34 10 -46 0 -17 -5 -19 -37 -15 -21 3 -47 8
-59 12 -15 4 -30 -1 -52 -20 -18 -15 -32 -35 -32 -46 0 -10 4 -19 8 -19 5 0
17 9 27 20 10 11 26 20 36 20 10 0 21 -4 24 -10 3 -5 24 -10 47 -10 40 0 40 0
35 -37 -3 -21 -9 -53 -13 -72 -4 -18 -17 -51 -29 -72 -12 -22 -54 -64 -93 -94
-40 -30 -76 -55 -81 -55 -6 0 -13 -5 -16 -10 -4 -6 8 -10 29 -10 22 0 45 9 64
25 17 14 37 25 45 25 9 0 28 5 42 12 14 6 25 15 25 21 0 5 8 21 18 35 10 15
24 47 31 72 7 25 17 61 22 80 5 19 10 51 11 70 2 27 8 35 27 40 14 3 26 11 29
18 2 6 -10 20 -27 29 -17 10 -35 31 -41 47 -6 16 -18 38 -27 48 -9 10 -26 18
-37 17z"/>
<path d="M192 320 c-5 0 -12 -3 -15 -7 -4 -3 -7 -15 -7 -25 0 -10 7 -18 15
-18 9 0 15 9 15 25 0 14 -4 25 -8 25z"/>
<path d="M164 220 c-8 0 -14 -10 -14 -25 0 -14 6 -25 13 -25 8 0 16 3 19 6 3
3 4 14 1 25 -3 10 -12 19 -19 19z"/>
</g>
</svg>
