<?xml version="1.0" standalone="no"?>
<!DOCTYPE svg PUBLIC "-//W3C//DTD SVG 20010904//EN"
 "http://www.w3.org/TR/2001/REC-SVG-20010904/DTD/svg10.dtd">
<svg version="1.0" xmlns="http://www.w3.org/2000/svg"
 width="56.000000pt" height="56.000000pt" viewBox="0 0 56.000000 56.000000"
 preserveAspectRatio="xMidYMid meet">
<metadata>
Created by potrace 1.16, written by Peter Selinger 2001-2019
</metadata>
<g transform="translate(0.000000,56.000000) scale(0.100000,-0.100000)"
fill="#000000" stroke="none">
<path d="M112 560 c-38 0 -38 0 -59 -107 -12 -60 -24 -135 -27 -168 -3 -33 0
-93 7 -134 11 -70 14 -75 42 -82 21 -6 34 -4 47 8 10 9 18 30 18 48 0 18 9 70
21 116 11 46 32 116 45 155 25 71 25 71 84 71 52 0 60 -3 69 -24 6 -13 11 -68
11 -121 0 -53 -7 -126 -14 -162 -8 -36 -23 -85 -35 -110 -20 -45 -20 -45 15
-48 25 -2 40 2 49 14 7 10 23 46 34 80 16 45 23 94 27 185 3 68 7 129 9 136 2
6 16 13 32 15 18 2 28 9 28 20 0 9 3 20 7 23 4 4 -8 20 -27 36 -18 16 -41 29
-51 29 -10 0 -28 -10 -41 -21 -12 -12 -35 -22 -50 -22 -15 0 -45 4 -65 8 -20
4 -48 5 -62 1 -15 -4 -33 -20 -42 -37 -9 -18 -23 -55 -31 -83 -8 -28 -22 -63
-29 -78 -8 -16 -19 -28 -24 -28 -6 0 -10 20 -10 44 0 24 9 75 21 112 11 38 25
73 30 79 5 5 9 17 9 27 0 14 -8 18 -38 18z"/>
</g>
</svg>
