<?xml version="1.0" standalone="no"?>
<!DOCTYPE svg PUBLIC "-//W3C//DTD SVG 20010904//EN"
 "http://www.w3.org/TR/2001/REC-SVG-20010904/DTD/svg10.dtd">
<svg version="1.0" xmlns="http://www.w3.org/2000/svg"
 width="56.000000pt" height="56.000000pt" viewBox="0 0 56.000000 56.000000"
 preserveAspectRatio="xMidYMid meet">
<metadata>
Created by potrace 1.16, written by Peter Selinger 2001-2019
</metadata>
<g transform="translate(0.000000,56.000000) scale(0.100000,-0.100000)"
fill="#000000" stroke="none">
<path d="M253 560 c-43 -1 -82 -5 -88 -11 -5 -5 -35 -33 -66 -63 -53 -50 -56
-57 -67 -124 -9 -51 -9 -79 -1 -99 6 -15 12 -51 15 -80 2 -28 13 -73 24 -98
11 -26 25 -45 31 -43 6 2 23 38 37 80 15 43 42 98 59 123 30 42 35 45 75 44
24 -1 49 -6 56 -12 6 -5 12 -22 12 -36 0 -15 -7 -47 -15 -72 -8 -24 -30 -60
-48 -79 -17 -19 -48 -47 -67 -62 -35 -28 -35 -28 15 -28 39 0 56 5 75 24 14
12 36 36 50 52 14 16 30 45 37 64 6 19 14 51 18 70 4 19 9 43 11 53 3 10 15
17 29 17 13 0 35 4 48 9 13 5 27 17 30 26 5 11 -3 22 -26 35 -17 11 -47 20
-64 20 -18 0 -33 5 -33 12 0 6 -11 35 -25 64 -14 29 -30 56 -35 59 -6 3 -10
17 -10 31 0 23 -2 24 -77 24z m30 -31 c4 1 17 -20 28 -46 11 -25 24 -66 30
-91 5 -25 6 -49 2 -53 -5 -5 -35 -4 -68 1 -40 6 -63 6 -71 -1 -7 -6 -27 -38
-44 -72 -18 -34 -38 -68 -45 -75 -10 -11 -15 -9 -27 10 -12 18 -13 37 -8 86 5
34 20 86 34 116 14 29 35 61 47 72 11 10 42 27 67 36 26 9 51 17 55 17z"/>
</g>
</svg>
