<?xml version="1.0" standalone="no"?>
<!DOCTYPE svg PUBLIC "-//W3C//DTD SVG 20010904//EN"
 "http://www.w3.org/TR/2001/REC-SVG-20010904/DTD/svg10.dtd">
<svg version="1.0" xmlns="http://www.w3.org/2000/svg"
 width="128.000000pt" height="128.000000pt" viewBox="0 0 128.000000 128.000000"
 preserveAspectRatio="xMidYMid meet">
<metadata>
Created by potrace 1.16, written by Peter Selinger 2001-2019
</metadata>
<g transform="translate(0.000000,128.000000) scale(0.100000,-0.100000)"
fill="#000000" stroke="none">
<path d="M525 1280 c-7 0 -15 -10 -18 -22 -4 -13 2 -32 14 -49 10 -15 19 -37
19 -49 0 -17 4 -21 18 -15 9 4 41 11 71 16 30 4 59 13 64 18 5 5 7 17 3 26 -3
9 -21 22 -41 30 -19 8 -50 15 -70 15 -22 0 -38 6 -41 15 -4 8 -12 15 -19 15z"/>
<path d="M868 1180 c-7 0 -20 -5 -28 -10 -8 -6 -33 -15 -55 -21 -22 -6 -67
-18 -100 -25 -33 -8 -93 -23 -134 -33 -41 -11 -78 -18 -82 -15 -5 2 -25 -3
-46 -13 -21 -9 -58 -20 -83 -23 -31 -3 -46 -10 -48 -22 -2 -11 8 -23 29 -33
18 -10 45 -15 63 -12 17 2 39 7 49 12 13 5 17 2 17 -15 0 -12 8 -35 17 -50 14
-25 15 -36 4 -87 -6 -32 -17 -76 -22 -98 -6 -22 -13 -56 -15 -75 -3 -19 -14
-91 -24 -160 -10 -69 -22 -167 -25 -218 -5 -68 -11 -92 -21 -92 -7 0 -27 24
-44 53 -26 44 -30 60 -26 102 2 28 10 78 18 111 8 34 13 76 10 95 -2 19 -9 40
-15 47 -6 7 -26 20 -45 28 -19 7 -38 11 -43 8 -5 -3 -9 -14 -9 -24 0 -11 9
-34 19 -51 16 -25 18 -43 14 -83 -4 -28 -15 -65 -26 -83 -12 -21 -21 -62 -26
-111 -3 -42 -5 -85 -3 -94 2 -11 13 -18 27 -18 12 0 29 10 38 23 10 15 18 19
26 12 6 -6 21 -37 34 -68 13 -32 31 -67 40 -78 9 -10 23 -19 31 -19 7 0 23 8
35 18 16 13 24 35 31 92 5 41 14 120 20 175 6 55 15 127 20 160 5 33 17 105
25 160 9 55 21 124 27 153 6 29 18 58 26 65 8 6 33 17 56 23 23 7 82 27 131
46 50 20 115 47 146 61 51 23 57 29 61 62 2 19 -1 49 -8 65 -7 16 -26 36 -43
44 -16 9 -36 16 -43 16z m-56 -81 c15 1 29 -3 32 -8 4 -5 -6 -23 -20 -40 -15
-18 -65 -50 -121 -76 -52 -25 -103 -45 -114 -45 -13 0 -25 12 -35 36 -8 20
-14 43 -12 52 2 10 14 18 28 20 14 1 57 12 95 23 39 12 81 25 95 29 14 5 37 9
52 9z"/>
<path d="M889 917 c-13 2 -37 -4 -54 -12 -16 -8 -45 -26 -64 -40 -22 -16 -47
-25 -70 -25 -21 0 -42 -5 -49 -12 -7 -7 -12 -18 -12 -24 0 -7 14 -33 30 -57
17 -25 30 -52 30 -60 0 -9 -20 -30 -45 -47 -39 -27 -45 -36 -45 -66 0 -22 6
-37 16 -41 9 -3 30 -1 47 5 18 6 64 22 102 36 39 14 73 26 78 26 4 0 7 -7 7
-15 0 -8 -9 -15 -19 -15 -10 0 -50 -25 -89 -55 -38 -30 -72 -62 -76 -70 -3 -9
-6 -27 -6 -40 0 -15 7 -26 20 -30 12 -4 44 5 80 21 56 25 62 26 77 11 15 -15
15 -19 -2 -57 -11 -25 -27 -43 -40 -46 -13 -3 -40 -1 -61 5 -22 6 -51 11 -66
11 -16 0 -28 -4 -28 -9 0 -5 16 -19 35 -32 19 -13 35 -31 35 -41 0 -11 -15
-20 -52 -29 -29 -6 -68 -18 -85 -26 -22 -9 -33 -20 -33 -33 0 -13 10 -24 26
-30 14 -6 38 -10 54 -10 16 0 59 16 94 35 36 19 74 35 85 35 10 0 37 -15 58
-33 22 -18 72 -57 111 -86 43 -31 78 -51 87 -47 10 3 15 19 15 47 0 38 -6 47
-64 103 -35 33 -78 69 -96 79 -32 17 -32 17 -11 50 11 19 23 60 27 97 5 56 4
67 -12 81 -11 9 -29 19 -41 21 -13 4 -24 0 -27 -8 -3 -8 -12 -14 -20 -14 -8 0
-18 5 -21 10 -3 6 2 13 12 16 10 3 36 15 58 26 22 12 51 31 65 43 14 12 35 28
48 34 13 7 22 21 22 35 0 13 -7 29 -15 36 -10 8 -32 11 -63 7 -27 -3 -75 -19
-107 -36 -33 -17 -67 -31 -77 -31 -9 0 -19 4 -22 8 -2 4 -2 13 2 19 4 6 30 22
57 36 28 14 69 45 92 70 23 25 46 62 52 83 9 33 8 43 -8 64 -10 14 -29 26 -42
27z m-47 -77 c13 0 18 -8 18 -29 0 -21 -8 -36 -29 -50 -16 -12 -36 -21 -44
-21 -8 0 -21 7 -28 16 -12 15 -9 21 25 50 22 19 48 34 58 34z"/>
<path d="M1075 510 c-8 0 -17 -5 -21 -11 -3 -6 -2 -15 4 -21 6 -6 18 -8 26 -5
9 4 13 13 10 22 -3 8 -12 15 -19 15z"/>
<path d="M643 50 c-5 0 -13 -3 -16 -7 -4 -3 -7 -15 -7 -25 0 -13 8 -18 30 -18
17 0 30 3 30 8 0 4 -7 15 -14 25 -7 9 -18 17 -23 17z"/>
</g>
</svg>
