<?xml version="1.0" standalone="no"?>
<!DOCTYPE svg PUBLIC "-//W3C//DTD SVG 20010904//EN"
 "http://www.w3.org/TR/2001/REC-SVG-20010904/DTD/svg10.dtd">
<svg version="1.0" xmlns="http://www.w3.org/2000/svg"
 width="128.000000pt" height="128.000000pt" viewBox="0 0 128.000000 128.000000"
 preserveAspectRatio="xMidYMid meet">
<metadata>
Created by potrace 1.16, written by Peter Selinger 2001-2019
</metadata>
<g transform="translate(0.000000,128.000000) scale(0.100000,-0.100000)"
fill="#000000" stroke="none">
<path d="M560 1253 c-25 3 -72 1 -105 -2 -33 -4 -68 -11 -77 -15 -9 -4 -14
-14 -12 -21 3 -7 16 -16 30 -19 13 -4 42 -23 64 -42 39 -35 40 -36 112 -30 41
3 81 8 91 12 12 4 17 15 15 32 -2 14 -18 37 -38 53 -23 18 -51 29 -80 32z"/>
<path d="M725 1063 c-38 3 -81 2 -95 -3 -14 -4 -36 -11 -50 -14 -14 -3 -49
-22 -79 -41 -30 -20 -78 -42 -106 -50 -28 -7 -63 -11 -77 -8 -14 3 -29 0 -33
-7 -4 -7 -1 -18 7 -26 8 -8 39 -21 69 -29 30 -8 66 -15 82 -15 15 0 37 6 48
13 18 10 23 9 33 -7 6 -10 21 -31 33 -45 17 -22 20 -34 14 -67 -4 -22 -11 -46
-15 -52 -4 -7 -13 -12 -21 -12 -7 0 -22 -10 -32 -23 -10 -12 -33 -33 -50 -45
-18 -13 -33 -29 -33 -37 0 -7 -6 -15 -13 -18 -7 -3 -32 -29 -54 -59 -27 -34
-44 -69 -49 -96 -5 -33 -3 -43 9 -48 9 -3 37 4 63 15 25 12 54 21 64 21 10 0
23 7 30 15 7 8 19 15 27 15 7 0 16 7 19 15 3 8 14 17 24 20 10 3 34 37 54 74
20 38 36 81 36 95 0 15 11 38 25 52 15 15 32 23 41 20 9 -3 21 -6 28 -6 7 0
17 -31 26 -77 11 -68 18 -83 50 -113 20 -19 52 -47 72 -62 26 -20 37 -37 41
-66 5 -30 1 -51 -18 -90 -17 -36 -32 -53 -50 -58 -14 -3 -45 -3 -70 0 -30 5
-45 12 -45 22 0 8 11 32 25 52 14 20 25 45 25 55 0 10 -12 22 -27 28 -16 6
-49 7 -77 3 -28 -3 -67 -18 -88 -32 -21 -13 -38 -33 -38 -42 0 -10 -6 -23 -14
-29 -8 -7 -22 -33 -30 -58 -9 -26 -16 -66 -16 -91 0 -31 7 -53 23 -72 12 -16
30 -40 40 -54 14 -20 26 -26 55 -26 20 1 65 9 100 18 49 14 69 26 90 52 15 19
40 47 57 61 27 25 31 25 52 12 12 -8 31 -12 43 -8 11 3 27 20 36 37 15 29 15
31 -9 57 -24 24 -25 28 -12 58 8 18 16 51 20 75 6 39 3 48 -35 98 -27 35 -53
58 -71 63 -17 4 -35 19 -44 36 -8 17 -15 60 -16 100 -1 54 -6 74 -20 87 -10 9
-39 19 -63 21 -25 3 -51 12 -57 20 -9 10 -9 20 -1 38 7 14 20 26 29 26 10 1
22 1 26 0 4 -1 32 17 62 39 30 22 59 49 65 60 6 12 8 30 5 40 -4 11 -21 31
-38 44 -24 17 -50 25 -102 29z m-37 -54 c12 1 31 -8 43 -20 21 -21 21 -21 -12
-53 -19 -18 -41 -35 -50 -38 -10 -4 -32 4 -53 18 -20 14 -36 28 -36 33 0 4 8
15 18 24 9 9 29 20 42 26 14 5 35 10 48 10z m-140 -359 c6 0 12 -9 12 -20 0
-12 -11 -42 -24 -68 -13 -26 -36 -59 -51 -74 -15 -15 -36 -30 -47 -34 -11 -3
-25 -1 -31 5 -8 8 -8 16 -2 25 6 7 29 38 52 67 24 30 51 64 60 76 10 13 24 23
31 23z m98 -300 c8 0 14 -10 14 -22 0 -13 -10 -42 -22 -65 -13 -25 -30 -43
-40 -43 -9 0 -23 3 -32 6 -9 3 -16 15 -16 25 0 10 19 37 41 59 23 22 48 40 55
40z m68 -182 c55 -2 71 -7 74 -19 2 -9 -20 -33 -55 -59 -40 -29 -71 -44 -99
-48 -35 -4 -44 -1 -58 19 -9 13 -16 32 -16 42 0 9 8 21 18 24 9 4 28 15 41 25
20 15 39 18 95 16z"/>
</g>
</svg>
