<?xml version="1.0" standalone="no"?>
<!DOCTYPE svg PUBLIC "-//W3C//DTD SVG 20010904//EN"
 "http://www.w3.org/TR/2001/REC-SVG-20010904/DTD/svg10.dtd">
<svg version="1.0" xmlns="http://www.w3.org/2000/svg"
 width="128.000000pt" height="128.000000pt" viewBox="0 0 128.000000 128.000000"
 preserveAspectRatio="xMidYMid meet">
<metadata>
Created by potrace 1.16, written by Peter Selinger 2001-2019
</metadata>
<g transform="translate(0.000000,128.000000) scale(0.100000,-0.100000)"
fill="#000000" stroke="none">
<path d="M478 1260 c-10 0 -18 -6 -18 -12 0 -7 24 -48 52 -90 29 -43 56 -78
61 -78 4 0 21 10 37 22 18 13 30 31 30 44 0 13 -13 33 -31 48 -17 14 -38 26
-47 26 -9 0 -28 9 -42 20 -14 11 -33 20 -42 20z"/>
<path d="M231 1084 c-5 3 -14 0 -20 -7 -7 -9 -8 -38 -1 -94 5 -44 18 -106 29
-138 11 -32 28 -66 37 -76 10 -11 23 -19 30 -19 8 0 25 17 38 38 13 20 27 61
31 90 7 49 10 55 41 68 19 8 59 21 91 29 31 8 84 17 117 21 46 4 66 2 81 -9
13 -11 17 -19 10 -26 -5 -5 -30 -14 -55 -20 -25 -6 -73 -16 -108 -23 -35 -7
-68 -18 -74 -25 -8 -10 -2 -13 30 -13 23 0 43 -4 47 -10 3 -5 -7 -17 -22 -26
-15 -10 -45 -28 -65 -42 -21 -14 -53 -48 -70 -76 -33 -51 -33 -51 -30 -302 3
-248 3 -252 -18 -257 -17 -4 -20 -10 -14 -31 3 -14 9 -50 13 -79 5 -47 9 -52
33 -55 17 -2 31 4 41 18 8 11 30 25 48 30 19 6 47 10 62 10 16 0 51 10 78 21
27 12 49 26 49 31 0 5 16 16 35 24 19 7 45 14 58 14 14 0 45 -9 71 -20 25 -12
83 -30 129 -42 45 -11 93 -26 107 -33 14 -7 41 -12 60 -11 28 1 36 6 45 30 8
25 6 31 -17 51 -19 16 -45 25 -85 29 -32 4 -92 12 -133 18 -41 6 -87 17 -101
24 -15 7 -29 21 -33 30 -4 9 0 24 8 33 7 9 23 35 35 58 11 23 21 50 21 60 0
10 -7 31 -15 47 -8 15 -15 34 -15 42 0 7 18 28 40 46 34 26 40 37 38 62 -2 16
-10 34 -19 39 -12 7 -28 4 -60 -10 -24 -12 -60 -28 -79 -36 -19 -8 -48 -19
-63 -26 -15 -6 -34 -11 -42 -11 -9 0 -15 10 -15 25 0 19 7 28 28 35 15 6 36
15 47 20 11 5 44 17 73 26 29 9 60 23 68 31 8 8 14 24 14 36 0 13 -7 32 -15
43 -8 12 -27 27 -43 33 -26 11 -37 9 -83 -10 -30 -13 -74 -40 -99 -62 -25 -22
-75 -54 -112 -73 -46 -23 -68 -30 -71 -21 -3 6 -2 35 1 62 3 28 14 62 24 78
11 15 27 27 35 27 9 0 49 16 90 35 41 19 81 35 91 35 9 0 22 4 27 8 6 4 19 20
29 35 15 25 23 28 49 24 18 -3 43 -8 57 -12 14 -4 37 -2 52 4 16 6 30 21 34
36 4 16 0 34 -10 50 -9 13 -41 36 -71 51 -47 22 -64 25 -108 19 -29 -4 -70
-11 -92 -17 -22 -6 -51 -10 -65 -9 -14 1 -65 -9 -112 -23 -48 -14 -106 -35
-130 -48 -24 -12 -47 -23 -52 -23 -4 0 -17 23 -27 50 -10 28 -19 58 -19 67 0
9 -4 19 -9 22z m480 -364 c11 0 19 -6 19 -13 0 -8 -11 -24 -24 -36 -15 -14
-33 -21 -50 -19 -15 2 -28 7 -29 13 -1 5 13 20 32 32 19 13 42 23 52 23z
m-119 -70 c4 0 10 -4 13 -10 3 -5 -2 -25 -12 -42 -10 -18 -32 -50 -50 -71 -17
-21 -46 -49 -64 -62 -17 -14 -36 -22 -40 -19 -5 3 -9 32 -9 64 0 48 4 61 19
70 11 5 30 10 43 10 13 0 39 14 58 30 19 16 38 30 42 30z m30 -180 c4 0 10 -5
13 -10 4 -6 -11 -31 -33 -55 -22 -25 -42 -59 -46 -76 -6 -31 -6 -31 -53 -24
-27 4 -51 12 -55 18 -4 7 -8 24 -8 40 0 23 4 27 28 27 15 0 54 18 87 40 33 22
63 40 67 40z m130 -115 c4 -5 8 -26 8 -45 0 -19 -3 -45 -6 -57 -4 -13 -10 -20
-15 -18 -4 3 -6 12 -2 20 3 9 -1 15 -11 15 -9 0 -16 -4 -16 -10 0 -5 -8 -10
-17 -10 -10 0 -37 8 -60 17 -25 10 -43 25 -43 34 0 9 20 22 53 35 28 10 63 21
77 24 14 3 28 1 32 -5z m-259 -81 c18 -9 56 -32 85 -52 28 -19 52 -42 52 -49
0 -8 -33 -30 -74 -49 -41 -19 -85 -34 -97 -34 -21 0 -22 2 -17 89 3 49 8 94
12 100 5 8 16 6 39 -5z"/>
<path d="M1098 1040 c-5 0 -11 -7 -14 -15 -3 -7 6 -29 20 -48 18 -23 26 -46
26 -73 -1 -21 -6 -49 -13 -61 -12 -23 -12 -23 -41 7 -15 17 -32 30 -36 30 -5
0 -12 -5 -15 -11 -4 -5 0 -18 9 -28 9 -10 16 -25 16 -34 0 -10 -9 -37 -21 -62
-12 -26 -18 -52 -14 -62 6 -16 9 -15 28 7 12 14 36 44 54 65 32 40 32 40 33
-44 0 -83 0 -83 -24 -67 -16 10 -27 12 -31 6 -3 -6 4 -29 17 -53 13 -23 28
-48 35 -54 6 -7 16 -13 22 -13 6 0 14 12 17 26 4 15 4 86 1 159 -3 83 -1 137
5 143 7 7 6 17 -1 30 -6 11 -11 32 -11 47 0 14 -12 43 -26 65 -15 22 -31 40
-36 40z"/>
<path d="M278 550 c-10 0 -21 -7 -24 -15 -4 -8 -1 -22 6 -30 7 -8 10 -26 6
-39 -3 -13 -30 -56 -58 -95 -29 -39 -62 -83 -73 -98 -11 -16 -25 -50 -32 -78
-6 -27 -9 -53 -7 -57 3 -5 16 -8 28 -8 14 0 40 16 63 38 21 21 51 63 66 94 16
32 31 73 34 93 3 19 9 35 12 35 4 0 13 27 20 60 12 55 12 62 -4 80 -10 11 -27
20 -37 20z"/>
</g>
</svg>
