<?xml version="1.0" standalone="no"?>
<!DOCTYPE svg PUBLIC "-//W3C//DTD SVG 20010904//EN"
 "http://www.w3.org/TR/2001/REC-SVG-20010904/DTD/svg10.dtd">
<svg version="1.0" xmlns="http://www.w3.org/2000/svg"
 width="128.000000pt" height="128.000000pt" viewBox="0 0 128.000000 128.000000"
 preserveAspectRatio="xMidYMid meet">
<metadata>
Created by potrace 1.16, written by Peter Selinger 2001-2019
</metadata>
<g transform="translate(0.000000,128.000000) scale(0.100000,-0.100000)"
fill="#000000" stroke="none">
<path d="M359 1220 c-21 0 -29 -5 -29 -18 0 -10 5 -23 11 -29 7 -7 10 -66 8
-169 -1 -88 -3 -170 -4 -184 -1 -14 -5 -44 -10 -68 -4 -23 -16 -49 -26 -56
-12 -8 -21 -31 -26 -61 -3 -26 -22 -76 -42 -111 -20 -34 -58 -90 -84 -124 -38
-49 -48 -68 -45 -93 2 -19 9 -33 19 -35 9 -2 27 14 43 38 15 23 34 40 45 40
15 0 19 7 19 35 0 24 10 47 34 77 33 42 33 42 36 1 2 -23 -2 -51 -7 -62 -6
-11 -11 -36 -11 -56 0 -29 -5 -38 -21 -42 -16 -4 -19 -11 -14 -27 3 -11 10
-64 15 -116 5 -52 9 -99 10 -103 0 -5 12 -7 27 -5 27 3 28 5 31 78 1 41 7 93
12 116 5 22 10 92 11 155 0 63 -2 122 -6 131 -5 14 24 49 127 152 73 73 163
156 200 185 37 28 72 51 78 51 5 0 10 -6 10 -12 0 -7 -9 -28 -20 -46 -11 -18
-38 -55 -60 -83 -21 -27 -37 -55 -34 -62 2 -7 18 -20 35 -30 29 -16 30 -20 24
-60 -4 -23 -11 -46 -16 -51 -5 -6 -9 -29 -9 -52 0 -36 5 -46 33 -68 17 -14 42
-36 55 -49 19 -18 22 -30 18 -67 -2 -25 -11 -62 -20 -83 -9 -20 -32 -55 -51
-75 -20 -23 -51 -44 -77 -52 -24 -7 -47 -17 -52 -22 -6 -4 -23 -8 -38 -8 -17
0 -28 -5 -28 -14 0 -7 7 -19 15 -26 9 -7 32 -10 57 -7 24 2 59 10 77 18 19 8
62 41 96 74 33 33 71 81 83 107 12 26 22 59 22 73 0 14 -10 46 -22 71 -14 32
-36 56 -69 77 -27 18 -49 40 -49 49 0 10 9 36 21 58 12 22 25 43 30 46 5 3 9
18 9 34 0 24 -8 35 -41 55 -40 26 -40 26 0 73 22 26 63 72 91 102 37 40 50 62
48 80 -3 21 -9 25 -40 28 -21 2 -51 -5 -71 -15 -19 -10 -66 -39 -104 -66 -39
-26 -83 -61 -98 -77 -16 -17 -35 -30 -42 -30 -7 0 -13 10 -13 23 0 12 -4 28
-9 36 -5 7 -33 21 -62 32 -54 18 -54 18 -54 156 0 76 -4 144 -8 151 -5 6 -21
12 -38 12z m61 -330 c3 0 15 -7 26 -15 19 -14 18 -15 -6 -35 -14 -11 -31 -20
-37 -20 -7 0 -13 10 -13 23 0 13 5 28 12 35 7 7 15 12 18 12z m2 -100 c18 0
43 -3 56 -6 12 -4 22 -12 22 -18 0 -6 -26 -37 -58 -69 -32 -32 -61 -55 -65
-51 -3 4 -4 32 -1 63 3 31 7 62 9 69 3 6 19 12 37 12z"/>
<path d="M10 815 c-6 4 -10 -22 -10 -70 0 -65 2 -76 16 -73 9 2 25 19 35 38
19 35 19 35 -6 53 -14 10 -25 25 -25 32 0 8 -4 17 -10 20z"/>
<path d="M1060 480 c-10 0 -20 -6 -22 -12 -3 -7 -3 -19 -1 -25 3 -7 15 -13 27
-13 13 0 39 -18 63 -42 23 -24 47 -56 53 -72 6 -16 8 -36 5 -44 -3 -10 -13
-12 -30 -8 -18 5 -25 2 -25 -7 0 -8 8 -21 18 -30 10 -10 21 -17 25 -17 3 0 21
-13 39 -30 18 -16 40 -30 50 -30 16 0 18 10 18 70 0 39 -4 70 -9 70 -5 0 -23
22 -39 48 -19 31 -51 62 -88 87 -33 21 -60 42 -62 47 -2 4 -12 8 -22 8z"/>
</g>
</svg>
