<?xml version="1.0" standalone="no"?>
<!DOCTYPE svg PUBLIC "-//W3C//DTD SVG 20010904//EN"
 "http://www.w3.org/TR/2001/REC-SVG-20010904/DTD/svg10.dtd">
<svg version="1.0" xmlns="http://www.w3.org/2000/svg"
 width="128.000000pt" height="128.000000pt" viewBox="0 0 128.000000 128.000000"
 preserveAspectRatio="xMidYMid meet">
<metadata>
Created by potrace 1.16, written by Peter Selinger 2001-2019
</metadata>
<g transform="translate(0.000000,128.000000) scale(0.100000,-0.100000)"
fill="#000000" stroke="none">
<path d="M724 1190 c-8 0 -22 -10 -32 -21 -9 -12 -38 -43 -63 -68 -25 -25 -49
-54 -52 -63 -4 -10 -11 -18 -17 -18 -5 0 -10 -7 -10 -16 0 -8 14 -20 30 -25
19 -7 30 -18 30 -30 0 -15 -7 -19 -39 -19 -22 0 -43 5 -46 10 -3 6 -19 10 -34
10 -17 0 -46 -14 -74 -36 -31 -24 -47 -44 -47 -59 0 -12 7 -36 16 -54 8 -17
30 -42 47 -55 18 -13 45 -26 60 -30 22 -5 27 -11 22 -26 -4 -11 -2 -20 3 -20
6 0 12 6 15 13 2 7 8 8 13 3 5 -5 4 -11 -3 -13 -7 -3 -13 -16 -13 -29 0 -15
-5 -24 -12 -22 -7 1 -29 -4 -48 -11 -19 -8 -50 -28 -67 -45 -18 -17 -33 -36
-33 -43 0 -6 9 -14 20 -18 10 -3 30 -1 42 6 13 6 57 46 98 88 53 54 87 81 117
90 36 12 47 12 82 -3 23 -9 52 -16 65 -16 12 0 31 -9 41 -20 10 -11 26 -20 35
-20 9 0 25 9 34 19 10 11 16 28 14 38 -2 11 -12 17 -23 17 -11 -1 -31 -3 -45
-5 -19 -3 -26 1 -28 18 -3 20 -7 21 -56 16 -53 -5 -53 -5 -59 42 -4 26 -7 61
-7 76 0 18 -8 34 -20 41 -11 7 -20 21 -20 30 0 14 8 18 35 18 19 0 35 5 35 10
0 6 -9 19 -20 30 -11 11 -26 20 -33 20 -7 0 -20 9 -30 20 -9 11 -17 24 -17 29
0 5 17 21 38 36 20 16 49 39 64 53 21 19 25 29 17 39 -6 7 -18 13 -25 13z"/>
<path d="M779 970 c-5 0 -13 -9 -19 -21 -9 -16 -8 -24 3 -37 8 -9 17 -26 18
-36 2 -10 12 -24 22 -30 14 -8 20 -8 27 4 5 8 10 21 10 28 0 7 -13 18 -30 23
-16 6 -30 15 -30 20 0 5 7 12 15 15 12 5 13 10 4 20 -6 8 -15 14 -20 14z"/>
<path d="M653 639 c-4 0 -14 -3 -20 -6 -8 -3 -13 -24 -13 -53 0 -27 4 -52 10
-55 5 -3 9 -18 8 -33 -1 -15 -1 -43 0 -63 2 -30 8 -39 41 -57 21 -12 48 -22
59 -22 12 0 29 -13 41 -34 12 -18 21 -46 21 -62 0 -16 7 -40 16 -52 12 -17 12
-22 2 -24 -7 0 -20 -1 -28 -2 -8 -1 -19 -11 -25 -22 -6 -12 -17 -29 -24 -38
-7 -9 -24 -16 -37 -16 -13 0 -28 -8 -33 -17 -10 -17 -10 -16 -11 2 0 11 -7 31
-16 43 -8 12 -19 22 -25 22 -5 0 -9 -5 -9 -11 0 -6 -11 -24 -25 -41 -14 -16
-25 -36 -25 -43 0 -8 18 -20 41 -26 32 -10 45 -10 60 -1 14 9 25 10 40 2 15
-9 28 -7 57 7 22 11 39 28 43 43 3 14 21 40 39 58 31 32 32 35 26 88 -3 31
-14 71 -24 89 -9 19 -43 54 -76 79 -32 26 -66 46 -76 46 -9 0 -20 3 -23 7 -4
3 0 14 9 24 9 10 18 36 21 58 5 39 4 41 -21 41 -23 0 -25 2 -15 19 7 10 9 26
6 35 -4 9 -10 16 -14 15z"/>
<path d="M784 640 c-8 0 -19 -11 -26 -25 -6 -13 -18 -26 -27 -28 -13 -4 -12
-5 2 -6 11 0 32 8 48 20 16 11 27 25 24 30 -4 5 -13 9 -21 9z"/>
</g>
</svg>
