<?xml version="1.0" standalone="no"?>
<!DOCTYPE svg PUBLIC "-//W3C//DTD SVG 20010904//EN"
 "http://www.w3.org/TR/2001/REC-SVG-20010904/DTD/svg10.dtd">
<svg version="1.0" xmlns="http://www.w3.org/2000/svg"
 width="128.000000pt" height="128.000000pt" viewBox="0 0 128.000000 128.000000"
 preserveAspectRatio="xMidYMid meet">
<metadata>
Created by potrace 1.16, written by Peter Selinger 2001-2019
</metadata>
<g transform="translate(0.000000,128.000000) scale(0.100000,-0.100000)"
fill="#000000" stroke="none">
<path d="M415 1280 c-18 0 -25 -5 -25 -20 0 -11 4 -20 9 -20 5 0 16 3 25 6 9
3 16 12 16 20 0 8 -10 14 -25 14z"/>
<path d="M596 1280 c-16 0 -27 -7 -31 -20 -5 -15 2 -31 25 -56 31 -36 31 -36
26 -130 -3 -52 -10 -111 -15 -132 -6 -21 -25 -52 -43 -69 -22 -21 -64 -42
-122 -62 -49 -17 -103 -31 -119 -31 -30 0 -30 0 -24 68 6 63 5 69 -22 102 -24
28 -32 32 -43 22 -10 -7 -17 -40 -21 -87 -5 -50 -3 -82 5 -94 9 -15 7 -22 -11
-40 -15 -15 -20 -28 -16 -39 4 -9 10 -25 12 -34 3 -10 0 -18 -6 -18 -6 0 -11
-9 -11 -19 0 -11 5 -21 12 -23 7 -3 11 -28 9 -76 -2 -69 -1 -74 28 -101 17
-16 43 -31 58 -33 16 -3 36 -9 45 -13 12 -5 20 -2 24 9 4 10 -2 26 -15 40 -11
12 -21 32 -21 44 0 12 -13 37 -30 55 -23 27 -30 44 -30 76 0 23 6 56 13 74 12
28 21 34 75 46 33 7 65 10 71 7 5 -4 25 0 43 7 18 8 42 24 52 36 11 11 29 21
41 21 15 0 26 -11 39 -40 17 -39 17 -40 -5 -70 -13 -16 -28 -30 -34 -30 -6 0
-22 -11 -35 -25 -14 -14 -35 -25 -50 -25 -17 0 -38 -13 -60 -35 -28 -29 -33
-39 -23 -53 6 -10 21 -16 34 -14 13 1 35 11 49 22 14 11 36 25 50 31 20 8 27
7 38 -8 10 -13 12 -39 8 -98 -3 -44 -9 -130 -12 -191 -5 -100 -4 -115 15 -153
20 -38 20 -43 6 -71 -8 -16 -15 -34 -15 -40 0 -5 22 -10 49 -10 50 0 50 0 46
98 -2 53 -8 126 -15 161 -6 36 -13 68 -15 72 -3 4 -1 28 4 55 5 26 5 58 1 70
-6 13 -3 37 6 65 12 34 13 48 4 65 -7 12 -9 31 -5 43 3 11 17 24 31 27 13 3
36 3 50 0 14 -4 32 -2 39 4 9 7 22 6 46 -4 19 -7 48 -16 65 -19 20 -4 38 -1
50 8 18 14 18 16 -14 45 -18 17 -43 30 -57 30 -14 0 -25 5 -25 11 0 6 14 26
32 45 18 19 39 34 48 34 8 0 23 12 33 26 12 16 17 34 13 50 -5 19 -3 24 13 24
11 0 23 -4 26 -10 3 -5 17 -10 31 -10 14 0 38 10 54 22 17 12 30 29 30 38 0 9
-12 28 -27 42 -16 14 -51 31 -78 38 -44 11 -55 10 -81 -3 -17 -9 -40 -14 -51
-11 -12 3 -24 1 -27 -5 -4 -6 -17 -11 -30 -11 -12 0 -26 -3 -29 -6 -4 -4 -31
-17 -61 -29 -46 -19 -54 -20 -47 -6 5 9 12 36 16 61 4 25 14 54 21 65 8 11 14
40 14 66 0 44 -2 47 -50 78 -27 18 -50 37 -50 42 0 5 -11 9 -24 9z m322 -311
c12 0 22 -1 22 -3 0 -2 -3 -11 -6 -20 -3 -9 -12 -16 -19 -16 -7 0 -19 -7 -26
-17 -8 -9 -29 -22 -47 -30 -23 -10 -34 -22 -39 -43 -4 -23 -11 -30 -28 -30
-12 0 -30 -9 -40 -20 -10 -11 -26 -20 -36 -20 -10 0 -23 9 -29 19 -5 11 -10
33 -10 48 0 16 5 34 12 41 7 7 19 12 27 12 8 0 38 11 67 25 30 14 71 32 91 39
21 8 48 14 61 15z"/>
</g>
</svg>
