<?xml version="1.0" standalone="no"?>
<!DOCTYPE svg PUBLIC "-//W3C//DTD SVG 20010904//EN"
 "http://www.w3.org/TR/2001/REC-SVG-20010904/DTD/svg10.dtd">
<svg version="1.0" xmlns="http://www.w3.org/2000/svg"
 width="128.000000pt" height="128.000000pt" viewBox="0 0 128.000000 128.000000"
 preserveAspectRatio="xMidYMid meet">
<metadata>
Created by potrace 1.16, written by Peter Selinger 2001-2019
</metadata>
<g transform="translate(0.000000,128.000000) scale(0.100000,-0.100000)"
fill="#000000" stroke="none">
<path d="M706 1280 c-21 -1 -37 -8 -49 -25 -10 -14 -27 -25 -39 -25 -15 0 -18
-3 -11 -12 6 -7 10 -40 9 -73 -1 -60 -1 -60 -50 -72 -26 -7 -56 -19 -65 -28
-10 -8 -27 -15 -39 -15 -12 0 -38 -11 -58 -25 -20 -14 -46 -25 -58 -25 -12 0
-32 -7 -44 -16 -13 -9 -30 -13 -38 -10 -8 3 -32 -5 -52 -19 -20 -14 -46 -25
-58 -25 -12 0 -38 -18 -62 -44 -22 -24 -44 -52 -50 -62 -5 -10 -13 -40 -16
-66 -6 -37 -3 -55 14 -87 11 -23 23 -66 26 -97 2 -31 12 -70 22 -86 9 -17 22
-40 29 -52 6 -11 25 -34 42 -50 19 -18 36 -26 46 -22 9 3 23 22 31 41 11 27
12 40 4 56 -7 11 -8 34 -5 52 4 18 11 37 15 42 4 6 4 37 0 70 -4 33 -15 78
-23 100 -9 22 -16 53 -17 69 0 26 2 28 31 24 25 -4 35 0 52 24 12 16 30 28 42
28 12 0 30 8 39 19 9 10 37 26 61 36 25 9 45 21 45 27 0 5 9 7 20 3 13 -4 26
2 41 19 14 16 26 22 33 17 6 -5 22 -11 36 -13 22 -3 26 -9 30 -50 3 -26 8 -50
12 -53 3 -3 27 -7 54 -9 42 -2 49 -6 52 -25 2 -12 1 -29 -2 -38 -5 -12 -9 -13
-20 -4 -10 8 -16 9 -21 1 -3 -5 -18 -10 -33 -10 -15 0 -35 -7 -44 -14 -10 -7
-18 -22 -18 -33 0 -15 -12 -25 -47 -37 -27 -10 -52 -19 -58 -22 -5 -2 -28 -14
-50 -27 -23 -14 -41 -33 -43 -45 -2 -11 -21 -37 -43 -56 -21 -20 -39 -38 -39
-41 0 -3 5 -5 12 -5 6 0 19 -7 29 -16 13 -12 22 -13 38 -5 11 6 37 11 59 11
29 0 44 6 60 25 12 14 33 25 47 25 13 0 29 -8 34 -18 6 -11 5 -34 -4 -67 -7
-28 -11 -82 -9 -122 2 -39 -1 -95 -5 -123 -5 -33 -4 -65 2 -87 8 -25 8 -40 -1
-54 -7 -10 -12 -28 -12 -39 0 -14 7 -20 24 -20 13 0 27 7 30 16 3 9 6 24 6 35
0 10 4 19 9 19 5 0 13 10 17 22 4 13 15 34 26 48 14 19 20 47 22 102 2 41 9
85 15 96 6 11 11 36 11 55 0 19 9 64 20 100 16 51 28 71 53 89 17 12 38 28 45
35 7 7 18 13 24 13 6 0 37 14 70 30 32 17 65 30 72 30 8 0 24 8 36 18 14 11
19 23 15 34 -4 10 -16 20 -27 24 -12 3 -27 -1 -38 -11 -12 -11 -20 -13 -25 -6
-3 6 -17 11 -31 11 -13 0 -24 6 -24 13 0 8 21 32 48 53 26 22 63 50 84 62 20
12 39 29 42 37 3 8 16 15 29 15 13 0 33 9 45 20 12 11 29 20 39 20 10 0 26 7
36 14 13 10 17 28 17 70 0 49 -3 56 -19 56 -11 0 -26 6 -33 13 -7 7 -24 20
-38 29 -16 10 -32 13 -45 8 -13 -5 -30 -2 -47 8 -26 15 -29 15 -53 -8 -19 -18
-35 -23 -72 -22 -27 0 -54 -4 -60 -10 -7 -6 -24 -7 -38 -4 -14 4 -30 17 -35
31 -5 13 -21 38 -36 55 -15 16 -33 30 -41 30 -7 0 -16 7 -19 15 -4 9 -19 15
-38 15z m341 -180 c7 0 16 -7 20 -16 3 -8 -1 -22 -9 -30 -12 -12 -17 -12 -33
0 -16 12 -17 16 -6 30 7 9 20 16 28 16z m74 -20 c4 0 11 -5 15 -11 3 -6 -1
-18 -10 -27 -12 -12 -19 -13 -28 -4 -8 8 -8 15 2 27 7 8 16 15 21 15z m-250
-40 c11 0 34 -7 52 -16 18 -9 35 -22 39 -28 4 -6 8 -15 8 -19 0 -4 -18 -24
-40 -44 -22 -21 -40 -42 -40 -48 0 -7 -11 -17 -25 -23 -14 -7 -32 -12 -40 -12
-11 0 -15 13 -15 48 0 26 6 63 13 82 7 19 16 41 20 48 5 6 17 12 28 12z m-160
-595 c5 -4 9 -13 9 -21 0 -8 -4 -14 -9 -14 -6 0 -13 5 -16 10 -3 6 -3 15 0 20
4 6 11 8 16 5z"/>
<path d="M655 840 c-8 0 -15 -4 -15 -9 0 -5 7 -14 15 -21 13 -10 15 -9 15 9 0
12 -6 21 -15 21z"/>
</g>
</svg>
