<?xml version="1.0" standalone="no"?>
<!DOCTYPE svg PUBLIC "-//W3C//DTD SVG 20010904//EN"
 "http://www.w3.org/TR/2001/REC-SVG-20010904/DTD/svg10.dtd">
<svg version="1.0" xmlns="http://www.w3.org/2000/svg"
 width="56.000000pt" height="56.000000pt" viewBox="0 0 56.000000 56.000000"
 preserveAspectRatio="xMidYMid meet">
<metadata>
Created by potrace 1.16, written by Peter Selinger 2001-2019
</metadata>
<g transform="translate(0.000000,56.000000) scale(0.100000,-0.100000)"
fill="#000000" stroke="none">
<path d="M282 529 c-12 6 -26 5 -42 -5 -14 -7 -43 -18 -65 -24 -22 -6 -52 -16
-67 -22 -16 -6 -28 -17 -28 -24 0 -8 12 -19 27 -25 14 -5 39 -7 55 -4 15 4 28
3 28 0 0 -4 -13 -22 -29 -41 -16 -18 -33 -39 -38 -46 -4 -7 -22 -23 -40 -35
-18 -13 -36 -23 -41 -23 -5 0 -17 -8 -26 -19 -11 -12 -15 -27 -11 -43 3 -13
15 -29 26 -36 11 -7 24 -10 29 -7 6 4 10 12 10 19 0 7 23 32 51 56 49 41 52
43 65 25 8 -10 14 -26 14 -36 0 -9 -8 -40 -17 -69 -17 -52 -17 -52 7 -70 22
-16 23 -20 10 -37 -8 -10 -21 -22 -28 -26 -7 -5 -10 -12 -7 -18 4 -5 17 -9 30
-9 13 0 30 6 37 13 7 7 42 27 78 44 36 18 79 35 95 39 17 4 50 16 75 26 25 11
53 27 63 36 10 9 17 29 17 53 0 20 -6 40 -12 42 -10 4 -9 8 2 16 9 6 10 11 3
11 -6 0 -17 16 -23 35 -6 19 -25 49 -42 66 -27 27 -36 30 -67 24 -26 -5 -54
-24 -99 -68 -51 -50 -65 -60 -79 -51 -9 6 -21 18 -27 28 -9 14 -5 22 20 45 18
16 43 48 57 72 19 33 23 48 16 61 -5 10 -18 22 -27 27z m156 -159 c14 0 21
-14 31 -59 11 -50 11 -63 0 -79 -8 -10 -30 -32 -49 -48 -19 -16 -52 -37 -73
-47 -21 -9 -42 -17 -47 -17 -6 0 -10 20 -10 44 0 25 5 48 10 51 6 3 10 16 10
28 0 12 22 42 55 74 30 29 63 53 73 53z"/>
</g>
</svg>
