<?xml version="1.0" standalone="no"?>
<!DOCTYPE svg PUBLIC "-//W3C//DTD SVG 20010904//EN"
 "http://www.w3.org/TR/2001/REC-SVG-20010904/DTD/svg10.dtd">
<svg version="1.0" xmlns="http://www.w3.org/2000/svg"
 width="56.000000pt" height="56.000000pt" viewBox="0 0 56.000000 56.000000"
 preserveAspectRatio="xMidYMid meet">
<metadata>
Created by potrace 1.16, written by Peter Selinger 2001-2019
</metadata>
<g transform="translate(0.000000,56.000000) scale(0.100000,-0.100000)"
fill="#000000" stroke="none">
<path d="M227 560 c-7 0 -18 -9 -24 -19 -10 -15 -9 -22 2 -31 8 -7 15 -25 15
-40 0 -21 -10 -37 -37 -59 -28 -23 -40 -28 -50 -19 -7 6 -13 17 -13 25 0 8 -6
13 -12 10 -7 -2 -12 -15 -10 -28 1 -13 9 -34 17 -46 9 -13 24 -23 35 -23 11 0
20 -3 20 -6 0 -3 -7 -18 -16 -32 -8 -15 -31 -38 -49 -52 -19 -14 -39 -35 -46
-47 -10 -19 -9 -26 6 -43 10 -11 22 -20 26 -20 5 0 23 22 41 49 17 27 40 52
50 54 10 3 26 -2 34 -11 13 -12 15 -28 11 -71 -3 -31 -9 -77 -13 -104 -6 -45
-6 -47 18 -47 22 0 26 6 31 38 4 20 13 60 22 88 9 32 30 67 54 93 21 22 45 41
53 41 8 0 19 -5 26 -12 7 -7 12 -28 12 -48 0 -27 -12 -50 -55 -104 -38 -48
-52 -73 -45 -80 7 -7 25 4 57 34 26 25 62 60 80 79 26 26 33 42 33 72 0 31 -6
43 -37 68 -21 17 -45 31 -55 31 -9 0 -27 -5 -40 -11 -13 -6 -38 -30 -56 -55
-18 -24 -37 -44 -42 -44 -6 0 -10 13 -10 29 0 20 -9 36 -25 49 -14 11 -25 27
-25 35 0 8 9 35 20 60 14 32 30 49 55 61 19 9 35 22 35 27 0 6 -14 16 -30 22
-20 8 -28 17 -25 26 3 7 -2 24 -10 37 -9 13 -21 24 -28 24z"/>
</g>
</svg>
