<?xml version="1.0" standalone="no"?>
<!DOCTYPE svg PUBLIC "-//W3C//DTD SVG 20010904//EN"
 "http://www.w3.org/TR/2001/REC-SVG-20010904/DTD/svg10.dtd">
<svg version="1.0" xmlns="http://www.w3.org/2000/svg"
 width="56.000000pt" height="56.000000pt" viewBox="0 0 56.000000 56.000000"
 preserveAspectRatio="xMidYMid meet">
<metadata>
Created by potrace 1.16, written by Peter Selinger 2001-2019
</metadata>
<g transform="translate(0.000000,56.000000) scale(0.100000,-0.100000)"
fill="#000000" stroke="none">
<path d="M371 539 c-14 0 -51 -9 -81 -20 -30 -10 -82 -20 -115 -22 -46 -2 -61
-6 -63 -19 -2 -11 11 -24 39 -38 36 -19 45 -20 66 -9 14 8 27 9 32 3 4 -5 4
-63 -1 -129 -4 -66 -10 -125 -13 -132 -2 -7 -19 -16 -37 -21 -23 -6 -36 -17
-43 -36 -6 -18 -6 -33 1 -44 6 -9 22 -18 36 -20 18 -2 32 5 47 25 12 15 30 39
40 52 15 21 20 22 40 11 22 -11 23 -17 18 -76 -5 -62 -4 -64 19 -64 17 0 24 6
24 20 0 10 5 30 11 43 8 17 8 35 0 65 -10 35 -17 43 -54 57 -43 16 -43 16 -39
83 2 37 9 78 16 92 10 22 18 25 61 26 28 1 66 8 86 17 20 9 39 25 42 36 3 12
-3 31 -15 46 -11 14 -36 32 -55 40 -20 8 -47 15 -62 14z m-18 -33 c17 -4 35
-10 40 -15 5 -5 0 -18 -12 -30 -12 -12 -30 -21 -40 -21 -12 0 -21 9 -25 25 -4
14 -4 31 0 36 4 7 20 8 37 5z"/>
<path d="M66 418 c-12 3 -16 -4 -16 -28 0 -17 4 -39 9 -48 5 -10 5 -58 -1
-118 -6 -60 -6 -114 -1 -135 7 -24 15 -34 29 -34 17 0 20 11 27 124 7 90 6
136 -3 165 -7 23 -15 48 -20 56 -4 8 -15 16 -24 18z"/>
</g>
</svg>
