<?xml version="1.0" standalone="no"?>
<!DOCTYPE svg PUBLIC "-//W3C//DTD SVG 20010904//EN"
 "http://www.w3.org/TR/2001/REC-SVG-20010904/DTD/svg10.dtd">
<svg version="1.0" xmlns="http://www.w3.org/2000/svg"
 width="56.000000pt" height="56.000000pt" viewBox="0 0 56.000000 56.000000"
 preserveAspectRatio="xMidYMid meet">
<metadata>
Created by potrace 1.16, written by Peter Selinger 2001-2019
</metadata>
<g transform="translate(0.000000,56.000000) scale(0.100000,-0.100000)"
fill="#000000" stroke="none">
<path d="M419 560 c-20 0 -39 -3 -41 -7 -1 -5 -23 -18 -46 -30 -24 -13 -52
-23 -62 -23 -11 0 -22 -5 -25 -11 -4 -6 1 -17 11 -24 11 -8 28 -14 39 -15 11
0 42 21 68 45 26 25 52 45 57 45 6 0 10 -9 10 -19 0 -11 6 -26 13 -33 9 -9 12
-44 10 -128 -2 -63 -9 -126 -15 -141 -11 -25 -13 -26 -25 -11 -7 10 -13 27
-13 39 0 12 -6 26 -14 30 -8 4 -16 22 -19 38 -2 17 -3 6 -1 -23 3 -29 8 -60
13 -70 5 -9 14 -29 22 -44 10 -23 10 -33 0 -55 -8 -16 -17 -36 -22 -45 -5 -10
-9 -31 -9 -48 0 -19 5 -30 14 -30 9 0 15 17 18 51 3 27 10 55 17 62 8 8 11 0
11 -31 0 -29 4 -42 14 -42 7 0 19 14 27 31 7 18 14 77 15 133 1 56 5 124 9
152 5 40 3 58 -9 77 -9 13 -19 48 -23 76 -6 51 -6 51 -44 51z"/>
<path d="M151 495 c-6 3 -17 -9 -25 -27 -8 -18 -17 -51 -20 -73 -3 -22 -10
-67 -17 -100 -6 -33 -13 -99 -16 -147 -3 -67 -1 -93 12 -117 9 -18 23 -31 34
-31 12 0 23 11 30 31 6 18 11 44 11 58 0 15 5 32 11 38 6 6 9 23 7 39 -2 16
-7 28 -13 27 -5 -1 -13 -17 -16 -35 -3 -18 -10 -41 -16 -52 -7 -13 -12 -15
-18 -7 -4 7 -4 62 0 122 4 60 11 112 16 115 5 3 9 30 9 60 0 30 5 54 10 54 6
0 10 9 10 19 0 11 -4 22 -9 26z"/>
</g>
</svg>
