<?xml version="1.0" standalone="no"?>
<!DOCTYPE svg PUBLIC "-//W3C//DTD SVG 20010904//EN"
 "http://www.w3.org/TR/2001/REC-SVG-20010904/DTD/svg10.dtd">
<svg version="1.0" xmlns="http://www.w3.org/2000/svg"
 width="56.000000pt" height="56.000000pt" viewBox="0 0 56.000000 56.000000"
 preserveAspectRatio="xMidYMid meet">
<metadata>
Created by potrace 1.16, written by Peter Selinger 2001-2019
</metadata>
<g transform="translate(0.000000,56.000000) scale(0.100000,-0.100000)"
fill="#000000" stroke="none">
<path d="M178 560 c-15 0 -30 -12 -43 -32 -11 -18 -26 -42 -33 -55 -10 -17
-10 -32 -2 -63 9 -33 8 -45 -9 -77 -10 -21 -28 -47 -40 -57 -12 -11 -21 -31
-21 -46 0 -17 7 -30 17 -34 10 -4 22 -1 28 7 5 8 24 35 42 60 18 26 50 58 72
72 22 14 47 25 55 25 8 0 20 -17 27 -37 7 -22 12 -80 11 -137 -1 -55 -4 -112
-7 -128 -5 -22 -12 -28 -34 -28 -15 0 -36 -7 -47 -15 -17 -13 -13 -14 52 -15
63 0 72 2 82 23 6 12 13 94 15 187 2 91 9 177 15 192 7 16 22 30 38 34 17 4
29 2 35 -7 5 -8 8 -32 7 -54 -2 -30 1 -40 13 -43 8 -1 28 2 42 7 24 9 27 16
27 60 0 44 -4 52 -35 80 -22 19 -47 31 -65 31 -18 0 -35 -9 -47 -24 -10 -13
-30 -45 -43 -72 -14 -27 -26 -50 -26 -52 -1 -1 -23 5 -50 14 -27 9 -51 18 -53
20 -2 1 7 18 20 36 13 18 30 43 36 57 7 13 13 25 13 27 0 2 -7 4 -15 4 -8 0
-24 9 -35 20 -11 11 -30 20 -42 20z"/>
<path d="M506 269 c-1 0 -11 -10 -24 -23 -12 -12 -19 -25 -16 -29 4 -4 15 -7
25 -7 13 0 17 8 17 30 -1 17 -1 30 -2 29z"/>
<path d="M471 140 c-6 0 -12 -4 -16 -9 -3 -5 -1 -12 3 -15 5 -3 12 -3 16 1 3
3 6 10 6 15 0 4 -4 8 -9 8z"/>
<path d="M472 20 c-9 0 -24 -5 -32 -10 -11 -7 -5 -10 23 -10 23 0 36 4 32 10
-3 6 -14 10 -23 10z"/>
</g>
</svg>
