<?xml version="1.0" standalone="no"?>
<!DOCTYPE svg PUBLIC "-//W3C//DTD SVG 20010904//EN"
 "http://www.w3.org/TR/2001/REC-SVG-20010904/DTD/svg10.dtd">
<svg version="1.0" xmlns="http://www.w3.org/2000/svg"
 width="56.000000pt" height="56.000000pt" viewBox="0 0 56.000000 56.000000"
 preserveAspectRatio="xMidYMid meet">
<metadata>
Created by potrace 1.16, written by Peter Selinger 2001-2019
</metadata>
<g transform="translate(0.000000,56.000000) scale(0.100000,-0.100000)"
fill="#000000" stroke="none">
<path d="M454 560 c-53 0 -55 -1 -48 -22 3 -13 8 -25 10 -27 2 -2 20 -4 39 -3
20 1 40 4 45 7 6 4 10 15 10 26 0 16 -7 19 -56 19z"/>
<path d="M25 540 c-22 0 -25 -4 -25 -36 0 -36 0 -36 25 -6 14 17 25 33 25 36
0 3 -11 6 -25 6z"/>
<path d="M128 540 c-8 0 -22 -8 -30 -17 -8 -10 -24 -33 -34 -51 -19 -33 -19
-33 2 -70 19 -34 20 -40 7 -72 -8 -19 -28 -49 -44 -66 -26 -27 -30 -38 -27
-75 3 -43 3 -43 44 -2 22 22 59 50 83 62 40 21 44 21 67 6 13 -8 26 -26 30
-39 3 -14 4 -51 1 -83 -3 -32 -8 -73 -12 -90 -6 -25 -3 -34 8 -39 9 -3 24 -1
34 4 14 8 22 31 31 93 8 56 17 86 28 92 11 6 14 17 9 34 -4 17 2 38 19 66 14
23 36 54 51 70 22 23 29 25 46 16 12 -6 28 -27 36 -47 9 -22 13 -52 10 -75 -4
-27 -1 -40 8 -44 8 -2 25 4 39 14 21 15 25 26 26 66 0 26 -4 47 -10 47 -5 0
-16 13 -24 28 -8 16 -33 36 -56 47 -40 18 -44 18 -72 2 -16 -9 -36 -17 -44
-17 -8 0 -14 -8 -14 -17 0 -10 -7 -31 -15 -47 -8 -15 -15 -34 -15 -41 0 -7 -7
-16 -16 -19 -9 -3 -28 3 -43 13 -15 11 -41 22 -57 25 -16 2 -32 5 -36 5 -5 1
-8 7 -8 14 0 8 14 33 31 56 17 24 28 49 25 57 -3 9 -20 14 -47 14 -37 0 -41 2
-35 20 3 11 9 29 12 40 4 14 2 20 -8 20z"/>
</g>
</svg>
