<?xml version="1.0" standalone="no"?>
<!DOCTYPE svg PUBLIC "-//W3C//DTD SVG 20010904//EN"
 "http://www.w3.org/TR/2001/REC-SVG-20010904/DTD/svg10.dtd">
<svg version="1.0" xmlns="http://www.w3.org/2000/svg"
 width="56.000000pt" height="56.000000pt" viewBox="0 0 56.000000 56.000000"
 preserveAspectRatio="xMidYMid meet">
<metadata>
Created by potrace 1.16, written by Peter Selinger 2001-2019
</metadata>
<g transform="translate(0.000000,56.000000) scale(0.100000,-0.100000)"
fill="#000000" stroke="none">
<path d="M185 504 c-39 5 -41 4 -52 -25 -10 -27 -16 -30 -38 -25 -20 5 -25 3
-25 -13 0 -11 12 -29 26 -40 24 -19 24 -21 10 -49 -8 -15 -32 -41 -54 -56 -36
-24 -40 -32 -45 -79 -2 -28 -2 -57 0 -64 3 -7 11 -13 18 -13 7 0 29 21 48 48
19 26 44 65 56 87 11 22 34 63 51 90 16 28 37 65 46 83 10 19 13 37 8 41 -5 5
-27 11 -49 15z"/>
<path d="M511 433 c-15 15 -31 24 -35 20 -4 -4 3 -15 15 -24 17 -13 22 -27 22
-61 0 -33 -7 -55 -29 -85 -16 -23 -55 -75 -86 -116 -32 -42 -58 -81 -58 -89 0
-7 15 3 33 23 17 19 57 63 87 98 30 34 65 80 78 102 12 22 22 48 22 59 0 11
-4 20 -10 20 -5 0 -10 6 -10 13 0 6 -13 24 -29 40z"/>
<path d="M310 380 c-4 14 -9 23 -10 20 -1 -3 -6 -57 -12 -120 -5 -63 -10 -143
-11 -177 -1 -35 2 -64 7 -65 5 -2 15 20 22 47 7 28 13 99 13 160 -1 61 -5 121
-9 135z"/>
</g>
</svg>
