<?xml version="1.0" standalone="no"?>
<!DOCTYPE svg PUBLIC "-//W3C//DTD SVG 20010904//EN"
 "http://www.w3.org/TR/2001/REC-SVG-20010904/DTD/svg10.dtd">
<svg version="1.0" xmlns="http://www.w3.org/2000/svg"
 width="56.000000pt" height="56.000000pt" viewBox="0 0 56.000000 56.000000"
 preserveAspectRatio="xMidYMid meet">
<metadata>
Created by potrace 1.16, written by Peter Selinger 2001-2019
</metadata>
<g transform="translate(0.000000,56.000000) scale(0.100000,-0.100000)"
fill="#000000" stroke="none">
<path d="M286 560 c-14 0 -26 -4 -26 -10 0 -5 -6 -10 -13 -10 -7 0 -30 -9 -52
-20 -22 -11 -47 -20 -56 -20 -9 0 -31 -16 -48 -35 -19 -22 -31 -47 -31 -64 0
-16 10 -37 25 -51 22 -21 23 -25 11 -55 -8 -17 -30 -53 -50 -80 -32 -42 -37
-54 -34 -94 3 -40 6 -46 26 -49 13 -2 32 4 42 13 10 9 23 31 30 48 6 18 21 51
31 74 11 23 38 58 61 77 23 20 46 32 55 29 8 -3 19 -16 24 -30 5 -13 11 -74
14 -135 4 -62 11 -118 17 -126 6 -7 23 -12 37 -10 25 3 26 5 25 73 -1 39 -3
113 -4 165 -1 52 4 117 10 145 6 27 16 55 22 62 6 7 16 13 22 13 7 0 22 -9 35
-21 17 -16 21 -30 19 -62 -2 -34 0 -42 15 -45 10 -2 29 -1 43 2 21 6 24 12 24
54 0 40 -5 53 -28 75 -16 15 -44 29 -69 33 -33 5 -49 2 -76 -15 -19 -12 -39
-34 -45 -49 -6 -15 -12 -40 -14 -57 -3 -27 -7 -30 -52 -38 -27 -4 -62 -17 -77
-28 -15 -10 -32 -19 -38 -19 -6 0 -11 5 -11 10 0 6 11 22 25 36 14 14 32 38
40 54 13 26 13 30 -1 44 -8 9 -20 16 -25 16 -6 0 -7 4 -4 10 3 5 20 16 38 24
18 8 43 16 57 18 17 2 26 10 28 26 3 18 -1 22 -22 22z m-154 -110 c22 0 22 0
1 -22 -13 -12 -25 -19 -29 -15 -4 3 -4 13 -1 22 4 8 17 15 29 15z"/>
<path d="M233 64 c-7 4 -13 3 -13 -1 0 -5 7 -19 16 -31 8 -12 22 -22 30 -22 8
0 14 4 14 8 0 5 -8 16 -17 24 -10 8 -24 18 -30 22z"/>
</g>
</svg>
