<?xml version="1.0" standalone="no"?>
<!DOCTYPE svg PUBLIC "-//W3C//DTD SVG 20010904//EN"
 "http://www.w3.org/TR/2001/REC-SVG-20010904/DTD/svg10.dtd">
<svg version="1.0" xmlns="http://www.w3.org/2000/svg"
 width="56.000000pt" height="56.000000pt" viewBox="0 0 56.000000 56.000000"
 preserveAspectRatio="xMidYMid meet">
<metadata>
Created by potrace 1.16, written by Peter Selinger 2001-2019
</metadata>
<g transform="translate(0.000000,56.000000) scale(0.100000,-0.100000)"
fill="#000000" stroke="none">
<path d="M188 560 c-7 0 -19 -12 -25 -27 -7 -15 -13 -37 -13 -49 0 -13 -4 -26
-10 -29 -5 -3 -10 -21 -10 -39 0 -17 -5 -37 -10 -42 -7 -7 -12 -76 -13 -172
-2 -151 -1 -162 18 -176 17 -13 22 -13 36 0 9 8 21 46 28 84 8 44 10 90 5 123
-8 52 -8 52 -19 -16 -7 -37 -17 -73 -23 -79 -9 -9 -12 16 -12 104 0 67 4 119
10 123 6 3 10 21 10 40 0 19 5 37 10 40 6 3 10 21 10 40 0 19 5 37 10 40 6 3
10 13 10 21 0 8 -6 14 -12 14z"/>
<path d="M406 530 c-2 0 -1 -22 2 -50 3 -30 0 -55 -7 -64 -8 -10 -9 -16 -2
-21 7 -4 10 -68 10 -171 -1 -91 -2 -164 -4 -162 -2 2 -17 30 -34 62 -22 41
-33 79 -37 127 -4 38 -11 66 -16 63 -5 -3 -7 -12 -4 -20 3 -7 1 -16 -5 -19 -5
-4 -7 -23 -4 -43 4 -20 10 -46 14 -57 5 -11 18 -40 31 -65 13 -25 29 -58 38
-73 8 -16 21 -31 29 -34 7 -3 17 -2 21 1 3 4 5 49 4 101 -2 57 1 96 7 100 6 3
11 21 11 40 0 19 -4 37 -10 40 -6 4 -10 55 -10 120 0 94 -3 114 -16 119 -9 3
-17 6 -18 6z"/>
<path d="M346 520 c-8 0 -17 -4 -20 -9 -3 -5 -22 -16 -41 -25 -20 -10 -33 -21
-30 -27 4 -5 13 -9 21 -9 8 0 30 10 49 23 19 12 35 28 35 35 0 6 -6 12 -14 12z"/>
</g>
</svg>
