<?xml version="1.0" standalone="no"?>
<!DOCTYPE svg PUBLIC "-//W3C//DTD SVG 20010904//EN"
 "http://www.w3.org/TR/2001/REC-SVG-20010904/DTD/svg10.dtd">
<svg version="1.0" xmlns="http://www.w3.org/2000/svg"
 width="56.000000pt" height="56.000000pt" viewBox="0 0 56.000000 56.000000"
 preserveAspectRatio="xMidYMid meet">
<metadata>
Created by potrace 1.16, written by Peter Selinger 2001-2019
</metadata>
<g transform="translate(0.000000,56.000000) scale(0.100000,-0.100000)"
fill="#000000" stroke="none">
<path d="M258 559 c-24 -1 -44 -12 -76 -42 -24 -24 -42 -51 -42 -63 0 -12 7
-27 15 -34 8 -7 15 -19 15 -27 0 -8 -32 -46 -71 -85 -38 -38 -69 -77 -67 -85
2 -9 11 -21 21 -27 15 -9 26 -2 70 47 39 43 60 58 82 60 26 2 30 -2 33 -26 2
-15 -4 -59 -12 -97 -9 -38 -16 -87 -16 -108 0 -22 6 -45 14 -51 10 -9 20 -9
33 -3 11 6 25 36 36 74 9 34 26 93 38 130 11 37 27 74 35 83 10 10 25 13 42 9
15 -4 31 -10 36 -15 5 -4 9 -21 8 -38 0 -16 -11 -49 -23 -73 -12 -23 -42 -71
-66 -106 -35 -50 -40 -64 -28 -68 10 -4 30 8 55 32 22 21 60 69 85 105 35 52
45 75 45 107 0 22 -8 54 -17 71 -11 18 -32 35 -51 42 -17 6 -45 8 -61 4 -16
-3 -41 -17 -56 -31 -14 -13 -29 -24 -33 -24 -4 0 -22 9 -41 21 -34 20 -34 20
-7 48 14 15 26 37 26 49 0 13 -7 33 -15 46 -14 21 -13 24 5 41 11 10 20 22 20
27 0 4 -15 8 -32 7z"/>
</g>
</svg>
