<?xml version="1.0" standalone="no"?>
<!DOCTYPE svg PUBLIC "-//W3C//DTD SVG 20010904//EN"
 "http://www.w3.org/TR/2001/REC-SVG-20010904/DTD/svg10.dtd">
<svg version="1.0" xmlns="http://www.w3.org/2000/svg"
 width="56.000000pt" height="56.000000pt" viewBox="0 0 56.000000 56.000000"
 preserveAspectRatio="xMidYMid meet">
<metadata>
Created by potrace 1.16, written by Peter Selinger 2001-2019
</metadata>
<g transform="translate(0.000000,56.000000) scale(0.100000,-0.100000)"
fill="#000000" stroke="none">
<path d="M265 560 c-8 0 -15 -3 -15 -8 0 -4 -19 -17 -42 -29 -24 -12 -61 -29
-82 -38 -40 -16 -40 -16 -19 -36 18 -18 25 -19 60 -10 23 6 46 18 53 26 7 8
16 15 21 15 5 0 9 -8 9 -18 0 -10 -25 -49 -55 -87 -30 -39 -82 -95 -115 -126
-43 -41 -60 -63 -60 -82 0 -14 5 -29 11 -32 5 -4 50 34 100 85 49 50 93 88 99
85 5 -3 12 -20 15 -39 4 -18 1 -66 -5 -107 -7 -41 -13 -85 -13 -99 -2 -19 3
-26 22 -28 13 -2 27 0 31 5 5 4 16 51 25 103 9 52 18 103 21 112 3 10 12 25
20 33 9 8 22 15 29 15 7 0 27 -12 44 -26 24 -20 31 -34 31 -63 0 -20 -8 -48
-17 -61 -10 -14 -43 -52 -75 -85 -57 -60 -57 -60 -22 -63 27 -3 44 4 74 28 22
18 40 38 40 46 0 8 4 14 9 14 5 0 23 23 41 51 21 35 29 57 24 72 -4 12 -18 36
-32 52 -14 17 -40 40 -58 53 -18 12 -41 22 -50 22 -10 0 -28 -10 -41 -22 -24
-22 -24 -22 -59 13 -35 35 -35 35 11 97 28 37 45 69 41 77 -3 8 -17 20 -31 27
-14 6 -25 15 -25 20 0 4 -7 8 -15 8z"/>
<path d="M500 560 c-28 0 -30 -2 -30 -38 0 -28 7 -45 24 -61 14 -13 29 -20 35
-16 6 3 11 15 11 25 0 10 -5 22 -11 26 -6 3 -9 19 -5 35 5 27 3 29 -24 29z"/>
</g>
</svg>
