<?xml version="1.0" standalone="no"?>
<!DOCTYPE svg PUBLIC "-//W3C//DTD SVG 20010904//EN"
 "http://www.w3.org/TR/2001/REC-SVG-20010904/DTD/svg10.dtd">
<svg version="1.0" xmlns="http://www.w3.org/2000/svg"
 width="56.000000pt" height="56.000000pt" viewBox="0 0 56.000000 56.000000"
 preserveAspectRatio="xMidYMid meet">
<metadata>
Created by potrace 1.16, written by Peter Selinger 2001-2019
</metadata>
<g transform="translate(0.000000,56.000000) scale(0.100000,-0.100000)"
fill="#000000" stroke="none">
<path d="M203 559 c-5 0 -21 -9 -38 -20 -16 -10 -40 -19 -52 -19 -15 0 -23 -6
-23 -16 0 -12 6 -15 23 -11 12 2 30 8 40 12 10 4 17 3 17 -4 0 -6 -28 -47 -62
-91 -35 -45 -73 -95 -86 -112 -12 -18 -21 -36 -19 -42 2 -6 12 -13 21 -14 10
-2 32 9 50 25 17 17 46 40 64 52 18 13 39 20 47 17 10 -3 15 -20 15 -46 0 -23
-7 -91 -16 -152 -10 -69 -13 -113 -7 -119 5 -5 17 -7 26 -3 9 3 29 38 45 77
16 40 32 85 36 100 4 15 21 41 39 57 18 17 48 35 67 41 20 6 47 9 60 7 14 -1
26 -10 28 -19 2 -10 -30 -52 -75 -99 -43 -46 -84 -91 -91 -102 -8 -10 -17 -32
-22 -48 -8 -29 -7 -30 24 -30 29 0 33 3 29 22 -3 18 5 29 42 52 25 15 75 56
110 89 62 59 65 63 65 108 0 38 -4 49 -19 54 -10 3 -26 14 -36 25 -12 14 -31
20 -57 20 -24 0 -56 -10 -84 -26 -27 -16 -55 -44 -70 -70 -14 -24 -29 -42 -34
-39 -4 2 -10 25 -13 50 -4 25 -14 59 -22 75 -9 18 -23 30 -35 30 -11 0 -20 4
-20 10 0 5 16 32 35 59 19 26 35 56 35 65 0 9 -7 16 -15 16 -8 0 -15 5 -15 10
0 6 -3 10 -7 9z"/>
</g>
</svg>
