<?xml version="1.0" standalone="no"?>
<!DOCTYPE svg PUBLIC "-//W3C//DTD SVG 20010904//EN"
 "http://www.w3.org/TR/2001/REC-SVG-20010904/DTD/svg10.dtd">
<svg version="1.0" xmlns="http://www.w3.org/2000/svg"
 width="56.000000pt" height="56.000000pt" viewBox="0 0 56.000000 56.000000"
 preserveAspectRatio="xMidYMid meet">
<metadata>
Created by potrace 1.16, written by Peter Selinger 2001-2019
</metadata>
<g transform="translate(0.000000,56.000000) scale(0.100000,-0.100000)"
fill="#000000" stroke="none">
<path d="M271 534 c-4 3 -11 3 -15 -1 -3 -3 -6 -10 -6 -15 0 -4 7 -8 15 -8 8
0 15 4 15 9 0 6 -4 12 -9 15z"/>
<path d="M352 540 c-16 0 -32 -3 -35 -6 -4 -4 -4 -11 -1 -15 3 -5 14 -9 25 -9
10 0 19 -5 19 -10 0 -6 -9 -18 -21 -28 -11 -9 -27 -33 -35 -52 -10 -24 -15
-66 -14 -130 1 -52 1 -105 1 -117 0 -12 4 -25 9 -28 5 -3 21 -32 36 -65 14
-32 34 -62 43 -65 10 -4 23 3 38 21 20 26 21 35 16 124 -5 81 -3 97 11 109 9
7 16 22 16 32 0 10 -4 21 -10 24 -5 3 -10 26 -10 51 0 24 5 53 12 63 10 17 6
25 -30 60 -29 28 -51 41 -70 41z m22 -103 c6 -2 10 -13 8 -23 -2 -10 -4 -52
-4 -92 0 -62 -3 -74 -20 -83 -13 -7 -24 -7 -30 -1 -5 5 -10 39 -10 75 0 52 4
72 22 97 12 17 27 29 34 27z m-4 -227 c4 0 11 -7 14 -16 3 -9 6 -27 6 -40 0
-13 -4 -24 -10 -24 -5 0 -17 11 -26 25 -13 20 -14 28 -4 40 7 8 16 15 20 15z"/>
<path d="M150 520 c-6 0 -13 -6 -15 -12 -2 -7 -7 -60 -10 -118 -3 -58 -7 -154
-8 -214 -2 -93 0 -110 15 -120 9 -5 19 -8 21 -6 3 3 7 71 9 152 3 81 7 151 11
155 4 3 7 18 7 33 0 15 9 39 21 54 12 15 18 34 15 42 -5 12 -10 13 -19 6 -9
-8 -16 -6 -25 9 -7 10 -17 19 -22 19z"/>
<path d="M269 97 c-3 8 -9 8 -23 -2 -15 -11 -17 -22 -13 -51 3 -20 8 -39 11
-41 3 -3 17 -2 31 1 14 4 28 13 32 22 3 8 -3 25 -14 37 -11 12 -22 27 -24 34z"/>
</g>
</svg>
