<?xml version="1.0" standalone="no"?>
<!DOCTYPE svg PUBLIC "-//W3C//DTD SVG 20010904//EN"
 "http://www.w3.org/TR/2001/REC-SVG-20010904/DTD/svg10.dtd">
<svg version="1.0" xmlns="http://www.w3.org/2000/svg"
 width="56.000000pt" height="56.000000pt" viewBox="0 0 56.000000 56.000000"
 preserveAspectRatio="xMidYMid meet">
<metadata>
Created by potrace 1.16, written by Peter Selinger 2001-2019
</metadata>
<g transform="translate(0.000000,56.000000) scale(0.100000,-0.100000)"
fill="#000000" stroke="none">
<path d="M198 559 c-18 -1 -45 -8 -60 -16 -21 -10 -28 -22 -28 -43 0 -15 -13
-52 -28 -81 -16 -30 -41 -72 -55 -93 -15 -21 -27 -49 -27 -61 0 -13 9 -26 23
-32 15 -7 29 -8 38 -2 8 5 26 9 42 9 19 0 31 -7 38 -23 7 -17 5 -38 -10 -87
-20 -62 -20 -66 -3 -95 10 -16 26 -31 35 -33 9 -2 17 3 17 10 0 7 8 18 19 25
10 6 23 32 30 57 6 24 8 51 5 60 -3 8 3 28 13 43 11 15 27 49 37 75 10 26 22
50 27 53 5 4 9 12 9 20 0 7 -7 16 -16 19 -8 3 -23 2 -33 -4 -10 -5 -28 -32
-40 -60 -22 -51 -22 -51 -62 -19 -23 18 -43 38 -46 46 -3 8 10 28 31 47 25 24
37 43 38 65 1 17 2 39 2 49 1 9 9 25 19 35 9 9 17 22 17 27 0 6 -15 10 -32 9z"/>
<path d="M430 422 c-14 3 -36 2 -50 -1 -14 -4 -26 -14 -28 -23 -2 -12 5 -16
33 -16 20 0 45 -8 55 -17 10 -9 21 -27 24 -40 3 -13 2 -35 -4 -50 -5 -14 -33
-50 -61 -80 -38 -40 -56 -69 -70 -115 -10 -34 -19 -66 -19 -71 0 -5 11 -9 24
-9 13 0 29 6 35 14 6 8 11 18 10 22 -1 5 -1 23 0 41 1 19 10 41 23 53 12 11
30 20 40 20 10 0 30 8 44 17 14 9 37 34 50 55 13 21 24 46 24 57 0 11 -4 22
-9 25 -4 3 -11 18 -14 34 -4 18 -19 37 -44 54 -21 13 -49 27 -63 30z"/>
</g>
</svg>
