<?xml version="1.0" standalone="no"?>
<!DOCTYPE svg PUBLIC "-//W3C//DTD SVG 20010904//EN"
 "http://www.w3.org/TR/2001/REC-SVG-20010904/DTD/svg10.dtd">
<svg version="1.0" xmlns="http://www.w3.org/2000/svg"
 width="56.000000pt" height="56.000000pt" viewBox="0 0 56.000000 56.000000"
 preserveAspectRatio="xMidYMid meet">
<metadata>
Created by potrace 1.16, written by Peter Selinger 2001-2019
</metadata>
<g transform="translate(0.000000,56.000000) scale(0.100000,-0.100000)"
fill="#000000" stroke="none">
<path d="M94 530 c-9 0 -14 -11 -14 -29 0 -15 10 -41 22 -56 16 -21 19 -32 11
-44 -5 -9 -30 -26 -55 -38 -36 -17 -46 -28 -52 -54 -4 -23 -2 -38 9 -48 13
-13 18 -12 47 16 18 17 42 35 53 41 11 5 36 11 55 12 19 2 44 2 55 1 18 -1 20
-7 18 -67 -1 -44 -9 -79 -22 -105 -16 -30 -20 -50 -15 -80 4 -23 14 -43 22
-46 8 -4 22 -2 31 4 12 8 17 33 22 109 3 64 11 110 22 131 10 18 36 51 60 73
23 23 52 43 64 46 12 3 34 0 50 -8 24 -12 28 -19 25 -51 -1 -20 -9 -51 -17
-69 -7 -18 -22 -42 -32 -53 -10 -11 -29 -36 -43 -55 -13 -19 -30 -39 -37 -43
-7 -4 -13 -12 -13 -17 0 -6 8 -10 18 -10 10 0 24 9 32 20 8 11 19 20 25 20 6
0 23 13 38 28 15 15 27 31 27 35 0 4 8 16 18 28 9 12 23 27 30 34 7 8 12 38
11 72 0 56 -2 59 -41 91 -35 28 -46 31 -77 26 -20 -4 -48 -13 -62 -20 -15 -7
-40 -30 -57 -51 -28 -35 -31 -36 -56 -25 -15 7 -36 12 -46 12 -11 0 -20 6 -20
13 0 7 14 23 30 35 23 18 30 30 30 57 0 18 -4 36 -9 39 -5 4 -20 6 -33 6 -12
1 -37 -2 -54 -6 -21 -4 -34 -1 -43 10 -8 9 -20 16 -27 16z"/>
<path d="M348 79 c-7 0 -21 -10 -31 -21 -10 -11 -17 -21 -15 -24 3 -2 16 2 31
9 15 6 27 18 27 25 0 6 -6 12 -12 11z"/>
</g>
</svg>
