<?xml version="1.0" standalone="no"?>
<!DOCTYPE svg PUBLIC "-//W3C//DTD SVG 20010904//EN"
 "http://www.w3.org/TR/2001/REC-SVG-20010904/DTD/svg10.dtd">
<svg version="1.0" xmlns="http://www.w3.org/2000/svg"
 width="128.000000pt" height="128.000000pt" viewBox="0 0 128.000000 128.000000"
 preserveAspectRatio="xMidYMid meet">
<metadata>
Created by potrace 1.16, written by Peter Selinger 2001-2019
</metadata>
<g transform="translate(0.000000,128.000000) scale(0.100000,-0.100000)"
fill="#000000" stroke="none">
<path d="M672 1259 c-20 -1 -94 -7 -164 -13 -69 -6 -129 -14 -132 -17 -3 -3 2
-13 13 -23 11 -10 36 -17 62 -18 24 -1 88 0 143 2 89 4 99 6 113 26 8 13 12
28 8 34 -3 5 -23 9 -43 9z"/>
<path d="M586 1098 c-16 17 -26 21 -31 12 -4 -6 -5 -46 -4 -88 4 -77 4 -77
-101 -84 -58 -4 -119 -10 -136 -13 -19 -4 -34 -3 -38 4 -4 6 6 38 23 72 16 33
27 67 24 75 -3 8 -9 14 -14 14 -5 0 -22 -21 -37 -47 -15 -25 -39 -61 -54 -78
-15 -18 -32 -45 -38 -61 -7 -18 -9 -57 -5 -106 6 -64 10 -78 24 -78 10 0 26
18 39 44 12 27 43 62 73 86 38 30 61 41 88 41 20 0 65 1 101 1 36 0 70 -1 77
-1 7 -1 17 -10 23 -20 6 -13 7 -28 0 -45 -5 -14 -20 -32 -34 -41 -16 -11 -47
-17 -83 -17 -32 0 -66 -4 -75 -9 -10 -5 -15 -15 -12 -23 3 -7 23 -16 46 -19
27 -4 51 -16 72 -36 18 -17 37 -31 43 -31 6 0 15 12 21 28 6 15 14 38 18 52 3
14 11 30 16 37 7 8 25 10 56 6 26 -3 53 -10 60 -16 6 -5 12 -15 12 -21 0 -6
-13 -19 -29 -29 -19 -11 -31 -28 -35 -51 -4 -19 -13 -39 -21 -46 -8 -7 -21
-10 -30 -7 -8 4 -25 1 -37 -6 -13 -7 -45 -33 -72 -59 -27 -27 -53 -48 -58 -48
-4 0 -8 -11 -8 -24 0 -13 8 -34 19 -47 17 -21 22 -22 45 -11 15 7 43 12 62 12
28 0 35 -4 32 -17 -2 -9 -20 -26 -40 -36 -26 -14 -41 -32 -53 -64 -11 -27 -26
-48 -39 -53 -13 -4 -37 -30 -54 -58 -18 -27 -32 -56 -32 -64 0 -9 -6 -20 -13
-27 -9 -7 -17 -7 -24 0 -7 7 -14 5 -23 -6 -12 -14 -11 -18 1 -26 8 -5 32 -8
54 -8 22 1 51 4 64 8 13 3 28 13 32 21 4 8 13 30 20 49 8 21 22 37 39 42 15 6
39 29 54 53 15 24 36 46 47 49 10 3 19 1 19 -4 0 -6 -19 -36 -42 -67 -23 -31
-59 -75 -79 -97 -23 -24 -39 -52 -41 -70 -3 -29 -2 -30 32 -27 19 2 37 6 39 8
2 2 -3 12 -12 22 -10 10 -17 25 -17 33 0 8 16 24 35 37 19 12 37 22 40 22 3 0
39 34 81 77 43 42 85 95 96 120 10 24 35 59 54 78 19 19 34 41 34 48 0 8 -9
26 -21 41 -14 17 -30 26 -49 26 -16 0 -31 4 -34 9 -3 5 1 22 9 38 8 16 35 44
59 61 25 18 54 45 66 61 11 16 20 35 20 43 0 7 18 28 40 46 25 21 47 31 58 28
9 -3 31 3 49 14 18 10 39 33 48 51 12 21 15 43 10 66 -4 21 -19 47 -36 63 -17
15 -48 33 -69 40 -29 10 -46 10 -71 1 -17 -6 -47 -11 -65 -11 -18 0 -35 -4
-38 -9 -3 -4 -33 -18 -66 -30 -33 -12 -79 -23 -102 -24 -41 -2 -42 -2 -60 48
-9 27 -28 60 -42 73z m387 -101 c30 1 62 -5 75 -13 17 -11 22 -24 22 -57 0
-38 -3 -44 -35 -61 -25 -14 -45 -17 -77 -12 -24 3 -57 9 -74 12 -25 5 -38 0
-66 -25 -30 -26 -44 -31 -86 -31 -28 0 -62 4 -75 9 -23 9 -24 12 -13 43 6 18
15 38 19 45 4 6 22 14 40 18 17 4 68 18 112 31 44 13 86 28 93 32 6 5 36 9 65
9z m-83 -267 c6 0 10 -7 10 -15 0 -8 -4 -15 -10 -15 -5 0 -10 7 -10 15 0 8 5
15 10 15z m-262 -175 c3 -2 -1 -11 -8 -20 -7 -9 -15 -13 -18 -10 -3 2 1 11 8
20 7 9 15 13 18 10z m144 -45 c9 0 22 -9 28 -19 5 -11 10 -32 10 -46 0 -15
-15 -51 -32 -80 -18 -29 -41 -58 -51 -65 -10 -6 -27 -8 -38 -5 -10 4 -19 15
-19 25 0 11 11 30 24 43 20 20 23 31 19 69 -5 39 -2 47 18 62 13 9 31 16 41
16z m-158 -30 c7 -7 4 -14 -10 -24 -10 -8 -21 -10 -22 -5 -2 5 2 16 9 25 8 10
15 12 23 4z"/>
<path d="M756 130 c-12 -1 -46 -13 -76 -28 -30 -15 -63 -35 -73 -45 -14 -14
-15 -18 -3 -23 8 -3 25 1 38 9 13 8 44 15 69 15 26 0 56 5 68 11 12 7 21 17
21 24 0 7 -5 18 -12 25 -7 7 -21 12 -32 12z"/>
</g>
</svg>
