<?xml version="1.0" standalone="no"?>
<!DOCTYPE svg PUBLIC "-//W3C//DTD SVG 20010904//EN"
 "http://www.w3.org/TR/2001/REC-SVG-20010904/DTD/svg10.dtd">
<svg version="1.0" xmlns="http://www.w3.org/2000/svg"
 width="128.000000pt" height="128.000000pt" viewBox="0 0 128.000000 128.000000"
 preserveAspectRatio="xMidYMid meet">
<metadata>
Created by potrace 1.16, written by Peter Selinger 2001-2019
</metadata>
<g transform="translate(0.000000,128.000000) scale(0.100000,-0.100000)"
fill="#000000" stroke="none">
<path d="M578 1280 c-15 0 -31 -12 -45 -33 -12 -17 -25 -44 -28 -59 -4 -15 -4
-36 0 -47 4 -14 15 -21 31 -21 14 0 27 -6 30 -14 3 -8 -15 -40 -40 -72 -25
-33 -69 -84 -98 -115 -29 -30 -61 -58 -70 -62 -9 -3 -27 -25 -38 -47 -12 -23
-18 -49 -15 -60 3 -10 13 -21 22 -24 9 -4 33 5 57 21 23 15 46 33 51 39 6 6
42 32 82 59 43 29 78 45 87 42 9 -4 16 -17 16 -31 0 -13 -4 -26 -8 -28 -4 -2
-19 -23 -33 -48 -18 -31 -25 -58 -24 -89 1 -39 4 -45 33 -57 18 -7 32 -17 32
-21 0 -5 -17 -33 -37 -63 -20 -30 -54 -88 -74 -127 -21 -40 -50 -85 -64 -100
-15 -16 -33 -45 -40 -65 -10 -29 -10 -41 -1 -54 7 -9 21 -15 32 -12 11 2 20
13 22 25 2 13 32 52 68 88 35 36 90 79 121 95 31 17 65 30 77 30 12 0 28 -5
36 -10 10 -6 15 -26 15 -61 0 -48 -3 -54 -42 -89 -38 -33 -48 -37 -96 -37 -29
0 -63 -6 -76 -13 -22 -11 -23 -15 -16 -83 3 -40 13 -87 22 -105 15 -32 15 -32
117 -32 68 1 107 5 119 14 9 7 17 20 17 29 0 9 -10 19 -22 21 -13 2 -33 5 -45
6 -13 0 -38 1 -55 2 -18 0 -42 -1 -53 -3 -16 -3 -21 2 -23 29 -2 18 2 40 9 48
6 8 23 14 38 14 14 0 37 9 51 20 15 12 41 20 66 20 23 0 47 6 53 14 7 8 14 31
17 53 3 21 15 57 26 80 20 40 20 44 5 76 -9 19 -24 40 -32 47 -10 9 -37 11
-83 8 -37 -3 -88 -14 -113 -25 -27 -12 -52 -17 -59 -13 -11 7 -9 14 6 35 10
15 24 35 29 44 6 9 27 44 48 79 20 35 37 66 37 71 0 4 -16 22 -35 41 -19 19
-35 39 -35 46 0 6 6 14 13 17 6 2 22 1 35 -4 12 -5 22 -15 22 -23 0 -9 9 -20
20 -26 11 -6 20 -20 20 -30 0 -11 6 -20 13 -20 8 0 21 8 29 18 9 9 21 34 27
54 7 20 18 42 26 48 8 6 32 44 54 84 22 40 47 78 55 85 9 8 16 24 16 36 0 12
-7 28 -15 35 -9 7 -39 13 -69 14 -38 0 -66 -7 -99 -24 -25 -13 -49 -21 -54
-17 -4 5 -6 40 -5 80 2 40 8 87 14 106 9 31 8 36 -13 52 -13 11 -31 18 -39 16
-12 -2 -15 -17 -13 -72 1 -46 -5 -91 -18 -131 -15 -47 -29 -69 -60 -94 -22
-17 -46 -29 -53 -27 -10 4 -6 20 16 66 16 33 33 63 38 66 6 4 10 15 10 26 0
10 9 28 20 39 11 11 20 22 20 25 0 3 -16 23 -36 45 -26 28 -34 45 -29 60 5 16
2 20 -17 20z m245 -301 c13 1 17 -7 17 -29 0 -19 -15 -49 -41 -85 -23 -30 -49
-55 -57 -55 -9 0 -24 7 -34 17 -10 9 -18 21 -18 27 0 6 7 29 16 53 14 35 23
44 58 56 22 8 49 15 59 16z"/>
</g>
</svg>
