<?xml version="1.0" standalone="no"?>
<!DOCTYPE svg PUBLIC "-//W3C//DTD SVG 20010904//EN"
 "http://www.w3.org/TR/2001/REC-SVG-20010904/DTD/svg10.dtd">
<svg version="1.0" xmlns="http://www.w3.org/2000/svg"
 width="128.000000pt" height="128.000000pt" viewBox="0 0 128.000000 128.000000"
 preserveAspectRatio="xMidYMid meet">
<metadata>
Created by potrace 1.16, written by Peter Selinger 2001-2019
</metadata>
<g transform="translate(0.000000,128.000000) scale(0.100000,-0.100000)"
fill="#000000" stroke="none">
<path d="M666 1250 c-11 -1 -35 -7 -52 -14 -17 -8 -43 -29 -57 -47 -14 -19
-29 -46 -32 -62 -4 -15 -11 -29 -15 -32 -4 -3 -27 -42 -49 -87 -23 -46 -62
-114 -86 -153 -24 -38 -48 -79 -54 -90 -5 -11 -21 -51 -37 -88 -15 -37 -32
-66 -38 -64 -6 2 -22 20 -35 40 -24 36 -24 36 -100 31 -42 -3 -82 -7 -88 -10
-7 -2 -13 -10 -13 -19 0 -9 17 -32 38 -50 28 -27 46 -35 73 -35 22 0 39 -6 42
-13 3 -8 4 -34 2 -58 -2 -24 -6 -69 -10 -99 -3 -30 -15 -93 -26 -140 -11 -47
-23 -97 -28 -112 -7 -20 -5 -30 8 -41 9 -8 26 -18 38 -21 17 -6 28 2 57 40 29
38 36 55 36 93 0 26 4 51 9 56 5 6 11 35 14 65 2 30 16 95 30 143 14 49 44
119 66 156 23 37 41 73 41 80 0 7 6 27 14 44 8 18 28 61 45 97 17 36 35 72 41
80 5 8 17 33 26 55 10 22 35 66 56 97 21 31 38 62 38 67 0 6 8 11 19 11 11 0
22 -10 26 -22 4 -13 7 -52 7 -88 0 -45 4 -70 15 -82 9 -10 20 -18 25 -18 5 0
30 9 55 21 25 11 51 18 59 15 12 -5 11 -12 -5 -43 -11 -21 -40 -62 -65 -91
-25 -30 -49 -65 -52 -78 -4 -13 -3 -37 0 -52 4 -15 9 -36 12 -47 4 -14 -9 -39
-40 -78 -25 -32 -70 -82 -101 -110 -48 -45 -55 -57 -55 -90 0 -29 4 -37 18
-37 9 0 28 9 42 20 14 11 35 20 48 20 18 0 22 -6 22 -28 0 -19 -12 -40 -38
-65 -21 -20 -45 -37 -54 -37 -9 0 -24 -7 -33 -16 -12 -12 -13 -19 -5 -29 6 -8
25 -17 42 -20 17 -4 71 -10 121 -14 63 -4 92 -10 95 -20 2 -7 -21 -37 -53 -66
-32 -30 -73 -61 -91 -70 -19 -9 -32 -20 -29 -26 4 -5 14 -9 23 -9 9 0 28 9 42
20 14 11 31 20 39 20 8 0 33 15 57 32 24 18 48 45 55 60 6 15 18 33 27 40 10
9 49 13 111 13 71 1 109 6 146 21 28 10 65 27 83 37 19 10 39 33 47 50 7 18
16 57 21 87 5 30 8 60 9 65 0 6 5 13 10 18 6 4 5 10 -5 16 -9 6 -13 23 -12 44
2 28 -6 45 -44 91 -32 39 -54 56 -70 56 -12 0 -26 5 -29 10 -3 6 -19 10 -35
10 -16 0 -31 -4 -34 -9 -3 -4 -34 -19 -68 -32 -35 -13 -106 -44 -158 -70 -53
-26 -99 -43 -104 -38 -5 5 3 20 20 37 16 16 50 52 77 81 26 28 47 58 47 64 0
7 -5 18 -12 25 -7 7 -20 12 -30 12 -10 0 -21 7 -24 15 -3 8 9 32 28 54 18 23
47 45 64 51 18 6 40 20 50 32 11 11 33 27 50 34 25 10 33 21 38 51 4 28 1 44
-13 63 -10 14 -28 26 -40 28 -12 2 -36 -6 -55 -17 -18 -12 -61 -25 -95 -29
-45 -6 -64 -5 -71 4 -7 8 -7 20 1 36 8 18 8 36 0 65 -6 22 -23 52 -37 67 -15
14 -36 26 -48 26z m329 -636 c11 -4 48 -9 82 -13 50 -5 69 -12 90 -34 23 -23
28 -37 31 -96 4 -67 3 -70 -29 -104 -20 -21 -60 -45 -99 -60 -36 -13 -80 -28
-98 -32 -25 -5 -33 -3 -38 10 -4 9 -1 26 5 38 7 12 18 33 25 46 8 13 37 33 68
45 39 16 53 26 53 41 0 16 -5 19 -25 16 -14 -2 -38 -4 -54 -5 -26 -1 -31 4
-39 34 -5 19 -13 39 -18 45 -5 5 -9 19 -9 32 0 12 8 27 18 32 9 6 26 8 37 5z
m-119 -85 c12 1 25 -6 28 -15 3 -9 6 -24 6 -34 0 -11 -5 -30 -11 -44 -9 -18
-34 -34 -90 -57 -43 -17 -85 -29 -93 -26 -7 3 -17 22 -20 42 -5 27 -3 42 8 54
8 9 30 23 48 32 18 9 49 23 68 32 19 9 45 16 56 16z m-19 -169 c6 0 14 -4 18
-9 3 -5 1 -12 -4 -15 -4 -3 -11 -24 -15 -46 -5 -31 -12 -43 -32 -50 -14 -6
-40 -10 -59 -10 -18 0 -40 3 -49 6 -9 4 -16 18 -16 34 0 15 6 32 13 38 6 6 30
14 52 18 22 4 49 13 60 20 11 8 25 14 32 14z"/>
<path d="M185 1090 c-1 0 -5 -17 -8 -37 -3 -28 3 -54 25 -100 19 -42 35 -63
47 -63 9 0 30 13 46 30 28 29 28 29 -1 71 -15 22 -38 45 -51 50 -13 5 -23 15
-23 23 0 7 -7 17 -16 20 -9 3 -17 6 -19 6z"/>
</g>
</svg>
