<?xml version="1.0" standalone="no"?>
<!DOCTYPE svg PUBLIC "-//W3C//DTD SVG 20010904//EN"
 "http://www.w3.org/TR/2001/REC-SVG-20010904/DTD/svg10.dtd">
<svg version="1.0" xmlns="http://www.w3.org/2000/svg"
 width="128.000000pt" height="128.000000pt" viewBox="0 0 128.000000 128.000000"
 preserveAspectRatio="xMidYMid meet">
<metadata>
Created by potrace 1.16, written by Peter Selinger 2001-2019
</metadata>
<g transform="translate(0.000000,128.000000) scale(0.100000,-0.100000)"
fill="#000000" stroke="none">
<path d="M428 1280 c-7 -1 -19 -7 -26 -15 -10 -12 -10 -23 2 -59 10 -28 13
-62 9 -98 -3 -30 -11 -62 -19 -72 -7 -10 -28 -19 -46 -21 -18 -1 -57 -6 -85
-10 -34 -5 -53 -13 -53 -21 0 -7 9 -18 19 -24 11 -5 38 -10 60 -10 31 0 41 -4
46 -20 3 -10 1 -29 -6 -42 -7 -12 -13 -56 -13 -96 -1 -70 -3 -75 -34 -103 -18
-16 -39 -29 -46 -29 -8 0 -23 -11 -33 -23 -10 -13 -23 -26 -29 -28 -6 -2 -45
-31 -87 -64 -41 -33 -79 -68 -82 -78 -4 -10 -1 -24 5 -32 7 -8 29 -15 50 -15
31 0 42 6 69 40 22 27 40 40 57 40 16 0 27 -8 33 -22 5 -13 14 -39 20 -59 6
-19 11 -41 11 -47 0 -6 -17 -20 -37 -31 -21 -10 -46 -28 -57 -40 -14 -15 -16
-27 -11 -48 5 -15 7 -32 6 -36 0 -4 10 -28 24 -52 15 -24 49 -59 78 -79 29
-20 57 -36 63 -36 7 0 19 -11 28 -25 10 -15 26 -25 41 -25 14 0 26 7 29 18 3
9 10 38 16 64 7 35 7 62 -3 105 -10 43 -11 67 -3 93 6 19 15 41 20 48 4 7 15
11 23 8 8 -3 25 1 38 10 14 9 32 14 40 10 9 -3 28 6 47 23 17 15 28 32 25 38
-4 5 -27 18 -52 28 -44 16 -47 16 -65 0 -11 -10 -26 -15 -35 -12 -8 4 -15 15
-15 26 0 11 9 25 19 31 14 7 22 7 26 0 4 -6 11 -8 16 -5 5 4 9 23 9 45 0 24 5
40 15 44 8 3 15 14 15 24 0 10 8 26 18 35 10 10 25 17 34 17 8 0 25 11 38 24
13 14 20 32 17 40 -4 9 -18 18 -32 22 -18 4 -51 -5 -109 -30 -47 -20 -91 -36
-100 -36 -8 0 -18 5 -21 11 -4 6 2 20 13 32 10 12 22 34 26 50 3 15 13 27 20
27 7 0 26 16 41 35 15 21 24 43 21 52 -4 10 -14 14 -29 11 -12 -3 -29 -7 -37
-9 -10 -3 -16 5 -18 24 -2 20 5 35 27 57 16 17 37 30 46 30 10 0 34 10 55 21
21 12 45 19 53 16 7 -3 21 -21 30 -40 9 -19 27 -37 39 -41 13 -3 35 -6 49 -6
19 0 38 13 64 41 34 38 36 43 21 57 -14 15 -18 14 -46 -6 -30 -23 -30 -23 -80
19 -28 23 -50 46 -50 51 0 4 -5 8 -12 8 -6 0 -19 -7 -29 -16 -13 -12 -28 -14
-58 -9 -22 4 -45 13 -52 21 -7 8 -9 25 -5 41 4 16 10 40 13 54 3 16 -1 31 -11
40 -8 8 -22 20 -30 27 -8 6 -21 12 -28 12z m-93 -600 c12 0 25 -3 28 -7 4 -3
2 -12 -4 -20 -6 -7 -19 -13 -29 -13 -10 0 -20 6 -23 14 -3 8 -3 17 0 20 4 3
16 6 28 6z m183 -43 c6 -5 12 -14 12 -19 0 -5 -5 -6 -10 -3 -6 4 -17 2 -25 -5
-7 -6 -17 -25 -20 -41 -4 -17 -12 -28 -18 -26 -7 2 -13 18 -15 36 -2 18 2 38
8 46 6 8 21 15 33 17 12 2 28 0 35 -5z m-173 -50 c11 -1 25 -13 33 -27 7 -14
11 -43 9 -68 -3 -30 -13 -53 -33 -73 -15 -16 -36 -29 -47 -29 -17 0 -19 5 -14
35 5 31 3 37 -18 45 -12 5 -26 14 -30 20 -4 6 -4 22 -1 35 4 15 22 33 44 45
20 11 46 18 57 17z m11 -274 c14 -5 15 -18 9 -82 -4 -42 -12 -82 -17 -88 -6
-7 -21 -13 -34 -13 -13 0 -27 7 -32 17 -6 11 -5 27 4 49 11 27 11 33 -1 37 -7
3 -19 -1 -26 -9 -7 -8 -21 -14 -32 -12 -11 2 -22 9 -25 15 -2 7 9 18 25 24 15
6 39 17 52 23 19 8 25 8 28 -1 3 -7 11 -13 20 -13 10 0 12 6 8 20 -3 11 -4 24
0 29 3 6 13 7 21 4z"/>
<path d="M978 1118 c-20 2 -39 -2 -43 -8 -4 -7 -18 -10 -31 -7 -15 2 -30 -3
-40 -14 -9 -10 -14 -25 -11 -34 4 -8 15 -15 26 -15 11 0 23 -5 26 -10 4 -6 1
-27 -5 -48 -6 -20 -21 -59 -33 -87 -11 -27 -28 -58 -36 -68 -8 -10 -27 -44
-41 -77 -14 -32 -38 -69 -53 -80 -18 -14 -27 -31 -27 -50 0 -15 8 -38 18 -50
16 -19 22 -21 40 -11 12 6 26 20 32 31 6 11 24 27 41 36 17 8 36 13 43 11 6
-3 17 -27 23 -53 6 -27 11 -68 10 -92 -2 -35 -7 -46 -29 -60 -26 -16 -29 -15
-55 6 -16 12 -39 30 -51 39 -13 9 -45 20 -70 24 -28 4 -51 3 -57 -3 -7 -7 0
-17 19 -32 16 -11 47 -36 68 -55 29 -26 38 -41 38 -66 0 -24 -6 -34 -25 -43
-14 -7 -30 -23 -37 -37 -6 -14 -19 -25 -28 -25 -9 0 -25 -9 -35 -20 -11 -12
-28 -20 -39 -18 -14 2 -22 13 -27 35 -3 17 -13 38 -20 46 -8 7 -25 19 -37 26
-12 7 -27 9 -32 6 -6 -4 -2 -22 10 -45 11 -21 24 -41 30 -45 5 -3 10 -17 10
-31 0 -15 -7 -27 -17 -30 -10 -3 -24 -9 -32 -13 -8 -4 -16 -12 -18 -18 -2 -6
5 -14 15 -17 11 -4 55 3 98 14 44 12 87 28 96 37 9 8 21 12 26 9 5 -3 30 8 56
25 25 17 59 44 74 60 15 16 32 29 38 29 6 0 17 -7 24 -15 7 -8 19 -15 27 -15
8 0 32 -12 53 -27 21 -16 46 -41 55 -56 9 -15 34 -39 56 -52 23 -15 53 -25 77
-25 21 0 45 6 54 13 9 6 17 21 18 32 1 11 2 26 1 32 0 7 -18 20 -38 28 -21 9
-45 14 -54 12 -10 -3 -25 7 -38 24 -12 16 -41 38 -66 49 -24 11 -48 20 -54 20
-6 0 -15 8 -20 19 -7 13 -5 37 8 82 10 35 21 92 25 126 6 51 3 71 -12 107 -14
31 -32 50 -61 67 -22 12 -43 31 -47 41 -3 12 4 33 20 56 14 20 30 60 36 89 7
31 23 65 40 85 25 28 29 40 26 83 -2 50 -3 50 -38 53z"/>
<path d="M828 56 c-23 22 -23 22 -60 -2 -25 -16 -35 -29 -32 -39 5 -11 22 -15
70 -15 59 0 64 2 55 17 -5 10 -20 28 -33 39z"/>
</g>
</svg>
