<?xml version="1.0" standalone="no"?>
<!DOCTYPE svg PUBLIC "-//W3C//DTD SVG 20010904//EN"
 "http://www.w3.org/TR/2001/REC-SVG-20010904/DTD/svg10.dtd">
<svg version="1.0" xmlns="http://www.w3.org/2000/svg"
 width="56.000000pt" height="56.000000pt" viewBox="0 0 56.000000 56.000000"
 preserveAspectRatio="xMidYMid meet">
<metadata>
Created by potrace 1.16, written by Peter Selinger 2001-2019
</metadata>
<g transform="translate(0.000000,56.000000) scale(0.100000,-0.100000)"
fill="#000000" stroke="none">
<path d="M377 540 c-1 0 -8 -4 -16 -9 -12 -8 -12 -14 -1 -41 10 -23 10 -34 2
-42 -7 -7 -49 -14 -94 -18 -46 -3 -93 -11 -105 -18 -12 -7 -53 -12 -92 -12
-53 0 -71 -3 -71 -13 0 -8 9 -24 19 -36 13 -15 29 -22 48 -20 15 1 37 1 49 1
20 -2 21 -9 27 -119 3 -65 11 -132 17 -150 6 -17 22 -39 35 -47 17 -11 48 -16
102 -16 73 0 81 2 112 30 27 25 31 33 21 45 -7 8 -29 15 -48 15 -20 0 -62 -5
-94 -12 -42 -9 -61 -9 -69 -1 -6 6 -13 58 -16 116 -4 80 -3 106 7 112 9 6 25
-5 49 -33 20 -22 53 -54 75 -71 21 -17 44 -31 50 -31 7 0 18 28 25 62 7 35 18
88 24 118 10 48 15 55 37 58 14 1 40 5 58 8 26 4 32 9 32 30 0 25 -1 26 -49
19 -44 -6 -50 -4 -56 13 -3 12 -22 30 -41 41 -19 12 -36 21 -37 21z m-24 -139
c13 -10 16 -26 13 -68 -2 -30 -8 -59 -13 -64 -6 -6 -20 -2 -35 11 -15 11 -29
20 -33 20 -4 0 -20 9 -36 21 -16 11 -29 25 -29 30 0 5 15 9 34 9 18 0 47 5 64
11 23 8 29 15 25 27 -6 15 -5 15 10 3z"/>
</g>
</svg>
