<?xml version="1.0" standalone="no"?>
<!DOCTYPE svg PUBLIC "-//W3C//DTD SVG 20010904//EN"
 "http://www.w3.org/TR/2001/REC-SVG-20010904/DTD/svg10.dtd">
<svg version="1.0" xmlns="http://www.w3.org/2000/svg"
 width="56.000000pt" height="56.000000pt" viewBox="0 0 56.000000 56.000000"
 preserveAspectRatio="xMidYMid meet">
<metadata>
Created by potrace 1.16, written by Peter Selinger 2001-2019
</metadata>
<g transform="translate(0.000000,56.000000) scale(0.100000,-0.100000)"
fill="#000000" stroke="none">
<path d="M316 500 c-25 0 -38 -6 -50 -25 -9 -13 -35 -42 -58 -64 -32 -30 -40
-43 -32 -51 7 -7 10 -29 7 -53 -3 -23 -9 -45 -12 -50 -4 -4 -31 -13 -59 -21
-52 -13 -52 -13 -37 10 9 15 11 24 5 24 -6 0 -27 -12 -46 -27 -29 -22 -34 -31
-29 -52 4 -14 13 -34 22 -43 14 -16 17 -15 51 4 21 11 52 29 70 40 18 11 36
18 39 15 3 -4 7 -21 9 -39 2 -21 15 -43 33 -60 22 -20 44 -28 88 -33 32 -3 72
-8 90 -11 24 -4 34 0 42 14 8 15 6 23 -9 37 -12 11 -32 16 -57 15 -21 -2 -48
-2 -60 -1 -12 0 -35 12 -51 26 -16 14 -32 36 -34 50 -3 14 -2 28 3 30 4 3 28
-16 52 -42 37 -39 47 -45 60 -35 8 7 18 37 21 66 6 44 12 55 32 65 14 6 30 11
37 11 7 0 29 -11 49 -25 20 -14 44 -25 52 -25 10 0 16 9 16 23 -1 13 -15 33
-38 50 -26 20 -43 26 -60 22 -24 -6 -24 -5 -18 37 5 36 3 46 -14 61 -11 9 -32
17 -45 17 -14 0 -28 -7 -32 -16 -4 -10 0 -20 10 -25 12 -7 14 -19 10 -47 -3
-20 -10 -42 -15 -48 -4 -6 -26 -14 -48 -18 -22 -3 -43 -6 -47 -6 -5 0 -8 6 -8
13 0 6 -12 20 -28 31 -22 14 -25 21 -16 32 6 8 16 14 22 14 5 0 34 21 63 46
30 25 54 50 54 55 0 5 -15 9 -34 9z m-11 -240 c13 0 26 -4 29 -9 3 -5 -1 -14
-8 -21 -11 -8 -20 -9 -36 0 -11 6 -18 15 -15 21 4 5 17 9 30 9z"/>
</g>
</svg>
