<?xml version="1.0" standalone="no"?>
<!DOCTYPE svg PUBLIC "-//W3C//DTD SVG 20010904//EN"
 "http://www.w3.org/TR/2001/REC-SVG-20010904/DTD/svg10.dtd">
<svg version="1.0" xmlns="http://www.w3.org/2000/svg"
 width="56.000000pt" height="56.000000pt" viewBox="0 0 56.000000 56.000000"
 preserveAspectRatio="xMidYMid meet">
<metadata>
Created by potrace 1.16, written by Peter Selinger 2001-2019
</metadata>
<g transform="translate(0.000000,56.000000) scale(0.100000,-0.100000)"
fill="#000000" stroke="none">
<path d="M178 518 c-9 2 -19 -2 -23 -7 -3 -6 -22 -11 -41 -11 -19 0 -34 -4
-34 -9 0 -5 11 -18 25 -29 18 -14 25 -30 25 -54 0 -30 -4 -34 -39 -45 -22 -7
-46 -11 -53 -8 -7 3 -19 1 -27 -4 -8 -5 -11 -16 -7 -26 5 -15 15 -17 59 -12
52 7 53 6 71 -28 11 -20 16 -45 14 -60 -3 -14 2 -50 11 -78 9 -29 26 -66 38
-83 22 -31 22 -31 157 -32 128 -2 136 -1 136 17 0 10 -11 26 -25 35 -13 9 -35
16 -47 16 -13 0 -54 -4 -93 -9 -51 -7 -73 -6 -82 2 -6 7 -14 32 -18 56 -7 43
-7 43 31 37 22 -4 53 -9 69 -11 17 -3 44 -6 60 -8 30 -2 30 -2 31 53 1 30 2
71 3 91 0 19 7 44 15 54 12 17 14 17 37 2 13 -10 38 -17 56 -17 18 0 33 5 33
10 0 6 -7 13 -15 17 -9 3 -22 18 -31 34 -12 24 -20 29 -47 27 -30 -3 -32 -1
-35 32 -2 19 -9 38 -15 42 -7 4 -29 8 -51 8 -39 0 -39 0 -33 -39 2 -21 2 -43
-2 -48 -3 -5 -32 -17 -64 -27 -32 -10 -61 -15 -65 -11 -4 4 -7 32 -7 63 0 45
-3 57 -17 60z m128 -138 c13 0 26 -5 30 -11 3 -6 12 -37 18 -70 9 -40 9 -62 2
-69 -5 -5 -19 -10 -30 -10 -12 0 -41 6 -66 14 -45 13 -45 13 -45 72 0 57 1 59
29 61 15 1 31 4 34 7 3 4 16 6 28 6z"/>
</g>
</svg>
