<?xml version="1.0" standalone="no"?>
<!DOCTYPE svg PUBLIC "-//W3C//DTD SVG 20010904//EN"
 "http://www.w3.org/TR/2001/REC-SVG-20010904/DTD/svg10.dtd">
<svg version="1.0" xmlns="http://www.w3.org/2000/svg"
 width="56.000000pt" height="56.000000pt" viewBox="0 0 56.000000 56.000000"
 preserveAspectRatio="xMidYMid meet">
<metadata>
Created by potrace 1.16, written by Peter Selinger 2001-2019
</metadata>
<g transform="translate(0.000000,56.000000) scale(0.100000,-0.100000)"
fill="#000000" stroke="none">
<path d="M182 560 c-32 0 -39 -4 -49 -27 -6 -16 -18 -39 -26 -53 -8 -14 -22
-42 -32 -63 -11 -21 -29 -51 -42 -65 -13 -15 -23 -32 -23 -38 0 -6 3 -13 6
-17 4 -3 17 1 30 10 22 14 24 14 33 -9 5 -12 17 -54 27 -93 14 -54 26 -78 52
-103 19 -18 51 -41 72 -52 25 -13 76 -22 159 -30 67 -5 133 -7 147 -4 13 3 24
12 24 20 0 7 -17 17 -37 23 -21 5 -69 16 -108 25 -38 9 -80 16 -93 16 -12 0
-38 6 -57 14 -19 8 -52 32 -73 53 -21 21 -48 59 -61 85 -12 26 -21 56 -19 65
2 10 18 26 37 35 18 9 38 15 45 12 6 -2 29 -40 50 -85 31 -63 44 -79 59 -77
13 2 28 23 47 68 15 36 35 85 44 110 9 25 20 51 25 59 5 7 33 19 62 25 42 10
54 17 54 31 0 15 -10 21 -42 28 -38 7 -52 4 -120 -28 -43 -19 -87 -41 -98 -47
-11 -6 -31 -17 -45 -25 -14 -7 -33 -13 -42 -13 -10 0 -18 6 -18 14 0 7 11 39
25 70 14 31 25 59 25 61 0 3 -17 5 -38 5z m125 -150 c6 0 14 -4 17 -8 3 -5 1
-25 -5 -45 -6 -23 -16 -37 -26 -37 -9 0 -25 7 -35 17 -10 9 -18 21 -18 27 0 6
12 19 28 28 15 10 32 18 39 18z"/>
</g>
</svg>
