<?xml version="1.0" standalone="no"?>
<!DOCTYPE svg PUBLIC "-//W3C//DTD SVG 20010904//EN"
 "http://www.w3.org/TR/2001/REC-SVG-20010904/DTD/svg10.dtd">
<svg version="1.0" xmlns="http://www.w3.org/2000/svg"
 width="56.000000pt" height="56.000000pt" viewBox="0 0 56.000000 56.000000"
 preserveAspectRatio="xMidYMid meet">
<metadata>
Created by potrace 1.16, written by Peter Selinger 2001-2019
</metadata>
<g transform="translate(0.000000,56.000000) scale(0.100000,-0.100000)"
fill="#000000" stroke="none">
<path d="M146 560 c-26 0 -36 -4 -36 -15 0 -9 7 -18 16 -22 9 -3 24 -2 32 4 9
5 18 15 20 21 2 8 -9 12 -32 12z"/>
<path d="M495 536 c-5 2 -24 -7 -41 -21 -17 -13 -71 -37 -120 -54 -89 -29 -89
-29 -110 -4 -11 14 -26 24 -34 21 -7 -2 -18 -19 -24 -38 -10 -30 -17 -35 -66
-46 -54 -13 -55 -13 -79 14 -24 26 -24 26 -16 -33 4 -33 9 -64 12 -68 3 -4 29
6 59 23 29 16 58 30 64 30 6 0 10 -34 10 -86 0 -71 4 -91 21 -115 17 -24 28
-29 60 -29 22 0 60 5 85 11 29 8 49 8 55 2 6 -6 -3 -25 -24 -54 -19 -24 -39
-54 -46 -67 -11 -21 -10 -22 21 -22 29 0 41 9 96 75 38 45 62 84 62 98 0 16
-9 28 -25 35 -19 9 -38 9 -77 0 -29 -6 -80 -12 -113 -12 -60 -1 -60 -1 -63 95
-2 76 0 98 11 102 10 4 26 -18 52 -66 21 -40 41 -76 45 -81 5 -4 19 -1 32 8
12 9 44 56 69 104 46 87 46 87 98 95 43 7 51 12 51 30 0 14 -10 27 -28 35 -15
8 -31 15 -37 18z m-112 -97 c4 1 7 -5 7 -12 0 -7 -13 -34 -30 -60 -16 -26 -34
-47 -40 -47 -5 0 -16 13 -25 30 -8 16 -15 35 -15 43 0 8 21 21 48 30 26 9 50
16 55 16z"/>
</g>
</svg>
