<?xml version="1.0" standalone="no"?>
<!DOCTYPE svg PUBLIC "-//W3C//DTD SVG 20010904//EN"
 "http://www.w3.org/TR/2001/REC-SVG-20010904/DTD/svg10.dtd">
<svg version="1.0" xmlns="http://www.w3.org/2000/svg"
 width="56.000000pt" height="56.000000pt" viewBox="0 0 56.000000 56.000000"
 preserveAspectRatio="xMidYMid meet">
<metadata>
Created by potrace 1.16, written by Peter Selinger 2001-2019
</metadata>
<g transform="translate(0.000000,56.000000) scale(0.100000,-0.100000)"
fill="#000000" stroke="none">
<path d="M321 560 c-23 0 -41 -4 -41 -9 0 -6 -21 -29 -46 -53 -43 -41 -46 -45
-40 -84 3 -23 3 -65 -1 -93 -4 -37 -10 -51 -19 -47 -7 3 -16 1 -19 -3 -3 -5 2
-12 11 -15 8 -3 13 -10 10 -15 -3 -5 -15 -7 -25 -4 -10 3 -21 0 -25 -5 -3 -5
3 -17 14 -27 11 -10 20 -27 20 -37 0 -10 -6 -34 -14 -53 -13 -30 -13 -35 4
-50 17 -16 19 -15 33 7 9 12 27 48 41 78 15 30 35 66 46 80 20 25 20 25 14
-40 -5 -54 -11 -69 -35 -92 -22 -20 -29 -36 -29 -64 0 -37 0 -37 43 -29 23 4
59 6 80 6 28 -1 44 5 62 23 15 15 25 37 25 53 0 16 -7 39 -17 52 -14 20 -14
29 -4 58 11 29 10 37 -3 52 -12 13 -15 29 -10 65 5 37 3 50 -11 66 -15 16 -21
18 -33 7 -13 -10 -14 -5 -8 43 4 30 10 72 13 93 5 37 5 37 -36 37z m-13 -40
c3 0 2 -35 -1 -77 -4 -54 -13 -92 -29 -122 -13 -24 -30 -55 -38 -70 -15 -26
-15 -26 -18 8 -2 19 1 54 7 77 6 24 11 63 11 87 0 37 5 48 32 71 17 14 34 26
36 26z m45 -189 c5 -5 2 -30 -6 -57 -8 -27 -12 -64 -10 -81 4 -26 2 -33 -12
-33 -15 0 -16 10 -11 81 3 52 9 85 18 90 7 5 17 4 21 0z m-12 -191 c4 0 17 -8
29 -18 23 -18 23 -18 -10 -55 -18 -20 -38 -37 -46 -37 -9 0 -12 13 -10 46 1
26 8 49 17 55 8 5 17 9 20 9z"/>
</g>
</svg>
