<?xml version="1.0" standalone="no"?>
<!DOCTYPE svg PUBLIC "-//W3C//DTD SVG 20010904//EN"
 "http://www.w3.org/TR/2001/REC-SVG-20010904/DTD/svg10.dtd">
<svg version="1.0" xmlns="http://www.w3.org/2000/svg"
 width="56.000000pt" height="56.000000pt" viewBox="0 0 56.000000 56.000000"
 preserveAspectRatio="xMidYMid meet">
<metadata>
Created by potrace 1.16, written by Peter Selinger 2001-2019
</metadata>
<g transform="translate(0.000000,56.000000) scale(0.100000,-0.100000)"
fill="#000000" stroke="none">
<path d="M240 540 c-8 -1 -23 -5 -32 -11 -10 -5 -18 -16 -18 -23 0 -8 -11 -21
-25 -30 -14 -9 -25 -23 -25 -31 0 -8 7 -15 15 -15 8 0 34 12 58 27 24 14 50
35 56 46 10 16 10 21 -1 28 -7 5 -20 9 -28 9z"/>
<path d="M499 530 c-8 0 -26 -11 -39 -25 -13 -14 -56 -47 -96 -75 -40 -27 -79
-50 -88 -50 -8 0 -17 -4 -21 -10 -4 -6 -14 -6 -28 1 -15 7 -31 7 -50 0 -15 -6
-27 -15 -27 -20 0 -6 9 -15 20 -21 11 -6 20 -15 20 -20 0 -5 -21 -19 -47 -30
-27 -12 -63 -23 -81 -25 -18 -2 -39 -9 -47 -15 -8 -7 -15 -18 -15 -26 0 -7 5
-16 12 -20 6 -4 26 -7 44 -6 19 1 46 9 61 19 16 10 33 25 40 33 8 10 15 12 21
5 5 -5 17 -41 27 -79 10 -38 26 -77 37 -88 10 -10 27 -18 38 -18 12 0 31 -7
43 -14 14 -10 40 -14 71 -12 33 3 54 10 63 22 7 10 13 23 13 30 0 6 -7 17 -15
24 -11 9 -22 9 -46 1 -23 -8 -36 -8 -45 0 -8 6 -25 8 -39 5 -21 -5 -29 0 -51
34 -14 22 -24 46 -21 53 3 8 17 16 30 19 14 3 31 1 39 -3 9 -5 27 0 46 11 19
12 43 42 61 77 16 32 34 76 40 98 9 32 19 44 51 59 24 11 40 26 40 36 0 10
-10 20 -22 24 -13 3 -30 6 -39 6z m-92 -143 c2 -2 -1 -15 -6 -28 -5 -14 -22
-39 -38 -56 -17 -18 -42 -35 -56 -39 -15 -3 -34 -3 -43 0 -9 3 -14 15 -12 27
2 15 25 33 77 60 41 22 76 38 78 36z"/>
</g>
</svg>
