<?xml version="1.0" standalone="no"?>
<!DOCTYPE svg PUBLIC "-//W3C//DTD SVG 20010904//EN"
 "http://www.w3.org/TR/2001/REC-SVG-20010904/DTD/svg10.dtd">
<svg version="1.0" xmlns="http://www.w3.org/2000/svg"
 width="56.000000pt" height="56.000000pt" viewBox="0 0 56.000000 56.000000"
 preserveAspectRatio="xMidYMid meet">
<metadata>
Created by potrace 1.16, written by Peter Selinger 2001-2019
</metadata>
<g transform="translate(0.000000,56.000000) scale(0.100000,-0.100000)"
fill="#000000" stroke="none">
<path d="M213 559 c-32 -1 -48 -11 -96 -58 -57 -57 -57 -57 -51 -104 4 -26 12
-51 18 -56 6 -5 27 -11 46 -13 35 -3 35 -3 38 -58 1 -30 2 -77 2 -104 -1 -28
5 -55 13 -65 8 -9 17 -27 21 -41 3 -14 12 -33 20 -43 12 -16 25 -17 111 -11
69 5 98 11 102 21 3 8 -5 25 -17 39 -15 14 -35 24 -52 24 -16 0 -42 -9 -57
-21 -16 -12 -37 -19 -47 -17 -12 2 -20 13 -22 28 -2 14 -7 34 -12 45 -4 11
-11 35 -14 53 -4 26 -2 32 12 32 10 0 39 -18 66 -40 27 -23 54 -39 60 -37 6 2
19 32 28 68 9 35 20 82 25 104 7 37 11 40 48 45 35 4 40 9 43 32 3 23 -3 31
-32 45 -23 10 -37 24 -38 37 -1 12 -2 30 -3 41 -1 11 -3 28 -4 38 -1 11 -9 17
-27 17 -22 0 -25 -3 -20 -23 3 -13 1 -40 -5 -60 -8 -31 -16 -38 -47 -46 -20
-5 -71 -17 -113 -26 -42 -10 -82 -15 -88 -11 -6 4 -11 13 -11 19 0 7 20 31 44
54 24 22 55 49 70 58 14 10 26 21 26 26 0 5 -17 8 -37 8z m125 -201 c19 2 22
-3 22 -38 0 -23 -7 -54 -15 -70 -9 -17 -22 -30 -30 -30 -9 0 -33 11 -55 25
-22 14 -40 32 -40 39 0 8 4 26 10 40 7 19 18 26 47 29 21 2 48 4 61 5z"/>
</g>
</svg>
