<?xml version="1.0" standalone="no"?>
<!DOCTYPE svg PUBLIC "-//W3C//DTD SVG 20010904//EN"
 "http://www.w3.org/TR/2001/REC-SVG-20010904/DTD/svg10.dtd">
<svg version="1.0" xmlns="http://www.w3.org/2000/svg"
 width="56.000000pt" height="56.000000pt" viewBox="0 0 56.000000 56.000000"
 preserveAspectRatio="xMidYMid meet">
<metadata>
Created by potrace 1.16, written by Peter Selinger 2001-2019
</metadata>
<g transform="translate(0.000000,56.000000) scale(0.100000,-0.100000)"
fill="#000000" stroke="none">
<path d="M432 560 c-9 0 -23 -9 -30 -20 -7 -11 -18 -20 -25 -20 -6 0 -39 -14
-71 -30 -59 -30 -59 -30 -94 -10 -25 15 -38 18 -46 10 -5 -5 -10 -22 -11 -36
0 -21 -7 -28 -39 -39 -21 -7 -43 -18 -49 -24 -5 -5 -7 -17 -3 -26 5 -13 13
-16 34 -11 15 4 36 8 47 9 19 2 20 -4 20 -88 0 -66 5 -100 19 -129 18 -38 19
-38 62 -32 27 3 44 2 44 -5 0 -5 -12 -21 -27 -35 -16 -13 -40 -32 -55 -41 -16
-10 -28 -21 -28 -25 0 -4 18 -8 39 -8 22 0 41 3 43 8 2 4 34 29 71 56 53 37
67 53 65 69 -3 20 -8 22 -67 19 -36 -1 -70 3 -77 9 -9 8 -14 34 -14 75 0 45 4
64 13 64 6 0 36 -9 65 -20 38 -15 58 -17 71 -11 10 6 21 27 25 48 3 21 6 55 6
76 0 21 5 48 11 60 6 12 23 31 37 43 14 12 22 26 18 32 -4 7 -14 12 -22 12 -8
0 -14 5 -14 10 0 6 -8 10 -18 10z m-64 -133 c2 -11 -2 -39 -8 -63 -7 -23 -18
-45 -25 -48 -8 -3 -33 12 -57 34 -30 27 -40 42 -33 49 6 6 35 19 65 29 55 19
55 19 58 -1z"/>
</g>
</svg>
