<?xml version="1.0" standalone="no"?>
<!DOCTYPE svg PUBLIC "-//W3C//DTD SVG 20010904//EN"
 "http://www.w3.org/TR/2001/REC-SVG-20010904/DTD/svg10.dtd">
<svg version="1.0" xmlns="http://www.w3.org/2000/svg"
 width="56.000000pt" height="56.000000pt" viewBox="0 0 56.000000 56.000000"
 preserveAspectRatio="xMidYMid meet">
<metadata>
Created by potrace 1.16, written by Peter Selinger 2001-2019
</metadata>
<g transform="translate(0.000000,56.000000) scale(0.100000,-0.100000)"
fill="#000000" stroke="none">
<path d="M420 520 c-11 0 -23 -15 -33 -42 -9 -24 -17 -52 -19 -62 -2 -14 -17
-23 -53 -32 -27 -7 -60 -15 -72 -19 -17 -6 -23 -3 -23 8 0 9 -5 28 -12 42 -6
14 -17 25 -25 25 -9 0 -13 -15 -13 -54 0 -53 0 -53 -68 -60 -38 -4 -76 -4 -85
0 -12 4 -17 1 -17 -14 0 -13 12 -26 35 -36 19 -9 52 -15 77 -14 40 3 43 1 42
-22 -1 -14 -5 -58 -9 -97 -6 -53 -4 -77 4 -87 10 -12 29 -14 90 -9 54 4 80 2
85 -6 4 -6 20 -11 35 -11 15 0 35 8 43 18 8 9 18 27 21 39 3 14 -2 28 -15 39
-18 17 -22 17 -71 1 -29 -10 -69 -18 -89 -19 -21 -1 -40 1 -43 4 -4 3 -3 22 0
42 7 32 10 36 39 36 17 0 38 -4 45 -9 9 -6 22 -6 33 0 10 5 29 32 43 59 14 28
29 67 33 87 8 38 8 38 85 38 77 -1 77 -1 77 25 0 21 -8 31 -38 44 -20 9 -48
32 -61 51 -13 19 -31 35 -41 35z m14 -70 c7 0 19 -6 25 -14 9 -11 8 -15 -5
-20 -9 -3 -20 -4 -25 0 -5 3 -9 12 -9 20 0 8 6 14 14 14z m-121 -110 c10 0 20
-7 24 -16 4 -12 -8 -30 -40 -60 -25 -24 -53 -44 -62 -44 -13 0 -16 9 -13 43 3
37 7 44 38 59 19 10 43 18 53 18z"/>
</g>
</svg>
