<?xml version="1.0" standalone="no"?>
<!DOCTYPE svg PUBLIC "-//W3C//DTD SVG 20010904//EN"
 "http://www.w3.org/TR/2001/REC-SVG-20010904/DTD/svg10.dtd">
<svg version="1.0" xmlns="http://www.w3.org/2000/svg"
 width="56.000000pt" height="56.000000pt" viewBox="0 0 56.000000 56.000000"
 preserveAspectRatio="xMidYMid meet">
<metadata>
Created by potrace 1.16, written by Peter Selinger 2001-2019
</metadata>
<g transform="translate(0.000000,56.000000) scale(0.100000,-0.100000)"
fill="#000000" stroke="none">
<path d="M151 560 c-10 0 -24 -7 -32 -16 -9 -11 -10 -20 -3 -32 6 -10 24 -24
40 -32 25 -13 29 -20 29 -60 0 -43 -1 -45 -30 -46 -16 -1 -47 3 -68 9 -26 7
-41 7 -48 0 -7 -7 -4 -21 9 -44 18 -33 21 -34 80 -34 59 0 62 -1 67 -27 4 -15
2 -36 -4 -47 -6 -11 -11 -31 -11 -46 0 -14 9 -43 20 -65 12 -24 33 -45 53 -55
26 -12 43 -14 74 -7 41 9 41 9 32 -22 -5 -17 -9 -32 -9 -33 0 -2 17 -3 39 -3
21 0 44 6 50 14 9 11 9 25 1 55 -6 24 -20 46 -33 53 -12 6 -49 15 -82 19 -36
5 -64 14 -71 24 -7 10 -9 27 -5 43 5 19 17 30 42 37 20 5 64 25 100 44 35 19
67 39 71 45 4 6 10 7 14 4 4 -4 15 -3 25 3 11 5 19 17 19 27 0 9 -23 34 -51
55 -27 20 -58 37 -68 37 -10 0 -26 -8 -35 -19 -9 -10 -29 -21 -44 -24 -15 -3
-34 -8 -42 -12 -12 -4 -20 8 -35 50 -13 39 -27 61 -47 73 -15 9 -28 20 -28 24
0 4 -8 8 -19 8z m227 -160 c6 0 12 -7 12 -16 0 -9 -21 -36 -47 -60 -27 -24
-55 -44 -64 -44 -11 0 -18 11 -22 33 -2 17 -3 35 0 40 2 4 14 7 26 7 12 0 36
9 52 20 17 11 36 20 43 20z"/>
</g>
</svg>
