<?xml version="1.0" standalone="no"?>
<!DOCTYPE svg PUBLIC "-//W3C//DTD SVG 20010904//EN"
 "http://www.w3.org/TR/2001/REC-SVG-20010904/DTD/svg10.dtd">
<svg version="1.0" xmlns="http://www.w3.org/2000/svg"
 width="56.000000pt" height="56.000000pt" viewBox="0 0 56.000000 56.000000"
 preserveAspectRatio="xMidYMid meet">
<metadata>
Created by potrace 1.16, written by Peter Selinger 2001-2019
</metadata>
<g transform="translate(0.000000,56.000000) scale(0.100000,-0.100000)"
fill="#000000" stroke="none">
<path d="M245 560 c-27 0 -35 -4 -35 -18 0 -10 3 -21 6 -25 4 -3 19 0 35 9 16
8 29 19 29 24 0 6 -16 10 -35 10z"/>
<path d="M384 539 c-7 1 -14 -9 -18 -21 -3 -13 -6 -31 -6 -40 0 -11 8 -18 20
-18 11 0 20 -4 20 -9 0 -6 -21 -13 -46 -17 -26 -4 -50 -14 -56 -24 -6 -9 -19
-15 -28 -13 -9 3 -42 -3 -72 -12 -31 -9 -67 -13 -81 -10 -19 5 -23 11 -19 27
4 16 1 19 -14 16 -16 -3 -20 -14 -22 -60 -2 -31 1 -59 6 -62 6 -3 23 1 38 9
16 8 36 15 45 15 15 0 17 -13 15 -107 -2 -65 1 -116 8 -128 6 -11 17 -28 25
-37 8 -10 23 -18 33 -18 11 0 26 -7 35 -16 11 -11 19 -12 26 -5 6 6 21 11 33
11 13 0 26 -5 29 -10 3 -6 38 -10 78 -10 41 0 67 4 62 9 -6 5 -39 17 -75 26
-36 10 -78 19 -95 20 -16 1 -36 3 -42 3 -7 1 -24 20 -39 43 -23 37 -25 48 -20
108 2 36 8 85 11 108 6 33 13 44 35 53 15 6 41 10 56 8 26 -3 30 -8 38 -56 5
-29 6 -55 3 -58 -3 -4 -29 5 -56 19 -49 24 -51 24 -51 5 0 -10 20 -39 45 -64
25 -24 45 -48 45 -54 0 -5 7 -10 15 -10 8 0 20 10 26 23 7 12 16 25 21 28 6 4
6 32 1 70 -5 35 -6 75 -3 89 5 21 12 25 46 25 31 0 39 3 38 18 -1 10 -24 42
-50 71 -27 30 -54 54 -60 55z"/>
<path d="M187 508 c-10 2 -17 -3 -17 -13 0 -8 -11 -20 -24 -25 -13 -5 -27 -14
-31 -19 -3 -6 1 -14 11 -18 10 -4 23 1 33 14 9 11 24 23 34 27 10 3 17 12 15
19 -3 6 -12 13 -21 15z"/>
</g>
</svg>
