<?xml version="1.0" standalone="no"?>
<!DOCTYPE svg PUBLIC "-//W3C//DTD SVG 20010904//EN"
 "http://www.w3.org/TR/2001/REC-SVG-20010904/DTD/svg10.dtd">
<svg version="1.0" xmlns="http://www.w3.org/2000/svg"
 width="56.000000pt" height="56.000000pt" viewBox="0 0 56.000000 56.000000"
 preserveAspectRatio="xMidYMid meet">
<metadata>
Created by potrace 1.16, written by Peter Selinger 2001-2019
</metadata>
<g transform="translate(0.000000,56.000000) scale(0.100000,-0.100000)"
fill="#000000" stroke="none">
<path d="M272 560 c-9 0 -23 -9 -29 -19 -7 -11 -28 -24 -48 -31 -28 -9 -43
-25 -77 -83 -23 -40 -52 -86 -65 -103 -13 -17 -23 -43 -23 -57 0 -14 4 -28 9
-32 5 -3 25 4 45 16 19 11 40 18 46 14 5 -3 10 -25 10 -48 0 -29 8 -55 27 -82
15 -22 34 -45 42 -52 9 -7 24 -13 34 -13 10 0 47 16 82 35 40 23 66 32 70 25
3 -6 -3 -25 -14 -44 -12 -18 -33 -45 -47 -60 -27 -26 -27 -26 9 -26 27 0 41 7
61 31 14 17 38 51 52 75 25 42 25 46 10 69 -9 14 -24 25 -34 25 -10 0 -50 -14
-91 -31 -45 -19 -82 -28 -96 -25 -13 3 -30 21 -40 41 -9 20 -19 52 -22 70 -3
21 -1 41 7 50 7 8 16 15 20 15 5 0 22 -25 39 -55 25 -45 36 -55 57 -55 17 0
38 12 58 34 23 23 36 51 45 92 7 33 15 68 17 80 2 11 24 34 49 49 25 16 45 34
45 40 0 6 -11 21 -25 33 -14 12 -33 22 -43 22 -11 0 -24 -16 -35 -45 -16 -39
-28 -50 -92 -85 -40 -22 -80 -40 -88 -40 -9 0 -24 14 -33 31 -16 31 -16 31 35
76 28 25 51 49 51 54 0 5 -8 9 -18 9z m-108 -153 c6 -2 12 -13 14 -24 2 -13
-6 -27 -20 -37 -12 -9 -28 -16 -35 -16 -7 0 -13 5 -13 11 0 6 9 24 21 40 12
17 26 28 33 26z m194 -18 c6 1 12 -1 12 -4 0 -3 -9 -25 -21 -50 -11 -24 -28
-50 -36 -57 -13 -10 -18 -8 -34 11 -11 13 -19 31 -19 40 0 10 18 26 43 38 23
12 48 22 55 22z"/>
</g>
</svg>
