<?xml version="1.0" standalone="no"?>
<!DOCTYPE svg PUBLIC "-//W3C//DTD SVG 20010904//EN"
 "http://www.w3.org/TR/2001/REC-SVG-20010904/DTD/svg10.dtd">
<svg version="1.0" xmlns="http://www.w3.org/2000/svg"
 width="56.000000pt" height="56.000000pt" viewBox="0 0 56.000000 56.000000"
 preserveAspectRatio="xMidYMid meet">
<metadata>
Created by potrace 1.16, written by Peter Selinger 2001-2019
</metadata>
<g transform="translate(0.000000,56.000000) scale(0.100000,-0.100000)"
fill="#000000" stroke="none">
<path d="M405 560 c-19 0 -35 -4 -35 -8 0 -5 -10 -13 -22 -19 -13 -6 -47 -32
-76 -58 -52 -47 -52 -47 -94 -31 -23 10 -45 13 -50 8 -4 -4 3 -19 17 -32 14
-13 25 -28 25 -34 0 -5 -19 -28 -42 -49 -24 -22 -60 -51 -80 -65 -29 -18 -38
-31 -38 -52 0 -15 6 -33 14 -39 11 -9 29 -2 86 35 46 30 75 43 82 36 6 -6 3
-39 -8 -92 -17 -84 -17 -84 21 -118 34 -31 40 -33 88 -28 29 2 68 8 88 11 26
5 39 3 48 -9 8 -9 23 -16 35 -16 12 0 27 5 34 12 7 7 12 18 12 24 0 7 -16 25
-35 40 -23 17 -41 24 -52 19 -10 -4 -49 -8 -88 -8 -38 -1 -78 2 -88 6 -16 6
-18 16 -14 82 2 41 7 78 11 82 3 4 29 -19 57 -50 28 -31 57 -57 65 -57 8 0 18
10 23 23 5 12 19 54 30 92 12 39 21 78 21 88 0 9 6 18 13 18 6 1 33 1 60 -1
40 -2 47 1 47 17 0 10 -14 26 -31 36 -20 11 -29 22 -25 32 3 9 -8 30 -29 52
-19 21 -35 41 -35 45 0 4 -16 8 -35 8z m10 -50 c13 -13 13 -21 0 -64 -8 -27
-23 -55 -32 -62 -10 -7 -32 -14 -50 -14 -17 0 -35 -4 -38 -10 -3 -5 -15 -10
-26 -10 -12 0 -19 7 -19 18 0 10 19 36 43 58 24 22 58 49 75 59 18 11 32 24
32 29 0 6 7 4 15 -4z m-42 -177 c4 -2 7 -12 7 -21 0 -9 -5 -34 -11 -54 -8 -30
-15 -38 -32 -38 -12 1 -32 9 -44 19 -13 11 -23 28 -23 40 0 11 6 23 13 28 6 4
28 13 47 19 19 6 38 9 43 7z"/>
</g>
</svg>
