<?xml version="1.0" standalone="no"?>
<!DOCTYPE svg PUBLIC "-//W3C//DTD SVG 20010904//EN"
 "http://www.w3.org/TR/2001/REC-SVG-20010904/DTD/svg10.dtd">
<svg version="1.0" xmlns="http://www.w3.org/2000/svg"
 width="56.000000pt" height="56.000000pt" viewBox="0 0 56.000000 56.000000"
 preserveAspectRatio="xMidYMid meet">
<metadata>
Created by potrace 1.16, written by Peter Selinger 2001-2019
</metadata>
<g transform="translate(0.000000,56.000000) scale(0.100000,-0.100000)"
fill="#000000" stroke="none">
<path d="M446 560 c-6 0 -17 -9 -24 -20 -6 -11 -12 -26 -12 -35 0 -8 -17 -23
-37 -33 -21 -11 -59 -20 -84 -21 -31 -1 -51 4 -59 14 -7 8 -17 15 -22 15 -5 0
-8 -10 -6 -22 2 -16 -4 -24 -22 -29 -14 -4 -55 -7 -92 -8 -38 -1 -68 -5 -68
-11 0 -5 9 -14 20 -20 11 -6 30 -8 42 -6 13 3 42 7 66 10 41 6 42 6 42 -23 0
-17 5 -33 10 -36 6 -3 10 -25 10 -48 0 -26 9 -56 23 -79 12 -20 36 -48 53 -60
31 -23 31 -23 6 -76 -13 -28 -28 -52 -33 -52 -5 0 -9 -4 -9 -10 0 -5 9 -10 21
-10 11 0 26 6 32 13 7 6 24 28 39 48 17 23 25 44 22 57 -4 14 0 22 15 27 12 3
21 13 21 20 0 10 -17 17 -50 21 -27 4 -53 12 -58 18 -5 6 -14 30 -20 52 -7 23
-12 51 -12 64 0 22 0 22 35 -5 20 -15 43 -24 50 -21 8 3 15 12 15 20 0 9 -20
24 -43 35 -24 11 -50 27 -57 36 -11 13 -10 18 3 33 9 10 28 17 44 16 15 -1 38
-3 50 -3 20 -1 21 -4 13 -27 -6 -14 -10 -27 -10 -30 0 -2 6 -4 14 -4 8 0 24
12 35 26 11 14 17 32 15 39 -4 9 3 16 19 20 13 4 31 6 38 5 8 -2 20 -2 27 -1
6 0 12 12 12 26 0 18 -7 28 -25 35 -14 5 -28 17 -31 25 -4 8 -11 15 -18 15z"/>
</g>
</svg>
