<?xml version="1.0" standalone="no"?>
<!DOCTYPE svg PUBLIC "-//W3C//DTD SVG 20010904//EN"
 "http://www.w3.org/TR/2001/REC-SVG-20010904/DTD/svg10.dtd">
<svg version="1.0" xmlns="http://www.w3.org/2000/svg"
 width="128.000000pt" height="128.000000pt" viewBox="0 0 128.000000 128.000000"
 preserveAspectRatio="xMidYMid meet">
<metadata>
Created by potrace 1.16, written by Peter Selinger 2001-2019
</metadata>
<g transform="translate(0.000000,128.000000) scale(0.100000,-0.100000)"
fill="#000000" stroke="none">
<path d="M438 1280 c-10 0 -18 -4 -18 -9 0 -6 5 -13 10 -16 6 -3 10 -12 10
-19 0 -7 -17 -35 -37 -62 -20 -27 -61 -72 -90 -100 -32 -31 -53 -59 -53 -72 0
-15 6 -22 19 -22 11 0 28 11 39 25 11 14 25 25 30 25 6 0 20 -13 31 -28 11
-16 38 -37 60 -46 23 -11 50 -16 64 -12 13 3 53 31 88 63 39 34 96 72 145 95
45 21 85 38 88 38 3 0 6 -6 6 -13 0 -7 -24 -29 -52 -50 -29 -21 -77 -53 -106
-71 -28 -18 -72 -44 -97 -57 -25 -13 -47 -29 -50 -36 -2 -8 4 -13 18 -14 12
-1 29 -2 37 -3 8 0 16 -8 18 -16 1 -10 -13 -21 -40 -31 -24 -9 -62 -22 -85
-28 -24 -7 -43 -16 -43 -20 0 -5 -25 -17 -55 -26 -30 -10 -61 -15 -70 -12 -8
4 -26 2 -40 -3 -14 -5 -25 -16 -25 -25 0 -8 11 -21 25 -27 21 -9 34 -7 81 16
31 15 58 25 61 23 3 -3 9 -25 14 -48 6 -27 6 -46 0 -52 -6 -6 -24 -6 -52 1
-23 6 -48 8 -55 5 -8 -3 -14 -8 -14 -12 0 -3 4 -11 8 -17 4 -6 27 -15 52 -20
45 -9 45 -9 48 -73 3 -54 0 -67 -19 -87 -12 -13 -19 -30 -16 -38 4 -10 18 -16
34 -16 15 1 45 7 66 14 20 8 39 10 42 6 2 -4 -25 -31 -60 -60 -36 -28 -65 -55
-65 -58 0 -4 -12 -13 -27 -19 -15 -7 -35 -13 -44 -13 -9 0 -22 -7 -29 -15 -6
-8 -9 -19 -5 -25 3 -5 18 -10 32 -10 14 0 41 12 60 26 19 14 37 24 40 21 2 -3
9 -24 14 -47 5 -23 6 -46 3 -52 -4 -6 -6 -39 -5 -72 1 -34 6 -65 11 -70 6 -6
26 -4 51 4 23 8 65 31 95 52 29 21 70 63 90 93 25 39 42 55 57 55 12 0 69 -24
127 -54 58 -29 119 -61 135 -70 17 -9 36 -16 43 -16 6 0 12 8 12 18 0 9 -4 22
-8 27 -4 6 -29 24 -57 40 -27 16 -62 42 -77 58 -22 23 -35 28 -65 27 -21 -1
-45 -1 -53 -1 -8 1 -21 5 -28 10 -10 6 -6 19 19 56 18 27 44 51 60 57 17 6 31
19 34 31 3 12 1 38 -3 57 -6 25 -13 35 -27 35 -14 0 -21 -8 -23 -25 -2 -14
-13 -36 -25 -49 -12 -12 -49 -37 -82 -54 -33 -17 -84 -39 -113 -49 -29 -9 -59
-15 -67 -12 -8 4 -15 11 -15 16 0 5 13 22 28 36 15 15 49 46 74 69 26 22 61
44 80 48 18 4 41 14 51 23 9 8 17 20 17 27 0 6 -11 21 -24 34 -15 15 -22 29
-19 45 4 18 0 26 -16 31 -12 3 -21 15 -21 25 0 10 25 41 55 68 30 28 55 57 55
65 0 8 -13 20 -29 25 -23 8 -35 6 -61 -10 -18 -10 -39 -17 -46 -14 -8 3 -14
14 -14 25 0 11 9 25 19 31 11 5 32 10 48 10 15 1 39 7 53 15 14 8 39 14 56 15
16 0 39 6 50 14 17 14 18 17 4 42 -8 15 -22 32 -32 37 -13 8 -24 4 -53 -22
-23 -20 -45 -31 -58 -29 -15 2 -23 11 -25 30 -3 25 3 30 72 63 41 19 88 46
103 58 15 13 41 31 56 41 28 17 28 18 11 44 -10 15 -25 32 -33 39 -9 7 -24 13
-34 13 -10 0 -53 -16 -95 -35 -42 -20 -88 -47 -102 -59 -14 -13 -43 -33 -65
-43 -22 -11 -58 -30 -80 -42 -22 -13 -44 -27 -49 -32 -6 -5 -18 -9 -27 -9 -10
0 -35 15 -55 34 -38 35 -38 35 24 101 34 36 62 72 62 80 0 8 -10 26 -22 40
-12 14 -30 25 -40 25z m123 -471 c4 1 12 -6 19 -14 7 -8 10 -21 7 -29 -4 -9
-25 -29 -48 -46 -23 -16 -50 -30 -59 -30 -10 0 -21 7 -24 16 -3 8 -3 26 0 38
3 15 21 30 52 43 26 12 50 21 53 22z m14 -114 c6 -1 9 -11 7 -21 -2 -10 -17
-33 -34 -50 -19 -20 -26 -34 -19 -38 6 -4 11 -13 11 -21 0 -7 -13 -23 -30 -35
-29 -21 -29 -21 -45 17 -9 21 -14 47 -11 59 3 12 29 37 58 56 29 20 58 35 63
33z m90 -135 c8 0 16 -4 20 -9 3 -5 1 -13 -5 -16 -6 -4 -18 -4 -26 -1 -8 3
-12 10 -9 16 3 5 12 10 20 10z m-61 -20 c8 0 18 -4 21 -10 3 -5 -6 -21 -21
-35 -15 -14 -32 -25 -38 -25 -6 0 -17 4 -23 8 -9 6 -4 13 17 26 17 9 30 21 30
27 0 5 6 9 14 9z m119 -211 c4 1 7 -4 7 -9 0 -6 -7 -22 -16 -35 -11 -16 -26
-25 -43 -25 -14 0 -33 5 -41 10 -10 6 -12 12 -5 19 6 6 28 17 50 25 22 8 43
15 48 15z m-175 -89 c34 0 66 -6 77 -14 17 -12 18 -16 5 -31 -8 -10 -44 -40
-80 -67 -65 -50 -65 -50 -68 8 -2 32 -1 68 3 81 5 21 11 23 63 23z"/>
</g>
</svg>
