<?xml version="1.0" standalone="no"?>
<!DOCTYPE svg PUBLIC "-//W3C//DTD SVG 20010904//EN"
 "http://www.w3.org/TR/2001/REC-SVG-20010904/DTD/svg10.dtd">
<svg version="1.0" xmlns="http://www.w3.org/2000/svg"
 width="128.000000pt" height="128.000000pt" viewBox="0 0 128.000000 128.000000"
 preserveAspectRatio="xMidYMid meet">
<metadata>
Created by potrace 1.16, written by Peter Selinger 2001-2019
</metadata>
<g transform="translate(0.000000,128.000000) scale(0.100000,-0.100000)"
fill="#000000" stroke="none">
<path d="M770 1249 c-25 -1 -58 -8 -73 -16 -20 -10 -27 -21 -25 -36 2 -14 11
-23 26 -25 12 -2 22 -10 22 -19 0 -8 -29 -44 -65 -80 -36 -35 -65 -70 -65 -78
0 -7 -15 -23 -33 -34 -18 -11 -42 -29 -52 -40 -14 -17 -15 -23 -5 -36 7 -8 23
-15 36 -15 13 0 24 -4 24 -9 0 -5 -7 -22 -15 -37 -8 -16 -15 -46 -15 -66 0
-27 -6 -40 -19 -48 -11 -5 -25 -10 -32 -10 -7 0 -1 13 14 28 15 15 27 34 27
40 0 7 -6 15 -14 18 -7 3 -48 -18 -89 -46 -42 -28 -81 -58 -87 -66 -7 -8 -23
-14 -37 -14 -13 0 -44 -11 -67 -25 -23 -14 -52 -35 -64 -48 -17 -18 -21 -31
-16 -56 4 -17 15 -36 24 -41 12 -6 34 -5 68 5 27 8 60 23 73 33 13 10 32 22
42 25 10 4 26 25 34 47 9 22 20 40 25 40 5 0 16 -7 24 -15 9 -8 19 -15 24 -15
5 0 16 14 25 30 11 22 23 30 42 30 15 0 34 6 42 13 9 8 43 20 76 27 33 7 67
19 75 26 8 7 27 16 42 19 21 5 29 3 34 -9 4 -10 -1 -25 -11 -36 -10 -11 -24
-20 -31 -20 -7 0 -26 -12 -43 -26 -17 -14 -31 -32 -31 -40 0 -8 3 -14 7 -14 4
0 16 9 27 19 12 11 41 30 66 44 30 16 69 26 118 31 40 3 84 13 98 22 13 9 24
24 24 34 0 11 -15 25 -37 35 -30 15 -49 16 -107 10 -39 -5 -98 -9 -132 -9 -51
-1 -66 -6 -94 -29 -18 -15 -42 -27 -53 -25 -11 2 -22 9 -25 15 -2 7 5 16 15
20 10 4 24 15 31 24 7 10 22 19 34 21 14 2 24 12 28 28 5 21 12 25 48 28 26 2
45 9 49 18 3 8 2 22 -3 32 -4 9 -6 21 -5 26 1 4 -4 15 -11 23 -11 13 -15 11
-34 -13 -23 -28 -23 -28 -35 -2 -6 15 -9 38 -5 52 4 17 22 32 58 50 29 13 61
27 71 30 9 3 20 14 24 23 3 10 12 25 20 35 8 9 13 29 11 44 -2 18 -12 33 -28
41 -14 7 -45 12 -70 12z m-167 -372 c5 -1 8 -6 8 -10 -1 -4 -3 -7 -6 -7 -3 0
-13 0 -22 0 -15 0 -16 2 -3 10 8 5 19 9 23 7z"/>
<path d="M629 1198 c-8 1 -18 0 -22 -4 -4 -4 -7 -18 -7 -31 0 -12 6 -23 13
-23 6 0 18 4 25 9 8 5 12 17 10 27 -2 10 -10 20 -19 22z"/>
<path d="M436 1149 c-10 8 -17 6 -29 -7 -10 -10 -17 -35 -17 -56 0 -20 4 -45
10 -55 6 -13 21 -19 48 -19 21 0 42 2 48 6 5 4 26 28 47 53 20 25 37 51 37 58
0 6 -8 11 -18 11 -10 0 -31 -14 -46 -31 -15 -16 -35 -29 -44 -27 -10 2 -18 14
-20 30 -2 15 -9 31 -16 37z"/>
<path d="M609 600 c-4 0 -10 -4 -14 -9 -3 -6 -19 -17 -37 -25 -17 -9 -37 -16
-44 -16 -7 0 -27 -12 -44 -26 -20 -18 -30 -34 -28 -48 2 -17 10 -21 38 -21 28
0 36 -4 38 -21 2 -12 -8 -35 -22 -52 -15 -16 -26 -37 -26 -45 0 -9 -22 -41
-49 -72 -30 -34 -53 -73 -61 -102 -11 -38 -11 -52 1 -86 8 -22 21 -43 29 -47
8 -4 25 -12 37 -18 17 -9 27 -7 55 11 18 13 41 40 51 61 12 25 15 42 8 49 -5
7 -9 23 -9 37 0 14 -5 39 -12 55 -11 28 -9 35 25 95 21 36 47 73 59 82 12 10
38 18 64 18 35 0 42 3 42 20 0 13 12 26 35 37 21 10 35 24 35 35 0 11 -11 23
-27 29 -16 6 -45 11 -66 11 -29 1 -42 6 -54 24 -8 13 -19 24 -24 24z"/>
<path d="M916 430 c-6 0 -18 -5 -26 -10 -8 -5 -23 -10 -34 -10 -10 0 -32 -11
-50 -25 -17 -14 -37 -31 -45 -38 -8 -6 -31 -21 -51 -32 -21 -11 -63 -33 -94
-49 -53 -28 -56 -31 -56 -68 0 -26 5 -41 16 -45 10 -4 23 2 33 15 9 11 33 25
54 31 21 5 45 7 53 4 8 -3 21 -20 28 -38 13 -30 19 -34 83 -45 37 -7 77 -11
88 -9 12 3 21 14 23 27 3 16 -13 40 -53 84 -53 57 -56 63 -39 75 15 11 19 10
31 -7 8 -11 22 -20 31 -20 9 1 31 13 48 28 17 15 37 37 43 50 7 13 10 30 7 37
-3 8 -22 21 -42 30 -20 8 -42 15 -48 15z m-184 -152 c6 -2 13 -9 15 -15 2 -6
-3 -13 -12 -16 -10 -5 -15 0 -15 14 0 12 5 19 12 17z"/>
<path d="M1112 48 c-20 3 -23 0 -20 -20 2 -15 11 -24 26 -26 20 -3 23 0 20 20
-2 15 -11 24 -26 26z"/>
</g>
</svg>
