<?xml version="1.0" standalone="no"?>
<!DOCTYPE svg PUBLIC "-//W3C//DTD SVG 20010904//EN"
 "http://www.w3.org/TR/2001/REC-SVG-20010904/DTD/svg10.dtd">
<svg version="1.0" xmlns="http://www.w3.org/2000/svg"
 width="128.000000pt" height="128.000000pt" viewBox="0 0 128.000000 128.000000"
 preserveAspectRatio="xMidYMid meet">
<metadata>
Created by potrace 1.16, written by Peter Selinger 2001-2019
</metadata>
<g transform="translate(0.000000,128.000000) scale(0.100000,-0.100000)"
fill="#000000" stroke="none">
<path d="M887 1279 c-12 0 -29 -8 -38 -17 -9 -9 -34 -27 -56 -40 -22 -13 -45
-33 -52 -44 -12 -19 -11 -20 21 -14 18 4 57 9 86 13 42 4 52 3 52 -10 0 -8
-24 -46 -53 -83 -29 -38 -62 -74 -74 -79 -12 -6 -41 -30 -64 -53 -24 -23 -47
-42 -51 -42 -4 0 -18 -11 -32 -25 -14 -14 -29 -37 -32 -50 -3 -14 -4 -32 -1
-40 4 -8 18 -17 33 -21 17 -4 39 -1 58 8 17 8 47 20 67 27 20 6 44 8 54 5 11
-5 15 -14 12 -28 -3 -12 -14 -45 -25 -74 -10 -28 -26 -60 -35 -70 -10 -10 -17
-26 -17 -34 0 -9 -7 -21 -15 -28 -8 -6 -17 -22 -21 -33 -4 -12 -17 -35 -29
-52 -12 -16 -25 -46 -29 -66 -4 -21 -20 -52 -39 -71 -17 -19 -38 -46 -45 -60
-8 -14 -12 -36 -10 -49 2 -13 11 -25 21 -27 10 -2 29 8 43 24 14 15 24 34 21
44 -3 13 0 16 13 13 10 -3 28 1 40 7 18 10 25 9 32 -1 7 -10 8 -8 3 6 -4 11
-10 28 -13 39 -3 10 -1 17 4 15 5 -3 26 -13 46 -23 26 -13 39 -28 43 -48 5
-19 1 -38 -10 -55 -10 -15 -35 -43 -56 -64 -21 -20 -54 -42 -74 -49 -25 -8
-35 -17 -33 -28 2 -10 14 -18 29 -20 14 -2 35 6 48 18 13 11 30 20 38 20 7 0
27 16 44 35 17 19 37 35 45 35 7 0 18 8 23 18 6 9 17 26 25 36 15 18 18 16 82
-35 36 -30 99 -87 140 -126 42 -42 82 -73 93 -73 11 0 25 9 31 19 5 11 10 33
10 50 0 22 -10 40 -41 68 -22 21 -49 43 -58 48 -10 6 -53 42 -95 81 -42 39
-76 74 -76 78 0 4 15 30 33 59 19 29 37 72 41 97 4 25 7 61 6 80 0 20 -12 51
-27 73 -14 20 -37 40 -50 43 -17 5 -33 0 -51 -15 -15 -11 -37 -29 -50 -38 -17
-11 -26 -13 -34 -5 -8 8 -7 17 4 34 8 13 23 49 33 80 9 31 25 63 34 71 9 8 48
26 87 41 39 15 80 33 90 41 18 15 18 16 -11 40 -22 19 -38 25 -60 21 -16 -2
-40 -7 -52 -11 -17 -5 -24 -3 -29 11 -4 11 -14 27 -21 36 -8 9 -12 25 -9 35 3
11 29 36 56 57 28 21 55 47 60 57 6 10 10 25 10 33 0 10 -23 27 -57 44 -32 15
-59 30 -61 35 -2 4 -13 7 -25 6z m-96 -299 c9 0 24 -9 33 -19 10 -11 16 -31
14 -48 -2 -24 -8 -29 -38 -33 -19 -3 -47 -13 -62 -24 -16 -10 -35 -16 -43 -12
-8 3 -15 12 -15 20 0 8 21 38 47 66 27 27 55 50 64 50z m163 -328 c5 -2 6 -39
3 -82 -3 -42 -10 -85 -16 -96 -6 -10 -17 -36 -26 -58 -12 -30 -18 -37 -32 -31
-10 4 -37 13 -61 19 -23 7 -49 19 -56 27 -12 12 -8 24 34 89 33 51 64 85 97
106 26 18 52 29 57 26z"/>
<path d="M504 1146 c-57 28 -106 48 -109 46 -3 -3 -5 -12 -5 -21 1 -9 14 -32
30 -51 17 -19 30 -41 30 -50 0 -8 -11 -27 -23 -41 -13 -14 -29 -28 -37 -31 -8
-3 -39 -25 -67 -48 -29 -23 -53 -48 -53 -57 0 -10 6 -12 23 -7 12 4 33 15 47
26 14 10 53 37 86 58 34 22 70 40 80 40 11 0 38 10 62 22 29 16 42 29 41 43 0
15 -25 32 -105 71z"/>
<path d="M371 870 c-5 0 -14 -6 -20 -14 -9 -10 -9 -20 0 -39 6 -14 9 -37 5
-51 -3 -14 -19 -32 -36 -41 -16 -8 -54 -15 -86 -15 -56 0 -56 0 -50 28 4 15
16 39 26 54 11 15 20 34 20 42 0 9 -7 12 -20 9 -10 -3 -32 -21 -47 -41 -15
-20 -34 -47 -40 -61 -7 -13 -13 -33 -13 -46 0 -12 6 -27 12 -33 7 -5 43 -13
79 -17 38 -4 74 -3 84 2 9 6 28 8 41 5 13 -2 24 -10 24 -17 0 -8 -10 -30 -22
-50 -13 -19 -44 -63 -70 -97 -27 -33 -48 -66 -48 -72 0 -6 -9 -20 -21 -29 -19
-17 -19 -20 -5 -42 9 -14 12 -26 6 -30 -5 -3 -18 0 -28 6 -17 11 -25 7 -60
-25 -22 -21 -46 -51 -53 -67 -9 -23 -9 -36 -1 -54 8 -16 20 -25 35 -25 14 0
39 16 62 40 30 31 36 43 27 52 -7 7 -12 23 -12 36 0 21 2 23 15 12 13 -11 20
-11 39 0 13 7 30 9 36 5 9 -6 11 -29 5 -89 -4 -45 -9 -101 -11 -126 -2 -25 -1
-53 2 -62 3 -10 14 -18 24 -18 10 0 24 10 32 23 8 12 18 36 22 52 4 17 11 53
17 80 5 28 13 93 19 145 5 52 13 122 18 155 4 33 13 70 20 82 7 12 12 41 12
65 0 24 4 48 8 54 4 5 24 23 45 38 25 19 37 36 37 52 0 17 -10 30 -32 43 -18
11 -37 24 -41 29 -5 6 -18 19 -28 31 -10 12 -23 21 -28 21z"/>
<path d="M1233 367 c-6 2 -13 0 -16 -4 -3 -5 -8 -25 -12 -45 -4 -22 -2 -58 6
-88 7 -27 16 -50 21 -50 4 0 9 32 10 70 1 39 2 80 2 92 1 12 -4 23 -11 25z"/>
</g>
</svg>
