<?xml version="1.0" standalone="no"?>
<!DOCTYPE svg PUBLIC "-//W3C//DTD SVG 20010904//EN"
 "http://www.w3.org/TR/2001/REC-SVG-20010904/DTD/svg10.dtd">
<svg version="1.0" xmlns="http://www.w3.org/2000/svg"
 width="128.000000pt" height="128.000000pt" viewBox="0 0 128.000000 128.000000"
 preserveAspectRatio="xMidYMid meet">
<metadata>
Created by potrace 1.16, written by Peter Selinger 2001-2019
</metadata>
<g transform="translate(0.000000,128.000000) scale(0.100000,-0.100000)"
fill="#000000" stroke="none">
<path d="M795 1280 c-25 0 -45 -4 -45 -8 0 -5 -17 -16 -37 -25 -21 -9 -51 -24
-68 -34 -16 -10 -43 -27 -60 -38 -16 -11 -48 -33 -70 -50 -22 -16 -74 -64
-115 -105 -50 -49 -87 -99 -111 -145 -20 -38 -41 -91 -48 -117 -6 -26 -12 -82
-12 -125 -1 -43 4 -107 10 -141 7 -35 19 -79 28 -97 9 -18 24 -36 34 -38 11
-3 19 -13 19 -22 0 -15 7 -17 51 -11 51 7 51 7 19 -34 -18 -23 -44 -46 -57
-51 -14 -5 -45 -23 -69 -40 -25 -17 -48 -28 -51 -25 -4 3 -14 -1 -23 -9 -10
-9 -33 -16 -52 -17 -19 -1 -47 -11 -62 -23 -17 -13 -29 -35 -33 -58 -5 -34 -3
-37 30 -53 32 -15 42 -16 79 -5 24 7 76 29 117 48 46 22 76 43 79 55 3 14 11
18 24 15 11 -3 21 0 25 9 3 8 18 14 35 14 17 0 39 10 53 25 14 13 42 27 63 31
20 4 46 11 57 17 11 6 40 15 65 19 25 5 52 10 60 12 8 2 42 6 75 10 33 4 72
10 87 12 24 5 30 1 45 -30 9 -20 21 -36 26 -36 5 0 11 9 14 20 3 11 9 17 14
14 5 -2 25 -7 44 -9 20 -3 50 -12 67 -21 20 -10 42 -14 63 -10 18 4 38 13 45
21 7 8 10 20 8 27 -3 7 1 18 9 23 11 8 11 13 -1 31 -9 12 -35 26 -59 32 -24 6
-52 20 -62 32 -12 13 -25 18 -41 14 -19 -5 -24 -1 -30 20 -4 17 -13 26 -26 26
-10 0 -32 -14 -48 -31 -15 -17 -33 -29 -38 -25 -5 3 -22 0 -37 -8 -15 -8 -34
-12 -41 -9 -8 3 -21 0 -29 -7 -12 -10 -18 -10 -30 0 -10 8 -28 10 -51 5 -20
-3 -47 -13 -60 -22 -13 -8 -28 -12 -33 -8 -6 3 -24 -1 -40 -10 -16 -8 -37 -12
-45 -9 -9 3 -16 13 -16 20 0 8 11 19 25 24 13 5 34 17 45 27 12 10 39 36 61
58 22 22 47 53 55 68 8 15 25 32 37 37 15 5 29 3 45 -6 19 -13 22 -13 22 2 0
13 8 15 38 12 20 -3 51 0 67 5 17 6 40 21 53 34 12 13 22 27 22 31 0 4 16 17
35 30 23 15 35 30 35 45 0 13 9 40 20 61 15 30 18 52 15 95 -3 31 -7 76 -10
100 -3 27 -14 54 -27 69 -17 17 -31 22 -51 19 -15 -2 -30 0 -33 5 -3 4 -21 8
-40 8 -19 0 -52 -9 -74 -20 -22 -11 -46 -20 -54 -20 -8 0 -34 -10 -58 -23 -24
-13 -71 -44 -106 -69 -34 -26 -73 -50 -85 -54 -12 -4 -38 -19 -57 -34 -19 -15
-57 -35 -83 -44 -26 -9 -54 -16 -62 -16 -8 0 -15 -6 -15 -14 0 -8 15 -24 34
-35 18 -12 43 -21 55 -21 12 0 32 5 43 11 15 8 23 8 33 -3 9 -8 15 -60 19
-153 3 -77 7 -149 8 -160 2 -16 -4 -21 -30 -23 -18 -2 -40 2 -48 9 -8 6 -14 8
-14 3 0 -5 4 -15 9 -23 5 -8 7 -20 4 -28 -3 -7 -14 -13 -24 -13 -15 0 -19 7
-19 40 0 22 5 40 11 40 6 0 9 14 7 32 -2 26 -8 34 -28 37 -14 1 -37 12 -52 23
-20 13 -28 28 -28 49 0 16 -8 50 -18 76 -13 36 -16 60 -10 98 4 28 15 75 24
105 10 30 31 81 47 112 16 32 33 58 37 58 4 0 27 19 52 43 25 23 73 63 106 90
34 26 65 47 69 47 4 0 50 21 101 47 50 26 92 51 92 55 0 5 -20 8 -45 8z m147
-280 c4 0 16 -9 27 -21 11 -12 25 -43 31 -70 9 -37 9 -55 0 -76 -6 -16 -26
-62 -43 -103 -28 -64 -39 -80 -81 -107 -26 -18 -59 -33 -72 -33 -12 0 -26 5
-30 12 -4 6 3 19 15 29 18 15 25 35 33 94 5 42 7 92 3 111 -3 19 -15 43 -26
52 -10 9 -19 24 -19 33 0 10 11 20 25 23 14 4 49 18 78 31 29 13 55 24 59 25z
m-216 -130 c7 0 15 -7 18 -16 3 -9 6 -41 6 -71 0 -31 -5 -74 -12 -97 -7 -22
-25 -62 -40 -88 -16 -25 -35 -48 -42 -51 -8 -3 -17 -3 -20 0 -3 4 -6 25 -6 47
0 23 -5 70 -11 105 -10 64 -10 64 43 118 29 29 58 53 64 53z m-230 -560 c8 0
14 -4 14 -9 0 -5 -6 -14 -14 -20 -10 -8 -16 -9 -21 -1 -3 5 -3 15 0 20 3 6 13
10 21 10z m-321 -226 c7 -3 16 -13 20 -21 3 -9 1 -21 -4 -26 -7 -7 -12 -5 -16
6 -3 9 -7 24 -9 31 -3 10 0 13 9 10z"/>
</g>
</svg>
