<?xml version="1.0" standalone="no"?>
<!DOCTYPE svg PUBLIC "-//W3C//DTD SVG 20010904//EN"
 "http://www.w3.org/TR/2001/REC-SVG-20010904/DTD/svg10.dtd">
<svg version="1.0" xmlns="http://www.w3.org/2000/svg"
 width="128.000000pt" height="128.000000pt" viewBox="0 0 128.000000 128.000000"
 preserveAspectRatio="xMidYMid meet">
<metadata>
Created by potrace 1.16, written by Peter Selinger 2001-2019
</metadata>
<g transform="translate(0.000000,128.000000) scale(0.100000,-0.100000)"
fill="#000000" stroke="none">
<path d="M412 1220 c-30 0 -47 -8 -85 -43 -26 -24 -47 -51 -47 -60 0 -10 3
-17 6 -17 4 0 37 19 73 43 36 24 74 46 84 50 10 4 15 11 12 17 -3 5 -23 10
-43 10z"/>
<path d="M805 1210 c-13 0 -26 -4 -29 -9 -3 -5 -22 -12 -41 -15 -21 -4 -42
-17 -52 -32 -10 -14 -55 -71 -100 -127 -46 -56 -92 -113 -103 -127 -12 -14
-44 -53 -71 -87 -28 -35 -57 -63 -65 -63 -8 0 -14 5 -14 10 0 6 14 40 30 77
17 36 30 74 30 84 0 10 -21 47 -47 83 -27 35 -55 67 -63 71 -8 3 -20 -1 -28
-12 -8 -12 -10 -32 -6 -63 3 -25 16 -62 28 -83 21 -39 21 -39 -12 -97 -28 -52
-32 -68 -32 -135 0 -77 0 -77 -45 -129 -25 -28 -72 -82 -105 -121 -47 -54 -60
-77 -62 -105 -1 -19 -1 -46 0 -60 1 -14 9 -40 19 -58 12 -22 36 -43 68 -59 28
-14 66 -39 86 -54 20 -16 49 -29 63 -29 15 0 38 11 51 24 14 14 26 41 30 70 4
26 2 111 -4 189 -6 78 -14 161 -17 184 -5 35 -3 42 13 47 11 4 39 40 62 80 23
41 48 77 55 79 7 3 27 -2 45 -10 26 -13 37 -14 58 -4 16 8 30 8 36 2 5 -5 6
-18 3 -29 -4 -11 -19 -32 -34 -47 -15 -15 -52 -45 -83 -66 -32 -22 -61 -50
-68 -68 -7 -16 -10 -38 -7 -49 4 -11 24 -25 47 -32 40 -14 41 -14 74 23 19 20
39 37 45 37 6 0 18 -16 26 -35 7 -19 14 -47 14 -62 0 -17 19 -56 46 -97 26
-38 62 -90 81 -115 20 -25 45 -51 57 -58 11 -7 31 -12 44 -13 15 0 42 19 76
53 40 40 58 69 80 127 15 41 31 91 36 111 6 21 6 58 1 90 -5 30 -19 76 -30
102 -12 27 -21 53 -21 59 0 6 -18 31 -41 55 -35 39 -40 48 -33 76 3 17 13 42
22 55 8 12 19 21 25 19 5 -1 16 -22 24 -45 8 -24 13 -64 11 -90 -3 -41 0 -49
22 -61 14 -8 60 -32 104 -53 43 -22 101 -42 127 -45 49 -6 49 -6 49 48 0 45
-4 57 -22 69 -13 8 -60 17 -105 20 -45 4 -85 9 -88 12 -4 3 0 39 8 79 7 42 10
89 6 108 -4 18 -12 37 -19 41 -7 4 -30 13 -52 21 -40 13 -41 12 -65 -16 -13
-17 -40 -59 -59 -94 -35 -61 -37 -63 -68 -57 -17 4 -51 10 -74 13 -24 3 -46
12 -49 20 -4 9 11 30 38 54 24 21 53 47 64 58 12 11 27 32 35 48 8 15 22 33
31 40 9 7 22 33 29 58 10 35 10 52 2 71 -7 13 -23 29 -38 34 -14 6 -36 10 -49
10z m-66 -90 c10 0 12 -10 7 -41 -4 -23 -12 -49 -19 -59 -7 -9 -28 -36 -49
-59 -32 -37 -39 -41 -57 -31 -12 6 -21 18 -21 26 0 9 15 36 33 62 17 25 46 58
62 74 17 15 36 28 44 28z m-30 -375 c30 -4 60 -9 67 -12 7 -2 15 -10 17 -17 3
-7 -11 -32 -31 -55 -19 -23 -53 -60 -74 -82 -21 -22 -43 -37 -48 -34 -6 3 -10
23 -10 44 0 20 5 42 11 48 8 8 8 21 -1 47 -9 29 -9 40 1 52 10 13 24 14 68 9z
m130 -85 c13 0 27 -12 38 -32 13 -24 17 -57 18 -123 0 -73 -4 -99 -23 -140
-13 -27 -35 -62 -49 -77 -15 -16 -36 -28 -47 -28 -12 0 -40 20 -63 45 -24 24
-43 50 -43 57 0 7 30 67 66 133 36 66 70 130 75 143 5 12 17 22 28 22z m-630
-250 c5 0 13 -6 19 -13 7 -8 9 -40 5 -86 -4 -43 -11 -75 -18 -77 -7 -3 -28 3
-46 14 -19 10 -35 28 -37 40 -2 11 4 35 13 52 9 17 25 40 36 51 10 10 23 19
28 19z"/>
<path d="M80 1030 c-6 0 -13 -7 -17 -15 -3 -9 -3 -18 0 -21 3 -3 10 -3 16 1 6
3 11 13 11 21 0 8 -5 14 -10 14z"/>
</g>
</svg>
