<?xml version="1.0" standalone="no"?>
<!DOCTYPE svg PUBLIC "-//W3C//DTD SVG 20010904//EN"
 "http://www.w3.org/TR/2001/REC-SVG-20010904/DTD/svg10.dtd">
<svg version="1.0" xmlns="http://www.w3.org/2000/svg"
 width="128.000000pt" height="128.000000pt" viewBox="0 0 128.000000 128.000000"
 preserveAspectRatio="xMidYMid meet">
<metadata>
Created by potrace 1.16, written by Peter Selinger 2001-2019
</metadata>
<g transform="translate(0.000000,128.000000) scale(0.100000,-0.100000)"
fill="#000000" stroke="none">
<path d="M521 1250 c-3 0 -14 -5 -23 -10 -15 -10 -15 -15 10 -63 15 -28 32
-58 39 -65 7 -7 13 -37 13 -66 0 -29 -3 -56 -6 -59 -4 -4 -19 1 -35 10 -26 16
-30 16 -46 0 -10 -9 -28 -20 -39 -24 -18 -7 -19 -13 -12 -40 6 -25 14 -32 36
-35 15 -2 27 -9 27 -16 0 -8 -30 -23 -74 -37 -40 -13 -83 -32 -95 -43 -11 -11
-35 -27 -53 -36 -18 -9 -47 -16 -65 -16 -18 0 -43 -3 -55 -6 -15 -4 -23 -14
-23 -29 0 -12 6 -28 14 -34 8 -7 30 -14 48 -18 23 -3 39 0 49 9 8 8 39 23 69
33 30 10 73 24 95 32 22 8 49 23 61 34 11 10 36 21 55 23 19 2 40 -1 47 -6 6
-6 12 -21 12 -33 0 -13 -11 -37 -25 -53 -14 -17 -25 -33 -25 -37 0 -5 -20 -30
-45 -56 -29 -32 -45 -58 -46 -76 -1 -15 -1 -34 0 -41 2 -9 -6 -11 -23 -6 -20
5 -27 2 -31 -12 -4 -11 -11 -30 -18 -43 -7 -13 -30 -34 -52 -46 -22 -13 -46
-35 -54 -51 -7 -16 -23 -39 -34 -51 -17 -20 -19 -27 -8 -49 8 -19 9 -30 0 -40
-6 -7 -8 -18 -4 -24 3 -5 17 -10 30 -10 14 0 26 -7 29 -17 3 -10 8 -39 12 -65
3 -26 12 -53 20 -59 8 -6 21 -9 29 -5 8 3 15 14 15 24 0 11 7 26 16 33 9 7 33
21 53 29 30 14 42 15 76 4 22 -6 60 -24 85 -38 25 -14 53 -26 64 -26 10 0 36
5 57 12 24 7 39 17 39 27 0 9 -15 25 -33 36 -17 10 -40 23 -50 27 -10 4 -33
20 -52 35 -19 16 -35 36 -35 45 0 10 12 25 28 35 15 10 37 28 49 40 12 13 33
23 46 23 14 0 30 7 37 15 7 8 18 15 26 15 7 0 30 -12 51 -26 21 -14 41 -31 45
-37 4 -7 5 -21 1 -32 -3 -11 -23 -38 -43 -61 -21 -23 -41 -51 -45 -63 -4 -13
-5 -24 -3 -25 1 -2 20 -1 40 1 31 4 43 14 83 69 38 52 53 64 75 64 22 0 36
-12 69 -55 29 -38 49 -55 64 -55 13 0 28 5 35 12 7 7 12 21 12 33 0 11 -17 37
-38 58 -20 21 -55 53 -76 72 -33 29 -37 36 -27 49 9 10 13 46 12 100 0 53 -6
99 -17 125 -13 34 -14 47 -5 67 6 14 11 48 11 75 0 43 -5 55 -29 80 -28 27
-34 29 -98 26 -62 -2 -68 -5 -71 -25 -2 -14 -10 -22 -23 -22 -11 0 -22 7 -25
15 -3 8 -1 30 6 50 8 23 19 36 33 39 12 2 39 4 59 3 27 -1 45 6 62 22 25 24
25 24 68 -1 35 -20 53 -23 101 -20 48 3 60 8 74 29 12 18 14 29 6 42 -5 9 -28
20 -49 24 -21 4 -70 7 -108 7 -40 -1 -81 -7 -98 -16 -23 -12 -33 -13 -44 -3
-8 6 -14 26 -14 43 0 21 10 40 29 59 16 16 34 48 40 74 7 24 9 53 6 62 -3 10
-17 23 -31 29 -14 7 -38 12 -55 12 -16 0 -32 -6 -35 -14 -3 -8 -1 -31 5 -51 8
-29 6 -47 -10 -93 -14 -38 -19 -71 -15 -98 4 -34 1 -45 -17 -61 -13 -13 -43
-23 -74 -26 -45 -5 -54 -3 -63 13 -6 11 -8 31 -4 45 3 14 14 30 24 35 10 6 30
10 44 10 15 0 30 8 36 19 5 11 10 29 10 40 0 14 -6 21 -20 21 -11 0 -29 -6
-40 -12 -15 -9 -25 -10 -37 -2 -9 6 -20 17 -24 25 -5 8 -18 37 -30 64 -12 28
-28 58 -37 68 -8 9 -18 17 -21 17z m318 -470 c23 0 48 -8 62 -19 21 -17 22
-21 9 -50 -12 -29 -11 -35 7 -60 20 -26 20 -28 2 -49 -15 -19 -17 -34 -12 -92
4 -49 2 -74 -7 -85 -7 -9 -29 -15 -51 -15 -28 0 -41 5 -49 19 -5 11 -10 32
-10 46 0 15 6 39 14 53 7 15 20 40 27 55 11 24 11 30 -1 37 -8 6 -20 10 -26
10 -6 0 -32 -9 -57 -20 -26 -11 -49 -25 -53 -31 -3 -6 2 -16 11 -23 15 -11 16
-22 10 -75 -5 -41 -14 -70 -26 -82 -10 -10 -26 -19 -34 -19 -8 0 -19 9 -25 19
-5 11 -10 27 -10 35 0 9 13 44 30 79 29 62 29 62 -11 99 -23 21 -39 43 -37 50
3 7 29 25 59 40 30 15 65 28 79 28 14 0 30 4 36 8 6 4 13 15 17 25 5 12 17 17
46 17z m-312 -290 c7 0 16 -17 21 -37 5 -21 8 -63 7 -93 -2 -43 -7 -58 -25
-70 -12 -8 -39 -30 -60 -47 -20 -18 -42 -33 -47 -33 -6 0 -18 -9 -28 -20 -10
-11 -31 -20 -46 -20 -15 0 -31 4 -34 10 -3 5 8 36 25 67 17 32 39 65 49 73 10
8 35 44 56 80 21 36 45 71 53 78 9 6 22 12 29 12z"/>
</g>
</svg>
