<?xml version="1.0" standalone="no"?>
<!DOCTYPE svg PUBLIC "-//W3C//DTD SVG 20010904//EN"
 "http://www.w3.org/TR/2001/REC-SVG-20010904/DTD/svg10.dtd">
<svg version="1.0" xmlns="http://www.w3.org/2000/svg"
 width="128.000000pt" height="128.000000pt" viewBox="0 0 128.000000 128.000000"
 preserveAspectRatio="xMidYMid meet">
<metadata>
Created by potrace 1.16, written by Peter Selinger 2001-2019
</metadata>
<g transform="translate(0.000000,128.000000) scale(0.100000,-0.100000)"
fill="#000000" stroke="none">
<path d="M403 1220 c-5 0 -15 -5 -23 -10 -11 -7 -12 -14 -5 -26 7 -11 8 -43 3
-87 -4 -39 -12 -75 -18 -81 -5 -5 -10 -20 -10 -32 0 -12 -7 -27 -15 -34 -8 -7
-15 -16 -15 -21 0 -5 16 -9 35 -9 22 0 38 -6 41 -15 4 -8 -7 -27 -24 -45 -17
-16 -35 -30 -41 -30 -6 0 -11 8 -11 18 0 10 -10 28 -23 40 -13 12 -30 22 -38
22 -9 0 -28 -13 -44 -30 -16 -16 -39 -30 -51 -30 -14 0 -31 -12 -43 -29 -14
-19 -21 -45 -21 -73 0 -32 6 -50 25 -71 14 -15 30 -27 35 -27 5 0 12 5 16 11
3 6 20 17 36 23 17 7 40 30 52 52 12 21 28 40 37 42 8 1 25 -11 37 -28 18 -23
20 -34 12 -49 -7 -13 -7 -28 0 -46 5 -14 17 -28 25 -31 9 -4 23 4 36 20 11 14
44 41 72 59 29 19 64 41 79 50 15 10 31 29 34 44 6 21 2 31 -20 50 -15 13 -34
23 -42 23 -8 0 -29 7 -47 16 -18 9 -35 22 -39 28 -4 6 -8 21 -8 33 0 12 18 43
40 68 31 36 40 54 40 84 0 29 -7 43 -32 67 -18 16 -43 35 -55 42 -13 6 -26 12
-30 12z m-127 -340 c6 0 14 -10 17 -22 2 -13 8 -31 12 -41 7 -17 6 -17 -24 0
-17 10 -31 25 -31 34 0 9 3 19 7 22 3 4 12 7 19 7z"/>
<path d="M1015 788 c-31 2 -46 -3 -62 -20 -19 -18 -26 -20 -45 -11 -13 6 -31
14 -41 17 -12 4 -27 -3 -44 -20 -23 -23 -31 -25 -73 -20 -41 5 -49 3 -68 -19
-12 -14 -30 -25 -39 -25 -10 0 -32 -13 -50 -28 -17 -15 -45 -54 -62 -86 -17
-32 -31 -66 -31 -76 0 -9 -9 -25 -19 -34 -18 -17 -22 -17 -42 -2 -13 8 -32 13
-44 10 -18 -4 -27 2 -44 31 -20 34 -21 39 -6 61 8 13 15 32 15 43 0 10 -8 22
-17 25 -9 4 -20 1 -25 -6 -4 -7 -8 -19 -8 -26 0 -8 -8 -25 -19 -38 -10 -13
-22 -40 -26 -60 -3 -20 -13 -43 -21 -51 -8 -8 -14 -19 -14 -24 0 -5 14 -9 30
-9 17 0 45 -7 62 -16 26 -13 29 -20 24 -45 -3 -16 -21 -62 -39 -102 -26 -57
-34 -87 -35 -143 -3 -72 -3 -72 38 -93 22 -11 49 -21 60 -21 15 0 25 19 50 98
17 53 35 108 42 122 6 14 14 34 18 45 4 11 13 34 20 50 6 17 18 48 25 70 7 22
16 56 20 75 4 19 15 49 23 67 9 18 39 48 69 68 29 19 63 35 77 35 13 0 29 7
36 15 9 11 22 14 41 10 20 -5 38 2 72 26 39 27 50 30 85 24 22 -3 48 -12 58
-20 15 -11 16 -16 6 -36 -7 -13 -20 -37 -30 -54 -11 -18 -42 -42 -76 -59 -38
-19 -66 -42 -85 -70 -15 -23 -35 -60 -44 -84 -9 -23 -17 -60 -17 -81 0 -21 7
-55 15 -74 8 -20 15 -41 15 -47 0 -6 -24 -26 -54 -45 -29 -19 -78 -57 -107
-84 -54 -50 -54 -50 -2 -51 36 0 64 7 90 22 21 12 52 28 70 37 17 9 41 28 52
43 12 14 36 30 54 33 17 4 41 15 52 25 11 9 33 20 49 24 26 6 28 10 23 43 -4
20 -18 52 -32 72 -14 20 -36 49 -48 64 -22 29 -22 29 24 71 25 23 51 51 58 64
8 15 21 22 42 22 17 0 32 6 35 15 4 8 17 15 29 15 15 0 26 8 30 20 4 12 -2 30
-16 50 -13 16 -26 30 -30 30 -3 0 -9 14 -13 32 -3 17 -12 39 -20 47 -8 9 -16
25 -18 36 -2 15 -12 20 -43 23z"/>
</g>
</svg>
