<?xml version="1.0" standalone="no"?>
<!DOCTYPE svg PUBLIC "-//W3C//DTD SVG 20010904//EN"
 "http://www.w3.org/TR/2001/REC-SVG-20010904/DTD/svg10.dtd">
<svg version="1.0" xmlns="http://www.w3.org/2000/svg"
 width="128.000000pt" height="128.000000pt" viewBox="0 0 128.000000 128.000000"
 preserveAspectRatio="xMidYMid meet">
<metadata>
Created by potrace 1.16, written by Peter Selinger 2001-2019
</metadata>
<g transform="translate(0.000000,128.000000) scale(0.100000,-0.100000)"
fill="#000000" stroke="none">
<path d="M821 1250 c-42 -1 -73 -6 -85 -15 -11 -8 -25 -15 -32 -15 -7 0 -33
-14 -58 -31 -25 -16 -48 -34 -51 -40 -4 -5 -15 -9 -27 -9 -11 0 -32 -6 -46
-14 -15 -8 -67 -18 -117 -23 -73 -6 -90 -11 -93 -25 -2 -12 12 -25 49 -43 29
-14 61 -25 71 -25 11 0 36 11 56 25 20 14 42 25 49 25 6 0 19 -7 27 -16 12
-11 16 -36 16 -93 0 -43 -4 -101 -9 -128 -6 -30 -27 -75 -50 -111 -23 -34 -41
-64 -41 -67 0 -4 -19 -28 -41 -53 -23 -26 -46 -58 -52 -72 -6 -14 -22 -37 -35
-51 -13 -15 -28 -44 -33 -65 -4 -22 -9 -60 -9 -86 0 -40 3 -48 18 -48 11 0 38
14 60 30 23 17 47 39 54 50 9 14 24 20 49 20 30 0 43 -7 73 -40 20 -22 36 -47
36 -56 0 -8 12 -41 28 -72 18 -39 29 -79 32 -127 5 -67 6 -70 32 -73 22 -3 38
8 87 59 33 35 68 80 77 102 14 31 16 46 7 75 -6 20 -13 46 -17 57 -7 18 -6 18
4 3 6 -10 17 -18 25 -18 8 0 17 5 21 12 4 7 9 44 11 82 1 39 7 134 13 211 6
77 15 167 20 200 6 33 13 85 16 115 3 30 8 100 10 155 6 100 6 100 -37 148
-43 47 -43 47 -108 47z m-36 -96 c22 -3 43 -8 47 -11 4 -2 10 -20 14 -41 4
-20 2 -63 -5 -96 -7 -32 -14 -100 -17 -150 -2 -50 -8 -104 -14 -121 -5 -16
-12 -52 -16 -80 -3 -27 -7 -80 -8 -117 0 -38 -6 -72 -13 -79 -8 -8 -13 -38
-13 -71 0 -32 -4 -66 -9 -76 -5 -9 -12 -25 -15 -34 -3 -10 -10 -18 -16 -18 -5
0 -42 32 -80 71 -53 54 -70 79 -70 100 0 15 11 40 23 56 13 15 29 44 36 63 7
19 16 58 21 85 5 28 14 68 20 90 6 22 16 63 22 90 6 28 11 80 12 116 1 51 -3
72 -16 86 -10 11 -18 34 -18 51 0 18 4 32 9 32 5 0 22 14 38 30 25 27 32 30
68 24z m-128 -304 c11 0 11 -5 3 -20 -6 -11 -15 -20 -20 -20 -6 0 -10 6 -10
13 0 8 3 17 7 20 3 4 12 7 20 7z m-55 -110 c4 0 8 -7 8 -15 0 -8 -4 -15 -9
-15 -6 0 -12 4 -15 9 -3 4 -3 11 1 15 3 3 10 6 15 6z m-36 -102 c8 -8 12 -22
9 -30 -4 -9 -14 -19 -22 -23 -9 -3 -21 -1 -26 4 -7 7 -4 19 8 37 15 23 19 24
31 12z m-63 -60 c6 -3 14 -18 15 -33 2 -16 -2 -47 -9 -68 -8 -25 -18 -37 -28
-35 -12 3 -16 14 -14 43 1 22 6 53 12 68 6 16 17 27 24 25z m41 -48 c2 0 9 -7
16 -15 10 -12 10 -15 -4 -15 -9 0 -16 7 -16 15 0 8 2 15 4 15z m319 -152 c6
-3 12 -11 12 -18 0 -7 -6 -15 -12 -17 -8 -3 -13 4 -13 17 0 13 5 20 13 18z
m-88 -198 c8 0 15 -9 15 -20 0 -11 -7 -20 -15 -20 -8 0 -15 9 -15 20 0 11 7
20 15 20z"/>
</g>
</svg>
