<?xml version="1.0" standalone="no"?>
<!DOCTYPE svg PUBLIC "-//W3C//DTD SVG 20010904//EN"
 "http://www.w3.org/TR/2001/REC-SVG-20010904/DTD/svg10.dtd">
<svg version="1.0" xmlns="http://www.w3.org/2000/svg"
 width="128.000000pt" height="128.000000pt" viewBox="0 0 128.000000 128.000000"
 preserveAspectRatio="xMidYMid meet">
<metadata>
Created by potrace 1.16, written by Peter Selinger 2001-2019
</metadata>
<g transform="translate(0.000000,128.000000) scale(0.100000,-0.100000)"
fill="#000000" stroke="none">
<path d="M432 1260 c-10 0 -28 -9 -39 -20 -12 -10 -24 -28 -28 -39 -3 -11 -15
-23 -26 -26 -10 -4 -35 -21 -54 -40 -20 -18 -55 -42 -79 -54 -24 -11 -46 -27
-50 -36 -3 -9 -4 -21 0 -26 3 -5 14 -9 26 -9 11 0 48 16 81 37 55 33 61 35 73
19 6 -9 15 -47 18 -84 3 -37 4 -111 3 -165 -2 -97 -2 -97 -62 -127 -33 -16
-66 -30 -74 -30 -8 0 -31 -5 -50 -11 -20 -6 -55 -20 -78 -30 -24 -10 -43 -25
-43 -34 0 -8 9 -19 19 -25 11 -5 31 -10 44 -10 13 0 58 16 100 35 42 19 83 35
91 35 9 0 16 -6 16 -14 0 -8 -21 -42 -46 -75 -25 -34 -58 -68 -73 -75 -14 -8
-35 -23 -45 -35 -11 -12 -24 -21 -29 -21 -5 0 -34 -21 -64 -46 -38 -33 -51
-50 -44 -57 8 -8 15 -7 23 1 7 7 23 12 37 12 15 0 41 13 60 28 19 15 60 51 90
80 31 29 62 51 71 49 11 -2 15 -16 14 -63 0 -33 -9 -95 -19 -138 -10 -43 -24
-80 -31 -83 -7 -3 -28 7 -47 21 -19 14 -39 26 -45 26 -7 0 -12 -5 -12 -11 0
-5 12 -31 26 -56 14 -26 46 -73 70 -105 27 -34 53 -58 64 -58 14 0 21 11 28
47 6 25 8 52 5 60 -3 7 0 26 6 41 6 15 13 54 16 87 2 33 9 79 15 102 5 24 9
58 8 75 -2 25 1 32 12 29 8 -1 38 -9 65 -16 30 -8 54 -10 59 -4 6 5 5 17 -3
31 -7 13 -33 39 -59 58 -26 19 -50 39 -54 45 -4 5 -7 34 -6 63 0 40 5 55 17
58 9 3 29 12 44 20 16 7 34 14 41 14 7 0 35 11 61 26 26 14 54 22 62 19 12 -4
14 -19 9 -73 -4 -37 -8 -89 -10 -117 -2 -27 -12 -70 -21 -95 -9 -25 -23 -66
-30 -93 -8 -26 -27 -71 -42 -99 -15 -29 -47 -81 -70 -116 -24 -35 -43 -68 -43
-73 0 -6 9 -7 21 -4 12 4 63 50 113 102 50 53 101 115 112 138 13 25 20 52 17
68 -3 15 2 43 11 62 9 19 21 35 26 35 4 0 76 -67 159 -150 83 -82 156 -150
163 -150 7 0 19 -9 26 -20 7 -11 22 -20 33 -20 12 0 38 9 58 19 20 11 44 22
54 25 9 3 17 14 17 25 0 11 -9 23 -21 26 -11 4 -23 5 -26 2 -3 -3 -18 7 -35
21 -16 15 -55 41 -87 57 -31 17 -70 40 -86 53 -17 13 -62 55 -102 93 -39 38
-78 69 -86 69 -9 0 -30 18 -47 40 -32 40 -32 41 -14 62 11 11 34 27 53 35 18
8 51 25 72 39 21 13 47 41 58 61 11 21 33 53 50 71 17 18 31 38 31 44 0 5 10
23 23 39 12 16 33 43 46 59 15 20 21 36 15 48 -4 9 -6 23 -5 30 1 8 -5 23 -15
33 -9 10 -26 19 -36 19 -10 0 -41 -16 -69 -35 -28 -19 -65 -39 -82 -44 -18 -5
-50 -17 -72 -25 -22 -8 -54 -15 -72 -16 -19 0 -44 -10 -63 -27 -28 -23 -32
-31 -27 -64 3 -24 0 -45 -10 -59 -8 -12 -33 -35 -56 -51 -22 -16 -50 -29 -62
-29 -12 0 -34 -9 -49 -21 -14 -11 -30 -17 -36 -14 -5 3 -10 22 -10 40 0 30 5
37 38 54 22 11 64 44 95 73 32 30 57 58 57 63 0 6 -6 18 -13 27 -7 9 -29 19
-48 23 -34 6 -36 5 -53 -32 -9 -22 -26 -44 -36 -51 -12 -7 -21 -8 -25 -2 -4 6
-3 19 0 31 4 11 4 38 0 60 -6 33 -13 43 -36 51 -16 5 -29 14 -29 19 0 5 19 18
43 28 23 10 51 28 62 40 16 18 17 25 7 39 -7 9 -16 27 -22 40 -5 12 -18 22
-28 22z m496 -273 c6 -5 12 -18 12 -27 0 -10 -4 -20 -8 -22 -5 -1 -22 -33 -39
-69 -27 -58 -36 -69 -83 -93 -28 -15 -61 -26 -73 -24 -12 2 -23 12 -25 22 -2
10 -1 47 3 82 6 58 9 63 36 73 16 5 32 17 35 26 3 8 18 15 33 16 14 0 42 6 61
13 23 9 39 10 48 3z"/>
<path d="M247 920 c-7 0 -19 -5 -27 -10 -8 -5 -26 -10 -40 -10 -15 0 -31 -5
-38 -12 -7 -7 -12 -18 -12 -25 0 -7 19 -22 43 -32 23 -11 49 -21 57 -22 8 -2
25 0 37 5 12 4 25 16 28 27 4 12 -2 30 -15 49 -12 17 -27 30 -33 30z"/>
</g>
</svg>
