<?xml version="1.0" standalone="no"?>
<!DOCTYPE svg PUBLIC "-//W3C//DTD SVG 20010904//EN"
 "http://www.w3.org/TR/2001/REC-SVG-20010904/DTD/svg10.dtd">
<svg version="1.0" xmlns="http://www.w3.org/2000/svg"
 width="128.000000pt" height="128.000000pt" viewBox="0 0 128.000000 128.000000"
 preserveAspectRatio="xMidYMid meet">
<metadata>
Created by potrace 1.16, written by Peter Selinger 2001-2019
</metadata>
<g transform="translate(0.000000,128.000000) scale(0.100000,-0.100000)"
fill="#000000" stroke="none">
<path d="M594 1247 c-19 17 -37 27 -40 22 -3 -5 -36 -18 -75 -30 -38 -12 -75
-19 -83 -16 -7 3 -19 1 -27 -4 -12 -7 -12 -11 2 -24 9 -9 49 -27 90 -39 57
-17 74 -27 74 -41 0 -12 -13 -23 -40 -32 -22 -8 -73 -14 -112 -14 -52 0 -73
-4 -73 -13 0 -7 24 -29 54 -50 44 -30 59 -36 82 -30 16 4 46 15 67 26 21 11
53 18 70 16 32 -3 32 -3 31 -75 -1 -43 -8 -84 -18 -104 -9 -17 -16 -36 -16
-41 0 -4 7 -8 15 -8 8 0 19 -9 25 -19 8 -16 6 -23 -11 -34 -14 -11 -20 -24
-18 -44 2 -16 -4 -39 -14 -53 -9 -13 -17 -28 -17 -32 0 -5 4 -8 9 -8 4 0 30
16 56 37 46 34 49 35 62 18 7 -11 11 -26 9 -34 -3 -9 -7 -115 -10 -236 -4
-121 -3 -256 1 -300 7 -70 11 -80 29 -83 13 -2 25 6 33 22 9 17 11 39 7 68 -4
24 -11 66 -15 93 -3 28 -10 56 -15 63 -4 7 -2 88 5 180 7 92 13 191 14 221 0
54 0 54 49 77 28 13 54 20 59 17 5 -3 7 -19 4 -37 -2 -17 -12 -67 -20 -111 -9
-44 -20 -111 -24 -150 -8 -67 -9 -70 -35 -73 -16 -2 -28 -7 -28 -12 0 -5 9
-29 20 -55 16 -37 24 -46 41 -43 16 2 29 23 55 88 18 47 34 96 34 110 0 14 9
68 20 120 11 52 33 121 49 154 24 48 27 64 19 85 -5 14 -15 29 -21 33 -7 4
-28 8 -48 8 -20 0 -42 -7 -49 -15 -7 -8 -49 -39 -94 -69 -45 -29 -90 -62 -100
-71 -13 -13 -20 -15 -28 -7 -8 8 -8 22 0 49 6 21 20 98 32 172 11 74 20 140
20 147 0 7 -12 27 -27 44 -23 28 -31 31 -60 25 -18 -3 -38 -3 -44 0 -5 4 1 15
16 27 14 11 29 27 34 37 7 13 2 24 -25 48z"/>
<path d="M495 940 c-11 -1 -31 -7 -45 -14 -14 -8 -49 -17 -77 -21 -29 -4 -56
-11 -59 -17 -4 -6 6 -20 21 -32 28 -23 28 -23 11 -112 -10 -49 -21 -105 -26
-124 -5 -19 -15 -64 -22 -100 -7 -37 -13 -128 -12 -210 0 -80 3 -157 7 -172 4
-15 17 -30 29 -34 14 -4 25 -1 33 10 8 11 10 42 6 98 -3 46 -5 118 -4 161 1
42 2 89 3 105 0 15 1 47 1 72 -1 25 5 68 12 95 12 49 13 50 47 48 19 -2 58 -5
85 -9 48 -5 50 -4 63 25 8 17 11 35 7 41 -4 7 -13 7 -26 -1 -14 -7 -30 -7 -57
3 -20 7 -49 21 -64 31 -16 10 -28 28 -28 39 0 19 4 20 59 15 58 -6 61 -5 80
22 12 16 21 34 21 39 0 6 -10 18 -22 26 -12 9 -32 16 -43 16z"/>
<path d="M457 570 c-14 0 -30 -7 -38 -16 -10 -12 -10 -20 -1 -32 6 -10 26 -41
43 -71 18 -29 37 -72 44 -94 6 -23 19 -46 28 -51 13 -8 20 -6 31 9 9 11 16 34
16 51 0 16 -4 34 -9 40 -5 5 -16 33 -26 63 -10 30 -28 65 -41 78 -13 13 -34
23 -47 23z"/>
<path d="M969 300 c-5 0 -9 -7 -9 -15 0 -9 6 -12 15 -9 8 4 12 10 9 15 -3 5
-9 9 -15 9z"/>
<path d="M871 155 c-5 3 -12 1 -16 -5 -3 -5 -3 -14 0 -20 3 -5 10 -10 16 -10
5 0 9 6 9 14 0 8 -4 17 -9 21z"/>
<path d="M974 118 c-11 2 -32 -7 -47 -18 -15 -12 -34 -38 -42 -57 -8 -20 -15
-37 -15 -39 0 -2 29 -4 65 -4 66 0 66 0 63 58 -3 49 -6 57 -24 60z"/>
</g>
</svg>
