<?xml version="1.0" standalone="no"?>
<!DOCTYPE svg PUBLIC "-//W3C//DTD SVG 20010904//EN"
 "http://www.w3.org/TR/2001/REC-SVG-20010904/DTD/svg10.dtd">
<svg version="1.0" xmlns="http://www.w3.org/2000/svg"
 width="128.000000pt" height="128.000000pt" viewBox="0 0 128.000000 128.000000"
 preserveAspectRatio="xMidYMid meet">
<metadata>
Created by potrace 1.16, written by Peter Selinger 2001-2019
</metadata>
<g transform="translate(0.000000,128.000000) scale(0.100000,-0.100000)"
fill="#000000" stroke="none">
<path d="M370 1280 c-29 0 -40 -4 -40 -15 0 -8 11 -17 25 -21 15 -4 32 -1 40
6 8 7 15 16 15 21 0 5 -18 9 -40 9z"/>
<path d="M550 1280 c-40 0 -60 -4 -60 -12 0 -7 14 -26 30 -43 17 -18 28 -38
25 -46 -3 -8 -31 -32 -61 -54 -31 -22 -65 -49 -75 -59 -10 -10 -16 -23 -13
-28 3 -4 15 -8 27 -8 11 0 35 13 52 28 16 16 62 40 100 54 39 15 78 29 88 32
9 3 23 17 29 32 11 24 10 29 -22 56 -19 16 -40 33 -47 38 -7 6 -39 10 -73 10z"/>
<path d="M735 1097 c-22 1 -51 -5 -65 -13 -14 -7 -32 -14 -41 -14 -8 0 -34 -9
-56 -20 -23 -11 -45 -25 -49 -31 -3 -6 0 -15 7 -20 8 -5 30 -8 49 -7 26 2 35
-1 38 -15 2 -11 -17 -36 -54 -70 -31 -28 -65 -55 -75 -59 -11 -4 -19 -11 -19
-16 0 -4 -12 -15 -27 -24 -16 -9 -46 -33 -68 -53 -22 -20 -52 -43 -67 -51 -16
-8 -28 -17 -28 -20 0 -3 7 -21 16 -39 8 -18 21 -36 28 -38 7 -3 37 10 66 29
30 19 57 34 61 34 3 0 29 -18 58 -41 34 -27 51 -48 51 -63 0 -13 -9 -31 -20
-41 -11 -10 -20 -22 -20 -27 0 -5 11 -13 25 -18 14 -5 25 -15 25 -23 0 -7 -28
-40 -63 -75 -41 -40 -73 -64 -95 -68 -18 -4 -37 -15 -43 -26 -7 -14 -7 -23 1
-33 7 -8 30 -18 53 -23 42 -8 42 -8 39 -60 -3 -40 0 -53 12 -58 9 -3 16 -13
16 -21 0 -12 8 -15 39 -10 21 2 53 11 72 20 19 8 48 20 65 26 17 7 48 28 68
47 20 18 36 41 36 49 0 9 9 15 25 15 15 0 29 -8 36 -21 8 -16 8 -28 0 -45 -6
-13 -41 -44 -78 -68 -38 -24 -86 -58 -108 -76 -40 -32 -40 -32 36 -28 72 3 79
6 157 58 57 38 85 63 92 84 5 16 10 41 10 55 -1 14 -6 36 -13 48 -7 12 -31 38
-53 57 -34 29 -42 43 -48 82 -3 26 -14 56 -23 66 -11 12 -30 18 -58 18 -23 0
-44 3 -48 6 -3 3 4 24 15 46 15 29 18 42 9 51 -6 6 -11 14 -11 18 0 5 29 22
65 39 36 17 88 34 117 37 35 4 60 14 75 29 13 13 23 28 23 34 0 6 -18 28 -41
48 -23 20 -45 45 -50 54 -7 12 -5 27 6 47 8 17 15 41 15 54 0 13 -8 31 -17 39
-10 9 -28 19 -39 22 -16 5 -30 -2 -57 -29 -20 -20 -37 -39 -39 -43 -2 -4 -35
-35 -75 -70 -39 -34 -88 -85 -109 -113 -27 -34 -45 -49 -58 -47 -10 2 -24 11
-30 20 -9 15 5 32 89 110 55 51 124 117 154 147 52 51 54 54 45 90 -8 33 -12
36 -49 38z m30 -227 c3 0 14 -18 25 -40 11 -21 20 -53 20 -69 0 -25 -5 -31
-37 -41 -21 -7 -42 -16 -47 -21 -6 -5 -20 -9 -33 -9 -13 0 -23 6 -23 13 0 8
13 34 30 58 16 24 30 49 30 54 0 6 7 21 16 33 8 12 17 22 19 22z m-108 -470
c2 0 18 -7 34 -16 19 -9 29 -21 27 -32 -2 -12 -15 -18 -44 -20 -29 -2 -45 2
-55 14 -12 14 -10 19 10 35 13 11 25 19 28 19z m-20 -140 c7 0 16 -7 19 -15 4
-8 1 -22 -6 -29 -6 -8 -30 -24 -52 -36 -22 -12 -47 -19 -54 -16 -8 3 -14 10
-14 15 0 6 21 26 46 46 26 19 53 35 61 35z"/>
</g>
</svg>
