<?xml version="1.0" standalone="no"?>
<!DOCTYPE svg PUBLIC "-//W3C//DTD SVG 20010904//EN"
 "http://www.w3.org/TR/2001/REC-SVG-20010904/DTD/svg10.dtd">
<svg version="1.0" xmlns="http://www.w3.org/2000/svg"
 width="56.000000pt" height="56.000000pt" viewBox="0 0 56.000000 56.000000"
 preserveAspectRatio="xMidYMid meet">
<metadata>
Created by potrace 1.16, written by Peter Selinger 2001-2019
</metadata>
<g transform="translate(0.000000,56.000000) scale(0.100000,-0.100000)"
fill="#000000" stroke="none">
<path d="M185 560 c-14 0 -25 -3 -25 -6 0 -4 13 -21 30 -40 16 -18 32 -49 36
-69 4 -22 2 -41 -6 -50 -7 -8 -20 -15 -29 -15 -10 0 -27 -10 -39 -23 -12 -13
-22 -32 -22 -43 0 -12 18 -30 48 -49 47 -30 47 -30 53 -95 3 -36 13 -81 22
-101 13 -30 23 -37 54 -43 21 -3 44 -6 51 -6 7 0 24 12 37 26 14 15 25 37 25
48 0 12 -14 41 -31 64 -28 38 -30 47 -24 88 3 25 3 63 0 85 -6 33 -14 43 -51
65 -36 21 -44 31 -44 54 0 16 -5 41 -10 55 -6 15 -19 29 -30 32 -11 3 -20 9
-20 14 0 5 -11 9 -25 9z m22 -210 c7 0 16 -6 19 -14 3 -8 4 -27 2 -43 -3 -28
-3 -28 -31 0 -23 23 -26 31 -17 42 7 8 19 15 27 15z m80 -10 c3 0 15 -7 25
-17 13 -12 18 -30 18 -70 0 -37 -4 -53 -13 -53 -7 0 -18 5 -25 12 -7 7 -12 38
-12 70 0 32 3 58 7 58z m21 -158 c6 -9 12 -23 12 -33 0 -9 -7 -22 -15 -29 -8
-6 -19 -9 -25 -5 -5 3 -10 21 -10 40 0 18 6 35 13 38 6 3 18 -2 25 -11z"/>
</g>
</svg>
