<?xml version="1.0" standalone="no"?>
<!DOCTYPE svg PUBLIC "-//W3C//DTD SVG 20010904//EN"
 "http://www.w3.org/TR/2001/REC-SVG-20010904/DTD/svg10.dtd">
<svg version="1.0" xmlns="http://www.w3.org/2000/svg"
 width="56.000000pt" height="56.000000pt" viewBox="0 0 56.000000 56.000000"
 preserveAspectRatio="xMidYMid meet">
<metadata>
Created by potrace 1.16, written by Peter Selinger 2001-2019
</metadata>
<g transform="translate(0.000000,56.000000) scale(0.100000,-0.100000)"
fill="#000000" stroke="none">
<path d="M168 560 c-10 0 -18 -2 -18 -5 0 -2 9 -19 20 -37 11 -18 20 -47 20
-63 0 -19 -11 -44 -29 -65 -15 -19 -34 -52 -42 -74 -14 -39 -14 -39 35 -81 42
-37 47 -47 42 -71 -3 -16 0 -56 7 -89 10 -51 16 -61 39 -69 20 -7 37 -5 68 9
23 10 57 37 76 59 29 34 34 47 34 93 0 29 -5 74 -12 100 -6 27 -22 62 -34 78
-12 17 -42 41 -67 54 -37 19 -46 29 -50 59 -4 21 -20 49 -39 69 -17 18 -40 33
-50 33z m95 -170 c7 0 25 -12 39 -27 14 -16 33 -43 43 -62 10 -21 13 -37 7
-43 -5 -5 -29 -8 -53 -6 -44 3 -44 3 -47 71 -2 51 0 67 11 67z m-66 -37 c8 -3
12 -12 9 -20 -3 -8 -6 -21 -6 -29 0 -8 -6 -14 -14 -14 -7 0 -19 7 -26 15 -10
13 -10 19 5 35 9 10 23 16 32 13z m123 -159 c14 -3 28 -10 31 -16 4 -6 2 -25
-3 -42 -6 -17 -22 -41 -37 -53 -14 -13 -31 -23 -37 -23 -6 0 -16 12 -23 26 -6
15 -9 41 -5 61 4 22 14 38 28 43 11 5 32 7 46 4z"/>
</g>
</svg>
