<?xml version="1.0" standalone="no"?>
<!DOCTYPE svg PUBLIC "-//W3C//DTD SVG 20010904//EN"
 "http://www.w3.org/TR/2001/REC-SVG-20010904/DTD/svg10.dtd">
<svg version="1.0" xmlns="http://www.w3.org/2000/svg"
 width="56.000000pt" height="56.000000pt" viewBox="0 0 56.000000 56.000000"
 preserveAspectRatio="xMidYMid meet">
<metadata>
Created by potrace 1.16, written by Peter Selinger 2001-2019
</metadata>
<g transform="translate(0.000000,56.000000) scale(0.100000,-0.100000)"
fill="#000000" stroke="none">
<path d="M196 560 c-3 0 -6 -4 -6 -10 0 -5 -13 -10 -29 -10 -16 0 -36 -3 -45
-6 -9 -3 -16 -12 -16 -20 0 -7 12 -16 28 -20 15 -3 37 -9 49 -14 21 -9 22 -11
9 -42 -8 -18 -22 -34 -33 -36 -10 -2 -36 -16 -58 -31 -30 -21 -39 -33 -38 -52
1 -13 3 -81 3 -151 1 -104 4 -128 16 -128 8 0 24 -10 36 -22 19 -19 22 -20 33
-5 7 10 17 17 24 17 6 0 11 -7 11 -15 0 -10 9 -15 28 -14 27 0 27 1 5 11 -13
6 -23 17 -23 24 0 7 -8 29 -17 49 -16 34 -16 36 6 73 12 20 41 74 63 120 34
68 45 82 62 80 11 -2 31 -18 43 -37 14 -20 23 -49 23 -71 0 -20 -7 -59 -16
-86 -9 -27 -23 -56 -30 -65 -8 -8 -14 -24 -14 -35 0 -11 -7 -30 -16 -42 -15
-22 -15 -22 28 -22 43 1 43 1 71 83 16 45 34 102 41 127 9 32 18 45 32 46 10
1 23 2 28 3 5 1 1 10 -9 21 -10 11 -22 20 -27 20 -5 0 -19 10 -31 21 -12 12
-39 34 -60 50 -31 22 -43 26 -62 19 -17 -6 -25 -5 -28 4 -3 8 -9 35 -13 61 -4
32 -16 58 -34 77 -15 15 -30 28 -34 28z m-21 -223 c15 -1 19 -9 18 -27 -2 -14
-13 -46 -25 -72 -12 -27 -25 -48 -29 -48 -3 0 -14 11 -23 24 -10 17 -14 36
-10 58 4 18 16 41 28 50 11 10 30 17 41 15z"/>
</g>
</svg>
