<?xml version="1.0" standalone="no"?>
<!DOCTYPE svg PUBLIC "-//W3C//DTD SVG 20010904//EN"
 "http://www.w3.org/TR/2001/REC-SVG-20010904/DTD/svg10.dtd">
<svg version="1.0" xmlns="http://www.w3.org/2000/svg"
 width="56.000000pt" height="56.000000pt" viewBox="0 0 56.000000 56.000000"
 preserveAspectRatio="xMidYMid meet">
<metadata>
Created by potrace 1.16, written by Peter Selinger 2001-2019
</metadata>
<g transform="translate(0.000000,56.000000) scale(0.100000,-0.100000)"
fill="#000000" stroke="none">
<path d="M243 560 c-8 0 -13 -12 -13 -28 0 -15 4 -32 9 -37 4 -6 13 -29 18
-52 7 -28 7 -45 0 -52 -7 -7 -6 -15 2 -25 7 -8 19 -12 27 -9 10 3 14 21 14 56
0 33 -8 69 -22 99 -13 26 -29 48 -35 48z"/>
<path d="M164 396 c-21 1 -55 -1 -74 -5 -22 -4 -35 -12 -35 -21 0 -8 6 -16 13
-16 6 -1 31 -2 54 -3 38 -1 40 -2 26 -18 -8 -10 -14 -36 -14 -58 1 -39 2 -40
41 -43 22 -2 46 -8 53 -14 7 -6 11 -17 8 -24 -3 -7 0 -30 6 -51 6 -21 12 -42
13 -48 1 -5 6 -21 12 -35 6 -14 21 -33 32 -43 12 -9 32 -17 45 -17 13 0 49 12
80 26 38 17 60 34 67 51 5 13 9 36 9 51 0 15 -9 38 -20 52 -11 14 -20 30 -20
35 0 6 -25 36 -55 68 -30 32 -59 56 -65 52 -6 -4 11 -38 43 -84 49 -71 54 -82
48 -117 -5 -29 -13 -42 -34 -52 -15 -7 -27 -17 -27 -22 0 -5 -11 -3 -25 4 -14
7 -34 24 -44 38 -11 13 -19 38 -19 55 1 16 -2 35 -6 42 -5 7 4 11 28 11 19 0
38 5 42 12 4 6 -1 17 -11 25 -11 7 -43 13 -72 13 -38 0 -55 4 -59 15 -3 8 -14
17 -24 20 -17 5 -16 9 13 35 26 24 30 32 21 47 -7 12 -24 18 -50 19z"/>
<path d="M273 338 c-7 2 -15 -3 -18 -12 -3 -9 -7 -23 -10 -31 -2 -8 0 -17 5
-20 4 -3 16 -2 25 1 10 4 15 16 13 32 -2 14 -9 27 -15 30z"/>
</g>
</svg>
