<?xml version="1.0" standalone="no"?>
<!DOCTYPE svg PUBLIC "-//W3C//DTD SVG 20010904//EN"
 "http://www.w3.org/TR/2001/REC-SVG-20010904/DTD/svg10.dtd">
<svg version="1.0" xmlns="http://www.w3.org/2000/svg"
 width="56.000000pt" height="56.000000pt" viewBox="0 0 56.000000 56.000000"
 preserveAspectRatio="xMidYMid meet">
<metadata>
Created by potrace 1.16, written by Peter Selinger 2001-2019
</metadata>
<g transform="translate(0.000000,56.000000) scale(0.100000,-0.100000)"
fill="#000000" stroke="none">
<path d="M120 560 c-22 0 -40 -4 -40 -9 0 -5 3 -16 6 -25 3 -9 16 -16 28 -16
12 0 27 5 34 12 7 7 12 18 12 25 0 9 -14 13 -40 13z"/>
<path d="M244 560 c-23 0 -33 -5 -37 -19 -3 -11 -2 -22 1 -25 3 -3 13 -6 23
-6 9 0 19 -10 23 -22 3 -13 6 -41 6 -63 0 -22 -4 -45 -8 -51 -4 -5 -20 -15
-37 -21 -16 -6 -42 -14 -56 -17 -14 -3 -35 -14 -47 -24 -12 -11 -22 -26 -22
-34 0 -8 2 -17 6 -20 3 -3 28 7 57 23 29 16 60 29 70 29 9 0 17 -7 17 -15 0
-9 -7 -32 -16 -53 -8 -20 -16 -64 -17 -97 -1 -40 4 -72 15 -96 10 -20 25 -40
34 -43 8 -3 34 -6 56 -6 30 0 45 6 61 26 12 14 37 41 55 60 24 26 32 43 30 62
-3 24 -9 28 -48 33 -25 4 -55 10 -67 14 -18 6 -23 3 -23 -10 0 -10 14 -33 30
-52 25 -28 28 -37 19 -54 -5 -11 -18 -19 -28 -17 -10 2 -26 -3 -35 -11 -10 -8
-20 -10 -25 -5 -5 5 -13 24 -20 43 -6 19 -11 44 -11 56 0 13 7 55 16 94 16 72
16 72 39 51 23 -21 23 -21 49 13 14 19 26 41 26 50 0 11 -9 15 -29 15 -15 -1
-33 2 -40 6 -6 4 -11 34 -11 70 0 34 -6 74 -12 89 -10 21 -20 27 -44 27z"/>
</g>
</svg>
