<?xml version="1.0" standalone="no"?>
<!DOCTYPE svg PUBLIC "-//W3C//DTD SVG 20010904//EN"
 "http://www.w3.org/TR/2001/REC-SVG-20010904/DTD/svg10.dtd">
<svg version="1.0" xmlns="http://www.w3.org/2000/svg"
 width="56.000000pt" height="56.000000pt" viewBox="0 0 56.000000 56.000000"
 preserveAspectRatio="xMidYMid meet">
<metadata>
Created by potrace 1.16, written by Peter Selinger 2001-2019
</metadata>
<g transform="translate(0.000000,56.000000) scale(0.100000,-0.100000)"
fill="#000000" stroke="none">
<path d="M310 560 c-13 0 -20 -5 -17 -12 2 -7 10 -13 17 -13 7 0 15 6 18 13 2
7 -5 12 -18 12z"/>
<path d="M237 510 c-9 0 -17 -13 -21 -35 -6 -28 -12 -35 -30 -35 -12 0 -26 -3
-30 -7 -4 -4 3 -15 16 -24 21 -16 22 -24 19 -106 -1 -48 -7 -107 -13 -131 -8
-33 -8 -53 2 -83 8 -22 27 -50 46 -64 24 -19 40 -23 62 -19 17 3 49 24 71 45
33 32 41 47 41 75 0 19 -5 44 -10 55 -6 10 -11 35 -12 54 -1 20 -5 38 -10 41
-4 3 -13 2 -18 -1 -6 -4 -7 -12 -3 -18 4 -7 6 -39 5 -72 -2 -53 -6 -63 -33
-88 -22 -20 -36 -26 -52 -21 -12 3 -28 11 -35 17 -11 8 -12 32 -8 101 4 49 9
107 12 128 4 21 12 42 19 48 7 6 20 8 29 4 9 -3 16 -17 16 -33 0 -14 -7 -38
-14 -53 -10 -19 -11 -30 -4 -34 5 -4 26 9 45 28 24 25 35 45 36 68 2 32 -2 36
-60 64 -34 17 -65 39 -69 49 -3 10 0 24 6 32 10 12 9 15 -3 15z"/>
</g>
</svg>
