<?xml version="1.0" standalone="no"?>
<!DOCTYPE svg PUBLIC "-//W3C//DTD SVG 20010904//EN"
 "http://www.w3.org/TR/2001/REC-SVG-20010904/DTD/svg10.dtd">
<svg version="1.0" xmlns="http://www.w3.org/2000/svg"
 width="56.000000pt" height="56.000000pt" viewBox="0 0 56.000000 56.000000"
 preserveAspectRatio="xMidYMid meet">
<metadata>
Created by potrace 1.16, written by Peter Selinger 2001-2019
</metadata>
<g transform="translate(0.000000,56.000000) scale(0.100000,-0.100000)"
fill="#000000" stroke="none">
<path d="M210 560 c-25 0 -40 -5 -44 -16 -3 -9 -6 -17 -6 -19 0 -2 12 -5 26
-7 15 -2 32 -11 38 -20 8 -13 6 -22 -8 -37 -10 -11 -31 -23 -47 -26 -16 -4
-34 -16 -41 -28 -6 -12 -17 -25 -24 -30 -7 -4 -16 -31 -19 -60 -4 -28 -2 -64
3 -78 7 -17 23 -29 51 -39 38 -12 41 -16 46 -59 4 -25 11 -61 17 -79 5 -18 21
-40 34 -48 17 -12 35 -14 61 -9 21 3 48 13 61 21 12 8 22 20 22 27 0 7 10 17
22 22 12 6 25 17 29 25 5 8 17 35 29 59 17 38 18 50 9 80 -7 20 -21 56 -33 80
-16 34 -37 55 -88 88 -38 24 -68 50 -68 58 0 8 -7 33 -16 55 -15 37 -19 40
-54 40z m56 -140 c3 0 29 -23 59 -51 30 -28 62 -67 72 -87 13 -25 19 -56 18
-94 -2 -51 -5 -60 -35 -85 -18 -15 -42 -33 -54 -40 -12 -7 -31 -12 -43 -13
-17 0 -27 10 -38 36 -8 20 -15 49 -15 65 0 15 5 31 12 35 6 4 36 7 66 6 30 -1
59 1 64 4 5 3 4 12 -3 20 -7 8 -30 14 -59 14 -27 0 -54 2 -62 5 -9 4 -12 23
-10 70 2 36 8 65 13 65 6 0 9 8 8 18 -1 9 -1 20 0 25 0 4 4 7 7 7z m-78 -28
c19 -4 22 -11 22 -47 0 -23 -5 -56 -11 -74 -6 -17 -18 -31 -26 -31 -8 0 -23
10 -34 23 -10 12 -18 37 -19 56 0 22 8 41 23 55 13 13 31 20 45 18z"/>
</g>
</svg>
