<?xml version="1.0" standalone="no"?>
<!DOCTYPE svg PUBLIC "-//W3C//DTD SVG 20010904//EN"
 "http://www.w3.org/TR/2001/REC-SVG-20010904/DTD/svg10.dtd">
<svg version="1.0" xmlns="http://www.w3.org/2000/svg"
 width="56.000000pt" height="56.000000pt" viewBox="0 0 56.000000 56.000000"
 preserveAspectRatio="xMidYMid meet">
<metadata>
Created by potrace 1.16, written by Peter Selinger 2001-2019
</metadata>
<g transform="translate(0.000000,56.000000) scale(0.100000,-0.100000)"
fill="#000000" stroke="none">
<path d="M285 560 c-85 0 -104 -3 -109 -16 -3 -9 -7 -66 -8 -128 -1 -61 -2
-158 -2 -216 -1 -64 4 -117 12 -136 7 -16 26 -38 41 -47 16 -9 46 -17 66 -17
20 0 45 5 56 10 10 6 19 15 19 20 0 6 -22 10 -48 10 -39 0 -53 5 -72 25 -19
20 -25 40 -28 90 -4 65 -4 66 37 110 23 25 51 65 63 90 22 45 22 45 0 67 -22
22 -22 22 -56 4 -19 -10 -39 -15 -45 -12 -6 4 -11 16 -11 27 0 11 9 37 20 59
19 37 22 38 57 33 21 -3 46 -10 55 -14 9 -5 26 -9 37 -9 11 0 22 4 25 9 4 5 3
16 0 25 -5 13 -24 16 -109 16z m-24 -180 c5 0 9 -8 9 -18 0 -10 -11 -29 -25
-42 -23 -22 -25 -22 -25 -4 0 11 7 30 16 42 8 12 19 22 25 22z"/>
</g>
</svg>
