<?xml version="1.0" standalone="no"?>
<!DOCTYPE svg PUBLIC "-//W3C//DTD SVG 20010904//EN"
 "http://www.w3.org/TR/2001/REC-SVG-20010904/DTD/svg10.dtd">
<svg version="1.0" xmlns="http://www.w3.org/2000/svg"
 width="56.000000pt" height="56.000000pt" viewBox="0 0 56.000000 56.000000"
 preserveAspectRatio="xMidYMid meet">
<metadata>
Created by potrace 1.16, written by Peter Selinger 2001-2019
</metadata>
<g transform="translate(0.000000,56.000000) scale(0.100000,-0.100000)"
fill="#000000" stroke="none">
<path d="M233 560 c-23 0 -33 -5 -33 -16 0 -8 11 -32 25 -52 14 -20 25 -42 25
-48 0 -7 -25 -20 -55 -29 -31 -10 -60 -27 -69 -40 -8 -12 -17 -42 -21 -66 -7
-45 -7 -45 35 -64 42 -19 42 -19 36 -69 -5 -40 -2 -57 11 -77 10 -14 32 -43
50 -63 18 -20 36 -36 41 -36 4 0 29 14 56 30 30 19 52 43 61 65 8 18 21 38 28
42 8 4 19 34 25 66 10 50 9 66 -6 110 -13 36 -27 56 -47 67 -17 9 -30 23 -30
32 0 8 -18 34 -39 59 -21 24 -43 54 -49 67 -8 16 -19 22 -44 22z m89 -172 c13
-9 30 -36 39 -61 9 -25 19 -65 23 -89 6 -38 3 -48 -25 -86 -17 -23 -35 -42
-39 -42 -5 0 -22 6 -37 12 -15 7 -31 17 -35 23 -4 5 -8 20 -8 33 0 20 5 22 45
22 39 0 45 3 45 21 0 13 -10 23 -29 30 -18 6 -32 20 -35 35 -4 15 1 42 14 71
19 44 21 45 42 31z m-94 2 c6 0 12 -7 12 -15 0 -9 -9 -34 -20 -55 -11 -22 -24
-40 -29 -40 -5 0 -17 7 -25 16 -9 8 -16 19 -16 24 0 5 15 23 33 39 17 17 38
31 45 31z"/>
</g>
</svg>
