<?xml version="1.0" standalone="no"?>
<!DOCTYPE svg PUBLIC "-//W3C//DTD SVG 20010904//EN"
 "http://www.w3.org/TR/2001/REC-SVG-20010904/DTD/svg10.dtd">
<svg version="1.0" xmlns="http://www.w3.org/2000/svg"
 width="56.000000pt" height="56.000000pt" viewBox="0 0 56.000000 56.000000"
 preserveAspectRatio="xMidYMid meet">
<metadata>
Created by potrace 1.16, written by Peter Selinger 2001-2019
</metadata>
<g transform="translate(0.000000,56.000000) scale(0.100000,-0.100000)"
fill="#000000" stroke="none">
<path d="M252 559 c-11 1 -12 -9 -7 -41 4 -24 12 -52 18 -63 6 -11 11 -64 11
-117 1 -60 -3 -101 -10 -108 -9 -9 -20 -8 -43 4 -17 9 -31 23 -31 30 0 8 3 21
6 30 3 9 13 16 20 16 8 0 20 12 26 26 11 24 9 29 -15 50 -16 13 -34 24 -42 24
-8 0 -17 -4 -20 -10 -3 -5 -1 -19 5 -30 9 -17 8 -27 -4 -45 -9 -14 -16 -42
-16 -64 0 -37 3 -42 40 -61 23 -12 50 -30 60 -40 14 -14 20 -34 20 -64 0 -29
7 -52 21 -70 11 -14 30 -26 43 -26 12 0 32 7 44 16 19 13 22 24 20 57 -2 30
-8 43 -20 45 -12 2 -21 -5 -27 -21 -6 -14 -14 -28 -20 -31 -5 -4 -13 4 -17 16
-4 13 -6 54 -5 92 0 37 4 72 7 77 3 5 10 7 15 4 5 -4 9 -24 9 -46 0 -26 4 -39
14 -39 10 0 12 13 8 53 -2 28 -10 58 -16 66 -6 8 -13 55 -16 106 -5 84 -8 95
-35 128 -17 19 -36 36 -43 36z"/>
</g>
</svg>
