<?xml version="1.0" standalone="no"?>
<!DOCTYPE svg PUBLIC "-//W3C//DTD SVG 20010904//EN"
 "http://www.w3.org/TR/2001/REC-SVG-20010904/DTD/svg10.dtd">
<svg version="1.0" xmlns="http://www.w3.org/2000/svg"
 width="56.000000pt" height="56.000000pt" viewBox="0 0 56.000000 56.000000"
 preserveAspectRatio="xMidYMid meet">
<metadata>
Created by potrace 1.16, written by Peter Selinger 2001-2019
</metadata>
<g transform="translate(0.000000,56.000000) scale(0.100000,-0.100000)"
fill="#000000" stroke="none">
<path d="M130 560 c-16 0 -21 -5 -18 -22 2 -13 10 -23 18 -23 8 0 16 10 18 23
3 17 -2 22 -18 22z"/>
<path d="M410 560 c-16 0 -30 -5 -30 -10 0 -6 10 -14 23 -19 12 -5 25 -7 30
-4 4 2 7 11 7 19 0 9 -11 14 -30 14z"/>
<path d="M263 530 c-13 0 -14 -9 -9 -49 3 -27 4 -56 0 -65 -4 -10 -18 -16 -35
-16 -16 0 -32 -6 -34 -12 -3 -7 -1 -26 3 -43 6 -22 14 -30 33 -30 21 0 24 -5
25 -35 1 -19 -3 -41 -8 -47 -7 -8 -16 -9 -27 -4 -9 5 -27 10 -41 11 -14 1 -31
2 -37 1 -7 -1 -13 -6 -13 -11 0 -6 25 -22 55 -37 30 -15 55 -32 55 -38 0 -6
16 -43 35 -83 30 -64 37 -72 62 -72 19 0 37 10 55 30 14 17 29 48 33 69 4 25
2 48 -6 63 -7 13 -36 50 -65 84 -53 60 -53 60 -45 112 4 28 5 71 1 94 -4 24
-11 51 -15 61 -4 9 -14 17 -22 17z m22 -270 c2 0 18 -21 36 -46 17 -25 35 -61
40 -80 7 -22 6 -40 -1 -54 -6 -11 -17 -20 -24 -20 -8 0 -23 15 -34 34 -11 19
-21 53 -22 77 -2 24 -2 54 -1 67 0 12 3 22 6 22z"/>
</g>
</svg>
