<?xml version="1.0" standalone="no"?>
<!DOCTYPE svg PUBLIC "-//W3C//DTD SVG 20010904//EN"
 "http://www.w3.org/TR/2001/REC-SVG-20010904/DTD/svg10.dtd">
<svg version="1.0" xmlns="http://www.w3.org/2000/svg"
 width="56.000000pt" height="56.000000pt" viewBox="0 0 56.000000 56.000000"
 preserveAspectRatio="xMidYMid meet">
<metadata>
Created by potrace 1.16, written by Peter Selinger 2001-2019
</metadata>
<g transform="translate(0.000000,56.000000) scale(0.100000,-0.100000)"
fill="#000000" stroke="none">
<path d="M204 560 c-8 0 -14 -10 -14 -25 0 -14 6 -25 13 -25 8 0 21 -8 30 -18
10 -11 17 -35 17 -58 0 -36 -5 -44 -50 -78 -27 -20 -51 -45 -54 -54 -2 -9 -4
-56 -4 -104 0 -47 -5 -102 -12 -122 -8 -26 -8 -41 0 -56 6 -11 19 -20 29 -20
10 0 24 7 31 14 6 8 27 70 45 138 18 68 40 140 49 161 9 20 23 37 32 37 8 0
22 -16 30 -36 14 -33 14 -47 -1 -143 -10 -58 -26 -121 -36 -138 -18 -33 -18
-33 16 -33 28 0 35 4 35 20 0 11 4 28 9 38 4 9 18 47 30 84 11 37 21 92 21
122 0 30 -5 66 -11 79 -6 13 -26 32 -45 41 -19 9 -43 16 -54 16 -16 0 -19 5
-14 29 3 16 0 39 -6 52 -7 13 -26 36 -42 52 -16 15 -36 27 -44 27z m13 -250
c7 0 13 -4 13 -10 0 -5 -5 -30 -12 -55 -7 -25 -18 -45 -25 -45 -8 0 -13 12
-13 30 0 16 5 41 12 55 6 14 17 25 25 25z"/>
</g>
</svg>
