<?xml version="1.0" standalone="no"?>
<!DOCTYPE svg PUBLIC "-//W3C//DTD SVG 20010904//EN"
 "http://www.w3.org/TR/2001/REC-SVG-20010904/DTD/svg10.dtd">
<svg version="1.0" xmlns="http://www.w3.org/2000/svg"
 width="56.000000pt" height="56.000000pt" viewBox="0 0 56.000000 56.000000"
 preserveAspectRatio="xMidYMid meet">
<metadata>
Created by potrace 1.16, written by Peter Selinger 2001-2019
</metadata>
<g transform="translate(0.000000,56.000000) scale(0.100000,-0.100000)"
fill="#000000" stroke="none">
<path d="M206 535 c-20 21 -25 23 -30 9 -3 -8 -6 -24 -6 -35 0 -11 6 -28 13
-39 10 -17 9 -22 -3 -30 -8 -5 -25 -10 -36 -10 -12 0 -33 -9 -46 -20 -14 -11
-30 -38 -36 -60 -7 -27 -7 -54 0 -82 6 -24 19 -51 30 -61 11 -9 33 -17 48 -17
23 0 29 -5 34 -31 3 -17 3 -36 0 -41 -4 -6 -1 -29 7 -52 7 -22 17 -47 22 -53
5 -8 31 -13 59 -13 27 0 65 7 85 15 20 9 43 24 50 35 8 11 20 20 27 20 7 0 20
8 29 18 10 10 14 22 10 25 -3 4 -11 7 -18 7 -6 0 -21 -9 -32 -19 -12 -11 -41
-29 -65 -40 -23 -11 -57 -22 -75 -26 -25 -5 -34 -2 -41 12 -6 10 -12 45 -13
78 -4 60 -4 60 26 60 17 1 37 4 45 7 8 4 32 9 53 13 28 4 37 11 37 26 0 19 -4
19 -60 13 -43 -5 -64 -3 -76 7 -12 10 -14 23 -10 51 4 21 2 47 -3 56 -5 10 -6
23 -2 30 5 8 22 10 54 6 36 -5 56 -16 92 -50 25 -25 50 -55 55 -69 6 -15 17
-25 30 -25 13 0 24 10 31 27 5 15 8 38 4 50 -3 14 -26 35 -59 53 -30 17 -57
37 -60 45 -3 8 -15 15 -26 15 -11 0 -29 -5 -39 -12 -14 -9 -26 -8 -50 2 -26
10 -31 18 -31 46 0 21 -9 42 -24 59z m-31 -178 c16 -2 20 -9 20 -37 0 -34 -1
-35 -42 -38 -42 -3 -43 -2 -43 28 0 22 6 33 23 40 12 5 31 8 42 7z"/>
</g>
</svg>
