<?xml version="1.0" standalone="no"?>
<!DOCTYPE svg PUBLIC "-//W3C//DTD SVG 20010904//EN"
 "http://www.w3.org/TR/2001/REC-SVG-20010904/DTD/svg10.dtd">
<svg version="1.0" xmlns="http://www.w3.org/2000/svg"
 width="56.000000pt" height="56.000000pt" viewBox="0 0 56.000000 56.000000"
 preserveAspectRatio="xMidYMid meet">
<metadata>
Created by potrace 1.16, written by Peter Selinger 2001-2019
</metadata>
<g transform="translate(0.000000,56.000000) scale(0.100000,-0.100000)"
fill="#000000" stroke="none">
<path d="M201 560 c-5 0 -12 -8 -15 -17 -4 -9 -2 -21 4 -27 5 -5 10 -15 10
-22 0 -6 -16 -19 -35 -28 -26 -13 -35 -23 -35 -41 0 -20 9 -29 40 -42 29 -13
40 -24 40 -39 0 -12 -9 -50 -20 -84 -11 -34 -20 -74 -20 -87 0 -14 9 -37 20
-53 11 -15 33 -33 50 -40 17 -7 33 -22 36 -36 3 -12 3 -28 -1 -33 -4 -7 7 -11
31 -11 37 0 37 0 31 41 -3 22 -13 49 -23 60 -9 10 -23 19 -29 19 -7 0 -23 9
-36 20 -24 19 -24 19 6 44 17 14 34 25 38 26 4 0 35 18 68 40 43 30 59 47 59
63 0 13 -5 28 -12 35 -7 7 -37 12 -68 12 -31 0 -61 -5 -67 -11 -6 -6 -16 -8
-22 -5 -6 4 -11 13 -11 20 0 7 -11 23 -24 35 -14 13 -22 29 -19 37 3 8 14 14
25 14 11 0 28 5 39 10 10 6 19 16 19 23 0 7 -16 23 -35 36 -19 13 -35 27 -35
32 0 5 -4 9 -9 9z m129 -233 c8 -1 15 -10 15 -20 0 -10 -21 -32 -50 -52 -27
-18 -52 -32 -54 -30 -2 2 0 20 3 40 5 27 14 39 39 49 18 8 39 14 47 13z"/>
</g>
</svg>
