<?xml version="1.0" standalone="no"?>
<!DOCTYPE svg PUBLIC "-//W3C//DTD SVG 20010904//EN"
 "http://www.w3.org/TR/2001/REC-SVG-20010904/DTD/svg10.dtd">
<svg version="1.0" xmlns="http://www.w3.org/2000/svg"
 width="56.000000pt" height="56.000000pt" viewBox="0 0 56.000000 56.000000"
 preserveAspectRatio="xMidYMid meet">
<metadata>
Created by potrace 1.16, written by Peter Selinger 2001-2019
</metadata>
<g transform="translate(0.000000,56.000000) scale(0.100000,-0.100000)"
fill="#000000" stroke="none">
<path d="M352 533 c-26 25 -28 26 -39 8 -10 -15 -9 -22 2 -31 9 -7 15 -29 15
-51 0 -21 -5 -41 -10 -44 -6 -4 -18 -1 -26 6 -12 10 -20 9 -42 -8 -18 -13 -34
-40 -46 -79 -10 -32 -27 -81 -37 -108 -11 -27 -19 -65 -19 -85 0 -21 6 -49 13
-64 6 -15 17 -27 22 -27 6 0 17 10 25 23 8 12 15 50 15 87 1 37 9 78 17 95 9
17 25 38 36 48 11 10 29 17 38 15 11 -2 21 -16 26 -38 4 -21 2 -74 -7 -132 -9
-54 -20 -109 -25 -123 -9 -24 -8 -25 29 -25 36 0 39 3 46 33 4 17 9 80 12 139
4 92 1 112 -16 148 -11 23 -17 48 -14 56 3 8 9 14 14 14 5 0 14 11 20 24 9 18
7 31 -5 58 -9 19 -29 47 -44 61z m-81 -159 c5 -2 6 -11 2 -19 -3 -8 -11 -15
-19 -15 -8 0 -14 4 -14 8 0 4 5 13 12 20 6 6 15 9 19 6z"/>
</g>
</svg>
