<?xml version="1.0" standalone="no"?>
<!DOCTYPE svg PUBLIC "-//W3C//DTD SVG 20010904//EN"
 "http://www.w3.org/TR/2001/REC-SVG-20010904/DTD/svg10.dtd">
<svg version="1.0" xmlns="http://www.w3.org/2000/svg"
 width="56.000000pt" height="56.000000pt" viewBox="0 0 56.000000 56.000000"
 preserveAspectRatio="xMidYMid meet">
<metadata>
Created by potrace 1.16, written by Peter Selinger 2001-2019
</metadata>
<g transform="translate(0.000000,56.000000) scale(0.100000,-0.100000)"
fill="#000000" stroke="none">
<path d="M194 560 c-13 0 -24 -4 -24 -9 0 -6 5 -13 10 -16 6 -3 10 -14 10 -24
0 -10 6 -24 14 -30 8 -7 14 -28 13 -48 -1 -33 -5 -37 -54 -59 -30 -13 -53 -30
-53 -39 0 -8 -9 -19 -20 -25 -16 -9 -19 -19 -16 -61 2 -28 7 -53 11 -57 4 -4
25 -14 48 -23 36 -14 43 -22 52 -58 6 -23 23 -57 38 -76 24 -30 34 -35 72 -35
26 0 60 9 82 21 21 11 48 32 60 47 13 15 23 35 23 44 0 9 5 20 10 23 6 3 10
30 10 59 0 38 -6 61 -20 79 -11 14 -20 30 -20 35 0 6 -13 21 -30 35 -16 14
-46 28 -67 32 -21 3 -45 12 -53 18 -9 7 -22 31 -29 55 -8 23 -11 45 -8 48 4 4
-3 20 -14 35 -13 18 -29 29 -45 29z m80 -210 c5 0 28 -15 52 -32 23 -18 52
-50 64 -70 16 -29 19 -46 14 -79 -5 -32 -17 -52 -48 -81 -23 -21 -49 -38 -59
-38 -11 0 -32 14 -48 31 -16 17 -29 39 -29 50 0 15 9 18 52 21 42 2 54 7 56
21 2 10 -4 27 -14 38 -13 14 -25 18 -45 14 -15 -3 -30 -2 -33 3 -3 5 2 35 12
66 9 31 21 56 26 56z m-90 -30 c8 0 16 -6 19 -14 3 -8 1 -31 -5 -50 -8 -25
-16 -35 -26 -31 -7 3 -20 5 -28 5 -7 0 -16 11 -20 25 -3 14 -1 32 6 40 6 7 18
11 26 8 8 -3 14 0 14 6 0 6 6 11 14 11z"/>
</g>
</svg>
