<?xml version="1.0" standalone="no"?>
<!DOCTYPE svg PUBLIC "-//W3C//DTD SVG 20010904//EN"
 "http://www.w3.org/TR/2001/REC-SVG-20010904/DTD/svg10.dtd">
<svg version="1.0" xmlns="http://www.w3.org/2000/svg"
 width="56.000000pt" height="56.000000pt" viewBox="0 0 56.000000 56.000000"
 preserveAspectRatio="xMidYMid meet">
<metadata>
Created by potrace 1.16, written by Peter Selinger 2001-2019
</metadata>
<g transform="translate(0.000000,56.000000) scale(0.100000,-0.100000)"
fill="#000000" stroke="none">
<path d="M281 560 c-4 0 -13 -19 -20 -41 -8 -27 -30 -59 -60 -88 -38 -36 -47
-50 -41 -66 4 -11 13 -40 20 -65 7 -25 17 -57 22 -72 6 -15 7 -31 4 -36 -3 -5
-8 -36 -10 -69 -4 -51 -2 -63 14 -78 18 -16 19 -15 36 12 10 15 22 31 27 34 4
3 1 31 -7 62 -10 40 -12 66 -5 89 5 18 9 49 9 69 0 19 6 43 13 53 7 10 22 16
33 14 14 -2 20 -13 22 -38 2 -19 3 -55 3 -80 0 -32 -6 -49 -19 -60 -11 -9 -24
-41 -31 -80 -7 -36 -19 -77 -27 -92 -14 -27 -14 -28 11 -28 14 0 35 10 47 22
13 13 21 29 20 37 -2 7 2 27 8 45 7 17 15 40 20 51 4 11 12 36 19 56 6 19 11
59 11 88 0 28 -7 67 -14 86 -8 19 -22 35 -30 35 -9 0 -16 7 -16 15 0 8 -4 15
-10 15 -5 0 -10 15 -10 33 0 18 -7 43 -16 55 -8 12 -19 22 -23 22z m-51 -170
c6 0 10 -9 10 -19 0 -11 -4 -23 -10 -26 -6 -4 -10 5 -10 19 0 14 5 26 10 26z"/>
</g>
</svg>
