<?xml version="1.0" standalone="no"?>
<!DOCTYPE svg PUBLIC "-//W3C//DTD SVG 20010904//EN"
 "http://www.w3.org/TR/2001/REC-SVG-20010904/DTD/svg10.dtd">
<svg version="1.0" xmlns="http://www.w3.org/2000/svg"
 width="56.000000pt" height="56.000000pt" viewBox="0 0 56.000000 56.000000"
 preserveAspectRatio="xMidYMid meet">
<metadata>
Created by potrace 1.16, written by Peter Selinger 2001-2019
</metadata>
<g transform="translate(0.000000,56.000000) scale(0.100000,-0.100000)"
fill="#000000" stroke="none">
<path d="M170 560 c-6 0 -10 -2 -10 -4 0 -1 5 -16 10 -32 6 -17 28 -41 53 -57
23 -15 49 -26 57 -25 8 2 16 13 18 26 2 15 -3 25 -20 31 -13 5 -40 21 -61 35
-21 14 -42 26 -47 26z"/>
<path d="M261 410 c-9 0 -30 -13 -46 -30 -16 -16 -37 -30 -47 -30 -10 0 -21 7
-24 15 -4 8 -12 15 -20 15 -9 0 -14 -11 -14 -28 0 -16 8 -36 18 -45 10 -10 28
-17 40 -17 15 0 22 -6 22 -20 0 -11 -13 -29 -30 -42 -22 -16 -30 -30 -30 -54
0 -17 6 -37 14 -44 12 -9 21 -7 44 10 17 12 34 20 40 16 5 -3 12 -19 16 -36 4
-21 17 -37 42 -52 19 -11 40 -32 45 -44 7 -20 16 -24 53 -24 26 0 48 6 56 15
7 8 10 21 7 29 -3 8 -31 22 -62 31 -38 11 -67 27 -86 48 -17 18 -29 43 -29 58
0 14 8 33 18 42 10 10 22 17 26 17 5 0 26 14 47 31 21 17 39 35 39 40 0 6 -16
17 -35 25 -20 8 -40 25 -45 38 -4 13 -16 26 -25 30 -9 3 -24 6 -34 6z"/>
</g>
</svg>
