<?xml version="1.0" standalone="no"?>
<!DOCTYPE svg PUBLIC "-//W3C//DTD SVG 20010904//EN"
 "http://www.w3.org/TR/2001/REC-SVG-20010904/DTD/svg10.dtd">
<svg version="1.0" xmlns="http://www.w3.org/2000/svg"
 width="56.000000pt" height="56.000000pt" viewBox="0 0 56.000000 56.000000"
 preserveAspectRatio="xMidYMid meet">
<metadata>
Created by potrace 1.16, written by Peter Selinger 2001-2019
</metadata>
<g transform="translate(0.000000,56.000000) scale(0.100000,-0.100000)"
fill="#000000" stroke="none">
<path d="M177 559 c-12 0 -29 -4 -37 -9 -8 -5 -23 -11 -34 -14 -15 -5 -16 -9
-6 -21 7 -8 29 -19 50 -25 25 -7 47 -7 64 0 14 5 26 15 26 23 0 7 -9 20 -20
30 -11 9 -30 17 -43 16z"/>
<path d="M315 430 c-5 0 -22 -6 -37 -14 -15 -8 -41 -22 -57 -32 -27 -16 -32
-16 -48 -2 -10 8 -33 20 -52 27 -19 6 -42 11 -52 11 -11 0 -19 -5 -19 -11 0
-6 18 -27 41 -47 40 -35 40 -35 33 -123 -7 -88 -7 -88 55 -147 33 -32 61 -66
61 -75 0 -12 9 -17 30 -17 28 0 30 3 30 35 0 20 -6 48 -14 64 -8 15 -11 32 -7
39 3 6 21 17 38 24 18 8 66 45 108 82 67 60 76 72 73 99 -2 16 -10 33 -18 37
-8 4 -46 17 -85 29 -38 12 -74 21 -80 21z m2 -61 c7 0 24 -4 38 -11 14 -6 25
-19 25 -28 0 -9 -6 -23 -12 -32 -7 -9 -35 -33 -62 -53 -26 -20 -60 -37 -75
-38 -23 -2 -26 2 -29 31 -2 19 5 47 18 70 14 25 33 42 53 49 18 5 37 11 44 12z"/>
</g>
</svg>
