<?xml version="1.0" standalone="no"?>
<!DOCTYPE svg PUBLIC "-//W3C//DTD SVG 20010904//EN"
 "http://www.w3.org/TR/2001/REC-SVG-20010904/DTD/svg10.dtd">
<svg version="1.0" xmlns="http://www.w3.org/2000/svg"
 width="56.000000pt" height="56.000000pt" viewBox="0 0 56.000000 56.000000"
 preserveAspectRatio="xMidYMid meet">
<metadata>
Created by potrace 1.16, written by Peter Selinger 2001-2019
</metadata>
<g transform="translate(0.000000,56.000000) scale(0.100000,-0.100000)"
fill="#000000" stroke="none">
<path d="M312 514 c-5 3 -12 3 -16 -1 -3 -3 -6 -40 -6 -80 0 -41 -5 -83 -10
-93 -10 -19 -11 -19 -44 0 -19 10 -37 16 -40 13 -3 -4 -6 -12 -6 -20 0 -7 18
-21 40 -30 32 -14 40 -23 40 -44 0 -14 -5 -40 -11 -58 -9 -25 -8 -47 1 -94 8
-34 20 -72 28 -84 8 -14 24 -23 38 -23 17 0 24 6 24 19 0 10 -6 24 -14 30 -8
7 -22 33 -30 58 -11 32 -14 63 -10 102 4 31 10 61 13 66 4 6 8 60 10 121 1 63
-1 114 -7 118z"/>
</g>
</svg>
