<?xml version="1.0" standalone="no"?>
<!DOCTYPE svg PUBLIC "-//W3C//DTD SVG 20010904//EN"
 "http://www.w3.org/TR/2001/REC-SVG-20010904/DTD/svg10.dtd">
<svg version="1.0" xmlns="http://www.w3.org/2000/svg"
 width="56.000000pt" height="56.000000pt" viewBox="0 0 56.000000 56.000000"
 preserveAspectRatio="xMidYMid meet">
<metadata>
Created by potrace 1.16, written by Peter Selinger 2001-2019
</metadata>
<g transform="translate(0.000000,56.000000) scale(0.100000,-0.100000)"
fill="#000000" stroke="none">
<path d="M159 560 c-9 0 -19 -6 -22 -14 -3 -8 3 -32 14 -53 17 -34 20 -56 18
-193 -2 -150 -1 -158 27 -228 28 -72 28 -72 114 -72 54 0 91 5 98 12 7 7 12
25 12 40 0 16 -7 42 -15 58 -9 17 -22 30 -30 30 -10 0 -15 -11 -15 -34 0 -18
-7 -39 -14 -46 -8 -6 -25 -10 -38 -8 -13 2 -22 8 -21 14 1 5 7 49 14 96 6 47
9 102 5 122 -5 25 -18 45 -46 67 -36 29 -38 34 -38 85 1 41 -5 62 -23 89 -13
19 -31 35 -40 35z m78 -261 c9 -8 13 -36 13 -85 0 -40 -5 -76 -10 -79 -6 -3
-15 6 -20 20 -6 14 -10 52 -10 84 0 32 3 61 7 64 3 4 12 2 20 -4z"/>
</g>
</svg>
