<?xml version="1.0" standalone="no"?>
<!DOCTYPE svg PUBLIC "-//W3C//DTD SVG 20010904//EN"
 "http://www.w3.org/TR/2001/REC-SVG-20010904/DTD/svg10.dtd">
<svg version="1.0" xmlns="http://www.w3.org/2000/svg"
 width="56.000000pt" height="56.000000pt" viewBox="0 0 56.000000 56.000000"
 preserveAspectRatio="xMidYMid meet">
<metadata>
Created by potrace 1.16, written by Peter Selinger 2001-2019
</metadata>
<g transform="translate(0.000000,56.000000) scale(0.100000,-0.100000)"
fill="#000000" stroke="none">
<path d="M293 559 c-20 1 -23 -4 -23 -37 0 -36 -3 -40 -81 -90 -44 -29 -83
-52 -87 -52 -4 -1 -20 -12 -37 -25 -25 -20 -28 -28 -19 -42 6 -10 19 -20 28
-21 10 -2 47 10 83 28 37 17 79 34 95 37 16 3 28 1 28 -5 0 -5 -23 -29 -51
-53 -28 -24 -55 -55 -60 -68 -6 -14 -6 -28 -1 -33 5 -5 32 -3 62 4 49 11 54
11 70 -9 9 -12 20 -45 23 -74 5 -41 14 -60 39 -86 31 -32 36 -34 77 -28 24 4
50 9 58 12 8 3 13 13 11 21 -2 11 -16 17 -43 19 -30 1 -46 9 -62 29 -11 15
-23 43 -26 63 -3 20 -8 47 -12 61 -5 21 0 30 34 55 22 17 41 36 41 43 0 7 -12
17 -27 22 -16 6 -34 13 -41 17 -8 5 -14 13 -14 18 0 6 17 15 38 21 28 8 39 16
39 30 0 14 -6 19 -25 17 -14 -1 -52 -10 -85 -21 -33 -11 -80 -24 -105 -30 -25
-6 -54 -14 -65 -18 -18 -6 -18 -5 -5 9 8 8 42 25 75 38 33 12 75 24 93 26 18
3 39 14 47 26 13 19 11 24 -18 58 -18 21 -42 38 -54 38z m14 -229 c7 0 13 -2
13 -5 0 -4 -7 -19 -15 -35 -9 -16 -26 -32 -40 -36 -13 -3 -30 -4 -37 -1 -8 2
1 17 26 41 22 20 46 36 53 36z"/>
</g>
</svg>
