<?xml version="1.0" standalone="no"?>
<!DOCTYPE svg PUBLIC "-//W3C//DTD SVG 20010904//EN"
 "http://www.w3.org/TR/2001/REC-SVG-20010904/DTD/svg10.dtd">
<svg version="1.0" xmlns="http://www.w3.org/2000/svg"
 width="56.000000pt" height="56.000000pt" viewBox="0 0 56.000000 56.000000"
 preserveAspectRatio="xMidYMid meet">
<metadata>
Created by potrace 1.16, written by Peter Selinger 2001-2019
</metadata>
<g transform="translate(0.000000,56.000000) scale(0.100000,-0.100000)"
fill="#000000" stroke="none">
<path d="M303 560 c-10 0 -30 -20 -44 -43 -14 -24 -29 -62 -33 -85 -5 -34 -3
-44 9 -48 9 -4 18 -4 21 -1 3 2 5 15 6 28 0 13 7 38 14 55 8 17 20 37 29 44 8
7 15 21 15 31 0 12 -7 19 -17 19z"/>
<path d="M298 339 c-13 -1 -34 -5 -48 -9 -14 -4 -39 -8 -56 -9 -18 -1 -39 -10
-52 -24 -13 -13 -24 -45 -30 -79 -5 -32 -7 -60 -4 -63 3 -3 29 -5 59 -5 53 0
53 0 53 -35 0 -19 7 -53 16 -75 12 -30 22 -40 39 -40 12 0 43 11 68 25 24 14
56 42 69 63 13 20 29 51 35 67 7 17 10 41 9 55 -2 14 -4 30 -5 37 0 7 -11 21
-22 32 -12 11 -41 29 -65 41 -24 11 -54 20 -66 19z m-17 -30 c11 -5 23 -7 28
-4 5 3 30 -13 54 -36 37 -33 45 -46 44 -75 -1 -19 -5 -34 -9 -34 -4 0 -8 -6
-8 -13 0 -8 -18 -30 -41 -50 -22 -20 -44 -39 -50 -43 -5 -3 -16 0 -24 6 -9 8
-15 30 -15 57 0 26 5 45 13 47 6 2 21 7 32 11 19 6 18 8 -11 33 -17 15 -34 39
-38 54 -3 14 -3 33 0 42 5 12 10 13 25 5z m-86 -39 c19 0 35 -5 35 -11 0 -6
-5 -19 -10 -30 -6 -11 -21 -19 -35 -19 -21 0 -25 5 -25 30 0 28 3 30 35 30z"/>
</g>
</svg>
