<?xml version="1.0" standalone="no"?>
<!DOCTYPE svg PUBLIC "-//W3C//DTD SVG 20010904//EN"
 "http://www.w3.org/TR/2001/REC-SVG-20010904/DTD/svg10.dtd">
<svg version="1.0" xmlns="http://www.w3.org/2000/svg"
 width="56.000000pt" height="56.000000pt" viewBox="0 0 56.000000 56.000000"
 preserveAspectRatio="xMidYMid meet">
<metadata>
Created by potrace 1.16, written by Peter Selinger 2001-2019
</metadata>
<g transform="translate(0.000000,56.000000) scale(0.100000,-0.100000)"
fill="#000000" stroke="none">
<path d="M236 560 c-8 0 -17 -7 -20 -16 -4 -9 -1 -23 5 -30 7 -8 12 -24 13
-37 1 -12 9 -23 19 -25 10 -2 24 2 32 8 8 7 15 22 15 34 0 13 -11 32 -25 44
-14 12 -31 22 -39 22z"/>
<path d="M217 390 c-14 0 -17 -5 -11 -22 3 -13 13 -27 20 -31 8 -4 14 -19 14
-31 0 -13 -16 -48 -36 -77 -30 -43 -35 -56 -25 -71 6 -10 11 -26 11 -36 0 -9
14 -34 31 -55 17 -20 39 -37 49 -37 9 0 23 -7 30 -15 7 -8 19 -15 27 -15 12 0
13 7 8 27 -4 16 -11 34 -17 40 -6 7 -16 13 -23 13 -7 0 -24 11 -39 25 -14 13
-26 29 -26 35 0 5 6 10 14 10 7 0 19 7 26 15 7 8 25 15 40 15 15 0 33 7 40 15
7 8 19 15 27 15 9 0 13 8 11 21 -2 14 -16 27 -43 37 -22 9 -43 20 -46 24 -3 5
-4 20 -1 33 3 19 -3 28 -29 44 -19 12 -42 21 -52 21z"/>
</g>
</svg>
