<?xml version="1.0" standalone="no"?>
<!DOCTYPE svg PUBLIC "-//W3C//DTD SVG 20010904//EN"
 "http://www.w3.org/TR/2001/REC-SVG-20010904/DTD/svg10.dtd">
<svg version="1.0" xmlns="http://www.w3.org/2000/svg"
 width="56.000000pt" height="56.000000pt" viewBox="0 0 56.000000 56.000000"
 preserveAspectRatio="xMidYMid meet">
<metadata>
Created by potrace 1.16, written by Peter Selinger 2001-2019
</metadata>
<g transform="translate(0.000000,56.000000) scale(0.100000,-0.100000)"
fill="#000000" stroke="none">
<path d="M283 560 c-26 0 -33 -4 -33 -20 0 -10 9 -24 21 -30 11 -6 19 -18 17
-27 -2 -8 -23 -23 -48 -33 -25 -10 -46 -25 -48 -34 -3 -14 3 -15 38 -10 42 7
42 7 16 -45 -15 -28 -30 -51 -35 -51 -5 0 -12 7 -15 16 -3 9 -6 27 -6 40 0 15
-6 24 -15 24 -9 0 -18 -6 -21 -14 -3 -8 2 -41 11 -73 9 -32 22 -78 29 -103 7
-24 20 -49 29 -54 12 -8 21 -7 32 4 13 14 13 21 -5 70 -17 48 -18 56 -5 70 8
9 15 23 15 31 0 8 11 27 23 43 15 18 30 27 39 24 8 -4 18 -21 22 -38 3 -18 6
-53 6 -77 0 -25 -7 -59 -15 -76 -8 -18 -38 -59 -66 -92 -28 -32 -61 -64 -72
-70 -11 -5 -22 -16 -25 -22 -2 -8 6 -13 20 -13 16 0 47 23 93 68 39 37 81 89
95 116 21 42 24 60 22 129 -3 71 -7 85 -34 123 -16 23 -28 48 -25 56 2 7 -3
25 -11 41 -13 21 -24 27 -49 27z"/>
</g>
</svg>
