<?xml version="1.0" standalone="no"?>
<!DOCTYPE svg PUBLIC "-//W3C//DTD SVG 20010904//EN"
 "http://www.w3.org/TR/2001/REC-SVG-20010904/DTD/svg10.dtd">
<svg version="1.0" xmlns="http://www.w3.org/2000/svg"
 width="56.000000pt" height="56.000000pt" viewBox="0 0 56.000000 56.000000"
 preserveAspectRatio="xMidYMid meet">
<metadata>
Created by potrace 1.16, written by Peter Selinger 2001-2019
</metadata>
<g transform="translate(0.000000,56.000000) scale(0.100000,-0.100000)"
fill="#000000" stroke="none">
<path d="M145 560 c-12 0 -15 -13 -15 -55 0 -42 3 -55 15 -55 12 0 15 13 15
55 0 42 -3 55 -15 55z"/>
<path d="M261 542 c-11 10 -21 15 -21 12 0 -3 12 -31 26 -62 23 -51 25 -64 19
-132 -3 -41 -9 -83 -12 -93 -4 -16 -7 -17 -21 -4 -10 8 -36 17 -59 21 -31 4
-43 3 -43 -6 0 -6 12 -25 27 -40 19 -20 37 -28 60 -28 33 0 33 0 33 -58 0 -47
6 -67 30 -105 22 -35 36 -47 54 -47 13 0 28 6 33 12 6 7 13 35 17 62 4 33 1
58 -9 80 -8 17 -24 37 -36 44 -12 7 -22 12 -24 10 -2 -2 6 -31 17 -65 17 -52
18 -65 8 -78 -12 -14 -15 -14 -28 -1 -10 10 -16 39 -17 88 -1 40 2 112 8 159
5 47 7 106 3 131 -4 25 -15 54 -25 64 -10 10 -28 27 -40 36z"/>
</g>
</svg>
