<?xml version="1.0" standalone="no"?>
<!DOCTYPE svg PUBLIC "-//W3C//DTD SVG 20010904//EN"
 "http://www.w3.org/TR/2001/REC-SVG-20010904/DTD/svg10.dtd">
<svg version="1.0" xmlns="http://www.w3.org/2000/svg"
 width="56.000000pt" height="56.000000pt" viewBox="0 0 56.000000 56.000000"
 preserveAspectRatio="xMidYMid meet">
<metadata>
Created by potrace 1.16, written by Peter Selinger 2001-2019
</metadata>
<g transform="translate(0.000000,56.000000) scale(0.100000,-0.100000)"
fill="#000000" stroke="none">
<path d="M380 560 c-37 0 -41 -2 -30 -16 7 -8 25 -14 38 -12 14 2 27 9 30 16
2 8 -9 12 -38 12z"/>
<path d="M334 540 c-7 7 -19 4 -37 -10 -15 -12 -27 -31 -27 -44 0 -12 -4 -26
-9 -31 -5 -6 -12 -30 -15 -55 -4 -25 -8 -58 -10 -75 -2 -16 -4 -40 -4 -52 -2
-16 -8 -23 -22 -23 -11 0 -23 7 -27 16 -3 9 4 34 16 56 11 22 19 43 16 47 -2
5 -19 8 -37 9 -17 0 -36 -2 -41 -5 -4 -3 -1 -13 9 -24 16 -17 16 -20 -1 -45
-14 -22 -15 -30 -5 -50 7 -13 28 -30 46 -39 33 -15 34 -18 34 -72 0 -37 7 -72
21 -100 19 -38 24 -43 56 -43 19 0 43 5 53 10 11 6 22 26 26 46 5 27 1 46 -16
80 -13 24 -27 44 -32 44 -4 0 -8 5 -8 12 0 6 -10 22 -22 35 -18 19 -21 33 -19
81 1 31 9 81 16 110 8 28 22 66 32 82 12 21 14 33 7 40z m-56 -350 c4 0 23
-32 42 -71 28 -59 32 -72 19 -80 -7 -5 -20 -7 -27 -4 -8 3 -17 5 -21 5 -4 0
-14 18 -21 39 -7 23 -10 54 -6 75 4 20 10 36 14 36z"/>
</g>
</svg>
