<?xml version="1.0" standalone="no"?>
<!DOCTYPE svg PUBLIC "-//W3C//DTD SVG 20010904//EN"
 "http://www.w3.org/TR/2001/REC-SVG-20010904/DTD/svg10.dtd">
<svg version="1.0" xmlns="http://www.w3.org/2000/svg"
 width="56.000000pt" height="56.000000pt" viewBox="0 0 56.000000 56.000000"
 preserveAspectRatio="xMidYMid meet">
<metadata>
Created by potrace 1.16, written by Peter Selinger 2001-2019
</metadata>
<g transform="translate(0.000000,56.000000) scale(0.100000,-0.100000)"
fill="#000000" stroke="none">
<path d="M306 560 c-9 0 -18 -21 -25 -63 -6 -35 -11 -79 -11 -98 0 -19 -5 -41
-10 -49 -8 -13 -12 -11 -26 8 -10 15 -24 22 -37 20 -19 -3 -22 -11 -25 -51 -2
-37 3 -58 22 -91 14 -24 32 -46 39 -49 9 -3 16 -25 19 -55 3 -27 14 -67 25
-88 17 -33 25 -39 56 -42 29 -3 37 1 42 19 4 13 7 47 7 75 0 36 -9 69 -27 106
-15 29 -34 61 -42 71 -10 10 -16 33 -15 56 1 22 6 51 12 66 5 14 10 58 10 96
0 52 -3 69 -14 69z m-88 -230 c4 0 13 -5 20 -12 7 -7 12 -28 12 -47 -1 -36 -1
-36 -20 -12 -11 13 -20 34 -20 47 0 13 4 24 8 24z m73 -112 c8 -2 22 -21 33
-41 10 -21 20 -56 23 -78 5 -36 4 -41 -13 -37 -10 2 -24 14 -30 28 -7 14 -15
49 -19 79 -6 43 -4 53 6 49z"/>
</g>
</svg>
