<?xml version="1.0" standalone="no"?>
<!DOCTYPE svg PUBLIC "-//W3C//DTD SVG 20010904//EN"
 "http://www.w3.org/TR/2001/REC-SVG-20010904/DTD/svg10.dtd">
<svg version="1.0" xmlns="http://www.w3.org/2000/svg"
 width="56.000000pt" height="56.000000pt" viewBox="0 0 56.000000 56.000000"
 preserveAspectRatio="xMidYMid meet">
<metadata>
Created by potrace 1.16, written by Peter Selinger 2001-2019
</metadata>
<g transform="translate(0.000000,56.000000) scale(0.100000,-0.100000)"
fill="#000000" stroke="none">
<path d="M308 560 c-33 0 -33 0 -30 -57 2 -32 -1 -76 -5 -98 -7 -33 -13 -41
-35 -43 -19 -2 -30 3 -38 18 -8 15 -8 30 0 54 6 18 7 42 4 52 -4 10 -14 27
-22 37 -8 9 -25 17 -38 17 -13 0 -26 -5 -30 -12 -4 -6 3 -19 15 -30 21 -16 22
-23 16 -76 -6 -58 -6 -58 34 -99 41 -40 41 -40 34 -105 -3 -42 -1 -79 7 -104
7 -21 24 -56 38 -77 22 -33 29 -37 65 -37 34 0 46 6 79 40 31 33 38 48 38 81
0 22 -8 52 -17 67 -9 15 -28 39 -42 55 -13 15 -31 27 -38 27 -7 0 -13 -6 -13
-14 0 -7 7 -19 16 -27 8 -7 22 -25 30 -40 8 -16 14 -41 14 -56 0 -15 -9 -43
-20 -60 -11 -18 -24 -33 -29 -33 -6 0 -21 15 -35 33 -13 17 -27 48 -31 68 -5
25 2 71 19 145 15 60 31 125 36 145 6 20 10 57 10 83 0 45 -1 46 -32 46z"/>
</g>
</svg>
