<?xml version="1.0" standalone="no"?>
<!DOCTYPE svg PUBLIC "-//W3C//DTD SVG 20010904//EN"
 "http://www.w3.org/TR/2001/REC-SVG-20010904/DTD/svg10.dtd">
<svg version="1.0" xmlns="http://www.w3.org/2000/svg"
 width="56.000000pt" height="56.000000pt" viewBox="0 0 56.000000 56.000000"
 preserveAspectRatio="xMidYMid meet">
<metadata>
Created by potrace 1.16, written by Peter Selinger 2001-2019
</metadata>
<g transform="translate(0.000000,56.000000) scale(0.100000,-0.100000)"
fill="#000000" stroke="none">
<path d="M289 560 c-15 0 -19 -7 -19 -31 0 -17 4 -38 9 -47 4 -10 4 -50 -1
-92 -6 -41 -14 -83 -19 -92 -5 -10 -9 -61 -9 -113 0 -58 5 -104 13 -118 6 -12
21 -32 31 -44 11 -13 29 -23 40 -23 12 0 28 6 37 13 9 7 24 27 34 46 15 30 16
40 5 75 -8 28 -29 56 -63 87 -47 42 -51 48 -41 70 6 13 17 37 23 52 6 15 11
48 11 73 0 25 -7 67 -16 95 -12 36 -21 49 -35 49z m36 -364 c13 -16 26 -41 28
-56 3 -15 3 -38 0 -51 -3 -13 -11 -30 -16 -37 -8 -11 -14 -8 -24 13 -8 14 -17
48 -20 75 -3 27 -2 57 1 67 7 16 10 15 31 -11z"/>
<path d="M152 452 c-9 9 -13 7 -18 -6 -4 -10 1 -25 11 -36 10 -11 28 -20 41
-20 13 0 25 4 28 9 4 5 3 16 0 25 -3 9 -16 16 -28 16 -12 0 -27 5 -34 12z"/>
<path d="M163 320 c-7 0 -13 -6 -13 -12 0 -7 4 -18 8 -23 4 -6 19 -16 34 -24
14 -7 31 -10 37 -7 6 4 11 13 11 21 0 7 -14 21 -32 29 -17 9 -37 16 -45 16z"/>
</g>
</svg>
