<?xml version="1.0" standalone="no"?>
<!DOCTYPE svg PUBLIC "-//W3C//DTD SVG 20010904//EN"
 "http://www.w3.org/TR/2001/REC-SVG-20010904/DTD/svg10.dtd">
<svg version="1.0" xmlns="http://www.w3.org/2000/svg"
 width="56.000000pt" height="56.000000pt" viewBox="0 0 56.000000 56.000000"
 preserveAspectRatio="xMidYMid meet">
<metadata>
Created by potrace 1.16, written by Peter Selinger 2001-2019
</metadata>
<g transform="translate(0.000000,56.000000) scale(0.100000,-0.100000)"
fill="#000000" stroke="none">
<path d="M264 560 c-11 0 -14 -18 -16 -72 -1 -40 -2 -80 -4 -88 -1 -8 -2 -20
-3 -26 -1 -6 -15 -29 -32 -50 -17 -22 -26 -40 -19 -42 6 -2 17 1 24 8 8 6 17
7 20 2 3 -5 1 -33 -3 -62 -5 -30 -5 -83 0 -119 6 -53 5 -71 -8 -90 -15 -24
-15 -24 42 -19 46 4 61 10 76 29 10 13 19 39 19 57 0 18 -6 43 -14 55 -11 16
-12 33 -6 62 4 22 11 54 15 71 6 27 2 37 -30 72 -26 29 -35 47 -30 61 3 11 1
49 -6 85 -7 44 -16 66 -25 66z m34 -260 c12 0 14 -12 9 -66 -2 -36 -9 -70 -15
-76 -5 -5 -12 -6 -15 -1 -3 4 -3 38 0 76 4 50 9 67 21 67z"/>
<path d="M345 560 c-15 0 -25 -6 -25 -14 0 -8 7 -17 16 -20 9 -3 20 -4 25 0 5
3 9 12 9 20 0 8 -10 14 -25 14z"/>
</g>
</svg>
