<?xml version="1.0" standalone="no"?>
<!DOCTYPE svg PUBLIC "-//W3C//DTD SVG 20010904//EN"
 "http://www.w3.org/TR/2001/REC-SVG-20010904/DTD/svg10.dtd">
<svg version="1.0" xmlns="http://www.w3.org/2000/svg"
 width="56.000000pt" height="56.000000pt" viewBox="0 0 56.000000 56.000000"
 preserveAspectRatio="xMidYMid meet">
<metadata>
Created by potrace 1.16, written by Peter Selinger 2001-2019
</metadata>
<g transform="translate(0.000000,56.000000) scale(0.100000,-0.100000)"
fill="#000000" stroke="none">
<path d="M295 560 c-6 0 -19 -16 -28 -36 -15 -30 -22 -35 -40 -30 -12 3 -42 9
-66 13 -44 6 -44 6 -17 -30 22 -29 25 -39 17 -56 -7 -11 -7 -22 -2 -25 5 -4
16 -3 25 0 9 3 16 9 16 13 0 4 11 13 25 19 13 6 26 8 28 4 2 -4 0 -47 -4 -96
-5 -49 -12 -93 -17 -98 -5 -5 -17 1 -28 13 -10 12 -26 44 -35 72 -9 28 -21 53
-27 55 -7 2 -12 -7 -12 -22 0 -14 6 -47 13 -73 9 -36 25 -60 69 -102 54 -51
57 -57 52 -90 -4 -28 -1 -42 16 -64 15 -19 30 -27 54 -27 17 0 52 10 76 22 35
18 46 29 48 51 2 16 -4 43 -12 61 -9 18 -22 39 -31 46 -8 7 -15 17 -15 23 0 5
-20 34 -45 63 -39 45 -45 58 -45 98 0 25 7 66 15 91 15 42 15 48 -2 75 -9 17
-22 30 -28 30z m51 -334 c17 -20 37 -36 43 -36 7 0 9 -5 6 -10 -4 -6 -1 -34 6
-61 12 -47 12 -52 -6 -65 -10 -8 -26 -14 -35 -14 -11 0 -22 24 -38 83 -12 45
-22 91 -22 103 0 11 3 24 8 28 4 4 21 -8 38 -28z"/>
</g>
</svg>
