<?xml version="1.0" standalone="no"?>
<!DOCTYPE svg PUBLIC "-//W3C//DTD SVG 20010904//EN"
 "http://www.w3.org/TR/2001/REC-SVG-20010904/DTD/svg10.dtd">
<svg version="1.0" xmlns="http://www.w3.org/2000/svg"
 width="128.000000pt" height="128.000000pt" viewBox="0 0 128.000000 128.000000"
 preserveAspectRatio="xMidYMid meet">
<metadata>
Created by potrace 1.16, written by Peter Selinger 2001-2019
</metadata>
<g transform="translate(0.000000,128.000000) scale(0.100000,-0.100000)"
fill="#000000" stroke="none">
<path d="M954 1250 c-24 0 -34 -5 -34 -15 0 -8 18 -31 40 -51 31 -28 39 -41
34 -59 -3 -13 2 -37 11 -55 14 -27 15 -34 3 -44 -7 -7 -33 -21 -58 -31 -25
-10 -60 -33 -78 -51 -19 -19 -31 -38 -27 -45 5 -7 23 -9 46 -6 22 3 42 1 45
-5 3 -5 3 -20 0 -33 -3 -13 -19 -36 -36 -51 -16 -16 -34 -41 -41 -56 -7 -18
-22 -29 -42 -35 -18 -4 -36 -8 -42 -8 -6 0 -10 31 -11 70 -1 39 3 79 9 90 5
11 9 35 9 54 -1 19 -9 59 -18 90 -8 30 -25 67 -36 81 -11 14 -26 40 -34 58 -7
19 -19 32 -26 30 -7 -3 -16 -20 -21 -39 -6 -27 -2 -49 23 -108 16 -41 30 -82
30 -92 0 -10 -12 -31 -27 -46 -16 -16 -41 -35 -57 -41 -22 -10 -35 -10 -61 -1
-28 11 -39 9 -79 -9 -25 -12 -62 -22 -81 -22 -23 0 -38 -6 -42 -15 -3 -9 3
-25 12 -35 13 -14 31 -20 59 -20 29 0 54 9 84 30 34 23 53 29 84 26 22 -2 43
-7 47 -12 5 -5 14 -30 21 -56 7 -25 10 -50 7 -55 -3 -4 -20 -15 -39 -24 -18
-9 -49 -21 -68 -28 -19 -7 -50 -16 -68 -21 -18 -4 -39 -14 -47 -20 -8 -7 -15
-23 -15 -37 0 -13 7 -26 16 -30 9 -3 26 5 42 19 15 14 44 31 65 38 28 9 42 9
50 1 7 -7 7 -18 -1 -36 -7 -14 -12 -35 -12 -45 0 -11 -12 -26 -29 -34 -16 -9
-49 -39 -74 -68 -24 -29 -47 -63 -51 -74 -4 -14 -1 -28 10 -38 12 -13 19 -14
30 -5 8 6 21 8 30 5 10 -4 14 -13 11 -26 -3 -10 1 -27 7 -36 7 -9 21 -14 32
-12 10 2 18 10 18 18 -1 8 -3 20 -4 25 -1 6 -2 25 -1 43 1 30 4 33 29 31 15
-2 35 2 46 8 17 9 15 11 -14 21 -25 9 -31 15 -25 29 5 10 10 35 13 56 2 21 12
43 23 50 10 7 23 26 29 41 5 15 10 38 10 52 0 17 11 31 39 49 28 19 46 24 65
19 18 -4 33 -1 44 9 10 9 47 17 94 20 47 3 89 12 107 23 29 17 31 17 50 0 11
-10 27 -16 36 -13 8 4 15 16 15 27 0 11 4 20 10 20 5 0 14 -9 20 -20 6 -11 19
-20 29 -20 10 0 24 7 31 15 6 8 13 29 13 47 2 28 -1 33 -20 30 -12 -2 -24 2
-28 8 -3 5 -14 10 -24 10 -10 0 -24 -6 -30 -14 -6 -7 -30 -16 -52 -20 -23 -4
-54 -13 -69 -21 -16 -8 -31 -11 -34 -6 -3 4 -17 6 -31 3 -20 -3 -25 0 -25 16
0 15 7 22 28 24 21 2 32 13 51 53 23 49 23 49 -5 72 -16 12 -25 26 -20 30 4 4
45 9 90 9 45 1 92 7 104 13 12 6 22 18 22 25 0 8 -8 24 -18 36 -16 20 -21 21
-41 11 -12 -7 -29 -10 -37 -7 -9 4 -14 21 -14 51 0 35 -7 57 -30 90 -16 24
-37 51 -46 59 -8 9 -31 16 -50 16z"/>
<path d="M335 1164 c-7 2 -21 -2 -32 -9 -10 -8 -30 -15 -44 -15 -14 0 -29 -3
-32 -7 -4 -3 2 -16 13 -28 20 -21 20 -23 4 -71 -9 -27 -28 -74 -42 -104 -14
-30 -38 -67 -54 -81 -15 -15 -36 -46 -47 -71 -10 -24 -26 -50 -36 -58 -10 -8
-28 -32 -41 -52 -16 -25 -24 -53 -24 -82 0 -25 4 -48 10 -51 5 -3 22 1 37 9
15 8 43 30 61 49 25 25 33 42 31 63 -1 16 6 44 17 63 10 18 29 47 41 65 12 17
39 56 60 86 21 30 44 73 52 95 7 22 26 54 42 70 28 30 28 30 13 77 -9 26 -22
49 -29 52z"/>
<path d="M1273 1070 c-5 0 -14 -4 -21 -9 -8 -5 -12 -23 -10 -47 2 -27 8 -40
21 -42 14 -3 17 4 17 47 0 28 -3 51 -7 51z"/>
<path d="M184 600 c-14 0 -24 -6 -24 -14 0 -7 6 -19 14 -25 10 -8 11 -21 4
-54 -5 -23 -11 -61 -15 -84 -4 -34 -2 -44 11 -49 9 -3 16 -12 16 -20 0 -12 -4
-12 -20 -2 -18 11 -23 10 -40 -12 -10 -14 -23 -52 -29 -84 -6 -33 -15 -64 -21
-70 -5 -5 -10 -21 -10 -33 0 -13 6 -36 14 -51 8 -15 26 -38 41 -52 22 -21 28
-22 35 -10 6 8 13 31 16 50 4 19 22 67 40 106 19 39 34 84 34 100 0 16 -7 39
-15 52 -12 16 -13 26 -5 41 5 11 18 25 28 30 14 8 15 14 6 28 -6 10 -15 42
-19 71 -4 29 -14 59 -22 67 -8 8 -25 15 -39 15z m-17 -370 c2 0 3 -11 3 -25 0
-14 -4 -25 -10 -25 -5 0 -10 8 -10 18 0 10 3 22 7 25 3 4 8 7 10 7z"/>
<path d="M366 600 c-3 0 -8 -4 -11 -10 -3 -5 -3 -14 0 -20 3 -5 17 -10 31 -10
13 0 24 4 24 10 0 5 -9 14 -19 20 -11 5 -22 10 -25 10z"/>
<path d="M964 520 c-17 0 -37 -7 -44 -15 -10 -12 -11 -18 -1 -28 7 -7 38 -12
69 -12 31 -1 65 -5 75 -9 9 -4 24 -5 33 -2 9 3 14 12 12 19 -3 6 -20 13 -38
15 -19 2 -43 10 -54 18 -11 8 -35 14 -52 14z"/>
<path d="M877 497 c-6 5 -20 8 -29 5 -10 -2 -18 -10 -18 -18 0 -8 10 -14 24
-14 14 0 27 4 30 9 3 5 0 13 -7 18z"/>
</g>
</svg>
