<?xml version="1.0" standalone="no"?>
<!DOCTYPE svg PUBLIC "-//W3C//DTD SVG 20010904//EN"
 "http://www.w3.org/TR/2001/REC-SVG-20010904/DTD/svg10.dtd">
<svg version="1.0" xmlns="http://www.w3.org/2000/svg"
 width="56.000000pt" height="56.000000pt" viewBox="0 0 56.000000 56.000000"
 preserveAspectRatio="xMidYMid meet">
<metadata>
Created by potrace 1.16, written by Peter Selinger 2001-2019
</metadata>
<g transform="translate(0.000000,56.000000) scale(0.100000,-0.100000)"
fill="#000000" stroke="none">
<path d="M200 480 c-10 0 -30 -15 -44 -33 -15 -19 -26 -38 -26 -43 0 -5 -7
-18 -15 -28 -12 -16 -17 -17 -30 -6 -8 7 -22 9 -31 6 -15 -6 -15 -9 4 -27 12
-11 22 -28 22 -39 0 -11 -14 -29 -30 -42 -19 -13 -34 -37 -41 -61 -8 -31 -8
-42 3 -49 7 -4 27 -7 43 -6 26 3 30 -1 33 -23 2 -15 12 -35 22 -44 17 -16 19
-16 29 2 6 13 6 33 1 59 -5 21 -10 49 -10 60 0 12 21 43 50 73 27 28 53 51 57
51 4 0 24 16 44 36 24 23 43 34 53 31 13 -5 16 -24 16 -100 0 -53 5 -104 13
-120 6 -14 21 -31 32 -36 11 -5 53 -13 93 -16 67 -7 72 -6 72 13 0 16 -9 20
-58 26 -32 4 -68 14 -81 22 -20 15 -22 23 -20 112 2 62 -2 105 -10 120 -8 16
-21 22 -44 22 -18 0 -43 -9 -57 -20 -14 -11 -30 -20 -36 -20 -6 0 -34 -23 -63
-50 -48 -46 -54 -49 -72 -36 -19 13 -19 14 -2 18 10 3 24 18 32 34 8 16 30 44
49 62 18 17 30 37 27 42 -3 6 -15 10 -25 10z"/>
<path d="M260 100 c-5 0 -12 -5 -15 -11 -4 -6 -4 -13 -1 -16 3 -3 12 -3 21 1
9 3 13 10 10 16 -3 5 -10 10 -15 10z"/>
</g>
</svg>
