<?xml version="1.0" standalone="no"?>
<!DOCTYPE svg PUBLIC "-//W3C//DTD SVG 20010904//EN"
 "http://www.w3.org/TR/2001/REC-SVG-20010904/DTD/svg10.dtd">
<svg version="1.0" xmlns="http://www.w3.org/2000/svg"
 width="56.000000pt" height="56.000000pt" viewBox="0 0 56.000000 56.000000"
 preserveAspectRatio="xMidYMid meet">
<metadata>
Created by potrace 1.16, written by Peter Selinger 2001-2019
</metadata>
<g transform="translate(0.000000,56.000000) scale(0.100000,-0.100000)"
fill="#000000" stroke="none">
<path d="M208 560 c-4 0 -8 -4 -8 -10 0 -5 -9 -10 -19 -10 -11 0 -22 -4 -26
-9 -3 -5 0 -13 6 -16 7 -5 3 -15 -11 -30 -19 -20 -20 -24 -6 -38 9 -8 21 -17
28 -19 9 -3 4 -18 -16 -48 -21 -32 -26 -48 -19 -59 5 -8 20 -23 34 -33 19 -14
32 -16 62 -9 37 9 38 9 35 -17 -2 -21 -14 -33 -56 -54 -30 -15 -62 -37 -73
-49 -11 -13 -17 -29 -14 -37 3 -7 5 -20 5 -27 0 -8 15 -21 33 -29 17 -8 42
-17 55 -21 12 -3 27 -15 32 -26 7 -12 21 -19 40 -19 19 0 30 5 30 14 0 7 -9
25 -21 40 -13 17 -30 26 -49 26 -15 0 -38 8 -51 18 -12 11 -20 25 -17 33 3 9
25 21 49 29 24 8 54 20 67 28 17 11 22 24 22 58 0 42 1 44 41 55 23 7 48 23
56 36 12 17 14 37 10 75 -5 41 -14 59 -43 89 -20 21 -42 35 -49 33 -6 -3 -22
-18 -34 -34 -15 -21 -22 -49 -26 -97 -2 -37 -5 -72 -5 -76 0 -5 -16 -7 -36 -5
-21 2 -41 10 -47 19 -7 12 -3 22 16 41 14 14 33 28 42 32 14 5 15 9 5 21 -7 8
-23 15 -37 15 -13 0 -26 7 -30 15 -3 9 -3 18 0 21 3 3 23 8 46 11 22 3 42 11
45 19 3 8 -8 19 -26 29 -17 8 -35 15 -40 15z m143 -90 c5 0 14 -12 19 -26 6
-14 10 -36 10 -49 0 -15 -10 -31 -25 -41 -14 -9 -28 -14 -31 -11 -4 3 -6 24
-6 46 0 22 6 49 12 60 6 12 15 21 21 21z"/>
</g>
</svg>
