<?xml version="1.0" standalone="no"?>
<!DOCTYPE svg PUBLIC "-//W3C//DTD SVG 20010904//EN"
 "http://www.w3.org/TR/2001/REC-SVG-20010904/DTD/svg10.dtd">
<svg version="1.0" xmlns="http://www.w3.org/2000/svg"
 width="56.000000pt" height="56.000000pt" viewBox="0 0 56.000000 56.000000"
 preserveAspectRatio="xMidYMid meet">
<metadata>
Created by potrace 1.16, written by Peter Selinger 2001-2019
</metadata>
<g transform="translate(0.000000,56.000000) scale(0.100000,-0.100000)"
fill="#000000" stroke="none">
<path d="M161 560 c-16 0 -31 -8 -39 -20 -10 -16 -10 -29 -1 -58 6 -21 9 -49
7 -62 -3 -22 -8 -25 -47 -25 -26 0 -46 -5 -48 -12 -3 -7 1 -21 7 -33 6 -12 19
-20 28 -19 9 1 23 1 30 0 9 -1 11 -8 6 -23 -3 -13 -22 -43 -42 -67 -19 -24
-41 -60 -48 -80 -7 -20 -13 -51 -14 -68 0 -20 5 -33 13 -33 6 1 25 19 40 41
15 22 33 39 40 36 7 -2 16 -32 20 -66 6 -38 14 -64 23 -68 8 -3 20 0 27 5 10
8 13 45 12 138 -1 127 -1 127 60 191 43 44 68 64 81 61 13 -2 18 -11 17 -28
-1 -14 -5 -50 -8 -81 -6 -54 -5 -57 26 -84 29 -23 38 -26 78 -20 25 3 65 15
89 27 23 12 42 27 42 35 0 8 -12 13 -33 13 -18 0 -37 -4 -42 -9 -6 -4 -27 -11
-47 -14 -27 -4 -42 -1 -53 9 -8 9 -15 18 -15 21 0 4 9 55 21 115 11 60 18 116
15 124 -4 11 -17 14 -43 12 -23 -2 -37 -8 -36 -15 2 -7 -21 -35 -50 -62 -28
-28 -57 -51 -63 -51 -6 0 -15 26 -19 58 -4 31 -7 69 -8 85 0 22 -4 27 -26 27z"/>
<path d="M383 40 c-26 0 -33 -4 -33 -20 0 -17 7 -20 52 -20 50 0 51 0 33 20
-11 12 -31 20 -52 20z"/>
</g>
</svg>
