<?xml version="1.0" standalone="no"?>
<!DOCTYPE svg PUBLIC "-//W3C//DTD SVG 20010904//EN"
 "http://www.w3.org/TR/2001/REC-SVG-20010904/DTD/svg10.dtd">
<svg version="1.0" xmlns="http://www.w3.org/2000/svg"
 width="56.000000pt" height="56.000000pt" viewBox="0 0 56.000000 56.000000"
 preserveAspectRatio="xMidYMid meet">
<metadata>
Created by potrace 1.16, written by Peter Selinger 2001-2019
</metadata>
<g transform="translate(0.000000,56.000000) scale(0.100000,-0.100000)"
fill="#000000" stroke="none">
<path d="M216 500 c-8 0 -22 -7 -30 -16 -9 -8 -16 -28 -16 -43 0 -15 -9 -36
-20 -46 -16 -15 -30 -17 -75 -11 -48 5 -55 4 -55 -12 0 -9 10 -24 22 -31 13
-8 40 -13 61 -12 23 2 37 -2 37 -9 0 -6 -13 -31 -29 -54 -17 -24 -46 -57 -65
-74 -29 -25 -36 -39 -36 -67 0 -23 5 -35 14 -35 8 0 16 3 18 8 2 4 20 22 41
40 21 17 44 32 52 32 10 0 15 -15 17 -52 2 -40 7 -54 20 -56 10 -2 22 8 31 25
9 17 11 36 6 48 -4 11 -8 37 -8 58 -1 33 7 46 52 95 28 31 65 69 82 86 25 25
30 27 33 13 2 -10 -3 -39 -12 -64 -9 -26 -16 -61 -16 -78 0 -17 7 -41 16 -53
12 -18 25 -22 69 -22 30 0 56 4 59 9 3 5 22 12 41 15 27 5 35 12 35 28 0 18
-4 19 -37 14 -21 -3 -57 -9 -80 -12 -38 -6 -43 -4 -43 12 1 11 9 44 20 74 11
30 19 69 20 86 0 20 -9 39 -25 54 -26 24 -26 24 -103 -53 -43 -42 -83 -77 -89
-77 -6 0 -13 5 -15 12 -3 7 0 35 5 63 5 27 13 56 19 62 6 7 8 20 4 28 -3 8
-12 15 -20 15z"/>
<path d="M384 128 c-11 2 -35 -8 -54 -20 -19 -13 -35 -28 -35 -33 0 -6 20 -11
45 -13 28 -2 52 3 65 12 16 12 18 18 9 33 -6 10 -20 19 -30 21z"/>
</g>
</svg>
