<?xml version="1.0" standalone="no"?>
<!DOCTYPE svg PUBLIC "-//W3C//DTD SVG 20010904//EN"
 "http://www.w3.org/TR/2001/REC-SVG-20010904/DTD/svg10.dtd">
<svg version="1.0" xmlns="http://www.w3.org/2000/svg"
 width="56.000000pt" height="56.000000pt" viewBox="0 0 56.000000 56.000000"
 preserveAspectRatio="xMidYMid meet">
<metadata>
Created by potrace 1.16, written by Peter Selinger 2001-2019
</metadata>
<g transform="translate(0.000000,56.000000) scale(0.100000,-0.100000)"
fill="#000000" stroke="none">
<path d="M254 530 c-8 0 -18 -10 -23 -23 -5 -13 -15 -68 -22 -122 -9 -78 -16
-102 -33 -117 -12 -10 -37 -33 -56 -52 -19 -20 -52 -55 -72 -79 -21 -24 -38
-51 -38 -60 0 -9 9 -21 20 -27 16 -9 26 -4 60 31 30 31 46 40 63 36 12 -3 33
-8 47 -12 15 -3 33 0 45 9 18 13 19 24 17 113 -3 98 -3 98 40 146 24 26 47 45
51 41 4 -4 7 -23 7 -42 0 -20 -5 -64 -11 -100 -8 -47 -8 -70 0 -88 6 -14 20
-28 31 -32 11 -4 46 -5 77 -2 42 4 58 9 58 20 0 9 -15 17 -44 22 -24 4 -50 13
-58 20 -11 9 -14 23 -9 53 3 22 8 60 12 85 4 31 1 57 -10 83 -12 28 -22 37
-40 37 -13 0 -41 -16 -62 -34 -22 -19 -41 -30 -43 -25 -2 6 2 30 9 54 7 24 9
48 5 54 -3 6 -13 11 -21 11z m-60 -323 c6 -2 11 -10 11 -18 0 -7 -8 -15 -17
-17 -10 -2 -18 3 -18 11 0 7 3 17 7 21 4 3 12 5 17 3z"/>
</g>
</svg>
