<?xml version="1.0" standalone="no"?>
<!DOCTYPE svg PUBLIC "-//W3C//DTD SVG 20010904//EN"
 "http://www.w3.org/TR/2001/REC-SVG-20010904/DTD/svg10.dtd">
<svg version="1.0" xmlns="http://www.w3.org/2000/svg"
 width="56.000000pt" height="56.000000pt" viewBox="0 0 56.000000 56.000000"
 preserveAspectRatio="xMidYMid meet">
<metadata>
Created by potrace 1.16, written by Peter Selinger 2001-2019
</metadata>
<g transform="translate(0.000000,56.000000) scale(0.100000,-0.100000)"
fill="#000000" stroke="none">
<path d="M216 560 c-35 0 -46 -4 -46 -16 0 -8 5 -24 10 -35 6 -10 19 -19 29
-19 10 0 23 6 29 13 5 6 13 22 16 35 7 21 4 22 -38 22z"/>
<path d="M298 560 c-5 0 -9 -3 -9 -7 -1 -5 -3 -25 -4 -46 -1 -20 -9 -45 -18
-55 -11 -13 -15 -40 -15 -112 0 -81 -3 -96 -19 -110 -10 -8 -27 -30 -36 -49
-9 -19 -17 -40 -17 -47 0 -7 10 -22 22 -34 12 -11 32 -20 45 -20 13 0 23 -3
23 -7 0 -5 -9 -19 -20 -33 -11 -14 -20 -28 -20 -32 0 -5 8 -8 17 -8 10 0 27
10 38 23 11 12 32 28 48 36 18 10 27 22 27 38 0 21 -4 23 -55 23 -42 0 -60 5
-75 20 -11 11 -20 24 -20 30 0 5 13 16 30 25 16 8 36 15 44 15 8 0 22 7 30 16
9 8 16 24 16 35 0 11 10 33 21 49 16 21 20 36 15 62 -3 18 -9 52 -12 74 -4 26
-2 44 5 48 6 4 11 14 11 22 0 11 -6 13 -20 9 -13 -4 -23 0 -32 14 -7 12 -16
21 -20 21z"/>
</g>
</svg>
