<?xml version="1.0" standalone="no"?>
<!DOCTYPE svg PUBLIC "-//W3C//DTD SVG 20010904//EN"
 "http://www.w3.org/TR/2001/REC-SVG-20010904/DTD/svg10.dtd">
<svg version="1.0" xmlns="http://www.w3.org/2000/svg"
 width="56.000000pt" height="56.000000pt" viewBox="0 0 56.000000 56.000000"
 preserveAspectRatio="xMidYMid meet">
<metadata>
Created by potrace 1.16, written by Peter Selinger 2001-2019
</metadata>
<g transform="translate(0.000000,56.000000) scale(0.100000,-0.100000)"
fill="#000000" stroke="none">
<path d="M308 540 c-7 0 -25 -10 -40 -20 -14 -11 -37 -42 -51 -68 -16 -30 -27
-72 -31 -116 -3 -38 -12 -76 -19 -85 -7 -9 -45 -53 -86 -98 -42 -48 -71 -90
-69 -100 2 -9 9 -18 16 -21 7 -2 28 12 48 32 20 20 38 36 40 36 3 0 19 -16 36
-35 17 -20 38 -35 46 -33 10 2 15 14 15 33 0 17 -1 45 -2 63 -1 29 -3 32 -21
22 -11 -6 -20 -17 -20 -25 0 -8 -6 -15 -14 -15 -8 0 -17 4 -20 8 -3 5 13 26
34 47 22 22 40 44 40 50 0 7 15 27 33 46 18 19 57 67 87 107 29 39 57 72 62
72 7 0 7 -14 2 -37 -5 -21 -9 -69 -9 -108 1 -38 4 -82 8 -97 4 -14 19 -40 33
-57 20 -25 34 -31 63 -31 21 0 41 3 44 7 4 3 0 15 -10 25 -9 10 -21 18 -28 18
-6 0 -22 11 -35 25 -17 18 -24 40 -27 77 -3 29 2 86 10 127 10 53 12 83 5 103
-7 18 -17 28 -30 28 -12 0 -30 -11 -42 -24 -11 -13 -50 -64 -86 -112 -65 -87
-65 -87 -68 -53 -2 20 6 56 18 83 11 27 34 61 50 76 17 15 30 33 30 39 0 6 -6
11 -12 11z"/>
<path d="M319 80 c-11 0 -22 -6 -25 -14 -3 -8 -4 -23 -2 -33 2 -12 14 -19 34
-21 19 -2 36 3 45 14 12 14 10 19 -10 35 -13 11 -32 19 -42 19z"/>
</g>
</svg>
