<?xml version="1.0" standalone="no"?>
<!DOCTYPE svg PUBLIC "-//W3C//DTD SVG 20010904//EN"
 "http://www.w3.org/TR/2001/REC-SVG-20010904/DTD/svg10.dtd">
<svg version="1.0" xmlns="http://www.w3.org/2000/svg"
 width="56.000000pt" height="56.000000pt" viewBox="0 0 56.000000 56.000000"
 preserveAspectRatio="xMidYMid meet">
<metadata>
Created by potrace 1.16, written by Peter Selinger 2001-2019
</metadata>
<g transform="translate(0.000000,56.000000) scale(0.100000,-0.100000)"
fill="#000000" stroke="none">
<path d="M196 490 c-7 0 -20 -8 -28 -17 -8 -10 -21 -39 -29 -65 -10 -38 -18
-48 -35 -48 -11 0 -24 -3 -27 -7 -4 -3 -3 -11 3 -18 6 -7 1 -29 -15 -64 -14
-29 -34 -65 -45 -81 -11 -15 -20 -38 -20 -49 0 -12 6 -21 13 -21 7 0 19 6 26
12 10 11 16 9 27 -7 7 -11 20 -29 27 -40 13 -16 17 -17 31 -6 12 11 16 33 16
102 0 49 6 110 12 136 7 27 25 72 40 101 16 30 25 58 22 63 -3 5 -11 9 -18 9z
m-106 -270 c5 0 10 -10 10 -22 0 -13 -5 -30 -10 -38 -6 -11 -12 -12 -20 -4 -7
7 -8 19 -1 37 6 15 15 27 21 27z"/>
<path d="M296 460 c-12 0 -26 -3 -29 -7 -4 -3 -7 -12 -7 -19 0 -6 11 -15 24
-18 18 -4 26 -17 35 -52 6 -25 9 -61 5 -80 -3 -19 -3 -50 0 -69 5 -24 15 -39
34 -49 15 -7 32 -12 37 -10 6 1 45 5 88 9 63 6 77 10 77 24 0 14 -9 16 -70 13
-41 -3 -82 1 -99 8 -29 12 -29 12 -29 100 1 75 -2 92 -21 119 -14 19 -31 31
-45 31z"/>
<path d="M218 140 c-8 0 -17 -3 -20 -6 -3 -3 1 -18 9 -35 8 -17 22 -29 34 -29
12 0 19 7 19 18 0 9 -7 25 -14 35 -7 9 -20 17 -28 17z"/>
</g>
</svg>
