<?xml version="1.0" standalone="no"?>
<!DOCTYPE svg PUBLIC "-//W3C//DTD SVG 20010904//EN"
 "http://www.w3.org/TR/2001/REC-SVG-20010904/DTD/svg10.dtd">
<svg version="1.0" xmlns="http://www.w3.org/2000/svg"
 width="56.000000pt" height="56.000000pt" viewBox="0 0 56.000000 56.000000"
 preserveAspectRatio="xMidYMid meet">
<metadata>
Created by potrace 1.16, written by Peter Selinger 2001-2019
</metadata>
<g transform="translate(0.000000,56.000000) scale(0.100000,-0.100000)"
fill="#000000" stroke="none">
<path d="M310 560 c-22 0 -40 -4 -40 -9 0 -5 -14 -14 -30 -21 -17 -7 -44 -25
-60 -40 -17 -16 -30 -34 -30 -42 0 -7 14 -19 31 -25 31 -12 31 -12 10 -46 -12
-19 -21 -44 -21 -57 0 -13 8 -24 20 -27 11 -3 20 -8 20 -12 0 -3 -7 -31 -17
-61 -12 -40 -26 -61 -48 -75 -16 -11 -31 -29 -33 -39 -2 -10 -1 -38 3 -62 6
-44 6 -44 122 -44 98 0 124 3 160 21 32 15 43 27 43 43 0 13 -3 25 -6 29 -3 3
-27 -4 -52 -15 -26 -11 -74 -24 -106 -28 -32 -5 -72 -6 -87 -3 -15 3 -31 12
-34 21 -4 10 1 22 11 29 10 7 29 13 43 13 14 0 46 14 71 30 25 16 62 41 83 55
20 15 37 32 37 39 0 7 -11 23 -24 35 -21 20 -25 35 -31 119 -4 54 -12 106 -17
116 -8 14 -6 21 6 28 9 5 16 13 16 18 0 6 -18 10 -40 10z m-43 -60 c1 0 7 -10
14 -21 6 -12 17 -72 24 -133 8 -70 9 -117 4 -128 -6 -10 -21 -18 -34 -18 -14
0 -25 2 -25 4 0 1 5 18 11 36 11 29 9 38 -12 76 -23 43 -23 43 -1 67 12 13 22
28 22 35 0 6 -9 16 -20 22 -11 6 -20 16 -20 22 0 6 8 17 18 24 9 7 18 14 19
14z"/>
</g>
</svg>
