<?xml version="1.0" standalone="no"?>
<!DOCTYPE svg PUBLIC "-//W3C//DTD SVG 20010904//EN"
 "http://www.w3.org/TR/2001/REC-SVG-20010904/DTD/svg10.dtd">
<svg version="1.0" xmlns="http://www.w3.org/2000/svg"
 width="56.000000pt" height="56.000000pt" viewBox="0 0 56.000000 56.000000"
 preserveAspectRatio="xMidYMid meet">
<metadata>
Created by potrace 1.16, written by Peter Selinger 2001-2019
</metadata>
<g transform="translate(0.000000,56.000000) scale(0.100000,-0.100000)"
fill="#000000" stroke="none">
<path d="M228 560 c-7 0 -23 -24 -36 -53 -17 -37 -22 -62 -17 -87 3 -19 9 -64
13 -100 4 -36 11 -71 16 -79 6 -9 21 -12 47 -8 33 4 39 2 39 -13 0 -10 -6 -22
-13 -28 -7 -6 -23 -9 -35 -5 -12 3 -33 2 -47 -1 -21 -5 -25 -12 -25 -45 0 -23
9 -51 23 -71 12 -18 38 -41 57 -51 19 -11 51 -19 70 -19 20 0 41 5 48 12 7 7
12 20 12 30 0 10 -4 18 -9 18 -6 0 -13 -5 -16 -10 -3 -6 -15 -10 -26 -10 -11
0 -37 11 -59 25 -21 14 -44 34 -50 45 -6 11 -8 25 -5 30 3 5 25 7 49 4 38 -6
45 -3 60 17 10 14 16 43 16 76 0 28 5 55 10 58 6 3 10 35 10 71 0 39 -6 77
-15 94 -9 17 -19 30 -23 30 -5 0 -13 -5 -20 -12 -7 -7 -12 -44 -12 -95 0 -66
-3 -85 -15 -90 -9 -3 -18 -3 -21 0 -3 3 -10 23 -16 44 -5 21 -11 49 -11 63 -2
19 3 26 21 28 12 2 22 10 22 19 0 8 -11 24 -25 35 -20 15 -23 23 -15 38 6 10
10 23 10 29 0 6 -6 11 -12 11z"/>
</g>
</svg>
