<?xml version="1.0" standalone="no"?>
<!DOCTYPE svg PUBLIC "-//W3C//DTD SVG 20010904//EN"
 "http://www.w3.org/TR/2001/REC-SVG-20010904/DTD/svg10.dtd">
<svg version="1.0" xmlns="http://www.w3.org/2000/svg"
 width="56.000000pt" height="56.000000pt" viewBox="0 0 56.000000 56.000000"
 preserveAspectRatio="xMidYMid meet">
<metadata>
Created by potrace 1.16, written by Peter Selinger 2001-2019
</metadata>
<g transform="translate(0.000000,56.000000) scale(0.100000,-0.100000)"
fill="#000000" stroke="none">
<path d="M242 560 c-10 0 -25 -14 -34 -32 -9 -18 -23 -58 -31 -88 -9 -30 -16
-62 -16 -70 0 -8 -6 -49 -13 -90 -7 -41 -19 -85 -26 -98 -7 -12 -21 -22 -30
-22 -10 0 -28 -7 -40 -16 -13 -9 -22 -26 -22 -40 0 -13 7 -27 16 -31 11 -4 24
5 41 26 13 17 29 31 34 31 5 0 9 -25 9 -55 0 -41 4 -57 16 -62 8 -3 21 0 27 6
7 7 12 45 13 92 0 81 0 81 80 158 43 42 92 94 108 114 16 20 34 37 39 37 6 0
8 -32 4 -81 -4 -63 -2 -90 11 -115 15 -33 15 -34 -14 -56 -16 -13 -60 -52 -99
-87 -38 -35 -71 -68 -73 -72 -2 -5 9 -9 25 -9 20 0 33 7 42 23 7 12 34 37 60
55 26 17 63 46 81 62 18 17 36 30 39 30 4 0 12 10 20 22 13 20 11 24 -19 50
-33 27 -33 27 -27 104 3 42 2 87 -4 100 -5 14 -16 27 -26 31 -9 4 -18 2 -21
-5 -2 -6 -49 -58 -104 -116 -55 -58 -104 -103 -109 -100 -5 3 -6 31 -3 62 3
31 15 84 25 117 11 33 24 68 29 77 6 10 10 25 10 33 0 8 -8 15 -18 15z"/>
</g>
</svg>
