<?xml version="1.0" standalone="no"?>
<!DOCTYPE svg PUBLIC "-//W3C//DTD SVG 20010904//EN"
 "http://www.w3.org/TR/2001/REC-SVG-20010904/DTD/svg10.dtd">
<svg version="1.0" xmlns="http://www.w3.org/2000/svg"
 width="56.000000pt" height="56.000000pt" viewBox="0 0 56.000000 56.000000"
 preserveAspectRatio="xMidYMid meet">
<metadata>
Created by potrace 1.16, written by Peter Selinger 2001-2019
</metadata>
<g transform="translate(0.000000,56.000000) scale(0.100000,-0.100000)"
fill="#000000" stroke="none">
<path d="M299 558 c-9 2 -19 -4 -22 -12 -4 -9 -2 -18 3 -21 6 -4 10 -15 10
-26 0 -10 -4 -19 -10 -19 -5 0 -14 9 -21 21 -8 15 -14 18 -22 10 -7 -7 -7 -18
2 -37 6 -14 9 -35 6 -45 -4 -11 -11 -19 -17 -19 -6 0 -9 -2 -6 -5 3 -3 17 0
32 6 20 9 29 10 38 1 8 -8 7 -13 -8 -18 -10 -3 -35 -14 -55 -25 -20 -10 -42
-19 -49 -19 -9 0 -8 6 3 18 10 10 17 22 17 25 0 4 -5 7 -11 7 -7 0 -27 -16
-45 -36 -19 -19 -34 -46 -34 -59 0 -15 7 -26 21 -30 12 -4 37 0 60 11 22 9 41
15 44 12 3 -2 -4 -21 -15 -42 -10 -21 -25 -46 -33 -55 -7 -9 -19 -29 -25 -44
-7 -15 -12 -43 -12 -61 0 -26 8 -41 35 -65 35 -30 38 -31 134 -31 74 0 102 4
111 14 6 8 10 25 8 38 -2 17 -9 23 -28 22 -14 -1 -46 -5 -72 -9 -30 -5 -64 -3
-92 5 -30 8 -47 20 -55 36 -9 20 -8 31 4 54 8 16 19 31 24 35 5 3 12 1 16 -5
3 -5 10 -10 15 -10 4 0 29 18 55 39 26 22 56 52 66 68 13 19 17 37 13 58 -3
17 -15 46 -26 65 -12 19 -26 60 -32 90 -7 37 -16 56 -27 58z"/>
</g>
</svg>
