<?xml version="1.0" standalone="no"?>
<!DOCTYPE svg PUBLIC "-//W3C//DTD SVG 20010904//EN"
 "http://www.w3.org/TR/2001/REC-SVG-20010904/DTD/svg10.dtd">
<svg version="1.0" xmlns="http://www.w3.org/2000/svg"
 width="56.000000pt" height="56.000000pt" viewBox="0 0 56.000000 56.000000"
 preserveAspectRatio="xMidYMid meet">
<metadata>
Created by potrace 1.16, written by Peter Selinger 2001-2019
</metadata>
<g transform="translate(0.000000,56.000000) scale(0.100000,-0.100000)"
fill="#000000" stroke="none">
<path d="M346 560 c-20 0 -36 -4 -36 -9 0 -6 5 -13 10 -16 6 -3 10 -17 10 -31
0 -13 -3 -24 -7 -24 -5 0 -27 10 -50 22 -23 12 -46 19 -50 14 -4 -4 4 -17 20
-28 27 -20 27 -20 -13 -49 -22 -16 -40 -35 -40 -43 0 -7 12 -21 26 -31 22 -14
24 -21 18 -48 -3 -18 -13 -41 -20 -52 -8 -11 -14 -35 -14 -54 0 -19 -7 -42
-16 -52 -8 -9 -16 -31 -16 -48 -1 -20 7 -40 22 -56 17 -18 34 -25 62 -25 27 0
38 -4 38 -15 0 -8 7 -15 16 -15 8 0 24 5 35 10 10 6 19 17 19 25 0 7 -12 23
-26 34 -18 14 -34 18 -54 14 -16 -3 -41 -2 -55 1 -21 5 -26 12 -23 34 3 24 8
27 42 29 21 1 45 8 53 14 8 7 21 25 29 41 8 15 21 28 29 28 9 0 14 11 15 28 0
15 3 89 6 165 6 137 6 137 -30 137z m-48 -130 c24 0 24 -1 20 -76 -3 -65 -7
-79 -27 -95 -13 -11 -26 -18 -28 -15 -3 2 4 30 13 61 18 55 18 58 0 71 -10 7
-24 15 -30 18 -7 3 -3 11 8 20 11 9 31 16 44 16z"/>
</g>
</svg>
