<?xml version="1.0" standalone="no"?>
<!DOCTYPE svg PUBLIC "-//W3C//DTD SVG 20010904//EN"
 "http://www.w3.org/TR/2001/REC-SVG-20010904/DTD/svg10.dtd">
<svg version="1.0" xmlns="http://www.w3.org/2000/svg"
 width="56.000000pt" height="56.000000pt" viewBox="0 0 56.000000 56.000000"
 preserveAspectRatio="xMidYMid meet">
<metadata>
Created by potrace 1.16, written by Peter Selinger 2001-2019
</metadata>
<g transform="translate(0.000000,56.000000) scale(0.100000,-0.100000)"
fill="#000000" stroke="none">
<path d="M73 497 c-7 3 -16 -3 -19 -12 -4 -9 -1 -35 6 -58 6 -23 16 -50 21
-60 7 -12 3 -28 -11 -55 -12 -20 -32 -55 -45 -77 -17 -27 -25 -55 -25 -85 0
-25 7 -55 16 -68 8 -12 21 -22 27 -22 7 0 18 15 26 33 8 17 22 44 32 58 10 14
23 54 28 87 5 34 13 67 16 72 3 6 26 10 51 10 30 0 50 -6 63 -19 11 -11 25
-39 32 -63 6 -24 12 -54 14 -67 1 -14 13 -33 25 -43 18 -14 40 -18 110 -18 49
0 95 3 104 6 9 3 16 11 16 18 0 7 -20 13 -51 14 -28 1 -67 9 -86 18 -19 9 -45
31 -59 49 -13 18 -24 45 -24 63 0 18 -10 42 -23 58 -20 23 -32 27 -70 27 -26
-1 -64 -4 -85 -8 -38 -6 -38 -6 -52 37 -7 24 -18 48 -22 55 -5 6 -8 19 -6 29
2 9 -3 19 -9 21z m15 -245 c1 -5 -8 -37 -21 -72 -18 -48 -25 -59 -34 -48 -8 9
-8 23 2 51 7 21 21 47 31 58 10 11 20 16 22 11z"/>
</g>
</svg>
