<?xml version="1.0" standalone="no"?>
<!DOCTYPE svg PUBLIC "-//W3C//DTD SVG 20010904//EN"
 "http://www.w3.org/TR/2001/REC-SVG-20010904/DTD/svg10.dtd">
<svg version="1.0" xmlns="http://www.w3.org/2000/svg"
 width="56.000000pt" height="56.000000pt" viewBox="0 0 56.000000 56.000000"
 preserveAspectRatio="xMidYMid meet">
<metadata>
Created by potrace 1.16, written by Peter Selinger 2001-2019
</metadata>
<g transform="translate(0.000000,56.000000) scale(0.100000,-0.100000)"
fill="#000000" stroke="none">
<path d="M230 500 c-25 0 -33 -6 -47 -35 -9 -19 -14 -37 -11 -41 3 -3 24 7 47
23 22 15 40 34 41 41 0 7 -12 12 -30 12z"/>
<path d="M355 449 c-5 0 -24 -8 -40 -17 -17 -9 -61 -48 -99 -85 -69 -68 -70
-68 -82 -45 -11 20 -9 27 12 55 17 22 21 34 13 39 -7 4 -18 -1 -26 -12 -7 -10
-20 -27 -27 -36 -9 -10 -23 -14 -35 -11 -14 3 -21 1 -21 -8 0 -8 9 -20 20 -27
11 -7 20 -21 20 -33 0 -11 -20 -42 -45 -68 -25 -26 -45 -55 -45 -63 0 -8 6
-22 13 -32 12 -16 14 -16 31 3 11 12 25 21 31 21 8 0 12 -14 11 -37 -1 -29 3
-38 18 -41 10 -2 22 2 27 10 5 7 9 44 9 82 0 70 0 70 101 169 55 54 106 96
112 94 7 -2 15 -21 19 -43 4 -21 7 -63 7 -92 1 -30 8 -70 17 -89 10 -19 27
-41 39 -49 12 -8 38 -14 56 -13 19 1 42 4 52 6 9 2 17 11 17 19 0 10 -12 14
-38 14 -28 0 -45 7 -61 24 -19 21 -22 35 -24 126 -2 103 -2 103 -37 121 -19
11 -39 19 -45 18z"/>
<path d="M254 90 c-6 6 -13 7 -17 4 -4 -4 -7 -16 -7 -26 0 -15 8 -18 60 -18
47 0 60 3 60 15 0 11 -11 15 -43 15 -24 0 -48 5 -53 10z"/>
</g>
</svg>
