<?xml version="1.0" standalone="no"?>
<!DOCTYPE svg PUBLIC "-//W3C//DTD SVG 20010904//EN"
 "http://www.w3.org/TR/2001/REC-SVG-20010904/DTD/svg10.dtd">
<svg version="1.0" xmlns="http://www.w3.org/2000/svg"
 width="56.000000pt" height="56.000000pt" viewBox="0 0 56.000000 56.000000"
 preserveAspectRatio="xMidYMid meet">
<metadata>
Created by potrace 1.16, written by Peter Selinger 2001-2019
</metadata>
<g transform="translate(0.000000,56.000000) scale(0.100000,-0.100000)"
fill="#000000" stroke="none">
<path d="M310 560 c-41 0 -50 -3 -50 -18 0 -10 -13 -29 -28 -42 -22 -20 -30
-38 -36 -79 -5 -35 -3 -58 4 -67 7 -7 9 -26 5 -43 -4 -17 -21 -41 -41 -56 -31
-23 -34 -31 -34 -76 0 -27 6 -59 13 -72 6 -12 18 -30 26 -39 8 -10 22 -18 33
-18 10 0 18 -3 18 -6 0 -3 -5 -14 -10 -25 -6 -10 -9 -19 -7 -19 2 0 23 6 48
14 24 8 70 17 102 21 37 4 60 12 64 21 3 8 0 20 -6 28 -7 8 -20 16 -31 19 -10
3 -31 -1 -46 -9 -14 -8 -49 -14 -76 -14 -27 0 -55 6 -62 13 -7 7 -18 29 -25
49 -10 29 -10 42 0 60 7 13 17 26 23 30 6 4 21 8 33 8 13 0 36 17 57 41 19 23
42 57 52 76 9 20 16 45 16 57 0 12 -5 41 -12 66 -9 38 -9 46 4 56 9 6 16 14
16 18 0 3 -22 6 -50 6z m-15 -70 c11 0 15 -12 15 -49 0 -31 -5 -53 -15 -61
-13 -11 -15 -5 -15 49 0 48 3 61 15 61z m-50 -70 c3 0 5 -15 5 -32 -1 -28 -2
-30 -11 -15 -6 10 -8 25 -5 33 3 8 8 14 11 14z"/>
</g>
</svg>
