<?xml version="1.0" standalone="no"?>
<!DOCTYPE svg PUBLIC "-//W3C//DTD SVG 20010904//EN"
 "http://www.w3.org/TR/2001/REC-SVG-20010904/DTD/svg10.dtd">
<svg version="1.0" xmlns="http://www.w3.org/2000/svg"
 width="56.000000pt" height="56.000000pt" viewBox="0 0 56.000000 56.000000"
 preserveAspectRatio="xMidYMid meet">
<metadata>
Created by potrace 1.16, written by Peter Selinger 2001-2019
</metadata>
<g transform="translate(0.000000,56.000000) scale(0.100000,-0.100000)"
fill="#000000" stroke="none">
<path d="M206 560 c-28 0 -35 -4 -40 -26 -5 -17 1 -43 18 -79 25 -54 25 -54
-6 -80 -19 -16 -28 -31 -24 -41 5 -13 12 -11 41 12 20 15 40 35 46 46 5 10 19
18 31 18 20 0 20 -4 15 -59 -4 -34 -2 -73 4 -90 9 -25 8 -36 -5 -56 -12 -19
-25 -25 -51 -25 -23 0 -35 5 -35 13 0 8 9 22 20 32 11 10 19 23 17 29 -2 6 2
17 10 24 7 8 11 18 8 23 -4 5 -24 9 -46 9 -21 0 -39 -5 -39 -10 0 -6 11 -15
25 -20 14 -5 25 -14 25 -19 0 -5 -11 -16 -24 -24 -15 -10 -25 -29 -30 -56 -4
-28 -18 -54 -42 -79 -24 -25 -34 -45 -32 -61 2 -18 12 -27 33 -33 17 -5 86 -7
153 -3 80 3 134 11 153 20 16 9 29 22 29 30 0 7 -4 16 -9 19 -5 4 -29 -3 -54
-13 -24 -11 -74 -22 -111 -26 -36 -4 -69 -11 -72 -16 -3 -5 -19 0 -35 11 -24
18 -27 25 -19 41 6 10 17 19 24 19 7 0 44 14 82 31 38 17 84 42 102 56 17 13
32 30 32 38 0 8 -8 19 -18 24 -13 7 -23 6 -30 -1 -7 -7 -13 -10 -13 -8 -1 3
-3 23 -4 45 -1 22 -5 80 -9 129 -5 49 -13 98 -19 108 -7 10 -17 18 -24 18 -9
0 -13 -16 -13 -46 0 -46 0 -46 -29 -22 -16 13 -32 28 -35 35 -2 6 4 21 15 34
10 12 19 24 19 26 0 1 -15 3 -34 3z"/>
</g>
</svg>
