<?xml version="1.0" standalone="no"?>
<!DOCTYPE svg PUBLIC "-//W3C//DTD SVG 20010904//EN"
 "http://www.w3.org/TR/2001/REC-SVG-20010904/DTD/svg10.dtd">
<svg version="1.0" xmlns="http://www.w3.org/2000/svg"
 width="56.000000pt" height="56.000000pt" viewBox="0 0 56.000000 56.000000"
 preserveAspectRatio="xMidYMid meet">
<metadata>
Created by potrace 1.16, written by Peter Selinger 2001-2019
</metadata>
<g transform="translate(0.000000,56.000000) scale(0.100000,-0.100000)"
fill="#000000" stroke="none">
<path d="M101 560 c-23 0 -30 -5 -33 -25 -3 -14 0 -29 7 -35 8 -7 18 -1 33 20
12 16 22 32 22 35 0 3 -13 5 -29 5z"/>
<path d="M264 560 c-13 0 -15 -6 -10 -30 3 -16 9 -43 12 -60 4 -20 2 -30 -5
-30 -7 0 -30 9 -51 20 -22 11 -40 27 -40 35 0 8 -6 15 -14 15 -8 0 -16 -6 -19
-12 -2 -7 0 -22 6 -33 5 -11 20 -32 34 -46 24 -26 24 -26 4 -60 -12 -19 -21
-43 -21 -55 0 -11 9 -29 19 -38 18 -16 18 -20 3 -57 -8 -22 -37 -62 -64 -89
-49 -49 -49 -50 -33 -80 8 -16 25 -32 38 -35 12 -3 96 -4 187 -3 140 3 165 5
168 19 2 9 -11 23 -31 34 -33 18 -37 18 -106 1 -46 -11 -86 -15 -115 -11 -25
4 -53 13 -63 21 -16 12 -16 15 -3 24 8 5 35 17 60 26 25 9 68 25 95 36 28 11
57 24 65 28 8 4 16 19 18 33 3 21 -2 27 -35 37 -21 7 -44 19 -50 28 -8 9 -11
31 -7 56 3 23 10 72 16 110 10 67 10 69 -15 92 -15 13 -34 24 -43 24z m-18
-210 c8 0 14 -9 14 -20 0 -11 -6 -20 -13 -20 -8 0 -16 3 -20 6 -3 3 -3 12 0
20 3 8 11 14 19 14z"/>
</g>
</svg>
