<?xml version="1.0" standalone="no"?>
<!DOCTYPE svg PUBLIC "-//W3C//DTD SVG 20010904//EN"
 "http://www.w3.org/TR/2001/REC-SVG-20010904/DTD/svg10.dtd">
<svg version="1.0" xmlns="http://www.w3.org/2000/svg"
 width="56.000000pt" height="56.000000pt" viewBox="0 0 56.000000 56.000000"
 preserveAspectRatio="xMidYMid meet">
<metadata>
Created by potrace 1.16, written by Peter Selinger 2001-2019
</metadata>
<g transform="translate(0.000000,56.000000) scale(0.100000,-0.100000)"
fill="#000000" stroke="none">
<path d="M318 560 c-17 0 -29 -9 -39 -27 -8 -16 -16 -30 -19 -33 -3 -3 -13
-20 -22 -39 -10 -22 -13 -42 -8 -55 4 -12 5 -35 3 -53 -3 -17 -1 -39 4 -48 7
-11 1 -33 -19 -76 -15 -32 -33 -59 -38 -59 -6 0 -10 -17 -9 -37 0 -21 8 -51
17 -67 10 -16 33 -37 52 -47 19 -11 51 -19 72 -19 20 0 43 3 52 6 9 3 16 12
16 20 0 10 -13 14 -41 14 -28 0 -52 8 -79 27 -20 15 -42 41 -49 58 -10 26 -9
32 11 47 13 10 39 18 59 18 21 0 44 8 57 20 12 12 22 27 22 34 0 7 -9 31 -20
53 -14 30 -20 65 -21 136 -2 66 2 101 11 112 11 13 9 15 -12 15z m-44 -190
c10 0 16 -9 16 -21 0 -12 -5 -19 -12 -17 -7 3 -14 12 -16 21 -2 10 3 17 12 17z
m19 -99 c5 -5 7 -17 4 -25 -4 -9 -13 -16 -21 -16 -13 0 -14 4 -4 25 7 16 15
22 21 16z"/>
</g>
</svg>
