<?xml version="1.0" standalone="no"?>
<!DOCTYPE svg PUBLIC "-//W3C//DTD SVG 20010904//EN"
 "http://www.w3.org/TR/2001/REC-SVG-20010904/DTD/svg10.dtd">
<svg version="1.0" xmlns="http://www.w3.org/2000/svg"
 width="56.000000pt" height="56.000000pt" viewBox="0 0 56.000000 56.000000"
 preserveAspectRatio="xMidYMid meet">
<metadata>
Created by potrace 1.16, written by Peter Selinger 2001-2019
</metadata>
<g transform="translate(0.000000,56.000000) scale(0.100000,-0.100000)"
fill="#000000" stroke="none">
<path d="M261 560 c-20 0 -31 -6 -35 -17 -3 -10 -8 -39 -12 -65 -5 -36 -11
-49 -28 -54 -11 -3 -31 -16 -43 -27 -21 -19 -24 -19 -41 -4 -17 16 -19 14 -40
-25 -14 -29 -18 -45 -10 -49 6 -4 17 -5 24 -2 6 2 15 -1 19 -7 4 -7 21 4 46
31 29 31 42 40 50 32 8 -8 8 -20 1 -41 -6 -18 -6 -35 0 -46 8 -14 5 -19 -12
-23 -15 -4 -20 -11 -17 -25 4 -14 1 -18 -8 -14 -8 3 -25 -8 -39 -25 -14 -16
-23 -35 -21 -42 3 -6 -13 -25 -35 -41 -30 -23 -40 -37 -40 -58 0 -17 7 -31 16
-35 8 -3 25 4 40 17 13 13 24 28 24 34 0 6 9 17 21 24 18 11 24 11 40 -4 10
-9 19 -25 19 -35 0 -12 10 -21 26 -25 14 -4 30 -2 36 4 6 6 10 58 9 129 -2 92
2 122 13 138 9 11 16 27 16 35 0 9 8 16 18 17 9 1 27 4 40 8 20 7 22 4 22 -30
0 -20 -5 -78 -11 -130 -8 -68 -8 -98 0 -114 7 -11 22 -28 36 -37 16 -11 34
-13 59 -8 21 3 36 12 36 20 0 8 -8 14 -19 14 -10 0 -24 6 -30 14 -7 8 -17 41
-23 74 -10 54 -9 69 10 134 12 40 22 87 22 104 0 26 -6 34 -39 49 -39 17 -39
17 -80 -24 -23 -23 -45 -41 -51 -41 -5 0 -12 10 -15 23 -4 12 -2 35 4 49 5 14
7 28 4 31 -3 3 2 16 11 29 9 12 16 26 16 30 0 5 -13 8 -29 8z m-56 -371 c11 0
14 -3 8 -6 -7 -2 -13 -14 -13 -26 0 -12 -4 -28 -8 -35 -5 -7 -16 -10 -25 -6
-9 3 -17 15 -17 26 0 12 8 27 18 34 9 7 26 13 37 13z"/>
<path d="M518 106 c-3 2 -11 -2 -17 -10 -8 -10 -9 -16 -1 -21 5 -3 13 1 16 10
4 9 4 18 2 21z"/>
</g>
</svg>
