<?xml version="1.0" standalone="no"?>
<!DOCTYPE svg PUBLIC "-//W3C//DTD SVG 20010904//EN"
 "http://www.w3.org/TR/2001/REC-SVG-20010904/DTD/svg10.dtd">
<svg version="1.0" xmlns="http://www.w3.org/2000/svg"
 width="56.000000pt" height="56.000000pt" viewBox="0 0 56.000000 56.000000"
 preserveAspectRatio="xMidYMid meet">
<metadata>
Created by potrace 1.16, written by Peter Selinger 2001-2019
</metadata>
<g transform="translate(0.000000,56.000000) scale(0.100000,-0.100000)"
fill="#000000" stroke="none">
<path d="M195 560 c-23 0 -25 -4 -23 -33 1 -18 -7 -47 -18 -66 -19 -33 -19
-33 10 -57 29 -25 29 -25 7 -54 -11 -16 -21 -33 -21 -38 0 -5 9 -17 20 -27 15
-14 29 -16 62 -11 43 6 43 6 3 -30 -22 -19 -55 -49 -72 -66 -22 -20 -33 -39
-33 -58 0 -18 11 -39 29 -58 16 -16 45 -36 64 -46 19 -9 57 -16 85 -16 30 0
54 5 61 14 7 8 8 16 4 19 -4 3 -33 8 -63 12 -30 4 -67 14 -82 21 -15 8 -32 23
-38 33 -5 11 -10 24 -10 29 0 5 12 21 26 36 15 14 35 26 44 26 10 0 25 11 34
25 9 13 16 38 16 54 0 25 7 34 39 51 22 11 49 33 61 50 15 21 19 35 12 43 -5
7 -13 27 -17 44 -3 18 -11 36 -17 39 -6 4 -26 -9 -44 -29 -22 -23 -36 -51 -40
-78 -6 -33 -13 -43 -40 -57 -19 -8 -37 -12 -41 -8 -5 4 4 18 20 31 15 13 27
29 27 34 0 6 -19 21 -42 33 -43 23 -43 23 -5 26 27 2 37 8 37 21 0 9 -7 26
-15 37 -8 10 -15 27 -15 37 0 11 -8 17 -25 17z"/>
</g>
</svg>
