<?xml version="1.0" standalone="no"?>
<!DOCTYPE svg PUBLIC "-//W3C//DTD SVG 20010904//EN"
 "http://www.w3.org/TR/2001/REC-SVG-20010904/DTD/svg10.dtd">
<svg version="1.0" xmlns="http://www.w3.org/2000/svg"
 width="56.000000pt" height="56.000000pt" viewBox="0 0 56.000000 56.000000"
 preserveAspectRatio="xMidYMid meet">
<metadata>
Created by potrace 1.16, written by Peter Selinger 2001-2019
</metadata>
<g transform="translate(0.000000,56.000000) scale(0.100000,-0.100000)"
fill="#000000" stroke="none">
<path d="M167 560 c-21 0 -36 -7 -45 -20 -6 -11 -12 -48 -12 -82 0 -40 -7 -78
-20 -105 -10 -24 -23 -43 -28 -43 -4 0 -18 -9 -30 -20 -14 -14 -22 -33 -22
-55 0 -19 4 -37 10 -40 5 -3 21 6 34 20 14 15 29 24 34 21 5 -3 12 -28 15 -56
3 -28 9 -55 13 -61 4 -7 13 -4 25 7 16 14 19 32 19 103 1 60 5 92 15 105 13
17 13 22 0 42 -8 13 -15 41 -15 63 0 22 5 52 12 66 6 14 15 25 20 25 4 0 8 7
8 15 0 10 -10 15 -33 15z"/>
<path d="M370 520 c-5 0 -12 -5 -15 -10 -4 -6 5 -24 19 -41 21 -24 26 -42 27
-87 1 -31 0 -61 -1 -67 -2 -5 -5 -24 -8 -42 -3 -25 3 -41 27 -72 17 -21 31
-43 31 -48 0 -5 -17 -19 -39 -31 -21 -12 -44 -22 -51 -22 -6 0 -25 -14 -42
-30 -18 -18 -40 -30 -56 -30 -15 0 -35 -7 -44 -14 -10 -7 -18 -16 -18 -20 0
-3 20 -6 45 -6 25 0 47 5 52 13 4 7 28 23 53 36 25 12 71 37 102 54 32 18 66
40 75 50 14 13 15 21 7 35 -6 9 -23 23 -37 30 -15 7 -34 27 -43 44 -13 25 -14
38 -5 68 6 21 11 62 11 92 0 53 -1 55 -41 76 -22 12 -45 22 -49 22z"/>
</g>
</svg>
