<?xml version="1.0" standalone="no"?>
<!DOCTYPE svg PUBLIC "-//W3C//DTD SVG 20010904//EN"
 "http://www.w3.org/TR/2001/REC-SVG-20010904/DTD/svg10.dtd">
<svg version="1.0" xmlns="http://www.w3.org/2000/svg"
 width="56.000000pt" height="56.000000pt" viewBox="0 0 56.000000 56.000000"
 preserveAspectRatio="xMidYMid meet">
<metadata>
Created by potrace 1.16, written by Peter Selinger 2001-2019
</metadata>
<g transform="translate(0.000000,56.000000) scale(0.100000,-0.100000)"
fill="#000000" stroke="none">
<path d="M106 560 c-9 0 -16 -7 -16 -16 0 -9 5 -14 12 -12 6 2 14 10 16 16 2
7 -3 12 -12 12z"/>
<path d="M251 560 c-5 0 -12 -8 -15 -17 -4 -10 -1 -22 6 -28 8 -5 12 -18 10
-28 -3 -15 -12 -17 -50 -15 -42 3 -47 1 -50 -19 -3 -21 1 -23 36 -23 32 0 41
-4 50 -25 7 -14 12 -37 12 -50 0 -14 -1 -25 -3 -25 -1 0 -16 4 -34 9 -27 8
-35 6 -54 -15 -18 -19 -19 -24 -7 -29 8 -3 19 -5 24 -4 5 1 15 1 23 0 11 -1
10 -6 -3 -26 -13 -20 -14 -25 -2 -25 7 0 19 7 26 15 7 8 17 15 22 15 5 0 8
-12 6 -27 -3 -26 -7 -28 -45 -28 -22 0 -45 -3 -49 -7 -4 -5 1 -17 12 -29 17
-19 17 -22 2 -32 -9 -7 -30 -20 -47 -29 -18 -10 -31 -25 -31 -36 0 -11 12 -31
26 -46 15 -14 29 -26 33 -27 3 0 72 -1 153 -2 112 -2 149 0 152 10 3 7 -10 24
-28 38 -18 14 -38 25 -45 25 -6 0 -23 -8 -38 -17 -18 -12 -48 -17 -104 -18
-48 0 -83 5 -90 12 -9 9 -8 17 4 36 12 19 29 27 69 32 30 4 58 15 65 24 7 9
13 26 13 37 0 14 8 24 22 27 22 6 22 6 -6 32 -23 22 -26 30 -20 58 4 17 7 73
7 124 -1 78 -4 94 -22 112 -12 12 -25 21 -30 21z"/>
</g>
</svg>
