<?xml version="1.0" standalone="no"?>
<!DOCTYPE svg PUBLIC "-//W3C//DTD SVG 20010904//EN"
 "http://www.w3.org/TR/2001/REC-SVG-20010904/DTD/svg10.dtd">
<svg version="1.0" xmlns="http://www.w3.org/2000/svg"
 width="56.000000pt" height="56.000000pt" viewBox="0 0 56.000000 56.000000"
 preserveAspectRatio="xMidYMid meet">
<metadata>
Created by potrace 1.16, written by Peter Selinger 2001-2019
</metadata>
<g transform="translate(0.000000,56.000000) scale(0.100000,-0.100000)"
fill="#000000" stroke="none">
<path d="M312 560 c-10 -1 -38 -31 -64 -67 -27 -36 -48 -72 -48 -79 0 -7 4
-15 9 -19 6 -3 4 -21 -4 -45 -10 -29 -11 -41 -2 -48 7 -5 17 -11 24 -13 9 -3
9 -10 -2 -29 -8 -14 -20 -35 -26 -48 -10 -17 -10 -25 0 -35 9 -9 16 -9 31 1
12 7 20 8 20 2 0 -5 14 -10 30 -10 18 0 33 6 36 15 4 8 14 15 23 15 9 0 27 7
39 16 12 8 22 18 22 22 0 4 -13 22 -29 41 -22 26 -28 42 -25 65 2 17 7 46 10
64 4 21 1 43 -7 58 -8 16 -20 24 -33 22 -16 -2 -22 -12 -24 -35 -2 -21 -9 -33
-18 -33 -8 0 -17 7 -21 16 -4 10 7 28 29 50 20 19 38 43 41 54 4 14 0 20 -11
20z m-21 -170 c4 0 11 -19 14 -43 4 -23 5 -58 3 -76 -2 -19 -10 -39 -19 -44
-9 -6 -24 -7 -34 -3 -16 6 -15 9 9 31 14 13 26 27 26 30 0 3 -12 17 -27 31
-26 24 -26 24 -3 49 13 14 27 25 31 25z"/>
<path d="M176 150 c-7 0 -19 -6 -25 -13 -6 -8 -13 -27 -17 -43 -3 -17 0 -36 9
-48 11 -15 27 -18 90 -19 57 0 77 -4 77 -14 0 -8 12 -13 35 -13 19 0 35 4 35
9 0 5 9 11 20 14 13 3 20 14 20 30 0 18 -8 28 -29 36 -23 10 -35 9 -66 -3 -21
-9 -58 -16 -83 -16 -28 0 -52 6 -63 16 -16 14 -16 18 -4 31 8 8 15 19 15 24 0
5 -6 9 -14 9z"/>
</g>
</svg>
