<?xml version="1.0" standalone="no"?>
<!DOCTYPE svg PUBLIC "-//W3C//DTD SVG 20010904//EN"
 "http://www.w3.org/TR/2001/REC-SVG-20010904/DTD/svg10.dtd">
<svg version="1.0" xmlns="http://www.w3.org/2000/svg"
 width="56.000000pt" height="56.000000pt" viewBox="0 0 56.000000 56.000000"
 preserveAspectRatio="xMidYMid meet">
<metadata>
Created by potrace 1.16, written by Peter Selinger 2001-2019
</metadata>
<g transform="translate(0.000000,56.000000) scale(0.100000,-0.100000)"
fill="#000000" stroke="none">
<path d="M155 560 c-11 -1 -25 -6 -30 -13 -6 -7 -17 -39 -25 -72 -9 -38 -24
-68 -39 -83 -23 -22 -24 -27 -22 -140 1 -64 6 -134 12 -154 5 -21 19 -44 32
-53 12 -8 34 -15 49 -15 15 0 51 9 80 20 29 11 71 33 93 48 22 15 50 43 62 61
14 20 23 27 23 18 0 -9 -9 -32 -21 -51 -11 -19 -38 -54 -60 -78 -39 -43 -39
-43 -13 -46 15 -2 33 3 42 11 8 9 25 33 38 54 12 21 44 76 71 123 26 47 52 99
56 115 5 17 11 49 14 72 5 39 2 46 -30 78 -24 24 -44 35 -63 35 -16 0 -34 -4
-41 -8 -8 -5 -12 -43 -11 -123 1 -94 -2 -119 -16 -141 -10 -15 -43 -44 -74
-65 -32 -21 -72 -45 -89 -54 -18 -9 -44 -20 -57 -23 -15 -4 -28 0 -36 8 -6 8
-13 41 -16 73 -2 32 -1 52 2 46 3 -7 12 -13 19 -13 7 0 16 7 19 15 3 9 3 42
-1 75 -3 34 0 92 7 135 10 60 16 75 30 75 10 0 23 6 29 14 9 11 9 19 -1 35 -7
12 -22 21 -33 21z m271 -110 c8 0 22 -17 31 -37 13 -31 13 -46 4 -88 -7 -27
-23 -70 -37 -95 -20 -35 -23 -39 -17 -15 4 17 7 76 6 133 -2 85 0 102 13 102z"/>
</g>
</svg>
