<?xml version="1.0" standalone="no"?>
<!DOCTYPE svg PUBLIC "-//W3C//DTD SVG 20010904//EN"
 "http://www.w3.org/TR/2001/REC-SVG-20010904/DTD/svg10.dtd">
<svg version="1.0" xmlns="http://www.w3.org/2000/svg"
 width="56.000000pt" height="56.000000pt" viewBox="0 0 56.000000 56.000000"
 preserveAspectRatio="xMidYMid meet">
<metadata>
Created by potrace 1.16, written by Peter Selinger 2001-2019
</metadata>
<g transform="translate(0.000000,56.000000) scale(0.100000,-0.100000)"
fill="#000000" stroke="none">
<path d="M133 503 c-5 2 -14 2 -21 0 -6 -3 -15 -22 -18 -44 -5 -28 -11 -39
-24 -39 -10 0 -23 7 -30 15 -7 8 -19 15 -26 15 -8 0 -14 -8 -14 -17 0 -9 14
-31 31 -49 23 -24 29 -37 24 -55 -3 -14 -16 -29 -28 -34 -12 -6 -21 -17 -20
-25 1 -8 12 -49 24 -90 11 -41 28 -83 37 -92 8 -10 23 -18 33 -18 10 0 44 7
76 16 32 9 70 19 86 21 15 3 27 2 27 -3 0 -4 -10 -18 -22 -31 -13 -14 -18 -27
-12 -32 5 -6 15 -5 25 2 8 7 31 35 50 63 19 27 74 87 123 132 50 45 94 82 98
82 4 0 8 19 8 41 0 28 -6 46 -17 56 -10 7 -29 18 -43 24 -13 6 -34 8 -46 5
-14 -4 -31 -25 -48 -59 -14 -30 -30 -78 -36 -108 -8 -44 -17 -60 -47 -86 -21
-18 -47 -33 -59 -33 -11 0 -24 -4 -30 -8 -5 -4 -26 -14 -47 -21 -29 -10 -45
-10 -72 -1 -35 12 -35 12 -35 75 0 35 5 86 12 114 6 28 16 51 22 51 6 0 23 11
39 24 15 13 27 27 27 32 0 5 -9 16 -20 24 -11 8 -20 22 -20 32 0 9 -3 19 -7
21z m341 -93 c6 0 17 -5 24 -12 7 -7 12 -20 12 -30 0 -10 -19 -39 -41 -63 -23
-25 -46 -45 -51 -45 -7 0 -8 18 -3 47 4 26 16 60 27 75 10 16 25 28 32 28z"/>
</g>
</svg>
