<?xml version="1.0" standalone="no"?>
<!DOCTYPE svg PUBLIC "-//W3C//DTD SVG 20010904//EN"
 "http://www.w3.org/TR/2001/REC-SVG-20010904/DTD/svg10.dtd">
<svg version="1.0" xmlns="http://www.w3.org/2000/svg"
 width="56.000000pt" height="56.000000pt" viewBox="0 0 56.000000 56.000000"
 preserveAspectRatio="xMidYMid meet">
<metadata>
Created by potrace 1.16, written by Peter Selinger 2001-2019
</metadata>
<g transform="translate(0.000000,56.000000) scale(0.100000,-0.100000)"
fill="#000000" stroke="none">
<path d="M137 510 c-5 0 -6 -18 -2 -40 4 -26 3 -46 -5 -54 -6 -8 -38 -17 -71
-21 -48 -6 -59 -10 -57 -24 3 -13 15 -16 65 -14 44 1 63 -2 67 -13 3 -7 0 -28
-6 -46 -6 -18 -19 -42 -29 -54 -11 -11 -19 -28 -19 -37 0 -9 13 -26 30 -38 23
-17 29 -29 28 -55 -1 -18 5 -40 12 -49 7 -8 26 -15 42 -15 16 0 50 5 76 11 26
6 55 15 64 20 10 5 32 9 49 9 26 0 29 -3 24 -20 -3 -11 -3 -24 0 -30 4 -7 13
-7 26 0 10 6 19 19 19 30 0 10 -8 23 -17 29 -14 8 -17 23 -16 85 0 42 -3 76
-8 76 -4 0 -15 -15 -23 -32 -8 -18 -17 -43 -21 -56 -4 -13 -24 -32 -48 -44
-23 -12 -59 -24 -80 -28 -31 -6 -39 -4 -48 11 -6 11 -8 67 -6 131 4 102 6 113
27 130 13 11 36 22 52 25 18 4 28 12 28 23 0 10 -6 20 -12 23 -7 2 -25 -3 -40
-11 -22 -13 -29 -13 -42 -2 -12 9 -13 16 -6 25 6 7 8 19 4 28 -3 8 -15 18 -27
21 -12 3 -26 6 -30 6z"/>
<path d="M481 300 c-11 0 -23 -5 -27 -11 -3 -6 6 -22 21 -36 20 -19 25 -31 20
-47 -4 -11 -9 -31 -12 -43 -3 -13 -9 -23 -14 -23 -5 0 -9 -10 -9 -22 1 -22 1
-22 23 5 13 15 28 27 34 27 6 0 15 9 18 20 3 11 11 20 16 20 5 0 9 7 9 16 0 8
-13 29 -30 47 -16 18 -30 35 -30 40 0 4 -9 7 -19 7z"/>
</g>
</svg>
