<?xml version="1.0" standalone="no"?>
<!DOCTYPE svg PUBLIC "-//W3C//DTD SVG 20010904//EN"
 "http://www.w3.org/TR/2001/REC-SVG-20010904/DTD/svg10.dtd">
<svg version="1.0" xmlns="http://www.w3.org/2000/svg"
 width="56.000000pt" height="56.000000pt" viewBox="0 0 56.000000 56.000000"
 preserveAspectRatio="xMidYMid meet">
<metadata>
Created by potrace 1.16, written by Peter Selinger 2001-2019
</metadata>
<g transform="translate(0.000000,56.000000) scale(0.100000,-0.100000)"
fill="#000000" stroke="none">
<path d="M86 560 c-6 -1 -17 -7 -23 -15 -7 -8 -13 -22 -13 -33 0 -10 5 -23 10
-28 6 -6 13 -33 16 -61 6 -45 4 -52 -21 -77 -19 -20 -25 -33 -21 -49 3 -12 11
-53 17 -92 7 -38 16 -87 21 -107 5 -21 19 -50 32 -64 18 -22 34 -28 79 -32 44
-3 66 0 102 18 26 13 62 37 80 55 18 19 37 51 43 76 6 24 25 58 41 76 17 17
39 47 51 67 11 20 20 52 20 70 0 25 -10 45 -38 76 -27 31 -43 42 -55 37 -9 -3
-17 -10 -17 -15 0 -4 13 -15 29 -25 17 -10 32 -29 36 -46 3 -16 3 -41 -1 -57
-4 -16 -17 -44 -28 -61 -12 -18 -27 -35 -34 -38 -7 -2 -10 0 -7 5 3 5 1 19 -5
31 -7 11 -14 18 -18 15 -3 -4 -7 -28 -8 -55 -1 -27 -9 -60 -19 -74 -9 -14 -49
-41 -89 -61 -40 -20 -87 -36 -105 -36 -18 0 -39 6 -46 14 -11 10 -12 38 -8
122 3 60 2 166 -2 237 -5 85 -11 127 -19 127z"/>
</g>
</svg>
