<?xml version="1.0" standalone="no"?>
<!DOCTYPE svg PUBLIC "-//W3C//DTD SVG 20010904//EN"
 "http://www.w3.org/TR/2001/REC-SVG-20010904/DTD/svg10.dtd">
<svg version="1.0" xmlns="http://www.w3.org/2000/svg"
 width="56.000000pt" height="56.000000pt" viewBox="0 0 56.000000 56.000000"
 preserveAspectRatio="xMidYMid meet">
<metadata>
Created by potrace 1.16, written by Peter Selinger 2001-2019
</metadata>
<g transform="translate(0.000000,56.000000) scale(0.100000,-0.100000)"
fill="#000000" stroke="none">
<path d="M461 520 c-5 0 -14 -7 -21 -15 -6 -8 -9 -19 -5 -25 3 -5 14 -10 24
-10 10 0 24 -7 31 -15 7 -8 10 -21 7 -28 -3 -8 -22 -23 -43 -34 -31 -16 -39
-27 -50 -68 -7 -28 -13 -67 -14 -87 0 -21 -4 -38 -10 -38 -5 0 -10 -7 -10 -15
0 -8 -14 -30 -31 -50 -18 -20 -40 -35 -53 -35 -12 0 -26 -4 -31 -9 -6 -6 -37
-11 -70 -13 -43 -2 -60 -7 -60 -17 0 -8 8 -19 17 -25 12 -7 27 -7 54 3 20 7
48 15 63 16 14 2 47 7 72 11 41 6 49 11 68 46 11 22 21 55 21 73 0 19 5 37 10
40 6 3 10 34 10 68 0 62 0 62 60 90 47 22 60 33 59 50 0 14 -17 34 -45 55 -24
17 -48 32 -53 32z"/>
<path d="M145 506 c-5 1 -16 0 -22 -3 -7 -2 -13 -12 -13 -22 0 -9 -5 -22 -12
-29 -7 -7 -22 -12 -35 -12 -13 0 -23 -3 -23 -8 0 -4 9 -15 20 -25 11 -9 20
-28 20 -42 0 -16 -6 -25 -15 -25 -8 0 -24 -15 -35 -32 -11 -18 -20 -39 -20
-45 0 -7 7 -13 16 -13 12 0 15 6 10 25 -5 20 -3 25 14 25 16 0 20 -7 20 -34 0
-29 -3 -33 -20 -29 -14 4 -20 0 -20 -10 0 -9 5 -19 10 -22 6 -3 10 -19 10 -35
0 -16 4 -31 9 -34 4 -3 6 -17 3 -31 -2 -14 0 -25 5 -25 5 0 14 5 21 12 7 7 12
38 12 69 0 32 4 69 10 83 5 14 10 53 11 88 2 45 8 69 22 84 12 14 17 33 15 55
-2 18 -7 34 -13 35z"/>
</g>
</svg>
