<?xml version="1.0" standalone="no"?>
<!DOCTYPE svg PUBLIC "-//W3C//DTD SVG 20010904//EN"
 "http://www.w3.org/TR/2001/REC-SVG-20010904/DTD/svg10.dtd">
<svg version="1.0" xmlns="http://www.w3.org/2000/svg"
 width="56.000000pt" height="56.000000pt" viewBox="0 0 56.000000 56.000000"
 preserveAspectRatio="xMidYMid meet">
<metadata>
Created by potrace 1.16, written by Peter Selinger 2001-2019
</metadata>
<g transform="translate(0.000000,56.000000) scale(0.100000,-0.100000)"
fill="#000000" stroke="none">
<path d="M85 560 c-8 0 -15 -7 -15 -15 0 -8 7 -15 15 -15 8 0 15 7 15 15 0 8
-7 15 -15 15z"/>
<path d="M501 560 c-10 0 -25 -8 -34 -18 -10 -10 -17 -25 -17 -34 0 -8 -9 -27
-20 -41 -20 -26 -20 -26 -1 -36 11 -6 27 -18 36 -27 11 -12 14 -25 9 -48 -3
-17 -21 -62 -39 -101 -18 -38 -42 -79 -54 -89 -11 -11 -21 -24 -21 -29 0 -5
-8 -16 -17 -23 -10 -7 -13 -14 -6 -14 6 0 25 17 42 37 31 37 31 37 31 11 0
-15 -5 -30 -10 -33 -6 -3 -10 -14 -10 -24 0 -9 -6 -29 -12 -44 -7 -15 -16 -27
-20 -27 -5 0 -8 -4 -8 -10 0 -5 9 -10 19 -10 14 0 27 16 44 53 13 28 34 77 47
107 12 30 26 62 30 70 4 8 15 42 24 74 16 55 16 61 0 107 -17 46 -17 49 0 68
13 14 16 28 11 50 -4 20 -13 31 -24 31z"/>
<path d="M116 400 c-14 0 -32 -10 -41 -22 -13 -19 -18 -21 -34 -11 -10 7 -21
9 -24 6 -3 -2 3 -20 14 -39 10 -19 19 -50 19 -70 0 -19 -6 -45 -14 -57 -12
-19 -12 -29 1 -72 9 -27 22 -69 31 -93 14 -41 16 -42 58 -42 23 0 46 5 49 10
3 6 15 10 26 10 11 0 18 4 15 9 -3 5 -21 5 -41 1 -22 -5 -40 -4 -50 4 -9 6
-23 43 -31 81 -8 39 -13 93 -10 120 2 28 9 62 15 78 6 15 18 30 26 33 8 4 15
17 15 30 0 19 -5 24 -24 24z"/>
<path d="M311 84 c-4 3 -17 -1 -27 -9 -10 -8 -27 -15 -36 -15 -10 0 -18 -7
-18 -15 0 -8 6 -15 13 -15 8 0 28 7 45 16 18 8 32 19 32 24 0 5 -4 11 -9 14z"/>
</g>
</svg>
