<?xml version="1.0" standalone="no"?>
<!DOCTYPE svg PUBLIC "-//W3C//DTD SVG 20010904//EN"
 "http://www.w3.org/TR/2001/REC-SVG-20010904/DTD/svg10.dtd">
<svg version="1.0" xmlns="http://www.w3.org/2000/svg"
 width="56.000000pt" height="56.000000pt" viewBox="0 0 56.000000 56.000000"
 preserveAspectRatio="xMidYMid meet">
<metadata>
Created by potrace 1.16, written by Peter Selinger 2001-2019
</metadata>
<g transform="translate(0.000000,56.000000) scale(0.100000,-0.100000)"
fill="#000000" stroke="none">
<path d="M205 560 c-41 0 -56 -3 -52 -12 2 -8 22 -13 52 -13 30 0 50 5 53 13
3 9 -12 12 -53 12z"/>
<path d="M457 560 c-8 0 -18 -7 -21 -17 -4 -9 2 -25 14 -38 12 -13 20 -35 20
-56 0 -20 -7 -58 -16 -85 -9 -27 -20 -53 -24 -58 -5 -4 -14 2 -21 15 -7 13
-13 57 -13 97 -1 43 -5 71 -11 70 -6 -2 -10 -53 -10 -127 0 -123 0 -123 -44
-162 -24 -22 -64 -45 -88 -52 -25 -7 -58 -11 -75 -9 -20 3 -32 12 -39 30 -7
17 -6 57 3 120 11 85 16 97 40 115 16 12 28 30 28 43 0 12 -11 29 -26 39 -14
9 -28 14 -31 11 -3 -3 -11 -16 -17 -28 -9 -18 -19 -22 -44 -20 -21 2 -32 -1
-32 -10 0 -7 9 -24 20 -38 11 -14 20 -32 20 -41 0 -9 -6 -19 -13 -22 -8 -3
-18 -36 -24 -78 -7 -41 -9 -87 -6 -104 3 -16 22 -47 41 -67 21 -22 46 -38 59
-38 12 0 56 17 98 37 52 26 78 34 85 27 7 -7 0 -25 -25 -57 -19 -25 -35 -49
-35 -52 0 -4 12 -5 26 -3 21 2 34 17 66 78 22 41 45 84 52 95 7 11 34 66 59
122 34 74 47 115 47 148 0 26 -5 56 -12 68 -6 12 -17 27 -24 34 -7 7 -19 13
-27 13z"/>
</g>
</svg>
