<?xml version="1.0" standalone="no"?>
<!DOCTYPE svg PUBLIC "-//W3C//DTD SVG 20010904//EN"
 "http://www.w3.org/TR/2001/REC-SVG-20010904/DTD/svg10.dtd">
<svg version="1.0" xmlns="http://www.w3.org/2000/svg"
 width="56.000000pt" height="56.000000pt" viewBox="0 0 56.000000 56.000000"
 preserveAspectRatio="xMidYMid meet">
<metadata>
Created by potrace 1.16, written by Peter Selinger 2001-2019
</metadata>
<g transform="translate(0.000000,56.000000) scale(0.100000,-0.100000)"
fill="#000000" stroke="none">
<path d="M162 480 c-8 0 -12 -9 -10 -22 2 -15 11 -24 26 -26 13 -2 22 2 22 10
0 8 -5 19 -12 26 -7 7 -18 12 -26 12z"/>
<path d="M262 453 c-12 11 -22 13 -35 6 -13 -8 -16 -18 -11 -47 3 -23 0 -51
-9 -72 -14 -33 -20 -36 -93 -55 -62 -16 -81 -25 -92 -45 -8 -16 -11 -44 -8
-77 2 -29 13 -66 22 -83 10 -16 26 -30 35 -30 10 0 34 19 54 42 20 24 50 71
66 105 17 34 38 65 49 68 10 3 30 15 44 26 14 11 26 29 26 38 0 14 -6 17 -26
13 -24 -4 -25 -3 -15 16 6 11 11 34 11 50 0 16 -8 36 -18 45z m-195 -227 c8
-3 26 -6 39 -6 13 0 24 -6 24 -12 0 -7 -13 -28 -29 -47 -16 -19 -33 -31 -39
-27 -6 4 -14 22 -18 41 -3 18 -3 39 1 45 4 6 14 9 22 6z"/>
<path d="M420 383 c-14 3 -40 0 -58 -6 -21 -7 -32 -17 -30 -27 2 -9 15 -15 34
-15 18 -1 45 -13 70 -33 26 -21 45 -47 52 -70 6 -20 8 -49 5 -63 -2 -15 -20
-41 -39 -58 -22 -21 -42 -31 -56 -29 -18 2 -24 11 -26 35 -2 22 -12 39 -32 53
-15 11 -38 20 -49 20 -12 0 -33 -11 -47 -25 -21 -21 -24 -31 -18 -62 3 -21 12
-42 19 -48 6 -5 65 -10 129 -10 106 0 119 2 132 20 8 11 23 30 34 42 12 15 18
36 18 70 -1 26 -4 50 -7 53 -3 3 -16 26 -29 51 -13 26 -36 58 -50 72 -15 14
-38 28 -52 30z"/>
</g>
</svg>
