<?xml version="1.0" standalone="no"?>
<!DOCTYPE svg PUBLIC "-//W3C//DTD SVG 20010904//EN"
 "http://www.w3.org/TR/2001/REC-SVG-20010904/DTD/svg10.dtd">
<svg version="1.0" xmlns="http://www.w3.org/2000/svg"
 width="128.000000pt" height="128.000000pt" viewBox="0 0 128.000000 128.000000"
 preserveAspectRatio="xMidYMid meet">
<metadata>
Created by potrace 1.16, written by Peter Selinger 2001-2019
</metadata>
<g transform="translate(0.000000,128.000000) scale(0.100000,-0.100000)"
fill="#000000" stroke="none">
<path d="M309 1157 c-23 9 -31 9 -35 0 -2 -7 -3 -43 -2 -82 3 -70 3 -70 -47
-73 -27 -2 -58 -10 -67 -19 -13 -12 -15 -20 -7 -34 7 -14 21 -19 54 -19 24 0
47 -5 50 -10 4 -6 -1 -36 -11 -68 -10 -31 -26 -70 -35 -87 -9 -16 -20 -41 -24
-55 -4 -14 -20 -37 -35 -51 -16 -15 -32 -43 -36 -63 -5 -28 -2 -41 11 -56 10
-11 30 -20 45 -20 16 0 59 21 104 50 42 28 81 48 86 45 6 -3 10 -17 10 -30 0
-13 -16 -42 -36 -66 -20 -24 -71 -75 -115 -113 -43 -39 -86 -81 -94 -93 -9
-13 -22 -23 -30 -23 -7 0 -27 -16 -44 -35 -25 -29 -29 -41 -24 -68 3 -17 9
-36 14 -41 4 -5 19 -6 33 -2 14 3 36 22 49 41 12 20 33 38 46 42 18 4 31 -3
63 -36 22 -22 46 -41 53 -41 7 0 29 -18 49 -40 20 -22 44 -40 55 -40 10 0 23
6 29 13 6 7 11 44 13 82 1 39 1 146 0 239 -2 169 -2 169 26 196 15 15 38 43
51 61 12 19 34 51 47 72 14 21 25 42 25 47 0 6 -4 10 -8 10 -4 0 -13 -5 -20
-12 -9 -9 -21 -4 -51 20 -22 18 -47 32 -56 32 -8 0 -28 -19 -43 -43 -15 -24
-44 -58 -63 -75 -20 -18 -46 -32 -58 -32 -11 0 -21 4 -21 9 0 6 5 13 10 16 6
3 10 15 10 26 0 11 9 36 19 57 10 20 21 67 24 104 2 36 7 70 10 75 4 5 31 15
61 22 36 8 71 25 100 49 25 20 46 42 46 49 0 7 -17 17 -37 22 -21 6 -49 11
-62 11 -14 0 -33 -7 -43 -16 -14 -14 -21 -14 -32 -4 -9 6 -18 19 -21 29 -3 9
-19 22 -36 28z m26 -747 c10 0 12 -17 10 -76 -2 -42 -8 -81 -13 -86 -6 -6 -27
-7 -49 -4 -21 4 -44 11 -52 15 -10 7 -10 14 3 39 9 18 30 42 46 54 16 12 32
30 36 40 3 10 11 18 19 18z"/>
<path d="M990 1140 c-20 0 -41 -5 -48 -12 -7 -7 -12 -17 -12 -24 0 -6 7 -17
15 -24 11 -9 14 -22 10 -41 -4 -15 -1 -36 6 -47 10 -16 10 -26 1 -47 -7 -15
-9 -31 -6 -36 3 -6 12 -8 20 -5 8 3 14 -1 14 -9 0 -8 -6 -15 -13 -15 -6 0 -26
4 -43 9 -19 5 -38 5 -50 -2 -10 -5 -41 -29 -69 -51 -27 -23 -63 -47 -79 -54
-16 -7 -30 -11 -33 -9 -2 3 6 27 18 53 12 27 29 65 38 84 9 19 28 48 44 64 15
17 27 33 27 37 0 5 -17 13 -37 18 -29 8 -41 7 -52 -3 -9 -8 -33 -21 -53 -29
-21 -9 -38 -21 -38 -28 0 -7 -11 -26 -24 -43 -12 -17 -30 -44 -38 -61 -8 -16
-13 -36 -11 -42 3 -7 13 -13 24 -13 11 0 23 8 26 18 4 9 17 31 30 47 13 17 28
36 34 43 8 9 15 10 22 3 7 -7 6 -20 -3 -42 -8 -17 -35 -68 -62 -112 -26 -44
-48 -91 -48 -104 0 -18 5 -23 25 -23 17 0 47 20 90 58 35 31 82 72 105 90 24
18 54 35 67 38 15 4 30 1 38 -7 12 -12 10 -23 -11 -74 -13 -33 -22 -69 -20
-79 3 -10 -2 -32 -10 -48 -8 -16 -14 -41 -12 -56 3 -24 9 -28 58 -37 34 -6 70
-21 93 -39 38 -29 38 -29 19 -50 -11 -12 -22 -38 -26 -58 -5 -27 -18 -45 -46
-68 -22 -18 -40 -40 -40 -50 0 -11 -12 -22 -31 -29 -18 -6 -33 -11 -35 -11 -2
0 -6 17 -10 38 -4 20 -11 45 -16 54 -7 14 -22 18 -73 18 -61 0 -65 -2 -87 -32
-13 -18 -30 -45 -37 -60 -8 -15 -11 -33 -7 -40 4 -7 13 -24 21 -37 8 -15 30
-30 57 -38 24 -7 53 -13 64 -13 15 0 21 -6 20 -17 -1 -13 8 -19 30 -21 26 -3
36 3 53 26 11 17 32 33 46 36 14 4 34 15 45 26 11 11 28 20 38 20 10 0 36 19
59 43 22 23 46 52 52 64 6 12 11 48 11 80 0 42 -9 76 -29 123 -23 51 -37 69
-65 82 -19 10 -41 28 -47 40 -7 13 -11 42 -10 65 1 23 8 55 16 70 8 15 15 36
15 46 0 9 6 36 13 59 9 31 20 44 45 55 19 8 42 11 53 8 10 -4 19 -13 19 -20 0
-8 -22 -35 -50 -61 -27 -26 -50 -52 -50 -59 0 -7 14 -12 32 -13 17 0 41 4 52
10 12 6 27 19 34 30 7 10 27 25 44 34 29 15 30 18 25 66 -4 28 -13 61 -22 75
-14 21 -21 23 -53 16 -20 -4 -50 -7 -67 -8 -30 0 -30 0 -30 68 0 49 -4 70 -15
77 -8 5 -31 10 -50 10z m-226 -850 c8 0 16 -7 20 -15 3 -9 -4 -21 -20 -31 -16
-11 -29 -13 -34 -8 -6 6 -4 18 6 32 8 12 21 22 28 22z m214 -40 c15 0 22 -6
22 -20 0 -15 -7 -20 -29 -20 -17 0 -33 5 -37 11 -3 6 0 15 7 20 8 5 24 9 37 9z"/>
</g>
</svg>
