<?xml version="1.0" standalone="no"?>
<!DOCTYPE svg PUBLIC "-//W3C//DTD SVG 20010904//EN"
 "http://www.w3.org/TR/2001/REC-SVG-20010904/DTD/svg10.dtd">
<svg version="1.0" xmlns="http://www.w3.org/2000/svg"
 width="128.000000pt" height="128.000000pt" viewBox="0 0 128.000000 128.000000"
 preserveAspectRatio="xMidYMid meet">
<metadata>
Created by potrace 1.16, written by Peter Selinger 2001-2019
</metadata>
<g transform="translate(0.000000,128.000000) scale(0.100000,-0.100000)"
fill="#000000" stroke="none">
<path d="M790 1280 c-50 0 -60 -3 -61 -17 0 -10 -20 -33 -45 -50 -24 -18 -51
-33 -59 -33 -9 0 -23 -4 -33 -9 -9 -5 -30 -13 -47 -18 -16 -4 -31 -16 -33 -26
-3 -13 4 -17 32 -17 19 0 38 5 41 10 3 6 17 10 29 10 13 0 29 7 36 15 7 8 22
15 34 15 13 0 33 11 46 25 13 14 31 25 41 25 10 0 31 12 48 26 17 14 31 30 31
35 0 5 -27 9 -60 9z"/>
<path d="M939 1239 c-2 0 -10 -3 -16 -6 -7 -2 -13 -13 -13 -22 0 -10 3 -21 8
-25 4 -4 12 -62 18 -127 6 -66 8 -134 6 -151 -3 -21 -14 -35 -35 -47 -16 -9
-44 -28 -61 -42 -17 -14 -47 -34 -66 -44 -19 -10 -46 -26 -59 -36 -13 -11 -33
-19 -45 -19 -12 0 -32 -7 -44 -16 -12 -8 -22 -24 -22 -34 0 -11 8 -24 18 -29
11 -6 24 -6 33 0 7 5 32 9 55 9 33 0 46 6 75 36 18 19 53 49 77 64 42 29 42
29 42 -3 -1 -18 -5 -66 -10 -107 -5 -47 -5 -81 2 -93 5 -10 27 -27 49 -36 28
-13 46 -31 64 -65 17 -33 25 -63 25 -99 0 -29 -4 -67 -10 -86 -5 -18 -16 -44
-25 -57 -8 -13 -21 -21 -28 -18 -8 3 -21 19 -29 37 -11 22 -33 41 -71 61 -53
26 -57 27 -89 13 -18 -8 -48 -20 -67 -26 -19 -6 -43 -19 -53 -28 -10 -9 -18
-30 -18 -49 0 -20 9 -44 24 -61 23 -27 28 -28 118 -29 51 0 99 -1 107 -2 11
-2 12 -14 8 -52 -6 -50 -6 -50 23 -50 20 0 31 6 35 21 4 12 2 26 -4 32 -6 6
-11 17 -11 24 0 6 20 21 43 31 28 12 52 33 66 56 13 20 26 36 31 36 4 0 18 20
29 44 12 24 24 72 27 108 6 57 4 69 -24 123 -16 33 -41 69 -53 81 -13 11 -37
28 -52 38 -25 15 -28 22 -25 64 3 47 3 47 78 62 53 11 83 23 103 41 16 16 27
37 27 53 0 19 -5 26 -20 26 -11 0 -28 -4 -38 -9 -9 -5 -37 -18 -62 -29 -25
-11 -62 -24 -82 -30 -30 -8 -38 -8 -38 3 0 7 7 29 15 49 8 20 19 36 24 36 4 0
18 9 31 20 13 11 41 25 62 32 28 8 44 8 63 0 13 -6 27 -23 31 -37 4 -16 13
-25 25 -25 15 0 19 7 19 36 0 26 -8 43 -30 66 -27 27 -35 29 -78 25 -26 -3
-59 -8 -74 -12 -27 -7 -28 -6 -28 32 0 22 7 63 15 91 15 48 15 55 -1 81 -10
16 -34 39 -54 50 -21 12 -39 21 -41 20z m-117 -999 c21 0 32 -7 40 -26 8 -18
9 -30 1 -42 -5 -9 -22 -18 -38 -20 -15 -2 -38 -1 -51 2 -13 4 -24 14 -24 23 0
9 10 27 22 40 13 14 33 23 50 23z"/>
<path d="M325 1040 c-6 0 -20 -10 -31 -22 -11 -13 -28 -40 -38 -60 -18 -36
-22 -38 -68 -38 -29 0 -65 8 -88 20 -25 13 -41 16 -45 9 -4 -5 4 -24 18 -42
16 -21 40 -37 71 -46 26 -7 50 -20 53 -28 3 -7 -11 -64 -32 -126 -20 -61 -45
-126 -56 -143 -10 -17 -19 -40 -19 -51 0 -12 7 -26 15 -33 9 -8 37 -10 82 -7
37 3 83 8 101 12 25 6 38 3 53 -11 17 -15 19 -27 15 -83 -3 -36 -5 -67 -5 -68
-1 -1 -23 -14 -51 -29 -27 -15 -50 -31 -50 -35 0 -5 -18 -18 -40 -29 -21 -11
-50 -20 -63 -20 -13 0 -30 -6 -39 -12 -8 -7 -21 -34 -28 -60 -7 -25 -9 -51 -5
-57 3 -6 14 -11 23 -11 9 0 37 7 61 16 25 8 50 22 56 31 7 9 28 16 50 17 38 1
39 0 46 -37 3 -20 16 -49 29 -62 13 -14 33 -25 46 -25 12 0 25 7 28 16 3 9 6
24 6 34 0 9 7 23 15 30 10 9 14 22 10 39 -3 14 -7 50 -10 80 -3 31 -1 59 6 67
7 9 5 14 -10 19 -12 3 -21 14 -21 22 0 9 7 24 15 33 9 10 20 41 25 71 5 30 16
74 25 99 8 25 21 50 29 55 7 6 16 32 20 58 7 47 7 49 -15 42 -12 -4 -39 -2
-60 5 -33 11 -42 11 -64 -4 -18 -12 -25 -25 -25 -50 0 -20 -8 -40 -20 -51 -14
-12 -37 -19 -67 -19 -32 -1 -49 4 -56 16 -8 13 -7 21 4 35 8 10 20 34 26 53 7
19 18 63 25 98 9 49 10 67 0 82 -7 11 -12 27 -12 36 0 11 8 15 33 13 17 -1 51
3 75 10 25 7 42 18 42 27 0 8 -6 24 -12 37 -7 12 -24 34 -37 50 -14 15 -30 27
-36 27z"/>
<path d="M807 1029 c-12 0 -35 -5 -51 -9 -16 -5 -39 -19 -52 -31 -13 -12 -24
-28 -24 -35 0 -6 -11 -15 -25 -18 -14 -4 -25 -13 -25 -22 0 -8 7 -17 15 -20 8
-4 21 -2 28 4 6 5 46 13 87 16 64 5 78 9 98 31 12 15 22 35 22 46 0 12 -10 23
-26 29 -14 6 -35 10 -47 9z"/>
<path d="M617 880 c-8 0 -21 -8 -29 -17 -9 -10 -19 -32 -22 -50 -4 -17 -14
-34 -22 -37 -8 -3 -14 -19 -14 -41 0 -32 3 -36 22 -33 15 2 26 14 33 33 5 17
15 33 22 38 6 4 17 23 23 42 7 20 9 42 6 50 -3 8 -12 15 -19 15z"/>
</g>
</svg>
