<?xml version="1.0" standalone="no"?>
<!DOCTYPE svg PUBLIC "-//W3C//DTD SVG 20010904//EN"
 "http://www.w3.org/TR/2001/REC-SVG-20010904/DTD/svg10.dtd">
<svg version="1.0" xmlns="http://www.w3.org/2000/svg"
 width="128.000000pt" height="128.000000pt" viewBox="0 0 128.000000 128.000000"
 preserveAspectRatio="xMidYMid meet">
<metadata>
Created by potrace 1.16, written by Peter Selinger 2001-2019
</metadata>
<g transform="translate(0.000000,128.000000) scale(0.100000,-0.100000)"
fill="#000000" stroke="none">
<path d="M503 1280 c-16 0 -40 -10 -56 -21 -15 -12 -39 -40 -53 -64 -19 -34
-24 -52 -19 -77 5 -25 2 -38 -9 -47 -9 -8 -16 -18 -16 -23 0 -5 -9 -28 -20
-50 -11 -23 -20 -58 -20 -78 0 -20 -6 -42 -12 -48 -7 -7 -14 -41 -15 -75 -2
-34 -3 -73 -3 -87 0 -14 0 -42 0 -62 0 -25 5 -38 13 -38 9 0 12 -10 9 -28 -2
-19 6 -42 30 -77 29 -44 37 -50 68 -51 19 0 40 1 46 3 6 2 10 44 10 113 -1 64
-5 110 -11 111 -5 0 -16 -23 -24 -51 -7 -28 -19 -49 -25 -47 -6 2 -19 17 -28
33 -10 17 -20 64 -24 112 -5 54 -3 97 5 125 7 23 26 86 44 140 17 54 35 101
39 103 4 3 8 28 8 56 0 41 3 49 15 44 10 -4 19 3 25 19 5 13 18 29 30 35 11 6
20 15 20 20 0 6 -12 10 -27 10z"/>
<path d="M848 1270 c-1 5 -13 1 -26 -8 -20 -15 -22 -22 -13 -45 6 -15 20 -41
32 -57 20 -26 21 -31 8 -50 -11 -18 -27 -22 -79 -26 -36 -2 -83 -9 -105 -16
-22 -7 -60 -27 -85 -46 -25 -18 -49 -41 -54 -50 -5 -9 -17 -38 -28 -66 -10
-28 -18 -52 -18 -53 0 -2 9 -3 20 -3 11 0 29 15 42 33 13 18 43 51 68 73 25
23 65 52 90 66 25 14 64 27 87 30 27 4 46 2 52 -6 6 -7 10 -68 11 -137 0 -68
1 -207 3 -309 2 -185 2 -185 42 -185 37 0 40 2 37 25 -1 14 -5 68 -8 120 -3
52 -11 111 -18 130 -7 19 -11 52 -8 73 2 20 8 37 13 37 5 0 8 51 7 115 -3 116
-3 116 34 110 36 -6 37 -6 44 31 6 34 4 40 -25 66 -17 15 -38 28 -46 28 -8 0
-15 -5 -15 -12 0 -6 -3 -9 -6 -6 -3 4 -1 15 5 26 8 15 6 29 -10 61 -11 22 -26
41 -33 41 -8 0 -16 4 -18 10z"/>
<path d="M486 840 c-7 0 -19 -7 -26 -15 -10 -12 -10 -19 -2 -27 8 -8 15 -8 27
2 8 7 15 19 15 26 0 8 -6 14 -14 14z"/>
<path d="M911 340 c-17 0 -33 -6 -38 -12 -4 -7 -9 -40 -11 -73 -1 -33 -4 -93
-5 -133 -2 -67 0 -76 22 -93 13 -10 31 -19 40 -19 10 0 23 11 30 24 10 18 11
39 2 94 -6 39 -11 103 -11 141 0 71 0 71 -29 71z"/>
<path d="M489 330 c-7 0 -9 -10 -4 -27 3 -16 10 -32 15 -37 6 -6 12 -2 16 9 5
11 3 20 -4 23 -7 2 -12 10 -12 18 0 8 -5 14 -11 14z"/>
<path d="M506 240 c-9 0 -16 -7 -16 -16 0 -9 5 -14 12 -12 6 2 14 10 16 16 2
7 -3 12 -12 12z"/>
</g>
</svg>
