<?xml version="1.0" standalone="no"?>
<!DOCTYPE svg PUBLIC "-//W3C//DTD SVG 20010904//EN"
 "http://www.w3.org/TR/2001/REC-SVG-20010904/DTD/svg10.dtd">
<svg version="1.0" xmlns="http://www.w3.org/2000/svg"
 width="128.000000pt" height="128.000000pt" viewBox="0 0 128.000000 128.000000"
 preserveAspectRatio="xMidYMid meet">
<metadata>
Created by potrace 1.16, written by Peter Selinger 2001-2019
</metadata>
<g transform="translate(0.000000,128.000000) scale(0.100000,-0.100000)"
fill="#000000" stroke="none">
<path d="M85 1280 c-9 0 -15 -9 -15 -24 0 -13 7 -30 16 -37 9 -7 34 -49 56
-93 21 -44 44 -83 50 -87 5 -4 19 -4 29 -2 11 3 24 14 30 24 5 11 16 19 24 19
8 0 19 9 25 19 5 11 7 27 4 36 -4 11 -16 15 -34 13 -21 -2 -34 5 -54 29 -15
17 -42 37 -60 43 -19 6 -38 21 -44 35 -7 14 -18 25 -27 25z"/>
<path d="M794 1280 c-2 0 -4 -3 -4 -7 0 -5 -16 -19 -35 -32 -19 -13 -35 -29
-35 -36 0 -7 22 -29 49 -49 50 -35 50 -35 46 -183 -2 -81 -4 -154 -4 -161 -1
-9 -6 -10 -20 -2 -11 5 -38 10 -60 10 -22 0 -75 5 -118 11 -43 7 -90 18 -104
25 -22 11 -29 11 -38 1 -8 -10 -4 -23 15 -50 24 -35 27 -37 82 -38 31 0 96 0
143 1 86 1 86 1 107 -41 17 -34 19 -46 9 -57 -8 -10 -13 -69 -15 -179 -1 -91
-7 -173 -12 -183 -6 -10 -10 -52 -10 -92 0 -46 8 -100 21 -145 16 -54 26 -73
39 -73 10 0 29 9 42 20 14 10 31 33 38 50 10 25 10 38 0 69 -8 27 -9 48 -2 73
8 29 7 41 -5 58 -10 14 -13 32 -9 53 4 18 6 48 6 67 -1 19 -3 64 -4 100 -2 43
2 76 12 97 14 29 13 35 -1 65 -14 29 -14 35 -1 49 8 8 14 25 14 36 0 12 6 23
13 25 6 3 42 2 79 -1 37 -4 79 -3 94 1 15 4 37 17 50 29 13 12 24 31 24 42 0
11 -10 28 -22 38 -14 13 -37 19 -68 19 -34 0 -52 -5 -65 -20 -11 -12 -31 -20
-50 -20 -18 0 -37 6 -42 13 -6 6 -14 41 -17 77 -4 36 -12 70 -17 76 -6 7 -2
17 10 28 16 15 19 27 15 70 -3 28 -7 61 -10 73 -3 16 -15 25 -43 33 -21 5 -50
21 -65 35 -15 14 -29 25 -32 25z"/>
<path d="M106 900 c-8 0 -17 -4 -20 -9 -3 -5 7 -26 23 -47 16 -22 42 -53 57
-69 28 -30 29 -34 27 -123 -1 -51 -4 -96 -6 -100 -2 -4 -1 -38 2 -77 5 -61 8
-70 26 -70 15 0 22 10 28 40 5 22 9 55 8 73 0 17 0 43 0 57 0 14 0 44 1 68 1
23 -2 74 -7 112 -4 39 -12 75 -17 82 -5 6 -31 23 -58 37 -27 14 -56 26 -64 26z"/>
<path d="M474 597 c-5 2 -24 -11 -41 -29 -17 -18 -39 -52 -48 -75 -10 -24 -22
-43 -27 -43 -5 0 -31 -19 -56 -42 -25 -24 -61 -59 -79 -78 -29 -30 -34 -40
-30 -72 4 -27 0 -41 -14 -54 -10 -9 -19 -30 -19 -45 0 -15 -4 -39 -9 -52 -7
-17 -6 -30 2 -41 11 -15 16 -13 52 11 21 16 49 39 62 53 12 14 23 35 23 46 0
12 7 27 15 34 8 7 15 19 15 28 0 9 17 50 37 91 21 42 45 82 55 89 10 7 25 26
33 42 8 16 15 36 15 45 0 9 10 25 23 35 17 15 20 22 11 36 -6 10 -15 19 -20
21z"/>
</g>
</svg>
