<?xml version="1.0" standalone="no"?>
<!DOCTYPE svg PUBLIC "-//W3C//DTD SVG 20010904//EN"
 "http://www.w3.org/TR/2001/REC-SVG-20010904/DTD/svg10.dtd">
<svg version="1.0" xmlns="http://www.w3.org/2000/svg"
 width="128.000000pt" height="128.000000pt" viewBox="0 0 128.000000 128.000000"
 preserveAspectRatio="xMidYMid meet">
<metadata>
Created by potrace 1.16, written by Peter Selinger 2001-2019
</metadata>
<g transform="translate(0.000000,128.000000) scale(0.100000,-0.100000)"
fill="#000000" stroke="none">
<path d="M831 1260 c-9 0 -27 -7 -39 -16 -12 -8 -22 -22 -22 -30 0 -8 10 -18
23 -23 13 -5 28 -15 33 -22 6 -8 16 -70 24 -138 12 -118 12 -124 -7 -143 -11
-11 -38 -24 -59 -29 -21 -6 -57 -14 -79 -19 -22 -4 -70 -10 -107 -13 -36 -3
-71 -8 -77 -11 -6 -4 -11 -16 -11 -26 0 -10 -4 -21 -9 -24 -5 -3 -12 -23 -16
-43 -3 -21 -29 -83 -56 -138 -27 -55 -53 -107 -58 -115 -5 -8 -32 -62 -60
-120 -28 -58 -51 -113 -51 -122 0 -13 -8 -18 -28 -18 -16 0 -37 9 -47 20 -14
16 -17 31 -12 77 3 33 16 80 31 109 14 29 26 61 26 72 0 11 7 25 16 33 9 7 25
32 36 55 11 24 17 48 13 54 -3 5 -3 31 1 57 5 32 17 57 40 83 19 21 34 42 34
48 0 6 14 22 30 35 24 21 30 33 30 66 0 35 -7 48 -43 85 -25 25 -57 47 -75 51
-18 3 -32 11 -32 16 0 5 -11 9 -25 9 -18 0 -25 -5 -25 -20 0 -11 12 -30 26
-42 14 -13 32 -37 41 -55 9 -19 12 -41 8 -55 -4 -13 -15 -32 -25 -43 -9 -11
-26 -39 -38 -63 -12 -23 -22 -54 -22 -67 0 -13 -9 -33 -21 -44 -14 -13 -19
-26 -14 -40 4 -13 -3 -36 -19 -64 -14 -24 -26 -53 -26 -64 0 -11 -3 -23 -6
-26 -4 -3 -19 -44 -35 -89 -16 -46 -29 -91 -29 -100 0 -11 10 -20 25 -24 14
-3 25 -12 25 -19 0 -8 -4 -17 -10 -20 -5 -3 -10 -17 -10 -31 0 -13 9 -29 20
-36 11 -7 20 -23 20 -35 0 -12 10 -31 22 -42 12 -12 30 -23 40 -27 11 -3 18
-15 18 -29 0 -14 8 -29 19 -35 11 -5 26 -10 33 -10 7 0 23 8 35 18 11 9 24 31
27 47 4 19 1 37 -8 50 -12 17 -18 18 -49 8 -20 -6 -38 -9 -41 -6 -3 3 2 17 11
32 10 14 18 27 19 29 1 2 16 -4 34 -13 25 -13 35 -14 46 -4 8 6 14 17 14 23 0
6 9 28 20 49 11 20 20 47 20 59 0 13 13 42 29 65 15 23 31 61 35 84 4 23 13
51 21 62 8 12 15 27 15 34 0 7 11 36 24 65 14 29 27 65 31 80 4 15 13 32 21
39 10 8 22 8 45 0 18 -6 45 -11 60 -11 15 0 31 5 34 10 3 6 19 10 34 10 15 0
36 7 47 15 10 8 26 15 35 15 9 0 21 -6 27 -12 6 -8 11 -109 12 -258 1 -135 2
-250 1 -256 0 -6 -17 -18 -36 -27 -20 -9 -49 -17 -66 -17 -17 0 -54 -11 -82
-24 -29 -13 -69 -26 -90 -30 -27 -5 -52 -22 -92 -63 -30 -31 -55 -60 -55 -65
0 -4 17 -8 38 -8 30 0 42 6 65 35 21 26 36 35 58 35 16 0 44 7 60 16 28 14 32
14 49 -1 13 -12 27 -15 50 -10 19 4 36 2 45 -5 8 -7 38 -13 66 -14 45 -1 54 2
73 27 18 24 21 40 19 110 -1 45 -6 116 -12 157 -5 41 -15 111 -21 155 -6 44
-13 114 -15 155 -1 41 -5 88 -6 104 -4 26 0 31 26 37 17 4 49 16 72 28 26 13
61 21 93 21 28 0 60 5 71 10 10 6 19 19 19 30 0 12 -16 30 -40 46 -30 20 -53
27 -94 28 -31 0 -60 -4 -67 -11 -9 -9 -8 -15 5 -28 9 -9 14 -21 11 -26 -4 -5
-13 -9 -21 -9 -8 0 -17 7 -20 15 -5 11 -10 12 -26 4 -16 -8 -23 -8 -30 2 -5 8
-6 28 -4 44 3 17 8 46 12 65 3 19 14 43 22 53 13 15 14 22 3 39 -8 13 -10 34
-6 58 6 38 6 38 -45 64 -28 14 -59 26 -69 26z m-21 -1110 c6 0 10 -6 10 -14 0
-8 -4 -18 -10 -21 -5 -3 -10 3 -10 14 0 12 5 21 10 21z m-560 -70 c5 0 12 -4
15 -10 3 -5 -3 -10 -15 -10 -12 0 -18 5 -15 10 3 6 10 10 15 10z"/>
</g>
</svg>
