<?xml version="1.0" standalone="no"?>
<!DOCTYPE svg PUBLIC "-//W3C//DTD SVG 20010904//EN"
 "http://www.w3.org/TR/2001/REC-SVG-20010904/DTD/svg10.dtd">
<svg version="1.0" xmlns="http://www.w3.org/2000/svg"
 width="128.000000pt" height="128.000000pt" viewBox="0 0 128.000000 128.000000"
 preserveAspectRatio="xMidYMid meet">
<metadata>
Created by potrace 1.16, written by Peter Selinger 2001-2019
</metadata>
<g transform="translate(0.000000,128.000000) scale(0.100000,-0.100000)"
fill="#000000" stroke="none">
<path d="M675 1220 c-6 0 -24 -13 -39 -29 -16 -16 -25 -34 -22 -40 4 -6 13
-11 21 -11 8 0 26 -5 40 -12 14 -6 25 -19 25 -29 0 -10 -10 -25 -22 -34 -13
-9 -47 -34 -77 -56 -29 -21 -57 -39 -62 -39 -6 0 -23 -9 -38 -21 -16 -12 -37
-19 -47 -17 -12 2 -23 22 -36 63 -10 33 -18 71 -18 85 0 14 -4 31 -9 38 -4 8
-27 18 -49 23 -35 7 -48 5 -82 -12 -22 -12 -57 -26 -78 -31 -20 -5 -46 -9 -57
-9 -10 0 -25 -5 -31 -10 -7 -6 -10 -17 -7 -25 4 -12 15 -14 47 -9 22 4 46 11
51 15 6 4 26 9 45 10 19 2 49 2 67 1 30 -1 33 -5 48 -53 8 -28 15 -80 15 -115
0 -44 -6 -75 -19 -101 -11 -20 -31 -50 -44 -66 -14 -18 -28 -26 -36 -22 -7 5
-9 20 -6 39 4 18 2 44 -4 59 -7 19 -29 35 -74 57 -36 17 -73 31 -84 31 -10 0
-24 -5 -31 -12 -7 -7 -12 -20 -12 -30 0 -10 6 -20 12 -22 7 -2 32 -9 55 -16
23 -7 52 -22 63 -32 18 -17 20 -27 14 -86 -3 -37 -13 -77 -20 -89 -8 -12 -14
-31 -14 -42 0 -11 -11 -32 -24 -48 -12 -15 -28 -38 -35 -50 -6 -12 -11 -31
-11 -42 0 -12 4 -29 9 -39 5 -9 30 -69 55 -132 33 -80 60 -130 90 -164 29 -34
48 -48 59 -43 8 3 29 34 46 69 25 54 32 86 46 223 8 88 18 205 20 260 2 55 7
139 11 188 6 87 6 87 34 87 18 0 35 -8 44 -22 9 -12 16 -31 16 -41 0 -9 6 -20
14 -23 8 -3 16 -15 19 -26 3 -11 12 -18 19 -16 7 3 16 22 20 44 4 21 4 52 1
69 -3 16 -11 38 -17 48 -9 15 -7 21 8 33 11 8 30 14 43 14 16 0 24 -7 29 -27
4 -16 14 -38 22 -50 8 -13 22 -23 31 -23 9 0 33 16 51 35 19 20 54 47 77 60
23 14 46 25 52 25 6 0 11 -5 11 -11 0 -5 -14 -28 -31 -49 -17 -21 -55 -55 -85
-74 -29 -20 -63 -49 -75 -66 -13 -16 -27 -30 -33 -30 -5 0 -21 -11 -35 -24
-15 -14 -62 -49 -106 -79 -44 -29 -81 -61 -83 -70 -2 -9 4 -27 14 -41 9 -14
24 -26 34 -26 9 0 32 11 51 25 19 13 54 34 79 45 25 12 61 29 80 37 19 8 64
19 100 23 42 6 69 5 77 -2 9 -7 13 -40 13 -99 0 -48 -4 -90 -8 -93 -5 -3 -41
17 -82 44 -40 28 -78 50 -84 50 -6 0 -23 -8 -36 -17 -14 -10 -38 -25 -55 -33
-30 -15 -30 -15 -28 -95 1 -70 6 -92 37 -159 20 -42 61 -111 92 -152 31 -41
61 -74 68 -74 7 0 33 16 58 36 26 19 58 53 72 74 14 22 26 46 26 53 0 7 5 18
10 23 6 6 12 32 14 60 3 27 0 120 -6 207 -6 90 -7 162 -2 167 5 5 43 0 84 -10
55 -14 78 -16 88 -8 7 6 12 20 10 32 -2 11 -21 33 -43 48 -38 27 -43 28 -93
18 -37 -7 -60 -7 -73 0 -10 6 -19 21 -19 33 0 12 -7 31 -15 41 -8 11 -15 27
-15 36 0 9 13 26 30 38 16 13 37 34 46 47 9 14 20 41 24 62 5 22 5 44 -1 55
-7 13 -21 18 -55 18 -30 0 -63 -10 -102 -29 -31 -17 -70 -39 -86 -50 -22 -15
-34 -17 -48 -10 -10 5 -18 18 -18 28 0 10 15 30 33 43 17 14 47 33 65 42 18 9
36 24 39 32 3 8 -3 31 -13 50 -10 18 -19 34 -19 34 0 0 -25 9 -55 20 -30 11
-60 20 -65 20z m135 -450 c10 0 25 -12 35 -26 9 -14 14 -31 12 -39 -4 -8 -31
-14 -74 -17 -38 -3 -72 -1 -78 5 -7 6 -6 11 2 14 7 2 28 18 49 34 20 16 45 29
54 29z m-459 -80 c5 0 12 -7 16 -16 3 -9 -1 -70 -10 -137 -8 -67 -15 -133 -15
-147 0 -14 -3 -51 -7 -82 -4 -32 -14 -63 -21 -69 -10 -8 -27 3 -73 50 -42 41
-61 68 -61 84 0 14 7 27 15 31 10 3 15 19 15 45 0 22 5 43 11 47 6 3 18 21 26
38 8 17 22 45 31 61 10 17 27 45 40 63 13 17 28 32 33 32z m322 -230 c7 0 23
-8 37 -17 13 -10 60 -38 105 -63 60 -34 81 -51 83 -69 2 -13 -2 -45 -9 -70 -7
-25 -16 -52 -22 -58 -5 -7 -27 -13 -47 -13 -32 0 -44 6 -69 37 -17 21 -31 43
-31 50 0 6 -9 18 -21 26 -14 11 -23 32 -29 78 -5 35 -10 72 -10 82 0 9 6 17
13 17z"/>
</g>
</svg>
