<?xml version="1.0" standalone="no"?>
<!DOCTYPE svg PUBLIC "-//W3C//DTD SVG 20010904//EN"
 "http://www.w3.org/TR/2001/REC-SVG-20010904/DTD/svg10.dtd">
<svg version="1.0" xmlns="http://www.w3.org/2000/svg"
 width="128.000000pt" height="128.000000pt" viewBox="0 0 128.000000 128.000000"
 preserveAspectRatio="xMidYMid meet">
<metadata>
Created by potrace 1.16, written by Peter Selinger 2001-2019
</metadata>
<g transform="translate(0.000000,128.000000) scale(0.100000,-0.100000)"
fill="#000000" stroke="none">
<path d="M860 1253 c-19 3 -52 2 -72 -2 -24 -5 -56 -25 -90 -56 -29 -27 -63
-65 -75 -84 -13 -20 -26 -52 -29 -71 -4 -19 -15 -54 -26 -78 -10 -24 -18 -53
-18 -65 0 -12 -7 -40 -14 -62 -9 -25 -21 -41 -33 -43 -13 -2 -39 21 -86 78
-67 80 -67 80 -47 117 10 20 22 56 26 80 4 29 2 53 -6 69 -7 13 -28 29 -47 35
-19 6 -40 8 -48 5 -8 -3 -15 -12 -15 -20 0 -8 6 -19 14 -23 7 -4 18 -18 25
-30 8 -17 8 -29 -1 -50 -7 -15 -37 -59 -66 -96 -36 -45 -59 -87 -68 -120 -8
-29 -14 -62 -14 -75 0 -12 7 -25 15 -28 8 -3 34 9 59 26 24 18 52 30 62 28 11
-2 37 -32 60 -68 23 -36 56 -81 73 -101 17 -20 31 -43 31 -50 0 -8 -22 -29
-49 -47 -26 -18 -56 -47 -66 -66 -12 -21 -16 -42 -11 -59 6 -24 11 -26 69 -29
61 -3 62 -3 65 -34 2 -17 -6 -58 -17 -90 -12 -32 -21 -78 -21 -101 0 -35 3
-43 19 -43 10 0 39 24 65 54 25 30 46 59 46 65 0 6 9 15 21 21 15 9 28 9 50 0
16 -7 54 -44 86 -84 31 -39 72 -90 91 -114 18 -23 41 -42 50 -42 10 0 29 20
45 46 15 25 30 66 34 90 4 31 1 50 -11 69 -9 13 -33 33 -54 43 -20 11 -57 22
-82 26 -25 4 -76 25 -113 47 -38 22 -72 50 -76 62 -5 12 -5 29 0 38 5 9 31 33
58 52 27 20 68 61 90 91 27 36 41 66 41 86 0 19 9 40 23 54 13 13 80 51 150
86 127 62 127 62 127 132 0 65 -2 72 -31 98 -16 16 -38 32 -49 35 -10 3 -21
16 -24 29 -3 13 -3 37 0 54 5 24 1 35 -23 56 -15 15 -39 33 -53 41 -14 7 -41
16 -60 18z m-69 -53 c9 0 31 -11 50 -25 19 -14 42 -28 52 -31 15 -5 17 -13 13
-39 -5 -25 0 -40 21 -69 16 -20 40 -51 56 -69 15 -17 27 -41 27 -52 0 -11 -17
-34 -38 -51 -20 -17 -63 -45 -94 -62 -31 -18 -78 -43 -104 -57 -27 -14 -74
-50 -105 -80 -32 -30 -62 -55 -67 -55 -5 0 -12 7 -16 15 -3 8 -1 34 3 58 5 23
27 122 50 219 29 130 48 189 68 220 15 24 37 51 48 60 11 10 27 17 36 18z"/>
</g>
</svg>
