<?xml version="1.0" standalone="no"?>
<!DOCTYPE svg PUBLIC "-//W3C//DTD SVG 20010904//EN"
 "http://www.w3.org/TR/2001/REC-SVG-20010904/DTD/svg10.dtd">
<svg version="1.0" xmlns="http://www.w3.org/2000/svg"
 width="128.000000pt" height="128.000000pt" viewBox="0 0 128.000000 128.000000"
 preserveAspectRatio="xMidYMid meet">
<metadata>
Created by potrace 1.16, written by Peter Selinger 2001-2019
</metadata>
<g transform="translate(0.000000,128.000000) scale(0.100000,-0.100000)"
fill="#000000" stroke="none">
<path d="M179 1280 c-18 0 -20 -4 -14 -27 4 -16 8 -30 10 -31 2 -2 8 -1 14 3
6 3 11 17 11 31 0 18 -5 24 -21 24z"/>
<path d="M577 1259 c-16 6 -28 6 -35 -1 -8 -8 -1 -23 24 -51 19 -23 39 -58 45
-80 5 -21 9 -48 7 -60 -2 -18 -12 -23 -53 -29 -27 -4 -81 -10 -118 -14 -49 -4
-70 -10 -74 -22 -4 -10 2 -21 17 -31 13 -9 49 -20 79 -26 55 -10 56 -11 59
-47 2 -20 -3 -49 -11 -65 -8 -15 -22 -57 -31 -92 -9 -35 -42 -108 -74 -164
-31 -55 -67 -118 -80 -141 -13 -22 -43 -66 -67 -98 -25 -31 -45 -59 -45 -63 0
-3 -11 -21 -25 -39 -18 -24 -25 -45 -25 -77 0 -25 7 -55 16 -67 8 -12 22 -22
29 -22 8 0 35 20 60 45 25 25 45 51 45 59 0 7 8 20 18 29 10 9 35 49 55 89 20
40 48 102 61 138 14 36 34 83 44 105 11 22 27 70 36 107 9 37 26 87 36 112 16
34 18 50 10 71 -5 14 -10 38 -10 53 0 15 6 38 13 51 10 21 27 28 102 44 50 10
96 24 103 30 8 6 23 12 35 14 12 2 36 3 54 3 17 1 37 7 43 15 7 8 18 15 24 15
7 0 23 11 36 25 24 25 24 26 4 44 -10 10 -37 23 -60 28 -24 6 -61 7 -95 1 -30
-5 -63 -10 -74 -11 -18 -2 -20 3 -17 45 2 38 -1 49 -17 57 -11 6 -42 11 -70
11 -27 0 -61 4 -74 9z m253 -169 c3 0 11 -5 18 -12 7 -7 12 -18 12 -25 0 -8
-12 -13 -30 -13 -28 0 -29 1 -18 25 6 14 14 25 18 25z m-118 -30 c10 0 18 -6
18 -14 0 -7 -6 -19 -14 -25 -12 -10 -17 -8 -25 7 -6 11 -7 22 -4 26 3 3 15 6
25 6z"/>
<path d="M904 936 c-29 5 -45 2 -56 -9 -8 -9 -21 -51 -28 -94 -6 -43 -13 -91
-13 -108 -2 -22 -8 -32 -29 -39 -19 -7 -31 -6 -42 4 -9 7 -16 22 -16 33 0 12
-12 38 -27 59 -19 28 -33 38 -47 36 -20 -3 -21 -8 -18 -107 2 -57 7 -114 12
-127 5 -13 16 -24 24 -24 8 0 33 16 56 35 23 19 50 35 60 35 14 0 20 -10 25
-44 5 -31 2 -52 -9 -75 -16 -30 -16 -32 6 -40 21 -8 21 -10 5 -16 -10 -4 -23
-3 -30 4 -6 6 -21 11 -32 11 -12 0 -40 -17 -63 -38 -34 -32 -42 -46 -42 -74 0
-29 7 -42 43 -72 23 -21 48 -41 55 -47 6 -5 12 -14 12 -19 0 -5 -6 -14 -12
-19 -7 -6 -28 -23 -46 -37 -19 -15 -38 -39 -43 -52 -7 -17 -6 -35 1 -53 6 -14
21 -31 33 -36 13 -6 69 -7 137 -4 63 4 132 3 153 -1 21 -5 42 -6 47 -3 5 3 11
19 15 36 5 20 2 38 -9 54 -9 14 -34 37 -56 51 -35 23 -40 31 -40 65 0 27 8 48
28 71 15 18 35 47 45 65 9 17 17 42 17 55 0 12 -11 35 -24 49 -13 15 -32 32
-44 38 -11 6 -32 11 -46 11 -25 0 -26 3 -26 53 0 28 5 68 10 87 9 32 17 39 87
69 43 18 88 39 101 47 17 11 22 24 22 57 0 33 -6 49 -24 66 -13 12 -46 26 -77
32 -30 5 -72 12 -95 15z m-6 -36 c4 0 24 -14 45 -31 20 -17 37 -38 37 -48 0
-10 -8 -25 -17 -34 -10 -8 -30 -18 -44 -22 -17 -4 -30 -1 -38 9 -10 12 -10 23
-1 50 6 20 9 40 5 46 -3 5 -3 15 0 20 3 6 9 10 13 10z m-18 -430 c5 0 12 -5
16 -11 3 -6 1 -16 -5 -22 -8 -8 -14 -8 -22 0 -6 6 -8 16 -5 22 4 6 11 11 16
11z m-61 -32 c8 -2 17 -11 19 -21 2 -10 -3 -33 -12 -52 -9 -18 -22 -35 -29
-38 -10 -4 -13 4 -12 26 1 18 5 45 10 60 5 18 13 27 24 25z m31 -108 c4 0 10
-7 13 -15 4 -8 1 -17 -4 -21 -6 -3 -15 -2 -21 4 -6 6 -7 15 -4 21 4 6 11 11
16 11z m30 -40 c6 0 10 -8 10 -19 0 -10 -7 -24 -15 -31 -8 -7 -22 -9 -31 -6
-8 3 -14 14 -12 23 2 11 11 17 21 15 9 -2 17 2 17 8 0 5 5 10 10 10z m-50
-110 c5 0 12 -5 15 -10 3 -6 -1 -13 -10 -16 -9 -4 -18 -4 -21 -1 -3 3 -3 10 1
16 3 6 10 11 15 11z"/>
</g>
</svg>
