<?xml version="1.0" standalone="no"?>
<!DOCTYPE svg PUBLIC "-//W3C//DTD SVG 20010904//EN"
 "http://www.w3.org/TR/2001/REC-SVG-20010904/DTD/svg10.dtd">
<svg version="1.0" xmlns="http://www.w3.org/2000/svg"
 width="128.000000pt" height="128.000000pt" viewBox="0 0 128.000000 128.000000"
 preserveAspectRatio="xMidYMid meet">
<metadata>
Created by potrace 1.16, written by Peter Selinger 2001-2019
</metadata>
<g transform="translate(0.000000,128.000000) scale(0.100000,-0.100000)"
fill="#000000" stroke="none">
<path d="M866 1280 c-20 0 -36 -4 -36 -10 0 -5 5 -21 12 -35 8 -18 18 -25 32
-23 16 2 22 12 24 36 3 31 2 32 -32 32z"/>
<path d="M500 1257 c-31 4 -41 2 -46 -11 -4 -9 6 -31 26 -56 32 -40 32 -40 0
-80 -17 -22 -38 -40 -45 -40 -7 0 -39 -20 -71 -45 -31 -25 -62 -45 -67 -45 -6
0 -25 -11 -42 -25 -22 -16 -35 -36 -39 -59 -5 -28 -2 -42 16 -66 12 -17 32
-33 45 -36 14 -4 33 2 50 14 16 11 53 32 83 45 30 14 80 32 110 40 30 8 63 18
73 22 10 4 17 3 17 -3 0 -6 -13 -44 -30 -85 -16 -42 -30 -83 -30 -92 0 -9 -9
-35 -20 -57 -11 -23 -20 -51 -20 -63 0 -12 -9 -40 -20 -63 -21 -42 -21 -42
-50 -27 -16 8 -64 20 -106 26 -60 8 -83 8 -101 -2 -16 -8 -23 -20 -21 -33 2
-17 13 -22 48 -27 25 -4 65 -13 90 -21 41 -14 45 -18 48 -49 2 -19 -4 -60 -12
-92 -8 -32 -13 -63 -10 -70 2 -7 -6 -38 -19 -68 -14 -29 -28 -73 -32 -97 -5
-32 -3 -49 9 -67 10 -15 26 -25 41 -25 20 0 25 6 30 38 4 20 13 62 20 92 7 30
18 78 24 105 5 28 16 77 22 110 7 33 21 71 31 84 10 13 18 32 18 42 0 9 13 31
30 47 16 16 68 55 116 87 58 38 90 53 96 47 7 -7 8 -36 3 -76 -6 -64 -8 -67
-44 -85 -21 -11 -43 -26 -50 -35 -8 -10 -10 -26 -6 -47 4 -17 18 -40 31 -52
13 -11 24 -32 24 -46 1 -14 11 -46 23 -71 22 -45 22 -45 77 -43 30 1 73 4 95
6 22 3 61 5 87 6 29 1 53 7 64 18 16 16 15 19 -17 45 -18 15 -38 28 -45 28 -6
0 -17 7 -25 16 -9 11 -23 14 -43 11 -17 -3 -49 -10 -71 -16 -22 -5 -44 -6 -49
-1 -4 4 -3 24 4 45 9 27 9 43 0 64 -8 21 -8 43 4 97 8 38 18 95 21 127 5 44
12 61 28 72 13 8 47 17 77 21 51 5 56 4 65 -17 6 -12 18 -27 27 -33 13 -8 21
-7 29 1 9 9 8 18 -5 38 -13 20 -15 33 -8 53 5 15 7 33 5 40 -3 6 -13 12 -24
12 -11 0 -35 -7 -55 -15 -25 -10 -42 -12 -60 -5 -13 5 -27 17 -31 26 -3 9 -2
29 4 44 8 23 7 34 -9 59 -11 17 -24 31 -29 31 -4 0 -17 -10 -28 -22 -12 -12
-24 -36 -27 -55 -3 -18 -4 -47 -2 -64 3 -17 0 -46 -7 -65 -8 -25 -24 -40 -69
-64 -32 -16 -72 -41 -88 -55 -16 -14 -34 -23 -39 -19 -5 3 -9 10 -9 16 0 6 13
41 29 77 16 36 42 106 57 155 19 64 24 94 17 105 -6 9 -18 18 -28 19 -10 2
-27 -1 -39 -6 -11 -6 -46 -18 -76 -28 -30 -9 -59 -20 -64 -25 -6 -5 -23 -9
-39 -9 -15 0 -36 -4 -45 -9 -9 -5 -45 -12 -79 -16 -44 -5 -63 -4 -63 4 0 6 11
16 24 21 13 5 27 14 31 20 4 6 17 16 28 21 12 5 43 22 69 37 25 15 54 34 65
43 10 8 36 27 58 41 22 14 52 38 67 52 21 20 26 31 19 49 -4 12 -24 30 -45 41
-20 10 -54 20 -76 23z"/>
<path d="M658 140 c-49 0 -68 -4 -68 -13 0 -7 5 -18 12 -25 7 -7 20 -12 30
-12 10 0 28 -5 41 -12 12 -6 29 -14 37 -18 9 -5 14 -17 12 -34 -3 -25 -2 -26
47 -26 47 0 51 2 51 24 0 16 -17 40 -47 70 -47 45 -49 46 -115 46z"/>
</g>
</svg>
