<?xml version="1.0" standalone="no"?>
<!DOCTYPE svg PUBLIC "-//W3C//DTD SVG 20010904//EN"
 "http://www.w3.org/TR/2001/REC-SVG-20010904/DTD/svg10.dtd">
<svg version="1.0" xmlns="http://www.w3.org/2000/svg"
 width="56.000000pt" height="56.000000pt" viewBox="0 0 56.000000 56.000000"
 preserveAspectRatio="xMidYMid meet">
<metadata>
Created by potrace 1.16, written by Peter Selinger 2001-2019
</metadata>
<g transform="translate(0.000000,56.000000) scale(0.100000,-0.100000)"
fill="#000000" stroke="none">
<path d="M300 560 c-5 0 -10 -4 -10 -10 0 -5 -7 -10 -16 -10 -12 0 -14 -7 -9
-32 4 -18 9 -36 11 -40 3 -4 21 -1 42 6 20 7 38 20 40 28 1 8 -9 20 -23 28
-14 7 -25 17 -25 22 0 4 -4 8 -10 8z"/>
<path d="M267 404 c-46 5 -47 5 -61 -27 -12 -29 -12 -34 5 -52 19 -19 19 -19
71 3 33 14 56 18 62 12 5 -5 9 -42 8 -82 0 -40 -5 -86 -11 -101 -6 -15 -22
-39 -35 -52 -14 -14 -34 -25 -46 -25 -11 0 -20 -4 -20 -10 0 -5 -8 -10 -18
-10 -11 0 -33 -7 -49 -15 -17 -9 -34 -23 -37 -32 -5 -13 -1 -15 31 -10 21 4
56 16 78 27 21 11 45 20 52 20 8 0 25 7 38 16 14 9 39 36 55 61 27 39 30 52
30 121 0 58 -5 82 -18 98 -9 12 -33 29 -52 37 -19 8 -56 18 -83 21z"/>
<path d="M407 40 c-7 0 -18 -9 -25 -20 -11 -18 -10 -20 13 -20 18 0 25 5 25
20 0 11 -6 20 -13 20z"/>
</g>
</svg>
