<?xml version="1.0" standalone="no"?>
<!DOCTYPE svg PUBLIC "-//W3C//DTD SVG 20010904//EN"
 "http://www.w3.org/TR/2001/REC-SVG-20010904/DTD/svg10.dtd">
<svg version="1.0" xmlns="http://www.w3.org/2000/svg"
 width="56.000000pt" height="56.000000pt" viewBox="0 0 56.000000 56.000000"
 preserveAspectRatio="xMidYMid meet">
<metadata>
Created by potrace 1.16, written by Peter Selinger 2001-2019
</metadata>
<g transform="translate(0.000000,56.000000) scale(0.100000,-0.100000)"
fill="#000000" stroke="none">
<path d="M289 560 c-10 0 -19 -6 -19 -14 0 -7 9 -25 20 -38 19 -25 19 -25 -19
-56 -35 -28 -39 -36 -38 -74 2 -43 2 -43 52 -46 32 -2 55 -9 63 -19 6 -9 12
-27 12 -39 0 -12 -8 -41 -19 -64 -11 -25 -54 -76 -107 -126 -88 -84 -88 -84
-41 -84 29 0 47 4 47 11 0 7 30 43 68 81 39 40 71 82 76 101 4 18 10 55 13 83
4 45 2 53 -25 82 -17 18 -40 32 -52 32 -15 0 -20 5 -18 17 2 11 16 20 38 23
20 4 41 10 48 14 7 4 12 16 12 26 0 12 -16 30 -42 46 -24 15 -44 31 -46 35 -2
5 -12 9 -23 9z"/>
<path d="M382 40 c-10 0 -22 -3 -25 -7 -4 -3 -2 -12 4 -20 6 -7 18 -13 25 -13
8 0 14 9 14 20 0 13 -7 20 -18 20z"/>
<path d="M290 8 c-19 0 -27 -2 -17 -5 9 -2 25 -2 35 0 9 3 1 5 -18 5z"/>
</g>
</svg>
