<?xml version="1.0" standalone="no"?>
<!DOCTYPE svg PUBLIC "-//W3C//DTD SVG 20010904//EN"
 "http://www.w3.org/TR/2001/REC-SVG-20010904/DTD/svg10.dtd">
<svg version="1.0" xmlns="http://www.w3.org/2000/svg"
 width="56.000000pt" height="56.000000pt" viewBox="0 0 56.000000 56.000000"
 preserveAspectRatio="xMidYMid meet">
<metadata>
Created by potrace 1.16, written by Peter Selinger 2001-2019
</metadata>
<g transform="translate(0.000000,56.000000) scale(0.100000,-0.100000)"
fill="#000000" stroke="none">
<path d="M300 560 c-9 0 -20 -3 -23 -7 -4 -3 -7 -15 -7 -26 0 -11 7 -25 16
-31 13 -10 11 -17 -20 -56 -20 -25 -36 -53 -36 -64 0 -15 5 -17 28 -13 16 3
34 7 41 9 8 2 18 -10 24 -27 7 -21 7 -42 -2 -73 -6 -25 -25 -73 -42 -107 -16
-34 -45 -81 -64 -103 -19 -22 -35 -45 -35 -51 0 -6 9 -11 19 -11 12 0 37 24
66 62 25 34 57 80 69 102 13 23 29 66 36 97 7 32 10 68 6 82 -3 14 -17 39 -32
56 -24 29 -24 31 -8 56 16 24 16 28 -1 65 -11 24 -25 40 -35 40z"/>
</g>
</svg>
