<?xml version="1.0" standalone="no"?>
<!DOCTYPE svg PUBLIC "-//W3C//DTD SVG 20010904//EN"
 "http://www.w3.org/TR/2001/REC-SVG-20010904/DTD/svg10.dtd">
<svg version="1.0" xmlns="http://www.w3.org/2000/svg"
 width="56.000000pt" height="56.000000pt" viewBox="0 0 56.000000 56.000000"
 preserveAspectRatio="xMidYMid meet">
<metadata>
Created by potrace 1.16, written by Peter Selinger 2001-2019
</metadata>
<g transform="translate(0.000000,56.000000) scale(0.100000,-0.100000)"
fill="#000000" stroke="none">
<path d="M286 560 c-20 0 -25 -6 -29 -37 -3 -28 1 -44 14 -59 11 -11 19 -25
19 -32 0 -6 -13 -26 -28 -44 -15 -18 -33 -45 -39 -60 -10 -21 -9 -29 2 -38 11
-9 23 -8 51 2 34 12 37 11 55 -11 10 -13 19 -31 19 -40 0 -9 5 -22 11 -28 8
-8 7 -19 -4 -39 -8 -16 -45 -53 -81 -83 -36 -30 -66 -59 -66 -64 0 -4 8 -6 19
-2 10 3 24 -1 31 -10 7 -8 19 -15 26 -15 8 0 14 6 14 13 0 7 20 37 45 66 24
29 52 68 61 87 10 21 14 44 9 61 -3 15 -29 49 -56 77 -27 27 -49 50 -49 52 0
2 11 20 25 40 14 20 25 45 25 55 0 9 -11 31 -25 47 -14 17 -25 37 -25 46 0 10
-9 16 -24 16z"/>
<path d="M187 30 c-7 0 -22 -7 -33 -15 -18 -14 -17 -14 14 -15 22 0 32 5 32
15 0 8 -6 15 -13 15z"/>
</g>
</svg>
