<?xml version="1.0" standalone="no"?>
<!DOCTYPE svg PUBLIC "-//W3C//DTD SVG 20010904//EN"
 "http://www.w3.org/TR/2001/REC-SVG-20010904/DTD/svg10.dtd">
<svg version="1.0" xmlns="http://www.w3.org/2000/svg"
 width="56.000000pt" height="56.000000pt" viewBox="0 0 56.000000 56.000000"
 preserveAspectRatio="xMidYMid meet">
<metadata>
Created by potrace 1.16, written by Peter Selinger 2001-2019
</metadata>
<g transform="translate(0.000000,56.000000) scale(0.100000,-0.100000)"
fill="#000000" stroke="none">
<path d="M316 540 c-9 0 -20 -9 -26 -19 -5 -11 -10 -28 -10 -38 0 -11 -12 -28
-27 -39 -16 -11 -36 -23 -45 -27 -11 -4 -18 -17 -18 -32 0 -19 8 -28 37 -40
21 -9 46 -23 56 -33 10 -9 25 -32 33 -51 9 -21 14 -70 14 -133 0 -89 2 -99 17
-96 12 2 20 17 25 43 4 22 7 67 7 100 1 33 -5 77 -12 98 -8 20 -20 43 -29 50
-8 6 -22 23 -32 37 -9 13 -16 30 -16 37 0 8 12 13 29 13 17 0 33 5 37 11 3 6
-4 24 -16 41 -15 20 -20 37 -16 54 5 17 2 24 -8 24z"/>
<path d="M200 520 c-5 0 -14 -9 -20 -21 -7 -11 -9 -28 -5 -37 5 -13 10 -10 21
17 8 18 14 35 14 37 0 2 -4 4 -10 4z"/>
<path d="M182 70 c-9 0 -12 -11 -10 -32 3 -32 5 -33 53 -36 50 -3 50 -3 10 32
-22 19 -46 35 -53 36z"/>
</g>
</svg>
