<?xml version="1.0" standalone="no"?>
<!DOCTYPE svg PUBLIC "-//W3C//DTD SVG 20010904//EN"
 "http://www.w3.org/TR/2001/REC-SVG-20010904/DTD/svg10.dtd">
<svg version="1.0" xmlns="http://www.w3.org/2000/svg"
 width="56.000000pt" height="56.000000pt" viewBox="0 0 56.000000 56.000000"
 preserveAspectRatio="xMidYMid meet">
<metadata>
Created by potrace 1.16, written by Peter Selinger 2001-2019
</metadata>
<g transform="translate(0.000000,56.000000) scale(0.100000,-0.100000)"
fill="#000000" stroke="none">
<path d="M277 560 c-24 0 -24 0 -23 -128 1 -122 2 -128 29 -163 18 -23 27 -48
27 -71 0 -20 -6 -51 -14 -70 -8 -19 -35 -53 -60 -75 -25 -23 -46 -44 -46 -47
0 -3 11 -6 25 -6 16 0 44 19 83 57 51 50 60 65 66 106 4 26 4 57 0 69 -3 11
-22 36 -40 55 -19 18 -34 38 -34 44 0 5 7 26 15 46 8 19 15 55 15 79 0 23 -4
46 -10 49 -5 3 -10 17 -10 31 0 18 -5 24 -23 24z"/>
</g>
</svg>
