<?xml version="1.0" standalone="no"?>
<!DOCTYPE svg PUBLIC "-//W3C//DTD SVG 20010904//EN"
 "http://www.w3.org/TR/2001/REC-SVG-20010904/DTD/svg10.dtd">
<svg version="1.0" xmlns="http://www.w3.org/2000/svg"
 width="56.000000pt" height="56.000000pt" viewBox="0 0 56.000000 56.000000"
 preserveAspectRatio="xMidYMid meet">
<metadata>
Created by potrace 1.16, written by Peter Selinger 2001-2019
</metadata>
<g transform="translate(0.000000,56.000000) scale(0.100000,-0.100000)"
fill="#000000" stroke="none">
<path d="M324 560 c-12 0 -24 -7 -28 -15 -3 -8 -3 -22 1 -31 4 -10 -6 -26 -28
-45 -19 -16 -37 -29 -41 -29 -5 0 -8 -7 -8 -15 0 -8 14 -27 31 -42 17 -16 37
-40 45 -55 12 -23 12 -35 0 -81 -8 -29 -28 -80 -44 -113 -17 -32 -42 -70 -56
-83 -14 -14 -26 -30 -26 -38 0 -8 13 -13 35 -13 29 0 38 6 63 43 15 23 39 65
51 92 16 34 25 76 29 132 5 82 5 82 -32 119 -20 20 -36 42 -36 50 0 8 16 16
40 20 22 4 44 12 50 19 8 9 6 23 -7 49 -12 24 -25 36 -39 36z"/>
</g>
</svg>
