<?xml version="1.0" standalone="no"?>
<!DOCTYPE svg PUBLIC "-//W3C//DTD SVG 20010904//EN"
 "http://www.w3.org/TR/2001/REC-SVG-20010904/DTD/svg10.dtd">
<svg version="1.0" xmlns="http://www.w3.org/2000/svg"
 width="56.000000pt" height="56.000000pt" viewBox="0 0 56.000000 56.000000"
 preserveAspectRatio="xMidYMid meet">
<metadata>
Created by potrace 1.16, written by Peter Selinger 2001-2019
</metadata>
<g transform="translate(0.000000,56.000000) scale(0.100000,-0.100000)"
fill="#000000" stroke="none">
<path d="M305 560 c-33 0 -35 -2 -35 -34 0 -26 -8 -41 -36 -65 -22 -19 -34
-38 -30 -46 3 -8 11 -15 19 -15 7 0 25 -13 40 -28 15 -15 27 -35 27 -44 0 -9
5 -20 11 -24 8 -4 10 -34 7 -88 -3 -44 -13 -103 -22 -131 -9 -27 -21 -58 -26
-67 -7 -13 -7 -18 2 -18 7 0 18 4 24 8 7 4 26 35 43 68 27 53 31 72 31 137 0
42 -4 79 -10 82 -5 3 -10 15 -10 26 0 10 -6 29 -12 41 -7 12 -23 30 -35 40
-12 11 -20 25 -16 33 3 8 14 15 24 15 11 0 22 6 25 14 3 8 0 25 -6 37 -10 19
-10 24 4 34 9 7 16 15 16 19 0 3 -16 6 -35 6z"/>
<path d="M185 20 c-8 0 -15 -4 -15 -10 0 -5 7 -10 15 -10 8 0 15 5 15 10 0 6
-7 10 -15 10z"/>
</g>
</svg>
