<?xml version="1.0" standalone="no"?>
<!DOCTYPE svg PUBLIC "-//W3C//DTD SVG 20010904//EN"
 "http://www.w3.org/TR/2001/REC-SVG-20010904/DTD/svg10.dtd">
<svg version="1.0" xmlns="http://www.w3.org/2000/svg"
 width="56.000000pt" height="56.000000pt" viewBox="0 0 56.000000 56.000000"
 preserveAspectRatio="xMidYMid meet">
<metadata>
Created by potrace 1.16, written by Peter Selinger 2001-2019
</metadata>
<g transform="translate(0.000000,56.000000) scale(0.100000,-0.100000)"
fill="#000000" stroke="none">
<path d="M225 560 c-16 0 -25 -6 -25 -16 0 -9 8 -29 17 -45 17 -28 16 -29 -14
-71 -31 -44 -31 -44 -11 -71 13 -18 29 -27 48 -27 16 0 32 -5 35 -10 5 -8 11
-8 20 0 11 9 15 0 20 -45 4 -32 5 -80 2 -107 -4 -28 -12 -57 -18 -65 -7 -7
-18 -12 -26 -9 -10 4 -12 -1 -7 -18 3 -13 1 -27 -5 -30 -6 -4 -11 -16 -11 -27
0 -10 6 -19 14 -19 8 0 28 17 45 37 17 21 31 45 31 55 0 9 4 20 10 23 6 3 10
17 10 30 0 13 4 27 10 30 5 3 9 30 9 58 -1 29 -6 66 -12 82 -5 17 -22 42 -35
58 -17 17 -36 27 -54 27 -15 0 -28 4 -28 8 0 4 13 23 30 42 16 19 29 40 30 46
0 6 -13 23 -30 37 -16 15 -41 27 -55 27z"/>
</g>
</svg>
