<?xml version="1.0" standalone="no"?>
<!DOCTYPE svg PUBLIC "-//W3C//DTD SVG 20010904//EN"
 "http://www.w3.org/TR/2001/REC-SVG-20010904/DTD/svg10.dtd">
<svg version="1.0" xmlns="http://www.w3.org/2000/svg"
 width="56.000000pt" height="56.000000pt" viewBox="0 0 56.000000 56.000000"
 preserveAspectRatio="xMidYMid meet">
<metadata>
Created by potrace 1.16, written by Peter Selinger 2001-2019
</metadata>
<g transform="translate(0.000000,56.000000) scale(0.100000,-0.100000)"
fill="#000000" stroke="none">
<path d="M313 532 c-17 9 -34 14 -37 10 -3 -3 -6 -13 -6 -23 0 -10 -13 -25
-29 -33 -15 -8 -34 -28 -40 -45 -7 -16 -11 -40 -9 -53 3 -22 7 -23 61 -20 57
4 57 4 57 -44 0 -26 -5 -64 -11 -83 -6 -20 -15 -44 -20 -53 -5 -10 -9 -25 -9
-33 0 -8 -9 -37 -21 -63 -11 -26 -25 -55 -30 -64 -5 -10 -9 -20 -9 -23 0 -3
11 -5 24 -5 17 0 28 9 39 33 9 17 23 55 32 82 9 28 21 61 28 74 7 13 12 64 12
113 0 86 -1 91 -28 114 -15 13 -39 24 -53 24 -17 0 -24 6 -24 19 0 14 10 20
39 25 22 3 46 3 54 0 8 -3 17 -1 20 3 3 5 3 13 -1 18 -4 6 -21 17 -39 27z"/>
</g>
</svg>
