<?xml version="1.0" standalone="no"?>
<!DOCTYPE svg PUBLIC "-//W3C//DTD SVG 20010904//EN"
 "http://www.w3.org/TR/2001/REC-SVG-20010904/DTD/svg10.dtd">
<svg version="1.0" xmlns="http://www.w3.org/2000/svg"
 width="56.000000pt" height="56.000000pt" viewBox="0 0 56.000000 56.000000"
 preserveAspectRatio="xMidYMid meet">
<metadata>
Created by potrace 1.16, written by Peter Selinger 2001-2019
</metadata>
<g transform="translate(0.000000,56.000000) scale(0.100000,-0.100000)"
fill="#000000" stroke="none">
<path d="M235 540 c-14 0 -25 -2 -25 -5 0 -2 9 -20 20 -40 20 -35 20 -35 0
-70 -11 -20 -20 -48 -20 -63 0 -20 8 -33 30 -45 17 -10 30 -27 30 -37 0 -10 5
-22 10 -25 7 -4 10 -40 9 -88 -2 -74 -5 -85 -30 -117 -16 -19 -29 -38 -29 -42
0 -5 6 -8 13 -8 8 0 22 10 33 23 10 12 25 32 32 44 6 13 12 31 12 41 0 10 4
22 9 27 5 6 11 26 15 45 3 19 2 42 -4 50 -5 9 -5 19 1 26 6 8 1 17 -16 28 -14
9 -25 23 -25 30 0 8 -13 27 -30 42 -28 27 -29 29 -12 49 10 11 24 33 32 49 14
27 13 30 -8 44 -12 8 -22 21 -22 28 0 8 -10 14 -25 14z"/>
</g>
</svg>
