<?xml version="1.0" standalone="no"?>
<!DOCTYPE svg PUBLIC "-//W3C//DTD SVG 20010904//EN"
 "http://www.w3.org/TR/2001/REC-SVG-20010904/DTD/svg10.dtd">
<svg version="1.0" xmlns="http://www.w3.org/2000/svg"
 width="56.000000pt" height="56.000000pt" viewBox="0 0 56.000000 56.000000"
 preserveAspectRatio="xMidYMid meet">
<metadata>
Created by potrace 1.16, written by Peter Selinger 2001-2019
</metadata>
<g transform="translate(0.000000,56.000000) scale(0.100000,-0.100000)"
fill="#000000" stroke="none">
<path d="M224 541 c-22 21 -22 21 -29 -1 -4 -12 -2 -27 4 -33 6 -6 11 -21 11
-33 0 -13 -4 -26 -10 -29 -5 -3 -10 -20 -10 -37 0 -18 7 -36 18 -44 9 -7 24
-14 33 -14 9 0 28 -18 42 -39 26 -39 26 -39 12 -143 -8 -57 -18 -115 -21 -130
-5 -21 -2 -28 8 -28 8 0 19 10 25 22 6 13 15 41 21 63 6 22 15 56 20 76 5 22
6 59 1 90 -5 30 -14 64 -20 76 -6 12 -34 31 -62 42 -51 21 -51 21 -6 67 42 44
43 46 25 60 -11 8 -24 14 -30 14 -5 0 -20 9 -32 21z"/>
</g>
</svg>
