<?xml version="1.0" standalone="no"?>
<!DOCTYPE svg PUBLIC "-//W3C//DTD SVG 20010904//EN"
 "http://www.w3.org/TR/2001/REC-SVG-20010904/DTD/svg10.dtd">
<svg version="1.0" xmlns="http://www.w3.org/2000/svg"
 width="56.000000pt" height="56.000000pt" viewBox="0 0 56.000000 56.000000"
 preserveAspectRatio="xMidYMid meet">
<metadata>
Created by potrace 1.16, written by Peter Selinger 2001-2019
</metadata>
<g transform="translate(0.000000,56.000000) scale(0.100000,-0.100000)"
fill="#000000" stroke="none">
<path d="M263 560 c-7 0 -13 -6 -13 -14 0 -8 5 -37 11 -64 12 -49 11 -51 -19
-83 -18 -19 -32 -43 -32 -53 0 -10 15 -42 32 -70 29 -46 32 -58 31 -121 -1
-52 -7 -81 -22 -109 -12 -21 -20 -40 -17 -43 2 -3 13 -2 24 1 10 4 29 29 42
59 12 28 26 60 31 69 5 10 9 31 9 47 0 16 -5 42 -10 56 -6 15 -24 43 -40 63
-17 20 -30 44 -30 53 0 9 16 33 35 53 25 26 32 41 26 54 -4 9 -16 36 -26 60
-10 23 -24 42 -32 42z"/>
</g>
</svg>
