<?xml version="1.0" standalone="no"?>
<!DOCTYPE svg PUBLIC "-//W3C//DTD SVG 20010904//EN"
 "http://www.w3.org/TR/2001/REC-SVG-20010904/DTD/svg10.dtd">
<svg version="1.0" xmlns="http://www.w3.org/2000/svg"
 width="56.000000pt" height="56.000000pt" viewBox="0 0 56.000000 56.000000"
 preserveAspectRatio="xMidYMid meet">
<metadata>
Created by potrace 1.16, written by Peter Selinger 2001-2019
</metadata>
<g transform="translate(0.000000,56.000000) scale(0.100000,-0.100000)"
fill="#000000" stroke="none">
<path d="M304 560 c-21 0 -34 -6 -38 -17 -4 -9 -4 -35 -1 -57 6 -37 3 -44 -24
-70 -17 -17 -31 -34 -31 -39 0 -4 -7 -15 -15 -23 -8 -9 -15 -22 -15 -30 0 -7
12 -17 27 -20 18 -5 39 0 68 16 23 13 47 20 54 16 7 -5 9 -21 6 -44 -4 -20
-12 -59 -18 -87 -10 -43 -23 -61 -90 -127 -64 -63 -75 -78 -57 -78 12 0 37 7
55 16 19 9 54 37 78 63 30 32 49 64 59 101 9 30 21 72 26 93 6 21 8 50 6 65
-3 15 -13 34 -24 43 -11 10 -29 14 -43 12 -14 -3 -28 0 -31 6 -4 5 7 17 25 26
25 14 30 20 23 38 -4 12 -7 39 -8 60 0 35 -2 37 -32 37z"/>
</g>
</svg>
