<?xml version="1.0" standalone="no"?>
<!DOCTYPE svg PUBLIC "-//W3C//DTD SVG 20010904//EN"
 "http://www.w3.org/TR/2001/REC-SVG-20010904/DTD/svg10.dtd">
<svg version="1.0" xmlns="http://www.w3.org/2000/svg"
 width="56.000000pt" height="56.000000pt" viewBox="0 0 56.000000 56.000000"
 preserveAspectRatio="xMidYMid meet">
<metadata>
Created by potrace 1.16, written by Peter Selinger 2001-2019
</metadata>
<g transform="translate(0.000000,56.000000) scale(0.100000,-0.100000)"
fill="#000000" stroke="none">
<path d="M250 560 c-20 0 -22 -3 -16 -35 5 -23 2 -45 -9 -65 -8 -16 -20 -30
-26 -30 -6 0 -9 -20 -7 -47 3 -48 3 -48 44 -51 27 -2 49 -11 60 -24 16 -16 19
-36 19 -107 0 -47 -3 -97 -7 -111 -4 -14 -21 -40 -39 -58 -31 -32 -31 -32 9
-32 37 0 41 3 61 45 12 25 21 51 21 59 0 8 5 18 10 21 6 3 10 39 10 78 -1 47
-7 84 -18 106 -9 19 -30 43 -47 53 -16 10 -40 23 -52 29 -22 12 -22 12 0 43
12 17 27 37 34 44 7 7 13 19 13 26 0 7 -8 23 -19 34 -10 12 -28 22 -41 22z"/>
<path d="M268 175 c-2 1 -12 -6 -23 -17 -17 -17 -20 -17 -23 -4 -2 9 -10 16
-18 16 -8 0 -14 -6 -14 -12 0 -7 7 -21 14 -30 7 -10 18 -18 24 -18 6 0 19 14
27 31 9 17 15 32 13 34z"/>
</g>
</svg>
