<?xml version="1.0" standalone="no"?>
<!DOCTYPE svg PUBLIC "-//W3C//DTD SVG 20010904//EN"
 "http://www.w3.org/TR/2001/REC-SVG-20010904/DTD/svg10.dtd">
<svg version="1.0" xmlns="http://www.w3.org/2000/svg"
 width="56.000000pt" height="56.000000pt" viewBox="0 0 56.000000 56.000000"
 preserveAspectRatio="xMidYMid meet">
<metadata>
Created by potrace 1.16, written by Peter Selinger 2001-2019
</metadata>
<g transform="translate(0.000000,56.000000) scale(0.100000,-0.100000)"
fill="#000000" stroke="none">
<path d="M326 560 c-28 0 -35 -4 -40 -26 -4 -15 -4 -39 -1 -55 5 -20 1 -37
-14 -57 -15 -22 -18 -38 -14 -70 3 -24 10 -45 14 -48 5 -3 23 3 40 13 30 17
31 17 45 -1 8 -11 14 -39 14 -62 0 -26 -10 -59 -26 -88 -14 -25 -41 -59 -60
-75 -20 -15 -45 -33 -57 -39 -12 -5 -39 -17 -59 -26 -21 -10 -38 -20 -38 -23
0 -3 23 -2 52 1 28 4 64 16 79 27 15 10 30 19 34 19 3 0 24 14 45 31 21 17 48
51 59 75 12 24 21 59 21 78 0 19 -5 48 -11 63 -6 15 -16 38 -22 51 -9 19 -17
22 -56 20 -41 -3 -46 -1 -49 19 -3 17 3 24 25 28 15 4 34 8 41 11 7 2 15 11
19 20 4 10 -4 25 -23 41 -29 25 -29 25 -6 40 12 9 22 19 22 24 0 5 -15 9 -34
9z"/>
</g>
</svg>
