<?xml version="1.0" standalone="no"?>
<!DOCTYPE svg PUBLIC "-//W3C//DTD SVG 20010904//EN"
 "http://www.w3.org/TR/2001/REC-SVG-20010904/DTD/svg10.dtd">
<svg version="1.0" xmlns="http://www.w3.org/2000/svg"
 width="56.000000pt" height="56.000000pt" viewBox="0 0 56.000000 56.000000"
 preserveAspectRatio="xMidYMid meet">
<metadata>
Created by potrace 1.16, written by Peter Selinger 2001-2019
</metadata>
<g transform="translate(0.000000,56.000000) scale(0.100000,-0.100000)"
fill="#000000" stroke="none">
<path d="M248 560 c-14 0 -18 -5 -14 -16 3 -9 6 -19 6 -24 0 -5 12 -23 27 -41
26 -30 26 -33 9 -43 -10 -6 -29 -19 -42 -29 -13 -10 -24 -29 -24 -42 0 -12 7
-28 15 -35 13 -10 22 -8 55 15 24 16 46 25 56 21 13 -5 16 -18 12 -69 -3 -44
-10 -72 -26 -95 -13 -17 -48 -50 -79 -74 -31 -24 -64 -56 -74 -73 -10 -16 -18
-36 -18 -42 -1 -7 5 -13 12 -13 7 0 24 12 37 28 24 27 24 27 34 -1 9 -24 15
-27 54 -27 26 0 41 4 37 10 -3 5 -13 10 -20 10 -8 0 -19 9 -25 19 -5 11 -10
26 -10 34 0 8 13 20 30 27 16 7 36 23 44 35 9 13 25 41 37 62 16 27 22 56 23
102 1 60 -1 64 -34 92 -33 28 -33 29 -15 43 16 12 18 18 9 33 -6 10 -27 27
-47 37 -20 11 -39 28 -43 38 -3 10 -15 18 -26 18z"/>
</g>
</svg>
