<?xml version="1.0" standalone="no"?>
<!DOCTYPE svg PUBLIC "-//W3C//DTD SVG 20010904//EN"
 "http://www.w3.org/TR/2001/REC-SVG-20010904/DTD/svg10.dtd">
<svg version="1.0" xmlns="http://www.w3.org/2000/svg"
 width="56.000000pt" height="56.000000pt" viewBox="0 0 56.000000 56.000000"
 preserveAspectRatio="xMidYMid meet">
<metadata>
Created by potrace 1.16, written by Peter Selinger 2001-2019
</metadata>
<g transform="translate(0.000000,56.000000) scale(0.100000,-0.100000)"
fill="#000000" stroke="none">
<path d="M250 560 c-23 0 -31 -5 -36 -26 -5 -18 0 -32 17 -50 23 -24 23 -24
-10 -56 -25 -24 -31 -38 -29 -62 3 -30 5 -31 48 -31 44 0 45 0 52 -40 4 -22 5
-78 2 -125 -3 -47 -10 -100 -16 -118 -9 -30 -13 -33 -39 -27 -22 5 -29 3 -29
-9 0 -12 11 -16 44 -16 38 0 48 4 65 29 17 23 23 55 31 150 9 114 9 124 -11
166 -11 24 -30 47 -41 51 -20 6 -20 6 1 28 12 12 21 32 21 44 0 12 -9 27 -20
34 -11 7 -20 23 -20 35 0 19 -6 23 -30 23z"/>
</g>
</svg>
