<?xml version="1.0" standalone="no"?>
<!DOCTYPE svg PUBLIC "-//W3C//DTD SVG 20010904//EN"
 "http://www.w3.org/TR/2001/REC-SVG-20010904/DTD/svg10.dtd">
<svg version="1.0" xmlns="http://www.w3.org/2000/svg"
 width="56.000000pt" height="56.000000pt" viewBox="0 0 56.000000 56.000000"
 preserveAspectRatio="xMidYMid meet">
<metadata>
Created by potrace 1.16, written by Peter Selinger 2001-2019
</metadata>
<g transform="translate(0.000000,56.000000) scale(0.100000,-0.100000)"
fill="#000000" stroke="none">
<path d="M269 560 c-28 0 -28 -1 -23 -42 5 -41 3 -45 -40 -88 -25 -24 -46 -49
-46 -56 0 -6 -9 -14 -20 -17 -11 -3 -20 -10 -20 -15 0 -5 8 -20 19 -33 17 -21
22 -22 57 -12 22 7 51 14 65 17 18 4 35 0 49 -12 19 -16 23 -27 21 -78 -1 -42
-7 -67 -21 -86 -11 -15 -20 -31 -20 -35 0 -4 -11 -19 -23 -33 -12 -14 -40 -34
-62 -45 -40 -19 -40 -19 -6 -23 23 -2 40 3 55 17 12 12 35 21 50 21 18 0 37
10 53 29 14 16 34 55 45 87 15 45 17 63 9 81 -6 13 -11 35 -11 48 0 15 -15 36
-42 60 -39 33 -47 36 -85 30 -28 -4 -44 -2 -49 6 -4 8 0 17 11 23 10 6 36 26
57 45 33 29 38 39 33 60 -4 14 -11 32 -17 38 -6 7 -23 13 -39 13z"/>
</g>
</svg>
