<?xml version="1.0" standalone="no"?>
<!DOCTYPE svg PUBLIC "-//W3C//DTD SVG 20010904//EN"
 "http://www.w3.org/TR/2001/REC-SVG-20010904/DTD/svg10.dtd">
<svg version="1.0" xmlns="http://www.w3.org/2000/svg"
 width="56.000000pt" height="56.000000pt" viewBox="0 0 56.000000 56.000000"
 preserveAspectRatio="xMidYMid meet">
<metadata>
Created by potrace 1.16, written by Peter Selinger 2001-2019
</metadata>
<g transform="translate(0.000000,56.000000) scale(0.100000,-0.100000)"
fill="#000000" stroke="none">
<path d="M356 560 c-33 0 -36 -3 -36 -27 -1 -20 -10 -34 -33 -48 -17 -11 -33
-28 -35 -38 -2 -9 7 -31 20 -49 19 -27 22 -44 21 -97 -1 -35 -7 -78 -13 -95
-7 -17 -21 -49 -32 -72 -11 -22 -37 -59 -59 -82 -21 -23 -39 -44 -39 -47 0 -3
13 -5 29 -5 22 0 38 10 64 40 19 23 49 68 67 101 28 54 32 69 33 153 2 75 -2
99 -18 129 -10 20 -16 39 -13 43 4 3 21 -4 39 -17 30 -21 33 -21 44 -5 7 9 10
27 7 39 -2 12 -9 27 -14 33 -4 6 -6 19 -2 28 5 13 -1 16 -30 16z"/>
</g>
</svg>
