<?xml version="1.0" standalone="no"?>
<!DOCTYPE svg PUBLIC "-//W3C//DTD SVG 20010904//EN"
 "http://www.w3.org/TR/2001/REC-SVG-20010904/DTD/svg10.dtd">
<svg version="1.0" xmlns="http://www.w3.org/2000/svg"
 width="56.000000pt" height="56.000000pt" viewBox="0 0 56.000000 56.000000"
 preserveAspectRatio="xMidYMid meet">
<metadata>
Created by potrace 1.16, written by Peter Selinger 2001-2019
</metadata>
<g transform="translate(0.000000,56.000000) scale(0.100000,-0.100000)"
fill="#000000" stroke="none">
<path d="M216 560 c-18 0 -26 -5 -26 -17 1 -10 8 -27 18 -38 9 -12 26 -24 36
-28 18 -7 16 -12 -22 -46 -23 -21 -42 -45 -42 -53 0 -8 9 -23 20 -33 13 -12
29 -16 52 -12 18 2 49 -2 69 -10 20 -8 41 -25 47 -38 9 -20 6 -35 -24 -93 -21
-44 -48 -81 -72 -98 -20 -16 -64 -42 -97 -58 -59 -30 -59 -30 -28 -34 17 -2
52 4 77 12 26 9 64 27 87 41 22 14 54 46 72 71 20 29 36 67 43 104 8 45 7 66
-2 89 -7 16 -23 36 -36 45 -13 8 -42 19 -66 25 -24 5 -46 12 -49 15 -3 3 6 10
21 16 15 5 35 10 45 10 10 0 24 6 30 14 6 7 9 21 5 30 -3 9 -26 21 -50 27 -25
7 -53 22 -63 35 -11 14 -29 24 -45 24z"/>
</g>
</svg>
