<?xml version="1.0" standalone="no"?>
<!DOCTYPE svg PUBLIC "-//W3C//DTD SVG 20010904//EN"
 "http://www.w3.org/TR/2001/REC-SVG-20010904/DTD/svg10.dtd">
<svg version="1.0" xmlns="http://www.w3.org/2000/svg"
 width="56.000000pt" height="56.000000pt" viewBox="0 0 56.000000 56.000000"
 preserveAspectRatio="xMidYMid meet">
<metadata>
Created by potrace 1.16, written by Peter Selinger 2001-2019
</metadata>
<g transform="translate(0.000000,56.000000) scale(0.100000,-0.100000)"
fill="#000000" stroke="none">
<path d="M259 560 c-5 0 -9 -7 -9 -15 0 -8 5 -26 12 -41 11 -24 10 -29 -21
-56 -23 -21 -35 -41 -38 -69 -4 -30 -2 -40 11 -45 11 -4 26 2 41 16 20 19 27
21 40 10 11 -9 15 -32 15 -84 0 -48 -7 -92 -22 -135 -16 -45 -35 -77 -63 -103
-39 -38 -39 -38 -10 -38 20 0 39 11 65 39 20 21 47 60 61 87 20 41 24 64 24
136 0 82 -2 88 -29 117 -16 16 -38 31 -49 33 -11 2 -22 9 -25 15 -2 7 2 15 10
17 7 2 25 7 41 10 15 4 27 13 27 20 0 8 -16 30 -36 50 -20 20 -40 36 -45 36z"/>
</g>
</svg>
