<?xml version="1.0" standalone="no"?>
<!DOCTYPE svg PUBLIC "-//W3C//DTD SVG 20010904//EN"
 "http://www.w3.org/TR/2001/REC-SVG-20010904/DTD/svg10.dtd">
<svg version="1.0" xmlns="http://www.w3.org/2000/svg"
 width="56.000000pt" height="56.000000pt" viewBox="0 0 56.000000 56.000000"
 preserveAspectRatio="xMidYMid meet">
<metadata>
Created by potrace 1.16, written by Peter Selinger 2001-2019
</metadata>
<g transform="translate(0.000000,56.000000) scale(0.100000,-0.100000)"
fill="#000000" stroke="none">
<path d="M289 560 c-5 0 -9 -7 -9 -16 0 -8 11 -30 24 -47 25 -32 25 -32 -37
-64 -34 -17 -70 -33 -80 -37 -12 -4 -17 -14 -15 -28 3 -21 8 -23 60 -23 39 0
62 -5 73 -16 9 -8 18 -31 21 -50 3 -19 -1 -59 -11 -91 -9 -31 -30 -76 -48
-100 -17 -23 -37 -53 -44 -66 -11 -20 -10 -22 17 -22 16 0 39 10 52 23 13 12
31 34 41 49 9 15 24 49 33 75 9 26 17 71 18 99 1 45 -4 57 -41 106 -42 56 -42
56 -4 71 24 10 41 24 44 39 4 15 1 26 -11 32 -9 5 -30 22 -45 38 -16 15 -33
28 -38 28z"/>
<path d="M379 560 c-14 0 -19 -5 -17 -17 2 -10 11 -19 21 -21 12 -2 17 3 17
17 0 15 -6 21 -21 21z"/>
</g>
</svg>
