<?xml version="1.0" standalone="no"?>
<!DOCTYPE svg PUBLIC "-//W3C//DTD SVG 20010904//EN"
 "http://www.w3.org/TR/2001/REC-SVG-20010904/DTD/svg10.dtd">
<svg version="1.0" xmlns="http://www.w3.org/2000/svg"
 width="56.000000pt" height="56.000000pt" viewBox="0 0 56.000000 56.000000"
 preserveAspectRatio="xMidYMid meet">
<metadata>
Created by potrace 1.16, written by Peter Selinger 2001-2019
</metadata>
<g transform="translate(0.000000,56.000000) scale(0.100000,-0.100000)"
fill="#000000" stroke="none">
<path d="M221 560 c-6 0 -11 -9 -11 -21 0 -11 9 -34 20 -50 19 -26 20 -30 5
-58 -11 -22 -12 -32 -3 -37 6 -4 25 8 45 29 18 20 33 45 33 56 0 11 -9 22 -20
26 -11 3 -28 17 -39 31 -10 13 -24 24 -30 24z"/>
<path d="M281 359 c-14 0 -36 -5 -48 -11 -13 -6 -23 -17 -23 -25 0 -7 8 -13
18 -13 10 0 23 5 29 11 7 7 17 2 32 -19 16 -23 21 -45 21 -95 0 -36 -4 -68 -9
-71 -5 -3 -11 -20 -14 -38 -4 -18 -9 -48 -13 -65 -5 -29 -4 -33 15 -33 14 0
22 8 27 28 3 15 10 37 15 50 5 13 9 34 9 47 0 13 5 27 10 30 6 3 10 28 10 54
0 26 -5 63 -11 82 -7 19 -19 42 -27 52 -8 9 -27 17 -41 16z"/>
</g>
</svg>
