<?xml version="1.0" standalone="no"?>
<!DOCTYPE svg PUBLIC "-//W3C//DTD SVG 20010904//EN"
 "http://www.w3.org/TR/2001/REC-SVG-20010904/DTD/svg10.dtd">
<svg version="1.0" xmlns="http://www.w3.org/2000/svg"
 width="56.000000pt" height="56.000000pt" viewBox="0 0 56.000000 56.000000"
 preserveAspectRatio="xMidYMid meet">
<metadata>
Created by potrace 1.16, written by Peter Selinger 2001-2019
</metadata>
<g transform="translate(0.000000,56.000000) scale(0.100000,-0.100000)"
fill="#000000" stroke="none">
<path d="M233 522 c-8 36 -8 36 -25 13 -10 -13 -18 -34 -18 -47 0 -13 7 -31
15 -41 7 -11 11 -26 8 -35 -2 -10 -9 -27 -15 -39 -8 -17 -5 -29 19 -65 17 -23
38 -59 48 -78 10 -19 24 -59 30 -89 11 -45 11 -61 -1 -94 -8 -22 -14 -41 -14
-43 0 -2 9 -4 20 -4 12 0 28 13 40 32 11 18 20 50 20 72 0 23 -12 62 -31 99
-17 33 -44 80 -60 103 -16 23 -29 51 -29 60 0 10 12 28 28 40 27 22 27 22 0
51 -15 16 -31 45 -35 65z"/>
</g>
</svg>
