<?xml version="1.0" standalone="no"?>
<!DOCTYPE svg PUBLIC "-//W3C//DTD SVG 20010904//EN"
 "http://www.w3.org/TR/2001/REC-SVG-20010904/DTD/svg10.dtd">
<svg version="1.0" xmlns="http://www.w3.org/2000/svg"
 width="56.000000pt" height="56.000000pt" viewBox="0 0 56.000000 56.000000"
 preserveAspectRatio="xMidYMid meet">
<metadata>
Created by potrace 1.16, written by Peter Selinger 2001-2019
</metadata>
<g transform="translate(0.000000,56.000000) scale(0.100000,-0.100000)"
fill="#000000" stroke="none">
<path d="M346 560 c-13 0 -30 -13 -44 -34 -17 -24 -21 -41 -16 -61 4 -15 17
-30 30 -35 13 -5 30 -23 39 -39 8 -17 15 -42 15 -56 0 -14 -4 -33 -9 -43 -5
-9 -17 -43 -27 -76 -16 -48 -30 -69 -82 -117 -34 -33 -67 -59 -72 -59 -6 0
-10 -7 -10 -15 0 -9 9 -15 21 -15 11 0 35 10 52 22 18 13 43 32 56 43 13 11
36 39 52 62 16 22 38 78 50 123 16 60 19 84 10 93 -6 6 -11 21 -11 33 0 12
-16 38 -36 57 -37 35 -37 35 -10 59 19 16 25 29 21 41 -4 9 -17 17 -29 17z"/>
</g>
</svg>
