<?xml version="1.0" standalone="no"?>
<!DOCTYPE svg PUBLIC "-//W3C//DTD SVG 20010904//EN"
 "http://www.w3.org/TR/2001/REC-SVG-20010904/DTD/svg10.dtd">
<svg version="1.0" xmlns="http://www.w3.org/2000/svg"
 width="56.000000pt" height="56.000000pt" viewBox="0 0 56.000000 56.000000"
 preserveAspectRatio="xMidYMid meet">
<metadata>
Created by potrace 1.16, written by Peter Selinger 2001-2019
</metadata>
<g transform="translate(0.000000,56.000000) scale(0.100000,-0.100000)"
fill="#000000" stroke="none">
<path d="M236 560 c-2 0 -6 -7 -10 -15 -3 -8 -1 -26 4 -40 5 -13 20 -27 34
-31 13 -3 32 -4 42 -2 9 1 19 8 21 15 3 7 -10 21 -29 32 -18 11 -38 25 -45 30
-7 6 -14 11 -17 11z"/>
<path d="M210 451 c-23 28 -29 31 -35 18 -3 -9 2 -34 12 -55 17 -35 22 -39 58
-40 22 -1 45 -2 51 -3 6 0 16 -12 22 -26 7 -14 12 -52 12 -83 -1 -31 -7 -83
-14 -114 -8 -31 -21 -71 -30 -89 -9 -18 -16 -38 -16 -46 0 -7 4 -13 8 -13 5 0
15 8 23 18 8 9 24 35 36 57 11 22 24 63 27 90 4 28 9 64 12 80 2 17 -1 53 -8
80 -7 28 -18 60 -26 73 -12 18 -22 22 -59 20 -39 -1 -47 3 -73 33z"/>
<path d="M206 33 c-8 3 -16 3 -19 0 -3 -3 -3 -11 0 -19 3 -8 11 -14 19 -14 8
0 14 6 14 14 0 8 -6 16 -14 19z"/>
</g>
</svg>
