<?xml version="1.0" standalone="no"?>
<!DOCTYPE svg PUBLIC "-//W3C//DTD SVG 20010904//EN"
 "http://www.w3.org/TR/2001/REC-SVG-20010904/DTD/svg10.dtd">
<svg version="1.0" xmlns="http://www.w3.org/2000/svg"
 width="56.000000pt" height="56.000000pt" viewBox="0 0 56.000000 56.000000"
 preserveAspectRatio="xMidYMid meet">
<metadata>
Created by potrace 1.16, written by Peter Selinger 2001-2019
</metadata>
<g transform="translate(0.000000,56.000000) scale(0.100000,-0.100000)"
fill="#000000" stroke="none">
<path d="M300 540 c-11 0 -20 -10 -24 -25 -4 -14 -13 -25 -21 -25 -8 0 -19 -9
-25 -20 -6 -11 -8 -26 -4 -33 4 -6 15 -21 24 -32 11 -13 20 -46 24 -90 3 -38
2 -104 -4 -145 -5 -41 -14 -97 -18 -123 -8 -41 -7 -47 7 -45 9 2 25 21 36 43
17 34 20 60 20 185 0 130 -2 150 -22 192 -13 26 -23 49 -23 52 0 4 11 6 24 6
13 0 26 6 29 13 2 6 2 20 -1 30 -2 9 -12 17 -22 17z"/>
</g>
</svg>
