<?xml version="1.0" standalone="no"?>
<!DOCTYPE svg PUBLIC "-//W3C//DTD SVG 20010904//EN"
 "http://www.w3.org/TR/2001/REC-SVG-20010904/DTD/svg10.dtd">
<svg version="1.0" xmlns="http://www.w3.org/2000/svg"
 width="56.000000pt" height="56.000000pt" viewBox="0 0 56.000000 56.000000"
 preserveAspectRatio="xMidYMid meet">
<metadata>
Created by potrace 1.16, written by Peter Selinger 2001-2019
</metadata>
<g transform="translate(0.000000,56.000000) scale(0.100000,-0.100000)"
fill="#000000" stroke="none">
<path d="M308 560 c-10 0 -18 -3 -18 -6 0 -3 10 -20 22 -36 20 -30 21 -31 3
-44 -10 -7 -22 -15 -28 -17 -6 -2 -8 -8 -4 -14 4 -6 26 -16 51 -23 24 -7 49
-9 55 -5 6 3 11 13 11 21 0 9 -17 40 -37 70 -22 30 -46 54 -55 54z"/>
<path d="M228 440 c-13 0 -32 -7 -43 -16 -15 -11 -17 -18 -9 -32 6 -9 21 -17
32 -17 11 0 29 -12 40 -25 11 -14 25 -51 32 -83 13 -54 12 -58 -8 -80 -12 -13
-22 -33 -22 -46 0 -12 -9 -31 -20 -43 -11 -12 -20 -29 -20 -38 0 -8 -10 -20
-22 -25 -12 -6 -23 -16 -26 -22 -2 -8 5 -13 16 -13 11 0 31 15 46 33 14 17 37
47 51 66 14 19 25 42 25 51 0 9 3 20 7 24 4 4 13 28 19 53 9 34 9 54 1 72 -6
14 -23 44 -37 66 -15 22 -29 48 -33 58 -4 9 -16 17 -29 17z"/>
</g>
</svg>
