<?xml version="1.0" standalone="no"?>
<!DOCTYPE svg PUBLIC "-//W3C//DTD SVG 20010904//EN"
 "http://www.w3.org/TR/2001/REC-SVG-20010904/DTD/svg10.dtd">
<svg version="1.0" xmlns="http://www.w3.org/2000/svg"
 width="56.000000pt" height="56.000000pt" viewBox="0 0 56.000000 56.000000"
 preserveAspectRatio="xMidYMid meet">
<metadata>
Created by potrace 1.16, written by Peter Selinger 2001-2019
</metadata>
<g transform="translate(0.000000,56.000000) scale(0.100000,-0.100000)"
fill="#000000" stroke="none">
<path d="M210 560 c-17 0 -30 -2 -30 -5 0 -3 11 -28 25 -56 20 -39 23 -54 15
-69 -6 -11 -15 -20 -19 -20 -5 0 -16 -15 -25 -34 -12 -26 -14 -41 -6 -60 5
-14 16 -26 24 -26 7 0 31 7 52 16 36 15 39 15 52 -3 10 -13 13 -38 9 -96 -4
-63 -9 -83 -26 -98 -12 -11 -21 -26 -21 -33 0 -8 -7 -16 -15 -20 -8 -3 -15
-12 -15 -20 0 -7 -10 -17 -22 -21 -21 -6 -21 -8 -5 -12 11 -3 35 -2 53 2 23 4
38 14 43 28 5 12 19 31 31 42 12 11 27 31 32 45 6 14 16 54 24 90 8 36 14 68
14 72 0 4 -25 32 -56 62 -55 55 -55 55 -25 82 17 15 31 35 31 44 0 9 -5 21
-12 28 -7 7 -20 12 -30 12 -11 0 -30 11 -44 25 -15 15 -36 25 -54 25z"/>
</g>
</svg>
