<?xml version="1.0" standalone="no"?>
<!DOCTYPE svg PUBLIC "-//W3C//DTD SVG 20010904//EN"
 "http://www.w3.org/TR/2001/REC-SVG-20010904/DTD/svg10.dtd">
<svg version="1.0" xmlns="http://www.w3.org/2000/svg"
 width="56.000000pt" height="56.000000pt" viewBox="0 0 56.000000 56.000000"
 preserveAspectRatio="xMidYMid meet">
<metadata>
Created by potrace 1.16, written by Peter Selinger 2001-2019
</metadata>
<g transform="translate(0.000000,56.000000) scale(0.100000,-0.100000)"
fill="#000000" stroke="none">
<path d="M320 560 c-14 0 -20 -7 -20 -21 0 -12 -16 -39 -35 -60 -19 -22 -35
-43 -35 -48 0 -4 12 -20 27 -35 14 -15 33 -24 40 -22 7 3 23 -4 34 -15 15 -15
19 -27 14 -42 -4 -12 -9 -33 -12 -47 -3 -14 -14 -37 -24 -52 -11 -14 -19 -31
-19 -38 0 -6 -14 -31 -30 -56 -17 -24 -46 -56 -65 -71 -19 -16 -35 -34 -35
-40 0 -8 14 -13 36 -13 23 0 42 7 51 18 7 9 35 49 61 87 27 39 53 88 60 110 6
22 13 63 16 90 3 28 2 64 -2 80 -7 24 -16 32 -45 39 -20 5 -37 16 -37 23 0 8
21 23 46 34 25 11 43 26 41 32 -2 7 -13 16 -25 22 -12 5 -22 13 -22 17 0 5 -9
8 -20 8z"/>
</g>
</svg>
