<?xml version="1.0" standalone="no"?>
<!DOCTYPE svg PUBLIC "-//W3C//DTD SVG 20010904//EN"
 "http://www.w3.org/TR/2001/REC-SVG-20010904/DTD/svg10.dtd">
<svg version="1.0" xmlns="http://www.w3.org/2000/svg"
 width="56.000000pt" height="56.000000pt" viewBox="0 0 56.000000 56.000000"
 preserveAspectRatio="xMidYMid meet">
<metadata>
Created by potrace 1.16, written by Peter Selinger 2001-2019
</metadata>
<g transform="translate(0.000000,56.000000) scale(0.100000,-0.100000)"
fill="#000000" stroke="none">
<path d="M240 560 c-16 0 -30 -3 -30 -7 0 -5 9 -23 20 -41 11 -18 20 -40 20
-49 0 -9 -16 -31 -35 -49 -19 -17 -35 -38 -35 -46 0 -8 6 -22 13 -32 8 -10 24
-20 38 -21 13 -1 28 -3 32 -4 4 0 14 -16 22 -34 10 -24 12 -48 6 -88 -5 -30
-20 -84 -34 -121 -14 -38 -22 -68 -17 -68 4 0 19 10 34 21 15 12 39 47 53 77
14 31 28 82 30 113 4 42 1 68 -10 92 -9 18 -28 39 -42 45 -14 7 -32 12 -40 12
-8 0 -15 4 -15 9 0 5 11 16 25 25 13 9 31 16 39 16 9 0 19 8 24 18 6 9 6 26 2
37 -4 11 -22 32 -39 48 -17 15 -31 32 -31 37 0 6 -13 10 -30 10z"/>
</g>
</svg>
