<?xml version="1.0" standalone="no"?>
<!DOCTYPE svg PUBLIC "-//W3C//DTD SVG 20010904//EN"
 "http://www.w3.org/TR/2001/REC-SVG-20010904/DTD/svg10.dtd">
<svg version="1.0" xmlns="http://www.w3.org/2000/svg"
 width="56.000000pt" height="56.000000pt" viewBox="0 0 56.000000 56.000000"
 preserveAspectRatio="xMidYMid meet">
<metadata>
Created by potrace 1.16, written by Peter Selinger 2001-2019
</metadata>
<g transform="translate(0.000000,56.000000) scale(0.100000,-0.100000)"
fill="#000000" stroke="none">
<path d="M250 560 c-11 0 -20 -4 -20 -8 0 -5 9 -17 19 -27 20 -17 20 -18 -10
-42 -27 -23 -30 -31 -27 -72 3 -46 3 -46 39 -43 33 3 37 1 42 -25 3 -16 1 -47
-4 -69 -6 -21 -13 -50 -15 -64 -3 -14 -10 -36 -16 -50 -6 -14 -14 -34 -18 -45
-5 -11 -15 -36 -24 -57 -9 -20 -16 -41 -16 -47 0 -6 9 -11 20 -11 11 0 20 5
20 11 0 6 17 48 38 92 22 45 44 98 50 118 7 19 12 67 12 107 0 62 -3 73 -22
86 -12 9 -33 16 -46 16 -14 0 -22 5 -20 13 2 6 21 20 41 30 20 10 37 22 37 26
0 4 -13 20 -30 34 -16 15 -39 27 -50 27z"/>
</g>
</svg>
