<?xml version="1.0" standalone="no"?>
<!DOCTYPE svg PUBLIC "-//W3C//DTD SVG 20010904//EN"
 "http://www.w3.org/TR/2001/REC-SVG-20010904/DTD/svg10.dtd">
<svg version="1.0" xmlns="http://www.w3.org/2000/svg"
 width="56.000000pt" height="56.000000pt" viewBox="0 0 56.000000 56.000000"
 preserveAspectRatio="xMidYMid meet">
<metadata>
Created by potrace 1.16, written by Peter Selinger 2001-2019
</metadata>
<g transform="translate(0.000000,56.000000) scale(0.100000,-0.100000)"
fill="#000000" stroke="none">
<path d="M270 560 c-11 0 -20 -4 -20 -9 0 -6 5 -13 11 -17 6 -3 -2 -14 -20
-25 -25 -15 -31 -25 -31 -54 0 -24 6 -37 21 -45 11 -6 29 -26 39 -43 14 -23
20 -50 20 -97 0 -45 -6 -74 -18 -95 -10 -16 -24 -50 -31 -75 -7 -25 -16 -49
-20 -55 -5 -5 -11 -18 -14 -27 -5 -15 -1 -18 27 -18 29 0 35 5 51 43 9 23 22
53 27 67 6 14 14 33 19 42 5 10 9 58 9 108 0 71 -5 100 -21 135 -12 25 -25 48
-30 51 -5 3 -9 14 -9 25 0 14 7 19 29 19 17 0 32 4 35 9 3 4 -8 20 -24 35 -16
14 -39 26 -50 26z"/>
</g>
</svg>
