<?xml version="1.0" standalone="no"?>
<!DOCTYPE svg PUBLIC "-//W3C//DTD SVG 20010904//EN"
 "http://www.w3.org/TR/2001/REC-SVG-20010904/DTD/svg10.dtd">
<svg version="1.0" xmlns="http://www.w3.org/2000/svg"
 width="56.000000pt" height="56.000000pt" viewBox="0 0 56.000000 56.000000"
 preserveAspectRatio="xMidYMid meet">
<metadata>
Created by potrace 1.16, written by Peter Selinger 2001-2019
</metadata>
<g transform="translate(0.000000,56.000000) scale(0.100000,-0.100000)"
fill="#000000" stroke="none">
<path d="M277 509 c-33 20 -38 21 -43 7 -4 -9 -4 -30 0 -47 4 -20 -1 -45 -14
-75 -11 -24 -23 -59 -27 -77 -3 -17 -12 -41 -20 -53 -11 -17 -11 -23 1 -39 13
-18 15 -17 54 13 22 18 44 32 48 32 5 -1 19 -17 32 -36 12 -20 22 -49 22 -66
0 -25 -14 -44 -70 -99 -70 -69 -70 -69 -17 -69 49 0 56 3 93 43 22 23 46 55
52 70 7 15 12 59 12 97 0 65 -2 70 -31 91 -22 15 -39 20 -62 16 -18 -3 -40 -8
-49 -12 -14 -5 -18 -2 -18 13 0 13 22 38 60 68 33 26 60 50 60 54 0 3 -10 16
-22 27 -13 11 -40 30 -61 42z"/>
</g>
</svg>
