<?xml version="1.0" standalone="no"?>
<!DOCTYPE svg PUBLIC "-//W3C//DTD SVG 20010904//EN"
 "http://www.w3.org/TR/2001/REC-SVG-20010904/DTD/svg10.dtd">
<svg version="1.0" xmlns="http://www.w3.org/2000/svg"
 width="56.000000pt" height="56.000000pt" viewBox="0 0 56.000000 56.000000"
 preserveAspectRatio="xMidYMid meet">
<metadata>
Created by potrace 1.16, written by Peter Selinger 2001-2019
</metadata>
<g transform="translate(0.000000,56.000000) scale(0.100000,-0.100000)"
fill="#000000" stroke="none">
<path d="M240 560 c-11 0 -20 -10 -23 -27 -5 -21 -1 -32 15 -43 12 -8 30 -22
41 -30 18 -15 17 -17 -22 -44 -22 -16 -38 -33 -35 -38 3 -5 -2 -15 -12 -22
-10 -8 -13 -16 -7 -19 5 -3 27 -7 49 -8 25 -2 47 -11 60 -25 18 -19 19 -22 5
-31 -13 -8 -14 -14 -3 -37 11 -24 9 -31 -11 -59 -13 -18 -24 -42 -25 -55 0
-12 -11 -37 -23 -55 -12 -17 -32 -40 -43 -49 -21 -17 -21 -18 14 -18 29 0 39
6 58 35 12 19 22 37 22 41 0 3 8 18 18 32 10 15 26 47 34 72 10 28 15 62 12
89 -3 25 -15 57 -27 72 -12 16 -32 31 -44 35 -13 3 -20 10 -18 15 3 5 26 17
50 28 25 11 45 26 45 34 0 7 -10 23 -22 34 -13 11 -36 23 -52 27 -16 4 -30 15
-33 26 -3 11 -13 20 -23 20z"/>
</g>
</svg>
