<?xml version="1.0" standalone="no"?>
<!DOCTYPE svg PUBLIC "-//W3C//DTD SVG 20010904//EN"
 "http://www.w3.org/TR/2001/REC-SVG-20010904/DTD/svg10.dtd">
<svg version="1.0" xmlns="http://www.w3.org/2000/svg"
 width="56.000000pt" height="56.000000pt" viewBox="0 0 56.000000 56.000000"
 preserveAspectRatio="xMidYMid meet">
<metadata>
Created by potrace 1.16, written by Peter Selinger 2001-2019
</metadata>
<g transform="translate(0.000000,56.000000) scale(0.100000,-0.100000)"
fill="#000000" stroke="none">
<path d="M287 560 c-8 0 -20 -7 -27 -15 -7 -9 -10 -25 -6 -41 6 -21 1 -33 -20
-55 -23 -24 -25 -31 -14 -44 7 -8 20 -15 29 -15 9 0 27 -7 39 -16 20 -14 22
-24 22 -100 0 -46 -4 -92 -9 -102 -5 -9 -16 -33 -25 -52 -8 -19 -27 -47 -41
-62 -14 -15 -25 -32 -25 -37 0 -5 4 -13 10 -16 5 -3 24 8 41 24 17 17 42 52
55 77 13 26 24 55 24 65 0 10 5 21 10 24 6 3 10 35 10 71 0 45 -6 78 -21 109
-12 25 -26 48 -31 51 -5 3 -2 14 8 25 17 19 16 21 -4 49 -12 16 -19 36 -16 44
4 10 1 16 -9 16z"/>
</g>
</svg>
