<?xml version="1.0" standalone="no"?>
<!DOCTYPE svg PUBLIC "-//W3C//DTD SVG 20010904//EN"
 "http://www.w3.org/TR/2001/REC-SVG-20010904/DTD/svg10.dtd">
<svg version="1.0" xmlns="http://www.w3.org/2000/svg"
 width="128.000000pt" height="128.000000pt" viewBox="0 0 128.000000 128.000000"
 preserveAspectRatio="xMidYMid meet">
<metadata>
Created by potrace 1.16, written by Peter Selinger 2001-2019
</metadata>
<g transform="translate(0.000000,128.000000) scale(0.100000,-0.100000)"
fill="#000000" stroke="none">
<path d="M878 1254 c-7 2 -29 -2 -48 -10 -19 -7 -47 -13 -61 -13 -15 -1 -30
-8 -33 -17 -5 -13 -16 -15 -51 -12 -29 4 -48 1 -55 -7 -8 -9 -6 -17 5 -29 9
-9 29 -16 44 -16 15 0 42 7 59 16 18 8 44 14 59 12 24 -3 29 -9 36 -48 7 -34
5 -56 -8 -92 -9 -26 -15 -57 -14 -70 2 -13 1 -27 -3 -33 -3 -5 -9 -24 -12 -41
-5 -21 -2 -35 8 -43 9 -8 28 -10 53 -5 21 4 46 11 57 16 12 7 26 6 40 -2 16
-8 30 -8 49 -1 16 6 27 18 27 29 0 10 -9 27 -19 36 -16 15 -27 16 -72 7 -31
-5 -58 -6 -63 -1 -6 6 -5 14 1 22 6 7 16 31 23 53 7 22 16 45 21 50 4 6 15 44
24 85 15 74 15 75 -6 93 -12 9 -27 17 -34 17 -7 0 -19 2 -27 4z"/>
<path d="M500 1200 c-3 -1 -17 -8 -32 -16 -16 -8 -28 -20 -28 -26 0 -6 14 -23
31 -37 31 -26 31 -26 32 -138 1 -77 -2 -116 -10 -124 -7 -7 -36 -16 -65 -19
-38 -5 -61 -3 -81 7 -15 7 -32 11 -37 8 -6 -3 -10 -14 -10 -25 0 -10 16 -32
35 -49 20 -17 40 -31 46 -31 6 0 20 5 31 11 11 6 35 13 52 15 17 3 57 6 89 8
40 1 57 -1 57 -10 0 -7 -4 -16 -10 -19 -6 -4 -4 -16 6 -31 14 -21 15 -27 2
-46 -9 -13 -41 -48 -71 -78 -31 -30 -57 -61 -57 -67 0 -7 4 -13 8 -13 4 0 25
9 46 20 21 10 45 28 53 40 8 11 23 20 33 20 10 0 21 -3 23 -7 3 -5 2 -15 -2
-25 -3 -9 -35 -51 -71 -93 -36 -42 -81 -85 -101 -95 -19 -10 -40 -24 -46 -32
-6 -7 -14 -23 -17 -35 -5 -14 -3 -23 3 -23 6 0 20 9 31 20 11 11 29 20 40 20
11 0 20 5 20 10 0 6 19 19 43 30 23 10 74 46 112 80 54 47 70 68 70 88 0 21 5
28 25 30 14 2 34 7 46 13 11 6 38 9 60 7 39 -3 39 -3 6 -23 -21 -13 -31 -26
-28 -37 2 -9 -11 -48 -30 -85 -18 -37 -34 -73 -34 -79 0 -6 -16 -25 -35 -42
-19 -18 -41 -46 -50 -62 -9 -17 -20 -30 -25 -30 -5 0 -21 -18 -35 -40 -14 -23
-37 -45 -50 -50 -13 -5 -38 -22 -55 -38 -16 -16 -30 -39 -30 -51 0 -11 4 -21
10 -21 5 0 22 6 37 12 15 7 30 15 33 18 3 3 35 27 73 53 37 27 67 51 67 55 0
4 22 30 48 59 26 29 60 73 76 99 24 38 27 50 18 65 -7 10 -12 21 -12 24 0 3
11 10 25 15 16 6 32 25 41 46 8 20 14 53 12 73 -3 36 -3 36 47 33 31 -2 55
-10 62 -19 8 -10 11 -32 7 -57 -3 -23 -12 -70 -21 -106 -9 -36 -21 -72 -28
-80 -7 -8 -16 -29 -19 -45 -4 -17 -26 -50 -49 -74 -23 -24 -53 -48 -67 -53
-14 -5 -48 -7 -77 -3 -34 4 -53 2 -58 -5 -4 -6 2 -21 13 -33 11 -12 27 -36 35
-53 9 -17 23 -36 32 -44 13 -11 22 -11 55 0 22 7 40 17 40 22 0 5 15 15 34 23
30 13 37 23 56 80 12 36 26 65 31 65 5 0 9 8 9 18 0 10 11 33 25 52 14 19 25
39 25 46 0 6 18 45 39 86 34 65 38 80 34 122 -4 35 -14 56 -38 82 -31 32 -36
34 -101 34 -38 0 -123 -5 -188 -10 -86 -7 -123 -7 -132 1 -11 9 -9 17 11 41
14 16 25 41 25 54 0 14 -7 32 -15 40 -8 9 -15 22 -15 30 0 8 13 17 29 20 18 4
31 14 35 27 3 11 3 24 0 29 -3 5 -32 8 -64 6 -46 -2 -63 1 -79 16 -17 16 -21
29 -18 69 3 50 3 50 52 63 28 7 70 13 95 14 25 0 54 7 65 15 17 14 17 17 4 30
-12 13 -28 13 -98 4 -46 -5 -90 -8 -97 -5 -7 3 -20 21 -28 40 -8 20 -30 45
-48 56 -18 11 -35 20 -38 20z"/>
<path d="M252 1150 c-11 0 -26 -7 -33 -16 -11 -14 -10 -19 6 -33 13 -10 20
-29 21 -52 0 -19 4 -44 8 -55 7 -17 9 -17 19 -3 7 8 24 24 40 33 15 10 27 26
27 35 0 9 -16 33 -35 54 -18 20 -43 37 -53 37z"/>
<path d="M139 860 c-5 0 -10 -6 -10 -12 -1 -7 0 -20 1 -28 1 -8 17 -31 37 -51
28 -29 33 -41 25 -55 -5 -11 -13 -40 -16 -66 -4 -26 -9 -99 -12 -164 -2 -64
-6 -120 -9 -125 -3 -4 3 -26 14 -48 12 -22 25 -42 30 -46 6 -3 15 0 21 7 5 7
24 31 40 52 17 22 35 59 41 82 7 28 20 49 38 60 14 10 31 25 38 33 7 9 13 26
13 39 0 15 -6 22 -20 22 -11 0 -20 -4 -20 -10 0 -5 -7 -10 -15 -10 -9 0 -25
-16 -36 -35 -12 -20 -30 -40 -40 -45 -14 -8 -20 -6 -27 7 -5 10 -10 34 -11 53
-1 19 4 55 10 80 7 25 21 56 31 70 9 14 20 44 24 66 6 38 4 43 -27 67 -19 14
-51 32 -73 41 -21 9 -42 16 -47 16z"/>
</g>
</svg>
