<?xml version="1.0" standalone="no"?>
<!DOCTYPE svg PUBLIC "-//W3C//DTD SVG 20010904//EN"
 "http://www.w3.org/TR/2001/REC-SVG-20010904/DTD/svg10.dtd">
<svg version="1.0" xmlns="http://www.w3.org/2000/svg"
 width="128.000000pt" height="128.000000pt" viewBox="0 0 128.000000 128.000000"
 preserveAspectRatio="xMidYMid meet">
<metadata>
Created by potrace 1.16, written by Peter Selinger 2001-2019
</metadata>
<g transform="translate(0.000000,128.000000) scale(0.100000,-0.100000)"
fill="#000000" stroke="none">
<path d="M534 1260 c-12 0 -29 -7 -38 -15 -13 -13 -13 -20 -2 -47 7 -17 11
-39 9 -49 -3 -11 -13 -20 -22 -21 -9 0 -29 -2 -46 -3 -16 -1 -43 2 -58 8 -20
6 -32 6 -40 -2 -8 -8 -2 -20 23 -46 18 -19 46 -37 62 -40 16 -4 32 -13 34 -20
3 -8 -10 -37 -29 -67 -19 -29 -45 -63 -58 -75 -13 -12 -43 -40 -67 -62 -34
-31 -43 -46 -40 -67 2 -15 8 -29 14 -31 6 -2 25 8 41 21 17 14 59 42 93 61 41
23 67 32 73 26 6 -6 -5 -26 -34 -57 -24 -26 -52 -54 -61 -63 -10 -8 -18 -22
-18 -30 0 -8 7 -23 16 -32 16 -17 15 -21 -11 -55 -15 -19 -33 -38 -41 -41 -7
-2 -18 -20 -24 -39 -7 -19 -9 -41 -7 -49 4 -10 20 -12 66 -8 41 4 65 2 76 -7
8 -7 15 -15 15 -19 0 -4 -30 -29 -66 -56 -36 -28 -74 -61 -84 -75 -10 -14 -23
-50 -30 -81 -12 -54 -11 -58 13 -100 15 -24 35 -54 47 -66 11 -13 46 -30 76
-39 38 -11 77 -14 118 -11 33 3 93 10 131 16 39 6 80 13 93 16 15 4 22 13 22
30 0 15 -9 29 -22 37 -15 8 -67 13 -143 14 -66 1 -145 2 -176 2 -50 1 -58 4
-74 28 -13 21 -16 39 -12 76 4 29 16 61 29 78 13 16 31 29 41 29 10 1 20 -7
23 -17 3 -9 14 -36 25 -60 10 -23 26 -42 34 -42 9 0 23 17 31 37 9 21 25 56
35 78 11 22 31 59 45 83 15 24 54 64 88 88 37 28 88 53 131 66 39 12 89 30
113 40 24 11 46 26 49 34 3 8 3 24 0 37 -4 15 -21 27 -55 40 -28 9 -56 17 -64
17 -8 0 -27 -14 -44 -31 -16 -17 -51 -42 -77 -55 -26 -14 -50 -31 -53 -39 -3
-7 -38 -40 -77 -72 -40 -32 -78 -63 -85 -67 -9 -6 -23 1 -41 21 -15 16 -36 35
-46 41 -19 10 -17 14 27 57 26 26 50 56 54 68 5 16 -1 27 -25 47 -17 15 -31
31 -31 37 0 6 15 23 32 39 18 15 51 34 73 44 22 9 65 23 95 30 30 7 65 19 78
27 15 9 22 22 20 36 -2 12 -19 32 -38 45 -31 21 -43 23 -95 18 -32 -3 -64 -11
-69 -16 -6 -6 -18 -10 -28 -10 -10 0 -18 7 -18 15 0 8 16 39 35 70 26 39 49
62 83 79 26 14 60 37 75 51 15 15 27 34 25 43 -2 10 -18 19 -41 24 -23 5 -46
4 -57 -2 -10 -6 -27 -10 -38 -10 -10 0 -27 9 -37 20 -10 11 -28 20 -41 20z"/>
</g>
</svg>
