<?xml version="1.0" standalone="no"?>
<!DOCTYPE svg PUBLIC "-//W3C//DTD SVG 20010904//EN"
 "http://www.w3.org/TR/2001/REC-SVG-20010904/DTD/svg10.dtd">
<svg version="1.0" xmlns="http://www.w3.org/2000/svg"
 width="128.000000pt" height="128.000000pt" viewBox="0 0 128.000000 128.000000"
 preserveAspectRatio="xMidYMid meet">
<metadata>
Created by potrace 1.16, written by Peter Selinger 2001-2019
</metadata>
<g transform="translate(0.000000,128.000000) scale(0.100000,-0.100000)"
fill="#000000" stroke="none">
<path d="M470 1280 c-12 0 -22 -9 -26 -24 -3 -13 0 -34 6 -46 6 -12 9 -32 6
-45 -3 -13 -16 -27 -28 -31 -12 -4 -42 -8 -65 -9 -23 -1 -46 -4 -49 -8 -4 -4
-1 -14 6 -23 8 -8 35 -27 62 -40 32 -16 48 -31 48 -44 0 -10 -34 -57 -76 -103
-41 -46 -87 -102 -100 -125 -25 -41 -25 -41 -4 -62 11 -11 26 -20 34 -20 7 0
49 27 92 59 44 33 95 73 114 90 19 17 42 31 52 31 10 0 18 -6 18 -12 0 -7 -4
-18 -8 -24 -4 -5 -23 -17 -42 -27 -20 -9 -49 -37 -69 -66 -33 -50 -33 -51 -16
-77 17 -26 17 -27 -14 -56 -17 -16 -31 -38 -31 -48 0 -13 15 -27 43 -41 23
-12 50 -28 60 -37 9 -8 17 -20 17 -26 0 -6 -19 -22 -41 -36 -23 -14 -65 -53
-94 -88 -30 -36 -58 -81 -65 -106 -6 -23 -10 -60 -8 -81 2 -30 9 -42 28 -51
14 -7 43 -17 65 -24 35 -10 49 -8 120 18 44 15 94 36 112 45 18 9 41 17 53 17
11 0 23 -6 25 -13 3 -7 -6 -41 -20 -77 -14 -35 -25 -65 -25 -67 0 -2 21 -3 47
-1 44 3 50 6 70 43 12 22 29 52 37 67 11 19 13 34 7 55 -5 15 -12 40 -15 55
-3 14 -18 41 -32 58 -22 25 -32 30 -53 25 -14 -3 -43 -19 -63 -36 -20 -16 -41
-29 -46 -29 -4 0 -33 -18 -62 -40 -40 -30 -63 -40 -91 -40 -21 0 -41 -4 -44
-10 -3 -5 -15 -10 -25 -10 -10 0 -22 9 -25 21 -4 11 -1 35 6 52 6 18 33 53 58
80 25 26 51 47 58 47 8 0 24 -7 36 -15 12 -8 27 -11 33 -7 6 4 20 23 31 44 11
20 40 59 64 86 25 27 69 65 99 85 30 19 64 44 74 56 10 11 65 44 122 72 56 28
105 57 108 64 2 7 -13 32 -35 54 -22 23 -45 41 -51 41 -6 0 -34 -17 -62 -38
-28 -20 -69 -49 -91 -63 -22 -15 -66 -49 -97 -78 -30 -28 -62 -51 -70 -51 -8
0 -23 -9 -33 -20 -10 -11 -25 -20 -34 -20 -9 0 -24 7 -33 14 -10 7 -18 20 -18
29 0 8 23 34 50 57 28 23 50 48 50 56 0 8 -13 23 -30 32 -16 9 -30 22 -30 29
0 6 15 20 33 32 17 11 50 33 72 48 22 16 62 39 89 53 27 14 54 33 60 42 8 13
6 22 -8 37 -10 11 -43 26 -73 32 -52 12 -57 11 -106 -14 -29 -15 -59 -27 -68
-27 -8 0 -20 -5 -26 -11 -6 -6 -16 -8 -23 -4 -7 5 -9 21 -5 49 4 22 13 51 21
63 8 13 35 28 71 38 32 9 68 23 81 31 12 8 22 23 22 33 0 10 -7 22 -16 25 -9
3 -29 6 -44 6 -16 0 -32 -4 -35 -10 -3 -5 -15 -10 -26 -10 -12 0 -23 10 -30
27 -5 14 -21 37 -35 50 -14 13 -34 23 -44 23z"/>
<path d="M1024 1280 c-14 0 -24 -6 -24 -15 0 -8 9 -19 20 -25 11 -6 24 -8 29
-5 5 3 7 14 4 25 -3 13 -14 20 -29 20z"/>
</g>
</svg>
