<?xml version="1.0" standalone="no"?>
<!DOCTYPE svg PUBLIC "-//W3C//DTD SVG 20010904//EN"
 "http://www.w3.org/TR/2001/REC-SVG-20010904/DTD/svg10.dtd">
<svg version="1.0" xmlns="http://www.w3.org/2000/svg"
 width="128.000000pt" height="128.000000pt" viewBox="0 0 128.000000 128.000000"
 preserveAspectRatio="xMidYMid meet">
<metadata>
Created by potrace 1.16, written by Peter Selinger 2001-2019
</metadata>
<g transform="translate(0.000000,128.000000) scale(0.100000,-0.100000)"
fill="#000000" stroke="none">
<path d="M706 1280 c-8 0 -18 -9 -21 -21 -4 -13 -1 -27 9 -38 9 -10 16 -35 16
-57 0 -21 -4 -44 -8 -50 -4 -7 -31 -26 -60 -43 -29 -17 -66 -31 -82 -31 -16 0
-31 -4 -35 -9 -3 -5 2 -17 11 -25 8 -9 21 -16 27 -16 7 0 22 7 34 15 11 8 39
17 62 21 22 4 41 3 41 -2 0 -4 -10 -28 -22 -53 -12 -25 -24 -48 -27 -51 -4 -3
-19 -23 -35 -44 -16 -22 -52 -61 -79 -87 -27 -26 -47 -53 -45 -61 3 -7 12 -15
22 -16 10 -2 25 3 34 10 9 8 50 29 90 46 40 18 79 32 87 32 8 0 15 -2 15 -5 0
-3 -25 -29 -55 -57 -39 -36 -55 -58 -55 -76 0 -14 -5 -41 -12 -59 -7 -18 -18
-33 -24 -33 -7 0 -16 -5 -19 -11 -4 -6 -4 -13 -1 -16 3 -4 14 1 23 10 10 8 29
22 43 29 14 8 42 24 63 37 20 13 37 28 37 34 0 6 -7 18 -15 27 -9 10 -13 23
-10 31 3 8 25 26 48 40 23 15 61 36 85 48 24 12 51 30 62 41 11 11 16 27 13
38 -3 11 -16 23 -29 26 -13 4 -40 0 -59 -9 -20 -8 -58 -17 -86 -21 -39 -5 -49
-4 -49 8 0 8 4 18 8 23 5 6 17 36 26 67 10 32 22 60 27 64 5 3 9 16 9 30 0 15
7 27 18 30 9 3 35 13 57 22 22 8 49 23 59 33 16 15 17 21 6 33 -7 9 -18 16
-24 16 -6 0 -32 -11 -57 -25 -26 -13 -49 -21 -53 -18 -3 4 -6 23 -6 43 0 26
-7 42 -25 58 -14 12 -32 22 -39 22z"/>
<path d="M316 920 c-7 0 -25 -11 -40 -25 -14 -13 -26 -31 -26 -39 0 -8 -17
-47 -37 -86 -36 -69 -37 -71 -24 -123 7 -28 16 -81 20 -117 5 -43 20 -89 44
-138 20 -40 37 -77 37 -82 0 -4 -22 -24 -49 -44 -27 -20 -56 -36 -65 -36 -9 0
-19 -7 -22 -15 -4 -8 -1 -22 6 -30 8 -10 31 -15 67 -15 30 0 66 -6 81 -14 15
-8 46 -17 67 -21 22 -4 56 -15 75 -25 19 -10 61 -30 93 -44 32 -14 64 -26 72
-26 7 0 30 -10 50 -21 30 -18 44 -20 88 -14 29 4 63 8 77 8 14 0 48 -1 75 -2
28 -1 83 1 124 5 41 3 85 10 97 15 13 4 24 15 24 23 0 8 -4 17 -9 20 -5 4 -67
7 -138 7 -70 1 -148 -3 -173 -9 -38 -9 -49 -8 -76 9 -17 10 -45 19 -61 19 -17
0 -36 6 -42 14 -10 12 -6 23 18 56 16 23 33 55 37 73 3 17 15 51 26 76 13 30
15 48 8 55 -7 7 -20 0 -43 -22 -18 -18 -36 -29 -40 -26 -4 4 -7 21 -7 38 0 25
11 40 52 76 29 25 69 62 90 82 24 24 35 43 32 53 -5 12 -14 14 -35 10 -16 -4
-48 -17 -72 -29 -23 -12 -66 -28 -96 -35 -42 -11 -55 -11 -61 -1 -6 9 -13 7
-29 -9 -11 -11 -21 -25 -21 -30 0 -5 8 -12 18 -15 9 -3 31 -2 47 3 17 4 36 6
43 4 6 -3 12 -9 12 -13 0 -5 -18 -30 -40 -57 -22 -26 -46 -56 -55 -65 -8 -10
-15 -21 -15 -26 0 -4 -10 -12 -22 -17 -13 -6 -23 -17 -23 -25 0 -8 7 -16 16
-18 9 -2 34 17 56 43 36 40 42 43 54 29 10 -13 11 -31 1 -95 -6 -43 -16 -88
-22 -99 -6 -11 -18 -20 -27 -20 -9 0 -53 18 -97 39 -45 22 -90 48 -100 60 -15
17 -16 25 -7 53 8 25 7 42 -2 70 -7 21 -16 41 -20 44 -4 4 -7 15 -7 24 0 10
-9 29 -20 43 -11 14 -20 39 -20 55 0 17 4 34 10 37 6 3 10 15 10 27 0 11 -9
31 -20 45 -11 14 -20 31 -20 38 0 7 -9 24 -20 38 -21 26 -21 26 50 96 38 39
70 76 70 83 0 8 -7 24 -16 36 -8 12 -21 22 -28 22z"/>
<path d="M911 550 c-9 -1 -41 -21 -72 -45 -31 -24 -64 -56 -73 -71 -12 -17
-15 -29 -8 -36 7 -7 16 -3 29 13 10 12 28 33 40 46 12 13 29 23 37 23 9 0 20
-8 25 -18 6 -11 6 -48 0 -97 -5 -44 -6 -87 -3 -97 2 -9 19 -21 36 -27 17 -6
54 -11 82 -11 29 0 57 5 64 12 7 7 12 19 12 28 0 9 -9 25 -21 36 -12 11 -32
17 -51 16 -17 -1 -36 2 -43 8 -10 9 -12 34 -8 102 6 81 4 92 -12 104 -11 8
-26 14 -34 14z"/>
</g>
</svg>
