<?xml version="1.0" standalone="no"?>
<!DOCTYPE svg PUBLIC "-//W3C//DTD SVG 20010904//EN"
 "http://www.w3.org/TR/2001/REC-SVG-20010904/DTD/svg10.dtd">
<svg version="1.0" xmlns="http://www.w3.org/2000/svg"
 width="128.000000pt" height="128.000000pt" viewBox="0 0 128.000000 128.000000"
 preserveAspectRatio="xMidYMid meet">
<metadata>
Created by potrace 1.16, written by Peter Selinger 2001-2019
</metadata>
<g transform="translate(0.000000,128.000000) scale(0.100000,-0.100000)"
fill="#000000" stroke="none">
<path d="M594 1260 c-7 0 -16 -4 -19 -10 -3 -5 -1 -19 5 -30 6 -11 24 -39 39
-63 16 -23 32 -52 35 -64 5 -15 15 -23 30 -23 14 0 28 11 40 30 16 29 16 33 2
56 -9 13 -33 35 -54 48 -20 13 -43 31 -51 40 -7 9 -19 16 -27 16z"/>
<path d="M862 1060 c-4 -1 -20 -8 -37 -17 -16 -9 -66 -20 -110 -24 -44 -4
-107 -17 -140 -29 -33 -12 -73 -25 -89 -29 -16 -3 -34 -14 -40 -23 -8 -13 -6
-22 9 -39 11 -12 30 -25 43 -30 14 -6 50 -5 90 1 36 6 72 16 79 22 7 5 20 8
28 4 8 -3 15 -13 15 -21 0 -9 -22 -40 -50 -69 -33 -35 -50 -62 -50 -78 0 -18
12 -35 36 -55 36 -29 36 -29 39 -133 3 -75 0 -109 -10 -124 -8 -12 -31 -29
-52 -40 -21 -10 -45 -22 -54 -26 -9 -5 -33 -12 -52 -15 -20 -4 -41 -13 -48
-21 -6 -8 -20 -14 -30 -14 -10 0 -33 -13 -51 -28 -18 -16 -46 -35 -63 -43 -17
-8 -31 -23 -33 -35 -2 -11 4 -27 13 -34 13 -11 24 -9 65 10 49 23 49 23 72 2
13 -12 49 -42 81 -68 31 -26 57 -49 57 -53 0 -4 14 -15 30 -25 30 -17 32 -17
68 2 20 10 62 27 92 37 30 10 60 21 66 26 5 5 36 15 68 23 32 9 65 21 72 27 8
6 14 20 14 30 0 10 -9 25 -21 33 -18 12 -27 12 -58 1 -20 -7 -75 -34 -123 -59
-48 -25 -93 -46 -100 -46 -7 1 -44 29 -81 64 -68 62 -68 62 -28 99 25 22 54
38 78 42 21 3 56 15 79 26 23 10 46 19 52 19 6 0 13 8 17 19 3 10 3 24 0 32
-3 8 -19 22 -36 32 -29 16 -31 20 -24 55 4 20 14 55 22 77 8 22 17 49 20 61 3
13 -7 34 -31 63 -22 26 -36 54 -36 69 0 18 18 46 54 87 30 33 73 82 95 108 41
49 41 49 20 78 -11 16 -23 29 -27 29z"/>
</g>
</svg>
