<?xml version="1.0" standalone="no"?>
<!DOCTYPE svg PUBLIC "-//W3C//DTD SVG 20010904//EN"
 "http://www.w3.org/TR/2001/REC-SVG-20010904/DTD/svg10.dtd">
<svg version="1.0" xmlns="http://www.w3.org/2000/svg"
 width="128.000000pt" height="128.000000pt" viewBox="0 0 128.000000 128.000000"
 preserveAspectRatio="xMidYMid meet">
<metadata>
Created by potrace 1.16, written by Peter Selinger 2001-2019
</metadata>
<g transform="translate(0.000000,128.000000) scale(0.100000,-0.100000)"
fill="#000000" stroke="none">
<path d="M500 1280 c-63 0 -70 -2 -70 -20 0 -11 4 -20 9 -20 6 0 13 5 16 10 4
6 11 8 16 4 5 -3 9 -20 8 -37 -1 -20 14 -61 40 -110 23 -44 41 -85 41 -92 0
-8 -10 -17 -22 -20 -11 -4 -48 -27 -81 -51 -32 -24 -68 -44 -78 -44 -10 0 -19
-4 -19 -10 0 -5 -16 -10 -35 -10 -26 0 -39 -6 -51 -25 -8 -13 -13 -28 -10 -34
4 -5 1 -21 -5 -35 -9 -20 -9 -29 1 -41 7 -8 23 -15 36 -15 12 0 25 4 29 9 3 6
39 26 79 45 41 20 100 43 132 51 33 8 64 22 70 30 6 8 16 15 21 15 6 0 24 7
39 15 16 8 37 15 48 15 15 0 16 -3 6 -15 -7 -8 -24 -21 -39 -28 -14 -7 -37
-20 -51 -28 -14 -8 -40 -27 -57 -43 -18 -17 -33 -33 -33 -38 0 -4 23 -31 51
-59 28 -28 47 -54 42 -59 -4 -4 -30 -13 -56 -20 -44 -12 -49 -11 -62 6 -8 10
-12 25 -10 32 3 8 8 24 11 37 5 20 -1 28 -35 50 -41 25 -41 25 -71 3 -17 -12
-30 -24 -30 -27 0 -3 18 -21 39 -39 28 -24 37 -39 34 -53 -3 -10 0 -26 7 -34
10 -12 10 -15 -1 -15 -8 0 -20 -9 -26 -19 -10 -15 -9 -22 2 -31 8 -7 15 -16
15 -20 0 -4 -12 -13 -27 -19 -16 -7 -52 -39 -82 -72 -29 -33 -66 -87 -82 -120
-16 -32 -29 -65 -29 -73 0 -7 7 -19 15 -26 9 -7 32 -13 52 -14 31 -1 37 3 44
26 4 15 17 41 29 58 12 16 20 41 18 54 -2 15 10 39 35 70 22 26 47 46 58 46
11 0 28 5 38 12 10 6 26 8 35 5 11 -4 16 -19 16 -46 0 -30 -5 -43 -20 -51 -11
-6 -20 -16 -20 -23 0 -7 -14 -25 -31 -41 -16 -17 -27 -36 -25 -43 3 -7 1 -15
-4 -18 -6 -4 -10 -14 -10 -24 0 -9 5 -22 11 -28 7 -7 21 -8 37 -3 15 5 40 12
55 17 24 7 32 19 52 76 13 38 47 104 76 148 28 43 57 79 63 79 9 0 11 -19 8
-63 -2 -34 -12 -105 -23 -159 -10 -53 -19 -113 -19 -133 0 -20 -5 -45 -10 -56
-6 -11 -8 -35 -4 -54 6 -33 9 -35 45 -35 23 0 42 5 44 13 2 6 7 73 9 147 3 74
8 152 12 173 6 34 4 39 -15 44 -11 3 -21 12 -21 20 0 12 3 13 14 4 12 -10 17
-8 26 8 6 12 21 28 34 36 13 9 38 17 56 20 18 2 57 16 86 32 53 28 54 29 54
73 0 27 -8 58 -20 78 -13 21 -27 32 -43 32 -13 0 -26 -3 -30 -6 -3 -4 3 -19
15 -34 18 -25 19 -31 7 -56 -8 -16 -29 -39 -48 -51 -19 -13 -47 -23 -62 -23
-22 0 -30 6 -35 25 -3 14 -1 31 5 39 7 8 27 17 45 20 18 4 41 15 51 26 9 10
14 24 10 29 -3 6 -18 11 -32 11 -14 0 -31 -7 -38 -17 -7 -9 -19 -14 -29 -10
-9 4 -16 16 -16 27 0 12 -7 34 -15 50 -9 18 -24 30 -35 30 -10 0 -31 -5 -46
-10 -22 -9 -30 -7 -43 7 -9 10 -22 26 -29 35 -13 16 -8 20 40 42 29 13 64 27
78 29 14 3 52 15 85 27 33 12 71 33 84 47 19 20 22 29 14 42 -6 9 -19 18 -29
20 -10 1 -27 10 -37 19 -16 14 -24 14 -87 -7 -38 -12 -72 -26 -75 -31 -4 -6
-18 -10 -32 -10 -15 0 -42 -5 -60 -12 -25 -9 -36 -9 -44 -1 -9 9 -3 16 26 30
21 10 53 32 71 49 19 17 34 36 34 42 0 7 6 12 14 12 8 0 21 9 29 20 7 10 25
24 40 29 19 7 27 18 27 34 0 13 -5 39 -11 58 -7 19 -20 42 -30 52 -10 9 -23
17 -28 17 -5 0 -23 -13 -39 -30 -25 -25 -35 -28 -65 -23 -30 4 -42 1 -68 -21
-25 -21 -34 -24 -40 -14 -5 7 -9 23 -9 35 0 12 5 25 10 28 6 3 10 10 10 16 0
5 -31 9 -70 9z m242 -62 c13 2 16 -6 16 -30 -1 -18 -6 -38 -12 -46 -6 -7 -18
-21 -27 -30 -9 -9 -18 -26 -21 -37 -2 -11 -16 -24 -31 -29 -22 -8 -30 -7 -37
4 -6 8 -10 24 -10 35 0 11 5 36 10 55 7 27 19 40 52 56 24 12 51 22 60 22z
m-7 -508 c7 -6 15 -37 18 -70 3 -33 3 -68 0 -78 -2 -9 -19 -27 -37 -40 -18
-12 -39 -22 -48 -22 -9 0 -21 14 -27 31 -6 18 -11 38 -11 46 0 7 18 20 40 29
38 15 40 18 40 58 0 24 3 46 7 49 3 4 12 2 18 -3z m-219 -150 c12 0 15 -6 10
-25 -5 -18 -3 -23 8 -19 8 3 17 1 20 -5 4 -5 -1 -14 -11 -19 -10 -5 -28 -6
-41 -3 -13 3 -22 11 -21 16 1 6 5 20 10 33 5 12 16 22 25 22z"/>
<path d="M915 1280 c-30 0 -45 -4 -45 -13 0 -7 5 -18 12 -25 7 -7 19 -12 28
-12 9 0 24 8 33 18 10 10 17 22 17 25 0 4 -20 7 -45 7z"/>
</g>
</svg>
