<?xml version="1.0" standalone="no"?>
<!DOCTYPE svg PUBLIC "-//W3C//DTD SVG 20010904//EN"
 "http://www.w3.org/TR/2001/REC-SVG-20010904/DTD/svg10.dtd">
<svg version="1.0" xmlns="http://www.w3.org/2000/svg"
 width="128.000000pt" height="128.000000pt" viewBox="0 0 128.000000 128.000000"
 preserveAspectRatio="xMidYMid meet">
<metadata>
Created by potrace 1.16, written by Peter Selinger 2001-2019
</metadata>
<g transform="translate(0.000000,128.000000) scale(0.100000,-0.100000)"
fill="#000000" stroke="none">
<path d="M450 1252 c-19 3 -48 3 -65 -1 -24 -5 -30 -12 -30 -31 0 -20 6 -26
27 -28 18 -2 31 -13 42 -37 10 -19 16 -59 16 -98 0 -64 0 -64 -47 -82 -27 -10
-52 -22 -57 -26 -6 -5 -29 -9 -52 -9 -24 0 -46 5 -49 10 -4 6 -11 8 -16 5 -5
-4 -9 -14 -9 -24 0 -10 10 -27 23 -39 15 -14 36 -22 59 -22 21 0 50 10 72 25
20 14 41 25 46 25 5 0 39 13 75 30 44 20 93 33 150 39 47 6 98 16 113 23 18 9
28 22 30 42 2 16 -1 33 -6 38 -6 6 -37 10 -71 10 -43 1 -67 -4 -79 -16 -10 -9
-29 -16 -41 -16 -20 0 -22 4 -18 28 3 15 9 39 13 55 4 16 2 33 -6 41 -6 8 -28
23 -48 34 -20 10 -53 21 -72 24z"/>
<path d="M529 930 c-9 0 -22 -6 -31 -12 -9 -7 -18 -26 -21 -43 -3 -16 -15 -57
-26 -89 -12 -33 -28 -70 -36 -82 -10 -15 -12 -34 -8 -54 3 -18 12 -34 19 -37
8 -3 25 2 39 11 14 9 25 23 25 31 0 7 12 23 26 34 15 12 37 21 50 21 13 0 28
-9 34 -20 6 -11 27 -27 46 -35 25 -10 34 -20 32 -32 -3 -12 -11 -17 -28 -15
-14 1 -49 5 -77 8 -29 4 -53 3 -53 -2 0 -5 7 -17 14 -27 8 -10 27 -22 43 -26
15 -4 29 -15 31 -24 2 -11 -3 -17 -15 -17 -10 0 -34 11 -53 24 -19 13 -49 26
-65 30 -20 4 -37 2 -49 -7 -11 -8 -16 -19 -12 -25 3 -6 19 -13 36 -17 16 -3
47 -19 68 -35 27 -19 50 -50 73 -97 18 -37 43 -82 55 -100 11 -17 41 -53 65
-79 24 -26 76 -78 114 -116 39 -38 81 -71 95 -74 14 -2 39 -9 56 -14 17 -6 51
-10 77 -10 37 0 47 4 47 16 0 9 -15 32 -32 51 -23 23 -54 39 -102 54 -64 19
-76 28 -159 112 -49 50 -105 115 -124 144 -18 29 -36 65 -39 80 -4 23 1 35 30
62 22 22 40 31 51 27 10 -4 25 4 41 22 14 15 44 68 68 117 24 50 46 97 49 105
2 8 -2 27 -9 41 -7 14 -30 37 -51 52 -37 25 -40 26 -83 13 -25 -8 -58 -20 -75
-27 -16 -7 -42 -24 -57 -37 -16 -15 -33 -22 -43 -18 -15 5 -15 8 -1 28 9 12
16 30 16 39 0 9 -8 23 -18 32 -10 10 -25 17 -33 17z m219 -101 c6 1 12 -6 12
-15 0 -9 -7 -40 -15 -69 -9 -29 -23 -59 -31 -66 -12 -10 -19 -8 -37 8 -12 11
-37 26 -54 33 -18 7 -33 18 -33 25 0 6 12 18 28 25 15 8 34 20 43 28 9 7 30
17 45 22 16 4 35 9 42 9z"/>
<path d="M301 810 c-14 7 -22 6 -31 -5 -7 -8 -10 -21 -7 -29 3 -8 -3 -32 -14
-53 -11 -21 -26 -60 -33 -88 -8 -27 -20 -62 -27 -77 -10 -24 -10 -31 6 -48 10
-11 26 -20 36 -20 10 0 21 4 24 10 3 6 14 10 24 10 14 0 20 -10 25 -39 4 -26
-1 -57 -14 -96 -11 -32 -20 -80 -20 -106 0 -41 4 -51 26 -65 22 -15 27 -15 39
-3 7 8 18 49 24 92 6 43 11 104 11 136 0 54 -3 62 -40 104 -22 25 -40 51 -40
58 0 7 14 34 31 60 25 40 29 54 24 81 -4 18 -11 41 -16 50 -5 10 -18 22 -28
28z"/>
</g>
</svg>
