<?xml version="1.0" standalone="no"?>
<!DOCTYPE svg PUBLIC "-//W3C//DTD SVG 20010904//EN"
 "http://www.w3.org/TR/2001/REC-SVG-20010904/DTD/svg10.dtd">
<svg version="1.0" xmlns="http://www.w3.org/2000/svg"
 width="128.000000pt" height="128.000000pt" viewBox="0 0 128.000000 128.000000"
 preserveAspectRatio="xMidYMid meet">
<metadata>
Created by potrace 1.16, written by Peter Selinger 2001-2019
</metadata>
<g transform="translate(0.000000,128.000000) scale(0.100000,-0.100000)"
fill="#000000" stroke="none">
<path d="M790 1280 c-11 0 -20 -6 -20 -12 0 -7 4 -19 9 -27 6 -9 5 -24 -2 -40
-7 -13 -41 -53 -76 -88 -46 -45 -73 -63 -95 -65 -29 -3 -31 -1 -36 36 -3 21
-12 44 -21 49 -9 6 -24 7 -33 4 -9 -4 -19 -15 -23 -24 -4 -10 -26 -43 -50 -73
-24 -30 -55 -67 -68 -83 -14 -15 -25 -30 -25 -32 0 -3 12 -10 28 -16 15 -6 46
-11 70 -10 31 1 44 -3 49 -15 3 -9 -6 -43 -19 -77 -26 -62 -26 -62 -68 -63
-34 0 -48 -6 -66 -27 -13 -15 -22 -33 -20 -40 1 -6 1 -9 -1 -4 -3 4 -12 7 -21
7 -9 0 -33 -10 -52 -21 -19 -12 -40 -29 -47 -38 -7 -9 -13 -25 -13 -35 0 -11
16 -52 36 -92 20 -39 47 -83 60 -98 13 -14 24 -32 24 -40 0 -8 -24 -28 -53
-45 -30 -17 -59 -42 -65 -56 -7 -14 -12 -45 -12 -68 0 -23 3 -52 6 -64 4 -13
12 -23 19 -23 7 0 25 16 40 36 15 19 37 61 50 92 13 31 27 58 32 59 5 2 19 -7
32 -20 20 -22 22 -35 23 -128 1 -57 6 -112 12 -121 6 -10 21 -18 34 -18 18 0
28 11 44 47 18 41 20 60 15 144 -6 95 -6 96 19 108 14 6 32 11 40 11 8 0 26 8
41 17 14 10 51 21 82 25 31 5 81 11 111 14 51 5 59 3 104 -28 27 -18 54 -41
60 -50 8 -12 7 -21 -1 -29 -6 -6 -26 -14 -45 -18 -18 -4 -33 -11 -33 -16 0 -4
19 -18 42 -30 22 -12 53 -25 67 -29 17 -4 35 -1 48 8 11 8 29 28 39 43 11 15
19 40 19 56 0 15 -10 43 -22 62 -13 19 -42 44 -65 56 -24 11 -75 25 -114 31
-60 9 -81 8 -128 -6 -31 -9 -65 -21 -76 -25 -11 -5 -42 -16 -70 -24 -33 -10
-53 -12 -60 -5 -7 7 5 22 34 46 24 21 64 56 88 79 24 23 68 62 98 88 29 25 70
69 91 98 21 28 51 67 66 85 15 18 34 48 42 66 8 19 19 37 25 40 6 4 11 19 11
34 0 15 -7 37 -15 49 -8 11 -31 24 -51 27 -32 7 -41 3 -84 -33 -27 -23 -52
-41 -55 -41 -4 0 -21 -12 -39 -26 -17 -15 -35 -33 -39 -40 -5 -9 -3 -14 5 -14
8 0 38 16 68 35 30 20 67 35 83 35 28 0 29 -2 23 -32 -3 -17 -18 -51 -32 -75
-18 -31 -31 -43 -47 -43 -13 0 -28 5 -35 12 -9 9 -20 7 -50 -6 -21 -9 -57 -39
-80 -66 -23 -27 -42 -55 -42 -63 0 -7 11 -19 25 -25 14 -6 25 -16 25 -22 0 -6
-30 -43 -67 -83 -37 -40 -71 -73 -75 -75 -5 -2 -8 -11 -9 -20 0 -10 -5 -6 -10
10 -8 20 -4 51 15 130 14 57 30 132 35 168 6 36 10 80 9 98 -1 18 -5 35 -9 38
-5 2 1 14 12 25 14 14 17 27 13 45 -4 17 -1 31 11 44 10 11 29 20 42 20 13 0
57 18 97 40 40 22 80 40 89 40 9 0 28 17 42 37 14 22 25 52 25 71 0 18 -7 46
-15 62 -8 16 -24 31 -35 35 -11 3 -20 11 -20 16 0 5 -9 9 -20 9z m-279 -225
c5 -4 9 -17 9 -31 0 -19 -5 -24 -25 -24 -15 0 -25 6 -25 14 0 8 7 22 16 30 8
9 20 14 25 11z m-75 -346 c6 1 17 -6 25 -15 11 -13 10 -21 -5 -49 -10 -18 -15
-38 -11 -45 4 -6 0 -19 -8 -28 -8 -9 -23 -41 -32 -70 -15 -44 -21 -53 -38 -50
-13 2 -34 24 -54 58 -18 30 -32 63 -30 72 1 9 34 42 72 72 39 30 75 55 81 55z
m306 -9 c4 0 10 -5 14 -11 3 -6 -9 -27 -29 -46 -19 -20 -40 -32 -46 -29 -6 4
-11 15 -11 26 0 10 15 27 33 39 17 11 35 21 39 21z m-276 -230 c2 0 4 -10 4
-22 0 -16 -3 -19 -11 -11 -6 6 -8 16 -5 22 4 6 9 11 12 11z"/>
<path d="M1093 1227 c-7 3 -21 -10 -32 -28 -11 -19 -23 -53 -27 -78 -4 -24 -2
-51 3 -60 5 -8 16 -19 25 -24 8 -6 23 -7 32 -4 14 6 16 20 14 99 -2 61 -7 93
-15 95z"/>
</g>
</svg>
