<?xml version="1.0" standalone="no"?>
<!DOCTYPE svg PUBLIC "-//W3C//DTD SVG 20010904//EN"
 "http://www.w3.org/TR/2001/REC-SVG-20010904/DTD/svg10.dtd">
<svg version="1.0" xmlns="http://www.w3.org/2000/svg"
 width="128.000000pt" height="128.000000pt" viewBox="0 0 128.000000 128.000000"
 preserveAspectRatio="xMidYMid meet">
<metadata>
Created by potrace 1.16, written by Peter Selinger 2001-2019
</metadata>
<g transform="translate(0.000000,128.000000) scale(0.100000,-0.100000)"
fill="#000000" stroke="none">
<path d="M716 1280 c-7 0 -21 -9 -31 -20 -17 -19 -17 -20 9 -41 14 -11 26 -28
26 -38 0 -9 -13 -37 -29 -62 -15 -24 -40 -55 -54 -68 -14 -12 -30 -20 -36 -16
-6 3 -11 16 -11 28 0 12 -7 30 -14 40 -7 9 -24 17 -37 17 -15 0 -42 -18 -74
-49 -27 -27 -74 -70 -102 -96 -29 -26 -53 -54 -53 -61 0 -8 12 -21 28 -31 15
-9 33 -23 39 -32 11 -13 17 -12 43 7 16 12 36 22 45 22 11 0 15 -11 15 -44 0
-24 -3 -51 -6 -60 -3 -8 -22 -19 -42 -22 -25 -5 -59 -27 -104 -68 -38 -33 -68
-66 -68 -73 0 -7 -11 -23 -25 -35 -15 -13 -25 -32 -25 -49 0 -22 9 -32 42 -51
24 -13 44 -32 46 -42 2 -10 -6 -37 -19 -60 -12 -23 -41 -68 -64 -101 -22 -33
-46 -73 -53 -88 -7 -15 -12 -39 -12 -52 0 -20 5 -25 27 -25 18 0 38 13 64 41
20 22 48 57 62 77 13 20 36 58 51 85 15 26 33 47 41 47 8 0 17 -11 21 -25 3
-14 11 -26 18 -26 6 -1 18 -2 26 -3 10 -1 14 -9 12 -26 -2 -14 -4 -41 -4 -60
0 -19 5 -61 11 -94 6 -32 18 -73 26 -92 10 -25 20 -34 37 -34 16 0 27 9 35 27
7 16 13 42 15 58 3 29 2 30 -34 27 -26 -2 -38 1 -39 10 0 7 -2 25 -3 40 -1 15
-10 35 -19 46 -14 15 -15 22 -6 28 7 4 18 -1 26 -11 7 -11 13 -24 13 -31 0 -7
14 -19 30 -28 30 -14 30 -14 30 25 0 27 -4 39 -14 39 -8 0 -18 5 -21 11 -4 6
2 17 13 25 11 7 23 29 26 47 4 19 15 42 25 51 16 15 37 17 125 15 92 -2 114
-6 159 -29 29 -14 53 -34 55 -44 2 -10 -6 -29 -19 -42 -12 -13 -48 -36 -78
-51 -31 -14 -78 -29 -106 -32 -28 -3 -48 -10 -45 -16 3 -5 37 -10 75 -9 39 0
95 5 125 11 30 5 69 16 85 25 17 8 54 21 84 28 53 13 53 13 49 62 -4 42 -12
56 -48 93 -24 24 -55 48 -69 53 -14 6 -51 15 -82 22 -45 10 -68 10 -129 -3
-41 -8 -78 -13 -82 -11 -5 3 -8 12 -8 19 0 8 14 30 30 48 17 19 30 41 30 50 0
8 7 20 16 28 8 7 22 25 30 40 8 16 14 41 14 58 0 16 3 36 6 44 4 11 16 13 48
10 40 -5 44 -3 75 35 17 23 40 43 49 46 10 3 26 22 36 41 11 19 19 48 19 64 0
16 -12 49 -27 75 -22 37 -32 46 -55 46 -15 0 -43 -8 -62 -17 -19 -9 -52 -31
-74 -48 -22 -18 -61 -45 -86 -61 -26 -16 -67 -56 -92 -89 -25 -33 -54 -68 -65
-79 -12 -10 -25 -16 -29 -13 -5 3 -8 18 -7 34 0 15 2 65 2 111 2 68 5 82 18
82 9 0 54 19 100 42 47 24 100 59 119 78 26 27 36 48 41 83 7 47 7 47 -52 74
-33 14 -60 30 -62 35 -2 4 -9 8 -16 8z m185 -351 c8 1 20 -4 27 -11 7 -7 12
-27 12 -45 0 -18 -4 -33 -8 -33 -5 0 -14 -11 -20 -25 -7 -14 -20 -25 -31 -25
-11 0 -23 -9 -27 -22 -7 -22 -7 -22 -28 5 -16 19 -27 25 -44 21 -15 -5 -24 -1
-28 11 -5 13 4 28 33 54 22 20 53 43 69 53 16 9 36 17 45 17z m-198 -172 c7
-2 13 -28 15 -57 2 -31 -2 -65 -10 -80 -7 -14 -22 -38 -33 -54 -11 -17 -29
-40 -39 -53 -11 -13 -26 -23 -33 -23 -7 0 -14 10 -15 23 0 12 -1 29 0 38 1 9
-7 19 -18 22 -11 3 -20 9 -20 14 0 4 32 45 71 91 39 46 76 81 82 79z m-143
-57 c6 0 10 -7 10 -15 0 -8 -4 -15 -10 -15 -5 0 -10 7 -10 15 0 8 5 15 10 15z
m-109 -10 c13 0 19 -7 19 -22 0 -11 -12 -45 -27 -75 -15 -29 -44 -69 -65 -90
-31 -30 -40 -34 -53 -23 -8 7 -15 23 -15 36 0 13 16 48 35 78 19 30 46 63 61
75 15 12 35 21 45 21z m40 -180 c4 0 10 -19 14 -42 5 -24 7 -67 7 -97 -1 -30
-4 -57 -7 -60 -4 -3 -22 13 -41 37 -20 23 -42 42 -50 42 -8 0 -14 4 -14 8 0 5
14 29 32 53 17 24 36 47 42 51 6 4 14 8 17 8z m61 -162 c6 -2 14 -10 16 -16 2
-7 -3 -12 -12 -12 -9 0 -16 7 -16 16 0 9 5 14 12 12z"/>
</g>
</svg>
