<?xml version="1.0" standalone="no"?>
<!DOCTYPE svg PUBLIC "-//W3C//DTD SVG 20010904//EN"
 "http://www.w3.org/TR/2001/REC-SVG-20010904/DTD/svg10.dtd">
<svg version="1.0" xmlns="http://www.w3.org/2000/svg"
 width="128.000000pt" height="128.000000pt" viewBox="0 0 128.000000 128.000000"
 preserveAspectRatio="xMidYMid meet">
<metadata>
Created by potrace 1.16, written by Peter Selinger 2001-2019
</metadata>
<g transform="translate(0.000000,128.000000) scale(0.100000,-0.100000)"
fill="#000000" stroke="none">
<path d="M742 1260 c-16 0 -33 -5 -39 -11 -7 -7 -6 -22 3 -49 10 -30 11 -46 2
-72 -6 -18 -17 -41 -25 -50 -8 -9 -21 -34 -29 -55 -7 -21 -13 -61 -14 -90 0
-28 5 -64 10 -79 10 -26 11 -26 31 -8 12 10 28 32 36 49 9 16 34 53 56 80 22
28 47 55 55 62 8 7 19 10 23 7 5 -3 9 -16 9 -30 0 -14 -5 -35 -11 -46 -6 -11
-15 -44 -19 -72 -5 -28 -22 -91 -39 -140 -17 -49 -31 -93 -31 -98 0 -4 9 -8
20 -8 11 0 20 -5 20 -11 0 -6 12 -26 26 -45 23 -30 25 -38 15 -57 -6 -12 -13
-31 -16 -42 -2 -11 -9 -38 -15 -60 -6 -22 -14 -50 -17 -62 -3 -15 -1 -23 7
-23 9 0 10 -3 1 -14 -6 -7 -31 -16 -56 -19 -25 -4 -56 -3 -69 2 -16 7 -26 20
-30 44 -4 20 -1 46 5 61 7 14 18 26 25 26 7 0 15 14 19 31 5 22 1 41 -11 65
-10 19 -23 34 -28 34 -5 0 -17 6 -25 14 -9 8 -28 18 -43 21 -21 5 -29 3 -34
-9 -3 -9 -1 -23 6 -31 9 -10 10 -35 4 -87 -4 -40 -8 -84 -9 -98 0 -14 -5 -32
-10 -40 -6 -8 -15 -24 -20 -35 -7 -12 -26 -22 -50 -27 -22 -4 -87 -10 -145
-13 -58 -4 -124 -11 -147 -16 -23 -5 -54 -6 -70 -4 -22 4 -36 -2 -66 -29 -27
-25 -38 -42 -35 -58 3 -20 8 -23 38 -20 19 2 46 10 60 17 14 7 52 16 85 20 33
4 70 13 82 21 12 8 34 14 49 14 15 0 62 7 106 16 63 13 82 13 94 4 13 -11 12
-15 -7 -28 -18 -12 -20 -21 -15 -53 5 -31 3 -39 -9 -39 -9 0 -19 -10 -24 -22
-4 -13 -6 -40 -3 -60 3 -29 9 -38 23 -38 10 0 31 5 46 11 15 6 37 15 48 19 11
4 35 13 52 20 30 11 39 10 88 -16 56 -28 56 -28 77 -7 15 15 19 28 14 46 -3
14 -21 35 -39 46 -28 17 -33 25 -29 49 4 27 2 28 -32 24 -23 -3 -36 -10 -36
-19 0 -7 -11 -26 -24 -40 -21 -22 -27 -24 -40 -14 -9 8 -16 19 -16 26 0 7 -6
25 -14 40 -8 16 -21 32 -28 37 -10 7 -9 11 4 22 10 7 54 16 98 20 52 4 88 3
101 -4 11 -6 33 -9 48 -5 15 3 50 1 77 -5 27 -7 81 -13 119 -14 56 -2 71 -6
73 -19 2 -9 -13 -36 -32 -60 -20 -24 -36 -52 -36 -62 0 -14 6 -16 33 -12 17 2
64 12 102 20 47 11 76 23 88 39 13 15 17 31 13 51 -3 16 -15 41 -26 57 -11 15
-33 33 -50 40 -26 11 -35 9 -70 -9 -40 -21 -40 -21 -40 3 0 13 -7 26 -15 29
-8 4 -52 3 -99 0 -76 -5 -85 -4 -94 13 -8 15 -5 32 10 69 11 28 25 60 30 72 6
12 8 31 5 42 -3 12 1 22 9 25 8 3 14 12 14 20 0 7 11 17 26 20 14 4 42 19 63
34 20 15 53 44 71 65 22 26 36 53 40 83 4 26 2 52 -4 65 -6 11 -25 29 -41 39
-30 19 -30 19 -115 -15 -47 -19 -88 -35 -92 -35 -5 0 -8 11 -8 25 0 15 7 39
15 55 9 17 23 30 33 30 9 0 43 11 75 24 31 13 60 26 64 30 3 3 13 6 22 6 8 0
28 12 43 27 20 19 28 37 28 60 0 22 -10 43 -31 68 -17 19 -42 38 -54 41 -14 3
-57 -6 -102 -21 -43 -15 -92 -38 -110 -51 -17 -13 -37 -24 -43 -24 -8 0 -9 18
-4 58 5 45 2 66 -10 90 -13 24 -23 32 -44 32z m248 -130 c10 0 24 -9 30 -20 8
-15 7 -27 -4 -49 -9 -16 -29 -43 -46 -60 -18 -17 -36 -31 -41 -31 -5 0 -14 12
-19 26 -6 14 -10 36 -10 50 0 18 9 27 35 38 19 8 35 22 35 30 0 9 9 16 20 16z
m-13 -310 c1 0 8 -2 15 -5 11 -5 12 -18 5 -68 -5 -34 -11 -72 -13 -84 -2 -12
-11 -28 -19 -37 -12 -12 -22 -13 -41 -6 -14 6 -35 10 -48 10 -12 0 -34 6 -49
13 -15 6 -27 16 -27 20 0 4 11 25 25 45 14 20 25 42 25 49 0 7 6 13 13 13 6 0
35 11 62 25 28 13 51 25 52 25z m88 -40 c8 0 16 -4 19 -9 4 -5 0 -11 -6 -14
-7 -2 -19 -2 -25 1 -7 2 -10 8 -7 13 3 5 11 9 19 9z m94 -555 c20 -4 39 -10
43 -13 4 -4 5 -17 2 -30 -4 -12 -12 -22 -19 -22 -7 0 -15 7 -19 15 -3 8 -14
15 -24 15 -10 0 -21 3 -25 6 -3 3 -3 13 0 21 4 11 15 13 42 8z"/>
<path d="M1251 1135 c-5 3 -17 -2 -25 -11 -9 -8 -16 -19 -16 -23 0 -5 7 -14
15 -21 8 -6 19 -9 25 -5 5 3 10 17 10 30 0 13 -4 26 -9 30z"/>
<path d="M577 1040 c-9 0 -33 -32 -57 -75 -23 -41 -46 -77 -51 -81 -6 -3 -13
-4 -15 -1 -3 3 -8 25 -10 48 -3 24 -10 49 -16 56 -6 7 -30 13 -55 13 -24 0
-53 5 -64 11 -16 8 -29 7 -55 -6 -19 -9 -34 -23 -34 -31 0 -8 8 -17 18 -20 9
-3 28 -11 41 -17 14 -7 43 -29 65 -49 22 -21 50 -38 63 -38 20 0 23 -5 23 -36
0 -23 -10 -51 -30 -79 -16 -24 -30 -48 -30 -54 0 -5 -17 -30 -37 -55 -21 -25
-49 -60 -63 -78 -14 -17 -33 -52 -42 -77 -10 -26 -18 -54 -18 -63 0 -10 8 -22
18 -27 14 -7 30 -1 70 25 29 20 52 42 52 49 0 8 7 18 16 23 8 5 27 40 40 78
14 38 32 94 40 124 8 30 24 81 36 113 11 32 25 60 29 63 5 3 9 13 9 23 0 9 13
38 30 64 16 26 32 58 36 72 5 19 2 25 -9 25z"/>
</g>
</svg>
