<?xml version="1.0" standalone="no"?>
<!DOCTYPE svg PUBLIC "-//W3C//DTD SVG 20010904//EN"
 "http://www.w3.org/TR/2001/REC-SVG-20010904/DTD/svg10.dtd">
<svg version="1.0" xmlns="http://www.w3.org/2000/svg"
 width="128.000000pt" height="128.000000pt" viewBox="0 0 128.000000 128.000000"
 preserveAspectRatio="xMidYMid meet">
<metadata>
Created by potrace 1.16, written by Peter Selinger 2001-2019
</metadata>
<g transform="translate(0.000000,128.000000) scale(0.100000,-0.100000)"
fill="#000000" stroke="none">
<path d="M479 1280 c-5 0 -9 -4 -9 -10 0 -5 -11 -10 -24 -10 -17 0 -26 -7 -30
-26 -4 -15 -33 -56 -64 -92 -31 -35 -76 -83 -99 -105 -24 -23 -43 -44 -43 -49
0 -4 10 -8 22 -8 21 0 21 -1 15 -151 -6 -147 -6 -152 19 -200 13 -27 28 -49
33 -49 5 0 29 28 54 63 24 34 67 83 95 110 28 26 58 47 67 47 8 0 15 -8 15
-17 -1 -10 -7 -45 -14 -78 -7 -33 -21 -91 -31 -130 -10 -38 -28 -104 -40 -145
-12 -41 -28 -96 -35 -122 -7 -26 -23 -62 -36 -80 -13 -17 -24 -39 -24 -49 0
-9 -18 -49 -40 -89 -22 -40 -40 -77 -40 -81 0 -5 10 -9 23 -9 18 0 32 16 65
70 23 39 42 75 42 80 0 5 9 25 20 44 10 19 33 74 50 121 16 48 30 97 30 110 0
13 4 26 9 29 5 3 11 16 14 28 3 13 22 86 42 163 27 105 37 169 42 256 6 117 6
117 -36 158 -31 30 -41 47 -36 59 4 9 9 32 11 50 4 26 -2 42 -27 73 -17 21
-35 39 -40 39z m24 -130 c4 0 10 -7 14 -15 3 -9 -3 -25 -12 -35 -10 -11 -23
-20 -30 -20 -6 0 -16 5 -22 11 -8 8 -4 18 15 35 15 13 31 24 35 24z m-69 -69
c5 -12 15 -21 22 -21 7 0 26 -11 43 -25 24 -21 31 -36 36 -79 4 -30 4 -63 1
-74 -4 -11 -28 -34 -55 -51 -26 -17 -53 -31 -59 -31 -7 0 -12 6 -12 14 0 8 14
26 31 39 18 14 29 29 25 36 -4 6 -25 20 -46 31 -22 11 -46 20 -54 20 -9 0 -20
-9 -26 -20 -6 -11 -15 -20 -20 -20 -5 0 -11 8 -14 18 -3 9 -8 34 -12 54 -6 37
-5 38 37 57 24 10 55 31 69 45 24 27 25 27 34 7z m-75 -263 c9 -2 17 -11 19
-21 2 -10 -2 -24 -8 -32 -7 -8 -19 -15 -26 -15 -9 0 -14 11 -14 28 0 16 3 32
7 36 4 4 14 5 22 4z"/>
<path d="M1012 1229 c-15 -1 -45 -5 -67 -11 -22 -5 -68 -13 -102 -18 -35 -5
-72 -14 -84 -21 -12 -6 -36 -8 -55 -4 -19 3 -43 1 -54 -5 -14 -7 -20 -19 -18
-33 2 -17 11 -23 40 -25 36 -3 36 -3 43 -110 4 -59 8 -242 9 -407 1 -228 4
-306 14 -323 7 -13 19 -21 25 -19 6 2 17 30 24 63 7 37 12 149 13 296 0 170 3
239 12 244 7 4 23 -6 39 -26 15 -18 51 -71 80 -117 29 -46 57 -82 63 -80 6 2
24 27 39 56 28 51 29 54 34 271 5 194 4 222 -11 245 -11 17 -25 25 -44 24z
m-57 -63 c25 -1 31 -6 36 -31 4 -16 7 -92 8 -167 0 -75 -2 -143 -5 -152 -3 -9
-12 -16 -19 -16 -7 0 -38 19 -69 42 -31 23 -56 48 -56 55 0 8 25 25 55 39 50
21 55 26 45 44 -6 11 -19 24 -29 29 -13 8 -27 4 -55 -15 -21 -14 -44 -23 -52
-20 -8 3 -15 16 -15 28 -1 13 -3 41 -3 63 -1 22 1 49 5 60 5 15 21 23 65 31
32 7 72 11 89 10z"/>
<path d="M455 86 c-11 3 -24 2 -28 -2 -4 -4 -7 -25 -7 -46 0 -38 0 -38 70 -38
39 0 70 4 70 9 0 5 -14 23 -31 40 -17 17 -36 31 -42 31 -7 0 -21 3 -32 6z"/>
<path d="M784 65 c-31 6 -43 3 -57 -12 -9 -11 -17 -27 -17 -36 0 -14 11 -17
70 -17 62 0 70 2 70 19 0 10 -6 23 -13 29 -7 6 -31 14 -53 17z"/>
</g>
</svg>
