<?xml version="1.0" standalone="no"?>
<!DOCTYPE svg PUBLIC "-//W3C//DTD SVG 20010904//EN"
 "http://www.w3.org/TR/2001/REC-SVG-20010904/DTD/svg10.dtd">
<svg version="1.0" xmlns="http://www.w3.org/2000/svg"
 width="128.000000pt" height="128.000000pt" viewBox="0 0 128.000000 128.000000"
 preserveAspectRatio="xMidYMid meet">
<metadata>
Created by potrace 1.16, written by Peter Selinger 2001-2019
</metadata>
<g transform="translate(0.000000,128.000000) scale(0.100000,-0.100000)"
fill="#000000" stroke="none">
<path d="M570 1005 c-35 5 -51 1 -75 -15 -18 -12 -46 -20 -71 -20 -23 0 -47
-6 -53 -14 -6 -7 -8 -21 -5 -31 6 -14 15 -16 45 -11 25 4 49 1 71 -10 18 -8
44 -34 58 -57 14 -22 70 -99 125 -171 55 -72 106 -143 112 -159 8 -16 20 -27
33 -27 11 0 20 -4 20 -9 0 -5 19 -20 42 -33 23 -13 49 -36 58 -53 10 -18 28
-32 48 -37 17 -5 47 -25 67 -45 23 -24 48 -38 76 -43 33 -6 52 -3 100 18 51
22 59 29 59 52 0 24 -8 31 -52 50 -29 12 -64 32 -78 44 -14 13 -41 30 -60 38
-19 9 -44 18 -55 20 -11 2 -25 14 -32 28 -7 14 -30 43 -52 65 -23 22 -52 51
-66 65 -14 14 -38 39 -54 55 -17 17 -46 53 -65 80 -19 28 -53 77 -75 110 -22
33 -48 70 -58 82 -12 14 -34 24 -63 28z"/>
<path d="M185 755 c-11 1 -31 1 -45 -2 -14 -3 -31 -10 -38 -15 -10 -9 -9 -14
4 -29 9 -10 31 -25 50 -34 25 -11 34 -22 34 -40 0 -13 -15 -39 -33 -58 -17
-19 -38 -52 -46 -73 -8 -22 -34 -56 -58 -77 -23 -21 -43 -45 -43 -52 0 -8 10
-26 23 -41 18 -21 29 -26 48 -21 14 4 43 24 64 46 22 21 59 58 82 82 22 24 49
49 59 55 10 6 22 26 27 45 5 19 7 62 5 97 -2 39 -10 68 -20 78 -8 8 -33 20
-54 25 -21 6 -48 12 -59 14z"/>
<path d="M386 278 c-13 2 -27 -2 -31 -7 -3 -6 1 -14 9 -17 8 -3 22 -4 31 -2 9
1 16 8 16 13 0 6 -11 11 -25 13z"/>
</g>
</svg>
