<?xml version="1.0" standalone="no"?>
<!DOCTYPE svg PUBLIC "-//W3C//DTD SVG 20010904//EN"
 "http://www.w3.org/TR/2001/REC-SVG-20010904/DTD/svg10.dtd">
<svg version="1.0" xmlns="http://www.w3.org/2000/svg"
 width="128.000000pt" height="128.000000pt" viewBox="0 0 128.000000 128.000000"
 preserveAspectRatio="xMidYMid meet">
<metadata>
Created by potrace 1.16, written by Peter Selinger 2001-2019
</metadata>
<g transform="translate(0.000000,128.000000) scale(0.100000,-0.100000)"
fill="#000000" stroke="none">
<path d="M677 1280 c-13 0 -28 -5 -35 -12 -7 -7 -12 -17 -12 -24 0 -6 -12 -20
-27 -30 -16 -9 -54 -42 -86 -73 -32 -31 -67 -76 -79 -101 -12 -25 -25 -61 -30
-80 -6 -19 -16 -69 -23 -110 -6 -41 -18 -95 -25 -120 -8 -27 -13 -106 -14
-200 -1 -90 4 -177 11 -207 7 -29 18 -63 25 -75 7 -13 19 -31 27 -40 8 -10 22
-18 31 -18 16 0 18 12 16 115 -1 92 -4 117 -17 127 -9 7 -21 28 -27 46 -6 18
-9 38 -7 45 3 7 9 66 14 132 5 66 13 128 16 137 6 15 10 15 44 -8 33 -22 46
-24 97 -19 32 2 71 7 85 10 18 4 31 18 43 46 17 39 17 41 0 53 -11 9 -33 12
-58 8 -23 -3 -43 -8 -46 -11 -3 -4 -30 -14 -61 -24 -31 -9 -65 -17 -77 -17
-15 0 -22 6 -22 19 0 10 5 31 10 47 6 18 23 35 43 43 17 8 61 32 96 53 34 21
69 38 76 38 7 0 28 8 46 18 19 9 39 24 46 32 11 13 16 11 37 -15 14 -16 28
-46 31 -65 3 -19 10 -57 15 -85 5 -27 12 -111 15 -185 2 -74 7 -187 10 -250 3
-63 2 -147 -1 -187 -5 -57 -10 -74 -24 -78 -9 -3 -29 -1 -44 5 -24 9 -26 13
-20 49 6 35 3 43 -21 65 -22 20 -38 26 -75 26 -33 0 -52 6 -63 18 -10 10 -17
28 -17 40 0 11 10 33 23 49 13 15 31 40 40 55 9 15 17 36 17 46 0 10 5 23 11
29 8 8 8 17 -1 32 -6 12 -19 21 -28 19 -9 -1 -23 1 -31 6 -8 5 -28 10 -45 12
-17 2 -41 6 -53 9 -12 3 -25 0 -29 -6 -3 -6 3 -21 15 -33 12 -11 36 -26 53
-32 17 -6 36 -18 42 -27 8 -12 8 -22 -1 -35 -7 -9 -19 -30 -26 -47 -8 -16 -19
-46 -25 -65 -8 -26 -8 -47 2 -82 6 -27 17 -53 23 -59 6 -6 37 -12 69 -14 33
-2 61 -4 63 -4 3 -1 0 -6 -7 -13 -7 -7 -12 -22 -12 -35 0 -13 -10 -44 -23 -71
-13 -26 -29 -58 -37 -72 -7 -14 -17 -33 -22 -42 -4 -10 -8 -22 -8 -28 0 -5 10
-10 23 -9 17 0 29 15 55 68 17 38 32 73 32 79 0 5 6 15 14 21 10 8 24 6 57
-12 24 -12 46 -23 48 -25 3 -1 -1 -8 -7 -14 -7 -7 -12 -18 -12 -24 0 -7 9 -16
21 -19 14 -5 28 0 46 17 14 12 31 34 38 48 9 18 12 68 10 185 -2 88 -6 180
-10 205 -4 25 -8 83 -9 130 -1 47 -6 93 -10 102 -4 9 -3 25 2 35 6 10 10 49
10 86 0 37 -4 70 -9 73 -5 3 -5 13 1 24 6 12 6 40 -3 86 -12 68 -13 69 -45 72
-18 2 -39 -1 -46 -7 -9 -7 -16 -7 -24 1 -9 9 -16 8 -29 -4 -10 -8 -38 -18 -61
-22 -27 -4 -68 -23 -105 -49 -34 -23 -64 -44 -67 -47 -3 -3 -20 -13 -37 -23
-18 -10 -33 -14 -33 -8 0 5 9 30 20 55 11 26 32 62 47 81 16 19 32 35 37 35 4
0 24 18 43 40 20 22 41 40 48 40 6 0 19 8 28 18 10 10 17 22 17 25 0 4 -10 7
-23 7z"/>
</g>
</svg>
