<?xml version="1.0" standalone="no"?>
<!DOCTYPE svg PUBLIC "-//W3C//DTD SVG 20010904//EN"
 "http://www.w3.org/TR/2001/REC-SVG-20010904/DTD/svg10.dtd">
<svg version="1.0" xmlns="http://www.w3.org/2000/svg"
 width="128.000000pt" height="128.000000pt" viewBox="0 0 128.000000 128.000000"
 preserveAspectRatio="xMidYMid meet">
<metadata>
Created by potrace 1.16, written by Peter Selinger 2001-2019
</metadata>
<g transform="translate(0.000000,128.000000) scale(0.100000,-0.100000)"
fill="#000000" stroke="none">
<path d="M910 1254 c-8 3 -26 0 -40 -8 -14 -7 -40 -20 -58 -29 -19 -9 -42 -17
-53 -17 -14 0 -19 -7 -19 -29 0 -16 6 -34 14 -40 11 -9 20 -10 36 -1 15 8 19
17 15 31 -6 18 -4 19 12 9 14 -9 30 -8 76 9 42 14 59 17 61 8 2 -7 8 -33 15
-60 6 -26 11 -64 11 -85 0 -20 5 -55 11 -77 6 -22 11 -47 11 -55 0 -8 0 -67 0
-130 -1 -63 0 -159 2 -212 2 -59 8 -103 16 -113 8 -9 10 -25 5 -42 -4 -16 -9
-81 -10 -145 -2 -65 -6 -122 -10 -128 -4 -6 -28 -7 -63 -3 -45 5 -66 14 -99
42 -24 19 -43 40 -43 46 0 7 -10 21 -23 33 -13 12 -33 22 -45 22 -16 0 -22 -6
-22 -21 0 -11 15 -39 33 -61 17 -23 46 -54 62 -70 17 -15 46 -42 65 -58 19
-17 45 -39 57 -50 13 -11 28 -20 34 -20 5 0 34 17 64 37 48 34 55 43 61 83 4
25 7 137 7 250 0 113 -1 266 -1 340 -1 74 -1 150 -1 169 0 18 -6 40 -13 50 -7
9 -19 27 -27 41 -10 20 -11 22 0 13 7 -7 19 -13 27 -13 11 0 12 11 7 53 -4 28
-23 84 -41 124 -19 40 -39 75 -45 79 -6 4 -25 10 -43 14 -17 4 -38 10 -46 14z"/>
<path d="M453 1190 c-6 0 -15 -5 -18 -10 -4 -6 -1 -18 6 -26 7 -9 25 -21 39
-26 14 -5 48 -16 75 -23 28 -7 75 -12 105 -11 55 1 55 1 58 39 3 34 1 37 -22
37 -14 0 -29 -8 -35 -17 -8 -15 -13 -16 -30 -5 -12 6 -35 12 -53 12 -18 0 -51
7 -73 15 -22 8 -45 14 -52 15z"/>
<path d="M553 986 c-13 3 -23 2 -23 -3 0 -5 10 -19 23 -31 13 -12 37 -25 55
-28 18 -4 34 -10 37 -13 2 -4 -21 -27 -52 -52 -31 -24 -66 -58 -79 -75 -13
-17 -24 -38 -24 -48 0 -9 8 -20 18 -24 9 -4 34 -18 55 -31 22 -13 37 -31 37
-42 0 -11 -18 -56 -40 -100 -22 -45 -40 -89 -40 -99 0 -9 18 -29 40 -44 22
-14 47 -26 55 -26 9 0 27 -12 40 -26 16 -17 35 -26 60 -27 32 -2 42 3 68 36
26 32 29 41 21 64 -7 20 -20 30 -50 39 -22 6 -55 19 -72 28 -18 9 -32 20 -32
25 0 5 20 35 45 67 25 32 48 69 51 81 4 13 4 30 0 38 -3 8 -17 15 -31 15 -15
0 -46 14 -71 30 -24 17 -44 37 -44 44 0 7 18 26 40 41 22 15 66 33 98 39 46
10 58 16 60 33 2 15 -6 28 -24 40 -16 10 -44 19 -64 19 -19 1 -57 7 -85 13
-27 6 -60 13 -72 17z"/>
<path d="M286 959 c-6 0 -21 -4 -33 -9 -13 -5 -23 -16 -23 -23 0 -8 7 -27 15
-43 8 -17 15 -64 17 -109 1 -44 -4 -122 -10 -173 -7 -51 -16 -112 -22 -135 -5
-23 -11 -76 -14 -117 -2 -41 -9 -105 -16 -142 -12 -65 -12 -68 14 -112 15 -25
32 -46 39 -46 7 0 23 12 37 27 24 25 25 34 33 192 5 91 9 191 11 221 1 30 8
84 14 120 6 36 16 97 22 135 10 67 10 73 -16 125 -14 30 -33 63 -42 73 -8 9
-20 17 -26 16z"/>
</g>
</svg>
