<?xml version="1.0" standalone="no"?>
<!DOCTYPE svg PUBLIC "-//W3C//DTD SVG 20010904//EN"
 "http://www.w3.org/TR/2001/REC-SVG-20010904/DTD/svg10.dtd">
<svg version="1.0" xmlns="http://www.w3.org/2000/svg"
 width="128.000000pt" height="128.000000pt" viewBox="0 0 128.000000 128.000000"
 preserveAspectRatio="xMidYMid meet">
<metadata>
Created by potrace 1.16, written by Peter Selinger 2001-2019
</metadata>
<g transform="translate(0.000000,128.000000) scale(0.100000,-0.100000)"
fill="#000000" stroke="none">
<path d="M674 1260 c-18 0 -40 -7 -48 -15 -13 -13 -13 -20 -3 -36 6 -10 36
-31 65 -46 29 -15 58 -35 63 -46 6 -10 9 -21 7 -26 -2 -4 -44 -44 -95 -89 -51
-45 -100 -96 -110 -112 -9 -17 -22 -30 -28 -30 -5 0 -29 25 -53 55 -39 51 -42
59 -36 97 6 33 3 44 -10 54 -14 10 -24 10 -42 2 -13 -6 -34 -31 -47 -56 -12
-25 -33 -52 -47 -60 -14 -9 -37 -27 -52 -41 -24 -21 -27 -29 -21 -65 3 -23 10
-49 15 -58 5 -10 18 -18 29 -18 12 0 27 13 39 33 10 17 33 38 50 46 20 8 35
10 41 4 5 -5 18 -36 30 -69 11 -32 27 -69 34 -80 8 -12 25 -24 38 -26 14 -3
32 -1 41 4 9 5 26 29 37 54 12 24 38 63 58 86 25 27 43 39 53 36 14 -6 14 -15
1 -89 -8 -45 -13 -93 -11 -107 2 -14 11 -30 21 -36 14 -9 26 -6 59 13 42 24
42 24 65 -3 18 -21 23 -39 23 -82 0 -38 -4 -56 -14 -60 -8 -3 -28 2 -45 10
-22 12 -60 16 -144 16 -101 0 -116 -2 -132 -20 -11 -12 -31 -20 -51 -20 -18 0
-36 -5 -39 -10 -4 -6 -1 -18 6 -26 10 -13 35 -14 159 -8 81 4 159 4 174 0 22
-5 27 -12 24 -33 -2 -22 -10 -29 -35 -34 -17 -3 -53 -25 -80 -49 -26 -23 -60
-48 -74 -55 -14 -8 -39 -26 -56 -42 -17 -16 -55 -36 -86 -46 -30 -9 -60 -24
-66 -31 -7 -8 -21 -12 -32 -9 -11 3 -28 -2 -39 -12 -10 -9 -24 -14 -29 -10 -6
3 -11 21 -11 40 0 18 -3 40 -6 49 -3 9 -12 16 -20 16 -7 0 -20 -10 -28 -22 -9
-12 -16 -36 -16 -53 0 -16 -7 -43 -15 -59 -8 -15 -15 -41 -15 -57 0 -25 4 -29
26 -29 14 0 58 16 97 35 39 19 81 35 93 35 13 0 26 4 29 10 3 5 18 10 33 10
16 0 59 22 107 55 44 30 98 70 119 90 21 19 61 47 87 62 27 14 49 30 49 35 0
4 8 8 18 8 9 0 28 -17 41 -38 14 -20 33 -47 44 -59 19 -21 19 -21 -5 -37 -13
-8 -48 -20 -78 -27 -30 -6 -73 -21 -95 -32 -22 -11 -57 -35 -78 -53 -20 -19
-41 -34 -46 -34 -4 0 -25 -13 -46 -30 -38 -30 -38 -30 26 -30 35 0 80 6 99 13
19 6 46 20 60 30 13 9 36 17 50 17 14 0 38 7 54 15 15 8 44 15 63 15 20 0 51
9 69 21 19 11 34 23 34 25 0 3 -7 16 -16 30 -9 13 -14 27 -10 31 3 4 0 16 -7
27 -7 12 -21 44 -32 71 -10 28 -28 68 -41 91 -13 22 -24 56 -24 75 0 19 7 46
14 61 8 15 14 41 14 58 -1 16 -15 53 -33 82 -17 29 -48 64 -69 78 -38 24 -38
25 -31 75 3 27 8 52 11 54 2 2 20 0 39 -6 27 -9 37 -8 46 3 7 8 20 12 30 9 10
-3 26 -1 36 4 10 5 39 13 65 16 25 3 51 11 56 18 5 7 12 26 16 42 4 17 8 45 9
64 2 23 -6 48 -24 76 -15 24 -36 46 -46 48 -10 3 -40 4 -68 2 -27 -2 -62 -6
-77 -10 -22 -6 -33 -2 -56 22 -16 16 -32 39 -36 51 -4 13 -23 29 -43 37 -19 8
-50 15 -69 15z m318 -161 c4 0 11 -11 14 -26 4 -16 11 -34 17 -41 7 -9 7 -16
-1 -24 -7 -7 -12 -18 -12 -25 0 -7 7 -13 16 -13 8 0 12 -4 9 -10 -3 -5 -28
-10 -56 -10 -27 0 -58 -5 -68 -12 -16 -10 -25 -7 -54 15 -20 15 -37 38 -40 54
-3 15 -3 31 0 35 2 5 13 8 23 8 10 0 22 5 25 10 3 6 16 10 28 11 12 0 38 6 57
13 19 8 38 14 42 15z"/>
</g>
</svg>
