<?xml version="1.0" standalone="no"?>
<!DOCTYPE svg PUBLIC "-//W3C//DTD SVG 20010904//EN"
 "http://www.w3.org/TR/2001/REC-SVG-20010904/DTD/svg10.dtd">
<svg version="1.0" xmlns="http://www.w3.org/2000/svg"
 width="128.000000pt" height="128.000000pt" viewBox="0 0 128.000000 128.000000"
 preserveAspectRatio="xMidYMid meet">
<metadata>
Created by potrace 1.16, written by Peter Selinger 2001-2019
</metadata>
<g transform="translate(0.000000,128.000000) scale(0.100000,-0.100000)"
fill="#000000" stroke="none">
<path d="M670 1280 c-11 0 -20 -4 -20 -10 0 -5 -9 -10 -20 -10 -11 0 -20 -6
-20 -14 0 -8 13 -19 29 -24 24 -8 31 -18 37 -48 4 -20 3 -44 -3 -52 -5 -9 -29
-22 -54 -30 -24 -8 -79 -32 -122 -54 -70 -35 -78 -37 -83 -21 -3 10 -10 28
-14 40 -5 12 -20 29 -33 38 -19 12 -30 13 -52 5 -19 -7 -25 -15 -21 -26 3 -9
6 -20 6 -25 0 -5 11 -14 25 -19 20 -8 25 -17 26 -47 1 -21 0 -54 -1 -73 -1
-19 -6 -39 -11 -44 -5 -6 -9 -28 -9 -51 0 -23 5 -46 12 -53 7 -7 17 -8 28 -2
10 5 24 31 33 57 8 26 18 63 22 82 4 18 23 51 42 72 20 22 43 39 53 39 10 0
33 6 51 14 19 7 39 12 46 9 8 -3 4 -22 -12 -62 -12 -32 -34 -76 -49 -97 -14
-21 -26 -44 -26 -50 0 -6 8 -18 18 -27 17 -15 22 -14 81 13 34 17 73 30 87 30
13 0 28 -9 34 -20 6 -11 8 -51 5 -95 -2 -42 -10 -95 -16 -118 -7 -23 -16 -46
-20 -50 -4 -5 -26 11 -50 35 -24 24 -59 50 -78 57 -29 12 -39 12 -75 -1 -27
-10 -42 -22 -44 -35 -3 -17 4 -21 48 -26 38 -5 61 -15 95 -43 24 -21 46 -43
49 -51 3 -7 -2 -29 -10 -50 -9 -20 -27 -51 -40 -68 -13 -18 -24 -37 -24 -43 0
-6 -4 -12 -8 -14 -5 -1 -22 -23 -39 -48 -17 -25 -67 -80 -110 -122 -43 -42
-96 -93 -118 -112 -39 -36 -39 -36 -3 -36 25 0 53 10 85 32 26 18 70 55 98 83
27 29 70 75 95 103 24 29 48 60 54 69 5 10 20 31 33 47 13 15 43 71 68 122 24
52 53 127 64 167 12 40 21 99 21 130 0 51 -4 61 -33 93 -23 25 -45 38 -72 43
-21 3 -38 10 -39 15 -1 4 28 17 64 28 36 12 74 24 85 28 11 4 39 16 62 25 24
10 54 33 68 51 14 18 25 44 25 57 0 13 -10 36 -21 51 -12 15 -32 31 -45 36
-15 6 -41 4 -76 -6 -29 -8 -62 -16 -72 -17 -16 -2 -22 8 -31 43 -7 30 -18 48
-33 55 -12 5 -22 13 -22 17 0 5 -9 8 -20 8z m215 -153 c24 -2 29 -6 27 -22 -2
-11 -19 -34 -39 -51 -19 -17 -59 -44 -89 -60 -35 -19 -57 -25 -63 -19 -6 6 -5
28 3 60 13 49 15 51 72 72 32 12 73 21 89 20z"/>
<path d="M959 890 c-4 0 -10 -4 -14 -10 -3 -5 0 -18 7 -30 7 -11 18 -20 25
-20 7 0 13 8 13 18 0 10 -5 23 -12 30 -7 7 -15 12 -19 12z"/>
<path d="M633 79 c-10 0 -28 -7 -40 -16 -13 -8 -23 -21 -23 -28 0 -6 11 -17
25 -23 14 -7 67 -12 118 -12 84 1 90 2 72 16 -12 9 -30 12 -48 8 -22 -5 -33 0
-56 25 -16 17 -37 31 -48 30z"/>
<path d="M945 20 c-8 0 -15 -4 -15 -10 0 -5 7 -10 15 -10 8 0 15 5 15 10 0 6
-7 10 -15 10z"/>
</g>
</svg>
