<?xml version="1.0" standalone="no"?>
<!DOCTYPE svg PUBLIC "-//W3C//DTD SVG 20010904//EN"
 "http://www.w3.org/TR/2001/REC-SVG-20010904/DTD/svg10.dtd">
<svg version="1.0" xmlns="http://www.w3.org/2000/svg"
 width="128.000000pt" height="128.000000pt" viewBox="0 0 128.000000 128.000000"
 preserveAspectRatio="xMidYMid meet">
<metadata>
Created by potrace 1.16, written by Peter Selinger 2001-2019
</metadata>
<g transform="translate(0.000000,128.000000) scale(0.100000,-0.100000)"
fill="#000000" stroke="none">
<path d="M687 1260 c-51 0 -68 -4 -81 -19 -17 -19 -16 -21 31 -50 26 -17 55
-31 64 -31 8 0 25 -10 37 -23 14 -15 22 -36 22 -59 0 -28 -6 -40 -27 -53 -16
-10 -32 -24 -36 -32 -5 -7 -26 -25 -47 -38 -22 -14 -44 -25 -49 -25 -5 0 -18
16 -30 35 -11 20 -28 38 -36 42 -9 3 -21 1 -26 -4 -5 -5 1 -29 18 -60 28 -51
28 -51 10 -100 -9 -26 -17 -58 -17 -70 0 -12 9 -27 20 -33 15 -8 25 -7 41 4
12 8 32 38 45 66 13 29 24 58 24 66 0 8 7 17 16 21 8 3 21 0 27 -6 9 -9 9 -16
0 -30 -6 -10 -14 -43 -18 -74 -4 -31 -4 -68 -1 -82 5 -19 13 -25 35 -25 15 0
31 -3 34 -7 4 -3 0 -18 -9 -32 -9 -14 -23 -31 -31 -37 -11 -9 -30 -4 -85 23
-39 19 -77 32 -84 29 -8 -3 -14 -12 -14 -20 0 -8 23 -30 51 -48 28 -18 60 -32
69 -30 10 2 21 -1 24 -7 3 -5 -1 -17 -10 -25 -8 -9 -22 -16 -29 -16 -8 0 -17
-8 -20 -17 -3 -10 -43 -47 -88 -82 -45 -35 -91 -67 -102 -71 -12 -4 -27 -15
-34 -24 -7 -9 -19 -16 -26 -16 -6 0 -20 9 -30 20 -12 13 -29 20 -44 18 -13 -2
-26 -8 -28 -14 -2 -6 16 -32 40 -57 36 -36 49 -44 71 -40 14 3 29 9 32 14 3 5
13 9 23 9 9 0 60 32 112 72 52 39 99 76 104 83 6 7 24 22 42 33 17 12 38 22
45 22 8 0 36 -17 62 -37 48 -37 48 -37 20 -61 -16 -12 -42 -30 -59 -38 -16 -8
-51 -27 -76 -42 -25 -15 -63 -40 -84 -57 -20 -16 -57 -50 -82 -75 -25 -24 -51
-60 -59 -78 -8 -19 -14 -43 -14 -53 0 -15 8 -19 40 -19 30 0 38 3 34 14 -3 8
10 34 28 59 21 29 49 53 79 66 25 11 52 27 59 36 7 8 18 15 24 15 6 0 42 20
79 44 38 24 79 47 92 50 14 4 27 18 34 37 6 18 11 41 11 51 0 10 -7 33 -16 51
-9 17 -28 40 -43 52 -14 11 -36 29 -49 40 -24 21 -24 21 1 58 14 21 28 51 32
66 4 21 -1 44 -19 79 -14 27 -31 52 -39 55 -9 3 -12 16 -9 36 2 17 9 34 16 39
6 4 27 13 46 19 19 7 61 15 92 18 56 7 58 8 79 52 17 35 20 52 13 71 -5 15
-24 37 -43 49 -25 17 -48 23 -87 23 -50 0 -54 2 -59 28 -3 15 -13 51 -21 79
-8 30 -23 57 -34 63 -10 5 -48 10 -83 10z m219 -241 c12 0 27 -6 34 -14 6 -8
9 -19 5 -25 -3 -5 -11 -10 -17 -10 -5 0 -33 -11 -60 -25 -27 -14 -54 -23 -59
-19 -5 3 -9 13 -9 22 0 10 7 27 15 39 8 12 28 24 43 26 15 2 37 5 48 6z"/>
<path d="M306 1080 c-4 0 -9 -7 -13 -16 -4 -10 9 -29 37 -56 32 -31 40 -45 36
-62 -4 -11 -12 -43 -18 -71 -6 -27 -12 -70 -12 -95 -1 -40 2 -45 22 -48 13 -2
32 4 42 13 11 10 26 38 35 64 8 25 13 64 11 86 -2 22 -8 49 -13 60 -5 11 -17
34 -28 52 -11 18 -36 41 -56 53 -20 11 -40 20 -43 20z"/>
</g>
</svg>
