<?xml version="1.0" standalone="no"?>
<!DOCTYPE svg PUBLIC "-//W3C//DTD SVG 20010904//EN"
 "http://www.w3.org/TR/2001/REC-SVG-20010904/DTD/svg10.dtd">
<svg version="1.0" xmlns="http://www.w3.org/2000/svg"
 width="128.000000pt" height="128.000000pt" viewBox="0 0 128.000000 128.000000"
 preserveAspectRatio="xMidYMid meet">
<metadata>
Created by potrace 1.16, written by Peter Selinger 2001-2019
</metadata>
<g transform="translate(0.000000,128.000000) scale(0.100000,-0.100000)"
fill="#000000" stroke="none">
<path d="M625 1280 c-33 0 -45 -4 -45 -15 0 -8 7 -15 15 -15 9 0 24 -20 35
-46 11 -25 20 -65 20 -89 0 -34 -5 -47 -22 -59 -12 -9 -31 -16 -42 -16 -11 0
-40 -10 -64 -22 -35 -17 -48 -19 -61 -10 -9 7 -22 15 -29 18 -8 4 -31 1 -53
-5 -28 -9 -39 -17 -39 -31 0 -11 -3 -20 -6 -20 -3 0 -17 9 -31 20 -14 11 -31
20 -38 20 -7 0 -18 -7 -25 -15 -10 -13 -10 -19 3 -33 8 -9 24 -38 36 -64 11
-26 21 -62 21 -80 0 -19 11 -49 25 -71 14 -20 32 -37 39 -37 8 0 19 7 26 15 9
11 11 40 7 105 -3 50 -3 90 0 90 4 0 21 -5 38 -11 25 -9 37 -9 57 2 14 8 44
24 67 37 23 12 46 20 51 17 6 -3 10 -17 10 -31 0 -13 -4 -24 -8 -24 -5 0 -14
-11 -19 -23 -9 -19 -7 -30 8 -55 18 -27 24 -30 54 -25 26 4 35 1 44 -15 8 -16
6 -44 -9 -118 -15 -72 -36 -130 -81 -223 -34 -69 -71 -146 -83 -171 -11 -24
-55 -80 -97 -123 -50 -51 -79 -90 -83 -110 -3 -16 -4 -33 -1 -36 3 -3 12 -1
19 4 7 6 31 22 52 36 21 14 72 61 112 104 41 42 80 91 87 109 7 17 23 40 34
50 11 10 30 47 41 82 12 35 25 66 30 69 5 3 18 38 30 78 12 39 28 94 37 122
11 35 13 68 8 114 -5 49 -12 69 -31 86 -14 13 -38 28 -55 35 -24 10 -29 18
-27 39 3 24 7 26 42 24 22 -2 44 -7 50 -13 5 -5 20 -10 32 -10 12 0 51 16 87
37 36 20 82 53 102 73 22 23 38 50 42 73 5 31 1 40 -26 68 -30 30 -35 31 -84
26 -31 -4 -58 -13 -67 -24 -8 -10 -32 -33 -53 -51 -29 -25 -42 -30 -52 -22 -7
6 -16 26 -19 45 -4 19 -20 48 -36 64 -17 16 -30 34 -30 40 0 6 -20 11 -45 11z
m293 -158 c6 -2 12 -9 12 -15 0 -5 -18 -27 -41 -48 -22 -20 -62 -44 -89 -53
-27 -9 -56 -13 -65 -10 -9 4 -15 14 -13 22 2 9 14 22 28 29 14 7 36 18 50 23
14 6 43 21 65 33 22 13 46 21 53 19z"/>
<path d="M639 99 c-13 0 -38 -6 -56 -12 -17 -7 -35 -16 -39 -20 -5 -4 -2 -12
6 -17 8 -6 27 -10 42 -10 14 0 33 -3 42 -6 9 -3 16 -12 16 -20 0 -10 14 -14
50 -14 29 0 50 5 50 11 0 6 -4 19 -10 29 -5 10 -25 28 -44 39 -18 12 -44 21
-57 20z"/>
</g>
</svg>
