<?xml version="1.0" standalone="no"?>
<!DOCTYPE svg PUBLIC "-//W3C//DTD SVG 20010904//EN"
 "http://www.w3.org/TR/2001/REC-SVG-20010904/DTD/svg10.dtd">
<svg version="1.0" xmlns="http://www.w3.org/2000/svg"
 width="56.000000pt" height="56.000000pt" viewBox="0 0 56.000000 56.000000"
 preserveAspectRatio="xMidYMid meet">
<metadata>
Created by potrace 1.16, written by Peter Selinger 2001-2019
</metadata>
<g transform="translate(0.000000,56.000000) scale(0.100000,-0.100000)"
fill="#000000" stroke="none">
<path d="M368 440 c-37 0 -70 -5 -73 -11 -4 -5 -19 -15 -33 -21 -15 -6 -49
-19 -77 -29 -27 -11 -71 -19 -98 -19 -32 0 -49 -5 -53 -14 -3 -8 -1 -23 5 -34
6 -11 18 -27 26 -36 11 -11 26 -13 48 -9 18 3 41 13 52 23 11 9 43 23 70 30
28 7 64 23 81 36 25 18 39 22 68 17 23 -4 45 -16 61 -35 14 -17 25 -42 25 -59
0 -17 -7 -43 -15 -59 -9 -18 -33 -37 -61 -49 -25 -11 -43 -25 -39 -31 3 -5 29
-10 56 -10 28 0 60 7 74 16 13 9 28 30 34 47 5 18 8 55 7 82 -2 28 -13 69 -26
93 -12 23 -32 49 -43 57 -14 10 -46 15 -89 15z"/>
</g>
</svg>
