<?xml version="1.0" standalone="no"?>
<!DOCTYPE svg PUBLIC "-//W3C//DTD SVG 20010904//EN"
 "http://www.w3.org/TR/2001/REC-SVG-20010904/DTD/svg10.dtd">
<svg version="1.0" xmlns="http://www.w3.org/2000/svg"
 width="56.000000pt" height="56.000000pt" viewBox="0 0 56.000000 56.000000"
 preserveAspectRatio="xMidYMid meet">
<metadata>
Created by potrace 1.16, written by Peter Selinger 2001-2019
</metadata>
<g transform="translate(0.000000,56.000000) scale(0.100000,-0.100000)"
fill="#000000" stroke="none">
<path d="M222 460 c-10 0 -27 -9 -37 -20 -10 -11 -22 -20 -28 -20 -5 0 -22 -9
-38 -21 -16 -11 -29 -27 -29 -35 0 -8 9 -14 19 -14 11 0 29 12 40 26 12 15 35
34 53 43 17 9 34 22 36 29 2 7 -5 12 -16 12z"/>
<path d="M380 438 c-33 0 -63 -5 -66 -9 -3 -5 -13 -9 -23 -9 -10 0 -32 -7 -50
-16 -17 -9 -39 -27 -48 -40 -11 -17 -24 -24 -48 -24 -23 0 -39 -7 -52 -23 -13
-16 -28 -23 -53 -22 -33 0 -35 -2 -38 -37 -3 -31 0 -38 15 -38 10 0 23 4 29 8
6 4 17 18 24 32 8 15 15 20 18 12 2 -6 9 -12 16 -12 7 0 27 16 46 35 19 19 40
35 47 35 7 0 40 14 73 31 46 23 75 31 124 32 56 2 68 -1 90 -22 17 -16 26 -35
26 -56 0 -18 -10 -44 -21 -59 -15 -20 -25 -24 -32 -17 -6 6 -15 11 -20 11 -5
0 -7 -10 -4 -22 4 -14 -1 -31 -11 -43 -9 -11 -34 -33 -54 -49 -21 -15 -35 -32
-32 -37 3 -5 14 -9 26 -9 11 0 33 10 50 23 17 12 49 40 72 62 22 22 49 51 59
63 10 13 17 39 17 65 -1 30 -8 50 -25 69 -13 15 -39 36 -59 47 -25 14 -52 20
-96 19z"/>
</g>
</svg>
