<?xml version="1.0" standalone="no"?>
<!DOCTYPE svg PUBLIC "-//W3C//DTD SVG 20010904//EN"
 "http://www.w3.org/TR/2001/REC-SVG-20010904/DTD/svg10.dtd">
<svg version="1.0" xmlns="http://www.w3.org/2000/svg"
 width="56.000000pt" height="56.000000pt" viewBox="0 0 56.000000 56.000000"
 preserveAspectRatio="xMidYMid meet">
<metadata>
Created by potrace 1.16, written by Peter Selinger 2001-2019
</metadata>
<g transform="translate(0.000000,56.000000) scale(0.100000,-0.100000)"
fill="#000000" stroke="none">
<path d="M292 540 c-17 0 -37 -11 -55 -29 -15 -17 -58 -56 -95 -88 -37 -32
-84 -76 -104 -98 -21 -21 -38 -49 -38 -60 0 -12 5 -26 11 -32 6 -6 19 -9 28
-5 9 3 41 32 72 64 50 52 61 59 95 58 22 -1 48 1 59 3 11 2 27 7 35 9 8 3 40
10 70 16 49 9 57 8 77 -10 13 -13 25 -40 31 -75 6 -37 6 -67 -1 -92 -6 -20
-33 -64 -60 -98 -27 -34 -56 -64 -64 -67 -8 -3 -11 -10 -8 -16 3 -5 21 -10 40
-10 28 0 41 9 80 53 25 28 53 69 62 90 9 20 20 37 25 37 4 0 8 27 8 60 0 33
-4 60 -9 60 -5 0 -12 9 -16 20 -3 10 -29 42 -58 70 -41 40 -58 50 -84 50 -19
0 -56 -11 -83 -25 -27 -14 -63 -25 -80 -25 -27 0 -30 2 -20 19 5 11 35 39 64
62 30 24 53 46 50 51 -3 4 -17 8 -32 8z"/>
</g>
</svg>
