<?xml version="1.0" standalone="no"?>
<!DOCTYPE svg PUBLIC "-//W3C//DTD SVG 20010904//EN"
 "http://www.w3.org/TR/2001/REC-SVG-20010904/DTD/svg10.dtd">
<svg version="1.0" xmlns="http://www.w3.org/2000/svg"
 width="56.000000pt" height="56.000000pt" viewBox="0 0 56.000000 56.000000"
 preserveAspectRatio="xMidYMid meet">
<metadata>
Created by potrace 1.16, written by Peter Selinger 2001-2019
</metadata>
<g transform="translate(0.000000,56.000000) scale(0.100000,-0.100000)"
fill="#000000" stroke="none">
<path d="M200 500 c-10 0 -51 -30 -91 -67 -39 -38 -80 -76 -91 -86 -14 -14
-16 -22 -8 -37 6 -11 15 -20 21 -20 6 0 29 15 52 34 23 19 56 38 72 42 17 4
35 10 40 14 6 4 44 20 85 35 41 15 85 29 98 32 12 3 28 0 36 -6 8 -7 23 -31
34 -54 11 -24 23 -64 27 -89 5 -35 2 -56 -13 -90 -10 -25 -35 -59 -53 -76 -19
-18 -38 -32 -42 -32 -5 0 -15 -6 -23 -14 -8 -8 -14 -19 -14 -25 0 -6 7 -11 15
-11 8 0 15 5 15 10 0 6 9 10 20 10 11 0 51 20 90 45 70 45 70 45 71 97 1 29 0
66 -1 82 -1 16 -8 46 -16 68 -7 22 -23 51 -35 66 -11 15 -33 35 -47 45 -21 13
-38 16 -71 12 -24 -4 -51 -10 -60 -15 -9 -4 -44 -22 -78 -39 -44 -22 -63 -27
-63 -18 0 7 13 26 30 42 16 15 27 32 24 37 -3 4 -14 8 -24 8z"/>
<path d="M4 170 c-2 0 -4 -22 -4 -50 0 -27 2 -50 4 -50 3 0 12 14 20 32 9 17
16 37 16 43 0 7 -7 16 -16 19 -9 3 -18 6 -20 6z"/>
</g>
</svg>
