<?xml version="1.0" standalone="no"?>
<!DOCTYPE svg PUBLIC "-//W3C//DTD SVG 20010904//EN"
 "http://www.w3.org/TR/2001/REC-SVG-20010904/DTD/svg10.dtd">
<svg version="1.0" xmlns="http://www.w3.org/2000/svg"
 width="56.000000pt" height="56.000000pt" viewBox="0 0 56.000000 56.000000"
 preserveAspectRatio="xMidYMid meet">
<metadata>
Created by potrace 1.16, written by Peter Selinger 2001-2019
</metadata>
<g transform="translate(0.000000,56.000000) scale(0.100000,-0.100000)"
fill="#000000" stroke="none">
<path d="M323 559 c-5 0 -18 -5 -30 -11 -13 -6 -42 -36 -65 -67 -23 -31 -72
-92 -109 -136 -37 -44 -79 -90 -93 -102 -14 -13 -26 -27 -26 -33 0 -5 11 -10
24 -10 14 0 35 4 48 9 13 5 34 19 48 31 14 12 40 34 58 48 29 22 38 24 63 15
17 -7 31 -8 35 -2 3 5 32 27 65 49 33 22 64 40 69 40 4 0 22 -13 40 -30 17
-16 35 -44 41 -62 5 -18 9 -45 9 -60 0 -15 -7 -42 -16 -60 -9 -18 -45 -54 -80
-81 -35 -26 -76 -52 -90 -57 -14 -6 -22 -14 -19 -20 3 -5 19 -10 34 -10 15 0
42 7 58 15 17 9 36 22 43 30 7 8 18 15 26 15 7 0 29 15 48 34 24 22 36 42 36
60 0 14 5 26 10 26 6 0 10 25 10 55 0 33 -4 55 -11 55 -6 0 -9 6 -6 13 2 6 -2
26 -11 42 -8 17 -26 42 -40 58 -14 15 -32 27 -39 27 -7 0 -13 5 -13 10 0 6 -8
10 -19 10 -10 0 -24 -7 -31 -15 -7 -8 -38 -31 -70 -50 -32 -19 -64 -35 -73
-35 -8 0 -19 6 -25 13 -9 10 3 31 48 86 33 40 60 79 60 87 0 8 -3 14 -7 13z"/>
</g>
</svg>
