<?xml version="1.0" standalone="no"?>
<!DOCTYPE svg PUBLIC "-//W3C//DTD SVG 20010904//EN"
 "http://www.w3.org/TR/2001/REC-SVG-20010904/DTD/svg10.dtd">
<svg version="1.0" xmlns="http://www.w3.org/2000/svg"
 width="56.000000pt" height="56.000000pt" viewBox="0 0 56.000000 56.000000"
 preserveAspectRatio="xMidYMid meet">
<metadata>
Created by potrace 1.16, written by Peter Selinger 2001-2019
</metadata>
<g transform="translate(0.000000,56.000000) scale(0.100000,-0.100000)"
fill="#000000" stroke="none">
<path d="M341 500 c-35 -1 -56 -8 -86 -30 -22 -16 -43 -29 -47 -30 -4 0 -27
-14 -52 -30 -24 -17 -70 -42 -101 -56 -52 -24 -56 -28 -53 -57 2 -21 9 -33 21
-35 10 -2 44 14 74 35 31 21 77 51 102 66 25 15 64 37 87 47 33 16 47 17 77 9
20 -5 45 -21 57 -36 15 -20 20 -40 20 -91 0 -49 -5 -73 -22 -101 -12 -20 -47
-59 -77 -87 -33 -31 -52 -55 -47 -62 4 -7 19 -12 34 -12 21 0 46 20 109 85 46
47 83 91 83 98 0 8 9 22 20 32 11 10 20 29 20 42 0 12 -4 23 -10 23 -5 0 -14
17 -20 38 -5 21 -26 59 -46 85 -19 25 -49 50 -66 56 -17 6 -52 11 -77 11z"/>
</g>
</svg>
