<?xml version="1.0" standalone="no"?>
<!DOCTYPE svg PUBLIC "-//W3C//DTD SVG 20010904//EN"
 "http://www.w3.org/TR/2001/REC-SVG-20010904/DTD/svg10.dtd">
<svg version="1.0" xmlns="http://www.w3.org/2000/svg"
 width="56.000000pt" height="56.000000pt" viewBox="0 0 56.000000 56.000000"
 preserveAspectRatio="xMidYMid meet">
<metadata>
Created by potrace 1.16, written by Peter Selinger 2001-2019
</metadata>
<g transform="translate(0.000000,56.000000) scale(0.100000,-0.100000)"
fill="#000000" stroke="none">
<path d="M30 515 c-6 3 -13 -2 -17 -12 -4 -10 -8 -43 -8 -73 0 -55 0 -55 50
-67 37 -10 58 -10 85 -1 19 6 44 14 55 18 11 5 43 15 72 24 31 9 75 14 112 12
34 -2 71 -10 85 -20 15 -9 26 -23 26 -30 0 -7 -6 -29 -14 -47 -8 -19 -29 -48
-48 -65 -18 -17 -59 -46 -92 -65 -32 -19 -80 -59 -107 -90 -27 -31 -46 -59
-42 -63 3 -3 16 -6 27 -6 12 0 50 27 86 61 38 36 91 73 127 90 43 20 70 40 87
66 14 21 26 43 26 50 0 7 5 13 10 13 6 0 10 14 10 31 0 24 -11 41 -47 75 -32
30 -55 44 -74 44 -15 0 -31 5 -34 10 -3 6 -20 10 -37 10 -18 0 -48 -5 -67 -11
-20 -6 -44 -15 -53 -20 -10 -5 -29 -9 -42 -9 -14 0 -27 -4 -30 -9 -3 -4 -29
-11 -57 -14 -33 -4 -58 -2 -66 4 -7 7 -13 29 -13 50 0 21 -5 41 -10 44z"/>
</g>
</svg>
