<?xml version="1.0" standalone="no"?>
<!DOCTYPE svg PUBLIC "-//W3C//DTD SVG 20010904//EN"
 "http://www.w3.org/TR/2001/REC-SVG-20010904/DTD/svg10.dtd">
<svg version="1.0" xmlns="http://www.w3.org/2000/svg"
 width="56.000000pt" height="56.000000pt" viewBox="0 0 56.000000 56.000000"
 preserveAspectRatio="xMidYMid meet">
<metadata>
Created by potrace 1.16, written by Peter Selinger 2001-2019
</metadata>
<g transform="translate(0.000000,56.000000) scale(0.100000,-0.100000)"
fill="#000000" stroke="none">
<path d="M293 520 c-19 0 -43 -10 -62 -26 -17 -14 -31 -31 -31 -37 0 -7 -18
-34 -40 -62 -22 -27 -40 -54 -40 -58 0 -5 -14 -20 -31 -34 -17 -15 -42 -44
-55 -64 -13 -21 -24 -47 -24 -58 0 -11 5 -32 12 -46 6 -14 18 -24 26 -23 9 2
23 17 32 33 10 17 26 46 37 65 11 19 30 52 43 73 12 20 26 37 31 37 5 0 27
-11 49 -25 22 -14 48 -25 57 -25 11 0 31 21 51 54 18 30 42 58 53 61 14 5 28
0 44 -15 12 -12 26 -36 30 -53 4 -18 6 -48 5 -67 -1 -19 -10 -51 -21 -72 -10
-20 -29 -46 -40 -57 -12 -11 -36 -27 -54 -35 -18 -9 -38 -22 -45 -31 -10 -12
-9 -16 4 -21 9 -3 31 -3 49 0 19 3 44 17 57 31 13 14 32 25 41 25 13 0 27 19
45 58 15 31 31 59 36 60 4 2 8 21 8 43 0 21 -4 39 -9 39 -5 0 -12 11 -15 24
-3 14 -29 47 -56 75 -32 33 -59 51 -74 51 -13 0 -35 -12 -50 -26 -14 -15 -26
-31 -26 -35 0 -5 -9 -18 -20 -29 -19 -19 -22 -19 -51 -5 -30 16 -30 16 15 70
25 29 46 58 46 63 0 5 8 13 17 16 15 6 15 8 3 16 -8 6 -29 10 -47 10z"/>
<path d="M550 500 c-5 0 -10 -7 -10 -15 0 -8 5 -15 10 -15 6 0 10 7 10 15 0 8
-4 15 -10 15z"/>
</g>
</svg>
