<?xml version="1.0" standalone="no"?>
<!DOCTYPE svg PUBLIC "-//W3C//DTD SVG 20010904//EN"
 "http://www.w3.org/TR/2001/REC-SVG-20010904/DTD/svg10.dtd">
<svg version="1.0" xmlns="http://www.w3.org/2000/svg"
 width="56.000000pt" height="56.000000pt" viewBox="0 0 56.000000 56.000000"
 preserveAspectRatio="xMidYMid meet">
<metadata>
Created by potrace 1.16, written by Peter Selinger 2001-2019
</metadata>
<g transform="translate(0.000000,56.000000) scale(0.100000,-0.100000)"
fill="#000000" stroke="none">
<path d="M359 514 c-31 5 -39 1 -68 -29 -17 -19 -55 -54 -84 -78 -29 -24 -68
-51 -89 -60 -20 -9 -44 -17 -55 -17 -10 0 -28 -3 -40 -6 -13 -4 -23 -14 -23
-23 0 -9 20 -33 44 -54 25 -20 52 -37 60 -37 8 0 20 9 26 20 6 12 43 55 83 97
40 42 86 92 104 110 18 18 38 33 45 33 8 0 31 -14 52 -32 38 -31 38 -31 31
-86 -4 -30 -15 -73 -25 -96 -10 -23 -28 -49 -41 -58 -13 -8 -41 -31 -61 -49
-21 -19 -55 -47 -77 -64 -22 -16 -40 -36 -41 -42 0 -7 12 -13 26 -13 16 0 54
21 98 54 39 29 97 81 129 114 56 60 57 61 57 120 0 32 -5 74 -11 93 -7 19 -18
42 -26 51 -8 9 -29 23 -46 31 -18 9 -48 18 -68 21z"/>
<path d="M545 60 c-8 0 -15 -7 -15 -15 0 -8 7 -15 15 -15 8 0 15 7 15 15 0 8
-7 15 -15 15z"/>
</g>
</svg>
