<?xml version="1.0" standalone="no"?>
<!DOCTYPE svg PUBLIC "-//W3C//DTD SVG 20010904//EN"
 "http://www.w3.org/TR/2001/REC-SVG-20010904/DTD/svg10.dtd">
<svg version="1.0" xmlns="http://www.w3.org/2000/svg"
 width="56.000000pt" height="56.000000pt" viewBox="0 0 56.000000 56.000000"
 preserveAspectRatio="xMidYMid meet">
<metadata>
Created by potrace 1.16, written by Peter Selinger 2001-2019
</metadata>
<g transform="translate(0.000000,56.000000) scale(0.100000,-0.100000)"
fill="#000000" stroke="none">
<path d="M323 560 c-9 0 -13 -14 -13 -41 0 -39 -2 -41 -25 -37 -22 5 -25 2
-19 -16 3 -11 14 -27 25 -35 10 -7 19 -19 19 -25 0 -7 -18 -30 -40 -51 -22
-21 -40 -47 -40 -57 0 -11 7 -18 18 -18 9 0 32 4 50 10 30 8 33 7 27 -8 -4 -9
-10 -26 -13 -37 -2 -11 -9 -25 -13 -31 -5 -6 -4 -26 1 -46 8 -29 19 -40 56
-57 45 -22 45 -22 10 -59 -20 -20 -36 -40 -36 -44 0 -4 10 -8 23 -8 12 0 43
20 70 44 26 24 47 48 47 53 0 6 -8 17 -17 25 -10 8 -30 18 -45 22 -15 3 -34
13 -42 22 -9 8 -16 26 -16 39 0 13 5 36 10 50 6 15 28 45 50 66 22 22 40 44
40 50 0 5 -6 12 -14 15 -7 3 -30 -2 -50 -10 -30 -12 -36 -13 -36 -1 0 7 4 25
10 40 5 14 21 30 36 35 22 9 24 13 14 25 -7 8 -19 15 -26 15 -8 0 -22 16 -31
35 -9 19 -23 35 -30 35z"/>
<path d="M124 520 c-11 0 -14 -18 -15 -72 -1 -40 -3 -82 -5 -93 -1 -11 -8 -84
-15 -162 -12 -130 -12 -144 4 -161 9 -10 14 -22 10 -25 -3 -4 3 -7 14 -7 13 0
25 10 32 28 7 18 9 46 4 81 -5 30 -5 122 0 205 5 106 4 159 -4 179 -6 15 -18
27 -25 27z"/>
</g>
</svg>
