<?xml version="1.0" standalone="no"?>
<!DOCTYPE svg PUBLIC "-//W3C//DTD SVG 20010904//EN"
 "http://www.w3.org/TR/2001/REC-SVG-20010904/DTD/svg10.dtd">
<svg version="1.0" xmlns="http://www.w3.org/2000/svg"
 width="56.000000pt" height="56.000000pt" viewBox="0 0 56.000000 56.000000"
 preserveAspectRatio="xMidYMid meet">
<metadata>
Created by potrace 1.16, written by Peter Selinger 2001-2019
</metadata>
<g transform="translate(0.000000,56.000000) scale(0.100000,-0.100000)"
fill="#000000" stroke="none">
<path d="M116 560 c-3 0 -6 -7 -6 -16 0 -9 9 -29 21 -45 21 -30 21 -30 -15
-134 -19 -57 -38 -131 -41 -166 -4 -52 -1 -70 20 -114 13 -28 31 -57 39 -65 9
-7 23 -10 31 -6 11 4 15 21 15 65 0 33 5 95 11 138 6 43 19 102 30 132 10 30
21 56 24 59 3 3 16 0 30 -6 14 -6 25 -19 25 -29 0 -10 -7 -36 -16 -60 -9 -23
-14 -50 -10 -59 5 -12 13 -14 32 -10 23 6 26 4 20 -11 -4 -10 -10 -30 -13 -44
-4 -21 2 -32 32 -56 36 -30 36 -30 12 -59 -14 -16 -37 -36 -51 -43 -14 -8 -26
-18 -26 -23 0 -4 14 -8 30 -8 17 0 45 7 63 17 18 9 49 30 69 47 27 22 38 39
38 59 0 20 -7 30 -26 37 -14 6 -35 10 -47 10 -12 0 -29 4 -37 10 -12 8 -12 13
3 44 10 23 30 42 54 53 24 12 38 25 38 37 0 10 -10 25 -22 33 -20 14 -24 13
-48 -11 -14 -14 -30 -26 -35 -26 -6 0 -10 8 -10 18 0 9 3 27 6 40 4 12 14 22
24 22 9 0 31 7 48 16 18 8 32 22 32 30 0 7 -11 16 -25 20 -14 3 -32 1 -39 -5
-12 -10 -15 -8 -18 11 -2 12 -13 27 -25 33 -12 6 -38 9 -58 7 -34 -4 -38 -9
-70 -76 -18 -39 -43 -100 -54 -136 -12 -36 -21 -79 -21 -96 0 -17 -7 -37 -16
-45 -14 -11 -15 -6 -9 52 4 35 18 98 31 139 14 41 29 83 34 92 6 10 10 28 10
41 0 15 -14 35 -39 55 -22 18 -42 32 -45 32z m189 -102 c16 -7 22 -15 16 -21
-5 -5 -17 -7 -25 -4 -9 4 -16 13 -16 21 0 13 4 14 25 4z"/>
</g>
</svg>
