<?xml version="1.0" standalone="no"?>
<!DOCTYPE svg PUBLIC "-//W3C//DTD SVG 20010904//EN"
 "http://www.w3.org/TR/2001/REC-SVG-20010904/DTD/svg10.dtd">
<svg version="1.0" xmlns="http://www.w3.org/2000/svg"
 width="56.000000pt" height="56.000000pt" viewBox="0 0 56.000000 56.000000"
 preserveAspectRatio="xMidYMid meet">
<metadata>
Created by potrace 1.16, written by Peter Selinger 2001-2019
</metadata>
<g transform="translate(0.000000,56.000000) scale(0.100000,-0.100000)"
fill="#000000" stroke="none">
<path d="M240 477 c-15 1 -34 -8 -47 -21 -13 -13 -23 -28 -23 -35 0 -8 11 -10
38 -5 20 3 40 9 44 13 3 3 8 15 10 26 2 15 -3 20 -22 22z"/>
<path d="M153 411 c-7 7 -13 7 -17 1 -3 -6 -1 -14 5 -17 5 -4 13 -4 16 -1 4 4
2 11 -4 17z"/>
<path d="M472 362 c-6 6 -12 6 -17 -2 -4 -6 -3 -16 3 -22 6 -6 12 -6 17 2 4 6
3 16 -3 22z"/>
<path d="M268 360 c-8 0 -19 -5 -26 -12 -7 -7 -21 -13 -32 -13 -11 0 -20 -4
-21 -10 0 -5 7 -14 15 -20 12 -7 24 -6 44 5 15 9 28 23 30 33 2 9 -3 17 -10
17z"/>
<path d="M120 340 c-21 0 -41 -4 -45 -9 -3 -5 0 -13 7 -18 8 -5 -4 -10 -32
-13 -45 -5 -45 -5 -48 -67 -2 -48 0 -63 11 -63 7 0 25 6 40 13 15 6 27 17 27
24 0 6 -9 15 -20 18 -11 3 -20 10 -20 15 0 5 5 12 12 16 6 4 17 -1 24 -10 12
-17 13 -17 22 1 5 10 7 24 4 32 -3 11 2 12 22 7 22 -5 28 -2 35 16 5 13 7 26
4 31 -2 4 -22 7 -43 7z"/>
<path d="M528 340 c-7 0 -22 -7 -32 -15 -15 -12 -17 -17 -7 -29 10 -12 10 -28
-3 -79 -9 -35 -16 -75 -16 -90 0 -15 4 -27 8 -27 5 0 16 8 24 18 9 9 21 34 29
55 7 20 17 37 21 37 4 0 8 23 8 50 0 28 -4 50 -10 50 -5 0 -10 7 -10 15 0 8
-6 15 -12 15z"/>
</g>
</svg>
