<?xml version="1.0" standalone="no"?>
<!DOCTYPE svg PUBLIC "-//W3C//DTD SVG 20010904//EN"
 "http://www.w3.org/TR/2001/REC-SVG-20010904/DTD/svg10.dtd">
<svg version="1.0" xmlns="http://www.w3.org/2000/svg"
 width="56.000000pt" height="56.000000pt" viewBox="0 0 56.000000 56.000000"
 preserveAspectRatio="xMidYMid meet">
<metadata>
Created by potrace 1.16, written by Peter Selinger 2001-2019
</metadata>
<g transform="translate(0.000000,56.000000) scale(0.100000,-0.100000)"
fill="#000000" stroke="none">
<path d="M105 560 c-8 0 -15 -7 -15 -15 0 -8 7 -15 15 -15 8 0 15 7 15 15 0 8
-7 15 -15 15z"/>
<path d="M364 540 c-3 0 -11 -13 -17 -30 -9 -23 -17 -30 -39 -30 -26 0 -28 3
-22 26 6 24 5 25 -15 15 -11 -7 -21 -19 -21 -29 0 -9 8 -27 18 -40 16 -20 22
-22 46 -13 15 6 29 11 32 11 2 0 4 -8 4 -17 0 -10 -16 -38 -35 -62 -19 -24
-35 -47 -35 -52 0 -4 5 -11 10 -14 6 -4 25 3 44 14 18 12 36 21 39 21 3 0 9
-21 13 -46 4 -29 2 -60 -6 -84 -10 -31 -10 -45 -1 -69 7 -16 21 -37 32 -47 10
-9 19 -28 19 -41 0 -17 6 -23 23 -23 13 0 32 8 41 19 11 12 15 27 11 43 -3 13
-19 29 -35 36 -16 7 -32 23 -36 35 -4 12 -8 44 -9 72 -1 27 -5 60 -9 71 -5 16
1 31 20 53 14 17 23 38 20 46 -3 8 -12 15 -19 15 -8 0 -22 -9 -32 -20 -10 -11
-21 -17 -25 -15 -5 3 -2 27 5 53 10 41 10 53 -2 75 -7 15 -16 27 -19 27z"/>
<path d="M160 480 c-3 0 -15 -10 -26 -23 -10 -12 -25 -40 -32 -62 -7 -22 -17
-49 -22 -60 -4 -11 -13 -47 -19 -79 -6 -33 -11 -85 -11 -117 0 -32 7 -77 16
-99 11 -27 22 -40 33 -38 8 2 26 21 38 43 12 22 23 54 23 72 0 17 5 35 10 38
6 3 10 19 10 34 0 15 5 32 12 39 9 9 9 15 1 23 -8 8 -14 6 -21 -8 -6 -10 -20
-45 -31 -78 -11 -32 -25 -63 -31 -69 -7 -7 -10 5 -11 34 -1 25 -1 61 0 80 2
19 9 58 16 85 7 28 20 70 30 95 9 25 20 52 25 61 5 9 6 20 3 23 -4 3 -9 6 -13
6z"/>
</g>
</svg>
