<?xml version="1.0" standalone="no"?>
<!DOCTYPE svg PUBLIC "-//W3C//DTD SVG 20010904//EN"
 "http://www.w3.org/TR/2001/REC-SVG-20010904/DTD/svg10.dtd">
<svg version="1.0" xmlns="http://www.w3.org/2000/svg"
 width="56.000000pt" height="56.000000pt" viewBox="0 0 56.000000 56.000000"
 preserveAspectRatio="xMidYMid meet">
<metadata>
Created by potrace 1.16, written by Peter Selinger 2001-2019
</metadata>
<g transform="translate(0.000000,56.000000) scale(0.100000,-0.100000)"
fill="#000000" stroke="none">
<path d="M365 540 c-6 0 -15 -3 -18 -7 -4 -3 -7 -17 -7 -29 0 -13 -5 -26 -12
-30 -7 -4 -23 6 -40 26 -21 26 -31 31 -39 23 -9 -9 -7 -20 8 -45 10 -18 28
-34 39 -36 10 -2 25 -5 31 -7 10 -3 10 -10 2 -27 -5 -13 -28 -36 -50 -51 -21
-16 -43 -26 -48 -23 -4 3 -6 17 -3 32 3 20 1 25 -9 22 -7 -2 -22 -27 -32 -54
-10 -27 -25 -67 -33 -89 -9 -22 -20 -57 -25 -79 -5 -21 -14 -47 -20 -57 -5
-11 -14 -19 -19 -19 -5 0 -14 18 -20 40 -6 21 -8 54 -6 72 3 18 8 47 12 63 4
17 12 37 19 45 7 8 24 38 39 67 14 29 26 59 26 67 0 8 -10 22 -22 30 -12 9
-33 16 -45 16 -13 0 -23 -6 -23 -14 0 -8 5 -18 11 -22 7 -4 8 -20 5 -43 -4
-20 -9 -53 -12 -73 -4 -21 -10 -38 -14 -38 -4 0 -14 -15 -21 -32 -7 -18 -14
-67 -14 -109 0 -66 3 -81 28 -117 19 -29 34 -42 51 -42 16 0 28 10 39 33 8 17
21 64 27 102 7 39 17 86 22 105 6 19 15 46 20 60 10 25 10 25 24 -3 8 -15 19
-27 24 -27 5 0 32 14 60 32 39 24 53 29 59 19 5 -7 -3 -42 -16 -79 -18 -48
-22 -76 -18 -104 4 -23 16 -46 31 -57 14 -11 50 -23 80 -27 44 -5 59 -3 72 9
14 15 14 18 -3 37 -10 11 -30 20 -45 20 -15 0 -40 10 -55 21 -25 20 -26 26
-22 79 2 32 13 73 23 91 11 18 31 36 44 39 15 4 26 14 28 27 3 19 -3 22 -52
28 -31 4 -56 12 -56 17 0 6 11 19 25 30 14 11 25 26 25 34 0 8 -6 14 -13 14
-8 0 -22 9 -32 20 -10 11 -23 20 -30 20z"/>
<path d="M300 140 c-13 7 -21 7 -26 -1 -3 -6 3 -21 15 -32 15 -16 24 -18 32
-10 6 6 8 16 5 22 -4 6 -16 15 -26 21z"/>
<path d="M218 58 c-14 2 -28 -1 -31 -5 -3 -4 3 -19 14 -31 12 -16 27 -22 43
-20 24 3 25 5 13 28 -8 15 -23 26 -39 28z"/>
</g>
</svg>
