<?xml version="1.0" standalone="no"?>
<!DOCTYPE svg PUBLIC "-//W3C//DTD SVG 20010904//EN"
 "http://www.w3.org/TR/2001/REC-SVG-20010904/DTD/svg10.dtd">
<svg version="1.0" xmlns="http://www.w3.org/2000/svg"
 width="56.000000pt" height="56.000000pt" viewBox="0 0 56.000000 56.000000"
 preserveAspectRatio="xMidYMid meet">
<metadata>
Created by potrace 1.16, written by Peter Selinger 2001-2019
</metadata>
<g transform="translate(0.000000,56.000000) scale(0.100000,-0.100000)"
fill="#000000" stroke="none">
<path d="M408 559 c-13 0 -30 -8 -38 -17 -9 -9 -21 -28 -28 -42 -7 -14 -20
-34 -28 -45 -13 -17 -17 -18 -36 -6 -20 12 -25 10 -55 -23 -19 -20 -33 -46
-33 -60 0 -14 -4 -28 -10 -31 -5 -3 -17 -31 -26 -61 -9 -32 -21 -54 -27 -51
-7 2 -13 18 -15 36 -2 20 8 56 27 96 18 40 30 80 29 105 0 38 -2 41 -27 38
-23 -3 -27 -8 -32 -55 -4 -28 -19 -76 -35 -107 -27 -54 -28 -57 -13 -98 10
-27 28 -52 48 -65 25 -17 38 -20 51 -13 10 5 23 25 28 42 6 18 21 68 33 111
20 64 27 77 44 77 12 0 27 -6 34 -12 10 -11 17 -7 37 17 13 17 24 40 24 53 0
13 5 32 10 43 6 10 17 19 25 19 8 0 20 -10 27 -22 10 -17 13 -83 12 -256 -1
-230 -1 -233 19 -230 13 2 24 14 29 33 5 17 10 116 11 220 2 139 -2 200 -12
229 -7 21 -22 47 -32 57 -11 11 -29 19 -41 18z"/>
<path d="M311 105 c-18 1 -36 -5 -38 -12 -3 -7 -17 -13 -32 -13 -15 0 -36 -6
-47 -14 -19 -14 -19 -15 3 -35 12 -12 27 -21 34 -21 6 0 22 11 35 25 13 14 28
25 34 25 5 0 10 -11 10 -25 0 -18 5 -25 19 -25 16 0 18 7 17 48 -1 46 -2 47
-35 47z"/>
</g>
</svg>
