<?xml version="1.0" standalone="no"?>
<!DOCTYPE svg PUBLIC "-//W3C//DTD SVG 20010904//EN"
 "http://www.w3.org/TR/2001/REC-SVG-20010904/DTD/svg10.dtd">
<svg version="1.0" xmlns="http://www.w3.org/2000/svg"
 width="56.000000pt" height="56.000000pt" viewBox="0 0 56.000000 56.000000"
 preserveAspectRatio="xMidYMid meet">
<metadata>
Created by potrace 1.16, written by Peter Selinger 2001-2019
</metadata>
<g transform="translate(0.000000,56.000000) scale(0.100000,-0.100000)"
fill="#000000" stroke="none">
<path d="M313 560 c-23 0 -31 -8 -47 -43 -11 -23 -37 -69 -59 -102 -23 -33
-60 -84 -84 -113 -23 -29 -47 -71 -53 -92 -6 -21 -8 -57 -4 -79 4 -28 13 -42
26 -47 10 -3 30 2 44 11 14 9 34 37 45 61 10 25 19 53 19 63 0 9 5 22 11 28 6
6 8 16 4 22 -3 6 -10 9 -14 7 -4 -3 -20 -30 -35 -60 -16 -31 -35 -56 -43 -56
-13 0 -14 8 -9 43 5 29 18 54 44 82 21 22 52 59 70 82 17 23 37 54 44 70 7 15
25 47 40 70 15 23 28 44 28 47 0 3 -12 6 -27 6z"/>
<path d="M451 444 c-27 15 -30 14 -55 -11 -14 -14 -23 -30 -20 -35 4 -6 10 -6
17 1 6 6 17 11 24 11 10 0 13 -44 13 -206 0 -205 0 -205 22 -202 14 2 25 12
29 28 3 14 4 104 2 200 -2 96 -3 181 -3 187 0 7 -13 19 -29 27z"/>
<path d="M323 360 c-7 0 -13 -6 -13 -14 0 -8 5 -18 10 -21 6 -3 10 -14 10 -24
0 -10 9 -26 20 -36 15 -14 23 -16 32 -7 8 8 3 23 -18 56 -16 25 -35 46 -41 46z"/>
<path d="M269 120 c-4 0 -14 -6 -21 -13 -9 -9 -12 -30 -10 -60 4 -42 7 -47 27
-47 20 0 25 6 31 45 4 30 2 50 -6 60 -7 8 -16 15 -21 15z"/>
</g>
</svg>
