<?xml version="1.0" standalone="no"?>
<!DOCTYPE svg PUBLIC "-//W3C//DTD SVG 20010904//EN"
 "http://www.w3.org/TR/2001/REC-SVG-20010904/DTD/svg10.dtd">
<svg version="1.0" xmlns="http://www.w3.org/2000/svg"
 width="56.000000pt" height="56.000000pt" viewBox="0 0 56.000000 56.000000"
 preserveAspectRatio="xMidYMid meet">
<metadata>
Created by potrace 1.16, written by Peter Selinger 2001-2019
</metadata>
<g transform="translate(0.000000,56.000000) scale(0.100000,-0.100000)"
fill="#000000" stroke="none">
<path d="M308 559 c-15 -1 -47 -26 -86 -68 -35 -37 -73 -85 -86 -107 -12 -21
-28 -60 -35 -86 -12 -43 -12 -51 8 -93 11 -24 21 -56 21 -70 0 -14 6 -25 13
-25 7 0 31 19 52 43 22 23 46 52 53 64 6 13 12 32 12 42 0 11 4 22 9 25 4 3
11 24 15 47 6 40 7 41 40 35 33 -6 33 -6 47 51 14 58 14 58 20 -132 4 -104 5
-192 2 -195 -3 -3 -26 19 -52 49 -33 37 -53 52 -66 50 -14 -3 -21 -14 -23 -36
-2 -23 5 -40 27 -66 17 -19 31 -37 31 -40 0 -2 -17 -13 -37 -23 -38 -19 -38
-19 -9 -22 15 -2 39 -1 53 3 15 3 28 17 35 37 11 31 11 31 44 -8 29 -35 34
-38 48 -24 14 14 15 31 6 135 -5 66 -10 176 -10 245 -1 107 -3 128 -19 148
-11 12 -24 22 -29 22 -6 0 -17 -19 -26 -42 -8 -24 -17 -56 -18 -73 -3 -25 -7
-30 -31 -31 -15 -1 -32 -5 -36 -10 -4 -5 -13 -25 -20 -44 -7 -19 -17 -44 -21
-55 -4 -11 -13 -34 -20 -52 -6 -17 -20 -39 -30 -48 -17 -16 -19 -15 -28 2 -5
10 -13 35 -16 57 -5 24 -3 51 5 70 7 17 50 70 96 117 45 48 83 92 83 98 0 6
-10 11 -22 10z"/>
</g>
</svg>
