<?xml version="1.0" standalone="no"?>
<!DOCTYPE svg PUBLIC "-//W3C//DTD SVG 20010904//EN"
 "http://www.w3.org/TR/2001/REC-SVG-20010904/DTD/svg10.dtd">
<svg version="1.0" xmlns="http://www.w3.org/2000/svg"
 width="56.000000pt" height="56.000000pt" viewBox="0 0 56.000000 56.000000"
 preserveAspectRatio="xMidYMid meet">
<metadata>
Created by potrace 1.16, written by Peter Selinger 2001-2019
</metadata>
<g transform="translate(0.000000,56.000000) scale(0.100000,-0.100000)"
fill="#000000" stroke="none">
<path d="M421 440 c-9 0 -21 -4 -27 -10 -5 -5 -43 -10 -84 -12 -58 -2 -75 -6
-75 -18 0 -8 16 -23 35 -32 19 -9 46 -17 58 -18 13 0 37 9 52 20 15 11 38 21
51 22 16 2 27 -5 36 -22 7 -14 13 -43 13 -65 0 -22 -3 -50 -6 -62 -4 -13 -19
-27 -38 -33 -17 -6 -50 -28 -73 -49 -23 -21 -40 -41 -36 -45 3 -3 19 -6 35 -6
20 0 41 12 66 35 20 19 41 35 45 35 5 0 26 18 48 40 32 33 39 46 39 80 0 22
-4 40 -9 40 -6 0 -20 18 -32 40 -16 28 -29 40 -45 40 -13 0 -26 5 -29 10 -3 6
-14 10 -24 10z"/>
<path d="M18 423 c-12 4 -18 1 -18 -8 0 -8 13 -29 29 -47 16 -18 39 -53 51
-76 13 -24 29 -46 37 -49 7 -3 20 0 28 7 8 7 15 23 15 37 0 13 5 33 11 45 6
11 8 23 4 26 -3 3 -15 0 -27 -7 -11 -7 -23 -9 -27 -4 -3 5 -22 20 -41 33 -19
13 -37 27 -40 30 -3 4 -13 9 -22 13z"/>
</g>
</svg>
