<?xml version="1.0" standalone="no"?>
<!DOCTYPE svg PUBLIC "-//W3C//DTD SVG 20010904//EN"
 "http://www.w3.org/TR/2001/REC-SVG-20010904/DTD/svg10.dtd">
<svg version="1.0" xmlns="http://www.w3.org/2000/svg"
 width="56.000000pt" height="56.000000pt" viewBox="0 0 56.000000 56.000000"
 preserveAspectRatio="xMidYMid meet">
<metadata>
Created by potrace 1.16, written by Peter Selinger 2001-2019
</metadata>
<g transform="translate(0.000000,56.000000) scale(0.100000,-0.100000)"
fill="#000000" stroke="none">
<path d="M227 560 c-17 0 -29 -12 -49 -52 -15 -29 -36 -74 -47 -100 -12 -26
-21 -54 -21 -61 0 -7 -4 -17 -8 -22 -5 -6 -14 -41 -21 -78 -9 -53 -9 -81 1
-127 6 -33 22 -72 33 -86 14 -18 27 -25 38 -21 9 3 18 16 21 29 2 13 10 54 16
91 9 50 9 72 1 80 -8 8 -14 1 -24 -24 -8 -19 -17 -42 -20 -52 -4 -9 -11 -17
-16 -17 -6 0 -9 14 -6 33 2 17 7 64 11 102 6 57 17 90 61 176 29 58 53 111 53
118 0 6 -10 11 -23 11z"/>
<path d="M405 524 c-12 3 -30 -1 -42 -9 -12 -8 -31 -31 -43 -51 -13 -19 -33
-40 -46 -44 -13 -5 -24 -18 -24 -28 0 -10 5 -23 12 -30 7 -7 18 -12 25 -12 7
0 26 26 41 58 15 31 34 58 44 60 10 2 19 -6 24 -20 4 -13 8 -113 10 -223 1
-110 2 -206 3 -212 0 -7 7 -13 15 -13 7 0 18 6 24 13 6 7 13 94 17 208 5 170
4 202 -11 240 -9 24 -20 47 -23 50 -3 4 -15 9 -26 13z"/>
</g>
</svg>
