<?xml version="1.0" standalone="no"?>
<!DOCTYPE svg PUBLIC "-//W3C//DTD SVG 20010904//EN"
 "http://www.w3.org/TR/2001/REC-SVG-20010904/DTD/svg10.dtd">
<svg version="1.0" xmlns="http://www.w3.org/2000/svg"
 width="56.000000pt" height="56.000000pt" viewBox="0 0 56.000000 56.000000"
 preserveAspectRatio="xMidYMid meet">
<metadata>
Created by potrace 1.16, written by Peter Selinger 2001-2019
</metadata>
<g transform="translate(0.000000,56.000000) scale(0.100000,-0.100000)"
fill="#000000" stroke="none">
<path d="M301 560 c-17 0 -31 -4 -31 -10 0 -5 -20 -36 -44 -67 -25 -32 -64
-76 -88 -98 -24 -22 -62 -55 -84 -73 -35 -26 -43 -39 -46 -73 -4 -40 -4 -40
37 -33 24 4 62 23 95 48 30 23 92 59 137 80 76 35 85 37 118 26 19 -6 40 -21
46 -33 7 -11 13 -46 14 -76 1 -31 -5 -68 -12 -84 -8 -15 -26 -33 -41 -40 -15
-6 -47 -24 -71 -39 -25 -16 -55 -28 -67 -28 -13 0 -26 -5 -30 -11 -3 -6 -23
-18 -43 -28 -36 -16 -36 -16 12 -19 32 -2 57 2 73 12 13 9 30 16 37 16 8 0 22
9 32 20 10 11 23 20 29 20 5 0 28 12 50 27 23 16 43 32 45 36 2 5 16 20 31 34
16 14 31 36 34 49 4 13 11 24 16 24 6 0 10 11 10 25 0 14 -4 25 -9 25 -5 0
-21 20 -35 44 -14 24 -40 56 -58 71 -28 23 -37 26 -72 20 -23 -4 -58 -8 -79
-10 -20 -1 -40 1 -42 6 -3 4 -1 10 5 14 6 3 19 23 29 43 10 20 22 47 25 60 7
19 4 22 -23 22z m-66 -166 c8 -3 15 -10 15 -15 0 -5 -7 -12 -15 -16 -9 -3 -18
-3 -22 0 -3 4 -3 13 0 21 4 9 13 13 22 10z"/>
</g>
</svg>
