<?xml version="1.0" standalone="no"?>
<!DOCTYPE svg PUBLIC "-//W3C//DTD SVG 20010904//EN"
 "http://www.w3.org/TR/2001/REC-SVG-20010904/DTD/svg10.dtd">
<svg version="1.0" xmlns="http://www.w3.org/2000/svg"
 width="56.000000pt" height="56.000000pt" viewBox="0 0 56.000000 56.000000"
 preserveAspectRatio="xMidYMid meet">
<metadata>
Created by potrace 1.16, written by Peter Selinger 2001-2019
</metadata>
<g transform="translate(0.000000,56.000000) scale(0.100000,-0.100000)"
fill="#000000" stroke="none">
<path d="M202 520 c-37 0 -39 -2 -67 -62 -15 -35 -38 -85 -50 -113 -12 -27
-29 -68 -38 -90 -8 -22 -22 -59 -31 -83 -9 -23 -16 -51 -16 -62 0 -13 7 -20
19 -20 11 0 28 11 39 25 11 13 29 55 40 92 11 37 23 80 26 94 3 15 14 37 25
50 19 23 20 23 26 4 3 -11 14 -36 24 -55 11 -19 26 -36 35 -38 9 -2 26 7 38
20 13 13 44 41 69 61 25 20 53 37 61 37 9 0 26 -8 39 -19 18 -15 23 -28 22
-60 -1 -29 -13 -58 -39 -96 -20 -31 -59 -76 -87 -100 -29 -25 -55 -45 -59 -45
-5 0 -8 -10 -8 -21 0 -18 4 -21 29 -16 16 4 54 22 84 41 30 20 69 52 86 73 18
21 41 64 53 95 11 32 25 58 29 58 5 0 9 6 9 14 0 8 -3 16 -7 18 -5 2 -16 19
-26 39 -11 20 -30 42 -43 48 -14 6 -46 11 -71 11 -32 0 -53 -6 -67 -19 -12
-10 -36 -21 -53 -24 -27 -5 -37 -2 -58 21 -14 15 -25 34 -25 42 0 9 7 25 15
36 8 10 15 25 15 32 0 7 -14 12 -38 12z"/>
</g>
</svg>
