<?xml version="1.0" standalone="no"?>
<!DOCTYPE svg PUBLIC "-//W3C//DTD SVG 20010904//EN"
 "http://www.w3.org/TR/2001/REC-SVG-20010904/DTD/svg10.dtd">
<svg version="1.0" xmlns="http://www.w3.org/2000/svg"
 width="56.000000pt" height="56.000000pt" viewBox="0 0 56.000000 56.000000"
 preserveAspectRatio="xMidYMid meet">
<metadata>
Created by potrace 1.16, written by Peter Selinger 2001-2019
</metadata>
<g transform="translate(0.000000,56.000000) scale(0.100000,-0.100000)"
fill="#000000" stroke="none">
<path d="M265 558 c-3 3 -5 0 -5 -6 0 -7 -6 -12 -13 -12 -7 0 -27 -15 -45 -33
-18 -18 -32 -36 -32 -40 0 -4 -31 -48 -70 -98 -51 -68 -70 -101 -75 -132 -3
-23 -4 -62 -1 -86 2 -25 13 -52 24 -63 18 -19 19 -18 45 21 15 22 27 44 27 49
0 5 9 17 20 27 11 10 22 27 26 39 4 11 24 44 46 73 21 29 43 53 48 53 6 0 10
-6 10 -12 0 -7 9 -24 19 -38 16 -20 21 -22 35 -11 9 7 16 22 16 32 0 11 6 19
14 19 7 0 30 25 50 56 21 31 41 52 46 48 5 -5 13 -44 19 -87 6 -43 11 -111 11
-152 0 -55 -4 -78 -17 -94 -10 -11 -44 -37 -77 -56 -32 -19 -64 -35 -72 -35
-7 0 -16 -4 -19 -10 -4 -6 9 -10 31 -10 20 0 59 12 88 27 28 15 65 38 83 51
17 13 33 28 36 35 2 7 0 39 -5 72 -4 33 -8 99 -8 147 0 79 -2 92 -26 128 -15
22 -35 40 -44 40 -10 0 -30 -16 -44 -35 -15 -20 -36 -56 -47 -80 -11 -25 -24
-45 -29 -45 -5 0 -16 13 -24 29 -9 16 -23 31 -31 35 -9 3 -22 6 -28 6 -7 0
-18 -12 -24 -27 -7 -15 -13 -31 -13 -36 0 -5 -13 -26 -30 -47 -16 -21 -30 -43
-30 -49 0 -6 -4 -11 -10 -11 -5 0 -10 -6 -10 -13 0 -8 -8 -21 -18 -30 -10 -10
-26 -17 -35 -17 -9 0 -17 7 -17 15 0 8 9 37 21 63 12 26 26 57 32 70 6 12 14
22 19 22 4 0 8 6 8 13 0 8 25 42 56 78 31 35 60 75 65 88 5 13 7 26 4 29z"/>
</g>
</svg>
