<?xml version="1.0" standalone="no"?>
<!DOCTYPE svg PUBLIC "-//W3C//DTD SVG 20010904//EN"
 "http://www.w3.org/TR/2001/REC-SVG-20010904/DTD/svg10.dtd">
<svg version="1.0" xmlns="http://www.w3.org/2000/svg"
 width="56.000000pt" height="56.000000pt" viewBox="0 0 56.000000 56.000000"
 preserveAspectRatio="xMidYMid meet">
<metadata>
Created by potrace 1.16, written by Peter Selinger 2001-2019
</metadata>
<g transform="translate(0.000000,56.000000) scale(0.100000,-0.100000)"
fill="#000000" stroke="none">
<path d="M312 530 c-21 0 -45 -6 -53 -12 -9 -7 -44 -47 -80 -88 -36 -41 -83
-100 -105 -130 -23 -30 -49 -71 -58 -90 -12 -24 -15 -47 -10 -77 3 -24 10 -45
14 -48 4 -3 19 4 33 15 15 12 28 35 32 58 3 20 19 55 34 77 15 22 36 41 47 43
15 2 31 -10 55 -42 21 -28 42 -45 54 -45 13 0 33 19 55 50 19 27 45 52 58 55
12 4 29 0 38 -7 8 -7 22 -25 30 -40 8 -16 14 -37 14 -48 0 -11 -23 -39 -52
-66 -29 -25 -70 -56 -90 -67 -21 -12 -38 -28 -38 -36 0 -12 11 -13 56 -8 45 5
67 15 110 49 30 23 61 56 69 74 9 18 20 33 25 33 6 0 10 20 10 44 0 35 -6 50
-29 75 -16 17 -54 41 -85 53 -54 20 -59 20 -92 5 -19 -9 -43 -31 -53 -48 -19
-31 -19 -31 -35 -8 -9 13 -16 28 -16 33 0 5 -7 17 -16 27 -15 17 -12 22 50 85
36 36 66 70 66 75 0 5 -17 9 -38 9z"/>
</g>
</svg>
