<?xml version="1.0" standalone="no"?>
<!DOCTYPE svg PUBLIC "-//W3C//DTD SVG 20010904//EN"
 "http://www.w3.org/TR/2001/REC-SVG-20010904/DTD/svg10.dtd">
<svg version="1.0" xmlns="http://www.w3.org/2000/svg"
 width="56.000000pt" height="56.000000pt" viewBox="0 0 56.000000 56.000000"
 preserveAspectRatio="xMidYMid meet">
<metadata>
Created by potrace 1.16, written by Peter Selinger 2001-2019
</metadata>
<g transform="translate(0.000000,56.000000) scale(0.100000,-0.100000)"
fill="#000000" stroke="none">
<path d="M276 520 c-31 0 -37 -5 -65 -54 -17 -30 -63 -87 -103 -125 -39 -39
-74 -71 -78 -71 -3 0 -11 -15 -18 -34 -9 -24 -9 -41 -2 -60 5 -14 16 -26 24
-26 8 0 23 13 33 30 9 17 20 30 23 30 3 0 58 52 124 115 65 63 127 117 138
121 11 3 32 1 46 -5 16 -7 39 -32 55 -60 17 -32 27 -64 27 -91 0 -38 -5 -47
-74 -113 -40 -40 -95 -84 -122 -98 -26 -14 -50 -31 -52 -37 -2 -7 5 -12 15
-12 10 0 37 6 61 13 24 7 76 39 116 71 51 39 81 72 97 104 13 26 27 49 32 50
4 2 7 17 7 33 0 16 -4 29 -10 29 -5 0 -10 8 -10 18 0 9 -18 43 -41 75 -31 44
-47 57 -67 58 -15 1 -40 0 -57 0 -16 -1 -40 -7 -52 -13 -13 -6 -26 -8 -30 -5
-4 4 -1 13 5 19 7 7 12 18 12 25 0 8 -13 13 -34 13z"/>
</g>
</svg>
