<?xml version="1.0" standalone="no"?>
<!DOCTYPE svg PUBLIC "-//W3C//DTD SVG 20010904//EN"
 "http://www.w3.org/TR/2001/REC-SVG-20010904/DTD/svg10.dtd">
<svg version="1.0" xmlns="http://www.w3.org/2000/svg"
 width="56.000000pt" height="56.000000pt" viewBox="0 0 56.000000 56.000000"
 preserveAspectRatio="xMidYMid meet">
<metadata>
Created by potrace 1.16, written by Peter Selinger 2001-2019
</metadata>
<g transform="translate(0.000000,56.000000) scale(0.100000,-0.100000)"
fill="#000000" stroke="none">
<path d="M145 560 c-10 0 -15 -11 -15 -35 0 -19 -4 -44 -10 -55 -5 -11 -14
-29 -20 -40 -5 -11 -14 -28 -19 -37 -5 -10 -17 -38 -27 -62 -14 -33 -19 -71
-19 -145 0 -83 4 -108 21 -141 17 -32 27 -41 52 -43 29 -3 32 0 42 39 8 29 8
45 1 52 -7 7 -16 5 -30 -7 -19 -18 -20 -17 -26 10 -4 16 -8 34 -9 39 -2 6 1
46 6 89 6 58 17 97 43 148 19 38 37 84 41 103 3 19 1 35 -5 39 -6 4 -11 16
-11 27 0 10 -7 19 -15 19z"/>
<path d="M304 500 c-20 21 -20 21 -39 0 -11 -13 -25 -18 -37 -14 -11 3 -18 0
-18 -7 0 -7 14 -24 31 -39 31 -25 32 -28 34 -119 2 -51 7 -97 13 -103 6 -6 15
-7 21 -3 6 3 20 24 32 46 11 22 24 37 28 35 5 -3 10 -32 13 -64 4 -54 8 -64
58 -121 29 -33 59 -61 66 -61 8 0 14 10 14 23 0 12 -12 36 -26 52 -14 17 -37
44 -50 61 -16 20 -24 44 -24 69 0 21 5 67 12 103 11 59 10 66 -6 78 -10 7 -23
11 -30 8 -7 -3 -25 -30 -40 -61 -20 -42 -30 -53 -36 -43 -4 8 -11 34 -15 56
-4 28 -2 49 7 63 11 18 10 24 -8 41z"/>
<path d="M300 60 c-11 0 -23 -7 -25 -15 -3 -8 -7 -22 -10 -30 -3 -11 4 -15 31
-15 29 0 35 3 30 16 -3 9 -6 22 -6 30 0 8 -9 14 -20 14z"/>
</g>
</svg>
