<?xml version="1.0" standalone="no"?>
<!DOCTYPE svg PUBLIC "-//W3C//DTD SVG 20010904//EN"
 "http://www.w3.org/TR/2001/REC-SVG-20010904/DTD/svg10.dtd">
<svg version="1.0" xmlns="http://www.w3.org/2000/svg"
 width="56.000000pt" height="56.000000pt" viewBox="0 0 56.000000 56.000000"
 preserveAspectRatio="xMidYMid meet">
<metadata>
Created by potrace 1.16, written by Peter Selinger 2001-2019
</metadata>
<g transform="translate(0.000000,56.000000) scale(0.100000,-0.100000)"
fill="#000000" stroke="none">
<path d="M221 439 c-9 -1 -62 -49 -119 -107 -60 -61 -101 -111 -98 -119 3 -7
16 -13 29 -13 13 0 28 5 34 11 6 6 20 16 31 23 11 6 44 30 74 53 34 27 75 48
111 57 32 8 83 18 115 21 50 6 60 4 80 -15 17 -16 21 -27 16 -48 -4 -15 -34
-57 -67 -94 -32 -38 -63 -68 -68 -68 -5 0 -9 -7 -9 -15 0 -10 10 -15 29 -15
15 0 40 9 55 21 15 12 44 47 66 80 21 32 39 68 40 81 1 13 2 33 1 45 -1 12
-21 38 -50 62 -50 42 -50 42 -118 30 -37 -6 -83 -20 -101 -30 -18 -10 -38 -19
-44 -19 -6 0 -4 10 5 24 9 13 13 26 10 30 -4 3 -13 5 -22 5z"/>
</g>
</svg>
