<?xml version="1.0" standalone="no"?>
<!DOCTYPE svg PUBLIC "-//W3C//DTD SVG 20010904//EN"
 "http://www.w3.org/TR/2001/REC-SVG-20010904/DTD/svg10.dtd">
<svg version="1.0" xmlns="http://www.w3.org/2000/svg"
 width="128.000000pt" height="128.000000pt" viewBox="0 0 128.000000 128.000000"
 preserveAspectRatio="xMidYMid meet">
<metadata>
Created by potrace 1.16, written by Peter Selinger 2001-2019
</metadata>
<g transform="translate(0.000000,128.000000) scale(0.100000,-0.100000)"
fill="#000000" stroke="none">
<path d="M800 1260 c-20 0 -40 -3 -43 -7 -4 -3 -7 -17 -7 -30 0 -16 -22 -45
-69 -91 -37 -37 -97 -90 -132 -118 -35 -28 -78 -58 -95 -67 -17 -9 -45 -32
-63 -52 -17 -20 -31 -45 -31 -56 0 -11 7 -22 16 -26 9 -3 30 2 47 11 18 9 56
30 86 47 32 17 58 26 63 21 5 -5 -4 -21 -23 -38 -18 -16 -50 -45 -72 -64 -21
-19 -48 -43 -58 -52 -10 -10 -23 -18 -28 -18 -6 0 -13 -5 -17 -11 -3 -6 -10
-36 -14 -67 -4 -32 -13 -73 -20 -92 -7 -19 -16 -44 -21 -55 -4 -11 -12 -90
-18 -175 -7 -85 -17 -178 -23 -206 -6 -29 -8 -64 -4 -78 4 -16 15 -28 32 -32
14 -4 30 -2 36 4 5 5 14 65 19 133 5 68 11 171 13 229 3 58 11 129 19 158 9
29 20 59 26 66 6 7 14 30 19 52 8 39 8 39 115 42 88 2 107 0 107 -12 0 -8 -11
-23 -24 -33 -13 -10 -42 -27 -64 -37 -23 -10 -44 -27 -47 -37 -4 -11 -4 -28 0
-38 3 -10 20 -25 37 -32 29 -12 32 -11 57 19 14 17 36 45 49 62 13 16 28 30
33 30 5 0 14 -11 19 -24 5 -13 14 -27 19 -31 6 -3 23 3 37 14 15 12 35 21 44
21 10 0 28 -16 39 -36 12 -20 29 -66 37 -103 9 -36 18 -80 21 -97 3 -20 0 -34
-11 -43 -9 -8 -16 -19 -16 -25 0 -7 -14 -31 -31 -54 -22 -30 -38 -42 -56 -42
-14 0 -41 13 -60 30 -25 22 -44 30 -71 30 -20 0 -46 -7 -56 -15 -14 -10 -22
-35 -29 -82 -5 -38 -10 -79 -11 -93 -1 -23 2 -25 39 -22 22 2 82 12 133 23 51
10 105 25 120 33 15 8 37 25 49 38 11 12 30 39 42 58 11 19 26 46 32 60 6 14
14 59 16 100 4 59 0 91 -17 146 -13 45 -31 81 -48 97 -15 14 -33 33 -40 41 -7
9 -24 16 -38 16 -14 0 -34 5 -45 10 -10 6 -19 17 -19 25 0 7 23 30 50 50 36
26 50 44 50 60 0 14 -9 29 -20 35 -12 6 -35 10 -52 8 -29 -3 -33 0 -40 32 -5
19 -12 45 -15 57 -4 17 4 28 36 50 22 15 40 35 41 43 0 9 -5 21 -12 28 -7 7
-21 12 -33 12 -12 0 -25 -4 -31 -9 -5 -5 -43 -27 -85 -50 -42 -23 -82 -41 -88
-41 -6 0 -11 6 -11 13 0 7 39 44 87 82 48 39 109 86 135 105 26 19 50 41 53
49 3 8 -2 22 -11 32 -11 12 -31 19 -54 19z m-105 -374 c5 -1 12 -13 16 -27 4
-13 7 -45 8 -70 1 -29 -4 -51 -13 -58 -11 -9 -23 -9 -51 3 -21 9 -48 13 -66 9
-16 -3 -32 -10 -35 -14 -3 -5 -14 -9 -25 -9 -10 0 -19 6 -19 13 0 7 19 30 43
50 23 20 62 52 87 71 25 19 49 34 55 32z m-11 -716 c6 0 19 -7 29 -14 9 -7 17
-18 17 -24 0 -6 -9 -16 -21 -22 -11 -7 -27 -9 -35 -6 -8 3 -14 16 -14 29 0 13
3 27 7 30 3 4 11 7 17 7z"/>
<path d="M648 1199 c-7 0 -37 -14 -67 -30 -49 -28 -62 -30 -130 -27 -64 2 -76
0 -79 -14 -2 -9 17 -38 42 -64 45 -47 45 -47 83 -18 21 15 66 53 100 84 35 30
63 58 63 63 0 4 -6 7 -12 6z"/>
<path d="M1008 29 c-7 0 -19 -3 -25 -6 -7 -2 -13 -9 -13 -14 0 -5 11 -9 25 -9
16 0 25 6 25 15 0 8 -6 15 -12 14z"/>
</g>
</svg>
