<?xml version="1.0" standalone="no"?>
<!DOCTYPE svg PUBLIC "-//W3C//DTD SVG 20010904//EN"
 "http://www.w3.org/TR/2001/REC-SVG-20010904/DTD/svg10.dtd">
<svg version="1.0" xmlns="http://www.w3.org/2000/svg"
 width="128.000000pt" height="128.000000pt" viewBox="0 0 128.000000 128.000000"
 preserveAspectRatio="xMidYMid meet">
<metadata>
Created by potrace 1.16, written by Peter Selinger 2001-2019
</metadata>
<g transform="translate(0.000000,128.000000) scale(0.100000,-0.100000)"
fill="#000000" stroke="none">
<path d="M496 1250 c-8 0 -22 -10 -30 -22 -10 -14 -16 -44 -16 -78 0 -39 -6
-62 -20 -80 -11 -14 -20 -35 -20 -48 0 -12 7 -25 16 -29 10 -4 20 0 26 10 5
10 21 17 39 17 17 0 40 5 52 11 12 6 31 22 42 34 14 16 20 35 19 61 -2 29 -10
45 -33 66 -17 16 -38 28 -46 28 -8 0 -15 7 -15 15 0 8 -6 15 -14 15z"/>
<path d="M392 984 c-4 2 -17 -1 -30 -8 -19 -10 -21 -14 -9 -30 13 -17 14 -17
30 -1 9 9 17 20 17 25 0 5 -3 11 -8 14z"/>
<path d="M417 890 c-7 0 -24 -10 -39 -21 -16 -11 -28 -27 -28 -35 0 -7 11 -21
25 -30 14 -9 32 -13 41 -10 8 3 28 -1 44 -9 15 -8 30 -20 32 -27 3 -7 -6 -33
-19 -57 -12 -24 -23 -60 -23 -79 0 -32 2 -34 28 -29 15 3 39 10 54 16 20 8 28
19 33 53 4 23 14 52 21 63 12 18 11 25 -6 52 -10 18 -30 39 -44 48 -13 9 -35
17 -48 18 -12 1 -31 12 -41 24 -10 13 -24 23 -30 23z"/>
<path d="M433 560 c-7 0 -16 -6 -19 -14 -3 -8 0 -24 6 -36 9 -17 9 -29 0 -50
-10 -24 -8 -33 14 -69 19 -30 33 -41 51 -41 15 0 25 -6 25 -15 0 -8 21 -27 48
-42 26 -15 49 -31 51 -36 1 -4 15 -19 29 -33 15 -13 32 -24 38 -24 6 0 19 -9
28 -19 10 -11 15 -24 12 -30 -4 -5 3 -12 13 -16 11 -3 46 -35 78 -70 49 -54
63 -65 91 -65 32 0 32 0 32 55 0 52 -3 59 -42 99 -24 24 -61 52 -83 63 -22 11
-45 18 -51 16 -7 -2 -21 8 -32 22 -11 14 -35 32 -54 39 -19 8 -61 43 -94 77
-32 34 -72 75 -88 90 -21 20 -26 32 -21 48 4 13 1 28 -5 36 -7 8 -19 15 -27
15z"/>
</g>
</svg>
