<?xml version="1.0" standalone="no"?>
<!DOCTYPE svg PUBLIC "-//W3C//DTD SVG 20010904//EN"
 "http://www.w3.org/TR/2001/REC-SVG-20010904/DTD/svg10.dtd">
<svg version="1.0" xmlns="http://www.w3.org/2000/svg"
 width="128.000000pt" height="128.000000pt" viewBox="0 0 128.000000 128.000000"
 preserveAspectRatio="xMidYMid meet">
<metadata>
Created by potrace 1.16, written by Peter Selinger 2001-2019
</metadata>
<g transform="translate(0.000000,128.000000) scale(0.100000,-0.100000)"
fill="#000000" stroke="none">
<path d="M541 1179 c-14 -1 -55 -11 -91 -24 -36 -13 -66 -31 -68 -39 -2 -8 10
-22 27 -30 16 -9 37 -16 45 -16 9 0 20 -20 30 -54 9 -30 16 -64 16 -76 0 -12
5 -30 10 -40 8 -16 6 -22 -14 -35 -16 -11 -76 -21 -178 -31 -84 -8 -169 -14
-188 -12 -27 2 -36 -1 -38 -15 -2 -10 15 -40 38 -67 32 -38 49 -50 70 -50 15
0 68 18 118 40 49 22 102 40 118 40 15 0 53 6 83 14 31 8 77 19 104 25 26 6
56 11 67 11 10 0 21 -4 24 -9 3 -5 -63 -79 -147 -165 -83 -85 -169 -167 -190
-181 -21 -14 -56 -34 -77 -45 -22 -11 -45 -20 -53 -20 -8 0 -39 -17 -69 -39
-31 -21 -71 -44 -90 -50 -19 -6 -44 -21 -56 -32 -13 -11 -22 -32 -22 -49 0
-16 7 -36 17 -45 12 -12 26 -15 52 -10 20 3 55 19 78 36 23 16 46 29 51 29 5
0 21 11 36 25 15 13 36 30 47 36 12 6 52 12 91 14 44 3 84 -1 107 -10 20 -7
53 -16 75 -20 21 -3 52 -12 70 -20 17 -7 51 -19 76 -26 25 -7 54 -17 65 -24
11 -6 43 -17 70 -24 28 -8 79 -25 115 -38 36 -14 74 -32 85 -39 11 -8 38 -14
60 -14 34 0 52 8 99 45 32 25 62 45 67 45 5 0 9 6 9 14 0 9 -23 20 -62 29 -35
9 -108 22 -163 31 -55 8 -125 22 -155 31 -30 9 -100 28 -155 41 -55 13 -131
27 -170 30 -38 3 -85 10 -102 15 -18 6 -33 15 -33 20 0 6 24 33 53 60 28 28
79 71 112 95 32 25 67 59 77 75 10 16 32 38 48 48 17 10 60 51 96 91 36 40 69
83 74 96 5 13 7 29 4 36 -2 7 -20 23 -39 36 -19 12 -40 22 -47 22 -7 0 -40
-11 -73 -24 -33 -13 -75 -28 -94 -34 -26 -9 -38 -9 -49 0 -9 8 -12 24 -8 47 2
20 10 67 16 105 11 68 11 69 -16 97 -17 18 -37 29 -53 28z"/>
</g>
</svg>
