<?xml version="1.0" standalone="no"?>
<!DOCTYPE svg PUBLIC "-//W3C//DTD SVG 20010904//EN"
 "http://www.w3.org/TR/2001/REC-SVG-20010904/DTD/svg10.dtd">
<svg version="1.0" xmlns="http://www.w3.org/2000/svg"
 width="128.000000pt" height="128.000000pt" viewBox="0 0 128.000000 128.000000"
 preserveAspectRatio="xMidYMid meet">
<metadata>
Created by potrace 1.16, written by Peter Selinger 2001-2019
</metadata>
<g transform="translate(0.000000,128.000000) scale(0.100000,-0.100000)"
fill="#000000" stroke="none">
<path d="M467 1280 c-18 0 -19 -5 -12 -57 5 -42 13 -63 28 -76 12 -10 34 -23
50 -29 15 -5 27 -14 27 -19 0 -6 11 -20 24 -33 25 -22 25 -25 25 -187 1 -90 0
-177 -1 -194 -1 -16 10 -60 25 -97 20 -48 28 -89 30 -151 2 -46 7 -89 10 -94
4 -6 8 -43 9 -82 1 -44 -3 -76 -10 -83 -7 -7 -12 -29 -12 -49 0 -21 -5 -50
-10 -64 -7 -18 -7 -33 0 -46 7 -12 21 -19 39 -19 20 0 31 7 39 25 7 14 12 33
12 41 0 8 7 29 17 47 9 18 22 37 29 42 7 6 15 28 18 50 2 22 8 54 11 72 5 22
2 39 -9 55 -9 12 -16 36 -16 54 0 17 -20 80 -45 139 -41 100 -45 117 -47 202
-1 51 -5 98 -9 104 -4 7 -3 25 1 41 5 16 20 42 34 59 14 17 26 39 26 48 0 10
-13 36 -30 57 -16 22 -33 43 -37 47 -5 4 -34 32 -67 62 -32 30 -61 55 -65 55
-3 0 -19 18 -35 40 -17 23 -38 40 -49 40z"/>
</g>
</svg>
