<?xml version="1.0" standalone="no"?>
<!DOCTYPE svg PUBLIC "-//W3C//DTD SVG 20010904//EN"
 "http://www.w3.org/TR/2001/REC-SVG-20010904/DTD/svg10.dtd">
<svg version="1.0" xmlns="http://www.w3.org/2000/svg"
 width="128.000000pt" height="128.000000pt" viewBox="0 0 128.000000 128.000000"
 preserveAspectRatio="xMidYMid meet">
<metadata>
Created by potrace 1.16, written by Peter Selinger 2001-2019
</metadata>
<g transform="translate(0.000000,128.000000) scale(0.100000,-0.100000)"
fill="#000000" stroke="none">
<path d="M610 1280 c-39 0 -40 0 -55 -54 -15 -50 -15 -57 0 -87 9 -17 19 -55
22 -83 4 -40 2 -55 -11 -65 -10 -8 -16 -29 -16 -52 0 -21 5 -41 10 -44 6 -3
10 -21 10 -40 0 -19 4 -36 9 -39 4 -3 11 -23 15 -44 3 -21 13 -63 22 -93 9
-30 20 -63 24 -74 4 -11 13 -36 19 -55 7 -19 16 -48 20 -65 4 -16 15 -44 24
-62 10 -18 17 -49 17 -70 1 -21 8 -56 16 -78 9 -22 20 -60 25 -85 5 -25 11
-67 15 -95 3 -27 10 -60 16 -72 9 -18 20 -23 51 -23 40 0 40 0 34 48 -3 26
-11 76 -17 112 -6 36 -18 75 -26 87 -8 12 -14 29 -14 37 0 8 -9 36 -21 63 -11
26 -27 73 -36 103 -8 30 -19 71 -25 90 -5 19 -11 49 -12 67 -1 17 -7 38 -13
45 -6 7 -20 40 -31 73 -11 33 -24 76 -27 95 -4 19 -14 47 -21 63 -13 24 -13
27 0 27 12 0 14 7 10 29 -6 26 -3 29 29 35 19 4 38 14 41 22 4 10 -12 39 -41
76 -39 52 -47 70 -51 116 -4 43 -1 57 12 64 9 5 16 13 16 18 0 6 -18 10 -40
10z"/>
<path d="M456 940 c-8 0 -17 -4 -21 -9 -3 -5 -1 -12 5 -16 5 -3 15 -3 20 0 6
3 10 10 10 16 0 5 -6 9 -14 9z"/>
<path d="M844 880 c-9 0 -14 -5 -12 -12 2 -6 10 -14 16 -16 7 -2 12 3 12 12 0
9 -7 16 -16 16z"/>
<path d="M821 834 c-5 3 -14 -1 -21 -10 -9 -10 -10 -18 -3 -25 8 -8 14 -5 22
9 6 12 7 23 2 26z"/>
<path d="M780 779 c-7 2 -11 -2 -8 -8 2 -7 7 -12 11 -12 4 1 7 4 8 8 0 4 -5 9
-11 12z"/>
<path d="M395 730 c-7 0 -15 -6 -18 -13 -3 -7 1 -21 8 -30 7 -9 19 -17 27 -17
8 0 17 3 21 6 3 4 -1 17 -10 30 -8 13 -21 24 -28 24z"/>
<path d="M731 708 c-8 3 -12 -1 -9 -9 2 -7 10 -15 17 -17 8 -3 12 1 9 9 -2 7
-10 15 -17 17z"/>
<path d="M453 633 c-5 3 -15 2 -22 -2 -10 -7 -10 -10 -1 -16 6 -4 16 -3 22 3
5 5 6 12 1 15z"/>
</g>
</svg>
