<?xml version="1.0" standalone="no"?>
<!DOCTYPE svg PUBLIC "-//W3C//DTD SVG 20010904//EN"
 "http://www.w3.org/TR/2001/REC-SVG-20010904/DTD/svg10.dtd">
<svg version="1.0" xmlns="http://www.w3.org/2000/svg"
 width="128.000000pt" height="128.000000pt" viewBox="0 0 128.000000 128.000000"
 preserveAspectRatio="xMidYMid meet">
<metadata>
Created by potrace 1.16, written by Peter Selinger 2001-2019
</metadata>
<g transform="translate(0.000000,128.000000) scale(0.100000,-0.100000)"
fill="#000000" stroke="none">
<path d="M485 1280 c-40 0 -45 -3 -51 -27 -3 -16 -12 -50 -19 -76 -10 -35 -11
-57 -3 -78 5 -16 7 -40 4 -53 -4 -15 6 -47 29 -94 19 -39 43 -76 54 -82 11 -6
26 -20 33 -33 7 -12 14 -61 15 -112 1 -49 4 -112 7 -140 3 -27 12 -93 19 -145
12 -80 12 -99 1 -117 -8 -12 -14 -49 -14 -83 0 -45 4 -62 15 -66 8 -4 15 -17
15 -30 0 -12 10 -30 21 -38 13 -9 33 -13 49 -10 21 5 31 -1 53 -29 15 -20 27
-43 27 -51 0 -12 11 -16 51 -16 48 0 50 1 43 23 -4 12 -10 31 -14 42 -4 11
-29 43 -54 70 -26 28 -58 64 -71 81 -13 18 -31 50 -40 72 -15 36 -15 43 -1 77
9 21 16 54 16 74 0 20 -7 58 -15 85 -8 27 -17 79 -19 115 -2 47 1 72 12 89 14
21 13 28 -18 90 -18 37 -53 98 -78 135 -25 37 -54 74 -65 82 -14 10 -17 19
-11 37 4 12 7 36 6 51 -2 16 8 41 22 60 13 18 24 47 24 65 1 31 0 32 -43 32z"/>
<path d="M680 1220 c-11 0 -23 -7 -26 -15 -3 -8 -3 -19 1 -25 4 -7 12 -7 26 0
10 6 19 17 19 25 0 8 -9 15 -20 15z"/>
</g>
</svg>
