<?xml version="1.0" standalone="no"?>
<!DOCTYPE svg PUBLIC "-//W3C//DTD SVG 20010904//EN"
 "http://www.w3.org/TR/2001/REC-SVG-20010904/DTD/svg10.dtd">
<svg version="1.0" xmlns="http://www.w3.org/2000/svg"
 width="128.000000pt" height="128.000000pt" viewBox="0 0 128.000000 128.000000"
 preserveAspectRatio="xMidYMid meet">
<metadata>
Created by potrace 1.16, written by Peter Selinger 2001-2019
</metadata>
<g transform="translate(0.000000,128.000000) scale(0.100000,-0.100000)"
fill="#000000" stroke="none">
<path d="M464 1280 c-16 0 -24 -5 -22 -12 3 -7 14 -14 26 -16 15 -2 22 2 22
12 0 11 -9 16 -26 16z"/>
<path d="M559 1247 c-17 3 -29 1 -29 -5 0 -6 12 -20 28 -30 18 -13 32 -36 40
-66 6 -25 21 -55 32 -66 19 -19 19 -19 -18 -25 -20 -3 -55 -11 -76 -18 -22 -6
-41 -16 -42 -22 -2 -5 3 -19 11 -29 14 -19 16 -19 50 -3 20 9 50 17 68 17 18
0 39 6 46 13 10 10 11 6 5 -18 -4 -16 -9 -33 -11 -37 -2 -5 -11 -8 -19 -8 -8
0 -14 -3 -14 -7 0 -5 4 -14 8 -20 5 -8 24 -12 46 -10 24 1 41 -3 43 -10 3 -8
-5 -13 -22 -13 -25 0 -26 -2 -20 -32 4 -18 12 -39 19 -47 6 -7 28 -25 49 -38
32 -20 36 -27 27 -39 -7 -8 -22 -14 -34 -14 -11 0 -34 -9 -51 -20 -16 -11 -43
-20 -58 -20 -15 0 -44 -7 -64 -15 -20 -9 -43 -13 -50 -11 -7 3 -13 16 -13 28
0 13 18 47 41 77 31 41 39 59 34 78 -5 21 -1 26 25 36 16 6 30 18 30 25 0 10
-9 12 -32 7 -18 -4 -45 -20 -60 -36 -15 -16 -32 -29 -38 -29 -6 0 -13 8 -17
18 -3 9 -17 32 -30 50 -13 17 -33 32 -44 32 -14 0 -19 7 -21 28 0 15 -2 41 -4
57 -2 17 -6 46 -9 65 -4 19 -19 53 -34 75 -15 22 -34 41 -43 43 -14 3 -16 -7
-11 -75 4 -55 0 -102 -12 -158 -10 -44 -20 -97 -22 -118 -3 -22 0 -44 7 -52 7
-8 23 -15 37 -15 13 0 27 8 30 18 4 9 16 25 28 34 18 15 22 15 38 1 9 -9 17
-23 17 -32 0 -9 -9 -31 -20 -49 -11 -18 -25 -53 -30 -77 -6 -28 -6 -53 -1 -67
5 -13 12 -35 15 -49 3 -14 17 -42 31 -63 17 -25 25 -50 25 -80 0 -39 -4 -47
-51 -87 -28 -24 -67 -58 -87 -75 -21 -17 -56 -39 -80 -49 -23 -11 -42 -22 -42
-27 0 -4 -6 -8 -14 -8 -7 0 -16 10 -19 22 -4 15 2 29 18 46 14 14 25 28 25 32
0 3 17 16 38 28 20 11 49 34 65 51 15 16 27 34 27 39 0 5 7 12 15 16 8 3 15
12 15 20 0 9 -17 24 -37 34 -21 11 -55 22 -75 26 -28 5 -38 4 -37 -6 0 -7 4
-21 8 -32 4 -10 23 -27 42 -37 31 -16 32 -18 10 -19 -13 0 -49 -19 -79 -43
-31 -23 -63 -55 -73 -71 -10 -16 -16 -33 -13 -37 3 -5 0 -37 -6 -71 -8 -45 -8
-71 -1 -92 11 -28 11 -28 41 -4 16 13 43 33 60 46 16 13 47 26 67 29 30 4 52
19 101 69 43 44 67 61 78 57 14 -5 16 -18 12 -80 -3 -41 -10 -79 -17 -86 -9
-9 -17 -5 -37 16 -13 15 -29 27 -34 27 -6 0 -10 -6 -10 -14 0 -7 7 -19 15 -26
8 -7 15 -19 15 -27 0 -9 10 -33 22 -54 19 -34 26 -39 58 -39 23 0 44 8 58 20
17 16 22 32 22 68 0 26 3 117 7 203 5 141 4 159 -13 188 -10 17 -22 31 -26 31
-4 0 -15 14 -23 30 -12 24 -13 31 -3 35 7 2 33 6 58 8 25 2 60 10 78 18 24 10
37 11 50 3 13 -9 17 -24 15 -65 -1 -30 -4 -108 -7 -174 -3 -66 -8 -149 -12
-185 -6 -61 -4 -68 20 -97 25 -30 29 -31 94 -28 37 2 111 8 164 13 54 6 106
16 117 21 11 6 35 11 53 11 25 0 41 8 61 31 15 17 27 41 27 53 0 12 -18 46
-41 76 -23 30 -47 56 -55 58 -8 2 -19 -8 -25 -22 -10 -20 -9 -35 1 -66 7 -22
11 -43 8 -46 -3 -3 -32 -8 -64 -11 -33 -3 -79 -12 -104 -20 -29 -9 -61 -12
-92 -8 -42 6 -50 11 -64 40 -12 26 -13 41 -5 71 5 22 13 92 16 158 5 118 5
118 -25 153 -17 18 -30 40 -30 49 0 8 13 17 30 21 17 3 30 9 30 14 0 5 7 9 15
9 8 0 26 5 40 12 14 6 25 17 25 25 0 7 11 18 24 23 13 5 27 18 31 30 4 13 0
31 -9 45 -9 14 -47 41 -85 60 -54 27 -68 38 -65 52 3 10 11 26 18 35 9 12 39
20 113 27 55 6 107 13 116 17 11 4 17 18 17 39 0 25 -11 45 -49 86 -40 44 -54
53 -82 53 -19 0 -57 -10 -84 -23 -28 -12 -60 -27 -72 -33 -12 -6 -33 -8 -46
-4 -23 5 -25 11 -24 53 2 46 1 48 -36 66 -21 10 -51 20 -68 24z m262 -188 c22
1 46 -7 60 -18 24 -19 24 -19 -4 -30 -16 -6 -35 -11 -43 -11 -8 0 -17 -7 -20
-15 -4 -8 -17 -15 -29 -15 -13 0 -26 4 -30 9 -3 5 -19 12 -35 16 -17 4 -30 10
-30 14 0 4 10 12 23 18 12 6 33 15 47 21 14 6 41 11 61 11z"/>
<path d="M1000 738 c-19 1 -41 -2 -48 -6 -11 -8 -11 -10 2 -15 9 -4 16 -16 16
-27 0 -11 -11 -42 -25 -69 -14 -26 -37 -58 -50 -71 -14 -13 -25 -29 -25 -37 0
-7 21 -29 48 -47 26 -19 59 -51 75 -70 15 -20 42 -39 60 -44 17 -5 39 -6 48
-1 11 5 14 18 11 44 -4 32 -11 40 -66 71 -33 20 -69 46 -78 59 -17 23 -17 24
15 44 18 11 42 30 54 43 21 22 22 27 10 73 -11 47 -14 50 -47 53z"/>
</g>
</svg>
