<?xml version="1.0" standalone="no"?>
<!DOCTYPE svg PUBLIC "-//W3C//DTD SVG 20010904//EN"
 "http://www.w3.org/TR/2001/REC-SVG-20010904/DTD/svg10.dtd">
<svg version="1.0" xmlns="http://www.w3.org/2000/svg"
 width="128.000000pt" height="128.000000pt" viewBox="0 0 128.000000 128.000000"
 preserveAspectRatio="xMidYMid meet">
<metadata>
Created by potrace 1.16, written by Peter Selinger 2001-2019
</metadata>
<g transform="translate(0.000000,128.000000) scale(0.100000,-0.100000)"
fill="#000000" stroke="none">
<path d="M646 1260 c-3 0 -11 -12 -16 -26 -6 -14 -10 -64 -10 -112 -1 -56 -5
-93 -14 -104 -7 -10 -35 -22 -62 -27 -27 -6 -65 -12 -84 -13 -31 -3 -35 -6
-32 -28 1 -13 15 -37 30 -53 14 -15 37 -30 49 -33 14 -4 23 -14 23 -25 0 -10
-9 -28 -20 -39 -11 -11 -26 -20 -32 -20 -7 -1 -23 -9 -36 -20 -13 -11 -29 -41
-36 -70 -7 -29 -13 -77 -12 -108 1 -57 1 -57 41 -55 22 1 57 5 77 8 21 4 45 4
54 1 15 -6 15 -8 -1 -26 -10 -11 -28 -20 -39 -20 -12 0 -36 -16 -55 -35 -18
-19 -38 -35 -45 -35 -7 0 -21 -9 -31 -20 -10 -11 -27 -22 -39 -26 -11 -3 -34
-19 -51 -34 -16 -16 -46 -31 -67 -35 -32 -6 -38 -4 -54 20 -17 26 -17 26 -46
-5 -15 -17 -28 -41 -28 -53 0 -12 7 -31 15 -41 8 -11 15 -26 15 -34 0 -7 14
-33 30 -58 26 -37 36 -44 64 -44 21 0 40 8 53 23 11 12 25 36 32 54 7 18 20
38 28 44 11 10 24 2 71 -43 31 -30 67 -61 79 -69 12 -8 49 -34 83 -57 57 -40
64 -42 78 -28 12 11 16 40 18 112 1 52 6 114 9 135 4 24 3 45 -4 53 -9 10 -9
33 -1 87 7 41 13 84 16 97 3 13 11 22 22 21 9 0 37 -14 62 -29 25 -16 59 -37
75 -46 17 -9 48 -33 70 -52 22 -20 60 -63 85 -97 24 -33 48 -62 52 -63 5 -2 8
-12 8 -22 0 -10 9 -28 19 -41 20 -24 20 -24 41 -3 14 14 23 38 27 75 5 48 2
60 -21 94 -14 22 -54 68 -89 102 -34 35 -68 63 -74 63 -7 0 -48 12 -90 26 -43
15 -82 30 -87 34 -4 5 2 15 15 23 13 8 56 25 94 37 39 12 76 24 83 26 6 2 12
13 12 24 0 11 -17 38 -37 61 -33 37 -40 40 -72 34 -20 -3 -53 -15 -73 -25 -21
-11 -44 -17 -53 -14 -11 5 -15 22 -15 70 0 35 5 74 12 88 6 14 20 29 32 32 12
4 33 15 49 26 15 11 27 27 27 37 0 10 -9 30 -21 45 -16 20 -29 26 -59 26 -31
0 -39 4 -44 23 -3 12 -6 43 -6 69 0 43 -3 50 -44 82 -23 20 -46 36 -50 36z m5
-280 c5 0 9 -4 9 -8 0 -5 -3 -12 -6 -15 -4 -4 -11 -4 -16 -1 -4 3 -6 10 -3 15
4 5 10 9 16 9z m-46 -190 c6 0 16 -5 23 -12 7 -7 12 -28 12 -48 0 -28 -5 -40
-24 -49 -12 -7 -33 -11 -46 -9 -12 1 -29 13 -37 25 -13 20 -13 23 8 40 12 10
29 26 38 36 8 9 20 17 26 17z m-20 -330 c7 0 15 -9 18 -19 2 -11 2 -41 0 -68
-3 -26 -9 -52 -13 -58 -4 -5 -8 -31 -9 -57 0 -26 -5 -58 -11 -73 -5 -14 -11
-25 -13 -25 -2 0 -19 5 -36 11 -18 6 -43 21 -55 33 -12 11 -31 26 -41 32 -18
10 -18 14 -7 40 8 15 22 37 33 49 10 11 42 46 70 78 29 31 57 57 64 57z"/>
</g>
</svg>
