<?xml version="1.0" standalone="no"?>
<!DOCTYPE svg PUBLIC "-//W3C//DTD SVG 20010904//EN"
 "http://www.w3.org/TR/2001/REC-SVG-20010904/DTD/svg10.dtd">
<svg version="1.0" xmlns="http://www.w3.org/2000/svg"
 width="128.000000pt" height="128.000000pt" viewBox="0 0 128.000000 128.000000"
 preserveAspectRatio="xMidYMid meet">
<metadata>
Created by potrace 1.16, written by Peter Selinger 2001-2019
</metadata>
<g transform="translate(0.000000,128.000000) scale(0.100000,-0.100000)"
fill="#000000" stroke="none">
<path d="M836 1259 c-23 -1 -84 -16 -136 -34 -52 -19 -103 -34 -112 -34 -9 -1
-29 -6 -45 -12 -28 -10 -28 -10 -3 -29 14 -11 39 -20 55 -20 17 0 48 7 70 15
22 8 64 14 93 15 31 0 71 8 98 20 28 13 44 27 44 38 0 10 -5 23 -12 30 -7 7
-30 11 -52 11z"/>
<path d="M257 1140 c-3 0 -10 -7 -17 -15 -10 -12 -10 -19 -2 -27 7 -7 12 -26
12 -43 0 -17 -7 -41 -16 -54 -13 -18 -17 -61 -21 -232 -3 -165 -1 -221 11
-268 8 -33 31 -91 51 -130 20 -39 42 -71 50 -71 7 0 22 19 33 43 12 23 26 71
32 107 6 36 16 88 20 115 5 28 15 94 21 148 6 53 16 100 20 103 5 3 9 16 9 30
0 13 -4 24 -10 24 -5 0 -16 -13 -25 -30 -8 -16 -15 -46 -15 -68 0 -21 -4 -42
-8 -48 -5 -5 -14 -46 -21 -91 -7 -46 -17 -97 -23 -113 -6 -19 -16 -30 -26 -28
-8 2 -21 21 -29 42 -7 22 -17 67 -23 100 -6 40 -5 77 1 106 6 25 13 57 16 73
3 16 -3 48 -17 81 -22 55 -22 55 39 114 34 33 61 67 61 75 0 8 -6 19 -12 24
-7 6 -34 15 -60 22 -26 6 -49 11 -51 11z"/>
<path d="M985 1117 c-64 2 -76 -1 -142 -36 -40 -21 -78 -43 -85 -48 -7 -6 -45
-20 -84 -32 -39 -12 -84 -21 -101 -21 -16 0 -38 -6 -49 -14 -12 -10 -15 -18
-9 -24 6 -5 30 -15 54 -22 24 -8 58 -14 75 -14 17 0 49 13 71 28 23 16 49 26
64 24 17 -2 27 -11 32 -31 4 -15 10 -72 13 -125 3 -53 8 -225 11 -382 6 -241
10 -295 26 -352 11 -38 23 -68 28 -68 5 0 14 7 21 16 8 8 19 45 26 82 7 36 11
69 9 72 -2 3 -6 68 -10 145 -3 76 -8 142 -11 146 -2 5 -5 100 -5 213 0 199 -1
207 -25 250 -15 26 -22 50 -18 61 6 14 15 16 53 11 25 -3 56 -8 68 -12 18 -5
26 1 43 27 13 21 19 47 18 69 -3 35 -3 35 -73 37z"/>
<path d="M546 199 c-6 -1 -22 -5 -36 -9 -14 -4 -42 -8 -62 -9 -24 -1 -38 -6
-38 -14 0 -7 9 -23 21 -36 15 -15 27 -20 42 -15 12 4 27 8 32 11 6 2 19 -3 29
-10 12 -9 20 -31 24 -65 4 -46 7 -52 27 -52 19 0 23 7 29 48 3 28 1 63 -5 83
-6 19 -20 42 -31 52 -11 9 -25 17 -32 16z"/>
<path d="M1056 200 c-8 0 -17 -4 -20 -9 -4 -5 -3 -16 0 -25 3 -9 12 -16 20
-16 8 0 14 10 14 25 0 15 -6 25 -14 25z"/>
<path d="M440 60 c-17 9 -22 7 -30 -15 -6 -15 -10 -31 -10 -36 0 -5 16 -9 36
-9 29 0 35 3 30 16 -3 9 -6 20 -6 24 0 5 -9 14 -20 20z"/>
</g>
</svg>
