<?xml version="1.0" standalone="no"?>
<!DOCTYPE svg PUBLIC "-//W3C//DTD SVG 20010904//EN"
 "http://www.w3.org/TR/2001/REC-SVG-20010904/DTD/svg10.dtd">
<svg version="1.0" xmlns="http://www.w3.org/2000/svg"
 width="128.000000pt" height="128.000000pt" viewBox="0 0 128.000000 128.000000"
 preserveAspectRatio="xMidYMid meet">
<metadata>
Created by potrace 1.16, written by Peter Selinger 2001-2019
</metadata>
<g transform="translate(0.000000,128.000000) scale(0.100000,-0.100000)"
fill="#000000" stroke="none">
<path d="M830 1254 c-3 1 -27 0 -55 -2 -29 -2 -58 -11 -70 -21 -11 -9 -38 -25
-60 -35 -36 -16 -40 -16 -51 -2 -7 10 -18 14 -29 10 -14 -6 -16 -16 -13 -49 3
-23 16 -56 28 -74 19 -24 31 -31 57 -31 20 0 36 6 39 14 3 8 -2 26 -11 40 -12
19 -14 29 -6 44 6 11 27 29 47 41 20 12 40 18 45 14 4 -4 1 -39 -7 -77 -8 -38
-23 -89 -34 -114 -11 -24 -20 -49 -20 -55 0 -6 -8 -20 -18 -31 -10 -12 -25
-37 -32 -56 -7 -19 -35 -81 -61 -137 -37 -78 -54 -103 -68 -103 -11 0 -37 20
-58 44 -35 40 -40 52 -51 133 -6 48 -14 116 -16 150 -3 36 1 93 10 135 8 39
17 75 20 79 2 4 -2 14 -11 22 -12 12 -23 13 -57 5 -24 -6 -49 -15 -56 -21 -6
-5 -12 -18 -12 -28 0 -10 -25 -47 -56 -81 -31 -35 -60 -74 -65 -87 -5 -13 -13
-21 -16 -17 -4 3 -10 33 -14 66 -4 32 -14 66 -22 75 -9 8 -20 15 -25 15 -5 0
-12 -28 -15 -62 -4 -35 -11 -99 -17 -143 -6 -44 -17 -87 -25 -95 -8 -8 -12
-24 -10 -35 2 -11 4 -46 4 -77 1 -58 1 -58 36 -58 23 0 37 6 43 18 5 9 7 22 5
29 -2 6 1 14 6 18 6 3 11 17 11 31 0 13 12 48 26 77 14 28 30 59 35 67 5 8 18
33 28 55 10 22 26 47 36 55 9 8 21 25 26 38 5 13 13 21 18 18 5 -4 12 -41 16
-84 3 -42 10 -106 16 -142 5 -36 15 -87 22 -114 9 -39 25 -63 75 -114 63 -64
63 -64 35 -100 -15 -20 -41 -63 -58 -94 -16 -31 -47 -86 -68 -122 -21 -37 -43
-66 -49 -66 -7 0 -9 21 -4 68 4 37 8 76 9 87 1 11 -5 21 -13 22 -12 3 -19 -13
-29 -69 -7 -40 -19 -113 -27 -163 -8 -50 -18 -104 -20 -121 -4 -18 -1 -35 5
-38 6 -4 23 0 39 8 16 8 32 23 36 31 3 9 6 25 6 35 0 10 15 40 33 66 18 27 54
85 80 130 26 44 47 87 47 96 0 8 14 27 31 44 17 16 39 47 48 68 17 39 19 40
72 42 30 1 70 4 89 8 19 3 39 11 44 16 6 6 19 10 29 10 11 0 58 12 106 26 58
18 94 35 111 54 14 14 37 32 53 38 15 6 27 18 27 27 0 8 -3 15 -6 15 -3 0 -15
-5 -26 -11 -16 -9 -24 -7 -36 5 -15 15 -14 16 10 16 15 0 34 7 43 16 12 12 13
19 4 30 -9 11 -8 18 1 29 8 10 10 30 6 59 -4 24 -13 52 -21 62 -8 11 -15 28
-15 38 0 11 -17 35 -37 55 -21 20 -50 44 -64 53 -15 9 -29 14 -33 11 -3 -4 -6
-13 -6 -21 0 -8 16 -37 36 -65 20 -28 36 -60 36 -71 0 -12 -1 -54 -3 -94 -2
-74 -2 -74 -54 -127 -40 -42 -57 -53 -74 -48 -11 3 -36 0 -54 -7 -17 -8 -38
-18 -46 -24 -8 -6 -26 -11 -40 -12 -14 0 -33 -4 -41 -7 -8 -4 -21 -3 -29 2
-11 7 -6 21 23 70 20 34 36 64 36 67 0 3 19 47 42 97 23 51 59 128 80 173 21
44 38 92 38 107 0 14 11 47 25 72 24 42 25 46 8 52 -10 3 -20 7 -23 7z"/>
<path d="M1108 1170 c-26 0 -29 -3 -22 -22 3 -13 15 -39 25 -58 10 -19 36 -52
58 -72 23 -21 47 -38 54 -38 7 0 18 5 25 12 7 7 12 22 12 35 0 13 5 23 10 23
6 0 10 5 10 11 0 6 -14 22 -32 37 -17 15 -49 37 -71 50 -21 12 -52 22 -69 22z"/>
</g>
</svg>
