<?xml version="1.0" standalone="no"?>
<!DOCTYPE svg PUBLIC "-//W3C//DTD SVG 20010904//EN"
 "http://www.w3.org/TR/2001/REC-SVG-20010904/DTD/svg10.dtd">
<svg version="1.0" xmlns="http://www.w3.org/2000/svg"
 width="128.000000pt" height="128.000000pt" viewBox="0 0 128.000000 128.000000"
 preserveAspectRatio="xMidYMid meet">
<metadata>
Created by potrace 1.16, written by Peter Selinger 2001-2019
</metadata>
<g transform="translate(0.000000,128.000000) scale(0.100000,-0.100000)"
fill="#000000" stroke="none">
<path d="M440 1280 c-5 0 -10 -8 -10 -18 0 -10 12 -30 28 -44 15 -14 32 -27
38 -29 7 -2 28 -24 48 -47 20 -24 36 -47 36 -52 0 -4 -7 -13 -15 -20 -8 -7
-15 -18 -15 -25 0 -7 -25 -32 -55 -55 -30 -23 -55 -47 -55 -52 0 -5 -8 -12
-19 -16 -10 -4 -35 -28 -55 -55 -20 -26 -36 -52 -36 -57 0 -6 -5 -19 -12 -29
-6 -10 -8 -27 -4 -37 7 -18 9 -17 31 9 13 15 28 27 32 27 4 1 17 8 28 18 12 9
30 32 40 50 13 21 27 32 42 32 12 0 25 5 28 10 3 6 19 10 36 10 16 0 29 -5 29
-10 0 -6 -33 -43 -73 -83 -39 -40 -96 -92 -126 -117 -29 -25 -68 -61 -87 -80
-19 -19 -34 -40 -34 -47 0 -6 14 -15 32 -18 27 -6 34 -3 51 19 10 14 25 26 33
26 8 0 19 11 24 25 5 14 20 29 32 34 13 5 42 28 65 50 23 23 47 41 53 41 7 0
9 8 5 20 -4 14 -1 22 10 26 9 4 22 1 28 -5 9 -10 8 -16 -7 -27 -15 -10 -16
-14 -5 -14 8 0 24 -6 35 -14 19 -14 19 -15 -3 -36 -13 -11 -23 -24 -23 -28 0
-5 -33 -32 -73 -62 -41 -30 -81 -65 -91 -78 -10 -12 -20 -38 -23 -57 -3 -19
-3 -45 1 -59 3 -14 22 -37 41 -52 33 -25 36 -26 60 -10 13 9 33 16 45 16 11 0
20 -5 20 -11 0 -6 -5 -20 -11 -32 -7 -12 -23 -35 -36 -52 -14 -16 -52 -61 -86
-98 -34 -38 -67 -80 -74 -95 -7 -15 -12 -37 -13 -49 0 -19 5 -23 33 -23 22 0
40 8 53 23 11 12 26 34 34 49 7 15 21 30 32 34 10 3 18 9 18 14 0 4 9 10 19
13 11 2 21 15 23 27 1 13 10 28 19 33 13 8 34 3 85 -22 38 -18 80 -43 94 -56
14 -12 32 -25 40 -29 8 -3 -1 -4 -21 -1 -31 5 -46 -1 -93 -32 -30 -21 -55 -41
-56 -45 0 -5 20 -8 44 -8 25 0 47 4 50 9 4 5 49 12 102 16 62 5 97 12 100 20
3 7 1 31 -5 52 -7 26 -24 50 -48 70 -21 16 -48 35 -59 41 -12 6 -47 15 -78 18
-31 4 -61 13 -67 20 -6 7 -8 17 -5 23 3 5 30 23 59 39 28 16 65 41 80 54 24
21 29 35 34 84 3 42 1 64 -10 78 -14 18 -15 18 -82 -3 -38 -11 -73 -21 -78
-21 -6 0 -34 -12 -64 -27 -29 -15 -53 -31 -53 -35 0 -4 5 -8 10 -8 6 0 10 -6
10 -13 0 -9 -13 -13 -40 -13 -21 1 -43 6 -48 11 -5 6 -12 29 -16 53 -5 33 -3
44 9 48 8 4 22 1 30 -6 8 -6 23 -9 34 -5 16 5 20 3 15 -9 -5 -14 -3 -14 17 -3
13 6 35 23 49 37 14 14 40 37 58 53 19 15 37 39 41 54 4 16 22 36 42 47 19 12
57 34 85 51 27 16 71 45 98 64 27 20 55 49 62 68 8 18 14 39 14 46 0 8 -19 27
-42 42 -39 26 -45 27 -122 21 -45 -4 -95 -14 -112 -23 -31 -16 -33 -16 -73 16
-23 18 -41 39 -41 46 0 8 10 21 21 29 15 10 24 31 30 68 8 50 7 54 -20 82 -23
22 -41 30 -83 34 -29 2 -60 10 -68 16 -8 6 -25 17 -37 24 -13 6 -27 12 -33 12z
m131 -290 c5 0 9 -9 9 -20 0 -11 -6 -20 -13 -20 -8 0 -17 3 -20 7 -4 3 -2 12
4 20 6 7 15 13 20 13z m257 -81 c30 1 44 -4 49 -15 4 -10 -10 -31 -38 -60 -24
-25 -64 -54 -88 -65 -39 -17 -46 -17 -60 -5 -9 8 -30 20 -46 26 -30 12 -30 12
18 53 27 23 65 47 85 53 21 7 56 12 80 13z m-205 -272 c7 -2 13 -13 15 -24 2
-11 -4 -28 -13 -36 -8 -9 -22 -14 -30 -11 -8 4 -15 11 -15 18 0 6 7 22 16 34
9 13 21 21 27 19z m146 -148 c2 1 0 -20 -4 -46 -4 -27 -18 -63 -31 -80 -14
-18 -29 -33 -35 -33 -5 0 -19 21 -30 46 -11 26 -18 49 -15 51 2 2 28 17 58 33
29 16 55 29 57 29z"/>
</g>
</svg>
