<?xml version="1.0" standalone="no"?>
<!DOCTYPE svg PUBLIC "-//W3C//DTD SVG 20010904//EN"
 "http://www.w3.org/TR/2001/REC-SVG-20010904/DTD/svg10.dtd">
<svg version="1.0" xmlns="http://www.w3.org/2000/svg"
 width="128.000000pt" height="128.000000pt" viewBox="0 0 128.000000 128.000000"
 preserveAspectRatio="xMidYMid meet">
<metadata>
Created by potrace 1.16, written by Peter Selinger 2001-2019
</metadata>
<g transform="translate(0.000000,128.000000) scale(0.100000,-0.100000)"
fill="#000000" stroke="none">
<path d="M414 1272 c-8 5 -14 3 -18 -8 -3 -9 -4 -19 -2 -23 3 -4 25 -18 50
-30 25 -13 56 -40 70 -60 14 -20 45 -74 71 -121 25 -47 86 -167 135 -267 49
-100 94 -184 100 -188 5 -3 10 -13 10 -21 0 -8 45 -106 100 -218 55 -111 100
-210 100 -219 0 -10 -7 -20 -15 -24 -9 -3 -22 -21 -30 -40 -8 -20 -15 -39 -15
-44 0 -5 27 -9 59 -9 59 0 59 0 59 128 -1 127 -1 127 -61 232 -32 58 -74 123
-93 146 -18 23 -45 68 -60 100 -14 32 -43 88 -64 124 -20 36 -62 112 -92 170
-30 58 -59 114 -65 125 -6 11 -25 49 -43 85 -18 36 -44 77 -58 92 -14 15 -48
35 -76 44 -28 9 -56 21 -62 26z"/>
<path d="M616 1280 c-41 0 -46 -2 -46 -22 0 -13 4 -29 9 -37 6 -9 18 -11 34
-7 13 3 27 14 31 23 3 10 9 24 12 31 4 9 -7 12 -40 12z"/>
<path d="M766 1120 c-2 0 -6 -3 -9 -7 -4 -3 -7 -10 -7 -14 0 -5 31 -33 69 -64
59 -46 72 -62 83 -102 10 -35 19 -48 40 -55 19 -7 37 -4 72 13 25 11 46 27 46
35 0 8 -4 14 -10 14 -5 0 -10 7 -10 15 0 8 -14 30 -31 50 -20 22 -46 39 -72
45 -23 6 -51 15 -62 19 -11 4 -40 18 -63 30 -24 11 -45 21 -46 21z"/>
<path d="M495 947 c-28 30 -32 32 -50 19 -12 -9 -21 -31 -24 -62 -6 -49 -6
-49 -53 -52 -26 -2 -64 2 -85 7 -25 7 -41 7 -47 1 -7 -7 -5 -15 4 -24 8 -7 37
-25 63 -40 26 -14 56 -26 67 -26 11 0 26 -10 35 -23 11 -18 13 -35 6 -77 -5
-31 -16 -59 -26 -66 -9 -7 -51 -15 -93 -19 -43 -3 -83 -8 -89 -10 -7 -3 -13
-14 -13 -25 0 -18 6 -20 55 -20 31 0 69 7 86 15 16 9 34 13 39 10 6 -3 10 -12
10 -19 0 -8 7 -19 15 -26 8 -7 15 -23 15 -35 0 -12 -6 -27 -12 -32 -9 -6 -48
-6 -111 0 -68 7 -102 6 -109 -1 -6 -6 -8 -14 -5 -19 3 -5 30 -17 59 -27 52
-18 54 -18 105 2 45 17 53 18 58 4 3 -8 3 -31 -1 -51 -3 -20 -19 -76 -36 -124
-16 -49 -27 -95 -24 -103 3 -8 18 -14 34 -14 20 0 35 -9 50 -29 11 -16 24 -41
28 -55 4 -19 13 -26 31 -26 14 0 49 15 79 33 29 17 56 39 60 47 3 8 13 42 21
75 8 33 18 78 23 100 5 22 9 66 10 98 0 37 -6 67 -17 85 -9 15 -23 33 -32 40
-10 8 -31 10 -63 6 -30 -4 -48 -3 -48 4 0 5 -11 20 -25 33 -13 13 -25 29 -25
36 0 7 10 18 23 25 13 7 66 12 136 12 79 1 115 5 118 13 2 6 -8 20 -23 29 -20
14 -48 18 -118 18 -91 1 -91 1 -100 39 -7 25 -6 44 0 55 6 9 27 28 47 41 30
20 37 31 37 57 0 23 -7 36 -27 49 -15 10 -41 33 -58 52z m-73 -379 c6 -2 14
-10 16 -16 2 -7 -3 -12 -12 -12 -9 0 -16 7 -16 16 0 9 5 14 12 12z m120 -169
c10 -5 18 -20 19 -32 0 -12 0 -55 -1 -95 -1 -47 -8 -89 -20 -117 -10 -24 -27
-48 -37 -54 -14 -7 -28 -5 -51 6 -18 9 -35 26 -38 40 -4 14 -1 30 9 41 8 9 24
38 35 64 11 26 24 68 28 93 3 25 13 49 22 54 10 6 24 6 34 0z m-137 -129 c3 0
5 -12 5 -27 0 -20 -3 -24 -11 -16 -7 7 -9 19 -6 27 4 9 9 16 12 16z"/>
<path d="M1005 540 c-10 0 -15 -6 -13 -16 2 -8 7 -16 13 -17 5 -1 11 6 13 16
2 10 -3 17 -13 17z"/>
</g>
</svg>
