<?xml version="1.0" standalone="no"?>
<!DOCTYPE svg PUBLIC "-//W3C//DTD SVG 20010904//EN"
 "http://www.w3.org/TR/2001/REC-SVG-20010904/DTD/svg10.dtd">
<svg version="1.0" xmlns="http://www.w3.org/2000/svg"
 width="56.000000pt" height="56.000000pt" viewBox="0 0 56.000000 56.000000"
 preserveAspectRatio="xMidYMid meet">
<metadata>
Created by potrace 1.16, written by Peter Selinger 2001-2019
</metadata>
<g transform="translate(0.000000,56.000000) scale(0.100000,-0.100000)"
fill="#000000" stroke="none">
<path d="M441 560 c-35 0 -39 -3 -45 -31 -3 -17 -6 -42 -6 -54 0 -12 7 -28 16
-35 12 -11 18 -10 31 3 9 9 22 33 29 54 8 21 14 44 14 51 0 7 -14 12 -39 12z"/>
<path d="M328 540 c-10 0 -23 -9 -30 -20 -10 -15 -24 -20 -55 -20 -23 0 -45 5
-48 10 -3 6 -10 10 -16 10 -5 0 -9 -8 -9 -17 0 -10 7 -27 15 -37 10 -13 28
-20 52 -20 36 -1 38 -2 45 -46 4 -24 4 -48 0 -52 -4 -4 -23 -4 -41 2 -23 6
-38 6 -52 -3 -10 -6 -19 -17 -19 -24 0 -8 12 -13 29 -13 20 0 30 -6 34 -19 3
-14 13 -18 43 -16 32 2 39 6 39 24 0 12 6 26 14 30 9 6 12 18 7 37 -4 16 -9
44 -12 62 -5 28 -3 32 15 32 12 0 24 7 28 16 3 8 0 26 -7 40 -8 13 -22 24 -32
24z"/>
<path d="M64 360 c-8 0 -14 -9 -14 -20 0 -10 6 -23 13 -27 6 -4 13 -17 14 -28
2 -11 6 -38 9 -60 4 -22 15 -48 25 -58 11 -10 19 -22 19 -27 0 -6 13 -10 29
-10 17 0 33 -5 37 -12 5 -8 10 -6 19 5 6 8 28 18 48 22 29 6 37 4 37 -8 0 -8
7 -18 17 -21 11 -5 30 7 60 39 25 25 52 45 62 45 10 0 28 11 40 24 13 14 20
29 17 34 -3 5 -19 12 -36 16 -19 3 -42 0 -58 -8 -15 -8 -38 -26 -51 -40 -14
-14 -34 -26 -46 -26 -11 0 -25 -4 -30 -9 -6 -5 -29 -11 -53 -14 -29 -4 -47 -1
-57 9 -8 8 -19 31 -25 52 -5 20 -10 42 -10 49 0 6 -12 25 -26 42 -14 17 -32
31 -40 31z"/>
<path d="M322 100 c-5 0 -13 -5 -20 -12 -7 -7 -12 -16 -12 -21 0 -5 9 -22 21
-38 18 -26 26 -29 72 -29 51 0 51 0 29 20 -12 11 -28 20 -36 20 -9 0 -22 14
-31 30 -9 17 -19 30 -23 30z"/>
</g>
</svg>
