<?xml version="1.0" standalone="no"?>
<!DOCTYPE svg PUBLIC "-//W3C//DTD SVG 20010904//EN"
 "http://www.w3.org/TR/2001/REC-SVG-20010904/DTD/svg10.dtd">
<svg version="1.0" xmlns="http://www.w3.org/2000/svg"
 width="56.000000pt" height="56.000000pt" viewBox="0 0 56.000000 56.000000"
 preserveAspectRatio="xMidYMid meet">
<metadata>
Created by potrace 1.16, written by Peter Selinger 2001-2019
</metadata>
<g transform="translate(0.000000,56.000000) scale(0.100000,-0.100000)"
fill="#000000" stroke="none">
<path d="M241 560 c-9 0 -12 -8 -8 -22 2 -13 8 -31 12 -42 7 -16 5 -18 -21
-14 -16 3 -37 9 -46 13 -13 5 -18 3 -18 -7 0 -8 8 -22 18 -31 10 -10 28 -17
41 -17 12 0 24 -7 27 -15 4 -8 -1 -31 -10 -50 -9 -19 -23 -35 -30 -35 -8 0
-19 7 -26 15 -7 8 -21 15 -31 15 -10 0 -21 -4 -24 -10 -3 -5 0 -20 7 -32 6
-13 17 -54 23 -93 11 -70 11 -70 43 -67 25 2 32 -2 32 -16 0 -10 11 -29 25
-42 14 -13 25 -28 25 -32 0 -5 -12 -25 -26 -44 -26 -34 -26 -34 8 -34 25 0 42
8 66 33 18 18 32 41 32 50 0 11 -15 23 -40 33 -22 9 -40 23 -40 31 0 9 9 32
21 52 11 20 43 54 70 75 35 28 49 46 47 60 -2 12 -11 22 -20 24 -10 2 -44 -24
-86 -67 -38 -39 -76 -71 -84 -71 -8 0 -20 11 -26 25 -10 21 -9 28 6 40 9 8 25
20 35 28 12 8 22 36 29 85 11 70 12 72 40 72 18 0 28 5 28 15 0 8 -8 15 -19
15 -10 0 -29 13 -42 30 -13 16 -30 30 -38 30z"/>
</g>
</svg>
