<?xml version="1.0" standalone="no"?>
<!DOCTYPE svg PUBLIC "-//W3C//DTD SVG 20010904//EN"
 "http://www.w3.org/TR/2001/REC-SVG-20010904/DTD/svg10.dtd">
<svg version="1.0" xmlns="http://www.w3.org/2000/svg"
 width="56.000000pt" height="56.000000pt" viewBox="0 0 56.000000 56.000000"
 preserveAspectRatio="xMidYMid meet">
<metadata>
Created by potrace 1.16, written by Peter Selinger 2001-2019
</metadata>
<g transform="translate(0.000000,56.000000) scale(0.100000,-0.100000)"
fill="#000000" stroke="none">
<path d="M293 560 c-23 0 -43 -4 -43 -10 0 -5 6 -10 14 -10 8 0 22 -14 30 -32
9 -17 16 -39 16 -48 0 -9 -11 -22 -25 -28 -14 -7 -64 -12 -110 -12 -46 0 -86
-4 -90 -9 -3 -6 4 -15 16 -21 13 -7 40 -9 72 -5 29 4 69 12 90 18 30 8 40 8
46 -2 5 -7 6 -23 3 -37 -2 -13 -10 -24 -16 -24 -7 0 -17 5 -23 11 -6 6 -23 9
-38 7 -16 -2 -37 -14 -47 -29 -18 -24 -19 -30 -6 -67 8 -23 27 -51 42 -63 24
-19 33 -21 57 -12 25 10 29 9 30 -5 0 -10 0 -44 -1 -77 -1 -33 -6 -64 -11 -69
-5 -6 -9 -16 -9 -23 0 -7 10 -13 23 -13 18 0 26 8 34 33 5 18 11 63 12 100 1
42 -3 74 -10 83 -8 10 -9 31 -5 67 4 28 8 68 9 87 2 34 3 35 50 41 27 3 53 12
58 20 5 7 8 21 6 29 -1 8 -11 14 -22 13 -11 -1 -35 -5 -52 -9 -30 -6 -33 -4
-33 19 0 15 -5 38 -12 52 -9 21 -18 25 -55 25z m-48 -230 c7 0 18 -6 24 -13 6
-8 14 -28 17 -44 4 -19 1 -33 -6 -38 -6 -4 -22 -4 -36 -1 -20 5 -24 12 -24 45
0 21 3 41 7 44 3 4 12 7 18 7z"/>
</g>
</svg>
