<?xml version="1.0" standalone="no"?>
<!DOCTYPE svg PUBLIC "-//W3C//DTD SVG 20010904//EN"
 "http://www.w3.org/TR/2001/REC-SVG-20010904/DTD/svg10.dtd">
<svg version="1.0" xmlns="http://www.w3.org/2000/svg"
 width="56.000000pt" height="56.000000pt" viewBox="0 0 56.000000 56.000000"
 preserveAspectRatio="xMidYMid meet">
<metadata>
Created by potrace 1.16, written by Peter Selinger 2001-2019
</metadata>
<g transform="translate(0.000000,56.000000) scale(0.100000,-0.100000)"
fill="#000000" stroke="none">
<path d="M274 560 c-13 0 -15 -7 -10 -31 6 -31 5 -31 -26 -25 -17 3 -40 13
-49 22 -10 9 -22 13 -28 10 -6 -4 2 -24 19 -50 17 -24 39 -46 51 -49 15 -4 20
-12 17 -29 -2 -19 -11 -24 -49 -29 -26 -4 -57 -12 -69 -19 -21 -12 -22 -17
-17 -93 4 -63 10 -84 24 -95 10 -7 25 -11 33 -9 8 3 22 8 32 12 14 6 16 0 11
-52 -5 -52 -3 -62 18 -86 18 -21 36 -29 77 -34 37 -4 52 -2 52 6 0 7 -5 21
-10 32 -6 10 -16 19 -23 19 -7 0 -25 6 -40 13 -22 10 -27 18 -27 51 0 29 8 47
32 75 17 20 41 41 52 48 12 7 28 15 36 18 8 3 26 12 40 18 14 7 26 21 28 30 2
10 -2 24 -8 32 -7 8 -21 15 -31 15 -11 0 -52 -21 -92 -47 -39 -27 -76 -54 -82
-60 -5 -7 -24 -15 -41 -19 -31 -6 -32 -5 -38 38 -4 25 -3 54 1 66 8 21 8 21
51 -1 33 -16 47 -19 60 -11 12 8 18 28 20 72 2 51 7 63 27 76 14 9 25 25 25
36 0 13 -9 22 -25 26 -14 3 -25 10 -25 15 0 5 -7 9 -16 9z"/>
</g>
</svg>
