<?xml version="1.0" standalone="no"?>
<!DOCTYPE svg PUBLIC "-//W3C//DTD SVG 20010904//EN"
 "http://www.w3.org/TR/2001/REC-SVG-20010904/DTD/svg10.dtd">
<svg version="1.0" xmlns="http://www.w3.org/2000/svg"
 width="56.000000pt" height="56.000000pt" viewBox="0 0 56.000000 56.000000"
 preserveAspectRatio="xMidYMid meet">
<metadata>
Created by potrace 1.16, written by Peter Selinger 2001-2019
</metadata>
<g transform="translate(0.000000,56.000000) scale(0.100000,-0.100000)"
fill="#000000" stroke="none">
<path d="M140 560 c-28 0 -50 -5 -50 -11 0 -5 -9 -30 -20 -55 -11 -24 -23 -56
-25 -72 -3 -15 -7 -67 -9 -117 -2 -50 0 -115 6 -145 5 -30 19 -79 31 -107 15
-35 28 -53 40 -53 14 0 17 10 17 68 0 37 6 85 13 108 6 22 41 86 77 142 35 56
71 104 78 107 10 4 12 0 7 -12 -4 -10 -9 -33 -12 -50 -4 -25 0 -41 21 -67 14
-19 26 -38 26 -41 0 -4 -9 -20 -20 -35 -14 -20 -19 -37 -14 -54 3 -14 23 -40
44 -58 22 -18 52 -43 69 -56 16 -12 35 -22 43 -22 8 0 27 14 43 30 25 27 27
32 14 45 -8 8 -41 25 -74 39 -40 16 -61 30 -63 43 -2 10 9 29 23 43 14 13 25
29 25 35 0 6 -20 31 -45 55 -25 24 -45 51 -45 60 0 9 23 33 50 53 27 21 50 44
50 52 0 8 -8 18 -17 23 -10 6 -32 13 -50 16 -30 7 -34 4 -92 -71 -33 -43 -87
-108 -118 -145 -32 -37 -64 -67 -70 -68 -7 0 -13 4 -13 8 0 5 9 44 20 87 11
43 20 84 20 91 0 8 16 38 35 68 19 30 35 58 35 61 0 3 -22 5 -50 5z"/>
</g>
</svg>
