<?xml version="1.0" standalone="no"?>
<!DOCTYPE svg PUBLIC "-//W3C//DTD SVG 20010904//EN"
 "http://www.w3.org/TR/2001/REC-SVG-20010904/DTD/svg10.dtd">
<svg version="1.0" xmlns="http://www.w3.org/2000/svg"
 width="56.000000pt" height="56.000000pt" viewBox="0 0 56.000000 56.000000"
 preserveAspectRatio="xMidYMid meet">
<metadata>
Created by potrace 1.16, written by Peter Selinger 2001-2019
</metadata>
<g transform="translate(0.000000,56.000000) scale(0.100000,-0.100000)"
fill="#000000" stroke="none">
<path d="M206 560 c-29 0 -36 -4 -36 -20 0 -11 10 -40 22 -66 23 -45 23 -46 3
-57 -11 -6 -32 -23 -47 -38 -23 -22 -27 -34 -24 -66 2 -22 13 -57 25 -79 12
-21 27 -47 33 -56 9 -13 9 -22 -1 -42 -12 -22 -12 -28 3 -48 9 -13 26 -38 39
-55 17 -26 29 -33 55 -33 30 0 33 2 26 23 -4 12 -20 41 -36 64 -20 26 -28 48
-24 60 3 11 21 33 39 49 17 17 52 39 77 49 25 10 51 24 57 30 10 8 10 15 -3
33 -10 14 -26 22 -44 22 -22 0 -38 -11 -71 -50 -23 -28 -50 -50 -59 -50 -10 0
-26 18 -39 44 -13 24 -21 52 -19 62 2 11 17 22 40 29 20 5 39 13 42 16 3 3 2
28 -3 54 -5 29 -5 58 0 73 6 17 5 27 -5 38 -8 8 -31 14 -50 14z"/>
</g>
</svg>
