<?xml version="1.0" standalone="no"?>
<!DOCTYPE svg PUBLIC "-//W3C//DTD SVG 20010904//EN"
 "http://www.w3.org/TR/2001/REC-SVG-20010904/DTD/svg10.dtd">
<svg version="1.0" xmlns="http://www.w3.org/2000/svg"
 width="56.000000pt" height="56.000000pt" viewBox="0 0 56.000000 56.000000"
 preserveAspectRatio="xMidYMid meet">
<metadata>
Created by potrace 1.16, written by Peter Selinger 2001-2019
</metadata>
<g transform="translate(0.000000,56.000000) scale(0.100000,-0.100000)"
fill="#000000" stroke="none">
<path d="M190 560 c-11 0 -20 -4 -20 -9 0 -5 6 -20 13 -34 8 -14 28 -40 45
-58 24 -24 31 -40 30 -67 -1 -35 -1 -35 -96 -29 -52 3 -105 2 -117 -3 -23 -9
-23 -9 3 -60 14 -28 42 -69 60 -91 22 -25 42 -39 58 -39 13 0 24 -6 25 -12 0
-7 0 -31 -1 -54 -1 -37 2 -43 41 -69 33 -22 58 -29 111 -33 39 -3 68 -1 68 5
0 5 -6 17 -12 26 -7 9 -29 19 -48 21 -19 3 -50 5 -67 5 -26 1 -36 7 -48 31
-11 21 -14 42 -9 66 6 32 13 39 68 64 33 15 76 34 94 41 17 8 32 17 32 21 0 5
13 8 28 8 18 0 37 9 50 25 12 14 22 32 22 40 0 11 -10 14 -42 11 -23 -2 -44
-9 -46 -15 -2 -6 -9 -11 -16 -11 -7 0 -21 -9 -31 -20 -10 -11 -23 -20 -30 -20
-7 0 -20 -9 -30 -20 -10 -11 -26 -20 -37 -20 -10 0 -18 -4 -18 -8 0 -4 -20
-13 -45 -20 -25 -7 -53 -12 -63 -12 -10 0 -26 17 -40 42 -12 24 -22 49 -22 56
0 8 16 12 48 12 29 0 59 -8 80 -20 18 -11 37 -18 41 -15 5 2 10 29 13 58 3 34
12 64 27 84 23 31 23 31 0 77 -12 25 -27 46 -32 46 -5 0 -7 -13 -5 -30 3 -20
0 -31 -11 -35 -10 -4 -23 2 -33 15 -10 12 -18 28 -18 36 0 8 -9 14 -20 14z"/>
</g>
</svg>
