<?xml version="1.0" standalone="no"?>
<!DOCTYPE svg PUBLIC "-//W3C//DTD SVG 20010904//EN"
 "http://www.w3.org/TR/2001/REC-SVG-20010904/DTD/svg10.dtd">
<svg version="1.0" xmlns="http://www.w3.org/2000/svg"
 width="56.000000pt" height="56.000000pt" viewBox="0 0 56.000000 56.000000"
 preserveAspectRatio="xMidYMid meet">
<metadata>
Created by potrace 1.16, written by Peter Selinger 2001-2019
</metadata>
<g transform="translate(0.000000,56.000000) scale(0.100000,-0.100000)"
fill="#000000" stroke="none">
<path d="M385 460 c0 -1 -8 -7 -17 -14 -10 -7 -18 -25 -18 -39 0 -14 -7 -28
-17 -33 -10 -4 -45 -11 -78 -15 -33 -4 -78 -12 -100 -19 -22 -7 -66 -15 -98
-17 -31 -3 -57 -10 -57 -15 0 -6 8 -17 18 -24 9 -7 33 -14 52 -14 20 0 40 4
45 8 6 5 30 14 55 21 25 7 54 17 65 21 11 5 41 11 68 15 47 6 47 6 47 -34 0
-33 -4 -40 -22 -43 -13 -2 -25 -14 -31 -31 -7 -21 -4 -37 13 -72 12 -25 31
-50 42 -56 11 -6 26 -8 34 -5 8 3 14 16 14 29 0 13 -4 27 -9 32 -6 6 -7 44 -4
88 5 71 8 77 25 71 14 -4 21 0 25 16 5 20 11 22 52 17 25 -2 52 -3 59 0 6 3
12 12 12 22 0 11 -19 26 -52 41 -29 13 -69 30 -88 37 -19 7 -35 13 -35 13z
m28 -50 c12 -1 33 -7 46 -14 24 -13 24 -13 -13 -20 -20 -4 -41 -4 -46 -1 -6 3
-10 13 -10 21 0 8 9 14 23 14z"/>
</g>
</svg>
