<?xml version="1.0" standalone="no"?>
<!DOCTYPE svg PUBLIC "-//W3C//DTD SVG 20010904//EN"
 "http://www.w3.org/TR/2001/REC-SVG-20010904/DTD/svg10.dtd">
<svg version="1.0" xmlns="http://www.w3.org/2000/svg"
 width="56.000000pt" height="56.000000pt" viewBox="0 0 56.000000 56.000000"
 preserveAspectRatio="xMidYMid meet">
<metadata>
Created by potrace 1.16, written by Peter Selinger 2001-2019
</metadata>
<g transform="translate(0.000000,56.000000) scale(0.100000,-0.100000)"
fill="#000000" stroke="none">
<path d="M285 560 c-14 0 -25 -4 -25 -10 0 -5 11 -10 25 -10 14 0 25 5 25 10
0 6 -11 10 -25 10z"/>
<path d="M389 560 c-30 0 -39 -4 -39 -17 0 -10 -5 -34 -10 -54 -8 -28 -19 -40
-48 -52 -20 -9 -79 -21 -130 -26 -52 -5 -102 -7 -112 -4 -10 3 -21 -1 -26 -8
-5 -8 5 -23 27 -42 31 -26 39 -28 88 -23 29 2 60 11 70 19 9 8 40 18 69 22 52
7 52 7 52 -37 0 -24 -5 -49 -12 -56 -7 -7 -18 -12 -26 -12 -7 0 -33 -14 -58
-30 -30 -21 -44 -38 -44 -54 0 -12 9 -31 21 -42 11 -10 36 -35 55 -54 19 -19
32 -41 29 -47 -3 -7 -8 -20 -11 -29 -6 -13 1 -15 37 -12 44 3 44 3 56 58 7 30
13 96 13 145 1 50 1 106 1 125 0 19 7 42 16 52 8 9 35 20 59 24 29 4 48 13 55
26 5 10 7 27 4 38 -3 11 -24 25 -48 33 -30 10 -43 20 -45 35 -3 18 -10 22 -43
22z"/>
</g>
</svg>
