<?xml version="1.0" standalone="no"?>
<!DOCTYPE svg PUBLIC "-//W3C//DTD SVG 20010904//EN"
 "http://www.w3.org/TR/2001/REC-SVG-20010904/DTD/svg10.dtd">
<svg version="1.0" xmlns="http://www.w3.org/2000/svg"
 width="56.000000pt" height="56.000000pt" viewBox="0 0 56.000000 56.000000"
 preserveAspectRatio="xMidYMid meet">
<metadata>
Created by potrace 1.16, written by Peter Selinger 2001-2019
</metadata>
<g transform="translate(0.000000,56.000000) scale(0.100000,-0.100000)"
fill="#000000" stroke="none">
<path d="M223 559 c-30 0 -43 -7 -62 -31 -14 -17 -38 -38 -54 -48 -16 -10 -35
-30 -43 -45 -9 -17 -14 -59 -14 -109 0 -44 -5 -98 -9 -120 -5 -21 -13 -76 -16
-122 -7 -74 -5 -84 9 -84 9 0 22 4 29 10 7 5 27 22 46 37 19 15 56 62 82 103
26 41 59 89 72 105 13 17 32 45 41 63 9 17 20 32 25 32 4 0 20 -13 34 -30 16
-18 27 -42 27 -59 0 -17 -5 -41 -11 -54 -9 -20 -8 -30 7 -53 10 -16 36 -51 58
-77 31 -38 45 -47 65 -45 18 2 27 10 29 26 2 13 -4 32 -14 43 -9 10 -22 19
-29 19 -6 0 -26 16 -45 35 -35 36 -35 36 -12 78 12 23 22 49 22 58 0 8 -20 30
-45 48 -25 18 -45 37 -45 43 0 6 23 35 51 65 30 31 49 60 47 71 -2 12 -13 17
-38 17 -31 0 -39 -6 -68 -50 -18 -27 -51 -70 -72 -95 -22 -25 -61 -79 -88
-120 -26 -41 -51 -83 -54 -92 -4 -9 -19 -35 -33 -58 -17 -27 -30 -39 -36 -33
-6 6 -6 26 0 54 6 24 11 94 11 154 1 110 1 110 85 179 47 38 85 73 85 77 0 5
-17 9 -37 8z"/>
</g>
</svg>
