<?xml version="1.0" standalone="no"?>
<!DOCTYPE svg PUBLIC "-//W3C//DTD SVG 20010904//EN"
 "http://www.w3.org/TR/2001/REC-SVG-20010904/DTD/svg10.dtd">
<svg version="1.0" xmlns="http://www.w3.org/2000/svg"
 width="56.000000pt" height="56.000000pt" viewBox="0 0 56.000000 56.000000"
 preserveAspectRatio="xMidYMid meet">
<metadata>
Created by potrace 1.16, written by Peter Selinger 2001-2019
</metadata>
<g transform="translate(0.000000,56.000000) scale(0.100000,-0.100000)"
fill="#000000" stroke="none">
<path d="M260 560 c-4 0 -11 -7 -14 -16 -3 -9 -6 -31 -6 -50 0 -25 -4 -34 -17
-34 -9 0 -27 9 -39 21 -12 12 -27 18 -32 15 -6 -3 -8 -16 -5 -29 3 -12 15 -30
27 -39 11 -10 33 -18 47 -18 25 0 26 -2 20 -32 -5 -24 -12 -32 -25 -30 -9 2
-32 -2 -49 -7 -21 -7 -37 -22 -46 -41 -7 -18 -11 -48 -8 -73 3 -23 11 -64 19
-92 7 -27 17 -55 21 -62 5 -9 15 -9 32 -3 22 9 27 6 45 -30 14 -27 27 -40 41
-40 18 0 20 4 13 27 -4 16 -8 46 -9 68 0 22 -4 46 -8 53 -5 6 -5 17 -2 22 4 6
15 8 25 5 13 -4 26 5 47 34 15 22 33 41 40 41 7 0 24 5 38 12 15 7 25 19 25
33 0 14 -10 26 -26 34 -23 10 -30 8 -58 -12 -17 -14 -49 -42 -71 -63 -22 -22
-51 -54 -64 -72 -13 -18 -28 -31 -34 -29 -7 2 -15 21 -19 43 -3 21 -2 56 5 77
10 38 11 38 56 35 42 -2 47 0 60 26 10 21 10 34 3 51 -9 20 -6 27 29 55 22 17
38 37 36 43 -2 7 -19 12 -38 12 -29 0 -34 4 -43 33 -5 17 -12 32 -16 32z"/>
</g>
</svg>
