<?xml version="1.0" standalone="no"?>
<!DOCTYPE svg PUBLIC "-//W3C//DTD SVG 20010904//EN"
 "http://www.w3.org/TR/2001/REC-SVG-20010904/DTD/svg10.dtd">
<svg version="1.0" xmlns="http://www.w3.org/2000/svg"
 width="56.000000pt" height="56.000000pt" viewBox="0 0 56.000000 56.000000"
 preserveAspectRatio="xMidYMid meet">
<metadata>
Created by potrace 1.16, written by Peter Selinger 2001-2019
</metadata>
<g transform="translate(0.000000,56.000000) scale(0.100000,-0.100000)"
fill="#000000" stroke="none">
<path d="M208 560 c-10 0 -18 -3 -18 -7 0 -5 7 -17 15 -27 8 -11 15 -26 15
-33 0 -7 -8 -13 -18 -13 -10 0 -23 5 -29 11 -8 8 -13 8 -18 -1 -4 -6 -4 -17
-1 -25 3 -9 19 -15 41 -15 35 0 35 0 35 -53 0 -48 -2 -53 -27 -63 -23 -9 -31
-22 -47 -74 -13 -46 -16 -71 -9 -94 5 -18 15 -30 24 -29 8 0 30 4 49 8 35 8
35 8 3 -27 -23 -23 -33 -44 -33 -66 0 -27 4 -32 38 -41 20 -6 50 -11 65 -11
16 0 37 5 48 10 10 6 19 20 19 31 0 18 -6 20 -61 17 -40 -2 -63 1 -66 8 -2 7
23 38 56 70 34 33 75 70 92 84 21 18 28 30 24 43 -5 10 -18 17 -35 17 -15 0
-33 -7 -40 -15 -7 -8 -26 -21 -43 -30 -16 -8 -36 -15 -42 -15 -7 0 -18 -7 -25
-15 -7 -8 -17 -12 -22 -9 -6 4 -7 20 -4 36 3 16 18 39 32 52 23 19 28 33 33
92 5 62 8 69 29 72 12 2 22 10 22 17 0 8 -9 16 -19 20 -10 3 -29 21 -42 40
-13 19 -32 35 -41 35z"/>
</g>
</svg>
