<?xml version="1.0" standalone="no"?>
<!DOCTYPE svg PUBLIC "-//W3C//DTD SVG 20010904//EN"
 "http://www.w3.org/TR/2001/REC-SVG-20010904/DTD/svg10.dtd">
<svg version="1.0" xmlns="http://www.w3.org/2000/svg"
 width="56.000000pt" height="56.000000pt" viewBox="0 0 56.000000 56.000000"
 preserveAspectRatio="xMidYMid meet">
<metadata>
Created by potrace 1.16, written by Peter Selinger 2001-2019
</metadata>
<g transform="translate(0.000000,56.000000) scale(0.100000,-0.100000)"
fill="#000000" stroke="none">
<path d="M294 540 c-16 0 -23 -8 -27 -30 -6 -28 -9 -30 -52 -30 -25 0 -45 -4
-45 -10 0 -5 9 -14 21 -20 11 -7 27 -9 35 -6 8 3 21 3 29 0 8 -4 15 -14 15
-23 0 -9 -4 -22 -9 -30 -6 -9 -31 -14 -77 -15 -69 -1 -69 -1 -66 -49 2 -26 -2
-71 -8 -98 -11 -45 -10 -52 6 -70 15 -16 25 -19 57 -13 40 6 40 6 35 -39 -5
-39 -2 -49 19 -69 18 -17 41 -24 96 -29 53 -5 79 -3 100 7 15 8 27 23 27 34 0
10 -4 21 -9 24 -4 3 -39 2 -77 -3 -40 -5 -76 -5 -86 1 -10 5 -18 17 -18 27 0
9 10 26 23 37 12 11 40 31 62 45 22 14 53 34 68 43 21 13 27 24 25 43 -2 14
-10 30 -19 36 -10 7 -28 3 -59 -12 -24 -11 -50 -21 -58 -21 -8 0 -29 -9 -47
-20 -18 -11 -40 -18 -48 -14 -9 3 -17 22 -19 47 -3 23 -3 44 -1 47 2 2 25 -3
50 -12 44 -16 47 -16 60 0 7 9 13 40 13 68 0 44 3 52 25 62 15 7 25 20 25 33
0 11 -10 29 -22 40 -13 10 -33 18 -44 19z"/>
</g>
</svg>
