<?xml version="1.0" standalone="no"?>
<!DOCTYPE svg PUBLIC "-//W3C//DTD SVG 20010904//EN"
 "http://www.w3.org/TR/2001/REC-SVG-20010904/DTD/svg10.dtd">
<svg version="1.0" xmlns="http://www.w3.org/2000/svg"
 width="56.000000pt" height="56.000000pt" viewBox="0 0 56.000000 56.000000"
 preserveAspectRatio="xMidYMid meet">
<metadata>
Created by potrace 1.16, written by Peter Selinger 2001-2019
</metadata>
<g transform="translate(0.000000,56.000000) scale(0.100000,-0.100000)"
fill="#000000" stroke="none">
<path d="M278 529 c-7 0 -20 -3 -28 -6 -8 -4 -24 -18 -35 -32 -10 -14 -45 -53
-76 -86 -31 -33 -74 -91 -94 -130 -33 -63 -37 -76 -33 -131 2 -35 11 -72 21
-88 15 -22 25 -26 65 -26 26 0 52 4 58 8 7 4 25 28 40 53 16 26 52 76 79 113
28 36 54 66 58 66 4 0 18 -7 31 -15 22 -15 24 -21 19 -75 -6 -58 -6 -58 43
-89 27 -17 54 -31 61 -31 7 0 17 8 23 18 8 12 13 13 16 5 3 -7 12 -13 20 -13
8 0 14 7 14 15 0 8 -7 15 -15 15 -8 0 -19 9 -25 19 -5 11 -26 25 -45 32 -19 7
-35 18 -35 25 0 7 8 25 17 42 9 16 14 36 10 45 -3 9 -24 24 -47 33 -25 10 -40
23 -40 33 0 10 12 28 26 42 14 13 35 41 46 62 19 37 19 40 2 58 -10 11 -27 19
-38 17 -13 -2 -31 -26 -54 -72 -20 -38 -61 -96 -92 -130 -31 -33 -79 -91 -108
-127 -28 -36 -58 -71 -66 -78 -12 -10 -17 -8 -26 9 -7 13 -9 37 -5 60 4 26 26
64 63 112 32 40 69 91 83 113 14 22 40 55 58 74 18 19 30 40 27 48 -3 7 -11
13 -18 12z"/>
</g>
</svg>
