<?xml version="1.0" standalone="no"?>
<!DOCTYPE svg PUBLIC "-//W3C//DTD SVG 20010904//EN"
 "http://www.w3.org/TR/2001/REC-SVG-20010904/DTD/svg10.dtd">
<svg version="1.0" xmlns="http://www.w3.org/2000/svg"
 width="56.000000pt" height="56.000000pt" viewBox="0 0 56.000000 56.000000"
 preserveAspectRatio="xMidYMid meet">
<metadata>
Created by potrace 1.16, written by Peter Selinger 2001-2019
</metadata>
<g transform="translate(0.000000,56.000000) scale(0.100000,-0.100000)"
fill="#000000" stroke="none">
<path d="M236 560 c-32 0 -36 -3 -42 -34 -3 -19 -2 -42 3 -51 7 -11 4 -35 -9
-72 -10 -31 -18 -73 -18 -94 0 -28 8 -48 28 -71 26 -30 27 -35 15 -58 -7 -14
-13 -34 -13 -45 0 -11 7 -31 16 -43 8 -12 29 -29 46 -38 22 -11 29 -21 25 -35
-4 -16 0 -19 27 -19 19 0 40 8 49 18 10 10 17 25 17 34 0 8 -8 22 -18 31 -10
10 -31 17 -46 17 -15 0 -38 7 -51 16 -15 10 -25 26 -25 40 0 13 16 39 37 61
21 21 51 47 67 59 18 12 27 25 22 32 -4 7 -20 12 -35 12 -15 0 -36 -9 -46 -20
-10 -11 -27 -20 -37 -20 -11 0 -23 11 -28 26 -6 14 -8 29 -5 34 3 4 13 6 23 3
10 -2 24 3 32 11 8 10 11 31 7 56 -3 28 -1 45 9 54 8 8 14 19 14 25 0 6 -9 15
-20 21 -15 8 -19 17 -15 31 5 16 1 19 -29 19z"/>
</g>
</svg>
