<?xml version="1.0" standalone="no"?>
<!DOCTYPE svg PUBLIC "-//W3C//DTD SVG 20010904//EN"
 "http://www.w3.org/TR/2001/REC-SVG-20010904/DTD/svg10.dtd">
<svg version="1.0" xmlns="http://www.w3.org/2000/svg"
 width="56.000000pt" height="56.000000pt" viewBox="0 0 56.000000 56.000000"
 preserveAspectRatio="xMidYMid meet">
<metadata>
Created by potrace 1.16, written by Peter Selinger 2001-2019
</metadata>
<g transform="translate(0.000000,56.000000) scale(0.100000,-0.100000)"
fill="#000000" stroke="none">
<path d="M349 560 c-32 0 -39 -4 -39 -19 0 -15 -11 -22 -49 -30 -40 -8 -55 -7
-80 5 -17 8 -35 13 -41 9 -5 -3 -10 -9 -10 -13 0 -4 9 -18 19 -31 14 -18 30
-24 77 -28 32 -3 65 -9 72 -15 7 -6 12 -36 12 -75 0 -48 -6 -75 -22 -104 -21
-37 -21 -39 -3 -59 17 -19 17 -23 1 -87 -9 -38 -16 -78 -16 -90 0 -17 6 -23
23 -23 15 0 26 9 35 30 8 16 10 34 7 40 -4 6 1 20 11 31 16 18 18 39 16 188
-2 161 -1 169 18 174 14 4 20 13 20 35 0 17 -3 37 -6 46 -4 11 -19 16 -45 16z"/>
</g>
</svg>
