<?xml version="1.0" standalone="no"?>
<!DOCTYPE svg PUBLIC "-//W3C//DTD SVG 20010904//EN"
 "http://www.w3.org/TR/2001/REC-SVG-20010904/DTD/svg10.dtd">
<svg version="1.0" xmlns="http://www.w3.org/2000/svg"
 width="56.000000pt" height="56.000000pt" viewBox="0 0 56.000000 56.000000"
 preserveAspectRatio="xMidYMid meet">
<metadata>
Created by potrace 1.16, written by Peter Selinger 2001-2019
</metadata>
<g transform="translate(0.000000,56.000000) scale(0.100000,-0.100000)"
fill="#000000" stroke="none">
<path d="M240 560 c-11 0 -20 -4 -20 -9 0 -5 6 -11 14 -14 8 -3 17 -3 20 0 3
4 6 10 6 15 0 4 -9 8 -20 8z"/>
<path d="M321 540 c-9 0 -27 -10 -39 -22 -22 -22 -24 -22 -51 -7 -21 12 -32
14 -40 6 -6 -6 -11 -19 -11 -29 0 -14 8 -18 33 -18 17 0 37 -4 43 -8 6 -4 11
-24 12 -45 1 -24 -4 -40 -12 -43 -8 -3 -29 2 -48 12 -18 9 -43 28 -56 41 -12
14 -28 23 -35 20 -6 -2 -12 -12 -13 -23 0 -10 -4 -27 -8 -36 -4 -9 -5 -22 -1
-28 3 -5 13 -10 22 -10 8 0 17 9 20 20 5 18 9 16 56 -19 44 -34 54 -38 78 -29
15 5 33 16 40 24 9 11 9 21 1 39 -9 19 -9 31 0 50 6 14 17 25 24 25 6 0 15 12
18 26 4 15 2 32 -5 40 -6 8 -19 14 -28 14z"/>
<path d="M150 330 c-8 4 -25 3 -37 -3 -14 -6 -23 -19 -23 -32 0 -12 7 -36 16
-53 10 -22 23 -32 38 -32 21 0 22 4 21 56 0 38 -5 58 -15 64z"/>
<path d="M392 340 c-9 0 -26 -7 -37 -16 -11 -8 -37 -20 -57 -26 -29 -9 -44
-21 -63 -56 -14 -24 -25 -53 -25 -63 0 -10 -5 -30 -12 -44 -10 -21 -8 -30 8
-53 11 -15 23 -35 27 -45 6 -16 8 -16 29 5 23 23 23 23 26 -9 2 -18 7 -33 11
-33 4 0 12 5 19 12 9 9 21 9 50 0 22 -7 54 -12 71 -12 26 0 32 4 29 17 -2 13
-14 19 -40 21 -20 2 -42 10 -48 18 -7 8 -30 14 -51 14 -22 0 -47 7 -58 16 -11
10 -17 23 -14 30 2 7 -2 25 -10 41 -14 27 -14 30 14 63 15 19 29 29 29 23 0
-8 13 -13 31 -13 26 0 33 6 47 39 9 22 25 42 36 45 10 2 15 9 11 15 -3 6 -14
11 -23 11z"/>
</g>
</svg>
