<?xml version="1.0" standalone="no"?>
<!DOCTYPE svg PUBLIC "-//W3C//DTD SVG 20010904//EN"
 "http://www.w3.org/TR/2001/REC-SVG-20010904/DTD/svg10.dtd">
<svg version="1.0" xmlns="http://www.w3.org/2000/svg"
 width="56.000000pt" height="56.000000pt" viewBox="0 0 56.000000 56.000000"
 preserveAspectRatio="xMidYMid meet">
<metadata>
Created by potrace 1.16, written by Peter Selinger 2001-2019
</metadata>
<g transform="translate(0.000000,56.000000) scale(0.100000,-0.100000)"
fill="#000000" stroke="none">
<path d="M279 560 c-16 0 -29 -5 -29 -11 0 -6 9 -13 20 -16 18 -5 20 -11 15
-47 -4 -28 -2 -47 8 -60 13 -18 12 -22 -14 -44 -16 -13 -29 -32 -29 -42 0 -10
-4 -22 -10 -25 -5 -3 -10 -17 -10 -30 0 -13 -4 -27 -10 -30 -5 -3 -10 -19 -10
-35 0 -16 5 -32 10 -35 6 -3 10 -15 10 -25 0 -10 5 -22 12 -26 6 -4 19 2 29
14 9 12 23 22 29 22 10 0 10 -3 1 -14 -8 -9 -8 -16 -2 -20 6 -4 15 3 21 15 6
11 9 27 6 35 -3 8 1 25 9 38 8 12 13 25 10 28 -3 3 3 22 15 42 11 20 20 49 20
64 0 18 -11 39 -30 57 -24 23 -30 37 -30 71 0 23 -3 49 -6 58 -4 10 -18 16
-35 16z m43 -170 c5 0 8 -19 8 -43 0 -24 -4 -47 -8 -52 -5 -6 -14 -29 -20 -51
-7 -23 -18 -47 -26 -53 -11 -10 -16 -8 -21 9 -4 12 -4 41 -1 65 4 23 19 61 34
84 14 22 30 41 34 41z"/>
</g>
</svg>
