<?xml version="1.0" standalone="no"?>
<!DOCTYPE svg PUBLIC "-//W3C//DTD SVG 20010904//EN"
 "http://www.w3.org/TR/2001/REC-SVG-20010904/DTD/svg10.dtd">
<svg version="1.0" xmlns="http://www.w3.org/2000/svg"
 width="56.000000pt" height="56.000000pt" viewBox="0 0 56.000000 56.000000"
 preserveAspectRatio="xMidYMid meet">
<metadata>
Created by potrace 1.16, written by Peter Selinger 2001-2019
</metadata>
<g transform="translate(0.000000,56.000000) scale(0.100000,-0.100000)"
fill="#000000" stroke="none">
<path d="M184 560 c-12 0 -14 -9 -12 -37 2 -30 9 -41 31 -51 23 -11 27 -19 27
-53 0 -30 -4 -39 -17 -39 -10 0 -29 -9 -42 -19 -20 -15 -24 -27 -24 -73 0 -31
4 -61 8 -68 4 -6 18 -10 31 -7 15 3 24 0 24 -9 0 -7 -4 -16 -10 -19 -5 -3 -10
-19 -10 -36 0 -16 9 -38 20 -49 11 -11 20 -26 20 -33 0 -7 18 -23 39 -35 21
-12 60 -25 85 -28 38 -6 46 -4 46 9 0 9 -13 23 -30 32 -16 8 -38 15 -48 15
-11 0 -32 7 -48 15 -15 8 -33 24 -40 37 -10 19 -9 29 7 59 10 21 35 51 56 68
21 17 47 31 59 31 11 0 28 8 37 18 10 10 14 22 10 25 -3 4 -16 7 -28 7 -12 0
-48 -13 -81 -29 -32 -15 -69 -31 -81 -35 -12 -4 -24 -2 -28 3 -3 6 -1 30 6 53
11 42 11 43 26 21 9 -13 22 -23 29 -23 8 0 14 6 15 13 0 6 3 43 5 81 2 37 9
77 15 88 6 11 8 26 5 34 -3 8 -12 14 -19 14 -8 0 -20 -7 -27 -15 -7 -8 -19
-15 -26 -15 -8 0 -14 10 -14 25 0 16 -6 25 -16 25z"/>
</g>
</svg>
