<?xml version="1.0" standalone="no"?>
<!DOCTYPE svg PUBLIC "-//W3C//DTD SVG 20010904//EN"
 "http://www.w3.org/TR/2001/REC-SVG-20010904/DTD/svg10.dtd">
<svg version="1.0" xmlns="http://www.w3.org/2000/svg"
 width="56.000000pt" height="56.000000pt" viewBox="0 0 56.000000 56.000000"
 preserveAspectRatio="xMidYMid meet">
<metadata>
Created by potrace 1.16, written by Peter Selinger 2001-2019
</metadata>
<g transform="translate(0.000000,56.000000) scale(0.100000,-0.100000)"
fill="#000000" stroke="none">
<path d="M146 560 c-31 0 -56 -4 -56 -10 0 -5 8 -13 18 -18 9 -4 32 -6 51 -3
19 3 36 12 39 19 3 9 -12 12 -52 12z"/>
<path d="M241 560 c-22 0 -23 -2 -17 -46 4 -34 3 -43 -7 -37 -6 4 -43 9 -80
10 -59 2 -67 0 -57 -12 7 -8 25 -21 40 -29 17 -8 33 -10 41 -5 8 5 26 9 42 9
24 0 27 -3 27 -35 0 -35 0 -35 -46 -35 -28 0 -44 -4 -42 -11 2 -6 28 -19 58
-29 48 -16 57 -17 70 -4 12 12 12 21 2 59 -7 25 -12 52 -12 60 0 8 6 15 13 15
6 0 18 4 26 9 12 8 11 15 -10 45 -16 24 -32 36 -48 36z"/>
<path d="M107 380 c-7 0 -18 -5 -25 -12 -7 -7 -12 -25 -12 -42 0 -22 11 -40
45 -73 25 -24 55 -43 67 -43 20 0 20 -1 5 -18 -10 -10 -17 -33 -17 -51 0 -24
9 -40 38 -67 20 -19 57 -44 81 -54 24 -11 63 -20 86 -20 23 0 57 3 74 6 17 4
31 12 31 19 0 7 -16 16 -36 20 -20 3 -65 15 -100 26 -35 11 -77 31 -94 45 -20
18 -30 35 -30 54 0 18 8 35 22 44 12 9 30 16 39 16 8 0 48 16 89 35 71 35 72
36 55 55 -10 11 -25 20 -34 20 -9 0 -57 -20 -106 -45 -50 -24 -98 -45 -107
-45 -10 0 -26 10 -38 22 -14 15 -20 35 -20 65 0 29 -4 43 -13 43z"/>
</g>
</svg>
