<?xml version="1.0" standalone="no"?>
<!DOCTYPE svg PUBLIC "-//W3C//DTD SVG 20010904//EN"
 "http://www.w3.org/TR/2001/REC-SVG-20010904/DTD/svg10.dtd">
<svg version="1.0" xmlns="http://www.w3.org/2000/svg"
 width="56.000000pt" height="56.000000pt" viewBox="0 0 56.000000 56.000000"
 preserveAspectRatio="xMidYMid meet">
<metadata>
Created by potrace 1.16, written by Peter Selinger 2001-2019
</metadata>
<g transform="translate(0.000000,56.000000) scale(0.100000,-0.100000)"
fill="#000000" stroke="none">
<path d="M261 560 c-10 0 -22 -7 -25 -16 -3 -9 -6 -17 -6 -20 0 -2 14 -10 30
-19 23 -12 30 -22 30 -44 0 -24 -4 -28 -27 -29 -16 0 -55 -4 -88 -7 -33 -4
-66 -8 -73 -11 -10 -3 -10 -9 -2 -24 8 -15 21 -20 48 -20 20 1 57 6 82 13 25
7 50 15 56 19 6 4 35 6 65 4 30 -1 61 -6 67 -10 7 -4 19 -2 27 4 8 7 15 20 15
30 0 9 -9 25 -20 35 -14 13 -28 16 -55 11 -31 -6 -36 -4 -44 16 -5 13 -21 33
-35 46 -14 12 -35 22 -45 22z"/>
<path d="M295 370 c-7 0 -15 -6 -17 -12 -3 -7 -3 -19 -1 -25 3 -7 11 -13 18
-13 7 0 16 7 19 16 3 9 4 20 0 25 -3 5 -11 9 -19 9z"/>
<path d="M260 300 c-15 0 -39 -11 -55 -26 -27 -25 -27 -25 -7 -44 11 -11 32
-22 46 -26 14 -3 26 -13 26 -21 0 -8 -15 -42 -32 -76 -18 -34 -36 -64 -39 -67
-3 -3 -8 -13 -12 -22 -6 -16 0 -18 46 -17 44 0 49 2 30 11 -22 11 -22 11 6 52
16 23 34 61 40 83 6 23 8 61 5 85 -4 24 -11 49 -17 56 -5 6 -22 12 -37 12z"/>
</g>
</svg>
