<?xml version="1.0" standalone="no"?>
<!DOCTYPE svg PUBLIC "-//W3C//DTD SVG 20010904//EN"
 "http://www.w3.org/TR/2001/REC-SVG-20010904/DTD/svg10.dtd">
<svg version="1.0" xmlns="http://www.w3.org/2000/svg"
 width="56.000000pt" height="56.000000pt" viewBox="0 0 56.000000 56.000000"
 preserveAspectRatio="xMidYMid meet">
<metadata>
Created by potrace 1.16, written by Peter Selinger 2001-2019
</metadata>
<g transform="translate(0.000000,56.000000) scale(0.100000,-0.100000)"
fill="#000000" stroke="none">
<path d="M270 560 c-4 0 -11 -7 -14 -16 -3 -9 -4 -20 0 -25 3 -5 11 -9 18 -9
8 0 15 -19 19 -50 3 -28 4 -57 1 -64 -3 -8 -31 -24 -62 -36 -31 -12 -76 -30
-100 -41 -23 -10 -51 -19 -60 -19 -10 0 -23 -5 -30 -12 -7 -7 -12 -22 -12 -35
0 -12 9 -27 21 -34 18 -9 25 -7 48 14 14 13 60 41 100 61 41 20 81 34 88 32 8
-4 13 -24 13 -60 0 -30 -3 -61 -6 -70 -3 -9 -14 -16 -23 -16 -9 0 -31 -15 -49
-33 -18 -18 -32 -41 -32 -50 0 -9 16 -35 36 -57 25 -28 45 -40 63 -40 25 0 27
3 39 78 7 42 12 117 12 165 0 49 4 96 9 106 6 10 6 45 1 85 -7 59 -13 73 -40
97 -17 16 -35 29 -40 29z m-12 -432 c8 -2 20 -11 26 -20 8 -13 8 -23 0 -35 -6
-9 -16 -19 -22 -21 -7 -2 -16 8 -22 22 -5 14 -7 33 -3 41 3 9 12 15 21 13z"/>
<path d="M462 429 c-4 -1 -17 -4 -29 -6 -12 -2 -27 -11 -33 -18 -7 -8 -10 -21
-7 -29 3 -7 21 -16 40 -20 19 -4 46 -2 61 4 16 6 26 17 26 30 0 13 -10 24 -26
30 -14 6 -28 9 -32 9z"/>
</g>
</svg>
