<?xml version="1.0" standalone="no"?>
<!DOCTYPE svg PUBLIC "-//W3C//DTD SVG 20010904//EN"
 "http://www.w3.org/TR/2001/REC-SVG-20010904/DTD/svg10.dtd">
<svg version="1.0" xmlns="http://www.w3.org/2000/svg"
 width="56.000000pt" height="56.000000pt" viewBox="0 0 56.000000 56.000000"
 preserveAspectRatio="xMidYMid meet">
<metadata>
Created by potrace 1.16, written by Peter Selinger 2001-2019
</metadata>
<g transform="translate(0.000000,56.000000) scale(0.100000,-0.100000)"
fill="#000000" stroke="none">
<path d="M262 560 c-15 0 -32 -8 -38 -18 -7 -10 -9 -40 -6 -71 4 -44 1 -58
-18 -83 -18 -24 -22 -43 -21 -85 0 -30 9 -74 20 -97 16 -36 16 -45 5 -61 -8
-10 -14 -28 -14 -39 0 -11 7 -28 17 -38 15 -17 15 -20 -8 -44 -24 -25 -24 -25
31 -22 48 3 56 6 70 31 14 27 14 29 -12 51 -16 12 -28 26 -28 32 0 6 15 24 33
42 18 18 38 32 44 32 6 0 19 7 28 16 15 15 15 18 -1 35 -9 11 -27 19 -40 19
-13 0 -28 -9 -34 -20 -6 -11 -19 -20 -29 -20 -14 0 -19 10 -24 50 -3 28 -4 57
0 65 3 9 13 14 22 13 13 -3 17 8 19 57 2 32 8 65 14 72 6 7 7 28 4 48 -6 30
-11 35 -34 35z"/>
</g>
</svg>
