<?xml version="1.0" standalone="no"?>
<!DOCTYPE svg PUBLIC "-//W3C//DTD SVG 20010904//EN"
 "http://www.w3.org/TR/2001/REC-SVG-20010904/DTD/svg10.dtd">
<svg version="1.0" xmlns="http://www.w3.org/2000/svg"
 width="56.000000pt" height="56.000000pt" viewBox="0 0 56.000000 56.000000"
 preserveAspectRatio="xMidYMid meet">
<metadata>
Created by potrace 1.16, written by Peter Selinger 2001-2019
</metadata>
<g transform="translate(0.000000,56.000000) scale(0.100000,-0.100000)"
fill="#000000" stroke="none">
<path d="M258 540 c-4 0 -10 -4 -13 -10 -3 -5 -28 -10 -56 -10 -42 0 -49 -3
-49 -20 0 -10 9 -24 19 -30 11 -5 31 -10 45 -10 22 0 26 -5 26 -29 0 -24 -7
-33 -37 -48 -32 -15 -38 -23 -41 -55 -2 -24 5 -53 22 -85 13 -27 32 -55 40
-62 10 -8 16 -29 16 -55 0 -34 6 -47 31 -69 19 -16 29 -33 25 -42 -4 -11 2
-15 27 -15 18 0 40 7 49 14 10 7 18 22 18 33 0 11 -8 27 -17 35 -10 9 -28 19
-39 22 -12 4 -29 15 -39 26 -12 13 -15 27 -10 49 4 17 19 39 33 50 15 10 46
28 70 40 37 19 42 25 42 56 0 26 -5 35 -22 41 -18 5 -32 -4 -80 -55 -32 -33
-62 -61 -67 -61 -5 0 -19 12 -30 26 -12 15 -21 38 -21 52 0 23 3 24 34 19 24
-4 39 -1 47 9 8 9 9 31 5 64 -5 40 -4 50 8 50 8 0 18 5 22 12 4 6 -5 21 -22
35 -16 12 -32 23 -36 23z"/>
</g>
</svg>
