<?xml version="1.0" standalone="no"?>
<!DOCTYPE svg PUBLIC "-//W3C//DTD SVG 20010904//EN"
 "http://www.w3.org/TR/2001/REC-SVG-20010904/DTD/svg10.dtd">
<svg version="1.0" xmlns="http://www.w3.org/2000/svg"
 width="56.000000pt" height="56.000000pt" viewBox="0 0 56.000000 56.000000"
 preserveAspectRatio="xMidYMid meet">
<metadata>
Created by potrace 1.16, written by Peter Selinger 2001-2019
</metadata>
<g transform="translate(0.000000,56.000000) scale(0.100000,-0.100000)"
fill="#000000" stroke="none">
<path d="M305 560 c-8 0 -15 -7 -15 -15 0 -8 7 -15 15 -15 8 0 15 7 15 15 0 8
-7 15 -15 15z"/>
<path d="M274 534 c-10 4 -18 -4 -25 -22 -6 -15 -22 -39 -36 -54 -17 -17 -23
-33 -19 -44 4 -9 0 -24 -8 -33 -7 -9 -18 -43 -24 -76 -7 -43 -7 -70 2 -95 9
-29 16 -35 39 -35 15 1 27 -4 27 -10 0 -5 -9 -21 -20 -35 -11 -14 -20 -39 -20
-56 0 -16 5 -35 12 -42 7 -7 25 -12 40 -12 15 0 28 -4 28 -10 0 -5 11 -10 25
-10 17 0 25 6 25 16 0 9 -8 23 -18 30 -9 7 -27 14 -39 14 -13 0 -24 6 -24 13
-1 6 0 21 1 31 1 10 11 33 23 51 11 18 35 41 51 52 17 11 44 28 60 37 25 16
27 20 13 33 -9 9 -21 13 -29 9 -7 -3 -35 -20 -63 -36 -27 -16 -60 -29 -72 -30
-22 0 -23 4 -23 66 0 43 4 63 11 59 5 -4 14 -18 19 -31 5 -13 16 -24 24 -24 7
0 16 10 20 23 3 12 6 43 6 69 0 25 5 48 11 50 7 2 8 20 4 50 -4 26 -13 49 -21
52z m-52 -126 c7 -3 13 -10 13 -16 0 -7 -4 -12 -10 -13 -5 0 -12 7 -13 17 -3
10 1 15 10 12z"/>
</g>
</svg>
