<?xml version="1.0" standalone="no"?>
<!DOCTYPE svg PUBLIC "-//W3C//DTD SVG 20010904//EN"
 "http://www.w3.org/TR/2001/REC-SVG-20010904/DTD/svg10.dtd">
<svg version="1.0" xmlns="http://www.w3.org/2000/svg"
 width="56.000000pt" height="56.000000pt" viewBox="0 0 56.000000 56.000000"
 preserveAspectRatio="xMidYMid meet">
<metadata>
Created by potrace 1.16, written by Peter Selinger 2001-2019
</metadata>
<g transform="translate(0.000000,56.000000) scale(0.100000,-0.100000)"
fill="#000000" stroke="none">
<path d="M223 559 c-10 0 -29 -12 -43 -26 -14 -13 -49 -43 -78 -65 -44 -33
-53 -44 -50 -66 2 -15 10 -28 19 -30 10 -2 37 6 60 17 24 10 71 28 104 39 33
11 72 23 87 26 15 3 30 2 33 -4 3 -6 3 -19 0 -30 -4 -11 -13 -20 -20 -20 -8 0
-21 -10 -29 -22 -9 -12 -16 -39 -16 -59 0 -28 7 -44 30 -66 23 -21 30 -37 30
-65 0 -20 -4 -40 -10 -43 -5 -3 -10 -13 -10 -20 0 -8 -8 -25 -17 -37 -10 -12
-33 -37 -51 -55 -33 -33 -33 -33 -8 -33 16 0 37 12 55 30 15 17 37 49 49 73
11 23 25 58 31 77 6 19 9 62 6 94 -2 33 -6 80 -10 106 -5 37 -3 51 10 64 10 9
33 16 56 16 33 0 40 3 37 18 -2 9 -13 18 -25 20 -12 2 -33 17 -47 33 -14 16
-29 29 -35 29 -5 0 -12 -14 -16 -31 -4 -19 -16 -34 -32 -40 -13 -5 -35 -9 -49
-9 -13 0 -33 -4 -44 -10 -11 -5 -29 -14 -40 -20 -11 -5 -32 -10 -47 -10 -27 1
-26 3 30 53 31 29 57 56 57 60 0 4 -8 7 -17 6z m117 -209 c6 0 10 -14 10 -31
0 -17 -4 -28 -10 -24 -5 3 -10 17 -10 31 0 13 5 24 10 24z"/>
</g>
</svg>
