<?xml version="1.0" standalone="no"?>
<!DOCTYPE svg PUBLIC "-//W3C//DTD SVG 20010904//EN"
 "http://www.w3.org/TR/2001/REC-SVG-20010904/DTD/svg10.dtd">
<svg version="1.0" xmlns="http://www.w3.org/2000/svg"
 width="128.000000pt" height="128.000000pt" viewBox="0 0 128.000000 128.000000"
 preserveAspectRatio="xMidYMid meet">
<metadata>
Created by potrace 1.16, written by Peter Selinger 2001-2019
</metadata>
<g transform="translate(0.000000,128.000000) scale(0.100000,-0.100000)"
fill="#000000" stroke="none">
<path d="M778 1260 c-18 0 -46 -9 -63 -20 -16 -11 -42 -34 -56 -51 -16 -20
-31 -29 -38 -25 -7 5 -16 19 -21 32 -5 13 -21 26 -35 30 -17 4 -32 2 -41 -8
-8 -8 -26 -45 -39 -83 -14 -38 -31 -73 -38 -77 -6 -4 -16 -6 -22 -5 -5 2 -16
17 -25 33 -9 16 -26 30 -38 32 -16 3 -22 -2 -22 -17 0 -11 4 -30 9 -43 5 -13
26 -33 48 -45 33 -18 43 -20 62 -10 13 7 32 28 41 47 10 19 24 48 30 64 11 30
11 30 37 2 15 -17 33 -26 46 -24 12 2 31 17 42 35 11 18 26 35 34 38 8 3 16 3
19 0 3 -3 -4 -19 -17 -35 -12 -17 -17 -30 -10 -30 6 0 22 9 36 20 14 11 41 20
59 20 18 0 36 5 39 10 3 6 15 10 26 10 14 0 19 7 19 25 0 14 -11 37 -25 50
-16 17 -35 25 -57 25z"/>
<path d="M876 1140 c0 -1 -18 -9 -38 -19 -20 -10 -51 -21 -70 -25 -18 -3 -55
-17 -82 -31 -27 -14 -57 -25 -67 -25 -10 0 -32 -12 -49 -27 -18 -14 -62 -37
-98 -49 -37 -13 -77 -23 -90 -24 -18 0 -23 -5 -20 -22 2 -19 9 -23 38 -21 19
1 77 23 128 48 50 25 92 50 92 55 0 6 10 10 22 10 12 0 31 9 42 19 12 11 45
26 75 35 30 9 65 16 78 16 13 0 23 -5 23 -12 0 -6 -11 -26 -25 -44 -14 -18
-25 -40 -25 -48 0 -9 3 -16 6 -16 3 0 19 8 35 17 16 10 29 21 29 25 0 4 26 8
58 8 32 0 63 5 70 12 7 7 12 24 12 40 0 21 -8 31 -31 43 -17 9 -33 14 -36 11
-3 -3 -21 1 -40 9 -20 8 -36 15 -37 15z"/>
<path d="M592 938 c-18 3 -22 -1 -22 -26 0 -17 -3 -32 -7 -34 -5 -1 -27 -28
-50 -59 -24 -31 -46 -69 -49 -85 -4 -21 -1 -34 10 -43 9 -8 16 -19 16 -25 -1
-6 -9 -29 -20 -51 -11 -22 -19 -48 -20 -57 0 -9 -4 -20 -10 -23 -5 -3 -10 -17
-10 -30 0 -13 5 -27 11 -30 5 -4 25 0 44 9 19 9 38 23 42 30 4 7 20 21 36 31
21 13 27 14 27 4 0 -8 -7 -27 -16 -44 -14 -27 -14 -35 1 -92 9 -34 28 -75 42
-90 14 -15 32 -42 39 -60 8 -18 14 -42 14 -53 0 -11 -3 -20 -7 -21 -5 0 -23
-2 -40 -3 -18 -2 -44 -11 -57 -20 -14 -9 -32 -31 -42 -51 -15 -33 -15 -36 3
-67 16 -27 27 -34 68 -41 48 -8 51 -7 75 23 13 18 30 49 37 69 7 20 13 50 13
67 0 17 -5 57 -12 90 -6 32 -20 73 -32 89 -11 17 -26 36 -33 43 -7 8 -18 22
-23 32 -7 13 -6 36 2 72 6 29 16 58 22 64 6 6 37 16 69 23 32 7 75 24 97 39
22 14 40 31 40 37 0 6 -8 22 -17 35 -9 14 -21 28 -27 32 -5 4 -30 5 -55 3 -25
-2 -54 -6 -63 -10 -9 -4 -14 -13 -11 -21 3 -9 -7 -19 -29 -28 -19 -8 -49 -29
-67 -45 -18 -17 -39 -31 -47 -31 -8 0 -14 4 -14 9 0 5 9 29 20 54 11 25 17 52
14 60 -3 9 -12 18 -20 21 -8 3 -14 12 -14 20 0 8 24 40 54 72 45 48 52 61 47
83 -5 16 -16 27 -29 29z m115 -268 c8 0 13 -6 11 -12 -3 -7 -12 -14 -21 -16
-12 -2 -15 1 -11 12 3 9 13 16 21 16z m-62 -550 c8 0 15 -4 15 -9 0 -5 -7 -14
-15 -21 -9 -7 -18 -10 -21 -7 -4 3 -4 13 -1 22 4 8 13 15 22 15z"/>
<path d="M295 920 c-8 0 -16 -3 -18 -7 -2 -5 -5 -53 -6 -108 -1 -55 -4 -118
-7 -140 -2 -22 -5 -51 -6 -65 -2 -20 2 -26 20 -28 13 -2 32 4 43 14 11 10 19
25 17 33 -1 9 3 25 9 37 7 11 12 50 12 87 0 37 -4 69 -10 72 -5 4 -9 18 -9 33
0 15 -7 38 -16 50 -8 12 -21 22 -29 22z"/>
</g>
</svg>
