<?xml version="1.0" standalone="no"?>
<!DOCTYPE svg PUBLIC "-//W3C//DTD SVG 20010904//EN"
 "http://www.w3.org/TR/2001/REC-SVG-20010904/DTD/svg10.dtd">
<svg version="1.0" xmlns="http://www.w3.org/2000/svg"
 width="128.000000pt" height="128.000000pt" viewBox="0 0 128.000000 128.000000"
 preserveAspectRatio="xMidYMid meet">
<metadata>
Created by potrace 1.16, written by Peter Selinger 2001-2019
</metadata>
<g transform="translate(0.000000,128.000000) scale(0.100000,-0.100000)"
fill="#000000" stroke="none">
<path d="M878 1280 c-26 0 -38 -4 -38 -14 0 -8 -10 -23 -22 -33 -13 -10 -39
-37 -59 -59 -20 -23 -41 -49 -46 -59 -10 -16 -13 -16 -46 7 -25 17 -46 23 -66
20 -17 -2 -34 -13 -42 -28 -7 -13 -10 -27 -7 -30 3 -3 15 0 27 8 16 10 23 10
33 0 7 -7 13 -44 15 -90 1 -42 5 -87 8 -99 3 -13 12 -23 20 -23 8 0 15 2 15 4
0 3 7 37 15 77 12 58 27 89 73 157 31 46 65 88 74 93 15 8 18 5 18 -20 0 -16
-4 -40 -9 -53 -5 -14 -12 -49 -16 -79 -6 -46 -4 -58 13 -79 14 -17 30 -24 53
-25 32 0 34 -3 37 -35 2 -30 -3 -41 -37 -74 -21 -21 -44 -35 -50 -32 -6 4 -11
16 -11 27 0 11 -5 30 -11 42 -7 12 -17 25 -22 29 -6 3 -34 -6 -64 -20 -29 -14
-53 -31 -53 -37 0 -6 -13 -29 -30 -51 -16 -21 -30 -51 -30 -66 0 -26 3 -28 39
-28 21 0 44 -6 50 -14 9 -11 6 -20 -14 -44 -14 -16 -25 -33 -25 -37 0 -3 -21
-34 -47 -68 -27 -34 -59 -82 -72 -106 -12 -24 -25 -62 -28 -83 -4 -39 -4 -39
61 -4 36 19 68 32 70 27 3 -4 1 -35 -4 -67 -6 -32 -10 -93 -10 -135 0 -63 4
-82 23 -110 12 -19 27 -32 32 -29 5 3 8 12 7 20 -1 9 9 27 24 40 14 14 32 40
40 59 8 18 14 42 14 52 0 11 14 44 31 74 17 30 46 68 66 85 19 17 40 29 46 27
7 -2 14 -17 15 -33 2 -16 -4 -44 -14 -62 -9 -18 -32 -42 -51 -53 -18 -11 -33
-27 -33 -35 0 -8 -10 -14 -26 -14 -16 0 -24 -5 -22 -12 3 -7 15 -18 29 -25 13
-6 40 -18 59 -27 19 -8 56 -24 82 -35 46 -19 46 -19 66 2 11 12 22 34 24 49 3
15 2 32 -2 38 -4 6 -27 14 -51 17 -24 2 -50 6 -56 8 -7 3 -10 10 -8 18 3 7 19
21 35 31 17 9 30 22 30 27 0 6 9 22 19 36 11 13 23 44 26 68 4 25 2 51 -4 64
-7 11 -22 21 -34 21 -12 0 -42 -7 -67 -17 -27 -10 -69 -40 -108 -77 -35 -34
-72 -76 -84 -94 -18 -29 -23 -32 -35 -20 -11 12 -12 20 -2 44 7 16 13 43 14
59 1 17 3 38 3 48 1 10 32 37 70 61 37 24 106 78 155 120 54 48 87 84 87 96 0
12 -7 20 -17 20 -9 0 -33 -6 -52 -12 -20 -7 -56 -23 -80 -35 -24 -13 -51 -23
-60 -24 -9 0 -1 -5 17 -10 19 -6 32 -15 29 -22 -2 -7 -26 -29 -53 -49 -27 -21
-53 -36 -59 -34 -5 2 -9 20 -7 40 2 20 -2 36 -8 36 -5 0 -10 11 -10 25 0 15 6
25 14 25 8 0 17 8 21 18 3 9 16 28 28 42 12 14 43 38 67 54 25 17 64 50 88 74
23 24 42 49 41 55 0 7 -8 25 -18 41 -9 17 -36 40 -59 51 -23 12 -47 26 -53 32
-7 7 -6 24 4 54 9 24 27 70 41 102 22 48 24 61 14 77 -9 14 -24 20 -50 20z
m-140 -430 c10 0 24 -11 30 -25 6 -14 8 -33 5 -42 -4 -10 -14 -23 -22 -30 -9
-7 -23 -13 -32 -13 -9 0 -21 11 -27 24 -8 19 -7 30 9 55 10 17 27 31 37 31z
m-47 -276 c5 -3 6 -19 2 -37 -3 -18 -10 -40 -14 -49 -5 -9 -23 -19 -40 -23
-17 -4 -33 -4 -36 -1 -3 3 2 18 12 33 10 15 29 40 43 55 14 15 29 25 33 22z"/>
<path d="M233 1111 c-6 6 -13 7 -16 2 -3 -5 7 -24 22 -42 16 -19 31 -48 34
-65 3 -17 1 -81 -3 -141 -5 -61 -16 -141 -25 -180 -12 -49 -17 -119 -18 -235
-1 -118 3 -179 13 -213 8 -27 20 -53 27 -59 7 -5 17 -7 22 -3 6 3 16 24 22 46
10 30 10 42 1 51 -7 7 -12 20 -12 30 0 10 12 37 27 61 15 23 39 67 54 97 27
55 27 55 33 20 3 -19 4 -46 2 -60 -2 -14 -4 -64 -5 -112 -1 -86 -2 -88 -25
-88 -23 0 -23 -2 -19 -67 3 -49 10 -74 24 -89 10 -11 19 -28 19 -37 0 -9 4
-17 9 -17 5 0 16 11 24 24 14 20 16 75 18 372 1 261 5 362 15 402 8 29 14 62
14 73 0 10 9 36 20 56 11 21 20 48 20 62 0 20 -2 21 -15 11 -13 -10 -15 -9
-15 9 0 12 4 31 10 41 5 10 7 26 4 34 -3 9 -18 16 -33 16 -14 0 -48 -11 -75
-25 -27 -14 -54 -25 -59 -25 -5 0 -20 9 -34 20 -14 11 -35 20 -47 20 -12 0
-27 5 -33 11z m172 -95 c6 -2 14 -28 18 -59 5 -35 4 -72 -3 -97 -6 -22 -15
-38 -21 -35 -5 4 -24 -6 -42 -21 -32 -27 -32 -27 -35 -5 -2 12 1 44 7 72 6 27
11 64 11 82 0 24 7 36 28 49 15 9 32 15 37 14z m7 -264 c6 -6 3 -41 -5 -85 -8
-44 -26 -96 -43 -124 -16 -26 -37 -65 -46 -86 -10 -22 -23 -37 -30 -34 -9 3
-13 28 -11 88 1 46 7 110 14 142 6 31 16 60 21 63 5 3 15 1 23 -6 11 -9 19 -5
41 20 16 17 31 27 36 22z"/>
</g>
</svg>
