<?xml version="1.0" standalone="no"?>
<!DOCTYPE svg PUBLIC "-//W3C//DTD SVG 20010904//EN"
 "http://www.w3.org/TR/2001/REC-SVG-20010904/DTD/svg10.dtd">
<svg version="1.0" xmlns="http://www.w3.org/2000/svg"
 width="128.000000pt" height="128.000000pt" viewBox="0 0 128.000000 128.000000"
 preserveAspectRatio="xMidYMid meet">
<metadata>
Created by potrace 1.16, written by Peter Selinger 2001-2019
</metadata>
<g transform="translate(0.000000,128.000000) scale(0.100000,-0.100000)"
fill="#000000" stroke="none">
<path d="M754 1249 c-25 15 -35 17 -41 8 -4 -7 -15 -28 -25 -47 -10 -19 -18
-40 -18 -47 0 -7 11 -13 25 -13 20 0 25 -6 29 -32 3 -18 8 -60 11 -93 4 -33 9
-91 11 -128 4 -48 0 -83 -11 -118 -13 -37 -25 -54 -48 -66 -17 -8 -40 -27 -51
-41 -11 -13 -34 -31 -52 -38 -19 -8 -36 -14 -39 -14 -3 0 -5 9 -5 20 0 11 7
37 16 58 9 20 20 53 24 72 4 19 15 64 25 100 9 36 24 73 33 83 12 13 13 23 6
34 -5 9 -14 16 -19 17 -6 0 -26 -30 -47 -69 -20 -38 -38 -74 -41 -80 -2 -5 -9
-26 -16 -46 -6 -19 -11 -43 -11 -52 0 -9 -9 -33 -21 -54 -12 -21 -25 -42 -29
-48 -4 -5 -11 -25 -15 -43 -4 -18 -13 -36 -20 -38 -7 -3 -26 3 -42 13 -15 10
-35 25 -43 33 -9 9 -22 31 -29 49 -13 31 -13 33 23 70 20 21 41 53 46 72 5 19
25 58 45 87 19 30 35 62 35 72 0 10 -4 22 -10 25 -5 3 -10 13 -10 21 0 8 10
14 25 14 14 0 28 7 32 16 4 10 -5 27 -25 46 -24 25 -35 29 -57 24 -15 -4 -37
-18 -49 -31 -18 -19 -34 -25 -65 -25 -24 0 -76 -10 -117 -22 -40 -13 -74 -28
-74 -35 0 -7 17 -16 38 -22 20 -5 57 -14 82 -19 38 -9 50 -8 78 9 18 10 38 19
44 19 7 0 8 -14 4 -41 -4 -23 -18 -60 -31 -84 -14 -23 -25 -49 -25 -57 0 -9
-7 -21 -15 -28 -8 -7 -15 -20 -15 -30 0 -9 -9 -25 -20 -35 -11 -10 -20 -24
-20 -30 0 -7 -31 -45 -69 -85 -38 -40 -72 -83 -76 -97 -3 -14 2 -42 14 -68 11
-25 24 -45 30 -45 6 0 15 9 21 20 6 12 22 25 36 30 13 5 27 17 31 26 3 9 1 25
-5 35 -7 10 -12 22 -12 25 0 4 6 1 14 -5 11 -9 21 -6 45 15 19 16 31 35 31 51
0 18 5 24 17 21 10 -2 20 -16 23 -33 4 -17 12 -40 18 -52 7 -12 17 -45 22 -73
8 -41 6 -57 -8 -87 -9 -21 -25 -45 -34 -55 -10 -10 -18 -25 -18 -33 0 -8 11
-22 25 -31 14 -9 25 -22 25 -30 0 -7 5 -16 10 -19 6 -4 30 13 54 37 43 44 43
44 41 131 -1 48 2 87 7 87 4 0 8 10 8 23 0 12 9 30 21 40 13 12 18 24 14 37
-4 14 -1 22 10 26 9 4 32 0 50 -9 32 -15 34 -15 48 6 8 13 16 32 18 42 3 11
12 21 22 23 9 2 20 -4 23 -13 4 -10 -2 -24 -15 -36 -11 -11 -21 -28 -21 -39 0
-10 4 -22 10 -25 5 -3 32 -9 59 -12 38 -4 57 -2 76 11 15 10 25 26 25 39 0 13
-5 28 -11 34 -8 8 -8 17 -1 30 6 11 14 43 18 72 7 53 7 53 47 48 22 -3 47 -12
55 -21 9 -9 22 -37 29 -63 6 -27 12 -72 13 -102 0 -30 -5 -71 -12 -90 -6 -20
-23 -61 -37 -91 -13 -30 -36 -71 -51 -90 -14 -19 -31 -47 -38 -63 -6 -15 -18
-27 -26 -27 -8 0 -25 -5 -38 -10 -13 -6 -34 -18 -48 -28 -14 -9 -41 -26 -59
-37 -19 -11 -49 -33 -67 -50 -24 -21 -30 -32 -23 -41 7 -9 19 -10 41 -3 17 5
49 20 69 34 21 14 42 25 45 25 4 0 27 15 51 33 24 17 65 53 91 78 26 26 57 59
70 75 13 16 34 45 47 64 13 19 31 51 40 70 9 19 17 44 17 55 1 11 7 39 14 63
12 37 12 52 -2 113 -13 57 -23 78 -53 108 -21 21 -60 48 -87 60 -27 12 -60 28
-74 34 -17 9 -27 24 -30 48 -4 19 -9 39 -13 45 -3 6 -7 74 -8 152 -2 142 -2
142 -35 161z"/>
<path d="M1010 1085 c-20 3 -30 0 -30 -8 0 -7 13 -25 28 -40 18 -17 35 -25 44
-22 13 5 16 0 15 -27 -2 -27 2 -34 21 -36 15 -2 22 -10 22 -24 0 -12 11 -41
25 -65 14 -23 30 -43 35 -43 5 0 14 9 20 19 5 11 10 37 10 59 0 23 -6 45 -15
52 -8 7 -15 25 -15 40 0 20 -10 35 -35 54 -19 14 -48 28 -65 31 -16 3 -43 7
-60 10z"/>
</g>
</svg>
