<?xml version="1.0" standalone="no"?>
<!DOCTYPE svg PUBLIC "-//W3C//DTD SVG 20010904//EN"
 "http://www.w3.org/TR/2001/REC-SVG-20010904/DTD/svg10.dtd">
<svg version="1.0" xmlns="http://www.w3.org/2000/svg"
 width="128.000000pt" height="128.000000pt" viewBox="0 0 128.000000 128.000000"
 preserveAspectRatio="xMidYMid meet">
<metadata>
Created by potrace 1.16, written by Peter Selinger 2001-2019
</metadata>
<g transform="translate(0.000000,128.000000) scale(0.100000,-0.100000)"
fill="#000000" stroke="none">
<path d="M168 1240 c-17 0 -31 -6 -35 -16 -4 -11 2 -23 18 -35 13 -10 38 -19
55 -19 16 0 35 5 42 12 7 7 12 20 12 29 0 11 -11 19 -31 23 -17 3 -45 6 -61 6z"/>
<path d="M623 1230 c-32 -1 -70 -8 -85 -16 -16 -8 -28 -21 -28 -28 0 -8 -17
-27 -37 -44 -31 -25 -35 -32 -25 -45 10 -12 7 -15 -18 -20 -23 -5 -30 -12 -30
-30 0 -13 -4 -27 -9 -32 -5 -6 -11 -19 -13 -31 -1 -11 3 -28 10 -37 7 -8 13
-34 14 -57 0 -32 8 -50 31 -77 31 -36 31 -36 123 -29 76 5 94 4 104 -9 11 -13
10 -31 -4 -98 -9 -45 -18 -89 -19 -97 -2 -8 -8 -32 -16 -52 -7 -21 -18 -38
-25 -38 -6 0 -39 25 -71 55 -33 31 -71 58 -85 61 -14 3 -37 12 -52 20 -14 8
-45 14 -67 14 -23 0 -41 -4 -41 -8 0 -5 10 -18 23 -30 13 -12 28 -22 33 -22 6
0 16 -11 23 -24 7 -13 33 -40 57 -60 24 -20 57 -56 74 -81 16 -24 30 -51 30
-59 0 -9 -17 -24 -37 -35 -21 -11 -53 -31 -72 -45 -19 -14 -45 -26 -58 -26
-13 0 -53 -14 -89 -31 -63 -29 -67 -29 -85 -13 -10 9 -19 23 -19 30 0 7 -12
31 -28 54 -15 23 -31 61 -37 84 -9 37 -14 41 -43 44 -27 3 -34 -1 -42 -23 -8
-22 -6 -34 9 -59 10 -17 24 -49 31 -71 7 -22 29 -69 48 -105 19 -36 41 -71 51
-78 12 -10 40 -11 116 -6 79 5 103 11 112 24 7 10 32 29 57 44 24 14 78 51
120 82 42 32 76 61 76 65 0 4 18 26 40 48 34 34 47 41 80 41 29 0 45 -7 62
-25 18 -18 41 -27 98 -36 41 -7 82 -18 91 -25 8 -8 25 -14 37 -14 11 0 23 -4
27 -10 3 -5 -4 -19 -15 -30 -11 -11 -18 -25 -15 -30 4 -6 -10 -10 -32 -10 -21
0 -61 -6 -88 -14 -28 -8 -72 -22 -100 -32 -27 -9 -70 -31 -95 -49 -41 -29 -51
-32 -101 -27 -33 2 -65 -1 -78 -8 -12 -6 -20 -17 -18 -23 2 -8 37 -11 118 -9
63 2 137 8 164 14 28 5 79 18 115 28 36 10 84 21 108 24 24 4 51 11 61 18 15
9 25 6 52 -14 19 -14 48 -33 66 -42 18 -9 41 -16 53 -16 18 0 20 6 20 65 0 37
-4 65 -10 65 -5 0 -10 10 -10 23 -1 12 -6 31 -13 42 -7 12 -23 35 -36 53 -14
18 -33 32 -43 32 -10 0 -31 13 -47 29 -15 16 -40 36 -54 45 -20 14 -30 15 -47
6 -11 -6 -25 -8 -30 -5 -6 4 -13 -1 -16 -9 -3 -9 -17 -16 -30 -16 -13 0 -24 4
-24 8 0 4 5 13 11 19 8 8 5 15 -12 26 -13 8 -48 17 -77 20 -29 4 -65 12 -80
19 -24 12 -27 18 -24 58 2 25 10 59 17 75 8 17 17 52 21 80 4 27 18 70 31 97
21 41 28 48 66 55 39 8 42 11 44 43 2 25 -4 43 -21 61 -13 15 -32 32 -44 38
-11 6 -34 8 -50 5 -25 -5 -33 -1 -54 28 -14 18 -31 49 -37 68 -6 19 -22 51
-36 71 -21 33 -22 38 -9 58 15 21 14 21 -43 21z m-82 -130 c6 0 20 -5 32 -11
12 -6 34 -23 50 -37 20 -19 27 -35 27 -63 0 -21 -4 -41 -10 -44 -5 -3 -35 -13
-65 -21 -31 -7 -67 -14 -80 -14 -13 0 -26 4 -29 8 -3 5 1 20 8 34 8 14 22 50
31 79 10 30 20 57 22 62 2 4 9 7 14 7z m551 -778 c9 -9 9 -15 0 -24 -6 -6 -15
-9 -18 -5 -4 3 -4 14 0 23 5 13 9 15 18 6z m57 -52 c5 0 16 -3 25 -6 9 -3 16
-12 16 -20 0 -8 -4 -14 -9 -14 -5 0 -16 3 -25 6 -9 3 -16 12 -16 20 0 8 4 14
9 14z m64 -137 c5 -3 2 -10 -7 -15 -10 -6 -20 -7 -24 -3 -4 3 0 10 8 15 8 5
18 6 23 3z"/>
</g>
</svg>
