<?xml version="1.0" standalone="no"?>
<!DOCTYPE svg PUBLIC "-//W3C//DTD SVG 20010904//EN"
 "http://www.w3.org/TR/2001/REC-SVG-20010904/DTD/svg10.dtd">
<svg version="1.0" xmlns="http://www.w3.org/2000/svg"
 width="128.000000pt" height="128.000000pt" viewBox="0 0 128.000000 128.000000"
 preserveAspectRatio="xMidYMid meet">
<metadata>
Created by potrace 1.16, written by Peter Selinger 2001-2019
</metadata>
<g transform="translate(0.000000,128.000000) scale(0.100000,-0.100000)"
fill="#000000" stroke="none">
<path d="M854 1160 c-50 0 -64 -3 -64 -15 0 -10 10 -15 29 -15 27 0 30 -4 50
-72 12 -40 27 -86 33 -101 6 -16 28 -40 49 -54 31 -21 49 -24 120 -25 46 -1
94 2 107 6 14 5 22 15 22 30 0 12 -10 32 -23 44 -20 19 -35 22 -99 22 -73 0
-77 1 -103 32 -21 24 -25 38 -21 61 4 20 0 38 -15 58 -19 27 -25 29 -85 29z"/>
<path d="M256 1040 c-7 0 -16 -3 -19 -7 -4 -3 -2 -12 4 -20 8 -8 9 -32 6 -65
-4 -33 -21 -76 -48 -124 -29 -51 -66 -94 -116 -140 -41 -36 -72 -71 -70 -77 2
-6 18 -15 37 -20 26 -7 35 -5 42 7 5 9 16 16 24 16 8 0 19 11 24 25 5 14 14
25 19 25 4 0 14 -6 20 -13 6 -8 13 -32 16 -55 3 -23 -2 -66 -11 -99 -9 -32
-26 -95 -38 -141 -13 -45 -26 -85 -29 -89 -4 -3 -7 -14 -7 -23 0 -9 -9 -35
-20 -58 -11 -22 -20 -50 -20 -61 0 -11 4 -22 9 -25 5 -3 38 23 75 58 43 40 66
71 66 85 0 12 4 31 10 41 5 10 11 47 13 83 2 36 9 73 16 81 10 12 11 37 6 97
-5 52 -14 94 -27 115 -18 30 -18 35 -3 61 8 15 21 37 28 48 6 11 22 34 34 52
13 17 23 38 23 45 0 8 4 18 9 24 5 5 13 30 19 56 8 40 7 50 -8 63 -9 8 -26 15
-38 15 -11 0 -24 5 -27 10 -3 6 -12 10 -19 10z"/>
<path d="M1270 1020 c-5 0 -10 -7 -10 -15 0 -8 5 -15 10 -15 6 0 10 7 10 15 0
8 -4 15 -10 15z"/>
<path d="M477 966 c-8 3 -18 0 -22 -5 -3 -6 -3 -47 1 -91 4 -52 11 -81 20 -84
8 -3 19 5 25 17 7 12 18 26 25 30 8 4 14 21 14 38 0 16 -7 43 -15 59 -9 17
-20 30 -24 30 -5 0 -16 3 -24 6z"/>
<path d="M673 896 c-16 5 -25 1 -30 -12 -3 -10 -2 -19 3 -21 5 -2 15 -7 22
-12 11 -7 9 -16 -10 -47 -13 -22 -32 -55 -41 -75 -9 -19 -26 -44 -38 -55 -12
-10 -34 -39 -49 -62 -15 -24 -37 -49 -50 -55 -13 -7 -28 -20 -34 -29 -6 -9 -7
-20 -3 -25 5 -4 16 -3 25 3 9 6 22 20 27 31 10 19 13 20 37 7 23 -12 26 -20
30 -86 3 -60 11 -87 42 -151 26 -53 57 -97 94 -133 31 -30 61 -54 69 -54 7 0
15 11 19 25 3 14 0 46 -7 71 -8 26 -23 51 -34 57 -11 5 -25 17 -32 26 -7 9
-20 32 -29 51 -9 19 -23 49 -31 65 -8 17 -21 51 -29 76 -8 26 -21 52 -29 59
-8 7 -15 20 -15 30 0 10 7 24 16 31 9 7 20 23 25 36 5 13 15 23 24 23 8 0 15
6 15 14 0 8 10 31 23 50 18 30 26 35 47 30 14 -4 52 -12 85 -20 33 -7 78 -17
100 -23 22 -5 76 -17 120 -26 44 -10 103 -28 132 -41 28 -13 66 -24 82 -24 30
0 31 1 31 48 0 41 -3 49 -28 61 -15 7 -72 20 -127 27 -55 7 -131 18 -170 23
-38 6 -96 10 -127 11 -58 0 -58 0 -78 45 -13 28 -27 45 -38 45 -9 0 -27 3 -39
6z"/>
<path d="M978 580 c-19 0 -53 -13 -80 -30 -27 -17 -56 -30 -66 -30 -10 0 -22
-4 -28 -9 -5 -6 -29 -11 -54 -13 -25 -2 -44 -7 -44 -13 1 -5 14 -16 29 -24 22
-11 32 -11 54 -1 14 7 40 19 56 28 17 8 40 13 50 11 14 -3 22 -15 25 -39 4
-30 9 -36 34 -38 19 -2 36 4 52 19 16 15 24 34 24 55 0 18 -4 44 -10 58 -8 21
-16 26 -42 26z"/>
<path d="M900 330 c-8 -1 -28 -11 -44 -24 -18 -15 -24 -26 -17 -30 6 -4 36 -1
66 6 30 7 55 18 55 24 0 6 -10 14 -22 18 -13 3 -30 6 -38 6z"/>
</g>
</svg>
