<?xml version="1.0" standalone="no"?>
<!DOCTYPE svg PUBLIC "-//W3C//DTD SVG 20010904//EN"
 "http://www.w3.org/TR/2001/REC-SVG-20010904/DTD/svg10.dtd">
<svg version="1.0" xmlns="http://www.w3.org/2000/svg"
 width="128.000000pt" height="128.000000pt" viewBox="0 0 128.000000 128.000000"
 preserveAspectRatio="xMidYMid meet">
<metadata>
Created by potrace 1.16, written by Peter Selinger 2001-2019
</metadata>
<g transform="translate(0.000000,128.000000) scale(0.100000,-0.100000)"
fill="#000000" stroke="none">
<path d="M551 1280 c-12 0 -21 -6 -20 -12 0 -7 24 -47 52 -88 29 -41 65 -81
80 -90 26 -14 29 -14 43 4 8 11 14 32 14 48 0 23 -9 33 -55 59 -30 17 -64 42
-74 55 -10 13 -28 24 -40 24z"/>
<path d="M1013 1254 c-12 4 -24 3 -27 -3 -3 -5 -4 -16 -1 -24 4 -8 -8 -36 -24
-63 -17 -27 -36 -60 -43 -74 -7 -14 -23 -36 -36 -50 -13 -14 -37 -46 -54 -72
-26 -42 -34 -48 -66 -50 -21 0 -44 -1 -52 0 -8 1 -47 3 -86 4 -38 1 -75 -2
-82 -6 -6 -3 -9 -13 -6 -21 3 -8 15 -17 25 -20 11 -4 31 -25 46 -47 16 -27 28
-65 33 -107 5 -40 5 -72 -1 -84 -8 -13 -6 -25 6 -43 8 -13 24 -24 35 -24 10 0
21 4 24 9 3 4 34 14 68 20 35 7 70 16 79 21 10 5 43 10 75 11 33 1 79 11 104
22 25 11 56 20 70 21 25 1 25 1 24 131 -1 107 -4 136 -19 158 -14 22 -25 27
-58 27 -22 0 -56 -5 -74 -12 -26 -9 -36 -9 -45 0 -10 10 -3 21 33 55 25 23 72
66 104 96 59 54 59 54 36 72 -13 11 -29 19 -37 19 -7 0 -17 6 -21 14 -4 7 -18
16 -30 20z m-3 -304 c9 0 23 -6 32 -12 10 -8 18 -36 21 -75 3 -35 3 -80 0
-100 -5 -33 -12 -42 -62 -71 -44 -27 -61 -32 -81 -25 -19 6 -26 16 -28 44 -3
32 0 37 25 46 15 6 41 14 58 19 17 5 31 18 33 28 3 16 0 18 -25 12 -15 -4 -42
-10 -58 -13 -28 -4 -32 -1 -48 35 -9 22 -15 47 -11 56 4 11 19 16 49 16 29 0
47 6 60 20 10 11 26 20 35 20z m-200 -71 c3 0 11 -3 18 -7 9 -6 11 -21 6 -50
-5 -34 -11 -43 -37 -51 -16 -6 -43 -11 -59 -11 -21 0 -31 6 -37 23 -5 12 -5
31 -1 41 4 12 27 27 56 37 27 9 51 17 54 18z m-2 -149 c33 0 33 0 30 -42 -3
-43 -3 -43 -51 -52 -28 -5 -52 -5 -57 0 -4 5 -11 19 -14 31 -6 18 -1 26 26 43
18 11 48 20 66 20z"/>
<path d="M359 890 c-2 -1 -16 -7 -31 -15 -15 -8 -37 -14 -50 -14 -13 1 -45 -2
-73 -6 -27 -5 -53 -13 -57 -19 -4 -5 -4 -14 -2 -18 3 -4 14 -8 24 -8 13 0 22
-9 26 -27 4 -16 11 -34 17 -40 5 -7 18 -13 28 -13 13 0 20 10 25 36 4 23 14
38 27 43 12 5 33 5 47 1 22 -6 26 -14 32 -61 5 -37 3 -58 -5 -66 -7 -7 -31
-13 -54 -14 -23 -2 -48 2 -55 9 -8 6 -30 13 -48 14 -27 2 -35 -1 -38 -15 -2
-11 5 -29 16 -40 11 -12 22 -31 24 -42 2 -12 13 -21 27 -23 13 -2 33 0 45 6
12 5 52 17 90 26 38 9 75 21 82 27 6 5 15 26 19 45 3 20 2 41 -4 48 -6 6 -13
32 -16 56 -4 25 -8 54 -10 66 -3 14 -17 25 -43 32 -22 7 -41 12 -43 12z"/>
<path d="M1027 529 c-12 0 -29 -3 -37 -6 -8 -2 -24 -8 -35 -13 -11 -5 -33 -12
-50 -15 -16 -4 -52 -9 -80 -12 -27 -3 -58 -12 -67 -21 -10 -8 -18 -20 -18 -26
0 -6 8 -24 17 -41 13 -23 17 -60 18 -161 1 -72 5 -136 9 -143 4 -6 4 -20 1
-31 -4 -11 -3 -29 0 -40 4 -12 15 -20 30 -20 17 0 26 8 34 30 5 17 16 32 23
34 7 3 50 6 96 9 83 4 83 4 98 -32 15 -36 15 -36 41 -7 19 23 23 36 19 60 -4
17 -6 107 -5 199 0 168 0 168 -36 203 -20 19 -46 34 -58 33z m-32 -65 c17 -3
33 -9 37 -13 4 -3 9 -32 10 -64 1 -31 -2 -61 -7 -66 -6 -6 -37 -14 -70 -20
-33 -5 -73 -14 -88 -20 -16 -6 -27 -17 -24 -24 2 -8 20 -11 53 -8 27 2 65 4
84 6 19 1 42 5 52 9 14 7 16 0 14 -53 -1 -33 -7 -66 -13 -72 -7 -7 -50 -18
-95 -25 -72 -12 -85 -12 -98 2 -10 10 -15 35 -15 79 0 36 -3 65 -7 65 -4 0 -6
36 -5 81 2 57 7 83 17 89 8 6 29 10 45 10 17 0 41 7 55 15 15 9 37 12 55 9z"/>
<path d="M372 162 c-6 6 -12 6 -17 -2 -4 -6 -3 -16 3 -22 6 -6 12 -6 17 2 4 6
3 16 -3 22z"/>
</g>
</svg>
