<?xml version="1.0" standalone="no"?>
<!DOCTYPE svg PUBLIC "-//W3C//DTD SVG 20010904//EN"
 "http://www.w3.org/TR/2001/REC-SVG-20010904/DTD/svg10.dtd">
<svg version="1.0" xmlns="http://www.w3.org/2000/svg"
 width="128.000000pt" height="128.000000pt" viewBox="0 0 128.000000 128.000000"
 preserveAspectRatio="xMidYMid meet">
<metadata>
Created by potrace 1.16, written by Peter Selinger 2001-2019
</metadata>
<g transform="translate(0.000000,128.000000) scale(0.100000,-0.100000)"
fill="#000000" stroke="none">
<path d="M896 1280 c-11 -1 -27 -8 -34 -16 -11 -12 -11 -18 0 -31 11 -13 10
-18 -6 -27 -11 -6 -34 -23 -51 -38 -18 -16 -35 -28 -38 -28 -3 0 -38 -22 -79
-49 -59 -39 -76 -56 -86 -87 -7 -22 -17 -60 -22 -85 -5 -26 -5 -63 0 -84 4
-20 11 -39 15 -43 3 -3 14 -1 23 5 13 8 17 26 18 69 1 33 2 66 3 75 1 13 12
14 79 7 42 -4 83 -10 90 -13 7 -2 12 -22 12 -47 0 -32 -6 -50 -25 -71 -14 -15
-32 -27 -40 -27 -8 0 -15 -7 -15 -15 0 -8 9 -19 20 -25 11 -6 20 -19 20 -30 0
-10 -9 -25 -21 -33 -11 -8 -27 -32 -34 -54 -8 -21 -14 -48 -15 -60 0 -21 5
-23 45 -23 36 0 45 -3 45 -17 -1 -10 -7 -36 -15 -58 -8 -22 -15 -57 -15 -77 0
-20 -4 -39 -9 -42 -4 -3 -9 -34 -10 -68 -2 -35 -3 -70 -3 -78 0 -8 4 -35 8
-60 4 -25 13 -58 21 -73 8 -16 20 -26 26 -24 8 2 11 22 10 53 -1 27 -6 78 -10
114 -5 38 -4 79 2 99 7 25 23 43 63 69 30 18 68 38 86 43 27 8 34 6 52 -15 20
-23 21 -33 17 -138 -2 -62 -6 -123 -8 -134 -3 -12 -11 -24 -18 -27 -8 -3 -33
3 -55 13 -29 13 -42 25 -42 39 0 11 9 35 20 53 11 18 20 41 20 52 0 17 -5 18
-47 12 -26 -3 -52 -11 -57 -16 -7 -7 -4 -12 11 -16 22 -6 22 -6 3 -58 -11 -28
-20 -54 -20 -58 0 -5 20 -17 45 -29 25 -12 62 -41 82 -65 27 -33 42 -44 64
-44 21 0 32 7 42 28 9 17 15 72 17 147 1 66 3 131 3 145 1 14 0 42 -1 62 -1
23 -12 48 -28 67 -22 26 -33 31 -69 31 -27 0 -47 -5 -52 -14 -4 -7 -26 -23
-49 -34 -22 -11 -45 -17 -50 -14 -7 5 -8 18 -2 37 5 17 18 50 31 75 16 33 30
47 54 54 17 5 36 20 42 33 6 12 8 30 5 38 -4 8 -18 18 -33 21 -14 4 -34 14
-43 22 -10 8 -18 23 -18 33 0 13 9 19 33 21 28 3 32 6 29 28 -1 14 -14 41 -28
62 -22 31 -24 43 -19 81 5 34 13 47 31 56 13 6 24 15 24 21 0 5 19 10 43 10
24 0 48 5 54 11 7 7 13 7 17 0 4 -5 4 -21 0 -35 -3 -13 -14 -32 -25 -42 -10
-9 -19 -25 -19 -36 0 -12 7 -18 23 -18 12 0 28 9 35 20 7 11 20 20 28 20 9 0
23 8 30 18 7 9 14 25 14 34 0 9 -16 33 -35 54 -26 28 -39 34 -47 26 -6 -6 -24
-8 -40 -5 -16 3 -39 1 -51 -4 -12 -6 -47 -18 -77 -27 -30 -8 -78 -20 -105 -24
-28 -5 -70 -7 -93 -6 -24 1 -46 4 -49 7 -2 3 -2 14 1 25 4 11 34 33 70 51 35
17 74 31 86 31 12 0 39 9 59 19 20 10 59 26 86 34 45 13 50 17 50 43 0 23 -6
29 -33 36 -18 5 -35 15 -39 23 -3 8 -15 15 -27 15z"/>
<path d="M733 1213 c-4 2 -15 1 -23 -3 -8 -4 -27 -13 -41 -20 -20 -9 -32 -9
-47 -1 -11 6 -28 8 -36 5 -9 -3 -16 -14 -16 -24 0 -9 8 -24 18 -33 10 -10 28
-17 39 -17 12 0 42 20 68 44 25 24 43 46 38 49z"/>
<path d="M532 1130 c-5 0 -12 -3 -15 -7 -4 -3 -7 -12 -7 -20 0 -7 7 -13 15
-13 8 0 15 9 15 20 0 11 -4 20 -8 20z"/>
<path d="M471 1004 c-4 3 -15 -2 -22 -12 -8 -9 -24 -35 -36 -57 -12 -22 -32
-60 -45 -85 -23 -45 -24 -45 -78 -46 -30 -1 -60 -2 -67 -3 -6 -1 -20 -17 -32
-36 -15 -25 -25 -33 -38 -29 -10 3 -28 11 -40 17 -13 6 -26 7 -30 4 -3 -4 2
-26 12 -49 10 -24 23 -49 28 -55 5 -7 18 -13 28 -13 12 0 26 15 39 40 12 23
28 44 37 47 9 3 21 2 28 -3 7 -5 24 -17 37 -27 21 -15 30 -16 51 -6 18 8 30
27 42 62 9 28 34 85 56 126 21 41 39 85 39 98 0 12 -4 24 -9 27z"/>
<path d="M310 275 c-6 4 -10 -5 -10 -19 0 -14 5 -26 10 -26 6 0 10 9 10 19 0
11 -4 23 -10 26z"/>
<path d="M332 134 c-5 3 -14 0 -20 -6 -7 -7 -12 -18 -12 -25 0 -6 5 -24 12
-38 6 -14 15 -25 20 -25 4 0 8 20 8 44 0 25 -4 47 -8 50z"/>
</g>
</svg>
