<?xml version="1.0" standalone="no"?>
<!DOCTYPE svg PUBLIC "-//W3C//DTD SVG 20010904//EN"
 "http://www.w3.org/TR/2001/REC-SVG-20010904/DTD/svg10.dtd">
<svg version="1.0" xmlns="http://www.w3.org/2000/svg"
 width="56.000000pt" height="56.000000pt" viewBox="0 0 56.000000 56.000000"
 preserveAspectRatio="xMidYMid meet">
<metadata>
Created by potrace 1.16, written by Peter Selinger 2001-2019
</metadata>
<g transform="translate(0.000000,56.000000) scale(0.100000,-0.100000)"
fill="#000000" stroke="none">
<path d="M270 560 c-27 0 -30 -4 -36 -40 -4 -22 -11 -43 -15 -46 -5 -3 -9 -14
-9 -25 0 -10 -4 -27 -9 -37 -5 -9 -15 -33 -23 -52 -9 -19 -19 -50 -22 -67 -4
-18 -12 -35 -17 -38 -5 -4 -9 -17 -9 -30 0 -13 -4 -25 -9 -27 -4 -1 -26 -33
-49 -70 -22 -38 -42 -76 -43 -85 -1 -10 -1 -24 0 -30 0 -7 8 -13 16 -13 8 0
31 37 56 88 22 48 51 107 62 132 12 25 27 51 34 58 6 6 19 12 28 12 8 0 20
-12 25 -26 6 -15 13 -61 16 -103 4 -58 3 -72 -6 -58 -6 9 -18 17 -25 17 -8 0
-15 -4 -15 -9 0 -6 4 -13 10 -16 5 -3 7 -25 3 -50 -5 -41 -4 -45 16 -45 17 0
21 6 21 33 0 19 3 36 6 40 4 3 19 0 35 -8 18 -10 57 -15 107 -15 57 0 83 4 92
15 6 8 9 19 5 25 -3 5 -19 10 -35 10 -16 0 -32 -4 -35 -10 -3 -5 -20 -10 -36
-10 -17 0 -43 7 -58 15 -16 8 -34 28 -40 46 -6 18 -11 62 -11 99 0 53 -4 70
-19 84 -11 10 -30 16 -43 14 -19 -2 -23 1 -20 22 2 14 7 34 11 45 5 11 23 49
40 83 17 35 31 66 31 68 0 2 -13 4 -30 4z"/>
</g>
</svg>
