<?xml version="1.0" standalone="no"?>
<!DOCTYPE svg PUBLIC "-//W3C//DTD SVG 20010904//EN"
 "http://www.w3.org/TR/2001/REC-SVG-20010904/DTD/svg10.dtd">
<svg version="1.0" xmlns="http://www.w3.org/2000/svg"
 width="56.000000pt" height="56.000000pt" viewBox="0 0 56.000000 56.000000"
 preserveAspectRatio="xMidYMid meet">
<metadata>
Created by potrace 1.16, written by Peter Selinger 2001-2019
</metadata>
<g transform="translate(0.000000,56.000000) scale(0.100000,-0.100000)"
fill="#000000" stroke="none">
<path d="M329 560 c-31 0 -36 -4 -52 -48 -10 -26 -28 -69 -39 -97 -12 -27 -38
-86 -59 -130 -21 -44 -61 -120 -88 -169 -27 -50 -47 -96 -44 -103 3 -7 16 -13
29 -13 14 0 32 12 48 33 13 17 31 48 39 68 8 19 36 64 62 98 26 35 54 65 61
68 8 3 21 -1 30 -8 11 -9 15 -29 14 -73 -1 -34 -1 -71 -1 -83 1 -12 15 -38 32
-58 26 -30 38 -35 73 -35 23 0 52 7 64 16 12 8 20 20 17 25 -4 5 -16 9 -27 9
-12 0 -36 10 -54 22 -17 12 -36 36 -43 53 -6 17 -11 50 -11 73 0 22 -4 52 -10
66 -5 15 -25 34 -45 43 -19 9 -35 24 -35 33 0 8 6 24 14 35 7 11 16 31 19 45
3 14 10 41 15 60 5 19 13 43 17 53 6 14 2 17 -26 17z"/>
<path d="M432 420 c-5 0 -12 -3 -15 -6 -4 -4 -4 -11 -1 -15 3 -5 9 -9 15 -9 5
0 9 7 9 15 0 8 -4 15 -8 15z"/>
<path d="M290 20 c-11 0 -20 -4 -20 -10 0 -5 9 -10 20 -10 11 0 20 5 20 10 0
6 -9 10 -20 10z"/>
</g>
</svg>
