<?xml version="1.0" standalone="no"?>
<!DOCTYPE svg PUBLIC "-//W3C//DTD SVG 20010904//EN"
 "http://www.w3.org/TR/2001/REC-SVG-20010904/DTD/svg10.dtd">
<svg version="1.0" xmlns="http://www.w3.org/2000/svg"
 width="56.000000pt" height="56.000000pt" viewBox="0 0 56.000000 56.000000"
 preserveAspectRatio="xMidYMid meet">
<metadata>
Created by potrace 1.16, written by Peter Selinger 2001-2019
</metadata>
<g transform="translate(0.000000,56.000000) scale(0.100000,-0.100000)"
fill="#000000" stroke="none">
<path d="M153 544 c-7 13 -11 12 -27 -9 -18 -24 -20 -24 -37 -9 -10 9 -25 14
-34 10 -13 -5 -14 -9 -3 -28 6 -13 11 -35 9 -50 -1 -17 6 -35 19 -48 15 -15
25 -18 34 -11 6 5 20 37 30 70 11 37 15 65 9 75z"/>
<path d="M302 560 c-9 0 -24 -10 -32 -22 -8 -13 -20 -32 -26 -43 -6 -11 -26
-47 -44 -80 -18 -33 -40 -69 -50 -80 -9 -11 -32 -46 -51 -79 -19 -32 -44 -75
-57 -95 -12 -20 -27 -47 -33 -61 -5 -13 -7 -35 -4 -48 3 -13 11 -22 18 -19 7
2 30 36 53 76 24 43 54 81 72 93 18 11 32 24 32 28 0 5 -4 10 -9 12 -6 2 3 28
18 58 16 30 39 76 53 102 13 26 37 62 51 82 15 19 27 44 27 55 0 13 -6 21 -18
21z"/>
<path d="M552 360 c-5 0 -12 -3 -15 -7 -4 -3 -7 -16 -7 -28 0 -12 -9 -40 -20
-63 -11 -22 -20 -45 -20 -49 0 -5 -20 -28 -44 -52 -37 -36 -49 -42 -70 -37
-14 3 -37 23 -51 43 -14 21 -25 43 -25 50 0 6 -13 18 -29 26 -17 8 -32 12 -35
9 -3 -3 -6 -13 -6 -22 0 -9 9 -25 20 -35 11 -10 20 -22 20 -26 0 -4 14 -28 31
-53 17 -26 41 -49 55 -52 13 -3 36 -3 51 1 15 3 39 15 54 26 15 11 40 45 56
77 15 31 31 59 36 60 4 2 7 33 7 68 0 35 -4 64 -8 64z"/>
<path d="M190 110 c-10 0 -21 -7 -24 -15 -3 -9 1 -18 9 -21 9 -4 15 -19 15
-35 0 -29 0 -29 60 -29 47 0 60 3 60 15 0 8 -4 15 -9 15 -5 0 -28 16 -51 35
-23 19 -50 35 -60 35z"/>
</g>
</svg>
