<?xml version="1.0" standalone="no"?>
<!DOCTYPE svg PUBLIC "-//W3C//DTD SVG 20010904//EN"
 "http://www.w3.org/TR/2001/REC-SVG-20010904/DTD/svg10.dtd">
<svg version="1.0" xmlns="http://www.w3.org/2000/svg"
 width="56.000000pt" height="56.000000pt" viewBox="0 0 56.000000 56.000000"
 preserveAspectRatio="xMidYMid meet">
<metadata>
Created by potrace 1.16, written by Peter Selinger 2001-2019
</metadata>
<g transform="translate(0.000000,56.000000) scale(0.100000,-0.100000)"
fill="#000000" stroke="none">
<path d="M273 509 c-16 0 -34 -3 -41 -6 -7 -3 -19 -19 -27 -36 -8 -18 -26 -50
-40 -72 -14 -22 -36 -62 -49 -88 -13 -27 -33 -58 -44 -70 -11 -12 -32 -46 -47
-75 -15 -28 -24 -59 -21 -67 3 -9 12 -18 21 -21 8 -4 22 0 31 7 9 7 22 30 31
50 8 21 30 50 49 64 19 14 39 23 45 19 6 -3 24 -27 40 -52 16 -25 29 -52 29
-60 0 -8 10 -22 23 -33 15 -13 38 -18 75 -19 28 0 52 4 52 9 0 5 13 15 28 22
15 8 51 32 80 54 34 27 51 48 52 63 0 12 -4 22 -9 22 -5 0 -26 -16 -47 -35
-21 -20 -50 -39 -64 -42 -13 -3 -39 -15 -57 -25 -18 -11 -37 -17 -43 -13 -6 4
-23 32 -38 63 -14 32 -33 63 -42 70 -8 7 -26 17 -39 23 -17 7 -31 5 -52 -5
-24 -12 -29 -12 -29 -1 0 8 23 45 50 82 28 37 64 86 80 109 17 23 30 46 30 52
0 7 -12 12 -27 11z"/>
<path d="M181 70 c-23 0 -41 -4 -41 -10 0 -5 15 -10 34 -10 19 0 38 5 41 10 4
6 -10 10 -34 10z"/>
</g>
</svg>
