<?xml version="1.0" standalone="no"?>
<!DOCTYPE svg PUBLIC "-//W3C//DTD SVG 20010904//EN"
 "http://www.w3.org/TR/2001/REC-SVG-20010904/DTD/svg10.dtd">
<svg version="1.0" xmlns="http://www.w3.org/2000/svg"
 width="56.000000pt" height="56.000000pt" viewBox="0 0 56.000000 56.000000"
 preserveAspectRatio="xMidYMid meet">
<metadata>
Created by potrace 1.16, written by Peter Selinger 2001-2019
</metadata>
<g transform="translate(0.000000,56.000000) scale(0.100000,-0.100000)"
fill="#000000" stroke="none">
<path d="M257 540 c-39 0 -58 -5 -69 -17 -9 -10 -19 -29 -23 -43 -4 -14 -15
-36 -25 -50 -10 -14 -27 -46 -39 -72 -11 -26 -21 -52 -21 -58 0 -5 -4 -18 -9
-28 -5 -9 -21 -45 -35 -78 -14 -34 -23 -69 -20 -78 3 -9 1 -16 -5 -16 -6 0
-11 -13 -11 -30 0 -22 5 -30 18 -30 10 0 35 17 55 38 20 21 37 44 37 52 0 8
19 44 41 82 27 45 48 68 60 68 10 0 25 -12 33 -27 7 -16 17 -53 20 -83 4 -30
11 -64 16 -75 5 -11 14 -32 20 -47 6 -20 16 -28 33 -28 12 0 33 7 45 16 12 8
22 23 22 33 0 11 -7 21 -15 25 -8 3 -15 10 -15 15 0 5 15 13 32 17 18 3 47 18
65 32 20 15 33 33 33 47 0 15 7 25 21 28 12 3 19 12 17 19 -3 8 -16 12 -33 10
-16 -2 -39 -11 -52 -19 -13 -9 -40 -16 -60 -16 -22 -1 -39 5 -44 13 -4 8 -11
32 -14 52 -3 21 -21 55 -40 78 -19 23 -35 47 -35 54 0 6 11 32 25 58 14 26 25
50 25 53 0 3 -24 5 -53 5z"/>
<path d="M550 310 c-5 0 -10 -7 -10 -15 0 -8 5 -15 10 -15 6 0 10 7 10 15 0 8
-4 15 -10 15z"/>
</g>
</svg>
