<?xml version="1.0" standalone="no"?>
<!DOCTYPE svg PUBLIC "-//W3C//DTD SVG 20010904//EN"
 "http://www.w3.org/TR/2001/REC-SVG-20010904/DTD/svg10.dtd">
<svg version="1.0" xmlns="http://www.w3.org/2000/svg"
 width="56.000000pt" height="56.000000pt" viewBox="0 0 56.000000 56.000000"
 preserveAspectRatio="xMidYMid meet">
<metadata>
Created by potrace 1.16, written by Peter Selinger 2001-2019
</metadata>
<g transform="translate(0.000000,56.000000) scale(0.100000,-0.100000)"
fill="#000000" stroke="none">
<path d="M247 560 c-7 0 -19 -17 -26 -37 -8 -21 -22 -56 -31 -78 -10 -22 -25
-59 -34 -83 -9 -23 -26 -59 -39 -80 -13 -20 -42 -76 -66 -123 -28 -56 -41 -96
-39 -114 2 -16 8 -30 15 -32 7 -3 27 26 47 69 19 40 47 104 63 142 15 38 36
74 46 80 12 8 22 8 35 0 9 -6 28 -33 43 -60 14 -27 31 -65 39 -84 8 -19 25
-51 38 -70 13 -19 40 -45 60 -57 20 -13 49 -23 65 -23 15 0 27 6 27 13 0 6
-15 18 -32 26 -18 8 -51 33 -73 55 -22 23 -55 71 -72 105 -18 35 -33 72 -33
82 0 12 -15 26 -41 39 -36 19 -40 24 -34 48 3 15 17 49 31 76 13 28 24 63 24
78 0 16 -5 28 -13 28z"/>
<path d="M216 80 c-8 0 -18 -5 -22 -11 -3 -6 -1 -16 5 -22 6 -6 11 -19 11 -29
0 -13 8 -18 30 -18 17 0 30 3 30 8 0 4 -9 22 -20 40 -11 17 -26 32 -34 32z"/>
</g>
</svg>
