<?xml version="1.0" standalone="no"?>
<!DOCTYPE svg PUBLIC "-//W3C//DTD SVG 20010904//EN"
 "http://www.w3.org/TR/2001/REC-SVG-20010904/DTD/svg10.dtd">
<svg version="1.0" xmlns="http://www.w3.org/2000/svg"
 width="56.000000pt" height="56.000000pt" viewBox="0 0 56.000000 56.000000"
 preserveAspectRatio="xMidYMid meet">
<metadata>
Created by potrace 1.16, written by Peter Selinger 2001-2019
</metadata>
<g transform="translate(0.000000,56.000000) scale(0.100000,-0.100000)"
fill="#000000" stroke="none">
<path d="M287 560 c-6 0 -17 -12 -23 -27 -6 -16 -17 -44 -24 -63 -7 -19 -29
-71 -50 -115 -21 -44 -52 -110 -69 -147 -17 -37 -31 -78 -31 -92 0 -16 6 -26
15 -26 8 0 15 6 15 13 0 8 18 33 41 55 22 23 44 42 49 42 4 0 14 -10 22 -22 8
-13 20 -42 27 -65 8 -23 27 -58 43 -77 23 -28 37 -36 62 -36 23 0 41 9 65 34
23 24 32 40 27 52 -6 15 -11 13 -39 -14 -18 -18 -43 -32 -54 -32 -12 0 -31 13
-42 29 -12 16 -21 36 -21 44 0 9 -4 19 -10 22 -5 3 -10 15 -10 26 0 11 -7 33
-15 49 -10 20 -23 30 -38 30 -12 0 -33 -7 -45 -16 -19 -13 -22 -13 -22 0 0 8
3 16 8 18 4 2 23 35 42 73 19 39 42 82 52 97 10 14 18 38 18 51 0 14 5 29 10
32 6 3 10 19 10 36 0 17 -5 29 -13 29z"/>
</g>
</svg>
