<?xml version="1.0" standalone="no"?>
<!DOCTYPE svg PUBLIC "-//W3C//DTD SVG 20010904//EN"
 "http://www.w3.org/TR/2001/REC-SVG-20010904/DTD/svg10.dtd">
<svg version="1.0" xmlns="http://www.w3.org/2000/svg"
 width="56.000000pt" height="56.000000pt" viewBox="0 0 56.000000 56.000000"
 preserveAspectRatio="xMidYMid meet">
<metadata>
Created by potrace 1.16, written by Peter Selinger 2001-2019
</metadata>
<g transform="translate(0.000000,56.000000) scale(0.100000,-0.100000)"
fill="#000000" stroke="none">
<path d="M251 493 c-5 5 -18 0 -30 -12 -12 -12 -21 -27 -21 -34 0 -7 -16 -35
-35 -64 -19 -28 -49 -77 -66 -109 -18 -33 -46 -85 -62 -116 -16 -31 -27 -64
-24 -72 4 -9 13 -16 22 -16 9 0 18 8 21 17 3 10 15 37 26 61 12 25 39 56 62
72 23 15 50 30 61 32 11 2 31 -1 45 -8 14 -6 34 -21 44 -33 11 -12 31 -21 47
-21 15 0 47 9 72 19 24 10 57 35 74 56 17 20 35 53 42 74 6 21 11 50 11 65 0
14 5 26 10 26 6 0 10 5 10 10 0 6 -9 10 -20 10 -11 0 -23 -8 -26 -17 -3 -10
-10 -26 -15 -35 -5 -10 -9 -25 -9 -34 0 -9 -14 -34 -31 -55 -17 -22 -45 -47
-61 -55 -23 -12 -36 -13 -52 -5 -11 5 -38 17 -60 26 -21 8 -50 15 -65 15 -15
0 -32 -5 -38 -11 -6 -6 -16 -10 -22 -8 -8 3 -5 12 6 28 10 13 38 46 61 74 38
42 43 54 38 81 -4 17 -10 34 -15 39z"/>
<path d="M257 200 c-2 0 -9 -6 -15 -13 -6 -6 -12 -28 -14 -47 -3 -32 -6 -35
-35 -35 -18 0 -35 -5 -37 -12 -3 -7 3 -17 14 -23 10 -5 44 -10 75 -10 48 0 61
4 86 27 16 16 29 36 29 45 0 9 -10 20 -22 24 -13 3 -35 15 -50 25 -14 11 -28
19 -31 19z m17 -50 c9 0 16 -7 16 -16 0 -9 -5 -14 -12 -12 -6 2 -14 10 -16 16
-2 7 3 12 12 12z"/>
<path d="M424 100 c-7 0 -16 -5 -19 -10 -4 -6 -1 -17 5 -25 7 -8 21 -15 31
-15 11 0 19 6 19 13 0 7 -5 18 -12 25 -7 7 -18 12 -24 12z"/>
</g>
</svg>
