<?xml version="1.0" standalone="no"?>
<!DOCTYPE svg PUBLIC "-//W3C//DTD SVG 20010904//EN"
 "http://www.w3.org/TR/2001/REC-SVG-20010904/DTD/svg10.dtd">
<svg version="1.0" xmlns="http://www.w3.org/2000/svg"
 width="56.000000pt" height="56.000000pt" viewBox="0 0 56.000000 56.000000"
 preserveAspectRatio="xMidYMid meet">
<metadata>
Created by potrace 1.16, written by Peter Selinger 2001-2019
</metadata>
<g transform="translate(0.000000,56.000000) scale(0.100000,-0.100000)"
fill="#000000" stroke="none">
<path d="M65 560 c-9 0 -15 -5 -13 -11 2 -6 8 -10 13 -10 5 0 11 4 13 10 2 6
-4 11 -13 11z"/>
<path d="M317 560 c-18 0 -27 -11 -46 -62 -14 -35 -37 -83 -53 -108 -15 -25
-36 -64 -47 -86 -11 -23 -32 -61 -47 -85 -16 -24 -38 -65 -50 -90 -12 -25 -25
-59 -28 -75 -3 -16 -1 -36 4 -44 9 -13 16 -9 43 21 18 20 40 61 51 90 10 30
34 77 52 104 18 28 40 58 48 69 8 10 22 16 30 13 8 -3 19 -23 25 -43 6 -21 8
-47 5 -58 -2 -12 4 -46 14 -76 14 -42 24 -56 41 -58 13 -2 36 2 52 8 16 7 29
18 29 26 0 7 -10 14 -22 16 -17 2 -24 14 -34 58 -7 30 -16 69 -21 87 -4 17
-18 43 -30 57 -13 14 -29 26 -37 26 -8 0 -17 4 -21 9 -3 5 11 44 30 86 19 43
35 86 35 96 0 13 -7 19 -23 19z"/>
<path d="M446 560 c-9 0 -16 -6 -16 -12 0 -7 14 -30 29 -51 20 -26 32 -34 37
-26 4 7 -2 21 -17 33 -13 12 -23 29 -21 39 2 10 -3 17 -12 17z"/>
<path d="M505 426 c-5 1 -17 0 -25 -3 -8 -3 -27 -17 -42 -31 -20 -19 -28 -35
-28 -60 0 -27 8 -42 32 -63 24 -22 34 -26 45 -18 10 9 7 17 -17 39 -18 17 -30
38 -30 53 0 13 6 29 13 35 6 5 23 12 37 14 14 1 25 9 25 17 0 8 -4 15 -10 17z"/>
<path d="M246 170 c-1 0 -6 -3 -9 -7 -4 -3 -7 -36 -7 -73 0 -38 -5 -71 -12
-78 -9 -9 -4 -12 25 -12 37 0 37 0 37 55 0 31 -7 69 -15 85 -9 17 -17 30 -19
30z"/>
<path d="M495 157 c-6 2 -16 -2 -23 -9 -7 -7 -12 -18 -12 -26 0 -8 9 -12 23
-10 14 2 22 10 22 22 0 11 -5 21 -10 23z"/>
</g>
</svg>
