<?xml version="1.0" standalone="no"?>
<!DOCTYPE svg PUBLIC "-//W3C//DTD SVG 20010904//EN"
 "http://www.w3.org/TR/2001/REC-SVG-20010904/DTD/svg10.dtd">
<svg version="1.0" xmlns="http://www.w3.org/2000/svg"
 width="56.000000pt" height="56.000000pt" viewBox="0 0 56.000000 56.000000"
 preserveAspectRatio="xMidYMid meet">
<metadata>
Created by potrace 1.16, written by Peter Selinger 2001-2019
</metadata>
<g transform="translate(0.000000,56.000000) scale(0.100000,-0.100000)"
fill="#000000" stroke="none">
<path d="M244 507 c-28 3 -43 1 -52 -9 -6 -8 -9 -18 -5 -21 3 -4 19 -7 35 -7
16 0 28 -5 28 -12 0 -7 -24 -49 -53 -93 -28 -44 -65 -98 -82 -120 -16 -22 -49
-60 -72 -83 -25 -26 -43 -53 -43 -67 0 -12 7 -28 15 -35 11 -9 21 -6 50 17 19
15 35 31 35 35 0 3 15 16 34 27 20 12 50 21 75 21 22 0 41 5 41 10 0 6 -10 14
-23 19 -13 5 -35 7 -50 4 -17 -3 -27 -1 -27 6 0 6 38 57 85 113 49 58 85 110
85 122 0 12 -8 31 -18 44 -12 15 -32 25 -58 29z"/>
<path d="M550 340 c-6 0 -15 -12 -21 -27 -6 -16 -24 -56 -40 -90 -17 -35 -38
-67 -49 -73 -12 -7 -27 -7 -45 0 -14 5 -41 10 -60 10 -19 0 -36 -4 -40 -9 -3
-6 9 -17 27 -25 18 -8 58 -18 89 -21 31 -4 66 -4 77 -1 14 5 26 24 37 56 9 28
21 50 26 50 5 0 9 29 9 65 0 38 -4 65 -10 65z"/>
</g>
</svg>
