<?xml version="1.0" standalone="no"?>
<!DOCTYPE svg PUBLIC "-//W3C//DTD SVG 20010904//EN"
 "http://www.w3.org/TR/2001/REC-SVG-20010904/DTD/svg10.dtd">
<svg version="1.0" xmlns="http://www.w3.org/2000/svg"
 width="56.000000pt" height="56.000000pt" viewBox="0 0 56.000000 56.000000"
 preserveAspectRatio="xMidYMid meet">
<metadata>
Created by potrace 1.16, written by Peter Selinger 2001-2019
</metadata>
<g transform="translate(0.000000,56.000000) scale(0.100000,-0.100000)"
fill="#000000" stroke="none">
<path d="M272 540 c-19 0 -35 -9 -48 -27 -11 -16 -33 -55 -49 -88 -16 -33 -41
-79 -57 -102 -15 -23 -28 -47 -28 -54 0 -6 -13 -37 -29 -68 -16 -31 -37 -72
-46 -91 -9 -19 -15 -48 -13 -65 2 -24 8 -30 27 -30 20 0 28 10 51 65 14 36 42
97 61 135 26 51 41 70 55 70 13 0 29 -18 49 -55 17 -31 44 -74 60 -95 17 -22
41 -49 54 -60 14 -11 40 -26 59 -32 19 -7 46 -10 61 -7 14 3 38 10 54 16 18 7
27 18 27 33 0 16 -8 25 -25 29 -14 4 -45 1 -70 -5 -42 -11 -47 -10 -80 15 -19
15 -42 44 -51 64 -8 20 -18 51 -21 67 -3 17 -18 40 -32 52 -14 12 -38 22 -53
23 -15 0 -30 5 -33 10 -4 6 9 32 28 58 19 26 44 67 56 91 11 25 21 46 21 48 0
2 -13 3 -28 3z"/>
</g>
</svg>
