<?xml version="1.0" standalone="no"?>
<!DOCTYPE svg PUBLIC "-//W3C//DTD SVG 20010904//EN"
 "http://www.w3.org/TR/2001/REC-SVG-20010904/DTD/svg10.dtd">
<svg version="1.0" xmlns="http://www.w3.org/2000/svg"
 width="56.000000pt" height="56.000000pt" viewBox="0 0 56.000000 56.000000"
 preserveAspectRatio="xMidYMid meet">
<metadata>
Created by potrace 1.16, written by Peter Selinger 2001-2019
</metadata>
<g transform="translate(0.000000,56.000000) scale(0.100000,-0.100000)"
fill="#000000" stroke="none">
<path d="M331 560 c-34 0 -40 -4 -52 -32 -7 -18 -24 -58 -37 -88 -14 -30 -35
-68 -46 -85 -12 -16 -28 -43 -36 -58 -8 -16 -22 -33 -32 -38 -10 -5 -18 -16
-18 -24 0 -8 -6 -18 -14 -22 -8 -4 -30 -32 -50 -62 -20 -29 -36 -63 -36 -76 0
-13 3 -30 6 -39 4 -10 18 -16 40 -16 21 0 34 5 34 13 0 7 18 30 40 52 39 38
40 38 81 26 22 -7 56 -21 75 -32 19 -10 41 -19 48 -19 7 0 19 -6 25 -14 6 -7
28 -16 47 -19 22 -4 47 -1 63 7 14 8 41 30 59 50 17 19 32 45 32 56 0 11 -4
20 -10 20 -5 0 -10 7 -10 15 0 8 5 15 10 15 6 0 10 14 10 30 0 23 -4 30 -20
30 -11 0 -22 -6 -24 -13 -3 -6 -7 -25 -11 -40 -3 -16 -16 -39 -30 -52 -13 -14
-35 -27 -50 -31 -19 -5 -43 2 -86 24 -42 22 -69 30 -88 26 -18 -4 -35 1 -50
14 -24 19 -24 19 -5 53 10 19 23 37 27 40 5 4 15 17 23 30 7 13 18 35 25 49 6
14 16 34 22 45 6 11 26 47 44 80 18 33 33 66 33 73 0 7 -14 12 -39 12z"/>
<path d="M229 50 c-28 0 -39 -4 -37 -12 3 -7 20 -16 39 -20 19 -3 38 -3 43 2
4 4 5 13 2 19 -4 6 -25 11 -47 11z"/>
</g>
</svg>
