<?xml version="1.0" standalone="no"?>
<!DOCTYPE svg PUBLIC "-//W3C//DTD SVG 20010904//EN"
 "http://www.w3.org/TR/2001/REC-SVG-20010904/DTD/svg10.dtd">
<svg version="1.0" xmlns="http://www.w3.org/2000/svg"
 width="56.000000pt" height="56.000000pt" viewBox="0 0 56.000000 56.000000"
 preserveAspectRatio="xMidYMid meet">
<metadata>
Created by potrace 1.16, written by Peter Selinger 2001-2019
</metadata>
<g transform="translate(0.000000,56.000000) scale(0.100000,-0.100000)"
fill="#000000" stroke="none">
<path d="M240 528 c-9 1 -23 -3 -32 -10 -9 -7 -22 -37 -29 -65 -7 -29 -16 -53
-19 -53 -4 0 -13 -19 -19 -42 -7 -23 -42 -102 -78 -175 -35 -73 -61 -138 -58
-143 3 -6 14 -10 24 -10 10 0 23 6 28 12 6 7 29 58 52 113 23 55 47 110 53
123 6 12 15 22 19 22 5 0 13 -9 19 -19 5 -11 10 -29 10 -41 0 -12 12 -45 27
-72 15 -27 35 -54 45 -59 12 -7 34 -3 75 12 32 12 70 24 85 26 15 3 39 17 53
30 14 14 25 30 25 35 0 5 9 18 20 30 11 12 20 28 20 35 0 7 -6 13 -14 13 -8 0
-31 -15 -52 -34 -21 -19 -68 -50 -104 -69 -37 -19 -71 -32 -77 -29 -5 4 -21
37 -36 75 -15 37 -27 81 -27 97 0 23 -4 30 -20 30 -11 0 -20 4 -20 10 0 5 12
34 26 64 14 30 24 63 22 73 -2 10 -10 19 -18 21z"/>
<path d="M203 130 c-7 0 -13 -11 -13 -24 0 -14 5 -28 10 -31 8 -5 7 -11 -1
-21 -9 -11 -8 -15 4 -19 8 -4 39 -5 68 -3 30 2 53 8 52 13 -1 6 -11 11 -22 13
-11 2 -34 19 -53 37 -18 19 -39 35 -45 35z"/>
</g>
</svg>
