<?xml version="1.0" standalone="no"?>
<!DOCTYPE svg PUBLIC "-//W3C//DTD SVG 20010904//EN"
 "http://www.w3.org/TR/2001/REC-SVG-20010904/DTD/svg10.dtd">
<svg version="1.0" xmlns="http://www.w3.org/2000/svg"
 width="56.000000pt" height="56.000000pt" viewBox="0 0 56.000000 56.000000"
 preserveAspectRatio="xMidYMid meet">
<metadata>
Created by potrace 1.16, written by Peter Selinger 2001-2019
</metadata>
<g transform="translate(0.000000,56.000000) scale(0.100000,-0.100000)"
fill="#000000" stroke="none">
<path d="M289 448 c-24 1 -48 -1 -54 -5 -5 -5 -18 -25 -29 -45 -10 -20 -28
-47 -40 -59 -11 -13 -54 -59 -94 -103 -48 -54 -72 -87 -70 -101 2 -11 10 -21
18 -22 8 -2 51 37 95 87 44 49 83 90 87 90 5 0 8 -20 8 -43 0 -30 6 -49 18
-60 10 -10 22 -14 25 -10 4 3 7 35 7 69 0 45 -4 65 -14 71 -12 7 -8 16 22 49
20 23 45 44 55 48 10 3 17 12 15 19 -3 6 -24 13 -49 15z"/>
<path d="M553 219 c-5 0 -15 -4 -23 -8 -8 -5 -26 -13 -40 -19 -14 -5 -52 -15
-86 -21 -33 -6 -86 -11 -117 -11 -43 0 -57 -4 -57 -14 0 -8 8 -22 17 -31 13
-14 26 -16 62 -10 25 4 55 8 66 10 11 2 43 11 72 19 29 7 66 20 83 27 21 10
30 21 30 36 0 13 -3 23 -7 22z"/>
</g>
</svg>
