<?xml version="1.0" standalone="no"?>
<!DOCTYPE svg PUBLIC "-//W3C//DTD SVG 20010904//EN"
 "http://www.w3.org/TR/2001/REC-SVG-20010904/DTD/svg10.dtd">
<svg version="1.0" xmlns="http://www.w3.org/2000/svg"
 width="56.000000pt" height="56.000000pt" viewBox="0 0 56.000000 56.000000"
 preserveAspectRatio="xMidYMid meet">
<metadata>
Created by potrace 1.16, written by Peter Selinger 2001-2019
</metadata>
<g transform="translate(0.000000,56.000000) scale(0.100000,-0.100000)"
fill="#000000" stroke="none">
<path d="M306 540 c-26 0 -41 -7 -60 -30 -14 -17 -59 -82 -101 -145 -41 -63
-75 -118 -75 -123 0 -5 -16 -31 -35 -58 -19 -27 -35 -56 -35 -65 0 -9 6 -19
14 -22 8 -3 21 2 29 11 8 9 20 32 28 49 8 18 20 35 27 38 7 3 24 -6 37 -19 14
-14 37 -51 52 -83 15 -32 32 -61 38 -65 5 -4 24 -8 40 -8 17 0 50 6 75 14 25
8 65 20 90 27 25 8 54 18 65 24 11 6 30 17 43 25 12 8 22 23 22 32 0 10 -4 18
-10 18 -5 0 -24 -8 -42 -18 -18 -11 -58 -24 -88 -31 -30 -7 -69 -17 -86 -22
-17 -5 -44 -9 -60 -9 -26 1 -32 8 -64 77 -19 41 -43 80 -52 87 -10 6 -18 16
-18 22 0 6 28 48 62 94 33 45 78 100 100 122 21 21 38 43 38 48 0 6 -15 10
-34 10z"/>
</g>
</svg>
