<?xml version="1.0" standalone="no"?>
<!DOCTYPE svg PUBLIC "-//W3C//DTD SVG 20010904//EN"
 "http://www.w3.org/TR/2001/REC-SVG-20010904/DTD/svg10.dtd">
<svg version="1.0" xmlns="http://www.w3.org/2000/svg"
 width="56.000000pt" height="56.000000pt" viewBox="0 0 56.000000 56.000000"
 preserveAspectRatio="xMidYMid meet">
<metadata>
Created by potrace 1.16, written by Peter Selinger 2001-2019
</metadata>
<g transform="translate(0.000000,56.000000) scale(0.100000,-0.100000)"
fill="#000000" stroke="none">
<path d="M335 480 c-34 0 -47 -4 -52 -17 -4 -10 -27 -43 -52 -73 -25 -30 -50
-57 -56 -59 -5 -2 -30 -27 -55 -55 -25 -28 -62 -68 -83 -89 -20 -21 -37 -45
-37 -55 0 -9 7 -25 14 -35 11 -14 19 -16 40 -7 14 5 26 15 26 22 0 7 23 43 50
81 27 37 56 67 64 67 8 0 17 -7 20 -16 3 -9 6 -29 6 -45 0 -16 12 -48 26 -70
19 -30 30 -39 42 -34 9 4 32 8 51 9 19 1 36 7 39 14 2 7 14 12 27 12 13 0 36
6 52 14 15 7 45 22 66 31 23 11 37 25 37 37 0 10 -3 18 -6 18 -3 0 -20 -6 -37
-13 -18 -8 -54 -22 -82 -32 -27 -10 -70 -19 -95 -19 -45 -1 -45 -1 -62 54 -10
30 -23 65 -30 78 -10 19 -8 26 13 48 13 14 45 42 72 62 26 20 47 44 47 54 0
15 -8 18 -45 18z"/>
</g>
</svg>
