<?xml version="1.0" standalone="no"?>
<!DOCTYPE svg PUBLIC "-//W3C//DTD SVG 20010904//EN"
 "http://www.w3.org/TR/2001/REC-SVG-20010904/DTD/svg10.dtd">
<svg version="1.0" xmlns="http://www.w3.org/2000/svg"
 width="56.000000pt" height="56.000000pt" viewBox="0 0 56.000000 56.000000"
 preserveAspectRatio="xMidYMid meet">
<metadata>
Created by potrace 1.16, written by Peter Selinger 2001-2019
</metadata>
<g transform="translate(0.000000,56.000000) scale(0.100000,-0.100000)"
fill="#000000" stroke="none">
<path d="M150 502 c-16 3 -35 1 -41 -3 -6 -4 -8 -12 -5 -18 4 -6 23 -11 42
-11 22 0 34 5 34 14 0 8 -13 16 -30 18z"/>
<path d="M361 500 c-35 0 -40 -3 -46 -29 -3 -15 -23 -44 -43 -64 -20 -19 -90
-88 -154 -153 -65 -64 -118 -123 -118 -131 0 -8 5 -23 10 -34 6 -10 15 -19 20
-19 4 0 39 42 76 93 38 50 88 113 112 140 25 26 53 47 63 47 15 0 19 -7 19
-32 0 -18 -11 -55 -25 -82 -22 -44 -24 -54 -13 -85 6 -20 17 -51 25 -68 12
-28 19 -33 48 -33 19 0 37 5 40 10 3 6 16 10 29 10 12 0 32 9 44 20 12 11 24
20 28 20 4 0 25 8 45 18 23 10 39 24 39 35 0 9 -5 17 -12 17 -6 0 -19 -6 -27
-14 -9 -8 -40 -24 -68 -35 -39 -15 -59 -18 -77 -11 -13 5 -31 19 -40 32 -9 12
-16 30 -16 39 0 9 9 37 20 63 16 35 20 63 18 117 -2 63 0 74 20 89 12 10 22
23 22 29 0 6 -18 11 -39 11z"/>
</g>
</svg>
