<?xml version="1.0" standalone="no"?>
<!DOCTYPE svg PUBLIC "-//W3C//DTD SVG 20010904//EN"
 "http://www.w3.org/TR/2001/REC-SVG-20010904/DTD/svg10.dtd">
<svg version="1.0" xmlns="http://www.w3.org/2000/svg"
 width="56.000000pt" height="56.000000pt" viewBox="0 0 56.000000 56.000000"
 preserveAspectRatio="xMidYMid meet">
<metadata>
Created by potrace 1.16, written by Peter Selinger 2001-2019
</metadata>
<g transform="translate(0.000000,56.000000) scale(0.100000,-0.100000)"
fill="#000000" stroke="none">
<path d="M306 490 c-1 0 -6 -3 -9 -7 -4 -3 -7 -23 -7 -43 0 -30 -11 -49 -62
-111 -35 -41 -78 -90 -97 -109 -18 -19 -53 -55 -77 -80 -24 -25 -44 -53 -44
-63 0 -13 6 -17 22 -15 13 2 29 16 38 32 8 17 29 44 46 62 31 32 31 32 139
-22 59 -30 115 -54 124 -54 9 0 34 12 56 27 22 15 45 32 52 39 7 6 21 28 32
48 12 20 21 45 21 55 0 11 6 21 13 24 6 2 9 7 6 11 -3 3 -14 4 -23 0 -9 -3
-25 -25 -35 -48 -11 -22 -32 -53 -48 -67 -15 -15 -38 -32 -51 -39 -21 -10 -35
-6 -118 35 -52 26 -94 50 -94 53 0 4 15 23 33 42 18 19 42 49 54 65 11 17 30
47 42 68 20 35 20 40 6 67 -9 17 -17 30 -19 30z"/>
</g>
</svg>
