<?xml version="1.0" standalone="no"?>
<!DOCTYPE svg PUBLIC "-//W3C//DTD SVG 20010904//EN"
 "http://www.w3.org/TR/2001/REC-SVG-20010904/DTD/svg10.dtd">
<svg version="1.0" xmlns="http://www.w3.org/2000/svg"
 width="56.000000pt" height="56.000000pt" viewBox="0 0 56.000000 56.000000"
 preserveAspectRatio="xMidYMid meet">
<metadata>
Created by potrace 1.16, written by Peter Selinger 2001-2019
</metadata>
<g transform="translate(0.000000,56.000000) scale(0.100000,-0.100000)"
fill="#000000" stroke="none">
<path d="M277 560 c-16 0 -28 -9 -38 -27 -7 -16 -26 -47 -41 -70 -15 -23 -28
-47 -28 -54 0 -7 -13 -40 -30 -74 -16 -33 -45 -102 -65 -153 -20 -52 -38 -114
-42 -138 -5 -42 -5 -44 20 -44 22 0 28 6 38 43 6 23 14 47 18 52 4 6 13 30 20
55 7 25 19 53 26 63 12 17 14 17 31 -6 11 -14 24 -33 30 -43 9 -15 22 -19 63
-17 28 1 59 7 70 12 10 6 38 12 62 13 44 3 44 3 41 -36 -2 -22 -12 -56 -23
-77 -10 -21 -19 -43 -19 -49 0 -7 13 -10 31 -8 18 2 35 10 40 18 4 8 14 37 22
64 12 39 13 56 3 89 -9 33 -17 42 -43 49 -24 6 -51 2 -107 -17 -41 -14 -79
-25 -84 -25 -6 0 -21 23 -33 50 -18 40 -27 50 -46 50 -21 0 -23 4 -17 23 3 12
14 38 24 57 10 19 28 55 40 80 12 25 31 57 41 72 11 14 19 31 19 37 0 6 -10
11 -23 11z"/>
</g>
</svg>
