<?xml version="1.0" standalone="no"?>
<!DOCTYPE svg PUBLIC "-//W3C//DTD SVG 20010904//EN"
 "http://www.w3.org/TR/2001/REC-SVG-20010904/DTD/svg10.dtd">
<svg version="1.0" xmlns="http://www.w3.org/2000/svg"
 width="56.000000pt" height="56.000000pt" viewBox="0 0 56.000000 56.000000"
 preserveAspectRatio="xMidYMid meet">
<metadata>
Created by potrace 1.16, written by Peter Selinger 2001-2019
</metadata>
<g transform="translate(0.000000,56.000000) scale(0.100000,-0.100000)"
fill="#000000" stroke="none">
<path d="M281 460 c-11 0 -26 -11 -33 -24 -7 -13 -43 -61 -80 -106 -42 -51
-68 -91 -68 -106 0 -17 -6 -24 -19 -24 -11 0 -33 -18 -50 -39 -17 -21 -31 -46
-31 -55 0 -9 8 -16 18 -16 10 0 29 11 42 25 13 13 41 34 62 45 21 11 44 20 51
20 7 0 30 -10 52 -21 22 -12 59 -32 83 -45 31 -18 58 -24 100 -24 49 0 61 4
89 30 17 16 35 40 39 52 4 13 12 26 18 30 7 5 3 8 -9 8 -11 0 -29 -11 -40 -24
-11 -13 -35 -33 -54 -44 -34 -21 -34 -21 -80 3 -25 12 -72 35 -104 50 -48 23
-66 27 -107 22 -28 -3 -50 -2 -50 3 0 4 15 18 34 30 19 11 62 52 95 89 42 47
61 77 61 95 0 19 -5 26 -19 26z"/>
</g>
</svg>
