<?xml version="1.0" standalone="no"?>
<!DOCTYPE svg PUBLIC "-//W3C//DTD SVG 20010904//EN"
 "http://www.w3.org/TR/2001/REC-SVG-20010904/DTD/svg10.dtd">
<svg version="1.0" xmlns="http://www.w3.org/2000/svg"
 width="56.000000pt" height="56.000000pt" viewBox="0 0 56.000000 56.000000"
 preserveAspectRatio="xMidYMid meet">
<metadata>
Created by potrace 1.16, written by Peter Selinger 2001-2019
</metadata>
<g transform="translate(0.000000,56.000000) scale(0.100000,-0.100000)"
fill="#000000" stroke="none">
<path d="M130 540 c-5 0 -11 -4 -15 -9 -3 -5 -1 -12 5 -16 5 -3 15 -3 20 0 6
4 8 11 5 16 -4 5 -10 9 -15 9z"/>
<path d="M258 538 c-9 2 -21 -5 -27 -15 -5 -10 -19 -34 -30 -53 -11 -19 -32
-60 -47 -90 -14 -30 -31 -66 -38 -80 -6 -14 -26 -45 -45 -70 -19 -25 -42 -64
-52 -88 -11 -24 -19 -59 -19 -78 0 -19 4 -34 9 -34 5 0 18 12 28 28 10 15 25
41 32 57 7 17 20 44 28 60 8 17 22 44 31 60 10 17 28 40 42 52 14 13 30 23 37
23 7 0 14 -21 18 -47 3 -27 11 -65 17 -85 6 -21 21 -44 32 -51 12 -7 39 -18
61 -25 22 -6 75 -12 117 -14 52 -2 81 1 90 10 9 9 9 15 1 23 -6 6 -31 10 -55
9 -24 -1 -56 -2 -73 -2 -16 -1 -44 3 -62 7 -18 4 -39 15 -48 25 -9 10 -21 36
-27 57 -5 21 -12 53 -15 72 -4 23 -14 38 -34 50 -16 9 -29 24 -29 33 0 9 5 20
10 23 6 3 10 14 10 24 0 9 14 30 30 46 19 18 30 38 28 50 -2 11 -11 21 -20 23z"/>
<path d="M247 83 c-8 3 -27 -1 -43 -9 -16 -9 -32 -21 -36 -27 -4 -7 -8 -15 -8
-20 0 -4 21 -6 48 -6 26 1 53 6 59 11 9 7 10 16 3 28 -5 10 -16 20 -23 23z"/>
</g>
</svg>
