<?xml version="1.0" standalone="no"?>
<!DOCTYPE svg PUBLIC "-//W3C//DTD SVG 20010904//EN"
 "http://www.w3.org/TR/2001/REC-SVG-20010904/DTD/svg10.dtd">
<svg version="1.0" xmlns="http://www.w3.org/2000/svg"
 width="56.000000pt" height="56.000000pt" viewBox="0 0 56.000000 56.000000"
 preserveAspectRatio="xMidYMid meet">
<metadata>
Created by potrace 1.16, written by Peter Selinger 2001-2019
</metadata>
<g transform="translate(0.000000,56.000000) scale(0.100000,-0.100000)"
fill="#000000" stroke="none">
<path d="M184 486 c-15 4 -29 -1 -44 -16 -16 -16 -19 -25 -11 -33 8 -8 14 -8
23 1 7 7 19 12 28 12 9 0 26 -9 38 -20 21 -20 21 -22 5 -53 -9 -18 -30 -50
-47 -71 -17 -22 -51 -60 -76 -85 -25 -25 -58 -63 -73 -83 -15 -20 -27 -44 -27
-52 0 -9 8 -16 18 -16 10 0 26 14 36 31 10 17 43 57 73 90 31 32 62 59 69 59
9 0 14 -12 15 -30 1 -16 3 -34 4 -40 1 -5 3 -21 4 -34 0 -14 12 -37 25 -52 23
-28 23 -28 69 -6 26 12 49 22 52 22 4 0 25 15 48 32 22 18 54 44 71 58 16 14
40 35 53 46 12 12 23 26 23 33 0 6 -4 11 -9 11 -5 0 -23 -11 -39 -25 -17 -14
-34 -25 -38 -25 -5 0 -23 -12 -39 -28 -17 -15 -42 -33 -55 -41 -14 -8 -36 -20
-50 -27 -14 -7 -34 -14 -45 -16 -18 -3 -21 4 -25 62 -3 36 -11 76 -19 89 -12
22 -10 26 23 58 24 24 36 44 36 63 0 23 -8 33 -47 54 -25 15 -56 29 -69 32z"/>
</g>
</svg>
