<?xml version="1.0" standalone="no"?>
<!DOCTYPE svg PUBLIC "-//W3C//DTD SVG 20010904//EN"
 "http://www.w3.org/TR/2001/REC-SVG-20010904/DTD/svg10.dtd">
<svg version="1.0" xmlns="http://www.w3.org/2000/svg"
 width="56.000000pt" height="56.000000pt" viewBox="0 0 56.000000 56.000000"
 preserveAspectRatio="xMidYMid meet">
<metadata>
Created by potrace 1.16, written by Peter Selinger 2001-2019
</metadata>
<g transform="translate(0.000000,56.000000) scale(0.100000,-0.100000)"
fill="#000000" stroke="none">
<path d="M363 539 c-4 -1 -19 -4 -33 -8 -14 -4 -30 -18 -37 -31 -8 -14 -10
-38 -7 -55 6 -26 5 -28 -9 -16 -14 11 -20 9 -42 -15 -14 -15 -25 -32 -25 -39
0 -6 -11 -22 -25 -35 -14 -13 -25 -29 -25 -36 0 -8 -9 -29 -19 -48 -11 -19
-17 -37 -14 -40 4 -3 14 -6 23 -6 9 0 24 16 33 35 9 19 23 35 31 35 7 0 16
-14 20 -31 3 -17 6 -52 6 -78 0 -27 7 -56 16 -70 16 -22 21 -23 85 -17 38 4
89 17 117 31 28 13 62 27 76 31 17 4 26 13 26 26 0 17 -4 19 -32 13 -18 -4
-40 -11 -50 -16 -10 -5 -27 -14 -38 -19 -11 -5 -28 -10 -38 -10 -11 0 -33 -7
-51 -16 -25 -13 -35 -13 -46 -4 -11 9 -15 34 -15 91 0 61 -3 80 -16 87 -9 5
-17 23 -18 40 -2 25 6 38 41 69 24 21 43 44 43 51 0 8 10 22 22 31 13 11 19
24 15 34 -4 10 -10 17 -14 16z"/>
<path d="M116 189 c-12 10 -23 0 -60 -52 -25 -36 -46 -74 -46 -85 0 -11 7 -25
15 -32 8 -6 19 -9 25 -5 5 3 10 12 10 19 0 7 9 25 20 39 11 14 20 32 20 40 0
8 7 17 15 21 8 3 15 14 15 24 0 11 -6 25 -14 31z"/>
</g>
</svg>
