<?xml version="1.0" standalone="no"?>
<!DOCTYPE svg PUBLIC "-//W3C//DTD SVG 20010904//EN"
 "http://www.w3.org/TR/2001/REC-SVG-20010904/DTD/svg10.dtd">
<svg version="1.0" xmlns="http://www.w3.org/2000/svg"
 width="56.000000pt" height="56.000000pt" viewBox="0 0 56.000000 56.000000"
 preserveAspectRatio="xMidYMid meet">
<metadata>
Created by potrace 1.16, written by Peter Selinger 2001-2019
</metadata>
<g transform="translate(0.000000,56.000000) scale(0.100000,-0.100000)"
fill="#000000" stroke="none">
<path d="M231 440 c-11 0 -32 -17 -47 -37 -16 -20 -36 -44 -44 -53 -8 -9 -43
-46 -77 -82 -53 -56 -63 -72 -63 -102 0 -24 5 -36 14 -36 7 0 32 29 55 64 23
36 55 76 72 90 17 14 41 26 54 26 13 0 29 -10 37 -22 8 -13 23 -44 32 -69 13
-33 28 -52 50 -64 32 -17 34 -17 97 10 35 15 73 31 84 35 11 5 30 12 43 15 13
4 22 14 22 26 0 10 -7 19 -15 19 -8 0 -23 -4 -33 -9 -9 -5 -47 -18 -83 -30
-37 -11 -75 -21 -86 -21 -10 0 -24 5 -31 12 -7 7 -12 22 -12 34 0 12 -7 37
-15 57 -9 22 -23 37 -39 41 -13 3 -32 3 -40 0 -9 -3 -16 -2 -16 3 0 5 16 24
35 43 19 18 32 37 29 42 -3 4 -13 8 -23 8z"/>
</g>
</svg>
