<?xml version="1.0" standalone="no"?>
<!DOCTYPE svg PUBLIC "-//W3C//DTD SVG 20010904//EN"
 "http://www.w3.org/TR/2001/REC-SVG-20010904/DTD/svg10.dtd">
<svg version="1.0" xmlns="http://www.w3.org/2000/svg"
 width="56.000000pt" height="56.000000pt" viewBox="0 0 56.000000 56.000000"
 preserveAspectRatio="xMidYMid meet">
<metadata>
Created by potrace 1.16, written by Peter Selinger 2001-2019
</metadata>
<g transform="translate(0.000000,56.000000) scale(0.100000,-0.100000)"
fill="#000000" stroke="none">
<path d="M335 560 c-30 0 -36 -4 -41 -27 -3 -16 -10 -43 -16 -62 -6 -18 -23
-57 -38 -85 -15 -28 -38 -71 -51 -96 -13 -25 -26 -47 -29 -50 -3 -3 -13 -22
-24 -42 -10 -20 -29 -47 -42 -59 -14 -13 -24 -34 -24 -50 0 -18 7 -32 19 -39
15 -8 24 -5 43 15 12 14 28 25 35 25 7 0 24 -20 39 -45 26 -45 26 -45 87 -45
38 1 75 8 95 18 19 9 42 33 52 52 10 19 26 52 35 73 9 20 13 42 10 47 -3 6
-12 10 -19 10 -8 0 -21 -15 -30 -34 -8 -18 -35 -50 -58 -70 -24 -20 -57 -39
-75 -42 -29 -5 -38 -1 -83 44 -47 47 -50 51 -39 78 5 16 17 36 25 45 8 9 28
42 44 75 16 32 34 66 39 74 5 8 15 29 22 45 7 17 21 41 30 55 9 14 19 40 22
58 6 31 6 32 -28 32z"/>
</g>
</svg>
