<?xml version="1.0" standalone="no"?>
<!DOCTYPE svg PUBLIC "-//W3C//DTD SVG 20010904//EN"
 "http://www.w3.org/TR/2001/REC-SVG-20010904/DTD/svg10.dtd">
<svg version="1.0" xmlns="http://www.w3.org/2000/svg"
 width="56.000000pt" height="56.000000pt" viewBox="0 0 56.000000 56.000000"
 preserveAspectRatio="xMidYMid meet">
<metadata>
Created by potrace 1.16, written by Peter Selinger 2001-2019
</metadata>
<g transform="translate(0.000000,56.000000) scale(0.100000,-0.100000)"
fill="#000000" stroke="none">
<path d="M197 480 c-15 0 -28 -9 -34 -22 -6 -13 -16 -49 -23 -80 -7 -36 -26
-80 -51 -117 -21 -32 -39 -64 -39 -70 0 -6 -7 -11 -15 -11 -8 0 -19 -9 -25
-19 -5 -11 -10 -34 -10 -51 0 -25 4 -31 18 -28 9 2 18 13 20 26 2 12 7 22 11
22 4 0 16 16 27 35 10 20 36 47 56 60 21 14 43 25 49 25 6 0 9 -6 6 -13 -3 -8
5 -27 17 -42 14 -17 27 -25 35 -21 7 5 9 16 5 29 -4 12 -22 36 -41 55 -35 33
-35 33 -9 72 20 31 26 52 26 95 0 51 -2 55 -23 55z"/>
<path d="M541 480 c-10 0 -30 -12 -45 -27 -19 -18 -23 -30 -16 -37 7 -7 16 -7
30 2 11 6 27 12 35 12 9 0 15 9 15 25 0 18 -5 25 -19 25z"/>
<path d="M546 260 c-7 0 -24 -8 -37 -17 -13 -10 -34 -24 -46 -30 -13 -7 -31
-13 -42 -13 -10 0 -32 -7 -47 -15 -16 -8 -50 -18 -77 -21 -26 -4 -50 -11 -53
-16 -3 -5 2 -16 12 -23 11 -8 33 -15 51 -15 17 0 60 14 95 31 34 17 71 35 80
40 10 5 24 9 31 9 7 0 20 9 30 20 9 11 17 27 17 35 0 8 -6 15 -14 15z"/>
</g>
</svg>
