<?xml version="1.0" standalone="no"?>
<!DOCTYPE svg PUBLIC "-//W3C//DTD SVG 20010904//EN"
 "http://www.w3.org/TR/2001/REC-SVG-20010904/DTD/svg10.dtd">
<svg version="1.0" xmlns="http://www.w3.org/2000/svg"
 width="56.000000pt" height="56.000000pt" viewBox="0 0 56.000000 56.000000"
 preserveAspectRatio="xMidYMid meet">
<metadata>
Created by potrace 1.16, written by Peter Selinger 2001-2019
</metadata>
<g transform="translate(0.000000,56.000000) scale(0.100000,-0.100000)"
fill="#000000" stroke="none">
<path d="M221 460 c-10 0 -25 -8 -34 -18 -10 -10 -17 -22 -17 -25 0 -4 -11
-20 -24 -35 -14 -15 -37 -45 -52 -67 -15 -22 -43 -62 -61 -90 -20 -31 -33 -62
-33 -82 0 -22 5 -33 15 -33 8 0 32 30 54 68 21 37 53 85 71 107 17 22 38 44
46 48 9 5 26 -2 49 -20 20 -15 51 -49 70 -75 32 -44 36 -47 72 -42 21 3 71 22
111 42 58 29 72 40 72 59 0 13 -5 23 -10 23 -6 0 -20 -9 -32 -20 -11 -10 -40
-28 -64 -40 -24 -11 -57 -20 -73 -20 -22 0 -34 8 -49 33 -12 17 -34 45 -50 60
-18 17 -39 28 -53 27 -13 -1 -30 -2 -38 -1 -8 1 1 17 23 41 20 23 34 45 31 50
-4 6 -14 10 -24 10z"/>
<path d="M527 220 c-7 0 -18 -12 -24 -27 -11 -22 -10 -29 4 -45 9 -10 24 -18
35 -18 10 0 18 7 18 15 0 8 -9 15 -20 15 -11 0 -20 6 -20 14 0 8 7 17 16 20 8
3 12 10 9 16 -3 5 -12 10 -18 10z"/>
<path d="M323 138 c-10 5 -25 7 -33 4 -8 -2 -23 -11 -32 -20 -10 -8 -15 -19
-12 -23 3 -5 25 -9 50 -9 37 0 44 3 44 20 0 10 -8 23 -17 28z"/>
</g>
</svg>
