<?xml version="1.0" standalone="no"?>
<!DOCTYPE svg PUBLIC "-//W3C//DTD SVG 20010904//EN"
 "http://www.w3.org/TR/2001/REC-SVG-20010904/DTD/svg10.dtd">
<svg version="1.0" xmlns="http://www.w3.org/2000/svg"
 width="128.000000pt" height="128.000000pt" viewBox="0 0 128.000000 128.000000"
 preserveAspectRatio="xMidYMid meet">
<metadata>
Created by potrace 1.16, written by Peter Selinger 2001-2019
</metadata>
<g transform="translate(0.000000,128.000000) scale(0.100000,-0.100000)"
fill="#000000" stroke="none">
<path d="M475 1058 c-5 -1 -36 -3 -67 -5 -47 -3 -57 -7 -56 -21 1 -9 0 -31 0
-47 -2 -23 -19 -48 -71 -100 -37 -39 -94 -92 -125 -118 -31 -26 -61 -57 -66
-68 -11 -19 -10 -19 26 -4 21 9 52 26 68 38 17 13 53 36 79 51 27 15 55 25 63
22 9 -3 14 -19 14 -43 0 -21 -4 -44 -9 -52 -5 -8 -42 -24 -82 -37 -41 -13 -84
-24 -95 -24 -12 0 -45 -7 -73 -17 -28 -9 -51 -22 -51 -28 0 -7 6 -18 14 -24
11 -9 26 -9 63 -1 26 7 69 19 94 27 26 9 55 13 64 9 16 -6 15 -11 -15 -41 -18
-19 -72 -60 -119 -91 -47 -32 -92 -65 -99 -73 -6 -8 -12 -21 -12 -28 0 -7 9
-13 21 -13 11 0 37 11 57 25 20 14 41 25 47 25 5 0 36 23 68 50 32 28 67 50
77 50 10 0 21 -4 25 -10 3 -5 1 -39 -6 -75 -6 -36 -14 -67 -19 -70 -4 -2 -18
7 -30 20 -13 14 -29 25 -37 25 -7 0 -13 -5 -13 -12 0 -6 21 -42 47 -80 27 -39
54 -68 64 -68 9 0 22 6 28 14 7 8 13 26 15 40 1 14 6 29 9 33 4 3 7 44 7 89 0
46 5 86 10 89 6 4 24 -5 41 -19 17 -14 34 -26 38 -26 4 0 12 5 19 12 7 7 12
19 12 29 0 9 -23 38 -50 66 -33 32 -49 55 -45 65 3 8 31 21 63 28 31 8 67 20
79 28 21 13 23 12 32 -11 5 -14 13 -40 16 -59 6 -30 3 -36 -20 -46 -14 -7 -35
-12 -46 -12 -14 0 -19 -5 -17 -17 3 -15 15 -18 73 -18 57 0 70 -3 73 -17 2 -9
-7 -31 -19 -47 -12 -17 -68 -70 -123 -118 -55 -49 -109 -91 -119 -95 -10 -4
-15 -12 -12 -18 3 -5 21 -10 40 -10 18 0 35 6 38 14 3 7 39 29 80 49 56 27 86
50 124 94 28 32 58 73 67 91 9 18 24 36 32 39 10 4 30 -8 52 -30 20 -19 55
-51 76 -71 22 -20 50 -39 62 -42 13 -3 30 -16 38 -29 8 -12 39 -39 69 -59 40
-26 66 -36 94 -36 25 0 54 9 81 27 28 18 38 30 29 35 -6 4 -37 13 -67 19 -30
6 -66 19 -80 28 -14 9 -36 22 -50 28 -15 6 -34 7 -47 2 -20 -7 -23 -5 -23 14
0 13 -12 35 -27 50 -16 14 -44 33 -65 41 -20 9 -53 36 -73 61 -38 45 -38 45
-27 103 6 31 14 73 19 92 9 34 10 35 65 37 37 1 58 -2 61 -10 2 -7 -5 -33 -16
-57 -11 -25 -27 -60 -35 -78 -8 -18 -13 -35 -10 -37 2 -2 17 -4 34 -4 16 0 73
-1 127 -1 80 -1 98 2 103 15 4 9 4 18 1 21 -2 3 -15 6 -28 7 -13 1 -32 10 -41
19 -18 18 -20 17 -58 -2 -21 -11 -41 -20 -44 -20 -3 0 4 21 14 46 11 25 20 50
20 56 0 5 14 23 30 40 17 16 30 40 30 52 0 14 -10 28 -25 36 -22 12 -35 10
-108 -15 -45 -16 -88 -31 -96 -33 -11 -4 -13 2 -9 29 4 21 1 42 -7 53 -10 13
-11 25 -4 43 5 13 9 30 9 37 0 8 -10 17 -22 21 -13 4 -44 8 -70 11 -44 3 -49
2 -63 -26 -14 -28 -14 -29 12 -42 14 -7 29 -20 33 -28 4 -8 12 -31 19 -50 8
-26 8 -37 -2 -46 -6 -7 -31 -15 -54 -19 -38 -6 -43 -4 -64 24 -13 17 -30 31
-38 31 -9 0 -25 -7 -35 -15 -18 -13 -19 -19 -8 -48 7 -19 12 -41 12 -50 0 -9
-2 -17 -5 -17 -3 0 -14 5 -24 12 -15 9 -28 9 -60 -2 -25 -8 -45 -10 -50 -4 -5
5 -14 33 -20 62 -6 29 -11 59 -11 66 0 8 13 19 29 26 16 6 41 25 57 41 28 29
28 29 6 52 -12 13 -22 28 -22 34 0 6 12 14 27 18 21 5 24 8 12 16 -7 5 -18 8
-24 7z m228 -308 c15 0 30 -6 32 -12 3 -7 -1 -42 -9 -78 -13 -64 -14 -65 -45
-63 -18 0 -34 3 -37 6 -3 2 0 17 6 32 6 15 8 43 4 62 -5 25 -3 38 7 44 8 5 27
9 42 9z"/>
<path d="M610 1060 c-5 0 -12 -4 -15 -10 -3 -5 3 -10 15 -10 12 0 18 5 15 10
-3 6 -10 10 -15 10z"/>
<path d="M744 310 c-11 0 -14 -9 -12 -37 3 -38 3 -38 53 -38 38 0 50 4 53 16
2 11 -11 24 -38 38 -22 11 -47 21 -56 21z"/>
</g>
</svg>
