<?xml version="1.0" standalone="no"?>
<!DOCTYPE svg PUBLIC "-//W3C//DTD SVG 20010904//EN"
 "http://www.w3.org/TR/2001/REC-SVG-20010904/DTD/svg10.dtd">
<svg version="1.0" xmlns="http://www.w3.org/2000/svg"
 width="128.000000pt" height="128.000000pt" viewBox="0 0 128.000000 128.000000"
 preserveAspectRatio="xMidYMid meet">
<metadata>
Created by potrace 1.16, written by Peter Selinger 2001-2019
</metadata>
<g transform="translate(0.000000,128.000000) scale(0.100000,-0.100000)"
fill="#000000" stroke="none">
<path d="M781 1220 c-31 0 -53 -5 -61 -15 -10 -12 -9 -20 4 -40 16 -24 15 -29
-9 -103 -15 -42 -33 -87 -41 -100 -8 -13 -26 -44 -40 -69 -13 -25 -24 -54 -24
-64 0 -10 12 -32 28 -49 26 -29 28 -30 56 -15 15 8 32 12 37 9 5 -3 9 -17 9
-31 0 -15 -14 -41 -35 -64 -19 -22 -35 -44 -35 -50 0 -6 -14 -30 -30 -55 -17
-24 -37 -44 -45 -44 -8 0 -15 -4 -15 -9 0 -4 -13 -25 -29 -45 -21 -26 -29 -47
-29 -77 -1 -27 6 -47 19 -60 10 -10 23 -19 28 -19 5 0 14 7 21 15 7 8 18 15
24 15 6 0 40 27 74 60 35 33 85 71 110 86 26 15 61 28 78 29 17 1 36 5 42 9 6
3 30 9 54 12 24 3 62 1 86 -5 23 -7 42 -16 42 -21 0 -6 7 -10 15 -10 8 0 15
-5 15 -11 0 -6 -5 -19 -10 -30 -6 -10 -16 -19 -22 -19 -7 0 -27 -10 -45 -22
-18 -13 -33 -31 -33 -40 0 -12 -8 -18 -21 -18 -12 0 -59 -20 -105 -45 -45 -25
-89 -45 -96 -45 -8 0 -21 9 -31 20 -9 11 -26 20 -38 20 -12 0 -39 -5 -60 -11
-21 -7 -53 -24 -71 -40 -33 -28 -33 -28 -15 -60 14 -26 15 -34 5 -47 -7 -8
-36 -25 -63 -37 -28 -13 -76 -28 -108 -34 -37 -8 -57 -17 -57 -27 0 -11 18
-14 83 -14 58 0 89 5 103 15 10 8 29 15 41 15 12 0 25 5 28 11 4 5 12 8 18 6
7 -2 12 -12 12 -23 0 -17 8 -19 60 -19 60 0 60 0 61 45 1 25 2 53 3 62 1 12
32 33 89 62 49 24 100 47 113 51 13 4 40 19 59 34 19 14 40 25 47 23 7 -1 40
6 74 18 34 11 71 20 81 20 15 0 17 -3 8 -19 -5 -11 -10 -37 -10 -58 1 -21 7
-62 14 -92 7 -30 18 -57 24 -59 9 -3 12 43 12 182 0 181 -1 186 -24 211 -13
14 -43 36 -68 49 -28 15 -70 26 -118 30 -42 4 -113 2 -159 -3 -64 -8 -87 -8
-92 1 -4 6 6 28 24 50 18 21 47 43 65 49 18 6 53 22 77 36 25 14 71 51 103 82
31 32 74 78 95 104 20 25 41 56 45 68 5 13 4 35 -2 53 -6 17 -20 44 -30 59
-10 15 -27 32 -38 38 -12 7 -24 7 -31 1 -7 -5 -41 -10 -77 -11 -40 -1 -85 -10
-117 -23 -28 -11 -58 -18 -67 -15 -10 4 -16 18 -16 36 0 16 -4 41 -10 55 -8
23 -15 26 -59 26z m307 -137 c6 -9 12 -25 12 -35 0 -10 -9 -36 -20 -58 -11
-21 -49 -68 -84 -104 -35 -36 -75 -68 -89 -71 -21 -6 -32 0 -61 32 -19 21 -36
44 -36 51 0 8 15 27 33 44 17 16 39 35 47 42 8 7 37 28 64 46 28 19 66 42 85
51 33 17 37 17 49 2z"/>
<path d="M26 1160 c-9 0 -16 -6 -16 -14 0 -7 7 -30 15 -49 8 -20 25 -51 37
-69 13 -18 36 -50 52 -71 19 -24 27 -45 23 -59 -2 -13 -12 -45 -22 -73 -9 -27
-26 -68 -36 -90 -10 -22 -27 -62 -39 -88 -11 -27 -20 -70 -20 -96 0 -27 5 -62
10 -78 6 -17 22 -35 35 -41 14 -6 31 -9 40 -6 8 3 40 38 71 77 31 40 67 80 80
90 12 10 46 48 75 85 29 36 79 91 112 122 32 30 74 76 93 101 19 26 34 54 34
64 0 9 -6 15 -12 12 -7 -2 -12 -11 -10 -19 1 -11 -9 -18 -31 -22 -19 -4 -48
-21 -67 -41 -19 -20 -44 -35 -56 -35 -15 0 -37 -17 -64 -49 -23 -27 -54 -52
-68 -56 -15 -3 -34 -15 -42 -25 -8 -10 -27 -22 -42 -25 -27 -7 -28 -6 -28 35
0 35 6 48 40 81 22 22 40 48 40 58 0 9 12 28 26 42 14 13 30 32 36 42 7 13 5
25 -6 42 -9 13 -38 35 -66 49 -28 14 -57 23 -65 20 -8 -3 -34 13 -63 40 -27
25 -56 46 -66 46z"/>
<path d="M689 1150 c-6 0 -20 -12 -32 -26 -12 -15 -39 -46 -61 -70 -23 -26
-36 -50 -32 -59 3 -8 9 -15 14 -15 4 0 15 6 24 13 8 6 34 38 57 69 22 31 41
64 41 73 0 8 -5 15 -11 15z"/>
<path d="M953 78 c-56 2 -94 -1 -98 -8 -3 -5 0 -13 8 -16 7 -2 50 -4 95 -2 45
2 83 8 85 13 1 6 -35 11 -90 13z"/>
</g>
</svg>
