<?xml version="1.0" standalone="no"?>
<!DOCTYPE svg PUBLIC "-//W3C//DTD SVG 20010904//EN"
 "http://www.w3.org/TR/2001/REC-SVG-20010904/DTD/svg10.dtd">
<svg version="1.0" xmlns="http://www.w3.org/2000/svg"
 width="128.000000pt" height="128.000000pt" viewBox="0 0 128.000000 128.000000"
 preserveAspectRatio="xMidYMid meet">
<metadata>
Created by potrace 1.16, written by Peter Selinger 2001-2019
</metadata>
<g transform="translate(0.000000,128.000000) scale(0.100000,-0.100000)"
fill="#000000" stroke="none">
<path d="M868 1280 c-25 0 -48 -3 -50 -7 -1 -5 -28 -29 -59 -55 -57 -48 -57
-48 -80 -13 -13 19 -27 35 -31 35 -4 0 -15 -11 -24 -25 -15 -23 -15 -27 6 -71
22 -43 25 -46 56 -41 23 4 34 1 38 -10 3 -8 6 -21 6 -28 0 -8 11 -25 25 -39
14 -14 25 -37 25 -51 0 -14 -7 -28 -15 -31 -8 -3 -26 3 -40 14 -15 12 -32 19
-38 17 -7 -2 -24 -6 -39 -9 -19 -5 -28 -13 -28 -27 0 -11 9 -37 20 -59 11 -22
20 -41 20 -44 0 -3 -9 -14 -21 -25 -12 -11 -18 -25 -14 -31 5 -8 23 -10 56 -6
32 4 49 3 49 -4 0 -6 -11 -15 -24 -20 -13 -5 -27 -14 -31 -20 -4 -6 -25 -23
-48 -38 -23 -14 -55 -34 -72 -43 -16 -9 -31 -23 -33 -31 -2 -9 4 -23 13 -31
12 -12 22 -14 41 -7 14 6 32 10 40 10 8 0 14 -6 14 -14 0 -8 -25 -43 -55 -78
-30 -34 -55 -70 -55 -79 0 -8 6 -23 13 -33 12 -16 14 -16 39 3 14 12 31 21 37
21 7 0 9 -10 5 -27 -4 -16 -11 -39 -16 -53 -7 -19 -5 -27 8 -37 12 -8 22 -9
35 -2 14 7 19 23 21 62 1 29 1 68 0 88 -1 22 4 41 13 49 12 10 15 10 18 -1 2
-8 14 -45 27 -84 13 -38 32 -85 43 -102 10 -18 23 -33 28 -33 5 0 22 12 38 28
21 18 39 54 59 112 15 47 32 84 37 83 6 0 15 -18 21 -40 7 -21 21 -74 32 -118
11 -44 35 -136 54 -205 32 -117 36 -125 61 -128 21 -3 28 2 33 23 3 14 2 47
-4 73 -6 26 -17 67 -26 92 -8 25 -21 65 -27 90 -7 25 -16 49 -21 55 -4 5 -8
19 -8 32 0 13 -7 40 -16 61 -9 20 -27 80 -41 132 -13 52 -27 105 -30 118 -4
17 0 28 16 38 11 8 21 24 21 34 0 13 -9 22 -27 26 -16 3 -33 7 -40 9 -7 2 -17
22 -24 45 -7 22 -18 45 -25 50 -8 8 -16 6 -25 -4 -8 -9 -20 -22 -27 -31 -7 -8
-24 -15 -37 -15 -14 0 -25 4 -25 9 0 6 13 30 30 54 16 24 32 61 36 83 5 35 2
42 -25 67 -17 15 -31 31 -31 35 0 5 10 18 23 29 12 11 48 37 79 58 32 21 60
46 63 56 3 10 0 27 -7 38 -10 16 -23 21 -60 21z m-5 -31 c5 1 7 -8 5 -20 -2
-13 -19 -30 -43 -43 -22 -11 -44 -27 -48 -33 -4 -7 -14 -13 -22 -13 -9 0 -12
6 -8 16 3 8 29 33 57 54 28 21 55 39 59 39z m-22 -479 c4 0 12 -7 19 -15 10
-12 10 -21 1 -38 -6 -12 -30 -34 -53 -48 -34 -23 -46 -25 -70 -17 -15 5 -31
14 -34 20 -4 6 2 18 12 28 11 10 41 30 69 44 27 14 53 26 56 26z m-187 -103
c6 -2 12 -13 14 -25 3 -16 -1 -19 -17 -15 -12 3 -21 11 -21 17 0 7 3 16 7 20
4 3 12 5 17 3z m209 -14 c5 -3 7 -31 4 -67 -3 -33 -15 -92 -28 -129 -12 -38
-29 -71 -37 -75 -8 -3 -21 -1 -29 4 -9 5 -24 32 -34 59 -10 28 -19 62 -19 77
0 18 11 35 35 55 20 15 50 40 67 55 17 15 35 25 41 21z"/>
<path d="M942 1080 c-7 0 -15 -7 -18 -15 -3 -8 9 -30 30 -52 20 -21 49 -53 65
-72 17 -22 32 -31 40 -27 9 6 10 21 5 49 -3 23 -12 49 -18 59 -6 10 -29 27
-52 38 -22 11 -46 20 -52 20z"/>
<path d="M393 959 c-15 0 -46 -9 -68 -18 -28 -13 -45 -16 -59 -9 -12 7 -22 6
-29 -1 -8 -8 -7 -19 5 -39 13 -21 24 -27 48 -25 17 0 40 9 50 18 11 10 26 15
34 12 11 -5 12 -14 5 -46 -5 -22 -22 -68 -38 -103 -15 -35 -33 -76 -40 -91 -6
-15 -11 -37 -11 -47 0 -11 -11 -39 -24 -62 -13 -24 -35 -65 -50 -91 -14 -26
-26 -54 -26 -62 0 -8 -4 -15 -9 -15 -4 0 -21 -28 -36 -61 -22 -50 -25 -67 -18
-93 5 -17 16 -32 25 -34 12 -2 19 6 24 25 4 15 12 35 19 43 6 8 15 23 18 32 3
9 18 25 32 34 25 16 27 16 53 -3 15 -11 28 -29 30 -40 2 -12 11 -28 21 -37 10
-9 25 -14 33 -11 10 4 19 32 27 83 7 42 14 88 17 102 3 14 8 39 11 56 3 18 0
35 -6 38 -6 4 -16 -7 -24 -26 -7 -18 -19 -60 -27 -93 -8 -33 -18 -63 -23 -66
-4 -3 -22 7 -39 23 -16 15 -36 28 -44 28 -9 0 -14 11 -14 28 0 16 16 60 34 98
19 39 42 90 50 115 9 25 34 78 56 119 22 40 40 76 40 80 0 4 7 21 15 36 8 16
15 35 15 42 0 7 -11 24 -25 37 -15 15 -35 25 -52 24z"/>
</g>
</svg>
