<?xml version="1.0" standalone="no"?>
<!DOCTYPE svg PUBLIC "-//W3C//DTD SVG 20010904//EN"
 "http://www.w3.org/TR/2001/REC-SVG-20010904/DTD/svg10.dtd">
<svg version="1.0" xmlns="http://www.w3.org/2000/svg"
 width="128.000000pt" height="128.000000pt" viewBox="0 0 128.000000 128.000000"
 preserveAspectRatio="xMidYMid meet">
<metadata>
Created by potrace 1.16, written by Peter Selinger 2001-2019
</metadata>
<g transform="translate(0.000000,128.000000) scale(0.100000,-0.100000)"
fill="#000000" stroke="none">
<path d="M863 1239 c-15 0 -37 -4 -48 -9 -12 -4 -27 -15 -34 -24 -12 -14 -11
-19 3 -34 9 -10 16 -23 16 -29 0 -6 -15 -22 -34 -37 -19 -14 -42 -26 -50 -26
-12 0 -14 5 -6 25 5 14 6 25 1 25 -5 0 -14 -7 -21 -15 -7 -8 -18 -15 -25 -15
-7 0 -18 13 -25 30 -7 16 -19 35 -26 41 -11 9 -18 9 -26 1 -6 -6 -8 -21 -5
-34 4 -13 23 -43 42 -66 37 -42 37 -42 10 -96 -25 -51 -26 -56 -11 -85 9 -16
16 -36 16 -42 0 -7 -12 -30 -26 -51 -26 -37 -26 -40 -12 -77 12 -29 13 -43 4
-58 -6 -10 -22 -35 -36 -54 -14 -19 -30 -47 -36 -64 -5 -16 -8 -38 -6 -48 2
-10 15 -22 28 -27 15 -6 24 -17 24 -31 0 -12 -20 -44 -45 -70 -35 -37 -45 -56
-45 -81 0 -18 4 -39 9 -46 5 -8 26 -16 47 -18 22 -2 50 -5 64 -7 14 -2 33 -7
43 -11 12 -6 23 -4 33 5 8 8 21 41 29 72 8 32 15 68 15 80 0 13 30 52 83 104
45 46 87 83 94 83 7 0 17 -9 23 -20 6 -11 17 -20 24 -20 8 0 17 -7 20 -16 3
-9 6 -27 6 -40 0 -14 -5 -34 -10 -45 -6 -10 -15 -19 -20 -19 -6 0 -10 18 -10
40 0 22 -4 40 -9 40 -5 0 -14 -23 -20 -50 -6 -28 -11 -68 -11 -89 0 -22 6 -44
15 -51 13 -11 22 -9 50 6 35 19 35 19 59 -11 13 -17 34 -66 45 -110 12 -44 21
-90 21 -103 0 -12 7 -25 15 -28 9 -4 26 5 41 21 22 24 25 34 20 67 -3 21 -15
57 -25 80 -11 24 -29 64 -40 91 -12 26 -26 70 -32 98 -8 37 -8 58 0 76 6 13
11 39 11 58 0 18 -3 41 -7 51 -5 14 -9 11 -18 -16 -6 -19 -17 -36 -23 -38 -6
-2 -18 13 -27 34 -8 20 -15 49 -15 65 0 15 8 36 19 46 10 10 23 28 30 40 6 12
11 24 11 27 0 3 -11 13 -25 22 -14 9 -39 18 -54 20 -16 2 -35 5 -41 6 -7 2
-16 -4 -20 -12 -5 -8 -16 -37 -26 -65 -11 -30 -37 -71 -68 -103 -34 -36 -56
-52 -70 -50 -18 3 -21 9 -18 48 3 38 11 53 56 100 28 30 62 69 74 87 12 18 22
39 22 48 0 8 -11 20 -24 25 -14 5 -37 8 -52 7 -15 -1 -29 3 -31 9 -2 6 12 27
32 47 20 20 35 46 35 60 0 13 -7 32 -15 43 -8 10 -15 25 -15 32 0 7 22 23 50
36 27 13 56 29 65 36 8 7 15 22 15 35 0 12 -11 34 -25 49 -15 17 -34 26 -52
25z"/>
<path d="M1264 1200 c-10 0 -14 -7 -12 -22 2 -12 9 -23 16 -26 7 -2 12 6 12
22 0 17 -5 26 -16 26z"/>
<path d="M1088 1130 c-9 0 -18 -6 -21 -12 -2 -7 -2 -20 0 -28 2 -8 19 -25 38
-37 19 -13 42 -37 51 -54 14 -28 14 -38 3 -71 -11 -34 -10 -40 8 -61 10 -12
27 -34 36 -49 10 -16 23 -28 30 -28 7 0 20 9 30 20 9 11 17 28 17 38 0 10 -19
56 -42 102 -23 46 -62 105 -88 132 -25 26 -54 48 -62 48z"/>
<path d="M331 1014 c-4 3 -15 0 -23 -7 -9 -7 -18 -30 -21 -51 -4 -25 -18 -51
-39 -74 -18 -18 -44 -39 -58 -47 -14 -7 -51 -16 -82 -19 -48 -6 -58 -11 -58
-27 0 -15 8 -19 43 -21 23 -1 66 -1 95 1 49 3 52 1 52 -21 0 -13 -54 -132
-120 -265 -120 -241 -120 -241 -101 -286 10 -24 26 -47 35 -50 9 -4 23 -4 31
-1 8 3 19 22 24 43 5 20 12 56 16 80 4 24 17 67 30 95 13 29 30 57 38 64 10 8
22 10 38 3 13 -5 31 -17 40 -27 8 -11 25 -39 36 -64 12 -25 27 -64 33 -87 9
-35 15 -43 34 -43 13 0 28 6 34 13 5 6 13 53 17 102 4 50 13 115 20 145 7 30
19 81 26 113 7 32 16 60 21 63 4 3 8 14 8 25 0 11 7 42 16 69 9 27 14 54 12
60 -2 6 -11 -4 -20 -22 -9 -18 -26 -60 -38 -93 -12 -33 -30 -78 -40 -100 -9
-22 -23 -70 -30 -107 -6 -37 -18 -75 -26 -85 -13 -17 -15 -16 -38 13 -14 17
-43 39 -65 49 -25 11 -41 25 -41 35 0 10 9 29 20 43 12 14 34 59 51 99 16 40
50 110 74 156 25 46 45 94 45 106 0 11 -4 26 -8 31 -4 6 -22 21 -39 34 -18 12
-33 29 -33 36 0 8 -4 16 -9 19z"/>
</g>
</svg>
