<?xml version="1.0" standalone="no"?>
<!DOCTYPE svg PUBLIC "-//W3C//DTD SVG 20010904//EN"
 "http://www.w3.org/TR/2001/REC-SVG-20010904/DTD/svg10.dtd">
<svg version="1.0" xmlns="http://www.w3.org/2000/svg"
 width="128.000000pt" height="128.000000pt" viewBox="0 0 128.000000 128.000000"
 preserveAspectRatio="xMidYMid meet">
<metadata>
Created by potrace 1.16, written by Peter Selinger 2001-2019
</metadata>
<g transform="translate(0.000000,128.000000) scale(0.100000,-0.100000)"
fill="#000000" stroke="none">
<path d="M386 1160 c-6 -1 -26 -7 -43 -15 -18 -8 -33 -21 -33 -30 0 -8 9 -23
20 -32 16 -14 20 -30 20 -79 0 -34 -3 -76 -6 -94 -4 -19 -16 -36 -30 -42 -12
-6 -34 -8 -47 -4 -18 4 -30 19 -43 51 -14 37 -21 45 -38 43 -13 -2 -28 -18
-39 -41 -14 -30 -16 -45 -7 -75 5 -21 22 -50 37 -64 26 -23 33 -25 81 -19 37
5 55 4 63 -5 6 -8 8 -31 3 -61 -4 -28 -17 -61 -31 -78 -14 -16 -46 -54 -71
-83 -26 -30 -64 -74 -86 -98 -28 -32 -46 -44 -66 -44 -15 0 -34 -8 -43 -18 -9
-10 -20 -39 -23 -64 -6 -42 -5 -46 19 -52 14 -3 36 -2 49 3 13 5 32 18 42 30
11 11 23 21 28 21 5 0 32 -15 61 -34 29 -18 72 -52 95 -75 24 -22 47 -41 52
-41 4 0 12 6 17 12 5 7 16 39 23 70 8 37 11 90 7 150 -3 56 -1 101 5 112 6 10
12 50 14 90 2 39 6 85 8 101 2 17 9 57 16 90 7 33 17 70 23 83 6 13 37 40 70
59 49 31 58 40 55 62 -2 22 -9 27 -38 29 -19 2 -43 11 -52 19 -10 9 -18 27
-18 40 0 13 -4 33 -10 43 -5 10 -24 23 -41 29 -18 6 -37 11 -43 11z m-91 -686
c8 -3 17 -21 21 -40 3 -19 4 -44 1 -56 -4 -13 -12 -31 -20 -41 -12 -17 -16
-18 -48 -4 -19 7 -40 21 -47 30 -10 11 -11 21 -3 35 6 11 26 33 46 50 20 18
41 29 50 26z"/>
<path d="M909 1154 c-27 3 -43 -3 -71 -28 -20 -17 -48 -41 -63 -53 -15 -13
-34 -23 -43 -23 -8 0 -24 -7 -34 -17 -10 -9 -28 -21 -41 -27 -14 -7 -23 -22
-25 -41 -2 -17 3 -38 11 -48 12 -18 15 -18 49 -1 20 9 44 14 53 10 13 -4 16
-14 12 -34 -3 -15 -10 -44 -15 -66 -6 -21 -24 -56 -42 -77 -17 -22 -37 -54
-45 -72 -7 -17 -32 -62 -54 -99 -23 -37 -41 -74 -41 -82 0 -8 -11 -27 -24 -43
-13 -15 -31 -42 -40 -60 -9 -18 -16 -41 -16 -52 0 -11 11 -33 24 -48 25 -28
25 -28 60 6 20 19 36 42 36 50 1 9 16 41 35 71 18 30 50 83 70 118 20 34 42
62 50 62 10 0 12 -13 8 -57 -3 -32 -9 -74 -14 -93 -5 -19 -9 -49 -9 -66 0 -18
-9 -51 -20 -75 -11 -24 -20 -52 -20 -61 0 -10 9 -42 21 -72 12 -35 27 -57 40
-61 11 -4 30 0 44 9 20 13 25 25 25 58 0 23 4 55 9 72 5 17 13 49 18 72 6 28
5 51 -3 75 -8 24 -11 85 -7 202 3 121 1 172 -7 183 -8 9 -10 29 -6 59 4 24 13
48 20 52 8 5 26 32 41 62 14 29 35 63 46 74 10 11 22 36 25 55 5 23 2 38 -8
48 -8 9 -30 17 -49 18z"/>
<path d="M953 710 c-4 0 -16 -5 -25 -11 -10 -5 -18 -19 -18 -29 0 -10 15 -33
33 -50 17 -17 46 -38 63 -46 17 -8 37 -26 44 -39 11 -20 11 -27 0 -40 -7 -8
-18 -15 -26 -15 -7 0 -22 -9 -32 -21 -11 -11 -35 -28 -53 -38 -20 -11 -34 -26
-34 -37 0 -17 8 -19 70 -19 55 0 76 5 100 21 17 12 49 24 72 27 23 2 62 15 87
28 41 20 46 26 46 56 0 18 -5 33 -11 33 -6 0 -22 14 -36 30 -13 17 -30 30 -36
30 -7 0 -39 20 -72 45 -33 25 -67 45 -76 45 -9 0 -33 7 -52 15 -20 8 -40 15
-44 15z"/>
</g>
</svg>
