<?xml version="1.0" standalone="no"?>
<!DOCTYPE svg PUBLIC "-//W3C//DTD SVG 20010904//EN"
 "http://www.w3.org/TR/2001/REC-SVG-20010904/DTD/svg10.dtd">
<svg version="1.0" xmlns="http://www.w3.org/2000/svg"
 width="128.000000pt" height="128.000000pt" viewBox="0 0 128.000000 128.000000"
 preserveAspectRatio="xMidYMid meet">
<metadata>
Created by potrace 1.16, written by Peter Selinger 2001-2019
</metadata>
<g transform="translate(0.000000,128.000000) scale(0.100000,-0.100000)"
fill="#000000" stroke="none">
<path d="M390 1280 c-38 0 -70 -4 -70 -8 0 -5 8 -16 18 -25 10 -10 29 -17 41
-17 12 0 35 7 51 15 17 9 30 20 30 25 0 6 -31 10 -70 10z"/>
<path d="M753 1279 c-26 -1 -45 -9 -59 -24 -12 -13 -27 -38 -33 -56 -9 -27 -8
-39 9 -74 11 -23 20 -46 20 -52 0 -6 7 -16 15 -23 12 -10 24 -10 54 -2 21 7
46 21 56 32 15 17 17 25 8 38 -7 9 -24 36 -38 60 -25 41 -26 45 -11 67 9 13
16 27 16 30 0 3 -17 5 -37 4z"/>
<path d="M595 977 c-11 2 -39 -11 -62 -28 -24 -16 -43 -34 -43 -38 0 -4 -17
-15 -37 -24 -21 -9 -48 -19 -60 -22 -14 -4 -23 -14 -23 -27 0 -11 14 -38 32
-60 17 -22 47 -47 65 -54 18 -8 33 -20 33 -27 0 -6 -7 -46 -15 -87 -9 -41 -18
-82 -22 -90 -4 -8 -12 -33 -19 -55 -7 -22 -27 -80 -44 -130 -17 -49 -38 -97
-45 -105 -8 -9 -21 -35 -30 -59 -8 -23 -24 -54 -35 -68 -11 -14 -20 -36 -20
-49 0 -12 -4 -26 -10 -29 -6 -3 -10 -11 -10 -16 0 -6 14 -9 32 -7 25 2 34 9
38 27 4 18 17 28 47 38 31 11 45 23 57 48 9 19 23 38 32 43 8 4 28 44 43 88
16 44 35 114 41 155 7 41 17 101 22 134 5 33 10 83 10 110 0 28 -2 63 -4 79
-3 29 -2 29 116 69 96 32 120 37 127 26 6 -9 4 -17 -7 -24 -9 -5 -33 -23 -53
-38 -20 -15 -48 -38 -63 -50 -16 -12 -28 -31 -28 -43 0 -11 15 -36 33 -55 20
-20 56 -42 90 -53 53 -18 58 -18 81 -2 14 9 29 28 32 42 5 20 1 31 -18 48 -13
11 -31 34 -38 49 -14 27 -13 30 24 64 21 20 53 47 71 59 19 12 43 24 56 26 12
2 28 12 35 23 12 18 8 24 -43 67 -55 46 -56 46 -81 30 -15 -9 -42 -23 -62 -30
-19 -8 -55 -20 -80 -27 -25 -8 -70 -23 -100 -34 -30 -12 -67 -21 -83 -21 -15
0 -30 7 -33 15 -4 9 4 25 17 39 13 12 32 26 42 29 11 4 17 14 15 24 -2 10 -12
19 -23 20z"/>
<path d="M635 169 c-11 -1 -43 -8 -71 -18 -28 -9 -58 -22 -67 -30 -10 -7 -17
-21 -17 -31 0 -10 7 -23 15 -30 10 -9 35 -11 76 -7 33 3 71 13 85 22 14 9 28
14 31 11 3 -3 1 -12 -6 -20 -9 -10 -9 -20 0 -40 10 -21 19 -26 46 -26 31 0 34
2 27 23 -3 12 -13 34 -20 49 -8 15 -14 34 -14 43 0 8 -15 24 -32 35 -18 11
-42 19 -53 19z"/>
</g>
</svg>
