<?xml version="1.0" standalone="no"?>
<!DOCTYPE svg PUBLIC "-//W3C//DTD SVG 20010904//EN"
 "http://www.w3.org/TR/2001/REC-SVG-20010904/DTD/svg10.dtd">
<svg version="1.0" xmlns="http://www.w3.org/2000/svg"
 width="56.000000pt" height="56.000000pt" viewBox="0 0 56.000000 56.000000"
 preserveAspectRatio="xMidYMid meet">
<metadata>
Created by potrace 1.16, written by Peter Selinger 2001-2019
</metadata>
<g transform="translate(0.000000,56.000000) scale(0.100000,-0.100000)"
fill="#000000" stroke="none">
<path d="M281 532 c-39 26 -39 26 -45 2 -4 -15 -14 -24 -25 -24 -10 0 -24 7
-31 15 -7 8 -16 12 -21 9 -5 -3 -9 -15 -9 -28 0 -12 7 -31 15 -42 8 -10 15
-26 15 -34 0 -9 -25 -29 -56 -45 -47 -26 -54 -33 -51 -54 3 -14 0 -33 -7 -43
-9 -15 -8 -21 4 -28 10 -6 29 0 62 18 26 14 50 24 53 20 3 -3 -1 -36 -10 -73
-8 -38 -12 -77 -9 -89 4 -11 14 -26 23 -33 10 -7 22 -8 34 -2 15 9 17 21 13
87 -2 42 -1 83 1 89 3 7 9 10 14 7 6 -3 16 0 24 6 8 7 15 19 15 28 0 13 -2 13
-18 -1 -10 -10 -22 -17 -26 -17 -4 0 -6 24 -4 53 3 52 3 52 40 55 20 2 42 10
48 18 10 11 10 17 1 28 -6 8 -11 18 -10 22 1 5 1 14 0 20 0 6 -19 22 -40 36z
m-129 -172 c4 0 8 -7 8 -15 0 -8 -7 -15 -15 -15 -8 0 -15 4 -15 8 0 5 3 12 7
15 3 4 10 7 15 7z"/>
<path d="M398 447 c-34 5 -38 3 -38 -16 0 -16 10 -26 35 -37 34 -14 35 -15 35
-72 0 -52 -4 -63 -35 -99 -19 -23 -35 -46 -35 -52 0 -5 -29 -43 -65 -84 -36
-41 -65 -77 -65 -81 0 -3 18 -6 40 -6 30 0 40 4 40 16 0 9 34 58 75 110 50 64
79 112 90 146 8 29 15 64 15 80 0 16 -11 40 -27 58 -18 20 -41 33 -65 37z"/>
</g>
</svg>
