<?xml version="1.0" standalone="no"?>
<!DOCTYPE svg PUBLIC "-//W3C//DTD SVG 20010904//EN"
 "http://www.w3.org/TR/2001/REC-SVG-20010904/DTD/svg10.dtd">
<svg version="1.0" xmlns="http://www.w3.org/2000/svg"
 width="56.000000pt" height="56.000000pt" viewBox="0 0 56.000000 56.000000"
 preserveAspectRatio="xMidYMid meet">
<metadata>
Created by potrace 1.16, written by Peter Selinger 2001-2019
</metadata>
<g transform="translate(0.000000,56.000000) scale(0.100000,-0.100000)"
fill="#000000" stroke="none">
<path d="M247 559 c-1 0 -10 -8 -19 -18 -10 -10 -18 -23 -18 -29 0 -6 -6 -9
-14 -6 -9 4 -20 -6 -30 -25 -9 -16 -16 -39 -16 -51 0 -13 9 -24 26 -30 21 -8
25 -15 22 -42 -3 -28 -8 -34 -39 -41 -25 -6 -39 -17 -51 -40 -9 -18 -21 -47
-28 -64 -7 -18 -9 -40 -6 -49 6 -15 8 -15 26 1 11 10 26 15 35 12 8 -4 15 -17
15 -29 1 -13 6 -43 13 -68 7 -25 17 -53 23 -63 8 -14 20 -18 54 -15 40 3 47 8
73 46 16 23 34 42 42 42 7 0 41 27 74 60 56 55 61 63 61 104 0 26 -6 51 -15
60 -8 8 -15 21 -15 30 0 9 -15 19 -37 25 -21 6 -41 7 -45 3 -5 -5 1 -18 12
-30 15 -16 20 -35 20 -74 0 -41 -5 -59 -24 -81 -13 -15 -29 -27 -35 -27 -6 0
-15 -8 -19 -18 -4 -11 -26 -40 -49 -67 -30 -33 -48 -45 -59 -41 -12 5 -14 9
-5 20 6 7 12 66 14 138 2 68 7 130 11 136 4 7 15 12 25 12 9 0 22 -5 28 -11 7
-7 12 -3 17 15 4 17 13 26 26 26 12 0 20 7 20 16 0 13 -7 15 -32 11 -18 -3
-45 -9 -60 -12 -27 -7 -28 -6 -21 26 4 19 7 48 6 64 -1 17 -2 42 -3 58 -1 15
-2 27 -3 26z"/>
</g>
</svg>
