<?xml version="1.0" standalone="no"?>
<!DOCTYPE svg PUBLIC "-//W3C//DTD SVG 20010904//EN"
 "http://www.w3.org/TR/2001/REC-SVG-20010904/DTD/svg10.dtd">
<svg version="1.0" xmlns="http://www.w3.org/2000/svg"
 width="56.000000pt" height="56.000000pt" viewBox="0 0 56.000000 56.000000"
 preserveAspectRatio="xMidYMid meet">
<metadata>
Created by potrace 1.16, written by Peter Selinger 2001-2019
</metadata>
<g transform="translate(0.000000,56.000000) scale(0.100000,-0.100000)"
fill="#000000" stroke="none">
<path d="M290 550 c-3 4 -15 -8 -27 -27 -13 -19 -23 -40 -23 -47 0 -8 -6 -19
-14 -25 -11 -10 -19 -8 -37 6 -12 10 -33 29 -46 42 -13 13 -26 21 -30 17 -4
-3 2 -28 13 -54 18 -42 23 -48 57 -52 37 -5 37 -5 22 -27 -9 -13 -27 -23 -41
-23 -13 0 -33 -9 -44 -20 -11 -11 -28 -20 -38 -20 -11 0 -26 -8 -34 -17 -12
-15 -13 -33 -7 -98 4 -44 5 -89 3 -100 -2 -11 0 -27 6 -35 8 -13 14 -12 45 5
20 10 48 32 61 48 14 16 26 28 27 26 2 -2 7 -17 13 -34 5 -16 17 -31 26 -33
12 -2 19 6 24 33 3 19 3 68 0 108 -5 53 -4 77 6 90 10 13 28 19 60 19 32 1 55
-6 77 -21 17 -13 38 -36 47 -53 9 -17 16 -51 16 -76 0 -27 -9 -62 -23 -88 -12
-24 -30 -52 -40 -63 -11 -11 -19 -23 -19 -26 0 -3 8 -5 18 -5 9 0 28 12 42 27
14 14 35 40 48 56 12 17 22 43 22 58 0 15 4 30 9 33 5 4 5 24 -1 48 -6 24 -22
58 -35 76 -14 18 -33 36 -42 39 -9 4 -27 13 -39 22 -15 9 -43 14 -77 12 -46
-2 -54 0 -60 18 -3 12 -3 25 0 31 4 6 10 8 16 5 5 -3 24 -3 43 0 25 5 38 14
46 35 7 16 9 34 5 39 -3 6 -21 18 -38 27 -18 9 -34 20 -37 24z m-110 -254 c11
-1 16 -16 18 -53 3 -51 3 -52 -43 -83 -28 -19 -50 -29 -56 -23 -5 5 -12 36
-15 69 -5 44 -3 62 7 71 8 6 28 13 44 16 17 2 37 4 45 3z"/>
<path d="M445 560 c-9 0 -15 -10 -15 -26 0 -14 9 -39 21 -55 13 -18 29 -29 45
-29 13 0 24 6 24 13 0 6 -14 18 -30 25 -17 8 -30 19 -29 25 1 7 1 20 0 30 0 9
-8 17 -16 17z"/>
</g>
</svg>
