<?xml version="1.0" standalone="no"?>
<!DOCTYPE svg PUBLIC "-//W3C//DTD SVG 20010904//EN"
 "http://www.w3.org/TR/2001/REC-SVG-20010904/DTD/svg10.dtd">
<svg version="1.0" xmlns="http://www.w3.org/2000/svg"
 width="56.000000pt" height="56.000000pt" viewBox="0 0 56.000000 56.000000"
 preserveAspectRatio="xMidYMid meet">
<metadata>
Created by potrace 1.16, written by Peter Selinger 2001-2019
</metadata>
<g transform="translate(0.000000,56.000000) scale(0.100000,-0.100000)"
fill="#000000" stroke="none">
<path d="M236 560 c-9 0 -16 -8 -16 -20 0 -10 7 -23 16 -28 10 -6 14 -20 12
-43 -3 -31 -5 -34 -33 -31 -16 2 -34 8 -40 13 -5 5 -15 9 -22 9 -7 0 -13 -9
-13 -21 0 -14 13 -26 46 -40 36 -16 45 -25 42 -42 -2 -14 -23 -32 -63 -54 -33
-19 -77 -51 -97 -73 -27 -27 -38 -48 -38 -69 0 -17 11 -42 26 -60 14 -18 35
-36 46 -42 17 -9 26 -6 53 21 32 31 32 31 39 5 5 -21 10 -24 20 -15 9 6 14 29
13 58 0 26 5 77 13 115 11 56 18 70 40 81 15 7 51 12 83 10 32 -2 62 -6 67 -9
6 -4 17 -23 26 -43 8 -20 12 -46 9 -57 -3 -11 -18 -33 -33 -50 -15 -16 -57
-52 -92 -79 -36 -26 -75 -52 -87 -57 -13 -5 -23 -16 -23 -25 0 -13 7 -16 34
-11 19 3 68 28 108 55 40 27 88 68 107 91 19 25 35 58 38 80 3 23 -1 49 -10
67 -8 16 -29 42 -46 59 -27 25 -38 29 -81 27 -27 -1 -60 -6 -74 -12 -16 -6
-27 -6 -31 0 -3 5 10 24 29 41 20 17 36 35 36 41 0 5 -12 13 -27 19 -20 6 -28
17 -29 34 -1 13 -9 31 -17 40 -9 8 -23 15 -31 15z m-67 -300 c6 0 11 -9 11
-20 0 -11 -12 -38 -26 -60 -15 -22 -30 -40 -33 -40 -4 0 -12 5 -19 12 -7 7
-12 17 -12 23 0 6 15 28 34 48 18 20 39 37 45 37z"/>
</g>
</svg>
