<?xml version="1.0" standalone="no"?>
<!DOCTYPE svg PUBLIC "-//W3C//DTD SVG 20010904//EN"
 "http://www.w3.org/TR/2001/REC-SVG-20010904/DTD/svg10.dtd">
<svg version="1.0" xmlns="http://www.w3.org/2000/svg"
 width="56.000000pt" height="56.000000pt" viewBox="0 0 56.000000 56.000000"
 preserveAspectRatio="xMidYMid meet">
<metadata>
Created by potrace 1.16, written by Peter Selinger 2001-2019
</metadata>
<g transform="translate(0.000000,56.000000) scale(0.100000,-0.100000)"
fill="#000000" stroke="none">
<path d="M245 520 c-13 0 -26 -4 -29 -9 -3 -4 1 -17 8 -27 14 -18 15 -18 35 0
11 10 18 23 15 27 -3 5 -16 9 -29 9z"/>
<path d="M465 519 c-11 -1 -33 -6 -50 -11 -16 -6 -36 -12 -42 -14 -7 -2 -13
-10 -13 -17 0 -10 12 -14 38 -13 31 1 37 -2 35 -19 -1 -11 -8 -38 -16 -59 -9
-24 -25 -45 -43 -54 -16 -8 -37 -21 -46 -30 -10 -8 -18 -24 -18 -34 0 -10 7
-21 16 -25 9 -3 31 1 49 10 19 9 42 28 51 42 10 15 26 25 40 25 13 0 27 -8 32
-17 6 -10 6 -27 2 -39 -5 -11 -27 -38 -51 -60 -23 -21 -62 -58 -87 -82 -25
-23 -49 -42 -53 -42 -5 0 -13 -9 -20 -21 -10 -19 -9 -20 11 -14 13 4 60 32
106 61 46 30 99 73 118 96 27 31 36 51 36 77 0 30 -7 40 -38 62 -20 14 -45 29
-54 32 -10 4 -18 12 -18 18 0 6 16 26 35 45 19 18 35 38 35 45 0 6 -8 18 -17
25 -10 7 -27 13 -38 13z"/>
<path d="M313 469 c-10 0 -24 -3 -30 -6 -7 -2 -13 -11 -13 -19 0 -8 9 -14 20
-14 10 0 24 9 30 20 9 17 8 20 -7 19z"/>
<path d="M57 360 c-8 0 -25 -12 -36 -26 -12 -15 -21 -37 -21 -49 0 -13 7 -26
16 -29 9 -3 19 -4 24 -1 4 3 13 -1 19 -8 7 -9 7 -23 1 -43 -5 -16 -16 -53 -24
-83 -9 -29 -16 -57 -16 -62 0 -5 6 -9 14 -9 7 0 25 12 40 26 25 26 26 31 26
138 -1 76 -5 116 -14 129 -7 9 -20 17 -29 17z"/>
</g>
</svg>
