<?xml version="1.0" standalone="no"?>
<!DOCTYPE svg PUBLIC "-//W3C//DTD SVG 20010904//EN"
 "http://www.w3.org/TR/2001/REC-SVG-20010904/DTD/svg10.dtd">
<svg version="1.0" xmlns="http://www.w3.org/2000/svg"
 width="56.000000pt" height="56.000000pt" viewBox="0 0 56.000000 56.000000"
 preserveAspectRatio="xMidYMid meet">
<metadata>
Created by potrace 1.16, written by Peter Selinger 2001-2019
</metadata>
<g transform="translate(0.000000,56.000000) scale(0.100000,-0.100000)"
fill="#000000" stroke="none">
<path d="M247 536 c-23 21 -25 22 -30 4 -2 -10 -1 -36 3 -58 4 -22 14 -48 24
-57 9 -9 16 -22 16 -30 0 -7 -21 -23 -47 -36 -26 -13 -61 -35 -78 -51 -16 -15
-40 -37 -51 -49 -12 -12 -25 -39 -28 -60 -4 -25 -1 -52 9 -76 9 -21 23 -45 32
-55 9 -10 21 -18 28 -18 7 0 26 14 43 30 18 17 36 30 42 30 5 0 10 -4 10 -10
0 -5 6 -10 13 -10 8 0 19 12 26 26 6 14 16 53 21 87 5 34 12 79 16 100 4 21
11 40 16 43 4 3 23 0 41 -6 17 -6 41 -23 51 -37 14 -19 20 -43 20 -87 0 -45
-6 -73 -24 -106 -13 -25 -37 -60 -54 -77 -30 -33 -30 -33 10 -32 30 0 44 6 61
28 12 15 36 53 53 84 21 38 30 69 30 100 0 24 -7 58 -15 75 -9 17 -32 44 -51
61 -26 24 -44 31 -74 31 -38 0 -40 1 -40 33 0 21 7 36 20 45 11 7 20 21 20 31
0 10 -7 24 -16 32 -12 10 -22 10 -44 2 -24 -9 -32 -7 -53 13z m-14 -248 c4
-13 5 -33 2 -47 -3 -13 -20 -41 -38 -62 -18 -21 -35 -39 -38 -39 -4 0 -9 17
-11 38 -3 20 0 50 5 65 5 16 24 37 41 48 31 19 31 19 39 -3z"/>
</g>
</svg>
