<?xml version="1.0" standalone="no"?>
<!DOCTYPE svg PUBLIC "-//W3C//DTD SVG 20010904//EN"
 "http://www.w3.org/TR/2001/REC-SVG-20010904/DTD/svg10.dtd">
<svg version="1.0" xmlns="http://www.w3.org/2000/svg"
 width="56.000000pt" height="56.000000pt" viewBox="0 0 56.000000 56.000000"
 preserveAspectRatio="xMidYMid meet">
<metadata>
Created by potrace 1.16, written by Peter Selinger 2001-2019
</metadata>
<g transform="translate(0.000000,56.000000) scale(0.100000,-0.100000)"
fill="#000000" stroke="none">
<path d="M126 560 c-9 0 -19 -16 -26 -41 -6 -22 -10 -50 -8 -62 2 -14 14 -24
34 -30 24 -7 33 -17 38 -39 3 -17 0 -41 -9 -58 -8 -16 -17 -53 -20 -84 -4 -40
-1 -65 10 -86 9 -17 19 -30 24 -30 5 0 13 12 19 28 6 15 13 53 15 84 4 45 13
67 41 105 20 26 43 56 53 66 10 11 35 27 55 38 21 10 46 19 58 19 11 0 20 6
20 14 0 7 -9 16 -21 19 -11 3 -36 3 -56 0 -24 -4 -40 -15 -52 -34 -10 -16 -30
-38 -45 -50 -15 -12 -29 -19 -31 -17 -2 2 2 17 10 32 8 16 15 40 15 55 0 16
-10 37 -23 49 -13 12 -31 22 -40 22 -12 0 -17 -8 -17 -29 0 -16 -6 -34 -14
-40 -11 -10 -16 -8 -21 8 -3 12 -3 30 0 41 4 14 2 20 -9 20z"/>
<path d="M300 560 c-11 0 -20 -4 -20 -10 0 -5 9 -10 20 -10 11 0 20 5 20 10 0
6 -9 10 -20 10z"/>
<path d="M383 368 c-15 0 -44 -8 -64 -18 -21 -11 -41 -32 -49 -50 -7 -18 -10
-48 -7 -72 3 -23 13 -48 23 -55 13 -10 21 -10 31 -1 8 7 28 39 45 71 22 45 32
57 41 48 7 -7 11 -32 10 -55 -1 -27 -11 -58 -25 -80 -13 -20 -30 -38 -38 -41
-8 -3 -30 -25 -48 -49 -17 -24 -32 -48 -32 -54 0 -7 6 -12 13 -12 7 0 41 31
74 69 34 37 71 85 82 105 13 22 21 55 21 83 0 33 -7 55 -24 78 -17 22 -33 32
-53 33z m-46 -58 c7 0 13 -2 13 -4 0 -3 -4 -16 -10 -30 -5 -14 -14 -26 -20
-26 -5 0 -10 11 -10 23 0 13 3 27 7 30 3 4 12 7 20 7z"/>
</g>
</svg>
