<?xml version="1.0" standalone="no"?>
<!DOCTYPE svg PUBLIC "-//W3C//DTD SVG 20010904//EN"
 "http://www.w3.org/TR/2001/REC-SVG-20010904/DTD/svg10.dtd">
<svg version="1.0" xmlns="http://www.w3.org/2000/svg"
 width="56.000000pt" height="56.000000pt" viewBox="0 0 56.000000 56.000000"
 preserveAspectRatio="xMidYMid meet">
<metadata>
Created by potrace 1.16, written by Peter Selinger 2001-2019
</metadata>
<g transform="translate(0.000000,56.000000) scale(0.100000,-0.100000)"
fill="#000000" stroke="none">
<path d="M313 490 c-38 0 -67 -6 -82 -16 -17 -12 -26 -13 -34 -5 -6 6 -21 11
-33 11 -13 0 -25 -4 -28 -8 -3 -5 4 -23 15 -40 10 -18 19 -37 19 -42 0 -6 -7
-10 -15 -10 -9 0 -37 -11 -63 -24 -26 -13 -58 -38 -70 -56 -18 -23 -22 -39
-18 -58 4 -15 11 -45 17 -67 5 -22 11 -48 13 -58 1 -10 8 -22 15 -27 7 -4 23
-5 35 -3 11 3 37 13 57 24 30 16 42 17 68 8 20 -7 36 -8 42 -2 5 5 9 51 10
103 1 52 5 105 10 117 5 12 19 25 32 29 15 3 45 -3 76 -17 28 -12 63 -35 76
-51 15 -18 25 -42 25 -61 0 -18 -5 -50 -10 -71 -6 -27 -21 -50 -47 -72 -31
-26 -35 -34 -22 -39 9 -3 33 -5 54 -3 32 3 39 9 63 53 15 28 30 52 35 53 4 2
7 24 7 48 0 24 -4 44 -8 44 -5 0 -14 17 -20 38 -7 21 -26 48 -44 63 -18 14
-56 37 -85 50 -48 22 -51 25 -36 41 8 9 13 24 10 33 -5 11 -21 15 -64 15z
m-123 -153 c8 -1 15 -10 14 -20 0 -9 -1 -39 -2 -66 -2 -48 -4 -50 -53 -80 -27
-17 -54 -29 -59 -26 -5 3 -16 25 -25 49 -9 24 -15 52 -13 62 2 11 29 33 63 51
33 17 67 31 75 30z"/>
</g>
</svg>
