<?xml version="1.0" standalone="no"?>
<!DOCTYPE svg PUBLIC "-//W3C//DTD SVG 20010904//EN"
 "http://www.w3.org/TR/2001/REC-SVG-20010904/DTD/svg10.dtd">
<svg version="1.0" xmlns="http://www.w3.org/2000/svg"
 width="56.000000pt" height="56.000000pt" viewBox="0 0 56.000000 56.000000"
 preserveAspectRatio="xMidYMid meet">
<metadata>
Created by potrace 1.16, written by Peter Selinger 2001-2019
</metadata>
<g transform="translate(0.000000,56.000000) scale(0.100000,-0.100000)"
fill="#000000" stroke="none">
<path d="M320 560 c-5 0 -19 -18 -30 -40 -20 -39 -22 -40 -73 -40 -29 0 -57
-4 -63 -9 -5 -6 -39 -11 -77 -13 -37 -2 -68 -7 -70 -13 -1 -6 41 -12 103 -16
58 -3 115 -9 128 -13 14 -5 22 -15 22 -31 0 -13 -4 -35 -9 -48 -8 -20 -23 -27
-84 -42 -65 -15 -76 -21 -82 -42 -4 -16 0 -35 12 -52 9 -14 27 -53 38 -86 13
-37 27 -61 37 -63 10 -2 31 12 47 30 27 29 32 32 51 20 11 -7 25 -10 30 -7 6
4 10 12 10 20 0 7 -7 15 -15 19 -8 3 -15 14 -15 24 0 11 7 25 15 32 9 8 15 29
15 56 0 41 2 43 38 53 20 6 42 11 48 11 5 0 27 -16 48 -35 36 -33 38 -38 32
-76 -4 -22 -16 -60 -28 -82 -11 -23 -31 -56 -44 -73 -13 -17 -24 -34 -24 -37
0 -4 14 -7 31 -7 19 0 41 9 55 23 13 12 24 27 24 33 0 6 11 20 25 32 14 12 25
31 25 42 0 11 5 20 10 20 6 0 10 11 10 23 0 13 -7 38 -15 55 -9 16 -33 48 -55
70 -29 31 -49 42 -83 47 -24 4 -55 5 -68 3 -22 -3 -24 1 -27 39 -3 37 0 42 29
57 18 9 38 16 44 16 7 0 15 7 19 15 3 9 -3 23 -13 33 -10 9 -28 25 -40 35 -12
9 -26 17 -31 17z m-67 -311 c5 -4 -1 -25 -12 -47 -11 -22 -25 -43 -29 -46 -5
-3 -18 2 -30 10 -12 8 -22 23 -22 32 1 10 18 26 43 37 23 12 46 18 50 14z"/>
<path d="M112 508 c-7 2 -12 -3 -12 -12 0 -9 7 -16 16 -16 9 0 14 5 12 12 -2
6 -10 14 -16 16z"/>
</g>
</svg>
