<?xml version="1.0" standalone="no"?>
<!DOCTYPE svg PUBLIC "-//W3C//DTD SVG 20010904//EN"
 "http://www.w3.org/TR/2001/REC-SVG-20010904/DTD/svg10.dtd">
<svg version="1.0" xmlns="http://www.w3.org/2000/svg"
 width="56.000000pt" height="56.000000pt" viewBox="0 0 56.000000 56.000000"
 preserveAspectRatio="xMidYMid meet">
<metadata>
Created by potrace 1.16, written by Peter Selinger 2001-2019
</metadata>
<g transform="translate(0.000000,56.000000) scale(0.100000,-0.100000)"
fill="#000000" stroke="none">
<path d="M362 504 c-26 13 -31 13 -58 -5 -19 -13 -38 -17 -56 -13 -25 5 -28 3
-28 -20 0 -13 -5 -28 -12 -32 -6 -4 -36 -8 -66 -9 -29 -1 -58 -7 -64 -13 -8
-8 0 -15 27 -26 21 -9 57 -16 81 -16 41 0 44 -2 44 -26 0 -14 -5 -34 -10 -45
-6 -10 -19 -19 -30 -19 -10 0 -46 -15 -80 -32 -39 -21 -66 -42 -72 -57 -7 -19
-5 -29 11 -44 19 -20 21 -20 66 -2 26 9 50 13 55 9 4 -5 10 -18 12 -29 2 -13
11 -20 27 -20 18 0 26 9 37 40 8 22 15 60 17 85 2 25 9 55 16 68 6 12 15 22
20 22 5 0 29 -9 53 -20 25 -11 51 -27 58 -35 8 -10 11 -33 8 -65 -3 -27 -17
-73 -32 -101 -14 -28 -26 -57 -26 -65 0 -10 12 -14 39 -14 32 0 44 6 65 31 14
17 26 34 27 37 0 4 1 23 3 42 2 19 6 63 10 97 7 58 6 64 -20 97 -20 25 -39 37
-66 41 -29 5 -46 2 -73 -15 -20 -12 -42 -20 -49 -17 -7 3 -16 17 -18 32 -5 23
0 29 53 56 42 21 59 35 59 49 0 11 -12 26 -28 34z"/>
</g>
</svg>
