<?xml version="1.0" standalone="no"?>
<!DOCTYPE svg PUBLIC "-//W3C//DTD SVG 20010904//EN"
 "http://www.w3.org/TR/2001/REC-SVG-20010904/DTD/svg10.dtd">
<svg version="1.0" xmlns="http://www.w3.org/2000/svg"
 width="56.000000pt" height="56.000000pt" viewBox="0 0 56.000000 56.000000"
 preserveAspectRatio="xMidYMid meet">
<metadata>
Created by potrace 1.16, written by Peter Selinger 2001-2019
</metadata>
<g transform="translate(0.000000,56.000000) scale(0.100000,-0.100000)"
fill="#000000" stroke="none">
<path d="M428 560 c-4 0 -8 -4 -8 -10 0 -5 -17 -14 -37 -19 -21 -6 -49 -12
-63 -13 -14 -2 -26 -10 -28 -20 -3 -16 5 -18 55 -18 32 0 76 -5 97 -11 36 -10
41 -9 58 13 10 12 17 30 15 38 -1 8 -15 16 -32 18 -17 2 -34 8 -39 13 -6 5
-14 9 -18 9z"/>
<path d="M107 419 c-7 -1 -31 -12 -55 -26 -33 -19 -41 -28 -32 -37 6 -6 25
-11 43 -11 31 0 32 -2 31 -40 0 -22 -3 -76 -8 -120 -4 -50 -3 -86 3 -95 9 -13
13 -12 30 5 12 11 25 44 31 74 5 30 10 86 10 126 0 58 -4 78 -21 99 -11 14
-26 26 -32 25z"/>
<path d="M421 380 c-14 -1 -44 -10 -67 -21 -23 -11 -47 -31 -54 -44 -12 -22
-11 -27 5 -45 10 -11 26 -20 36 -20 12 0 26 14 37 38 14 30 23 36 42 34 14 -1
33 -12 44 -24 14 -18 17 -33 12 -66 -3 -23 -13 -56 -22 -73 -8 -17 -34 -51
-56 -75 -22 -24 -46 -44 -53 -44 -6 0 -20 -9 -30 -20 -18 -19 -17 -20 6 -20
14 0 49 12 78 26 34 17 65 43 87 73 18 25 39 69 45 97 9 41 9 60 -2 95 -10 29
-25 51 -48 66 -19 13 -46 23 -60 23z"/>
</g>
</svg>
