<?xml version="1.0" standalone="no"?>
<!DOCTYPE svg PUBLIC "-//W3C//DTD SVG 20010904//EN"
 "http://www.w3.org/TR/2001/REC-SVG-20010904/DTD/svg10.dtd">
<svg version="1.0" xmlns="http://www.w3.org/2000/svg"
 width="56.000000pt" height="56.000000pt" viewBox="0 0 56.000000 56.000000"
 preserveAspectRatio="xMidYMid meet">
<metadata>
Created by potrace 1.16, written by Peter Selinger 2001-2019
</metadata>
<g transform="translate(0.000000,56.000000) scale(0.100000,-0.100000)"
fill="#000000" stroke="none">
<path d="M260 560 c-11 0 -20 -6 -20 -12 0 -7 9 -33 21 -57 11 -25 18 -50 15
-56 -2 -6 -22 -17 -44 -24 -34 -11 -47 -12 -72 -1 -21 9 -34 10 -41 3 -7 -7 5
-23 35 -49 46 -39 46 -39 -30 -103 -42 -36 -81 -75 -86 -87 -6 -14 -8 -49 -3
-89 4 -43 12 -68 21 -72 8 -3 36 7 64 21 27 14 56 26 63 26 8 0 19 -11 25 -25
6 -14 18 -25 25 -25 7 0 18 5 25 12 7 7 12 36 12 64 0 29 5 76 11 106 6 29 15
72 21 95 8 32 19 48 50 68 21 14 49 30 62 35 16 6 29 5 41 -4 14 -10 16 -24
12 -82 -3 -38 -9 -87 -14 -110 -5 -22 -25 -67 -43 -100 -18 -32 -40 -67 -48
-76 -14 -17 -12 -18 20 -18 30 0 39 6 60 37 14 21 33 51 42 66 9 16 18 44 19
62 2 19 8 40 14 46 8 8 9 20 3 35 -6 15 -5 26 2 30 6 4 8 26 6 56 -4 33 -13
57 -29 74 -13 14 -31 30 -41 35 -10 6 -29 4 -52 -6 -19 -8 -38 -15 -41 -15 -3
0 -5 6 -5 13 0 8 11 24 25 37 14 13 25 31 25 41 0 10 -4 21 -10 24 -5 3 -24
-2 -42 -11 -31 -16 -32 -16 -54 10 -13 14 -32 26 -44 26z m-34 -280 c8 0 14
-6 14 -14 0 -7 -11 -39 -26 -69 -16 -37 -36 -63 -58 -76 -18 -12 -43 -21 -55
-21 -16 0 -21 6 -21 25 0 18 19 44 66 90 36 36 72 65 80 65z"/>
</g>
</svg>
