<?xml version="1.0" standalone="no"?>
<!DOCTYPE svg PUBLIC "-//W3C//DTD SVG 20010904//EN"
 "http://www.w3.org/TR/2001/REC-SVG-20010904/DTD/svg10.dtd">
<svg version="1.0" xmlns="http://www.w3.org/2000/svg"
 width="56.000000pt" height="56.000000pt" viewBox="0 0 56.000000 56.000000"
 preserveAspectRatio="xMidYMid meet">
<metadata>
Created by potrace 1.16, written by Peter Selinger 2001-2019
</metadata>
<g transform="translate(0.000000,56.000000) scale(0.100000,-0.100000)"
fill="#000000" stroke="none">
<path d="M368 560 c-10 0 -18 -4 -18 -10 0 -5 5 -10 10 -10 6 0 10 -8 10 -18
0 -10 -13 -26 -30 -35 -19 -12 -30 -26 -30 -41 0 -13 8 -30 18 -39 10 -10 26
-17 34 -17 9 0 26 20 38 45 19 39 24 43 41 35 10 -6 22 -23 25 -37 4 -15 2
-47 -5 -71 -6 -25 -21 -57 -31 -72 -11 -16 -20 -31 -20 -35 0 -3 -43 -60 -95
-124 -52 -65 -95 -121 -95 -125 0 -3 8 -6 19 -6 11 0 58 44 117 110 55 60 114
135 131 167 23 41 33 71 33 103 0 28 -8 58 -20 78 -11 18 -36 40 -55 48 -19 8
-41 23 -47 34 -7 11 -21 20 -30 20z"/>
<path d="M106 499 c-6 0 -26 -5 -43 -10 -18 -5 -33 -16 -33 -23 0 -7 14 -16
31 -20 17 -3 36 -3 42 1 7 4 8 -11 2 -48 -4 -30 -8 -72 -9 -94 -1 -34 2 -40
22 -43 22 -3 22 -2 22 105 0 72 -4 113 -12 121 -7 7 -17 12 -22 11z"/>
<path d="M450 38 c-14 2 -29 0 -33 -4 -4 -4 -2 -13 4 -21 6 -7 22 -13 36 -13
18 0 24 5 21 18 -2 10 -14 18 -28 20z"/>
</g>
</svg>
