<?xml version="1.0" standalone="no"?>
<!DOCTYPE svg PUBLIC "-//W3C//DTD SVG 20010904//EN"
 "http://www.w3.org/TR/2001/REC-SVG-20010904/DTD/svg10.dtd">
<svg version="1.0" xmlns="http://www.w3.org/2000/svg"
 width="56.000000pt" height="56.000000pt" viewBox="0 0 56.000000 56.000000"
 preserveAspectRatio="xMidYMid meet">
<metadata>
Created by potrace 1.16, written by Peter Selinger 2001-2019
</metadata>
<g transform="translate(0.000000,56.000000) scale(0.100000,-0.100000)"
fill="#000000" stroke="none">
<path d="M278 540 c-4 0 -14 -13 -23 -30 -15 -29 -18 -30 -80 -30 -58 0 -65
-2 -65 -19 0 -11 6 -23 13 -28 6 -4 35 -8 62 -8 49 0 50 -1 52 -31 0 -17 -2
-35 -5 -41 -4 -6 -26 -20 -48 -31 -23 -12 -55 -33 -72 -47 -16 -14 -34 -25
-39 -25 -6 0 -17 -8 -26 -18 -10 -10 -17 -32 -17 -48 0 -16 9 -44 20 -61 13
-22 27 -33 43 -33 13 0 32 9 43 21 10 11 27 25 38 31 13 7 21 6 27 -3 5 -8 6
-31 2 -52 -5 -33 -3 -37 15 -37 17 0 23 10 32 53 6 29 14 87 19 129 5 42 12
81 16 88 5 9 29 11 78 7 61 -4 74 -8 93 -31 18 -20 22 -34 18 -63 -3 -21 -15
-63 -27 -93 -11 -30 -36 -74 -55 -97 -34 -43 -34 -43 -10 -43 13 0 31 6 40 13
9 6 33 40 55 74 31 49 42 76 47 125 4 46 2 73 -10 105 -11 29 -23 43 -35 43
-10 0 -21 5 -25 11 -5 8 -34 10 -90 6 -46 -2 -84 -2 -85 2 0 3 -1 23 -2 45 -2
32 2 40 21 47 12 5 22 16 22 25 0 9 -8 23 -17 30 -10 7 -21 14 -25 14z m-106
-287 c5 -2 8 -9 8 -15 0 -6 -15 -30 -32 -54 -18 -24 -38 -44 -44 -44 -7 0 -15
7 -18 16 -3 8 1 28 9 44 8 16 28 36 43 44 15 8 30 12 34 9z"/>
</g>
</svg>
