<?xml version="1.0" standalone="no"?>
<!DOCTYPE svg PUBLIC "-//W3C//DTD SVG 20010904//EN"
 "http://www.w3.org/TR/2001/REC-SVG-20010904/DTD/svg10.dtd">
<svg version="1.0" xmlns="http://www.w3.org/2000/svg"
 width="56.000000pt" height="56.000000pt" viewBox="0 0 56.000000 56.000000"
 preserveAspectRatio="xMidYMid meet">
<metadata>
Created by potrace 1.16, written by Peter Selinger 2001-2019
</metadata>
<g transform="translate(0.000000,56.000000) scale(0.100000,-0.100000)"
fill="#000000" stroke="none">
<path d="M253 559 c-18 0 -41 -13 -63 -35 -33 -33 -34 -36 -17 -48 14 -11 17
-25 15 -58 -3 -43 -3 -43 -43 -42 -22 0 -51 3 -65 5 -17 3 -25 -1 -28 -14 -2
-12 9 -22 43 -37 26 -11 53 -20 61 -20 8 0 14 -4 14 -9 0 -5 -7 -16 -15 -24
-8 -9 -37 -23 -65 -32 -27 -9 -52 -21 -55 -25 -3 -5 1 -38 10 -72 9 -35 20
-73 25 -85 7 -16 18 -23 39 -23 16 0 34 7 41 15 7 8 16 15 21 15 5 0 9 -16 9
-35 0 -34 1 -35 36 -35 36 0 36 0 31 96 -2 52 -7 98 -10 101 -4 3 0 18 9 34 8
16 22 29 31 29 9 0 31 5 49 12 29 10 36 9 54 -7 11 -10 29 -39 40 -63 14 -30
17 -49 10 -61 -5 -10 -27 -30 -50 -46 -22 -16 -44 -33 -48 -40 -4 -6 -20 -21
-36 -33 -29 -22 -29 -22 10 -22 26 0 53 9 81 28 22 15 62 46 87 69 25 23 46
50 46 61 0 11 -10 44 -22 73 -12 30 -33 67 -47 82 -24 26 -31 28 -88 25 -34
-1 -64 0 -68 4 -3 3 11 19 32 34 21 16 39 29 41 30 2 1 -1 11 -7 23 -8 15 -23
21 -59 23 -47 3 -47 3 -50 41 -2 26 1 39 12 43 9 3 16 10 16 15 0 5 -12 9 -27
8z m-85 -349 c6 0 12 -10 12 -22 0 -13 -12 -35 -25 -51 -13 -15 -28 -27 -33
-27 -5 0 -14 11 -20 25 -7 14 -12 28 -12 31 0 2 15 13 33 24 17 11 38 20 45
20z"/>
</g>
</svg>
