<?xml version="1.0" standalone="no"?>
<!DOCTYPE svg PUBLIC "-//W3C//DTD SVG 20010904//EN"
 "http://www.w3.org/TR/2001/REC-SVG-20010904/DTD/svg10.dtd">
<svg version="1.0" xmlns="http://www.w3.org/2000/svg"
 width="56.000000pt" height="56.000000pt" viewBox="0 0 56.000000 56.000000"
 preserveAspectRatio="xMidYMid meet">
<metadata>
Created by potrace 1.16, written by Peter Selinger 2001-2019
</metadata>
<g transform="translate(0.000000,56.000000) scale(0.100000,-0.100000)"
fill="#000000" stroke="none">
<path d="M418 518 c-58 2 -98 -1 -98 -7 0 -5 14 -17 32 -25 19 -10 57 -16 100
-16 66 0 69 1 66 23 -3 21 -8 22 -100 25z"/>
<path d="M75 430 c-7 0 -20 -9 -30 -20 -14 -16 -21 -18 -32 -8 -13 10 -14 5
-8 -38 4 -27 10 -51 12 -54 3 -3 10 3 17 13 7 9 17 17 21 17 4 0 5 -24 2 -52
-2 -29 -10 -72 -17 -95 -7 -24 -9 -58 -6 -76 3 -18 12 -42 20 -52 12 -17 15
-15 42 20 29 39 29 39 26 174 -3 107 -7 140 -19 154 -9 9 -21 17 -28 17z"/>
<path d="M281 400 c-6 0 -12 -4 -15 -9 -3 -5 1 -11 9 -15 9 -3 15 0 15 9 0 8
-4 15 -9 15z"/>
<path d="M413 379 c-10 0 -29 -8 -42 -17 -14 -9 -38 -21 -55 -27 -24 -8 -37
-23 -59 -68 -15 -31 -25 -62 -22 -67 3 -6 16 -10 28 -10 12 0 45 17 72 38 32
24 53 49 60 70 5 17 15 32 22 32 7 0 22 -9 33 -20 11 -11 20 -24 20 -29 0 -5
-21 -37 -47 -70 -27 -34 -63 -81 -80 -104 -18 -23 -33 -50 -33 -60 0 -10 6
-20 14 -23 8 -3 24 -1 35 6 12 6 21 18 21 26 0 8 14 36 32 62 17 26 49 66 70
89 29 32 38 51 38 77 0 30 -6 39 -44 66 -25 16 -53 30 -63 29z"/>
</g>
</svg>
