<?xml version="1.0" standalone="no"?>
<!DOCTYPE svg PUBLIC "-//W3C//DTD SVG 20010904//EN"
 "http://www.w3.org/TR/2001/REC-SVG-20010904/DTD/svg10.dtd">
<svg version="1.0" xmlns="http://www.w3.org/2000/svg"
 width="56.000000pt" height="56.000000pt" viewBox="0 0 56.000000 56.000000"
 preserveAspectRatio="xMidYMid meet">
<metadata>
Created by potrace 1.16, written by Peter Selinger 2001-2019
</metadata>
<g transform="translate(0.000000,56.000000) scale(0.100000,-0.100000)"
fill="#000000" stroke="none">
<path d="M317 540 c-13 18 -14 17 -31 -11 -10 -17 -28 -35 -40 -40 -14 -7 -30
-7 -46 0 -14 6 -33 16 -42 23 -12 9 -21 9 -28 2 -7 -7 1 -25 26 -57 20 -26 43
-47 50 -47 8 0 14 -4 14 -8 0 -5 -6 -15 -12 -24 -7 -9 -33 -23 -58 -31 -25 -8
-59 -23 -75 -32 -17 -10 -38 -27 -47 -39 -12 -17 -16 -48 -18 -127 -1 -57 -2
-110 -1 -116 0 -7 8 -13 16 -13 8 0 28 20 44 44 24 35 42 48 82 61 28 10 54
13 59 9 5 -5 10 -20 12 -34 1 -14 10 -26 20 -28 13 -3 17 8 22 60 4 35 3 87
-2 117 -5 29 -7 63 -4 75 3 11 9 27 15 34 5 6 26 12 46 12 20 -1 46 -6 59 -13
12 -7 38 -36 56 -64 19 -29 39 -75 45 -104 11 -49 10 -53 -15 -78 -15 -14 -30
-35 -34 -46 -4 -11 -3 -23 3 -27 6 -3 26 2 46 13 19 10 41 29 48 41 7 13 12
44 13 70 0 26 -4 50 -10 53 -5 3 -10 14 -10 24 0 10 -6 29 -13 42 -7 13 -21
37 -31 52 -11 16 -36 37 -57 48 -28 14 -59 19 -114 19 -42 0 -74 4 -71 9 3 4
29 12 58 16 29 4 70 7 91 8 24 1 42 8 47 18 7 12 4 21 -8 31 -9 9 -34 21 -54
28 -21 6 -44 20 -51 30z m-115 -221 c4 1 10 -8 13 -20 4 -11 4 -35 1 -52 -4
-18 -17 -39 -29 -48 -12 -8 -42 -21 -66 -28 -40 -12 -46 -11 -58 5 -7 10 -13
24 -13 32 0 8 10 25 23 38 12 13 29 24 37 24 8 1 31 12 50 25 19 13 38 24 42
24z"/>
</g>
</svg>
