<?xml version="1.0" standalone="no"?>
<!DOCTYPE svg PUBLIC "-//W3C//DTD SVG 20010904//EN"
 "http://www.w3.org/TR/2001/REC-SVG-20010904/DTD/svg10.dtd">
<svg version="1.0" xmlns="http://www.w3.org/2000/svg"
 width="56.000000pt" height="56.000000pt" viewBox="0 0 56.000000 56.000000"
 preserveAspectRatio="xMidYMid meet">
<metadata>
Created by potrace 1.16, written by Peter Selinger 2001-2019
</metadata>
<g transform="translate(0.000000,56.000000) scale(0.100000,-0.100000)"
fill="#000000" stroke="none">
<path d="M302 560 c-9 -1 -21 -6 -27 -13 -5 -7 -15 -22 -21 -33 -6 -10 -29
-24 -50 -30 -32 -9 -39 -15 -39 -37 0 -14 -12 -38 -27 -54 -18 -19 -28 -44
-33 -78 -3 -27 -8 -81 -11 -119 -6 -69 -6 -69 54 -63 54 4 61 3 65 -15 5 -18
7 -19 31 -3 20 14 26 26 28 68 2 29 0 74 -4 101 -5 32 -3 54 4 63 6 8 19 11
32 7 12 -3 28 -13 37 -21 10 -8 17 -30 17 -54 1 -22 6 -47 13 -55 8 -10 26
-14 48 -12 30 2 35 6 33 23 -2 11 -10 27 -18 36 -8 8 -14 29 -14 45 0 16 -8
41 -17 54 -10 14 -30 36 -45 48 -16 13 -28 31 -28 40 0 8 7 23 15 32 14 15 13
20 -6 43 -11 15 -28 27 -37 27z m-97 -204 c6 -1 11 -30 13 -63 3 -54 0 -63
-20 -77 -12 -9 -31 -16 -42 -16 -17 0 -18 5 -12 63 5 48 11 66 29 79 12 10 27
16 32 14z"/>
<path d="M424 198 c-29 3 -37 -4 -89 -73 -31 -42 -67 -80 -79 -85 -12 -4 -28
-15 -35 -24 -12 -14 -8 -16 35 -16 45 0 53 4 97 46 32 32 46 52 42 64 -4 13 3
19 27 26 26 8 33 15 33 34 0 21 -6 26 -31 28z"/>
</g>
</svg>
