<?xml version="1.0" standalone="no"?>
<!DOCTYPE svg PUBLIC "-//W3C//DTD SVG 20010904//EN"
 "http://www.w3.org/TR/2001/REC-SVG-20010904/DTD/svg10.dtd">
<svg version="1.0" xmlns="http://www.w3.org/2000/svg"
 width="56.000000pt" height="56.000000pt" viewBox="0 0 56.000000 56.000000"
 preserveAspectRatio="xMidYMid meet">
<metadata>
Created by potrace 1.16, written by Peter Selinger 2001-2019
</metadata>
<g transform="translate(0.000000,56.000000) scale(0.100000,-0.100000)"
fill="#000000" stroke="none">
<path d="M414 560 c-30 0 -44 -5 -48 -17 -4 -10 -1 -20 9 -26 15 -8 15 -10 -1
-21 -12 -9 -14 -15 -6 -20 7 -4 27 -4 46 0 19 3 42 14 51 24 14 15 14 21 3 39
-10 16 -23 21 -54 21z"/>
<path d="M90 465 c-6 3 -13 -2 -16 -12 -3 -10 -11 -31 -16 -46 -9 -23 -7 -33
9 -55 11 -15 30 -28 42 -30 11 -2 21 -7 21 -11 0 -5 -7 -28 -16 -52 -9 -24
-16 -57 -15 -74 1 -16 4 -38 7 -48 4 -12 13 -17 27 -15 12 2 27 14 34 28 7 14
13 43 13 65 0 22 4 67 10 99 8 51 7 63 -7 78 -12 14 -25 17 -50 12 -32 -6 -33
-5 -33 24 0 17 -5 34 -10 37z"/>
<path d="M403 419 c-10 0 -31 -5 -47 -9 -15 -5 -37 -17 -47 -26 -14 -12 -19
-31 -19 -66 0 -36 4 -48 15 -48 9 0 36 20 61 45 24 25 48 45 53 45 5 0 12 -7
15 -16 3 -9 -1 -31 -10 -49 -8 -18 -45 -69 -82 -113 -37 -44 -87 -103 -110
-131 -43 -50 -44 -51 -18 -51 19 0 32 10 48 35 13 19 65 74 116 123 52 48 100
103 109 122 12 29 12 41 2 73 -8 24 -23 44 -40 53 -16 8 -36 14 -46 13z"/>
</g>
</svg>
