<?xml version="1.0" standalone="no"?>
<!DOCTYPE svg PUBLIC "-//W3C//DTD SVG 20010904//EN"
 "http://www.w3.org/TR/2001/REC-SVG-20010904/DTD/svg10.dtd">
<svg version="1.0" xmlns="http://www.w3.org/2000/svg"
 width="56.000000pt" height="56.000000pt" viewBox="0 0 56.000000 56.000000"
 preserveAspectRatio="xMidYMid meet">
<metadata>
Created by potrace 1.16, written by Peter Selinger 2001-2019
</metadata>
<g transform="translate(0.000000,56.000000) scale(0.100000,-0.100000)"
fill="#000000" stroke="none">
<path d="M141 560 c-5 0 -11 -6 -14 -13 -2 -7 0 -35 5 -62 5 -28 11 -82 14
-121 5 -67 3 -74 -25 -119 -25 -40 -31 -59 -31 -106 0 -32 4 -60 9 -63 5 -3
29 10 55 30 25 19 46 41 46 49 0 9 14 15 38 17 34 3 37 5 35 33 -1 17 -5 47
-9 68 -6 37 -6 37 28 37 19 0 42 -6 51 -12 9 -7 28 -28 42 -47 14 -19 25 -47
25 -62 0 -14 -6 -42 -14 -60 -8 -19 -33 -56 -56 -82 -42 -47 -42 -47 -12 -47
23 0 38 9 61 37 17 21 40 57 51 80 11 24 20 62 20 85 0 25 -8 56 -19 74 -11
18 -34 39 -53 48 -18 10 -51 20 -73 23 -25 3 -54 -1 -75 -9 -19 -8 -41 -13
-47 -11 -7 3 -13 17 -13 31 0 20 8 31 32 42 18 8 34 20 36 27 2 7 -6 20 -17
30 -12 9 -31 18 -43 18 -15 0 -24 7 -26 20 -1 11 -5 30 -8 43 -2 12 -8 22 -13
22z m31 -328 c6 -6 8 -18 4 -28 -5 -13 -10 -14 -18 -6 -6 6 -8 18 -4 28 5 13
10 14 18 6z"/>
</g>
</svg>
