<?xml version="1.0" standalone="no"?>
<!DOCTYPE svg PUBLIC "-//W3C//DTD SVG 20010904//EN"
 "http://www.w3.org/TR/2001/REC-SVG-20010904/DTD/svg10.dtd">
<svg version="1.0" xmlns="http://www.w3.org/2000/svg"
 width="56.000000pt" height="56.000000pt" viewBox="0 0 56.000000 56.000000"
 preserveAspectRatio="xMidYMid meet">
<metadata>
Created by potrace 1.16, written by Peter Selinger 2001-2019
</metadata>
<g transform="translate(0.000000,56.000000) scale(0.100000,-0.100000)"
fill="#000000" stroke="none">
<path d="M263 560 c-11 0 -14 -10 -12 -40 2 -21 1 -41 -1 -43 -3 -2 -24 -7
-47 -11 -35 -5 -45 -2 -61 14 -17 18 -21 19 -31 6 -9 -11 -10 -20 -1 -36 6
-12 27 -28 45 -36 19 -8 46 -14 60 -14 21 0 25 -5 25 -27 -1 -24 -12 -36 -73
-75 -40 -26 -87 -61 -105 -79 -19 -18 -31 -38 -27 -46 3 -8 5 -26 5 -39 0 -15
16 -42 41 -69 23 -25 46 -45 51 -45 5 0 28 18 50 40 23 22 45 40 50 40 4 0 8
-18 8 -39 0 -25 5 -41 15 -45 9 -3 20 4 27 17 9 15 13 68 13 164 0 78 3 145 7
149 4 3 27 1 50 -5 24 -7 57 -24 73 -38 28 -25 30 -31 30 -101 0 -67 -2 -76
-25 -95 -14 -12 -38 -41 -53 -65 -27 -42 -27 -42 5 -42 26 0 39 8 60 34 15 19
37 53 49 76 12 23 23 61 25 85 3 35 -2 51 -29 91 -18 26 -44 56 -57 66 -14 10
-47 22 -73 27 -27 5 -53 13 -59 19 -7 7 5 18 38 34 27 13 48 28 48 33 -1 6
-23 21 -49 34 -26 13 -50 32 -52 42 -3 10 -12 19 -20 19z m-38 -273 c5 -2 10
-22 9 -45 0 -28 -8 -49 -27 -72 -15 -17 -27 -40 -27 -51 0 -12 -9 -21 -26 -25
-18 -5 -32 0 -50 17 -13 12 -24 29 -24 36 0 7 6 23 12 36 7 12 19 26 27 31 7
4 21 16 30 25 10 10 28 25 41 34 14 9 29 16 35 14z"/>
</g>
</svg>
