<?xml version="1.0" standalone="no"?>
<!DOCTYPE svg PUBLIC "-//W3C//DTD SVG 20010904//EN"
 "http://www.w3.org/TR/2001/REC-SVG-20010904/DTD/svg10.dtd">
<svg version="1.0" xmlns="http://www.w3.org/2000/svg"
 width="56.000000pt" height="56.000000pt" viewBox="0 0 56.000000 56.000000"
 preserveAspectRatio="xMidYMid meet">
<metadata>
Created by potrace 1.16, written by Peter Selinger 2001-2019
</metadata>
<g transform="translate(0.000000,56.000000) scale(0.100000,-0.100000)"
fill="#000000" stroke="none">
<path d="M225 540 c-1 0 -5 -3 -8 -7 -4 -3 -7 -16 -7 -28 0 -13 -6 -27 -12
-32 -7 -6 -26 -13 -41 -17 -19 -4 -27 -12 -25 -23 2 -8 19 -21 38 -27 32 -10
35 -15 38 -52 3 -37 -2 -48 -49 -103 -35 -42 -54 -76 -59 -103 -6 -33 -4 -44
11 -59 11 -11 33 -19 54 -19 19 0 35 -4 35 -10 0 -5 6 -10 13 -10 8 0 22 9 33
21 15 16 16 24 6 39 -7 11 -12 51 -12 88 0 63 2 70 24 80 13 6 40 14 59 17 20
4 45 4 56 0 12 -3 28 -19 36 -35 12 -23 13 -39 6 -71 -5 -22 -18 -51 -28 -62
-11 -12 -36 -46 -56 -75 -37 -52 -37 -52 -9 -52 17 0 37 10 50 23 12 13 22 27
22 31 0 4 17 33 38 64 22 31 42 72 45 90 4 20 1 46 -7 65 -7 18 -22 39 -32 48
-11 9 -40 19 -65 22 -30 4 -54 1 -73 -8 -16 -8 -37 -15 -48 -15 -18 0 -20 4
-14 43 4 23 14 47 23 52 9 6 25 18 35 28 10 9 18 24 18 32 0 8 -9 15 -19 15
-11 0 -32 11 -47 25 -15 14 -28 25 -29 25z m-34 -341 c5 -8 9 -24 9 -36 0 -12
-5 -25 -11 -29 -6 -3 -18 1 -27 9 -14 14 -13 18 3 43 13 21 19 24 26 13z"/>
</g>
</svg>
