<?xml version="1.0" standalone="no"?>
<!DOCTYPE svg PUBLIC "-//W3C//DTD SVG 20010904//EN"
 "http://www.w3.org/TR/2001/REC-SVG-20010904/DTD/svg10.dtd">
<svg version="1.0" xmlns="http://www.w3.org/2000/svg"
 width="56.000000pt" height="56.000000pt" viewBox="0 0 56.000000 56.000000"
 preserveAspectRatio="xMidYMid meet">
<metadata>
Created by potrace 1.16, written by Peter Selinger 2001-2019
</metadata>
<g transform="translate(0.000000,56.000000) scale(0.100000,-0.100000)"
fill="#000000" stroke="none">
<path d="M89 560 c-5 0 -9 -3 -9 -6 0 -3 8 -19 17 -35 9 -16 32 -36 50 -44 18
-9 35 -20 38 -25 3 -5 0 -28 -6 -50 -7 -24 -24 -49 -40 -61 -15 -10 -34 -19
-43 -19 -8 0 -20 -9 -26 -19 -7 -14 -7 -28 0 -46 8 -20 15 -25 28 -20 9 4 25
10 36 13 14 4 17 1 13 -14 -4 -10 -9 -32 -13 -47 -4 -16 -1 -46 6 -68 9 -27
19 -39 29 -37 13 3 17 25 22 124 4 73 12 129 20 142 7 12 26 27 41 33 16 6 28
14 28 18 0 3 18 12 40 19 22 6 54 12 71 12 17 0 38 -8 47 -17 13 -13 17 -34
16 -97 -1 -62 -6 -92 -23 -127 -12 -26 -37 -65 -56 -86 -19 -22 -60 -53 -92
-69 -52 -26 -55 -29 -31 -32 14 -2 45 2 68 8 23 6 59 27 81 47 21 19 53 64 69
98 26 55 30 74 30 149 0 84 0 86 -35 121 -30 30 -43 35 -80 35 -25 0 -65 -9
-90 -21 -25 -12 -48 -25 -51 -30 -3 -5 -10 -9 -16 -9 -6 0 -8 11 -3 28 3 15
13 34 21 43 7 8 15 26 16 40 2 19 -1 24 -17 23 -11 -1 -42 -5 -68 -9 -43 -7
-50 -5 -63 14 -8 11 -19 21 -25 21z"/>
</g>
</svg>
