<?xml version="1.0" standalone="no"?>
<!DOCTYPE svg PUBLIC "-//W3C//DTD SVG 20010904//EN"
 "http://www.w3.org/TR/2001/REC-SVG-20010904/DTD/svg10.dtd">
<svg version="1.0" xmlns="http://www.w3.org/2000/svg"
 width="128.000000pt" height="128.000000pt" viewBox="0 0 128.000000 128.000000"
 preserveAspectRatio="xMidYMid meet">
<metadata>
Created by potrace 1.16, written by Peter Selinger 2001-2019
</metadata>
<g transform="translate(0.000000,128.000000) scale(0.100000,-0.100000)"
fill="#000000" stroke="none">
<path d="M501 1240 c-32 0 -40 -4 -45 -22 -3 -13 -6 -33 -6 -44 0 -12 7 -45
17 -73 16 -51 16 -52 -8 -77 -13 -14 -48 -42 -77 -62 -29 -21 -69 -47 -90 -59
-20 -12 -56 -32 -80 -44 -23 -12 -54 -35 -68 -52 -14 -17 -39 -59 -56 -95 -30
-64 -30 -64 -12 -104 10 -22 29 -48 42 -59 14 -10 37 -19 53 -19 16 0 59 10
96 21 38 12 90 32 117 45 28 13 58 24 68 24 11 0 36 9 58 20 22 11 57 20 79
20 22 0 42 -4 45 -9 3 -5 -10 -29 -30 -53 -20 -23 -63 -69 -96 -100 -39 -37
-58 -63 -56 -75 2 -10 11 -19 21 -21 10 -2 30 -1 44 3 13 3 81 63 149 132 78
79 132 142 145 170 11 25 19 54 17 66 -2 12 -14 27 -28 35 -15 8 -42 11 -69 7
-24 -3 -49 -9 -55 -14 -6 -4 -42 -19 -81 -31 -38 -13 -87 -31 -107 -41 -20
-11 -56 -25 -80 -33 -24 -7 -58 -16 -76 -20 -19 -3 -47 -15 -64 -27 -25 -18
-34 -20 -54 -10 -14 6 -27 18 -30 26 -3 8 2 28 13 45 10 16 40 52 65 78 28 29
77 64 120 86 40 20 80 40 88 45 8 5 36 18 61 30 25 11 52 21 58 21 7 0 23 11
36 24 20 20 23 30 18 67 -4 30 -16 55 -39 81 -18 20 -40 51 -49 67 -13 27 -21
31 -54 31z"/>
<path d="M903 399 c-10 -1 -28 -4 -40 -6 -12 -2 -32 -14 -46 -27 -14 -13 -49
-31 -78 -40 -30 -10 -78 -29 -108 -44 -47 -21 -59 -23 -84 -14 -18 7 -36 8
-45 3 -10 -6 -28 -3 -50 7 -34 17 -34 17 -63 -16 -16 -18 -29 -39 -29 -46 0
-8 7 -22 16 -30 8 -9 26 -19 39 -22 13 -3 49 -2 82 3 34 5 76 5 101 -1 34 -7
50 -5 82 9 21 10 45 15 53 12 8 -3 30 5 48 19 18 13 41 24 50 24 9 0 30 16 46
36 23 29 34 35 51 30 11 -4 31 -24 44 -44 12 -20 36 -53 53 -72 16 -19 50 -56
74 -82 24 -26 52 -48 61 -48 10 0 23 6 29 14 6 7 12 42 13 78 2 51 -2 71 -20
100 -13 20 -37 46 -55 57 -18 12 -47 32 -65 46 -19 13 -57 31 -87 40 -29 8
-61 14 -72 14z"/>
<path d="M420 380 c-11 0 -24 -9 -30 -21 -7 -11 -9 -27 -6 -35 3 -8 14 -14 24
-14 10 0 24 11 31 24 8 13 10 29 7 35 -4 6 -16 11 -26 11z"/>
</g>
</svg>
