<?xml version="1.0" standalone="no"?>
<!DOCTYPE svg PUBLIC "-//W3C//DTD SVG 20010904//EN"
 "http://www.w3.org/TR/2001/REC-SVG-20010904/DTD/svg10.dtd">
<svg version="1.0" xmlns="http://www.w3.org/2000/svg"
 width="128.000000pt" height="128.000000pt" viewBox="0 0 128.000000 128.000000"
 preserveAspectRatio="xMidYMid meet">
<metadata>
Created by potrace 1.16, written by Peter Selinger 2001-2019
</metadata>
<g transform="translate(0.000000,128.000000) scale(0.100000,-0.100000)"
fill="#000000" stroke="none">
<path d="M757 1280 c-86 0 -157 -4 -159 -8 -1 -5 -16 -15 -33 -23 -24 -12 -31
-22 -37 -61 -6 -32 -3 -64 7 -105 16 -58 16 -58 -21 -90 -20 -17 -49 -35 -65
-38 -16 -4 -47 -24 -70 -46 -22 -21 -47 -39 -55 -39 -8 0 -28 -7 -45 -15 -16
-9 -40 -32 -53 -53 -13 -20 -48 -55 -79 -77 -31 -22 -56 -45 -57 -50 0 -6 -12
-32 -26 -58 -25 -48 -25 -48 -4 -93 20 -40 25 -44 58 -44 21 1 64 7 97 14 33
7 74 20 92 29 18 10 51 17 74 17 23 0 71 5 106 11 35 6 70 8 78 5 14 -5 14 -9
0 -36 -8 -16 -20 -30 -26 -30 -6 0 -47 -32 -90 -71 -43 -39 -97 -98 -120 -132
-22 -34 -43 -76 -46 -93 -3 -17 0 -41 6 -53 7 -11 23 -28 36 -37 17 -11 46
-16 87 -16 35 0 97 8 138 17 41 9 113 20 159 25 46 5 109 19 140 32 31 12 60
26 65 30 6 4 16 8 22 8 7 0 34 -23 61 -52 26 -29 60 -64 74 -78 15 -14 34 -31
43 -38 9 -8 31 -18 49 -23 17 -5 35 -9 38 -9 4 0 9 24 12 52 4 29 9 68 13 86
5 24 -1 46 -20 87 -19 41 -35 59 -64 74 -21 11 -44 26 -51 35 -7 8 -32 27 -56
41 -24 14 -58 25 -75 25 -21 0 -46 -11 -70 -30 -21 -17 -42 -30 -47 -30 -4 0
-24 -13 -43 -28 -19 -16 -50 -34 -67 -41 -18 -7 -40 -10 -49 -7 -9 3 -33 1
-54 -5 -21 -6 -50 -9 -64 -5 -20 5 -26 13 -26 33 0 17 16 43 47 77 27 28 59
56 73 62 14 6 35 23 47 37 12 15 39 35 60 46 21 11 70 44 108 73 51 38 71 60
73 79 2 14 -7 42 -18 63 -21 34 -25 36 -74 36 -29 0 -57 -5 -63 -11 -6 -6 -53
-20 -104 -31 -52 -11 -114 -23 -139 -28 -25 -5 -76 -14 -115 -20 -38 -6 -84
-15 -102 -20 -18 -4 -34 -5 -37 -2 -3 3 -6 13 -6 22 0 10 17 29 38 43 20 13
54 28 74 31 22 4 59 25 90 49 29 24 71 50 93 60 22 9 69 20 105 25 65 7 65 7
64 53 0 34 -8 56 -32 90 -17 24 -36 65 -43 92 -9 36 -9 54 1 76 6 16 19 36 29
45 12 11 43 16 106 18 60 2 90 7 93 16 3 9 -32 12 -151 12z"/>
</g>
</svg>
