<?xml version="1.0" standalone="no"?>
<!DOCTYPE svg PUBLIC "-//W3C//DTD SVG 20010904//EN"
 "http://www.w3.org/TR/2001/REC-SVG-20010904/DTD/svg10.dtd">
<svg version="1.0" xmlns="http://www.w3.org/2000/svg"
 width="128.000000pt" height="128.000000pt" viewBox="0 0 128.000000 128.000000"
 preserveAspectRatio="xMidYMid meet">
<metadata>
Created by potrace 1.16, written by Peter Selinger 2001-2019
</metadata>
<g transform="translate(0.000000,128.000000) scale(0.100000,-0.100000)"
fill="#000000" stroke="none">
<path d="M453 1279 c-41 -1 -52 -6 -80 -37 -18 -19 -33 -46 -33 -59 0 -13 7
-52 16 -87 11 -45 26 -74 52 -102 20 -22 65 -57 100 -78 54 -33 67 -37 103
-31 22 4 53 18 69 32 17 14 30 31 30 38 0 7 -20 25 -44 39 -25 14 -51 26 -58
26 -7 0 -29 5 -49 10 -20 6 -49 23 -64 37 -15 15 -36 44 -46 65 -10 20 -19 42
-19 48 0 5 16 27 35 49 19 21 35 41 35 45 0 3 -21 6 -47 5z"/>
<path d="M195 810 c-9 0 -26 -10 -39 -23 -16 -16 -25 -41 -30 -80 -4 -31 -5
-66 -1 -77 3 -11 12 -20 20 -20 7 0 21 -7 30 -17 12 -11 39 -17 93 -20 42 -2
86 -1 98 1 11 3 26 17 33 32 9 22 14 24 26 14 9 -8 30 -10 53 -7 20 3 47 9 59
13 17 4 25 1 29 -11 5 -13 -2 -26 -23 -44 -17 -14 -33 -34 -36 -43 -4 -10 -12
-18 -18 -18 -7 0 -39 -28 -73 -62 -33 -35 -71 -78 -83 -96 -13 -18 -23 -39
-23 -46 0 -8 -7 -29 -15 -49 -10 -25 -12 -43 -5 -67 5 -18 7 -37 4 -42 -3 -5
1 -20 10 -33 13 -20 22 -24 49 -19 17 3 59 10 92 16 33 6 70 17 82 24 12 8 43
14 68 14 25 0 59 7 75 15 16 8 36 12 44 9 8 -3 29 2 45 12 17 10 31 22 31 26
0 4 14 8 30 8 25 0 30 -4 30 -25 0 -18 11 -33 41 -53 22 -15 57 -41 77 -58 21
-17 47 -36 59 -43 12 -6 26 -11 32 -11 6 0 29 16 51 36 22 20 40 44 40 53 0 9
-23 41 -50 71 -28 30 -62 67 -76 82 -13 15 -39 34 -57 42 -18 8 -48 18 -67 22
-19 3 -44 13 -55 20 -11 8 -27 14 -36 14 -10 0 -30 -10 -46 -23 -15 -13 -48
-29 -73 -36 -25 -7 -54 -21 -65 -31 -11 -10 -38 -23 -60 -30 -22 -7 -68 -16
-102 -20 -61 -6 -63 -5 -63 17 0 13 8 36 18 51 10 15 22 34 27 43 6 9 22 34
37 56 15 22 44 51 65 64 21 13 53 38 71 56 19 17 47 35 63 38 16 4 47 22 70
41 22 19 45 34 50 34 5 0 16 17 24 37 9 21 13 48 10 60 -3 13 -10 23 -15 23
-5 0 -25 14 -43 30 -22 19 -46 30 -65 30 -16 0 -56 -16 -88 -35 -40 -24 -70
-35 -97 -35 -21 0 -51 -6 -65 -14 -15 -7 -56 -27 -92 -43 -54 -25 -74 -30
-117 -26 -29 3 -57 11 -62 17 -7 8 -5 28 4 61 8 26 15 54 15 62 0 7 -7 13 -15
13z m736 -576 c5 -3 9 -12 9 -20 0 -8 -7 -14 -15 -14 -8 0 -15 6 -15 13 0 8 3
17 6 20 4 4 11 4 15 1z"/>
<path d="M781 13 c-10 2 -25 1 -32 -4 -10 -6 -4 -9 19 -9 17 0 32 2 32 4 0 2
-9 6 -19 9z"/>
</g>
</svg>
