<?xml version="1.0" standalone="no"?>
<!DOCTYPE svg PUBLIC "-//W3C//DTD SVG 20010904//EN"
 "http://www.w3.org/TR/2001/REC-SVG-20010904/DTD/svg10.dtd">
<svg version="1.0" xmlns="http://www.w3.org/2000/svg"
 width="128.000000pt" height="128.000000pt" viewBox="0 0 128.000000 128.000000"
 preserveAspectRatio="xMidYMid meet">
<metadata>
Created by potrace 1.16, written by Peter Selinger 2001-2019
</metadata>
<g transform="translate(0.000000,128.000000) scale(0.100000,-0.100000)"
fill="#000000" stroke="none">
<path d="M455 1250 c-9 0 -15 -9 -15 -23 0 -12 6 -47 14 -77 8 -30 17 -74 21
-97 4 -23 16 -54 27 -68 10 -14 28 -25 39 -25 11 0 34 7 52 16 18 9 40 23 50
32 11 10 17 30 17 57 0 28 -7 51 -21 69 -11 14 -26 26 -32 26 -7 0 -23 10 -37
21 -14 11 -42 31 -62 44 -21 14 -44 25 -53 25z"/>
<path d="M772 839 c-9 0 -26 -4 -37 -9 -11 -5 -32 -9 -46 -9 -14 -1 -36 -13
-50 -27 -13 -14 -33 -30 -44 -35 -11 -5 -35 -21 -54 -34 -21 -16 -45 -24 -63
-23 -19 2 -33 -4 -39 -15 -7 -12 -23 -17 -58 -17 -31 0 -53 -5 -61 -15 -7 -8
-18 -15 -25 -15 -7 0 -24 9 -38 20 -25 20 -28 20 -58 5 -17 -9 -41 -14 -53
-11 -11 3 -27 2 -33 -2 -7 -4 -19 -24 -28 -45 -8 -20 -15 -45 -15 -55 0 -11 9
-31 21 -46 16 -20 29 -26 59 -26 20 0 64 12 96 27 33 15 65 33 72 40 7 7 25
15 40 18 15 3 51 18 80 33 28 14 52 32 52 39 0 7 9 17 19 23 11 5 40 11 65 12
25 0 49 -2 52 -5 4 -3 -6 -36 -21 -72 -16 -36 -34 -70 -41 -76 -7 -6 -16 -24
-19 -40 -4 -16 -14 -35 -24 -41 -9 -7 -31 -35 -49 -62 -18 -27 -32 -55 -32
-63 0 -7 -9 -18 -21 -25 -11 -7 -29 -27 -39 -44 -16 -26 -19 -42 -13 -98 6
-62 9 -69 43 -96 21 -17 45 -30 53 -30 9 0 33 10 54 22 21 12 45 28 54 35 9 8
39 22 68 32 28 11 63 29 78 41 16 11 44 32 63 45 19 14 50 32 68 40 29 14 38
14 85 0 45 -13 55 -21 75 -57 12 -24 22 -49 22 -57 0 -8 6 -22 14 -30 7 -9 18
-29 23 -46 6 -18 18 -31 29 -33 11 -2 29 7 41 20 11 13 28 45 37 72 9 27 16
56 16 63 0 8 -10 37 -21 64 -12 27 -26 49 -31 49 -5 0 -28 15 -50 32 -22 18
-53 45 -69 61 -17 17 -38 27 -56 27 -20 0 -49 -16 -96 -55 -39 -32 -76 -55
-90 -55 -13 0 -59 -18 -103 -41 -43 -22 -91 -54 -105 -70 -17 -20 -35 -29 -56
-29 -17 0 -37 8 -47 19 -14 15 -15 24 -6 40 6 12 14 21 19 21 4 0 20 24 34 53
15 29 27 57 27 63 0 6 12 21 26 35 14 13 33 38 41 54 9 17 24 36 34 43 11 7
19 19 19 27 0 8 17 34 38 57 20 23 61 66 90 95 44 45 52 58 52 90 0 27 -8 46
-25 66 -14 15 -34 27 -43 26z"/>
</g>
</svg>
