<?xml version="1.0" standalone="no"?>
<!DOCTYPE svg PUBLIC "-//W3C//DTD SVG 20010904//EN"
 "http://www.w3.org/TR/2001/REC-SVG-20010904/DTD/svg10.dtd">
<svg version="1.0" xmlns="http://www.w3.org/2000/svg"
 width="128.000000pt" height="128.000000pt" viewBox="0 0 128.000000 128.000000"
 preserveAspectRatio="xMidYMid meet">
<metadata>
Created by potrace 1.16, written by Peter Selinger 2001-2019
</metadata>
<g transform="translate(0.000000,128.000000) scale(0.100000,-0.100000)"
fill="#000000" stroke="none">
<path d="M581 1280 c-36 0 -40 -3 -47 -32 -4 -18 -7 -55 -7 -83 0 -39 7 -61
32 -99 17 -28 31 -58 31 -67 0 -10 5 -21 10 -24 6 -4 8 -10 5 -15 -3 -5 -30
-8 -60 -7 -31 1 -60 -4 -67 -11 -7 -7 -24 -12 -39 -12 -15 0 -40 -5 -56 -11
-15 -5 -44 -25 -63 -44 -19 -19 -52 -41 -74 -50 -21 -9 -56 -28 -78 -43 -22
-14 -55 -49 -73 -77 -17 -28 -35 -64 -37 -80 -3 -17 -11 -44 -18 -60 -8 -20
-10 -48 -6 -78 4 -26 14 -54 22 -62 11 -10 36 -15 83 -15 37 0 93 7 124 15 32
8 70 15 85 15 15 1 38 7 52 15 14 8 36 14 51 15 14 0 30 -5 37 -12 7 -7 12
-21 12 -32 0 -11 -20 -39 -45 -63 -26 -24 -56 -68 -71 -100 -20 -45 -24 -67
-19 -98 3 -22 15 -59 26 -82 11 -23 30 -45 41 -49 11 -3 50 -3 87 1 36 4 80
13 98 20 18 8 54 17 80 21 26 3 67 17 90 31 23 13 49 35 57 48 12 19 25 25 52
25 31 0 48 -11 118 -74 65 -60 92 -77 139 -91 32 -9 65 -14 73 -11 10 4 14 22
14 60 0 32 -8 73 -19 100 -11 24 -32 53 -48 62 -15 10 -39 29 -53 42 -14 14
-39 35 -56 48 -16 13 -54 28 -83 35 -28 6 -63 8 -76 5 -16 -4 -30 -19 -39 -41
-11 -25 -21 -35 -37 -35 -12 0 -43 -13 -68 -29 -25 -16 -64 -32 -86 -36 -22
-3 -71 -17 -109 -30 -69 -24 -69 -24 -97 5 -16 16 -29 38 -29 50 0 12 23 45
51 76 29 30 72 64 96 76 24 12 54 36 67 52 13 17 56 49 96 71 41 22 93 58 118
80 36 33 43 45 38 63 -4 13 -18 24 -34 28 -15 3 -34 9 -42 15 -8 5 -29 16 -46
25 -20 10 -42 14 -58 10 -14 -3 -31 -13 -38 -22 -7 -9 -25 -28 -39 -43 -18
-18 -44 -30 -88 -38 -36 -6 -82 -24 -110 -42 -26 -17 -53 -31 -59 -31 -6 0
-37 -11 -68 -25 -37 -16 -75 -25 -109 -25 -38 0 -56 5 -68 18 -10 10 -17 27
-17 38 0 11 12 36 26 55 14 19 30 44 34 55 5 12 30 36 57 54 26 18 77 44 113
57 36 14 70 28 75 33 6 4 36 11 68 15 32 4 68 16 81 26 18 15 45 20 106 23 56
2 85 8 91 17 5 8 8 21 7 29 -1 8 5 27 12 42 11 23 10 31 -4 53 -10 15 -34 33
-54 42 -20 8 -45 22 -56 31 -10 10 -34 22 -55 27 -26 8 -37 17 -39 34 -2 12 4
40 12 62 9 22 16 44 16 49 0 6 -18 10 -39 10z m84 -663 c5 -2 11 -13 13 -25 2
-16 -2 -22 -15 -22 -10 0 -25 5 -33 10 -13 9 -12 12 5 25 10 9 24 14 30 12z"/>
</g>
</svg>
