<?xml version="1.0" standalone="no"?>
<!DOCTYPE svg PUBLIC "-//W3C//DTD SVG 20010904//EN"
 "http://www.w3.org/TR/2001/REC-SVG-20010904/DTD/svg10.dtd">
<svg version="1.0" xmlns="http://www.w3.org/2000/svg"
 width="128.000000pt" height="128.000000pt" viewBox="0 0 128.000000 128.000000"
 preserveAspectRatio="xMidYMid meet">
<metadata>
Created by potrace 1.16, written by Peter Selinger 2001-2019
</metadata>
<g transform="translate(0.000000,128.000000) scale(0.100000,-0.100000)"
fill="#000000" stroke="none">
<path d="M532 1260 c-36 0 -66 -6 -80 -16 -12 -8 -22 -23 -22 -33 0 -10 7 -24
15 -31 8 -6 14 -24 13 -38 0 -15 2 -41 7 -58 6 -27 3 -34 -20 -50 -15 -11 -37
-29 -49 -41 -12 -12 -33 -24 -47 -28 -14 -3 -65 -46 -112 -96 -48 -49 -91 -89
-95 -89 -4 0 -31 -22 -60 -48 -38 -35 -52 -55 -52 -75 0 -19 8 -31 29 -42 16
-8 32 -23 35 -33 3 -10 19 -25 35 -35 16 -9 35 -17 43 -17 7 0 31 9 52 21 30
16 63 22 143 25 71 4 103 2 103 -6 0 -6 -13 -38 -29 -70 -16 -32 -41 -76 -55
-97 -19 -27 -26 -50 -26 -86 0 -27 7 -58 16 -72 9 -13 13 -28 10 -33 -3 -5 1
-18 9 -29 8 -11 28 -26 45 -33 18 -8 30 -20 30 -31 0 -12 11 -24 28 -30 15 -6
45 -8 67 -4 22 3 67 10 100 15 33 5 74 12 90 16 17 4 59 35 97 70 36 35 73 64
82 64 9 0 27 -12 41 -28 13 -15 38 -43 55 -64 27 -32 29 -39 19 -62 -9 -20 -9
-29 1 -41 9 -11 26 -15 54 -13 39 3 41 4 39 34 -2 28 1 32 37 43 22 6 45 21
51 33 6 11 9 36 6 54 -3 18 -19 53 -36 77 -23 35 -43 49 -88 67 -32 12 -76 31
-99 41 -22 11 -52 19 -66 19 -14 0 -42 -11 -62 -25 -20 -13 -60 -36 -90 -50
-29 -14 -60 -25 -68 -25 -9 0 -29 -13 -44 -28 -16 -15 -34 -36 -41 -47 -11
-19 -13 -19 -26 -3 -7 9 -29 18 -48 20 -34 3 -34 3 -37 78 -2 41 -7 79 -12 84
-6 6 -10 17 -10 26 0 9 13 29 30 45 16 15 35 43 41 62 6 19 8 40 5 49 -4 10 2
14 22 14 15 0 45 3 67 6 23 4 49 17 62 30 14 15 33 24 52 24 16 0 33 5 36 10
4 6 21 16 38 24 18 7 47 27 65 44 17 16 32 37 32 46 0 9 -9 25 -20 36 -16 16
-33 20 -90 20 -68 0 -71 -1 -112 -41 -24 -22 -62 -49 -85 -60 -24 -10 -43 -23
-43 -29 0 -5 -10 -10 -22 -10 -13 0 -36 -7 -52 -15 -17 -9 -41 -13 -55 -10
-14 3 -56 -1 -92 -9 -36 -7 -76 -19 -89 -26 -14 -7 -49 -11 -91 -8 -38 2 -74
9 -81 16 -9 9 -7 18 10 42 12 16 22 36 22 44 0 9 20 25 45 36 24 11 55 30 68
43 14 12 44 33 68 46 24 13 61 32 82 43 20 10 37 22 37 27 0 5 19 16 41 25 23
10 54 15 68 12 14 -3 44 0 66 8 36 13 40 18 40 47 0 29 -6 37 -46 59 -26 14
-61 42 -78 62 -18 21 -29 42 -26 49 4 6 23 17 42 25 18 8 31 19 28 24 -3 6
-32 10 -63 10z"/>
</g>
</svg>
