<?xml version="1.0" standalone="no"?>
<!DOCTYPE svg PUBLIC "-//W3C//DTD SVG 20010904//EN"
 "http://www.w3.org/TR/2001/REC-SVG-20010904/DTD/svg10.dtd">
<svg version="1.0" xmlns="http://www.w3.org/2000/svg"
 width="128.000000pt" height="128.000000pt" viewBox="0 0 128.000000 128.000000"
 preserveAspectRatio="xMidYMid meet">
<metadata>
Created by potrace 1.16, written by Peter Selinger 2001-2019
</metadata>
<g transform="translate(0.000000,128.000000) scale(0.100000,-0.100000)"
fill="#000000" stroke="none">
<path d="M451 1210 c-18 5 -33 5 -36 0 -3 -5 1 -20 10 -34 9 -13 23 -27 31
-30 8 -3 14 -12 14 -21 0 -8 10 -20 23 -25 12 -6 29 -14 37 -19 8 -5 34 -18
57 -29 23 -11 44 -18 47 -14 3 3 6 12 6 21 0 9 -9 27 -20 41 -11 14 -20 28
-20 32 0 4 6 5 14 2 8 -3 16 -15 20 -26 4 -17 8 -19 19 -10 8 7 17 9 20 6 3
-3 14 0 25 7 17 13 17 17 5 46 -9 22 -22 34 -40 38 -16 4 -38 10 -50 15 -13 5
-45 5 -77 0 -32 -5 -68 -5 -85 0z"/>
<path d="M498 958 c-29 -1 -66 -7 -83 -12 -16 -6 -36 -15 -43 -19 -7 -5 -27
-5 -44 -2 -32 7 -32 7 -14 -21 10 -16 29 -39 42 -52 13 -13 24 -29 24 -36 0
-7 -11 -23 -25 -36 -14 -13 -25 -28 -25 -34 0 -5 -31 -40 -70 -77 -38 -36 -70
-69 -70 -73 0 -3 -22 -27 -49 -52 -27 -25 -52 -58 -56 -72 -3 -15 -18 -39 -32
-54 -15 -15 -32 -43 -38 -62 -6 -18 -9 -53 -6 -77 4 -28 12 -45 21 -47 9 -1
25 7 37 18 12 11 30 20 40 20 10 1 34 10 53 20 19 10 46 25 60 31 14 7 36 21
50 30 14 10 46 28 70 41 25 14 69 39 98 57 28 18 52 37 52 42 0 5 8 13 18 16
9 4 31 17 48 30 18 13 36 22 41 21 5 -2 30 8 56 21 34 17 51 21 58 14 8 -8 2
-18 -20 -34 -17 -12 -31 -31 -31 -40 0 -10 -7 -22 -15 -27 -10 -5 -13 -15 -9
-25 3 -9 15 -17 25 -17 10 0 25 11 34 23 8 13 37 38 64 55 26 17 66 51 89 76
22 24 44 45 49 47 5 2 34 22 65 44 31 22 62 50 68 62 7 11 9 26 6 32 -4 6 -20
11 -36 11 -18 0 -34 -8 -43 -21 -15 -20 -15 -20 -31 3 -14 19 -19 21 -36 10
-11 -6 -27 -12 -35 -12 -9 0 -18 -7 -21 -14 -3 -8 -29 -22 -57 -32 -29 -9 -57
-21 -62 -28 -6 -6 -20 -17 -33 -23 -12 -7 -30 -13 -40 -13 -9 0 -44 -20 -77
-45 -33 -25 -65 -45 -71 -45 -5 0 -22 -6 -37 -12 -15 -7 -27 -21 -27 -30 0 -9
-6 -20 -12 -25 -7 -4 -20 -8 -28 -8 -8 0 -17 -11 -21 -25 -7 -24 -7 -24 -8 -2
-1 12 -5 22 -10 22 -6 0 -13 -5 -16 -10 -4 -6 -12 -10 -18 -9 -7 1 -25 -3 -41
-10 -17 -7 -36 -20 -43 -31 -7 -10 -26 -21 -43 -25 -16 -4 -37 -17 -47 -30
-14 -18 -23 -21 -40 -14 -23 8 -23 8 0 52 13 24 53 70 88 103 35 32 70 63 78
69 8 5 52 48 98 94 45 46 83 88 83 92 0 5 8 9 18 9 11 0 27 9 36 19 10 11 30
21 45 23 22 3 27 9 29 38 2 19 8 40 13 47 7 7 6 13 -1 18 -5 3 -14 4 -19 1 -5
-3 -12 1 -15 9 -4 12 -19 15 -58 13z"/>
<path d="M607 448 c-28 0 -39 -8 -68 -45 -19 -24 -46 -59 -60 -76 -14 -18 -35
-53 -47 -78 -13 -26 -22 -65 -22 -92 0 -40 4 -49 23 -56 15 -6 32 -4 52 7 17
8 41 17 55 18 14 2 48 8 77 13 28 5 65 17 82 25 16 9 39 16 51 16 11 0 43 11
70 25 30 15 56 37 65 55 9 17 13 35 10 40 -3 5 -31 17 -62 26 -54 16 -57 16
-70 -2 -7 -10 -13 -23 -13 -29 0 -6 -17 -16 -37 -21 -28 -7 -39 -15 -41 -31
-2 -13 -5 -23 -8 -23 -3 0 -16 8 -30 17 -21 13 -30 14 -45 5 -10 -7 -29 -12
-42 -12 -13 0 -28 -5 -34 -11 -6 -6 -16 -8 -22 -5 -6 4 -11 13 -11 20 0 7 9
21 21 32 11 10 27 33 34 51 8 18 20 33 28 33 7 0 28 18 45 39 18 22 32 44 32
49 0 6 -15 10 -33 10z"/>
<path d="M864 450 c-2 0 -4 -4 -4 -9 0 -4 8 -19 18 -32 9 -13 22 -32 27 -40 6
-9 24 -36 41 -60 16 -24 39 -70 49 -101 10 -32 17 -59 14 -61 -2 -2 -27 -18
-55 -35 -28 -18 -58 -32 -67 -32 -10 0 -17 -6 -17 -14 0 -8 8 -17 19 -21 10
-3 46 1 80 9 34 8 68 20 76 26 7 6 25 8 38 4 19 -4 35 1 60 20 27 20 41 25 66
20 24 -5 31 -3 31 10 0 9 9 21 20 28 11 7 20 16 20 19 0 4 -9 9 -20 12 -17 4
-19 9 -10 32 6 15 7 31 4 37 -3 5 -13 7 -21 4 -11 -4 -13 -1 -8 14 4 14 -3 28
-29 52 -19 18 -41 39 -50 46 -8 6 -22 12 -30 12 -7 0 -16 6 -19 14 -3 8 -15
12 -29 9 -15 -3 -30 3 -42 16 -14 15 -23 18 -36 11 -12 -6 -37 -6 -71 0 -28 6
-53 10 -55 10z"/>
</g>
</svg>
