<?xml version="1.0" standalone="no"?>
<!DOCTYPE svg PUBLIC "-//W3C//DTD SVG 20010904//EN"
 "http://www.w3.org/TR/2001/REC-SVG-20010904/DTD/svg10.dtd">
<svg version="1.0" xmlns="http://www.w3.org/2000/svg"
 width="128.000000pt" height="128.000000pt" viewBox="0 0 128.000000 128.000000"
 preserveAspectRatio="xMidYMid meet">
<metadata>
Created by potrace 1.16, written by Peter Selinger 2001-2019
</metadata>
<g transform="translate(0.000000,128.000000) scale(0.100000,-0.100000)"
fill="#000000" stroke="none">
<path d="M425 1280 c-30 0 -55 -4 -55 -9 0 -5 -13 -23 -30 -41 -22 -24 -30
-42 -30 -70 0 -22 8 -48 20 -63 11 -14 20 -32 20 -40 0 -8 12 -22 26 -32 27
-17 27 -17 0 -42 -15 -14 -25 -30 -23 -36 3 -7 11 -10 18 -8 8 2 40 4 71 4 36
0 65 -6 82 -16 14 -9 32 -17 40 -17 9 0 18 11 22 24 3 13 4 34 2 47 -2 16 -20
32 -63 54 -35 19 -71 48 -87 70 -16 21 -28 48 -28 61 0 13 5 26 10 29 6 3 10
14 10 24 0 10 11 23 25 29 14 6 25 16 25 22 0 6 -24 10 -55 10z"/>
<path d="M627 1168 c-3 9 -5 1 -5 -18 0 -19 2 -27 5 -17 2 9 2 25 0 35z"/>
<path d="M310 937 c-8 1 -30 -4 -49 -12 -18 -8 -62 -44 -96 -80 -35 -36 -70
-79 -78 -95 -9 -16 -18 -43 -22 -60 -4 -20 -1 -37 9 -52 9 -12 16 -30 16 -40
0 -9 8 -22 18 -27 9 -5 65 -11 124 -12 99 -3 109 -2 131 19 13 12 29 22 35 22
7 0 12 4 12 8 0 4 -16 14 -35 21 -19 7 -39 10 -44 7 -5 -3 -41 -7 -81 -9 -54
-3 -75 0 -87 11 -10 10 -13 26 -10 48 3 18 26 59 51 91 25 32 53 67 64 78 10
11 26 25 36 30 10 6 18 19 19 30 1 10 -5 20 -13 22z"/>
<path d="M753 790 c-10 -1 -32 -7 -49 -14 -18 -8 -34 -19 -38 -24 -4 -6 -32
-23 -62 -37 -31 -15 -71 -29 -90 -32 -18 -3 -41 -14 -50 -24 -9 -11 -14 -25
-10 -35 5 -13 9 -15 18 -6 7 7 22 12 33 12 12 0 30 -9 40 -20 10 -11 24 -20
32 -20 8 0 28 7 45 16 22 11 33 13 41 5 8 -8 4 -11 -15 -11 -15 0 -30 -4 -33
-10 -3 -5 -17 -10 -31 -10 -15 0 -34 -12 -51 -32 -16 -18 -42 -46 -59 -63 -16
-16 -33 -38 -37 -48 -4 -9 -15 -21 -25 -25 -11 -4 -31 -20 -44 -37 -14 -16
-36 -50 -48 -75 -15 -30 -25 -69 -28 -115 -4 -65 -2 -72 22 -98 22 -24 32 -27
57 -22 16 4 35 2 43 -4 9 -7 25 -4 57 12 33 17 64 22 124 24 44 0 95 6 114 12
18 5 57 28 85 51 29 22 56 40 60 40 4 0 25 -14 46 -31 31 -25 45 -30 69 -26
19 4 31 2 34 -7 3 -7 24 -23 46 -34 23 -12 60 -23 83 -24 37 -3 43 0 43 17 0
13 -8 21 -23 23 -18 3 -21 8 -16 27 4 18 -1 28 -26 47 -18 12 -38 35 -46 51
-8 15 -21 27 -30 27 -8 0 -19 11 -24 25 -8 20 -15 24 -33 20 -18 -5 -26 -1
-35 19 -9 19 -19 26 -41 26 -16 0 -33 -6 -39 -13 -6 -6 -13 -24 -17 -39 -6
-22 -24 -36 -94 -70 -47 -23 -98 -43 -113 -44 -16 -1 -40 -9 -54 -19 -23 -15
-29 -15 -69 -1 -24 8 -60 27 -80 43 -19 15 -35 33 -35 38 0 6 22 33 50 60 27
28 50 54 50 59 0 5 17 27 37 50 21 22 51 51 68 63 16 12 46 31 66 42 20 11 43
31 53 45 9 14 25 26 35 26 10 0 24 7 31 15 7 8 28 17 47 21 19 4 36 12 38 18
2 6 6 23 9 37 5 21 1 28 -20 37 -14 7 -35 12 -48 12 -15 0 -27 9 -34 25 -6 14
-20 25 -29 25z"/>
</g>
</svg>
