<?xml version="1.0" standalone="no"?>
<!DOCTYPE svg PUBLIC "-//W3C//DTD SVG 20010904//EN"
 "http://www.w3.org/TR/2001/REC-SVG-20010904/DTD/svg10.dtd">
<svg version="1.0" xmlns="http://www.w3.org/2000/svg"
 width="128.000000pt" height="128.000000pt" viewBox="0 0 128.000000 128.000000"
 preserveAspectRatio="xMidYMid meet">
<metadata>
Created by potrace 1.16, written by Peter Selinger 2001-2019
</metadata>
<g transform="translate(0.000000,128.000000) scale(0.100000,-0.100000)"
fill="#000000" stroke="none">
<path d="M395 1280 c-30 0 -45 -4 -45 -13 0 -7 5 -18 12 -25 7 -7 19 -12 28
-12 9 0 24 8 33 18 10 10 17 22 17 25 0 4 -20 7 -45 7z"/>
<path d="M1186 1280 c-46 0 -56 -3 -61 -20 -4 -12 -1 -27 5 -35 7 -8 21 -15
32 -15 10 0 32 7 48 15 18 9 30 24 30 35 0 17 -7 20 -54 20z"/>
<path d="M514 1220 c-6 0 -24 -15 -41 -32 -17 -18 -34 -43 -38 -56 -4 -13 -22
-31 -41 -40 -33 -15 -36 -15 -87 10 -32 15 -63 40 -77 62 -14 20 -31 38 -39
41 -8 3 -19 1 -24 -4 -7 -7 1 -27 24 -61 19 -27 37 -50 41 -50 4 0 25 -24 47
-54 23 -31 50 -56 65 -60 14 -3 26 -13 26 -20 0 -8 -7 -49 -15 -91 -8 -43 -19
-83 -26 -91 -8 -9 -17 -10 -35 -3 -14 5 -36 9 -48 9 -13 0 -35 -9 -50 -21 -20
-16 -26 -29 -26 -60 0 -22 7 -56 15 -77 9 -20 27 -53 41 -74 23 -33 24 -39 14
-80 -7 -23 -19 -56 -27 -71 -12 -22 -12 -31 -3 -42 10 -12 9 -15 -8 -15 -14 0
-27 -12 -39 -37 -11 -23 -17 -62 -18 -103 0 -63 -1 -65 -25 -65 -21 0 -25 4
-22 27 2 14 -1 29 -7 32 -5 3 -19 -6 -30 -20 -12 -15 -21 -33 -21 -40 0 -8 8
-22 18 -32 10 -10 16 -24 14 -30 -2 -7 3 -15 12 -18 9 -3 26 -4 39 0 12 3 32
21 45 39 12 18 22 44 22 58 0 17 10 30 31 43 25 15 30 23 27 48 -2 22 3 33 19
41 12 7 38 33 57 59 20 26 36 49 36 52 0 2 -10 6 -22 8 -19 2 -24 10 -26 42
-2 22 -1 50 3 63 6 24 7 24 30 9 13 -9 40 -16 60 -16 28 0 38 5 44 23 5 12 7
25 4 30 -2 4 -24 7 -48 7 -34 0 -50 6 -70 25 -17 18 -25 37 -25 61 0 24 4 34
13 32 6 -3 14 -20 17 -39 5 -34 5 -34 22 7 9 22 20 58 24 80 4 21 27 84 51
139 24 55 48 117 54 138 7 26 21 45 49 63 35 23 40 32 40 63 0 28 -7 44 -28
64 -15 15 -33 27 -38 27z"/>
<path d="M1224 1167 c-5 2 -20 -7 -33 -21 -16 -17 -23 -38 -24 -69 -1 -26 3
-51 8 -56 6 -6 22 -12 35 -13 25 -3 25 -2 25 76 0 47 -4 81 -11 83z"/>
<path d="M796 1010 c-12 0 -49 -16 -82 -35 -34 -19 -73 -50 -87 -68 -14 -18
-32 -49 -40 -68 -8 -19 -24 -43 -36 -53 -11 -11 -21 -23 -21 -28 0 -5 -12 -35
-27 -66 -15 -31 -33 -61 -40 -65 -7 -4 -13 -16 -13 -25 0 -9 4 -23 8 -30 5 -7
16 -10 26 -6 13 5 16 14 12 34 -4 23 1 32 31 53 20 15 46 46 57 69 12 25 29
45 40 47 11 2 26 -5 33 -15 7 -10 13 -37 13 -61 0 -28 11 -63 31 -104 17 -33
33 -78 36 -99 4 -31 2 -40 -16 -49 -12 -7 -21 -21 -21 -34 0 -12 9 -33 20 -47
11 -14 20 -37 20 -51 0 -14 -14 -51 -30 -82 -17 -31 -40 -59 -50 -62 -11 -4
-22 -16 -25 -28 -2 -12 -6 -48 -7 -80 -3 -56 -2 -57 23 -57 18 0 39 13 64 37
20 21 55 69 78 108 23 38 49 92 57 120 11 35 24 54 41 62 14 7 47 12 74 13 28
0 82 -3 121 -6 70 -5 71 -5 97 26 16 18 27 44 27 61 0 22 -11 37 -51 69 -28
22 -56 41 -62 41 -7 1 -55 0 -108 -1 -96 -2 -96 -2 -116 27 -11 15 -25 42 -32
60 -7 17 -21 39 -32 49 -10 9 -19 22 -19 27 0 6 8 20 18 31 11 12 28 53 40 91
11 39 23 84 26 102 4 26 0 37 -26 62 -18 17 -41 31 -52 31z m-75 -80 c5 0 12
-12 15 -26 4 -14 2 -30 -4 -36 -6 -6 -15 -7 -21 -4 -6 4 -11 17 -11 30 0 12 3
26 7 29 3 4 10 7 14 7z"/>
<path d="M1206 859 c-6 0 -17 -3 -23 -6 -7 -2 -13 -16 -13 -29 0 -15 11 -35
27 -49 16 -13 31 -21 35 -18 5 2 8 21 8 42 0 20 -5 42 -12 49 -7 7 -17 12 -22
11z"/>
<path d="M377 468 c-12 3 -17 -4 -17 -23 0 -23 2 -25 21 -15 11 6 18 17 16 23
-2 7 -11 13 -20 15z"/>
<path d="M610 420 c-5 0 -12 -4 -15 -10 -3 -5 -20 -10 -37 -10 -22 0 -43 -12
-79 -46 -47 -46 -48 -47 -33 -75 8 -16 20 -29 27 -29 6 0 18 4 26 9 8 5 16 28
17 52 1 27 8 45 19 51 12 7 22 5 35 -7 14 -13 23 -14 38 -6 11 6 22 16 25 23
2 7 0 21 -5 31 -5 9 -13 17 -18 17z"/>
<path d="M419 260 c-4 0 -12 -7 -17 -17 -6 -9 -6 -29 -1 -46 5 -17 17 -40 28
-51 13 -14 18 -29 15 -43 -5 -17 4 -31 37 -62 33 -31 52 -41 78 -41 28 0 32 2
21 15 -6 8 -9 19 -5 25 4 6 1 17 -5 25 -10 13 -8 15 15 15 16 0 25 5 23 12 -3
7 -18 20 -34 30 -16 10 -33 20 -39 22 -5 3 -26 9 -45 14 -31 8 -35 12 -33 37
1 16 -5 37 -14 47 -9 10 -20 18 -24 18z m56 -150 c16 0 25 -6 25 -15 0 -9 -9
-15 -25 -15 -16 0 -25 6 -25 15 0 9 9 15 25 15z"/>
</g>
</svg>
