<?xml version="1.0" standalone="no"?>
<!DOCTYPE svg PUBLIC "-//W3C//DTD SVG 20010904//EN"
 "http://www.w3.org/TR/2001/REC-SVG-20010904/DTD/svg10.dtd">
<svg version="1.0" xmlns="http://www.w3.org/2000/svg"
 width="128.000000pt" height="128.000000pt" viewBox="0 0 128.000000 128.000000"
 preserveAspectRatio="xMidYMid meet">
<metadata>
Created by potrace 1.16, written by Peter Selinger 2001-2019
</metadata>
<g transform="translate(0.000000,128.000000) scale(0.100000,-0.100000)"
fill="#000000" stroke="none">
<path d="M547 1080 c-33 0 -48 -6 -69 -29 -28 -29 -28 -29 -3 -85 14 -31 25
-65 25 -75 0 -14 -17 -25 -62 -42 -35 -12 -76 -33 -93 -45 -16 -12 -46 -25
-65 -29 -19 -4 -63 -18 -97 -31 -34 -13 -73 -24 -86 -24 -14 0 -35 -8 -48 -19
-20 -16 -21 -21 -10 -35 7 -9 19 -16 27 -16 7 0 40 -12 74 -27 61 -26 61 -26
94 7 18 19 48 39 66 45 19 6 35 16 37 22 2 6 -6 13 -18 15 -12 2 -24 8 -26 13
-2 7 24 11 70 10 49 0 80 5 91 14 12 10 20 11 28 3 8 -8 7 -20 -2 -44 -7 -18
-22 -58 -33 -88 -12 -30 -29 -64 -39 -76 -10 -11 -18 -23 -18 -27 0 -3 -11
-23 -25 -43 -14 -21 -34 -44 -45 -51 -11 -8 -20 -19 -20 -24 0 -6 -12 -26 -28
-45 -15 -18 -34 -34 -42 -34 -8 0 -30 -13 -49 -29 -18 -16 -50 -34 -71 -40
-20 -6 -46 -11 -57 -11 -10 0 -24 -5 -31 -12 -7 -7 -12 -17 -12 -24 0 -6 10
-14 22 -17 13 -3 58 -2 100 2 65 5 82 11 106 34 15 15 33 27 38 27 6 0 20 10
31 23 11 12 48 46 82 75 33 29 61 59 61 67 0 8 13 28 30 46 16 18 32 46 36 63
4 17 15 42 25 55 11 13 19 29 19 35 0 6 7 24 15 40 9 16 21 61 28 99 9 58 15
71 35 78 13 5 32 9 43 9 15 0 19 -7 19 -38 0 -21 -8 -65 -19 -98 -10 -32 -28
-90 -40 -127 -12 -38 -26 -102 -32 -143 -5 -41 -7 -83 -4 -94 4 -11 18 -23 31
-26 14 -4 35 -2 48 4 12 5 34 8 48 7 14 -2 35 -12 45 -22 16 -16 39 -21 119
-26 54 -3 112 -10 127 -16 18 -7 42 -8 68 -2 26 6 52 6 70 -1 16 -6 50 -7 74
-3 29 4 45 11 45 21 0 8 -6 14 -14 14 -8 0 -24 15 -36 34 -14 23 -36 40 -65
52 -25 9 -73 17 -107 17 -35 0 -81 -3 -103 -7 -22 -4 -50 -12 -61 -18 -15 -7
-28 -7 -42 1 -11 6 -39 11 -62 11 -30 0 -50 7 -70 24 -28 23 -28 23 -11 62 10
21 25 45 35 53 9 8 14 21 11 31 -3 10 5 26 20 40 14 13 34 52 45 87 16 51 17
72 10 119 -5 31 -17 66 -27 76 -10 11 -31 27 -48 36 -17 9 -57 16 -90 17 -60
1 -60 1 -60 65 0 36 -4 71 -8 78 -5 6 -27 12 -50 12z"/>
<path d="M626 245 c-37 3 -60 0 -83 -13 -18 -9 -32 -24 -30 -32 2 -12 22 -15
111 -15 74 0 111 4 113 12 2 6 -11 18 -28 27 -18 9 -55 18 -83 21z"/>
</g>
</svg>
