<?xml version="1.0" standalone="no"?>
<!DOCTYPE svg PUBLIC "-//W3C//DTD SVG 20010904//EN"
 "http://www.w3.org/TR/2001/REC-SVG-20010904/DTD/svg10.dtd">
<svg version="1.0" xmlns="http://www.w3.org/2000/svg"
 width="128.000000pt" height="128.000000pt" viewBox="0 0 128.000000 128.000000"
 preserveAspectRatio="xMidYMid meet">
<metadata>
Created by potrace 1.16, written by Peter Selinger 2001-2019
</metadata>
<g transform="translate(0.000000,128.000000) scale(0.100000,-0.100000)"
fill="#000000" stroke="none">
<path d="M687 1240 c-13 0 -27 -3 -31 -7 -3 -4 10 -24 31 -45 28 -29 45 -38
69 -38 18 0 36 5 39 11 4 5 4 20 1 32 -3 15 -18 26 -45 35 -23 6 -51 12 -64
12z"/>
<path d="M567 1160 c-8 0 -17 -3 -20 -7 -4 -3 -7 -13 -7 -22 0 -8 9 -24 19
-35 15 -16 22 -44 29 -111 5 -50 7 -107 4 -127 -3 -29 0 -39 13 -44 9 -4 21
-2 26 3 6 6 12 56 14 112 3 56 7 106 10 111 4 6 19 10 35 10 16 0 30 -7 34
-16 3 -9 6 -35 6 -58 0 -30 -6 -48 -20 -61 -13 -12 -18 -25 -14 -37 3 -11 -1
-34 -10 -53 -9 -18 -52 -63 -96 -100 -71 -60 -80 -70 -80 -101 0 -22 5 -34 14
-34 7 0 35 12 61 28 26 15 63 37 83 49 21 12 43 25 50 29 6 3 19 3 28 0 13 -5
10 -11 -15 -35 -17 -16 -31 -35 -31 -41 0 -7 -21 -36 -46 -64 -25 -28 -54 -60
-65 -71 -10 -12 -19 -26 -19 -32 0 -6 -4 -13 -9 -15 -5 -1 -36 -48 -70 -103
-33 -54 -61 -107 -61 -116 0 -9 -7 -22 -15 -29 -8 -6 -26 -33 -40 -58 -19 -33
-25 -58 -23 -87 2 -31 7 -41 23 -43 15 -2 26 10 47 50 14 29 34 75 43 102 10
26 30 63 46 81 16 18 29 38 29 44 0 6 10 28 23 49 12 20 28 46 35 57 7 11 22
35 33 53 12 18 27 31 33 29 6 -2 17 -15 24 -30 7 -15 24 -30 37 -33 14 -3 33
-3 42 1 10 4 31 7 46 6 15 -2 48 9 73 24 25 15 49 38 55 51 5 14 9 34 9 45 0
10 -7 19 -15 19 -8 0 -15 6 -15 14 0 8 8 17 18 19 13 4 12 5 -5 6 -13 0 -28
10 -35 21 -7 11 -17 20 -21 20 -5 0 -21 -9 -36 -19 -15 -11 -39 -23 -54 -26
-20 -5 -27 -3 -27 7 0 7 15 28 33 45 17 17 47 56 65 86 19 31 31 61 27 67 -4
6 -12 7 -24 1 -13 -7 -24 -6 -39 5 -12 8 -22 21 -22 28 0 7 14 27 30 45 17 17
40 31 53 31 16 0 37 18 70 61 26 34 47 70 47 79 0 10 3 30 6 46 5 25 1 31 -24
42 -18 7 -42 10 -57 6 -15 -4 -37 -8 -49 -9 -11 -1 -29 -3 -38 -4 -10 0 -18
-8 -18 -16 0 -12 13 -15 55 -15 54 0 55 0 55 -30 0 -19 -15 -49 -41 -85 -24
-31 -50 -55 -60 -55 -10 0 -21 5 -25 11 -3 6 -11 39 -16 72 -5 34 -9 69 -10
77 -1 8 1 21 3 29 2 9 -7 19 -25 25 -22 8 -30 8 -34 -2 -2 -7 -10 -19 -19 -27
-8 -8 -23 -15 -33 -15 -11 0 -35 16 -54 35 -20 19 -41 35 -49 35z m166 -377
c4 -2 7 -10 7 -17 0 -8 -14 -19 -30 -26 -17 -7 -33 -10 -36 -7 -3 3 0 14 8 26
7 11 19 22 28 24 8 2 18 2 23 0z m42 -225 c54 0 65 -2 70 -18 3 -10 -3 -37
-15 -60 -11 -22 -28 -44 -37 -47 -10 -4 -27 7 -49 33 -18 22 -33 50 -34 65 0
25 2 26 65 27z"/>
<path d="M303 1120 c-19 0 -23 -4 -19 -18 3 -9 2 -33 -4 -51 -5 -19 -32 -60
-59 -91 -28 -32 -47 -60 -44 -64 4 -3 19 -6 35 -6 21 0 45 16 98 69 51 49 70
76 70 94 0 16 -10 34 -26 46 -15 12 -38 21 -51 21z"/>
<path d="M450 1060 c-14 0 -16 -17 -18 -133 -2 -131 -1 -134 23 -157 21 -20
30 -22 53 -14 20 7 27 16 25 34 -1 14 -2 50 -3 80 -1 30 -8 77 -16 104 -8 27
-21 58 -31 68 -9 10 -23 18 -33 18z"/>
<path d="M151 844 c-4 3 -17 -1 -27 -8 -16 -12 -17 -19 -8 -54 6 -23 7 -46 3
-53 -4 -7 -1 -25 6 -39 12 -24 12 -29 -3 -44 -14 -14 -17 -39 -16 -161 0 -82
5 -154 11 -167 6 -13 18 -42 27 -66 9 -23 27 -60 41 -82 18 -29 32 -40 49 -40
15 0 27 7 30 18 2 9 5 42 5 72 1 30 2 66 3 80 1 14 8 30 15 35 9 7 12 27 11
59 -2 27 -8 51 -14 53 -7 2 -19 -17 -28 -43 -12 -35 -13 -51 -5 -66 8 -16 7
-24 -4 -36 -9 -8 -23 -12 -31 -9 -9 4 -21 19 -28 34 -6 16 -11 64 -10 108 0
44 3 98 6 120 3 22 9 65 12 96 5 45 2 64 -15 95 -12 21 -21 51 -21 66 0 15 -4
29 -9 32z"/>
<path d="M1027 420 c-7 0 -18 -4 -26 -9 -8 -5 -19 -7 -25 -5 -6 2 -24 -7 -40
-21 -16 -14 -32 -25 -35 -25 -3 0 -25 -18 -49 -40 -23 -22 -48 -40 -56 -40 -8
0 -17 12 -20 28 -3 15 -5 36 -3 47 1 11 -4 20 -10 19 -7 -1 -25 -2 -40 -3 -24
-1 -26 -3 -10 -12 9 -5 17 -17 17 -24 0 -8 -6 -15 -14 -15 -10 0 -16 -23 -21
-90 -4 -50 -10 -92 -14 -95 -4 -2 -8 -20 -9 -40 -1 -23 5 -42 18 -55 11 -11
24 -20 28 -20 5 0 17 9 27 20 11 12 25 38 32 58 7 20 13 45 13 55 0 11 9 21
20 24 11 3 20 14 20 25 0 12 9 22 20 25 12 3 27 18 36 34 8 16 21 29 30 29 8
0 17 6 20 13 3 8 18 23 33 35 27 20 30 20 64 5 35 -16 35 -16 21 -56 -8 -22
-19 -46 -25 -53 -6 -7 -33 -20 -61 -30 -51 -17 -51 -17 -28 -34 16 -12 49 -19
104 -23 75 -4 83 -3 107 20 14 13 30 38 35 56 5 18 8 41 6 53 -1 11 -16 35
-32 52 -18 20 -39 32 -54 32 -16 0 -32 10 -46 30 -12 17 -27 30 -33 30z"/>
</g>
</svg>
