<?xml version="1.0" standalone="no"?>
<!DOCTYPE svg PUBLIC "-//W3C//DTD SVG 20010904//EN"
 "http://www.w3.org/TR/2001/REC-SVG-20010904/DTD/svg10.dtd">
<svg version="1.0" xmlns="http://www.w3.org/2000/svg"
 width="56.000000pt" height="56.000000pt" viewBox="0 0 56.000000 56.000000"
 preserveAspectRatio="xMidYMid meet">
<metadata>
Created by potrace 1.16, written by Peter Selinger 2001-2019
</metadata>
<g transform="translate(0.000000,56.000000) scale(0.100000,-0.100000)"
fill="#000000" stroke="none">
<path d="M289 560 c-15 0 -31 -4 -34 -10 -3 -5 -17 -10 -30 -10 -13 0 -26 -4
-30 -9 -3 -6 2 -14 11 -19 9 -5 36 -7 60 -4 44 5 44 5 44 -56 0 -49 3 -62 18
-66 9 -2 31 -7 48 -11 26 -5 32 -12 42 -51 7 -24 12 -59 12 -78 0 -18 -6 -49
-14 -67 -8 -19 -32 -52 -53 -75 -21 -22 -52 -50 -70 -62 -17 -12 -45 -22 -61
-22 -17 0 -34 -5 -38 -12 -5 -8 8 -10 48 -5 42 4 70 15 112 43 37 25 68 56 91
93 28 45 35 65 35 107 0 28 -6 67 -14 85 -8 19 -25 44 -38 56 -13 13 -38 26
-56 29 -30 6 -32 9 -26 39 4 22 0 46 -11 69 -14 29 -23 36 -46 36z"/>
<path d="M192 490 c-6 0 -13 -4 -17 -9 -3 -5 -1 -12 5 -16 5 -3 10 -26 10 -50
0 -24 -4 -54 -9 -67 -5 -13 -19 -56 -32 -97 -23 -73 -23 -73 -45 -46 -12 15
-24 23 -28 17 -3 -6 0 -32 7 -59 7 -26 18 -58 25 -71 8 -13 21 -22 30 -20 11
2 19 17 24 43 3 22 11 56 16 75 6 19 18 64 27 100 9 36 20 73 26 82 5 10 9 33
9 51 0 20 -7 41 -18 50 -10 10 -24 17 -30 17z"/>
</g>
</svg>
