<?xml version="1.0" standalone="no"?>
<!DOCTYPE svg PUBLIC "-//W3C//DTD SVG 20010904//EN"
 "http://www.w3.org/TR/2001/REC-SVG-20010904/DTD/svg10.dtd">
<svg version="1.0" xmlns="http://www.w3.org/2000/svg"
 width="56.000000pt" height="56.000000pt" viewBox="0 0 56.000000 56.000000"
 preserveAspectRatio="xMidYMid meet">
<metadata>
Created by potrace 1.16, written by Peter Selinger 2001-2019
</metadata>
<g transform="translate(0.000000,56.000000) scale(0.100000,-0.100000)"
fill="#000000" stroke="none">
<path d="M348 529 c-2 24 -5 27 -16 15 -8 -8 -34 -14 -65 -14 -29 -1 -68 -7
-88 -14 -20 -7 -53 -26 -73 -42 -21 -16 -46 -46 -57 -67 -15 -29 -22 -71 -29
-194 -5 -85 -7 -160 -4 -165 4 -5 18 -7 33 -3 14 4 42 19 61 33 19 15 46 40
60 56 14 16 40 50 58 75 17 25 32 50 32 54 0 5 8 21 19 35 10 15 28 44 40 65
11 21 21 44 21 52 0 9 9 15 23 15 15 0 39 -16 65 -44 23 -24 44 -57 48 -73 4
-15 9 -48 11 -73 2 -25 -3 -71 -12 -105 -10 -33 -20 -72 -22 -87 -3 -16 -9
-28 -14 -28 -5 0 -9 -4 -9 -10 0 -5 8 -10 18 -10 10 0 27 10 38 22 11 13 28
40 37 61 9 21 17 48 17 60 0 13 6 29 12 35 10 10 10 14 0 20 -6 5 -17 35 -23
67 -8 46 -22 74 -60 125 -27 36 -64 75 -83 87 -24 16 -36 31 -38 52z m-122
-50 c11 0 29 -5 40 -13 17 -13 18 -17 5 -48 -7 -18 -16 -47 -18 -64 -3 -18
-28 -63 -57 -100 -29 -38 -64 -76 -79 -84 -14 -8 -29 -11 -34 -6 -4 4 -8 47
-8 94 0 61 5 98 17 122 9 19 29 47 45 62 15 14 37 28 48 31 11 3 29 5 41 6z"/>
</g>
</svg>
