<?xml version="1.0" standalone="no"?>
<!DOCTYPE svg PUBLIC "-//W3C//DTD SVG 20010904//EN"
 "http://www.w3.org/TR/2001/REC-SVG-20010904/DTD/svg10.dtd">
<svg version="1.0" xmlns="http://www.w3.org/2000/svg"
 width="56.000000pt" height="56.000000pt" viewBox="0 0 56.000000 56.000000"
 preserveAspectRatio="xMidYMid meet">
<metadata>
Created by potrace 1.16, written by Peter Selinger 2001-2019
</metadata>
<g transform="translate(0.000000,56.000000) scale(0.100000,-0.100000)"
fill="#000000" stroke="none">
<path d="M283 489 c-10 0 -24 -3 -32 -6 -8 -3 -23 -13 -34 -22 -10 -9 -25 -22
-33 -29 -8 -7 -14 -18 -14 -24 0 -5 7 -7 16 -4 9 3 24 6 34 6 10 0 32 13 49
29 17 16 31 34 31 40 0 6 -8 11 -17 10z"/>
<path d="M370 484 c-9 3 -21 1 -28 -6 -7 -7 -12 -20 -12 -29 0 -9 -15 -28 -32
-41 -18 -13 -55 -35 -82 -48 -40 -19 -50 -20 -57 -9 -5 8 -9 19 -9 25 0 7 -7
15 -15 18 -9 3 -18 -1 -22 -9 -3 -9 -3 -29 1 -46 3 -17 1 -40 -6 -52 -6 -12
-26 -38 -43 -58 -18 -20 -36 -50 -39 -65 -3 -16 -2 -42 2 -59 7 -26 13 -30 42
-30 19 0 36 6 40 15 4 8 17 35 28 60 12 25 22 57 22 71 0 14 10 41 23 59 12
18 31 38 42 44 11 5 33 19 48 29 16 11 36 16 47 12 17 -5 20 -16 21 -73 1 -37
3 -83 4 -103 1 -19 10 -47 19 -62 10 -14 26 -29 37 -32 10 -3 28 -1 41 6 16 9
23 9 26 0 2 -6 10 -11 18 -11 8 0 14 5 14 10 0 6 6 10 13 10 8 0 21 8 31 18
15 18 15 20 -3 36 -16 14 -18 22 -9 35 7 12 8 24 1 36 -9 15 -13 11 -32 -29
-21 -43 -25 -46 -61 -46 -37 0 -40 2 -47 38 -4 20 -7 75 -7 121 1 70 5 87 20
98 10 7 24 11 30 9 8 -3 10 4 5 22 -5 19 -14 27 -32 28 -13 1 -31 4 -39 8z
m-270 -284 c5 0 10 -3 10 -7 0 -4 -5 -22 -12 -40 -7 -18 -16 -33 -20 -33 -4 0
-8 6 -8 14 0 8 4 26 10 40 5 14 14 26 20 26z"/>
</g>
</svg>
