<?xml version="1.0" standalone="no"?>
<!DOCTYPE svg PUBLIC "-//W3C//DTD SVG 20010904//EN"
 "http://www.w3.org/TR/2001/REC-SVG-20010904/DTD/svg10.dtd">
<svg version="1.0" xmlns="http://www.w3.org/2000/svg"
 width="56.000000pt" height="56.000000pt" viewBox="0 0 56.000000 56.000000"
 preserveAspectRatio="xMidYMid meet">
<metadata>
Created by potrace 1.16, written by Peter Selinger 2001-2019
</metadata>
<g transform="translate(0.000000,56.000000) scale(0.100000,-0.100000)"
fill="#000000" stroke="none">
<path d="M118 560 c-23 -1 -38 -8 -51 -26 -16 -21 -17 -28 -5 -42 7 -9 25 -29
39 -44 14 -15 31 -45 37 -66 7 -22 12 -45 12 -51 0 -6 -15 -21 -34 -32 -19
-11 -46 -38 -60 -59 -15 -22 -29 -60 -32 -84 -4 -25 -4 -56 0 -69 4 -17 25
-36 62 -57 48 -27 59 -30 70 -18 9 9 17 57 24 133 5 66 10 129 10 141 0 16 10
24 43 33 23 7 50 17 59 22 10 5 32 9 49 9 28 0 31 -2 24 -22 -4 -13 -9 -38
-12 -56 -3 -18 0 -39 7 -47 7 -8 25 -15 41 -15 23 0 29 -4 29 -22 0 -13 -18
-41 -42 -65 -23 -24 -47 -43 -53 -43 -5 0 -21 -9 -35 -20 -23 -17 -23 -19 -7
-26 10 -4 23 -2 30 5 6 6 29 11 52 11 22 0 47 6 55 13 9 7 28 28 43 48 15 20
27 47 27 61 0 13 -10 34 -22 45 -13 11 -38 26 -56 33 -32 12 -33 15 -27 49 3
20 8 44 11 53 3 12 21 19 58 23 29 4 59 11 66 15 9 6 4 18 -20 49 -18 23 -41
41 -50 41 -10 0 -30 -17 -45 -37 -16 -21 -35 -44 -43 -50 -9 -7 -30 -13 -48
-13 -18 0 -35 -4 -38 -9 -3 -5 -18 -11 -33 -14 -16 -3 -38 -8 -50 -12 -20 -7
-23 -4 -23 22 0 17 -7 43 -15 59 -8 17 -26 41 -40 54 -14 13 -25 29 -25 36 0
6 11 15 25 18 14 4 25 11 25 16 0 6 -15 10 -32 10z m31 -280 c2 0 2 -33 -1
-73 -3 -40 -9 -81 -14 -90 -10 -17 -12 -16 -37 3 -17 13 -27 31 -27 47 0 14 9
41 21 59 11 19 28 38 37 44 9 5 19 10 21 10z"/>
<path d="M268 20 c-9 0 -20 -4 -23 -10 -4 -6 9 -10 32 -10 28 0 34 3 23 10 -8
5 -23 10 -32 10z"/>
</g>
</svg>
