<?xml version="1.0" standalone="no"?>
<!DOCTYPE svg PUBLIC "-//W3C//DTD SVG 20010904//EN"
 "http://www.w3.org/TR/2001/REC-SVG-20010904/DTD/svg10.dtd">
<svg version="1.0" xmlns="http://www.w3.org/2000/svg"
 width="56.000000pt" height="56.000000pt" viewBox="0 0 56.000000 56.000000"
 preserveAspectRatio="xMidYMid meet">
<metadata>
Created by potrace 1.16, written by Peter Selinger 2001-2019
</metadata>
<g transform="translate(0.000000,56.000000) scale(0.100000,-0.100000)"
fill="#000000" stroke="none">
<path d="M272 539 c-9 4 -23 6 -29 4 -7 -3 -13 -13 -13 -23 0 -12 -12 -22 -35
-30 -21 -7 -56 -35 -88 -71 -30 -32 -59 -76 -65 -98 -7 -21 -12 -49 -12 -62 0
-13 11 -44 23 -68 13 -24 31 -49 41 -55 14 -9 22 -6 42 19 13 17 24 34 24 38
0 4 26 47 58 95 32 48 64 101 71 119 7 17 21 39 32 49 16 14 23 15 49 4 16 -7
43 -27 59 -45 16 -18 34 -50 41 -70 7 -22 9 -54 6 -79 -4 -22 -19 -61 -33 -85
-14 -24 -49 -72 -79 -107 -30 -35 -54 -66 -54 -69 0 -3 12 -5 28 -5 18 0 42
15 75 46 26 25 47 47 47 49 0 2 14 27 32 55 30 49 32 58 33 145 0 92 0 92 -39
140 -22 26 -54 54 -72 61 -18 8 -51 14 -73 14 -22 0 -43 4 -46 10 -3 5 -14 14
-23 19z m-44 -99 c6 0 12 -7 12 -15 0 -9 -12 -34 -26 -58 -15 -23 -42 -66 -61
-94 -19 -29 -41 -53 -49 -53 -10 0 -14 14 -14 48 0 38 6 57 27 84 15 19 44 47
63 61 19 14 41 26 48 27z"/>
</g>
</svg>
