<?xml version="1.0" standalone="no"?>
<!DOCTYPE svg PUBLIC "-//W3C//DTD SVG 20010904//EN"
 "http://www.w3.org/TR/2001/REC-SVG-20010904/DTD/svg10.dtd">
<svg version="1.0" xmlns="http://www.w3.org/2000/svg"
 width="56.000000pt" height="56.000000pt" viewBox="0 0 56.000000 56.000000"
 preserveAspectRatio="xMidYMid meet">
<metadata>
Created by potrace 1.16, written by Peter Selinger 2001-2019
</metadata>
<g transform="translate(0.000000,56.000000) scale(0.100000,-0.100000)"
fill="#000000" stroke="none">
<path d="M361 539 c-12 13 -22 18 -26 11 -3 -5 -19 -10 -35 -10 -16 0 -36 -7
-44 -16 -9 -8 -16 -17 -16 -19 0 -3 6 -2 13 0 6 3 18 1 26 -4 12 -8 12 -13 -1
-33 -9 -12 -43 -57 -78 -98 -34 -41 -90 -106 -123 -144 -34 -38 -65 -76 -68
-85 -4 -9 -5 -19 -2 -23 2 -5 13 -8 23 -8 11 0 36 24 62 58 24 31 47 65 51 75
3 9 10 17 15 17 4 0 43 43 86 95 43 52 82 92 87 89 5 -3 9 -15 9 -28 0 -12 5
-27 12 -34 7 -7 31 -12 54 -12 35 0 46 -5 63 -28 11 -16 25 -49 30 -73 7 -31
7 -55 -1 -82 -6 -21 -25 -53 -42 -71 -19 -21 -51 -41 -80 -50 -27 -9 -73 -16
-102 -16 -36 0 -54 -4 -57 -15 -4 -8 -2 -17 3 -20 5 -3 31 -8 58 -12 33 -4 58
-1 78 9 16 9 47 19 68 22 28 6 51 20 78 48 29 30 38 49 38 74 0 19 5 34 10 34
6 0 10 9 10 20 0 11 -4 20 -10 20 -5 0 -10 7 -10 15 0 8 5 15 10 15 6 0 10 7
10 15 0 8 -4 15 -10 15 -5 0 -10 9 -10 20 0 11 -20 41 -45 65 -24 25 -51 45
-58 45 -7 0 -23 10 -35 23 -12 13 -22 35 -22 49 0 14 -9 35 -19 47z"/>
</g>
</svg>
