<?xml version="1.0" standalone="no"?>
<!DOCTYPE svg PUBLIC "-//W3C//DTD SVG 20010904//EN"
 "http://www.w3.org/TR/2001/REC-SVG-20010904/DTD/svg10.dtd">
<svg version="1.0" xmlns="http://www.w3.org/2000/svg"
 width="56.000000pt" height="56.000000pt" viewBox="0 0 56.000000 56.000000"
 preserveAspectRatio="xMidYMid meet">
<metadata>
Created by potrace 1.16, written by Peter Selinger 2001-2019
</metadata>
<g transform="translate(0.000000,56.000000) scale(0.100000,-0.100000)"
fill="#000000" stroke="none">
<path d="M250 560 c-11 0 -20 -4 -20 -9 0 -6 5 -13 10 -16 6 -3 10 -10 10 -14
0 -5 -17 -11 -37 -14 -21 -4 -55 -21 -77 -38 -35 -30 -38 -35 -33 -71 3 -22
13 -48 22 -58 16 -17 15 -23 -6 -92 -12 -40 -22 -91 -23 -113 -1 -33 2 -40 20
-43 14 -2 29 8 46 30 14 18 35 52 47 75 11 23 27 61 35 85 8 24 20 71 27 106
7 34 15 62 19 62 3 0 12 -6 20 -13 8 -7 30 -29 48 -49 19 -19 37 -52 42 -71 4
-20 3 -59 -2 -88 -5 -29 -19 -67 -30 -84 -12 -16 -43 -56 -70 -87 -49 -58 -49
-58 -20 -58 23 0 40 12 78 55 27 31 61 79 76 108 22 41 27 63 25 107 -2 30
-11 72 -21 93 -10 20 -32 49 -48 63 -17 14 -48 35 -69 47 -28 16 -39 30 -44
54 -4 24 -11 33 -25 33z m-19 -90 c13 0 19 -7 19 -22 0 -12 -5 -38 -12 -57 -6
-20 -26 -67 -44 -106 -33 -70 -33 -70 -32 2 0 45 -4 79 -12 88 -10 12 -10 21
0 45 7 18 20 30 31 30 10 0 21 5 24 10 3 6 15 10 26 10z"/>
</g>
</svg>
