<?xml version="1.0" standalone="no"?>
<!DOCTYPE svg PUBLIC "-//W3C//DTD SVG 20010904//EN"
 "http://www.w3.org/TR/2001/REC-SVG-20010904/DTD/svg10.dtd">
<svg version="1.0" xmlns="http://www.w3.org/2000/svg"
 width="56.000000pt" height="56.000000pt" viewBox="0 0 56.000000 56.000000"
 preserveAspectRatio="xMidYMid meet">
<metadata>
Created by potrace 1.16, written by Peter Selinger 2001-2019
</metadata>
<g transform="translate(0.000000,56.000000) scale(0.100000,-0.100000)"
fill="#000000" stroke="none">
<path d="M371 549 c-6 10 -13 2 -27 -28 -12 -27 -24 -41 -37 -41 -10 0 -28 5
-39 11 -14 7 -28 8 -42 1 -11 -5 -34 -15 -49 -23 -16 -7 -60 -42 -98 -77 -69
-65 -69 -65 -65 -118 2 -30 12 -67 21 -82 10 -15 26 -35 36 -44 10 -10 24 -18
32 -18 8 0 22 9 32 20 10 11 26 20 36 20 10 0 32 17 48 38 17 20 47 59 66 85
20 27 35 56 33 65 -2 9 -11 18 -21 20 -10 2 -20 -5 -25 -16 -4 -11 -40 -48
-80 -81 -72 -61 -72 -61 -83 -38 -8 17 -8 35 0 63 6 21 20 54 31 71 10 18 36
40 57 49 21 9 54 17 74 20 35 3 37 2 44 -32 6 -34 7 -35 24 -20 10 9 26 16 37
16 10 0 31 -12 47 -25 15 -13 27 -31 27 -39 0 -8 5 -18 11 -21 5 -4 15 -19 21
-33 5 -15 11 -43 12 -62 1 -19 6 -46 10 -60 6 -21 1 -32 -27 -61 -19 -20 -41
-36 -48 -37 -8 0 -33 -6 -56 -11 -23 -6 -64 -9 -92 -7 -28 3 -53 1 -56 -4 -3
-5 5 -16 18 -24 13 -9 43 -17 68 -18 24 -1 68 -1 97 0 48 2 56 6 102 52 50 50
50 50 50 134 0 47 -3 86 -7 88 -5 2 -19 27 -33 57 -17 37 -33 56 -51 63 -14 5
-31 20 -37 33 -6 13 -20 26 -31 30 -15 5 -21 15 -21 38 0 18 -4 38 -9 46z"/>
</g>
</svg>
