<?xml version="1.0" standalone="no"?>
<!DOCTYPE svg PUBLIC "-//W3C//DTD SVG 20010904//EN"
 "http://www.w3.org/TR/2001/REC-SVG-20010904/DTD/svg10.dtd">
<svg version="1.0" xmlns="http://www.w3.org/2000/svg"
 width="56.000000pt" height="56.000000pt" viewBox="0 0 56.000000 56.000000"
 preserveAspectRatio="xMidYMid meet">
<metadata>
Created by potrace 1.16, written by Peter Selinger 2001-2019
</metadata>
<g transform="translate(0.000000,56.000000) scale(0.100000,-0.100000)"
fill="#000000" stroke="none">
<path d="M255 560 c-19 0 -35 -4 -35 -9 0 -5 -14 -12 -31 -16 -17 -4 -48 -18
-68 -32 -20 -13 -46 -36 -58 -51 -13 -15 -29 -49 -38 -76 -8 -27 -15 -77 -14
-110 0 -34 6 -86 12 -116 9 -43 16 -56 32 -58 11 -2 29 5 38 15 10 10 57 59
105 109 48 50 102 109 120 132 18 23 40 58 48 77 8 19 18 35 22 35 4 0 19 -15
33 -33 15 -18 36 -53 48 -77 12 -25 21 -63 21 -89 0 -25 -9 -64 -19 -87 -10
-22 -42 -62 -72 -88 -30 -26 -69 -54 -86 -62 -18 -8 -33 -16 -33 -19 0 -3 19
-5 43 -5 32 0 59 9 105 37 34 21 70 45 81 55 14 11 21 36 26 83 5 44 3 81 -5
108 -7 23 -16 51 -21 62 -4 11 -10 30 -14 41 -3 12 -19 41 -36 64 -19 27 -49
50 -82 66 -29 13 -60 24 -69 24 -10 0 -18 5 -18 10 0 6 -16 10 -35 10z m25
-61 c14 0 31 -3 38 -8 11 -6 11 -13 0 -37 -7 -16 -37 -62 -68 -103 -30 -40
-62 -83 -70 -95 -8 -13 -28 -35 -44 -49 -16 -15 -33 -24 -37 -21 -5 3 -18 23
-29 44 -11 22 -20 46 -20 55 0 8 9 41 20 73 13 36 31 65 52 82 17 14 54 32 82
42 28 9 62 16 76 17z"/>
</g>
</svg>
