<?xml version="1.0" standalone="no"?>
<!DOCTYPE svg PUBLIC "-//W3C//DTD SVG 20010904//EN"
 "http://www.w3.org/TR/2001/REC-SVG-20010904/DTD/svg10.dtd">
<svg version="1.0" xmlns="http://www.w3.org/2000/svg"
 width="56.000000pt" height="56.000000pt" viewBox="0 0 56.000000 56.000000"
 preserveAspectRatio="xMidYMid meet">
<metadata>
Created by potrace 1.16, written by Peter Selinger 2001-2019
</metadata>
<g transform="translate(0.000000,56.000000) scale(0.100000,-0.100000)"
fill="#000000" stroke="none">
<path d="M250 536 c-27 4 -48 -2 -95 -26 -33 -18 -75 -46 -94 -64 -18 -17 -39
-45 -47 -62 -9 -22 -13 -72 -12 -155 0 -68 5 -130 10 -136 8 -9 20 -5 51 20
23 17 79 70 125 117 46 47 95 105 109 130 15 25 33 53 41 63 8 9 18 17 22 17
4 0 18 -10 32 -22 14 -13 34 -30 44 -39 11 -10 33 -35 51 -57 30 -37 31 -42
22 -78 -7 -24 -30 -59 -62 -92 -29 -30 -68 -61 -87 -71 -19 -10 -61 -24 -92
-31 -35 -8 -58 -18 -58 -27 0 -9 17 -13 64 -13 35 0 80 7 102 16 21 9 54 27
73 42 20 14 53 43 74 64 37 39 37 39 37 123 0 53 -4 85 -11 85 -5 0 -16 15
-24 33 -7 17 -42 56 -78 85 -46 37 -79 55 -113 62 -27 6 -65 13 -84 16z m-6
-78 c38 -2 52 -7 54 -20 2 -10 -41 -60 -115 -132 -99 -97 -120 -113 -132 -102
-8 9 -13 35 -12 71 0 40 8 72 24 104 22 40 30 47 72 58 26 7 50 15 53 18 4 3
29 5 56 3z"/>
</g>
</svg>
