<?xml version="1.0" standalone="no"?>
<!DOCTYPE svg PUBLIC "-//W3C//DTD SVG 20010904//EN"
 "http://www.w3.org/TR/2001/REC-SVG-20010904/DTD/svg10.dtd">
<svg version="1.0" xmlns="http://www.w3.org/2000/svg"
 width="56.000000pt" height="56.000000pt" viewBox="0 0 56.000000 56.000000"
 preserveAspectRatio="xMidYMid meet">
<metadata>
Created by potrace 1.16, written by Peter Selinger 2001-2019
</metadata>
<g transform="translate(0.000000,56.000000) scale(0.100000,-0.100000)"
fill="#000000" stroke="none">
<path d="M268 560 c-37 0 -40 -2 -35 -22 4 -14 0 -29 -10 -40 -9 -10 -27 -18
-40 -18 -13 0 -26 -7 -29 -15 -4 -8 -14 -15 -24 -15 -10 0 -36 -21 -59 -47
-22 -26 -44 -66 -50 -89 -6 -24 -11 -82 -11 -131 0 -64 5 -98 18 -123 14 -28
24 -36 50 -38 22 -2 41 3 54 15 11 10 34 38 52 63 17 25 36 52 41 61 6 9 23
40 40 70 16 30 35 72 42 94 7 22 13 62 13 88 0 34 4 49 16 54 11 4 30 -11 62
-47 41 -47 48 -62 58 -123 6 -39 8 -85 4 -104 -5 -18 -23 -51 -41 -72 -20 -23
-55 -47 -84 -59 -27 -11 -61 -23 -75 -26 -14 -3 -34 -12 -45 -21 -19 -15 -16
-16 40 -11 33 3 84 10 113 15 29 5 68 19 87 31 19 12 45 36 57 53 20 28 23 43
22 122 -1 73 -6 100 -26 145 -14 31 -41 70 -59 88 -19 18 -45 35 -59 38 -14 3
-36 9 -50 13 -15 5 -26 16 -28 29 -3 18 -10 22 -44 22z m-18 -93 c22 -2 25 -6
23 -40 -1 -20 -18 -70 -38 -110 -19 -39 -46 -89 -59 -110 -12 -21 -38 -53 -56
-72 -19 -19 -37 -35 -42 -35 -4 0 -12 17 -19 39 -8 27 -8 44 -1 58 6 11 9 36
6 55 -4 23 1 48 16 80 11 25 32 56 46 69 13 12 41 33 62 45 20 12 48 22 62 21z"/>
</g>
</svg>
