<?xml version="1.0" standalone="no"?>
<!DOCTYPE svg PUBLIC "-//W3C//DTD SVG 20010904//EN"
 "http://www.w3.org/TR/2001/REC-SVG-20010904/DTD/svg10.dtd">
<svg version="1.0" xmlns="http://www.w3.org/2000/svg"
 width="56.000000pt" height="56.000000pt" viewBox="0 0 56.000000 56.000000"
 preserveAspectRatio="xMidYMid meet">
<metadata>
Created by potrace 1.16, written by Peter Selinger 2001-2019
</metadata>
<g transform="translate(0.000000,56.000000) scale(0.100000,-0.100000)"
fill="#000000" stroke="none">
<path d="M395 468 c-11 0 -30 -3 -42 -5 -12 -2 -27 -10 -33 -18 -7 -8 -9 -19
-5 -25 3 -5 21 -10 39 -10 24 0 38 -7 49 -24 9 -13 31 -33 50 -45 18 -11 39
-31 46 -44 10 -20 11 -29 1 -48 -7 -13 -28 -41 -46 -62 -19 -20 -34 -42 -34
-47 0 -6 2 -10 5 -10 3 0 22 9 43 19 20 10 49 33 65 50 18 21 27 42 27 66 0
26 -9 45 -32 71 -18 19 -43 40 -57 47 -18 8 -27 22 -29 42 -2 16 -9 33 -15 37
-7 4 -21 7 -32 6z"/>
<path d="M308 390 c-7 -1 -57 -47 -112 -104 -54 -57 -109 -109 -123 -115 -13
-6 -25 -11 -27 -11 -2 0 -7 10 -10 23 -6 22 -6 22 -22 2 -9 -12 -14 -35 -12
-60 2 -33 7 -41 26 -43 17 -3 36 9 70 45 26 27 86 90 135 140 48 50 87 98 87
107 0 9 -6 16 -12 16z"/>
</g>
</svg>
