<?xml version="1.0" standalone="no"?>
<!DOCTYPE svg PUBLIC "-//W3C//DTD SVG 20010904//EN"
 "http://www.w3.org/TR/2001/REC-SVG-20010904/DTD/svg10.dtd">
<svg version="1.0" xmlns="http://www.w3.org/2000/svg"
 width="56.000000pt" height="56.000000pt" viewBox="0 0 56.000000 56.000000"
 preserveAspectRatio="xMidYMid meet">
<metadata>
Created by potrace 1.16, written by Peter Selinger 2001-2019
</metadata>
<g transform="translate(0.000000,56.000000) scale(0.100000,-0.100000)"
fill="#000000" stroke="none">
<path d="M335 560 c-14 0 -25 -4 -25 -9 0 -6 -19 -14 -42 -19 -24 -6 -33 -10
-20 -11 15 -1 22 -7 22 -20 0 -11 -5 -23 -10 -26 -6 -3 -29 -34 -52 -68 -22
-34 -64 -83 -92 -109 -28 -26 -53 -42 -55 -36 -2 6 2 36 9 67 7 31 26 74 41
96 16 23 43 49 59 59 17 9 30 21 30 27 0 5 -8 9 -17 9 -10 0 -38 -20 -63 -43
-25 -23 -55 -55 -66 -72 -12 -16 -26 -57 -32 -89 -7 -33 -12 -71 -12 -84 0
-14 7 -33 16 -43 15 -16 19 -17 44 -4 15 8 54 45 87 82 33 37 78 95 101 127
23 33 42 68 42 78 0 13 8 18 29 18 21 0 42 -12 74 -42 24 -24 51 -63 61 -89
11 -29 16 -61 12 -90 -2 -24 -5 -45 -5 -46 -1 -2 -8 -3 -16 -3 -8 0 -23 10
-35 22 -11 12 -23 19 -26 15 -4 -4 -1 -13 6 -22 8 -10 9 -15 1 -15 -6 0 -11
-9 -11 -20 0 -11 9 -25 20 -32 11 -7 20 -20 20 -28 0 -9 -15 -30 -32 -46 -18
-17 -41 -36 -50 -43 -15 -11 -21 -11 -33 -1 -11 9 -19 10 -26 3 -8 -8 -7 -17
0 -32 8 -14 21 -21 41 -21 20 0 47 16 92 53 35 30 69 56 77 58 10 4 15 33 18
110 4 96 3 109 -21 160 -17 38 -43 71 -81 103 -30 26 -55 54 -55 62 0 8 -10
14 -25 14z"/>
</g>
</svg>
