<?xml version="1.0" standalone="no"?>
<!DOCTYPE svg PUBLIC "-//W3C//DTD SVG 20010904//EN"
 "http://www.w3.org/TR/2001/REC-SVG-20010904/DTD/svg10.dtd">
<svg version="1.0" xmlns="http://www.w3.org/2000/svg"
 width="56.000000pt" height="56.000000pt" viewBox="0 0 56.000000 56.000000"
 preserveAspectRatio="xMidYMid meet">
<metadata>
Created by potrace 1.16, written by Peter Selinger 2001-2019
</metadata>
<g transform="translate(0.000000,56.000000) scale(0.100000,-0.100000)"
fill="#000000" stroke="none">
<path d="M260 560 c-4 0 -10 -3 -12 -8 -1 -4 -33 -22 -70 -40 -38 -18 -81 -45
-98 -58 -23 -20 -30 -34 -30 -63 0 -20 11 -60 24 -88 14 -28 32 -53 41 -57 9
-3 25 -1 35 4 10 6 39 36 63 68 24 31 57 83 72 115 16 31 33 57 39 57 6 0 18
-6 27 -13 9 -7 31 -35 48 -62 17 -27 31 -58 31 -68 0 -11 -17 -38 -37 -61 -20
-22 -60 -56 -87 -75 -28 -19 -68 -49 -90 -67 -21 -18 -53 -56 -72 -84 -19 -29
-34 -54 -34 -56 0 -2 6 -4 13 -4 7 0 38 27 68 61 31 35 83 78 124 102 39 23
87 50 108 60 21 10 47 32 57 50 11 18 20 46 20 63 0 18 -7 44 -15 60 -8 15
-33 46 -57 67 -24 22 -56 48 -73 58 -16 11 -40 19 -52 19 -12 0 -25 5 -28 10
-3 6 -10 10 -15 10z m-32 -60 c7 0 15 -6 18 -13 3 -8 -6 -31 -19 -53 -12 -21
-32 -54 -42 -71 -11 -18 -26 -35 -32 -38 -7 -2 -22 5 -33 17 -11 12 -20 29
-20 38 0 10 10 32 23 50 12 18 38 41 57 51 19 11 41 19 48 19z"/>
</g>
</svg>
