<?xml version="1.0" standalone="no"?>
<!DOCTYPE svg PUBLIC "-//W3C//DTD SVG 20010904//EN"
 "http://www.w3.org/TR/2001/REC-SVG-20010904/DTD/svg10.dtd">
<svg version="1.0" xmlns="http://www.w3.org/2000/svg"
 width="56.000000pt" height="56.000000pt" viewBox="0 0 56.000000 56.000000"
 preserveAspectRatio="xMidYMid meet">
<metadata>
Created by potrace 1.16, written by Peter Selinger 2001-2019
</metadata>
<g transform="translate(0.000000,56.000000) scale(0.100000,-0.100000)"
fill="#000000" stroke="none">
<path d="M240 520 c-11 15 -19 19 -24 11 -4 -6 -4 -16 0 -22 3 -6 0 -15 -7
-20 -11 -7 -12 -12 -2 -28 11 -17 10 -29 -6 -68 -10 -27 -28 -66 -39 -88 -11
-22 -29 -61 -41 -86 -11 -25 -20 -65 -19 -90 0 -24 4 -52 9 -62 6 -9 13 -17
18 -17 4 0 13 11 19 25 7 14 12 36 12 49 0 13 13 54 29 92 15 38 42 99 60 137
17 37 31 79 31 94 0 15 11 36 26 50 25 23 27 23 45 7 10 -9 19 -27 19 -40 0
-13 -4 -26 -10 -29 -5 -3 -10 -18 -10 -32 0 -15 7 -27 18 -30 10 -2 22 -16 28
-31 6 -15 16 -43 22 -63 7 -19 12 -54 12 -77 0 -22 -4 -44 -10 -47 -5 -3 -10
-15 -10 -26 0 -10 -6 -29 -12 -41 -7 -12 -22 -32 -33 -44 -11 -12 -29 -26 -40
-32 -18 -10 -17 -11 13 -12 18 0 40 8 51 19 11 11 27 36 36 58 9 21 21 46 26
55 5 10 9 45 9 77 0 33 -4 63 -10 66 -5 3 -10 15 -10 26 0 10 -6 29 -12 42 -7
12 -17 25 -23 29 -5 4 -9 35 -7 70 2 56 0 65 -21 80 -20 14 -29 15 -58 5 -19
-7 -40 -16 -48 -21 -9 -6 -19 -2 -31 14z"/>
</g>
</svg>
