<?xml version="1.0" standalone="no"?>
<!DOCTYPE svg PUBLIC "-//W3C//DTD SVG 20010904//EN"
 "http://www.w3.org/TR/2001/REC-SVG-20010904/DTD/svg10.dtd">
<svg version="1.0" xmlns="http://www.w3.org/2000/svg"
 width="56.000000pt" height="56.000000pt" viewBox="0 0 56.000000 56.000000"
 preserveAspectRatio="xMidYMid meet">
<metadata>
Created by potrace 1.16, written by Peter Selinger 2001-2019
</metadata>
<g transform="translate(0.000000,56.000000) scale(0.100000,-0.100000)"
fill="#000000" stroke="none">
<path d="M403 560 c-16 -1 -32 -5 -38 -10 -5 -6 -24 -21 -41 -35 -18 -14 -36
-25 -41 -25 -6 0 -17 -8 -26 -18 -10 -10 -17 -24 -17 -30 0 -7 11 -12 25 -12
14 0 37 7 50 16 13 9 29 13 34 9 7 -4 6 -18 -4 -42 -9 -20 -13 -44 -9 -55 3
-11 15 -18 31 -18 14 0 40 -7 58 -16 18 -8 35 -21 38 -27 2 -7 0 -41 -4 -76
-7 -50 -17 -74 -46 -112 -20 -26 -51 -56 -69 -65 -19 -10 -34 -24 -34 -31 0
-8 13 -13 35 -13 19 0 35 5 35 10 0 6 6 10 14 10 7 0 25 9 38 20 14 11 38 45
54 77 22 45 29 72 29 118 0 41 -6 72 -21 100 -15 29 -29 41 -55 48 -19 5 -38
12 -43 17 -5 5 0 30 13 59 11 27 21 61 21 75 0 22 -5 26 -27 26z"/>
<path d="M199 410 c-7 0 -43 -33 -80 -72 -38 -40 -74 -86 -80 -101 -10 -23 -9
-31 4 -44 9 -10 24 -13 39 -10 12 4 40 22 61 40 26 24 43 52 58 97 11 34 18
69 15 76 -3 8 -11 14 -17 14z"/>
</g>
</svg>
