<?xml version="1.0" standalone="no"?>
<!DOCTYPE svg PUBLIC "-//W3C//DTD SVG 20010904//EN"
 "http://www.w3.org/TR/2001/REC-SVG-20010904/DTD/svg10.dtd">
<svg version="1.0" xmlns="http://www.w3.org/2000/svg"
 width="56.000000pt" height="56.000000pt" viewBox="0 0 56.000000 56.000000"
 preserveAspectRatio="xMidYMid meet">
<metadata>
Created by potrace 1.16, written by Peter Selinger 2001-2019
</metadata>
<g transform="translate(0.000000,56.000000) scale(0.100000,-0.100000)"
fill="#000000" stroke="none">
<path d="M200 560 c-16 0 -30 -4 -30 -10 0 -5 -9 -10 -21 -10 -11 0 -29 -5
-40 -10 -10 -6 -19 -18 -19 -26 0 -13 7 -15 38 -9 20 3 60 9 88 11 52 6 52 6
59 -38 4 -23 14 -51 23 -60 8 -10 25 -18 38 -18 13 0 34 -11 48 -24 15 -13 26
-31 26 -40 0 -9 4 -24 9 -34 5 -9 14 -29 21 -44 9 -18 11 -46 6 -86 -4 -32
-16 -76 -26 -98 -11 -21 -20 -44 -20 -52 0 -8 9 -12 23 -10 15 2 30 18 47 52
14 30 26 74 28 109 3 36 0 63 -7 70 -6 6 -11 21 -11 33 0 13 -4 26 -10 29 -5
3 -10 14 -10 24 0 10 -7 32 -16 49 -8 18 -25 39 -37 47 -12 8 -31 15 -44 15
-12 0 -26 7 -31 16 -5 9 -7 25 -5 35 3 11 0 26 -7 34 -7 8 -30 18 -51 21 -22
4 -39 10 -39 15 0 5 -13 9 -30 9z"/>
<path d="M504 460 c-9 0 -14 -7 -12 -17 2 -9 9 -18 16 -21 7 -2 12 5 12 17 0
12 -6 21 -16 21z"/>
<path d="M190 400 c-11 0 -20 -6 -20 -13 0 -8 -13 -41 -30 -75 -17 -34 -30
-69 -30 -77 0 -8 -4 -15 -8 -15 -5 0 -18 -18 -30 -41 -12 -22 -22 -47 -22 -55
0 -8 -4 -14 -10 -14 -5 0 -10 -9 -10 -20 0 -13 7 -20 20 -20 14 0 28 17 50 63
16 34 46 91 66 127 20 36 38 82 40 102 4 33 2 38 -16 38z"/>
</g>
</svg>
