<?xml version="1.0" standalone="no"?>
<!DOCTYPE svg PUBLIC "-//W3C//DTD SVG 20010904//EN"
 "http://www.w3.org/TR/2001/REC-SVG-20010904/DTD/svg10.dtd">
<svg version="1.0" xmlns="http://www.w3.org/2000/svg"
 width="56.000000pt" height="56.000000pt" viewBox="0 0 56.000000 56.000000"
 preserveAspectRatio="xMidYMid meet">
<metadata>
Created by potrace 1.16, written by Peter Selinger 2001-2019
</metadata>
<g transform="translate(0.000000,56.000000) scale(0.100000,-0.100000)"
fill="#000000" stroke="none">
<path d="M241 520 c-15 0 -32 -5 -39 -12 -7 -7 -12 -18 -12 -25 0 -7 9 -13 20
-13 12 0 32 7 45 16 14 9 22 20 19 25 -3 5 -18 9 -33 9z"/>
<path d="M334 520 c-6 0 -17 -7 -24 -15 -11 -13 -9 -19 9 -36 12 -12 20 -26
18 -32 -2 -7 -32 -27 -68 -45 -35 -18 -77 -42 -92 -53 -16 -11 -29 -19 -31
-17 -1 1 -9 23 -17 48 -11 32 -22 46 -37 48 -12 2 -22 -1 -22 -7 0 -6 4 -19 9
-29 4 -9 13 -32 19 -50 10 -31 8 -34 -33 -68 -25 -20 -49 -50 -55 -70 -7 -19
-8 -49 -5 -67 4 -17 14 -44 21 -59 8 -15 20 -25 27 -22 7 2 20 19 28 37 9 17
21 48 27 67 6 19 13 54 17 77 4 23 12 46 18 51 7 6 29 19 50 31 20 12 53 30
72 41 20 11 42 20 50 20 11 0 15 -13 15 -56 0 -31 5 -75 12 -97 7 -22 26 -55
44 -72 25 -26 43 -33 89 -39 32 -3 60 -4 63 -1 3 2 0 11 -7 19 -6 7 -26 16
-43 20 -18 3 -47 23 -69 46 -33 34 -38 47 -44 103 -4 36 -4 74 0 86 3 11 17
24 31 27 13 4 29 14 34 24 5 9 6 20 3 24 -3 3 -17 6 -29 6 -14 0 -32 12 -46
30 -12 17 -27 30 -34 30z m-244 -295 c5 -3 5 -18 0 -35 -5 -16 -11 -34 -15
-40 -3 -5 -10 -10 -16 -10 -5 0 -9 7 -9 15 0 9 7 29 15 46 9 16 20 27 25 24z"/>
<path d="M542 520 c-10 0 -22 -3 -25 -7 -4 -3 -7 -10 -7 -15 0 -4 11 -8 25 -8
16 0 25 6 25 15 0 8 -8 15 -18 15z"/>
<path d="M357 100 c-2 0 -16 -13 -32 -30 -26 -27 -27 -30 -10 -37 11 -4 20 -2
23 5 2 7 10 12 18 12 8 0 14 -4 14 -10 0 -5 9 -10 20 -10 13 0 20 7 20 19 0
10 -11 26 -25 35 -13 9 -26 16 -28 16z"/>
<path d="M545 60 c-8 0 -15 -7 -15 -15 0 -8 7 -15 15 -15 8 0 15 7 15 15 0 8
-7 15 -15 15z"/>
</g>
</svg>
