<?xml version="1.0" standalone="no"?>
<!DOCTYPE svg PUBLIC "-//W3C//DTD SVG 20010904//EN"
 "http://www.w3.org/TR/2001/REC-SVG-20010904/DTD/svg10.dtd">
<svg version="1.0" xmlns="http://www.w3.org/2000/svg"
 width="56.000000pt" height="56.000000pt" viewBox="0 0 56.000000 56.000000"
 preserveAspectRatio="xMidYMid meet">
<metadata>
Created by potrace 1.16, written by Peter Selinger 2001-2019
</metadata>
<g transform="translate(0.000000,56.000000) scale(0.100000,-0.100000)"
fill="#000000" stroke="none">
<path d="M320 560 c-20 0 -40 -4 -45 -9 -6 -4 -32 -14 -58 -21 -35 -9 -47 -17
-45 -29 2 -11 16 -17 41 -19 24 -2 48 3 63 13 14 9 35 15 47 13 15 -2 23 -11
25 -30 2 -14 9 -32 17 -38 8 -6 12 -17 9 -24 -3 -7 3 -19 12 -27 9 -7 25 -18
36 -24 11 -5 29 -35 39 -65 14 -39 18 -71 15 -111 -3 -31 -11 -68 -17 -83 -7
-14 -18 -26 -24 -26 -7 0 -18 -7 -25 -15 -7 -8 -26 -21 -43 -30 -16 -8 -36
-15 -44 -15 -7 0 -13 -4 -13 -10 0 -5 15 -10 33 -10 17 0 56 14 85 31 29 16
62 44 72 62 16 25 20 50 20 117 0 69 -4 90 -20 110 -11 14 -20 30 -20 37 0 6
-20 24 -44 39 -39 25 -44 32 -49 75 -3 26 -12 57 -19 68 -9 15 -23 21 -48 21z"/>
<path d="M460 560 c-17 0 -30 -3 -30 -7 0 -3 11 -26 25 -50 14 -23 32 -43 40
-43 8 0 15 6 15 13 0 6 -5 29 -11 50 -9 32 -14 37 -39 37z"/>
<path d="M185 419 c-11 4 -28 6 -37 3 -10 -2 -18 -8 -18 -13 0 -5 7 -12 16
-16 12 -4 14 -14 9 -40 -3 -19 -15 -51 -27 -71 -11 -20 -23 -41 -27 -47 -4 -5
-13 -29 -21 -52 -7 -24 -21 -50 -32 -59 -10 -10 -18 -27 -18 -39 0 -13 8 -26
17 -29 11 -5 23 0 31 11 8 10 25 43 39 73 13 30 38 84 55 118 21 42 32 79 32
109 1 37 -3 47 -19 52z"/>
</g>
</svg>
