<?xml version="1.0" standalone="no"?>
<!DOCTYPE svg PUBLIC "-//W3C//DTD SVG 20010904//EN"
 "http://www.w3.org/TR/2001/REC-SVG-20010904/DTD/svg10.dtd">
<svg version="1.0" xmlns="http://www.w3.org/2000/svg"
 width="56.000000pt" height="56.000000pt" viewBox="0 0 56.000000 56.000000"
 preserveAspectRatio="xMidYMid meet">
<metadata>
Created by potrace 1.16, written by Peter Selinger 2001-2019
</metadata>
<g transform="translate(0.000000,56.000000) scale(0.100000,-0.100000)"
fill="#000000" stroke="none">
<path d="M401 500 c-9 -1 -32 -14 -51 -30 -19 -17 -46 -30 -60 -30 -15 0 -30
-3 -33 -7 -4 -3 3 -17 15 -30 16 -17 19 -28 13 -37 -6 -8 -40 -51 -78 -96 -37
-45 -71 -88 -75 -94 -4 -6 -21 -21 -39 -33 -18 -13 -36 -23 -41 -23 -5 0 -14
11 -20 25 -6 14 -16 25 -22 25 -5 0 -10 -15 -10 -34 0 -19 4 -46 10 -60 6 -17
17 -26 30 -26 12 0 41 14 65 30 24 17 70 65 101 108 32 42 74 100 95 127 20
28 44 65 53 83 9 17 23 32 32 32 11 0 14 -8 12 -27 -3 -27 -1 -28 42 -29 25
-1 50 -2 57 -2 6 -1 14 -16 18 -32 4 -17 4 -53 0 -81 -5 -35 -17 -61 -41 -91
-19 -22 -51 -54 -72 -69 -20 -16 -43 -34 -50 -40 -7 -6 -11 -13 -9 -16 3 -2
18 -1 35 4 16 4 45 19 63 33 19 14 49 40 67 58 17 18 32 40 32 48 0 8 5 14 10
14 6 0 10 33 10 79 0 72 -3 82 -27 110 -20 23 -36 31 -60 31 -29 0 -33 3 -33
28 0 15 -5 33 -12 40 -7 7 -19 12 -27 12z"/>
</g>
</svg>
