<?xml version="1.0" standalone="no"?>
<!DOCTYPE svg PUBLIC "-//W3C//DTD SVG 20010904//EN"
 "http://www.w3.org/TR/2001/REC-SVG-20010904/DTD/svg10.dtd">
<svg version="1.0" xmlns="http://www.w3.org/2000/svg"
 width="56.000000pt" height="56.000000pt" viewBox="0 0 56.000000 56.000000"
 preserveAspectRatio="xMidYMid meet">
<metadata>
Created by potrace 1.16, written by Peter Selinger 2001-2019
</metadata>
<g transform="translate(0.000000,56.000000) scale(0.100000,-0.100000)"
fill="#000000" stroke="none">
<path d="M157 518 c-9 2 -20 -3 -23 -12 -3 -8 -3 -20 1 -26 3 -5 15 -10 26
-10 15 0 20 6 17 22 -2 13 -11 24 -21 26z"/>
<path d="M398 509 c-2 -1 -31 -9 -65 -18 -35 -9 -63 -21 -63 -27 0 -6 7 -17
15 -24 13 -11 10 -18 -24 -55 -21 -23 -46 -58 -56 -78 -9 -20 -29 -48 -43 -63
-15 -14 -34 -36 -42 -49 -8 -12 -27 -36 -42 -54 -27 -32 -27 -32 -50 -9 -23
23 -23 23 -26 -21 -2 -24 -1 -50 2 -57 3 -8 15 -14 28 -14 13 0 41 20 72 53
28 28 62 75 76 102 14 28 28 52 31 55 3 3 16 25 30 50 13 25 41 63 61 85 21
22 38 45 38 51 0 7 8 15 17 18 9 4 20 3 25 -2 5 -5 12 -27 16 -51 4 -23 12
-42 17 -42 6 0 13 5 17 13 4 7 9 21 12 31 5 14 10 16 25 8 10 -6 24 -25 30
-42 6 -18 11 -58 11 -91 0 -32 -4 -66 -9 -76 -5 -9 -22 -45 -39 -79 -20 -41
-27 -65 -20 -69 6 -4 25 10 43 30 17 20 38 59 45 86 8 28 17 50 22 50 4 0 8
31 8 70 0 52 -5 79 -21 107 -12 20 -28 42 -36 49 -9 6 -26 9 -39 6 -19 -3 -24
0 -24 16 0 12 -9 26 -19 32 -11 5 -21 9 -23 9z"/>
</g>
</svg>
