<?xml version="1.0" standalone="no"?>
<!DOCTYPE svg PUBLIC "-//W3C//DTD SVG 20010904//EN"
 "http://www.w3.org/TR/2001/REC-SVG-20010904/DTD/svg10.dtd">
<svg version="1.0" xmlns="http://www.w3.org/2000/svg"
 width="56.000000pt" height="56.000000pt" viewBox="0 0 56.000000 56.000000"
 preserveAspectRatio="xMidYMid meet">
<metadata>
Created by potrace 1.16, written by Peter Selinger 2001-2019
</metadata>
<g transform="translate(0.000000,56.000000) scale(0.100000,-0.100000)"
fill="#000000" stroke="none">
<path d="M531 540 c-16 0 -36 -6 -43 -13 -7 -8 -29 -31 -49 -53 -20 -21 -45
-44 -57 -51 -18 -11 -22 -10 -27 6 -4 13 -19 20 -52 25 -25 3 -60 6 -78 6 -23
0 -45 -11 -77 -40 -25 -22 -67 -73 -92 -114 -31 -50 -46 -85 -46 -107 0 -27 8
-41 39 -66 33 -27 41 -30 51 -18 6 7 21 15 33 17 12 2 26 13 32 26 6 13 19 22
31 22 13 0 53 31 104 80 72 70 85 79 98 67 8 -9 14 -37 15 -73 1 -47 -4 -68
-22 -98 -14 -21 -39 -44 -57 -52 -18 -8 -35 -18 -38 -23 -4 -5 -19 -12 -34
-16 -15 -3 -38 -15 -52 -26 -25 -21 -25 -21 4 -16 16 3 37 0 46 -5 11 -7 26
-4 53 11 21 12 47 21 57 21 11 0 28 4 38 9 9 5 25 12 35 15 9 3 17 14 17 24 0
10 8 34 17 53 11 22 17 55 16 91 -1 39 -8 68 -22 91 -12 19 -21 44 -21 55 0
11 16 40 36 64 20 23 44 47 55 52 10 5 19 15 19 23 0 8 -11 13 -29 13z m-236
-145 c11 -3 26 -5 33 -5 6 0 12 -9 12 -20 0 -11 -12 -26 -30 -35 -16 -8 -33
-21 -37 -28 -4 -7 -29 -31 -55 -52 -27 -22 -48 -47 -48 -57 0 -12 -8 -18 -23
-18 -13 0 -32 9 -42 20 -14 15 -15 25 -8 47 6 15 22 45 36 66 14 21 27 42 29
47 2 5 28 16 58 24 30 8 64 13 75 11z"/>
</g>
</svg>
