<?xml version="1.0" standalone="no"?>
<!DOCTYPE svg PUBLIC "-//W3C//DTD SVG 20010904//EN"
 "http://www.w3.org/TR/2001/REC-SVG-20010904/DTD/svg10.dtd">
<svg version="1.0" xmlns="http://www.w3.org/2000/svg"
 width="56.000000pt" height="56.000000pt" viewBox="0 0 56.000000 56.000000"
 preserveAspectRatio="xMidYMid meet">
<metadata>
Created by potrace 1.16, written by Peter Selinger 2001-2019
</metadata>
<g transform="translate(0.000000,56.000000) scale(0.100000,-0.100000)"
fill="#000000" stroke="none">
<path d="M365 560 c-8 0 -16 -13 -19 -32 -3 -18 -7 -44 -8 -58 -3 -22 -9 -26
-53 -31 -27 -4 -62 -11 -77 -15 -14 -5 -40 -21 -57 -36 -17 -15 -39 -48 -51
-72 -16 -36 -19 -57 -14 -101 4 -31 11 -58 15 -61 5 -3 9 -21 9 -40 0 -20 5
-44 10 -55 6 -10 14 -19 19 -19 4 0 29 32 55 71 26 39 57 87 68 107 11 21 34
63 50 95 17 32 35 56 41 54 7 -2 21 -17 32 -34 11 -16 27 -48 34 -70 12 -35
12 -49 0 -89 -9 -29 -30 -65 -54 -91 -23 -24 -46 -43 -51 -43 -6 0 -19 -10
-30 -22 -19 -21 -19 -21 16 -14 19 3 37 11 38 16 2 6 9 10 17 10 7 0 31 17 53
39 23 21 46 51 53 67 6 16 12 45 14 64 2 19 -2 51 -8 70 -6 19 -28 61 -49 92
-35 52 -38 63 -38 127 0 56 -3 71 -15 71z m-89 -151 c6 1 17 -5 23 -13 9 -11
6 -25 -15 -62 -14 -27 -47 -82 -73 -121 -25 -40 -52 -73 -58 -73 -9 0 -13 23
-13 81 0 73 3 84 26 113 14 17 43 41 63 53 20 12 41 22 47 22z"/>
</g>
</svg>
