<?xml version="1.0" standalone="no"?>
<!DOCTYPE svg PUBLIC "-//W3C//DTD SVG 20010904//EN"
 "http://www.w3.org/TR/2001/REC-SVG-20010904/DTD/svg10.dtd">
<svg version="1.0" xmlns="http://www.w3.org/2000/svg"
 width="56.000000pt" height="56.000000pt" viewBox="0 0 56.000000 56.000000"
 preserveAspectRatio="xMidYMid meet">
<metadata>
Created by potrace 1.16, written by Peter Selinger 2001-2019
</metadata>
<g transform="translate(0.000000,56.000000) scale(0.100000,-0.100000)"
fill="#000000" stroke="none">
<path d="M417 500 c-7 0 -18 -5 -23 -10 -6 -6 -30 -14 -55 -18 -30 -5 -45 -13
-47 -25 -2 -10 3 -17 12 -17 9 0 16 -4 16 -9 0 -5 -16 -19 -36 -31 -22 -14
-63 -64 -114 -139 -43 -65 -89 -125 -104 -134 -23 -16 -26 -16 -34 0 -6 11 -5
28 5 51 8 18 12 39 11 44 -2 6 -13 -2 -23 -18 -13 -20 -19 -47 -20 -84 0 -55
0 -55 41 -58 37 -3 44 1 76 40 19 24 47 66 61 93 13 28 43 74 65 103 21 29 54
64 72 77 18 13 39 33 47 44 8 12 19 21 25 21 5 0 8 -7 5 -15 -4 -8 -3 -17 2
-19 4 -3 17 4 29 14 12 11 27 20 35 20 7 0 21 -16 30 -35 9 -20 17 -56 17 -81
0 -25 -5 -55 -12 -67 -6 -12 -23 -32 -37 -45 -14 -12 -45 -31 -68 -42 -23 -11
-44 -24 -48 -30 -3 -5 1 -13 9 -16 9 -4 40 5 70 19 30 14 64 37 77 50 13 14
32 34 42 46 12 15 17 39 17 86 0 36 -3 65 -8 65 -4 0 -13 14 -21 31 -7 17 -28
39 -45 49 -17 10 -36 24 -43 29 -7 6 -18 11 -26 11z"/>
</g>
</svg>
