<?xml version="1.0" standalone="no"?>
<!DOCTYPE svg PUBLIC "-//W3C//DTD SVG 20010904//EN"
 "http://www.w3.org/TR/2001/REC-SVG-20010904/DTD/svg10.dtd">
<svg version="1.0" xmlns="http://www.w3.org/2000/svg"
 width="56.000000pt" height="56.000000pt" viewBox="0 0 56.000000 56.000000"
 preserveAspectRatio="xMidYMid meet">
<metadata>
Created by potrace 1.16, written by Peter Selinger 2001-2019
</metadata>
<g transform="translate(0.000000,56.000000) scale(0.100000,-0.100000)"
fill="#000000" stroke="none">
<path d="M118 539 c-18 -1 -52 -6 -75 -12 -25 -6 -43 -16 -43 -24 0 -7 12 -18
27 -24 21 -8 36 -5 74 13 27 13 49 29 49 36 0 7 -12 12 -32 11z"/>
<path d="M290 540 c-16 0 -30 -4 -30 -8 0 -4 5 -13 12 -20 7 -7 17 -8 30 -1
10 5 18 14 18 19 0 6 -13 10 -30 10z"/>
<path d="M408 535 c-30 6 -38 4 -47 -13 -6 -12 -11 -31 -11 -44 0 -13 -6 -31
-12 -40 -7 -9 -44 -35 -83 -57 -65 -37 -71 -39 -83 -23 -11 14 -10 19 3 29 14
9 14 15 5 33 -8 15 -15 19 -22 12 -7 -7 -17 -4 -31 9 -11 10 -26 19 -33 19 -7
0 -15 -4 -18 -9 -3 -4 3 -16 14 -26 13 -12 18 -25 14 -40 -4 -15 0 -24 10 -28
10 -4 16 -18 16 -35 0 -22 -9 -37 -35 -56 -19 -15 -44 -44 -55 -66 -11 -21
-24 -64 -29 -96 -5 -32 -6 -64 -4 -72 3 -7 17 -12 31 -10 18 2 38 19 63 52 21
27 40 61 42 75 3 14 13 51 21 81 9 30 21 56 26 58 5 2 35 23 67 48 31 24 60
44 65 44 4 0 8 -23 8 -51 0 -27 5 -70 11 -94 6 -24 18 -47 28 -51 9 -3 43 -12
76 -18 41 -8 69 -9 88 -2 15 5 27 13 27 17 0 4 -26 11 -57 14 -32 4 -66 15
-77 24 -10 9 -24 28 -32 43 -8 15 -14 55 -14 90 0 61 2 64 40 101 22 20 40 44
40 52 0 7 -3 16 -8 19 -4 2 -24 7 -44 11z m-297 -325 c5 0 9 -1 9 -2 0 -2 -8
-25 -18 -52 -9 -27 -23 -51 -30 -54 -7 -2 -12 5 -12 18 0 13 9 38 21 56 11 19
25 34 30 34z"/>
<path d="M249 180 c-5 0 -9 -7 -9 -15 0 -9 6 -31 14 -50 10 -22 24 -37 40 -41
14 -3 30 -3 35 1 6 3 11 14 11 23 0 9 -7 25 -15 36 -8 10 -26 25 -41 32 -14 8
-30 14 -35 14z"/>
</g>
</svg>
