<?xml version="1.0" standalone="no"?>
<!DOCTYPE svg PUBLIC "-//W3C//DTD SVG 20010904//EN"
 "http://www.w3.org/TR/2001/REC-SVG-20010904/DTD/svg10.dtd">
<svg version="1.0" xmlns="http://www.w3.org/2000/svg"
 width="56.000000pt" height="56.000000pt" viewBox="0 0 56.000000 56.000000"
 preserveAspectRatio="xMidYMid meet">
<metadata>
Created by potrace 1.16, written by Peter Selinger 2001-2019
</metadata>
<g transform="translate(0.000000,56.000000) scale(0.100000,-0.100000)"
fill="#000000" stroke="none">
<path d="M177 560 c-31 0 -45 -5 -55 -20 -6 -11 -12 -27 -12 -36 0 -8 3 -14 8
-12 4 2 28 13 55 26 26 12 47 27 47 32 0 6 -19 10 -43 10z"/>
<path d="M359 560 c-25 0 -29 -4 -29 -29 0 -16 -7 -34 -15 -41 -8 -7 -27 -37
-42 -69 -15 -31 -31 -57 -35 -59 -4 -2 -8 -10 -8 -18 0 -7 -9 -29 -20 -49 -11
-20 -20 -44 -20 -55 0 -10 -4 -22 -10 -25 -5 -3 -10 -17 -10 -31 0 -13 -4 -24
-10 -24 -5 0 -10 -9 -10 -20 0 -11 -4 -20 -10 -20 -5 0 -10 -9 -10 -20 0 -11
-4 -20 -10 -20 -5 0 -10 -10 -10 -22 -1 -22 -1 -22 -14 -5 -8 10 -16 15 -19
10 -2 -4 -7 -20 -11 -35 -6 -26 -4 -28 24 -28 20 0 30 5 30 15 0 8 5 15 10 15
6 0 10 9 10 20 0 11 5 20 10 20 6 0 10 9 10 20 0 11 5 20 10 20 6 0 10 7 10
15 0 8 9 30 20 50 11 20 20 42 20 50 0 9 4 23 9 33 5 9 14 31 21 47 7 17 16
38 21 48 5 9 13 25 18 35 5 9 14 29 21 43 6 14 22 39 35 55 24 29 24 29 24
-11 0 -22 -6 -51 -14 -65 -8 -14 -14 -33 -15 -43 0 -16 6 -17 44 -12 38 6 46
4 55 -13 6 -12 11 -41 11 -66 0 -29 -8 -60 -23 -86 -12 -22 -53 -71 -90 -110
-37 -38 -67 -72 -67 -75 0 -3 7 -5 16 -5 9 0 56 40 104 89 78 79 89 95 95 135
4 25 4 67 0 93 -4 27 -14 56 -22 66 -9 9 -27 17 -40 17 -22 0 -23 3 -17 38 4
20 7 42 7 48 0 7 -5 26 -13 43 -10 25 -18 31 -41 31z"/>
</g>
</svg>
