<?xml version="1.0" standalone="no"?>
<!DOCTYPE svg PUBLIC "-//W3C//DTD SVG 20010904//EN"
 "http://www.w3.org/TR/2001/REC-SVG-20010904/DTD/svg10.dtd">
<svg version="1.0" xmlns="http://www.w3.org/2000/svg"
 width="56.000000pt" height="56.000000pt" viewBox="0 0 56.000000 56.000000"
 preserveAspectRatio="xMidYMid meet">
<metadata>
Created by potrace 1.16, written by Peter Selinger 2001-2019
</metadata>
<g transform="translate(0.000000,56.000000) scale(0.100000,-0.100000)"
fill="#000000" stroke="none">
<path d="M323 560 c-13 0 -23 -4 -23 -8 0 -5 -19 -15 -42 -22 -24 -7 -47 -17
-52 -21 -5 -5 -2 -11 7 -15 9 -3 17 -15 17 -26 0 -10 -14 -49 -31 -86 -17 -37
-39 -85 -49 -107 -10 -22 -26 -58 -36 -80 -10 -22 -19 -62 -20 -88 -1 -35 2
-50 13 -54 8 -3 18 -2 23 3 5 5 18 45 30 89 11 44 24 89 29 100 5 11 16 36 24
55 8 19 25 58 37 85 13 28 24 64 25 82 1 17 10 40 20 49 13 13 21 15 34 7 10
-7 15 -21 13 -39 -2 -16 -4 -38 -5 -49 -1 -12 5 -21 18 -23 11 -2 28 -11 38
-20 9 -8 17 -21 17 -28 0 -7 5 -14 12 -16 7 -3 11 -37 11 -104 -1 -70 -5 -108
-16 -128 -9 -16 -30 -45 -48 -63 -17 -19 -29 -36 -26 -40 3 -3 21 5 39 18 18
13 38 28 43 34 6 5 15 21 21 35 6 14 16 41 23 61 6 19 11 56 11 82 0 25 -4 49
-10 52 -5 3 -10 15 -10 26 0 10 -6 29 -12 42 -7 12 -28 37 -46 56 -25 25 -32
39 -28 56 4 14 -1 36 -12 54 -11 20 -25 31 -39 31z"/>
<path d="M241 40 c-5 0 -12 -4 -15 -9 -3 -5 1 -14 8 -21 8 -6 30 -10 48 -8 33
3 33 3 1 21 -18 9 -36 17 -42 17z"/>
</g>
</svg>
