<?xml version="1.0" standalone="no"?>
<!DOCTYPE svg PUBLIC "-//W3C//DTD SVG 20010904//EN"
 "http://www.w3.org/TR/2001/REC-SVG-20010904/DTD/svg10.dtd">
<svg version="1.0" xmlns="http://www.w3.org/2000/svg"
 width="56.000000pt" height="56.000000pt" viewBox="0 0 56.000000 56.000000"
 preserveAspectRatio="xMidYMid meet">
<metadata>
Created by potrace 1.16, written by Peter Selinger 2001-2019
</metadata>
<g transform="translate(0.000000,56.000000) scale(0.100000,-0.100000)"
fill="#000000" stroke="none">
<path d="M252 529 c-37 0 -80 -5 -97 -11 -16 -6 -52 -23 -80 -37 -44 -23 -51
-31 -62 -71 -6 -25 -12 -74 -12 -109 -1 -35 4 -93 10 -127 6 -35 17 -69 25
-75 12 -10 21 -5 48 24 19 21 39 37 45 37 6 0 11 5 11 10 0 6 24 35 53 64 28
29 66 68 82 87 17 19 41 51 55 71 14 21 30 38 37 38 7 0 23 -15 36 -32 14 -18
28 -43 32 -56 3 -12 17 -34 29 -50 13 -15 27 -45 30 -68 6 -36 4 -46 -26 -84
-18 -24 -55 -59 -83 -77 -27 -19 -51 -41 -53 -49 -2 -9 5 -14 20 -14 13 0 40
11 61 25 20 14 55 43 76 65 22 21 43 50 47 64 3 14 10 26 15 26 5 0 9 25 9 55
0 30 -4 55 -9 55 -5 0 -14 15 -21 34 -6 18 -32 61 -57 96 -37 49 -59 68 -100
86 -40 18 -71 24 -121 23z m11 -60 c4 0 10 -6 13 -14 4 -8 -2 -27 -12 -43 -10
-15 -40 -54 -67 -87 -27 -33 -67 -78 -90 -99 -40 -39 -40 -39 -54 -12 -8 15
-15 42 -15 59 0 18 1 51 2 74 2 30 10 49 30 68 21 20 46 29 106 39 43 8 83 14
87 15z"/>
</g>
</svg>
