<?xml version="1.0" standalone="no"?>
<!DOCTYPE svg PUBLIC "-//W3C//DTD SVG 20010904//EN"
 "http://www.w3.org/TR/2001/REC-SVG-20010904/DTD/svg10.dtd">
<svg version="1.0" xmlns="http://www.w3.org/2000/svg"
 width="56.000000pt" height="56.000000pt" viewBox="0 0 56.000000 56.000000"
 preserveAspectRatio="xMidYMid meet">
<metadata>
Created by potrace 1.16, written by Peter Selinger 2001-2019
</metadata>
<g transform="translate(0.000000,56.000000) scale(0.100000,-0.100000)"
fill="#000000" stroke="none">
<path d="M348 532 c-7 3 -19 3 -25 1 -7 -3 -13 -11 -13 -19 0 -8 -6 -14 -12
-15 -7 -1 -20 -2 -28 -3 -8 -1 -36 -5 -63 -10 -26 -5 -50 -12 -53 -17 -3 -5
-14 -9 -24 -9 -10 0 -30 -14 -44 -30 -14 -17 -34 -51 -45 -75 -11 -25 -20 -53
-21 -62 0 -10 -1 -31 -2 -48 0 -16 2 -49 5 -73 3 -23 12 -54 21 -67 9 -14 23
-25 31 -25 7 0 26 5 40 10 15 6 60 44 100 84 41 41 83 93 94 115 12 22 21 47
21 56 0 9 7 29 15 45 13 24 19 28 38 21 12 -5 37 -32 54 -62 23 -37 33 -66 33
-94 0 -22 -9 -58 -19 -81 -10 -22 -35 -54 -56 -71 -31 -26 -49 -32 -109 -38
-39 -3 -84 -9 -100 -12 -30 -5 -30 -5 -1 -21 24 -12 52 -14 153 -8 68 3 135
12 147 19 13 6 35 29 49 50 22 32 26 49 26 107 0 37 -4 70 -8 72 -4 2 -21 25
-36 52 -16 28 -47 69 -68 92 -21 23 -50 45 -63 48 -19 5 -25 13 -25 35 0 16
-6 31 -12 33z m-96 -82 c33 0 50 -5 54 -14 3 -8 -1 -27 -10 -44 -8 -16 -42
-58 -74 -93 -33 -35 -68 -74 -78 -85 -11 -12 -31 -25 -46 -28 -28 -6 -28 -6
-28 66 0 73 0 73 66 135 63 60 69 63 116 63z"/>
</g>
</svg>
