<?xml version="1.0" standalone="no"?>
<!DOCTYPE svg PUBLIC "-//W3C//DTD SVG 20010904//EN"
 "http://www.w3.org/TR/2001/REC-SVG-20010904/DTD/svg10.dtd">
<svg version="1.0" xmlns="http://www.w3.org/2000/svg"
 width="56.000000pt" height="56.000000pt" viewBox="0 0 56.000000 56.000000"
 preserveAspectRatio="xMidYMid meet">
<metadata>
Created by potrace 1.16, written by Peter Selinger 2001-2019
</metadata>
<g transform="translate(0.000000,56.000000) scale(0.100000,-0.100000)"
fill="#000000" stroke="none">
<path d="M198 560 c-28 0 -36 -6 -50 -39 -10 -20 -18 -41 -18 -46 0 -5 -9 -18
-19 -29 -11 -12 -33 -46 -50 -77 -18 -33 -33 -79 -37 -111 -5 -40 -2 -70 11
-107 9 -29 23 -55 30 -57 8 -3 22 -1 32 4 10 6 48 70 84 144 37 73 73 150 80
172 8 21 26 47 41 58 28 19 28 19 72 -17 25 -20 52 -48 62 -63 10 -15 23 -49
30 -77 10 -43 9 -55 -7 -85 -9 -19 -39 -56 -66 -81 -26 -25 -69 -60 -95 -78
-26 -17 -50 -31 -55 -31 -4 0 -19 -9 -33 -20 -25 -20 -25 -20 5 -20 17 0 72
21 125 47 52 27 115 68 141 93 39 37 48 54 54 92 5 31 2 64 -9 101 -9 30 -33
76 -57 105 -22 29 -44 52 -47 52 -4 0 -18 10 -32 21 -25 21 -25 21 3 15 26 -6
27 -5 15 14 -11 16 -23 20 -72 20 -53 0 -58 -2 -53 -20 3 -13 0 -20 -8 -20 -8
0 -17 -9 -20 -20 -3 -11 -11 -20 -16 -20 -5 0 -9 18 -9 40 0 39 -1 40 -32 40z
m8 -110 c8 0 14 -9 14 -19 0 -11 -13 -41 -29 -68 -16 -26 -39 -68 -52 -92 -13
-25 -30 -46 -36 -49 -9 -2 -13 11 -13 47 0 27 4 53 10 56 5 3 10 14 10 24 0
10 19 37 41 60 23 22 48 41 55 41z"/>
</g>
</svg>
