<?xml version="1.0" standalone="no"?>
<!DOCTYPE svg PUBLIC "-//W3C//DTD SVG 20010904//EN"
 "http://www.w3.org/TR/2001/REC-SVG-20010904/DTD/svg10.dtd">
<svg version="1.0" xmlns="http://www.w3.org/2000/svg"
 width="56.000000pt" height="56.000000pt" viewBox="0 0 56.000000 56.000000"
 preserveAspectRatio="xMidYMid meet">
<metadata>
Created by potrace 1.16, written by Peter Selinger 2001-2019
</metadata>
<g transform="translate(0.000000,56.000000) scale(0.100000,-0.100000)"
fill="#000000" stroke="none">
<path d="M230 520 c-11 0 -20 -7 -20 -15 0 -8 9 -15 20 -15 11 0 20 7 20 15 0
8 -9 15 -20 15z"/>
<path d="M379 503 c-12 3 -22 0 -25 -8 -3 -7 -1 -22 5 -33 8 -15 7 -22 -2 -29
-6 -5 -32 -16 -57 -23 -25 -8 -59 -22 -76 -31 -17 -9 -41 -23 -52 -30 -19 -12
-23 -10 -42 14 -12 15 -27 27 -33 27 -7 0 -19 -5 -27 -10 -13 -8 -10 -14 15
-34 29 -24 29 -24 2 -57 -15 -19 -39 -49 -53 -67 -18 -22 -29 -48 -32 -80 -3
-40 0 -53 19 -76 23 -26 25 -26 48 -10 13 9 34 41 47 71 15 33 24 73 24 103 0
35 5 55 19 69 10 10 42 29 72 43 30 14 67 30 82 37 15 6 34 11 42 11 11 0 15
-13 15 -52 0 -29 6 -71 14 -93 8 -21 24 -47 36 -57 16 -13 39 -18 81 -18 46 0
59 3 59 15 0 10 -11 15 -35 15 -19 0 -45 6 -57 13 -12 6 -28 17 -34 23 -7 6
-13 40 -14 80 -1 38 -1 74 -1 80 1 7 10 14 22 17 12 3 18 10 14 16 -3 6 -12
11 -19 11 -8 0 -19 13 -26 29 -6 16 -21 31 -31 34z m-271 -263 c2 -6 1 -26 -2
-45 -4 -18 -16 -45 -27 -59 -11 -14 -25 -26 -30 -26 -5 0 -9 12 -9 26 0 14 5
35 11 47 6 12 21 32 33 45 12 13 22 18 24 12z"/>
<path d="M386 80 c-6 -1 -17 -7 -24 -16 -7 -8 -10 -19 -7 -24 3 -6 17 -10 31
-10 13 0 24 4 24 9 0 5 -3 16 -6 25 -3 9 -11 16 -18 16z"/>
</g>
</svg>
