<?xml version="1.0" standalone="no"?>
<!DOCTYPE svg PUBLIC "-//W3C//DTD SVG 20010904//EN"
 "http://www.w3.org/TR/2001/REC-SVG-20010904/DTD/svg10.dtd">
<svg version="1.0" xmlns="http://www.w3.org/2000/svg"
 width="56.000000pt" height="56.000000pt" viewBox="0 0 56.000000 56.000000"
 preserveAspectRatio="xMidYMid meet">
<metadata>
Created by potrace 1.16, written by Peter Selinger 2001-2019
</metadata>
<g transform="translate(0.000000,56.000000) scale(0.100000,-0.100000)"
fill="#000000" stroke="none">
<path d="M300 523 c-19 3 -51 1 -70 -3 -19 -4 -46 -12 -60 -18 -14 -5 -44 -24
-67 -41 -23 -17 -52 -49 -63 -72 -12 -23 -26 -68 -31 -101 -8 -48 -6 -72 6
-117 9 -31 26 -71 37 -89 11 -17 25 -32 31 -31 7 0 39 32 72 72 33 39 82 104
108 145 27 41 55 97 63 123 8 27 19 51 24 54 6 4 26 -3 45 -15 19 -12 48 -46
66 -77 31 -54 32 -58 20 -101 -8 -29 -24 -56 -46 -76 -19 -17 -47 -42 -62 -55
-16 -13 -39 -28 -53 -33 -14 -6 -36 -15 -50 -20 -14 -6 -36 -16 -50 -24 -14
-7 -23 -16 -20 -21 3 -4 12 -7 20 -6 8 1 33 7 55 13 22 6 51 14 65 16 14 3 44
15 68 27 23 11 60 40 82 63 22 24 42 54 46 68 3 14 10 26 15 26 5 0 9 8 9 18
0 10 -4 22 -8 28 -5 5 -14 34 -21 64 -7 32 -23 68 -39 86 -15 17 -56 45 -92
62 -36 17 -81 32 -100 35z m-52 -54 c28 1 32 -2 32 -24 0 -14 -20 -61 -45
-103 -24 -42 -62 -99 -83 -127 -21 -27 -46 -51 -55 -53 -12 -2 -22 7 -31 30
-10 24 -12 47 -5 87 4 29 15 64 24 78 9 13 26 34 38 46 12 12 37 32 57 44 19
11 50 22 68 22z"/>
</g>
</svg>
