<?xml version="1.0" standalone="no"?>
<!DOCTYPE svg PUBLIC "-//W3C//DTD SVG 20010904//EN"
 "http://www.w3.org/TR/2001/REC-SVG-20010904/DTD/svg10.dtd">
<svg version="1.0" xmlns="http://www.w3.org/2000/svg"
 width="56.000000pt" height="56.000000pt" viewBox="0 0 56.000000 56.000000"
 preserveAspectRatio="xMidYMid meet">
<metadata>
Created by potrace 1.16, written by Peter Selinger 2001-2019
</metadata>
<g transform="translate(0.000000,56.000000) scale(0.100000,-0.100000)"
fill="#000000" stroke="none">
<path d="M410 528 c-8 1 -44 -12 -80 -29 -58 -27 -63 -32 -47 -43 16 -12 12
-19 -40 -82 -32 -38 -85 -111 -118 -162 -33 -50 -66 -92 -72 -92 -7 0 -13 5
-13 11 0 6 -9 23 -21 37 -21 27 -21 27 -14 -23 4 -27 14 -65 21 -83 9 -22 19
-32 30 -30 9 2 29 26 45 53 16 28 32 57 36 65 4 8 25 42 47 75 22 33 55 80 73
103 18 24 51 62 73 84 22 22 42 49 45 59 4 11 13 19 21 19 8 0 15 -10 16 -22
0 -13 0 -35 -1 -50 -1 -16 3 -28 8 -28 6 0 20 6 31 12 15 10 25 10 38 2 12 -8
18 -27 20 -68 2 -44 -3 -69 -22 -109 -13 -29 -38 -65 -55 -80 -17 -15 -38 -27
-46 -27 -8 0 -15 -7 -15 -15 0 -8 6 -15 13 -15 8 0 27 7 43 15 16 8 43 29 60
47 17 18 37 48 44 66 7 17 16 32 21 32 5 0 9 34 9 75 0 67 -3 78 -27 105 -16
18 -36 30 -52 30 -19 0 -30 9 -41 33 -8 17 -22 33 -30 35z"/>
<path d="M10 365 c-6 4 -10 -5 -10 -20 0 -15 4 -24 10 -20 5 3 10 12 10 20 0
8 -4 17 -10 20z"/>
</g>
</svg>
