<?xml version="1.0" standalone="no"?>
<!DOCTYPE svg PUBLIC "-//W3C//DTD SVG 20010904//EN"
 "http://www.w3.org/TR/2001/REC-SVG-20010904/DTD/svg10.dtd">
<svg version="1.0" xmlns="http://www.w3.org/2000/svg"
 width="56.000000pt" height="56.000000pt" viewBox="0 0 56.000000 56.000000"
 preserveAspectRatio="xMidYMid meet">
<metadata>
Created by potrace 1.16, written by Peter Selinger 2001-2019
</metadata>
<g transform="translate(0.000000,56.000000) scale(0.100000,-0.100000)"
fill="#000000" stroke="none">
<path d="M427 479 c-6 -1 -25 -5 -42 -9 -16 -4 -47 -8 -67 -9 -21 0 -38 -5
-38 -11 0 -5 8 -13 17 -19 15 -8 10 -16 -35 -56 -29 -26 -80 -82 -114 -124
-33 -42 -70 -84 -81 -94 -16 -14 -22 -15 -28 -5 -5 7 -9 27 -9 43 -1 30 -1 30
-15 -4 -8 -18 -15 -44 -15 -58 0 -13 5 -33 10 -44 6 -10 16 -19 23 -19 7 0 34
22 60 48 26 26 47 51 47 55 0 5 15 27 33 50 17 23 41 50 52 61 11 10 44 37 73
59 30 23 58 51 63 64 5 14 17 23 30 23 17 0 20 -4 15 -24 -3 -14 -1 -28 4 -31
6 -4 17 -2 25 5 8 6 26 10 42 8 23 -2 30 -10 42 -47 11 -34 11 -51 2 -80 -6
-20 -19 -46 -29 -59 -15 -20 -30 -24 -98 -29 -43 -3 -87 -10 -96 -15 -10 -5
-15 -15 -12 -23 4 -9 1 -22 -6 -30 -6 -8 -9 -19 -5 -25 3 -5 18 -10 32 -10 14
0 32 8 39 17 7 10 14 26 14 35 0 13 7 16 33 11 18 -3 52 0 74 6 29 8 48 21 60
41 9 17 21 30 25 30 4 0 8 38 8 84 0 85 0 85 -37 115 -21 17 -42 31 -48 31 -6
0 -16 9 -23 20 -7 11 -18 19 -25 19z"/>
<path d="M70 315 c-5 3 -16 -7 -24 -23 -8 -16 -12 -32 -9 -36 4 -3 15 1 25 11
10 9 18 22 18 29 0 7 -4 15 -10 19z"/>
</g>
</svg>
