<?xml version="1.0" standalone="no"?>
<!DOCTYPE svg PUBLIC "-//W3C//DTD SVG 20010904//EN"
 "http://www.w3.org/TR/2001/REC-SVG-20010904/DTD/svg10.dtd">
<svg version="1.0" xmlns="http://www.w3.org/2000/svg"
 width="56.000000pt" height="56.000000pt" viewBox="0 0 56.000000 56.000000"
 preserveAspectRatio="xMidYMid meet">
<metadata>
Created by potrace 1.16, written by Peter Selinger 2001-2019
</metadata>
<g transform="translate(0.000000,56.000000) scale(0.100000,-0.100000)"
fill="#000000" stroke="none">
<path d="M305 560 c-14 0 -25 -4 -25 -10 0 -5 -23 -12 -51 -16 -32 -4 -62 -16
-82 -33 -18 -14 -40 -34 -50 -45 -9 -10 -17 -27 -17 -36 0 -9 -7 -25 -15 -36
-8 -10 -14 -37 -15 -59 0 -22 6 -59 13 -82 7 -24 17 -47 23 -53 6 -6 23 -8 38
-4 14 3 42 25 62 48 21 24 33 48 30 58 -2 11 1 18 10 18 8 0 14 7 14 15 0 8
11 22 24 30 20 13 24 26 28 76 3 37 10 64 18 69 8 5 17 6 20 1 3 -4 20 -17 37
-30 18 -12 45 -43 59 -67 24 -41 26 -49 15 -83 -6 -21 -11 -52 -11 -69 0 -20
-13 -47 -39 -79 -21 -27 -61 -68 -88 -91 -28 -23 -59 -42 -69 -42 -11 0 -32
-9 -49 -20 -30 -20 -30 -20 19 -20 31 0 66 8 94 22 26 13 70 47 99 75 29 29
59 65 66 80 8 16 20 52 27 81 10 42 10 63 0 100 -7 26 -23 66 -36 89 -13 23
-38 49 -56 57 -17 9 -39 16 -50 16 -11 0 -18 7 -18 20 0 15 -7 20 -25 20z
m-52 -69 c7 -7 5 -23 -6 -53 -10 -24 -17 -51 -17 -60 0 -9 -9 -33 -21 -55 -11
-21 -35 -46 -54 -55 -26 -13 -36 -14 -44 -5 -5 7 -11 42 -13 77 -3 65 -3 65
37 97 22 18 52 35 67 39 15 3 31 10 34 16 4 6 10 6 17 -1z"/>
</g>
</svg>
