<?xml version="1.0" standalone="no"?>
<!DOCTYPE svg PUBLIC "-//W3C//DTD SVG 20010904//EN"
 "http://www.w3.org/TR/2001/REC-SVG-20010904/DTD/svg10.dtd">
<svg version="1.0" xmlns="http://www.w3.org/2000/svg"
 width="128.000000pt" height="128.000000pt" viewBox="0 0 128.000000 128.000000"
 preserveAspectRatio="xMidYMid meet">
<metadata>
Created by potrace 1.16, written by Peter Selinger 2001-2019
</metadata>
<g transform="translate(0.000000,128.000000) scale(0.100000,-0.100000)"
fill="#000000" stroke="none">
<path d="M1201 949 c-9 -1 -24 -3 -33 -6 -14 -3 -18 -15 -18 -45 0 -22 5 -58
11 -79 7 -21 25 -54 41 -73 19 -23 38 -36 54 -36 24 0 24 0 24 114 0 114 0
114 -31 120 -17 3 -39 5 -48 5z"/>
<path d="M339 920 c-10 0 -21 -4 -24 -10 -3 -5 -1 -18 4 -28 5 -10 35 -40 65
-66 31 -26 56 -52 56 -58 0 -5 -12 -24 -26 -41 -24 -28 -25 -36 -21 -111 2
-45 7 -90 11 -102 5 -14 2 -26 -9 -37 -9 -9 -38 -19 -66 -23 -27 -4 -52 -11
-55 -15 -3 -5 -52 -9 -109 -9 -102 0 -105 -1 -135 -30 -16 -16 -30 -36 -30
-45 0 -11 13 -15 53 -16 28 -1 79 0 112 1 33 1 83 6 110 12 28 5 68 14 90 19
22 5 67 14 99 20 38 6 63 6 69 0 5 -5 16 -7 23 -4 8 3 33 -7 55 -23 31 -21 54
-28 105 -31 58 -4 64 -3 64 15 0 11 7 26 16 33 9 7 20 23 25 36 7 18 17 23 46
25 21 1 58 0 83 -1 25 -2 50 -7 56 -12 6 -5 19 -7 27 -3 9 3 56 7 105 7 59 1
95 7 105 16 10 7 17 24 17 37 0 13 -12 35 -26 49 -15 15 -37 31 -51 36 -14 5
-56 7 -93 5 -37 -2 -73 -7 -79 -10 -6 -4 -11 -14 -11 -22 0 -8 -4 -14 -9 -14
-5 0 -11 7 -15 15 -3 8 -17 15 -31 15 -15 0 -35 -5 -46 -10 -10 -6 -19 -17
-19 -25 0 -8 -4 -15 -9 -15 -5 0 -14 7 -22 16 -8 10 -26 14 -50 13 -21 -2 -41
0 -45 4 -4 4 2 16 14 27 12 12 22 26 22 33 0 7 12 24 28 39 15 15 44 42 65 59
31 26 38 38 35 63 -2 25 -11 35 -48 54 -34 18 -54 22 -80 17 -19 -3 -44 -8
-55 -9 -11 -2 -53 -11 -93 -20 -40 -9 -79 -16 -87 -16 -7 0 -16 8 -19 18 -4
10 -38 34 -76 52 -39 19 -78 42 -87 52 -9 10 -24 18 -34 18z m353 -151 c4 1
20 -10 35 -24 16 -14 37 -31 47 -39 13 -9 17 -20 13 -37 -3 -13 -22 -40 -41
-59 -19 -19 -50 -48 -70 -63 -20 -16 -36 -35 -36 -42 0 -8 -5 -17 -11 -21 -6
-3 -15 -1 -19 7 -5 7 -3 28 6 47 8 19 14 47 14 62 0 15 -7 41 -16 59 -11 22
-13 39 -7 58 6 17 21 31 44 39 19 7 37 13 41 13z m-214 -71 c15 -3 17 -18 17
-103 0 -95 -1 -100 -22 -103 -19 -3 -22 3 -28 53 -4 31 -4 74 -1 97 4 23 9 45
12 50 3 5 13 8 22 6z m112 -43 c5 -3 10 -15 10 -26 0 -10 -4 -19 -9 -19 -6 0
-13 5 -16 10 -4 6 -4 18 -1 26 3 8 10 12 16 9z m212 -145 c4 0 8 -11 8 -25 0
-16 -6 -25 -15 -25 -8 0 -15 8 -15 18 0 10 3 22 7 25 3 4 10 7 15 7z"/>
</g>
</svg>
