<?xml version="1.0" standalone="no"?>
<!DOCTYPE svg PUBLIC "-//W3C//DTD SVG 20010904//EN"
 "http://www.w3.org/TR/2001/REC-SVG-20010904/DTD/svg10.dtd">
<svg version="1.0" xmlns="http://www.w3.org/2000/svg"
 width="128.000000pt" height="128.000000pt" viewBox="0 0 128.000000 128.000000"
 preserveAspectRatio="xMidYMid meet">
<metadata>
Created by potrace 1.16, written by Peter Selinger 2001-2019
</metadata>
<g transform="translate(0.000000,128.000000) scale(0.100000,-0.100000)"
fill="#000000" stroke="none">
<path d="M563 1280 c-28 0 -33 -4 -33 -24 0 -14 10 -30 25 -40 13 -9 28 -16
32 -16 5 0 8 18 8 40 0 39 -1 40 -32 40z"/>
<path d="M827 1189 c-7 0 -31 -9 -54 -20 -23 -11 -64 -24 -90 -30 -26 -6 -70
-13 -98 -16 -27 -2 -57 -7 -65 -10 -8 -3 -76 -7 -150 -7 -117 -1 -135 -3 -138
-18 -2 -11 20 -29 73 -58 70 -38 81 -42 123 -36 26 4 75 9 110 11 50 4 69 10
90 31 23 21 33 24 67 19 22 -3 43 -11 47 -18 4 -7 8 -22 8 -34 0 -13 -9 -28
-19 -35 -15 -9 -18 -19 -14 -40 3 -15 0 -41 -6 -58 -7 -21 -7 -38 -1 -50 5
-10 7 -32 4 -48 -6 -30 -7 -30 -58 -25 -28 3 -76 0 -106 -6 -30 -7 -95 -13
-144 -14 -57 -1 -91 -6 -93 -14 -2 -6 10 -28 28 -48 18 -20 44 -42 60 -50 15
-8 30 -24 34 -35 3 -11 12 -20 20 -20 7 0 15 8 18 19 3 13 17 20 43 24 22 4
56 9 77 13 20 3 37 3 37 -1 0 -4 -15 -25 -34 -45 -34 -38 -34 -38 -35 -144 0
-86 -5 -116 -23 -163 -23 -58 -23 -58 -88 -56 -36 0 -81 4 -101 8 -27 5 -50 1
-90 -17 -45 -19 -71 -23 -156 -22 -92 0 -103 -2 -103 -18 0 -9 20 -38 44 -63
45 -46 45 -46 113 -39 37 3 91 12 119 20 29 8 63 13 75 13 13 -1 61 1 106 4
45 3 91 11 103 17 12 6 24 9 27 6 3 -3 15 1 27 9 11 8 32 15 47 15 16 0 29 7
33 16 6 15 9 15 29 -3 15 -15 36 -21 71 -22 29 0 63 7 87 19 21 11 58 20 81
20 24 0 54 0 68 0 14 0 63 -4 110 -9 58 -6 89 -6 97 1 7 6 13 25 13 44 0 20 6
37 16 42 14 8 13 12 -10 37 -14 15 -26 31 -26 35 0 5 -14 13 -32 19 -25 9 -36
8 -56 -5 -22 -14 -24 -21 -18 -60 5 -37 3 -44 -12 -44 -9 1 -36 18 -59 39 -30
27 -43 47 -43 65 0 17 11 37 29 54 15 15 37 52 47 82 10 30 26 60 35 67 9 7
22 32 28 55 7 24 14 48 17 55 3 6 -10 29 -29 50 -19 21 -42 52 -51 70 -11 22
-24 33 -43 35 -16 2 -50 -3 -78 -11 -27 -8 -66 -14 -85 -15 -31 -1 -35 2 -34
24 1 14 10 54 19 90 10 36 29 87 42 114 15 29 22 57 19 71 -3 12 -24 43 -47
68 -22 26 -46 47 -52 46z m-50 -499 c6 0 15 -5 18 -10 4 -6 21 -10 38 -9 18 2
47 2 65 1 23 -1 35 -8 40 -23 5 -11 3 -51 -3 -89 -5 -38 -13 -72 -17 -75 -4
-4 -4 -21 -1 -38 4 -22 1 -33 -11 -43 -14 -10 -15 -17 -7 -33 6 -11 11 -31 11
-44 0 -16 -12 -35 -30 -51 -26 -22 -34 -24 -51 -13 -15 9 -23 9 -37 -1 -9 -7
-27 -17 -39 -24 -17 -8 -29 -8 -48 0 -13 6 -27 23 -31 36 -4 18 1 35 17 58 14
19 22 43 20 60 -1 15 5 38 13 50 9 12 16 37 16 55 0 17 5 35 10 38 6 3 10 16
10 29 0 12 -7 31 -15 42 -8 10 -15 29 -15 41 0 12 8 27 18 32 9 6 22 11 29 11z"/>
<path d="M149 974 c-19 3 -38 4 -41 1 -3 -3 2 -21 11 -40 14 -29 21 -34 51
-33 19 0 52 -3 72 -7 30 -6 39 -4 44 9 3 9 1 23 -6 31 -7 8 -27 15 -44 15 -18
0 -36 4 -41 9 -6 5 -26 11 -46 15z"/>
<path d="M534 950 c-8 0 -14 -9 -14 -19 0 -11 5 -23 10 -26 6 -3 14 -4 19 -1
5 3 7 15 4 26 -3 11 -12 20 -19 20z"/>
<path d="M668 948 c-7 0 -28 -3 -45 -5 -18 -2 -33 -8 -33 -13 0 -5 9 -14 19
-20 11 -5 24 -10 30 -10 5 0 17 7 25 16 9 8 16 20 16 25 0 5 -6 8 -12 7z"/>
<path d="M483 931 c-5 5 -14 4 -21 -3 -7 -7 -12 -18 -12 -25 0 -7 7 -13 15
-13 9 0 18 7 22 16 3 8 1 20 -4 25z"/>
<path d="M1065 898 c-27 2 -50 -4 -69 -17 -30 -20 -30 -20 -3 -26 15 -4 45 -1
68 6 22 8 42 19 42 24 1 6 -16 11 -38 13z"/>
<path d="M1187 880 c-8 0 -17 -3 -20 -7 -4 -3 -7 -10 -7 -15 0 -4 9 -8 20 -8
11 0 20 7 20 15 0 8 -6 15 -13 15z"/>
<path d="M295 498 c-6 4 -20 6 -33 4 -17 -3 -22 -9 -20 -25 2 -14 10 -22 22
-22 10 0 24 8 30 17 7 11 7 20 1 26z"/>
<path d="M314 437 c-5 2 -13 1 -16 -2 -3 -3 -3 -17 0 -31 2 -14 14 -29 25 -33
20 -8 20 -8 -1 -29 -12 -12 -22 -30 -22 -40 0 -10 5 -23 12 -30 7 -7 22 -12
34 -12 17 0 24 8 29 30 5 22 -1 45 -22 87 -15 31 -33 58 -39 60z"/>
<path d="M729 30 c-10 0 -19 -7 -19 -15 0 -12 14 -15 70 -15 39 0 70 4 70 9 0
5 -11 12 -25 15 -14 4 -35 1 -47 -5 -17 -9 -23 -9 -26 0 -2 6 -12 11 -23 11z"/>
</g>
</svg>
