<?xml version="1.0" standalone="no"?>
<!DOCTYPE svg PUBLIC "-//W3C//DTD SVG 20010904//EN"
 "http://www.w3.org/TR/2001/REC-SVG-20010904/DTD/svg10.dtd">
<svg version="1.0" xmlns="http://www.w3.org/2000/svg"
 width="128.000000pt" height="128.000000pt" viewBox="0 0 128.000000 128.000000"
 preserveAspectRatio="xMidYMid meet">
<metadata>
Created by potrace 1.16, written by Peter Selinger 2001-2019
</metadata>
<g transform="translate(0.000000,128.000000) scale(0.100000,-0.100000)"
fill="#000000" stroke="none">
<path d="M421 1046 c-19 14 -22 14 -27 0 -3 -8 5 -30 18 -48 13 -18 28 -37 34
-43 6 -5 26 -37 44 -70 18 -33 39 -65 47 -70 11 -8 12 -16 4 -35 -6 -14 -30
-46 -53 -72 -43 -47 -43 -47 -103 -37 -33 6 -71 10 -84 11 -13 0 -32 8 -42 17
-10 9 -36 27 -58 39 -22 13 -42 18 -45 13 -4 -5 17 -35 45 -65 29 -31 60 -61
70 -67 13 -7 31 -7 56 0 30 8 41 8 52 -4 12 -12 11 -17 -10 -39 -13 -14 -30
-26 -36 -26 -7 0 -13 -9 -13 -20 0 -11 -6 -30 -12 -43 -7 -12 -19 -26 -25 -30
-7 -4 -13 -16 -13 -27 0 -10 -6 -31 -14 -47 -8 -15 -22 -45 -32 -65 -17 -36
-17 -37 7 -83 13 -26 32 -51 42 -57 10 -5 25 -7 33 -4 8 3 14 12 14 21 0 13 4
14 21 4 16 -8 28 -8 46 0 13 6 35 11 48 11 13 0 27 5 30 10 3 6 17 10 30 10
13 0 33 12 48 29 13 16 35 31 48 33 20 2 24 8 23 35 -1 17 -14 47 -28 66 -15
20 -34 38 -43 41 -9 4 -27 -1 -41 -10 -23 -15 -26 -15 -50 9 -19 19 -23 31
-18 51 3 14 12 26 19 26 6 0 25 16 40 35 15 19 36 35 46 35 9 0 45 -11 78 -24
34 -13 82 -38 106 -55 25 -17 48 -31 51 -31 2 0 45 -27 95 -60 50 -33 91 -67
91 -75 0 -9 -17 -33 -37 -54 -21 -21 -49 -42 -63 -46 -14 -4 -38 -13 -55 -20
-16 -7 -50 -18 -75 -25 -25 -6 -53 -16 -62 -21 -10 -5 -24 -9 -32 -9 -8 0 -28
-8 -45 -17 -17 -10 -31 -21 -31 -26 0 -4 15 -6 33 -5 17 1 37 5 42 8 6 4 32
13 58 20 36 10 51 10 60 1 8 -8 18 -4 40 17 20 18 31 23 34 15 3 -9 31 -13 89
-13 50 0 98 -6 118 -14 32 -14 35 -13 60 13 15 15 26 39 26 54 0 14 -9 50 -20
79 -14 37 -37 71 -77 110 -32 31 -71 63 -88 72 -16 9 -37 20 -45 26 -8 5 -64
32 -123 60 -60 27 -115 50 -122 50 -8 0 -26 5 -40 12 -14 6 -25 15 -25 20 0 5
33 42 73 83 40 41 80 75 88 75 8 0 22 7 33 15 14 11 17 21 12 48 -4 19 -15 46
-26 60 -11 13 -52 41 -92 61 -56 28 -80 35 -104 30 -20 -4 -43 0 -64 11 -17 9
-38 14 -45 11 -7 -2 -22 2 -34 10z m-26 -606 c7 0 20 -11 29 -25 9 -13 16 -36
16 -49 0 -15 -8 -30 -19 -36 -11 -5 -33 -7 -50 -4 -17 4 -34 10 -36 15 -3 4 0
20 7 36 6 15 18 36 26 46 9 9 21 17 27 17z"/>
</g>
</svg>
