<?xml version="1.0" standalone="no"?>
<!DOCTYPE svg PUBLIC "-//W3C//DTD SVG 20010904//EN"
 "http://www.w3.org/TR/2001/REC-SVG-20010904/DTD/svg10.dtd">
<svg version="1.0" xmlns="http://www.w3.org/2000/svg"
 width="128.000000pt" height="128.000000pt" viewBox="0 0 128.000000 128.000000"
 preserveAspectRatio="xMidYMid meet">
<metadata>
Created by potrace 1.16, written by Peter Selinger 2001-2019
</metadata>
<g transform="translate(0.000000,128.000000) scale(0.100000,-0.100000)"
fill="#000000" stroke="none">
<path d="M580 858 c-14 9 -22 6 -41 -14 -17 -19 -33 -24 -68 -24 -25 0 -53 -5
-61 -10 -12 -8 -13 -13 -3 -27 7 -10 19 -33 28 -50 8 -18 22 -49 31 -68 8 -20
16 -47 17 -61 2 -21 -5 -28 -38 -40 -22 -8 -69 -20 -105 -25 -36 -6 -103 -14
-150 -19 -47 -5 -93 -9 -103 -9 -10 -1 -31 -16 -48 -33 -16 -18 -29 -40 -29
-50 0 -14 8 -18 33 -18 17 0 52 7 77 16 31 11 61 14 93 9 27 -3 54 -2 60 2 7
5 29 15 49 22 21 7 56 13 78 13 22 0 40 4 40 9 0 4 20 11 44 14 24 4 61 8 83
9 21 1 54 10 73 18 19 9 53 21 75 27 22 6 117 11 210 11 128 0 182 -4 220 -16
28 -9 63 -20 78 -24 16 -5 35 -6 43 -3 8 3 14 17 14 32 -1 18 -12 35 -38 54
-37 29 -37 29 -206 22 -92 -4 -182 -11 -200 -16 -17 -5 -46 -9 -63 -9 -18 0
-33 2 -33 5 0 3 20 30 45 61 25 30 45 62 46 72 1 9 0 28 -1 42 -1 14 -8 35
-16 48 -8 13 -25 27 -38 32 -14 5 -54 4 -101 -2 -56 -8 -82 -8 -95 0z m137
-49 c29 1 45 -4 51 -15 4 -8 6 -29 4 -47 -3 -21 -21 -47 -54 -79 -27 -26 -60
-51 -73 -54 -13 -3 -29 -3 -35 1 -7 5 -9 30 -4 78 4 40 10 80 15 89 5 9 19 19
31 21 13 2 42 5 65 6z m-180 -33 c7 -6 13 -37 14 -68 1 -32 0 -61 -4 -64 -3
-3 -10 -3 -15 0 -6 3 -24 27 -41 52 -23 36 -28 51 -21 65 6 9 20 19 32 21 13
2 28 -1 35 -6z"/>
<path d="M27 598 c-23 3 -28 0 -25 -15 2 -11 14 -19 31 -21 23 -3 28 0 25 15
-2 11 -14 19 -31 21z"/>
</g>
</svg>
