<?xml version="1.0" standalone="no"?>
<!DOCTYPE svg PUBLIC "-//W3C//DTD SVG 20010904//EN"
 "http://www.w3.org/TR/2001/REC-SVG-20010904/DTD/svg10.dtd">
<svg version="1.0" xmlns="http://www.w3.org/2000/svg"
 width="128.000000pt" height="128.000000pt" viewBox="0 0 128.000000 128.000000"
 preserveAspectRatio="xMidYMid meet">
<metadata>
Created by potrace 1.16, written by Peter Selinger 2001-2019
</metadata>
<g transform="translate(0.000000,128.000000) scale(0.100000,-0.100000)"
fill="#000000" stroke="none">
<path d="M127 1200 c-30 0 -53 -7 -72 -22 -27 -21 -28 -21 -41 -3 -12 16 -14
4 -14 -93 0 -62 4 -112 9 -112 5 0 39 33 76 73 37 39 74 85 82 100 8 16 12 35
9 43 -3 9 -21 14 -49 14z"/>
<path d="M613 1139 c-4 -1 -25 -6 -45 -13 -20 -6 -40 -14 -44 -18 -4 -5 -17
-8 -28 -8 -12 0 -38 -6 -60 -14 -21 -7 -43 -21 -48 -30 -7 -12 -4 -18 9 -22
10 -3 28 -10 41 -15 13 -5 31 -9 40 -9 9 0 33 -13 51 -29 28 -23 37 -41 47
-87 7 -33 13 -91 13 -131 1 -39 -6 -107 -15 -150 -9 -43 -17 -113 -19 -156 -1
-42 -8 -84 -15 -92 -7 -8 -28 -15 -48 -15 -19 0 -44 -8 -54 -17 -12 -10 -40
-18 -76 -20 -31 -2 -67 -10 -79 -19 -18 -11 -47 -14 -119 -12 -52 1 -98 6
-100 10 -3 4 -14 8 -25 8 -11 0 -22 -7 -26 -16 -3 -9 6 -27 23 -45 17 -17 50
-36 81 -45 28 -8 68 -26 88 -40 20 -13 42 -24 49 -24 8 0 29 6 48 14 19 8 40
22 47 30 7 8 30 17 51 21 23 4 53 19 72 36 26 26 33 28 40 15 7 -12 14 -13 33
-6 13 5 72 14 130 20 58 6 110 8 115 5 6 -3 10 -17 10 -29 0 -16 -20 -41 -65
-81 -36 -31 -65 -62 -65 -69 0 -10 46 -12 201 -10 110 1 203 5 207 9 4 3 0 18
-8 32 -8 15 -21 28 -27 30 -7 3 -18 -7 -24 -21 -7 -14 -18 -26 -25 -26 -7 0
-21 15 -32 33 -11 17 -23 57 -27 87 -4 30 -14 70 -22 87 -8 18 -13 40 -9 48 3
8 13 15 22 15 9 0 35 -16 58 -35 22 -19 51 -45 64 -57 20 -20 35 -23 110 -24
64 -1 92 3 105 14 9 8 17 23 17 33 0 9 -18 36 -40 58 -23 23 -48 41 -56 41 -9
0 -29 14 -45 31 -27 29 -33 31 -72 25 -23 -4 -61 -10 -84 -13 -23 -3 -50 -14
-59 -24 -9 -11 -25 -19 -35 -19 -10 0 -21 5 -25 11 -4 7 -25 10 -54 7 -27 -3
-55 -1 -65 4 -13 8 -16 28 -16 121 0 62 0 157 1 212 1 61 6 105 13 112 7 7 46
15 87 18 41 4 82 7 90 7 8 -1 27 -4 42 -8 19 -4 36 -1 53 10 17 12 25 25 25
47 0 16 -6 32 -14 35 -7 3 -17 24 -20 46 -7 41 -7 41 -59 35 -29 -3 -87 -21
-130 -41 -62 -28 -83 -33 -98 -26 -10 6 -19 20 -19 31 0 11 -9 37 -20 59 -11
22 -29 44 -39 50 -11 5 -23 10 -28 9z m21 -739 c12 0 26 -3 29 -7 4 -3 0 -15
-10 -25 -9 -10 -24 -18 -33 -18 -9 0 -20 3 -23 6 -3 4 -2 15 4 25 5 11 20 19
33 19z"/>
<path d="M1060 225 c-18 16 -20 16 -26 1 -3 -9 -3 -27 0 -41 4 -14 11 -23 16
-20 6 3 14 14 20 24 7 14 5 23 -10 36z"/>
</g>
</svg>
