<?xml version="1.0" standalone="no"?>
<!DOCTYPE svg PUBLIC "-//W3C//DTD SVG 20010904//EN"
 "http://www.w3.org/TR/2001/REC-SVG-20010904/DTD/svg10.dtd">
<svg version="1.0" xmlns="http://www.w3.org/2000/svg"
 width="128.000000pt" height="128.000000pt" viewBox="0 0 128.000000 128.000000"
 preserveAspectRatio="xMidYMid meet">
<metadata>
Created by potrace 1.16, written by Peter Selinger 2001-2019
</metadata>
<g transform="translate(0.000000,128.000000) scale(0.100000,-0.100000)"
fill="#000000" stroke="none">
<path d="M565 1250 c-11 0 -26 -5 -32 -11 -8 -8 -7 -27 4 -67 9 -32 16 -82 18
-113 1 -31 8 -80 14 -110 7 -30 22 -72 34 -94 14 -27 22 -62 24 -112 2 -55 -2
-89 -18 -136 -11 -34 -25 -67 -29 -72 -5 -6 -18 -35 -30 -65 -14 -35 -36 -67
-62 -89 -32 -28 -51 -36 -103 -42 -35 -5 -78 -15 -97 -24 -18 -8 -55 -29 -83
-46 -27 -17 -65 -33 -85 -36 -19 -3 -40 -10 -46 -15 -6 -4 -14 -30 -18 -57 -3
-27 -4 -56 0 -65 3 -9 23 -21 44 -27 34 -10 43 -9 91 16 30 16 65 34 79 41 14
7 52 20 85 29 33 10 70 25 83 33 12 8 48 21 80 29 31 8 75 19 97 24 22 6 65
12 96 14 31 2 73 8 95 14 21 6 53 11 71 11 17 0 34 -4 37 -8 2 -4 -42 -51 -99
-105 -56 -54 -119 -109 -139 -122 -20 -14 -41 -25 -46 -25 -6 0 -10 -4 -10
-10 0 -6 35 -10 85 -10 71 0 94 4 133 24 27 14 54 32 61 40 8 9 28 16 45 16
17 0 58 14 91 30 33 16 66 30 73 30 7 0 26 7 42 15 16 9 36 29 45 45 8 16 15
51 15 78 0 35 -6 54 -20 70 -12 12 -27 22 -35 22 -9 0 -38 16 -65 35 -37 26
-60 35 -89 35 -22 0 -52 -5 -68 -12 -15 -6 -55 -13 -88 -15 -33 -2 -76 -5 -95
-6 -35 -2 -35 -2 -34 43 0 25 7 61 16 80 11 23 18 75 21 149 3 71 1 121 -6
132 -5 9 -7 23 -4 32 3 9 22 20 43 26 20 5 44 17 53 25 9 8 45 30 81 49 38 21
66 43 68 54 2 10 8 28 14 40 8 17 8 26 -2 38 -8 9 -31 25 -51 36 -21 10 -48
19 -60 19 -13 0 -39 -19 -66 -47 -24 -27 -54 -58 -66 -71 -12 -13 -30 -22 -42
-20 -16 2 -22 14 -31 68 -6 36 -19 81 -28 100 -10 19 -30 47 -44 63 -14 15
-35 27 -47 27z"/>
</g>
</svg>
