<?xml version="1.0" standalone="no"?>
<!DOCTYPE svg PUBLIC "-//W3C//DTD SVG 20010904//EN"
 "http://www.w3.org/TR/2001/REC-SVG-20010904/DTD/svg10.dtd">
<svg version="1.0" xmlns="http://www.w3.org/2000/svg"
 width="128.000000pt" height="128.000000pt" viewBox="0 0 128.000000 128.000000"
 preserveAspectRatio="xMidYMid meet">
<metadata>
Created by potrace 1.16, written by Peter Selinger 2001-2019
</metadata>
<g transform="translate(0.000000,128.000000) scale(0.100000,-0.100000)"
fill="#000000" stroke="none">
<path d="M748 1180 c-33 0 -50 -5 -56 -16 -5 -9 -7 -24 -5 -33 3 -12 -12 -27
-47 -50 -43 -28 -51 -38 -47 -57 3 -17 0 -24 -12 -24 -9 0 -44 -38 -78 -85
-35 -47 -63 -94 -63 -105 0 -11 5 -20 10 -20 6 0 10 -7 10 -15 0 -8 -7 -15
-15 -15 -8 0 -15 5 -15 10 0 6 -10 10 -23 10 -14 0 -26 9 -32 23 -7 15 -20 23
-42 25 -24 2 -33 9 -35 25 -3 19 -10 22 -56 25 -34 2 -64 -3 -85 -13 -28 -14
-33 -14 -43 0 -6 8 -18 15 -26 15 -9 0 -22 -7 -29 -16 -12 -15 -11 -19 9 -32
12 -8 22 -23 22 -33 0 -14 -7 -19 -30 -19 -24 0 -33 -6 -40 -26 -7 -17 -6 -32
1 -45 7 -14 19 -19 37 -18 15 2 33 0 40 -4 6 -5 12 -15 12 -23 0 -8 -7 -14
-15 -14 -9 0 -18 7 -21 15 -4 8 -12 15 -20 15 -10 0 -14 -12 -14 -38 0 -31 5
-41 30 -55 26 -16 34 -16 57 -5 17 8 37 32 51 63 17 36 21 54 14 65 -8 13 -4
19 19 27 19 8 29 18 29 32 0 12 6 21 14 21 8 0 17 -7 20 -16 3 -8 10 -43 16
-78 6 -39 7 -80 1 -107 -5 -24 -21 -82 -36 -129 -15 -47 -27 -97 -26 -112 1
-15 -3 -29 -9 -33 -5 -3 -10 -16 -10 -29 0 -12 10 -32 21 -45 15 -15 28 -21
43 -17 11 3 24 6 28 6 4 0 14 13 23 30 8 16 15 42 15 58 0 15 4 32 9 37 5 6
14 28 21 50 7 22 22 50 33 62 19 21 19 24 3 48 -12 18 -24 25 -43 23 -14 -2
-28 3 -30 10 -3 8 8 12 37 12 23 0 50 5 61 10 12 7 19 21 19 39 0 16 7 34 15
41 8 7 15 16 15 20 0 5 20 39 45 76 27 40 45 78 45 95 0 16 4 29 10 29 5 0 24
20 42 44 18 24 51 69 72 100 22 30 46 58 54 61 8 3 17 3 22 0 4 -3 11 -46 15
-95 4 -56 13 -96 21 -105 9 -9 27 -12 52 -9 20 3 57 10 80 15 39 9 48 7 85
-17 23 -14 54 -45 68 -68 15 -22 32 -60 39 -82 11 -38 10 -46 -15 -103 -27
-60 -27 -62 -9 -76 18 -14 18 -14 -7 -15 -15 0 -32 -7 -39 -15 -7 -8 -18 -15
-26 -15 -7 0 -22 13 -33 29 -12 16 -18 36 -15 45 3 8 -8 35 -26 61 -17 25 -43
50 -57 56 -13 5 -28 7 -32 4 -5 -2 -15 1 -24 8 -9 7 -27 32 -39 56 -16 30 -35
51 -61 64 -29 15 -41 17 -50 8 -6 -6 -10 -27 -9 -45 3 -28 -3 -39 -39 -70 -23
-20 -48 -36 -54 -36 -6 0 -28 -21 -50 -47 -36 -43 -39 -51 -40 -112 -1 -43 5
-81 17 -109 10 -24 16 -47 13 -52 -3 -4 9 -25 25 -45 17 -21 30 -42 30 -47 0
-5 -15 -25 -32 -45 -18 -19 -44 -46 -58 -59 -14 -13 -35 -33 -48 -44 -13 -11
-20 -25 -17 -30 3 -6 24 -10 46 -10 22 0 62 7 90 16 27 9 49 20 49 24 0 5 21
24 48 44 26 19 56 49 67 66 11 17 32 38 47 46 26 14 28 13 43 -16 9 -16 22
-30 30 -30 8 0 22 -11 31 -25 9 -14 26 -25 39 -25 12 0 30 9 40 20 10 11 41
31 70 44 41 19 64 39 109 99 31 41 63 78 71 81 10 3 15 19 15 45 0 22 4 42 9
45 5 4 10 39 10 79 1 41 -8 113 -21 169 -22 97 -22 97 -81 128 -33 17 -73 45
-89 61 -16 16 -39 29 -51 29 -12 0 -31 3 -43 6 -11 3 -26 20 -32 38 -7 18 -12
49 -12 68 0 20 -7 44 -16 52 -8 9 -25 16 -37 16 -12 1 -33 7 -47 15 -14 8 -46
14 -72 15z m-103 -530 c8 0 15 -9 15 -20 0 -11 -4 -20 -9 -20 -5 0 -11 -12
-14 -27 -3 -17 0 -34 9 -44 8 -9 11 -19 8 -22 -4 -4 4 -15 16 -25 13 -11 20
-24 16 -30 -4 -7 -15 -12 -24 -11 -9 0 -35 8 -57 18 -39 17 -39 18 -17 30 18
10 22 20 22 62 0 28 5 59 10 70 6 10 17 19 25 19z m197 -70 c12 0 30 -7 40
-17 11 -9 18 -30 18 -50 0 -28 -8 -42 -40 -70 -22 -20 -40 -40 -40 -45 0 -4 9
-8 21 -8 11 0 17 -5 14 -10 -4 -7 -13 -7 -25 0 -15 8 -24 6 -40 -10 -12 -12
-33 -20 -55 -20 -23 0 -35 5 -35 14 0 7 16 26 35 40 19 15 35 34 35 42 0 9
-11 14 -31 14 -24 0 -30 4 -27 18 3 13 13 17 43 17 35 0 40 3 43 24 3 20 1 23
-15 16 -10 -4 -25 -8 -33 -9 -8 0 -16 7 -18 17 -3 14 4 17 37 17 22 0 43 5 46
10 3 6 16 10 27 10z m123 -160 c8 0 15 -7 15 -15 0 -8 -7 -15 -15 -15 -8 0
-15 7 -15 15 0 8 7 15 15 15z m-72 -67 c4 -2 7 -8 7 -14 0 -5 -7 -9 -15 -9 -9
0 -18 -7 -21 -15 -4 -8 -15 -15 -25 -15 -10 0 -19 3 -19 8 1 4 15 16 33 28 18
11 35 19 40 17z"/>
</g>
</svg>
