<?xml version="1.0" standalone="no"?>
<!DOCTYPE svg PUBLIC "-//W3C//DTD SVG 20010904//EN"
 "http://www.w3.org/TR/2001/REC-SVG-20010904/DTD/svg10.dtd">
<svg version="1.0" xmlns="http://www.w3.org/2000/svg"
 width="128.000000pt" height="128.000000pt" viewBox="0 0 128.000000 128.000000"
 preserveAspectRatio="xMidYMid meet">
<metadata>
Created by potrace 1.16, written by Peter Selinger 2001-2019
</metadata>
<g transform="translate(0.000000,128.000000) scale(0.100000,-0.100000)"
fill="#000000" stroke="none">
<path d="M781 1280 c-28 0 -51 -4 -51 -10 0 -5 -6 -10 -14 -10 -8 0 -28 -12
-45 -26 -28 -23 -38 -26 -93 -22 -54 3 -63 1 -66 -15 -3 -13 6 -22 27 -30 27
-10 31 -15 26 -38 -4 -19 1 -34 20 -57 21 -26 25 -40 25 -98 0 -65 -1 -69 -37
-102 -21 -19 -47 -41 -58 -48 -11 -8 -27 -14 -37 -14 -12 0 -18 8 -18 23 0 12
-6 51 -14 87 -7 36 -23 83 -34 105 -11 22 -38 57 -60 79 -22 21 -45 35 -51 32
-6 -4 -11 -11 -11 -15 0 -5 17 -35 39 -67 24 -38 43 -82 51 -122 9 -44 11
-105 6 -207 -5 -114 -12 -160 -32 -221 -17 -54 -22 -80 -14 -88 7 -7 14 -6 24
4 7 8 23 41 36 72 16 43 27 58 41 58 14 0 21 -9 26 -30 3 -17 10 -33 15 -36 5
-3 22 -1 38 6 16 6 31 18 34 27 3 8 11 11 17 7 7 -4 17 0 24 9 10 14 15 15 30
3 17 -12 18 -19 8 -77 -6 -35 -18 -95 -27 -134 -9 -38 -26 -92 -38 -120 -12
-27 -42 -79 -65 -114 -23 -36 -40 -68 -37 -73 3 -4 9 -8 13 -8 5 0 29 18 55
41 25 22 46 45 46 50 0 4 14 30 30 56 16 26 30 56 30 68 0 12 4 25 8 30 5 6
17 36 27 69 12 42 16 78 13 127 -4 49 -2 72 8 80 10 8 23 0 54 -33 22 -24 58
-67 80 -97 22 -29 40 -61 40 -70 0 -9 16 -33 36 -52 35 -34 35 -34 56 -9 17
21 19 34 15 78 -3 29 -11 59 -17 67 -6 7 -13 51 -16 97 -3 46 -6 112 -7 148
-2 36 -5 70 -9 75 -3 6 -5 33 -4 60 2 28 1 54 -2 59 -3 4 -7 34 -9 65 -2 31
-4 83 -3 116 0 33 -5 87 -12 121 -8 37 -23 73 -40 92 -24 28 -33 32 -77 32z
m4 -40 c39 0 41 -1 52 -42 6 -24 14 -79 18 -123 3 -44 8 -120 11 -170 2 -49 7
-106 11 -125 3 -19 7 -55 8 -80 2 -25 4 -89 5 -143 2 -53 0 -100 -4 -104 -4
-4 -21 1 -39 10 -18 10 -51 33 -75 51 -31 25 -39 37 -30 43 7 4 24 14 37 20
13 7 29 13 37 13 7 0 18 9 24 19 6 12 6 22 1 26 -5 3 -12 1 -16 -5 -3 -5 -10
-10 -16 -10 -5 0 -9 7 -9 15 0 8 7 15 15 15 8 0 15 5 15 10 0 6 -15 10 -34 10
-24 0 -44 9 -64 28 -17 15 -32 36 -34 46 -2 13 15 38 48 73 28 30 57 65 64 78
7 13 10 30 8 37 -4 9 -25 13 -71 12 -66 -2 -66 -2 -73 41 -3 24 -3 61 1 83 4
25 2 42 -4 47 -6 3 -11 17 -11 30 0 15 15 36 43 59 33 28 51 36 82 36z m-185
-402 c9 -2 16 -17 18 -37 2 -18 -2 -47 -9 -63 -6 -16 -21 -34 -32 -40 -17 -9
-24 -6 -44 16 -13 15 -23 38 -23 51 0 17 12 32 38 50 20 14 44 24 52 23z m-96
-131 c25 -25 41 -48 39 -58 -3 -9 -21 -23 -42 -32 -21 -10 -43 -17 -50 -17 -9
0 -12 18 -10 63 2 34 7 67 11 74 6 8 22 -1 52 -30z"/>
</g>
</svg>
