<?xml version="1.0" standalone="no"?>
<!DOCTYPE svg PUBLIC "-//W3C//DTD SVG 20010904//EN"
 "http://www.w3.org/TR/2001/REC-SVG-20010904/DTD/svg10.dtd">
<svg version="1.0" xmlns="http://www.w3.org/2000/svg"
 width="128.000000pt" height="128.000000pt" viewBox="0 0 128.000000 128.000000"
 preserveAspectRatio="xMidYMid meet">
<metadata>
Created by potrace 1.16, written by Peter Selinger 2001-2019
</metadata>
<g transform="translate(0.000000,128.000000) scale(0.100000,-0.100000)"
fill="#000000" stroke="none">
<path d="M951 1280 c-23 0 -31 -6 -39 -28 -7 -21 -6 -35 4 -54 8 -15 21 -56
29 -92 11 -45 17 -142 20 -304 3 -130 8 -255 11 -277 3 -22 5 -69 5 -105 -1
-36 -1 -74 -2 -85 0 -11 4 -49 9 -85 5 -36 7 -71 4 -79 -3 -9 -15 -11 -39 -8
-18 3 -45 15 -60 26 -14 12 -37 21 -51 21 -14 0 -34 7 -44 16 -16 16 -18 15
-25 -2 -4 -11 -2 -19 6 -22 7 -2 32 -22 55 -43 22 -21 66 -59 96 -86 30 -26
65 -54 77 -60 13 -7 34 -13 49 -13 14 0 32 6 40 14 8 8 19 27 25 43 7 15 13
66 14 113 2 56 -2 94 -11 112 -8 15 -14 36 -14 47 0 11 -8 24 -17 30 -15 8
-15 11 -3 27 13 14 15 70 13 343 -2 179 -3 344 -4 366 -1 22 -5 45 -9 50 -4 6
-10 22 -14 38 -3 15 -10 27 -15 27 -5 0 -26 16 -45 35 -25 24 -46 35 -65 35z"/>
<path d="M843 1239 c-10 -1 -40 -8 -68 -16 -27 -8 -63 -17 -80 -20 -16 -3 -39
-13 -50 -23 -11 -9 -40 -22 -65 -28 -25 -6 -62 -14 -82 -17 -23 -4 -38 -11
-38 -20 0 -8 8 -18 18 -23 9 -5 44 -12 78 -15 61 -6 61 -6 147 53 48 33 97 60
110 60 13 0 28 5 35 12 7 7 12 18 12 25 0 7 -8 12 -17 12z"/>
<path d="M282 1070 c-5 0 -12 -23 -15 -52 -5 -42 -3 -58 15 -86 19 -31 20 -40
11 -86 -7 -33 -7 -57 -1 -69 7 -13 3 -51 -12 -124 -13 -64 -19 -119 -15 -142
3 -20 2 -48 -3 -61 -5 -14 -6 -35 -1 -46 6 -17 2 -27 -17 -45 -16 -15 -24 -34
-24 -54 0 -18 -9 -44 -20 -58 -11 -14 -32 -27 -46 -29 -24 -3 -25 -6 -28 -83
-2 -44 -1 -92 2 -107 4 -23 10 -28 33 -28 19 0 34 8 44 24 9 13 27 27 41 30
14 4 24 14 24 24 0 10 7 27 15 39 9 13 13 32 10 46 -4 14 3 48 16 83 13 36 21
78 20 106 -1 25 3 49 9 53 5 3 10 22 10 40 0 25 -6 37 -21 45 -11 7 -18 14
-14 18 3 3 18 6 33 7 26 0 27 1 28 65 0 36 5 91 12 122 6 32 9 105 7 163 -3
58 -11 120 -19 138 -8 21 -27 40 -49 50 -19 9 -39 17 -45 17z"/>
<path d="M652 1025 c-28 6 -33 3 -41 -17 -5 -13 -5 -30 1 -41 5 -9 6 -22 2
-29 -4 -6 -8 -29 -9 -51 -2 -28 -9 -46 -25 -59 -12 -9 -37 -22 -56 -27 -18 -5
-48 -19 -65 -32 -32 -22 -32 -22 -9 -41 17 -14 37 -19 70 -17 25 2 51 -1 58
-5 7 -4 12 -13 12 -20 0 -6 -16 -30 -36 -52 -20 -21 -43 -48 -50 -60 -10 -15
-11 -29 -4 -54 7 -25 6 -36 -2 -41 -7 -5 -20 -1 -30 8 -10 9 -18 22 -18 30 0
7 -4 13 -8 13 -5 0 -16 -6 -26 -13 -16 -12 -17 -20 -10 -53 9 -37 12 -39 53
-42 24 -2 49 2 54 7 6 6 24 11 39 11 24 0 28 -4 29 -27 1 -16 2 -44 3 -64 1
-20 9 -46 19 -56 9 -11 17 -23 17 -28 0 -5 -6 -16 -14 -24 -7 -9 -17 -52 -20
-97 -6 -70 -5 -83 12 -104 15 -19 22 -21 39 -12 11 6 27 30 36 54 8 24 18 66
21 94 4 28 3 54 -1 58 -4 4 -8 53 -9 109 -2 89 -5 104 -23 118 -12 10 -21 22
-21 28 0 6 3 11 8 12 4 0 16 2 27 4 11 2 43 9 70 15 28 6 62 9 78 6 15 -3 42
2 62 11 19 9 37 23 40 30 2 8 1 22 -4 31 -5 9 -26 30 -48 45 -21 16 -53 37
-71 48 -18 10 -35 26 -39 34 -3 9 7 34 23 56 23 33 26 45 18 67 -6 17 -20 30
-39 36 -17 5 -36 10 -42 12 -8 2 -13 20 -13 47 0 24 -6 50 -12 59 -7 9 -28 19
-46 23z m63 -335 c8 0 24 -15 35 -32 11 -18 19 -40 17 -48 -1 -10 -14 -15 -37
-15 -32 0 -35 3 -38 33 -2 19 -1 40 2 48 3 8 12 14 21 14z"/>
</g>
</svg>
