<?xml version="1.0" standalone="no"?>
<!DOCTYPE svg PUBLIC "-//W3C//DTD SVG 20010904//EN"
 "http://www.w3.org/TR/2001/REC-SVG-20010904/DTD/svg10.dtd">
<svg version="1.0" xmlns="http://www.w3.org/2000/svg"
 width="128.000000pt" height="128.000000pt" viewBox="0 0 128.000000 128.000000"
 preserveAspectRatio="xMidYMid meet">
<metadata>
Created by potrace 1.16, written by Peter Selinger 2001-2019
</metadata>
<g transform="translate(0.000000,128.000000) scale(0.100000,-0.100000)"
fill="#000000" stroke="none">
<path d="M8 1250 c-4 0 -8 -76 -8 -170 0 -93 2 -170 5 -170 2 0 11 12 18 28 8
15 20 60 26 100 10 58 11 84 1 120 -6 26 -17 57 -23 70 -6 12 -14 22 -19 22z"/>
<path d="M677 1238 c-26 -1 -49 -3 -52 -6 -3 -3 12 -23 32 -45 21 -22 49 -50
61 -63 13 -12 21 -28 17 -33 -3 -6 -10 -11 -15 -11 -6 0 -36 -12 -67 -28 -32
-15 -78 -34 -103 -41 -25 -8 -67 -21 -95 -30 -32 -11 -51 -23 -53 -35 -3 -15
1 -18 25 -13 15 3 46 11 68 17 22 6 52 14 67 17 25 5 27 2 33 -40 4 -25 4 -50
0 -56 -3 -6 -17 -11 -29 -11 -16 0 -26 7 -29 21 -3 12 -11 19 -18 17 -7 -2
-16 -11 -20 -19 -4 -8 -13 -34 -19 -59 -7 -25 -20 -63 -30 -85 -10 -22 -27
-61 -39 -87 -12 -26 -21 -50 -21 -52 0 -3 -10 -20 -22 -38 -13 -18 -35 -49
-50 -69 -16 -20 -28 -39 -28 -43 0 -4 -24 -39 -54 -79 -29 -40 -66 -84 -82
-99 -16 -15 -53 -39 -83 -55 -30 -16 -56 -34 -59 -42 -4 -11 3 -13 29 -7 19 3
58 21 88 39 30 17 80 55 111 84 31 29 74 80 95 115 22 35 47 71 56 81 9 10 24
39 34 65 9 26 21 56 25 67 5 11 19 52 31 90 11 39 26 82 32 97 9 22 18 27 44
26 28 -1 34 -7 52 -50 20 -48 20 -48 -20 -108 -21 -32 -39 -64 -39 -70 0 -6 6
-13 14 -16 7 -3 37 6 67 20 30 13 80 32 112 41 31 9 57 21 57 27 0 5 6 8 13 5
6 -2 20 0 29 4 9 5 48 11 85 14 38 2 76 7 85 10 9 4 19 14 23 23 3 8 0 22 -8
29 -7 8 -29 16 -48 19 -19 3 -46 1 -61 -5 -21 -8 -28 -17 -28 -37 0 -25 -1
-26 -24 -11 -22 15 -28 14 -77 -3 -30 -11 -64 -20 -76 -20 -13 0 -23 6 -23 14
0 8 19 25 43 39 23 14 57 43 75 66 33 41 33 41 138 41 77 0 115 4 140 16 19 9
34 22 34 29 0 7 -6 17 -12 23 -7 5 -30 15 -51 23 -33 12 -41 11 -64 -3 -26
-15 -29 -15 -55 4 -15 10 -28 26 -28 34 0 8 10 14 23 14 13 0 42 14 65 31 23
17 42 35 42 41 0 5 -4 17 -9 27 -6 10 -36 25 -68 35 -46 14 -64 15 -87 6 -20
-7 -26 -14 -19 -21 7 -7 7 -18 -1 -35 -6 -13 -17 -26 -25 -29 -7 -3 -20 0 -27
6 -8 6 -14 19 -14 28 0 9 5 22 11 28 7 7 8 24 4 42 -5 22 -19 39 -44 56 -27
16 -52 23 -84 23z m91 -168 c2 -6 1 -17 -2 -25 -3 -9 -12 -12 -21 -9 -14 6
-14 9 2 26 10 12 19 15 21 8z m5 -71 c53 1 67 -2 67 -14 0 -8 -4 -15 -10 -15
-5 0 -1 -13 8 -29 9 -16 14 -32 11 -35 -3 -3 -34 -8 -70 -10 -35 -2 -76 -7
-90 -11 -16 -4 -29 -2 -36 7 -5 7 -16 28 -23 46 -7 18 -10 35 -6 39 3 3 23 9
43 13 21 4 68 8 106 9z m15 -147 c6 -2 12 -8 12 -13 0 -5 -5 -9 -11 -9 -7 0
-32 -16 -55 -36 -24 -19 -48 -32 -54 -29 -5 3 -10 19 -10 35 0 16 4 32 10 35
5 3 29 9 52 14 24 4 49 6 56 3z"/>
<path d="M1271 870 c-6 0 -13 -19 -16 -42 -4 -24 -7 -90 -8 -148 -1 -58 2
-115 6 -127 5 -13 13 -23 18 -23 5 0 9 72 9 170 0 99 -4 170 -9 170z"/>
<path d="M1096 679 c-12 0 -52 -14 -90 -30 -38 -16 -81 -29 -95 -29 -14 0 -44
-7 -66 -14 -21 -8 -41 -19 -43 -25 -2 -6 3 -11 12 -11 10 0 13 -6 9 -17 -5
-12 0 -10 16 6 12 12 26 19 31 16 5 -3 7 -18 6 -33 -2 -15 -4 -29 -5 -31 0 -2
-7 2 -15 8 -11 9 -15 7 -19 -9 -3 -11 -10 -20 -17 -20 -6 0 -17 15 -25 33 -8
19 -21 40 -30 47 -13 11 -26 11 -73 1 -31 -7 -67 -15 -80 -17 -13 -3 -21 -10
-19 -17 3 -8 22 -11 56 -9 39 2 51 -1 51 -12 0 -7 -11 -21 -25 -30 -14 -9 -25
-26 -25 -38 0 -12 14 -36 31 -54 30 -31 30 -31 -13 -53 -25 -11 -54 -21 -66
-21 -16 0 -23 8 -27 28 -3 15 -13 41 -21 57 -8 17 -18 44 -22 60 -7 23 -14 30
-33 30 -24 0 -24 -1 -21 -80 2 -65 7 -86 27 -117 14 -21 25 -41 25 -46 0 -5
-9 -17 -20 -27 -11 -10 -20 -31 -20 -47 0 -16 7 -43 17 -61 9 -18 25 -44 36
-59 12 -16 25 -28 30 -28 4 0 19 13 33 29 13 16 50 47 82 68 31 21 68 44 81
51 19 10 31 10 52 1 15 -6 33 -8 38 -4 6 3 11 14 11 25 0 10 -7 20 -14 23 -11
4 -13 1 -9 -10 5 -13 1 -15 -23 -9 -16 4 -36 7 -44 8 -8 0 -33 -6 -55 -13 -22
-7 -69 -13 -105 -13 -63 -1 -65 0 -68 26 -3 22 4 32 37 52 21 14 52 28 68 32
15 3 33 13 40 22 8 10 22 13 41 9 16 -3 34 -1 41 6 8 8 19 8 44 0 17 -6 63
-17 100 -23 60 -11 70 -10 86 4 10 9 22 16 28 16 6 0 22 24 35 53 14 28 37 90
52 136 27 83 27 85 10 123 -12 27 -23 38 -38 37z m-96 -72 c10 -2 15 -14 15
-42 1 -22 -5 -54 -12 -72 -7 -18 -13 -46 -13 -62 0 -16 -6 -31 -14 -34 -7 -3
-27 3 -44 13 -16 10 -40 20 -53 22 -13 1 -25 11 -27 20 -2 12 5 19 22 24 15 3
35 18 46 32 19 24 19 26 4 44 -10 10 -15 20 -13 22 2 2 20 11 39 19 19 9 42
15 50 14z m-229 -130 c4 -5 2 -22 -4 -38 -8 -19 -18 -29 -33 -29 -11 0 -29 9
-39 20 -11 13 -15 24 -9 29 5 5 25 14 44 19 22 5 37 5 41 -1z m60 -64 c4 -12
12 -24 18 -28 6 -3 11 -10 11 -16 0 -5 -9 -9 -19 -9 -12 0 -21 9 -25 25 -4 14
-3 31 0 37 5 7 10 4 15 -9z m54 -13 c10 0 15 -7 13 -17 -2 -10 -8 -17 -13 -16
-6 1 -11 9 -13 17 -2 10 3 16 13 16z"/>
<path d="M1136 320 c-8 0 -17 -4 -20 -9 -4 -5 10 -19 29 -31 19 -12 35 -30 35
-40 0 -9 -19 -33 -42 -52 -24 -19 -80 -56 -125 -82 -46 -26 -83 -54 -83 -62 0
-8 10 -14 23 -14 12 1 47 7 77 14 30 8 71 20 90 27 19 7 51 25 70 41 19 15 47
38 62 51 15 12 27 30 27 40 1 10 -14 34 -31 54 -18 19 -47 42 -65 49 -18 8
-39 14 -47 14z"/>
</g>
</svg>
