<?xml version="1.0" standalone="no"?>
<!DOCTYPE svg PUBLIC "-//W3C//DTD SVG 20010904//EN"
 "http://www.w3.org/TR/2001/REC-SVG-20010904/DTD/svg10.dtd">
<svg version="1.0" xmlns="http://www.w3.org/2000/svg"
 width="128.000000pt" height="128.000000pt" viewBox="0 0 128.000000 128.000000"
 preserveAspectRatio="xMidYMid meet">
<metadata>
Created by potrace 1.16, written by Peter Selinger 2001-2019
</metadata>
<g transform="translate(0.000000,128.000000) scale(0.100000,-0.100000)"
fill="#000000" stroke="none">
<path d="M731 1052 c-25 16 -29 16 -50 2 -14 -11 -21 -23 -18 -35 3 -10 -2
-41 -10 -69 -10 -36 -22 -54 -41 -65 -15 -7 -54 -41 -86 -74 -33 -33 -67 -63
-78 -66 -10 -4 -18 -13 -18 -21 0 -8 6 -14 14 -14 8 0 18 5 21 10 3 6 17 10
30 10 13 0 27 4 30 10 3 5 21 17 40 26 35 16 35 16 75 -25 22 -22 40 -50 40
-61 0 -10 -6 -23 -13 -27 -8 -4 -16 -16 -20 -26 -5 -14 -14 -17 -39 -12 -20 3
-59 -2 -98 -14 -36 -11 -110 -38 -165 -61 -55 -23 -105 -46 -111 -51 -6 -5
-38 -18 -70 -28 -33 -11 -83 -23 -111 -27 -33 -4 -53 -11 -53 -19 0 -8 15 -17
33 -20 17 -4 38 -12 45 -18 9 -7 20 -7 37 1 13 6 40 8 59 5 27 -4 49 1 93 23
32 16 59 32 61 36 2 3 49 29 105 57 56 27 131 59 166 70 35 11 68 18 73 15 6
-4 8 -25 5 -47 -3 -21 -3 -46 0 -53 3 -8 18 -14 33 -14 15 0 32 6 38 13 6 7
10 33 9 57 -1 25 4 59 11 76 12 28 18 31 90 43 42 7 90 17 106 22 16 5 45 9
65 9 20 0 59 -6 88 -14 28 -8 54 -12 57 -9 2 2 14 -1 26 -7 16 -9 28 -8 50 2
24 10 30 19 30 45 0 24 -5 33 -17 35 -10 0 -23 1 -29 1 -8 0 -8 8 0 29 10 26
8 32 -13 49 -13 11 -28 16 -32 12 -4 -4 -9 -21 -11 -38 -2 -25 -7 -30 -26 -28
-13 2 -33 -2 -45 -9 -12 -6 -42 -13 -67 -15 -25 -2 -75 -13 -112 -23 -36 -11
-82 -20 -102 -20 -28 0 -36 4 -36 18 0 11 -17 25 -47 40 -27 12 -59 22 -72 22
-25 0 -25 0 5 28 16 16 50 34 77 42 26 7 47 18 47 25 0 7 9 15 20 18 11 3 20
12 20 21 0 9 -19 40 -41 69 -23 29 -53 60 -68 69z"/>
<path d="M1167 1020 c-7 0 -18 -5 -25 -12 -7 -7 -12 -22 -12 -34 0 -12 7 -25
16 -28 9 -3 20 -6 25 -6 5 0 9 18 9 40 0 26 -4 40 -13 40z"/>
<path d="M1210 970 c-5 0 -10 -3 -10 -7 0 -3 8 -24 18 -44 9 -21 20 -39 25
-39 4 0 7 11 7 24 0 13 -7 26 -15 30 -8 3 -15 12 -15 21 0 8 -4 15 -10 15z"/>
<path d="M1061 430 c-4 0 -11 -3 -14 -7 -4 -3 -7 -10 -7 -15 0 -4 4 -8 9 -8 5
0 11 7 15 15 3 8 2 15 -3 15z"/>
<path d="M877 365 c-64 0 -126 -3 -136 -7 -10 -3 -47 -9 -81 -13 -35 -3 -81
-15 -104 -25 -23 -11 -63 -24 -90 -30 -27 -6 -53 -13 -58 -16 -4 -3 -3 -14 2
-25 7 -11 21 -19 37 -19 14 0 43 -5 64 -12 31 -9 48 -8 79 2 22 7 47 21 56 32
10 10 22 18 29 18 6 0 20 8 31 19 12 10 44 24 73 30 28 6 54 11 56 11 3 0 5
-6 5 -14 0 -7 -20 -30 -45 -51 -24 -21 -42 -42 -38 -47 3 -6 10 -5 16 1 6 6
22 11 37 11 14 0 39 9 55 20 17 11 39 20 51 20 11 0 35 14 53 32 17 17 30 38
29 47 -3 14 -21 16 -121 16z"/>
</g>
</svg>
