<?xml version="1.0" standalone="no"?>
<!DOCTYPE svg PUBLIC "-//W3C//DTD SVG 20010904//EN"
 "http://www.w3.org/TR/2001/REC-SVG-20010904/DTD/svg10.dtd">
<svg version="1.0" xmlns="http://www.w3.org/2000/svg"
 width="128.000000pt" height="128.000000pt" viewBox="0 0 128.000000 128.000000"
 preserveAspectRatio="xMidYMid meet">
<metadata>
Created by potrace 1.16, written by Peter Selinger 2001-2019
</metadata>
<g transform="translate(0.000000,128.000000) scale(0.100000,-0.100000)"
fill="#000000" stroke="none">
<path d="M955 1019 c0 -1 -8 -3 -17 -6 -10 -2 -18 -8 -18 -13 0 -5 5 -20 11
-34 10 -21 8 -29 -10 -52 -11 -15 -21 -35 -21 -45 0 -12 -7 -19 -20 -19 -12 0
-32 -7 -46 -17 -22 -14 -27 -14 -39 -2 -7 8 -21 46 -30 84 -9 39 -22 76 -27
83 -6 6 -16 12 -23 12 -7 0 -24 -9 -39 -21 -18 -14 -24 -25 -17 -33 5 -6 17
-72 26 -146 10 -74 24 -148 33 -165 8 -16 21 -41 29 -55 8 -14 28 -53 46 -88
21 -41 39 -65 54 -68 12 -3 48 -3 80 0 32 3 65 6 73 6 8 0 54 -2 102 -6 70 -5
92 -3 111 9 13 8 30 29 37 46 7 17 16 31 21 31 5 0 9 9 9 20 0 11 -4 20 -10
20 -5 0 -28 38 -50 85 -22 46 -40 88 -40 92 0 5 -9 19 -20 33 -11 14 -20 34
-20 46 0 11 -8 28 -19 38 -16 15 -20 15 -31 1 -9 -11 -10 -26 -2 -62 6 -27 14
-69 17 -95 3 -25 13 -52 20 -58 8 -7 15 -16 15 -21 0 -4 -7 -15 -16 -24 -11
-10 -31 -15 -58 -14 -22 1 -64 -1 -92 -5 -42 -6 -59 -4 -93 13 -22 12 -48 32
-57 45 -9 15 -14 40 -12 63 3 32 8 40 38 54 19 9 66 31 104 50 37 19 81 49 97
67 16 18 29 40 29 48 0 9 -12 30 -26 47 -15 17 -43 37 -63 44 -20 7 -36 12
-36 12z"/>
<path d="M408 875 c-20 5 -29 2 -37 -13 -6 -12 -11 -43 -11 -69 0 -27 -5 -54
-12 -61 -7 -7 -19 -12 -29 -12 -9 0 -43 -18 -75 -40 -33 -22 -65 -40 -73 -40
-8 0 -38 -11 -68 -25 -29 -14 -53 -29 -53 -34 0 -5 6 -14 14 -20 8 -7 38 -21
68 -33 29 -11 66 -23 81 -25 19 -4 38 1 56 15 16 11 37 22 47 24 16 2 19 -4
22 -37 2 -36 -1 -42 -30 -61 -18 -11 -60 -37 -94 -57 -33 -20 -82 -45 -110
-55 -27 -11 -50 -27 -52 -36 -2 -10 6 -20 21 -25 14 -6 28 -14 31 -20 4 -5 21
-17 38 -25 29 -15 33 -15 52 3 12 10 28 22 37 27 9 5 51 41 94 79 43 39 109
98 147 133 38 34 74 62 78 62 5 0 14 9 20 20 9 16 8 22 -6 27 -10 4 -40 -7
-75 -26 -32 -18 -63 -29 -69 -26 -5 3 -10 20 -10 36 0 23 15 46 65 99 36 38
65 72 65 75 0 4 -5 15 -11 27 -6 11 -26 26 -45 34 -20 8 -34 21 -34 32 0 9 -4
22 -8 29 -4 6 -19 14 -34 18z"/>
<path d="M912 240 c-60 0 -83 -4 -93 -16 -10 -12 -10 -17 -1 -23 7 -4 45 -8
85 -9 39 -1 78 3 86 7 8 5 11 16 8 25 -5 13 -22 16 -85 16z"/>
</g>
</svg>
