<?xml version="1.0" standalone="no"?>
<!DOCTYPE svg PUBLIC "-//W3C//DTD SVG 20010904//EN"
 "http://www.w3.org/TR/2001/REC-SVG-20010904/DTD/svg10.dtd">
<svg version="1.0" xmlns="http://www.w3.org/2000/svg"
 width="128.000000pt" height="128.000000pt" viewBox="0 0 128.000000 128.000000"
 preserveAspectRatio="xMidYMid meet">
<metadata>
Created by potrace 1.16, written by Peter Selinger 2001-2019
</metadata>
<g transform="translate(0.000000,128.000000) scale(0.100000,-0.100000)"
fill="#000000" stroke="none">
<path d="M436 1280 c-7 0 -17 -8 -20 -17 -5 -11 7 -30 36 -60 43 -43 43 -43
-1 -131 -25 -48 -51 -95 -59 -105 -9 -9 -20 -26 -26 -36 -6 -11 -26 -45 -45
-76 -18 -31 -39 -59 -46 -62 -8 -2 -21 -21 -30 -41 -8 -20 -26 -51 -38 -69
-12 -17 -42 -64 -67 -104 -25 -40 -57 -88 -72 -107 -16 -19 -28 -42 -28 -50 0
-9 9 -35 21 -59 11 -24 27 -43 34 -43 7 0 17 6 23 13 5 6 13 23 17 37 4 14 20
43 35 65 15 22 29 47 32 55 3 8 35 59 71 112 36 54 68 107 72 118 3 11 14 20
24 20 10 0 43 -14 73 -30 31 -17 61 -37 68 -45 10 -12 7 -19 -17 -40 -15 -13
-47 -43 -71 -64 -37 -34 -43 -45 -40 -73 3 -29 7 -34 38 -40 19 -4 61 -12 92
-18 32 -6 60 -15 62 -19 3 -4 0 -24 -6 -44 -6 -20 -23 -51 -38 -69 -28 -33
-28 -33 -73 -10 -26 13 -53 20 -63 16 -11 -4 -38 -15 -61 -26 -24 -11 -43 -24
-43 -30 0 -5 4 -18 10 -28 5 -10 34 -32 65 -49 35 -20 55 -38 55 -50 0 -10 5
-32 11 -49 10 -28 15 -31 82 -42 40 -6 92 -15 117 -19 25 -5 73 -10 108 -10
62 -2 62 -2 62 32 0 28 -8 42 -41 72 -40 36 -43 37 -97 30 -32 -3 -66 -7 -77
-8 -17 -2 -20 3 -18 37 2 21 15 59 30 84 16 25 38 62 50 84 12 21 24 52 28 69
5 20 2 38 -9 53 -11 18 -31 26 -83 36 -37 7 -76 17 -85 22 -10 5 -18 15 -18
22 0 7 19 26 41 42 23 16 53 37 67 46 14 9 39 16 55 16 20 -1 36 7 48 21 14
17 16 27 9 42 -6 10 -21 25 -33 33 -12 7 -47 17 -77 20 -30 4 -75 14 -100 23
-25 9 -49 20 -54 24 -5 5 -4 20 3 36 6 16 30 48 51 71 22 23 48 42 58 42 11 0
34 -5 53 -11 19 -6 43 -14 54 -18 11 -5 43 -14 70 -20 28 -7 75 -27 105 -45
30 -18 83 -47 116 -63 34 -16 75 -40 90 -52 16 -12 54 -40 84 -62 30 -22 61
-38 69 -37 8 2 23 15 33 29 16 21 18 31 9 47 -6 11 -25 29 -43 41 -18 11 -66
41 -106 66 -41 25 -77 45 -82 45 -4 0 -13 6 -19 14 -7 8 -27 18 -44 21 -18 4
-42 13 -53 21 -12 7 -50 23 -85 35 -35 12 -87 23 -115 24 -27 1 -60 8 -73 14
-22 12 -22 17 -16 81 6 56 4 73 -11 95 -9 14 -33 35 -53 45 -20 10 -46 28 -58
39 -12 12 -29 21 -37 21z"/>
</g>
</svg>
