<?xml version="1.0" standalone="no"?>
<!DOCTYPE svg PUBLIC "-//W3C//DTD SVG 20010904//EN"
 "http://www.w3.org/TR/2001/REC-SVG-20010904/DTD/svg10.dtd">
<svg version="1.0" xmlns="http://www.w3.org/2000/svg"
 width="128.000000pt" height="128.000000pt" viewBox="0 0 128.000000 128.000000"
 preserveAspectRatio="xMidYMid meet">
<metadata>
Created by potrace 1.16, written by Peter Selinger 2001-2019
</metadata>
<g transform="translate(0.000000,128.000000) scale(0.100000,-0.100000)"
fill="#000000" stroke="none">
<path d="M490 1271 c-3 3 -13 -2 -23 -12 -13 -12 -20 -38 -24 -81 -3 -35 -14
-77 -24 -93 -10 -17 -18 -40 -18 -50 -1 -11 -1 -38 -1 -60 0 -23 -8 -48 -18
-60 -10 -11 -24 -38 -31 -60 -8 -22 -25 -56 -37 -75 -13 -19 -24 -40 -24 -47
0 -7 -4 -13 -9 -13 -5 0 -23 -19 -40 -42 -18 -24 -29 -49 -26 -59 4 -12 -5
-23 -30 -38 -20 -11 -42 -21 -50 -21 -8 0 -19 -9 -25 -20 -6 -12 -8 -29 -5
-39 3 -10 16 -21 28 -25 12 -3 32 1 44 9 12 8 30 26 40 40 10 15 33 43 52 63
18 20 46 63 62 95 17 32 36 60 44 63 8 4 34 0 57 -7 24 -8 43 -19 43 -26 0 -6
-19 -26 -42 -45 -23 -18 -53 -50 -67 -71 -14 -21 -26 -44 -26 -52 0 -8 9 -20
20 -28 11 -8 18 -21 15 -29 -5 -11 4 -14 42 -12 26 1 64 8 83 16 19 9 52 18
72 21 27 4 42 1 53 -10 9 -8 15 -25 13 -37 -1 -11 1 -27 6 -34 5 -8 2 -20 -8
-31 -9 -10 -16 -29 -16 -44 0 -14 5 -29 10 -32 6 -3 10 -10 10 -16 0 -5 -14
-9 -30 -9 -20 0 -39 9 -55 25 -14 16 -26 22 -30 15 -3 -5 -28 -10 -54 -10 -27
0 -65 -7 -85 -15 -20 -9 -42 -27 -49 -42 -10 -24 -8 -28 26 -57 20 -17 37 -38
37 -47 0 -9 -6 -22 -13 -28 -8 -6 -20 -29 -27 -51 -12 -36 -12 -43 4 -58 13
-13 32 -17 89 -15 39 1 77 -3 84 -9 9 -7 26 -7 58 2 24 7 59 9 77 6 18 -4 41
-8 52 -9 10 -1 25 8 33 19 12 19 12 24 -3 39 -15 14 -29 16 -78 12 -34 -3 -81
-2 -106 1 -29 5 -46 13 -48 23 -1 9 17 29 45 49 35 26 43 36 30 38 -9 2 -17
12 -17 22 0 14 9 20 32 22 31 3 33 6 43 60 6 37 17 63 30 72 17 12 18 18 8 35
-10 15 -9 22 1 30 10 8 11 23 4 58 -5 27 -10 64 -11 83 -2 33 -4 35 -36 32
-18 -1 -47 -12 -64 -24 -18 -13 -51 -23 -83 -26 -45 -4 -55 -1 -60 13 -5 13 4
28 33 54 22 20 63 56 92 80 49 41 52 45 49 85 -2 33 -7 42 -24 44 -11 2 -27
-4 -34 -13 -8 -10 -30 -15 -71 -15 -39 0 -63 5 -73 16 -9 8 -16 19 -16 23 0 5
7 15 17 22 9 8 24 32 34 54 9 22 20 61 24 88 4 26 9 47 11 47 3 0 27 -17 54
-37 27 -21 65 -48 84 -60 20 -12 56 -25 81 -28 41 -7 45 -5 45 14 0 11 -10 26
-22 32 -13 7 -28 20 -35 29 -6 9 -30 22 -53 29 -34 10 -39 15 -30 26 7 8 9 19
5 25 -3 5 -20 10 -36 10 -21 0 -32 7 -40 24 -9 20 -7 29 12 55 18 25 21 36 13
49 -6 9 -24 24 -40 32 -16 8 -31 18 -34 21z"/>
<path d="M833 880 c-6 0 -15 -4 -18 -10 -3 -5 -3 -14 0 -20 3 -5 13 -10 22
-10 8 0 27 -13 41 -28 16 -17 51 -36 85 -47 32 -10 60 -22 63 -26 3 -5 16 -9
28 -9 13 0 29 -7 36 -15 7 -8 23 -15 37 -15 13 0 26 7 29 15 3 8 1 30 -6 50
-7 22 -18 35 -29 35 -9 0 -22 5 -28 11 -6 6 -40 12 -76 13 -39 1 -72 8 -82 16
-10 8 -34 20 -54 27 -20 7 -41 13 -48 13z"/>
</g>
</svg>
