<?xml version="1.0" standalone="no"?>
<!DOCTYPE svg PUBLIC "-//W3C//DTD SVG 20010904//EN"
 "http://www.w3.org/TR/2001/REC-SVG-20010904/DTD/svg10.dtd">
<svg version="1.0" xmlns="http://www.w3.org/2000/svg"
 width="128.000000pt" height="128.000000pt" viewBox="0 0 128.000000 128.000000"
 preserveAspectRatio="xMidYMid meet">
<metadata>
Created by potrace 1.16, written by Peter Selinger 2001-2019
</metadata>
<g transform="translate(0.000000,128.000000) scale(0.100000,-0.100000)"
fill="#000000" stroke="none">
<path d="M805 1280 c-10 0 -15 -10 -15 -28 0 -17 9 -37 21 -48 19 -17 21 -26
15 -94 -4 -41 -6 -149 -6 -240 0 -91 -3 -170 -7 -176 -4 -7 -29 -22 -55 -34
-27 -12 -48 -28 -48 -36 0 -8 9 -14 20 -14 10 0 31 5 45 12 17 8 29 8 36 1 5
-5 7 -16 4 -24 -3 -8 -24 -25 -47 -39 -23 -14 -54 -36 -70 -48 -18 -16 -28
-33 -28 -51 0 -15 9 -36 20 -46 11 -10 20 -23 20 -30 0 -6 11 -33 25 -60 19
-38 23 -58 18 -91 -3 -23 0 -58 6 -77 7 -20 20 -38 29 -41 9 -2 50 -12 91 -22
65 -15 77 -16 100 -3 14 8 27 24 29 35 2 11 -6 28 -16 37 -11 10 -36 21 -57
24 -26 4 -40 2 -46 -8 -7 -12 -9 -11 -9 2 0 9 -9 24 -20 34 -14 13 -18 25 -14
39 4 12 11 24 17 28 6 3 29 9 53 13 23 3 48 13 54 20 7 9 30 15 55 15 36 0 49
6 87 42 25 24 56 61 68 83 19 32 24 55 24 116 1 48 -5 86 -13 103 -8 15 -25
29 -38 32 -13 4 -27 14 -32 23 -5 9 -22 17 -38 18 -15 2 -39 4 -53 5 -14 2
-51 -7 -84 -20 -32 -13 -65 -21 -73 -17 -12 4 -14 19 -10 78 3 39 10 140 17
222 6 83 9 164 5 181 -3 17 -19 43 -35 58 -16 14 -37 26 -45 26z m282 -589
c12 -1 30 -13 41 -25 11 -11 22 -37 24 -56 3 -22 -2 -51 -14 -79 -10 -24 -37
-66 -59 -92 -22 -27 -60 -58 -84 -70 -24 -12 -51 -19 -59 -16 -9 4 -16 11 -16
16 0 5 6 16 14 23 7 8 23 33 35 56 11 23 21 59 21 81 0 35 -3 40 -31 50 -22 8
-35 7 -50 -2 -17 -10 -23 -9 -35 7 -8 11 -14 34 -14 51 0 23 6 35 23 43 12 7
58 13 102 14 44 2 90 1 102 -1z m-269 -162 c9 1 10 -4 3 -17 -5 -9 -7 -29 -4
-44 3 -15 2 -39 -1 -53 -4 -16 -13 -25 -25 -25 -10 0 -33 16 -50 36 -22 25
-29 40 -23 51 5 8 26 23 48 33 21 10 45 19 52 19z"/>
<path d="M264 1082 c-11 10 -23 15 -27 12 -3 -3 0 -16 6 -28 7 -11 19 -30 28
-41 9 -11 27 -39 40 -63 24 -44 24 -44 0 -61 -16 -13 -22 -24 -17 -36 4 -12
12 -15 24 -10 9 4 34 8 55 10 21 1 46 10 57 20 11 10 20 28 20 39 0 12 -4 26
-8 31 -4 6 -26 23 -49 38 -24 15 -46 27 -51 27 -4 0 -19 10 -33 22 -13 12 -33
30 -45 40z"/>
<path d="M513 665 c-17 4 -31 -3 -60 -29 -38 -35 -38 -35 -11 -36 17 0 31 -8
38 -21 7 -12 11 -68 10 -137 -1 -64 -1 -143 0 -175 1 -43 8 -67 27 -97 15 -22
32 -40 38 -40 6 0 19 6 29 13 14 10 17 22 13 43 -3 16 -12 72 -21 124 -9 52
-16 127 -16 165 0 39 5 77 10 85 6 9 21 14 42 12 24 -2 39 3 52 17 19 21 19
21 -8 21 -15 0 -37 -5 -48 -11 -16 -9 -23 -8 -29 3 -5 8 -16 24 -26 36 -10 11
-28 23 -40 27z"/>
<path d="M315 600 c-24 0 -44 -12 -85 -50 -35 -33 -62 -50 -75 -48 -11 2 -30
21 -43 46 -13 23 -28 42 -33 42 -5 0 -9 -17 -9 -39 0 -21 7 -55 15 -74 8 -20
25 -43 37 -51 12 -9 30 -16 39 -16 9 0 28 9 43 21 18 14 34 19 51 15 14 -4 25
-11 25 -17 0 -5 -9 -27 -19 -48 -11 -20 -36 -57 -55 -80 -20 -24 -36 -48 -36
-54 0 -7 -11 -25 -25 -41 -16 -18 -25 -41 -25 -62 0 -18 5 -36 12 -40 7 -5 25
8 45 31 19 23 37 35 42 29 4 -5 13 -22 18 -39 6 -16 17 -51 23 -77 9 -34 18
-48 30 -48 9 0 29 17 44 38 20 30 26 50 26 93 0 29 5 86 11 124 6 39 11 123
11 188 1 99 -2 121 -17 137 -11 12 -31 20 -50 20z m-24 -80 c5 0 9 -4 9 -8 0
-5 -3 -12 -6 -15 -4 -4 -11 -4 -16 -1 -4 3 -6 10 -3 15 4 5 10 9 16 9z m26
-167 c7 -3 13 -8 13 -12 0 -3 -7 -42 -15 -86 -7 -44 -17 -88 -20 -97 -4 -10
-11 -18 -15 -18 -4 0 -19 9 -34 21 -14 11 -26 26 -26 34 0 7 14 44 32 81 17
38 36 72 41 76 6 3 16 4 24 1z"/>
<path d="M1200 230 c-5 0 -18 -10 -30 -22 -11 -12 -20 -32 -20 -45 0 -12 9
-27 19 -32 13 -8 22 -7 29 2 6 6 11 26 12 42 1 17 2 36 1 43 -1 6 -5 12 -11
12z"/>
<path d="M560 40 c-10 0 -24 -9 -30 -20 -10 -19 -8 -20 70 -20 52 0 79 4 75
10 -3 6 -26 10 -51 10 -24 0 -44 5 -44 10 0 6 -9 10 -20 10z"/>
</g>
</svg>
