<?xml version="1.0" standalone="no"?>
<!DOCTYPE svg PUBLIC "-//W3C//DTD SVG 20010904//EN"
 "http://www.w3.org/TR/2001/REC-SVG-20010904/DTD/svg10.dtd">
<svg version="1.0" xmlns="http://www.w3.org/2000/svg"
 width="128.000000pt" height="128.000000pt" viewBox="0 0 128.000000 128.000000"
 preserveAspectRatio="xMidYMid meet">
<metadata>
Created by potrace 1.16, written by Peter Selinger 2001-2019
</metadata>
<g transform="translate(0.000000,128.000000) scale(0.100000,-0.100000)"
fill="#000000" stroke="none">
<path d="M550 1280 c-18 0 -19 -3 -10 -21 6 -11 18 -23 26 -26 8 -3 14 -15 14
-28 0 -12 -12 -38 -27 -57 -16 -19 -50 -55 -78 -81 -27 -26 -53 -47 -57 -47
-5 0 -8 -7 -8 -15 0 -8 9 -19 20 -25 17 -9 27 -3 73 42 30 29 84 78 120 108
55 46 67 60 67 85 -1 17 -7 38 -14 48 -8 10 -26 17 -45 17 -17 0 -31 -4 -31
-10 0 -5 -7 -10 -15 -10 -8 0 -15 5 -15 10 0 6 -9 10 -20 10z"/>
<path d="M1065 1175 c-18 23 -22 24 -39 12 -16 -12 -17 -16 -5 -34 7 -12 30
-32 51 -45 26 -16 38 -30 38 -46 0 -13 -10 -38 -22 -55 -11 -18 -35 -46 -51
-64 -29 -31 -29 -32 -14 -70 13 -35 18 -38 58 -41 27 -2 52 3 64 12 15 11 17
18 9 26 -9 9 -17 9 -32 1 -15 -8 -23 -8 -28 1 -4 7 8 23 29 41 21 16 37 35 37
43 0 8 -5 23 -12 34 -10 15 -10 26 0 53 7 18 12 61 12 95 0 45 -4 62 -13 62
-8 0 -19 -11 -25 -25 -6 -14 -17 -25 -24 -25 -7 0 -21 11 -33 25z"/>
<path d="M761 1099 c-47 0 -64 -6 -106 -35 -27 -20 -71 -46 -97 -59 -26 -14
-50 -30 -54 -36 -3 -6 -1 -15 7 -19 7 -5 17 -6 21 -4 5 3 17 2 28 -1 17 -5 20
-15 20 -70 0 -45 -5 -69 -17 -83 -10 -12 -49 -33 -87 -47 -37 -14 -70 -25 -72
-25 -2 0 -4 33 -4 73 0 55 -5 82 -22 114 -13 24 -29 45 -36 48 -7 2 -22 -1
-32 -8 -11 -6 -20 -19 -20 -27 0 -8 8 -35 17 -60 13 -36 16 -78 14 -210 -1
-91 2 -179 7 -196 6 -19 6 -37 0 -47 -5 -10 -27 -26 -48 -37 -22 -11 -53 -20
-69 -20 -23 0 -30 5 -33 22 -2 13 -10 23 -18 23 -9 0 -14 -7 -12 -19 2 -10 -6
-27 -17 -38 -12 -10 -21 -26 -21 -35 0 -9 12 -30 27 -45 15 -15 36 -28 48 -28
12 0 29 8 39 19 9 10 36 28 61 41 24 12 54 33 66 46 12 13 31 24 42 24 11 0
41 8 68 17 39 14 51 15 61 5 10 -10 8 -20 -7 -50 -11 -20 -38 -62 -61 -92 -23
-30 -56 -68 -73 -84 -20 -20 -31 -39 -31 -58 0 -18 8 -33 24 -44 16 -10 31
-12 40 -7 8 4 38 40 66 78 28 39 59 82 68 97 9 15 22 30 30 33 8 3 39 -11 70
-30 40 -24 80 -63 132 -130 55 -69 81 -95 98 -95 18 0 22 5 22 31 0 17 -12 46
-27 67 -15 20 -45 58 -66 84 -22 26 -56 58 -76 71 -20 14 -56 28 -78 32 -23 3
-47 13 -53 20 -8 10 -8 25 1 57 7 24 16 47 20 52 5 5 25 15 46 23 21 7 47 13
59 13 11 0 35 -16 54 -35 19 -19 43 -35 55 -35 13 0 38 18 62 45 33 37 46 45
74 44 19 0 59 -6 89 -12 48 -11 57 -16 72 -47 12 -27 18 -31 23 -19 3 9 5 43
3 75 -3 59 -3 59 -50 82 -44 22 -49 23 -80 8 -18 -8 -53 -17 -78 -18 -45 -3
-45 -3 -40 97 2 55 5 145 4 200 0 77 -4 112 -20 153 -12 29 -34 66 -49 82 -25
26 -35 30 -84 29z m15 -39 c6 0 16 -12 22 -27 6 -16 18 -53 26 -83 11 -38 13
-70 8 -105 -8 -50 -8 -50 -52 -47 -24 1 -56 -2 -71 -8 -20 -9 -33 -9 -47 -1
-15 8 -22 25 -26 63 -3 29 -8 76 -10 105 -3 37 0 56 10 64 8 6 27 9 42 6 19
-4 38 1 58 14 16 10 34 19 40 19z m-33 -321 c64 1 68 0 77 -25 6 -14 10 -43
10 -63 -1 -20 2 -50 5 -67 5 -21 2 -34 -9 -43 -8 -7 -27 -11 -43 -9 -19 2 -29
10 -31 23 -2 11 -8 32 -14 48 -6 17 -21 30 -37 34 -14 3 -32 10 -38 16 -7 5
-13 24 -13 42 0 19 6 36 13 38 6 3 42 6 80 6z m-312 -39 c16 0 29 -4 29 -9 0
-5 -14 -17 -32 -25 -20 -11 -35 -13 -41 -7 -7 7 -6 16 3 26 7 8 25 15 41 15z
m63 -23 c6 -2 11 -8 14 -15 2 -6 -25 -39 -59 -72 -37 -35 -67 -56 -72 -51 -5
5 -6 23 -2 40 4 17 10 31 14 31 5 0 28 16 52 35 24 19 48 33 53 32z m69 -19
c7 -3 13 -26 15 -55 2 -35 -1 -53 -13 -63 -8 -7 -15 -23 -15 -35 0 -13 -8 -32
-17 -44 -12 -14 -40 -26 -83 -35 -36 -7 -71 -11 -78 -8 -7 2 -11 11 -8 19 3 8
6 23 6 33 0 12 13 22 42 32 29 9 52 26 73 54 16 23 38 56 48 73 9 18 23 31 30
29z m94 -48 c4 0 22 -17 40 -37 18 -21 33 -42 33 -48 0 -5 -12 -16 -27 -22
-15 -7 -31 -13 -36 -13 -6 0 -16 8 -23 18 -7 9 -14 27 -14 40 0 13 5 32 10 43
6 10 14 19 17 19z"/>
<path d="M741 969 c-16 9 -21 4 -37 -32 -10 -23 -24 -50 -32 -59 -8 -10 -12
-24 -9 -33 4 -8 10 -15 14 -15 4 0 30 20 56 45 42 38 47 47 37 64 -6 11 -19
25 -29 30z"/>
<path d="M497 865 c-34 14 -38 14 -43 0 -4 -9 3 -26 16 -41 13 -13 31 -24 41
-24 10 0 21 9 24 21 4 11 5 22 3 24 -2 3 -21 11 -41 20z"/>
<path d="M152 498 c-7 2 -12 -5 -12 -15 0 -10 7 -27 15 -37 14 -18 15 -18 21
-1 4 10 3 25 -3 33 -5 9 -15 18 -21 20z"/>
</g>
</svg>
