<?xml version="1.0" standalone="no"?>
<!DOCTYPE svg PUBLIC "-//W3C//DTD SVG 20010904//EN"
 "http://www.w3.org/TR/2001/REC-SVG-20010904/DTD/svg10.dtd">
<svg version="1.0" xmlns="http://www.w3.org/2000/svg"
 width="128.000000pt" height="128.000000pt" viewBox="0 0 128.000000 128.000000"
 preserveAspectRatio="xMidYMid meet">
<metadata>
Created by potrace 1.16, written by Peter Selinger 2001-2019
</metadata>
<g transform="translate(0.000000,128.000000) scale(0.100000,-0.100000)"
fill="#000000" stroke="none">
<path d="M591 1279 c-3 0 -14 -9 -24 -19 -18 -18 -18 -19 1 -38 11 -11 22 -28
24 -38 1 -9 18 -26 37 -36 26 -15 45 -18 77 -13 24 3 45 13 48 21 3 9 6 24 6
34 0 11 -10 22 -22 26 -13 4 -50 20 -82 35 -33 16 -62 29 -65 28z"/>
<path d="M799 1110 c-6 0 -33 -22 -60 -50 -26 -27 -60 -52 -76 -56 -15 -4 -48
-16 -73 -27 -25 -11 -56 -28 -70 -37 -14 -10 -39 -20 -55 -22 -22 -2 -31 -9
-33 -26 -2 -13 3 -25 12 -28 9 -4 30 -1 46 6 24 10 33 10 45 0 10 -9 12 -17 5
-30 -5 -10 -12 -47 -15 -83 -3 -36 -12 -78 -20 -94 -8 -15 -15 -40 -15 -55 0
-15 -4 -30 -10 -33 -5 -3 -18 -25 -28 -48 -11 -23 -29 -51 -41 -61 -11 -11
-21 -23 -21 -28 0 -5 -15 -28 -34 -51 -18 -23 -45 -62 -60 -87 -15 -25 -45
-67 -66 -94 -21 -27 -42 -61 -45 -74 -3 -14 -2 -29 3 -34 5 -5 25 -9 45 -10
30 -1 44 6 77 38 23 21 53 58 67 82 14 23 30 45 37 50 7 4 22 28 34 53 12 25
22 53 22 62 0 9 5 19 10 22 6 4 8 14 6 23 -3 10 -2 23 3 31 5 8 24 14 42 13
18 0 39 4 45 9 6 5 35 16 63 23 51 13 51 13 51 -28 0 -23 -4 -56 -9 -74 -6
-18 -31 -67 -56 -110 -26 -42 -52 -86 -58 -96 -7 -10 -42 -51 -80 -90 -37 -39
-66 -75 -64 -81 2 -5 34 -10 72 -10 66 0 68 1 85 32 10 18 23 40 30 48 11 14
17 11 45 -20 29 -31 38 -35 83 -35 43 0 56 5 93 36 24 20 50 45 57 56 8 10 11
25 8 33 -2 7 6 20 19 29 15 10 30 36 40 68 8 28 15 58 15 65 0 7 -18 33 -41
58 -22 24 -51 47 -62 51 -12 4 -39 18 -59 31 -21 13 -38 30 -38 38 0 8 16 22
35 31 27 13 49 15 93 9 31 -3 78 -7 104 -7 26 -1 54 4 62 12 9 7 16 20 16 30
0 10 -10 24 -22 32 -13 8 -45 23 -71 33 -47 18 -48 18 -70 -3 -13 -12 -43 -25
-68 -28 -44 -6 -46 -5 -72 35 -15 22 -27 46 -27 53 0 7 16 28 35 47 19 19 35
37 35 42 0 4 -4 10 -10 14 -5 3 -7 12 -4 19 3 7 -2 19 -11 26 -8 7 -15 18 -15
25 0 7 27 39 60 71 33 33 60 66 60 74 0 8 -20 34 -45 58 -24 23 -49 42 -56 42z
m-76 -150 c9 0 17 -7 17 -16 0 -9 -10 -27 -22 -40 -13 -13 -31 -33 -40 -44
-10 -11 -27 -20 -38 -20 -16 0 -19 6 -18 35 1 31 7 39 42 60 23 14 49 25 59
25z m-84 -252 c28 0 57 -5 67 -13 18 -13 18 -15 -3 -36 -13 -13 -35 -22 -54
-23 -18 -1 -34 -7 -36 -13 -3 -8 15 -21 42 -33 27 -12 45 -25 43 -32 -3 -7
-27 -18 -55 -24 -28 -6 -55 -14 -61 -18 -5 -3 -25 -3 -43 1 -28 5 -30 7 -12
14 13 5 24 23 32 53 6 24 11 58 11 73 0 16 5 34 10 39 6 6 32 11 59 12z m152
-328 c5 0 22 -8 37 -17 15 -10 30 -22 34 -28 4 -5 8 -22 8 -36 0 -14 -9 -44
-20 -68 -12 -23 -39 -60 -62 -81 -22 -22 -48 -40 -57 -40 -9 0 -27 7 -39 16
-12 8 -22 21 -22 29 0 8 14 34 30 58 17 25 30 48 30 52 0 5 11 32 25 62 14 29
30 53 36 53z"/>
</g>
</svg>
