<?xml version="1.0" standalone="no"?>
<!DOCTYPE svg PUBLIC "-//W3C//DTD SVG 20010904//EN"
 "http://www.w3.org/TR/2001/REC-SVG-20010904/DTD/svg10.dtd">
<svg version="1.0" xmlns="http://www.w3.org/2000/svg"
 width="128.000000pt" height="128.000000pt" viewBox="0 0 128.000000 128.000000"
 preserveAspectRatio="xMidYMid meet">
<metadata>
Created by potrace 1.16, written by Peter Selinger 2001-2019
</metadata>
<g transform="translate(0.000000,128.000000) scale(0.100000,-0.100000)"
fill="#000000" stroke="none">
<path d="M1168 1200 c-14 0 -18 -8 -18 -38 0 -33 8 -45 58 -95 32 -31 61 -57
65 -57 4 0 7 27 7 61 0 54 -3 64 -27 83 -14 11 -36 26 -47 33 -12 7 -29 12
-38 13z"/>
<path d="M706 1186 c-9 3 -18 0 -20 -7 -2 -8 -7 -32 -10 -54 -3 -22 -26 -81
-51 -132 -29 -56 -57 -98 -73 -109 -15 -9 -35 -26 -44 -38 -10 -11 -18 -36
-18 -54 0 -19 6 -35 14 -38 8 -3 47 19 88 48 40 30 87 60 105 67 17 7 37 10
42 6 6 -3 11 -12 11 -19 0 -6 -23 -57 -52 -111 -28 -55 -65 -120 -81 -145 -17
-25 -39 -51 -49 -58 -10 -7 -18 -25 -18 -40 0 -15 -7 -38 -16 -50 -11 -16 -13
-34 -9 -67 4 -24 13 -52 20 -61 6 -10 18 -15 26 -12 8 3 23 23 34 44 10 22 36
64 56 95 21 30 58 76 85 102 26 26 56 49 68 53 12 3 49 19 82 35 34 16 69 29
78 29 9 0 32 7 51 14 19 8 35 22 35 31 0 12 3 13 13 5 6 -6 21 -17 31 -24 14
-9 17 -20 13 -38 -4 -13 -19 -42 -35 -64 -16 -22 -57 -56 -95 -78 -53 -31 -71
-47 -88 -84 -20 -40 -21 -48 -8 -70 8 -14 22 -30 31 -36 12 -7 31 -6 67 3 27
7 80 16 118 19 53 6 68 11 71 24 2 10 -9 29 -25 43 -27 24 -28 25 -9 40 11 8
29 15 41 15 12 0 30 6 40 14 16 12 17 16 6 30 -12 14 -10 26 8 82 22 64 22 65
3 102 -11 22 -37 47 -65 64 -39 23 -51 25 -79 17 -18 -5 -47 -6 -65 -3 -27 5
-40 0 -75 -28 -24 -19 -74 -54 -111 -78 -53 -33 -71 -40 -80 -31 -9 9 -3 28
25 84 21 40 67 104 103 144 36 39 65 78 65 85 0 8 -10 24 -22 35 -13 12 -42
29 -65 38 -40 16 -42 16 -86 -8 -28 -16 -49 -22 -58 -17 -11 7 -10 20 5 77 9
38 14 76 11 86 -4 9 -11 17 -15 17 -5 0 -15 3 -24 6z"/>
<path d="M111 1080 c-6 0 -12 -4 -16 -9 -3 -5 -1 -12 3 -15 5 -3 12 -3 16 1 3
3 6 10 6 15 0 4 -4 8 -9 8z"/>
<path d="M84 1040 c-13 0 -24 -6 -24 -12 0 -7 9 -26 20 -43 11 -16 20 -44 20
-62 0 -18 -10 -56 -22 -85 -18 -44 -22 -76 -23 -188 -2 -98 -8 -159 -24 -223
-11 -48 -21 -118 -21 -155 0 -58 5 -74 33 -118 17 -29 47 -64 65 -79 26 -22
35 -25 47 -15 8 6 19 28 26 48 6 20 32 77 58 127 26 50 55 115 65 145 10 30
27 75 38 100 10 25 23 54 29 65 5 11 16 45 25 75 9 30 18 73 21 96 3 30 0 44
-12 54 -15 13 -20 12 -36 -9 -11 -13 -19 -30 -19 -38 0 -7 -9 -31 -20 -53 -11
-21 -31 -73 -45 -116 -14 -42 -25 -82 -25 -89 0 -7 -20 -53 -45 -101 -24 -49
-55 -102 -69 -119 -21 -25 -28 -28 -43 -19 -15 10 -18 24 -16 101 1 72 7 103
28 154 16 37 29 92 32 131 3 38 1 80 -6 99 -9 26 -8 37 4 56 9 12 21 23 28 23
7 0 36 24 65 54 29 29 52 59 52 67 0 7 -24 35 -52 61 -40 36 -60 48 -85 48
-17 0 -35 5 -38 10 -3 6 -17 10 -31 10z"/>
<path d="M1270 900 c-6 0 -13 -7 -16 -15 -3 -8 -3 -19 1 -25 3 -5 10 -10 16
-10 5 0 9 11 9 25 0 14 -5 25 -10 25z"/>
</g>
</svg>
