<?xml version="1.0" standalone="no"?>
<!DOCTYPE svg PUBLIC "-//W3C//DTD SVG 20010904//EN"
 "http://www.w3.org/TR/2001/REC-SVG-20010904/DTD/svg10.dtd">
<svg version="1.0" xmlns="http://www.w3.org/2000/svg"
 width="128.000000pt" height="128.000000pt" viewBox="0 0 128.000000 128.000000"
 preserveAspectRatio="xMidYMid meet">
<metadata>
Created by potrace 1.16, written by Peter Selinger 2001-2019
</metadata>
<g transform="translate(0.000000,128.000000) scale(0.100000,-0.100000)"
fill="#000000" stroke="none">
<path d="M555 1280 c-36 0 -65 -3 -65 -7 0 -5 -21 -21 -46 -38 -24 -16 -51
-40 -60 -52 -8 -13 -23 -23 -32 -23 -10 0 -31 -13 -46 -29 -21 -22 -27 -36
-22 -54 3 -13 28 -45 56 -71 43 -41 49 -50 38 -63 -7 -9 -30 -26 -50 -39 -21
-14 -38 -31 -38 -39 0 -8 7 -15 16 -15 8 0 35 5 59 11 25 6 50 17 56 25 6 8
18 14 27 14 9 0 31 10 49 23 18 12 33 28 33 35 0 6 -11 12 -24 12 -13 0 -29 7
-36 15 -7 8 -20 15 -29 15 -9 0 -31 9 -48 20 -18 11 -35 31 -39 46 -5 21 -1
32 24 55 17 16 33 29 36 29 2 0 27 14 55 31 28 18 51 35 51 38 0 3 12 11 28
18 15 6 37 14 50 18 12 3 22 11 22 16 0 5 -29 9 -65 9z"/>
<path d="M724 1140 c-14 0 -39 -16 -64 -42 -22 -23 -42 -50 -45 -59 -4 -10
-14 -21 -24 -24 -12 -3 -23 -22 -29 -48 -6 -23 -23 -57 -37 -76 -14 -19 -25
-40 -25 -46 0 -7 -16 -44 -35 -84 -19 -39 -35 -76 -35 -81 0 -6 -4 -18 -9 -28
-4 -9 -16 -33 -25 -53 -11 -23 -15 -45 -11 -62 7 -25 5 -27 -25 -27 -33 0 -33
0 -26 89 6 82 5 91 -13 100 -10 6 -28 26 -40 46 -13 23 -28 35 -42 35 -18 0
-20 -4 -13 -22 4 -13 8 -155 10 -316 1 -265 3 -294 19 -312 10 -11 23 -20 30
-20 7 0 20 9 31 21 10 12 25 49 32 83 7 33 15 77 18 96 3 19 11 42 19 51 8 8
15 21 15 27 0 6 -14 21 -31 33 -22 15 -27 24 -18 29 7 5 22 4 35 0 18 -7 25
-4 37 14 8 12 31 69 50 126 20 56 41 108 46 113 6 6 11 20 11 30 0 11 11 41
25 68 13 27 29 66 34 87 6 20 31 72 56 115 25 42 52 77 60 77 10 0 15 -10 15
-29 0 -17 -4 -32 -9 -35 -4 -3 -16 -31 -26 -63 -10 -32 -27 -69 -39 -83 -12
-14 -27 -36 -33 -50 -7 -14 -15 -35 -18 -47 -3 -12 -1 -32 5 -44 8 -15 18 -19
33 -16 12 3 33 9 46 13 22 6 23 5 18 -22 -2 -16 -17 -65 -32 -109 -15 -44 -36
-98 -45 -120 -10 -22 -21 -49 -24 -59 -4 -10 1 -29 9 -43 9 -13 13 -28 10 -34
-4 -5 0 -21 9 -34 9 -13 16 -33 16 -43 0 -11 11 -27 23 -35 19 -12 23 -22 19
-47 -3 -21 -12 -34 -27 -40 -13 -5 -40 -28 -62 -51 -21 -23 -46 -49 -55 -58
-10 -8 -18 -19 -18 -23 0 -5 15 -8 33 -8 22 0 41 8 55 23 11 12 38 40 60 63
21 22 54 48 73 58 19 10 50 27 70 39 20 12 54 34 77 49 22 15 43 32 47 38 5 8
17 3 35 -15 20 -19 36 -26 56 -23 25 3 29 8 32 36 2 18 -3 40 -10 49 -7 9 -32
25 -54 35 -23 10 -45 25 -48 34 -3 9 -6 24 -6 35 0 11 9 21 23 24 13 4 27 5
33 4 5 -1 17 -1 26 0 10 0 20 12 24 25 3 14 -1 37 -11 55 -9 18 -23 35 -31 38
-8 3 -14 13 -13 22 1 9 1 21 0 27 0 6 -12 16 -25 22 -18 8 -36 6 -80 -8 -31
-11 -66 -26 -78 -35 -13 -8 -26 -15 -30 -15 -5 0 -8 6 -8 14 0 8 23 52 51 98
28 46 57 90 65 99 8 8 14 34 14 57 0 37 -3 42 -24 42 -13 0 -56 -13 -96 -30
-40 -16 -76 -27 -81 -24 -5 3 -9 10 -9 15 0 5 8 13 18 16 9 4 26 18 37 32 11
14 30 41 42 60 12 20 29 48 37 63 15 25 15 30 -1 62 -10 22 -27 39 -46 46 -17
5 -40 10 -53 10z m202 -567 c8 -3 14 -10 14 -16 0 -5 -11 -25 -24 -42 -15 -20
-23 -40 -20 -52 5 -16 -1 -21 -25 -26 -31 -7 -31 -7 -29 -74 3 -67 3 -67 -37
-90 -32 -18 -43 -20 -52 -10 -7 7 -17 37 -23 66 -5 30 -10 71 -10 92 0 20 3
44 6 53 4 10 18 16 39 16 18 0 38 7 45 15 6 8 32 28 57 44 24 16 51 27 59 24z"/>
<path d="M1052 622 c-6 6 -11 4 -15 -6 -3 -8 -2 -18 3 -21 5 -3 12 0 15 6 4 6
3 15 -3 21z"/>
</g>
</svg>
