<?xml version="1.0" standalone="no"?>
<!DOCTYPE svg PUBLIC "-//W3C//DTD SVG 20010904//EN"
 "http://www.w3.org/TR/2001/REC-SVG-20010904/DTD/svg10.dtd">
<svg version="1.0" xmlns="http://www.w3.org/2000/svg"
 width="128.000000pt" height="128.000000pt" viewBox="0 0 128.000000 128.000000"
 preserveAspectRatio="xMidYMid meet">
<metadata>
Created by potrace 1.16, written by Peter Selinger 2001-2019
</metadata>
<g transform="translate(0.000000,128.000000) scale(0.100000,-0.100000)"
fill="#000000" stroke="none">
<path d="M745 1239 c-27 0 -57 -3 -65 -6 -8 -3 -49 -39 -91 -79 -42 -41 -84
-74 -94 -74 -9 0 -29 13 -43 28 -15 15 -44 47 -66 71 -37 42 -40 43 -84 36
-24 -4 -50 -9 -57 -11 -7 -3 -15 -14 -18 -25 -3 -11 2 -26 10 -34 8 -9 29 -23
46 -31 17 -9 52 -38 79 -64 36 -36 57 -48 77 -48 16 1 33 -2 38 -5 5 -3 36 14
69 38 32 25 67 45 77 45 14 0 17 -9 17 -53 0 -33 -8 -69 -20 -95 -11 -22 -20
-47 -20 -55 0 -8 -9 -25 -19 -39 -11 -14 -32 -56 -46 -93 -14 -38 -23 -77 -19
-87 4 -13 15 -18 39 -18 24 0 38 -6 45 -19 7 -14 7 -61 0 -153 -6 -73 -11
-140 -11 -148 0 -8 3 -31 7 -50 3 -19 13 -41 22 -47 9 -7 39 -13 67 -13 43 0
57 5 82 28 23 23 46 31 109 42 70 12 83 18 119 52 22 22 52 51 67 66 16 15 35
41 43 59 16 33 15 35 -21 94 -21 33 -46 65 -56 70 -10 5 -41 10 -70 11 -29 1
-77 -2 -105 -7 -44 -6 -54 -5 -59 9 -3 9 6 41 22 74 27 53 33 58 84 74 30 10
76 28 102 40 28 14 47 30 48 40 0 9 -16 32 -36 52 -20 20 -42 36 -49 36 -7 0
-24 9 -37 20 -14 10 -41 21 -60 23 -19 2 -40 7 -46 11 -7 4 -12 15 -12 25 0 9
5 22 12 29 6 6 14 30 19 54 4 24 10 53 14 65 6 18 1 26 -26 42 -23 14 -50 21
-84 20z m14 -339 c5 0 14 -7 21 -15 11 -13 8 -23 -17 -57 -17 -23 -35 -44 -42
-46 -6 -2 -11 6 -11 18 0 11 9 39 20 60 11 22 24 40 29 40z m99 -422 c15 -2
28 -10 30 -20 2 -9 -6 -25 -18 -36 -11 -10 -39 -25 -61 -32 -28 -10 -46 -11
-57 -4 -9 6 -17 15 -19 21 -2 6 6 21 18 32 13 12 33 21 45 21 13 0 26 5 29 11
4 5 19 9 33 7z"/>
<path d="M197 1040 c-8 0 -20 -7 -27 -15 -11 -13 -9 -23 10 -58 13 -23 32 -53
42 -66 10 -14 18 -40 18 -64 0 -25 10 -56 25 -83 20 -34 24 -50 19 -86 -3 -24
-1 -71 6 -104 7 -32 12 -83 11 -113 -2 -30 5 -87 15 -128 13 -57 15 -79 6 -98
-9 -19 -9 -32 0 -52 7 -16 13 -46 14 -68 2 -22 4 -49 6 -60 2 -11 7 -26 12
-33 4 -6 21 -12 38 -12 28 0 30 2 25 27 -3 15 2 41 11 60 12 26 13 38 4 57 -7
16 -9 60 -6 123 6 91 4 101 -19 144 -22 40 -23 47 -10 65 9 11 12 30 9 48 -6
28 -5 28 29 23 28 -5 40 -1 55 15 11 12 20 30 20 39 0 15 -6 17 -35 12 -21 -3
-41 -1 -50 7 -11 9 -15 34 -15 103 0 71 -4 96 -19 121 -11 17 -36 46 -55 64
-20 19 -36 41 -36 51 0 10 -10 27 -22 38 -13 11 -33 26 -45 32 -12 6 -28 11
-36 11z"/>
</g>
</svg>
