<?xml version="1.0" standalone="no"?>
<!DOCTYPE svg PUBLIC "-//W3C//DTD SVG 20010904//EN"
 "http://www.w3.org/TR/2001/REC-SVG-20010904/DTD/svg10.dtd">
<svg version="1.0" xmlns="http://www.w3.org/2000/svg"
 width="128.000000pt" height="128.000000pt" viewBox="0 0 128.000000 128.000000"
 preserveAspectRatio="xMidYMid meet">
<metadata>
Created by potrace 1.16, written by Peter Selinger 2001-2019
</metadata>
<g transform="translate(0.000000,128.000000) scale(0.100000,-0.100000)"
fill="#000000" stroke="none">
<path d="M836 1160 c-22 0 -32 -12 -72 -92 -25 -51 -64 -127 -85 -168 -21 -41
-45 -84 -53 -95 -9 -10 -16 -24 -16 -30 0 -5 -9 -16 -20 -23 -11 -6 -26 -28
-35 -48 -11 -26 -12 -41 -5 -55 6 -10 21 -21 35 -25 15 -4 38 2 64 17 23 12
41 26 41 29 0 4 25 26 55 49 31 22 61 41 67 41 5 0 24 12 42 26 17 14 57 41
90 60 32 19 65 34 72 34 8 0 14 -8 14 -18 0 -11 8 -26 18 -35 10 -10 28 -17
39 -17 11 0 35 10 54 23 31 21 34 27 34 71 0 33 -5 51 -15 57 -8 4 -40 19 -69
33 -30 14 -69 26 -87 26 -17 0 -37 -6 -43 -14 -8 -9 -8 -21 0 -45 8 -22 8 -35
0 -44 -6 -8 -35 -26 -64 -41 -30 -15 -70 -29 -90 -33 -29 -4 -37 -2 -37 9 0 8
11 37 25 64 14 27 25 57 25 66 0 9 7 21 15 25 8 5 26 30 40 56 14 27 25 54 25
62 0 8 -9 19 -19 25 -11 5 -31 10 -45 10z"/>
<path d="M573 1060 c-7 0 -13 -9 -13 -20 0 -11 6 -20 14 -20 8 0 16 6 19 14 3
8 3 17 0 20 -4 3 -12 6 -20 6z"/>
<path d="M555 994 c-8 3 -21 -4 -30 -17 -8 -12 -15 -29 -15 -38 0 -9 -7 -22
-15 -29 -8 -6 -17 -21 -21 -33 -4 -11 -24 -50 -46 -85 -22 -36 -44 -76 -49
-90 -5 -13 -18 -36 -28 -51 -10 -14 -29 -51 -41 -81 -13 -30 -29 -62 -36 -70
-7 -8 -25 -40 -40 -70 -15 -30 -51 -86 -79 -125 -29 -38 -59 -84 -69 -102 -9
-18 -25 -37 -36 -43 -11 -6 -20 -17 -20 -24 0 -7 8 -20 18 -29 10 -10 33 -17
50 -17 24 0 42 11 82 50 27 28 50 59 50 68 0 9 9 41 20 71 12 29 41 91 65 137
25 46 45 91 45 100 0 9 11 29 25 46 14 16 35 61 46 100 12 40 32 86 44 104 13
19 31 61 41 94 10 34 26 66 36 71 10 5 18 20 18 33 0 13 -7 26 -15 30z"/>
<path d="M150 935 c-8 2 -25 -1 -36 -6 -12 -6 -27 -22 -33 -35 -6 -14 -11 -31
-11 -38 0 -7 8 -20 18 -29 9 -8 28 -17 42 -18 14 -1 39 -1 57 -1 20 1 36 9 42
20 5 10 11 31 13 46 3 24 -2 29 -37 42 -22 9 -47 17 -55 19z"/>
<path d="M1104 719 c-5 0 -43 -17 -84 -37 -41 -21 -104 -50 -140 -66 -36 -16
-96 -42 -135 -58 -38 -15 -76 -28 -83 -28 -6 0 -20 -8 -31 -19 -18 -18 -18
-20 0 -74 10 -31 32 -78 48 -105 16 -27 32 -59 35 -70 4 -12 14 -29 22 -37 9
-8 26 -15 40 -15 13 0 43 12 66 28 34 22 55 28 119 31 66 3 81 7 100 27 12 13
27 24 33 24 6 1 27 15 48 33 20 18 48 54 62 81 14 27 26 62 26 77 0 15 4 30 9
33 4 3 11 23 15 45 3 22 12 41 18 43 9 3 8 9 -4 21 -9 9 -48 28 -86 42 -38 14
-73 25 -78 24z m11 -112 c15 -1 20 -9 19 -27 -1 -14 -7 -56 -14 -95 -6 -38
-18 -80 -26 -92 -10 -16 -24 -23 -45 -23 -17 0 -65 -16 -106 -35 -41 -19 -87
-35 -101 -35 -24 0 -32 10 -66 78 -21 43 -36 87 -34 98 2 13 15 21 43 25 22 4
63 17 90 29 28 12 88 35 135 51 47 16 94 28 105 26z"/>
<path d="M76 640 c-19 0 -40 -8 -49 -18 -10 -10 -17 -24 -17 -30 0 -6 20 -23
43 -37 24 -14 57 -25 74 -25 18 0 38 9 51 23 12 13 22 31 22 40 0 9 -9 21 -20
27 -12 6 -29 8 -40 5 -10 -3 -21 -1 -25 5 -3 5 -21 10 -39 10z"/>
</g>
</svg>
