<?xml version="1.0" standalone="no"?>
<!DOCTYPE svg PUBLIC "-//W3C//DTD SVG 20010904//EN"
 "http://www.w3.org/TR/2001/REC-SVG-20010904/DTD/svg10.dtd">
<svg version="1.0" xmlns="http://www.w3.org/2000/svg"
 width="128.000000pt" height="128.000000pt" viewBox="0 0 128.000000 128.000000"
 preserveAspectRatio="xMidYMid meet">
<metadata>
Created by potrace 1.16, written by Peter Selinger 2001-2019
</metadata>
<g transform="translate(0.000000,128.000000) scale(0.100000,-0.100000)"
fill="#000000" stroke="none">
<path d="M149 1080 c-24 0 -39 -5 -39 -12 0 -7 -7 -26 -15 -42 -14 -26 -14
-31 -1 -44 12 -13 20 -8 59 34 25 27 43 52 41 56 -3 4 -23 8 -45 8z"/>
<path d="M949 1080 c-44 0 -60 -3 -57 -12 3 -7 20 -17 39 -21 21 -6 45 -5 62
2 16 6 25 15 22 21 -3 5 -33 10 -66 10z"/>
<path d="M675 1024 c-7 2 -21 -1 -31 -8 -12 -10 -18 -29 -20 -67 -1 -30 -7
-76 -13 -102 -6 -27 -9 -53 -5 -58 3 -5 -4 -42 -16 -82 -12 -40 -20 -88 -18
-107 2 -23 9 -36 20 -38 9 -2 27 8 39 22 13 14 33 26 46 26 13 0 31 12 44 29
12 16 35 32 51 35 17 3 52 22 79 40 26 19 72 47 101 62 29 14 63 35 75 46 13
13 30 19 42 15 16 -4 26 3 41 29 12 18 18 38 15 44 -4 6 -18 16 -32 21 -18 7
-32 5 -51 -5 -15 -8 -42 -21 -59 -30 -18 -8 -33 -20 -33 -25 0 -6 -7 -11 -14
-11 -8 0 -27 -11 -42 -25 -15 -14 -32 -25 -39 -25 -7 0 -20 -9 -30 -20 -10
-11 -23 -20 -28 -20 -5 0 -20 -11 -33 -25 -15 -16 -34 -25 -54 -25 -26 0 -30
4 -30 27 0 15 12 44 26 65 15 21 29 57 32 83 4 38 0 52 -23 84 -14 22 -33 42
-40 45z"/>
<path d="M169 759 c-19 0 -44 -7 -56 -16 -13 -8 -23 -24 -23 -34 0 -11 4 -19
9 -19 5 0 14 -13 21 -29 6 -16 21 -32 32 -35 12 -2 33 1 47 9 14 8 41 27 60
43 34 29 34 29 -11 56 -26 15 -59 26 -79 25z"/>
<path d="M1188 686 c-24 3 -40 -1 -57 -16 -13 -11 -48 -27 -77 -36 -30 -8 -81
-26 -113 -39 -38 -16 -70 -22 -92 -19 -29 4 -41 -1 -83 -39 -49 -43 -49 -43
-18 -137 16 -52 34 -111 39 -130 7 -29 14 -35 38 -38 23 -2 38 5 64 32 27 28
32 40 27 60 -4 16 -13 26 -24 26 -10 0 -28 10 -40 23 -11 12 -24 34 -27 49 -4
15 -2 42 4 61 6 19 22 40 35 47 14 7 39 10 58 7 22 -3 52 3 90 19 44 19 63 22
83 14 24 -9 25 -12 22 -78 -2 -38 -7 -74 -11 -80 -4 -7 -16 -12 -27 -12 -11 0
-23 -10 -29 -24 -5 -13 -6 -34 -3 -45 4 -15 12 -21 26 -19 13 2 40 31 69 73
27 39 61 87 76 109 19 29 27 54 30 100 3 47 0 65 -11 74 -8 7 -30 15 -49 18z"/>
<path d="M82 549 c-9 0 -32 -10 -49 -21 -29 -17 -31 -22 -22 -41 6 -12 25 -34
41 -49 16 -16 33 -28 38 -28 5 0 18 13 29 29 12 16 21 38 21 48 0 11 -9 29
-20 41 -12 12 -28 22 -38 21z"/>
<path d="M284 417 c-6 2 -25 -12 -43 -32 -17 -20 -31 -40 -31 -44 0 -5 -11
-12 -25 -15 -14 -4 -32 -18 -41 -32 -10 -15 -13 -29 -8 -34 5 -4 27 -13 48
-19 26 -7 45 -7 57 0 11 5 20 17 20 27 1 9 2 22 3 27 1 6 9 25 19 43 10 18 17
43 15 54 -2 12 -8 23 -14 25z"/>
</g>
</svg>
