<?xml version="1.0" standalone="no"?>
<!DOCTYPE svg PUBLIC "-//W3C//DTD SVG 20010904//EN"
 "http://www.w3.org/TR/2001/REC-SVG-20010904/DTD/svg10.dtd">
<svg version="1.0" xmlns="http://www.w3.org/2000/svg"
 width="56.000000pt" height="56.000000pt" viewBox="0 0 56.000000 56.000000"
 preserveAspectRatio="xMidYMid meet">
<metadata>
Created by potrace 1.16, written by Peter Selinger 2001-2019
</metadata>
<g transform="translate(0.000000,56.000000) scale(0.100000,-0.100000)"
fill="#000000" stroke="none">
<path d="M257 560 c-12 0 -28 -10 -35 -21 -12 -19 -11 -24 10 -48 15 -16 22
-35 20 -51 -2 -18 -12 -29 -33 -37 -21 -8 -30 -17 -27 -30 2 -10 20 -29 41
-43 36 -23 37 -25 18 -34 -12 -5 -21 -14 -21 -21 0 -6 -10 -21 -23 -33 -13
-12 -27 -22 -32 -22 -4 0 -15 -7 -24 -15 -9 -8 -27 -23 -40 -33 -14 -11 -21
-24 -17 -30 4 -7 21 -12 38 -12 16 0 42 8 56 18 15 10 47 26 72 36 25 10 56
23 70 29 14 6 28 13 31 15 4 1 9 -6 11 -16 3 -10 -5 -36 -17 -58 -12 -21 -30
-41 -41 -43 -10 -1 -27 -10 -37 -19 -9 -8 -27 -20 -40 -26 -14 -7 -22 -21 -22
-36 0 -22 4 -25 35 -23 19 1 54 5 78 9 24 3 42 12 42 19 0 7 -10 15 -22 18
-20 6 -19 8 18 38 21 17 46 35 55 40 9 4 22 22 29 38 11 26 9 34 -9 59 -11 17
-33 33 -47 36 -17 5 -32 2 -43 -7 -9 -8 -33 -17 -53 -21 -21 -4 -38 -4 -38 -1
0 4 12 27 27 52 22 38 25 50 16 73 -6 16 -7 47 -3 75 5 33 3 56 -6 74 -8 14
-14 32 -14 39 0 6 -10 12 -23 12z"/>
<path d="M445 560 c-9 0 -15 -5 -13 -11 2 -6 8 -10 13 -10 5 0 11 4 13 10 2 6
-4 11 -13 11z"/>
</g>
</svg>
