<?xml version="1.0" standalone="no"?>
<!DOCTYPE svg PUBLIC "-//W3C//DTD SVG 20010904//EN"
 "http://www.w3.org/TR/2001/REC-SVG-20010904/DTD/svg10.dtd">
<svg version="1.0" xmlns="http://www.w3.org/2000/svg"
 width="56.000000pt" height="56.000000pt" viewBox="0 0 56.000000 56.000000"
 preserveAspectRatio="xMidYMid meet">
<metadata>
Created by potrace 1.16, written by Peter Selinger 2001-2019
</metadata>
<g transform="translate(0.000000,56.000000) scale(0.100000,-0.100000)"
fill="#000000" stroke="none">
<path d="M141 480 c-28 0 -49 -8 -70 -26 -18 -14 -36 -35 -42 -45 -8 -15 -3
-34 21 -85 31 -65 31 -65 -10 -130 -23 -36 -40 -73 -38 -82 2 -9 13 -18 26
-20 13 -2 25 3 28 12 4 9 39 49 79 89 41 39 97 90 126 112 29 22 70 45 90 51
20 6 42 8 47 5 6 -4 24 -34 41 -67 16 -33 33 -73 36 -90 4 -16 9 -37 12 -46 2
-10 12 -18 21 -18 10 0 25 9 35 20 9 11 17 36 17 56 0 25 -11 49 -40 88 -22
29 -58 67 -81 86 -35 28 -45 31 -60 22 -10 -7 -24 -12 -31 -12 -6 0 -32 -10
-57 -22 -25 -11 -69 -41 -98 -65 -28 -23 -56 -43 -62 -43 -6 0 -11 13 -11 28
0 16 -9 37 -20 47 -11 10 -20 24 -20 31 0 7 13 24 30 37 16 14 39 28 50 32 11
3 20 13 20 21 0 10 -12 14 -39 14z"/>
<path d="M244 160 c-6 0 -21 -11 -34 -25 -16 -17 -21 -28 -13 -36 5 -5 30 -11
54 -12 36 -2 44 1 47 17 3 12 -5 26 -19 37 -13 10 -29 19 -35 19z"/>
</g>
</svg>
