<?xml version="1.0" standalone="no"?>
<!DOCTYPE svg PUBLIC "-//W3C//DTD SVG 20010904//EN"
 "http://www.w3.org/TR/2001/REC-SVG-20010904/DTD/svg10.dtd">
<svg version="1.0" xmlns="http://www.w3.org/2000/svg"
 width="56.000000pt" height="56.000000pt" viewBox="0 0 56.000000 56.000000"
 preserveAspectRatio="xMidYMid meet">
<metadata>
Created by potrace 1.16, written by Peter Selinger 2001-2019
</metadata>
<g transform="translate(0.000000,56.000000) scale(0.100000,-0.100000)"
fill="#000000" stroke="none">
<path d="M146 439 c-6 0 -18 -4 -26 -9 -8 -5 -23 -11 -34 -14 -17 -6 -18 -8
-2 -24 9 -10 16 -30 16 -43 0 -13 -12 -47 -26 -74 -14 -28 -35 -58 -46 -67
-14 -13 -18 -27 -16 -55 2 -30 7 -38 23 -38 14 0 37 30 87 115 56 95 67 121
64 148 -3 19 -10 40 -17 48 -6 8 -17 14 -23 13z"/>
<path d="M389 440 c-3 0 -8 -2 -11 -5 -3 -3 6 -27 20 -53 13 -26 39 -74 57
-107 17 -33 37 -60 44 -60 7 0 20 14 29 30 9 17 20 32 25 33 4 2 7 7 7 12 0 5
-22 31 -49 59 -27 28 -53 51 -58 51 -4 0 -19 9 -33 20 -14 11 -28 20 -31 20z"/>
</g>
</svg>
