<?xml version="1.0" standalone="no"?>
<!DOCTYPE svg PUBLIC "-//W3C//DTD SVG 20010904//EN"
 "http://www.w3.org/TR/2001/REC-SVG-20010904/DTD/svg10.dtd">
<svg version="1.0" xmlns="http://www.w3.org/2000/svg"
 width="56.000000pt" height="56.000000pt" viewBox="0 0 56.000000 56.000000"
 preserveAspectRatio="xMidYMid meet">
<metadata>
Created by potrace 1.16, written by Peter Selinger 2001-2019
</metadata>
<g transform="translate(0.000000,56.000000) scale(0.100000,-0.100000)"
fill="#000000" stroke="none">
<path d="M149 457 c-13 0 -42 -2 -63 -7 -26 -5 -48 -18 -63 -36 -18 -21 -22
-37 -18 -59 3 -20 24 -47 60 -80 31 -27 55 -58 55 -68 0 -10 -10 -36 -22 -57
-13 -21 -19 -42 -15 -46 4 -4 24 -2 45 4 21 7 48 22 59 34 12 13 37 50 55 83
20 35 47 67 66 78 28 16 37 17 62 7 16 -7 45 -32 65 -56 20 -24 47 -68 61 -99
18 -39 31 -55 45 -55 16 0 19 7 19 45 0 25 -4 45 -9 45 -5 0 -17 23 -26 51 -9
28 -32 65 -50 83 -17 18 -46 38 -64 46 -25 10 -38 10 -57 1 -14 -6 -33 -11
-42 -11 -10 0 -49 -13 -87 -29 -47 -20 -74 -27 -86 -21 -9 5 -24 21 -33 35
-14 21 -15 29 -5 41 7 8 28 22 47 29 19 8 32 20 30 27 -3 7 -15 14 -29 15z"/>
</g>
</svg>
