<?xml version="1.0" standalone="no"?>
<!DOCTYPE svg PUBLIC "-//W3C//DTD SVG 20010904//EN"
 "http://www.w3.org/TR/2001/REC-SVG-20010904/DTD/svg10.dtd">
<svg version="1.0" xmlns="http://www.w3.org/2000/svg"
 width="56.000000pt" height="56.000000pt" viewBox="0 0 56.000000 56.000000"
 preserveAspectRatio="xMidYMid meet">
<metadata>
Created by potrace 1.16, written by Peter Selinger 2001-2019
</metadata>
<g transform="translate(0.000000,56.000000) scale(0.100000,-0.100000)"
fill="#000000" stroke="none">
<path d="M100 410 c-11 0 -20 -3 -20 -6 0 -3 5 -14 10 -24 7 -14 6 -33 -6 -67
-9 -26 -22 -55 -30 -64 -8 -8 -14 -21 -14 -28 0 -7 9 -11 22 -9 13 2 39 25 60
53 22 30 38 61 38 78 0 15 -9 36 -20 47 -11 11 -29 20 -40 20z"/>
<path d="M435 380 c-7 0 -17 -4 -20 -10 -3 -5 1 -31 9 -57 8 -27 22 -74 32
-106 15 -48 21 -57 38 -55 13 2 24 14 30 36 7 25 5 42 -10 75 -10 23 -29 59
-41 80 -13 20 -30 37 -38 37z"/>
</g>
</svg>
