<?xml version="1.0" standalone="no"?>
<!DOCTYPE svg PUBLIC "-//W3C//DTD SVG 20010904//EN"
 "http://www.w3.org/TR/2001/REC-SVG-20010904/DTD/svg10.dtd">
<svg version="1.0" xmlns="http://www.w3.org/2000/svg"
 width="56.000000pt" height="56.000000pt" viewBox="0 0 56.000000 56.000000"
 preserveAspectRatio="xMidYMid meet">
<metadata>
Created by potrace 1.16, written by Peter Selinger 2001-2019
</metadata>
<g transform="translate(0.000000,56.000000) scale(0.100000,-0.100000)"
fill="#000000" stroke="none">
<path d="M373 460 c-6 0 -15 -4 -18 -10 -3 -5 -15 -10 -26 -10 -10 0 -19 -7
-19 -15 0 -8 9 -15 20 -15 11 0 38 -12 60 -26 31 -21 49 -45 75 -100 20 -41
41 -74 48 -74 6 0 20 7 30 14 9 7 17 25 17 39 0 14 -4 27 -10 29 -5 2 -22 28
-37 58 -22 44 -38 61 -78 82 -27 15 -55 28 -62 28z"/>
<path d="M106 350 c-14 0 -28 -4 -31 -10 -3 -5 -3 -14 0 -20 3 -5 13 -10 21
-10 8 0 14 -3 14 -7 0 -5 -6 -24 -13 -43 -7 -19 -31 -61 -55 -92 -23 -31 -42
-62 -42 -68 0 -5 4 -10 9 -10 5 0 34 21 66 47 33 28 66 66 81 95 13 26 24 51
24 56 0 5 -11 21 -25 36 -13 14 -35 26 -49 26z"/>
<path d="M292 178 c-26 19 -31 20 -50 6 -12 -8 -22 -19 -22 -24 0 -6 14 -24
32 -40 17 -17 39 -29 47 -28 10 2 17 16 19 35 2 25 -3 35 -26 51z"/>
</g>
</svg>
