<?xml version="1.0" standalone="no"?>
<!DOCTYPE svg PUBLIC "-//W3C//DTD SVG 20010904//EN"
 "http://www.w3.org/TR/2001/REC-SVG-20010904/DTD/svg10.dtd">
<svg version="1.0" xmlns="http://www.w3.org/2000/svg"
 width="56.000000pt" height="56.000000pt" viewBox="0 0 56.000000 56.000000"
 preserveAspectRatio="xMidYMid meet">
<metadata>
Created by potrace 1.16, written by Peter Selinger 2001-2019
</metadata>
<g transform="translate(0.000000,56.000000) scale(0.100000,-0.100000)"
fill="#000000" stroke="none">
<path d="M194 560 c-9 0 -11 -6 -7 -17 4 -10 15 -31 25 -48 10 -16 18 -42 18
-56 0 -14 -8 -33 -18 -42 -10 -10 -23 -17 -29 -17 -5 0 -18 -9 -27 -19 -11
-13 -15 -27 -11 -40 4 -15 15 -21 36 -21 20 0 29 -5 29 -17 0 -9 -21 -35 -46
-58 -40 -37 -45 -45 -35 -63 6 -11 20 -24 32 -27 16 -5 30 2 58 27 20 18 51
41 69 51 17 10 37 15 42 12 6 -3 10 -12 10 -20 0 -7 -22 -29 -50 -49 -27 -19
-65 -42 -83 -50 -19 -8 -37 -19 -41 -24 -3 -6 -4 -17 -1 -25 4 -8 31 -19 63
-25 49 -9 59 -8 70 6 10 14 12 14 12 1 0 -9 16 -21 39 -29 21 -7 44 -9 50 -6
6 4 11 17 11 30 0 13 -8 30 -17 39 -10 8 -34 17 -53 19 -19 2 -35 8 -35 13 0
6 25 20 55 32 52 20 55 24 58 59 2 20 1 48 -2 60 -4 13 -17 31 -31 40 -23 15
-26 14 -54 -5 -16 -12 -34 -21 -40 -21 -6 0 -11 6 -11 14 0 8 5 18 10 21 6 3
10 32 10 63 0 31 -4 72 -9 90 -5 17 -26 48 -47 67 -20 19 -43 35 -50 35z"/>
</g>
</svg>
