<?xml version="1.0" standalone="no"?>
<!DOCTYPE svg PUBLIC "-//W3C//DTD SVG 20010904//EN"
 "http://www.w3.org/TR/2001/REC-SVG-20010904/DTD/svg10.dtd">
<svg version="1.0" xmlns="http://www.w3.org/2000/svg"
 width="56.000000pt" height="56.000000pt" viewBox="0 0 56.000000 56.000000"
 preserveAspectRatio="xMidYMid meet">
<metadata>
Created by potrace 1.16, written by Peter Selinger 2001-2019
</metadata>
<g transform="translate(0.000000,56.000000) scale(0.100000,-0.100000)"
fill="#000000" stroke="none">
<path d="M275 560 c-8 0 -15 -2 -15 -4 0 -2 7 -20 16 -41 8 -20 14 -47 12 -59
-3 -19 -9 -21 -75 -21 -42 0 -72 -4 -72 -10 0 -5 10 -15 22 -22 12 -6 37 -17
55 -23 23 -9 32 -19 31 -34 0 -11 -8 -33 -17 -48 -9 -14 -32 -52 -50 -83 -18
-31 -32 -66 -30 -78 2 -14 11 -23 25 -25 14 -2 26 4 34 19 11 22 12 22 25 4 8
-10 14 -34 14 -52 0 -22 6 -36 19 -43 11 -5 31 -10 46 -10 14 0 28 -7 31 -15
4 -9 19 -15 40 -15 24 0 34 5 34 15 0 9 -11 26 -25 39 -14 13 -39 27 -57 32
-25 8 -34 16 -39 42 -3 17 -14 43 -23 56 -9 14 -16 32 -16 41 0 8 4 23 10 33
5 9 21 42 34 72 22 48 31 58 68 71 30 11 44 22 46 37 3 20 -1 22 -38 22 -40 0
-42 1 -36 24 4 16 0 30 -10 40 -8 9 -22 16 -30 16 -8 0 -14 5 -14 10 0 6 -7
10 -15 10z"/>
</g>
</svg>
