<?xml version="1.0" standalone="no"?>
<!DOCTYPE svg PUBLIC "-//W3C//DTD SVG 20010904//EN"
 "http://www.w3.org/TR/2001/REC-SVG-20010904/DTD/svg10.dtd">
<svg version="1.0" xmlns="http://www.w3.org/2000/svg"
 width="56.000000pt" height="56.000000pt" viewBox="0 0 56.000000 56.000000"
 preserveAspectRatio="xMidYMid meet">
<metadata>
Created by potrace 1.16, written by Peter Selinger 2001-2019
</metadata>
<g transform="translate(0.000000,56.000000) scale(0.100000,-0.100000)"
fill="#000000" stroke="none">
<path d="M430 380 c-28 10 -52 15 -55 10 -2 -4 27 -40 65 -80 39 -40 70 -77
70 -82 0 -4 5 -8 11 -8 6 0 17 6 25 14 8 8 14 22 14 30 0 9 -4 16 -10 16 -5 0
-10 9 -10 19 0 11 -14 29 -31 41 -16 12 -52 30 -79 40z"/>
<path d="M181 354 c-19 18 -20 17 -35 -19 -9 -21 -16 -39 -16 -42 0 -2 -10
-14 -22 -26 -13 -12 -42 -37 -65 -55 -24 -19 -43 -40 -43 -48 0 -10 12 -14 40
-14 33 0 47 7 80 40 22 22 40 46 40 53 0 6 9 23 20 37 11 14 20 32 20 41 0 9
-9 24 -19 33z"/>
</g>
</svg>
