<?xml version="1.0" standalone="no"?>
<!DOCTYPE svg PUBLIC "-//W3C//DTD SVG 20010904//EN"
 "http://www.w3.org/TR/2001/REC-SVG-20010904/DTD/svg10.dtd">
<svg version="1.0" xmlns="http://www.w3.org/2000/svg"
 width="56.000000pt" height="56.000000pt" viewBox="0 0 56.000000 56.000000"
 preserveAspectRatio="xMidYMid meet">
<metadata>
Created by potrace 1.16, written by Peter Selinger 2001-2019
</metadata>
<g transform="translate(0.000000,56.000000) scale(0.100000,-0.100000)"
fill="#000000" stroke="none">
<path d="M382 460 c-28 5 -48 3 -60 -6 -16 -12 -16 -13 3 -19 11 -4 31 -13 45
-20 14 -7 34 -29 44 -47 14 -24 20 -53 20 -110 1 -46 6 -82 13 -89 10 -10 18
-10 37 -1 14 6 37 29 51 51 14 23 25 54 25 71 0 16 -7 38 -16 48 -8 9 -25 33
-38 52 -12 19 -35 41 -51 49 -17 8 -49 18 -73 21z"/>
<path d="M103 420 c-5 0 -18 -6 -28 -14 -18 -13 -18 -15 -2 -39 9 -15 17 -36
17 -47 0 -12 -7 -34 -15 -50 -8 -16 -24 -35 -36 -44 -14 -9 -25 -32 -30 -63
-5 -26 -7 -53 -4 -60 2 -7 15 -13 29 -13 14 0 37 13 53 28 15 16 40 53 55 83
15 30 32 74 37 98 5 24 7 51 3 60 -3 9 -11 21 -17 27 -6 6 -20 16 -32 22 -12
7 -26 12 -30 12z"/>
</g>
</svg>
