<?xml version="1.0" standalone="no"?>
<!DOCTYPE svg PUBLIC "-//W3C//DTD SVG 20010904//EN"
 "http://www.w3.org/TR/2001/REC-SVG-20010904/DTD/svg10.dtd">
<svg version="1.0" xmlns="http://www.w3.org/2000/svg"
 width="56.000000pt" height="56.000000pt" viewBox="0 0 56.000000 56.000000"
 preserveAspectRatio="xMidYMid meet">
<metadata>
Created by potrace 1.16, written by Peter Selinger 2001-2019
</metadata>
<g transform="translate(0.000000,56.000000) scale(0.100000,-0.100000)"
fill="#000000" stroke="none">
<path d="M468 400 c-26 0 -38 -4 -38 -14 0 -7 9 -16 20 -19 14 -3 20 -14 20
-31 0 -15 -6 -42 -14 -60 -8 -19 -31 -52 -51 -75 -20 -22 -34 -45 -30 -51 3
-5 18 -10 32 -10 15 0 37 13 57 33 17 18 46 49 64 69 21 25 32 48 32 68 0 19
-10 42 -27 60 -20 23 -35 30 -65 30z"/>
<path d="M114 320 c-5 4 -20 4 -33 -1 -14 -6 -38 -7 -53 -3 -29 6 -29 6 -26
-78 3 -83 3 -83 38 -83 35 0 35 0 38 49 2 30 12 61 24 79 11 16 17 32 12 37z"/>
</g>
</svg>
