<?xml version="1.0" standalone="no"?>
<!DOCTYPE svg PUBLIC "-//W3C//DTD SVG 20010904//EN"
 "http://www.w3.org/TR/2001/REC-SVG-20010904/DTD/svg10.dtd">
<svg version="1.0" xmlns="http://www.w3.org/2000/svg"
 width="56.000000pt" height="56.000000pt" viewBox="0 0 56.000000 56.000000"
 preserveAspectRatio="xMidYMid meet">
<metadata>
Created by potrace 1.16, written by Peter Selinger 2001-2019
</metadata>
<g transform="translate(0.000000,56.000000) scale(0.100000,-0.100000)"
fill="#000000" stroke="none">
<path d="M348 420 c-15 0 -29 -4 -33 -10 -3 -5 7 -17 22 -26 15 -10 43 -27 60
-38 18 -12 44 -43 59 -71 15 -27 36 -57 47 -66 11 -9 28 -14 38 -12 15 4 19
15 19 49 0 24 -4 44 -9 44 -5 0 -14 13 -21 30 -7 16 -29 40 -49 52 -20 13 -52
29 -71 35 -19 7 -47 13 -62 13z"/>
<path d="M218 360 c-7 0 -22 -7 -33 -15 -14 -11 -32 -13 -66 -9 -31 4 -49 2
-54 -6 -4 -6 1 -20 11 -31 17 -19 16 -21 -25 -63 -27 -28 -42 -53 -44 -72 -2
-26 1 -29 30 -32 26 -3 41 5 75 36 24 22 60 70 81 107 20 37 37 72 37 76 0 5
-6 9 -12 9z"/>
</g>
</svg>
