<?xml version="1.0" standalone="no"?>
<!DOCTYPE svg PUBLIC "-//W3C//DTD SVG 20010904//EN"
 "http://www.w3.org/TR/2001/REC-SVG-20010904/DTD/svg10.dtd">
<svg version="1.0" xmlns="http://www.w3.org/2000/svg"
 width="56.000000pt" height="56.000000pt" viewBox="0 0 56.000000 56.000000"
 preserveAspectRatio="xMidYMid meet">
<metadata>
Created by potrace 1.16, written by Peter Selinger 2001-2019
</metadata>
<g transform="translate(0.000000,56.000000) scale(0.100000,-0.100000)"
fill="#000000" stroke="none">
<path d="M253 465 c-26 4 -43 3 -43 -3 0 -5 6 -14 13 -19 6 -5 32 -15 57 -22
25 -7 63 -22 85 -34 22 -11 54 -33 72 -50 17 -16 37 -44 44 -61 7 -17 19 -39
27 -48 8 -10 23 -18 34 -18 15 0 18 8 18 54 0 45 -5 59 -27 83 -16 16 -46 39
-68 50 -22 11 -69 30 -105 41 -36 11 -84 23 -107 27z"/>
<path d="M40 380 c-3 0 -11 -9 -18 -20 -10 -17 -8 -22 16 -37 15 -9 28 -18 30
-19 1 -1 -14 -29 -33 -62 -27 -44 -36 -69 -33 -94 2 -25 8 -34 24 -36 15 -2
33 10 58 39 32 37 36 49 36 96 0 48 -4 57 -37 93 -21 22 -40 40 -43 40z"/>
<path d="M332 184 c-4 2 -14 1 -21 -4 -8 -4 -10 -13 -7 -19 4 -6 14 -11 22
-11 8 0 14 6 14 14 0 8 -4 17 -8 20z"/>
<path d="M440 120 c-4 0 -11 -7 -14 -16 -4 -9 -4 -19 -1 -22 2 -3 11 1 20 8 8
7 12 16 9 21 -3 5 -9 9 -14 9z"/>
</g>
</svg>
