<?xml version="1.0" standalone="no"?>
<!DOCTYPE svg PUBLIC "-//W3C//DTD SVG 20010904//EN"
 "http://www.w3.org/TR/2001/REC-SVG-20010904/DTD/svg10.dtd">
<svg version="1.0" xmlns="http://www.w3.org/2000/svg"
 width="56.000000pt" height="56.000000pt" viewBox="0 0 56.000000 56.000000"
 preserveAspectRatio="xMidYMid meet">
<metadata>
Created by potrace 1.16, written by Peter Selinger 2001-2019
</metadata>
<g transform="translate(0.000000,56.000000) scale(0.100000,-0.100000)"
fill="#000000" stroke="none">
<path d="M196 560 c-3 0 -6 -11 -6 -24 0 -13 13 -38 29 -55 20 -22 38 -31 59
-31 17 0 34 5 38 11 4 7 8 31 9 55 1 24 -1 44 -4 44 -4 0 -12 -9 -19 -20 -7
-11 -21 -20 -31 -20 -10 0 -30 9 -44 20 -14 11 -28 20 -31 20z"/>
<path d="M365 560 c-8 0 -15 -4 -15 -10 0 -5 7 -10 15 -10 8 0 15 5 15 10 0 6
-7 10 -15 10z"/>
<path d="M206 320 c-6 0 -17 -9 -24 -20 -6 -11 -12 -33 -12 -50 0 -23 6 -33
24 -40 14 -5 26 -19 28 -32 2 -13 10 -23 18 -23 11 0 16 13 18 43 2 30 -3 54
-19 82 -13 22 -28 40 -33 40z"/>
<path d="M248 117 c-20 4 -28 1 -28 -9 0 -8 5 -19 12 -26 7 -7 22 -12 35 -12
12 0 34 -5 48 -12 14 -6 25 -15 25 -19 0 -4 -4 -11 -10 -14 -5 -3 -10 -11 -10
-16 0 -6 15 -9 32 -7 29 3 33 7 34 35 1 18 -4 37 -10 42 -7 6 -32 15 -56 21
-25 7 -57 14 -72 17z"/>
</g>
</svg>
