<?xml version="1.0" standalone="no"?>
<!DOCTYPE svg PUBLIC "-//W3C//DTD SVG 20010904//EN"
 "http://www.w3.org/TR/2001/REC-SVG-20010904/DTD/svg10.dtd">
<svg version="1.0" xmlns="http://www.w3.org/2000/svg"
 width="56.000000pt" height="56.000000pt" viewBox="0 0 56.000000 56.000000"
 preserveAspectRatio="xMidYMid meet">
<metadata>
Created by potrace 1.16, written by Peter Selinger 2001-2019
</metadata>
<g transform="translate(0.000000,56.000000) scale(0.100000,-0.100000)"
fill="#000000" stroke="none">
<path d="M282 559 c-4 -1 -24 -19 -45 -40 -33 -33 -37 -41 -27 -59 8 -16 7
-25 -5 -42 -8 -13 -15 -33 -15 -46 0 -12 -6 -33 -14 -45 -8 -12 -17 -39 -20
-59 -6 -31 -3 -40 14 -50 11 -7 20 -21 20 -31 0 -10 5 -28 12 -40 6 -12 25
-40 42 -61 17 -22 41 -50 54 -63 17 -17 34 -23 64 -23 42 0 42 0 3 40 -21 22
-45 40 -51 40 -7 0 -26 17 -43 37 -24 29 -31 47 -31 80 0 24 -5 52 -12 62 -9
15 -8 32 6 79 12 40 32 74 57 101 22 23 39 51 39 64 0 12 -9 30 -20 40 -11 9
-24 16 -28 16z"/>
</g>
</svg>
