<?xml version="1.0" standalone="no"?>
<!DOCTYPE svg PUBLIC "-//W3C//DTD SVG 20010904//EN"
 "http://www.w3.org/TR/2001/REC-SVG-20010904/DTD/svg10.dtd">
<svg version="1.0" xmlns="http://www.w3.org/2000/svg"
 width="56.000000pt" height="56.000000pt" viewBox="0 0 56.000000 56.000000"
 preserveAspectRatio="xMidYMid meet">
<metadata>
Created by potrace 1.16, written by Peter Selinger 2001-2019
</metadata>
<g transform="translate(0.000000,56.000000) scale(0.100000,-0.100000)"
fill="#000000" stroke="none">
<path d="M458 495 c-32 4 -58 3 -61 -2 -4 -6 7 -22 23 -38 23 -22 35 -26 59
-22 19 4 33 1 41 -8 7 -8 19 -15 26 -15 8 0 14 10 14 23 0 12 -11 29 -23 39
-13 9 -48 19 -79 23z"/>
<path d="M86 420 c-12 0 -25 -2 -28 -5 -3 -3 -3 -26 0 -51 3 -33 0 -49 -13
-64 -9 -10 -18 -33 -20 -49 -1 -17 -7 -37 -14 -45 -7 -9 -11 -40 -9 -82 2 -42
8 -69 15 -71 7 -3 22 16 34 44 12 26 26 56 30 65 5 10 9 23 9 29 0 7 7 17 16
23 10 8 19 38 24 87 7 58 6 79 -6 97 -8 12 -25 22 -38 22z"/>
<path d="M518 88 c-9 2 -19 -2 -23 -8 -4 -7 -3 -16 3 -22 6 -6 18 -8 27 -4 9
3 15 12 13 19 -3 6 -12 13 -20 15z"/>
</g>
</svg>
