<?xml version="1.0" standalone="no"?>
<!DOCTYPE svg PUBLIC "-//W3C//DTD SVG 20010904//EN"
 "http://www.w3.org/TR/2001/REC-SVG-20010904/DTD/svg10.dtd">
<svg version="1.0" xmlns="http://www.w3.org/2000/svg"
 width="56.000000pt" height="56.000000pt" viewBox="0 0 56.000000 56.000000"
 preserveAspectRatio="xMidYMid meet">
<metadata>
Created by potrace 1.16, written by Peter Selinger 2001-2019
</metadata>
<g transform="translate(0.000000,56.000000) scale(0.100000,-0.100000)"
fill="#000000" stroke="none">
<path d="M207 560 c-8 0 -20 -11 -27 -25 -10 -20 -11 -28 -2 -37 7 -7 12 -20
12 -30 0 -10 -9 -20 -22 -23 -13 -2 -34 -6 -48 -7 -17 -2 -25 -9 -25 -23 0
-14 8 -21 28 -23 16 -2 30 -9 33 -16 3 -7 -11 -55 -31 -107 -20 -52 -43 -109
-52 -128 -11 -25 -13 -42 -7 -60 6 -15 17 -26 27 -26 13 0 24 15 36 53 10 29
21 56 25 59 4 4 11 1 16 -7 6 -8 10 -40 10 -71 0 -42 5 -60 19 -73 17 -15 25
-16 80 -5 49 10 66 11 81 1 11 -7 39 -12 64 -12 26 0 48 6 56 15 7 8 10 21 7
29 -3 8 -25 20 -49 27 -27 7 -73 9 -124 5 -81 -7 -81 -7 -88 63 -4 41 -13 74
-22 81 -7 7 -14 20 -14 28 0 9 10 49 22 89 22 74 22 74 78 89 30 9 61 22 69
29 7 8 11 21 8 29 -4 9 -18 16 -35 16 -15 0 -33 -5 -39 -11 -7 -7 -18 -9 -27
-6 -9 4 -12 13 -9 27 4 16 0 23 -16 27 -11 3 -21 9 -21 14 0 5 -6 9 -13 9z"/>
</g>
</svg>
