<?xml version="1.0" standalone="no"?>
<!DOCTYPE svg PUBLIC "-//W3C//DTD SVG 20010904//EN"
 "http://www.w3.org/TR/2001/REC-SVG-20010904/DTD/svg10.dtd">
<svg version="1.0" xmlns="http://www.w3.org/2000/svg"
 width="56.000000pt" height="56.000000pt" viewBox="0 0 56.000000 56.000000"
 preserveAspectRatio="xMidYMid meet">
<metadata>
Created by potrace 1.16, written by Peter Selinger 2001-2019
</metadata>
<g transform="translate(0.000000,56.000000) scale(0.100000,-0.100000)"
fill="#000000" stroke="none">
<path d="M38 460 c-10 0 -18 -7 -18 -15 0 -8 16 -37 35 -64 19 -26 35 -54 35
-60 0 -7 -15 -36 -34 -64 -18 -29 -39 -74 -45 -100 -6 -26 -9 -52 -6 -58 4 -5
10 -9 14 -9 5 0 34 30 65 66 53 62 56 69 56 119 0 30 -6 67 -12 82 -7 15 -26
45 -42 66 -16 20 -38 37 -48 37z"/>
<path d="M393 440 c-36 0 -43 -3 -43 -20 0 -11 5 -20 11 -20 7 0 43 -32 81
-72 65 -68 69 -71 93 -58 18 10 25 22 25 42 0 16 -8 37 -17 46 -9 9 -37 32
-62 50 -35 24 -57 32 -88 32z"/>
<path d="M389 190 c-10 0 -27 -10 -39 -22 -11 -12 -20 -34 -20 -50 0 -28 0
-28 75 -28 45 0 75 4 75 10 0 6 -16 29 -37 50 -20 22 -44 40 -54 40z"/>
</g>
</svg>
