<?xml version="1.0" standalone="no"?>
<!DOCTYPE svg PUBLIC "-//W3C//DTD SVG 20010904//EN"
 "http://www.w3.org/TR/2001/REC-SVG-20010904/DTD/svg10.dtd">
<svg version="1.0" xmlns="http://www.w3.org/2000/svg"
 width="56.000000pt" height="56.000000pt" viewBox="0 0 56.000000 56.000000"
 preserveAspectRatio="xMidYMid meet">
<metadata>
Created by potrace 1.16, written by Peter Selinger 2001-2019
</metadata>
<g transform="translate(0.000000,56.000000) scale(0.100000,-0.100000)"
fill="#000000" stroke="none">
<path d="M443 391 c-23 16 -44 25 -47 21 -3 -5 3 -18 12 -28 10 -10 32 -39 48
-64 17 -25 38 -63 46 -85 10 -27 23 -41 37 -43 17 -3 21 2 21 27 0 17 -9 47
-21 68 -12 21 -28 46 -38 57 -9 10 -35 31 -58 47z"/>
<path d="M27 364 c-24 6 -28 4 -25 -11 2 -10 13 -19 24 -21 12 -2 36 -19 55
-38 32 -33 34 -39 34 -107 0 -62 3 -72 19 -75 10 -2 23 1 30 8 6 6 11 43 11
83 1 40 4 86 8 102 4 17 3 36 -2 44 -5 8 -16 11 -29 7 -13 -4 -19 -13 -15 -22
3 -9 -1 -14 -12 -14 -9 0 -29 8 -43 19 -15 10 -40 21 -55 25z"/>
</g>
</svg>
