<?xml version="1.0" standalone="no"?>
<!DOCTYPE svg PUBLIC "-//W3C//DTD SVG 20010904//EN"
 "http://www.w3.org/TR/2001/REC-SVG-20010904/DTD/svg10.dtd">
<svg version="1.0" xmlns="http://www.w3.org/2000/svg"
 width="56.000000pt" height="56.000000pt" viewBox="0 0 56.000000 56.000000"
 preserveAspectRatio="xMidYMid meet">
<metadata>
Created by potrace 1.16, written by Peter Selinger 2001-2019
</metadata>
<g transform="translate(0.000000,56.000000) scale(0.100000,-0.100000)"
fill="#000000" stroke="none">
<path d="M275 440 c-13 0 -27 -5 -30 -10 -4 -6 22 -41 57 -78 35 -37 81 -93
103 -124 31 -47 43 -58 66 -58 18 0 30 6 34 19 3 10 2 27 -2 39 -5 11 -33 49
-63 84 -30 35 -74 78 -97 96 -24 17 -54 32 -68 32z"/>
<path d="M103 380 c-2 0 -6 -7 -10 -16 -3 -8 -1 -20 6 -27 6 -6 11 -22 11 -35
0 -13 -10 -38 -22 -55 -12 -18 -35 -45 -51 -61 -15 -15 -26 -33 -24 -40 2 -6
13 -12 25 -14 13 -2 35 7 53 22 17 14 34 26 39 26 5 0 22 11 38 25 17 14 33
39 37 55 4 20 1 39 -12 61 -10 17 -33 37 -52 45 -18 8 -35 14 -38 14z"/>
</g>
</svg>
