<?xml version="1.0" standalone="no"?>
<!DOCTYPE svg PUBLIC "-//W3C//DTD SVG 20010904//EN"
 "http://www.w3.org/TR/2001/REC-SVG-20010904/DTD/svg10.dtd">
<svg version="1.0" xmlns="http://www.w3.org/2000/svg"
 width="56.000000pt" height="56.000000pt" viewBox="0 0 56.000000 56.000000"
 preserveAspectRatio="xMidYMid meet">
<metadata>
Created by potrace 1.16, written by Peter Selinger 2001-2019
</metadata>
<g transform="translate(0.000000,56.000000) scale(0.100000,-0.100000)"
fill="#000000" stroke="none">
<path d="M236 560 c-106 0 -106 0 -106 -28 0 -16 3 -31 6 -35 4 -3 26 5 51 18
24 14 48 25 54 25 5 0 17 -16 25 -35 7 -19 14 -37 14 -40 0 -3 -10 -9 -23 -14
-15 -6 -39 -5 -65 2 -32 8 -45 8 -54 -1 -10 -10 -9 -16 4 -28 9 -9 38 -20 64
-25 27 -5 55 -15 62 -23 12 -12 8 -22 -24 -71 -22 -32 -47 -71 -56 -88 -9 -16
-22 -35 -27 -40 -6 -6 -11 -21 -11 -33 0 -13 4 -26 10 -29 5 -3 19 -1 31 5 11
6 25 25 31 41 6 19 17 29 29 29 18 0 19 -5 13 -58 -6 -56 -5 -60 26 -95 28
-32 38 -37 76 -37 31 0 44 4 44 14 0 8 -19 29 -42 47 -24 18 -47 36 -51 40 -5
4 -11 43 -14 87 -4 71 -2 85 21 130 22 44 30 51 58 54 25 2 33 8 33 23 0 12
-14 27 -39 41 -39 22 -40 24 -37 73 2 51 2 51 -103 51z"/>
</g>
</svg>
