<?xml version="1.0" standalone="no"?>
<!DOCTYPE svg PUBLIC "-//W3C//DTD SVG 20010904//EN"
 "http://www.w3.org/TR/2001/REC-SVG-20010904/DTD/svg10.dtd">
<svg version="1.0" xmlns="http://www.w3.org/2000/svg"
 width="56.000000pt" height="56.000000pt" viewBox="0 0 56.000000 56.000000"
 preserveAspectRatio="xMidYMid meet">
<metadata>
Created by potrace 1.16, written by Peter Selinger 2001-2019
</metadata>
<g transform="translate(0.000000,56.000000) scale(0.100000,-0.100000)"
fill="#000000" stroke="none">
<path d="M366 500 c-18 0 -37 -5 -44 -12 -7 -7 -12 -16 -12 -21 0 -5 19 -28
43 -51 23 -23 55 -57 70 -76 16 -19 36 -51 44 -72 10 -25 21 -38 34 -38 11 0
24 11 31 25 6 14 15 25 20 25 4 0 8 24 8 54 0 47 -4 58 -32 88 -18 20 -55 45
-82 57 -27 11 -63 21 -80 21z"/>
<path d="M38 380 c-12 0 -18 -8 -18 -24 0 -14 5 -28 11 -32 8 -4 9 -25 4 -63
-4 -31 -7 -76 -6 -101 0 -24 5 -57 12 -72 6 -15 20 -30 31 -33 10 -4 30 1 44
10 14 9 34 30 44 48 11 18 20 48 20 68 0 20 -7 50 -15 65 -8 16 -36 53 -62 82
-26 28 -55 52 -65 52z"/>
</g>
</svg>
