<?xml version="1.0" standalone="no"?>
<!DOCTYPE svg PUBLIC "-//W3C//DTD SVG 20010904//EN"
 "http://www.w3.org/TR/2001/REC-SVG-20010904/DTD/svg10.dtd">
<svg version="1.0" xmlns="http://www.w3.org/2000/svg"
 width="56.000000pt" height="56.000000pt" viewBox="0 0 56.000000 56.000000"
 preserveAspectRatio="xMidYMid meet">
<metadata>
Created by potrace 1.16, written by Peter Selinger 2001-2019
</metadata>
<g transform="translate(0.000000,56.000000) scale(0.100000,-0.100000)"
fill="#000000" stroke="none">
<path d="M274 560 c-24 0 -44 -4 -44 -10 0 -5 9 -14 20 -20 11 -6 20 -21 20
-33 0 -12 -4 -26 -8 -32 -4 -5 -25 -19 -47 -30 -33 -16 -41 -26 -43 -53 -2
-22 1 -34 12 -37 9 -3 24 -8 34 -11 16 -5 16 -6 0 -15 -10 -6 -18 -16 -18 -24
0 -8 -16 -21 -35 -29 -19 -8 -35 -22 -35 -30 0 -11 -10 -16 -30 -16 -16 0 -30
-5 -30 -11 0 -6 7 -17 16 -26 8 -9 26 -15 40 -15 16 0 37 14 62 42 37 42 37
42 123 47 61 4 88 2 94 -6 4 -7 -1 -21 -10 -31 -9 -10 -48 -28 -86 -40 -39
-11 -79 -30 -89 -40 -11 -11 -22 -31 -26 -45 -3 -14 -4 -32 0 -40 3 -8 18 -20
33 -26 15 -6 36 -15 45 -20 10 -5 43 -9 74 -9 54 0 55 0 52 27 -2 22 -10 29
-37 34 -18 4 -42 16 -54 27 -11 11 -17 27 -14 35 3 8 25 17 49 21 25 4 62 21
89 40 39 29 46 39 47 70 1 28 -4 39 -23 52 -15 10 -46 16 -82 16 -32 0 -67 -2
-78 -4 -16 -2 -19 2 -17 22 2 14 8 29 13 34 5 6 9 20 9 33 0 13 6 38 14 56 7
18 11 47 8 65 -4 30 -6 32 -48 32z"/>
</g>
</svg>
