<?xml version="1.0" standalone="no"?>
<!DOCTYPE svg PUBLIC "-//W3C//DTD SVG 20010904//EN"
 "http://www.w3.org/TR/2001/REC-SVG-20010904/DTD/svg10.dtd">
<svg version="1.0" xmlns="http://www.w3.org/2000/svg"
 width="56.000000pt" height="56.000000pt" viewBox="0 0 56.000000 56.000000"
 preserveAspectRatio="xMidYMid meet">
<metadata>
Created by potrace 1.16, written by Peter Selinger 2001-2019
</metadata>
<g transform="translate(0.000000,56.000000) scale(0.100000,-0.100000)"
fill="#000000" stroke="none">
<path d="M179 500 c-4 0 -10 -4 -13 -8 -3 -5 -26 -19 -51 -32 -25 -13 -57 -34
-71 -46 -13 -13 -24 -32 -24 -44 0 -12 11 -31 23 -43 14 -13 27 -39 30 -63 5
-31 3 -45 -9 -55 -8 -7 -13 -21 -11 -31 3 -10 0 -18 -7 -18 -7 0 -21 -9 -30
-19 -10 -11 -16 -28 -14 -38 2 -13 12 -18 35 -18 17 -1 39 5 48 11 10 8 12 14
6 19 -6 3 -11 10 -11 15 0 5 7 7 16 3 10 -4 17 1 21 15 2 11 13 22 24 25 10 3
19 10 19 16 0 6 -9 11 -20 11 -11 0 -20 7 -20 15 0 8 4 15 9 15 6 0 13 -4 16
-10 3 -5 10 -10 16 -10 5 0 7 16 5 36 -3 19 -14 51 -26 71 -15 25 -19 44 -14
69 3 18 21 49 39 67 19 19 31 38 28 41 -4 3 -10 6 -14 6z"/>
<path d="M354 420 c-7 0 -15 -4 -18 -9 -3 -4 4 -17 15 -27 12 -11 39 -45 60
-77 22 -32 39 -63 39 -69 0 -6 5 -28 12 -49 8 -30 16 -39 33 -39 12 0 31 10
43 23 12 13 22 29 22 35 0 7 -4 12 -9 12 -5 0 -11 13 -14 29 -3 16 -19 41 -34
55 -15 14 -52 46 -82 71 -30 25 -60 45 -67 45z"/>
<path d="M275 80 c-16 0 -25 -6 -25 -15 0 -9 9 -15 25 -15 16 0 25 6 25 15 0
9 -9 15 -25 15z"/>
</g>
</svg>
