<?xml version="1.0" standalone="no"?>
<!DOCTYPE svg PUBLIC "-//W3C//DTD SVG 20010904//EN"
 "http://www.w3.org/TR/2001/REC-SVG-20010904/DTD/svg10.dtd">
<svg version="1.0" xmlns="http://www.w3.org/2000/svg"
 width="56.000000pt" height="56.000000pt" viewBox="0 0 56.000000 56.000000"
 preserveAspectRatio="xMidYMid meet">
<metadata>
Created by potrace 1.16, written by Peter Selinger 2001-2019
</metadata>
<g transform="translate(0.000000,56.000000) scale(0.100000,-0.100000)"
fill="#000000" stroke="none">
<path d="M333 446 c-26 9 -35 9 -44 -2 -7 -9 -7 -18 0 -32 6 -11 14 -22 19
-24 4 -1 38 -38 75 -80 47 -55 70 -91 78 -122 6 -25 19 -52 29 -61 14 -13 22
-14 44 -4 23 11 26 18 26 66 0 29 -4 53 -10 53 -5 0 -17 15 -26 33 -9 17 -37
55 -62 82 -24 28 -56 57 -71 65 -14 8 -41 20 -58 26z"/>
<path d="M23 420 c-14 0 -23 -6 -23 -16 0 -9 18 -36 39 -60 37 -42 39 -49 47
-137 9 -92 9 -92 40 -95 24 -2 33 2 42 23 7 14 12 46 12 71 0 25 -7 59 -16 77
-9 18 -39 56 -67 85 -32 33 -60 52 -74 52z"/>
</g>
</svg>
