<?xml version="1.0" standalone="no"?>
<!DOCTYPE svg PUBLIC "-//W3C//DTD SVG 20010904//EN"
 "http://www.w3.org/TR/2001/REC-SVG-20010904/DTD/svg10.dtd">
<svg version="1.0" xmlns="http://www.w3.org/2000/svg"
 width="56.000000pt" height="56.000000pt" viewBox="0 0 56.000000 56.000000"
 preserveAspectRatio="xMidYMid meet">
<metadata>
Created by potrace 1.16, written by Peter Selinger 2001-2019
</metadata>
<g transform="translate(0.000000,56.000000) scale(0.100000,-0.100000)"
fill="#000000" stroke="none">
<path d="M229 551 c-7 9 -7 4 -3 -16 4 -16 11 -34 15 -39 5 -6 9 -22 9 -37 0
-15 -9 -49 -20 -76 -11 -26 -27 -60 -35 -75 -11 -19 -12 -29 -4 -33 6 -4 16
-2 22 4 6 6 16 11 22 11 6 0 16 -17 21 -37 8 -33 13 -38 42 -41 17 -2 32 -8
32 -13 0 -6 -14 -30 -30 -55 -17 -24 -36 -44 -43 -44 -7 0 -18 19 -25 43 -7
23 -18 54 -25 70 -7 15 -18 27 -24 27 -7 0 -13 -9 -13 -20 0 -10 4 -29 9 -42
5 -13 16 -47 25 -77 14 -48 15 -57 2 -76 -15 -22 -14 -23 31 -23 35 -1 44 1
35 10 -7 7 -12 21 -12 33 0 12 20 38 49 63 27 24 57 59 66 78 9 19 13 43 10
54 -4 11 -14 21 -23 22 -9 0 -27 0 -38 -1 -16 -1 -23 6 -27 28 -3 16 -13 36
-22 44 -8 9 -15 27 -15 41 0 14 5 28 10 31 6 3 10 17 10 30 0 14 8 29 19 34
10 6 21 17 25 26 3 8 3 22 0 30 -4 10 -19 14 -46 13 -25 -1 -43 4 -49 13z"/>
</g>
</svg>
