<?xml version="1.0" standalone="no"?>
<!DOCTYPE svg PUBLIC "-//W3C//DTD SVG 20010904//EN"
 "http://www.w3.org/TR/2001/REC-SVG-20010904/DTD/svg10.dtd">
<svg version="1.0" xmlns="http://www.w3.org/2000/svg"
 width="56.000000pt" height="56.000000pt" viewBox="0 0 56.000000 56.000000"
 preserveAspectRatio="xMidYMid meet">
<metadata>
Created by potrace 1.16, written by Peter Selinger 2001-2019
</metadata>
<g transform="translate(0.000000,56.000000) scale(0.100000,-0.100000)"
fill="#000000" stroke="none">
<path d="M450 420 c-9 0 -20 -3 -23 -6 -4 -4 -4 -19 -1 -33 4 -14 17 -40 30
-58 13 -17 24 -38 24 -46 0 -8 8 -25 18 -37 13 -17 24 -21 40 -16 16 5 22 15
22 35 0 15 -7 43 -16 62 -9 19 -31 49 -47 67 -17 17 -38 32 -47 32z"/>
<path d="M195 384 c-20 4 -37 2 -50 -8 -20 -14 -20 -15 -2 -46 17 -27 17 -33
4 -53 -8 -12 -44 -47 -80 -77 -40 -33 -62 -59 -57 -64 6 -6 14 -5 22 1 7 6 27
13 45 16 18 4 35 2 38 -3 3 -6 10 -10 16 -10 5 0 9 11 9 24 0 17 7 27 22 32
12 3 43 27 70 52 35 33 48 52 48 73 0 21 -7 32 -27 43 -16 7 -42 17 -58 20z"/>
</g>
</svg>
