<?xml version="1.0" standalone="no"?>
<!DOCTYPE svg PUBLIC "-//W3C//DTD SVG 20010904//EN"
 "http://www.w3.org/TR/2001/REC-SVG-20010904/DTD/svg10.dtd">
<svg version="1.0" xmlns="http://www.w3.org/2000/svg"
 width="56.000000pt" height="56.000000pt" viewBox="0 0 56.000000 56.000000"
 preserveAspectRatio="xMidYMid meet">
<metadata>
Created by potrace 1.16, written by Peter Selinger 2001-2019
</metadata>
<g transform="translate(0.000000,56.000000) scale(0.100000,-0.100000)"
fill="#000000" stroke="none">
<path d="M444 376 c-22 13 -44 21 -47 17 -4 -3 -7 -13 -7 -20 0 -8 23 -47 50
-88 35 -52 57 -75 71 -75 11 0 22 7 25 15 4 8 4 25 0 38 -3 13 -16 38 -28 56
-13 19 -41 44 -64 57z"/>
<path d="M86 360 c-9 0 -16 -4 -16 -9 0 -6 5 -13 10 -16 6 -3 10 -15 10 -25 0
-11 -16 -49 -35 -86 -19 -36 -35 -69 -35 -73 0 -5 12 -6 28 -3 15 2 37 14 49
27 11 12 31 41 42 63 12 23 21 50 21 61 0 11 -13 29 -29 40 -16 12 -36 21 -45
21z"/>
</g>
</svg>
