<?xml version="1.0" standalone="no"?>
<!DOCTYPE svg PUBLIC "-//W3C//DTD SVG 20010904//EN"
 "http://www.w3.org/TR/2001/REC-SVG-20010904/DTD/svg10.dtd">
<svg version="1.0" xmlns="http://www.w3.org/2000/svg"
 width="56.000000pt" height="56.000000pt" viewBox="0 0 56.000000 56.000000"
 preserveAspectRatio="xMidYMid meet">
<metadata>
Created by potrace 1.16, written by Peter Selinger 2001-2019
</metadata>
<g transform="translate(0.000000,56.000000) scale(0.100000,-0.100000)"
fill="#000000" stroke="none">
<path d="M270 560 c-21 0 -30 -5 -30 -16 0 -9 -8 -23 -17 -30 -10 -7 -25 -14
-34 -14 -9 0 -27 -9 -40 -19 -19 -16 -22 -22 -11 -32 6 -7 12 -19 12 -27 0 -8
9 -27 21 -43 17 -24 28 -29 60 -29 31 0 39 -4 39 -18 0 -11 -57 -73 -130 -144
-98 -94 -130 -132 -130 -150 0 -14 3 -27 6 -31 3 -3 24 6 45 20 21 14 39 29
39 33 0 4 11 19 25 34 13 14 34 26 46 26 19 0 21 -4 16 -37 -4 -21 -2 -45 3
-53 6 -10 27 -15 57 -16 26 -1 103 -5 171 -8 97 -6 122 -4 122 6 -1 7 -11 26
-24 41 -22 28 -22 28 -67 9 -25 -11 -78 -23 -118 -27 -72 -7 -72 -7 -65 68 6
71 5 76 -16 87 -23 12 -23 12 14 46 20 18 36 41 36 51 0 10 12 30 25 46 19 21
33 27 65 27 32 0 40 4 40 18 0 10 -5 23 -12 30 -7 7 -22 12 -35 12 -18 0 -23
6 -23 24 0 14 -5 37 -11 53 -6 15 -19 36 -29 45 -11 10 -33 18 -50 18z m-5
-40 c2 0 11 -7 19 -16 9 -8 16 -28 16 -44 0 -21 -7 -30 -29 -40 -17 -6 -35 -9
-40 -5 -6 3 -11 13 -11 22 0 9 9 31 21 49 11 19 22 34 24 34z"/>
</g>
</svg>
