<?xml version="1.0" standalone="no"?>
<!DOCTYPE svg PUBLIC "-//W3C//DTD SVG 20010904//EN"
 "http://www.w3.org/TR/2001/REC-SVG-20010904/DTD/svg10.dtd">
<svg version="1.0" xmlns="http://www.w3.org/2000/svg"
 width="56.000000pt" height="56.000000pt" viewBox="0 0 56.000000 56.000000"
 preserveAspectRatio="xMidYMid meet">
<metadata>
Created by potrace 1.16, written by Peter Selinger 2001-2019
</metadata>
<g transform="translate(0.000000,56.000000) scale(0.100000,-0.100000)"
fill="#000000" stroke="none">
<path d="M315 445 c-16 6 -36 10 -42 8 -7 -3 -13 -13 -13 -24 0 -11 7 -19 16
-19 8 0 44 -30 80 -67 46 -49 77 -94 109 -160 25 -51 49 -93 54 -93 5 0 16 3
25 6 11 4 16 19 16 44 0 21 -5 40 -11 42 -6 2 -13 26 -15 53 -3 28 -13 65 -22
84 -11 22 -35 45 -67 63 -27 15 -61 33 -75 39 -14 6 -38 17 -55 24z"/>
<path d="M57 360 c-6 0 -20 -5 -29 -11 -10 -5 -18 -15 -18 -20 0 -6 12 -24 28
-39 15 -16 36 -39 47 -52 11 -13 28 -36 37 -53 9 -16 21 -40 27 -52 5 -12 19
-27 31 -33 11 -6 25 -8 30 -5 5 3 8 25 8 48 -1 23 -6 48 -11 54 -5 7 -7 20 -3
28 3 9 -2 27 -11 41 -9 14 -40 41 -70 60 -29 19 -59 34 -66 34z"/>
</g>
</svg>
