<?xml version="1.0" standalone="no"?>
<!DOCTYPE svg PUBLIC "-//W3C//DTD SVG 20010904//EN"
 "http://www.w3.org/TR/2001/REC-SVG-20010904/DTD/svg10.dtd">
<svg version="1.0" xmlns="http://www.w3.org/2000/svg"
 width="128.000000pt" height="128.000000pt" viewBox="0 0 128.000000 128.000000"
 preserveAspectRatio="xMidYMid meet">
<metadata>
Created by potrace 1.16, written by Peter Selinger 2001-2019
</metadata>
<g transform="translate(0.000000,128.000000) scale(0.100000,-0.100000)"
fill="#000000" stroke="none">
<path d="M674 1098 c-10 1 -26 -2 -34 -8 -8 -5 -39 -17 -67 -25 -29 -9 -53
-20 -53 -25 0 -5 14 -18 31 -30 30 -22 30 -22 7 -47 -13 -14 -36 -34 -52 -46
-17 -12 -53 -25 -80 -29 -28 -5 -58 -8 -66 -8 -8 0 -41 3 -72 6 -50 5 -58 4
-58 -11 0 -10 19 -40 42 -69 24 -28 47 -54 53 -58 5 -4 19 -8 31 -8 13 0 48
26 88 66 37 36 72 64 79 61 7 -2 13 -16 15 -30 2 -15 -10 -66 -27 -113 -17
-48 -31 -95 -31 -104 0 -10 -6 -20 -12 -23 -7 -2 -20 -1 -28 3 -9 5 -69 2
-135 -6 -66 -8 -135 -21 -153 -29 -18 -8 -43 -15 -55 -15 -12 0 -29 -4 -37
-10 -12 -7 -12 -12 4 -29 16 -17 31 -21 85 -21 37 0 98 9 136 19 39 10 88 22
110 25 38 7 41 5 52 -23 9 -26 8 -32 -13 -52 -13 -12 -24 -27 -24 -34 0 -6 13
-18 29 -28 16 -9 34 -17 41 -17 7 0 25 -9 41 -21 16 -11 29 -24 29 -28 0 -5
-37 -44 -81 -89 -46 -45 -78 -85 -75 -91 4 -6 14 -11 22 -11 7 0 56 23 106 51
51 28 103 62 115 77 23 27 23 27 92 3 39 -13 72 -29 75 -36 2 -7 -4 -21 -14
-30 -10 -9 -33 -24 -50 -34 -18 -9 -33 -21 -34 -26 0 -6 41 -11 93 -13 52 -1
98 1 103 6 6 6 -4 20 -25 36 -20 15 -38 33 -40 41 -3 7 3 31 14 52 11 21 18
49 17 62 -2 16 -12 27 -28 32 -14 4 -42 10 -63 14 -21 3 -41 13 -44 21 -3 8 9
42 26 75 17 33 31 69 31 78 0 10 12 23 26 30 20 9 35 8 70 -4 25 -8 51 -15 58
-15 8 0 38 -7 67 -16 30 -9 75 -25 101 -36 41 -18 51 -19 77 -8 20 8 31 20 31
32 0 11 -28 46 -62 79 -60 57 -65 59 -103 54 -22 -4 -74 -7 -115 -9 -42 -1
-81 -6 -88 -10 -7 -4 -24 -5 -37 -2 -18 5 -25 15 -30 46 -4 22 -11 42 -16 45
-5 3 -24 3 -44 -1 -19 -3 -35 -12 -35 -19 0 -7 7 -15 15 -19 8 -3 15 -14 15
-24 0 -13 -12 -22 -40 -31 -22 -7 -45 -9 -50 -6 -6 3 -10 15 -10 25 0 11 9 37
20 58 11 21 24 59 29 85 5 26 15 55 24 65 8 10 15 37 16 65 0 26 2 51 5 55 2
4 -2 30 -8 57 -10 36 -18 51 -32 53z m-50 -518 c23 0 51 -6 61 -14 18 -13 19
-18 6 -63 -8 -26 -16 -60 -18 -74 -5 -24 -8 -26 -36 -18 -18 4 -45 11 -61 16
-16 5 -34 16 -39 25 -8 12 -3 31 17 72 27 55 28 56 70 56z"/>
<path d="M847 1010 c-25 0 -49 -6 -55 -13 -6 -7 -9 -22 -6 -34 3 -11 -1 -27
-10 -36 -9 -8 -21 -17 -28 -19 -7 -3 -9 -12 -5 -22 6 -14 14 -17 35 -12 15 3
50 9 77 12 28 4 62 13 78 21 15 7 27 22 27 32 0 10 -15 30 -34 45 -25 19 -47
26 -79 26z"/>
</g>
</svg>
