<?xml version="1.0" standalone="no"?>
<!DOCTYPE svg PUBLIC "-//W3C//DTD SVG 20010904//EN"
 "http://www.w3.org/TR/2001/REC-SVG-20010904/DTD/svg10.dtd">
<svg version="1.0" xmlns="http://www.w3.org/2000/svg"
 width="128.000000pt" height="128.000000pt" viewBox="0 0 128.000000 128.000000"
 preserveAspectRatio="xMidYMid meet">
<metadata>
Created by potrace 1.16, written by Peter Selinger 2001-2019
</metadata>
<g transform="translate(0.000000,128.000000) scale(0.100000,-0.100000)"
fill="#000000" stroke="none">
<path d="M601 1159 c-9 0 -23 -4 -31 -9 -8 -4 -36 -18 -63 -31 -26 -12 -46
-27 -44 -33 2 -6 24 -11 49 -11 26 0 50 -3 54 -7 4 -4 9 -30 12 -57 3 -30 -2
-67 -12 -98 -15 -45 -20 -50 -62 -62 -25 -8 -71 -26 -101 -42 -42 -21 -60 -26
-74 -19 -11 6 -27 7 -42 1 -14 -6 -28 -14 -31 -19 -3 -5 2 -16 12 -25 9 -8 34
-18 54 -22 25 -5 52 -1 85 11 26 10 65 33 86 51 20 18 42 33 47 33 6 0 8 -16
4 -42 -4 -24 -18 -67 -32 -96 -18 -40 -23 -64 -19 -93 3 -26 1 -42 -9 -50 -8
-7 -13 -18 -10 -26 4 -9 -5 -16 -24 -20 -17 -3 -33 -10 -36 -14 -3 -5 -14 -4
-25 2 -12 6 -38 8 -62 4 -23 -4 -60 -14 -82 -24 -22 -10 -67 -23 -100 -30 -33
-7 -78 -18 -100 -25 -22 -7 -40 -19 -40 -27 0 -8 17 -20 38 -26 21 -7 49 -10
63 -7 13 3 24 10 24 15 0 5 16 9 35 9 19 0 58 9 87 20 29 11 63 20 75 20 12 0
26 6 30 14 4 7 18 18 30 25 12 6 30 8 40 4 10 -4 21 -11 25 -17 4 -5 4 -22 1
-37 -4 -20 1 -32 17 -46 13 -10 36 -30 51 -45 16 -15 29 -32 29 -37 0 -5 -22
-29 -50 -53 -27 -24 -50 -51 -50 -61 0 -14 5 -17 23 -11 12 4 41 15 64 25 23
10 47 27 53 38 6 12 21 21 34 21 13 0 31 -9 41 -20 10 -11 26 -20 35 -20 10 0
28 -8 41 -19 13 -10 41 -24 61 -32 24 -8 41 -9 47 -4 4 6 4 24 -1 42 -6 24
-14 33 -29 33 -11 0 -34 7 -52 17 -17 9 -47 28 -64 42 -18 14 -33 31 -33 36 0
6 12 21 25 34 14 13 25 28 25 34 0 6 6 18 14 26 8 9 16 30 18 46 3 26 -1 30
-23 33 -23 3 -28 -3 -52 -65 -15 -38 -27 -74 -27 -80 0 -7 -5 -15 -10 -18 -6
-4 -29 -4 -50 0 -24 4 -40 12 -40 21 0 7 -13 29 -30 47 -16 19 -30 43 -30 53
0 11 4 25 9 33 6 9 11 10 15 2 4 -6 15 -11 25 -11 10 0 26 9 35 19 15 16 27
18 72 14 29 -3 59 -2 66 4 7 5 49 9 93 8 44 0 112 -8 150 -16 39 -9 88 -27
110 -40 22 -13 42 -27 43 -31 2 -4 26 -8 53 -8 40 0 49 3 49 18 0 9 -32 43
-70 75 -62 52 -73 58 -112 56 -24 -1 -80 0 -126 1 -74 1 -83 3 -76 18 4 9 9
38 12 63 3 33 -1 49 -12 58 -14 11 -23 11 -54 -1 -26 -10 -38 -21 -40 -38 -2
-13 1 -42 8 -63 9 -32 9 -41 -2 -48 -7 -5 -31 -9 -53 -9 -22 0 -53 -7 -68 -15
-25 -13 -33 -13 -63 0 -19 8 -34 16 -34 19 0 3 11 22 25 42 14 21 28 49 31 63
3 14 9 34 15 43 5 10 9 26 9 36 0 11 9 27 21 38 15 13 19 26 15 45 -3 18 0 32
10 40 8 7 20 22 27 33 6 12 12 50 12 86 0 36 4 73 9 82 6 12 -4 29 -34 62 -24
25 -50 46 -59 45z"/>
<path d="M858 1020 c-13 0 -18 -7 -18 -25 0 -13 11 -49 24 -78 13 -30 29 -58
35 -62 7 -4 25 -1 42 5 25 11 29 17 29 54 0 23 -5 47 -12 54 -7 7 -19 12 -28
12 -9 0 -25 9 -35 20 -10 11 -26 20 -37 20z"/>
<path d="M1170 400 c-5 0 -11 -4 -15 -9 -3 -5 -1 -12 5 -16 5 -3 15 -3 20 0 6
4 8 11 5 16 -4 5 -10 9 -15 9z"/>
</g>
</svg>
