<?xml version="1.0" standalone="no"?>
<!DOCTYPE svg PUBLIC "-//W3C//DTD SVG 20010904//EN"
 "http://www.w3.org/TR/2001/REC-SVG-20010904/DTD/svg10.dtd">
<svg version="1.0" xmlns="http://www.w3.org/2000/svg"
 width="128.000000pt" height="128.000000pt" viewBox="0 0 128.000000 128.000000"
 preserveAspectRatio="xMidYMid meet">
<metadata>
Created by potrace 1.16, written by Peter Selinger 2001-2019
</metadata>
<g transform="translate(0.000000,128.000000) scale(0.100000,-0.100000)"
fill="#000000" stroke="none">
<path d="M573 1100 c-10 0 -26 -5 -35 -11 -10 -5 -18 -16 -18 -24 0 -8 8 -19
19 -24 10 -6 21 -18 25 -26 3 -9 1 -26 -5 -38 -7 -12 -29 -43 -50 -68 -22 -26
-39 -52 -39 -58 0 -5 8 -15 19 -20 13 -7 23 -7 33 2 8 7 26 31 41 55 22 34 33
42 56 42 16 0 36 3 45 6 11 4 16 19 16 49 0 38 -4 46 -44 79 -24 20 -53 36
-63 36z"/>
<path d="M844 1066 c-22 4 -33 2 -36 -7 -3 -8 -1 -22 4 -32 7 -13 5 -24 -6
-36 -9 -10 -16 -23 -16 -29 0 -6 -14 -27 -31 -47 -17 -19 -37 -35 -44 -35 -7
0 -15 7 -19 15 -4 11 -13 14 -33 9 -16 -4 -29 -8 -31 -9 -2 -2 -14 -50 -28
-106 -13 -57 -29 -114 -34 -126 -5 -13 -15 -23 -22 -23 -7 0 -41 -13 -74 -29
-34 -16 -63 -34 -65 -39 -2 -6 -26 -17 -54 -24 -27 -7 -77 -30 -109 -50 -33
-21 -67 -38 -77 -38 -10 0 -28 -4 -41 -9 -13 -5 -42 -14 -65 -20 -24 -7 -43
-16 -43 -21 0 -5 11 -16 24 -25 12 -8 52 -17 88 -19 64 -5 65 -4 129 44 35 27
69 49 75 50 6 0 19 9 29 20 10 11 30 20 45 20 15 0 35 -9 44 -19 10 -11 30
-22 44 -26 15 -3 37 -16 50 -27 12 -12 22 -26 22 -31 0 -6 11 -25 25 -43 25
-32 25 -32 -23 -72 -26 -22 -67 -45 -92 -52 -25 -8 -51 -19 -59 -26 -7 -6 -10
-17 -7 -23 4 -6 33 -11 64 -11 56 0 57 0 114 60 32 35 65 60 77 60 11 0 27
-10 35 -22 9 -12 16 -32 16 -43 0 -12 7 -30 15 -41 15 -19 15 -19 30 0 8 11
15 34 15 52 0 18 -4 35 -9 38 -5 3 -12 26 -16 52 -5 33 -2 51 8 67 8 12 25 33
38 47 13 13 34 39 46 58 13 18 23 38 23 43 0 6 13 24 29 40 23 23 38 29 72 29
23 0 59 -5 78 -11 20 -7 53 -20 74 -31 25 -13 50 -18 80 -15 23 2 50 8 60 12
9 4 17 13 17 19 0 7 -12 18 -27 26 -16 7 -37 16 -48 21 -11 4 -42 15 -70 24
-27 9 -99 19 -160 22 -90 5 -112 9 -123 24 -7 10 -29 23 -49 28 -25 7 -41 7
-47 1 -7 -7 -6 -17 2 -31 10 -15 10 -24 2 -34 -6 -7 -34 -16 -63 -19 -28 -4
-62 -10 -74 -13 -18 -4 -23 -1 -23 15 0 11 8 22 20 25 14 3 20 14 20 32 0 15
9 38 20 52 11 14 20 39 20 54 0 25 4 29 29 29 16 0 36 6 43 13 7 6 27 21 43
33 17 11 46 28 66 37 20 9 40 24 43 33 3 8 6 26 6 39 0 12 -8 32 -17 44 -10
11 -32 24 -49 27z m-216 -455 c12 -6 45 -6 95 1 56 8 81 8 89 0 6 -6 8 -21 5
-34 -4 -13 -19 -44 -35 -68 -16 -25 -36 -57 -45 -72 -11 -18 -26 -28 -40 -28
-13 0 -34 11 -47 25 -13 14 -29 25 -37 25 -7 0 -26 19 -43 42 -16 22 -30 49
-30 59 0 11 13 22 35 29 19 6 35 16 35 21 0 6 7 6 18 0z"/>
<path d="M383 845 c-53 2 -73 0 -77 -10 -2 -7 -2 -16 1 -19 4 -3 13 -6 20 -6
8 0 31 -11 51 -25 20 -14 44 -25 53 -25 9 0 22 7 29 15 8 9 9 23 3 40 -8 24
-13 26 -80 30z"/>
</g>
</svg>
