<?xml version="1.0" standalone="no"?>
<!DOCTYPE svg PUBLIC "-//W3C//DTD SVG 20010904//EN"
 "http://www.w3.org/TR/2001/REC-SVG-20010904/DTD/svg10.dtd">
<svg version="1.0" xmlns="http://www.w3.org/2000/svg"
 width="128.000000pt" height="128.000000pt" viewBox="0 0 128.000000 128.000000"
 preserveAspectRatio="xMidYMid meet">
<metadata>
Created by potrace 1.16, written by Peter Selinger 2001-2019
</metadata>
<g transform="translate(0.000000,128.000000) scale(0.100000,-0.100000)"
fill="#000000" stroke="none">
<path d="M602 1258 c-39 1 -55 -3 -59 -15 -3 -8 0 -19 8 -24 8 -5 23 -9 34 -9
11 0 27 -4 35 -10 12 -7 12 -12 -4 -29 -11 -12 -25 -21 -31 -21 -7 0 -37 -11
-66 -23 -30 -13 -69 -27 -86 -30 -26 -5 -35 -2 -43 13 -5 10 -10 32 -10 49 0
19 -7 34 -19 40 -13 7 -23 6 -36 -3 -16 -11 -17 -23 -12 -82 3 -43 17 -97 36
-143 17 -41 31 -77 31 -82 0 -5 -26 -26 -58 -47 -32 -21 -65 -41 -75 -45 -9
-3 -17 -15 -17 -26 0 -11 9 -25 19 -31 11 -5 33 -10 50 -10 16 0 33 -5 36 -10
4 -6 2 -16 -3 -23 -5 -7 -12 -24 -15 -38 -5 -21 -19 -31 -67 -49 -32 -12 -62
-30 -64 -39 -3 -9 -8 -65 -10 -126 -3 -60 -9 -132 -15 -160 -7 -38 -6 -64 4
-106 8 -31 24 -76 35 -101 11 -25 31 -53 45 -62 13 -9 32 -16 42 -15 11 0 33
24 55 58 20 31 42 75 47 97 5 21 14 55 19 74 6 19 17 55 26 80 8 25 20 64 26
88 7 26 17 42 26 42 8 0 19 -11 24 -25 5 -14 17 -25 27 -25 10 1 29 7 43 15
14 8 28 14 33 15 4 0 7 -11 7 -24 0 -13 -11 -34 -24 -47 -12 -13 -51 -64 -85
-113 -44 -64 -61 -98 -61 -121 0 -18 7 -38 15 -45 8 -7 21 -10 30 -7 8 4 52
57 98 119 46 62 96 124 110 138 15 14 27 33 27 43 0 10 8 17 20 17 11 0 20 6
20 14 0 8 9 18 20 21 11 3 20 11 20 16 0 5 11 9 25 9 16 0 25 -6 25 -15 0 -8
-24 -30 -52 -49 -29 -18 -61 -43 -71 -54 -12 -13 -17 -32 -15 -53 2 -24 10
-37 28 -46 20 -10 25 -20 25 -49 0 -33 3 -37 41 -50 35 -12 47 -12 74 -1 21 9
56 12 106 9 47 -3 85 0 104 8 17 7 30 20 30 30 0 10 -7 21 -16 24 -9 3 -28 6
-43 6 -16 0 -40 10 -55 21 -23 18 -31 20 -52 10 -14 -6 -34 -11 -44 -11 -16 0
-20 7 -20 35 0 20 7 52 15 72 8 19 15 64 15 99 0 50 4 68 19 83 11 11 35 27
53 37 18 9 41 23 51 32 9 8 17 25 17 37 0 13 -7 26 -16 29 -9 3 -24 6 -34 6
-11 0 -41 -12 -67 -26 -41 -21 -48 -23 -51 -9 -2 8 10 31 27 51 17 19 31 41
31 49 0 7 -5 17 -11 20 -5 4 -28 -5 -49 -19 -22 -14 -44 -26 -49 -26 -5 0 -21
-13 -34 -30 -14 -16 -35 -30 -46 -30 -12 0 -21 6 -21 13 0 7 15 27 33 45 18
18 41 32 50 32 9 0 24 12 34 26 16 25 16 27 -3 41 -11 8 -29 11 -43 8 -14 -4
-37 -15 -52 -25 -14 -11 -29 -17 -33 -13 -3 3 -6 13 -6 22 0 9 28 34 63 57 34
23 72 46 85 53 12 6 22 18 22 27 0 8 -7 17 -16 21 -9 3 -39 21 -66 40 -28 18
-59 33 -70 33 -11 0 -39 -13 -63 -30 -24 -16 -47 -30 -52 -30 -5 0 -32 -24
-61 -53 -33 -34 -57 -68 -63 -93 -6 -21 -19 -57 -29 -79 -10 -22 -23 -53 -29
-70 -6 -16 -19 -65 -31 -107 -11 -42 -32 -98 -48 -125 -16 -26 -39 -79 -52
-118 -13 -38 -28 -76 -33 -82 -5 -7 -15 -13 -22 -13 -7 0 -15 8 -17 17 -2 10
0 80 4 156 5 76 13 147 18 157 5 10 23 21 39 25 16 3 36 14 44 23 8 9 22 31
31 49 9 18 16 42 16 55 -1 13 -7 41 -15 62 -14 40 -14 40 33 95 26 30 65 71
86 91 21 19 51 47 65 61 14 14 38 33 53 42 14 9 30 27 34 39 3 13 12 26 18 30
6 4 43 8 82 8 63 0 76 3 112 30 23 17 42 34 42 38 0 4 -5 13 -12 20 -7 7 -26
12 -43 12 -18 0 -54 -7 -81 -15 -27 -8 -55 -15 -61 -15 -7 0 -15 11 -19 25 -3
14 -14 29 -23 34 -9 5 -40 9 -69 9z m-54 -189 c6 1 12 -4 12 -11 0 -7 -21 -34
-47 -60 -26 -26 -53 -48 -60 -48 -7 0 -20 14 -28 31 -9 17 -14 37 -11 45 3 8
18 14 33 14 15 1 42 7 58 15 17 7 36 14 43 14z m239 -131 c8 -2 15 -7 16 -13
1 -5 -14 -19 -33 -32 -19 -12 -47 -31 -62 -42 -14 -12 -33 -21 -41 -21 -7 0
-22 -9 -32 -20 -10 -11 -24 -20 -31 -20 -7 0 -16 4 -19 10 -3 5 -1 19 5 30 6
11 21 20 33 20 13 0 32 7 43 15 10 8 25 15 32 15 8 0 27 14 44 30 17 17 37 30
45 28z m-213 -178 c8 0 17 -3 20 -8 2 -4 -2 -16 -10 -27 -10 -14 -17 -16 -25
-8 -7 7 -9 19 -6 27 4 9 13 16 21 16z m127 -81 c16 -11 29 -25 29 -30 0 -5 18
-25 40 -45 28 -26 40 -44 40 -64 0 -15 -10 -42 -23 -61 -19 -28 -30 -35 -63
-37 -28 -2 -45 2 -54 12 -8 11 -13 52 -14 118 -1 57 2 109 7 115 7 10 16 8 38
-8z m-161 -19 c16 0 20 -7 20 -30 0 -19 7 -34 20 -42 11 -7 20 -18 20 -25 0
-6 -20 -28 -44 -47 -23 -20 -49 -36 -56 -36 -6 0 -10 6 -7 14 3 8 9 43 12 78
4 35 8 69 10 76 3 6 14 12 25 12z"/>
</g>
</svg>
