<?xml version="1.0" standalone="no"?>
<!DOCTYPE svg PUBLIC "-//W3C//DTD SVG 20010904//EN"
 "http://www.w3.org/TR/2001/REC-SVG-20010904/DTD/svg10.dtd">
<svg version="1.0" xmlns="http://www.w3.org/2000/svg"
 width="128.000000pt" height="128.000000pt" viewBox="0 0 128.000000 128.000000"
 preserveAspectRatio="xMidYMid meet">
<metadata>
Created by potrace 1.16, written by Peter Selinger 2001-2019
</metadata>
<g transform="translate(0.000000,128.000000) scale(0.100000,-0.100000)"
fill="#000000" stroke="none">
<path d="M662 1240 c-12 0 -22 -4 -22 -9 0 -6 5 -13 10 -16 6 -3 10 -15 10
-25 0 -10 -22 -45 -48 -77 -27 -32 -74 -84 -105 -116 -32 -32 -57 -63 -57 -68
0 -5 -5 -9 -10 -9 -6 0 -15 -11 -22 -24 -6 -14 -8 -32 -5 -40 5 -13 12 -13 39
-4 18 6 37 17 41 25 4 7 12 13 17 13 6 0 10 -6 10 -13 0 -7 -23 -33 -51 -57
-28 -25 -88 -74 -133 -110 -66 -53 -82 -71 -84 -96 -2 -17 3 -36 11 -42 11 -9
23 -7 55 10 30 17 44 20 52 12 8 -8 5 -36 -10 -100 -12 -49 -24 -100 -27 -114
-2 -14 -11 -47 -19 -75 -8 -27 -21 -72 -29 -100 -8 -27 -19 -76 -26 -108 -11
-50 -10 -60 2 -68 8 -5 22 -9 31 -9 10 0 23 10 30 22 7 13 11 27 10 32 -2 5 6
37 17 70 12 34 30 101 42 150 11 49 25 127 30 175 5 47 17 101 25 119 10 22
14 46 9 68 -3 19 -10 34 -15 34 -6 0 -10 6 -10 13 0 7 15 27 33 44 17 17 43
36 56 43 12 6 53 34 90 61 37 27 73 49 79 49 7 0 12 -6 12 -13 0 -7 -8 -17
-19 -24 -11 -7 -20 -28 -24 -54 -3 -25 -1 -49 5 -56 6 -7 19 -13 29 -13 11 0
19 -5 19 -10 0 -6 -17 -33 -37 -60 -21 -28 -66 -73 -101 -101 -51 -42 -62 -57
-60 -77 2 -14 12 -31 23 -38 18 -11 27 -9 75 21 30 19 61 35 69 35 9 0 11 -8
6 -28 -3 -15 -19 -42 -33 -60 -15 -19 -39 -52 -54 -75 -16 -23 -36 -53 -45
-65 -10 -13 -28 -40 -40 -60 -13 -21 -28 -47 -34 -58 -6 -12 -22 -27 -35 -33
-13 -6 -24 -17 -24 -25 0 -8 7 -22 16 -30 11 -11 21 -13 32 -7 9 5 29 22 43
38 14 15 43 55 65 88 22 33 50 75 64 93 13 17 32 32 42 32 10 0 18 -6 18 -13
0 -7 -5 -18 -11 -24 -6 -6 -8 -17 -4 -23 4 -7 27 -21 51 -32 25 -10 44 -26 44
-34 0 -9 -9 -29 -20 -44 -11 -16 -18 -35 -15 -43 4 -8 17 -20 31 -28 20 -10
44 -11 124 -2 54 6 104 14 109 18 6 3 11 14 11 24 0 10 -7 24 -15 31 -9 7 -35
13 -59 13 -24 -1 -58 -9 -76 -18 -22 -12 -36 -13 -43 -6 -7 7 -6 16 4 29 8 11
35 50 62 88 32 48 47 79 47 101 0 23 -8 40 -25 55 -14 12 -25 31 -25 42 0 15
13 27 43 40 23 10 48 23 54 29 9 7 10 14 2 29 -8 15 -19 19 -47 16 -33 -3 -38
0 -54 32 -10 19 -16 44 -15 55 1 12 -5 21 -16 23 -10 2 -35 -7 -55 -20 -20
-14 -47 -27 -58 -30 -17 -4 -20 -2 -17 13 3 10 27 35 54 56 27 20 49 45 49 54
0 9 -7 20 -16 23 -9 3 -28 6 -44 6 -20 0 -31 6 -35 20 -3 11 -3 24 0 30 3 5
15 10 25 10 10 0 22 -4 25 -10 3 -5 17 -10 29 -10 13 0 33 8 45 18 20 16 21
18 5 40 -13 20 -24 23 -62 21 -35 -3 -48 1 -56 15 -9 14 -5 22 22 45 17 15 32
32 32 38 0 5 -11 15 -25 21 -14 7 -41 12 -60 12 -19 0 -37 -4 -40 -10 -3 -5
-17 -10 -31 -10 -13 0 -24 5 -24 11 0 7 29 40 65 74 36 34 65 69 65 78 0 9
-15 27 -33 41 -19 15 -44 26 -55 26z m168 -655 c5 -3 10 -19 10 -35 0 -20 -11
-37 -37 -61 -33 -28 -38 -30 -41 -15 -2 10 6 30 17 45 12 14 26 36 31 49 6 13
14 20 20 17z"/>
<path d="M460 1200 c-9 0 -20 -3 -23 -7 -4 -3 -7 -12 -7 -20 0 -7 12 -31 26
-53 15 -22 34 -40 44 -40 9 0 25 8 34 19 12 13 15 27 10 45 -3 15 -19 32 -37
41 -16 8 -38 15 -47 15z"/>
</g>
</svg>
