<?xml version="1.0" standalone="no"?>
<!DOCTYPE svg PUBLIC "-//W3C//DTD SVG 20010904//EN"
 "http://www.w3.org/TR/2001/REC-SVG-20010904/DTD/svg10.dtd">
<svg version="1.0" xmlns="http://www.w3.org/2000/svg"
 width="128.000000pt" height="128.000000pt" viewBox="0 0 128.000000 128.000000"
 preserveAspectRatio="xMidYMid meet">
<metadata>
Created by potrace 1.16, written by Peter Selinger 2001-2019
</metadata>
<g transform="translate(0.000000,128.000000) scale(0.100000,-0.100000)"
fill="#000000" stroke="none">
<path d="M355 1254 c-7 2 -24 -8 -38 -22 -13 -15 -36 -45 -49 -67 -14 -22 -46
-63 -72 -92 -25 -28 -55 -71 -66 -95 -11 -24 -20 -65 -20 -94 0 -28 -7 -73
-16 -100 -8 -27 -19 -96 -24 -154 -5 -58 -14 -145 -20 -195 -9 -82 -8 -96 12
-160 12 -38 32 -86 44 -106 13 -20 26 -53 30 -73 3 -21 13 -40 20 -43 8 -3 24
-2 37 1 12 3 35 24 51 46 17 22 38 40 48 40 9 0 26 10 38 22 11 12 20 34 20
50 0 15 7 44 16 65 9 21 24 56 34 78 10 22 23 53 29 68 6 15 11 39 11 53 0 14
9 44 20 66 11 23 20 48 20 56 0 9 11 30 25 48 14 18 25 42 25 53 0 11 11 32
25 46 14 14 32 25 38 25 7 0 18 -5 23 -10 6 -6 37 -17 71 -26 60 -15 60 -15
112 21 29 19 57 35 61 35 5 0 15 12 22 28 11 22 22 28 58 33 25 3 74 20 110
38 50 25 74 32 102 28 26 -4 38 -1 42 10 3 8 4 19 0 24 -3 5 -20 3 -38 -5 -25
-10 -37 -11 -45 -3 -6 6 -11 15 -11 19 0 4 7 8 15 8 9 0 15 9 15 24 0 16 -7
27 -20 31 -11 4 -29 0 -42 -9 -12 -9 -30 -16 -40 -16 -9 0 -26 -13 -37 -28
-12 -17 -37 -34 -62 -41 -24 -7 -65 -28 -93 -47 -31 -21 -63 -34 -83 -34 -21
0 -37 -8 -50 -24 -17 -23 -21 -24 -69 -14 -27 6 -62 8 -77 4 -16 -4 -33 -19
-43 -37 -8 -17 -13 -37 -10 -45 3 -8 -1 -14 -10 -14 -8 0 -26 -12 -39 -26 -14
-15 -25 -36 -25 -47 0 -10 -13 -36 -28 -56 -15 -20 -43 -67 -61 -106 -18 -38
-39 -83 -46 -100 -7 -16 -19 -50 -26 -75 -7 -25 -19 -53 -27 -62 -11 -13 -19
-15 -32 -8 -12 6 -22 33 -31 87 -7 43 -13 121 -13 173 0 52 6 115 14 140 7 25
19 52 25 60 7 8 12 35 11 60 -1 25 -5 51 -9 57 -4 6 0 16 7 23 8 6 18 37 21
68 3 31 8 67 11 79 2 12 13 25 24 28 11 3 20 12 20 19 0 7 20 36 45 65 29 34
45 62 45 79 0 15 -3 37 -6 49 -3 12 -12 24 -19 27z"/>
<path d="M1177 880 c-10 0 -20 -8 -23 -17 -3 -10 -13 -31 -21 -48 -9 -16 -30
-50 -47 -74 -17 -23 -55 -70 -83 -102 -29 -32 -53 -64 -53 -69 0 -6 -21 -20
-46 -31 -25 -11 -48 -27 -51 -34 -2 -8 -13 -17 -24 -20 -10 -4 -19 -15 -19
-25 0 -11 17 -28 44 -44 25 -14 54 -38 65 -52 12 -15 21 -30 21 -35 0 -4 -15
-9 -32 -11 -28 -2 -34 -8 -36 -30 -3 -26 -7 -28 -48 -28 -31 0 -60 -9 -97 -30
-30 -17 -60 -30 -67 -30 -7 0 -28 -11 -47 -26 -18 -14 -38 -22 -43 -19 -6 3
-10 15 -10 25 0 10 -5 22 -11 26 -6 3 -16 1 -21 -4 -8 -8 -8 -15 0 -25 8 -10
2 -27 -27 -74 -22 -33 -44 -64 -50 -67 -6 -4 -9 -11 -7 -15 3 -4 65 -7 138 -6
118 1 133 3 136 18 2 10 -2 25 -9 33 -9 11 -27 15 -63 12 -45 -3 -51 -1 -54
18 -2 11 4 26 12 33 9 7 30 17 48 22 18 4 59 15 90 23 32 8 77 24 100 36 24
12 57 30 73 40 17 10 38 19 47 19 9 1 39 15 67 32 28 18 51 38 51 44 0 7 -7
19 -16 26 -9 7 -33 20 -53 27 -20 8 -51 16 -68 19 -18 3 -33 8 -33 12 1 3 9
16 19 29 11 12 24 22 30 22 6 0 11 7 11 15 0 8 14 17 35 21 28 5 35 11 35 29
0 14 8 26 18 29 9 4 36 28 58 54 23 26 56 63 73 83 17 20 31 45 31 55 0 11 9
25 20 32 11 7 20 19 20 27 0 9 -15 24 -32 35 -18 11 -41 20 -51 20z"/>
</g>
</svg>
