<?xml version="1.0" standalone="no"?>
<!DOCTYPE svg PUBLIC "-//W3C//DTD SVG 20010904//EN"
 "http://www.w3.org/TR/2001/REC-SVG-20010904/DTD/svg10.dtd">
<svg version="1.0" xmlns="http://www.w3.org/2000/svg"
 width="128.000000pt" height="128.000000pt" viewBox="0 0 128.000000 128.000000"
 preserveAspectRatio="xMidYMid meet">
<metadata>
Created by potrace 1.16, written by Peter Selinger 2001-2019
</metadata>
<g transform="translate(0.000000,128.000000) scale(0.100000,-0.100000)"
fill="#000000" stroke="none">
<path d="M336 1240 c-26 0 -46 -2 -46 -5 0 -3 6 -14 12 -25 10 -16 10 -24 0
-38 -7 -9 -21 -30 -31 -47 -11 -16 -23 -33 -28 -37 -4 -4 -32 -29 -61 -56 -30
-28 -49 -52 -44 -56 6 -3 23 -1 39 6 15 7 46 24 68 38 22 14 60 35 85 47 25
12 54 23 65 25 16 3 20 11 18 40 -1 20 -9 53 -17 72 -14 34 -18 36 -60 36z"/>
<path d="M157 949 c-13 10 -17 9 -25 -5 -5 -9 -7 -25 -5 -35 3 -11 0 -25 -6
-33 -6 -8 -11 -31 -10 -52 1 -22 -4 -91 -10 -154 -6 -63 -16 -155 -22 -205 -5
-49 -7 -121 -4 -160 4 -38 16 -95 27 -125 11 -30 28 -74 39 -97 15 -35 26 -44
71 -61 53 -20 53 -20 70 1 10 12 29 45 43 73 14 28 27 66 31 85 3 19 9 43 14
54 5 11 11 36 14 55 3 19 8 51 12 70 4 19 14 45 22 58 11 18 12 26 3 35 -8 8
-17 8 -27 2 -9 -6 -25 -35 -36 -65 -11 -30 -23 -66 -27 -80 -5 -14 -20 -43
-34 -65 -15 -22 -32 -49 -40 -59 -8 -11 -20 -17 -29 -14 -8 4 -23 35 -33 70
-10 34 -19 97 -21 138 -1 41 1 80 6 85 4 6 10 71 14 145 6 116 4 146 -13 211
-11 43 -17 86 -15 96 3 11 -1 25 -9 32z"/>
<path d="M1035 905 c-16 1 -44 1 -61 -2 -17 -2 -44 -17 -60 -34 -15 -16 -35
-29 -45 -29 -9 0 -22 -7 -29 -15 -7 -8 -38 -31 -70 -50 -32 -19 -67 -35 -79
-35 -11 0 -21 -4 -21 -9 0 -5 -20 -21 -45 -35 -30 -18 -42 -31 -39 -41 4 -8
28 -21 55 -29 27 -9 57 -12 65 -9 11 4 14 14 10 37 -3 17 -2 37 3 45 8 12 14
13 36 3 15 -7 32 -9 38 -6 7 4 22 16 33 26 12 11 37 28 55 38 19 10 58 30 87
45 36 18 61 25 78 21 13 -4 29 -17 35 -29 7 -15 7 -31 0 -48 -5 -15 -37 -45
-70 -68 -33 -22 -64 -41 -68 -41 -5 -1 -24 -14 -43 -30 -19 -17 -40 -30 -48
-30 -7 0 -30 -9 -51 -19 -21 -11 -52 -36 -69 -56 -18 -20 -32 -39 -32 -44 0
-5 7 -28 15 -52 9 -24 22 -51 31 -60 8 -9 41 -26 72 -37 31 -12 74 -37 95 -57
25 -24 46 -35 60 -33 18 2 23 12 29 56 7 50 6 56 -25 97 -21 29 -48 50 -81 64
-41 18 -47 23 -36 36 7 8 25 15 41 15 16 0 37 4 47 10 9 5 60 29 112 53 52 24
109 56 126 70 17 15 37 40 44 57 10 24 10 40 2 69 -7 21 -22 48 -34 60 -13 13
-48 39 -78 58 -30 19 -68 36 -85 38z"/>
</g>
</svg>
