<?xml version="1.0" standalone="no"?>
<!DOCTYPE svg PUBLIC "-//W3C//DTD SVG 20010904//EN"
 "http://www.w3.org/TR/2001/REC-SVG-20010904/DTD/svg10.dtd">
<svg version="1.0" xmlns="http://www.w3.org/2000/svg"
 width="128.000000pt" height="128.000000pt" viewBox="0 0 128.000000 128.000000"
 preserveAspectRatio="xMidYMid meet">
<metadata>
Created by potrace 1.16, written by Peter Selinger 2001-2019
</metadata>
<g transform="translate(0.000000,128.000000) scale(0.100000,-0.100000)"
fill="#000000" stroke="none">
<path d="M1195 1180 c-18 0 -25 -5 -25 -19 0 -11 12 -29 28 -41 15 -11 37 -29
50 -38 22 -16 23 -18 8 -54 -9 -21 -36 -61 -61 -90 -25 -29 -54 -62 -64 -73
-10 -11 -27 -38 -37 -60 -11 -22 -26 -60 -33 -85 -7 -25 -17 -58 -22 -74 -5
-16 -9 -67 -9 -112 0 -67 -3 -84 -14 -84 -8 0 -34 13 -58 29 -24 16 -54 32
-68 36 -14 4 -33 16 -43 26 -10 11 -37 29 -60 40 -23 12 -56 33 -73 46 -18 13
-44 42 -59 64 -14 23 -24 47 -21 55 4 10 24 14 73 14 46 0 79 6 107 20 31 15
48 33 70 75 22 43 27 63 23 92 -4 23 -20 50 -44 75 -38 39 -38 39 -103 34 -36
-3 -84 -8 -107 -11 -36 -6 -44 -4 -50 11 -3 11 -19 38 -35 62 -29 42 -30 42
-89 42 -46 0 -61 -4 -66 -17 -4 -10 3 -24 20 -38 14 -13 30 -40 36 -61 6 -22
11 -86 11 -144 0 -58 -4 -111 -9 -119 -6 -9 -19 -12 -39 -8 -22 4 -34 1 -47
-13 -10 -11 -15 -26 -12 -35 4 -8 12 -15 20 -15 7 0 23 -10 34 -22 18 -21 19
-33 14 -149 -4 -85 -11 -131 -20 -142 -7 -10 -21 -17 -31 -17 -10 0 -34 7 -53
15 -20 8 -39 15 -42 15 -3 0 -5 -8 -5 -19 0 -10 7 -24 16 -32 8 -7 22 -25 30
-40 8 -16 14 -39 14 -52 0 -13 15 -53 33 -88 28 -54 38 -64 67 -70 18 -4 43
-4 54 1 12 4 30 17 40 29 11 12 21 31 22 44 1 12 7 42 13 67 5 25 7 83 4 130
-4 52 -11 89 -19 95 -11 8 -10 19 2 57 9 26 22 49 30 52 9 3 40 -17 78 -52 34
-31 100 -86 146 -122 45 -36 94 -71 107 -78 14 -8 54 -13 96 -13 40 0 86 1
102 0 17 0 58 3 93 6 41 5 62 11 62 20 0 7 -15 20 -32 30 -18 9 -55 30 -83 46
-27 16 -58 29 -69 29 -17 0 -18 6 -13 58 4 31 11 86 16 122 5 36 21 88 36 115
15 28 37 61 50 75 12 14 30 40 39 58 9 18 25 38 36 45 18 10 20 23 20 119 0
106 0 106 -30 113 -16 4 -30 11 -30 16 0 5 -11 9 -25 9z m-541 -170 c38 0 77
-8 102 -19 23 -10 45 -25 49 -31 5 -8 2 -18 -6 -24 -8 -6 -21 -26 -28 -44 -8
-20 -29 -41 -50 -53 -20 -11 -54 -31 -76 -44 -37 -23 -41 -23 -53 -7 -7 9 -10
28 -7 42 3 14 6 60 7 103 1 77 1 77 62 77z m-118 -580 c9 0 14 -11 14 -30 0
-19 -5 -30 -14 -30 -8 0 -16 7 -20 15 -3 8 -3 22 0 30 4 8 12 15 20 15z m557
-12 c6 -3 14 -15 15 -28 4 -21 2 -22 -12 -7 -9 8 -16 21 -16 27 0 6 6 10 13 8z"/>
<path d="M213 859 c-4 -1 -18 -4 -30 -6 -13 -2 -23 -8 -23 -12 0 -4 7 -16 15
-27 8 -10 15 -28 15 -40 0 -11 -7 -44 -15 -72 -10 -31 -34 -74 -63 -109 -27
-32 -62 -79 -80 -105 -32 -47 -32 -47 -10 -62 12 -9 41 -16 63 -16 36 0 47 6
92 53 29 29 64 78 79 111 16 35 30 89 35 138 6 52 6 85 -1 98 -6 11 -24 27
-40 35 -16 8 -33 14 -37 14z"/>
<path d="M1229 780 c-10 0 -19 -5 -19 -11 0 -6 9 -13 20 -16 11 -3 20 -9 20
-14 0 -5 7 -9 15 -9 8 0 15 9 15 19 0 10 -7 22 -16 25 -9 3 -24 6 -35 6z"/>
</g>
</svg>
