<?xml version="1.0" standalone="no"?>
<!DOCTYPE svg PUBLIC "-//W3C//DTD SVG 20010904//EN"
 "http://www.w3.org/TR/2001/REC-SVG-20010904/DTD/svg10.dtd">
<svg version="1.0" xmlns="http://www.w3.org/2000/svg"
 width="128.000000pt" height="128.000000pt" viewBox="0 0 128.000000 128.000000"
 preserveAspectRatio="xMidYMid meet">
<metadata>
Created by potrace 1.16, written by Peter Selinger 2001-2019
</metadata>
<g transform="translate(0.000000,128.000000) scale(0.100000,-0.100000)"
fill="#000000" stroke="none">
<path d="M642 1280 c-38 0 -38 0 -35 -106 2 -64 -1 -112 -7 -119 -6 -7 -10
-28 -9 -46 1 -19 -3 -46 -9 -61 -6 -15 -9 -35 -6 -43 4 -8 12 -15 20 -15 8 0
14 -7 14 -15 0 -9 -7 -15 -17 -13 -12 2 -19 -7 -24 -31 -4 -18 -3 -47 2 -65 5
-17 9 -45 9 -62 0 -17 -8 -38 -17 -48 -10 -9 -32 -29 -49 -44 -17 -15 -33 -35
-37 -44 -3 -9 -24 -22 -46 -27 -23 -6 -59 -16 -81 -21 -29 -8 -41 -17 -46 -35
-3 -13 -12 -29 -19 -35 -7 -6 -20 -8 -28 -4 -9 3 -19 14 -22 23 -3 12 -16 18
-35 19 -23 0 -31 -4 -35 -21 -2 -12 -4 -35 -4 -52 0 -16 -3 -46 -6 -66 -6 -29
-2 -41 18 -65 24 -28 26 -28 62 -16 23 9 53 11 86 7 27 -4 49 -11 49 -15 0 -5
29 -40 65 -79 43 -47 65 -79 65 -95 0 -14 12 -38 26 -55 23 -27 32 -31 78 -31
51 0 51 0 75 49 13 27 20 54 17 60 -4 5 -8 65 -10 132 -2 68 0 132 6 144 6 14
5 34 -5 64 -12 33 -13 57 -6 106 5 34 13 74 18 87 5 14 41 48 80 77 39 28 75
51 80 51 5 0 16 11 25 25 9 14 23 25 32 25 12 0 13 4 4 20 -8 15 -21 20 -51
20 -22 0 -59 -9 -82 -21 -23 -11 -52 -32 -64 -47 -12 -14 -26 -23 -30 -19 -4
5 -2 17 5 27 10 16 9 28 -5 61 -15 39 -15 43 1 54 12 9 17 26 16 56 0 24 4 69
10 99 6 30 8 74 5 97 -3 23 -12 46 -20 53 -7 6 -16 22 -19 35 -5 21 -12 25
-44 25z m-102 -790 c10 0 29 -15 43 -33 24 -31 24 -35 10 -50 -14 -14 -15 -20
-5 -39 9 -17 10 -37 2 -77 -6 -30 -7 -70 -4 -88 5 -25 3 -33 -9 -33 -8 0 -25
6 -38 13 -13 7 -36 21 -51 31 -16 10 -28 24 -28 32 0 7 -11 21 -25 30 -13 9
-27 24 -30 35 -4 11 2 33 13 52 10 17 17 39 15 49 -2 9 6 23 19 32 12 9 31 16
41 16 9 0 20 7 23 15 4 8 14 15 24 15z m-190 -40 c5 0 10 -11 10 -25 0 -14 -8
-29 -19 -34 -16 -9 -18 -8 -14 12 3 12 6 28 9 35 2 6 8 12 14 12z m-78 -70 c4
0 8 -7 8 -15 0 -8 -4 -15 -9 -15 -6 0 -12 4 -15 9 -3 4 -3 11 1 15 3 3 10 6
15 6z m299 -265 c5 -4 9 -17 9 -31 0 -13 -4 -24 -9 -24 -6 0 -13 5 -16 10 -3
6 -3 19 0 30 4 11 11 18 16 15z"/>
<path d="M215 870 c-6 0 -16 -5 -22 -11 -6 -6 -32 -12 -58 -13 -29 -1 -49 -7
-55 -16 -5 -8 -10 -31 -10 -51 0 -25 7 -41 25 -57 14 -12 25 -31 25 -42 0 -12
7 -20 16 -20 12 0 15 7 11 28 -3 15 -7 36 -9 47 -2 16 3 20 27 20 28 0 30 -3
33 -42 2 -25 -4 -57 -13 -77 -9 -19 -15 -43 -13 -53 3 -13 11 -17 32 -15 22 2
27 0 23 -12 -3 -8 1 -20 9 -27 12 -10 20 -8 42 8 16 12 28 32 30 49 2 16 8 34
14 41 5 7 8 28 7 47 -2 19 0 38 4 42 4 4 7 19 7 33 0 14 -9 41 -20 59 -11 17
-28 32 -38 32 -10 0 -27 7 -38 15 -10 8 -24 15 -29 15z m36 -252 c7 -2 15 -10
17 -17 3 -8 -1 -12 -9 -9 -7 2 -15 10 -17 17 -3 8 1 12 9 9z"/>
<path d="M985 800 c-7 0 -15 -10 -18 -22 -3 -13 -6 -74 -6 -136 0 -72 -4 -119
-12 -128 -6 -8 -11 -41 -10 -77 1 -34 4 -70 7 -79 3 -9 19 -24 36 -33 17 -8
39 -15 48 -15 9 0 25 -8 34 -19 12 -13 15 -27 10 -45 -3 -15 -18 -35 -33 -44
-14 -9 -43 -34 -65 -54 -21 -21 -45 -38 -53 -38 -8 0 -37 -19 -64 -42 -41 -34
-47 -43 -34 -51 9 -5 21 -5 28 0 7 5 31 16 55 23 24 7 48 22 53 32 7 13 17 16
32 13 14 -4 33 1 47 12 14 10 43 27 65 38 22 10 48 26 58 34 13 11 17 30 17
88 0 52 -5 81 -16 99 -10 14 -23 23 -30 20 -7 -3 -27 6 -43 19 -17 15 -36 23
-45 19 -10 -4 -16 -18 -16 -36 0 -16 -4 -27 -8 -24 -5 3 -7 26 -6 52 2 26 8
60 15 75 6 16 17 29 24 29 8 0 14 16 17 41 2 22 0 42 -4 45 -3 2 -6 23 -6 47
0 23 4 52 9 65 5 14 4 32 -3 47 -7 16 -19 25 -34 25 -13 0 -26 5 -29 10 -3 6
-12 10 -20 10z"/>
</g>
</svg>
