<?xml version="1.0" standalone="no"?>
<!DOCTYPE svg PUBLIC "-//W3C//DTD SVG 20010904//EN"
 "http://www.w3.org/TR/2001/REC-SVG-20010904/DTD/svg10.dtd">
<svg version="1.0" xmlns="http://www.w3.org/2000/svg"
 width="128.000000pt" height="128.000000pt" viewBox="0 0 128.000000 128.000000"
 preserveAspectRatio="xMidYMid meet">
<metadata>
Created by potrace 1.16, written by Peter Selinger 2001-2019
</metadata>
<g transform="translate(0.000000,128.000000) scale(0.100000,-0.100000)"
fill="#000000" stroke="none">
<path d="M480 1138 c-8 0 -30 -6 -48 -14 -22 -10 -32 -20 -30 -32 2 -9 13 -18
25 -20 12 -2 27 -9 33 -17 7 -9 12 -69 13 -166 2 -126 -1 -153 -13 -159 -8 -4
-33 -15 -55 -24 -22 -9 -51 -17 -65 -19 -22 -2 -25 3 -31 47 -6 34 -17 58 -38
80 -17 17 -48 36 -69 43 -22 7 -56 10 -76 6 -25 -4 -36 -11 -36 -23 0 -10 13
-23 29 -30 16 -6 36 -19 44 -28 8 -10 17 -30 21 -45 4 -19 1 -38 -11 -59 -10
-16 -44 -56 -76 -87 -32 -31 -65 -62 -73 -69 -9 -9 -14 -34 -14 -72 0 -32 5
-62 11 -66 6 -3 23 -1 37 6 15 6 40 18 55 26 16 8 40 14 53 14 16 0 51 -22 97
-62 40 -33 79 -74 87 -89 8 -15 30 -53 48 -83 32 -56 32 -56 92 -56 51 0 61 3
72 22 9 16 13 70 13 177 0 116 3 155 13 158 7 3 43 -27 80 -65 51 -53 79 -73
112 -83 25 -7 54 -18 65 -25 11 -6 38 -17 60 -24 22 -7 49 -21 61 -32 13 -11
28 -16 38 -12 10 4 25 -1 37 -12 19 -17 21 -17 77 9 31 15 70 28 87 29 21 2
34 11 43 30 7 16 17 28 23 28 5 0 9 15 9 33 0 31 -3 34 -52 50 -29 9 -64 20
-78 24 -14 4 -34 8 -45 10 -11 2 -51 8 -90 13 -38 6 -89 11 -111 10 -34 0 -42
3 -40 17 1 13 -7 18 -25 19 -14 0 -42 10 -62 23 -21 13 -46 21 -57 18 -11 -3
-20 -1 -20 5 0 5 -20 33 -44 61 -24 29 -48 62 -55 74 -6 12 -8 29 -4 38 3 10
29 28 57 41 28 13 61 24 74 24 12 0 31 9 43 21 12 12 29 19 40 16 10 -3 50 10
89 29 38 19 74 43 80 54 5 10 10 30 10 43 0 16 -12 34 -35 52 -24 18 -53 28
-89 32 -40 4 -64 1 -100 -16 -26 -11 -45 -25 -41 -31 3 -5 22 -10 41 -10 19 0
34 -4 34 -9 0 -5 -7 -25 -15 -45 -8 -20 -22 -36 -30 -36 -8 0 -42 -21 -74 -46
-40 -31 -67 -45 -82 -42 -23 3 -24 5 -24 108 0 58 -3 112 -7 120 -4 8 -8 26
-10 39 -2 15 -15 32 -33 42 -16 10 -37 18 -45 17z m-285 -514 c8 -4 15 -12 15
-20 0 -8 -7 -14 -15 -14 -8 0 -15 9 -15 20 0 13 5 18 15 14z m158 -14 c32 0
73 -6 91 -14 33 -14 33 -14 30 -136 -2 -86 -6 -127 -16 -136 -11 -11 -27 -5
-91 32 -44 24 -82 44 -85 44 -4 0 -17 15 -29 33 -13 18 -23 45 -23 60 0 14 4
28 9 32 5 3 12 19 16 35 4 16 14 34 23 40 9 5 43 10 75 10z m299 -38 c6 -6 7
-16 3 -22 -5 -8 -11 -8 -17 -2 -6 6 -7 16 -3 22 5 8 11 8 17 2z m48 -72 c11 0
20 -4 20 -10 0 -5 -9 -10 -20 -10 -11 0 -20 5 -20 10 0 6 9 10 20 10z m88 -15
c2 -2 -2 -13 -8 -25 -6 -12 -16 -20 -23 -17 -6 2 -12 8 -14 13 -2 6 7 15 19
21 13 6 24 9 26 8z m53 -45 c10 -6 19 -18 19 -26 0 -9 -9 -27 -19 -40 -19 -24
-19 -24 -23 18 -3 24 -3 46 -1 51 2 4 13 2 24 -3z m154 -22 c29 0 45 -4 45
-12 0 -7 -3 -15 -6 -18 -3 -4 -19 -2 -37 3 -17 5 -35 13 -39 17 -5 5 11 9 37
10z m-520 -208 c8 0 15 -2 15 -4 0 -2 -7 -9 -15 -16 -12 -10 -15 -10 -15 4 0
9 7 16 15 16z"/>
<path d="M1270 1090 c-6 0 -14 -10 -19 -22 -5 -13 -28 -42 -51 -65 -23 -24
-45 -43 -49 -43 -4 0 -28 -20 -54 -45 -36 -34 -47 -52 -47 -75 0 -17 6 -33 14
-36 8 -3 42 2 76 10 34 9 72 16 85 16 13 0 30 3 39 6 9 3 16 17 16 29 0 22 -3
23 -59 19 -39 -3 -62 -1 -67 7 -4 7 19 36 60 75 53 51 66 70 66 94 0 16 -5 30
-10 30z"/>
<path d="M1103 188 c-9 2 -13 -7 -13 -28 0 -21 4 -30 13 -27 6 2 12 14 12 27
0 13 -6 25 -12 28z"/>
<path d="M1270 180 c-6 0 -13 -7 -16 -15 -3 -8 -3 -19 1 -25 3 -5 10 -10 16
-10 5 0 9 11 9 25 0 14 -5 25 -10 25z"/>
</g>
</svg>
