<?xml version="1.0" standalone="no"?>
<!DOCTYPE svg PUBLIC "-//W3C//DTD SVG 20010904//EN"
 "http://www.w3.org/TR/2001/REC-SVG-20010904/DTD/svg10.dtd">
<svg version="1.0" xmlns="http://www.w3.org/2000/svg"
 width="128.000000pt" height="128.000000pt" viewBox="0 0 128.000000 128.000000"
 preserveAspectRatio="xMidYMid meet">
<metadata>
Created by potrace 1.16, written by Peter Selinger 2001-2019
</metadata>
<g transform="translate(0.000000,128.000000) scale(0.100000,-0.100000)"
fill="#000000" stroke="none">
<path d="M621 1260 c-9 0 -39 -20 -68 -44 -29 -24 -64 -46 -78 -50 -14 -4 -25
-12 -25 -18 0 -6 10 -22 22 -35 22 -24 22 -24 3 -59 -10 -20 -31 -42 -46 -49
-14 -8 -48 -38 -74 -67 -26 -29 -54 -67 -61 -85 -8 -18 -14 -41 -14 -51 0 -10
8 -26 18 -35 10 -10 28 -17 39 -17 11 0 31 8 44 19 13 10 40 27 59 38 19 10
54 31 78 46 24 16 51 27 60 25 9 -2 18 -10 20 -19 1 -9 -16 -47 -39 -85 -23
-38 -62 -93 -87 -121 -24 -29 -50 -53 -56 -53 -6 0 -23 -15 -37 -33 -14 -17
-31 -42 -37 -54 -8 -14 -10 -47 -5 -98 3 -41 10 -78 15 -81 5 -4 23 9 38 27
16 19 29 42 30 52 0 10 8 17 21 17 12 0 44 21 73 46 28 26 68 57 88 70 21 13
44 24 51 24 8 0 33 17 56 38 23 21 39 41 35 45 -4 4 -29 7 -54 7 -26 0 -52 6
-58 13 -8 9 -6 24 8 55 11 24 26 42 35 42 9 0 24 17 34 40 9 21 39 59 65 84
30 28 47 51 44 62 -2 10 -18 29 -37 41 -19 13 -48 23 -65 23 -17 -1 -42 -7
-56 -15 -14 -8 -33 -14 -43 -15 -10 0 -36 -9 -58 -19 -22 -11 -53 -22 -68 -26
-16 -3 -32 -2 -35 4 -4 5 -1 20 4 33 6 13 23 29 38 36 15 6 56 37 91 69 35 32
78 63 95 69 17 6 32 18 34 26 2 9 -15 29 -39 47 -24 17 -50 31 -58 31z m32
-313 c7 -2 13 -11 15 -20 2 -10 -3 -17 -12 -17 -8 0 -18 5 -21 10 -3 6 -3 15
0 21 4 5 12 8 18 6z m-231 -93 c6 -4 6 -10 -1 -17 -6 -6 -13 -8 -17 -4 -3 3
-3 11 1 16 3 6 11 8 17 5z m13 -294 c8 0 15 -8 15 -19 0 -10 -7 -24 -16 -32
-13 -10 -17 -10 -24 1 -5 8 -4 22 1 32 5 10 16 18 24 18z"/>
<path d="M807 680 c-16 0 -30 -7 -34 -16 -3 -8 4 -28 16 -44 11 -16 21 -36 21
-44 0 -9 -23 -42 -52 -73 -29 -32 -63 -64 -77 -71 -13 -7 -31 -22 -38 -32 -8
-11 -20 -20 -26 -20 -7 0 -27 -14 -46 -30 -18 -17 -39 -30 -46 -30 -7 0 -31
-14 -53 -30 -30 -21 -42 -37 -42 -55 0 -15 -6 -25 -14 -25 -8 0 -16 7 -20 15
-3 8 -12 15 -21 15 -9 0 -18 -7 -21 -15 -4 -10 -20 -15 -45 -15 -30 0 -42 -6
-54 -24 -9 -13 -29 -26 -44 -29 -16 -3 -31 -13 -35 -23 -3 -9 -1 -34 4 -55 6
-22 21 -46 34 -54 13 -9 40 -19 60 -22 29 -4 36 -2 36 10 0 9 -13 23 -30 32
-18 9 -30 23 -30 35 0 14 7 20 23 20 12 0 33 -7 45 -16 13 -9 22 -26 22 -41 0
-25 1 -25 48 -18 26 4 53 11 59 17 7 6 11 14 8 18 -3 5 -1 11 5 15 5 3 23 -1
39 -11 20 -12 39 -15 66 -10 33 6 36 10 31 31 -5 18 -1 25 14 30 11 4 34 4 50
0 25 -6 30 -3 35 18 4 16 0 35 -10 51 -14 21 -15 27 -4 31 8 2 23 3 34 2 12
-1 20 4 20 13 0 11 -11 15 -45 13 -25 -1 -60 -4 -77 -8 -18 -4 -40 -5 -48 -1
-12 4 -13 10 -6 24 5 10 37 33 69 50 33 18 67 43 76 57 11 17 26 25 44 25 17
0 38 10 51 24 18 19 21 31 16 59 -4 20 -3 37 4 41 5 4 17 -7 26 -24 10 -20 22
-30 33 -28 12 2 18 15 20 46 2 30 9 45 23 53 13 6 19 18 17 32 -2 13 -23 35
-53 54 -27 18 -62 33 -78 33z"/>
<path d="M958 300 c-18 0 -40 -5 -48 -10 -8 -5 -27 -10 -41 -10 -14 0 -29 -3
-33 -7 -4 -4 -16 -8 -27 -8 -16 0 -25 -11 -36 -43 -8 -24 -12 -50 -9 -58 3 -8
19 -14 36 -14 23 0 33 6 40 25 7 17 17 25 34 25 15 0 30 8 35 19 7 12 25 21
48 23 21 3 43 1 50 -4 6 -5 9 -16 6 -24 -3 -9 3 -22 16 -30 11 -8 21 -24 21
-35 0 -11 -11 -24 -25 -31 -14 -6 -24 -16 -22 -22 2 -6 10 -12 19 -14 8 -2 26
2 41 7 14 6 33 24 42 41 10 20 14 42 10 60 -4 16 -15 32 -26 35 -10 4 -19 10
-19 14 0 5 -18 20 -40 35 -23 15 -53 26 -72 26z"/>
<path d="M935 170 c-9 0 -24 -15 -35 -32 -11 -18 -18 -37 -17 -43 2 -5 19 -10
38 -10 25 0 35 5 37 18 2 10 1 29 -2 43 -4 13 -13 24 -21 24z"/>
<path d="M757 105 c-45 3 -60 0 -64 -11 -3 -9 -2 -19 3 -24 5 -5 35 -6 67 -3
43 4 57 10 55 20 -2 10 -21 16 -61 18z"/>
</g>
</svg>
