<?xml version="1.0" standalone="no"?>
<!DOCTYPE svg PUBLIC "-//W3C//DTD SVG 20010904//EN"
 "http://www.w3.org/TR/2001/REC-SVG-20010904/DTD/svg10.dtd">
<svg version="1.0" xmlns="http://www.w3.org/2000/svg"
 width="128.000000pt" height="128.000000pt" viewBox="0 0 128.000000 128.000000"
 preserveAspectRatio="xMidYMid meet">
<metadata>
Created by potrace 1.16, written by Peter Selinger 2001-2019
</metadata>
<g transform="translate(0.000000,128.000000) scale(0.100000,-0.100000)"
fill="#000000" stroke="none">
<path d="M256 1280 c-64 0 -64 0 -70 -34 -4 -19 -16 -46 -27 -60 -15 -19 -20
-40 -20 -78 0 -29 0 -73 0 -97 0 -25 6 -48 13 -53 7 -4 25 -8 39 -8 14 0 33 8
41 18 9 9 18 35 21 57 3 22 11 67 17 100 7 33 20 78 31 100 10 22 19 43 19 48
0 4 -29 7 -64 7z"/>
<path d="M730 1280 c-22 0 -40 -4 -40 -9 0 -4 -18 -11 -41 -14 -22 -3 -50 -13
-61 -23 -11 -10 -26 -34 -34 -53 -8 -18 -14 -58 -14 -88 0 -39 6 -62 21 -82
12 -16 19 -37 17 -47 -2 -14 -12 -19 -33 -19 -17 0 -42 -8 -57 -19 -22 -14
-42 -17 -99 -15 -51 3 -73 0 -76 -8 -3 -7 4 -16 14 -20 10 -3 35 -17 57 -31
32 -20 42 -22 65 -12 15 6 51 10 81 9 30 -1 65 1 77 6 17 5 24 3 30 -11 4 -12
1 -21 -12 -28 -10 -6 -29 -21 -43 -33 -14 -13 -28 -23 -33 -23 -4 0 -27 -19
-51 -43 -24 -23 -55 -48 -70 -54 -17 -8 -28 -20 -28 -32 0 -10 7 -24 15 -31 8
-7 15 -23 15 -35 0 -15 -14 -35 -40 -55 -39 -31 -41 -35 -37 -79 2 -25 10 -60
18 -76 10 -20 22 -30 37 -29 18 0 20 -4 16 -23 -5 -17 -2 -23 9 -23 9 0 27 4
41 10 16 6 28 21 34 42 5 19 5 38 0 45 -5 6 -20 14 -33 17 -14 4 -25 13 -25
21 0 7 10 21 22 29 12 9 32 16 43 16 11 0 31 15 44 33 13 17 47 47 76 65 28
18 69 41 90 51 22 10 54 29 70 43 17 13 38 27 48 31 9 3 17 10 17 15 0 5 14
15 31 22 25 11 33 11 45 -1 12 -13 12 -21 -1 -64 -11 -37 -27 -62 -62 -93 -27
-24 -72 -59 -101 -78 -30 -19 -71 -37 -93 -40 -21 -4 -44 -13 -50 -20 -6 -8
-31 -23 -56 -34 -40 -18 -43 -21 -37 -47 4 -15 8 -29 9 -31 1 -1 14 7 29 19
21 17 35 20 65 15 33 -5 41 -2 66 24 16 17 39 30 53 30 13 0 44 8 70 19 26 10
74 26 107 36 33 9 70 21 83 26 12 5 22 17 22 28 0 11 8 22 18 26 11 3 24 17
30 31 7 14 12 34 12 45 0 11 5 29 11 41 8 14 7 28 -1 49 -7 16 -32 40 -59 56
-29 18 -66 30 -101 33 -43 4 -56 9 -58 23 -3 12 4 20 18 24 12 3 31 26 46 55
25 50 25 50 3 74 -14 15 -34 24 -53 24 -17 0 -50 -10 -72 -22 -40 -21 -43 -21
-68 -4 -15 9 -31 27 -35 39 -5 12 -30 39 -56 61 -45 37 -46 39 -40 80 4 22 13
51 21 64 10 15 24 22 48 22 19 0 40 8 49 18 10 10 17 22 17 25 0 4 -18 7 -40
7z m10 -440 c5 0 11 -4 15 -9 3 -5 1 -12 -5 -16 -5 -3 -15 -3 -20 0 -6 4 -8
11 -5 16 4 5 10 9 15 9z m-2 -80 c23 0 42 -4 42 -8 0 -4 -15 -22 -32 -38 -18
-17 -45 -36 -60 -44 -15 -7 -30 -20 -33 -29 -3 -9 -35 -30 -70 -47 -37 -18
-68 -28 -71 -22 -3 5 -3 21 1 35 3 15 20 44 37 65 16 21 42 41 56 45 15 3 41
15 57 25 17 10 49 18 73 18z"/>
<path d="M1080 314 c-97 5 -123 3 -165 -13 -27 -10 -82 -30 -121 -45 -39 -14
-90 -26 -113 -26 -23 0 -69 -11 -103 -25 -34 -14 -66 -25 -73 -25 -6 0 -18 -8
-26 -18 -14 -16 -30 -18 -105 -17 -89 2 -89 2 -92 41 -3 39 -3 39 50 55 31 9
54 22 56 31 2 9 -3 18 -11 21 -8 3 -30 0 -48 -6 -19 -7 -46 -24 -61 -39 -16
-17 -43 -30 -66 -34 -24 -4 -43 -13 -46 -23 -4 -9 -13 -29 -22 -44 -14 -24
-19 -27 -50 -21 -26 5 -35 2 -40 -10 -3 -9 1 -26 10 -39 8 -12 26 -35 40 -51
21 -25 27 -28 40 -17 11 10 31 12 65 7 41 -5 51 -3 59 10 8 14 18 16 55 11 36
-5 54 -2 89 16 23 13 70 29 103 36 33 7 92 28 131 47 40 19 89 35 110 37 30 2
39 -2 42 -17 2 -10 0 -16 -6 -12 -5 3 -36 -6 -68 -21 -33 -14 -74 -39 -92 -55
-18 -15 -40 -28 -50 -28 -9 0 -28 -9 -42 -20 -25 -20 -25 -20 39 -20 35 0 84
6 110 14 25 8 72 22 104 31 32 9 73 29 91 46 19 16 41 29 50 29 10 0 26 4 36
10 10 5 38 12 62 14 23 2 64 7 89 11 31 5 49 4 53 -4 4 -6 20 -11 36 -11 20 0
35 8 45 24 11 16 15 41 13 73 -2 36 -7 48 -19 48 -9 0 -23 5 -30 12 -8 6 -66
14 -129 17z"/>
</g>
</svg>
