<?xml version="1.0" standalone="no"?>
<!DOCTYPE svg PUBLIC "-//W3C//DTD SVG 20010904//EN"
 "http://www.w3.org/TR/2001/REC-SVG-20010904/DTD/svg10.dtd">
<svg version="1.0" xmlns="http://www.w3.org/2000/svg"
 width="128.000000pt" height="128.000000pt" viewBox="0 0 128.000000 128.000000"
 preserveAspectRatio="xMidYMid meet">
<metadata>
Created by potrace 1.16, written by Peter Selinger 2001-2019
</metadata>
<g transform="translate(0.000000,128.000000) scale(0.100000,-0.100000)"
fill="#000000" stroke="none">
<path d="M660 1254 c-41 5 -49 2 -84 -29 -22 -19 -50 -35 -63 -35 -13 0 -42
14 -65 30 -23 17 -45 27 -50 22 -4 -4 5 -39 22 -77 16 -39 30 -78 30 -88 0
-10 -16 -33 -35 -51 -19 -19 -35 -41 -35 -50 0 -11 5 -15 13 -10 6 4 41 26 77
49 36 24 84 49 108 56 37 11 45 10 53 -2 5 -8 9 -22 9 -31 0 -10 -13 -33 -30
-51 -16 -19 -30 -40 -30 -46 0 -8 -8 -10 -19 -6 -12 4 -36 -5 -65 -25 -25 -18
-70 -40 -98 -50 -29 -10 -56 -16 -60 -14 -5 3 -8 16 -8 29 0 13 -5 27 -11 31
-6 3 -24 -6 -40 -22 -22 -21 -29 -37 -29 -65 0 -21 8 -52 17 -71 9 -18 19 -40
23 -48 4 -8 13 -16 21 -18 8 -1 59 27 114 64 55 36 110 70 123 75 17 7 24 5
28 -6 4 -8 -6 -31 -20 -50 -15 -19 -52 -62 -82 -94 -47 -51 -54 -63 -45 -80 6
-11 11 -24 11 -30 0 -6 -4 -11 -10 -11 -5 0 -10 9 -10 21 0 18 -4 20 -27 14
-16 -3 -36 -14 -45 -22 -10 -8 -25 -35 -34 -59 -13 -33 -14 -50 -6 -73 6 -17
8 -46 5 -66 -3 -19 0 -55 7 -80 12 -42 11 -47 -6 -60 -13 -10 -31 -13 -55 -9
-31 4 -42 1 -71 -24 -18 -17 -44 -55 -57 -86 -14 -36 -21 -66 -17 -81 5 -21
13 -25 41 -25 19 0 44 4 57 9 13 5 48 14 78 21 30 6 71 17 90 22 19 6 53 17
75 24 22 8 94 24 160 35 66 12 156 22 200 22 54 0 95 -5 125 -17 25 -10 54
-18 65 -18 11 0 41 8 67 17 25 9 56 27 68 40 17 18 21 31 16 50 -5 20 -21 33
-61 51 -32 15 -63 23 -77 19 -13 -3 -70 -10 -128 -15 -58 -5 -133 -15 -167
-21 -34 -6 -69 -9 -77 -6 -9 4 -16 13 -16 21 0 9 12 19 26 22 14 4 65 27 113
52 47 25 95 53 106 62 11 10 30 23 43 29 13 7 32 27 42 44 11 18 20 45 20 61
0 15 -12 51 -27 78 -18 33 -39 56 -64 68 -20 11 -58 22 -85 25 -45 6 -57 3
-118 -29 -37 -20 -79 -36 -92 -36 -17 0 -24 6 -24 19 0 11 27 46 61 78 33 32
89 86 124 121 45 44 66 73 71 96 3 19 1 43 -5 54 -7 13 -23 22 -43 24 -17 2
-36 10 -41 20 -8 11 -7 28 1 55 7 21 14 55 15 77 2 31 -3 42 -23 56 -14 10
-45 21 -70 24z m-98 -84 c4 0 8 -9 8 -20 0 -13 -5 -18 -15 -14 -8 4 -15 9 -15
13 0 4 3 11 7 14 3 4 10 7 15 7z m128 -165 c4 -3 10 -17 13 -32 3 -16 8 -38
12 -50 5 -15 3 -23 -4 -23 -6 0 -11 7 -11 16 0 9 -12 28 -27 42 -25 23 -26 25
-8 38 10 7 21 11 25 9z m-203 -407 c2 -10 2 -26 0 -35 -3 -10 -5 -2 -5 17 0
19 2 27 5 18z m235 -18 c11 0 32 -7 48 -15 20 -10 30 -23 30 -38 0 -13 -23
-46 -53 -78 -33 -36 -89 -79 -155 -118 -57 -33 -110 -61 -118 -61 -9 0 -31 -7
-49 -16 -19 -9 -42 -14 -52 -12 -10 2 -19 12 -21 22 -3 12 19 40 65 85 37 37
93 85 123 107 30 21 67 45 82 53 15 8 39 27 54 42 15 16 36 29 46 29z m-159
-342 c6 -3 12 -11 12 -18 0 -7 -6 -15 -12 -17 -8 -3 -13 4 -13 17 0 13 5 20
13 18z m-112 -24 c5 -3 9 -16 9 -29 0 -18 -4 -23 -15 -19 -8 4 -15 14 -15 23
0 10 3 21 6 24 4 4 11 4 15 1z m-68 -7 c7 -2 13 -13 15 -25 2 -12 -1 -22 -6
-22 -5 0 -15 7 -22 15 -6 8 -9 19 -5 25 4 6 12 9 18 7z m-90 -14 c4 -2 7 -10
7 -18 0 -8 14 -17 33 -20 21 -4 36 -15 44 -31 10 -22 9 -24 -13 -24 -14 0 -24
6 -24 14 0 8 -7 17 -16 20 -9 4 -19 4 -22 1 -3 -2 0 -11 6 -18 7 -8 9 -17 5
-20 -3 -4 -16 -7 -27 -7 -12 0 -29 7 -38 14 -10 7 -18 19 -18 25 0 7 12 25 28
40 15 16 30 27 35 24z"/>
</g>
</svg>
