<?xml version="1.0" standalone="no"?>
<!DOCTYPE svg PUBLIC "-//W3C//DTD SVG 20010904//EN"
 "http://www.w3.org/TR/2001/REC-SVG-20010904/DTD/svg10.dtd">
<svg version="1.0" xmlns="http://www.w3.org/2000/svg"
 width="128.000000pt" height="128.000000pt" viewBox="0 0 128.000000 128.000000"
 preserveAspectRatio="xMidYMid meet">
<metadata>
Created by potrace 1.16, written by Peter Selinger 2001-2019
</metadata>
<g transform="translate(0.000000,128.000000) scale(0.100000,-0.100000)"
fill="#000000" stroke="none">
<path d="M586 1259 c-23 -1 -78 -8 -123 -17 -45 -10 -85 -21 -90 -25 -4 -5 1
-15 11 -23 11 -8 37 -14 57 -14 21 0 45 -7 53 -16 9 -8 16 -21 16 -28 0 -7
-10 -22 -22 -33 -13 -11 -42 -30 -65 -42 -24 -12 -49 -34 -58 -51 -16 -31 -16
-31 12 -24 15 4 32 11 37 15 6 5 16 9 23 9 7 0 30 10 51 23 20 13 53 29 72 37
19 7 49 25 65 40 17 14 42 32 58 38 15 7 27 19 27 30 0 10 -19 32 -42 50 -32
25 -51 32 -82 31z"/>
<path d="M697 1020 c-18 -1 -59 -16 -92 -33 -33 -18 -94 -48 -135 -66 -41 -18
-82 -36 -90 -40 -9 -5 -40 -5 -69 0 -28 4 -59 5 -67 2 -7 -3 -14 -11 -14 -18
0 -7 7 -18 15 -25 8 -6 23 -9 35 -5 15 5 28 1 41 -14 16 -17 32 -21 83 -21 34
0 66 -3 69 -6 4 -4 -7 -23 -23 -43 -16 -20 -40 -46 -52 -59 -12 -13 -27 -34
-33 -47 -5 -13 -49 -67 -98 -120 -60 -66 -87 -103 -87 -120 0 -14 16 -49 35
-79 18 -29 41 -56 50 -60 9 -3 26 -6 37 -6 12 0 46 19 77 42 31 23 92 76 136
118 45 41 110 102 145 135 36 33 77 68 92 77 15 10 34 15 42 12 7 -3 21 -24
30 -47 9 -24 16 -47 16 -52 0 -6 -38 -48 -84 -95 -46 -47 -101 -99 -122 -117
-22 -17 -62 -43 -89 -57 -27 -15 -59 -35 -70 -44 -11 -10 -35 -28 -54 -41 -19
-13 -60 -30 -90 -37 -31 -7 -82 -19 -114 -28 -32 -9 -76 -16 -97 -16 -27 0
-47 -7 -60 -20 -11 -11 -20 -31 -20 -45 0 -18 7 -28 25 -35 18 -7 50 -6 103 4
42 8 113 23 157 34 44 11 114 27 155 37 67 15 94 16 250 5 96 -6 204 -13 240
-14 36 -2 92 -11 126 -21 34 -9 72 -15 85 -13 15 2 30 15 41 37 14 28 15 38 5
57 -7 13 -35 38 -62 55 -39 25 -61 32 -100 32 -27 0 -81 -4 -120 -9 -38 -5
-81 -17 -95 -27 -19 -13 -36 -16 -72 -11 -36 5 -54 2 -74 -10 -19 -13 -32 -15
-53 -8 -20 7 -37 6 -60 -4 -18 -8 -42 -14 -53 -14 -13 0 -18 6 -16 18 2 9 14
18 26 20 13 2 41 21 63 43 21 21 45 39 53 39 8 0 24 12 36 27 11 15 34 34 49
44 16 10 58 46 94 81 36 34 76 73 90 85 18 16 24 34 25 67 2 35 -5 57 -29 96
-21 34 -39 52 -57 55 -15 3 -41 9 -57 14 -18 4 -43 3 -60 -3 -17 -6 -51 -26
-77 -43 -25 -18 -48 -38 -50 -44 -2 -6 -20 -21 -39 -33 -20 -11 -60 -40 -90
-63 -30 -23 -65 -53 -79 -67 -14 -14 -33 -26 -41 -26 -9 0 -18 3 -21 6 -4 3 1
22 9 42 8 20 21 41 27 47 7 5 30 34 51 63 22 28 43 52 47 52 4 0 18 17 32 38
13 20 48 61 77 91 30 29 72 66 94 81 30 20 43 38 51 69 9 32 8 45 -3 61 -9 13
-25 20 -46 20z"/>
</g>
</svg>
