<?xml version="1.0" standalone="no"?>
<!DOCTYPE svg PUBLIC "-//W3C//DTD SVG 20010904//EN"
 "http://www.w3.org/TR/2001/REC-SVG-20010904/DTD/svg10.dtd">
<svg version="1.0" xmlns="http://www.w3.org/2000/svg"
 width="128.000000pt" height="128.000000pt" viewBox="0 0 128.000000 128.000000"
 preserveAspectRatio="xMidYMid meet">
<metadata>
Created by potrace 1.16, written by Peter Selinger 2001-2019
</metadata>
<g transform="translate(0.000000,128.000000) scale(0.100000,-0.100000)"
fill="#000000" stroke="none">
<path d="M510 1260 c-11 0 -21 -3 -21 -7 -1 -5 0 -17 1 -28 1 -10 16 -40 33
-65 17 -25 46 -64 65 -87 19 -24 43 -43 54 -43 10 0 21 7 25 15 3 9 -3 37 -12
62 -11 27 -40 68 -71 100 -30 29 -63 53 -74 53z"/>
<path d="M738 969 c-2 0 -46 -21 -99 -47 -53 -26 -105 -51 -116 -57 -11 -5
-50 -24 -87 -42 -49 -24 -75 -30 -100 -26 -21 3 -36 1 -41 -8 -5 -8 5 -24 28
-45 32 -29 40 -32 62 -24 15 6 53 10 86 10 32 0 59 -4 59 -9 0 -4 -14 -24 -30
-42 -17 -19 -37 -46 -46 -61 -8 -15 -30 -43 -48 -62 -19 -19 -51 -46 -71 -62
-20 -15 -43 -43 -51 -62 -7 -19 -14 -47 -14 -62 0 -15 7 -33 15 -40 8 -6 20
-8 27 -4 7 5 25 19 39 32 15 13 51 39 80 58 29 18 68 37 86 40 18 3 33 10 33
15 0 5 15 18 33 29 17 11 47 20 65 20 17 0 32 -5 32 -10 0 -6 -7 -22 -17 -36
-9 -14 -50 -53 -92 -87 -42 -33 -91 -77 -109 -96 -19 -19 -38 -43 -43 -53 -5
-10 -17 -18 -27 -18 -9 0 -32 -9 -50 -20 -18 -11 -39 -34 -46 -51 -8 -19 -33
-42 -67 -63 -41 -24 -55 -39 -57 -59 -3 -25 0 -27 31 -27 19 0 46 9 60 20 14
11 38 20 54 20 15 0 44 5 63 10 19 6 64 18 100 26 36 8 141 21 235 29 93 7
173 11 176 9 4 -2 42 -11 86 -19 43 -8 84 -15 91 -15 7 0 21 15 32 32 11 18
20 45 20 59 0 18 -12 37 -35 58 -27 23 -46 31 -78 32 -23 1 -53 0 -67 -1 -14
-1 -38 -8 -55 -15 -16 -8 -46 -15 -65 -16 -19 -1 -66 -1 -103 0 -68 1 -68 1
-65 28 2 17 12 32 27 39 13 7 48 36 77 65 30 29 54 59 54 66 0 7 15 30 33 50
19 21 38 52 44 68 6 17 7 39 3 51 -5 11 -20 28 -35 38 -18 12 -36 15 -52 11
-15 -3 -39 -1 -55 6 -25 10 -33 8 -68 -15 -22 -14 -44 -26 -50 -26 -6 0 -33
-11 -60 -25 -27 -14 -54 -25 -60 -25 -5 0 -10 8 -10 18 1 9 23 35 51 57 27 22
78 68 112 103 34 35 74 70 89 78 15 8 33 24 39 36 8 16 8 31 0 59 -7 21 -20
43 -31 49 -10 5 -20 10 -22 9z"/>
</g>
</svg>
