<?xml version="1.0" standalone="no"?>
<!DOCTYPE svg PUBLIC "-//W3C//DTD SVG 20010904//EN"
 "http://www.w3.org/TR/2001/REC-SVG-20010904/DTD/svg10.dtd">
<svg version="1.0" xmlns="http://www.w3.org/2000/svg"
 width="128.000000pt" height="128.000000pt" viewBox="0 0 128.000000 128.000000"
 preserveAspectRatio="xMidYMid meet">
<metadata>
Created by potrace 1.16, written by Peter Selinger 2001-2019
</metadata>
<g transform="translate(0.000000,128.000000) scale(0.100000,-0.100000)"
fill="#000000" stroke="none">
<path d="M682 1209 c-10 -1 -24 -3 -33 -6 -13 -3 -16 -18 -16 -71 0 -39 -9
-101 -22 -147 -13 -44 -27 -88 -32 -97 -5 -10 -9 -26 -9 -37 0 -10 -9 -30 -21
-45 -16 -21 -29 -26 -64 -26 -24 0 -47 -5 -51 -11 -4 -7 -22 -9 -48 -6 -23 4
-52 4 -64 0 -12 -3 -22 -11 -22 -18 0 -7 15 -24 33 -37 17 -13 58 -30 90 -38
55 -13 58 -15 53 -39 -2 -14 -9 -46 -14 -70 -6 -25 -17 -50 -24 -55 -8 -6 -24
-31 -35 -56 -11 -25 -42 -67 -68 -95 -26 -27 -54 -61 -63 -74 -9 -13 -31 -30
-49 -37 -18 -8 -33 -18 -33 -24 0 -5 -12 -15 -27 -22 -20 -9 -28 -21 -28 -38
0 -15 6 -26 16 -28 9 -2 27 9 40 23 13 14 42 34 65 45 23 11 68 46 100 78 32
32 73 74 89 93 17 20 38 50 47 67 10 18 24 35 33 38 10 4 24 -2 36 -15 11 -11
27 -21 35 -21 9 0 46 -15 83 -34 36 -19 86 -40 111 -46 25 -7 63 -20 85 -30
22 -10 59 -26 81 -36 23 -11 58 -39 78 -64 19 -25 45 -63 57 -85 12 -22 28
-48 37 -57 8 -10 27 -18 41 -18 15 0 37 7 49 16 12 8 22 26 22 39 0 14 -27 54
-72 107 -46 53 -80 84 -95 86 -13 2 -52 18 -86 36 -41 22 -84 35 -125 40 -39
4 -85 18 -120 37 -31 16 -61 29 -66 29 -5 0 -26 17 -47 38 -27 25 -39 46 -39
64 0 15 9 51 20 80 11 29 20 67 20 84 0 22 11 43 40 74 38 42 41 43 87 36 39
-5 50 -3 70 16 13 12 23 31 23 43 0 11 -7 31 -16 43 -8 12 -26 22 -39 22 -13
0 -31 7 -39 16 -9 8 -17 27 -17 42 -1 15 0 32 1 37 2 6 3 26 2 46 0 20 -11 52
-22 72 -12 21 -29 36 -38 36z"/>
<path d="M96 159 c-10 8 -17 6 -29 -7 -10 -10 -17 -28 -17 -40 0 -12 6 -22 14
-22 7 0 18 6 23 13 6 6 13 20 16 29 3 9 0 21 -7 27z"/>
</g>
</svg>
