<?xml version="1.0" standalone="no"?>
<!DOCTYPE svg PUBLIC "-//W3C//DTD SVG 20010904//EN"
 "http://www.w3.org/TR/2001/REC-SVG-20010904/DTD/svg10.dtd">
<svg version="1.0" xmlns="http://www.w3.org/2000/svg"
 width="128.000000pt" height="128.000000pt" viewBox="0 0 128.000000 128.000000"
 preserveAspectRatio="xMidYMid meet">
<metadata>
Created by potrace 1.16, written by Peter Selinger 2001-2019
</metadata>
<g transform="translate(0.000000,128.000000) scale(0.100000,-0.100000)"
fill="#000000" stroke="none">
<path d="M529 1097 c-41 4 -58 2 -67 -10 -7 -8 -10 -21 -6 -30 3 -8 23 -27 43
-40 38 -25 38 -25 43 -110 3 -49 1 -107 -6 -137 -10 -42 -18 -55 -41 -68 -21
-11 -64 -16 -140 -18 -60 -1 -126 -7 -145 -14 -19 -7 -66 -15 -105 -19 -62 -5
-70 -8 -73 -28 -3 -17 3 -24 24 -29 14 -4 61 -4 103 -1 58 4 81 2 95 -9 11 -8
30 -14 43 -14 12 0 27 8 32 19 7 12 26 20 58 24 33 4 55 1 71 -9 12 -8 22 -25
22 -37 0 -13 -12 -34 -26 -48 -14 -13 -48 -52 -75 -85 -27 -34 -73 -80 -104
-103 -30 -23 -71 -58 -92 -79 -21 -20 -49 -44 -62 -53 -15 -9 -21 -20 -17 -27
5 -9 24 -11 59 -6 29 3 63 13 77 21 14 9 41 32 62 52 20 20 62 59 94 86 31 28
75 67 97 88 22 20 43 37 48 37 5 0 12 12 15 28 4 15 17 41 28 59 12 18 31 38
43 44 16 9 29 9 45 2 13 -6 40 -39 61 -75 21 -35 56 -82 78 -104 23 -21 52
-55 64 -75 13 -20 37 -41 53 -48 16 -7 38 -28 48 -47 12 -21 29 -37 44 -40 14
-3 43 -10 65 -15 22 -6 56 -14 75 -19 19 -5 54 -10 78 -10 33 0 42 4 42 18 0
10 -20 28 -50 45 -28 15 -63 27 -79 27 -23 0 -44 15 -97 71 -38 39 -83 77
-101 86 -18 8 -35 25 -39 36 -4 12 -30 46 -60 74 -29 29 -59 53 -67 53 -8 0
-21 8 -31 19 -13 14 -14 24 -7 44 6 15 20 28 33 31 13 3 52 8 88 11 36 3 83
11 105 16 28 8 49 8 76 -1 21 -7 48 -10 62 -6 14 3 27 13 31 21 3 8 3 22 0 30
-3 8 -21 23 -39 33 -18 11 -42 23 -53 26 -13 5 -50 -5 -99 -24 -64 -26 -96
-32 -173 -35 -63 -3 -103 0 -120 8 -14 7 -26 21 -29 32 -2 10 2 44 8 74 7 31
19 80 28 109 12 39 14 58 6 70 -5 10 -28 30 -50 45 -27 19 -56 30 -94 34z"/>
</g>
</svg>
