<?xml version="1.0" standalone="no"?>
<!DOCTYPE svg PUBLIC "-//W3C//DTD SVG 20010904//EN"
 "http://www.w3.org/TR/2001/REC-SVG-20010904/DTD/svg10.dtd">
<svg version="1.0" xmlns="http://www.w3.org/2000/svg"
 width="128.000000pt" height="128.000000pt" viewBox="0 0 128.000000 128.000000"
 preserveAspectRatio="xMidYMid meet">
<metadata>
Created by potrace 1.16, written by Peter Selinger 2001-2019
</metadata>
<g transform="translate(0.000000,128.000000) scale(0.100000,-0.100000)"
fill="#000000" stroke="none">
<path d="M690 1280 c-28 0 -40 -4 -40 -15 0 -8 -10 -20 -22 -26 -13 -7 -32
-21 -43 -33 -11 -12 -38 -43 -60 -70 -21 -27 -60 -72 -86 -99 -26 -28 -53 -62
-61 -76 -7 -14 -23 -35 -36 -46 -15 -13 -28 -43 -38 -90 -9 -38 -16 -78 -16
-88 1 -11 9 -25 19 -33 10 -7 29 -14 43 -14 14 0 43 9 64 20 25 12 49 17 67
13 18 -3 29 -12 29 -22 0 -9 -5 -33 -11 -53 -5 -21 -13 -38 -18 -38 -4 0 -22
-23 -41 -51 -18 -28 -39 -53 -47 -56 -10 -4 -12 -14 -8 -34 5 -22 1 -33 -21
-51 -14 -13 -42 -38 -60 -55 -27 -26 -34 -41 -34 -71 0 -21 -5 -43 -11 -49 -7
-7 -9 -19 -5 -28 5 -15 9 -15 37 2 17 10 37 30 45 46 8 15 23 27 34 27 10 0
29 4 42 9 13 5 60 15 106 21 45 7 106 13 135 14 28 1 58 5 64 9 7 4 25 1 40
-6 20 -11 33 -12 49 -5 13 6 34 8 48 4 15 -4 26 -14 26 -22 0 -9 -17 -48 -37
-85 -29 -53 -42 -69 -59 -69 -12 0 -25 -7 -28 -15 -3 -9 -11 -15 -18 -13 -7 1
-24 -8 -38 -20 -14 -13 -50 -42 -80 -65 -55 -42 -55 -42 -12 -45 30 -2 50 3
71 17 16 12 35 21 43 21 8 0 33 18 57 40 26 24 52 40 67 40 14 0 38 10 54 22
17 12 30 29 30 39 0 9 7 22 16 30 10 8 13 21 9 36 -4 18 -1 23 14 23 11 0 23
5 26 10 5 8 11 8 20 0 10 -8 15 -8 21 1 4 7 -2 19 -14 30 -12 9 -22 23 -22 29
0 8 -9 10 -26 6 -24 -6 -25 -5 -19 24 6 26 3 31 -21 41 -19 7 -46 7 -81 1 -29
-5 -56 -5 -60 -1 -4 4 -28 8 -53 9 -25 0 -67 -4 -95 -10 -27 -7 -57 -12 -65
-12 -8 0 -35 -7 -60 -15 -25 -8 -55 -20 -68 -26 -16 -8 -26 -7 -34 1 -9 9 -9
17 -3 26 6 8 24 34 40 57 17 24 41 67 54 94 13 28 30 57 37 66 8 8 32 52 54
97 32 67 44 82 62 82 13 0 44 8 70 18 26 10 63 34 82 54 24 24 32 39 24 44 -6
4 -17 -1 -24 -11 -13 -17 -15 -16 -29 18 -8 21 -21 37 -28 37 -6 0 -31 -10
-53 -22 -42 -22 -42 -22 -77 15 -19 20 -40 37 -47 37 -9 0 -11 -11 -7 -37 4
-24 1 -45 -10 -64 -9 -15 -28 -30 -42 -32 -14 -3 -50 -3 -80 -1 -30 3 -61 10
-68 16 -7 6 -13 16 -13 23 0 8 18 32 40 55 22 23 40 46 40 51 0 5 11 14 24 19
13 5 37 26 53 47 15 21 31 40 36 41 4 2 7 9 7 15 0 7 35 41 76 77 42 36 80 73
85 83 9 15 5 17 -31 17z"/>
</g>
</svg>
