<?xml version="1.0" standalone="no"?>
<!DOCTYPE svg PUBLIC "-//W3C//DTD SVG 20010904//EN"
 "http://www.w3.org/TR/2001/REC-SVG-20010904/DTD/svg10.dtd">
<svg version="1.0" xmlns="http://www.w3.org/2000/svg"
 width="128.000000pt" height="128.000000pt" viewBox="0 0 128.000000 128.000000"
 preserveAspectRatio="xMidYMid meet">
<metadata>
Created by potrace 1.16, written by Peter Selinger 2001-2019
</metadata>
<g transform="translate(0.000000,128.000000) scale(0.100000,-0.100000)"
fill="#000000" stroke="none">
<path d="M583 1280 c-7 0 -13 -6 -13 -14 0 -8 -9 -18 -20 -21 -11 -4 -20 -15
-20 -26 0 -11 7 -22 15 -25 8 -4 15 -12 15 -19 0 -7 7 -18 15 -25 11 -9 13
-23 9 -51 -4 -25 -2 -44 6 -54 7 -8 10 -22 6 -31 -4 -10 -13 -13 -27 -9 -13 4
-27 1 -40 -11 -11 -10 -19 -30 -19 -49 0 -32 0 -33 -44 -28 -31 4 -51 0 -70
-12 -16 -11 -26 -26 -26 -41 0 -13 -3 -24 -6 -24 -3 0 -12 7 -20 15 -9 9 -25
12 -43 9 -18 -4 -44 2 -71 15 -24 12 -51 21 -61 21 -9 0 -20 -7 -23 -16 -3 -9
-4 -20 0 -25 3 -5 30 -21 60 -35 36 -17 65 -24 82 -21 15 3 50 10 77 16 28 6
59 16 71 22 12 6 32 9 45 7 16 -2 25 -11 27 -27 2 -13 -1 -28 -7 -34 -6 -6
-11 -19 -11 -29 0 -10 -7 -21 -15 -24 -8 -3 -19 -22 -25 -42 -5 -20 -6 -39 -2
-43 4 -4 16 -9 27 -13 11 -3 25 -2 30 2 6 4 21 28 34 54 12 26 20 51 17 56 -3
6 3 31 15 56 11 25 31 53 44 62 21 14 23 19 13 42 -6 15 -15 37 -20 49 -8 16
-6 27 8 47 11 14 25 26 31 26 7 0 19 -13 27 -29 12 -22 24 -30 53 -34 24 -3
44 1 54 10 9 8 24 11 34 7 12 -5 23 -1 31 11 8 10 14 25 14 32 0 7 -17 20 -37
29 -21 9 -65 23 -98 31 -33 8 -70 15 -82 17 -13 1 -26 5 -29 9 -4 4 -2 13 5
21 7 8 9 25 5 40 -4 18 -2 28 9 32 9 3 25 1 36 -5 12 -7 22 -7 25 -2 4 5 -1
17 -10 25 -8 9 -26 16 -40 16 -13 0 -29 9 -36 20 -7 11 -18 20 -25 20z"/>
<path d="M473 607 c-6 2 -14 0 -17 -6 -3 -5 -14 -7 -24 -4 -13 3 -28 -7 -48
-34 -16 -21 -28 -45 -26 -53 1 -9 -20 -40 -48 -70 -28 -30 -57 -68 -65 -84 -8
-16 -15 -40 -15 -53 0 -14 -6 -23 -15 -23 -9 0 -44 -27 -77 -61 -34 -33 -74
-67 -89 -74 -14 -8 -29 -21 -32 -29 -3 -8 -3 -17 0 -20 4 -3 25 -6 49 -6 36 0
47 5 73 35 17 20 31 42 31 50 0 8 7 15 16 15 9 0 36 20 60 45 24 24 44 53 44
64 0 11 14 30 30 43 17 12 30 25 30 30 0 4 10 20 23 35 12 15 37 41 55 58 17
17 32 41 32 52 0 11 7 26 15 33 9 7 15 22 13 33 -2 11 -8 22 -15 24z"/>
<path d="M748 456 c-20 5 -29 2 -34 -9 -3 -9 -3 -21 1 -27 3 -5 13 -10 22 -10
9 0 33 -5 52 -12 20 -6 55 -19 78 -30 24 -10 47 -18 53 -18 5 0 25 -9 44 -20
20 -10 43 -26 53 -34 10 -9 42 -37 70 -63 29 -26 53 -52 53 -57 0 -6 -10 -20
-22 -33 -22 -23 -22 -23 22 -61 24 -20 53 -42 64 -49 12 -7 26 -12 32 -13 7 0
14 16 16 36 2 21 -3 51 -13 74 -9 21 -43 65 -76 98 -32 33 -79 76 -105 96 -26
19 -81 51 -122 71 -41 19 -94 40 -118 45 -24 5 -55 12 -70 16z"/>
</g>
</svg>
