<?xml version="1.0" standalone="no"?>
<!DOCTYPE svg PUBLIC "-//W3C//DTD SVG 20010904//EN"
 "http://www.w3.org/TR/2001/REC-SVG-20010904/DTD/svg10.dtd">
<svg version="1.0" xmlns="http://www.w3.org/2000/svg"
 width="128.000000pt" height="128.000000pt" viewBox="0 0 128.000000 128.000000"
 preserveAspectRatio="xMidYMid meet">
<metadata>
Created by potrace 1.16, written by Peter Selinger 2001-2019
</metadata>
<g transform="translate(0.000000,128.000000) scale(0.100000,-0.100000)"
fill="#000000" stroke="none">
<path d="M694 1280 c-12 0 -25 -7 -28 -16 -3 -9 -6 -19 -6 -24 0 -4 14 -13 31
-20 19 -8 34 -9 40 -3 5 5 4 19 -3 36 -8 17 -21 27 -34 27z"/>
<path d="M755 1280 c-8 0 -15 -7 -15 -16 0 -14 3 -14 15 -4 8 7 15 14 15 16 0
2 -7 4 -15 4z"/>
<path d="M805 1280 c-8 0 -15 -7 -15 -15 0 -9 8 -18 18 -22 9 -3 29 -15 44
-25 17 -11 36 -17 47 -13 11 3 24 20 30 37 6 17 11 33 11 34 0 2 -24 4 -54 4
-34 0 -56 -5 -59 -12 -4 -10 -6 -10 -6 0 -1 6 -8 12 -16 12z"/>
<path d="M653 1220 c-4 3 -21 4 -37 1 -16 -3 -38 -18 -49 -33 -18 -24 -19 -31
-7 -91 9 -49 9 -70 0 -86 -6 -12 -15 -19 -21 -16 -5 4 -9 13 -9 21 0 8 -9 14
-21 14 -19 0 -20 -4 -15 -52 4 -29 6 -76 6 -104 -1 -37 3 -53 14 -57 9 -4 18
-2 21 3 3 5 1 18 -5 29 -5 11 -10 22 -10 24 0 3 8 3 18 0 10 -2 23 -18 30 -35
6 -16 15 -28 19 -25 5 3 7 24 5 47 -3 30 -8 40 -18 36 -10 -4 -14 2 -14 20 0
23 3 25 29 19 25 -5 31 -2 51 30 16 26 27 34 39 29 9 -3 24 -9 34 -11 11 -4
17 -15 17 -34 0 -22 6 -30 24 -35 18 -4 25 -14 29 -41 4 -20 4 -40 1 -45 -3
-4 -14 -8 -24 -8 -11 0 -24 -8 -29 -18 -6 -11 -6 -24 -1 -32 8 -13 12 -12 23
5 14 18 16 17 38 -26 12 -24 25 -60 28 -79 5 -29 11 -35 31 -35 19 0 26 6 28
25 2 14 8 29 13 35 6 6 15 1 25 -13 8 -12 21 -22 29 -22 8 0 15 16 17 43 3 23
2 47 -1 52 -4 6 -5 47 -3 93 3 80 4 82 30 88 15 3 35 10 45 15 10 5 22 7 27 4
6 -4 10 -17 10 -30 0 -12 7 -25 15 -29 8 -3 27 0 40 6 21 9 29 9 41 -4 13 -13
14 -17 2 -27 -7 -6 -21 -17 -31 -24 -13 -9 -19 -29 -21 -79 -1 -37 -7 -73 -13
-80 -5 -7 -11 -41 -11 -75 -1 -50 1 -63 13 -63 9 0 18 7 22 16 3 9 1 25 -6 36
-7 11 -9 28 -6 38 3 10 11 20 18 23 7 3 31 -1 52 -9 35 -12 42 -11 55 2 13 13
9 21 -43 71 -57 55 -57 55 -22 74 19 11 42 19 50 19 11 0 15 11 15 38 0 30 -7
45 -34 71 -26 26 -41 32 -60 29 -14 -3 -26 -1 -26 3 0 5 -16 15 -35 23 -20 9
-59 14 -92 13 -40 -2 -59 -7 -67 -19 -7 -12 -7 -26 -1 -45 6 -16 9 -40 7 -55
-3 -25 -7 -28 -42 -28 -21 0 -42 5 -45 10 -4 6 3 26 14 44 12 19 18 41 15 50
-4 11 -16 16 -33 14 -20 -2 -26 2 -27 17 -1 11 -2 25 -3 30 0 6 -27 16 -59 23
-32 7 -72 12 -89 12 -22 0 -38 8 -52 26 -16 20 -18 30 -10 40 6 7 20 14 32 16
18 2 23 11 25 42 2 21 0 42 -5 46z m161 -290 c7 -7 6 -14 -2 -22 -9 -9 -15 -9
-24 0 -10 10 -10 15 2 22 9 6 19 5 24 0z m86 -150 c16 0 32 -4 35 -10 3 -5 2
-10 -4 -10 -5 0 -17 -7 -26 -16 -15 -15 -18 -15 -32 -1 -8 8 -12 20 -9 26 4 6
20 11 36 11z"/>
<path d="M710 1175 c-6 3 -13 -1 -16 -9 -3 -9 -4 -23 0 -31 3 -8 10 -15 16
-15 5 0 10 11 10 24 0 14 -5 28 -10 31z"/>
<path d="M791 1157 c-8 16 -11 15 -21 -9 -7 -15 -10 -34 -6 -43 3 -9 12 -15
19 -13 6 3 13 14 15 26 2 12 -1 29 -7 39z"/>
<path d="M314 1126 c-15 11 -23 11 -32 2 -7 -7 -12 -29 -12 -50 0 -21 -4 -38
-9 -38 -6 0 -13 5 -16 10 -3 6 -10 10 -14 10 -5 0 -16 -21 -24 -47 -11 -32
-12 -51 -6 -59 7 -8 6 -14 -1 -19 -5 -3 -10 -15 -10 -26 0 -10 -4 -19 -9 -19
-5 0 -13 -9 -16 -21 -4 -11 -18 -24 -32 -30 -23 -8 -25 -13 -19 -47 5 -37 5
-38 -46 -62 -29 -14 -54 -30 -56 -37 -2 -6 6 -21 17 -32 12 -12 31 -21 44 -21
14 0 36 14 56 37 18 20 39 49 47 65 8 15 20 28 27 28 7 0 17 -4 23 -9 5 -5 23
-11 39 -13 21 -2 31 -9 33 -23 2 -13 -5 -24 -20 -30 -15 -7 -23 -19 -23 -35 0
-18 5 -25 19 -25 10 0 28 12 39 27 11 15 20 43 21 67 0 23 3 41 6 41 4 0 14
-6 25 -13 11 -9 30 -12 49 -8 22 5 32 13 34 29 3 22 1 23 -68 21 -40 -1 -76 3
-82 9 -6 6 -25 8 -44 5 -18 -3 -40 -3 -49 1 -14 5 -12 12 10 52 14 25 25 56
23 68 -2 15 3 22 19 24 13 2 31 15 41 30 10 15 24 39 31 53 7 14 11 36 9 49
-1 12 -12 29 -24 36z"/>
<path d="M425 1030 c-22 0 -35 -6 -40 -17 -4 -12 2 -25 20 -40 14 -13 37 -23
51 -23 24 0 25 3 19 33 -4 17 -9 35 -12 40 -2 4 -19 7 -38 7z"/>
<path d="M688 930 c-7 0 -21 -5 -30 -10 -11 -7 -19 -30 -23 -64 -6 -42 -11
-55 -27 -59 -10 -3 -18 -11 -17 -19 1 -7 1 -19 0 -27 -1 -11 -4 -11 -16 -1
-12 10 -18 10 -30 0 -8 -7 -15 -23 -15 -36 0 -19 -5 -24 -26 -24 -23 0 -25 -2
-13 -16 7 -9 12 -33 11 -55 -2 -33 0 -39 16 -39 11 0 25 -7 32 -15 7 -9 13
-32 14 -52 1 -27 -3 -38 -16 -41 -11 -2 -20 8 -28 33 -8 24 -17 35 -28 33 -9
-2 -19 -12 -22 -23 -3 -11 -12 -30 -20 -42 -8 -13 -23 -23 -32 -23 -11 0 -18
-8 -18 -20 0 -10 -9 -24 -20 -30 -13 -7 -20 -21 -20 -40 0 -16 5 -32 10 -35 6
-3 28 -7 50 -7 37 0 40 -3 40 -27 0 -15 16 -50 38 -79 29 -41 43 -51 65 -52
16 0 35 7 43 15 9 8 26 15 38 15 12 0 35 13 50 29 17 18 26 36 23 45 -4 9 -11
16 -18 16 -6 0 -13 -9 -16 -20 -3 -11 -14 -20 -24 -20 -11 0 -19 5 -19 10 0 6
5 19 12 30 7 10 9 22 5 27 -5 4 -17 2 -27 -5 -11 -7 -22 -12 -25 -12 -2 0 -14
20 -25 45 -12 27 -27 45 -38 46 -13 0 -11 3 6 9 12 5 22 16 22 24 0 8 5 18 11
21 5 4 18 0 29 -10 10 -9 26 -16 36 -16 11 -1 29 2 41 6 16 5 25 3 29 -9 3 -8
-3 -27 -15 -42 -12 -15 -21 -31 -21 -36 0 -6 7 -7 16 -4 10 4 25 -5 42 -24 24
-28 27 -28 44 -13 10 9 18 30 18 49 0 20 -8 40 -20 52 -13 12 -18 25 -14 36 3
9 15 21 25 27 12 6 19 20 18 37 -1 17 -3 20 -6 10 -2 -10 -14 -18 -25 -18 -11
0 -29 10 -39 22 -11 11 -19 22 -19 24 0 2 6 1 14 -2 9 -4 20 6 30 25 11 20 21
28 31 25 9 -4 18 1 21 11 4 9 1 22 -5 28 -10 9 -15 8 -25 -5 -6 -9 -23 -17
-36 -18 -14 -2 -33 1 -44 5 -11 5 -26 4 -35 -2 -12 -8 -15 -22 -13 -55 2 -31
-1 -48 -12 -57 -8 -7 -20 -10 -25 -6 -6 3 -8 18 -5 34 5 24 -2 36 -45 79 -28
28 -51 58 -51 67 0 8 5 15 11 15 6 0 19 -10 30 -22 19 -23 19 -23 39 1 11 13
20 32 20 43 0 11 8 27 18 36 10 10 24 34 31 55 10 29 10 42 2 50 -6 6 -11 18
-11 27 0 9 9 25 20 35 11 10 20 22 20 27 0 4 -6 8 -12 8z m-234 -490 c8 0 22
-8 31 -17 16 -16 16 -17 -1 -30 -13 -9 -21 -10 -31 -2 -7 6 -13 20 -13 30 0
11 6 19 14 19z"/>
<path d="M712 872 c-9 9 -12 7 -12 -12 0 -19 3 -21 12 -12 9 9 9 15 0 24z"/>
<path d="M1240 798 c-9 1 -19 0 -23 -4 -4 -4 -7 -20 -7 -35 0 -16 7 -29 17
-33 9 -4 20 -3 25 2 5 5 8 22 6 38 -2 16 -10 30 -18 32z"/>
<path d="M729 718 c-8 1 -18 0 -22 -4 -3 -4 -2 -15 4 -26 8 -15 7 -24 -5 -37
-9 -10 -16 -23 -16 -29 0 -7 5 -12 10 -12 6 0 16 12 23 28 6 15 16 30 20 33 5
4 7 15 5 25 -2 10 -10 20 -19 22z"/>
<path d="M384 710 c-9 0 -14 -5 -12 -12 2 -6 10 -14 16 -16 7 -2 12 3 12 12 0
9 -7 16 -16 16z"/>
<path d="M451 673 c-7 7 -12 5 -16 -6 -4 -8 -5 -26 -3 -39 2 -13 8 -22 13 -21
6 1 11 14 13 29 2 14 -1 31 -7 37z"/>
<path d="M218 649 c-7 -1 -23 -4 -34 -6 -15 -3 -24 -14 -28 -35 -3 -17 -6 -34
-6 -39 0 -5 8 -9 17 -9 9 0 24 -7 34 -16 10 -9 23 -13 28 -9 6 3 11 12 11 19
0 7 -9 21 -20 31 -19 17 -19 20 -5 42 11 17 12 23 3 22z"/>
<path d="M922 620 c-11 0 -25 -7 -33 -16 -10 -13 -10 -17 2 -25 8 -5 19 -9 25
-9 7 0 15 -11 18 -25 4 -16 13 -25 25 -25 10 0 22 7 25 16 3 8 3 27 0 40 -4
14 -14 29 -24 34 -10 6 -27 10 -38 10z"/>
<path d="M1172 618 c-7 2 -15 -4 -19 -14 -4 -11 0 -22 12 -30 13 -10 22 -11
29 -4 7 7 7 16 0 27 -6 9 -16 19 -22 21z"/>
<path d="M141 501 c-18 22 -18 22 -34 -2 -10 -13 -17 -31 -17 -40 0 -10 3 -24
6 -33 3 -8 20 -20 37 -25 26 -9 32 -17 34 -43 2 -22 -4 -36 -17 -45 -11 -8
-20 -22 -20 -31 0 -9 -7 -26 -15 -36 -8 -11 -15 -36 -15 -57 0 -20 7 -53 15
-73 10 -23 22 -36 34 -36 11 0 28 15 41 35 12 19 24 51 27 72 3 21 12 47 19
58 8 11 14 29 14 40 0 16 -2 17 -10 5 -5 -8 -12 -11 -16 -7 -4 4 -3 20 2 35 7
20 15 26 32 24 15 -2 22 2 22 13 0 9 11 37 26 62 14 25 23 51 20 59 -3 7 -13
10 -24 7 -11 -2 -35 0 -53 5 -21 5 -45 5 -62 0 -23 -8 -30 -6 -46 13z"/>
<path d="M898 520 c-4 0 -8 -3 -9 -7 -1 -5 0 -19 1 -33 1 -14 11 -32 23 -41
15 -12 21 -30 23 -65 3 -44 0 -52 -44 -103 -26 -31 -80 -88 -119 -127 -54 -53
-73 -78 -73 -97 0 -20 -5 -27 -19 -27 -11 0 -23 -4 -26 -10 -4 -6 8 -10 29
-10 27 0 34 3 30 15 -4 8 -1 15 4 15 6 0 14 -4 17 -10 3 -5 12 -10 20 -10 7 0
21 8 30 17 10 9 31 24 49 33 17 9 53 49 82 91 27 41 58 75 67 77 11 2 23 -11
38 -43 12 -25 41 -68 65 -94 24 -27 44 -54 44 -60 0 -6 10 -11 23 -11 19 0 26
9 39 49 14 46 14 52 -2 89 -10 22 -28 47 -41 56 -13 9 -32 16 -42 16 -9 0 -20
7 -24 15 -3 9 2 21 10 28 14 11 14 16 -6 54 -12 22 -40 66 -61 97 -27 39 -45
56 -61 56 -12 0 -30 9 -40 20 -10 11 -22 20 -27 20z"/>
<path d="M1084 520 c-7 0 -18 -9 -24 -20 -8 -14 -8 -26 0 -40 6 -11 19 -20 30
-20 10 0 22 5 25 11 4 5 1 23 -5 40 -7 16 -18 29 -26 29z"/>
</g>
</svg>
