<?xml version="1.0" standalone="no"?>
<!DOCTYPE svg PUBLIC "-//W3C//DTD SVG 20010904//EN"
 "http://www.w3.org/TR/2001/REC-SVG-20010904/DTD/svg10.dtd">
<svg version="1.0" xmlns="http://www.w3.org/2000/svg"
 width="128.000000pt" height="128.000000pt" viewBox="0 0 128.000000 128.000000"
 preserveAspectRatio="xMidYMid meet">
<metadata>
Created by potrace 1.16, written by Peter Selinger 2001-2019
</metadata>
<g transform="translate(0.000000,128.000000) scale(0.100000,-0.100000)"
fill="#000000" stroke="none">
<path d="M336 1119 c0 -1 -9 -3 -18 -6 -10 -2 -18 -10 -18 -18 0 -7 6 -18 14
-24 7 -6 14 -31 14 -56 1 -43 -1 -46 -40 -66 -23 -12 -62 -24 -87 -28 -31 -4
-47 -12 -49 -22 -2 -9 4 -24 13 -32 12 -13 21 -14 46 -5 24 8 33 8 39 -2 4 -7
2 -31 -6 -53 -8 -23 -39 -64 -74 -99 -33 -33 -60 -64 -60 -69 0 -5 7 -9 16 -9
9 0 30 10 47 21 18 12 49 40 69 62 33 36 39 40 60 30 13 -6 31 -14 41 -17 11
-4 17 -16 17 -38 0 -18 3 -43 6 -55 5 -17 -1 -26 -27 -42 -22 -13 -51 -21 -81
-21 -26 0 -49 -4 -52 -9 -3 -4 -28 -11 -55 -15 -28 -4 -53 -11 -57 -17 -3 -6
-16 -8 -28 -5 -13 3 -31 0 -40 -7 -16 -12 -16 -14 -2 -26 8 -7 42 -13 76 -14
48 -2 63 2 71 15 7 12 18 15 43 11 19 -3 36 -1 40 6 4 6 18 11 31 11 13 0 26
-3 28 -7 2 -5 -2 -22 -9 -40 -7 -17 -23 -34 -34 -38 -11 -3 -20 -10 -20 -16 0
-5 -17 -20 -38 -33 -21 -13 -61 -36 -90 -51 -29 -15 -52 -33 -52 -40 0 -8 4
-16 8 -19 5 -3 28 2 53 10 24 9 54 25 66 36 11 11 29 18 40 16 10 -2 19 -13
21 -26 2 -12 15 -35 29 -50 14 -15 42 -47 62 -72 20 -25 41 -48 46 -52 6 -5
18 2 28 14 16 19 18 38 17 113 -1 49 -2 109 -1 133 1 35 4 42 21 42 11 0 20
-3 20 -7 0 -5 19 -28 41 -52 35 -37 43 -42 55 -30 7 8 16 28 20 44 4 22 0 38
-16 57 -11 15 -39 33 -60 39 -22 7 -47 21 -57 31 -13 15 -15 23 -7 36 8 12 30
18 80 22 38 3 79 11 92 18 12 7 22 21 22 31 0 10 -10 23 -23 30 -19 10 -34 10
-80 -4 -31 -9 -61 -14 -67 -10 -5 3 -10 27 -10 53 0 30 7 56 19 71 19 24 19
24 50 -8 17 -17 31 -36 31 -42 0 -6 10 -9 23 -7 17 2 22 10 22 33 0 24 -6 33
-32 45 -18 8 -35 21 -38 29 -3 8 1 21 9 29 10 11 12 22 4 48 -5 19 -6 43 -3
53 3 10 15 21 25 24 12 3 20 14 20 25 0 12 -11 24 -30 32 -26 11 -37 10 -70
-5 -21 -10 -46 -15 -54 -12 -9 4 -16 17 -16 29 0 13 -4 28 -8 34 -4 7 -24 19
-46 28 -21 9 -39 15 -40 15z m101 -180 c6 1 19 -6 27 -15 9 -8 16 -27 16 -42
0 -15 -14 -47 -30 -72 -16 -25 -30 -51 -30 -57 0 -7 -4 -13 -10 -13 -5 0 -32
14 -60 31 -50 31 -50 31 -28 62 12 17 22 42 23 56 0 19 8 27 40 37 22 6 45 12
52 13z m-79 -519 c20 0 22 -5 22 -49 0 -30 -5 -53 -14 -60 -11 -10 -23 -8 -55
9 -23 11 -41 26 -41 32 0 6 15 24 33 39 17 16 42 28 55 29z"/>
<path d="M806 1110 c-14 0 -28 -5 -31 -11 -4 -5 -2 -23 5 -39 9 -21 9 -34 1
-49 -7 -11 -34 -42 -61 -67 -28 -26 -50 -51 -50 -56 0 -5 13 -14 30 -19 16 -6
32 -19 35 -30 4 -10 4 -23 0 -29 -3 -5 -8 -76 -10 -157 -2 -82 -7 -200 -10
-263 -3 -63 -8 -127 -10 -141 -3 -14 -2 -37 4 -51 5 -14 17 -32 26 -41 9 -10
20 -17 25 -17 5 0 23 20 40 44 19 26 47 50 68 59 21 8 58 20 85 26 26 6 66 11
89 11 23 0 67 -5 98 -12 55 -11 56 -11 90 21 35 31 35 31 3 63 -32 31 -32 31
-78 14 -25 -10 -72 -20 -104 -23 -39 -4 -61 -2 -66 6 -4 7 -4 23 -1 35 4 18
15 25 48 30 24 4 56 8 71 10 16 2 40 14 54 28 15 15 22 31 18 38 -4 7 -19 10
-34 7 -14 -3 -51 -12 -82 -20 -31 -8 -61 -12 -66 -8 -6 3 -13 23 -17 43 -4 23
-3 39 5 43 6 4 43 8 81 9 55 1 73 5 82 18 8 14 6 22 -12 40 -20 21 -25 21 -64
9 -24 -7 -54 -13 -68 -14 -22 -2 -25 2 -28 40 -3 41 -3 41 65 48 37 3 75 10
83 14 8 4 16 18 18 30 2 13 -4 31 -14 42 -9 10 -21 19 -27 19 -5 0 -21 -9 -36
-19 -15 -11 -39 -23 -54 -26 -17 -5 -33 -2 -42 5 -8 7 -15 19 -15 26 0 8 6 14
14 14 8 0 24 11 37 25 13 13 31 25 39 25 9 0 35 18 58 40 23 23 42 47 42 54 0
8 -10 21 -23 29 -13 8 -40 20 -60 25 -28 8 -39 7 -47 -3 -7 -8 -9 -19 -5 -25
4 -6 -4 -32 -16 -58 -12 -26 -31 -55 -41 -66 -12 -11 -18 -26 -15 -38 4 -15 1
-19 -11 -16 -14 4 -17 -1 -14 -34 4 -36 2 -39 -39 -58 -24 -10 -48 -15 -52
-11 -5 5 -9 53 -9 107 -1 55 -5 104 -10 111 -7 8 4 25 35 55 25 25 47 57 51
75 7 28 4 34 -23 47 -16 9 -41 16 -55 16z m79 -444 c27 -1 30 -4 30 -34 0 -30
-4 -35 -40 -48 -22 -8 -46 -12 -52 -9 -8 2 -13 21 -13 44 0 33 4 40 23 44 12
3 36 4 52 3z m-12 -136 c31 0 33 -2 34 -39 1 -28 -3 -41 -15 -45 -9 -3 -29
-10 -44 -15 -20 -7 -28 -6 -29 2 -1 7 0 23 1 37 1 14 6 33 11 43 6 11 21 17
42 17z m-32 -144 c18 -3 38 -6 45 -6 9 0 14 -11 14 -29 0 -16 -6 -34 -14 -40
-8 -7 -27 -11 -42 -9 -21 2 -30 10 -36 33 -4 17 -6 36 -3 44 4 9 15 12 36 7z"/>
</g>
</svg>
