<?xml version="1.0" standalone="no"?>
<!DOCTYPE svg PUBLIC "-//W3C//DTD SVG 20010904//EN"
 "http://www.w3.org/TR/2001/REC-SVG-20010904/DTD/svg10.dtd">
<svg version="1.0" xmlns="http://www.w3.org/2000/svg"
 width="128.000000pt" height="128.000000pt" viewBox="0 0 128.000000 128.000000"
 preserveAspectRatio="xMidYMid meet">
<metadata>
Created by potrace 1.16, written by Peter Selinger 2001-2019
</metadata>
<g transform="translate(0.000000,128.000000) scale(0.100000,-0.100000)"
fill="#000000" stroke="none">
<path d="M782 1280 c-5 0 -13 -7 -16 -16 -3 -9 -6 -25 -6 -36 0 -11 -10 -37
-22 -57 -12 -20 -50 -66 -85 -104 -48 -51 -63 -74 -63 -97 0 -17 5 -30 12 -30
6 0 40 19 75 41 35 23 73 56 85 73 12 17 34 45 49 61 15 17 30 46 34 67 6 31
3 40 -23 67 -16 17 -34 31 -40 31z"/>
<path d="M792 923 c-22 11 -32 12 -52 1 -14 -6 -50 -22 -80 -34 -30 -12 -102
-45 -160 -72 -58 -27 -122 -61 -143 -75 -27 -19 -47 -46 -68 -92 -17 -36 -31
-77 -31 -91 0 -15 9 -30 23 -40 13 -8 41 -31 62 -50 22 -19 50 -59 63 -89 14
-30 34 -87 46 -125 11 -39 26 -78 33 -86 7 -8 20 -30 30 -49 9 -18 35 -53 57
-77 22 -24 48 -44 57 -44 9 0 35 19 58 42 22 24 47 54 54 68 7 14 17 70 21
125 5 55 10 116 13 135 2 19 8 47 13 61 8 20 18 26 42 27 19 0 33 -5 37 -14 3
-8 -3 -25 -14 -37 -11 -12 -26 -32 -32 -44 -6 -12 -11 -24 -11 -27 0 -3 7 -6
15 -6 8 0 46 16 84 36 52 26 74 44 85 69 9 18 16 40 16 49 0 9 -12 29 -27 46
-16 17 -37 31 -48 31 -11 0 -41 -3 -66 -7 -46 -6 -46 -6 -52 52 -3 33 -9 81
-13 107 -6 40 -3 51 13 70 11 12 23 35 27 51 5 18 2 36 -9 52 -8 13 -28 30
-43 37z m-185 -163 c12 0 24 -3 26 -7 3 -5 -2 -22 -12 -39 -9 -17 -35 -68 -58
-112 -27 -51 -43 -95 -43 -117 0 -28 -4 -35 -19 -35 -10 0 -26 11 -34 23 -8
13 -29 37 -46 53 -18 17 -31 39 -31 53 0 15 17 42 48 73 26 26 50 48 54 48 4
0 27 13 50 30 24 16 53 30 65 30z m161 -61 c8 1 12 -20 12 -73 0 -41 -4 -77
-9 -80 -5 -3 -30 -3 -55 0 -37 5 -46 11 -46 26 0 11 19 43 43 73 23 30 48 54
55 54z m-102 -240 c35 1 56 -4 64 -14 11 -13 10 -25 -3 -68 -8 -29 -29 -90
-45 -137 -17 -49 -36 -86 -45 -88 -10 -2 -26 25 -52 85 -20 48 -42 93 -47 100
-5 6 -10 30 -11 54 -2 42 -2 42 43 54 25 7 68 13 96 14z"/>
</g>
</svg>
