<?xml version="1.0" standalone="no"?>
<!DOCTYPE svg PUBLIC "-//W3C//DTD SVG 20010904//EN"
 "http://www.w3.org/TR/2001/REC-SVG-20010904/DTD/svg10.dtd">
<svg version="1.0" xmlns="http://www.w3.org/2000/svg"
 width="128.000000pt" height="128.000000pt" viewBox="0 0 128.000000 128.000000"
 preserveAspectRatio="xMidYMid meet">
<metadata>
Created by potrace 1.16, written by Peter Selinger 2001-2019
</metadata>
<g transform="translate(0.000000,128.000000) scale(0.100000,-0.100000)"
fill="#000000" stroke="none">
<path d="M824 1280 c-19 0 -34 -5 -34 -12 0 -6 7 -19 16 -29 14 -16 13 -22
-17 -76 -18 -32 -53 -77 -78 -101 -25 -23 -70 -54 -98 -67 -29 -14 -59 -36
-67 -48 -8 -12 -17 -32 -20 -44 -6 -19 -2 -23 36 -34 24 -6 46 -16 50 -23 4
-6 8 -23 8 -37 0 -14 -8 -33 -18 -42 -10 -10 -22 -17 -26 -17 -4 0 -40 -21
-80 -47 -40 -27 -81 -53 -92 -59 -10 -6 -29 -28 -40 -48 -12 -21 -24 -59 -28
-84 -5 -36 -2 -50 13 -66 10 -12 36 -48 58 -81 22 -33 53 -85 69 -115 16 -30
41 -82 55 -115 26 -60 26 -60 -15 -96 -41 -37 -41 -37 72 -38 101 0 115 2 137
21 18 15 25 32 25 56 0 19 7 78 16 131 9 53 21 104 26 115 8 14 18 17 41 13
25 -4 39 1 66 23 31 27 33 31 26 72 -6 31 -18 53 -44 78 -20 19 -50 44 -66 56
-30 21 -30 21 -3 75 14 30 31 71 38 91 10 34 9 41 -10 68 -17 23 -29 30 -55
30 -19 0 -45 -5 -59 -11 -20 -9 -29 -9 -41 1 -8 7 -15 18 -15 25 0 7 17 21 38
30 20 10 67 48 103 84 61 61 66 70 72 121 4 30 7 70 7 87 0 18 -7 51 -16 73
-14 36 -20 40 -50 40z m-214 -540 c6 0 10 -7 10 -15 0 -8 -4 -15 -10 -15 -5 0
-10 7 -10 15 0 8 5 15 10 15z m33 -40 c6 0 17 -17 24 -37 6 -21 9 -41 7 -45
-3 -5 -11 -8 -18 -8 -9 0 -16 -18 -21 -45 -3 -26 -3 -58 0 -73 4 -16 32 -48
71 -81 35 -29 64 -57 64 -61 0 -5 -8 -6 -18 -4 -13 4 -25 -10 -49 -59 -17 -36
-46 -81 -63 -101 -18 -20 -36 -33 -41 -30 -5 3 -9 12 -9 20 0 8 -36 68 -80
132 -44 65 -80 126 -80 136 0 10 30 49 68 88 37 39 77 74 90 79 12 5 22 17 22
27 0 10 3 22 8 26 4 4 8 12 8 17 1 5 2 11 3 14 0 3 7 5 14 5z"/>
</g>
</svg>
