<?xml version="1.0" standalone="no"?>
<!DOCTYPE svg PUBLIC "-//W3C//DTD SVG 20010904//EN"
 "http://www.w3.org/TR/2001/REC-SVG-20010904/DTD/svg10.dtd">
<svg version="1.0" xmlns="http://www.w3.org/2000/svg"
 width="128.000000pt" height="128.000000pt" viewBox="0 0 128.000000 128.000000"
 preserveAspectRatio="xMidYMid meet">
<metadata>
Created by potrace 1.16, written by Peter Selinger 2001-2019
</metadata>
<g transform="translate(0.000000,128.000000) scale(0.100000,-0.100000)"
fill="#000000" stroke="none">
<path d="M672 1280 c-17 0 -32 -8 -40 -21 -10 -16 -10 -24 -1 -35 6 -8 17 -14
24 -14 7 0 18 -6 24 -14 10 -11 9 -21 -3 -45 -9 -17 -15 -34 -14 -39 2 -4 -18
-32 -43 -62 -26 -30 -58 -79 -73 -107 -23 -45 -30 -53 -55 -53 -22 0 -37 -10
-63 -42 -19 -24 -42 -59 -51 -80 -9 -20 -17 -39 -17 -43 0 -3 -10 -27 -22 -53
-14 -32 -23 -77 -27 -142 -4 -58 -2 -125 5 -170 7 -44 23 -95 39 -123 15 -26
34 -53 43 -60 10 -6 26 -29 36 -49 10 -21 39 -56 63 -78 24 -22 50 -40 57 -40
7 0 43 28 80 63 36 35 66 70 66 77 0 8 8 23 18 34 10 12 24 38 31 59 7 20 9
46 6 58 -4 11 0 30 9 44 9 13 16 33 16 44 0 10 6 21 14 24 8 3 42 9 75 13 38
4 66 13 76 24 15 17 15 20 -1 45 -17 26 -19 26 -78 19 -34 -5 -77 -8 -96 -9
-35 0 -35 0 -32 67 3 52 -1 76 -17 110 -11 24 -37 62 -56 86 -19 24 -35 54
-35 66 0 13 -9 35 -20 49 -11 14 -20 27 -20 30 0 3 13 13 28 24 16 10 53 47
83 83 30 36 65 82 78 103 16 25 21 46 17 62 -4 14 -25 37 -49 52 -23 16 -43
31 -45 36 -2 4 -16 7 -30 7z m-151 -461 c3 1 13 -7 21 -16 9 -10 20 -43 26
-73 6 -30 11 -88 11 -129 2 -65 6 -79 32 -115 16 -22 39 -53 51 -68 15 -19 18
-31 11 -40 -6 -7 -11 -20 -11 -28 0 -8 -5 -31 -10 -50 -5 -19 -18 -53 -30 -75
-12 -22 -30 -51 -40 -64 -14 -17 -24 -22 -41 -16 -12 3 -28 23 -37 43 -8 20
-24 46 -34 57 -11 11 -31 51 -45 88 -18 49 -25 87 -25 140 0 39 7 105 15 146
9 40 22 86 30 102 8 15 15 36 15 46 0 10 12 25 28 35 15 9 30 17 33 17z m43
-749 c9 0 16 -7 16 -16 0 -9 -5 -14 -12 -12 -6 2 -14 10 -16 16 -2 7 3 12 12
12z"/>
<path d="M891 159 c-3 0 -25 -15 -48 -32 -24 -17 -43 -37 -43 -44 0 -9 14 -13
43 -13 40 0 44 -3 57 -35 12 -30 18 -35 47 -35 33 0 33 0 30 57 -2 38 -8 58
-18 61 -8 3 -25 13 -38 23 -13 11 -26 19 -30 18z"/>
</g>
</svg>
