<?xml version="1.0" standalone="no"?>
<!DOCTYPE svg PUBLIC "-//W3C//DTD SVG 20010904//EN"
 "http://www.w3.org/TR/2001/REC-SVG-20010904/DTD/svg10.dtd">
<svg version="1.0" xmlns="http://www.w3.org/2000/svg"
 width="128.000000pt" height="128.000000pt" viewBox="0 0 128.000000 128.000000"
 preserveAspectRatio="xMidYMid meet">
<metadata>
Created by potrace 1.16, written by Peter Selinger 2001-2019
</metadata>
<g transform="translate(0.000000,128.000000) scale(0.100000,-0.100000)"
fill="#000000" stroke="none">
<path d="M722 1260 c-9 -1 -32 -9 -50 -18 -33 -18 -33 -18 -12 -37 18 -17 20
-26 14 -70 -4 -29 -27 -91 -55 -147 -27 -54 -49 -105 -49 -113 0 -9 12 -20 26
-25 15 -6 38 -19 52 -30 13 -11 33 -20 43 -20 11 0 19 6 19 13 0 8 -9 22 -20
32 -11 10 -20 28 -20 40 0 12 16 53 36 91 20 38 45 78 55 90 14 15 19 36 19
81 0 46 -5 67 -21 87 -11 14 -28 26 -37 26z"/>
<path d="M746 730 c-6 0 -32 -21 -58 -45 -35 -34 -55 -45 -79 -45 -17 0 -46
-9 -64 -20 -17 -11 -39 -34 -49 -52 -15 -30 -16 -55 -9 -255 8 -210 10 -223
31 -250 12 -15 25 -36 29 -45 3 -12 16 -18 38 -18 18 0 44 9 58 20 14 11 42
55 62 97 20 42 39 90 42 107 3 17 13 42 21 56 9 14 15 33 14 42 -2 12 6 19 25
24 15 3 34 7 41 10 6 2 12 17 12 34 0 26 -3 30 -29 30 -16 0 -39 8 -52 19 -20
16 -21 21 -11 47 7 16 13 70 14 121 1 63 -2 96 -11 107 -8 9 -19 16 -25 16z
m-148 -210 c12 0 25 -7 29 -15 3 -9 -8 -42 -24 -73 -17 -31 -36 -57 -43 -57
-9 0 -14 20 -16 62 -3 51 -1 64 14 72 9 6 27 11 40 11z m12 -180 c48 0 61 -4
70 -19 5 -11 10 -28 10 -39 0 -11 -9 -31 -20 -45 -11 -14 -20 -32 -20 -40 0
-8 -14 -27 -32 -42 -28 -24 -33 -25 -46 -11 -9 8 -19 44 -24 78 -4 35 -5 75
-2 91 5 26 8 27 64 27z"/>
</g>
</svg>
