<?xml version="1.0" standalone="no"?>
<!DOCTYPE svg PUBLIC "-//W3C//DTD SVG 20010904//EN"
 "http://www.w3.org/TR/2001/REC-SVG-20010904/DTD/svg10.dtd">
<svg version="1.0" xmlns="http://www.w3.org/2000/svg"
 width="128.000000pt" height="128.000000pt" viewBox="0 0 128.000000 128.000000"
 preserveAspectRatio="xMidYMid meet">
<metadata>
Created by potrace 1.16, written by Peter Selinger 2001-2019
</metadata>
<g transform="translate(0.000000,128.000000) scale(0.100000,-0.100000)"
fill="#000000" stroke="none">
<path d="M605 1280 c-15 0 -25 -6 -25 -15 0 -7 6 -18 13 -22 7 -4 28 -30 46
-57 17 -27 31 -56 29 -64 -2 -10 -24 -23 -53 -32 -28 -8 -56 -19 -62 -23 -7
-5 -35 -8 -62 -9 -27 0 -65 6 -85 13 -27 10 -39 10 -47 2 -7 -7 -9 -18 -6 -26
3 -8 23 -17 44 -20 21 -4 64 -7 96 -7 38 0 73 7 103 22 34 16 51 19 63 11 9
-5 17 -20 19 -32 2 -11 12 -26 23 -32 11 -6 33 -7 50 -4 20 5 29 3 30 -7 1 -7
1 -21 0 -30 -1 -10 4 -18 13 -18 9 0 16 -8 16 -17 0 -13 -3 -14 -11 -6 -9 9
-19 8 -40 -3 -16 -8 -29 -18 -29 -23 0 -4 8 -15 18 -24 10 -10 23 -17 29 -17
6 0 9 9 6 20 -4 17 0 20 23 20 23 0 34 8 54 41 14 22 24 48 22 57 -1 9 -8 27
-15 40 -10 21 -17 23 -57 19 -25 -2 -54 -8 -66 -11 -19 -7 -21 -4 -18 31 2 21
3 40 3 43 1 3 14 13 30 23 16 9 40 17 53 17 12 0 35 6 49 14 14 7 41 16 60 19
19 4 41 3 49 -3 9 -6 23 -3 42 8 15 9 28 22 28 28 0 6 -6 16 -13 22 -7 6 -39
11 -72 12 -33 1 -76 -5 -95 -12 -19 -7 -51 -25 -71 -40 -20 -16 -43 -28 -52
-28 -11 0 -17 8 -17 21 0 11 -13 34 -29 50 -16 16 -37 29 -45 29 -9 0 -16 5
-16 10 0 6 -11 10 -25 10z"/>
<path d="M645 994 c-17 4 -34 4 -38 0 -4 -4 -7 -16 -7 -26 0 -13 7 -18 26 -18
14 0 34 -5 44 -10 15 -8 21 -6 30 9 8 16 7 22 -7 29 -10 5 -32 13 -48 16z"/>
<path d="M400 980 c-5 0 -11 -4 -15 -9 -3 -6 2 -16 10 -23 9 -7 22 -19 30 -25
7 -7 17 -38 20 -68 4 -30 11 -58 16 -61 5 -3 9 -18 9 -35 0 -17 5 -29 13 -29
7 0 13 -12 12 -27 0 -18 5 -28 15 -28 9 0 16 11 18 27 2 14 9 32 17 38 7 6 48
13 92 16 43 3 87 5 98 4 11 0 34 -2 50 -3 25 -2 31 2 33 23 2 14 8 30 13 37 6
7 6 13 0 17 -5 3 -16 3 -25 0 -9 -3 -16 -9 -16 -13 0 -3 -26 -6 -57 -6 -53 0
-58 2 -63 25 -3 14 -14 26 -23 28 -13 3 -17 -4 -17 -32 0 -33 -3 -36 -41 -46
-23 -6 -45 -8 -50 -3 -4 4 -11 20 -14 35 -6 23 -3 28 17 32 12 3 36 7 52 8 16
2 31 9 34 17 3 10 -8 12 -54 10 -54 -4 -59 -2 -59 16 0 13 8 21 23 23 13 2 26
10 29 18 3 9 1 20 -4 25 -7 7 -23 4 -47 -7 -34 -17 -38 -17 -71 -1 -20 9 -40
17 -45 17z"/>
<path d="M633 720 c-5 0 -14 -4 -21 -9 -8 -4 -13 -17 -12 -27 1 -11 2 -28 1
-39 -1 -11 -5 -26 -10 -34 -7 -10 -37 -14 -127 -14 -66 0 -127 -4 -138 -9 -12
-7 -22 -6 -29 1 -6 6 -25 11 -43 11 -17 0 -37 -7 -44 -16 -11 -13 -10 -19 7
-36 14 -14 39 -22 72 -26 35 -3 58 0 73 10 13 9 41 18 63 22 22 4 55 9 73 12
21 4 40 1 56 -9 13 -9 26 -28 29 -44 3 -15 2 -32 -2 -38 -4 -5 -13 -32 -19
-60 -7 -27 -11 -89 -10 -136 2 -62 -1 -91 -11 -103 -8 -9 -14 -39 -14 -70 0
-29 3 -58 7 -65 4 -6 18 -11 32 -11 15 0 24 -6 24 -15 0 -8 6 -15 13 -15 6 0
17 12 24 26 9 19 9 32 2 46 -7 13 -8 75 -3 186 4 92 7 171 6 175 -1 5 3 37 9
72 6 37 17 66 25 69 8 3 14 12 14 20 0 7 -7 17 -16 20 -11 4 -14 13 -10 30 3
14 2 36 -4 50 -5 14 -13 26 -17 26z"/>
<path d="M950 638 c-58 1 -112 -3 -120 -8 -8 -5 -36 -10 -62 -10 -25 0 -53 -3
-62 -6 -9 -3 -16 -13 -16 -21 0 -10 6 -13 16 -9 9 3 20 4 24 1 5 -3 70 -7 144
-10 81 -3 138 0 141 5 3 6 19 10 36 10 18 0 29 5 29 14 0 7 -6 18 -12 23 -7 6
-60 11 -118 11z"/>
</g>
</svg>
