<?xml version="1.0" standalone="no"?>
<!DOCTYPE svg PUBLIC "-//W3C//DTD SVG 20010904//EN"
 "http://www.w3.org/TR/2001/REC-SVG-20010904/DTD/svg10.dtd">
<svg version="1.0" xmlns="http://www.w3.org/2000/svg"
 width="128.000000pt" height="128.000000pt" viewBox="0 0 128.000000 128.000000"
 preserveAspectRatio="xMidYMid meet">
<metadata>
Created by potrace 1.16, written by Peter Selinger 2001-2019
</metadata>
<g transform="translate(0.000000,128.000000) scale(0.100000,-0.100000)"
fill="#000000" stroke="none">
<path d="M21 1280 c-12 0 -21 -6 -21 -16 0 -9 7 -14 17 -12 9 2 18 9 21 16 2
7 -5 12 -17 12z"/>
<path d="M760 1280 c-25 0 -50 -4 -55 -9 -6 -5 -21 -11 -35 -13 -14 -1 -24 -7
-23 -13 1 -5 17 -13 35 -16 18 -3 59 -18 91 -32 45 -21 57 -31 57 -49 0 -13 5
-66 11 -118 6 -52 13 -117 16 -145 3 -27 5 -238 4 -467 -2 -415 -2 -418 19
-418 11 0 29 9 40 20 11 11 20 28 20 38 0 9 9 28 20 42 11 14 20 37 20 51 0
14 -6 48 -14 75 -11 36 -15 109 -14 284 0 129 2 238 4 242 3 4 26 -2 52 -13
26 -11 60 -32 76 -47 16 -15 47 -56 71 -92 23 -36 49 -71 58 -79 9 -7 24 -10
33 -7 14 5 15 15 10 57 -4 28 -16 75 -27 105 -11 30 -32 68 -46 84 -15 19 -34
30 -50 30 -14 0 -37 7 -52 16 -26 15 -31 15 -74 -4 -39 -17 -48 -18 -58 -6 -9
10 -8 37 1 112 7 54 11 135 8 181 -4 77 -7 84 -39 117 -19 20 -52 44 -73 55
-22 10 -61 19 -86 19z"/>
<path d="M240 1140 c-11 0 -23 -7 -26 -15 -4 -8 -4 -21 -1 -29 3 -8 22 -22 42
-32 20 -9 40 -24 45 -33 5 -10 5 -32 1 -52 -5 -19 -32 -86 -60 -149 -29 -63
-61 -124 -72 -136 -10 -11 -19 -33 -19 -48 0 -15 5 -36 10 -47 6 -10 17 -19
26 -19 8 0 32 9 53 20 35 17 40 18 52 4 7 -8 28 -22 48 -30 20 -8 46 -25 58
-36 13 -12 23 -26 23 -31 0 -6 -36 -44 -79 -86 -44 -42 -101 -93 -126 -113
-26 -21 -50 -38 -54 -38 -5 0 -13 6 -18 13 -6 6 -13 32 -17 56 -4 24 -11 52
-17 62 -5 11 -16 19 -23 19 -8 0 -19 -15 -25 -32 -7 -18 -17 -73 -23 -123 -11
-90 -11 -90 17 -132 16 -24 32 -43 37 -43 4 0 14 10 22 22 8 13 40 41 71 63
31 22 91 66 133 97 43 31 99 82 125 112 27 31 55 56 62 56 8 0 29 -9 47 -20
18 -11 42 -20 54 -20 15 0 24 9 31 33 6 21 6 40 0 55 -5 12 -18 24 -28 27 -11
4 -19 14 -19 23 0 10 7 28 17 41 9 13 27 45 41 70 13 25 28 66 34 91 5 25 11
59 14 75 5 24 -1 39 -28 72 -18 23 -48 54 -67 68 -20 14 -48 25 -65 25 -17 0
-44 -7 -60 -15 -15 -8 -36 -15 -46 -15 -13 0 -19 11 -24 43 -4 23 -13 52 -21
63 -8 12 -39 35 -69 53 -31 17 -65 31 -76 31z m267 -250 c6 0 19 -3 28 -6 8
-4 22 -19 30 -34 8 -16 15 -41 16 -57 1 -15 -1 -44 -6 -63 -4 -19 -16 -53 -28
-75 -11 -22 -25 -43 -31 -47 -6 -4 -15 -2 -21 6 -5 7 -19 18 -30 24 -12 6 -49
14 -84 18 -36 4 -65 12 -68 19 -2 7 3 26 12 42 9 15 26 42 38 59 13 17 39 45
58 61 19 16 43 35 54 41 11 6 25 12 32 12z"/>
</g>
</svg>
