<?xml version="1.0" standalone="no"?>
<!DOCTYPE svg PUBLIC "-//W3C//DTD SVG 20010904//EN"
 "http://www.w3.org/TR/2001/REC-SVG-20010904/DTD/svg10.dtd">
<svg version="1.0" xmlns="http://www.w3.org/2000/svg"
 width="128.000000pt" height="128.000000pt" viewBox="0 0 128.000000 128.000000"
 preserveAspectRatio="xMidYMid meet">
<metadata>
Created by potrace 1.16, written by Peter Selinger 2001-2019
</metadata>
<g transform="translate(0.000000,128.000000) scale(0.100000,-0.100000)"
fill="#000000" stroke="none">
<path d="M685 1259 c-5 0 -26 -7 -45 -16 -19 -8 -41 -20 -48 -25 -9 -8 -9 -14
-1 -24 6 -8 25 -14 42 -14 16 0 48 -5 71 -12 22 -6 47 -16 54 -21 7 -6 12 -17
11 -26 -2 -9 1 -77 5 -151 4 -74 9 -171 12 -215 3 -44 6 -87 5 -95 0 -8 0
-147 0 -309 0 -243 2 -298 15 -323 11 -21 21 -28 37 -26 14 2 29 17 41 41 14
30 18 59 17 128 -1 50 -5 100 -9 112 -5 12 -9 92 -10 177 -1 85 -7 192 -14
236 -6 45 -8 89 -5 98 4 9 13 16 22 16 9 0 40 -18 69 -39 29 -22 70 -63 91
-91 20 -28 42 -49 49 -47 6 2 15 15 20 29 5 14 6 46 2 72 -6 41 -16 56 -63
102 -45 43 -63 54 -92 56 -20 1 -52 0 -72 -1 -26 -1 -38 3 -43 14 -3 9 -2 25
4 35 5 10 9 55 8 101 0 56 -7 97 -19 126 -10 23 -26 46 -37 52 -10 5 -39 17
-63 25 -24 9 -48 15 -54 15z"/>
<path d="M404 1224 c-14 4 -27 0 -39 -14 -15 -16 -15 -22 -5 -35 7 -8 24 -21
39 -28 23 -11 26 -18 23 -55 -2 -23 -16 -66 -32 -96 -16 -30 -39 -65 -52 -79
-13 -14 -34 -44 -48 -68 -14 -23 -36 -54 -50 -68 -14 -14 -31 -45 -38 -69 -7
-23 -10 -47 -7 -52 3 -6 23 -10 44 -10 26 0 44 7 58 23 11 12 26 33 33 47 8
14 35 45 62 68 26 24 63 54 81 67 19 12 44 24 58 27 13 3 32 9 41 12 12 5 22
0 34 -19 13 -20 14 -29 5 -38 -6 -6 -11 -25 -11 -43 0 -17 -6 -37 -13 -43 -8
-6 -20 -29 -27 -52 -8 -23 -20 -43 -27 -46 -7 -3 -28 4 -46 16 -19 12 -50 21
-69 21 -20 0 -41 -7 -48 -15 -11 -13 -9 -20 9 -39 12 -13 38 -32 57 -42 19
-10 36 -26 39 -35 3 -9 -6 -37 -21 -62 -14 -26 -29 -47 -32 -47 -4 0 -13 -12
-19 -27 -7 -16 -46 -61 -86 -102 -51 -50 -85 -75 -107 -80 -18 -3 -38 -14 -43
-23 -8 -12 -7 -21 3 -33 9 -11 24 -15 44 -12 17 2 56 14 86 25 52 19 59 26
133 132 42 61 77 118 77 126 0 7 4 14 9 14 6 0 16 12 23 28 12 25 18 27 68 27
55 0 55 0 53 39 -2 22 -10 48 -20 58 -15 17 -15 21 5 56 11 21 26 60 32 87 9
39 8 59 -1 90 -7 22 -24 55 -37 73 -14 18 -38 42 -54 54 -29 20 -29 20 -74 -2
-24 -13 -47 -20 -50 -17 -4 3 1 22 10 41 9 19 19 48 22 65 4 17 1 44 -6 61 -7
16 -16 30 -21 30 -5 0 -9 6 -9 13 0 8 -8 21 -17 29 -10 9 -27 18 -39 22z"/>
</g>
</svg>
