<?xml version="1.0" standalone="no"?>
<!DOCTYPE svg PUBLIC "-//W3C//DTD SVG 20010904//EN"
 "http://www.w3.org/TR/2001/REC-SVG-20010904/DTD/svg10.dtd">
<svg version="1.0" xmlns="http://www.w3.org/2000/svg"
 width="128.000000pt" height="128.000000pt" viewBox="0 0 128.000000 128.000000"
 preserveAspectRatio="xMidYMid meet">
<metadata>
Created by potrace 1.16, written by Peter Selinger 2001-2019
</metadata>
<g transform="translate(0.000000,128.000000) scale(0.100000,-0.100000)"
fill="#000000" stroke="none">
<path d="M880 1280 c-44 0 -80 -4 -80 -8 0 -5 8 -16 18 -24 9 -9 27 -21 39
-27 19 -10 29 -7 63 15 22 15 40 31 40 35 0 5 -36 9 -80 9z"/>
<path d="M515 1260 c-11 0 -26 -5 -32 -11 -7 -7 -10 -30 -6 -58 5 -44 3 -48
-36 -85 -22 -22 -67 -54 -98 -70 -49 -27 -59 -37 -69 -72 -7 -22 -19 -54 -27
-71 -12 -23 -13 -33 -4 -42 6 -6 19 -11 29 -11 10 0 40 11 66 24 26 14 53 26
61 28 8 2 17 -9 22 -26 7 -24 3 -32 -24 -57 -18 -17 -56 -46 -85 -67 -34 -23
-59 -49 -68 -71 -12 -30 -13 -47 -3 -109 7 -40 19 -82 28 -92 9 -10 32 -21 51
-24 19 -3 40 -2 46 2 6 4 32 43 58 87 25 44 55 105 66 135 11 30 20 63 20 72
0 10 6 18 14 18 8 0 17 -7 20 -16 4 -10 1 -74 -6 -143 -8 -73 -12 -208 -10
-320 3 -119 9 -207 16 -229 7 -20 20 -40 29 -46 11 -7 24 -6 43 4 15 9 35 34
47 60 19 44 19 48 2 210 -9 91 -21 223 -26 295 -5 72 -6 165 -3 207 3 45 1 84
-5 96 -6 11 -24 25 -42 32 -25 11 -35 11 -51 1 -17 -10 -23 -9 -39 5 -10 9
-19 25 -19 35 0 10 15 30 34 46 18 15 44 50 56 77 16 36 21 62 17 93 -3 27
-14 54 -28 69 -12 13 -32 24 -44 24z m-145 -560 c11 0 20 -6 20 -14 0 -7 -9
-25 -21 -40 -11 -14 -29 -26 -40 -26 -12 0 -19 7 -19 18 0 10 9 28 20 40 12
12 30 22 40 22z"/>
<path d="M832 1080 c-10 0 -21 -3 -24 -6 -3 -3 10 -35 29 -72 32 -61 35 -72
29 -126 -5 -53 -3 -63 19 -92 14 -19 35 -38 45 -44 15 -8 29 -6 60 10 21 11
44 29 50 39 5 11 10 31 10 45 0 14 -16 47 -35 73 -19 27 -52 70 -72 96 -21 26
-50 55 -65 63 -15 7 -35 14 -46 14z"/>
</g>
</svg>
