<?xml version="1.0" standalone="no"?>
<!DOCTYPE svg PUBLIC "-//W3C//DTD SVG 20010904//EN"
 "http://www.w3.org/TR/2001/REC-SVG-20010904/DTD/svg10.dtd">
<svg version="1.0" xmlns="http://www.w3.org/2000/svg"
 width="128.000000pt" height="128.000000pt" viewBox="0 0 128.000000 128.000000"
 preserveAspectRatio="xMidYMid meet">
<metadata>
Created by potrace 1.16, written by Peter Selinger 2001-2019
</metadata>
<g transform="translate(0.000000,128.000000) scale(0.100000,-0.100000)"
fill="#000000" stroke="none">
<path d="M297 1218 c-24 3 -30 -2 -46 -40 -12 -27 -19 -67 -19 -109 0 -54 4
-71 23 -95 21 -27 24 -28 49 -14 19 10 31 28 41 65 14 46 14 55 0 83 -9 17
-17 48 -18 69 -3 33 -6 38 -30 41z"/>
<path d="M684 1200 c-16 0 -36 -12 -55 -32 -16 -18 -29 -38 -29 -44 0 -6 9
-23 20 -37 11 -14 20 -33 20 -41 0 -9 -19 -34 -41 -56 -23 -22 -56 -44 -73
-50 -17 -5 -46 -19 -63 -30 -18 -11 -33 -26 -33 -34 0 -7 10 -25 21 -40 14
-17 29 -26 42 -24 15 2 23 13 28 35 3 18 17 42 30 53 13 11 33 19 44 17 16 -1
19 -8 17 -31 -2 -16 -10 -39 -18 -52 -9 -13 -13 -28 -9 -34 3 -5 16 -10 29
-10 13 0 30 8 39 18 10 10 17 25 17 33 0 8 7 33 15 57 8 23 13 53 10 65 -4 15
0 29 12 39 11 10 41 17 78 20 60 3 60 3 58 -66 -2 -37 -7 -73 -12 -80 -5 -6
-12 -32 -16 -58 -4 -27 -11 -48 -16 -48 -5 0 -22 -19 -39 -41 -29 -41 -31 -42
-92 -43 -35 -1 -72 -7 -83 -14 -11 -6 -62 -31 -112 -54 -51 -24 -91 -47 -89
-53 2 -6 35 -9 82 -7 43 2 91 10 106 18 16 8 33 12 38 9 6 -3 10 -13 10 -22 0
-9 -20 -49 -45 -89 -43 -69 -46 -77 -51 -166 -3 -51 -2 -117 3 -147 4 -30 15
-58 23 -64 11 -6 27 -4 55 9 32 16 41 28 57 74 10 30 19 71 20 91 0 21 -8 51
-18 68 -10 17 -21 31 -25 31 -4 0 -9 6 -12 14 -3 8 1 35 9 62 8 26 14 62 14
80 0 18 9 51 21 73 11 22 27 45 35 51 7 7 24 10 36 7 11 -3 30 -1 40 4 11 6
45 17 76 25 31 8 80 15 107 16 28 0 76 9 107 20 32 10 63 16 69 13 5 -4 27 5
48 19 21 15 43 38 50 52 6 14 11 34 11 44 0 14 -11 22 -37 29 -21 6 -48 11
-61 11 -13 0 -44 -12 -70 -27 -26 -14 -56 -34 -67 -44 -11 -10 -49 -34 -83
-53 -35 -20 -68 -36 -73 -36 -5 0 -9 7 -9 16 0 9 12 31 28 49 15 17 40 54 57
81 16 27 35 64 42 83 12 32 11 38 -18 87 -18 29 -43 57 -56 63 -15 7 -31 7
-48 1 -14 -5 -39 -19 -55 -31 -24 -18 -32 -20 -45 -9 -8 7 -15 28 -15 49 0 20
-7 47 -16 59 -9 13 -26 22 -40 22z"/>
<path d="M384 809 c-5 5 -15 6 -21 4 -7 -3 -13 -10 -13 -16 0 -7 -9 -27 -20
-45 -20 -33 -20 -33 -63 -3 -39 28 -45 30 -87 20 -25 -6 -54 -18 -65 -29 -11
-10 -33 -21 -50 -24 -18 -4 -35 -16 -41 -31 -10 -20 -9 -27 7 -41 13 -12 28
-15 52 -10 18 3 49 17 67 31 24 17 37 22 44 15 6 -6 10 -32 10 -58 -1 -26 -2
-67 -4 -92 -1 -25 -11 -62 -21 -82 -12 -23 -17 -47 -13 -62 3 -14 -2 -36 -15
-57 -16 -26 -21 -51 -21 -110 0 -63 3 -79 20 -94 18 -16 21 -17 44 -1 16 10
23 22 20 31 -4 8 1 36 9 62 9 27 21 68 27 93 6 25 18 65 26 90 8 25 14 68 14
96 0 40 4 55 20 65 11 8 27 38 36 69 8 30 22 81 31 113 9 34 12 62 7 66z"/>
<path d="M1050 670 c-8 -1 -27 -8 -42 -16 -16 -8 -28 -19 -28 -25 0 -5 -12
-14 -26 -19 -14 -6 -53 -26 -86 -45 -32 -19 -77 -38 -99 -41 -22 -4 -42 -11
-45 -16 -3 -5 0 -15 6 -23 10 -12 27 -14 83 -8 39 3 82 12 96 20 15 7 36 13
49 13 17 0 22 -6 22 -24 0 -14 -7 -31 -15 -40 -8 -8 -47 -38 -85 -67 -50 -37
-73 -61 -79 -83 -5 -20 -3 -47 5 -75 7 -24 25 -57 40 -72 15 -16 46 -38 69
-49 23 -11 49 -20 59 -20 10 0 34 17 52 37 19 20 34 43 34 49 0 7 -10 20 -22
28 -12 9 -35 16 -49 16 -15 0 -41 12 -59 26 -23 20 -29 32 -24 48 3 11 16 32
28 45 11 13 44 34 73 46 37 17 52 29 55 46 2 14 12 25 25 29 12 3 41 32 63 64
42 59 42 59 23 85 -11 14 -39 36 -63 49 -24 12 -51 22 -60 22z"/>
</g>
</svg>
