<?xml version="1.0" standalone="no"?>
<!DOCTYPE svg PUBLIC "-//W3C//DTD SVG 20010904//EN"
 "http://www.w3.org/TR/2001/REC-SVG-20010904/DTD/svg10.dtd">
<svg version="1.0" xmlns="http://www.w3.org/2000/svg"
 width="128.000000pt" height="128.000000pt" viewBox="0 0 128.000000 128.000000"
 preserveAspectRatio="xMidYMid meet">
<metadata>
Created by potrace 1.16, written by Peter Selinger 2001-2019
</metadata>
<g transform="translate(0.000000,128.000000) scale(0.100000,-0.100000)"
fill="#000000" stroke="none">
<path d="M798 1278 c-10 2 -18 -1 -18 -7 0 -6 -18 -11 -40 -11 -28 0 -43 -5
-47 -16 -3 -9 0 -20 8 -25 8 -5 31 -14 52 -20 34 -9 38 -13 32 -32 -3 -12 -10
-49 -15 -82 -5 -33 -14 -87 -20 -120 -7 -33 -18 -75 -26 -92 -10 -25 -20 -33
-38 -33 -14 0 -40 -15 -62 -35 -20 -19 -41 -35 -45 -35 -5 0 -9 -11 -9 -24 0
-17 -9 -29 -27 -38 -19 -9 -29 -22 -31 -42 -3 -27 -2 -29 28 -23 17 4 48 21
69 38 22 17 41 39 44 50 3 10 11 19 19 19 7 -1 25 -16 39 -36 18 -23 29 -53
34 -90 4 -36 3 -60 -4 -67 -6 -6 -11 -21 -11 -33 0 -15 -8 -24 -25 -28 -14 -4
-25 -13 -25 -22 0 -8 -8 -17 -17 -21 -10 -3 -31 -18 -48 -34 -16 -15 -46 -36
-65 -47 -28 -15 -35 -25 -35 -48 0 -27 -3 -29 -38 -30 -26 -1 -43 -7 -52 -22
-10 -13 -22 -18 -35 -15 -16 4 -20 0 -20 -20 0 -14 8 -28 18 -32 9 -5 25 -7
35 -6 10 2 27 -5 37 -14 10 -9 24 -14 29 -10 6 3 11 13 11 21 0 8 9 14 19 14
11 0 23 -4 26 -10 3 -5 8 -32 12 -58 3 -27 1 -57 -4 -66 -7 -14 -13 -9 -31 26
-22 43 -22 43 -22 7 0 -25 7 -42 25 -59 14 -13 25 -29 25 -37 0 -7 7 -13 15
-13 9 0 15 9 15 23 0 12 9 28 19 34 16 10 19 21 15 64 -3 38 -10 56 -24 66
-16 11 -18 18 -10 34 8 13 7 26 -1 42 -6 12 -18 30 -27 40 -9 10 -11 17 -4 17
6 0 23 -5 36 -12 22 -9 29 -8 46 7 11 10 32 20 47 22 16 3 42 5 60 4 23 -1 33
4 38 19 3 11 9 20 13 20 4 0 22 -13 41 -28 27 -23 34 -37 38 -76 5 -40 3 -49
-15 -62 -11 -7 -28 -33 -37 -56 -10 -26 -29 -51 -48 -63 -25 -16 -33 -28 -35
-58 -3 -37 -3 -37 57 -37 52 0 61 3 61 18 0 9 -10 22 -22 27 -13 6 -24 20 -26
33 -2 15 1 22 10 21 7 -1 25 3 41 9 15 7 27 19 27 30 0 10 6 26 14 37 12 17
13 17 20 -8 3 -15 13 -27 21 -27 8 0 22 11 30 24 12 18 14 37 9 80 -4 30 -13
61 -20 67 -8 6 -14 21 -14 34 0 12 -8 29 -18 38 -10 10 -28 17 -39 17 -12 0
-32 13 -46 29 -14 17 -27 48 -31 77 -3 26 -4 49 -2 51 2 3 16 -8 30 -24 26
-28 26 -28 71 19 25 25 51 48 58 51 9 3 9 7 0 17 -6 7 -24 12 -40 12 -18 0
-40 11 -61 31 -18 17 -37 48 -43 69 -6 24 -6 44 0 56 5 9 7 29 4 44 -4 22 1
30 33 52 21 14 43 26 48 26 5 0 19 11 32 25 20 21 30 25 57 20 24 -5 44 -1 68
13 28 15 35 25 37 57 2 21 -1 42 -7 48 -7 7 -16 5 -29 -6 -10 -9 -23 -17 -29
-17 -5 0 -18 9 -28 20 -10 11 -24 20 -32 20 -7 0 -21 4 -31 9 -9 5 -29 14 -44
20 -16 6 -28 18 -28 29 0 9 -8 29 -17 42 -10 14 -22 38 -28 55 -5 16 -18 31
-27 33z m81 -198 c13 0 27 -12 36 -31 9 -17 14 -37 11 -45 -3 -8 -11 -14 -17
-14 -7 0 -20 -7 -30 -16 -10 -9 -22 -13 -27 -10 -6 3 -8 25 -5 49 2 23 6 48 9
55 2 6 12 12 23 12z"/>
<path d="M312 1130 c-5 0 -16 -6 -25 -12 -12 -10 -17 -30 -18 -76 -1 -36 3
-68 10 -75 6 -6 11 -18 11 -27 0 -9 -11 -27 -25 -40 -17 -16 -25 -34 -25 -56
0 -24 7 -38 28 -53 27 -21 27 -21 0 -42 -16 -11 -28 -28 -28 -37 0 -10 -9 -23
-20 -30 -13 -8 -20 -23 -20 -45 0 -17 4 -38 9 -46 6 -10 3 -23 -11 -42 -16
-21 -19 -36 -14 -66 4 -21 10 -57 14 -79 5 -29 17 -49 41 -69 25 -22 37 -26
49 -18 9 5 25 25 35 44 10 19 32 48 48 65 17 17 33 44 38 60 4 17 19 34 35 42
15 8 31 24 36 36 5 13 16 26 26 30 11 4 14 10 8 16 -7 7 -25 3 -52 -10 -22
-11 -50 -20 -60 -20 -11 0 -25 -7 -32 -15 -7 -8 -20 -15 -30 -15 -10 0 -21 7
-24 16 -4 9 1 50 9 91 9 42 13 84 10 94 -3 10 -1 36 5 59 9 33 15 40 36 40 15
0 43 15 66 35 23 19 64 41 93 49 28 9 59 24 68 34 9 10 17 24 17 31 0 7 -13
17 -30 22 -16 6 -30 15 -30 20 0 5 -8 9 -18 9 -10 0 -49 -20 -87 -45 -38 -25
-75 -43 -83 -40 -10 4 -13 14 -8 35 3 17 3 43 0 59 -4 16 -15 39 -26 50 -10
12 -22 21 -26 21z m-43 -682 c9 -2 17 -11 19 -21 2 -11 -3 -17 -16 -17 -10 0
-21 3 -25 6 -3 3 -3 12 0 20 3 8 13 14 22 12z"/>
<path d="M1029 744 c-29 5 -39 2 -59 -19 -18 -19 -27 -22 -42 -14 -14 7 -23 7
-34 -2 -8 -6 -14 -17 -14 -25 0 -7 8 -18 19 -23 10 -6 35 -7 56 -4 37 6 38 6
31 -21 -5 -20 -3 -27 6 -24 7 3 15 15 18 29 4 17 15 25 35 29 22 4 31 12 33
29 2 13 0 27 -5 31 -4 4 -24 10 -44 14z"/>
<path d="M413 162 c-9 20 -10 20 -17 3 -3 -10 -2 -23 4 -29 5 -5 13 -7 16 -3
4 4 3 17 -3 29z"/>
<path d="M640 20 c-11 0 -20 -4 -20 -10 0 -5 9 -10 20 -10 11 0 20 5 20 10 0
6 -9 10 -20 10z"/>
</g>
</svg>
