<?xml version="1.0" standalone="no"?>
<!DOCTYPE svg PUBLIC "-//W3C//DTD SVG 20010904//EN"
 "http://www.w3.org/TR/2001/REC-SVG-20010904/DTD/svg10.dtd">
<svg version="1.0" xmlns="http://www.w3.org/2000/svg"
 width="128.000000pt" height="128.000000pt" viewBox="0 0 128.000000 128.000000"
 preserveAspectRatio="xMidYMid meet">
<metadata>
Created by potrace 1.16, written by Peter Selinger 2001-2019
</metadata>
<g transform="translate(0.000000,128.000000) scale(0.100000,-0.100000)"
fill="#000000" stroke="none">
<path d="M420 1260 c-5 0 -16 -7 -24 -16 -9 -8 -16 -32 -17 -52 0 -20 -2 -50
-3 -66 -1 -19 -13 -38 -35 -56 -21 -18 -50 -30 -81 -34 -26 -4 -53 -13 -59
-20 -9 -11 -7 -18 11 -30 12 -9 37 -16 55 -16 23 0 36 -6 44 -21 6 -12 9 -38
6 -58 -3 -20 -12 -65 -21 -101 -9 -36 -19 -83 -22 -105 -3 -22 -15 -61 -26
-87 -20 -45 -20 -49 -4 -67 10 -10 33 -22 53 -26 28 -5 43 -1 75 20 21 14 56
42 78 61 31 28 46 35 72 32 31 -3 33 -6 38 -48 3 -25 9 -50 12 -56 4 -6 2 -25
-5 -43 -9 -23 -9 -38 0 -61 9 -24 9 -38 -2 -64 -8 -18 -17 -57 -20 -87 -4 -30
-13 -88 -21 -130 -11 -54 -12 -83 -5 -102 7 -19 18 -27 34 -27 13 0 36 14 54
33 17 17 36 42 42 54 6 12 12 53 12 92 1 38 -1 73 -4 78 -2 4 -1 96 3 203 4
112 3 203 -2 213 -6 12 -5 28 4 47 8 20 20 30 34 30 12 0 33 9 48 21 14 11 31
29 36 39 5 10 7 26 4 34 -3 9 -16 16 -29 16 -12 0 -32 -8 -43 -19 -14 -11 -31
-16 -46 -14 -23 5 -24 8 -20 57 3 28 0 58 -6 66 -9 13 -15 10 -40 -19 -27 -32
-28 -37 -23 -102 6 -68 6 -68 -43 -98 -26 -17 -53 -31 -60 -31 -6 0 -26 -15
-45 -34 -25 -26 -37 -32 -46 -24 -7 6 -13 26 -13 45 0 19 5 44 12 56 6 12 12
54 13 94 0 58 4 75 19 86 11 8 17 22 14 38 -2 18 5 29 30 47 18 12 43 22 56
22 13 0 34 8 46 18 18 15 22 24 16 47 -7 27 -9 27 -55 22 -49 -6 -49 -6 -56
41 -4 26 -13 59 -21 74 -8 16 -19 28 -24 28z"/>
<path d="M955 950 c-8 0 -17 -5 -21 -11 -3 -6 -2 -21 4 -32 6 -12 20 -43 32
-69 12 -26 30 -50 40 -53 11 -3 28 -1 40 5 13 7 20 21 20 41 0 19 -6 32 -17
36 -10 4 -33 24 -51 45 -19 21 -40 38 -47 38z"/>
</g>
</svg>
