<?xml version="1.0" standalone="no"?>
<!DOCTYPE svg PUBLIC "-//W3C//DTD SVG 20010904//EN"
 "http://www.w3.org/TR/2001/REC-SVG-20010904/DTD/svg10.dtd">
<svg version="1.0" xmlns="http://www.w3.org/2000/svg"
 width="128.000000pt" height="128.000000pt" viewBox="0 0 128.000000 128.000000"
 preserveAspectRatio="xMidYMid meet">
<metadata>
Created by potrace 1.16, written by Peter Selinger 2001-2019
</metadata>
<g transform="translate(0.000000,128.000000) scale(0.100000,-0.100000)"
fill="#000000" stroke="none">
<path d="M528 1260 c-1 -1 -15 -8 -30 -16 -16 -8 -28 -23 -28 -34 0 -10 9 -22
20 -25 11 -3 23 -17 26 -31 3 -13 4 -35 0 -47 -3 -15 -28 -38 -66 -61 -34 -21
-66 -46 -73 -57 -6 -10 -23 -19 -36 -19 -25 0 -25 0 -3 20 12 12 22 27 22 34
0 7 9 32 21 55 11 24 18 49 15 57 -4 12 -10 12 -26 4 -11 -6 -20 -16 -20 -24
0 -7 -16 -31 -35 -53 -19 -23 -35 -48 -35 -56 0 -9 5 -19 11 -23 6 -3 8 -15 6
-26 -4 -13 2 -22 18 -30 19 -8 29 -7 48 5 13 8 41 20 62 26 28 7 41 7 46 0 3
-6 3 -23 -1 -38 -5 -14 -14 -46 -20 -71 -6 -25 -17 -66 -23 -91 -7 -25 -17
-52 -23 -60 -6 -8 -19 -36 -28 -64 -10 -27 -32 -78 -48 -113 -16 -34 -34 -62
-39 -62 -4 0 -27 -25 -50 -57 -23 -31 -48 -75 -55 -99 -10 -35 -10 -52 -1 -86
10 -33 18 -44 37 -46 13 -2 40 6 61 17 20 12 70 55 110 96 40 41 78 75 84 75
6 0 28 16 48 36 24 25 42 34 53 30 13 -5 15 -14 10 -44 -3 -20 -9 -104 -12
-187 -6 -143 -5 -151 14 -169 12 -10 28 -16 37 -12 8 3 19 16 24 30 5 13 11
104 12 202 1 99 6 193 11 209 4 18 22 39 43 53 19 12 43 22 54 22 10 0 24 7
31 15 7 8 10 21 7 29 -3 8 -31 27 -61 41 -40 19 -56 32 -56 46 0 11 -7 33 -15
48 -8 16 -27 34 -43 40 -25 10 -34 9 -63 -7 -19 -10 -35 -26 -37 -36 -2 -9 10
-32 27 -52 17 -19 31 -46 31 -60 0 -14 -7 -38 -15 -53 -8 -16 -52 -54 -99 -85
-46 -31 -91 -56 -99 -56 -9 0 -18 4 -21 8 -3 5 4 32 14 61 11 28 32 75 46 104
14 29 30 60 35 69 5 10 9 34 9 53 0 19 4 35 9 35 5 0 25 51 45 113 19 61 37
123 40 137 4 19 19 31 61 49 44 19 55 28 55 47 0 16 -9 28 -29 38 -16 9 -31
26 -35 38 -3 13 -6 35 -6 49 0 20 -8 31 -34 43 -19 9 -36 16 -38 16z"/>
<path d="M836 920 c-19 0 -26 -5 -26 -19 0 -11 14 -28 33 -40 17 -11 48 -41
68 -68 20 -26 46 -67 58 -90 11 -23 21 -49 21 -58 0 -9 10 -19 23 -24 12 -5
30 -5 39 0 10 5 25 23 33 39 8 16 15 47 15 69 0 33 -5 44 -27 58 -16 9 -50 37
-78 63 -29 28 -67 52 -91 58 -23 7 -53 12 -68 12z"/>
</g>
</svg>
