<?xml version="1.0" standalone="no"?>
<!DOCTYPE svg PUBLIC "-//W3C//DTD SVG 20010904//EN"
 "http://www.w3.org/TR/2001/REC-SVG-20010904/DTD/svg10.dtd">
<svg version="1.0" xmlns="http://www.w3.org/2000/svg"
 width="128.000000pt" height="128.000000pt" viewBox="0 0 128.000000 128.000000"
 preserveAspectRatio="xMidYMid meet">
<metadata>
Created by potrace 1.16, written by Peter Selinger 2001-2019
</metadata>
<g transform="translate(0.000000,128.000000) scale(0.100000,-0.100000)"
fill="#000000" stroke="none">
<path d="M441 1260 c-16 0 -34 -7 -41 -15 -11 -13 -9 -20 13 -43 20 -21 27
-40 29 -77 3 -49 3 -50 -29 -53 -22 -2 -37 3 -53 20 -12 13 -29 38 -36 56 -13
28 -17 31 -34 22 -15 -8 -20 -21 -20 -54 0 -32 6 -48 23 -64 16 -15 36 -22 63
-22 22 0 49 -6 59 -14 18 -13 19 -18 7 -60 -6 -26 -12 -55 -12 -67 0 -11 -13
-60 -30 -109 -16 -49 -30 -99 -30 -112 0 -13 -7 -52 -16 -88 -8 -36 -19 -87
-25 -115 -5 -27 -12 -64 -15 -81 -4 -23 -2 -33 10 -37 9 -4 37 3 63 14 27 11
57 28 68 38 11 10 32 21 46 25 17 4 29 1 31 -7 3 -6 1 -50 -3 -97 -4 -47 -10
-126 -13 -176 -5 -62 -3 -100 5 -118 7 -14 20 -26 29 -26 10 0 22 6 27 13 6 6
16 33 23 59 7 26 10 55 6 63 -3 9 -2 24 3 34 5 9 12 66 16 126 4 61 6 133 6
161 -2 51 -2 51 39 64 25 8 56 30 78 55 20 23 45 44 55 48 9 3 24 22 33 41 9
19 14 41 11 50 -3 8 -19 19 -34 22 -15 4 -52 18 -81 31 -49 21 -55 28 -82 88
-25 56 -33 65 -55 65 -17 0 -29 -8 -37 -25 -8 -19 -8 -31 0 -50 7 -14 12 -45
12 -68 0 -24 5 -48 11 -54 9 -9 9 -19 1 -40 -6 -15 -13 -53 -17 -83 -3 -30 -9
-60 -13 -66 -4 -6 -22 -18 -41 -27 -19 -9 -42 -17 -52 -17 -9 0 -19 6 -21 12
-3 7 -1 24 3 38 4 14 13 59 20 100 6 41 13 93 14 115 2 22 14 91 26 153 23
114 23 114 85 143 34 16 74 39 88 50 14 11 26 29 26 39 0 10 -10 26 -22 34
-12 9 -28 16 -36 16 -7 0 -30 -11 -50 -25 -20 -14 -45 -25 -54 -25 -13 0 -18
8 -18 30 0 17 -7 44 -15 60 -12 23 -23 30 -44 30z m197 -530 c3 0 16 -10 29
-22 13 -12 23 -28 23 -37 0 -8 -14 -30 -32 -48 -18 -18 -41 -33 -51 -33 -16 0
-18 4 -12 23 4 12 9 38 12 57 3 19 10 41 15 48 6 6 13 12 16 12z"/>
<path d="M820 1165 c-8 2 -25 0 -37 -5 -13 -5 -23 -14 -23 -20 0 -5 29 -29 64
-52 43 -29 70 -55 81 -78 9 -19 25 -52 36 -72 12 -23 28 -38 39 -38 10 0 21 7
24 16 3 9 6 33 6 55 0 22 -6 55 -14 74 -8 18 -25 39 -38 46 -12 7 -28 19 -34
27 -6 8 -28 21 -50 29 -21 8 -46 16 -54 18z"/>
<path d="M376 73 c-8 3 -17 3 -20 0 -3 -4 -6 -15 -6 -25 0 -13 6 -18 17 -16
10 2 19 10 21 19 2 9 -4 19 -12 22z"/>
</g>
</svg>
