<?xml version="1.0" standalone="no"?>
<!DOCTYPE svg PUBLIC "-//W3C//DTD SVG 20010904//EN"
 "http://www.w3.org/TR/2001/REC-SVG-20010904/DTD/svg10.dtd">
<svg version="1.0" xmlns="http://www.w3.org/2000/svg"
 width="128.000000pt" height="128.000000pt" viewBox="0 0 128.000000 128.000000"
 preserveAspectRatio="xMidYMid meet">
<metadata>
Created by potrace 1.16, written by Peter Selinger 2001-2019
</metadata>
<g transform="translate(0.000000,128.000000) scale(0.100000,-0.100000)"
fill="#000000" stroke="none">
<path d="M1030 1280 c-27 0 -40 -4 -40 -13 0 -8 11 -20 25 -27 20 -11 27 -11
40 0 8 7 15 19 15 26 0 10 -13 14 -40 14z"/>
<path d="M700 1254 c-25 2 -53 2 -62 -1 -10 -2 -18 -9 -18 -15 0 -5 13 -22 29
-38 16 -16 33 -49 40 -75 6 -26 9 -62 5 -81 -4 -24 -12 -34 -25 -34 -11 0 -19
5 -19 10 0 6 -13 10 -29 10 -17 0 -32 -4 -36 -10 -3 -5 -24 -7 -47 -5 -22 2
-50 13 -62 24 -12 12 -30 21 -39 21 -10 0 -20 -7 -23 -15 -4 -9 6 -33 20 -55
14 -22 33 -40 41 -40 8 0 15 -7 15 -15 0 -9 -11 -20 -24 -25 -13 -5 -27 -13
-30 -19 -4 -6 -30 -22 -59 -36 -29 -15 -73 -47 -99 -72 -30 -30 -50 -60 -58
-89 -7 -24 -9 -59 -6 -78 4 -20 22 -51 40 -71 27 -28 40 -35 60 -30 14 3 36 7
49 10 12 2 49 30 82 61 33 31 93 88 133 125 40 38 77 69 83 69 7 0 9 -11 6
-27 -2 -16 -10 -44 -17 -63 -7 -19 -32 -75 -56 -125 -24 -49 -52 -113 -63
-142 -11 -28 -29 -68 -41 -89 -11 -21 -20 -43 -20 -49 0 -5 -39 -53 -86 -105
-48 -52 -94 -108 -104 -124 -10 -16 -16 -35 -13 -42 3 -8 13 -14 22 -13 9 0
30 10 47 22 17 12 49 36 72 53 22 17 62 55 87 85 25 30 52 65 58 78 7 14 17
26 23 28 7 2 48 -32 91 -77 44 -44 84 -80 89 -80 6 0 22 12 35 27 14 16 31 47
37 69 7 23 12 57 12 75 0 19 -6 54 -13 78 -8 24 -21 49 -31 56 -14 11 -16 20
-9 47 5 18 5 62 2 98 -4 36 -10 85 -14 110 -6 36 -3 50 12 69 10 12 37 27 58
32 22 4 54 11 70 14 17 4 49 15 71 25 29 13 48 31 63 60 14 27 19 50 15 68 -3
15 -8 35 -11 45 -3 10 -25 27 -50 38 -44 19 -46 19 -86 0 -23 -10 -53 -30 -66
-45 -14 -14 -32 -26 -41 -26 -14 0 -19 13 -24 61 -3 34 -6 92 -6 129 0 50 -5
73 -17 88 -12 13 -34 23 -63 26z m242 -294 c15 0 29 -4 32 -9 3 -4 -8 -29 -25
-54 -18 -27 -49 -56 -76 -71 -25 -15 -56 -26 -69 -26 -17 0 -25 7 -30 24 -3
14 -4 32 -2 42 1 9 35 34 73 55 39 21 82 38 97 39z m-262 -13 c10 -1 16 -16
18 -43 3 -37 -1 -44 -35 -73 -21 -18 -69 -53 -108 -77 -38 -24 -73 -44 -78
-44 -5 0 -27 -14 -49 -31 -26 -21 -54 -33 -84 -37 -33 -3 -44 -1 -45 9 -1 8
-1 21 0 29 1 8 8 29 16 45 7 17 35 46 62 66 26 19 66 47 89 62 22 15 44 27 50
27 5 0 20 9 34 20 14 11 37 20 51 20 14 0 34 7 45 15 10 8 26 14 34 12z m10
-389 c12 -3 17 -26 22 -108 4 -58 4 -118 -1 -135 -5 -21 -14 -31 -30 -33 -13
-2 -36 2 -52 8 -16 7 -29 18 -29 24 0 6 16 64 37 129 28 87 42 117 53 115z"/>
</g>
</svg>
