<?xml version="1.0" standalone="no"?>
<!DOCTYPE svg PUBLIC "-//W3C//DTD SVG 20010904//EN"
 "http://www.w3.org/TR/2001/REC-SVG-20010904/DTD/svg10.dtd">
<svg version="1.0" xmlns="http://www.w3.org/2000/svg"
 width="128.000000pt" height="128.000000pt" viewBox="0 0 128.000000 128.000000"
 preserveAspectRatio="xMidYMid meet">
<metadata>
Created by potrace 1.16, written by Peter Selinger 2001-2019
</metadata>
<g transform="translate(0.000000,128.000000) scale(0.100000,-0.100000)"
fill="#000000" stroke="none">
<path d="M711 1250 c-38 0 -52 -6 -82 -33 -19 -17 -44 -38 -55 -44 -10 -7 -37
-24 -58 -39 -22 -14 -54 -28 -71 -31 -27 -4 -34 0 -56 34 -14 21 -28 46 -32
56 -3 9 -13 17 -21 17 -11 0 -14 -13 -11 -64 1 -35 10 -87 20 -115 12 -39 23
-53 41 -57 13 -3 34 -4 46 0 13 3 48 35 78 71 30 36 79 82 108 102 38 27 55
34 63 26 7 -7 9 -23 5 -40 -4 -16 -37 -56 -76 -93 -37 -36 -93 -84 -123 -108
-31 -24 -58 -54 -61 -68 -4 -14 -1 -37 6 -51 7 -15 18 -28 24 -30 7 -2 27 10
45 27 18 16 44 30 56 30 17 0 23 -6 23 -21 0 -12 -5 -40 -12 -62 -8 -26 -22
-46 -42 -58 -16 -10 -51 -23 -77 -29 -38 -9 -59 -24 -108 -74 -33 -35 -63 -75
-67 -90 -4 -15 -1 -89 5 -163 7 -75 14 -140 17 -145 3 -4 13 -8 23 -8 10 0 37
20 59 44 22 24 43 57 46 74 4 16 16 38 26 47 10 9 22 30 25 46 4 16 11 31 16
34 5 4 9 16 9 29 0 13 9 33 20 46 11 13 20 29 20 36 0 7 11 35 25 63 14 28 35
56 46 62 11 6 27 8 35 5 7 -3 11 -12 8 -21 -4 -8 1 -26 10 -40 9 -13 16 -38
16 -55 0 -17 -6 -46 -14 -64 -12 -29 -12 -40 -1 -72 7 -21 18 -40 24 -42 6 -2
27 9 46 25 19 15 47 38 63 50 16 12 40 25 54 28 17 4 29 1 39 -11 9 -11 14
-42 14 -93 0 -49 -5 -85 -15 -102 -8 -15 -25 -44 -37 -65 -11 -22 -48 -71 -82
-111 -38 -45 -58 -78 -55 -88 4 -10 11 -12 23 -6 9 5 23 21 30 35 8 14 29 32
48 41 18 9 40 26 48 39 9 13 33 42 54 64 22 23 54 70 71 106 29 58 32 71 26
120 -6 44 -14 61 -45 94 -21 22 -53 48 -70 57 -20 10 -50 15 -79 13 -47 -3
-47 -3 -47 58 0 38 -5 67 -14 78 -8 10 -31 25 -50 34 -36 17 -36 17 -36 87 0
39 -6 80 -13 93 -12 21 -11 28 12 61 14 20 26 41 26 46 0 4 7 15 15 24 8 9 27
31 41 49 18 22 27 46 28 71 0 21 -5 46 -13 55 -9 11 -29 16 -60 16z m-249
-670 c4 0 9 -4 12 -9 3 -4 0 -21 -7 -36 -7 -15 -28 -60 -48 -99 -26 -51 -41
-71 -55 -71 -16 0 -19 9 -22 56 -3 49 1 61 25 89 15 18 41 41 58 51 16 11 33
19 37 19z"/>
<path d="M593 160 c-4 0 -16 -7 -25 -14 -10 -7 -18 -23 -18 -35 0 -11 4 -21
10 -21 5 0 15 -20 21 -45 11 -45 11 -45 60 -45 34 0 49 4 49 13 0 7 -7 34 -16
60 -9 28 -27 55 -44 67 -15 11 -32 20 -37 20z"/>
</g>
</svg>
