<?xml version="1.0" standalone="no"?>
<!DOCTYPE svg PUBLIC "-//W3C//DTD SVG 20010904//EN"
 "http://www.w3.org/TR/2001/REC-SVG-20010904/DTD/svg10.dtd">
<svg version="1.0" xmlns="http://www.w3.org/2000/svg"
 width="128.000000pt" height="128.000000pt" viewBox="0 0 128.000000 128.000000"
 preserveAspectRatio="xMidYMid meet">
<metadata>
Created by potrace 1.16, written by Peter Selinger 2001-2019
</metadata>
<g transform="translate(0.000000,128.000000) scale(0.100000,-0.100000)"
fill="#000000" stroke="none">
<path d="M1021 1280 c-6 0 -11 -6 -11 -14 0 -8 -11 -28 -25 -44 -14 -16 -43
-37 -65 -46 -23 -9 -43 -23 -47 -32 -3 -8 -32 -28 -64 -44 -32 -17 -68 -30
-79 -30 -12 0 -33 -12 -48 -27 -14 -14 -40 -29 -57 -33 -23 -4 -33 -14 -41
-39 -7 -23 -21 -38 -42 -47 -18 -7 -32 -18 -32 -24 0 -6 -14 -28 -30 -49 -17
-21 -35 -54 -41 -74 -7 -27 -17 -39 -35 -43 -15 -4 -41 0 -63 11 -36 16 -41
16 -95 -1 -49 -15 -59 -16 -66 -4 -5 8 -4 22 2 34 6 12 38 61 70 110 42 64 55
93 48 100 -8 8 -15 6 -23 -5 -7 -9 -24 -19 -40 -23 -15 -3 -42 -21 -60 -39
-19 -17 -50 -66 -71 -108 -34 -68 -37 -80 -30 -127 6 -44 10 -53 30 -58 14 -4
53 -1 88 6 36 7 69 9 75 5 6 -3 11 -19 11 -36 0 -16 -20 -68 -45 -116 -25 -47
-51 -94 -59 -102 -7 -9 -19 -34 -26 -56 -8 -24 -31 -57 -58 -82 -37 -34 -45
-49 -49 -87 -5 -43 -4 -46 19 -46 13 0 41 9 63 20 39 20 39 20 78 -7 22 -15
47 -38 56 -51 9 -13 24 -32 34 -43 9 -10 30 -19 46 -19 21 0 40 10 61 32 17
18 33 44 37 57 3 13 -1 37 -9 55 -10 21 -12 40 -6 61 4 17 11 91 14 165 4 74
6 174 5 222 -2 85 -2 87 26 100 18 8 30 23 33 41 3 16 14 34 26 40 12 7 46 39
76 72 30 33 61 71 67 83 11 21 17 23 49 16 21 -4 50 -7 65 -6 20 1 45 18 85
57 31 31 69 63 84 71 15 8 33 26 40 41 8 17 23 29 37 31 22 3 23 1 18 -27 -4
-17 -24 -56 -46 -88 -22 -32 -43 -72 -47 -88 -4 -17 -24 -52 -45 -80 -21 -27
-44 -57 -51 -65 -8 -9 -20 -29 -26 -46 -7 -17 -23 -40 -35 -52 -12 -11 -32
-30 -44 -42 -14 -12 -23 -32 -23 -50 0 -19 7 -33 20 -40 11 -6 38 -8 62 -4 24
4 55 14 70 22 15 9 29 26 32 38 4 13 27 39 52 60 38 32 47 35 58 23 8 -8 18
-44 23 -80 7 -51 5 -87 -9 -165 -10 -54 -21 -109 -23 -120 -3 -12 -11 -24 -19
-27 -8 -3 -32 8 -55 24 -34 25 -46 29 -76 23 -20 -3 -45 -14 -57 -23 -14 -12
-19 -24 -14 -38 4 -12 22 -31 42 -44 19 -13 37 -34 40 -47 5 -16 -1 -28 -20
-43 -17 -13 -26 -30 -26 -48 0 -15 6 -35 13 -45 10 -14 31 -19 93 -22 43 -2
95 -8 114 -14 19 -5 60 -10 92 -10 31 0 63 3 72 6 9 3 16 16 16 29 0 13 -10
30 -25 39 -18 12 -56 17 -140 20 -73 3 -121 9 -131 17 -8 7 -19 20 -25 30 -7
14 -4 24 12 40 18 18 28 20 73 15 49 -6 52 -5 93 34 26 25 47 56 53 79 6 23 7
48 2 62 -6 16 -4 35 5 57 9 22 15 75 15 148 1 83 -2 117 -12 130 -8 9 -19 26
-25 38 -8 16 -20 21 -50 22 -37 0 -40 3 -43 30 -2 17 2 41 8 55 6 13 19 38 30
54 11 17 28 46 39 65 10 19 31 46 46 60 15 14 33 37 41 53 11 20 12 32 4 47
-6 10 -25 31 -44 45 -18 14 -45 25 -59 25 -15 0 -33 10 -45 25 -11 14 -25 25
-31 25z m-732 -910 c5 0 14 -7 21 -15 7 -8 15 -44 17 -79 3 -35 3 -76 -1 -90
-3 -14 -12 -26 -18 -26 -7 0 -32 7 -55 16 -24 9 -43 23 -43 31 0 8 16 48 35
89 19 41 39 74 44 74z"/>
<path d="M420 1198 c-25 0 -67 -4 -95 -7 -37 -4 -51 -11 -53 -23 -3 -14 4 -18
31 -18 28 0 39 -6 55 -32 20 -31 20 -32 1 -81 -15 -38 -17 -52 -8 -63 6 -8 20
-14 31 -14 10 0 29 11 42 25 13 14 33 25 45 25 12 0 34 8 49 17 15 10 30 22
34 28 4 5 8 19 8 30 0 12 -21 42 -48 68 -43 43 -52 47 -92 45z"/>
</g>
</svg>
