<?xml version="1.0" standalone="no"?>
<!DOCTYPE svg PUBLIC "-//W3C//DTD SVG 20010904//EN"
 "http://www.w3.org/TR/2001/REC-SVG-20010904/DTD/svg10.dtd">
<svg version="1.0" xmlns="http://www.w3.org/2000/svg"
 width="128.000000pt" height="128.000000pt" viewBox="0 0 128.000000 128.000000"
 preserveAspectRatio="xMidYMid meet">
<metadata>
Created by potrace 1.16, written by Peter Selinger 2001-2019
</metadata>
<g transform="translate(0.000000,128.000000) scale(0.100000,-0.100000)"
fill="#000000" stroke="none">
<path d="M780 1194 c-8 3 -23 1 -32 -5 -10 -5 -18 -19 -18 -30 0 -11 13 -27
31 -38 18 -11 53 -22 80 -26 26 -4 56 -13 65 -20 17 -12 17 -16 4 -40 -8 -15
-28 -36 -45 -48 -16 -11 -48 -36 -70 -54 -22 -19 -50 -44 -62 -56 -13 -12 -23
-29 -23 -38 0 -9 10 -31 23 -50 12 -19 32 -35 44 -37 12 -2 39 5 60 16 21 11
62 25 91 33 39 10 55 10 64 1 8 -8 7 -30 -7 -89 -10 -43 -22 -86 -27 -95 -5
-10 -19 -18 -32 -18 -13 0 -30 10 -38 22 -9 13 -20 19 -30 16 -8 -4 -32 -37
-53 -74 -38 -67 -38 -69 -27 -123 8 -38 21 -65 43 -87 27 -28 31 -37 25 -67
-5 -26 -2 -39 11 -53 10 -9 41 -28 70 -41 28 -13 68 -26 88 -28 20 -3 46 -10
57 -16 11 -6 62 -13 114 -16 94 -6 94 -6 94 38 0 39 -4 47 -38 71 -35 25 -46
27 -161 29 -92 3 -125 7 -128 17 -3 7 -1 23 5 35 5 12 15 42 21 67 7 25 20 65
30 90 10 25 24 61 31 80 6 19 17 53 22 75 6 22 12 69 15 104 3 41 0 72 -8 88
-7 13 -28 33 -46 44 -21 13 -46 19 -70 17 -21 -1 -38 2 -40 9 -2 6 16 23 41
38 24 14 61 44 81 66 27 31 34 45 29 62 -4 12 -15 34 -26 50 -11 15 -28 32
-38 37 -11 6 -38 7 -60 4 -29 -5 -45 -2 -58 8 -9 9 -33 18 -52 21 -19 3 -42 8
-50 11z"/>
<path d="M343 1140 c-22 0 -43 -3 -46 -7 -4 -3 -7 -17 -7 -31 0 -16 15 -37 45
-64 33 -29 45 -47 45 -67 0 -15 -4 -31 -8 -36 -5 -6 -16 -29 -25 -53 -10 -23
-35 -71 -56 -107 -22 -36 -42 -74 -46 -85 -3 -10 -33 -48 -66 -82 -32 -35 -59
-69 -59 -76 0 -8 -25 -38 -55 -67 -56 -53 -56 -53 -53 -122 2 -44 7 -68 15
-68 6 0 25 20 41 44 17 25 28 50 25 58 -3 8 2 13 14 13 11 0 40 20 65 45 25
25 53 45 62 45 9 0 18 -10 21 -22 3 -13 -1 -68 -10 -123 -8 -55 -15 -119 -15
-143 0 -24 7 -56 15 -72 9 -17 23 -30 33 -30 10 0 26 14 37 32 13 23 19 56 22
119 1 48 7 98 11 111 5 13 5 61 1 108 -6 59 -15 93 -29 112 -11 15 -20 32 -20
38 0 6 10 25 22 43 13 18 31 42 41 53 10 12 26 35 35 52 9 17 32 57 50 91 17
33 32 73 32 88 0 15 -10 54 -22 86 -13 33 -35 73 -50 88 -20 23 -35 29 -65 29z"/>
</g>
</svg>
