<?xml version="1.0" standalone="no"?>
<!DOCTYPE svg PUBLIC "-//W3C//DTD SVG 20010904//EN"
 "http://www.w3.org/TR/2001/REC-SVG-20010904/DTD/svg10.dtd">
<svg version="1.0" xmlns="http://www.w3.org/2000/svg"
 width="128.000000pt" height="128.000000pt" viewBox="0 0 128.000000 128.000000"
 preserveAspectRatio="xMidYMid meet">
<metadata>
Created by potrace 1.16, written by Peter Selinger 2001-2019
</metadata>
<g transform="translate(0.000000,128.000000) scale(0.100000,-0.100000)"
fill="#000000" stroke="none">
<path d="M454 1260 c-13 0 -26 -5 -30 -11 -3 -6 -1 -16 5 -22 6 -6 11 -28 11
-48 0 -21 -4 -40 -9 -44 -5 -3 -12 -19 -16 -35 -4 -20 -21 -40 -51 -60 -24
-17 -49 -40 -55 -51 -6 -11 -8 -23 -4 -27 3 -3 22 -5 43 -4 20 2 45 5 54 8 9
3 33 28 54 56 20 28 50 63 67 77 16 14 42 34 56 43 14 10 32 18 39 18 6 0 21
-9 32 -20 11 -11 20 -25 20 -30 0 -6 -18 -30 -40 -54 -22 -24 -54 -49 -70 -56
-16 -7 -36 -23 -45 -36 -8 -13 -22 -24 -31 -24 -8 0 -33 -9 -55 -20 -22 -12
-44 -32 -49 -45 -5 -13 -19 -29 -31 -35 -12 -7 -36 -9 -54 -6 -19 4 -36 2 -40
-4 -3 -5 -19 -10 -35 -10 -16 0 -32 -4 -35 -10 -3 -5 7 -12 22 -15 15 -4 39
-11 52 -16 18 -7 22 -15 17 -34 -3 -13 -2 -54 3 -91 9 -60 8 -69 -11 -94 -11
-16 -18 -35 -15 -44 4 -11 16 -14 44 -10 21 3 44 7 50 9 9 3 11 26 8 82 -3 61
0 85 13 109 9 17 29 50 45 73 15 22 31 41 35 41 4 0 20 12 35 25 23 21 26 28
17 45 -9 16 -8 20 5 20 8 0 15 -5 15 -10 0 -6 6 -10 13 -9 6 1 18 1 25 0 8 -1
12 -18 12 -52 0 -50 0 -50 -45 -70 -24 -11 -47 -24 -50 -29 -3 -5 -12 -7 -19
-4 -8 3 -17 1 -20 -5 -4 -6 -4 -27 0 -47 3 -19 13 -38 21 -41 8 -3 18 -1 22 6
4 6 25 20 46 31 22 11 45 20 52 20 8 0 6 -14 -9 -46 -11 -26 -36 -67 -55 -93
-20 -25 -43 -61 -51 -79 -9 -18 -35 -54 -58 -79 -23 -25 -54 -68 -69 -97 -14
-28 -36 -67 -48 -86 -12 -20 -41 -55 -64 -78 -32 -31 -43 -50 -43 -73 0 -17 5
-39 10 -50 6 -10 15 -19 20 -19 6 0 27 16 47 35 21 20 61 73 88 119 28 46 70
117 94 157 24 41 55 91 68 112 13 20 28 37 34 37 5 0 16 -15 23 -32 7 -18 19
-89 26 -158 10 -96 17 -131 32 -150 11 -14 26 -25 33 -25 7 0 23 -9 35 -20 21
-19 36 -20 212 -19 153 0 191 3 199 15 5 8 9 28 9 45 0 20 -9 39 -28 57 -15
15 -33 27 -38 27 -6 0 -19 -8 -28 -19 -9 -10 -31 -22 -49 -26 -18 -4 -53 -7
-78 -6 -26 2 -50 -2 -53 -8 -4 -7 -16 -6 -37 1 -17 6 -56 35 -87 65 -44 44
-57 63 -64 101 -4 26 -6 66 -2 89 5 33 2 48 -15 72 -12 16 -31 33 -42 36 -14
5 -19 13 -15 23 3 10 13 39 22 65 17 48 17 48 65 42 26 -4 57 -4 68 0 11 3 44
36 73 73 29 37 70 91 90 119 36 51 37 53 23 87 -10 23 -28 41 -52 53 -29 14
-57 17 -120 15 -56 -2 -83 1 -83 8 0 7 13 24 29 38 15 15 40 37 55 49 19 16
26 31 26 58 0 28 -7 43 -30 63 -16 15 -30 32 -30 38 0 6 -13 14 -30 17 -16 4
-37 4 -45 1 -8 -4 -18 -17 -21 -29 -3 -13 -23 -36 -45 -51 -22 -15 -43 -24
-47 -20 -3 4 -7 21 -8 37 -1 16 -10 39 -19 49 -10 11 -28 20 -41 20z m316
-327 c25 -3 53 -10 63 -15 14 -7 17 -16 12 -36 -4 -15 -22 -49 -40 -77 -18
-27 -52 -68 -74 -90 -34 -32 -45 -38 -59 -29 -9 6 -25 33 -35 60 -12 33 -16
63 -12 91 3 23 13 47 21 53 8 7 29 21 47 30 23 13 44 17 77 13z"/>
<path d="M1065 1158 c-46 3 -53 0 -73 -27 -18 -25 -22 -43 -21 -103 0 -40 6
-104 13 -143 9 -54 16 -71 30 -73 12 -3 35 13 62 42 24 25 44 51 44 58 0 7 -4
19 -9 27 -8 12 -16 8 -41 -19 -24 -26 -34 -30 -43 -21 -7 7 -12 42 -12 86 0
63 3 77 24 99 13 14 35 26 50 28 18 2 26 9 26 23 0 17 -8 20 -50 23z"/>
<path d="M1046 620 c-12 0 -25 -2 -28 -5 -3 -3 3 -22 13 -43 15 -30 17 -45 9
-71 -5 -18 -18 -41 -30 -51 -12 -10 -20 -30 -20 -49 0 -24 4 -31 20 -31 12 0
24 10 30 24 5 14 23 35 41 48 30 22 31 25 25 78 -4 30 -13 65 -22 77 -8 13
-25 23 -38 23z"/>
<path d="M1104 285 c-5 1 -21 0 -36 -2 -16 -3 -28 -11 -28 -19 0 -8 7 -17 16
-21 8 -3 27 0 40 6 14 6 24 17 22 23 -2 6 -8 12 -14 13z"/>
</g>
</svg>
