<?xml version="1.0" standalone="no"?>
<!DOCTYPE svg PUBLIC "-//W3C//DTD SVG 20010904//EN"
 "http://www.w3.org/TR/2001/REC-SVG-20010904/DTD/svg10.dtd">
<svg version="1.0" xmlns="http://www.w3.org/2000/svg"
 width="128.000000pt" height="128.000000pt" viewBox="0 0 128.000000 128.000000"
 preserveAspectRatio="xMidYMid meet">
<metadata>
Created by potrace 1.16, written by Peter Selinger 2001-2019
</metadata>
<g transform="translate(0.000000,128.000000) scale(0.100000,-0.100000)"
fill="#000000" stroke="none">
<path d="M827 1259 c-12 0 -33 -5 -47 -11 -14 -5 -34 -12 -45 -14 -11 -2 -45
-8 -76 -12 -31 -4 -68 -16 -82 -25 -15 -10 -27 -23 -27 -30 0 -6 9 -23 19 -36
16 -22 23 -23 77 -18 32 3 71 9 87 13 27 6 27 6 27 -49 0 -31 5 -59 10 -62 8
-5 8 -11 1 -19 -7 -9 -7 -40 1 -101 10 -81 10 -89 -7 -101 -10 -8 -30 -25 -44
-38 -14 -14 -32 -32 -39 -40 -7 -9 -17 -16 -23 -16 -7 0 -8 20 -3 58 3 31 10
62 14 67 4 6 10 21 13 34 5 20 -2 32 -36 63 -23 21 -48 38 -56 38 -8 0 -30 12
-48 26 -23 17 -38 23 -44 17 -6 -6 -11 -33 -11 -61 -1 -37 4 -57 17 -72 10
-11 26 -22 36 -25 10 -3 22 -18 26 -32 7 -21 2 -39 -25 -90 -26 -49 -32 -70
-27 -91 4 -15 7 -44 6 -65 -2 -21 3 -45 9 -53 7 -7 18 -14 24 -14 7 0 31 18
54 40 23 23 42 47 42 55 0 8 9 19 21 25 11 6 39 12 62 13 42 2 42 2 39 -38 -2
-22 -11 -46 -20 -52 -9 -7 -24 -13 -33 -13 -9 0 -50 -19 -91 -42 -40 -22 -78
-47 -84 -54 -6 -7 -9 -27 -6 -45 3 -21 14 -37 36 -50 17 -10 41 -19 53 -19 12
0 25 -5 28 -10 3 -6 17 -10 31 -10 14 0 48 -10 75 -21 40 -18 55 -20 74 -11
14 6 27 23 31 38 4 16 0 39 -10 60 -9 19 -16 41 -16 48 0 8 13 28 29 45 26 28
35 31 89 31 34 0 63 4 66 9 3 4 19 11 36 14 17 4 30 13 30 21 0 8 -21 27 -46
42 -41 24 -49 26 -82 16 -23 -7 -49 -8 -67 -3 -22 6 -29 13 -27 27 1 10 3 31
3 46 0 14 -7 40 -16 57 -9 18 -13 36 -10 41 3 6 19 10 35 10 18 0 42 11 63 30
19 17 42 30 50 30 9 0 25 12 36 26 20 26 20 26 -24 70 -25 24 -49 44 -53 44
-5 0 -23 13 -40 28 -18 16 -32 34 -32 41 0 6 -11 16 -24 22 -13 6 -33 24 -45
39 -16 23 -18 30 -7 39 7 6 29 18 50 26 20 9 40 23 43 32 4 10 -3 24 -21 40
-15 12 -37 23 -49 22z m-252 -639 c8 0 17 -4 20 -10 4 -6 -5 -10 -20 -10 -15
0 -24 4 -20 10 3 6 12 10 20 10z m167 -170 c9 0 18 -5 20 -12 3 -7 2 -23 0
-35 -2 -13 -13 -28 -24 -34 -15 -8 -26 -6 -44 6 -14 9 -24 24 -22 33 2 9 14
22 28 29 14 7 33 13 42 13z"/>
<path d="M357 1028 c-7 -1 -46 -4 -87 -7 -66 -5 -75 -8 -75 -26 0 -16 10 -22
52 -29 36 -6 53 -14 56 -26 3 -10 16 -26 30 -35 16 -10 34 -14 48 -10 19 6 21
12 15 51 -3 25 -10 54 -16 64 -6 11 -16 19 -23 18z"/>
<path d="M295 760 c-18 0 -28 -7 -35 -26 -6 -14 -10 -32 -10 -39 0 -8 11 -17
24 -21 14 -3 30 -3 35 1 6 3 11 24 11 46 0 35 -3 39 -25 39z"/>
<path d="M275 640 c-9 0 -20 -11 -25 -25 -5 -14 -8 -48 -5 -77 2 -28 10 -55
17 -59 7 -5 23 -9 36 -9 12 0 22 -6 22 -13 0 -8 -27 -39 -59 -70 -33 -32 -64
-57 -70 -57 -5 0 -11 -12 -13 -27 -3 -25 -8 -29 -48 -33 -25 -3 -57 -14 -72
-24 -26 -17 -27 -22 -24 -74 3 -35 10 -60 20 -67 8 -7 29 -10 46 -7 16 2 30 8
30 13 0 5 15 18 33 29 17 11 50 25 72 31 22 6 57 24 78 41 38 29 38 30 83 14
24 -8 56 -24 71 -35 17 -14 40 -21 69 -21 24 0 53 -4 66 -9 13 -5 57 -15 98
-22 41 -7 87 -18 102 -26 15 -7 30 -18 33 -24 4 -5 -1 -20 -12 -31 -10 -11
-34 -28 -53 -37 -35 -16 -35 -16 49 -19 49 -2 88 1 95 8 5 5 20 10 33 10 13 0
33 6 46 12 12 7 33 21 46 31 13 9 36 17 52 17 15 0 45 11 65 25 20 14 47 25
59 25 12 0 28 7 35 16 11 12 10 18 -4 32 -9 10 -42 20 -79 24 -34 4 -79 10
-99 14 -26 4 -43 1 -59 -10 -15 -10 -28 -12 -39 -6 -9 5 -61 8 -116 8 -54 0
-139 5 -189 12 -49 6 -97 17 -105 25 -8 7 -26 16 -40 20 -14 4 -32 13 -40 20
-8 7 -26 16 -40 20 -14 4 -35 15 -47 23 -13 8 -23 18 -23 23 0 5 18 27 39 48
21 21 48 42 60 46 12 3 21 12 21 19 0 6 -26 29 -57 49 -50 33 -60 36 -79 26
-12 -6 -27 -8 -33 -5 -6 4 -11 18 -11 31 0 13 -4 35 -10 49 -5 14 -16 26 -25
26z"/>
</g>
</svg>
