<?xml version="1.0" standalone="no"?>
<!DOCTYPE svg PUBLIC "-//W3C//DTD SVG 20010904//EN"
 "http://www.w3.org/TR/2001/REC-SVG-20010904/DTD/svg10.dtd">
<svg version="1.0" xmlns="http://www.w3.org/2000/svg"
 width="128.000000pt" height="128.000000pt" viewBox="0 0 128.000000 128.000000"
 preserveAspectRatio="xMidYMid meet">
<metadata>
Created by potrace 1.16, written by Peter Selinger 2001-2019
</metadata>
<g transform="translate(0.000000,128.000000) scale(0.100000,-0.100000)"
fill="#000000" stroke="none">
<path d="M598 1280 c-16 0 -28 -4 -28 -9 0 -5 -12 -11 -27 -13 -20 -2 -28 -9
-28 -23 0 -16 8 -21 38 -23 36 -3 37 -4 37 -46 0 -23 5 -47 10 -52 8 -8 6 -15
-4 -23 -8 -7 -30 -14 -48 -16 -18 -2 -64 -9 -103 -15 -38 -6 -78 -13 -88 -16
-15 -5 -17 -12 -11 -37 3 -16 15 -44 25 -61 10 -17 19 -45 19 -62 0 -17 8 -38
18 -47 11 -10 35 -17 58 -17 21 1 57 7 79 15 22 8 41 15 43 15 1 0 7 -12 13
-27 5 -14 7 -39 4 -54 -5 -22 -13 -28 -43 -33 -20 -4 -69 -10 -108 -14 -39 -4
-79 -13 -88 -21 -9 -8 -14 -21 -12 -28 3 -8 8 -40 12 -71 3 -31 9 -86 14 -121
5 -35 13 -68 18 -73 5 -5 16 -6 25 -2 9 3 22 21 29 40 6 18 18 36 25 38 7 3
35 8 62 12 44 6 50 4 61 -16 6 -12 14 -78 17 -148 3 -70 5 -173 4 -230 -1 -93
1 -102 18 -102 15 0 20 11 26 63 4 34 9 82 11 107 2 25 7 88 10 140 4 52 7
118 8 145 0 28 5 56 9 63 5 7 29 12 56 12 34 0 53 5 64 18 10 10 17 24 17 30
0 7 5 12 11 12 6 0 33 24 60 53 27 28 49 61 49 73 0 11 -13 32 -28 47 -18 18
-39 27 -59 27 -18 0 -35 -4 -38 -10 -3 -6 -35 -10 -70 -10 -35 0 -66 3 -68 8
-3 4 -7 23 -9 42 -3 35 -3 35 37 35 28 0 50 8 72 25 18 14 39 41 48 60 8 19
28 55 44 80 15 25 26 51 23 59 -3 7 2 18 11 23 10 5 17 16 17 23 0 8 -5 15
-10 15 -6 0 -18 -4 -28 -10 -9 -5 -51 -19 -93 -30 -41 -11 -87 -20 -102 -20
-14 0 -28 4 -32 9 -3 5 -8 40 -11 77 -3 39 -12 76 -22 90 -11 15 -27 23 -44
24z m147 -266 c22 -3 44 -10 48 -14 5 -4 4 -17 -2 -28 -6 -11 -27 -26 -47 -32
-30 -10 -38 -9 -55 6 -10 9 -19 25 -19 35 0 10 8 23 18 28 9 6 35 8 57 5z
m-220 -14 c59 0 65 -2 69 -22 3 -13 7 -35 10 -49 4 -17 0 -31 -8 -38 -9 -7
-34 -10 -65 -7 -28 2 -55 7 -61 11 -5 3 -10 28 -10 56 0 49 0 49 65 49z m317
-298 c3 -1 4 -11 1 -22 -3 -11 -9 -22 -13 -25 -5 -3 -6 -13 -3 -24 3 -12 -3
-24 -18 -35 -13 -9 -38 -16 -55 -16 -17 0 -37 6 -43 13 -6 8 -14 27 -17 43 -4
21 0 34 13 46 11 10 40 18 73 20 30 2 58 2 62 0z m-271 -23 c16 1 29 -6 33
-15 3 -9 6 -31 6 -49 0 -19 -4 -36 -9 -39 -5 -4 -42 -12 -83 -20 -40 -8 -76
-12 -80 -10 -4 3 -10 20 -14 38 -3 19 -1 43 5 55 8 14 22 21 44 22 18 0 41 4
52 9 11 5 32 9 46 9z"/>
</g>
</svg>
