<?xml version="1.0" standalone="no"?>
<!DOCTYPE svg PUBLIC "-//W3C//DTD SVG 20010904//EN"
 "http://www.w3.org/TR/2001/REC-SVG-20010904/DTD/svg10.dtd">
<svg version="1.0" xmlns="http://www.w3.org/2000/svg"
 width="128.000000pt" height="128.000000pt" viewBox="0 0 128.000000 128.000000"
 preserveAspectRatio="xMidYMid meet">
<metadata>
Created by potrace 1.16, written by Peter Selinger 2001-2019
</metadata>
<g transform="translate(0.000000,128.000000) scale(0.100000,-0.100000)"
fill="#000000" stroke="none">
<path d="M803 1259 c-10 -1 -27 -4 -38 -8 -11 -4 -42 -17 -70 -30 -27 -12 -72
-33 -100 -47 -27 -13 -67 -26 -87 -29 -24 -4 -38 -11 -38 -20 0 -8 6 -16 13
-16 6 -1 16 -1 20 0 5 1 23 -4 41 -10 28 -10 37 -8 91 25 33 20 66 36 73 36 6
0 12 -9 12 -20 0 -11 -18 -37 -39 -58 -22 -21 -55 -47 -75 -57 -36 -20 -36
-20 -30 -78 5 -47 3 -61 -11 -76 -9 -11 -19 -37 -22 -59 -3 -23 -1 -42 5 -46
6 -4 31 3 56 15 25 11 50 18 55 15 6 -4 7 -14 4 -23 -4 -10 -16 -28 -27 -41
-12 -13 -40 -37 -63 -53 -23 -16 -44 -37 -46 -47 -3 -9 -8 -29 -11 -45 -5 -20
-2 -29 9 -34 11 -4 31 8 59 36 23 22 49 41 59 41 9 0 17 -5 17 -11 0 -6 -11
-24 -25 -41 -20 -23 -25 -41 -25 -82 0 -28 5 -57 12 -64 7 -7 26 -12 44 -12
17 0 45 7 60 15 16 8 36 15 45 15 9 0 20 -7 23 -17 4 -9 4 -74 0 -145 -4 -71
-11 -131 -16 -134 -5 -3 -32 2 -61 11 -28 10 -63 28 -77 40 -21 20 -33 22 -76
18 -32 -3 -54 -1 -58 6 -4 6 -23 11 -42 11 -27 0 -34 -4 -34 -20 0 -13 12 -25
36 -35 20 -8 53 -15 72 -15 20 0 57 -8 82 -17 25 -9 56 -25 69 -35 14 -10 40
-41 58 -68 19 -28 40 -50 47 -50 8 0 28 11 43 24 16 14 37 42 47 64 16 36 16
49 3 208 -9 102 -11 176 -6 186 5 9 43 34 85 55 42 21 84 50 95 65 11 15 22
52 25 86 6 55 5 62 -18 84 -14 12 -36 31 -49 41 -13 9 -35 17 -49 17 -15 0
-51 -9 -81 -19 -30 -10 -67 -26 -84 -35 -16 -9 -40 -16 -52 -16 -13 0 -23 6
-23 14 0 8 15 26 33 41 17 14 51 43 75 62 23 20 42 43 42 50 0 8 -7 16 -16 20
-9 3 -28 6 -43 7 -19 1 -27 7 -29 22 -2 12 14 49 37 84 32 49 38 66 31 81 -6
10 -8 36 -4 58 5 33 3 41 -14 50 -11 6 -29 11 -39 10z m100 -499 c15 0 43 -7
62 -14 24 -11 35 -21 35 -36 0 -12 -7 -34 -15 -50 -8 -16 -28 -38 -44 -49 -16
-12 -34 -21 -40 -21 -6 0 -16 11 -21 25 -5 14 -11 40 -12 58 -1 18 -6 40 -11
51 -6 13 -5 21 4 27 8 5 27 9 42 9z m-115 -90 c5 0 14 -6 20 -13 6 -7 10 -32
9 -55 -2 -40 -5 -45 -50 -69 -41 -23 -49 -25 -61 -12 -8 9 -11 29 -9 56 3 24
9 41 13 38 5 -3 22 8 38 25 17 16 35 30 40 30z"/>
<path d="M432 1049 c-4 0 -38 -18 -77 -40 -50 -28 -82 -39 -112 -39 -23 0 -45
-5 -49 -12 -4 -6 5 -21 22 -35 16 -14 39 -31 51 -40 20 -14 25 -13 52 6 16 11
39 22 52 23 19 3 25 -2 27 -24 2 -16 -6 -65 -17 -111 -12 -45 -32 -112 -45
-147 -13 -36 -29 -77 -35 -92 -6 -16 -17 -28 -26 -28 -8 0 -15 3 -16 8 0 4 -2
16 -4 27 -2 11 -7 39 -10 63 -4 27 -11 42 -21 42 -11 0 -14 -15 -14 -62 0 -35
-10 -100 -22 -146 -16 -64 -19 -91 -12 -120 6 -23 15 -37 25 -36 8 1 42 22 75
47 60 45 60 45 112 199 28 84 58 178 66 209 8 31 20 94 26 140 5 46 10 89 10
95 0 7 -12 26 -26 43 -14 17 -29 31 -32 30z"/>
<path d="M1092 300 c-5 0 -25 -19 -46 -42 -20 -24 -41 -60 -47 -81 -5 -20 -7
-42 -4 -47 3 -6 14 -10 24 -10 9 0 31 15 49 33 28 29 32 39 32 90 0 31 -4 57
-8 57z"/>
<path d="M609 89 c-2 -1 -24 -21 -47 -45 -44 -44 -44 -44 27 -44 68 0 71 1 71
23 0 13 -10 33 -23 45 -13 12 -25 22 -28 21z"/>
</g>
</svg>
