<?xml version="1.0" standalone="no"?>
<!DOCTYPE svg PUBLIC "-//W3C//DTD SVG 20010904//EN"
 "http://www.w3.org/TR/2001/REC-SVG-20010904/DTD/svg10.dtd">
<svg version="1.0" xmlns="http://www.w3.org/2000/svg"
 width="128.000000pt" height="128.000000pt" viewBox="0 0 128.000000 128.000000"
 preserveAspectRatio="xMidYMid meet">
<metadata>
Created by potrace 1.16, written by Peter Selinger 2001-2019
</metadata>
<g transform="translate(0.000000,128.000000) scale(0.100000,-0.100000)"
fill="#000000" stroke="none">
<path d="M853 1253 c-54 4 -64 2 -82 -17 -12 -12 -21 -27 -21 -32 0 -6 -12
-26 -26 -45 -14 -19 -30 -44 -34 -56 -5 -12 -24 -44 -43 -70 -18 -26 -50 -78
-71 -116 -24 -44 -35 -74 -31 -87 6 -18 2 -20 -37 -20 -24 0 -53 6 -64 14 -19
14 -20 20 -12 93 5 43 13 86 19 96 7 13 7 23 -2 33 -9 12 -9 20 0 37 7 13 11
45 9 71 -2 34 -9 52 -21 60 -15 9 -22 7 -37 -12 -13 -16 -17 -32 -13 -52 4
-20 -1 -38 -16 -58 -11 -17 -21 -38 -21 -49 0 -10 -7 -27 -15 -37 -8 -11 -15
-27 -15 -37 0 -9 -9 -28 -20 -42 -11 -14 -20 -34 -20 -46 0 -11 -9 -29 -20
-39 -11 -10 -35 -48 -53 -83 -18 -36 -42 -78 -55 -93 -12 -16 -22 -35 -22 -44
0 -8 -11 -25 -25 -38 -14 -13 -25 -34 -25 -47 0 -13 5 -39 12 -58 6 -19 20
-46 30 -61 16 -23 23 -26 39 -18 10 6 30 32 43 58 13 26 38 60 55 76 17 17 31
38 31 48 0 9 9 32 20 50 11 18 20 40 20 48 1 8 18 34 39 58 21 23 43 42 49 42
6 0 14 -5 18 -11 4 -7 -3 -19 -16 -29 -23 -18 -23 -18 10 -35 30 -16 32 -19
17 -30 -9 -7 -28 -10 -42 -7 -24 4 -25 2 -25 -39 -1 -24 -7 -69 -14 -99 -7
-30 -25 -80 -39 -111 -25 -57 -25 -57 -6 -125 13 -46 29 -79 49 -99 25 -24 33
-28 48 -19 12 8 17 25 18 56 0 25 4 54 9 64 4 10 9 32 11 48 2 16 10 37 17 45
7 9 19 36 26 61 7 25 19 59 27 75 8 17 12 39 8 48 -3 10 -1 23 5 31 6 7 8 27
5 45 -5 26 -3 31 12 31 12 0 31 20 52 56 19 34 30 64 27 75 -4 12 2 23 20 35
20 13 26 23 22 43 -3 15 4 39 19 63 13 21 24 47 24 58 0 11 9 28 20 37 11 10
20 23 20 30 0 7 18 30 41 52 32 31 40 44 34 61 -6 19 -4 21 17 15 12 -4 32
-18 43 -30 15 -18 35 -24 83 -29 62 -6 62 -6 62 29 0 33 -2 35 -35 35 -19 0
-35 4 -35 9 0 5 -12 13 -27 19 -16 6 -56 13 -90 15z m-523 -354 c6 -3 11 -8
11 -12 -1 -4 -4 -7 -8 -8 -4 0 -9 5 -11 12 -3 6 1 10 8 8z"/>
<path d="M876 830 c-8 0 -19 -6 -25 -14 -6 -7 -25 -16 -42 -20 -17 -3 -44 -20
-60 -38 -16 -18 -38 -42 -49 -54 -11 -12 -20 -31 -20 -43 0 -12 -9 -29 -20
-38 -11 -10 -20 -24 -19 -33 0 -8 13 -37 28 -65 23 -42 33 -51 60 -53 27 -3
33 1 42 27 6 16 17 32 25 35 8 3 14 14 14 26 0 11 9 25 20 32 11 7 20 20 20
29 0 9 7 22 15 29 8 7 15 18 15 26 0 7 -7 17 -17 22 -10 6 -14 16 -10 26 4 9
15 16 26 16 10 0 29 9 42 20 24 20 24 20 -4 45 -15 14 -34 25 -41 25z m-134
-160 c4 0 8 -7 8 -15 0 -8 -7 -15 -15 -15 -8 0 -15 4 -15 8 0 5 3 12 7 15 3 4
10 7 15 7z"/>
<path d="M969 810 c-5 0 -12 -7 -15 -15 -3 -8 4 -35 16 -60 12 -25 30 -50 40
-55 14 -7 19 -5 23 10 3 13 17 22 36 26 17 4 31 11 31 16 0 6 -10 23 -21 40
-19 26 -27 29 -55 25 -19 -3 -36 -1 -39 4 -4 5 -11 9 -16 9z"/>
<path d="M1119 698 c-8 1 -20 -3 -27 -10 -6 -6 -12 -18 -12 -26 0 -9 -7 -11
-20 -7 -14 4 -20 2 -20 -8 0 -8 7 -20 15 -27 8 -7 12 -16 9 -22 -3 -5 -1 -15
6 -23 8 -10 8 -19 1 -34 -6 -11 -11 -40 -11 -65 0 -38 -6 -52 -41 -92 -32 -37
-40 -53 -36 -73 5 -22 -1 -31 -29 -50 -19 -13 -42 -36 -51 -51 -9 -15 -31 -35
-49 -44 -19 -8 -34 -20 -34 -26 0 -5 -25 -29 -56 -52 -31 -24 -65 -48 -76 -54
-11 -7 -25 -17 -31 -23 -8 -8 8 -11 61 -11 56 0 75 4 87 18 8 9 27 30 42 45
15 16 50 43 77 60 32 21 57 48 72 77 13 24 33 48 44 52 11 4 20 13 20 21 0 7
-5 18 -12 25 -9 9 -6 12 14 12 14 0 28 7 32 15 3 8 16 20 29 26 13 6 29 20 36
32 8 12 15 56 17 98 2 53 -2 83 -11 95 -9 13 -10 24 -3 37 7 13 4 27 -9 50
-11 18 -26 33 -34 35z"/>
</g>
</svg>
