<?xml version="1.0" standalone="no"?>
<!DOCTYPE svg PUBLIC "-//W3C//DTD SVG 20010904//EN"
 "http://www.w3.org/TR/2001/REC-SVG-20010904/DTD/svg10.dtd">
<svg version="1.0" xmlns="http://www.w3.org/2000/svg"
 width="128.000000pt" height="128.000000pt" viewBox="0 0 128.000000 128.000000"
 preserveAspectRatio="xMidYMid meet">
<metadata>
Created by potrace 1.16, written by Peter Selinger 2001-2019
</metadata>
<g transform="translate(0.000000,128.000000) scale(0.100000,-0.100000)"
fill="#000000" stroke="none">
<path d="M344 1260 c-9 0 -12 -39 -11 -142 1 -112 -3 -154 -17 -195 -10 -29
-15 -62 -11 -73 5 -15 -1 -29 -19 -47 -14 -14 -26 -35 -26 -47 0 -12 -18 -39
-40 -61 -25 -24 -40 -48 -40 -63 0 -14 -7 -26 -18 -28 -9 -3 -28 -21 -41 -40
-19 -28 -25 -52 -29 -116 -4 -69 -2 -83 13 -94 12 -9 24 -10 43 -3 15 6 34 18
42 28 8 9 25 31 38 48 12 18 22 38 22 46 0 8 9 22 20 32 19 17 19 18 -8 54
-15 20 -31 38 -35 40 -5 2 8 14 27 27 20 14 36 32 36 41 0 13 7 14 39 9 29 -4
42 -2 54 12 8 9 19 29 22 45 4 15 11 30 16 33 5 3 9 25 9 49 0 34 5 47 20 55
11 6 18 15 15 20 -3 5 -21 6 -41 3 -32 -5 -36 -4 -32 13 2 14 14 20 47 24 38
4 46 9 54 35 7 20 6 43 -1 70 -6 23 -8 52 -5 64 5 18 -7 36 -63 92 -38 38 -74
69 -80 69z"/>
<path d="M973 1070 c-17 0 -33 -3 -36 -7 -4 -4 -51 -6 -105 -6 -98 1 -98 1
-145 -42 -25 -24 -49 -56 -53 -72 -4 -15 -12 -35 -19 -43 -6 -8 -17 -29 -24
-47 -7 -17 -10 -36 -7 -41 3 -6 -1 -13 -10 -16 -10 -4 -14 -16 -12 -33 2 -17
10 -29 20 -31 12 -2 22 6 29 25 6 15 15 35 20 43 4 8 18 35 30 58 12 24 32 55
44 68 19 21 32 24 86 24 42 0 72 -5 87 -16 12 -8 22 -21 22 -29 0 -7 -18 -37
-41 -66 -37 -50 -40 -57 -34 -99 3 -25 7 -54 8 -65 2 -15 -5 -21 -28 -23 -19
-3 -33 2 -42 14 -10 14 -15 15 -28 4 -8 -7 -25 -14 -38 -15 -12 -1 -26 -3 -30
-4 -5 0 -5 -6 -1 -12 3 -6 0 -15 -7 -20 -8 -5 -23 -9 -34 -9 -11 0 -34 -13
-51 -29 -30 -29 -30 -29 -28 -129 1 -65 7 -111 17 -129 8 -15 27 -54 43 -86
15 -33 39 -68 53 -78 13 -10 30 -19 37 -19 8 0 14 5 14 10 0 6 10 10 23 10 17
0 26 8 34 33 6 17 11 57 12 87 1 30 9 74 18 97 10 28 14 60 11 93 -4 38 -1 53
10 59 8 5 12 15 9 24 -3 8 0 17 6 20 7 2 34 -6 60 -19 27 -12 67 -40 90 -60
26 -24 45 -52 51 -74 5 -19 9 -57 10 -85 0 -40 -5 -58 -27 -90 -16 -22 -61
-67 -102 -100 -47 -38 -74 -67 -74 -81 -1 -11 5 -29 13 -39 12 -17 18 -18 72
-6 33 7 67 15 77 17 9 3 17 12 17 19 0 8 12 17 28 21 15 3 32 7 38 9 6 2 14
17 17 33 4 19 14 33 27 37 11 4 26 21 34 38 7 18 14 59 15 92 2 52 -3 69 -35
130 -20 38 -49 87 -65 108 -16 22 -29 46 -29 53 0 7 -18 26 -40 44 -21 17 -58
37 -82 43 -27 8 -44 20 -46 31 -2 9 4 33 13 52 9 19 27 39 39 44 13 5 42 6 64
3 22 -3 52 -3 66 1 14 3 41 20 61 37 19 17 35 40 35 51 0 11 -10 34 -22 51
-12 18 -29 36 -37 41 -8 5 -34 29 -57 53 -31 31 -50 43 -71 43z m-242 -490
c10 0 23 -8 28 -18 7 -13 5 -35 -5 -73 -9 -30 -20 -70 -24 -89 -5 -19 -15 -59
-23 -89 -7 -30 -18 -56 -24 -58 -6 -2 -24 12 -41 32 -22 28 -31 51 -36 96 -5
46 -3 64 8 81 9 12 16 33 16 45 0 18 6 23 25 23 15 0 31 9 41 25 9 14 25 25
35 25z m-136 -60 c8 0 15 -4 15 -10 0 -5 -7 -10 -15 -10 -8 0 -15 5 -15 10 0
6 7 10 15 10z"/>
<path d="M522 680 c-10 0 -22 -3 -25 -7 -4 -3 -7 -21 -7 -38 0 -18 -7 -38 -15
-45 -8 -7 -15 -20 -15 -29 0 -9 -6 -23 -12 -30 -7 -6 -13 -26 -13 -44 0 -18
-4 -32 -10 -32 -5 0 -11 11 -12 25 0 14 -7 47 -15 75 -13 44 -18 50 -49 57
-19 4 -40 5 -46 3 -7 -2 -13 -15 -13 -27 0 -13 9 -29 20 -35 10 -7 24 -31 30
-54 8 -29 8 -49 2 -63 -6 -12 -13 -42 -15 -68 -2 -25 -15 -68 -27 -95 -13 -26
-30 -56 -38 -65 -10 -12 -13 -29 -8 -57 3 -21 18 -62 32 -90 18 -33 33 -51 45
-51 13 0 26 18 44 55 14 31 25 62 25 70 0 8 8 18 18 24 14 8 15 14 6 28 -9 15
-8 23 3 38 8 11 13 34 12 50 -1 17 4 43 10 60 7 16 19 44 28 63 10 20 13 44 9
63 -4 23 -1 35 13 47 11 10 22 36 26 58 4 26 2 44 -4 49 -8 4 -6 11 4 21 8 9
15 22 15 30 0 8 -8 14 -18 14z m-128 -310 c9 0 19 -7 23 -15 3 -9 3 -18 1 -20
-3 -3 -13 4 -23 15 -17 18 -17 20 -1 20z"/>
<path d="M796 60 c-6 0 -22 -10 -36 -21 -14 -11 -34 -24 -45 -29 -14 -6 -3 -9
43 -9 34 -1 62 2 62 7 0 4 -3 17 -6 30 -4 12 -11 22 -18 22z"/>
</g>
</svg>
