<?xml version="1.0" standalone="no"?>
<!DOCTYPE svg PUBLIC "-//W3C//DTD SVG 20010904//EN"
 "http://www.w3.org/TR/2001/REC-SVG-20010904/DTD/svg10.dtd">
<svg version="1.0" xmlns="http://www.w3.org/2000/svg"
 width="128.000000pt" height="128.000000pt" viewBox="0 0 128.000000 128.000000"
 preserveAspectRatio="xMidYMid meet">
<metadata>
Created by potrace 1.16, written by Peter Selinger 2001-2019
</metadata>
<g transform="translate(0.000000,128.000000) scale(0.100000,-0.100000)"
fill="#000000" stroke="none">
<path d="M364 1190 c-8 0 -17 -6 -20 -13 -3 -8 0 -27 6 -43 6 -16 22 -41 36
-55 25 -26 25 -26 -53 -118 -43 -51 -89 -107 -103 -126 -14 -18 -45 -56 -68
-84 -30 -35 -39 -51 -28 -51 9 0 16 -7 16 -15 0 -13 -4 -14 -21 -5 -17 9 -23
8 -35 -7 -7 -10 -14 -22 -14 -26 0 -5 -18 -30 -41 -55 -34 -39 -40 -51 -35
-76 4 -17 13 -40 21 -53 9 -13 21 -23 28 -23 6 0 49 36 95 80 46 44 89 80 96
80 8 0 16 -17 20 -38 3 -20 1 -64 -5 -97 -6 -33 -14 -72 -18 -86 -6 -18 -3
-35 8 -53 8 -14 20 -26 25 -26 5 0 28 -10 52 -22 24 -12 47 -18 51 -15 4 4 10
31 15 60 5 28 13 85 18 126 5 40 14 86 20 102 7 16 10 35 6 44 -3 9 -18 15
-36 15 -20 0 -30 -5 -30 -15 0 -8 -6 -15 -14 -15 -8 0 -17 7 -20 16 -3 9 -6
35 -6 60 0 38 -3 44 -25 50 -14 3 -36 3 -51 0 -23 -6 -24 -5 -13 16 6 13 33
46 58 73 25 28 69 78 96 113 48 59 52 61 86 56 24 -3 39 -1 47 9 9 11 2 24
-33 62 -25 26 -45 51 -45 56 0 4 -6 14 -13 21 -7 7 -23 28 -36 46 -12 17 -29
32 -37 32z"/>
<path d="M1230 1069 c-10 6 -27 5 -45 -3 -17 -7 -55 -21 -85 -30 -30 -10 -84
-29 -120 -43 -36 -14 -69 -29 -75 -34 -5 -5 -50 -9 -100 -9 -73 0 -104 -5
-154 -25 -35 -13 -68 -28 -75 -33 -6 -5 -37 -14 -69 -21 -57 -12 -58 -14 -83
-68 -18 -38 -23 -63 -19 -83 4 -19 1 -37 -9 -53 -9 -13 -13 -27 -9 -30 3 -4
14 -7 24 -7 10 0 27 13 39 30 12 16 23 48 25 69 2 22 10 49 17 61 7 11 20 20
29 20 9 0 22 7 29 15 7 8 28 15 47 15 22 0 36 -6 40 -16 3 -9 1 -51 -5 -93 -6
-42 -16 -100 -22 -128 -8 -38 -8 -58 0 -73 6 -12 19 -20 28 -18 9 2 19 14 20
28 2 14 7 30 12 35 4 6 10 22 14 38 4 19 13 27 28 27 11 0 45 -12 75 -26 30
-14 62 -24 71 -22 9 2 22 19 29 38 7 21 17 34 25 31 7 -2 19 -4 27 -5 8 0 16
5 18 12 3 7 -5 12 -21 12 -20 0 -26 5 -26 23 0 12 9 36 19 53 11 18 21 42 23
54 1 13 11 28 20 34 9 5 20 7 24 3 4 -4 11 -31 15 -60 3 -28 5 -139 2 -246 -3
-148 -8 -201 -19 -224 -11 -21 -13 -32 -5 -40 6 -6 11 -33 11 -59 0 -34 7 -60
25 -88 18 -29 32 -40 49 -40 14 0 32 8 41 17 14 14 16 29 11 87 -4 39 -9 108
-11 153 -3 45 -10 94 -15 109 -8 19 -7 37 1 62 7 20 8 52 4 76 -3 22 -10 79
-15 126 -5 47 -14 109 -21 138 -12 49 -12 54 7 73 17 16 36 21 101 23 44 1 85
6 91 10 7 4 12 21 12 38 0 17 -8 37 -17 45 -10 7 -25 17 -33 22z m-337 -169
c25 0 37 -4 37 -14 0 -7 -16 -34 -37 -58 -20 -25 -41 -61 -47 -79 -9 -26 -16
-33 -31 -31 -11 2 -40 13 -65 25 -44 22 -45 23 -48 75 -3 52 -3 52 35 52 21 0
56 7 78 15 22 8 57 14 78 15z"/>
</g>
</svg>
