<?xml version="1.0" standalone="no"?>
<!DOCTYPE svg PUBLIC "-//W3C//DTD SVG 20010904//EN"
 "http://www.w3.org/TR/2001/REC-SVG-20010904/DTD/svg10.dtd">
<svg version="1.0" xmlns="http://www.w3.org/2000/svg"
 width="128.000000pt" height="128.000000pt" viewBox="0 0 128.000000 128.000000"
 preserveAspectRatio="xMidYMid meet">
<metadata>
Created by potrace 1.16, written by Peter Selinger 2001-2019
</metadata>
<g transform="translate(0.000000,128.000000) scale(0.100000,-0.100000)"
fill="#000000" stroke="none">
<path d="M195 1226 c-17 3 -33 2 -38 -2 -4 -4 -7 -18 -7 -30 0 -13 4 -25 8
-28 5 -3 17 -32 27 -65 18 -59 18 -61 -5 -130 -16 -52 -36 -86 -76 -132 -35
-40 -56 -75 -60 -98 -4 -20 -10 -40 -14 -46 -4 -5 -11 -29 -15 -52 -3 -23 -4
-51 0 -63 3 -11 15 -20 25 -20 10 0 33 21 54 50 23 31 43 50 56 50 17 0 20 -7
20 -44 0 -24 -7 -106 -15 -182 -8 -77 -19 -161 -24 -189 -5 -27 -13 -58 -16
-67 -5 -11 2 -22 19 -33 21 -14 29 -15 41 -5 9 7 22 27 30 44 8 17 19 60 24
96 5 36 12 130 15 210 3 80 11 172 17 205 10 57 10 60 -13 77 -12 10 -31 25
-41 35 -16 16 -16 18 3 38 11 12 20 26 20 31 0 6 10 20 23 32 19 18 34 21 92
20 58 -1 79 3 125 25 30 15 60 25 67 22 10 -3 3 -19 -21 -52 -19 -27 -43 -77
-55 -112 -15 -46 -18 -68 -10 -82 5 -10 16 -19 23 -19 7 0 35 17 62 38 49 37
50 37 143 37 73 0 95 3 101 15 4 8 15 32 24 53 9 21 23 37 32 37 15 0 16 -18
10 -187 -4 -104 -9 -239 -11 -301 -2 -62 -7 -130 -10 -150 -4 -20 -11 -52 -17
-69 -6 -22 -20 -38 -44 -49 -19 -9 -34 -22 -34 -29 0 -7 13 -27 29 -44 16 -17
38 -31 49 -31 13 0 31 17 51 49 17 26 38 68 45 92 10 29 16 119 21 269 3 124
8 239 10 255 2 17 5 103 7 193 1 120 5 166 15 174 7 6 59 13 116 15 56 2 126
9 155 14 48 10 52 13 52 38 0 25 -6 29 -69 49 -57 19 -82 21 -138 16 -37 -3
-82 -14 -99 -24 -17 -10 -47 -21 -65 -25 -19 -4 -47 -13 -64 -21 -16 -7 -62
-25 -101 -38 -38 -14 -102 -30 -140 -35 -39 -6 -104 -22 -145 -36 -41 -15 -91
-31 -113 -36 -25 -6 -42 -6 -50 1 -9 7 -11 34 -8 89 4 78 4 79 -29 115 -19 20
-48 39 -64 42z m603 -187 c12 1 26 -7 29 -16 4 -9 -3 -32 -16 -52 -12 -20 -34
-62 -48 -93 -18 -39 -32 -58 -44 -58 -9 0 -31 8 -48 17 -25 15 -35 16 -62 6
-18 -7 -36 -10 -40 -7 -5 3 -9 13 -9 24 0 10 35 48 83 89 46 39 95 75 108 80
13 5 34 10 47 10z"/>
<path d="M700 774 c-8 3 -21 2 -29 -3 -12 -8 -8 -15 19 -41 33 -31 33 -31 56
-9 13 12 21 25 19 29 -3 4 -15 10 -27 13 -13 2 -30 7 -38 11z"/>
</g>
</svg>
