<?xml version="1.0" standalone="no"?>
<!DOCTYPE svg PUBLIC "-//W3C//DTD SVG 20010904//EN"
 "http://www.w3.org/TR/2001/REC-SVG-20010904/DTD/svg10.dtd">
<svg version="1.0" xmlns="http://www.w3.org/2000/svg"
 width="128.000000pt" height="128.000000pt" viewBox="0 0 128.000000 128.000000"
 preserveAspectRatio="xMidYMid meet">
<metadata>
Created by potrace 1.16, written by Peter Selinger 2001-2019
</metadata>
<g transform="translate(0.000000,128.000000) scale(0.100000,-0.100000)"
fill="#000000" stroke="none">
<path d="M470 1280 c-27 0 -50 -4 -50 -8 0 -5 10 -18 23 -30 13 -12 28 -22 34
-22 6 0 18 11 27 25 9 13 16 27 16 30 0 3 -22 5 -50 5z"/>
<path d="M605 1280 c-30 0 -55 -3 -55 -6 0 -3 12 -21 26 -40 26 -34 26 -34
-10 -34 -23 0 -36 -5 -36 -13 0 -7 5 -18 12 -25 7 -7 21 -12 33 -12 12 0 30 6
41 14 15 12 16 17 7 27 -10 9 -7 18 12 41 14 16 25 34 25 39 0 5 -25 9 -55 9z"/>
<path d="M1141 1280 c-15 0 -31 -8 -38 -19 -10 -16 -8 -22 8 -37 10 -9 22 -14
26 -11 3 4 12 2 20 -5 7 -6 16 -8 19 -5 3 3 2 21 -1 41 -6 31 -11 36 -34 36z"/>
<path d="M906 1260 c-6 0 -18 -5 -26 -10 -8 -5 -25 -10 -37 -10 -13 0 -23 -4
-23 -9 0 -4 -17 -20 -39 -34 -21 -14 -59 -57 -84 -95 -26 -39 -51 -73 -57 -77
-6 -3 -28 -34 -50 -68 -22 -33 -40 -66 -40 -72 0 -6 -14 -27 -31 -48 -17 -20
-36 -37 -42 -37 -7 0 -25 14 -40 30 -24 23 -35 28 -62 23 -27 -4 -39 0 -61 22
-27 27 -27 28 -8 44 10 9 25 32 33 51 8 19 16 54 18 78 3 27 -1 60 -12 88 -12
32 -22 44 -34 42 -10 -2 -20 -20 -27 -53 -6 -28 -20 -72 -32 -100 -13 -27 -29
-63 -37 -78 -8 -16 -15 -37 -15 -48 0 -10 -15 -36 -34 -57 -19 -21 -42 -58
-52 -83 -9 -24 -16 -55 -16 -69 1 -14 4 -43 7 -65 4 -22 14 -45 22 -52 8 -6
21 -9 29 -6 8 3 24 23 34 44 11 21 20 45 20 53 0 8 15 31 34 50 18 20 38 36
43 36 5 0 20 11 33 25 16 17 33 25 50 23 24 -3 25 -6 25 -68 -1 -52 -9 -85
-40 -160 -32 -81 -38 -105 -36 -162 0 -37 6 -79 11 -93 6 -17 17 -25 33 -25
13 0 28 5 35 12 7 7 12 18 12 26 0 7 15 32 34 55 31 39 35 50 41 132 4 50 7
110 7 135 0 37 5 51 34 82 20 22 34 49 34 63 0 14 9 34 20 45 11 11 20 28 20
38 0 10 11 29 25 42 13 12 37 41 52 64 15 22 32 44 38 48 5 5 29 5 53 2 34 -5
42 -3 42 10 0 9 -7 16 -15 16 -8 0 -15 7 -15 15 0 7 28 42 62 76 56 56 63 60
71 43 4 -11 5 -74 0 -143 -6 -94 -12 -126 -23 -132 -8 -4 -28 -11 -44 -14 -18
-4 -52 -29 -83 -62 -29 -30 -53 -63 -53 -73 0 -10 -6 -33 -14 -51 -8 -19 -22
-90 -31 -158 -18 -124 -18 -124 4 -142 19 -16 21 -24 15 -87 -6 -65 -5 -71 15
-81 19 -11 23 -8 39 18 11 21 25 31 40 31 13 0 21 4 18 9 -4 5 -3 16 0 24 3 8
15 17 26 20 11 3 17 10 13 16 -3 6 -12 8 -18 4 -7 -4 -20 -6 -29 -5 -10 2 -18
-1 -18 -7 0 -5 -8 -12 -17 -14 -16 -4 -16 -5 0 -6 10 0 17 -7 15 -13 -3 -7
-19 -14 -36 -15 -21 -1 -32 3 -32 12 0 8 5 17 10 20 6 3 10 14 10 23 0 9 27
43 61 74 33 32 64 58 68 58 4 0 15 14 25 31 10 16 29 34 43 40 15 5 23 15 20
23 -3 7 3 44 14 82 10 38 19 80 19 95 0 15 6 32 14 38 8 7 27 11 43 9 26 -3
28 -7 31 -49 2 -25 -8 -92 -22 -149 -14 -57 -34 -116 -46 -132 -11 -15 -20
-38 -20 -51 0 -12 -6 -29 -12 -35 -7 -7 -18 -30 -24 -50 -7 -20 -12 -29 -13
-19 -1 14 -8 18 -28 15 -20 -2 -29 -9 -31 -26 -3 -17 2 -22 17 -22 12 0 21 -4
21 -10 0 -5 9 -10 20 -10 18 0 19 -3 9 -21 -6 -12 -9 -30 -6 -40 3 -10 -3 -29
-12 -41 -10 -13 -21 -48 -25 -78 -4 -30 -10 -65 -13 -77 -5 -21 -2 -23 36 -23
32 0 41 4 41 18 0 9 12 44 26 77 14 33 27 77 28 97 2 21 9 44 15 52 7 8 19 43
27 78 8 34 23 72 33 83 10 11 22 31 27 45 4 14 7 37 6 51 -1 15 5 32 13 39 9
8 21 22 26 32 6 12 6 25 -1 38 -8 15 -7 26 6 45 9 13 16 40 16 59 0 18 -5 42
-11 53 -5 11 -8 36 -5 55 5 30 2 39 -27 66 -19 18 -41 32 -50 32 -9 0 -23 8
-32 18 -9 10 -21 51 -27 91 -6 40 -8 77 -5 82 4 5 -3 30 -14 55 -12 26 -21 52
-21 59 0 7 -14 18 -31 24 -18 6 -37 11 -43 11z m-33 -459 c5 -5 3 -20 -6 -38
-9 -16 -23 -35 -31 -42 -9 -8 -16 -25 -16 -40 0 -15 -5 -32 -12 -39 -7 -7 -18
-12 -25 -12 -7 0 -13 9 -13 19 0 11 5 23 10 26 6 3 10 14 10 24 0 10 9 26 20
36 11 10 20 23 20 28 0 6 8 19 17 29 10 11 20 15 26 9z"/>
<path d="M824 300 c-9 0 -14 -5 -12 -12 2 -6 10 -14 16 -16 7 -2 12 3 12 12 0
9 -7 16 -16 16z"/>
<path d="M831 260 c-6 0 -13 -4 -16 -10 -3 -5 -3 -14 0 -20 3 -5 10 -10 16
-10 5 0 9 9 9 20 0 11 -4 20 -9 20z"/>
</g>
</svg>
