<?xml version="1.0" standalone="no"?>
<!DOCTYPE svg PUBLIC "-//W3C//DTD SVG 20010904//EN"
 "http://www.w3.org/TR/2001/REC-SVG-20010904/DTD/svg10.dtd">
<svg version="1.0" xmlns="http://www.w3.org/2000/svg"
 width="128.000000pt" height="128.000000pt" viewBox="0 0 128.000000 128.000000"
 preserveAspectRatio="xMidYMid meet">
<metadata>
Created by potrace 1.16, written by Peter Selinger 2001-2019
</metadata>
<g transform="translate(0.000000,128.000000) scale(0.100000,-0.100000)"
fill="#000000" stroke="none">
<path d="M411 1190 c-9 0 -31 -10 -48 -21 -18 -12 -33 -24 -33 -28 0 -4 -33
-24 -72 -43 -40 -20 -95 -44 -122 -52 -26 -9 -57 -14 -68 -10 -10 3 -25 0 -33
-6 -8 -7 -15 -21 -15 -31 0 -10 13 -25 30 -34 16 -8 41 -15 55 -15 14 0 35 5
48 12 12 6 27 14 34 17 7 3 29 18 50 33 21 15 50 30 66 33 25 7 27 5 27 -25 0
-17 10 -60 22 -95 22 -63 22 -64 3 -85 -11 -12 -41 -33 -67 -46 -26 -13 -53
-24 -60 -24 -7 0 -27 17 -44 37 -29 35 -36 38 -82 38 -35 0 -56 -6 -71 -19
-12 -11 -21 -28 -21 -39 0 -18 5 -19 50 -14 43 5 51 3 65 -16 12 -16 15 -50
14 -147 0 -69 -4 -170 -9 -225 -5 -55 -12 -131 -15 -170 -6 -67 -5 -71 22
-104 21 -25 34 -33 47 -28 12 5 16 14 13 26 -2 10 0 58 5 107 4 49 11 125 13
169 3 44 10 104 15 134 6 30 10 82 10 116 0 34 6 68 13 77 6 9 39 26 72 38 33
12 72 24 87 27 27 5 27 5 21 -93 -2 -55 -11 -141 -19 -191 -8 -51 -14 -112
-14 -137 0 -32 7 -53 28 -79 15 -20 35 -48 45 -61 10 -14 36 -31 60 -37 23 -7
47 -16 52 -20 6 -3 36 -10 67 -13 32 -4 60 -12 64 -17 3 -6 48 -7 112 -4 59 4
132 11 162 17 30 6 62 12 70 14 8 1 44 7 80 13 36 6 82 19 103 28 34 15 37 19
36 57 0 27 -13 65 -37 111 -21 39 -44 70 -52 70 -12 0 -14 -11 -12 -56 4 -57
4 -57 -52 -88 -31 -18 -72 -35 -93 -38 -21 -3 -49 -11 -63 -18 -16 -8 -70 -11
-155 -10 -119 2 -134 4 -181 29 -29 14 -55 26 -60 26 -4 0 -16 8 -26 17 -11
10 -29 18 -40 18 -15 0 -24 9 -29 30 -5 16 -4 82 1 146 5 64 12 123 15 131 3
8 1 27 -4 41 -8 21 -8 27 3 27 8 0 16 7 20 15 3 8 1 27 -5 42 -5 14 -7 33 -4
41 3 8 0 31 -6 51 -7 20 -29 62 -51 94 -21 33 -43 67 -48 77 -7 13 -6 27 1 43
6 14 22 31 36 38 24 13 27 11 57 -22 17 -19 44 -41 59 -49 25 -13 34 -12 75 4
26 9 62 22 80 28 22 8 36 8 43 1 6 -6 -4 -26 -31 -60 -22 -28 -40 -54 -40 -58
0 -3 -10 -21 -23 -38 -13 -18 -35 -57 -49 -87 -15 -30 -31 -88 -37 -128 -6
-40 -11 -105 -11 -146 0 -59 4 -76 19 -90 11 -10 26 -16 33 -14 7 3 13 17 13
32 0 23 7 30 40 43 22 8 65 22 96 30 56 16 56 16 99 -18 24 -19 63 -55 88 -81
25 -27 52 -48 61 -48 12 0 21 15 30 53 7 28 20 62 28 75 7 12 11 27 8 33 -4 5
-15 7 -25 4 -10 -3 -21 -1 -25 5 -4 6 7 10 28 10 19 0 39 6 44 13 6 6 15 46
20 87 6 41 12 80 14 85 2 6 0 37 -4 71 -7 53 -11 62 -39 78 -25 15 -43 18
-100 13 -69 -6 -69 -6 -88 38 -10 24 -28 49 -39 55 -12 6 -21 16 -21 23 0 7
12 25 26 41 22 25 33 29 68 28 22 -2 49 -5 59 -8 9 -3 17 -12 17 -21 0 -11 6
-14 27 -8 15 3 39 15 55 26 15 11 28 29 28 39 0 10 -12 28 -27 40 -25 20 -35
22 -108 16 -61 -5 -85 -12 -102 -28 -15 -14 -39 -22 -75 -25 -29 -2 -75 -10
-102 -18 -27 -8 -81 -15 -118 -15 -38 0 -78 5 -89 10 -10 6 -19 17 -19 25 0 7
-12 23 -26 34 -15 12 -34 21 -43 21z m369 -200 c9 0 22 -11 28 -25 7 -14 12
-41 12 -59 0 -29 -5 -35 -32 -45 -18 -7 -50 -20 -70 -31 -21 -10 -40 -14 -43
-10 -3 5 8 30 25 56 16 26 30 52 30 56 0 5 7 20 16 33 9 14 24 25 34 25z m210
-128 c25 -2 49 -8 54 -12 4 -4 8 -23 8 -41 0 -19 -10 -74 -22 -124 -11 -49
-26 -104 -32 -122 -7 -18 -18 -35 -25 -37 -7 -3 -32 11 -54 31 -32 29 -39 41
-34 60 3 15 -1 29 -14 42 -19 19 -19 20 5 88 13 37 24 75 24 84 0 9 10 20 22
26 13 5 43 8 68 5z m-246 -82 c25 0 48 -4 51 -10 3 -5 0 -38 -7 -72 -10 -49
-21 -71 -48 -99 -19 -20 -49 -41 -67 -47 -26 -8 -33 -8 -37 5 -3 8 -6 27 -6
43 0 16 11 50 24 77 14 27 29 61 35 76 9 24 16 27 55 27z"/>
<path d="M1199 980 c-5 0 -9 -9 -9 -21 0 -11 5 -30 11 -42 6 -12 18 -29 26
-38 8 -10 23 -15 34 -12 14 4 19 14 19 37 -1 24 -8 36 -36 54 -20 12 -40 22
-45 22z"/>
</g>
</svg>
