<?xml version="1.0" standalone="no"?>
<!DOCTYPE svg PUBLIC "-//W3C//DTD SVG 20010904//EN"
 "http://www.w3.org/TR/2001/REC-SVG-20010904/DTD/svg10.dtd">
<svg version="1.0" xmlns="http://www.w3.org/2000/svg"
 width="128.000000pt" height="128.000000pt" viewBox="0 0 128.000000 128.000000"
 preserveAspectRatio="xMidYMid meet">
<metadata>
Created by potrace 1.16, written by Peter Selinger 2001-2019
</metadata>
<g transform="translate(0.000000,128.000000) scale(0.100000,-0.100000)"
fill="#000000" stroke="none">
<path d="M846 1137 c-36 6 -36 6 -30 -48 4 -30 7 -74 7 -98 1 -32 -4 -47 -18
-58 -14 -10 -41 -13 -94 -11 -53 2 -76 -1 -79 -10 -2 -7 12 -19 32 -27 19 -8
60 -15 90 -15 52 0 55 -1 65 -31 6 -18 11 -35 11 -40 0 -4 -58 -10 -130 -14
-71 -4 -130 -11 -130 -16 0 -4 14 -17 30 -29 28 -20 35 -21 100 -11 38 6 89
11 114 11 26 0 46 -5 46 -11 0 -6 -15 -29 -32 -51 -18 -22 -42 -50 -53 -62
-12 -11 -41 -37 -65 -56 -24 -19 -73 -61 -109 -93 -36 -31 -69 -57 -73 -57 -5
0 -11 6 -13 13 -3 6 -6 95 -8 197 -3 126 -8 194 -17 213 -11 23 -11 30 3 45 9
9 33 35 54 58 21 23 47 52 59 65 11 13 24 30 28 36 4 8 -7 27 -30 50 -35 35
-37 36 -51 17 -8 -10 -17 -30 -20 -44 -3 -14 -23 -44 -44 -67 -22 -24 -39 -48
-39 -54 0 -7 -9 -9 -24 -5 -21 5 -27 -1 -52 -51 -18 -37 -54 -84 -103 -131
-42 -40 -109 -103 -149 -139 -48 -43 -70 -69 -63 -76 6 -6 21 -2 43 14 18 12
56 41 83 64 28 23 61 48 74 54 13 7 50 38 83 68 48 44 62 52 74 42 8 -6 14
-21 14 -33 0 -12 -7 -33 -16 -46 -10 -14 -38 -47 -63 -73 -25 -27 -66 -63 -91
-80 -25 -17 -47 -33 -50 -37 -3 -3 -20 -12 -38 -19 -18 -8 -37 -22 -43 -32 -5
-11 -16 -19 -25 -19 -8 0 -26 -11 -39 -24 -13 -14 -32 -26 -42 -28 -10 -2 -19
-11 -21 -21 -2 -11 3 -17 16 -17 11 0 22 9 25 20 3 13 11 18 20 14 8 -3 30 2
48 10 19 9 53 27 76 40 23 13 61 39 84 57 24 19 64 56 90 83 33 34 52 47 64
43 10 -4 14 -14 11 -24 -2 -10 -8 -77 -11 -150 -6 -103 -11 -138 -26 -162 -16
-26 -22 -30 -38 -22 -10 6 -30 24 -44 41 -14 16 -30 30 -36 30 -6 0 -11 -9
-11 -19 0 -11 4 -21 8 -23 4 -1 18 -20 30 -41 12 -21 22 -46 22 -56 0 -10 10
-27 23 -39 13 -12 28 -22 34 -22 5 0 29 21 52 46 30 33 41 53 39 73 -1 14 2
33 7 41 5 8 10 22 10 30 0 8 16 22 35 31 19 9 53 33 75 54 22 20 52 43 68 51
20 11 27 22 27 44 0 20 5 30 15 30 8 0 15 -7 15 -15 0 -8 4 -15 8 -15 4 0 14
6 21 12 10 11 15 9 27 -7 11 -14 14 -33 10 -61 -3 -22 -1 -45 3 -50 5 -5 5
-36 1 -69 -5 -33 -9 -83 -9 -112 -1 -28 4 -55 10 -58 6 -4 21 3 35 16 13 12
24 30 24 40 0 9 6 21 13 27 6 6 40 16 74 23 60 12 64 12 86 -9 13 -12 28 -22
34 -22 7 0 21 14 33 31 20 28 22 43 23 180 1 124 -1 151 -15 165 -13 14 -25
14 -81 6 -36 -6 -76 -8 -89 -5 -13 2 -29 6 -36 9 -9 2 -6 14 9 44 12 22 27 40
35 40 7 0 23 13 35 29 21 28 21 28 117 24 53 -3 116 -2 139 2 30 4 43 11 43
22 0 9 -8 21 -17 28 -12 9 -41 11 -95 7 -67 -4 -78 -3 -78 11 0 9 8 33 18 53
13 28 14 38 5 41 -7 3 -13 9 -13 15 0 6 6 6 15 -2 12 -10 18 -10 30 0 8 7 15
18 15 26 0 7 9 18 20 24 11 6 20 17 20 26 0 8 -12 20 -27 27 -16 6 -34 20 -41
29 -7 10 -19 18 -25 18 -7 0 -20 -19 -29 -43 -9 -23 -19 -52 -23 -64 -3 -13
-16 -25 -28 -27 -12 -3 -33 -7 -47 -9 -14 -2 -32 -8 -41 -11 -10 -4 -23 0 -34
10 -12 12 -15 25 -10 43 4 14 9 49 12 77 3 37 1 53 -10 63 -9 6 -31 15 -51 18z
m109 -249 c38 -3 40 -5 38 -33 -1 -17 -12 -38 -24 -48 -15 -12 -35 -17 -58
-15 -35 3 -36 4 -33 38 2 19 11 41 20 48 9 7 35 12 57 10z m22 -319 c23 0 54
-4 70 -10 16 -7 23 -13 15 -16 -7 -3 -19 -21 -27 -40 -8 -19 -12 -40 -7 -47 4
-6 8 -31 9 -56 1 -25 3 -54 5 -64 2 -14 -5 -21 -27 -27 -16 -5 -53 -6 -81 -3
-29 4 -58 10 -64 14 -7 5 -14 23 -15 42 -2 18 2 41 7 51 5 10 20 17 36 17 15
0 34 5 42 10 12 7 12 12 3 21 -9 9 -18 10 -37 1 -18 -8 -27 -8 -34 1 -6 7 -13
24 -17 37 -4 18 -1 31 12 42 10 9 29 18 43 21 14 2 44 5 67 6z"/>
</g>
</svg>
