<?xml version="1.0" standalone="no"?>
<!DOCTYPE svg PUBLIC "-//W3C//DTD SVG 20010904//EN"
 "http://www.w3.org/TR/2001/REC-SVG-20010904/DTD/svg10.dtd">
<svg version="1.0" xmlns="http://www.w3.org/2000/svg"
 width="128.000000pt" height="128.000000pt" viewBox="0 0 128.000000 128.000000"
 preserveAspectRatio="xMidYMid meet">
<metadata>
Created by potrace 1.16, written by Peter Selinger 2001-2019
</metadata>
<g transform="translate(0.000000,128.000000) scale(0.100000,-0.100000)"
fill="#000000" stroke="none">
<path d="M710 1235 c-40 2 -52 -1 -60 -15 -7 -14 0 -23 36 -51 45 -33 45 -33
42 -124 -3 -90 -3 -90 -43 -96 -22 -4 -60 -13 -85 -21 -26 -8 -46 -21 -48 -30
-2 -11 13 -29 39 -48 35 -25 48 -29 77 -24 24 5 37 2 43 -7 5 -8 9 -35 9 -60
0 -26 -6 -51 -12 -57 -7 -5 -53 -12 -103 -15 -49 -3 -103 -10 -118 -16 -16 -6
-37 -11 -47 -11 -14 0 -21 9 -25 33 -4 18 0 72 9 121 14 82 18 90 61 132 41
41 45 49 45 94 0 45 -3 51 -31 66 -18 9 -41 13 -55 10 -20 -5 -24 -13 -24 -44
-1 -21 -9 -47 -19 -59 -12 -15 -39 -25 -82 -34 -35 -6 -70 -13 -77 -15 -8 -2
-12 -12 -10 -21 2 -12 14 -19 36 -21 17 -2 32 -9 32 -16 0 -7 -12 -23 -26 -37
-14 -13 -34 -40 -45 -60 -14 -28 -26 -38 -53 -43 -22 -4 -47 -20 -70 -46 -20
-22 -36 -44 -36 -49 0 -6 5 -13 10 -16 6 -3 10 -14 10 -24 0 -10 9 -21 20 -24
11 -3 31 4 48 17 16 11 47 41 70 65 23 24 42 50 42 58 0 7 9 13 19 13 11 0 23
-5 27 -11 3 -6 -4 -32 -17 -57 -13 -26 -41 -69 -64 -96 -22 -28 -50 -61 -63
-75 -12 -15 -37 -40 -54 -58 -18 -18 -42 -34 -53 -35 -18 -3 -20 -9 -17 -58 2
-33 12 -68 24 -88 19 -31 24 -33 57 -27 28 4 42 2 57 -12 11 -10 46 -48 77
-85 31 -37 59 -79 63 -92 4 -16 17 -29 37 -36 25 -8 34 -7 45 4 8 8 15 32 16
53 1 37 2 38 37 35 33 -2 38 2 90 69 29 39 61 81 69 93 8 12 25 34 36 49 12
15 29 27 38 27 10 0 19 -11 23 -30 3 -20 20 -41 47 -60 22 -17 51 -33 63 -36
12 -3 33 2 48 12 14 9 44 44 66 76 37 55 42 58 80 58 36 0 41 -3 50 -30 6 -16
15 -30 19 -30 4 0 17 -16 29 -35 14 -24 28 -35 43 -35 13 0 33 3 44 6 12 3 27
17 33 30 6 14 11 37 11 51 0 18 -14 40 -45 70 -25 23 -60 49 -79 57 -29 12
-40 12 -82 -2 -27 -8 -56 -20 -64 -27 -8 -6 -33 -22 -55 -34 -22 -13 -44 -29
-48 -37 -4 -8 -13 -14 -19 -14 -6 0 -25 12 -43 28 -17 15 -39 32 -48 37 -8 6
-18 20 -22 32 -5 18 4 33 38 70 24 27 60 69 80 94 37 46 37 46 118 52 69 6 87
4 119 -13 22 -11 59 -20 83 -20 24 0 47 3 50 6 3 4 2 15 -4 25 -5 10 -37 37
-70 60 -47 31 -66 39 -86 34 -14 -3 -45 -15 -69 -26 -24 -12 -48 -18 -54 -14
-5 3 -10 11 -10 17 0 6 23 35 50 64 28 29 50 59 50 66 0 8 -5 19 -12 26 -7 7
-29 12 -49 12 -31 0 -38 -4 -43 -25 -3 -13 -15 -29 -26 -35 -11 -6 -29 -28
-39 -49 -11 -20 -27 -43 -36 -51 -8 -7 -19 -10 -23 -6 -4 4 -6 38 -4 74 1 37
8 72 15 78 6 7 33 24 59 38 26 14 52 26 59 26 7 0 27 12 46 26 18 14 31 29 28
33 -2 5 -32 14 -66 20 -44 9 -65 9 -72 2 -6 -6 -19 -11 -29 -11 -17 0 -18 7
-12 79 7 79 7 79 -34 106 -29 19 -57 28 -92 30z m-4 -606 c5 0 15 -4 21 -10 9
-9 8 -20 -4 -43 -9 -17 -27 -42 -40 -56 -13 -14 -43 -47 -66 -75 -23 -27 -53
-66 -66 -85 -13 -19 -30 -42 -38 -50 -8 -8 -27 -30 -43 -49 -19 -22 -35 -31
-45 -27 -13 5 -15 30 -13 193 3 188 3 188 38 185 19 -1 64 -2 100 -3 36 0 83
4 105 9 22 5 45 10 51 11z m-407 -164 c12 -12 16 -43 18 -131 2 -116 2 -116
-24 -109 -14 3 -38 15 -52 26 -14 11 -36 28 -49 37 -23 17 -23 17 17 80 23 34
41 66 41 69 0 4 8 15 17 25 15 17 18 17 32 3z"/>
</g>
</svg>
