<?xml version="1.0" standalone="no"?>
<!DOCTYPE svg PUBLIC "-//W3C//DTD SVG 20010904//EN"
 "http://www.w3.org/TR/2001/REC-SVG-20010904/DTD/svg10.dtd">
<svg version="1.0" xmlns="http://www.w3.org/2000/svg"
 width="128.000000pt" height="128.000000pt" viewBox="0 0 128.000000 128.000000"
 preserveAspectRatio="xMidYMid meet">
<metadata>
Created by potrace 1.16, written by Peter Selinger 2001-2019
</metadata>
<g transform="translate(0.000000,128.000000) scale(0.100000,-0.100000)"
fill="#000000" stroke="none">
<path d="M777 1258 c-9 2 -37 -16 -62 -39 -25 -23 -45 -49 -45 -59 0 -9 11
-33 24 -52 13 -20 27 -59 31 -87 4 -28 4 -83 0 -121 -4 -38 -12 -76 -19 -86
-11 -14 -21 -15 -71 -8 -37 6 -62 15 -69 26 -9 15 -1 26 47 69 31 28 57 57 57
64 0 8 -11 30 -24 49 -17 26 -26 32 -35 23 -6 -6 -11 -22 -11 -37 0 -14 -11
-43 -23 -65 -12 -22 -29 -40 -37 -40 -12 0 -15 18 -17 90 -1 50 -3 109 -6 132
-2 22 -14 57 -26 76 -12 19 -28 37 -35 40 -8 3 -26 0 -40 -6 -14 -7 -26 -20
-26 -29 0 -10 11 -25 25 -34 14 -9 29 -33 35 -55 7 -26 7 -45 1 -58 -6 -10
-36 -36 -67 -56 -31 -21 -73 -41 -93 -46 -20 -5 -53 -9 -73 -9 -30 0 -38 -4
-38 -17 1 -10 16 -43 34 -73 18 -30 40 -56 48 -58 9 -2 32 11 51 28 19 16 43
47 52 68 10 20 31 52 48 70 17 17 35 32 39 32 4 0 8 -34 8 -75 0 -74 0 -74
-81 -137 -45 -35 -108 -87 -140 -116 -31 -30 -67 -74 -78 -98 -12 -24 -21 -63
-21 -86 0 -24 4 -49 9 -57 6 -10 21 -12 51 -8 26 3 53 15 69 30 14 14 57 48
96 76 38 28 73 51 78 51 4 0 10 -6 13 -14 3 -7 -14 -46 -38 -86 -24 -39 -65
-92 -93 -117 -27 -24 -53 -47 -58 -51 -4 -4 -19 -20 -33 -35 -13 -16 -43 -52
-64 -81 -22 -29 -40 -62 -40 -72 0 -11 5 -25 12 -32 7 -7 23 -12 37 -12 19 0
52 25 116 85 50 47 94 84 99 82 6 -2 11 -32 11 -68 1 -35 5 -88 9 -117 7 -49
10 -52 37 -52 17 0 32 7 38 19 6 10 11 126 12 269 2 252 2 252 55 293 29 22
61 39 70 37 9 -2 26 -15 37 -30 19 -26 19 -29 4 -90 -10 -40 -15 -88 -12 -128
3 -36 7 -88 10 -117 4 -29 15 -63 26 -77 11 -13 35 -34 55 -47 27 -16 38 -19
47 -10 7 7 12 32 12 56 0 30 -7 52 -22 72 -13 15 -33 46 -44 68 -13 23 -22 59
-23 89 -1 51 -1 51 52 57 29 4 65 15 80 24 15 10 52 45 83 78 40 44 60 59 72
54 9 -3 17 -13 17 -22 0 -9 -7 -31 -15 -50 -8 -20 -29 -44 -49 -56 -19 -11
-50 -43 -70 -72 -20 -29 -36 -55 -36 -59 0 -4 20 -30 45 -58 24 -28 52 -64 60
-80 12 -23 23 -30 44 -30 15 0 43 10 62 23 25 17 35 31 37 55 2 21 -4 43 -18
61 -11 16 -36 39 -55 51 -19 12 -35 27 -35 34 0 7 22 28 48 46 27 18 61 52 75
75 15 23 29 62 33 86 4 32 0 54 -13 78 -10 20 -34 43 -56 54 -37 19 -37 19
-105 -24 -37 -24 -99 -76 -138 -116 -40 -40 -79 -73 -88 -73 -14 0 -16 8 -10
52 4 29 16 91 26 138 10 47 22 99 26 115 6 22 17 33 42 42 19 7 64 12 98 12
37 1 78 8 98 17 18 9 45 26 59 39 14 13 25 31 25 40 0 8 -15 31 -33 51 -33 36
-33 36 -85 19 -34 -11 -66 -15 -92 -11 -21 3 -41 2 -45 -3 -3 -6 15 -22 40
-37 42 -24 45 -28 30 -44 -8 -9 -33 -22 -55 -29 -22 -7 -45 -9 -51 -5 -7 4 -9
22 -5 47 4 23 12 47 18 54 6 7 9 40 6 76 -2 36 -12 79 -24 102 -12 22 -28 41
-37 43z m-301 -458 c7 0 15 -7 18 -16 4 -10 -4 -28 -19 -46 -14 -17 -53 -48
-86 -69 -33 -22 -66 -39 -74 -39 -8 0 -15 4 -15 10 0 5 24 35 53 66 28 31 66
65 82 75 17 11 35 19 41 19z"/>
<path d="M974 79 c-10 0 -33 -7 -51 -15 -18 -7 -37 -22 -43 -33 -5 -11 -10
-22 -10 -25 0 -3 38 -6 85 -6 76 0 85 2 85 18 0 10 -10 28 -23 40 -13 12 -32
22 -43 21z"/>
</g>
</svg>
