<?xml version="1.0" standalone="no"?>
<!DOCTYPE svg PUBLIC "-//W3C//DTD SVG 20010904//EN"
 "http://www.w3.org/TR/2001/REC-SVG-20010904/DTD/svg10.dtd">
<svg version="1.0" xmlns="http://www.w3.org/2000/svg"
 width="128.000000pt" height="128.000000pt" viewBox="0 0 128.000000 128.000000"
 preserveAspectRatio="xMidYMid meet">
<metadata>
Created by potrace 1.16, written by Peter Selinger 2001-2019
</metadata>
<g transform="translate(0.000000,128.000000) scale(0.100000,-0.100000)"
fill="#000000" stroke="none">
<path d="M927 1256 c-30 4 -49 1 -67 -12 -14 -9 -29 -22 -35 -28 -5 -6 -33
-26 -61 -44 -28 -17 -54 -32 -58 -32 -5 0 -22 -7 -39 -15 -18 -8 -50 -15 -72
-17 -33 -3 -41 -7 -43 -26 -3 -16 -8 -22 -19 -18 -8 3 -35 -6 -59 -20 -24 -14
-49 -34 -54 -44 -5 -10 -21 -21 -34 -24 -17 -4 -36 1 -58 13 -26 17 -29 21
-15 27 10 4 17 17 17 33 0 14 -4 31 -8 37 -4 7 -36 19 -72 28 -56 14 -71 14
-110 3 -28 -8 -46 -19 -48 -30 -2 -10 2 -25 9 -33 7 -8 27 -21 45 -29 18 -7
42 -11 52 -8 11 2 23 -1 27 -8 5 -6 7 -26 7 -43 -1 -21 6 -36 20 -48 17 -12
19 -20 11 -30 -5 -7 -15 -34 -21 -59 -7 -26 -11 -89 -11 -140 0 -52 -4 -123
-9 -159 -6 -36 -11 -72 -11 -80 -1 -8 -5 -53 -11 -99 -9 -77 -8 -84 10 -100
10 -9 23 -32 28 -51 6 -25 14 -36 30 -38 12 -2 22 -8 22 -13 0 -6 12 -21 26
-34 15 -14 33 -25 40 -25 7 0 22 13 34 30 15 22 19 34 12 47 -7 12 -5 24 5 40
9 13 13 32 10 43 -3 10 1 27 9 37 7 10 14 24 14 31 0 8 -9 12 -22 10 -15 -2
-25 -12 -28 -28 -3 -14 -13 -36 -22 -50 -14 -19 -20 -22 -30 -12 -9 9 -9 15 0
24 7 7 12 20 12 30 0 9 5 29 12 43 9 19 19 25 45 25 22 0 33 5 33 15 0 8 9 19
20 25 11 6 20 17 20 25 0 7 -5 15 -12 17 -8 3 -9 12 0 36 6 17 7 34 2 37 -4 3
-4 24 2 47 5 24 16 50 24 59 8 8 14 23 14 31 0 9 -6 18 -14 21 -8 3 -26 -3
-39 -14 -20 -15 -28 -34 -36 -87 -6 -37 -10 -81 -9 -97 0 -17 -2 -40 -6 -53
-4 -12 -15 -22 -26 -22 -10 0 -22 9 -25 20 -3 11 -14 20 -24 20 -10 0 -24 7
-31 15 -10 12 -10 21 -2 38 9 18 11 19 11 5 1 -10 5 -18 10 -18 5 0 13 6 20
13 7 10 7 17 0 24 -8 8 -8 17 0 31 8 14 8 37 -1 79 -6 32 -15 63 -20 70 -5 7
-5 14 2 18 5 3 17 20 26 36 14 28 14 33 0 54 -9 14 -16 28 -16 34 0 5 16 12
35 15 20 4 35 13 35 21 0 7 10 15 23 17 12 2 35 -2 50 -10 20 -9 26 -17 19
-25 -6 -7 -12 -41 -13 -77 -4 -58 -2 -65 15 -65 10 0 24 8 30 17 8 13 8 23 -1
37 -11 17 -9 21 8 26 16 5 19 12 13 40 -3 19 -1 35 5 39 6 4 11 14 11 22 0 8
-6 14 -14 14 -8 0 -24 9 -37 19 -23 19 -23 19 -5 40 14 15 23 18 37 11 12 -7
26 -5 47 7 25 14 33 15 61 3 29 -11 32 -17 27 -41 -5 -24 -2 -28 22 -31 16 -2
26 -8 24 -17 -1 -7 5 -19 14 -26 12 -8 15 -19 10 -38 -4 -17 -13 -27 -25 -27
-10 0 -22 8 -25 17 -4 9 -2 21 4 27 5 5 10 14 10 18 0 4 -8 8 -18 8 -11 0 -24
11 -30 25 -6 14 -17 25 -23 25 -9 0 -9 -3 0 -14 8 -10 6 -19 -10 -40 -16 -20
-20 -37 -17 -71 2 -27 -1 -46 -8 -49 -6 -2 -14 -28 -18 -57 -4 -30 -11 -58
-16 -64 -4 -5 -7 -21 -6 -35 1 -19 8 -26 31 -31 30 -6 30 -6 3 -19 -15 -7 -30
-20 -33 -28 -4 -10 7 -27 29 -48 19 -18 38 -44 42 -58 3 -15 1 -32 -5 -40 -9
-10 -8 -15 4 -20 8 -3 15 -12 15 -19 0 -8 -7 -20 -15 -27 -9 -7 -14 -22 -13
-34 2 -14 -6 -25 -25 -34 -23 -11 -28 -19 -23 -38 3 -12 11 -35 16 -49 6 -17
17 -25 33 -25 13 0 36 13 52 30 24 25 27 34 18 48 -8 13 -7 22 2 35 7 9 25 17
40 17 23 0 27 3 23 24 -3 15 2 27 14 35 10 6 18 18 18 27 0 10 -6 14 -15 10
-9 -3 -15 0 -15 10 0 11 6 14 23 8 12 -3 25 -12 29 -19 4 -7 21 -18 38 -25 16
-7 30 -16 30 -21 0 -4 10 -11 23 -14 12 -4 31 -19 43 -33 14 -17 31 -25 54
-26 29 -1 35 -6 46 -40 8 -21 11 -49 8 -62 -4 -14 -15 -29 -25 -35 -11 -5 -19
-16 -19 -24 0 -7 -5 -17 -10 -20 -6 -3 -22 3 -37 15 -15 12 -34 18 -44 15 -10
-4 -42 -8 -71 -10 -29 -2 -56 -4 -60 -5 -5 0 -8 -7 -8 -15 0 -9 12 -20 28 -26
15 -6 46 -9 69 -6 24 2 62 1 86 -4 24 -4 61 -4 83 1 30 7 41 6 47 -6 4 -7 18
-14 30 -14 12 0 27 4 34 8 6 4 13 35 15 68 2 40 -2 67 -10 77 -8 9 -12 24 -10
34 1 10 -11 36 -27 58 -16 22 -41 50 -55 62 -14 12 -29 22 -35 23 -5 0 -41 12
-80 28 -38 15 -76 31 -83 36 -8 5 -12 19 -9 32 2 14 0 27 -5 30 -6 4 -5 10 3
15 8 5 24 9 37 9 14 0 38 -15 60 -39 20 -21 42 -46 47 -55 6 -10 27 -21 49
-26 21 -5 45 -6 53 -3 11 5 13 16 8 49 -3 24 -1 70 6 103 9 50 9 68 -5 113 -8
29 -20 108 -25 176 -5 67 -7 132 -4 143 3 11 -2 28 -13 40 -11 12 -31 27 -46
35 -15 8 -43 14 -63 14 -19 0 -35 -4 -35 -10 0 -5 -15 -10 -34 -10 -18 0 -47
-5 -65 -11 -17 -6 -41 -9 -54 -5 -12 3 -30 11 -41 19 -17 13 -16 15 18 35 21
12 46 22 56 22 12 0 20 8 22 22 2 13 11 24 21 26 10 2 27 -4 38 -14 17 -15 23
-16 62 -3 23 7 58 24 78 37 36 24 36 24 22 54 -9 16 -23 32 -32 34 -9 3 -24
10 -34 15 -9 5 -36 12 -60 15z m-187 -156 c5 0 12 -5 15 -11 4 -6 4 -13 1 -16
-3 -3 -12 -3 -21 1 -9 3 -13 10 -10 16 3 5 10 10 15 10z m-329 -130 c5 0 9 -3
9 -7 0 -5 -4 -14 -9 -22 -6 -9 -11 -10 -15 -2 -4 6 -4 16 -1 21 3 6 10 10 16
10z m421 -38 c9 -9 9 -15 0 -24 -6 -6 -15 -9 -18 -5 -4 3 -4 14 0 23 5 13 9
15 18 6z m115 -13 c22 1 36 -5 43 -18 7 -14 7 -22 -1 -27 -7 -4 -9 -24 -6 -55
5 -42 4 -49 -11 -49 -9 0 -28 9 -41 19 -20 15 -23 24 -18 55 5 33 4 37 -15 34
-12 -2 -23 2 -25 8 -2 6 7 16 19 22 13 6 37 11 55 11z m-653 -39 c8 0 18 -9
21 -21 4 -11 4 -23 1 -27 -3 -3 -13 3 -21 14 -8 10 -15 22 -15 27 0 4 6 7 14
7z m526 -60 c5 0 11 -4 15 -9 3 -5 1 -12 -5 -16 -5 -3 -15 -3 -20 0 -6 4 -8
11 -5 16 4 5 10 9 15 9z m-92 -40 c16 0 43 -7 59 -15 17 -9 36 -21 42 -29 8
-10 7 -17 -4 -26 -13 -11 -18 -10 -28 4 -12 16 -14 16 -31 -3 -11 -12 -25 -21
-33 -21 -7 0 -18 12 -23 26 -6 14 -10 34 -10 45 0 14 7 19 28 19z m221 -30
c10 0 23 -6 29 -12 5 -7 12 -33 16 -58 3 -25 6 -52 6 -60 0 -8 0 -31 0 -50 0
-19 3 -43 6 -54 6 -17 2 -18 -32 -11 -22 4 -57 15 -79 24 -22 10 -48 21 -57
24 -10 4 -18 16 -18 27 0 13 7 20 19 20 10 0 29 -10 42 -22 22 -21 26 -22 40
-7 10 10 14 27 12 46 -3 20 -15 36 -34 47 -16 9 -29 24 -29 32 0 8 11 19 24
24 13 5 27 14 31 19 3 6 14 11 24 11z m-301 -78 c26 -5 26 -5 2 -14 -13 -5
-31 -6 -39 -3 -12 5 -13 8 -3 14 8 4 25 6 40 3z m73 -92 c40 0 58 -4 62 -14 3
-8 1 -30 -5 -49 -6 -21 -21 -40 -35 -46 -13 -6 -28 -11 -33 -11 -5 0 -16 14
-25 30 -9 18 -23 30 -35 30 -13 0 -20 7 -20 20 0 10 8 24 18 29 9 6 42 11 73
11z m-25 -142 c8 -2 16 -7 17 -13 1 -5 -6 -11 -15 -13 -11 -2 -18 3 -18 13 0
10 6 15 16 13z"/>
</g>
</svg>
