<?xml version="1.0" standalone="no"?>
<!DOCTYPE svg PUBLIC "-//W3C//DTD SVG 20010904//EN"
 "http://www.w3.org/TR/2001/REC-SVG-20010904/DTD/svg10.dtd">
<svg version="1.0" xmlns="http://www.w3.org/2000/svg"
 width="128.000000pt" height="128.000000pt" viewBox="0 0 128.000000 128.000000"
 preserveAspectRatio="xMidYMid meet">
<metadata>
Created by potrace 1.16, written by Peter Selinger 2001-2019
</metadata>
<g transform="translate(0.000000,128.000000) scale(0.100000,-0.100000)"
fill="#000000" stroke="none">
<path d="M515 1280 c-19 0 -35 -4 -35 -10 0 -5 -21 -21 -47 -36 -27 -15 -62
-40 -79 -57 -18 -16 -40 -27 -50 -25 -10 1 -28 24 -41 50 -13 26 -32 50 -44
53 -11 4 -26 1 -34 -5 -8 -7 -15 -28 -15 -47 0 -19 8 -51 18 -71 10 -20 23
-46 29 -57 7 -11 14 -28 17 -37 3 -10 12 -18 21 -18 8 0 21 11 27 25 6 14 31
35 55 47 25 12 49 30 54 40 5 9 18 20 30 23 11 4 24 16 28 28 8 19 16 22 72
22 64 0 64 0 67 -31 2 -19 -3 -36 -12 -44 -9 -7 -16 -18 -16 -25 0 -7 -22 -37
-50 -66 -27 -30 -50 -57 -50 -61 0 -5 -16 -26 -36 -48 -27 -30 -35 -46 -32
-65 4 -18 0 -26 -14 -31 -10 -3 -26 -18 -35 -32 -9 -15 -36 -46 -60 -70 -24
-23 -50 -53 -59 -67 -8 -13 -16 -38 -16 -55 -1 -17 4 -36 10 -42 8 -8 18 -7
36 5 14 9 44 35 68 57 24 22 50 39 58 37 11 -2 14 -14 13 -47 -1 -25 -4 -83
-6 -130 -2 -47 -9 -95 -15 -107 -7 -12 -12 -31 -12 -42 0 -10 12 -28 27 -39
27 -20 27 -20 8 -62 -10 -23 -29 -49 -42 -57 -20 -13 -24 -13 -44 6 -23 21
-23 21 -2 21 12 0 28 3 37 6 9 3 16 16 16 29 0 12 -7 28 -15 35 -12 10 -21 7
-50 -19 -30 -26 -44 -31 -88 -31 -29 0 -58 -5 -65 -12 -7 -7 -12 -18 -12 -25
0 -7 15 -22 33 -34 26 -16 42 -19 86 -14 30 4 60 9 68 12 9 4 13 -4 13 -24 0
-16 7 -38 15 -49 8 -10 15 -28 15 -39 0 -12 5 -26 12 -33 7 -7 22 -12 35 -12
13 0 24 6 25 13 1 6 3 30 5 52 2 22 4 63 4 92 0 29 4 55 9 58 6 3 10 23 10 44
0 24 10 53 29 82 15 25 50 59 77 76 27 18 68 47 92 65 23 18 58 45 76 61 19
15 38 27 43 27 5 0 19 -10 31 -23 12 -13 22 -27 22 -32 0 -5 7 -16 15 -25 14
-15 13 -24 -5 -81 -11 -35 -20 -71 -20 -80 0 -9 17 -32 38 -52 20 -20 47 -50
60 -66 23 -30 23 -30 -25 -56 -26 -14 -70 -39 -98 -54 -27 -16 -51 -35 -53
-43 -2 -9 4 -18 13 -22 9 -3 37 -1 63 5 26 7 55 19 65 27 10 9 33 17 51 18 19
2 52 10 73 19 21 9 58 20 83 23 39 6 45 11 48 34 3 23 -4 29 -73 62 -42 20
-81 36 -88 36 -7 0 -21 6 -31 13 -17 12 -17 17 8 88 14 42 26 85 26 96 0 13
-17 33 -46 54 -26 19 -57 44 -70 56 -13 12 -26 34 -30 49 -5 21 -2 31 14 43
12 9 42 31 67 50 25 18 45 37 45 43 0 5 10 22 22 39 23 30 23 31 4 45 -11 8
-36 14 -55 14 -29 0 -43 -8 -77 -46 -23 -25 -47 -58 -54 -73 -6 -15 -24 -35
-41 -45 -16 -10 -37 -15 -45 -12 -9 4 -14 21 -14 53 0 26 -6 64 -13 84 -7 20
-19 44 -27 54 -11 13 -24 16 -54 12 -23 -3 -64 -22 -99 -47 -33 -22 -66 -39
-74 -36 -7 3 -16 13 -20 23 -4 10 -1 19 7 21 7 3 35 27 62 55 26 27 57 65 69
83 11 19 24 34 28 34 4 0 26 16 48 35 29 25 44 47 52 80 9 37 9 50 -4 75 -8
16 -25 36 -37 44 -12 9 -37 16 -55 16 -18 0 -33 5 -33 10 0 6 -16 10 -35 10z
m56 -490 c12 0 18 -14 23 -61 3 -34 6 -79 6 -100 0 -21 5 -41 10 -44 6 -3 10
-14 10 -23 -1 -9 -18 -36 -38 -60 -21 -23 -52 -46 -70 -51 -30 -9 -32 -8 -38
25 -3 19 -3 49 0 67 4 17 7 41 8 52 0 11 -3 37 -7 57 -4 20 -5 48 -1 62 3 14
23 37 43 51 21 14 45 25 54 25z"/>
</g>
</svg>
