<?xml version="1.0" standalone="no"?>
<!DOCTYPE svg PUBLIC "-//W3C//DTD SVG 20010904//EN"
 "http://www.w3.org/TR/2001/REC-SVG-20010904/DTD/svg10.dtd">
<svg version="1.0" xmlns="http://www.w3.org/2000/svg"
 width="56.000000pt" height="56.000000pt" viewBox="0 0 56.000000 56.000000"
 preserveAspectRatio="xMidYMid meet">
<metadata>
Created by potrace 1.16, written by Peter Selinger 2001-2019
</metadata>
<g transform="translate(0.000000,56.000000) scale(0.100000,-0.100000)"
fill="#000000" stroke="none">
<path d="M215 560 c-28 0 -35 -4 -35 -19 0 -10 20 -37 44 -59 43 -40 43 -40
13 -71 -25 -25 -28 -31 -15 -36 9 -4 38 8 69 27 30 19 62 33 71 30 9 -2 21 5
27 16 8 14 5 24 -15 45 -13 14 -41 31 -61 36 -21 6 -44 11 -50 11 -7 0 -13 5
-13 10 0 6 -16 10 -35 10z"/>
<path d="M162 249 c-11 6 -22 7 -26 4 -3 -3 -6 -23 -6 -43 0 -23 8 -48 22 -66
12 -16 45 -51 73 -77 27 -26 60 -52 73 -58 13 -5 43 -9 68 -9 36 0 44 3 44 18
0 10 -6 26 -13 36 -8 11 -31 20 -60 23 -27 3 -53 13 -63 24 -9 11 -22 19 -28
19 -7 0 -26 19 -44 42 -20 26 -30 49 -27 59 4 11 -1 22 -13 28z"/>
</g>
</svg>
