<?xml version="1.0" standalone="no"?>
<!DOCTYPE svg PUBLIC "-//W3C//DTD SVG 20010904//EN"
 "http://www.w3.org/TR/2001/REC-SVG-20010904/DTD/svg10.dtd">
<svg version="1.0" xmlns="http://www.w3.org/2000/svg"
 width="56.000000pt" height="56.000000pt" viewBox="0 0 56.000000 56.000000"
 preserveAspectRatio="xMidYMid meet">
<metadata>
Created by potrace 1.16, written by Peter Selinger 2001-2019
</metadata>
<g transform="translate(0.000000,56.000000) scale(0.100000,-0.100000)"
fill="#000000" stroke="none">
<path d="M355 560 c-8 0 -15 -3 -15 -7 0 -5 -15 -16 -33 -27 -21 -12 -60 -20
-117 -23 -47 -3 -89 -9 -94 -13 -4 -5 -5 -13 -2 -18 3 -6 29 -18 56 -27 30
-10 50 -23 50 -31 0 -8 -11 -26 -24 -39 -13 -12 -33 -39 -45 -59 -14 -22 -20
-43 -16 -56 4 -11 2 -20 -4 -20 -6 0 -11 -18 -11 -40 0 -35 4 -44 29 -58 17
-9 32 -25 35 -34 3 -13 14 -18 43 -18 22 0 43 3 46 7 4 3 2 12 -4 19 -7 8 -7
14 1 19 5 3 14 4 20 0 5 -3 7 -12 3 -21 -3 -8 3 -21 13 -29 18 -13 18 -15 -8
-42 -16 -16 -28 -32 -28 -36 0 -4 9 -7 21 -7 11 0 34 8 50 17 16 10 32 25 35
35 3 10 10 18 16 18 5 0 28 14 49 31 25 19 39 39 39 53 0 13 -9 31 -21 42 -20
18 -22 18 -81 -4 -33 -12 -65 -19 -70 -16 -5 3 -18 -2 -28 -11 -11 -10 -26
-15 -35 -11 -8 3 -20 18 -26 33 -6 15 -15 36 -20 45 -5 10 -5 28 2 44 5 15 8
33 5 41 -3 7 -1 13 5 13 6 0 37 26 69 58 41 40 73 61 104 71 26 7 47 18 47 25
1 6 0 18 -1 26 -1 8 -10 23 -21 33 -10 9 -25 17 -34 17z"/>
</g>
</svg>
