<?xml version="1.0" standalone="no"?>
<!DOCTYPE svg PUBLIC "-//W3C//DTD SVG 20010904//EN"
 "http://www.w3.org/TR/2001/REC-SVG-20010904/DTD/svg10.dtd">
<svg version="1.0" xmlns="http://www.w3.org/2000/svg"
 width="56.000000pt" height="56.000000pt" viewBox="0 0 56.000000 56.000000"
 preserveAspectRatio="xMidYMid meet">
<metadata>
Created by potrace 1.16, written by Peter Selinger 2001-2019
</metadata>
<g transform="translate(0.000000,56.000000) scale(0.100000,-0.100000)"
fill="#000000" stroke="none">
<path d="M384 559 c-5 -1 -29 -12 -54 -24 -25 -13 -55 -24 -66 -24 -12 -1 -27
-8 -34 -16 -7 -8 -22 -15 -34 -15 -11 0 -36 9 -54 20 -18 11 -37 20 -43 20 -6
0 -24 -14 -40 -31 -16 -17 -29 -34 -29 -38 0 -4 11 -13 25 -19 14 -7 28 -18
31 -26 3 -8 -11 -45 -30 -82 -36 -68 -36 -70 -25 -129 6 -33 15 -67 19 -76 5
-8 28 -21 52 -29 24 -7 68 -14 98 -15 30 -1 58 -3 61 -3 4 -1 10 -9 13 -18 3
-8 1 -24 -4 -35 -9 -16 -7 -19 8 -19 10 0 38 16 61 36 38 33 49 37 101 38 32
1 65 8 74 15 9 7 16 17 16 22 0 5 -16 25 -35 45 -29 29 -41 35 -63 31 -15 -3
-61 -13 -102 -21 -41 -9 -92 -17 -112 -18 -21 -1 -55 7 -77 16 -22 11 -42 27
-45 40 -3 11 -6 33 -6 49 0 15 8 42 18 61 10 18 30 48 45 65 18 22 47 38 89
52 35 12 67 24 71 29 5 4 25 3 44 -2 19 -5 46 -7 59 -4 17 5 24 13 24 31 0 13
-11 35 -24 49 -13 15 -27 26 -32 25z"/>
</g>
</svg>
