<?xml version="1.0" standalone="no"?>
<!DOCTYPE svg PUBLIC "-//W3C//DTD SVG 20010904//EN"
 "http://www.w3.org/TR/2001/REC-SVG-20010904/DTD/svg10.dtd">
<svg version="1.0" xmlns="http://www.w3.org/2000/svg"
 width="56.000000pt" height="56.000000pt" viewBox="0 0 56.000000 56.000000"
 preserveAspectRatio="xMidYMid meet">
<metadata>
Created by potrace 1.16, written by Peter Selinger 2001-2019
</metadata>
<g transform="translate(0.000000,56.000000) scale(0.100000,-0.100000)"
fill="#000000" stroke="none">
<path d="M159 560 c-22 0 -29 -5 -29 -18 0 -11 8 -26 18 -34 9 -8 31 -22 47
-29 21 -10 30 -22 30 -39 1 -23 4 -25 40 -23 22 1 56 5 75 8 19 4 41 12 48 17
6 6 12 23 12 38 0 15 -9 39 -21 54 -11 14 -29 26 -39 26 -10 0 -20 -5 -22 -11
-2 -6 -30 -11 -63 -11 -36 0 -61 4 -63 11 -2 6 -17 11 -33 11z"/>
<path d="M141 250 c-6 0 -11 -18 -11 -40 0 -24 11 -61 27 -91 16 -31 44 -64
72 -85 42 -31 52 -34 119 -34 56 0 72 3 72 14 0 8 -4 26 -9 39 -6 14 -23 29
-42 36 -17 6 -49 11 -70 11 -20 0 -51 8 -68 17 -20 12 -38 37 -55 75 -13 32
-29 58 -35 58z"/>
</g>
</svg>
