<?xml version="1.0" standalone="no"?>
<!DOCTYPE svg PUBLIC "-//W3C//DTD SVG 20010904//EN"
 "http://www.w3.org/TR/2001/REC-SVG-20010904/DTD/svg10.dtd">
<svg version="1.0" xmlns="http://www.w3.org/2000/svg"
 width="56.000000pt" height="56.000000pt" viewBox="0 0 56.000000 56.000000"
 preserveAspectRatio="xMidYMid meet">
<metadata>
Created by potrace 1.16, written by Peter Selinger 2001-2019
</metadata>
<g transform="translate(0.000000,56.000000) scale(0.100000,-0.100000)"
fill="#000000" stroke="none">
<path d="M241 560 c-10 0 -21 -9 -24 -20 -3 -13 1 -24 14 -30 10 -6 19 -20 19
-32 0 -19 -4 -20 -55 -14 -53 6 -55 5 -46 -13 6 -10 25 -21 42 -25 17 -3 42
-6 55 -6 18 0 24 -7 30 -35 3 -19 4 -42 0 -50 -4 -10 -20 -15 -54 -15 -26 0
-57 -6 -68 -14 -13 -10 -16 -18 -9 -25 6 -6 26 -11 45 -12 19 -2 47 -11 62
-21 14 -10 33 -18 40 -18 8 0 23 8 32 19 14 15 16 31 10 99 -7 80 -7 80 22 84
17 2 29 9 29 18 0 8 -15 18 -32 24 -18 5 -33 14 -33 21 0 6 -13 24 -30 38 -16
15 -38 27 -49 27z"/>
<path d="M28 280 c-4 0 -9 -4 -12 -8 -3 -5 12 -28 33 -50 30 -34 40 -56 51
-110 7 -37 18 -77 23 -89 6 -13 18 -23 27 -23 13 0 18 18 27 93 6 50 9 94 6
97 -2 2 -13 -2 -24 -9 -19 -11 -26 -7 -73 43 -28 31 -55 56 -58 56z"/>
<path d="M405 260 c-2 0 -7 -5 -10 -11 -4 -6 2 -21 14 -33 12 -12 21 -27 21
-33 0 -6 -22 -25 -49 -43 -27 -17 -54 -37 -60 -44 -9 -10 -8 -15 2 -19 8 -3
40 3 72 14 32 10 64 19 71 19 7 0 25 5 39 12 21 9 25 18 23 42 -3 25 -13 36
-62 63 -32 18 -60 33 -61 33z"/>
</g>
</svg>
