<?xml version="1.0" standalone="no"?>
<!DOCTYPE svg PUBLIC "-//W3C//DTD SVG 20010904//EN"
 "http://www.w3.org/TR/2001/REC-SVG-20010904/DTD/svg10.dtd">
<svg version="1.0" xmlns="http://www.w3.org/2000/svg"
 width="56.000000pt" height="56.000000pt" viewBox="0 0 56.000000 56.000000"
 preserveAspectRatio="xMidYMid meet">
<metadata>
Created by potrace 1.16, written by Peter Selinger 2001-2019
</metadata>
<g transform="translate(0.000000,56.000000) scale(0.100000,-0.100000)"
fill="#000000" stroke="none">
<path d="M80 560 c-11 0 -20 -4 -20 -9 0 -5 7 -14 15 -21 8 -7 15 -17 15 -22
0 -6 13 -22 28 -36 16 -15 34 -37 40 -49 7 -12 25 -24 42 -28 21 -5 30 -13 30
-26 0 -12 -34 -53 -81 -99 -76 -74 -81 -81 -75 -111 3 -18 2 -37 -3 -43 -5 -6
-6 -27 -2 -46 6 -30 12 -36 41 -41 19 -3 46 -11 60 -16 17 -7 43 -6 85 2 33 7
73 16 88 20 24 6 29 4 34 -14 5 -18 13 -21 60 -21 55 0 55 0 48 33 -4 17 -15
43 -24 57 -10 14 -30 29 -45 35 -19 6 -36 5 -59 -4 -18 -7 -43 -14 -57 -16
-14 -2 -41 -6 -60 -10 -24 -5 -49 -2 -73 9 -24 9 -37 22 -37 33 0 10 8 30 17
43 9 14 27 34 40 45 13 11 23 26 23 32 0 6 9 15 20 18 11 4 41 22 65 41 25 19
50 34 55 34 6 0 20 6 33 12 12 7 39 29 60 48 20 19 37 37 37 41 0 4 -24 13
-54 20 -41 9 -62 9 -83 1 -15 -7 -39 -11 -53 -11 -14 1 -47 6 -75 11 -29 6
-59 20 -73 34 -13 13 -27 24 -32 24 -6 0 -10 7 -10 15 0 8 -9 15 -20 15z m290
-475 c5 -3 6 -13 3 -21 -4 -10 -9 -12 -15 -6 -6 6 -7 15 -3 21 3 6 10 9 15 6z"/>
</g>
</svg>
