<?xml version="1.0" standalone="no"?>
<!DOCTYPE svg PUBLIC "-//W3C//DTD SVG 20010904//EN"
 "http://www.w3.org/TR/2001/REC-SVG-20010904/DTD/svg10.dtd">
<svg version="1.0" xmlns="http://www.w3.org/2000/svg"
 width="56.000000pt" height="56.000000pt" viewBox="0 0 56.000000 56.000000"
 preserveAspectRatio="xMidYMid meet">
<metadata>
Created by potrace 1.16, written by Peter Selinger 2001-2019
</metadata>
<g transform="translate(0.000000,56.000000) scale(0.100000,-0.100000)"
fill="#000000" stroke="none">
<path d="M263 529 c-16 -1 -41 -4 -58 -8 -16 -4 -40 -13 -53 -20 -13 -7 -21
-18 -19 -24 2 -7 46 -17 108 -24 68 -7 107 -8 114 -2 7 7 -3 22 -27 45 -25 23
-47 34 -65 33z"/>
<path d="M41 280 c-4 0 -11 -3 -14 -7 -4 -3 -7 -16 -7 -28 0 -13 21 -50 48
-83 34 -44 64 -70 107 -92 52 -27 76 -32 175 -40 63 -5 130 -6 149 -2 19 4 36
13 39 20 2 6 -10 25 -26 42 -29 29 -34 30 -117 30 -70 0 -102 6 -173 31 -48
16 -99 40 -113 53 -15 13 -34 35 -44 49 -9 15 -21 27 -24 27z"/>
</g>
</svg>
