<?xml version="1.0" standalone="no"?>
<!DOCTYPE svg PUBLIC "-//W3C//DTD SVG 20010904//EN"
 "http://www.w3.org/TR/2001/REC-SVG-20010904/DTD/svg10.dtd">
<svg version="1.0" xmlns="http://www.w3.org/2000/svg"
 width="56.000000pt" height="56.000000pt" viewBox="0 0 56.000000 56.000000"
 preserveAspectRatio="xMidYMid meet">
<metadata>
Created by potrace 1.16, written by Peter Selinger 2001-2019
</metadata>
<g transform="translate(0.000000,56.000000) scale(0.100000,-0.100000)"
fill="#000000" stroke="none">
<path d="M389 500 c-9 0 -22 -7 -29 -15 -7 -8 -20 -15 -29 -15 -10 0 -40 -7
-67 -16 -27 -8 -60 -22 -75 -29 -18 -10 -36 -11 -65 -5 -21 5 -47 7 -56 4 -10
-3 -18 -11 -18 -18 0 -8 7 -19 15 -26 8 -7 15 -18 15 -24 0 -7 -11 -27 -25
-46 -16 -21 -25 -47 -25 -70 0 -20 -4 -40 -9 -45 -5 -6 -7 -43 -4 -82 5 -57 9
-74 23 -78 10 -3 91 1 180 10 148 14 164 14 180 0 13 -11 33 -15 66 -13 42 3
51 7 62 30 7 16 17 28 23 28 5 0 9 14 9 30 0 17 -4 30 -8 30 -5 0 -14 11 -20
25 -6 14 -17 25 -23 25 -7 0 -20 -6 -28 -14 -9 -7 -43 -23 -77 -35 -33 -11
-75 -21 -92 -21 -18 0 -49 -7 -69 -15 -22 -9 -49 -13 -69 -9 -19 3 -40 16 -49
30 -8 13 -15 41 -15 63 0 22 5 52 11 68 5 15 22 40 37 56 23 24 33 27 91 27
35 0 104 5 153 11 74 10 88 15 94 32 5 16 -4 30 -42 63 -27 24 -56 43 -65 44z"/>
</g>
</svg>
