<?xml version="1.0" standalone="no"?>
<!DOCTYPE svg PUBLIC "-//W3C//DTD SVG 20010904//EN"
 "http://www.w3.org/TR/2001/REC-SVG-20010904/DTD/svg10.dtd">
<svg version="1.0" xmlns="http://www.w3.org/2000/svg"
 width="56.000000pt" height="56.000000pt" viewBox="0 0 56.000000 56.000000"
 preserveAspectRatio="xMidYMid meet">
<metadata>
Created by potrace 1.16, written by Peter Selinger 2001-2019
</metadata>
<g transform="translate(0.000000,56.000000) scale(0.100000,-0.100000)"
fill="#000000" stroke="none">
<path d="M124 560 c-10 0 -14 -16 -16 -57 -1 -32 0 -76 1 -98 2 -27 12 -53 33
-78 25 -32 28 -40 17 -55 -7 -9 -25 -30 -40 -47 -15 -16 -30 -44 -34 -62 -4
-22 -1 -44 11 -68 9 -20 30 -50 47 -66 30 -30 30 -30 131 -26 55 3 119 8 140
13 21 5 44 17 50 26 8 13 7 21 -4 31 -8 7 -34 22 -58 32 -42 18 -43 18 -85 -2
-23 -12 -63 -24 -88 -27 -43 -6 -49 -4 -68 20 -12 15 -21 39 -21 55 0 21 13
38 55 75 31 26 79 58 108 71 29 14 60 32 69 40 10 9 18 24 18 34 0 9 -14 26
-31 37 -26 16 -37 18 -61 10 -16 -6 -48 -7 -71 -4 -22 4 -47 12 -54 18 -7 6
-13 23 -13 38 0 15 -5 41 -11 59 -6 17 -17 31 -25 31z"/>
</g>
</svg>
