<?xml version="1.0" standalone="no"?>
<!DOCTYPE svg PUBLIC "-//W3C//DTD SVG 20010904//EN"
 "http://www.w3.org/TR/2001/REC-SVG-20010904/DTD/svg10.dtd">
<svg version="1.0" xmlns="http://www.w3.org/2000/svg"
 width="56.000000pt" height="56.000000pt" viewBox="0 0 56.000000 56.000000"
 preserveAspectRatio="xMidYMid meet">
<metadata>
Created by potrace 1.16, written by Peter Selinger 2001-2019
</metadata>
<g transform="translate(0.000000,56.000000) scale(0.100000,-0.100000)"
fill="#000000" stroke="none">
<path d="M220 533 c-14 23 -19 25 -24 12 -3 -9 -6 -36 -6 -59 0 -28 7 -52 20
-69 19 -24 20 -37 16 -194 -2 -92 -7 -180 -11 -195 -7 -25 -5 -28 18 -28 22 0
28 6 37 40 6 22 10 95 9 163 -1 68 1 129 5 135 4 7 15 12 25 12 10 0 26 11 35
25 9 13 16 31 16 40 0 8 -17 22 -37 30 -21 9 -49 26 -62 38 -13 12 -31 35 -41
50z"/>
</g>
</svg>
