<?xml version="1.0" standalone="no"?>
<!DOCTYPE svg PUBLIC "-//W3C//DTD SVG 20010904//EN"
 "http://www.w3.org/TR/2001/REC-SVG-20010904/DTD/svg10.dtd">
<svg version="1.0" xmlns="http://www.w3.org/2000/svg"
 width="56.000000pt" height="56.000000pt" viewBox="0 0 56.000000 56.000000"
 preserveAspectRatio="xMidYMid meet">
<metadata>
Created by potrace 1.16, written by Peter Selinger 2001-2019
</metadata>
<g transform="translate(0.000000,56.000000) scale(0.100000,-0.100000)"
fill="#000000" stroke="none">
<path d="M295 530 c-6 0 -29 -18 -49 -41 -21 -22 -45 -39 -54 -37 -10 2 -18
14 -20 26 -2 13 -8 22 -15 19 -6 -2 -15 -10 -20 -19 -6 -8 -7 -27 -3 -42 4
-15 20 -35 37 -44 20 -11 29 -24 27 -37 -2 -15 -13 -21 -42 -26 -22 -4 -45
-15 -53 -25 -7 -10 -13 -42 -13 -70 0 -29 5 -64 11 -77 6 -12 19 -29 30 -36
15 -9 29 -9 53 -1 18 6 44 23 58 38 14 15 34 43 46 63 12 19 31 44 42 54 20
18 21 18 41 -2 21 -21 21 -21 -26 -117 -25 -52 -50 -109 -55 -126 -8 -28 -7
-30 20 -30 27 0 33 8 78 98 27 53 54 106 62 118 11 17 10 25 -5 48 -10 15 -31
34 -46 42 -15 7 -36 14 -46 14 -10 0 -29 -9 -43 -20 -14 -11 -31 -20 -39 -20
-9 0 -11 8 -8 23 3 12 9 43 12 70 4 27 15 53 25 60 9 6 20 25 24 40 4 18 2 34
-5 43 -6 8 -17 14 -24 14z m-135 -220 c5 0 23 -18 40 -40 26 -33 30 -43 20
-55 -7 -8 -28 -15 -46 -15 -33 0 -34 1 -34 39 0 22 3 46 6 55 3 9 10 16 14 16z"/>
</g>
</svg>
