<?xml version="1.0" standalone="no"?>
<!DOCTYPE svg PUBLIC "-//W3C//DTD SVG 20010904//EN"
 "http://www.w3.org/TR/2001/REC-SVG-20010904/DTD/svg10.dtd">
<svg version="1.0" xmlns="http://www.w3.org/2000/svg"
 width="56.000000pt" height="56.000000pt" viewBox="0 0 56.000000 56.000000"
 preserveAspectRatio="xMidYMid meet">
<metadata>
Created by potrace 1.16, written by Peter Selinger 2001-2019
</metadata>
<g transform="translate(0.000000,56.000000) scale(0.100000,-0.100000)"
fill="#000000" stroke="none">
<path d="M30 540 c-9 0 -19 -2 -22 -5 -3 -3 0 -21 7 -41 6 -19 17 -40 23 -46
6 -6 37 -13 69 -17 43 -4 59 -10 61 -23 2 -12 -7 -20 -35 -27 -22 -6 -51 -23
-65 -38 -14 -16 -31 -38 -37 -50 -8 -15 -8 -36 1 -78 10 -50 16 -60 52 -83 38
-25 49 -27 138 -26 54 0 98 -3 98 -8 0 -5 -22 -23 -50 -40 -27 -17 -47 -35
-44 -40 4 -6 31 -7 67 -3 42 5 94 23 164 57 79 37 103 53 103 68 0 11 -4 20
-9 20 -5 0 -13 9 -16 20 -3 11 -15 24 -25 30 -12 7 -53 5 -127 -5 -59 -9 -133
-18 -163 -21 -44 -4 -61 -1 -87 15 -18 11 -35 32 -39 47 -6 23 0 33 34 65 23
20 56 42 74 48 18 6 69 15 112 21 44 6 85 15 92 21 6 5 15 25 18 44 4 19 2 44
-4 55 -9 17 -21 20 -68 20 -31 -1 -86 -6 -122 -13 -53 -11 -76 -11 -114 -1
-27 7 -53 17 -59 23 -6 6 -18 11 -27 11z"/>
</g>
</svg>
