<?xml version="1.0" standalone="no"?>
<!DOCTYPE svg PUBLIC "-//W3C//DTD SVG 20010904//EN"
 "http://www.w3.org/TR/2001/REC-SVG-20010904/DTD/svg10.dtd">
<svg version="1.0" xmlns="http://www.w3.org/2000/svg"
 width="56.000000pt" height="56.000000pt" viewBox="0 0 56.000000 56.000000"
 preserveAspectRatio="xMidYMid meet">
<metadata>
Created by potrace 1.16, written by Peter Selinger 2001-2019
</metadata>
<g transform="translate(0.000000,56.000000) scale(0.100000,-0.100000)"
fill="#000000" stroke="none">
<path d="M110 560 c-11 0 -20 -2 -20 -4 0 -2 10 -23 23 -46 12 -24 46 -64 75
-91 51 -47 56 -49 112 -49 53 0 58 2 64 25 4 14 2 34 -4 44 -6 11 -25 21 -47
24 -21 3 -59 9 -86 13 -35 5 -54 14 -72 36 -14 16 -25 34 -25 39 0 5 -9 9 -20
9z"/>
<path d="M147 308 c-14 3 -17 -6 -17 -57 0 -33 5 -72 12 -86 6 -14 45 -50 87
-81 41 -31 93 -63 115 -70 21 -8 49 -14 62 -14 12 0 30 10 38 21 8 12 12 27 9
35 -3 7 -29 25 -59 39 -30 14 -79 36 -108 50 -37 18 -63 38 -78 63 -13 20 -28
50 -34 67 -6 16 -18 31 -27 33z"/>
</g>
</svg>
