<?xml version="1.0" standalone="no"?>
<!DOCTYPE svg PUBLIC "-//W3C//DTD SVG 20010904//EN"
 "http://www.w3.org/TR/2001/REC-SVG-20010904/DTD/svg10.dtd">
<svg version="1.0" xmlns="http://www.w3.org/2000/svg"
 width="56.000000pt" height="56.000000pt" viewBox="0 0 56.000000 56.000000"
 preserveAspectRatio="xMidYMid meet">
<metadata>
Created by potrace 1.16, written by Peter Selinger 2001-2019
</metadata>
<g transform="translate(0.000000,56.000000) scale(0.100000,-0.100000)"
fill="#000000" stroke="none">
<path d="M143 560 c-7 0 -13 -9 -13 -21 0 -11 10 -35 22 -52 13 -18 31 -42 41
-54 11 -12 30 -24 44 -28 14 -3 33 -3 44 0 10 4 19 12 19 19 0 7 -10 22 -23
34 -13 12 -28 22 -33 22 -6 0 -22 6 -37 13 -15 6 -33 24 -40 40 -6 15 -18 27
-24 27z"/>
<path d="M161 344 c-14 13 -21 14 -26 6 -4 -7 -3 -29 3 -49 6 -20 17 -58 24
-85 8 -29 28 -66 52 -93 21 -24 58 -52 82 -63 23 -11 54 -20 68 -20 13 0 31 3
40 6 9 3 16 14 16 24 0 9 -8 24 -18 33 -10 10 -24 17 -31 17 -7 0 -40 15 -74
32 -43 23 -68 45 -89 77 -15 25 -28 57 -28 71 0 15 -9 35 -19 44z"/>
</g>
</svg>
