<?xml version="1.0" standalone="no"?>
<!DOCTYPE svg PUBLIC "-//W3C//DTD SVG 20010904//EN"
 "http://www.w3.org/TR/2001/REC-SVG-20010904/DTD/svg10.dtd">
<svg version="1.0" xmlns="http://www.w3.org/2000/svg"
 width="56.000000pt" height="56.000000pt" viewBox="0 0 56.000000 56.000000"
 preserveAspectRatio="xMidYMid meet">
<metadata>
Created by potrace 1.16, written by Peter Selinger 2001-2019
</metadata>
<g transform="translate(0.000000,56.000000) scale(0.100000,-0.100000)"
fill="#000000" stroke="none">
<path d="M321 559 c-22 0 -44 -8 -55 -20 -13 -12 -33 -19 -58 -19 -25 0 -38
-5 -38 -13 0 -8 11 -20 25 -27 22 -12 30 -11 59 3 19 8 37 13 40 10 3 -3 -2
-19 -11 -34 -10 -16 -21 -29 -25 -29 -4 0 -8 -8 -8 -19 0 -10 -7 -35 -15 -55
-11 -27 -15 -67 -13 -158 2 -68 -1 -140 -6 -160 -8 -36 -7 -38 16 -38 17 0 29
8 36 25 8 16 12 83 12 174 0 108 4 158 15 183 8 20 31 57 51 83 32 43 35 50
23 71 -10 19 -20 24 -48 23z"/>
</g>
</svg>
