<?xml version="1.0" standalone="no"?>
<!DOCTYPE svg PUBLIC "-//W3C//DTD SVG 20010904//EN"
 "http://www.w3.org/TR/2001/REC-SVG-20010904/DTD/svg10.dtd">
<svg version="1.0" xmlns="http://www.w3.org/2000/svg"
 width="56.000000pt" height="56.000000pt" viewBox="0 0 56.000000 56.000000"
 preserveAspectRatio="xMidYMid meet">
<metadata>
Created by potrace 1.16, written by Peter Selinger 2001-2019
</metadata>
<g transform="translate(0.000000,56.000000) scale(0.100000,-0.100000)"
fill="#000000" stroke="none">
<path d="M139 560 c-24 0 -29 -4 -29 -25 0 -14 11 -34 25 -47 14 -12 25 -27
25 -34 0 -7 5 -14 12 -16 7 -3 -6 -26 -32 -59 -23 -30 -49 -68 -56 -84 -7 -17
-13 -55 -14 -85 -1 -30 -1 -60 -1 -66 1 -6 13 -24 29 -41 15 -16 42 -37 61
-46 19 -10 48 -17 66 -17 17 0 43 -6 58 -12 15 -7 27 -16 27 -20 0 -5 17 -8
38 -8 21 0 42 4 47 8 6 5 29 14 53 21 29 8 42 17 42 30 0 9 -11 28 -24 40 -17
16 -34 22 -58 20 -18 -1 -74 -1 -125 0 -80 1 -95 4 -117 24 -13 12 -27 32 -31
44 -5 18 -1 25 22 35 15 7 33 20 40 28 7 8 13 24 13 36 0 11 8 28 18 37 10 10
26 17 35 17 9 0 17 6 17 14 0 8 5 16 11 18 5 2 13 21 16 43 4 31 0 46 -16 66
-14 19 -34 29 -65 33 -32 5 -47 13 -51 27 -4 13 -15 19 -36 19z"/>
<path d="M393 450 c-2 0 -6 -6 -9 -14 -3 -8 -1 -24 6 -35 6 -12 20 -21 30 -21
12 0 20 7 20 16 0 9 -10 25 -22 35 -11 11 -23 19 -25 19z"/>
</g>
</svg>
