<?xml version="1.0" standalone="no"?>
<!DOCTYPE svg PUBLIC "-//W3C//DTD SVG 20010904//EN"
 "http://www.w3.org/TR/2001/REC-SVG-20010904/DTD/svg10.dtd">
<svg version="1.0" xmlns="http://www.w3.org/2000/svg"
 width="56.000000pt" height="56.000000pt" viewBox="0 0 56.000000 56.000000"
 preserveAspectRatio="xMidYMid meet">
<metadata>
Created by potrace 1.16, written by Peter Selinger 2001-2019
</metadata>
<g transform="translate(0.000000,56.000000) scale(0.100000,-0.100000)"
fill="#000000" stroke="none">
<path d="M247 560 c-12 0 -27 -6 -32 -14 -6 -7 -19 -25 -29 -40 -11 -15 -23
-49 -27 -74 -5 -38 -3 -52 13 -74 18 -26 25 -28 87 -28 58 0 71 3 89 23 12 13
22 29 22 35 0 6 -11 19 -25 28 -15 10 -48 17 -83 18 -50 1 -57 4 -60 22 -2 13
10 34 33 57 19 19 35 38 35 41 0 3 -10 6 -23 6z"/>
<path d="M168 180 c-10 0 -18 -6 -18 -13 0 -8 7 -28 15 -44 9 -17 21 -35 28
-41 6 -5 34 -12 61 -15 27 -2 52 -10 56 -17 4 -7 5 -21 3 -31 -4 -12 0 -19 10
-19 8 0 31 18 51 40 20 22 36 49 36 61 0 11 -5 29 -11 40 -10 19 -19 20 -99
17 -62 -2 -93 1 -102 10 -6 6 -20 12 -30 12z"/>
</g>
</svg>
