<?xml version="1.0" standalone="no"?>
<!DOCTYPE svg PUBLIC "-//W3C//DTD SVG 20010904//EN"
 "http://www.w3.org/TR/2001/REC-SVG-20010904/DTD/svg10.dtd">
<svg version="1.0" xmlns="http://www.w3.org/2000/svg"
 width="56.000000pt" height="56.000000pt" viewBox="0 0 56.000000 56.000000"
 preserveAspectRatio="xMidYMid meet">
<metadata>
Created by potrace 1.16, written by Peter Selinger 2001-2019
</metadata>
<g transform="translate(0.000000,56.000000) scale(0.100000,-0.100000)"
fill="#000000" stroke="none">
<path d="M323 529 c-4 0 -17 -4 -28 -9 -11 -5 -42 -9 -70 -9 -27 -1 -60 -4
-73 -7 -12 -4 -22 -12 -22 -18 0 -7 10 -22 23 -34 19 -18 36 -22 83 -22 32 0
83 -7 112 -14 30 -8 60 -12 67 -9 8 2 21 16 30 29 12 18 13 29 5 43 -6 11 -33
26 -64 35 -30 9 -58 16 -63 15z"/>
<path d="M99 200 c-18 0 -30 -6 -34 -19 -3 -10 -3 -25 1 -34 3 -9 14 -19 25
-22 10 -4 19 -9 19 -13 0 -4 7 -15 14 -25 8 -10 45 -29 83 -42 54 -19 88 -25
164 -25 79 0 101 3 120 18 14 12 20 25 16 35 -3 9 -19 23 -35 31 -24 12 -41
13 -91 5 -52 -8 -72 -7 -129 11 -45 13 -78 30 -97 50 -18 19 -39 30 -56 30z"/>
</g>
</svg>
