<?xml version="1.0" standalone="no"?>
<!DOCTYPE svg PUBLIC "-//W3C//DTD SVG 20010904//EN"
 "http://www.w3.org/TR/2001/REC-SVG-20010904/DTD/svg10.dtd">
<svg version="1.0" xmlns="http://www.w3.org/2000/svg"
 width="56.000000pt" height="56.000000pt" viewBox="0 0 56.000000 56.000000"
 preserveAspectRatio="xMidYMid meet">
<metadata>
Created by potrace 1.16, written by Peter Selinger 2001-2019
</metadata>
<g transform="translate(0.000000,56.000000) scale(0.100000,-0.100000)"
fill="#000000" stroke="none">
<path d="M302 530 c-16 24 -19 25 -45 12 -15 -7 -25 -17 -22 -23 4 -5 13 -9
21 -9 9 0 14 -11 14 -33 0 -19 -2 -36 -5 -39 -3 -2 -18 -3 -34 0 -23 3 -31 10
-33 28 -2 14 -7 26 -13 27 -5 1 -11 -15 -13 -36 -2 -26 2 -45 14 -58 9 -10 28
-19 41 -19 13 0 26 -7 30 -16 3 -8 -4 -25 -17 -39 -12 -13 -39 -26 -60 -30
-21 -4 -46 -12 -56 -20 -11 -8 -18 -26 -18 -48 0 -20 6 -48 14 -64 8 -15 21
-36 29 -45 8 -10 18 -18 22 -18 5 0 23 16 41 36 18 20 52 49 75 65 23 16 48
29 56 29 8 0 21 -8 30 -18 10 -10 17 -31 17 -46 0 -18 -10 -36 -31 -54 -18
-14 -51 -39 -74 -54 -24 -16 -49 -36 -57 -45 -12 -15 -9 -16 26 -10 21 3 50
14 65 24 14 9 35 16 46 15 11 -1 30 7 43 17 12 11 28 34 36 51 11 27 11 39 -1
73 -8 23 -26 54 -41 69 -14 16 -31 28 -38 28 -7 0 -41 -17 -76 -37 -34 -20
-73 -47 -86 -60 -19 -19 -27 -21 -38 -12 -8 6 -14 21 -14 33 0 12 5 27 12 34
7 7 25 12 40 12 21 0 35 10 59 43 17 23 37 56 44 73 8 20 24 35 44 42 18 6 31
18 31 27 0 9 -13 22 -30 28 -16 6 -30 18 -30 27 0 8 -8 26 -18 40z"/>
</g>
</svg>
