<?xml version="1.0" standalone="no"?>
<!DOCTYPE svg PUBLIC "-//W3C//DTD SVG 20010904//EN"
 "http://www.w3.org/TR/2001/REC-SVG-20010904/DTD/svg10.dtd">
<svg version="1.0" xmlns="http://www.w3.org/2000/svg"
 width="56.000000pt" height="56.000000pt" viewBox="0 0 56.000000 56.000000"
 preserveAspectRatio="xMidYMid meet">
<metadata>
Created by potrace 1.16, written by Peter Selinger 2001-2019
</metadata>
<g transform="translate(0.000000,56.000000) scale(0.100000,-0.100000)"
fill="#000000" stroke="none">
<path d="M250 560 c-5 0 -10 -4 -10 -9 0 -5 -10 -11 -22 -14 -22 -6 -22 -6 0
-30 12 -13 22 -32 22 -43 0 -16 -11 -22 -60 -33 -33 -7 -65 -19 -71 -27 -6 -7
-8 -18 -4 -24 5 -8 30 -11 68 -8 61 3 61 3 69 -32 4 -19 5 -43 2 -52 -3 -9
-19 -24 -36 -33 -17 -8 -46 -15 -63 -15 -21 0 -35 -6 -39 -16 -3 -9 -6 -18 -6
-21 0 -2 15 -1 32 3 18 3 55 6 84 6 28 0 56 3 63 7 7 5 17 26 21 47 5 21 10
60 10 86 0 37 4 50 20 58 10 6 40 13 65 16 27 4 45 12 45 20 0 7 -13 22 -30
34 -29 21 -29 21 -69 0 -22 -11 -48 -20 -57 -20 -16 0 -16 1 -1 18 10 10 17
27 17 36 0 10 -9 20 -20 23 -11 3 -20 9 -20 14 0 5 -4 9 -10 9z"/>
<path d="M65 210 c-8 0 -24 -9 -36 -21 -11 -11 -19 -23 -17 -27 2 -4 21 -42
42 -84 28 -56 45 -78 59 -78 10 0 27 5 38 10 10 6 19 18 19 27 0 9 -20 36 -45
60 -37 35 -45 49 -45 78 0 24 -5 35 -15 35z"/>
<path d="M470 204 c-19 3 -41 2 -49 -3 -12 -8 -9 -15 13 -42 28 -33 28 -33
-30 -86 -31 -29 -65 -53 -76 -53 -10 0 -18 -5 -18 -11 0 -8 14 -10 41 -6 22 3
66 18 97 34 34 16 62 38 68 53 7 14 15 34 18 46 4 13 0 29 -11 42 -10 11 -34
23 -53 26z"/>
</g>
</svg>
