<?xml version="1.0" standalone="no"?>
<!DOCTYPE svg PUBLIC "-//W3C//DTD SVG 20010904//EN"
 "http://www.w3.org/TR/2001/REC-SVG-20010904/DTD/svg10.dtd">
<svg version="1.0" xmlns="http://www.w3.org/2000/svg"
 width="56.000000pt" height="56.000000pt" viewBox="0 0 56.000000 56.000000"
 preserveAspectRatio="xMidYMid meet">
<metadata>
Created by potrace 1.16, written by Peter Selinger 2001-2019
</metadata>
<g transform="translate(0.000000,56.000000) scale(0.100000,-0.100000)"
fill="#000000" stroke="none">
<path d="M125 560 c-8 0 -15 -3 -15 -7 0 -5 9 -23 20 -40 14 -23 27 -33 45
-33 14 0 28 -6 31 -14 3 -8 -20 -45 -55 -87 -34 -40 -61 -79 -61 -89 0 -9 -4
-20 -9 -25 -6 -6 -11 -31 -12 -57 -2 -27 3 -53 10 -62 8 -9 21 -16 31 -16 9 0
20 -3 24 -7 4 -5 46 -12 94 -18 72 -8 87 -13 90 -28 2 -11 -8 -32 -24 -48 -28
-29 -28 -29 29 -29 40 0 57 4 57 13 0 7 16 21 35 30 21 10 35 24 35 34 0 10
-18 38 -39 63 -39 45 -40 45 -73 31 -18 -7 -46 -16 -61 -18 -15 -3 -47 2 -71
11 -24 9 -53 28 -66 41 -22 23 -22 26 -7 43 10 10 17 25 17 32 0 8 24 36 52
62 31 28 58 46 67 43 8 -3 25 4 37 16 20 19 26 20 39 9 14 -12 20 -10 38 14
22 28 22 28 41 7 11 -12 29 -21 42 -21 13 0 26 5 29 10 4 6 -6 27 -21 47 -27
36 -27 36 -121 29 -83 -6 -99 -4 -126 12 -18 11 -44 22 -59 26 -16 3 -28 11
-28 16 0 6 -7 10 -15 10z"/>
</g>
</svg>
