<?xml version="1.0" standalone="no"?>
<!DOCTYPE svg PUBLIC "-//W3C//DTD SVG 20010904//EN"
 "http://www.w3.org/TR/2001/REC-SVG-20010904/DTD/svg10.dtd">
<svg version="1.0" xmlns="http://www.w3.org/2000/svg"
 width="56.000000pt" height="56.000000pt" viewBox="0 0 56.000000 56.000000"
 preserveAspectRatio="xMidYMid meet">
<metadata>
Created by potrace 1.16, written by Peter Selinger 2001-2019
</metadata>
<g transform="translate(0.000000,56.000000) scale(0.100000,-0.100000)"
fill="#000000" stroke="none">
<path d="M264 560 c-38 0 -54 -4 -52 -12 2 -6 24 -17 49 -24 30 -9 50 -22 59
-39 10 -20 11 -28 2 -37 -7 -7 -12 -18 -12 -25 0 -8 12 -13 28 -13 15 0 37 7
48 15 15 10 20 22 17 39 -3 14 -17 37 -30 51 -14 14 -32 25 -39 25 -8 0 -14 5
-14 10 0 6 -25 10 -56 10z"/>
<path d="M142 280 c-7 0 -12 -5 -12 -11 0 -6 10 -25 22 -42 12 -18 27 -36 33
-42 5 -5 25 -15 42 -22 18 -6 51 -9 73 -6 29 4 40 2 40 -7 0 -7 -17 -34 -37
-59 -21 -25 -46 -55 -56 -66 -18 -20 -18 -20 5 -24 17 -2 34 10 70 50 26 29
60 70 75 92 21 30 25 42 16 55 -7 11 -23 17 -44 16 -19 -1 -57 -5 -85 -9 -49
-7 -51 -7 -91 34 -22 22 -45 41 -51 41z"/>
</g>
</svg>
