<?xml version="1.0" standalone="no"?>
<!DOCTYPE svg PUBLIC "-//W3C//DTD SVG 20010904//EN"
 "http://www.w3.org/TR/2001/REC-SVG-20010904/DTD/svg10.dtd">
<svg version="1.0" xmlns="http://www.w3.org/2000/svg"
 width="56.000000pt" height="56.000000pt" viewBox="0 0 56.000000 56.000000"
 preserveAspectRatio="xMidYMid meet">
<metadata>
Created by potrace 1.16, written by Peter Selinger 2001-2019
</metadata>
<g transform="translate(0.000000,56.000000) scale(0.100000,-0.100000)"
fill="#000000" stroke="none">
<path d="M495 560 c-14 0 -25 -2 -25 -4 0 -3 7 -12 16 -20 8 -9 20 -14 25 -11
5 4 9 13 9 21 0 8 -10 14 -25 14z"/>
<path d="M303 536 c-24 5 -33 1 -46 -20 -10 -14 -21 -43 -25 -63 -8 -36 -10
-38 -47 -37 -22 1 -41 7 -43 13 -2 6 -10 11 -18 11 -8 0 -14 -8 -14 -17 0 -10
9 -32 20 -50 10 -17 28 -37 39 -43 13 -7 21 -21 21 -37 0 -20 -3 -24 -11 -16
-8 8 -22 6 -50 -9 -22 -11 -48 -32 -59 -45 -11 -15 -20 -41 -20 -61 0 -19 11
-54 25 -78 16 -27 36 -46 56 -53 18 -6 36 -11 40 -11 4 0 21 14 38 32 16 18
27 36 24 40 -2 5 -11 4 -19 -3 -10 -8 -22 -8 -46 0 -17 6 -40 19 -50 28 -10 9
-18 28 -18 43 0 15 8 38 18 50 14 17 32 23 86 27 54 5 70 10 81 27 7 12 16 47
18 79 4 47 10 62 31 78 19 15 26 30 26 54 0 18 -6 38 -13 44 -8 6 -27 14 -44
17z"/>
<path d="M413 330 c-5 0 -31 -24 -59 -52 -27 -29 -57 -64 -65 -78 -9 -14 -18
-33 -22 -42 -4 -12 -2 -18 7 -18 8 0 28 21 45 48 16 26 44 61 60 76 30 29 31
29 52 10 18 -16 20 -27 16 -68 -2 -29 -20 -79 -45 -127 -40 -79 -40 -79 -6
-79 31 0 35 4 68 73 20 41 38 97 42 128 4 36 2 64 -6 78 -6 13 -27 29 -45 37
-19 8 -38 14 -42 14z"/>
</g>
</svg>
