<?xml version="1.0" standalone="no"?>
<!DOCTYPE svg PUBLIC "-//W3C//DTD SVG 20010904//EN"
 "http://www.w3.org/TR/2001/REC-SVG-20010904/DTD/svg10.dtd">
<svg version="1.0" xmlns="http://www.w3.org/2000/svg"
 width="56.000000pt" height="56.000000pt" viewBox="0 0 56.000000 56.000000"
 preserveAspectRatio="xMidYMid meet">
<metadata>
Created by potrace 1.16, written by Peter Selinger 2001-2019
</metadata>
<g transform="translate(0.000000,56.000000) scale(0.100000,-0.100000)"
fill="#000000" stroke="none">
<path d="M333 539 c-10 0 -34 -6 -53 -13 -19 -7 -66 -17 -105 -22 -38 -4 -86
-8 -105 -9 -31 0 -35 -3 -35 -25 0 -24 3 -25 55 -24 30 1 97 -2 148 -7 51 -5
102 -14 113 -20 11 -5 29 -7 39 -4 11 4 25 15 31 27 6 11 8 31 4 45 -3 15 -18
30 -40 39 -19 8 -42 14 -52 13z"/>
<path d="M74 307 c-21 25 -33 32 -38 24 -4 -7 0 -29 9 -49 10 -20 38 -79 63
-130 24 -52 50 -95 56 -98 6 -2 49 -9 96 -15 47 -5 105 -12 130 -15 25 -3 49
-10 55 -15 5 -5 21 -9 36 -9 20 0 30 7 39 30 10 25 10 34 -3 54 -9 13 -40 36
-69 49 -35 17 -80 28 -133 33 -44 4 -98 15 -121 24 -22 10 -52 32 -65 50 -13
17 -38 47 -55 67z"/>
</g>
</svg>
