<?xml version="1.0" standalone="no"?>
<!DOCTYPE svg PUBLIC "-//W3C//DTD SVG 20010904//EN"
 "http://www.w3.org/TR/2001/REC-SVG-20010904/DTD/svg10.dtd">
<svg version="1.0" xmlns="http://www.w3.org/2000/svg"
 width="56.000000pt" height="56.000000pt" viewBox="0 0 56.000000 56.000000"
 preserveAspectRatio="xMidYMid meet">
<metadata>
Created by potrace 1.16, written by Peter Selinger 2001-2019
</metadata>
<g transform="translate(0.000000,56.000000) scale(0.100000,-0.100000)"
fill="#000000" stroke="none">
<path d="M89 540 c-13 0 -19 -7 -19 -24 0 -16 10 -32 28 -44 15 -11 45 -23 67
-28 25 -6 41 -16 43 -27 3 -12 -8 -22 -35 -33 -21 -9 -51 -28 -66 -42 -16 -15
-35 -38 -42 -52 -9 -17 -11 -39 -6 -65 4 -22 19 -53 34 -68 24 -27 32 -29 147
-37 67 -5 124 -11 127 -14 3 -3 -10 -19 -28 -37 -19 -17 -47 -40 -64 -50 -30
-19 -30 -19 0 -19 17 0 65 11 109 25 43 13 87 32 97 41 11 10 19 31 19 50 0
24 -8 39 -31 58 -17 14 -42 26 -56 26 -15 0 -35 -7 -44 -16 -14 -13 -38 -16
-96 -16 -43 0 -96 7 -118 15 -26 9 -41 21 -43 34 -2 10 1 31 7 45 6 16 29 35
68 54 41 20 77 29 126 32 53 3 70 8 78 23 7 14 5 27 -5 47 -8 16 -21 33 -28
39 -7 6 -39 11 -71 11 -37 0 -65 6 -75 15 -9 8 -34 20 -54 26 -21 7 -40 17
-43 22 -4 5 -15 9 -26 9z"/>
</g>
</svg>
