<?xml version="1.0" standalone="no"?>
<!DOCTYPE svg PUBLIC "-//W3C//DTD SVG 20010904//EN"
 "http://www.w3.org/TR/2001/REC-SVG-20010904/DTD/svg10.dtd">
<svg version="1.0" xmlns="http://www.w3.org/2000/svg"
 width="56.000000pt" height="56.000000pt" viewBox="0 0 56.000000 56.000000"
 preserveAspectRatio="xMidYMid meet">
<metadata>
Created by potrace 1.16, written by Peter Selinger 2001-2019
</metadata>
<g transform="translate(0.000000,56.000000) scale(0.100000,-0.100000)"
fill="#000000" stroke="none">
<path d="M199 540 c-11 0 -19 -7 -19 -17 0 -10 16 -31 35 -46 29 -23 43 -28
82 -25 29 2 50 9 56 20 8 12 7 21 -2 32 -9 11 -30 16 -67 16 -29 0 -56 5 -59
10 -3 6 -15 10 -26 10z"/>
<path d="M214 430 c-6 6 -23 -4 -47 -28 -26 -27 -37 -47 -37 -68 0 -17 10 -46
23 -65 17 -25 30 -34 48 -32 13 1 52 5 87 9 59 6 62 6 62 -14 0 -12 -8 -37
-17 -57 -9 -19 -20 -35 -24 -35 -5 0 -20 -15 -34 -34 -22 -28 -25 -41 -19 -70
3 -21 12 -36 20 -36 7 0 22 17 33 38 11 20 40 64 65 97 28 37 46 71 46 87 0
19 -10 35 -33 52 -24 19 -46 25 -92 27 -33 1 -70 9 -83 16 -19 12 -22 20 -16
46 3 18 11 38 17 45 6 8 7 16 1 22z"/>
</g>
</svg>
