<?xml version="1.0" standalone="no"?>
<!DOCTYPE svg PUBLIC "-//W3C//DTD SVG 20010904//EN"
 "http://www.w3.org/TR/2001/REC-SVG-20010904/DTD/svg10.dtd">
<svg version="1.0" xmlns="http://www.w3.org/2000/svg"
 width="56.000000pt" height="56.000000pt" viewBox="0 0 56.000000 56.000000"
 preserveAspectRatio="xMidYMid meet">
<metadata>
Created by potrace 1.16, written by Peter Selinger 2001-2019
</metadata>
<g transform="translate(0.000000,56.000000) scale(0.100000,-0.100000)"
fill="#000000" stroke="none">
<path d="M425 560 c-8 0 -15 -8 -15 -17 0 -10 3 -29 7 -42 6 -23 7 -23 14 -5
4 10 8 29 8 42 1 13 -5 22 -14 22z"/>
<path d="M196 540 c-19 0 -26 -5 -26 -20 0 -11 6 -22 13 -24 6 -2 32 -10 57
-17 25 -8 53 -22 63 -32 16 -16 16 -19 0 -45 -10 -15 -43 -56 -75 -92 -32 -36
-67 -84 -78 -107 -11 -24 -20 -61 -20 -82 0 -27 7 -48 23 -65 14 -16 44 -30
85 -40 35 -9 90 -16 123 -16 58 0 59 0 59 29 0 18 -6 31 -17 36 -10 4 -48 8
-84 10 -36 2 -80 10 -96 19 -17 8 -33 23 -37 31 -3 9 -6 26 -6 37 0 11 10 34
22 51 12 18 40 52 63 76 22 24 57 60 78 79 20 19 37 44 37 55 0 11 -11 35 -25
53 -18 23 -40 37 -79 48 -30 9 -66 16 -80 16z"/>
</g>
</svg>
