<?xml version="1.0" standalone="no"?>
<!DOCTYPE svg PUBLIC "-//W3C//DTD SVG 20010904//EN"
 "http://www.w3.org/TR/2001/REC-SVG-20010904/DTD/svg10.dtd">
<svg version="1.0" xmlns="http://www.w3.org/2000/svg"
 width="56.000000pt" height="56.000000pt" viewBox="0 0 56.000000 56.000000"
 preserveAspectRatio="xMidYMid meet">
<metadata>
Created by potrace 1.16, written by Peter Selinger 2001-2019
</metadata>
<g transform="translate(0.000000,56.000000) scale(0.100000,-0.100000)"
fill="#000000" stroke="none">
<path d="M191 560 c-26 0 -41 -5 -45 -16 -3 -9 1 -31 10 -49 9 -19 26 -41 39
-49 13 -8 35 -18 49 -22 14 -3 26 -11 26 -16 0 -6 -22 -34 -49 -64 -35 -38
-51 -65 -56 -93 -4 -23 -2 -48 5 -60 9 -18 20 -21 76 -21 48 0 66 -4 70 -15 4
-9 -9 -31 -34 -56 -23 -22 -44 -49 -47 -60 -4 -10 -11 -19 -16 -19 -5 0 -9 -4
-9 -10 0 -5 10 -10 23 -10 14 0 51 28 100 75 63 61 77 80 77 105 0 25 -6 32
-36 45 -20 8 -65 15 -101 15 -46 0 -65 4 -69 14 -3 8 6 31 19 51 14 20 41 47
59 60 19 13 48 25 64 27 23 2 30 8 32 30 2 19 -3 31 -20 41 -13 8 -47 18 -76
21 -29 4 -59 9 -67 12 -8 4 -15 12 -15 19 0 7 7 15 15 19 8 3 15 10 15 16 0 5
-18 10 -39 10z"/>
</g>
</svg>
