<?xml version="1.0" standalone="no"?>
<!DOCTYPE svg PUBLIC "-//W3C//DTD SVG 20010904//EN"
 "http://www.w3.org/TR/2001/REC-SVG-20010904/DTD/svg10.dtd">
<svg version="1.0" xmlns="http://www.w3.org/2000/svg"
 width="56.000000pt" height="56.000000pt" viewBox="0 0 56.000000 56.000000"
 preserveAspectRatio="xMidYMid meet">
<metadata>
Created by potrace 1.16, written by Peter Selinger 2001-2019
</metadata>
<g transform="translate(0.000000,56.000000) scale(0.100000,-0.100000)"
fill="#000000" stroke="none">
<path d="M264 560 c-14 0 -26 -6 -28 -12 -3 -7 -9 -28 -15 -47 -6 -19 -11 -52
-11 -73 0 -35 4 -41 30 -51 17 -6 30 -16 30 -22 0 -6 -22 -38 -50 -72 -32 -39
-50 -72 -50 -88 0 -15 5 -35 10 -46 6 -11 21 -19 36 -19 14 0 38 -7 54 -15 22
-11 30 -23 30 -43 0 -15 3 -37 6 -49 4 -15 14 -23 28 -23 19 0 21 5 19 51 -1
29 -9 62 -17 74 -10 15 -28 24 -57 28 -23 3 -46 11 -50 19 -5 7 -9 23 -9 34 0
12 13 35 28 52 15 16 51 42 80 57 42 22 50 30 41 41 -6 7 -24 20 -40 29 -16 8
-42 22 -59 31 -16 8 -30 18 -30 20 0 3 7 19 16 36 9 18 20 44 25 60 7 25 5 28
-17 28z"/>
</g>
</svg>
