<?xml version="1.0" standalone="no"?>
<!DOCTYPE svg PUBLIC "-//W3C//DTD SVG 20010904//EN"
 "http://www.w3.org/TR/2001/REC-SVG-20010904/DTD/svg10.dtd">
<svg version="1.0" xmlns="http://www.w3.org/2000/svg"
 width="56.000000pt" height="56.000000pt" viewBox="0 0 56.000000 56.000000"
 preserveAspectRatio="xMidYMid meet">
<metadata>
Created by potrace 1.16, written by Peter Selinger 2001-2019
</metadata>
<g transform="translate(0.000000,56.000000) scale(0.100000,-0.100000)"
fill="#000000" stroke="none">
<path d="M398 480 c-24 0 -50 -5 -58 -10 -8 -5 -33 -10 -55 -10 -22 0 -51 -7
-63 -16 -12 -8 -22 -19 -22 -23 0 -5 17 -12 38 -16 20 -4 82 -8 137 -10 60 -2
104 0 112 7 7 6 13 19 13 29 0 10 -13 25 -30 34 -16 8 -48 15 -72 15z"/>
<path d="M35 280 c-12 10 -16 9 -21 -5 -4 -10 -1 -21 7 -26 8 -5 17 -9 22 -9
4 0 7 6 7 14 0 7 -7 19 -15 26z"/>
<path d="M76 240 c-7 0 -16 -3 -19 -7 -4 -3 0 -14 9 -24 9 -10 22 -15 30 -12
8 3 14 -1 14 -8 0 -8 30 -34 65 -58 64 -43 67 -44 126 -37 55 5 61 4 66 -14 4
-16 14 -20 43 -20 22 0 46 7 58 18 11 9 28 29 37 44 16 26 16 27 -15 43 -25
13 -40 14 -87 5 -31 -5 -78 -10 -105 -10 -26 0 -71 9 -100 20 -29 11 -61 20
-70 20 -10 0 -22 9 -28 20 -6 11 -17 20 -24 20z"/>
</g>
</svg>
