<?xml version="1.0" standalone="no"?>
<!DOCTYPE svg PUBLIC "-//W3C//DTD SVG 20010904//EN"
 "http://www.w3.org/TR/2001/REC-SVG-20010904/DTD/svg10.dtd">
<svg version="1.0" xmlns="http://www.w3.org/2000/svg"
 width="128.000000pt" height="128.000000pt" viewBox="0 0 128.000000 128.000000"
 preserveAspectRatio="xMidYMid meet">
<metadata>
Created by potrace 1.16, written by Peter Selinger 2001-2019
</metadata>
<g transform="translate(0.000000,128.000000) scale(0.100000,-0.100000)"
fill="#000000" stroke="none">
<path d="M983 1149 c-10 0 -28 -4 -41 -9 -12 -5 -25 -16 -28 -25 -3 -8 4 -36
17 -62 17 -35 25 -78 32 -160 8 -90 7 -115 -3 -128 -8 -9 -25 -22 -39 -29 -14
-8 -47 -17 -73 -20 -37 -6 -48 -4 -48 6 1 7 7 31 15 53 8 22 15 49 15 60 0 11
-13 35 -29 52 -21 23 -35 30 -50 26 -11 -3 -22 -10 -22 -17 -1 -6 -1 -36 1
-66 1 -37 -5 -71 -19 -103 -12 -27 -21 -59 -21 -72 0 -14 9 -29 21 -35 11 -7
28 -8 37 -4 9 3 26 8 37 10 11 1 33 5 48 8 16 2 34 11 40 19 7 8 26 18 42 21
17 4 37 8 45 9 11 1 16 -9 18 -40 3 -37 0 -42 -29 -57 -18 -9 -39 -16 -49 -16
-9 0 -22 6 -29 13 -10 10 -15 8 -26 -8 -8 -11 -27 -35 -42 -53 -15 -19 -40
-40 -55 -48 -16 -8 -28 -22 -28 -32 0 -9 15 -26 33 -38 17 -11 51 -27 74 -34
23 -7 49 -10 57 -7 9 4 16 13 16 22 0 8 -12 20 -26 26 -27 10 -27 10 -4 34 12
13 35 29 51 35 16 7 35 10 44 6 8 -3 15 -13 15 -23 0 -10 -6 -25 -13 -34 -7
-9 -21 -18 -32 -20 -12 -3 -21 -14 -23 -27 -2 -13 -21 -40 -43 -60 -25 -24
-39 -46 -39 -62 0 -14 4 -30 8 -35 4 -6 49 -11 107 -11 61 -1 103 3 107 10 4
6 29 15 55 21 30 6 49 16 51 26 2 13 -7 17 -50 18 -31 0 -58 7 -67 16 -13 13
-13 17 6 37 11 13 23 31 26 41 4 10 23 42 42 71 21 32 32 59 29 72 -3 11 -22
28 -42 39 -29 16 -41 31 -56 74 -20 54 -20 54 10 78 16 13 47 29 69 35 22 7
47 11 55 10 8 -1 34 4 58 10 32 9 42 17 42 33 0 13 -12 27 -32 37 -23 12 -51
16 -94 14 -34 -2 -67 -1 -72 3 -6 3 -12 39 -13 79 -1 40 1 75 4 79 4 3 7 17 7
30 0 14 -16 39 -40 63 -22 22 -48 40 -57 39z m49 -715 c6 -4 6 -10 -1 -17 -6
-6 -13 -8 -17 -4 -3 3 -3 11 1 16 3 6 11 8 17 5z"/>
<path d="M343 1020 c-5 0 -14 -5 -21 -12 -7 -7 -12 -16 -12 -22 0 -5 8 -18 17
-28 9 -10 22 -35 29 -55 7 -20 10 -50 7 -67 -3 -17 -10 -39 -15 -48 -5 -10
-14 -18 -21 -18 -7 0 -23 -9 -37 -20 -14 -11 -35 -20 -46 -20 -12 0 -27 -7
-34 -15 -7 -8 -27 -15 -44 -15 -17 -1 -59 -7 -94 -14 -35 -8 -65 -16 -68 -18
-2 -3 -2 -11 1 -19 3 -8 22 -26 41 -41 19 -14 53 -29 74 -33 27 -5 49 -2 71 9
18 9 36 16 41 16 4 0 8 -6 8 -13 0 -8 -9 -22 -20 -32 -11 -10 -20 -28 -20 -41
0 -12 4 -34 10 -48 5 -14 16 -26 24 -26 7 0 26 7 42 15 26 13 31 12 68 -8 21
-12 44 -30 50 -39 9 -14 4 -25 -26 -55 -20 -21 -39 -48 -43 -61 -3 -12 -15
-27 -26 -33 -12 -6 -26 -8 -33 -6 -7 3 -18 23 -24 45 -7 22 -19 45 -27 52 -12
10 -19 10 -27 2 -8 -8 -8 -22 -1 -49 6 -22 8 -65 4 -101 -4 -34 -3 -69 2 -77
4 -8 17 -15 28 -15 11 0 37 9 59 20 23 12 55 43 79 77 23 31 41 63 41 70 0 8
12 30 28 49 15 18 34 34 42 34 8 -1 33 -23 55 -50 25 -31 48 -50 61 -50 11 0
28 8 38 18 12 14 14 28 10 53 -4 19 -13 46 -20 61 -8 14 -29 36 -49 48 -19 12
-35 29 -35 38 0 9 12 50 27 92 18 52 24 84 19 103 -5 21 -18 34 -51 48 -28 12
-54 17 -70 13 -18 -4 -25 -2 -25 9 0 8 7 17 15 21 8 3 15 12 15 20 0 9 6 13
15 10 8 -3 27 3 42 13 15 11 44 26 63 33 19 8 54 34 78 58 23 25 42 49 42 54
0 5 -7 11 -16 15 -9 3 -28 -6 -47 -25 -18 -16 -42 -33 -55 -37 -12 -3 -26 -15
-32 -25 -5 -10 -24 -21 -41 -25 -22 -5 -34 -3 -40 6 -5 8 -9 24 -9 36 0 12 -8
35 -17 52 -10 16 -34 39 -54 51 -20 11 -41 20 -46 20z m107 -340 c22 -16 30
-30 30 -51 0 -16 -9 -47 -20 -68 -10 -21 -26 -41 -35 -45 -9 -3 -32 -6 -50 -6
-19 0 -37 5 -40 10 -4 6 -3 16 2 23 6 7 16 28 23 47 8 19 24 52 37 73 24 38
24 38 53 17z"/>
</g>
</svg>
