<?xml version="1.0" standalone="no"?>
<!DOCTYPE svg PUBLIC "-//W3C//DTD SVG 20010904//EN"
 "http://www.w3.org/TR/2001/REC-SVG-20010904/DTD/svg10.dtd">
<svg version="1.0" xmlns="http://www.w3.org/2000/svg"
 width="128.000000pt" height="128.000000pt" viewBox="0 0 128.000000 128.000000"
 preserveAspectRatio="xMidYMid meet">
<metadata>
Created by potrace 1.16, written by Peter Selinger 2001-2019
</metadata>
<g transform="translate(0.000000,128.000000) scale(0.100000,-0.100000)"
fill="#000000" stroke="none">
<path d="M448 1255 c-28 4 -49 1 -60 -8 -10 -8 -18 -21 -18 -29 0 -10 16 -20
44 -27 24 -6 48 -16 54 -23 5 -7 29 -57 52 -111 40 -95 41 -99 24 -118 -10
-11 -38 -29 -62 -39 -25 -11 -52 -20 -61 -20 -10 0 -35 9 -57 19 -21 11 -42
17 -46 14 -5 -2 -8 -11 -8 -19 0 -8 4 -14 8 -14 5 0 21 -13 38 -28 16 -16 39
-34 52 -41 17 -9 27 -9 45 0 12 7 41 28 64 46 23 19 50 33 60 31 11 -2 19 -14
21 -29 2 -20 -7 -33 -44 -62 -26 -20 -53 -37 -59 -37 -7 0 -20 -9 -29 -19 -13
-15 -18 -36 -17 -88 0 -37 7 -99 15 -137 8 -38 20 -74 25 -79 7 -7 18 -7 34 2
12 6 38 34 56 62 19 27 40 49 47 49 7 0 18 -15 24 -34 6 -19 12 -54 13 -77 2
-36 -1 -44 -18 -46 -11 -2 -42 -10 -70 -18 -27 -7 -74 -16 -103 -19 -44 -4
-56 -2 -72 14 -18 18 -20 18 -29 2 -4 -9 -12 -43 -15 -75 -5 -36 -3 -71 5 -95
6 -20 25 -53 40 -73 16 -20 29 -43 29 -51 0 -8 -15 -19 -33 -26 -21 -8 -50 -9
-85 -3 -29 4 -60 15 -70 25 -10 9 -24 16 -30 16 -6 0 -13 -4 -17 -9 -3 -5 3
-25 13 -43 19 -33 19 -33 143 -36 68 -2 140 1 159 7 19 5 58 14 85 20 28 6
106 13 175 17 69 3 129 9 134 14 6 6 5 19 -1 33 -6 13 -25 28 -44 34 -26 7
-42 6 -66 -5 -17 -8 -38 -12 -47 -9 -13 5 -14 10 -2 37 7 17 26 39 42 49 16
10 37 34 48 54 10 20 16 43 13 51 -4 9 -36 37 -72 63 -36 25 -65 49 -65 52 0
3 12 18 25 34 13 15 31 27 39 27 9 0 23 -12 33 -27 9 -16 37 -59 61 -98 25
-38 59 -91 76 -117 17 -26 36 -48 43 -48 7 0 17 9 23 19 5 11 10 33 10 48 0
20 -15 47 -51 88 -28 33 -64 79 -80 103 -16 24 -29 49 -29 56 0 6 -11 27 -25
46 -13 18 -30 49 -36 69 -7 20 -27 63 -46 96 -19 33 -41 70 -50 83 -15 21 -14
24 23 57 21 20 48 38 60 41 16 4 23 16 27 47 3 22 2 48 -3 58 -7 11 -27 18
-66 21 -32 3 -70 0 -85 -5 -20 -8 -31 -7 -43 2 -9 8 -16 18 -16 23 0 5 -20 51
-45 103 -24 51 -49 96 -54 99 -5 4 -29 9 -53 11z m217 -315 c10 0 15 -7 13
-17 -2 -10 -8 -17 -13 -16 -6 1 -11 9 -13 17 -2 10 3 16 13 16z m-30 -170 c7
0 16 -9 20 -20 3 -11 3 -24 0 -30 -3 -5 -15 -10 -25 -10 -10 0 -22 4 -25 10
-3 5 -1 19 5 30 6 11 17 20 25 20z m53 -100 c5 0 16 -16 25 -35 9 -20 17 -44
17 -54 0 -10 -9 -29 -19 -42 -19 -23 -19 -23 -40 -5 -11 10 -23 27 -26 37 -3
10 3 36 15 58 11 23 24 41 28 41z m-115 -20 c10 0 20 -6 23 -14 3 -8 -6 -33
-21 -56 -14 -22 -33 -44 -42 -47 -11 -4 -24 3 -39 22 -18 22 -20 33 -13 48 6
10 25 25 42 32 18 8 40 14 50 15z m132 -310 c13 0 31 -10 39 -22 9 -12 16 -30
16 -39 0 -9 -16 -31 -36 -49 -20 -17 -43 -30 -52 -28 -11 2 -16 11 -13 23 1
11 4 37 6 57 2 20 6 41 10 47 3 6 17 11 30 11z m-293 -10 c7 0 33 -12 58 -26
41 -23 48 -25 83 -13 32 11 40 10 53 -3 14 -14 14 -21 3 -54 -8 -22 -27 -60
-42 -87 -16 -26 -42 -54 -57 -62 -24 -12 -30 -12 -39 -1 -6 8 -11 27 -10 42 1
16 -10 54 -23 84 -14 30 -29 70 -33 88 -5 23 -3 32 7 32z m212 -190 c7 0 17
-5 24 -12 7 -7 12 -17 12 -23 0 -6 -14 -16 -31 -22 -18 -7 -36 -10 -40 -7 -4
2 -5 12 -2 22 3 9 10 23 16 30 5 6 15 12 21 12z"/>
<path d="M485 270 c-7 0 -14 -3 -18 -6 -3 -3 -1 -17 4 -31 5 -14 19 -39 30
-54 11 -16 25 -29 31 -29 7 0 8 17 3 48 -3 26 -14 53 -23 60 -9 6 -21 12 -27
12z"/>
<path d="M967 1000 c-13 0 -31 -8 -40 -18 -10 -10 -17 -24 -17 -32 0 -9 9 -11
31 -6 20 4 39 0 57 -12 15 -9 37 -28 49 -42 12 -14 23 -28 23 -31 0 -3 -20
-15 -44 -27 -24 -12 -49 -29 -55 -36 -8 -10 -9 -16 -2 -21 6 -3 28 -1 48 4 21
6 49 12 63 13 17 2 28 12 34 31 8 21 5 37 -11 71 -14 27 -39 56 -67 75 -24 17
-55 31 -69 31z"/>
<path d="M232 870 c-11 0 -30 -8 -43 -18 -13 -11 -20 -25 -16 -34 3 -9 21 -18
41 -22 21 -4 44 -18 57 -34 19 -24 21 -36 16 -106 -3 -43 -9 -82 -14 -87 -6
-6 -26 7 -51 32 -34 35 -42 39 -48 26 -3 -10 -1 -23 5 -31 6 -8 16 -54 22
-102 6 -49 15 -98 19 -109 5 -11 11 -28 14 -38 3 -9 12 -20 21 -23 8 -4 21 -1
29 5 7 6 16 33 20 60 3 27 18 65 31 85 17 25 24 49 24 74 -1 20 -6 78 -10 128
-5 50 -16 107 -24 127 -9 21 -28 43 -45 52 -16 8 -38 15 -48 15z"/>
</g>
</svg>
