<?xml version="1.0" standalone="no"?>
<!DOCTYPE svg PUBLIC "-//W3C//DTD SVG 20010904//EN"
 "http://www.w3.org/TR/2001/REC-SVG-20010904/DTD/svg10.dtd">
<svg version="1.0" xmlns="http://www.w3.org/2000/svg"
 width="128.000000pt" height="128.000000pt" viewBox="0 0 128.000000 128.000000"
 preserveAspectRatio="xMidYMid meet">
<metadata>
Created by potrace 1.16, written by Peter Selinger 2001-2019
</metadata>
<g transform="translate(0.000000,128.000000) scale(0.100000,-0.100000)"
fill="#000000" stroke="none">
<path d="M464 1260 c-27 0 -46 -6 -55 -17 -11 -12 -11 -17 -2 -20 7 -3 23 -13
37 -24 15 -11 26 -28 26 -38 0 -11 -20 -29 -52 -47 -29 -16 -62 -33 -73 -39
-11 -6 -24 -19 -30 -30 -5 -11 -14 -26 -18 -33 -7 -10 -12 -10 -23 -1 -8 6
-14 26 -14 45 0 18 -4 36 -10 39 -5 3 -12 -6 -16 -20 -4 -14 -7 -81 -8 -148 0
-76 4 -136 12 -158 7 -20 21 -44 31 -53 11 -10 44 -20 77 -23 33 -3 67 -10 77
-15 15 -8 16 -12 6 -24 -6 -8 -38 -31 -70 -50 -39 -24 -62 -46 -70 -68 -7 -17
-17 -45 -24 -63 -7 -17 -9 -37 -4 -44 6 -11 18 -10 61 5 29 11 60 24 68 30 8
6 26 17 39 24 20 12 26 12 38 0 12 -12 10 -21 -12 -60 -14 -26 -66 -85 -116
-132 -49 -47 -94 -97 -99 -111 -6 -15 -10 -42 -10 -60 0 -24 6 -38 19 -45 11
-5 24 -10 30 -10 5 0 29 21 53 46 24 26 49 53 57 61 13 13 16 13 28 -3 7 -10
13 -32 13 -50 0 -18 4 -36 10 -39 5 -3 14 -24 20 -45 10 -39 12 -40 55 -40 34
0 50 6 71 27 14 14 35 40 45 57 10 17 19 37 19 44 0 7 9 32 21 55 11 23 30 76
40 117 11 41 22 107 26 146 3 40 3 83 -1 98 -3 14 -19 37 -34 51 -15 14 -35
28 -44 31 -9 3 -36 -4 -59 -16 -24 -11 -58 -20 -76 -20 -28 0 -33 4 -33 24 0
17 10 29 33 40 17 10 46 26 64 37 18 11 53 22 79 24 26 2 52 9 57 14 7 7 5 17
-7 30 -10 11 -36 23 -58 26 -23 4 -52 18 -65 31 -12 13 -23 34 -23 48 0 13 7
32 16 40 8 9 31 16 49 16 19 0 45 -4 60 -10 14 -5 30 -21 35 -35 5 -14 13 -25
17 -25 5 0 28 5 52 11 32 7 53 7 73 -2 19 -8 35 -28 53 -66 14 -31 25 -63 25
-73 0 -9 8 -24 18 -33 10 -10 23 -17 29 -17 5 0 19 10 31 23 16 17 22 36 22
69 0 31 -7 54 -21 72 -12 15 -50 41 -86 58 -55 26 -72 29 -114 24 -30 -4 -49
-3 -49 3 0 6 12 32 26 58 22 40 25 57 21 104 -3 31 -11 65 -18 77 -7 11 -24
27 -38 34 -13 7 -43 13 -65 13 -23 0 -61 -9 -85 -19 -32 -15 -47 -17 -59 -9
-10 5 -18 21 -20 34 -2 13 -11 30 -20 37 -9 6 -35 12 -58 12z m219 -111 c10 0
27 -3 37 -9 15 -8 17 -19 13 -77 -3 -38 -11 -74 -18 -82 -12 -12 -18 -12 -47
2 -19 9 -45 13 -62 10 -21 -4 -33 -1 -43 12 -7 11 -13 38 -13 62 0 34 5 45 23
54 12 7 38 16 57 20 19 4 43 7 53 8z m-232 -69 c3 0 12 -6 21 -12 9 -7 18 -29
21 -49 3 -20 2 -41 -1 -46 -4 -6 -38 -24 -76 -39 -66 -26 -69 -27 -82 -9 -8
10 -14 36 -14 58 0 37 2 39 63 67 34 16 65 29 68 30z m22 -201 c24 1 27 -2 27
-33 0 -18 -7 -39 -15 -46 -8 -6 -32 -14 -54 -17 -33 -5 -40 -2 -45 15 -4 10
-2 31 3 45 6 14 20 27 33 30 13 2 35 5 51 6z m-173 -80 c6 -3 11 -8 11 -12 -1
-4 -4 -7 -8 -8 -4 0 -9 5 -11 12 -3 6 1 10 8 8z m346 -259 c8 0 14 -10 14 -24
0 -13 -7 -59 -16 -102 -9 -43 -28 -103 -41 -134 -14 -30 -33 -71 -43 -90 -12
-23 -27 -36 -43 -38 -15 -2 -35 7 -55 27 -18 16 -32 33 -32 39 0 5 17 29 39
53 21 24 46 60 56 79 9 19 23 42 30 50 6 8 18 31 25 50 7 19 22 47 32 63 11
15 26 27 34 27z"/>
<path d="M1038 539 c-13 0 -36 -16 -54 -37 -18 -21 -41 -54 -53 -75 -12 -21
-21 -55 -21 -77 0 -22 4 -48 9 -58 5 -9 19 -37 31 -62 13 -25 32 -58 43 -73
13 -19 26 -27 41 -25 19 3 21 9 21 63 0 52 -3 60 -20 63 -11 2 -32 8 -47 14
-27 10 -28 14 -28 77 1 54 5 71 23 91 12 14 34 33 50 43 15 9 27 26 27 37 0
14 -6 20 -22 19z"/>
</g>
</svg>
