<?xml version="1.0" standalone="no"?>
<!DOCTYPE svg PUBLIC "-//W3C//DTD SVG 20010904//EN"
 "http://www.w3.org/TR/2001/REC-SVG-20010904/DTD/svg10.dtd">
<svg version="1.0" xmlns="http://www.w3.org/2000/svg"
 width="128.000000pt" height="128.000000pt" viewBox="0 0 128.000000 128.000000"
 preserveAspectRatio="xMidYMid meet">
<metadata>
Created by potrace 1.16, written by Peter Selinger 2001-2019
</metadata>
<g transform="translate(0.000000,128.000000) scale(0.100000,-0.100000)"
fill="#000000" stroke="none">
<path d="M713 1248 c-75 -1 -118 -6 -124 -14 -7 -9 -4 -19 10 -33 12 -12 34
-21 50 -21 16 0 34 -7 41 -15 6 -8 10 -22 8 -32 -2 -9 -12 -20 -23 -23 -11 -3
-40 -18 -65 -34 -25 -16 -49 -35 -53 -42 -4 -8 -19 -14 -33 -14 -13 0 -27 -7
-30 -15 -5 -12 -10 -13 -20 -4 -8 6 -14 22 -14 35 0 14 -10 29 -22 38 -13 7
-36 17 -52 20 -25 6 -35 0 -90 -55 -33 -33 -74 -68 -90 -76 -27 -14 -31 -14
-43 3 -7 10 -13 42 -13 71 0 39 -4 55 -15 59 -8 4 -22 0 -31 -7 -11 -9 -14
-22 -10 -42 3 -16 -3 -84 -14 -151 -12 -66 -28 -153 -37 -192 -12 -55 -13 -75
-4 -92 9 -17 8 -29 -4 -58 -10 -23 -15 -65 -14 -118 1 -44 4 -92 8 -106 4 -16
14 -25 26 -25 11 0 21 8 23 18 2 11 12 27 22 37 14 14 17 28 13 58 -3 26 0 50
12 71 9 18 14 39 11 47 -3 8 -2 14 3 14 5 0 11 -9 14 -20 3 -13 11 -18 20 -14
8 3 23 21 33 40 14 25 30 38 57 46 26 8 41 8 48 1 7 -7 7 -22 0 -49 -6 -22
-11 -51 -11 -66 0 -15 -5 -30 -11 -34 -6 -3 -16 -1 -22 5 -6 6 -19 11 -29 11
-10 0 -18 -5 -18 -10 0 -6 7 -25 14 -43 8 -18 23 -41 33 -52 10 -11 33 -31 52
-44 31 -22 35 -23 46 -8 7 10 14 81 18 194 4 98 11 205 17 238 5 33 19 86 31
118 12 32 30 62 40 67 15 8 21 5 33 -22 8 -18 17 -47 21 -65 3 -17 24 -52 46
-77 31 -35 47 -45 76 -48 20 -2 38 -8 40 -15 3 -7 -6 -23 -20 -35 -13 -13 -57
-52 -96 -88 -40 -36 -85 -75 -99 -86 -23 -19 -25 -25 -17 -50 6 -16 19 -30 29
-32 10 -2 29 6 42 19 13 12 24 30 24 40 0 10 8 25 17 35 16 16 18 15 26 -10 6
-18 18 -29 38 -33 21 -4 29 -11 29 -27 0 -12 -26 -47 -61 -83 -35 -36 -70 -63
-81 -63 -11 0 -34 -12 -52 -26 -17 -15 -41 -41 -53 -57 -13 -17 -23 -38 -23
-46 0 -9 4 -22 9 -29 4 -7 34 -24 67 -37 55 -22 60 -23 74 -7 9 9 14 27 12 40
-2 12 2 30 10 40 8 9 19 30 26 45 6 15 19 30 28 34 8 3 25 1 37 -5 12 -6 31
-12 42 -14 11 -2 21 -11 23 -21 2 -10 -4 -27 -14 -38 -10 -11 -30 -19 -48 -19
-17 0 -44 -10 -60 -23 -19 -16 -26 -28 -21 -37 6 -9 25 -11 74 -6 36 3 89 10
118 14 28 5 57 13 65 19 7 6 30 16 51 23 24 8 42 8 50 2 7 -5 30 -15 52 -22
22 -7 44 -16 49 -21 6 -5 19 -9 31 -9 11 0 28 -9 38 -20 9 -11 26 -20 36 -20
11 0 33 -11 49 -25 17 -14 40 -25 52 -25 21 0 22 3 16 41 -4 23 -11 50 -17 61
-6 11 -38 32 -72 47 -34 15 -86 36 -115 45 -29 10 -56 25 -59 33 -3 8 2 30 11
49 9 19 16 52 16 72 0 31 -7 45 -39 76 -38 38 -38 38 -111 32 -40 -3 -76 -3
-81 -1 -4 3 -4 15 -1 28 4 12 12 30 18 40 9 16 16 17 50 9 21 -5 64 -7 94 -3
51 6 56 9 77 46 12 22 23 48 23 57 0 10 -12 25 -26 35 -24 16 -28 16 -58 -1
-21 -11 -49 -16 -77 -14 -32 2 -45 8 -47 20 -2 10 14 34 37 57 23 22 41 49 41
61 0 13 -7 20 -19 20 -11 0 -23 -4 -26 -10 -3 -5 -15 -10 -25 -10 -10 0 -22 9
-25 21 -4 12 -1 27 9 37 8 9 54 46 102 82 48 36 109 87 136 114 27 27 47 56
46 65 -3 12 -14 16 -48 14 -25 -1 -67 -6 -95 -12 -39 -9 -52 -8 -63 3 -12 11
-12 18 1 43 11 20 12 34 6 46 -7 11 -22 17 -45 17 -22 0 -37 6 -40 15 -5 13
-26 15 -121 13z m143 -119 c7 0 15 -6 18 -15 4 -9 1 -23 -5 -30 -6 -8 -18 -14
-25 -14 -8 0 -22 -4 -32 -9 -9 -4 -32 -13 -51 -19 -19 -6 -38 -9 -42 -6 -5 3
-9 11 -9 18 0 7 15 23 33 37 17 13 48 27 67 30 19 3 40 7 46 8z m-241 -120 c6
-6 3 -15 -8 -26 -13 -13 -20 -14 -29 -5 -9 9 -8 15 8 26 12 9 23 11 29 5z
m290 11 c8 0 16 -4 19 -9 3 -5 0 -13 -7 -19 -7 -6 -18 -7 -26 -3 -8 5 -10 14
-7 20 4 6 13 11 21 11z m-117 -23 c52 -2 67 -6 70 -18 2 -9 -20 -35 -52 -62
-30 -26 -57 -47 -61 -47 -4 0 -29 -16 -55 -35 -26 -19 -50 -35 -54 -35 -3 0
-6 14 -6 31 0 18 10 48 22 68 11 20 32 50 45 68 23 31 26 32 91 30z m-474 -59
c18 -3 21 -11 23 -53 3 -49 1 -52 -73 -140 -42 -49 -83 -90 -92 -90 -10 0 -18
10 -20 24 -2 14 1 41 7 60 5 20 12 47 15 61 3 14 31 51 63 83 39 39 63 57 77
55z m419 -305 c4 -2 7 -17 7 -33 0 -16 -8 -43 -18 -59 -18 -30 -18 -30 -47 -7
-30 24 -30 24 10 63 22 22 43 38 48 36z m128 -224 c4 1 12 -6 19 -14 9 -10 11
-31 6 -62 -3 -26 -12 -53 -19 -59 -6 -7 -31 -15 -53 -19 -26 -4 -44 -2 -49 4
-3 6 -20 11 -36 11 -18 0 -32 6 -36 16 -4 11 8 28 38 55 24 21 62 45 84 53 22
8 43 15 46 15z"/>
</g>
</svg>
