<?xml version="1.0" standalone="no"?>
<!DOCTYPE svg PUBLIC "-//W3C//DTD SVG 20010904//EN"
 "http://www.w3.org/TR/2001/REC-SVG-20010904/DTD/svg10.dtd">
<svg version="1.0" xmlns="http://www.w3.org/2000/svg"
 width="128.000000pt" height="128.000000pt" viewBox="0 0 128.000000 128.000000"
 preserveAspectRatio="xMidYMid meet">
<metadata>
Created by potrace 1.16, written by Peter Selinger 2001-2019
</metadata>
<g transform="translate(0.000000,128.000000) scale(0.100000,-0.100000)"
fill="#000000" stroke="none">
<path d="M835 1280 c-36 0 -65 -3 -65 -8 0 -4 -26 -17 -57 -29 -32 -12 -69
-25 -83 -29 -14 -3 -33 -12 -43 -19 -12 -9 -28 -10 -45 -5 -15 4 -40 15 -57
24 -16 9 -40 16 -52 16 -16 0 -23 -6 -23 -19 0 -11 12 -28 28 -39 15 -10 43
-26 64 -35 20 -9 40 -17 45 -17 5 0 47 16 94 37 46 20 104 41 129 48 33 9 44
16 42 28 -2 11 4 17 16 17 11 0 25 -7 32 -15 10 -12 10 -21 0 -45 -7 -17 -24
-39 -39 -49 -14 -10 -53 -27 -86 -39 -33 -11 -77 -27 -98 -35 -21 -7 -43 -19
-50 -26 -9 -9 -9 -14 3 -21 8 -6 22 -7 30 -4 8 3 33 8 55 11 22 2 54 9 70 15
17 6 37 17 45 23 8 7 26 16 39 20 14 4 29 11 35 16 6 5 23 18 38 30 16 12 32
37 39 61 10 38 9 43 -15 64 -21 20 -36 24 -91 24z"/>
<path d="M226 1168 c-13 3 -16 -5 -16 -35 0 -21 5 -58 11 -82 5 -24 19 -57 30
-73 11 -15 26 -28 34 -28 7 0 21 7 30 16 11 12 14 25 9 48 -4 17 -18 49 -33
71 -14 22 -31 49 -37 60 -6 11 -19 21 -28 23z"/>
<path d="M519 1015 c-5 4 -19 -4 -32 -17 -13 -14 -27 -42 -30 -65 -4 -23 -21
-65 -39 -93 -31 -50 -31 -50 -5 -78 15 -16 27 -38 27 -50 0 -12 -10 -27 -22
-33 -13 -7 -51 -40 -85 -74 -58 -58 -61 -64 -45 -78 9 -8 27 -18 39 -21 11 -4
27 -13 33 -21 7 -8 21 -15 31 -15 10 0 34 7 53 16 27 13 35 24 40 53 3 20 6
66 6 102 0 65 0 66 37 90 21 13 53 45 73 72 23 31 42 47 57 47 17 0 24 -8 29
-35 5 -27 15 -40 38 -52 17 -8 37 -20 43 -25 10 -8 0 -22 -37 -55 -28 -25 -50
-51 -50 -59 0 -8 8 -14 18 -14 9 0 41 18 70 40 29 22 70 52 92 66 22 15 40 35
40 44 0 14 -12 20 -52 25 -29 4 -59 12 -65 17 -7 6 -13 30 -13 53 0 35 -5 48
-26 64 -15 12 -35 21 -45 21 -10 0 -62 -45 -115 -99 -54 -55 -101 -98 -105
-95 -4 2 -12 18 -18 34 -9 27 -7 34 18 63 15 17 33 41 39 52 6 11 10 42 10 68
0 26 -4 49 -9 52z m-84 -425 c10 0 15 -11 15 -34 0 -20 -6 -36 -14 -39 -8 -3
-22 0 -32 7 -17 13 -17 15 -1 40 10 14 24 26 32 26z"/>
<path d="M580 680 c-4 0 -15 -9 -25 -20 -16 -18 -17 -24 -5 -60 7 -22 13 -67
14 -101 1 -61 1 -61 -101 -99 -56 -20 -122 -47 -147 -59 -25 -11 -51 -21 -57
-21 -6 0 -9 -10 -7 -22 2 -13 11 -24 20 -26 9 -2 36 6 59 17 24 12 49 21 56
21 8 0 31 9 53 20 22 11 48 20 60 20 14 0 20 -7 20 -23 0 -12 -16 -47 -35 -77
-19 -30 -44 -67 -57 -82 -13 -14 -45 -51 -72 -82 -30 -34 -46 -62 -42 -71 3
-8 12 -15 20 -15 7 0 59 46 115 102 55 56 101 106 101 112 0 6 8 20 18 32 16
20 23 21 97 13 53 -5 98 -16 133 -33 28 -14 52 -30 52 -34 0 -4 16 -23 35 -42
19 -19 35 -41 35 -47 0 -7 3 -13 8 -13 4 0 29 -20 56 -45 27 -25 55 -45 63
-45 9 0 13 14 13 40 0 30 -7 47 -25 66 -13 13 -29 33 -35 44 -6 11 -34 37 -63
59 -29 21 -70 47 -92 58 -22 11 -67 25 -100 31 -33 6 -77 14 -98 17 -21 3 -40
12 -43 19 -2 6 2 29 11 49 12 29 21 37 40 37 14 0 42 9 62 20 21 11 45 20 53
20 9 0 26 7 38 16 12 8 31 13 41 9 11 -3 30 -3 44 0 13 4 30 18 36 31 6 14 11
29 11 33 0 4 -12 13 -26 20 -22 10 -31 8 -57 -8 -18 -10 -57 -24 -87 -31 -30
-7 -67 -19 -82 -26 -15 -8 -29 -11 -31 -6 -3 4 -8 34 -12 67 -5 44 -14 67 -33
88 -14 15 -29 27 -32 27z"/>
</g>
</svg>
