<?xml version="1.0" standalone="no"?>
<!DOCTYPE svg PUBLIC "-//W3C//DTD SVG 20010904//EN"
 "http://www.w3.org/TR/2001/REC-SVG-20010904/DTD/svg10.dtd">
<svg version="1.0" xmlns="http://www.w3.org/2000/svg"
 width="56.000000pt" height="56.000000pt" viewBox="0 0 56.000000 56.000000"
 preserveAspectRatio="xMidYMid meet">
<metadata>
Created by potrace 1.16, written by Peter Selinger 2001-2019
</metadata>
<g transform="translate(0.000000,56.000000) scale(0.100000,-0.100000)"
fill="#000000" stroke="none">
<path d="M234 520 c-8 0 -27 -12 -41 -27 -14 -16 -36 -45 -50 -66 -13 -21 -40
-53 -60 -72 -21 -19 -45 -37 -54 -40 -10 -3 -21 -19 -24 -36 -4 -18 -2 -36 5
-44 7 -8 18 -15 25 -15 8 0 23 11 34 25 11 15 37 38 58 52 21 14 63 37 93 50
30 14 62 31 70 38 8 7 39 15 69 16 53 3 55 2 93 -40 28 -33 38 -52 38 -78 0
-19 -5 -43 -10 -54 -6 -10 -28 -38 -48 -60 -20 -22 -54 -49 -75 -60 -21 -11
-47 -29 -58 -40 -11 -11 -17 -24 -14 -29 4 -6 14 -10 24 -10 10 0 26 9 36 20
10 11 22 20 28 20 5 0 25 12 44 27 19 16 59 51 89 80 46 44 54 57 54 87 0 20
-4 36 -9 36 -5 0 -14 15 -21 33 -6 17 -21 43 -33 57 -12 14 -39 35 -61 48 -37
22 -40 22 -98 7 -32 -8 -79 -26 -102 -40 -24 -14 -46 -25 -49 -25 -4 0 -7 6
-7 14 0 8 12 24 26 35 15 12 33 33 40 47 8 14 11 30 8 35 -3 5 -12 9 -20 9z"/>
</g>
</svg>
