<?xml version="1.0" standalone="no"?>
<!DOCTYPE svg PUBLIC "-//W3C//DTD SVG 20010904//EN"
 "http://www.w3.org/TR/2001/REC-SVG-20010904/DTD/svg10.dtd">
<svg version="1.0" xmlns="http://www.w3.org/2000/svg"
 width="56.000000pt" height="56.000000pt" viewBox="0 0 56.000000 56.000000"
 preserveAspectRatio="xMidYMid meet">
<metadata>
Created by potrace 1.16, written by Peter Selinger 2001-2019
</metadata>
<g transform="translate(0.000000,56.000000) scale(0.100000,-0.100000)"
fill="#000000" stroke="none">
<path d="M248 559 c-26 0 -49 -7 -59 -17 -9 -9 -48 -43 -87 -75 -42 -35 -75
-71 -81 -89 -6 -17 -11 -39 -11 -50 0 -10 7 -21 15 -24 9 -4 42 19 86 60 63
57 75 64 93 54 12 -6 30 -19 41 -29 18 -16 25 -16 77 -4 31 7 61 16 68 20 6 4
22 -1 35 -9 14 -9 25 -25 25 -35 0 -10 7 -24 16 -32 12 -10 15 -26 11 -71 -4
-40 -13 -67 -29 -88 -13 -16 -29 -29 -36 -29 -7 -1 -15 -8 -18 -16 -4 -9 -27
-25 -53 -36 -25 -12 -70 -32 -99 -46 -29 -14 -55 -29 -58 -34 -3 -5 9 -9 26
-9 17 0 57 12 88 26 31 14 68 34 83 45 15 10 32 19 38 19 7 0 30 17 52 39 26
25 45 55 55 86 8 27 14 61 14 76 0 15 -10 45 -22 66 -12 21 -30 48 -41 61 -11
12 -28 22 -38 22 -10 0 -21 5 -24 10 -3 6 -17 10 -29 10 -13 0 -37 -7 -52 -15
-16 -8 -40 -15 -54 -15 -14 0 -36 7 -48 16 -12 8 -22 21 -22 29 0 7 18 26 40
42 22 15 40 31 40 36 0 4 -19 7 -42 6z"/>
</g>
</svg>
