<?xml version="1.0" standalone="no"?>
<!DOCTYPE svg PUBLIC "-//W3C//DTD SVG 20010904//EN"
 "http://www.w3.org/TR/2001/REC-SVG-20010904/DTD/svg10.dtd">
<svg version="1.0" xmlns="http://www.w3.org/2000/svg"
 width="56.000000pt" height="56.000000pt" viewBox="0 0 56.000000 56.000000"
 preserveAspectRatio="xMidYMid meet">
<metadata>
Created by potrace 1.16, written by Peter Selinger 2001-2019
</metadata>
<g transform="translate(0.000000,56.000000) scale(0.100000,-0.100000)"
fill="#000000" stroke="none">
<path d="M306 560 c-9 0 -16 -4 -16 -10 0 -5 -10 -10 -22 -10 -13 0 -31 -7
-40 -14 -10 -7 -18 -17 -18 -23 0 -5 -13 -19 -28 -30 -16 -12 -41 -48 -57 -80
-15 -32 -32 -74 -37 -93 -5 -19 -13 -54 -17 -77 -5 -27 -3 -55 5 -79 7 -20 21
-46 32 -57 10 -12 22 -30 26 -41 5 -15 13 -18 47 -13 22 3 43 8 47 12 3 3 2
18 -4 33 -5 15 -7 47 -4 72 4 25 6 75 6 112 -1 38 2 68 6 68 4 0 11 19 15 43
9 41 10 42 50 42 26 0 48 7 62 19 11 11 21 26 21 35 0 9 7 24 14 34 11 14 15
15 25 4 7 -9 10 -82 8 -228 -2 -205 -3 -214 -22 -217 -11 -1 -30 -5 -42 -8
-13 -2 -23 -9 -23 -14 0 -5 13 -16 30 -25 16 -8 40 -15 53 -15 15 0 31 10 41
25 15 22 17 57 17 252 -1 159 -4 235 -13 255 -9 19 -20 28 -36 28 -13 0 -32
-10 -43 -22 -11 -13 -26 -36 -35 -51 -14 -26 -19 -28 -51 -22 -27 5 -38 2 -49
-12 -8 -10 -24 -38 -36 -63 -11 -25 -27 -74 -35 -110 -8 -36 -17 -87 -21 -115
-5 -35 -12 -50 -22 -50 -12 0 -15 15 -14 80 0 56 7 99 23 144 12 35 31 76 42
90 11 14 44 45 72 69 29 25 54 48 55 53 2 5 -3 9 -12 9z"/>
<path d="M314 37 c-6 2 -19 -6 -29 -17 -18 -20 -18 -20 14 -20 25 0 32 4 29
17 -2 9 -8 18 -14 20z"/>
</g>
</svg>
