<?xml version="1.0" standalone="no"?>
<!DOCTYPE svg PUBLIC "-//W3C//DTD SVG 20010904//EN"
 "http://www.w3.org/TR/2001/REC-SVG-20010904/DTD/svg10.dtd">
<svg version="1.0" xmlns="http://www.w3.org/2000/svg"
 width="56.000000pt" height="56.000000pt" viewBox="0 0 56.000000 56.000000"
 preserveAspectRatio="xMidYMid meet">
<metadata>
Created by potrace 1.16, written by Peter Selinger 2001-2019
</metadata>
<g transform="translate(0.000000,56.000000) scale(0.100000,-0.100000)"
fill="#000000" stroke="none">
<path d="M104 560 c-10 0 -14 -16 -14 -61 0 -34 -4 -78 -9 -98 -5 -20 -14 -76
-21 -124 -8 -67 -8 -108 1 -168 9 -53 17 -79 26 -79 7 0 21 13 31 29 12 20 17
50 17 102 0 65 -2 74 -17 71 -14 -2 -18 4 -18 27 0 17 7 56 15 87 8 32 18 86
21 121 5 44 3 67 -6 78 -7 8 -19 15 -26 15z"/>
<path d="M359 560 c-3 0 -13 -9 -20 -20 -12 -17 -19 -18 -54 -10 -22 5 -44 5
-48 1 -4 -4 10 -20 31 -34 21 -15 44 -27 51 -27 10 0 12 -9 7 -32 -3 -18 -15
-45 -26 -60 -11 -15 -20 -32 -20 -38 0 -5 6 -11 13 -11 6 -1 37 -1 67 1 55 2
55 2 24 -32 -18 -18 -37 -43 -43 -55 -6 -12 -11 -47 -11 -78 0 -55 1 -58 51
-105 28 -27 60 -52 71 -56 11 -3 25 -1 30 4 6 6 8 22 4 35 -3 14 -18 29 -34
36 -15 7 -41 24 -56 38 -26 24 -28 30 -23 77 6 46 12 56 58 96 36 32 50 52 47
65 -3 17 -12 20 -55 20 -29 0 -54 3 -58 6 -3 4 3 30 14 59 19 49 19 54 4 86
-9 19 -20 34 -24 34z"/>
<path d="M239 40 c-3 0 -9 -3 -12 -7 -4 -3 -2 -12 4 -20 6 -7 23 -13 38 -13
26 0 26 0 1 20 -14 11 -28 20 -31 20z"/>
</g>
</svg>
