<?xml version="1.0" standalone="no"?>
<!DOCTYPE svg PUBLIC "-//W3C//DTD SVG 20010904//EN"
 "http://www.w3.org/TR/2001/REC-SVG-20010904/DTD/svg10.dtd">
<svg version="1.0" xmlns="http://www.w3.org/2000/svg"
 width="56.000000pt" height="56.000000pt" viewBox="0 0 56.000000 56.000000"
 preserveAspectRatio="xMidYMid meet">
<metadata>
Created by potrace 1.16, written by Peter Selinger 2001-2019
</metadata>
<g transform="translate(0.000000,56.000000) scale(0.100000,-0.100000)"
fill="#000000" stroke="none">
<path d="M245 500 c-8 0 -15 -7 -15 -15 0 -8 7 -15 15 -15 8 0 15 7 15 15 0 8
-7 15 -15 15z"/>
<path d="M420 482 c-14 2 -38 3 -55 1 -16 -3 -55 -16 -85 -30 -35 -17 -80 -51
-126 -98 -38 -40 -82 -80 -97 -90 -27 -17 -28 -17 -42 1 -13 18 -14 16 -15
-19 0 -21 5 -47 10 -58 6 -10 17 -19 25 -19 8 0 31 17 52 38 21 20 74 77 118
126 44 48 91 94 105 101 20 10 36 10 74 1 40 -9 54 -18 75 -50 21 -32 27 -54
29 -116 3 -53 -1 -86 -11 -111 -9 -18 -24 -46 -34 -61 -13 -20 -14 -31 -6 -39
6 -6 21 -8 33 -4 13 4 33 32 56 77 24 51 34 85 34 119 0 26 -4 51 -10 54 -5 3
-10 17 -10 31 0 14 -9 42 -20 64 -11 21 -32 47 -47 58 -16 10 -39 21 -53 24z"/>
</g>
</svg>
