<?xml version="1.0" standalone="no"?>
<!DOCTYPE svg PUBLIC "-//W3C//DTD SVG 20010904//EN"
 "http://www.w3.org/TR/2001/REC-SVG-20010904/DTD/svg10.dtd">
<svg version="1.0" xmlns="http://www.w3.org/2000/svg"
 width="56.000000pt" height="56.000000pt" viewBox="0 0 56.000000 56.000000"
 preserveAspectRatio="xMidYMid meet">
<metadata>
Created by potrace 1.16, written by Peter Selinger 2001-2019
</metadata>
<g transform="translate(0.000000,56.000000) scale(0.100000,-0.100000)"
fill="#000000" stroke="none">
<path d="M492 559 c-15 -1 -37 -7 -50 -14 -13 -7 -23 -16 -23 -21 1 -5 11 -9
24 -9 22 0 22 -2 25 -170 2 -93 4 -190 5 -215 2 -45 2 -45 -43 -48 -25 -2 -49
-7 -54 -12 -6 -6 0 -13 15 -20 13 -6 39 -20 58 -31 29 -17 38 -19 57 -8 13 6
25 17 28 24 2 7 1 91 -3 186 -5 96 -6 200 -3 231 2 31 2 69 -2 83 -5 19 -12
25 -34 24z"/>
<path d="M142 473 c-10 10 -22 14 -25 10 -4 -3 -7 -17 -7 -30 0 -13 -18 -63
-41 -111 -30 -63 -42 -105 -46 -152 -3 -36 0 -77 6 -92 6 -16 17 -28 25 -28 8
0 32 10 54 21 33 18 46 35 73 93 19 39 37 82 42 96 5 14 12 39 16 57 7 25 6
30 -5 26 -8 -3 -21 -22 -30 -42 -9 -20 -25 -55 -36 -78 -11 -23 -31 -52 -44
-64 -14 -13 -29 -19 -40 -15 -10 4 -14 13 -11 24 3 9 20 57 37 107 18 50 36
94 41 100 5 5 9 21 9 35 0 15 -8 34 -18 43z"/>
<path d="M337 463 c-9 3 -19 1 -23 -4 -3 -6 11 -28 32 -50 21 -21 44 -39 51
-39 8 0 16 7 20 16 4 11 -1 22 -13 31 -10 7 -26 19 -34 26 -9 7 -23 16 -33 20z"/>
<path d="M225 80 c-8 0 -15 -6 -15 -14 0 -8 4 -26 10 -40 7 -19 17 -26 35 -26
14 0 25 3 25 8 0 4 -9 22 -20 40 -11 17 -27 32 -35 32z"/>
</g>
</svg>
