<?xml version="1.0" standalone="no"?>
<!DOCTYPE svg PUBLIC "-//W3C//DTD SVG 20010904//EN"
 "http://www.w3.org/TR/2001/REC-SVG-20010904/DTD/svg10.dtd">
<svg version="1.0" xmlns="http://www.w3.org/2000/svg"
 width="56.000000pt" height="56.000000pt" viewBox="0 0 56.000000 56.000000"
 preserveAspectRatio="xMidYMid meet">
<metadata>
Created by potrace 1.16, written by Peter Selinger 2001-2019
</metadata>
<g transform="translate(0.000000,56.000000) scale(0.100000,-0.100000)"
fill="#000000" stroke="none">
<path d="M360 560 c-5 0 -10 -6 -10 -12 0 -7 7 -22 15 -32 8 -11 15 -26 15
-33 0 -7 -11 -18 -24 -23 -13 -5 -27 -14 -31 -20 -3 -5 -22 -17 -42 -25 -19
-8 -44 -15 -54 -15 -10 0 -25 -10 -33 -22 -9 -12 -16 -32 -16 -43 1 -18 3 -17
21 8 17 22 29 27 61 27 32 0 49 7 80 36 22 19 45 33 51 31 7 -2 13 -14 15 -28
2 -19 -12 -36 -68 -83 -38 -33 -70 -64 -70 -69 0 -5 -11 -22 -25 -39 -14 -16
-25 -35 -25 -41 0 -7 25 -25 55 -41 30 -16 55 -34 55 -41 0 -7 -15 -24 -33
-39 -17 -14 -41 -32 -52 -40 -19 -15 -19 -15 6 -16 16 0 40 12 59 30 18 17 39
30 46 30 8 0 17 -7 20 -15 4 -8 16 -15 29 -15 12 0 27 6 33 13 6 6 10 29 9 49
-1 30 6 45 31 71 18 18 32 40 32 49 0 8 -6 20 -13 26 -7 6 -23 8 -36 5 -22 -6
-23 -4 -18 38 3 24 8 57 12 72 5 18 3 38 -5 53 -11 20 -11 27 5 44 10 11 26
22 36 25 11 4 16 12 12 21 -3 9 -19 14 -42 14 -25 0 -45 8 -63 25 -15 14 -32
25 -38 25z m11 -266 c4 -2 1 -21 -7 -40 -8 -20 -13 -43 -10 -50 3 -8 12 -14
20 -14 9 0 20 -9 26 -19 5 -11 10 -22 10 -25 0 -3 -9 -10 -20 -16 -16 -9 -29
-6 -60 11 -21 12 -42 29 -45 36 -2 8 0 24 6 36 6 12 25 36 42 54 16 18 34 30
38 27z"/>
<path d="M83 470 c-9 0 -13 -15 -13 -47 0 -27 -5 -66 -10 -88 -5 -22 -10 -96
-11 -165 -2 -69 0 -135 5 -147 5 -15 15 -23 30 -23 13 0 28 6 33 13 6 6 13 37
17 67 4 30 17 90 28 133 14 53 17 82 11 88 -7 7 -16 -8 -28 -46 -10 -30 -22
-58 -26 -61 -5 -3 -9 -13 -9 -22 -1 -9 -7 -30 -15 -47 -14 -29 -14 -27 -11 40
1 39 12 103 23 143 12 40 19 83 16 95 -3 12 -10 32 -16 45 -5 12 -16 22 -24
22z"/>
</g>
</svg>
