<?xml version="1.0" standalone="no"?>
<!DOCTYPE svg PUBLIC "-//W3C//DTD SVG 20010904//EN"
 "http://www.w3.org/TR/2001/REC-SVG-20010904/DTD/svg10.dtd">
<svg version="1.0" xmlns="http://www.w3.org/2000/svg"
 width="56.000000pt" height="56.000000pt" viewBox="0 0 56.000000 56.000000"
 preserveAspectRatio="xMidYMid meet">
<metadata>
Created by potrace 1.16, written by Peter Selinger 2001-2019
</metadata>
<g transform="translate(0.000000,56.000000) scale(0.100000,-0.100000)"
fill="#000000" stroke="none">
<path d="M315 490 c-47 0 -59 -5 -100 -37 -26 -21 -85 -74 -131 -117 -46 -44
-84 -86 -84 -93 0 -8 7 -27 15 -43 9 -17 24 -30 34 -30 10 0 21 7 25 15 3 8
16 20 28 26 13 5 30 22 39 37 9 15 50 49 93 76 43 27 95 53 116 58 35 9 43 7
68 -13 16 -13 37 -41 47 -62 9 -21 14 -48 11 -60 -3 -12 -23 -33 -44 -47 -22
-14 -67 -43 -101 -65 -33 -22 -61 -46 -61 -52 0 -9 16 -13 49 -13 31 0 53 5
61 15 7 9 28 23 47 32 19 9 51 36 71 59 20 24 42 44 49 44 8 0 13 12 13 30 0
17 -9 40 -20 52 -11 12 -20 32 -20 44 0 12 -6 29 -14 36 -7 8 -43 27 -80 43
-51 23 -65 34 -62 48 4 15 -3 17 -49 17z"/>
</g>
</svg>
