<?xml version="1.0" standalone="no"?>
<!DOCTYPE svg PUBLIC "-//W3C//DTD SVG 20010904//EN"
 "http://www.w3.org/TR/2001/REC-SVG-20010904/DTD/svg10.dtd">
<svg version="1.0" xmlns="http://www.w3.org/2000/svg"
 width="56.000000pt" height="56.000000pt" viewBox="0 0 56.000000 56.000000"
 preserveAspectRatio="xMidYMid meet">
<metadata>
Created by potrace 1.16, written by Peter Selinger 2001-2019
</metadata>
<g transform="translate(0.000000,56.000000) scale(0.100000,-0.100000)"
fill="#000000" stroke="none">
<path d="M302 560 c-21 0 -30 -7 -40 -30 -9 -19 -20 -29 -30 -28 -13 2 -18 -7
-22 -37 -3 -25 -8 -35 -13 -27 -6 9 -22 1 -58 -30 -27 -24 -68 -67 -90 -96
-27 -37 -38 -60 -34 -73 4 -10 17 -22 31 -25 13 -3 30 -1 37 5 8 6 26 35 41
66 18 34 27 65 24 80 -3 14 1 30 8 36 7 6 22 9 33 7 14 -2 37 17 80 67 34 39
61 73 61 78 0 4 -12 7 -28 7z"/>
<path d="M429 419 c-8 0 -41 -7 -74 -15 -32 -8 -70 -24 -82 -36 -13 -12 -23
-27 -23 -34 0 -7 5 -16 12 -20 6 -4 14 -2 16 4 2 7 12 12 23 12 10 0 19 4 19
9 0 5 20 14 44 20 25 6 56 11 70 11 20 0 26 -5 26 -23 0 -13 5 -28 10 -33 6
-6 8 -28 4 -51 -5 -35 -15 -46 -75 -92 -38 -28 -75 -51 -83 -51 -7 0 -19 -7
-26 -15 -8 -9 -21 -13 -32 -9 -10 3 -24 2 -31 -3 -7 -5 -30 -14 -52 -20 -22
-7 -67 -17 -100 -24 -33 -7 -63 -15 -67 -18 -4 -3 -3 -12 1 -20 7 -11 19 -11
62 -3 30 6 72 16 94 22 22 6 54 14 70 17 17 2 39 8 50 13 11 5 61 23 110 41
50 17 98 38 108 47 9 8 17 21 17 28 0 8 9 19 20 26 11 7 20 23 20 35 0 13 -4
23 -10 23 -5 0 -10 13 -10 29 0 16 -7 34 -15 41 -8 7 -15 18 -15 26 0 7 -15
24 -33 38 -19 15 -40 26 -48 25z"/>
</g>
</svg>
