<?xml version="1.0" standalone="no"?>
<!DOCTYPE svg PUBLIC "-//W3C//DTD SVG 20010904//EN"
 "http://www.w3.org/TR/2001/REC-SVG-20010904/DTD/svg10.dtd">
<svg version="1.0" xmlns="http://www.w3.org/2000/svg"
 width="56.000000pt" height="56.000000pt" viewBox="0 0 56.000000 56.000000"
 preserveAspectRatio="xMidYMid meet">
<metadata>
Created by potrace 1.16, written by Peter Selinger 2001-2019
</metadata>
<g transform="translate(0.000000,56.000000) scale(0.100000,-0.100000)"
fill="#000000" stroke="none">
<path d="M282 500 c-10 0 -32 -15 -49 -32 -17 -18 -54 -53 -84 -78 -29 -25
-75 -65 -101 -89 -27 -24 -48 -51 -48 -61 0 -9 8 -24 18 -33 10 -10 28 -17 39
-17 12 0 34 20 59 55 21 30 59 69 84 87 25 18 55 39 69 46 13 6 31 12 40 12 9
0 21 4 27 9 5 4 21 11 37 15 18 4 29 2 32 -7 3 -7 23 -24 45 -37 25 -15 42
-34 45 -51 4 -17 0 -39 -9 -56 -9 -15 -21 -35 -28 -43 -7 -8 -26 -22 -42 -30
-16 -8 -42 -27 -57 -42 -15 -16 -33 -28 -40 -28 -7 0 -27 -12 -46 -26 -18 -14
-31 -30 -28 -35 4 -5 14 -9 25 -9 10 0 32 14 50 30 18 17 38 30 46 30 8 0 14
5 14 10 0 6 6 10 14 10 7 0 19 6 25 14 6 7 41 31 76 52 65 37 65 37 65 86 0
27 -4 54 -9 61 -6 7 -26 31 -46 53 -19 23 -48 46 -63 52 -15 6 -53 13 -84 17
-41 5 -58 11 -58 21 0 8 -8 14 -18 14z"/>
</g>
</svg>
