<?xml version="1.0" standalone="no"?>
<!DOCTYPE svg PUBLIC "-//W3C//DTD SVG 20010904//EN"
 "http://www.w3.org/TR/2001/REC-SVG-20010904/DTD/svg10.dtd">
<svg version="1.0" xmlns="http://www.w3.org/2000/svg"
 width="56.000000pt" height="56.000000pt" viewBox="0 0 56.000000 56.000000"
 preserveAspectRatio="xMidYMid meet">
<metadata>
Created by potrace 1.16, written by Peter Selinger 2001-2019
</metadata>
<g transform="translate(0.000000,56.000000) scale(0.100000,-0.100000)"
fill="#000000" stroke="none">
<path d="M293 560 c-10 0 -28 -16 -41 -36 -13 -20 -32 -52 -44 -72 -11 -21
-42 -67 -69 -103 -45 -61 -49 -71 -49 -124 0 -41 4 -56 13 -53 6 2 28 36 47
76 19 40 39 72 44 72 6 0 19 -11 31 -25 20 -25 20 -25 69 6 43 27 52 29 72 18
17 -9 24 -21 24 -42 0 -16 -15 -56 -32 -90 -18 -33 -47 -76 -65 -94 -17 -19
-39 -45 -47 -58 -9 -13 -16 -27 -16 -30 0 -3 12 -5 28 -5 21 0 34 11 62 52 19
28 41 58 49 65 8 8 24 29 37 46 12 18 33 52 46 75 22 44 22 44 1 80 -11 21
-32 45 -45 55 -24 18 -26 18 -79 -2 -30 -12 -62 -21 -71 -21 -9 0 -20 9 -23
20 -4 12 -1 27 5 35 7 8 25 42 41 76 16 33 29 65 29 70 0 5 -8 9 -17 9z"/>
</g>
</svg>
