<?xml version="1.0" standalone="no"?>
<!DOCTYPE svg PUBLIC "-//W3C//DTD SVG 20010904//EN"
 "http://www.w3.org/TR/2001/REC-SVG-20010904/DTD/svg10.dtd">
<svg version="1.0" xmlns="http://www.w3.org/2000/svg"
 width="56.000000pt" height="56.000000pt" viewBox="0 0 56.000000 56.000000"
 preserveAspectRatio="xMidYMid meet">
<metadata>
Created by potrace 1.16, written by Peter Selinger 2001-2019
</metadata>
<g transform="translate(0.000000,56.000000) scale(0.100000,-0.100000)"
fill="#000000" stroke="none">
<path d="M433 499 c-32 -1 -80 -5 -107 -10 -27 -4 -52 -12 -55 -16 -3 -5 -21
-15 -39 -22 -18 -8 -35 -11 -39 -7 -3 3 -12 1 -19 -5 -8 -6 -21 -9 -29 -5 -8
3 -30 -3 -48 -14 -17 -11 -42 -20 -53 -20 -12 0 -28 -7 -35 -16 -11 -14 -10
-19 10 -35 13 -11 39 -19 58 -19 19 0 47 8 61 18 15 10 38 23 52 29 14 6 50
18 80 27 30 10 68 28 84 41 29 23 30 23 65 5 20 -10 44 -32 54 -49 13 -22 16
-44 13 -83 -2 -29 -8 -69 -14 -89 -5 -20 -22 -61 -38 -90 -16 -30 -33 -57 -38
-60 -5 -4 -5 -12 -2 -18 4 -6 15 -11 25 -11 9 0 26 9 37 20 10 10 24 25 29 32
6 7 21 45 33 83 12 39 22 80 22 92 0 12 5 25 10 28 6 3 10 26 10 51 0 35 -6
51 -26 72 -14 15 -30 37 -35 50 -7 19 -15 22 -66 21z"/>
<path d="M320 80 c-11 0 -20 -7 -20 -15 0 -8 9 -15 20 -15 11 0 20 7 20 15 0
8 -9 15 -20 15z"/>
</g>
</svg>
