<?xml version="1.0" standalone="no"?>
<!DOCTYPE svg PUBLIC "-//W3C//DTD SVG 20010904//EN"
 "http://www.w3.org/TR/2001/REC-SVG-20010904/DTD/svg10.dtd">
<svg version="1.0" xmlns="http://www.w3.org/2000/svg"
 width="56.000000pt" height="56.000000pt" viewBox="0 0 56.000000 56.000000"
 preserveAspectRatio="xMidYMid meet">
<metadata>
Created by potrace 1.16, written by Peter Selinger 2001-2019
</metadata>
<g transform="translate(0.000000,56.000000) scale(0.100000,-0.100000)"
fill="#000000" stroke="none">
<path d="M87 550 c-2 0 -12 -6 -22 -14 -11 -8 -16 -19 -12 -30 4 -9 17 -16 32
-16 23 0 25 -3 25 -50 0 -27 -7 -73 -15 -102 -8 -29 -22 -78 -31 -109 -11 -37
-14 -70 -10 -93 4 -21 25 -57 49 -85 23 -27 49 -50 58 -50 9 -1 21 5 26 11 5
7 15 37 21 66 7 30 12 69 12 87 0 19 4 37 10 40 6 3 10 15 10 25 0 10 -5 22
-11 25 -6 4 -12 5 -14 3 -3 -2 -12 -33 -21 -69 -9 -35 -21 -73 -26 -83 -10
-19 -11 -19 -31 5 -16 20 -18 33 -13 84 3 33 10 80 15 105 5 25 18 75 27 112
17 66 17 68 -2 89 -10 11 -31 27 -46 35 -15 8 -29 14 -31 14z"/>
<path d="M346 540 c-7 0 -16 -3 -19 -7 -4 -3 -7 -12 -7 -19 0 -6 9 -14 21 -17
12 -3 18 -10 14 -16 -3 -6 -24 -14 -46 -17 -21 -4 -39 -12 -39 -19 0 -7 7 -16
16 -19 9 -4 32 -3 51 0 31 6 35 4 30 -12 -3 -11 -13 -45 -23 -77 -9 -32 -21
-60 -25 -63 -5 -3 -9 -9 -9 -15 0 -5 5 -9 12 -9 6 0 19 7 29 16 10 9 26 14 35
10 11 -4 14 -13 11 -29 -3 -12 -9 -39 -12 -59 -6 -29 -3 -40 12 -52 10 -9 27
-22 38 -30 19 -14 19 -16 -25 -60 -44 -46 -44 -46 -13 -46 22 0 43 12 77 43
25 24 46 51 46 60 0 8 -13 25 -29 36 -16 12 -33 21 -39 21 -5 0 -12 10 -16 23
-3 14 4 42 20 75 14 29 23 59 20 67 -3 9 -19 15 -41 15 -32 0 -35 2 -35 31 0
17 4 39 10 49 7 12 20 18 41 18 16 -1 37 6 46 15 8 8 12 20 8 26 -4 7 -15 9
-26 6 -10 -3 -27 -7 -38 -10 -14 -4 -20 1 -25 18 -3 13 -17 29 -31 35 -14 7
-32 12 -39 12z"/>
</g>
</svg>
