<?xml version="1.0" standalone="no"?>
<!DOCTYPE svg PUBLIC "-//W3C//DTD SVG 20010904//EN"
 "http://www.w3.org/TR/2001/REC-SVG-20010904/DTD/svg10.dtd">
<svg version="1.0" xmlns="http://www.w3.org/2000/svg"
 width="56.000000pt" height="56.000000pt" viewBox="0 0 56.000000 56.000000"
 preserveAspectRatio="xMidYMid meet">
<metadata>
Created by potrace 1.16, written by Peter Selinger 2001-2019
</metadata>
<g transform="translate(0.000000,56.000000) scale(0.100000,-0.100000)"
fill="#000000" stroke="none">
<path d="M291 520 c-20 0 -34 -8 -47 -27 -10 -16 -28 -36 -41 -47 -13 -10 -41
-41 -62 -70 -21 -28 -62 -76 -90 -106 -28 -30 -51 -58 -51 -61 0 -4 9 -18 21
-33 11 -14 26 -26 33 -26 6 0 31 29 54 64 22 34 59 79 82 100 22 20 44 36 50
36 5 0 17 -14 25 -30 14 -26 18 -29 36 -19 11 6 39 28 60 49 35 34 43 38 63
29 12 -6 37 -33 55 -60 25 -38 30 -53 22 -68 -6 -10 -26 -34 -45 -53 -20 -20
-43 -38 -51 -42 -8 -3 -15 -11 -15 -18 0 -7 -17 -21 -38 -30 -20 -8 -48 -25
-61 -35 -14 -11 -21 -25 -17 -31 4 -7 21 -12 37 -12 17 0 40 5 52 12 12 6 52
36 90 66 37 30 67 60 67 67 0 8 8 11 20 8 19 -5 20 0 20 61 0 36 -4 66 -9 66
-5 0 -14 14 -21 30 -7 17 -31 46 -53 65 -27 23 -51 35 -70 35 -17 0 -54 -13
-84 -30 -29 -16 -60 -30 -68 -30 -9 0 -15 9 -15 24 0 15 15 37 40 60 22 20 40
40 40 46 0 5 -13 10 -29 10z"/>
</g>
</svg>
