<?xml version="1.0" standalone="no"?>
<!DOCTYPE svg PUBLIC "-//W3C//DTD SVG 20010904//EN"
 "http://www.w3.org/TR/2001/REC-SVG-20010904/DTD/svg10.dtd">
<svg version="1.0" xmlns="http://www.w3.org/2000/svg"
 width="56.000000pt" height="56.000000pt" viewBox="0 0 56.000000 56.000000"
 preserveAspectRatio="xMidYMid meet">
<metadata>
Created by potrace 1.16, written by Peter Selinger 2001-2019
</metadata>
<g transform="translate(0.000000,56.000000) scale(0.100000,-0.100000)"
fill="#000000" stroke="none">
<path d="M420 449 c-3 -1 -27 -7 -55 -14 -27 -7 -63 -18 -80 -25 -16 -7 -39
-16 -50 -21 -11 -5 -45 -15 -75 -23 -30 -8 -79 -22 -107 -32 -29 -9 -53 -23
-53 -30 0 -7 13 -22 29 -33 16 -12 37 -21 47 -21 10 0 59 20 111 45 51 25 93
50 93 56 0 6 7 9 15 6 8 -4 17 -2 20 3 4 6 26 10 49 10 24 0 60 -7 79 -15 20
-8 38 -23 42 -34 4 -13 -4 -33 -22 -59 -15 -21 -46 -53 -69 -71 -23 -17 -52
-31 -65 -31 -14 0 -32 -9 -41 -19 -14 -17 -15 -20 -1 -25 8 -3 30 -6 48 -6 19
0 37 5 40 10 3 6 23 10 43 10 30 0 46 8 80 40 41 39 42 41 42 105 0 52 -4 69
-20 85 -11 11 -20 24 -20 30 0 5 -17 21 -37 35 -21 14 -40 25 -43 24z"/>
</g>
</svg>
