<?xml version="1.0" standalone="no"?>
<!DOCTYPE svg PUBLIC "-//W3C//DTD SVG 20010904//EN"
 "http://www.w3.org/TR/2001/REC-SVG-20010904/DTD/svg10.dtd">
<svg version="1.0" xmlns="http://www.w3.org/2000/svg"
 width="56.000000pt" height="56.000000pt" viewBox="0 0 56.000000 56.000000"
 preserveAspectRatio="xMidYMid meet">
<metadata>
Created by potrace 1.16, written by Peter Selinger 2001-2019
</metadata>
<g transform="translate(0.000000,56.000000) scale(0.100000,-0.100000)"
fill="#000000" stroke="none">
<path d="M130 560 c-27 0 -27 0 -19 -49 4 -27 4 -64 0 -82 -5 -19 -15 -50 -24
-71 -8 -20 -21 -62 -27 -93 -9 -44 -9 -68 0 -104 6 -25 23 -72 38 -104 14 -31
31 -57 37 -57 6 0 18 6 27 12 11 9 18 34 21 73 3 33 10 85 16 115 7 30 17 67
23 83 6 15 15 27 21 27 5 0 21 -12 34 -26 13 -14 27 -23 30 -20 4 3 10 28 13
54 4 26 15 70 25 97 10 28 23 60 28 73 6 12 16 22 23 22 6 0 15 -8 19 -17 4
-10 11 -81 16 -158 5 -77 12 -156 15 -175 4 -31 1 -38 -28 -58 -18 -13 -54
-36 -80 -52 -27 -16 -48 -34 -48 -40 0 -5 15 -10 34 -10 21 0 36 6 40 15 3 9
18 15 34 15 16 0 46 7 66 15 31 13 36 20 36 49 0 19 -4 46 -10 61 -5 14 -12
74 -15 133 -3 59 -8 131 -10 161 -2 30 -9 59 -14 64 -6 6 -11 19 -11 29 0 14
-8 18 -35 18 -19 0 -35 -5 -35 -11 0 -6 -8 -23 -18 -37 -10 -15 -24 -42 -30
-59 -7 -18 -17 -46 -23 -63 -6 -16 -18 -30 -25 -30 -8 0 -23 6 -34 12 -13 8
-23 9 -29 3 -6 -6 -25 -57 -43 -114 -19 -58 -39 -106 -46 -109 -8 -2 -12 12
-12 50 0 29 10 87 22 128 12 41 22 110 24 153 2 77 2 77 -26 77z"/>
</g>
</svg>
