<?xml version="1.0" standalone="no"?>
<!DOCTYPE svg PUBLIC "-//W3C//DTD SVG 20010904//EN"
 "http://www.w3.org/TR/2001/REC-SVG-20010904/DTD/svg10.dtd">
<svg version="1.0" xmlns="http://www.w3.org/2000/svg"
 width="56.000000pt" height="56.000000pt" viewBox="0 0 56.000000 56.000000"
 preserveAspectRatio="xMidYMid meet">
<metadata>
Created by potrace 1.16, written by Peter Selinger 2001-2019
</metadata>
<g transform="translate(0.000000,56.000000) scale(0.100000,-0.100000)"
fill="#000000" stroke="none">
<path d="M450 505 c-19 3 -56 -1 -81 -8 -25 -7 -58 -22 -75 -33 -16 -11 -40
-25 -54 -31 -14 -5 -36 -15 -50 -20 -14 -6 -36 -15 -50 -21 -14 -6 -38 -13
-55 -17 -16 -3 -42 -9 -58 -12 -15 -3 -27 -11 -27 -18 0 -8 13 -23 29 -34 16
-12 34 -21 40 -21 6 0 39 17 73 38 35 21 88 50 118 64 30 15 72 33 94 42 21 9
56 16 77 16 33 0 42 -5 64 -37 14 -21 25 -49 25 -63 0 -15 -7 -35 -15 -46 -8
-10 -15 -26 -15 -35 0 -9 -28 -59 -61 -110 -34 -52 -67 -97 -73 -101 -8 -5 -8
-10 0 -18 7 -7 22 -10 34 -8 13 2 31 19 45 43 12 22 39 67 59 100 20 33 39 70
42 83 4 12 10 22 15 22 5 0 9 29 9 65 0 47 -5 71 -17 86 -10 12 -27 32 -38 46
-12 14 -34 25 -55 28z"/>
</g>
</svg>
