<?xml version="1.0" standalone="no"?>
<!DOCTYPE svg PUBLIC "-//W3C//DTD SVG 20010904//EN"
 "http://www.w3.org/TR/2001/REC-SVG-20010904/DTD/svg10.dtd">
<svg version="1.0" xmlns="http://www.w3.org/2000/svg"
 width="56.000000pt" height="56.000000pt" viewBox="0 0 56.000000 56.000000"
 preserveAspectRatio="xMidYMid meet">
<metadata>
Created by potrace 1.16, written by Peter Selinger 2001-2019
</metadata>
<g transform="translate(0.000000,56.000000) scale(0.100000,-0.100000)"
fill="#000000" stroke="none">
<path d="M300 560 c-22 0 -40 -4 -40 -8 0 -5 -19 -22 -42 -39 -24 -17 -67 -54
-97 -82 -30 -28 -58 -51 -61 -51 -4 0 -12 -11 -18 -25 -7 -14 -12 -48 -12 -75
0 -28 4 -50 8 -50 5 0 18 13 30 30 12 16 22 33 22 37 0 4 16 25 36 46 22 23
42 36 51 33 8 -3 17 -6 19 -6 2 0 4 -6 4 -14 0 -9 9 -14 23 -13 12 2 41 13 64
25 23 12 58 22 77 22 30 0 40 -7 71 -47 29 -39 35 -52 29 -77 -3 -17 -17 -54
-30 -82 -13 -27 -32 -57 -41 -66 -10 -10 -38 -34 -63 -56 -25 -21 -54 -43 -65
-48 -16 -7 -12 -9 24 -12 31 -2 57 4 95 22 35 17 59 38 76 66 14 22 27 40 31
40 3 0 11 11 17 25 7 14 12 53 12 85 0 32 -6 72 -12 87 -7 15 -17 34 -23 42
-5 7 -23 27 -39 43 -28 28 -33 29 -100 25 -39 -2 -85 -10 -103 -17 -18 -8 -35
-11 -39 -8 -3 4 16 27 42 52 26 26 58 53 71 61 13 9 23 20 23 25 0 6 -18 10
-40 10z"/>
</g>
</svg>
