<?xml version="1.0" standalone="no"?>
<!DOCTYPE svg PUBLIC "-//W3C//DTD SVG 20010904//EN"
 "http://www.w3.org/TR/2001/REC-SVG-20010904/DTD/svg10.dtd">
<svg version="1.0" xmlns="http://www.w3.org/2000/svg"
 width="56.000000pt" height="56.000000pt" viewBox="0 0 56.000000 56.000000"
 preserveAspectRatio="xMidYMid meet">
<metadata>
Created by potrace 1.16, written by Peter Selinger 2001-2019
</metadata>
<g transform="translate(0.000000,56.000000) scale(0.100000,-0.100000)"
fill="#000000" stroke="none">
<path d="M298 560 c-31 -1 -35 -6 -66 -68 -18 -37 -40 -80 -49 -97 -10 -16
-31 -52 -48 -80 -17 -27 -39 -71 -48 -96 -10 -25 -33 -72 -52 -104 -19 -31
-35 -65 -35 -74 0 -9 4 -23 10 -31 7 -11 15 -12 37 -4 23 8 39 31 84 124 31
63 61 116 67 118 6 2 24 -17 42 -42 17 -26 38 -46 46 -46 9 0 30 16 47 35 20
23 37 33 48 30 11 -4 21 1 27 11 6 11 16 15 26 11 10 -4 16 -15 14 -25 -2 -11
3 -26 10 -35 8 -9 10 -25 6 -41 -3 -15 -25 -42 -48 -62 -22 -20 -53 -43 -68
-52 -16 -9 -28 -20 -28 -26 0 -5 22 -6 51 -3 29 4 61 14 72 24 11 10 37 40 58
66 30 37 39 58 39 86 0 28 -9 50 -36 85 -34 45 -38 47 -72 41 -20 -4 -58 -18
-85 -31 -49 -25 -49 -25 -86 12 -38 37 -38 37 15 145 30 59 54 113 54 119 0 5
-15 10 -32 10z"/>
</g>
</svg>
