<?xml version="1.0" standalone="no"?>
<!DOCTYPE svg PUBLIC "-//W3C//DTD SVG 20010904//EN"
 "http://www.w3.org/TR/2001/REC-SVG-20010904/DTD/svg10.dtd">
<svg version="1.0" xmlns="http://www.w3.org/2000/svg"
 width="56.000000pt" height="56.000000pt" viewBox="0 0 56.000000 56.000000"
 preserveAspectRatio="xMidYMid meet">
<metadata>
Created by potrace 1.16, written by Peter Selinger 2001-2019
</metadata>
<g transform="translate(0.000000,56.000000) scale(0.100000,-0.100000)"
fill="#000000" stroke="none">
<path d="M262 560 c-48 0 -53 -2 -47 -17 4 -10 9 -25 12 -34 2 -8 -14 -40 -36
-69 -23 -30 -41 -58 -41 -62 0 -4 -19 -31 -42 -60 -24 -29 -52 -79 -62 -111
-18 -54 -19 -60 -4 -85 9 -15 21 -28 27 -30 6 -2 21 19 34 47 14 32 29 51 42
53 17 3 20 11 20 59 0 42 5 62 19 78 11 11 25 21 33 21 7 0 17 -10 22 -23 5
-13 16 -29 24 -36 13 -10 20 -9 41 4 16 10 33 14 47 10 13 -4 24 -2 29 5 4 7
15 10 24 7 9 -4 16 -11 16 -17 0 -5 -6 -10 -14 -10 -8 0 -16 -6 -19 -12 -2 -7
0 -20 6 -28 7 -12 -3 -33 -39 -85 -27 -39 -61 -83 -76 -100 -15 -16 -28 -36
-28 -42 0 -7 7 -13 15 -13 8 0 15 5 15 10 0 6 6 10 14 10 7 0 21 11 30 24 8
14 31 30 51 37 22 8 35 20 35 30 0 10 5 21 11 24 5 4 30 34 55 68 24 34 44 69
44 78 0 9 -20 35 -45 58 -41 38 -49 41 -99 41 -45 0 -58 4 -70 22 -9 12 -16
30 -16 39 0 10 11 26 25 37 14 11 25 26 25 34 0 8 -5 19 -12 26 -7 7 -36 12
-66 12z"/>
<path d="M175 538 c-13 6 -27 7 -29 3 -3 -5 -19 -11 -36 -14 -20 -5 -34 -15
-40 -32 -5 -14 -17 -28 -25 -31 -10 -4 -15 -20 -15 -50 0 -24 5 -44 10 -44 6
0 12 6 14 13 3 6 7 24 10 39 3 15 15 30 26 33 12 4 32 17 47 31 14 13 32 24
39 24 7 0 15 4 18 9 3 4 -6 13 -19 19z"/>
<path d="M364 520 c-8 0 -14 -4 -14 -10 0 -5 16 -17 36 -25 20 -8 40 -12 45
-9 5 3 7 10 3 15 -3 6 -12 8 -19 5 -8 -3 -19 2 -25 10 -7 8 -19 14 -26 14z"/>
<path d="M435 50 c-11 0 -15 -5 -12 -14 3 -7 0 -19 -6 -26 -9 -9 -8 -11 8 -8
12 2 21 13 23 26 2 15 -2 22 -13 22z"/>
</g>
</svg>
