<?xml version="1.0" standalone="no"?>
<!DOCTYPE svg PUBLIC "-//W3C//DTD SVG 20010904//EN"
 "http://www.w3.org/TR/2001/REC-SVG-20010904/DTD/svg10.dtd">
<svg version="1.0" xmlns="http://www.w3.org/2000/svg"
 width="56.000000pt" height="56.000000pt" viewBox="0 0 56.000000 56.000000"
 preserveAspectRatio="xMidYMid meet">
<metadata>
Created by potrace 1.16, written by Peter Selinger 2001-2019
</metadata>
<g transform="translate(0.000000,56.000000) scale(0.100000,-0.100000)"
fill="#000000" stroke="none">
<path d="M418 560 c-29 -1 -58 -6 -65 -11 -6 -6 -22 -21 -35 -32 -13 -12 -43
-31 -65 -41 -23 -10 -58 -36 -79 -57 -21 -21 -43 -39 -49 -39 -7 0 -26 -7 -42
-15 -17 -9 -34 -22 -37 -31 -3 -9 5 -30 20 -50 15 -19 34 -34 44 -34 9 0 25
10 36 21 10 12 54 48 97 80 43 33 83 59 89 59 6 0 30 -20 54 -44 34 -36 41
-49 36 -72 -2 -16 -20 -48 -38 -71 -19 -23 -34 -45 -35 -50 0 -4 -27 -30 -61
-58 -33 -27 -80 -63 -106 -80 -46 -30 -46 -30 21 -33 37 -2 97 -2 134 0 68 3
68 3 26 25 -23 13 -44 26 -47 31 -3 5 17 25 43 44 26 20 69 61 95 91 34 41 47
64 48 89 1 20 -9 57 -22 84 -13 27 -32 57 -44 66 -12 10 -28 18 -36 18 -8 0
-21 4 -28 8 -7 5 -10 16 -7 24 4 9 29 26 56 39 27 13 49 27 49 31 0 5 -24 8
-52 8z"/>
</g>
</svg>
