<?xml version="1.0" standalone="no"?>
<!DOCTYPE svg PUBLIC "-//W3C//DTD SVG 20010904//EN"
 "http://www.w3.org/TR/2001/REC-SVG-20010904/DTD/svg10.dtd">
<svg version="1.0" xmlns="http://www.w3.org/2000/svg"
 width="56.000000pt" height="56.000000pt" viewBox="0 0 56.000000 56.000000"
 preserveAspectRatio="xMidYMid meet">
<metadata>
Created by potrace 1.16, written by Peter Selinger 2001-2019
</metadata>
<g transform="translate(0.000000,56.000000) scale(0.100000,-0.100000)"
fill="#000000" stroke="none">
<path d="M398 518 c-32 2 -59 -2 -63 -8 -3 -5 -23 -10 -43 -10 -21 0 -55 -9
-77 -20 -22 -11 -45 -20 -52 -20 -7 0 -13 -4 -13 -9 0 -5 -10 -11 -21 -14 -15
-4 -20 -11 -16 -21 5 -12 0 -16 -22 -16 -15 0 -42 -7 -59 -16 -18 -8 -32 -21
-32 -28 0 -8 19 -16 52 -19 47 -6 55 -4 80 20 15 15 28 33 28 40 0 7 6 13 13
13 6 0 23 9 37 20 14 11 39 20 56 20 16 0 35 5 41 11 7 7 29 13 50 15 21 2 53
3 71 3 27 0 33 4 30 18 -2 14 -15 19 -60 21z"/>
<path d="M470 480 c-5 0 -11 -7 -14 -16 -3 -9 -4 -20 0 -25 3 -5 16 -9 30 -9
20 0 24 -5 23 -27 0 -16 2 -60 5 -100 6 -67 5 -73 -21 -105 -15 -18 -30 -35
-33 -38 -3 -3 -16 -19 -28 -37 -12 -17 -38 -41 -57 -53 -19 -12 -35 -28 -35
-36 0 -8 5 -14 10 -14 6 0 25 7 43 16 18 9 44 28 60 42 15 14 27 31 27 37 0 6
14 23 31 38 24 21 30 33 26 53 -3 16 1 28 9 31 10 4 14 27 14 89 0 49 -4 84
-10 84 -5 0 -10 9 -10 19 0 12 -13 26 -32 35 -17 9 -34 16 -38 16z"/>
</g>
</svg>
