<?xml version="1.0" standalone="no"?>
<!DOCTYPE svg PUBLIC "-//W3C//DTD SVG 20010904//EN"
 "http://www.w3.org/TR/2001/REC-SVG-20010904/DTD/svg10.dtd">
<svg version="1.0" xmlns="http://www.w3.org/2000/svg"
 width="56.000000pt" height="56.000000pt" viewBox="0 0 56.000000 56.000000"
 preserveAspectRatio="xMidYMid meet">
<metadata>
Created by potrace 1.16, written by Peter Selinger 2001-2019
</metadata>
<g transform="translate(0.000000,56.000000) scale(0.100000,-0.100000)"
fill="#000000" stroke="none">
<path d="M378 528 c-10 2 -18 -1 -18 -7 0 -6 -11 -11 -25 -11 -14 0 -42 -7
-62 -15 -21 -9 -40 -19 -43 -23 -3 -4 -16 -13 -30 -21 -14 -8 -36 -20 -50 -27
-14 -7 -53 -25 -87 -41 -34 -15 -62 -33 -62 -40 -1 -6 9 -19 21 -27 12 -9 30
-16 39 -16 9 0 29 10 45 22 15 13 42 31 59 40 16 10 45 25 63 34 19 10 36 23
39 31 3 7 25 23 49 34 24 11 44 23 44 28 0 5 8 8 18 7 9 0 17 6 17 14 0 8 -8
16 -17 18z"/>
<path d="M444 520 c-19 0 -34 -4 -34 -10 0 -5 18 -26 41 -47 38 -36 41 -42 41
-96 1 -57 1 -57 34 -57 34 0 34 0 34 53 0 41 -4 55 -20 65 -11 7 -20 17 -20
23 0 6 -9 24 -21 40 -16 22 -28 29 -55 29z"/>
<path d="M400 180 c-11 0 -22 -4 -25 -10 -3 -5 -19 -10 -35 -10 -16 0 -81 -25
-144 -55 -63 -31 -119 -62 -125 -69 -6 -7 -8 -16 -4 -19 3 -4 15 -7 25 -7 10
0 65 22 121 49 56 28 123 53 149 56 26 4 52 13 58 20 6 7 8 20 4 29 -3 9 -14
16 -24 16z"/>
</g>
</svg>
