<?xml version="1.0" standalone="no"?>
<!DOCTYPE svg PUBLIC "-//W3C//DTD SVG 20010904//EN"
 "http://www.w3.org/TR/2001/REC-SVG-20010904/DTD/svg10.dtd">
<svg version="1.0" xmlns="http://www.w3.org/2000/svg"
 width="56.000000pt" height="56.000000pt" viewBox="0 0 56.000000 56.000000"
 preserveAspectRatio="xMidYMid meet">
<metadata>
Created by potrace 1.16, written by Peter Selinger 2001-2019
</metadata>
<g transform="translate(0.000000,56.000000) scale(0.100000,-0.100000)"
fill="#000000" stroke="none">
<path d="M90 560 c-11 0 -20 -22 -33 -76 -10 -42 -21 -127 -24 -189 -4 -82 -2
-114 7 -120 6 -4 16 -3 21 2 6 6 17 48 26 94 8 46 16 95 17 109 0 14 6 30 13
35 10 8 10 25 1 78 -9 49 -16 67 -28 67z"/>
<path d="M438 560 c-39 -1 -46 -5 -74 -43 -17 -23 -37 -52 -43 -65 -10 -19
-17 -21 -51 -16 -31 5 -40 3 -40 -7 0 -8 -9 -22 -20 -32 -11 -9 -20 -25 -20
-34 0 -10 -7 -38 -15 -61 -9 -24 -24 -61 -35 -83 -11 -21 -20 -47 -20 -59 0
-13 -7 -20 -18 -20 -10 0 -23 5 -29 11 -7 7 -19 9 -27 6 -11 -4 -16 -19 -16
-46 0 -34 5 -44 33 -65 19 -15 38 -26 43 -26 5 0 22 19 36 41 20 30 25 49 21
70 -4 21 1 36 22 60 17 21 25 39 21 53 -3 11 -2 25 3 30 4 6 14 32 21 59 7 26
16 47 19 47 4 0 16 -7 27 -15 10 -8 29 -15 42 -15 19 0 22 5 22 35 0 21 11 52
25 76 14 22 33 43 41 46 9 3 21 -3 31 -16 12 -18 15 -56 16 -192 0 -169 0
-169 -50 -218 -28 -28 -63 -53 -77 -57 -14 -3 -29 -10 -32 -15 -3 -5 22 -9 55
-9 42 0 70 6 92 19 17 10 42 35 56 56 24 35 24 40 19 163 -3 70 -8 152 -11
182 -4 30 -11 59 -16 65 -5 5 -9 24 -9 42 0 32 -1 33 -42 33z"/>
</g>
</svg>
