<?xml version="1.0" standalone="no"?>
<!DOCTYPE svg PUBLIC "-//W3C//DTD SVG 20010904//EN"
 "http://www.w3.org/TR/2001/REC-SVG-20010904/DTD/svg10.dtd">
<svg version="1.0" xmlns="http://www.w3.org/2000/svg"
 width="56.000000pt" height="56.000000pt" viewBox="0 0 56.000000 56.000000"
 preserveAspectRatio="xMidYMid meet">
<metadata>
Created by potrace 1.16, written by Peter Selinger 2001-2019
</metadata>
<g transform="translate(0.000000,56.000000) scale(0.100000,-0.100000)"
fill="#000000" stroke="none">
<path d="M270 560 c-16 0 -30 -4 -30 -9 0 -4 -21 -29 -47 -55 -26 -26 -58 -54
-73 -62 -14 -9 -33 -26 -40 -39 -8 -12 -28 -41 -43 -64 -15 -23 -25 -46 -22
-51 4 -6 12 -10 19 -10 8 0 19 7 27 16 7 8 30 24 51 35 25 13 47 17 65 13 16
-4 41 -13 57 -21 20 -11 31 -12 39 -4 6 6 19 11 29 11 10 0 18 7 18 15 0 8 9
23 21 33 18 17 18 20 4 26 -10 3 -29 -3 -45 -14 -15 -11 -41 -20 -57 -20 -17
0 -37 8 -46 18 -10 10 -17 23 -17 29 0 6 6 16 14 23 8 6 12 18 9 26 -3 8 1 14
8 14 8 0 31 19 51 41 21 23 38 43 38 45 0 2 -13 4 -30 4z"/>
<path d="M424 403 c-13 2 -32 -1 -41 -8 -16 -12 -14 -14 17 -28 19 -8 45 -24
58 -36 15 -15 22 -34 22 -57 0 -28 -8 -43 -33 -67 -19 -18 -45 -41 -59 -52
-13 -11 -41 -28 -62 -37 -20 -10 -43 -18 -50 -18 -8 0 -19 -7 -26 -15 -9 -11
-10 -19 -3 -26 7 -7 24 -4 54 10 23 12 49 21 57 21 8 0 43 14 77 30 44 21 70
41 85 66 18 28 21 44 16 76 -4 26 -21 57 -47 88 -22 26 -51 50 -65 53z"/>
<path d="M188 59 c-18 0 -47 -7 -64 -14 -17 -8 -36 -21 -43 -29 -12 -14 -8
-16 29 -16 23 0 57 7 76 16 19 9 34 23 34 30 0 9 -11 14 -32 13z"/>
</g>
</svg>
