<?xml version="1.0" standalone="no"?>
<!DOCTYPE svg PUBLIC "-//W3C//DTD SVG 20010904//EN"
 "http://www.w3.org/TR/2001/REC-SVG-20010904/DTD/svg10.dtd">
<svg version="1.0" xmlns="http://www.w3.org/2000/svg"
 width="56.000000pt" height="56.000000pt" viewBox="0 0 56.000000 56.000000"
 preserveAspectRatio="xMidYMid meet">
<metadata>
Created by potrace 1.16, written by Peter Selinger 2001-2019
</metadata>
<g transform="translate(0.000000,56.000000) scale(0.100000,-0.100000)"
fill="#000000" stroke="none">
<path d="M220 560 c-16 0 -30 -5 -30 -10 0 -6 -16 -34 -37 -63 -20 -28 -46
-65 -58 -82 -11 -16 -34 -57 -50 -90 -26 -51 -30 -71 -30 -145 0 -77 2 -85 19
-85 14 0 22 12 32 50 8 28 20 77 26 110 6 33 22 77 35 98 13 20 29 37 36 37 7
0 32 -20 56 -44 39 -39 46 -43 65 -33 11 7 37 24 57 39 20 15 47 29 59 30 14
2 29 -6 40 -22 10 -14 21 -44 25 -67 6 -35 4 -43 -9 -43 -9 0 -16 -4 -16 -9 0
-5 6 -11 13 -14 9 -3 8 -12 -4 -39 -10 -19 -41 -55 -70 -81 -30 -25 -67 -57
-84 -71 -30 -25 -30 -25 3 -26 20 0 35 6 38 15 4 8 11 15 18 15 6 0 36 15 66
34 30 19 61 41 69 50 13 13 16 13 27 -2 12 -16 13 -16 20 2 4 12 3 21 -3 23
-7 3 -8 17 -2 44 6 24 6 70 0 116 -8 61 -15 81 -35 102 -23 23 -35 26 -89 26
-50 0 -69 -5 -91 -23 -16 -12 -36 -22 -45 -22 -9 0 -33 14 -53 30 -37 31 -37
31 -17 65 11 18 27 39 35 45 7 7 14 19 14 26 0 9 -11 14 -30 14z"/>
</g>
</svg>
