<?xml version="1.0" standalone="no"?>
<!DOCTYPE svg PUBLIC "-//W3C//DTD SVG 20010904//EN"
 "http://www.w3.org/TR/2001/REC-SVG-20010904/DTD/svg10.dtd">
<svg version="1.0" xmlns="http://www.w3.org/2000/svg"
 width="56.000000pt" height="56.000000pt" viewBox="0 0 56.000000 56.000000"
 preserveAspectRatio="xMidYMid meet">
<metadata>
Created by potrace 1.16, written by Peter Selinger 2001-2019
</metadata>
<g transform="translate(0.000000,56.000000) scale(0.100000,-0.100000)"
fill="#000000" stroke="none">
<path d="M479 560 c-16 0 -29 -4 -29 -10 0 -5 -6 -10 -14 -10 -8 0 -31 -19
-50 -42 -20 -23 -36 -50 -36 -59 0 -10 -4 -20 -8 -23 -4 -3 -25 -1 -46 4 -25
6 -36 5 -33 -3 2 -6 12 -15 22 -21 11 -6 25 -18 32 -26 7 -8 13 -25 13 -38 0
-18 5 -23 23 -20 19 3 23 11 28 63 3 33 12 75 18 93 7 18 21 37 30 42 9 5 23
5 30 0 11 -6 12 -42 6 -186 -5 -99 -8 -208 -8 -244 0 -46 5 -67 15 -74 9 -5
23 -6 32 -3 15 6 17 27 15 204 -1 109 -4 233 -7 276 -5 77 -5 77 -33 77z"/>
<path d="M163 510 c-7 0 -13 -12 -13 -27 0 -16 -6 -44 -13 -63 -6 -19 -27 -62
-46 -94 -18 -33 -39 -77 -47 -99 -8 -22 -14 -50 -14 -63 0 -13 10 -44 22 -69
13 -27 29 -45 39 -45 9 0 22 7 29 15 7 9 16 32 21 53 4 20 11 51 14 67 4 17
10 39 14 50 5 11 13 36 20 56 6 19 11 41 11 47 0 7 -4 12 -8 12 -5 0 -26 -44
-47 -97 -21 -54 -44 -107 -52 -118 -12 -17 -13 -14 -13 32 0 34 7 65 20 88 11
19 30 52 41 73 12 20 30 49 40 64 11 14 19 32 19 39 0 7 -5 28 -12 46 -7 18
-18 33 -25 33z"/>
</g>
</svg>
