<?xml version="1.0" standalone="no"?>
<!DOCTYPE svg PUBLIC "-//W3C//DTD SVG 20010904//EN"
 "http://www.w3.org/TR/2001/REC-SVG-20010904/DTD/svg10.dtd">
<svg version="1.0" xmlns="http://www.w3.org/2000/svg"
 width="56.000000pt" height="56.000000pt" viewBox="0 0 56.000000 56.000000"
 preserveAspectRatio="xMidYMid meet">
<metadata>
Created by potrace 1.16, written by Peter Selinger 2001-2019
</metadata>
<g transform="translate(0.000000,56.000000) scale(0.100000,-0.100000)"
fill="#000000" stroke="none">
<path d="M298 430 c-9 0 -20 -5 -23 -10 -4 -6 -10 -8 -15 -5 -4 3 -28 -3 -52
-14 -23 -10 -51 -28 -61 -39 -12 -13 -15 -22 -8 -27 6 -3 11 -11 11 -17 0 -6
-10 -8 -24 -4 -13 3 -38 1 -55 -5 -18 -6 -38 -24 -47 -40 -8 -16 -11 -30 -7
-31 5 0 13 -2 18 -3 6 -2 16 -3 24 -4 11 -1 11 -4 1 -16 -7 -8 -16 -12 -22 -9
-5 3 -15 0 -23 -6 -8 -7 -15 -20 -15 -29 0 -9 9 -22 20 -29 12 -7 25 -10 31
-6 6 3 8 12 5 20 -3 8 -1 14 4 14 6 0 10 5 10 11 0 6 13 27 30 46 16 18 30 43
30 54 0 13 5 19 13 17 6 -3 37 -13 67 -23 30 -10 58 -23 63 -29 5 -8 11 -6 20
5 6 8 37 20 67 27 50 10 58 9 88 -11 18 -12 35 -32 38 -45 4 -13 7 -37 8 -55
1 -21 7 -33 18 -35 12 -2 19 5 24 22 3 14 10 26 15 26 5 0 9 16 9 36 0 30 -8
45 -45 80 -37 36 -51 44 -82 44 -21 0 -58 -5 -82 -11 -24 -5 -64 -7 -88 -3
-23 3 -43 10 -43 14 0 4 11 12 25 18 14 7 36 12 48 12 12 0 28 10 36 21 11 18
11 23 -1 30 -7 5 -21 9 -30 9z"/>
</g>
</svg>
