<?xml version="1.0" standalone="no"?>
<!DOCTYPE svg PUBLIC "-//W3C//DTD SVG 20010904//EN"
 "http://www.w3.org/TR/2001/REC-SVG-20010904/DTD/svg10.dtd">
<svg version="1.0" xmlns="http://www.w3.org/2000/svg"
 width="56.000000pt" height="56.000000pt" viewBox="0 0 56.000000 56.000000"
 preserveAspectRatio="xMidYMid meet">
<metadata>
Created by potrace 1.16, written by Peter Selinger 2001-2019
</metadata>
<g transform="translate(0.000000,56.000000) scale(0.100000,-0.100000)"
fill="#000000" stroke="none">
<path d="M192 560 c-25 0 -32 -8 -55 -54 -15 -30 -27 -58 -27 -62 0 -4 -16
-39 -36 -78 -20 -39 -42 -78 -50 -87 -8 -8 -14 -31 -14 -50 0 -19 4 -40 9 -48
5 -8 15 -11 23 -8 8 3 25 38 37 79 13 40 29 79 37 87 12 13 17 12 39 -9 13
-13 27 -31 31 -42 3 -11 15 -18 29 -18 13 0 25 4 27 8 2 4 17 18 34 30 23 16
48 22 94 23 51 2 66 -1 77 -16 7 -11 13 -33 13 -51 0 -18 -4 -44 -10 -59 -5
-14 -31 -48 -56 -75 -26 -28 -50 -50 -55 -50 -4 0 -31 -17 -59 -37 -34 -26
-45 -39 -34 -41 9 -2 30 -1 47 2 18 3 46 18 62 32 17 14 50 37 75 52 25 14 64
46 87 71 23 25 38 48 33 49 -6 2 -10 13 -10 23 0 11 -5 30 -11 42 -6 12 -23
35 -38 50 -14 16 -39 34 -56 41 -16 7 -43 18 -58 25 -18 7 -34 8 -45 2 -9 -5
-45 -14 -78 -21 -46 -9 -67 -9 -83 -1 -11 7 -21 17 -21 24 0 7 7 25 15 41 8
15 15 33 15 40 0 6 9 22 20 36 11 14 20 31 20 38 0 7 -12 12 -28 12z"/>
</g>
</svg>
