<?xml version="1.0" standalone="no"?>
<!DOCTYPE svg PUBLIC "-//W3C//DTD SVG 20010904//EN"
 "http://www.w3.org/TR/2001/REC-SVG-20010904/DTD/svg10.dtd">
<svg version="1.0" xmlns="http://www.w3.org/2000/svg"
 width="56.000000pt" height="56.000000pt" viewBox="0 0 56.000000 56.000000"
 preserveAspectRatio="xMidYMid meet">
<metadata>
Created by potrace 1.16, written by Peter Selinger 2001-2019
</metadata>
<g transform="translate(0.000000,56.000000) scale(0.100000,-0.100000)"
fill="#000000" stroke="none">
<path d="M409 544 c-20 4 -53 -13 -167 -89 -78 -52 -147 -95 -152 -95 -5 0
-17 11 -26 25 -9 14 -23 25 -30 25 -9 0 -14 -12 -14 -35 0 -19 8 -50 17 -70
13 -27 23 -35 44 -35 14 0 32 7 39 15 7 8 72 60 145 115 73 55 139 100 146
100 8 0 24 -16 37 -35 16 -26 22 -49 22 -94 0 -37 -7 -77 -19 -105 -11 -25
-52 -92 -90 -150 -39 -58 -71 -108 -71 -111 0 -3 11 -5 24 -5 16 0 35 13 53
35 16 19 39 52 50 73 11 20 40 71 64 112 40 68 44 81 43 140 0 43 -7 78 -20
104 -10 22 -30 47 -44 57 -14 9 -37 20 -51 23z"/>
</g>
</svg>
