<?xml version="1.0" standalone="no"?>
<!DOCTYPE svg PUBLIC "-//W3C//DTD SVG 20010904//EN"
 "http://www.w3.org/TR/2001/REC-SVG-20010904/DTD/svg10.dtd">
<svg version="1.0" xmlns="http://www.w3.org/2000/svg"
 width="56.000000pt" height="56.000000pt" viewBox="0 0 56.000000 56.000000"
 preserveAspectRatio="xMidYMid meet">
<metadata>
Created by potrace 1.16, written by Peter Selinger 2001-2019
</metadata>
<g transform="translate(0.000000,56.000000) scale(0.100000,-0.100000)"
fill="#000000" stroke="none">
<path d="M298 560 c-13 -1 -36 -15 -53 -33 -16 -18 -44 -50 -60 -72 -17 -22
-36 -52 -43 -67 -6 -16 -16 -28 -22 -28 -5 0 -10 -9 -10 -19 0 -10 7 -22 16
-25 9 -3 24 -6 33 -6 10 0 26 -9 36 -20 10 -11 31 -20 46 -20 18 0 32 7 39 19
5 11 24 22 41 26 17 4 33 14 36 22 3 8 1 19 -5 25 -8 8 -28 6 -71 -4 -33 -9
-71 -13 -86 -11 -14 3 -27 8 -29 12 -3 4 31 47 75 96 43 50 79 93 79 98 0 4
-10 7 -22 7z"/>
<path d="M447 420 c-1 0 -13 -9 -27 -19 -25 -19 -25 -19 3 -26 16 -4 34 -19
42 -36 8 -15 15 -35 15 -43 0 -8 5 -16 11 -18 9 -3 9 -9 1 -23 -6 -11 -15 -33
-22 -50 -6 -17 -35 -48 -65 -70 -30 -22 -55 -43 -55 -47 0 -5 -11 -8 -25 -8
-14 0 -30 -9 -37 -21 -7 -11 -29 -28 -48 -37 -35 -16 -35 -16 -7 -20 17 -2 36
3 46 12 10 9 29 16 44 16 15 0 50 11 79 23 30 13 77 47 106 75 43 41 52 57 52
85 0 27 -5 36 -27 47 -16 7 -23 15 -15 17 6 3 12 12 12 20 0 10 -6 13 -16 9
-13 -5 -14 -1 -9 23 4 21 2 30 -9 34 -9 4 -16 15 -16 26 0 10 -7 22 -16 25 -9
3 -16 6 -17 6z"/>
<path d="M71 294 c-5 3 -20 -3 -34 -14 -13 -11 -27 -33 -31 -51 -3 -17 -1 -39
4 -50 6 -10 14 -19 19 -19 5 0 18 22 30 49 11 27 21 56 21 65 0 8 -4 17 -9 20z"/>
</g>
</svg>
