<?xml version="1.0" standalone="no"?>
<!DOCTYPE svg PUBLIC "-//W3C//DTD SVG 20010904//EN"
 "http://www.w3.org/TR/2001/REC-SVG-20010904/DTD/svg10.dtd">
<svg version="1.0" xmlns="http://www.w3.org/2000/svg"
 width="56.000000pt" height="56.000000pt" viewBox="0 0 56.000000 56.000000"
 preserveAspectRatio="xMidYMid meet">
<metadata>
Created by potrace 1.16, written by Peter Selinger 2001-2019
</metadata>
<g transform="translate(0.000000,56.000000) scale(0.100000,-0.100000)"
fill="#000000" stroke="none">
<path d="M81 460 c-9 0 -30 -13 -45 -28 -14 -16 -29 -45 -32 -64 -4 -25 -1
-39 11 -51 9 -9 27 -17 39 -17 13 0 43 7 67 15 24 8 63 25 87 37 36 18 47 20
63 10 16 -10 19 -9 19 4 0 9 8 23 18 30 9 7 40 14 68 14 38 0 59 -6 79 -22 15
-12 33 -36 41 -53 10 -25 11 -41 2 -71 -6 -21 -25 -57 -42 -79 -17 -22 -41
-48 -53 -58 -13 -10 -21 -23 -18 -28 4 -5 17 -9 29 -9 15 0 41 19 75 54 28 30
51 64 51 75 0 12 5 21 10 21 6 0 10 22 10 50 0 28 -6 57 -14 67 -8 10 -26 32
-40 50 -22 26 -38 33 -96 44 -69 12 -70 12 -132 -18 -35 -17 -79 -37 -98 -44
-19 -7 -39 -16 -44 -21 -6 -4 -29 -8 -53 -8 -31 0 -43 4 -43 15 0 8 15 26 34
42 19 15 32 31 30 35 -3 4 -13 8 -23 8z"/>
<path d="M330 260 c-5 0 -11 -4 -15 -9 -3 -5 -1 -12 5 -16 5 -3 15 -3 20 0 6
4 8 11 5 16 -4 5 -10 9 -15 9z"/>
</g>
</svg>
