<?xml version="1.0" standalone="no"?>
<!DOCTYPE svg PUBLIC "-//W3C//DTD SVG 20010904//EN"
 "http://www.w3.org/TR/2001/REC-SVG-20010904/DTD/svg10.dtd">
<svg version="1.0" xmlns="http://www.w3.org/2000/svg"
 width="56.000000pt" height="56.000000pt" viewBox="0 0 56.000000 56.000000"
 preserveAspectRatio="xMidYMid meet">
<metadata>
Created by potrace 1.16, written by Peter Selinger 2001-2019
</metadata>
<g transform="translate(0.000000,56.000000) scale(0.100000,-0.100000)"
fill="#000000" stroke="none">
<path d="M320 560 c-11 0 -20 -4 -20 -9 0 -5 -26 -15 -57 -21 -32 -7 -67 -17
-78 -23 -11 -6 -47 -16 -80 -22 -39 -7 -61 -16 -63 -26 -2 -9 12 -22 33 -32
20 -9 42 -17 49 -17 7 0 43 14 79 30 37 17 73 30 81 30 9 0 30 8 48 18 18 10
42 16 54 13 11 -3 37 -20 58 -37 34 -29 37 -34 26 -54 -7 -12 -10 -35 -7 -50
3 -15 -1 -49 -9 -76 -8 -27 -26 -66 -39 -86 -14 -21 -25 -42 -25 -47 0 -5 -13
-19 -29 -30 -16 -12 -32 -34 -36 -51 -4 -19 -13 -30 -28 -32 -12 -2 -23 -11
-25 -20 -3 -13 3 -18 20 -18 13 0 33 8 44 18 10 10 31 32 46 50 14 17 41 40
59 50 19 10 36 29 40 45 4 15 19 41 33 58 19 22 26 42 26 72 0 23 0 67 0 97
-1 36 -8 65 -21 87 -12 19 -34 40 -49 48 -16 8 -47 15 -70 15 -22 0 -40 5 -40
10 0 6 -9 10 -20 10z"/>
</g>
</svg>
