<?xml version="1.0" standalone="no"?>
<!DOCTYPE svg PUBLIC "-//W3C//DTD SVG 20010904//EN"
 "http://www.w3.org/TR/2001/REC-SVG-20010904/DTD/svg10.dtd">
<svg version="1.0" xmlns="http://www.w3.org/2000/svg"
 width="128.000000pt" height="128.000000pt" viewBox="0 0 128.000000 128.000000"
 preserveAspectRatio="xMidYMid meet">
<metadata>
Created by potrace 1.16, written by Peter Selinger 2001-2019
</metadata>
<g transform="translate(0.000000,128.000000) scale(0.100000,-0.100000)"
fill="#000000" stroke="none">
<path d="M593 1280 c-52 0 -63 -3 -63 -17 0 -9 15 -29 33 -44 32 -27 32 -27 8
-53 -14 -14 -30 -26 -37 -26 -7 0 -23 -11 -36 -24 -13 -14 -35 -30 -50 -35
-19 -7 -28 -18 -28 -32 0 -20 4 -21 40 -15 22 3 49 15 59 25 11 11 49 33 85
50 36 18 68 36 71 41 3 6 17 10 30 10 12 0 26 7 29 16 4 9 -1 27 -9 40 -9 13
-22 24 -30 24 -8 0 -20 9 -27 20 -11 17 -24 20 -75 20z"/>
<path d="M720 1080 c-3 0 -25 -11 -49 -25 -23 -14 -54 -25 -68 -25 -14 0 -42
-13 -63 -30 -21 -16 -47 -30 -57 -30 -11 0 -41 -11 -67 -25 -26 -14 -61 -25
-78 -25 -31 0 -31 0 15 36 26 21 47 45 47 55 0 12 -7 19 -18 19 -10 0 -31 -14
-48 -31 -16 -17 -39 -35 -50 -39 -12 -5 -28 -21 -36 -37 -8 -15 -22 -40 -31
-54 -16 -25 -16 -27 3 -44 10 -9 39 -20 62 -22 35 -4 47 -1 62 16 12 13 31 21
52 21 25 0 39 7 56 30 12 17 30 30 40 30 9 0 22 -9 28 -19 5 -11 7 -26 4 -35
-3 -8 -55 -51 -115 -96 -60 -44 -114 -90 -120 -101 -8 -16 -7 -26 6 -46 14
-20 15 -31 6 -49 -6 -13 -18 -24 -28 -24 -10 0 -13 -3 -8 -9 6 -5 39 -5 80 1
39 6 79 18 90 28 11 9 50 31 87 49 53 25 71 30 86 22 11 -6 22 -18 26 -27 3
-8 6 -26 6 -39 0 -14 -8 -29 -18 -34 -10 -5 -31 -28 -46 -50 -24 -34 -26 -42
-16 -63 7 -13 23 -37 36 -54 23 -31 23 -31 -2 -100 -14 -37 -25 -90 -26 -116
0 -28 7 -59 16 -73 9 -14 33 -29 58 -36 24 -6 53 -16 65 -21 12 -6 41 -8 66
-4 24 4 52 13 62 20 14 10 15 16 6 34 -9 17 -21 22 -49 22 -21 0 -42 4 -48 10
-5 5 -27 13 -49 18 -36 7 -40 11 -38 38 1 16 4 43 8 59 3 17 11 47 17 67 8 28
8 52 -2 98 -12 54 -11 63 3 77 14 14 21 15 56 3 36 -12 42 -11 75 9 22 14 38
33 42 49 3 15 10 41 15 57 5 17 19 35 31 40 13 6 25 21 27 35 1 14 12 38 23
53 12 16 39 37 62 47 23 9 47 25 55 34 7 8 10 23 7 32 -5 14 -16 16 -71 10
-65 -7 -65 -7 -166 -107 -80 -81 -103 -98 -114 -89 -7 6 -17 25 -20 42 -5 20
-1 41 11 63 9 18 31 39 48 46 20 9 31 21 31 34 0 14 -6 19 -20 17 -11 -1 -46
1 -77 4 -32 3 -58 10 -58 15 0 5 8 9 18 9 9 0 23 9 30 20 7 11 19 20 27 20 7
0 26 16 41 35 15 20 33 34 40 31 6 -2 26 8 44 24 18 16 30 35 27 42 -2 7 -22
22 -42 33 -36 19 -38 19 -50 1 -13 -17 -14 -17 -32 3 -9 12 -20 21 -23 21z
m-90 -90 c9 0 21 -5 28 -12 9 -9 7 -17 -10 -35 -12 -13 -30 -23 -40 -23 -12 0
-18 7 -18 23 0 13 5 28 12 35 7 7 19 12 28 12z m-68 -237 c10 -9 18 -27 18
-40 0 -15 -6 -23 -17 -23 -9 0 -49 -20 -89 -45 -39 -25 -81 -45 -93 -45 -11 0
-21 2 -21 4 0 2 14 20 32 40 17 20 37 36 45 36 7 0 20 11 29 25 8 13 30 33 47
44 29 18 33 19 49 4z"/>
<path d="M244 627 c-5 2 -13 0 -17 -3 -4 -4 -7 -13 -7 -21 0 -7 9 -13 21 -13
14 0 19 5 17 17 -2 9 -8 18 -14 20z"/>
</g>
</svg>
