<?xml version="1.0" standalone="no"?>
<!DOCTYPE svg PUBLIC "-//W3C//DTD SVG 20010904//EN"
 "http://www.w3.org/TR/2001/REC-SVG-20010904/DTD/svg10.dtd">
<svg version="1.0" xmlns="http://www.w3.org/2000/svg"
 width="128.000000pt" height="128.000000pt" viewBox="0 0 128.000000 128.000000"
 preserveAspectRatio="xMidYMid meet">
<metadata>
Created by potrace 1.16, written by Peter Selinger 2001-2019
</metadata>
<g transform="translate(0.000000,128.000000) scale(0.100000,-0.100000)"
fill="#000000" stroke="none">
<path d="M1083 1227 c-28 32 -28 32 -68 8 -22 -14 -40 -29 -39 -35 1 -5 2 -26
3 -45 0 -23 6 -35 15 -35 8 0 18 -5 21 -10 4 -6 -5 -25 -20 -42 -24 -28 -26
-36 -20 -92 6 -56 4 -63 -20 -88 -14 -16 -35 -28 -46 -28 -12 0 -27 -12 -37
-29 -9 -17 -27 -35 -40 -40 -13 -6 -36 -11 -53 -11 -19 0 -41 11 -64 33 -35
32 -35 32 -13 78 13 25 29 61 37 79 8 19 24 66 36 105 17 53 26 70 40 70 10 0
20 5 22 11 2 6 -9 14 -25 17 -18 4 -31 14 -35 26 -4 16 -13 21 -41 21 -26 0
-38 -6 -47 -21 -6 -12 -8 -34 -5 -50 4 -22 -4 -46 -30 -95 -29 -53 -35 -73
-29 -100 3 -19 1 -42 -4 -52 -7 -13 -4 -47 10 -116 16 -80 18 -107 9 -149 -6
-29 -15 -82 -20 -119 -5 -37 -16 -82 -24 -101 -7 -19 -17 -54 -20 -78 -4 -24
-14 -58 -23 -75 -15 -30 -15 -35 3 -80 16 -39 26 -50 47 -52 18 -2 30 3 40 20
9 14 17 64 21 131 4 59 9 114 12 122 4 8 9 15 13 15 4 0 16 -9 27 -20 10 -10
26 -27 34 -37 8 -9 17 -28 20 -43 3 -16 17 -31 38 -42 18 -9 42 -24 52 -33 10
-9 22 -30 25 -45 3 -16 17 -40 31 -55 13 -14 24 -33 24 -42 0 -8 13 -31 30
-50 16 -18 30 -38 30 -44 0 -6 12 -9 28 -7 19 2 32 13 44 38 14 29 16 46 8
100 -5 36 -7 160 -5 276 2 128 7 220 14 232 6 11 11 31 11 44 -1 13 -9 46 -18
73 -10 28 -26 62 -36 77 -10 15 -15 32 -11 38 3 5 13 10 21 10 8 0 23 -14 32
-30 9 -17 27 -33 39 -36 11 -3 31 -1 42 6 12 6 21 21 21 34 0 13 -6 29 -14 35
-7 6 -20 9 -29 5 -8 -3 -25 0 -37 6 -19 10 -21 17 -16 58 3 26 8 88 11 137 6
88 5 91 -22 122z m-123 -460 c9 -1 16 -16 18 -39 2 -20 -4 -50 -12 -67 -9 -16
-16 -50 -16 -76 0 -25 -4 -45 -9 -45 -5 0 -11 7 -15 15 -3 9 -18 15 -35 15
-17 0 -41 -5 -55 -11 -20 -9 -29 -9 -41 1 -8 7 -15 22 -15 34 0 12 5 27 11 33
6 6 16 22 23 34 6 13 27 33 46 46 19 12 46 31 60 42 14 11 32 20 40 18z m-176
-257 c17 0 40 -7 50 -15 11 -8 31 -15 45 -15 13 0 40 -5 58 -12 23 -8 32 -17
28 -27 -3 -8 -8 -33 -12 -56 -4 -30 -1 -44 11 -54 9 -7 16 -18 16 -23 0 -5
-16 -6 -37 -2 -21 3 -47 15 -59 25 -11 11 -25 19 -32 19 -6 0 -16 9 -22 21 -6
11 -19 19 -28 17 -12 -3 -26 12 -45 45 -22 38 -26 51 -16 63 6 8 26 14 43 14z"/>
<path d="M450 1147 c-3 2 -13 -6 -22 -16 -9 -11 -35 -25 -58 -31 -30 -8 -45
-8 -55 0 -9 7 -21 7 -39 0 -15 -5 -38 -10 -51 -10 -18 0 -26 -7 -31 -24 -3
-14 1 -37 10 -54 9 -17 25 -33 36 -37 11 -3 36 -1 55 7 26 9 41 9 53 2 9 -6
18 -23 20 -38 2 -16 -1 -26 -10 -26 -7 0 -19 -4 -27 -9 -11 -7 -12 -19 -1 -74
12 -58 12 -68 -4 -91 -12 -19 -25 -26 -47 -26 -24 0 -40 10 -68 40 -21 24 -48
43 -66 46 -18 3 -37 0 -49 -9 -18 -13 -18 -15 2 -61 12 -26 30 -59 42 -73 16
-21 19 -35 14 -77 -6 -46 -3 -55 20 -83 14 -17 26 -38 26 -46 0 -8 -6 -17 -13
-20 -10 -4 -17 -46 -24 -149 -6 -78 -9 -157 -6 -175 3 -18 1 -45 -5 -61 -5
-16 -7 -33 -3 -39 3 -5 25 -10 48 -10 42 -2 42 -2 46 80 3 45 7 116 11 157 3
41 11 108 16 148 6 40 10 111 10 157 0 76 2 85 22 96 13 7 43 9 75 6 39 -4 57
-2 68 9 10 11 15 36 15 78 0 36 -8 88 -20 122 -11 32 -20 73 -20 89 0 17 7 41
16 53 8 12 21 22 29 22 7 0 23 13 34 29 12 16 21 35 21 43 0 7 -15 22 -33 33
-17 11 -34 21 -37 22z"/>
<path d="M588 926 c-3 2 -10 -1 -15 -8 -5 -7 -20 -35 -33 -62 -22 -47 -23 -49
-5 -62 10 -8 27 -14 36 -14 10 0 21 12 27 28 6 17 7 47 2 71 -4 23 -10 44 -12
47z"/>
</g>
</svg>
