<?xml version="1.0" standalone="no"?>
<!DOCTYPE svg PUBLIC "-//W3C//DTD SVG 20010904//EN"
 "http://www.w3.org/TR/2001/REC-SVG-20010904/DTD/svg10.dtd">
<svg version="1.0" xmlns="http://www.w3.org/2000/svg"
 width="128.000000pt" height="128.000000pt" viewBox="0 0 128.000000 128.000000"
 preserveAspectRatio="xMidYMid meet">
<metadata>
Created by potrace 1.16, written by Peter Selinger 2001-2019
</metadata>
<g transform="translate(0.000000,128.000000) scale(0.100000,-0.100000)"
fill="#000000" stroke="none">
<path d="M713 1248 c-10 0 -40 -4 -68 -7 -35 -4 -50 -10 -50 -21 0 -8 15 -20
33 -26 18 -5 41 -17 51 -26 12 -10 21 -37 26 -74 4 -33 11 -64 16 -71 6 -7 6
-35 -1 -77 -9 -49 -17 -69 -35 -80 -12 -8 -46 -22 -74 -32 -29 -9 -55 -14 -58
-10 -4 3 8 39 25 79 18 39 32 79 32 88 0 9 -18 28 -40 43 -22 14 -53 26 -70
26 -16 0 -30 -5 -30 -11 0 -6 14 -22 30 -36 17 -13 30 -32 30 -41 0 -10 -7
-37 -15 -60 -9 -24 -24 -61 -35 -82 -10 -20 -31 -52 -47 -70 -27 -33 -27 -33
-4 -51 13 -11 34 -19 48 -19 14 0 39 10 56 22 17 12 57 35 90 51 32 15 68 27
80 25 18 -3 22 -9 19 -38 -1 -19 -7 -48 -13 -63 -8 -18 -27 -35 -54 -47 -23
-11 -73 -29 -111 -41 -38 -11 -73 -22 -79 -24 -5 -2 -30 -40 -54 -86 -23 -46
-53 -92 -66 -101 -12 -9 -34 -20 -47 -23 -19 -5 -28 -1 -41 18 -8 13 -20 47
-25 74 -6 35 -5 73 4 124 8 41 14 91 15 111 1 21 -6 53 -17 73 -10 19 -26 35
-35 35 -9 0 -19 -10 -23 -22 -3 -13 -11 -76 -18 -141 -9 -91 -9 -133 0 -188 7
-39 19 -85 28 -102 9 -18 31 -46 49 -63 18 -17 47 -41 64 -53 17 -12 40 -21
52 -19 11 2 27 14 34 28 7 14 27 54 44 90 16 36 34 85 40 109 5 24 15 48 23
52 7 5 27 9 44 9 18 0 38 8 49 20 10 11 24 20 30 20 7 0 20 -20 30 -45 9 -25
25 -50 35 -55 10 -5 25 -7 33 -5 7 3 21 21 30 39 9 19 19 51 22 72 4 22 12 50
18 62 6 13 24 30 39 38 15 8 55 14 91 14 51 0 68 -4 82 -20 16 -18 17 -28 6
-122 -6 -57 -10 -110 -9 -120 2 -9 -40 -62 -95 -121 -54 -58 -116 -115 -138
-126 -22 -12 -45 -21 -52 -21 -7 0 -28 -11 -47 -25 -19 -14 -42 -25 -51 -25
-10 0 -25 -7 -33 -16 -9 -8 -16 -19 -16 -23 0 -4 11 -14 25 -21 20 -11 30 -11
47 -1 13 6 47 15 76 20 29 4 63 17 75 28 12 11 56 43 97 70 42 28 82 58 89 67
7 9 20 16 27 16 7 0 21 12 31 28 10 15 20 29 23 32 3 3 20 34 37 71 27 53 33
82 39 160 6 94 6 94 -27 144 -27 39 -46 54 -89 72 -32 12 -77 22 -107 23 -28
0 -63 -4 -77 -10 -19 -7 -30 -5 -47 9 -15 12 -20 23 -15 38 4 11 23 32 44 46
20 15 46 27 57 28 11 0 69 3 129 4 66 2 113 8 120 15 8 9 4 18 -18 34 -16 11
-40 31 -54 44 -14 12 -36 22 -50 22 -13 0 -51 -16 -83 -36 -45 -27 -67 -35
-96 -32 -38 3 -38 3 -40 49 -2 36 2 51 18 65 17 15 37 19 103 19 81 0 81 0 81
29 0 16 -7 33 -17 39 -11 8 -28 7 -56 -2 -22 -8 -48 -11 -56 -8 -11 4 -16 19
-16 47 0 36 -3 40 -24 40 -15 0 -34 12 -49 30 -14 17 -34 29 -44 28z"/>
<path d="M270 1160 c-10 0 -20 -6 -23 -12 -3 -7 -2 -34 1 -61 3 -32 -1 -61
-12 -90 -10 -23 -24 -54 -31 -69 -7 -14 -11 -29 -7 -32 3 -3 13 -6 23 -6 10 0
37 13 61 29 24 16 56 41 71 55 15 14 26 29 24 34 -2 4 -23 40 -46 80 -28 49
-48 72 -61 72z"/>
</g>
</svg>
