<?xml version="1.0" standalone="no"?>
<!DOCTYPE svg PUBLIC "-//W3C//DTD SVG 20010904//EN"
 "http://www.w3.org/TR/2001/REC-SVG-20010904/DTD/svg10.dtd">
<svg version="1.0" xmlns="http://www.w3.org/2000/svg"
 width="128.000000pt" height="128.000000pt" viewBox="0 0 128.000000 128.000000"
 preserveAspectRatio="xMidYMid meet">
<metadata>
Created by potrace 1.16, written by Peter Selinger 2001-2019
</metadata>
<g transform="translate(0.000000,128.000000) scale(0.100000,-0.100000)"
fill="#000000" stroke="none">
<path d="M854 1225 c-17 3 -41 -1 -56 -10 -16 -9 -28 -22 -28 -29 0 -7 27 -30
60 -50 33 -21 64 -45 69 -54 4 -9 11 -41 15 -69 6 -51 6 -53 -18 -53 -13 0
-34 -6 -47 -13 -13 -7 -35 -20 -49 -29 -14 -8 -58 -23 -99 -32 -40 -9 -77 -14
-81 -11 -5 3 -6 20 -3 38 4 26 0 40 -20 63 -17 19 -29 26 -36 19 -5 -5 -10
-32 -11 -60 -1 -27 -1 -57 -1 -65 1 -8 17 -32 36 -53 29 -31 39 -37 62 -31 16
3 57 15 93 26 36 11 80 26 98 35 18 8 40 12 49 9 13 -5 15 -18 10 -69 -5 -52
-2 -69 14 -96 17 -29 23 -32 52 -26 18 3 51 11 74 16 38 10 44 9 76 -15 20
-15 44 -48 56 -76 12 -27 21 -62 21 -78 0 -23 -13 -44 -53 -86 -32 -34 -61
-56 -74 -56 -12 0 -35 -11 -51 -25 -17 -14 -44 -28 -60 -31 -28 -6 -32 -3 -45
28 -8 19 -29 46 -46 61 -18 15 -41 27 -51 27 -11 0 -36 -18 -57 -41 -21 -22
-43 -50 -49 -61 -9 -16 -8 -30 4 -60 9 -22 37 -58 65 -82 48 -43 48 -43 33
-81 -9 -21 -16 -44 -16 -51 0 -10 13 -14 45 -14 32 0 47 5 54 18 5 9 14 43 20
74 7 31 18 61 25 67 7 6 37 17 68 25 31 8 69 21 84 29 16 8 48 29 71 46 29 21
53 52 74 93 17 35 35 65 40 66 5 2 9 22 9 44 0 22 -7 46 -15 54 -8 9 -15 25
-15 37 0 12 -11 46 -25 74 -18 39 -36 60 -71 82 -25 17 -59 33 -74 36 -16 4
-39 1 -51 -6 -19 -10 -25 -9 -35 6 -8 11 -12 38 -9 74 2 31 4 59 4 64 1 4 8 7
16 7 9 0 46 10 83 22 37 11 70 26 74 32 4 6 8 16 8 22 0 6 -15 18 -32 25 -18
8 -53 14 -78 14 -43 0 -45 1 -50 37 -4 20 -14 48 -23 62 -9 14 -36 36 -60 50
-24 14 -57 28 -73 31z"/>
<path d="M202 1020 c-9 0 -25 -7 -34 -14 -10 -7 -18 -20 -18 -28 0 -8 16 -29
35 -48 28 -27 35 -42 35 -71 0 -20 -10 -58 -21 -85 -12 -27 -57 -108 -100
-180 -75 -126 -79 -134 -79 -192 0 -34 5 -64 11 -68 6 -3 21 -1 32 5 12 7 37
34 55 61 19 27 45 61 58 75 13 14 29 23 35 19 8 -4 9 -27 5 -68 -3 -34 -18
-102 -32 -151 -14 -50 -28 -102 -31 -118 -4 -19 3 -40 22 -69 26 -39 28 -41
42 -23 7 11 22 49 32 85 10 36 26 109 36 164 10 57 15 118 12 146 -3 27 -15
66 -26 88 -20 39 -20 39 18 133 21 52 41 104 45 117 5 16 -2 48 -25 103 -22
57 -38 83 -54 89 -13 5 -26 14 -30 19 -3 6 -14 11 -23 11z"/>
</g>
</svg>
