<?xml version="1.0" standalone="no"?>
<!DOCTYPE svg PUBLIC "-//W3C//DTD SVG 20010904//EN"
 "http://www.w3.org/TR/2001/REC-SVG-20010904/DTD/svg10.dtd">
<svg version="1.0" xmlns="http://www.w3.org/2000/svg"
 width="128.000000pt" height="128.000000pt" viewBox="0 0 128.000000 128.000000"
 preserveAspectRatio="xMidYMid meet">
<metadata>
Created by potrace 1.16, written by Peter Selinger 2001-2019
</metadata>
<g transform="translate(0.000000,128.000000) scale(0.100000,-0.100000)"
fill="#000000" stroke="none">
<path d="M787 1249 c-44 5 -64 3 -79 -8 -21 -14 -21 -14 2 -33 12 -10 28 -18
34 -18 7 0 22 -10 33 -22 11 -13 23 -42 27 -65 3 -23 2 -53 -4 -67 -5 -14 -16
-26 -24 -26 -7 0 -29 -14 -47 -32 -19 -18 -53 -47 -77 -65 -23 -18 -46 -33
-51 -33 -5 0 -33 -19 -64 -43 -30 -23 -78 -70 -106 -103 -28 -34 -55 -73 -60
-87 -6 -14 -22 -34 -37 -43 -26 -18 -27 -18 -50 10 -13 15 -24 35 -24 44 0 9
7 31 17 47 9 17 43 84 76 150 51 103 60 127 58 170 -1 28 -6 64 -12 82 -6 18
-26 45 -44 62 -28 24 -42 29 -77 28 -32 -2 -44 -6 -46 -20 -2 -9 13 -36 32
-59 20 -23 36 -46 36 -52 0 -6 -17 -44 -39 -86 -21 -41 -42 -86 -46 -100 -4
-14 -16 -36 -26 -49 -11 -13 -19 -31 -19 -40 0 -9 -18 -43 -40 -76 -22 -33
-40 -65 -40 -71 0 -6 -9 -23 -20 -37 -18 -22 -20 -38 -18 -99 2 -59 6 -73 20
-76 11 -2 23 9 34 30 9 18 30 45 47 61 17 15 32 27 33 27 1 0 12 -15 23 -34
12 -18 21 -46 21 -61 0 -15 -7 -48 -15 -74 -8 -25 -27 -85 -41 -132 -22 -73
-24 -91 -15 -126 6 -22 19 -47 29 -56 17 -16 20 -15 40 3 12 11 24 31 26 43 3
12 8 47 11 77 3 30 12 78 20 105 7 28 18 72 25 100 6 27 26 72 45 100 18 27
45 61 59 74 14 14 26 30 26 36 0 6 49 61 110 121 60 60 121 114 135 120 14 5
32 20 41 32 8 12 24 22 34 22 10 0 22 -6 27 -12 4 -7 13 -31 18 -53 9 -34 14
-40 40 -43 16 -2 45 1 65 8 28 9 43 8 78 -4 24 -9 53 -28 65 -42 11 -15 29
-43 39 -62 10 -20 21 -70 24 -113 6 -67 4 -81 -13 -106 -11 -15 -23 -40 -26
-54 -4 -15 -36 -54 -72 -88 -48 -44 -73 -61 -93 -61 -16 0 -32 -4 -38 -8 -5
-5 -28 -15 -52 -22 -43 -13 -43 -13 -87 30 -36 36 -50 43 -83 43 -21 0 -52 -8
-68 -18 -16 -10 -35 -25 -42 -34 -8 -10 -10 -35 -6 -81 3 -36 13 -91 22 -122
16 -58 16 -58 82 -58 57 0 66 3 75 22 6 12 17 25 25 29 8 3 33 11 55 17 22 6
56 16 75 24 20 7 49 23 65 35 17 12 42 32 58 45 15 13 41 38 59 55 17 18 36
33 43 33 6 0 21 10 32 23 11 12 33 47 48 77 16 30 34 88 40 127 8 46 9 92 4
126 -5 29 -14 69 -21 88 -8 21 -40 60 -81 97 -54 48 -82 66 -129 80 -34 10
-66 25 -72 34 -7 12 -6 21 3 32 8 9 29 16 50 16 20 0 46 6 57 14 11 8 37 17
57 21 20 4 41 13 47 21 7 7 10 21 8 30 -2 10 -18 26 -37 36 -29 16 -43 18 -87
10 -43 -7 -54 -6 -59 5 -3 8 -5 31 -5 52 0 20 -7 46 -15 57 -8 12 -31 25 -52
29 -21 4 -64 10 -96 14z"/>
</g>
</svg>
