<?xml version="1.0" standalone="no"?>
<!DOCTYPE svg PUBLIC "-//W3C//DTD SVG 20010904//EN"
 "http://www.w3.org/TR/2001/REC-SVG-20010904/DTD/svg10.dtd">
<svg version="1.0" xmlns="http://www.w3.org/2000/svg"
 width="128.000000pt" height="128.000000pt" viewBox="0 0 128.000000 128.000000"
 preserveAspectRatio="xMidYMid meet">
<metadata>
Created by potrace 1.16, written by Peter Selinger 2001-2019
</metadata>
<g transform="translate(0.000000,128.000000) scale(0.100000,-0.100000)"
fill="#000000" stroke="none">
<path d="M658 1259 c-18 4 -39 6 -45 4 -7 -3 -13 -10 -13 -16 0 -6 9 -20 20
-32 21 -22 21 -22 -22 -65 -24 -24 -66 -58 -95 -76 -28 -19 -54 -37 -56 -41
-3 -5 4 -74 14 -154 11 -81 25 -166 32 -190 12 -42 15 -44 57 -49 40 -4 45 -8
48 -33 2 -16 -2 -29 -10 -32 -7 -3 -31 -6 -52 -8 -22 -1 -41 -8 -43 -14 -3 -7
14 -21 37 -33 22 -11 46 -32 52 -45 8 -18 8 -28 0 -38 -7 -8 -30 -19 -53 -26
-24 -7 -45 -9 -50 -4 -5 5 -16 52 -25 104 -8 51 -19 98 -24 103 -6 6 -15 5
-23 -3 -8 -6 -20 -38 -27 -72 -11 -52 -11 -68 4 -119 9 -33 16 -67 16 -75 0
-8 -19 -24 -42 -34 -24 -11 -64 -25 -90 -32 -32 -7 -49 -18 -54 -31 -4 -13 2
-28 17 -44 16 -17 29 -22 48 -18 14 3 33 8 41 11 8 3 44 16 79 29 49 18 69 21
84 13 16 -9 18 -18 13 -50 -4 -22 -14 -59 -22 -82 -9 -23 -18 -57 -21 -74 -5
-33 -5 -33 46 -33 47 0 51 2 57 28 3 15 10 38 16 52 6 14 12 65 14 113 1 49 8
94 14 102 6 7 29 16 51 20 22 4 43 5 45 2 3 -3 12 -34 20 -68 8 -35 16 -75 19
-88 3 -13 29 -48 58 -78 29 -31 66 -62 84 -69 18 -8 53 -14 77 -14 35 0 48 5
56 19 5 11 10 31 10 45 0 21 -8 28 -53 44 -29 11 -73 25 -97 32 -25 6 -53 13
-62 16 -14 4 -16 17 -13 90 2 48 5 88 8 90 2 2 27 8 56 14 39 7 62 6 94 -4 23
-8 56 -16 72 -18 29 -3 30 -1 33 38 2 34 -1 44 -21 57 -13 8 -42 19 -63 23
-21 3 -43 9 -47 11 -4 3 1 19 12 36 11 18 26 60 35 93 9 34 16 79 16 100 0 22
-4 44 -8 50 -4 6 -22 19 -39 28 -24 12 -33 23 -33 41 0 13 7 50 15 81 8 32 19
62 25 68 5 5 10 33 10 62 0 29 -3 59 -6 68 -3 9 -21 25 -40 37 -34 21 -34 21
-99 0 -36 -12 -85 -24 -109 -27 -29 -4 -46 -2 -51 6 -4 7 7 26 29 49 20 20 36
46 36 58 0 11 -7 26 -15 33 -8 6 -29 15 -47 19z m115 -199 c18 0 43 -7 55 -16
21 -14 21 -17 7 -50 -8 -19 -17 -59 -21 -87 -4 -29 -11 -63 -16 -76 -7 -18
-12 -21 -20 -13 -7 7 -24 12 -38 12 -14 0 -35 6 -45 14 -18 13 -18 14 6 46 13
17 37 45 54 61 29 29 29 29 1 58 -16 16 -25 34 -22 40 4 6 22 11 39 11z m-113
-13 c12 -2 15 -18 15 -77 0 -65 -2 -75 -17 -74 -10 1 -18 -3 -18 -9 0 -6 -12
-24 -27 -39 -15 -15 -34 -28 -43 -28 -11 0 -22 15 -30 39 -7 22 -10 47 -6 56
6 16 8 16 31 1 13 -9 35 -16 48 -16 14 0 30 7 37 15 10 12 10 18 1 29 -9 11
-26 13 -64 9 -42 -4 -56 -2 -66 11 -12 15 -12 19 2 34 10 9 41 24 70 34 28 9
59 16 67 15z m211 -37 c7 0 22 -11 35 -25 13 -14 19 -25 14 -25 -5 0 -20 4
-34 10 -14 5 -26 16 -26 25 0 8 5 15 11 15z m-54 -211 c13 -11 12 -14 -8 -21
-17 -7 -20 -11 -11 -20 7 -7 12 -22 12 -34 0 -16 7 -24 23 -26 18 -2 23 -10
25 -45 2 -31 8 -44 23 -48 10 -4 19 -10 19 -15 0 -5 -9 -14 -20 -20 -11 -6
-20 -21 -20 -34 0 -13 -6 -26 -14 -29 -8 -3 -22 1 -33 8 -11 9 -43 14 -80 15
-34 0 -64 4 -67 9 -3 5 8 23 26 41 31 33 31 33 7 52 -24 18 -24 19 -5 33 11 8
31 15 45 15 14 0 34 7 44 14 9 7 17 18 17 25 0 6 -4 11 -8 11 -4 0 -32 -6 -62
-14 -30 -7 -80 -16 -111 -19 -31 -3 -61 -2 -68 2 -10 6 -10 18 -1 49 8 31 17
43 35 48 13 3 65 4 115 2 50 -3 93 -1 96 4 3 5 13 3 21 -3z m-55 -319 c5 0 36
-15 69 -32 34 -18 65 -40 70 -50 6 -11 5 -19 -2 -24 -7 -4 -18 1 -25 10 -8 12
-19 16 -33 11 -13 -4 -34 3 -60 21 -23 15 -41 32 -41 39 0 6 3 15 7 18 3 4 10
7 15 7z m-89 -40 c10 0 20 -7 23 -15 4 -8 4 -25 0 -38 -4 -19 -19 -26 -90 -45
-46 -12 -98 -22 -116 -22 -21 0 -30 4 -28 12 3 7 47 34 99 60 52 26 102 48
112 48z"/>
</g>
</svg>
