<?xml version="1.0" standalone="no"?>
<!DOCTYPE svg PUBLIC "-//W3C//DTD SVG 20010904//EN"
 "http://www.w3.org/TR/2001/REC-SVG-20010904/DTD/svg10.dtd">
<svg version="1.0" xmlns="http://www.w3.org/2000/svg"
 width="128.000000pt" height="128.000000pt" viewBox="0 0 128.000000 128.000000"
 preserveAspectRatio="xMidYMid meet">
<metadata>
Created by potrace 1.16, written by Peter Selinger 2001-2019
</metadata>
<g transform="translate(0.000000,128.000000) scale(0.100000,-0.100000)"
fill="#000000" stroke="none">
<path d="M514 1250 c-61 0 -65 -2 -75 -27 -8 -21 -5 -35 10 -67 11 -23 29 -51
40 -63 10 -13 24 -23 30 -23 5 0 -11 -23 -37 -50 -26 -28 -69 -80 -97 -116
-27 -36 -74 -92 -102 -126 -36 -41 -53 -69 -53 -88 0 -15 9 -35 19 -44 18 -16
22 -16 70 8 28 15 74 49 103 76 29 28 62 50 74 50 11 0 36 11 55 24 19 14 54
34 79 46 24 11 64 26 88 32 37 9 45 8 62 -7 15 -14 20 -31 20 -72 0 -52 -2
-55 -64 -119 -36 -36 -69 -63 -75 -59 -6 3 -11 12 -11 19 0 7 -10 22 -23 34
-16 15 -36 22 -61 22 -25 0 -58 -11 -91 -30 -29 -17 -56 -37 -59 -46 -3 -8 1
-38 10 -65 10 -30 28 -59 44 -71 15 -11 33 -37 40 -58 7 -21 10 -50 6 -65 -5
-19 -19 -32 -50 -46 -25 -10 -68 -35 -96 -54 -29 -19 -60 -35 -70 -35 -10 0
-23 -7 -30 -15 -7 -8 -18 -15 -25 -15 -7 0 -18 6 -24 14 -8 9 -9 32 -3 72 4
32 5 70 2 84 -3 14 -13 26 -22 28 -12 2 -23 -11 -37 -42 -12 -25 -28 -49 -37
-54 -8 -5 -20 -28 -25 -52 -7 -29 -7 -52 0 -69 6 -14 11 -39 13 -55 2 -22 11
-31 41 -43 36 -15 39 -14 61 6 12 11 30 21 40 21 10 0 35 -9 55 -19 20 -10 62
-31 93 -46 57 -28 57 -28 105 -10 26 10 63 33 82 52 23 23 32 40 28 53 -3 11
1 41 9 67 11 35 13 81 9 172 -4 106 -2 128 12 143 9 10 22 18 28 18 7 0 33 11
57 25 25 14 71 48 104 76 32 28 71 61 87 74 19 16 27 33 27 55 0 18 5 50 11
71 10 32 9 42 -5 63 -9 14 -39 37 -66 51 -37 19 -65 25 -111 25 -51 0 -68 -5
-95 -25 -18 -14 -35 -25 -39 -25 -3 0 -22 -11 -43 -24 -20 -14 -49 -28 -64
-31 -17 -5 -28 -3 -28 3 0 6 18 32 40 59 22 26 47 55 55 64 8 9 15 25 15 37 0
12 9 26 20 32 16 9 20 21 20 65 0 50 -3 56 -28 69 -16 8 -34 22 -41 30 -10 12
-32 16 -77 16z m-17 -1000 c16 0 23 -6 23 -20 0 -11 -11 -38 -25 -60 -25 -39
-26 -40 -85 -40 -45 0 -60 4 -60 14 0 8 19 25 43 39 23 14 51 34 61 46 11 12
30 21 43 21z"/>
<path d="M850 1055 c-5 3 -10 -3 -10 -14 0 -12 5 -21 10 -21 6 0 10 6 10 14 0
8 -4 18 -10 21z"/>
<path d="M922 500 c-28 0 -53 -4 -56 -9 -3 -5 10 -23 29 -40 20 -17 48 -39 63
-48 15 -10 35 -27 44 -38 10 -11 17 -24 18 -29 0 -5 6 -17 14 -25 7 -9 23 -47
36 -84 12 -38 33 -80 45 -95 23 -26 24 -27 52 -10 24 14 29 26 36 78 7 50 6
64 -7 79 -9 10 -16 24 -16 33 0 8 -16 35 -36 61 -19 25 -52 53 -72 63 -20 9
-51 28 -68 41 -23 17 -44 23 -82 23z"/>
</g>
</svg>
