<?xml version="1.0" standalone="no"?>
<!DOCTYPE svg PUBLIC "-//W3C//DTD SVG 20010904//EN"
 "http://www.w3.org/TR/2001/REC-SVG-20010904/DTD/svg10.dtd">
<svg version="1.0" xmlns="http://www.w3.org/2000/svg"
 width="128.000000pt" height="128.000000pt" viewBox="0 0 128.000000 128.000000"
 preserveAspectRatio="xMidYMid meet">
<metadata>
Created by potrace 1.16, written by Peter Selinger 2001-2019
</metadata>
<g transform="translate(0.000000,128.000000) scale(0.100000,-0.100000)"
fill="#000000" stroke="none">
<path d="M612 1260 c-9 0 -37 -13 -62 -29 -25 -15 -72 -36 -103 -45 -32 -9
-75 -16 -95 -15 -21 2 -43 -1 -50 -5 -7 -4 -12 -17 -12 -29 1 -13 15 -33 37
-50 24 -18 44 -25 57 -21 12 3 52 21 90 40 37 19 77 34 87 34 11 0 22 -7 26
-16 3 -9 1 -42 -6 -73 -6 -31 -15 -74 -20 -96 -4 -22 -13 -51 -20 -64 -7 -13
-11 -38 -8 -55 3 -17 17 -58 32 -91 17 -36 40 -68 57 -80 17 -11 37 -32 46
-47 15 -25 15 -28 -2 -46 -11 -14 -43 -24 -97 -33 -55 -9 -105 -26 -162 -54
-58 -30 -87 -51 -101 -74 -16 -28 -17 -38 -7 -71 6 -22 31 -62 56 -91 24 -28
66 -96 92 -150 33 -69 52 -99 65 -99 9 0 44 16 78 36 34 20 77 49 96 66 19 17
52 67 74 112 35 70 42 93 47 169 6 87 6 87 67 87 40 0 70 6 84 16 12 8 22 21
22 29 0 7 -17 28 -37 45 -33 27 -44 31 -85 27 -25 -2 -53 0 -61 5 -9 4 -18 30
-22 60 -7 47 -13 57 -71 111 -43 40 -64 67 -64 83 0 13 8 47 18 76 11 29 24
74 30 100 7 26 15 72 18 103 7 55 7 56 -35 95 -23 22 -50 40 -59 40z m36 -780
c2 0 16 -7 32 -15 27 -14 30 -21 30 -62 0 -31 -10 -66 -31 -109 -17 -35 -47
-81 -66 -104 -19 -22 -42 -40 -52 -40 -9 0 -33 14 -54 31 -21 17 -45 45 -54
62 -9 17 -21 56 -28 85 -12 51 -12 54 9 62 11 5 53 21 91 35 39 14 81 32 95
40 14 8 26 15 28 15z"/>
</g>
</svg>
