<?xml version="1.0" standalone="no"?>
<!DOCTYPE svg PUBLIC "-//W3C//DTD SVG 20010904//EN"
 "http://www.w3.org/TR/2001/REC-SVG-20010904/DTD/svg10.dtd">
<svg version="1.0" xmlns="http://www.w3.org/2000/svg"
 width="128.000000pt" height="128.000000pt" viewBox="0 0 128.000000 128.000000"
 preserveAspectRatio="xMidYMid meet">
<metadata>
Created by potrace 1.16, written by Peter Selinger 2001-2019
</metadata>
<g transform="translate(0.000000,128.000000) scale(0.100000,-0.100000)"
fill="#000000" stroke="none">
<path d="M522 1280 c-55 0 -102 -3 -104 -8 -1 -4 -29 -29 -60 -55 -32 -28 -66
-68 -78 -93 -19 -38 -20 -48 -10 -81 7 -21 19 -46 28 -55 13 -15 26 -17 96
-12 68 6 84 4 95 -10 11 -13 10 -21 -8 -51 -12 -20 -21 -52 -21 -72 0 -21 17
-70 42 -121 22 -48 50 -97 61 -109 17 -19 18 -25 6 -39 -7 -9 -37 -30 -67 -48
-29 -17 -74 -43 -100 -58 -26 -14 -64 -29 -84 -33 -23 -4 -43 -16 -53 -31 -12
-19 -24 -24 -55 -24 -29 0 -43 -5 -52 -20 -10 -15 -24 -20 -60 -20 -39 0 -48
-3 -48 -17 0 -10 4 -23 8 -28 4 -6 29 -25 56 -43 27 -17 65 -34 85 -37 20 -4
46 -8 58 -11 13 -2 23 -11 23 -20 0 -8 30 -53 66 -100 59 -75 69 -84 98 -84
24 0 45 11 77 38 24 22 55 42 69 45 14 4 51 28 82 53 34 28 66 65 79 91 11 23
28 47 37 52 13 7 17 24 17 73 0 63 0 63 65 70 36 4 123 7 195 8 71 1 137 6
147 11 12 6 18 21 18 42 0 18 -3 42 -6 55 -4 13 -17 25 -33 28 -14 4 -33 12
-41 19 -8 7 -40 20 -71 29 -31 9 -64 23 -75 30 -14 11 -41 13 -111 9 -62 -4
-93 -2 -93 5 0 5 -31 42 -68 81 -38 39 -77 86 -87 105 -18 33 -18 33 44 94 57
56 62 64 59 98 -3 32 -10 43 -51 71 -46 32 -51 34 -120 29 -53 -4 -77 -1 -94
10 -13 8 -23 20 -23 27 0 7 13 26 29 41 19 18 44 30 76 34 27 4 50 13 53 20 3
9 -21 12 -96 12z m181 -700 c4 0 21 -7 37 -15 20 -10 30 -23 30 -38 0 -12 -13
-37 -29 -55 -17 -17 -37 -32 -46 -32 -9 0 -25 5 -36 10 -10 6 -19 20 -19 31 0
11 7 34 16 52 9 18 22 35 28 39 6 4 15 8 19 8z m-107 -180 c5 0 15 -5 22 -12
7 -7 12 -21 12 -33 0 -12 -15 -35 -32 -52 -18 -17 -59 -45 -91 -62 -31 -17
-68 -31 -81 -31 -14 0 -30 10 -39 24 -9 13 -29 26 -46 29 -18 4 -31 13 -31 22
0 11 11 15 40 15 22 0 40 4 40 10 0 5 15 16 34 24 18 8 37 19 40 25 4 6 24 11
45 11 20 0 46 7 57 15 10 8 24 15 30 15z"/>
</g>
</svg>
