<?xml version="1.0" standalone="no"?>
<!DOCTYPE svg PUBLIC "-//W3C//DTD SVG 20010904//EN"
 "http://www.w3.org/TR/2001/REC-SVG-20010904/DTD/svg10.dtd">
<svg version="1.0" xmlns="http://www.w3.org/2000/svg"
 width="128.000000pt" height="128.000000pt" viewBox="0 0 128.000000 128.000000"
 preserveAspectRatio="xMidYMid meet">
<metadata>
Created by potrace 1.16, written by Peter Selinger 2001-2019
</metadata>
<g transform="translate(0.000000,128.000000) scale(0.100000,-0.100000)"
fill="#000000" stroke="none">
<path d="M558 1280 c-15 0 -31 -12 -45 -33 -13 -18 -23 -41 -23 -50 0 -10 -9
-25 -20 -34 -16 -14 -20 -30 -20 -83 0 -47 6 -74 20 -97 10 -17 29 -37 42 -44
13 -6 24 -13 26 -14 1 -1 -4 -27 -12 -57 -8 -30 -21 -74 -29 -99 -8 -24 -15
-73 -16 -108 -1 -36 1 -73 5 -83 3 -10 23 -27 44 -38 21 -11 54 -37 74 -57 20
-21 36 -40 36 -43 0 -3 -19 -15 -42 -27 -24 -11 -54 -24 -68 -27 -14 -3 -55
-24 -90 -47 -36 -23 -71 -50 -78 -60 -7 -11 -20 -19 -27 -19 -8 0 -21 -12 -28
-27 -7 -16 -19 -47 -27 -70 -8 -28 -10 -50 -4 -62 5 -11 25 -31 44 -44 19 -13
34 -30 34 -39 -1 -13 13 -16 82 -16 46 0 86 4 89 9 4 5 17 9 30 9 13 0 26 4
30 9 3 5 18 12 34 16 21 4 41 25 77 76 44 64 49 77 52 137 2 37 9 73 14 79 7
9 36 12 91 10 58 -1 81 2 85 11 3 10 7 10 18 1 12 -10 18 -9 32 5 16 16 15 18
-10 37 -16 12 -28 29 -28 39 0 10 -3 25 -6 34 -4 11 -19 16 -45 16 -21 0 -70
-5 -109 -12 -71 -12 -71 -12 -105 25 -19 20 -39 37 -44 37 -6 0 -11 5 -11 11
0 6 -20 34 -44 62 -37 43 -43 57 -39 82 3 17 16 45 30 63 13 17 30 32 37 32 8
0 21 16 30 35 9 19 21 35 26 35 6 0 10 26 10 58 0 32 -6 66 -12 75 -7 9 -44
33 -83 53 -38 20 -76 43 -82 52 -7 9 -10 26 -6 41 3 14 23 46 45 70 21 24 38
50 38 57 0 8 -10 14 -22 14z m70 -945 c35 0 48 -4 50 -16 2 -9 -9 -43 -24 -75
-14 -33 -44 -78 -67 -101 -22 -23 -44 -40 -49 -37 -5 3 -14 1 -21 -4 -7 -5
-38 -10 -71 -11 -43 -2 -63 2 -77 15 -10 9 -19 30 -19 45 0 15 4 39 9 52 5 13
29 35 53 49 24 13 69 33 102 44 32 10 60 24 62 29 3 6 26 10 52 10z"/>
</g>
</svg>
