<?xml version="1.0" standalone="no"?>
<!DOCTYPE svg PUBLIC "-//W3C//DTD SVG 20010904//EN"
 "http://www.w3.org/TR/2001/REC-SVG-20010904/DTD/svg10.dtd">
<svg version="1.0" xmlns="http://www.w3.org/2000/svg"
 width="128.000000pt" height="128.000000pt" viewBox="0 0 128.000000 128.000000"
 preserveAspectRatio="xMidYMid meet">
<metadata>
Created by potrace 1.16, written by Peter Selinger 2001-2019
</metadata>
<g transform="translate(0.000000,128.000000) scale(0.100000,-0.100000)"
fill="#000000" stroke="none">
<path d="M665 1250 c-19 0 -39 -8 -49 -19 -10 -11 -18 -30 -17 -43 0 -13 4
-45 7 -71 3 -27 3 -82 -1 -123 -6 -70 -8 -74 -33 -81 -15 -3 -30 -11 -34 -17
-4 -6 -5 -25 -2 -42 5 -26 2 -32 -21 -42 -21 -10 -26 -18 -23 -39 2 -17 10
-29 21 -31 10 -2 27 4 36 12 17 15 19 15 32 0 8 -9 33 -25 56 -35 26 -11 48
-29 57 -48 9 -16 16 -39 16 -51 0 -12 -9 -24 -22 -29 -13 -5 -75 -16 -138 -25
-63 -9 -133 -19 -155 -23 -22 -3 -53 -16 -68 -29 -16 -13 -42 -24 -58 -24 -16
0 -46 -7 -68 -16 -31 -12 -43 -24 -52 -51 -6 -19 -8 -50 -4 -69 3 -19 15 -40
25 -47 11 -6 20 -20 20 -29 0 -10 10 -36 21 -58 13 -24 50 -64 89 -95 36 -29
84 -69 105 -89 24 -23 48 -36 64 -36 15 0 32 5 38 11 6 6 32 16 59 23 37 9 54
20 69 44 11 17 27 31 36 32 9 0 28 12 42 26 17 16 28 42 33 71 6 41 4 47 -21
67 -21 17 -26 28 -23 56 2 29 7 34 23 32 11 -2 29 -3 39 -3 11 0 28 -5 39 -10
12 -7 23 -7 29 -1 6 6 5 24 -3 51 -11 37 -10 43 7 55 18 14 17 16 -21 49 -37
33 -39 37 -24 52 15 15 20 15 51 2 19 -8 63 -36 97 -62 33 -27 61 -51 61 -55
0 -3 -6 -14 -13 -25 -8 -10 -29 -25 -48 -34 -18 -9 -35 -23 -37 -32 -2 -12 7
-18 30 -21 18 -3 66 -2 107 1 60 5 76 10 92 30 14 18 19 39 19 91 0 54 -4 70
-20 85 -14 13 -29 16 -55 12 -25 -4 -35 -2 -35 7 0 8 -7 19 -16 26 -8 8 -50
15 -97 17 -45 2 -88 6 -94 8 -7 2 -13 16 -13 30 0 14 -8 32 -17 39 -10 8 -33
27 -50 41 -22 18 -33 36 -33 53 0 15 -5 34 -10 42 -5 8 -24 20 -42 26 -31 10
-33 13 -31 55 1 24 2 48 2 52 1 5 11 7 24 6 12 -2 28 0 35 4 6 5 12 18 12 31
0 13 9 31 20 41 11 10 20 30 20 45 0 16 8 33 20 41 10 8 22 26 25 41 6 24 2
29 -32 47 -22 11 -45 27 -52 35 -8 9 -28 16 -46 16z m-13 -762 c10 -5 23 -18
29 -29 6 -12 8 -35 5 -53 -3 -17 -9 -55 -14 -85 -5 -32 -15 -57 -25 -63 -10
-5 -25 -23 -34 -41 -10 -18 -22 -48 -28 -67 -10 -33 -13 -35 -50 -31 -22 2
-67 16 -100 31 -35 17 -88 56 -127 93 -38 36 -68 72 -68 80 0 8 13 28 28 45
16 17 48 36 73 43 24 7 53 20 64 30 11 10 40 22 65 28 25 6 72 14 105 19 33 4
68 4 77 0z"/>
<path d="M511 1190 c-14 0 -34 -5 -43 -11 -11 -6 -18 -22 -18 -38 0 -16 9 -36
23 -48 12 -11 27 -23 34 -27 6 -3 23 -2 37 3 18 7 27 20 32 47 6 32 3 40 -16
56 -12 10 -34 18 -49 18z"/>
<path d="M214 1140 c-8 0 -14 -10 -14 -24 0 -14 5 -28 11 -32 6 -3 9 -14 6
-24 -3 -11 2 -28 10 -39 8 -12 30 -28 48 -35 19 -8 44 -12 57 -9 13 3 30 12
38 19 8 7 29 14 45 16 22 2 30 8 30 23 0 17 -8 20 -57 23 -48 3 -61 7 -78 30
-12 14 -35 32 -52 39 -17 7 -37 13 -44 13z"/>
<path d="M403 1138 c-16 2 -23 -2 -23 -13 0 -11 7 -15 23 -13 12 2 22 8 22 13
0 6 -10 11 -22 13z"/>
</g>
</svg>
