<?xml version="1.0" standalone="no"?>
<!DOCTYPE svg PUBLIC "-//W3C//DTD SVG 20010904//EN"
 "http://www.w3.org/TR/2001/REC-SVG-20010904/DTD/svg10.dtd">
<svg version="1.0" xmlns="http://www.w3.org/2000/svg"
 width="128.000000pt" height="128.000000pt" viewBox="0 0 128.000000 128.000000"
 preserveAspectRatio="xMidYMid meet">
<metadata>
Created by potrace 1.16, written by Peter Selinger 2001-2019
</metadata>
<g transform="translate(0.000000,128.000000) scale(0.100000,-0.100000)"
fill="#000000" stroke="none">
<path d="M551 1280 c-34 0 -42 -4 -46 -22 -3 -13 -6 -36 -6 -53 -1 -16 2 -49
6 -72 7 -38 10 -42 44 -48 20 -3 51 -1 68 4 33 10 33 10 31 -52 -1 -34 2 -89
6 -122 4 -33 13 -73 19 -90 6 -16 26 -47 44 -68 18 -20 33 -48 33 -60 0 -13
-11 -34 -24 -46 -16 -15 -26 -19 -31 -11 -4 6 -13 9 -21 6 -8 -3 -14 -1 -14 4
0 6 -6 10 -14 10 -8 0 -16 -7 -20 -15 -4 -11 -14 -13 -36 -8 -26 5 -32 2 -37
-16 -4 -15 -13 -21 -35 -21 -21 0 -39 -10 -60 -32 -17 -18 -44 -57 -59 -86
-24 -43 -28 -60 -23 -92 6 -35 4 -40 -13 -40 -11 0 -23 -3 -26 -7 -4 -3 -2
-13 5 -20 6 -8 13 -34 14 -59 1 -24 8 -54 17 -67 9 -14 31 -28 49 -32 18 -5
37 -9 43 -9 5 -1 12 10 15 23 3 14 11 26 18 29 8 2 10 -6 5 -29 -6 -32 -6 -32
37 -25 24 4 50 12 57 18 10 8 17 8 26 -1 9 -9 -5 -28 -63 -84 -40 -40 -79 -71
-86 -69 -7 1 -15 -2 -19 -8 -4 -6 10 -10 37 -10 36 0 53 8 100 45 32 25 62 45
67 45 4 0 33 26 64 58 30 31 67 71 82 89 26 32 26 32 1 39 -14 3 -26 10 -26
14 0 4 10 11 23 15 12 4 32 6 45 5 16 -1 22 4 22 19 0 12 -8 29 -18 39 -9 9
-27 34 -40 55 -12 21 -22 47 -22 57 0 10 5 22 10 25 6 4 17 1 25 -5 8 -7 14
-27 13 -46 -1 -19 4 -40 11 -47 9 -9 14 -9 21 3 5 8 5 21 -1 32 -6 12 -6 25 1
38 6 11 16 20 22 20 7 0 9 -15 5 -44 -5 -36 -3 -49 14 -68 20 -23 20 -23 14
14 -3 21 -1 39 5 43 5 3 10 26 10 51 0 25 -7 59 -16 77 -10 18 -25 38 -36 45
-10 8 -29 25 -42 39 -13 14 -29 44 -36 67 -6 22 -23 58 -37 78 -19 29 -28 57
-33 115 -4 43 -5 80 -1 83 3 3 7 24 9 47 3 33 -1 46 -18 60 -12 10 -26 29 -31
42 -7 16 -14 21 -26 17 -11 -5 -23 1 -35 16 -15 20 -20 21 -38 10 -16 -10 -20
-10 -21 0 -1 7 -1 15 -1 18 0 3 3 20 7 38 7 32 7 32 -34 32z m280 -701 c4 -7
5 -17 2 -22 -3 -5 -10 -4 -15 1 -6 6 -7 16 -3 22 6 9 9 9 16 -1z m-133 -19
c57 0 62 -2 62 -22 0 -13 -26 -48 -65 -89 -36 -37 -65 -72 -65 -78 0 -6 -7
-11 -15 -11 -8 0 -29 -13 -47 -29 -31 -27 -32 -30 -18 -55 10 -20 11 -29 2
-38 -8 -8 -15 -2 -28 24 -14 31 -21 35 -53 34 -36 -1 -36 -1 -33 44 2 25 12
63 22 85 10 22 28 50 39 63 10 12 23 22 28 22 4 0 31 11 58 25 37 18 67 24
113 25z m78 -140 c7 0 14 -6 17 -14 3 -8 -2 -32 -12 -52 -18 -37 -19 -37 -30
-15 -10 17 -9 28 1 51 7 17 18 30 24 30z"/>
</g>
</svg>
