<?xml version="1.0" standalone="no"?>
<!DOCTYPE svg PUBLIC "-//W3C//DTD SVG 20010904//EN"
 "http://www.w3.org/TR/2001/REC-SVG-20010904/DTD/svg10.dtd">
<svg version="1.0" xmlns="http://www.w3.org/2000/svg"
 width="56.000000pt" height="56.000000pt" viewBox="0 0 56.000000 56.000000"
 preserveAspectRatio="xMidYMid meet">
<metadata>
Created by potrace 1.16, written by Peter Selinger 2001-2019
</metadata>
<g transform="translate(0.000000,56.000000) scale(0.100000,-0.100000)"
fill="#000000" stroke="none">
<path d="M438 560 c-37 0 -46 -5 -65 -33 -12 -17 -31 -49 -42 -70 -15 -26 -21
-56 -21 -97 0 -39 10 -86 30 -143 17 -47 30 -91 30 -98 0 -8 -15 -10 -57 -5
-31 4 -61 13 -67 20 -6 7 -28 25 -49 41 -33 25 -40 26 -67 15 -16 -7 -34 -18
-41 -26 -8 -10 -8 -22 0 -47 6 -18 29 -52 50 -75 31 -33 47 -42 72 -42 33 0
33 0 8 27 -14 16 -33 40 -42 55 -9 15 -17 32 -17 38 0 5 7 10 16 10 8 0 34
-13 58 -29 23 -16 69 -35 102 -41 32 -7 70 -13 84 -14 16 -1 28 7 36 22 9 17
8 37 -1 80 -6 31 -22 77 -34 101 -13 24 -27 73 -32 107 -9 64 -9 64 41 126 28
34 50 66 50 70 0 4 -19 8 -42 8z"/>
</g>
</svg>
