<?xml version="1.0" standalone="no"?>
<!DOCTYPE svg PUBLIC "-//W3C//DTD SVG 20010904//EN"
 "http://www.w3.org/TR/2001/REC-SVG-20010904/DTD/svg10.dtd">
<svg version="1.0" xmlns="http://www.w3.org/2000/svg"
 width="56.000000pt" height="56.000000pt" viewBox="0 0 56.000000 56.000000"
 preserveAspectRatio="xMidYMid meet">
<metadata>
Created by potrace 1.16, written by Peter Selinger 2001-2019
</metadata>
<g transform="translate(0.000000,56.000000) scale(0.100000,-0.100000)"
fill="#000000" stroke="none">
<path d="M281 560 c-10 0 -21 -9 -24 -20 -3 -11 8 -74 24 -141 16 -67 27 -124
25 -126 -2 -2 -22 17 -44 42 -35 40 -43 45 -61 36 -11 -6 -27 -21 -35 -33 -10
-13 -16 -44 -16 -73 0 -32 8 -68 21 -96 12 -24 32 -58 45 -75 13 -17 24 -41
24 -52 0 -19 6 -22 40 -22 27 0 40 4 40 14 0 7 -22 36 -49 64 -26 28 -57 73
-68 99 -15 38 -17 57 -11 91 5 23 13 42 18 42 5 0 33 -23 64 -51 30 -27 58
-58 61 -69 3 -10 13 -21 22 -24 9 -4 22 -1 30 6 7 8 14 25 15 38 1 14 -12 61
-29 105 -18 44 -41 110 -52 147 -12 37 -21 74 -21 83 0 8 -8 15 -19 15z"/>
</g>
</svg>
