<?xml version="1.0" standalone="no"?>
<!DOCTYPE svg PUBLIC "-//W3C//DTD SVG 20010904//EN"
 "http://www.w3.org/TR/2001/REC-SVG-20010904/DTD/svg10.dtd">
<svg version="1.0" xmlns="http://www.w3.org/2000/svg"
 width="56.000000pt" height="56.000000pt" viewBox="0 0 56.000000 56.000000"
 preserveAspectRatio="xMidYMid meet">
<metadata>
Created by potrace 1.16, written by Peter Selinger 2001-2019
</metadata>
<g transform="translate(0.000000,56.000000) scale(0.100000,-0.100000)"
fill="#000000" stroke="none">
<path d="M164 550 c-1 0 -6 -5 -10 -11 -3 -6 17 -57 46 -113 29 -56 74 -127
101 -157 27 -29 51 -62 55 -72 3 -10 0 -25 -7 -34 -7 -8 -24 -19 -38 -24 -19
-8 -27 -6 -33 6 -5 8 -21 15 -37 15 -16 0 -37 -10 -51 -25 -22 -23 -22 -27 -9
-52 8 -14 22 -28 32 -31 10 -2 17 -14 17 -28 0 -19 5 -24 25 -24 22 0 25 4 25
34 0 19 -4 38 -10 41 -5 3 -10 15 -10 27 0 18 4 20 44 14 32 -5 54 -3 75 8 16
9 31 21 34 28 2 7 0 24 -6 38 -5 14 -16 39 -23 56 -7 17 -39 62 -71 100 -32
38 -78 100 -102 137 -24 37 -45 67 -47 67z"/>
</g>
</svg>
