<?xml version="1.0" standalone="no"?>
<!DOCTYPE svg PUBLIC "-//W3C//DTD SVG 20010904//EN"
 "http://www.w3.org/TR/2001/REC-SVG-20010904/DTD/svg10.dtd">
<svg version="1.0" xmlns="http://www.w3.org/2000/svg"
 width="56.000000pt" height="56.000000pt" viewBox="0 0 56.000000 56.000000"
 preserveAspectRatio="xMidYMid meet">
<metadata>
Created by potrace 1.16, written by Peter Selinger 2001-2019
</metadata>
<g transform="translate(0.000000,56.000000) scale(0.100000,-0.100000)"
fill="#000000" stroke="none">
<path d="M323 530 c-6 0 -16 -6 -22 -14 -9 -11 -7 -23 10 -52 12 -22 31 -49
42 -61 12 -14 17 -29 12 -42 -3 -11 -19 -26 -35 -33 -17 -7 -30 -16 -30 -20 0
-4 10 -10 23 -14 12 -4 43 -7 70 -6 26 0 52 4 57 7 6 3 10 13 10 21 0 8 -14
45 -31 80 -18 36 -46 81 -64 100 -18 19 -37 34 -42 34z"/>
<path d="M253 320 c-15 -1 -46 -7 -68 -15 -22 -8 -46 -22 -53 -32 -8 -11 -11
-30 -7 -48 3 -16 13 -36 22 -42 9 -7 27 -13 39 -13 13 0 35 -5 49 -12 14 -6
25 -18 25 -25 0 -8 -18 -36 -40 -62 -22 -26 -40 -53 -40 -59 0 -7 5 -12 10
-12 6 0 32 11 58 24 27 14 65 43 85 65 22 24 37 51 37 66 0 15 -10 31 -25 41
-14 9 -47 19 -73 22 -26 2 -53 9 -59 15 -7 5 -13 20 -13 33 0 16 6 25 18 25 9
1 26 2 36 3 11 1 21 7 23 14 3 8 -5 12 -24 12z"/>
</g>
</svg>
