<?xml version="1.0" standalone="no"?>
<!DOCTYPE svg PUBLIC "-//W3C//DTD SVG 20010904//EN"
 "http://www.w3.org/TR/2001/REC-SVG-20010904/DTD/svg10.dtd">
<svg version="1.0" xmlns="http://www.w3.org/2000/svg"
 width="56.000000pt" height="56.000000pt" viewBox="0 0 56.000000 56.000000"
 preserveAspectRatio="xMidYMid meet">
<metadata>
Created by potrace 1.16, written by Peter Selinger 2001-2019
</metadata>
<g transform="translate(0.000000,56.000000) scale(0.100000,-0.100000)"
fill="#000000" stroke="none">
<path d="M318 535 c-16 30 -16 30 -23 -7 -4 -21 -5 -55 -2 -75 3 -21 10 -59
15 -86 5 -26 19 -59 32 -72 21 -23 25 -24 39 -10 14 14 14 18 -1 48 -9 17 -19
46 -22 62 -2 17 -9 48 -14 70 -5 22 -16 53 -24 70z"/>
<path d="M396 560 c-25 0 -46 -2 -46 -5 0 -4 7 -20 16 -36 12 -24 21 -30 42
-27 22 2 28 9 30 36 3 32 3 32 -42 32z"/>
<path d="M390 260 c-5 0 -12 -5 -15 -11 -4 -5 -2 -23 5 -39 6 -16 10 -36 8
-46 -3 -15 -12 -18 -58 -16 -50 2 -58 6 -92 43 -37 41 -37 41 -83 3 -25 -21
-45 -46 -45 -56 0 -11 11 -23 27 -29 16 -6 42 -13 58 -16 17 -3 48 -14 71 -25
23 -10 47 -30 54 -43 8 -16 22 -25 37 -25 13 0 23 4 23 8 0 5 -16 27 -35 49
-19 23 -35 44 -35 47 0 3 24 6 54 6 38 0 60 5 71 17 12 11 15 25 11 45 -3 17
-15 43 -27 59 -11 16 -24 29 -29 29z"/>
</g>
</svg>
