<?xml version="1.0" standalone="no"?>
<!DOCTYPE svg PUBLIC "-//W3C//DTD SVG 20010904//EN"
 "http://www.w3.org/TR/2001/REC-SVG-20010904/DTD/svg10.dtd">
<svg version="1.0" xmlns="http://www.w3.org/2000/svg"
 width="56.000000pt" height="56.000000pt" viewBox="0 0 56.000000 56.000000"
 preserveAspectRatio="xMidYMid meet">
<metadata>
Created by potrace 1.16, written by Peter Selinger 2001-2019
</metadata>
<g transform="translate(0.000000,56.000000) scale(0.100000,-0.100000)"
fill="#000000" stroke="none">
<path d="M346 560 c-19 0 -26 -8 -39 -47 -15 -44 -14 -49 4 -84 10 -21 19 -44
19 -52 0 -8 8 -22 19 -31 10 -9 21 -34 24 -54 3 -20 8 -45 12 -55 6 -13 2 -17
-18 -17 -14 0 -33 -7 -41 -16 -9 -8 -14 -20 -11 -25 4 -5 19 -9 34 -9 16 0 39
8 52 19 13 10 33 20 43 22 12 3 20 14 22 29 1 14 -2 40 -6 58 -5 19 -25 53
-44 76 -19 24 -43 59 -52 79 -14 30 -15 41 -6 62 7 14 12 30 12 35 0 6 -11 10
-24 10z"/>
<path d="M100 220 c-5 0 -10 -15 -10 -33 0 -18 5 -38 10 -43 6 -6 19 -26 29
-45 10 -19 28 -39 39 -45 12 -6 30 -18 39 -26 10 -9 28 -19 40 -22 12 -4 24
-2 27 3 4 6 1 31 -5 56 -8 31 -19 49 -33 55 -11 4 -32 18 -46 30 -14 12 -37
32 -52 46 -15 13 -32 24 -38 24z"/>
</g>
</svg>
