<?xml version="1.0" standalone="no"?>
<!DOCTYPE svg PUBLIC "-//W3C//DTD SVG 20010904//EN"
 "http://www.w3.org/TR/2001/REC-SVG-20010904/DTD/svg10.dtd">
<svg version="1.0" xmlns="http://www.w3.org/2000/svg"
 width="56.000000pt" height="56.000000pt" viewBox="0 0 56.000000 56.000000"
 preserveAspectRatio="xMidYMid meet">
<metadata>
Created by potrace 1.16, written by Peter Selinger 2001-2019
</metadata>
<g transform="translate(0.000000,56.000000) scale(0.100000,-0.100000)"
fill="#000000" stroke="none">
<path d="M309 518 c-14 2 -31 -3 -36 -10 -6 -7 -13 -33 -14 -57 -3 -36 0 -45
17 -51 11 -4 26 -15 33 -23 7 -9 10 -21 7 -26 -4 -6 -13 -8 -21 -4 -9 3 -15
-1 -15 -11 0 -9 4 -16 8 -16 4 0 13 5 19 11 8 8 27 -4 72 -47 34 -32 61 -66
61 -76 0 -11 -7 -18 -17 -18 -10 1 -36 7 -58 15 -22 8 -49 15 -60 15 -11 0
-47 14 -80 30 -37 18 -76 30 -101 30 -32 0 -49 -7 -72 -28 -17 -16 -34 -40
-37 -54 -5 -20 -1 -30 21 -47 16 -12 41 -21 63 -21 20 0 47 -9 61 -20 14 -11
30 -20 36 -20 7 0 19 -11 28 -25 11 -17 26 -25 46 -25 27 0 30 3 30 30 0 17
-9 38 -22 50 -12 11 -28 20 -35 20 -7 0 -43 10 -80 22 -38 12 -76 28 -85 36
-10 8 -18 19 -18 23 0 5 9 13 20 19 15 8 40 4 112 -20 51 -17 122 -45 158 -62
36 -17 78 -37 93 -44 16 -8 34 -14 40 -14 6 0 26 10 44 23 24 16 33 30 33 50
0 19 -10 37 -31 54 -17 14 -63 67 -103 117 -40 51 -78 102 -85 114 -6 12 -11
30 -9 40 2 12 -5 18 -23 20z"/>
</g>
</svg>
