<?xml version="1.0" standalone="no"?>
<!DOCTYPE svg PUBLIC "-//W3C//DTD SVG 20010904//EN"
 "http://www.w3.org/TR/2001/REC-SVG-20010904/DTD/svg10.dtd">
<svg version="1.0" xmlns="http://www.w3.org/2000/svg"
 width="56.000000pt" height="56.000000pt" viewBox="0 0 56.000000 56.000000"
 preserveAspectRatio="xMidYMid meet">
<metadata>
Created by potrace 1.16, written by Peter Selinger 2001-2019
</metadata>
<g transform="translate(0.000000,56.000000) scale(0.100000,-0.100000)"
fill="#000000" stroke="none">
<path d="M200 560 c-5 0 -10 -9 -10 -20 0 -11 11 -44 24 -74 19 -43 33 -59 65
-76 22 -11 48 -32 58 -46 16 -25 16 -27 -3 -41 -10 -7 -30 -16 -44 -19 -14 -3
-70 -20 -125 -39 -83 -27 -102 -37 -114 -60 -7 -15 -15 -44 -18 -64 -4 -27 0
-41 12 -51 15 -13 27 -11 94 13 42 15 86 27 97 27 12 0 31 -9 44 -20 13 -11
29 -20 37 -20 8 0 13 -12 13 -35 0 -35 0 -35 53 -35 48 0 55 3 65 25 7 14 12
34 12 44 0 9 -12 28 -27 42 -15 13 -39 32 -53 41 -20 14 -46 18 -127 18 -56 0
-104 4 -108 9 -3 6 3 15 14 20 11 6 28 11 39 11 11 0 25 6 31 13 7 9 40 14
102 16 50 1 107 -3 126 -10 28 -9 38 -8 48 2 7 8 14 23 15 34 1 11 2 30 1 42
-1 15 -16 32 -43 50 -24 15 -71 49 -106 75 -35 27 -69 48 -76 48 -8 0 -30 18
-50 40 -20 22 -40 40 -46 40z"/>
</g>
</svg>
