<?xml version="1.0" standalone="no"?>
<!DOCTYPE svg PUBLIC "-//W3C//DTD SVG 20010904//EN"
 "http://www.w3.org/TR/2001/REC-SVG-20010904/DTD/svg10.dtd">
<svg version="1.0" xmlns="http://www.w3.org/2000/svg"
 width="56.000000pt" height="56.000000pt" viewBox="0 0 56.000000 56.000000"
 preserveAspectRatio="xMidYMid meet">
<metadata>
Created by potrace 1.16, written by Peter Selinger 2001-2019
</metadata>
<g transform="translate(0.000000,56.000000) scale(0.100000,-0.100000)"
fill="#000000" stroke="none">
<path d="M94 560 c-23 0 -24 -2 -24 -74 0 -41 5 -78 10 -81 6 -4 17 -2 25 5 9
7 13 34 13 80 0 67 -1 70 -24 70z"/>
<path d="M271 549 c-7 11 -12 4 -20 -25 -6 -21 -11 -53 -11 -69 0 -17 6 -39
14 -50 8 -11 44 -51 81 -89 36 -38 73 -82 81 -97 13 -26 12 -29 -5 -39 -11 -5
-37 -10 -59 -10 -21 0 -61 7 -88 15 -27 8 -72 15 -100 15 -41 0 -55 -5 -74
-24 -12 -14 -20 -31 -17 -39 4 -11 18 -12 69 -5 34 4 70 9 78 10 8 0 30 0 48
0 20 -1 35 -8 39 -18 3 -9 1 -31 -5 -48 -5 -17 -13 -41 -17 -54 -6 -19 -3 -22
24 -22 20 0 34 7 41 19 5 11 10 42 10 69 0 50 0 50 58 58 53 8 57 11 60 38 2
15 1 39 -2 52 -4 13 -25 45 -49 71 -23 26 -54 59 -69 74 -15 15 -39 49 -53 77
-14 27 -25 56 -25 63 0 8 -4 20 -9 28z"/>
<path d="M444 560 c-19 0 -34 -2 -34 -3 0 -2 7 -18 16 -35 9 -19 23 -32 34
-32 10 0 21 4 25 10 3 5 3 21 -1 35 -5 21 -12 25 -40 25z"/>
</g>
</svg>
