<?xml version="1.0" standalone="no"?>
<!DOCTYPE svg PUBLIC "-//W3C//DTD SVG 20010904//EN"
 "http://www.w3.org/TR/2001/REC-SVG-20010904/DTD/svg10.dtd">
<svg version="1.0" xmlns="http://www.w3.org/2000/svg"
 width="56.000000pt" height="56.000000pt" viewBox="0 0 56.000000 56.000000"
 preserveAspectRatio="xMidYMid meet">
<metadata>
Created by potrace 1.16, written by Peter Selinger 2001-2019
</metadata>
<g transform="translate(0.000000,56.000000) scale(0.100000,-0.100000)"
fill="#000000" stroke="none">
<path d="M271 488 c-28 28 -52 48 -55 44 -2 -4 -7 -21 -10 -38 -6 -28 -12 -32
-47 -38 -25 -4 -39 -11 -37 -19 3 -6 14 -16 26 -22 16 -7 22 -19 22 -42 0 -17
-9 -52 -20 -78 -11 -26 -17 -51 -14 -56 3 -6 -6 -19 -20 -30 -14 -11 -26 -27
-26 -34 0 -8 -14 -35 -32 -61 -24 -36 -29 -50 -21 -63 6 -9 23 -16 38 -16 25
0 31 7 56 70 16 39 29 75 29 81 0 5 11 34 25 62 25 52 25 52 96 52 45 0 84 -6
105 -16 19 -9 34 -22 34 -30 0 -7 -25 -28 -54 -46 -30 -18 -62 -47 -72 -63 -9
-17 -15 -39 -13 -50 2 -10 25 -29 52 -42 26 -13 47 -30 47 -38 0 -12 14 -15
60 -15 51 0 60 3 60 18 0 10 -6 27 -14 38 -11 15 -27 19 -71 20 -36 0 -61 6
-71 16 -10 10 -14 24 -10 36 4 11 19 25 34 31 15 5 44 13 65 17 20 3 48 15 62
26 24 18 24 20 8 53 -9 19 -34 46 -56 61 -32 21 -51 26 -110 26 -40 1 -82 -2
-94 -6 -17 -5 -23 -3 -23 8 0 8 4 26 9 39 7 18 17 25 36 25 15 0 34 6 42 14
13 14 9 21 -36 66z"/>
</g>
</svg>
