<?xml version="1.0" standalone="no"?>
<!DOCTYPE svg PUBLIC "-//W3C//DTD SVG 20010904//EN"
 "http://www.w3.org/TR/2001/REC-SVG-20010904/DTD/svg10.dtd">
<svg version="1.0" xmlns="http://www.w3.org/2000/svg"
 width="56.000000pt" height="56.000000pt" viewBox="0 0 56.000000 56.000000"
 preserveAspectRatio="xMidYMid meet">
<metadata>
Created by potrace 1.16, written by Peter Selinger 2001-2019
</metadata>
<g transform="translate(0.000000,56.000000) scale(0.100000,-0.100000)"
fill="#000000" stroke="none">
<path d="M222 560 c-7 0 -14 -11 -18 -25 -4 -16 0 -34 10 -50 9 -14 14 -30 10
-36 -3 -6 3 -13 14 -16 14 -3 18 -11 15 -24 -3 -12 0 -19 8 -19 8 0 31 -25 52
-54 20 -30 37 -58 37 -64 0 -5 -24 -22 -52 -38 -29 -16 -61 -32 -70 -36 -10
-4 -18 -12 -18 -17 0 -5 3 -12 8 -14 4 -2 39 4 77 13 39 10 79 21 90 26 11 4
23 12 27 18 4 6 8 25 8 41 0 17 -9 41 -20 55 -11 14 -20 28 -20 31 0 3 -17 24
-38 46 -21 22 -48 60 -60 84 -12 24 -28 52 -35 62 -8 9 -19 17 -25 17z"/>
<path d="M172 160 c-10 0 -23 -5 -30 -12 -7 -7 -12 -33 -12 -58 0 -35 5 -52
21 -66 17 -15 40 -19 125 -22 99 -4 104 -3 104 16 0 11 -8 23 -17 27 -10 5
-44 9 -75 11 -31 1 -66 7 -77 14 -11 6 -26 20 -32 31 -8 15 -8 24 0 32 6 6 11
15 11 19 0 4 -8 8 -18 8z"/>
</g>
</svg>
