<?xml version="1.0" standalone="no"?>
<!DOCTYPE svg PUBLIC "-//W3C//DTD SVG 20010904//EN"
 "http://www.w3.org/TR/2001/REC-SVG-20010904/DTD/svg10.dtd">
<svg version="1.0" xmlns="http://www.w3.org/2000/svg"
 width="56.000000pt" height="56.000000pt" viewBox="0 0 56.000000 56.000000"
 preserveAspectRatio="xMidYMid meet">
<metadata>
Created by potrace 1.16, written by Peter Selinger 2001-2019
</metadata>
<g transform="translate(0.000000,56.000000) scale(0.100000,-0.100000)"
fill="#000000" stroke="none">
<path d="M285 560 c-16 0 -25 -7 -29 -26 -5 -17 -2 -32 7 -43 8 -9 22 -32 31
-51 8 -19 17 -62 18 -94 3 -59 3 -60 -27 -66 -16 -4 -43 -13 -59 -21 -20 -9
-33 -25 -38 -47 -6 -22 -5 -41 4 -60 7 -15 27 -36 45 -47 18 -11 34 -25 37
-32 2 -6 2 -20 0 -30 -3 -11 -18 -24 -32 -30 -25 -10 -24 -11 19 -12 38 -1 50
4 73 28 18 18 26 36 23 46 -4 8 -15 18 -24 22 -10 4 -34 17 -54 30 -20 13 -41
35 -48 49 -6 14 -9 29 -6 34 3 4 31 16 63 25 31 9 63 20 71 24 8 4 19 15 25
24 8 13 7 25 -6 48 -10 17 -18 38 -18 47 0 9 -6 34 -13 54 -7 21 -16 41 -20
44 -4 4 -7 17 -7 30 0 12 -3 29 -6 38 -3 9 -16 16 -29 16z"/>
</g>
</svg>
