<?xml version="1.0" standalone="no"?>
<!DOCTYPE svg PUBLIC "-//W3C//DTD SVG 20010904//EN"
 "http://www.w3.org/TR/2001/REC-SVG-20010904/DTD/svg10.dtd">
<svg version="1.0" xmlns="http://www.w3.org/2000/svg"
 width="56.000000pt" height="56.000000pt" viewBox="0 0 56.000000 56.000000"
 preserveAspectRatio="xMidYMid meet">
<metadata>
Created by potrace 1.16, written by Peter Selinger 2001-2019
</metadata>
<g transform="translate(0.000000,56.000000) scale(0.100000,-0.100000)"
fill="#000000" stroke="none">
<path d="M311 560 c-21 0 -30 -6 -35 -22 -3 -13 -6 -31 -6 -42 0 -10 18 -57
41 -105 22 -47 52 -98 66 -114 19 -19 24 -30 16 -38 -8 -8 -17 -8 -31 0 -11 6
-31 11 -44 11 -13 0 -40 11 -60 25 -20 14 -41 25 -45 25 -4 0 -26 10 -49 22
-28 14 -49 19 -67 14 -23 -5 -27 -12 -27 -42 0 -23 10 -50 29 -77 16 -23 50
-62 75 -87 41 -39 46 -49 46 -87 0 -43 0 -43 51 -43 43 0 50 3 45 16 -3 9 -6
25 -6 35 0 11 -22 44 -48 72 -27 29 -65 75 -85 103 -20 29 -37 57 -37 63 0 5
7 8 15 4 9 -3 22 -18 30 -33 11 -22 30 -33 82 -50 38 -12 91 -33 119 -47 29
-14 59 -23 67 -20 9 3 23 20 32 36 14 28 14 34 0 68 -9 21 -21 43 -28 48 -7 6
-23 24 -35 41 -12 17 -28 58 -37 89 -8 32 -22 66 -30 75 -8 9 -15 26 -15 38 0
18 -6 22 -29 22z"/>
</g>
</svg>
