<?xml version="1.0" standalone="no"?>
<!DOCTYPE svg PUBLIC "-//W3C//DTD SVG 20010904//EN"
 "http://www.w3.org/TR/2001/REC-SVG-20010904/DTD/svg10.dtd">
<svg version="1.0" xmlns="http://www.w3.org/2000/svg"
 width="56.000000pt" height="56.000000pt" viewBox="0 0 56.000000 56.000000"
 preserveAspectRatio="xMidYMid meet">
<metadata>
Created by potrace 1.16, written by Peter Selinger 2001-2019
</metadata>
<g transform="translate(0.000000,56.000000) scale(0.100000,-0.100000)"
fill="#000000" stroke="none">
<path d="M347 560 c-21 0 -28 -8 -41 -48 -13 -38 -14 -55 -5 -83 6 -18 14 -43
19 -54 5 -11 11 -47 14 -80 3 -34 3 -70 0 -82 -4 -13 -17 -23 -35 -27 -16 -3
-40 -1 -53 6 -14 6 -35 8 -48 5 -13 -4 -28 -18 -34 -31 -9 -20 -8 -30 7 -55
10 -16 35 -38 56 -47 21 -10 49 -29 63 -41 14 -13 38 -23 54 -23 29 0 29 0 10
22 -10 13 -26 28 -34 35 -8 7 -39 24 -67 38 -35 17 -53 33 -53 44 0 16 7 18
70 13 53 -3 75 -1 93 11 14 9 27 28 29 42 3 15 1 45 -4 68 -5 23 -16 72 -25
110 -8 37 -13 84 -10 105 3 20 8 45 12 55 6 13 2 17 -18 17z"/>
</g>
</svg>
