<?xml version="1.0" standalone="no"?>
<!DOCTYPE svg PUBLIC "-//W3C//DTD SVG 20010904//EN"
 "http://www.w3.org/TR/2001/REC-SVG-20010904/DTD/svg10.dtd">
<svg version="1.0" xmlns="http://www.w3.org/2000/svg"
 width="56.000000pt" height="56.000000pt" viewBox="0 0 56.000000 56.000000"
 preserveAspectRatio="xMidYMid meet">
<metadata>
Created by potrace 1.16, written by Peter Selinger 2001-2019
</metadata>
<g transform="translate(0.000000,56.000000) scale(0.100000,-0.100000)"
fill="#000000" stroke="none">
<path d="M196 560 c-42 0 -46 -2 -46 -25 0 -14 4 -25 8 -25 4 0 14 6 21 13 11
10 12 6 7 -23 -3 -19 -9 -51 -12 -71 -4 -23 -2 -39 5 -44 7 -4 18 -2 25 4 7 6
16 35 20 64 3 28 9 64 12 80 6 26 5 27 -40 27z"/>
<path d="M333 544 c-9 17 -10 17 -16 -5 -4 -13 -7 -60 -7 -103 0 -44 5 -96 11
-115 6 -20 15 -44 20 -53 5 -10 9 -25 9 -33 0 -8 -8 -15 -18 -15 -10 0 -22 4
-28 9 -5 5 -26 19 -47 30 -21 12 -46 21 -57 21 -11 0 -24 -9 -30 -19 -5 -11
-10 -26 -10 -33 0 -7 15 -19 33 -27 17 -8 45 -23 60 -34 25 -17 28 -24 22 -54
-3 -19 -15 -50 -26 -69 -10 -19 -19 -37 -19 -39 0 -3 10 -5 23 -5 16 0 28 12
45 48 12 26 22 59 22 72 0 14 -6 32 -13 40 -7 8 -27 27 -45 43 -26 21 -29 27
-15 27 10 0 33 -13 52 -29 19 -16 43 -32 53 -34 10 -3 25 2 34 10 8 9 12 23 9
32 -4 9 -11 36 -16 61 -6 25 -15 63 -21 85 -6 22 -11 69 -12 105 -1 36 -7 73
-13 84z"/>
</g>
</svg>
