<?xml version="1.0" standalone="no"?>
<!DOCTYPE svg PUBLIC "-//W3C//DTD SVG 20010904//EN"
 "http://www.w3.org/TR/2001/REC-SVG-20010904/DTD/svg10.dtd">
<svg version="1.0" xmlns="http://www.w3.org/2000/svg"
 width="56.000000pt" height="56.000000pt" viewBox="0 0 56.000000 56.000000"
 preserveAspectRatio="xMidYMid meet">
<metadata>
Created by potrace 1.16, written by Peter Selinger 2001-2019
</metadata>
<g transform="translate(0.000000,56.000000) scale(0.100000,-0.100000)"
fill="#000000" stroke="none">
<path d="M270 560 c-23 0 -30 -4 -30 -20 0 -13 10 -24 25 -30 22 -8 24 -15 27
-82 3 -64 5 -73 23 -76 16 -2 23 6 34 43 7 25 10 57 7 71 -4 14 -18 37 -31 50
-14 14 -25 29 -25 34 0 6 -13 10 -30 10z"/>
<path d="M336 320 c-8 0 -17 -4 -20 -8 -3 -5 8 -22 24 -37 17 -16 30 -34 30
-41 0 -6 -20 -17 -44 -23 -25 -6 -59 -11 -77 -11 -17 0 -61 -5 -96 -12 -49 -9
-63 -15 -61 -27 3 -11 13 -15 33 -14 17 2 92 4 167 5 114 3 141 6 158 20 11
10 20 22 20 28 0 5 -20 29 -44 52 -24 24 -51 49 -60 56 -8 6 -22 12 -30 12z"/>
<path d="M175 96 c-6 2 -16 -1 -23 -8 -7 -7 -12 -17 -12 -23 0 -7 22 -24 49
-38 30 -17 64 -27 90 -27 33 0 41 4 41 18 0 13 -19 26 -67 46 -38 15 -73 29
-78 32z"/>
</g>
</svg>
