<?xml version="1.0" standalone="no"?>
<!DOCTYPE svg PUBLIC "-//W3C//DTD SVG 20010904//EN"
 "http://www.w3.org/TR/2001/REC-SVG-20010904/DTD/svg10.dtd">
<svg version="1.0" xmlns="http://www.w3.org/2000/svg"
 width="56.000000pt" height="56.000000pt" viewBox="0 0 56.000000 56.000000"
 preserveAspectRatio="xMidYMid meet">
<metadata>
Created by potrace 1.16, written by Peter Selinger 2001-2019
</metadata>
<g transform="translate(0.000000,56.000000) scale(0.100000,-0.100000)"
fill="#000000" stroke="none">
<path d="M258 560 c-21 0 -28 -5 -28 -19 0 -10 7 -35 16 -56 8 -21 37 -61 63
-89 26 -28 57 -64 69 -80 12 -15 19 -33 16 -38 -3 -5 0 -16 7 -24 6 -8 9 -17
6 -20 -3 -4 -26 4 -52 16 -37 18 -50 20 -75 11 -17 -5 -37 -8 -44 -5 -8 3 -17
1 -21 -5 -3 -6 1 -14 10 -17 9 -4 14 -13 11 -20 -3 -7 3 -15 12 -18 9 -2 63
-5 119 -5 102 0 102 0 117 31 9 17 16 51 16 74 0 40 -3 45 -34 58 -18 8 -57
42 -86 77 -29 35 -62 78 -74 96 -15 24 -28 33 -48 33z"/>
<path d="M174 249 c-5 4 -28 -2 -50 -14 -23 -11 -49 -26 -58 -34 -9 -7 -16
-25 -16 -40 1 -14 9 -42 18 -61 12 -24 28 -38 52 -46 19 -6 36 -18 38 -27 2
-8 13 -18 25 -21 12 -3 45 -6 72 -6 40 0 55 5 73 24 12 14 20 31 16 39 -3 9
-12 18 -20 21 -9 3 -36 1 -60 -5 -38 -10 -51 -9 -83 6 -21 9 -48 30 -60 46
-11 15 -21 30 -21 33 0 3 15 6 33 8 20 2 32 9 33 18 0 8 4 23 8 33 5 10 5 22
0 26z"/>
</g>
</svg>
