<?xml version="1.0" standalone="no"?>
<!DOCTYPE svg PUBLIC "-//W3C//DTD SVG 20010904//EN"
 "http://www.w3.org/TR/2001/REC-SVG-20010904/DTD/svg10.dtd">
<svg version="1.0" xmlns="http://www.w3.org/2000/svg"
 width="56.000000pt" height="56.000000pt" viewBox="0 0 56.000000 56.000000"
 preserveAspectRatio="xMidYMid meet">
<metadata>
Created by potrace 1.16, written by Peter Selinger 2001-2019
</metadata>
<g transform="translate(0.000000,56.000000) scale(0.100000,-0.100000)"
fill="#000000" stroke="none">
<path d="M316 560 c-19 0 -26 -5 -26 -19 0 -11 -4 -23 -10 -26 -5 -3 -10 -29
-10 -57 0 -46 4 -54 50 -105 44 -48 50 -60 50 -98 0 -24 -5 -56 -12 -70 -10
-21 -18 -25 -57 -25 -37 0 -54 6 -84 31 -38 31 -38 31 -61 4 -22 -26 -23 -29
-8 -59 8 -17 26 -46 40 -63 13 -18 39 -42 57 -53 18 -11 44 -20 59 -20 25 0
21 6 -48 73 -42 41 -76 79 -76 85 0 7 4 12 8 12 4 0 23 -11 42 -25 19 -14 51
-30 71 -35 20 -6 44 -7 53 -4 8 3 24 20 35 37 10 18 22 51 26 75 4 27 2 60 -7
89 -8 29 -27 57 -51 80 -37 33 -39 37 -35 86 3 29 8 60 12 70 7 14 3 17 -18
17z"/>
</g>
</svg>
