<?xml version="1.0" standalone="no"?>
<!DOCTYPE svg PUBLIC "-//W3C//DTD SVG 20010904//EN"
 "http://www.w3.org/TR/2001/REC-SVG-20010904/DTD/svg10.dtd">
<svg version="1.0" xmlns="http://www.w3.org/2000/svg"
 width="56.000000pt" height="56.000000pt" viewBox="0 0 56.000000 56.000000"
 preserveAspectRatio="xMidYMid meet">
<metadata>
Created by potrace 1.16, written by Peter Selinger 2001-2019
</metadata>
<g transform="translate(0.000000,56.000000) scale(0.100000,-0.100000)"
fill="#000000" stroke="none">
<path d="M236 560 c-38 0 -45 -3 -50 -24 -3 -13 1 -37 9 -53 8 -16 53 -70 100
-121 47 -51 85 -96 85 -102 0 -5 -17 -14 -37 -19 -21 -6 -57 -11 -81 -11 -23
0 -69 -7 -102 -17 -50 -13 -64 -22 -82 -52 -11 -20 -23 -51 -25 -70 -2 -19 3
-43 11 -56 11 -17 29 -25 67 -30 33 -5 55 -3 62 4 6 6 35 11 64 11 29 0 53 -4
53 -10 0 -5 17 -10 38 -10 21 1 47 9 60 19 12 11 22 28 22 39 0 10 -9 27 -20
37 -13 12 -26 15 -42 10 -13 -4 -54 -11 -93 -16 -38 -5 -86 -11 -105 -12 -30
-2 -35 1 -38 22 -2 13 1 28 8 35 6 6 46 16 88 21 42 6 106 7 142 4 36 -3 82
-2 103 4 20 6 37 14 37 18 0 4 -4 19 -10 33 -5 14 -17 26 -26 26 -8 0 -14 6
-11 13 2 6 -28 46 -67 88 -39 42 -82 89 -95 105 -13 15 -30 39 -39 52 -14 22
-14 25 1 34 9 5 17 13 17 18 0 6 -20 10 -44 10z"/>
<path d="M390 560 c-29 0 -40 -4 -37 -12 2 -7 19 -13 37 -13 18 0 35 6 38 13
2 8 -9 12 -38 12z"/>
</g>
</svg>
