<?xml version="1.0" standalone="no"?>
<!DOCTYPE svg PUBLIC "-//W3C//DTD SVG 20010904//EN"
 "http://www.w3.org/TR/2001/REC-SVG-20010904/DTD/svg10.dtd">
<svg version="1.0" xmlns="http://www.w3.org/2000/svg"
 width="128.000000pt" height="128.000000pt" viewBox="0 0 128.000000 128.000000"
 preserveAspectRatio="xMidYMid meet">
<metadata>
Created by potrace 1.16, written by Peter Selinger 2001-2019
</metadata>
<g transform="translate(0.000000,128.000000) scale(0.100000,-0.100000)"
fill="#000000" stroke="none">
<path d="M461 1249 c-14 0 -35 -4 -46 -8 -11 -5 -72 -12 -135 -16 -63 -5 -132
-7 -154 -6 -21 1 -44 -4 -52 -10 -8 -6 -14 -26 -14 -44 0 -18 6 -38 13 -44 11
-8 26 -7 60 3 35 10 50 11 61 2 8 -6 18 -32 21 -57 6 -41 4 -48 -15 -62 -16
-11 -36 -14 -77 -10 -46 5 -55 4 -49 -8 3 -8 9 -22 12 -31 4 -13 17 -18 41
-18 23 0 42 -8 58 -24 13 -13 27 -36 31 -50 3 -14 4 -33 0 -41 -3 -9 -18 -15
-34 -15 -16 0 -50 -9 -76 -20 -25 -12 -46 -27 -46 -35 0 -7 12 -23 26 -34 15
-12 34 -21 44 -21 9 0 20 3 24 8 4 4 73 12 153 17 101 7 147 7 154 -1 5 -6 4
-26 -3 -47 -8 -25 -23 -44 -45 -57 -22 -13 -33 -27 -33 -43 0 -13 -14 -36 -32
-54 -18 -17 -49 -40 -68 -50 -28 -16 -35 -26 -35 -49 0 -23 5 -30 23 -32 13
-2 40 6 61 17 23 11 48 17 61 14 12 -3 32 0 45 7 13 7 29 10 37 8 7 -3 27 2
43 10 21 11 58 15 122 15 68 -1 95 3 104 13 6 8 9 27 5 44 -3 17 -4 30 -2 30
2 0 20 -7 39 -15 20 -8 46 -28 58 -45 13 -16 39 -35 58 -41 20 -6 45 -19 56
-29 12 -10 45 -20 82 -24 39 -4 64 -3 68 4 3 5 19 10 34 10 20 0 34 8 46 26 9
14 14 32 11 40 -3 8 -19 14 -36 14 -17 0 -41 5 -52 11 -14 8 -27 8 -44 1 -17
-8 -25 -8 -33 2 -6 8 -34 16 -61 20 -39 5 -55 13 -77 40 -15 18 -41 40 -58 49
-16 8 -45 18 -63 22 -18 4 -38 16 -45 26 -7 11 -29 31 -49 46 -21 14 -38 34
-38 43 0 10 7 24 16 31 9 7 62 18 118 25 84 9 106 9 129 -3 20 -10 42 -12 70
-8 23 4 52 13 65 21 12 8 22 23 22 34 0 10 -5 22 -10 25 -6 4 -40 7 -75 7 -54
1 -69 -2 -89 -21 -20 -19 -25 -20 -35 -7 -9 11 -10 20 -2 35 6 11 11 31 11 45
0 14 -4 28 -10 31 -5 3 -10 13 -10 22 0 14 11 15 81 10 71 -5 83 -3 100 14 10
10 19 26 19 34 0 9 -6 18 -14 21 -7 3 -45 6 -82 7 -64 2 -69 4 -72 25 -2 13 2
29 8 37 8 10 25 12 58 8 38 -4 52 -1 75 17 15 12 27 28 27 35 0 7 -12 23 -26
34 -15 12 -37 21 -49 21 -12 0 -28 -7 -35 -15 -8 -10 -21 -13 -33 -9 -11 3
-61 8 -111 10 -50 2 -115 1 -144 -2 -44 -5 -53 -10 -58 -29 -3 -13 -1 -32 5
-44 9 -17 17 -19 44 -13 17 4 55 7 82 7 50 0 50 0 53 -35 3 -24 -2 -38 -14
-47 -10 -7 -32 -11 -53 -7 -20 2 -49 1 -65 -4 -16 -4 -32 -14 -34 -21 -2 -7
15 -30 38 -51 41 -38 43 -39 71 -25 15 8 35 15 44 15 8 0 15 -9 15 -19 0 -11
-4 -22 -9 -25 -4 -3 -6 -17 -4 -30 4 -20 -1 -28 -27 -41 -17 -9 -46 -15 -63
-13 -28 3 -34 9 -47 46 -8 23 -20 42 -26 42 -7 0 -26 -29 -43 -65 -21 -44 -37
-65 -48 -65 -10 0 -26 7 -36 14 -13 10 -27 11 -55 4 -20 -5 -47 -12 -60 -15
-12 -3 -29 0 -37 7 -12 10 -14 24 -9 59 3 25 14 52 23 59 11 9 32 11 66 7 42
-6 55 -3 75 13 25 20 25 20 6 56 -11 20 -29 39 -40 41 -12 3 -43 4 -71 2 -50
-2 -50 -2 -50 38 0 40 0 40 84 45 83 5 83 5 105 43 21 37 21 38 2 52 -11 8
-31 15 -45 14z m161 -571 c9 -4 26 -20 38 -35 15 -20 20 -38 18 -67 -3 -41 -3
-41 -53 -47 -27 -3 -64 -11 -81 -18 -22 -8 -38 -9 -57 -2 -15 6 -27 16 -27 23
0 7 16 26 35 41 19 15 44 45 55 67 11 21 28 40 37 42 10 3 26 1 35 -4z"/>
<path d="M800 430 c-9 0 -22 -6 -29 -12 -6 -7 -40 -14 -74 -16 -34 -2 -117 -5
-183 -7 -67 -1 -130 -8 -141 -14 -16 -8 -20 -19 -18 -51 1 -22 4 -43 7 -45 2
-3 40 0 83 5 43 5 83 14 89 19 7 6 16 7 22 3 6 -4 14 -27 18 -52 5 -25 8 -58
9 -75 0 -16 -1 -64 -4 -105 -4 -75 -4 -75 30 -78 24 -3 40 3 57 19 22 21 24
28 22 136 -1 80 -5 117 -15 124 -7 6 -13 20 -13 30 0 10 4 20 9 24 6 3 57 -2
115 -12 90 -14 109 -15 131 -3 14 7 25 19 25 25 0 6 -13 23 -28 38 -16 15 -44
32 -63 37 -18 6 -41 10 -49 10z"/>
</g>
</svg>
