<?xml version="1.0" standalone="no"?>
<!DOCTYPE svg PUBLIC "-//W3C//DTD SVG 20010904//EN"
 "http://www.w3.org/TR/2001/REC-SVG-20010904/DTD/svg10.dtd">
<svg version="1.0" xmlns="http://www.w3.org/2000/svg"
 width="128.000000pt" height="128.000000pt" viewBox="0 0 128.000000 128.000000"
 preserveAspectRatio="xMidYMid meet">
<metadata>
Created by potrace 1.16, written by Peter Selinger 2001-2019
</metadata>
<g transform="translate(0.000000,128.000000) scale(0.100000,-0.100000)"
fill="#000000" stroke="none">
<path d="M255 1260 c-13 0 -30 -6 -37 -14 -8 -8 -22 -60 -31 -117 -9 -57 -19
-147 -23 -199 -3 -52 -8 -98 -10 -101 -2 -4 -31 0 -64 8 -33 9 -66 13 -75 10
-8 -4 -12 -12 -9 -20 3 -8 32 -26 64 -41 60 -28 60 -28 60 -84 0 -32 -11 -124
-25 -206 -14 -83 -25 -179 -25 -213 0 -35 7 -98 16 -141 9 -42 20 -85 25 -94
5 -10 18 -18 29 -18 11 0 24 9 30 19 5 11 10 33 10 50 0 16 7 36 15 45 8 8 24
17 34 21 11 3 46 1 79 -4 51 -8 69 -7 111 9 27 10 74 32 104 49 30 17 74 54
98 81 23 27 49 52 56 54 7 3 26 0 41 -6 15 -6 70 -31 122 -56 52 -25 127 -68
165 -95 39 -28 91 -70 117 -93 26 -24 54 -44 62 -44 8 0 26 4 40 10 20 7 26
17 26 39 0 18 -13 46 -33 73 -18 24 -54 57 -79 73 -26 17 -59 38 -75 47 -15
10 -52 33 -82 52 -30 19 -76 42 -102 50 -26 9 -57 16 -68 16 -11 0 -31 4 -45
10 -25 9 -25 9 -8 42 9 18 19 64 22 103 5 68 6 70 40 86 19 10 52 33 73 54 20
20 44 52 52 72 8 19 15 55 15 80 0 24 -6 56 -14 72 -8 15 -32 44 -54 63 -37
33 -43 35 -78 27 -22 -4 -52 -11 -69 -15 -16 -4 -46 -18 -65 -33 -19 -14 -57
-37 -85 -50 -27 -13 -93 -39 -144 -57 -52 -19 -97 -36 -99 -39 -2 -2 -1 -8 3
-14 3 -6 34 -11 68 -11 34 0 91 7 126 15 62 15 66 15 84 -4 17 -17 20 -32 18
-117 -1 -53 -5 -102 -9 -108 -3 -6 -9 -33 -12 -61 -4 -41 -10 -52 -30 -62 -21
-10 -37 -9 -80 1 -30 8 -98 17 -152 21 -53 3 -98 2 -101 -2 -3 -5 3 -19 12
-32 16 -21 32 -25 121 -35 85 -9 105 -15 116 -32 12 -17 11 -23 -2 -42 -9 -13
-34 -34 -56 -48 -22 -14 -71 -41 -108 -60 -38 -19 -82 -34 -99 -34 -17 0 -31
3 -31 8 0 4 -1 75 -2 157 -1 83 1 186 5 230 5 44 10 90 13 103 3 15 18 29 41
39 37 15 37 15 12 34 -13 10 -28 19 -33 19 -5 0 -6 26 -2 58 3 31 2 81 -3 111
-6 40 -4 82 10 163 11 61 16 114 13 119 -3 5 -16 9 -29 9z m538 -340 c5 0 17
-5 28 -10 11 -6 19 -21 19 -36 0 -14 -7 -38 -15 -54 -11 -21 -23 -30 -39 -30
-17 0 -31 11 -45 34 -12 18 -21 39 -21 45 0 6 15 20 33 31 17 11 36 20 40 20z"/>
<path d="M714 1198 c-10 0 -35 -3 -54 -5 -19 -3 -44 -13 -55 -22 -11 -10 -65
-49 -120 -86 -55 -37 -115 -80 -132 -96 -18 -16 -33 -34 -33 -39 0 -5 19 -3
43 6 23 8 53 20 67 26 14 7 39 22 55 33 17 12 55 26 85 33 30 6 80 14 110 17
30 4 65 13 78 21 14 9 22 24 22 42 0 17 -10 38 -23 50 -13 12 -32 21 -43 20z"/>
<path d="M1270 1110 c-6 0 -15 -12 -21 -27 -6 -16 -16 -39 -23 -53 -7 -14 -35
-65 -61 -115 -27 -49 -63 -108 -81 -130 -19 -22 -56 -70 -84 -108 -28 -37 -48
-72 -45 -77 3 -6 21 -10 39 -10 19 0 40 7 47 16 7 9 19 26 26 38 6 11 22 41
33 66 12 25 25 50 28 56 4 7 25 37 46 69 22 31 46 59 53 62 8 3 19 1 26 -6 6
-6 15 -11 19 -11 4 0 8 14 8 31 0 18 -7 37 -16 44 -12 8 -15 20 -9 43 3 18 11
32 16 32 5 0 9 18 9 40 0 22 -5 40 -10 40z"/>
</g>
</svg>
