<?xml version="1.0" standalone="no"?>
<!DOCTYPE svg PUBLIC "-//W3C//DTD SVG 20010904//EN"
 "http://www.w3.org/TR/2001/REC-SVG-20010904/DTD/svg10.dtd">
<svg version="1.0" xmlns="http://www.w3.org/2000/svg"
 width="128.000000pt" height="128.000000pt" viewBox="0 0 128.000000 128.000000"
 preserveAspectRatio="xMidYMid meet">
<metadata>
Created by potrace 1.16, written by Peter Selinger 2001-2019
</metadata>
<g transform="translate(0.000000,128.000000) scale(0.100000,-0.100000)"
fill="#000000" stroke="none">
<path d="M631 1280 c-426 0 -541 -3 -541 -12 0 -7 4 -18 8 -24 5 -8 107 -14
334 -18 232 -5 340 -4 370 4 23 7 72 12 109 12 38 0 73 -3 79 -7 6 -4 -5 -15
-27 -26 -21 -11 -85 -38 -142 -60 -57 -21 -114 -39 -126 -39 -12 0 -38 -6 -56
-14 -19 -8 -38 -18 -42 -22 -5 -5 -32 -14 -60 -20 -29 -7 -80 -24 -114 -38
-34 -14 -90 -29 -125 -32 -35 -3 -76 -9 -93 -14 -16 -5 -43 -11 -58 -14 -15
-4 -25 -11 -22 -16 3 -6 15 -10 25 -10 11 0 35 -13 53 -30 25 -22 45 -30 72
-30 29 0 38 4 42 20 5 19 7 20 29 5 13 -8 29 -15 35 -15 7 0 21 8 31 17 10 9
40 18 66 20 26 2 60 5 77 6 26 2 31 -2 43 -38 8 -22 15 -69 16 -105 2 -36 7
-83 11 -105 4 -22 11 -47 16 -56 4 -8 4 -87 -1 -175 -7 -133 -13 -171 -35
-234 -15 -41 -32 -95 -40 -120 -7 -25 -10 -51 -8 -57 3 -7 17 -13 33 -13 15 0
45 13 66 29 21 16 51 41 65 57 14 16 33 54 42 84 10 32 17 97 18 155 1 55 2
112 1 128 0 15 0 75 0 135 0 59 0 122 -1 140 -1 19 -6 43 -13 55 -6 12 -13 56
-15 97 -3 57 1 83 14 108 10 17 25 34 33 37 9 3 47 -2 85 -10 37 -7 73 -12 77
-9 5 3 22 1 37 -6 22 -9 39 -9 71 0 23 6 53 22 66 35 13 13 24 31 24 40 0 8
-19 36 -41 60 -23 25 -39 49 -35 53 4 4 24 12 44 17 27 8 38 17 40 33 3 22 3
22 -537 22z"/>
</g>
</svg>
