<?xml version="1.0" standalone="no"?>
<!DOCTYPE svg PUBLIC "-//W3C//DTD SVG 20010904//EN"
 "http://www.w3.org/TR/2001/REC-SVG-20010904/DTD/svg10.dtd">
<svg version="1.0" xmlns="http://www.w3.org/2000/svg"
 width="128.000000pt" height="128.000000pt" viewBox="0 0 128.000000 128.000000"
 preserveAspectRatio="xMidYMid meet">
<metadata>
Created by potrace 1.16, written by Peter Selinger 2001-2019
</metadata>
<g transform="translate(0.000000,128.000000) scale(0.100000,-0.100000)"
fill="#000000" stroke="none">
<path d="M710 1249 c-8 1 -26 -5 -40 -13 -14 -7 -47 -25 -75 -40 -27 -15 -62
-39 -77 -53 -15 -14 -33 -23 -41 -20 -8 3 -23 0 -32 -7 -10 -7 -40 -11 -71
-10 -41 2 -54 0 -54 -11 0 -8 16 -31 36 -51 36 -35 38 -36 94 -30 31 4 64 4
73 0 11 -4 17 -18 17 -39 0 -19 -4 -37 -10 -40 -5 -3 -10 -26 -10 -50 0 -36
-5 -48 -24 -61 -14 -8 -34 -31 -45 -50 -12 -20 -21 -45 -21 -58 0 -13 -17 -41
-40 -64 -22 -24 -42 -56 -45 -76 -4 -20 -18 -42 -35 -54 -15 -12 -38 -41 -50
-66 -12 -25 -42 -67 -66 -92 -24 -26 -49 -64 -55 -83 -6 -20 -9 -52 -7 -71 3
-31 6 -35 31 -35 20 -1 33 -9 46 -31 10 -16 33 -42 51 -57 21 -18 39 -26 49
-21 9 4 30 12 46 18 17 6 53 32 80 58 50 48 50 48 87 5 20 -23 37 -47 38 -53
0 -6 10 -20 23 -31 12 -12 36 -24 53 -27 17 -4 62 -2 100 4 49 8 76 18 94 35
14 13 50 37 80 53 41 21 65 27 93 24 25 -3 45 -13 61 -33 14 -16 29 -29 35
-29 5 0 17 14 25 32 9 17 16 39 16 49 0 9 -14 31 -31 48 -17 17 -39 36 -50 41
-10 6 -19 20 -19 32 0 12 4 35 9 52 6 17 17 57 25 89 9 37 12 67 6 85 -4 15
-20 53 -34 85 -14 32 -26 62 -26 67 0 5 -19 29 -42 53 -24 24 -63 50 -88 59
-25 9 -70 19 -100 23 -30 4 -71 6 -90 5 -20 0 -48 -12 -68 -26 -19 -15 -40
-23 -49 -20 -11 4 -13 13 -8 29 3 12 9 33 12 47 3 14 15 38 27 55 12 16 28 43
37 60 9 16 25 44 35 61 11 16 38 59 62 94 24 36 42 73 40 84 -2 11 -16 27 -33
37 -16 10 -37 18 -45 18z m101 -515 c16 -8 40 -14 54 -14 16 0 28 -7 31 -17 3
-10 15 -39 26 -65 12 -27 26 -48 33 -48 6 0 16 -5 22 -11 8 -8 8 -20 2 -36 -6
-17 -5 -42 5 -79 13 -49 12 -57 -5 -91 -10 -20 -19 -43 -19 -50 0 -8 -7 -16
-15 -19 -8 -4 -26 1 -40 10 -13 9 -36 16 -51 16 -15 0 -41 10 -58 23 -17 12
-43 28 -58 35 -20 8 -28 19 -28 36 0 13 6 29 13 35 8 6 22 29 32 50 10 22 15
46 12 54 -3 8 -21 22 -41 31 -31 14 -42 15 -78 5 -24 -7 -47 -16 -52 -20 -4
-4 2 -21 15 -38 22 -30 22 -31 5 -76 -10 -25 -29 -53 -42 -62 -17 -11 -36 -14
-65 -9 -28 4 -46 2 -62 -9 -19 -13 -23 -13 -44 7 -13 12 -23 30 -23 40 0 10 9
35 19 56 11 20 40 57 64 81 25 24 54 48 64 55 11 6 35 21 54 34 19 12 45 25
59 28 14 3 52 18 84 34 55 26 62 28 87 14z m-469 -354 c4 0 10 -4 13 -10 3 -5
21 -10 40 -10 21 0 44 -9 62 -24 24 -21 26 -26 13 -41 -7 -9 -31 -25 -52 -36
-20 -10 -47 -33 -60 -49 -13 -18 -31 -30 -44 -30 -12 0 -29 11 -38 25 -9 13
-16 35 -16 49 0 14 17 48 38 75 20 28 40 51 44 51z m281 -60 c12 0 56 -17 97
-38 61 -31 76 -43 78 -64 2 -18 -4 -31 -20 -42 -12 -9 -39 -16 -60 -16 -27 0
-41 -6 -53 -22 -16 -23 -16 -23 -33 2 -9 13 -30 40 -46 58 -29 33 -29 33 -8
78 16 33 27 44 45 44z"/>
</g>
</svg>
