<?xml version="1.0" standalone="no"?>
<!DOCTYPE svg PUBLIC "-//W3C//DTD SVG 20010904//EN"
 "http://www.w3.org/TR/2001/REC-SVG-20010904/DTD/svg10.dtd">
<svg version="1.0" xmlns="http://www.w3.org/2000/svg"
 width="56.000000pt" height="56.000000pt" viewBox="0 0 56.000000 56.000000"
 preserveAspectRatio="xMidYMid meet">
<metadata>
Created by potrace 1.16, written by Peter Selinger 2001-2019
</metadata>
<g transform="translate(0.000000,56.000000) scale(0.100000,-0.100000)"
fill="#000000" stroke="none">
<path d="M148 560 c-47 0 -56 -3 -66 -22 -6 -13 -13 -35 -16 -49 -3 -15 1 -43
9 -63 8 -19 15 -44 15 -55 0 -11 22 -42 49 -69 27 -27 59 -68 71 -91 11 -23
47 -68 78 -99 32 -32 72 -64 89 -71 21 -9 30 -18 26 -28 -5 -11 2 -14 33 -11
38 3 39 4 47 53 5 28 9 72 8 100 0 29 -5 51 -12 54 -6 2 -19 12 -28 22 -9 11
-31 34 -50 52 -19 17 -63 60 -98 95 -35 34 -68 62 -73 62 -5 0 -17 11 -25 24
-11 17 -14 35 -9 60 6 36 6 36 -48 36z"/>
</g>
</svg>
