<?xml version="1.0" standalone="no"?>
<!DOCTYPE svg PUBLIC "-//W3C//DTD SVG 20010904//EN"
 "http://www.w3.org/TR/2001/REC-SVG-20010904/DTD/svg10.dtd">
<svg version="1.0" xmlns="http://www.w3.org/2000/svg"
 width="56.000000pt" height="56.000000pt" viewBox="0 0 56.000000 56.000000"
 preserveAspectRatio="xMidYMid meet">
<metadata>
Created by potrace 1.16, written by Peter Selinger 2001-2019
</metadata>
<g transform="translate(0.000000,56.000000) scale(0.100000,-0.100000)"
fill="#000000" stroke="none">
<path d="M271 560 c-46 0 -49 -1 -55 -31 -3 -17 -6 -54 -6 -81 0 -27 6 -61 14
-76 7 -15 17 -49 21 -77 4 -27 17 -68 30 -90 17 -28 21 -45 15 -56 -6 -9 -25
-20 -43 -23 -19 -3 -44 -17 -57 -31 -13 -14 -28 -25 -34 -25 -6 0 -28 -11 -49
-25 -20 -14 -37 -30 -37 -35 0 -6 31 -10 69 -10 50 0 72 4 82 16 7 8 33 26 58
39 25 12 70 26 99 30 38 5 55 13 63 27 6 12 15 34 19 50 6 20 3 45 -10 84 -13
38 -38 75 -80 121 -33 36 -64 80 -69 97 -6 22 -4 38 5 53 8 12 14 27 14 33 0
5 -22 10 -49 10z"/>
</g>
</svg>
