<?xml version="1.0" standalone="no"?>
<!DOCTYPE svg PUBLIC "-//W3C//DTD SVG 20010904//EN"
 "http://www.w3.org/TR/2001/REC-SVG-20010904/DTD/svg10.dtd">
<svg version="1.0" xmlns="http://www.w3.org/2000/svg"
 width="56.000000pt" height="56.000000pt" viewBox="0 0 56.000000 56.000000"
 preserveAspectRatio="xMidYMid meet">
<metadata>
Created by potrace 1.16, written by Peter Selinger 2001-2019
</metadata>
<g transform="translate(0.000000,56.000000) scale(0.100000,-0.100000)"
fill="#000000" stroke="none">
<path d="M325 560 c-24 0 -35 -5 -35 -14 0 -8 -16 -35 -35 -60 -19 -26 -35
-49 -35 -53 0 -3 -8 -15 -17 -25 -13 -15 -16 -37 -15 -104 0 -47 5 -91 10 -97
5 -7 26 -50 46 -97 20 -47 36 -91 36 -98 0 -7 16 -12 41 -12 41 0 41 0 35 57
-4 32 -19 81 -33 110 -14 28 -39 64 -54 79 -23 22 -29 37 -29 70 0 24 5 46 10
49 6 4 20 25 31 48 12 23 35 58 50 78 16 20 29 44 29 53 0 12 -10 16 -35 16z"/>
</g>
</svg>
