<?xml version="1.0" standalone="no"?>
<!DOCTYPE svg PUBLIC "-//W3C//DTD SVG 20010904//EN"
 "http://www.w3.org/TR/2001/REC-SVG-20010904/DTD/svg10.dtd">
<svg version="1.0" xmlns="http://www.w3.org/2000/svg"
 width="56.000000pt" height="56.000000pt" viewBox="0 0 56.000000 56.000000"
 preserveAspectRatio="xMidYMid meet">
<metadata>
Created by potrace 1.16, written by Peter Selinger 2001-2019
</metadata>
<g transform="translate(0.000000,56.000000) scale(0.100000,-0.100000)"
fill="#000000" stroke="none">
<path d="M326 560 c-68 0 -74 -2 -80 -22 -3 -13 -6 -48 -6 -78 0 -41 7 -66 25
-95 13 -22 31 -52 40 -67 14 -26 14 -30 -1 -53 -9 -15 -30 -33 -46 -41 -16 -8
-34 -28 -39 -44 -7 -18 -21 -32 -39 -38 -15 -6 -38 -24 -51 -41 -13 -17 -30
-31 -39 -31 -9 0 -27 -11 -40 -25 -23 -25 -23 -25 86 -25 104 0 110 2 141 28
18 15 49 41 70 58 21 17 49 37 63 44 14 7 39 29 57 48 19 21 34 50 38 74 6 36
4 43 -19 62 -14 11 -37 37 -50 56 -14 19 -35 55 -47 78 -21 42 -21 45 -6 72
10 15 17 31 17 34 0 3 -33 6 -74 6z"/>
</g>
</svg>
