<?xml version="1.0" standalone="no"?>
<!DOCTYPE svg PUBLIC "-//W3C//DTD SVG 20010904//EN"
 "http://www.w3.org/TR/2001/REC-SVG-20010904/DTD/svg10.dtd">
<svg version="1.0" xmlns="http://www.w3.org/2000/svg"
 width="56.000000pt" height="56.000000pt" viewBox="0 0 56.000000 56.000000"
 preserveAspectRatio="xMidYMid meet">
<metadata>
Created by potrace 1.16, written by Peter Selinger 2001-2019
</metadata>
<g transform="translate(0.000000,56.000000) scale(0.100000,-0.100000)"
fill="#000000" stroke="none">
<path d="M113 560 c-79 0 -83 -1 -89 -24 -3 -14 0 -37 8 -53 10 -21 22 -29 45
-31 17 -2 37 -10 43 -18 7 -8 19 -14 26 -14 8 0 23 -6 34 -12 15 -9 25 -10 37
-2 9 6 21 18 27 27 8 13 7 24 -6 45 -10 15 -23 39 -30 55 -12 26 -14 27 -95
27z"/>
<path d="M152 376 c-31 0 -61 -5 -73 -14 -12 -8 -19 -23 -17 -35 2 -12 13 -26
25 -32 17 -9 19 -14 10 -30 -7 -14 -7 -20 1 -23 6 -2 22 -12 36 -23 15 -11 26
-28 26 -38 0 -10 11 -30 24 -44 13 -14 42 -31 65 -37 28 -7 45 -19 55 -38 8
-15 22 -34 32 -44 14 -12 38 -16 97 -15 64 0 80 3 88 18 5 10 9 31 9 48 0 20
-8 36 -26 50 -15 12 -32 21 -39 21 -6 0 -20 -9 -30 -20 -10 -11 -24 -20 -31
-20 -7 0 -22 12 -33 26 -12 15 -21 35 -21 45 0 10 -13 33 -29 51 -16 18 -30
42 -32 52 -2 11 -10 21 -16 24 -9 2 -13 -7 -13 -25 0 -18 -9 -38 -23 -51 -13
-12 -31 -22 -40 -22 -9 0 -17 7 -17 17 0 9 11 35 24 57 21 36 23 45 12 71 -11
27 -16 30 -64 31z"/>
</g>
</svg>
