<?xml version="1.0" standalone="no"?>
<!DOCTYPE svg PUBLIC "-//W3C//DTD SVG 20010904//EN"
 "http://www.w3.org/TR/2001/REC-SVG-20010904/DTD/svg10.dtd">
<svg version="1.0" xmlns="http://www.w3.org/2000/svg"
 width="56.000000pt" height="56.000000pt" viewBox="0 0 56.000000 56.000000"
 preserveAspectRatio="xMidYMid meet">
<metadata>
Created by potrace 1.16, written by Peter Selinger 2001-2019
</metadata>
<g transform="translate(0.000000,56.000000) scale(0.100000,-0.100000)"
fill="#000000" stroke="none">
<path d="M408 560 c-49 0 -55 -3 -74 -33 -12 -17 -27 -42 -33 -54 -6 -12 -17
-20 -25 -17 -7 3 -27 -12 -45 -33 -18 -21 -53 -59 -79 -85 -42 -43 -45 -50
-34 -68 6 -11 12 -29 12 -40 0 -13 10 -24 25 -30 14 -5 25 -15 25 -22 0 -7 26
-39 57 -72 31 -32 74 -69 95 -82 21 -13 43 -24 49 -24 8 0 10 12 6 36 -5 27
-21 51 -59 88 -29 29 -61 55 -70 59 -10 3 -18 16 -18 28 0 12 -14 37 -30 56
-23 25 -28 38 -21 47 6 7 28 21 50 30 21 10 44 28 50 40 7 12 22 26 34 31 12
6 28 25 36 43 12 27 20 32 47 32 23 0 37 6 44 19 5 11 10 27 10 35 0 13 -11
16 -52 16z"/>
</g>
</svg>
