<?xml version="1.0" standalone="no"?>
<!DOCTYPE svg PUBLIC "-//W3C//DTD SVG 20010904//EN"
 "http://www.w3.org/TR/2001/REC-SVG-20010904/DTD/svg10.dtd">
<svg version="1.0" xmlns="http://www.w3.org/2000/svg"
 width="56.000000pt" height="56.000000pt" viewBox="0 0 56.000000 56.000000"
 preserveAspectRatio="xMidYMid meet">
<metadata>
Created by potrace 1.16, written by Peter Selinger 2001-2019
</metadata>
<g transform="translate(0.000000,56.000000) scale(0.100000,-0.100000)"
fill="#000000" stroke="none">
<path d="M244 560 c-37 0 -45 -3 -40 -15 3 -8 -4 -31 -16 -51 -18 -31 -20 -45
-15 -116 4 -53 14 -95 29 -125 12 -24 31 -49 41 -55 14 -7 17 -16 11 -41 -4
-18 -6 -52 -5 -77 1 -25 4 -53 7 -62 4 -14 16 -18 53 -18 48 0 48 0 55 40 4
26 1 52 -9 76 -8 20 -15 45 -15 56 0 11 -9 31 -20 45 -11 14 -20 35 -20 46 0
12 -13 35 -29 52 -28 30 -28 30 -17 117 6 48 17 93 24 100 6 6 12 16 12 20 0
4 -21 8 -46 8z m1 -280 c8 -7 12 -16 9 -21 -3 -5 -10 -7 -15 -4 -5 4 -9 13 -9
22 0 13 3 13 15 3z"/>
</g>
</svg>
