<?xml version="1.0" standalone="no"?>
<!DOCTYPE svg PUBLIC "-//W3C//DTD SVG 20010904//EN"
 "http://www.w3.org/TR/2001/REC-SVG-20010904/DTD/svg10.dtd">
<svg version="1.0" xmlns="http://www.w3.org/2000/svg"
 width="56.000000pt" height="56.000000pt" viewBox="0 0 56.000000 56.000000"
 preserveAspectRatio="xMidYMid meet">
<metadata>
Created by potrace 1.16, written by Peter Selinger 2001-2019
</metadata>
<g transform="translate(0.000000,56.000000) scale(0.100000,-0.100000)"
fill="#000000" stroke="none">
<path d="M315 560 c-21 0 -25 -5 -25 -27 0 -16 -17 -73 -37 -128 -20 -55 -38
-123 -40 -152 -4 -45 -1 -57 26 -97 17 -24 31 -51 31 -60 0 -8 5 -18 10 -21 6
-3 10 -22 10 -41 0 -31 3 -35 23 -32 17 2 23 11 25 37 2 19 -2 46 -10 60 -7
14 -28 45 -45 69 -18 24 -33 54 -33 66 0 12 11 44 24 72 13 27 33 81 45 119
11 39 21 85 21 103 0 27 -4 32 -25 32z"/>
</g>
</svg>
