<?xml version="1.0" standalone="no"?>
<!DOCTYPE svg PUBLIC "-//W3C//DTD SVG 20010904//EN"
 "http://www.w3.org/TR/2001/REC-SVG-20010904/DTD/svg10.dtd">
<svg version="1.0" xmlns="http://www.w3.org/2000/svg"
 width="56.000000pt" height="56.000000pt" viewBox="0 0 56.000000 56.000000"
 preserveAspectRatio="xMidYMid meet">
<metadata>
Created by potrace 1.16, written by Peter Selinger 2001-2019
</metadata>
<g transform="translate(0.000000,56.000000) scale(0.100000,-0.100000)"
fill="#000000" stroke="none">
<path d="M310 560 c-16 0 -30 -5 -30 -12 0 -6 -12 -36 -26 -67 -14 -31 -34
-73 -45 -94 -10 -22 -19 -47 -19 -57 0 -10 11 -58 24 -107 13 -48 36 -114 50
-145 14 -31 34 -62 45 -67 11 -6 27 -11 35 -11 12 0 16 10 16 41 0 29 -9 53
-32 87 -17 25 -44 72 -60 104 -15 32 -28 68 -28 79 0 12 18 60 41 107 22 48
45 95 50 104 5 10 9 22 9 28 0 5 -13 10 -30 10z"/>
</g>
</svg>
