<?xml version="1.0" standalone="no"?>
<!DOCTYPE svg PUBLIC "-//W3C//DTD SVG 20010904//EN"
 "http://www.w3.org/TR/2001/REC-SVG-20010904/DTD/svg10.dtd">
<svg version="1.0" xmlns="http://www.w3.org/2000/svg"
 width="56.000000pt" height="56.000000pt" viewBox="0 0 56.000000 56.000000"
 preserveAspectRatio="xMidYMid meet">
<metadata>
Created by potrace 1.16, written by Peter Selinger 2001-2019
</metadata>
<g transform="translate(0.000000,56.000000) scale(0.100000,-0.100000)"
fill="#000000" stroke="none">
<path d="M267 560 c-27 0 -37 -6 -48 -27 -7 -16 -23 -41 -34 -56 -14 -21 -20
-44 -20 -90 0 -44 7 -77 23 -112 13 -27 37 -78 53 -112 16 -34 29 -65 29 -70
0 -5 16 -28 36 -51 27 -32 43 -42 65 -42 18 0 29 5 29 14 0 7 -7 29 -15 47 -8
19 -31 50 -50 69 -20 19 -53 71 -75 116 -31 63 -40 92 -40 133 0 47 4 58 40
101 22 26 40 55 40 64 0 11 -9 16 -33 16z"/>
</g>
</svg>
