<?xml version="1.0" standalone="no"?>
<!DOCTYPE svg PUBLIC "-//W3C//DTD SVG 20010904//EN"
 "http://www.w3.org/TR/2001/REC-SVG-20010904/DTD/svg10.dtd">
<svg version="1.0" xmlns="http://www.w3.org/2000/svg"
 width="56.000000pt" height="56.000000pt" viewBox="0 0 56.000000 56.000000"
 preserveAspectRatio="xMidYMid meet">
<metadata>
Created by potrace 1.16, written by Peter Selinger 2001-2019
</metadata>
<g transform="translate(0.000000,56.000000) scale(0.100000,-0.100000)"
fill="#000000" stroke="none">
<path d="M330 500 c-80 0 -80 0 -80 -37 1 -21 7 -49 14 -62 7 -13 29 -29 47
-35 23 -7 35 -18 37 -33 2 -12 10 -27 18 -33 8 -7 14 -20 13 -29 0 -9 -27 -38
-60 -64 -33 -26 -88 -60 -122 -76 -34 -15 -88 -33 -119 -40 -32 -7 -60 -17
-64 -22 -3 -6 -3 -13 0 -16 3 -3 49 -5 102 -4 85 2 102 5 148 31 28 15 83 36
121 45 39 10 82 24 97 31 15 8 35 28 44 46 11 22 15 48 12 90 -4 57 -7 62 -56
108 -29 27 -56 60 -62 74 -9 25 -13 26 -90 26z"/>
</g>
</svg>
