<?xml version="1.0" standalone="no"?>
<!DOCTYPE svg PUBLIC "-//W3C//DTD SVG 20010904//EN"
 "http://www.w3.org/TR/2001/REC-SVG-20010904/DTD/svg10.dtd">
<svg version="1.0" xmlns="http://www.w3.org/2000/svg"
 width="128.000000pt" height="128.000000pt" viewBox="0 0 128.000000 128.000000"
 preserveAspectRatio="xMidYMid meet">
<metadata>
Created by potrace 1.16, written by Peter Selinger 2001-2019
</metadata>
<g transform="translate(0.000000,128.000000) scale(0.100000,-0.100000)"
fill="#000000" stroke="none">
<path d="M670 1255 c-18 4 -33 1 -52 -14 -15 -12 -28 -35 -32 -57 -5 -22 -3
-41 5 -50 6 -8 21 -14 33 -14 12 0 34 -12 48 -27 15 -16 29 -39 33 -53 3 -14
2 -37 -3 -51 -8 -21 -21 -27 -77 -39 -49 -10 -69 -19 -73 -32 -2 -10 -13 -18
-23 -18 -11 0 -19 6 -19 14 0 8 9 18 20 21 11 4 18 11 15 16 -4 5 -16 9 -28 9
-12 0 -39 -9 -60 -20 -21 -11 -42 -18 -47 -15 -5 3 -26 -1 -47 -10 -21 -8 -67
-17 -103 -19 -36 -3 -68 -5 -72 -5 -3 -1 -4 -20 -1 -43 3 -24 11 -48 17 -55 6
-7 40 -17 76 -22 36 -6 90 -11 121 -11 38 0 61 5 69 15 7 9 29 15 55 15 37 0
44 3 53 28 6 15 14 37 17 50 4 12 11 20 16 17 5 -4 9 -19 9 -34 0 -22 6 -31
28 -39 15 -5 43 -10 63 -10 20 0 50 -7 68 -17 28 -14 31 -20 26 -43 -4 -20 3
-44 25 -85 17 -31 41 -64 53 -72 12 -8 29 -15 39 -15 14 0 16 -6 11 -31 -4
-24 0 -36 19 -57 14 -15 28 -39 32 -54 3 -14 17 -40 31 -56 14 -17 25 -39 25
-50 0 -11 16 -41 35 -66 19 -26 35 -51 35 -56 0 -6 16 -18 36 -27 35 -17 35
-17 74 25 22 23 44 42 50 42 5 0 10 9 10 20 0 11 -4 20 -8 20 -5 0 -16 17 -25
38 -9 21 -16 56 -14 77 2 34 -2 41 -25 52 -15 8 -37 28 -49 46 -12 18 -32 43
-43 55 -12 13 -37 40 -56 59 -19 19 -61 53 -92 74 -41 28 -58 46 -58 61 0 12
12 34 26 49 26 27 26 30 14 74 -11 38 -11 50 0 71 8 14 21 23 29 22 9 -2 24
-30 36 -65 11 -34 26 -68 33 -75 6 -6 12 -20 12 -29 0 -9 7 -22 15 -29 8 -7
20 -10 27 -7 7 3 22 22 33 43 10 22 32 51 48 66 27 27 28 31 21 90 -4 40 -12
68 -23 76 -10 9 -30 12 -56 8 -22 -3 -61 -11 -87 -18 -25 -8 -55 -21 -66 -31
-10 -9 -21 -17 -24 -17 -3 0 -11 14 -17 30 -5 17 -17 30 -25 30 -8 0 -22 7
-31 16 -13 13 -14 29 -9 89 6 66 5 74 -15 94 -19 19 -32 22 -89 20 -37 -1 -78
2 -92 6z"/>
<path d="M12 822 c-9 9 -12 7 -12 -12 0 -19 3 -21 12 -12 9 9 9 15 0 24z"/>
<path d="M479 565 c-36 5 -49 3 -62 -10 -10 -9 -17 -23 -17 -31 0 -9 -13 -35
-30 -59 -16 -24 -30 -50 -30 -58 0 -7 -11 -24 -25 -37 -14 -13 -25 -28 -25
-33 0 -5 -31 -50 -70 -101 -46 -61 -70 -102 -70 -120 0 -24 3 -26 40 -26 21 0
50 5 64 12 14 6 33 22 41 35 9 12 21 23 28 23 6 0 37 12 67 26 30 14 66 36 80
48 14 13 39 30 55 37 28 13 30 18 32 74 1 33 7 76 13 96 10 30 9 41 -3 66 -9
16 -22 34 -29 40 -7 6 -34 14 -59 18z"/>
<path d="M117 100 c-8 0 -22 -9 -32 -20 -9 -10 -15 -26 -12 -35 4 -8 12 -15
20 -15 7 0 18 5 25 12 7 7 12 22 12 35 0 13 -6 23 -13 23z"/>
</g>
</svg>
