<?xml version="1.0" standalone="no"?>
<!DOCTYPE svg PUBLIC "-//W3C//DTD SVG 20010904//EN"
 "http://www.w3.org/TR/2001/REC-SVG-20010904/DTD/svg10.dtd">
<svg version="1.0" xmlns="http://www.w3.org/2000/svg"
 width="128.000000pt" height="128.000000pt" viewBox="0 0 128.000000 128.000000"
 preserveAspectRatio="xMidYMid meet">
<metadata>
Created by potrace 1.16, written by Peter Selinger 2001-2019
</metadata>
<g transform="translate(0.000000,128.000000) scale(0.100000,-0.100000)"
fill="#000000" stroke="none">
<path d="M640 1143 c-19 7 -43 12 -52 10 -10 -3 -21 -15 -24 -28 -3 -13 -3
-34 2 -47 4 -12 15 -34 25 -48 9 -14 20 -44 24 -66 5 -30 3 -44 -7 -50 -7 -5
-47 -9 -88 -9 -41 -1 -88 -6 -105 -12 -16 -6 -47 -16 -67 -23 -21 -6 -66 -13
-100 -14 -35 -2 -70 -7 -79 -10 -10 -5 -25 6 -48 34 -20 25 -40 40 -55 40 -12
0 -30 -6 -41 -13 -14 -11 -16 -21 -11 -43 4 -16 10 -45 13 -66 3 -22 18 -50
39 -73 32 -36 36 -37 81 -30 27 3 59 14 73 22 14 9 31 25 38 35 11 14 26 18
80 17 43 -1 78 5 97 15 17 9 40 16 52 16 12 0 64 12 115 26 51 14 107 32 123
40 17 7 65 27 108 44 43 16 91 30 107 30 15 0 43 6 61 14 19 7 59 17 89 20 30
4 78 14 107 22 34 10 54 22 58 35 4 10 4 28 0 38 -4 13 -21 23 -51 29 -24 5
-68 8 -97 5 -31 -2 -64 -13 -81 -25 -16 -12 -39 -22 -50 -22 -12 -1 -40 -7
-63 -14 -26 -8 -44 -20 -48 -32 -5 -16 -15 -20 -56 -20 -49 0 -49 0 -49 43 0
30 -6 49 -18 60 -10 10 -25 17 -33 17 -8 0 -19 4 -24 9 -6 6 -26 16 -45 24z"/>
<path d="M835 634 c-11 2 -49 0 -85 -5 -36 -4 -76 -10 -90 -12 -14 -3 -43 -14
-64 -26 -21 -11 -63 -40 -92 -63 -30 -24 -54 -46 -54 -50 0 -4 -12 -18 -27
-32 -20 -19 -28 -39 -35 -88 -4 -34 -15 -69 -23 -77 -8 -8 -16 -13 -18 -10 -2
2 -23 32 -47 67 -23 34 -46 62 -50 62 -4 0 -38 37 -75 83 -46 56 -74 82 -89
82 -16 0 -22 -7 -24 -29 -2 -19 12 -59 44 -122 38 -74 67 -113 140 -189 54
-56 100 -95 111 -95 11 0 24 10 30 23 5 12 24 53 43 90 31 65 36 69 96 97 55
24 64 33 64 54 0 16 10 35 27 49 15 12 50 43 78 68 27 25 62 48 77 51 14 3 58
-3 97 -13 39 -10 79 -23 90 -28 11 -6 30 -11 43 -11 13 0 45 -13 71 -30 26
-16 47 -35 47 -41 0 -6 -21 -30 -46 -52 -41 -36 -44 -41 -27 -51 10 -5 33 -12
51 -15 18 -3 33 -10 33 -16 -1 -5 -19 -11 -40 -13 -31 -2 -44 2 -58 17 -10 12
-26 21 -37 21 -10 0 -35 -10 -55 -22 -20 -11 -58 -36 -86 -53 -27 -18 -58 -42
-68 -53 -10 -11 -14 -23 -9 -26 5 -3 38 -8 73 -10 37 -3 116 3 189 15 69 10
139 22 157 24 18 3 39 13 48 21 12 12 13 31 8 92 -4 53 -12 86 -26 106 -11 16
-31 51 -45 78 -19 37 -31 50 -53 55 -16 3 -34 12 -40 19 -6 8 -23 14 -38 14
-15 0 -35 6 -46 14 -11 7 -49 16 -85 20 -36 4 -74 9 -85 10z"/>
</g>
</svg>
