<?xml version="1.0" standalone="no"?>
<!DOCTYPE svg PUBLIC "-//W3C//DTD SVG 20010904//EN"
 "http://www.w3.org/TR/2001/REC-SVG-20010904/DTD/svg10.dtd">
<svg version="1.0" xmlns="http://www.w3.org/2000/svg"
 width="128.000000pt" height="128.000000pt" viewBox="0 0 128.000000 128.000000"
 preserveAspectRatio="xMidYMid meet">
<metadata>
Created by potrace 1.16, written by Peter Selinger 2001-2019
</metadata>
<g transform="translate(0.000000,128.000000) scale(0.100000,-0.100000)"
fill="#000000" stroke="none">
<path d="M731 1260 c-28 0 -51 -3 -51 -8 0 -4 8 -14 18 -23 14 -12 16 -28 14
-95 -3 -75 -5 -82 -28 -92 -20 -10 -25 -8 -34 8 -6 11 -17 20 -26 20 -10 0
-13 7 -8 24 4 16 -3 37 -20 64 -20 33 -32 40 -63 44 -21 3 -49 2 -63 -2 -15
-4 -24 -13 -22 -22 1 -8 20 -34 42 -59 26 -27 40 -51 38 -64 -3 -19 -9 -20
-95 -17 -66 2 -93 0 -93 -9 0 -6 14 -33 31 -60 18 -26 37 -50 44 -53 7 -2 36
2 64 10 28 9 63 14 78 12 17 -2 29 -10 31 -20 2 -10 -8 -28 -21 -40 -14 -13
-38 -33 -54 -45 -15 -12 -48 -37 -73 -57 -25 -19 -70 -52 -100 -72 -30 -21
-73 -52 -95 -70 -22 -17 -59 -42 -83 -54 -23 -12 -45 -26 -48 -32 -3 -5 -3
-20 0 -32 3 -13 13 -26 21 -29 8 -4 36 1 62 9 27 8 98 29 158 45 61 17 122 33
138 36 26 5 27 3 27 -32 0 -21 -11 -69 -25 -106 -13 -38 -31 -79 -39 -92 -14
-21 -13 -26 13 -72 16 -28 39 -60 51 -73 12 -13 27 -21 33 -19 6 2 21 30 34
63 14 32 34 79 46 104 11 25 32 58 46 73 15 15 43 37 63 47 21 11 44 20 53 20
8 0 15 -3 15 -7 0 -5 -8 -20 -18 -34 -9 -15 -39 -47 -67 -73 -43 -40 -48 -48
-35 -59 8 -7 23 -27 33 -46 9 -18 17 -40 17 -50 0 -9 -17 -33 -37 -53 -21 -20
-47 -45 -59 -56 -11 -10 -41 -33 -66 -50 -25 -17 -48 -38 -51 -47 -5 -12 3
-15 46 -15 46 0 55 4 82 34 16 18 48 43 71 54 22 11 56 38 75 59 19 21 54 51
77 67 23 16 42 35 42 42 0 8 -18 31 -40 53 -22 21 -40 44 -40 51 0 7 14 28 31
48 17 19 37 49 44 65 10 25 10 38 -2 74 -8 24 -26 52 -40 63 -25 19 -25 19
-61 -5 -21 -14 -53 -33 -72 -44 -19 -10 -46 -31 -59 -45 -14 -14 -31 -26 -39
-26 -10 0 -12 6 -8 22 4 13 14 50 22 84 15 59 16 61 57 72 23 6 65 18 92 27
28 10 88 30 133 45 84 27 84 27 122 6 38 -20 38 -20 60 -1 12 11 26 28 31 38
6 10 6 24 1 33 -5 8 -31 28 -59 44 -50 29 -50 29 -104 4 -30 -14 -91 -41 -137
-60 -45 -19 -89 -34 -97 -34 -8 0 -24 8 -36 18 -12 9 -37 30 -55 46 -19 15
-34 34 -34 41 0 7 15 29 33 49 30 32 41 37 103 44 38 5 96 7 129 5 33 -1 70 0
83 2 16 4 22 13 22 31 0 14 -9 37 -20 51 -11 14 -20 31 -20 38 0 7 -6 15 -14
18 -7 3 -32 1 -55 -5 -30 -8 -45 -8 -53 0 -7 7 -7 20 1 42 8 25 7 38 -4 61 -9
15 -24 33 -34 39 -11 5 -42 10 -70 10z m-158 -465 c4 -9 7 -28 5 -43 -2 -19
-13 -32 -38 -44 -19 -10 -56 -18 -82 -18 -27 0 -48 4 -48 9 0 5 17 23 38 39
20 16 55 39 77 51 34 18 40 19 48 6z"/>
</g>
</svg>
