<?xml version="1.0" standalone="no"?>
<!DOCTYPE svg PUBLIC "-//W3C//DTD SVG 20010904//EN"
 "http://www.w3.org/TR/2001/REC-SVG-20010904/DTD/svg10.dtd">
<svg version="1.0" xmlns="http://www.w3.org/2000/svg"
 width="128.000000pt" height="128.000000pt" viewBox="0 0 128.000000 128.000000"
 preserveAspectRatio="xMidYMid meet">
<metadata>
Created by potrace 1.16, written by Peter Selinger 2001-2019
</metadata>
<g transform="translate(0.000000,128.000000) scale(0.100000,-0.100000)"
fill="#000000" stroke="none">
<path d="M1270 1250 c-6 0 -13 -7 -16 -15 -3 -8 -3 -19 1 -25 3 -5 10 -10 16
-10 5 0 9 11 9 25 0 14 -5 25 -10 25z"/>
<path d="M420 1240 c-22 0 -30 -5 -30 -18 0 -10 5 -23 11 -29 8 -8 8 -21 0
-46 -7 -19 -33 -59 -59 -90 -26 -30 -74 -86 -107 -126 -33 -39 -68 -86 -78
-105 -10 -19 -29 -41 -41 -50 -13 -8 -44 -42 -70 -76 -25 -34 -46 -73 -46 -86
0 -24 1 -24 49 13 28 21 50 43 51 48 0 6 36 42 81 80 44 39 86 82 94 96 8 15
23 29 34 32 11 3 25 -1 32 -9 6 -8 26 -14 45 -14 22 0 34 -5 38 -17 3 -10 8
-43 11 -73 7 -53 6 -57 -20 -68 -14 -7 -36 -12 -48 -12 -12 0 -62 -7 -112 -17
-50 -9 -98 -23 -107 -31 -13 -11 -15 -19 -7 -33 6 -12 21 -19 41 -19 17 0 49
5 72 12 22 6 47 16 55 22 7 6 27 12 45 13 17 1 42 4 56 5 24 3 25 0 31 -57 4
-33 7 -103 8 -155 1 -52 6 -115 12 -139 8 -35 7 -47 -5 -60 -9 -10 -42 -29
-73 -43 -32 -15 -75 -34 -95 -43 -21 -9 -38 -22 -38 -30 0 -8 16 -30 35 -50
20 -19 39 -35 44 -35 4 0 25 16 47 35 21 20 63 52 93 72 31 21 58 48 65 64 7
21 17 29 34 29 12 0 34 12 48 27 14 15 41 34 59 43 19 9 43 28 55 43 12 16 30
27 39 25 14 -3 16 -19 13 -133 -3 -110 0 -136 15 -165 13 -25 26 -36 46 -38
16 -2 34 2 42 8 7 6 16 30 19 54 4 24 22 69 41 101 19 32 35 63 35 69 0 6 10
24 23 39 16 20 27 26 40 21 10 -3 44 -40 75 -82 31 -41 70 -92 85 -113 15 -22
31 -39 35 -39 4 0 15 7 25 14 12 10 17 27 17 64 0 39 -4 52 -17 56 -10 4 -55
41 -100 84 -82 77 -82 77 -62 101 10 13 19 31 19 40 0 14 7 17 30 13 27 -4 30
-2 30 24 0 15 9 38 21 50 12 12 18 27 15 33 -4 5 -20 17 -38 25 -17 9 -39 16
-49 16 -9 0 -24 -3 -33 -6 -9 -3 -16 -13 -16 -21 0 -9 8 -22 17 -28 17 -12 17
-14 1 -32 -9 -10 -20 -34 -25 -53 -7 -25 -16 -36 -31 -38 -17 -3 -35 10 -68
47 -25 28 -57 56 -71 63 -14 7 -32 25 -41 41 -13 21 -14 31 -6 45 10 15 30 17
150 19 130 2 140 3 157 24 15 18 16 34 11 103 -4 44 -8 101 -9 126 -2 25 -4
75 -4 112 -1 61 -3 68 -30 87 -28 21 -28 21 -92 -4 -34 -14 -73 -25 -85 -25
-12 0 -52 -9 -89 -21 -39 -12 -78 -18 -94 -14 -17 4 -41 24 -64 55 -21 27 -48
52 -61 56 -14 3 -55 1 -92 -5 -38 -6 -70 -8 -73 -5 -2 2 1 10 7 16 7 7 12 22
12 34 0 12 -11 29 -25 38 -13 9 -38 16 -55 16z m69 -120 c4 0 59 -29 122 -65
102 -59 115 -69 126 -103 6 -20 12 -61 12 -90 1 -29 5 -83 11 -120 5 -37 11
-115 14 -173 5 -105 5 -107 -22 -131 -15 -14 -40 -34 -57 -44 -16 -10 -34 -24
-38 -31 -4 -7 -26 -22 -47 -33 -22 -11 -42 -20 -44 -20 -3 0 -12 16 -20 35
-11 25 -12 43 -5 70 6 19 15 35 21 35 6 0 33 24 59 52 29 31 49 62 49 76 0 14
-9 27 -25 34 -21 9 -29 9 -40 -3 -8 -8 -21 -32 -28 -54 -8 -23 -21 -41 -32
-44 -16 -3 -17 3 -11 54 4 37 3 62 -5 71 -6 7 -8 18 -4 23 3 6 38 20 78 32 40
12 80 28 89 36 9 8 14 21 11 29 -2 7 -14 16 -24 19 -11 4 -44 -3 -74 -16 -38
-16 -58 -20 -65 -13 -6 6 -15 35 -19 65 -6 34 -5 58 1 66 5 7 31 13 56 15 33
2 48 8 50 18 2 10 -11 23 -33 33 -32 15 -39 16 -65 2 -16 -8 -39 -15 -52 -15
-13 0 -45 -7 -72 -15 -27 -8 -55 -15 -63 -15 -11 0 -10 6 3 31 9 18 38 55 65
83 26 28 54 63 60 78 6 16 14 28 18 28z m561 -83 c11 -2 18 -30 27 -117 6 -63
12 -136 12 -161 1 -42 -2 -48 -26 -58 -16 -6 -66 -12 -112 -13 -85 -3 -85 -3
-97 50 -11 52 -11 54 13 63 13 5 42 6 64 3 25 -4 44 -2 54 6 8 7 15 19 15 28
0 8 -8 21 -17 28 -10 7 -28 14 -39 14 -12 0 -27 -7 -34 -15 -7 -8 -23 -15 -36
-15 -13 0 -27 8 -32 18 -5 9 -7 40 -4 69 3 45 7 53 30 62 15 5 52 13 82 17 30
3 62 10 70 15 8 5 22 8 30 6z m-149 -537 c4 0 28 -27 54 -61 29 -38 44 -67 40
-77 -3 -9 -25 -39 -49 -67 -35 -40 -46 -47 -58 -38 -10 9 -14 40 -16 114 -1
63 3 108 9 116 6 7 15 13 20 13z"/>
<path d="M203 500 c-2 0 -6 -7 -9 -15 -4 -8 3 -35 15 -60 12 -25 21 -50 21
-56 0 -6 10 -29 22 -50 11 -21 28 -41 36 -44 9 -3 27 6 44 22 17 16 28 37 28
53 0 18 -15 44 -41 74 -23 26 -57 53 -76 61 -20 8 -37 15 -40 15z"/>
</g>
</svg>
