<?xml version="1.0" standalone="no"?>
<!DOCTYPE svg PUBLIC "-//W3C//DTD SVG 20010904//EN"
 "http://www.w3.org/TR/2001/REC-SVG-20010904/DTD/svg10.dtd">
<svg version="1.0" xmlns="http://www.w3.org/2000/svg"
 width="128.000000pt" height="128.000000pt" viewBox="0 0 128.000000 128.000000"
 preserveAspectRatio="xMidYMid meet">
<metadata>
Created by potrace 1.16, written by Peter Selinger 2001-2019
</metadata>
<g transform="translate(0.000000,128.000000) scale(0.100000,-0.100000)"
fill="#000000" stroke="none">
<path d="M888 1259 c-7 -1 -24 -4 -38 -6 -13 -3 -35 -14 -49 -24 -17 -13 -40
-19 -78 -19 -33 0 -63 -6 -78 -16 -16 -10 -34 -14 -50 -10 -14 4 -45 0 -69 -8
-23 -8 -76 -16 -117 -17 -41 -1 -82 -6 -91 -11 -10 -5 -19 -4 -23 2 -3 5 -31
10 -61 10 -40 0 -56 -4 -61 -16 -3 -9 6 -27 23 -45 15 -16 45 -35 66 -41 29
-9 41 -9 50 0 7 7 29 12 50 12 23 0 41 -5 44 -13 3 -8 -10 -43 -29 -79 -19
-36 -43 -78 -53 -93 -11 -15 -32 -42 -48 -61 -26 -32 -28 -37 -14 -51 12 -11
23 -13 41 -7 13 5 48 38 76 73 28 35 51 68 51 73 0 4 6 8 14 8 8 0 22 -28 35
-69 12 -37 19 -76 15 -85 -3 -9 -2 -29 4 -44 6 -15 13 -53 16 -84 6 -55 5 -58
-18 -64 -13 -3 -34 -17 -47 -30 -22 -23 -22 -25 -6 -42 12 -12 32 -16 65 -15
26 1 70 5 97 9 28 4 81 7 119 6 38 0 73 -5 78 -10 6 -6 11 -42 12 -81 1 -54
-3 -74 -16 -87 -15 -16 -30 -16 -150 -8 -73 5 -148 7 -167 3 -18 -4 -57 -4
-85 1 -29 5 -77 5 -107 2 -29 -4 -54 -11 -53 -17 0 -5 14 -17 30 -25 16 -9 35
-19 43 -24 8 -5 40 -8 70 -7 31 1 64 4 74 7 11 3 17 0 17 -9 0 -8 14 -25 31
-38 17 -13 54 -46 83 -74 28 -27 65 -69 80 -93 23 -33 35 -42 57 -42 16 0 29
4 29 8 0 5 10 19 23 32 12 14 37 42 55 63 17 21 32 50 32 63 0 15 6 24 16 24
8 0 20 14 26 30 5 17 18 35 28 40 11 6 39 5 78 -2 48 -9 64 -9 76 2 9 7 16 18
16 25 0 6 -9 20 -21 31 -13 12 -42 21 -77 24 -57 5 -57 5 -63 43 -3 20 -14 52
-24 71 -16 29 -17 39 -7 60 9 21 17 25 49 23 32 -2 39 2 51 26 7 15 21 27 31
27 10 0 21 3 24 6 3 4 2 15 -3 24 -5 10 -26 27 -46 39 -35 21 -36 22 -20 46 9
13 16 31 16 38 0 8 -7 20 -16 28 -11 9 -14 23 -11 43 3 17 8 45 12 61 4 17 11
40 17 53 10 19 7 29 -19 65 -29 39 -34 42 -75 40 -23 -2 -61 -5 -83 -7 -22 -2
-56 -9 -75 -15 -19 -6 -50 -11 -67 -11 -21 0 -33 5 -33 14 0 7 25 33 56 57 38
29 54 48 51 60 -4 13 3 18 32 23 20 3 64 9 98 14 33 5 66 13 72 16 6 4 11 13
11 19 0 7 -18 22 -40 35 -21 12 -45 21 -52 21z m-240 -130 c6 1 12 -8 12 -18
0 -11 -4 -31 -10 -46 -5 -14 -22 -37 -36 -50 -20 -19 -38 -25 -69 -25 -27 0
-45 5 -48 14 -3 7 1 31 8 52 11 32 19 40 47 45 18 4 44 11 58 17 14 6 31 11
38 11z m190 -151 c13 -2 17 -14 17 -43 0 -39 -1 -40 -45 -52 -25 -6 -84 -12
-131 -12 -68 -1 -89 2 -100 15 -9 11 -10 20 -2 32 5 10 23 18 39 20 16 1 59 9
96 17 37 8 73 12 81 9 8 -3 18 0 22 6 4 6 14 10 23 8z m26 -118 c2 0 11 -3 20
-6 9 -3 16 -16 16 -28 0 -11 -4 -27 -9 -34 -4 -7 -21 -21 -37 -29 -20 -11 -59
-17 -126 -18 -71 -2 -101 1 -109 11 -6 7 -9 23 -7 36 2 18 12 24 43 30 22 4
74 7 116 7 59 1 78 5 83 16 3 8 7 15 10 15z m-71 -193 c58 1 67 -1 67 -16 0
-10 -11 -23 -25 -29 -14 -7 -43 -12 -64 -12 -20 0 -56 -9 -80 -21 -23 -11 -50
-19 -59 -17 -10 2 -16 11 -14 23 2 11 4 29 6 40 2 16 12 21 52 25 27 4 79 6
117 7z m-100 -399 c98 3 106 2 112 -17 3 -11 -1 -35 -10 -53 -8 -18 -22 -41
-30 -52 -10 -13 -21 -17 -39 -12 -14 3 -64 25 -111 48 -61 29 -85 46 -83 57 2
9 13 17 26 17 12 1 24 3 27 5 2 2 51 5 108 7z"/>
<path d="M1086 29 c-6 0 -17 -3 -23 -6 -7 -2 -13 -9 -13 -14 0 -5 16 -9 36 -9
31 0 35 2 24 15 -7 8 -18 15 -24 14z"/>
</g>
</svg>
