<?xml version="1.0" standalone="no"?>
<!DOCTYPE svg PUBLIC "-//W3C//DTD SVG 20010904//EN"
 "http://www.w3.org/TR/2001/REC-SVG-20010904/DTD/svg10.dtd">
<svg version="1.0" xmlns="http://www.w3.org/2000/svg"
 width="128.000000pt" height="128.000000pt" viewBox="0 0 128.000000 128.000000"
 preserveAspectRatio="xMidYMid meet">
<metadata>
Created by potrace 1.16, written by Peter Selinger 2001-2019
</metadata>
<g transform="translate(0.000000,128.000000) scale(0.100000,-0.100000)"
fill="#000000" stroke="none">
<path d="M560 1280 c-3 0 -11 -9 -17 -19 -10 -16 -8 -22 9 -37 11 -11 31 -36
44 -56 13 -21 24 -44 24 -52 0 -8 -28 -47 -61 -88 -34 -40 -70 -79 -80 -86
-11 -7 -19 -17 -19 -23 0 -5 7 -9 15 -9 9 0 33 9 54 19 20 11 43 27 50 35 8 9
22 16 32 16 10 0 21 9 24 20 3 11 16 25 28 31 12 7 35 27 50 45 16 19 34 34
40 34 7 0 27 18 44 39 29 35 31 40 17 52 -9 7 -37 16 -62 20 -26 4 -74 15
-107 24 -33 9 -64 21 -69 26 -6 5 -13 9 -16 9z"/>
<path d="M871 1000 c-9 0 -34 -11 -56 -25 -22 -14 -56 -32 -75 -40 -19 -9 -45
-21 -57 -27 -13 -6 -23 -15 -23 -19 0 -4 -26 -20 -57 -34 -32 -15 -76 -35 -99
-46 -22 -10 -48 -19 -57 -19 -9 0 -18 4 -21 9 -3 5 1 25 9 45 8 19 15 38 15
41 0 3 -6 5 -14 5 -7 0 -20 -7 -27 -16 -7 -9 -37 -31 -67 -50 -53 -35 -53 -35
-47 -92 3 -31 9 -69 11 -84 3 -16 12 -28 20 -28 8 0 36 11 62 24 26 13 67 43
91 65 36 33 52 41 82 41 25 0 47 8 67 25 17 14 35 25 40 25 6 0 13 -4 17 -10
3 -5 -11 -31 -31 -57 -20 -26 -41 -51 -46 -54 -6 -4 -35 -29 -66 -55 -30 -27
-69 -61 -86 -75 -30 -27 -30 -27 6 -42 20 -8 41 -25 48 -36 6 -13 21 -21 36
-21 18 0 28 7 31 21 5 18 11 19 47 14 22 -4 45 -11 50 -15 5 -5 6 -20 2 -35
-4 -15 -20 -34 -38 -43 -17 -9 -43 -27 -59 -40 -23 -19 -27 -27 -19 -46 5 -13
6 -26 4 -29 -3 -3 -1 -14 5 -25 6 -11 24 -22 41 -25 16 -4 30 -12 30 -20 0 -7
-13 -34 -29 -59 -26 -41 -28 -48 -15 -59 11 -9 13 -23 9 -51 -7 -38 -7 -38 37
-38 34 0 52 7 87 35 24 19 48 35 52 35 5 0 9 7 9 15 0 9 -9 15 -23 15 -12 0
-33 7 -45 16 -12 8 -22 23 -22 33 0 10 6 34 14 52 8 19 17 70 21 114 4 44 11
109 16 145 9 55 15 69 45 96 21 20 34 41 34 56 0 17 -11 32 -37 49 -27 17 -38
31 -38 48 0 19 14 34 55 63 30 20 64 49 75 63 12 14 27 25 35 25 8 1 25 9 38
19 12 11 22 29 22 40 0 15 -15 31 -47 51 -26 17 -54 30 -62 30z m-296 -430 c8
0 15 -7 15 -15 0 -8 -7 -15 -15 -15 -8 0 -15 7 -15 15 0 8 7 15 15 15z"/>
<path d="M896 50 c-12 0 -33 -11 -46 -25 -23 -25 -23 -25 33 -25 31 0 57 3 57
6 0 3 -5 14 -10 25 -6 10 -21 19 -34 19z"/>
</g>
</svg>
