<?xml version="1.0" standalone="no"?>
<!DOCTYPE svg PUBLIC "-//W3C//DTD SVG 20010904//EN"
 "http://www.w3.org/TR/2001/REC-SVG-20010904/DTD/svg10.dtd">
<svg version="1.0" xmlns="http://www.w3.org/2000/svg"
 width="128.000000pt" height="128.000000pt" viewBox="0 0 128.000000 128.000000"
 preserveAspectRatio="xMidYMid meet">
<metadata>
Created by potrace 1.16, written by Peter Selinger 2001-2019
</metadata>
<g transform="translate(0.000000,128.000000) scale(0.100000,-0.100000)"
fill="#000000" stroke="none">
<path d="M780 1280 c-16 0 -30 -4 -30 -10 0 -5 -17 -10 -37 -10 -21 0 -50 -6
-64 -14 -14 -7 -49 -16 -77 -20 -29 -4 -59 -9 -67 -12 -8 -4 -15 -12 -15 -20
0 -7 13 -20 30 -29 16 -8 44 -15 63 -15 19 0 39 -6 44 -12 6 -7 13 -41 17 -76
6 -63 6 -63 -127 -57 -72 3 -156 8 -184 11 -29 3 -55 10 -58 15 -4 5 -19 9
-36 9 -24 0 -29 -4 -29 -25 0 -13 12 -44 27 -69 27 -45 27 -45 163 -41 74 1
143 6 152 10 12 5 20 2 24 -10 4 -9 2 -21 -4 -27 -7 -7 -5 -19 7 -39 14 -26
14 -31 1 -39 -8 -5 -30 -10 -47 -10 -18 0 -33 -5 -33 -11 0 -6 10 -24 21 -41
19 -26 26 -29 55 -24 26 5 35 3 43 -12 6 -12 7 -37 3 -63 -7 -43 -7 -43 -80
-45 -67 -3 -73 -1 -88 22 -9 13 -19 44 -21 67 -4 35 -12 47 -39 66 -23 16 -34
32 -34 47 0 14 -6 24 -14 24 -9 0 -16 -12 -18 -32 -3 -29 -7 -33 -33 -36 -16
-1 -40 -5 -53 -8 -15 -3 -22 -11 -20 -22 2 -9 20 -21 43 -27 21 -7 47 -23 57
-36 14 -18 21 -52 27 -125 5 -65 14 -114 27 -140 18 -36 22 -39 64 -41 25 -1
50 0 57 2 10 3 9 14 -3 47 -9 25 -13 56 -9 76 4 24 14 36 33 43 15 6 46 14 70
18 42 8 42 8 43 -28 1 -20 2 -76 1 -126 0 -80 -2 -91 -22 -107 -15 -12 -39
-18 -76 -18 -41 0 -56 -4 -61 -16 -4 -10 4 -24 23 -40 24 -19 36 -22 75 -18
46 6 46 6 58 -57 12 -60 12 -64 -8 -80 -16 -13 -32 -16 -59 -12 -20 3 -41 10
-46 14 -6 5 -18 9 -27 9 -9 0 -22 -7 -29 -15 -10 -12 -10 -18 0 -30 10 -12 47
-14 206 -14 181 1 193 2 184 19 -5 9 -24 20 -41 24 -17 3 -42 6 -55 6 -17 0
-24 6 -24 19 0 11 4 23 10 26 5 3 10 13 10 22 0 8 -11 24 -25 35 -14 11 -25
23 -25 27 0 4 15 13 34 19 19 7 39 18 44 25 7 8 7 18 2 27 -7 11 -14 11 -32 3
-13 -5 -29 -8 -35 -6 -7 3 -13 16 -13 29 0 13 -9 29 -20 36 -11 7 -20 18 -20
25 0 7 4 13 9 13 6 0 13 -4 16 -10 3 -5 18 -10 32 -10 24 0 25 2 18 38 -3 20
-9 47 -12 60 -3 13 -1 22 6 22 6 0 11 13 11 28 0 15 -5 33 -11 39 -9 9 -8 18
5 37 9 15 21 26 26 26 6 0 10 7 10 15 0 8 -6 15 -14 15 -8 0 -19 14 -25 31 -6
18 -11 45 -11 61 0 16 8 41 17 56 9 15 18 29 20 31 2 2 12 -4 22 -13 15 -14
29 -16 61 -11 29 5 47 3 64 -8 16 -11 25 -29 29 -58 3 -23 12 -48 20 -57 9 -8
23 -12 31 -9 12 5 16 18 13 51 -1 25 -6 48 -10 52 -4 4 -7 20 -7 36 0 21 -5
28 -20 28 -10 0 -23 7 -27 15 -8 13 -20 14 -73 6 -36 -4 -75 -5 -86 0 -12 4
-32 5 -45 2 -13 -3 -30 -10 -36 -16 -9 -7 -13 -5 -13 6 0 9 4 18 9 21 5 3 7
16 4 29 -3 12 -12 30 -20 39 -11 13 -13 24 -6 45 5 15 14 28 19 28 5 0 10 -13
12 -28 3 -26 5 -27 40 -20 20 4 53 7 72 6 19 -1 67 -4 105 -7 53 -3 78 0 103
12 18 10 35 27 39 40 3 14 0 29 -8 37 -11 11 -32 12 -102 4 -49 -5 -92 -11
-96 -14 -5 -2 -16 1 -25 8 -10 7 -21 28 -25 47 -5 25 -13 36 -31 41 -22 6 -22
7 -4 8 11 1 30 11 42 24 12 13 22 31 22 40 0 9 5 19 10 22 6 3 10 17 10 30 0
15 -7 26 -20 30 -11 3 -20 11 -20 16 0 5 -13 9 -30 9z m-100 -580 c6 0 10 -12
10 -26 0 -14 -5 -24 -11 -22 -6 2 -10 7 -10 11 1 4 1 14 1 22 0 8 5 15 10 15z"/>
<path d="M829 610 c-24 0 -30 -4 -27 -17 2 -11 14 -19 31 -21 22 -3 27 1 27
17 0 17 -6 21 -31 21z"/>
<path d="M990 590 c-4 0 -10 -6 -12 -12 -3 -7 -3 -19 -1 -25 3 -10 10 -10 24
-2 16 8 18 13 8 25 -6 8 -15 14 -19 14z"/>
<path d="M956 553 c-11 29 -11 29 -29 9 -11 -12 -19 -39 -21 -68 -2 -27 1 -55
7 -61 5 -7 18 -13 29 -13 10 0 21 7 25 16 3 8 0 26 -7 39 -9 17 -10 28 -2 37
7 9 7 21 -2 41z"/>
<path d="M775 423 c-22 3 -32 3 -22 1 9 -3 17 -15 17 -26 0 -16 5 -19 23 -14
12 3 30 6 40 6 9 0 17 4 17 9 0 5 -8 12 -17 14 -10 3 -36 8 -58 10z"/>
<path d="M892 238 c-20 3 -23 0 -20 -20 2 -15 10 -23 23 -23 13 0 20 7 20 20
0 13 -8 21 -23 23z"/>
<path d="M1045 37 c-6 2 -16 -2 -23 -9 -7 -7 -12 -16 -12 -20 0 -4 12 -8 26
-8 18 0 25 5 22 17 -2 9 -8 18 -13 20z"/>
<path d="M968 28 c-7 0 -29 -3 -48 -5 -19 -3 -39 -9 -44 -14 -6 -5 12 -9 47
-9 44 0 57 3 57 15 0 8 -6 14 -12 13z"/>
</g>
</svg>
