<?xml version="1.0" standalone="no"?>
<!DOCTYPE svg PUBLIC "-//W3C//DTD SVG 20010904//EN"
 "http://www.w3.org/TR/2001/REC-SVG-20010904/DTD/svg10.dtd">
<svg version="1.0" xmlns="http://www.w3.org/2000/svg"
 width="128.000000pt" height="128.000000pt" viewBox="0 0 128.000000 128.000000"
 preserveAspectRatio="xMidYMid meet">
<metadata>
Created by potrace 1.16, written by Peter Selinger 2001-2019
</metadata>
<g transform="translate(0.000000,128.000000) scale(0.100000,-0.100000)"
fill="#000000" stroke="none">
<path d="M1000 1235 c-22 3 -46 -1 -63 -11 -17 -9 -27 -22 -25 -32 2 -9 26
-28 53 -43 32 -17 53 -36 61 -55 6 -16 15 -92 19 -169 4 -77 10 -144 13 -150
4 -5 7 -32 8 -60 0 -27 4 -166 9 -308 8 -257 8 -257 -26 -257 -19 0 -58 11
-87 25 -30 14 -63 25 -73 25 -11 0 -19 -7 -19 -16 0 -9 28 -43 62 -77 34 -34
73 -70 87 -79 16 -11 36 -15 55 -12 17 3 41 7 53 10 13 2 29 15 38 27 12 19
13 47 4 192 -6 94 -10 195 -9 227 0 31 -4 59 -10 63 -7 4 -7 12 0 25 5 10 10
48 10 84 0 36 -7 108 -16 158 -9 51 -20 100 -25 109 -5 10 -4 30 1 48 5 18 7
67 4 109 -2 42 -6 90 -9 107 -2 16 -12 35 -21 42 -10 7 -27 13 -38 13 -12 0
-37 2 -56 5z"/>
<path d="M399 1100 c-35 0 -39 -3 -73 -64 -22 -39 -45 -68 -58 -72 -16 -5 -25
-2 -33 11 -5 9 -19 29 -29 42 -20 26 -20 26 -38 3 -10 -12 -18 -32 -18 -45 0
-12 8 -29 18 -38 10 -10 24 -17 30 -17 6 0 13 -9 17 -19 3 -11 13 -22 23 -26
11 -4 24 3 40 22 13 15 32 45 43 66 11 20 27 37 36 37 14 0 15 -12 11 -97 -4
-66 -12 -116 -27 -153 -12 -30 -28 -67 -36 -81 -14 -25 -13 -28 11 -44 14 -9
32 -14 40 -11 8 3 16 11 18 18 2 7 13 45 24 83 11 39 25 97 32 130 6 33 16 76
21 96 5 20 9 59 9 86 0 27 -5 54 -12 61 -7 7 -29 12 -49 12z"/>
<path d="M693 1100 c-8 0 -25 -11 -38 -25 -14 -13 -25 -28 -25 -33 0 -5 8 -20
18 -33 11 -13 22 -45 25 -71 6 -42 4 -50 -16 -62 -12 -8 -55 -22 -94 -31 -40
-9 -75 -20 -78 -25 -3 -4 -3 -15 0 -22 3 -8 22 -22 41 -31 31 -15 38 -16 62
-2 15 8 40 25 55 37 24 19 29 20 37 8 6 -8 7 -28 2 -45 -4 -16 -7 -79 -7 -140
0 -110 0 -110 28 -113 16 -2 34 2 42 8 11 9 13 50 9 213 -2 111 -6 231 -9 266
-3 40 -11 71 -21 82 -10 11 -23 19 -31 19z"/>
<path d="M850 1029 c-8 0 -26 -5 -40 -10 -25 -10 -25 -10 5 -36 17 -14 54 -47
83 -74 30 -27 63 -49 73 -49 11 0 22 7 25 15 3 8 2 32 -3 52 -7 33 -17 42 -68
70 -33 18 -67 32 -75 32z"/>
<path d="M229 498 c-8 1 -24 -17 -37 -41 -12 -24 -38 -61 -57 -82 -19 -22 -35
-46 -35 -53 0 -8 9 -12 22 -10 12 2 28 14 35 28 6 13 20 27 30 31 10 4 32 26
48 49 22 32 27 45 18 58 -5 9 -16 18 -24 20z"/>
<path d="M324 20 c-8 0 -14 -4 -14 -10 0 -5 9 -10 21 -10 11 0 17 4 14 10 -3
5 -13 10 -21 10z"/>
</g>
</svg>
