<?xml version="1.0" standalone="no"?>
<!DOCTYPE svg PUBLIC "-//W3C//DTD SVG 20010904//EN"
 "http://www.w3.org/TR/2001/REC-SVG-20010904/DTD/svg10.dtd">
<svg version="1.0" xmlns="http://www.w3.org/2000/svg"
 width="128.000000pt" height="128.000000pt" viewBox="0 0 128.000000 128.000000"
 preserveAspectRatio="xMidYMid meet">
<metadata>
Created by potrace 1.16, written by Peter Selinger 2001-2019
</metadata>
<g transform="translate(0.000000,128.000000) scale(0.100000,-0.100000)"
fill="#000000" stroke="none">
<path d="M160 1280 c-29 0 -40 -4 -37 -12 2 -7 19 -13 37 -13 18 0 35 6 38 13
2 8 -9 12 -38 12z"/>
<path d="M693 1220 c-16 0 -43 -9 -61 -20 -18 -11 -40 -20 -50 -20 -10 0 -34
-8 -54 -18 -20 -10 -53 -19 -74 -20 -20 -1 -42 -6 -48 -12 -5 -5 -26 -10 -46
-10 -19 -1 -57 -7 -83 -14 -26 -6 -48 -16 -49 -22 0 -5 24 -21 53 -36 45 -23
62 -26 102 -21 45 5 51 4 78 -26 16 -18 29 -43 29 -58 0 -14 -14 -51 -32 -82
-17 -31 -50 -82 -71 -114 -22 -32 -75 -93 -118 -135 -63 -60 -79 -81 -79 -105
0 -23 -4 -28 -16 -23 -9 4 -23 1 -30 -5 -8 -6 -11 -15 -8 -20 3 -5 13 -9 22
-9 9 0 30 -14 47 -30 22 -21 42 -31 67 -32 19 -1 40 2 47 6 7 5 16 18 21 30 4
11 4 29 -1 38 -5 9 -25 22 -44 29 -19 7 -35 19 -35 26 0 7 7 18 16 25 9 7 40
36 68 63 28 28 67 63 86 77 19 15 49 45 65 67 28 37 34 41 78 41 43 0 47 2 47
25 0 21 -5 25 -28 25 -28 0 -28 0 -24 83 4 74 2 84 -17 101 -12 11 -21 24 -21
31 0 6 13 21 30 33 16 12 32 22 35 22 4 0 21 11 39 25 18 14 37 25 43 25 5 0
18 -12 30 -28 15 -20 18 -33 12 -50 -6 -15 -4 -35 6 -59 14 -34 14 -37 -5 -50
-14 -10 -20 -25 -20 -50 0 -20 -9 -48 -21 -65 -15 -20 -18 -33 -11 -40 5 -5
20 -7 31 -3 12 4 40 25 61 47 22 22 40 46 40 54 0 7 11 21 25 30 24 15 25 21
22 90 -3 61 -8 79 -32 114 -16 23 -36 44 -45 47 -8 2 -23 9 -32 14 -10 5 -30
9 -45 9z"/>
<path d="M1007 839 c-7 0 -16 -2 -22 -4 -5 -2 -35 -11 -65 -20 -30 -9 -63 -24
-72 -32 -10 -9 -18 -22 -18 -30 0 -7 7 -16 16 -20 10 -4 24 4 37 20 17 20 33
27 67 29 39 3 45 0 48 -17 1 -11 -12 -48 -30 -83 -18 -34 -53 -99 -76 -144
-40 -73 -43 -84 -31 -107 7 -14 11 -38 10 -52 -1 -14 5 -31 13 -39 9 -7 16
-18 16 -25 0 -6 37 -54 81 -106 45 -52 92 -98 104 -103 12 -5 30 -6 40 -2 14
5 16 14 10 49 -4 25 -15 49 -28 60 -12 9 -34 29 -49 44 -16 15 -28 37 -28 51
0 21 -3 23 -25 18 -15 -4 -25 -2 -25 5 0 6 -15 29 -34 52 -19 24 -33 52 -32
65 2 15 20 33 58 58 44 27 58 42 64 67 3 18 17 41 29 53 15 13 24 37 28 72 4
34 1 63 -8 85 -7 18 -25 39 -40 45 -14 7 -31 12 -38 11z"/>
<path d="M801 730 c-5 0 -31 -17 -58 -37 -26 -20 -53 -44 -60 -52 -7 -9 -13
-22 -13 -28 0 -7 7 -13 15 -13 8 0 39 21 69 48 30 26 55 55 55 65 1 9 -3 17
-8 17z"/>
<path d="M646 580 c-8 0 -17 -4 -20 -9 -3 -5 0 -14 8 -20 7 -6 16 -8 19 -4 4
3 7 12 7 20 0 7 -6 13 -14 13z"/>
<path d="M612 530 c-4 0 -12 -4 -18 -8 -6 -4 -19 -22 -28 -41 -10 -18 -37 -59
-60 -90 -23 -31 -59 -74 -80 -96 -20 -22 -67 -71 -104 -108 -36 -37 -73 -66
-81 -65 -9 2 -25 18 -37 35 -17 26 -24 30 -33 20 -6 -8 -11 -27 -11 -43 0 -16
-3 -53 -6 -81 -6 -49 -4 -53 16 -53 12 0 46 12 76 26 31 14 72 43 92 64 20 20
59 65 86 98 28 33 56 73 64 89 8 15 23 35 33 44 10 8 38 55 63 103 25 48 43
92 40 97 -3 5 -8 9 -12 9z"/>
<path d="M510 120 c-4 0 -13 -7 -20 -15 -10 -12 -9 -20 4 -40 9 -13 16 -33 16
-45 0 -18 6 -20 54 -20 54 0 54 0 34 43 -11 24 -33 50 -50 60 -16 9 -33 17
-38 17z"/>
<path d="M694 40 c-6 0 -19 -9 -29 -20 -18 -20 -17 -20 33 -20 38 0 52 4 52
14 0 7 -10 16 -22 20 -13 3 -28 6 -34 6z"/>
</g>
</svg>
