<?xml version="1.0" standalone="no"?>
<!DOCTYPE svg PUBLIC "-//W3C//DTD SVG 20010904//EN"
 "http://www.w3.org/TR/2001/REC-SVG-20010904/DTD/svg10.dtd">
<svg version="1.0" xmlns="http://www.w3.org/2000/svg"
 width="128.000000pt" height="128.000000pt" viewBox="0 0 128.000000 128.000000"
 preserveAspectRatio="xMidYMid meet">
<metadata>
Created by potrace 1.16, written by Peter Selinger 2001-2019
</metadata>
<g transform="translate(0.000000,128.000000) scale(0.100000,-0.100000)"
fill="#000000" stroke="none">
<path d="M679 1280 c-20 0 -29 -5 -29 -16 0 -9 14 -21 30 -27 17 -6 30 -16 30
-22 -1 -5 -7 -36 -15 -67 -8 -32 -21 -83 -29 -114 -8 -31 -21 -63 -29 -72 -14
-13 -19 -12 -47 12 -17 14 -37 26 -44 26 -8 0 -25 9 -40 21 -15 11 -33 18 -41
15 -8 -3 -15 -11 -15 -18 1 -7 13 -27 28 -44 15 -17 37 -35 50 -38 12 -4 22
-12 22 -17 0 -6 -7 -23 -15 -38 -8 -16 -25 -31 -37 -35 -13 -3 -57 -6 -98 -6
-41 0 -81 -4 -89 -9 -8 -5 -12 -15 -9 -23 3 -7 26 -24 50 -37 44 -22 46 -22
84 -6 21 10 58 23 82 31 23 7 49 11 57 8 8 -4 15 -12 15 -19 0 -7 -7 -18 -14
-25 -8 -6 -20 -28 -27 -48 -6 -20 -24 -58 -40 -83 -16 -25 -29 -52 -29 -60 0
-8 -15 -42 -32 -75 -18 -33 -59 -92 -90 -130 -32 -39 -83 -88 -113 -108 -30
-20 -59 -36 -65 -36 -5 0 -10 -10 -10 -21 0 -19 4 -21 38 -15 20 4 61 19 91
34 30 15 71 45 91 67 21 22 55 60 77 84 39 43 39 43 57 16 13 -20 18 -51 20
-124 3 -86 6 -101 30 -137 14 -23 46 -53 69 -69 31 -21 64 -31 124 -40 67 -9
83 -9 87 2 3 7 12 13 21 13 8 0 15 -7 15 -15 0 -11 12 -15 50 -15 27 0 66 8
87 17 21 10 46 24 56 32 9 8 17 27 17 43 0 15 -13 49 -29 75 -25 39 -31 44
-37 30 -4 -10 -1 -30 5 -44 6 -14 10 -26 9 -27 -2 -1 -21 -10 -43 -20 -24 -11
-66 -19 -105 -20 -57 -1 -66 -4 -75 -23 -5 -13 -13 -23 -17 -23 -5 0 -8 9 -8
20 0 17 -7 20 -42 20 -23 0 -63 10 -89 21 -31 14 -48 29 -51 43 -2 11 -2 46 0
77 4 56 4 56 50 72 26 10 55 17 64 17 9 0 30 11 45 24 28 25 28 25 5 68 -12
24 -22 47 -22 52 0 5 12 19 28 32 15 13 42 31 60 40 18 8 31 21 29 27 -2 7
-16 10 -32 9 -16 -2 -52 -15 -82 -29 -29 -14 -54 -30 -54 -37 -1 -6 -1 -20 0
-31 1 -11 4 -34 6 -51 5 -29 2 -33 -45 -57 -51 -26 -51 -26 -60 -1 -6 14 -10
31 -10 39 0 7 -9 16 -19 20 -10 3 -24 19 -31 34 -10 25 -8 38 15 93 15 34 37
92 50 128 13 38 29 66 38 68 9 2 36 -8 59 -21 24 -14 66 -32 93 -40 28 -8 69
-25 93 -37 23 -12 42 -26 42 -30 0 -4 -10 -14 -22 -23 -22 -15 -22 -16 -5 -33
14 -16 21 -17 37 -6 11 6 29 12 41 12 11 0 29 -4 39 -10 10 -5 26 -7 34 -4 9
3 16 16 16 27 0 11 -10 35 -22 53 -13 18 -39 40 -58 47 -19 8 -53 22 -75 30
-22 8 -51 15 -64 15 -14 1 -36 5 -50 11 -14 5 -52 17 -83 25 -31 9 -60 21 -63
27 -4 5 -1 23 5 40 8 19 22 31 39 35 14 3 39 10 55 15 16 5 40 9 52 9 13 0 24
4 24 9 0 6 15 4 34 -4 30 -13 35 -13 50 4 9 10 16 27 16 38 0 13 -15 33 -37
50 -21 16 -57 37 -80 47 -24 11 -45 27 -49 38 -3 10 -2 48 1 84 7 65 7 65 -30
100 -25 22 -47 34 -66 34z m74 -240 c7 0 26 -13 41 -29 17 -18 26 -36 23 -45
-4 -10 -18 -16 -36 -16 -16 0 -36 -3 -45 -6 -9 -3 -18 0 -21 8 -3 8 1 31 10
51 8 20 21 37 28 37z m-161 -130 c7 0 19 -4 27 -9 8 -5 11 -16 8 -25 -4 -10
-18 -16 -37 -16 -17 0 -29 3 -27 8 2 4 7 15 10 25 4 9 12 17 19 17z"/>
</g>
</svg>
