<?xml version="1.0" standalone="no"?>
<!DOCTYPE svg PUBLIC "-//W3C//DTD SVG 20010904//EN"
 "http://www.w3.org/TR/2001/REC-SVG-20010904/DTD/svg10.dtd">
<svg version="1.0" xmlns="http://www.w3.org/2000/svg"
 width="128.000000pt" height="128.000000pt" viewBox="0 0 128.000000 128.000000"
 preserveAspectRatio="xMidYMid meet">
<metadata>
Created by potrace 1.16, written by Peter Selinger 2001-2019
</metadata>
<g transform="translate(0.000000,128.000000) scale(0.100000,-0.100000)"
fill="#000000" stroke="none">
<path d="M697 1250 c-7 0 -18 -5 -25 -12 -7 -7 -12 -22 -12 -35 0 -12 9 -27
20 -33 12 -6 25 -22 30 -35 5 -14 5 -44 0 -74 -6 -28 -14 -73 -19 -100 -5 -27
-17 -61 -26 -75 -10 -14 -14 -33 -11 -42 3 -9 15 -14 28 -12 14 2 31 21 49 53
16 28 28 60 29 72 0 12 5 25 10 28 6 3 10 21 10 40 0 18 9 54 20 80 11 26 20
57 20 69 0 17 -13 28 -55 49 -31 15 -61 27 -68 27z"/>
<path d="M352 1220 c-31 0 -54 -5 -62 -15 -6 -8 -9 -19 -5 -25 3 -5 12 -10 19
-10 7 0 22 -10 33 -22 11 -13 26 -47 33 -76 12 -52 12 -54 -15 -82 -15 -16
-46 -38 -70 -51 -23 -12 -49 -19 -58 -16 -10 4 -17 17 -17 32 0 18 -5 25 -18
25 -10 0 -28 -10 -40 -23 -12 -13 -22 -35 -22 -50 0 -20 9 -33 33 -47 17 -11
42 -23 54 -26 16 -4 37 7 84 46 57 48 64 51 75 35 7 -10 16 -38 19 -64 3 -25
9 -57 13 -71 5 -15 15 -25 26 -25 13 0 28 16 44 45 21 41 23 50 13 93 -6 27
-11 64 -11 82 0 19 -4 36 -8 39 -5 3 -10 31 -10 63 -1 32 -5 70 -8 85 -3 14
-16 34 -29 42 -14 9 -46 16 -73 16z"/>
<path d="M933 1059 c-10 -1 -46 -13 -81 -27 -42 -17 -62 -31 -60 -41 2 -11 21
-15 76 -17 40 -2 88 -8 107 -15 27 -10 37 -10 49 0 9 8 16 19 16 27 0 7 -20
27 -44 44 -25 16 -53 29 -63 29z"/>
<path d="M967 729 c-7 -1 -23 -4 -37 -8 -20 -6 -25 -13 -24 -39 2 -27 -2 -33
-25 -38 -14 -4 -47 -19 -74 -35 -26 -16 -57 -29 -70 -29 -16 0 -26 9 -34 31
-10 25 -16 30 -40 27 -18 -2 -29 -10 -31 -22 -2 -11 5 -26 16 -35 11 -9 23
-32 26 -52 4 -24 2 -40 -7 -47 -7 -6 -14 -36 -15 -70 -2 -54 1 -65 40 -129 24
-39 58 -80 75 -92 19 -12 49 -21 70 -21 21 0 45 -4 52 -9 9 -6 22 -6 33 0 13
7 29 6 51 -1 26 -10 40 -9 72 3 22 9 61 23 86 33 37 14 51 26 63 54 9 20 16
41 16 47 0 5 -12 47 -26 91 -16 53 -31 82 -40 82 -10 0 -14 -13 -14 -44 0 -25
5 -57 10 -72 9 -23 8 -29 -7 -38 -10 -6 -34 -17 -53 -24 -19 -7 -59 -20 -89
-28 -33 -10 -69 -13 -95 -9 -22 4 -58 12 -79 18 -29 8 -43 20 -58 49 -11 21
-22 59 -24 86 -3 26 -8 64 -11 84 -5 31 -2 38 17 49 13 6 50 11 82 10 33 -1
65 3 73 10 7 6 40 12 71 13 44 2 57 6 56 17 -1 8 -8 37 -15 64 -7 28 -17 56
-21 63 -5 6 -14 12 -20 11z"/>
<path d="M340 698 c-18 2 -35 -7 -58 -31 -20 -21 -30 -40 -27 -49 3 -8 -1 -23
-10 -32 -9 -9 -20 -16 -25 -16 -5 0 -10 -12 -12 -27 -2 -19 -10 -29 -26 -33
-12 -3 -42 -21 -67 -40 -29 -23 -44 -43 -45 -58 0 -23 2 -24 52 -17 41 6 61
15 88 42 19 18 42 32 50 30 8 -1 14 -12 13 -22 -2 -11 -3 -96 -3 -190 1 -93 2
-183 3 -200 2 -25 7 -31 30 -33 23 -3 30 2 43 33 11 26 13 55 9 103 -3 37 -9
113 -13 168 -6 90 -10 104 -31 121 -19 16 -22 25 -17 50 4 17 26 57 48 89 35
48 40 60 32 83 -6 17 -18 27 -34 29z"/>
</g>
</svg>
