<?xml version="1.0" standalone="no"?>
<!DOCTYPE svg PUBLIC "-//W3C//DTD SVG 20010904//EN"
 "http://www.w3.org/TR/2001/REC-SVG-20010904/DTD/svg10.dtd">
<svg version="1.0" xmlns="http://www.w3.org/2000/svg"
 width="128.000000pt" height="128.000000pt" viewBox="0 0 128.000000 128.000000"
 preserveAspectRatio="xMidYMid meet">
<metadata>
Created by potrace 1.16, written by Peter Selinger 2001-2019
</metadata>
<g transform="translate(0.000000,128.000000) scale(0.100000,-0.100000)"
fill="#000000" stroke="none">
<path d="M721 1260 c-20 0 -44 -5 -53 -11 -10 -5 -18 -16 -18 -22 0 -7 14 -24
30 -39 26 -23 30 -33 30 -81 0 -32 -15 -108 -36 -183 -20 -71 -45 -160 -56
-197 -19 -65 -19 -69 -3 -105 10 -20 24 -41 31 -45 8 -4 14 -23 14 -42 0 -19
5 -37 10 -40 6 -4 10 -40 10 -83 0 -42 -1 -86 -1 -97 0 -11 0 -24 0 -30 -1 -5
2 -29 4 -52 3 -23 13 -53 22 -67 9 -14 31 -30 49 -36 18 -6 99 -11 179 -11 80
0 171 2 203 6 33 4 67 14 77 23 9 8 17 24 17 34 0 11 -23 43 -51 73 -37 39
-49 59 -45 73 4 10 29 43 56 72 29 31 52 66 56 85 3 18 4 45 2 61 -3 29 -3 29
-66 -36 -35 -36 -77 -85 -94 -110 -22 -32 -31 -58 -32 -90 -1 -44 -3 -46 -53
-73 -41 -22 -70 -29 -126 -32 -40 -2 -77 -5 -83 -6 -5 -1 -14 -1 -21 0 -7 1
-14 27 -17 64 -3 34 -8 99 -10 143 -2 45 -1 85 3 90 3 5 34 24 68 41 34 18 67
33 74 33 6 0 36 21 65 46 30 25 54 53 54 63 0 9 -6 25 -13 35 -7 9 -28 19 -47
22 -19 2 -45 -1 -58 -8 -19 -10 -21 -17 -16 -45 6 -31 2 -38 -36 -73 -24 -22
-47 -40 -52 -40 -4 0 -14 15 -22 33 -10 25 -25 38 -55 50 -35 14 -41 21 -41
45 0 16 3 32 8 36 4 4 21 46 37 94 30 87 30 87 75 89 25 2 95 5 155 9 105 6
111 8 143 37 17 17 32 37 32 44 0 7 -18 22 -40 33 -21 11 -46 20 -54 20 -9 0
-50 -16 -92 -36 -49 -23 -87 -34 -107 -32 -30 3 -32 5 -30 38 2 19 4 67 5 107
3 64 0 74 -21 97 -18 19 -34 26 -60 26z"/>
<path d="M405 1129 c-5 -1 -19 -4 -30 -6 -10 -3 -29 -12 -42 -20 -13 -9 -23
-19 -23 -24 0 -5 17 -17 38 -26 20 -10 45 -24 55 -32 9 -8 17 -24 17 -37 0
-18 -12 -28 -56 -49 -31 -15 -63 -24 -72 -20 -9 3 -36 -4 -61 -16 -25 -12 -53
-25 -61 -29 -8 -4 -15 -13 -15 -21 0 -8 12 -15 27 -17 14 -2 32 -10 38 -18 7
-8 20 -14 29 -14 9 0 33 6 54 13 20 8 50 25 65 39 15 14 39 33 53 42 21 13 28
14 36 4 5 -7 15 -33 22 -57 8 -29 9 -47 3 -53 -6 -6 -21 -15 -33 -22 -13 -6
-26 -24 -30 -41 -4 -17 -18 -55 -32 -87 -14 -31 -31 -59 -37 -63 -6 -3 -24
-34 -41 -68 -21 -42 -59 -91 -117 -149 -48 -48 -100 -101 -115 -118 -16 -17
-26 -37 -23 -45 3 -8 10 -15 16 -15 6 0 32 11 58 26 26 14 57 36 70 50 12 14
22 32 22 40 0 8 4 14 10 14 5 0 33 23 61 50 34 34 55 48 62 41 6 -6 6 -49 -1
-123 -6 -62 -14 -127 -17 -145 -5 -24 -1 -42 20 -77 15 -25 28 -46 30 -46 1 0
19 25 39 55 30 45 37 66 38 108 0 29 -2 71 -6 95 -5 24 -3 71 5 111 12 69 12
70 -14 101 -23 27 -25 35 -16 53 7 12 31 55 55 94 24 40 51 91 60 113 10 24
14 55 11 77 -3 21 -14 86 -25 144 -10 59 -23 112 -27 119 -4 7 -26 21 -49 31
-22 10 -45 18 -51 18z"/>
<path d="M1240 1010 c-5 0 -10 -7 -10 -15 0 -8 5 -15 10 -15 6 0 10 7 10 15 0
8 -4 15 -10 15z"/>
<path d="M570 250 c-5 0 -10 -6 -10 -14 0 -8 5 -18 10 -21 6 -3 10 3 10 14 0
12 -4 21 -10 21z"/>
<path d="M585 198 c-18 2 -25 -1 -25 -13 0 -12 7 -15 25 -13 14 2 26 8 26 13
0 6 -12 11 -26 13z"/>
</g>
</svg>
