<?xml version="1.0" standalone="no"?>
<!DOCTYPE svg PUBLIC "-//W3C//DTD SVG 20010904//EN"
 "http://www.w3.org/TR/2001/REC-SVG-20010904/DTD/svg10.dtd">
<svg version="1.0" xmlns="http://www.w3.org/2000/svg"
 width="128.000000pt" height="128.000000pt" viewBox="0 0 128.000000 128.000000"
 preserveAspectRatio="xMidYMid meet">
<metadata>
Created by potrace 1.16, written by Peter Selinger 2001-2019
</metadata>
<g transform="translate(0.000000,128.000000) scale(0.100000,-0.100000)"
fill="#000000" stroke="none">
<path d="M701 1217 c-39 20 -41 20 -46 2 -4 -13 -16 -19 -35 -19 -21 0 -35 -8
-47 -26 -13 -21 -14 -30 -5 -44 9 -16 6 -30 -18 -79 -17 -33 -38 -66 -48 -73
-10 -7 -27 -25 -36 -40 -12 -19 -16 -36 -11 -57 6 -27 3 -31 -29 -45 -20 -8
-40 -26 -45 -38 -5 -13 -16 -29 -24 -36 -8 -7 -18 -29 -22 -50 -4 -20 -13 -44
-21 -53 -8 -9 -12 -24 -8 -33 3 -9 16 -16 29 -16 12 0 28 7 35 15 7 8 19 15
26 15 8 0 14 -4 14 -8 0 -4 -4 -12 -9 -18 -5 -5 -19 -27 -32 -49 -12 -22 -32
-56 -43 -75 -12 -20 -31 -52 -44 -72 -13 -20 -30 -39 -38 -42 -12 -5 -15 -17
-11 -57 3 -28 10 -56 17 -62 9 -9 15 -8 24 7 6 10 22 35 35 55 13 20 25 47 27
59 1 13 11 33 21 45 10 12 24 26 31 31 10 5 12 19 7 43 -5 29 -3 35 13 40 14
3 21 16 25 42 3 28 17 52 51 86 27 29 46 58 46 71 0 13 -9 28 -20 34 -13 7
-20 21 -20 40 0 21 15 49 49 91 28 34 51 71 53 82 2 12 13 24 25 27 12 3 39
25 60 50 22 25 48 59 58 76 10 18 15 38 12 46 -3 8 -24 24 -46 35z m-264 -437
c7 0 13 -4 13 -9 0 -5 -3 -16 -6 -25 -3 -9 -12 -16 -20 -16 -8 0 -14 8 -14 18
0 10 3 22 7 25 3 4 12 7 20 7z m-41 -64 c19 -1 39 -8 44 -16 5 -8 4 -22 -1
-33 -9 -16 -13 -17 -27 -4 -9 8 -25 17 -34 20 -10 4 -18 13 -18 20 0 9 12 13
36 13z"/>
<path d="M341 1080 c-10 0 -25 -8 -34 -18 -16 -17 -15 -21 19 -60 19 -23 44
-42 55 -42 10 0 19 5 19 10 0 6 11 10 25 10 18 0 32 11 50 40 14 22 25 42 25
45 0 3 -7 5 -14 5 -8 0 -29 -15 -46 -32 -20 -21 -34 -28 -37 -21 -2 7 -13 23
-24 37 -11 15 -28 26 -38 26z"/>
<path d="M820 953 c-8 3 -26 1 -40 -4 -13 -6 -33 -17 -42 -26 -10 -9 -18 -28
-18 -42 0 -14 11 -48 25 -75 14 -27 25 -62 25 -78 0 -16 14 -55 30 -88 17 -33
30 -66 30 -74 0 -9 12 -41 28 -73 23 -49 27 -71 27 -143 -1 -68 -5 -94 -24
-133 -13 -26 -34 -55 -47 -64 -13 -8 -30 -13 -38 -10 -9 4 -27 24 -41 46 -15
25 -25 55 -25 79 0 21 -5 43 -11 49 -7 7 -9 22 -4 40 4 15 9 42 11 58 2 17 5
78 6 137 2 68 7 109 14 112 6 2 14 13 17 25 2 11 0 26 -7 34 -8 11 -25 13 -66
8 -48 -5 -55 -9 -60 -31 -3 -14 -12 -34 -20 -46 -8 -11 -26 -28 -39 -37 -14
-9 -34 -14 -46 -11 -13 3 -27 -1 -34 -10 -9 -11 -10 -20 -1 -36 9 -17 14 -19
26 -9 11 9 17 9 29 -1 8 -7 15 -23 15 -36 0 -21 -5 -24 -35 -24 -24 0 -37 -6
-45 -19 -5 -11 -10 -30 -10 -43 0 -13 -7 -34 -16 -46 -9 -13 -13 -31 -9 -43 5
-14 1 -25 -11 -34 -13 -9 -19 -30 -22 -81 -4 -58 -9 -74 -33 -102 -16 -18 -29
-38 -29 -45 0 -7 13 -23 30 -35 16 -12 36 -22 43 -22 8 0 19 6 24 13 5 6 15
43 23 82 7 38 26 106 43 150 16 44 29 94 29 112 -1 21 8 43 24 62 13 16 23 33
22 38 -1 4 6 34 16 66 10 31 23 57 27 57 5 0 12 0 16 0 4 0 8 -96 8 -214 0
-194 2 -216 18 -234 11 -12 16 -26 12 -31 -3 -6 2 -24 11 -41 10 -16 24 -32
32 -35 8 -3 26 3 40 12 13 10 32 23 41 28 9 6 29 22 45 38 16 15 35 27 41 27
7 0 26 15 42 32 16 18 43 40 58 48 20 11 35 31 47 65 10 28 18 56 18 63 0 6
-8 12 -18 12 -11 0 -36 28 -68 78 -27 42 -56 93 -63 112 -7 19 -22 54 -32 77
-11 24 -19 47 -19 53 0 6 -4 18 -9 28 -5 9 -21 42 -36 73 -18 37 -25 64 -20
78 3 11 11 21 17 21 6 0 29 -5 52 -11 22 -6 52 -16 66 -21 14 -6 32 -14 41
-19 12 -5 22 -2 34 11 15 17 16 22 4 37 -7 10 -14 20 -15 21 -1 2 -20 8 -41
13 -21 6 -51 14 -68 18 -16 5 -37 11 -45 14z"/>
</g>
</svg>
