<?xml version="1.0" standalone="no"?>
<!DOCTYPE svg PUBLIC "-//W3C//DTD SVG 20010904//EN"
 "http://www.w3.org/TR/2001/REC-SVG-20010904/DTD/svg10.dtd">
<svg version="1.0" xmlns="http://www.w3.org/2000/svg"
 width="56.000000pt" height="56.000000pt" viewBox="0 0 56.000000 56.000000"
 preserveAspectRatio="xMidYMid meet">
<metadata>
Created by potrace 1.16, written by Peter Selinger 2001-2019
</metadata>
<g transform="translate(0.000000,56.000000) scale(0.100000,-0.100000)"
fill="#000000" stroke="none">
<path d="M153 480 c-5 0 -18 -9 -27 -19 -13 -15 -26 -18 -52 -14 -29 5 -34 3
-34 -14 0 -11 10 -29 23 -41 13 -12 38 -25 56 -28 28 -6 36 -3 57 22 13 16 23
36 24 45 0 9 -8 23 -18 32 -10 10 -23 17 -29 17z"/>
<path d="M338 478 c-30 3 -38 0 -38 -13 0 -13 8 -16 38 -13 20 2 37 8 37 13 0
6 -17 11 -37 13z"/>
<path d="M470 480 c-14 0 -36 -7 -48 -16 -12 -8 -20 -20 -17 -25 4 -5 24 -9
45 -9 37 0 39 -2 46 -35 4 -25 1 -43 -11 -63 -10 -15 -36 -43 -58 -63 -23 -20
-37 -40 -34 -47 5 -7 26 0 64 21 31 18 63 44 72 59 9 16 19 28 24 28 4 0 7 21
7 47 0 39 -5 50 -32 75 -17 15 -43 28 -58 28z"/>
<path d="M272 350 c-21 0 -47 -7 -59 -15 -14 -10 -32 -13 -48 -9 -22 5 -25 3
-25 -19 0 -15 -14 -39 -37 -62 -20 -20 -49 -43 -65 -51 -24 -13 -29 -20 -26
-47 2 -23 9 -33 24 -35 14 -2 37 14 73 53 29 30 57 53 62 50 5 -4 9 -12 9 -20
0 -7 7 -21 16 -29 8 -9 26 -16 40 -16 14 0 24 -6 24 -14 0 -7 -7 -19 -15 -26
-8 -7 -15 -19 -15 -27 0 -9 8 -13 23 -11 14 2 23 11 25 26 2 12 10 22 18 22 8
0 14 7 14 15 0 8 10 20 22 26 13 7 28 18 35 25 7 7 13 17 13 23 0 6 -3 11 -8
11 -4 0 -18 -7 -30 -16 -12 -8 -27 -12 -33 -9 -7 5 -6 11 2 21 7 8 13 34 14
57 2 23 -1 50 -6 60 -7 11 -22 17 -47 17z m-20 -56 c4 -3 8 -17 8 -32 0 -15
-4 -34 -10 -42 -7 -12 -12 -12 -29 4 -12 11 -21 25 -21 32 0 7 10 20 22 28 12
8 25 13 30 10z"/>
<path d="M392 314 c-6 3 -14 1 -17 -5 -4 -5 -4 -13 -1 -16 4 -4 11 -2 17 4 7
7 7 13 1 17z"/>
</g>
</svg>
