<?xml version="1.0" standalone="no"?>
<!DOCTYPE svg PUBLIC "-//W3C//DTD SVG 20010904//EN"
 "http://www.w3.org/TR/2001/REC-SVG-20010904/DTD/svg10.dtd">
<svg version="1.0" xmlns="http://www.w3.org/2000/svg"
 width="56.000000pt" height="56.000000pt" viewBox="0 0 56.000000 56.000000"
 preserveAspectRatio="xMidYMid meet">
<metadata>
Created by potrace 1.16, written by Peter Selinger 2001-2019
</metadata>
<g transform="translate(0.000000,56.000000) scale(0.100000,-0.100000)"
fill="#000000" stroke="none">
<path d="M104 510 c-13 0 -15 -8 -9 -50 6 -47 5 -50 -15 -50 -11 0 -34 15 -51
32 -29 32 -29 32 -29 3 0 -17 9 -45 20 -62 11 -18 30 -35 42 -37 13 -3 34 -7
48 -8 19 -2 26 -10 28 -30 2 -18 -4 -31 -20 -42 -12 -9 -32 -16 -44 -16 -12 0
-33 -9 -48 -21 -15 -12 -26 -30 -26 -45 0 -17 5 -24 20 -24 12 0 32 7 45 16
14 9 32 14 40 10 8 -3 15 -17 15 -31 0 -14 7 -39 15 -55 12 -23 22 -30 45 -30
16 0 32 5 35 10 3 6 18 10 33 10 15 0 40 11 57 24 23 18 29 31 29 61 0 29 -7
43 -28 61 -15 13 -39 24 -54 24 -15 0 -33 4 -40 8 -7 5 -15 25 -19 44 -4 31
-2 38 18 49 13 6 27 17 31 23 4 5 4 15 0 22 -4 6 -33 32 -64 58 -32 25 -65 46
-74 46z m116 -291 c3 1 16 -6 28 -15 17 -12 20 -19 12 -33 -5 -10 -23 -24 -40
-31 -28 -12 -34 -11 -53 9 -17 17 -19 25 -11 38 6 10 22 21 35 24 13 4 26 7
29 8z"/>
<path d="M552 320 c-5 0 -11 -3 -15 -6 -3 -3 -3 -12 -1 -19 3 -7 -5 -15 -18
-18 -18 -5 -20 -9 -10 -19 9 -9 16 -7 32 10 11 11 20 28 20 37 0 8 -4 15 -8
15z"/>
<path d="M502 240 c-4 0 -36 -31 -71 -70 -34 -38 -68 -70 -75 -70 -7 0 -25
-13 -40 -29 -18 -19 -24 -31 -16 -36 6 -4 23 -4 37 0 15 3 40 17 56 31 16 13
34 24 40 24 7 0 38 25 70 56 31 30 57 57 57 60 0 2 -9 4 -19 4 -10 0 -21 7
-25 15 -3 8 -9 15 -14 15z"/>
</g>
</svg>
