<?xml version="1.0" standalone="no"?>
<!DOCTYPE svg PUBLIC "-//W3C//DTD SVG 20010904//EN"
 "http://www.w3.org/TR/2001/REC-SVG-20010904/DTD/svg10.dtd">
<svg version="1.0" xmlns="http://www.w3.org/2000/svg"
 width="56.000000pt" height="56.000000pt" viewBox="0 0 56.000000 56.000000"
 preserveAspectRatio="xMidYMid meet">
<metadata>
Created by potrace 1.16, written by Peter Selinger 2001-2019
</metadata>
<g transform="translate(0.000000,56.000000) scale(0.100000,-0.100000)"
fill="#000000" stroke="none">
<path d="M167 450 c-7 0 -18 -5 -24 -11 -8 -8 -6 -20 8 -45 10 -19 19 -38 19
-43 0 -5 -35 -9 -77 -10 -43 -1 -82 -6 -87 -11 -6 -6 2 -14 20 -21 16 -6 47
-11 69 -11 22 1 51 2 65 4 15 2 27 11 30 23 4 12 17 22 35 25 18 3 31 12 33
23 2 9 -4 20 -15 24 -10 4 -28 17 -41 30 -13 13 -29 23 -35 23z"/>
<path d="M453 390 c-14 0 -23 -6 -23 -15 0 -9 16 -31 35 -51 19 -19 35 -38 35
-42 0 -4 -18 -23 -41 -41 -26 -22 -37 -37 -30 -44 6 -6 19 -2 37 12 15 11 32
21 38 21 6 1 21 9 34 19 12 11 22 28 22 40 0 11 -19 38 -42 60 -24 22 -53 41
-65 41z"/>
<path d="M169 260 c-4 0 -13 -10 -22 -23 -8 -12 -41 -37 -73 -53 -40 -21 -59
-37 -59 -50 0 -12 8 -20 21 -22 11 -2 28 6 39 18 10 11 26 20 35 20 10 0 20
-9 23 -20 4 -17 14 -20 56 -20 42 0 56 5 80 28 17 16 32 42 35 62 6 34 4 37
-28 48 -28 10 -39 10 -55 0 -16 -10 -23 -10 -33 0 -6 6 -15 12 -19 12z m73
-41 c4 1 9 -3 12 -7 3 -5 -2 -19 -10 -31 -10 -14 -24 -21 -37 -19 -14 2 -22
10 -22 23 0 12 9 22 25 26 14 4 28 7 32 8z"/>
</g>
</svg>
