<?xml version="1.0" standalone="no"?>
<!DOCTYPE svg PUBLIC "-//W3C//DTD SVG 20010904//EN"
 "http://www.w3.org/TR/2001/REC-SVG-20010904/DTD/svg10.dtd">
<svg version="1.0" xmlns="http://www.w3.org/2000/svg"
 width="56.000000pt" height="56.000000pt" viewBox="0 0 56.000000 56.000000"
 preserveAspectRatio="xMidYMid meet">
<metadata>
Created by potrace 1.16, written by Peter Selinger 2001-2019
</metadata>
<g transform="translate(0.000000,56.000000) scale(0.100000,-0.100000)"
fill="#000000" stroke="none">
<path d="M159 450 c-15 9 -21 7 -25 -5 -3 -8 -3 -26 0 -40 6 -22 3 -25 -22
-25 -16 0 -37 9 -47 20 -10 11 -22 20 -27 20 -4 0 -8 -8 -8 -17 0 -10 12 -31
26 -47 24 -27 29 -29 57 -18 16 6 34 9 38 6 5 -3 8 -27 7 -55 -2 -39 -6 -49
-20 -49 -9 0 -34 -10 -55 -22 -21 -12 -48 -30 -60 -41 -13 -11 -23 -26 -23
-34 0 -7 8 -13 17 -13 9 0 25 7 35 17 16 14 20 14 36 1 9 -8 29 -19 43 -25 15
-6 47 -14 72 -18 45 -7 45 -7 71 37 15 25 26 60 26 80 0 27 -6 38 -26 48 -20
11 -29 12 -44 2 -11 -7 -26 -12 -34 -12 -11 0 -13 10 -9 43 3 23 12 47 21 52
8 6 24 19 35 29 20 19 20 19 -3 38 -12 10 -31 18 -42 18 -11 0 -28 5 -39 10z
m83 -220 c14 0 15 -5 7 -32 -5 -17 -12 -35 -16 -39 -5 -4 -27 -5 -50 -2 -24 3
-43 9 -43 14 0 4 19 19 43 33 23 14 50 26 59 26z"/>
<path d="M471 399 c-24 17 -31 18 -46 7 -17 -12 -16 -16 14 -59 17 -25 40 -67
51 -92 11 -25 24 -45 29 -45 5 0 16 3 25 6 11 4 16 19 16 44 0 21 -4 40 -8 42
-4 2 -18 20 -31 40 -12 21 -35 47 -50 57z"/>
</g>
</svg>
