<?xml version="1.0" standalone="no"?>
<!DOCTYPE svg PUBLIC "-//W3C//DTD SVG 20010904//EN"
 "http://www.w3.org/TR/2001/REC-SVG-20010904/DTD/svg10.dtd">
<svg version="1.0" xmlns="http://www.w3.org/2000/svg"
 width="56.000000pt" height="56.000000pt" viewBox="0 0 56.000000 56.000000"
 preserveAspectRatio="xMidYMid meet">
<metadata>
Created by potrace 1.16, written by Peter Selinger 2001-2019
</metadata>
<g transform="translate(0.000000,56.000000) scale(0.100000,-0.100000)"
fill="#000000" stroke="none">
<path d="M82 500 c-12 0 -23 -4 -26 -9 -3 -5 14 -30 39 -57 36 -38 43 -50 33
-61 -8 -10 -24 -13 -57 -9 -26 4 -53 2 -61 -4 -13 -9 -11 -13 9 -31 14 -11 37
-23 53 -26 15 -3 28 -10 28 -15 0 -6 -15 -31 -34 -57 -18 -25 -31 -51 -29 -58
2 -6 -5 -14 -16 -18 -12 -3 -21 -10 -21 -14 0 -5 13 -11 29 -14 19 -4 36 -18
51 -42 14 -23 29 -35 43 -35 12 0 36 9 52 19 17 11 40 28 53 38 13 10 25 34
28 55 5 30 2 41 -19 62 -15 14 -38 26 -52 26 -18 0 -25 5 -25 18 0 11 14 38
30 60 17 23 30 50 30 60 0 10 -12 30 -27 44 -16 13 -42 35 -60 46 -17 12 -40
22 -51 22z m98 -293 c19 -2 26 -8 28 -29 3 -22 -4 -31 -40 -52 -43 -26 -43
-26 -65 1 -13 16 -23 30 -23 33 0 3 17 15 38 27 20 12 48 21 62 20z"/>
<path d="M365 380 c-19 0 -35 -4 -35 -9 0 -6 17 -23 38 -38 20 -15 38 -31 40
-35 2 -4 21 -29 43 -56 21 -28 39 -53 39 -56 0 -4 7 -22 15 -42 13 -31 17 -34
35 -24 16 9 20 21 20 60 0 28 -5 50 -10 50 -6 0 -25 22 -42 49 -16 28 -48 61
-69 75 -23 16 -53 26 -74 26z"/>
</g>
</svg>
