<?xml version="1.0" standalone="no"?>
<!DOCTYPE svg PUBLIC "-//W3C//DTD SVG 20010904//EN"
 "http://www.w3.org/TR/2001/REC-SVG-20010904/DTD/svg10.dtd">
<svg version="1.0" xmlns="http://www.w3.org/2000/svg"
 width="56.000000pt" height="56.000000pt" viewBox="0 0 56.000000 56.000000"
 preserveAspectRatio="xMidYMid meet">
<metadata>
Created by potrace 1.16, written by Peter Selinger 2001-2019
</metadata>
<g transform="translate(0.000000,56.000000) scale(0.100000,-0.100000)"
fill="#000000" stroke="none">
<path d="M514 480 c-8 0 -17 -7 -21 -17 -4 -10 3 -24 21 -40 15 -12 31 -23 37
-23 5 0 9 15 9 34 0 22 -6 36 -16 40 -9 3 -22 6 -30 6z"/>
<path d="M119 470 c-24 0 -29 -4 -29 -23 0 -13 5 -28 11 -34 6 -6 9 -23 7 -39
-3 -26 -7 -29 -48 -34 -32 -4 -46 -10 -48 -22 -3 -14 3 -18 27 -18 16 0 37 -7
45 -16 9 -8 16 -19 16 -24 0 -5 -11 -21 -24 -37 -12 -15 -28 -38 -35 -50 -6
-12 -11 -29 -11 -37 0 -9 10 -18 23 -21 12 -3 38 1 58 9 20 8 41 22 49 30 7 9
21 16 31 16 14 0 19 -7 19 -25 0 -17 -8 -29 -25 -37 -14 -6 -25 -15 -25 -19 0
-5 11 -11 24 -15 13 -3 40 1 60 10 36 15 36 16 36 74 0 47 -4 63 -20 77 -18
16 -27 17 -60 8 -22 -5 -42 -8 -45 -5 -3 3 -5 16 -5 29 0 16 8 27 28 34 15 6
42 13 60 16 18 3 37 14 43 25 5 10 7 23 3 29 -3 6 -29 9 -57 7 -52 -3 -52 -3
-55 32 -2 19 -8 41 -14 47 -6 7 -23 13 -39 13z"/>
<path d="M441 310 c-6 0 -11 -12 -11 -26 0 -14 8 -38 19 -52 10 -15 21 -37 25
-49 4 -12 16 -25 27 -28 14 -5 27 0 40 14 10 11 19 34 19 51 0 16 -4 30 -9 30
-6 0 -30 14 -54 30 -25 17 -50 30 -56 30z"/>
</g>
</svg>
