<?xml version="1.0" standalone="no"?>
<!DOCTYPE svg PUBLIC "-//W3C//DTD SVG 20010904//EN"
 "http://www.w3.org/TR/2001/REC-SVG-20010904/DTD/svg10.dtd">
<svg version="1.0" xmlns="http://www.w3.org/2000/svg"
 width="56.000000pt" height="56.000000pt" viewBox="0 0 56.000000 56.000000"
 preserveAspectRatio="xMidYMid meet">
<metadata>
Created by potrace 1.16, written by Peter Selinger 2001-2019
</metadata>
<g transform="translate(0.000000,56.000000) scale(0.100000,-0.100000)"
fill="#000000" stroke="none">
<path d="M147 498 c-18 2 -29 -2 -34 -14 -3 -9 -1 -25 5 -35 7 -10 12 -27 12
-37 0 -9 -9 -25 -20 -35 -12 -10 -26 -15 -31 -11 -6 3 -9 15 -6 25 3 12 -2 25
-15 33 -11 8 -27 12 -34 9 -8 -3 -14 -12 -14 -20 0 -8 7 -28 16 -46 9 -18 26
-42 37 -54 12 -14 32 -23 49 -23 21 0 28 -5 28 -19 0 -10 -8 -28 -17 -40 -10
-12 -38 -27 -63 -34 -33 -9 -46 -18 -48 -34 -2 -14 4 -26 17 -32 11 -6 24 -11
28 -10 4 1 13 1 20 0 6 0 30 -17 53 -36 23 -19 47 -35 54 -35 7 0 20 8 30 18
9 9 33 34 52 56 18 21 34 44 34 50 0 6 -7 22 -16 35 -13 18 -23 22 -48 17 -17
-3 -36 -2 -43 2 -8 5 -10 22 -6 50 5 34 11 46 29 53 13 4 24 16 24 26 0 9 -9
26 -19 37 -11 12 -26 39 -33 61 -10 32 -18 41 -41 43z m61 -331 c2 -10 -2 -24
-8 -32 -7 -8 -20 -15 -30 -15 -10 0 -23 6 -29 13 -6 8 -8 17 -4 20 3 4 17 7
29 7 13 0 26 6 31 13 5 9 9 7 11 -6z"/>
<path d="M481 370 c-37 18 -42 19 -47 5 -4 -9 2 -26 13 -38 11 -12 32 -48 46
-79 20 -43 32 -58 47 -58 17 0 20 7 20 45 0 25 -4 45 -8 45 -4 0 -13 13 -19
29 -7 19 -26 37 -52 51z"/>
</g>
</svg>
