<?xml version="1.0" standalone="no"?>
<!DOCTYPE svg PUBLIC "-//W3C//DTD SVG 20010904//EN"
 "http://www.w3.org/TR/2001/REC-SVG-20010904/DTD/svg10.dtd">
<svg version="1.0" xmlns="http://www.w3.org/2000/svg"
 width="56.000000pt" height="56.000000pt" viewBox="0 0 56.000000 56.000000"
 preserveAspectRatio="xMidYMid meet">
<metadata>
Created by potrace 1.16, written by Peter Selinger 2001-2019
</metadata>
<g transform="translate(0.000000,56.000000) scale(0.100000,-0.100000)"
fill="#000000" stroke="none">
<path d="M157 440 c-9 0 -19 -11 -23 -25 -3 -14 -13 -25 -21 -25 -8 0 -28 8
-44 17 -15 9 -31 14 -34 11 -3 -3 1 -19 8 -37 8 -18 28 -41 45 -51 18 -11 32
-23 32 -28 0 -4 -27 -38 -60 -75 -33 -38 -60 -72 -60 -77 0 -5 11 -17 25 -26
13 -8 29 -13 35 -9 7 4 37 13 68 21 31 7 71 14 87 14 17 0 38 7 47 14 10 7 18
26 18 44 0 17 -3 37 -6 46 -3 9 -17 16 -29 16 -13 0 -31 3 -40 7 -16 5 -15 8
5 23 14 11 24 30 26 53 3 32 -2 40 -30 62 -18 14 -40 25 -49 25z m-6 -220 c17
0 32 -6 36 -15 3 -9 -3 -25 -12 -35 -10 -11 -26 -20 -36 -20 -10 0 -21 5 -24
11 -4 5 -4 21 -1 35 5 19 13 24 37 24z"/>
<path d="M348 419 c-20 1 -39 -3 -42 -7 -3 -5 29 -35 70 -67 42 -32 87 -73
100 -90 13 -16 29 -35 34 -42 5 -6 18 -9 30 -6 16 4 20 13 20 44 0 22 -4 39
-9 39 -6 0 -16 12 -23 27 -8 16 -40 43 -78 65 -42 23 -78 37 -102 37z"/>
</g>
</svg>
