<?xml version="1.0" standalone="no"?>
<!DOCTYPE svg PUBLIC "-//W3C//DTD SVG 20010904//EN"
 "http://www.w3.org/TR/2001/REC-SVG-20010904/DTD/svg10.dtd">
<svg version="1.0" xmlns="http://www.w3.org/2000/svg"
 width="56.000000pt" height="56.000000pt" viewBox="0 0 56.000000 56.000000"
 preserveAspectRatio="xMidYMid meet">
<metadata>
Created by potrace 1.16, written by Peter Selinger 2001-2019
</metadata>
<g transform="translate(0.000000,56.000000) scale(0.100000,-0.100000)"
fill="#000000" stroke="none">
<path d="M11 498 c-6 2 -11 -8 -11 -22 0 -14 5 -26 10 -26 6 0 10 7 10 15 0 8
0 18 1 22 0 4 -4 9 -10 11z"/>
<path d="M159 477 c-3 2 -12 -3 -19 -12 -7 -8 -30 -18 -51 -21 -22 -4 -39 -12
-39 -19 0 -6 8 -19 18 -27 9 -9 26 -18 37 -20 18 -3 20 -11 18 -63 -1 -33 -5
-70 -8 -82 -4 -17 -14 -23 -41 -25 -24 -2 -42 -10 -51 -24 -13 -20 -10 -25 37
-73 27 -28 57 -51 65 -51 10 0 15 10 15 30 0 17 6 33 14 36 8 3 26 -2 40 -11
19 -12 36 -15 61 -11 20 4 51 21 71 38 19 17 42 44 50 61 10 18 14 41 10 62
-4 17 -17 42 -30 54 -13 12 -32 23 -42 23 -11 1 -38 -11 -62 -26 -24 -15 -51
-26 -60 -24 -9 2 -18 11 -20 21 -2 10 -1 29 2 43 4 14 14 24 24 24 10 0 23 5
30 12 7 7 12 20 12 30 0 11 -15 24 -37 35 -21 9 -41 18 -44 20z m143 -177 c5
0 11 -7 14 -15 4 -9 1 -28 -6 -44 -6 -16 -24 -41 -40 -56 -19 -18 -36 -26 -55
-23 -16 2 -33 11 -39 21 -9 15 -6 22 14 38 14 11 43 33 64 50 21 16 43 29 48
29z"/>
<path d="M388 426 c-15 1 -31 -2 -35 -8 -3 -7 2 -17 13 -22 10 -6 37 -29 59
-51 22 -22 45 -48 50 -57 9 -15 15 -16 48 -5 20 6 37 17 37 24 0 7 -23 35 -50
63 -28 27 -61 51 -73 51 -12 1 -34 3 -49 5z"/>
</g>
</svg>
