<?xml version="1.0" standalone="no"?>
<!DOCTYPE svg PUBLIC "-//W3C//DTD SVG 20010904//EN"
 "http://www.w3.org/TR/2001/REC-SVG-20010904/DTD/svg10.dtd">
<svg version="1.0" xmlns="http://www.w3.org/2000/svg"
 width="56.000000pt" height="56.000000pt" viewBox="0 0 56.000000 56.000000"
 preserveAspectRatio="xMidYMid meet">
<metadata>
Created by potrace 1.16, written by Peter Selinger 2001-2019
</metadata>
<g transform="translate(0.000000,56.000000) scale(0.100000,-0.100000)"
fill="#000000" stroke="none">
<path d="M158 482 c-7 2 -35 1 -63 -2 -43 -4 -50 -8 -53 -29 -3 -15 0 -21 8
-16 6 4 22 4 36 1 17 -5 24 -13 24 -31 0 -22 -4 -25 -39 -25 -22 0 -42 -4 -45
-9 -4 -5 11 -22 31 -38 21 -17 46 -33 56 -36 9 -4 17 -15 17 -25 0 -10 -11
-24 -25 -30 -14 -7 -38 -12 -53 -12 -16 0 -33 -5 -40 -12 -7 -7 -12 -23 -12
-36 0 -23 2 -24 45 -18 36 6 54 3 94 -17 49 -25 49 -25 83 -2 18 12 39 34 46
47 8 14 12 38 10 54 -3 27 -6 29 -55 32 -48 3 -53 5 -53 26 0 12 12 32 26 45
16 14 24 30 22 44 -2 14 -11 23 -25 25 -18 3 -23 10 -23 32 0 15 -6 30 -12 32z
m40 -242 c26 0 33 -4 30 -17 -2 -10 -15 -22 -29 -27 -15 -5 -34 -6 -43 -3 -14
6 -14 10 -4 27 9 14 24 20 46 20z"/>
<path d="M438 462 c-7 2 -21 3 -30 0 -10 -2 -18 -11 -18 -19 0 -9 23 -42 50
-74 28 -32 50 -67 50 -78 0 -12 -6 -31 -12 -43 -7 -13 -39 -55 -71 -95 -32
-40 -62 -73 -68 -73 -5 0 -9 -7 -9 -15 0 -8 6 -15 12 -15 7 0 48 37 91 82 43
45 85 94 95 110 9 15 20 28 24 28 4 0 8 9 8 20 0 11 -4 20 -10 20 -5 0 -10 9
-10 20 0 10 -20 36 -45 57 -25 20 -45 45 -45 54 0 9 -6 19 -12 21z"/>
</g>
</svg>
