<?xml version="1.0" standalone="no"?>
<!DOCTYPE svg PUBLIC "-//W3C//DTD SVG 20010904//EN"
 "http://www.w3.org/TR/2001/REC-SVG-20010904/DTD/svg10.dtd">
<svg version="1.0" xmlns="http://www.w3.org/2000/svg"
 width="56.000000pt" height="56.000000pt" viewBox="0 0 56.000000 56.000000"
 preserveAspectRatio="xMidYMid meet">
<metadata>
Created by potrace 1.16, written by Peter Selinger 2001-2019
</metadata>
<g transform="translate(0.000000,56.000000) scale(0.100000,-0.100000)"
fill="#000000" stroke="none">
<path d="M426 499 c-17 0 -39 -4 -48 -7 -14 -6 -7 -11 27 -23 43 -16 46 -16
55 1 5 9 6 20 3 24 -3 3 -20 6 -37 5z"/>
<path d="M150 468 c-14 2 -34 -4 -45 -12 -11 -9 -30 -16 -42 -16 -12 0 -25 5
-28 10 -3 6 -10 10 -16 10 -5 0 -9 -14 -9 -31 0 -23 11 -41 45 -75 25 -24 45
-48 45 -54 0 -6 -5 -20 -10 -31 -6 -10 -17 -19 -24 -19 -7 0 -25 -9 -40 -21
-20 -16 -26 -29 -26 -60 0 -26 4 -39 14 -39 7 0 33 21 58 48 25 26 58 56 74
68 16 11 37 23 46 27 12 4 21 0 28 -13 5 -10 10 -21 10 -24 0 -3 -10 -14 -22
-25 -14 -14 -29 -19 -45 -15 -23 6 -24 4 -21 -32 3 -35 6 -39 28 -37 14 1 34
3 45 5 17 2 20 -3 20 -32 0 -35 0 -35 48 -38 36 -2 49 1 53 13 4 9 -1 24 -10
34 -9 10 -16 23 -16 29 0 6 11 22 25 36 14 14 40 32 57 41 18 8 60 40 92 70
33 30 63 55 68 55 4 0 8 14 8 31 0 20 -8 39 -22 50 -12 11 -36 19 -59 19 -21
0 -40 -4 -44 -9 -3 -6 7 -16 22 -23 20 -10 29 -22 31 -45 3 -26 -3 -35 -35
-59 -21 -15 -61 -45 -89 -66 -28 -21 -58 -38 -66 -38 -13 0 -15 8 -11 38 5 34
1 42 -23 61 -23 18 -39 22 -79 19 -50 -3 -50 -3 -53 30 -3 26 2 38 23 54 17
13 25 28 23 42 -2 14 -11 22 -28 24z"/>
</g>
</svg>
