<?xml version="1.0" standalone="no"?>
<!DOCTYPE svg PUBLIC "-//W3C//DTD SVG 20010904//EN"
 "http://www.w3.org/TR/2001/REC-SVG-20010904/DTD/svg10.dtd">
<svg version="1.0" xmlns="http://www.w3.org/2000/svg"
 width="56.000000pt" height="56.000000pt" viewBox="0 0 56.000000 56.000000"
 preserveAspectRatio="xMidYMid meet">
<metadata>
Created by potrace 1.16, written by Peter Selinger 2001-2019
</metadata>
<g transform="translate(0.000000,56.000000) scale(0.100000,-0.100000)"
fill="#000000" stroke="none">
<path d="M114 500 c-11 0 -29 -9 -38 -19 -17 -18 -16 -19 2 -25 11 -4 23 -17
26 -29 3 -12 6 -32 6 -44 0 -20 -3 -21 -27 -12 -15 5 -38 7 -51 4 -14 -3 -22
-12 -20 -22 2 -9 14 -24 29 -35 19 -14 31 -17 50 -10 13 5 30 7 37 5 6 -3 12
-13 12 -23 0 -9 -7 -24 -17 -31 -9 -8 -33 -35 -54 -61 -24 -31 -35 -54 -32
-67 3 -11 16 -29 29 -42 24 -22 24 -22 47 -1 20 19 28 20 72 13 28 -5 59 -12
70 -16 14 -4 34 4 62 25 39 29 43 35 43 76 0 25 -7 58 -15 74 -8 16 -24 34
-34 40 -11 5 -33 10 -48 10 -16 0 -34 -5 -40 -11 -6 -6 -16 -8 -22 -5 -6 4
-11 13 -11 21 0 7 11 16 25 19 16 4 25 13 25 26 0 13 -7 20 -18 20 -10 0 -23
5 -30 12 -7 7 -12 20 -12 30 0 10 -6 28 -12 41 -7 12 -17 25 -23 29 -5 4 -19
8 -31 8z m179 -251 c4 0 7 -9 7 -22 0 -15 -12 -32 -32 -48 -18 -13 -48 -29
-66 -35 -18 -7 -34 -8 -37 -4 -3 4 9 23 25 40 17 18 45 41 63 50 18 10 35 18
40 19z"/>
<path d="M338 478 c-48 3 -68 1 -68 -7 0 -6 29 -25 64 -41 35 -16 87 -45 116
-65 28 -19 58 -35 65 -35 7 0 20 3 29 6 9 3 16 12 16 18 0 7 -12 24 -27 39
-16 14 -50 38 -78 53 -35 18 -71 28 -117 32z"/>
</g>
</svg>
