<?xml version="1.0" standalone="no"?>
<!DOCTYPE svg PUBLIC "-//W3C//DTD SVG 20010904//EN"
 "http://www.w3.org/TR/2001/REC-SVG-20010904/DTD/svg10.dtd">
<svg version="1.0" xmlns="http://www.w3.org/2000/svg"
 width="56.000000pt" height="56.000000pt" viewBox="0 0 56.000000 56.000000"
 preserveAspectRatio="xMidYMid meet">
<metadata>
Created by potrace 1.16, written by Peter Selinger 2001-2019
</metadata>
<g transform="translate(0.000000,56.000000) scale(0.100000,-0.100000)"
fill="#000000" stroke="none">
<path d="M145 446 c-16 10 -23 10 -37 0 -10 -8 -18 -26 -18 -44 0 -18 -6 -32
-16 -36 -9 -3 -27 -6 -40 -6 -13 0 -24 -6 -24 -12 0 -7 11 -25 25 -40 19 -23
29 -27 54 -22 29 6 31 5 31 -25 0 -25 -5 -32 -27 -36 -16 -4 -43 -13 -61 -20
-20 -9 -32 -22 -32 -34 0 -10 8 -29 19 -42 19 -23 19 -23 52 2 19 15 54 36 78
48 29 15 47 19 54 12 5 -5 7 -16 5 -23 -3 -7 -26 -24 -52 -36 -25 -13 -46 -28
-46 -33 0 -5 21 -9 46 -9 37 0 56 7 99 37 31 22 55 47 58 60 2 13 -1 29 -7 37
-6 7 -24 20 -41 29 -16 9 -42 18 -57 21 -19 5 -26 11 -21 22 3 8 18 18 34 21
19 4 29 12 29 24 0 10 -10 21 -22 25 -15 4 -25 1 -34 -11 -7 -9 -18 -14 -24
-10 -7 4 -10 25 -8 47 2 32 -1 43 -17 54z"/>
<path d="M304 450 c-8 0 -14 -8 -14 -18 0 -10 5 -23 12 -30 7 -7 20 -12 31
-12 10 0 34 -12 53 -27 20 -16 42 -40 50 -55 8 -15 14 -35 14 -44 0 -9 12 -32
26 -51 25 -33 25 -33 54 -11 16 13 29 33 29 45 1 12 -18 42 -41 69 -24 25 -61
59 -83 74 -22 15 -55 31 -72 34 -18 4 -35 12 -38 17 -4 5 -13 9 -21 9z"/>
</g>
</svg>
