<?xml version="1.0" standalone="no"?>
<!DOCTYPE svg PUBLIC "-//W3C//DTD SVG 20010904//EN"
 "http://www.w3.org/TR/2001/REC-SVG-20010904/DTD/svg10.dtd">
<svg version="1.0" xmlns="http://www.w3.org/2000/svg"
 width="56.000000pt" height="56.000000pt" viewBox="0 0 56.000000 56.000000"
 preserveAspectRatio="xMidYMid meet">
<metadata>
Created by potrace 1.16, written by Peter Selinger 2001-2019
</metadata>
<g transform="translate(0.000000,56.000000) scale(0.100000,-0.100000)"
fill="#000000" stroke="none">
<path d="M437 510 c-13 0 -37 -14 -55 -32 -17 -18 -40 -53 -51 -78 -10 -25
-22 -70 -26 -100 -6 -48 -11 -59 -38 -76 -18 -11 -58 -37 -91 -58 -32 -21 -62
-34 -66 -29 -4 4 0 39 9 77 11 44 25 75 39 86 12 10 22 25 22 33 0 9 -12 25
-27 37 -28 22 -28 22 -51 -5 -19 -23 -25 -25 -38 -14 -9 7 -20 24 -25 37 -5
13 -15 22 -22 20 -6 -3 -13 -16 -15 -30 -2 -17 8 -38 31 -65 33 -40 33 -43 26
-101 -4 -38 -15 -71 -28 -88 -11 -15 -21 -40 -21 -55 0 -25 4 -29 26 -29 15 0
57 21 96 46 38 25 72 44 75 41 3 -3 -5 -22 -17 -42 -12 -20 -19 -39 -16 -42 4
-4 27 -8 53 -10 25 -1 50 0 54 3 5 2 -1 14 -11 24 -20 20 -20 20 5 70 14 28
32 50 41 50 9 0 29 -14 45 -31 24 -26 33 -30 60 -24 17 4 48 16 68 28 20 11
44 29 54 38 9 10 17 27 17 37 0 12 -14 25 -39 37 -33 15 -45 15 -76 5 -26 -9
-40 -9 -48 -1 -7 7 6 29 46 74 31 35 59 75 62 90 5 20 1 32 -19 51 -14 15 -36
26 -49 26z m-3 -60 c9 0 16 -2 16 -4 0 -3 -16 -31 -35 -64 -19 -32 -41 -65
-50 -72 -8 -7 -18 -10 -21 -7 -4 3 -3 23 1 43 4 23 20 51 40 71 18 18 40 33
49 33z m-4 -221 c8 0 21 -3 29 -8 12 -8 12 -12 2 -25 -8 -9 -22 -16 -31 -16
-10 0 -25 3 -34 6 -9 3 -16 12 -16 19 0 8 8 16 18 18 9 3 24 5 32 6z"/>
</g>
</svg>
