<?xml version="1.0" standalone="no"?>
<!DOCTYPE svg PUBLIC "-//W3C//DTD SVG 20010904//EN"
 "http://www.w3.org/TR/2001/REC-SVG-20010904/DTD/svg10.dtd">
<svg version="1.0" xmlns="http://www.w3.org/2000/svg"
 width="56.000000pt" height="56.000000pt" viewBox="0 0 56.000000 56.000000"
 preserveAspectRatio="xMidYMid meet">
<metadata>
Created by potrace 1.16, written by Peter Selinger 2001-2019
</metadata>
<g transform="translate(0.000000,56.000000) scale(0.100000,-0.100000)"
fill="#000000" stroke="none">
<path d="M152 478 c-21 3 -22 1 -16 -35 4 -29 2 -42 -10 -52 -9 -8 -26 -11
-40 -7 -14 3 -32 13 -41 22 -8 9 -22 13 -30 10 -13 -4 -12 -12 6 -46 12 -22
24 -42 28 -44 4 -3 23 -1 43 3 20 5 40 6 46 2 5 -3 10 -30 11 -59 0 -41 -4
-56 -19 -70 -11 -9 -37 -19 -58 -22 -35 -5 -37 -7 -40 -44 -3 -36 -2 -38 20
-32 13 3 26 6 30 6 4 0 10 9 13 21 5 15 10 17 20 9 7 -6 16 -22 19 -35 4 -15
16 -27 32 -31 17 -4 40 1 69 15 23 11 47 21 54 21 6 0 11 -11 11 -25 0 -19 4
-23 18 -18 9 3 41 17 69 30 29 14 59 23 68 20 8 -4 17 -2 20 3 4 6 12 10 20
10 8 0 26 11 40 25 14 14 25 35 25 45 0 11 -4 20 -10 20 -5 0 -18 17 -29 38
-11 21 -38 55 -62 75 -23 20 -46 37 -51 37 -5 0 -6 -10 -2 -22 3 -13 14 -34
24 -48 9 -14 19 -32 23 -41 3 -9 -3 -30 -13 -46 -10 -16 -38 -46 -62 -66 -25
-21 -50 -37 -57 -37 -6 0 -11 10 -10 23 1 12 1 30 1 39 -1 10 -14 21 -29 24
-14 4 -40 7 -57 8 -26 1 -31 6 -37 34 -4 18 -2 35 2 38 5 3 8 17 7 31 -3 22 2
28 30 35 17 5 32 12 32 17 0 5 -11 16 -24 24 -13 9 -32 33 -42 54 -12 25 -27
39 -42 41z m76 -308 c6 0 12 -7 12 -15 0 -8 -9 -19 -19 -25 -11 -5 -24 -10
-30 -10 -6 0 -11 7 -11 15 0 7 8 19 18 24 9 6 23 11 30 11z"/>
</g>
</svg>
