<?xml version="1.0" standalone="no"?>
<!DOCTYPE svg PUBLIC "-//W3C//DTD SVG 20010904//EN"
 "http://www.w3.org/TR/2001/REC-SVG-20010904/DTD/svg10.dtd">
<svg version="1.0" xmlns="http://www.w3.org/2000/svg"
 width="56.000000pt" height="56.000000pt" viewBox="0 0 56.000000 56.000000"
 preserveAspectRatio="xMidYMid meet">
<metadata>
Created by potrace 1.16, written by Peter Selinger 2001-2019
</metadata>
<g transform="translate(0.000000,56.000000) scale(0.100000,-0.100000)"
fill="#000000" stroke="none">
<path d="M322 515 c-77 7 -84 6 -80 -10 1 -10 10 -21 18 -25 8 -4 38 -18 66
-30 28 -12 60 -20 70 -18 12 2 20 13 22 32 2 16 0 32 -5 36 -4 4 -46 11 -91
15z"/>
<path d="M122 498 c-9 5 -25 7 -34 5 -11 -3 -18 -14 -18 -28 0 -12 7 -28 15
-35 8 -6 17 -21 21 -32 4 -13 -2 -28 -17 -44 -12 -13 -32 -24 -43 -24 -12 0
-28 -4 -36 -10 -8 -5 -11 -13 -6 -17 4 -4 33 -10 64 -13 57 -5 57 -5 58 -65 1
-33 0 -67 -2 -75 -2 -8 -22 -26 -44 -40 -22 -14 -40 -28 -40 -32 0 -3 3 -13 6
-22 3 -9 16 -16 28 -16 13 0 38 19 66 50 24 28 47 50 51 50 4 0 22 14 40 31
33 31 33 31 51 8 18 -21 18 -23 -3 -46 -22 -23 -22 -23 5 -23 18 0 26 -5 24
-12 -3 -7 -15 -18 -29 -25 -13 -7 -24 -18 -24 -25 0 -8 10 -12 25 -10 13 1 33
11 45 21 11 10 37 25 58 35 20 9 35 21 32 27 -4 5 -13 9 -21 9 -8 0 -17 8 -21
18 -3 9 -22 34 -41 55 -20 20 -42 37 -50 37 -8 0 -32 -14 -54 -31 -26 -21 -43
-28 -49 -22 -6 6 -9 34 -7 64 3 47 6 54 25 57 12 2 27 10 33 17 10 12 8 16 -6
22 -11 3 -23 12 -27 20 -4 7 -12 13 -17 13 -5 0 -11 -8 -13 -17 -3 -10 -5 -5
-6 12 -1 17 -6 47 -11 67 -6 21 -19 42 -28 46z"/>
<path d="M351 380 c-12 0 -21 -6 -21 -15 0 -8 5 -15 12 -15 6 0 26 -11 44 -25
18 -14 37 -25 43 -25 5 0 19 -15 30 -34 12 -18 21 -42 21 -54 0 -11 -11 -27
-25 -36 -14 -9 -25 -23 -25 -31 0 -8 9 -15 19 -15 11 0 23 5 27 11 3 6 17 8
29 5 13 -3 31 -3 39 0 11 4 16 18 15 43 0 31 -8 42 -49 76 -27 22 -49 46 -49
53 -1 7 -9 15 -18 19 -10 3 -30 15 -45 25 -14 10 -36 18 -47 18z"/>
</g>
</svg>
