<?xml version="1.0" standalone="no"?>
<!DOCTYPE svg PUBLIC "-//W3C//DTD SVG 20010904//EN"
 "http://www.w3.org/TR/2001/REC-SVG-20010904/DTD/svg10.dtd">
<svg version="1.0" xmlns="http://www.w3.org/2000/svg"
 width="56.000000pt" height="56.000000pt" viewBox="0 0 56.000000 56.000000"
 preserveAspectRatio="xMidYMid meet">
<metadata>
Created by potrace 1.16, written by Peter Selinger 2001-2019
</metadata>
<g transform="translate(0.000000,56.000000) scale(0.100000,-0.100000)"
fill="#000000" stroke="none">
<path d="M115 500 c-1 0 -8 -6 -15 -14 -6 -8 -10 -24 -8 -35 2 -13 -8 -27 -32
-43 -20 -14 -35 -32 -35 -43 0 -15 7 -20 25 -20 21 0 25 -4 23 -29 -1 -16 -9
-36 -18 -46 -8 -9 -15 -21 -15 -27 0 -5 -9 -18 -20 -28 -12 -11 -20 -31 -20
-52 0 -26 4 -33 19 -33 11 0 23 5 26 10 3 5 15 10 26 10 10 0 19 -6 19 -14 0
-7 9 -25 21 -40 12 -16 30 -26 46 -26 16 0 38 13 58 35 21 22 36 49 40 75 5
30 2 48 -12 71 -10 18 -26 37 -35 43 -13 8 -25 6 -49 -8 -19 -11 -34 -15 -40
-9 -5 5 -3 27 7 56 11 33 25 52 50 66 30 18 33 24 24 41 -6 11 -20 20 -30 20
-11 0 -20 6 -20 14 0 8 -7 17 -16 20 -9 3 -17 6 -19 6z m54 -250 c10 0 23 -11
29 -25 7 -14 12 -32 12 -39 0 -7 -9 -21 -19 -30 -11 -10 -28 -16 -38 -14 -9 2
-22 15 -27 30 -7 20 -5 33 8 52 9 14 25 26 35 26z"/>
<path d="M407 410 c-9 0 -18 -4 -21 -9 -3 -5 -15 -7 -26 -4 -11 3 -37 -3 -57
-13 -38 -19 -38 -19 5 -22 24 -2 49 2 56 8 8 5 20 8 27 5 8 -3 25 -22 39 -42
14 -20 30 -43 35 -52 6 -9 18 -28 28 -43 12 -18 27 -28 43 -28 22 0 24 4 24
45 0 39 -6 52 -36 85 -20 21 -51 46 -69 54 -18 9 -40 16 -48 16z"/>
</g>
</svg>
