<?xml version="1.0" standalone="no"?>
<!DOCTYPE svg PUBLIC "-//W3C//DTD SVG 20010904//EN"
 "http://www.w3.org/TR/2001/REC-SVG-20010904/DTD/svg10.dtd">
<svg version="1.0" xmlns="http://www.w3.org/2000/svg"
 width="56.000000pt" height="56.000000pt" viewBox="0 0 56.000000 56.000000"
 preserveAspectRatio="xMidYMid meet">
<metadata>
Created by potrace 1.16, written by Peter Selinger 2001-2019
</metadata>
<g transform="translate(0.000000,56.000000) scale(0.100000,-0.100000)"
fill="#000000" stroke="none">
<path d="M496 520 c-36 0 -68 -4 -71 -10 -3 -5 -3 -15 0 -20 4 -7 -2 -9 -19
-4 -20 5 -26 2 -26 -10 0 -9 7 -19 16 -23 8 -3 28 -6 42 -5 15 0 39 0 54 1 17
1 29 8 33 21 3 11 13 20 21 20 8 0 14 7 14 15 0 12 -14 15 -64 15z"/>
<path d="M110 504 c-19 3 -41 2 -48 -3 -7 -4 -20 -20 -28 -36 -8 -15 -14 -31
-14 -36 0 -5 9 0 20 11 15 15 25 18 38 11 10 -5 24 -21 32 -35 12 -24 11 -29
-7 -54 -14 -18 -29 -27 -49 -27 -26 0 -29 4 -32 38 -2 20 -7 37 -13 37 -5 0
-9 -16 -9 -35 0 -21 8 -44 22 -60 12 -14 28 -25 35 -25 7 0 13 -7 13 -16 0 -8
-5 -25 -11 -37 -6 -12 -20 -32 -31 -44 -11 -12 -17 -26 -13 -33 4 -7 17 -2 37
15 16 14 39 25 51 25 12 1 33 7 47 15 14 8 33 14 43 15 10 0 17 -7 17 -19 0
-11 -13 -31 -30 -44 -16 -14 -38 -28 -47 -30 -10 -3 -35 -8 -55 -12 -21 -3
-40 -10 -44 -16 -3 -6 4 -21 17 -35 12 -13 28 -24 35 -24 7 0 37 14 66 31 29
17 68 47 85 66 18 19 33 43 33 53 0 10 -7 26 -16 34 -8 9 -25 21 -37 28 -12 6
-33 11 -47 12 -14 1 -24 4 -22 9 1 4 2 16 2 26 0 11 6 26 13 33 7 7 13 38 14
69 2 43 -2 60 -15 71 -9 9 -33 18 -52 22z"/>
<path d="M263 419 c-10 0 -24 -3 -31 -6 -6 -2 -10 -9 -6 -14 3 -5 16 -9 30 -9
15 0 24 6 24 15 0 8 -8 15 -17 14z"/>
<path d="M209 390 c-5 0 -9 -7 -9 -15 0 -9 9 -15 21 -15 18 0 19 2 9 15 -7 8
-16 15 -21 15z"/>
<path d="M403 383 c-25 4 -44 3 -48 -3 -3 -5 -3 -14 0 -20 3 -5 12 -10 20 -10
7 0 36 -10 63 -22 27 -12 55 -30 61 -40 6 -9 8 -24 5 -31 -3 -8 -30 -31 -60
-52 -30 -21 -59 -46 -65 -57 -5 -10 -18 -18 -27 -18 -10 0 -35 -16 -56 -35
-21 -19 -47 -35 -57 -35 -11 0 -19 -7 -19 -15 0 -8 8 -15 19 -15 10 0 24 7 31
15 7 8 19 15 27 15 8 0 29 8 46 18 18 9 34 20 35 25 2 4 16 7 31 7 15 0 47 13
72 29 24 17 52 36 62 44 12 10 17 28 17 61 0 36 -6 53 -27 77 -16 17 -41 36
-58 43 -16 7 -49 16 -72 19z"/>
</g>
</svg>
