<?xml version="1.0" standalone="no"?>
<!DOCTYPE svg PUBLIC "-//W3C//DTD SVG 20010904//EN"
 "http://www.w3.org/TR/2001/REC-SVG-20010904/DTD/svg10.dtd">
<svg version="1.0" xmlns="http://www.w3.org/2000/svg"
 width="56.000000pt" height="56.000000pt" viewBox="0 0 56.000000 56.000000"
 preserveAspectRatio="xMidYMid meet">
<metadata>
Created by potrace 1.16, written by Peter Selinger 2001-2019
</metadata>
<g transform="translate(0.000000,56.000000) scale(0.100000,-0.100000)"
fill="#000000" stroke="none">
<path d="M118 498 c-9 2 -18 -5 -22 -14 -4 -10 -2 -22 4 -28 5 -5 10 -29 10
-52 0 -26 -5 -44 -14 -47 -7 -3 -32 -3 -55 0 -35 5 -41 3 -41 -12 0 -10 8 -24
18 -31 9 -7 29 -14 43 -14 14 0 29 -3 32 -7 4 -3 -11 -39 -33 -78 -22 -40 -40
-78 -40 -84 0 -6 8 -11 18 -11 10 0 40 -17 66 -37 47 -37 47 -37 93 -12 24 13
48 31 52 39 5 8 11 35 15 59 6 37 3 48 -15 68 -20 20 -29 22 -70 17 -41 -5
-49 -4 -58 14 -6 12 -8 23 -4 25 5 2 33 5 63 6 31 1 61 8 69 16 7 7 11 21 7
30 -4 12 -16 16 -43 13 -38 -3 -38 -3 -39 40 -1 26 -9 54 -21 70 -11 15 -27
28 -35 30z m58 -289 c6 0 19 -8 29 -19 16 -18 17 -22 4 -35 -8 -7 -32 -15 -54
-17 -27 -2 -40 1 -39 10 1 6 2 18 3 25 0 7 11 17 24 23 12 7 27 12 33 13z"/>
<path d="M329 460 c-26 0 -51 -5 -54 -10 -3 -6 8 -18 26 -28 18 -9 66 -44 107
-77 43 -34 84 -76 95 -97 12 -24 26 -38 38 -38 15 0 19 7 19 40 0 23 -7 49
-17 62 -10 12 -30 33 -44 47 -14 14 -47 43 -74 64 -40 31 -56 37 -96 37z"/>
</g>
</svg>
