<?xml version="1.0" standalone="no"?>
<!DOCTYPE svg PUBLIC "-//W3C//DTD SVG 20010904//EN"
 "http://www.w3.org/TR/2001/REC-SVG-20010904/DTD/svg10.dtd">
<svg version="1.0" xmlns="http://www.w3.org/2000/svg"
 width="56.000000pt" height="56.000000pt" viewBox="0 0 56.000000 56.000000"
 preserveAspectRatio="xMidYMid meet">
<metadata>
Created by potrace 1.16, written by Peter Selinger 2001-2019
</metadata>
<g transform="translate(0.000000,56.000000) scale(0.100000,-0.100000)"
fill="#000000" stroke="none">
<path d="M163 518 c-16 2 -22 -3 -25 -20 -2 -19 -8 -22 -33 -20 -16 2 -39 4
-50 5 -11 1 -21 -5 -23 -14 -1 -9 9 -34 23 -55 15 -22 35 -42 44 -46 10 -3 20
-18 23 -31 3 -14 3 -39 0 -56 -3 -24 -9 -31 -27 -31 -13 0 -32 -8 -43 -17 -11
-10 -27 -29 -36 -43 -15 -24 -14 -28 26 -88 23 -34 49 -62 58 -62 8 1 26 7 39
14 13 7 33 11 43 8 11 -2 32 5 48 16 15 12 39 24 53 27 14 4 33 15 42 25 10
11 14 24 9 32 -4 7 -7 25 -6 41 1 16 -7 44 -18 62 -13 21 -32 36 -51 40 -20 5
-38 1 -55 -9 -22 -15 -25 -15 -31 0 -3 9 -1 35 4 58 6 22 17 55 23 72 11 25
10 35 -1 60 -8 16 -24 30 -36 32z m23 -278 c12 0 35 -5 49 -10 23 -9 26 -14
20 -38 -3 -15 -12 -33 -19 -40 -10 -10 -18 -10 -41 2 -15 8 -31 20 -35 26 -4
6 -5 22 -2 36 3 17 11 24 28 24z m-14 -88 c6 -6 8 -18 4 -28 -5 -13 -10 -14
-18 -6 -6 6 -8 18 -4 28 5 13 10 14 18 6z"/>
<path d="M516 470 c-6 0 0 -9 13 -21 12 -12 25 -18 28 -15 4 3 -2 13 -13 21
-10 8 -23 15 -28 15z"/>
<path d="M438 375 c-8 3 -22 -3 -31 -13 -14 -15 -15 -21 -5 -30 7 -5 37 -26
67 -46 29 -20 62 -36 72 -36 15 0 19 7 19 33 0 27 -7 37 -42 60 -23 15 -47 27
-54 27 -7 0 -19 2 -26 5z"/>
</g>
</svg>
