<?xml version="1.0" standalone="no"?>
<!DOCTYPE svg PUBLIC "-//W3C//DTD SVG 20010904//EN"
 "http://www.w3.org/TR/2001/REC-SVG-20010904/DTD/svg10.dtd">
<svg version="1.0" xmlns="http://www.w3.org/2000/svg"
 width="56.000000pt" height="56.000000pt" viewBox="0 0 56.000000 56.000000"
 preserveAspectRatio="xMidYMid meet">
<metadata>
Created by potrace 1.16, written by Peter Selinger 2001-2019
</metadata>
<g transform="translate(0.000000,56.000000) scale(0.100000,-0.100000)"
fill="#000000" stroke="none">
<path d="M185 455 c-12 6 -39 9 -65 6 -25 -4 -44 -10 -43 -16 1 -5 17 -12 34
-15 18 -3 37 -13 43 -22 7 -12 7 -21 0 -28 -5 -5 -33 -14 -62 -20 -29 -5 -62
-15 -73 -21 -20 -10 -20 -11 12 -35 18 -13 41 -24 50 -24 10 0 21 -5 24 -11 4
-6 -2 -21 -14 -33 -12 -12 -21 -34 -21 -48 0 -15 3 -33 6 -42 3 -9 16 -16 29
-16 12 0 44 11 70 26 26 14 55 22 63 19 12 -4 7 -13 -21 -36 -20 -17 -37 -37
-37 -45 0 -9 11 -14 31 -14 17 0 40 5 52 12 12 6 40 26 61 45 22 18 45 33 51
33 6 0 36 18 66 40 30 21 69 49 86 62 25 18 33 30 33 56 0 17 -4 32 -8 32 -5
0 -14 11 -20 25 -6 13 -26 31 -44 38 -18 8 -50 12 -70 9 -24 -3 -38 -9 -38
-18 0 -8 8 -17 18 -20 9 -3 26 -10 37 -15 11 -5 32 -13 48 -19 15 -5 27 -14
27 -19 0 -5 -15 -20 -32 -32 -18 -12 -37 -27 -43 -33 -5 -6 -26 -23 -45 -37
-19 -14 -52 -32 -72 -39 -21 -8 -40 -11 -43 -8 -4 3 -1 15 6 26 10 16 10 26 1
46 -8 18 -20 26 -44 28 -20 2 -33 8 -33 17 0 8 21 21 50 30 31 10 51 22 53 34
2 11 -5 20 -20 26 -16 6 -30 5 -45 -5 -21 -13 -23 -12 -31 17 -4 18 -17 37
-27 44z"/>
</g>
</svg>
