<?xml version="1.0" standalone="no"?>
<!DOCTYPE svg PUBLIC "-//W3C//DTD SVG 20010904//EN"
 "http://www.w3.org/TR/2001/REC-SVG-20010904/DTD/svg10.dtd">
<svg version="1.0" xmlns="http://www.w3.org/2000/svg"
 width="56.000000pt" height="56.000000pt" viewBox="0 0 56.000000 56.000000"
 preserveAspectRatio="xMidYMid meet">
<metadata>
Created by potrace 1.16, written by Peter Selinger 2001-2019
</metadata>
<g transform="translate(0.000000,56.000000) scale(0.100000,-0.100000)"
fill="#000000" stroke="none">
<path d="M398 520 c-9 0 -19 -4 -22 -9 -3 -4 2 -15 12 -23 9 -7 30 -20 46 -28
16 -8 38 -27 49 -42 12 -16 27 -28 35 -28 7 0 20 6 28 14 8 8 14 21 14 28 0 7
-16 24 -35 37 -19 13 -51 29 -72 37 -21 7 -46 13 -55 14z"/>
<path d="M145 460 c-6 0 -16 -5 -23 -12 -7 -7 -12 -20 -12 -30 0 -9 -9 -22
-19 -28 -11 -5 -36 -13 -56 -18 -37 -7 -37 -7 -15 -35 13 -16 31 -27 46 -27
21 0 24 -4 24 -40 0 -32 -9 -53 -45 -101 -25 -34 -45 -67 -45 -74 0 -8 6 -20
14 -28 9 -9 26 -12 41 -9 18 3 30 -1 39 -13 8 -11 20 -16 30 -12 14 6 16 26
16 150 0 129 2 147 20 170 11 14 20 38 20 54 0 16 -5 34 -12 41 -7 7 -17 12
-23 12z"/>
<path d="M376 290 c-3 0 -6 -10 -6 -22 0 -13 9 -34 20 -48 11 -14 20 -30 20
-37 0 -6 -21 -22 -47 -36 -27 -13 -62 -32 -80 -41 -17 -9 -38 -27 -46 -40 -9
-13 -13 -26 -10 -30 4 -3 21 -6 38 -6 28 0 33 4 39 30 3 17 11 30 18 30 7 0
24 9 38 20 14 11 37 20 53 20 15 0 45 6 67 12 24 8 43 21 46 32 5 13 -1 26
-16 38 -12 10 -33 18 -46 18 -13 0 -36 13 -52 30 -16 17 -32 30 -36 30z"/>
</g>
</svg>
