<?xml version="1.0" standalone="no"?>
<!DOCTYPE svg PUBLIC "-//W3C//DTD SVG 20010904//EN"
 "http://www.w3.org/TR/2001/REC-SVG-20010904/DTD/svg10.dtd">
<svg version="1.0" xmlns="http://www.w3.org/2000/svg"
 width="56.000000pt" height="56.000000pt" viewBox="0 0 56.000000 56.000000"
 preserveAspectRatio="xMidYMid meet">
<metadata>
Created by potrace 1.16, written by Peter Selinger 2001-2019
</metadata>
<g transform="translate(0.000000,56.000000) scale(0.100000,-0.100000)"
fill="#000000" stroke="none">
<path d="M142 500 c-10 0 -22 -3 -25 -7 -4 -3 -7 -35 -7 -71 0 -64 0 -64 -30
-58 -22 4 -32 1 -36 -9 -4 -8 1 -26 10 -40 9 -14 25 -25 36 -25 13 0 22 -9 26
-25 3 -14 3 -45 0 -69 -6 -40 -10 -45 -39 -51 -18 -4 -42 -16 -54 -28 -13 -11
-23 -27 -23 -35 0 -11 9 -13 41 -9 29 4 49 1 65 -10 17 -11 35 -13 61 -9 21 4
55 8 75 10 26 2 46 11 63 30 14 15 25 33 25 40 0 8 7 16 15 20 9 3 15 18 15
34 0 16 -8 36 -18 45 -10 10 -26 17 -35 17 -12 0 -17 -8 -17 -28 0 -15 -8 -39
-17 -52 -10 -14 -29 -35 -43 -47 -14 -12 -35 -23 -47 -23 -20 0 -23 5 -23 34
0 19 4 37 8 40 4 2 7 39 6 80 -2 68 0 79 22 105 15 18 20 32 14 36 -5 3 -14 4
-19 0 -6 -3 -15 11 -20 32 -6 21 -11 46 -11 56 0 10 -8 17 -18 17z"/>
<path d="M395 400 c-8 0 -16 -4 -19 -9 -3 -4 3 -16 13 -25 17 -16 19 -16 25
-1 3 9 4 21 0 26 -3 5 -11 9 -19 9z"/>
<path d="M457 383 c-11 4 -20 1 -23 -8 -4 -9 9 -32 32 -58 21 -23 47 -47 58
-54 12 -7 24 -12 29 -13 4 0 7 14 7 30 0 18 -9 39 -22 53 -13 12 -32 27 -43
33 -11 5 -28 13 -38 17z"/>
<path d="M248 250 c-7 0 -18 -4 -24 -8 -6 -4 -13 -15 -17 -24 -4 -12 -2 -18 8
-18 7 0 21 7 29 16 9 8 16 20 16 25 0 5 -6 9 -12 9z"/>
</g>
</svg>
