<?xml version="1.0" standalone="no"?>
<!DOCTYPE svg PUBLIC "-//W3C//DTD SVG 20010904//EN"
 "http://www.w3.org/TR/2001/REC-SVG-20010904/DTD/svg10.dtd">
<svg version="1.0" xmlns="http://www.w3.org/2000/svg"
 width="56.000000pt" height="56.000000pt" viewBox="0 0 56.000000 56.000000"
 preserveAspectRatio="xMidYMid meet">
<metadata>
Created by potrace 1.16, written by Peter Selinger 2001-2019
</metadata>
<g transform="translate(0.000000,56.000000) scale(0.100000,-0.100000)"
fill="#000000" stroke="none">
<path d="M174 516 c-26 11 -35 10 -54 -3 -23 -16 -23 -16 -3 -32 11 -10 22
-34 25 -58 5 -37 3 -42 -17 -47 -13 -3 -32 -3 -42 1 -10 4 -27 15 -37 25 -11
10 -23 18 -27 18 -4 0 -10 -4 -13 -8 -3 -5 1 -26 8 -48 9 -25 26 -47 50 -63
20 -13 36 -32 36 -41 0 -9 -6 -22 -12 -29 -11 -10 -8 -16 12 -32 24 -20 24
-20 2 -14 -16 5 -30 -1 -52 -24 -30 -30 -30 -30 -9 -65 11 -20 23 -36 26 -36
2 0 24 9 49 20 24 11 44 26 44 33 0 7 -5 18 -12 25 -6 6 -8 15 -4 19 4 4 15 2
26 -5 11 -6 22 -8 25 -3 3 5 20 13 38 16 17 4 39 14 48 21 9 8 23 12 31 9 13
-5 14 -14 6 -48 -5 -23 -11 -44 -14 -47 -3 -3 -33 -7 -67 -10 -33 -3 -62 -10
-64 -16 -2 -6 16 -18 39 -28 24 -9 60 -16 79 -16 24 0 42 7 56 23 11 12 28 46
37 74 13 43 14 57 4 72 -7 11 -26 28 -43 37 -28 15 -34 15 -78 0 -26 -9 -55
-16 -64 -16 -13 0 -14 3 -5 12 7 7 12 20 12 30 0 11 14 23 36 33 24 10 34 20
32 32 -2 9 -14 20 -28 23 -17 4 -24 13 -23 26 0 10 3 28 6 39 3 11 -3 35 -12
54 -9 21 -28 40 -47 47z"/>
<path d="M520 467 c-36 9 -44 8 -90 -21 -27 -17 -50 -36 -50 -43 0 -6 4 -14 8
-17 4 -2 29 0 55 6 37 8 53 6 78 -6 18 -9 34 -16 36 -16 1 0 3 19 3 43 0 42
-1 43 -40 54z"/>
</g>
</svg>
