<?xml version="1.0" standalone="no"?>
<!DOCTYPE svg PUBLIC "-//W3C//DTD SVG 20010904//EN"
 "http://www.w3.org/TR/2001/REC-SVG-20010904/DTD/svg10.dtd">
<svg version="1.0" xmlns="http://www.w3.org/2000/svg"
 width="56.000000pt" height="56.000000pt" viewBox="0 0 56.000000 56.000000"
 preserveAspectRatio="xMidYMid meet">
<metadata>
Created by potrace 1.16, written by Peter Selinger 2001-2019
</metadata>
<g transform="translate(0.000000,56.000000) scale(0.100000,-0.100000)"
fill="#000000" stroke="none">
<path d="M150 480 c-3 -1 -17 -8 -32 -16 -16 -8 -28 -17 -28 -19 0 -2 14 -11
30 -20 20 -10 30 -23 30 -38 0 -18 -9 -25 -43 -35 -24 -7 -50 -10 -59 -7 -9 4
-18 0 -21 -9 -3 -8 0 -20 8 -26 8 -7 28 -9 49 -4 23 4 42 2 51 -6 10 -9 15
-32 15 -76 0 -57 -3 -65 -26 -80 -14 -10 -47 -19 -75 -22 -31 -3 -49 -9 -49
-18 0 -7 7 -20 16 -28 8 -9 17 -16 19 -16 3 0 23 9 45 21 22 12 47 19 55 15
10 -3 15 -19 15 -42 0 -24 4 -34 13 -32 6 3 17 27 23 54 7 37 17 52 37 64 24
13 29 13 36 1 6 -10 0 -32 -21 -68 -27 -48 -28 -54 -12 -60 11 -4 23 1 36 16
10 13 18 29 18 36 0 8 11 26 24 42 13 15 25 37 27 48 2 11 15 23 29 28 15 5
36 5 52 -2 18 -7 26 -15 22 -25 -3 -8 -26 -23 -50 -32 -25 -9 -43 -22 -41 -28
2 -6 17 -10 33 -9 16 1 47 7 69 13 22 7 47 15 55 19 8 5 16 19 18 33 2 19 -5
31 -27 47 -17 12 -53 25 -81 28 -47 5 -51 8 -45 27 3 12 9 40 12 64 4 28 2 42
-6 42 -6 0 -22 -10 -36 -22 -20 -17 -25 -31 -25 -68 0 -25 -5 -51 -12 -58 -7
-7 -19 -12 -27 -12 -9 0 -28 -6 -43 -14 -20 -11 -29 -11 -36 -3 -5 7 -7 43 -4
80 4 65 6 69 33 79 16 6 34 18 39 28 6 10 10 21 10 24 0 3 -9 6 -19 6 -11 0
-23 -5 -26 -10 -4 -6 -11 -8 -16 -5 -5 4 -9 19 -9 35 0 18 -8 34 -22 44 -12 9
-25 16 -28 16z"/>
</g>
</svg>
