<?xml version="1.0" standalone="no"?>
<!DOCTYPE svg PUBLIC "-//W3C//DTD SVG 20010904//EN"
 "http://www.w3.org/TR/2001/REC-SVG-20010904/DTD/svg10.dtd">
<svg version="1.0" xmlns="http://www.w3.org/2000/svg"
 width="56.000000pt" height="56.000000pt" viewBox="0 0 56.000000 56.000000"
 preserveAspectRatio="xMidYMid meet">
<metadata>
Created by potrace 1.16, written by Peter Selinger 2001-2019
</metadata>
<g transform="translate(0.000000,56.000000) scale(0.100000,-0.100000)"
fill="#000000" stroke="none">
<path d="M124 467 c-21 10 -26 10 -31 -2 -3 -9 2 -30 11 -49 9 -19 16 -41 16
-49 0 -8 -13 -17 -30 -20 -16 -4 -36 -4 -44 -1 -8 3 -17 1 -21 -5 -3 -6 -2
-19 4 -28 6 -12 22 -18 48 -18 36 0 38 -2 41 -34 2 -18 -1 -38 -7 -44 -6 -6
-32 -14 -59 -17 -40 -4 -47 -9 -50 -29 -2 -13 1 -28 6 -33 6 -6 25 -5 51 3 41
12 43 11 64 -13 12 -14 32 -31 44 -37 12 -6 39 -11 61 -11 25 0 49 8 66 21 19
15 26 30 26 54 0 18 -7 39 -16 46 -9 7 -31 18 -49 25 -22 7 -39 8 -51 1 -13
-7 -21 -5 -31 9 -7 10 -13 23 -13 28 0 6 4 18 10 26 6 10 22 13 49 11 30 -2
41 1 41 12 0 8 -8 21 -18 30 -10 10 -24 17 -30 17 -7 0 -12 7 -12 16 0 9 -12
30 -26 47 -14 17 -37 37 -50 44z m101 -274 c16 -3 32 -7 33 -9 2 -1 1 -11 -2
-22 -4 -12 -19 -22 -38 -26 -18 -3 -37 -1 -44 5 -8 6 -14 17 -14 25 0 7 8 17
17 23 10 5 31 7 48 4z"/>
<path d="M283 458 c-10 5 -24 7 -30 5 -7 -3 -13 -11 -13 -18 0 -7 14 -25 32
-40 20 -17 34 -23 36 -16 2 7 -1 18 -8 26 -6 8 -9 19 -6 24 4 6 -1 14 -11 19z"/>
<path d="M425 420 c-3 0 -8 -7 -12 -16 -3 -9 5 -26 22 -43 17 -19 29 -44 32
-72 3 -24 12 -52 21 -61 8 -10 28 -18 44 -18 25 0 28 3 28 35 0 26 -11 51 -39
89 -21 29 -50 60 -65 69 -14 9 -28 17 -31 17z"/>
</g>
</svg>
