<?xml version="1.0" standalone="no"?>
<!DOCTYPE svg PUBLIC "-//W3C//DTD SVG 20010904//EN"
 "http://www.w3.org/TR/2001/REC-SVG-20010904/DTD/svg10.dtd">
<svg version="1.0" xmlns="http://www.w3.org/2000/svg"
 width="56.000000pt" height="56.000000pt" viewBox="0 0 56.000000 56.000000"
 preserveAspectRatio="xMidYMid meet">
<metadata>
Created by potrace 1.16, written by Peter Selinger 2001-2019
</metadata>
<g transform="translate(0.000000,56.000000) scale(0.100000,-0.100000)"
fill="#000000" stroke="none">
<path d="M139 460 c-3 0 -12 -8 -22 -17 -15 -15 -15 -18 -1 -35 9 -9 14 -24
11 -32 -3 -8 -25 -17 -49 -21 -24 -4 -51 -12 -62 -17 -12 -7 -15 -13 -8 -20 6
-6 32 -11 59 -13 48 -3 48 -3 48 -51 0 -47 -1 -48 -35 -55 -18 -4 -40 -15 -47
-25 -7 -10 -13 -26 -13 -36 0 -14 8 -18 34 -18 19 0 38 -5 41 -11 5 -6 34 -8
83 -4 43 3 86 6 97 5 11 0 30 2 43 5 18 4 22 12 22 44 0 26 -7 44 -21 57 -16
14 -36 19 -78 19 -56 0 -56 0 -59 33 -2 24 2 38 15 47 17 13 17 15 1 43 -10
17 -18 39 -18 49 0 11 -8 27 -18 36 -10 10 -21 17 -23 17z m117 -267 c10 -4
12 -9 6 -15 -6 -6 -15 -7 -21 -3 -6 3 -9 10 -6 15 3 5 13 6 21 3z m-55 -13 c5
0 9 -4 9 -9 0 -6 -5 -13 -11 -16 -6 -4 -13 -5 -16 -2 -3 3 -2 10 2 16 3 6 10
11 16 11z"/>
<path d="M418 330 c-32 0 -32 0 13 -47 26 -27 49 -56 52 -65 5 -13 -6 -23 -48
-43 -30 -14 -61 -25 -69 -25 -9 0 -13 -6 -10 -13 3 -10 22 -13 62 -11 31 2 76
10 99 19 24 9 43 23 43 31 0 8 -4 14 -10 14 -5 0 -10 13 -10 29 0 21 -12 39
-45 70 -33 30 -53 41 -77 41z"/>
</g>
</svg>
