<?xml version="1.0" standalone="no"?>
<!DOCTYPE svg PUBLIC "-//W3C//DTD SVG 20010904//EN"
 "http://www.w3.org/TR/2001/REC-SVG-20010904/DTD/svg10.dtd">
<svg version="1.0" xmlns="http://www.w3.org/2000/svg"
 width="56.000000pt" height="56.000000pt" viewBox="0 0 56.000000 56.000000"
 preserveAspectRatio="xMidYMid meet">
<metadata>
Created by potrace 1.16, written by Peter Selinger 2001-2019
</metadata>
<g transform="translate(0.000000,56.000000) scale(0.100000,-0.100000)"
fill="#000000" stroke="none">
<path d="M303 500 c-10 -1 -33 -13 -50 -29 -18 -15 -33 -33 -33 -40 0 -8 7
-10 23 -5 12 3 34 15 50 26 15 11 27 26 27 34 0 8 -8 14 -17 14z"/>
<path d="M441 499 c-9 0 -23 -4 -31 -9 -8 -5 -33 -16 -55 -26 -27 -11 -54 -35
-84 -76 -24 -33 -50 -79 -58 -101 -8 -23 -20 -48 -28 -56 -7 -7 -18 -10 -24
-7 -6 4 -11 30 -11 57 0 35 6 58 21 79 12 16 19 36 16 44 -4 9 -19 21 -33 27
-15 5 -33 8 -41 5 -7 -3 -13 -16 -13 -29 0 -13 -5 -28 -12 -35 -7 -7 -16 -12
-21 -12 -4 0 -21 15 -38 32 -29 32 -29 32 -29 7 0 -13 7 -35 16 -47 9 -14 26
-22 44 -22 28 0 28 -1 32 -62 3 -60 2 -64 -30 -93 -25 -23 -33 -39 -35 -70 -2
-40 -2 -40 33 -38 22 1 41 9 52 23 10 12 22 39 28 61 6 21 20 43 30 49 18 10
20 7 20 -24 0 -19 4 -46 9 -59 5 -13 16 -27 25 -30 9 -4 35 0 58 9 23 8 53 24
65 36 14 13 23 17 23 9 0 -7 -11 -27 -25 -43 -14 -16 -23 -34 -19 -39 3 -5 11
-9 18 -9 7 0 49 49 94 109 45 60 82 114 82 120 0 6 10 32 21 57 22 45 22 45
-1 90 -14 25 -36 50 -53 59 -17 8 -37 15 -46 14z m29 -50 c9 -4 22 -19 30 -33
11 -22 11 -33 0 -68 -7 -24 -26 -67 -42 -96 -16 -29 -34 -50 -39 -47 -5 4 -9
14 -9 24 0 10 -9 30 -21 45 -15 19 -30 26 -54 26 -19 0 -37 -4 -40 -10 -3 -5
-15 -10 -26 -10 -11 0 -19 7 -19 17 0 10 31 47 69 84 52 52 76 68 102 71 19 2
41 0 49 -3z m-168 -199 c36 0 48 -4 48 -15 0 -8 -16 -33 -36 -55 -22 -24 -45
-40 -59 -40 -19 0 -23 7 -28 43 -5 32 -2 45 10 55 9 6 38 12 65 12z"/>
</g>
</svg>
