<?xml version="1.0" standalone="no"?>
<!DOCTYPE svg PUBLIC "-//W3C//DTD SVG 20010904//EN"
 "http://www.w3.org/TR/2001/REC-SVG-20010904/DTD/svg10.dtd">
<svg version="1.0" xmlns="http://www.w3.org/2000/svg"
 width="56.000000pt" height="56.000000pt" viewBox="0 0 56.000000 56.000000"
 preserveAspectRatio="xMidYMid meet">
<metadata>
Created by potrace 1.16, written by Peter Selinger 2001-2019
</metadata>
<g transform="translate(0.000000,56.000000) scale(0.100000,-0.100000)"
fill="#000000" stroke="none">
<path d="M178 460 c-20 4 -43 3 -50 -1 -10 -6 -7 -13 10 -29 13 -12 22 -33 22
-50 0 -23 -7 -33 -30 -45 -16 -8 -47 -15 -69 -15 -22 0 -43 -5 -46 -10 -4 -6
-1 -18 6 -27 10 -11 24 -14 56 -9 23 3 49 3 58 0 8 -4 15 -16 15 -28 0 -12 -6
-29 -12 -38 -7 -9 -37 -26 -65 -38 -35 -15 -53 -28 -53 -40 0 -10 7 -23 16
-31 12 -10 20 -10 35 -1 10 7 27 12 37 12 10 0 23 -5 30 -12 8 -8 15 -8 27 2
8 7 19 29 25 49 8 29 18 41 48 54 21 9 46 17 55 17 9 0 18 -4 21 -9 3 -5 -10
-32 -29 -59 -24 -35 -31 -53 -23 -58 6 -4 21 5 35 22 12 16 23 35 23 42 0 7
14 12 33 13 17 0 63 2 101 5 38 3 78 10 88 15 10 5 18 14 18 19 0 5 -17 27
-37 49 -21 22 -49 41 -63 43 -16 2 -30 15 -43 38 -10 20 -38 48 -61 63 -24 15
-46 27 -50 27 -3 0 -6 -7 -6 -15 0 -9 7 -26 16 -40 8 -13 14 -38 12 -56 -2
-24 -11 -37 -33 -50 -16 -10 -40 -18 -51 -18 -12 -1 -27 -8 -34 -16 -7 -8 -19
-15 -26 -15 -8 0 -14 3 -14 8 0 4 9 22 20 40 11 18 33 38 49 43 16 6 32 17 35
25 4 10 -6 20 -29 31 -32 15 -35 21 -33 52 3 33 1 36 -34 41z m250 -205 c25
-2 48 -7 50 -13 1 -5 -3 -14 -10 -19 -7 -6 -32 -14 -55 -18 -41 -6 -43 -5 -43
17 0 14 2 27 6 30 3 3 26 4 52 3z"/>
</g>
</svg>
