<?xml version="1.0" standalone="no"?>
<!DOCTYPE svg PUBLIC "-//W3C//DTD SVG 20010904//EN"
 "http://www.w3.org/TR/2001/REC-SVG-20010904/DTD/svg10.dtd">
<svg version="1.0" xmlns="http://www.w3.org/2000/svg"
 width="56.000000pt" height="56.000000pt" viewBox="0 0 56.000000 56.000000"
 preserveAspectRatio="xMidYMid meet">
<metadata>
Created by potrace 1.16, written by Peter Selinger 2001-2019
</metadata>
<g transform="translate(0.000000,56.000000) scale(0.100000,-0.100000)"
fill="#000000" stroke="none">
<path d="M203 480 c-7 0 -14 -3 -15 -7 0 -5 -2 -25 -2 -46 -1 -30 -7 -41 -28
-55 -26 -15 -28 -15 -51 6 -13 12 -29 22 -36 22 -9 0 -11 -8 -6 -27 3 -16 15
-37 25 -48 18 -17 23 -18 56 -6 19 7 37 11 40 8 2 -2 -2 -22 -10 -45 -8 -22
-22 -52 -31 -66 -10 -14 -33 -35 -52 -47 -30 -19 -33 -25 -27 -53 3 -17 10
-35 15 -41 6 -6 21 -3 42 8 23 13 44 16 77 11 30 -4 57 -1 81 9 27 11 38 24
49 56 12 36 11 43 -4 59 -9 11 -35 25 -59 33 -23 7 -45 18 -49 23 -3 5 1 28 9
50 9 23 24 50 34 60 16 18 16 21 1 45 -8 14 -22 32 -31 39 -8 6 -21 12 -28 12z
m55 -280 c7 0 15 -7 19 -17 4 -10 -2 -23 -16 -35 -13 -10 -36 -18 -52 -18 -15
0 -30 4 -33 9 -3 4 11 20 32 35 20 14 43 26 50 26z"/>
<path d="M401 340 c-15 0 -32 -5 -39 -12 -7 -7 -12 -18 -12 -25 0 -9 16 -13
53 -13 28 0 60 -7 70 -14 9 -7 17 -24 17 -37 0 -13 -9 -30 -20 -37 -11 -7 -20
-17 -20 -22 0 -6 9 -10 19 -10 11 0 23 4 26 10 3 5 19 7 35 3 27 -5 30 -3 30
21 0 18 -14 42 -42 72 -23 24 -49 44 -59 44 -10 0 -21 5 -24 10 -3 6 -19 10
-34 10z"/>
</g>
</svg>
