<?xml version="1.0" standalone="no"?>
<!DOCTYPE svg PUBLIC "-//W3C//DTD SVG 20010904//EN"
 "http://www.w3.org/TR/2001/REC-SVG-20010904/DTD/svg10.dtd">
<svg version="1.0" xmlns="http://www.w3.org/2000/svg"
 width="56.000000pt" height="56.000000pt" viewBox="0 0 56.000000 56.000000"
 preserveAspectRatio="xMidYMid meet">
<metadata>
Created by potrace 1.16, written by Peter Selinger 2001-2019
</metadata>
<g transform="translate(0.000000,56.000000) scale(0.100000,-0.100000)"
fill="#000000" stroke="none">
<path d="M81 540 c-9 0 -22 -4 -30 -9 -11 -7 -6 -14 22 -32 20 -13 39 -30 42
-37 3 -8 2 -18 -1 -24 -4 -6 -24 -8 -45 -5 -22 3 -42 1 -45 -4 -3 -5 4 -25 16
-44 11 -18 31 -35 43 -37 17 -2 21 -9 19 -30 -2 -24 1 -28 23 -28 25 0 25 0 5
-20 -12 -12 -18 -25 -14 -31 4 -7 15 -3 28 10 12 12 26 21 29 21 4 0 11 -10
16 -22 7 -19 3 -26 -23 -43 -17 -10 -44 -24 -61 -30 -16 -5 -31 -18 -33 -27
-3 -15 4 -18 35 -18 21 0 48 -3 61 -6 15 -4 22 -2 22 7 0 8 10 19 22 24 13 6
28 21 34 33 7 14 9 36 5 50 -4 15 -21 36 -39 47 -22 14 -31 28 -32 46 0 14 10
41 23 60 12 18 33 36 47 39 14 3 26 13 28 22 2 10 -8 23 -27 32 -19 10 -32 12
-36 6 -3 -6 -14 -10 -25 -10 -10 0 -20 6 -23 14 -3 8 -20 21 -38 30 -18 9 -39
16 -48 16z m91 -78 c6 -6 7 -16 3 -22 -5 -8 -11 -8 -17 -2 -6 6 -7 16 -3 22 5
8 11 8 17 2z"/>
<path d="M402 440 c-7 0 -15 -7 -18 -15 -3 -8 -3 -19 1 -25 3 -5 14 -10 23
-10 9 0 26 -7 37 -16 15 -11 20 -27 20 -64 0 -42 -2 -49 -18 -47 -11 1 -24 -7
-31 -18 -6 -10 -20 -27 -31 -36 -11 -9 -41 -37 -67 -62 -27 -25 -48 -50 -48
-56 0 -6 -5 -11 -10 -11 -6 0 -27 -15 -45 -34 -19 -18 -35 -36 -35 -40 0 -3
11 -6 24 -6 16 0 38 15 63 43 21 23 72 70 113 103 41 33 92 72 113 87 30 23
36 33 31 51 -3 13 -1 27 5 31 8 4 4 19 -11 46 -14 25 -37 46 -63 59 -23 11
-47 20 -53 20z"/>
<path d="M96 248 c-12 22 -12 22 -40 -7 -24 -25 -27 -33 -16 -46 7 -8 18 -15
24 -15 6 0 18 11 27 23 14 19 15 27 5 45z"/>
</g>
</svg>
