<?xml version="1.0" standalone="no"?>
<!DOCTYPE svg PUBLIC "-//W3C//DTD SVG 20010904//EN"
 "http://www.w3.org/TR/2001/REC-SVG-20010904/DTD/svg10.dtd">
<svg version="1.0" xmlns="http://www.w3.org/2000/svg"
 width="56.000000pt" height="56.000000pt" viewBox="0 0 56.000000 56.000000"
 preserveAspectRatio="xMidYMid meet">
<metadata>
Created by potrace 1.16, written by Peter Selinger 2001-2019
</metadata>
<g transform="translate(0.000000,56.000000) scale(0.100000,-0.100000)"
fill="#000000" stroke="none">
<path d="M230 560 c-17 0 -20 -7 -20 -44 0 -25 -4 -47 -9 -50 -5 -4 -7 3 -4
14 4 15 0 20 -15 20 -12 0 -24 -5 -27 -11 -5 -7 -13 -5 -25 6 -10 9 -24 14
-29 10 -6 -3 -11 -11 -11 -17 0 -6 12 -21 28 -34 15 -13 32 -24 38 -24 7 0 14
-7 18 -15 3 -8 1 -25 -4 -38 -5 -12 -18 -32 -29 -45 -11 -12 -23 -21 -28 -20
-4 1 -29 -8 -54 -20 -26 -12 -49 -28 -52 -36 -4 -9 -2 -18 4 -22 6 -3 21 -3
34 0 18 5 27 1 35 -14 6 -11 29 -31 50 -45 22 -14 50 -25 63 -25 13 0 32 9 41
19 17 18 16 20 -5 45 -17 19 -26 23 -40 16 -10 -6 -28 -10 -41 -10 -13 0 -29
5 -36 12 -7 7 -12 17 -12 23 0 7 10 16 23 22 12 6 41 17 65 24 24 7 47 20 53
30 7 14 4 19 -11 24 -11 3 -20 10 -20 14 0 5 8 19 19 32 10 13 16 29 14 35 -2
7 6 10 22 7 14 -3 32 0 39 7 8 6 12 18 9 27 -4 10 -14 13 -34 9 -22 -4 -27 -2
-22 9 3 8 2 26 -1 40 -4 16 -13 25 -26 25z"/>
<path d="M438 361 c-14 7 -20 6 -24 -5 -3 -9 7 -26 26 -43 20 -18 35 -43 41
-71 9 -41 8 -44 -23 -70 -17 -15 -64 -49 -102 -76 -39 -26 -82 -59 -95 -72
-22 -23 -23 -24 -4 -24 11 0 38 13 59 28 21 16 54 36 73 45 19 9 39 17 44 17
6 0 25 12 44 26 18 14 40 41 48 60 8 19 19 34 24 34 6 0 11 6 11 14 0 8 -6 17
-12 19 -10 4 -10 6 0 6 6 1 12 8 12 16 0 8 -4 15 -9 15 -5 0 -28 16 -52 35
-23 20 -50 40 -61 46z"/>
<path d="M284 330 c-14 0 -24 -8 -28 -22 -4 -16 2 -30 17 -46 20 -19 25 -21
41 -9 17 13 18 17 5 45 -9 22 -21 32 -35 32z"/>
</g>
</svg>
