<?xml version="1.0" standalone="no"?>
<!DOCTYPE svg PUBLIC "-//W3C//DTD SVG 20010904//EN"
 "http://www.w3.org/TR/2001/REC-SVG-20010904/DTD/svg10.dtd">
<svg version="1.0" xmlns="http://www.w3.org/2000/svg"
 width="56.000000pt" height="56.000000pt" viewBox="0 0 56.000000 56.000000"
 preserveAspectRatio="xMidYMid meet">
<metadata>
Created by potrace 1.16, written by Peter Selinger 2001-2019
</metadata>
<g transform="translate(0.000000,56.000000) scale(0.100000,-0.100000)"
fill="#000000" stroke="none">
<path d="M132 440 c-27 0 -52 -3 -55 -7 -4 -3 -7 -10 -7 -14 0 -4 14 -12 30
-18 23 -7 30 -16 30 -35 0 -22 -5 -26 -32 -27 -18 -1 -44 -2 -57 -3 -13 -1
-26 -6 -28 -12 -2 -6 5 -18 16 -28 11 -10 30 -18 43 -19 13 0 35 3 49 7 23 7
27 4 33 -19 5 -19 2 -33 -9 -45 -9 -10 -27 -21 -40 -24 -13 -3 -27 -15 -30
-26 -3 -11 -3 -25 0 -30 4 -6 16 -8 28 -4 12 4 47 23 77 44 30 20 62 39 71 43
12 4 18 -1 21 -18 3 -13 2 -28 -1 -32 -3 -5 -21 -15 -38 -22 -18 -8 -33 -19
-33 -26 0 -6 12 -17 26 -24 21 -9 33 -8 66 6 28 12 44 28 54 52 10 24 11 38 4
45 -5 5 -10 17 -10 26 0 9 -13 26 -30 38 -24 18 -33 20 -49 11 -10 -7 -26 -9
-35 -6 -9 4 -16 13 -16 20 0 8 18 21 41 30 30 12 40 21 37 34 -3 14 -13 18
-42 18 -33 0 -39 4 -51 33 -13 30 -17 32 -63 32z"/>
<path d="M436 380 c-3 0 -6 -5 -6 -11 0 -6 8 -23 18 -37 10 -15 26 -44 35 -64
10 -20 20 -50 23 -67 5 -24 12 -31 30 -31 21 0 24 5 24 36 0 21 -8 47 -20 61
-11 14 -20 31 -20 38 0 6 -18 26 -39 43 -22 18 -42 32 -45 32z"/>
</g>
</svg>
