<?xml version="1.0" standalone="no"?>
<!DOCTYPE svg PUBLIC "-//W3C//DTD SVG 20010904//EN"
 "http://www.w3.org/TR/2001/REC-SVG-20010904/DTD/svg10.dtd">
<svg version="1.0" xmlns="http://www.w3.org/2000/svg"
 width="56.000000pt" height="56.000000pt" viewBox="0 0 56.000000 56.000000"
 preserveAspectRatio="xMidYMid meet">
<metadata>
Created by potrace 1.16, written by Peter Selinger 2001-2019
</metadata>
<g transform="translate(0.000000,56.000000) scale(0.100000,-0.100000)"
fill="#000000" stroke="none">
<path d="M527 480 c-19 0 -36 -3 -40 -6 -3 -4 4 -19 15 -35 12 -16 30 -29 40
-29 14 0 18 8 18 35 0 33 -2 35 -33 35z"/>
<path d="M179 440 c-7 0 -9 -9 -5 -22 3 -13 9 -33 12 -44 5 -20 1 -23 -45 -29
-27 -4 -60 -4 -73 0 -23 6 -23 6 0 -14 12 -10 40 -22 62 -26 23 -4 40 -12 40
-20 0 -7 -18 -30 -40 -51 -21 -21 -59 -47 -82 -59 -24 -12 -44 -29 -46 -38 -2
-10 3 -20 11 -23 8 -3 40 11 71 32 31 20 56 43 56 50 0 9 11 14 29 14 16 0 36
-3 45 -6 9 -3 16 -13 16 -21 0 -7 -12 -25 -27 -38 -16 -13 -33 -25 -39 -25 -6
0 -17 -7 -24 -15 -6 -8 -9 -18 -6 -24 4 -5 26 -2 55 9 27 9 67 36 90 59 41 41
42 43 26 67 -8 13 -25 25 -38 25 -12 1 -28 1 -35 0 -7 -1 -15 5 -18 14 -4 8 0
22 7 31 7 9 28 23 47 32 19 9 34 22 33 27 -1 6 -14 17 -29 25 -15 8 -39 27
-55 43 -15 15 -32 27 -38 27z"/>
<path d="M384 326 c-24 6 -25 5 -15 -15 7 -11 15 -21 19 -21 5 0 27 -29 50
-64 24 -35 51 -71 62 -81 12 -11 26 -14 39 -10 12 3 21 15 21 26 0 10 -4 19
-10 19 -5 0 -10 5 -10 11 0 6 -8 21 -18 34 -11 13 -40 40 -65 59 -26 20 -58
38 -73 42z"/>
</g>
</svg>
