<?xml version="1.0" standalone="no"?>
<!DOCTYPE svg PUBLIC "-//W3C//DTD SVG 20010904//EN"
 "http://www.w3.org/TR/2001/REC-SVG-20010904/DTD/svg10.dtd">
<svg version="1.0" xmlns="http://www.w3.org/2000/svg"
 width="56.000000pt" height="56.000000pt" viewBox="0 0 56.000000 56.000000"
 preserveAspectRatio="xMidYMid meet">
<metadata>
Created by potrace 1.16, written by Peter Selinger 2001-2019
</metadata>
<g transform="translate(0.000000,56.000000) scale(0.100000,-0.100000)"
fill="#000000" stroke="none">
<path d="M478 510 c-25 0 -38 -5 -38 -14 0 -7 11 -22 25 -32 23 -17 23 -20 10
-41 -8 -12 -15 -27 -15 -32 0 -6 8 -7 18 -3 10 4 33 19 50 34 18 15 32 33 32
42 0 8 -10 22 -22 30 -12 9 -39 16 -60 16z"/>
<path d="M151 480 c-4 0 -16 -9 -26 -20 -11 -13 -25 -18 -37 -14 -11 3 -20 0
-24 -10 -3 -9 -3 -27 0 -41 5 -20 13 -25 36 -25 17 0 30 -5 30 -12 0 -7 -9
-32 -19 -55 -11 -23 -40 -62 -65 -86 -27 -25 -46 -53 -46 -65 0 -12 5 -22 11
-22 6 0 27 13 46 30 18 16 38 30 44 30 7 0 8 -19 4 -52 -4 -30 -2 -65 4 -80 6
-16 15 -28 21 -28 5 0 12 10 14 22 3 13 10 96 15 184 6 89 15 173 20 187 8 20
7 30 -5 42 -9 8 -19 15 -23 15z"/>
<path d="M421 280 c-6 0 -11 -9 -11 -19 0 -11 13 -32 29 -47 17 -15 27 -32 25
-36 -3 -5 -24 -21 -46 -36 -23 -15 -48 -31 -57 -37 -9 -5 -29 -20 -44 -31 -15
-12 -27 -27 -27 -33 0 -6 13 -11 28 -11 16 0 37 9 47 20 10 11 23 20 29 20 6
0 22 9 36 20 14 11 41 20 60 20 19 0 43 7 53 14 9 7 17 22 17 32 0 12 -18 30
-45 47 -25 16 -54 40 -64 53 -10 13 -24 24 -30 24z"/>
</g>
</svg>
