<?xml version="1.0" standalone="no"?>
<!DOCTYPE svg PUBLIC "-//W3C//DTD SVG 20010904//EN"
 "http://www.w3.org/TR/2001/REC-SVG-20010904/DTD/svg10.dtd">
<svg version="1.0" xmlns="http://www.w3.org/2000/svg"
 width="56.000000pt" height="56.000000pt" viewBox="0 0 56.000000 56.000000"
 preserveAspectRatio="xMidYMid meet">
<metadata>
Created by potrace 1.16, written by Peter Selinger 2001-2019
</metadata>
<g transform="translate(0.000000,56.000000) scale(0.100000,-0.100000)"
fill="#000000" stroke="none">
<path d="M131 480 c-22 0 -41 -5 -44 -12 -2 -7 -6 -17 -8 -23 -2 -5 4 -10 14
-10 10 0 22 -7 27 -15 5 -8 10 -27 10 -41 0 -15 -7 -29 -16 -33 -9 -3 -28 -6
-43 -6 -15 0 -32 5 -38 11 -8 8 -13 7 -18 -1 -4 -7 -1 -23 6 -37 12 -22 18
-24 56 -19 35 5 43 3 48 -14 3 -11 1 -28 -5 -39 -6 -13 -32 -27 -65 -36 -54
-16 -55 -16 -39 -40 9 -13 24 -27 35 -30 11 -4 25 0 34 9 9 8 22 13 30 10 8
-4 15 -14 15 -23 1 -9 10 -27 21 -40 17 -20 24 -23 37 -13 9 6 61 34 115 62
53 27 102 50 108 50 6 0 34 12 63 26 28 14 59 34 69 44 9 11 17 24 17 30 0 6
-15 27 -32 46 -18 20 -44 42 -58 49 -14 7 -51 18 -83 26 -51 11 -60 10 -74 -3
-8 -9 -12 -21 -9 -27 4 -6 22 -11 40 -11 18 0 52 -10 77 -21 24 -12 50 -26 57
-32 10 -8 8 -15 -10 -34 -13 -14 -41 -34 -62 -45 -33 -17 -40 -18 -47 -5 -5 8
-25 27 -44 42 -36 27 -36 27 -85 6 -27 -12 -52 -21 -55 -21 -3 0 -5 15 -3 33
2 26 8 33 28 35 14 2 29 8 34 12 5 6 4 15 -4 25 -7 8 -21 15 -32 15 -18 0 -20
5 -14 31 3 17 1 39 -4 50 -8 14 -21 19 -49 19z m116 -240 c23 0 44 -4 48 -9 3
-5 -5 -17 -17 -25 -12 -9 -35 -16 -51 -16 -16 0 -26 -4 -22 -10 3 -5 15 -10
26 -10 10 0 19 -4 19 -10 0 -5 -13 -16 -30 -25 -16 -8 -37 -15 -46 -15 -13 0
-15 6 -10 28 4 15 7 36 7 46 0 11 8 25 17 32 9 8 36 14 59 14z"/>
</g>
</svg>
