<?xml version="1.0" standalone="no"?>
<!DOCTYPE svg PUBLIC "-//W3C//DTD SVG 20010904//EN"
 "http://www.w3.org/TR/2001/REC-SVG-20010904/DTD/svg10.dtd">
<svg version="1.0" xmlns="http://www.w3.org/2000/svg"
 width="56.000000pt" height="56.000000pt" viewBox="0 0 56.000000 56.000000"
 preserveAspectRatio="xMidYMid meet">
<metadata>
Created by potrace 1.16, written by Peter Selinger 2001-2019
</metadata>
<g transform="translate(0.000000,56.000000) scale(0.100000,-0.100000)"
fill="#000000" stroke="none">
<path d="M246 460 c-8 0 -19 -7 -26 -15 -7 -9 -37 -27 -65 -40 -29 -13 -69
-27 -89 -31 -27 -5 -36 -11 -34 -23 2 -12 17 -17 63 -19 56 -3 63 -1 90 28 16
16 37 30 46 30 10 0 25 7 33 16 12 12 13 20 6 35 -6 10 -17 19 -24 19z"/>
<path d="M447 400 c-13 0 -18 -6 -15 -22 2 -15 11 -24 27 -26 13 -2 28 1 34 7
8 8 5 15 -9 26 -10 8 -27 15 -37 15z"/>
<path d="M181 310 c-6 0 -13 -5 -17 -11 -4 -7 4 -20 17 -30 13 -10 40 -19 60
-19 23 0 39 -6 43 -15 3 -8 2 -15 -3 -15 -5 0 -11 -9 -14 -20 -3 -13 0 -20 8
-20 8 0 21 7 29 16 9 8 16 28 16 43 0 15 -8 35 -18 44 -10 10 -28 17 -40 17
-11 0 -24 -4 -27 -10 -3 -5 -15 -10 -26 -10 -10 0 -19 7 -19 15 0 8 -4 15 -9
15z"/>
<path d="M529 310 c-4 0 -12 -6 -18 -13 -6 -8 -14 -28 -17 -45 -4 -20 -24 -47
-54 -74 -26 -24 -60 -53 -75 -66 -19 -16 -25 -26 -18 -33 7 -7 23 -3 49 12 21
12 51 30 66 40 14 11 30 19 35 19 6 0 15 11 21 25 7 14 19 28 27 31 10 4 15
19 15 43 0 20 -5 42 -12 49 -7 7 -15 12 -19 12z"/>
<path d="M172 239 c-6 15 -12 15 -72 0 -54 -14 -68 -21 -84 -48 -10 -18 -16
-35 -12 -38 3 -3 24 0 46 7 33 11 47 11 81 0 29 -10 46 -11 57 -3 10 5 18 20
20 32 2 13 -3 24 -13 27 -9 4 -20 14 -23 23z"/>
</g>
</svg>
