<?xml version="1.0" standalone="no"?>
<!DOCTYPE svg PUBLIC "-//W3C//DTD SVG 20010904//EN"
 "http://www.w3.org/TR/2001/REC-SVG-20010904/DTD/svg10.dtd">
<svg version="1.0" xmlns="http://www.w3.org/2000/svg"
 width="56.000000pt" height="56.000000pt" viewBox="0 0 56.000000 56.000000"
 preserveAspectRatio="xMidYMid meet">
<metadata>
Created by potrace 1.16, written by Peter Selinger 2001-2019
</metadata>
<g transform="translate(0.000000,56.000000) scale(0.100000,-0.100000)"
fill="#000000" stroke="none">
<path d="M40 480 c-6 0 -14 -10 -19 -22 -4 -13 -11 -40 -14 -62 -5 -34 -3 -42
24 -67 19 -17 42 -29 58 -29 15 0 31 -3 34 -7 4 -3 0 -18 -9 -32 -9 -14 -28
-36 -42 -47 -25 -21 -26 -22 -9 -48 10 -14 22 -26 27 -26 5 0 17 -16 26 -36 9
-20 23 -38 31 -41 8 -3 29 9 49 28 19 19 43 49 55 66 13 20 18 40 14 53 -3 11
-13 27 -21 35 -9 8 -29 15 -45 15 -26 0 -29 3 -29 32 0 17 7 40 17 50 15 17
15 19 0 36 -10 10 -17 27 -17 38 0 10 -3 29 -6 42 -4 12 -14 22 -23 22 -10 0
-20 -3 -23 -6 -4 -3 0 -17 7 -30 7 -14 11 -33 8 -44 -3 -10 -20 -26 -39 -36
-21 -12 -37 -15 -43 -9 -5 6 -11 29 -12 52 -2 23 0 45 4 49 4 4 7 11 7 16 0 4
-5 8 -10 8z m159 -272 c9 -2 16 -12 16 -22 0 -12 -10 -23 -28 -29 -15 -5 -35
-6 -45 -2 -15 6 -13 10 12 31 15 14 36 24 45 22z"/>
<path d="M411 440 c-20 0 -42 -5 -49 -12 -7 -7 -12 -18 -12 -25 0 -9 15 -13
45 -13 39 0 47 -4 55 -24 5 -13 14 -27 19 -31 6 -3 18 -20 27 -37 14 -27 14
-31 -2 -42 -10 -8 -15 -20 -11 -30 4 -9 15 -16 26 -16 11 0 26 3 35 6 11 4 16
19 16 50 0 24 -4 44 -10 44 -5 0 -10 6 -10 14 0 8 -21 37 -46 65 -39 44 -51
51 -83 51z"/>
</g>
</svg>
