<?xml version="1.0" standalone="no"?>
<!DOCTYPE svg PUBLIC "-//W3C//DTD SVG 20010904//EN"
 "http://www.w3.org/TR/2001/REC-SVG-20010904/DTD/svg10.dtd">
<svg version="1.0" xmlns="http://www.w3.org/2000/svg"
 width="56.000000pt" height="56.000000pt" viewBox="0 0 56.000000 56.000000"
 preserveAspectRatio="xMidYMid meet">
<metadata>
Created by potrace 1.16, written by Peter Selinger 2001-2019
</metadata>
<g transform="translate(0.000000,56.000000) scale(0.100000,-0.100000)"
fill="#000000" stroke="none">
<path d="M88 524 c-15 3 -30 2 -33 -4 -3 -6 3 -23 14 -39 12 -16 21 -33 21
-37 0 -4 7 -15 16 -25 9 -10 14 -25 10 -34 -3 -9 -16 -15 -33 -14 -16 1 -41
-4 -58 -10 -28 -12 -29 -13 -12 -26 10 -7 39 -16 65 -20 26 -4 41 -10 35 -12
-7 -3 -13 -9 -13 -13 0 -5 -18 -38 -40 -73 -32 -50 -39 -71 -34 -91 5 -23 11
-26 48 -24 22 0 64 9 93 20 28 10 54 25 57 33 3 8 12 15 19 15 8 0 21 8 30 18
10 10 17 30 17 44 0 14 -8 32 -18 41 -10 10 -25 17 -33 17 -8 0 -20 -5 -26
-11 -7 -7 -15 -5 -27 6 -9 9 -16 23 -16 31 0 8 7 17 16 21 8 3 13 12 10 20 -5
11 1 13 27 8 23 -5 37 -2 45 7 9 11 8 19 -3 35 -13 18 -20 20 -47 12 -18 -5
-35 -5 -38 -1 -4 4 -12 26 -19 49 -6 24 -19 44 -29 46 -9 3 -29 8 -44 11z
m115 -264 c4 0 13 -11 19 -25 7 -16 8 -29 2 -33 -5 -5 -33 -14 -62 -21 -29 -7
-56 -10 -59 -7 -4 3 2 16 13 27 10 12 33 30 49 40 17 11 33 19 38 19z"/>
<path d="M291 460 c-5 0 -12 -4 -15 -9 -3 -5 11 -21 32 -37 20 -15 39 -31 42
-34 3 -4 16 -13 28 -19 13 -7 25 -11 28 -9 2 2 1 20 -2 40 -6 33 -11 38 -55
52 -26 9 -52 16 -58 16z"/>
<path d="M461 380 c-12 0 -21 -6 -21 -13 0 -7 5 -18 12 -25 7 -7 24 -12 38
-12 15 0 30 3 33 6 3 4 -4 15 -17 25 -13 11 -34 19 -45 19z"/>
<path d="M491 319 c-3 0 -12 -3 -19 -6 -6 -2 -10 -9 -7 -13 3 -5 -9 -23 -27
-40 -18 -17 -55 -46 -83 -65 -27 -19 -74 -47 -104 -62 -30 -15 -71 -45 -92
-66 -22 -21 -39 -40 -39 -43 0 -2 12 -1 28 2 15 4 34 12 42 20 8 7 44 26 80
42 36 16 87 40 113 52 36 15 47 25 43 37 -5 12 -1 14 17 9 16 -4 35 3 60 20
22 14 37 33 37 44 0 11 5 20 10 20 6 0 10 8 10 19 0 13 -10 20 -31 25 -17 3
-34 6 -38 5z"/>
</g>
</svg>
