<?xml version="1.0" standalone="no"?>
<!DOCTYPE svg PUBLIC "-//W3C//DTD SVG 20010904//EN"
 "http://www.w3.org/TR/2001/REC-SVG-20010904/DTD/svg10.dtd">
<svg version="1.0" xmlns="http://www.w3.org/2000/svg"
 width="56.000000pt" height="56.000000pt" viewBox="0 0 56.000000 56.000000"
 preserveAspectRatio="xMidYMid meet">
<metadata>
Created by potrace 1.16, written by Peter Selinger 2001-2019
</metadata>
<g transform="translate(0.000000,56.000000) scale(0.100000,-0.100000)"
fill="#000000" stroke="none">
<path d="M133 518 c-22 2 -44 -1 -47 -6 -3 -5 6 -24 19 -42 14 -19 25 -37 25
-41 0 -4 -18 -14 -41 -23 -23 -10 -39 -22 -36 -29 2 -6 16 -11 29 -10 18 1 29
-6 37 -23 6 -14 11 -38 11 -53 0 -26 -4 -29 -56 -40 -42 -10 -58 -18 -66 -37
-8 -18 -8 -28 0 -36 8 -8 25 -3 62 15 52 26 52 26 74 0 14 -16 28 -23 35 -19
7 5 11 24 9 49 -3 40 -2 42 27 45 17 2 44 10 62 18 17 7 36 14 42 14 6 0 11
-9 11 -19 0 -11 -16 -67 -35 -125 -19 -58 -32 -112 -29 -121 3 -8 10 -15 14
-15 5 0 12 6 17 13 4 6 14 28 21 47 7 19 20 58 29 85 8 28 19 59 23 70 4 11
12 34 17 50 7 24 14 29 33 27 14 -1 31 -8 38 -15 10 -11 8 -15 -10 -24 -13 -6
-32 -14 -42 -17 -13 -5 -16 -10 -9 -17 6 -6 35 -11 64 -11 30 -1 64 2 77 6 12
4 22 13 22 21 0 7 -17 28 -39 48 -21 19 -55 41 -75 48 -29 11 -36 18 -32 33 3
10 -1 31 -9 46 -8 15 -20 30 -27 32 -7 3 -23 2 -35 -3 -13 -5 -23 -15 -23 -24
0 -9 7 -18 15 -21 8 -4 15 -19 15 -34 0 -16 -6 -32 -12 -37 -7 -4 -38 -16 -68
-25 -30 -10 -63 -18 -72 -18 -15 0 -18 9 -18 45 0 41 2 45 25 45 14 0 28 7 32
16 3 9 0 20 -8 25 -8 5 -24 9 -35 9 -18 0 -21 6 -20 38 1 37 0 37 -41 40z"/>
<path d="M196 40 c-19 0 -38 -5 -41 -10 -3 -6 0 -13 9 -16 8 -3 25 -4 37 -2
12 2 24 9 27 16 2 8 -8 12 -32 12z"/>
</g>
</svg>
