<?xml version="1.0" standalone="no"?>
<!DOCTYPE svg PUBLIC "-//W3C//DTD SVG 20010904//EN"
 "http://www.w3.org/TR/2001/REC-SVG-20010904/DTD/svg10.dtd">
<svg version="1.0" xmlns="http://www.w3.org/2000/svg"
 width="56.000000pt" height="56.000000pt" viewBox="0 0 56.000000 56.000000"
 preserveAspectRatio="xMidYMid meet">
<metadata>
Created by potrace 1.16, written by Peter Selinger 2001-2019
</metadata>
<g transform="translate(0.000000,56.000000) scale(0.100000,-0.100000)"
fill="#000000" stroke="none">
<path d="M156 460 c-8 0 -18 -5 -21 -10 -4 -6 -5 -31 -4 -57 3 -38 0 -48 -16
-54 -11 -4 -39 -5 -61 -2 -26 3 -44 1 -49 -6 -4 -7 -1 -19 6 -28 11 -12 26
-14 76 -9 63 7 63 7 63 -23 0 -16 -7 -37 -16 -45 -8 -9 -24 -16 -33 -16 -10 0
-24 -6 -31 -14 -9 -12 -5 -18 27 -35 22 -11 45 -27 52 -35 8 -9 29 -16 48 -16
19 0 50 7 68 16 18 8 41 24 50 34 12 13 15 28 11 44 -3 14 -19 32 -35 41 -18
9 -41 12 -60 9 -30 -6 -31 -5 -31 29 0 27 5 37 20 42 11 3 20 11 20 16 0 5
-16 29 -35 55 -19 25 -35 50 -35 55 0 5 -6 9 -14 9z m77 -260 c9 0 17 -6 17
-14 0 -9 -16 -17 -41 -21 -22 -4 -43 -5 -46 -2 -2 3 8 12 24 21 15 8 36 15 46
16z"/>
<path d="M431 440 c-5 0 -12 -4 -15 -8 -3 -5 8 -22 24 -37 24 -23 30 -37 30
-69 0 -34 -10 -54 -52 -111 -29 -38 -60 -79 -70 -89 -10 -10 -15 -23 -12 -28
3 -4 13 -8 23 -8 10 0 47 32 82 71 35 40 73 86 84 103 11 17 23 33 27 34 5 2
8 18 8 35 0 25 -7 37 -33 53 -17 11 -44 28 -59 37 -15 10 -32 17 -37 17z"/>
</g>
</svg>
