<?xml version="1.0" standalone="no"?>
<!DOCTYPE svg PUBLIC "-//W3C//DTD SVG 20010904//EN"
 "http://www.w3.org/TR/2001/REC-SVG-20010904/DTD/svg10.dtd">
<svg version="1.0" xmlns="http://www.w3.org/2000/svg"
 width="128.000000pt" height="128.000000pt" viewBox="0 0 128.000000 128.000000"
 preserveAspectRatio="xMidYMid meet">
<metadata>
Created by potrace 1.16, written by Peter Selinger 2001-2019
</metadata>
<g transform="translate(0.000000,128.000000) scale(0.100000,-0.100000)"
fill="#000000" stroke="none">
<path d="M667 1139 c-12 0 -28 -3 -34 -6 -7 -2 -13 -15 -13 -27 0 -12 6 -31
14 -41 12 -16 18 -17 39 -8 14 7 31 21 36 32 8 15 7 23 -5 35 -8 9 -25 16 -37
15z"/>
<path d="M973 1128 c-22 2 -43 -1 -46 -5 -2 -4 0 -43 5 -85 6 -43 8 -84 5 -92
-3 -8 -15 -12 -29 -9 -14 3 -41 -5 -64 -18 -31 -18 -55 -23 -119 -23 -80 -1
-80 -1 -83 -38 -2 -25 -8 -38 -18 -38 -8 0 -25 -7 -38 -15 -13 -9 -29 -13 -37
-10 -8 3 -19 22 -26 42 -9 30 -8 41 5 61 15 24 15 26 -12 49 -16 13 -38 23
-50 22 -11 -1 -29 1 -38 5 -9 4 -25 6 -34 4 -10 -1 -19 -8 -21 -15 -2 -6 12
-30 33 -52 20 -23 43 -41 50 -41 8 0 14 -7 14 -17 0 -15 -1 -15 -18 0 -10 10
-22 14 -25 10 -4 -3 -7 -26 -7 -50 0 -32 -7 -54 -26 -79 -17 -21 -35 -34 -50
-34 -12 0 -26 -4 -29 -10 -3 -5 -20 -10 -36 -10 -16 0 -44 -6 -62 -13 -18 -7
-60 -13 -93 -12 -36 0 -69 7 -78 15 -12 9 -20 10 -27 3 -8 -8 -7 -17 0 -32 8
-14 21 -21 41 -21 18 0 30 -5 30 -13 0 -7 6 -22 14 -33 12 -15 17 -17 27 -6 7
6 28 12 46 12 17 0 45 5 60 11 15 6 38 16 50 22 12 5 29 7 37 4 9 -4 16 -13
16 -22 0 -9 -16 -25 -35 -36 -19 -12 -35 -29 -35 -39 0 -10 -3 -32 -6 -49 -6
-29 -5 -31 22 -31 16 0 48 7 71 16 35 14 46 14 58 4 8 -7 15 -19 15 -28 0 -8
-16 -30 -36 -48 -19 -19 -41 -34 -48 -34 -7 0 -24 -10 -38 -23 -25 -23 -25
-23 1 -35 14 -7 30 -12 36 -12 6 0 43 31 82 68 38 38 73 75 76 83 4 11 9 10
24 -7 10 -12 33 -30 51 -40 33 -19 34 -19 48 0 8 11 14 24 14 28 0 5 -15 25
-34 44 -22 23 -36 48 -40 76 -4 24 -3 45 4 52 5 5 10 22 10 37 0 14 -9 38 -20
52 -11 14 -17 32 -14 40 3 8 20 21 37 28 18 7 44 21 59 31 14 10 38 18 52 18
14 0 38 5 53 11 15 6 37 15 48 19 11 5 32 11 46 14 15 3 34 -1 48 -10 17 -12
21 -24 19 -52 -3 -33 -7 -38 -43 -50 -27 -8 -47 -23 -60 -45 -10 -17 -23 -43
-27 -57 -5 -14 -12 -76 -18 -139 -9 -108 -8 -115 13 -152 12 -21 30 -40 39
-42 10 -3 22 1 28 7 5 7 7 15 5 18 -3 3 -1 17 5 32 7 20 6 36 -5 63 -8 19 -15
37 -15 39 0 2 6 4 13 4 8 0 22 9 31 19 17 18 17 19 -2 25 -10 4 -24 18 -30 31
-9 20 -8 34 6 68 9 23 22 50 28 61 6 10 23 20 38 21 15 2 36 11 47 21 15 14
19 31 19 84 0 43 -5 73 -15 86 -8 10 -15 27 -15 36 0 16 10 17 94 12 89 -6 94
-5 115 17 12 13 20 33 19 44 -3 17 -9 20 -48 17 -25 -1 -61 -3 -80 -5 -35 -2
-35 -2 -35 68 0 70 0 70 -42 73z m-523 -428 c6 0 27 -12 46 -26 29 -22 34 -33
34 -66 0 -21 -7 -52 -15 -68 -8 -16 -23 -31 -32 -34 -10 -3 -34 -6 -53 -8 -30
-3 -36 1 -44 25 -9 23 -6 36 12 67 12 22 22 43 22 49 0 5 4 21 10 35 5 14 14
26 20 26z"/>
<path d="M1184 639 c-5 0 -36 -11 -69 -23 -33 -12 -71 -28 -85 -35 -14 -6 -33
-25 -42 -41 -13 -22 -21 -27 -39 -23 -14 4 -26 0 -35 -11 -7 -10 -10 -24 -7
-32 3 -8 16 -14 29 -14 13 0 24 5 24 11 0 8 4 8 13 1 7 -6 23 -9 35 -6 12 4
24 15 27 25 4 10 11 19 17 19 6 0 19 6 27 14 9 7 28 16 43 20 21 5 30 2 38
-14 8 -16 7 -27 -4 -48 -9 -15 -18 -34 -21 -43 -4 -8 -21 -21 -38 -29 -18 -7
-42 -12 -54 -11 -13 1 -23 -3 -23 -9 0 -6 -11 -15 -25 -20 -14 -5 -25 -13 -25
-18 0 -5 9 -17 20 -27 13 -12 29 -16 47 -12 17 3 39 -1 55 -11 22 -13 32 -13
52 -4 22 10 26 18 26 56 0 42 3 46 35 62 20 9 38 21 41 26 4 5 7 36 9 69 2 54
-1 62 -30 94 -18 19 -37 35 -41 34z"/>
<path d="M973 180 c-10 0 -26 -7 -35 -14 -10 -7 -18 -18 -18 -25 0 -7 23 -11
64 -11 36 0 68 5 71 10 3 6 -2 13 -12 16 -10 3 -26 10 -35 15 -10 5 -26 9 -35
9z"/>
</g>
</svg>
