<?xml version="1.0" standalone="no"?>
<!DOCTYPE svg PUBLIC "-//W3C//DTD SVG 20010904//EN"
 "http://www.w3.org/TR/2001/REC-SVG-20010904/DTD/svg10.dtd">
<svg version="1.0" xmlns="http://www.w3.org/2000/svg"
 width="56.000000pt" height="56.000000pt" viewBox="0 0 56.000000 56.000000"
 preserveAspectRatio="xMidYMid meet">
<metadata>
Created by potrace 1.16, written by Peter Selinger 2001-2019
</metadata>
<g transform="translate(0.000000,56.000000) scale(0.100000,-0.100000)"
fill="#000000" stroke="none">
<path d="M106 560 c-31 0 -46 -5 -50 -16 -3 -9 -6 -24 -6 -35 0 -13 7 -19 23
-19 13 0 35 13 50 28 15 15 27 31 27 35 0 4 -20 7 -44 7z"/>
<path d="M379 560 c-24 0 -29 -4 -29 -25 0 -14 5 -25 10 -25 6 0 8 -11 4 -27
-4 -16 -13 -44 -21 -63 -8 -19 -21 -49 -28 -67 -10 -23 -28 -38 -61 -53 -34
-16 -49 -19 -58 -10 -6 6 -13 41 -16 78 -5 61 -7 67 -29 70 -24 4 -24 4 -18
-97 6 -101 6 -101 -28 -133 -26 -25 -39 -50 -51 -96 -8 -35 -13 -75 -10 -88 4
-13 12 -24 19 -24 6 0 42 14 79 32 43 21 73 44 84 63 10 17 23 34 31 38 7 4
13 13 13 19 0 6 16 35 37 65 20 29 43 53 50 53 8 0 23 -5 34 -10 10 -6 28 -28
39 -50 12 -23 20 -58 20 -87 0 -26 -4 -65 -9 -85 -9 -38 -9 -38 31 -38 41 0
41 0 36 108 -4 93 -8 113 -27 141 -13 18 -41 43 -62 57 -22 14 -39 32 -39 42
0 10 3 22 7 26 4 3 13 23 20 44 7 20 13 54 13 74 0 20 -3 43 -6 52 -4 10 -18
16 -35 16z m-141 -310 c6 0 12 -8 12 -18 0 -10 -10 -28 -23 -40 -13 -12 -27
-19 -30 -15 -4 3 -7 17 -7 29 0 13 8 28 18 33 9 6 23 11 30 11z m-98 -70 c5 0
13 -12 16 -27 6 -21 2 -31 -20 -50 -15 -13 -32 -21 -37 -18 -5 4 -9 12 -9 18
0 7 9 27 20 45 11 17 24 32 30 32z"/>
</g>
</svg>
