<?xml version="1.0" standalone="no"?>
<!DOCTYPE svg PUBLIC "-//W3C//DTD SVG 20010904//EN"
 "http://www.w3.org/TR/2001/REC-SVG-20010904/DTD/svg10.dtd">
<svg version="1.0" xmlns="http://www.w3.org/2000/svg"
 width="56.000000pt" height="56.000000pt" viewBox="0 0 56.000000 56.000000"
 preserveAspectRatio="xMidYMid meet">
<metadata>
Created by potrace 1.16, written by Peter Selinger 2001-2019
</metadata>
<g transform="translate(0.000000,56.000000) scale(0.100000,-0.100000)"
fill="#000000" stroke="none">
<path d="M369 470 c-19 0 -32 -6 -36 -17 -4 -9 -1 -19 5 -21 7 -2 19 -10 27
-19 8 -8 15 -19 15 -24 0 -5 -12 -11 -27 -15 -16 -3 -53 -15 -83 -25 -55 -19
-55 -19 -94 26 -21 25 -44 45 -52 45 -8 0 -14 -4 -14 -10 0 -5 9 -24 20 -42
11 -18 20 -41 20 -50 0 -10 -6 -19 -12 -19 -7 -1 -17 -2 -23 -3 -5 -1 -27 -6
-47 -10 -20 -4 -44 -16 -53 -26 -12 -14 -13 -23 -5 -46 6 -16 17 -32 23 -36 7
-4 27 -8 45 -8 18 0 52 -10 75 -21 23 -12 54 -30 69 -40 14 -11 33 -19 40 -19
8 0 19 10 25 23 6 12 19 42 29 67 10 25 30 62 44 82 14 21 35 41 48 44 12 3
29 1 37 -6 8 -7 15 -28 15 -47 0 -27 -10 -44 -46 -83 -26 -28 -41 -50 -35 -50
7 0 32 9 57 21 29 13 56 36 76 65 18 24 35 44 40 44 4 0 8 7 8 15 0 8 -10 27
-22 41 -13 15 -42 35 -66 45 -36 16 -42 22 -37 39 4 13 -1 31 -15 50 -16 22
-29 30 -51 30z m-106 -170 c10 0 17 -7 17 -20 0 -10 -9 -24 -21 -30 -11 -7
-27 -9 -35 -6 -8 3 -14 12 -14 20 0 8 8 20 18 25 9 6 25 11 35 11z m-115 -40
c7 0 18 -11 24 -25 8 -19 9 -28 0 -37 -8 -8 -19 -8 -41 2 -17 7 -31 18 -31 26
0 7 8 18 18 23 9 6 23 11 30 11z"/>
</g>
</svg>
