<?xml version="1.0" standalone="no"?>
<!DOCTYPE svg PUBLIC "-//W3C//DTD SVG 20010904//EN"
 "http://www.w3.org/TR/2001/REC-SVG-20010904/DTD/svg10.dtd">
<svg version="1.0" xmlns="http://www.w3.org/2000/svg"
 width="56.000000pt" height="56.000000pt" viewBox="0 0 56.000000 56.000000"
 preserveAspectRatio="xMidYMid meet">
<metadata>
Created by potrace 1.16, written by Peter Selinger 2001-2019
</metadata>
<g transform="translate(0.000000,56.000000) scale(0.100000,-0.100000)"
fill="#000000" stroke="none">
<path d="M285 560 c-19 0 -35 -3 -35 -8 0 -4 -20 -18 -44 -30 -24 -13 -58 -43
-75 -67 -17 -23 -35 -54 -40 -68 -6 -16 -6 -49 1 -94 6 -37 11 -77 12 -87 1
-15 -9 -23 -39 -31 -22 -7 -41 -18 -43 -27 -2 -8 2 -27 7 -41 7 -17 18 -27 30
-27 11 0 26 6 33 14 7 8 21 23 31 35 18 22 18 22 70 -24 28 -25 55 -45 59 -45
5 0 8 13 8 28 0 21 -7 32 -24 40 -14 6 -26 22 -29 41 -4 17 -2 42 3 56 7 18
17 25 35 25 14 0 25 -6 25 -12 0 -7 -5 -33 -11 -57 -8 -34 -7 -46 3 -52 7 -5
19 -9 26 -9 8 0 12 13 12 38 -1 20 2 65 6 100 6 57 9 64 37 78 23 12 35 13 53
5 13 -5 30 -24 39 -42 10 -17 21 -59 25 -92 7 -46 6 -67 -6 -89 -8 -16 -39
-42 -69 -59 -30 -17 -57 -35 -60 -39 -3 -4 -14 -6 -24 -3 -10 3 -22 0 -25 -6
-5 -8 13 -11 56 -10 35 0 79 5 98 12 27 9 42 24 65 67 25 47 29 65 28 125 -1
59 -5 77 -27 109 -14 21 -38 50 -52 63 -15 13 -38 29 -51 34 -22 8 -24 14 -19
43 4 23 2 37 -6 42 -7 4 -26 7 -42 6 -16 -2 -33 -5 -38 -8 -5 -3 -1 -15 8 -25
17 -19 17 -21 -2 -53 -10 -19 -43 -59 -72 -90 -29 -31 -58 -54 -63 -51 -5 4
-9 24 -9 46 0 22 7 55 14 74 8 19 29 53 47 75 18 22 39 40 46 40 8 0 25 7 38
16 14 9 25 20 25 25 0 5 -16 9 -35 9z"/>
</g>
</svg>
