<?xml version="1.0" standalone="no"?>
<!DOCTYPE svg PUBLIC "-//W3C//DTD SVG 20010904//EN"
 "http://www.w3.org/TR/2001/REC-SVG-20010904/DTD/svg10.dtd">
<svg version="1.0" xmlns="http://www.w3.org/2000/svg"
 width="56.000000pt" height="56.000000pt" viewBox="0 0 56.000000 56.000000"
 preserveAspectRatio="xMidYMid meet">
<metadata>
Created by potrace 1.16, written by Peter Selinger 2001-2019
</metadata>
<g transform="translate(0.000000,56.000000) scale(0.100000,-0.100000)"
fill="#000000" stroke="none">
<path d="M317 560 c-8 0 -28 -27 -45 -62 -17 -35 -33 -72 -36 -83 -4 -11 -17
-32 -29 -46 -12 -15 -32 -30 -45 -34 -15 -4 -24 -2 -28 8 -3 8 -1 39 5 68 8
46 7 56 -7 67 -9 7 -21 11 -27 9 -6 -2 -10 -39 -11 -88 0 -46 -4 -100 -8 -120
-3 -21 -13 -42 -21 -49 -8 -7 -15 -23 -15 -35 0 -12 -6 -28 -14 -34 -8 -6 -11
-22 -8 -37 2 -14 11 -28 19 -31 8 -3 25 4 38 17 22 20 27 21 75 11 28 -6 68
-11 89 -11 23 0 44 6 51 15 11 13 10 27 -3 75 -10 33 -17 75 -17 93 0 20 7 41
18 50 10 10 27 17 38 17 11 0 44 -12 74 -28 55 -28 55 -28 52 -96 -1 -49 -7
-75 -22 -93 -10 -13 -37 -38 -60 -54 -22 -16 -40 -35 -40 -43 0 -7 -10 -21
-23 -29 -22 -16 -22 -16 12 -16 22 -1 43 7 57 20 12 11 37 28 55 38 19 10 48
37 66 60 31 40 32 44 27 114 -5 63 -10 77 -41 114 -19 24 -45 46 -59 49 -13 3
-31 4 -39 1 -9 -4 -22 5 -35 22 -11 16 -20 36 -20 44 0 8 7 20 15 27 8 7 15
16 15 20 0 4 -8 17 -19 28 -10 12 -25 22 -34 22z m-98 -292 c10 -2 18 -19 22
-43 4 -22 3 -44 -2 -49 -4 -5 -33 -11 -64 -14 -37 -3 -55 -1 -55 7 0 6 4 11 9
11 6 0 24 20 42 45 19 26 39 44 48 43z"/>
</g>
</svg>
