<?xml version="1.0" standalone="no"?>
<!DOCTYPE svg PUBLIC "-//W3C//DTD SVG 20010904//EN"
 "http://www.w3.org/TR/2001/REC-SVG-20010904/DTD/svg10.dtd">
<svg version="1.0" xmlns="http://www.w3.org/2000/svg"
 width="56.000000pt" height="56.000000pt" viewBox="0 0 56.000000 56.000000"
 preserveAspectRatio="xMidYMid meet">
<metadata>
Created by potrace 1.16, written by Peter Selinger 2001-2019
</metadata>
<g transform="translate(0.000000,56.000000) scale(0.100000,-0.100000)"
fill="#000000" stroke="none">
<path d="M278 559 c-25 0 -41 -10 -65 -39 -18 -20 -39 -53 -47 -72 -12 -27
-13 -50 -5 -107 5 -40 6 -77 3 -82 -3 -5 -14 -9 -24 -9 -10 0 -30 -14 -44 -31
-14 -17 -23 -36 -19 -42 3 -7 15 -24 25 -39 11 -16 26 -28 34 -28 7 0 25 18
39 40 14 22 30 40 36 40 5 0 22 -9 37 -20 17 -13 35 -18 45 -14 13 5 17 18 17
56 0 27 7 62 15 78 11 21 23 30 40 30 15 0 31 -10 41 -25 12 -18 14 -35 9 -62
-5 -26 -23 -53 -64 -95 -32 -32 -67 -58 -77 -58 -10 0 -58 -12 -106 -27 -48
-15 -90 -34 -93 -42 -4 -11 5 -12 47 -8 29 3 83 12 119 20 37 9 85 25 107 36
21 11 54 32 71 47 17 14 38 42 47 62 10 24 12 50 8 85 -5 38 -16 60 -41 88
-33 37 -34 39 -18 63 9 14 14 33 11 43 -3 10 -20 27 -36 37 -25 14 -34 15 -46
6 -8 -7 -20 -23 -27 -35 -6 -12 -24 -41 -40 -64 -17 -25 -35 -41 -47 -41 -16
0 -20 7 -20 31 0 17 11 50 25 73 14 23 36 53 50 66 14 13 25 27 25 32 0 4 -15
8 -32 7z"/>
</g>
</svg>
