<?xml version="1.0" standalone="no"?>
<!DOCTYPE svg PUBLIC "-//W3C//DTD SVG 20010904//EN"
 "http://www.w3.org/TR/2001/REC-SVG-20010904/DTD/svg10.dtd">
<svg version="1.0" xmlns="http://www.w3.org/2000/svg"
 width="56.000000pt" height="56.000000pt" viewBox="0 0 56.000000 56.000000"
 preserveAspectRatio="xMidYMid meet">
<metadata>
Created by potrace 1.16, written by Peter Selinger 2001-2019
</metadata>
<g transform="translate(0.000000,56.000000) scale(0.100000,-0.100000)"
fill="#000000" stroke="none">
<path d="M241 560 c-4 0 -14 -12 -22 -27 -8 -16 -17 -30 -20 -33 -3 -3 -11
-20 -17 -39 -7 -18 -9 -37 -6 -42 3 -5 11 -9 19 -9 7 0 21 14 29 32 9 17 16
39 16 49 0 9 5 19 11 21 7 2 9 13 5 26 -4 12 -11 22 -15 22z"/>
<path d="M406 480 c-15 0 -33 -11 -46 -27 -12 -16 -28 -43 -36 -62 -12 -28
-17 -31 -29 -21 -11 9 -22 9 -49 -1 -32 -12 -37 -11 -50 7 -12 15 -17 17 -28
6 -8 -8 -13 -39 -14 -84 0 -61 -3 -73 -23 -89 -13 -11 -29 -19 -37 -19 -7 0
-15 4 -18 9 -3 5 4 21 15 36 17 20 19 29 10 38 -9 9 -19 4 -42 -23 -17 -19
-37 -49 -45 -67 -8 -18 -14 -37 -14 -42 0 -5 14 -14 31 -20 28 -10 35 -8 74
24 23 19 47 35 54 35 6 0 25 -10 41 -21 20 -15 36 -20 54 -15 16 4 37 23 53
49 15 23 39 61 54 84 27 43 27 43 78 -8 29 -28 51 -59 51 -71 0 -11 -9 -36
-21 -54 -11 -18 -34 -42 -52 -53 -18 -10 -49 -22 -69 -26 -28 -5 -38 -12 -38
-26 0 -13 10 -19 43 -24 23 -4 53 -4 67 -2 14 3 36 10 50 15 14 6 40 24 58 41
26 24 32 37 32 71 0 32 -9 53 -40 94 -21 30 -52 64 -69 75 -16 12 -34 21 -40
21 -6 0 -11 14 -11 31 0 17 9 44 21 60 11 16 18 36 15 44 -3 8 -16 15 -30 15z
m-138 -130 c6 0 12 -4 12 -8 0 -4 -15 -23 -34 -41 -19 -18 -39 -30 -45 -27 -6
4 -11 14 -11 22 0 8 15 23 33 34 17 11 38 20 45 20z m40 -64 c2 -3 1 -9 -3
-15 -3 -6 -15 -16 -26 -21 -10 -6 -19 -8 -19 -6 0 3 10 14 22 26 12 11 23 18
26 16z"/>
</g>
</svg>
