<?xml version="1.0" standalone="no"?>
<!DOCTYPE svg PUBLIC "-//W3C//DTD SVG 20010904//EN"
 "http://www.w3.org/TR/2001/REC-SVG-20010904/DTD/svg10.dtd">
<svg version="1.0" xmlns="http://www.w3.org/2000/svg"
 width="56.000000pt" height="56.000000pt" viewBox="0 0 56.000000 56.000000"
 preserveAspectRatio="xMidYMid meet">
<metadata>
Created by potrace 1.16, written by Peter Selinger 2001-2019
</metadata>
<g transform="translate(0.000000,56.000000) scale(0.100000,-0.100000)"
fill="#000000" stroke="none">
<path d="M327 547 c-12 12 -17 13 -17 4 0 -9 -8 -11 -25 -7 -19 5 -27 1 -36
-16 -7 -13 -17 -41 -22 -63 -5 -22 -11 -61 -14 -87 -3 -33 -9 -48 -20 -48 -8
0 -32 -15 -55 -32 -23 -19 -53 -59 -71 -93 -17 -33 -36 -83 -43 -112 -8 -37
-9 -54 -1 -62 6 -6 24 -11 39 -11 16 0 41 8 56 17 15 9 49 40 77 68 49 50 49
50 53 20 2 -16 8 -34 13 -40 7 -7 17 -2 29 15 11 14 19 39 19 55 0 17 -3 24
-6 18 -2 -7 -9 -13 -14 -13 -5 0 -9 7 -9 15 0 8 5 15 10 15 6 0 14 8 17 18 4
9 22 36 40 59 22 27 40 40 49 36 8 -3 29 -33 46 -66 29 -59 30 -62 14 -92 -12
-22 -37 -39 -87 -63 -53 -24 -70 -36 -67 -50 2 -12 15 -18 43 -20 29 -2 54 4
88 23 25 15 58 41 71 58 14 18 32 40 41 50 8 9 15 31 15 47 0 17 -4 30 -10 30
-5 0 -10 9 -10 20 0 10 -14 34 -31 51 -25 26 -33 29 -41 18 -7 -10 -8 -8 -4 7
4 13 -1 27 -14 39 -12 11 -20 31 -20 51 0 26 -6 36 -33 51 -18 11 -38 18 -45
15 -6 -2 -12 -9 -12 -17 0 -7 -7 -29 -15 -49 -14 -32 -18 -35 -35 -26 -11 6
-20 20 -20 30 0 11 4 20 9 20 5 0 16 15 25 33 9 17 22 40 29 49 9 14 8 21 -6
35z m-57 -227 c10 0 24 -9 30 -20 8 -16 8 -20 -4 -20 -7 0 -17 -7 -20 -16 -3
-8 -10 -12 -16 -9 -5 3 -10 19 -10 36 0 22 5 29 20 29z m-58 -56 c5 -3 8 -13
8 -22 -1 -9 -16 -35 -34 -56 -24 -27 -39 -37 -50 -33 -16 6 -16 9 1 37 9 16
21 30 25 30 4 0 8 7 8 15 0 7 8 18 17 24 10 5 21 7 25 5z"/>
</g>
</svg>
