<?xml version="1.0" standalone="no"?>
<!DOCTYPE svg PUBLIC "-//W3C//DTD SVG 20010904//EN"
 "http://www.w3.org/TR/2001/REC-SVG-20010904/DTD/svg10.dtd">
<svg version="1.0" xmlns="http://www.w3.org/2000/svg"
 width="56.000000pt" height="56.000000pt" viewBox="0 0 56.000000 56.000000"
 preserveAspectRatio="xMidYMid meet">
<metadata>
Created by potrace 1.16, written by Peter Selinger 2001-2019
</metadata>
<g transform="translate(0.000000,56.000000) scale(0.100000,-0.100000)"
fill="#000000" stroke="none">
<path d="M279 560 c-44 0 -60 -3 -57 -12 3 -7 15 -15 29 -17 13 -1 27 -8 31
-15 4 -6 8 -21 8 -33 0 -13 -12 -45 -27 -73 -16 -27 -35 -50 -43 -50 -9 0 -21
15 -28 35 -8 20 -25 40 -42 49 -17 8 -32 10 -35 5 -4 -5 8 -29 24 -53 17 -25
31 -51 31 -60 0 -8 -20 -29 -44 -46 -25 -16 -47 -38 -50 -48 -3 -9 -6 -33 -8
-52 -3 -31 0 -35 22 -38 19 -2 31 6 49 33 18 26 27 33 36 25 7 -6 16 -26 19
-44 4 -19 13 -39 21 -46 11 -9 16 -7 25 11 8 14 10 44 6 83 -4 33 -2 67 2 74
7 10 25 12 72 6 38 -4 70 -14 80 -24 9 -9 17 -34 18 -59 2 -39 -2 -46 -56 -97
-31 -31 -76 -67 -99 -81 -24 -14 -43 -27 -43 -29 0 -2 33 -4 73 -4 70 0 76 2
115 36 23 19 50 52 59 72 12 25 18 60 18 107 0 59 -5 77 -28 113 -15 23 -34
42 -42 42 -7 0 -27 11 -42 24 -22 20 -26 27 -15 37 6 7 12 23 12 35 0 12 -7
38 -15 58 -15 36 -16 36 -76 36z"/>
</g>
</svg>
