<?xml version="1.0" standalone="no"?>
<!DOCTYPE svg PUBLIC "-//W3C//DTD SVG 20010904//EN"
 "http://www.w3.org/TR/2001/REC-SVG-20010904/DTD/svg10.dtd">
<svg version="1.0" xmlns="http://www.w3.org/2000/svg"
 width="56.000000pt" height="56.000000pt" viewBox="0 0 56.000000 56.000000"
 preserveAspectRatio="xMidYMid meet">
<metadata>
Created by potrace 1.16, written by Peter Selinger 2001-2019
</metadata>
<g transform="translate(0.000000,56.000000) scale(0.100000,-0.100000)"
fill="#000000" stroke="none">
<path d="M330 560 c-10 0 -24 -9 -30 -19 -5 -11 -10 -28 -10 -38 0 -10 -12
-36 -27 -58 -14 -22 -31 -43 -37 -47 -6 -4 -14 -8 -18 -8 -4 0 -10 20 -14 45
-3 25 -14 54 -23 65 -9 11 -28 22 -43 26 -28 6 -28 6 -22 -42 4 -27 12 -80 19
-118 13 -69 13 -69 -32 -117 -25 -27 -43 -55 -41 -65 1 -9 11 -22 21 -28 14
-9 22 -6 43 21 14 18 31 33 37 33 7 -1 24 -19 39 -40 15 -22 34 -40 42 -40 8
0 23 12 34 28 11 15 25 45 33 67 7 22 17 44 21 50 4 5 8 18 8 30 0 12 6 30 14
40 12 17 16 17 31 5 9 -7 22 -25 30 -39 10 -21 11 -37 2 -78 -7 -28 -19 -59
-28 -69 -8 -11 -30 -42 -48 -71 -18 -28 -39 -57 -47 -63 -7 -7 -14 -16 -14
-21 0 -5 18 -9 41 -9 30 0 46 6 60 23 10 12 40 60 66 107 25 46 50 103 54 125
5 23 3 55 -3 77 -8 27 -22 44 -47 59 -20 12 -47 21 -61 21 -14 0 -28 2 -33 5
-4 2 2 22 15 44 20 36 20 40 5 57 -9 10 -17 24 -17 30 0 7 -9 12 -20 12z"/>
</g>
</svg>
