<?xml version="1.0" standalone="no"?>
<!DOCTYPE svg PUBLIC "-//W3C//DTD SVG 20010904//EN"
 "http://www.w3.org/TR/2001/REC-SVG-20010904/DTD/svg10.dtd">
<svg version="1.0" xmlns="http://www.w3.org/2000/svg"
 width="56.000000pt" height="56.000000pt" viewBox="0 0 56.000000 56.000000"
 preserveAspectRatio="xMidYMid meet">
<metadata>
Created by potrace 1.16, written by Peter Selinger 2001-2019
</metadata>
<g transform="translate(0.000000,56.000000) scale(0.100000,-0.100000)"
fill="#000000" stroke="none">
<path d="M273 560 c-27 0 -29 -4 -56 -103 -15 -56 -27 -110 -27 -119 0 -9 -20
-31 -45 -48 -24 -17 -51 -40 -60 -52 -8 -13 -15 -37 -15 -55 0 -30 3 -33 29
-33 18 0 34 8 42 21 14 20 15 20 45 3 17 -10 38 -15 46 -11 9 3 30 34 47 68
17 34 31 68 31 74 0 7 7 18 15 25 13 10 22 5 60 -32 37 -38 45 -52 45 -83 0
-31 -8 -45 -43 -80 -24 -23 -60 -50 -80 -60 -20 -9 -48 -28 -64 -42 -26 -24
-29 -25 -53 -11 -21 12 -30 13 -43 3 -10 -7 -17 -15 -17 -19 0 -3 19 -6 43 -6
23 0 65 7 92 16 28 9 74 28 103 42 28 15 66 43 83 64 17 21 31 48 31 61 1 12
1 34 0 49 -1 17 -18 45 -45 73 -25 25 -53 45 -65 45 -11 0 -23 4 -26 9 -3 5 5
29 19 53 14 23 25 51 25 61 0 10 -8 17 -20 17 -11 0 -20 -4 -20 -9 0 -5 -15
-26 -34 -45 -18 -20 -39 -36 -45 -36 -7 0 -9 4 -6 10 3 5 13 35 21 65 7 31 14
63 14 70 0 10 -10 15 -27 15z m-105 -301 c1 1 -2 -8 -8 -19 -6 -11 -17 -20
-25 -20 -8 0 -15 5 -15 10 0 6 10 15 23 20 12 5 23 9 25 9z"/>
</g>
</svg>
