<?xml version="1.0" standalone="no"?>
<!DOCTYPE svg PUBLIC "-//W3C//DTD SVG 20010904//EN"
 "http://www.w3.org/TR/2001/REC-SVG-20010904/DTD/svg10.dtd">
<svg version="1.0" xmlns="http://www.w3.org/2000/svg"
 width="56.000000pt" height="56.000000pt" viewBox="0 0 56.000000 56.000000"
 preserveAspectRatio="xMidYMid meet">
<metadata>
Created by potrace 1.16, written by Peter Selinger 2001-2019
</metadata>
<g transform="translate(0.000000,56.000000) scale(0.100000,-0.100000)"
fill="#000000" stroke="none">
<path d="M202 560 c-22 0 -33 -8 -49 -37 -12 -21 -28 -62 -37 -92 -9 -30 -16
-78 -16 -107 0 -46 -4 -56 -36 -88 -24 -24 -34 -43 -32 -58 2 -19 10 -24 41
-26 26 -2 51 4 80 21 23 13 53 27 68 30 20 5 28 16 37 54 7 26 21 59 31 72 18
23 21 24 57 13 22 -7 49 -26 62 -42 13 -16 26 -45 29 -63 3 -24 -2 -50 -20
-88 -14 -30 -37 -66 -52 -79 -15 -14 -35 -32 -45 -41 -10 -9 -24 -19 -31 -22
-8 -3 -2 -6 12 -6 15 -1 46 6 70 14 24 9 54 26 67 38 13 12 37 49 53 81 16 33
29 72 29 87 0 15 -9 49 -21 76 -11 26 -28 56 -37 67 -9 10 -34 27 -55 37 -21
11 -50 18 -65 17 -23 -3 -27 1 -30 24 -2 17 -15 36 -34 49 -26 19 -34 20 -50
10 -11 -7 -22 -10 -25 -7 -3 3 2 17 11 30 9 14 16 28 16 31 0 3 -13 5 -28 5z
m-11 -96 c5 -3 9 -23 9 -44 0 -28 -5 -42 -19 -49 -14 -8 -20 -7 -24 4 -3 7 1
32 10 54 9 22 20 38 24 35z m51 -46 c7 -3 13 -10 13 -16 0 -7 -4 -12 -10 -13
-5 0 -12 7 -13 17 -3 10 1 15 10 12z"/>
<path d="M512 40 c-5 0 -12 -3 -15 -7 -4 -3 -7 -12 -7 -20 0 -7 7 -13 15 -13
8 0 15 9 15 20 0 11 -4 20 -8 20z"/>
<path d="M236 20 c-14 0 -28 -4 -31 -10 -4 -6 7 -10 24 -10 17 0 31 5 31 10 0
6 -11 10 -24 10z"/>
</g>
</svg>
