<?xml version="1.0" standalone="no"?>
<!DOCTYPE svg PUBLIC "-//W3C//DTD SVG 20010904//EN"
 "http://www.w3.org/TR/2001/REC-SVG-20010904/DTD/svg10.dtd">
<svg version="1.0" xmlns="http://www.w3.org/2000/svg"
 width="56.000000pt" height="56.000000pt" viewBox="0 0 56.000000 56.000000"
 preserveAspectRatio="xMidYMid meet">
<metadata>
Created by potrace 1.16, written by Peter Selinger 2001-2019
</metadata>
<g transform="translate(0.000000,56.000000) scale(0.100000,-0.100000)"
fill="#000000" stroke="none">
<path d="M428 560 c-10 0 -18 -4 -18 -10 0 -5 -11 -10 -25 -10 -15 0 -28 -7
-32 -16 -4 -11 3 -23 20 -36 22 -16 24 -22 16 -51 -5 -17 -15 -37 -23 -43 -8
-5 -30 -9 -48 -7 -18 1 -44 -3 -57 -10 -20 -10 -25 -9 -38 8 -8 11 -17 32 -20
47 -3 15 -16 36 -29 49 -13 12 -30 19 -39 15 -8 -3 -18 -13 -22 -21 -3 -9 -1
-26 5 -38 6 -12 20 -43 31 -69 18 -44 18 -48 3 -49 -9 0 -44 -33 -77 -73 -57
-68 -60 -75 -59 -122 1 -27 2 -62 3 -77 1 -28 2 -29 44 -22 23 4 59 20 79 36
20 16 41 29 46 29 5 0 17 9 28 21 14 16 25 19 52 14 19 -3 43 -12 54 -18 16
-10 22 -8 39 12 10 12 17 27 14 32 -3 4 1 24 9 43 8 19 12 36 10 39 -2 2 3 20
11 40 8 21 22 37 30 37 8 0 24 -9 35 -20 11 -11 20 -28 20 -38 0 -10 3 -22 6
-25 4 -3 15 -2 25 4 12 6 19 21 19 39 0 20 -8 35 -25 46 -14 9 -25 21 -25 27
0 6 -8 19 -17 29 -16 18 -16 22 0 68 17 49 17 50 -5 85 -13 19 -31 35 -40 35z
m-106 -221 c15 1 29 -3 32 -8 3 -5 -7 -23 -23 -40 -16 -17 -32 -39 -35 -48 -7
-16 -9 -15 -26 7 -11 14 -20 34 -20 46 0 12 10 26 23 32 12 6 34 11 49 11z
m-148 -101 c13 -2 22 -11 24 -24 2 -15 -7 -29 -28 -44 -17 -12 -38 -19 -46
-16 -15 6 -15 8 0 29 9 12 19 30 23 40 3 11 13 17 27 15z"/>
<path d="M519 38 c-8 1 -18 0 -22 -4 -4 -4 -7 -13 -7 -21 0 -7 11 -13 26 -13
19 0 25 5 22 17 -2 10 -10 19 -19 21z"/>
</g>
</svg>
