<?xml version="1.0" standalone="no"?>
<!DOCTYPE svg PUBLIC "-//W3C//DTD SVG 20010904//EN"
 "http://www.w3.org/TR/2001/REC-SVG-20010904/DTD/svg10.dtd">
<svg version="1.0" xmlns="http://www.w3.org/2000/svg"
 width="56.000000pt" height="56.000000pt" viewBox="0 0 56.000000 56.000000"
 preserveAspectRatio="xMidYMid meet">
<metadata>
Created by potrace 1.16, written by Peter Selinger 2001-2019
</metadata>
<g transform="translate(0.000000,56.000000) scale(0.100000,-0.100000)"
fill="#000000" stroke="none">
<path d="M199 560 c-22 0 -29 -5 -29 -19 0 -11 9 -21 23 -25 13 -3 36 -15 51
-27 23 -18 26 -26 20 -53 -3 -17 -11 -37 -16 -43 -6 -7 -14 -13 -17 -13 -4 0
-29 27 -57 60 -27 33 -57 60 -66 60 -10 0 -18 -4 -18 -10 0 -5 9 -26 21 -46
11 -21 31 -53 44 -73 23 -33 24 -36 7 -55 -9 -11 -34 -38 -54 -60 -21 -22 -38
-50 -38 -62 0 -13 5 -26 10 -29 6 -4 23 1 38 11 15 9 34 26 43 36 9 10 21 18
28 18 6 0 21 -10 33 -22 20 -20 22 -20 35 -3 7 11 13 38 13 62 0 39 5 49 42
83 24 22 51 40 60 40 10 0 25 -11 34 -25 12 -18 15 -38 11 -66 -3 -26 -20 -59
-49 -97 -23 -31 -63 -75 -87 -97 -23 -22 -62 -51 -85 -63 -22 -13 -45 -28 -51
-33 -5 -5 3 -9 20 -9 17 0 41 6 55 13 14 8 35 21 45 30 11 8 49 39 85 67 36
29 73 61 82 72 9 10 24 43 32 72 9 30 16 66 16 82 0 15 -11 42 -26 61 -14 18
-37 39 -53 47 -15 8 -36 14 -46 13 -12 -1 -24 8 -32 24 -7 14 -29 34 -50 45
-21 10 -39 22 -41 27 -2 4 -17 7 -33 7z"/>
<path d="M457 88 c-9 2 -20 -3 -23 -12 -3 -8 0 -29 7 -46 8 -16 20 -30 27 -30
9 0 12 12 10 42 -2 31 -8 44 -21 46z"/>
</g>
</svg>
