<?xml version="1.0" standalone="no"?>
<!DOCTYPE svg PUBLIC "-//W3C//DTD SVG 20010904//EN"
 "http://www.w3.org/TR/2001/REC-SVG-20010904/DTD/svg10.dtd">
<svg version="1.0" xmlns="http://www.w3.org/2000/svg"
 width="56.000000pt" height="56.000000pt" viewBox="0 0 56.000000 56.000000"
 preserveAspectRatio="xMidYMid meet">
<metadata>
Created by potrace 1.16, written by Peter Selinger 2001-2019
</metadata>
<g transform="translate(0.000000,56.000000) scale(0.100000,-0.100000)"
fill="#000000" stroke="none">
<path d="M122 451 c-13 15 -21 19 -26 11 -4 -7 -3 -27 3 -45 5 -17 15 -56 21
-85 7 -30 8 -57 4 -62 -5 -5 -20 -10 -34 -12 -18 -2 -26 -10 -28 -28 -2 -14
-15 -37 -30 -53 -19 -20 -23 -30 -15 -38 8 -8 25 -4 63 15 41 21 56 24 66 15
8 -6 23 -31 33 -54 11 -24 29 -48 40 -55 12 -6 31 -8 41 -5 11 4 20 13 20 22
0 8 -10 29 -22 45 -11 17 -22 42 -23 57 -1 14 -3 31 -3 38 -1 7 -9 10 -17 7
-9 -4 -15 0 -15 10 0 9 18 28 40 42 28 19 57 28 103 31 42 4 67 2 71 -6 4 -6
17 -11 30 -11 12 0 33 -11 46 -25 20 -21 23 -35 22 -84 -1 -39 -9 -72 -22 -96
-11 -19 -20 -40 -20 -45 0 -6 6 -10 13 -10 8 0 24 21 37 48 12 26 26 55 31 64
5 10 9 34 9 53 0 19 -4 35 -9 35 -5 0 -11 8 -13 18 -3 11 -22 32 -43 48 -35
26 -46 29 -117 29 -64 0 -78 3 -76 15 2 8 14 17 28 18 14 2 30 8 37 13 8 7 7
17 -4 39 -12 26 -20 30 -54 30 -36 0 -39 -2 -39 -29 0 -19 -13 -43 -41 -75
-22 -25 -47 -46 -54 -46 -8 0 -19 17 -24 38 -6 20 -11 51 -11 68 0 18 -8 42
-18 55z"/>
</g>
</svg>
