<?xml version="1.0" standalone="no"?>
<!DOCTYPE svg PUBLIC "-//W3C//DTD SVG 20010904//EN"
 "http://www.w3.org/TR/2001/REC-SVG-20010904/DTD/svg10.dtd">
<svg version="1.0" xmlns="http://www.w3.org/2000/svg"
 width="128.000000pt" height="128.000000pt" viewBox="0 0 128.000000 128.000000"
 preserveAspectRatio="xMidYMid meet">
<metadata>
Created by potrace 1.16, written by Peter Selinger 2001-2019
</metadata>
<g transform="translate(0.000000,128.000000) scale(0.100000,-0.100000)"
fill="#000000" stroke="none">
<path d="M392 1280 c-11 0 -23 -7 -26 -16 -3 -9 -6 -37 -6 -63 0 -43 -4 -51
-49 -94 -27 -26 -55 -47 -62 -47 -7 0 -28 -16 -46 -36 -18 -20 -33 -40 -33
-45 0 -4 4 -11 10 -14 5 -3 22 1 37 9 16 8 41 12 55 9 15 -3 39 -3 52 1 13 3
45 22 71 41 25 20 50 33 55 30 6 -4 4 -17 -4 -33 -8 -15 -35 -48 -60 -73 -25
-26 -46 -50 -46 -53 0 -3 -9 -15 -20 -26 -11 -11 -24 -20 -30 -20 -5 0 -25
-17 -45 -37 -20 -21 -49 -42 -64 -48 -16 -5 -44 -24 -63 -41 -30 -27 -36 -38
-41 -92 -6 -55 -4 -63 13 -72 15 -8 27 -7 48 4 16 8 45 35 65 60 20 24 37 49
37 56 0 6 6 10 13 9 6 -1 24 1 40 6 15 4 32 16 38 26 8 15 14 17 28 9 14 -7
25 -5 43 10 14 10 37 22 51 25 16 4 33 2 41 -4 10 -8 16 -9 21 -1 3 5 21 10
38 10 18 0 27 -4 21 -8 -6 -4 -9 -26 -6 -49 3 -33 8 -43 22 -43 10 0 25 14 34
35 9 19 21 35 26 35 6 0 10 -13 10 -29 0 -17 4 -33 10 -36 6 -4 3 -16 -6 -31
-16 -23 -18 -23 -35 -8 -16 14 -18 14 -29 -5 -6 -12 -15 -19 -21 -16 -5 4 -9
15 -9 26 0 10 -5 19 -11 19 -7 0 -17 -7 -23 -16 -11 -15 -15 -14 -51 1 -22 9
-50 25 -62 37 -19 17 -25 19 -38 8 -9 -7 -15 -29 -15 -50 0 -33 -6 -43 -39
-69 -21 -17 -45 -31 -54 -31 -8 0 -26 -9 -41 -21 -14 -11 -26 -28 -26 -38 0
-9 13 -27 30 -39 16 -12 36 -22 43 -22 8 0 20 -7 27 -15 10 -12 9 -24 -5 -63
-10 -26 -34 -60 -52 -77 -19 -16 -44 -45 -55 -63 -15 -24 -22 -57 -26 -118 -5
-84 -5 -84 34 -84 34 1 43 6 74 45 19 25 52 77 72 117 20 39 44 78 52 86 8 8
19 11 26 7 7 -4 10 -22 7 -44 -3 -26 3 -51 23 -91 15 -30 31 -68 36 -85 8 -26
14 -30 44 -30 34 0 35 1 36 43 0 23 5 52 11 65 6 12 16 35 22 51 9 21 9 32 0
42 -6 7 -8 22 -4 33 3 11 8 60 10 108 2 48 11 111 20 138 9 28 21 58 26 67 5
10 9 26 9 36 0 9 7 27 15 40 9 12 15 32 13 44 -2 13 2 24 7 25 6 1 10 -7 9
-17 0 -11 4 -20 10 -20 6 0 16 12 23 26 7 14 9 40 6 57 -4 21 -3 28 5 23 7 -4
12 -29 12 -56 0 -38 5 -54 23 -71 22 -22 22 -22 -3 -16 -20 5 -27 1 -36 -18
-8 -16 -9 -37 -2 -67 5 -24 12 -55 15 -71 3 -15 9 -30 15 -33 5 -3 15 0 23 6
8 7 15 25 15 41 0 15 -4 31 -10 34 -5 3 -10 17 -10 31 0 13 5 24 10 24 6 0 10
11 10 24 0 14 10 32 22 40 12 9 18 17 13 18 -6 0 -17 1 -25 2 -8 1 -20 17 -27
36 -7 19 -12 58 -12 85 -1 28 5 61 12 75 7 14 25 27 42 31 17 4 40 11 53 14
17 6 22 3 22 -9 0 -9 -8 -31 -17 -49 -10 -19 -17 -57 -18 -92 -1 -33 -5 -71
-10 -84 -7 -22 -6 -23 23 -17 30 7 30 7 28 -82 -2 -48 -6 -94 -10 -100 -4 -7
-20 -12 -37 -12 -16 0 -29 -4 -29 -10 0 -5 -6 -7 -14 -4 -8 3 -17 1 -20 -5 -4
-5 -3 -12 1 -14 5 -3 31 -1 58 3 29 4 58 4 68 -2 10 -5 15 -13 11 -19 -4 -7
-10 -6 -19 1 -10 8 -14 5 -19 -13 -3 -13 -2 -37 3 -54 5 -17 7 -42 4 -57 -3
-15 1 -36 11 -51 9 -13 16 -27 16 -29 0 -3 -7 -3 -15 0 -11 5 -15 -1 -15 -23
0 -18 -9 -38 -23 -51 -14 -13 -33 -21 -52 -19 -21 1 -30 -3 -33 -16 -2 -10 -1
-25 2 -34 5 -12 9 -13 20 -4 10 8 16 9 21 1 4 -7 12 -7 26 0 10 6 19 18 20 28
0 15 1 15 8 -2 5 -12 19 -20 40 -21 17 -2 40 -10 50 -19 10 -9 23 -16 29 -16
6 0 22 12 36 26 24 27 24 27 41 0 13 -20 23 -25 39 -20 11 3 27 13 34 22 6 9
12 22 12 28 0 9 -11 12 -33 9 -29 -4 -33 -2 -33 18 1 15 -9 27 -31 37 -17 8
-39 27 -48 43 -14 24 -14 28 -1 33 8 3 20 3 26 -1 6 -4 20 1 31 11 10 9 19 23
19 30 0 8 -18 23 -40 34 -22 11 -45 19 -52 18 -8 -2 -14 10 -16 30 -2 18 2 40
9 48 7 8 32 24 56 35 23 11 43 23 43 27 0 4 -7 18 -16 30 -8 12 -26 22 -39 22
-13 0 -30 3 -39 6 -11 4 -16 19 -16 49 0 31 5 45 17 49 11 5 22 1 31 -11 10
-14 16 -15 30 -7 10 7 20 32 25 63 6 34 13 51 23 51 8 0 14 10 14 24 0 13 5
26 11 28 5 2 14 21 19 43 5 22 10 70 10 106 0 51 -4 70 -18 82 -10 10 -29 17
-41 17 -12 0 -32 5 -43 11 -17 9 -23 8 -30 -5 -5 -9 -20 -16 -33 -16 -13 0
-27 -4 -30 -10 -3 -5 -16 -10 -29 -10 -13 0 -31 -9 -41 -20 -12 -13 -31 -20
-55 -20 -30 0 -41 6 -55 26 -15 23 -21 25 -53 19 -21 -3 -46 -12 -57 -20 -12
-7 -29 -31 -39 -53 -18 -39 -18 -39 -93 -41 -42 -1 -84 -6 -94 -11 -10 -6 -20
-10 -23 -10 -3 0 -6 14 -6 30 0 18 6 33 15 37 9 3 23 20 32 37 8 17 31 44 49
59 26 22 34 36 34 62 0 18 -7 38 -15 45 -8 6 -19 9 -25 5 -6 -4 -27 -4 -47 0
-35 6 -35 6 -31 54 4 42 1 53 -22 80 -15 17 -37 31 -48 31z m631 -350 c7 0 18
-5 25 -12 7 -7 12 -28 12 -47 -1 -20 -9 -54 -20 -76 -13 -27 -19 -33 -20 -20
0 11 -11 41 -25 67 -25 48 -25 48 -5 68 11 11 26 20 33 20z m-524 -483 c9 -6
19 -16 23 -22 4 -5 5 -28 1 -50 -3 -22 -12 -52 -20 -68 -11 -23 -18 -26 -41
-21 -15 3 -33 7 -40 10 -9 2 -7 13 8 39 11 20 20 42 20 50 0 8 5 15 10 15 6 0
10 11 10 23 0 13 3 27 7 30 3 4 13 1 22 -6z"/>
<path d="M530 1280 c-13 0 -22 -9 -26 -25 -4 -14 -3 -29 1 -33 4 -4 15 4 26
17 10 13 19 27 19 32 0 5 -9 9 -20 9z"/>
<path d="M1185 380 c-9 0 -15 -9 -15 -25 0 -16 6 -25 15 -25 9 0 15 9 15 25 0
16 -6 25 -15 25z"/>
<path d="M886 290 c-8 0 -17 -4 -20 -9 -3 -4 -35 -9 -71 -9 -36 -1 -70 -4 -75
-7 -6 -4 -10 -12 -10 -19 0 -8 12 -16 28 -19 15 -3 32 -1 39 4 7 7 14 6 18 -1
4 -7 17 -3 37 11 28 20 31 21 40 5 5 -9 13 -14 19 -11 5 4 9 17 9 31 0 14 -6
24 -14 24z"/>
<path d="M748 114 c-16 4 -28 2 -28 -3 0 -4 -13 -11 -29 -14 -18 -4 -30 -14
-34 -28 -3 -12 -11 -19 -19 -16 -7 2 -21 0 -30 -5 -10 -5 -18 -13 -18 -18 0
-6 13 -10 28 -10 15 0 33 -5 40 -12 9 -9 16 -8 30 5 10 9 30 17 43 17 14 0 35
7 47 16 12 8 22 24 22 35 0 11 -6 21 -12 23 -7 3 -25 7 -40 10z"/>
</g>
</svg>
