<?xml version="1.0" standalone="no"?>
<!DOCTYPE svg PUBLIC "-//W3C//DTD SVG 20010904//EN"
 "http://www.w3.org/TR/2001/REC-SVG-20010904/DTD/svg10.dtd">
<svg version="1.0" xmlns="http://www.w3.org/2000/svg"
 width="128.000000pt" height="128.000000pt" viewBox="0 0 128.000000 128.000000"
 preserveAspectRatio="xMidYMid meet">
<metadata>
Created by potrace 1.16, written by Peter Selinger 2001-2019
</metadata>
<g transform="translate(0.000000,128.000000) scale(0.100000,-0.100000)"
fill="#000000" stroke="none">
<path d="M393 1279 c-5 0 -18 -10 -29 -22 -17 -17 -20 -31 -17 -59 4 -28 -1
-48 -20 -81 -14 -24 -60 -71 -101 -106 -47 -38 -76 -70 -76 -82 0 -14 7 -19
26 -19 14 0 40 10 57 22 18 12 55 41 83 65 28 24 60 43 71 43 10 0 24 -5 31
-12 7 -7 12 -23 12 -35 0 -14 -19 -44 -47 -75 -27 -29 -74 -78 -107 -110 -54
-55 -57 -60 -47 -86 6 -15 13 -77 15 -138 2 -62 9 -122 16 -134 7 -13 17 -19
27 -16 8 3 20 6 27 6 7 0 27 14 45 31 27 25 35 28 47 18 10 -8 13 -21 9 -38
-4 -14 -12 -35 -20 -47 -9 -14 -32 -25 -72 -33 -32 -6 -97 -13 -146 -15 -48
-3 -92 -8 -97 -11 -6 -3 -10 -14 -10 -23 1 -9 20 -29 44 -44 39 -25 47 -27 77
-16 19 6 43 17 54 25 11 7 29 13 42 13 12 0 34 5 48 12 20 9 28 9 38 -1 9 -9
8 -16 -3 -34 -7 -12 -20 -33 -27 -47 -7 -14 -49 -68 -93 -120 -44 -52 -80 -98
-80 -102 0 -4 10 -8 23 -8 12 0 36 9 52 20 17 11 44 29 60 40 17 11 41 33 53
49 12 17 22 35 22 40 0 5 11 23 25 40 15 18 32 28 40 24 8 -3 42 -39 76 -82
33 -42 67 -80 75 -84 8 -4 18 -6 23 -3 5 3 18 23 28 43 10 21 17 46 15 57 -3
12 -36 33 -96 61 -51 24 -98 51 -106 60 -10 12 -11 21 -3 33 7 13 25 17 66 17
41 1 62 6 77 20 12 11 26 28 31 37 7 14 3 21 -23 34 -18 10 -46 20 -62 23 -16
4 -34 14 -40 24 -9 15 -7 21 9 33 11 8 29 13 41 10 14 -4 30 4 51 27 22 23 32
45 37 82 4 28 13 66 20 85 7 19 19 52 25 72 10 30 10 43 -1 65 -7 15 -25 34
-41 43 -25 14 -30 13 -80 -12 -29 -16 -65 -28 -80 -28 -16 0 -36 -4 -46 -9
-10 -6 -23 -6 -32 0 -11 7 -2 20 44 64 32 30 78 68 101 85 24 16 46 36 50 45
3 8 0 26 -6 40 -6 13 -17 26 -25 30 -8 3 -32 0 -54 -6 -30 -9 -42 -9 -54 1
-10 8 -15 31 -15 71 0 32 -4 69 -10 83 -5 14 -16 26 -25 26 -8 0 -15 5 -15 10
0 6 -3 10 -7 9z m158 -469 c19 0 34 -8 44 -24 8 -13 13 -31 9 -40 -4 -9 -18
-23 -33 -30 -14 -7 -34 -11 -43 -9 -10 3 -18 13 -18 23 0 10 5 22 11 26 7 4 7
10 1 16 -6 6 -8 17 -5 24 3 8 18 14 34 14z m-133 -52 c10 -2 18 -15 20 -30 2
-19 -5 -36 -23 -54 -24 -24 -27 -25 -50 -10 -13 9 -31 16 -39 16 -7 0 -16 6
-19 14 -3 8 2 21 12 30 10 9 29 16 44 16 14 0 29 5 32 11 4 5 14 9 23 7z m137
-101 c18 -2 20 -8 17 -52 -2 -27 -9 -56 -14 -62 -6 -7 -19 -13 -29 -13 -16 0
-19 8 -19 59 0 38 4 61 13 65 6 2 21 4 32 3z m-153 -57 c16 0 31 -6 34 -14 3
-8 -2 -28 -11 -46 -14 -28 -20 -31 -53 -28 -29 2 -38 8 -40 25 -2 12 6 30 19
42 13 12 36 21 51 21z"/>
<path d="M711 1100 c-6 0 -12 -4 -16 -9 -3 -5 -1 -12 3 -15 5 -3 12 -3 16 1 3
3 6 10 6 15 0 4 -4 8 -9 8z"/>
<path d="M1125 1049 c-11 -1 -33 -4 -50 -8 -16 -4 -39 -12 -50 -18 -11 -6 -74
-21 -140 -33 -66 -11 -133 -24 -149 -28 -16 -4 -31 -13 -34 -20 -2 -7 10 -26
28 -42 32 -29 32 -29 102 6 38 19 77 34 85 32 10 -2 16 -17 18 -43 1 -22 5
-52 9 -66 7 -24 4 -27 -38 -39 -35 -10 -49 -10 -60 -1 -8 7 -17 23 -20 36 -5
18 -13 25 -31 25 -13 0 -27 -4 -30 -10 -3 -5 -1 -27 4 -47 5 -21 12 -78 15
-127 4 -63 10 -94 21 -105 15 -15 18 -13 41 13 16 18 23 34 18 45 -4 9 -9 32
-11 51 -4 27 0 40 16 54 11 10 27 16 36 13 11 -5 15 -22 15 -66 0 -33 4 -70 8
-83 5 -13 6 -53 3 -90 -4 -37 -12 -73 -19 -80 -7 -7 -40 -14 -72 -15 -33 -1
-64 -4 -69 -7 -5 -3 -7 -15 -4 -26 3 -10 14 -22 25 -25 10 -4 51 -1 91 5 40 7
77 16 82 20 6 4 54 10 108 12 74 3 101 8 114 21 16 16 16 18 -5 39 -15 16 -32
22 -59 21 -21 -1 -53 -3 -72 -5 -30 -3 -36 1 -42 22 -4 14 -8 61 -8 105 -1 44
-5 96 -10 115 -4 20 -4 46 1 59 7 21 12 22 46 16 20 -4 40 -11 43 -17 4 -6 0
-33 -7 -62 -8 -28 -14 -54 -14 -58 0 -5 15 -8 34 -8 18 0 39 6 45 14 6 7 18
35 26 62 8 27 15 58 15 69 0 11 3 66 6 123 6 97 5 103 -18 127 -12 14 -32 24
-43 24z m-59 -79 c11 0 25 -5 32 -12 7 -7 12 -29 12 -49 0 -21 -3 -44 -6 -53
-4 -9 -18 -16 -33 -16 -15 0 -32 -5 -38 -11 -7 -7 -18 -9 -26 -6 -11 4 -14 21
-13 62 1 49 5 59 26 71 14 7 34 13 46 14z"/>
<path d="M950 320 c-12 0 -24 -9 -30 -24 -5 -13 -14 -27 -21 -31 -6 -5 -46
-12 -88 -17 -42 -5 -89 -10 -106 -11 -16 -1 -31 -5 -32 -9 -2 -5 -3 -12 -3
-18 0 -5 14 -17 32 -26 23 -12 47 -15 92 -11 34 4 81 8 106 11 25 3 65 9 90
15 32 7 62 7 104 -2 56 -11 59 -11 77 12 10 13 19 27 19 32 0 4 -10 18 -22 30
-13 11 -32 24 -43 29 -11 4 -30 4 -43 -1 -13 -5 -41 -9 -62 -9 -24 0 -40 5
-44 15 -3 8 -15 15 -26 15z"/>
</g>
</svg>
