<?xml version="1.0" standalone="no"?>
<!DOCTYPE svg PUBLIC "-//W3C//DTD SVG 20010904//EN"
 "http://www.w3.org/TR/2001/REC-SVG-20010904/DTD/svg10.dtd">
<svg version="1.0" xmlns="http://www.w3.org/2000/svg"
 width="128.000000pt" height="128.000000pt" viewBox="0 0 128.000000 128.000000"
 preserveAspectRatio="xMidYMid meet">
<metadata>
Created by potrace 1.16, written by Peter Selinger 2001-2019
</metadata>
<g transform="translate(0.000000,128.000000) scale(0.100000,-0.100000)"
fill="#000000" stroke="none">
<path d="M617 1279 c-7 -1 -22 -11 -34 -24 -13 -12 -23 -30 -23 -39 0 -11 9
-16 29 -16 15 0 46 -12 67 -26 21 -15 42 -32 46 -38 4 -6 8 -14 8 -18 0 -5 -9
-17 -20 -28 -15 -15 -33 -20 -73 -20 -29 0 -85 -9 -125 -20 -53 -15 -87 -18
-127 -14 -39 5 -65 2 -95 -10 -22 -9 -56 -16 -74 -16 -20 0 -36 -6 -39 -14 -3
-8 0 -19 6 -24 7 -5 36 -20 65 -32 43 -19 63 -22 113 -16 33 3 69 11 80 17 15
7 24 7 33 0 9 -8 12 -26 8 -59 -3 -26 -18 -71 -33 -101 -26 -48 -29 -64 -29
-143 0 -49 5 -98 10 -109 6 -10 16 -19 23 -19 7 0 27 15 44 32 17 18 46 60 63
93 18 33 40 69 49 80 9 11 25 54 36 97 10 42 15 86 12 98 -3 12 -1 35 5 51 7
21 20 32 47 40 20 6 48 9 61 7 24 -3 25 -6 23 -66 -2 -34 -14 -103 -28 -152
-14 -49 -25 -98 -25 -108 0 -11 -11 -46 -25 -78 -14 -33 -34 -77 -45 -99 -10
-22 -32 -70 -48 -107 -17 -36 -54 -92 -83 -125 -29 -32 -77 -78 -106 -103 -30
-25 -75 -57 -100 -70 -26 -14 -63 -35 -81 -47 -21 -14 -50 -23 -73 -23 -20 0
-44 -3 -53 -6 -9 -3 -16 -10 -16 -16 0 -6 37 -8 93 -5 50 3 112 9 137 15 25 5
72 19 105 31 39 14 78 38 111 69 28 26 80 83 115 127 36 44 76 103 90 130 15
28 33 64 42 80 9 17 27 62 41 100 13 39 30 89 37 113 9 30 17 42 31 42 11 0
40 -22 66 -49 26 -27 65 -72 87 -100 30 -38 46 -51 66 -51 14 0 36 11 49 24
15 17 23 38 24 64 0 22 -8 56 -19 76 -15 28 -32 41 -73 56 -29 11 -73 20 -98
20 -25 0 -54 5 -65 10 -17 10 -19 22 -19 119 0 91 3 110 18 124 13 12 42 17
107 19 90 3 90 3 93 31 2 16 -2 35 -8 42 -7 8 -25 21 -41 30 -16 8 -44 23 -61
32 -18 10 -56 18 -85 18 -34 1 -59 7 -71 18 -10 9 -30 17 -45 17 -14 0 -28 4
-31 9 -3 5 -20 11 -38 14 -18 3 -51 10 -73 16 -22 5 -41 15 -43 20 -2 6 -9 11
-15 10z"/>
<path d="M1130 1280 c-16 0 -30 -4 -30 -10 0 -5 14 -10 30 -10 17 0 30 5 30
10 0 6 -13 10 -30 10z"/>
<path d="M1110 1240 c-5 0 -11 -4 -15 -9 -3 -5 -1 -12 5 -16 5 -3 15 -3 20 0
6 4 8 11 5 16 -4 5 -10 9 -15 9z"/>
<path d="M164 616 c-5 2 -24 -3 -42 -11 -30 -13 -33 -18 -30 -52 2 -26 8 -38
18 -38 10 0 14 8 12 25 -2 20 4 28 29 37 17 7 29 18 27 24 -2 7 -8 14 -14 15z"/>
<path d="M245 610 c-8 0 -15 -7 -15 -15 0 -8 4 -15 9 -15 5 0 11 7 15 15 3 9
0 15 -9 15z"/>
<path d="M202 570 c-5 0 -12 -3 -15 -7 -4 -3 -7 -10 -7 -14 0 -5 7 -6 15 -3 8
4 15 10 15 15 0 5 -4 9 -8 9z"/>
<path d="M155 480 c-13 0 -26 -4 -30 -9 -3 -5 0 -13 5 -16 6 -4 22 -4 36 -1
14 4 22 11 19 16 -3 6 -17 10 -30 10z"/>
</g>
</svg>
