<?xml version="1.0" standalone="no"?>
<!DOCTYPE svg PUBLIC "-//W3C//DTD SVG 20010904//EN"
 "http://www.w3.org/TR/2001/REC-SVG-20010904/DTD/svg10.dtd">
<svg version="1.0" xmlns="http://www.w3.org/2000/svg"
 width="128.000000pt" height="128.000000pt" viewBox="0 0 128.000000 128.000000"
 preserveAspectRatio="xMidYMid meet">
<metadata>
Created by potrace 1.16, written by Peter Selinger 2001-2019
</metadata>
<g transform="translate(0.000000,128.000000) scale(0.100000,-0.100000)"
fill="#000000" stroke="none">
<path d="M1034 1248 c-28 0 -55 -10 -85 -30 -24 -16 -55 -40 -69 -53 -14 -13
-50 -35 -81 -49 -36 -16 -80 -48 -125 -93 -38 -38 -86 -82 -108 -98 -21 -16
-52 -42 -68 -57 -17 -15 -36 -28 -43 -28 -8 0 -17 10 -21 23 -4 12 -7 46 -6
74 1 42 -2 55 -18 63 -10 5 -29 10 -40 10 -13 0 -38 -17 -59 -40 -22 -24 -45
-40 -59 -40 -12 0 -22 5 -22 11 0 6 7 38 15 70 9 33 13 64 10 69 -3 5 -12 7
-19 4 -8 -3 -30 -30 -50 -60 -31 -46 -36 -62 -36 -112 0 -36 6 -66 16 -80 8
-12 24 -22 36 -22 11 0 48 20 83 44 34 24 67 41 72 37 6 -3 13 -37 16 -76 5
-70 5 -70 -51 -142 -32 -40 -74 -95 -96 -123 -24 -32 -44 -50 -55 -48 -11 3
-16 13 -14 33 0 17 -5 54 -13 82 -12 43 -19 54 -40 59 -15 4 -30 2 -37 -5 -8
-8 -12 -48 -12 -109 0 -53 -6 -153 -13 -222 -6 -69 -17 -144 -23 -168 -9 -31
-9 -46 -1 -54 8 -8 19 -2 39 19 15 16 46 55 68 86 29 42 46 57 63 57 19 0 28
-11 48 -57 14 -32 34 -68 45 -79 11 -12 28 -43 38 -70 13 -33 25 -50 39 -52
17 -3 21 4 27 50 4 29 11 60 16 70 5 9 10 61 12 116 3 55 7 104 10 108 3 5 8
94 11 198 4 104 9 193 12 197 3 5 16 9 29 9 16 0 44 18 77 50 28 27 68 57 87
66 20 10 57 38 82 63 26 25 74 72 108 104 34 31 67 57 75 57 8 0 18 5 21 10 4
6 30 22 58 35 28 14 55 25 59 25 5 0 22 -28 38 -62 17 -35 30 -72 30 -83 0
-11 6 -50 14 -87 8 -37 16 -71 20 -76 3 -5 8 -71 11 -147 6 -137 6 -137 -42
-131 -26 4 -53 14 -60 23 -7 8 -27 18 -45 22 -19 4 -33 13 -33 21 0 9 10 15
25 15 20 0 30 10 51 55 15 30 30 78 33 106 8 52 8 52 -26 58 -18 4 -46 9 -61
13 -17 3 -34 0 -45 -9 -9 -9 -31 -20 -48 -25 -16 -6 -53 -33 -81 -60 -28 -27
-53 -59 -57 -70 -4 -12 -11 -47 -17 -80 -5 -32 -14 -84 -20 -115 -6 -36 -6
-87 0 -140 8 -70 13 -86 35 -105 14 -12 26 -30 26 -39 0 -9 -47 -64 -105 -122
-58 -58 -105 -109 -105 -114 0 -4 25 -8 55 -8 45 0 60 5 79 23 12 12 33 53 46
90 13 38 30 67 37 67 8 0 17 -8 21 -18 4 -9 17 -32 27 -50 11 -18 31 -35 45
-39 14 -3 34 -13 45 -23 11 -10 30 -23 42 -29 12 -6 57 -11 100 -11 73 0 81 2
112 30 27 25 31 35 26 59 -4 18 -1 41 8 58 8 15 17 62 20 103 3 42 0 94 -6
117 -8 31 -8 58 1 105 7 35 13 83 13 108 1 25 -1 99 -4 165 -3 66 -13 153 -21
193 -9 40 -16 86 -16 102 0 16 -4 32 -10 35 -5 3 -19 28 -31 54 -14 34 -31 54
-57 69 -22 12 -55 21 -78 20z m-82 -401 c4 -7 8 -40 8 -74 0 -34 -4 -64 -9
-67 -4 -3 -11 -29 -15 -57 -5 -38 -4 -54 6 -60 7 -5 23 -9 35 -9 15 0 28 -10
38 -30 8 -16 15 -33 15 -39 0 -5 -24 -34 -52 -64 -29 -30 -73 -77 -98 -106
-25 -28 -49 -49 -54 -48 -5 2 -15 23 -22 48 -8 26 -12 72 -9 113 2 38 9 92 15
120 6 28 19 74 28 101 8 28 32 74 51 104 20 29 40 60 46 67 7 10 11 10 17 1z
m-586 -287 c7 0 14 -10 18 -23 3 -12 -1 -42 -10 -65 -8 -24 -17 -90 -21 -147
-4 -69 -10 -106 -18 -109 -8 -3 -32 25 -59 65 -25 38 -51 69 -56 69 -6 0 -10
9 -10 19 0 12 11 25 28 33 15 7 38 34 52 59 14 24 34 57 45 72 11 14 25 27 31
27z m765 -160 c4 0 12 -7 19 -15 7 -8 9 -23 5 -32 -3 -10 -8 -36 -11 -57 -2
-22 -10 -60 -18 -85 -8 -26 -17 -58 -20 -73 -6 -25 -11 -28 -47 -28 -34 0 -46
6 -85 45 -24 25 -44 53 -44 64 0 10 7 32 15 49 11 20 26 33 46 37 16 4 37 18
46 31 9 14 32 34 52 44 20 11 39 19 42 20z m-232 -200 c4 0 17 -13 29 -30 12
-16 22 -36 22 -45 0 -8 -9 -15 -21 -15 -14 0 -25 11 -35 35 -8 20 -12 40 -9
45 4 6 10 10 14 10z"/>
</g>
</svg>
