<?xml version="1.0" standalone="no"?>
<!DOCTYPE svg PUBLIC "-//W3C//DTD SVG 20010904//EN"
 "http://www.w3.org/TR/2001/REC-SVG-20010904/DTD/svg10.dtd">
<svg version="1.0" xmlns="http://www.w3.org/2000/svg"
 width="56.000000pt" height="56.000000pt" viewBox="0 0 56.000000 56.000000"
 preserveAspectRatio="xMidYMid meet">
<metadata>
Created by potrace 1.16, written by Peter Selinger 2001-2019
</metadata>
<g transform="translate(0.000000,56.000000) scale(0.100000,-0.100000)"
fill="#000000" stroke="none">
<path d="M262 560 c-16 0 -24 -11 -36 -54 -9 -30 -16 -59 -16 -66 0 -7 -8 -9
-21 -5 -13 4 -27 0 -40 -11 -11 -10 -19 -30 -19 -49 0 -22 6 -35 17 -40 12 -4
24 1 35 14 9 12 19 21 22 21 3 0 6 -20 6 -45 0 -35 5 -49 27 -70 15 -14 31
-25 34 -25 4 0 9 -11 11 -24 3 -14 1 -29 -4 -34 -5 -5 0 -20 12 -34 11 -15 18
-33 14 -41 -4 -11 5 -16 32 -21 22 -5 41 -3 47 3 7 7 7 18 -1 36 -6 14 -18 25
-25 25 -7 0 -18 5 -25 12 -8 8 -6 17 8 36 11 14 20 29 20 34 0 5 -16 16 -36
24 -36 15 -36 15 -13 41 13 14 43 36 67 50 31 18 42 31 42 49 0 14 -7 27 -16
31 -9 3 -24 2 -33 -4 -12 -8 -23 -4 -49 18 -18 16 -40 29 -49 29 -12 0 -14 6
-9 28 4 15 10 37 13 50 4 17 1 22 -15 22z m-14 -130 c5 0 28 -15 50 -32 23
-18 41 -38 41 -44 1 -6 -17 -25 -38 -42 -39 -31 -39 -31 -44 1 -3 18 -9 51
-12 75 -5 26 -4 42 3 42z"/>
<path d="M185 220 c-8 0 -15 -7 -15 -15 0 -8 7 -15 15 -15 8 0 15 7 15 15 0 8
-7 15 -15 15z"/>
<path d="M340 53 c-14 3 -34 2 -45 -2 -19 -8 -19 -8 3 -15 12 -4 22 -14 22
-22 0 -9 11 -14 35 -14 23 0 35 5 35 14 0 7 -6 18 -12 23 -7 6 -24 13 -38 16z"/>
<path d="M161 20 c-17 0 -33 -4 -36 -10 -4 -6 8 -10 29 -10 20 0 36 5 36 10 0
6 -13 10 -29 10z"/>
</g>
</svg>
