<?xml version="1.0" standalone="no"?>
<!DOCTYPE svg PUBLIC "-//W3C//DTD SVG 20010904//EN"
 "http://www.w3.org/TR/2001/REC-SVG-20010904/DTD/svg10.dtd">
<svg version="1.0" xmlns="http://www.w3.org/2000/svg"
 width="56.000000pt" height="56.000000pt" viewBox="0 0 56.000000 56.000000"
 preserveAspectRatio="xMidYMid meet">
<metadata>
Created by potrace 1.16, written by Peter Selinger 2001-2019
</metadata>
<g transform="translate(0.000000,56.000000) scale(0.100000,-0.100000)"
fill="#000000" stroke="none">
<path d="M154 520 c-8 0 -17 -7 -21 -16 -3 -8 -1 -25 4 -37 5 -12 11 -44 12
-72 1 -27 4 -58 7 -68 3 -10 -2 -29 -11 -43 -10 -16 -17 -49 -18 -87 -1 -49 4
-71 23 -105 20 -36 22 -46 12 -62 -7 -11 -12 -22 -12 -25 0 -3 11 -5 24 -5 14
0 28 5 31 10 3 6 33 10 66 10 33 0 69 -5 81 -11 11 -6 31 -8 44 -5 13 4 24 12
24 19 -1 6 -34 33 -75 60 -40 26 -82 47 -93 47 -11 0 -29 8 -41 17 -20 17 -21
22 -11 72 6 30 17 65 25 77 8 12 22 25 32 27 10 3 39 10 66 17 26 7 47 18 47
25 0 6 -11 18 -25 25 -14 7 -25 17 -25 22 0 4 -7 8 -15 8 -9 0 -27 -7 -40 -16
-14 -9 -32 -14 -40 -10 -8 3 -15 15 -15 26 0 11 -9 39 -20 60 -11 22 -27 40
-36 40z"/>
</g>
</svg>
