<?xml version="1.0" standalone="no"?>
<!DOCTYPE svg PUBLIC "-//W3C//DTD SVG 20010904//EN"
 "http://www.w3.org/TR/2001/REC-SVG-20010904/DTD/svg10.dtd">
<svg version="1.0" xmlns="http://www.w3.org/2000/svg"
 width="56.000000pt" height="56.000000pt" viewBox="0 0 56.000000 56.000000"
 preserveAspectRatio="xMidYMid meet">
<metadata>
Created by potrace 1.16, written by Peter Selinger 2001-2019
</metadata>
<g transform="translate(0.000000,56.000000) scale(0.100000,-0.100000)"
fill="#000000" stroke="none">
<path d="M207 545 c-2 11 -5 14 -6 8 0 -7 -7 -13 -15 -13 -7 0 -19 -7 -26 -15
-10 -12 -8 -24 10 -62 12 -26 24 -70 27 -98 4 -40 1 -60 -16 -94 -12 -23 -25
-64 -28 -90 -4 -33 -1 -57 10 -78 9 -16 32 -42 53 -58 24 -19 53 -30 83 -33
40 -3 49 0 70 22 25 26 25 27 5 46 -10 11 -46 25 -79 33 -54 12 -62 17 -78 50
-18 36 -18 36 5 68 13 17 47 55 76 83 30 28 65 58 78 66 13 8 24 24 24 36 0
14 -8 24 -21 27 -14 4 -32 -5 -58 -29 -21 -19 -46 -34 -55 -34 -13 0 -16 10
-16 49 0 32 -6 56 -19 72 -10 13 -21 33 -24 44z"/>
</g>
</svg>
