<?xml version="1.0" standalone="no"?>
<!DOCTYPE svg PUBLIC "-//W3C//DTD SVG 20010904//EN"
 "http://www.w3.org/TR/2001/REC-SVG-20010904/DTD/svg10.dtd">
<svg version="1.0" xmlns="http://www.w3.org/2000/svg"
 width="56.000000pt" height="56.000000pt" viewBox="0 0 56.000000 56.000000"
 preserveAspectRatio="xMidYMid meet">
<metadata>
Created by potrace 1.16, written by Peter Selinger 2001-2019
</metadata>
<g transform="translate(0.000000,56.000000) scale(0.100000,-0.100000)"
fill="#000000" stroke="none">
<path d="M221 560 c-11 0 -21 -8 -23 -17 -2 -10 -1 -25 4 -33 4 -8 17 -55 28
-104 20 -86 20 -89 3 -110 -10 -11 -24 -31 -30 -43 -7 -13 -13 -46 -13 -75 1
-46 6 -61 43 -113 35 -49 49 -61 74 -63 32 -3 32 -3 -18 85 -41 72 -49 95 -46
125 3 21 12 49 21 63 9 14 32 31 51 39 20 9 38 22 41 31 4 9 -2 25 -12 36 -12
13 -21 16 -28 9 -5 -5 -15 -10 -22 -10 -7 0 -11 23 -10 70 0 59 -3 73 -22 90
-11 11 -30 20 -41 20z"/>
</g>
</svg>
