<?xml version="1.0" standalone="no"?>
<!DOCTYPE svg PUBLIC "-//W3C//DTD SVG 20010904//EN"
 "http://www.w3.org/TR/2001/REC-SVG-20010904/DTD/svg10.dtd">
<svg version="1.0" xmlns="http://www.w3.org/2000/svg"
 width="56.000000pt" height="56.000000pt" viewBox="0 0 56.000000 56.000000"
 preserveAspectRatio="xMidYMid meet">
<metadata>
Created by potrace 1.16, written by Peter Selinger 2001-2019
</metadata>
<g transform="translate(0.000000,56.000000) scale(0.100000,-0.100000)"
fill="#000000" stroke="none">
<path d="M183 560 c-7 0 -13 -4 -13 -9 0 -4 8 -19 18 -32 11 -13 22 -46 25
-72 4 -27 14 -64 23 -83 15 -32 15 -36 -5 -79 -12 -26 -21 -65 -21 -93 0 -41
5 -55 34 -88 35 -39 35 -39 -2 -71 -31 -27 -34 -32 -17 -33 11 0 49 17 85 38
44 25 66 44 68 59 3 18 -4 24 -40 33 -24 6 -49 13 -56 15 -7 3 -16 15 -22 29
-5 15 -5 37 0 58 6 21 27 48 55 71 33 28 45 45 45 65 0 16 -5 33 -12 40 -7 7
-20 12 -29 12 -9 0 -22 -7 -29 -15 -7 -8 -16 -15 -20 -15 -4 0 -13 28 -20 63
-6 35 -21 72 -33 85 -11 12 -26 22 -34 22z"/>
</g>
</svg>
