<?xml version="1.0" standalone="no"?>
<!DOCTYPE svg PUBLIC "-//W3C//DTD SVG 20010904//EN"
 "http://www.w3.org/TR/2001/REC-SVG-20010904/DTD/svg10.dtd">
<svg version="1.0" xmlns="http://www.w3.org/2000/svg"
 width="56.000000pt" height="56.000000pt" viewBox="0 0 56.000000 56.000000"
 preserveAspectRatio="xMidYMid meet">
<metadata>
Created by potrace 1.16, written by Peter Selinger 2001-2019
</metadata>
<g transform="translate(0.000000,56.000000) scale(0.100000,-0.100000)"
fill="#000000" stroke="none">
<path d="M268 560 c-33 0 -35 -2 -47 -50 -7 -28 -12 -83 -10 -123 3 -52 -1
-80 -12 -102 -9 -16 -22 -53 -28 -81 -11 -44 -10 -57 4 -90 9 -22 32 -56 53
-76 20 -22 46 -38 58 -38 12 0 29 3 38 6 9 3 16 12 16 20 0 7 -11 21 -24 29
-13 9 -36 33 -50 54 -21 29 -26 49 -26 95 0 59 0 59 70 127 39 38 70 74 70 79
0 6 -7 22 -16 35 -9 14 -22 25 -29 25 -7 0 -18 -7 -25 -15 -7 -8 -17 -15 -22
-15 -6 0 -8 15 -3 38 3 20 9 47 12 60 5 19 1 22 -29 22z"/>
</g>
</svg>
