<?xml version="1.0" standalone="no"?>
<!DOCTYPE svg PUBLIC "-//W3C//DTD SVG 20010904//EN"
 "http://www.w3.org/TR/2001/REC-SVG-20010904/DTD/svg10.dtd">
<svg version="1.0" xmlns="http://www.w3.org/2000/svg"
 width="56.000000pt" height="56.000000pt" viewBox="0 0 56.000000 56.000000"
 preserveAspectRatio="xMidYMid meet">
<metadata>
Created by potrace 1.16, written by Peter Selinger 2001-2019
</metadata>
<g transform="translate(0.000000,56.000000) scale(0.100000,-0.100000)"
fill="#000000" stroke="none">
<path d="M300 560 c-54 0 -80 -4 -80 -12 0 -6 -7 -19 -15 -28 -13 -15 -14 -28
-5 -85 6 -37 20 -85 31 -107 20 -39 20 -39 -10 -74 -17 -19 -33 -45 -37 -58
-3 -13 -1 -40 5 -60 5 -21 24 -60 41 -87 31 -48 33 -49 81 -49 27 0 49 5 49
10 0 6 -22 38 -50 71 -28 33 -50 67 -50 75 0 8 11 31 25 52 13 20 38 56 55 80
16 23 30 49 30 56 0 8 -7 17 -16 20 -9 3 -26 6 -40 6 -14 0 -30 10 -40 25 -13
19 -15 38 -11 77 4 28 9 53 11 56 3 2 24 -9 47 -26 23 -17 46 -29 51 -26 4 3
8 23 8 45 0 39 0 39 -80 39z"/>
</g>
</svg>
