<?xml version="1.0" standalone="no"?>
<!DOCTYPE svg PUBLIC "-//W3C//DTD SVG 20010904//EN"
 "http://www.w3.org/TR/2001/REC-SVG-20010904/DTD/svg10.dtd">
<svg version="1.0" xmlns="http://www.w3.org/2000/svg"
 width="56.000000pt" height="56.000000pt" viewBox="0 0 56.000000 56.000000"
 preserveAspectRatio="xMidYMid meet">
<metadata>
Created by potrace 1.16, written by Peter Selinger 2001-2019
</metadata>
<g transform="translate(0.000000,56.000000) scale(0.100000,-0.100000)"
fill="#000000" stroke="none">
<path d="M263 516 c-25 5 -33 3 -33 -8 0 -8 20 -24 45 -36 25 -12 54 -22 65
-22 11 0 20 -4 20 -9 0 -5 -16 -19 -35 -31 -19 -12 -35 -25 -35 -30 0 -4 -16
-11 -36 -15 -33 -6 -41 -3 -75 31 -21 21 -46 53 -54 71 -11 22 -22 33 -33 31
-10 -2 -18 -15 -20 -31 -3 -21 8 -43 37 -81 22 -29 67 -74 101 -100 34 -25 66
-46 70 -46 4 0 10 9 13 21 3 12 1 32 -4 46 -5 13 -9 30 -9 37 0 7 17 20 38 29
21 9 44 17 51 17 7 0 35 10 62 22 31 15 49 29 49 40 0 10 -16 26 -39 38 -25
12 -59 20 -93 19 -29 0 -68 3 -85 7z"/>
<path d="M156 306 c-10 13 -14 12 -34 -9 -17 -18 -24 -41 -29 -90 -4 -45 -2
-76 7 -98 8 -19 26 -37 45 -45 23 -9 43 -10 75 -3 24 6 49 14 55 19 5 4 28 10
49 12 24 2 41 -2 43 -9 2 -6 -10 -27 -28 -47 -31 -36 -31 -36 10 -36 34 0 48
6 75 32 18 18 36 41 39 51 4 9 11 17 17 17 5 0 10 6 10 13 0 7 -13 26 -29 41
-26 25 -32 26 -52 15 -13 -7 -55 -20 -94 -30 -38 -10 -83 -19 -98 -19 -23 0
-31 7 -44 37 -9 24 -13 55 -11 85 3 28 0 55 -6 64z"/>
</g>
</svg>
