<?xml version="1.0" standalone="no"?>
<!DOCTYPE svg PUBLIC "-//W3C//DTD SVG 20010904//EN"
 "http://www.w3.org/TR/2001/REC-SVG-20010904/DTD/svg10.dtd">
<svg version="1.0" xmlns="http://www.w3.org/2000/svg"
 width="56.000000pt" height="56.000000pt" viewBox="0 0 56.000000 56.000000"
 preserveAspectRatio="xMidYMid meet">
<metadata>
Created by potrace 1.16, written by Peter Selinger 2001-2019
</metadata>
<g transform="translate(0.000000,56.000000) scale(0.100000,-0.100000)"
fill="#000000" stroke="none">
<path d="M294 537 c-6 2 -16 -3 -23 -11 -6 -8 -16 -43 -22 -78 -6 -34 -7 -87
-4 -117 4 -29 3 -56 -2 -60 -5 -3 -23 -26 -39 -51 -17 -25 -36 -59 -43 -77
-10 -23 -10 -36 -1 -52 6 -12 21 -27 33 -35 12 -8 44 -17 70 -21 27 -3 51 -13
54 -21 3 -9 20 -14 44 -14 21 0 39 3 39 6 0 3 -12 20 -26 38 -16 18 -41 34
-63 39 -20 4 -48 10 -63 14 -15 3 -30 14 -33 24 -4 10 -3 29 0 42 4 12 16 31
26 42 11 11 30 36 42 55 13 19 35 41 50 48 15 7 27 17 27 22 0 5 9 12 20 15
11 3 20 13 20 21 0 11 -9 13 -40 9 -28 -3 -42 -1 -46 8 -2 7 -6 44 -7 82 -1
39 -7 70 -13 72z"/>
</g>
</svg>
