<?xml version="1.0" standalone="no"?>
<!DOCTYPE svg PUBLIC "-//W3C//DTD SVG 20010904//EN"
 "http://www.w3.org/TR/2001/REC-SVG-20010904/DTD/svg10.dtd">
<svg version="1.0" xmlns="http://www.w3.org/2000/svg"
 width="56.000000pt" height="56.000000pt" viewBox="0 0 56.000000 56.000000"
 preserveAspectRatio="xMidYMid meet">
<metadata>
Created by potrace 1.16, written by Peter Selinger 2001-2019
</metadata>
<g transform="translate(0.000000,56.000000) scale(0.100000,-0.100000)"
fill="#000000" stroke="none">
<path d="M188 543 c-9 3 -21 0 -26 -6 -7 -8 -5 -36 5 -82 8 -38 17 -82 20 -98
3 -16 -4 -58 -18 -99 -20 -62 -21 -76 -11 -115 7 -24 19 -55 28 -68 11 -17 37
-31 87 -46 49 -14 76 -18 87 -12 8 6 16 21 18 35 2 14 -3 29 -10 35 -7 5 -29
16 -48 23 -19 7 -48 25 -63 39 -25 23 -28 31 -23 64 4 21 17 60 30 85 14 26
39 56 57 67 18 11 41 25 51 31 10 6 21 14 25 17 3 4 -2 16 -12 27 -10 11 -26
20 -37 20 -10 0 -18 -4 -18 -9 0 -5 -14 -14 -31 -22 -28 -11 -33 -10 -45 6 -8
10 -14 28 -14 39 0 12 -8 30 -18 42 -9 12 -25 24 -34 27z"/>
</g>
</svg>
