<?xml version="1.0" standalone="no"?>
<!DOCTYPE svg PUBLIC "-//W3C//DTD SVG 20010904//EN"
 "http://www.w3.org/TR/2001/REC-SVG-20010904/DTD/svg10.dtd">
<svg version="1.0" xmlns="http://www.w3.org/2000/svg"
 width="56.000000pt" height="56.000000pt" viewBox="0 0 56.000000 56.000000"
 preserveAspectRatio="xMidYMid meet">
<metadata>
Created by potrace 1.16, written by Peter Selinger 2001-2019
</metadata>
<g transform="translate(0.000000,56.000000) scale(0.100000,-0.100000)"
fill="#000000" stroke="none">
<path d="M207 560 c-1 0 -12 -15 -24 -33 -13 -18 -23 -38 -23 -44 0 -7 15 -13
33 -15 29 -3 33 -7 39 -43 4 -22 10 -52 13 -67 5 -20 0 -40 -20 -75 -16 -27
-36 -59 -47 -72 -10 -13 -18 -34 -18 -48 0 -13 6 -38 14 -57 9 -21 25 -37 47
-46 19 -8 51 -24 71 -37 21 -13 51 -23 68 -23 23 0 33 6 39 22 5 13 5 31 -1
41 -6 12 -21 17 -53 17 -24 0 -57 6 -72 12 -15 7 -36 21 -45 32 -10 10 -18 27
-18 36 0 10 7 23 15 30 8 7 15 21 15 30 0 10 12 28 26 39 14 11 42 23 63 27
20 3 44 8 54 11 10 2 17 14 17 29 0 17 -8 27 -27 35 -20 7 -33 7 -49 -2 -12
-6 -27 -9 -32 -5 -5 3 -13 25 -16 48 -3 24 -8 57 -11 75 -2 17 -16 43 -30 57
-14 14 -27 26 -28 26z"/>
</g>
</svg>
