<?xml version="1.0" standalone="no"?>
<!DOCTYPE svg PUBLIC "-//W3C//DTD SVG 20010904//EN"
 "http://www.w3.org/TR/2001/REC-SVG-20010904/DTD/svg10.dtd">
<svg version="1.0" xmlns="http://www.w3.org/2000/svg"
 width="56.000000pt" height="56.000000pt" viewBox="0 0 56.000000 56.000000"
 preserveAspectRatio="xMidYMid meet">
<metadata>
Created by potrace 1.16, written by Peter Selinger 2001-2019
</metadata>
<g transform="translate(0.000000,56.000000) scale(0.100000,-0.100000)"
fill="#000000" stroke="none">
<path d="M253 551 c-5 5 -12 6 -16 3 -4 -4 -7 -64 -7 -134 0 -82 4 -130 12
-138 8 -8 8 -15 1 -24 -6 -7 -20 -30 -32 -51 -12 -22 -21 -56 -21 -81 0 -38 5
-48 35 -75 19 -17 35 -35 35 -41 0 -5 20 -10 45 -10 29 0 45 4 45 13 0 6 -4
17 -8 23 -4 6 -26 21 -49 33 -23 11 -47 30 -53 41 -6 10 -8 37 -4 58 4 28 20
53 56 91 27 28 46 56 42 62 -3 6 -17 9 -30 6 -13 -2 -28 1 -33 7 -6 7 -10 56
-10 110 0 54 -3 102 -8 107z"/>
</g>
</svg>
