<?xml version="1.0" standalone="no"?>
<!DOCTYPE svg PUBLIC "-//W3C//DTD SVG 20010904//EN"
 "http://www.w3.org/TR/2001/REC-SVG-20010904/DTD/svg10.dtd">
<svg version="1.0" xmlns="http://www.w3.org/2000/svg"
 width="56.000000pt" height="56.000000pt" viewBox="0 0 56.000000 56.000000"
 preserveAspectRatio="xMidYMid meet">
<metadata>
Created by potrace 1.16, written by Peter Selinger 2001-2019
</metadata>
<g transform="translate(0.000000,56.000000) scale(0.100000,-0.100000)"
fill="#000000" stroke="none">
<path d="M244 560 c-5 0 -15 -9 -22 -20 -6 -11 -12 -27 -12 -36 0 -11 6 -15
20 -11 16 4 20 0 20 -21 0 -15 -7 -49 -16 -77 -8 -28 -12 -64 -9 -82 4 -22 -1
-45 -15 -72 -12 -25 -20 -58 -19 -88 0 -26 8 -61 18 -77 9 -16 28 -38 42 -48
14 -11 45 -22 68 -25 42 -6 43 -5 39 22 -2 23 -10 30 -46 41 -24 7 -50 21 -57
31 -8 10 -15 38 -15 62 0 26 8 58 21 80 11 20 33 45 49 56 16 11 34 29 41 41
6 12 8 27 5 33 -4 6 -14 11 -21 11 -8 0 -19 -9 -25 -20 -6 -11 -18 -20 -27
-20 -12 0 -14 7 -10 28 3 15 8 54 12 87 6 51 4 63 -13 83 -11 12 -23 22 -28
22z"/>
</g>
</svg>
