<?xml version="1.0" standalone="no"?>
<!DOCTYPE svg PUBLIC "-//W3C//DTD SVG 20010904//EN"
 "http://www.w3.org/TR/2001/REC-SVG-20010904/DTD/svg10.dtd">
<svg version="1.0" xmlns="http://www.w3.org/2000/svg"
 width="56.000000pt" height="56.000000pt" viewBox="0 0 56.000000 56.000000"
 preserveAspectRatio="xMidYMid meet">
<metadata>
Created by potrace 1.16, written by Peter Selinger 2001-2019
</metadata>
<g transform="translate(0.000000,56.000000) scale(0.100000,-0.100000)"
fill="#000000" stroke="none">
<path d="M264 560 c-22 0 -24 -3 -18 -27 4 -16 15 -37 25 -49 11 -11 17 -23
14 -26 -3 -3 -10 -41 -16 -84 -6 -44 -13 -103 -16 -133 -3 -35 -14 -68 -30
-93 -20 -29 -24 -45 -19 -71 3 -18 15 -43 27 -55 13 -15 32 -22 56 -22 35 0
36 0 18 20 -10 11 -23 20 -30 20 -6 0 -17 11 -23 24 -6 14 -8 36 -3 53 6 22
13 27 32 25 17 -1 35 8 55 29 28 29 28 31 11 44 -11 8 -26 11 -34 8 -13 -5
-15 3 -9 63 4 38 9 93 12 122 4 38 11 55 25 62 14 8 19 22 19 50 0 36 -3 40
-24 40 -13 0 -27 -6 -30 -12 -5 -10 -7 -10 -12 0 -3 6 -17 12 -30 12z"/>
</g>
</svg>
