<?xml version="1.0" standalone="no"?>
<!DOCTYPE svg PUBLIC "-//W3C//DTD SVG 20010904//EN"
 "http://www.w3.org/TR/2001/REC-SVG-20010904/DTD/svg10.dtd">
<svg version="1.0" xmlns="http://www.w3.org/2000/svg"
 width="56.000000pt" height="56.000000pt" viewBox="0 0 56.000000 56.000000"
 preserveAspectRatio="xMidYMid meet">
<metadata>
Created by potrace 1.16, written by Peter Selinger 2001-2019
</metadata>
<g transform="translate(0.000000,56.000000) scale(0.100000,-0.100000)"
fill="#000000" stroke="none">
<path d="M176 560 c-17 0 -18 -5 -12 -60 4 -33 14 -77 23 -97 8 -21 22 -42 30
-47 12 -6 9 -13 -18 -35 -19 -16 -29 -32 -25 -39 4 -7 23 -12 43 -12 26 0 36
5 40 20 3 11 13 20 22 20 9 0 24 7 35 15 10 8 25 26 32 41 12 22 12 29 2 36
-7 4 -23 8 -35 8 -12 0 -32 -4 -46 -9 -13 -5 -29 -6 -36 -1 -7 4 -13 28 -13
56 0 27 -5 61 -11 77 -7 16 -20 27 -31 27z"/>
<path d="M165 260 c-7 0 -27 -19 -44 -42 -17 -23 -31 -48 -31 -56 0 -8 5 -33
12 -56 6 -22 22 -54 34 -70 14 -19 33 -30 51 -32 15 -1 65 5 111 13 46 8 90
12 98 9 8 -3 25 -1 39 4 14 5 25 16 25 24 0 8 -13 24 -29 35 -16 12 -37 21
-48 21 -10 0 -35 -9 -56 -20 -21 -11 -52 -20 -70 -19 -18 1 -47 -2 -64 -6 -32
-7 -33 -7 -32 26 0 19 6 61 13 94 7 33 11 63 9 68 -2 4 -10 7 -18 7z"/>
</g>
</svg>
