<?xml version="1.0" standalone="no"?>
<!DOCTYPE svg PUBLIC "-//W3C//DTD SVG 20010904//EN"
 "http://www.w3.org/TR/2001/REC-SVG-20010904/DTD/svg10.dtd">
<svg version="1.0" xmlns="http://www.w3.org/2000/svg"
 width="56.000000pt" height="56.000000pt" viewBox="0 0 56.000000 56.000000"
 preserveAspectRatio="xMidYMid meet">
<metadata>
Created by potrace 1.16, written by Peter Selinger 2001-2019
</metadata>
<g transform="translate(0.000000,56.000000) scale(0.100000,-0.100000)"
fill="#000000" stroke="none">
<path d="M244 560 c-24 0 -26 -3 -20 -32 3 -18 6 -84 7 -146 2 -106 1 -113
-22 -138 -19 -20 -24 -36 -23 -71 1 -42 6 -51 49 -91 41 -39 46 -48 36 -64 -9
-15 -8 -18 9 -18 12 0 34 7 50 15 17 9 30 24 30 34 0 12 -22 34 -57 58 -41 28
-60 49 -67 71 -6 22 -5 36 3 46 7 8 39 32 71 53 33 21 62 44 65 52 3 8 0 21
-8 28 -9 9 -23 12 -40 7 -15 -3 -27 -10 -27 -15 0 -5 -7 -9 -15 -9 -12 0 -13
15 -8 84 3 46 3 95 -1 110 -5 20 -13 26 -32 26z"/>
</g>
</svg>
