<?xml version="1.0" standalone="no"?>
<!DOCTYPE svg PUBLIC "-//W3C//DTD SVG 20010904//EN"
 "http://www.w3.org/TR/2001/REC-SVG-20010904/DTD/svg10.dtd">
<svg version="1.0" xmlns="http://www.w3.org/2000/svg"
 width="56.000000pt" height="56.000000pt" viewBox="0 0 56.000000 56.000000"
 preserveAspectRatio="xMidYMid meet">
<metadata>
Created by potrace 1.16, written by Peter Selinger 2001-2019
</metadata>
<g transform="translate(0.000000,56.000000) scale(0.100000,-0.100000)"
fill="#000000" stroke="none">
<path d="M175 543 c-13 9 -26 13 -29 8 -4 -5 -6 -20 -6 -33 0 -12 4 -54 9 -93
5 -38 12 -82 16 -96 5 -21 1 -31 -24 -52 -17 -14 -50 -33 -75 -42 -35 -14 -45
-23 -50 -47 -3 -17 -6 -41 -6 -53 0 -12 7 -28 15 -35 9 -7 13 -21 9 -34 -3
-13 1 -27 9 -34 10 -8 87 -13 246 -14 197 -3 233 -1 241 12 6 8 9 26 8 40 -3
22 -9 25 -45 28 -23 2 -61 -2 -85 -9 -24 -7 -46 -12 -50 -11 -3 1 -47 -2 -97
-7 -50 -4 -102 -6 -116 -4 -13 3 -36 16 -50 29 -21 19 -26 32 -23 60 3 36 4
37 83 64 44 15 94 33 110 38 17 6 55 19 85 29 51 17 55 21 57 50 0 17 -5 40
-12 49 -12 17 -17 16 -80 -14 -48 -23 -71 -30 -80 -22 -6 5 -12 23 -13 39 0
17 -5 39 -11 50 -6 11 -11 35 -11 53 -1 23 -8 38 -25 51z"/>
</g>
</svg>
