<?xml version="1.0" standalone="no"?>
<!DOCTYPE svg PUBLIC "-//W3C//DTD SVG 20010904//EN"
 "http://www.w3.org/TR/2001/REC-SVG-20010904/DTD/svg10.dtd">
<svg version="1.0" xmlns="http://www.w3.org/2000/svg"
 width="56.000000pt" height="56.000000pt" viewBox="0 0 56.000000 56.000000"
 preserveAspectRatio="xMidYMid meet">
<metadata>
Created by potrace 1.16, written by Peter Selinger 2001-2019
</metadata>
<g transform="translate(0.000000,56.000000) scale(0.100000,-0.100000)"
fill="#000000" stroke="none">
<path d="M311 560 c-22 0 -36 -9 -54 -32 -13 -18 -29 -56 -36 -84 -7 -28 -11
-84 -10 -123 2 -72 2 -72 -41 -116 -40 -41 -42 -46 -37 -87 4 -31 14 -49 34
-66 15 -12 36 -30 45 -39 16 -14 27 -15 100 -5 45 7 86 16 91 21 5 5 4 18 -2
30 -7 12 -19 21 -29 21 -9 -1 -36 -5 -60 -9 -27 -5 -57 -5 -77 2 -19 5 -37 17
-40 25 -3 8 -3 30 1 48 3 18 11 37 18 42 6 5 41 21 78 37 37 15 69 34 72 41 3
8 3 21 -1 30 -4 12 -14 14 -44 9 -39 -7 -39 -7 -39 84 0 49 5 101 11 115 6 13
20 27 30 29 11 3 19 10 19 16 0 6 -13 11 -29 11z"/>
</g>
</svg>
