<?xml version="1.0" standalone="no"?>
<!DOCTYPE svg PUBLIC "-//W3C//DTD SVG 20010904//EN"
 "http://www.w3.org/TR/2001/REC-SVG-20010904/DTD/svg10.dtd">
<svg version="1.0" xmlns="http://www.w3.org/2000/svg"
 width="56.000000pt" height="56.000000pt" viewBox="0 0 56.000000 56.000000"
 preserveAspectRatio="xMidYMid meet">
<metadata>
Created by potrace 1.16, written by Peter Selinger 2001-2019
</metadata>
<g transform="translate(0.000000,56.000000) scale(0.100000,-0.100000)"
fill="#000000" stroke="none">
<path d="M179 560 c-20 0 -29 -4 -27 -12 3 -7 17 -14 31 -16 19 -2 27 1 27 12
0 11 -10 16 -31 16z"/>
<path d="M280 508 c-9 1 -25 -8 -37 -20 -19 -20 -20 -25 -7 -42 8 -11 14 -33
14 -49 0 -16 5 -47 12 -68 10 -34 8 -45 -9 -81 -12 -24 -30 -67 -42 -96 -20
-53 -20 -53 2 -76 13 -13 30 -25 38 -28 11 -4 12 -9 1 -27 -11 -19 -10 -21 11
-21 12 0 39 11 60 25 20 14 37 32 37 40 0 8 -9 19 -19 25 -11 5 -28 10 -39 10
-10 0 -27 9 -37 20 -17 18 -17 21 5 62 12 24 40 59 62 78 33 29 39 40 34 58
-4 12 -16 22 -26 22 -11 0 -22 10 -26 23 -4 12 -10 49 -13 82 -4 43 -10 61
-21 63z"/>
</g>
</svg>
