<?xml version="1.0" standalone="no"?>
<!DOCTYPE svg PUBLIC "-//W3C//DTD SVG 20010904//EN"
 "http://www.w3.org/TR/2001/REC-SVG-20010904/DTD/svg10.dtd">
<svg version="1.0" xmlns="http://www.w3.org/2000/svg"
 width="128.000000pt" height="128.000000pt" viewBox="0 0 128.000000 128.000000"
 preserveAspectRatio="xMidYMid meet">
<metadata>
Created by potrace 1.16, written by Peter Selinger 2001-2019
</metadata>
<g transform="translate(0.000000,128.000000) scale(0.100000,-0.100000)"
fill="#000000" stroke="none">
<path d="M589 1272 c-3 5 -13 0 -21 -9 -14 -16 -15 -20 -2 -37 8 -11 14 -27
14 -35 0 -9 -18 -26 -39 -38 -21 -12 -53 -34 -70 -49 -17 -14 -43 -51 -56 -80
-14 -30 -25 -59 -25 -64 0 -6 -4 -18 -9 -28 -6 -9 -20 -50 -33 -91 -13 -41
-29 -77 -35 -79 -9 -2 -13 9 -13 37 0 23 -9 55 -20 73 -14 23 -16 35 -8 45 7
9 6 14 -5 19 -9 3 -21 3 -27 -1 -7 -4 -9 -66 -6 -192 4 -153 8 -189 21 -202
15 -15 19 -13 45 19 21 25 35 61 50 125 12 50 28 113 36 140 8 28 22 73 31
100 8 28 27 72 41 98 18 33 38 55 64 68 20 10 42 19 48 19 5 0 10 -7 10 -14 0
-8 -16 -27 -35 -42 -19 -14 -32 -31 -29 -36 3 -5 17 -7 29 -4 13 3 26 2 29 -3
3 -5 -3 -29 -14 -52 -11 -24 -20 -56 -20 -70 0 -14 8 -33 18 -42 10 -10 28
-17 40 -17 15 0 30 14 48 42 15 23 47 63 72 90 24 26 53 48 64 48 13 0 25 -14
39 -44 10 -24 25 -46 33 -49 10 -4 12 -15 5 -49 -4 -24 -8 -69 -9 -101 0 -55
1 -58 22 -55 17 2 24 13 31 43 4 22 5 59 2 81 -3 23 -1 52 5 66 9 18 26 28 68
39 46 12 57 19 65 42 7 21 5 32 -7 46 -9 10 -16 27 -16 38 0 11 -10 29 -22 40
-13 11 -29 23 -36 27 -6 4 -29 1 -50 -6 -20 -7 -60 -25 -89 -40 -28 -15 -79
-53 -113 -85 -34 -32 -66 -60 -72 -62 -7 -2 -8 12 -4 40 6 34 17 53 51 85 34
32 41 44 33 57 -5 9 -15 17 -23 17 -8 0 -17 6 -22 13 -4 6 -10 30 -13 51 -4
33 -10 41 -35 49 -16 6 -33 14 -36 19z m329 -183 c7 1 22 -4 32 -9 11 -6 24
-27 30 -48 5 -20 10 -40 10 -43 0 -3 -11 -11 -25 -17 -20 -9 -30 -9 -45 0 -10
7 -21 20 -23 30 -3 10 -17 22 -33 28 -19 8 -24 14 -16 22 5 5 21 16 34 23 12
7 29 13 36 14z"/>
<path d="M284 1130 c-5 0 -15 -5 -22 -12 -7 -7 -12 -16 -12 -21 0 -5 14 -29
30 -54 29 -43 30 -46 14 -64 -10 -11 -12 -19 -6 -19 7 0 27 17 47 38 19 20 35
42 35 47 0 6 -17 28 -38 48 -21 20 -42 37 -48 37z"/>
<path d="M1053 763 c-5 2 -20 -3 -35 -12 -16 -9 -28 -24 -28 -34 0 -10 7 -20
15 -24 9 -3 25 3 35 12 11 10 20 26 20 36 0 10 -3 20 -7 22z"/>
<path d="M577 730 c-29 0 -62 -6 -72 -14 -18 -13 -18 -15 -2 -39 9 -15 17 -30
17 -36 0 -5 -21 -32 -46 -60 -34 -38 -44 -55 -36 -63 8 -8 19 -2 39 20 15 18
33 32 40 32 7 0 36 21 65 47 29 25 57 52 61 59 4 8 3 23 -3 34 -9 16 -21 20
-63 20z"/>
<path d="M585 570 c-7 0 -32 -16 -55 -35 -23 -19 -60 -40 -83 -46 -23 -6 -52
-15 -64 -20 -13 -5 -23 -15 -23 -24 0 -8 12 -18 26 -21 16 -4 39 0 60 10 19 8
52 19 73 22 34 5 40 3 46 -15 3 -12 -1 -35 -11 -56 -9 -19 -48 -64 -87 -100
-68 -64 -72 -66 -116 -63 -45 3 -47 4 -71 55 -14 29 -30 53 -36 53 -7 0 -14
-6 -17 -14 -3 -7 -3 -41 0 -76 4 -44 10 -63 22 -67 9 -3 25 -14 36 -24 19 -17
23 -17 49 -4 16 8 32 15 37 15 4 0 23 -24 42 -53 18 -28 41 -65 51 -80 15 -24
22 -28 58 -25 30 2 46 10 59 28 11 14 25 63 33 110 8 47 17 130 21 185 3 55 8
118 11 141 5 34 2 45 -21 72 -15 18 -33 32 -40 32z m-47 -281 c7 1 15 -6 19
-15 3 -9 -5 -50 -18 -91 -13 -41 -30 -78 -38 -81 -8 -3 -29 11 -52 36 -21 22
-36 47 -33 54 3 7 29 32 57 55 29 23 58 42 65 42z"/>
<path d="M791 480 c-11 0 -23 -5 -26 -10 -4 -6 7 -34 23 -63 16 -28 39 -81 52
-115 13 -35 29 -66 37 -69 8 -3 20 3 28 13 8 11 15 30 15 44 0 14 -6 34 -14
45 -7 11 -16 34 -20 50 -4 17 -22 47 -41 68 -19 20 -43 37 -54 37z"/>
<path d="M1051 444 c-4 3 -16 -3 -25 -13 -9 -9 -16 -25 -16 -34 0 -9 4 -17 9
-17 5 0 16 3 25 6 9 3 16 17 16 29 0 13 -4 26 -9 29z"/>
</g>
</svg>
