<?xml version="1.0" standalone="no"?>
<!DOCTYPE svg PUBLIC "-//W3C//DTD SVG 20010904//EN"
 "http://www.w3.org/TR/2001/REC-SVG-20010904/DTD/svg10.dtd">
<svg version="1.0" xmlns="http://www.w3.org/2000/svg"
 width="128.000000pt" height="128.000000pt" viewBox="0 0 128.000000 128.000000"
 preserveAspectRatio="xMidYMid meet">
<metadata>
Created by potrace 1.16, written by Peter Selinger 2001-2019
</metadata>
<g transform="translate(0.000000,128.000000) scale(0.100000,-0.100000)"
fill="#000000" stroke="none">
<path d="M533 1260 c-6 0 -15 -5 -18 -10 -4 -6 23 -40 59 -75 36 -35 66 -69
66 -77 -1 -7 -8 -22 -18 -33 -9 -12 -50 -42 -90 -68 -40 -26 -76 -57 -81 -70
-5 -13 -3 -39 5 -66 7 -24 18 -49 23 -54 6 -6 42 -11 80 -11 38 -1 72 -4 75
-7 4 -3 -1 -23 -9 -43 -9 -20 -23 -40 -32 -43 -8 -3 -27 -31 -40 -62 -25 -56
-25 -56 -47 -28 -15 18 -31 27 -52 27 -16 0 -40 7 -52 16 -12 8 -22 21 -22 28
0 8 -7 17 -16 20 -9 3 -20 4 -25 0 -5 -3 -9 -15 -9 -28 0 -13 10 -31 21 -42
12 -10 40 -41 61 -68 31 -39 38 -55 33 -75 -4 -14 -29 -52 -56 -85 -27 -34
-63 -74 -80 -91 -29 -29 -30 -32 -24 -93 3 -34 11 -74 17 -87 6 -14 17 -25 24
-25 7 0 32 26 56 58 24 31 56 77 73 101 16 24 50 65 75 92 31 33 54 49 71 49
19 0 27 7 34 32 7 23 17 34 33 36 22 3 23 1 16 -35 -4 -21 -18 -54 -30 -73
-13 -19 -24 -48 -24 -65 0 -18 14 -52 35 -84 19 -29 35 -58 35 -65 0 -7 -24
-25 -54 -39 -30 -15 -59 -27 -64 -27 -6 0 -43 -19 -84 -42 -73 -43 -73 -43
-24 -46 30 -2 78 5 120 18 39 12 94 28 121 36 28 9 76 29 107 45 32 17 80 33
109 36 42 5 52 10 60 30 5 13 9 39 9 57 0 18 -10 48 -23 67 -21 30 -28 34 -62
31 -21 -2 -51 -10 -66 -18 -16 -8 -43 -14 -61 -14 -18 0 -39 4 -45 8 -10 6 -5
21 20 57 17 27 38 60 46 74 7 14 24 38 38 52 24 26 24 26 -3 83 -15 31 -35 61
-45 67 -13 6 -25 6 -38 0 -10 -6 -22 -18 -25 -27 -3 -9 -2 -22 4 -29 5 -6 7
-15 4 -18 -4 -3 -19 -3 -35 0 -18 3 -38 -1 -54 -11 -13 -9 -31 -16 -40 -16 -8
0 -15 7 -15 15 0 9 11 21 25 27 14 6 25 19 25 29 0 9 19 48 41 85 23 38 47 76
54 84 7 8 16 25 20 38 4 13 1 37 -5 53 -10 24 -18 29 -48 29 -20 0 -51 -5 -69
-12 -28 -10 -36 -10 -50 4 -15 15 -15 19 0 41 9 14 37 35 63 47 26 13 62 37
81 53 19 17 41 43 49 59 11 20 12 33 4 47 -5 11 -24 27 -41 35 -18 9 -37 16
-43 16 -6 0 -45 18 -86 40 -41 22 -80 40 -87 40z m180 -849 c6 -6 8 -13 4 -17
-3 -3 -11 -3 -16 1 -6 3 -8 11 -5 17 4 6 10 6 17 -1z"/>
<path d="M330 820 c-6 0 -13 -7 -17 -16 -3 -8 -1 -20 6 -27 8 -8 14 -8 22 0 7
7 9 19 6 27 -4 9 -11 16 -17 16z"/>
</g>
</svg>
