<?xml version="1.0" standalone="no"?>
<!DOCTYPE svg PUBLIC "-//W3C//DTD SVG 20010904//EN"
 "http://www.w3.org/TR/2001/REC-SVG-20010904/DTD/svg10.dtd">
<svg version="1.0" xmlns="http://www.w3.org/2000/svg"
 width="128.000000pt" height="128.000000pt" viewBox="0 0 128.000000 128.000000"
 preserveAspectRatio="xMidYMid meet">
<metadata>
Created by potrace 1.16, written by Peter Selinger 2001-2019
</metadata>
<g transform="translate(0.000000,128.000000) scale(0.100000,-0.100000)"
fill="#000000" stroke="none">
<path d="M329 1260 c-4 0 -11 -4 -14 -10 -3 -5 -3 -26 1 -45 4 -21 16 -42 28
-50 12 -8 38 -18 57 -21 18 -4 39 -10 44 -14 6 -5 31 -11 58 -15 31 -5 47 -4
47 3 0 6 9 20 20 30 17 15 19 26 14 64 -6 43 -9 47 -41 53 -24 4 -40 2 -52 -8
-9 -7 -41 -14 -72 -15 -40 -2 -60 2 -69 13 -7 8 -16 15 -21 15z"/>
<path d="M552 985 c-20 1 -51 -3 -68 -9 -18 -6 -55 -33 -83 -59 -27 -26 -55
-47 -61 -47 -5 0 -10 -7 -10 -15 0 -8 9 -19 21 -25 16 -9 28 -6 65 15 24 14
49 23 54 20 6 -3 10 -13 10 -22 0 -9 -4 -30 -10 -47 -5 -17 -23 -74 -40 -126
-17 -52 -35 -110 -40 -129 -5 -19 -16 -38 -24 -43 -8 -5 -13 -15 -10 -23 3 -8
3 -19 0 -24 -4 -6 -13 -8 -21 -4 -9 3 -15 19 -15 40 0 33 -1 34 -33 28 -24 -5
-37 -2 -46 9 -8 9 -22 16 -32 16 -10 0 -21 -4 -24 -10 -3 -5 -17 -10 -31 -10
-13 0 -24 -4 -24 -10 0 -5 10 -21 22 -35 11 -13 35 -29 52 -34 17 -5 53 -15
80 -23 31 -8 51 -20 54 -30 2 -10 12 -18 21 -19 14 0 13 -1 -2 -7 -9 -4 -26
-22 -37 -40 -11 -18 -20 -40 -20 -48 0 -9 -12 -38 -27 -65 -24 -41 -26 -52
-15 -66 6 -10 14 -24 17 -30 3 -7 7 -20 10 -28 2 -8 15 -15 28 -15 16 0 28 9
35 25 7 14 12 41 12 59 0 19 8 40 18 49 10 10 26 17 35 17 9 0 17 6 17 13 0 7
14 26 30 42 17 16 30 34 30 40 0 7 24 39 54 71 30 32 72 80 95 105 23 25 41
51 41 57 0 6 10 14 23 18 12 4 25 12 29 18 4 6 8 23 8 39 0 20 9 32 33 47 32
20 32 20 38 -10 4 -17 1 -47 -7 -68 -7 -20 -10 -48 -7 -62 3 -14 13 -33 21
-42 9 -11 29 -18 49 -18 21 0 36 -6 40 -16 3 -8 -3 -27 -14 -42 -11 -15 -34
-55 -51 -89 -17 -34 -49 -88 -70 -120 -21 -32 -49 -80 -62 -108 -13 -27 -27
-58 -32 -67 -4 -10 -8 -20 -8 -23 0 -4 16 -5 36 -3 35 3 39 7 79 86 24 46 50
91 59 101 9 10 16 27 16 38 0 11 11 32 25 47 14 15 25 31 25 36 0 4 29 38 65
74 36 35 75 68 85 71 11 4 20 11 20 16 0 5 9 9 20 9 10 0 24 9 30 21 7 11 9
27 6 36 -4 11 -14 13 -31 9 -17 -4 -27 -2 -31 7 -3 9 -26 14 -76 15 -51 1 -76
6 -89 18 -11 9 -19 27 -19 40 0 13 4 25 9 28 5 3 12 21 15 39 3 18 16 41 27
51 15 12 20 25 16 44 -3 15 2 44 11 66 14 36 14 40 -3 52 -15 11 -22 11 -47
-2 -16 -8 -34 -26 -40 -39 -6 -13 -21 -26 -34 -29 -13 -4 -24 -12 -25 -19 0
-6 -27 -34 -61 -62 -33 -27 -73 -68 -87 -89 -14 -22 -37 -52 -51 -67 -14 -15
-37 -43 -52 -62 -16 -19 -28 -37 -28 -39 0 -3 -25 -30 -55 -61 -30 -32 -57
-57 -60 -57 -3 0 -2 12 1 28 4 15 14 43 22 62 9 19 16 42 18 50 1 8 19 44 41
80 21 36 45 85 52 110 7 25 17 59 23 75 6 17 13 42 15 58 3 15 9 30 14 33 5 3
9 13 9 22 0 10 9 23 21 30 16 11 18 16 9 28 -7 8 -20 14 -30 14 -9 0 -20 3
-24 7 -4 4 -23 8 -44 8z m389 -450 c5 -4 9 -9 9 -13 0 -4 -12 -12 -26 -19 -15
-7 -31 -10 -35 -7 -5 3 -9 9 -9 15 0 5 9 9 19 9 11 0 23 5 26 10 4 6 11 8 16
5z"/>
<path d="M301 859 c-10 6 -25 4 -41 -5 -14 -7 -37 -13 -52 -14 -18 0 -28 -5
-28 -15 0 -8 10 -21 23 -29 12 -8 34 -18 50 -21 18 -5 35 -2 51 8 18 12 22 22
19 42 -3 14 -13 30 -22 34z"/>
</g>
</svg>
