<?xml version="1.0" standalone="no"?>
<!DOCTYPE svg PUBLIC "-//W3C//DTD SVG 20010904//EN"
 "http://www.w3.org/TR/2001/REC-SVG-20010904/DTD/svg10.dtd">
<svg version="1.0" xmlns="http://www.w3.org/2000/svg"
 width="56.000000pt" height="56.000000pt" viewBox="0 0 56.000000 56.000000"
 preserveAspectRatio="xMidYMid meet">
<metadata>
Created by potrace 1.16, written by Peter Selinger 2001-2019
</metadata>
<g transform="translate(0.000000,56.000000) scale(0.100000,-0.100000)"
fill="#000000" stroke="none">
<path d="M170 560 c-15 0 -30 -7 -34 -15 -3 -8 -11 -15 -19 -15 -7 0 -24 -11
-37 -25 -16 -17 -24 -37 -24 -67 -1 -42 0 -43 35 -46 20 -2 44 -11 54 -22 13
-15 14 -22 4 -38 -9 -15 -10 -33 -1 -78 7 -33 9 -76 6 -96 -5 -26 -3 -38 5
-38 6 0 24 8 39 17 15 10 51 39 80 65 32 29 66 50 88 54 25 5 40 2 53 -10 10
-9 23 -32 29 -52 9 -31 8 -38 -9 -55 -10 -10 -28 -19 -39 -19 -10 0 -24 -8
-29 -18 -5 -9 -31 -23 -58 -30 -26 -7 -63 -21 -82 -30 -19 -9 -36 -23 -39 -29
-3 -9 12 -13 52 -13 30 0 58 5 62 11 3 6 44 29 89 50 46 22 88 46 95 54 7 9
15 37 18 64 3 33 0 52 -9 60 -8 6 -32 27 -53 46 -28 25 -46 33 -63 30 -13 -3
-35 -8 -50 -11 -16 -3 -40 -17 -54 -31 -17 -15 -36 -23 -50 -21 -23 3 -24 7
-25 78 -1 41 -3 82 -5 90 -3 11 8 16 46 20 34 3 51 10 53 20 2 10 -14 24 -42
37 -24 12 -47 31 -51 42 -4 15 -15 21 -35 21z m-15 -46 c8 -3 15 -10 15 -15 0
-5 -7 -12 -15 -16 -9 -3 -18 -3 -22 0 -3 4 -3 13 0 21 4 9 13 13 22 10z"/>
</g>
</svg>
