<?xml version="1.0" standalone="no"?>
<!DOCTYPE svg PUBLIC "-//W3C//DTD SVG 20010904//EN"
 "http://www.w3.org/TR/2001/REC-SVG-20010904/DTD/svg10.dtd">
<svg version="1.0" xmlns="http://www.w3.org/2000/svg"
 width="56.000000pt" height="56.000000pt" viewBox="0 0 56.000000 56.000000"
 preserveAspectRatio="xMidYMid meet">
<metadata>
Created by potrace 1.16, written by Peter Selinger 2001-2019
</metadata>
<g transform="translate(0.000000,56.000000) scale(0.100000,-0.100000)"
fill="#000000" stroke="none">
<path d="M217 560 c-17 0 -29 -10 -42 -34 -18 -33 -18 -36 -2 -54 15 -16 16
-26 8 -63 -6 -24 -11 -79 -13 -121 -2 -42 0 -80 4 -84 4 -4 19 2 34 12 15 11
39 27 53 36 14 9 35 17 47 17 11 1 25 -4 32 -11 7 -7 12 -27 12 -45 0 -18 -9
-53 -21 -78 -11 -24 -39 -60 -60 -80 -21 -19 -46 -35 -53 -35 -8 0 -18 -4 -21
-10 -4 -6 8 -10 29 -10 30 0 44 8 84 48 26 27 52 60 58 73 6 13 17 37 25 52
11 24 10 34 -2 70 -9 25 -27 48 -42 57 -24 13 -32 13 -78 -3 -28 -10 -52 -17
-54 -15 -2 2 -1 41 2 87 5 68 10 88 30 112 21 25 22 30 9 35 -9 3 -16 15 -16
25 0 13 -7 19 -23 19z"/>
</g>
</svg>
