<?xml version="1.0" standalone="no"?>
<!DOCTYPE svg PUBLIC "-//W3C//DTD SVG 20010904//EN"
 "http://www.w3.org/TR/2001/REC-SVG-20010904/DTD/svg10.dtd">
<svg version="1.0" xmlns="http://www.w3.org/2000/svg"
 width="56.000000pt" height="56.000000pt" viewBox="0 0 56.000000 56.000000"
 preserveAspectRatio="xMidYMid meet">
<metadata>
Created by potrace 1.16, written by Peter Selinger 2001-2019
</metadata>
<g transform="translate(0.000000,56.000000) scale(0.100000,-0.100000)"
fill="#000000" stroke="none">
<path d="M210 560 c-5 0 -10 -4 -10 -9 0 -5 -8 -12 -18 -15 -10 -4 -25 -21
-33 -39 -12 -28 -19 -32 -56 -35 -37 -3 -43 -6 -43 -26 0 -12 5 -27 12 -34 7
-7 23 -12 36 -12 23 0 23 -1 19 -82 -2 -54 1 -92 9 -108 7 -14 25 -32 40 -40
21 -12 28 -12 31 -2 3 6 10 12 16 12 6 0 19 8 29 17 11 9 43 24 72 33 48 15
55 15 82 1 16 -9 35 -20 42 -24 9 -6 9 -14 2 -27 -6 -11 -27 -35 -47 -55 -20
-19 -42 -35 -49 -35 -7 0 -19 -8 -26 -18 -7 -10 -21 -21 -30 -25 -10 -3 -18
-13 -18 -21 0 -13 9 -14 47 -9 26 3 53 12 60 19 7 7 21 10 30 8 10 -3 33 5 51
16 18 11 37 31 43 44 7 15 9 43 4 72 -5 37 -15 56 -42 81 -29 28 -42 33 -84
33 -27 0 -65 -6 -83 -14 -19 -8 -51 -16 -73 -18 -38 -3 -38 -3 -41 74 -3 76
-3 76 32 88 19 6 37 17 40 25 3 8 17 15 31 15 14 0 25 4 25 9 0 5 -3 17 -6 26
-4 9 -24 25 -45 36 -22 11 -39 24 -39 29 0 6 -4 10 -10 10z"/>
</g>
</svg>
