<?xml version="1.0" standalone="no"?>
<!DOCTYPE svg PUBLIC "-//W3C//DTD SVG 20010904//EN"
 "http://www.w3.org/TR/2001/REC-SVG-20010904/DTD/svg10.dtd">
<svg version="1.0" xmlns="http://www.w3.org/2000/svg"
 width="56.000000pt" height="56.000000pt" viewBox="0 0 56.000000 56.000000"
 preserveAspectRatio="xMidYMid meet">
<metadata>
Created by potrace 1.16, written by Peter Selinger 2001-2019
</metadata>
<g transform="translate(0.000000,56.000000) scale(0.100000,-0.100000)"
fill="#000000" stroke="none">
<path d="M233 520 c-5 0 -13 -3 -16 -7 -4 -3 -7 -14 -7 -23 0 -10 -6 -23 -13
-29 -10 -8 -19 -4 -36 19 -12 17 -28 30 -37 30 -8 0 -17 -7 -21 -15 -3 -9 3
-25 13 -36 15 -17 16 -21 3 -34 -10 -10 -25 -12 -57 -6 -27 5 -45 5 -49 -2 -3
-6 4 -19 17 -29 12 -10 38 -18 57 -18 34 0 34 0 27 -80 -5 -66 -4 -84 11 -106
16 -25 19 -25 77 -19 33 4 89 20 124 36 35 16 77 29 93 29 17 0 31 -6 35 -16
4 -9 1 -24 -6 -33 -7 -9 -20 -25 -30 -36 -9 -11 -33 -38 -52 -61 -20 -23 -33
-44 -29 -48 3 -3 23 -6 43 -6 29 0 41 6 58 30 12 16 22 32 22 35 0 3 10 20 22
38 13 18 31 42 41 53 17 21 17 22 -8 52 -14 17 -41 36 -60 42 -28 9 -48 8
-103 -5 -37 -10 -84 -24 -105 -32 -28 -11 -41 -13 -49 -5 -6 6 -13 44 -16 85
-4 75 -4 75 25 81 17 4 40 20 51 36 12 16 22 33 22 38 0 5 -8 16 -18 25 -10
10 -23 17 -29 17z"/>
</g>
</svg>
