<?xml version="1.0" standalone="no"?>
<!DOCTYPE svg PUBLIC "-//W3C//DTD SVG 20010904//EN"
 "http://www.w3.org/TR/2001/REC-SVG-20010904/DTD/svg10.dtd">
<svg version="1.0" xmlns="http://www.w3.org/2000/svg"
 width="56.000000pt" height="56.000000pt" viewBox="0 0 56.000000 56.000000"
 preserveAspectRatio="xMidYMid meet">
<metadata>
Created by potrace 1.16, written by Peter Selinger 2001-2019
</metadata>
<g transform="translate(0.000000,56.000000) scale(0.100000,-0.100000)"
fill="#000000" stroke="none">
<path d="M156 560 c-6 0 -17 -12 -23 -27 -7 -15 -13 -33 -13 -41 0 -10 -12
-13 -42 -11 -27 2 -43 -1 -46 -9 -2 -8 6 -24 19 -38 17 -18 32 -24 63 -23 23
0 63 6 91 13 35 8 51 17 53 30 2 10 -8 31 -24 47 -15 16 -34 29 -41 29 -8 0
-16 7 -19 15 -4 8 -11 15 -18 15z"/>
<path d="M344 560 c-10 0 -14 -8 -12 -22 2 -15 13 -24 37 -30 18 -5 35 -7 38
-5 2 3 -8 17 -22 31 -14 14 -33 26 -41 26z"/>
<path d="M459 490 c-4 0 -9 -10 -11 -22 -2 -12 -14 -28 -26 -34 -18 -9 -21
-14 -10 -20 7 -5 21 -7 31 -6 10 2 17 -3 17 -14 0 -13 3 -14 15 -4 8 7 12 16
9 21 -3 5 0 18 7 31 10 18 8 24 -7 35 -10 7 -21 13 -25 13z"/>
<path d="M131 370 c-10 0 -22 -8 -26 -17 -3 -10 -9 -49 -12 -86 -3 -37 -10
-70 -14 -73 -5 -3 -9 -20 -9 -39 0 -22 9 -45 26 -65 20 -23 32 -29 47 -24 11
4 49 31 84 60 34 30 78 60 97 68 18 8 37 19 40 25 4 6 19 11 34 11 15 0 38 -9
52 -19 22 -18 23 -22 11 -44 -7 -14 -42 -55 -77 -92 -36 -37 -62 -70 -60 -73
3 -2 20 -2 38 2 20 4 53 25 84 54 28 26 56 60 62 75 7 15 12 44 12 63 0 27 -5
36 -23 43 -13 5 -29 16 -36 25 -9 11 -18 13 -29 7 -8 -5 -32 -6 -52 -4 -22 3
-49 -1 -70 -11 -19 -9 -46 -23 -58 -30 -13 -8 -29 -19 -35 -25 -6 -6 -24 -11
-39 -11 -28 0 -28 0 -28 90 0 82 -2 90 -19 90z"/>
</g>
</svg>
