<?xml version="1.0" standalone="no"?>
<!DOCTYPE svg PUBLIC "-//W3C//DTD SVG 20010904//EN"
 "http://www.w3.org/TR/2001/REC-SVG-20010904/DTD/svg10.dtd">
<svg version="1.0" xmlns="http://www.w3.org/2000/svg"
 width="56.000000pt" height="56.000000pt" viewBox="0 0 56.000000 56.000000"
 preserveAspectRatio="xMidYMid meet">
<metadata>
Created by potrace 1.16, written by Peter Selinger 2001-2019
</metadata>
<g transform="translate(0.000000,56.000000) scale(0.100000,-0.100000)"
fill="#000000" stroke="none">
<path d="M246 560 c-7 0 -21 -15 -29 -32 -9 -18 -25 -41 -37 -51 -18 -15 -21
-24 -15 -60 4 -23 11 -52 16 -64 5 -14 17 -23 29 -23 17 0 20 -7 20 -39 0 -22
3 -46 6 -55 3 -9 12 -16 20 -16 8 0 40 14 71 32 52 30 57 30 69 14 9 -14 10
-24 2 -42 -6 -13 -47 -45 -92 -71 -45 -27 -97 -55 -116 -62 -19 -7 -54 -22
-77 -34 -24 -11 -43 -26 -43 -33 0 -7 4 -15 8 -18 4 -2 35 7 67 21 33 14 78
34 100 44 22 10 74 33 115 52 41 19 84 44 94 56 16 18 18 28 10 58 -6 26 -20
45 -44 61 -25 16 -42 21 -60 17 -14 -4 -36 -7 -50 -8 -22 -2 -25 2 -28 35 -3
30 2 40 23 55 15 10 38 28 53 39 23 19 25 24 13 38 -8 10 -24 16 -37 14 -13
-2 -33 7 -48 21 -14 14 -26 30 -26 38 0 7 -6 13 -14 13z m-16 -70 c5 0 10 -18
10 -40 0 -29 -4 -40 -15 -40 -9 0 -18 7 -22 16 -3 8 -1 26 5 40 7 13 16 24 22
24z"/>
<path d="M79 290 c-6 0 -9 -36 -7 -92 2 -51 7 -93 13 -93 5 0 15 26 23 58 13
51 12 61 -2 92 -9 19 -21 35 -27 35z"/>
</g>
</svg>
