<?xml version="1.0" standalone="no"?>
<!DOCTYPE svg PUBLIC "-//W3C//DTD SVG 20010904//EN"
 "http://www.w3.org/TR/2001/REC-SVG-20010904/DTD/svg10.dtd">
<svg version="1.0" xmlns="http://www.w3.org/2000/svg"
 width="56.000000pt" height="56.000000pt" viewBox="0 0 56.000000 56.000000"
 preserveAspectRatio="xMidYMid meet">
<metadata>
Created by potrace 1.16, written by Peter Selinger 2001-2019
</metadata>
<g transform="translate(0.000000,56.000000) scale(0.100000,-0.100000)"
fill="#000000" stroke="none">
<path d="M208 540 c-2 14 -7 12 -24 -9 -12 -14 -29 -41 -38 -59 -14 -26 -15
-37 -5 -48 6 -8 20 -14 30 -14 14 0 19 -7 19 -29 0 -16 -5 -42 -11 -58 -6 -15
-11 -61 -12 -100 -1 -44 3 -77 10 -84 9 -9 16 -9 28 1 8 7 15 19 15 27 0 8 17
39 38 69 20 29 42 56 48 58 6 2 22 -1 35 -8 13 -6 25 -20 27 -30 2 -11 -2 -38
-9 -60 -7 -23 -30 -65 -52 -94 -22 -29 -54 -64 -71 -77 -31 -25 -31 -25 -5
-25 20 0 42 16 85 63 33 35 65 76 73 92 7 17 17 38 22 47 5 10 9 30 9 44 0 15
-11 42 -26 61 -20 27 -32 33 -63 33 -29 0 -44 -7 -71 -35 -19 -19 -38 -35 -42
-35 -4 0 -8 8 -8 17 0 9 7 46 15 82 9 36 20 74 25 83 6 10 10 25 10 33 0 9
-11 20 -24 27 -14 6 -26 18 -28 28z"/>
<path d="M310 20 c-5 0 -12 -4 -15 -10 -3 -5 3 -10 15 -10 12 0 18 5 15 10 -3
6 -10 10 -15 10z"/>
</g>
</svg>
