<?xml version="1.0" standalone="no"?>
<!DOCTYPE svg PUBLIC "-//W3C//DTD SVG 20010904//EN"
 "http://www.w3.org/TR/2001/REC-SVG-20010904/DTD/svg10.dtd">
<svg version="1.0" xmlns="http://www.w3.org/2000/svg"
 width="56.000000pt" height="56.000000pt" viewBox="0 0 56.000000 56.000000"
 preserveAspectRatio="xMidYMid meet">
<metadata>
Created by potrace 1.16, written by Peter Selinger 2001-2019
</metadata>
<g transform="translate(0.000000,56.000000) scale(0.100000,-0.100000)"
fill="#000000" stroke="none">
<path d="M175 530 c-6 0 -15 -3 -18 -7 -4 -3 -7 -23 -7 -43 0 -20 -5 -41 -12
-48 -7 -7 -27 -12 -44 -12 -18 0 -44 -4 -58 -10 -14 -5 -26 -14 -26 -20 0 -5
16 -17 37 -25 22 -10 49 -13 70 -9 33 6 33 6 33 -48 0 -30 5 -69 11 -87 6 -17
14 -31 19 -31 4 0 30 10 59 21 28 12 51 25 51 30 0 4 19 20 43 36 23 15 54 34
68 41 15 8 35 12 45 10 15 -2 20 -13 22 -47 2 -24 -4 -61 -13 -84 -9 -22 -37
-66 -62 -99 -25 -32 -52 -58 -60 -58 -7 0 -22 6 -33 12 -14 9 -25 10 -37 2 -9
-5 -23 -20 -31 -32 -14 -22 -14 -22 49 -21 35 1 75 4 89 8 14 4 46 34 73 66
26 33 58 78 71 101 19 33 22 51 18 97 -4 52 -8 59 -39 78 -24 15 -43 20 -64
15 -17 -3 -54 -17 -81 -31 -28 -14 -68 -39 -89 -56 -21 -17 -43 -28 -49 -24
-5 3 -10 35 -10 69 0 63 0 63 52 97 28 19 56 42 62 52 8 13 7 20 -4 27 -8 5
-26 10 -40 10 -15 0 -32 -6 -39 -12 -10 -11 -16 -9 -28 10 -9 12 -21 22 -28
22z"/>
</g>
</svg>
