<?xml version="1.0" standalone="no"?>
<!DOCTYPE svg PUBLIC "-//W3C//DTD SVG 20010904//EN"
 "http://www.w3.org/TR/2001/REC-SVG-20010904/DTD/svg10.dtd">
<svg version="1.0" xmlns="http://www.w3.org/2000/svg"
 width="56.000000pt" height="56.000000pt" viewBox="0 0 56.000000 56.000000"
 preserveAspectRatio="xMidYMid meet">
<metadata>
Created by potrace 1.16, written by Peter Selinger 2001-2019
</metadata>
<g transform="translate(0.000000,56.000000) scale(0.100000,-0.100000)"
fill="#000000" stroke="none">
<path d="M185 560 c-25 -1 -36 -10 -67 -56 -21 -30 -38 -62 -38 -69 0 -8 5
-26 12 -40 11 -24 17 -26 57 -23 46 3 46 3 43 -82 -2 -46 -1 -99 3 -117 3 -20
12 -33 21 -33 8 0 17 7 20 15 4 8 13 15 21 15 8 0 19 13 24 29 6 17 26 39 46
51 27 16 38 18 49 9 8 -6 14 -26 14 -43 0 -22 -11 -45 -34 -73 -19 -22 -65
-62 -102 -89 -57 -41 -63 -50 -44 -52 12 -2 48 6 80 18 32 12 68 33 81 46 12
13 30 24 40 24 9 0 23 7 30 16 7 9 19 33 26 53 7 20 13 45 13 57 0 11 -7 35
-15 52 -9 17 -24 33 -33 36 -9 3 -36 6 -59 8 -35 1 -48 -3 -72 -26 -19 -18
-36 -26 -46 -22 -13 5 -15 16 -9 68 6 49 12 67 31 81 12 10 23 25 23 32 0 8
-11 21 -24 30 -12 8 -31 31 -42 50 -15 28 -24 35 -49 35z m-9 -40 c7 0 15 -11
18 -25 4 -14 4 -30 1 -35 -4 -6 -16 -10 -29 -10 -12 0 -25 3 -28 6 -4 3 1 19
10 35 10 16 22 29 28 29z"/>
</g>
</svg>
