<?xml version="1.0" standalone="no"?>
<!DOCTYPE svg PUBLIC "-//W3C//DTD SVG 20010904//EN"
 "http://www.w3.org/TR/2001/REC-SVG-20010904/DTD/svg10.dtd">
<svg version="1.0" xmlns="http://www.w3.org/2000/svg"
 width="56.000000pt" height="56.000000pt" viewBox="0 0 56.000000 56.000000"
 preserveAspectRatio="xMidYMid meet">
<metadata>
Created by potrace 1.16, written by Peter Selinger 2001-2019
</metadata>
<g transform="translate(0.000000,56.000000) scale(0.100000,-0.100000)"
fill="#000000" stroke="none">
<path d="M163 559 c-10 0 -25 -8 -34 -17 -9 -9 -19 -32 -21 -50 -3 -23 0 -36
9 -39 9 -4 13 -27 13 -83 0 -64 -3 -80 -20 -95 -11 -10 -20 -26 -20 -37 0 -10
4 -26 9 -36 5 -9 12 -25 15 -34 3 -11 11 -15 21 -12 8 3 15 17 15 31 0 19 24
50 87 114 48 49 95 89 104 89 10 0 21 5 24 10 3 6 12 10 19 10 7 0 25 -12 40
-26 23 -23 26 -35 26 -90 0 -34 -4 -66 -10 -69 -6 -3 -10 -15 -10 -26 0 -11
-14 -41 -32 -67 -17 -26 -41 -55 -52 -66 -12 -10 -31 -22 -43 -27 -13 -5 -23
-13 -23 -19 0 -5 12 -10 26 -10 18 0 41 16 78 54 28 30 58 67 65 83 7 15 17
36 22 45 5 10 9 54 9 98 0 78 -1 80 -35 115 -20 19 -42 35 -50 35 -9 0 -36
-10 -62 -22 -25 -12 -74 -48 -108 -80 -35 -32 -65 -58 -67 -58 -3 0 -3 42 0
94 3 59 1 96 -6 100 -7 4 -6 14 1 31 7 14 15 25 20 25 4 0 7 7 7 15 0 8 -8 15
-17 14z"/>
<path d="M130 20 c-21 0 -42 -4 -45 -10 -4 -6 13 -10 45 -10 32 0 49 4 45 10
-3 6 -24 10 -45 10z"/>
</g>
</svg>
