<?xml version="1.0" standalone="no"?>
<!DOCTYPE svg PUBLIC "-//W3C//DTD SVG 20010904//EN"
 "http://www.w3.org/TR/2001/REC-SVG-20010904/DTD/svg10.dtd">
<svg version="1.0" xmlns="http://www.w3.org/2000/svg"
 width="56.000000pt" height="56.000000pt" viewBox="0 0 56.000000 56.000000"
 preserveAspectRatio="xMidYMid meet">
<metadata>
Created by potrace 1.16, written by Peter Selinger 2001-2019
</metadata>
<g transform="translate(0.000000,56.000000) scale(0.100000,-0.100000)"
fill="#000000" stroke="none">
<path d="M166 560 c-2 0 -7 -8 -11 -17 -4 -10 -7 -33 -6 -50 2 -18 -2 -33 -8
-33 -5 0 -13 5 -16 10 -3 6 -13 10 -21 10 -8 0 -14 -6 -14 -13 0 -8 7 -28 16
-45 8 -18 20 -34 26 -38 6 -4 7 -45 3 -118 -6 -97 -5 -114 9 -125 14 -12 21
-12 43 0 15 8 49 34 77 59 28 25 68 51 88 58 21 7 42 11 46 8 5 -3 14 -23 22
-45 11 -33 10 -50 -1 -100 -7 -34 -17 -61 -21 -61 -4 0 -8 -7 -8 -15 0 -8 5
-15 11 -15 7 0 18 8 25 18 7 9 14 25 14 35 0 10 9 27 20 39 16 17 19 32 16 72
-2 28 -9 63 -15 79 -6 16 -18 27 -30 27 -11 0 -23 5 -27 11 -3 6 -17 8 -33 4
-14 -3 -43 -17 -64 -31 -21 -14 -53 -34 -73 -44 -19 -11 -39 -20 -45 -20 -8 0
-9 15 -4 48 5 26 7 70 7 98 -1 43 3 54 23 72 14 12 25 30 25 40 0 10 -16 33
-35 50 -19 18 -36 32 -39 32z"/>
</g>
</svg>
