<?xml version="1.0" standalone="no"?>
<!DOCTYPE svg PUBLIC "-//W3C//DTD SVG 20010904//EN"
 "http://www.w3.org/TR/2001/REC-SVG-20010904/DTD/svg10.dtd">
<svg version="1.0" xmlns="http://www.w3.org/2000/svg"
 width="56.000000pt" height="56.000000pt" viewBox="0 0 56.000000 56.000000"
 preserveAspectRatio="xMidYMid meet">
<metadata>
Created by potrace 1.16, written by Peter Selinger 2001-2019
</metadata>
<g transform="translate(0.000000,56.000000) scale(0.100000,-0.100000)"
fill="#000000" stroke="none">
<path d="M159 560 c-18 0 -28 -6 -32 -20 -3 -11 -14 -20 -25 -20 -11 0 -27
-11 -36 -25 -9 -13 -16 -30 -16 -38 0 -7 17 -21 38 -30 21 -9 48 -17 60 -17
12 0 23 -8 27 -20 3 -11 5 -81 3 -156 -2 -120 -1 -137 15 -145 9 -6 22 -7 28
-3 6 4 19 25 30 48 10 23 38 63 64 89 46 48 46 48 74 28 16 -12 32 -32 35 -46
4 -16 -1 -39 -13 -64 -11 -21 -33 -50 -48 -64 -15 -14 -41 -37 -58 -51 -30
-25 -30 -25 1 -26 18 0 44 10 60 22 16 13 53 46 82 75 38 38 52 59 52 79 0 16
-15 50 -32 76 -18 26 -44 52 -58 58 -19 8 -36 7 -65 -3 -24 -8 -48 -26 -60
-44 -11 -16 -30 -38 -42 -47 -23 -17 -23 -17 -23 54 0 39 5 90 11 114 8 33 17
45 40 53 19 8 29 18 29 33 0 18 -4 20 -33 15 -29 -6 -34 -3 -57 34 -19 31 -31
41 -51 41z m13 -45 c4 -5 8 -19 8 -31 0 -11 -3 -23 -6 -26 -3 -3 -21 -1 -40 5
-19 6 -34 16 -34 22 0 7 6 17 13 23 6 5 21 12 32 14 11 2 23 -1 27 -7z"/>
<path d="M226 60 c-7 0 -20 -8 -29 -18 -10 -10 -17 -24 -17 -30 0 -7 16 -12
40 -12 22 0 40 5 40 11 0 6 -5 19 -10 30 -6 10 -17 19 -24 19z"/>
</g>
</svg>
