<?xml version="1.0" standalone="no"?>
<!DOCTYPE svg PUBLIC "-//W3C//DTD SVG 20010904//EN"
 "http://www.w3.org/TR/2001/REC-SVG-20010904/DTD/svg10.dtd">
<svg version="1.0" xmlns="http://www.w3.org/2000/svg"
 width="56.000000pt" height="56.000000pt" viewBox="0 0 56.000000 56.000000"
 preserveAspectRatio="xMidYMid meet">
<metadata>
Created by potrace 1.16, written by Peter Selinger 2001-2019
</metadata>
<g transform="translate(0.000000,56.000000) scale(0.100000,-0.100000)"
fill="#000000" stroke="none">
<path d="M167 560 c-6 0 -18 -15 -25 -32 -7 -18 -18 -41 -23 -50 -5 -10 -9
-25 -9 -33 0 -8 -9 -35 -21 -60 -12 -26 -18 -52 -14 -64 4 -13 15 -21 29 -21
13 0 29 7 36 15 7 8 16 15 21 15 5 0 9 -15 9 -33 0 -24 8 -41 30 -62 29 -28
29 -28 98 20 40 26 78 45 88 43 15 -3 19 -12 18 -43 0 -22 -9 -67 -19 -100
-10 -33 -27 -75 -37 -93 -10 -18 -18 -39 -18 -47 0 -8 6 -15 13 -15 8 0 23 10
34 22 11 13 27 39 35 58 9 19 28 61 42 93 14 32 26 66 26 77 0 10 -15 35 -34
54 -18 20 -43 36 -54 36 -11 0 -45 -13 -75 -30 -30 -16 -62 -30 -70 -30 -8 0
-18 7 -21 16 -3 9 -6 29 -6 45 0 22 10 39 38 64 20 19 40 35 44 35 3 0 16 16
28 35 18 29 20 38 10 50 -7 8 -20 15 -29 15 -9 0 -23 6 -29 12 -9 9 -15 10
-20 2 -4 -6 -15 -13 -25 -17 -9 -4 -20 -15 -23 -24 -4 -10 -12 -32 -20 -50 -8
-17 -14 -38 -14 -47 0 -8 -11 -23 -25 -32 -14 -9 -29 -14 -32 -10 -4 4 -2 16
5 26 7 11 12 26 12 33 0 7 9 32 20 55 11 22 20 48 20 57 0 8 -6 15 -13 15z
m92 -60 c5 0 12 -4 15 -9 3 -5 -1 -14 -9 -21 -9 -7 -18 -10 -21 -7 -4 3 -4 13
-1 22 4 8 11 15 16 15z"/>
</g>
</svg>
