<?xml version="1.0" standalone="no"?>
<!DOCTYPE svg PUBLIC "-//W3C//DTD SVG 20010904//EN"
 "http://www.w3.org/TR/2001/REC-SVG-20010904/DTD/svg10.dtd">
<svg version="1.0" xmlns="http://www.w3.org/2000/svg"
 width="56.000000pt" height="56.000000pt" viewBox="0 0 56.000000 56.000000"
 preserveAspectRatio="xMidYMid meet">
<metadata>
Created by potrace 1.16, written by Peter Selinger 2001-2019
</metadata>
<g transform="translate(0.000000,56.000000) scale(0.100000,-0.100000)"
fill="#000000" stroke="none">
<path d="M244 524 c-20 5 -34 2 -41 -6 -6 -7 -15 -26 -20 -43 -9 -28 -14 -30
-62 -33 -47 -3 -52 -5 -49 -25 2 -15 13 -24 41 -30 37 -9 37 -9 37 -80 1 -46
6 -79 15 -90 10 -14 20 -17 37 -12 13 4 43 21 68 38 25 17 48 35 51 40 3 4 24
7 45 5 39 -3 39 -3 42 -56 2 -39 -3 -65 -18 -97 -13 -26 -36 -53 -57 -66 -19
-12 -49 -25 -67 -28 -18 -4 -32 -14 -34 -24 -3 -14 4 -17 41 -17 25 0 47 4 49
9 2 5 26 19 53 32 40 19 55 34 77 74 18 34 27 66 27 101 1 43 -3 54 -27 78
-24 22 -39 27 -88 29 -44 1 -72 -5 -108 -22 -40 -20 -50 -21 -57 -10 -5 8 -11
28 -15 46 -3 17 -4 39 -2 48 1 10 23 25 48 35 26 10 51 28 60 43 13 24 13 28
0 41 -8 8 -29 17 -46 20z"/>
</g>
</svg>
