<?xml version="1.0" standalone="no"?>
<!DOCTYPE svg PUBLIC "-//W3C//DTD SVG 20010904//EN"
 "http://www.w3.org/TR/2001/REC-SVG-20010904/DTD/svg10.dtd">
<svg version="1.0" xmlns="http://www.w3.org/2000/svg"
 width="128.000000pt" height="128.000000pt" viewBox="0 0 128.000000 128.000000"
 preserveAspectRatio="xMidYMid meet">
<metadata>
Created by potrace 1.16, written by Peter Selinger 2001-2019
</metadata>
<g transform="translate(0.000000,128.000000) scale(0.100000,-0.100000)"
fill="#000000" stroke="none">
<path d="M320 1280 c-60 0 -60 0 -54 -27 4 -16 11 -36 16 -45 5 -10 15 -18 23
-18 7 0 27 17 44 37 17 21 31 41 31 45 0 5 -27 8 -60 8z"/>
<path d="M632 1260 c-5 0 -21 -13 -36 -28 -21 -23 -24 -31 -14 -39 7 -6 30
-16 51 -23 30 -9 42 -21 54 -48 8 -20 19 -61 24 -92 4 -30 11 -71 15 -91 6
-35 5 -37 -81 -108 -47 -39 -90 -71 -95 -71 -4 0 -10 6 -13 13 -2 7 -1 37 4
67 7 48 6 57 -10 74 -11 10 -41 23 -68 28 -26 5 -59 11 -73 14 -18 4 -31 -1
-44 -15 -18 -19 -17 -20 16 -34 19 -8 46 -18 59 -22 13 -4 29 -12 36 -17 7 -6
10 -29 7 -66 -3 -31 -7 -66 -9 -78 -3 -11 -19 -38 -36 -60 -17 -21 -34 -46
-39 -54 -6 -11 -11 -12 -23 -2 -8 7 -17 29 -20 50 -2 20 -17 63 -32 94 -17 37
-37 63 -55 72 -25 12 -30 11 -56 -10 -29 -23 -29 -23 18 -68 27 -25 46 -50 43
-58 -3 -7 6 -29 20 -48 14 -20 25 -47 25 -66 0 -27 -7 -36 -37 -55 -21 -12
-55 -36 -76 -52 -38 -30 -38 -30 -34 -131 2 -55 9 -119 16 -141 7 -22 16 -58
20 -80 4 -23 11 -46 15 -53 4 -7 15 -12 24 -12 11 0 31 24 53 63 20 34 51 101
69 149 21 58 39 89 51 93 15 5 19 16 19 49 0 24 9 69 20 102 11 32 31 75 44
94 13 19 39 51 58 70 19 19 58 56 87 83 29 26 56 45 60 43 4 -3 11 -43 14 -88
3 -46 9 -91 12 -100 4 -10 12 -18 17 -18 6 0 21 10 33 23 13 12 43 37 69 56
26 19 52 31 61 27 11 -4 15 -21 15 -64 0 -32 -7 -81 -15 -108 -8 -26 -29 -79
-47 -116 -27 -55 -39 -70 -65 -79 -28 -9 -37 -7 -60 9 -16 11 -38 22 -50 26
-11 4 -27 13 -33 21 -7 8 -21 15 -31 15 -11 0 -19 -7 -19 -15 0 -8 6 -25 13
-37 6 -12 25 -34 42 -49 24 -22 27 -29 17 -42 -7 -8 -39 -24 -71 -36 -32 -11
-67 -21 -79 -21 -11 0 -24 -5 -27 -10 -4 -6 -1 -17 5 -25 8 -10 18 -12 29 -6
9 5 52 11 96 13 59 4 90 11 118 28 32 19 40 20 56 9 10 -8 41 -29 67 -48 27
-19 74 -55 104 -80 30 -25 61 -54 68 -64 7 -9 24 -17 36 -17 13 0 29 7 36 15
11 13 10 21 -1 42 -8 14 -41 50 -74 80 -33 30 -81 69 -107 86 -33 20 -48 37
-48 52 0 11 4 25 9 30 6 6 24 39 42 75 18 36 38 88 45 115 8 28 14 74 14 104
0 30 -5 69 -12 87 -6 17 -24 39 -40 48 -20 12 -39 15 -61 11 -18 -4 -47 -16
-65 -26 -19 -11 -37 -17 -42 -14 -4 3 -8 31 -7 62 0 55 2 60 41 91 23 18 62
49 88 69 26 19 50 44 53 54 4 10 3 23 0 29 -3 5 -26 10 -50 10 -24 0 -47 5
-50 10 -3 6 -19 10 -36 10 -16 0 -29 3 -29 8 0 4 -2 37 -4 74 -2 37 -10 78
-18 90 -9 14 -34 28 -62 36 -25 6 -50 12 -54 12z m163 -270 c19 0 35 -3 35 -7
0 -4 -9 -17 -21 -29 -12 -12 -27 -20 -35 -17 -8 3 -14 16 -14 29 0 21 5 24 35
24z m-458 -500 c8 0 13 -13 13 -35 0 -19 -9 -54 -19 -77 -11 -24 -27 -63 -36
-88 -9 -25 -24 -56 -34 -68 -17 -24 -17 -24 -33 0 -9 14 -19 50 -22 80 -4 41
-2 60 8 70 7 8 16 24 20 35 4 12 26 36 48 53 23 16 48 30 55 30z"/>
</g>
</svg>
