<?xml version="1.0" standalone="no"?>
<!DOCTYPE svg PUBLIC "-//W3C//DTD SVG 20010904//EN"
 "http://www.w3.org/TR/2001/REC-SVG-20010904/DTD/svg10.dtd">
<svg version="1.0" xmlns="http://www.w3.org/2000/svg"
 width="128.000000pt" height="128.000000pt" viewBox="0 0 128.000000 128.000000"
 preserveAspectRatio="xMidYMid meet">
<metadata>
Created by potrace 1.16, written by Peter Selinger 2001-2019
</metadata>
<g transform="translate(0.000000,128.000000) scale(0.100000,-0.100000)"
fill="#000000" stroke="none">
<path d="M612 1229 c-4 -1 -15 -3 -24 -6 -12 -3 -18 -14 -18 -34 0 -22 5 -29
19 -29 11 0 22 -9 26 -19 3 -11 -2 -55 -11 -98 -9 -43 -18 -89 -20 -103 -1
-14 -3 -42 -3 -63 -1 -30 -6 -39 -25 -47 -13 -5 -27 -13 -30 -19 -4 -5 -20
-17 -38 -25 -17 -9 -33 -16 -36 -16 -2 0 -1 31 2 70 7 70 7 70 -26 90 -18 11
-41 20 -51 20 -10 0 -20 -7 -24 -15 -3 -9 2 -24 11 -33 13 -16 14 -30 5 -107
-5 -50 -14 -94 -18 -98 -5 -5 -24 6 -44 24 -19 19 -56 74 -81 123 -25 49 -46
95 -46 101 0 7 -8 23 -18 35 -15 19 -19 20 -30 7 -10 -11 -10 -27 -1 -68 6
-30 28 -86 49 -124 20 -39 54 -95 75 -125 38 -54 38 -54 -5 -90 -24 -19 -90
-81 -147 -137 -57 -56 -103 -107 -103 -112 0 -6 31 -30 69 -55 39 -25 77 -56
85 -69 9 -13 35 -39 57 -57 34 -27 43 -30 54 -19 8 8 18 30 22 49 9 33 12 35
59 38 27 2 67 3 89 2 22 0 69 5 105 11 55 10 70 18 103 53 21 23 44 50 51 61
13 19 14 19 27 -10 7 -16 45 -62 84 -101 38 -39 86 -96 105 -127 19 -31 41
-58 47 -61 7 -3 19 5 27 17 7 12 17 41 20 65 6 43 6 43 -80 127 -48 47 -100
90 -115 97 -16 7 -29 16 -29 21 0 4 17 32 37 63 31 47 37 64 40 122 1 36 -2
84 -8 105 -6 22 -27 57 -48 79 -26 28 -47 41 -71 44 -19 2 -43 7 -52 10 -10 3
-18 13 -18 22 0 9 17 27 38 40 20 12 74 40 120 63 62 29 83 44 80 57 -2 13
-18 19 -61 24 -31 4 -66 12 -76 18 -11 5 -28 10 -38 10 -11 0 -14 -3 -7 -8 5
-4 17 -18 26 -31 15 -21 15 -26 1 -47 -9 -14 -25 -24 -39 -24 -17 0 -24 6 -24
20 0 10 6 39 14 62 8 24 17 73 21 109 7 65 7 65 -45 92 -28 15 -55 26 -58 26z
m-21 -439 c4 0 12 -13 17 -29 8 -23 18 -29 52 -35 23 -4 51 -11 61 -17 10 -5
26 -34 35 -65 9 -33 13 -69 9 -92 -3 -20 -19 -62 -34 -92 -28 -55 -28 -55 -82
-57 -30 -1 -85 -4 -124 -6 -43 -3 -89 -13 -118 -26 -27 -12 -55 -20 -63 -17
-8 3 -14 10 -14 16 0 6 7 32 14 58 8 26 27 88 42 137 16 55 37 101 53 119 14
16 53 46 85 67 33 22 62 39 67 39z m-260 -216 c5 -3 4 -16 -1 -29 -5 -14 -17
-40 -26 -58 -10 -17 -32 -70 -51 -117 -18 -47 -33 -90 -33 -97 0 -7 -9 -17
-19 -22 -15 -8 -20 -7 -24 8 -2 10 -17 25 -33 32 -16 8 -30 23 -32 35 -2 12
16 42 48 79 28 33 76 86 107 117 31 31 60 55 64 52z m225 -204 c3 0 14 -5 25
-10 10 -6 19 -15 19 -20 0 -5 -14 -19 -31 -31 -17 -12 -50 -26 -73 -30 -22 -5
-72 -15 -111 -24 -38 -8 -71 -15 -72 -15 -2 0 -3 7 -3 16 0 8 17 22 38 31 20
8 41 21 45 29 6 11 26 13 83 10 65 -4 75 -2 70 11 -3 8 -4 19 0 24 3 5 7 9 10
9z"/>
<path d="M1039 1060 c-22 0 -29 -5 -29 -20 0 -13 14 -27 43 -41 23 -12 56 -37
74 -56 17 -19 29 -41 26 -49 -3 -8 -9 -14 -14 -14 -5 0 -9 -4 -9 -9 0 -6 14
-30 30 -55 17 -25 40 -48 52 -51 11 -4 31 -1 44 6 21 11 24 20 24 66 0 30 -6
61 -12 68 -7 8 -24 30 -38 49 -16 23 -51 49 -93 71 -38 19 -82 35 -98 35z"/>
</g>
</svg>
