<?xml version="1.0" standalone="no"?>
<!DOCTYPE svg PUBLIC "-//W3C//DTD SVG 20010904//EN"
 "http://www.w3.org/TR/2001/REC-SVG-20010904/DTD/svg10.dtd">
<svg version="1.0" xmlns="http://www.w3.org/2000/svg"
 width="128.000000pt" height="128.000000pt" viewBox="0 0 128.000000 128.000000"
 preserveAspectRatio="xMidYMid meet">
<metadata>
Created by potrace 1.16, written by Peter Selinger 2001-2019
</metadata>
<g transform="translate(0.000000,128.000000) scale(0.100000,-0.100000)"
fill="#000000" stroke="none">
<path d="M653 1279 c-18 -1 -44 -17 -73 -46 -25 -25 -71 -70 -103 -101 -31
-31 -76 -82 -99 -114 -23 -32 -51 -79 -62 -105 -10 -26 -23 -75 -27 -108 -5
-33 -13 -105 -19 -160 -6 -55 -16 -179 -21 -275 -5 -96 -9 -205 -9 -242 1 -36
5 -79 9 -95 4 -17 15 -29 27 -31 17 -2 22 6 32 50 6 29 12 115 12 192 0 76 3
143 7 148 3 6 7 30 9 55 2 31 -1 43 -9 40 -7 -2 -11 -14 -10 -26 2 -11 -7 -36
-18 -53 -21 -33 -21 -33 -15 2 4 19 11 73 17 120 5 47 14 128 19 180 5 52 13
115 18 140 5 25 16 61 25 81 10 19 34 55 54 80 21 24 78 84 127 133 50 49 101
95 113 104 13 8 23 18 23 23 0 5 -12 8 -27 8z"/>
<path d="M812 1180 c-5 0 -25 -22 -45 -49 -20 -26 -42 -62 -47 -78 -6 -16 -30
-44 -53 -61 -23 -17 -68 -51 -101 -77 -32 -25 -68 -57 -78 -71 -11 -14 -17
-28 -14 -31 3 -4 16 2 29 13 12 11 35 26 51 34 16 8 48 32 71 52 23 21 45 34
49 31 3 -3 6 -17 6 -30 0 -13 7 -26 16 -30 8 -3 26 0 40 7 15 9 28 10 34 4 5
-5 -10 -34 -41 -74 -28 -36 -64 -77 -80 -91 -17 -14 -37 -38 -45 -53 -7 -16
-14 -41 -14 -57 0 -19 5 -29 15 -29 8 0 23 12 32 27 10 15 40 51 67 80 27 29
53 53 58 53 5 0 26 11 46 25 20 14 42 25 49 25 7 0 13 -4 13 -10 0 -5 -12 -26
-26 -47 -14 -21 -37 -51 -52 -68 -15 -16 -53 -66 -86 -110 -33 -44 -72 -94
-87 -110 -16 -17 -32 -45 -35 -63 -5 -26 -3 -32 10 -32 10 0 25 4 35 10 10 5
37 38 61 74 23 35 54 70 69 77 14 7 38 21 53 31 14 10 38 18 53 18 21 0 26 -4
21 -16 -3 -9 -6 -17 -6 -19 0 -2 -22 -17 -50 -35 -27 -18 -50 -34 -50 -37 0
-3 16 -2 35 1 19 4 59 21 88 39 28 18 55 36 60 42 4 5 5 21 1 35 -3 14 -10 29
-15 35 -5 5 -26 8 -46 7 -20 -2 -42 -7 -48 -11 -5 -4 -19 -11 -30 -13 -11 -3
-28 -9 -37 -13 -10 -4 -18 -3 -18 3 0 6 29 45 64 89 36 43 79 92 96 109 18 19
30 39 28 50 -2 10 -14 21 -28 24 -18 5 -43 -3 -88 -28 -35 -18 -66 -31 -69
-28 -4 3 5 19 19 34 14 15 38 48 53 75 15 26 24 54 21 62 -3 9 -18 15 -34 15
-16 0 -35 -7 -42 -15 -7 -8 -21 -15 -32 -15 -18 0 -20 4 -14 33 4 17 10 33 15
35 5 2 32 25 60 52 28 27 51 55 51 63 0 8 -11 19 -25 25 -14 7 -29 12 -33 12z"/>
<path d="M430 770 c-5 0 -10 -5 -10 -11 0 -7 -7 -17 -15 -23 -8 -6 -16 -24
-19 -41 -2 -16 -1 -24 1 -17 2 6 9 12 14 12 5 0 16 16 24 36 8 20 15 38 15 40
0 2 -4 4 -10 4z"/>
<path d="M371 650 c-5 0 -11 -10 -14 -22 -4 -12 -4 -24 -1 -27 3 -3 9 1 14 9
6 8 10 21 10 28 0 6 -4 12 -9 12z"/>
<path d="M350 585 c-5 3 -13 -9 -18 -27 -5 -18 -8 -35 -6 -37 2 -2 10 2 19 9
8 7 15 21 15 31 0 10 -4 20 -10 24z"/>
<path d="M767 450 c-4 0 -9 -6 -11 -12 -2 -7 -9 -30 -15 -50 -9 -27 -9 -43 -2
-57 6 -11 11 -22 11 -24 0 -3 -8 -7 -18 -9 -10 -3 -31 -26 -45 -52 -19 -34
-25 -55 -20 -77 3 -16 11 -29 18 -29 7 0 18 7 25 15 7 8 19 15 27 15 7 0 23
16 34 35 12 19 25 35 30 35 6 0 32 -21 59 -46 27 -25 52 -58 55 -74 4 -18 16
-32 33 -39 15 -6 40 -9 57 -7 16 2 31 8 33 14 1 5 -2 13 -7 17 -6 3 -11 14
-11 24 0 10 -18 31 -39 45 -22 15 -42 34 -45 41 -2 7 -19 20 -37 29 -18 9 -48
16 -67 16 -35 0 -35 0 -27 48 4 26 8 57 7 69 0 12 -8 33 -18 47 -11 14 -23 26
-27 26z"/>
</g>
</svg>
