<?xml version="1.0" standalone="no"?>
<!DOCTYPE svg PUBLIC "-//W3C//DTD SVG 20010904//EN"
 "http://www.w3.org/TR/2001/REC-SVG-20010904/DTD/svg10.dtd">
<svg version="1.0" xmlns="http://www.w3.org/2000/svg"
 width="128.000000pt" height="128.000000pt" viewBox="0 0 128.000000 128.000000"
 preserveAspectRatio="xMidYMid meet">
<metadata>
Created by potrace 1.16, written by Peter Selinger 2001-2019
</metadata>
<g transform="translate(0.000000,128.000000) scale(0.100000,-0.100000)"
fill="#000000" stroke="none">
<path d="M810 1280 c-43 0 -60 -4 -60 -13 0 -7 13 -23 29 -34 26 -20 30 -20
50 -7 11 8 26 24 31 35 10 18 7 19 -50 19z"/>
<path d="M1009 1250 c-17 0 -42 -12 -64 -31 -29 -26 -41 -30 -67 -25 -24 5
-35 1 -49 -16 -11 -11 -19 -29 -19 -40 0 -10 -5 -18 -10 -18 -6 0 -20 -12 -33
-26 -12 -14 -50 -39 -85 -55 -35 -17 -66 -37 -69 -46 -4 -11 1 -22 15 -31 12
-8 22 -20 22 -27 0 -6 9 -20 21 -31 12 -10 28 -32 37 -49 8 -16 22 -35 31 -41
13 -10 13 -15 2 -27 -7 -9 -32 -25 -55 -37 -24 -11 -51 -29 -61 -40 -15 -17
-17 -27 -9 -58 8 -32 13 -37 34 -34 14 2 43 4 65 5 31 2 40 -2 43 -16 2 -12
-13 -34 -41 -62 -25 -23 -48 -51 -51 -62 -4 -13 4 -29 28 -52 34 -33 35 -34
68 -18 18 8 48 18 65 22 18 3 35 11 38 16 4 5 19 9 34 9 16 0 42 7 57 15 16 8
36 15 45 15 9 0 22 7 29 15 7 8 19 15 26 15 8 0 14 6 14 14 0 8 -5 18 -12 22
-6 4 -17 -1 -24 -11 -8 -11 -19 -15 -30 -11 -9 3 -33 1 -53 -5 -20 -7 -45 -16
-56 -20 -11 -5 -37 -8 -57 -6 -20 1 -40 6 -44 9 -3 4 3 19 15 34 11 15 21 33
21 41 0 8 7 27 15 43 9 17 24 30 35 30 10 0 26 7 34 16 9 8 16 21 16 28 0 7
-11 18 -25 24 -16 8 -33 8 -49 2 -14 -5 -30 -18 -35 -29 -10 -17 -15 -18 -40
-10 -16 6 -32 17 -35 24 -3 8 4 17 17 21 12 4 35 16 52 28 16 12 33 25 36 30
4 5 23 15 43 22 20 8 53 20 73 28 21 8 41 23 47 35 5 11 28 30 52 41 23 12 45
27 48 35 3 8 3 21 0 29 -3 7 -16 19 -28 26 -13 7 -29 23 -36 36 -12 21 -9 27
29 70 22 26 41 52 41 59 0 6 -8 19 -18 28 -10 10 -23 17 -29 17 -6 0 -16 7
-23 15 -7 8 -25 15 -41 15z m-102 -140 c18 0 23 -6 23 -25 0 -14 4 -25 9 -25
5 0 24 -18 42 -41 28 -36 30 -43 19 -64 -7 -12 -35 -34 -64 -48 -28 -14 -60
-35 -70 -46 -11 -12 -27 -21 -38 -21 -10 0 -18 3 -18 8 1 4 7 18 14 31 7 13
11 32 9 43 -3 10 2 29 11 43 9 13 16 34 16 45 0 11 6 38 12 60 10 31 18 40 35
40z m-114 -70 c9 0 17 -2 17 -5 0 -3 -4 -13 -9 -23 -5 -9 -15 -38 -23 -64 -7
-27 -17 -48 -23 -48 -6 0 -21 9 -33 20 -12 12 -22 29 -22 40 0 10 12 28 28 39
15 11 32 25 37 30 6 6 18 10 28 11z"/>
<path d="M398 1180 c-10 0 -22 -8 -25 -17 -4 -10 -16 -25 -28 -35 -20 -16 -20
-16 3 -47 19 -26 22 -42 20 -93 -3 -55 -6 -64 -28 -75 -16 -8 -67 -13 -138
-13 -110 0 -113 -1 -110 -22 2 -17 16 -25 67 -39 37 -10 80 -15 100 -12 20 3
48 13 63 21 18 10 31 13 37 7 4 -6 5 -35 1 -65 -5 -30 -17 -86 -28 -123 -17
-58 -28 -76 -82 -129 -34 -34 -92 -82 -128 -106 -37 -23 -70 -48 -74 -55 -4
-6 -1 -21 6 -32 7 -11 17 -36 21 -55 4 -19 12 -41 17 -47 6 -7 17 -13 24 -13
8 0 20 12 27 28 6 15 31 47 55 71 29 31 42 52 42 72 0 22 6 30 25 35 14 3 32
4 40 0 8 -3 15 -17 15 -31 0 -14 9 -34 21 -46 21 -21 21 -21 -1 -44 -19 -20
-22 -34 -21 -94 0 -42 7 -84 17 -105 9 -19 28 -39 42 -45 18 -9 33 -9 57 -1
18 6 36 17 39 25 2 7 -2 19 -10 25 -8 7 -14 19 -14 26 0 8 -11 14 -27 14 -14
0 -23 3 -19 7 4 5 17 8 29 8 13 0 23 7 25 18 2 10 -3 17 -11 17 -9 0 -17 -5
-19 -12 -2 -6 -12 -9 -21 -5 -9 3 -17 13 -17 22 0 9 9 15 25 15 18 0 28 7 35
25 6 17 5 60 -5 131 -9 59 -18 111 -22 118 -4 6 -8 40 -10 75 -1 36 2 70 6 75
5 6 8 43 8 83 -1 42 4 82 12 96 8 15 25 27 42 29 18 3 29 0 29 -8 0 -6 -7 -17
-15 -24 -8 -7 -15 -20 -15 -30 0 -10 7 -21 16 -24 9 -3 25 4 40 19 13 13 24
30 24 37 0 6 14 26 31 44 30 31 30 31 -5 68 -34 37 -34 37 -76 11 -32 -20 -45
-24 -55 -15 -9 8 -13 28 -10 59 1 27 8 58 14 69 6 11 11 30 11 42 0 11 -12 32
-26 45 -15 14 -35 25 -46 25z m-242 -801 c8 -6 14 -17 14 -25 0 -7 -4 -15 -9
-19 -6 -3 -15 4 -21 15 -6 11 -8 25 -5 31 5 7 11 6 21 -2z m234 -29 c11 0 20
-4 20 -10 0 -5 -9 -10 -20 -10 -11 0 -20 5 -20 10 0 6 9 10 20 10z"/>
<path d="M280 760 c-11 0 -23 -7 -26 -15 -3 -8 -3 -19 1 -25 4 -7 12 -7 26 0
10 6 19 17 19 25 0 8 -9 15 -20 15z"/>
<path d="M1130 505 c-14 3 -29 3 -33 -1 -4 -4 -7 -17 -7 -30 0 -12 5 -24 12
-26 6 -2 15 -31 20 -64 5 -32 11 -77 14 -99 3 -22 10 -49 15 -60 6 -12 6 -36
2 -59 -5 -22 -16 -44 -25 -49 -11 -8 -32 -5 -73 8 -32 10 -68 18 -79 19 -14 1
-22 9 -24 24 -2 12 6 37 17 56 12 18 21 47 21 63 0 19 9 38 25 53 14 13 25 28
25 33 0 5 -10 17 -22 28 -13 10 -34 18 -47 19 -13 0 -46 -14 -73 -30 -28 -17
-55 -35 -61 -41 -7 -5 -32 -25 -57 -44 -25 -19 -50 -35 -57 -35 -6 0 -27 25
-47 55 -20 30 -40 57 -45 59 -5 3 -13 0 -19 -7 -6 -8 -5 -28 5 -62 8 -27 16
-72 18 -99 2 -28 11 -56 20 -65 15 -15 19 -13 54 25 21 22 53 47 71 54 17 7
43 31 58 52 18 28 31 38 46 36 17 -2 21 -10 21 -38 0 -19 -4 -45 -9 -56 -4
-12 -18 -27 -31 -34 -13 -7 -28 -23 -34 -36 -6 -13 -27 -36 -48 -51 -21 -15
-53 -44 -72 -65 -33 -38 -33 -38 12 -38 31 0 47 5 51 15 3 8 13 15 23 15 10 0
36 23 58 50 34 43 44 50 65 45 14 -4 32 -13 41 -21 8 -8 19 -14 23 -14 4 0 31
-11 59 -24 29 -13 71 -26 94 -29 38 -5 45 -2 63 23 17 24 19 39 15 131 -3 57
-6 139 -8 182 -3 67 -6 81 -28 102 -13 13 -35 27 -49 30z"/>
</g>
</svg>
