<?xml version="1.0" standalone="no"?>
<!DOCTYPE svg PUBLIC "-//W3C//DTD SVG 20010904//EN"
 "http://www.w3.org/TR/2001/REC-SVG-20010904/DTD/svg10.dtd">
<svg version="1.0" xmlns="http://www.w3.org/2000/svg"
 width="128.000000pt" height="128.000000pt" viewBox="0 0 128.000000 128.000000"
 preserveAspectRatio="xMidYMid meet">
<metadata>
Created by potrace 1.16, written by Peter Selinger 2001-2019
</metadata>
<g transform="translate(0.000000,128.000000) scale(0.100000,-0.100000)"
fill="#000000" stroke="none">
<path d="M328 1260 c-15 0 -29 -4 -32 -8 -3 -5 10 -31 29 -58 31 -46 34 -56
40 -156 7 -106 7 -106 -41 -142 -27 -19 -59 -36 -71 -36 -12 0 -45 -5 -73 -11
-28 -6 -54 -18 -57 -26 -3 -8 3 -22 13 -31 11 -10 42 -33 69 -52 28 -19 63
-37 80 -40 18 -3 31 -12 33 -23 2 -10 -23 -53 -57 -100 -33 -45 -71 -96 -84
-114 -13 -17 -32 -56 -42 -86 -10 -30 -15 -62 -12 -71 4 -9 10 -16 14 -16 4 0
44 34 88 75 43 41 82 75 86 75 4 0 12 -6 18 -14 9 -10 9 -25 3 -53 -6 -21 -13
-59 -17 -85 -4 -34 -11 -48 -22 -48 -8 0 -17 9 -20 19 -3 11 -11 22 -19 25
-10 4 -14 -2 -14 -20 0 -14 7 -56 16 -92 9 -37 22 -91 30 -119 10 -34 20 -53
30 -53 8 0 26 7 40 16 14 10 32 31 41 48 13 23 18 62 19 146 1 63 3 150 3 192
1 55 5 81 16 92 11 10 26 13 48 10 18 -4 52 -16 77 -27 25 -11 50 -28 57 -36
10 -14 14 -14 41 2 17 9 39 17 49 17 10 0 27 6 38 13 11 7 43 20 70 29 28 10
77 22 109 28 33 5 68 10 78 10 10 0 27 -9 38 -20 13 -13 20 -33 20 -56 0 -29
-10 -48 -51 -95 -36 -41 -58 -59 -75 -59 -13 0 -24 5 -24 10 0 6 -9 30 -21 54
-14 31 -30 48 -50 55 -16 6 -35 8 -42 5 -7 -3 -26 -24 -44 -48 -18 -23 -33
-55 -35 -72 -1 -16 -1 -43 0 -61 1 -17 9 -39 18 -47 8 -9 27 -16 41 -16 14 0
38 11 54 25 16 13 46 27 67 30 20 3 64 19 97 37 33 17 71 40 84 52 13 11 34
38 47 58 19 30 24 51 24 102 0 65 0 65 -45 92 -25 14 -63 28 -85 31 -27 4 -52
0 -82 -14 -24 -11 -68 -26 -98 -34 -30 -7 -59 -18 -65 -24 -6 -7 -36 -9 -72
-7 -55 3 -63 6 -63 24 0 10 4 27 9 37 6 10 27 23 48 29 21 6 62 16 90 23 38 8
60 20 78 41 14 16 25 40 25 52 0 12 -5 27 -12 34 -7 7 -21 12 -31 12 -10 0
-32 9 -48 21 -16 11 -29 26 -29 33 0 7 10 22 23 33 12 11 29 29 38 39 9 10 27
27 40 37 13 9 29 17 35 17 7 0 26 12 43 26 21 17 31 35 31 53 0 15 -10 37 -21
50 -16 17 -27 21 -48 15 -14 -4 -44 -10 -66 -14 -22 -3 -55 -14 -74 -24 -33
-17 -33 -17 -60 7 -14 14 -38 28 -52 32 -22 6 -30 1 -49 -27 -13 -18 -35 -46
-49 -61 -14 -16 -40 -35 -58 -44 -18 -8 -37 -13 -44 -11 -7 2 -12 38 -13 103
-1 58 -8 110 -15 123 -7 13 -27 32 -44 42 -18 11 -44 20 -59 20z m518 -220
c11 0 14 -5 10 -16 -3 -9 -6 -23 -7 -32 0 -14 -2 -13 -9 3 -5 11 -9 26 -9 33
-1 6 6 12 15 12z m-217 -90 c3 0 13 -6 22 -13 9 -7 23 -25 31 -41 13 -25 13
-32 1 -57 -9 -18 -22 -29 -35 -29 -15 0 -19 5 -15 20 3 11 2 20 -2 20 -4 0 -7
23 -7 50 0 28 2 50 5 50z m-112 -90 c6 0 15 -4 18 -10 3 -5 20 -10 36 -10 24
0 30 -4 27 -17 -2 -11 -11 -17 -22 -15 -17 3 -18 -2 -13 -58 4 -34 14 -71 22
-83 8 -12 15 -32 15 -46 0 -13 -7 -33 -17 -43 -9 -10 -24 -18 -35 -18 -13 0
-18 7 -18 25 0 18 -6 26 -22 29 -13 3 -35 7 -49 10 -17 4 -31 16 -39 35 -7 18
-9 47 -5 77 4 27 11 55 14 62 4 7 22 23 41 37 19 13 40 24 47 25z m94 -96 c5
-3 9 -18 9 -35 0 -16 -4 -29 -9 -29 -5 0 -11 8 -13 18 -2 9 -2 25 0 34 2 10 8
15 13 12z"/>
<path d="M1144 907 c-7 2 -26 -15 -43 -39 -18 -24 -30 -52 -29 -63 2 -14 12
-21 34 -23 18 -2 36 3 43 12 7 8 11 35 9 62 -2 26 -8 49 -14 51z"/>
<path d="M780 40 c-15 0 -38 -9 -51 -20 -24 -19 -24 -19 59 -20 45 0 82 2 82
4 0 3 -14 12 -32 20 -17 9 -43 16 -58 16z"/>
</g>
</svg>
