<?xml version="1.0" standalone="no"?>
<!DOCTYPE svg PUBLIC "-//W3C//DTD SVG 20010904//EN"
 "http://www.w3.org/TR/2001/REC-SVG-20010904/DTD/svg10.dtd">
<svg version="1.0" xmlns="http://www.w3.org/2000/svg"
 width="56.000000pt" height="56.000000pt" viewBox="0 0 56.000000 56.000000"
 preserveAspectRatio="xMidYMid meet">
<metadata>
Created by potrace 1.16, written by Peter Selinger 2001-2019
</metadata>
<g transform="translate(0.000000,56.000000) scale(0.100000,-0.100000)"
fill="#000000" stroke="none">
<path d="M337 560 c-4 0 -7 -4 -7 -10 0 -5 -8 -10 -19 -10 -10 0 -30 -11 -44
-24 -14 -13 -29 -36 -33 -50 -3 -14 -3 -45 0 -68 4 -24 9 -64 12 -90 5 -39 3
-48 -10 -48 -8 0 -27 -12 -41 -27 -19 -21 -25 -37 -23 -63 3 -32 6 -35 37 -38
33 -3 33 -3 26 -50 -3 -26 -9 -55 -12 -65 -4 -15 0 -18 18 -15 15 2 25 13 31
33 5 17 8 102 8 190 0 88 -1 176 -1 195 -1 19 -1 43 0 53 1 12 9 17 30 17 17
0 33 -4 36 -10 3 -5 13 -10 21 -10 9 0 14 10 14 28 0 16 -8 36 -18 45 -10 10
-22 17 -25 17z"/>
</g>
</svg>
