<?xml version="1.0" standalone="no"?>
<!DOCTYPE svg PUBLIC "-//W3C//DTD SVG 20010904//EN"
 "http://www.w3.org/TR/2001/REC-SVG-20010904/DTD/svg10.dtd">
<svg version="1.0" xmlns="http://www.w3.org/2000/svg"
 width="56.000000pt" height="56.000000pt" viewBox="0 0 56.000000 56.000000"
 preserveAspectRatio="xMidYMid meet">
<metadata>
Created by potrace 1.16, written by Peter Selinger 2001-2019
</metadata>
<g transform="translate(0.000000,56.000000) scale(0.100000,-0.100000)"
fill="#000000" stroke="none">
<path d="M221 560 c-12 0 -21 -3 -21 -8 0 -4 8 -19 17 -32 14 -20 18 -52 21
-155 4 -129 4 -130 -22 -154 -19 -18 -26 -34 -26 -63 0 -31 4 -38 19 -38 11 0
28 12 39 28 17 22 23 25 34 14 8 -9 13 -38 12 -83 -1 -65 1 -70 20 -67 16 2
23 14 30 51 8 41 7 55 -10 85 -10 20 -29 47 -41 60 -19 21 -21 31 -17 95 3 40
7 78 10 85 2 6 19 12 39 12 32 0 36 3 33 23 -2 15 -9 22 -23 21 -11 -1 -28 -5
-37 -9 -16 -6 -18 -1 -18 41 -1 33 -7 56 -19 72 -11 12 -29 22 -40 22z"/>
</g>
</svg>
