<?xml version="1.0" standalone="no"?>
<!DOCTYPE svg PUBLIC "-//W3C//DTD SVG 20010904//EN"
 "http://www.w3.org/TR/2001/REC-SVG-20010904/DTD/svg10.dtd">
<svg version="1.0" xmlns="http://www.w3.org/2000/svg"
 width="56.000000pt" height="56.000000pt" viewBox="0 0 56.000000 56.000000"
 preserveAspectRatio="xMidYMid meet">
<metadata>
Created by potrace 1.16, written by Peter Selinger 2001-2019
</metadata>
<g transform="translate(0.000000,56.000000) scale(0.100000,-0.100000)"
fill="#000000" stroke="none">
<path d="M164 560 c-1 0 -4 -7 -8 -15 -3 -8 8 -39 25 -68 17 -28 38 -60 47
-70 11 -12 18 -46 21 -101 6 -84 6 -84 -26 -84 -17 0 -37 -3 -44 -8 -9 -5 -7
-11 6 -21 11 -7 15 -13 9 -14 -5 -1 -20 -2 -34 -2 -21 -2 -26 -9 -33 -50 -7
-34 -6 -51 3 -62 9 -10 27 -13 67 -11 37 3 63 11 79 25 13 12 31 21 38 21 8 0
18 -5 21 -10 4 -6 -3 -27 -14 -46 -12 -19 -21 -37 -21 -40 0 -2 22 -4 48 -4
26 0 53 5 60 12 7 7 12 38 12 69 0 56 -1 59 -43 93 -44 36 -44 36 -39 93 2 37
10 63 20 71 9 6 26 12 38 12 12 0 27 6 33 14 10 11 9 21 -3 44 -9 17 -22 37
-31 45 -10 11 -26 14 -50 10 -29 -5 -38 -1 -62 25 -15 16 -48 39 -72 51 -25
12 -46 21 -47 21z"/>
</g>
</svg>
