<?xml version="1.0" standalone="no"?>
<!DOCTYPE svg PUBLIC "-//W3C//DTD SVG 20010904//EN"
 "http://www.w3.org/TR/2001/REC-SVG-20010904/DTD/svg10.dtd">
<svg version="1.0" xmlns="http://www.w3.org/2000/svg"
 width="56.000000pt" height="56.000000pt" viewBox="0 0 56.000000 56.000000"
 preserveAspectRatio="xMidYMid meet">
<metadata>
Created by potrace 1.16, written by Peter Selinger 2001-2019
</metadata>
<g transform="translate(0.000000,56.000000) scale(0.100000,-0.100000)"
fill="#000000" stroke="none">
<path d="M397 560 c-24 0 -38 -8 -57 -31 -14 -17 -37 -45 -52 -61 -26 -30 -26
-30 -40 18 -12 42 -17 49 -42 52 -15 2 -35 1 -44 -3 -14 -6 -13 -9 8 -20 24
-12 27 -23 48 -167 12 -84 22 -159 22 -165 0 -7 -19 -21 -43 -32 -23 -11 -51
-28 -61 -39 -10 -11 -16 -29 -14 -39 3 -15 13 -18 61 -18 52 1 61 4 88 33 26
28 33 31 46 20 11 -9 14 -24 10 -60 -6 -48 -6 -48 23 -48 27 0 30 3 30 34 0
18 -6 47 -12 63 -7 17 -27 42 -45 57 -30 25 -32 31 -26 71 4 30 0 57 -11 86
-9 22 -14 50 -11 60 4 10 11 19 16 19 6 0 30 -11 53 -25 26 -15 50 -23 60 -19
9 4 16 13 14 22 -2 8 -10 18 -18 23 -8 4 -30 13 -47 19 -18 7 -33 17 -33 23 0
6 25 35 55 64 30 29 55 56 55 58 0 3 -15 5 -33 5z"/>
</g>
</svg>
