<?xml version="1.0" standalone="no"?>
<!DOCTYPE svg PUBLIC "-//W3C//DTD SVG 20010904//EN"
 "http://www.w3.org/TR/2001/REC-SVG-20010904/DTD/svg10.dtd">
<svg version="1.0" xmlns="http://www.w3.org/2000/svg"
 width="56.000000pt" height="56.000000pt" viewBox="0 0 56.000000 56.000000"
 preserveAspectRatio="xMidYMid meet">
<metadata>
Created by potrace 1.16, written by Peter Selinger 2001-2019
</metadata>
<g transform="translate(0.000000,56.000000) scale(0.100000,-0.100000)"
fill="#000000" stroke="none">
<path d="M327 560 c-31 0 -35 -4 -54 -52 -11 -29 -26 -73 -33 -98 -7 -25 -16
-55 -20 -66 -5 -12 -7 -41 -4 -65 2 -24 6 -61 9 -83 4 -28 1 -44 -12 -58 -9
-10 -36 -27 -60 -38 -41 -18 -43 -21 -43 -60 0 -40 0 -40 42 -34 25 4 60 20
82 37 21 17 45 46 52 64 8 18 17 33 20 33 3 0 18 -7 34 -15 17 -9 30 -22 30
-31 0 -8 -17 -31 -37 -52 -34 -34 -36 -37 -17 -40 12 -2 44 11 72 29 28 17 54
40 58 51 4 13 -2 28 -18 45 -12 13 -38 31 -57 39 -18 8 -44 14 -57 14 -16 0
-25 7 -28 22 -3 13 -8 43 -11 68 -3 25 -7 62 -9 82 -3 38 -3 38 53 35 51 -2
56 0 59 21 3 18 -4 26 -32 37 -20 9 -36 19 -36 23 0 5 11 19 25 32 14 13 25
32 25 42 0 14 -8 18 -33 18z m-115 -466 c4 -3 4 -14 -2 -24 -6 -10 -15 -22
-20 -25 -6 -3 -10 2 -10 12 0 11 5 24 12 31 6 6 15 9 20 6z"/>
</g>
</svg>
