<?xml version="1.0" standalone="no"?>
<!DOCTYPE svg PUBLIC "-//W3C//DTD SVG 20010904//EN"
 "http://www.w3.org/TR/2001/REC-SVG-20010904/DTD/svg10.dtd">
<svg version="1.0" xmlns="http://www.w3.org/2000/svg"
 width="56.000000pt" height="56.000000pt" viewBox="0 0 56.000000 56.000000"
 preserveAspectRatio="xMidYMid meet">
<metadata>
Created by potrace 1.16, written by Peter Selinger 2001-2019
</metadata>
<g transform="translate(0.000000,56.000000) scale(0.100000,-0.100000)"
fill="#000000" stroke="none">
<path d="M207 560 c-39 0 -39 0 -13 -32 15 -18 31 -39 37 -46 8 -9 22 -12 41
-8 20 4 30 1 34 -9 4 -8 19 -15 34 -15 16 0 32 -4 35 -10 3 -5 15 -10 25 -10
10 0 21 4 25 9 3 5 -5 21 -17 34 -13 14 -37 28 -55 31 -18 3 -35 1 -38 -4 -3
-6 -10 -10 -14 -10 -5 0 -19 16 -32 35 -20 30 -30 35 -62 35z"/>
<path d="M236 438 c-9 2 -19 -4 -22 -12 -3 -9 -1 -23 6 -31 9 -11 11 -37 7
-88 -3 -39 -8 -79 -12 -88 -3 -9 -18 -22 -32 -30 -14 -8 -36 -31 -49 -51 -13
-21 -24 -52 -24 -70 0 -22 7 -37 20 -46 14 -9 26 -9 39 -3 10 6 21 8 24 5 3
-3 15 -3 27 1 13 4 29 25 40 50 10 24 16 53 13 64 -5 18 -1 21 26 21 29 0 31
-3 31 -35 0 -19 -5 -45 -12 -59 -6 -14 -19 -28 -29 -31 -9 -3 -20 -12 -23 -20
-4 -11 3 -15 29 -15 28 0 36 4 41 24 3 14 14 32 25 42 10 9 19 22 19 29 0 7 9
20 19 29 19 17 19 18 -6 54 -22 33 -30 37 -66 37 -42 0 -42 0 -45 59 -2 33 -9
83 -16 110 -8 32 -19 52 -30 54z"/>
</g>
</svg>
