<?xml version="1.0" standalone="no"?>
<!DOCTYPE svg PUBLIC "-//W3C//DTD SVG 20010904//EN"
 "http://www.w3.org/TR/2001/REC-SVG-20010904/DTD/svg10.dtd">
<svg version="1.0" xmlns="http://www.w3.org/2000/svg"
 width="56.000000pt" height="56.000000pt" viewBox="0 0 56.000000 56.000000"
 preserveAspectRatio="xMidYMid meet">
<metadata>
Created by potrace 1.16, written by Peter Selinger 2001-2019
</metadata>
<g transform="translate(0.000000,56.000000) scale(0.100000,-0.100000)"
fill="#000000" stroke="none">
<path d="M236 560 c-13 0 -27 -7 -30 -16 -4 -10 0 -18 12 -21 10 -2 24 -14 32
-26 7 -12 15 -53 17 -92 1 -38 -1 -83 -5 -100 -7 -25 -15 -31 -45 -36 -23 -4
-46 -17 -62 -35 -14 -16 -25 -38 -25 -48 0 -11 12 -37 26 -58 15 -21 30 -38
34 -38 4 0 23 18 43 39 19 21 38 49 42 62 7 22 8 22 21 4 8 -10 14 -34 14 -52
0 -18 -6 -43 -13 -56 -6 -12 -23 -35 -36 -52 -24 -30 -24 -30 10 -33 28 -3 39
2 62 30 15 18 33 49 38 69 10 30 8 42 -11 80 -13 24 -30 54 -40 66 -12 16 -15
33 -11 65 6 43 6 43 51 43 37 0 45 3 45 19 0 10 -7 22 -15 27 -8 4 -27 10 -42
14 -25 5 -28 10 -28 49 0 35 -5 48 -30 69 -16 15 -41 27 -54 27z m-4 -330 c10
0 18 -6 18 -12 -1 -7 -9 -23 -19 -35 -11 -13 -24 -23 -30 -23 -6 0 -11 10 -11
23 0 13 5 28 12 35 7 7 20 12 30 12z"/>
</g>
</svg>
