<?xml version="1.0" standalone="no"?>
<!DOCTYPE svg PUBLIC "-//W3C//DTD SVG 20010904//EN"
 "http://www.w3.org/TR/2001/REC-SVG-20010904/DTD/svg10.dtd">
<svg version="1.0" xmlns="http://www.w3.org/2000/svg"
 width="56.000000pt" height="56.000000pt" viewBox="0 0 56.000000 56.000000"
 preserveAspectRatio="xMidYMid meet">
<metadata>
Created by potrace 1.16, written by Peter Selinger 2001-2019
</metadata>
<g transform="translate(0.000000,56.000000) scale(0.100000,-0.100000)"
fill="#000000" stroke="none">
<path d="M184 560 c-9 0 -14 -5 -12 -12 2 -6 10 -14 16 -16 7 -2 12 3 12 12 0
9 -7 16 -16 16z"/>
<path d="M327 560 c-13 0 -27 -9 -34 -22 -7 -13 -15 -31 -19 -40 -3 -10 -13
-18 -20 -18 -8 0 -15 6 -15 13 -1 6 -1 17 0 24 1 6 -3 14 -8 17 -5 3 -14 -1
-21 -9 -7 -8 -8 -20 -4 -27 5 -7 7 -21 6 -30 -2 -10 2 -26 8 -38 6 -11 11 -77
11 -150 1 -85 -3 -135 -10 -144 -7 -8 -9 -25 -6 -39 5 -19 0 -30 -25 -51 -17
-14 -38 -26 -45 -26 -11 0 -12 6 -3 30 5 17 14 33 19 36 5 3 9 12 9 20 0 13
-3 13 -28 0 -15 -8 -34 -25 -41 -39 -7 -13 -11 -33 -9 -43 3 -16 12 -19 59
-18 30 0 68 7 84 15 22 10 31 22 33 45 3 29 6 31 39 30 23 -1 46 -10 62 -24
14 -13 33 -30 42 -38 9 -8 23 -14 32 -14 11 0 17 8 17 23 0 13 -9 32 -20 42
-11 10 -35 18 -53 18 -17 0 -45 8 -62 17 -22 12 -31 25 -33 48 -2 18 -9 32
-16 32 -8 0 -16 11 -18 24 -4 18 0 26 13 29 16 4 17 14 12 81 -3 42 -2 76 3
76 5 0 24 -9 42 -20 18 -11 41 -20 52 -20 16 0 20 7 20 31 0 26 -6 33 -45 50
-31 14 -45 26 -45 39 0 11 9 29 20 40 11 11 20 22 20 25 0 3 -10 5 -23 5z
m-45 -90 c4 0 8 -4 8 -8 0 -5 -7 -17 -15 -28 -14 -19 -14 -19 -15 2 0 11 3 24
7 27 3 4 10 7 15 7z"/>
</g>
</svg>
