<?xml version="1.0" standalone="no"?>
<!DOCTYPE svg PUBLIC "-//W3C//DTD SVG 20010904//EN"
 "http://www.w3.org/TR/2001/REC-SVG-20010904/DTD/svg10.dtd">
<svg version="1.0" xmlns="http://www.w3.org/2000/svg"
 width="56.000000pt" height="56.000000pt" viewBox="0 0 56.000000 56.000000"
 preserveAspectRatio="xMidYMid meet">
<metadata>
Created by potrace 1.16, written by Peter Selinger 2001-2019
</metadata>
<g transform="translate(0.000000,56.000000) scale(0.100000,-0.100000)"
fill="#000000" stroke="none">
<path d="M265 560 c-9 0 -12 -50 -12 -212 1 -212 1 -212 -29 -228 -21 -12 -30
-25 -32 -48 -3 -31 -2 -32 33 -32 29 0 38 -5 42 -21 4 -15 12 -19 32 -17 20 2
27 9 29 30 2 15 -3 39 -11 55 -10 20 -16 70 -17 168 -2 77 -2 146 -1 153 0 6
12 12 26 12 14 0 29 8 35 19 5 11 10 22 10 25 0 4 -18 14 -41 24 -30 12 -42
24 -46 45 -3 15 -11 27 -18 27z"/>
</g>
</svg>
