<?xml version="1.0" standalone="no"?>
<!DOCTYPE svg PUBLIC "-//W3C//DTD SVG 20010904//EN"
 "http://www.w3.org/TR/2001/REC-SVG-20010904/DTD/svg10.dtd">
<svg version="1.0" xmlns="http://www.w3.org/2000/svg"
 width="56.000000pt" height="56.000000pt" viewBox="0 0 56.000000 56.000000"
 preserveAspectRatio="xMidYMid meet">
<metadata>
Created by potrace 1.16, written by Peter Selinger 2001-2019
</metadata>
<g transform="translate(0.000000,56.000000) scale(0.100000,-0.100000)"
fill="#000000" stroke="none">
<path d="M313 540 c-10 0 -13 -6 -8 -22 4 -13 13 -38 21 -55 9 -20 22 -33 33
-33 11 0 22 7 25 16 4 10 -6 31 -25 55 -17 21 -37 39 -46 39z"/>
<path d="M316 430 c-7 0 -16 -3 -19 -7 -4 -3 -7 -48 -7 -99 0 -93 0 -93 -34
-87 -29 4 -39 1 -60 -22 -20 -21 -26 -39 -26 -71 0 -31 6 -50 20 -64 11 -11
31 -20 45 -20 15 0 31 9 41 25 9 14 21 25 26 25 6 0 8 -14 5 -33 -3 -17 -8
-43 -12 -55 -7 -21 -5 -23 16 -20 22 3 24 8 27 68 2 36 -2 81 -8 100 -8 24 -9
61 -3 115 4 44 7 95 5 113 -2 17 -9 32 -16 32z m-65 -230 c9 0 22 -6 28 -14 9
-11 7 -20 -12 -42 -16 -18 -29 -25 -40 -21 -10 4 -17 17 -17 30 0 13 5 28 12
35 7 7 20 12 29 12z"/>
</g>
</svg>
