<?xml version="1.0" standalone="no"?>
<!DOCTYPE svg PUBLIC "-//W3C//DTD SVG 20010904//EN"
 "http://www.w3.org/TR/2001/REC-SVG-20010904/DTD/svg10.dtd">
<svg version="1.0" xmlns="http://www.w3.org/2000/svg"
 width="56.000000pt" height="56.000000pt" viewBox="0 0 56.000000 56.000000"
 preserveAspectRatio="xMidYMid meet">
<metadata>
Created by potrace 1.16, written by Peter Selinger 2001-2019
</metadata>
<g transform="translate(0.000000,56.000000) scale(0.100000,-0.100000)"
fill="#000000" stroke="none">
<path d="M350 560 c-23 0 -31 -5 -36 -24 -3 -13 -4 -35 -2 -47 2 -14 9 -23 17
-21 7 1 19 -2 26 -8 9 -7 15 -8 20 -1 3 6 2 19 -4 29 -6 11 -6 24 0 33 5 7 9
20 9 27 0 7 -13 12 -30 12z"/>
<path d="M251 440 c-12 0 -21 -9 -25 -24 -3 -14 -1 -37 5 -53 11 -28 11 -28
30 12 11 22 17 45 15 52 -3 7 -14 13 -25 13z"/>
<path d="M228 318 c-12 2 -18 -3 -18 -16 0 -10 -9 -27 -19 -36 -10 -9 -21 -29
-24 -44 -3 -15 1 -37 9 -49 8 -13 21 -23 29 -23 7 0 17 -5 20 -10 3 -6 1 -27
-5 -48 -7 -20 -15 -49 -20 -64 -8 -27 -7 -28 26 -28 27 0 34 4 34 19 0 11 4
22 9 26 6 3 16 19 24 35 13 25 13 31 1 41 -8 6 -14 16 -14 21 0 6 7 8 15 4 8
-3 15 -1 15 4 0 5 -8 19 -17 31 -10 12 -25 30 -34 39 -10 11 -16 33 -15 56 1
29 -3 39 -16 42z"/>
</g>
</svg>
