<?xml version="1.0" standalone="no"?>
<!DOCTYPE svg PUBLIC "-//W3C//DTD SVG 20010904//EN"
 "http://www.w3.org/TR/2001/REC-SVG-20010904/DTD/svg10.dtd">
<svg version="1.0" xmlns="http://www.w3.org/2000/svg"
 width="56.000000pt" height="56.000000pt" viewBox="0 0 56.000000 56.000000"
 preserveAspectRatio="xMidYMid meet">
<metadata>
Created by potrace 1.16, written by Peter Selinger 2001-2019
</metadata>
<g transform="translate(0.000000,56.000000) scale(0.100000,-0.100000)"
fill="#000000" stroke="none">
<path d="M263 560 c-9 0 -13 -22 -13 -78 0 -44 -3 -114 -7 -156 -4 -58 -10
-79 -22 -84 -9 -3 -35 -18 -59 -33 -23 -15 -58 -47 -77 -72 -19 -25 -35 -49
-35 -54 0 -5 8 -13 18 -19 9 -5 33 -11 53 -12 19 -1 51 4 70 12 19 8 42 23 51
33 9 10 23 36 30 58 9 28 20 41 34 43 12 2 34 -8 50 -21 17 -15 35 -44 43 -71
7 -26 11 -60 7 -76 -5 -29 -4 -30 34 -30 40 0 40 0 40 51 0 29 -5 69 -11 90
-8 24 -27 50 -52 70 -22 18 -51 33 -64 35 -14 1 -28 5 -31 9 -4 4 -6 43 -5 88
2 44 7 85 12 90 5 5 -4 32 -23 68 -17 32 -37 59 -43 59z m-60 -390 c4 0 7 -4
7 -9 0 -5 -12 -19 -27 -31 -15 -11 -33 -19 -42 -18 -8 2 -14 8 -14 13 0 6 15
18 34 27 19 9 37 17 42 18z"/>
<path d="M396 479 c-6 0 -17 -3 -23 -6 -7 -2 -13 -10 -13 -16 0 -7 14 -20 31
-29 17 -10 37 -18 44 -18 8 0 17 4 20 10 3 5 -6 21 -21 35 -15 14 -32 25 -38
24z"/>
</g>
</svg>
