<?xml version="1.0" standalone="no"?>
<!DOCTYPE svg PUBLIC "-//W3C//DTD SVG 20010904//EN"
 "http://www.w3.org/TR/2001/REC-SVG-20010904/DTD/svg10.dtd">
<svg version="1.0" xmlns="http://www.w3.org/2000/svg"
 width="56.000000pt" height="56.000000pt" viewBox="0 0 56.000000 56.000000"
 preserveAspectRatio="xMidYMid meet">
<metadata>
Created by potrace 1.16, written by Peter Selinger 2001-2019
</metadata>
<g transform="translate(0.000000,56.000000) scale(0.100000,-0.100000)"
fill="#000000" stroke="none">
<path d="M290 560 c-11 0 -20 -2 -20 -5 0 -4 7 -19 15 -35 13 -26 13 -34 1
-72 -8 -24 -17 -90 -21 -148 -3 -58 -8 -115 -11 -127 -2 -12 -16 -28 -31 -35
-20 -9 -29 -24 -35 -52 -6 -29 -4 -45 7 -63 9 -12 22 -23 29 -23 8 0 24 22 37
50 13 27 30 50 37 50 8 0 12 -17 12 -51 0 -43 3 -50 18 -47 14 3 17 14 17 55
-1 41 -6 58 -24 77 -23 24 -24 29 -18 148 3 68 9 133 12 145 5 16 14 21 33 20
24 -2 27 1 25 27 -1 16 -10 37 -19 47 -9 11 -23 19 -31 19 -7 0 -13 5 -13 10
0 6 -9 10 -20 10z m-48 -450 c4 0 8 -8 8 -19 0 -10 -7 -24 -15 -31 -13 -10
-15 -9 -15 12 0 14 3 28 7 31 3 4 10 7 15 7z"/>
</g>
</svg>
