<?xml version="1.0" standalone="no"?>
<!DOCTYPE svg PUBLIC "-//W3C//DTD SVG 20010904//EN"
 "http://www.w3.org/TR/2001/REC-SVG-20010904/DTD/svg10.dtd">
<svg version="1.0" xmlns="http://www.w3.org/2000/svg"
 width="56.000000pt" height="56.000000pt" viewBox="0 0 56.000000 56.000000"
 preserveAspectRatio="xMidYMid meet">
<metadata>
Created by potrace 1.16, written by Peter Selinger 2001-2019
</metadata>
<g transform="translate(0.000000,56.000000) scale(0.100000,-0.100000)"
fill="#000000" stroke="none">
<path d="M295 560 c-9 0 -11 -9 -5 -32 4 -18 14 -49 23 -68 8 -19 20 -47 26
-62 6 -16 17 -28 25 -28 7 0 19 7 26 15 10 12 7 26 -20 77 -17 35 -39 71 -47
81 -9 9 -22 17 -28 17z"/>
<path d="M285 480 c-8 0 -17 -6 -22 -12 -4 -7 -10 -62 -13 -122 -5 -108 -5
-110 -34 -126 -16 -8 -34 -23 -40 -32 -7 -12 -7 -26 0 -45 7 -21 16 -28 34
-27 14 1 33 4 43 9 14 6 17 2 17 -18 0 -13 -7 -41 -15 -60 -8 -20 -15 -39 -15
-42 0 -3 14 -5 31 -5 25 0 32 6 46 37 8 21 18 55 21 75 2 21 -1 51 -8 67 -6
16 -18 32 -26 35 -12 4 -13 29 -10 136 4 106 2 130 -9 130z"/>
</g>
</svg>
