<?xml version="1.0" standalone="no"?>
<!DOCTYPE svg PUBLIC "-//W3C//DTD SVG 20010904//EN"
 "http://www.w3.org/TR/2001/REC-SVG-20010904/DTD/svg10.dtd">
<svg version="1.0" xmlns="http://www.w3.org/2000/svg"
 width="56.000000pt" height="56.000000pt" viewBox="0 0 56.000000 56.000000"
 preserveAspectRatio="xMidYMid meet">
<metadata>
Created by potrace 1.16, written by Peter Selinger 2001-2019
</metadata>
<g transform="translate(0.000000,56.000000) scale(0.100000,-0.100000)"
fill="#000000" stroke="none">
<path d="M176 560 c-8 0 -18 -9 -21 -21 -5 -16 3 -31 35 -64 38 -39 43 -49 53
-120 9 -60 9 -78 -2 -84 -7 -4 -22 -6 -34 -4 -13 3 -34 -5 -50 -17 -15 -12
-27 -30 -27 -40 0 -10 -4 -22 -10 -25 -5 -3 -10 -21 -10 -38 0 -18 4 -37 8
-43 4 -6 16 -16 28 -22 17 -9 29 -5 71 23 28 19 53 31 57 28 3 -4 6 -26 6 -50
0 -25 -5 -53 -10 -64 -9 -16 -7 -19 15 -19 15 0 25 6 25 14 0 7 7 19 15 26 10
8 15 31 15 67 0 43 -5 61 -25 87 -25 33 -25 35 -14 107 6 41 13 80 15 87 3 10
20 13 62 10 52 -3 57 -1 60 19 2 14 -5 27 -22 38 -17 11 -35 15 -55 10 -17 -3
-39 -1 -51 5 -22 12 -22 12 1 36 12 13 30 26 41 30 10 3 18 10 18 15 0 5 -16
9 -35 9 -19 0 -35 -4 -35 -10 0 -5 -14 -17 -30 -25 -28 -14 -32 -14 -55 2 -13
10 -25 21 -25 26 0 4 -6 7 -14 7z"/>
</g>
</svg>
