<?xml version="1.0" standalone="no"?>
<!DOCTYPE svg PUBLIC "-//W3C//DTD SVG 20010904//EN"
 "http://www.w3.org/TR/2001/REC-SVG-20010904/DTD/svg10.dtd">
<svg version="1.0" xmlns="http://www.w3.org/2000/svg"
 width="56.000000pt" height="56.000000pt" viewBox="0 0 56.000000 56.000000"
 preserveAspectRatio="xMidYMid meet">
<metadata>
Created by potrace 1.16, written by Peter Selinger 2001-2019
</metadata>
<g transform="translate(0.000000,56.000000) scale(0.100000,-0.100000)"
fill="#000000" stroke="none">
<path d="M258 560 c-30 0 -30 -1 -24 -37 3 -21 13 -97 22 -170 9 -72 14 -138
11 -146 -3 -10 -13 -13 -25 -10 -11 2 -23 0 -26 -6 -4 -5 7 -17 24 -26 18 -10
30 -23 30 -36 0 -11 -5 -29 -10 -40 -6 -10 -18 -19 -27 -19 -9 0 -30 12 -45
27 -15 15 -28 33 -28 40 0 7 11 13 26 13 19 0 25 4 22 18 -3 14 -12 16 -58 13
-30 -1 -61 -8 -67 -13 -7 -6 -13 -16 -13 -23 0 -7 28 -36 61 -65 34 -28 78
-57 97 -65 19 -8 42 -15 52 -15 11 0 23 14 32 38 9 20 13 54 10 74 -3 29 0 39
12 44 9 3 27 3 41 0 16 -4 25 -13 25 -26 0 -11 -9 -45 -19 -75 -19 -55 -19
-55 3 -55 13 0 31 8 40 19 9 10 26 36 36 57 11 21 20 49 20 62 0 13 -13 37
-29 53 -25 24 -37 29 -81 29 -51 0 -51 0 -48 58 3 57 3 57 73 68 52 7 69 14
67 24 -2 8 -9 18 -15 23 -7 4 -30 6 -52 3 -22 -2 -49 -6 -60 -8 -18 -3 -21 4
-26 67 -3 39 -10 78 -14 88 -4 11 -18 17 -37 17z"/>
</g>
</svg>
