<?xml version="1.0" standalone="no"?>
<!DOCTYPE svg PUBLIC "-//W3C//DTD SVG 20010904//EN"
 "http://www.w3.org/TR/2001/REC-SVG-20010904/DTD/svg10.dtd">
<svg version="1.0" xmlns="http://www.w3.org/2000/svg"
 width="56.000000pt" height="56.000000pt" viewBox="0 0 56.000000 56.000000"
 preserveAspectRatio="xMidYMid meet">
<metadata>
Created by potrace 1.16, written by Peter Selinger 2001-2019
</metadata>
<g transform="translate(0.000000,56.000000) scale(0.100000,-0.100000)"
fill="#000000" stroke="none">
<path d="M244 540 c-8 0 -14 -6 -14 -12 0 -7 9 -24 20 -38 11 -14 20 -29 20
-33 0 -5 -9 -16 -21 -26 -19 -15 -21 -27 -20 -113 1 -96 1 -96 -39 -103 -22
-4 -47 -13 -55 -22 -9 -9 -13 -24 -9 -41 3 -15 15 -46 27 -69 12 -24 28 -43
37 -43 8 0 29 9 47 19 26 16 33 29 39 66 3 26 11 44 17 42 6 -2 20 -15 31 -30
17 -24 18 -31 7 -68 -7 -22 -15 -47 -18 -55 -4 -10 3 -14 26 -14 19 0 34 7 40
18 5 10 13 41 16 68 6 41 3 53 -15 77 -12 15 -38 36 -59 45 -36 17 -36 17 -38
85 0 38 -4 79 -7 92 -6 23 -4 24 40 21 31 -1 49 -8 56 -19 5 -9 18 -17 28 -17
16 0 20 7 20 39 0 30 -5 42 -25 55 -13 9 -33 16 -43 16 -11 0 -25 7 -32 15 -7
8 -18 15 -25 15 -7 0 -18 7 -25 15 -7 8 -19 15 -26 15z m-49 -390 c8 0 15 -2
15 -4 0 -2 -7 -9 -15 -16 -12 -10 -15 -10 -15 4 0 9 7 16 15 16z"/>
</g>
</svg>
