<?xml version="1.0" standalone="no"?>
<!DOCTYPE svg PUBLIC "-//W3C//DTD SVG 20010904//EN"
 "http://www.w3.org/TR/2001/REC-SVG-20010904/DTD/svg10.dtd">
<svg version="1.0" xmlns="http://www.w3.org/2000/svg"
 width="56.000000pt" height="56.000000pt" viewBox="0 0 56.000000 56.000000"
 preserveAspectRatio="xMidYMid meet">
<metadata>
Created by potrace 1.16, written by Peter Selinger 2001-2019
</metadata>
<g transform="translate(0.000000,56.000000) scale(0.100000,-0.100000)"
fill="#000000" stroke="none">
<path d="M218 560 c-5 0 -8 -10 -8 -23 0 -13 6 -29 12 -35 7 -7 13 -20 13 -30
0 -10 9 -18 21 -20 11 -2 32 2 47 7 15 6 27 17 27 24 0 8 -19 20 -41 27 -23 8
-46 22 -53 32 -6 10 -14 18 -18 18z"/>
<path d="M276 440 c-7 0 -15 -3 -19 -6 -3 -3 -2 -14 2 -23 5 -9 13 -27 19 -41
6 -14 18 -47 26 -73 9 -26 16 -52 16 -58 0 -5 -16 -17 -35 -25 -19 -7 -59 -14
-89 -14 -36 0 -60 -5 -70 -16 -9 -8 -16 -18 -16 -20 0 -3 5 -15 12 -27 6 -12
16 -26 22 -32 6 -6 23 -19 37 -28 25 -16 28 -16 73 3 25 12 56 34 68 50 12 17
27 30 34 30 7 0 16 -5 19 -10 4 -6 4 -23 0 -39 -4 -21 -19 -35 -54 -55 -27
-14 -54 -33 -61 -41 -11 -13 -7 -15 23 -15 23 0 46 9 64 24 15 13 43 31 61 40
26 14 32 22 32 50 0 26 -6 36 -27 47 -16 8 -33 21 -40 29 -7 8 -13 30 -13 48
0 18 -9 52 -20 74 -11 23 -20 50 -20 60 0 10 -7 30 -16 43 -9 14 -22 25 -28
25z m-4 -262 c4 1 10 -3 14 -10 4 -6 -1 -17 -12 -25 -10 -8 -32 -13 -49 -11
-18 2 -31 9 -33 20 -2 13 6 18 35 21 21 2 41 4 45 5z"/>
</g>
</svg>
