<?xml version="1.0" standalone="no"?>
<!DOCTYPE svg PUBLIC "-//W3C//DTD SVG 20010904//EN"
 "http://www.w3.org/TR/2001/REC-SVG-20010904/DTD/svg10.dtd">
<svg version="1.0" xmlns="http://www.w3.org/2000/svg"
 width="56.000000pt" height="56.000000pt" viewBox="0 0 56.000000 56.000000"
 preserveAspectRatio="xMidYMid meet">
<metadata>
Created by potrace 1.16, written by Peter Selinger 2001-2019
</metadata>
<g transform="translate(0.000000,56.000000) scale(0.100000,-0.100000)"
fill="#000000" stroke="none">
<path d="M240 560 c-5 0 -12 -9 -15 -20 -4 -13 0 -31 10 -47 14 -20 16 -38 11
-81 -6 -48 -4 -58 15 -78 12 -13 31 -52 43 -88 13 -36 20 -66 17 -66 -3 -1
-38 -5 -78 -9 -55 -7 -80 -15 -102 -34 -17 -14 -35 -27 -42 -29 -6 -2 -13 -18
-15 -35 -3 -25 2 -36 23 -52 14 -12 38 -21 52 -21 14 0 51 9 81 21 30 11 63
23 72 26 9 3 24 16 33 30 14 20 23 24 48 20 18 -3 41 -7 52 -9 11 -2 20 3 22
12 2 9 -18 29 -47 48 -37 24 -50 38 -50 56 0 14 -5 28 -11 31 -6 4 -8 13 -5
21 3 7 -10 32 -30 55 -19 22 -37 52 -40 65 -3 13 -4 31 0 39 3 8 14 15 25 15
11 0 25 9 31 19 5 11 10 24 10 30 0 5 -20 17 -45 26 -24 10 -47 26 -50 36 -4
11 -10 19 -15 19z m18 -451 c6 0 12 -6 12 -15 0 -9 -17 -23 -40 -32 -22 -9
-40 -23 -40 -31 0 -11 -3 -11 -15 -1 -8 7 -15 18 -15 25 0 7 10 19 23 28 13 8
32 17 42 20 11 2 26 5 33 6z"/>
</g>
</svg>
