<?xml version="1.0" standalone="no"?>
<!DOCTYPE svg PUBLIC "-//W3C//DTD SVG 20010904//EN"
 "http://www.w3.org/TR/2001/REC-SVG-20010904/DTD/svg10.dtd">
<svg version="1.0" xmlns="http://www.w3.org/2000/svg"
 width="56.000000pt" height="56.000000pt" viewBox="0 0 56.000000 56.000000"
 preserveAspectRatio="xMidYMid meet">
<metadata>
Created by potrace 1.16, written by Peter Selinger 2001-2019
</metadata>
<g transform="translate(0.000000,56.000000) scale(0.100000,-0.100000)"
fill="#000000" stroke="none">
<path d="M305 560 c-34 0 -36 -1 -33 -35 1 -25 -4 -39 -17 -50 -11 -8 -25 -15
-32 -15 -7 0 -17 -9 -23 -19 -5 -11 -10 -39 -10 -62 0 -30 14 -69 50 -141 28
-55 50 -103 50 -107 0 -5 -27 -11 -61 -13 -38 -3 -64 -10 -70 -19 -5 -8 -9
-28 -9 -45 0 -16 5 -35 12 -42 7 -7 23 -12 38 -12 14 0 44 7 67 15 31 11 50
12 68 5 15 -6 35 -10 46 -10 15 0 19 7 19 31 0 25 -6 32 -35 45 -32 13 -34 16
-23 39 9 20 7 34 -11 77 -12 29 -39 86 -59 126 -28 57 -34 77 -25 90 7 12 24
17 54 17 38 0 44 3 47 23 2 13 -4 34 -12 47 -10 15 -12 26 -6 30 6 3 10 10 10
16 0 5 -16 9 -35 9z"/>
</g>
</svg>
