<?xml version="1.0" standalone="no"?>
<!DOCTYPE svg PUBLIC "-//W3C//DTD SVG 20010904//EN"
 "http://www.w3.org/TR/2001/REC-SVG-20010904/DTD/svg10.dtd">
<svg version="1.0" xmlns="http://www.w3.org/2000/svg"
 width="56.000000pt" height="56.000000pt" viewBox="0 0 56.000000 56.000000"
 preserveAspectRatio="xMidYMid meet">
<metadata>
Created by potrace 1.16, written by Peter Selinger 2001-2019
</metadata>
<g transform="translate(0.000000,56.000000) scale(0.100000,-0.100000)"
fill="#000000" stroke="none">
<path d="M229 560 c-20 0 -21 -3 -15 -47 4 -27 11 -102 16 -168 5 -66 6 -123
2 -126 -4 -4 -24 -12 -44 -19 -21 -6 -39 -17 -39 -23 -1 -7 -1 -21 0 -32 1
-11 7 -33 13 -50 6 -16 20 -42 30 -58 11 -15 27 -27 37 -27 10 0 26 9 36 20
11 13 20 41 23 75 2 31 9 58 15 62 6 3 19 -4 29 -17 10 -12 18 -36 18 -54 -1
-17 -7 -42 -15 -56 -8 -14 -14 -28 -15 -32 0 -5 12 -8 26 -8 15 0 33 8 40 17
7 10 13 43 13 73 0 30 -6 66 -13 79 -7 13 -29 29 -47 35 -34 11 -34 11 -34 76
0 56 3 66 21 75 12 6 29 17 38 24 9 7 16 22 16 33 0 10 -7 21 -16 25 -8 3 -25
-4 -38 -16 -12 -11 -28 -21 -34 -21 -8 0 -12 17 -12 45 0 25 -4 53 -9 63 -5 9
-12 25 -15 35 -3 9 -15 17 -27 17z m-4 -400 c24 0 26 -3 23 -37 -2 -20 -8 -38
-15 -40 -6 -2 -19 7 -28 21 -10 14 -15 33 -11 41 3 8 17 15 31 15z"/>
</g>
</svg>
