<?xml version="1.0" standalone="no"?>
<!DOCTYPE svg PUBLIC "-//W3C//DTD SVG 20010904//EN"
 "http://www.w3.org/TR/2001/REC-SVG-20010904/DTD/svg10.dtd">
<svg version="1.0" xmlns="http://www.w3.org/2000/svg"
 width="56.000000pt" height="56.000000pt" viewBox="0 0 56.000000 56.000000"
 preserveAspectRatio="xMidYMid meet">
<metadata>
Created by potrace 1.16, written by Peter Selinger 2001-2019
</metadata>
<g transform="translate(0.000000,56.000000) scale(0.100000,-0.100000)"
fill="#000000" stroke="none">
<path d="M218 560 c-27 0 -37 -6 -52 -31 -19 -32 -19 -32 5 -27 13 3 31 9 40
12 13 5 21 -1 34 -26 9 -18 19 -70 22 -116 5 -66 3 -86 -8 -93 -8 -5 -31 -9
-51 -9 -20 0 -44 -7 -52 -16 -9 -8 -16 -31 -16 -50 0 -20 5 -44 10 -55 6 -10
18 -19 28 -19 9 0 42 16 73 35 37 23 63 32 77 28 17 -4 22 -13 22 -40 0 -19
-5 -44 -11 -56 -6 -12 -27 -39 -47 -59 -36 -38 -36 -38 -11 -38 14 0 32 6 41
12 8 7 35 42 58 77 36 53 41 67 31 82 -6 10 -11 25 -11 33 0 8 -21 33 -47 56
-48 42 -48 42 -45 103 2 34 6 65 8 69 3 4 25 8 50 8 31 0 46 5 50 15 4 8 1 22
-6 30 -7 9 -29 15 -51 15 -22 0 -39 4 -39 9 0 5 7 14 15 21 8 7 15 16 15 21 0
5 -10 9 -21 9 -12 0 -27 -7 -34 -16 -10 -15 -13 -15 -27 0 -9 9 -32 16 -50 16z"/>
</g>
</svg>
