<?xml version="1.0" standalone="no"?>
<!DOCTYPE svg PUBLIC "-//W3C//DTD SVG 20010904//EN"
 "http://www.w3.org/TR/2001/REC-SVG-20010904/DTD/svg10.dtd">
<svg version="1.0" xmlns="http://www.w3.org/2000/svg"
 width="56.000000pt" height="56.000000pt" viewBox="0 0 56.000000 56.000000"
 preserveAspectRatio="xMidYMid meet">
<metadata>
Created by potrace 1.16, written by Peter Selinger 2001-2019
</metadata>
<g transform="translate(0.000000,56.000000) scale(0.100000,-0.100000)"
fill="#000000" stroke="none">
<path d="M254 560 c-13 0 -24 -4 -24 -9 0 -4 9 -20 20 -34 17 -22 20 -40 20
-132 0 -102 -1 -108 -25 -127 -14 -11 -25 -28 -25 -38 0 -10 10 -26 21 -34 17
-12 20 -21 14 -43 -3 -15 -19 -54 -35 -85 -28 -58 -28 -58 -6 -58 15 0 28 10
36 28 8 15 21 38 30 52 9 14 22 43 29 66 7 22 12 65 10 95 -1 30 -2 84 -1 122
2 60 4 67 22 67 11 0 20 7 20 15 0 8 -11 22 -25 31 -14 9 -32 32 -41 50 -12
25 -23 34 -40 34z"/>
</g>
</svg>
