<?xml version="1.0" standalone="no"?>
<!DOCTYPE svg PUBLIC "-//W3C//DTD SVG 20010904//EN"
 "http://www.w3.org/TR/2001/REC-SVG-20010904/DTD/svg10.dtd">
<svg version="1.0" xmlns="http://www.w3.org/2000/svg"
 width="56.000000pt" height="56.000000pt" viewBox="0 0 56.000000 56.000000"
 preserveAspectRatio="xMidYMid meet">
<metadata>
Created by potrace 1.16, written by Peter Selinger 2001-2019
</metadata>
<g transform="translate(0.000000,56.000000) scale(0.100000,-0.100000)"
fill="#000000" stroke="none">
<path d="M261 525 c-35 6 -42 5 -35 -6 5 -8 9 -86 9 -174 0 -156 -1 -161 -24
-182 -15 -13 -22 -27 -18 -37 4 -9 15 -16 26 -16 11 0 31 -5 45 -11 20 -9 26
-20 28 -53 3 -40 4 -41 44 -44 42 -3 42 -3 34 35 -3 21 -13 49 -21 63 -8 14
-21 34 -30 45 -9 11 -20 36 -23 55 -4 19 -9 64 -13 100 -3 36 -12 73 -20 82
-8 9 -12 21 -9 27 5 7 15 7 33 0 15 -6 38 -8 50 -4 17 4 23 13 23 33 0 18 -10
38 -27 54 -17 15 -46 29 -72 33z"/>
</g>
</svg>
