<?xml version="1.0" standalone="no"?>
<!DOCTYPE svg PUBLIC "-//W3C//DTD SVG 20010904//EN"
 "http://www.w3.org/TR/2001/REC-SVG-20010904/DTD/svg10.dtd">
<svg version="1.0" xmlns="http://www.w3.org/2000/svg"
 width="56.000000pt" height="56.000000pt" viewBox="0 0 56.000000 56.000000"
 preserveAspectRatio="xMidYMid meet">
<metadata>
Created by potrace 1.16, written by Peter Selinger 2001-2019
</metadata>
<g transform="translate(0.000000,56.000000) scale(0.100000,-0.100000)"
fill="#000000" stroke="none">
<path d="M262 560 c-11 0 -13 -9 -8 -42 4 -24 12 -48 19 -54 7 -7 22 -15 35
-19 15 -4 24 -2 28 9 3 9 -1 23 -10 31 -8 9 -23 29 -33 45 -9 17 -24 30 -31
30z"/>
<path d="M271 444 c-4 3 -11 3 -15 -1 -3 -3 -6 -76 -6 -160 0 -154 0 -154 -30
-199 -31 -44 -31 -44 4 -61 35 -16 36 -16 61 7 21 20 25 21 31 7 3 -9 3 -21
-1 -27 -4 -6 4 -10 18 -10 24 0 24 1 16 47 -5 27 -19 61 -30 77 -17 22 -20 38
-16 69 3 22 2 64 -3 94 -7 39 -6 60 3 74 10 17 9 22 -5 30 -10 6 -18 19 -18
29 0 10 -4 21 -9 24z"/>
</g>
</svg>
