<?xml version="1.0" standalone="no"?>
<!DOCTYPE svg PUBLIC "-//W3C//DTD SVG 20010904//EN"
 "http://www.w3.org/TR/2001/REC-SVG-20010904/DTD/svg10.dtd">
<svg version="1.0" xmlns="http://www.w3.org/2000/svg"
 width="56.000000pt" height="56.000000pt" viewBox="0 0 56.000000 56.000000"
 preserveAspectRatio="xMidYMid meet">
<metadata>
Created by potrace 1.16, written by Peter Selinger 2001-2019
</metadata>
<g transform="translate(0.000000,56.000000) scale(0.100000,-0.100000)"
fill="#000000" stroke="none">
<path d="M187 560 c-7 0 -18 -9 -25 -20 -10 -17 -10 -21 2 -26 8 -3 22 -4 32
-2 15 2 24 -11 42 -66 13 -38 28 -90 34 -115 5 -25 11 -64 12 -85 1 -35 -2
-40 -28 -47 -16 -5 -42 -20 -57 -35 -16 -16 -29 -38 -29 -52 0 -23 3 -24 48
-20 26 3 55 8 65 12 12 6 17 4 17 -6 0 -7 -9 -31 -20 -53 -11 -22 -20 -41 -20
-42 0 -2 11 -3 24 -3 16 0 31 12 51 42 15 23 28 55 27 70 0 15 -8 38 -16 50
-10 14 -16 44 -16 78 0 35 -6 64 -16 78 -15 21 -15 25 0 41 11 12 26 16 47 13
23 -3 30 -1 27 8 -2 8 -11 17 -19 21 -8 4 -26 10 -41 14 -20 4 -28 12 -28 26
0 12 8 33 19 47 10 15 22 37 25 50 6 17 3 22 -11 22 -13 0 -23 -12 -32 -35 -7
-19 -16 -35 -20 -35 -5 0 -16 11 -25 25 -9 14 -25 25 -36 25 -11 0 -20 5 -20
10 0 6 -6 10 -13 10z"/>
</g>
</svg>
