<?xml version="1.0" standalone="no"?>
<!DOCTYPE svg PUBLIC "-//W3C//DTD SVG 20010904//EN"
 "http://www.w3.org/TR/2001/REC-SVG-20010904/DTD/svg10.dtd">
<svg version="1.0" xmlns="http://www.w3.org/2000/svg"
 width="128.000000pt" height="128.000000pt" viewBox="0 0 128.000000 128.000000"
 preserveAspectRatio="xMidYMid meet">
<metadata>
Created by potrace 1.16, written by Peter Selinger 2001-2019
</metadata>
<g transform="translate(0.000000,128.000000) scale(0.100000,-0.100000)"
fill="#000000" stroke="none">
<path d="M550 1269 c-3 4 -15 2 -27 -4 -13 -5 -23 -14 -23 -20 0 -5 20 -21 44
-33 24 -13 54 -35 67 -48 15 -16 19 -28 13 -34 -5 -5 -31 -14 -58 -19 -26 -5
-53 -14 -59 -20 -6 -6 -19 -11 -29 -11 -13 0 -18 8 -18 29 0 16 -8 39 -18 51
-13 16 -31 23 -60 25 -24 1 -45 -2 -49 -8 -3 -5 6 -19 20 -29 15 -11 27 -28
27 -38 0 -10 -19 -40 -42 -67 -22 -26 -67 -67 -99 -91 -50 -37 -61 -51 -76
-98 -16 -52 -16 -55 3 -69 10 -8 25 -15 32 -15 8 0 41 27 74 60 33 33 64 60
69 60 5 0 10 -30 11 -67 0 -38 1 -73 1 -80 0 -7 -3 -23 -7 -37 -4 -18 1 -33
18 -53 24 -27 24 -27 61 15 21 23 44 42 51 42 7 0 20 -10 28 -22 11 -16 13
-25 4 -35 -6 -7 -15 -13 -21 -13 -6 0 -48 -23 -93 -52 -57 -36 -89 -63 -104
-89 -20 -36 -20 -40 -5 -69 8 -16 23 -30 32 -30 9 0 35 9 57 19 23 10 53 22
69 25 20 5 27 3 27 -8 0 -8 -26 -36 -57 -64 -32 -27 -68 -54 -80 -61 -12 -6
-36 -31 -53 -55 -16 -25 -30 -54 -30 -65 0 -11 4 -22 9 -25 5 -4 20 -2 33 3
13 5 43 25 67 45 23 20 49 36 56 36 7 0 15 -16 18 -37 2 -21 0 -61 -6 -89 -9
-46 -8 -55 12 -87 13 -21 31 -37 41 -37 10 0 29 13 43 29 14 17 37 63 52 103
15 40 36 94 48 120 11 27 25 48 32 48 6 0 29 -19 50 -41 22 -23 67 -61 100
-85 50 -37 66 -44 105 -44 37 0 52 5 70 25 23 24 23 27 8 58 -12 25 -34 42
-101 75 -47 23 -90 42 -96 42 -6 0 -11 4 -11 8 0 5 -11 15 -25 22 -14 8 -24
20 -23 29 2 8 14 16 28 17 14 2 62 6 107 10 60 5 87 11 98 25 9 9 15 26 13 36
-2 9 -14 23 -28 30 -21 10 -24 19 -26 70 -1 48 -13 84 -68 207 -36 81 -63 153
-60 158 3 5 43 26 87 47 45 21 105 49 132 61 28 13 61 26 75 30 20 5 26 14 28
44 2 25 -2 44 -13 56 -9 10 -34 21 -54 25 -25 4 -52 1 -79 -10 -27 -11 -42
-23 -42 -35 0 -10 10 -24 22 -32 20 -14 21 -17 9 -32 -8 -10 -43 -30 -78 -46
-35 -16 -75 -38 -89 -49 -15 -12 -30 -19 -34 -16 -4 3 -18 23 -29 46 -17 32
-19 44 -10 55 6 8 28 14 49 14 25 0 40 5 44 16 3 9 6 24 6 35 0 12 -13 25 -34
36 -34 16 -35 15 -66 -11 -32 -26 -32 -26 -57 11 -14 21 -33 43 -42 50 -9 7
-27 16 -41 19 -14 4 -27 10 -30 13z m89 -189 c31 -5 35 -10 54 -67 21 -62 21
-63 1 -78 -10 -8 -46 -30 -79 -48 -33 -17 -78 -51 -101 -74 -22 -24 -46 -43
-52 -43 -6 0 -16 26 -22 58 -7 31 -19 72 -28 91 -15 33 -15 36 10 80 25 43 30
47 79 54 28 4 64 13 78 20 14 7 41 10 60 7z m107 -208 c11 -31 26 -73 33 -92
7 -19 32 -90 56 -158 39 -110 42 -124 27 -129 -9 -3 -51 -19 -92 -34 -41 -16
-80 -29 -86 -29 -6 0 -21 11 -34 25 -19 20 -22 30 -14 43 6 9 25 18 42 20 18
2 36 11 42 21 5 10 6 31 1 47 -6 23 -14 30 -39 32 -20 2 -49 -7 -85 -27 -30
-16 -94 -44 -142 -60 -49 -17 -92 -31 -97 -31 -4 0 -8 6 -8 14 0 8 14 26 31
40 17 15 45 34 63 43 17 9 60 19 96 22 65 6 65 6 74 43 7 26 6 41 -3 51 -6 8
-34 17 -61 21 -32 4 -50 12 -50 20 0 8 30 33 67 57 37 24 83 54 102 65 20 12
40 29 45 37 8 13 15 5 32 -41z m-181 -412 c6 0 17 -12 25 -27 7 -16 21 -45 32
-65 19 -38 19 -38 -34 -98 -29 -33 -58 -60 -64 -60 -6 0 -14 22 -18 48 -3 27
-12 57 -20 68 -13 17 -10 25 26 76 23 32 46 58 53 58z"/>
<path d="M1111 494 c-4 3 -15 -2 -23 -12 -8 -9 -20 -32 -27 -51 -6 -19 -11
-53 -11 -77 0 -24 6 -67 14 -96 8 -29 17 -61 21 -70 4 -10 13 -18 21 -18 10 0
14 15 14 59 0 33 -4 63 -10 66 -5 3 -10 37 -10 75 0 38 5 72 10 75 6 3 10 15
10 25 0 10 -4 21 -9 24z"/>
<path d="M971 59 c-9 -1 -29 -6 -46 -11 -16 -6 -36 -14 -44 -17 -8 -4 -17 -13
-19 -19 -3 -9 21 -12 83 -12 66 0 85 3 79 12 -4 7 -14 21 -22 31 -8 9 -22 17
-31 16z"/>
</g>
</svg>
