<?xml version="1.0" standalone="no"?>
<!DOCTYPE svg PUBLIC "-//W3C//DTD SVG 20010904//EN"
 "http://www.w3.org/TR/2001/REC-SVG-20010904/DTD/svg10.dtd">
<svg version="1.0" xmlns="http://www.w3.org/2000/svg"
 width="128.000000pt" height="128.000000pt" viewBox="0 0 128.000000 128.000000"
 preserveAspectRatio="xMidYMid meet">
<metadata>
Created by potrace 1.16, written by Peter Selinger 2001-2019
</metadata>
<g transform="translate(0.000000,128.000000) scale(0.100000,-0.100000)"
fill="#000000" stroke="none">
<path d="M583 1280 c-16 -1 -34 -8 -42 -16 -10 -12 -24 -14 -52 -10 -22 4 -40
2 -44 -4 -4 -6 -1 -17 5 -25 7 -8 19 -15 27 -15 8 0 28 -10 45 -21 30 -22 30
-22 24 -101 -3 -43 -8 -83 -11 -89 -4 -5 -13 -9 -21 -9 -8 0 -14 4 -14 10 0 5
-35 37 -77 70 -42 33 -81 59 -87 57 -6 -2 -12 -10 -14 -18 -1 -9 12 -40 30
-70 18 -30 51 -74 73 -99 22 -24 51 -56 65 -71 14 -14 32 -28 40 -32 13 -5 12
-8 -2 -17 -10 -6 -18 -19 -18 -28 0 -10 -20 -59 -46 -111 -25 -52 -43 -99 -40
-106 2 -7 -6 -23 -20 -36 -13 -12 -24 -30 -24 -39 0 -8 -7 -26 -16 -38 -12
-18 -13 -23 -2 -27 7 -2 24 -5 38 -7 14 -2 25 -9 25 -18 0 -8 -10 -16 -23 -18
-13 -2 -30 2 -39 9 -13 11 -19 9 -39 -14 -13 -16 -24 -36 -24 -45 0 -10 -7
-28 -17 -41 -9 -13 -20 -42 -25 -65 -5 -23 -9 -50 -9 -61 0 -11 18 -35 41 -53
22 -19 40 -40 40 -48 0 -8 5 -14 10 -14 6 0 10 5 10 12 0 6 18 39 39 72 22 34
49 82 60 107 11 25 30 54 42 65 11 10 27 30 34 44 7 14 36 50 65 80 28 30 65
76 81 102 16 25 41 53 54 62 14 9 25 25 25 36 0 11 9 24 19 30 11 5 29 10 41
10 11 0 23 -6 26 -13 3 -8 -6 -33 -19 -56 -14 -24 -23 -51 -20 -61 3 -12 -2
-20 -16 -25 -12 -4 -33 -24 -48 -46 -25 -38 -25 -38 2 -70 14 -18 36 -40 48
-48 12 -9 35 -23 51 -31 16 -8 31 -21 34 -28 2 -8 -11 -28 -29 -45 -19 -18
-48 -41 -65 -52 -18 -11 -45 -29 -60 -40 -16 -11 -37 -30 -47 -42 -10 -13 -29
-23 -41 -23 -13 0 -31 -9 -41 -20 -10 -11 -23 -20 -29 -20 -7 0 -27 -13 -46
-30 -35 -29 -35 -29 24 -30 51 0 63 4 93 30 18 17 39 30 45 30 6 0 19 7 28 15
10 9 53 33 97 54 45 22 84 44 87 50 4 6 15 11 25 11 9 0 23 6 30 12 7 7 31 13
54 13 41 0 42 0 45 39 2 21 -4 53 -12 71 -11 23 -30 39 -63 54 -27 11 -65 36
-86 55 -30 27 -36 39 -34 63 2 19 16 42 38 61 20 18 41 50 52 80 9 27 17 58
17 68 -1 11 -11 32 -24 48 -13 16 -29 25 -35 22 -6 -4 -11 -14 -11 -22 0 -8
-9 -14 -19 -14 -11 0 -23 6 -28 13 -4 6 -8 21 -8 32 0 11 -8 21 -17 23 -11 2
-18 -3 -18 -12 0 -8 -33 -48 -73 -88 -41 -40 -87 -82 -103 -94 -16 -12 -39
-24 -51 -28 -22 -7 -23 -6 -17 41 3 26 15 66 25 88 10 22 16 49 13 60 -2 11 4
37 15 58 10 21 30 47 44 57 18 14 41 20 80 20 31 0 62 3 71 6 9 3 16 12 16 19
0 9 -19 13 -65 13 -36 0 -69 2 -72 6 -4 3 -1 12 5 18 7 7 12 18 12 25 0 7 -9
13 -20 13 -11 0 -20 -7 -20 -15 0 -8 -7 -15 -16 -15 -13 0 -14 3 -5 13 6 8 8
17 4 21 -4 4 -8 26 -9 49 0 25 5 49 14 59 11 13 13 24 5 40 -7 17 -5 26 10 41
18 18 18 20 1 38 -9 10 -23 19 -31 19 -7 0 -13 5 -13 10 0 6 -12 10 -27 10z
m-5 -297 c10 -4 27 -13 39 -21 13 -8 21 -18 18 -22 -3 -5 -22 -6 -43 -3 -20 3
-38 7 -39 7 -1 1 0 11 3 23 4 15 11 20 22 16z m-98 -553 c10 0 23 -6 29 -14 9
-11 8 -15 -5 -20 -9 -4 -25 -4 -35 -1 -11 4 -19 10 -19 14 0 4 3 11 7 14 3 4
14 7 23 7z"/>
<path d="M797 1110 c-13 0 -16 -5 -11 -24 5 -20 2 -23 -18 -19 -14 2 -34 -5
-52 -20 -29 -24 -29 -24 1 -39 25 -13 34 -13 45 -3 7 7 25 15 40 19 21 5 31 0
53 -26 23 -28 28 -29 41 -16 12 11 13 23 7 48 -6 24 -20 40 -48 56 -22 13 -48
23 -58 24z"/>
</g>
</svg>
