<?xml version="1.0" standalone="no"?>
<!DOCTYPE svg PUBLIC "-//W3C//DTD SVG 20010904//EN"
 "http://www.w3.org/TR/2001/REC-SVG-20010904/DTD/svg10.dtd">
<svg version="1.0" xmlns="http://www.w3.org/2000/svg"
 width="128.000000pt" height="128.000000pt" viewBox="0 0 128.000000 128.000000"
 preserveAspectRatio="xMidYMid meet">
<metadata>
Created by potrace 1.16, written by Peter Selinger 2001-2019
</metadata>
<g transform="translate(0.000000,128.000000) scale(0.100000,-0.100000)"
fill="#000000" stroke="none">
<path d="M1119 1019 c-8 0 -25 -4 -37 -10 -13 -5 -62 -13 -109 -19 -47 -5 -92
-15 -100 -21 -8 -7 -33 -16 -56 -19 -23 -4 -73 -13 -112 -19 -38 -7 -75 -17
-82 -23 -7 -5 -19 -8 -26 -5 -8 3 -61 1 -118 -3 -57 -5 -111 -4 -119 0 -11 6
-27 2 -48 -12 -18 -11 -39 -33 -48 -49 -8 -16 -19 -29 -24 -29 -5 0 -23 -27
-42 -60 -18 -33 -36 -60 -41 -60 -4 0 -21 15 -38 32 -16 18 -29 38 -29 46 0 7
-9 31 -21 53 -15 31 -25 40 -42 37 -19 -3 -22 -9 -20 -43 2 -22 4 -56 6 -75 2
-19 9 -45 16 -58 9 -18 10 -31 1 -57 -6 -19 -8 -45 -4 -57 4 -13 8 -36 9 -53
2 -16 7 -59 13 -95 6 -36 17 -83 25 -105 13 -37 17 -40 55 -43 26 -2 59 4 86
17 31 13 45 26 48 42 2 13 16 31 33 40 17 10 72 22 128 28 54 5 105 15 112 21
7 6 44 13 82 15 37 3 93 10 123 16 30 6 87 11 126 12 55 2 74 -2 87 -15 12
-12 29 -16 55 -13 20 2 40 4 45 4 4 1 7 8 7 16 0 9 7 18 15 21 8 3 19 21 25
40 6 18 9 43 5 54 -5 16 -2 20 17 20 13 0 34 7 46 16 12 8 22 26 22 40 0 13 4
32 9 42 5 9 21 43 37 75 16 31 32 57 36 57 4 0 8 18 8 39 0 32 -4 41 -22 47
-12 4 -46 31 -74 60 -28 30 -58 54 -65 53z m-45 -82 c10 -1 22 -9 26 -17 4 -8
13 -32 20 -53 11 -35 10 -41 -9 -61 -12 -12 -21 -32 -21 -44 0 -11 -4 -23 -9
-26 -5 -3 -12 -21 -15 -39 -4 -19 -23 -55 -43 -81 -36 -46 -36 -46 -107 -46
-47 0 -79 -5 -93 -15 -11 -8 -40 -16 -64 -17 -42 -3 -44 -2 -47 26 -2 17 4 36
16 50 10 11 26 41 35 66 9 25 17 64 17 86 0 28 6 47 19 58 11 10 21 32 23 50
3 31 3 31 83 32 49 1 93 7 115 17 19 9 44 15 54 14z m-430 -68 c16 -5 40 -6
54 -2 24 6 25 5 17 -33 -4 -21 -7 -50 -6 -63 0 -13 -3 -29 -7 -35 -5 -6 -14
-38 -21 -71 -7 -33 -20 -79 -28 -103 -8 -23 -22 -49 -30 -58 -13 -12 -28 -14
-77 -9 -34 4 -64 10 -68 14 -3 3 -3 52 2 109 4 56 6 111 3 122 -3 10 0 34 6
52 9 26 23 38 69 59 44 20 64 24 86 18z m554 -19 c10 0 10 -5 2 -20 -6 -11
-17 -20 -25 -20 -7 0 -16 4 -20 9 -3 6 3 14 12 20 10 6 24 11 31 11z m-823
-46 c8 -4 11 -28 8 -82 -2 -42 -8 -115 -14 -162 -6 -46 -15 -90 -21 -97 -6 -7
-24 -13 -40 -13 -16 0 -38 -4 -48 -10 -10 -5 -26 -7 -36 -3 -14 5 -16 17 -12
75 3 38 11 75 17 81 6 6 11 23 11 37 0 14 7 36 17 49 9 13 19 38 22 55 5 22
18 37 45 52 22 12 44 20 51 18z"/>
</g>
</svg>
