<?xml version="1.0" standalone="no"?>
<!DOCTYPE svg PUBLIC "-//W3C//DTD SVG 20010904//EN"
 "http://www.w3.org/TR/2001/REC-SVG-20010904/DTD/svg10.dtd">
<svg version="1.0" xmlns="http://www.w3.org/2000/svg"
 width="128.000000pt" height="128.000000pt" viewBox="0 0 128.000000 128.000000"
 preserveAspectRatio="xMidYMid meet">
<metadata>
Created by potrace 1.16, written by Peter Selinger 2001-2019
</metadata>
<g transform="translate(0.000000,128.000000) scale(0.100000,-0.100000)"
fill="#000000" stroke="none">
<path d="M867 1130 c-25 0 -60 -10 -87 -24 -24 -13 -46 -29 -48 -35 -2 -6 4
-14 13 -17 9 -4 33 0 53 9 20 9 50 18 67 22 16 4 35 11 42 17 7 6 10 14 7 19
-3 5 -24 9 -47 9z"/>
<path d="M1048 1090 c-18 -1 -44 -7 -59 -15 -14 -7 -63 -23 -110 -35 -46 -12
-104 -28 -129 -36 -24 -9 -49 -19 -55 -24 -5 -4 -28 -11 -50 -15 -22 -4 -50
-14 -63 -22 -12 -7 -20 -18 -17 -23 4 -6 26 -10 50 -10 24 0 47 5 50 10 3 6
17 10 31 10 14 0 34 5 44 10 10 6 43 12 72 15 29 3 76 9 103 15 28 5 61 8 75
6 14 -2 38 -9 53 -15 16 -6 32 -9 37 -6 4 3 18 -4 31 -14 23 -18 23 -18 -7
-35 -16 -9 -42 -25 -59 -36 -16 -11 -46 -28 -65 -38 -19 -9 -52 -30 -73 -46
-20 -15 -37 -35 -37 -42 0 -7 12 -17 26 -20 15 -4 58 -1 98 5 39 7 80 14 91
16 11 2 44 10 73 18 29 9 60 21 68 27 8 7 14 25 14 41 0 15 -4 31 -10 34 -5 3
-7 19 -3 36 4 21 1 33 -10 42 -9 7 -27 35 -41 63 -18 36 -36 57 -60 68 -19 9
-49 16 -68 16z"/>
<path d="M61 985 c-33 7 -34 7 -26 -21 4 -16 9 -87 11 -159 3 -71 8 -172 11
-224 3 -52 14 -119 24 -149 10 -30 19 -62 19 -70 0 -8 11 -38 24 -66 14 -29
41 -69 60 -90 20 -20 49 -41 66 -46 22 -6 35 -4 50 8 16 13 22 36 29 107 5 50
12 100 16 113 6 17 4 22 -11 22 -11 0 -25 -14 -35 -32 -8 -17 -23 -36 -32 -42
-12 -8 -21 -7 -33 6 -9 9 -30 74 -46 144 -21 90 -32 162 -34 239 -2 61 -4 126
-4 147 0 24 -8 47 -27 70 -15 18 -27 34 -27 34 -1 1 -16 5 -35 9z"/>
<path d="M668 820 c-13 0 -32 -7 -42 -15 -11 -8 -28 -15 -38 -15 -11 0 -18 -7
-18 -18 0 -10 17 -30 38 -43 28 -19 36 -30 34 -49 -2 -14 -4 -56 -6 -95 -3
-40 0 -76 6 -83 6 -7 44 -28 84 -47 58 -28 97 -38 194 -50 122 -16 122 -16
146 6 13 12 24 26 24 31 0 5 -9 30 -21 55 -19 42 -22 45 -52 39 -18 -3 -81 -6
-141 -7 -97 -2 -111 0 -123 17 -10 13 -14 41 -12 84 1 36 1 82 0 103 -1 26 -9
46 -26 62 -13 14 -34 25 -47 25z"/>
<path d="M1179 300 c-14 0 -40 -13 -59 -30 -19 -16 -42 -29 -50 -30 -9 0 -21
-5 -28 -12 -7 -7 -12 -16 -12 -21 0 -5 21 -6 48 -3 26 3 58 7 72 9 21 2 25 -2
25 -25 -1 -27 1 -28 52 -28 53 0 53 0 53 53 -1 50 -2 53 -39 70 -20 9 -49 17
-62 17z"/>
<path d="M880 275 c-14 3 -29 3 -33 -1 -4 -4 -7 -14 -7 -23 0 -9 18 -33 40
-54 36 -33 46 -38 83 -35 28 2 43 8 45 19 2 9 -18 29 -50 51 -29 20 -64 39
-78 43z"/>
<path d="M682 220 c-23 24 -42 38 -46 32 -3 -6 -2 -14 4 -17 6 -4 8 -15 5 -25
-3 -11 -1 -29 5 -40 8 -15 19 -20 37 -18 15 2 28 8 30 15 2 6 -13 30 -35 53z"/>
</g>
</svg>
