<?xml version="1.0" standalone="no"?>
<!DOCTYPE svg PUBLIC "-//W3C//DTD SVG 20010904//EN"
 "http://www.w3.org/TR/2001/REC-SVG-20010904/DTD/svg10.dtd">
<svg version="1.0" xmlns="http://www.w3.org/2000/svg"
 width="128.000000pt" height="128.000000pt" viewBox="0 0 128.000000 128.000000"
 preserveAspectRatio="xMidYMid meet">
<metadata>
Created by potrace 1.16, written by Peter Selinger 2001-2019
</metadata>
<g transform="translate(0.000000,128.000000) scale(0.100000,-0.100000)"
fill="#000000" stroke="none">
<path d="M958 1150 c-8 0 -19 -5 -26 -12 -7 -7 -12 -18 -12 -25 0 -8 -13 -13
-33 -13 -17 0 -61 -11 -97 -24 -36 -13 -90 -36 -120 -51 -44 -21 -72 -27 -140
-30 -47 -2 -116 -9 -154 -15 -38 -6 -82 -18 -98 -26 -16 -8 -33 -12 -39 -9 -5
4 -31 10 -57 14 -41 5 -48 10 -57 37 -6 17 -16 39 -24 48 -8 10 -25 16 -40 14
-22 -3 -26 -8 -25 -33 1 -16 4 -56 6 -87 3 -32 11 -65 19 -74 10 -12 10 -20 1
-35 -7 -11 -10 -24 -7 -29 4 -6 13 -10 21 -10 8 0 14 -4 14 -10 0 -5 -9 -10
-19 -10 -11 0 -22 -4 -25 -9 -4 -5 -2 -21 4 -35 7 -19 16 -25 32 -23 13 1 23
-4 25 -13 2 -10 -9 -22 -30 -32 -34 -16 -34 -16 -41 -115 -6 -86 -4 -106 15
-158 12 -33 21 -72 21 -87 0 -15 10 -42 23 -60 13 -18 31 -48 39 -66 8 -17 26
-36 40 -42 14 -5 33 -7 41 -4 10 4 15 19 14 43 0 20 -4 59 -8 88 -5 37 -3 56
6 70 12 16 11 21 -14 40 -26 21 -27 22 -9 42 17 18 17 24 5 53 -8 18 -14 58
-15 88 -1 30 -6 73 -11 95 -6 22 -19 55 -29 72 -16 27 -17 36 -6 53 8 13 9 27
4 38 -5 9 -9 37 -8 62 1 42 3 45 26 41 14 -2 81 -3 150 -3 69 0 143 0 164 1
22 1 78 15 125 30 47 16 133 43 191 61 58 17 111 34 118 36 7 2 22 -1 33 -6
10 -6 26 -27 34 -47 11 -25 12 -40 5 -47 -5 -5 -10 -18 -10 -27 0 -10 -13 -38
-30 -62 -16 -25 -30 -53 -30 -62 0 -13 5 -16 23 -11 12 4 28 8 36 9 8 1 16 -3
18 -10 2 -6 -6 -17 -17 -23 -16 -9 -25 -9 -33 -1 -6 6 -25 11 -42 11 -17 0
-40 -7 -52 -15 -12 -9 -20 -22 -17 -30 3 -7 19 -18 36 -24 17 -6 48 -11 69
-11 27 0 41 5 48 19 9 15 20 18 60 16 30 -1 64 -11 85 -24 20 -13 44 -20 54
-17 10 4 31 19 46 35 28 29 28 29 15 107 -7 44 -18 86 -26 95 -7 8 -13 23 -13
31 0 9 -11 40 -25 71 -25 55 -25 55 -93 68 -37 8 -82 12 -99 11 -32 -3 -33 -2
-27 27 5 23 3 31 -8 31z m72 -190 c11 0 20 -4 20 -10 0 -5 -9 -10 -20 -10 -11
0 -20 5 -20 10 0 6 9 10 20 10z m64 -90 c8 0 18 -4 21 -10 3 -5 18 -10 33 -10
27 -1 27 -1 5 -19 -19 -16 -27 -17 -48 -8 -14 7 -25 20 -25 30 0 9 6 17 14 17z"/>
<path d="M643 840 c-4 -1 -19 -7 -33 -15 -14 -8 -34 -14 -44 -15 -11 0 -27 -7
-36 -15 -9 -8 -40 -19 -68 -25 -29 -5 -63 -15 -75 -22 -12 -6 -38 -14 -57 -18
-22 -3 -35 -11 -35 -20 0 -9 30 -29 69 -48 38 -19 88 -37 110 -41 36 -6 41
-10 44 -36 2 -25 -8 -42 -58 -95 -36 -38 -60 -74 -60 -87 0 -12 12 -30 28 -41
15 -10 47 -27 72 -36 25 -10 65 -22 90 -26 25 -4 71 -17 102 -29 32 -12 81
-21 110 -21 29 0 70 5 90 10 21 6 43 21 49 33 7 12 27 39 45 60 17 21 35 55
38 75 4 20 8 48 9 62 2 21 -2 25 -23 23 -14 -1 -61 -9 -105 -18 -44 -9 -108
-18 -142 -22 -55 -5 -62 -3 -73 16 -6 12 -8 27 -3 34 4 6 17 20 29 30 13 10
26 26 29 37 4 13 25 25 61 36 30 10 54 23 54 29 0 7 -11 17 -25 23 -14 6 -25
20 -25 30 0 11 -24 38 -57 64 -32 25 -68 50 -80 56 -12 7 -25 12 -30 12z"/>
</g>
</svg>
