<?xml version="1.0" standalone="no"?>
<!DOCTYPE svg PUBLIC "-//W3C//DTD SVG 20010904//EN"
 "http://www.w3.org/TR/2001/REC-SVG-20010904/DTD/svg10.dtd">
<svg version="1.0" xmlns="http://www.w3.org/2000/svg"
 width="128.000000pt" height="128.000000pt" viewBox="0 0 128.000000 128.000000"
 preserveAspectRatio="xMidYMid meet">
<metadata>
Created by potrace 1.16, written by Peter Selinger 2001-2019
</metadata>
<g transform="translate(0.000000,128.000000) scale(0.100000,-0.100000)"
fill="#000000" stroke="none">
<path d="M312 1280 c-66 0 -79 -3 -90 -20 -7 -11 -21 -20 -31 -20 -11 0 -26
-3 -35 -6 -11 -4 -14 -13 -10 -30 5 -18 2 -24 -10 -24 -9 0 -16 7 -16 16 0 10
-7 14 -22 12 -18 -2 -22 -10 -24 -45 -2 -36 1 -42 22 -47 13 -4 24 -10 24 -15
0 -5 -9 -11 -20 -14 -17 -4 -20 -13 -20 -59 0 -29 6 -62 13 -74 6 -11 22 -36
35 -56 12 -19 33 -40 47 -46 14 -6 25 -18 25 -25 0 -7 -20 -23 -45 -35 -25
-12 -45 -27 -45 -34 0 -6 7 -18 15 -27 8 -9 22 -25 32 -36 15 -16 16 -26 9
-48 -9 -24 -6 -31 25 -63 29 -31 38 -34 67 -29 18 3 49 1 69 -6 32 -10 42 -9
77 9 23 11 58 28 78 38 29 14 42 16 61 7 20 -10 26 -22 32 -65 4 -29 13 -68
21 -87 8 -18 14 -46 14 -61 0 -15 7 -33 15 -40 8 -7 15 -21 15 -31 0 -11 18
-39 40 -63 22 -24 40 -48 40 -53 0 -6 -32 -46 -71 -89 -39 -44 -75 -87 -80
-97 -9 -15 -3 -17 63 -17 50 0 81 5 96 16 12 8 22 24 22 35 0 10 3 19 8 19 4
0 13 -9 20 -20 7 -11 20 -20 30 -20 9 0 29 11 43 24 14 13 35 28 46 35 12 6
34 11 50 11 16 0 39 7 52 16 13 9 43 22 68 28 36 9 50 19 67 49 21 37 21 37
-9 93 -16 30 -38 62 -47 71 -11 10 -39 15 -87 16 -42 1 -80 -4 -96 -13 -16 -8
-29 -10 -35 -4 -5 5 -15 42 -22 83 -11 67 -11 74 6 86 10 8 48 17 84 20 37 4
75 9 85 12 10 3 39 25 64 49 25 24 51 52 57 62 6 11 24 39 40 63 26 39 30 55
36 149 4 58 5 127 2 153 -3 33 -11 52 -25 62 -19 13 -19 17 -7 40 12 23 12 28
-8 48 -20 20 -33 22 -123 22 -87 0 -103 -3 -115 -19 -7 -10 -11 -22 -9 -26 3
-4 28 -10 57 -13 39 -4 58 -1 70 10 10 9 24 13 33 10 8 -4 15 -15 15 -26 0
-10 -7 -21 -15 -25 -8 -3 -15 -12 -15 -20 0 -8 7 -19 16 -24 12 -7 13 -11 5
-17 -7 -4 -24 -3 -39 1 -15 4 -36 8 -46 8 -11 1 -27 15 -36 31 -11 20 -26 31
-45 33 -15 2 -39 -2 -52 -9 -14 -7 -30 -23 -36 -35 -7 -13 -41 -43 -77 -68
-36 -25 -83 -55 -105 -66 -22 -11 -69 -41 -104 -68 -36 -26 -72 -61 -81 -77
-9 -17 -27 -36 -41 -42 -13 -7 -35 -13 -47 -13 -15 0 -36 14 -55 35 -17 19
-39 35 -49 35 -10 0 -18 6 -18 13 0 7 9 18 20 25 11 7 20 20 20 30 0 10 -11
29 -25 42 -14 13 -25 34 -25 47 0 13 -3 23 -7 23 -5 0 -21 11 -38 24 -28 23
-29 26 -12 38 13 10 17 25 15 63 -3 48 -2 50 32 61 19 6 36 16 38 23 2 6 18
11 36 11 17 0 42 7 54 16 12 8 22 22 22 30 0 11 -17 14 -78 14z m817 -258 c23
-2 43 -7 46 -12 2 -4 -1 -14 -8 -23 -7 -9 -26 -20 -44 -23 -28 -6 -33 -3 -38
19 -4 14 -5 30 -2 34 3 5 24 7 46 5z m-271 -34 c1 1 10 -2 20 -8 9 -5 33 -17
52 -25 19 -9 47 -22 61 -30 14 -8 32 -22 41 -32 11 -13 17 -44 19 -103 4 -84
4 -85 -21 -88 -14 -1 -35 -5 -46 -7 -12 -3 -24 -14 -27 -25 -4 -15 -13 -20
-40 -20 -23 0 -47 10 -73 31 -31 24 -45 29 -70 25 -23 -5 -35 -1 -49 14 -13
15 -16 29 -12 57 4 25 2 42 -7 53 -12 13 -10 20 14 49 27 32 31 33 58 22 18
-7 44 -10 66 -6 21 4 36 13 36 21 0 8 -8 14 -19 14 -10 0 -35 7 -56 16 -21 9
-34 19 -29 24 5 5 25 10 44 13 19 2 36 5 38 5z m-123 -470 c12 -2 20 -11 20
-23 0 -15 -8 -21 -32 -23 -23 -2 -33 1 -33 10 0 8 6 20 12 26 7 7 22 11 33 10z
m25 -93 c10 -9 20 -32 23 -51 3 -19 3 -42 0 -50 -3 -8 -13 -14 -23 -14 -9 0
-25 9 -35 20 -15 16 -15 22 -5 35 9 11 10 18 1 29 -9 11 -8 18 5 30 15 16 18
16 34 1z m145 -128 c50 -2 50 -2 47 -37 -1 -19 -10 -41 -19 -47 -9 -7 -29 -13
-44 -13 -16 0 -32 7 -38 17 -8 15 -15 16 -48 7 -22 -6 -45 -8 -51 -6 -7 2 0
13 16 26 15 13 41 30 57 39 19 11 49 16 80 14z"/>
<path d="M612 1280 c-174 0 -175 0 -157 -20 15 -17 31 -20 101 -20 72 0 88 -3
120 -25 20 -14 43 -25 50 -25 7 0 24 5 38 11 13 6 27 20 29 31 3 11 3 26 0 34
-4 11 -39 14 -181 14z"/>
</g>
</svg>
