<?xml version="1.0" standalone="no"?>
<!DOCTYPE svg PUBLIC "-//W3C//DTD SVG 20010904//EN"
 "http://www.w3.org/TR/2001/REC-SVG-20010904/DTD/svg10.dtd">
<svg version="1.0" xmlns="http://www.w3.org/2000/svg"
 width="128.000000pt" height="128.000000pt" viewBox="0 0 128.000000 128.000000"
 preserveAspectRatio="xMidYMid meet">
<metadata>
Created by potrace 1.16, written by Peter Selinger 2001-2019
</metadata>
<g transform="translate(0.000000,128.000000) scale(0.100000,-0.100000)"
fill="#000000" stroke="none">
<path d="M573 1280 c-10 -1 -22 -5 -28 -10 -5 -5 -38 -33 -72 -62 -34 -29 -75
-63 -91 -75 -17 -13 -35 -23 -40 -23 -6 0 -25 8 -44 18 -18 9 -40 25 -50 36
-10 10 -24 16 -33 13 -9 -4 -12 -13 -8 -24 4 -10 13 -23 20 -28 7 -6 35 -42
61 -80 34 -50 54 -71 72 -73 14 -2 28 -7 33 -11 4 -4 2 -34 -4 -67 -6 -32 -23
-86 -39 -119 -15 -33 -29 -64 -31 -70 -2 -5 -26 -47 -53 -93 -26 -46 -65 -97
-87 -114 -21 -17 -45 -48 -54 -70 -8 -21 -18 -76 -21 -121 -3 -45 -7 -91 -9
-102 -2 -11 -1 -25 3 -31 4 -7 15 -8 28 -4 12 5 38 26 59 47 20 21 52 61 71
89 19 28 34 56 34 63 0 6 8 24 17 39 10 15 22 30 28 34 5 4 18 8 27 8 10 0 49
-32 87 -72 69 -71 69 -71 38 -111 -18 -23 -47 -55 -66 -73 -33 -32 -33 -32
-26 -104 6 -61 10 -73 30 -82 17 -7 33 -7 56 1 17 6 46 11 64 11 17 0 78 13
136 29 65 18 130 29 173 30 39 0 76 -5 83 -10 7 -6 24 -8 38 -5 13 3 28 14 33
24 5 9 12 37 16 62 6 40 2 52 -26 100 -19 30 -41 75 -50 100 -9 25 -19 62 -23
83 -3 22 -11 37 -17 35 -7 -3 -17 -29 -24 -59 -7 -30 -13 -72 -14 -94 0 -22
-7 -50 -15 -62 -8 -12 -28 -24 -45 -28 -16 -4 -32 -11 -35 -16 -4 -5 -14 -9
-23 -9 -9 -1 -35 -9 -57 -20 -22 -11 -50 -19 -62 -20 -16 0 -23 6 -23 20 0 11
9 36 21 57 12 21 33 54 47 73 15 19 58 71 97 115 39 44 84 101 99 128 20 33
26 55 22 72 -3 13 -16 30 -28 36 -13 7 -49 33 -80 58 -32 25 -58 53 -58 62 0
8 13 36 29 62 17 25 35 64 42 86 9 30 9 47 2 64 -8 17 -26 28 -60 37 -26 7
-52 17 -57 21 -6 5 -16 9 -24 9 -8 0 -37 -23 -64 -50 -27 -28 -53 -48 -58 -45
-5 3 -6 15 -1 28 5 12 14 40 21 62 7 22 28 61 47 87 24 33 33 54 28 68 -3 11
-15 25 -26 30 -10 6 -19 17 -19 25 0 8 -8 15 -17 15z m69 -300 c10 0 18 -6 18
-13 0 -7 -9 -32 -20 -54 -18 -38 -19 -48 -8 -124 12 -82 12 -82 -18 -106 -16
-14 -51 -40 -79 -59 -27 -18 -70 -48 -93 -65 -31 -22 -47 -28 -55 -20 -7 7 5
41 44 118 29 59 59 115 65 123 7 8 27 44 44 80 18 36 44 77 58 93 14 15 34 27
44 27z m-10 -360 c4 0 8 -7 8 -15 0 -8 -7 -15 -15 -15 -8 0 -15 4 -15 8 0 5 3
12 7 15 3 4 10 7 15 7z m41 -40 c23 0 27 -4 27 -30 0 -19 -12 -43 -32 -67 -18
-21 -36 -40 -41 -41 -4 -2 -14 -11 -23 -19 -8 -9 -13 -22 -10 -29 3 -8 0 -14
-7 -14 -7 0 -26 13 -41 29 -24 25 -27 35 -22 65 4 20 12 41 19 47 7 5 32 21
57 34 25 13 57 24 73 25z m-399 -60 c7 -7 6 -14 -2 -22 -7 -7 -12 -20 -12 -30
0 -10 7 -18 15 -18 8 0 15 -9 15 -21 0 -17 -4 -19 -22 -13 -13 4 -26 12 -30
18 -5 6 -5 25 -2 41 4 17 11 36 17 43 7 9 13 10 21 2z m294 -242 c11 -2 17
-13 17 -32 0 -16 -5 -31 -11 -33 -6 -2 -16 8 -22 22 -7 15 -10 31 -6 36 3 6
13 9 22 7z m123 -138 c5 0 12 -7 16 -15 3 -9 3 -19 -1 -22 -3 -3 -12 0 -21 7
-8 7 -12 16 -9 21 3 5 10 9 15 9z m-201 -30 c5 0 12 -5 15 -11 4 -6 4 -13 1
-16 -3 -3 -12 -3 -21 1 -9 3 -13 10 -10 16 3 5 10 10 15 10z"/>
<path d="M1161 1227 c-15 10 -22 9 -31 -2 -10 -12 -10 -18 0 -30 7 -8 21 -15
31 -15 11 0 19 7 19 18 0 9 -9 23 -19 29z"/>
<path d="M950 1200 c-14 0 -20 -7 -20 -24 0 -13 9 -35 20 -49 11 -14 20 -29
20 -33 0 -4 8 -17 19 -28 10 -12 31 -55 46 -96 15 -41 31 -85 36 -98 7 -17 16
-22 32 -20 13 2 29 16 39 38 10 19 18 54 18 77 0 39 -4 46 -42 73 -24 17 -52
43 -63 59 -11 15 -34 44 -52 64 -18 21 -42 37 -53 37z"/>
</g>
</svg>
