<?xml version="1.0" standalone="no"?>
<!DOCTYPE svg PUBLIC "-//W3C//DTD SVG 20010904//EN"
 "http://www.w3.org/TR/2001/REC-SVG-20010904/DTD/svg10.dtd">
<svg version="1.0" xmlns="http://www.w3.org/2000/svg"
 width="128.000000pt" height="128.000000pt" viewBox="0 0 128.000000 128.000000"
 preserveAspectRatio="xMidYMid meet">
<metadata>
Created by potrace 1.16, written by Peter Selinger 2001-2019
</metadata>
<g transform="translate(0.000000,128.000000) scale(0.100000,-0.100000)"
fill="#000000" stroke="none">
<path d="M661 1260 c-14 -1 -42 -8 -61 -16 -19 -8 -44 -24 -55 -34 -11 -10
-31 -23 -45 -29 -14 -6 -45 -27 -70 -45 -25 -19 -52 -35 -60 -35 -9 -1 -26 -8
-39 -17 -13 -9 -37 -20 -55 -25 -17 -4 -48 -14 -69 -21 -20 -7 -37 -19 -37
-26 0 -7 8 -15 18 -18 9 -3 29 -12 44 -20 14 -8 47 -17 73 -21 42 -5 49 -3 78
24 18 16 56 48 86 71 29 23 60 42 67 42 8 0 14 -2 14 -4 0 -2 -6 -21 -14 -42
-7 -22 -28 -61 -45 -89 -17 -27 -31 -56 -31 -66 0 -9 -21 -47 -46 -85 -25 -37
-82 -136 -127 -218 -45 -83 -93 -174 -107 -201 -14 -28 -35 -64 -46 -80 -12
-17 -33 -53 -48 -82 -14 -29 -26 -63 -26 -75 0 -13 5 -40 10 -60 6 -22 19 -39
30 -43 10 -3 32 1 48 9 20 10 39 36 60 78 16 35 42 90 56 123 15 33 33 72 41
87 8 14 15 32 15 40 0 7 15 42 34 78 18 36 52 101 75 145 22 44 41 85 41 90 0
6 20 38 44 70 24 33 69 86 100 117 31 32 68 61 82 64 14 4 28 4 31 0 4 -3 -6
-41 -20 -85 -15 -43 -27 -87 -27 -97 0 -11 7 -28 15 -38 8 -11 15 -28 15 -37
0 -11 -27 -32 -77 -60 -45 -24 -106 -70 -145 -108 -38 -36 -68 -72 -68 -79 0
-7 6 -25 14 -41 8 -15 34 -41 58 -57 24 -16 49 -34 56 -41 6 -6 12 -18 12 -26
0 -8 -19 -35 -42 -61 -33 -37 -42 -55 -44 -87 -1 -26 5 -53 18 -75 20 -34 20
-34 123 -34 59 0 107 -4 110 -10 3 -6 12 -10 19 -10 9 0 12 9 9 24 -3 13 0 27
6 30 6 4 15 -3 20 -17 6 -14 15 -29 22 -33 7 -4 15 -2 17 4 2 7 9 12 15 12 6
0 18 7 28 16 14 13 21 13 37 3 16 -10 24 -10 44 3 12 8 37 18 53 22 17 4 49
18 72 32 24 14 48 34 53 45 9 16 6 30 -18 72 -15 29 -35 72 -44 97 -8 25 -21
65 -28 90 -7 25 -18 61 -23 80 -6 19 -15 39 -19 44 -4 6 -9 -8 -9 -30 -1 -21
0 -87 1 -146 2 -108 2 -108 -36 -130 -22 -13 -52 -28 -69 -34 -16 -7 -43 -16
-60 -22 -16 -6 -46 -15 -66 -21 -19 -6 -50 -11 -68 -11 -20 0 -34 6 -38 17 -4
11 6 27 33 50 21 18 61 55 89 81 27 26 60 61 72 77 12 17 40 66 62 111 36 74
39 86 34 137 -4 41 -12 63 -32 84 -15 15 -42 36 -59 45 -18 9 -32 24 -32 33 0
9 8 30 17 48 9 18 20 50 25 72 5 22 15 66 21 98 9 49 9 60 -5 74 -15 14 -20
14 -63 -3 -26 -11 -51 -27 -56 -36 -5 -10 -18 -18 -28 -18 -10 0 -24 -7 -32
-16 -7 -9 -46 -43 -87 -76 -41 -33 -78 -56 -82 -51 -4 4 8 40 27 78 19 39 42
86 53 105 10 19 41 69 68 110 46 69 49 76 35 93 -9 9 -28 17 -42 17z m65 -700
c6 0 17 -7 24 -15 9 -11 6 -22 -19 -57 -17 -24 -36 -50 -43 -59 -7 -8 -21 -18
-30 -22 -10 -3 -18 -13 -18 -22 0 -9 9 -25 20 -37 10 -12 17 -25 14 -30 -3 -4
-23 -8 -45 -8 -31 0 -39 4 -39 18 0 11 10 24 23 29 22 11 22 11 -5 18 -16 4
-28 11 -28 16 0 5 4 9 10 9 5 0 7 7 4 15 -4 8 -17 15 -30 15 -13 0 -24 6 -24
13 0 8 8 21 18 30 9 8 49 31 87 51 39 20 75 36 81 36z m32 -140 c4 0 13 -5 20
-12 7 -7 12 -16 12 -20 0 -4 -9 -8 -20 -8 -11 0 -20 -7 -20 -15 0 -8 -9 -19
-20 -25 -11 -6 -25 -8 -30 -5 -5 3 -7 18 -6 33 3 21 8 26 23 24 12 -2 23 4 26
13 4 8 10 15 15 15z m167 -280 c8 0 16 -4 20 -9 3 -5 1 -13 -5 -16 -6 -4 -18
-4 -26 -1 -8 3 -12 10 -9 16 3 5 12 10 20 10z m-275 -25 c5 -3 10 -14 11 -23
0 -11 3 -12 6 -4 2 6 11 12 19 12 8 0 14 -9 14 -21 0 -18 -4 -20 -27 -14 -16
3 -32 10 -37 15 -5 5 -6 16 -2 25 3 9 10 13 16 10z"/>
<path d="M1043 1228 c-10 0 -40 -4 -67 -7 -27 -3 -51 -11 -53 -17 -2 -6 15
-19 39 -28 23 -10 54 -26 68 -36 14 -10 43 -54 64 -97 25 -51 39 -93 40 -123
1 -39 4 -45 24 -48 14 -2 22 2 22 11 0 8 6 20 14 26 8 7 18 40 21 76 6 56 4
69 -20 116 -14 30 -36 65 -48 78 -12 13 -36 30 -54 37 -18 8 -40 13 -50 12z"/>
</g>
</svg>
