<?xml version="1.0" standalone="no"?>
<!DOCTYPE svg PUBLIC "-//W3C//DTD SVG 20010904//EN"
 "http://www.w3.org/TR/2001/REC-SVG-20010904/DTD/svg10.dtd">
<svg version="1.0" xmlns="http://www.w3.org/2000/svg"
 width="128.000000pt" height="128.000000pt" viewBox="0 0 128.000000 128.000000"
 preserveAspectRatio="xMidYMid meet">
<metadata>
Created by potrace 1.16, written by Peter Selinger 2001-2019
</metadata>
<g transform="translate(0.000000,128.000000) scale(0.100000,-0.100000)"
fill="#000000" stroke="none">
<path d="M300 1280 c-21 0 -30 -4 -27 -12 2 -7 14 -13 27 -13 13 0 25 6 28 13
2 8 -7 12 -28 12z"/>
<path d="M884 1261 c-18 17 -23 18 -33 5 -7 -8 -10 -23 -7 -33 3 -10 22 -27
42 -38 20 -11 43 -30 51 -42 9 -13 21 -23 28 -23 6 0 17 -11 23 -24 6 -13 20
-27 30 -30 11 -4 23 -17 26 -30 3 -13 23 -43 45 -67 39 -44 39 -44 60 -19 13
16 20 40 21 66 0 30 -8 52 -31 83 -19 28 -47 50 -77 63 -26 11 -72 32 -102 45
-30 14 -64 33 -76 44z"/>
<path d="M655 1237 c-29 9 -39 8 -57 -7 -13 -9 -34 -21 -48 -25 -14 -4 -36
-16 -49 -26 -13 -11 -31 -19 -40 -19 -9 0 -52 -18 -96 -40 -44 -22 -94 -40
-111 -40 -17 0 -37 -7 -44 -15 -10 -12 -10 -18 0 -30 7 -8 27 -19 46 -24 22
-6 47 -6 70 0 19 6 56 24 82 40 25 16 59 29 74 29 20 0 28 -5 28 -17 0 -10
-28 -76 -62 -148 -34 -71 -67 -137 -75 -146 -7 -8 -13 -22 -13 -30 0 -8 -16
-34 -35 -58 -19 -24 -35 -48 -35 -53 0 -6 -12 -24 -26 -41 -15 -18 -42 -63
-60 -102 -18 -38 -48 -97 -67 -130 -33 -60 -33 -62 -25 -135 5 -41 12 -91 16
-110 5 -25 13 -36 27 -38 12 -2 34 9 51 25 17 15 46 62 65 103 19 41 55 115
80 165 37 72 51 91 70 93 17 2 38 -12 77 -49 28 -28 52 -53 52 -55 0 -2 -20
-33 -45 -70 -25 -36 -45 -75 -46 -87 0 -12 -2 -38 -3 -57 -1 -19 3 -47 10 -61
7 -14 27 -32 43 -39 17 -7 36 -18 42 -26 7 -8 30 -14 55 -14 23 0 46 5 49 10
3 6 30 10 60 10 30 0 66 5 81 10 14 6 57 15 94 20 38 5 89 21 114 34 25 13 56
32 69 43 13 10 31 30 41 45 11 17 15 35 11 48 -4 11 -24 33 -46 47 -22 14 -60
53 -85 87 -26 34 -51 61 -58 61 -7 0 -12 -28 -13 -79 -1 -51 -6 -83 -15 -91
-7 -6 -40 -22 -73 -35 -33 -13 -64 -27 -69 -32 -6 -4 -21 -8 -34 -8 -13 0 -33
-5 -44 -11 -13 -7 -23 -8 -30 -1 -7 7 -6 21 1 44 6 18 47 70 91 116 44 46 80
89 80 96 0 7 11 27 25 45 13 19 33 61 43 95 11 33 19 81 17 106 -1 25 -7 55
-13 65 -5 11 -21 30 -34 42 -12 12 -34 23 -48 25 -24 3 -25 5 -25 81 0 71 -2
81 -24 98 -13 11 -36 19 -50 18 -14 -1 -36 -1 -49 -1 -12 1 -25 8 -28 16 -3 8
6 38 20 68 13 29 28 65 31 81 4 15 5 37 1 50 -4 16 -17 27 -41 34z m-61 -349
c12 -2 34 -32 63 -85 24 -46 41 -87 38 -93 -3 -5 -23 -10 -43 -10 -20 0 -68
-7 -105 -16 -49 -12 -71 -14 -79 -6 -7 7 3 33 36 88 25 42 46 82 46 88 0 7 6
18 12 24 7 7 21 11 32 10z m72 -218 c11 0 29 -9 39 -20 17 -19 17 -22 -15 -82
-18 -35 -39 -75 -47 -90 -11 -22 -22 -28 -47 -28 -26 0 -38 8 -69 49 -20 26
-37 58 -37 70 0 12 7 29 15 38 9 8 36 21 60 29 25 7 53 18 63 23 9 6 26 11 38
11z"/>
<path d="M1153 508 c-10 -1 -42 -3 -70 -5 -37 -3 -53 -8 -53 -18 0 -8 9 -19
19 -25 11 -5 40 -10 64 -10 27 0 49 6 57 15 7 8 10 22 6 30 -3 8 -13 14 -23
13z"/>
</g>
</svg>
