<?xml version="1.0" standalone="no"?>
<!DOCTYPE svg PUBLIC "-//W3C//DTD SVG 20010904//EN"
 "http://www.w3.org/TR/2001/REC-SVG-20010904/DTD/svg10.dtd">
<svg version="1.0" xmlns="http://www.w3.org/2000/svg"
 width="128.000000pt" height="128.000000pt" viewBox="0 0 128.000000 128.000000"
 preserveAspectRatio="xMidYMid meet">
<metadata>
Created by potrace 1.16, written by Peter Selinger 2001-2019
</metadata>
<g transform="translate(0.000000,128.000000) scale(0.100000,-0.100000)"
fill="#000000" stroke="none">
<path d="M551 1280 c-4 0 -15 -8 -24 -18 -10 -10 -17 -28 -17 -39 0 -11 -6
-26 -14 -32 -9 -8 -28 -10 -50 -5 -24 4 -36 2 -36 -5 0 -6 -6 -11 -14 -11 -8
0 -16 -7 -20 -15 -3 -8 -16 -15 -28 -15 -13 0 -27 4 -33 8 -5 4 -15 16 -21 26
-6 11 -15 21 -22 24 -6 2 -18 -7 -26 -20 -14 -21 -14 -28 2 -71 9 -26 22 -47
29 -47 6 0 15 -9 18 -20 5 -15 -3 -31 -26 -58 -18 -20 -42 -39 -53 -42 -14 -4
-26 -21 -36 -52 -12 -37 -20 -48 -42 -52 -16 -3 -28 -12 -28 -21 0 -9 7 -18
15 -22 9 -3 24 2 34 12 11 9 31 15 48 13 25 -3 28 -7 31 -43 2 -32 -3 -49 -28
-83 -19 -27 -29 -50 -25 -61 3 -10 -1 -24 -10 -31 -9 -8 -23 -26 -31 -42 -12
-23 -12 -32 -2 -51 7 -12 11 -30 9 -40 -1 -9 11 -29 28 -43 17 -14 31 -33 31
-41 0 -8 -13 -28 -30 -43 -16 -15 -30 -37 -30 -48 0 -12 -5 -24 -10 -27 -6 -4
-17 -2 -24 4 -11 9 -22 -1 -55 -49 -23 -33 -41 -67 -41 -76 0 -8 5 -25 11 -37
7 -12 17 -25 22 -29 6 -3 16 -4 24 -1 7 3 13 16 13 28 0 14 11 33 26 44 25 20
27 20 40 4 12 -17 16 -15 51 19 21 21 43 38 48 38 6 0 21 6 35 13 14 7 33 16
42 20 10 3 24 0 33 -9 9 -9 15 -33 15 -59 0 -24 4 -55 9 -68 5 -13 17 -31 26
-40 9 -10 26 -17 39 -17 12 0 36 15 54 33 21 22 35 48 41 80 5 26 15 55 24 65
8 9 18 28 22 42 4 14 27 66 52 117 24 50 50 97 58 103 8 7 15 23 15 36 0 13
-5 24 -10 24 -6 0 -20 -16 -31 -35 -12 -19 -24 -35 -27 -36 -4 -1 -35 -3 -68
-5 -48 -3 -65 0 -75 13 -12 14 -11 18 4 27 11 6 41 32 68 57 27 26 49 54 49
62 0 9 -9 21 -21 27 -11 7 -34 8 -52 5 -18 -4 -37 -12 -44 -17 -7 -6 -14 -5
-18 1 -3 6 7 27 22 47 15 19 45 44 65 55 21 10 44 19 52 19 9 0 20 9 26 19 5
11 7 26 4 34 -3 8 -30 20 -60 26 -53 12 -56 12 -90 -14 -20 -15 -51 -42 -69
-61 -19 -19 -41 -34 -48 -34 -8 0 -26 -9 -40 -20 -14 -11 -27 -20 -30 -20 -3
0 -7 7 -11 15 -3 9 6 41 19 71 14 31 25 63 25 70 0 8 7 14 15 14 8 0 15 4 15
9 0 6 -4 13 -10 16 -5 3 -10 15 -10 25 0 11 -10 28 -22 40 -12 11 -18 23 -13
27 4 5 10 2 12 -4 3 -7 8 -13 12 -13 4 0 13 11 19 25 6 14 18 25 27 25 10 0
15 -10 15 -28 0 -15 -5 -33 -12 -40 -9 -9 -9 -17 2 -36 7 -14 18 -22 23 -19 6
3 37 7 70 9 49 2 64 7 81 27 12 13 29 27 39 30 9 4 17 12 16 19 0 7 -16 26
-36 43 -22 18 -47 29 -67 30 -21 0 -32 5 -34 18 -3 12 3 17 21 17 16 0 34 13
55 39 18 22 37 52 44 67 11 23 10 28 -2 32 -7 3 -24 16 -37 28 -13 13 -28 24
-32 24z m-196 -592 c16 -2 20 -10 18 -33 -1 -16 -3 -41 -4 -55 -1 -15 7 -30
20 -38 11 -8 21 -23 21 -33 0 -10 -23 -41 -50 -68 -28 -28 -61 -53 -74 -57
-13 -3 -27 -1 -30 4 -3 5 0 27 8 48 7 22 11 53 9 70 -3 18 0 35 6 38 6 4 11
23 11 43 0 24 8 45 22 60 13 13 31 23 43 21z m-127 -168 c7 0 12 -13 12 -31 0
-23 -4 -30 -16 -27 -9 2 -22 11 -28 21 -8 14 -8 20 4 27 8 5 21 10 28 10z
m293 -90 c13 0 19 -7 19 -21 0 -12 7 -27 16 -33 14 -10 10 -23 -31 -101 -26
-50 -49 -92 -51 -94 -3 -3 -11 2 -20 11 -9 9 -16 35 -17 64 -2 47 -1 49 45 79
46 31 46 31 28 55 -10 13 -16 28 -14 32 3 4 14 8 25 8z m-178 -40 c9 0 19 -5
22 -11 4 -5 4 -21 1 -33 -4 -17 -23 -31 -67 -50 -33 -14 -69 -26 -80 -26 -10
0 -19 4 -19 9 0 5 12 19 26 30 15 12 31 21 36 21 6 0 23 14 38 30 15 17 35 30
43 30z"/>
<path d="M910 1154 c-23 4 -40 2 -48 -6 -7 -7 -12 -20 -12 -30 0 -9 8 -22 18
-27 16 -8 18 -21 16 -80 -1 -39 -6 -76 -11 -83 -4 -7 -11 -53 -15 -103 -3 -49
-11 -116 -18 -147 -9 -43 -16 -58 -29 -58 -9 0 -22 -5 -29 -12 -7 -7 -12 -18
-12 -26 0 -10 8 -12 30 -7 22 5 30 3 30 -7 0 -7 -6 -23 -14 -34 -8 -11 -27
-63 -42 -115 -15 -52 -33 -101 -40 -109 -6 -8 -28 -48 -48 -89 -20 -41 -36
-80 -36 -87 0 -7 4 -15 9 -19 5 -3 29 8 53 24 24 16 49 39 56 51 7 12 16 44
19 70 3 30 13 56 24 66 11 10 19 23 19 30 0 7 9 18 19 24 17 9 24 2 58 -53 21
-34 40 -75 43 -91 3 -16 13 -34 23 -40 14 -9 21 -7 32 7 7 11 11 25 8 33 -4
12 0 14 20 9 20 -5 29 -1 42 19 10 14 25 26 35 26 9 0 24 8 33 18 8 9 18 33
22 53 5 25 2 46 -9 68 -9 17 -22 31 -30 31 -7 0 -20 -8 -28 -17 -9 -10 -23
-35 -33 -55 -9 -21 -21 -38 -25 -38 -4 0 -26 21 -49 48 -22 26 -49 56 -59 67
-11 11 -22 34 -26 50 -4 17 -8 38 -9 49 -1 10 5 22 13 26 8 5 36 18 63 29 38
17 47 26 47 46 0 16 6 25 16 25 9 0 33 10 54 21 21 12 45 19 54 16 8 -3 18
-21 21 -40 5 -24 1 -46 -13 -73 -11 -22 -23 -54 -27 -72 -5 -25 -3 -38 11 -53
9 -10 23 -19 31 -19 8 0 25 12 37 27 17 19 26 46 31 88 3 33 11 77 16 98 10
37 8 40 -33 81 -25 25 -57 47 -75 51 -25 5 -39 2 -59 -14 -15 -12 -31 -21 -37
-21 -5 0 -26 -14 -46 -32 -36 -32 -36 -32 -39 10 -2 23 2 50 7 61 6 11 11 38
11 60 0 22 4 42 9 45 5 4 12 27 15 54 3 26 2 71 -2 101 -6 47 -11 56 -32 61
-14 4 -41 10 -60 14z"/>
<path d="M634 87 c-6 2 -17 -3 -24 -12 -10 -11 -10 -19 -2 -27 6 -6 18 -8 27
-4 9 3 15 13 13 23 -2 9 -8 18 -14 20z"/>
</g>
</svg>
