<?xml version="1.0" standalone="no"?>
<!DOCTYPE svg PUBLIC "-//W3C//DTD SVG 20010904//EN"
 "http://www.w3.org/TR/2001/REC-SVG-20010904/DTD/svg10.dtd">
<svg version="1.0" xmlns="http://www.w3.org/2000/svg"
 width="128.000000pt" height="128.000000pt" viewBox="0 0 128.000000 128.000000"
 preserveAspectRatio="xMidYMid meet">
<metadata>
Created by potrace 1.16, written by Peter Selinger 2001-2019
</metadata>
<g transform="translate(0.000000,128.000000) scale(0.100000,-0.100000)"
fill="#000000" stroke="none">
<path d="M848 1257 c-37 4 -58 2 -62 -6 -4 -7 -2 -18 4 -26 7 -8 21 -15 31
-15 10 0 20 -8 23 -17 2 -10 4 -70 3 -133 -2 -114 -2 -114 -37 -138 -22 -14
-45 -22 -64 -20 -27 3 -32 9 -44 50 -10 36 -21 51 -48 67 -19 12 -44 21 -55
21 -11 0 -22 -7 -26 -15 -3 -9 0 -43 7 -76 13 -59 12 -61 -11 -84 -13 -12 -33
-26 -44 -29 -11 -3 -27 -1 -35 4 -12 8 -14 34 -12 154 2 145 2 145 -25 163
-16 9 -41 30 -58 46 -23 23 -35 28 -60 24 -16 -3 -61 -17 -100 -31 -38 -14
-76 -34 -84 -45 -10 -16 -11 -24 -2 -35 6 -7 40 -21 76 -30 35 -9 73 -16 83
-16 10 0 26 -8 35 -18 12 -13 17 -43 19 -126 3 -108 3 -108 -26 -131 -16 -13
-43 -25 -60 -28 -23 -4 -36 0 -49 15 -9 11 -17 30 -17 42 0 11 -10 37 -21 56
-12 19 -29 40 -38 47 -9 7 -24 13 -33 13 -10 0 -22 -9 -28 -20 -8 -15 -6 -30
10 -64 11 -25 20 -49 20 -54 0 -5 10 -32 21 -61 17 -40 19 -54 10 -65 -7 -8
-27 -16 -44 -18 -23 -2 -33 -9 -35 -23 -2 -13 9 -28 31 -43 18 -12 41 -22 51
-22 10 0 48 17 84 37 37 20 78 45 91 55 13 10 37 18 53 18 17 0 95 32 179 74
131 66 159 76 238 86 49 7 97 10 105 7 9 -4 16 -17 16 -30 0 -13 -8 -31 -17
-39 -10 -9 -40 -25 -68 -37 -27 -12 -56 -28 -65 -35 -8 -7 -35 -16 -59 -19
-25 -3 -76 -21 -115 -40 -39 -19 -93 -40 -121 -46 -27 -7 -55 -17 -62 -23 -7
-6 -13 -18 -13 -28 0 -10 7 -34 15 -54 9 -20 22 -39 30 -43 9 -3 25 1 38 10
12 8 37 18 54 21 18 4 49 19 69 32 20 14 43 23 52 19 11 -4 13 -15 8 -45 -3
-22 -16 -58 -27 -80 -12 -23 -34 -46 -53 -55 -17 -8 -68 -26 -114 -40 -54 -17
-115 -28 -174 -31 -51 -2 -94 -6 -96 -9 -2 -2 -2 -15 2 -29 3 -13 18 -39 33
-56 25 -30 29 -32 78 -25 29 3 77 13 106 20 30 8 67 15 83 15 15 0 49 11 75
24 27 15 71 27 109 30 34 3 89 9 122 12 48 5 60 4 60 -8 0 -8 -13 -27 -30 -43
-16 -16 -30 -35 -30 -42 0 -7 -7 -13 -15 -13 -8 0 -31 -18 -52 -39 -21 -21
-50 -55 -65 -74 -16 -19 -28 -38 -28 -41 0 -4 28 -6 63 -4 56 3 62 5 65 26 2
14 16 31 34 40 16 10 48 29 69 45 21 15 39 35 39 45 0 15 14 20 76 29 42 6 81
16 87 22 7 7 7 22 -2 51 -7 23 -24 59 -39 80 -15 21 -37 44 -50 51 -19 11 -25
9 -48 -12 -20 -19 -40 -25 -97 -30 -52 -4 -76 -2 -86 7 -13 12 -11 23 8 86 13
40 27 84 32 97 7 18 6 28 -7 42 -9 11 -25 19 -34 19 -10 0 -23 6 -29 13 -8 11
-5 18 12 34 15 13 48 23 102 31 44 6 116 14 160 17 44 4 88 9 98 11 9 3 17 14
17 26 0 11 -9 33 -21 49 -11 16 -29 29 -40 29 -11 0 -33 7 -49 15 -17 9 -30
20 -30 25 0 5 8 13 18 18 9 4 56 7 104 7 77 -1 88 1 94 17 3 11 -6 33 -23 58
-18 26 -41 44 -64 51 -29 9 -48 8 -94 -6 -34 -9 -61 -13 -67 -7 -5 5 -4 29 2
59 6 28 10 76 8 108 -3 49 -7 61 -29 77 -14 11 -50 22 -81 25z"/>
</g>
</svg>
