<?xml version="1.0" standalone="no"?>
<!DOCTYPE svg PUBLIC "-//W3C//DTD SVG 20010904//EN"
 "http://www.w3.org/TR/2001/REC-SVG-20010904/DTD/svg10.dtd">
<svg version="1.0" xmlns="http://www.w3.org/2000/svg"
 width="128.000000pt" height="128.000000pt" viewBox="0 0 128.000000 128.000000"
 preserveAspectRatio="xMidYMid meet">
<metadata>
Created by potrace 1.16, written by Peter Selinger 2001-2019
</metadata>
<g transform="translate(0.000000,128.000000) scale(0.100000,-0.100000)"
fill="#000000" stroke="none">
<path d="M830 1280 c-5 0 -10 -4 -10 -10 0 -5 -24 -10 -52 -10 -29 0 -59 -4
-67 -9 -10 -7 -4 -15 27 -36 37 -24 41 -32 47 -80 4 -30 5 -59 3 -65 -2 -7
-28 -14 -58 -16 -30 -2 -69 -5 -86 -7 -17 -1 -38 -8 -47 -15 -10 -9 -27 -11
-47 -7 -16 4 -37 14 -46 22 -13 14 -17 14 -32 0 -9 -8 -44 -18 -77 -22 -33 -4
-63 -9 -68 -12 -4 -2 -3 -12 3 -22 5 -11 24 -28 43 -38 28 -17 46 -19 117 -15
47 2 91 9 99 15 7 7 33 13 56 14 30 2 44 -1 48 -12 4 -8 -1 -40 -9 -72 -8 -32
-21 -65 -29 -73 -8 -9 -15 -23 -15 -32 0 -8 -11 -25 -25 -38 -13 -12 -32 -45
-41 -72 -9 -28 -26 -55 -40 -64 -13 -9 -26 -23 -29 -32 -2 -10 -21 -30 -41
-46 -24 -19 -39 -25 -46 -18 -6 6 1 28 21 63 22 39 33 76 39 134 6 44 8 94 5
112 -3 17 -11 34 -18 37 -7 2 -32 0 -55 -6 -23 -6 -44 -17 -47 -25 -3 -7 2
-22 11 -32 13 -14 16 -29 11 -57 -4 -22 -10 -50 -15 -64 -5 -14 -11 -37 -14
-52 -4 -15 -19 -42 -35 -60 -15 -18 -36 -57 -45 -86 -10 -29 -28 -65 -40 -80
-13 -15 -29 -39 -37 -53 -8 -14 -36 -58 -63 -97 -29 -43 -46 -77 -43 -87 4 -8
13 -15 22 -15 8 0 26 17 40 38 14 21 38 48 54 60 15 11 38 40 50 64 13 24 39
60 59 80 26 28 39 35 48 27 9 -7 20 -7 36 1 13 7 39 28 59 47 37 35 37 35 69
18 22 -11 46 -15 74 -12 22 3 79 8 126 11 59 3 87 1 92 -7 4 -7 8 -19 8 -27 0
-8 -10 -22 -22 -30 -13 -8 -45 -17 -73 -21 -27 -4 -84 -13 -125 -19 -41 -7
-76 -14 -78 -15 -2 -2 2 -61 9 -131 6 -71 12 -149 13 -174 1 -45 1 -45 156
-44 85 1 191 4 235 7 44 3 110 8 147 12 37 4 72 13 78 20 8 9 8 36 0 92 -7 43
-13 93 -15 112 -2 18 -7 37 -12 42 -6 6 -15 4 -24 -7 -8 -9 -18 -49 -24 -88
-10 -71 -10 -71 -45 -74 -19 -2 -42 -10 -51 -18 -9 -8 -34 -15 -55 -16 -21 0
-48 -5 -59 -11 -11 -6 -40 -11 -65 -12 -25 -1 -67 -5 -95 -9 -36 -5 -55 -4
-68 6 -14 10 -18 30 -21 93 -1 44 -1 88 2 98 2 9 12 17 21 17 9 0 25 7 35 15
11 8 31 15 45 15 14 1 50 9 80 19 30 11 59 27 64 37 6 10 11 31 13 48 2 17 6
55 9 83 4 29 11 55 16 59 5 3 7 9 4 14 -3 4 -28 11 -55 15 -31 4 -55 3 -63 -4
-7 -5 -35 -15 -62 -21 -28 -5 -66 -16 -85 -24 -19 -7 -49 -18 -67 -24 -24 -7
-36 -7 -49 3 -17 12 -17 14 0 49 9 20 22 36 28 36 7 0 21 9 32 19 12 10 44 24
71 31 28 7 75 13 105 14 30 1 64 7 75 13 11 6 39 13 62 16 25 3 46 1 49 -5 4
-6 8 -70 9 -142 0 -72 -4 -158 -11 -191 -9 -41 -9 -65 -2 -78 10 -19 10 -19
29 -1 12 13 24 51 35 119 9 55 22 110 29 121 12 18 11 25 -2 44 -13 18 -14 29
-5 58 9 29 8 40 -5 63 -13 21 -14 31 -5 41 8 11 7 22 -8 46 -11 18 -28 32 -37
32 -10 0 -40 -6 -68 -13 -33 -9 -54 -21 -61 -35 -6 -12 -13 -19 -16 -16 -3 3
-32 -1 -64 -9 -33 -8 -67 -18 -76 -22 -12 -5 -20 -2 -25 11 -4 12 2 24 21 39
14 11 35 38 46 58 11 20 20 43 20 51 0 7 9 16 20 19 11 3 25 17 32 32 10 23
10 28 -5 36 -9 6 -17 16 -17 24 0 8 18 19 43 26 23 6 64 11 91 10 28 -1 79 1
113 5 51 5 63 10 61 22 -2 9 -13 21 -24 27 -12 6 -32 23 -45 38 -24 28 -24 28
-72 8 -27 -12 -55 -21 -63 -21 -11 0 -13 7 -8 28 3 15 8 36 11 47 2 11 7 28 9
37 3 11 -8 31 -30 53 -19 19 -40 35 -46 35z"/>
<path d="M278 90 c-6 0 -7 -7 -4 -16 3 -9 6 -24 6 -35 0 -10 4 -19 9 -19 5 0
13 9 16 20 4 12 1 27 -5 35 -7 8 -17 15 -22 15z"/>
</g>
</svg>
