<?xml version="1.0" standalone="no"?>
<!DOCTYPE svg PUBLIC "-//W3C//DTD SVG 20010904//EN"
 "http://www.w3.org/TR/2001/REC-SVG-20010904/DTD/svg10.dtd">
<svg version="1.0" xmlns="http://www.w3.org/2000/svg"
 width="128.000000pt" height="128.000000pt" viewBox="0 0 128.000000 128.000000"
 preserveAspectRatio="xMidYMid meet">
<metadata>
Created by potrace 1.16, written by Peter Selinger 2001-2019
</metadata>
<g transform="translate(0.000000,128.000000) scale(0.100000,-0.100000)"
fill="#000000" stroke="none">
<path d="M1025 1245 c-110 0 -174 -4 -172 -10 2 -5 18 -14 35 -19 17 -5 33
-14 36 -21 2 -7 -4 -21 -14 -30 -10 -9 -40 -22 -66 -29 -27 -7 -77 -14 -110
-15 -40 -1 -104 -15 -180 -40 -66 -21 -138 -43 -161 -50 -32 -9 -43 -17 -43
-31 0 -11 9 -24 19 -30 11 -5 47 -10 80 -10 33 0 63 -5 66 -10 3 -6 -3 -22
-15 -37 -21 -27 -21 -27 4 -40 24 -13 25 -16 19 -86 -4 -51 -11 -78 -24 -91
-17 -18 -21 -18 -45 -5 -15 8 -36 28 -46 44 -10 17 -18 38 -18 48 0 10 -7 20
-15 23 -8 4 -21 1 -29 -5 -8 -6 -16 -24 -19 -38 -3 -15 -1 -38 4 -52 6 -13 23
-40 40 -60 16 -20 38 -45 49 -56 11 -12 20 -30 20 -42 0 -12 -12 -34 -26 -48
-23 -23 -25 -32 -20 -68 4 -23 15 -50 24 -60 12 -14 24 -17 47 -12 16 3 42 8
58 12 22 4 27 2 27 -13 0 -11 -27 -46 -60 -78 -33 -33 -57 -63 -52 -68 5 -5
24 -3 43 3 19 7 52 25 74 40 22 16 55 32 73 35 20 4 43 2 58 -6 13 -8 38 -36
56 -64 17 -28 57 -77 87 -108 33 -34 65 -58 77 -58 12 0 41 14 65 31 24 18 62
50 84 73 22 22 50 54 62 71 12 16 35 53 52 80 23 38 32 71 41 140 6 50 17 143
23 207 9 83 18 122 30 136 9 10 17 30 17 44 0 14 -6 31 -14 37 -8 6 -16 24
-19 39 -3 15 -10 47 -15 70 -6 28 -22 57 -46 81 -20 20 -36 43 -36 51 0 8 11
33 25 55 13 22 25 47 25 55 0 13 -26 15 -175 15z m-40 -197 c39 -3 80 -11 92
-18 12 -8 29 -30 37 -50 9 -20 17 -76 20 -133 2 -53 0 -123 -6 -155 -5 -31
-10 -77 -11 -102 -2 -25 -8 -55 -15 -67 -6 -12 -12 -33 -12 -48 0 -14 -18 -63
-39 -108 -22 -46 -53 -98 -69 -115 -17 -18 -38 -32 -47 -32 -10 0 -44 16 -77
36 -35 22 -64 47 -70 63 -5 14 -10 50 -10 78 0 35 -5 60 -16 73 -9 11 -42 33
-72 48 -35 18 -56 36 -58 48 -2 11 11 37 28 58 16 22 30 48 30 60 0 11 7 39
16 62 15 39 15 44 0 65 -9 13 -16 33 -16 45 0 12 -7 27 -16 35 -8 7 -22 25
-30 40 -13 26 -12 30 7 48 12 11 55 27 95 36 41 9 93 18 115 19 22 2 43 7 47
11 4 4 39 5 77 3z"/>
<path d="M94 1240 c-29 0 -32 -3 -38 -41 -4 -22 -2 -181 4 -352 5 -172 15
-364 21 -427 6 -63 15 -128 21 -145 6 -16 19 -39 28 -50 9 -11 20 -28 23 -37
5 -13 17 -18 42 -18 29 0 37 5 45 25 6 16 4 49 -6 102 -8 43 -22 101 -30 128
-8 28 -19 82 -25 120 -6 39 -13 102 -15 140 -2 39 -4 79 -5 90 0 11 1 106 4
210 2 105 0 201 -5 215 -5 13 -15 28 -21 32 -7 4 -26 8 -43 8z"/>
</g>
</svg>
