<?xml version="1.0" standalone="no"?>
<!DOCTYPE svg PUBLIC "-//W3C//DTD SVG 20010904//EN"
 "http://www.w3.org/TR/2001/REC-SVG-20010904/DTD/svg10.dtd">
<svg version="1.0" xmlns="http://www.w3.org/2000/svg"
 width="128.000000pt" height="128.000000pt" viewBox="0 0 128.000000 128.000000"
 preserveAspectRatio="xMidYMid meet">
<metadata>
Created by potrace 1.16, written by Peter Selinger 2001-2019
</metadata>
<g transform="translate(0.000000,128.000000) scale(0.100000,-0.100000)"
fill="#000000" stroke="none">
<path d="M746 1280 c-14 0 -30 -8 -35 -19 -6 -10 -8 -21 -5 -24 3 -3 -1 -16
-8 -29 -7 -12 -22 -33 -32 -46 -14 -15 -16 -26 -9 -33 6 -6 18 -6 36 0 14 5
28 19 32 30 3 12 10 21 14 21 4 0 12 -5 18 -11 8 -8 17 -7 32 2 11 8 23 20 26
27 3 8 -3 16 -14 19 -11 3 -21 17 -25 34 -4 23 -11 29 -30 29z"/>
<path d="M418 1220 c-9 0 -19 -7 -22 -16 -3 -8 -1 -25 6 -37 6 -12 25 -37 42
-54 17 -18 33 -33 36 -33 4 0 14 16 23 36 10 20 15 44 12 53 -3 9 -23 24 -43
34 -21 9 -46 17 -54 17z"/>
<path d="M651 1084 c-4 3 -10 3 -13 1 -3 -3 -25 -8 -49 -11 -24 -3 -84 -9
-134 -13 -49 -4 -98 -4 -107 1 -9 4 -26 8 -37 8 -12 0 -21 -6 -21 -13 0 -7 10
-24 21 -36 20 -22 26 -23 109 -16 82 7 89 6 99 -13 6 -12 11 -27 11 -35 0 -7
-17 -19 -37 -26 -21 -6 -58 -13 -82 -14 -25 -2 -46 -8 -48 -13 -2 -7 28 -11
79 -12 64 -2 86 -6 96 -19 6 -9 12 -27 12 -40 0 -21 -3 -23 -40 -17 -21 4 -47
3 -57 -1 -10 -4 -38 -8 -63 -7 -25 0 -53 3 -63 7 -10 4 -29 3 -41 -3 -13 -6
-51 -9 -84 -8 -34 1 -64 5 -68 9 -4 3 -15 2 -25 -4 -11 -5 -19 -16 -19 -24 0
-8 11 -22 24 -30 19 -13 42 -15 111 -11 47 3 97 9 111 12 17 4 24 2 24 -7 0
-8 -8 -26 -18 -40 -9 -14 -31 -42 -49 -62 -17 -19 -48 -48 -70 -64 -21 -16
-55 -44 -75 -63 -21 -18 -38 -37 -38 -42 0 -4 15 -8 33 -8 17 0 47 9 64 20 18
11 33 23 33 27 0 5 14 14 30 22 17 7 62 42 100 78 44 42 70 74 70 87 0 11 -4
26 -8 32 -4 6 -16 14 -26 17 -10 4 -16 11 -12 15 4 4 26 8 49 9 23 1 81 5 128
9 82 6 86 6 92 -15 3 -12 13 -21 24 -21 10 0 43 -23 73 -50 30 -27 63 -50 72
-50 11 0 24 -14 32 -34 8 -19 28 -41 47 -51 19 -10 51 -27 72 -38 31 -16 43
-18 62 -9 15 7 26 8 30 2 4 -6 10 -10 16 -10 5 0 9 9 9 20 0 12 -15 29 -39 44
-21 14 -41 31 -44 38 -3 10 -9 11 -25 1 -18 -11 -23 -10 -32 7 -6 11 -15 20
-20 20 -5 0 -21 11 -36 25 -15 14 -39 28 -53 32 -14 3 -44 18 -66 32 -22 14
-48 33 -58 43 -12 13 -14 18 -5 19 7 1 26 0 42 -1 16 -1 39 3 51 10 17 9 33 8
79 -8 57 -19 59 -19 74 -1 16 19 17 19 33 -2 9 -12 21 -19 28 -15 6 4 11 14
11 23 0 8 -9 17 -20 20 -11 3 -20 11 -20 19 0 7 -8 18 -18 23 -13 7 -35 6 -69
-3 -28 -7 -56 -10 -64 -5 -8 4 -38 6 -66 5 -29 -2 -58 -7 -65 -13 -7 -6 -22
-7 -33 -3 -11 4 -32 5 -47 3 -23 -5 -28 -2 -28 14 0 10 6 27 13 37 8 12 30 20
57 22 24 2 47 9 51 16 5 7 4 17 -2 23 -5 5 -28 9 -50 9 -34 -1 -42 2 -50 24
-5 13 -8 26 -6 28 1 2 34 4 72 5 39 1 76 0 83 -2 8 -2 19 3 25 13 8 12 8 20
-2 32 -9 10 -31 15 -77 15 -35 0 -68 2 -73 5z"/>
<path d="M561 750 c-11 0 -23 -6 -28 -12 -4 -7 -6 -20 -5 -29 2 -9 -9 -26 -23
-38 -15 -11 -24 -24 -21 -30 4 -5 17 -6 34 -1 15 5 45 12 67 17 24 5 41 14 43
24 1 8 -8 27 -22 42 -14 15 -34 27 -45 27z"/>
<path d="M718 618 c-7 -1 -30 -3 -50 -5 -20 -2 -42 -11 -48 -19 -10 -11 -9
-14 4 -14 9 0 28 -12 41 -26 20 -21 22 -30 14 -46 -8 -15 -14 -17 -22 -9 -6 6
-19 11 -29 11 -10 0 -29 -6 -41 -14 -12 -8 -38 -17 -58 -21 -35 -6 -36 -5 -43
26 -3 18 -5 33 -4 34 2 1 27 8 57 16 30 8 56 19 58 26 2 6 -4 14 -15 17 -10 3
-45 -2 -78 -13 -32 -10 -76 -22 -96 -25 -24 -4 -38 -12 -38 -22 0 -8 7 -17 15
-20 8 -3 17 -16 21 -27 4 -12 6 -110 6 -217 -2 -179 -4 -197 -22 -223 -12 -15
-18 -32 -15 -37 3 -6 18 -10 32 -10 14 0 37 12 53 28 16 15 45 42 64 59 19 18
40 33 46 33 5 0 10 6 10 14 0 7 9 16 20 19 11 3 20 11 20 17 0 8 -9 10 -27 5
-16 -3 -35 -12 -43 -19 -8 -7 -27 -17 -42 -23 -20 -9 -27 -9 -31 0 -3 7 -3 26
0 42 3 17 7 47 10 68 4 30 13 43 36 58 17 10 50 21 72 24 22 4 56 7 75 8 31 2
35 6 52 52 10 28 18 71 18 97 0 26 5 50 10 53 6 3 10 15 10 26 0 10 -4 19 -9
19 -5 0 -11 9 -14 20 -3 11 -11 19 -19 18z m-114 -148 c12 0 29 -6 38 -12 9
-7 19 -22 22 -33 4 -15 -1 -23 -22 -32 -15 -7 -53 -24 -85 -38 -47 -20 -59
-22 -63 -11 -3 8 -4 29 -2 47 2 27 8 34 34 41 17 4 37 15 44 23 7 8 22 15 34
15z"/>
<path d="M803 380 c-7 0 -13 -11 -13 -25 0 -16 -15 -38 -42 -64 -37 -34 -50
-41 -87 -41 -37 0 -42 -2 -31 -14 6 -8 17 -13 24 -10 7 3 17 -6 23 -19 6 -14
32 -39 58 -56 25 -17 48 -31 51 -31 2 0 4 11 4 24 0 14 5 28 10 31 6 4 10 -8
10 -28 0 -20 7 -41 18 -50 10 -10 30 -17 44 -17 14 0 30 6 36 13 8 9 8 20 -1
36 -7 13 -37 37 -67 52 -30 16 -61 27 -68 24 -7 -3 -15 2 -19 11 -4 10 6 26
25 44 18 16 42 30 54 32 16 2 24 11 26 27 3 17 -4 30 -20 43 -12 9 -29 18 -35
18z"/>
<path d="M1165 40 c-10 0 -15 -6 -13 -16 2 -8 7 -16 13 -17 5 -1 11 6 13 16 2
10 -3 17 -13 17z"/>
</g>
</svg>
