<?xml version="1.0" standalone="no"?>
<!DOCTYPE svg PUBLIC "-//W3C//DTD SVG 20010904//EN"
 "http://www.w3.org/TR/2001/REC-SVG-20010904/DTD/svg10.dtd">
<svg version="1.0" xmlns="http://www.w3.org/2000/svg"
 width="128.000000pt" height="128.000000pt" viewBox="0 0 128.000000 128.000000"
 preserveAspectRatio="xMidYMid meet">
<metadata>
Created by potrace 1.16, written by Peter Selinger 2001-2019
</metadata>
<g transform="translate(0.000000,128.000000) scale(0.100000,-0.100000)"
fill="#000000" stroke="none">
<path d="M687 1246 c-33 36 -33 36 -57 16 -24 -19 -24 -21 -7 -40 10 -11 20
-36 24 -55 5 -36 5 -36 -58 -65 -44 -20 -68 -26 -76 -19 -7 5 -13 26 -13 46 0
20 -5 43 -10 51 -7 12 -13 12 -27 4 -10 -6 -26 -25 -36 -43 -16 -26 -17 -36
-8 -63 7 -18 26 -47 43 -65 18 -18 36 -33 40 -33 4 0 16 7 26 16 9 8 34 26 55
40 21 13 43 22 48 19 5 -4 9 -30 9 -59 0 -28 -5 -57 -12 -64 -7 -7 -27 -12
-44 -12 -18 0 -40 -8 -50 -17 -15 -16 -15 -18 10 -40 15 -13 26 -31 24 -40 -2
-9 -25 -29 -53 -44 -27 -15 -53 -36 -58 -47 -5 -11 -21 -26 -36 -32 -14 -6
-46 -29 -71 -51 -25 -23 -63 -57 -85 -75 -32 -29 -38 -38 -29 -52 7 -11 27
-18 53 -20 29 -2 43 1 47 12 3 8 18 18 34 21 15 3 42 17 61 31 18 13 37 24 42
24 5 0 39 14 75 31 37 17 91 42 119 55 29 13 59 21 67 18 9 -4 12 -12 8 -23
-4 -10 -49 -47 -101 -82 -52 -35 -96 -69 -98 -75 -2 -7 4 -19 13 -28 10 -10
28 -16 47 -14 16 2 32 -2 34 -8 2 -6 -8 -26 -22 -43 -15 -17 -33 -31 -40 -31
-8 0 -25 -5 -38 -11 -13 -6 -31 -23 -40 -39 -12 -20 -15 -40 -11 -73 5 -31 2
-51 -9 -68 -9 -13 -19 -52 -23 -86 -5 -50 -3 -68 10 -88 12 -18 25 -25 49 -25
22 0 41 9 60 27 15 16 45 49 67 74 22 25 40 51 40 56 0 6 7 16 15 23 8 7 15
21 15 31 0 12 11 24 26 29 14 6 30 8 35 4 5 -3 9 -10 9 -15 0 -5 10 -23 21
-39 12 -16 35 -34 50 -41 23 -9 36 -9 59 1 19 8 30 20 30 32 0 12 -11 23 -30
29 -16 6 -30 13 -30 17 0 3 14 27 31 54 17 26 29 54 26 61 -2 6 -21 18 -42 26
-34 12 -41 11 -79 -9 -24 -12 -54 -32 -67 -44 -13 -12 -32 -25 -41 -28 -9 -4
-25 -20 -34 -35 -10 -15 -33 -45 -51 -65 -18 -21 -35 -49 -39 -63 -3 -14 -18
-32 -33 -40 -17 -8 -32 -10 -42 -5 -11 8 -12 13 -1 30 6 11 12 41 12 67 1 32
10 67 28 103 26 53 29 55 67 55 36 0 42 4 73 50 21 33 31 57 27 72 -3 12 -1
25 5 28 5 3 10 15 10 27 0 11 -8 22 -20 25 -11 3 -20 11 -20 19 0 7 7 19 16
26 8 7 23 21 32 31 9 10 35 27 56 38 22 10 45 19 50 19 6 0 23 6 37 14 14 7
47 16 72 20 31 5 52 14 62 29 8 12 15 29 15 38 0 9 -9 24 -20 34 -15 14 -28
16 -62 11 -24 -4 -54 -9 -68 -12 -14 -2 -49 -9 -78 -14 -29 -6 -72 -19 -95
-29 -23 -10 -48 -26 -56 -35 -7 -9 -21 -16 -31 -16 -10 0 -34 -7 -55 -16 -20
-8 -42 -13 -47 -12 -6 2 10 25 35 50 26 25 47 51 47 57 0 6 7 11 15 11 7 0 18
-7 23 -16 6 -11 16 -14 30 -10 12 4 23 19 26 34 4 15 8 57 11 94 2 37 -1 70
-6 73 -5 4 -5 14 1 26 9 16 21 19 79 17 60 -1 72 2 104 26 28 21 37 36 37 58
0 18 -6 31 -17 35 -10 4 -20 9 -23 13 -3 3 -21 15 -40 26 -33 19 -38 20 -67 6
-17 -8 -39 -12 -48 -8 -10 4 -15 12 -11 21 3 10 -7 30 -27 51z m87 -137 c5 -5
4 -14 -4 -24 -7 -8 -21 -15 -31 -15 -11 0 -19 6 -19 13 0 8 10 19 23 24 12 6
26 7 31 2z"/>
</g>
</svg>
