<?xml version="1.0" standalone="no"?>
<!DOCTYPE svg PUBLIC "-//W3C//DTD SVG 20010904//EN"
 "http://www.w3.org/TR/2001/REC-SVG-20010904/DTD/svg10.dtd">
<svg version="1.0" xmlns="http://www.w3.org/2000/svg"
 width="128.000000pt" height="128.000000pt" viewBox="0 0 128.000000 128.000000"
 preserveAspectRatio="xMidYMid meet">
<metadata>
Created by potrace 1.16, written by Peter Selinger 2001-2019
</metadata>
<g transform="translate(0.000000,128.000000) scale(0.100000,-0.100000)"
fill="#000000" stroke="none">
<path d="M248 1260 c-9 0 -26 -9 -40 -20 -14 -10 -33 -39 -42 -64 -15 -39 -17
-75 -14 -241 2 -163 1 -195 -11 -193 -8 2 -18 10 -22 18 -5 8 -14 28 -19 43
-6 17 -15 25 -21 21 -7 -4 -9 -27 -5 -68 4 -33 7 -117 7 -186 1 -69 -4 -154
-11 -190 -6 -36 -18 -85 -27 -110 -8 -25 -15 -65 -14 -90 0 -25 8 -62 17 -82
10 -22 24 -38 34 -38 9 0 26 10 37 22 11 13 31 43 43 68 21 42 22 53 16 180
-3 74 -9 170 -12 214 -6 63 -4 78 7 74 7 -2 18 -25 25 -51 6 -25 29 -76 49
-113 21 -38 54 -83 74 -101 20 -19 56 -45 80 -59 25 -13 51 -22 58 -20 7 3 13
16 13 28 0 16 11 29 38 43 29 15 46 37 77 97 23 43 45 82 51 88 6 6 17 8 26 5
8 -3 25 -27 37 -53 13 -26 39 -71 59 -101 19 -30 48 -78 63 -107 16 -28 45
-79 66 -112 21 -33 50 -83 65 -111 16 -28 34 -51 41 -51 8 0 19 11 25 26 7 15
9 42 6 67 -4 23 -16 59 -28 81 -12 21 -25 46 -31 55 -5 9 -32 53 -59 96 -26
44 -57 92 -67 107 -18 26 -18 28 4 112 16 65 19 90 11 104 -6 9 -23 23 -37 30
-18 9 -27 21 -27 37 0 14 7 44 16 67 9 24 19 52 24 63 4 11 12 31 18 45 7 14
26 52 44 85 18 34 44 76 58 94 14 18 35 44 48 58 19 20 29 24 55 19 17 -3 38
-13 47 -21 9 -9 22 -32 28 -53 6 -20 14 -59 19 -87 6 -40 12 -51 29 -53 15 -2
29 7 43 26 14 20 21 45 21 76 0 42 -5 50 -57 106 -50 52 -64 61 -104 66 -32 5
-49 2 -60 -8 -8 -8 -26 -22 -41 -32 -16 -10 -28 -24 -28 -30 0 -7 -14 -25 -30
-41 -17 -16 -53 -74 -80 -130 -28 -55 -50 -105 -50 -112 0 -6 -9 -33 -21 -60
-12 -26 -24 -68 -28 -93 -5 -35 -10 -45 -25 -45 -13 0 -34 23 -63 72 -28 45
-42 80 -39 90 4 10 24 26 45 36 22 10 42 25 45 33 3 9 2 24 -4 34 -6 12 -27
20 -66 25 -46 5 -59 4 -76 -12 -20 -17 -21 -17 -44 12 -13 17 -33 48 -44 71
-11 22 -33 53 -48 68 -16 15 -39 48 -51 74 -15 33 -36 56 -65 75 -24 15 -50
27 -58 27z m-24 -90 c8 0 42 -31 76 -68 34 -38 68 -82 76 -97 8 -16 30 -48 49
-71 19 -23 35 -49 35 -57 0 -8 -10 -21 -22 -29 -13 -7 -67 -33 -121 -57 -92
-41 -99 -43 -115 -27 -15 15 -17 38 -14 187 1 93 7 181 12 194 5 14 16 25 24
25z m274 -379 c7 -4 22 -20 32 -36 13 -20 16 -34 10 -45 -5 -10 -24 -23 -42
-30 -18 -7 -77 -35 -132 -62 -54 -26 -105 -48 -112 -48 -8 0 -23 20 -35 45
-17 37 -19 48 -9 60 7 8 16 15 21 15 5 0 37 13 71 29 35 15 79 33 98 40 19 6
46 18 60 25 14 8 31 11 38 7z m261 -151 c14 0 23 -9 27 -25 3 -14 4 -32 0 -40
-3 -8 -12 -15 -21 -15 -8 0 -20 11 -27 24 -6 14 -8 32 -5 40 4 9 15 16 26 16z
m-259 -33 c30 -2 35 -6 38 -28 2 -15 -14 -63 -38 -113 -41 -87 -42 -87 -73
-80 -18 3 -51 18 -75 31 -23 14 -53 39 -66 56 -13 17 -22 36 -20 42 3 7 49 30
102 53 61 26 110 40 132 39z"/>
</g>
</svg>
