<?xml version="1.0" standalone="no"?>
<!DOCTYPE svg PUBLIC "-//W3C//DTD SVG 20010904//EN"
 "http://www.w3.org/TR/2001/REC-SVG-20010904/DTD/svg10.dtd">
<svg version="1.0" xmlns="http://www.w3.org/2000/svg"
 width="128.000000pt" height="128.000000pt" viewBox="0 0 128.000000 128.000000"
 preserveAspectRatio="xMidYMid meet">
<metadata>
Created by potrace 1.16, written by Peter Selinger 2001-2019
</metadata>
<g transform="translate(0.000000,128.000000) scale(0.100000,-0.100000)"
fill="#000000" stroke="none">
<path d="M629 1238 c-9 1 -27 -6 -40 -17 -19 -16 -22 -23 -13 -38 6 -10 20
-22 32 -28 12 -5 22 -18 22 -29 0 -11 -12 -40 -27 -65 -14 -25 -34 -57 -45
-70 -10 -13 -18 -20 -18 -15 0 6 -25 31 -56 57 -31 26 -66 47 -79 47 -13 0
-57 -16 -99 -35 -41 -20 -78 -40 -82 -46 -3 -6 -17 -14 -31 -20 -13 -5 -21
-13 -18 -19 3 -5 30 -10 59 -10 28 0 56 4 62 9 5 5 30 11 56 14 47 4 48 4 72
-38 14 -23 32 -47 40 -55 9 -7 16 -20 16 -30 0 -9 -9 -29 -20 -43 -12 -14 -26
-41 -32 -59 -6 -18 -35 -66 -65 -105 -29 -40 -57 -73 -61 -73 -5 0 -16 -16
-25 -35 -9 -19 -21 -35 -26 -35 -5 0 -24 -31 -43 -69 -19 -37 -54 -92 -79
-121 -24 -29 -61 -69 -81 -90 -23 -23 -38 -48 -38 -62 0 -13 7 -31 14 -40 7
-10 25 -18 39 -18 17 0 39 13 62 37 19 20 38 47 41 60 4 13 19 37 35 54 19 20
36 29 51 27 15 -2 31 -18 46 -45 13 -24 31 -43 40 -43 13 0 13 -2 -3 -14 -18
-13 -18 -15 -1 -41 14 -22 22 -26 44 -20 15 4 33 11 39 17 7 6 13 21 13 34 0
12 5 26 11 29 6 4 8 13 5 21 -3 8 6 20 25 30 17 8 37 30 45 50 8 19 21 34 29
34 7 0 35 -18 60 -40 26 -22 60 -47 76 -55 16 -9 29 -19 29 -23 0 -4 14 -15
31 -25 17 -9 37 -17 45 -17 8 0 14 9 14 21 0 12 -10 32 -22 45 -13 13 -28 24
-35 24 -6 0 -19 10 -27 22 -9 12 -16 33 -16 47 0 13 -7 32 -16 42 -9 10 -18
39 -20 66 -2 26 -7 71 -12 99 -4 28 -6 56 -4 62 2 7 10 12 18 12 7 0 20 -13
28 -28 8 -15 26 -34 39 -41 14 -7 23 -19 21 -26 -3 -7 -1 -16 5 -20 7 -3 11 2
11 14 0 12 4 21 10 21 5 0 21 -5 35 -12 14 -6 24 -16 22 -22 -2 -6 -13 -12
-25 -14 -12 -2 -22 -10 -22 -19 0 -8 9 -26 20 -40 11 -14 20 -35 20 -47 0 -11
-14 -34 -30 -50 -17 -16 -30 -38 -30 -48 0 -10 3 -18 8 -18 4 0 18 7 30 16 13
9 29 13 37 10 8 -3 15 -12 15 -20 0 -10 6 -13 15 -10 8 4 15 12 15 20 0 7 11
20 24 29 13 8 31 13 40 9 9 -3 16 -14 16 -24 0 -9 9 -25 20 -35 11 -10 22 -25
25 -34 3 -9 18 -24 33 -33 15 -9 46 -41 67 -71 22 -30 52 -62 67 -71 14 -9 42
-16 62 -16 24 0 36 5 36 14 0 8 -6 16 -12 19 -10 4 -10 7 0 18 6 7 12 18 12
25 0 6 -10 14 -22 18 -13 3 -36 18 -53 33 -16 16 -42 42 -56 58 -14 17 -34 35
-44 41 -11 6 -32 36 -48 68 -25 52 -30 56 -62 56 -18 0 -36 4 -40 10 -3 5 -12
7 -20 3 -8 -3 -15 -16 -15 -30 0 -15 -5 -23 -12 -21 -7 3 -13 24 -15 47 -2 38
-1 42 15 36 9 -5 24 -7 32 -6 8 1 33 3 55 4 22 2 49 8 58 13 10 6 38 29 62 53
23 23 46 53 50 68 3 15 17 40 31 56 13 16 24 33 24 37 0 5 -10 19 -22 30 -19
18 -21 23 -10 41 7 11 10 29 7 40 -5 15 -10 17 -20 9 -9 -8 -15 -8 -20 0 -3 5
-4 14 0 20 3 5 12 7 20 3 8 -3 15 -1 15 5 0 5 -9 12 -20 15 -11 3 -20 12 -20
20 0 9 5 19 10 22 6 3 10 17 10 30 0 13 -12 37 -26 54 -24 29 -31 31 -90 31
-53 0 -65 3 -74 20 -6 11 -20 20 -31 20 -11 0 -37 -9 -57 -19 -20 -10 -57 -24
-82 -31 -25 -7 -48 -17 -52 -24 -4 -6 -8 -14 -8 -18 0 -4 7 -14 16 -22 8 -9
13 -20 10 -25 -3 -5 -14 -7 -25 -4 -13 3 -25 -5 -41 -27 -20 -29 -26 -31 -59
-25 -20 3 -46 17 -58 31 -13 14 -23 31 -23 38 0 8 16 26 35 40 19 15 35 35 35
46 0 10 16 38 36 62 20 23 41 52 46 64 7 14 5 32 -6 57 -11 29 -21 37 -40 37
-18 0 -25 6 -28 22 -2 13 -10 24 -19 26z m342 -344 c16 -8 29 -18 29 -23 0 -5
11 -12 25 -15 18 -5 25 -13 25 -30 0 -12 9 -31 20 -41 11 -10 20 -24 20 -30 0
-7 -10 -34 -22 -61 -12 -27 -21 -57 -19 -66 1 -9 -7 -34 -18 -56 -11 -21 -27
-44 -35 -51 -9 -8 -16 -21 -16 -31 0 -10 -7 -23 -15 -30 -8 -7 -22 -9 -31 -6
-9 3 -18 15 -21 26 -3 11 -13 22 -24 25 -10 3 -21 15 -24 26 -4 10 -10 19 -15
19 -5 0 -39 25 -77 56 -41 34 -69 65 -70 78 -1 11 -4 31 -5 44 -2 19 6 28 38
46 23 12 64 41 92 64 27 23 56 42 63 42 8 0 22 7 33 15 16 12 22 12 47 -1z
m-421 -154 c10 0 23 -6 29 -14 6 -8 25 -19 41 -26 17 -7 30 -16 30 -20 0 -4
-12 -7 -26 -7 -14 0 -37 -11 -52 -24 -15 -14 -41 -32 -59 -42 -17 -9 -41 -17
-52 -17 -12 0 -21 5 -21 10 0 6 7 13 15 16 8 3 26 30 40 59 15 29 29 56 32 59
4 3 14 6 23 6z m44 -200 c13 0 27 -7 30 -16 3 -9 4 -20 0 -25 -3 -5 -16 -9
-30 -9 -19 0 -24 5 -24 25 0 20 5 25 24 25z m-122 -50 c4 0 8 -7 8 -15 0 -8
-7 -15 -15 -15 -8 0 -15 4 -15 8 0 5 3 12 7 15 3 4 10 7 15 7z m-126 -47 c8
-3 14 -9 14 -14 0 -5 -9 -9 -20 -9 -11 0 -20 4 -20 8 0 5 3 11 6 15 3 3 12 3
20 0z m99 -15 c17 -3 19 -9 17 -41 -2 -20 -14 -53 -27 -73 -13 -19 -25 -40
-27 -46 -3 -8 -14 -8 -41 1 -36 12 -36 13 -32 59 2 26 4 50 5 53 0 4 19 16 43
28 23 12 51 20 62 19z m666 -198 c5 0 9 -7 9 -15 0 -8 -7 -15 -15 -15 -9 0
-12 6 -9 15 4 8 10 15 15 15z"/>
<path d="M826 248 c-12 3 -17 -1 -14 -10 3 -7 13 -15 22 -16 12 -3 17 1 14 10
-3 7 -13 15 -22 16z"/>
</g>
</svg>
