<?xml version="1.0" standalone="no"?>
<!DOCTYPE svg PUBLIC "-//W3C//DTD SVG 20010904//EN"
 "http://www.w3.org/TR/2001/REC-SVG-20010904/DTD/svg10.dtd">
<svg version="1.0" xmlns="http://www.w3.org/2000/svg"
 width="128.000000pt" height="128.000000pt" viewBox="0 0 128.000000 128.000000"
 preserveAspectRatio="xMidYMid meet">
<metadata>
Created by potrace 1.16, written by Peter Selinger 2001-2019
</metadata>
<g transform="translate(0.000000,128.000000) scale(0.100000,-0.100000)"
fill="#000000" stroke="none">
<path d="M268 1279 c-13 0 -32 -9 -42 -20 -19 -19 -19 -19 0 -34 10 -8 25 -15
31 -15 7 0 20 -11 29 -25 9 -13 24 -27 35 -30 13 -4 19 -16 19 -36 0 -19 10
-39 25 -55 14 -14 25 -28 25 -33 0 -4 -19 -14 -42 -21 -24 -7 -49 -14 -55 -16
-7 -2 -13 -10 -13 -19 0 -8 4 -15 9 -15 5 0 32 7 60 16 51 17 51 17 78 -11 16
-15 35 -39 45 -53 16 -24 15 -26 -10 -46 -15 -12 -47 -32 -72 -44 -25 -13 -60
-34 -79 -48 -19 -13 -43 -24 -54 -24 -18 0 -19 5 -13 58 3 31 9 72 12 90 5 23
3 32 -7 32 -8 0 -19 -4 -26 -8 -7 -4 -14 -51 -17 -121 -3 -63 -10 -119 -15
-124 -6 -6 -6 -17 -2 -26 4 -9 4 -61 -2 -116 -5 -55 -10 -158 -10 -230 -1 -72
2 -147 6 -168 6 -27 13 -37 27 -37 10 0 22 10 26 23 4 12 8 50 9 84 0 34 7 68
14 77 7 9 22 16 32 16 11 0 19 -4 19 -9 0 -4 19 -11 41 -14 34 -4 49 -1 78 19
20 13 52 35 72 48 20 14 45 42 57 64 11 21 28 67 37 100 10 34 15 72 11 85 -3
13 -15 36 -27 50 -14 18 -30 27 -50 27 -22 0 -29 -5 -29 -19 0 -11 -4 -22 -9
-26 -5 -3 -12 4 -16 15 -3 11 -13 20 -20 20 -8 0 -16 -4 -19 -8 -2 -4 2 -22
11 -40 9 -19 23 -32 34 -32 10 0 20 -4 23 -9 3 -5 -1 -14 -9 -21 -8 -7 -15
-23 -15 -36 0 -14 -10 -40 -22 -59 -15 -22 -47 -48 -91 -71 -43 -23 -74 -33
-87 -29 -11 4 -22 16 -24 28 -3 12 -7 36 -9 52 -2 17 -8 39 -12 49 -8 18 -5
19 33 12 39 -6 43 -4 54 19 6 14 19 25 30 25 10 0 27 9 39 21 16 16 20 30 17
62 -3 23 -1 54 4 68 6 17 31 41 69 64 50 31 62 35 75 24 8 -7 22 -25 30 -41 8
-16 23 -28 34 -28 11 0 20 6 20 14 0 8 -9 31 -21 51 -20 34 -20 36 -4 61 16
25 16 28 -3 53 -15 20 -28 26 -57 26 -35 0 -39 3 -52 40 -7 22 -11 45 -9 51 3
7 33 15 68 19 35 4 71 14 80 23 10 8 18 27 18 42 0 16 -11 36 -27 52 -17 16
-44 27 -70 31 -23 3 -56 15 -73 27 -22 15 -30 29 -30 51 0 22 -5 29 -20 29
-15 0 -20 -7 -20 -25 0 -15 7 -40 16 -58 9 -18 35 -48 57 -68 29 -25 39 -40
34 -52 -4 -10 -18 -22 -32 -27 -18 -7 -33 -7 -46 0 -10 6 -19 15 -19 20 0 6
-20 39 -44 74 -24 36 -47 74 -51 85 -3 11 -15 23 -26 26 -10 4 -19 11 -19 16
0 5 -10 9 -22 8z m172 -479 c5 0 11 -4 15 -9 3 -6 -4 -15 -15 -21 -11 -6 -20
-9 -20 -6 0 2 3 11 6 20 3 9 10 16 14 16z m-125 -83 c5 -7 18 -16 28 -20 10
-4 17 -17 17 -31 0 -16 -7 -27 -20 -31 -11 -3 -20 -10 -20 -14 0 -4 -11 -13
-25 -19 -14 -7 -30 -23 -35 -37 -6 -15 -14 -24 -19 -21 -5 3 -7 34 -5 68 1 35
3 66 3 71 1 4 8 7 16 7 8 0 23 9 33 20 14 17 19 18 27 7z m26 -107 c5 0 9 -11
9 -24 0 -14 -5 -28 -11 -31 -6 -4 -12 -5 -14 -4 -2 2 -1 16 2 32 3 15 9 27 14
27z m-113 -190 c3 -7 -2 -16 -9 -21 -7 -4 -15 -6 -18 -4 -2 3 2 12 10 21 9 11
14 13 17 4z"/>
<path d="M938 1079 c-12 -1 -36 -6 -53 -11 -16 -6 -39 -15 -50 -20 -11 -5 -31
-15 -45 -23 -14 -8 -36 -26 -50 -40 -13 -14 -33 -56 -43 -93 -11 -37 -22 -95
-24 -129 -3 -46 -9 -63 -19 -63 -8 0 -17 -7 -20 -15 -4 -9 5 -32 19 -53 24
-34 26 -45 26 -146 0 -66 5 -112 11 -116 6 -4 29 2 53 13 28 13 48 32 60 56
10 20 32 68 48 108 16 39 29 89 29 112 0 22 -5 43 -10 46 -6 4 -17 1 -25 -5
-8 -7 -15 -21 -15 -31 0 -10 -11 -43 -24 -74 -15 -33 -31 -55 -40 -55 -9 0
-16 6 -16 13 0 8 -8 21 -19 31 -12 11 -20 36 -24 74 -4 36 0 80 9 122 9 36 25
84 35 108 11 23 23 42 28 42 5 0 12 8 15 18 3 9 17 29 31 45 19 20 35 27 62
27 23 0 48 -9 69 -25 19 -14 38 -35 44 -45 9 -17 3 -28 -36 -70 -28 -30 -44
-54 -38 -59 5 -5 33 -11 62 -14 48 -6 55 -4 85 23 26 23 30 31 20 41 -7 7 -13
27 -13 44 0 17 -13 52 -29 77 -16 25 -42 55 -59 66 -16 12 -41 22 -54 21z"/>
<path d="M823 410 c-6 0 -15 -5 -18 -11 -4 -6 6 -37 21 -70 16 -32 32 -59 36
-59 4 0 8 -6 8 -13 0 -8 9 -22 19 -31 11 -10 29 -37 41 -59 11 -23 35 -66 53
-95 18 -29 40 -57 48 -63 7 -5 22 -9 32 -9 12 0 17 8 17 28 0 15 -13 48 -28
73 -16 24 -58 82 -93 129 -35 47 -78 106 -94 132 -17 27 -35 48 -42 48z"/>
</g>
</svg>
