<?xml version="1.0" standalone="no"?>
<!DOCTYPE svg PUBLIC "-//W3C//DTD SVG 20010904//EN"
 "http://www.w3.org/TR/2001/REC-SVG-20010904/DTD/svg10.dtd">
<svg version="1.0" xmlns="http://www.w3.org/2000/svg"
 width="128.000000pt" height="128.000000pt" viewBox="0 0 128.000000 128.000000"
 preserveAspectRatio="xMidYMid meet">
<metadata>
Created by potrace 1.16, written by Peter Selinger 2001-2019
</metadata>
<g transform="translate(0.000000,128.000000) scale(0.100000,-0.100000)"
fill="#000000" stroke="none">
<path d="M727 1173 c-7 3 -19 2 -26 -3 -10 -5 -9 -8 2 -13 7 -3 19 -2 26 3 10
5 9 8 -2 13z"/>
<path d="M105 1170 c-8 0 -19 -10 -26 -21 -8 -16 -8 -33 2 -68 10 -38 30 -63
112 -143 55 -54 103 -98 108 -98 5 0 11 -11 15 -24 4 -17 15 -27 35 -31 16 -4
32 -11 35 -17 4 -5 22 -16 40 -24 25 -10 34 -21 34 -37 0 -13 5 -28 10 -33 7
-7 7 -19 2 -35 -6 -13 -19 -33 -31 -43 -12 -11 -21 -31 -21 -48 0 -16 -6 -31
-15 -34 -8 -4 -15 -18 -15 -33 0 -17 -12 -38 -33 -59 -18 -18 -36 -32 -40 -32
-3 0 -18 12 -32 27 -14 15 -25 37 -25 48 0 11 -18 37 -41 58 -25 24 -46 36
-56 33 -11 -5 -14 -14 -9 -36 3 -16 27 -58 54 -92 26 -35 52 -69 56 -76 4 -7
-3 -35 -17 -65 -20 -43 -23 -61 -18 -107 4 -30 10 -61 14 -68 5 -6 14 -12 21
-12 7 0 33 24 59 54 25 30 60 59 77 64 26 10 34 8 60 -14 20 -17 30 -35 30
-53 0 -15 3 -30 6 -34 3 -3 24 4 45 15 25 12 39 27 39 39 0 10 7 19 15 19 8 0
16 3 16 8 1 4 3 18 4 32 2 14 7 39 13 55 6 17 16 50 23 75 6 25 14 52 16 60 4
12 7 10 15 -6 5 -12 25 -28 44 -37 24 -12 34 -23 34 -40 0 -15 15 -37 39 -58
21 -19 46 -52 56 -72 10 -21 31 -45 47 -53 17 -9 32 -14 34 -11 3 2 -3 46 -12
98 -11 61 -17 149 -18 249 0 85 4 173 10 195 9 37 12 40 43 38 19 0 44 -11 58
-25 14 -12 42 -46 63 -73 20 -28 53 -59 72 -69 20 -11 44 -36 56 -60 12 -22
22 -48 22 -57 0 -9 3 -18 6 -22 3 -3 15 -1 25 6 10 6 19 19 19 28 0 9 -7 23
-16 30 -12 10 -15 24 -11 52 3 22 1 50 -5 63 -6 12 -23 28 -39 34 -16 7 -31
21 -34 31 -4 10 -9 19 -13 19 -4 0 -14 -4 -22 -10 -9 -6 -17 -5 -22 3 -4 7 -8
21 -8 32 0 11 -12 31 -25 44 -14 13 -29 21 -32 17 -4 -3 -16 3 -28 14 -21 19
-26 20 -64 8 -33 -10 -46 -21 -56 -45 -7 -17 -28 -39 -45 -48 -31 -16 -32 -17
-26 -73 3 -31 5 -64 5 -72 1 -8 1 -47 1 -86 1 -47 -3 -74 -12 -82 -10 -8 -21
-7 -43 4 -22 10 -34 27 -45 62 -13 40 -20 49 -50 58 -23 8 -35 18 -35 30 0 13
8 20 27 22 24 3 27 6 18 22 -5 10 -7 25 -4 34 4 11 -3 17 -23 22 -15 4 -40 13
-55 21 -19 9 -28 21 -28 37 0 12 11 43 25 67 13 24 34 63 46 86 12 24 19 50
15 58 -3 8 -16 15 -29 15 -14 0 -31 -11 -44 -28 -11 -15 -23 -36 -27 -47 -3
-11 -14 -31 -24 -43 -18 -23 -20 -23 -59 -10 -22 7 -52 28 -67 45 -15 18 -36
35 -48 39 -12 3 -46 34 -77 67 -31 34 -75 80 -98 103 -24 23 -43 49 -43 57 0
8 -9 26 -21 41 -11 14 -27 26 -34 26z m485 -598 c29 -4 30 -6 30 -58 0 -41 4
-54 15 -54 8 0 15 -4 15 -10 0 -5 -10 -10 -22 -10 -19 0 -29 -14 -55 -73 -17
-39 -35 -84 -38 -99 -5 -17 -12 -25 -21 -21 -8 3 -14 16 -14 30 0 13 -10 34
-23 46 -13 12 -32 27 -42 33 -18 10 -18 12 3 57 12 26 32 53 45 62 13 8 30 27
37 43 8 15 20 34 27 43 8 10 23 14 43 11z m234 -242 c2 0 17 -6 34 -13 27 -11
29 -14 16 -31 -13 -19 -14 -19 -34 -1 -11 10 -20 24 -20 32 0 7 2 13 4 13z"/>
<path d="M772 1110 c-11 0 -37 -13 -60 -29 -22 -17 -43 -39 -47 -50 -3 -11 -1
-29 5 -41 6 -11 21 -20 34 -20 19 0 31 13 55 55 17 30 31 62 31 70 0 8 -8 15
-18 15z"/>
<path d="M45 890 c-6 0 -17 -11 -23 -25 -7 -14 -12 -30 -12 -34 0 -5 7 -24 15
-42 8 -19 26 -52 38 -74 13 -22 30 -40 38 -40 7 0 15 8 17 19 2 10 -1 28 -6
40 -6 11 -16 45 -22 75 -6 30 -15 61 -22 68 -6 7 -16 13 -23 13z"/>
</g>
</svg>
