<?xml version="1.0" standalone="no"?>
<!DOCTYPE svg PUBLIC "-//W3C//DTD SVG 20010904//EN"
 "http://www.w3.org/TR/2001/REC-SVG-20010904/DTD/svg10.dtd">
<svg version="1.0" xmlns="http://www.w3.org/2000/svg"
 width="128.000000pt" height="128.000000pt" viewBox="0 0 128.000000 128.000000"
 preserveAspectRatio="xMidYMid meet">
<metadata>
Created by potrace 1.16, written by Peter Selinger 2001-2019
</metadata>
<g transform="translate(0.000000,128.000000) scale(0.100000,-0.100000)"
fill="#000000" stroke="none">
<path d="M962 1220 c-15 0 -37 -6 -47 -14 -11 -8 -16 -20 -12 -29 3 -9 23 -19
44 -23 21 -4 50 -13 65 -20 14 -8 36 -26 47 -40 12 -15 21 -35 21 -44 0 -10
-10 -24 -22 -33 -18 -12 -20 -16 -8 -20 8 -3 27 -8 41 -11 15 -3 30 -13 33
-22 4 -9 -1 -28 -10 -41 -15 -24 -15 -26 11 -53 27 -28 27 -28 4 -69 -17 -31
-20 -44 -11 -53 9 -9 18 -9 37 0 14 6 25 18 25 25 0 8 21 19 50 26 28 7 50 18
50 23 0 6 -7 16 -16 22 -11 8 -13 20 -9 39 4 15 11 27 16 27 5 0 9 6 9 14 0 8
-8 17 -17 21 -10 5 -25 7 -35 6 -9 -1 -22 11 -31 28 -10 19 -11 28 -3 25 6 -2
20 2 30 9 15 11 16 17 7 34 -6 12 -34 41 -63 65 -29 23 -64 49 -78 57 -14 8
-42 23 -62 33 -20 10 -50 18 -66 18z"/>
<path d="M216 1200 c-7 0 -21 -9 -30 -19 -17 -19 -16 -20 28 -40 25 -11 46
-25 46 -31 0 -5 11 -20 25 -32 14 -12 25 -27 25 -33 0 -6 11 -22 24 -34 13
-12 32 -21 42 -19 13 2 18 -2 16 -12 -1 -8 -7 -26 -13 -40 -7 -20 -21 -28 -60
-37 -28 -7 -87 -27 -130 -44 -43 -17 -85 -29 -93 -26 -9 4 -20 31 -27 67 -7
36 -16 59 -23 57 -8 -3 -11 -71 -11 -223 0 -120 -4 -280 -9 -354 -9 -135 -9
-135 27 -211 20 -42 43 -82 51 -88 8 -7 23 -11 33 -9 10 2 21 18 27 38 5 19
15 38 20 42 6 4 34 5 62 1 29 -3 75 0 103 7 40 9 65 24 106 64 38 36 65 74 90
128 21 45 40 106 46 144 5 36 6 77 3 92 -3 15 -10 38 -15 52 -5 14 -26 35 -45
48 -21 14 -43 21 -52 17 -10 -4 -42 -13 -72 -21 -30 -8 -70 -21 -88 -29 -17
-8 -47 -21 -65 -29 -17 -7 -44 -19 -58 -26 -15 -6 -35 -10 -45 -8 -15 2 -20
15 -25 53 -4 28 -10 64 -13 81 -5 20 -3 34 6 41 7 6 53 19 103 28 50 10 107
26 127 36 21 11 44 19 51 19 8 0 20 7 27 15 10 12 16 13 27 3 8 -6 24 -30 35
-52 11 -23 37 -57 57 -77 20 -20 57 -65 84 -101 31 -43 47 -75 47 -95 0 -16
-5 -34 -11 -40 -6 -6 -13 -40 -16 -75 -4 -44 -1 -74 10 -101 9 -20 21 -37 26
-37 6 0 27 11 48 25 21 14 43 29 50 35 7 5 17 10 22 10 6 0 18 -17 27 -37 10
-21 38 -65 63 -98 25 -33 52 -71 60 -85 8 -14 22 -42 33 -62 12 -24 26 -38 38
-38 10 0 28 12 39 27 12 14 24 36 27 49 3 12 0 32 -6 44 -7 13 -54 72 -106
131 -51 60 -98 118 -103 128 -8 14 -7 22 5 32 8 7 21 24 28 38 7 14 16 40 19
58 4 18 1 46 -4 63 -6 17 -19 35 -29 40 -10 6 -43 10 -74 10 -30 0 -58 4 -61
10 -3 5 4 49 16 97 12 48 30 115 42 148 11 33 33 88 48 123 16 34 29 74 29 88
0 21 -4 25 -22 22 -13 -2 -24 -11 -27 -23 -2 -11 -21 -58 -43 -104 -22 -46
-53 -139 -70 -207 -19 -80 -35 -125 -45 -128 -9 -4 -21 -1 -29 5 -7 5 -22 29
-34 52 -12 23 -33 54 -46 70 -13 16 -24 32 -24 37 0 5 16 21 36 36 20 16 38
39 41 56 3 16 10 31 15 34 5 3 2 15 -8 25 -9 10 -29 19 -44 19 -15 0 -41 -3
-58 -6 -22 -5 -34 -14 -41 -35 -7 -22 -16 -29 -35 -29 -20 0 -26 5 -26 20 0
12 -7 35 -17 53 -9 18 -33 55 -53 82 -20 28 -48 55 -61 61 -13 6 -37 17 -52
23 -15 6 -34 11 -41 11z m307 -532 c6 -3 13 -11 14 -19 2 -8 -6 -25 -17 -39
-16 -20 -22 -23 -37 -14 -10 6 -18 17 -18 25 0 8 10 15 23 17 12 2 22 10 22
19 0 8 6 13 13 11z m-222 -68 c6 0 9 -8 7 -17 -2 -10 -11 -19 -21 -21 -16 -3
-17 -1 -7 17 6 12 15 21 21 21z m112 -30 c5 0 17 -5 28 -10 12 -7 19 -21 19
-40 0 -16 -12 -55 -26 -86 -14 -31 -47 -78 -73 -104 -26 -26 -59 -54 -73 -64
-19 -12 -36 -15 -67 -10 -22 4 -47 12 -55 18 -10 8 -15 42 -18 131 -3 115 -2
120 17 117 11 -2 48 -4 82 -4 46 1 73 7 110 26 26 14 52 25 56 26z"/>
</g>
</svg>
