<?xml version="1.0" standalone="no"?>
<!DOCTYPE svg PUBLIC "-//W3C//DTD SVG 20010904//EN"
 "http://www.w3.org/TR/2001/REC-SVG-20010904/DTD/svg10.dtd">
<svg version="1.0" xmlns="http://www.w3.org/2000/svg"
 width="56.000000pt" height="56.000000pt" viewBox="0 0 56.000000 56.000000"
 preserveAspectRatio="xMidYMid meet">
<metadata>
Created by potrace 1.16, written by Peter Selinger 2001-2019
</metadata>
<g transform="translate(0.000000,56.000000) scale(0.100000,-0.100000)"
fill="#000000" stroke="none">
<path d="M284 530 c-7 0 -21 -15 -31 -32 -9 -18 -16 -39 -15 -46 2 -7 -13 -19
-32 -27 -19 -8 -37 -19 -41 -25 -3 -5 -10 -10 -15 -10 -5 0 -12 9 -15 20 -3
11 -14 20 -24 20 -9 0 -26 7 -37 15 -10 8 -27 15 -36 15 -9 0 -19 -4 -22 -9
-3 -5 6 -31 21 -57 15 -27 37 -62 50 -77 13 -16 23 -35 23 -43 0 -8 -11 -19
-24 -23 -13 -5 -35 -30 -50 -54 -14 -25 -26 -57 -26 -72 0 -14 7 -28 15 -31 8
-3 30 3 48 15 19 12 41 21 50 21 8 0 18 -8 21 -17 4 -10 17 -36 29 -58 15 -25
31 -40 43 -40 15 0 20 8 22 43 2 24 -3 53 -10 65 -7 12 -13 51 -13 87 0 36 4
72 8 81 6 11 0 19 -18 27 -14 7 -28 12 -32 12 -3 0 -3 -7 1 -15 3 -9 0 -15 -9
-15 -11 0 -13 8 -8 33 3 17 6 33 7 34 1 1 20 -7 43 -17 41 -18 41 -18 74 11
18 16 51 34 73 40 28 8 46 8 63 0 13 -6 30 -26 38 -43 9 -22 10 -39 4 -50 -5
-10 -20 -18 -32 -18 -12 0 -32 -6 -43 -14 -16 -12 -20 -24 -18 -58 2 -24 3
-46 3 -50 1 -5 12 -8 25 -8 13 0 27 -7 30 -16 3 -9 6 -28 6 -43 0 -15 -7 -36
-15 -47 -8 -10 -15 -25 -15 -31 0 -9 15 -13 43 -13 33 0 49 6 65 23 12 13 22
29 22 35 0 7 7 15 15 18 8 4 15 10 15 14 0 4 -11 11 -25 14 -14 4 -28 13 -32
21 -3 8 4 23 14 33 18 16 19 26 13 124 -4 74 -12 114 -23 132 -10 14 -25 26
-35 26 -10 0 -53 18 -96 40 -43 22 -84 40 -92 40z"/>
</g>
</svg>
