<?xml version="1.0" standalone="no"?>
<!DOCTYPE svg PUBLIC "-//W3C//DTD SVG 20010904//EN"
 "http://www.w3.org/TR/2001/REC-SVG-20010904/DTD/svg10.dtd">
<svg version="1.0" xmlns="http://www.w3.org/2000/svg"
 width="56.000000pt" height="56.000000pt" viewBox="0 0 56.000000 56.000000"
 preserveAspectRatio="xMidYMid meet">
<metadata>
Created by potrace 1.16, written by Peter Selinger 2001-2019
</metadata>
<g transform="translate(0.000000,56.000000) scale(0.100000,-0.100000)"
fill="#000000" stroke="none">
<path d="M229 518 c-20 2 -32 -6 -55 -35 -15 -21 -39 -46 -51 -56 -13 -10 -23
-29 -23 -42 0 -12 -7 -25 -15 -29 -8 -3 -12 -12 -9 -19 3 -8 -2 -17 -11 -21
-12 -4 -15 -12 -10 -24 4 -9 8 -33 9 -52 2 -19 -4 -43 -12 -52 -8 -10 -12 -23
-9 -31 4 -10 -1 -13 -19 -9 -17 3 -24 0 -24 -11 0 -8 10 -17 21 -20 12 -3 35
-3 50 0 18 3 29 1 29 -5 0 -6 7 -9 15 -6 10 4 13 2 10 -8 -3 -8 -1 -27 5 -42
7 -18 16 -26 28 -24 11 2 16 12 15 28 -1 14 7 48 17 75 10 28 21 59 26 70 4
11 6 28 5 38 -2 10 9 35 22 55 14 21 47 49 75 63 50 27 50 27 72 -25 12 -28
26 -59 31 -68 5 -10 9 -27 9 -39 0 -14 -5 -19 -15 -16 -8 4 -17 2 -20 -3 -4
-6 -18 -10 -33 -10 -15 0 -40 -11 -57 -24 -26 -21 -28 -26 -18 -49 7 -16 23
-28 42 -32 22 -5 41 0 71 16 35 20 43 21 65 9 14 -7 25 -18 25 -24 0 -6 8 -21
18 -34 12 -15 24 -21 35 -16 9 3 17 16 17 28 0 13 -21 44 -50 74 -43 44 -49
55 -45 84 2 18 2 49 -1 69 -4 22 -18 49 -35 65 -16 16 -38 37 -50 48 -18 16
-27 17 -57 8 -19 -6 -38 -9 -42 -7 -4 3 -11 19 -15 37 -4 18 -8 40 -9 48 0 8
-13 16 -27 18z m-35 -68 c8 0 16 -18 20 -46 3 -26 6 -60 6 -75 0 -22 -5 -29
-19 -29 -11 0 -32 -11 -47 -25 -15 -14 -30 -25 -34 -25 -4 0 -11 7 -14 16 -4
9 -2 22 4 29 7 8 7 15 1 19 -5 3 -7 16 -4 29 3 12 11 27 17 32 7 6 22 25 35
43 12 17 28 32 35 32z m-42 -258 c5 -5 8 -20 6 -33 -2 -16 -11 -25 -25 -27
-14 -2 -23 2 -23 10 0 7 7 24 16 37 11 15 20 19 26 13z"/>
</g>
</svg>
