<?xml version="1.0" standalone="no"?>
<!DOCTYPE svg PUBLIC "-//W3C//DTD SVG 20010904//EN"
 "http://www.w3.org/TR/2001/REC-SVG-20010904/DTD/svg10.dtd">
<svg version="1.0" xmlns="http://www.w3.org/2000/svg"
 width="56.000000pt" height="56.000000pt" viewBox="0 0 56.000000 56.000000"
 preserveAspectRatio="xMidYMid meet">
<metadata>
Created by potrace 1.16, written by Peter Selinger 2001-2019
</metadata>
<g transform="translate(0.000000,56.000000) scale(0.100000,-0.100000)"
fill="#000000" stroke="none">
<path d="M270 560 c-10 0 -21 -8 -25 -17 -5 -10 -9 -31 -10 -48 -1 -16 -9 -47
-18 -67 -9 -21 -21 -38 -26 -38 -6 0 -12 12 -13 28 -1 15 -2 37 -2 49 -1 11
-4 25 -8 29 -4 4 -15 1 -24 -7 -13 -11 -15 -25 -11 -77 6 -59 4 -65 -18 -86
-14 -13 -25 -33 -25 -44 0 -11 4 -23 9 -27 5 -3 21 0 34 6 20 9 30 8 50 -6 15
-9 31 -14 37 -10 5 3 10 0 10 -8 0 -7 -29 -33 -65 -56 -38 -24 -70 -52 -75
-67 -6 -14 -10 -27 -10 -30 0 -2 8 -4 18 -4 9 0 28 6 42 13 14 7 43 18 65 24
22 7 67 19 101 27 33 9 70 16 82 16 12 0 22 -6 22 -12 0 -7 -10 -29 -22 -48
-11 -19 -29 -50 -40 -68 -18 -33 -18 -33 9 -30 21 2 33 15 58 60 17 32 36 63
43 70 7 7 12 21 12 33 0 12 -6 29 -13 40 -10 12 -21 16 -38 12 -13 -3 -58 -17
-98 -31 -41 -15 -81 -25 -89 -24 -8 2 7 17 34 35 27 17 82 62 122 99 50 47 72
75 72 91 0 13 -6 38 -14 56 -7 18 -23 41 -35 52 -22 19 -22 19 -72 -9 -28 -15
-53 -25 -56 -22 -3 3 -1 18 4 33 5 15 7 36 5 46 -2 9 -12 17 -22 17z m100
-113 c8 -1 16 -10 18 -21 2 -10 -6 -27 -17 -38 -12 -11 -25 -33 -28 -50 -4
-20 -20 -40 -46 -59 -22 -16 -45 -28 -50 -26 -5 1 -15 21 -23 42 -11 31 -11
46 -3 67 8 19 31 37 73 58 33 16 68 29 76 27z"/>
</g>
</svg>
