<?xml version="1.0" standalone="no"?>
<!DOCTYPE svg PUBLIC "-//W3C//DTD SVG 20010904//EN"
 "http://www.w3.org/TR/2001/REC-SVG-20010904/DTD/svg10.dtd">
<svg version="1.0" xmlns="http://www.w3.org/2000/svg"
 width="56.000000pt" height="56.000000pt" viewBox="0 0 56.000000 56.000000"
 preserveAspectRatio="xMidYMid meet">
<metadata>
Created by potrace 1.16, written by Peter Selinger 2001-2019
</metadata>
<g transform="translate(0.000000,56.000000) scale(0.100000,-0.100000)"
fill="#000000" stroke="none">
<path d="M354 480 c-8 0 -17 -7 -20 -15 -4 -8 -1 -22 6 -30 9 -10 9 -15 1 -15
-6 0 -21 -16 -33 -35 -13 -19 -27 -35 -32 -35 -5 0 -18 -8 -28 -17 -17 -15
-19 -15 -33 3 -8 10 -21 34 -30 52 -9 18 -21 30 -27 26 -6 -4 -8 -24 -5 -48 3
-22 9 -50 12 -61 5 -18 -1 -23 -44 -39 -31 -11 -64 -33 -86 -57 -20 -23 -35
-49 -35 -64 0 -17 8 -29 25 -37 21 -9 30 -7 65 16 22 14 56 42 76 61 33 33 38
34 54 20 9 -8 20 -15 24 -15 4 0 16 10 27 23 11 13 19 38 19 62 0 22 4 45 8
50 4 6 16 11 27 12 11 1 42 7 69 12 29 7 54 7 59 2 5 -5 6 -29 2 -54 -6 -40
-11 -47 -35 -52 -15 -3 -36 -15 -45 -25 -10 -11 -15 -26 -12 -35 4 -8 13 -15
22 -15 8 0 15 -6 15 -14 0 -8 -22 -24 -50 -37 -27 -13 -50 -30 -50 -36 0 -7 9
-13 21 -13 11 0 33 9 48 19 16 12 36 18 48 15 15 -4 22 0 26 15 3 12 14 24 25
28 10 5 36 22 56 40 20 18 36 38 36 46 0 7 -13 18 -30 24 -27 10 -30 16 -30
55 0 26 -8 52 -19 67 -14 18 -25 22 -47 18 -16 -3 -40 -8 -54 -12 -23 -6 -23
-5 8 22 18 15 32 33 32 39 0 6 -11 16 -25 22 -14 7 -33 12 -41 12z m-171 -220
c4 0 7 -4 7 -9 0 -5 -14 -21 -31 -35 -17 -15 -45 -34 -61 -42 -16 -9 -32 -14
-34 -11 -2 2 5 16 17 31 11 14 37 35 57 46 21 10 40 19 45 20z m252 -26 c7 -3
11 -14 8 -25 -3 -11 -10 -22 -15 -25 -5 -3 -16 0 -24 7 -13 10 -13 14 2 30 9
10 22 15 29 13z m73 -5 c1 1 2 -6 2 -14 0 -8 -7 -15 -15 -15 -8 0 -15 4 -15 9
0 5 6 12 13 14 6 3 13 6 15 6z"/>
<path d="M265 117 c-6 2 -15 -5 -22 -16 -6 -10 -9 -22 -6 -25 4 -3 15 -6 25
-6 14 0 19 6 16 22 -2 12 -8 23 -13 25z"/>
</g>
</svg>
