<?xml version="1.0" standalone="no"?>
<!DOCTYPE svg PUBLIC "-//W3C//DTD SVG 20010904//EN"
 "http://www.w3.org/TR/2001/REC-SVG-20010904/DTD/svg10.dtd">
<svg version="1.0" xmlns="http://www.w3.org/2000/svg"
 width="56.000000pt" height="56.000000pt" viewBox="0 0 56.000000 56.000000"
 preserveAspectRatio="xMidYMid meet">
<metadata>
Created by potrace 1.16, written by Peter Selinger 2001-2019
</metadata>
<g transform="translate(0.000000,56.000000) scale(0.100000,-0.100000)"
fill="#000000" stroke="none">
<path d="M235 500 c-8 0 -21 -15 -28 -32 -8 -18 -17 -49 -21 -69 -3 -21 -13
-43 -22 -50 -8 -7 -33 -13 -56 -13 -37 -1 -44 -5 -74 -50 -21 -30 -34 -60 -34
-80 0 -18 5 -37 12 -44 7 -7 31 -12 55 -12 24 0 51 4 61 9 9 4 43 21 76 37 38
19 66 41 79 62 11 20 26 32 36 30 10 -2 17 -15 19 -37 2 -19 1 -45 -3 -59 -5
-21 -10 -23 -35 -19 -16 4 -49 -1 -75 -9 -35 -12 -49 -24 -59 -48 -8 -17 -10
-35 -5 -40 5 -6 31 -9 57 -9 27 0 60 6 73 13 13 7 34 22 47 33 23 21 23 21 95
-15 40 -20 84 -40 100 -43 21 -6 27 -4 27 9 0 10 -14 30 -32 46 -22 20 -51 33
-90 41 -45 9 -58 16 -58 30 0 10 5 21 10 24 6 3 10 17 10 30 0 13 -11 37 -25
53 -14 17 -25 38 -25 48 1 11 7 30 15 44 8 14 14 39 15 56 0 16 -5 35 -12 42
-7 7 -19 12 -26 12 -8 0 -40 -26 -70 -57 -42 -45 -52 -52 -47 -33 4 14 14 38
22 53 7 15 11 32 8 37 -3 6 -13 10 -20 10z m96 -67 c6 -6 4 -22 -6 -46 -12
-28 -21 -37 -40 -37 -13 0 -27 5 -30 10 -4 6 10 27 30 47 23 23 39 33 46 26z
m-80 -114 c3 1 9 -2 12 -5 3 -4 2 -15 -4 -25 -5 -11 -16 -19 -24 -19 -8 0 -15
9 -15 19 0 11 6 22 13 24 6 3 15 6 18 6z m-96 -13 c6 -1 11 -14 11 -27 1 -13
5 -31 8 -40 4 -9 1 -20 -6 -26 -7 -6 -33 -13 -57 -16 -24 -3 -50 -3 -57 0 -8
3 -14 14 -14 25 0 11 13 26 31 36 17 9 41 25 53 34 11 10 26 16 31 14z m91
-166 c13 0 24 -4 24 -9 0 -5 -9 -12 -20 -16 -11 -3 -24 -3 -30 0 -6 4 -8 11
-5 16 4 5 17 9 31 9z"/>
</g>
</svg>
