<?xml version="1.0" standalone="no"?>
<!DOCTYPE svg PUBLIC "-//W3C//DTD SVG 20010904//EN"
 "http://www.w3.org/TR/2001/REC-SVG-20010904/DTD/svg10.dtd">
<svg version="1.0" xmlns="http://www.w3.org/2000/svg"
 width="56.000000pt" height="56.000000pt" viewBox="0 0 56.000000 56.000000"
 preserveAspectRatio="xMidYMid meet">
<metadata>
Created by potrace 1.16, written by Peter Selinger 2001-2019
</metadata>
<g transform="translate(0.000000,56.000000) scale(0.100000,-0.100000)"
fill="#000000" stroke="none">
<path d="M410 500 c-8 0 -33 -15 -55 -32 -22 -18 -53 -45 -70 -60 -16 -15 -36
-28 -43 -28 -8 0 -10 8 -6 26 5 18 0 32 -17 50 -13 14 -34 24 -51 24 -17 0
-28 -5 -28 -13 0 -8 11 -20 25 -27 17 -9 25 -22 25 -40 0 -15 -10 -40 -22 -55
-21 -27 -21 -27 -45 24 -14 28 -31 51 -39 51 -8 0 -14 -9 -14 -19 0 -11 4 -22
9 -25 4 -3 11 -25 14 -48 3 -26 0 -55 -9 -76 -7 -19 -30 -56 -49 -82 -28 -38
-34 -55 -29 -74 4 -18 13 -26 28 -26 12 0 34 16 52 37 27 32 34 36 47 25 13
-11 16 -10 20 5 3 10 9 34 13 53 3 19 15 50 25 70 10 19 40 55 67 80 26 25 66
60 89 78 23 17 46 32 52 32 6 0 18 -11 27 -25 13 -20 15 -38 10 -79 -3 -30 -9
-61 -12 -70 -3 -8 -20 -20 -37 -26 -18 -5 -45 -20 -61 -33 -25 -20 -27 -26
-17 -45 6 -12 21 -22 33 -22 12 0 36 12 55 26 21 16 40 23 52 19 11 -3 25 -13
32 -21 11 -14 10 -18 -3 -28 -10 -6 -42 -26 -73 -45 -30 -18 -55 -37 -55 -42
0 -5 17 -9 39 -9 22 0 44 6 51 15 7 9 28 23 47 31 18 9 39 26 45 38 6 11 16
24 21 28 7 4 1 15 -14 28 -13 11 -37 27 -52 36 -22 12 -27 20 -21 37 3 12 13
34 20 49 8 15 14 39 14 53 0 14 -6 41 -14 59 -8 18 -24 43 -37 55 -12 11 -30
21 -39 21z"/>
</g>
</svg>
