<?xml version="1.0" standalone="no"?>
<!DOCTYPE svg PUBLIC "-//W3C//DTD SVG 20010904//EN"
 "http://www.w3.org/TR/2001/REC-SVG-20010904/DTD/svg10.dtd">
<svg version="1.0" xmlns="http://www.w3.org/2000/svg"
 width="56.000000pt" height="56.000000pt" viewBox="0 0 56.000000 56.000000"
 preserveAspectRatio="xMidYMid meet">
<metadata>
Created by potrace 1.16, written by Peter Selinger 2001-2019
</metadata>
<g transform="translate(0.000000,56.000000) scale(0.100000,-0.100000)"
fill="#000000" stroke="none">
<path d="M262 560 c-23 0 -30 -6 -40 -33 -7 -18 -12 -45 -12 -58 0 -14 -4 -29
-8 -35 -5 -5 -14 -29 -21 -54 -8 -25 -17 -56 -22 -70 -4 -14 -9 -43 -11 -64
-2 -32 -12 -48 -51 -85 -34 -33 -49 -56 -53 -82 -4 -26 -1 -40 11 -52 9 -9 20
-17 25 -17 5 0 23 15 39 32 26 28 33 31 50 21 14 -9 21 -9 30 0 6 6 11 17 11
24 0 8 -7 28 -16 44 -14 28 -14 33 0 47 8 10 43 45 77 80 35 34 68 62 75 62 7
0 19 -3 28 -6 9 -3 16 -14 16 -24 0 -9 9 -25 19 -34 19 -17 20 -17 26 17 6 30
3 40 -19 63 -20 22 -34 28 -63 27 -28 -1 -42 4 -54 19 -9 12 -23 19 -31 15
-10 -3 -15 -19 -15 -46 0 -22 -8 -52 -17 -66 -9 -14 -23 -25 -31 -25 -8 0 -15
5 -15 10 0 6 6 25 14 43 7 18 16 55 20 82 4 28 21 73 37 101 16 28 29 54 29
58 0 3 -13 6 -28 6z m-130 -420 c4 0 8 -4 8 -8 0 -5 -9 -17 -20 -27 -16 -14
-20 -15 -20 -4 0 8 5 20 12 27 7 7 16 12 20 12z"/>
<path d="M406 180 c-2 0 -8 -4 -11 -10 -3 -5 -17 -10 -31 -10 -14 0 -37 -13
-54 -30 -17 -17 -30 -38 -30 -46 0 -8 5 -24 10 -35 6 -10 20 -19 31 -19 12 0
34 10 51 21 30 21 30 21 61 -8 18 -17 41 -33 51 -37 11 -4 22 -2 27 5 3 6 -7
32 -23 56 -22 33 -36 43 -49 40 -11 -3 -22 0 -26 6 -4 7 -6 24 -4 39 1 16 0
28 -3 28z m-62 -70 c7 -7 5 -16 -7 -27 -16 -16 -17 -16 -17 3 0 11 3 24 7 28
4 3 11 2 17 -4z"/>
</g>
</svg>
