<?xml version="1.0" standalone="no"?>
<!DOCTYPE svg PUBLIC "-//W3C//DTD SVG 20010904//EN"
 "http://www.w3.org/TR/2001/REC-SVG-20010904/DTD/svg10.dtd">
<svg version="1.0" xmlns="http://www.w3.org/2000/svg"
 width="56.000000pt" height="56.000000pt" viewBox="0 0 56.000000 56.000000"
 preserveAspectRatio="xMidYMid meet">
<metadata>
Created by potrace 1.16, written by Peter Selinger 2001-2019
</metadata>
<g transform="translate(0.000000,56.000000) scale(0.100000,-0.100000)"
fill="#000000" stroke="none">
<path d="M198 530 c-8 0 -22 -8 -31 -18 -11 -12 -17 -36 -17 -66 0 -25 -6 -61
-14 -79 -7 -18 -39 -57 -70 -88 -45 -45 -56 -62 -56 -88 0 -17 6 -47 14 -65 9
-22 22 -35 39 -38 20 -4 33 2 53 24 19 19 36 27 53 26 22 -3 26 1 23 23 -2 15
6 37 20 55 12 16 28 33 35 37 7 4 20 22 29 40 9 18 23 40 32 49 14 16 17 15
51 -20 20 -20 45 -50 54 -65 10 -16 17 -40 15 -55 -3 -25 -6 -27 -55 -27 -28
0 -55 -3 -59 -7 -4 -5 -15 -8 -25 -8 -10 0 -30 -11 -44 -25 -14 -14 -25 -36
-25 -48 0 -12 7 -30 15 -40 8 -11 30 -20 52 -22 21 -2 58 1 83 7 25 6 55 20
68 31 12 11 22 26 22 34 0 7 6 13 13 13 8 0 24 -11 37 -25 13 -14 29 -25 37
-25 7 0 13 10 13 21 0 12 -10 30 -22 40 -11 11 -27 19 -34 19 -8 0 -16 12 -19
28 -3 15 -10 47 -16 72 -5 25 -18 59 -27 75 -10 17 -36 39 -60 49 -31 14 -44
28 -53 53 -6 18 -26 45 -45 60 -25 19 -38 23 -46 15 -7 -7 -4 -19 12 -42 12
-17 19 -37 16 -46 -3 -8 -17 -19 -32 -24 -14 -6 -30 -7 -36 -4 -6 4 -8 26 -4
58 3 28 9 61 12 74 5 15 2 22 -8 22z m23 -200 c5 0 9 -4 9 -8 0 -5 -6 -16 -13
-26 -8 -11 -19 -17 -26 -15 -8 3 -7 11 4 27 9 12 20 22 26 22z m-93 -60 c7 0
12 -13 12 -32 0 -23 -10 -42 -30 -62 -18 -17 -35 -26 -45 -23 -8 4 -15 16 -15
29 0 12 15 37 33 55 17 18 38 33 45 33z m240 -133 c12 0 25 -4 28 -9 3 -5 -1
-17 -10 -27 -10 -11 -29 -17 -58 -16 -24 1 -42 4 -40 8 1 4 2 13 2 21 0 8 12
16 28 18 15 2 37 4 50 5z"/>
</g>
</svg>
