<?xml version="1.0" standalone="no"?>
<!DOCTYPE svg PUBLIC "-//W3C//DTD SVG 20010904//EN"
 "http://www.w3.org/TR/2001/REC-SVG-20010904/DTD/svg10.dtd">
<svg version="1.0" xmlns="http://www.w3.org/2000/svg"
 width="56.000000pt" height="56.000000pt" viewBox="0 0 56.000000 56.000000"
 preserveAspectRatio="xMidYMid meet">
<metadata>
Created by potrace 1.16, written by Peter Selinger 2001-2019
</metadata>
<g transform="translate(0.000000,56.000000) scale(0.100000,-0.100000)"
fill="#000000" stroke="none">
<path d="M180 503 c-16 4 -24 -2 -35 -30 -8 -19 -21 -65 -28 -101 -9 -46 -11
-80 -5 -107 8 -36 7 -42 -14 -55 -12 -8 -36 -26 -52 -41 -21 -19 -29 -35 -30
-63 0 -22 4 -41 11 -43 6 -2 29 12 51 31 22 20 46 36 55 36 8 0 18 -7 21 -16
3 -8 10 -13 15 -10 5 4 18 25 29 49 11 23 26 61 33 85 7 23 17 42 22 42 6 0
25 11 43 25 19 14 46 25 64 25 30 0 31 -2 28 -37 -2 -25 -10 -41 -23 -48 -11
-6 -33 -19 -48 -29 -16 -11 -33 -30 -38 -43 -4 -12 -6 -30 -3 -38 4 -8 12 -15
18 -15 7 0 21 -7 32 -15 19 -15 19 -15 0 -30 -18 -14 -18 -15 -2 -21 10 -4 41
3 70 15 28 11 64 21 79 21 24 0 28 4 25 23 -3 19 -11 23 -67 29 -35 4 -68 11
-73 16 -6 6 3 16 24 27 18 9 53 23 78 31 25 7 57 14 73 14 15 0 27 6 27 13 0
7 -9 18 -20 25 -13 8 -34 10 -54 6 -33 -6 -34 -5 -41 34 -3 22 -15 49 -26 61
-11 11 -28 21 -38 21 -10 0 -42 -16 -70 -35 -33 -23 -51 -31 -51 -21 0 7 7 30
16 51 14 35 14 39 -1 54 -14 15 -16 14 -21 -4 -3 -11 -17 -49 -32 -85 -17 -39
-34 -66 -45 -68 -15 -3 -17 5 -17 62 0 47 6 75 20 101 11 20 20 39 20 44 0 5
-9 11 -20 14z"/>
</g>
</svg>
