<?xml version="1.0" standalone="no"?>
<!DOCTYPE svg PUBLIC "-//W3C//DTD SVG 20010904//EN"
 "http://www.w3.org/TR/2001/REC-SVG-20010904/DTD/svg10.dtd">
<svg version="1.0" xmlns="http://www.w3.org/2000/svg"
 width="56.000000pt" height="56.000000pt" viewBox="0 0 56.000000 56.000000"
 preserveAspectRatio="xMidYMid meet">
<metadata>
Created by potrace 1.16, written by Peter Selinger 2001-2019
</metadata>
<g transform="translate(0.000000,56.000000) scale(0.100000,-0.100000)"
fill="#000000" stroke="none">
<path d="M171 520 c-10 0 -30 -15 -43 -32 -14 -18 -29 -42 -35 -53 -5 -11 -18
-60 -28 -110 -10 -49 -26 -99 -36 -110 -9 -11 -18 -27 -19 -35 -1 -8 -2 -21
-1 -27 0 -7 10 -13 20 -13 11 0 23 4 26 10 3 5 17 -2 30 -18 21 -24 24 -25 30
-10 4 10 2 32 -4 49 -6 18 -11 42 -11 54 0 11 15 35 33 51 17 17 54 45 80 62
30 20 61 32 81 32 18 0 45 -9 58 -20 18 -14 28 -34 33 -65 5 -35 2 -53 -10
-71 -14 -22 -17 -23 -31 -9 -9 8 -18 15 -22 15 -4 0 -23 -13 -42 -29 -31 -27
-33 -31 -22 -55 6 -15 19 -29 27 -32 8 -3 33 3 55 15 22 12 45 21 51 21 6 0
35 -20 63 -45 34 -29 63 -45 80 -45 18 0 26 5 26 18 0 10 -24 34 -58 56 -58
40 -58 40 -57 116 0 47 -5 86 -14 101 -7 13 -29 37 -48 53 -26 22 -45 30 -81
31 -26 0 -61 9 -79 18 -18 9 -39 17 -48 17 -8 0 -15 3 -15 6 0 3 7 12 15 20 8
9 15 20 15 25 0 5 -8 9 -19 9z m-4 -109 c15 -4 28 -12 30 -18 2 -6 -6 -21 -19
-33 -13 -12 -35 -31 -50 -42 -28 -19 -28 -19 -28 0 0 11 6 35 14 53 8 19 17
37 21 40 3 4 18 4 32 0z"/>
</g>
</svg>
