<?xml version="1.0" standalone="no"?>
<!DOCTYPE svg PUBLIC "-//W3C//DTD SVG 20010904//EN"
 "http://www.w3.org/TR/2001/REC-SVG-20010904/DTD/svg10.dtd">
<svg version="1.0" xmlns="http://www.w3.org/2000/svg"
 width="56.000000pt" height="56.000000pt" viewBox="0 0 56.000000 56.000000"
 preserveAspectRatio="xMidYMid meet">
<metadata>
Created by potrace 1.16, written by Peter Selinger 2001-2019
</metadata>
<g transform="translate(0.000000,56.000000) scale(0.100000,-0.100000)"
fill="#000000" stroke="none">
<path d="M136 560 c-6 0 -21 -12 -33 -25 -13 -16 -24 -45 -28 -78 -5 -37 -2
-70 9 -107 9 -29 16 -64 16 -76 0 -14 -18 -42 -45 -70 -41 -41 -45 -50 -45
-94 0 -42 4 -52 31 -74 17 -14 35 -26 40 -26 6 0 20 11 33 25 13 14 32 44 44
67 11 24 30 64 41 89 12 25 21 62 21 82 0 33 5 39 67 80 36 24 73 42 82 40 9
-2 25 -16 36 -31 15 -20 20 -43 20 -89 0 -45 -5 -67 -17 -79 -14 -14 -22 -15
-66 -3 -42 10 -54 10 -66 0 -9 -8 -16 -23 -16 -35 0 -16 9 -25 33 -34 18 -7
44 -12 56 -12 12 0 31 5 42 10 15 9 30 3 77 -28 31 -21 65 -41 75 -45 14 -5
17 -1 17 23 0 17 -5 30 -12 30 -7 1 -31 16 -52 36 -38 33 -39 36 -28 67 7 19
12 52 12 74 0 22 -6 56 -14 74 -8 19 -24 46 -36 62 -18 22 -29 27 -67 27 -30
0 -53 -7 -71 -20 -23 -18 -27 -19 -34 -5 -5 8 -6 24 -3 35 4 13 0 22 -14 29
-11 6 -24 11 -30 11 -6 0 -11 -17 -11 -37 0 -21 -6 -60 -13 -88 -8 -31 -19
-50 -28 -50 -9 0 -18 19 -25 50 -7 28 -9 68 -7 90 3 22 12 47 20 56 7 9 11 24
7 33 -3 9 -11 16 -18 16z m-4 -360 c10 0 18 -4 18 -9 0 -4 -16 -29 -35 -55
-20 -25 -42 -46 -50 -46 -9 0 -15 9 -15 22 0 12 14 37 32 55 18 18 40 33 50
33z"/>
</g>
</svg>
