<?xml version="1.0" standalone="no"?>
<!DOCTYPE svg PUBLIC "-//W3C//DTD SVG 20010904//EN"
 "http://www.w3.org/TR/2001/REC-SVG-20010904/DTD/svg10.dtd">
<svg version="1.0" xmlns="http://www.w3.org/2000/svg"
 width="56.000000pt" height="56.000000pt" viewBox="0 0 56.000000 56.000000"
 preserveAspectRatio="xMidYMid meet">
<metadata>
Created by potrace 1.16, written by Peter Selinger 2001-2019
</metadata>
<g transform="translate(0.000000,56.000000) scale(0.100000,-0.100000)"
fill="#000000" stroke="none">
<path d="M230 520 c-22 0 -33 -7 -44 -29 -13 -24 -13 -31 -2 -40 7 -6 21 -9
29 -5 9 3 19 14 22 25 4 10 11 19 16 19 5 0 9 7 9 15 0 10 -10 15 -30 15z"/>
<path d="M290 520 c-11 0 -20 -10 -24 -27 -4 -16 -17 -53 -29 -83 -12 -30 -30
-68 -40 -85 -18 -30 -18 -30 -11 41 5 58 4 72 -9 77 -11 4 -18 -6 -26 -38 -6
-24 -11 -66 -11 -94 0 -47 -4 -54 -62 -121 -53 -62 -62 -78 -62 -112 -1 -25 4
-43 12 -45 7 -3 30 15 52 38 31 34 42 41 52 31 6 -6 18 -12 25 -12 7 0 23 24
36 52 14 29 29 77 36 106 6 29 21 66 33 83 13 17 37 37 53 44 28 12 32 10 63
-18 26 -25 32 -38 32 -71 -1 -31 -8 -50 -30 -76 -17 -19 -30 -40 -30 -47 0 -7
-4 -13 -10 -13 -5 0 -10 7 -10 16 0 10 -7 14 -22 12 -14 -2 -26 -13 -32 -29
-6 -19 -4 -32 9 -53 13 -19 21 -24 28 -17 6 6 19 11 28 11 10 0 33 19 51 43
19 23 42 55 52 70 9 15 15 31 12 36 -3 4 1 17 9 27 8 10 14 26 15 34 0 8 -17
35 -38 58 -32 38 -44 45 -84 49 -27 3 -48 9 -48 13 0 4 5 21 11 39 8 24 8 35
-1 46 -7 8 -20 15 -30 15z"/>
<path d="M524 210 c-3 0 -3 -8 0 -18 4 -12 -4 -28 -24 -47 -16 -16 -30 -37
-30 -47 0 -10 2 -18 5 -18 3 0 18 8 33 17 15 10 32 25 39 33 7 8 13 27 13 41
0 16 -7 29 -16 33 -9 3 -18 6 -20 6z"/>
<path d="M429 78 c-8 1 -18 0 -22 -4 -4 -4 -7 -11 -7 -16 0 -4 12 -8 26 -8 16
0 24 5 22 13 -3 6 -11 13 -19 15z"/>
</g>
</svg>
