<?xml version="1.0" standalone="no"?>
<!DOCTYPE svg PUBLIC "-//W3C//DTD SVG 20010904//EN"
 "http://www.w3.org/TR/2001/REC-SVG-20010904/DTD/svg10.dtd">
<svg version="1.0" xmlns="http://www.w3.org/2000/svg"
 width="56.000000pt" height="56.000000pt" viewBox="0 0 56.000000 56.000000"
 preserveAspectRatio="xMidYMid meet">
<metadata>
Created by potrace 1.16, written by Peter Selinger 2001-2019
</metadata>
<g transform="translate(0.000000,56.000000) scale(0.100000,-0.100000)"
fill="#000000" stroke="none">
<path d="M235 490 c-8 0 -22 -17 -31 -37 -10 -26 -14 -61 -12 -108 3 -70 3
-70 -59 -110 -34 -23 -76 -53 -92 -68 -17 -15 -33 -38 -37 -53 -4 -14 -2 -30
5 -37 8 -8 25 -4 67 17 31 16 80 53 110 83 45 46 57 53 69 43 9 -7 15 -29 15
-55 0 -24 6 -48 14 -54 10 -8 24 -6 57 8 30 14 50 31 64 57 19 36 19 36 87 30
52 -5 68 -3 68 7 0 7 -13 20 -29 30 -16 9 -45 17 -64 17 -33 0 -35 2 -41 43
-6 33 -17 51 -54 85 -25 23 -51 41 -58 38 -6 -2 -20 -22 -31 -43 -11 -21 -27
-39 -36 -41 -14 -3 -15 4 -10 50 3 29 10 58 15 65 5 7 7 17 3 23 -3 5 -13 10
-20 10z m111 -140 c12 0 26 -6 32 -13 6 -7 12 -29 14 -50 3 -38 2 -39 -42 -54
-43 -15 -45 -14 -62 7 -16 20 -17 26 -5 44 8 12 20 31 28 44 8 12 23 22 35 22z
m-194 -140 c5 0 4 -9 -2 -20 -6 -11 -19 -24 -30 -30 -13 -7 -20 -7 -20 -1 0 6
10 19 22 31 12 11 26 20 30 20z m199 -10 c16 0 29 -5 29 -10 0 -6 -11 -15 -24
-22 -14 -6 -32 -8 -41 -4 -14 5 -15 9 -5 21 7 8 25 15 41 15z"/>
</g>
</svg>
