<?xml version="1.0" standalone="no"?>
<!DOCTYPE svg PUBLIC "-//W3C//DTD SVG 20010904//EN"
 "http://www.w3.org/TR/2001/REC-SVG-20010904/DTD/svg10.dtd">
<svg version="1.0" xmlns="http://www.w3.org/2000/svg"
 width="56.000000pt" height="56.000000pt" viewBox="0 0 56.000000 56.000000"
 preserveAspectRatio="xMidYMid meet">
<metadata>
Created by potrace 1.16, written by Peter Selinger 2001-2019
</metadata>
<g transform="translate(0.000000,56.000000) scale(0.100000,-0.100000)"
fill="#000000" stroke="none">
<path d="M320 520 c-15 8 -21 8 -24 -2 -3 -7 -4 -20 -3 -29 0 -8 -17 -41 -37
-72 -21 -31 -42 -57 -48 -57 -5 0 -24 16 -42 35 -19 19 -38 35 -45 35 -6 0
-11 -9 -11 -20 0 -11 4 -20 8 -20 4 0 15 -13 25 -29 9 -16 17 -34 17 -40 0 -6
-27 -24 -60 -41 -32 -16 -68 -40 -80 -52 -15 -16 -20 -35 -19 -72 0 -28 5 -67
12 -86 7 -19 18 -35 26 -35 8 0 37 32 64 70 27 39 55 85 63 103 8 17 18 32 24
32 5 0 12 -4 15 -10 3 -6 12 -10 19 -10 7 0 18 11 24 25 7 14 12 32 12 40 0 9
-9 15 -22 15 -21 0 -21 1 -5 18 16 15 19 15 27 2 8 -12 10 -11 10 6 0 13 23
39 65 72 37 30 74 52 88 52 19 0 27 -8 37 -39 10 -32 10 -49 0 -92 -7 -30 -22
-68 -33 -85 -14 -21 -34 -34 -64 -42 -33 -9 -44 -18 -49 -38 -5 -20 -2 -31 10
-40 14 -10 22 -9 44 2 15 8 37 14 50 14 13 0 42 -9 64 -20 23 -11 50 -20 60
-20 13 0 18 8 18 28 0 23 -6 30 -33 40 -18 7 -45 12 -60 12 -15 0 -27 3 -27 6
0 3 16 38 35 78 19 39 37 89 41 111 4 32 1 47 -18 74 -13 18 -35 40 -51 49
-22 14 -31 14 -47 4 -11 -6 -26 -12 -34 -12 -8 0 -16 6 -19 14 -3 8 -15 20
-27 26z m-179 -260 c3 0 8 -3 12 -6 3 -3 -10 -27 -28 -53 -19 -26 -43 -55 -54
-65 -11 -10 -25 -15 -30 -11 -6 3 -11 16 -11 29 0 12 12 34 28 48 15 14 38 32
52 41 13 10 27 17 31 17z"/>
<path d="M360 80 c-14 0 -31 -5 -38 -12 -7 -7 -12 -18 -12 -25 0 -9 16 -13 50
-13 34 0 50 4 50 13 0 7 -5 18 -12 25 -7 7 -24 12 -38 12z"/>
</g>
</svg>
