<?xml version="1.0" standalone="no"?>
<!DOCTYPE svg PUBLIC "-//W3C//DTD SVG 20010904//EN"
 "http://www.w3.org/TR/2001/REC-SVG-20010904/DTD/svg10.dtd">
<svg version="1.0" xmlns="http://www.w3.org/2000/svg"
 width="56.000000pt" height="56.000000pt" viewBox="0 0 56.000000 56.000000"
 preserveAspectRatio="xMidYMid meet">
<metadata>
Created by potrace 1.16, written by Peter Selinger 2001-2019
</metadata>
<g transform="translate(0.000000,56.000000) scale(0.100000,-0.100000)"
fill="#000000" stroke="none">
<path d="M161 520 c-11 0 -22 -3 -24 -7 -3 -5 -8 -39 -12 -78 -7 -64 -11 -74
-50 -116 -24 -25 -50 -60 -59 -77 -9 -17 -16 -45 -16 -62 0 -19 6 -33 16 -37
12 -4 25 4 43 26 14 17 40 40 56 51 17 11 42 20 56 20 14 0 35 10 47 23 17 18
22 36 22 74 0 50 1 52 48 80 26 15 54 31 63 35 9 3 20 3 25 0 5 -4 17 -18 25
-32 9 -14 20 -56 24 -95 4 -38 12 -73 19 -77 6 -4 -12 -8 -41 -8 -40 0 -63 -7
-102 -31 -28 -18 -51 -38 -51 -44 0 -7 7 -18 16 -26 9 -7 31 -12 50 -12 19 1
47 9 62 19 15 10 39 19 53 21 15 1 33 -4 40 -13 9 -11 10 -20 2 -32 -5 -10
-47 -31 -93 -48 -68 -25 -78 -32 -59 -37 13 -4 40 -2 59 5 19 6 45 14 58 19
13 5 38 9 56 9 19 0 40 8 49 18 10 10 17 23 17 28 -1 5 -19 27 -41 49 -34 35
-39 45 -38 80 1 22 2 66 1 97 -2 53 -5 61 -45 103 -32 33 -51 45 -73 45 -16 0
-39 -7 -51 -15 -12 -8 -38 -14 -59 -12 -37 2 -39 0 -42 -30 -2 -17 -10 -34
-18 -37 -9 -3 -19 -4 -24 -1 -4 3 -4 22 1 42 5 21 9 48 9 61 0 15 -6 22 -19
22z m-70 -240 c4 0 10 -4 13 -9 3 -4 -3 -16 -13 -25 -13 -12 -21 -14 -26 -6
-4 6 -1 17 5 25 7 8 16 15 21 15z m287 -70 c6 0 12 -4 12 -9 0 -5 -9 -13 -21
-16 -11 -4 -23 -4 -27 0 -4 3 0 10 8 15 8 6 21 10 28 10z"/>
<path d="M12 492 c-9 9 -12 4 -11 -22 0 -33 1 -34 11 -12 8 17 8 26 0 34z"/>
</g>
</svg>
