<?xml version="1.0" standalone="no"?>
<!DOCTYPE svg PUBLIC "-//W3C//DTD SVG 20010904//EN"
 "http://www.w3.org/TR/2001/REC-SVG-20010904/DTD/svg10.dtd">
<svg version="1.0" xmlns="http://www.w3.org/2000/svg"
 width="128.000000pt" height="128.000000pt" viewBox="0 0 128.000000 128.000000"
 preserveAspectRatio="xMidYMid meet">
<metadata>
Created by potrace 1.16, written by Peter Selinger 2001-2019
</metadata>
<g transform="translate(0.000000,128.000000) scale(0.100000,-0.100000)"
fill="#000000" stroke="none">
<path d="M315 1280 c-14 0 -25 -4 -25 -10 0 -5 11 -10 25 -10 14 0 25 5 25 10
0 6 -11 10 -25 10z"/>
<path d="M580 1256 c-27 4 -43 -1 -73 -21 -21 -14 -35 -30 -32 -35 3 -5 20
-11 38 -15 17 -4 42 -13 55 -21 12 -8 22 -23 22 -33 0 -10 -8 -25 -17 -33 -10
-9 -54 -30 -98 -48 -44 -17 -100 -40 -125 -49 -25 -10 -61 -24 -81 -30 -19 -6
-42 -11 -51 -11 -8 0 -23 -9 -32 -19 -17 -18 -17 -20 1 -29 10 -5 57 -12 105
-16 77 -6 92 -5 130 15 24 12 57 32 74 44 17 13 46 26 65 30 25 5 39 2 47 -8
7 -8 15 -37 18 -63 5 -45 3 -53 -31 -96 -20 -26 -48 -54 -61 -63 -13 -8 -24
-21 -24 -27 0 -6 -22 -32 -49 -57 -49 -45 -50 -47 -43 -91 7 -42 9 -45 38 -44
16 1 49 11 72 22 24 11 56 23 71 27 23 5 33 1 50 -21 11 -15 21 -32 21 -39 0
-7 -42 -27 -92 -45 -51 -18 -97 -36 -101 -40 -4 -4 0 -35 9 -71 9 -35 20 -89
24 -119 5 -30 12 -64 15 -76 4 -12 1 -25 -8 -33 -10 -7 -38 -11 -74 -9 -49 3
-60 6 -68 25 -5 13 -17 23 -27 23 -9 0 -20 5 -24 11 -3 6 -8 70 -11 143 -4
131 -4 131 -38 166 -35 35 -35 35 -71 15 -20 -11 -39 -25 -41 -33 -3 -7 4 -23
15 -35 15 -16 22 -40 25 -87 3 -36 9 -85 15 -110 5 -25 11 -50 13 -57 2 -6 -5
-19 -16 -27 -20 -16 -20 -16 -1 -31 19 -14 19 -16 1 -49 -10 -18 -15 -41 -12
-50 6 -14 17 -16 69 -12 35 2 75 9 89 14 15 6 58 14 96 17 47 5 73 4 77 -4 4
-6 2 -20 -4 -31 -10 -19 -8 -20 39 -20 46 0 53 4 88 41 21 23 48 52 60 65 14
16 33 24 54 24 17 0 49 5 71 12 36 10 40 10 54 -11 9 -12 26 -33 37 -45 19
-21 28 -23 72 -17 38 4 51 10 53 25 2 10 -3 23 -11 27 -8 5 -26 31 -41 58 -23
45 -24 51 -10 65 8 9 21 16 29 16 7 0 22 15 33 33 10 17 24 57 30 87 6 30 13
85 16 122 3 41 1 70 -5 74 -6 3 -15 17 -20 31 -5 14 -18 27 -29 30 -11 3 -20
7 -20 9 0 2 5 13 12 24 11 16 8 24 -22 54 -26 25 -48 37 -86 44 -36 6 -61 5
-85 -3 -19 -7 -50 -17 -70 -24 -19 -6 -47 -11 -62 -11 -15 0 -27 6 -27 13 0 7
34 59 75 116 41 57 90 123 109 145 27 33 32 47 29 73 -4 26 -14 38 -52 59 -39
22 -54 25 -97 19 -46 -5 -53 -4 -66 17 -8 13 -18 35 -22 51 -4 19 -13 27 -29
27 -12 0 -38 3 -57 6z m198 -186 c24 0 32 -4 32 -17 0 -10 -9 -34 -21 -53 -11
-19 -28 -41 -37 -47 -11 -9 -19 -10 -29 -2 -7 6 -13 31 -13 55 0 30 5 46 18
53 9 6 32 11 50 11z m1 -382 c9 -2 21 -13 26 -26 8 -19 16 -22 40 -18 17 3 51
8 77 11 41 6 48 5 62 -17 10 -16 17 -57 20 -125 4 -81 2 -104 -10 -113 -7 -7
-14 -20 -14 -30 0 -10 -7 -24 -16 -31 -15 -12 -21 -8 -55 31 -22 25 -39 55
-39 67 0 12 6 25 13 30 6 4 30 10 51 13 22 3 41 10 42 15 2 6 -13 23 -34 38
-33 25 -44 28 -95 25 -59 -3 -59 -3 -62 40 -2 23 1 42 6 42 5 0 9 5 9 10 0 6
-14 10 -31 10 -27 0 -30 2 -19 15 7 9 20 15 29 13z m29 -168 c8 0 12 -8 10
-17 -2 -11 -14 -19 -31 -21 -15 -2 -27 1 -27 7 0 5 8 15 18 20 9 6 23 11 30
11z m-102 -61 c5 0 20 -12 32 -29 12 -16 22 -36 22 -45 0 -8 4 -15 9 -15 5 0
15 -16 21 -35 6 -19 29 -57 51 -85 21 -27 35 -52 30 -55 -5 -3 -12 -1 -16 5
-3 5 -21 10 -40 10 -22 0 -45 -9 -65 -27 -26 -22 -36 -25 -58 -17 -20 7 -37
31 -70 99 -24 50 -47 106 -49 126 -4 24 -1 39 8 45 8 5 37 11 64 15 28 3 55 7
61 8z"/>
</g>
</svg>
