<?xml version="1.0" standalone="no"?>
<!DOCTYPE svg PUBLIC "-//W3C//DTD SVG 20010904//EN"
 "http://www.w3.org/TR/2001/REC-SVG-20010904/DTD/svg10.dtd">
<svg version="1.0" xmlns="http://www.w3.org/2000/svg"
 width="128.000000pt" height="128.000000pt" viewBox="0 0 128.000000 128.000000"
 preserveAspectRatio="xMidYMid meet">
<metadata>
Created by potrace 1.16, written by Peter Selinger 2001-2019
</metadata>
<g transform="translate(0.000000,128.000000) scale(0.100000,-0.100000)"
fill="#000000" stroke="none">
<path d="M575 1260 c-12 0 -37 -10 -56 -23 -19 -12 -35 -30 -37 -40 -2 -9 9
-29 25 -44 15 -16 34 -39 40 -52 7 -13 13 -41 13 -62 0 -21 -5 -41 -11 -44 -6
-4 -13 2 -16 14 -3 12 -10 21 -15 21 -6 0 -41 -16 -79 -36 -38 -20 -72 -35
-74 -32 -2 2 -7 41 -11 86 -5 59 -4 82 5 82 6 0 11 3 11 8 0 4 -26 22 -59 40
-32 17 -70 32 -85 32 -15 0 -29 -7 -33 -16 -4 -11 8 -28 37 -53 43 -37 43 -37
36 -91 -4 -30 -9 -73 -10 -95 -2 -22 -6 -55 -10 -73 -5 -21 -3 -38 4 -47 7 -8
25 -15 40 -15 20 0 36 10 54 32 25 33 25 33 58 16 18 -9 50 -19 70 -23 25 -4
39 -12 43 -26 5 -14 -5 -33 -34 -68 -22 -26 -49 -69 -60 -94 -11 -25 -29 -50
-40 -56 -11 -6 -28 -11 -39 -11 -11 0 -22 -7 -26 -15 -3 -8 -14 -15 -24 -15
-10 0 -23 -5 -30 -12 -7 -7 -12 -19 -12 -29 0 -9 9 -28 21 -43 12 -15 30 -26
44 -26 14 0 60 23 103 50 43 28 84 50 89 50 6 0 16 7 24 16 7 8 30 24 50 35
21 10 47 19 58 19 11 0 25 -9 31 -20 7 -13 7 -26 1 -38 -5 -10 -43 -49 -83
-86 -40 -37 -77 -71 -83 -77 -5 -5 -22 -22 -37 -36 -16 -15 -28 -32 -28 -38 0
-6 -34 -33 -75 -60 -69 -44 -75 -51 -70 -75 5 -22 1 -28 -27 -41 -24 -10 -34
-21 -36 -42 -2 -16 2 -35 9 -43 6 -8 23 -14 37 -14 14 0 40 11 58 25 18 14 47
47 64 74 18 27 50 64 71 81 21 17 42 42 45 55 4 15 16 28 29 31 13 3 33 3 44
-1 14 -4 26 -23 36 -58 8 -29 18 -76 22 -105 4 -39 12 -57 27 -67 12 -7 39
-18 61 -25 22 -7 53 -18 68 -26 16 -8 37 -14 47 -14 9 0 23 6 29 14 11 13 17
13 46 0 19 -8 46 -14 59 -14 14 0 36 -5 50 -11 20 -9 29 -9 41 1 11 9 15 32
15 82 0 69 0 69 -52 62 -29 -3 -62 -7 -73 -9 -11 -2 -31 -8 -45 -15 -23 -10
-33 -6 -95 35 -39 26 -73 52 -77 59 -4 6 -8 30 -8 53 0 33 -4 43 -20 48 -11 4
-33 18 -50 31 -29 25 -29 25 -10 62 11 20 20 41 20 47 0 5 18 20 40 33 24 13
50 41 67 70 15 26 35 53 45 60 11 8 18 26 18 44 0 17 8 40 17 50 15 17 15 20
-11 47 -17 18 -42 31 -67 35 -23 4 -49 2 -62 -5 -12 -7 -24 -15 -27 -19 -3 -4
-22 -17 -43 -29 -21 -11 -46 -21 -55 -21 -10 0 -23 5 -30 12 -7 7 -12 22 -12
35 0 12 5 34 12 48 6 14 15 25 20 25 4 0 8 15 8 34 0 26 7 41 31 60 17 14 36
27 42 28 7 0 17 2 22 3 6 0 40 11 77 24 45 15 69 29 73 42 4 10 3 23 0 29 -4
6 -24 19 -45 30 -22 11 -48 20 -59 20 -11 0 -32 -5 -46 -12 -14 -6 -27 -9 -30
-6 -3 3 -13 34 -21 69 -9 35 -23 70 -32 77 -9 6 -26 12 -37 12z"/>
<path d="M990 870 c-13 0 -20 -7 -20 -19 0 -10 8 -22 17 -25 9 -4 21 -2 26 3
5 5 7 17 4 25 -4 9 -16 16 -27 16z"/>
<path d="M1092 392 c-6 6 -12 6 -17 -2 -4 -6 -3 -16 3 -22 6 -6 12 -6 17 2 4
6 3 16 -3 22z"/>
</g>
</svg>
