<?xml version="1.0" standalone="no"?>
<!DOCTYPE svg PUBLIC "-//W3C//DTD SVG 20010904//EN"
 "http://www.w3.org/TR/2001/REC-SVG-20010904/DTD/svg10.dtd">
<svg version="1.0" xmlns="http://www.w3.org/2000/svg"
 width="56.000000pt" height="56.000000pt" viewBox="0 0 56.000000 56.000000"
 preserveAspectRatio="xMidYMid meet">
<metadata>
Created by potrace 1.16, written by Peter Selinger 2001-2019
</metadata>
<g transform="translate(0.000000,56.000000) scale(0.100000,-0.100000)"
fill="#000000" stroke="none">
<path d="M356 560 c-32 0 -46 -4 -46 -14 0 -7 -22 -48 -50 -90 -27 -42 -50
-78 -50 -80 0 -2 -13 -18 -30 -36 -24 -26 -30 -41 -30 -77 0 -36 5 -49 27 -66
14 -12 68 -61 118 -109 50 -49 96 -88 103 -88 6 0 14 5 17 10 4 6 1 26 -5 44
-7 22 -32 52 -68 82 -31 26 -69 61 -84 78 -15 17 -28 39 -28 48 0 9 21 52 46
95 26 43 54 89 63 103 10 14 28 42 40 63 23 37 23 37 -23 37z"/>
</g>
</svg>
