<?xml version="1.0" standalone="no"?>
<!DOCTYPE svg PUBLIC "-//W3C//DTD SVG 20010904//EN"
 "http://www.w3.org/TR/2001/REC-SVG-20010904/DTD/svg10.dtd">
<svg version="1.0" xmlns="http://www.w3.org/2000/svg"
 width="56.000000pt" height="56.000000pt" viewBox="0 0 56.000000 56.000000"
 preserveAspectRatio="xMidYMid meet">
<metadata>
Created by potrace 1.16, written by Peter Selinger 2001-2019
</metadata>
<g transform="translate(0.000000,56.000000) scale(0.100000,-0.100000)"
fill="#000000" stroke="none">
<path d="M291 560 c-25 0 -34 -8 -62 -57 -18 -32 -46 -76 -61 -97 -15 -22 -33
-57 -39 -78 -5 -21 -7 -47 -4 -57 3 -10 32 -35 65 -55 32 -20 77 -58 101 -84
23 -26 51 -66 62 -90 13 -26 28 -42 39 -42 9 0 22 9 28 19 5 11 10 27 10 36 0
9 -25 43 -56 75 -30 32 -87 79 -125 105 -38 25 -69 52 -69 58 0 7 8 24 18 39
9 15 36 51 58 80 23 29 46 68 53 87 6 19 11 40 11 47 0 9 -11 14 -29 14z"/>
</g>
</svg>
