<?xml version="1.0" standalone="no"?>
<!DOCTYPE svg PUBLIC "-//W3C//DTD SVG 20010904//EN"
 "http://www.w3.org/TR/2001/REC-SVG-20010904/DTD/svg10.dtd">
<svg version="1.0" xmlns="http://www.w3.org/2000/svg"
 width="56.000000pt" height="56.000000pt" viewBox="0 0 56.000000 56.000000"
 preserveAspectRatio="xMidYMid meet">
<metadata>
Created by potrace 1.16, written by Peter Selinger 2001-2019
</metadata>
<g transform="translate(0.000000,56.000000) scale(0.100000,-0.100000)"
fill="#000000" stroke="none">
<path d="M240 560 c-5 0 -10 -4 -10 -9 0 -5 7 -22 15 -37 8 -16 15 -37 15 -47
0 -10 -22 -47 -50 -83 -27 -36 -53 -77 -56 -91 -4 -14 -2 -33 3 -42 6 -9 30
-18 54 -21 24 -3 54 -11 66 -18 12 -6 29 -27 38 -44 11 -22 16 -55 16 -101 -1
-67 -1 -67 29 -67 16 0 31 3 31 8 1 4 3 23 5 42 3 19 0 55 -6 79 -6 24 -25 61
-43 83 -18 22 -49 49 -69 59 -20 10 -40 24 -43 30 -4 6 9 27 29 48 20 20 36
42 36 49 0 7 4 12 9 12 5 0 12 7 15 17 4 9 2 31 -4 48 -6 18 -24 44 -40 59
-17 14 -34 26 -40 26z"/>
<path d="M359 560 c-23 0 -30 -4 -27 -16 2 -9 11 -22 21 -28 14 -8 20 -8 27 4
5 8 10 21 10 28 0 7 -13 12 -31 12z"/>
</g>
</svg>
