<?xml version="1.0" standalone="no"?>
<!DOCTYPE svg PUBLIC "-//W3C//DTD SVG 20010904//EN"
 "http://www.w3.org/TR/2001/REC-SVG-20010904/DTD/svg10.dtd">
<svg version="1.0" xmlns="http://www.w3.org/2000/svg"
 width="56.000000pt" height="56.000000pt" viewBox="0 0 56.000000 56.000000"
 preserveAspectRatio="xMidYMid meet">
<metadata>
Created by potrace 1.16, written by Peter Selinger 2001-2019
</metadata>
<g transform="translate(0.000000,56.000000) scale(0.100000,-0.100000)"
fill="#000000" stroke="none">
<path d="M286 560 c-17 0 -26 -5 -26 -15 0 -9 11 -21 25 -27 18 -8 25 -19 25
-41 0 -16 -14 -57 -31 -91 -17 -33 -38 -70 -47 -81 -10 -11 -23 -30 -29 -42
-7 -13 -13 -31 -13 -40 0 -10 18 -42 40 -71 22 -29 40 -57 40 -62 0 -6 6 -28
12 -50 11 -34 17 -40 41 -40 27 0 28 2 21 32 -3 18 -27 72 -52 120 -46 87 -46
87 -11 140 19 29 45 74 57 100 12 26 22 63 22 82 0 23 -8 44 -24 60 -13 15
-34 26 -50 26z"/>
</g>
</svg>
