<?xml version="1.0" standalone="no"?>
<!DOCTYPE svg PUBLIC "-//W3C//DTD SVG 20010904//EN"
 "http://www.w3.org/TR/2001/REC-SVG-20010904/DTD/svg10.dtd">
<svg version="1.0" xmlns="http://www.w3.org/2000/svg"
 width="56.000000pt" height="56.000000pt" viewBox="0 0 56.000000 56.000000"
 preserveAspectRatio="xMidYMid meet">
<metadata>
Created by potrace 1.16, written by Peter Selinger 2001-2019
</metadata>
<g transform="translate(0.000000,56.000000) scale(0.100000,-0.100000)"
fill="#000000" stroke="none">
<path d="M381 560 c-35 0 -39 -3 -44 -29 -4 -19 -35 -59 -85 -109 -43 -44 -91
-87 -105 -97 -14 -9 -29 -26 -32 -36 -4 -11 -1 -26 5 -34 6 -8 35 -27 64 -43
28 -17 70 -51 91 -78 22 -27 52 -68 67 -91 22 -35 33 -43 57 -43 16 0 33 5 36
10 3 6 -17 44 -46 86 -29 41 -74 95 -102 120 -27 24 -53 44 -58 44 -5 0 -9 8
-9 18 0 9 22 40 48 67 27 28 71 84 100 126 29 41 52 78 52 82 0 4 -17 7 -39 7z"/>
</g>
</svg>
