<?xml version="1.0" standalone="no"?>
<!DOCTYPE svg PUBLIC "-//W3C//DTD SVG 20010904//EN"
 "http://www.w3.org/TR/2001/REC-SVG-20010904/DTD/svg10.dtd">
<svg version="1.0" xmlns="http://www.w3.org/2000/svg"
 width="56.000000pt" height="56.000000pt" viewBox="0 0 56.000000 56.000000"
 preserveAspectRatio="xMidYMid meet">
<metadata>
Created by potrace 1.16, written by Peter Selinger 2001-2019
</metadata>
<g transform="translate(0.000000,56.000000) scale(0.100000,-0.100000)"
fill="#000000" stroke="none">
<path d="M300 560 c-30 0 -30 0 -30 -64 0 -34 -5 -78 -12 -97 -6 -19 -24 -52
-39 -74 -15 -23 -28 -50 -29 -60 -1 -11 -2 -25 -1 -30 0 -6 17 -28 36 -50 19
-22 37 -48 41 -58 3 -11 19 -39 36 -63 16 -24 26 -48 23 -54 -3 -5 3 -10 14
-10 16 0 21 6 21 29 0 15 -11 45 -25 65 -14 20 -25 41 -25 45 0 5 -16 28 -35
51 -19 23 -35 49 -35 58 0 10 23 44 51 77 50 60 50 60 45 120 -3 33 -6 72 -6
88 -1 23 -5 27 -30 27z"/>
</g>
</svg>
