<?xml version="1.0" standalone="no"?>
<!DOCTYPE svg PUBLIC "-//W3C//DTD SVG 20010904//EN"
 "http://www.w3.org/TR/2001/REC-SVG-20010904/DTD/svg10.dtd">
<svg version="1.0" xmlns="http://www.w3.org/2000/svg"
 width="56.000000pt" height="56.000000pt" viewBox="0 0 56.000000 56.000000"
 preserveAspectRatio="xMidYMid meet">
<metadata>
Created by potrace 1.16, written by Peter Selinger 2001-2019
</metadata>
<g transform="translate(0.000000,56.000000) scale(0.100000,-0.100000)"
fill="#000000" stroke="none">
<path d="M322 558 c-8 2 -12 -13 -12 -48 0 -51 -1 -54 -65 -114 -53 -51 -63
-66 -59 -87 3 -13 9 -33 14 -44 4 -11 18 -47 30 -80 12 -33 26 -68 31 -77 5
-10 9 -26 9 -36 0 -10 6 -30 13 -45 6 -15 17 -27 22 -27 6 0 16 5 23 12 7 7
12 22 12 34 0 13 -4 26 -10 29 -5 3 -10 16 -10 28 0 12 -9 40 -19 62 -11 22
-25 59 -32 83 -7 23 -12 57 -12 74 0 21 7 37 24 49 13 11 36 31 51 45 14 15
29 41 32 58 5 22 1 38 -12 55 -10 14 -24 27 -30 29z"/>
</g>
</svg>
