<?xml version="1.0" standalone="no"?>
<!DOCTYPE svg PUBLIC "-//W3C//DTD SVG 20010904//EN"
 "http://www.w3.org/TR/2001/REC-SVG-20010904/DTD/svg10.dtd">
<svg version="1.0" xmlns="http://www.w3.org/2000/svg"
 width="56.000000pt" height="56.000000pt" viewBox="0 0 56.000000 56.000000"
 preserveAspectRatio="xMidYMid meet">
<metadata>
Created by potrace 1.16, written by Peter Selinger 2001-2019
</metadata>
<g transform="translate(0.000000,56.000000) scale(0.100000,-0.100000)"
fill="#000000" stroke="none">
<path d="M342 560 c-32 0 -41 -5 -51 -26 -6 -15 -31 -50 -54 -78 -23 -28 -48
-61 -54 -73 -7 -13 -13 -36 -13 -52 0 -16 6 -34 14 -40 8 -7 22 -29 32 -49 9
-20 30 -56 45 -79 16 -23 29 -48 29 -57 0 -8 5 -18 10 -21 6 -3 10 -19 10 -34
0 -15 -6 -33 -12 -40 -11 -10 -4 -12 32 -9 45 3 45 3 48 45 2 33 -5 58 -34
115 -21 40 -52 94 -71 119 -18 26 -33 54 -33 63 0 9 25 42 55 74 31 31 62 69
70 86 8 16 15 35 15 43 0 8 -13 13 -38 13z"/>
</g>
</svg>
