<?xml version="1.0" standalone="no"?>
<!DOCTYPE svg PUBLIC "-//W3C//DTD SVG 20010904//EN"
 "http://www.w3.org/TR/2001/REC-SVG-20010904/DTD/svg10.dtd">
<svg version="1.0" xmlns="http://www.w3.org/2000/svg"
 width="56.000000pt" height="56.000000pt" viewBox="0 0 56.000000 56.000000"
 preserveAspectRatio="xMidYMid meet">
<metadata>
Created by potrace 1.16, written by Peter Selinger 2001-2019
</metadata>
<g transform="translate(0.000000,56.000000) scale(0.100000,-0.100000)"
fill="#000000" stroke="none">
<path d="M320 560 c-28 0 -40 -4 -40 -14 0 -8 -12 -38 -27 -68 -14 -29 -39
-72 -55 -95 -20 -30 -28 -54 -28 -86 0 -38 4 -46 28 -58 15 -7 42 -29 60 -47
17 -19 32 -39 32 -44 0 -6 9 -22 20 -38 13 -18 19 -41 17 -66 -2 -36 0 -39 26
-42 27 -3 27 -3 27 65 0 50 -5 76 -19 97 -10 15 -45 55 -77 88 -58 59 -58 59
-39 96 11 20 27 49 37 64 10 14 32 52 48 83 17 31 30 59 30 61 0 2 -18 4 -40
4z"/>
</g>
</svg>
