<?xml version="1.0" standalone="no"?>
<!DOCTYPE svg PUBLIC "-//W3C//DTD SVG 20010904//EN"
 "http://www.w3.org/TR/2001/REC-SVG-20010904/DTD/svg10.dtd">
<svg version="1.0" xmlns="http://www.w3.org/2000/svg"
 width="56.000000pt" height="56.000000pt" viewBox="0 0 56.000000 56.000000"
 preserveAspectRatio="xMidYMid meet">
<metadata>
Created by potrace 1.16, written by Peter Selinger 2001-2019
</metadata>
<g transform="translate(0.000000,56.000000) scale(0.100000,-0.100000)"
fill="#000000" stroke="none">
<path d="M341 544 c-18 17 -20 17 -29 -1 -5 -10 -12 -38 -16 -63 -5 -33 -19
-59 -54 -100 -26 -30 -54 -67 -61 -83 -13 -24 -13 -32 2 -62 9 -20 24 -38 32
-41 8 -4 15 -11 15 -16 0 -6 21 -38 46 -72 26 -33 51 -71 57 -83 6 -13 18 -23
29 -23 10 0 18 5 18 12 0 6 -6 28 -12 47 -7 20 -21 42 -30 49 -10 7 -32 34
-50 60 -17 26 -36 50 -41 53 -5 4 -9 22 -10 41 -1 28 10 47 61 108 54 65 62
79 62 115 0 29 -6 47 -19 59z"/>
</g>
</svg>
