<?xml version="1.0" standalone="no"?>
<!DOCTYPE svg PUBLIC "-//W3C//DTD SVG 20010904//EN"
 "http://www.w3.org/TR/2001/REC-SVG-20010904/DTD/svg10.dtd">
<svg version="1.0" xmlns="http://www.w3.org/2000/svg"
 width="56.000000pt" height="56.000000pt" viewBox="0 0 56.000000 56.000000"
 preserveAspectRatio="xMidYMid meet">
<metadata>
Created by potrace 1.16, written by Peter Selinger 2001-2019
</metadata>
<g transform="translate(0.000000,56.000000) scale(0.100000,-0.100000)"
fill="#000000" stroke="none">
<path d="M334 525 c-36 40 -36 40 -30 4 5 -30 1 -43 -26 -80 -17 -24 -56 -82
-85 -128 -29 -47 -53 -93 -53 -103 0 -11 20 -32 47 -51 26 -17 69 -52 95 -76
27 -24 51 -55 54 -68 5 -17 13 -23 34 -23 16 0 30 7 34 16 3 9 6 26 6 39 0 16
-18 39 -57 72 -32 28 -70 58 -85 68 -16 9 -28 23 -28 30 0 7 19 41 43 75 23
34 49 74 58 89 9 14 19 42 22 61 6 31 3 40 -29 75z"/>
</g>
</svg>
