<?xml version="1.0" standalone="no"?>
<!DOCTYPE svg PUBLIC "-//W3C//DTD SVG 20010904//EN"
 "http://www.w3.org/TR/2001/REC-SVG-20010904/DTD/svg10.dtd">
<svg version="1.0" xmlns="http://www.w3.org/2000/svg"
 width="56.000000pt" height="56.000000pt" viewBox="0 0 56.000000 56.000000"
 preserveAspectRatio="xMidYMid meet">
<metadata>
Created by potrace 1.16, written by Peter Selinger 2001-2019
</metadata>
<g transform="translate(0.000000,56.000000) scale(0.100000,-0.100000)"
fill="#000000" stroke="none">
<path d="M241 560 c-6 0 -11 -13 -11 -28 0 -16 9 -37 20 -47 12 -11 20 -31 20
-51 0 -18 -12 -59 -26 -91 -14 -32 -33 -73 -42 -92 -13 -28 -13 -39 -3 -68 7
-20 27 -55 43 -78 17 -24 28 -49 26 -56 -3 -10 -13 -5 -31 15 -15 16 -29 27
-31 25 -2 -2 -5 -13 -6 -24 -1 -11 -2 -30 -1 -42 1 -22 5 -23 76 -23 41 0 75
3 75 7 0 4 -11 23 -23 42 -13 20 -32 50 -43 66 -10 17 -25 43 -31 59 -7 15
-13 38 -13 50 0 12 14 49 30 83 17 34 35 65 40 68 6 3 10 23 10 44 0 21 -6 49
-12 63 -7 13 -23 36 -34 51 -12 15 -27 27 -33 27z"/>
</g>
</svg>
