<?xml version="1.0" standalone="no"?>
<!DOCTYPE svg PUBLIC "-//W3C//DTD SVG 20010904//EN"
 "http://www.w3.org/TR/2001/REC-SVG-20010904/DTD/svg10.dtd">
<svg version="1.0" xmlns="http://www.w3.org/2000/svg"
 width="56.000000pt" height="56.000000pt" viewBox="0 0 56.000000 56.000000"
 preserveAspectRatio="xMidYMid meet">
<metadata>
Created by potrace 1.16, written by Peter Selinger 2001-2019
</metadata>
<g transform="translate(0.000000,56.000000) scale(0.100000,-0.100000)"
fill="#000000" stroke="none">
<path d="M361 560 c-17 0 -31 -5 -31 -10 0 -6 -31 -57 -68 -113 -38 -56 -77
-117 -86 -134 -10 -20 -14 -43 -10 -58 3 -14 19 -33 35 -42 16 -10 29 -21 29
-25 0 -4 8 -8 18 -8 11 0 25 -18 39 -50 18 -41 20 -54 11 -70 -9 -14 -9 -22 1
-34 8 -9 21 -16 31 -16 10 0 23 7 30 15 8 10 10 28 5 51 -3 20 -12 46 -18 58
-7 11 -23 33 -36 48 -14 16 -31 28 -38 28 -7 0 -13 6 -13 14 0 7 -7 19 -15 26
-8 7 -15 24 -15 39 0 15 16 49 38 78 20 28 54 74 74 102 21 29 41 63 44 76 6
23 3 25 -25 25z"/>
</g>
</svg>
