<?xml version="1.0" standalone="no"?>
<!DOCTYPE svg PUBLIC "-//W3C//DTD SVG 20010904//EN"
 "http://www.w3.org/TR/2001/REC-SVG-20010904/DTD/svg10.dtd">
<svg version="1.0" xmlns="http://www.w3.org/2000/svg"
 width="56.000000pt" height="56.000000pt" viewBox="0 0 56.000000 56.000000"
 preserveAspectRatio="xMidYMid meet">
<metadata>
Created by potrace 1.16, written by Peter Selinger 2001-2019
</metadata>
<g transform="translate(0.000000,56.000000) scale(0.100000,-0.100000)"
fill="#000000" stroke="none">
<path d="M325 560 c-8 0 -20 -10 -27 -22 -6 -13 -11 -48 -10 -78 1 -55 1 -55
-59 -110 -32 -31 -59 -61 -59 -67 0 -6 26 -38 58 -70 32 -32 68 -79 80 -105
12 -26 22 -56 22 -66 0 -10 5 -23 12 -30 7 -7 18 -12 25 -12 9 0 13 16 13 52
0 44 -5 58 -39 102 -22 28 -53 64 -70 80 -17 17 -31 36 -31 43 0 7 18 24 40
38 23 14 46 37 52 51 9 19 9 36 1 66 -7 26 -8 50 -2 65 5 14 9 33 9 44 0 10
-7 19 -15 19z"/>
<path d="M183 100 c-9 0 -13 -16 -13 -50 0 -47 2 -50 25 -50 17 0 25 6 25 17
0 9 -5 32 -12 50 -7 18 -18 33 -25 33z"/>
</g>
</svg>
