<?xml version="1.0" standalone="no"?>
<!DOCTYPE svg PUBLIC "-//W3C//DTD SVG 20010904//EN"
 "http://www.w3.org/TR/2001/REC-SVG-20010904/DTD/svg10.dtd">
<svg version="1.0" xmlns="http://www.w3.org/2000/svg"
 width="56.000000pt" height="56.000000pt" viewBox="0 0 56.000000 56.000000"
 preserveAspectRatio="xMidYMid meet">
<metadata>
Created by potrace 1.16, written by Peter Selinger 2001-2019
</metadata>
<g transform="translate(0.000000,56.000000) scale(0.100000,-0.100000)"
fill="#000000" stroke="none">
<path d="M203 470 c-7 0 -13 -7 -13 -15 0 -9 7 -27 17 -41 14 -22 14 -27 2
-38 -8 -8 -42 -29 -77 -47 -36 -19 -78 -52 -98 -75 -19 -24 -34 -49 -34 -56 0
-8 11 -20 24 -28 20 -10 35 -10 73 -1 26 6 64 18 83 26 19 8 75 24 123 35 72
18 91 19 103 9 13 -11 6 -18 -53 -47 -37 -19 -87 -50 -110 -70 -24 -19 -40
-38 -37 -43 3 -5 12 -9 20 -9 8 0 43 19 77 41 34 23 77 50 96 61 18 10 62 22
97 25 50 5 64 9 64 22 0 9 -19 29 -42 44 -32 20 -54 27 -93 27 -27 -1 -85 -7
-127 -14 -43 -8 -103 -26 -134 -40 -31 -14 -63 -26 -70 -26 -8 0 -14 5 -14 10
0 6 10 14 23 19 12 5 34 19 48 32 14 13 54 41 88 62 42 25 61 43 61 57 0 12
-17 32 -42 50 -22 16 -47 30 -55 30z"/>
</g>
</svg>
