<?xml version="1.0" standalone="no"?>
<!DOCTYPE svg PUBLIC "-//W3C//DTD SVG 20010904//EN"
 "http://www.w3.org/TR/2001/REC-SVG-20010904/DTD/svg10.dtd">
<svg version="1.0" xmlns="http://www.w3.org/2000/svg"
 width="56.000000pt" height="56.000000pt" viewBox="0 0 56.000000 56.000000"
 preserveAspectRatio="xMidYMid meet">
<metadata>
Created by potrace 1.16, written by Peter Selinger 2001-2019
</metadata>
<g transform="translate(0.000000,56.000000) scale(0.100000,-0.100000)"
fill="#000000" stroke="none">
<path d="M305 560 c-23 0 -35 -5 -35 -13 0 -8 -28 -52 -62 -98 -55 -73 -63
-89 -61 -125 1 -25 11 -58 27 -82 13 -22 41 -49 60 -61 23 -15 45 -42 63 -79
15 -31 26 -67 25 -79 -3 -20 1 -23 27 -23 20 0 34 7 41 19 5 11 10 31 10 45 0
15 -18 52 -39 84 -22 31 -67 81 -100 110 -34 29 -61 61 -61 70 0 9 10 28 21
42 11 14 42 57 69 97 28 40 50 77 50 83 0 5 -16 10 -35 10z"/>
<path d="M198 90 c-11 7 -19 7 -23 0 -3 -6 4 -28 16 -50 20 -35 27 -40 57 -40
34 0 34 0 16 28 -9 15 -25 33 -33 40 -9 7 -24 17 -33 22z"/>
</g>
</svg>
