<?xml version="1.0" standalone="no"?>
<!DOCTYPE svg PUBLIC "-//W3C//DTD SVG 20010904//EN"
 "http://www.w3.org/TR/2001/REC-SVG-20010904/DTD/svg10.dtd">
<svg version="1.0" xmlns="http://www.w3.org/2000/svg"
 width="56.000000pt" height="56.000000pt" viewBox="0 0 56.000000 56.000000"
 preserveAspectRatio="xMidYMid meet">
<metadata>
Created by potrace 1.16, written by Peter Selinger 2001-2019
</metadata>
<g transform="translate(0.000000,56.000000) scale(0.100000,-0.100000)"
fill="#000000" stroke="none">
<path d="M342 560 c-11 0 -28 -19 -46 -53 -15 -29 -40 -66 -55 -83 -15 -16
-46 -57 -70 -92 -23 -34 -39 -67 -36 -72 4 -6 24 -19 45 -30 21 -11 55 -39 75
-62 21 -24 52 -70 70 -103 21 -39 39 -61 52 -63 16 -2 24 5 33 33 10 32 9 40
-13 78 -14 23 -42 59 -62 79 -20 20 -56 50 -81 65 -24 15 -44 32 -44 37 0 6
18 31 39 56 22 26 56 77 75 114 20 37 36 74 36 82 0 8 -8 14 -18 14z"/>
<path d="M246 44 c-14 9 -28 11 -37 5 -11 -6 -11 -13 -3 -26 6 -10 25 -19 42
-21 25 -3 31 0 26 12 -3 8 -16 21 -28 30z"/>
</g>
</svg>
