<?xml version="1.0" standalone="no"?>
<!DOCTYPE svg PUBLIC "-//W3C//DTD SVG 20010904//EN"
 "http://www.w3.org/TR/2001/REC-SVG-20010904/DTD/svg10.dtd">
<svg version="1.0" xmlns="http://www.w3.org/2000/svg"
 width="56.000000pt" height="56.000000pt" viewBox="0 0 56.000000 56.000000"
 preserveAspectRatio="xMidYMid meet">
<metadata>
Created by potrace 1.16, written by Peter Selinger 2001-2019
</metadata>
<g transform="translate(0.000000,56.000000) scale(0.100000,-0.100000)"
fill="#000000" stroke="none">
<path d="M330 560 c-22 0 -33 -6 -39 -22 -5 -13 -21 -34 -35 -47 -14 -14 -26
-28 -26 -33 0 -5 -12 -21 -26 -36 -14 -15 -32 -43 -40 -62 -9 -20 -13 -48 -9
-65 3 -16 14 -38 24 -50 11 -11 41 -56 68 -100 26 -44 59 -95 73 -113 15 -20
32 -32 47 -32 20 0 23 5 23 35 0 24 -7 43 -23 58 -13 12 -34 38 -47 57 -13 19
-39 49 -57 67 -18 17 -33 39 -33 48 0 9 -8 30 -17 46 -15 25 -15 31 -3 54 8
14 35 47 60 73 26 26 56 61 68 79 12 17 22 34 22 37 0 3 -14 6 -30 6z"/>
<path d="M203 50 c-7 0 -13 -9 -13 -19 0 -10 7 -22 16 -25 9 -3 24 -6 35 -6
10 0 19 4 19 9 0 6 -10 17 -22 25 -12 9 -28 16 -35 16z"/>
</g>
</svg>
