<?xml version="1.0" standalone="no"?>
<!DOCTYPE svg PUBLIC "-//W3C//DTD SVG 20010904//EN"
 "http://www.w3.org/TR/2001/REC-SVG-20010904/DTD/svg10.dtd">
<svg version="1.0" xmlns="http://www.w3.org/2000/svg"
 width="56.000000pt" height="56.000000pt" viewBox="0 0 56.000000 56.000000"
 preserveAspectRatio="xMidYMid meet">
<metadata>
Created by potrace 1.16, written by Peter Selinger 2001-2019
</metadata>
<g transform="translate(0.000000,56.000000) scale(0.100000,-0.100000)"
fill="#000000" stroke="none">
<path d="M306 500 c-6 0 -16 -10 -21 -22 -6 -12 -19 -26 -30 -32 -11 -6 -38
-26 -59 -45 -22 -19 -41 -43 -41 -53 -1 -10 -5 -21 -9 -25 -4 -4 -15 -2 -25 4
-16 10 -27 7 -64 -16 -26 -17 -47 -39 -51 -54 -3 -14 -3 -34 0 -44 4 -10 16
-28 27 -41 11 -12 26 -22 33 -22 7 0 18 8 23 18 7 14 31 22 88 31 43 6 115 17
161 23 59 8 86 8 94 0 7 -7 5 -18 -8 -35 -11 -14 -46 -43 -78 -64 -33 -21 -68
-41 -78 -45 -11 -4 -16 -12 -13 -18 3 -5 19 -10 34 -10 15 0 36 9 46 20 10 11
28 20 40 20 12 0 30 8 41 18 10 10 35 28 54 40 19 12 47 30 62 39 17 11 28 27
28 40 0 16 -8 25 -25 29 -14 3 -69 6 -123 6 -53 0 -113 -2 -132 -5 -19 -3 -60
-8 -90 -12 -30 -4 -65 -12 -78 -18 -14 -6 -26 -7 -31 -1 -5 5 -11 23 -14 39
-4 17 -4 24 -1 18 3 -7 11 -13 18 -13 7 0 27 7 44 16 18 8 34 20 37 25 4 5 37
29 75 54 38 25 75 44 82 43 8 -2 14 10 16 30 2 18 -2 40 -9 48 -6 8 -17 14
-23 14z"/>
</g>
</svg>
