<?xml version="1.0" standalone="no"?>
<!DOCTYPE svg PUBLIC "-//W3C//DTD SVG 20010904//EN"
 "http://www.w3.org/TR/2001/REC-SVG-20010904/DTD/svg10.dtd">
<svg version="1.0" xmlns="http://www.w3.org/2000/svg"
 width="56.000000pt" height="56.000000pt" viewBox="0 0 56.000000 56.000000"
 preserveAspectRatio="xMidYMid meet">
<metadata>
Created by potrace 1.16, written by Peter Selinger 2001-2019
</metadata>
<g transform="translate(0.000000,56.000000) scale(0.100000,-0.100000)"
fill="#000000" stroke="none">
<path d="M410 560 c-16 0 -30 -3 -30 -6 0 -3 5 -14 11 -25 10 -20 11 -20 30
-3 10 9 19 21 19 26 0 4 -13 8 -30 8z"/>
<path d="M246 540 c-25 0 -47 -4 -50 -8 -3 -5 8 -19 24 -30 16 -12 36 -22 43
-22 8 0 20 7 27 15 7 8 10 22 6 30 -4 10 -19 15 -50 15z"/>
<path d="M300 416 c-8 1 -35 -6 -60 -17 -29 -12 -58 -16 -82 -13 -32 5 -36 3
-32 -13 3 -10 18 -24 33 -31 23 -10 33 -10 56 2 16 8 32 13 36 10 4 -2 -4 -28
-19 -57 -15 -30 -32 -64 -38 -78 -6 -13 -27 -53 -47 -87 -21 -35 -37 -77 -37
-93 0 -22 5 -29 20 -29 14 0 25 14 40 48 11 26 29 65 39 87 19 40 19 40 35 1
15 -34 20 -37 44 -31 15 3 42 9 60 12 17 3 32 2 32 -1 0 -4 -12 -28 -26 -54
-14 -26 -31 -53 -36 -59 -8 -10 -4 -13 14 -13 19 0 30 10 48 45 13 24 31 52
41 61 11 10 19 25 19 34 0 10 -7 23 -15 30 -12 10 -28 10 -68 2 -28 -6 -57 -6
-62 -2 -6 5 -16 25 -23 44 -12 33 -11 40 18 92 18 33 30 68 28 83 -2 14 -10
27 -18 27z"/>
</g>
</svg>
