<?xml version="1.0" standalone="no"?>
<!DOCTYPE svg PUBLIC "-//W3C//DTD SVG 20010904//EN"
 "http://www.w3.org/TR/2001/REC-SVG-20010904/DTD/svg10.dtd">
<svg version="1.0" xmlns="http://www.w3.org/2000/svg"
 width="56.000000pt" height="56.000000pt" viewBox="0 0 56.000000 56.000000"
 preserveAspectRatio="xMidYMid meet">
<metadata>
Created by potrace 1.16, written by Peter Selinger 2001-2019
</metadata>
<g transform="translate(0.000000,56.000000) scale(0.100000,-0.100000)"
fill="#000000" stroke="none">
<path d="M172 560 c-23 0 -42 -4 -42 -9 0 -5 -11 -12 -25 -15 -13 -3 -29 -16
-36 -27 -8 -16 -7 -25 7 -40 9 -10 28 -19 41 -19 14 0 33 -10 44 -22 10 -13
18 -35 19 -50 0 -15 4 -29 8 -32 5 -3 9 -36 10 -73 1 -37 7 -80 13 -96 6 -15
19 -27 29 -27 10 0 23 -6 29 -14 7 -8 23 -17 36 -20 14 -4 25 -12 25 -19 0 -8
-10 -23 -23 -35 -13 -12 -27 -22 -33 -22 -5 0 -20 -9 -34 -20 -25 -20 -25 -20
18 -20 30 0 54 7 75 23 17 12 54 27 82 32 30 6 51 16 52 25 2 9 -15 24 -42 37
-25 13 -50 23 -57 23 -6 0 -29 8 -50 17 -21 9 -40 24 -43 33 -3 9 1 35 9 58
12 32 13 49 4 74 -5 18 -18 51 -28 73 -10 22 -20 48 -23 57 -3 9 -22 24 -41
33 -20 10 -36 19 -36 21 0 2 12 15 27 29 28 25 28 25 -15 25z"/>
</g>
</svg>
