<?xml version="1.0" standalone="no"?>
<!DOCTYPE svg PUBLIC "-//W3C//DTD SVG 20010904//EN"
 "http://www.w3.org/TR/2001/REC-SVG-20010904/DTD/svg10.dtd">
<svg version="1.0" xmlns="http://www.w3.org/2000/svg"
 width="56.000000pt" height="56.000000pt" viewBox="0 0 56.000000 56.000000"
 preserveAspectRatio="xMidYMid meet">
<metadata>
Created by potrace 1.16, written by Peter Selinger 2001-2019
</metadata>
<g transform="translate(0.000000,56.000000) scale(0.100000,-0.100000)"
fill="#000000" stroke="none">
<path d="M150 560 c-6 0 -13 -7 -17 -16 -3 -8 -1 -20 6 -27 6 -6 11 -17 11
-24 0 -7 -18 -25 -40 -39 -26 -18 -37 -31 -31 -37 6 -6 25 -2 53 11 24 11 60
27 81 36 20 8 40 23 44 32 4 11 -1 22 -12 30 -10 8 -34 14 -52 14 -18 0 -33 5
-33 10 0 6 -5 10 -10 10z"/>
<path d="M270 430 c-9 0 -22 -6 -30 -13 -8 -8 -39 -24 -69 -37 -41 -16 -66
-21 -98 -16 -38 5 -43 3 -43 -14 0 -10 13 -28 28 -39 28 -20 28 -20 106 26 43
24 80 42 84 39 3 -4 -2 -22 -11 -41 -9 -19 -21 -35 -26 -35 -6 0 -16 -11 -23
-24 -7 -13 -45 -62 -83 -108 -39 -45 -76 -91 -84 -100 -8 -11 -11 -28 -7 -43
4 -14 13 -25 21 -25 8 0 15 4 15 9 0 5 18 32 39 61 21 29 61 67 88 84 26 18
58 36 70 40 19 6 25 2 33 -19 5 -14 10 -37 10 -49 0 -13 9 -31 20 -41 16 -15
29 -17 72 -11 29 4 75 10 103 14 35 5 51 12 53 24 2 12 -8 22 -32 32 -28 12
-43 13 -68 4 -18 -6 -38 -15 -44 -19 -5 -5 -20 -6 -32 -2 -16 4 -22 13 -22 34
0 15 -4 39 -9 52 -7 19 -20 27 -50 32 -23 4 -41 10 -41 15 0 4 10 20 22 36 13
16 33 39 45 52 13 13 23 29 23 37 0 8 -10 21 -22 29 -12 9 -29 16 -38 16z"/>
<path d="M225 40 c-21 20 -25 21 -31 6 -3 -9 -4 -23 0 -31 3 -8 17 -15 31 -15
14 0 25 4 25 8 0 5 -11 19 -25 32z"/>
</g>
</svg>
