<?xml version="1.0" standalone="no"?>
<!DOCTYPE svg PUBLIC "-//W3C//DTD SVG 20010904//EN"
 "http://www.w3.org/TR/2001/REC-SVG-20010904/DTD/svg10.dtd">
<svg version="1.0" xmlns="http://www.w3.org/2000/svg"
 width="56.000000pt" height="56.000000pt" viewBox="0 0 56.000000 56.000000"
 preserveAspectRatio="xMidYMid meet">
<metadata>
Created by potrace 1.16, written by Peter Selinger 2001-2019
</metadata>
<g transform="translate(0.000000,56.000000) scale(0.100000,-0.100000)"
fill="#000000" stroke="none">
<path d="M243 559 c-7 1 -13 -7 -13 -17 0 -10 9 -37 21 -61 13 -27 26 -41 36
-39 9 2 21 10 26 20 9 13 4 25 -24 56 -19 22 -40 41 -46 41z"/>
<path d="M308 400 c-13 -1 -48 -14 -78 -30 -30 -16 -63 -29 -72 -30 -10 0 -18
-7 -18 -15 0 -8 8 -19 19 -24 14 -8 29 -4 65 19 42 27 46 28 46 10 0 -11 -8
-34 -19 -52 -10 -18 -29 -51 -42 -73 -13 -22 -40 -62 -61 -90 -22 -29 -38 -61
-38 -77 0 -15 4 -29 9 -32 5 -3 20 12 35 34 14 22 26 42 26 45 0 3 10 19 22
35 12 17 30 30 39 30 10 0 27 -13 39 -30 19 -27 27 -30 76 -30 36 0 54 -4 54
-12 0 -7 -9 -28 -20 -46 -20 -32 -20 -32 10 -32 25 0 31 5 41 40 11 36 10 44
-8 68 -15 20 -31 28 -65 32 -29 3 -57 15 -81 35 -37 30 -37 30 -17 65 11 19
31 57 46 84 14 26 23 54 20 62 -3 8 -16 14 -28 14z"/>
</g>
</svg>
