<?xml version="1.0" standalone="no"?>
<!DOCTYPE svg PUBLIC "-//W3C//DTD SVG 20010904//EN"
 "http://www.w3.org/TR/2001/REC-SVG-20010904/DTD/svg10.dtd">
<svg version="1.0" xmlns="http://www.w3.org/2000/svg"
 width="56.000000pt" height="56.000000pt" viewBox="0 0 56.000000 56.000000"
 preserveAspectRatio="xMidYMid meet">
<metadata>
Created by potrace 1.16, written by Peter Selinger 2001-2019
</metadata>
<g transform="translate(0.000000,56.000000) scale(0.100000,-0.100000)"
fill="#000000" stroke="none">
<path d="M258 559 c-13 0 -31 -8 -40 -18 -10 -10 -15 -25 -12 -38 4 -16 -5
-32 -35 -62 -34 -34 -41 -48 -41 -80 0 -22 5 -43 10 -46 6 -4 26 -1 45 5 19 6
40 10 45 8 5 -2 -5 -32 -23 -68 -18 -36 -50 -90 -71 -122 -23 -34 -36 -65 -34
-79 2 -12 8 -24 14 -26 6 -2 26 26 44 62 18 36 39 70 46 76 10 8 21 0 46 -35
29 -43 35 -46 75 -46 24 0 43 -3 43 -8 0 -4 -14 -24 -31 -45 -28 -34 -29 -37
-10 -37 11 0 41 12 66 28 25 15 48 37 51 49 3 12 3 27 -1 32 -3 6 -23 11 -44
11 -21 0 -52 3 -69 6 -24 5 -34 14 -42 40 -7 19 -21 40 -32 48 -13 9 -18 21
-14 33 3 11 26 50 51 88 40 60 44 71 31 83 -13 13 -18 13 -41 -4 -15 -10 -41
-27 -58 -36 -18 -10 -40 -18 -49 -18 -10 0 -18 6 -18 13 0 8 10 23 23 34 12
11 36 28 54 37 17 9 35 21 39 27 3 6 0 22 -7 37 -11 20 -11 26 -1 29 6 3 12 9
12 14 0 5 -10 9 -22 8z"/>
</g>
</svg>
