<?xml version="1.0" standalone="no"?>
<!DOCTYPE svg PUBLIC "-//W3C//DTD SVG 20010904//EN"
 "http://www.w3.org/TR/2001/REC-SVG-20010904/DTD/svg10.dtd">
<svg version="1.0" xmlns="http://www.w3.org/2000/svg"
 width="128.000000pt" height="128.000000pt" viewBox="0 0 128.000000 128.000000"
 preserveAspectRatio="xMidYMid meet">
<metadata>
Created by potrace 1.16, written by Peter Selinger 2001-2019
</metadata>
<g transform="translate(0.000000,128.000000) scale(0.100000,-0.100000)"
fill="#000000" stroke="none">
<path d="M409 1240 c-11 0 -19 -6 -19 -14 0 -8 5 -18 10 -21 6 -3 10 -17 10
-30 0 -17 -8 -26 -30 -34 -21 -7 -39 -7 -57 0 -15 6 -38 8 -50 4 -13 -3 -23
-11 -23 -18 0 -7 13 -20 29 -30 16 -9 44 -19 63 -21 18 -2 36 -4 40 -5 4 0 0
-21 -10 -46 -10 -25 -41 -69 -69 -99 -29 -31 -73 -65 -105 -80 -30 -14 -62
-34 -71 -43 -8 -10 -18 -34 -22 -54 -5 -26 -2 -39 9 -48 13 -11 23 -10 58 7
24 12 57 24 73 27 17 4 48 15 71 25 23 10 63 20 89 22 31 2 49 -1 52 -9 2 -7
-24 -31 -58 -55 -34 -24 -81 -60 -105 -82 -24 -21 -44 -47 -44 -58 0 -18 6
-19 53 -16 50 3 52 2 55 -25 2 -16 -5 -39 -18 -56 -11 -17 -47 -46 -79 -65
-32 -20 -67 -36 -78 -36 -11 0 -29 -10 -40 -22 -11 -13 -24 -33 -27 -45 -5
-15 0 -28 16 -43 19 -18 30 -21 63 -16 22 4 61 10 87 15 27 4 56 15 65 24 17
14 20 14 42 -4 13 -10 32 -19 43 -19 10 0 37 -9 58 -20 22 -11 43 -19 47 -18
5 1 25 -6 47 -15 21 -9 44 -17 50 -17 6 0 24 -11 41 -24 30 -24 30 -24 10 -46
-11 -12 -36 -30 -56 -40 -20 -10 -48 -35 -63 -54 -27 -36 -27 -36 57 -36 84 0
84 0 102 55 12 38 22 55 34 55 9 0 39 -20 66 -45 28 -25 53 -45 57 -45 4 0 23
14 43 31 19 17 35 37 35 45 0 8 -9 23 -19 33 -11 11 -27 31 -36 45 -13 19 -26
26 -49 26 -18 0 -37 5 -43 11 -6 6 -20 16 -31 23 -11 6 -46 25 -79 42 -32 17
-80 36 -108 42 -27 6 -72 10 -100 10 -27 -1 -72 0 -98 1 -33 1 -49 6 -54 17
-3 8 4 25 17 40 13 13 29 24 36 24 7 0 19 8 26 18 7 10 26 22 42 26 29 7 29 7
8 29 -18 19 -20 29 -13 83 4 34 15 73 24 88 10 14 27 26 38 26 18 0 21 -4 16
-27 -3 -16 -11 -74 -18 -130 -6 -55 -9 -108 -6 -117 4 -9 18 -16 31 -16 15 0
31 9 40 22 8 13 20 53 26 90 5 37 24 108 40 157 16 50 41 116 55 146 15 30 32
55 39 55 7 0 23 -26 35 -59 11 -32 21 -66 21 -75 0 -9 -8 -20 -17 -23 -9 -4
-29 -20 -45 -37 -23 -26 -28 -39 -25 -75 1 -29 8 -48 19 -55 14 -8 24 -4 52
23 19 18 38 31 43 28 5 -3 15 -25 22 -49 8 -24 32 -99 55 -167 23 -68 49 -129
58 -134 12 -8 23 -6 42 6 22 15 26 25 26 63 0 25 -7 69 -16 97 -8 29 -27 74
-41 101 -14 27 -29 63 -33 80 -5 17 -14 47 -21 66 -7 19 -20 53 -30 75 -11 26
-14 46 -8 56 4 9 10 46 11 82 2 39 -1 67 -7 68 -5 1 -18 -15 -28 -35 -9 -20
-21 -36 -26 -36 -5 0 -12 7 -15 16 -3 9 -6 28 -6 44 0 15 7 33 15 40 9 7 29
33 45 57 17 24 30 48 30 52 0 5 -6 13 -12 18 -7 6 -32 13 -55 17 -43 6 -43 6
-32 -21 5 -14 8 -32 5 -40 -3 -7 -12 -13 -20 -13 -9 0 -20 17 -27 43 -6 23
-12 63 -13 88 -1 25 -7 54 -15 63 -8 9 -28 16 -48 16 -34 0 -34 0 -27 -47 4
-27 13 -68 21 -93 8 -25 20 -69 28 -97 15 -52 14 -53 -15 -100 -17 -26 -30
-53 -30 -59 0 -7 -4 -15 -9 -18 -5 -3 -24 9 -43 28 -25 25 -47 36 -81 41 -36
6 -53 3 -73 -10 -14 -9 -32 -14 -39 -11 -8 3 -11 13 -8 25 3 12 9 21 13 21 5
0 18 21 31 48 12 26 32 60 43 75 12 16 38 38 58 48 21 11 42 28 48 38 7 15 6
23 -6 35 -8 9 -24 21 -35 27 -11 5 -28 7 -38 4 -12 -3 -34 4 -56 20 -21 14
-46 25 -56 25z m-26 -370 c6 0 21 -7 31 -15 17 -13 17 -15 3 -21 -10 -3 -24
-4 -32 0 -8 3 -15 12 -15 21 0 8 6 15 13 15z m241 -60 c4 0 5 -17 1 -37 -4
-21 -11 -44 -17 -50 -6 -7 -17 -13 -24 -13 -9 0 -14 11 -14 31 0 20 8 38 23
50 12 10 26 18 31 19z"/>
<path d="M1014 1004 c-38 5 -54 3 -63 -8 -10 -11 -2 -21 38 -52 28 -22 54 -50
57 -64 4 -14 20 -44 36 -67 16 -24 35 -43 42 -43 7 0 20 8 29 18 8 9 18 33 22
53 6 32 2 43 -30 85 -21 27 -47 54 -59 60 -11 6 -44 14 -72 18z"/>
<path d="M256 110 c-14 0 -27 -4 -30 -9 -3 -5 3 -20 14 -34 11 -14 20 -35 20
-46 0 -19 6 -21 60 -21 46 0 60 3 60 14 0 8 -12 28 -27 44 -16 16 -38 35 -50
41 -12 6 -33 11 -47 11z"/>
</g>
</svg>
