<?xml version="1.0" standalone="no"?>
<!DOCTYPE svg PUBLIC "-//W3C//DTD SVG 20010904//EN"
 "http://www.w3.org/TR/2001/REC-SVG-20010904/DTD/svg10.dtd">
<svg version="1.0" xmlns="http://www.w3.org/2000/svg"
 width="128.000000pt" height="128.000000pt" viewBox="0 0 128.000000 128.000000"
 preserveAspectRatio="xMidYMid meet">
<metadata>
Created by potrace 1.16, written by Peter Selinger 2001-2019
</metadata>
<g transform="translate(0.000000,128.000000) scale(0.100000,-0.100000)"
fill="#000000" stroke="none">
<path d="M435 1189 c-5 0 -20 -4 -33 -10 -13 -5 -20 -13 -17 -19 3 -5 18 -10
33 -10 15 0 34 5 42 10 13 9 13 11 0 20 -8 5 -19 9 -25 9z"/>
<path d="M785 1179 c-11 -1 -39 -7 -62 -13 -23 -6 -45 -14 -49 -19 -4 -4 1
-16 11 -27 18 -19 17 -22 -18 -98 -20 -42 -48 -107 -62 -144 -15 -36 -34 -69
-42 -72 -9 -4 -23 0 -33 9 -9 8 -26 15 -38 15 -21 0 -22 5 -22 79 0 57 -6 92
-20 125 -17 40 -23 46 -50 46 -19 0 -33 -6 -37 -16 -3 -9 -1 -25 6 -35 7 -12
9 -35 5 -60 -6 -36 -12 -43 -57 -65 -28 -14 -59 -23 -70 -20 -11 3 -33 -2 -49
-10 -15 -8 -28 -18 -28 -22 0 -5 13 -18 30 -30 16 -12 35 -22 42 -22 7 0 40
11 73 25 33 13 65 25 70 25 6 0 16 -19 23 -42 6 -24 14 -55 18 -69 3 -17 1
-30 -8 -35 -7 -5 -53 -11 -103 -14 -69 -4 -90 -8 -92 -20 -2 -8 15 -28 37 -44
22 -17 40 -37 40 -46 0 -9 -9 -26 -20 -38 -11 -11 -39 -34 -62 -49 -24 -16
-61 -34 -83 -42 -22 -7 -55 -19 -72 -27 -18 -8 -33 -22 -33 -31 0 -12 8 -14
43 -9 23 4 59 12 79 19 21 8 41 16 44 20 4 4 17 7 28 7 12 0 42 11 68 25 26
14 56 25 66 25 10 0 38 -22 61 -49 37 -44 39 -51 24 -59 -9 -6 -40 -8 -68 -5
-31 3 -61 1 -74 -7 -18 -9 -21 -17 -16 -38 4 -15 12 -33 18 -41 7 -8 30 -50
52 -95 31 -63 46 -82 64 -84 12 -2 46 4 73 13 28 9 74 19 102 21 28 3 61 7 72
10 12 2 53 43 92 90 39 47 72 97 75 110 3 15 -3 34 -15 49 -10 13 -34 27 -53
31 -22 4 -49 1 -72 -9 -21 -8 -59 -17 -84 -21 -37 -5 -48 -4 -52 8 -3 8 -2 42
4 76 6 40 6 67 -1 80 -5 10 -10 26 -10 34 0 8 9 20 20 26 16 9 31 5 77 -21 32
-18 87 -50 123 -72 36 -22 76 -46 90 -53 14 -8 30 -14 36 -14 6 0 29 -16 51
-35 31 -26 50 -35 78 -35 20 0 46 5 58 12 12 7 34 11 49 9 14 -1 29 2 33 8 3
6 24 11 46 11 25 0 39 5 39 13 0 7 -5 18 -12 25 -7 7 -25 12 -40 12 -16 0 -40
7 -53 16 -13 9 -42 17 -65 18 -22 1 -45 7 -52 14 -7 7 -26 12 -43 12 -16 0
-43 7 -60 16 -16 9 -52 28 -78 41 -27 13 -69 28 -94 32 -25 5 -50 14 -56 20
-7 7 -7 14 -2 20 6 5 30 13 54 18 24 4 48 15 54 24 5 9 7 28 3 42 -3 15 -15
31 -26 37 -15 8 -33 5 -76 -10 -31 -10 -61 -17 -65 -14 -5 3 -9 12 -9 19 0 8
14 30 31 49 16 19 43 62 60 96 20 43 34 60 48 60 11 0 32 -5 46 -10 21 -8 36
-6 68 8 23 11 50 28 60 39 9 11 15 27 11 36 -3 8 -12 18 -19 21 -8 3 -35 -4
-60 -15 -26 -11 -53 -18 -60 -15 -11 4 -11 14 3 56 14 45 14 52 2 60 -8 6 -24
9 -35 9z m-330 -611 c16 -2 20 -11 20 -38 0 -25 -5 -36 -18 -38 -10 -2 -24 2
-32 8 -8 7 -15 20 -15 29 0 9 6 23 12 29 7 7 22 11 33 10z m198 -229 c32 1 37
-2 37 -21 0 -13 -9 -37 -20 -55 -10 -18 -32 -38 -47 -46 -15 -8 -54 -22 -86
-31 -32 -9 -66 -14 -76 -11 -9 3 -29 30 -44 60 -27 55 -27 55 -4 67 12 7 63
17 112 24 50 6 107 12 128 13z"/>
</g>
</svg>
