<?xml version="1.0" standalone="no"?>
<!DOCTYPE svg PUBLIC "-//W3C//DTD SVG 20010904//EN"
 "http://www.w3.org/TR/2001/REC-SVG-20010904/DTD/svg10.dtd">
<svg version="1.0" xmlns="http://www.w3.org/2000/svg"
 width="128.000000pt" height="128.000000pt" viewBox="0 0 128.000000 128.000000"
 preserveAspectRatio="xMidYMid meet">
<metadata>
Created by potrace 1.16, written by Peter Selinger 2001-2019
</metadata>
<g transform="translate(0.000000,128.000000) scale(0.100000,-0.100000)"
fill="#000000" stroke="none">
<path d="M615 1280 c-15 0 -25 -6 -25 -14 0 -8 4 -17 9 -20 5 -4 16 -3 25 0 9
3 16 12 16 20 0 8 -10 14 -25 14z"/>
<path d="M536 1260 c-6 0 -24 -16 -39 -35 -16 -20 -27 -43 -25 -52 2 -9 17
-24 33 -33 27 -15 30 -22 33 -73 3 -48 0 -58 -15 -63 -10 -3 -28 -10 -40 -16
-12 -6 -38 -7 -60 -3 -21 4 -51 14 -66 23 -24 15 -29 15 -37 2 -6 -9 -2 -26
11 -50 11 -19 28 -46 38 -59 14 -18 28 -24 64 -25 25 -1 48 -4 52 -8 3 -3 2
-24 -4 -46 -6 -22 -20 -51 -31 -65 -11 -14 -20 -30 -20 -35 0 -6 -14 -35 -32
-64 -17 -29 -42 -70 -55 -90 -13 -21 -23 -44 -23 -52 0 -7 12 -18 28 -24 15
-6 36 -12 47 -14 13 -2 21 -12 23 -30 3 -22 -4 -29 -44 -49 -25 -13 -49 -29
-51 -36 -3 -7 2 -24 11 -38 9 -13 28 -35 43 -49 25 -24 26 -26 10 -44 -9 -10
-17 -28 -17 -40 0 -16 6 -22 24 -22 13 0 29 7 36 15 7 8 19 15 26 15 8 0 14
-8 14 -18 0 -11 11 -24 25 -30 14 -7 32 -12 40 -12 8 0 11 7 8 21 -3 11 -12
23 -19 26 -8 3 -14 13 -14 23 0 12 9 20 22 22 15 2 38 25 65 67 24 35 43 76
43 91 0 20 -9 31 -41 49 -30 17 -44 20 -52 12 -6 -6 -19 -11 -29 -11 -16 0
-17 8 -14 77 3 71 5 78 32 100 16 12 36 23 45 23 9 0 22 6 28 14 6 8 26 16 44
19 18 3 52 10 76 16 24 7 51 9 61 6 10 -3 23 -19 29 -36 6 -16 19 -41 29 -54
15 -19 20 -42 21 -102 0 -46 -7 -109 -18 -153 -10 -41 -27 -90 -39 -109 -11
-18 -40 -46 -64 -62 -23 -16 -51 -29 -61 -29 -10 0 -24 -15 -34 -35 -11 -23
-24 -35 -37 -35 -12 0 -27 9 -34 20 -7 11 -18 20 -25 20 -7 0 -17 -8 -24 -19
-8 -13 -24 -19 -52 -19 -23 0 -45 -4 -51 -7 -5 -3 -10 -10 -10 -15 0 -5 10
-11 23 -15 12 -3 43 -16 69 -27 45 -20 49 -20 66 -5 10 10 28 17 41 17 12 0
49 13 84 28 40 18 84 51 124 90 46 45 65 72 73 104 6 24 22 79 35 123 14 44
25 101 25 127 0 26 -7 69 -16 95 -9 26 -24 56 -33 65 -9 10 -27 29 -41 44 -14
14 -35 30 -48 35 -13 5 -47 9 -76 9 -32 0 -68 -8 -94 -20 -23 -11 -53 -25 -65
-29 -13 -5 -29 -6 -37 -1 -10 6 -8 21 8 71 11 35 23 90 27 122 7 52 10 58 27
54 11 -3 36 1 56 9 20 8 52 23 69 32 18 9 35 22 37 29 3 7 -9 23 -27 35 -22
16 -46 23 -77 23 -45 0 -45 0 -48 43 -2 32 -9 46 -28 59 -14 8 -23 23 -22 33
2 9 -3 24 -11 33 -7 10 -19 17 -25 17z"/>
</g>
</svg>
