<?xml version="1.0" standalone="no"?>
<!DOCTYPE svg PUBLIC "-//W3C//DTD SVG 20010904//EN"
 "http://www.w3.org/TR/2001/REC-SVG-20010904/DTD/svg10.dtd">
<svg version="1.0" xmlns="http://www.w3.org/2000/svg"
 width="128.000000pt" height="128.000000pt" viewBox="0 0 128.000000 128.000000"
 preserveAspectRatio="xMidYMid meet">
<metadata>
Created by potrace 1.16, written by Peter Selinger 2001-2019
</metadata>
<g transform="translate(0.000000,128.000000) scale(0.100000,-0.100000)"
fill="#000000" stroke="none">
<path d="M1175 1280 c-8 0 -15 -4 -15 -10 0 -5 7 -10 15 -10 8 0 15 5 15 10 0
6 -7 10 -15 10z"/>
<path d="M319 1247 c-24 3 -47 1 -51 -3 -5 -4 -8 -11 -8 -16 0 -5 11 -13 24
-20 14 -6 27 -17 30 -25 3 -8 -3 -31 -14 -51 -11 -20 -29 -48 -40 -62 -11 -14
-29 -52 -41 -85 -11 -33 -26 -73 -34 -90 -7 -16 -22 -61 -33 -100 -12 -38 -26
-100 -32 -136 -10 -58 -9 -72 9 -122 11 -32 33 -80 49 -108 16 -27 48 -74 73
-104 30 -37 50 -54 64 -52 17 2 21 15 33 97 7 52 22 138 33 190 12 52 20 108
18 125 -3 19 -10 31 -23 33 -10 2 -22 0 -27 -5 -5 -5 -16 -60 -24 -122 -8 -62
-19 -130 -25 -151 -6 -21 -17 -41 -25 -44 -10 -4 -21 7 -35 34 -11 22 -20 48
-20 59 0 11 -4 23 -10 26 -5 3 -10 30 -10 59 0 31 11 87 26 132 15 44 33 91
40 106 8 15 14 52 14 83 0 31 6 71 14 89 8 18 34 50 59 71 25 21 51 51 57 66
6 15 10 39 8 54 -2 16 -15 37 -29 48 -15 10 -46 21 -70 24z"/>
<path d="M1001 1200 c-46 0 -64 -6 -100 -30 -24 -17 -48 -30 -54 -30 -5 0 -22
-11 -39 -25 -16 -14 -35 -25 -42 -25 -7 0 -27 -11 -46 -25 -19 -14 -41 -25
-50 -25 -8 0 -32 -9 -53 -20 -20 -11 -50 -20 -66 -20 -16 0 -39 -9 -52 -19
-24 -20 -24 -20 -4 -36 14 -11 32 -14 60 -11 22 3 69 17 104 31 35 14 65 24
67 22 2 -2 -26 -31 -63 -64 -38 -34 -83 -73 -101 -88 -30 -25 -33 -32 -30 -74
3 -44 4 -46 36 -49 26 -3 39 3 62 28 29 31 29 31 74 5 29 -17 53 -24 66 -20
11 3 20 10 20 14 0 4 30 42 68 83 37 42 81 94 99 116 18 22 41 42 52 45 17 4
19 1 14 -29 -3 -18 1 -55 10 -81 11 -32 16 -87 16 -168 0 -66 5 -209 11 -319
5 -109 7 -202 4 -207 -3 -5 -12 -9 -21 -9 -9 0 -35 10 -59 22 -24 12 -65 41
-91 64 -33 30 -50 40 -55 31 -4 -7 -8 -17 -8 -23 0 -6 27 -51 61 -100 33 -49
69 -103 80 -121 11 -17 27 -34 35 -37 8 -3 33 3 54 14 22 11 52 40 70 67 33
48 33 48 26 148 -4 55 -9 152 -12 215 -2 63 -9 142 -14 175 -5 33 -9 92 -8
130 1 39 0 117 -1 175 -2 60 -8 112 -14 121 -7 9 -22 21 -34 28 -13 6 -23 21
-23 32 0 11 4 29 10 39 5 10 7 26 4 34 -5 12 -20 16 -63 16z m-74 -174 c2 -2
-1 -14 -6 -27 -5 -13 -30 -53 -56 -87 -27 -35 -54 -66 -62 -69 -7 -3 -33 1
-58 8 -25 7 -45 16 -45 20 0 4 17 20 38 35 20 16 60 44 87 63 28 19 61 41 75
48 13 7 26 11 27 9z"/>
<path d="M559 335 c-52 0 -84 -4 -91 -12 -6 -7 -8 -20 -4 -28 3 -8 20 -21 38
-29 18 -8 54 -23 79 -35 30 -13 49 -28 53 -43 3 -13 6 -49 6 -80 0 -31 -4 -68
-10 -82 -10 -26 -10 -26 71 -26 51 0 78 4 74 10 -3 6 -24 10 -46 10 -24 0 -39
5 -40 13 -1 6 0 39 1 72 1 33 2 69 2 80 -1 11 -5 42 -10 68 -5 27 -17 56 -26
65 -13 13 -35 17 -97 17z"/>
</g>
</svg>
