<?xml version="1.0" standalone="no"?>
<!DOCTYPE svg PUBLIC "-//W3C//DTD SVG 20010904//EN"
 "http://www.w3.org/TR/2001/REC-SVG-20010904/DTD/svg10.dtd">
<svg version="1.0" xmlns="http://www.w3.org/2000/svg"
 width="128.000000pt" height="128.000000pt" viewBox="0 0 128.000000 128.000000"
 preserveAspectRatio="xMidYMid meet">
<metadata>
Created by potrace 1.16, written by Peter Selinger 2001-2019
</metadata>
<g transform="translate(0.000000,128.000000) scale(0.100000,-0.100000)"
fill="#000000" stroke="none">
<path d="M780 1260 c-17 9 -20 7 -25 -15 -3 -14 -7 -36 -10 -49 -3 -14 -22
-49 -43 -79 -20 -30 -52 -65 -70 -78 -18 -13 -38 -35 -43 -48 -5 -13 -6 -28
-1 -33 4 -4 30 6 58 24 27 17 60 41 74 53 14 12 44 29 66 38 23 9 44 13 48 10
3 -4 6 -10 6 -15 0 -4 -28 -39 -63 -77 -35 -38 -89 -89 -119 -114 -31 -25 -80
-62 -109 -83 -30 -21 -64 -48 -77 -60 -12 -13 -22 -28 -22 -34 0 -5 9 -10 20
-10 11 0 28 8 38 18 10 9 36 31 58 48 21 17 68 50 104 75 36 24 76 50 89 56
13 7 30 13 38 13 8 0 13 -4 11 -9 -1 -5 -39 -37 -83 -71 -44 -34 -101 -83
-127 -108 -27 -26 -48 -52 -48 -60 0 -9 7 -11 23 -6 12 3 27 10 32 15 6 4 53
30 105 57 52 27 119 63 148 82 29 18 56 30 59 26 4 -3 -5 -19 -19 -34 -13 -15
-62 -70 -108 -122 -46 -52 -93 -98 -105 -102 -11 -3 -38 -6 -61 -7 -27 -1 -47
-8 -58 -20 -18 -19 -17 -20 38 -14 48 5 56 3 56 -11 0 -10 -5 -26 -10 -37 -6
-10 -16 -19 -23 -19 -7 -1 -27 -21 -44 -45 -18 -24 -33 -49 -33 -55 0 -5 -3
-10 -7 -10 -5 0 -35 -26 -68 -58 -34 -31 -75 -78 -93 -104 -18 -26 -32 -51
-32 -57 0 -6 -7 -11 -15 -11 -7 0 -18 -6 -22 -14 -4 -8 -25 -26 -46 -40 -21
-14 -41 -26 -45 -26 -4 0 -13 9 -20 20 -7 12 -16 19 -21 16 -4 -3 -8 -21 -9
-41 -1 -33 0 -35 31 -35 18 0 51 11 74 23 23 12 67 44 98 71 30 26 65 64 76
83 12 19 34 43 50 52 15 9 54 48 86 87 32 38 73 93 92 122 18 28 38 52 45 52
7 0 17 -5 23 -11 7 -7 26 -8 52 -4 37 6 41 10 41 36 0 24 -5 30 -32 37 -25 6
-32 14 -30 28 2 10 12 25 23 33 10 7 19 20 19 27 0 8 5 14 10 14 6 0 36 27 68
61 31 33 84 81 117 106 33 25 64 51 68 59 5 10 -3 18 -30 29 -35 15 -39 15
-63 -4 -15 -10 -79 -47 -142 -80 -63 -34 -118 -61 -123 -61 -5 0 2 12 16 26
13 14 56 46 95 70 39 24 75 44 80 44 6 0 15 5 22 12 7 7 8 17 1 30 -5 10 -18
18 -29 18 -10 0 -39 -9 -65 -20 -26 -11 -54 -20 -62 -20 -8 0 23 39 71 86 47
48 86 93 86 100 0 7 -10 14 -22 16 -13 2 -39 0 -58 -4 -19 -3 -46 -10 -60 -14
-21 -6 -23 -5 -14 7 6 8 16 32 23 55 10 31 11 46 2 62 -6 12 -20 26 -31 32z"/>
<path d="M816 260 c-7 0 -15 -3 -19 -6 -3 -3 -1 -15 6 -25 9 -14 8 -30 -1 -66
-7 -26 -23 -69 -35 -95 -12 -27 -25 -48 -29 -48 -5 0 -8 -5 -8 -11 0 -6 14 -9
31 -7 28 3 36 11 65 66 22 41 34 78 34 103 0 22 -7 51 -16 64 -9 14 -22 25
-28 25z"/>
</g>
</svg>
