<?xml version="1.0" standalone="no"?>
<!DOCTYPE svg PUBLIC "-//W3C//DTD SVG 20010904//EN"
 "http://www.w3.org/TR/2001/REC-SVG-20010904/DTD/svg10.dtd">
<svg version="1.0" xmlns="http://www.w3.org/2000/svg"
 width="128.000000pt" height="128.000000pt" viewBox="0 0 128.000000 128.000000"
 preserveAspectRatio="xMidYMid meet">
<metadata>
Created by potrace 1.16, written by Peter Selinger 2001-2019
</metadata>
<g transform="translate(0.000000,128.000000) scale(0.100000,-0.100000)"
fill="#000000" stroke="none">
<path d="M489 1260 c-23 0 -41 -5 -43 -12 -3 -7 -9 -34 -15 -60 -6 -26 -11
-53 -11 -60 0 -7 9 -19 21 -26 16 -10 28 -11 57 -1 20 6 49 23 64 38 15 14 28
34 28 44 0 11 -14 32 -31 48 -23 22 -41 29 -70 29z m13 -40 c4 0 8 -7 8 -15 0
-8 -7 -15 -15 -15 -8 0 -15 4 -15 8 0 5 3 12 7 15 3 4 10 7 15 7z"/>
<path d="M428 1069 c-7 0 -23 -4 -34 -9 -12 -5 -29 -19 -38 -32 -9 -12 -16
-28 -16 -35 0 -7 9 -17 20 -23 12 -6 43 -11 70 -12 36 0 50 -4 50 -14 0 -7
-14 -24 -31 -36 -17 -13 -36 -36 -44 -53 -7 -16 -15 -37 -18 -47 -3 -9 2 -23
12 -32 10 -9 25 -16 34 -16 9 0 19 -5 23 -12 4 -6 -17 -34 -52 -68 -32 -32
-72 -72 -87 -90 -15 -18 -32 -41 -38 -51 -5 -10 -9 -28 -9 -41 0 -13 11 -36
23 -52 24 -29 24 -29 54 -6 19 13 48 23 72 24 28 2 56 13 86 34 25 18 49 32
54 32 5 0 13 -19 19 -42 6 -24 10 -52 10 -63 0 -11 0 -31 1 -45 1 -14 0 -36
-1 -50 -1 -14 -1 -82 0 -153 2 -127 2 -127 29 -138 18 -7 30 -6 37 1 7 7 7 16
0 27 -7 11 -8 33 -2 63 5 25 6 70 2 100 -5 30 -8 88 -8 128 -1 41 2 76 6 78 4
3 5 11 2 18 -3 7 2 16 10 19 11 5 16 20 16 51 0 25 -5 48 -10 51 -8 5 -7 11 1
21 9 11 7 16 -12 22 -15 6 -37 3 -67 -8 -25 -10 -50 -24 -56 -32 -6 -7 -29
-19 -51 -25 -22 -7 -62 -17 -88 -24 -26 -6 -50 -10 -52 -7 -3 2 18 29 45 58
28 29 50 56 50 60 0 3 17 14 38 24 20 10 54 37 76 62 29 33 36 47 28 57 -6 7
-34 21 -61 31 -33 12 -51 24 -51 35 0 9 14 24 30 33 25 14 29 22 24 43 -5 19
-2 25 9 25 9 0 18 -4 22 -9 3 -6 17 -4 33 5 15 7 37 14 50 14 12 0 22 4 22 9
0 5 9 12 19 16 11 3 22 13 25 22 4 9 2 21 -3 26 -6 6 -49 10 -96 9 -68 0 -89
-4 -99 -17 -6 -9 -18 -13 -27 -10 -9 3 -21 17 -27 31 -7 13 -17 24 -24 23z"/>
<path d="M771 435 c-5 3 -13 1 -16 -5 -4 -6 -2 -16 3 -23 5 -7 12 -23 15 -37
3 -14 15 -59 27 -100 12 -41 26 -80 31 -87 6 -6 9 -31 7 -54 -3 -43 -3 -43
-44 -44 -25 -1 -53 -10 -73 -24 -17 -13 -30 -28 -28 -35 2 -6 20 -12 40 -14
20 -2 53 5 74 15 20 9 49 16 63 15 15 -2 32 4 40 12 7 9 22 16 35 16 12 0 29
8 38 18 9 10 20 33 23 50 6 28 3 33 -20 42 -15 5 -34 22 -43 38 -9 15 -33 41
-54 56 -21 16 -40 39 -43 51 -3 13 -19 37 -36 55 -16 18 -30 36 -30 40 0 5 -4
11 -9 15z"/>
<path d="M427 340 c-30 0 -62 -6 -72 -14 -19 -14 -19 -15 -1 -35 18 -19 18
-22 2 -56 -10 -20 -16 -43 -14 -53 2 -9 17 -24 34 -32 17 -8 39 -27 47 -43 9
-15 23 -30 32 -33 9 -4 25 2 35 11 11 10 20 24 20 31 0 7 -12 20 -27 28 -16 9
-40 21 -54 27 -26 12 -26 12 -7 50 10 20 31 47 48 59 25 18 28 25 20 41 -9 15
-22 19 -63 19z"/>
</g>
</svg>
