<?xml version="1.0" standalone="no"?>
<!DOCTYPE svg PUBLIC "-//W3C//DTD SVG 20010904//EN"
 "http://www.w3.org/TR/2001/REC-SVG-20010904/DTD/svg10.dtd">
<svg version="1.0" xmlns="http://www.w3.org/2000/svg"
 width="128.000000pt" height="128.000000pt" viewBox="0 0 128.000000 128.000000"
 preserveAspectRatio="xMidYMid meet">
<metadata>
Created by potrace 1.16, written by Peter Selinger 2001-2019
</metadata>
<g transform="translate(0.000000,128.000000) scale(0.100000,-0.100000)"
fill="#000000" stroke="none">
<path d="M732 1258 c-54 3 -72 2 -72 -8 0 -7 11 -23 25 -36 20 -18 25 -33 25
-71 0 -26 3 -57 5 -68 3 -11 1 -26 -3 -33 -5 -7 -27 -18 -48 -24 -21 -6 -57
-11 -79 -12 -40 -1 -40 -1 -43 49 -2 27 -10 58 -19 67 -11 13 -31 18 -64 18
-26 0 -50 -4 -53 -9 -3 -5 10 -29 29 -54 19 -25 39 -57 44 -70 8 -21 6 -26
-15 -36 -14 -6 -34 -11 -45 -11 -11 0 -28 -4 -38 -9 -9 -5 -54 -11 -100 -12
-46 -2 -90 -8 -99 -15 -14 -11 -13 -15 11 -48 16 -20 33 -36 40 -36 7 0 28 10
46 21 19 12 60 29 90 39 31 9 90 23 131 30 41 6 102 18 135 27 33 8 68 22 77
30 11 10 26 13 44 9 14 -4 52 -1 83 5 31 7 65 19 76 26 16 10 35 10 80 3 33
-5 68 -7 77 -4 10 3 21 17 24 31 5 19 0 31 -19 51 -26 26 -26 26 -99 3 -40
-13 -77 -28 -83 -32 -5 -5 -24 -9 -41 -9 -18 0 -36 -5 -39 -10 -4 -6 -11 -8
-16 -5 -5 4 -9 12 -9 20 0 8 11 31 25 51 14 20 25 47 25 59 0 13 -8 33 -18 45
-15 18 -31 23 -90 28z"/>
<path d="M917 990 c-14 0 -30 -6 -36 -14 -10 -12 -7 -17 16 -28 24 -11 29 -21
35 -68 5 -30 11 -92 14 -137 5 -57 3 -92 -6 -113 -10 -25 -18 -30 -46 -30 -18
0 -35 -4 -38 -8 -2 -4 -1 -12 2 -17 4 -6 27 -28 50 -50 37 -34 44 -37 56 -25
8 8 20 40 26 70 6 30 13 69 16 85 2 17 4 68 3 115 -1 47 -2 103 -4 125 -1 22
-2 46 -3 52 -1 7 -15 19 -32 28 -16 8 -40 15 -53 15z"/>
<path d="M748 909 c-13 0 -29 -3 -35 -6 -7 -2 -13 -10 -13 -17 0 -7 11 -18 23
-23 20 -9 25 -21 30 -72 4 -34 4 -87 1 -119 -4 -37 -2 -67 5 -80 6 -12 16 -22
21 -22 5 0 16 13 24 28 9 18 16 71 19 142 5 113 5 113 -23 142 -16 16 -39 28
-52 27z"/>
<path d="M589 860 c-8 0 -21 -5 -29 -10 -8 -5 -26 -10 -40 -10 -14 0 -36 -7
-50 -14 -21 -12 -26 -12 -36 2 -10 14 -16 14 -54 2 -23 -8 -44 -19 -47 -26 -2
-7 3 -24 12 -38 12 -18 21 -65 28 -145 5 -65 7 -126 3 -136 -5 -15 -16 -17
-62 -13 -40 3 -57 1 -61 -8 -3 -7 5 -27 16 -43 12 -16 21 -34 21 -40 0 -6 8
-15 19 -20 14 -8 23 -6 37 11 11 11 42 38 70 59 28 20 59 46 69 56 10 10 29
18 42 18 19 1 26 -6 30 -27 3 -16 9 -31 14 -33 4 -3 18 9 31 27 17 24 28 64
41 148 10 63 20 131 23 151 5 33 2 39 -29 63 -18 14 -40 26 -48 26z m-97 -62
c29 1 59 -2 66 -6 7 -5 13 -26 15 -47 1 -30 -2 -41 -18 -49 -11 -6 -26 -15
-34 -20 -8 -5 -30 -9 -49 -10 -26 -1 -36 4 -42 19 -4 11 -11 34 -14 51 -5 22
-3 36 8 46 9 10 35 16 68 16z m10 -158 c4 0 9 -4 12 -9 3 -4 17 -6 31 -3 20 3
25 0 25 -15 0 -11 -10 -28 -22 -39 -13 -11 -40 -28 -61 -37 -21 -9 -39 -17
-41 -17 -2 0 -6 15 -9 33 -3 17 -8 43 -13 56 -6 22 -5 23 19 19 14 -3 32 -1
39 3 7 5 16 9 20 9z"/>
<path d="M714 520 c-6 0 -17 -7 -24 -15 -11 -13 -9 -20 9 -38 11 -13 21 -30
21 -39 0 -8 -8 -22 -18 -31 -9 -8 -42 -27 -72 -41 -30 -14 -60 -26 -66 -26 -6
0 -28 11 -48 25 -20 14 -40 25 -43 25 -3 0 -3 -23 -1 -51 3 -28 12 -58 21 -66
14 -15 20 -15 59 0 24 10 63 30 87 46 25 17 48 28 53 25 4 -3 8 -11 8 -19 0
-8 -23 -42 -52 -77 -29 -35 -55 -64 -58 -66 -3 -1 -30 -21 -60 -43 -30 -23
-79 -55 -108 -71 -29 -17 -51 -35 -49 -42 2 -6 19 -10 38 -8 19 2 59 15 89 30
38 17 82 53 141 114 48 48 91 88 96 88 5 0 32 -14 59 -32 27 -17 81 -62 120
-100 69 -67 71 -68 88 -49 10 11 17 36 18 58 0 22 -3 49 -6 61 -5 16 -27 27
-89 46 -45 14 -98 28 -117 32 -34 6 -34 6 5 27 22 11 54 32 72 47 17 16 42 32
55 36 13 4 36 19 52 35 28 28 28 28 -7 43 -20 8 -46 15 -59 16 -13 1 -29 2
-35 1 -8 -1 -13 -15 -13 -34 0 -25 -9 -43 -35 -70 -20 -21 -40 -37 -45 -37 -4
0 -8 37 -7 82 2 82 2 82 -33 100 -19 9 -40 17 -46 18z"/>
</g>
</svg>
