<?xml version="1.0" standalone="no"?>
<!DOCTYPE svg PUBLIC "-//W3C//DTD SVG 20010904//EN"
 "http://www.w3.org/TR/2001/REC-SVG-20010904/DTD/svg10.dtd">
<svg version="1.0" xmlns="http://www.w3.org/2000/svg"
 width="128.000000pt" height="128.000000pt" viewBox="0 0 128.000000 128.000000"
 preserveAspectRatio="xMidYMid meet">
<metadata>
Created by potrace 1.16, written by Peter Selinger 2001-2019
</metadata>
<g transform="translate(0.000000,128.000000) scale(0.100000,-0.100000)"
fill="#000000" stroke="none">
<path d="M899 1280 c-56 0 -59 -1 -59 -25 0 -13 -8 -40 -17 -60 -12 -25 -23
-35 -39 -35 -13 0 -25 -4 -29 -9 -3 -6 -34 -30 -69 -54 -64 -45 -64 -45 -114
1 -27 26 -52 55 -55 65 -4 11 -14 17 -24 15 -11 -2 -19 -14 -21 -31 -2 -16 5
-38 17 -53 14 -18 21 -41 21 -69 0 -35 -4 -44 -22 -50 -13 -4 -50 -6 -83 -6
-33 1 -91 3 -130 6 -38 2 -77 6 -85 9 -9 4 -24 0 -35 -8 -16 -12 -17 -16 -6
-29 7 -9 32 -23 57 -33 37 -14 53 -15 111 -5 37 6 88 15 113 21 25 5 66 12 91
15 25 2 59 10 75 16 16 7 40 13 54 13 18 1 25 7 25 21 0 12 14 27 36 40 19 11
49 30 65 43 16 13 58 42 93 65 35 23 73 54 84 68 12 17 17 34 12 48 -5 18 -14
21 -66 21z m-269 -250 c4 0 10 -7 13 -15 4 -8 2 -17 -3 -20 -6 -4 -14 -4 -20
0 -5 3 -7 12 -3 20 3 8 9 15 13 15z"/>
<path d="M1060 1074 c-25 3 -65 -1 -90 -8 -25 -7 -54 -17 -65 -23 -11 -6 -47
-13 -81 -16 -33 -2 -75 -12 -93 -21 -17 -9 -29 -21 -26 -25 2 -5 17 -11 32
-14 15 -3 52 0 83 5 30 6 62 13 70 16 8 2 38 5 67 6 51 1 51 1 47 -69 -3 -38
-6 -83 -9 -100 -2 -16 -4 -40 -4 -53 -1 -12 -9 -25 -18 -29 -10 -3 -25 -12
-33 -19 -8 -7 -30 -14 -49 -16 -19 -2 -36 -9 -39 -15 -2 -7 8 -17 23 -23 14
-5 50 -33 80 -61 30 -28 58 -48 64 -45 5 3 20 25 34 49 13 23 28 66 32 95 6
47 4 56 -14 76 -19 20 -20 24 -6 36 8 7 15 18 15 25 0 7 -7 18 -15 25 -9 8
-12 23 -9 43 3 18 7 42 10 54 2 12 16 36 30 53 16 18 23 35 18 40 -5 4 -29 11
-54 14z"/>
<path d="M841 930 c-11 0 -22 -4 -25 -8 -3 -5 -7 -41 -8 -80 -2 -39 1 -74 5
-79 5 -4 19 4 32 20 13 15 27 43 31 63 4 20 2 46 -5 60 -6 13 -19 24 -30 24z"/>
<path d="M641 879 c-9 -1 -34 -5 -56 -10 -22 -5 -78 -14 -125 -21 -47 -6 -92
-17 -100 -25 -12 -11 -12 -17 -2 -34 9 -13 13 -58 14 -123 0 -56 -2 -111 -6
-122 -4 -13 -22 -24 -53 -33 -27 -7 -54 -15 -61 -17 -7 -2 -10 -8 -7 -14 3 -5
26 -10 51 -10 24 0 53 -5 63 -11 14 -10 24 -8 47 9 16 12 67 38 114 57 47 19
90 35 95 35 6 0 27 16 48 36 35 35 37 39 31 83 -4 25 -8 73 -8 107 -1 35 -7
68 -15 78 -7 9 -21 15 -30 15z m-32 -19 c6 0 15 -9 21 -21 10 -18 9 -20 -7
-17 -10 2 -19 11 -21 21 -2 9 1 17 7 17z m-63 -61 c50 1 54 -1 60 -25 4 -13 4
-27 2 -29 -3 -3 -34 -6 -69 -7 -61 -3 -64 -2 -67 21 -2 13 2 27 8 31 7 4 36 8
66 9z m39 -91 c15 -2 21 -12 23 -40 3 -36 1 -39 -58 -77 -34 -22 -67 -38 -73
-35 -8 3 -12 30 -13 74 -1 69 -1 69 43 68 24 0 47 2 50 6 4 4 16 6 28 4z"/>
<path d="M733 529 c-4 0 -27 -9 -50 -19 -24 -11 -43 -21 -43 -24 0 -3 5 -17
12 -31 8 -17 8 -29 1 -36 -5 -5 -54 -15 -109 -21 -54 -6 -103 -14 -108 -19 -5
-5 3 -23 19 -44 15 -20 34 -39 42 -42 8 -3 18 -2 22 3 3 5 20 17 36 27 17 10
50 27 74 38 23 10 54 28 68 39 14 11 29 18 33 15 4 -3 4 -24 -1 -47 -4 -24
-12 -55 -18 -70 -5 -15 -24 -46 -41 -70 -17 -24 -47 -62 -67 -86 -20 -23 -39
-42 -44 -42 -4 0 -35 -18 -68 -40 -33 -22 -62 -44 -66 -50 -4 -6 12 -10 42
-10 26 0 58 6 69 13 12 6 52 35 90 64 38 28 75 61 82 72 7 12 19 21 27 21 9 0
18 -6 21 -14 3 -7 24 -22 47 -32 23 -10 70 -40 105 -66 35 -27 74 -48 88 -48
20 0 24 5 24 33 0 17 -4 37 -8 43 -4 6 -33 25 -64 43 -32 17 -63 31 -71 29 -7
-2 -34 8 -60 22 -29 15 -47 32 -47 43 0 10 7 33 14 52 10 22 22 35 33 35 10 0
29 7 41 16 13 9 29 13 36 11 8 -3 22 1 33 8 10 8 25 15 34 15 8 0 25 10 37 23
11 12 24 35 27 50 5 20 2 33 -10 47 -12 14 -31 20 -58 20 -31 0 -38 -3 -33
-15 3 -8 9 -21 12 -29 3 -8 -4 -23 -16 -33 -12 -10 -25 -27 -30 -38 -6 -15
-16 -20 -41 -18 -19 1 -37 2 -40 2 -3 1 -6 23 -7 49 -1 39 -7 55 -30 80 -17
18 -34 32 -39 31z"/>
</g>
</svg>
