<?xml version="1.0" standalone="no"?>
<!DOCTYPE svg PUBLIC "-//W3C//DTD SVG 20010904//EN"
 "http://www.w3.org/TR/2001/REC-SVG-20010904/DTD/svg10.dtd">
<svg version="1.0" xmlns="http://www.w3.org/2000/svg"
 width="128.000000pt" height="128.000000pt" viewBox="0 0 128.000000 128.000000"
 preserveAspectRatio="xMidYMid meet">
<metadata>
Created by potrace 1.16, written by Peter Selinger 2001-2019
</metadata>
<g transform="translate(0.000000,128.000000) scale(0.100000,-0.100000)"
fill="#000000" stroke="none">
<path d="M441 1280 c-26 0 -41 -5 -45 -16 -3 -9 -6 -20 -6 -25 0 -5 6 -9 13
-9 8 0 28 7 45 16 18 8 32 20 32 25 0 5 -18 9 -39 9z"/>
<path d="M799 1255 c-23 4 -39 3 -44 -5 -4 -6 -2 -16 3 -23 8 -10 2 -12 -29
-9 -39 4 -39 4 -39 -37 0 -34 -4 -43 -27 -54 -16 -8 -52 -20 -81 -27 -28 -6
-55 -16 -58 -22 -4 -5 1 -17 10 -26 12 -12 33 -17 76 -16 44 1 60 -3 60 -13 0
-7 -12 -32 -27 -56 -15 -23 -27 -53 -27 -67 -1 -17 -8 -26 -21 -28 -11 -3 -38
-22 -60 -44 -22 -22 -63 -51 -92 -65 -29 -14 -57 -31 -64 -39 -6 -8 -17 -14
-24 -14 -7 0 -18 -7 -25 -15 -7 -8 -19 -15 -28 -15 -12 0 -13 11 -7 73 3 39
11 77 15 82 5 6 8 25 8 43 -1 26 -7 36 -29 48 -26 13 -35 12 -96 -7 -38 -12
-75 -25 -83 -29 -8 -4 -16 -17 -18 -29 -2 -15 2 -21 15 -21 10 0 38 7 62 16
24 8 52 19 61 24 9 5 22 5 31 -1 12 -8 10 -13 -9 -26 -15 -10 -22 -26 -22 -47
0 -18 -5 -37 -11 -43 -6 -6 -19 -44 -29 -84 -11 -41 -20 -87 -20 -104 0 -16
-7 -39 -15 -49 -9 -12 -15 -42 -15 -72 0 -29 -5 -56 -10 -59 -8 -5 -7 -11 1
-21 9 -11 9 -17 -1 -29 -9 -11 -10 -18 -1 -29 8 -10 8 -20 -4 -42 -9 -18 -11
-32 -5 -38 6 -6 10 -20 10 -32 0 -12 7 -27 16 -35 10 -9 14 -22 10 -41 -3 -17
-1 -30 8 -35 8 -4 24 -25 36 -45 13 -23 30 -38 41 -38 12 0 19 7 19 20 0 11 7
20 15 20 9 0 27 11 40 25 16 15 25 36 25 54 0 16 4 32 9 35 5 3 11 20 14 38 3
18 12 71 20 118 9 47 17 131 19 188 2 68 0 102 -7 102 -6 0 -17 -26 -23 -57
-7 -32 -17 -92 -22 -133 -5 -41 -14 -93 -19 -115 -5 -22 -17 -62 -28 -90 -10
-27 -22 -56 -26 -62 -5 -7 -12 -13 -17 -13 -5 0 -17 15 -26 32 -14 27 -17 60
-16 181 0 98 5 153 12 163 7 7 10 21 6 30 -3 8 1 30 10 47 9 18 21 37 26 44 6
8 17 9 33 3 18 -7 35 -2 77 20 29 16 61 30 71 30 10 0 34 -26 60 -67 24 -38
51 -74 60 -81 13 -11 19 -7 45 30 16 24 59 72 94 108 35 36 82 87 106 113 27
31 48 47 59 45 10 -2 17 -10 16 -18 -1 -8 -5 -28 -9 -45 -4 -16 -28 -57 -54
-90 -25 -33 -60 -69 -77 -80 -17 -11 -39 -34 -50 -50 -11 -17 -42 -41 -69 -55
-28 -15 -60 -42 -76 -65 -16 -23 -27 -51 -25 -65 2 -20 9 -26 44 -33 34 -6 50
-4 85 13 24 12 63 28 86 36 24 9 50 13 57 10 11 -4 11 -14 0 -57 -8 -29 -20
-56 -27 -61 -7 -5 -31 -20 -53 -33 -22 -13 -67 -31 -100 -40 -33 -8 -67 -18
-77 -21 -10 -3 -18 -12 -18 -20 0 -10 14 -14 54 -14 30 0 57 4 60 9 3 5 29 10
59 13 29 2 79 15 110 28 55 23 61 23 125 11 37 -7 82 -15 99 -18 25 -4 34 -1
39 12 4 9 1 27 -6 40 -7 14 -30 36 -51 50 -21 14 -47 25 -58 25 -10 0 -35 -7
-55 -15 -20 -9 -41 -13 -46 -10 -5 3 -8 34 -6 68 3 62 4 64 54 111 33 31 52
57 52 71 0 13 -7 26 -16 29 -9 4 -38 4 -64 0 -26 -3 -50 -2 -53 3 -3 5 18 37
48 71 30 35 62 78 70 97 9 18 28 41 41 50 13 8 24 20 24 24 0 5 -14 24 -31 41
-22 21 -29 34 -22 41 7 7 13 7 17 1 3 -5 27 -7 53 -5 31 3 62 -1 85 -10 33
-14 38 -14 52 2 9 10 16 29 16 42 0 20 -9 28 -51 44 -28 11 -55 26 -61 33 -6
6 -22 12 -35 12 -14 0 -39 -10 -56 -22 -18 -12 -34 -25 -37 -28 -3 -4 -23 -10
-45 -13 -21 -4 -52 -16 -68 -28 -16 -12 -46 -23 -67 -26 -20 -3 -40 -1 -43 4
-3 5 5 38 17 74 13 35 21 69 19 76 -2 6 31 34 74 61 43 28 87 57 97 65 11 7
16 19 12 25 -4 7 -15 12 -25 12 -10 0 -31 6 -47 14 -16 8 -45 18 -65 21z m79
-361 c8 -2 18 -4 23 -4 5 0 9 -7 9 -15 0 -10 -11 -15 -35 -15 -24 0 -35 5 -35
14 0 8 6 17 13 19 6 3 18 4 25 1z m-100 -45 c6 1 12 -1 12 -4 0 -3 -15 -22
-32 -41 -18 -20 -58 -62 -89 -95 -31 -32 -63 -59 -72 -59 -8 0 -20 6 -26 14
-7 8 -15 31 -18 51 -5 29 -1 41 17 60 13 14 34 25 47 25 14 0 45 9 71 19 26
11 54 22 62 24 8 3 21 6 28 6z m14 -315 c5 -3 8 -16 8 -29 0 -17 -13 -32 -46
-55 -26 -17 -56 -30 -67 -28 -11 2 -22 8 -24 14 -2 6 9 25 24 42 16 17 44 38
63 46 19 8 38 12 42 10z"/>
<path d="M550 39 c-8 -1 -29 -7 -47 -13 -18 -6 -35 -15 -39 -19 -4 -4 28 -7
72 -7 79 0 79 0 54 20 -14 11 -32 19 -40 19z"/>
</g>
</svg>
