<?xml version="1.0" standalone="no"?>
<!DOCTYPE svg PUBLIC "-//W3C//DTD SVG 20010904//EN"
 "http://www.w3.org/TR/2001/REC-SVG-20010904/DTD/svg10.dtd">
<svg version="1.0" xmlns="http://www.w3.org/2000/svg"
 width="128.000000pt" height="128.000000pt" viewBox="0 0 128.000000 128.000000"
 preserveAspectRatio="xMidYMid meet">
<metadata>
Created by potrace 1.16, written by Peter Selinger 2001-2019
</metadata>
<g transform="translate(0.000000,128.000000) scale(0.100000,-0.100000)"
fill="#000000" stroke="none">
<path d="M680 1280 c-5 0 -10 -4 -12 -10 -1 -5 -34 -19 -73 -31 -38 -11 -95
-26 -126 -33 -31 -7 -61 -16 -67 -20 -7 -4 -12 -11 -12 -16 0 -5 16 -26 34
-47 35 -37 35 -37 71 -20 20 9 44 17 55 17 10 0 21 -4 24 -8 2 -4 -12 -45 -33
-91 -36 -80 -39 -83 -92 -106 -30 -13 -81 -31 -113 -42 -32 -10 -64 -25 -69
-34 -8 -13 -2 -30 26 -74 36 -58 36 -58 14 -69 -14 -8 -23 -22 -25 -43 -2 -18
3 -42 11 -55 8 -13 17 -35 21 -51 5 -21 12 -27 32 -27 13 0 27 -6 30 -14 3 -9
-35 -54 -100 -118 -58 -58 -110 -117 -116 -132 -5 -15 -10 -44 -10 -65 0 -20
5 -42 12 -49 7 -7 24 -12 39 -12 20 0 35 12 65 52 21 28 47 56 57 62 12 8 22
8 35 0 9 -6 21 -24 26 -40 5 -16 18 -49 30 -73 11 -24 34 -57 49 -73 16 -15
38 -30 50 -32 12 -2 55 -10 95 -17 59 -10 80 -10 108 0 20 7 51 10 76 6 37 -6
46 -3 64 17 12 13 24 36 28 52 6 26 1 35 -57 90 -36 33 -83 88 -104 121 -22
33 -43 77 -46 97 -3 21 -12 50 -19 64 -7 15 -30 36 -50 47 -21 10 -38 26 -38
34 0 9 12 26 28 39 15 13 33 24 39 24 7 0 30 15 50 33 21 18 57 46 81 62 24
16 52 39 62 52 11 14 16 32 13 44 -3 12 -20 30 -37 40 -17 11 -41 22 -52 25
-14 4 -37 -4 -65 -23 -24 -15 -46 -31 -49 -35 -3 -4 -48 -28 -99 -54 -71 -35
-98 -44 -110 -37 -9 6 -17 24 -19 40 -2 24 3 35 25 51 15 10 54 29 86 41 33
12 66 29 75 37 10 11 26 14 48 11 23 -4 40 0 55 12 20 16 21 21 10 54 -11 31
-17 37 -42 37 -19 0 -29 5 -29 15 0 8 13 33 29 56 16 22 40 48 53 57 13 9 32
22 43 28 11 6 21 20 23 32 2 12 -8 30 -25 46 -15 14 -33 26 -39 26 -6 0 -17 7
-24 15 -7 8 -16 15 -20 15z m-175 -820 c6 0 27 -17 46 -37 20 -21 50 -62 68
-91 17 -29 38 -70 45 -90 8 -20 23 -60 35 -89 18 -45 18 -53 5 -64 -8 -7 -37
-11 -67 -10 -37 1 -62 9 -86 25 -18 14 -51 46 -73 72 -22 27 -49 66 -60 87
-13 26 -17 48 -13 67 4 16 25 52 47 79 23 28 47 51 53 51z"/>
<path d="M940 585 c-18 9 -31 10 -44 3 -10 -5 -30 -8 -44 -5 -15 3 -39 -1 -54
-9 -16 -8 -28 -20 -28 -27 0 -7 5 -18 12 -25 7 -7 22 -12 35 -12 12 0 34 5 48
12 24 11 29 8 68 -34 23 -25 52 -58 65 -74 13 -16 37 -50 54 -76 16 -27 36
-48 44 -48 7 0 18 9 24 19 5 11 10 51 10 88 0 63 -3 72 -27 94 -16 13 -47 39
-71 58 -23 18 -48 30 -55 28 -7 -2 -23 1 -37 8z"/>
</g>
</svg>
