<?xml version="1.0" standalone="no"?>
<!DOCTYPE svg PUBLIC "-//W3C//DTD SVG 20010904//EN"
 "http://www.w3.org/TR/2001/REC-SVG-20010904/DTD/svg10.dtd">
<svg version="1.0" xmlns="http://www.w3.org/2000/svg"
 width="56.000000pt" height="56.000000pt" viewBox="0 0 56.000000 56.000000"
 preserveAspectRatio="xMidYMid meet">
<metadata>
Created by potrace 1.16, written by Peter Selinger 2001-2019
</metadata>
<g transform="translate(0.000000,56.000000) scale(0.100000,-0.100000)"
fill="#000000" stroke="none">
<path d="M217 560 c-8 0 -18 -11 -21 -25 -4 -15 0 -34 9 -48 14 -22 13 -28
-16 -85 -19 -36 -29 -68 -25 -77 4 -13 15 -16 36 -13 23 3 30 1 30 -11 -1 -9
-6 -26 -13 -38 -7 -12 -36 -47 -65 -77 -30 -32 -58 -71 -63 -91 -6 -20 -7 -45
-4 -55 4 -11 15 -20 26 -20 11 0 29 16 45 42 15 24 38 62 53 85 14 23 29 42
33 43 4 0 13 -10 19 -22 6 -13 21 -34 33 -46 21 -24 21 -24 0 -40 -11 -10 -35
-28 -52 -42 -18 -14 -32 -28 -32 -32 0 -5 9 -8 19 -8 11 0 23 5 26 10 4 6 25
23 48 38 23 14 47 25 54 24 6 -1 14 2 18 8 3 5 19 10 35 10 16 0 36 7 44 16
12 11 13 20 6 34 -5 10 -15 20 -22 22 -7 3 -29 1 -48 -3 -19 -5 -45 -9 -58 -9
-15 0 -29 11 -42 32 -11 18 -20 40 -20 48 0 9 20 47 45 84 35 53 42 72 34 82
-6 8 -19 14 -28 14 -9 0 -29 -9 -46 -20 -16 -11 -38 -20 -47 -20 -10 0 -18 7
-18 16 0 8 15 29 33 45 17 16 42 39 54 50 12 11 19 27 16 35 -3 8 -16 14 -28
14 -13 0 -30 7 -39 15 -8 8 -21 15 -29 15z"/>
</g>
</svg>
