<?xml version="1.0" standalone="no"?>
<!DOCTYPE svg PUBLIC "-//W3C//DTD SVG 20010904//EN"
 "http://www.w3.org/TR/2001/REC-SVG-20010904/DTD/svg10.dtd">
<svg version="1.0" xmlns="http://www.w3.org/2000/svg"
 width="56.000000pt" height="56.000000pt" viewBox="0 0 56.000000 56.000000"
 preserveAspectRatio="xMidYMid meet">
<metadata>
Created by potrace 1.16, written by Peter Selinger 2001-2019
</metadata>
<g transform="translate(0.000000,56.000000) scale(0.100000,-0.100000)"
fill="#000000" stroke="none">
<path d="M285 560 c-8 0 -15 -4 -15 -9 0 -5 7 -21 15 -37 13 -26 13 -29 -8
-43 -12 -8 -31 -23 -41 -33 -11 -10 -23 -18 -27 -18 -5 0 -15 -15 -24 -34 -9
-19 -15 -47 -13 -63 2 -20 9 -29 25 -31 13 -2 36 6 52 17 16 12 36 21 45 21
13 0 13 -6 -5 -37 -12 -21 -47 -71 -78 -112 -31 -40 -62 -82 -70 -93 -11 -15
-11 -22 -2 -31 10 -9 21 -3 52 31 22 23 44 42 49 42 6 0 10 -8 10 -17 0 -9 7
-24 16 -34 13 -14 21 -16 41 -8 14 5 34 7 44 4 11 -4 19 -10 19 -14 0 -4 -9
-17 -20 -29 -11 -12 -20 -24 -20 -27 0 -3 11 -5 25 -5 13 0 33 10 45 22 11 12
20 30 20 40 0 9 -11 25 -25 34 -21 13 -31 15 -50 6 -14 -6 -30 -9 -37 -7 -7 3
-19 24 -26 46 -12 39 -11 44 15 81 15 21 36 51 45 66 10 15 21 33 25 41 3 8
-1 19 -12 27 -11 8 -29 11 -44 7 -14 -3 -30 -9 -36 -13 -5 -4 -25 -11 -42 -15
-26 -5 -33 -3 -33 8 0 8 17 31 37 51 20 19 51 42 69 51 17 8 37 21 43 29 10
12 6 19 -18 37 -17 13 -31 29 -31 36 0 7 -7 13 -15 13z"/>
</g>
</svg>
