<?xml version="1.0" standalone="no"?>
<!DOCTYPE svg PUBLIC "-//W3C//DTD SVG 20010904//EN"
 "http://www.w3.org/TR/2001/REC-SVG-20010904/DTD/svg10.dtd">
<svg version="1.0" xmlns="http://www.w3.org/2000/svg"
 width="56.000000pt" height="56.000000pt" viewBox="0 0 56.000000 56.000000"
 preserveAspectRatio="xMidYMid meet">
<metadata>
Created by potrace 1.16, written by Peter Selinger 2001-2019
</metadata>
<g transform="translate(0.000000,56.000000) scale(0.100000,-0.100000)"
fill="#000000" stroke="none">
<path d="M401 540 c-14 0 -25 -9 -31 -26 -6 -14 -10 -36 -10 -49 0 -20 -7 -26
-41 -35 -33 -9 -40 -15 -37 -33 2 -15 11 -23 28 -26 14 -1 28 -8 32 -15 4 -6
8 -21 8 -34 0 -12 -10 -43 -21 -68 -15 -30 -18 -49 -12 -55 7 -7 19 0 37 21
14 17 26 40 26 50 0 10 5 22 10 25 6 3 10 16 10 29 0 13 7 37 16 55 9 18 30
37 50 46 19 8 34 18 34 23 0 5 14 15 30 22 17 7 30 18 30 25 0 7 -10 15 -22
18 -13 4 -29 0 -39 -9 -15 -13 -20 -12 -47 11 -16 14 -39 25 -51 25z"/>
<path d="M114 460 c-25 0 -47 -6 -54 -15 -8 -10 -9 -19 -4 -25 5 -4 20 -10 34
-12 21 -3 25 -8 25 -38 0 -27 -5 -37 -22 -45 -13 -5 -23 -17 -23 -27 0 -9 6
-18 13 -21 6 -2 20 0 30 5 11 5 30 7 43 4 21 -6 24 -3 24 19 0 18 7 26 25 31
14 3 25 12 25 18 0 7 -11 18 -25 24 -16 8 -25 20 -25 35 0 13 -5 28 -12 35 -7
7 -31 12 -54 12z"/>
<path d="M26 310 c-8 0 -17 -7 -20 -16 -4 -9 -1 -23 5 -30 6 -8 15 -11 20 -8
5 3 9 16 9 30 0 14 -6 24 -14 24z"/>
<path d="M170 260 c-3 0 -10 -3 -13 -7 -4 -3 -7 -27 -7 -52 0 -29 7 -55 19
-70 12 -16 24 -22 36 -17 13 5 15 12 10 34 -4 15 -9 40 -11 56 -2 16 -9 35
-15 42 -6 8 -15 14 -19 14z"/>
<path d="M352 53 c-24 5 -34 3 -38 -8 -4 -9 -1 -22 6 -30 8 -9 30 -15 56 -15
32 0 44 4 44 15 0 8 -8 18 -17 23 -10 5 -33 12 -51 15z"/>
</g>
</svg>
