<?xml version="1.0" standalone="no"?>
<!DOCTYPE svg PUBLIC "-//W3C//DTD SVG 20010904//EN"
 "http://www.w3.org/TR/2001/REC-SVG-20010904/DTD/svg10.dtd">
<svg version="1.0" xmlns="http://www.w3.org/2000/svg"
 width="56.000000pt" height="56.000000pt" viewBox="0 0 56.000000 56.000000"
 preserveAspectRatio="xMidYMid meet">
<metadata>
Created by potrace 1.16, written by Peter Selinger 2001-2019
</metadata>
<g transform="translate(0.000000,56.000000) scale(0.100000,-0.100000)"
fill="#000000" stroke="none">
<path d="M445 540 c-8 0 -21 -12 -28 -27 -10 -19 -28 -30 -63 -39 -27 -7 -59
-13 -71 -14 -13 0 -30 12 -43 30 -13 18 -30 30 -43 30 -12 0 -33 -9 -46 -19
-24 -18 -24 -18 8 -29 20 -7 31 -18 31 -30 0 -10 -11 -25 -25 -32 -20 -10 -33
-11 -64 -2 -21 7 -52 12 -70 12 -22 0 -31 -5 -31 -16 0 -8 13 -29 30 -45 29
-30 29 -30 79 -4 28 15 58 25 68 23 14 -2 20 -19 29 -75 6 -39 18 -83 27 -97
10 -14 31 -33 47 -41 17 -9 30 -21 30 -27 0 -6 -20 -35 -45 -64 -25 -28 -45
-55 -45 -58 0 -3 12 -6 26 -6 19 0 45 20 101 76 53 55 73 83 71 98 -2 17 -11
22 -48 24 -25 2 -49 7 -55 13 -6 6 6 25 32 52 22 23 47 53 54 67 7 14 15 43
18 65 5 30 11 41 26 43 11 2 37 8 58 13 26 7 37 15 37 28 0 13 -14 24 -40 35
-22 9 -47 16 -55 16z m-107 -111 c25 1 32 -3 32 -18 0 -10 -8 -36 -17 -58 -10
-21 -28 -51 -39 -66 -12 -15 -29 -27 -38 -27 -8 0 -18 10 -20 23 -3 12 -7 40
-10 62 -3 22 -2 45 2 52 4 7 19 16 32 22 14 5 40 10 58 10z"/>
</g>
</svg>
