<?xml version="1.0" standalone="no"?>
<!DOCTYPE svg PUBLIC "-//W3C//DTD SVG 20010904//EN"
 "http://www.w3.org/TR/2001/REC-SVG-20010904/DTD/svg10.dtd">
<svg version="1.0" xmlns="http://www.w3.org/2000/svg"
 width="56.000000pt" height="56.000000pt" viewBox="0 0 56.000000 56.000000"
 preserveAspectRatio="xMidYMid meet">
<metadata>
Created by potrace 1.16, written by Peter Selinger 2001-2019
</metadata>
<g transform="translate(0.000000,56.000000) scale(0.100000,-0.100000)"
fill="#000000" stroke="none">
<path d="M358 560 c-27 -1 -40 -9 -71 -48 -20 -26 -57 -69 -82 -97 -25 -27
-45 -56 -45 -62 0 -7 -4 -13 -9 -13 -6 0 -21 -11 -35 -24 -15 -13 -26 -33 -26
-46 0 -21 3 -22 51 -16 51 7 51 7 43 -51 -4 -32 -6 -77 -5 -101 1 -24 6 -54
11 -68 5 -13 16 -27 24 -30 8 -3 36 4 61 15 26 12 51 18 57 15 5 -3 7 -12 4
-20 -4 -11 6 -14 45 -14 37 0 51 4 56 16 3 9 2 24 -4 33 -6 9 -26 22 -46 30
-34 12 -41 12 -89 -11 -53 -25 -53 -25 -60 26 -3 28 -4 53 -2 55 2 3 20 -1 39
-8 19 -7 39 -9 45 -6 6 3 26 31 46 62 19 30 37 68 41 84 4 20 13 31 29 35 16
4 24 13 24 28 0 12 -16 37 -35 56 -31 30 -37 32 -60 22 -17 -8 -25 -20 -25
-36 0 -13 -6 -28 -12 -33 -7 -6 -31 -15 -54 -20 -22 -6 -55 -8 -72 -5 -18 2
-32 7 -32 11 0 3 24 25 53 49 29 23 79 69 110 102 31 33 57 62 57 65 0 3 -15
5 -32 5z m-74 -270 c24 0 48 -6 54 -12 7 -9 6 -24 -2 -47 -6 -19 -19 -39 -28
-45 -11 -7 -24 -7 -42 2 -17 7 -27 22 -31 46 -4 19 -4 39 0 45 3 6 26 11 49
11z"/>
</g>
</svg>
