<?xml version="1.0" standalone="no"?>
<!DOCTYPE svg PUBLIC "-//W3C//DTD SVG 20010904//EN"
 "http://www.w3.org/TR/2001/REC-SVG-20010904/DTD/svg10.dtd">
<svg version="1.0" xmlns="http://www.w3.org/2000/svg"
 width="56.000000pt" height="56.000000pt" viewBox="0 0 56.000000 56.000000"
 preserveAspectRatio="xMidYMid meet">
<metadata>
Created by potrace 1.16, written by Peter Selinger 2001-2019
</metadata>
<g transform="translate(0.000000,56.000000) scale(0.100000,-0.100000)"
fill="#000000" stroke="none">
<path d="M473 500 c-25 0 -33 -5 -41 -28 -5 -15 -32 -47 -59 -70 -27 -24 -68
-54 -90 -67 -40 -24 -40 -24 -68 5 -16 17 -35 30 -42 30 -8 0 -16 -6 -19 -14
-3 -8 2 -26 11 -40 17 -25 16 -27 -18 -61 -28 -28 -43 -35 -74 -35 -26 0 -46
-6 -56 -18 -10 -10 -17 -22 -17 -25 0 -4 15 -16 32 -27 18 -11 40 -20 49 -20
9 0 33 11 53 25 20 14 43 25 50 25 8 0 26 -25 41 -56 18 -37 36 -59 54 -65 14
-6 66 -11 114 -12 68 -2 90 1 97 13 8 11 3 21 -17 39 -24 20 -33 23 -80 17
-42 -5 -61 -2 -93 14 -21 11 -41 24 -44 29 -3 5 1 14 9 21 12 10 20 9 40 -4
13 -9 35 -16 48 -16 13 0 33 10 44 23 11 12 27 36 35 52 9 17 21 47 28 68 6
21 24 56 38 77 14 22 34 42 44 46 10 3 18 10 18 15 0 6 -12 21 -27 34 -17 15
-41 24 -60 25z"/>
</g>
</svg>
