<?xml version="1.0" standalone="no"?>
<!DOCTYPE svg PUBLIC "-//W3C//DTD SVG 20010904//EN"
 "http://www.w3.org/TR/2001/REC-SVG-20010904/DTD/svg10.dtd">
<svg version="1.0" xmlns="http://www.w3.org/2000/svg"
 width="56.000000pt" height="56.000000pt" viewBox="0 0 56.000000 56.000000"
 preserveAspectRatio="xMidYMid meet">
<metadata>
Created by potrace 1.16, written by Peter Selinger 2001-2019
</metadata>
<g transform="translate(0.000000,56.000000) scale(0.100000,-0.100000)"
fill="#000000" stroke="none">
<path d="M325 560 c-25 0 -35 -4 -32 -12 2 -7 16 -13 32 -13 16 0 30 6 33 13
2 8 -8 12 -33 12z"/>
<path d="M429 530 c-2 -1 -16 -11 -31 -23 -16 -13 -28 -28 -28 -34 0 -6 -21
-18 -47 -26 -27 -8 -62 -18 -80 -22 -26 -5 -32 -3 -38 16 -6 16 -1 27 21 44
27 22 27 22 -31 28 -32 3 -62 4 -67 1 -4 -3 -2 -14 5 -26 10 -17 9 -22 -6 -32
-10 -6 -40 -25 -65 -41 -43 -28 -47 -34 -47 -70 0 -33 4 -41 22 -43 12 -2 36
4 53 13 18 9 39 14 47 11 12 -5 14 -18 10 -59 -3 -33 1 -68 10 -97 9 -25 27
-58 40 -75 14 -16 31 -33 39 -38 7 -4 29 0 48 10 20 9 36 23 36 30 0 10 6 10
25 -3 14 -9 25 -23 25 -32 0 -9 -10 -26 -22 -39 -21 -23 -21 -23 14 -23 20 0
41 7 48 15 6 8 31 25 55 39 23 14 45 36 49 48 3 13 6 28 6 33 0 6 -16 19 -35
29 -32 17 -37 18 -52 4 -10 -9 -31 -18 -48 -21 -16 -3 -37 -7 -45 -8 -8 -1
-37 -1 -63 -1 -45 2 -49 4 -63 37 -9 22 -13 60 -12 100 2 36 6 65 10 65 4 0
14 -15 22 -33 7 -19 28 -50 46 -70 18 -20 37 -37 43 -37 5 0 25 11 43 25 21
16 35 37 39 58 3 17 7 46 9 64 2 18 11 44 20 57 12 19 26 26 58 28 23 2 43 8
45 15 2 6 -20 27 -50 47 -30 20 -56 36 -58 36z m-95 -131 c10 0 24 -6 30 -15
10 -12 7 -26 -12 -65 -24 -48 -24 -48 -73 -7 -27 23 -49 44 -49 48 0 4 6 12
13 18 6 6 26 12 42 15 17 2 39 5 49 6z"/>
</g>
</svg>
