<?xml version="1.0" standalone="no"?>
<!DOCTYPE svg PUBLIC "-//W3C//DTD SVG 20010904//EN"
 "http://www.w3.org/TR/2001/REC-SVG-20010904/DTD/svg10.dtd">
<svg version="1.0" xmlns="http://www.w3.org/2000/svg"
 width="56.000000pt" height="56.000000pt" viewBox="0 0 56.000000 56.000000"
 preserveAspectRatio="xMidYMid meet">
<metadata>
Created by potrace 1.16, written by Peter Selinger 2001-2019
</metadata>
<g transform="translate(0.000000,56.000000) scale(0.100000,-0.100000)"
fill="#000000" stroke="none">
<path d="M438 540 c-11 0 -18 -7 -18 -18 0 -10 -13 -30 -28 -45 -16 -16 -39
-27 -55 -27 -17 0 -27 -5 -27 -15 0 -9 9 -15 23 -15 12 0 28 -4 35 -9 11 -7
11 -23 2 -90 -7 -48 -17 -81 -24 -80 -6 0 -24 9 -41 20 -16 11 -38 22 -47 25
-11 4 -21 26 -29 63 -7 31 -16 64 -21 74 -5 9 -14 17 -21 17 -7 0 -18 -9 -24
-19 -7 -11 -29 -22 -53 -26 -40 -7 -40 -7 -16 -26 13 -10 36 -19 51 -19 16 0
34 -8 41 -17 7 -10 14 -28 14 -40 0 -14 6 -23 15 -23 8 0 15 -4 15 -10 0 -5
14 -10 30 -10 17 0 30 -4 30 -10 0 -5 6 -10 13 -10 8 0 24 -11 37 -25 13 -14
29 -25 36 -25 6 0 18 7 25 17 9 10 16 55 20 117 4 56 13 113 20 128 8 16 17
28 22 28 4 0 7 -6 7 -14 0 -8 7 -17 16 -20 9 -3 24 -6 35 -6 12 0 19 7 19 19
0 11 -19 36 -42 55 -23 20 -50 36 -60 36z"/>
<path d="M32 398 c-15 2 -22 -2 -22 -12 0 -11 9 -16 26 -16 16 0 24 5 22 13
-3 6 -14 13 -26 15z"/>
<path d="M261 158 c-6 2 -11 -4 -11 -13 0 -9 5 -15 11 -13 6 2 11 8 11 13 0 5
-5 11 -11 13z"/>
<path d="M363 125 c-45 6 -53 4 -53 -9 0 -9 -7 -19 -15 -22 -12 -5 -12 -8 0
-20 7 -8 22 -14 32 -14 10 0 25 -5 33 -10 12 -7 12 -12 2 -22 -6 -6 -12 -16
-12 -20 0 -4 17 -8 39 -8 27 0 46 7 65 25 15 14 26 33 24 42 -2 9 -17 25 -33
34 -17 9 -54 20 -82 24z"/>
</g>
</svg>
