<?xml version="1.0" standalone="no"?>
<!DOCTYPE svg PUBLIC "-//W3C//DTD SVG 20010904//EN"
 "http://www.w3.org/TR/2001/REC-SVG-20010904/DTD/svg10.dtd">
<svg version="1.0" xmlns="http://www.w3.org/2000/svg"
 width="56.000000pt" height="56.000000pt" viewBox="0 0 56.000000 56.000000"
 preserveAspectRatio="xMidYMid meet">
<metadata>
Created by potrace 1.16, written by Peter Selinger 2001-2019
</metadata>
<g transform="translate(0.000000,56.000000) scale(0.100000,-0.100000)"
fill="#000000" stroke="none">
<path d="M326 560 c-6 0 -16 -8 -23 -18 -8 -13 -8 -24 0 -38 6 -10 12 -29 13
-41 2 -14 -4 -23 -19 -27 -12 -3 -38 -6 -57 -6 -27 0 -38 5 -45 23 -6 12 -20
23 -33 25 -13 2 -25 -3 -28 -12 -4 -9 -1 -29 5 -44 7 -16 13 -45 14 -65 1 -20
6 -39 10 -43 4 -4 7 -31 7 -60 0 -34 5 -56 14 -61 7 -4 18 -18 25 -31 6 -12
18 -22 26 -22 7 0 17 -5 20 -10 4 -6 -12 -33 -34 -61 -23 -29 -41 -56 -41 -60
0 -5 6 -9 13 -9 8 0 41 26 74 57 33 32 73 65 89 73 16 8 37 21 47 29 9 8 17
20 17 28 0 7 -11 18 -24 23 -17 6 -27 19 -31 42 -3 18 -5 58 -3 88 3 49 6 55
26 58 17 3 22 9 20 25 -2 12 -12 26 -24 32 -11 6 -19 16 -16 24 3 8 -3 29 -13
48 -10 18 -23 33 -29 33z m-50 -161 c5 0 17 -5 26 -11 12 -10 14 -25 9 -68 -6
-54 -6 -55 -38 -54 -32 2 -32 2 -7 -24 13 -15 24 -33 24 -40 0 -7 -7 -15 -16
-19 -8 -3 -26 0 -38 7 -16 8 -23 21 -24 46 -1 22 4 37 13 40 13 5 13 9 0 27
-8 12 -15 36 -15 54 0 27 4 32 28 36 15 2 32 5 38 6z"/>
</g>
</svg>
