<?xml version="1.0" standalone="no"?>
<!DOCTYPE svg PUBLIC "-//W3C//DTD SVG 20010904//EN"
 "http://www.w3.org/TR/2001/REC-SVG-20010904/DTD/svg10.dtd">
<svg version="1.0" xmlns="http://www.w3.org/2000/svg"
 width="56.000000pt" height="56.000000pt" viewBox="0 0 56.000000 56.000000"
 preserveAspectRatio="xMidYMid meet">
<metadata>
Created by potrace 1.16, written by Peter Selinger 2001-2019
</metadata>
<g transform="translate(0.000000,56.000000) scale(0.100000,-0.100000)"
fill="#000000" stroke="none">
<path d="M262 560 c-21 0 -31 -7 -40 -27 -6 -16 -21 -44 -33 -63 -12 -19 -37
-55 -58 -80 -20 -24 -41 -62 -48 -84 -7 -22 -10 -43 -7 -48 3 -4 11 -8 18 -8
7 0 21 9 31 20 10 11 21 20 25 20 4 0 10 -36 13 -80 3 -45 11 -87 17 -95 7 -8
30 -20 51 -27 22 -6 39 -14 39 -18 0 -4 -26 -21 -57 -38 -58 -31 -58 -31 -23
-32 21 0 50 10 70 23 19 13 50 29 68 36 20 9 32 20 32 32 0 12 -11 23 -26 29
-14 6 -40 10 -59 10 -18 0 -43 8 -55 18 -19 15 -22 29 -24 90 0 39 3 72 9 72
5 1 15 -27 22 -61 7 -35 19 -69 26 -76 11 -11 16 -11 28 4 9 10 21 43 28 73 6
30 17 74 23 97 8 32 17 44 39 52 16 6 43 16 59 22 17 6 30 17 30 24 0 8 -18
16 -41 20 -34 6 -44 3 -66 -16 -13 -13 -33 -23 -44 -21 -11 2 -19 -3 -19 -11
0 -8 -8 -17 -17 -20 -10 -2 -26 -8 -35 -12 -15 -6 -18 -2 -18 22 0 16 16 53
35 83 19 30 35 58 35 63 0 4 -13 7 -28 7z m15 -200 c7 0 13 -4 13 -9 0 -5 -5
-32 -12 -60 -9 -40 -14 -48 -24 -40 -8 6 -16 27 -20 47 -5 28 -3 38 11 49 11
7 25 13 32 13z"/>
</g>
</svg>
