<?xml version="1.0" standalone="no"?>
<!DOCTYPE svg PUBLIC "-//W3C//DTD SVG 20010904//EN"
 "http://www.w3.org/TR/2001/REC-SVG-20010904/DTD/svg10.dtd">
<svg version="1.0" xmlns="http://www.w3.org/2000/svg"
 width="56.000000pt" height="56.000000pt" viewBox="0 0 56.000000 56.000000"
 preserveAspectRatio="xMidYMid meet">
<metadata>
Created by potrace 1.16, written by Peter Selinger 2001-2019
</metadata>
<g transform="translate(0.000000,56.000000) scale(0.100000,-0.100000)"
fill="#000000" stroke="none">
<path d="M457 520 c-19 0 -40 -7 -47 -15 -7 -8 -17 -15 -22 -15 -5 0 -23 -13
-40 -30 -16 -16 -35 -30 -43 -30 -7 0 -18 7 -25 15 -7 8 -20 15 -30 15 -10 0
-23 7 -30 15 -9 11 -17 12 -32 4 -16 -9 -17 -13 -6 -26 7 -9 25 -24 40 -33 15
-9 24 -20 20 -26 -4 -5 -23 -19 -42 -30 -19 -11 -46 -24 -60 -28 -14 -4 -45
-9 -70 -12 -25 -2 -51 -6 -57 -9 -7 -2 -13 -11 -13 -19 0 -8 9 -17 20 -21 10
-3 52 -6 92 -7 40 0 78 0 85 1 7 1 24 13 37 28 21 22 28 25 38 15 9 -9 10 -17
2 -30 -6 -9 -21 -18 -33 -20 -11 -2 -21 -10 -21 -18 0 -10 7 -13 25 -8 24 6
24 6 27 -77 3 -83 3 -83 43 -106 22 -12 52 -23 67 -23 15 0 29 4 33 9 3 6 17
6 35 -1 24 -8 35 -7 53 6 12 8 30 22 40 29 9 8 17 21 17 30 0 9 -10 17 -22 19
-13 2 -40 -4 -60 -14 -21 -10 -50 -18 -66 -18 -15 0 -33 5 -40 12 -7 7 -12 36
-11 67 1 31 4 67 8 80 5 18 20 29 56 42 36 12 56 27 76 55 14 22 28 57 31 79
5 33 1 46 -18 68 -17 20 -32 27 -57 27z"/>
</g>
</svg>
