<?xml version="1.0" standalone="no"?>
<!DOCTYPE svg PUBLIC "-//W3C//DTD SVG 20010904//EN"
 "http://www.w3.org/TR/2001/REC-SVG-20010904/DTD/svg10.dtd">
<svg version="1.0" xmlns="http://www.w3.org/2000/svg"
 width="56.000000pt" height="56.000000pt" viewBox="0 0 56.000000 56.000000"
 preserveAspectRatio="xMidYMid meet">
<metadata>
Created by potrace 1.16, written by Peter Selinger 2001-2019
</metadata>
<g transform="translate(0.000000,56.000000) scale(0.100000,-0.100000)"
fill="#000000" stroke="none">
<path d="M318 560 c-7 -1 -26 -20 -43 -43 -16 -23 -34 -51 -38 -62 -4 -11 -15
-28 -24 -37 -15 -17 -14 -18 11 -18 15 0 43 7 63 15 19 8 42 15 49 15 9 0 14
-11 14 -30 0 -16 5 -30 10 -30 6 0 10 -9 10 -20 0 -11 -5 -20 -11 -20 -6 0
-13 10 -16 21 -5 18 -11 21 -45 16 -22 -3 -47 -12 -57 -21 -10 -9 -21 -13 -24
-9 -4 3 -7 14 -7 23 0 10 -6 23 -14 29 -11 9 -21 1 -52 -36 -21 -27 -55 -66
-76 -88 -27 -28 -38 -47 -36 -65 2 -16 10 -26 23 -28 13 -2 35 12 60 38 21 22
42 40 46 40 4 0 7 -29 8 -64 0 -36 6 -77 13 -93 7 -15 17 -31 23 -35 5 -4 27
-8 49 -8 35 0 38 -2 34 -25 -4 -19 -1 -25 12 -25 9 0 36 9 61 20 24 12 51 25
59 30 8 5 30 17 49 25 28 13 31 17 21 30 -7 8 -29 15 -50 15 -38 0 -38 0 -42
54 -2 34 2 58 10 65 6 7 12 23 12 36 0 23 4 25 44 25 26 0 48 6 56 15 7 8 10
21 7 30 -4 8 -18 17 -32 20 -14 3 -36 7 -50 10 -18 4 -25 12 -25 30 0 13 -5
27 -10 30 -8 5 -7 11 0 20 9 11 2 21 -34 47 -25 17 -46 38 -46 45 0 7 -6 13
-12 13z m13 -241 c33 1 37 -2 43 -30 4 -20 1 -38 -9 -52 -8 -12 -15 -30 -15
-40 0 -17 -5 -19 -32 -13 -18 3 -50 18 -71 33 -29 20 -37 32 -35 51 2 20 12
28 43 38 22 6 56 12 76 13z m-96 -119 c3 0 15 -6 28 -12 12 -7 32 -22 45 -32
12 -11 22 -28 22 -38 0 -12 -7 -18 -24 -18 -14 0 -36 4 -50 10 -14 5 -29 17
-34 27 -6 10 -6 28 -1 41 5 12 11 22 14 22z"/>
</g>
</svg>
