<?xml version="1.0" standalone="no"?>
<!DOCTYPE svg PUBLIC "-//W3C//DTD SVG 20010904//EN"
 "http://www.w3.org/TR/2001/REC-SVG-20010904/DTD/svg10.dtd">
<svg version="1.0" xmlns="http://www.w3.org/2000/svg"
 width="56.000000pt" height="56.000000pt" viewBox="0 0 56.000000 56.000000"
 preserveAspectRatio="xMidYMid meet">
<metadata>
Created by potrace 1.16, written by Peter Selinger 2001-2019
</metadata>
<g transform="translate(0.000000,56.000000) scale(0.100000,-0.100000)"
fill="#000000" stroke="none">
<path d="M191 560 c-6 0 -14 -12 -17 -26 -5 -19 -1 -29 15 -40 11 -8 21 -22
21 -30 0 -8 3 -14 8 -14 4 0 7 -28 6 -62 0 -56 -3 -63 -30 -83 -16 -12 -53
-29 -83 -38 -29 -10 -62 -17 -72 -17 -10 0 -20 -3 -22 -7 -2 -5 -7 -20 -11
-36 -5 -20 -2 -29 9 -34 10 -3 22 2 31 16 8 11 25 21 38 21 12 0 32 9 44 20
12 12 38 22 59 23 38 2 38 2 41 -98 1 -55 7 -104 12 -109 5 -5 41 -12 82 -17
40 -5 87 -11 103 -15 24 -4 36 0 58 20 16 14 25 31 22 36 -4 6 -43 10 -95 9
-60 -2 -94 2 -104 11 -9 7 -16 16 -16 21 0 5 19 21 42 35 23 15 50 36 61 48
10 12 26 40 37 63 10 22 27 44 37 47 10 3 35 8 56 12 33 6 37 9 37 36 0 28 -2
30 -27 23 -16 -4 -43 -11 -61 -15 -27 -7 -34 -5 -43 12 -6 10 -8 32 -4 48 4
19 0 42 -14 69 -12 22 -21 47 -21 56 0 8 -8 15 -17 15 -10 0 -38 -16 -62 -35
-24 -19 -48 -35 -53 -35 -5 0 -11 8 -15 18 -3 9 -14 25 -24 35 -10 9 -23 17
-28 17z m161 -61 c4 1 9 -2 11 -6 3 -5 8 -40 12 -79 7 -71 7 -71 -33 -81 -22
-6 -46 -7 -54 -2 -7 5 -13 27 -14 51 0 24 -2 49 -5 57 -2 8 12 23 36 36 22 13
43 23 47 24z m21 -190 c10 1 17 -6 17 -18 0 -10 -18 -41 -41 -70 -22 -28 -45
-51 -49 -51 -5 0 -12 21 -16 47 -4 27 -3 53 3 62 6 9 23 19 39 22 16 4 37 7
47 8z"/>
<path d="M202 450 c-5 0 -12 -3 -15 -7 -4 -3 -7 -10 -7 -14 0 -5 7 -6 15 -3 8
4 15 10 15 15 0 5 -4 9 -8 9z"/>
<path d="M149 379 c-3 8 -10 7 -23 -2 -14 -10 -16 -16 -7 -22 7 -4 17 -3 23 3
6 6 9 15 7 21z"/>
</g>
</svg>
