<?xml version="1.0" standalone="no"?>
<!DOCTYPE svg PUBLIC "-//W3C//DTD SVG 20010904//EN"
 "http://www.w3.org/TR/2001/REC-SVG-20010904/DTD/svg10.dtd">
<svg version="1.0" xmlns="http://www.w3.org/2000/svg"
 width="56.000000pt" height="56.000000pt" viewBox="0 0 56.000000 56.000000"
 preserveAspectRatio="xMidYMid meet">
<metadata>
Created by potrace 1.16, written by Peter Selinger 2001-2019
</metadata>
<g transform="translate(0.000000,56.000000) scale(0.100000,-0.100000)"
fill="#000000" stroke="none">
<path d="M315 530 c-82 0 -82 0 -167 -87 -46 -49 -100 -100 -119 -115 -34 -26
-34 -26 -8 -53 27 -27 27 -27 85 -5 33 12 68 23 79 24 19 1 20 -6 22 -94 2
-52 5 -105 8 -117 3 -12 20 -31 39 -42 31 -19 47 -21 153 -19 108 3 118 5 118
22 0 10 -12 28 -28 39 -24 19 -33 20 -77 11 -27 -6 -69 -8 -92 -5 -40 6 -43 8
-46 40 -2 18 1 38 7 44 8 8 18 4 34 -11 13 -12 33 -22 45 -22 12 0 26 10 33
21 6 12 9 36 7 55 -2 21 1 35 9 38 8 4 13 24 13 55 0 35 4 51 16 55 9 3 30 6
48 6 19 0 40 8 49 18 10 10 17 23 17 29 0 5 -17 15 -37 22 -21 7 -49 11 -63 9
-20 -2 -26 2 -28 22 -2 14 -11 33 -19 43 -13 13 -33 17 -98 17z m-28 -20 c3 0
2 -11 -1 -25 -6 -22 -3 -25 18 -25 13 0 31 -3 40 -6 9 -3 16 -12 16 -20 0 -7
-13 -20 -30 -29 -16 -8 -38 -15 -49 -15 -13 0 -26 12 -37 36 -18 37 -18 37 10
60 15 13 30 24 33 24z m-116 -100 c4 0 10 -7 13 -16 3 -9 6 -24 6 -35 0 -11
-9 -20 -22 -23 -13 -3 -38 -7 -55 -10 -27 -4 -33 -2 -33 12 0 9 19 29 43 44
23 15 45 28 48 28z m177 -70 c8 0 12 -20 12 -65 0 -47 -4 -65 -13 -65 -7 0
-25 13 -40 28 -15 16 -31 42 -36 59 -8 27 -7 30 9 26 10 -3 27 0 37 6 10 6 24
11 31 11z"/>
</g>
</svg>
