<?xml version="1.0" standalone="no"?>
<!DOCTYPE svg PUBLIC "-//W3C//DTD SVG 20010904//EN"
 "http://www.w3.org/TR/2001/REC-SVG-20010904/DTD/svg10.dtd">
<svg version="1.0" xmlns="http://www.w3.org/2000/svg"
 width="56.000000pt" height="56.000000pt" viewBox="0 0 56.000000 56.000000"
 preserveAspectRatio="xMidYMid meet">
<metadata>
Created by potrace 1.16, written by Peter Selinger 2001-2019
</metadata>
<g transform="translate(0.000000,56.000000) scale(0.100000,-0.100000)"
fill="#000000" stroke="none">
<path d="M423 560 c-5 0 -16 -11 -23 -24 -10 -20 -10 -31 0 -55 6 -16 9 -35 5
-41 -3 -5 -31 -27 -62 -48 -31 -20 -69 -45 -84 -55 -16 -10 -33 -16 -38 -13
-5 3 -9 24 -9 47 -1 22 -8 52 -17 65 -9 14 -24 24 -33 22 -11 -2 -17 -13 -16
-28 1 -14 4 -53 8 -87 6 -61 6 -61 -30 -83 -19 -13 -56 -25 -80 -28 -26 -3
-44 -10 -44 -17 0 -7 12 -21 26 -30 21 -13 39 -16 79 -11 49 5 53 4 59 -17 3
-12 6 -32 6 -44 0 -12 10 -33 23 -48 12 -14 47 -34 77 -45 30 -11 73 -20 95
-20 22 0 56 8 75 19 20 10 36 27 38 40 2 12 -2 21 -10 21 -7 0 -51 -7 -97 -15
-46 -8 -87 -12 -91 -10 -5 3 -22 26 -39 52 -19 28 -31 59 -31 80 0 18 2 33 6
33 3 0 22 -11 42 -25 26 -18 50 -25 84 -25 45 0 49 2 66 38 11 20 22 66 26
102 4 49 11 69 27 83 12 9 32 17 44 17 13 0 30 3 39 6 9 3 16 14 16 24 0 10
-9 21 -20 25 -10 3 -28 2 -38 -4 -13 -7 -22 -7 -30 1 -7 7 -12 23 -12 38 0 14
-7 33 -14 43 -7 9 -18 17 -23 17z m-77 -240 c6 0 15 -7 18 -16 3 -9 0 -28 -7
-42 -11 -23 -18 -27 -57 -27 -32 0 -46 4 -48 15 -1 9 16 27 40 43 23 15 47 27
54 27z"/>
</g>
</svg>
