<?xml version="1.0" standalone="no"?>
<!DOCTYPE svg PUBLIC "-//W3C//DTD SVG 20010904//EN"
 "http://www.w3.org/TR/2001/REC-SVG-20010904/DTD/svg10.dtd">
<svg version="1.0" xmlns="http://www.w3.org/2000/svg"
 width="56.000000pt" height="56.000000pt" viewBox="0 0 56.000000 56.000000"
 preserveAspectRatio="xMidYMid meet">
<metadata>
Created by potrace 1.16, written by Peter Selinger 2001-2019
</metadata>
<g transform="translate(0.000000,56.000000) scale(0.100000,-0.100000)"
fill="#000000" stroke="none">
<path d="M305 560 c-41 0 -55 -4 -55 -14 0 -8 -19 -25 -42 -38 -23 -13 -54
-41 -69 -63 -27 -38 -27 -40 -8 -49 10 -5 19 -17 19 -26 0 -13 -12 -19 -45
-24 -26 -4 -58 -18 -75 -33 -17 -13 -28 -29 -24 -34 3 -5 19 -9 35 -9 17 0 44
7 61 16 23 12 33 13 42 4 7 -7 11 -49 11 -109 0 -81 3 -102 18 -119 10 -11 33
-23 50 -26 18 -4 60 -12 94 -17 35 -6 74 -8 87 -5 14 3 32 13 40 22 15 14 15
18 -1 44 -9 16 -23 32 -30 34 -8 3 -33 -1 -57 -9 -30 -10 -56 -13 -82 -7 -31
6 -39 13 -45 37 -4 17 -9 47 -12 68 -5 28 -2 40 9 44 10 4 32 -10 58 -37 31
-30 50 -41 67 -38 20 2 28 16 50 81 15 42 33 84 40 93 9 11 22 14 45 9 20 -3
41 -1 54 7 11 7 20 19 20 27 0 7 -7 19 -17 26 -10 8 -28 9 -50 5 -33 -8 -33
-8 -33 41 0 44 -3 50 -30 64 -16 8 -38 15 -49 15 -18 0 -19 -5 -14 -53 5 -46
2 -57 -16 -74 -12 -11 -39 -25 -60 -32 -22 -6 -46 -9 -54 -5 -8 3 -21 19 -28
36 -11 28 -10 31 17 54 16 13 53 37 82 54 28 17 52 32 52 35 0 3 -25 5 -55 5z
m16 -201 c4 1 12 -5 18 -13 8 -9 8 -21 1 -40 -5 -15 -17 -29 -26 -33 -9 -3
-31 2 -51 11 -22 10 -33 22 -31 33 2 9 21 22 43 29 22 6 43 12 46 13z"/>
</g>
</svg>
