<?xml version="1.0" standalone="no"?>
<!DOCTYPE svg PUBLIC "-//W3C//DTD SVG 20010904//EN"
 "http://www.w3.org/TR/2001/REC-SVG-20010904/DTD/svg10.dtd">
<svg version="1.0" xmlns="http://www.w3.org/2000/svg"
 width="56.000000pt" height="56.000000pt" viewBox="0 0 56.000000 56.000000"
 preserveAspectRatio="xMidYMid meet">
<metadata>
Created by potrace 1.16, written by Peter Selinger 2001-2019
</metadata>
<g transform="translate(0.000000,56.000000) scale(0.100000,-0.100000)"
fill="#000000" stroke="none">
<path d="M424 480 c-21 0 -29 -9 -47 -50 -17 -42 -25 -50 -47 -50 -14 0 -31
-5 -36 -10 -7 -7 -18 2 -35 27 -13 21 -30 38 -38 38 -8 0 -18 -7 -22 -15 -5
-8 -13 -34 -19 -57 -10 -41 -12 -43 -49 -43 -22 0 -57 10 -80 22 -22 12 -44
18 -48 14 -4 -4 2 -24 14 -44 15 -27 28 -38 50 -40 16 -2 50 6 76 17 25 11 48
17 50 13 3 -4 8 -33 12 -65 3 -32 13 -73 20 -90 7 -18 23 -45 35 -60 22 -28
22 -28 124 -21 65 4 106 11 116 20 13 13 11 18 -16 43 -16 16 -40 31 -51 35
-12 4 -39 -1 -61 -9 -31 -13 -45 -14 -61 -5 -11 6 -28 24 -36 40 -8 16 -15 38
-15 50 0 19 2 20 28 6 16 -8 34 -22 41 -30 8 -9 20 -16 27 -16 7 0 21 15 31
33 9 17 24 59 32 91 16 60 16 60 79 74 49 11 62 17 62 32 0 16 -10 21 -50 26
-28 4 -53 11 -56 15 -3 5 -17 9 -30 9z m-99 -130 c13 0 26 -4 29 -8 3 -5 3
-25 -1 -45 -3 -20 -12 -38 -20 -41 -9 -4 -29 8 -50 29 -19 19 -31 39 -28 45 4
6 13 9 21 6 7 -3 16 -1 19 4 4 6 17 10 30 10z"/>
</g>
</svg>
