<?xml version="1.0" standalone="no"?>
<!DOCTYPE svg PUBLIC "-//W3C//DTD SVG 20010904//EN"
 "http://www.w3.org/TR/2001/REC-SVG-20010904/DTD/svg10.dtd">
<svg version="1.0" xmlns="http://www.w3.org/2000/svg"
 width="56.000000pt" height="56.000000pt" viewBox="0 0 56.000000 56.000000"
 preserveAspectRatio="xMidYMid meet">
<metadata>
Created by potrace 1.16, written by Peter Selinger 2001-2019
</metadata>
<g transform="translate(0.000000,56.000000) scale(0.100000,-0.100000)"
fill="#000000" stroke="none">
<path d="M450 519 c-3 -1 -16 -7 -30 -14 -13 -8 -27 -22 -31 -33 -4 -11 -32
-28 -69 -42 -61 -23 -61 -23 -110 0 -40 19 -52 21 -64 11 -14 -11 -13 -16 0
-37 15 -23 15 -24 -11 -34 -14 -5 -51 -10 -81 -10 -37 0 -54 -4 -54 -13 0 -6
13 -18 29 -25 17 -8 55 -12 88 -10 57 3 57 3 65 -52 7 -41 16 -63 40 -87 18
-19 47 -36 66 -39 18 -4 36 -13 39 -21 3 -8 -5 -25 -18 -39 -14 -15 -19 -28
-13 -34 6 -6 22 1 44 20 19 17 38 30 42 30 3 0 13 13 21 30 15 28 14 31 -6 45
-12 8 -31 15 -42 15 -11 0 -39 9 -63 20 -23 10 -42 26 -42 34 0 9 15 23 32 32
18 9 52 31 75 48 23 17 46 41 52 54 6 13 11 32 11 42 0 17 7 20 45 20 25 0 57
7 70 16 14 9 25 19 25 23 0 4 -24 17 -53 29 -29 12 -55 22 -57 21z m-117 -130
c15 0 27 -2 27 -5 0 -3 -7 -18 -16 -33 -8 -14 -31 -37 -51 -49 -19 -13 -41
-21 -50 -18 -10 4 -13 17 -11 42 3 32 8 38 38 49 19 7 47 13 63 14z"/>
</g>
</svg>
