<?xml version="1.0" standalone="no"?>
<!DOCTYPE svg PUBLIC "-//W3C//DTD SVG 20010904//EN"
 "http://www.w3.org/TR/2001/REC-SVG-20010904/DTD/svg10.dtd">
<svg version="1.0" xmlns="http://www.w3.org/2000/svg"
 width="56.000000pt" height="56.000000pt" viewBox="0 0 56.000000 56.000000"
 preserveAspectRatio="xMidYMid meet">
<metadata>
Created by potrace 1.16, written by Peter Selinger 2001-2019
</metadata>
<g transform="translate(0.000000,56.000000) scale(0.100000,-0.100000)"
fill="#000000" stroke="none">
<path d="M437 540 c-19 0 -37 -3 -40 -6 -4 -4 -4 -11 -1 -15 3 -5 21 -9 40 -9
24 0 34 5 34 15 0 10 -10 15 -33 15z"/>
<path d="M331 530 c-7 0 -14 -6 -17 -13 -2 -7 -3 -40 -2 -72 3 -60 3 -60 -44
-63 -44 -3 -48 -1 -48 20 0 13 -16 40 -35 61 -31 33 -38 37 -51 26 -12 -10
-15 -24 -10 -61 6 -40 3 -51 -14 -68 -12 -12 -33 -20 -55 -20 -24 0 -37 -6
-45 -19 -7 -14 -6 -21 3 -24 6 -2 29 0 50 5 21 5 42 6 48 3 5 -4 9 -37 9 -74
0 -37 7 -88 16 -113 8 -25 23 -53 32 -61 9 -8 31 -18 47 -22 17 -4 50 -9 74
-12 25 -3 70 0 100 8 31 7 62 17 69 22 6 5 12 21 12 36 0 15 -5 32 -12 39 -7
7 -26 12 -44 12 -17 0 -34 6 -36 12 -2 7 -3 47 -3 88 0 71 1 75 24 78 13 2 44
-2 68 -9 38 -10 47 -10 60 3 13 14 12 19 -14 48 -22 25 -41 35 -74 39 -42 6
-44 8 -42 38 2 23 -5 39 -26 62 -16 17 -34 31 -40 31z m-91 -203 c23 2 51 -2
62 -8 15 -8 18 -19 16 -47 -3 -36 -4 -37 -48 -42 -44 -5 -44 -5 3 -50 26 -25
47 -52 47 -61 0 -14 -10 -16 -56 -13 -31 2 -58 5 -61 7 -2 3 -6 45 -10 96 -3
50 -3 96 0 103 2 7 24 14 47 15z"/>
</g>
</svg>
