<?xml version="1.0" standalone="no"?>
<!DOCTYPE svg PUBLIC "-//W3C//DTD SVG 20010904//EN"
 "http://www.w3.org/TR/2001/REC-SVG-20010904/DTD/svg10.dtd">
<svg version="1.0" xmlns="http://www.w3.org/2000/svg"
 width="128.000000pt" height="128.000000pt" viewBox="0 0 128.000000 128.000000"
 preserveAspectRatio="xMidYMid meet">
<metadata>
Created by potrace 1.16, written by Peter Selinger 2001-2019
</metadata>
<g transform="translate(0.000000,128.000000) scale(0.100000,-0.100000)"
fill="#000000" stroke="none">
<path d="M590 1194 c-14 4 -30 3 -37 -2 -8 -5 -13 -45 -15 -117 -3 -110 -3
-110 -31 -119 -18 -7 -41 -6 -70 1 -30 8 -65 9 -120 2 -61 -8 -83 -7 -104 4
-16 8 -39 17 -53 20 -14 3 -31 2 -39 -2 -8 -5 -14 -23 -13 -41 0 -17 9 -51 19
-75 12 -31 28 -49 53 -61 19 -10 51 -19 70 -21 19 -2 65 -6 102 -9 41 -3 72
-11 79 -20 10 -12 6 -34 -16 -108 -17 -59 -38 -107 -56 -129 -16 -20 -42 -60
-57 -89 -16 -29 -43 -73 -60 -97 -18 -24 -32 -56 -32 -71 0 -15 8 -34 18 -42
9 -9 33 -18 52 -22 19 -3 68 -12 108 -18 72 -12 72 -12 140 22 37 19 87 50
111 70 24 19 72 51 107 70 34 19 85 50 111 68 27 19 56 47 65 63 10 16 23 29
31 29 8 0 31 -20 51 -44 20 -25 39 -58 42 -74 5 -23 -1 -40 -24 -74 -16 -23
-52 -62 -79 -85 -27 -23 -65 -48 -84 -56 -19 -8 -45 -26 -58 -40 -21 -24 -22
-27 -7 -33 9 -4 57 -4 106 -2 82 5 92 8 125 37 20 17 40 31 45 31 6 0 23 29
39 64 16 35 34 66 40 70 6 4 27 41 46 83 19 42 35 82 35 89 0 7 -8 17 -17 23
-15 8 -16 12 -4 34 9 17 11 41 6 76 -7 50 -7 51 -42 51 -19 0 -44 5 -56 11
-11 7 -45 13 -74 15 -35 3 -64 -1 -83 -11 -17 -9 -59 -45 -94 -80 -35 -35 -85
-76 -111 -90 -26 -14 -57 -25 -67 -25 -11 0 -32 -9 -46 -20 -19 -15 -34 -19
-55 -14 -22 4 -34 1 -52 -16 -15 -14 -33 -20 -51 -18 -18 2 -30 10 -32 21 -2
11 9 35 25 55 16 21 35 57 42 82 7 25 19 59 27 77 8 18 19 35 24 38 4 3 16 28
25 55 9 28 28 64 42 80 23 27 30 30 86 30 34 0 80 -5 102 -10 22 -5 48 -7 58
-4 10 3 22 15 26 26 4 12 2 44 -4 72 -11 50 -13 52 -108 116 -53 36 -116 84
-139 107 -24 23 -54 44 -68 47z"/>
</g>
</svg>
