<?xml version="1.0" standalone="no"?>
<!DOCTYPE svg PUBLIC "-//W3C//DTD SVG 20010904//EN"
 "http://www.w3.org/TR/2001/REC-SVG-20010904/DTD/svg10.dtd">
<svg version="1.0" xmlns="http://www.w3.org/2000/svg"
 width="128.000000pt" height="128.000000pt" viewBox="0 0 128.000000 128.000000"
 preserveAspectRatio="xMidYMid meet">
<metadata>
Created by potrace 1.16, written by Peter Selinger 2001-2019
</metadata>
<g transform="translate(0.000000,128.000000) scale(0.100000,-0.100000)"
fill="#000000" stroke="none">
<path d="M474 1230 c-12 0 -27 -7 -34 -15 -10 -13 -8 -22 14 -54 16 -23 24
-44 20 -55 -3 -9 1 -27 9 -40 9 -13 16 -41 16 -62 0 -22 2 -61 4 -89 3 -27 8
-63 12 -79 8 -28 8 -28 -62 -23 -52 4 -78 2 -99 -10 -20 -10 -43 -13 -73 -9
-33 5 -49 2 -62 -10 -16 -14 -23 -15 -48 -4 -16 6 -40 10 -53 8 -15 -2 -24
-11 -26 -25 -2 -17 3 -26 21 -32 13 -5 66 -19 118 -31 55 -13 122 -21 162 -20
67 1 67 1 73 -29 4 -18 11 -34 15 -37 5 -3 9 -9 9 -15 0 -5 -15 -9 -33 -9 -29
0 -36 -6 -57 -42 -13 -24 -46 -71 -74 -105 -28 -35 -60 -75 -72 -90 -12 -16
-27 -44 -34 -65 -12 -32 -11 -42 8 -88 12 -29 33 -61 47 -72 14 -11 25 -25 25
-32 0 -7 6 -20 13 -30 11 -15 32 -19 129 -22 115 -4 117 -4 168 26 28 16 63
30 77 30 18 0 40 14 70 45 23 25 50 45 58 45 9 0 39 10 66 21 41 18 54 20 74
11 14 -7 25 -18 25 -26 0 -7 21 -32 46 -56 35 -32 51 -40 67 -36 12 4 34 9 49
12 15 4 39 21 53 40 18 23 25 45 25 77 0 25 -6 49 -13 55 -6 6 -25 14 -40 17
-15 4 -44 27 -65 51 -24 27 -55 49 -83 58 -24 9 -60 16 -80 16 -22 0 -42 -7
-50 -17 -8 -9 -39 -37 -70 -63 -44 -37 -70 -50 -125 -63 -38 -8 -101 -18 -140
-22 -54 -4 -74 -3 -82 8 -9 10 -8 18 3 33 8 10 15 26 15 34 0 8 14 33 30 55
17 22 41 63 55 90 14 28 25 62 25 77 0 15 5 30 10 33 6 4 26 31 45 61 26 40
41 54 58 54 14 0 39 10 58 23 19 12 59 30 89 39 30 10 70 21 88 26 26 6 40 18
59 53 26 45 26 45 2 78 -13 18 -37 40 -54 48 -16 9 -40 24 -52 35 -12 11 -34
21 -49 21 -15 0 -35 -9 -43 -19 -9 -11 -29 -27 -44 -37 -15 -10 -32 -15 -37
-12 -6 3 -10 25 -10 49 0 29 -9 56 -27 85 -21 32 -44 51 -88 73 -33 16 -71 35
-85 43 -14 8 -35 15 -46 15z m137 -260 c4 0 12 -7 20 -16 10 -13 10 -17 -2
-25 -8 -5 -20 -9 -27 -9 -7 0 -15 7 -19 16 -3 9 0 20 8 25 8 5 17 9 20 9z m61
-86 c5 -3 4 -12 -3 -20 -6 -7 -15 -11 -21 -8 -5 3 -4 12 3 20 6 7 15 11 21 8z
m90 -5 c11 -6 17 -16 15 -22 -2 -7 -13 -13 -25 -15 -16 -3 -22 2 -22 16 0 10
3 22 6 25 4 3 15 2 26 -4z m-242 -139 c11 0 20 -6 20 -14 0 -7 -7 -19 -15 -26
-12 -10 -19 -10 -27 -2 -6 6 -8 18 -5 26 4 9 16 16 27 16z m477 -412 c10 -2
18 -10 18 -18 0 -8 -7 -15 -15 -15 -8 0 -16 8 -18 18 -3 14 1 18 15 15z m-375
-133 c13 -4 27 -11 31 -15 5 -4 4 -18 -3 -30 -7 -14 -19 -20 -33 -18 -12 2
-23 11 -25 21 -2 10 -1 25 2 33 4 11 13 13 28 9z"/>
</g>
</svg>
