<?xml version="1.0" standalone="no"?>
<!DOCTYPE svg PUBLIC "-//W3C//DTD SVG 20010904//EN"
 "http://www.w3.org/TR/2001/REC-SVG-20010904/DTD/svg10.dtd">
<svg version="1.0" xmlns="http://www.w3.org/2000/svg"
 width="128.000000pt" height="128.000000pt" viewBox="0 0 128.000000 128.000000"
 preserveAspectRatio="xMidYMid meet">
<metadata>
Created by potrace 1.16, written by Peter Selinger 2001-2019
</metadata>
<g transform="translate(0.000000,128.000000) scale(0.100000,-0.100000)"
fill="#000000" stroke="none">
<path d="M610 1280 c-13 0 -22 -9 -26 -25 -4 -14 -4 -28 -2 -30 2 -3 14 4 26
15 12 12 22 25 22 30 0 6 -9 10 -20 10z"/>
<path d="M811 1280 c-16 0 -21 -6 -21 -25 0 -17 9 -29 28 -39 15 -8 36 -24 46
-35 14 -16 16 -25 9 -32 -6 -6 -41 -20 -78 -30 -55 -15 -76 -27 -115 -66 -29
-30 -50 -61 -55 -82 -4 -19 -22 -67 -40 -105 -17 -39 -38 -92 -45 -118 -12
-47 -13 -48 -52 -48 -29 0 -49 8 -78 31 -30 25 -45 30 -65 25 -15 -4 -36 -17
-48 -30 -12 -12 -37 -28 -55 -35 -25 -11 -35 -11 -47 -1 -8 7 -15 22 -15 34 0
12 4 26 10 32 5 5 21 31 34 58 14 27 23 53 20 58 -3 4 -10 8 -15 8 -5 0 -42
-33 -82 -74 -39 -41 -80 -89 -89 -107 -9 -19 -22 -51 -28 -72 -9 -30 -9 -45 0
-68 10 -22 19 -29 40 -29 20 0 37 10 57 33 15 19 44 40 63 47 19 7 59 33 89
57 29 24 56 43 60 43 3 0 12 -4 19 -8 6 -5 28 -46 47 -93 19 -46 43 -91 55
-101 11 -9 29 -14 40 -11 11 3 24 13 29 22 5 9 12 36 16 61 4 25 11 50 15 55
4 6 12 33 18 60 6 28 20 71 31 96 11 25 29 54 41 64 11 10 20 28 20 41 0 13 5
26 10 29 6 3 10 17 10 30 0 13 12 37 28 52 15 15 53 37 84 47 55 18 59 18 77
2 11 -10 25 -31 31 -47 7 -16 10 -35 7 -43 -3 -8 -23 -20 -44 -25 -21 -6 -67
-18 -103 -26 -36 -9 -69 -20 -74 -25 -6 -6 2 -14 20 -20 17 -7 53 -8 91 -4 58
6 63 5 63 -13 0 -11 -18 -34 -40 -52 -22 -18 -40 -41 -40 -52 0 -11 7 -22 16
-26 9 -3 31 1 48 10 17 9 54 18 81 19 39 2 50 0 50 -12 0 -8 -20 -25 -45 -38
-25 -12 -57 -31 -72 -42 -15 -11 -34 -20 -41 -20 -8 0 -34 -17 -57 -38 -39
-34 -42 -40 -35 -70 4 -19 13 -36 20 -38 7 -3 23 0 35 6 13 7 66 18 119 25 53
7 99 10 103 8 4 -2 5 -10 1 -18 -3 -8 -13 -15 -22 -15 -9 0 -35 -9 -56 -20
-22 -11 -58 -37 -80 -57 -22 -20 -48 -48 -58 -62 -11 -17 -15 -36 -11 -54 5
-25 3 -27 -27 -27 -26 0 -41 -9 -76 -47 -24 -27 -43 -51 -43 -55 0 -5 -31 -40
-70 -80 -38 -40 -70 -76 -70 -80 0 -4 14 -8 31 -8 23 0 46 13 86 48 30 26 69
61 86 78 18 17 46 48 62 68 17 20 43 50 59 66 18 19 38 30 56 30 21 0 31 7 39
28 6 15 27 47 46 72 19 25 53 68 77 96 23 28 46 64 50 80 6 23 4 32 -12 46
-19 15 -24 15 -58 1 -20 -8 -40 -20 -43 -26 -4 -5 -13 -7 -21 -5 -8 3 -25 0
-39 -8 -13 -7 -37 -13 -52 -14 -19 0 -27 4 -25 13 3 6 13 17 24 22 11 6 31 20
44 33 13 12 33 22 44 22 12 0 45 23 74 51 28 28 52 58 52 68 0 10 -9 26 -20
36 -11 10 -28 15 -42 13 -13 -3 -31 -9 -40 -13 -12 -4 -20 -2 -23 7 -3 8 1 31
10 51 9 21 21 40 28 42 7 2 48 11 92 21 44 9 92 23 108 31 15 7 27 17 27 22 0
4 -10 17 -22 28 -13 11 -34 23 -47 26 -15 4 -45 -5 -84 -24 -46 -22 -63 -26
-74 -18 -7 6 -13 20 -13 30 0 10 -9 24 -20 31 -11 7 -20 18 -20 25 0 6 14 23
31 37 21 18 42 26 70 26 34 0 39 3 39 24 0 13 -6 28 -12 33 -7 6 -35 13 -63
17 -27 4 -70 8 -94 10 -31 2 -50 9 -62 24 -9 12 -27 22 -38 22z"/>
<path d="M943 290 c-22 0 -33 -5 -33 -14 0 -7 34 -43 76 -80 41 -36 84 -66 95
-66 11 0 21 -6 23 -13 3 -6 7 -24 10 -39 5 -22 12 -28 32 -28 14 0 23 -4 20
-9 -4 -5 -3 -16 0 -25 3 -9 17 -16 30 -16 16 0 28 8 35 24 8 18 8 30 -2 49 -8
14 -44 57 -81 96 -44 47 -85 80 -120 96 -29 14 -68 25 -85 25z"/>
</g>
</svg>
