<?xml version="1.0" standalone="no"?>
<!DOCTYPE svg PUBLIC "-//W3C//DTD SVG 20010904//EN"
 "http://www.w3.org/TR/2001/REC-SVG-20010904/DTD/svg10.dtd">
<svg version="1.0" xmlns="http://www.w3.org/2000/svg"
 width="128.000000pt" height="128.000000pt" viewBox="0 0 128.000000 128.000000"
 preserveAspectRatio="xMidYMid meet">
<metadata>
Created by potrace 1.16, written by Peter Selinger 2001-2019
</metadata>
<g transform="translate(0.000000,128.000000) scale(0.100000,-0.100000)"
fill="#000000" stroke="none">
<path d="M633 1280 c-6 0 -22 -22 -35 -48 -13 -26 -34 -58 -46 -70 -12 -12
-22 -31 -22 -41 0 -11 -4 -23 -10 -26 -5 -3 -10 -17 -10 -30 0 -13 -10 -33
-22 -44 -16 -16 -25 -18 -35 -10 -7 6 -21 8 -30 4 -10 -3 -43 -9 -73 -11 -30
-3 -61 -7 -67 -9 -7 -3 -13 -14 -13 -26 0 -19 4 -21 48 -15 26 4 63 8 82 9 35
2 35 2 32 -36 -2 -21 2 -45 9 -54 7 -8 23 -19 36 -24 13 -5 23 -13 23 -18 0
-6 -25 -38 -55 -72 -30 -34 -55 -66 -55 -71 0 -6 -13 -30 -30 -55 -26 -39 -30
-53 -30 -116 0 -49 5 -80 15 -94 10 -15 22 -20 33 -16 9 4 26 18 37 31 11 14
27 33 36 42 9 10 23 32 33 50 9 18 16 41 16 51 0 10 4 20 9 23 5 3 12 25 15
48 3 24 9 68 12 98 4 30 11 61 16 68 6 6 25 12 43 12 18 0 38 -7 45 -14 6 -8
17 -40 25 -71 7 -31 11 -64 10 -73 -2 -9 -9 -64 -16 -122 -7 -58 -15 -109 -19
-115 -4 -5 -19 -41 -33 -80 -14 -38 -37 -96 -51 -128 -14 -32 -26 -63 -26 -71
0 -7 -13 -40 -30 -74 -16 -34 -30 -67 -30 -72 0 -6 8 -10 19 -10 10 0 26 11
35 25 9 13 16 29 16 34 0 6 13 38 29 73 16 35 39 89 51 121 12 31 26 60 31 63
5 3 9 14 9 25 0 10 4 27 9 37 5 9 18 56 30 103 13 54 21 119 21 170 0 46 -6
102 -13 124 -6 22 -22 57 -35 78 -13 20 -28 37 -33 37 -4 0 -27 -9 -49 -21
-40 -21 -40 -21 -74 7 -23 19 -35 38 -35 56 -1 15 6 34 15 42 8 9 30 16 47 16
19 0 52 13 82 33 50 32 50 32 53 101 2 49 -2 81 -15 112 -10 24 -23 44 -30 44z
m-21 -136 c4 -3 8 -10 8 -16 0 -7 -10 -22 -22 -35 -12 -13 -25 -23 -30 -23 -4
0 -8 5 -8 10 0 6 10 24 22 40 11 16 25 27 30 24z m-122 -374 c6 0 8 -22 4 -57
-3 -32 -10 -71 -16 -88 -6 -16 -16 -44 -24 -61 -7 -17 -21 -37 -30 -45 -14
-11 -18 -10 -30 6 -8 10 -14 29 -14 41 0 13 4 34 9 47 5 14 28 49 50 78 23 30
41 60 41 67 0 6 5 12 10 12z"/>
<path d="M841 1020 c-6 0 -11 -9 -11 -21 0 -12 8 -23 20 -26 11 -3 20 -10 20
-15 0 -5 14 -29 30 -53 17 -24 30 -48 30 -54 0 -5 10 -17 22 -25 12 -9 28 -16
35 -16 8 0 13 14 13 38 0 28 -9 46 -33 72 -18 19 -51 50 -74 68 -22 17 -46 32
-52 32z"/>
</g>
</svg>
