<?xml version="1.0" standalone="no"?>
<!DOCTYPE svg PUBLIC "-//W3C//DTD SVG 20010904//EN"
 "http://www.w3.org/TR/2001/REC-SVG-20010904/DTD/svg10.dtd">
<svg version="1.0" xmlns="http://www.w3.org/2000/svg"
 width="128.000000pt" height="128.000000pt" viewBox="0 0 128.000000 128.000000"
 preserveAspectRatio="xMidYMid meet">
<metadata>
Created by potrace 1.16, written by Peter Selinger 2001-2019
</metadata>
<g transform="translate(0.000000,128.000000) scale(0.100000,-0.100000)"
fill="#000000" stroke="none">
<path d="M570 1280 c-25 0 -30 -5 -36 -35 -3 -19 -9 -35 -13 -36 -3 0 -18 -2
-32 -3 -15 -1 -48 -19 -75 -41 -27 -22 -57 -49 -66 -60 -10 -11 -17 -27 -18
-36 0 -9 3 -19 8 -23 4 -4 7 -26 7 -47 0 -40 0 -40 70 -69 39 -15 82 -31 97
-34 19 -4 30 -15 34 -33 4 -14 2 -34 -4 -44 -9 -14 -8 -21 3 -33 8 -8 15 -17
15 -21 0 -3 -9 -4 -19 0 -14 4 -27 -5 -50 -34 -17 -21 -31 -50 -31 -63 0 -14
8 -32 18 -41 10 -10 33 -17 50 -17 17 0 34 -4 37 -10 3 -5 17 -10 30 -10 13 0
27 5 30 10 4 6 21 8 39 5 23 -5 38 -1 57 13 15 13 34 18 50 15 13 -2 32 -17
41 -34 10 -16 33 -38 51 -49 28 -16 36 -29 41 -62 4 -27 17 -50 37 -69 17 -16
37 -29 45 -29 8 0 14 7 14 15 0 8 -5 24 -12 35 -10 15 -10 26 0 53 7 18 12 48
12 65 0 26 -13 44 -72 102 -50 49 -82 72 -106 76 -18 4 -57 4 -85 1 -29 -2
-63 -1 -77 3 -14 4 -19 8 -12 9 6 1 12 10 12 21 0 10 14 35 31 55 32 36 32 36
0 69 -32 33 -32 33 14 33 25 0 51 5 57 11 8 8 7 18 -6 37 -9 14 -37 35 -61 46
-42 20 -47 20 -70 5 -13 -9 -28 -16 -33 -16 -4 0 -25 16 -45 35 -20 19 -37 38
-37 43 0 4 13 16 30 25 16 10 50 44 75 77 26 32 53 61 61 64 8 3 14 10 14 16
0 5 -13 10 -28 10 -15 0 -33 -5 -39 -11 -8 -8 -13 -8 -17 0 -4 6 -20 11 -36
11z"/>
<path d="M545 493 c-11 3 -27 3 -35 0 -8 -2 -32 -11 -52 -20 -21 -9 -38 -20
-38 -24 0 -5 -18 -20 -40 -34 -22 -14 -40 -32 -40 -40 0 -11 12 -15 47 -15 29
0 53 6 64 16 12 10 27 14 42 10 13 -3 36 -15 50 -27 15 -11 27 -29 27 -40 0
-10 4 -19 9 -19 5 0 16 -6 24 -14 8 -8 12 -25 10 -38 -3 -13 -14 -35 -26 -50
-17 -21 -32 -27 -68 -29 -25 -2 -61 3 -78 11 -18 7 -38 25 -46 40 -13 25 -13
29 0 34 8 3 15 12 15 19 0 8 -6 19 -13 25 -10 8 -21 7 -42 -4 -16 -8 -35 -12
-42 -10 -7 3 -20 3 -28 0 -8 -4 -15 -16 -15 -29 0 -12 7 -28 15 -35 14 -12 14
-15 -1 -31 -16 -18 -16 -20 -1 -37 10 -10 17 -26 17 -36 0 -9 11 -28 25 -41
21 -22 33 -25 94 -25 63 0 73 3 94 26 14 15 32 24 43 22 16 -3 19 -12 18 -51
0 -47 0 -47 53 -47 48 0 54 2 68 30 8 16 15 38 15 48 0 11 7 25 15 32 8 7 15
18 15 24 0 6 22 26 48 44 27 17 53 32 59 32 6 0 16 7 23 15 7 8 24 15 37 15
16 0 39 15 64 41 21 22 39 45 39 50 0 6 -5 19 -10 30 -6 10 -17 19 -25 19 -8
0 -15 5 -15 10 0 6 -4 10 -10 10 -5 0 -45 -25 -87 -55 -43 -30 -86 -55 -96
-55 -9 0 -22 -11 -27 -25 -5 -14 -17 -25 -27 -25 -10 0 -25 4 -33 10 -12 7
-11 12 5 30 18 19 18 22 2 56 -9 19 -17 39 -17 43 0 5 -12 28 -27 50 -18 28
-34 41 -49 41 -12 0 -24 4 -26 9 -1 4 -12 11 -23 14z"/>
</g>
</svg>
