<?xml version="1.0" standalone="no"?>
<!DOCTYPE svg PUBLIC "-//W3C//DTD SVG 20010904//EN"
 "http://www.w3.org/TR/2001/REC-SVG-20010904/DTD/svg10.dtd">
<svg version="1.0" xmlns="http://www.w3.org/2000/svg"
 width="128.000000pt" height="128.000000pt" viewBox="0 0 128.000000 128.000000"
 preserveAspectRatio="xMidYMid meet">
<metadata>
Created by potrace 1.16, written by Peter Selinger 2001-2019
</metadata>
<g transform="translate(0.000000,128.000000) scale(0.100000,-0.100000)"
fill="#000000" stroke="none">
<path d="M292 1280 c-39 0 -43 -2 -40 -22 2 -12 8 -23 13 -25 6 -1 24 8 40 22
30 24 30 24 -13 25z"/>
<path d="M733 1250 c-10 0 -26 -5 -36 -11 -10 -6 -33 -8 -50 -5 -20 4 -43 0
-61 -9 -15 -8 -34 -15 -41 -15 -7 0 -18 7 -25 15 -7 8 -25 15 -40 15 -19 0
-36 -9 -49 -26 -13 -16 -21 -41 -21 -63 0 -20 4 -41 8 -47 4 -6 17 -16 29 -23
12 -6 38 -11 57 -11 20 0 53 9 73 20 21 11 48 20 60 20 15 0 24 -7 27 -22 3
-13 7 -51 10 -85 3 -36 1 -73 -5 -86 -7 -15 -7 -36 -2 -57 8 -30 15 -35 68
-51 33 -9 72 -20 86 -23 15 -3 34 -17 43 -31 12 -19 17 -48 17 -100 0 -41 -5
-83 -10 -94 -6 -11 -11 -29 -11 -41 0 -11 -9 -39 -20 -60 -15 -30 -26 -40 -45
-40 -15 0 -31 10 -42 26 -10 14 -28 35 -40 47 -13 11 -23 32 -23 45 0 14 -8
31 -17 39 -10 8 -42 25 -71 39 -29 13 -60 24 -70 24 -9 0 -34 -5 -54 -10 -28
-8 -42 -21 -62 -57 -14 -25 -26 -52 -26 -59 0 -8 -10 -16 -23 -19 -13 -4 -31
-20 -41 -36 -14 -23 -16 -41 -11 -74 4 -32 1 -53 -10 -76 -13 -24 -15 -45 -10
-83 3 -28 14 -80 23 -116 15 -57 20 -65 44 -68 14 -2 34 -12 44 -23 9 -10 29
-19 44 -19 15 0 33 7 40 15 7 9 29 15 51 15 27 0 45 6 56 20 10 11 25 20 34
20 10 0 31 12 48 26 17 14 38 23 46 20 9 -3 15 -19 15 -41 0 -20 -5 -45 -10
-56 -10 -18 -7 -19 49 -19 59 0 59 0 81 45 21 43 21 47 6 92 -9 26 -16 63 -16
83 0 25 7 43 21 56 12 10 28 34 36 53 8 19 27 50 43 70 15 20 31 52 35 71 4
19 9 99 12 177 4 142 4 142 -39 173 -23 17 -71 45 -106 61 -35 17 -66 38 -69
46 -4 9 1 35 10 59 9 25 14 57 10 77 -3 19 -1 43 5 53 6 11 8 32 5 47 -3 15
-18 41 -33 57 -16 17 -36 30 -47 30z m-252 -750 c5 0 38 -12 74 -27 53 -22 72
-36 96 -71 16 -23 29 -48 29 -53 0 -5 7 -23 16 -40 8 -16 12 -39 9 -49 -3 -10
-14 -22 -24 -25 -11 -3 -31 -17 -45 -30 -14 -13 -43 -27 -64 -31 -20 -4 -45
-15 -55 -25 -10 -11 -28 -19 -41 -19 -13 0 -28 6 -34 13 -6 6 -18 39 -27 72
-9 33 -17 65 -17 70 -1 6 6 26 14 45 8 19 23 54 33 77 9 23 14 46 10 53 -4 6
-1 17 5 25 7 8 16 15 21 15z"/>
</g>
</svg>
