<?xml version="1.0" standalone="no"?>
<!DOCTYPE svg PUBLIC "-//W3C//DTD SVG 20010904//EN"
 "http://www.w3.org/TR/2001/REC-SVG-20010904/DTD/svg10.dtd">
<svg version="1.0" xmlns="http://www.w3.org/2000/svg"
 width="128.000000pt" height="128.000000pt" viewBox="0 0 128.000000 128.000000"
 preserveAspectRatio="xMidYMid meet">
<metadata>
Created by potrace 1.16, written by Peter Selinger 2001-2019
</metadata>
<g transform="translate(0.000000,128.000000) scale(0.100000,-0.100000)"
fill="#000000" stroke="none">
<path d="M593 1280 c-60 0 -60 0 -77 -38 -10 -21 -18 -61 -19 -87 -2 -42 1
-50 18 -53 11 -2 39 -13 63 -24 26 -11 47 -29 52 -44 6 -14 10 -29 10 -33 0
-4 -13 -28 -30 -52 -20 -31 -31 -63 -35 -100 -4 -36 -1 -62 7 -79 9 -16 33
-32 68 -45 30 -11 61 -24 68 -28 7 -5 12 -16 10 -24 -2 -9 -38 -27 -88 -44
-46 -16 -100 -40 -120 -54 -19 -13 -58 -48 -86 -77 -40 -41 -58 -70 -79 -130
-22 -61 -27 -90 -23 -137 2 -36 14 -77 29 -107 18 -34 32 -50 49 -52 12 -2 50
4 84 13 34 10 72 25 86 34 14 9 41 25 61 35 20 11 44 16 53 13 9 -4 16 -16 16
-28 0 -13 -24 -44 -60 -80 -61 -59 -61 -59 -3 -58 58 0 58 0 111 67 29 37 68
90 86 118 19 28 41 77 51 110 9 32 21 75 25 94 5 19 11 69 14 110 4 49 1 88
-8 114 -7 22 -25 54 -40 72 -14 18 -45 41 -68 53 -24 11 -54 22 -68 25 -14 3
-36 19 -48 35 -22 30 -22 30 -3 78 11 26 31 76 46 111 26 63 26 63 8 95 -13
21 -32 36 -58 45 -21 7 -44 20 -52 30 -8 10 -12 31 -9 52 2 19 7 43 11 53 6
15 0 17 -52 17z m112 -725 c11 -2 26 -4 32 -4 7 -1 19 -15 28 -31 14 -27 14
-35 0 -85 -11 -37 -26 -62 -48 -80 -18 -15 -44 -43 -59 -62 -15 -20 -39 -42
-54 -49 -14 -8 -44 -14 -65 -14 -35 0 -41 4 -56 35 -14 30 -15 40 -4 77 7 23
26 61 41 83 16 22 46 57 67 78 22 21 53 42 69 46 16 5 38 7 49 6z"/>
</g>
</svg>
