<?xml version="1.0" standalone="no"?>
<!DOCTYPE svg PUBLIC "-//W3C//DTD SVG 20010904//EN"
 "http://www.w3.org/TR/2001/REC-SVG-20010904/DTD/svg10.dtd">
<svg version="1.0" xmlns="http://www.w3.org/2000/svg"
 width="128.000000pt" height="128.000000pt" viewBox="0 0 128.000000 128.000000"
 preserveAspectRatio="xMidYMid meet">
<metadata>
Created by potrace 1.16, written by Peter Selinger 2001-2019
</metadata>
<g transform="translate(0.000000,128.000000) scale(0.100000,-0.100000)"
fill="#000000" stroke="none">
<path d="M429 1280 c-7 0 -9 -11 -6 -30 4 -16 14 -42 23 -56 16 -24 20 -25 76
-19 40 5 63 3 73 -5 8 -6 21 -37 30 -68 14 -47 28 -68 84 -124 68 -66 68 -66
63 -122 -2 -30 -10 -60 -17 -66 -9 -7 -23 -3 -49 15 -20 14 -47 25 -60 25 -17
0 -37 -21 -84 -87 -34 -49 -68 -95 -76 -103 -8 -8 -20 -43 -26 -78 -10 -47
-10 -69 -2 -87 8 -16 20 -25 35 -25 13 0 50 14 83 32 32 17 67 38 76 46 10 8
24 12 33 9 10 -5 15 -20 15 -51 0 -25 -7 -75 -15 -113 -8 -37 -21 -90 -29
-116 -8 -26 -34 -78 -57 -115 -24 -37 -56 -84 -72 -104 -29 -38 -29 -38 -6
-38 15 0 42 20 77 57 30 31 64 78 77 104 12 26 32 63 43 81 11 18 27 66 36
107 10 41 19 129 22 195 3 75 10 126 18 136 7 8 20 35 30 60 10 25 22 55 27
68 5 13 9 36 9 53 0 16 -7 46 -15 67 -9 21 -48 67 -91 107 -70 65 -76 75 -81
118 -5 38 -13 53 -40 77 -18 17 -39 30 -46 30 -7 0 -29 -5 -51 -11 -28 -8 -46
-7 -67 1 -16 7 -29 16 -29 21 0 5 -5 9 -11 9z m330 -290 c5 0 11 -7 15 -15 3
-9 0 -15 -9 -15 -8 0 -15 7 -15 15 0 8 4 15 9 15z m-127 -250 c6 0 20 -7 30
-17 11 -10 18 -30 18 -52 0 -33 -5 -39 -57 -73 -36 -23 -61 -34 -67 -28 -6 6
-5 25 3 51 7 23 24 59 37 81 13 21 29 38 36 38z"/>
</g>
</svg>
