<?xml version="1.0" standalone="no"?>
<!DOCTYPE svg PUBLIC "-//W3C//DTD SVG 20010904//EN"
 "http://www.w3.org/TR/2001/REC-SVG-20010904/DTD/svg10.dtd">
<svg version="1.0" xmlns="http://www.w3.org/2000/svg"
 width="128.000000pt" height="128.000000pt" viewBox="0 0 128.000000 128.000000"
 preserveAspectRatio="xMidYMid meet">
<metadata>
Created by potrace 1.16, written by Peter Selinger 2001-2019
</metadata>
<g transform="translate(0.000000,128.000000) scale(0.100000,-0.100000)"
fill="#000000" stroke="none">
<path d="M231 1180 c-5 0 -13 -4 -16 -10 -3 -5 5 -20 18 -32 14 -13 35 -30 48
-39 24 -16 24 -17 6 -53 -9 -20 -17 -44 -17 -54 0 -9 -9 -23 -20 -30 -15 -9
-20 -23 -20 -52 0 -34 -4 -41 -25 -46 -23 -6 -25 -10 -25 -68 0 -39 5 -69 15
-82 8 -10 15 -25 15 -32 0 -7 -10 -33 -21 -57 -20 -43 -21 -47 -4 -64 13 -16
14 -23 5 -41 -6 -11 -10 -33 -8 -48 2 -18 10 -28 24 -30 19 -3 20 2 22 72 1
42 8 88 15 103 8 16 20 52 28 81 10 43 11 59 0 88 -8 23 -10 56 -6 99 6 55 10
64 30 69 13 3 29 19 37 36 7 16 18 30 23 30 6 0 15 -4 21 -9 5 -5 23 -4 44 2
24 8 35 18 35 31 0 10 -7 22 -15 27 -8 4 -36 16 -63 26 -26 11 -58 29 -71 40
-13 12 -33 26 -44 32 -12 6 -25 11 -31 11z"/>
<path d="M833 1158 c-14 2 -30 -6 -43 -21 -14 -16 -29 -23 -43 -20 -14 3 -46
-9 -80 -29 -49 -28 -57 -37 -55 -58 2 -15 10 -26 22 -28 10 -2 36 4 57 14 22
9 49 32 60 51 11 18 23 33 25 33 3 0 14 -5 25 -10 10 -6 19 -19 19 -28 0 -10
-7 -27 -15 -38 -12 -18 -12 -24 -1 -40 12 -15 11 -20 -7 -34 -11 -9 -17 -22
-13 -28 4 -7 20 -12 36 -12 15 0 30 7 34 15 3 8 -1 21 -8 27 -12 11 -11 17 2
41 9 15 21 27 27 28 5 1 18 2 29 3 10 0 22 8 26 16 4 8 15 30 24 48 10 18 15
39 13 46 -3 8 -24 16 -47 18 -30 3 -44 0 -48 -10 -3 -8 5 -22 18 -32 20 -15
21 -19 9 -38 -8 -12 -17 -22 -21 -22 -5 0 -8 9 -8 19 0 11 -5 23 -11 26 -5 4
-9 19 -7 33 2 21 -2 28 -19 30z"/>
<path d="M1174 1018 c-15 2 -23 -4 -27 -19 -3 -12 -1 -31 4 -41 6 -11 18 -18
27 -16 12 2 17 13 17 38 0 28 -4 36 -21 38z"/>
<path d="M666 919 c-16 15 -26 19 -31 12 -3 -6 -2 -35 4 -64 5 -28 12 -72 15
-97 3 -25 1 -72 -5 -105 -5 -33 -13 -78 -16 -100 -3 -22 -9 -44 -14 -49 -5 -6
-9 -29 -9 -52 0 -23 -7 -59 -16 -80 -9 -21 -27 -52 -40 -69 -16 -22 -24 -45
-24 -73 0 -23 4 -42 10 -42 5 0 25 15 44 33 19 17 48 57 64 87 21 39 28 64 25
87 -4 22 3 44 21 75 14 25 26 54 26 64 0 11 7 29 15 40 8 11 14 41 15 72 0 53
0 53 34 47 28 -6 36 -3 50 16 9 13 38 30 68 40 45 14 53 20 53 40 0 22 -4 24
-50 25 -27 0 -64 1 -81 2 -28 2 -33 6 -38 37 -5 26 -12 35 -26 35 -15 0 -20
-7 -20 -25 0 -13 -8 -29 -19 -34 -10 -6 -21 -7 -25 -4 -3 3 -6 18 -6 33 0 15
-10 36 -24 49z m106 -119 c4 0 8 -7 8 -15 0 -8 -4 -15 -9 -15 -6 0 -12 4 -15
9 -3 4 -3 11 1 15 3 3 10 6 15 6z"/>
<path d="M474 874 c-7 3 -18 -2 -22 -12 -5 -9 -12 -36 -16 -60 -4 -24 -17 -65
-30 -90 -14 -27 -27 -76 -31 -115 -5 -49 -15 -79 -36 -111 -17 -26 -27 -50
-23 -60 3 -9 17 -16 29 -16 13 0 31 -3 41 -7 15 -5 16 -2 11 24 -4 21 -1 35 8
43 8 7 16 42 20 88 3 42 12 92 20 110 8 18 15 41 15 52 0 10 9 39 19 63 11 25
17 54 14 65 -3 12 -11 23 -19 26z"/>
<path d="M1176 650 c-8 0 -16 -6 -19 -14 -3 -8 -3 -17 0 -20 4 -3 12 -6 20 -6
7 0 13 9 13 20 0 11 -6 20 -14 20z"/>
<path d="M780 500 c-11 0 -23 -7 -27 -17 -4 -11 7 -28 38 -54 24 -21 52 -39
62 -39 9 0 17 -5 17 -12 0 -6 23 -37 50 -69 28 -32 50 -64 50 -72 0 -8 20 -42
45 -75 25 -33 51 -62 59 -65 8 -3 22 0 32 8 16 11 16 15 5 29 -11 14 -12 21
-2 40 7 13 11 32 9 42 -2 10 -19 29 -38 42 -19 12 -39 35 -46 50 -6 15 -22 37
-35 49 -13 12 -39 23 -58 25 -26 2 -38 10 -51 33 -9 17 -33 38 -53 48 -20 9
-37 22 -37 27 0 6 -9 10 -20 10z"/>
<path d="M1187 462 c-14 33 -14 33 -32 -4 -15 -31 -16 -40 -5 -53 7 -8 16 -15
21 -15 5 0 13 9 19 20 7 14 7 28 -3 52z"/>
<path d="M188 410 c-4 0 -15 -11 -24 -25 -14 -21 -14 -32 -4 -77 7 -29 21 -72
31 -96 10 -23 19 -49 19 -56 0 -8 21 -33 48 -56 26 -23 57 -47 70 -53 17 -8
26 -7 37 4 11 11 17 52 21 159 7 145 7 145 -15 118 -13 -16 -29 -28 -36 -28
-8 0 -17 5 -20 11 -4 5 1 19 10 29 10 11 14 26 10 39 -4 12 -12 18 -20 14 -8
-3 -23 -33 -34 -66 -10 -34 -23 -63 -29 -65 -6 -2 -13 6 -17 18 -3 11 -8 41
-10 66 -1 26 -9 50 -16 55 -8 5 -17 9 -21 9z"/>
</g>
</svg>
