<?xml version="1.0" standalone="no"?>
<!DOCTYPE svg PUBLIC "-//W3C//DTD SVG 20010904//EN"
 "http://www.w3.org/TR/2001/REC-SVG-20010904/DTD/svg10.dtd">
<svg version="1.0" xmlns="http://www.w3.org/2000/svg"
 width="128.000000pt" height="128.000000pt" viewBox="0 0 128.000000 128.000000"
 preserveAspectRatio="xMidYMid meet">
<metadata>
Created by potrace 1.16, written by Peter Selinger 2001-2019
</metadata>
<g transform="translate(0.000000,128.000000) scale(0.100000,-0.100000)"
fill="#000000" stroke="none">
<path d="M700 1260 c-10 0 -25 -8 -32 -17 -7 -10 -39 -36 -71 -57 -33 -22 -72
-52 -87 -66 -16 -15 -34 -28 -42 -29 -7 -1 -37 -4 -65 -7 -35 -4 -53 -11 -53
-19 0 -8 5 -17 11 -21 6 -4 28 -10 48 -15 26 -6 49 -3 84 9 33 12 47 22 47 35
0 15 5 18 24 13 16 -4 26 -1 29 9 3 7 22 17 41 21 20 3 43 4 51 0 11 -4 -17
-37 -101 -120 -103 -101 -115 -116 -105 -134 8 -16 7 -21 -5 -26 -13 -5 -14
-9 -4 -21 11 -14 15 -14 35 -1 20 13 25 13 44 0 11 -8 21 -23 21 -32 0 -10 9
-26 21 -35 18 -16 19 -25 14 -72 -6 -45 -4 -56 9 -61 10 -4 16 -16 14 -33 0
-14 6 -42 14 -62 16 -37 16 -37 -24 -63 -22 -14 -46 -26 -53 -26 -7 0 -15 12
-18 26 -2 15 0 42 5 61 7 27 6 40 -7 59 -8 13 -23 24 -31 24 -9 0 -18 -9 -21
-20 -4 -13 -14 -20 -30 -20 -14 0 -33 10 -43 22 -16 20 -16 24 -3 33 8 6 16
24 17 41 2 16 6 38 10 50 4 12 0 33 -9 50 -8 16 -15 34 -15 40 0 6 -16 28 -36
48 -20 20 -43 36 -51 34 -9 -2 -20 -10 -26 -19 -8 -13 -4 -26 19 -55 28 -37
29 -44 28 -122 -1 -46 -8 -97 -15 -113 -8 -21 -9 -33 -1 -41 7 -7 21 -7 47 2
25 8 40 9 47 2 7 -7 6 -17 -1 -31 -7 -12 -15 -21 -19 -21 -4 0 -22 4 -40 9
-18 6 -40 7 -48 4 -8 -3 -14 -16 -14 -29 0 -16 -17 -41 -50 -72 -28 -26 -50
-53 -50 -60 0 -6 -10 -21 -22 -32 -23 -21 -23 -21 0 -27 12 -3 22 -9 22 -14 0
-4 -9 -13 -19 -19 -11 -5 -26 -7 -34 -4 -8 3 -24 -5 -36 -17 -12 -13 -21 -29
-21 -37 0 -8 -8 -20 -17 -27 -14 -11 -15 -21 -7 -71 9 -59 9 -59 54 -66 37 -7
50 -4 70 11 18 14 24 27 23 49 -2 19 3 32 12 36 8 3 15 1 15 -4 0 -6 7 -10 15
-10 8 0 15 7 15 16 0 8 13 27 30 41 18 15 30 34 30 49 0 14 8 37 18 51 9 15
18 48 19 73 1 25 4 57 6 72 2 15 20 45 40 67 20 23 43 41 51 41 8 0 18 -5 22
-11 3 -6 0 -22 -7 -37 -11 -20 -11 -26 -1 -29 6 -3 12 -15 12 -28 0 -12 7 -28
15 -35 13 -10 24 -11 57 -1 34 11 43 10 55 -2 13 -13 13 -20 2 -51 -10 -28
-11 -41 -2 -55 7 -11 9 -22 6 -25 -4 -3 -16 -6 -27 -6 -12 0 -34 -12 -49 -25
-19 -17 -27 -33 -25 -48 2 -16 -1 -21 -15 -19 -13 2 -23 -10 -38 -43 -11 -26
-19 -48 -17 -50 2 -2 15 -6 29 -10 20 -5 32 -1 45 13 11 11 31 23 47 27 15 4
27 11 27 16 0 5 -7 9 -16 9 -9 0 -14 7 -12 17 2 10 11 19 21 21 10 2 24 -4 31
-14 7 -9 18 -14 24 -10 7 4 17 4 22 1 6 -4 -10 -30 -36 -61 -46 -54 -46 -54
-10 -54 27 0 39 6 52 25 9 13 24 27 34 30 10 3 30 17 44 31 14 15 36 26 48 26
13 0 50 -7 83 -15 33 -8 75 -20 93 -26 18 -5 39 -8 47 -5 7 3 16 12 19 20 3 8
3 21 0 29 -4 8 -10 15 -15 15 -5 0 -15 12 -22 28 -8 15 -11 38 -8 52 4 15 19
31 39 40 24 10 32 19 29 32 -3 10 -1 20 4 23 5 3 27 -4 49 -17 41 -23 41 -23
62 2 17 22 20 35 16 97 -4 64 -10 79 -44 129 -21 31 -50 69 -64 83 -14 14 -31
38 -37 53 -12 26 -15 27 -65 21 -29 -3 -60 -9 -68 -14 -9 -4 -34 -32 -55 -63
-32 -44 -44 -55 -60 -50 -11 3 -35 8 -52 11 -22 4 -33 11 -33 22 0 10 -7 26
-15 37 -8 10 -15 27 -15 37 0 11 -9 30 -20 44 -11 14 -20 29 -20 33 0 4 15 27
33 51 19 24 32 50 29 57 -2 7 -16 18 -31 24 -14 6 -55 12 -91 12 -51 1 -65 4
-68 17 -2 10 6 19 20 22 13 4 53 35 91 71 37 35 74 67 83 70 8 3 13 10 10 15
-3 5 7 23 24 41 16 17 42 35 57 39 15 4 28 12 31 19 2 7 -5 15 -15 18 -10 3
-34 13 -53 22 -19 10 -41 25 -48 35 -7 9 -22 17 -32 17z m302 -681 c15 1 31
-5 35 -13 4 -7 18 -18 31 -25 12 -6 22 -18 22 -26 0 -8 8 -18 18 -24 15 -9 13
-14 -19 -48 -20 -21 -43 -49 -50 -63 -8 -14 -27 -44 -44 -67 -16 -23 -35 -42
-42 -43 -6 0 -23 4 -37 10 -19 7 -25 16 -24 37 0 15 -3 54 -7 85 -5 41 -4 62
5 72 6 8 9 20 5 25 -3 6 -1 20 5 31 6 11 25 27 43 34 18 8 44 15 59 15z m-190
-110 c3 1 9 -29 13 -66 3 -38 9 -75 13 -83 4 -8 5 -30 2 -48 -3 -23 -14 -37
-35 -48 -24 -12 -37 -13 -78 -3 -48 11 -48 11 -42 53 4 22 16 59 26 80 11 22
19 46 19 53 0 7 17 24 38 37 20 14 40 25 44 25z m-487 -129 c14 0 25 -4 25 -9
0 -5 -7 -12 -16 -15 -9 -3 -20 -6 -25 -6 -5 0 -9 7 -9 15 0 9 9 15 25 15z
m-102 -130 c8 0 20 -7 27 -15 10 -12 7 -15 -15 -21 -14 -3 -29 -4 -32 -1 -3 4
-3 13 0 22 4 8 13 15 20 15z m666 -15 c14 -4 34 -16 45 -27 10 -11 14 -23 10
-28 -5 -5 -18 -10 -29 -12 -14 -2 -21 3 -23 18 -2 12 -12 24 -24 27 -12 3 -17
10 -13 17 4 7 18 9 34 5z m-251 -28 c10 -8 11 -12 3 -15 -7 -2 -19 -1 -29 3
-14 5 -14 7 -2 15 9 5 20 4 28 -3z"/>
</g>
</svg>
