<?xml version="1.0" standalone="no"?>
<!DOCTYPE svg PUBLIC "-//W3C//DTD SVG 20010904//EN"
 "http://www.w3.org/TR/2001/REC-SVG-20010904/DTD/svg10.dtd">
<svg version="1.0" xmlns="http://www.w3.org/2000/svg"
 width="128.000000pt" height="128.000000pt" viewBox="0 0 128.000000 128.000000"
 preserveAspectRatio="xMidYMid meet">
<metadata>
Created by potrace 1.16, written by Peter Selinger 2001-2019
</metadata>
<g transform="translate(0.000000,128.000000) scale(0.100000,-0.100000)"
fill="#000000" stroke="none">
<path d="M634 1250 c-31 0 -46 -5 -51 -16 -3 -9 4 -33 16 -54 11 -21 21 -47
21 -58 0 -11 -11 -27 -24 -35 -13 -9 -39 -30 -57 -46 -18 -17 -37 -31 -41 -31
-5 0 -8 -8 -8 -19 0 -10 7 -24 15 -31 8 -7 15 -17 15 -23 0 -6 12 -29 27 -51
15 -23 36 -51 46 -63 20 -22 20 -22 -15 -17 -29 5 -37 2 -51 -20 -9 -14 -53
-55 -98 -91 -45 -36 -85 -65 -91 -65 -5 0 -28 -16 -51 -36 -23 -20 -62 -44
-87 -53 -33 -12 -46 -23 -48 -40 -2 -13 -1 -33 2 -45 3 -11 21 -38 40 -58 27
-29 43 -38 68 -38 18 0 53 7 77 16 24 8 56 21 72 29 15 8 32 15 37 15 6 0 13
-7 16 -16 4 -11 -7 -33 -31 -61 -21 -25 -48 -58 -59 -75 -19 -25 -21 -39 -17
-91 3 -34 10 -67 17 -73 6 -7 40 -24 76 -39 36 -14 72 -29 81 -31 10 -4 37 14
70 44 32 29 68 52 89 57 25 5 55 28 108 82 59 61 77 74 95 69 12 -3 28 -10 35
-14 8 -5 16 -27 19 -48 5 -36 1 -43 -36 -79 -27 -26 -64 -48 -113 -65 -40 -15
-91 -39 -112 -53 -39 -27 -39 -27 68 -27 58 0 114 4 124 9 9 5 35 16 57 24 22
8 56 19 76 26 19 6 43 11 52 11 9 0 23 10 31 22 8 13 15 47 15 76 0 29 3 62 6
73 4 13 0 28 -12 41 -10 11 -38 32 -63 46 -25 14 -56 35 -70 48 -14 13 -44 25
-70 29 -42 5 -48 3 -87 -34 -24 -22 -43 -45 -43 -50 0 -5 -8 -12 -17 -15 -10
-3 -43 -26 -73 -51 -35 -29 -65 -45 -82 -45 -15 0 -30 -4 -33 -10 -3 -5 -21
-10 -39 -10 -17 0 -37 5 -44 12 -7 7 -12 18 -12 26 0 8 25 42 57 76 31 33 64
64 74 68 10 4 42 32 72 62 30 31 61 56 69 56 9 0 26 8 39 19 13 10 35 22 49
26 14 4 36 16 49 26 13 11 29 19 36 19 6 0 34 16 61 35 27 19 57 35 67 35 10
0 31 10 47 22 17 12 30 29 30 37 0 9 -19 29 -41 45 -25 18 -38 34 -35 42 3 9
-2 17 -12 20 -9 3 -25 10 -34 15 -10 5 -22 9 -27 9 -5 0 -13 -9 -16 -20 -3
-11 -38 -40 -76 -65 -38 -25 -80 -45 -92 -45 -12 0 -39 -14 -59 -31 -21 -16
-70 -41 -109 -55 -39 -14 -81 -32 -94 -40 -13 -9 -50 -22 -82 -29 -32 -8 -64
-14 -70 -15 -7 0 -13 6 -13 13 0 8 17 26 38 40 20 15 49 32 64 39 15 6 29 20
31 30 3 10 14 18 26 18 12 0 24 7 27 15 4 8 15 15 25 15 10 0 27 8 37 18 13
13 30 17 66 15 34 -2 63 4 99 21 29 13 60 27 69 30 10 3 15 11 12 19 -3 8 -17
20 -32 27 -15 7 -32 15 -38 19 -6 3 -30 19 -53 34 -23 15 -41 33 -38 40 2 7
19 20 38 29 19 9 56 23 84 31 27 8 53 21 59 29 5 8 6 27 2 41 -3 14 -14 28
-24 31 -9 4 -52 40 -95 81 -73 71 -81 75 -123 75z"/>
</g>
</svg>
