<?xml version="1.0" standalone="no"?>
<!DOCTYPE svg PUBLIC "-//W3C//DTD SVG 20010904//EN"
 "http://www.w3.org/TR/2001/REC-SVG-20010904/DTD/svg10.dtd">
<svg version="1.0" xmlns="http://www.w3.org/2000/svg"
 width="128.000000pt" height="128.000000pt" viewBox="0 0 128.000000 128.000000"
 preserveAspectRatio="xMidYMid meet">
<metadata>
Created by potrace 1.16, written by Peter Selinger 2001-2019
</metadata>
<g transform="translate(0.000000,128.000000) scale(0.100000,-0.100000)"
fill="#000000" stroke="none">
<path d="M459 1260 c-5 0 -9 -8 -9 -18 0 -10 23 -48 51 -85 36 -48 49 -73 44
-87 -3 -11 -33 -43 -65 -71 -52 -45 -59 -55 -54 -78 4 -14 17 -49 30 -78 13
-28 24 -56 24 -61 0 -5 -7 -15 -15 -22 -8 -7 -15 -21 -15 -31 0 -10 -11 -26
-25 -35 -14 -9 -25 -26 -25 -39 0 -18 -8 -24 -42 -31 -33 -7 -46 -16 -57 -38
-8 -17 -16 -49 -19 -71 -3 -30 1 -50 13 -69 10 -14 24 -26 33 -26 9 0 37 10
64 22 40 18 48 26 48 49 0 14 7 32 15 39 8 7 22 10 31 6 10 -4 13 -13 9 -26
-4 -14 -2 -20 8 -20 9 0 35 9 60 19 24 10 53 30 63 42 10 13 35 30 54 37 19 8
43 16 53 19 12 4 17 0 17 -14 0 -10 -25 -42 -55 -71 -30 -29 -61 -52 -68 -52
-8 0 -18 -7 -21 -16 -5 -14 0 -15 40 -9 47 7 47 7 25 -24 -12 -17 -31 -31 -41
-31 -11 0 -23 7 -28 16 -8 14 -15 15 -38 7 -16 -6 -56 -29 -88 -52 -33 -22
-65 -41 -72 -41 -7 0 -22 -12 -33 -26 -12 -15 -21 -41 -21 -58 0 -18 -4 -36
-10 -42 -5 -5 -12 -35 -16 -67 -5 -41 -3 -57 5 -57 7 0 23 -12 36 -26 25 -27
25 -27 78 0 30 14 66 26 80 26 14 0 29 5 32 10 3 6 18 10 33 10 15 1 43 9 62
18 20 10 36 26 38 38 2 14 19 27 52 41 50 21 50 21 80 -35 17 -32 46 -78 65
-105 28 -38 41 -47 65 -47 25 0 30 4 30 25 0 15 -7 39 -14 54 -8 15 -26 35
-39 44 -15 10 -27 30 -32 53 -4 25 -21 52 -50 81 -24 23 -53 43 -64 43 -11 0
-27 -12 -37 -29 -10 -17 -31 -37 -48 -45 -17 -8 -39 -17 -49 -20 -11 -4 -21
-15 -24 -26 -3 -10 -24 -28 -47 -39 -22 -10 -53 -22 -68 -25 -18 -4 -31 -1
-40 10 -7 8 -22 25 -32 36 -14 15 -16 25 -9 36 5 9 18 20 29 26 10 6 32 20 49
31 16 11 43 28 60 38 16 10 38 20 47 23 10 4 20 14 23 24 4 11 26 25 55 35 28
9 52 20 55 24 2 5 -1 22 -7 39 -7 17 -9 34 -5 38 4 4 13 2 19 -4 7 -7 20 -12
29 -12 11 0 20 11 24 29 3 16 13 35 20 41 8 7 13 24 11 39 -2 15 -13 41 -25
58 -21 28 -26 30 -84 28 -38 -1 -83 -10 -117 -24 -30 -13 -67 -29 -82 -37 -14
-8 -47 -14 -72 -14 -25 0 -46 5 -46 10 0 5 8 17 18 26 9 8 33 25 52 37 21 14
38 35 44 55 6 21 20 39 38 48 18 10 28 22 28 38 0 13 -18 43 -40 69 -22 25
-40 52 -40 60 0 7 26 36 58 64 31 27 65 52 75 56 9 4 20 14 23 22 4 9 -1 24
-10 34 -9 10 -16 20 -16 24 0 3 -25 30 -56 59 -31 29 -69 58 -86 65 -17 7 -34
13 -39 13z"/>
<path d="M735 940 c-7 0 -20 -9 -29 -19 -14 -16 -15 -23 -6 -41 8 -15 19 -20
37 -18 14 2 31 11 37 20 8 13 6 22 -8 37 -11 12 -24 21 -31 21z"/>
<path d="M541 34 c-5 3 -12 -1 -15 -10 -3 -9 -6 -18 -6 -20 0 -2 7 -4 15 -4 8
0 15 6 15 14 0 8 -4 17 -9 20z"/>
</g>
</svg>
