<?xml version="1.0" standalone="no"?>
<!DOCTYPE svg PUBLIC "-//W3C//DTD SVG 20010904//EN"
 "http://www.w3.org/TR/2001/REC-SVG-20010904/DTD/svg10.dtd">
<svg version="1.0" xmlns="http://www.w3.org/2000/svg"
 width="128.000000pt" height="128.000000pt" viewBox="0 0 128.000000 128.000000"
 preserveAspectRatio="xMidYMid meet">
<metadata>
Created by potrace 1.16, written by Peter Selinger 2001-2019
</metadata>
<g transform="translate(0.000000,128.000000) scale(0.100000,-0.100000)"
fill="#000000" stroke="none">
<path d="M505 1280 c-9 0 -15 -5 -13 -11 2 -6 8 -10 13 -10 5 0 11 4 13 10 2
6 -4 11 -13 11z"/>
<path d="M595 1247 c-28 27 -31 28 -46 12 -15 -15 -14 -20 17 -66 20 -31 31
-57 28 -69 -3 -12 -22 -26 -47 -36 -23 -8 -48 -13 -54 -11 -7 3 -13 11 -13 18
0 8 -12 23 -27 35 -23 18 -28 19 -41 6 -8 -8 -12 -22 -8 -31 3 -9 19 -21 36
-26 16 -6 30 -16 30 -22 0 -6 -9 -21 -21 -33 -18 -19 -19 -27 -10 -60 6 -23
23 -49 41 -63 16 -13 30 -32 30 -42 0 -11 -4 -19 -8 -19 -4 0 -27 -17 -50 -38
-23 -21 -42 -44 -42 -50 0 -7 -15 -27 -32 -45 -18 -18 -40 -44 -49 -57 -10
-16 -14 -32 -9 -45 4 -12 15 -27 24 -34 14 -12 26 -12 74 -1 31 7 70 23 85 36
16 13 34 24 40 24 7 0 22 3 35 6 18 5 22 2 22 -14 0 -12 -12 -29 -26 -39 -14
-10 -43 -34 -64 -53 -20 -19 -61 -61 -89 -93 -43 -48 -52 -64 -49 -90 3 -29 6
-32 36 -30 28 1 32 -2 26 -15 -3 -10 -9 -27 -11 -39 -4 -15 0 -25 11 -29 9 -3
31 -1 49 6 17 7 55 24 82 38 28 14 75 45 106 68 31 24 72 51 92 60 19 9 42 14
51 11 8 -3 19 -21 24 -39 7 -25 5 -40 -7 -61 -8 -15 -34 -42 -56 -60 -22 -17
-59 -47 -83 -64 -23 -18 -46 -33 -51 -33 -5 0 -32 -17 -60 -38 -27 -20 -75
-55 -106 -77 -56 -40 -56 -40 -20 -43 23 -2 51 5 76 17 22 12 47 21 55 21 9 0
29 12 45 27 16 16 53 42 83 58 30 17 74 47 98 67 24 20 63 52 88 71 40 30 45
38 43 70 -1 20 -12 55 -23 77 -11 22 -31 47 -45 56 -13 9 -41 18 -62 21 -29 4
-50 -1 -88 -21 -27 -15 -56 -32 -65 -40 -8 -7 -33 -23 -55 -35 -22 -13 -62
-32 -89 -42 -27 -11 -50 -18 -52 -16 -2 2 2 17 8 34 6 17 24 38 40 48 16 9 40
34 53 55 14 22 34 44 46 51 12 6 52 39 88 72 36 34 69 70 73 80 5 11 2 30 -7
48 -9 16 -24 29 -34 29 -11 0 -53 -16 -94 -36 -45 -21 -97 -38 -131 -41 -45
-5 -56 -3 -56 9 0 8 30 40 66 71 36 31 71 57 77 58 7 1 19 2 27 3 8 2 25 3 38
4 17 1 22 7 20 20 -2 10 -13 17 -28 18 -13 1 -26 7 -28 13 -2 6 -21 35 -43 63
-21 29 -39 58 -39 65 0 8 10 17 23 22 12 5 49 17 82 27 48 15 61 24 69 46 7
20 6 35 -4 52 -7 14 -29 36 -49 50 -20 13 -49 37 -66 53z"/>
<path d="M386 1170 c-16 0 -26 -6 -26 -15 0 -8 5 -15 11 -15 6 0 17 7 25 15
14 13 13 15 -10 15z"/>
<path d="M618 40 c-4 0 -8 -9 -8 -20 0 -15 7 -20 27 -20 25 0 26 0 8 20 -10
11 -22 20 -27 20z"/>
</g>
</svg>
