<?xml version="1.0" standalone="no"?>
<!DOCTYPE svg PUBLIC "-//W3C//DTD SVG 20010904//EN"
 "http://www.w3.org/TR/2001/REC-SVG-20010904/DTD/svg10.dtd">
<svg version="1.0" xmlns="http://www.w3.org/2000/svg"
 width="128.000000pt" height="128.000000pt" viewBox="0 0 128.000000 128.000000"
 preserveAspectRatio="xMidYMid meet">
<metadata>
Created by potrace 1.16, written by Peter Selinger 2001-2019
</metadata>
<g transform="translate(0.000000,128.000000) scale(0.100000,-0.100000)"
fill="#000000" stroke="none">
<path d="M226 1280 c-103 0 -103 0 -110 -57 -6 -48 -4 -60 11 -70 9 -7 26 -13
36 -13 11 0 38 19 61 43 22 23 56 50 74 59 17 9 32 22 32 28 0 6 -38 10 -104
10z"/>
<path d="M512 1280 c-110 0 -112 0 -112 -22 0 -13 16 -45 36 -71 19 -26 46
-52 60 -57 13 -5 42 -28 63 -50 25 -26 47 -40 64 -40 16 0 33 -10 46 -26 20
-25 20 -25 41 -4 18 18 20 31 18 83 -3 59 -4 63 -37 79 -19 9 -39 22 -44 27
-6 6 -21 11 -33 11 -13 0 -26 5 -29 11 -4 6 3 21 16 35 22 24 22 24 -89 24z"/>
<path d="M573 948 c-53 26 -62 27 -103 17 -25 -6 -54 -15 -65 -19 -11 -4 -43
-19 -72 -32 -35 -16 -51 -29 -47 -38 3 -8 23 -26 45 -40 21 -15 39 -32 39 -39
-1 -6 -9 -22 -19 -34 -11 -13 -39 -31 -63 -42 -24 -10 -60 -37 -80 -59 -20
-22 -46 -46 -57 -52 -12 -6 -21 -19 -21 -30 0 -12 9 -22 25 -26 16 -4 28 -17
35 -39 6 -18 22 -41 36 -49 13 -9 24 -23 24 -31 0 -8 11 -17 25 -21 20 -5 30
0 46 20 16 20 29 26 58 26 24 0 50 9 72 24 19 14 49 32 66 42 18 9 41 13 50
10 15 -6 12 -11 -17 -34 -19 -14 -85 -76 -147 -136 -61 -60 -114 -120 -117
-132 -4 -14 -16 -24 -36 -27 -19 -4 -34 -16 -42 -31 -9 -20 -8 -30 6 -50 9
-14 29 -33 44 -42 15 -9 40 -26 55 -36 18 -13 56 -23 105 -27 42 -5 80 -6 85
-4 4 2 7 11 7 19 0 8 10 14 24 14 13 0 29 6 36 14 9 12 7 21 -11 45 -12 17
-20 34 -16 37 3 4 27 8 51 10 25 1 48 -2 51 -7 4 -5 -5 -13 -18 -18 -13 -5
-27 -19 -30 -30 -4 -16 3 -26 29 -42 34 -21 34 -21 68 0 19 12 39 27 45 35 7
8 12 53 12 108 1 52 5 101 9 108 4 7 25 13 47 13 25 0 54 -10 79 -26 29 -18
43 -36 52 -64 6 -21 25 -57 42 -79 16 -23 43 -47 59 -54 25 -10 33 -9 56 6 14
9 33 30 41 45 7 15 14 39 14 52 0 13 -10 33 -22 44 -13 12 -42 27 -65 34 -24
7 -43 17 -43 24 0 6 -18 26 -41 44 -27 23 -47 31 -61 27 -13 -3 -33 3 -49 15
-15 10 -38 19 -52 19 -13 0 -38 -7 -56 -16 -17 -9 -38 -29 -46 -45 -9 -16 -20
-29 -25 -29 -5 0 -43 -30 -84 -67 -55 -50 -89 -73 -130 -86 -54 -18 -56 -17
-93 2 -21 11 -51 23 -68 27 -30 7 -30 7 10 19 22 7 60 22 85 33 25 11 67 38
92 60 26 22 51 42 55 43 5 2 24 25 42 50 18 25 33 53 34 61 2 8 13 27 25 42
12 16 27 46 34 67 7 24 17 39 27 39 9 0 31 9 49 20 21 13 32 27 32 42 0 13 -8
33 -18 44 -9 12 -27 27 -38 33 -18 9 -28 6 -57 -13 -19 -13 -44 -27 -55 -30
-11 -4 -26 -13 -32 -21 -7 -8 -23 -15 -36 -15 -13 0 -24 -4 -24 -10 0 -5 -19
-14 -42 -20 -24 -5 -58 -15 -77 -21 -28 -9 -36 -8 -50 6 -15 15 -14 18 11 39
14 13 28 34 30 47 2 18 10 25 30 27 15 2 38 17 53 33 14 17 25 37 25 45 0 8 8
14 18 14 11 0 27 9 37 20 10 11 26 22 36 25 11 4 19 15 19 26 0 13 -17 27 -57
47z m-99 -108 c8 0 18 -4 21 -10 3 -5 -3 -10 -14 -10 -12 0 -21 5 -21 10 0 6
6 10 14 10z m116 -180 c5 0 12 -5 15 -10 3 -6 -1 -13 -10 -16 -9 -4 -18 -4
-21 -1 -3 3 -3 10 1 16 3 6 10 11 15 11z m28 -110 c15 0 15 -1 -1 -17 -9 -9
-19 -14 -23 -11 -3 4 -3 11 1 17 3 6 14 11 23 11z m-313 -10 c9 0 15 -5 13
-11 -2 -6 -8 -10 -13 -10 -5 0 -11 4 -13 10 -2 6 4 11 13 11z"/>
</g>
</svg>
