<?xml version="1.0" standalone="no"?>
<!DOCTYPE svg PUBLIC "-//W3C//DTD SVG 20010904//EN"
 "http://www.w3.org/TR/2001/REC-SVG-20010904/DTD/svg10.dtd">
<svg version="1.0" xmlns="http://www.w3.org/2000/svg"
 width="128.000000pt" height="128.000000pt" viewBox="0 0 128.000000 128.000000"
 preserveAspectRatio="xMidYMid meet">
<metadata>
Created by potrace 1.16, written by Peter Selinger 2001-2019
</metadata>
<g transform="translate(0.000000,128.000000) scale(0.100000,-0.100000)"
fill="#000000" stroke="none">
<path d="M232 1280 c-37 0 -37 0 -39 -70 -2 -57 1 -72 14 -77 10 -4 22 1 30
13 8 10 12 30 9 44 -2 14 2 36 9 50 8 14 14 28 15 33 0 4 -17 7 -38 7z"/>
<path d="M540 1260 c-9 0 -20 -3 -23 -7 -4 -3 -7 -19 -7 -34 0 -17 12 -42 29
-61 15 -18 31 -43 35 -55 6 -18 0 -28 -34 -52 -23 -17 -52 -33 -64 -37 -11 -3
-29 -13 -38 -22 -10 -8 -18 -26 -18 -39 0 -13 16 -46 35 -73 19 -27 35 -52 35
-56 0 -3 -19 -29 -43 -57 -24 -29 -56 -71 -72 -95 -16 -24 -53 -67 -82 -95
-30 -29 -58 -60 -64 -70 -8 -13 -5 -26 11 -52 15 -24 29 -35 45 -35 13 0 42
16 65 35 23 19 48 35 55 35 7 0 29 13 50 30 21 16 46 30 56 30 10 0 21 5 24
10 4 6 11 8 16 5 5 -4 9 -9 9 -13 0 -4 -10 -19 -23 -34 -12 -14 -33 -41 -47
-58 -14 -18 -56 -65 -94 -106 -68 -73 -68 -73 -79 -151 -9 -71 -8 -82 11 -123
11 -25 29 -53 40 -63 19 -17 24 -16 128 29 60 25 120 57 135 70 14 13 28 24
32 24 4 0 38 15 76 34 69 34 69 34 92 11 13 -13 35 -40 49 -60 14 -20 36 -50
48 -66 13 -16 30 -29 37 -29 7 0 18 -7 25 -15 7 -8 23 -15 35 -15 13 0 25 5
27 12 3 7 -19 57 -48 113 -29 55 -60 114 -68 131 -11 25 -27 37 -72 54 -57 21
-58 21 -73 2 -9 -11 -38 -31 -66 -45 -27 -14 -67 -39 -88 -55 -21 -17 -52 -34
-70 -38 -18 -3 -45 -17 -60 -30 -16 -13 -36 -24 -45 -24 -9 0 -22 4 -27 8 -6
4 -18 19 -27 34 -16 24 -16 29 -1 67 9 23 22 41 30 41 8 0 54 41 103 92 50 50
90 95 90 99 0 5 22 32 50 61 38 40 51 61 56 95 5 34 3 48 -11 63 -11 13 -31
20 -52 20 -21 0 -47 -10 -67 -25 -18 -14 -38 -25 -44 -25 -6 0 -25 -13 -42
-30 -18 -17 -36 -27 -45 -24 -8 4 -15 10 -15 14 0 4 14 25 31 46 17 22 37 53
44 71 9 20 28 39 54 53 29 14 41 27 41 42 0 13 -22 42 -56 75 -30 29 -54 59
-51 66 2 6 22 14 44 17 22 4 52 14 66 23 15 9 41 17 59 17 18 0 40 4 48 10 12
7 12 11 -3 28 -10 10 -33 27 -52 38 -21 11 -51 45 -81 91 -28 43 -54 73 -64
73z"/>
<path d="M396 1180 c-8 0 -17 -4 -20 -8 -2 -4 -1 -14 4 -21 4 -8 13 -10 19 -7
6 4 11 14 11 22 0 8 -6 14 -14 14z"/>
</g>
</svg>
