<?xml version="1.0" standalone="no"?>
<!DOCTYPE svg PUBLIC "-//W3C//DTD SVG 20010904//EN"
 "http://www.w3.org/TR/2001/REC-SVG-20010904/DTD/svg10.dtd">
<svg version="1.0" xmlns="http://www.w3.org/2000/svg"
 width="128.000000pt" height="128.000000pt" viewBox="0 0 128.000000 128.000000"
 preserveAspectRatio="xMidYMid meet">
<metadata>
Created by potrace 1.16, written by Peter Selinger 2001-2019
</metadata>
<g transform="translate(0.000000,128.000000) scale(0.100000,-0.100000)"
fill="#000000" stroke="none">
<path d="M549 1238 c-34 15 -50 17 -58 9 -6 -6 -11 -21 -11 -32 0 -12 11 -32
25 -45 14 -13 25 -29 25 -36 0 -7 -14 -29 -31 -49 -19 -22 -29 -41 -25 -51 5
-13 15 -15 59 -9 28 4 67 13 86 21 18 8 59 14 91 14 42 0 61 5 73 18 10 10 17
25 17 34 0 8 -9 23 -19 32 -11 10 -39 24 -63 31 -23 8 -61 21 -83 29 -22 8
-61 23 -86 34z"/>
<path d="M449 980 c-16 0 -29 -7 -33 -17 -4 -9 -1 -32 5 -52 7 -20 23 -56 36
-80 12 -24 23 -53 23 -64 0 -11 -16 -35 -36 -53 -19 -19 -40 -34 -45 -34 -5 0
-28 -17 -52 -39 -23 -21 -63 -49 -89 -61 -37 -17 -50 -29 -59 -58 -7 -21 -11
-53 -10 -72 2 -19 14 -50 28 -68 14 -18 36 -38 50 -45 20 -9 31 -8 55 6 16 9
47 20 69 23 30 5 39 3 39 -7 0 -8 -24 -42 -54 -76 -29 -34 -63 -75 -75 -92
-13 -18 -22 -47 -23 -75 -2 -40 2 -50 32 -81 19 -19 41 -35 50 -35 8 0 66 25
127 55 62 30 118 55 125 55 7 0 40 18 73 40 33 22 66 40 74 40 7 0 29 9 47 21
19 11 43 19 55 17 15 -2 39 -32 79 -97 49 -82 62 -96 95 -108 22 -7 45 -11 52
-9 8 3 13 23 13 50 0 34 -6 50 -22 66 -12 11 -25 20 -29 20 -4 0 -11 9 -14 21
-4 11 -21 37 -38 57 -18 20 -47 51 -65 69 -18 18 -45 36 -60 40 -17 4 -37 0
-61 -14 -20 -12 -78 -42 -129 -67 -51 -25 -96 -46 -101 -46 -5 0 -32 -12 -59
-26 -32 -17 -58 -24 -71 -19 -15 5 -21 15 -21 38 0 26 13 43 78 105 42 40 91
80 107 89 17 9 50 33 75 53 25 21 56 41 70 45 14 5 42 19 63 32 20 13 37 29
37 36 0 6 -9 23 -19 36 -15 20 -27 24 -65 24 -25 -1 -67 -9 -93 -19 -27 -9
-55 -23 -63 -30 -8 -6 -49 -26 -90 -43 -41 -17 -104 -36 -139 -42 -35 -5 -66
-8 -68 -5 -3 3 18 30 47 60 28 30 66 62 85 70 18 9 35 20 37 25 2 5 39 27 84
49 44 22 86 47 93 56 11 13 11 22 1 47 -8 18 -28 38 -50 49 -20 10 -54 40 -75
67 -22 26 -46 53 -55 60 -8 7 -27 13 -41 13z"/>
</g>
</svg>
