<?xml version="1.0" standalone="no"?>
<!DOCTYPE svg PUBLIC "-//W3C//DTD SVG 20010904//EN"
 "http://www.w3.org/TR/2001/REC-SVG-20010904/DTD/svg10.dtd">
<svg version="1.0" xmlns="http://www.w3.org/2000/svg"
 width="128.000000pt" height="128.000000pt" viewBox="0 0 128.000000 128.000000"
 preserveAspectRatio="xMidYMid meet">
<metadata>
Created by potrace 1.16, written by Peter Selinger 2001-2019
</metadata>
<g transform="translate(0.000000,128.000000) scale(0.100000,-0.100000)"
fill="#000000" stroke="none">
<path d="M453 1250 c-11 0 -9 -9 9 -37 12 -21 37 -60 55 -87 18 -26 33 -55 33
-63 0 -8 -20 -36 -45 -61 -25 -25 -45 -52 -45 -61 0 -9 4 -21 8 -26 4 -6 28
-23 54 -38 26 -15 50 -32 53 -37 3 -5 -1 -22 -9 -37 -8 -15 -52 -67 -99 -114
-47 -47 -97 -93 -112 -103 -19 -13 -25 -24 -23 -44 2 -21 8 -26 23 -24 11 2
33 4 49 3 15 0 42 7 60 16 17 9 43 18 58 19 15 2 30 -1 33 -6 3 -5 -17 -34
-44 -64 -27 -29 -58 -63 -69 -74 -11 -11 -27 -43 -37 -71 -9 -30 -15 -68 -12
-89 2 -20 10 -64 16 -97 6 -33 14 -70 17 -83 3 -15 11 -22 22 -20 10 2 17 13
17 24 0 14 51 75 140 168 77 80 142 146 145 146 3 0 24 -17 46 -38 23 -20 49
-49 59 -64 17 -28 17 -28 -12 -56 -17 -15 -57 -48 -89 -72 -32 -25 -60 -48
-62 -52 -2 -5 -8 -8 -14 -8 -6 0 -25 -11 -42 -24 -17 -13 -51 -34 -76 -47 -45
-24 -45 -24 18 -27 62 -3 65 -2 139 50 41 29 106 79 144 111 66 56 69 61 69
103 0 25 -9 62 -19 83 -11 20 -37 49 -58 64 -24 17 -54 27 -83 29 -37 2 -46
-1 -54 -17 -5 -11 -24 -32 -42 -45 -19 -14 -36 -32 -40 -40 -3 -8 -34 -39 -70
-67 -35 -29 -68 -53 -73 -53 -6 0 -15 9 -21 19 -5 11 -10 36 -10 56 0 20 10
57 22 83 13 29 44 66 80 97 32 27 86 64 120 82 35 18 70 32 79 33 9 0 23 8 32
18 10 10 17 32 17 48 0 22 -8 36 -31 53 -32 24 -32 24 -91 -8 -33 -17 -70 -31
-83 -31 -13 0 -25 -3 -27 -7 -1 -5 -17 -16 -35 -26 -17 -9 -38 -17 -47 -17 -9
0 -16 7 -16 15 0 8 12 18 28 21 15 4 47 25 72 48 25 23 57 51 73 63 18 14 27
30 27 50 0 23 -13 42 -60 87 -33 32 -60 62 -60 67 0 5 8 17 18 27 11 11 37 22
60 26 25 4 45 13 51 25 8 14 6 22 -8 35 -9 9 -21 16 -24 16 -4 0 -43 27 -86
61 -44 33 -85 67 -92 75 -6 8 -18 14 -26 14z"/>
</g>
</svg>
