<?xml version="1.0" standalone="no"?>
<!DOCTYPE svg PUBLIC "-//W3C//DTD SVG 20010904//EN"
 "http://www.w3.org/TR/2001/REC-SVG-20010904/DTD/svg10.dtd">
<svg version="1.0" xmlns="http://www.w3.org/2000/svg"
 width="128.000000pt" height="128.000000pt" viewBox="0 0 128.000000 128.000000"
 preserveAspectRatio="xMidYMid meet">
<metadata>
Created by potrace 1.16, written by Peter Selinger 2001-2019
</metadata>
<g transform="translate(0.000000,128.000000) scale(0.100000,-0.100000)"
fill="#000000" stroke="none">
<path d="M845 1259 c-5 0 -16 -3 -22 -6 -9 -3 -13 -33 -13 -99 0 -93 0 -94
-24 -94 -14 0 -28 -4 -31 -10 -3 -5 -18 -10 -32 -10 -13 0 -38 -9 -53 -20 -29
-21 -29 -21 -44 2 -8 13 -18 46 -21 73 -4 28 -14 58 -23 68 -8 9 -33 23 -55
29 -35 11 -41 10 -54 -8 -12 -17 -12 -21 9 -36 13 -10 33 -27 45 -39 11 -12
23 -36 26 -53 3 -19 0 -37 -9 -45 -9 -10 -38 -14 -103 -14 -69 0 -91 -3 -91
-13 0 -7 13 -22 29 -34 27 -19 35 -20 100 -9 39 6 75 8 80 5 5 -3 12 -26 15
-50 4 -24 4 -56 0 -70 -4 -19 -16 -28 -44 -36 -21 -6 -43 -17 -50 -25 -10 -12
-7 -30 15 -91 27 -77 27 -77 4 -128 -13 -28 -38 -73 -56 -100 -18 -26 -33 -51
-33 -55 0 -4 -15 -15 -32 -26 -18 -10 -56 -38 -84 -62 -28 -24 -55 -43 -61
-43 -5 0 -22 -13 -38 -30 -16 -16 -34 -30 -41 -30 -6 0 -14 -6 -17 -13 -3 -8
-1 -20 3 -28 8 -11 15 -11 47 0 20 8 50 27 66 42 16 16 33 29 37 29 5 0 30 13
56 30 25 16 67 51 93 77 26 26 63 68 83 93 35 43 37 44 56 27 10 -9 25 -17 33
-17 8 0 24 7 36 15 11 8 45 16 75 18 30 3 64 9 75 16 12 6 33 11 47 11 14 0
28 5 31 10 4 7 12 7 25 0 10 -5 34 -10 52 -10 19 0 43 -7 55 -15 11 -8 24 -31
27 -50 4 -20 2 -52 -5 -73 -6 -20 -18 -54 -26 -75 -7 -21 -11 -42 -8 -47 2 -4
0 -23 -7 -41 -6 -19 -18 -38 -25 -42 -8 -5 -30 -22 -49 -39 -19 -16 -34 -34
-34 -39 0 -5 7 -9 15 -9 8 0 15 -8 15 -18 0 -11 8 -26 18 -35 10 -10 26 -17
35 -17 10 0 28 23 47 60 17 33 37 84 44 112 8 29 24 80 37 113 13 36 23 94 27
146 5 86 5 86 -37 128 -22 22 -49 41 -59 41 -10 0 -27 -7 -38 -15 -12 -8 -41
-21 -65 -29 -24 -9 -54 -16 -66 -16 -12 0 -25 -4 -28 -10 -3 -5 -25 -10 -48
-10 -23 0 -56 -4 -73 -9 -18 -5 -47 -6 -65 -2 -19 4 -35 14 -37 23 -2 10 7 19
25 25 15 5 58 10 96 12 37 1 80 9 95 17 15 7 32 14 39 14 6 0 15 10 18 23 4
12 18 47 33 77 14 30 32 69 41 87 13 28 13 34 -3 58 -9 14 -29 30 -44 36 -17
7 -33 7 -47 0 -11 -5 -34 -12 -50 -15 -17 -2 -37 -1 -45 4 -10 6 -21 3 -35 -9
-11 -10 -39 -21 -61 -25 -42 -6 -42 -6 -40 65 1 71 1 71 40 84 22 8 52 11 68
8 15 -3 28 -9 28 -14 0 -4 -5 -20 -10 -35 -7 -18 -7 -31 -1 -37 7 -7 17 -5 31
8 10 10 22 27 26 39 3 11 13 29 22 39 8 9 29 17 47 17 17 0 34 -2 37 -5 3 -3
41 -7 84 -10 46 -2 84 1 91 7 7 6 13 18 13 28 0 9 -8 24 -17 32 -10 8 -33 20
-52 27 -28 9 -37 8 -51 -4 -9 -8 -26 -15 -37 -15 -12 0 -28 3 -37 6 -9 3 -16
17 -16 30 0 13 8 40 17 60 18 36 18 36 -17 65 -19 15 -39 28 -45 28z m-19
-441 c12 1 25 -5 28 -13 3 -9 3 -44 -1 -78 -3 -34 -10 -70 -15 -79 -5 -11 -20
-18 -37 -18 -15 0 -52 -8 -82 -18 -30 -9 -72 -17 -94 -17 -30 0 -41 4 -43 18
-2 10 4 27 13 37 10 11 41 26 69 34 28 8 60 22 71 30 18 13 19 15 3 21 -10 4
-46 -2 -80 -14 -34 -12 -66 -21 -71 -21 -4 0 -7 16 -5 36 3 34 7 38 48 52 25
8 74 18 110 22 36 4 75 8 86 8z"/>
<path d="M839 380 c-10 0 -21 -4 -24 -10 -3 -5 -17 -10 -30 -10 -14 0 -46 -10
-72 -22 -27 -13 -54 -29 -61 -35 -7 -7 -17 -13 -20 -13 -4 0 -17 7 -29 15 -20
14 -24 13 -49 -8 -25 -22 -26 -26 -16 -57 7 -18 12 -43 12 -55 0 -12 11 -34
25 -49 18 -19 31 -26 43 -21 9 4 44 11 77 16 33 5 86 12 118 14 31 2 66 9 77
15 11 6 20 17 20 24 0 7 -11 18 -25 24 -14 7 -37 12 -50 12 -13 0 -52 -9 -87
-20 -34 -11 -78 -20 -95 -20 -20 0 -33 5 -33 13 0 6 3 22 6 34 4 14 25 30 66
47 32 14 70 26 82 26 13 0 38 3 55 6 17 4 36 15 42 26 7 14 7 23 -2 34 -6 8
-20 14 -30 14z"/>
</g>
</svg>
