<?xml version="1.0" standalone="no"?>
<!DOCTYPE svg PUBLIC "-//W3C//DTD SVG 20010904//EN"
 "http://www.w3.org/TR/2001/REC-SVG-20010904/DTD/svg10.dtd">
<svg version="1.0" xmlns="http://www.w3.org/2000/svg"
 width="56.000000pt" height="56.000000pt" viewBox="0 0 56.000000 56.000000"
 preserveAspectRatio="xMidYMid meet">
<metadata>
Created by potrace 1.16, written by Peter Selinger 2001-2019
</metadata>
<g transform="translate(0.000000,56.000000) scale(0.100000,-0.100000)"
fill="#000000" stroke="none">
<path d="M426 520 c-19 0 -38 -6 -43 -12 -4 -7 -14 -24 -20 -37 -7 -13 -13
-46 -13 -74 0 -32 6 -57 16 -68 9 -10 14 -25 11 -32 -3 -8 -20 -17 -39 -21
-18 -3 -63 -27 -100 -51 -37 -25 -71 -45 -76 -45 -4 0 -23 -13 -42 -30 -19
-16 -44 -29 -55 -30 -11 0 -30 -7 -42 -15 -13 -9 -20 -22 -17 -30 3 -8 19 -21
36 -29 27 -14 32 -14 54 0 13 9 24 21 24 28 0 6 19 28 43 48 23 20 56 48 72
62 17 14 36 26 43 26 6 0 12 5 12 10 0 6 7 10 15 10 9 0 26 7 39 16 19 12 26
12 32 3 5 -8 -5 -23 -26 -41 -19 -15 -49 -31 -67 -34 -18 -3 -36 -11 -39 -16
-4 -6 0 -14 7 -19 8 -5 27 -7 44 -4 16 3 39 14 50 25 12 11 26 20 33 20 6 0
23 15 38 33 24 31 28 33 60 23 18 -6 36 -16 39 -23 2 -7 2 -19 -1 -27 -3 -8
-13 -16 -23 -19 -9 -2 -49 -28 -89 -58 -39 -30 -71 -60 -72 -66 0 -7 10 -13
23 -13 13 0 36 14 53 31 16 17 49 41 74 54 25 13 53 33 63 44 9 12 17 31 17
44 0 14 -13 31 -37 47 -20 14 -50 27 -67 30 -28 5 -31 9 -43 65 -7 33 -12 70
-13 82 0 13 8 24 20 28 11 3 20 13 20 21 0 8 5 14 10 14 6 0 10 7 10 15 0 10
-10 15 -34 15z"/>
</g>
</svg>
