<?xml version="1.0" standalone="no"?>
<!DOCTYPE svg PUBLIC "-//W3C//DTD SVG 20010904//EN"
 "http://www.w3.org/TR/2001/REC-SVG-20010904/DTD/svg10.dtd">
<svg version="1.0" xmlns="http://www.w3.org/2000/svg"
 width="56.000000pt" height="56.000000pt" viewBox="0 0 56.000000 56.000000"
 preserveAspectRatio="xMidYMid meet">
<metadata>
Created by potrace 1.16, written by Peter Selinger 2001-2019
</metadata>
<g transform="translate(0.000000,56.000000) scale(0.100000,-0.100000)"
fill="#000000" stroke="none">
<path d="M150 520 c-16 0 -30 -4 -30 -9 0 -5 3 -16 6 -25 3 -9 17 -16 30 -16
19 0 24 5 24 25 0 21 -5 25 -30 25z"/>
<path d="M337 510 c-8 0 -17 -3 -20 -7 -4 -3 -7 -39 -7 -80 0 -61 -3 -75 -17
-79 -10 -4 -32 -12 -49 -20 -16 -7 -56 -40 -87 -73 -31 -33 -79 -77 -107 -97
-40 -28 -50 -42 -50 -64 0 -15 6 -30 14 -33 9 -4 29 14 55 48 35 46 46 54 83
60 24 3 54 10 68 14 14 5 45 14 70 21 25 7 53 22 63 33 9 10 17 34 17 53 0 18
5 36 11 39 5 4 28 -12 50 -35 21 -22 50 -63 64 -89 13 -27 31 -51 40 -55 9 -3
19 -6 21 -6 2 0 4 16 4 35 0 19 -4 35 -10 35 -5 0 -10 6 -10 14 0 7 -16 34
-36 60 -19 25 -51 53 -71 61 -19 8 -43 15 -53 15 -13 0 -19 11 -24 46 -3 26
-6 60 -6 75 0 18 -5 29 -13 29z m-25 -181 c4 1 10 -4 13 -10 4 -6 -13 -29 -37
-52 -24 -23 -62 -47 -83 -54 -22 -6 -41 -10 -43 -8 -2 2 2 11 8 22 7 10 32 34
57 53 25 19 53 38 62 42 9 4 19 7 23 7z"/>
<path d="M427 78 c-15 3 -18 -1 -15 -20 2 -12 10 -23 18 -23 8 0 15 9 15 20 0
11 -8 21 -18 23z"/>
</g>
</svg>
