<?xml version="1.0" standalone="no"?>
<!DOCTYPE svg PUBLIC "-//W3C//DTD SVG 20010904//EN"
 "http://www.w3.org/TR/2001/REC-SVG-20010904/DTD/svg10.dtd">
<svg version="1.0" xmlns="http://www.w3.org/2000/svg"
 width="56.000000pt" height="56.000000pt" viewBox="0 0 56.000000 56.000000"
 preserveAspectRatio="xMidYMid meet">
<metadata>
Created by potrace 1.16, written by Peter Selinger 2001-2019
</metadata>
<g transform="translate(0.000000,56.000000) scale(0.100000,-0.100000)"
fill="#000000" stroke="none">
<path d="M350 520 c-3 0 -11 -5 -18 -12 -7 -7 -12 -17 -12 -22 0 -6 7 -24 15
-40 9 -16 13 -37 9 -48 -3 -10 -20 -24 -38 -32 -19 -8 -56 -44 -91 -88 -32
-41 -76 -88 -97 -103 -21 -16 -52 -34 -70 -40 -17 -5 -36 -18 -42 -28 -8 -12
-8 -22 0 -35 6 -9 22 -18 36 -20 19 -2 37 8 67 36 22 21 60 45 83 53 24 7 63
23 88 35 27 13 57 38 72 61 15 21 31 57 38 81 6 23 17 42 24 42 7 0 22 -8 33
-17 11 -10 28 -33 37 -51 9 -18 23 -35 31 -38 8 -3 21 1 30 9 8 9 15 18 15 22
0 3 -15 20 -32 38 -18 18 -47 42 -65 55 -17 12 -38 22 -45 22 -8 0 -20 11 -26
25 -7 14 -12 36 -12 48 0 13 -5 28 -12 35 -7 7 -15 12 -18 12z m-10 -150 c6 0
10 -10 10 -23 0 -13 -13 -43 -28 -68 -16 -24 -47 -57 -70 -73 -23 -16 -45 -26
-49 -23 -3 4 2 19 12 33 10 15 34 46 55 68 20 23 42 51 49 64 6 12 16 22 21
22z"/>
<path d="M544 200 c-12 0 -14 -10 -12 -52 2 -30 8 -53 16 -56 8 -3 12 12 12
52 0 44 -3 56 -16 56z"/>
<path d="M433 98 c-11 2 -24 -2 -28 -7 -3 -6 -19 -11 -35 -11 -16 0 -32 -5
-35 -10 -4 -6 -2 -17 5 -25 7 -9 29 -13 63 -11 51 1 52 2 52 31 0 23 -5 31
-22 33z"/>
</g>
</svg>
