<?xml version="1.0" standalone="no"?>
<!DOCTYPE svg PUBLIC "-//W3C//DTD SVG 20010904//EN"
 "http://www.w3.org/TR/2001/REC-SVG-20010904/DTD/svg10.dtd">
<svg version="1.0" xmlns="http://www.w3.org/2000/svg"
 width="56.000000pt" height="56.000000pt" viewBox="0 0 56.000000 56.000000"
 preserveAspectRatio="xMidYMid meet">
<metadata>
Created by potrace 1.16, written by Peter Selinger 2001-2019
</metadata>
<g transform="translate(0.000000,56.000000) scale(0.100000,-0.100000)"
fill="#000000" stroke="none">
<path d="M245 520 c-8 0 -17 -5 -21 -11 -3 -6 -1 -16 4 -21 8 -8 16 -7 26 2 9
7 13 16 10 21 -3 5 -11 9 -19 9z"/>
<path d="M413 498 c-17 3 -28 -5 -43 -31 -12 -20 -28 -38 -36 -41 -9 -3 -27 3
-42 14 -17 14 -29 17 -36 10 -6 -6 -5 -18 4 -35 12 -23 11 -28 -17 -63 -17
-20 -39 -37 -49 -37 -16 0 -19 8 -19 46 0 25 -6 53 -14 62 -7 10 -28 17 -47
17 -18 0 -36 -5 -39 -11 -4 -5 5 -21 19 -34 14 -13 28 -34 31 -48 4 -13 5 -41
3 -63 -3 -34 -9 -42 -60 -77 -32 -22 -58 -45 -58 -51 0 -7 24 -33 54 -59 30
-26 61 -47 70 -47 8 0 19 7 24 16 5 9 27 23 48 30 34 12 41 11 59 -4 11 -9 30
-23 42 -30 13 -6 51 -12 85 -12 45 0 72 6 95 20 21 13 35 31 42 57 6 21 11 46
11 56 0 9 5 17 10 17 6 0 10 16 10 35 0 19 -4 35 -9 35 -4 0 -11 23 -14 51 -4
29 -14 61 -24 71 -10 11 -30 26 -45 34 -17 9 -28 23 -30 41 -2 20 -9 29 -25
31z m-27 -68 c1 0 25 -21 53 -48 48 -44 53 -52 64 -115 10 -59 9 -71 -5 -95
-9 -14 -21 -28 -27 -30 -6 -2 -15 7 -20 20 -5 13 -20 33 -34 46 -23 21 -24 29
-20 82 6 58 5 60 -23 72 -16 6 -31 13 -33 15 -3 2 6 14 19 28 13 14 24 25 26
25z m-59 -70 c3 0 12 -8 19 -17 7 -10 14 -28 14 -41 0 -13 -5 -32 -10 -43 -8
-13 -21 -19 -45 -19 -22 0 -35 5 -35 13 0 7 8 28 18 47 10 19 21 41 25 48 5 6
11 12 14 12z m-126 -110 c5 0 9 -10 9 -21 0 -18 -2 -19 -15 -9 -8 7 -12 16 -9
21 3 5 9 9 15 9z m-67 -54 c5 -1 14 -9 19 -18 6 -8 7 -27 3 -41 -4 -16 -13
-27 -23 -27 -9 0 -25 7 -35 17 -10 9 -18 22 -18 28 0 7 10 20 23 28 12 9 26
15 31 13z m120 4 c19 0 37 -4 41 -10 3 -5 -6 -17 -20 -26 -13 -9 -32 -14 -40
-10 -8 3 -15 15 -15 26 0 16 6 20 34 20z m106 -20 c8 -1 30 -14 49 -30 21 -18
31 -34 28 -44 -3 -8 -22 -18 -42 -22 -20 -3 -51 -2 -68 3 -18 5 -33 16 -35 25
-2 9 9 28 25 42 15 14 35 26 43 26z"/>
</g>
</svg>
