<?xml version="1.0" standalone="no"?>
<!DOCTYPE svg PUBLIC "-//W3C//DTD SVG 20010904//EN"
 "http://www.w3.org/TR/2001/REC-SVG-20010904/DTD/svg10.dtd">
<svg version="1.0" xmlns="http://www.w3.org/2000/svg"
 width="56.000000pt" height="56.000000pt" viewBox="0 0 56.000000 56.000000"
 preserveAspectRatio="xMidYMid meet">
<metadata>
Created by potrace 1.16, written by Peter Selinger 2001-2019
</metadata>
<g transform="translate(0.000000,56.000000) scale(0.100000,-0.100000)"
fill="#000000" stroke="none">
<path d="M374 560 c-20 0 -24 -5 -24 -28 0 -16 -7 -43 -16 -61 -9 -18 -22 -59
-30 -92 -9 -38 -12 -87 -8 -138 5 -79 5 -79 -25 -86 -16 -3 -46 -19 -65 -35
-20 -15 -53 -31 -73 -35 -21 -4 -44 -11 -50 -17 -7 -6 -13 -23 -13 -39 0 -25
4 -29 26 -29 16 0 44 14 68 34 33 26 46 32 59 24 10 -5 31 -10 47 -10 17 -1
39 7 50 17 11 10 20 24 20 32 0 7 8 13 19 13 10 0 38 -18 63 -40 34 -29 48
-36 56 -28 7 7 12 20 12 29 0 10 -15 29 -33 43 -19 14 -49 31 -68 38 -19 6
-37 16 -41 22 -4 6 -8 46 -8 88 0 42 5 90 11 105 6 15 15 37 19 48 4 11 14 35
22 52 8 18 13 46 10 63 -3 24 -9 30 -28 30z m-93 -430 c11 0 19 -7 19 -15 0
-8 -8 -19 -18 -24 -10 -5 -24 -6 -32 -1 -11 7 -11 11 -1 24 8 9 22 16 32 16z"/>
</g>
</svg>
