<?xml version="1.0" standalone="no"?>
<!DOCTYPE svg PUBLIC "-//W3C//DTD SVG 20010904//EN"
 "http://www.w3.org/TR/2001/REC-SVG-20010904/DTD/svg10.dtd">
<svg version="1.0" xmlns="http://www.w3.org/2000/svg"
 width="56.000000pt" height="56.000000pt" viewBox="0 0 56.000000 56.000000"
 preserveAspectRatio="xMidYMid meet">
<metadata>
Created by potrace 1.16, written by Peter Selinger 2001-2019
</metadata>
<g transform="translate(0.000000,56.000000) scale(0.100000,-0.100000)"
fill="#000000" stroke="none">
<path d="M341 560 c-36 0 -40 -3 -51 -35 -8 -23 -9 -58 -5 -97 4 -34 13 -75
21 -92 13 -30 12 -32 -37 -76 -27 -25 -71 -76 -97 -115 -45 -65 -51 -70 -89
-73 -32 -2 -43 -8 -52 -28 -6 -14 -11 -29 -11 -34 0 -6 23 -10 51 -10 28 0 60
5 72 12 12 6 27 19 34 28 7 11 21 16 35 13 15 -2 40 9 73 34 33 25 58 55 75
90 15 32 32 52 42 53 9 0 28 -15 41 -32 13 -18 27 -41 30 -50 4 -11 17 -18 32
-18 22 0 25 4 25 39 0 34 -5 44 -41 72 -23 18 -56 40 -73 48 -25 13 -35 29
-53 81 -12 36 -22 82 -22 102 -1 20 3 40 9 43 5 3 15 15 20 26 10 17 7 19 -29
19z m-30 -330 c4 0 11 -5 15 -11 3 -6 -5 -23 -19 -37 -15 -15 -40 -35 -57 -45
-17 -10 -30 -13 -30 -7 0 6 19 31 41 55 23 25 45 45 50 45z"/>
</g>
</svg>
