<?xml version="1.0" standalone="no"?>
<!DOCTYPE svg PUBLIC "-//W3C//DTD SVG 20010904//EN"
 "http://www.w3.org/TR/2001/REC-SVG-20010904/DTD/svg10.dtd">
<svg version="1.0" xmlns="http://www.w3.org/2000/svg"
 width="56.000000pt" height="56.000000pt" viewBox="0 0 56.000000 56.000000"
 preserveAspectRatio="xMidYMid meet">
<metadata>
Created by potrace 1.16, written by Peter Selinger 2001-2019
</metadata>
<g transform="translate(0.000000,56.000000) scale(0.100000,-0.100000)"
fill="#000000" stroke="none">
<path d="M311 498 c-21 3 -23 1 -18 -25 3 -15 8 -38 12 -49 6 -18 -2 -28 -42
-55 -26 -18 -70 -58 -98 -89 -27 -30 -76 -79 -107 -109 -39 -36 -58 -62 -58
-78 0 -12 4 -23 10 -23 5 0 34 25 65 55 31 30 68 58 81 61 13 3 24 9 24 13 0
4 -5 12 -11 18 -9 9 4 26 47 67 31 31 61 56 66 56 4 0 8 -7 8 -16 0 -9 -18
-34 -41 -55 -22 -21 -38 -43 -34 -49 4 -7 21 1 45 20 22 17 49 54 66 89 17 35
36 60 45 61 8 0 38 -12 67 -26 29 -14 52 -30 52 -34 0 -5 14 -16 32 -24 17 -9
33 -16 35 -16 1 0 3 12 3 28 0 20 -10 34 -39 55 -22 15 -48 27 -60 27 -11 0
-23 5 -26 10 -3 6 -26 10 -50 10 -43 0 -44 0 -47 38 -2 30 -7 38 -27 40z"/>
<path d="M395 140 c-12 0 -30 -9 -40 -20 -10 -11 -27 -20 -37 -20 -10 0 -21
-7 -24 -15 -4 -8 -13 -15 -22 -15 -12 0 -13 -3 -4 -12 9 -9 15 -9 23 -1 6 6
18 9 26 6 8 -3 39 3 69 13 30 10 54 23 54 29 0 6 -5 16 -12 23 -7 7 -22 12
-33 12z"/>
</g>
</svg>
