<?xml version="1.0" standalone="no"?>
<!DOCTYPE svg PUBLIC "-//W3C//DTD SVG 20010904//EN"
 "http://www.w3.org/TR/2001/REC-SVG-20010904/DTD/svg10.dtd">
<svg version="1.0" xmlns="http://www.w3.org/2000/svg"
 width="56.000000pt" height="56.000000pt" viewBox="0 0 56.000000 56.000000"
 preserveAspectRatio="xMidYMid meet">
<metadata>
Created by potrace 1.16, written by Peter Selinger 2001-2019
</metadata>
<g transform="translate(0.000000,56.000000) scale(0.100000,-0.100000)"
fill="#000000" stroke="none">
<path d="M299 510 c-4 0 -12 -7 -19 -15 -7 -9 -10 -28 -7 -47 4 -18 9 -46 12
-63 6 -27 -2 -38 -77 -118 -61 -64 -90 -87 -108 -88 -14 0 -41 -8 -60 -17 -23
-11 -36 -25 -38 -41 -2 -12 -1 -34 2 -47 4 -13 12 -24 19 -24 6 0 35 17 62 38
28 20 79 52 115 71 36 19 77 45 92 59 15 14 32 40 39 59 6 18 16 33 23 33 7 0
25 -11 39 -24 14 -13 36 -48 50 -77 13 -30 34 -62 45 -73 15 -13 29 -16 47
-12 20 5 25 13 25 36 0 17 -4 30 -9 30 -5 0 -17 20 -26 44 -12 30 -31 54 -61
76 -25 17 -61 36 -80 42 -23 6 -38 18 -44 34 -6 14 -10 42 -10 63 0 20 -5 42
-12 49 -7 7 -15 12 -19 12z"/>
</g>
</svg>
