<?xml version="1.0" standalone="no"?>
<!DOCTYPE svg PUBLIC "-//W3C//DTD SVG 20010904//EN"
 "http://www.w3.org/TR/2001/REC-SVG-20010904/DTD/svg10.dtd">
<svg version="1.0" xmlns="http://www.w3.org/2000/svg"
 width="56.000000pt" height="56.000000pt" viewBox="0 0 56.000000 56.000000"
 preserveAspectRatio="xMidYMid meet">
<metadata>
Created by potrace 1.16, written by Peter Selinger 2001-2019
</metadata>
<g transform="translate(0.000000,56.000000) scale(0.100000,-0.100000)"
fill="#000000" stroke="none">
<path d="M367 500 c-23 0 -41 -10 -66 -35 -19 -19 -38 -35 -42 -35 -5 0 -9 -9
-9 -20 0 -11 11 -39 25 -61 15 -24 24 -48 20 -58 -3 -11 -23 -31 -45 -45 -22
-14 -44 -26 -48 -26 -5 0 -29 -15 -53 -33 -24 -18 -68 -43 -96 -56 -36 -17
-53 -30 -53 -43 0 -11 10 -20 25 -24 17 -4 42 2 78 20 28 14 75 32 102 41 28
9 73 28 100 43 38 20 53 35 61 61 6 20 21 38 33 43 15 5 30 3 47 -8 13 -9 24
-22 24 -29 0 -6 -8 -19 -17 -27 -10 -8 -70 -40 -133 -72 -63 -32 -119 -62
-125 -67 -5 -5 13 -9 47 -9 37 0 60 5 68 15 7 8 23 15 35 15 12 0 53 11 89 25
37 14 80 25 96 25 28 0 30 2 30 39 0 22 -3 41 -7 43 -5 1 -15 17 -23 33 -9 17
-31 38 -50 48 -25 13 -47 16 -77 12 -41 -6 -43 -5 -60 30 -13 27 -14 38 -6 43
7 4 25 28 42 52 16 24 27 48 25 52 -3 4 -20 8 -37 8z m-75 -280 c4 0 8 -6 8
-14 0 -8 -7 -17 -16 -20 -9 -3 -20 -6 -26 -6 -6 0 -3 9 7 20 10 11 22 20 27
20z"/>
<path d="M494 110 c-10 0 -14 -8 -12 -22 2 -19 10 -24 41 -26 26 -2 37 1 37
11 0 7 -11 19 -25 25 -14 7 -33 12 -41 12z"/>
</g>
</svg>
