<?xml version="1.0" standalone="no"?>
<!DOCTYPE svg PUBLIC "-//W3C//DTD SVG 20010904//EN"
 "http://www.w3.org/TR/2001/REC-SVG-20010904/DTD/svg10.dtd">
<svg version="1.0" xmlns="http://www.w3.org/2000/svg"
 width="56.000000pt" height="56.000000pt" viewBox="0 0 56.000000 56.000000"
 preserveAspectRatio="xMidYMid meet">
<metadata>
Created by potrace 1.16, written by Peter Selinger 2001-2019
</metadata>
<g transform="translate(0.000000,56.000000) scale(0.100000,-0.100000)"
fill="#000000" stroke="none">
<path d="M292 518 c-20 3 -22 -1 -22 -51 0 -44 -4 -59 -22 -75 -13 -12 -39
-35 -58 -52 -19 -18 -57 -46 -85 -64 -27 -18 -62 -50 -77 -72 -26 -37 -27 -43
-18 -98 5 -32 11 -60 12 -61 2 -2 11 -5 21 -7 14 -2 22 8 34 42 8 25 19 49 24
55 5 5 9 19 9 32 0 16 8 27 27 34 16 6 38 8 51 6 17 -3 22 -1 18 9 -3 8 -1 14
4 14 5 0 12 -4 15 -10 3 -5 17 -10 31 -10 14 0 34 4 44 10 10 5 23 24 29 41 6
18 11 52 11 75 0 39 3 44 23 44 13 0 38 -11 57 -25 18 -13 43 -41 55 -62 13
-21 26 -53 30 -70 5 -26 12 -33 31 -33 22 0 24 4 24 45 0 25 -4 45 -9 45 -5 0
-12 12 -16 28 -3 15 -13 37 -21 49 -7 12 -35 34 -60 49 -28 16 -59 27 -79 26
-31 -1 -35 2 -48 41 -10 30 -20 43 -35 45z m-8 -161 c6 -2 12 -9 14 -15 2 -6
-11 -25 -30 -42 -19 -17 -42 -29 -53 -28 -11 2 -20 10 -20 18 0 8 18 26 40 42
22 15 44 26 49 25z"/>
<path d="M228 139 c-4 1 -9 -3 -12 -8 -3 -4 4 -17 15 -27 12 -10 27 -31 35
-46 12 -24 21 -28 55 -28 36 0 40 2 37 23 -2 15 -21 31 -63 54 -33 17 -63 32
-67 32z"/>
</g>
</svg>
