<?xml version="1.0" standalone="no"?>
<!DOCTYPE svg PUBLIC "-//W3C//DTD SVG 20010904//EN"
 "http://www.w3.org/TR/2001/REC-SVG-20010904/DTD/svg10.dtd">
<svg version="1.0" xmlns="http://www.w3.org/2000/svg"
 width="56.000000pt" height="56.000000pt" viewBox="0 0 56.000000 56.000000"
 preserveAspectRatio="xMidYMid meet">
<metadata>
Created by potrace 1.16, written by Peter Selinger 2001-2019
</metadata>
<g transform="translate(0.000000,56.000000) scale(0.100000,-0.100000)"
fill="#000000" stroke="none">
<path d="M331 500 c-10 0 -24 -7 -31 -15 -9 -11 -11 -32 -6 -70 6 -54 6 -54
-36 -66 -23 -6 -53 -19 -66 -30 -14 -10 -31 -19 -38 -19 -7 0 -22 -14 -34 -30
-12 -17 -39 -39 -61 -50 -21 -11 -42 -28 -47 -38 -5 -9 -6 -28 -3 -42 5 -19
14 -26 39 -28 27 -3 35 2 51 30 11 18 27 41 36 50 9 9 36 19 59 23 22 3 53 8
68 11 14 3 37 15 50 28 13 12 28 31 34 42 11 18 14 17 47 -15 20 -18 49 -59
65 -90 16 -31 32 -67 36 -81 3 -14 10 -31 15 -39 5 -8 16 -11 30 -6 17 5 21
14 21 46 0 21 -4 39 -9 39 -5 0 -16 15 -24 33 -9 18 -38 56 -64 83 -26 28 -65
63 -85 78 -35 25 -38 31 -38 76 0 27 5 52 10 55 6 4 8 11 5 16 -4 5 -14 9 -24
9z m-79 -190 c10 0 18 -4 18 -9 0 -6 -10 -17 -22 -25 -12 -9 -31 -16 -42 -16
-18 0 -18 2 4 25 13 14 32 25 42 25z"/>
<path d="M244 120 c-22 0 -44 -3 -47 -6 -4 -4 -4 -11 -1 -15 3 -5 13 -9 23 -9
10 0 26 -9 36 -20 10 -11 29 -20 42 -20 13 0 26 7 30 16 4 11 -2 23 -18 35
-14 11 -41 19 -65 19z"/>
</g>
</svg>
