<?xml version="1.0" standalone="no"?>
<!DOCTYPE svg PUBLIC "-//W3C//DTD SVG 20010904//EN"
 "http://www.w3.org/TR/2001/REC-SVG-20010904/DTD/svg10.dtd">
<svg version="1.0" xmlns="http://www.w3.org/2000/svg"
 width="56.000000pt" height="56.000000pt" viewBox="0 0 56.000000 56.000000"
 preserveAspectRatio="xMidYMid meet">
<metadata>
Created by potrace 1.16, written by Peter Selinger 2001-2019
</metadata>
<g transform="translate(0.000000,56.000000) scale(0.100000,-0.100000)"
fill="#000000" stroke="none">
<path d="M434 499 c-5 4 -16 6 -24 4 -9 -2 -22 -14 -30 -26 -10 -14 -15 -52
-16 -112 -2 -88 -3 -90 -30 -106 -16 -8 -76 -34 -134 -56 -58 -23 -123 -48
-145 -56 -33 -12 -42 -21 -49 -51 -5 -20 -6 -39 -3 -43 4 -3 29 6 56 21 28 15
81 38 118 51 37 14 90 25 116 25 33 0 58 7 77 20 15 11 31 32 35 47 3 15 11
34 17 40 6 7 18 13 27 13 10 0 30 -13 45 -29 24 -25 31 -28 47 -18 11 7 19 21
19 32 0 14 -12 26 -39 37 -30 13 -47 15 -73 8 -18 -6 -36 -10 -40 -10 -5 0 -8
25 -8 55 0 36 8 71 21 101 12 25 18 49 13 53z m-94 -270 c10 1 8 -3 -5 -12
-11 -7 -34 -19 -52 -26 -18 -7 -38 -11 -45 -8 -7 3 -3 6 10 6 12 1 22 5 22 10
0 5 12 14 28 19 15 6 34 11 42 11z"/>
<path d="M330 120 c-4 0 -14 -8 -24 -18 -15 -18 -15 -20 2 -35 10 -10 26 -17
35 -17 11 0 17 8 17 23 0 13 -5 28 -12 35 -7 7 -15 12 -18 12z"/>
</g>
</svg>
