<?xml version="1.0" standalone="no"?>
<!DOCTYPE svg PUBLIC "-//W3C//DTD SVG 20010904//EN"
 "http://www.w3.org/TR/2001/REC-SVG-20010904/DTD/svg10.dtd">
<svg version="1.0" xmlns="http://www.w3.org/2000/svg"
 width="56.000000pt" height="56.000000pt" viewBox="0 0 56.000000 56.000000"
 preserveAspectRatio="xMidYMid meet">
<metadata>
Created by potrace 1.16, written by Peter Selinger 2001-2019
</metadata>
<g transform="translate(0.000000,56.000000) scale(0.100000,-0.100000)"
fill="#000000" stroke="none">
<path d="M305 498 c-12 2 -24 0 -28 -4 -4 -4 -7 -18 -7 -31 0 -12 6 -23 13
-23 6 0 17 4 24 8 6 4 13 16 15 27 2 14 -3 21 -17 23z"/>
<path d="M448 500 c-7 -1 -17 -6 -23 -13 -5 -7 -16 -23 -22 -35 -7 -12 -13
-50 -13 -84 0 -63 0 -63 -41 -76 -23 -7 -61 -26 -85 -42 -23 -17 -47 -30 -51
-30 -5 0 -18 -8 -29 -17 -10 -10 -30 -23 -44 -30 -14 -6 -43 -17 -65 -24 -22
-7 -48 -20 -57 -28 -10 -8 -18 -24 -18 -37 0 -18 4 -21 23 -17 12 3 41 19 65
34 24 16 46 29 51 29 4 0 16 9 28 19 11 11 38 24 59 30 22 6 53 11 71 11 17 0
35 5 38 10 3 6 14 10 24 10 9 0 31 15 49 33 20 20 32 43 32 59 0 15 -4 30 -10
33 -5 3 -10 25 -10 49 0 30 6 48 20 61 11 10 20 26 20 37 0 10 -6 18 -12 18z
m-85 -231 c10 1 16 -3 12 -8 -3 -6 -19 -17 -37 -25 -17 -9 -43 -16 -57 -15
-23 0 -21 3 19 24 25 12 53 23 63 24z"/>
<path d="M483 260 c-7 0 -13 -3 -13 -6 0 -3 8 -18 19 -32 10 -15 20 -36 22
-47 3 -12 14 -21 27 -23 17 -3 22 2 22 18 0 11 -14 36 -32 55 -17 19 -37 35
-45 35z"/>
<path d="M383 118 c-18 2 -33 -1 -33 -7 0 -6 -22 -13 -50 -17 -44 -6 -48 -8
-39 -25 6 -11 21 -19 36 -19 15 0 37 10 50 22 19 18 23 19 23 5 0 -9 4 -18 9
-21 5 -4 17 -3 26 0 10 4 15 16 13 33 -2 21 -9 27 -35 29z"/>
</g>
</svg>
