<?xml version="1.0" standalone="no"?>
<!DOCTYPE svg PUBLIC "-//W3C//DTD SVG 20010904//EN"
 "http://www.w3.org/TR/2001/REC-SVG-20010904/DTD/svg10.dtd">
<svg version="1.0" xmlns="http://www.w3.org/2000/svg"
 width="56.000000pt" height="56.000000pt" viewBox="0 0 56.000000 56.000000"
 preserveAspectRatio="xMidYMid meet">
<metadata>
Created by potrace 1.16, written by Peter Selinger 2001-2019
</metadata>
<g transform="translate(0.000000,56.000000) scale(0.100000,-0.100000)"
fill="#000000" stroke="none">
<path d="M314 457 c-6 2 -16 -3 -23 -11 -9 -11 -10 -24 -1 -56 10 -37 9 -44
-7 -56 -10 -8 -34 -23 -54 -33 -19 -11 -41 -26 -48 -34 -6 -8 -48 -39 -91 -67
-44 -29 -80 -58 -80 -65 0 -7 7 -16 16 -19 9 -3 27 -6 40 -6 17 0 27 8 33 24
5 13 19 26 30 29 12 3 23 1 26 -3 3 -4 24 -6 48 -3 23 3 51 11 62 18 11 6 31
15 45 18 14 3 39 20 54 36 26 27 28 34 18 56 -6 14 -8 25 -3 25 4 0 29 -22 53
-48 25 -27 51 -58 57 -70 8 -15 21 -22 41 -22 17 0 30 5 30 11 0 6 -6 17 -12
24 -7 8 -33 38 -58 68 -25 30 -58 61 -75 70 -16 9 -40 18 -52 22 -13 3 -25 16
-28 28 -2 12 -6 31 -7 41 -2 11 -8 21 -14 23z m-1 -167 c10 0 17 -7 17 -19 0
-13 -18 -26 -59 -45 -32 -14 -62 -26 -65 -26 -4 0 -3 7 1 15 5 8 26 28 48 44
22 17 48 31 58 31z"/>
</g>
</svg>
