<?xml version="1.0" standalone="no"?>
<!DOCTYPE svg PUBLIC "-//W3C//DTD SVG 20010904//EN"
 "http://www.w3.org/TR/2001/REC-SVG-20010904/DTD/svg10.dtd">
<svg version="1.0" xmlns="http://www.w3.org/2000/svg"
 width="56.000000pt" height="56.000000pt" viewBox="0 0 56.000000 56.000000"
 preserveAspectRatio="xMidYMid meet">
<metadata>
Created by potrace 1.16, written by Peter Selinger 2001-2019
</metadata>
<g transform="translate(0.000000,56.000000) scale(0.100000,-0.100000)"
fill="#000000" stroke="none">
<path d="M331 560 c-11 0 -24 -7 -29 -16 -5 -10 -6 -32 -1 -53 5 -20 9 -53 9
-73 0 -20 4 -39 9 -42 4 -3 11 -33 15 -67 6 -50 4 -65 -9 -79 -9 -10 -23 -16
-30 -14 -7 3 -39 -8 -71 -24 -47 -23 -68 -28 -104 -24 -39 4 -43 3 -32 -11 10
-12 10 -17 1 -23 -6 -4 -16 0 -21 10 -5 9 -15 16 -23 16 -8 0 -22 -14 -30 -31
-13 -24 -14 -34 -4 -45 6 -8 20 -14 30 -14 11 0 29 6 42 13 12 6 30 18 39 26
16 12 24 12 60 -3 24 -10 51 -22 60 -27 10 -5 23 -9 31 -9 7 0 29 11 48 25 27
17 40 36 50 70 8 26 18 50 24 55 6 5 31 4 58 -2 36 -7 48 -15 53 -33 3 -14 -4
-41 -19 -71 -14 -27 -37 -60 -51 -73 -14 -14 -26 -28 -26 -33 0 -4 8 -8 19 -8
10 0 43 27 75 60 44 47 56 67 56 92 0 24 -10 41 -42 71 -35 33 -46 38 -81 35
-32 -2 -42 1 -48 17 -4 11 -8 35 -8 53 -1 18 -5 40 -10 50 -5 9 -14 29 -21 44
-9 18 -11 46 -6 83 6 50 4 55 -13 55z m-13 -360 c6 0 12 -6 12 -12 0 -7 -7
-22 -15 -32 -11 -14 -28 -20 -57 -20 -24 -1 -44 4 -46 9 -2 6 2 13 10 17 7 3
29 13 48 22 19 8 41 16 48 16z"/>
</g>
</svg>
