<?xml version="1.0" standalone="no"?>
<!DOCTYPE svg PUBLIC "-//W3C//DTD SVG 20010904//EN"
 "http://www.w3.org/TR/2001/REC-SVG-20010904/DTD/svg10.dtd">
<svg version="1.0" xmlns="http://www.w3.org/2000/svg"
 width="56.000000pt" height="56.000000pt" viewBox="0 0 56.000000 56.000000"
 preserveAspectRatio="xMidYMid meet">
<metadata>
Created by potrace 1.16, written by Peter Selinger 2001-2019
</metadata>
<g transform="translate(0.000000,56.000000) scale(0.100000,-0.100000)"
fill="#000000" stroke="none">
<path d="M327 560 c-29 0 -37 -6 -67 -57 -34 -56 -35 -59 -32 -152 1 -53 3
-107 5 -121 1 -17 -4 -26 -18 -28 -11 -3 -33 -15 -50 -28 -16 -13 -45 -36 -62
-51 -23 -18 -33 -35 -33 -54 0 -15 5 -31 10 -34 6 -4 27 5 46 20 20 15 53 29
76 32 22 2 51 11 65 20 13 9 27 29 30 45 3 16 10 31 15 34 6 4 21 -6 34 -22
13 -16 30 -50 39 -75 9 -25 27 -56 40 -69 20 -19 27 -21 40 -10 8 7 15 25 15
40 0 16 -10 47 -22 69 -12 23 -38 54 -57 69 -19 15 -53 36 -75 47 -41 20 -41
20 -40 95 0 41 5 91 11 111 6 21 22 52 37 71 14 19 26 38 26 41 0 4 -15 7 -33
7z m-87 -380 c6 0 10 -6 10 -14 0 -8 -10 -22 -22 -30 -12 -9 -32 -16 -43 -16
-17 1 -16 4 13 30 18 17 37 30 42 30z"/>
</g>
</svg>
