<?xml version="1.0" standalone="no"?>
<!DOCTYPE svg PUBLIC "-//W3C//DTD SVG 20010904//EN"
 "http://www.w3.org/TR/2001/REC-SVG-20010904/DTD/svg10.dtd">
<svg version="1.0" xmlns="http://www.w3.org/2000/svg"
 width="56.000000pt" height="56.000000pt" viewBox="0 0 56.000000 56.000000"
 preserveAspectRatio="xMidYMid meet">
<metadata>
Created by potrace 1.16, written by Peter Selinger 2001-2019
</metadata>
<g transform="translate(0.000000,56.000000) scale(0.100000,-0.100000)"
fill="#000000" stroke="none">
<path d="M378 559 c-13 0 -36 -15 -53 -36 -16 -20 -35 -46 -41 -59 -10 -18 -9
-32 4 -69 17 -47 17 -47 -8 -64 -14 -9 -59 -51 -102 -93 -45 -46 -85 -78 -96
-78 -11 0 -30 -12 -41 -26 -12 -15 -21 -37 -21 -50 0 -13 13 -38 29 -56 25
-28 32 -31 52 -21 18 8 27 24 37 64 6 29 18 58 25 65 6 6 44 19 82 29 39 10
78 22 88 27 12 6 17 21 17 48 0 22 4 40 10 40 5 0 18 -9 28 -20 10 -11 28 -42
40 -68 11 -26 23 -55 26 -64 3 -10 14 -18 24 -18 11 0 26 14 38 35 18 34 18
36 -1 71 -11 20 -37 51 -60 69 -22 18 -54 40 -71 48 -21 11 -33 26 -37 46 -4
17 -1 45 5 63 6 18 20 47 30 63 10 17 18 36 18 43 0 6 -10 12 -22 11z m-83
-269 c12 0 13 -4 5 -19 -5 -11 -19 -23 -31 -26 -11 -4 -23 -5 -26 -2 -2 3 5
15 16 26 12 12 28 21 36 21z m-203 -172 c6 -2 13 -9 15 -14 2 -5 -3 -19 -11
-29 -14 -19 -15 -19 -21 -2 -4 9 -4 24 -1 33 3 9 11 14 18 12z"/>
<path d="M275 20 c-13 0 -27 -4 -30 -10 -4 -6 8 -10 30 -10 22 0 34 4 30 10
-3 5 -17 10 -30 10z"/>
</g>
</svg>
