<?xml version="1.0" standalone="no"?>
<!DOCTYPE svg PUBLIC "-//W3C//DTD SVG 20010904//EN"
 "http://www.w3.org/TR/2001/REC-SVG-20010904/DTD/svg10.dtd">
<svg version="1.0" xmlns="http://www.w3.org/2000/svg"
 width="56.000000pt" height="56.000000pt" viewBox="0 0 56.000000 56.000000"
 preserveAspectRatio="xMidYMid meet">
<metadata>
Created by potrace 1.16, written by Peter Selinger 2001-2019
</metadata>
<g transform="translate(0.000000,56.000000) scale(0.100000,-0.100000)"
fill="#000000" stroke="none">
<path d="M234 500 c-8 0 -17 -7 -21 -16 -3 -9 6 -28 24 -47 17 -18 33 -40 36
-49 4 -10 11 -18 17 -18 5 0 10 -8 10 -19 0 -10 7 -24 15 -31 8 -7 15 -18 15
-25 0 -7 -18 -15 -39 -19 -22 -3 -53 -17 -69 -31 -17 -14 -37 -25 -46 -25 -10
0 -30 -7 -46 -15 -17 -9 -30 -20 -30 -26 0 -5 -12 -15 -27 -21 -16 -7 -32 -12
-38 -13 -5 0 -15 -4 -22 -8 -6 -4 -9 -16 -6 -26 3 -11 16 -21 31 -24 15 -3 30
-3 34 0 5 2 8 13 8 25 0 13 5 18 14 15 8 -3 17 -3 20 1 4 3 40 6 80 6 64 1 78
4 100 25 14 14 26 31 26 39 0 7 6 12 13 9 6 -2 20 0 30 5 9 5 17 18 17 30 0
16 4 19 23 14 12 -3 28 -6 35 -6 6 0 12 -7 12 -15 0 -9 7 -18 15 -21 8 -4 12
-10 9 -15 -3 -5 2 -19 10 -31 14 -20 14 -22 -7 -32 -15 -8 -23 -22 -25 -44 -2
-24 -8 -32 -23 -32 -10 0 -19 -7 -19 -15 0 -9 9 -15 25 -15 14 0 25 4 25 8 0
4 18 27 40 50 22 22 40 46 40 52 0 5 5 10 10 10 6 0 10 7 10 15 0 8 -4 15 -9
15 -6 0 -16 12 -23 26 -7 14 -26 33 -43 42 -16 10 -33 21 -36 26 -4 5 -18 6
-32 3 -17 -5 -29 -1 -42 13 -10 11 -15 23 -12 26 3 4 0 21 -7 39 -8 18 -22 42
-32 55 -11 13 -32 38 -48 56 -15 19 -34 34 -42 34z m67 -260 c3 0 9 -3 12 -6
3 -4 -5 -16 -19 -27 -14 -10 -41 -23 -60 -27 -19 -4 -34 -5 -34 -3 0 3 8 12
18 20 9 8 31 20 47 28 17 8 33 14 36 15z"/>
</g>
</svg>
