<?xml version="1.0" standalone="no"?>
<!DOCTYPE svg PUBLIC "-//W3C//DTD SVG 20010904//EN"
 "http://www.w3.org/TR/2001/REC-SVG-20010904/DTD/svg10.dtd">
<svg version="1.0" xmlns="http://www.w3.org/2000/svg"
 width="56.000000pt" height="56.000000pt" viewBox="0 0 56.000000 56.000000"
 preserveAspectRatio="xMidYMid meet">
<metadata>
Created by potrace 1.16, written by Peter Selinger 2001-2019
</metadata>
<g transform="translate(0.000000,56.000000) scale(0.100000,-0.100000)"
fill="#000000" stroke="none">
<path d="M330 540 c-15 0 -20 -10 -26 -46 -3 -25 -4 -65 0 -89 4 -35 2 -47
-12 -57 -9 -7 -33 -33 -52 -58 -19 -25 -53 -62 -76 -83 -23 -20 -58 -49 -78
-62 -20 -14 -41 -25 -46 -25 -5 0 -16 -13 -25 -30 -8 -16 -15 -38 -15 -50 0
-11 6 -20 14 -20 7 0 35 19 61 43 27 23 67 47 89 54 23 6 58 17 80 25 21 7 54
27 73 43 31 27 35 37 41 97 7 67 7 67 58 27 29 -22 62 -60 75 -84 18 -33 30
-45 46 -45 19 0 23 6 23 31 0 24 -13 44 -55 88 -37 39 -69 62 -98 71 -23 8
-48 18 -54 23 -7 5 -13 30 -13 56 0 26 5 52 11 58 6 6 8 16 5 22 -4 6 -16 11
-26 11z m-18 -238 c5 -5 2 -24 -7 -44 -8 -20 -28 -46 -45 -58 -16 -12 -37 -20
-45 -18 -11 2 -1 21 36 66 30 36 56 59 61 54z"/>
</g>
</svg>
