<?xml version="1.0" standalone="no"?>
<!DOCTYPE svg PUBLIC "-//W3C//DTD SVG 20010904//EN"
 "http://www.w3.org/TR/2001/REC-SVG-20010904/DTD/svg10.dtd">
<svg version="1.0" xmlns="http://www.w3.org/2000/svg"
 width="56.000000pt" height="56.000000pt" viewBox="0 0 56.000000 56.000000"
 preserveAspectRatio="xMidYMid meet">
<metadata>
Created by potrace 1.16, written by Peter Selinger 2001-2019
</metadata>
<g transform="translate(0.000000,56.000000) scale(0.100000,-0.100000)"
fill="#000000" stroke="none">
<path d="M335 560 c-14 0 -25 -5 -25 -11 0 -5 -17 -36 -38 -67 -21 -31 -48
-79 -61 -105 -12 -27 -19 -56 -16 -66 3 -10 20 -24 38 -32 27 -12 32 -20 35
-53 3 -29 -2 -44 -19 -62 -12 -13 -30 -24 -40 -24 -9 0 -19 -10 -23 -24 -4
-16 -19 -28 -51 -41 -26 -9 -49 -14 -52 -11 -3 3 -12 1 -19 -5 -10 -8 -10 -16
-2 -35 6 -13 17 -24 25 -24 8 0 30 11 50 25 27 18 41 22 54 15 10 -6 25 -17
34 -26 10 -11 24 -14 41 -10 14 4 27 13 29 21 3 8 8 23 12 33 3 9 7 64 9 122
1 58 -3 114 -8 125 -6 11 -20 28 -32 37 -21 17 -21 17 7 70 15 29 35 67 45 83
9 17 20 32 25 33 4 2 7 10 7 18 0 8 -10 14 -25 14z m-79 -440 c8 0 14 -4 14
-9 0 -5 -3 -16 -6 -25 -3 -9 -14 -16 -24 -16 -11 0 -21 4 -25 9 -3 5 2 17 11
25 8 9 22 16 30 16z"/>
<path d="M414 210 c-8 0 -14 -8 -14 -18 0 -11 14 -38 30 -60 18 -25 38 -42 50
-42 16 0 20 7 20 33 0 18 -7 42 -15 54 -9 12 -22 20 -29 17 -8 -3 -17 -1 -21
5 -3 6 -13 11 -21 11z"/>
</g>
</svg>
