<?xml version="1.0" standalone="no"?>
<!DOCTYPE svg PUBLIC "-//W3C//DTD SVG 20010904//EN"
 "http://www.w3.org/TR/2001/REC-SVG-20010904/DTD/svg10.dtd">
<svg version="1.0" xmlns="http://www.w3.org/2000/svg"
 width="56.000000pt" height="56.000000pt" viewBox="0 0 56.000000 56.000000"
 preserveAspectRatio="xMidYMid meet">
<metadata>
Created by potrace 1.16, written by Peter Selinger 2001-2019
</metadata>
<g transform="translate(0.000000,56.000000) scale(0.100000,-0.100000)"
fill="#000000" stroke="none">
<path d="M310 480 c-23 0 -31 -5 -36 -24 -3 -14 3 -40 15 -67 12 -23 21 -48
21 -54 0 -6 -15 -17 -34 -23 -19 -7 -54 -30 -78 -52 -36 -33 -50 -40 -85 -40
-23 0 -44 -4 -47 -9 -3 -4 -19 -11 -36 -14 -27 -6 -30 -10 -30 -47 0 -25 5
-43 14 -46 7 -3 43 15 79 40 56 40 72 46 115 46 27 0 66 7 86 15 19 8 42 27
49 43 7 15 12 35 10 45 -3 12 2 17 19 17 13 0 39 -10 58 -21 19 -12 43 -31 52
-42 12 -13 15 -25 9 -36 -5 -9 -53 -38 -105 -65 -53 -27 -96 -55 -96 -63 0 -7
8 -13 19 -13 10 0 30 9 44 20 14 11 32 20 41 20 9 0 24 4 34 9 9 5 31 14 47
21 17 6 42 22 58 35 16 14 27 34 27 49 0 17 -13 38 -37 61 -21 19 -62 44 -91
55 -29 11 -62 20 -72 20 -14 0 -20 7 -20 21 0 11 -5 30 -11 41 -8 14 -8 23 0
31 6 6 11 15 11 19 0 4 -13 8 -30 8z m-4 -200 c8 0 14 -4 14 -8 0 -4 -5 -13
-12 -20 -7 -7 -23 -12 -37 -12 -26 1 -26 1 -2 20 13 11 29 20 37 20z m-244
-106 c6 -4 6 -10 -1 -17 -6 -6 -13 -8 -17 -4 -3 3 -3 11 1 16 3 6 11 8 17 5z"/>
</g>
</svg>
