<?xml version="1.0" standalone="no"?>
<!DOCTYPE svg PUBLIC "-//W3C//DTD SVG 20010904//EN"
 "http://www.w3.org/TR/2001/REC-SVG-20010904/DTD/svg10.dtd">
<svg version="1.0" xmlns="http://www.w3.org/2000/svg"
 width="56.000000pt" height="56.000000pt" viewBox="0 0 56.000000 56.000000"
 preserveAspectRatio="xMidYMid meet">
<metadata>
Created by potrace 1.16, written by Peter Selinger 2001-2019
</metadata>
<g transform="translate(0.000000,56.000000) scale(0.100000,-0.100000)"
fill="#000000" stroke="none">
<path d="M326 560 c-22 0 -25 -5 -30 -42 -2 -24 -9 -73 -13 -111 -5 -37 -7
-70 -4 -72 2 -3 14 -5 26 -5 13 0 27 -6 32 -12 6 -7 15 -28 22 -47 8 -25 8
-37 0 -47 -6 -8 -26 -14 -44 -14 -23 0 -34 -5 -37 -18 -4 -13 -26 -22 -88 -36
-46 -10 -90 -21 -99 -26 -9 -5 -29 -11 -44 -15 -20 -4 -27 -11 -25 -23 3 -13
13 -17 43 -15 22 1 56 2 77 3 20 0 64 -6 98 -14 34 -8 77 -12 97 -9 28 5 38
13 49 39 8 19 18 34 24 34 5 0 21 -5 35 -12 17 -8 25 -19 25 -38 0 -14 -5 -31
-11 -37 -7 -7 -9 -19 -6 -27 4 -9 17 -16 30 -16 14 0 30 7 37 15 8 9 10 29 7
50 -3 19 -15 49 -27 65 -12 17 -35 37 -51 45 -16 9 -29 20 -29 25 0 5 7 7 15
4 8 -4 22 -1 30 6 7 6 11 18 9 25 -4 10 -12 11 -29 5 -20 -7 -25 -5 -33 18 -6
15 -20 54 -33 87 -12 33 -26 64 -31 69 -4 6 -8 20 -8 33 0 12 8 26 18 32 14 8
15 12 5 22 -7 7 -13 23 -13 36 0 18 -6 23 -24 23z m-59 -430 c14 0 23 -6 23
-15 0 -11 -11 -15 -42 -15 -40 1 -42 2 -24 15 11 8 30 15 43 15z"/>
<path d="M408 440 c-5 0 -8 -4 -8 -10 0 -5 6 -13 13 -17 8 -4 17 -16 20 -26 4
-10 14 -17 24 -15 9 2 18 8 20 15 3 7 -10 22 -29 33 -18 11 -36 20 -40 20z"/>
</g>
</svg>
