<?xml version="1.0" standalone="no"?>
<!DOCTYPE svg PUBLIC "-//W3C//DTD SVG 20010904//EN"
 "http://www.w3.org/TR/2001/REC-SVG-20010904/DTD/svg10.dtd">
<svg version="1.0" xmlns="http://www.w3.org/2000/svg"
 width="56.000000pt" height="56.000000pt" viewBox="0 0 56.000000 56.000000"
 preserveAspectRatio="xMidYMid meet">
<metadata>
Created by potrace 1.16, written by Peter Selinger 2001-2019
</metadata>
<g transform="translate(0.000000,56.000000) scale(0.100000,-0.100000)"
fill="#000000" stroke="none">
<path d="M362 498 c-12 2 -24 -3 -27 -10 -2 -7 -6 -35 -7 -62 -2 -37 -8 -52
-23 -60 -11 -6 -33 -22 -50 -34 -16 -13 -55 -56 -86 -95 -43 -57 -61 -73 -85
-75 -16 -1 -39 -8 -51 -14 -12 -6 -24 -17 -27 -25 -3 -8 -1 -23 4 -34 6 -10
21 -19 34 -19 13 0 42 13 64 30 24 17 54 30 71 30 16 0 49 9 74 19 25 11 48
24 51 30 4 6 31 11 59 11 29 1 72 5 96 9 29 6 54 19 72 39 16 17 29 38 29 46
0 9 -4 16 -8 16 -5 0 -15 12 -22 26 -8 14 -27 32 -43 40 -15 8 -46 16 -68 17
-40 1 -40 1 -37 57 3 51 1 55 -20 58z m38 -158 c12 0 34 -7 49 -15 16 -8 31
-20 34 -28 3 -8 2 -18 -1 -24 -4 -6 -26 -20 -49 -32 -23 -11 -54 -21 -69 -21
-23 0 -25 3 -19 27 3 15 13 42 20 60 10 22 21 33 35 33z m-87 -29 c5 -5 -2
-25 -16 -48 -14 -22 -39 -52 -57 -66 -17 -15 -36 -25 -41 -21 -5 3 -6 11 -2
17 4 7 22 32 41 57 18 25 41 51 50 58 9 7 20 8 25 3z"/>
<path d="M468 100 c-24 0 -54 -7 -66 -16 -12 -8 -20 -20 -17 -25 4 -5 37 -9
75 -9 37 0 75 3 84 6 13 5 12 9 -8 25 -15 12 -40 19 -68 19z"/>
<path d="M280 80 c-10 0 -22 -5 -25 -10 -3 -6 1 -13 9 -16 9 -3 23 -3 32 0 8
3 12 10 9 16 -3 5 -15 10 -25 10z"/>
</g>
</svg>
