<?xml version="1.0" standalone="no"?>
<!DOCTYPE svg PUBLIC "-//W3C//DTD SVG 20010904//EN"
 "http://www.w3.org/TR/2001/REC-SVG-20010904/DTD/svg10.dtd">
<svg version="1.0" xmlns="http://www.w3.org/2000/svg"
 width="56.000000pt" height="56.000000pt" viewBox="0 0 56.000000 56.000000"
 preserveAspectRatio="xMidYMid meet">
<metadata>
Created by potrace 1.16, written by Peter Selinger 2001-2019
</metadata>
<g transform="translate(0.000000,56.000000) scale(0.100000,-0.100000)"
fill="#000000" stroke="none">
<path d="M348 498 c-19 2 -30 -3 -39 -19 -7 -14 -9 -42 -5 -75 6 -53 6 -53
-71 -129 -43 -42 -91 -84 -108 -93 -16 -8 -46 -18 -65 -21 -25 -5 -39 -14 -48
-34 -7 -15 -10 -36 -7 -47 4 -12 15 -20 27 -20 12 0 43 14 70 31 27 17 56 41
66 53 9 12 25 25 35 29 9 3 17 12 17 20 0 8 14 13 38 14 20 1 57 3 82 5 44 3
45 4 48 41 2 20 9 37 15 37 7 0 34 -27 61 -60 28 -33 52 -60 56 -60 3 0 14 9
23 21 10 11 17 24 15 27 -2 4 -14 24 -27 45 -17 28 -41 46 -87 68 -54 26 -64
35 -66 57 -1 15 -2 45 -3 67 0 36 -3 40 -27 43z m-26 -208 c10 0 18 -7 18 -15
0 -8 -9 -19 -19 -25 -11 -5 -24 -10 -30 -10 -6 0 -11 6 -11 13 0 7 5 18 12 25
7 7 20 12 30 12z"/>
<path d="M476 113 c-8 3 -17 3 -20 -1 -4 -3 -28 -9 -54 -12 -39 -4 -47 -9 -47
-25 0 -18 8 -20 69 -23 38 -2 73 1 78 6 6 6 6 17 -1 30 -6 11 -17 22 -25 25z"/>
</g>
</svg>
