<?xml version="1.0" standalone="no"?>
<!DOCTYPE svg PUBLIC "-//W3C//DTD SVG 20010904//EN"
 "http://www.w3.org/TR/2001/REC-SVG-20010904/DTD/svg10.dtd">
<svg version="1.0" xmlns="http://www.w3.org/2000/svg"
 width="56.000000pt" height="56.000000pt" viewBox="0 0 56.000000 56.000000"
 preserveAspectRatio="xMidYMid meet">
<metadata>
Created by potrace 1.16, written by Peter Selinger 2001-2019
</metadata>
<g transform="translate(0.000000,56.000000) scale(0.100000,-0.100000)"
fill="#000000" stroke="none">
<path d="M291 540 c-22 0 -31 -5 -31 -16 0 -9 17 -32 37 -50 20 -19 47 -34 60
-34 17 0 23 6 23 21 0 11 -13 34 -29 50 -20 19 -40 29 -60 29z"/>
<path d="M274 440 c-6 0 -19 -9 -29 -20 -10 -11 -23 -20 -30 -20 -7 0 -19 -8
-28 -18 -10 -10 -17 -28 -17 -39 0 -11 18 -37 40 -57 22 -20 40 -42 40 -48 0
-7 -32 -28 -70 -46 -39 -17 -75 -32 -81 -32 -6 0 -31 -14 -55 -32 -25 -18 -43
-38 -42 -46 2 -8 11 -20 20 -26 13 -8 22 -6 40 11 13 12 48 33 78 47 38 18 72
26 110 26 30 0 65 3 77 6 12 3 27 19 33 35 7 17 23 32 37 35 18 5 32 -1 54
-22 16 -15 29 -36 29 -45 0 -10 -27 -41 -59 -70 -33 -29 -58 -56 -55 -61 3 -4
15 -8 28 -8 14 0 36 15 57 39 19 21 52 46 72 56 34 16 37 21 37 59 -1 35 -6
45 -37 68 -30 24 -46 28 -98 28 -33 0 -66 -5 -72 -11 -9 -9 -19 -6 -42 10 -17
12 -37 32 -46 44 -8 12 -15 29 -15 39 0 10 16 26 40 38 22 11 40 27 40 34 0 8
-10 16 -22 20 -13 3 -28 6 -34 6z"/>
</g>
</svg>
