<?xml version="1.0" standalone="no"?>
<!DOCTYPE svg PUBLIC "-//W3C//DTD SVG 20010904//EN"
 "http://www.w3.org/TR/2001/REC-SVG-20010904/DTD/svg10.dtd">
<svg version="1.0" xmlns="http://www.w3.org/2000/svg"
 width="56.000000pt" height="56.000000pt" viewBox="0 0 56.000000 56.000000"
 preserveAspectRatio="xMidYMid meet">
<metadata>
Created by potrace 1.16, written by Peter Selinger 2001-2019
</metadata>
<g transform="translate(0.000000,56.000000) scale(0.100000,-0.100000)"
fill="#000000" stroke="none">
<path d="M388 410 c-13 0 -18 -9 -19 -32 -1 -18 0 -44 1 -58 1 -14 7 -31 12
-38 8 -9 7 -21 -3 -40 -7 -15 -22 -35 -34 -44 -13 -11 -37 -18 -69 -18 -40 0
-46 2 -37 14 6 7 25 16 42 20 17 3 28 10 24 16 -3 5 -17 10 -30 10 -13 0 -26
-4 -29 -9 -3 -4 -27 -11 -53 -15 -27 -3 -63 -9 -81 -12 -26 -5 -37 -2 -54 15
-19 21 -21 21 -39 5 -10 -9 -19 -23 -19 -30 0 -7 9 -18 21 -24 13 -7 48 -9 99
-4 49 4 85 3 92 -3 7 -6 32 -13 56 -17 30 -4 53 -2 76 9 19 9 42 32 54 56 12
23 22 49 22 58 0 9 -5 22 -11 28 -6 6 -10 33 -8 62 3 43 1 51 -13 51z"/>
<path d="M506 250 c-1 0 -1 -13 2 -30 3 -21 0 -31 -12 -35 -9 -3 -24 -8 -33
-11 -17 -5 -16 -7 2 -20 12 -9 30 -12 44 -9 13 3 30 12 37 20 8 7 14 19 14 26
0 6 -11 22 -26 35 -14 13 -26 24 -28 24z"/>
</g>
</svg>
