<?xml version="1.0" standalone="no"?>
<!DOCTYPE svg PUBLIC "-//W3C//DTD SVG 20010904//EN"
 "http://www.w3.org/TR/2001/REC-SVG-20010904/DTD/svg10.dtd">
<svg version="1.0" xmlns="http://www.w3.org/2000/svg"
 width="56.000000pt" height="56.000000pt" viewBox="0 0 56.000000 56.000000"
 preserveAspectRatio="xMidYMid meet">
<metadata>
Created by potrace 1.16, written by Peter Selinger 2001-2019
</metadata>
<g transform="translate(0.000000,56.000000) scale(0.100000,-0.100000)"
fill="#000000" stroke="none">
<path d="M358 472 c-7 3 -19 3 -26 1 -7 -3 -19 -21 -27 -40 -8 -20 -15 -44
-15 -54 0 -11 -6 -19 -13 -19 -8 0 -32 -17 -54 -37 -22 -21 -70 -66 -107 -100
-37 -35 -75 -63 -85 -63 -11 0 -22 -7 -25 -16 -3 -9 -6 -27 -6 -40 0 -17 6
-24 20 -24 11 0 40 19 64 43 25 24 66 50 93 59 27 10 60 15 76 11 18 -3 41 1
63 13 19 10 37 27 40 37 3 10 3 29 0 43 -4 16 -2 26 8 30 8 3 26 -2 39 -11 14
-9 38 -35 53 -58 15 -23 39 -52 53 -64 13 -13 30 -23 38 -23 8 0 13 12 13 30
0 17 -4 30 -9 30 -5 0 -19 20 -30 44 -13 26 -38 54 -61 70 -24 16 -54 26 -75
26 -28 0 -36 4 -41 24 -4 16 0 34 10 48 9 12 16 25 16 29 0 4 -6 9 -12 11z
m-60 -162 c6 0 12 -9 12 -20 0 -12 -12 -26 -31 -35 -17 -9 -42 -15 -57 -13
-26 3 -26 4 18 35 25 18 51 32 58 33z"/>
</g>
</svg>
