<?xml version="1.0" standalone="no"?>
<!DOCTYPE svg PUBLIC "-//W3C//DTD SVG 20010904//EN"
 "http://www.w3.org/TR/2001/REC-SVG-20010904/DTD/svg10.dtd">
<svg version="1.0" xmlns="http://www.w3.org/2000/svg"
 width="56.000000pt" height="56.000000pt" viewBox="0 0 56.000000 56.000000"
 preserveAspectRatio="xMidYMid meet">
<metadata>
Created by potrace 1.16, written by Peter Selinger 2001-2019
</metadata>
<g transform="translate(0.000000,56.000000) scale(0.100000,-0.100000)"
fill="#000000" stroke="none">
<path d="M358 518 c-9 2 -19 -2 -23 -8 -3 -6 -9 -35 -12 -64 -5 -45 -11 -58
-34 -75 -16 -12 -29 -29 -29 -38 0 -15 2 -15 18 0 10 10 24 17 30 17 7 0 12
-3 12 -8 0 -4 -8 -19 -17 -32 -9 -14 -24 -31 -33 -38 -8 -7 -23 -17 -32 -22
-16 -9 -17 -8 -8 14 5 15 6 28 0 31 -5 3 -17 -8 -26 -25 -10 -16 -45 -52 -79
-78 -33 -27 -75 -59 -92 -71 -24 -16 -33 -30 -33 -51 0 -15 6 -30 14 -33 9 -4
47 23 98 69 46 41 102 84 125 94 23 10 59 37 81 60 22 24 43 55 45 70 3 15 3
37 0 49 -4 18 -2 20 13 15 11 -4 32 -16 48 -27 15 -11 44 -44 63 -74 24 -38
39 -53 50 -49 8 3 17 6 19 6 2 0 4 13 4 29 0 21 -12 39 -43 69 -24 22 -60 47
-81 57 -20 10 -46 15 -57 12 -19 -5 -20 -2 -16 26 3 18 7 41 9 52 2 12 -3 21
-14 23z"/>
<path d="M285 100 c-7 0 -14 -3 -17 -6 -3 -3 -3 -17 1 -32 5 -17 15 -28 29
-30 17 -3 22 2 22 20 0 13 -5 29 -12 36 -7 7 -17 12 -23 12z"/>
</g>
</svg>
