<?xml version="1.0" standalone="no"?>
<!DOCTYPE svg PUBLIC "-//W3C//DTD SVG 20010904//EN"
 "http://www.w3.org/TR/2001/REC-SVG-20010904/DTD/svg10.dtd">
<svg version="1.0" xmlns="http://www.w3.org/2000/svg"
 width="56.000000pt" height="56.000000pt" viewBox="0 0 56.000000 56.000000"
 preserveAspectRatio="xMidYMid meet">
<metadata>
Created by potrace 1.16, written by Peter Selinger 2001-2019
</metadata>
<g transform="translate(0.000000,56.000000) scale(0.100000,-0.100000)"
fill="#000000" stroke="none">
<path d="M325 530 c-13 0 -30 -6 -37 -14 -8 -7 -25 -34 -38 -59 -22 -41 -23
-50 -12 -80 7 -18 12 -45 12 -60 0 -19 -8 -31 -27 -41 -16 -8 -49 -35 -75 -59
-37 -34 -46 -49 -41 -66 5 -21 3 -22 -43 -19 -46 3 -48 2 -57 -30 -9 -28 -7
-36 11 -52 12 -11 30 -20 40 -20 11 0 24 6 29 12 6 7 13 29 17 48 3 19 15 41
26 47 16 11 21 10 29 -5 9 -15 12 -15 21 -2 7 11 5 16 -5 18 -8 2 -15 10 -15
17 0 7 18 28 40 45 27 21 40 27 40 17 0 -8 -9 -26 -20 -40 -11 -14 -20 -28
-20 -31 0 -3 12 -6 28 -6 15 0 40 11 56 23 22 18 29 33 31 63 1 33 4 39 22 37
12 -1 47 -15 80 -30 37 -18 63 -38 71 -56 7 -15 19 -27 27 -27 7 0 20 3 29 6
9 3 16 15 16 26 0 10 -14 37 -32 59 -21 26 -45 43 -70 49 -21 6 -64 14 -95 18
-58 7 -58 7 -61 56 -3 42 1 56 28 92 17 24 28 48 25 54 -3 5 -17 10 -30 10z"/>
</g>
</svg>
