<?xml version="1.0" standalone="no"?>
<!DOCTYPE svg PUBLIC "-//W3C//DTD SVG 20010904//EN"
 "http://www.w3.org/TR/2001/REC-SVG-20010904/DTD/svg10.dtd">
<svg version="1.0" xmlns="http://www.w3.org/2000/svg"
 width="56.000000pt" height="56.000000pt" viewBox="0 0 56.000000 56.000000"
 preserveAspectRatio="xMidYMid meet">
<metadata>
Created by potrace 1.16, written by Peter Selinger 2001-2019
</metadata>
<g transform="translate(0.000000,56.000000) scale(0.100000,-0.100000)"
fill="#000000" stroke="none">
<path d="M388 559 c-24 0 -39 -8 -55 -29 -13 -15 -23 -32 -23 -38 0 -5 -9 -17
-21 -28 -19 -17 -21 -27 -17 -144 3 -125 3 -125 -27 -135 -16 -5 -61 -34 -100
-62 -38 -29 -77 -52 -86 -53 -9 0 -27 -8 -40 -19 -20 -16 -21 -21 -10 -35 7
-9 22 -16 33 -16 10 0 40 11 66 25 28 15 65 25 92 26 25 1 56 4 70 8 14 4 34
21 46 38 17 25 20 44 18 90 -2 32 -6 99 -10 149 -7 91 -7 91 30 131 20 22 36
45 36 51 0 5 7 12 15 16 8 3 15 10 15 16 0 5 -15 10 -32 9z m-120 -412 c2 -10
-2 -24 -8 -32 -7 -8 -24 -15 -39 -15 -26 1 -26 1 9 32 30 27 35 29 38 15z"/>
<path d="M447 244 c-18 5 -29 2 -33 -7 -2 -7 14 -34 38 -59 24 -25 49 -53 56
-62 7 -9 22 -16 32 -16 13 0 20 7 20 19 0 11 -10 37 -21 59 -12 22 -31 45 -43
50 -11 6 -33 13 -49 16z"/>
</g>
</svg>
