<?xml version="1.0" standalone="no"?>
<!DOCTYPE svg PUBLIC "-//W3C//DTD SVG 20010904//EN"
 "http://www.w3.org/TR/2001/REC-SVG-20010904/DTD/svg10.dtd">
<svg version="1.0" xmlns="http://www.w3.org/2000/svg"
 width="56.000000pt" height="56.000000pt" viewBox="0 0 56.000000 56.000000"
 preserveAspectRatio="xMidYMid meet">
<metadata>
Created by potrace 1.16, written by Peter Selinger 2001-2019
</metadata>
<g transform="translate(0.000000,56.000000) scale(0.100000,-0.100000)"
fill="#000000" stroke="none">
<path d="M170 560 c-11 0 -20 -4 -20 -10 0 -5 9 -10 20 -10 11 0 20 5 20 10 0
6 -9 10 -20 10z"/>
<path d="M395 560 c-16 0 -25 -6 -25 -16 0 -9 -8 -28 -18 -42 -10 -15 -24 -40
-31 -57 -8 -16 -18 -39 -23 -51 -6 -12 -11 -50 -11 -86 -2 -62 -3 -65 -48
-109 -25 -24 -56 -59 -68 -76 -12 -18 -33 -36 -47 -39 -13 -4 -29 -15 -35 -26
-5 -10 -7 -28 -4 -38 4 -12 15 -20 29 -20 14 0 28 11 40 31 10 16 32 36 49 44
18 7 46 19 63 26 17 7 40 27 52 46 12 18 22 40 22 48 0 8 6 15 13 15 7 0 25
-12 39 -27 17 -18 29 -45 33 -75 5 -30 12 -48 21 -48 7 0 18 9 24 20 8 15 8
31 -1 58 -7 20 -28 52 -47 69 -25 24 -45 33 -69 33 -32 0 -33 1 -33 40 0 21 5
52 11 67 6 15 16 39 21 53 6 14 15 33 20 44 5 10 18 34 29 53 10 18 19 40 19
48 0 9 -10 15 -25 15z m-109 -370 c8 0 14 -4 14 -9 0 -5 -16 -21 -36 -36 -19
-15 -37 -25 -40 -22 -3 2 7 19 21 36 15 17 33 31 41 31z"/>
</g>
</svg>
