<?xml version="1.0" standalone="no"?>
<!DOCTYPE svg PUBLIC "-//W3C//DTD SVG 20010904//EN"
 "http://www.w3.org/TR/2001/REC-SVG-20010904/DTD/svg10.dtd">
<svg version="1.0" xmlns="http://www.w3.org/2000/svg"
 width="56.000000pt" height="56.000000pt" viewBox="0 0 56.000000 56.000000"
 preserveAspectRatio="xMidYMid meet">
<metadata>
Created by potrace 1.16, written by Peter Selinger 2001-2019
</metadata>
<g transform="translate(0.000000,56.000000) scale(0.100000,-0.100000)"
fill="#000000" stroke="none">
<path d="M295 520 c-29 0 -37 -5 -45 -26 -6 -14 -10 -44 -10 -66 0 -23 5 -56
12 -74 11 -31 9 -35 -23 -72 -19 -22 -54 -62 -77 -90 -24 -28 -68 -65 -98 -83
-33 -20 -54 -40 -54 -51 0 -12 8 -18 22 -18 12 0 65 14 118 31 52 17 111 37
130 44 19 7 45 27 58 45 12 18 22 42 22 54 0 12 4 27 9 35 8 12 14 12 38 -4
15 -10 36 -29 46 -41 10 -13 31 -33 47 -44 24 -17 34 -19 50 -10 12 6 20 21
20 35 0 14 -3 25 -8 25 -4 0 -14 11 -22 24 -8 14 -32 38 -53 55 -27 21 -54 32
-92 36 -30 4 -58 12 -63 19 -5 6 -14 25 -20 43 -9 26 -7 38 9 69 10 21 19 44
19 51 0 8 -13 13 -35 13z m-14 -280 c4 0 10 -4 14 -10 3 -5 0 -18 -7 -29 -7
-11 -36 -30 -65 -42 -29 -11 -57 -19 -64 -17 -6 2 17 25 51 51 35 26 67 47 71
47z"/>
</g>
</svg>
