<?xml version="1.0" standalone="no"?>
<!DOCTYPE svg PUBLIC "-//W3C//DTD SVG 20010904//EN"
 "http://www.w3.org/TR/2001/REC-SVG-20010904/DTD/svg10.dtd">
<svg version="1.0" xmlns="http://www.w3.org/2000/svg"
 width="56.000000pt" height="56.000000pt" viewBox="0 0 56.000000 56.000000"
 preserveAspectRatio="xMidYMid meet">
<metadata>
Created by potrace 1.16, written by Peter Selinger 2001-2019
</metadata>
<g transform="translate(0.000000,56.000000) scale(0.100000,-0.100000)"
fill="#000000" stroke="none">
<path d="M300 518 c-20 3 -22 1 -15 -25 3 -15 21 -56 38 -90 30 -61 30 -63 12
-83 -10 -11 -24 -20 -32 -20 -7 0 -16 -6 -19 -14 -3 -8 -24 -17 -47 -20 -23
-4 -56 -15 -72 -26 -17 -11 -40 -20 -52 -20 -13 0 -37 -18 -62 -46 -23 -26
-41 -57 -41 -69 0 -13 7 -26 17 -29 10 -4 25 2 39 15 13 12 26 29 29 38 3 9
18 24 34 34 16 9 49 17 73 17 24 0 53 7 64 15 10 8 26 15 36 15 9 0 27 13 40
28 13 15 29 32 37 36 9 6 29 -7 62 -40 41 -40 52 -47 67 -38 9 6 18 24 20 40
2 23 -5 39 -34 68 -30 31 -41 36 -64 31 -24 -5 -28 -3 -33 22 -3 15 -10 39
-16 53 -6 14 -21 43 -34 65 -15 25 -32 41 -47 43z m-24 -258 c8 0 14 -4 14
-10 0 -5 -9 -14 -21 -20 -11 -7 -23 -9 -26 -6 -3 3 0 12 7 21 7 8 19 15 26 15z"/>
</g>
</svg>
