<?xml version="1.0" standalone="no"?>
<!DOCTYPE svg PUBLIC "-//W3C//DTD SVG 20010904//EN"
 "http://www.w3.org/TR/2001/REC-SVG-20010904/DTD/svg10.dtd">
<svg version="1.0" xmlns="http://www.w3.org/2000/svg"
 width="56.000000pt" height="56.000000pt" viewBox="0 0 56.000000 56.000000"
 preserveAspectRatio="xMidYMid meet">
<metadata>
Created by potrace 1.16, written by Peter Selinger 2001-2019
</metadata>
<g transform="translate(0.000000,56.000000) scale(0.100000,-0.100000)"
fill="#000000" stroke="none">
<path d="M270 560 c-5 0 -14 -17 -21 -39 -9 -32 -9 -44 6 -75 11 -24 15 -45
10 -64 -4 -15 -9 -45 -12 -68 -4 -31 1 -51 20 -84 24 -43 24 -43 -40 -105 -35
-35 -74 -70 -88 -79 -14 -9 -25 -23 -25 -31 0 -10 10 -15 29 -15 16 0 34 7 41
15 7 8 24 15 38 15 14 0 41 -5 59 -12 30 -11 36 -10 56 10 18 19 22 33 20 81
-1 59 -1 59 25 45 15 -8 32 -14 39 -14 6 0 14 4 17 9 4 5 4 15 1 23 -3 8 -19
22 -34 31 -16 9 -42 17 -59 17 -26 0 -31 6 -47 47 -17 44 -17 49 -2 76 10 16
17 41 17 55 0 15 -9 38 -20 52 -12 16 -20 41 -20 68 0 23 -4 42 -10 42z m42
-403 c4 -7 8 -26 8 -44 0 -17 -7 -38 -15 -47 -11 -11 -26 -13 -48 -9 -18 3
-34 7 -36 9 -1 1 12 22 30 46 19 24 38 46 44 50 5 4 13 2 17 -5z"/>
<path d="M109 240 c-3 0 -9 -3 -12 -7 -4 -3 -7 -19 -7 -35 0 -16 6 -31 15 -34
8 -4 21 -1 29 5 8 7 12 21 8 34 -3 12 -10 25 -16 29 -6 4 -14 8 -17 8z"/>
</g>
</svg>
