<?xml version="1.0" standalone="no"?>
<!DOCTYPE svg PUBLIC "-//W3C//DTD SVG 20010904//EN"
 "http://www.w3.org/TR/2001/REC-SVG-20010904/DTD/svg10.dtd">
<svg version="1.0" xmlns="http://www.w3.org/2000/svg"
 width="56.000000pt" height="56.000000pt" viewBox="0 0 56.000000 56.000000"
 preserveAspectRatio="xMidYMid meet">
<metadata>
Created by potrace 1.16, written by Peter Selinger 2001-2019
</metadata>
<g transform="translate(0.000000,56.000000) scale(0.100000,-0.100000)"
fill="#000000" stroke="none">
<path d="M255 480 c-14 0 -29 -8 -35 -19 -7 -14 -7 -28 1 -48 7 -15 22 -52 35
-81 13 -29 24 -54 24 -56 0 -2 -24 -15 -52 -28 -29 -14 -71 -31 -93 -37 -23
-7 -62 -28 -88 -47 -26 -19 -45 -39 -42 -44 4 -6 17 -10 30 -10 13 0 27 5 30
10 3 6 46 10 94 10 60 0 98 5 120 16 21 11 34 25 38 45 3 16 10 33 17 38 6 5
23 7 39 4 17 -4 45 -26 75 -62 26 -31 53 -62 59 -69 7 -7 17 -10 23 -7 5 3 10
18 10 32 0 14 -15 45 -32 68 -18 23 -51 50 -73 60 -22 9 -56 20 -75 22 -30 4
-38 12 -57 52 -15 30 -23 65 -23 99 0 49 -2 52 -25 52z m3 -261 c6 0 12 -3 12
-8 0 -5 -15 -16 -34 -25 -19 -9 -49 -19 -68 -22 -33 -6 -33 -6 2 19 20 13 44
27 55 30 11 2 26 5 33 6z"/>
</g>
</svg>
