<?xml version="1.0" standalone="no"?>
<!DOCTYPE svg PUBLIC "-//W3C//DTD SVG 20010904//EN"
 "http://www.w3.org/TR/2001/REC-SVG-20010904/DTD/svg10.dtd">
<svg version="1.0" xmlns="http://www.w3.org/2000/svg"
 width="56.000000pt" height="56.000000pt" viewBox="0 0 56.000000 56.000000"
 preserveAspectRatio="xMidYMid meet">
<metadata>
Created by potrace 1.16, written by Peter Selinger 2001-2019
</metadata>
<g transform="translate(0.000000,56.000000) scale(0.100000,-0.100000)"
fill="#000000" stroke="none">
<path d="M263 425 c-20 4 -34 2 -39 -6 -4 -7 1 -18 12 -26 16 -12 17 -16 6
-34 -11 -17 -11 -24 0 -37 7 -9 17 -20 22 -24 6 -4 4 -13 -3 -22 -8 -9 -20
-16 -29 -16 -8 0 -56 -14 -106 -32 -50 -17 -99 -38 -108 -46 -10 -8 -18 -23
-18 -34 0 -10 7 -18 17 -18 10 0 56 19 103 42 71 35 97 42 154 45 37 1 74 7
82 14 8 6 14 22 14 36 0 23 2 24 68 21 59 -3 67 -5 67 -22 0 -13 -23 -36 -65
-66 -36 -25 -66 -54 -68 -62 -2 -9 1 -19 7 -22 6 -4 32 9 58 29 26 19 65 50
86 67 28 25 37 40 37 64 0 27 -6 35 -36 49 -24 11 -50 15 -77 12 -23 -3 -62
-10 -87 -15 -28 -7 -51 -7 -62 -1 -10 5 -18 16 -18 23 0 8 10 20 23 29 19 13
20 17 7 30 -8 8 -29 18 -47 22z"/>
</g>
</svg>
