<?xml version="1.0" standalone="no"?>
<!DOCTYPE svg PUBLIC "-//W3C//DTD SVG 20010904//EN"
 "http://www.w3.org/TR/2001/REC-SVG-20010904/DTD/svg10.dtd">
<svg version="1.0" xmlns="http://www.w3.org/2000/svg"
 width="128.000000pt" height="128.000000pt" viewBox="0 0 128.000000 128.000000"
 preserveAspectRatio="xMidYMid meet">
<metadata>
Created by potrace 1.16, written by Peter Selinger 2001-2019
</metadata>
<g transform="translate(0.000000,128.000000) scale(0.100000,-0.100000)"
fill="#000000" stroke="none">
<path d="M910 1263 c-5 12 -9 17 -9 12 -1 -6 -38 -30 -83 -54 -46 -23 -90 -46
-98 -51 -8 -4 -27 -13 -42 -19 -16 -6 -28 -17 -28 -26 0 -10 10 -15 30 -15 30
0 30 -1 24 -42 -4 -24 -15 -70 -25 -103 -10 -33 -26 -103 -36 -155 -9 -52 -18
-130 -19 -173 -1 -43 -5 -81 -8 -84 -2 -3 -1 -13 4 -22 5 -9 11 -24 14 -33 4
-14 10 -15 43 -6 21 7 50 23 65 36 24 22 28 23 34 8 3 -9 1 -30 -6 -47 -7 -16
-25 -43 -39 -58 -15 -16 -40 -46 -56 -67 -16 -22 -42 -52 -57 -68 -19 -19 -28
-40 -28 -61 0 -18 7 -49 16 -70 10 -25 19 -34 25 -28 6 6 25 32 42 59 18 27
58 67 92 91 33 23 68 42 77 42 9 1 34 -9 55 -21 21 -12 44 -29 51 -38 7 -8 21
-31 32 -51 18 -34 18 -37 2 -51 -9 -8 -60 -23 -112 -32 -52 -10 -109 -22 -126
-27 -17 -5 -38 -9 -47 -9 -10 0 -22 -12 -27 -26 -6 -14 -7 -36 -4 -50 4 -17
13 -24 30 -24 17 0 24 6 24 20 0 11 2 20 4 20 2 0 28 5 57 11 30 5 107 10 171
9 83 0 119 3 124 12 5 7 10 29 11 50 3 22 -6 66 -21 109 -14 39 -32 79 -42 90
-9 10 -37 29 -63 41 -33 16 -59 22 -94 19 -27 -1 -54 2 -62 9 -11 9 -12 17 -3
38 7 15 21 37 32 50 11 12 30 22 43 22 13 0 35 -11 49 -25 14 -14 29 -25 34
-25 5 0 17 -11 26 -25 9 -14 24 -25 34 -25 10 0 21 8 23 18 3 9 6 75 7 147 2
72 3 139 3 150 0 11 -5 72 -11 135 -6 63 -13 122 -17 130 -3 8 -22 27 -42 42
-35 27 -35 27 -72 7 -20 -11 -54 -31 -76 -44 -22 -14 -48 -25 -57 -25 -12 0
-18 8 -18 24 0 13 9 44 19 69 10 24 32 54 47 65 16 12 48 36 72 54 23 18 42
41 42 50 0 10 -5 18 -10 18 -6 0 -15 10 -20 23z m6 -293 c6 0 18 -8 26 -17 9
-10 21 -28 27 -40 6 -13 14 -103 17 -214 6 -184 5 -192 -12 -184 -11 4 -31 11
-46 17 -23 8 -26 14 -21 39 6 29 6 29 -50 29 -31 0 -59 5 -63 11 -3 6 10 27
29 47 20 21 41 50 47 67 8 22 8 35 -1 52 -11 20 -9 25 14 44 22 17 25 24 17
40 -6 10 -19 19 -29 19 -10 0 -35 -11 -55 -25 -20 -14 -49 -25 -65 -25 -15 0
-30 3 -34 6 -3 3 -3 12 0 20 3 8 28 26 57 39 28 14 69 36 91 50 22 13 45 24
51 25z m-185 -180 c9 0 19 -7 23 -15 3 -8 -3 -19 -14 -25 -10 -5 -23 -10 -29
-10 -6 0 -11 8 -11 18 0 10 3 22 7 25 3 4 14 7 24 7z m-15 -110 c13 0 24 -5
24 -11 0 -6 -6 -17 -14 -25 -8 -8 -22 -14 -30 -14 -9 0 -16 4 -16 9 0 5 3 16
6 25 3 9 17 16 30 16z"/>
<path d="M384 1217 c-5 2 -25 -10 -44 -26 -35 -29 -35 -29 -10 -39 14 -5 32
-17 39 -26 7 -8 15 -33 18 -56 5 -36 3 -40 -15 -40 -14 0 -29 13 -44 40 -13
22 -26 40 -30 40 -5 0 -8 -12 -8 -27 1 -16 9 -46 20 -68 11 -22 19 -50 20 -61
0 -12 -12 -37 -27 -55 -16 -18 -43 -46 -61 -63 -30 -30 -33 -36 -37 -116 -3
-47 -8 -113 -11 -147 -6 -54 -4 -63 10 -63 9 0 35 13 58 30 22 16 49 30 60 30
14 0 18 -7 17 -32 0 -18 -4 -60 -9 -93 -4 -33 -3 -85 2 -115 5 -30 13 -65 18
-77 6 -15 18 -23 34 -23 18 0 29 10 44 38 10 20 26 66 35 102 8 36 18 85 22
110 3 25 15 74 25 110 10 36 33 115 50 175 18 61 36 126 40 145 5 19 7 36 5
38 -2 2 -15 -8 -28 -22 -14 -15 -28 -39 -32 -54 -4 -15 -11 -33 -17 -39 -6 -7
-14 -13 -19 -13 -4 0 -20 20 -34 45 -15 25 -25 50 -23 56 2 6 28 21 58 34 30
13 56 30 58 38 2 9 -6 25 -17 36 -16 16 -25 18 -61 10 -23 -5 -45 -7 -50 -4
-4 3 -7 32 -7 64 1 46 -3 66 -19 87 -11 15 -25 29 -30 31z m49 -266 c6 -6 8
-13 4 -17 -3 -3 -11 -3 -16 1 -6 3 -8 11 -5 17 4 6 10 6 17 -1z m-68 -94 c5
-2 11 -29 13 -61 2 -32 -1 -63 -6 -69 -5 -7 -12 -24 -16 -39 -4 -16 -18 -34
-36 -43 -16 -8 -36 -12 -44 -9 -11 4 -16 19 -16 48 0 23 -5 47 -12 54 -10 10
1 24 47 67 32 31 64 54 70 52z m105 -40 c16 -12 31 -33 35 -46 3 -13 5 -25 3
-26 -2 -2 -20 -6 -40 -10 -38 -7 -38 -7 -38 42 0 27 3 53 6 56 4 3 19 -4 34
-16z m-5 -157 c8 0 15 -5 15 -12 0 -6 -9 -31 -21 -55 -14 -30 -27 -43 -41 -43
-16 0 -19 5 -14 23 3 12 6 27 6 33 0 5 9 20 20 32 12 12 27 22 35 22z"/>
</g>
</svg>
