<?xml version="1.0" standalone="no"?>
<!DOCTYPE svg PUBLIC "-//W3C//DTD SVG 20010904//EN"
 "http://www.w3.org/TR/2001/REC-SVG-20010904/DTD/svg10.dtd">
<svg version="1.0" xmlns="http://www.w3.org/2000/svg"
 width="128.000000pt" height="128.000000pt" viewBox="0 0 128.000000 128.000000"
 preserveAspectRatio="xMidYMid meet">
<metadata>
Created by potrace 1.16, written by Peter Selinger 2001-2019
</metadata>
<g transform="translate(0.000000,128.000000) scale(0.100000,-0.100000)"
fill="#000000" stroke="none">
<path d="M623 1269 c-5 -1 -23 -6 -41 -12 -23 -7 -32 -15 -29 -26 3 -9 8 -24
12 -33 5 -13 -20 -44 -99 -125 -80 -82 -106 -114 -106 -134 0 -15 6 -32 14
-38 11 -10 28 -8 78 7 35 11 71 23 81 27 13 5 17 2 17 -13 0 -15 -18 -31 -64
-56 -36 -20 -67 -44 -70 -54 -3 -9 -8 -48 -12 -86 -3 -39 -13 -81 -23 -95 -9
-14 -28 -39 -43 -55 -16 -17 -28 -40 -28 -51 0 -11 12 -38 25 -60 14 -22 25
-43 25 -47 0 -4 -27 -37 -60 -75 -33 -37 -60 -75 -60 -84 0 -9 7 -19 15 -23 8
-3 29 1 47 9 18 7 48 33 66 58 25 33 39 43 53 40 12 -4 19 -14 19 -29 0 -13
-4 -32 -9 -42 -5 -9 -13 -30 -18 -47 -4 -16 -17 -31 -26 -33 -10 -2 -27 4 -37
13 -11 10 -26 15 -35 11 -9 -3 -14 -12 -11 -19 2 -6 15 -43 27 -80 12 -38 27
-71 33 -73 7 -3 28 2 48 10 29 13 41 27 67 82 18 38 31 83 31 105 0 21 3 40 8
42 4 3 16 1 27 -3 11 -4 29 -24 40 -43 10 -20 30 -41 43 -48 13 -8 30 -26 38
-41 11 -22 12 -33 3 -51 -6 -12 -27 -39 -47 -59 -36 -38 -36 -38 6 -38 37 0
53 9 125 63 45 35 119 86 165 112 46 27 87 56 93 66 5 10 12 38 15 61 5 39 3
46 -27 77 -19 18 -52 44 -74 56 -38 20 -40 24 -41 72 -1 28 -8 62 -14 75 -7
12 -24 42 -39 65 -20 33 -34 44 -61 48 -19 4 -41 8 -47 10 -7 3 -13 18 -13 35
0 23 -4 30 -20 30 -11 0 -34 13 -52 29 -32 29 -32 29 25 61 32 18 61 40 65 49
5 9 6 30 3 47 -4 18 -19 42 -37 58 -32 26 -32 26 -78 9 -31 -12 -49 -14 -56
-7 -7 7 10 31 51 74 34 36 68 76 77 89 15 23 15 25 -21 57 -20 19 -40 34 -44
33z m-31 -465 c5 -3 8 -11 8 -18 0 -7 -18 -34 -40 -59 -22 -25 -40 -48 -40
-51 0 -4 12 -5 28 -4 21 2 28 -2 30 -17 2 -12 -9 -32 -28 -50 -16 -16 -30 -35
-30 -42 0 -7 11 -13 26 -13 17 0 28 -6 31 -20 3 -13 14 -20 29 -20 18 0 24 -6
24 -21 0 -18 -4 -20 -26 -15 -25 7 -26 5 -21 -23 4 -17 2 -33 -4 -37 -5 -3 -8
-11 -6 -17 2 -7 -6 -20 -19 -29 -12 -10 -25 -18 -28 -18 -3 0 -12 13 -21 30
-8 16 -15 40 -15 53 0 13 11 41 25 61 21 30 22 38 10 42 -8 4 -26 -1 -40 -10
-13 -9 -30 -16 -37 -16 -7 0 -22 12 -32 27 -19 26 -19 26 17 57 20 17 37 39
37 49 0 10 5 28 12 40 6 12 11 36 9 53 -2 28 2 33 46 52 26 11 51 18 55 16z
m136 -166 c9 -2 27 -18 39 -37 15 -23 23 -49 23 -78 0 -24 -4 -52 -10 -62 -5
-10 -32 -31 -60 -45 -28 -15 -55 -24 -60 -21 -6 4 -10 15 -10 26 0 10 -6 19
-12 19 -7 0 -5 5 5 11 9 5 23 22 31 37 7 15 16 51 19 80 3 29 9 57 12 63 4 5
14 9 23 7z m133 -268 c3 0 20 -5 38 -11 17 -6 31 -16 31 -23 0 -7 -23 -38 -51
-69 -28 -31 -58 -57 -68 -57 -10 0 -20 3 -24 6 -3 3 6 27 19 54 13 26 24 54
24 62 0 8 5 19 12 26 7 7 15 12 19 12z m-121 -14 c9 -1 16 -13 18 -31 1 -17
-3 -41 -10 -54 -7 -14 -18 -26 -24 -28 -6 -2 -20 5 -31 14 -11 10 -25 29 -32
41 -7 13 -10 27 -6 30 3 3 20 12 38 18 18 7 39 11 47 10z m-141 -6 c5 0 14 -7
21 -15 10 -12 9 -16 -5 -21 -9 -4 -21 -2 -27 4 -6 6 -7 15 -4 21 4 6 11 11 15
11z"/>
</g>
</svg>
