<?xml version="1.0" standalone="no"?>
<!DOCTYPE svg PUBLIC "-//W3C//DTD SVG 20010904//EN"
 "http://www.w3.org/TR/2001/REC-SVG-20010904/DTD/svg10.dtd">
<svg version="1.0" xmlns="http://www.w3.org/2000/svg"
 width="128.000000pt" height="128.000000pt" viewBox="0 0 128.000000 128.000000"
 preserveAspectRatio="xMidYMid meet">
<metadata>
Created by potrace 1.16, written by Peter Selinger 2001-2019
</metadata>
<g transform="translate(0.000000,128.000000) scale(0.100000,-0.100000)"
fill="#000000" stroke="none">
<path d="M492 1259 c-20 0 -57 -6 -82 -12 -45 -12 -45 -12 -42 -58 2 -27 -1
-50 -7 -54 -6 -3 -9 -10 -6 -15 3 -5 17 -5 33 1 15 6 44 29 64 52 33 37 37 39
38 20 0 -13 4 -23 9 -23 5 0 21 4 35 10 14 5 30 19 36 30 6 12 9 28 6 37 -5
12 -9 13 -20 4 -10 -8 -16 -9 -21 -1 -3 5 -23 10 -43 9z"/>
<path d="M732 1201 c-16 18 -31 28 -34 23 -3 -5 -9 -42 -12 -81 -5 -51 -4 -73
4 -73 6 0 8 -5 3 -12 -4 -7 -6 -43 -4 -80 2 -53 -1 -68 -12 -68 -7 0 -26 -13
-40 -30 -15 -16 -27 -36 -27 -44 0 -8 8 -17 17 -21 10 -3 19 -1 21 4 2 6 10
11 19 11 12 0 13 -8 8 -40 -6 -35 -3 -45 24 -79 17 -21 42 -42 55 -45 15 -4
32 -22 45 -46 12 -22 21 -53 21 -69 0 -16 -6 -34 -14 -40 -7 -6 -14 -32 -14
-58 -1 -27 -8 -53 -18 -64 -9 -10 -13 -26 -10 -37 4 -12 0 -24 -10 -32 -12
-11 -20 -11 -34 -2 -14 8 -21 8 -28 -1 -5 -7 -12 -21 -16 -32 -4 -14 -25 -26
-65 -38 -47 -15 -64 -16 -81 -7 -11 6 -33 10 -48 8 -15 -2 -28 -10 -30 -20 -2
-11 8 -20 33 -28 19 -6 41 -10 48 -7 6 2 27 0 45 -5 26 -7 42 -5 78 13 36 17
56 20 97 15 29 -3 71 -9 93 -13 33 -6 50 -18 82 -56 22 -27 54 -57 71 -68 17
-10 37 -19 45 -19 7 0 20 8 29 18 10 10 17 23 17 28 0 5 -10 14 -22 19 -17 7
-24 21 -28 49 -5 38 -8 41 -62 62 -31 12 -80 28 -110 35 -29 7 -60 19 -68 26
-13 12 -12 14 8 19 18 5 22 13 22 48 0 30 5 44 20 54 11 7 20 22 20 33 0 12 8
34 17 49 14 24 15 34 5 55 -7 14 -12 37 -12 50 0 13 -4 27 -10 30 -5 3 -10 22
-10 41 0 30 -4 37 -29 45 -16 6 -32 17 -35 25 -3 8 -11 14 -19 14 -7 0 -23 13
-34 28 -17 22 -20 38 -16 74 5 42 9 47 49 67 25 11 53 21 64 21 10 0 22 5 25
10 3 6 22 10 41 10 31 0 35 3 32 22 -2 19 -11 24 -52 30 -44 6 -54 4 -93 -24
-34 -23 -48 -27 -56 -19 -9 9 -8 19 5 41 11 19 13 32 7 36 -7 4 -7 10 0 17 6
6 11 30 11 54 0 33 -7 50 -28 74z"/>
<path d="M664 1207 c-5 2 -13 0 -17 -3 -4 -4 -7 -14 -7 -21 0 -8 8 -13 18 -11
9 2 17 10 17 17 0 8 -5 16 -11 18z"/>
<path d="M936 1200 c-7 0 -21 -9 -30 -19 -15 -16 -15 -22 -4 -40 7 -12 16 -21
21 -21 4 0 28 -19 52 -42 24 -24 53 -51 64 -60 11 -9 33 -18 48 -20 26 -3 28
0 31 37 2 33 -2 45 -22 64 -14 13 -36 30 -48 37 -13 7 -37 19 -54 27 -17 8
-35 20 -38 26 -4 6 -13 11 -20 11z"/>
<path d="M496 1080 c-6 -1 -28 -21 -49 -45 -21 -25 -44 -45 -52 -45 -7 0 -33
-16 -57 -35 -23 -19 -51 -43 -61 -52 -12 -12 -34 -18 -67 -18 -26 0 -51 -3
-55 -6 -3 -4 4 -23 16 -43 14 -24 28 -36 43 -36 12 0 35 14 51 30 16 17 33 30
37 30 5 0 21 12 36 28 16 15 38 33 50 40 19 10 23 10 29 -3 3 -9 0 -27 -7 -40
-8 -14 -10 -37 -5 -63 5 -34 4 -40 -14 -45 -16 -4 -21 -13 -21 -39 0 -19 3
-37 6 -40 3 -3 18 1 34 9 16 8 33 19 36 25 4 6 7 26 6 44 -1 17 5 38 13 44 8
7 15 22 15 34 0 11 12 45 28 76 15 30 33 60 41 66 12 9 10 17 -14 48 -15 20
-32 36 -39 36z"/>
<path d="M572 800 c-11 0 -31 -15 -46 -34 -14 -19 -26 -39 -26 -45 0 -5 -12
-19 -27 -31 -21 -16 -35 -20 -63 -15 -27 5 -42 1 -59 -12 -17 -14 -22 -29 -23
-75 -1 -45 -5 -59 -19 -63 -9 -3 -19 -18 -22 -33 -2 -15 -9 -40 -15 -57 -6
-16 -23 -67 -38 -113 -19 -59 -25 -95 -22 -127 4 -31 1 -48 -8 -56 -8 -6 -14
-20 -14 -30 0 -10 -5 -21 -10 -24 -6 -4 -9 -24 -8 -46 3 -38 4 -39 41 -39 24
0 36 4 32 10 -4 6 -1 18 6 26 7 8 13 43 13 77 1 41 7 71 19 88 13 20 15 32 8
51 -6 16 -5 29 4 41 7 9 20 17 29 17 9 0 22 11 28 25 6 14 15 25 19 25 4 0 20
-5 34 -12 19 -8 31 -8 51 0 14 7 22 17 19 22 -3 5 -24 13 -45 16 -22 4 -45 13
-51 20 -6 8 -9 22 -6 31 3 10 11 34 19 53 7 19 19 39 26 43 6 4 12 15 12 22 0
8 -4 15 -10 15 -5 0 -13 -8 -19 -17 -5 -10 -13 -14 -17 -10 -5 4 -1 20 8 35
11 17 26 27 42 28 14 1 33 7 41 14 9 7 22 28 30 47 8 18 20 33 27 33 7 0 26
16 41 36 16 19 26 42 23 50 -3 7 -14 14 -24 14z"/>
<path d="M524 380 c-8 0 -17 -7 -21 -16 -3 -9 0 -20 8 -25 9 -5 19 -3 28 5 7
8 10 19 7 25 -4 6 -14 11 -22 11z"/>
<path d="M599 360 c-16 0 -29 -7 -33 -17 -4 -9 -1 -22 6 -29 7 -7 25 -16 40
-19 21 -5 29 -2 38 16 11 19 10 24 -6 36 -10 7 -30 13 -45 13z"/>
<path d="M610 20 c-27 0 -50 -4 -50 -10 0 -5 23 -10 50 -10 28 0 50 5 50 10 0
6 -22 10 -50 10z"/>
</g>
</svg>
