<?xml version="1.0" standalone="no"?>
<!DOCTYPE svg PUBLIC "-//W3C//DTD SVG 20010904//EN"
 "http://www.w3.org/TR/2001/REC-SVG-20010904/DTD/svg10.dtd">
<svg version="1.0" xmlns="http://www.w3.org/2000/svg"
 width="128.000000pt" height="128.000000pt" viewBox="0 0 128.000000 128.000000"
 preserveAspectRatio="xMidYMid meet">
<metadata>
Created by potrace 1.16, written by Peter Selinger 2001-2019
</metadata>
<g transform="translate(0.000000,128.000000) scale(0.100000,-0.100000)"
fill="#000000" stroke="none">
<path d="M369 1120 c-20 0 -38 -9 -54 -26 -14 -15 -25 -39 -25 -55 0 -15 5
-31 11 -34 5 -4 19 1 29 10 17 16 19 15 29 -4 6 -11 11 -29 11 -40 0 -11 -4
-23 -10 -26 -5 -3 -10 -28 -10 -54 0 -26 -6 -55 -13 -65 -10 -14 -34 -20 -92
-26 -44 -4 -89 -4 -100 0 -11 4 -48 11 -82 15 -54 6 -63 5 -63 -9 0 -8 12 -24
27 -33 15 -10 43 -23 62 -30 21 -7 39 -8 46 -3 6 5 16 5 23 1 6 -4 38 -4 69 0
34 3 63 2 71 -4 6 -5 12 -18 12 -28 0 -11 -15 -46 -32 -79 -18 -33 -38 -60
-44 -60 -6 0 -28 -19 -48 -42 -20 -24 -36 -53 -36 -65 0 -12 -5 -25 -10 -28
-6 -3 -10 -17 -10 -30 0 -13 5 -27 12 -31 7 -5 26 9 49 34 20 23 43 42 52 42
8 0 17 -10 21 -22 3 -13 6 -53 6 -90 0 -55 4 -72 20 -88 11 -11 24 -20 30 -20
5 0 16 13 25 30 12 22 14 53 11 136 -2 59 0 133 6 163 5 31 11 70 12 86 1 17
7 39 14 51 6 12 37 34 67 50 31 15 67 40 79 54 12 14 53 53 93 88 39 34 76 62
82 62 6 0 11 5 11 10 0 6 6 10 14 10 8 0 17 7 20 16 3 9 6 20 6 25 0 5 -5 9
-11 9 -6 0 -46 -26 -88 -57 -42 -32 -100 -80 -128 -108 -51 -50 -54 -51 -83
-39 -26 11 -30 18 -30 51 0 22 7 65 15 98 9 32 13 71 10 86 -3 14 -15 36 -26
48 -12 12 -32 21 -50 21z m-74 -590 c9 0 15 -9 15 -25 0 -15 -6 -25 -14 -25
-8 0 -18 5 -21 10 -4 6 -4 17 -1 25 3 8 12 15 21 15z"/>
<path d="M896 1080 c-22 0 -60 -9 -83 -21 -24 -12 -43 -27 -43 -34 0 -10 13
-12 55 -8 42 5 56 3 60 -9 3 -8 1 -26 -4 -41 -6 -16 -24 -32 -45 -41 -27 -11
-37 -23 -45 -53 -5 -21 -15 -96 -21 -168 -7 -71 -11 -152 -11 -180 0 -27 -9
-84 -21 -125 -13 -46 -21 -101 -21 -142 1 -36 6 -76 13 -88 6 -12 17 -20 23
-18 7 2 26 33 44 68 17 36 34 80 38 98 3 18 25 72 47 120 23 48 54 106 70 129
15 23 28 44 28 47 0 3 8 14 18 24 9 9 34 37 54 61 25 29 42 41 53 38 8 -4 15
-16 15 -27 0 -11 -11 -42 -24 -68 -14 -26 -38 -62 -55 -80 -21 -23 -31 -43
-31 -65 0 -18 7 -42 15 -54 15 -21 14 -22 -17 -25 -18 -2 -33 -7 -33 -13 0 -6
34 -11 79 -12 55 -2 92 -8 122 -23 24 -11 49 -20 56 -20 7 0 21 7 31 14 9 7
17 23 17 35 0 11 -6 21 -13 21 -8 0 -22 9 -31 19 -9 10 -37 22 -61 25 -24 4
-49 13 -55 21 -9 10 -7 21 6 47 9 18 30 51 46 73 18 27 31 59 35 92 5 46 3 54
-20 77 -18 18 -37 26 -59 26 -18 0 -48 -9 -66 -20 -18 -11 -38 -32 -44 -47 -7
-16 -32 -49 -57 -75 -26 -26 -65 -82 -87 -125 -23 -43 -46 -78 -50 -78 -5 0
-10 20 -12 43 -2 24 2 80 8 125 7 45 14 105 16 132 3 28 7 61 10 74 4 20 9 22
38 17 26 -5 36 -2 53 16 11 13 28 45 37 72 9 27 16 56 16 63 0 8 -12 30 -26
49 -23 29 -32 34 -68 34z"/>
<path d="M593 260 c-11 0 -26 -18 -40 -47 -12 -25 -20 -50 -17 -54 3 -5 14 -3
24 4 11 6 20 18 20 25 0 7 7 20 15 28 8 9 15 22 15 30 0 8 -8 14 -17 14z"/>
</g>
</svg>
