<?xml version="1.0" standalone="no"?>
<!DOCTYPE svg PUBLIC "-//W3C//DTD SVG 20010904//EN"
 "http://www.w3.org/TR/2001/REC-SVG-20010904/DTD/svg10.dtd">
<svg version="1.0" xmlns="http://www.w3.org/2000/svg"
 width="128.000000pt" height="128.000000pt" viewBox="0 0 128.000000 128.000000"
 preserveAspectRatio="xMidYMid meet">
<metadata>
Created by potrace 1.16, written by Peter Selinger 2001-2019
</metadata>
<g transform="translate(0.000000,128.000000) scale(0.100000,-0.100000)"
fill="#000000" stroke="none">
<path d="M197 1260 c-4 0 -10 -6 -13 -14 -3 -7 1 -29 9 -48 8 -18 17 -63 21
-99 5 -48 3 -77 -9 -114 -9 -28 -30 -77 -45 -110 -23 -46 -32 -85 -40 -170 -7
-60 -11 -184 -10 -275 0 -91 3 -178 5 -195 2 -16 15 -64 30 -105 15 -41 36
-87 47 -103 11 -15 26 -27 34 -27 8 0 14 3 15 8 0 4 2 36 5 72 3 36 10 81 16
100 7 19 13 46 14 60 2 14 9 68 17 120 8 52 16 95 17 95 1 0 4 36 6 79 3 44 9
87 15 97 5 10 9 28 9 41 0 13 9 41 19 61 11 21 38 63 61 93 23 31 72 86 109
123 36 37 81 87 100 110 23 29 36 39 41 31 4 -7 4 -24 0 -39 -5 -14 -24 -69
-42 -121 -18 -52 -40 -105 -49 -117 -12 -18 -28 -23 -72 -27 -31 -2 -64 -9
-72 -16 -8 -7 -15 -16 -15 -21 0 -5 13 -9 28 -9 16 0 39 -10 51 -21 18 -17 22
-28 17 -52 -3 -17 -29 -71 -56 -120 -28 -49 -50 -95 -50 -102 0 -7 -6 -18 -13
-24 -8 -6 -14 -27 -15 -46 -1 -20 -4 -40 -7 -46 -4 -5 -4 -23 0 -39 4 -17 11
-30 17 -30 5 0 23 14 39 31 24 25 32 29 44 19 8 -6 17 -22 21 -33 3 -12 16
-32 27 -44 11 -13 26 -23 32 -23 6 0 30 -9 53 -20 22 -11 46 -20 51 -20 6 0
14 -7 19 -16 6 -10 30 -20 58 -24 28 -5 54 -4 61 2 8 6 16 0 25 -19 8 -15 19
-27 26 -26 6 2 39 4 74 6 36 2 75 11 91 20 15 9 38 24 52 32 14 9 34 35 44 58
11 23 27 76 37 117 12 48 19 118 20 195 1 66 5 132 9 147 6 21 3 29 -9 34 -9
4 -23 22 -31 41 -8 20 -15 43 -15 53 0 10 -7 24 -16 31 -9 8 -22 14 -28 14 -6
1 -23 5 -38 9 -17 5 -47 2 -85 -9 -34 -10 -95 -41 -148 -77 -49 -34 -94 -67
-98 -74 -4 -8 -16 -14 -26 -14 -9 0 -30 13 -46 30 -29 30 -29 30 -8 72 12 24
29 63 39 88 9 25 26 57 36 72 10 14 18 34 18 43 0 9 10 40 21 68 12 29 35 79
51 113 17 36 26 67 22 78 -5 13 -13 16 -38 10 -17 -3 -44 -13 -61 -22 -16 -8
-58 -42 -92 -76 -34 -34 -78 -74 -97 -89 -20 -16 -36 -33 -36 -39 0 -5 -25
-38 -55 -71 -30 -34 -55 -66 -55 -71 0 -5 -16 -26 -35 -47 -19 -22 -36 -49
-37 -62 0 -12 -2 -27 -2 -33 -1 -6 -6 -18 -12 -25 -6 -8 -14 -23 -19 -34 -4
-11 -13 -43 -20 -72 -7 -29 -10 -75 -7 -102 3 -35 -1 -61 -12 -85 -9 -19 -16
-47 -16 -63 0 -17 -9 -38 -20 -48 -19 -17 -20 -17 -29 9 -7 16 -7 35 -1 50 5
13 9 91 9 172 0 82 2 163 4 179 2 17 7 51 11 77 5 26 17 55 27 64 10 9 19 24
19 32 0 8 16 29 37 48 36 33 36 35 37 111 1 61 -3 84 -18 108 -11 17 -36 47
-55 67 -20 21 -40 38 -44 38z m784 -491 c15 1 34 -8 47 -21 11 -13 25 -36 31
-51 6 -16 11 -46 11 -67 0 -21 5 -42 10 -45 6 -3 10 -23 10 -43 0 -20 -7 -78
-14 -128 -11 -68 -21 -102 -44 -138 -23 -36 -44 -54 -79 -70 -35 -15 -67 -21
-118 -21 -39 1 -97 9 -130 20 -33 10 -64 22 -70 27 -5 4 -16 8 -25 8 -9 0 -40
23 -68 52 -29 29 -52 55 -52 59 0 3 22 36 50 72 27 36 58 70 67 76 14 8 25 4
48 -18 17 -15 49 -35 72 -43 23 -9 44 -13 47 -10 3 3 6 18 6 33 0 15 -4 31
-10 34 -5 3 -10 16 -10 29 0 12 -7 31 -15 42 -8 10 -15 26 -15 34 0 9 14 28
31 43 17 15 35 27 39 27 5 0 32 20 62 44 30 24 63 46 73 49 11 2 32 5 46 6z
m-416 -152 c5 -2 11 -11 13 -20 2 -9 -6 -30 -18 -47 -12 -16 -28 -30 -36 -30
-8 0 -14 6 -14 14 0 8 5 18 10 21 6 3 10 14 10 24 0 9 5 22 12 29 7 7 17 11
23 9z"/>
</g>
</svg>
