<?xml version="1.0" standalone="no"?>
<!DOCTYPE svg PUBLIC "-//W3C//DTD SVG 20010904//EN"
 "http://www.w3.org/TR/2001/REC-SVG-20010904/DTD/svg10.dtd">
<svg version="1.0" xmlns="http://www.w3.org/2000/svg"
 width="128.000000pt" height="128.000000pt" viewBox="0 0 128.000000 128.000000"
 preserveAspectRatio="xMidYMid meet">
<metadata>
Created by potrace 1.16, written by Peter Selinger 2001-2019
</metadata>
<g transform="translate(0.000000,128.000000) scale(0.100000,-0.100000)"
fill="#000000" stroke="none">
<path d="M77 1260 c-9 0 -18 -4 -21 -9 -3 -5 21 -32 54 -61 40 -35 60 -59 60
-74 0 -13 -5 -38 -12 -57 -6 -19 -19 -39 -27 -46 -13 -9 -14 -14 -3 -25 10
-10 16 -10 30 -1 9 7 33 20 52 30 19 9 38 22 42 27 4 6 8 30 8 52 0 27 -7 51
-21 68 -11 14 -49 42 -83 61 -35 19 -70 35 -79 35z"/>
<path d="M964 1236 c-40 5 -54 2 -76 -15 -14 -12 -39 -21 -55 -21 -17 0 -32
-3 -36 -6 -3 -3 -52 -22 -109 -41 -57 -19 -107 -38 -113 -44 -5 -5 -27 -9 -50
-9 -22 0 -51 -7 -63 -16 -12 -8 -22 -20 -22 -26 0 -6 6 -19 14 -27 8 -9 18
-32 23 -51 6 -19 6 -66 2 -104 -4 -46 -3 -76 4 -87 9 -14 7 -22 -5 -36 -14
-15 -18 -52 -23 -223 -3 -128 -1 -256 6 -339 9 -103 9 -136 1 -139 -7 -2 -12
-10 -12 -18 0 -9 11 -14 28 -14 15 0 33 5 40 12 7 7 12 20 12 31 0 10 8 37 19
60 18 41 18 45 -1 182 -10 77 -19 149 -20 160 0 11 2 48 5 82 4 50 1 70 -15
99 -18 33 -18 39 -4 82 8 26 17 67 21 92 3 24 13 52 22 62 9 10 23 18 32 18 9
0 22 -14 28 -31 9 -24 17 -30 35 -27 19 2 23 8 20 36 -3 30 0 34 40 52 24 11
60 20 81 20 24 0 40 -5 43 -15 3 -8 -10 -33 -31 -58 -21 -25 -48 -50 -62 -56
-13 -6 -35 -8 -48 -5 -19 5 -27 0 -40 -26 -14 -27 -15 -37 -5 -55 9 -17 9 -28
1 -44 -7 -11 -12 -36 -13 -55 -1 -18 8 -53 20 -77 11 -24 23 -62 26 -84 4 -22
10 -73 15 -112 5 -44 14 -80 24 -91 10 -10 17 -26 17 -35 0 -12 7 -15 35 -10
23 4 43 0 60 -11 14 -9 25 -23 25 -32 0 -8 -7 -26 -16 -40 -16 -23 -18 -23
-34 -9 -15 14 -21 14 -39 3 -15 -9 -21 -21 -19 -38 3 -23 7 -25 63 -26 33 -1
67 2 76 7 9 5 27 2 44 -7 16 -8 52 -16 80 -17 38 -2 50 1 50 13 0 8 -15 22
-32 30 -18 9 -40 25 -49 38 -14 20 -14 25 3 52 9 16 23 30 30 30 6 0 24 10 39
23 26 23 26 23 1 52 -22 26 -31 29 -68 26 -24 -1 -72 -3 -106 -4 -51 -2 -65 2
-86 21 -13 12 -29 38 -34 57 -11 33 -9 35 43 85 30 28 54 58 54 66 0 13 -9 14
-54 9 -47 -6 -56 -4 -77 17 -13 13 -35 31 -49 41 -18 13 -21 20 -13 28 7 7 51
16 100 21 48 5 102 10 118 11 23 2 30 7 30 22 0 17 -12 21 -82 34 -55 9 -83
18 -83 27 0 8 13 20 29 29 17 8 37 25 45 37 9 12 25 27 37 34 12 6 34 33 49
60 19 36 35 52 60 60 21 7 45 8 64 3 16 -5 33 -12 38 -17 5 -5 4 -20 -1 -34
-7 -18 -6 -33 5 -53 8 -15 14 -43 14 -62 0 -19 5 -44 12 -56 7 -12 16 -47 21
-77 5 -30 10 -89 12 -130 1 -41 6 -100 10 -130 5 -30 9 -118 10 -195 1 -78 5
-146 9 -153 4 -7 20 -12 35 -12 16 0 33 6 38 13 7 7 7 51 2 117 -4 58 -13 137
-19 175 -6 39 -13 88 -16 110 -2 22 -9 87 -15 145 -6 58 -12 138 -15 179 -2
41 -8 89 -14 107 -8 24 -8 39 -1 53 8 15 8 23 -1 30 -7 6 -28 23 -47 38 -34
27 -34 27 -175 -1 -78 -15 -161 -32 -186 -37 -25 -6 -63 -15 -85 -21 -22 -6
-49 -15 -61 -20 -12 -5 -32 -8 -45 -6 -21 3 -24 9 -27 50 -3 48 -3 48 54 73
31 14 63 25 71 25 8 0 33 9 55 20 23 11 51 20 63 20 11 0 26 5 31 10 6 6 64
11 130 13 114 2 119 3 122 24 2 14 -5 27 -21 38 -14 8 -46 18 -73 21z"/>
<path d="M58 808 c-9 2 -19 -1 -22 -6 -3 -5 4 -33 16 -63 15 -38 21 -81 23
-147 2 -52 8 -99 14 -105 6 -6 11 -19 11 -29 0 -11 -6 -31 -14 -46 -10 -21
-11 -44 -4 -100 5 -46 5 -79 -1 -91 -7 -13 -6 -24 3 -36 8 -11 18 -15 25 -10
8 4 11 18 8 34 -3 14 -2 61 3 104 5 52 4 89 -3 108 -9 22 -7 43 6 93 9 35 17
82 17 103 0 21 -7 49 -16 61 -8 12 -23 46 -32 75 -10 31 -24 53 -34 55z"/>
<path d="M220 340 c-11 0 -22 -6 -25 -12 -2 -7 -8 -29 -13 -48 -6 -19 -13 -53
-17 -75 -4 -22 -11 -46 -17 -52 -6 -7 -21 -13 -33 -13 -15 0 -25 -7 -28 -21
-3 -11 0 -43 6 -70 10 -43 15 -49 37 -49 17 0 31 9 42 27 9 16 23 57 33 93 9
36 20 81 26 101 5 20 9 55 9 78 0 35 -3 41 -20 41z"/>
</g>
</svg>
