<?xml version="1.0" standalone="no"?>
<!DOCTYPE svg PUBLIC "-//W3C//DTD SVG 20010904//EN"
 "http://www.w3.org/TR/2001/REC-SVG-20010904/DTD/svg10.dtd">
<svg version="1.0" xmlns="http://www.w3.org/2000/svg"
 width="128.000000pt" height="128.000000pt" viewBox="0 0 128.000000 128.000000"
 preserveAspectRatio="xMidYMid meet">
<metadata>
Created by potrace 1.16, written by Peter Selinger 2001-2019
</metadata>
<g transform="translate(0.000000,128.000000) scale(0.100000,-0.100000)"
fill="#000000" stroke="none">
<path d="M864 1280 c-8 0 -14 -1 -14 -2 0 -2 11 -25 25 -52 16 -32 25 -66 25
-97 0 -26 -4 -50 -9 -54 -6 -3 -1 -21 11 -40 18 -32 19 -37 5 -58 -8 -12 -34
-28 -58 -35 -24 -7 -75 -28 -114 -47 -70 -34 -70 -34 -77 -3 -3 18 -3 39 2 48
5 9 33 26 64 39 40 16 56 28 56 42 0 11 -7 19 -18 19 -9 0 -34 -9 -54 -20 -21
-11 -44 -17 -53 -14 -9 4 -21 -1 -29 -11 -7 -10 -18 -15 -24 -11 -7 4 -12 12
-12 17 0 5 8 13 19 17 10 4 44 30 75 59 40 37 56 59 56 77 0 14 -4 26 -10 26
-5 0 -25 14 -43 30 -19 17 -40 30 -46 30 -6 0 -11 -7 -11 -15 0 -8 5 -15 10
-15 6 0 10 -6 10 -14 0 -7 -12 -35 -26 -62 -14 -27 -37 -61 -52 -76 -14 -16
-30 -28 -35 -28 -5 0 -6 10 -2 23 4 12 12 47 19 77 7 30 18 68 24 84 7 16 11
31 9 33 -2 2 -10 1 -18 -2 -8 -3 -19 -18 -26 -33 -6 -15 -21 -54 -33 -87 -12
-33 -27 -69 -34 -80 -7 -11 -20 -42 -29 -70 -8 -27 -23 -75 -32 -105 -10 -30
-21 -71 -25 -90 -5 -19 -24 -80 -44 -135 -20 -55 -36 -112 -36 -127 0 -15 -4
-30 -10 -33 -5 -3 -10 -19 -10 -34 0 -15 -4 -31 -8 -36 -5 -6 -14 -37 -21 -70
-7 -33 -16 -73 -21 -90 -5 -16 -14 -56 -21 -88 -7 -33 -21 -70 -31 -83 -11
-13 -16 -28 -13 -34 3 -5 12 -10 19 -10 8 0 21 11 30 25 9 13 16 29 16 36 0 6
8 23 19 37 10 15 21 41 25 57 4 17 12 55 17 85 6 30 10 63 10 74 0 10 9 34 20
54 10 20 19 46 19 57 1 11 12 52 26 90 14 39 36 111 49 160 13 50 30 110 39
135 8 25 17 56 20 70 5 23 10 25 61 26 49 0 55 -2 55 -21 0 -11 -7 -30 -15
-41 -8 -12 -12 -24 -8 -28 3 -3 -24 -35 -60 -70 -37 -35 -67 -67 -67 -71 0 -3
5 -15 10 -26 6 -10 16 -19 23 -19 7 0 31 18 52 40 21 22 45 40 52 40 10 0 12
-13 7 -53 -5 -43 -3 -56 13 -76 20 -24 20 -24 31 7 7 22 18 32 31 32 11 0 23
-5 27 -11 3 -6 -15 -30 -42 -55 -27 -24 -71 -58 -97 -76 -47 -31 -48 -33 -41
-73 3 -22 8 -42 10 -44 2 -2 24 6 50 18 46 22 48 22 81 4 18 -9 33 -23 33 -29
0 -7 -16 -36 -35 -65 -19 -30 -35 -61 -35 -70 0 -9 -7 -22 -15 -29 -8 -7 -15
-19 -15 -27 0 -8 7 -22 16 -31 15 -15 18 -14 35 8 10 14 27 37 38 51 13 16 36
29 68 36 27 6 70 8 98 4 28 -4 60 -13 73 -19 12 -7 22 -17 22 -22 0 -6 -5 -10
-11 -10 -6 0 -23 -8 -37 -18 -15 -10 -50 -28 -78 -39 -43 -17 -53 -18 -69 -7
-10 7 -22 11 -27 8 -5 -3 -7 -13 -4 -21 4 -9 1 -22 -5 -30 -9 -10 -9 -19 -1
-36 6 -12 12 -33 14 -47 2 -19 10 -26 31 -28 26 -3 27 -2 27 46 0 34 5 54 18
64 9 9 33 18 52 21 19 3 53 10 75 17 22 7 54 14 72 17 18 3 37 11 43 19 9 10
7 19 -7 39 -10 14 -40 37 -67 52 -38 19 -66 26 -115 27 -37 0 -77 -2 -91 -6
-14 -4 -32 -3 -39 2 -12 7 -12 14 0 47 15 38 15 38 119 44 58 4 110 7 117 8 7
0 17 10 24 22 6 12 8 36 4 55 -5 27 -13 37 -43 50 -25 10 -60 14 -107 12 -70
-3 -70 -3 -68 37 2 21 10 46 18 54 13 13 17 12 39 -8 13 -12 41 -27 63 -31 33
-8 41 -6 63 15 24 25 25 29 25 178 0 152 0 152 64 162 41 7 68 16 75 27 6 9 8
19 5 22 -3 3 -36 6 -74 7 -39 1 -73 7 -77 13 -4 6 -8 44 -8 84 0 40 -5 90 -12
111 -7 24 -23 44 -41 54 -16 10 -35 17 -43 17z m48 -369 c3 -3 8 -61 10 -129
3 -122 3 -123 -20 -129 -13 -3 -28 -1 -34 5 -6 6 -5 20 6 40 9 17 16 44 16 60
0 17 -9 37 -21 48 -12 10 -28 32 -36 47 -8 16 -13 31 -10 33 2 2 21 10 43 18
21 7 42 11 46 7z m-146 -51 c8 0 23 -15 34 -32 11 -18 20 -42 20 -54 0 -11 -9
-29 -21 -40 -20 -18 -21 -18 -40 6 -10 14 -21 40 -25 58 -4 20 -2 38 6 47 7 8
19 15 26 15z m-64 -30 c14 0 16 -6 11 -31 -5 -24 0 -36 22 -59 16 -17 25 -35
22 -44 -3 -8 -21 -18 -40 -21 -19 -4 -43 -5 -54 -3 -16 3 -18 12 -15 68 2 45
8 69 20 78 9 6 24 12 34 12z m-2 -260 c15 0 20 -7 20 -29 0 -25 -6 -32 -44
-46 -24 -9 -52 -15 -62 -13 -16 3 -12 10 24 46 23 23 51 42 62 42z m146 -60
c39 0 66 -5 73 -13 8 -11 6 -18 -8 -31 -10 -9 -46 -24 -80 -32 -34 -9 -69 -13
-77 -10 -12 5 -14 14 -10 34 4 15 14 33 23 40 9 6 45 12 79 12z"/>
<path d="M642 80 c-4 0 -15 -14 -24 -30 -14 -25 -15 -30 -3 -30 8 0 15 6 15
14 0 8 7 17 16 20 8 3 12 10 9 16 -3 5 -9 10 -13 10z"/>
<path d="M169 20 c-10 0 -19 -4 -19 -10 0 -5 12 -10 26 -10 14 0 23 4 19 10
-3 6 -15 10 -26 10z"/>
</g>
</svg>
