<?xml version="1.0" standalone="no"?>
<!DOCTYPE svg PUBLIC "-//W3C//DTD SVG 20010904//EN"
 "http://www.w3.org/TR/2001/REC-SVG-20010904/DTD/svg10.dtd">
<svg version="1.0" xmlns="http://www.w3.org/2000/svg"
 width="128.000000pt" height="128.000000pt" viewBox="0 0 128.000000 128.000000"
 preserveAspectRatio="xMidYMid meet">
<metadata>
Created by potrace 1.16, written by Peter Selinger 2001-2019
</metadata>
<g transform="translate(0.000000,128.000000) scale(0.100000,-0.100000)"
fill="#000000" stroke="none">
<path d="M720 1260 c-10 0 -28 -12 -39 -26 -14 -18 -18 -31 -12 -43 5 -9 7
-29 4 -44 -3 -17 -15 -32 -27 -37 -11 -5 -42 -15 -68 -23 -26 -7 -51 -11 -57
-8 -6 4 -18 25 -27 46 -8 22 -30 55 -47 73 -17 17 -37 32 -44 32 -7 0 -13 -9
-13 -19 0 -11 4 -22 9 -25 5 -3 20 -31 35 -61 14 -31 26 -59 26 -64 0 -5 -49
-30 -110 -55 -60 -25 -114 -46 -119 -46 -5 0 -26 -15 -47 -34 -20 -19 -34 -39
-30 -45 4 -6 11 -11 17 -11 5 0 31 9 57 21 26 11 84 38 129 60 46 21 89 39 96
39 7 0 28 -16 47 -35 26 -27 31 -38 22 -47 -7 -7 -12 -25 -12 -40 0 -27 2 -28
45 -28 43 0 45 -2 45 -27 -1 -22 -13 -37 -52 -68 -29 -22 -61 -42 -72 -45 -13
-4 -23 -18 -28 -40 -4 -19 -5 -41 -3 -48 2 -6 12 -12 22 -12 10 0 43 13 73 30
30 16 63 29 73 30 9 0 17 -6 17 -12 0 -7 -19 -35 -41 -61 -35 -41 -46 -48 -68
-43 -14 3 -20 3 -13 0 6 -3 12 -10 12 -14 0 -5 -9 -18 -20 -28 -14 -12 -21
-34 -22 -68 -3 -43 -1 -49 17 -48 11 1 37 4 57 9 36 7 37 6 57 -36 12 -23 21
-49 21 -56 0 -8 7 -16 16 -20 9 -3 20 0 25 8 5 8 9 37 9 66 0 51 0 51 70 72
38 12 73 29 78 38 7 12 3 29 -15 60 -19 34 -25 62 -27 122 -2 42 -8 87 -15 98
-6 12 -11 33 -11 48 0 14 -7 39 -14 54 -14 26 -21 29 -88 35 -40 4 -76 10 -81
15 -4 4 28 44 71 89 79 81 79 81 148 79 52 -2 80 -9 106 -25 33 -20 46 -22
125 -18 48 2 89 5 91 5 1 1 2 12 2 25 0 19 -10 28 -55 46 -46 19 -73 22 -172
22 -65 0 -126 2 -135 4 -11 3 -18 15 -18 29 0 13 5 35 11 49 9 20 9 29 -1 41
-7 8 -21 15 -30 15z m-117 -211 c4 1 7 -4 7 -10 0 -6 -9 -24 -21 -40 -11 -16
-25 -29 -30 -29 -5 0 -9 14 -9 30 0 22 6 33 23 40 12 5 25 9 30 9z m113 -239
c10 0 14 -12 14 -40 0 -33 -3 -40 -19 -40 -11 0 -22 4 -25 9 -3 5 -1 23 5 40
6 17 17 31 25 31z m-68 -40 c6 0 12 -11 12 -24 0 -14 -3 -27 -7 -29 -5 -3 -32
-12 -60 -20 -43 -13 -53 -13 -53 -3 0 8 21 28 48 45 26 17 53 31 60 31z m80
-110 c7 0 15 -7 19 -16 3 -9 2 -50 -3 -92 -9 -77 -9 -77 -39 -77 -30 0 -30 0
-31 60 -1 45 4 68 20 92 12 18 27 33 34 33z m-86 -90 c4 0 8 -18 8 -39 0 -22
-3 -46 -6 -55 -4 -10 -18 -16 -35 -16 -19 0 -32 6 -36 17 -4 9 -1 19 5 21 7 2
12 9 12 15 0 6 10 21 22 34 12 13 25 23 30 23z"/>
<path d="M312 500 c-5 0 -24 -21 -42 -47 -19 -27 -47 -73 -62 -103 -23 -45
-27 -63 -22 -100 3 -25 13 -67 22 -95 9 -28 30 -64 49 -82 18 -18 45 -39 60
-46 16 -8 69 -18 118 -21 67 -5 111 -3 170 9 44 9 84 21 90 26 5 5 15 9 22 9
7 0 42 14 78 30 36 17 70 30 75 30 5 0 26 9 47 21 21 12 53 32 70 45 18 14 37
33 43 44 7 14 7 31 -2 60 -7 22 -19 40 -25 40 -8 0 -13 -14 -13 -36 0 -29 -7
-44 -33 -68 -19 -17 -63 -42 -98 -55 -35 -13 -89 -35 -119 -49 -30 -14 -68
-29 -85 -34 -16 -6 -50 -15 -75 -20 -25 -6 -79 -10 -120 -8 -47 1 -90 8 -116
20 -23 10 -54 33 -69 52 -15 19 -34 52 -41 74 -8 21 -14 51 -14 65 0 14 14 52
30 84 17 32 30 66 30 74 0 9 9 27 20 41 11 14 20 28 20 33 0 4 -4 7 -8 7z"/>
</g>
</svg>
