<?xml version="1.0" standalone="no"?>
<!DOCTYPE svg PUBLIC "-//W3C//DTD SVG 20010904//EN"
 "http://www.w3.org/TR/2001/REC-SVG-20010904/DTD/svg10.dtd">
<svg version="1.0" xmlns="http://www.w3.org/2000/svg"
 width="128.000000pt" height="128.000000pt" viewBox="0 0 128.000000 128.000000"
 preserveAspectRatio="xMidYMid meet">
<metadata>
Created by potrace 1.16, written by Peter Selinger 2001-2019
</metadata>
<g transform="translate(0.000000,128.000000) scale(0.100000,-0.100000)"
fill="#000000" stroke="none">
<path d="M336 1180 c-7 0 -16 -3 -19 -7 -4 -3 -7 -14 -7 -24 0 -9 12 -26 26
-37 26 -18 27 -22 28 -126 1 -107 1 -107 -22 -101 -16 4 -33 -3 -59 -24 -20
-17 -40 -28 -44 -25 -4 2 -29 0 -56 -6 -26 -5 -66 -15 -88 -22 -22 -6 -44 -16
-50 -20 -6 -6 1 -18 20 -34 17 -13 37 -24 46 -24 8 0 36 14 62 30 26 17 54 30
62 30 8 0 23 -17 34 -39 20 -38 20 -39 0 -91 -11 -29 -27 -63 -35 -74 -8 -11
-14 -26 -14 -33 0 -7 -19 -32 -43 -55 -23 -24 -59 -64 -80 -90 -37 -45 -39
-50 -32 -98 4 -27 11 -53 17 -56 5 -3 20 -3 33 0 14 4 32 20 40 36 9 17 24 30
34 30 10 0 25 -8 34 -17 9 -11 18 -47 22 -93 4 -41 16 -99 27 -128 11 -29 29
-57 40 -63 14 -8 25 -6 44 6 13 8 24 20 24 25 0 6 -4 18 -9 28 -4 9 -16 40
-26 67 -9 28 -21 66 -27 85 -5 19 -11 74 -13 122 -4 87 -4 87 34 132 24 28 42
60 46 84 3 21 17 51 30 66 14 16 27 37 30 47 4 11 15 19 26 19 18 0 19 -4 13
-37 -5 -21 -8 -96 -8 -168 0 -109 3 -142 23 -202 12 -40 26 -75 31 -78 4 -3
11 -29 14 -59 5 -33 14 -60 26 -71 10 -9 29 -15 41 -13 15 2 25 13 31 33 5 17
6 43 3 59 -3 16 -21 61 -41 100 -20 39 -42 96 -49 126 -8 30 -17 65 -20 78 -6
19 -2 24 31 38 22 9 59 17 83 16 24 0 49 -6 57 -14 7 -7 16 -25 19 -40 6 -22
3 -27 -16 -30 -13 -2 -33 -17 -45 -35 -19 -29 -20 -36 -10 -94 12 -63 12 -63
101 -91 48 -15 91 -31 94 -35 3 -5 18 -14 33 -22 22 -11 35 -12 67 -3 21 7 46
12 56 12 10 0 32 10 49 23 17 13 50 34 72 46 33 18 45 21 62 12 16 -8 25 -7
44 8 22 18 23 25 21 112 -1 52 -2 97 -2 100 -1 3 -10 5 -21 5 -10 -1 -20 4
-22 9 -1 6 9 16 23 22 24 12 26 18 28 86 1 62 -2 78 -20 101 -17 22 -20 35
-15 70 6 37 3 48 -19 74 -14 16 -25 35 -25 40 0 6 -8 17 -18 24 -11 7 -24 23
-31 36 -8 15 -21 22 -42 22 -17 0 -45 -6 -62 -14 -18 -8 -43 -17 -57 -20 -14
-3 -38 -17 -55 -30 -22 -18 -27 -28 -19 -36 8 -8 17 -6 35 8 13 10 36 23 50
29 17 7 31 8 43 1 10 -5 26 -8 36 -5 10 3 32 -4 49 -14 20 -12 34 -30 38 -49
3 -17 10 -33 14 -36 5 -3 9 -15 9 -28 0 -12 4 -26 9 -32 5 -5 10 -45 11 -89 1
-44 -1 -106 -5 -138 -7 -53 -12 -62 -51 -95 -24 -20 -44 -42 -44 -50 0 -7 -22
-35 -50 -62 -27 -27 -63 -51 -81 -55 -25 -6 -38 -1 -69 24 -21 17 -50 31 -63
31 -13 0 -31 8 -40 18 -10 10 -17 23 -17 29 0 6 -7 16 -15 23 -13 11 -10 18
25 50 28 25 40 45 40 64 0 15 6 29 14 32 8 3 22 17 31 31 15 23 15 27 1 58 -9
18 -16 44 -16 57 0 12 2 75 4 138 3 63 7 133 10 155 3 22 2 56 -2 75 -5 21
-17 39 -31 46 -12 7 -28 17 -34 23 -6 6 -17 11 -24 11 -8 0 -16 -7 -19 -15 -4
-8 6 -24 22 -39 26 -22 29 -31 31 -97 2 -41 4 -85 5 -99 3 -22 -2 -26 -37 -33
-22 -5 -50 -11 -63 -13 -13 -3 -26 -14 -31 -25 -4 -12 -24 -27 -47 -35 -39
-14 -39 -14 -85 37 -27 29 -52 49 -58 45 -6 -4 -11 -16 -11 -26 0 -10 -4 -21
-9 -24 -5 -4 -19 -26 -30 -50 -12 -24 -30 -51 -41 -61 -16 -14 -23 -16 -32 -7
-10 10 -9 20 1 45 7 17 15 57 17 87 3 37 11 61 24 74 12 13 36 21 66 23 32 1
54 9 70 24 18 17 21 25 13 36 -6 7 -16 13 -22 13 -6 0 -19 7 -29 16 -16 16
-18 16 -24 0 -3 -9 -13 -16 -20 -16 -8 0 -20 11 -26 25 -9 20 -9 37 1 76 12
45 11 52 -4 70 -10 10 -31 19 -46 19 -15 0 -31 5 -34 10 -3 6 -12 10 -19 10z
m112 -221 c1 1 2 -6 2 -14 0 -8 -7 -15 -15 -15 -8 0 -15 4 -15 9 0 5 6 12 13
14 6 3 13 6 15 6z m310 -179 c9 0 22 -4 28 -8 6 -4 16 -29 23 -56 7 -27 8 -53
4 -57 -5 -5 -32 -9 -61 -10 -42 -2 -52 -5 -52 -20 0 -10 -12 -27 -26 -38 -19
-15 -41 -21 -74 -21 -28 0 -52 6 -59 13 -8 11 -4 28 17 70 27 56 27 56 85 63
31 4 57 11 57 15 0 5 9 18 20 29 11 11 28 20 38 20z m82 -180 c6 0 10 -7 10
-15 0 -8 -4 -15 -10 -15 -5 0 -10 7 -10 15 0 8 5 15 10 15z m-83 -52 c10 -2
19 -12 21 -22 2 -10 -2 -22 -10 -27 -7 -5 -16 -9 -20 -9 -5 0 -8 14 -8 31 0
24 4 30 17 27z"/>
<path d="M1216 1030 c-3 0 -7 -3 -7 -7 -1 -5 0 -17 1 -28 1 -11 7 -23 14 -27
6 -4 17 -8 24 -8 6 0 12 11 12 25 0 14 -8 29 -19 35 -11 5 -22 10 -25 10z"/>
<path d="M52 80 c-5 0 -18 -9 -30 -20 -12 -12 -22 -30 -22 -40 0 -11 7 -20 16
-20 8 0 22 16 30 35 7 19 14 37 14 40 0 3 -4 5 -8 5z"/>
</g>
</svg>
