<?xml version="1.0" standalone="no"?>
<!DOCTYPE svg PUBLIC "-//W3C//DTD SVG 20010904//EN"
 "http://www.w3.org/TR/2001/REC-SVG-20010904/DTD/svg10.dtd">
<svg version="1.0" xmlns="http://www.w3.org/2000/svg"
 width="128.000000pt" height="128.000000pt" viewBox="0 0 128.000000 128.000000"
 preserveAspectRatio="xMidYMid meet">
<metadata>
Created by potrace 1.16, written by Peter Selinger 2001-2019
</metadata>
<g transform="translate(0.000000,128.000000) scale(0.100000,-0.100000)"
fill="#000000" stroke="none">
<path d="M812 1249 c-15 0 -37 -4 -49 -9 -13 -5 -23 -16 -23 -25 0 -9 20 -28
45 -43 25 -15 48 -37 51 -50 4 -15 0 -30 -13 -45 -11 -12 -34 -45 -51 -73 -18
-28 -32 -56 -32 -63 0 -6 -18 -31 -40 -55 -37 -40 -39 -44 -28 -74 7 -18 24
-36 40 -43 15 -6 28 -15 28 -19 0 -4 -11 -15 -25 -24 -18 -12 -25 -25 -25 -47
0 -20 -9 -37 -26 -52 -14 -12 -42 -52 -62 -89 -20 -36 -50 -82 -66 -103 -26
-32 -28 -40 -20 -72 7 -28 19 -42 49 -59 22 -13 50 -28 63 -33 13 -6 36 -11
52 -11 16 0 42 11 58 25 16 14 48 57 72 95 36 61 42 81 46 143 3 40 7 78 10
86 2 8 -5 24 -17 37 -19 21 -20 24 -5 52 12 23 13 37 6 57 -6 15 -10 28 -10
31 0 2 14 -2 30 -11 17 -9 30 -20 30 -25 0 -6 21 -8 55 -4 45 6 56 4 61 -10 3
-9 9 -40 13 -68 5 -46 10 -55 37 -68 17 -8 42 -28 56 -44 21 -25 23 -33 14
-61 -8 -26 -18 -36 -48 -45 -21 -6 -60 -30 -86 -53 -26 -23 -87 -69 -136 -102
-49 -33 -95 -69 -102 -80 -7 -11 -15 -36 -19 -56 -5 -27 -2 -39 11 -50 9 -8
40 -20 68 -27 28 -7 73 -18 100 -23 28 -6 59 -17 70 -25 11 -8 44 -14 73 -14
46 0 53 3 53 19 0 11 -13 30 -30 43 -16 12 -43 33 -59 46 -18 13 -43 22 -64
22 -20 0 -39 5 -42 11 -4 6 30 47 76 92 46 45 102 91 124 102 25 13 39 27 37
37 -1 10 9 20 27 26 21 7 31 19 36 41 3 17 17 39 31 50 13 10 24 26 24 35 0 9
-4 16 -8 16 -5 0 -14 11 -20 25 -6 13 -26 32 -44 41 -18 9 -56 41 -85 71 -47
49 -51 57 -41 79 9 19 8 28 -7 44 -10 11 -23 20 -28 20 -6 0 -19 8 -30 17 -15
15 -35 17 -99 15 -44 -1 -89 -7 -100 -13 -14 -8 -23 -8 -31 0 -8 8 -4 11 15
11 22 0 29 7 39 38 6 20 15 42 19 47 4 6 10 23 14 38 4 16 17 33 32 39 15 7
36 33 51 61 13 27 22 55 19 63 -3 8 -15 14 -27 14 -12 0 -23 8 -26 20 -3 10
-23 28 -44 40 -22 11 -52 20 -67 19z m-37 -643 c6 -1 11 -10 13 -20 2 -9 -5
-35 -16 -59 -11 -23 -23 -49 -26 -57 -4 -8 -13 -26 -20 -39 -8 -13 -20 -27
-27 -32 -7 -4 -19 -3 -26 3 -8 6 -13 34 -13 70 0 33 5 68 11 80 6 11 29 28 52
39 23 10 47 17 52 15z"/>
<path d="M310 1174 c-25 3 -62 0 -82 -7 -21 -6 -38 -16 -38 -22 0 -7 16 -15
35 -18 19 -3 49 -15 65 -27 17 -12 35 -31 41 -42 6 -11 12 -64 14 -118 3 -97
3 -97 -21 -92 -13 2 -30 -1 -38 -7 -7 -6 -49 -21 -92 -32 -42 -11 -86 -25 -96
-30 -10 -5 -18 -16 -18 -23 0 -7 9 -25 21 -40 11 -15 31 -26 44 -26 12 0 36 7
51 15 16 8 44 15 62 15 18 0 46 7 62 15 28 15 30 14 36 -9 4 -17 -5 -43 -30
-87 -19 -35 -45 -84 -56 -108 -12 -25 -30 -51 -41 -59 -11 -7 -31 -26 -44 -40
-14 -15 -28 -36 -31 -47 -4 -11 -30 -45 -58 -77 -28 -32 -56 -58 -63 -58 -7 0
-15 -10 -18 -22 -3 -13 -7 -36 -8 -53 -2 -25 2 -30 23 -33 14 -1 35 3 46 10
12 7 36 21 53 31 32 18 32 18 96 -39 36 -31 65 -62 65 -69 0 -6 8 -19 18 -28
10 -10 35 -17 56 -17 29 0 38 5 45 22 5 13 14 40 20 61 9 27 10 81 5 195 -5
86 -7 213 -6 281 1 90 6 131 17 147 8 12 31 28 52 34 21 7 46 19 56 28 9 8 17
23 17 34 0 11 -20 31 -54 53 -50 31 -54 37 -60 82 -3 26 -12 64 -19 84 -6 19
-28 54 -47 77 -30 36 -42 43 -80 46z m38 -656 c12 -2 15 -19 15 -85 0 -44 -4
-129 -8 -187 -6 -93 -9 -106 -25 -106 -10 0 -33 18 -50 40 -17 22 -37 40 -44
40 -7 0 -20 6 -29 13 -14 10 -15 18 -7 48 5 19 30 57 55 82 38 40 45 54 45 86
0 23 7 46 16 56 9 9 23 15 32 13z"/>
</g>
</svg>
