<?xml version="1.0" standalone="no"?>
<!DOCTYPE svg PUBLIC "-//W3C//DTD SVG 20010904//EN"
 "http://www.w3.org/TR/2001/REC-SVG-20010904/DTD/svg10.dtd">
<svg version="1.0" xmlns="http://www.w3.org/2000/svg"
 width="128.000000pt" height="128.000000pt" viewBox="0 0 128.000000 128.000000"
 preserveAspectRatio="xMidYMid meet">
<metadata>
Created by potrace 1.16, written by Peter Selinger 2001-2019
</metadata>
<g transform="translate(0.000000,128.000000) scale(0.100000,-0.100000)"
fill="#000000" stroke="none">
<path d="M309 1280 c-36 0 -49 -4 -47 -12 3 -7 18 -15 34 -18 16 -4 37 -4 47
-2 9 2 17 11 17 18 0 10 -14 14 -51 14z"/>
<path d="M801 1257 c-35 -1 -67 -4 -72 -8 -6 -3 -5 -10 3 -17 8 -6 37 -14 67
-18 30 -4 55 -13 58 -21 3 -7 -2 -33 -11 -57 -9 -24 -28 -59 -42 -77 -13 -19
-42 -59 -65 -89 -22 -30 -42 -65 -46 -78 -3 -13 -1 -28 5 -34 7 -7 21 -2 47
17 33 26 37 27 52 12 15 -15 15 -21 -2 -82 -14 -53 -23 -69 -44 -78 -14 -7
-40 -21 -58 -33 -18 -12 -53 -43 -79 -69 -48 -47 -48 -47 -45 -134 2 -66 7
-91 20 -106 10 -11 21 -28 24 -37 4 -10 12 -18 20 -18 7 0 22 8 33 18 10 10
27 34 36 53 9 19 31 71 48 116 16 45 30 90 30 100 0 10 12 30 25 46 13 15 31
27 40 27 9 0 23 -16 31 -35 7 -19 14 -62 14 -95 0 -46 4 -62 16 -67 8 -3 28 4
44 16 16 11 33 21 38 21 5 0 16 -8 25 -18 10 -10 17 -35 17 -55 0 -20 -9 -51
-20 -70 -11 -18 -39 -49 -62 -68 -23 -19 -63 -48 -88 -66 -25 -17 -73 -46
-107 -63 -61 -30 -63 -32 -63 -69 0 -25 5 -41 15 -44 8 -4 60 -13 117 -21 57
-8 132 -16 168 -18 64 -3 65 -3 68 24 2 19 -3 31 -21 43 -14 8 -42 15 -63 14
-22 0 -63 3 -93 8 -30 4 -56 14 -59 21 -2 6 2 12 9 12 6 0 52 26 101 57 58 37
100 73 117 98 15 22 32 53 39 68 7 15 12 43 12 62 0 19 -13 57 -28 85 -16 28
-36 60 -45 70 -11 13 -29 20 -51 20 -22 0 -36 6 -40 16 -3 9 -6 33 -6 53 0 25
-7 44 -20 56 -13 12 -27 15 -45 11 -17 -4 -27 -2 -31 8 -3 8 2 29 12 47 9 18
17 50 18 70 0 26 -6 45 -22 62 -12 13 -22 27 -22 32 0 5 28 36 63 69 35 34 71
74 81 90 15 24 16 32 5 53 -7 13 -34 34 -60 47 -35 18 -61 24 -108 23z m-78
-628 c5 1 5 -9 1 -21 -3 -13 -13 -35 -21 -50 -7 -16 -18 -28 -23 -28 -5 0 -14
9 -20 19 -5 11 -10 24 -10 29 0 6 15 19 33 30 17 11 36 21 40 21z"/>
<path d="M423 1121 c-10 3 -29 3 -43 1 -14 -2 -31 -9 -37 -14 -7 -6 -13 -16
-13 -23 0 -7 23 -23 50 -36 34 -16 53 -32 58 -49 4 -14 6 -56 5 -95 -1 -38 -4
-79 -7 -91 -3 -12 -22 -34 -41 -48 -25 -19 -52 -29 -92 -33 -45 -5 -57 -3 -65
10 -5 10 -20 17 -33 17 -13 0 -27 -5 -30 -10 -4 -6 4 -24 17 -40 13 -16 34
-44 47 -61 19 -24 29 -30 50 -26 14 3 39 9 54 13 29 7 29 7 21 -52 -4 -32 -15
-76 -25 -99 -10 -22 -19 -47 -19 -55 0 -9 -9 -33 -20 -55 -11 -22 -20 -49 -20
-60 0 -12 -11 -32 -25 -45 -14 -13 -25 -34 -25 -47 0 -14 5 -33 10 -44 8 -14
17 -18 35 -13 14 3 25 2 26 -2 0 -5 2 -31 4 -57 1 -29 11 -60 22 -75 11 -15
28 -28 37 -30 14 -3 16 10 16 105 1 59 5 140 10 178 5 39 12 80 16 93 5 17 2
22 -12 23 -16 0 -15 2 4 9 13 6 22 18 22 30 0 12 4 29 10 39 5 10 18 60 28
110 17 79 24 97 51 122 18 16 38 29 46 29 7 0 27 16 44 35 17 20 31 39 31 44
0 4 -11 18 -25 31 -18 17 -38 24 -63 25 -28 0 -37 4 -36 17 1 9 5 41 8 70 7
53 6 57 -33 105 -21 28 -48 52 -58 54z"/>
</g>
</svg>
