<?xml version="1.0" standalone="no"?>
<!DOCTYPE svg PUBLIC "-//W3C//DTD SVG 20010904//EN"
 "http://www.w3.org/TR/2001/REC-SVG-20010904/DTD/svg10.dtd">
<svg version="1.0" xmlns="http://www.w3.org/2000/svg"
 width="56.000000pt" height="56.000000pt" viewBox="0 0 56.000000 56.000000"
 preserveAspectRatio="xMidYMid meet">
<metadata>
Created by potrace 1.16, written by Peter Selinger 2001-2019
</metadata>
<g transform="translate(0.000000,56.000000) scale(0.100000,-0.100000)"
fill="#000000" stroke="none">
<path d="M329 522 c-14 10 -28 15 -31 12 -3 -2 -3 -16 0 -29 2 -14 10 -25 17
-25 6 0 23 -9 35 -20 13 -12 31 -19 39 -18 9 2 17 10 19 19 1 9 -9 21 -25 29
-15 8 -40 22 -54 32z"/>
<path d="M252 450 c-5 0 -12 -3 -15 -7 -4 -3 -7 -14 -7 -23 0 -9 11 -27 24
-39 19 -18 31 -22 56 -16 19 4 36 2 45 -5 9 -8 15 -30 15 -56 0 -25 -6 -62
-12 -84 -7 -22 -16 -40 -20 -40 -5 0 -8 -7 -8 -14 0 -8 -19 -35 -43 -60 -24
-26 -47 -46 -52 -46 -6 0 -21 -9 -35 -20 -14 -10 -22 -22 -18 -25 4 -4 23 -1
42 6 20 7 36 17 36 21 0 4 6 8 14 8 8 0 30 18 49 40 18 22 43 59 55 82 12 24
26 69 30 100 6 39 5 65 -2 80 -6 12 -27 33 -45 45 -19 13 -46 23 -61 23 -16 0
-30 7 -34 15 -3 8 -9 15 -14 15z"/>
</g>
</svg>
