<?xml version="1.0" standalone="no"?>
<!DOCTYPE svg PUBLIC "-//W3C//DTD SVG 20010904//EN"
 "http://www.w3.org/TR/2001/REC-SVG-20010904/DTD/svg10.dtd">
<svg version="1.0" xmlns="http://www.w3.org/2000/svg"
 width="56.000000pt" height="56.000000pt" viewBox="0 0 56.000000 56.000000"
 preserveAspectRatio="xMidYMid meet">
<metadata>
Created by potrace 1.16, written by Peter Selinger 2001-2019
</metadata>
<g transform="translate(0.000000,56.000000) scale(0.100000,-0.100000)"
fill="#000000" stroke="none">
<path d="M268 559 c-27 0 -49 -7 -60 -18 -10 -10 -18 -22 -18 -26 0 -5 12 -21
27 -37 27 -28 27 -28 2 -54 -13 -14 -34 -30 -46 -35 -15 -5 -23 -17 -23 -31 0
-13 6 -43 14 -67 7 -25 17 -46 22 -48 5 -2 34 3 64 11 38 10 59 11 67 4 7 -6
13 -19 13 -30 0 -10 -7 -33 -16 -51 -10 -18 -28 -48 -42 -67 -14 -19 -44 -52
-66 -72 -41 -37 -41 -37 -3 -38 25 0 49 8 65 21 15 11 50 35 77 53 48 30 50
34 57 86 4 30 5 71 2 91 -4 26 -13 39 -37 52 -18 10 -45 21 -62 25 -16 5 -30
15 -30 23 0 7 17 22 38 32 29 13 37 23 37 44 0 14 -12 41 -26 60 -17 22 -23
40 -19 53 6 18 2 20 -37 19z"/>
</g>
</svg>
