<?xml version="1.0" standalone="no"?>
<!DOCTYPE svg PUBLIC "-//W3C//DTD SVG 20010904//EN"
 "http://www.w3.org/TR/2001/REC-SVG-20010904/DTD/svg10.dtd">
<svg version="1.0" xmlns="http://www.w3.org/2000/svg"
 width="56.000000pt" height="56.000000pt" viewBox="0 0 56.000000 56.000000"
 preserveAspectRatio="xMidYMid meet">
<metadata>
Created by potrace 1.16, written by Peter Selinger 2001-2019
</metadata>
<g transform="translate(0.000000,56.000000) scale(0.100000,-0.100000)"
fill="#000000" stroke="none">
<path d="M291 560 c-11 0 -23 -12 -31 -31 -11 -26 -11 -35 2 -57 12 -20 24
-25 54 -25 21 0 39 4 41 10 2 6 -10 21 -27 33 -25 18 -30 27 -26 46 5 19 2 24
-13 24z"/>
<path d="M344 560 c-2 0 -4 -12 -4 -26 0 -14 4 -23 9 -20 5 3 7 15 4 26 -3 11
-7 20 -9 20z"/>
<path d="M211 453 c-11 10 -13 8 -8 -10 3 -13 1 -26 -4 -29 -5 -3 -9 -18 -9
-34 0 -23 5 -30 30 -35 17 -4 37 -14 46 -22 11 -12 15 -37 15 -97 0 -44 1
-103 1 -131 1 -27 -2 -60 -7 -72 -6 -20 -4 -23 19 -23 19 0 26 5 26 20 0 12 7
20 16 20 11 0 14 5 10 16 -3 9 -1 46 5 82 8 51 7 77 -2 107 -7 22 -16 44 -21
50 -4 5 -8 17 -8 27 0 11 -11 30 -25 44 -14 14 -28 36 -31 49 -4 14 -13 25
-23 25 -9 0 -23 6 -30 13z"/>
</g>
</svg>
