<?xml version="1.0" standalone="no"?>
<!DOCTYPE svg PUBLIC "-//W3C//DTD SVG 20010904//EN"
 "http://www.w3.org/TR/2001/REC-SVG-20010904/DTD/svg10.dtd">
<svg version="1.0" xmlns="http://www.w3.org/2000/svg"
 width="56.000000pt" height="56.000000pt" viewBox="0 0 56.000000 56.000000"
 preserveAspectRatio="xMidYMid meet">
<metadata>
Created by potrace 1.16, written by Peter Selinger 2001-2019
</metadata>
<g transform="translate(0.000000,56.000000) scale(0.100000,-0.100000)"
fill="#000000" stroke="none">
<path d="M265 560 c-26 0 -35 -4 -36 -17 -1 -10 0 -32 1 -49 1 -18 -4 -35 -9
-39 -6 -3 -9 -10 -6 -15 3 -5 20 -1 37 8 17 10 36 26 42 36 8 14 8 20 -1 23
-7 3 -13 11 -13 19 0 8 5 14 10 14 6 0 10 5 10 10 0 6 -16 10 -35 10z"/>
<path d="M249 410 c-24 0 -39 -5 -43 -16 -4 -11 3 -18 25 -26 20 -7 36 -22 44
-42 11 -25 11 -50 3 -111 -5 -44 -14 -91 -20 -105 -6 -14 -14 -33 -19 -42 -5
-10 -9 -27 -9 -39 0 -11 5 -19 12 -17 6 2 26 31 44 65 17 33 42 88 53 121 21
58 21 64 7 112 -9 29 -26 62 -38 76 -16 16 -34 24 -59 24z"/>
</g>
</svg>
