<?xml version="1.0" standalone="no"?>
<!DOCTYPE svg PUBLIC "-//W3C//DTD SVG 20010904//EN"
 "http://www.w3.org/TR/2001/REC-SVG-20010904/DTD/svg10.dtd">
<svg version="1.0" xmlns="http://www.w3.org/2000/svg"
 width="56.000000pt" height="56.000000pt" viewBox="0 0 56.000000 56.000000"
 preserveAspectRatio="xMidYMid meet">
<metadata>
Created by potrace 1.16, written by Peter Selinger 2001-2019
</metadata>
<g transform="translate(0.000000,56.000000) scale(0.100000,-0.100000)"
fill="#000000" stroke="none">
<path d="M285 560 c-8 0 -15 -9 -15 -19 0 -11 12 -29 26 -40 15 -12 33 -21 40
-21 7 0 16 5 19 11 4 5 -1 19 -11 30 -9 10 -23 19 -31 19 -7 0 -13 5 -13 10 0
6 -7 10 -15 10z"/>
<path d="M273 459 c-10 -1 -30 -8 -46 -16 -23 -12 -25 -17 -17 -34 6 -10 17
-19 25 -19 7 0 17 5 20 10 3 6 17 10 31 10 24 0 24 -1 24 -97 0 -58 -6 -118
-15 -147 -8 -28 -23 -61 -32 -75 -9 -14 -29 -39 -45 -56 -23 -25 -25 -31 -12
-33 9 -2 28 5 43 15 14 11 39 38 55 60 15 23 33 60 38 84 5 24 12 77 15 118 3
47 1 88 -7 112 -7 21 -24 46 -36 54 -13 8 -31 15 -41 14z"/>
</g>
</svg>
