<?xml version="1.0" standalone="no"?>
<!DOCTYPE svg PUBLIC "-//W3C//DTD SVG 20010904//EN"
 "http://www.w3.org/TR/2001/REC-SVG-20010904/DTD/svg10.dtd">
<svg version="1.0" xmlns="http://www.w3.org/2000/svg"
 width="56.000000pt" height="56.000000pt" viewBox="0 0 56.000000 56.000000"
 preserveAspectRatio="xMidYMid meet">
<metadata>
Created by potrace 1.16, written by Peter Selinger 2001-2019
</metadata>
<g transform="translate(0.000000,56.000000) scale(0.100000,-0.100000)"
fill="#000000" stroke="none">
<path d="M268 559 c-14 1 -18 -7 -18 -33 0 -19 5 -38 10 -41 6 -3 10 -17 10
-30 0 -14 -20 -44 -50 -76 -31 -34 -49 -62 -48 -74 2 -14 13 -21 38 -26 19 -3
45 -11 57 -17 13 -7 27 -28 32 -50 7 -26 6 -55 -4 -102 -7 -36 -16 -75 -20
-88 -7 -22 -5 -23 26 -20 29 3 37 10 57 48 16 31 22 62 22 106 0 47 -5 69 -23
95 -12 19 -41 43 -65 53 -23 11 -42 25 -42 32 0 7 20 30 44 50 24 20 49 47 55
60 9 20 5 29 -27 68 -20 25 -45 45 -54 45z"/>
</g>
</svg>
