<?xml version="1.0" standalone="no"?>
<!DOCTYPE svg PUBLIC "-//W3C//DTD SVG 20010904//EN"
 "http://www.w3.org/TR/2001/REC-SVG-20010904/DTD/svg10.dtd">
<svg version="1.0" xmlns="http://www.w3.org/2000/svg"
 width="56.000000pt" height="56.000000pt" viewBox="0 0 56.000000 56.000000"
 preserveAspectRatio="xMidYMid meet">
<metadata>
Created by potrace 1.16, written by Peter Selinger 2001-2019
</metadata>
<g transform="translate(0.000000,56.000000) scale(0.100000,-0.100000)"
fill="#000000" stroke="none">
<path d="M287 560 c-23 0 -41 -8 -57 -25 -20 -21 -21 -27 -9 -42 8 -10 20 -24
27 -31 6 -7 12 -18 12 -23 0 -5 -20 -30 -45 -55 -25 -24 -45 -53 -45 -63 0
-10 9 -26 20 -36 14 -13 28 -16 55 -11 20 4 42 9 49 12 7 3 18 -7 24 -21 7
-14 12 -37 12 -51 0 -13 -9 -44 -21 -69 -11 -24 -37 -59 -58 -77 -20 -18 -47
-41 -61 -50 -25 -17 -25 -17 5 -17 17 -1 55 12 84 27 30 15 64 40 75 56 16 21
22 46 24 105 3 61 0 84 -12 104 -11 16 -33 29 -61 36 -27 7 -45 17 -45 25 0 8
13 24 30 36 16 12 33 33 36 46 5 18 0 35 -16 56 -21 28 -21 32 -6 43 9 7 16
15 16 19 0 3 -15 6 -33 6z"/>
</g>
</svg>
