<?xml version="1.0" standalone="no"?>
<!DOCTYPE svg PUBLIC "-//W3C//DTD SVG 20010904//EN"
 "http://www.w3.org/TR/2001/REC-SVG-20010904/DTD/svg10.dtd">
<svg version="1.0" xmlns="http://www.w3.org/2000/svg"
 width="56.000000pt" height="56.000000pt" viewBox="0 0 56.000000 56.000000"
 preserveAspectRatio="xMidYMid meet">
<metadata>
Created by potrace 1.16, written by Peter Selinger 2001-2019
</metadata>
<g transform="translate(0.000000,56.000000) scale(0.100000,-0.100000)"
fill="#000000" stroke="none">
<path d="M283 560 c-34 0 -35 -1 -21 -22 8 -13 21 -33 29 -46 13 -21 11 -25
-29 -62 -27 -24 -42 -46 -40 -57 2 -13 21 -20 78 -30 41 -7 76 -10 79 -7 3 3
-11 21 -32 40 -21 19 -35 39 -32 43 2 5 21 12 40 15 24 5 35 12 35 24 0 9 -15
24 -33 32 -23 11 -33 23 -35 43 -3 24 -8 27 -39 27z"/>
<path d="M398 318 c-12 2 -23 -8 -34 -35 -9 -21 -20 -46 -25 -55 -5 -10 -9
-29 -9 -43 0 -14 -4 -25 -9 -25 -5 0 -36 -25 -68 -56 -31 -31 -68 -60 -80 -65
-13 -5 -23 -15 -23 -24 0 -9 9 -15 23 -15 12 0 41 12 63 28 23 15 57 45 75 68
19 23 45 54 58 70 12 16 30 44 38 63 8 18 13 45 11 59 -2 16 -10 28 -20 30z"/>
</g>
</svg>
