<?xml version="1.0" standalone="no"?>
<!DOCTYPE svg PUBLIC "-//W3C//DTD SVG 20010904//EN"
 "http://www.w3.org/TR/2001/REC-SVG-20010904/DTD/svg10.dtd">
<svg version="1.0" xmlns="http://www.w3.org/2000/svg"
 width="56.000000pt" height="56.000000pt" viewBox="0 0 56.000000 56.000000"
 preserveAspectRatio="xMidYMid meet">
<metadata>
Created by potrace 1.16, written by Peter Selinger 2001-2019
</metadata>
<g transform="translate(0.000000,56.000000) scale(0.100000,-0.100000)"
fill="#000000" stroke="none">
<path d="M221 560 c-29 0 -40 -4 -44 -19 -2 -10 -1 -24 3 -31 4 -7 22 -15 40
-19 19 -3 35 -11 37 -17 2 -6 -21 -37 -52 -68 -48 -50 -53 -60 -44 -78 10 -18
17 -20 68 -14 32 4 65 4 74 0 9 -3 21 -22 26 -41 6 -20 8 -57 4 -82 -3 -25
-16 -64 -29 -87 -12 -22 -42 -54 -65 -70 -43 -29 -43 -29 0 -32 40 -3 46 0 80
39 20 24 41 52 48 63 7 12 17 32 23 45 7 16 7 39 -2 81 -8 41 -21 68 -46 95
-31 34 -38 37 -73 32 -22 -3 -41 -1 -44 4 -3 4 19 33 50 63 50 50 54 57 44 79
-8 18 -17 23 -35 19 -19 -3 -24 0 -24 17 0 18 -6 21 -39 21z"/>
</g>
</svg>
