<?xml version="1.0" standalone="no"?>
<!DOCTYPE svg PUBLIC "-//W3C//DTD SVG 20010904//EN"
 "http://www.w3.org/TR/2001/REC-SVG-20010904/DTD/svg10.dtd">
<svg version="1.0" xmlns="http://www.w3.org/2000/svg"
 width="56.000000pt" height="56.000000pt" viewBox="0 0 56.000000 56.000000"
 preserveAspectRatio="xMidYMid meet">
<metadata>
Created by potrace 1.16, written by Peter Selinger 2001-2019
</metadata>
<g transform="translate(0.000000,56.000000) scale(0.100000,-0.100000)"
fill="#000000" stroke="none">
<path d="M140 560 c-16 0 -21 -5 -18 -22 2 -13 10 -23 18 -23 8 0 16 10 18 23
3 17 -2 22 -18 22z"/>
<path d="M222 540 c-20 19 -22 19 -22 3 0 -10 14 -27 31 -38 17 -11 37 -32 45
-47 8 -15 14 -30 14 -33 0 -3 -16 -13 -36 -21 -24 -10 -40 -26 -50 -51 -9 -19
-13 -42 -10 -49 3 -9 21 -14 48 -14 24 0 48 -4 54 -8 6 -4 16 -17 23 -29 6
-12 11 -44 11 -71 0 -27 -7 -63 -16 -81 -9 -17 -29 -38 -44 -46 -16 -8 -51
-15 -79 -15 -27 0 -53 -5 -57 -11 -3 -6 0 -15 7 -20 8 -5 28 -9 44 -9 17 0 47
5 67 10 21 6 51 22 67 36 17 14 37 39 46 56 8 17 15 56 15 87 -1 31 -8 71 -18
91 -10 22 -31 42 -54 53 -21 10 -38 23 -38 27 0 5 8 14 18 19 11 6 30 5 57 -4
28 -10 43 -11 52 -3 7 6 13 18 13 27 0 10 -14 31 -30 48 -17 17 -51 40 -75 52
-25 12 -48 21 -53 21 -5 0 -18 9 -30 20z"/>
<path d="M402 40 c-4 0 -18 -9 -32 -20 -25 -20 -25 -20 0 -20 14 0 31 4 39 9
7 5 10 14 7 20 -4 6 -10 11 -14 11z"/>
</g>
</svg>
