<?xml version="1.0" standalone="no"?>
<!DOCTYPE svg PUBLIC "-//W3C//DTD SVG 20010904//EN"
 "http://www.w3.org/TR/2001/REC-SVG-20010904/DTD/svg10.dtd">
<svg version="1.0" xmlns="http://www.w3.org/2000/svg"
 width="56.000000pt" height="56.000000pt" viewBox="0 0 56.000000 56.000000"
 preserveAspectRatio="xMidYMid meet">
<metadata>
Created by potrace 1.16, written by Peter Selinger 2001-2019
</metadata>
<g transform="translate(0.000000,56.000000) scale(0.100000,-0.100000)"
fill="#000000" stroke="none">
<path d="M281 560 c-10 0 -22 -7 -25 -16 -3 -9 -6 -31 -6 -50 0 -23 -5 -34
-15 -34 -8 0 -21 -12 -28 -27 -8 -16 -12 -34 -10 -40 3 -7 14 -13 26 -13 12 0
31 -3 42 -6 13 -3 25 -20 33 -44 6 -22 12 -71 12 -109 0 -48 -6 -81 -19 -108
-10 -21 -26 -54 -34 -73 -9 -19 -14 -36 -12 -39 3 -2 15 3 27 11 13 9 28 26
35 39 6 13 19 42 29 64 15 31 19 64 19 141 0 88 -3 105 -20 124 -11 12 -32 28
-47 36 -16 8 -28 21 -28 29 0 7 9 17 20 20 16 5 20 15 20 51 0 36 -3 44 -19
44z"/>
</g>
</svg>
