<?xml version="1.0" standalone="no"?>
<!DOCTYPE svg PUBLIC "-//W3C//DTD SVG 20010904//EN"
 "http://www.w3.org/TR/2001/REC-SVG-20010904/DTD/svg10.dtd">
<svg version="1.0" xmlns="http://www.w3.org/2000/svg"
 width="56.000000pt" height="56.000000pt" viewBox="0 0 56.000000 56.000000"
 preserveAspectRatio="xMidYMid meet">
<metadata>
Created by potrace 1.16, written by Peter Selinger 2001-2019
</metadata>
<g transform="translate(0.000000,56.000000) scale(0.100000,-0.100000)"
fill="#000000" stroke="none">
<path d="M205 560 c-23 0 -34 -5 -37 -17 -3 -10 -1 -32 4 -50 4 -17 17 -34 27
-38 11 -3 22 -12 25 -20 3 -9 -10 -25 -36 -42 -23 -15 -46 -36 -52 -45 -7 -11
-7 -26 0 -45 7 -20 17 -29 37 -31 18 -2 45 7 77 28 27 17 54 28 61 25 6 -4 17
-22 25 -41 8 -18 14 -50 14 -69 0 -21 -11 -55 -24 -78 -14 -23 -43 -60 -65
-82 -23 -21 -41 -43 -41 -47 0 -4 22 -8 49 -8 45 0 53 4 75 33 13 17 34 51 46
74 12 24 24 60 27 82 4 29 -1 53 -21 95 -15 32 -43 68 -66 88 -41 32 -41 32
-14 53 20 16 25 26 20 43 -4 12 -25 31 -47 43 -22 11 -42 26 -46 34 -3 9 -18
15 -38 15z"/>
<path d="M365 560 c-8 0 -15 -4 -15 -10 0 -5 7 -10 15 -10 8 0 15 5 15 10 0 6
-7 10 -15 10z"/>
</g>
</svg>
