<?xml version="1.0" standalone="no"?>
<!DOCTYPE svg PUBLIC "-//W3C//DTD SVG 20010904//EN"
 "http://www.w3.org/TR/2001/REC-SVG-20010904/DTD/svg10.dtd">
<svg version="1.0" xmlns="http://www.w3.org/2000/svg"
 width="56.000000pt" height="56.000000pt" viewBox="0 0 56.000000 56.000000"
 preserveAspectRatio="xMidYMid meet">
<metadata>
Created by potrace 1.16, written by Peter Selinger 2001-2019
</metadata>
<g transform="translate(0.000000,56.000000) scale(0.100000,-0.100000)"
fill="#000000" stroke="none">
<path d="M228 560 c-5 0 -8 -6 -8 -14 0 -8 4 -26 10 -41 8 -21 6 -29 -15 -47
-14 -12 -25 -30 -25 -40 0 -10 7 -29 16 -42 8 -13 26 -27 39 -30 17 -4 28 -17
36 -46 10 -32 9 -59 -1 -128 -7 -48 -16 -103 -21 -122 -5 -19 -9 -38 -9 -42 0
-5 8 -8 19 -8 10 0 25 10 33 23 9 12 18 38 21 57 3 19 10 55 15 80 6 25 8 76
5 114 -5 60 -11 74 -45 118 -22 27 -38 51 -36 52 1 1 16 10 32 20 30 19 30 19
-15 57 -24 21 -47 39 -51 39z"/>
<path d="M325 560 c-19 0 -35 -5 -35 -10 0 -6 12 -15 26 -20 14 -6 30 -10 35
-10 5 0 9 9 9 20 0 16 -7 20 -35 20z"/>
</g>
</svg>
