<?xml version="1.0" standalone="no"?>
<!DOCTYPE svg PUBLIC "-//W3C//DTD SVG 20010904//EN"
 "http://www.w3.org/TR/2001/REC-SVG-20010904/DTD/svg10.dtd">
<svg version="1.0" xmlns="http://www.w3.org/2000/svg"
 width="56.000000pt" height="56.000000pt" viewBox="0 0 56.000000 56.000000"
 preserveAspectRatio="xMidYMid meet">
<metadata>
Created by potrace 1.16, written by Peter Selinger 2001-2019
</metadata>
<g transform="translate(0.000000,56.000000) scale(0.100000,-0.100000)"
fill="#000000" stroke="none">
<path d="M251 560 c-14 0 -21 -6 -21 -19 0 -11 -4 -23 -10 -26 -5 -3 -10 -18
-10 -33 0 -15 7 -38 16 -50 8 -12 22 -22 30 -22 8 0 14 -5 14 -10 0 -6 -12
-23 -26 -38 -14 -15 -30 -37 -35 -50 -6 -15 -5 -30 1 -43 6 -10 14 -19 17 -19
4 0 15 8 25 17 15 13 21 14 31 4 7 -7 12 -40 11 -84 0 -61 -5 -81 -31 -129
-30 -57 -30 -58 -9 -58 13 0 32 10 44 23 11 12 25 35 31 50 6 16 11 66 11 112
0 46 -4 87 -10 90 -5 3 -10 14 -10 23 0 10 -9 24 -20 32 -11 8 -20 20 -20 26
0 6 10 24 22 39 22 28 22 28 -3 46 -13 11 -30 24 -37 30 -8 7 -11 21 -8 34 3
13 9 30 12 39 4 12 0 16 -15 16z"/>
</g>
</svg>
