<?xml version="1.0" standalone="no"?>
<!DOCTYPE svg PUBLIC "-//W3C//DTD SVG 20010904//EN"
 "http://www.w3.org/TR/2001/REC-SVG-20010904/DTD/svg10.dtd">
<svg version="1.0" xmlns="http://www.w3.org/2000/svg"
 width="56.000000pt" height="56.000000pt" viewBox="0 0 56.000000 56.000000"
 preserveAspectRatio="xMidYMid meet">
<metadata>
Created by potrace 1.16, written by Peter Selinger 2001-2019
</metadata>
<g transform="translate(0.000000,56.000000) scale(0.100000,-0.100000)"
fill="#000000" stroke="none">
<path d="M296 559 c-12 -1 -41 -23 -66 -51 -35 -40 -42 -53 -34 -66 6 -9 25
-22 42 -28 18 -5 36 -14 42 -20 5 -5 11 -32 12 -59 1 -28 -6 -80 -14 -116 -9
-36 -23 -83 -33 -105 -9 -21 -21 -47 -26 -56 -5 -10 -9 -27 -9 -39 0 -14 5
-19 18 -17 9 2 29 27 44 58 14 30 33 72 43 93 9 20 22 58 30 85 8 26 15 63 15
83 0 20 -7 50 -16 67 -8 17 -30 41 -47 54 -18 12 -34 23 -37 25 -2 2 2 8 10
13 8 6 25 10 37 10 12 0 25 5 29 11 3 6 1 22 -7 35 -7 14 -21 24 -33 23z"/>
</g>
</svg>
