<?xml version="1.0" standalone="no"?>
<!DOCTYPE svg PUBLIC "-//W3C//DTD SVG 20010904//EN"
 "http://www.w3.org/TR/2001/REC-SVG-20010904/DTD/svg10.dtd">
<svg version="1.0" xmlns="http://www.w3.org/2000/svg"
 width="56.000000pt" height="56.000000pt" viewBox="0 0 56.000000 56.000000"
 preserveAspectRatio="xMidYMid meet">
<metadata>
Created by potrace 1.16, written by Peter Selinger 2001-2019
</metadata>
<g transform="translate(0.000000,56.000000) scale(0.100000,-0.100000)"
fill="#000000" stroke="none">
<path d="M270 560 c-5 0 -10 -2 -10 -4 0 -3 4 -16 10 -30 8 -22 5 -28 -22 -48
-17 -13 -46 -38 -64 -56 -24 -23 -34 -43 -34 -63 0 -30 0 -30 48 -24 26 4 59
2 75 -4 15 -6 31 -21 37 -35 6 -16 4 -42 -4 -77 -7 -30 -23 -72 -35 -94 -13
-22 -31 -49 -41 -60 -10 -11 -21 -30 -25 -42 -5 -19 -2 -23 13 -23 12 0 33 17
51 42 17 23 45 71 62 107 18 36 36 74 41 83 4 10 8 32 8 48 0 17 -7 44 -15 59
-8 16 -27 33 -42 39 -15 6 -40 14 -55 18 -19 4 -28 13 -28 25 0 12 11 24 28
30 20 8 35 8 57 -1 17 -7 39 -14 51 -17 14 -3 23 1 28 13 4 10 0 24 -9 34 -8
9 -38 27 -65 40 -28 13 -50 27 -50 32 0 4 -4 8 -10 8z"/>
<path d="M347 60 c-3 0 -9 -5 -12 -10 -3 -6 -3 -19 0 -30 5 -15 15 -20 41 -20
19 0 34 4 34 9 0 5 -13 19 -29 30 -16 12 -32 21 -34 21z"/>
</g>
</svg>
