<?xml version="1.0" standalone="no"?>
<!DOCTYPE svg PUBLIC "-//W3C//DTD SVG 20010904//EN"
 "http://www.w3.org/TR/2001/REC-SVG-20010904/DTD/svg10.dtd">
<svg version="1.0" xmlns="http://www.w3.org/2000/svg"
 width="56.000000pt" height="56.000000pt" viewBox="0 0 56.000000 56.000000"
 preserveAspectRatio="xMidYMid meet">
<metadata>
Created by potrace 1.16, written by Peter Selinger 2001-2019
</metadata>
<g transform="translate(0.000000,56.000000) scale(0.100000,-0.100000)"
fill="#000000" stroke="none">
<path d="M310 536 c-25 1 -55 0 -67 -3 -13 -2 -23 -11 -23 -18 0 -8 14 -22 30
-30 27 -14 29 -18 19 -38 -7 -12 -32 -49 -56 -81 -26 -37 -43 -71 -43 -88 0
-15 5 -28 11 -28 5 0 27 11 47 25 20 14 45 25 55 25 10 0 27 -5 38 -10 10 -6
26 -24 34 -40 8 -16 15 -48 15 -72 -1 -27 -12 -65 -30 -103 -17 -33 -30 -63
-30 -67 0 -5 6 -8 14 -8 8 0 28 16 44 36 16 19 34 53 41 74 8 28 9 56 1 102
-5 35 -10 66 -10 70 0 5 -19 21 -42 38 -23 17 -54 30 -70 30 -15 0 -28 2 -28
5 0 3 23 35 51 72 31 41 49 73 47 87 -3 18 -10 21 -48 22z"/>
</g>
</svg>
