<?xml version="1.0" standalone="no"?>
<!DOCTYPE svg PUBLIC "-//W3C//DTD SVG 20010904//EN"
 "http://www.w3.org/TR/2001/REC-SVG-20010904/DTD/svg10.dtd">
<svg version="1.0" xmlns="http://www.w3.org/2000/svg"
 width="56.000000pt" height="56.000000pt" viewBox="0 0 56.000000 56.000000"
 preserveAspectRatio="xMidYMid meet">
<metadata>
Created by potrace 1.16, written by Peter Selinger 2001-2019
</metadata>
<g transform="translate(0.000000,56.000000) scale(0.100000,-0.100000)"
fill="#000000" stroke="none">
<path d="M238 559 c-23 1 -28 -3 -28 -22 0 -13 9 -32 20 -42 11 -10 20 -24 20
-32 0 -8 -6 -21 -14 -29 -8 -8 -19 -14 -24 -14 -5 0 -17 -11 -26 -25 -9 -13
-16 -40 -16 -59 0 -26 5 -36 20 -41 10 -3 33 1 49 9 17 9 34 16 39 16 5 0 14
-23 20 -51 7 -28 12 -71 12 -97 0 -25 -5 -61 -12 -79 -9 -24 -9 -36 -1 -44 8
-8 18 -1 36 23 13 18 28 47 32 63 4 17 9 58 12 92 3 34 0 70 -6 81 -6 11 -25
28 -42 36 -18 9 -49 16 -71 16 -21 0 -38 4 -38 8 0 5 11 19 24 31 13 12 34 21
47 20 13 -1 32 -1 42 -1 9 1 17 9 17 18 0 8 -19 39 -42 69 -33 41 -49 54 -70
54z"/>
<path d="M265 20 c-8 0 -15 -4 -15 -10 0 -5 7 -10 15 -10 8 0 15 5 15 10 0 6
-7 10 -15 10z"/>
</g>
</svg>
