<?xml version="1.0" standalone="no"?>
<!DOCTYPE svg PUBLIC "-//W3C//DTD SVG 20010904//EN"
 "http://www.w3.org/TR/2001/REC-SVG-20010904/DTD/svg10.dtd">
<svg version="1.0" xmlns="http://www.w3.org/2000/svg"
 width="56.000000pt" height="56.000000pt" viewBox="0 0 56.000000 56.000000"
 preserveAspectRatio="xMidYMid meet">
<metadata>
Created by potrace 1.16, written by Peter Selinger 2001-2019
</metadata>
<g transform="translate(0.000000,56.000000) scale(0.100000,-0.100000)"
fill="#000000" stroke="none">
<path d="M311 560 c-35 0 -41 -3 -47 -26 -5 -18 -1 -31 15 -48 11 -12 21 -28
21 -34 0 -7 -7 -25 -17 -40 -9 -15 -27 -44 -41 -64 -17 -26 -22 -45 -18 -63 4
-14 12 -25 19 -25 7 0 20 6 29 13 9 6 25 27 35 46 11 19 24 36 29 38 6 2 16
-14 22 -35 7 -22 12 -51 12 -65 0 -15 -8 -40 -18 -56 -10 -16 -66 -67 -125
-112 -99 -77 -106 -84 -81 -87 15 -2 47 6 71 18 24 12 43 25 43 30 0 5 13 11
28 15 20 4 37 21 60 59 18 29 44 64 57 76 21 19 25 33 25 77 0 40 -5 58 -20
73 -11 11 -31 20 -45 20 -14 0 -25 6 -25 13 0 6 9 23 20 37 11 14 20 34 20 46
0 11 -9 29 -19 38 -11 10 -17 25 -14 37 5 16 0 19 -36 19z"/>
</g>
</svg>
