<?xml version="1.0" standalone="no"?>
<!DOCTYPE svg PUBLIC "-//W3C//DTD SVG 20010904//EN"
 "http://www.w3.org/TR/2001/REC-SVG-20010904/DTD/svg10.dtd">
<svg version="1.0" xmlns="http://www.w3.org/2000/svg"
 width="56.000000pt" height="56.000000pt" viewBox="0 0 56.000000 56.000000"
 preserveAspectRatio="xMidYMid meet">
<metadata>
Created by potrace 1.16, written by Peter Selinger 2001-2019
</metadata>
<g transform="translate(0.000000,56.000000) scale(0.100000,-0.100000)"
fill="#000000" stroke="none">
<path d="M311 559 c-9 0 -26 -10 -38 -22 -13 -13 -23 -30 -23 -40 0 -9 -18
-35 -41 -58 -22 -22 -38 -46 -36 -52 2 -7 22 -15 46 -18 23 -3 46 -10 52 -16
5 -5 16 -36 23 -67 10 -40 11 -70 5 -99 -5 -23 -17 -58 -27 -77 -9 -19 -27
-49 -39 -66 -13 -17 -23 -34 -23 -37 0 -4 13 -7 29 -7 22 0 38 10 64 41 19 22
38 55 42 72 4 18 9 58 12 90 3 36 0 71 -8 90 -7 18 -24 49 -37 70 -14 20 -30
37 -37 37 -7 0 -15 6 -18 14 -3 7 0 19 6 25 6 6 16 11 22 11 6 0 21 10 33 23
12 13 22 31 22 39 0 9 -3 23 -6 32 -3 9 -14 16 -23 15z"/>
</g>
</svg>
