<?xml version="1.0" standalone="no"?>
<!DOCTYPE svg PUBLIC "-//W3C//DTD SVG 20010904//EN"
 "http://www.w3.org/TR/2001/REC-SVG-20010904/DTD/svg10.dtd">
<svg version="1.0" xmlns="http://www.w3.org/2000/svg"
 width="56.000000pt" height="56.000000pt" viewBox="0 0 56.000000 56.000000"
 preserveAspectRatio="xMidYMid meet">
<metadata>
Created by potrace 1.16, written by Peter Selinger 2001-2019
</metadata>
<g transform="translate(0.000000,56.000000) scale(0.100000,-0.100000)"
fill="#000000" stroke="none">
<path d="M282 560 c-21 0 -32 -7 -40 -25 -7 -14 -12 -33 -12 -41 0 -8 -9 -28
-21 -43 -11 -16 -19 -39 -17 -52 2 -14 11 -25 23 -28 11 -2 32 -12 46 -22 16
-11 30 -33 35 -56 4 -21 9 -49 10 -63 1 -14 -4 -46 -11 -73 -8 -26 -22 -62
-32 -80 -10 -17 -21 -33 -25 -35 -5 -2 -8 -12 -8 -23 0 -10 3 -19 6 -19 3 0
14 5 25 10 10 6 19 17 19 25 0 8 3 15 8 15 4 0 13 15 20 32 8 18 18 42 23 53
5 11 10 34 11 50 1 17 1 55 0 86 -2 52 -6 61 -48 108 -25 28 -43 55 -39 61 3
5 11 10 17 10 6 0 19 7 29 16 16 15 17 18 3 39 -10 16 -12 25 -5 30 6 3 11 10
11 16 0 5 -13 9 -28 9z"/>
</g>
</svg>
