<?xml version="1.0" standalone="no"?>
<!DOCTYPE svg PUBLIC "-//W3C//DTD SVG 20010904//EN"
 "http://www.w3.org/TR/2001/REC-SVG-20010904/DTD/svg10.dtd">
<svg version="1.0" xmlns="http://www.w3.org/2000/svg"
 width="56.000000pt" height="56.000000pt" viewBox="0 0 56.000000 56.000000"
 preserveAspectRatio="xMidYMid meet">
<metadata>
Created by potrace 1.16, written by Peter Selinger 2001-2019
</metadata>
<g transform="translate(0.000000,56.000000) scale(0.100000,-0.100000)"
fill="#000000" stroke="none">
<path d="M275 560 c-8 0 -17 -11 -21 -24 -3 -13 0 -34 6 -46 10 -19 8 -26 -18
-54 -16 -17 -35 -41 -41 -54 -7 -12 -9 -32 -6 -43 6 -18 12 -20 42 -14 25 4
38 2 44 -7 5 -7 9 -55 9 -107 0 -52 -5 -111 -11 -130 -6 -20 -15 -44 -20 -53
-5 -10 -9 -20 -9 -23 0 -3 6 -5 14 -5 7 0 21 10 29 22 16 23 16 23 16 1 1 -18
7 -23 26 -23 15 0 25 6 25 15 0 8 -11 22 -24 32 -23 18 -23 18 -5 72 11 30 19
80 19 111 0 32 -3 71 -6 89 -4 17 -17 42 -29 55 -16 17 -30 23 -44 19 -12 -3
-21 -1 -21 5 0 5 6 15 14 21 8 7 30 15 50 18 19 3 37 12 40 19 3 8 -10 25 -29
40 -19 14 -35 35 -35 45 0 11 -7 19 -15 19z"/>
</g>
</svg>
