<?xml version="1.0" standalone="no"?>
<!DOCTYPE svg PUBLIC "-//W3C//DTD SVG 20010904//EN"
 "http://www.w3.org/TR/2001/REC-SVG-20010904/DTD/svg10.dtd">
<svg version="1.0" xmlns="http://www.w3.org/2000/svg"
 width="56.000000pt" height="56.000000pt" viewBox="0 0 56.000000 56.000000"
 preserveAspectRatio="xMidYMid meet">
<metadata>
Created by potrace 1.16, written by Peter Selinger 2001-2019
</metadata>
<g transform="translate(0.000000,56.000000) scale(0.100000,-0.100000)"
fill="#000000" stroke="none">
<path d="M260 560 c-6 0 -10 -6 -10 -13 0 -7 5 -18 12 -25 9 -9 7 -17 -10 -35
-12 -13 -22 -33 -22 -45 0 -15 9 -26 25 -32 14 -5 30 -21 35 -34 5 -13 11 -42
13 -64 3 -21 1 -62 -5 -91 -5 -28 -18 -71 -29 -94 -11 -23 -26 -52 -33 -64 -7
-13 -21 -32 -30 -42 -17 -19 -17 -20 39 -20 51 0 55 2 50 20 -4 12 6 51 26 97
25 60 32 91 32 142 0 40 -7 81 -17 105 -10 22 -22 47 -27 55 -5 8 -12 21 -15
28 -4 7 1 21 10 31 9 10 16 22 16 27 0 6 -11 20 -25 32 -14 12 -30 22 -35 22z"/>
</g>
</svg>
