<?xml version="1.0" standalone="no"?>
<!DOCTYPE svg PUBLIC "-//W3C//DTD SVG 20010904//EN"
 "http://www.w3.org/TR/2001/REC-SVG-20010904/DTD/svg10.dtd">
<svg version="1.0" xmlns="http://www.w3.org/2000/svg"
 width="56.000000pt" height="56.000000pt" viewBox="0 0 56.000000 56.000000"
 preserveAspectRatio="xMidYMid meet">
<metadata>
Created by potrace 1.16, written by Peter Selinger 2001-2019
</metadata>
<g transform="translate(0.000000,56.000000) scale(0.100000,-0.100000)"
fill="#000000" stroke="none">
<path d="M265 560 c-22 0 -35 -5 -35 -13 0 -7 7 -22 15 -33 8 -10 15 -25 15
-33 0 -8 -14 -28 -30 -45 -17 -17 -41 -53 -54 -81 -12 -27 -21 -56 -19 -62 3
-7 13 -13 22 -13 10 0 43 18 74 40 56 41 56 41 72 11 8 -17 15 -45 15 -64 0
-18 -11 -56 -25 -83 -14 -27 -25 -50 -25 -51 0 -2 5 -3 10 -3 6 0 25 16 43 36
18 21 35 51 40 68 4 17 5 50 2 73 -4 24 -16 52 -30 68 -21 22 -30 25 -60 19
-23 -4 -35 -2 -35 5 0 6 16 21 35 33 19 13 38 31 41 41 4 12 -2 27 -15 41 -12
12 -21 28 -21 34 0 7 -15 12 -35 12z"/>
<path d="M281 120 c-11 0 -31 -15 -44 -32 -14 -18 -30 -43 -36 -55 -6 -12 -11
-24 -11 -26 0 -2 27 -5 60 -5 57 -1 59 0 50 19 -6 10 -15 19 -21 19 -6 0 -7 9
-3 23 3 12 11 24 15 25 5 2 9 10 9 18 0 8 -9 14 -19 14z"/>
</g>
</svg>
