<?xml version="1.0" standalone="no"?>
<!DOCTYPE svg PUBLIC "-//W3C//DTD SVG 20010904//EN"
 "http://www.w3.org/TR/2001/REC-SVG-20010904/DTD/svg10.dtd">
<svg version="1.0" xmlns="http://www.w3.org/2000/svg"
 width="56.000000pt" height="56.000000pt" viewBox="0 0 56.000000 56.000000"
 preserveAspectRatio="xMidYMid meet">
<metadata>
Created by potrace 1.16, written by Peter Selinger 2001-2019
</metadata>
<g transform="translate(0.000000,56.000000) scale(0.100000,-0.100000)"
fill="#000000" stroke="none">
<path d="M242 560 c-16 0 -21 -4 -16 -12 4 -7 14 -21 22 -30 13 -15 12 -21 -7
-51 -12 -19 -28 -40 -36 -47 -8 -7 -15 -23 -15 -36 0 -21 5 -24 38 -24 20 0
44 -5 52 -10 11 -7 15 -29 15 -94 0 -54 -5 -90 -13 -98 -6 -6 -12 -18 -12 -26
0 -7 -18 -40 -40 -73 -36 -52 -38 -59 -21 -59 11 0 38 22 63 53 24 28 54 71
66 93 16 31 22 59 22 106 0 36 -5 79 -11 96 -7 20 -21 34 -41 41 -17 6 -40 11
-52 11 -17 1 -11 10 32 50 36 32 53 55 50 67 -2 10 -14 19 -28 21 -14 2 -29 8
-34 13 -6 5 -21 9 -34 9z"/>
</g>
</svg>
