<?xml version="1.0" standalone="no"?>
<!DOCTYPE svg PUBLIC "-//W3C//DTD SVG 20010904//EN"
 "http://www.w3.org/TR/2001/REC-SVG-20010904/DTD/svg10.dtd">
<svg version="1.0" xmlns="http://www.w3.org/2000/svg"
 width="56.000000pt" height="56.000000pt" viewBox="0 0 56.000000 56.000000"
 preserveAspectRatio="xMidYMid meet">
<metadata>
Created by potrace 1.16, written by Peter Selinger 2001-2019
</metadata>
<g transform="translate(0.000000,56.000000) scale(0.100000,-0.100000)"
fill="#000000" stroke="none">
<path d="M287 553 c-2 7 -6 3 -8 -8 -3 -11 0 -32 5 -47 7 -19 6 -31 -3 -42 -7
-8 -25 -18 -41 -21 -16 -3 -33 -12 -39 -19 -6 -7 -13 -34 -16 -61 -2 -26 0
-56 6 -66 7 -14 21 -19 48 -19 30 0 42 -6 55 -24 11 -18 14 -41 11 -88 -2 -34
-11 -83 -20 -107 -8 -24 -15 -45 -15 -47 0 -2 15 -4 33 -4 25 0 35 6 45 27 6
15 12 35 12 45 0 10 5 38 12 63 10 36 9 52 -1 82 -7 21 -24 52 -37 70 -13 17
-40 37 -59 44 -22 8 -35 20 -35 31 0 10 10 24 23 32 12 7 36 17 52 21 17 3 38
14 48 22 9 9 17 23 17 32 0 9 -16 28 -34 44 -19 15 -39 27 -45 27 -5 0 -11 6
-14 13z"/>
</g>
</svg>
