<?xml version="1.0" standalone="no"?>
<!DOCTYPE svg PUBLIC "-//W3C//DTD SVG 20010904//EN"
 "http://www.w3.org/TR/2001/REC-SVG-20010904/DTD/svg10.dtd">
<svg version="1.0" xmlns="http://www.w3.org/2000/svg"
 width="56.000000pt" height="56.000000pt" viewBox="0 0 56.000000 56.000000"
 preserveAspectRatio="xMidYMid meet">
<metadata>
Created by potrace 1.16, written by Peter Selinger 2001-2019
</metadata>
<g transform="translate(0.000000,56.000000) scale(0.100000,-0.100000)"
fill="#000000" stroke="none">
<path d="M185 560 c-8 0 -15 -7 -15 -15 0 -8 7 -15 15 -15 8 0 15 7 15 15 0 8
-7 15 -15 15z"/>
<path d="M296 540 c-8 0 -19 -6 -25 -14 -7 -8 -9 -25 -6 -38 4 -17 -5 -37 -34
-74 -21 -29 -42 -61 -45 -71 -4 -12 -1 -25 6 -30 7 -6 25 -13 40 -17 20 -4 32
-17 43 -42 8 -20 15 -51 15 -68 0 -17 -11 -53 -24 -81 -24 -50 -24 -50 -35
-22 -6 16 -11 36 -11 45 0 9 -4 23 -9 31 -5 7 -14 10 -20 7 -6 -4 -9 -17 -6
-29 4 -12 2 -48 -3 -80 -9 -57 -9 -57 17 -57 14 1 35 6 47 13 11 7 36 26 55
42 21 17 41 48 49 72 11 36 11 52 0 100 -12 47 -23 67 -63 106 -49 48 -49 48
-21 70 16 12 37 30 47 40 14 14 17 26 11 50 -3 18 -8 35 -11 40 -2 4 -10 7
-17 7z"/>
</g>
</svg>
