<?xml version="1.0" standalone="no"?>
<!DOCTYPE svg PUBLIC "-//W3C//DTD SVG 20010904//EN"
 "http://www.w3.org/TR/2001/REC-SVG-20010904/DTD/svg10.dtd">
<svg version="1.0" xmlns="http://www.w3.org/2000/svg"
 width="56.000000pt" height="56.000000pt" viewBox="0 0 56.000000 56.000000"
 preserveAspectRatio="xMidYMid meet">
<metadata>
Created by potrace 1.16, written by Peter Selinger 2001-2019
</metadata>
<g transform="translate(0.000000,56.000000) scale(0.100000,-0.100000)"
fill="#000000" stroke="none">
<path d="M281 560 c-5 0 -10 -8 -13 -17 -2 -10 -1 -34 2 -53 5 -33 7 -35 48
-38 38 -3 43 -1 40 15 -2 10 -15 24 -30 30 -14 7 -29 24 -32 38 -4 14 -10 25
-15 25z"/>
<path d="M243 404 c-26 6 -34 3 -42 -13 -6 -11 -11 -27 -11 -35 0 -8 9 -20 19
-26 15 -7 23 -6 36 6 8 9 22 13 30 10 12 -4 15 -25 15 -92 0 -48 -5 -105 -12
-128 -6 -22 -25 -60 -40 -83 -26 -38 -27 -43 -10 -43 10 0 30 12 44 28 14 15
31 45 38 67 7 22 16 50 21 63 5 13 9 51 9 86 0 35 -7 80 -15 99 -8 20 -23 40
-32 45 -10 6 -32 13 -50 16z"/>
</g>
</svg>
