<?xml version="1.0" standalone="no"?>
<!DOCTYPE svg PUBLIC "-//W3C//DTD SVG 20010904//EN"
 "http://www.w3.org/TR/2001/REC-SVG-20010904/DTD/svg10.dtd">
<svg version="1.0" xmlns="http://www.w3.org/2000/svg"
 width="56.000000pt" height="56.000000pt" viewBox="0 0 56.000000 56.000000"
 preserveAspectRatio="xMidYMid meet">
<metadata>
Created by potrace 1.16, written by Peter Selinger 2001-2019
</metadata>
<g transform="translate(0.000000,56.000000) scale(0.100000,-0.100000)"
fill="#000000" stroke="none">
<path d="M189 560 c-4 0 -10 -7 -13 -16 -3 -9 3 -36 14 -61 19 -44 19 -44 -20
-87 -22 -24 -40 -51 -40 -62 0 -10 12 -30 26 -45 17 -17 32 -25 45 -22 11 3
24 13 29 23 5 10 27 20 51 24 33 5 44 3 55 -11 7 -10 14 -31 14 -46 0 -16 -5
-37 -10 -47 -6 -11 -21 -31 -34 -45 -13 -14 -31 -41 -40 -59 -9 -19 -32 -50
-52 -70 -36 -36 -36 -36 14 -36 45 0 54 4 89 39 21 21 53 56 71 77 24 28 32
48 33 78 1 23 1 57 -1 76 -1 19 -8 47 -16 62 -9 17 -30 32 -61 43 -27 10 -55
19 -63 22 -10 3 -6 10 15 28 17 13 40 24 52 25 12 0 25 5 29 12 4 6 -3 19 -16
30 -14 12 -39 18 -69 18 -38 0 -52 5 -71 25 -13 14 -27 25 -31 25z"/>
</g>
</svg>
