<?xml version="1.0" standalone="no"?>
<!DOCTYPE svg PUBLIC "-//W3C//DTD SVG 20010904//EN"
 "http://www.w3.org/TR/2001/REC-SVG-20010904/DTD/svg10.dtd">
<svg version="1.0" xmlns="http://www.w3.org/2000/svg"
 width="56.000000pt" height="56.000000pt" viewBox="0 0 56.000000 56.000000"
 preserveAspectRatio="xMidYMid meet">
<metadata>
Created by potrace 1.16, written by Peter Selinger 2001-2019
</metadata>
<g transform="translate(0.000000,56.000000) scale(0.100000,-0.100000)"
fill="#000000" stroke="none">
<path d="M312 560 c-30 0 -41 -5 -51 -24 -10 -19 -10 -27 0 -44 11 -17 9 -24
-15 -53 -15 -18 -38 -41 -52 -51 -13 -11 -24 -28 -24 -39 0 -16 7 -19 53 -19
29 0 60 -7 71 -15 12 -9 20 -33 25 -72 3 -32 4 -71 0 -88 -4 -16 -7 -48 -8
-71 0 -22 -6 -45 -12 -51 -6 -6 -7 -13 -1 -17 5 -3 16 0 24 7 8 7 26 39 39 72
17 42 23 77 22 118 -1 31 -7 73 -13 92 -6 19 -30 50 -52 69 -40 34 -40 34 1
71 38 35 40 38 25 60 -10 15 -12 25 -5 30 6 3 11 10 11 16 0 5 -17 9 -38 9z"/>
</g>
</svg>
