<?xml version="1.0" standalone="no"?>
<!DOCTYPE svg PUBLIC "-//W3C//DTD SVG 20010904//EN"
 "http://www.w3.org/TR/2001/REC-SVG-20010904/DTD/svg10.dtd">
<svg version="1.0" xmlns="http://www.w3.org/2000/svg"
 width="56.000000pt" height="56.000000pt" viewBox="0 0 56.000000 56.000000"
 preserveAspectRatio="xMidYMid meet">
<metadata>
Created by potrace 1.16, written by Peter Selinger 2001-2019
</metadata>
<g transform="translate(0.000000,56.000000) scale(0.100000,-0.100000)"
fill="#000000" stroke="none">
<path d="M297 560 c-12 0 -27 -8 -33 -17 -6 -11 -8 -30 -3 -45 6 -22 2 -32
-18 -53 -15 -14 -23 -28 -19 -32 4 -4 17 -1 29 7 12 8 40 16 62 19 26 4 41 12
43 23 2 11 -8 23 -29 33 -23 12 -28 20 -20 28 6 6 11 17 11 24 0 7 -10 13 -23
13z"/>
<path d="M207 400 c-7 0 -18 -5 -25 -12 -7 -7 -12 -27 -12 -46 0 -35 0 -35 49
-28 45 6 51 4 70 -20 16 -20 21 -41 21 -86 0 -48 -6 -71 -31 -116 -17 -32 -38
-65 -46 -74 -15 -17 -14 -18 5 -18 12 0 36 15 53 33 17 17 39 50 49 72 9 22
20 57 24 78 4 21 4 59 0 85 -5 35 -15 55 -41 80 -25 23 -44 32 -69 32 -19 0
-34 5 -34 10 0 6 -6 10 -13 10z"/>
</g>
</svg>
