<?xml version="1.0" standalone="no"?>
<!DOCTYPE svg PUBLIC "-//W3C//DTD SVG 20010904//EN"
 "http://www.w3.org/TR/2001/REC-SVG-20010904/DTD/svg10.dtd">
<svg version="1.0" xmlns="http://www.w3.org/2000/svg"
 width="56.000000pt" height="56.000000pt" viewBox="0 0 56.000000 56.000000"
 preserveAspectRatio="xMidYMid meet">
<metadata>
Created by potrace 1.16, written by Peter Selinger 2001-2019
</metadata>
<g transform="translate(0.000000,56.000000) scale(0.100000,-0.100000)"
fill="#000000" stroke="none">
<path d="M343 559 c-18 -1 -42 -15 -67 -40 -22 -21 -45 -39 -51 -39 -6 0 -22
-11 -35 -25 -19 -20 -21 -27 -10 -40 7 -8 20 -15 29 -15 9 0 49 31 89 68 39
37 72 73 72 80 0 7 -12 12 -27 11z"/>
<path d="M306 420 c-12 0 -25 -2 -28 -5 -3 -3 -2 -25 3 -48 4 -23 8 -70 9
-103 0 -47 -4 -63 -16 -68 -9 -3 -26 -6 -38 -6 -12 0 -27 -5 -34 -12 -7 -7
-12 -20 -12 -31 0 -10 28 -48 62 -83 47 -49 68 -64 90 -64 23 0 28 4 28 23 0
16 -12 31 -37 48 -21 13 -39 32 -41 41 -2 10 8 22 25 32 29 14 29 14 27 123 0
59 -4 118 -8 131 -5 14 -15 22 -30 22z"/>
</g>
</svg>
