<?xml version="1.0" standalone="no"?>
<!DOCTYPE svg PUBLIC "-//W3C//DTD SVG 20010904//EN"
 "http://www.w3.org/TR/2001/REC-SVG-20010904/DTD/svg10.dtd">
<svg version="1.0" xmlns="http://www.w3.org/2000/svg"
 width="56.000000pt" height="56.000000pt" viewBox="0 0 56.000000 56.000000"
 preserveAspectRatio="xMidYMid meet">
<metadata>
Created by potrace 1.16, written by Peter Selinger 2001-2019
</metadata>
<g transform="translate(0.000000,56.000000) scale(0.100000,-0.100000)"
fill="#000000" stroke="none">
<path d="M147 560 c-20 0 -22 -5 -24 -67 -1 -38 -2 -78 -3 -91 -1 -13 6 -32
16 -43 11 -12 30 -19 53 -19 20 0 45 7 55 15 11 8 25 15 31 15 5 0 15 -10 20
-22 9 -19 5 -31 -20 -67 -16 -24 -46 -59 -64 -77 -19 -19 -39 -34 -44 -34 -6
0 -30 16 -53 36 -24 19 -48 33 -52 30 -5 -3 -15 -24 -22 -46 -11 -32 -11 -46
-2 -58 6 -10 18 -32 26 -49 9 -21 22 -33 34 -33 11 0 31 12 46 27 24 24 28 25
52 12 14 -7 38 -30 52 -51 18 -25 35 -38 51 -38 23 0 23 2 15 48 -5 26 -8 80
-7 120 1 42 9 86 18 104 8 17 15 39 15 49 0 10 4 21 10 24 6 3 10 17 10 29 0
15 -13 34 -36 51 -30 23 -40 26 -53 16 -9 -6 -31 -18 -49 -27 -25 -11 -37 -12
-47 -4 -10 8 -11 20 -3 47 5 20 7 51 3 69 -4 26 -11 34 -28 34z m119 -340 c2
0 4 -20 4 -45 0 -32 -5 -47 -16 -52 -8 -3 -22 1 -31 10 -14 14 -13 19 12 51
15 20 29 36 31 36z m-168 -39 c10 -5 24 -17 31 -25 10 -12 9 -16 -7 -25 -13
-7 -22 -7 -30 1 -7 7 -12 23 -12 35 0 20 3 22 18 14z"/>
<path d="M383 300 c-7 0 -13 -6 -13 -13 0 -7 18 -23 40 -36 35 -20 39 -26 37
-58 -2 -28 4 -39 25 -55 14 -11 31 -17 37 -14 6 4 11 23 11 43 0 19 -9 48 -21
64 -11 16 -27 29 -35 29 -8 0 -14 3 -14 8 0 4 -12 13 -27 20 -15 6 -33 12 -40
12z"/>
</g>
</svg>
