<?xml version="1.0" standalone="no"?>
<!DOCTYPE svg PUBLIC "-//W3C//DTD SVG 20010904//EN"
 "http://www.w3.org/TR/2001/REC-SVG-20010904/DTD/svg10.dtd">
<svg version="1.0" xmlns="http://www.w3.org/2000/svg"
 width="56.000000pt" height="56.000000pt" viewBox="0 0 56.000000 56.000000"
 preserveAspectRatio="xMidYMid meet">
<metadata>
Created by potrace 1.16, written by Peter Selinger 2001-2019
</metadata>
<g transform="translate(0.000000,56.000000) scale(0.100000,-0.100000)"
fill="#000000" stroke="none">
<path d="M274 559 c-5 0 -18 -9 -28 -20 -13 -13 -33 -19 -61 -19 -23 0 -44 -3
-48 -6 -3 -4 7 -19 23 -35 16 -16 33 -29 39 -29 6 0 20 6 31 13 17 10 22 9 30
-3 5 -8 10 -52 10 -97 0 -45 -4 -84 -9 -87 -5 -3 -14 0 -19 7 -6 7 -14 32 -18
54 -4 24 -16 51 -30 64 -14 13 -29 19 -40 15 -16 -6 -15 -8 4 -26 12 -11 26
-39 32 -61 6 -23 9 -47 6 -54 -2 -7 -22 -18 -43 -25 -21 -7 -53 -23 -70 -37
-18 -13 -33 -30 -33 -38 0 -8 11 -40 25 -70 22 -50 27 -56 47 -49 12 4 37 16
55 28 18 12 39 38 48 59 8 20 15 48 15 62 0 13 5 27 11 31 6 3 15 2 21 -4 7
-7 8 -32 3 -67 -5 -42 -10 -55 -20 -51 -8 3 -17 1 -20 -3 -2 -5 2 -32 11 -60
8 -28 20 -51 27 -51 7 0 17 4 24 8 7 4 16 18 20 30 5 13 5 61 0 107 -7 64 -6
89 3 100 8 10 21 13 39 9 14 -4 34 -14 44 -22 9 -8 17 -21 17 -28 0 -7 -14
-24 -32 -38 -24 -18 -28 -26 -18 -30 8 -2 35 -7 59 -9 24 -3 50 -3 57 0 8 3
14 16 14 30 0 14 -9 42 -21 63 -11 20 -34 44 -49 53 -15 10 -46 17 -69 17 -29
0 -43 5 -50 19 -7 12 -7 47 -1 102 6 46 10 89 10 95 0 6 -8 21 -19 32 -10 12
-22 22 -27 21z m-79 -349 c8 0 15 -8 15 -18 0 -11 -9 -27 -20 -37 -10 -9 -26
-15 -35 -12 -8 4 -15 11 -15 17 0 5 9 19 20 30 11 11 27 20 35 20z"/>
</g>
</svg>
