<?xml version="1.0" standalone="no"?>
<!DOCTYPE svg PUBLIC "-//W3C//DTD SVG 20010904//EN"
 "http://www.w3.org/TR/2001/REC-SVG-20010904/DTD/svg10.dtd">
<svg version="1.0" xmlns="http://www.w3.org/2000/svg"
 width="56.000000pt" height="56.000000pt" viewBox="0 0 56.000000 56.000000"
 preserveAspectRatio="xMidYMid meet">
<metadata>
Created by potrace 1.16, written by Peter Selinger 2001-2019
</metadata>
<g transform="translate(0.000000,56.000000) scale(0.100000,-0.100000)"
fill="#000000" stroke="none">
<path d="M264 477 c-18 0 -44 -7 -60 -15 -27 -14 -27 -14 -4 -27 13 -7 31 -10
41 -8 13 4 20 -2 25 -20 3 -14 3 -50 0 -79 -3 -29 -8 -72 -12 -95 -4 -31 -11
-43 -23 -43 -9 0 -22 4 -30 9 -12 7 -10 14 8 37 14 17 18 30 11 32 -6 2 -23
-4 -37 -14 -15 -9 -36 -19 -48 -20 -11 -2 -42 -9 -70 -16 -27 -6 -53 -17 -57
-22 -4 -6 -8 -22 -8 -35 0 -22 2 -23 46 -16 26 3 56 15 67 26 11 10 26 19 33
19 6 0 17 -6 23 -14 7 -8 16 -27 20 -43 4 -15 19 -35 34 -43 24 -13 30 -13 54
0 18 10 30 27 33 45 3 17 3 48 -1 70 -4 22 -3 45 2 51 5 6 6 14 2 18 -3 3 -7
31 -8 61 -1 30 2 55 6 55 5 0 9 15 9 34 0 18 -6 38 -12 43 -7 6 -27 10 -44 10z"/>
<path d="M381 320 c-6 0 -11 -6 -11 -13 0 -7 15 -31 34 -53 18 -21 43 -59 56
-84 12 -25 29 -53 38 -62 8 -10 26 -18 39 -18 19 0 23 5 23 30 0 17 -4 30 -10
30 -5 0 -10 9 -10 19 0 11 -19 39 -42 63 -24 24 -57 54 -75 66 -17 12 -36 22
-42 22z"/>
</g>
</svg>
