<?xml version="1.0" standalone="no"?>
<!DOCTYPE svg PUBLIC "-//W3C//DTD SVG 20010904//EN"
 "http://www.w3.org/TR/2001/REC-SVG-20010904/DTD/svg10.dtd">
<svg version="1.0" xmlns="http://www.w3.org/2000/svg"
 width="56.000000pt" height="56.000000pt" viewBox="0 0 56.000000 56.000000"
 preserveAspectRatio="xMidYMid meet">
<metadata>
Created by potrace 1.16, written by Peter Selinger 2001-2019
</metadata>
<g transform="translate(0.000000,56.000000) scale(0.100000,-0.100000)"
fill="#000000" stroke="none">
<path d="M235 500 c-30 0 -56 -3 -59 -8 -2 -4 -7 -23 -11 -43 -5 -26 -2 -39
10 -49 13 -11 22 -11 52 -1 29 11 37 11 44 0 5 -8 9 -17 9 -21 0 -4 -15 -22
-34 -40 -19 -18 -53 -48 -75 -67 -23 -18 -41 -40 -41 -47 0 -8 5 -14 11 -14 5
0 8 -4 4 -9 -3 -5 15 -39 41 -75 25 -36 55 -73 67 -81 12 -8 25 -15 29 -15 3
0 14 7 22 16 13 12 16 40 17 132 0 64 4 126 8 136 5 14 18 19 45 20 32 1 47
-7 93 -46 30 -27 63 -48 74 -48 14 0 19 7 19 25 0 14 -11 43 -25 65 -14 22
-31 40 -38 40 -6 0 -25 7 -42 16 -16 8 -46 17 -65 20 -19 2 -43 14 -52 25 -10
12 -18 29 -18 39 0 10 -7 21 -16 24 -9 3 -40 6 -69 6z m34 -215 c5 -2 11 -23
14 -46 3 -23 1 -52 -5 -65 -6 -13 -16 -24 -23 -24 -6 0 -29 12 -52 26 -40 27
-40 27 9 71 27 24 53 41 57 38z"/>
<path d="M25 330 c-10 0 -15 -24 -17 -87 -3 -61 1 -98 10 -120 9 -20 22 -33
32 -33 10 0 30 14 45 31 14 18 25 41 23 53 -2 11 -12 22 -23 24 -11 2 -26 9
-32 14 -7 6 -13 28 -13 48 0 21 -3 45 -6 54 -3 9 -12 16 -19 16z"/>
</g>
</svg>
