<?xml version="1.0" standalone="no"?>
<!DOCTYPE svg PUBLIC "-//W3C//DTD SVG 20010904//EN"
 "http://www.w3.org/TR/2001/REC-SVG-20010904/DTD/svg10.dtd">
<svg version="1.0" xmlns="http://www.w3.org/2000/svg"
 width="56.000000pt" height="56.000000pt" viewBox="0 0 56.000000 56.000000"
 preserveAspectRatio="xMidYMid meet">
<metadata>
Created by potrace 1.16, written by Peter Selinger 2001-2019
</metadata>
<g transform="translate(0.000000,56.000000) scale(0.100000,-0.100000)"
fill="#000000" stroke="none">
<path d="M223 559 c-55 0 -57 -1 -36 -15 20 -15 21 -17 7 -51 -8 -19 -14 -45
-12 -57 2 -16 10 -21 33 -22 17 -1 36 -2 43 -3 8 -1 12 -26 12 -91 0 -90 0
-90 -29 -96 -18 -4 -42 -22 -61 -45 -26 -33 -28 -40 -15 -45 8 -4 29 -19 47
-35 17 -16 29 -31 27 -33 -2 -2 -23 -13 -46 -25 -23 -11 -44 -25 -48 -31 -4
-6 5 -10 21 -10 15 0 42 9 60 21 19 11 34 24 34 29 0 5 18 11 40 15 33 6 46
15 72 52 30 44 30 47 15 72 -11 17 -25 26 -42 26 -15 -1 -25 5 -26 15 -1 8 0
61 1 118 2 102 2 102 -34 117 -20 9 -36 21 -36 28 0 7 7 22 15 33 8 10 15 22
15 27 0 4 -26 7 -57 6z m97 -359 c5 0 13 -8 18 -17 6 -11 6 -25 0 -39 -6 -12
-21 -28 -34 -35 -13 -7 -26 -10 -29 -7 -3 3 4 26 15 51 12 26 25 47 30 47z
m-64 -10 c8 0 14 -4 14 -9 0 -5 -6 -14 -14 -20 -10 -8 -16 -9 -21 -1 -3 5 -3
15 0 20 3 6 13 10 21 10z"/>
</g>
</svg>
