<?xml version="1.0" standalone="no"?>
<!DOCTYPE svg PUBLIC "-//W3C//DTD SVG 20010904//EN"
 "http://www.w3.org/TR/2001/REC-SVG-20010904/DTD/svg10.dtd">
<svg version="1.0" xmlns="http://www.w3.org/2000/svg"
 width="56.000000pt" height="56.000000pt" viewBox="0 0 56.000000 56.000000"
 preserveAspectRatio="xMidYMid meet">
<metadata>
Created by potrace 1.16, written by Peter Selinger 2001-2019
</metadata>
<g transform="translate(0.000000,56.000000) scale(0.100000,-0.100000)"
fill="#000000" stroke="none">
<path d="M311 560 c-30 0 -41 -4 -41 -15 0 -8 -24 -30 -53 -48 -29 -17 -61
-37 -72 -43 -11 -6 -21 -22 -21 -35 -1 -13 -5 -31 -9 -40 -3 -10 -2 -19 2 -22
5 -3 25 0 44 6 19 7 45 19 58 26 22 12 26 11 43 -10 16 -20 18 -35 13 -89 -3
-39 -11 -69 -20 -75 -8 -5 -43 -30 -79 -55 -52 -35 -66 -50 -66 -70 0 -14 7
-36 16 -48 8 -12 23 -22 33 -22 9 0 41 11 70 25 28 14 55 33 58 43 4 9 11 20
17 24 6 4 17 8 23 8 7 0 25 -26 41 -57 21 -43 34 -59 52 -61 22 -4 23 -2 17
50 -6 45 -13 58 -46 89 -40 37 -40 37 -35 102 2 38 0 69 -6 72 -7 4 -6 13 1
26 7 14 7 29 -2 54 -9 23 -22 38 -41 44 -16 6 -31 17 -34 26 -4 8 -1 22 6 30
6 7 24 15 38 17 19 2 28 10 30 26 3 20 -1 22 -37 22z m-93 -445 c2 -9 -1 -22
-7 -28 -8 -8 -11 -5 -11 9 0 12 3 24 8 28 4 4 9 0 10 -9z"/>
</g>
</svg>
