<?xml version="1.0" standalone="no"?>
<!DOCTYPE svg PUBLIC "-//W3C//DTD SVG 20010904//EN"
 "http://www.w3.org/TR/2001/REC-SVG-20010904/DTD/svg10.dtd">
<svg version="1.0" xmlns="http://www.w3.org/2000/svg"
 width="56.000000pt" height="56.000000pt" viewBox="0 0 56.000000 56.000000"
 preserveAspectRatio="xMidYMid meet">
<metadata>
Created by potrace 1.16, written by Peter Selinger 2001-2019
</metadata>
<g transform="translate(0.000000,56.000000) scale(0.100000,-0.100000)"
fill="#000000" stroke="none">
<path d="M271 560 c-19 0 -34 -8 -44 -22 -8 -13 -35 -44 -61 -70 -25 -26 -46
-53 -46 -60 0 -7 -7 -26 -16 -43 -10 -18 -18 -67 -21 -125 -4 -80 -2 -104 16
-155 12 -33 29 -66 38 -72 9 -7 25 -13 35 -13 10 0 19 9 22 23 3 12 7 43 10
70 5 45 5 47 -14 37 -11 -6 -20 -17 -20 -25 0 -8 -6 -15 -14 -15 -8 0 -17 8
-20 18 -3 9 -6 40 -7 67 -2 28 1 82 6 120 4 39 13 73 19 77 6 4 14 8 18 8 4 0
13 -7 21 -15 14 -13 15 -10 12 23 -1 20 2 45 7 55 5 10 17 28 26 39 9 12 27
31 40 43 12 12 22 25 22 29 0 3 -13 6 -29 6z"/>
<path d="M358 360 c-8 0 -19 -5 -26 -12 -7 -7 -12 -18 -12 -25 0 -7 8 -13 18
-13 15 0 18 -6 14 -30 -2 -17 -8 -33 -13 -36 -5 -3 -9 -14 -9 -24 0 -10 11
-27 25 -38 14 -11 25 -27 25 -36 0 -9 8 -16 19 -16 11 0 23 -4 26 -10 3 -5 17
-10 31 -10 13 0 24 6 24 13 0 8 -10 19 -22 25 -13 6 -35 13 -50 16 -19 4 -28
13 -28 26 0 10 -4 21 -10 25 -6 3 -5 16 3 33 6 15 15 29 19 32 3 3 9 17 13 32
5 20 2 29 -13 37 -12 6 -27 11 -34 11z"/>
</g>
</svg>
