<?xml version="1.0" standalone="no"?>
<!DOCTYPE svg PUBLIC "-//W3C//DTD SVG 20010904//EN"
 "http://www.w3.org/TR/2001/REC-SVG-20010904/DTD/svg10.dtd">
<svg version="1.0" xmlns="http://www.w3.org/2000/svg"
 width="56.000000pt" height="56.000000pt" viewBox="0 0 56.000000 56.000000"
 preserveAspectRatio="xMidYMid meet">
<metadata>
Created by potrace 1.16, written by Peter Selinger 2001-2019
</metadata>
<g transform="translate(0.000000,56.000000) scale(0.100000,-0.100000)"
fill="#000000" stroke="none">
<path d="M193 513 c-36 4 -65 3 -68 -3 -3 -5 -3 -32 1 -60 4 -28 10 -53 15
-56 5 -2 18 7 31 21 12 14 30 25 40 25 16 0 18 -9 18 -66 0 -36 -5 -74 -11
-85 -5 -11 -28 -33 -51 -49 -41 -30 -41 -30 -64 -5 -13 14 -32 25 -42 25 -11
0 -25 -6 -31 -14 -7 -8 -16 -29 -21 -46 -6 -21 -6 -39 1 -51 5 -11 21 -19 35
-19 14 0 33 4 43 9 13 7 26 4 49 -12 17 -12 38 -37 46 -55 9 -17 22 -32 30
-32 8 0 27 15 41 34 24 32 27 44 31 158 3 68 5 137 4 153 0 17 -3 47 -6 67 -3
20 -11 41 -17 46 -7 5 -40 12 -74 15z m24 -264 c6 1 14 -3 18 -8 3 -6 1 -28
-4 -51 -5 -23 -12 -44 -15 -47 -3 -3 -17 -2 -31 1 -14 4 -28 13 -31 21 -4 8 7
30 22 49 16 19 34 35 41 35z"/>
<path d="M391 340 c-5 0 -12 -4 -15 -9 -3 -5 1 -14 8 -21 8 -6 24 -30 36 -53
12 -22 25 -59 29 -81 6 -37 9 -41 40 -44 23 -2 39 3 52 17 10 11 19 25 19 30
0 5 -10 26 -21 46 -12 20 -48 54 -80 75 -32 22 -62 40 -68 40z"/>
<path d="M553 59 c-5 -1 -21 -5 -38 -9 -23 -6 -25 -8 -8 -9 12 0 28 -4 37 -7
11 -4 16 -1 16 10 0 9 -3 15 -7 15z"/>
</g>
</svg>
