<?xml version="1.0" standalone="no"?>
<!DOCTYPE svg PUBLIC "-//W3C//DTD SVG 20010904//EN"
 "http://www.w3.org/TR/2001/REC-SVG-20010904/DTD/svg10.dtd">
<svg version="1.0" xmlns="http://www.w3.org/2000/svg"
 width="56.000000pt" height="56.000000pt" viewBox="0 0 56.000000 56.000000"
 preserveAspectRatio="xMidYMid meet">
<metadata>
Created by potrace 1.16, written by Peter Selinger 2001-2019
</metadata>
<g transform="translate(0.000000,56.000000) scale(0.100000,-0.100000)"
fill="#000000" stroke="none">
<path d="M88 535 c-3 3 -11 -1 -17 -9 -7 -9 -17 -44 -21 -78 -5 -35 -13 -95
-18 -133 -5 -39 -10 -119 -11 -178 -2 -98 0 -107 17 -107 10 0 28 10 41 21 17
16 21 28 16 47 -3 14 -6 69 -6 121 1 53 7 129 14 170 11 57 11 81 2 107 -6 19
-14 36 -17 39z"/>
<path d="M350 486 c-36 2 -71 1 -77 -2 -7 -3 -13 -11 -13 -19 0 -7 23 -22 51
-34 29 -11 62 -21 75 -21 12 0 26 -4 29 -10 3 -5 15 -10 25 -10 10 0 21 9 25
20 3 10 1 28 -4 38 -6 11 -18 23 -28 27 -10 3 -47 8 -83 11z"/>
<path d="M265 290 c-8 0 -15 -8 -15 -18 0 -10 16 -37 35 -59 21 -24 55 -49 87
-62 29 -12 65 -28 80 -36 14 -8 31 -15 37 -15 6 0 20 9 31 20 19 19 19 22 5
50 -11 21 -23 30 -39 30 -14 0 -48 5 -78 12 -34 8 -66 23 -91 45 -20 18 -44
33 -52 33z"/>
</g>
</svg>
