<?xml version="1.0" standalone="no"?>
<!DOCTYPE svg PUBLIC "-//W3C//DTD SVG 20010904//EN"
 "http://www.w3.org/TR/2001/REC-SVG-20010904/DTD/svg10.dtd">
<svg version="1.0" xmlns="http://www.w3.org/2000/svg"
 width="56.000000pt" height="56.000000pt" viewBox="0 0 56.000000 56.000000"
 preserveAspectRatio="xMidYMid meet">
<metadata>
Created by potrace 1.16, written by Peter Selinger 2001-2019
</metadata>
<g transform="translate(0.000000,56.000000) scale(0.100000,-0.100000)"
fill="#000000" stroke="none">
<path d="M296 539 c-12 -1 -32 -5 -46 -9 -14 -4 -40 -8 -58 -9 -18 -1 -35 -7
-38 -15 -3 -8 2 -26 12 -41 14 -22 23 -25 60 -24 24 2 46 1 48 -2 2 -2 6 -36
7 -74 3 -70 3 -70 -58 -100 -34 -16 -70 -38 -80 -48 -11 -9 -31 -17 -45 -17
-14 0 -29 -7 -32 -16 -3 -9 -6 -24 -6 -34 0 -11 17 -35 37 -56 21 -20 67 -49
101 -65 46 -20 69 -26 81 -19 10 5 32 25 49 46 28 32 31 41 25 79 -3 24 -3 55
1 69 6 25 6 25 51 10 24 -9 54 -14 67 -12 12 2 24 11 26 20 2 9 -9 27 -23 40
-16 14 -44 25 -73 28 -47 5 -47 5 -47 106 0 86 -3 105 -19 123 -11 12 -29 21
-40 20z m-36 -332 c10 -1 16 -17 18 -48 2 -31 -2 -50 -12 -58 -8 -7 -24 -10
-35 -6 -11 3 -31 15 -45 26 -22 17 -24 24 -15 41 6 11 25 26 42 34 18 7 39 12
47 11z"/>
</g>
</svg>
