<?xml version="1.0" standalone="no"?>
<!DOCTYPE svg PUBLIC "-//W3C//DTD SVG 20010904//EN"
 "http://www.w3.org/TR/2001/REC-SVG-20010904/DTD/svg10.dtd">
<svg version="1.0" xmlns="http://www.w3.org/2000/svg"
 width="56.000000pt" height="56.000000pt" viewBox="0 0 56.000000 56.000000"
 preserveAspectRatio="xMidYMid meet">
<metadata>
Created by potrace 1.16, written by Peter Selinger 2001-2019
</metadata>
<g transform="translate(0.000000,56.000000) scale(0.100000,-0.100000)"
fill="#000000" stroke="none">
<path d="M232 537 c-20 1 -35 -4 -38 -12 -3 -8 -4 -22 -2 -32 3 -12 12 -17 30
-16 17 1 29 -5 33 -15 3 -9 9 -54 12 -99 4 -58 3 -83 -5 -83 -6 0 -16 9 -22
20 -6 11 -10 38 -8 59 1 22 -4 47 -12 56 -9 10 -16 13 -23 6 -6 -6 -10 -37
-10 -71 1 -53 -1 -60 -19 -60 -11 0 -33 -8 -49 -17 -17 -10 -32 -28 -36 -40
-3 -14 1 -33 11 -46 8 -12 22 -31 30 -41 10 -12 27 -19 45 -18 23 0 31 -5 36
-21 3 -12 11 -39 17 -61 7 -21 18 -41 26 -43 7 -3 23 3 34 15 18 17 21 34 22
113 1 77 4 94 17 97 8 1 33 -13 54 -33 22 -19 42 -35 46 -35 4 0 14 3 23 6 10
4 16 18 16 35 0 19 -7 32 -22 40 -13 7 -47 17 -77 23 -55 11 -55 11 -59 106
-2 63 -9 107 -20 130 -14 29 -23 35 -50 37z m-66 -287 c21 0 24 -5 24 -40 0
-33 -3 -40 -20 -40 -11 0 -27 11 -36 25 -13 20 -14 28 -4 40 7 8 23 15 36 15z
m86 0 c17 0 19 -7 16 -82 -2 -45 -7 -83 -13 -85 -5 -1 -16 9 -22 24 -7 15 -13
39 -13 54 0 14 3 41 6 58 5 22 12 31 26 31z"/>
<path d="M446 50 c-6 0 -22 -7 -34 -16 -12 -8 -22 -20 -22 -25 0 -7 15 -8 43
-4 23 4 44 9 46 11 2 2 -2 10 -9 19 -7 8 -18 15 -24 15z"/>
</g>
</svg>
