<?xml version="1.0" standalone="no"?>
<!DOCTYPE svg PUBLIC "-//W3C//DTD SVG 20010904//EN"
 "http://www.w3.org/TR/2001/REC-SVG-20010904/DTD/svg10.dtd">
<svg version="1.0" xmlns="http://www.w3.org/2000/svg"
 width="56.000000pt" height="56.000000pt" viewBox="0 0 56.000000 56.000000"
 preserveAspectRatio="xMidYMid meet">
<metadata>
Created by potrace 1.16, written by Peter Selinger 2001-2019
</metadata>
<g transform="translate(0.000000,56.000000) scale(0.100000,-0.100000)"
fill="#000000" stroke="none">
<path d="M219 560 c-13 0 -32 -10 -41 -22 -10 -12 -18 -32 -18 -43 0 -12 5
-26 12 -33 7 -7 24 -12 38 -12 15 0 34 -8 43 -18 10 -10 17 -26 17 -35 0 -9 5
-19 10 -22 6 -3 10 -16 10 -28 0 -12 -19 -43 -43 -68 -23 -25 -51 -56 -61 -69
-11 -13 -25 -35 -32 -48 -12 -23 -13 -23 -31 -5 -10 10 -31 25 -47 33 -26 13
-29 13 -42 -5 -8 -10 -16 -33 -20 -50 -3 -17 -4 -47 -2 -66 2 -28 7 -34 30
-37 19 -2 38 7 67 33 40 37 40 37 64 13 14 -14 41 -35 62 -47 21 -12 44 -20
51 -17 8 3 22 24 33 48 10 24 21 60 24 80 3 20 2 79 -3 130 -7 70 -16 107 -37
148 -18 34 -39 60 -56 68 -18 9 -26 19 -23 28 3 8 9 21 12 29 4 11 0 15 -17
15z m69 -357 c2 -52 -1 -90 -8 -97 -6 -6 -27 -9 -48 -7 -20 1 -42 7 -49 13 -6
5 -9 17 -6 26 3 9 14 26 23 37 10 11 26 36 35 55 10 19 25 40 34 47 14 10 16
2 19 -74z m-214 -53 c6 0 20 -8 31 -16 20 -15 20 -15 -4 -35 -13 -10 -27 -19
-31 -19 -4 0 -10 6 -13 14 -3 8 -3 24 0 35 3 12 10 21 17 21z"/>
<path d="M397 380 c-18 0 -37 -3 -40 -6 -4 -4 -4 -11 -1 -15 3 -5 13 -9 23 -9
9 0 28 -5 42 -12 13 -6 35 -25 49 -41 16 -21 20 -32 12 -35 -7 -2 -12 -12 -12
-22 0 -9 7 -33 15 -53 8 -19 20 -37 27 -40 7 -2 21 0 31 5 9 5 17 20 17 33 0
14 -4 25 -9 25 -5 0 -13 10 -17 23 -4 12 -8 32 -10 43 -1 12 -10 34 -19 48
-10 15 -31 34 -46 42 -15 7 -43 14 -62 14z"/>
</g>
</svg>
