<?xml version="1.0" standalone="no"?>
<!DOCTYPE svg PUBLIC "-//W3C//DTD SVG 20010904//EN"
 "http://www.w3.org/TR/2001/REC-SVG-20010904/DTD/svg10.dtd">
<svg version="1.0" xmlns="http://www.w3.org/2000/svg"
 width="56.000000pt" height="56.000000pt" viewBox="0 0 56.000000 56.000000"
 preserveAspectRatio="xMidYMid meet">
<metadata>
Created by potrace 1.16, written by Peter Selinger 2001-2019
</metadata>
<g transform="translate(0.000000,56.000000) scale(0.100000,-0.100000)"
fill="#000000" stroke="none">
<path d="M223 534 c-20 16 -23 17 -29 3 -3 -8 -1 -24 5 -36 6 -11 11 -31 11
-45 0 -14 -5 -35 -11 -48 -5 -13 -28 -36 -50 -51 -26 -19 -39 -36 -39 -51 0
-13 9 -31 20 -41 15 -14 25 -15 49 -7 16 6 32 8 35 5 3 -4 6 -35 6 -69 0 -63
0 -63 -42 -74 -28 -8 -48 -9 -63 -2 -16 7 -26 7 -34 -1 -6 -6 -11 -20 -11 -31
0 -12 9 -36 20 -53 11 -18 26 -33 33 -33 7 0 26 13 42 30 16 17 37 30 46 30
10 0 21 -9 24 -20 3 -11 12 -20 19 -20 6 0 17 5 24 12 7 7 12 25 12 40 0 16 6
31 14 34 8 3 28 -1 44 -10 16 -8 44 -27 61 -41 17 -15 39 -25 48 -23 10 2 19
13 21 25 2 12 -4 35 -12 52 -12 22 -28 33 -58 41 -22 7 -56 9 -74 6 -21 -4
-35 -2 -40 5 -4 7 -7 32 -7 56 0 26 6 50 17 62 9 10 30 21 47 25 22 4 29 11
29 29 0 13 -5 28 -12 35 -7 7 -29 12 -50 12 -38 0 -38 0 -38 48 0 30 -7 54
-18 67 -9 11 -27 29 -39 39z"/>
<path d="M467 500 c-8 0 -20 -11 -27 -25 -9 -17 -10 -29 -3 -36 5 -5 17 -7 26
-3 11 4 17 17 17 35 0 17 -5 29 -13 29z"/>
</g>
</svg>
