<?xml version="1.0" standalone="no"?>
<!DOCTYPE svg PUBLIC "-//W3C//DTD SVG 20010904//EN"
 "http://www.w3.org/TR/2001/REC-SVG-20010904/DTD/svg10.dtd">
<svg version="1.0" xmlns="http://www.w3.org/2000/svg"
 width="56.000000pt" height="56.000000pt" viewBox="0 0 56.000000 56.000000"
 preserveAspectRatio="xMidYMid meet">
<metadata>
Created by potrace 1.16, written by Peter Selinger 2001-2019
</metadata>
<g transform="translate(0.000000,56.000000) scale(0.100000,-0.100000)"
fill="#000000" stroke="none">
<path d="M282 559 c-9 -1 -27 -6 -39 -13 -13 -6 -23 -16 -23 -23 0 -7 6 -14
13 -14 6 -1 19 -2 27 -3 8 0 17 -15 20 -32 4 -16 3 -39 -1 -50 -4 -10 -8 -34
-8 -51 -1 -28 -5 -33 -26 -33 -20 0 -25 5 -25 23 0 13 -9 32 -20 42 -10 9 -26
15 -34 12 -13 -5 -12 -13 5 -59 10 -29 19 -56 19 -59 0 -4 -10 -9 -23 -13 -13
-3 -36 -17 -50 -30 -18 -16 -27 -35 -27 -55 0 -16 4 -31 9 -33 5 -1 18 -19 28
-38 11 -20 29 -36 41 -38 16 -3 25 4 33 25 6 15 13 46 15 68 3 22 6 57 8 79 2
21 10 42 17 47 8 5 22 9 31 9 15 0 16 -12 11 -112 -2 -62 -7 -119 -9 -127 -3
-11 -10 -9 -29 9 -14 13 -27 21 -30 18 -3 -3 2 -22 11 -44 9 -21 23 -44 33
-51 9 -7 23 -13 32 -13 9 0 20 7 23 16 3 9 6 78 6 155 0 132 1 139 20 139 11
0 29 -9 41 -21 16 -16 20 -28 15 -52 -4 -17 -12 -34 -19 -39 -8 -5 -9 -10 -1
-18 7 -7 18 -6 36 2 15 7 34 25 42 40 12 19 14 33 7 51 -5 13 -24 36 -41 50
-17 15 -49 30 -71 33 -40 7 -40 7 -33 48 3 22 10 49 15 58 5 9 9 27 9 40 0 13
-9 31 -20 41 -11 9 -28 16 -38 16z m-100 -279 c7 0 8 -19 4 -52 -4 -28 -10
-56 -12 -60 -3 -5 -12 -4 -20 3 -8 6 -14 22 -14 36 0 13 7 35 16 48 9 14 21
25 26 25z"/>
</g>
</svg>
