<?xml version="1.0" standalone="no"?>
<!DOCTYPE svg PUBLIC "-//W3C//DTD SVG 20010904//EN"
 "http://www.w3.org/TR/2001/REC-SVG-20010904/DTD/svg10.dtd">
<svg version="1.0" xmlns="http://www.w3.org/2000/svg"
 width="56.000000pt" height="56.000000pt" viewBox="0 0 56.000000 56.000000"
 preserveAspectRatio="xMidYMid meet">
<metadata>
Created by potrace 1.16, written by Peter Selinger 2001-2019
</metadata>
<g transform="translate(0.000000,56.000000) scale(0.100000,-0.100000)"
fill="#000000" stroke="none">
<path d="M284 560 c-7 0 -14 -4 -16 -8 -1 -4 -19 -15 -38 -24 -31 -15 -37 -15
-58 -2 -12 8 -26 12 -31 10 -5 -3 -3 -22 3 -41 7 -20 18 -41 24 -47 8 -8 20
-5 45 11 19 11 37 18 40 14 4 -3 7 -43 7 -88 0 -78 -1 -83 -31 -111 -17 -16
-51 -49 -75 -74 -36 -38 -46 -43 -61 -34 -12 7 -20 29 -24 63 -4 29 -15 61
-25 72 -9 10 -20 17 -23 14 -3 -3 -6 -44 -7 -91 -2 -54 2 -97 11 -118 8 -18
20 -38 28 -44 12 -10 19 -7 38 13 13 14 32 30 42 36 11 7 24 6 38 -1 18 -10
20 -9 18 12 -1 13 1 35 5 50 5 15 17 30 27 33 10 4 23 3 29 0 5 -3 10 -20 10
-37 0 -21 -6 -31 -20 -35 -11 -3 -20 -7 -20 -9 0 -1 4 -14 10 -28 5 -14 15
-26 21 -26 7 0 17 -8 24 -17 12 -16 16 -16 41 -3 16 8 43 26 60 40 17 14 61
47 98 73 64 47 66 49 66 93 0 25 -7 58 -15 74 -8 16 -24 34 -34 40 -11 5 -36
10 -57 10 -24 0 -49 -9 -71 -26 -18 -14 -37 -23 -41 -20 -5 3 -7 45 -5 93 3
57 0 95 -8 110 -7 13 -18 23 -25 23z m134 -236 c8 -2 18 -4 22 -4 5 0 14 -9
20 -20 6 -12 8 -31 4 -43 -4 -12 -34 -48 -67 -79 -34 -32 -68 -58 -77 -58 -14
0 -16 11 -14 76 3 66 6 78 28 95 13 10 35 23 48 28 12 6 29 8 36 5z"/>
<path d="M273 39 c-5 0 -16 -9 -25 -20 -10 -10 -13 -19 -7 -19 6 0 17 6 25 14
8 8 14 17 14 20 0 3 -3 6 -7 5z"/>
</g>
</svg>
