<?xml version="1.0" standalone="no"?>
<!DOCTYPE svg PUBLIC "-//W3C//DTD SVG 20010904//EN"
 "http://www.w3.org/TR/2001/REC-SVG-20010904/DTD/svg10.dtd">
<svg version="1.0" xmlns="http://www.w3.org/2000/svg"
 width="56.000000pt" height="56.000000pt" viewBox="0 0 56.000000 56.000000"
 preserveAspectRatio="xMidYMid meet">
<metadata>
Created by potrace 1.16, written by Peter Selinger 2001-2019
</metadata>
<g transform="translate(0.000000,56.000000) scale(0.100000,-0.100000)"
fill="#000000" stroke="none">
<path d="M265 560 c-8 0 -15 -4 -15 -10 0 -5 7 -10 15 -10 8 0 15 5 15 10 0 6
-7 10 -15 10z"/>
<path d="M346 559 c-6 0 -20 -6 -31 -12 -11 -7 -22 -14 -25 -17 -3 -3 -15 -11
-27 -17 -13 -7 -36 -13 -53 -13 -21 0 -30 -5 -30 -16 0 -8 5 -24 11 -36 11
-20 12 -19 42 10 18 16 42 35 55 41 12 7 22 9 22 5 0 -4 -14 -31 -31 -60 -16
-29 -34 -56 -40 -59 -5 -4 -9 -26 -9 -51 0 -31 4 -44 14 -44 8 0 16 10 20 23
3 13 15 34 27 48 19 20 21 21 14 4 -4 -11 -12 -83 -16 -160 -5 -77 -12 -155
-15 -173 -6 -29 -4 -33 11 -30 10 1 26 17 36 34 15 27 17 57 16 207 -1 96 -5
179 -9 183 -5 4 -8 14 -8 23 0 9 11 29 24 45 13 17 21 38 18 48 -2 10 -9 18
-16 17z"/>
</g>
</svg>
