<?xml version="1.0" standalone="no"?>
<!DOCTYPE svg PUBLIC "-//W3C//DTD SVG 20010904//EN"
 "http://www.w3.org/TR/2001/REC-SVG-20010904/DTD/svg10.dtd">
<svg version="1.0" xmlns="http://www.w3.org/2000/svg"
 width="56.000000pt" height="56.000000pt" viewBox="0 0 56.000000 56.000000"
 preserveAspectRatio="xMidYMid meet">
<metadata>
Created by potrace 1.16, written by Peter Selinger 2001-2019
</metadata>
<g transform="translate(0.000000,56.000000) scale(0.100000,-0.100000)"
fill="#000000" stroke="none">
<path d="M270 539 c-8 -1 -28 -4 -45 -6 -16 -3 -36 -9 -42 -15 -7 -6 -13 -19
-13 -29 0 -10 8 -23 19 -28 10 -6 20 -9 22 -7 2 2 16 6 31 10 26 6 28 4 48
-62 15 -48 20 -89 18 -138 -3 -69 -3 -69 -89 -79 -48 -6 -94 -17 -103 -24 -11
-9 -16 -26 -14 -44 2 -25 12 -36 53 -58 28 -16 61 -28 73 -29 13 0 37 7 52 17
16 9 33 27 39 40 6 12 17 23 25 23 7 0 19 -7 26 -15 11 -13 8 -22 -19 -55 -24
-30 -28 -40 -16 -40 9 0 31 6 50 14 18 8 39 24 45 36 6 11 10 31 8 42 -2 12
-23 36 -48 54 -26 18 -43 37 -40 45 2 8 6 60 8 117 2 76 -1 116 -13 152 -9 28
-26 57 -38 65 -12 8 -28 14 -37 14z m-17 -400 c16 1 27 -4 27 -12 0 -8 -8 -21
-17 -30 -13 -11 -27 -14 -52 -9 -19 4 -36 13 -38 19 -2 6 9 16 24 21 15 6 40
11 56 11z"/>
</g>
</svg>
