<?xml version="1.0" standalone="no"?>
<!DOCTYPE svg PUBLIC "-//W3C//DTD SVG 20010904//EN"
 "http://www.w3.org/TR/2001/REC-SVG-20010904/DTD/svg10.dtd">
<svg version="1.0" xmlns="http://www.w3.org/2000/svg"
 width="56.000000pt" height="56.000000pt" viewBox="0 0 56.000000 56.000000"
 preserveAspectRatio="xMidYMid meet">
<metadata>
Created by potrace 1.16, written by Peter Selinger 2001-2019
</metadata>
<g transform="translate(0.000000,56.000000) scale(0.100000,-0.100000)"
fill="#000000" stroke="none">
<path d="M306 540 c-13 0 -30 -8 -39 -18 -10 -10 -17 -24 -17 -30 0 -7 -4 -12
-10 -12 -5 0 -26 -25 -46 -55 -37 -55 -37 -55 -22 -107 8 -28 19 -53 24 -55 5
-1 19 13 32 32 12 19 29 35 38 35 11 0 14 -6 9 -20 -4 -12 -2 -26 3 -33 5 -7
11 -39 12 -72 2 -33 2 -68 2 -77 -2 -14 -7 -15 -31 -7 -16 6 -39 21 -51 34
-22 24 -22 24 6 62 28 38 28 38 -3 9 -31 -28 -33 -29 -66 -13 -19 9 -40 23
-47 32 -7 8 -19 15 -27 15 -7 0 -24 -7 -37 -15 -19 -13 -24 -27 -30 -86 -4
-42 -2 -78 4 -89 8 -15 21 -20 50 -20 30 0 43 6 59 28 12 15 26 33 31 39 6 7
14 13 18 13 4 0 24 -17 44 -38 21 -20 47 -48 57 -62 19 -25 19 -25 56 12 37
37 37 37 29 120 -5 46 -9 90 -9 98 0 11 13 15 54 16 53 1 53 1 77 -52 12 -28
28 -55 34 -59 5 -3 19 -3 30 0 16 5 20 15 20 52 0 36 -5 51 -25 69 -14 13 -42
28 -63 33 -20 6 -44 11 -52 11 -8 0 -29 -9 -47 -20 -20 -12 -35 -15 -39 -9 -3
5 -9 31 -12 57 -5 35 -13 49 -29 57 -17 7 -21 15 -17 30 4 11 20 32 37 46 18
15 27 30 23 37 -4 7 -17 12 -30 12z m-221 -330 c7 0 20 -9 31 -21 19 -21 19
-21 -16 -50 -19 -16 -38 -29 -42 -29 -4 0 -8 11 -8 25 0 13 5 36 12 50 6 14
17 25 23 25z"/>
</g>
</svg>
