<?xml version="1.0" standalone="no"?>
<!DOCTYPE svg PUBLIC "-//W3C//DTD SVG 20010904//EN"
 "http://www.w3.org/TR/2001/REC-SVG-20010904/DTD/svg10.dtd">
<svg version="1.0" xmlns="http://www.w3.org/2000/svg"
 width="56.000000pt" height="56.000000pt" viewBox="0 0 56.000000 56.000000"
 preserveAspectRatio="xMidYMid meet">
<metadata>
Created by potrace 1.16, written by Peter Selinger 2001-2019
</metadata>
<g transform="translate(0.000000,56.000000) scale(0.100000,-0.100000)"
fill="#000000" stroke="none">
<path d="M218 520 c-7 0 -21 -5 -30 -11 -12 -6 -18 -22 -18 -44 0 -35 0 -35
50 -35 45 0 52 -3 60 -26 6 -14 10 -35 10 -48 0 -12 -20 -46 -44 -74 -25 -29
-54 -65 -66 -82 -19 -27 -24 -29 -68 -23 -41 4 -52 2 -75 -18 -18 -16 -28 -36
-29 -59 -3 -32 0 -35 26 -38 21 -3 37 5 62 29 34 33 34 33 61 8 14 -13 35 -32
45 -42 10 -9 28 -17 41 -17 12 0 33 7 45 16 12 8 27 25 34 37 6 12 15 40 20
62 5 22 10 71 11 110 2 56 5 70 19 73 9 2 35 -2 57 -8 29 -8 45 -19 56 -40 15
-29 15 -29 -32 -52 -27 -13 -47 -27 -46 -33 2 -5 28 -11 59 -13 46 -3 60 1 75
17 11 11 19 31 19 45 0 13 -3 26 -7 28 -5 2 -15 19 -24 38 -13 28 -25 38 -63
49 -26 7 -61 10 -80 7 -26 -5 -35 -3 -40 10 -3 8 -6 24 -6 35 0 11 -8 32 -17
47 -9 15 -17 28 -18 29 -1 2 -15 -1 -32 -6 -26 -8 -32 -6 -36 10 -3 10 -11 19
-19 19z m75 -250 c4 0 10 -7 13 -15 4 -8 1 -44 -6 -80 -7 -36 -16 -68 -21 -71
-5 -3 -24 2 -43 11 -19 9 -42 25 -52 36 -17 19 -17 20 7 37 13 9 40 31 59 49
19 18 39 33 43 33z"/>
</g>
</svg>
