<?xml version="1.0" standalone="no"?>
<!DOCTYPE svg PUBLIC "-//W3C//DTD SVG 20010904//EN"
 "http://www.w3.org/TR/2001/REC-SVG-20010904/DTD/svg10.dtd">
<svg version="1.0" xmlns="http://www.w3.org/2000/svg"
 width="56.000000pt" height="56.000000pt" viewBox="0 0 56.000000 56.000000"
 preserveAspectRatio="xMidYMid meet">
<metadata>
Created by potrace 1.16, written by Peter Selinger 2001-2019
</metadata>
<g transform="translate(0.000000,56.000000) scale(0.100000,-0.100000)"
fill="#000000" stroke="none">
<path d="M51 560 c-22 0 -41 -3 -41 -7 0 -5 4 -14 9 -21 4 -8 19 -12 32 -10
23 3 24 1 21 -47 -2 -27 -8 -66 -14 -85 -6 -19 -19 -57 -28 -85 -10 -27 -20
-93 -24 -145 -4 -62 -3 -106 5 -127 6 -18 17 -33 24 -33 8 0 20 24 30 58 8 31
29 83 45 114 17 31 26 59 21 62 -5 3 -20 -11 -35 -32 -14 -21 -26 -43 -26 -49
0 -6 -6 -16 -14 -22 -10 -9 -15 -8 -19 1 -2 7 -1 33 3 58 4 25 16 70 26 100
10 30 26 70 36 88 12 21 18 53 18 90 0 31 -7 65 -14 75 -9 11 -27 17 -55 17z"/>
<path d="M405 439 c-57 -1 -109 -6 -121 -13 -12 -6 -29 -18 -38 -25 -9 -7 -16
-20 -16 -27 0 -8 4 -14 9 -14 4 0 21 10 36 21 15 12 43 24 63 25 21 2 49 1 65
-2 15 -3 27 -10 27 -16 0 -6 -17 -31 -37 -57 -21 -25 -44 -56 -50 -68 -7 -13
-13 -38 -13 -56 0 -25 9 -42 38 -69 20 -20 60 -48 88 -62 29 -14 64 -26 78
-26 17 0 26 5 26 15 0 9 -8 24 -17 34 -10 11 -43 26 -74 35 -31 9 -63 22 -73
29 -9 7 -19 28 -22 47 -5 30 0 42 36 88 27 33 57 59 81 69 24 9 39 22 39 32 0
9 -5 22 -12 29 -8 8 -46 12 -113 11z"/>
<path d="M211 350 c-4 0 -20 -18 -35 -40 -14 -22 -24 -40 -21 -40 3 0 19 12
35 27 17 14 30 32 30 40 0 7 -4 13 -9 13z"/>
</g>
</svg>
