<?xml version="1.0" standalone="no"?>
<!DOCTYPE svg PUBLIC "-//W3C//DTD SVG 20010904//EN"
 "http://www.w3.org/TR/2001/REC-SVG-20010904/DTD/svg10.dtd">
<svg version="1.0" xmlns="http://www.w3.org/2000/svg"
 width="56.000000pt" height="56.000000pt" viewBox="0 0 56.000000 56.000000"
 preserveAspectRatio="xMidYMid meet">
<metadata>
Created by potrace 1.16, written by Peter Selinger 2001-2019
</metadata>
<g transform="translate(0.000000,56.000000) scale(0.100000,-0.100000)"
fill="#000000" stroke="none">
<path d="M285 560 c-19 0 -35 -4 -35 -8 0 -5 -17 -17 -38 -26 -21 -10 -43 -26
-50 -36 -6 -11 -9 -26 -6 -34 3 -8 18 -18 34 -21 16 -3 31 -12 33 -19 3 -7 8
-54 12 -103 7 -90 7 -90 -41 -103 -27 -7 -55 -20 -61 -28 -7 -9 -13 -29 -13
-45 0 -15 4 -37 10 -47 5 -10 20 -20 34 -24 17 -4 33 1 52 17 15 12 39 34 53
48 14 15 33 37 43 50 12 18 19 21 28 12 8 -7 9 -23 5 -43 -4 -17 -23 -48 -43
-68 -21 -20 -55 -47 -77 -59 -40 -22 -40 -22 5 -23 35 0 56 7 95 35 28 19 60
47 71 62 12 16 24 43 27 62 5 23 2 42 -8 57 -8 13 -29 31 -46 39 -16 9 -39 13
-49 10 -18 -6 -20 -1 -20 50 0 31 -5 88 -12 127 -11 69 -11 72 10 86 12 8 22
18 22 23 0 5 -16 9 -35 9z"/>
</g>
</svg>
