<?xml version="1.0" standalone="no"?>
<!DOCTYPE svg PUBLIC "-//W3C//DTD SVG 20010904//EN"
 "http://www.w3.org/TR/2001/REC-SVG-20010904/DTD/svg10.dtd">
<svg version="1.0" xmlns="http://www.w3.org/2000/svg"
 width="56.000000pt" height="56.000000pt" viewBox="0 0 56.000000 56.000000"
 preserveAspectRatio="xMidYMid meet">
<metadata>
Created by potrace 1.16, written by Peter Selinger 2001-2019
</metadata>
<g transform="translate(0.000000,56.000000) scale(0.100000,-0.100000)"
fill="#000000" stroke="none">
<path d="M204 510 c-5 0 -15 -9 -21 -20 -7 -10 -11 -25 -9 -32 3 -7 7 -25 10
-40 4 -16 12 -28 20 -28 7 0 31 14 52 31 39 31 39 31 42 7 2 -12 11 -29 20
-35 14 -12 14 -13 -1 -13 -10 0 -17 -8 -17 -18 0 -10 5 -23 12 -30 9 -9 8 -12
-8 -12 -11 0 -46 -27 -79 -61 -59 -59 -61 -60 -108 -57 -32 2 -47 -1 -47 -9 0
-7 11 -15 25 -19 14 -3 25 -12 25 -20 0 -7 -12 -24 -27 -38 -20 -19 -30 -22
-40 -15 -7 6 -15 26 -19 45 -4 21 -12 34 -21 34 -13 0 -14 -8 -9 -42 4 -23 12
-54 19 -68 9 -18 21 -26 45 -28 29 -3 35 1 64 47 18 30 38 51 48 51 10 0 22
-6 28 -13 6 -7 34 -24 62 -37 40 -19 53 -21 63 -11 8 8 12 50 12 131 0 85 4
121 12 124 7 3 25 -5 40 -18 16 -13 36 -39 45 -58 10 -18 22 -45 27 -60 6 -16
15 -28 21 -28 5 0 10 -6 10 -14 0 -8 6 -16 13 -19 6 -2 20 -2 30 1 12 3 17 14
17 38 0 19 -3 34 -7 34 -5 0 -16 18 -27 40 -10 21 -31 53 -45 70 -18 21 -42
35 -76 44 -50 12 -50 12 -55 58 -4 35 -12 52 -32 68 -26 20 -28 20 -54 4 -25
-17 -27 -17 -39 -1 -7 9 -16 17 -21 17z m83 -240 c11 0 13 -12 11 -52 -2 -42
-7 -54 -22 -56 -10 -2 -29 2 -42 9 -13 7 -24 16 -24 20 0 5 14 24 31 44 17 19
38 35 46 35z"/>
</g>
</svg>
