<?xml version="1.0" standalone="no"?>
<!DOCTYPE svg PUBLIC "-//W3C//DTD SVG 20010904//EN"
 "http://www.w3.org/TR/2001/REC-SVG-20010904/DTD/svg10.dtd">
<svg version="1.0" xmlns="http://www.w3.org/2000/svg"
 width="56.000000pt" height="56.000000pt" viewBox="0 0 56.000000 56.000000"
 preserveAspectRatio="xMidYMid meet">
<metadata>
Created by potrace 1.16, written by Peter Selinger 2001-2019
</metadata>
<g transform="translate(0.000000,56.000000) scale(0.100000,-0.100000)"
fill="#000000" stroke="none">
<path d="M301 519 c-9 0 -29 -9 -46 -20 -16 -10 -42 -19 -57 -19 -17 0 -28 -5
-28 -14 0 -7 7 -19 15 -26 11 -9 22 -9 46 -1 18 6 38 11 45 11 11 0 14 -17 14
-67 0 -38 -6 -75 -13 -83 -7 -8 -41 -30 -76 -47 -35 -18 -68 -33 -72 -33 -5 0
-9 6 -9 13 0 7 -13 28 -29 47 -28 34 -28 34 -54 6 -15 -16 -30 -44 -33 -64 -4
-19 -3 -47 2 -61 6 -16 18 -27 33 -29 12 -2 32 5 43 15 20 18 21 17 42 -12 11
-16 34 -42 50 -57 15 -16 36 -28 45 -28 9 1 26 9 39 19 12 11 33 43 47 73 14
30 25 71 25 96 0 36 4 44 26 52 14 6 38 10 54 10 16 0 40 -10 54 -22 26 -23
26 -23 3 -48 -12 -14 -48 -45 -79 -68 -31 -24 -66 -60 -78 -79 -13 -22 -18
-39 -12 -45 6 -6 18 -5 31 4 12 7 29 28 38 47 9 18 37 48 62 67 25 18 65 41
88 51 37 16 43 22 43 49 0 25 -7 34 -36 50 -21 11 -44 35 -56 58 -15 29 -22
36 -31 27 -9 -10 -7 -16 7 -27 11 -7 18 -15 15 -18 -2 -2 -30 -6 -61 -10 -58
-6 -58 -6 -58 77 0 51 -5 88 -12 95 -7 7 -19 12 -27 11z m-225 -260 c7 -5 15
-22 19 -36 4 -17 1 -31 -9 -41 -8 -8 -22 -12 -30 -9 -10 4 -16 19 -16 40 0 18
5 38 12 45 8 8 15 8 24 1z m197 -8 c4 -4 1 -29 -7 -55 -8 -26 -20 -53 -26 -61
-7 -8 -22 -15 -33 -15 -11 0 -29 7 -39 17 -10 9 -18 24 -18 33 0 10 12 26 28
36 15 10 41 26 57 35 17 9 33 14 38 10z"/>
</g>
</svg>
