<?xml version="1.0" standalone="no"?>
<!DOCTYPE svg PUBLIC "-//W3C//DTD SVG 20010904//EN"
 "http://www.w3.org/TR/2001/REC-SVG-20010904/DTD/svg10.dtd">
<svg version="1.0" xmlns="http://www.w3.org/2000/svg"
 width="56.000000pt" height="56.000000pt" viewBox="0 0 56.000000 56.000000"
 preserveAspectRatio="xMidYMid meet">
<metadata>
Created by potrace 1.16, written by Peter Selinger 2001-2019
</metadata>
<g transform="translate(0.000000,56.000000) scale(0.100000,-0.100000)"
fill="#000000" stroke="none">
<path d="M236 535 c-43 1 -80 -3 -82 -7 -3 -5 -1 -15 6 -23 6 -7 27 -21 46
-30 19 -9 43 -14 53 -10 13 4 20 -1 25 -17 3 -13 6 -51 6 -86 0 -51 -3 -64
-17 -68 -10 -3 -27 -10 -38 -15 -11 -6 -33 -17 -50 -26 -17 -10 -58 -17 -96
-18 -37 -2 -72 -6 -78 -9 -6 -4 -11 -13 -11 -20 0 -8 19 -18 43 -25 23 -6 63
-10 89 -8 35 1 54 -4 77 -21 17 -12 41 -22 54 -22 13 0 31 8 40 18 10 10 17
33 17 50 0 17 5 34 11 37 5 4 9 19 7 33 -2 22 3 30 32 44 19 10 47 18 62 18
18 0 33 -8 42 -22 8 -13 17 -42 21 -65 4 -28 2 -50 -8 -70 -8 -15 -19 -49 -25
-74 -7 -26 -14 -54 -18 -63 -5 -13 1 -16 30 -16 26 0 38 5 42 18 3 9 10 28 16
42 6 14 14 33 19 42 5 10 9 55 9 100 0 82 0 82 -41 120 -22 21 -48 38 -58 38
-9 0 -21 -4 -26 -9 -6 -5 -24 -12 -42 -16 -28 -6 -32 -4 -37 22 -3 15 -8 49
-12 75 -3 26 -12 55 -19 64 -9 14 -29 18 -89 19z m29 -289 c6 -1 11 -9 12 -17
2 -8 -1 -19 -5 -26 -4 -7 -17 -10 -30 -6 -12 3 -22 10 -22 16 0 5 8 16 18 23
9 7 22 12 27 10z"/>
</g>
</svg>
