<?xml version="1.0" standalone="no"?>
<!DOCTYPE svg PUBLIC "-//W3C//DTD SVG 20010904//EN"
 "http://www.w3.org/TR/2001/REC-SVG-20010904/DTD/svg10.dtd">
<svg version="1.0" xmlns="http://www.w3.org/2000/svg"
 width="56.000000pt" height="56.000000pt" viewBox="0 0 56.000000 56.000000"
 preserveAspectRatio="xMidYMid meet">
<metadata>
Created by potrace 1.16, written by Peter Selinger 2001-2019
</metadata>
<g transform="translate(0.000000,56.000000) scale(0.100000,-0.100000)"
fill="#000000" stroke="none">
<path d="M44 559 c-7 1 -15 -6 -18 -15 -3 -9 3 -27 13 -40 16 -20 19 -35 14
-82 -2 -31 -12 -75 -20 -97 -8 -22 -18 -85 -20 -140 -5 -81 -2 -107 11 -132 9
-18 20 -35 26 -38 6 -3 19 -3 30 0 15 5 20 15 21 43 0 20 6 69 13 107 7 39 20
86 29 104 9 19 17 38 17 43 0 4 -6 8 -13 8 -8 0 -18 -10 -24 -22 -6 -13 -15
-35 -22 -50 -6 -16 -15 -28 -21 -28 -5 0 -10 12 -10 28 1 15 5 45 10 67 5 22
13 60 19 85 5 25 12 52 16 61 4 10 -7 32 -27 57 -18 22 -38 41 -44 41z m27
-366 c6 -6 7 -18 3 -27 -6 -16 -8 -17 -16 -2 -5 9 -6 21 -2 27 4 7 10 7 15 2z"/>
<path d="M345 510 c-8 0 -18 -7 -22 -16 -3 -9 -1 -25 5 -35 8 -12 9 -27 3 -42
-5 -12 -16 -29 -25 -36 -11 -10 -16 -30 -16 -71 0 -32 7 -73 15 -93 8 -20 23
-37 37 -41 13 -3 49 -6 80 -6 32 0 76 7 98 16 22 9 40 22 40 30 0 7 -12 17
-26 20 -15 4 -55 2 -89 -5 -34 -6 -67 -11 -72 -11 -6 0 -16 13 -22 28 -7 16
-11 55 -9 88 3 58 3 58 55 89 29 16 53 37 53 46 0 11 -14 20 -44 28 -25 6 -52
11 -61 11z"/>
<path d="M248 470 c-7 -1 -32 -25 -55 -54 -24 -29 -43 -61 -43 -70 0 -9 4 -16
8 -16 5 0 16 8 25 18 10 10 14 21 11 24 -3 4 3 15 13 25 11 11 27 22 36 26 9
3 17 16 17 27 0 11 -6 20 -12 20z"/>
<path d="M240 140 c-10 0 -21 -4 -25 -9 -3 -5 -1 -12 4 -15 5 -4 13 -31 17
-62 6 -52 8 -55 33 -52 22 3 26 8 29 41 2 26 -3 46 -18 67 -12 17 -30 30 -40
30z"/>
</g>
</svg>
