<?xml version="1.0" standalone="no"?>
<!DOCTYPE svg PUBLIC "-//W3C//DTD SVG 20010904//EN"
 "http://www.w3.org/TR/2001/REC-SVG-20010904/DTD/svg10.dtd">
<svg version="1.0" xmlns="http://www.w3.org/2000/svg"
 width="56.000000pt" height="56.000000pt" viewBox="0 0 56.000000 56.000000"
 preserveAspectRatio="xMidYMid meet">
<metadata>
Created by potrace 1.16, written by Peter Selinger 2001-2019
</metadata>
<g transform="translate(0.000000,56.000000) scale(0.100000,-0.100000)"
fill="#000000" stroke="none">
<path d="M151 510 c-4 0 -11 -3 -14 -7 -4 -3 -7 -24 -7 -45 0 -21 7 -50 16
-63 9 -14 20 -25 25 -25 4 0 20 12 34 26 19 18 30 23 37 16 6 -6 10 -29 10
-53 -1 -23 -4 -60 -7 -81 -5 -28 -14 -42 -34 -53 -15 -7 -53 -34 -84 -59 -30
-25 -60 -46 -66 -46 -6 0 -15 9 -21 20 -6 11 -16 17 -25 14 -10 -4 -15 -20
-15 -49 0 -38 3 -44 26 -49 19 -5 34 1 64 24 21 16 43 30 50 30 6 0 28 -13 48
-30 20 -16 48 -31 62 -32 24 -3 25 0 31 68 4 39 10 89 14 111 6 39 9 42 46 48
25 4 39 12 39 22 0 12 -8 13 -41 8 -42 -7 -42 -7 -35 71 5 60 4 84 -7 98 -13
18 -16 18 -62 3 -27 -10 -49 -16 -50 -14 -1 1 -8 12 -14 25 -6 12 -15 22 -20
22z m77 -355 c2 -20 1 -39 -1 -41 -2 -3 -11 -2 -20 2 -8 3 -18 12 -21 20 -3 7
5 23 17 35 22 20 22 20 25 -16z"/>
<path d="M423 305 c-27 5 -33 3 -33 -10 0 -9 9 -19 20 -22 11 -3 20 -10 20
-15 0 -6 11 -23 25 -40 13 -16 30 -47 36 -69 11 -35 16 -40 38 -37 23 3 26 8
29 46 2 23 -1 42 -6 42 -5 0 -14 11 -20 24 -6 13 -26 35 -44 49 -18 14 -48 28
-65 32z"/>
</g>
</svg>
