<?xml version="1.0" standalone="no"?>
<!DOCTYPE svg PUBLIC "-//W3C//DTD SVG 20010904//EN"
 "http://www.w3.org/TR/2001/REC-SVG-20010904/DTD/svg10.dtd">
<svg version="1.0" xmlns="http://www.w3.org/2000/svg"
 width="56.000000pt" height="56.000000pt" viewBox="0 0 56.000000 56.000000"
 preserveAspectRatio="xMidYMid meet">
<metadata>
Created by potrace 1.16, written by Peter Selinger 2001-2019
</metadata>
<g transform="translate(0.000000,56.000000) scale(0.100000,-0.100000)"
fill="#000000" stroke="none">
<path d="M154 560 c-22 0 -25 -4 -22 -32 2 -17 8 -33 14 -35 7 -2 17 10 23 28
6 18 11 34 11 35 0 2 -12 4 -26 4z"/>
<path d="M310 560 c-22 0 -40 -4 -40 -8 0 -5 -22 -20 -50 -33 -38 -18 -49 -29
-47 -44 1 -12 17 -27 39 -38 33 -16 38 -23 43 -65 4 -26 9 -55 11 -64 3 -9 -7
-27 -23 -42 -15 -14 -35 -26 -45 -26 -9 0 -24 -10 -32 -22 -9 -12 -16 -34 -16
-49 0 -18 9 -32 27 -44 25 -17 28 -17 69 3 26 13 46 17 49 12 3 -6 -2 -23 -11
-40 -10 -16 -15 -33 -11 -37 4 -3 19 -3 34 3 14 5 41 29 59 54 18 25 35 57 39
72 4 15 4 36 1 46 -4 10 -22 26 -41 35 -34 16 -35 18 -35 76 0 32 -7 78 -15
101 -8 23 -15 49 -15 56 0 8 11 20 25 26 14 6 25 15 25 20 0 4 -18 8 -40 8z"/>
<path d="M247 50 c-7 0 -28 -11 -47 -25 -33 -24 -33 -25 -9 -25 13 0 35 7 47
16 12 8 22 19 22 25 0 5 -6 9 -13 9z"/>
</g>
</svg>
