<?xml version="1.0" standalone="no"?>
<!DOCTYPE svg PUBLIC "-//W3C//DTD SVG 20010904//EN"
 "http://www.w3.org/TR/2001/REC-SVG-20010904/DTD/svg10.dtd">
<svg version="1.0" xmlns="http://www.w3.org/2000/svg"
 width="56.000000pt" height="56.000000pt" viewBox="0 0 56.000000 56.000000"
 preserveAspectRatio="xMidYMid meet">
<metadata>
Created by potrace 1.16, written by Peter Selinger 2001-2019
</metadata>
<g transform="translate(0.000000,56.000000) scale(0.100000,-0.100000)"
fill="#000000" stroke="none">
<path d="M270 560 c-22 0 -40 -4 -40 -9 0 -5 -13 -12 -30 -16 -16 -4 -43 -20
-61 -35 -17 -17 -29 -37 -27 -47 2 -12 14 -19 36 -21 19 -2 44 4 59 13 13 9
31 14 38 11 8 -3 19 -23 25 -46 6 -23 8 -49 5 -59 -3 -11 -20 -25 -36 -32 -17
-7 -65 -51 -106 -98 -41 -47 -83 -91 -94 -99 -11 -8 -19 -25 -19 -43 0 -16 9
-38 20 -49 12 -12 25 -18 30 -15 5 3 22 29 39 58 16 28 43 66 58 84 15 17 39
47 53 67 14 19 35 39 47 45 12 6 24 7 26 3 2 -4 3 -32 3 -62 -1 -44 -4 -54
-16 -51 -8 2 -31 6 -50 9 -35 5 -35 4 -17 -16 11 -11 39 -30 63 -41 24 -12 49
-21 55 -21 8 0 10 26 7 91 -4 69 -2 92 7 96 8 2 43 -23 79 -58 36 -34 66 -67
66 -74 0 -6 -10 -21 -23 -33 -13 -12 -27 -22 -31 -22 -4 0 -22 -11 -41 -25
-18 -14 -35 -35 -38 -45 -4 -15 0 -20 14 -20 11 0 22 7 25 15 4 8 11 15 16 15
6 0 24 14 41 30 18 17 43 41 55 53 13 12 28 30 33 39 8 14 1 28 -32 63 -23 25
-46 45 -51 45 -6 0 -21 9 -35 20 -14 11 -38 20 -54 20 -18 0 -29 6 -33 18 -2
9 -8 46 -11 82 -4 36 -13 77 -20 91 -9 16 -10 30 -4 40 5 8 9 17 9 22 0 4 -18
7 -40 7z"/>
</g>
</svg>
