<?xml version="1.0" standalone="no"?>
<!DOCTYPE svg PUBLIC "-//W3C//DTD SVG 20010904//EN"
 "http://www.w3.org/TR/2001/REC-SVG-20010904/DTD/svg10.dtd">
<svg version="1.0" xmlns="http://www.w3.org/2000/svg"
 width="56.000000pt" height="56.000000pt" viewBox="0 0 56.000000 56.000000"
 preserveAspectRatio="xMidYMid meet">
<metadata>
Created by potrace 1.16, written by Peter Selinger 2001-2019
</metadata>
<g transform="translate(0.000000,56.000000) scale(0.100000,-0.100000)"
fill="#000000" stroke="none">
<path d="M160 560 c-5 0 -11 -9 -15 -19 -3 -11 -3 -31 1 -45 3 -14 14 -26 23
-27 9 -1 26 0 38 0 13 2 23 -5 27 -16 3 -10 2 -49 -2 -88 -7 -70 -7 -70 -55
-95 -45 -24 -49 -24 -61 -7 -7 9 -23 17 -34 17 -11 0 -30 -12 -41 -26 -11 -15
-25 -42 -31 -62 -6 -25 -6 -40 2 -49 6 -7 19 -13 29 -13 10 0 21 5 24 11 4 5
14 9 22 7 8 -2 32 -34 53 -73 35 -66 40 -70 75 -73 28 -3 55 6 109 34 39 21
85 46 103 55 18 10 51 30 73 45 38 26 40 29 40 79 0 29 -6 68 -14 87 -8 18
-25 39 -38 45 -13 6 -36 16 -51 22 -15 6 -45 11 -66 11 -23 0 -44 -6 -51 -15
-7 -9 -16 -12 -20 -8 -4 4 -3 36 3 71 10 55 9 67 -8 98 -11 20 -26 34 -37 34
-11 0 -26 -7 -34 -15 -9 -8 -22 -15 -30 -15 -8 0 -17 7 -20 15 -4 8 -10 15
-14 15z m248 -231 c13 0 33 -10 47 -25 15 -16 25 -39 25 -56 0 -16 -5 -38 -10
-48 -6 -11 -38 -38 -73 -61 -34 -23 -74 -53 -89 -66 -14 -14 -30 -23 -35 -20
-5 3 -5 58 0 124 5 65 12 122 17 127 5 5 29 13 52 17 24 3 53 7 66 8z m-202
-89 c11 0 14 -17 14 -79 0 -44 -4 -82 -8 -85 -5 -3 -25 17 -45 43 -20 27 -37
53 -37 59 0 5 14 22 31 36 17 14 37 26 45 26z"/>
</g>
</svg>
