<?xml version="1.0" standalone="no"?>
<!DOCTYPE svg PUBLIC "-//W3C//DTD SVG 20010904//EN"
 "http://www.w3.org/TR/2001/REC-SVG-20010904/DTD/svg10.dtd">
<svg version="1.0" xmlns="http://www.w3.org/2000/svg"
 width="56.000000pt" height="56.000000pt" viewBox="0 0 56.000000 56.000000"
 preserveAspectRatio="xMidYMid meet">
<metadata>
Created by potrace 1.16, written by Peter Selinger 2001-2019
</metadata>
<g transform="translate(0.000000,56.000000) scale(0.100000,-0.100000)"
fill="#000000" stroke="none">
<path d="M190 480 c-11 0 -20 -7 -20 -15 0 -8 -5 -24 -11 -34 -7 -10 -9 -30
-5 -45 4 -15 14 -30 23 -33 8 -3 24 -1 34 5 10 7 23 12 28 12 5 0 13 -20 17
-46 5 -34 10 -44 22 -42 11 2 19 19 24 48 4 25 5 54 2 64 -4 11 -12 26 -20 33
-7 7 -22 13 -33 13 -11 0 -23 -4 -26 -10 -3 -5 -11 -10 -17 -10 -6 0 -8 12 -4
30 5 25 2 30 -14 30z"/>
<path d="M396 316 c-24 6 -27 4 -24 -12 2 -10 10 -20 18 -21 8 -2 22 1 30 6 8
6 12 12 10 15 -3 2 -18 8 -34 12z"/>
<path d="M413 280 c-1 0 -3 -4 -3 -8 0 -5 9 -18 20 -30 11 -12 20 -25 20 -30
0 -5 8 -16 18 -25 10 -10 27 -17 38 -17 10 0 27 7 37 14 9 7 17 18 17 24 0 7
-18 15 -40 18 -22 4 -40 10 -40 15 0 4 -14 15 -32 23 -17 9 -33 16 -35 16z"/>
<path d="M275 259 c-14 2 -17 -2 -12 -19 3 -12 -1 -37 -9 -56 -8 -19 -21 -34
-28 -34 -8 0 -26 4 -40 10 -21 8 -26 16 -26 45 0 36 0 36 -29 20 -16 -8 -36
-22 -45 -30 -9 -9 -20 -13 -26 -10 -5 3 -10 13 -10 21 0 9 -7 14 -17 12 -15
-3 -17 -12 -15 -48 1 -24 8 -50 14 -57 6 -7 16 -13 23 -13 7 0 29 11 49 25 20
14 41 25 45 25 5 0 25 -16 44 -35 19 -19 38 -35 42 -35 3 0 21 11 40 25 18 14
35 37 38 51 2 14 -1 41 -8 62 -7 20 -21 39 -30 41z"/>
</g>
</svg>
