<?xml version="1.0" standalone="no"?>
<!DOCTYPE svg PUBLIC "-//W3C//DTD SVG 20010904//EN"
 "http://www.w3.org/TR/2001/REC-SVG-20010904/DTD/svg10.dtd">
<svg version="1.0" xmlns="http://www.w3.org/2000/svg"
 width="128.000000pt" height="128.000000pt" viewBox="0 0 128.000000 128.000000"
 preserveAspectRatio="xMidYMid meet">
<metadata>
Created by potrace 1.16, written by Peter Selinger 2001-2019
</metadata>
<g transform="translate(0.000000,128.000000) scale(0.100000,-0.100000)"
fill="#000000" stroke="none">
<path d="M785 1245 c-12 3 -33 -3 -52 -15 -18 -12 -53 -23 -83 -25 -28 -2 -57
-8 -65 -15 -7 -6 -19 -10 -27 -9 -7 2 -39 -3 -70 -10 -46 -10 -65 -10 -92 0
-28 10 -38 10 -50 0 -9 -8 -16 -17 -16 -21 0 -4 17 -26 39 -49 24 -26 48 -41
63 -41 13 0 34 7 46 16 14 10 33 14 47 10 14 -4 48 3 82 16 46 17 76 22 142
20 53 -1 89 2 98 10 8 6 21 25 30 41 13 27 13 31 -1 45 -8 9 -28 17 -43 18
-16 2 -37 6 -48 9z"/>
<path d="M619 1029 c-3 1 -14 -8 -24 -18 -16 -19 -16 -21 5 -50 11 -17 22 -43
23 -58 1 -19 -5 -30 -22 -39 -14 -7 -59 -15 -100 -19 -42 -3 -101 -10 -131
-16 -30 -5 -77 -17 -105 -25 -27 -8 -81 -19 -120 -25 -38 -7 -79 -11 -90 -11
-10 1 -25 -4 -32 -10 -7 -6 -13 -19 -13 -30 0 -13 14 -25 47 -40 26 -12 60
-21 74 -20 15 0 42 8 59 17 20 10 42 14 58 10 15 -4 38 0 56 9 17 8 38 17 46
21 8 3 26 12 40 20 14 8 39 15 56 15 17 0 37 7 44 15 9 11 16 13 24 5 5 -5 34
-10 62 -10 31 0 56 -5 60 -12 5 -7 12 -60 16 -118 4 -58 9 -163 11 -235 2 -72
0 -154 -4 -184 -5 -30 -15 -61 -22 -68 -11 -11 -21 -9 -61 13 -36 20 -50 24
-59 15 -9 -9 -5 -23 13 -56 14 -25 33 -48 42 -51 10 -3 18 -13 18 -23 0 -10 6
-23 13 -29 7 -6 33 -11 57 -10 25 1 51 6 58 12 8 5 25 32 38 59 13 27 23 66
22 86 0 20 -5 44 -9 53 -6 11 -2 28 12 52 15 26 19 44 14 66 -4 17 -7 128 -8
248 0 120 2 223 6 229 5 7 24 11 47 8 22 -2 44 -7 50 -10 6 -4 17 -1 25 5 9 7
26 9 40 6 14 -4 34 -2 45 4 13 7 32 7 62 -1 24 -7 68 -13 98 -14 32 -1 69 5
88 14 21 10 32 22 32 36 0 16 -14 27 -59 48 -32 15 -74 27 -92 27 -18 0 -46
-4 -63 -9 -17 -6 -65 -17 -106 -27 -41 -9 -91 -18 -111 -20 -23 -3 -41 1 -49
10 -6 8 -13 29 -15 47 -3 18 -9 37 -15 43 -5 5 -40 17 -77 27 -38 10 -71 18
-74 18z"/>
</g>
</svg>
