<?xml version="1.0" standalone="no"?>
<!DOCTYPE svg PUBLIC "-//W3C//DTD SVG 20010904//EN"
 "http://www.w3.org/TR/2001/REC-SVG-20010904/DTD/svg10.dtd">
<svg version="1.0" xmlns="http://www.w3.org/2000/svg"
 width="128.000000pt" height="128.000000pt" viewBox="0 0 128.000000 128.000000"
 preserveAspectRatio="xMidYMid meet">
<metadata>
Created by potrace 1.16, written by Peter Selinger 2001-2019
</metadata>
<g transform="translate(0.000000,128.000000) scale(0.100000,-0.100000)"
fill="#000000" stroke="none">
<path d="M662 1280 c-9 0 -23 -9 -29 -19 -7 -11 -52 -41 -100 -67 -48 -26 -97
-55 -108 -64 -11 -10 -30 -21 -42 -25 -16 -4 -23 -2 -23 7 0 8 -20 29 -45 46
-25 18 -50 32 -55 32 -6 0 -10 -12 -10 -28 0 -15 7 -38 16 -50 11 -16 25 -22
53 -22 30 0 40 -4 44 -20 3 -11 11 -20 19 -20 7 0 25 8 39 18 15 9 59 38 98
65 40 26 78 47 86 47 8 0 15 -8 15 -18 0 -10 -23 -38 -51 -63 -29 -24 -71 -62
-94 -84 -23 -22 -66 -61 -94 -87 -29 -27 -56 -48 -61 -48 -6 0 -10 -7 -10 -16
0 -14 7 -15 39 -10 29 4 44 2 55 -9 14 -14 12 -20 -12 -58 -15 -24 -60 -80
-101 -125 -41 -45 -80 -98 -87 -119 -9 -24 -10 -42 -3 -54 5 -10 9 -29 9 -42
0 -13 9 -32 20 -42 17 -16 18 -20 6 -44 -8 -14 -26 -37 -41 -51 -14 -14 -33
-41 -41 -60 -9 -19 -20 -42 -25 -50 -5 -8 -17 -31 -26 -50 -9 -19 -17 -60 -17
-90 -1 -55 -1 -55 44 -53 25 1 55 5 67 8 13 3 23 11 23 18 0 7 15 27 33 44 17
17 43 48 57 69 18 28 24 53 24 89 0 28 -6 64 -14 80 -8 17 -14 33 -14 36 -1 3
26 27 59 54 33 26 87 77 121 113 42 46 65 64 76 59 12 -4 15 -15 11 -44 -4
-28 -1 -42 11 -52 11 -9 29 -11 54 -7 20 3 52 9 71 12 34 7 34 7 27 -27 -5
-19 -9 -47 -10 -62 -2 -15 -8 -33 -14 -39 -7 -7 -12 -23 -12 -36 0 -15 -19
-47 -49 -81 -39 -45 -50 -66 -55 -106 -4 -27 -9 -57 -12 -66 -2 -8 2 -22 8
-31 11 -14 20 -15 71 -4 38 8 65 20 80 36 12 14 29 27 37 29 8 2 31 4 50 5 21
1 49 11 69 26 18 14 50 43 72 65 22 22 42 51 46 64 3 13 0 78 -7 145 -6 66
-19 141 -27 166 -10 28 -16 89 -18 160 -1 63 2 139 6 169 5 30 13 59 18 64 6
6 24 -2 50 -22 22 -18 47 -46 55 -63 9 -17 16 -41 16 -54 0 -13 5 -26 10 -29
6 -4 17 -1 25 5 8 7 15 29 15 50 0 21 -9 57 -19 81 -11 24 -43 66 -70 93 -48
47 -52 49 -76 36 -14 -7 -25 -19 -25 -25 0 -7 -14 -30 -31 -51 -31 -39 -31
-39 -25 -249 4 -115 10 -262 14 -325 7 -115 7 -115 -47 -167 -29 -29 -58 -53
-62 -53 -5 0 -9 -7 -9 -15 0 -8 -6 -15 -13 -15 -7 0 -29 -9 -50 -20 -20 -11
-41 -20 -47 -20 -5 0 -10 8 -10 19 0 10 7 24 15 31 8 7 15 18 15 26 0 7 6 17
13 21 7 4 23 23 36 41 13 19 28 50 33 70 5 20 13 53 17 72 5 19 11 55 14 79 5
39 2 46 -26 72 -17 16 -39 29 -49 29 -9 0 -33 -8 -53 -17 -32 -15 -37 -16 -51
-1 -12 12 -14 26 -9 56 5 30 19 51 61 92 30 29 54 59 54 69 0 9 -17 28 -38 43
-22 15 -43 23 -50 19 -7 -4 -25 -37 -40 -73 -21 -50 -41 -78 -83 -114 -29 -27
-100 -91 -156 -142 -67 -62 -108 -92 -118 -88 -10 3 -15 19 -15 48 0 35 8 52
47 102 26 34 94 114 151 179 89 101 103 121 98 143 -4 14 -13 27 -21 29 -8 3
-22 7 -30 10 -14 4 -14 7 -1 28 9 12 33 34 54 47 22 14 47 37 55 53 9 15 26
31 39 36 13 5 40 25 61 44 20 19 37 44 37 55 0 12 -7 27 -16 34 -8 7 -24 21
-35 31 -10 9 -27 17 -37 17z m-420 -981 c4 1 12 -7 17 -18 6 -10 8 -21 4 -24
-3 -4 -8 -32 -12 -63 -5 -50 -10 -60 -36 -76 -16 -10 -40 -23 -53 -30 -12 -6
-25 -8 -29 -5 -3 4 2 32 13 62 10 32 28 62 41 70 15 10 23 25 23 44 0 16 6 32
13 34 6 3 15 6 19 6z"/>
<path d="M926 1280 c-20 0 -36 -3 -36 -7 0 -5 7 -17 16 -28 11 -15 18 -17 32
-9 9 6 18 19 20 28 3 12 -4 16 -32 16z"/>
</g>
</svg>
