<?xml version="1.0" standalone="no"?>
<!DOCTYPE svg PUBLIC "-//W3C//DTD SVG 20010904//EN"
 "http://www.w3.org/TR/2001/REC-SVG-20010904/DTD/svg10.dtd">
<svg version="1.0" xmlns="http://www.w3.org/2000/svg"
 width="56.000000pt" height="56.000000pt" viewBox="0 0 56.000000 56.000000"
 preserveAspectRatio="xMidYMid meet">
<metadata>
Created by potrace 1.16, written by Peter Selinger 2001-2019
</metadata>
<g transform="translate(0.000000,56.000000) scale(0.100000,-0.100000)"
fill="#000000" stroke="none">
<path d="M283 540 c-15 0 -37 -15 -58 -37 -30 -33 -35 -45 -35 -88 0 -31 -7
-60 -18 -78 -10 -15 -28 -36 -40 -47 -12 -11 -26 -20 -33 -20 -8 0 -10 12 -5
38 4 20 9 62 12 92 4 41 1 64 -13 90 -11 21 -27 36 -40 38 -16 2 -23 -2 -23
-13 0 -9 5 -26 11 -37 9 -16 8 -53 -2 -146 -11 -108 -11 -128 2 -151 8 -14 22
-27 30 -29 9 -2 33 12 53 30 21 18 47 50 57 71 11 20 23 37 28 37 4 0 16 -18
26 -40 10 -22 34 -56 53 -76 35 -37 36 -37 19 -66 -9 -16 -17 -34 -17 -40 0
-5 -9 -23 -21 -39 -19 -28 -20 -29 -2 -29 11 0 31 12 45 28 14 15 33 41 41 57
11 23 26 33 59 42 32 9 48 20 63 45 11 18 24 49 28 68 5 19 11 60 14 91 3 36
0 68 -10 91 -9 22 -27 40 -50 51 -19 9 -46 17 -59 17 -13 0 -39 11 -58 25 -19
14 -44 25 -57 25z m9 -46 c4 -3 8 -9 8 -14 0 -5 -10 -18 -22 -30 -12 -11 -25
-20 -30 -20 -4 0 -8 9 -8 19 0 11 10 27 22 35 12 8 25 13 30 10z m116 -46 c8
-2 23 -19 33 -38 12 -21 19 -55 19 -88 0 -29 -6 -65 -14 -80 -8 -15 -23 -36
-35 -46 -12 -11 -23 -17 -24 -15 -2 2 -2 64 1 137 4 112 7 133 20 130z m-83
-31 c6 -2 11 -46 13 -105 2 -78 0 -102 -10 -102 -7 0 -28 21 -45 48 -18 26
-33 58 -33 72 0 14 14 38 32 57 18 18 37 32 43 30z"/>
</g>
</svg>
