<?xml version="1.0" standalone="no"?>
<!DOCTYPE svg PUBLIC "-//W3C//DTD SVG 20010904//EN"
 "http://www.w3.org/TR/2001/REC-SVG-20010904/DTD/svg10.dtd">
<svg version="1.0" xmlns="http://www.w3.org/2000/svg"
 width="56.000000pt" height="56.000000pt" viewBox="0 0 56.000000 56.000000"
 preserveAspectRatio="xMidYMid meet">
<metadata>
Created by potrace 1.16, written by Peter Selinger 2001-2019
</metadata>
<g transform="translate(0.000000,56.000000) scale(0.100000,-0.100000)"
fill="#000000" stroke="none">
<path d="M269 560 c-5 0 -9 -4 -9 -9 0 -5 -9 -11 -19 -14 -11 -2 -27 -19 -36
-37 -10 -18 -25 -42 -35 -52 -10 -11 -20 -37 -24 -58 -4 -29 -15 -46 -41 -66
-34 -25 -36 -26 -67 -11 -18 9 -34 14 -37 12 -2 -2 3 -25 10 -51 8 -26 20 -49
27 -52 7 -2 24 5 37 18 13 12 31 20 41 18 9 -1 22 -12 28 -23 5 -11 18 -32 28
-47 10 -15 18 -37 18 -48 0 -16 11 -26 39 -37 22 -9 42 -22 45 -30 3 -8 -1
-27 -9 -44 -15 -27 -14 -29 5 -29 11 0 39 21 62 46 24 26 46 55 50 65 4 11 15
19 25 19 10 0 32 9 50 20 18 10 44 37 58 59 19 31 25 54 25 95 0 43 -5 61 -24
83 -13 16 -35 35 -49 42 -22 12 -29 10 -65 -14 -25 -16 -48 -25 -58 -21 -11 4
-14 13 -10 29 3 12 9 32 12 45 5 17 -2 30 -30 57 -21 19 -42 35 -47 35z m-11
-62 c10 -2 21 -19 26 -41 7 -27 6 -43 -2 -55 -6 -9 -19 -29 -27 -44 -12 -22
-13 -32 -4 -50 7 -13 15 -30 19 -38 4 -8 21 -20 38 -25 17 -6 34 -13 37 -16 3
-3 0 -20 -6 -38 -7 -21 -22 -36 -43 -45 -28 -11 -32 -10 -47 8 -9 12 -29 45
-45 75 -27 51 -27 54 -10 66 17 13 17 15 2 37 -9 12 -16 30 -16 40 0 9 10 36
23 60 13 24 27 49 31 56 4 7 15 12 24 10z m161 -129 c8 1 25 -9 38 -21 13 -12
23 -30 23 -40 0 -10 -9 -37 -20 -58 -11 -22 -25 -40 -31 -40 -5 0 -18 13 -27
30 -9 16 -31 37 -48 45 -18 8 -34 22 -37 30 -4 8 -1 18 6 22 7 4 28 13 47 19
19 7 41 12 49 13z"/>
</g>
</svg>
