<?xml version="1.0" standalone="no"?>
<!DOCTYPE svg PUBLIC "-//W3C//DTD SVG 20010904//EN"
 "http://www.w3.org/TR/2001/REC-SVG-20010904/DTD/svg10.dtd">
<svg version="1.0" xmlns="http://www.w3.org/2000/svg"
 width="56.000000pt" height="56.000000pt" viewBox="0 0 56.000000 56.000000"
 preserveAspectRatio="xMidYMid meet">
<metadata>
Created by potrace 1.16, written by Peter Selinger 2001-2019
</metadata>
<g transform="translate(0.000000,56.000000) scale(0.100000,-0.100000)"
fill="#000000" stroke="none">
<path d="M257 499 c-17 0 -39 -3 -47 -7 -9 -4 -25 -14 -36 -22 -11 -8 -29 -29
-41 -46 -12 -16 -25 -42 -28 -57 -4 -14 -13 -31 -21 -38 -11 -9 -18 -8 -32 5
-10 9 -26 16 -35 16 -13 0 -17 -9 -17 -35 0 -30 4 -35 31 -43 28 -7 34 -14 46
-61 9 -37 26 -68 53 -97 22 -24 40 -48 40 -54 0 -6 30 -10 72 -10 39 0 88 5
107 11 20 7 47 17 60 23 13 6 48 35 77 64 30 30 54 63 54 73 0 10 5 19 10 19
6 0 10 20 10 45 0 25 -4 45 -9 45 -5 0 -18 24 -30 53 -12 29 -31 58 -42 65
-12 8 -23 11 -26 8 -4 -3 -12 2 -18 11 -10 13 -16 15 -26 6 -8 -6 -30 -14 -50
-18 -31 -6 -38 -3 -53 19 -12 19 -25 26 -49 25z m-11 -49 c13 0 25 -4 28 -9 4
-5 3 -16 0 -25 -3 -8 -26 -26 -50 -40 -24 -14 -53 -28 -64 -31 -15 -5 -20 -2
-20 14 0 11 19 35 42 55 23 20 52 36 64 36z m179 -10 c5 0 22 -22 38 -49 19
-35 27 -63 27 -98 0 -46 -3 -52 -60 -108 -47 -47 -62 -57 -72 -47 -10 10 -9
18 5 41 9 16 17 35 17 42 0 7 -10 23 -22 36 -12 13 -27 23 -34 23 -7 0 -16 4
-19 10 -3 5 3 30 15 54 12 27 35 56 57 71 21 14 42 25 48 25z m-193 -176 c4
-3 8 -12 8 -20 0 -8 11 -19 25 -24 14 -5 25 -17 25 -28 0 -10 -20 -37 -44 -61
-43 -42 -43 -42 -70 3 -14 24 -26 51 -26 58 0 8 -5 19 -12 26 -9 9 -7 13 8 18
10 3 32 12 49 19 16 8 33 11 37 9z"/>
<path d="M546 500 c-8 0 -18 -4 -21 -10 -3 -5 -4 -10 -1 -10 2 0 11 -3 20 -6
11 -4 16 -1 16 10 0 9 -6 16 -14 16z"/>
</g>
</svg>
