<?xml version="1.0" standalone="no"?>
<!DOCTYPE svg PUBLIC "-//W3C//DTD SVG 20010904//EN"
 "http://www.w3.org/TR/2001/REC-SVG-20010904/DTD/svg10.dtd">
<svg version="1.0" xmlns="http://www.w3.org/2000/svg"
 width="56.000000pt" height="56.000000pt" viewBox="0 0 56.000000 56.000000"
 preserveAspectRatio="xMidYMid meet">
<metadata>
Created by potrace 1.16, written by Peter Selinger 2001-2019
</metadata>
<g transform="translate(0.000000,56.000000) scale(0.100000,-0.100000)"
fill="#000000" stroke="none">
<path d="M241 518 c-41 3 -43 2 -37 -21 3 -13 0 -31 -7 -40 -7 -9 -43 -21 -87
-29 -63 -11 -75 -16 -78 -34 -2 -13 6 -25 22 -33 21 -12 30 -11 59 3 19 8 45
17 58 18 23 3 24 0 24 -57 0 -57 1 -60 25 -63 14 -1 39 -5 57 -7 17 -3 34 -13
37 -22 4 -9 -5 -35 -20 -60 -24 -41 -29 -45 -56 -39 -16 3 -49 20 -74 36 -24
17 -48 29 -53 25 -5 -3 -6 -15 -3 -28 4 -12 12 -29 17 -38 6 -9 27 -24 49 -33
28 -12 37 -21 33 -33 -2 -10 -6 -25 -8 -33 -3 -11 5 -16 28 -18 26 -3 38 4 72
39 23 24 41 46 41 50 0 4 9 11 20 14 11 3 20 12 20 20 0 7 7 16 16 19 9 3 24
6 34 6 11 0 30 15 43 33 13 17 32 50 42 71 12 26 16 53 12 83 -3 26 -14 54
-27 68 -12 13 -33 26 -47 30 -13 3 -33 3 -44 0 -10 -4 -19 -11 -19 -16 0 -5 9
-9 20 -9 10 0 24 -9 30 -19 5 -11 10 -35 10 -54 0 -19 -7 -52 -16 -73 -9 -22
-23 -47 -32 -56 -8 -10 -22 -18 -30 -18 -11 0 -13 8 -8 36 5 22 3 41 -5 50 -7
8 -20 12 -34 8 -16 -4 -27 1 -39 17 -9 13 -16 34 -16 47 0 13 7 39 16 57 11
24 13 42 7 66 -8 31 -13 34 -52 37z"/>
<path d="M347 460 c-8 0 -17 -3 -20 -6 -4 -4 -4 -11 -1 -15 3 -5 12 -9 20 -9
8 0 14 7 14 15 0 8 -6 15 -13 15z"/>
</g>
</svg>
