<?xml version="1.0" standalone="no"?>
<!DOCTYPE svg PUBLIC "-//W3C//DTD SVG 20010904//EN"
 "http://www.w3.org/TR/2001/REC-SVG-20010904/DTD/svg10.dtd">
<svg version="1.0" xmlns="http://www.w3.org/2000/svg"
 width="56.000000pt" height="56.000000pt" viewBox="0 0 56.000000 56.000000"
 preserveAspectRatio="xMidYMid meet">
<metadata>
Created by potrace 1.16, written by Peter Selinger 2001-2019
</metadata>
<g transform="translate(0.000000,56.000000) scale(0.100000,-0.100000)"
fill="#000000" stroke="none">
<path d="M328 558 c-12 2 -20 -8 -27 -35 -6 -21 -11 -42 -11 -48 0 -5 -9 -25
-20 -43 -17 -28 -23 -32 -35 -22 -8 7 -15 27 -15 45 0 18 -9 44 -21 59 -11 14
-29 26 -40 26 -11 0 -22 -7 -26 -16 -4 -10 1 -22 11 -30 10 -7 22 -30 27 -51
5 -21 9 -57 9 -80 0 -23 -4 -45 -10 -48 -5 -3 -10 -15 -10 -26 0 -10 -9 -28
-20 -39 -11 -11 -25 -17 -32 -15 -7 3 -34 -16 -61 -41 -26 -26 -47 -53 -47
-61 0 -7 7 -16 16 -20 9 -3 29 1 44 11 21 12 35 14 52 7 13 -5 30 -16 38 -25
10 -14 15 -14 21 -4 5 7 6 34 3 61 -6 43 -5 47 14 47 12 0 25 -7 30 -16 5 -9
38 -24 73 -34 35 -10 78 -24 95 -31 17 -7 38 -9 48 -6 9 4 16 15 16 25 0 11
-7 25 -16 33 -12 10 -20 10 -35 1 -16 -10 -20 -10 -26 5 -3 10 -19 30 -35 46
-19 17 -28 35 -26 49 2 14 11 24 23 26 11 1 30 5 43 8 13 2 20 9 17 14 -3 6
-21 10 -39 10 -19 0 -39 6 -45 14 -8 10 -9 16 -1 21 5 3 10 21 10 39 0 19 9
45 22 61 17 22 19 32 12 53 -5 15 -17 28 -26 30z"/>
<path d="M522 339 c-14 15 -22 16 -44 8 -16 -6 -28 -17 -28 -24 0 -8 13 -22
30 -31 17 -10 30 -25 30 -36 0 -11 7 -27 16 -37 9 -10 13 -23 9 -29 -5 -8 -11
-8 -21 1 -8 6 -14 9 -14 6 0 -3 4 -17 9 -30 7 -18 5 -28 -7 -40 -9 -8 -28 -27
-41 -41 -13 -14 -31 -26 -40 -26 -9 0 -24 -7 -35 -15 -10 -8 -16 -20 -13 -28
3 -9 16 -12 39 -9 18 2 46 16 61 31 16 14 42 45 58 68 26 38 29 49 29 127 0
55 -4 86 -11 86 -6 0 -18 8 -27 19z"/>
<path d="M188 90 c-3 0 -8 -3 -11 -7 -4 -3 -7 -14 -7 -23 0 -10 7 -23 16 -31
9 -7 32 -14 52 -15 21 0 45 -5 55 -9 12 -5 24 -3 33 7 12 12 12 16 0 33 -13
17 -18 18 -33 7 -10 -6 -24 -15 -30 -18 -7 -3 -26 8 -42 25 -16 17 -31 31 -33
31z"/>
</g>
</svg>
