<?xml version="1.0" standalone="no"?>
<!DOCTYPE svg PUBLIC "-//W3C//DTD SVG 20010904//EN"
 "http://www.w3.org/TR/2001/REC-SVG-20010904/DTD/svg10.dtd">
<svg version="1.0" xmlns="http://www.w3.org/2000/svg"
 width="56.000000pt" height="56.000000pt" viewBox="0 0 56.000000 56.000000"
 preserveAspectRatio="xMidYMid meet">
<metadata>
Created by potrace 1.16, written by Peter Selinger 2001-2019
</metadata>
<g transform="translate(0.000000,56.000000) scale(0.100000,-0.100000)"
fill="#000000" stroke="none">
<path d="M396 510 c-17 0 -34 -16 -63 -57 -21 -32 -44 -71 -51 -86 -7 -15 -12
-38 -12 -49 0 -12 -5 -36 -12 -54 -11 -30 -9 -35 30 -82 23 -27 42 -59 42 -70
0 -12 -4 -24 -10 -27 -5 -3 -10 -15 -10 -25 0 -10 5 -22 11 -25 5 -4 20 -4 33
-1 16 4 25 17 32 43 8 33 13 38 39 38 25 1 36 10 68 55 20 30 44 63 52 73 8 9
15 33 15 52 0 19 -4 35 -9 35 -5 0 -14 13 -21 30 -7 16 -27 38 -46 49 -24 14
-34 28 -34 45 0 13 -7 32 -16 40 -8 9 -26 16 -38 16z m-17 -62 c13 -3 16 -18
16 -83 -1 -44 -7 -106 -14 -137 -8 -36 -18 -58 -26 -58 -8 0 -23 13 -34 29
-14 19 -21 45 -21 75 0 26 4 54 9 64 5 9 19 39 32 65 15 31 28 47 38 45z m82
-58 c4 0 17 -13 28 -29 12 -16 21 -45 21 -64 0 -19 -10 -49 -22 -67 -13 -18
-31 -38 -40 -44 -9 -6 -20 -8 -23 -4 -3 3 -1 25 4 49 6 24 11 67 11 95 0 28 3
54 7 57 3 4 10 7 14 7z"/>
<path d="M17 300 c-9 0 -17 -6 -17 -12 0 -7 9 -26 20 -43 11 -16 20 -44 20
-62 0 -18 -7 -53 -15 -78 -9 -25 -13 -50 -10 -55 3 -6 13 -10 20 -10 8 0 20
10 27 23 7 12 18 40 25 62 7 22 13 56 13 76 0 27 -8 43 -33 67 -18 18 -41 32
-50 32z"/>
</g>
</svg>
