<?xml version="1.0" standalone="no"?>
<!DOCTYPE svg PUBLIC "-//W3C//DTD SVG 20010904//EN"
 "http://www.w3.org/TR/2001/REC-SVG-20010904/DTD/svg10.dtd">
<svg version="1.0" xmlns="http://www.w3.org/2000/svg"
 width="128.000000pt" height="128.000000pt" viewBox="0 0 128.000000 128.000000"
 preserveAspectRatio="xMidYMid meet">
<metadata>
Created by potrace 1.16, written by Peter Selinger 2001-2019
</metadata>
<g transform="translate(0.000000,128.000000) scale(0.100000,-0.100000)"
fill="#000000" stroke="none">
<path d="M766 1280 c-15 0 -26 -7 -29 -19 -3 -12 1 -22 9 -25 8 -3 14 -15 14
-26 0 -11 -9 -38 -20 -59 -10 -21 -76 -92 -145 -157 -92 -87 -125 -124 -123
-139 2 -12 12 -21 25 -23 12 -2 40 6 62 17 22 12 46 31 52 44 7 12 39 50 72
85 41 42 68 62 84 62 13 0 33 -5 44 -10 14 -8 19 -21 19 -54 0 -38 -5 -48 -40
-80 -25 -22 -50 -36 -67 -36 -14 0 -34 7 -43 15 -14 13 -20 12 -48 -8 -17 -12
-35 -30 -38 -40 -3 -11 1 -26 11 -37 13 -14 14 -23 6 -39 -6 -11 -14 -47 -17
-80 -7 -59 -8 -60 -58 -93 -28 -18 -55 -34 -61 -37 -5 -2 -18 -11 -29 -20 -10
-9 -25 -29 -33 -45 -8 -15 -12 -38 -9 -50 3 -14 23 -30 56 -45 33 -15 50 -29
50 -41 0 -11 -16 -24 -47 -38 -27 -11 -70 -27 -96 -36 -26 -9 -61 -16 -76 -16
-21 0 -38 -10 -60 -35 -17 -20 -31 -40 -31 -45 0 -5 12 -18 27 -30 23 -18 35
-20 78 -15 42 6 58 15 105 59 30 29 67 60 82 70 20 13 38 16 61 12 18 -3 55
-26 84 -51 28 -25 54 -45 58 -45 4 0 35 14 69 30 34 17 78 33 99 37 28 4 38 2
43 -11 3 -9 -3 -30 -14 -48 -12 -18 -53 -65 -93 -105 -73 -73 -73 -73 -21 -73
29 0 52 4 52 10 0 5 42 40 93 78 50 37 104 75 120 85 17 11 27 26 27 42 0 13
-8 28 -17 34 -10 5 -47 18 -82 30 -35 12 -83 21 -105 21 -23 -1 -59 -7 -81
-15 -22 -8 -53 -15 -70 -15 -16 0 -45 9 -62 20 -18 11 -33 26 -33 34 0 7 19
30 41 51 37 33 46 36 79 31 20 -3 59 -15 87 -27 48 -19 53 -20 82 -5 20 11 33
27 39 48 7 27 15 34 48 43 21 5 45 14 52 18 6 5 12 21 12 36 0 17 -11 37 -27
53 -16 15 -40 31 -55 37 -22 8 -28 17 -28 41 0 17 -7 47 -15 67 -9 21 -23 45
-32 55 -9 10 -28 18 -43 18 -14 0 -41 -11 -60 -25 -19 -14 -38 -25 -42 -25 -4
0 -17 -9 -28 -20 -12 -12 -25 -18 -30 -15 -6 4 -10 19 -10 35 0 18 8 34 22 44
12 9 31 16 41 16 11 0 46 14 79 32 35 18 65 43 74 59 8 16 14 55 14 88 0 54
-3 61 -32 86 -22 19 -38 25 -55 20 -13 -3 -28 -3 -33 0 -5 3 2 27 16 54 13 27
24 60 24 73 0 14 -11 34 -25 46 -14 12 -36 22 -49 22z m56 -560 c10 0 21 -8
26 -17 6 -10 13 -37 17 -60 7 -42 7 -42 -57 -73 -35 -17 -80 -47 -100 -66 -20
-18 -42 -34 -48 -34 -8 0 -10 10 -7 28 3 15 14 54 24 87 10 33 22 66 26 73 5
6 16 12 25 12 9 0 31 11 47 25 17 13 38 24 47 25z"/>
<path d="M1067 1000 c-8 0 -17 -3 -20 -6 -4 -4 -4 -11 -1 -15 3 -5 12 -9 20
-9 8 0 14 7 14 15 0 8 -6 15 -13 15z"/>
<path d="M609 45 c-19 3 -44 0 -56 -5 -13 -5 -23 -16 -23 -25 0 -12 15 -15 77
-15 77 0 77 0 57 20 -11 11 -36 23 -55 25z"/>
</g>
</svg>
