<?xml version="1.0" standalone="no"?>
<!DOCTYPE svg PUBLIC "-//W3C//DTD SVG 20010904//EN"
 "http://www.w3.org/TR/2001/REC-SVG-20010904/DTD/svg10.dtd">
<svg version="1.0" xmlns="http://www.w3.org/2000/svg"
 width="128.000000pt" height="128.000000pt" viewBox="0 0 128.000000 128.000000"
 preserveAspectRatio="xMidYMid meet">
<metadata>
Created by potrace 1.16, written by Peter Selinger 2001-2019
</metadata>
<g transform="translate(0.000000,128.000000) scale(0.100000,-0.100000)"
fill="#000000" stroke="none">
<path d="M726 1259 c-6 0 -52 -22 -103 -48 -50 -26 -122 -55 -160 -65 -37 -10
-95 -21 -128 -25 -46 -5 -61 -10 -63 -23 -2 -12 6 -21 22 -28 15 -5 39 -19 56
-31 29 -22 29 -22 87 2 32 12 79 38 105 56 26 18 58 33 70 33 13 0 44 7 70 17
39 14 49 14 62 4 9 -8 16 -20 16 -28 0 -7 -7 -25 -16 -38 -8 -13 -17 -43 -19
-67 -2 -36 -7 -43 -30 -49 -14 -4 -33 -13 -40 -19 -9 -7 -27 -9 -47 -5 -18 4
-48 16 -67 28 -33 20 -33 20 -87 -7 -30 -15 -54 -31 -54 -36 0 -5 3 -15 6 -24
3 -9 14 -16 24 -16 12 0 20 -10 24 -31 5 -27 1 -37 -31 -70 -21 -22 -62 -54
-91 -72 -30 -17 -67 -43 -83 -56 -20 -15 -29 -31 -27 -45 2 -14 12 -22 28 -24
13 -2 60 12 105 33 44 21 88 42 97 46 10 5 28 9 41 9 13 0 31 -8 39 -17 8 -10
19 -34 25 -54 9 -31 7 -39 -13 -62 -13 -15 -28 -27 -33 -27 -6 0 -25 -13 -43
-29 -18 -15 -52 -40 -75 -54 -33 -21 -45 -36 -53 -69 -7 -24 -15 -50 -19 -58
-4 -8 -7 -33 -6 -55 1 -22 7 -50 13 -62 7 -13 23 -25 36 -29 13 -3 26 -14 29
-25 3 -12 14 -19 29 -19 12 0 34 -7 48 -15 14 -8 39 -21 56 -29 18 -9 65 -16
115 -17 46 -1 90 -6 97 -11 6 -6 12 -19 12 -30 0 -17 5 -19 33 -13 17 3 69 24
113 45 51 25 83 47 87 59 4 15 -7 27 -47 52 -28 19 -58 37 -67 40 -8 4 -48 3
-88 -1 -41 -4 -77 -14 -84 -22 -9 -10 -30 -13 -80 -10 -63 3 -69 6 -78 30 -10
26 -11 26 -25 8 -8 -11 -14 -23 -14 -28 0 -4 -9 -8 -19 -8 -11 0 -23 5 -26 10
-4 6 -7 47 -8 91 0 68 4 88 28 139 17 35 37 62 49 66 14 5 25 0 38 -16 15 -18
17 -33 12 -70 -4 -33 -2 -50 6 -55 9 -5 23 4 41 26 16 19 40 55 54 81 13 26
22 54 19 62 -3 8 4 28 16 44 16 22 36 33 78 43 32 7 61 19 65 26 6 10 19 12
43 7 23 -4 42 -1 58 9 13 9 41 17 62 19 31 2 40 7 42 24 2 15 -9 31 -36 53
-22 17 -54 34 -71 37 -24 5 -39 0 -78 -29 -26 -19 -67 -40 -90 -46 -24 -7 -43
-16 -43 -21 0 -6 -9 -19 -20 -30 -12 -12 -33 -20 -54 -20 -19 0 -38 6 -43 13
-4 6 -6 22 -4 35 1 13 -3 29 -9 37 -7 8 -27 17 -46 21 -19 3 -37 10 -40 15 -3
5 -3 17 1 28 3 10 27 32 54 49 27 18 51 39 55 47 3 8 18 15 34 15 17 0 37 10
51 24 13 14 37 30 54 37 17 7 48 30 69 50 35 33 38 41 36 85 -1 27 1 61 6 75
5 19 3 31 -9 43 -9 9 -27 16 -40 16 -13 0 -41 11 -61 25 -20 14 -42 25 -48 24z"/>
<path d="M1006 460 c-9 0 -16 -7 -16 -16 0 -9 5 -14 12 -12 6 2 14 10 16 16 2
7 -3 12 -12 12z"/>
<path d="M986 330 c-1 0 -7 -5 -14 -12 -7 -7 -12 -18 -12 -25 0 -7 6 -13 14
-13 8 0 21 3 30 6 9 3 16 12 16 19 0 7 -7 16 -16 19 -9 3 -17 6 -18 6z"/>
</g>
</svg>
