<?xml version="1.0" standalone="no"?>
<!DOCTYPE svg PUBLIC "-//W3C//DTD SVG 20010904//EN"
 "http://www.w3.org/TR/2001/REC-SVG-20010904/DTD/svg10.dtd">
<svg version="1.0" xmlns="http://www.w3.org/2000/svg"
 width="128.000000pt" height="128.000000pt" viewBox="0 0 128.000000 128.000000"
 preserveAspectRatio="xMidYMid meet">
<metadata>
Created by potrace 1.16, written by Peter Selinger 2001-2019
</metadata>
<g transform="translate(0.000000,128.000000) scale(0.100000,-0.100000)"
fill="#000000" stroke="none">
<path d="M440 1240 c-4 0 -15 -8 -24 -19 -13 -14 -16 -34 -15 -82 2 -35 -1
-73 -4 -85 -5 -14 -24 -26 -60 -36 -28 -9 -68 -20 -87 -24 -19 -4 -50 -8 -69
-8 -20 -1 -38 -8 -44 -18 -9 -13 -7 -22 7 -37 11 -12 35 -25 55 -31 20 -5 51
-10 69 -10 24 0 32 -4 32 -17 0 -10 -10 -30 -23 -44 -12 -14 -39 -38 -60 -53
-24 -17 -37 -35 -37 -50 0 -12 -10 -32 -22 -43 -13 -11 -31 -23 -40 -26 -10
-4 -18 -14 -18 -23 0 -9 16 -49 35 -89 20 -39 46 -82 59 -94 15 -14 41 -24 77
-27 30 -4 59 -13 65 -20 6 -8 9 -25 7 -38 -4 -20 -20 -29 -96 -56 -51 -18
-115 -35 -144 -37 -37 -4 -57 -11 -73 -28 -22 -23 -22 -23 2 -39 13 -9 44 -19
69 -22 33 -4 56 0 91 15 26 12 50 26 53 31 3 6 14 10 24 10 11 0 29 -8 41 -18
21 -17 21 -20 10 -101 -10 -72 -9 -86 4 -99 13 -13 17 -13 32 -1 10 8 27 37
39 64 12 28 25 81 29 120 4 41 14 77 23 87 9 10 34 23 55 29 22 5 68 26 104
45 39 22 64 42 64 53 0 9 -14 33 -31 54 -31 38 -31 38 22 152 30 63 60 115 67
115 8 0 12 -19 12 -60 0 -33 -4 -79 -10 -102 -5 -24 -14 -70 -20 -102 -6 -34
-19 -69 -30 -81 -10 -11 -24 -43 -30 -72 -6 -28 -22 -66 -36 -84 -13 -18 -24
-37 -24 -43 0 -6 -13 -24 -29 -41 -16 -16 -32 -40 -36 -52 -5 -19 -3 -22 12
-16 10 3 38 25 63 47 24 23 63 61 86 85 23 24 50 65 59 90 9 25 20 55 24 66 5
11 14 40 20 65 7 25 16 63 21 85 5 22 13 52 19 68 6 15 17 27 26 27 8 0 23
-15 32 -34 9 -19 24 -37 34 -39 9 -3 37 -1 61 4 23 4 60 5 81 2 20 -3 40 -10
43 -15 4 -5 8 -47 10 -91 2 -45 1 -90 -2 -99 -3 -10 -14 -18 -24 -18 -10 0
-21 4 -24 9 -3 5 -20 11 -38 14 -18 4 -48 9 -65 13 -20 4 -33 2 -33 -4 0 -6
19 -24 42 -41 23 -17 46 -31 52 -31 5 0 23 -11 40 -24 17 -12 46 -31 65 -40
32 -17 34 -17 57 5 13 12 24 29 24 38 0 8 9 24 19 35 18 20 19 28 9 131 -5 61
-12 124 -14 140 -3 17 -9 80 -14 140 -5 61 -11 178 -14 262 -3 83 -9 159 -13
170 -4 10 -18 30 -32 46 -14 15 -33 27 -42 27 -9 0 -27 -6 -40 -12 -14 -7 -38
-23 -56 -35 -17 -13 -36 -23 -43 -23 -7 0 -28 -7 -48 -16 -21 -9 -48 -22 -62
-29 -14 -7 -46 -16 -71 -19 -26 -4 -54 -15 -64 -26 -13 -14 -14 -23 -6 -38 5
-10 11 -47 13 -82 3 -54 0 -65 -14 -68 -9 -2 -34 8 -55 22 -21 14 -46 26 -56
26 -10 0 -32 -7 -50 -16 -18 -9 -48 -30 -69 -45 -20 -16 -51 -31 -70 -34 -18
-3 -27 -3 -20 1 6 3 12 17 12 30 0 13 4 24 9 24 5 0 12 9 16 19 3 11 18 32 33
48 15 17 59 49 99 71 39 23 85 56 102 73 17 17 31 34 31 39 0 4 -7 13 -15 20
-11 10 -22 10 -38 3 -12 -6 -35 -16 -50 -22 -15 -6 -37 -11 -47 -11 -16 0 -20
7 -20 33 0 17 -4 37 -8 43 -4 6 -22 18 -41 27 -19 9 -37 17 -41 17z m606 -121
c15 1 25 -8 33 -26 6 -16 15 -116 19 -223 5 -107 7 -200 5 -205 -2 -6 -38 -10
-89 -9 -63 1 -89 5 -94 15 -5 8 1 33 14 60 11 25 38 64 58 87 20 22 42 50 48
62 6 12 9 29 6 37 -5 12 -17 14 -58 11 -33 -4 -60 0 -77 8 -15 8 -38 12 -53 8
-23 -4 -30 -1 -39 19 -6 14 -9 36 -6 49 5 17 26 33 79 58 40 19 87 38 103 41
17 4 40 7 51 8z m-183 -213 c18 -4 37 -12 44 -19 6 -6 13 -29 14 -49 2 -24 -3
-43 -14 -56 -10 -11 -17 -24 -15 -29 2 -5 -9 -23 -24 -41 -15 -18 -30 -32 -35
-32 -5 0 -10 39 -11 86 -2 47 0 100 3 116 6 28 10 30 38 24z m-276 -47 c7 1
17 -8 23 -19 6 -12 9 -40 7 -63 -2 -23 -13 -73 -23 -111 -15 -55 -24 -71 -44
-78 -14 -6 -38 -16 -55 -23 -16 -7 -41 -17 -55 -23 -14 -5 -46 -19 -72 -31
-26 -12 -57 -21 -67 -21 -11 0 -22 4 -26 9 -3 5 20 27 51 48 30 21 66 45 78
53 13 8 40 27 62 41 22 15 46 34 54 44 13 15 12 19 -5 31 -10 8 -28 14 -39 14
-12 0 -48 -18 -81 -40 -33 -21 -83 -58 -112 -80 -29 -23 -60 -40 -69 -38 -10
2 -22 16 -27 31 -5 15 -6 34 -3 43 4 11 14 13 40 9 29 -6 39 -2 74 29 22 20
43 36 46 36 4 0 28 14 54 32 26 18 76 49 112 69 36 20 70 37 77 38z m-101
-379 c18 0 36 -5 40 -11 4 -7 -10 -26 -32 -45 -21 -18 -49 -33 -61 -34 -17 0
-23 6 -23 22 0 12 10 32 22 45 14 15 33 23 54 23z"/>
</g>
</svg>
