<?xml version="1.0" standalone="no"?>
<!DOCTYPE svg PUBLIC "-//W3C//DTD SVG 20010904//EN"
 "http://www.w3.org/TR/2001/REC-SVG-20010904/DTD/svg10.dtd">
<svg version="1.0" xmlns="http://www.w3.org/2000/svg"
 width="128.000000pt" height="128.000000pt" viewBox="0 0 128.000000 128.000000"
 preserveAspectRatio="xMidYMid meet">
<metadata>
Created by potrace 1.16, written by Peter Selinger 2001-2019
</metadata>
<g transform="translate(0.000000,128.000000) scale(0.100000,-0.100000)"
fill="#000000" stroke="none">
<path d="M922 1250 c-52 0 -61 -3 -98 -37 -24 -23 -46 -54 -53 -78 -7 -22 -16
-49 -21 -60 -5 -11 -20 -46 -34 -79 -14 -32 -26 -75 -26 -95 0 -29 -5 -38 -26
-48 -20 -9 -32 -9 -57 3 -18 8 -39 18 -47 23 -8 5 -32 17 -53 26 -20 9 -35 21
-31 26 3 5 23 17 45 26 21 8 39 18 39 22 0 4 16 25 36 47 19 21 42 49 51 61
12 19 13 27 2 58 -8 20 -27 44 -44 55 -23 14 -50 19 -117 19 -48 0 -90 -3 -93
-9 -3 -5 11 -21 31 -36 34 -26 36 -30 29 -68 -3 -22 -13 -49 -22 -58 -13 -14
-14 -21 -5 -30 7 -7 12 -18 12 -26 0 -11 -8 -13 -29 -9 -25 5 -31 2 -41 -24
-7 -16 -21 -34 -31 -40 -11 -5 -19 -16 -19 -23 0 -8 11 -13 25 -13 17 0 25 5
25 17 0 11 10 20 27 23 16 3 31 3 35 0 5 -2 8 -11 8 -19 0 -8 -4 -14 -10 -14
-5 0 -10 -5 -10 -11 0 -6 7 -9 15 -5 8 3 15 2 15 -2 0 -4 -24 -17 -53 -30 -39
-18 -56 -21 -67 -13 -8 6 -21 14 -29 18 -8 3 -26 0 -40 -8 -14 -8 -32 -27 -39
-42 -7 -15 -19 -27 -26 -27 -8 0 -16 -14 -20 -31 -3 -17 -6 -58 -6 -90 0 -49
3 -59 17 -59 9 0 50 34 90 76 61 63 72 80 67 100 -5 17 -2 24 9 24 8 0 17 -6
20 -12 3 -9 13 -5 31 11 24 23 27 23 44 8 10 -10 26 -17 34 -17 9 0 23 -3 32
-6 10 -4 16 -18 16 -40 0 -25 -10 -45 -43 -81 -23 -26 -55 -61 -71 -76 -16
-17 -25 -34 -22 -43 3 -8 -1 -28 -9 -44 -8 -16 -15 -36 -15 -45 0 -9 -23 -42
-50 -74 -28 -31 -66 -65 -84 -75 -26 -14 -38 -16 -54 -7 -11 6 -29 11 -40 11
-10 0 -26 -8 -35 -17 -8 -10 -27 -54 -41 -98 -14 -44 -26 -100 -26 -126 0 -34
5 -49 16 -53 9 -3 22 -6 31 -6 8 0 27 8 41 18 15 11 53 33 86 51 54 29 61 31
93 19 20 -7 51 -28 70 -45 19 -18 40 -33 47 -33 7 0 22 13 34 29 12 16 26 49
31 73 5 24 13 108 17 188 6 133 8 147 30 173 13 16 24 34 24 40 0 7 9 18 19
24 11 7 26 27 35 45 8 18 22 58 32 88 9 30 23 64 30 76 8 11 27 61 43 110 16
49 41 115 55 147 14 32 26 64 26 72 0 8 11 26 24 42 21 24 26 26 41 13 15 -13
17 -27 12 -110 -3 -52 -9 -106 -13 -119 -6 -21 -5 -23 12 -17 10 4 23 8 28 9
6 1 11 -5 13 -15 3 -10 -4 -19 -16 -23 -12 -4 -18 -12 -14 -21 3 -7 1 -14 -5
-14 -6 0 -12 5 -14 12 -3 7 -17 -14 -33 -45 -20 -43 -25 -61 -17 -69 9 -9 21
-6 48 8 20 10 44 30 53 43 9 13 30 39 47 57 23 25 37 31 53 27 12 -3 29 -16
37 -29 13 -18 14 -35 5 -93 -6 -47 -19 -86 -38 -117 -15 -26 -44 -63 -64 -83
-20 -20 -57 -62 -83 -93 -48 -57 -48 -57 -35 -128 11 -64 15 -72 43 -85 17 -7
61 -17 98 -21 37 -3 72 -12 78 -19 6 -7 33 -19 61 -25 47 -12 51 -11 84 14 28
22 35 34 35 61 0 29 -6 39 -41 62 -33 22 -54 27 -122 30 -45 3 -87 9 -94 15
-7 6 -13 15 -13 20 0 5 38 46 85 90 47 45 85 89 85 98 0 9 6 30 14 46 8 16 21
62 30 103 15 74 15 74 -25 147 -39 70 -42 73 -85 80 -24 3 -55 4 -69 2 -13 -3
-26 0 -28 5 -2 6 0 37 5 69 4 32 10 72 13 89 3 18 10 40 15 50 6 10 10 25 10
34 0 9 -9 30 -21 46 -18 26 -26 29 -77 29z m-626 -454 c8 -11 14 -23 14 -27 0
-4 -4 -10 -9 -13 -5 -3 -14 1 -21 9 -7 8 -9 23 -5 32 6 17 7 17 21 -1z m276
-44 c9 -9 9 -15 0 -24 -9 -9 -12 -7 -12 12 0 19 3 21 12 12z m-16 -62 c8 0 14
-10 14 -24 0 -14 -5 -28 -11 -32 -6 -3 -15 -2 -21 4 -5 5 -7 19 -3 31 3 12 13
21 21 21z m-94 -122 c6 -2 14 -10 16 -16 2 -7 -3 -12 -12 -12 -9 0 -16 7 -16
16 0 9 5 14 12 12z m-80 -208 c14 0 19 -6 16 -22 -2 -16 -9 -22 -20 -20 -10 2
-18 2 -18 0 0 -2 6 -36 14 -76 8 -40 21 -81 30 -91 9 -10 16 -23 16 -29 0 -7
-7 -12 -15 -12 -8 0 -15 4 -15 9 0 5 -12 11 -27 13 -26 3 -27 5 -26 58 1 30 2
64 2 75 0 11 1 31 1 44 0 13 5 30 11 37 6 8 20 14 31 14z m492 -13 c6 -2 12
-11 14 -20 2 -12 -3 -17 -17 -17 -12 0 -21 6 -21 13 0 8 3 17 7 21 4 3 12 5
17 3z m147 -27 c5 0 12 -8 18 -17 8 -16 4 -18 -25 -19 -32 0 -33 0 -17 18 9
10 20 18 24 18z m-739 -42 c7 -3 13 -10 13 -16 0 -7 -4 -12 -10 -13 -5 0 -12
7 -13 17 -3 10 1 15 10 12z m128 2 c5 0 12 -5 16 -11 3 -6 0 -15 -7 -20 -8 -5
-16 -3 -21 4 -3 6 -4 15 -2 19 3 4 9 8 14 8z m-180 -30 c3 0 11 -5 18 -12 7
-7 12 -26 12 -43 -1 -16 -9 -40 -19 -52 -11 -13 -26 -23 -35 -23 -9 0 -16 6
-16 13 0 7 5 18 12 25 9 10 8 16 -5 29 -16 16 -15 18 5 40 12 13 24 23 28 23z
m908 -10 c4 0 15 -9 25 -20 16 -19 16 -20 -8 -20 -13 0 -27 5 -30 10 -3 6 -3
15 0 20 3 6 9 10 13 10z m-713 -28 c16 -3 25 -11 25 -23 0 -11 -3 -19 -7 -19
-5 0 -16 7 -25 14 -10 7 -18 18 -18 23 0 6 11 8 25 5z m-280 -2 c8 0 15 -7 15
-15 0 -8 -7 -15 -15 -15 -8 0 -15 7 -15 15 0 8 7 15 15 15z m-10 -70 c8 0 15
-7 15 -15 0 -9 -6 -12 -15 -9 -8 4 -15 10 -15 15 0 5 7 9 15 9z"/>
</g>
</svg>
