<?xml version="1.0" standalone="no"?>
<!DOCTYPE svg PUBLIC "-//W3C//DTD SVG 20010904//EN"
 "http://www.w3.org/TR/2001/REC-SVG-20010904/DTD/svg10.dtd">
<svg version="1.0" xmlns="http://www.w3.org/2000/svg"
 width="128.000000pt" height="128.000000pt" viewBox="0 0 128.000000 128.000000"
 preserveAspectRatio="xMidYMid meet">
<metadata>
Created by potrace 1.16, written by Peter Selinger 2001-2019
</metadata>
<g transform="translate(0.000000,128.000000) scale(0.100000,-0.100000)"
fill="#000000" stroke="none">
<path d="M650 1250 c-13 0 -26 -12 -37 -35 -13 -28 -14 -37 -3 -50 7 -8 20
-15 29 -15 9 0 22 -5 29 -12 7 -7 12 -23 12 -37 0 -13 5 -39 11 -56 10 -26 9
-36 -5 -58 -14 -21 -28 -27 -74 -32 -31 -3 -84 -12 -117 -20 -33 -8 -77 -17
-99 -21 -37 -6 -41 -4 -85 43 -41 44 -52 51 -99 57 -29 4 -57 4 -62 1 -6 -3
-10 -12 -10 -19 0 -8 11 -21 25 -30 14 -9 25 -21 25 -27 0 -6 9 -22 20 -36 12
-16 20 -41 20 -64 0 -21 -5 -49 -11 -63 -9 -20 -9 -29 1 -41 10 -13 10 -18 -3
-33 -8 -9 -19 -30 -23 -47 -4 -16 -10 -34 -14 -40 -4 -5 -10 -28 -13 -50 -2
-22 -10 -56 -17 -75 -7 -19 -18 -48 -26 -63 -8 -16 -14 -37 -14 -47 0 -9 7
-23 15 -30 8 -7 21 -10 29 -7 9 4 28 25 43 48 15 23 31 47 34 53 4 6 12 33 18
61 7 27 19 64 28 82 9 19 23 38 33 43 11 6 31 5 54 -2 31 -10 42 -9 67 6 17
10 56 22 87 27 31 5 92 12 135 15 77 5 77 5 88 -23 7 -15 11 -44 11 -63 0 -19
4 -52 10 -72 8 -27 8 -41 0 -51 -8 -9 -8 -49 -1 -143 8 -93 8 -139 -1 -166 -7
-26 -8 -44 -1 -57 6 -10 8 -21 4 -24 -3 -3 -2 -22 1 -42 4 -19 12 -35 19 -34
7 0 27 22 45 49 17 28 32 60 32 73 0 13 5 28 10 33 7 7 7 19 1 36 -6 15 -6 55
0 104 4 43 11 95 14 114 6 29 2 39 -19 59 -14 14 -26 28 -26 31 0 4 14 10 30
13 17 4 30 11 30 17 0 6 -16 18 -35 26 -19 8 -35 17 -35 21 0 4 5 21 12 39 9
25 9 39 0 58 -8 19 -8 27 2 35 8 6 21 9 30 5 9 -3 30 -1 47 6 27 12 33 10 61
-10 22 -17 38 -21 61 -16 25 5 35 2 47 -14 11 -14 32 -22 78 -26 62 -7 62 -7
62 25 0 17 -4 31 -9 31 -5 0 -8 14 -7 32 1 27 -3 33 -29 39 -16 4 -48 14 -70
22 -35 13 -57 13 -180 1 -77 -8 -153 -20 -170 -25 -16 -6 -55 -12 -86 -13 -31
-2 -72 -10 -90 -18 -19 -9 -63 -19 -98 -23 -36 -3 -76 -12 -90 -20 -16 -8 -34
-10 -48 -4 -15 5 -26 24 -37 62 -9 30 -16 62 -16 70 0 8 6 20 14 26 9 8 21 8
45 0 23 -8 39 -8 64 1 17 7 68 19 112 27 44 8 114 20 156 27 41 7 98 11 125 9
27 -2 91 4 142 13 51 9 100 23 108 32 13 12 13 17 2 28 -7 7 -40 20 -73 29
-32 8 -70 15 -84 15 -13 0 -40 -5 -58 -12 -25 -9 -36 -9 -45 0 -9 9 -8 21 2
51 9 27 10 47 3 67 -8 24 -16 29 -41 29 -21 0 -37 7 -47 23 -9 12 -22 22 -29
22 -8 0 -16 7 -20 15 -3 8 -15 15 -26 15z"/>
<path d="M108 330 c-2 0 -11 -5 -21 -11 -9 -5 -23 -22 -31 -37 -7 -15 -11 -33
-9 -39 3 -7 14 -13 25 -13 10 0 25 6 32 13 7 6 20 24 30 39 17 26 17 27 -3 37
-11 6 -21 11 -23 11z"/>
</g>
</svg>
