<?xml version="1.0" standalone="no"?>
<!DOCTYPE svg PUBLIC "-//W3C//DTD SVG 20010904//EN"
 "http://www.w3.org/TR/2001/REC-SVG-20010904/DTD/svg10.dtd">
<svg version="1.0" xmlns="http://www.w3.org/2000/svg"
 width="128.000000pt" height="128.000000pt" viewBox="0 0 128.000000 128.000000"
 preserveAspectRatio="xMidYMid meet">
<metadata>
Created by potrace 1.16, written by Peter Selinger 2001-2019
</metadata>
<g transform="translate(0.000000,128.000000) scale(0.100000,-0.100000)"
fill="#000000" stroke="none">
<path d="M194 1280 c-56 0 -56 0 -49 -42 4 -24 14 -51 23 -60 8 -10 19 -18 23
-18 5 0 20 17 34 37 14 21 25 48 25 60 0 21 -4 23 -56 23z"/>
<path d="M1070 1280 c-60 0 -90 -4 -90 -11 0 -7 -10 -22 -22 -35 -13 -12 -41
-41 -63 -63 -22 -22 -52 -43 -67 -46 -15 -4 -32 -4 -38 0 -5 3 -13 -1 -16 -9
-3 -9 -13 -16 -21 -16 -7 0 -24 -10 -37 -23 -12 -12 -39 -27 -60 -32 -21 -6
-38 -14 -39 -20 -1 -5 17 -17 40 -25 40 -13 44 -13 65 7 13 11 41 23 63 26 22
4 67 20 99 37 32 16 67 30 78 30 10 0 22 -10 27 -23 5 -12 6 -40 2 -61 -3 -22
-11 -41 -18 -43 -6 -2 -21 5 -32 16 -21 21 -21 21 -21 1 0 -15 -14 -27 -53
-44 -30 -13 -66 -23 -80 -23 -15 0 -60 -17 -100 -37 -74 -36 -74 -36 -146 0
-71 37 -71 37 -122 14 -28 -13 -55 -32 -60 -41 -6 -12 -5 -20 3 -25 7 -4 28
-10 47 -13 19 -4 36 -12 39 -19 2 -6 -15 -30 -37 -52 -22 -22 -45 -40 -50 -40
-6 0 -41 -31 -79 -70 -69 -69 -69 -69 -60 -120 5 -27 15 -69 23 -91 8 -23 15
-53 15 -66 0 -15 14 -39 34 -59 20 -20 44 -34 58 -34 12 1 50 20 83 43 40 28
67 57 82 85 12 24 32 58 46 75 13 18 27 50 30 72 2 22 12 72 22 110 9 39 22
89 28 112 9 33 18 45 41 53 16 5 36 10 45 10 9 0 50 14 91 31 41 17 91 35 110
39 19 4 42 9 50 11 12 3 15 -12 16 -91 1 -52 6 -142 10 -200 4 -58 8 -121 7
-140 0 -19 -1 -87 -3 -150 -1 -63 -5 -121 -7 -127 -3 -7 -16 -13 -29 -13 -17
0 -27 8 -34 25 -5 14 -18 28 -27 31 -10 3 -37 15 -61 26 -23 10 -53 34 -66 51
-13 18 -28 54 -34 82 -7 35 -7 54 0 62 6 7 16 13 22 13 6 0 26 -16 45 -35 18
-19 38 -35 45 -35 7 0 20 8 28 18 8 9 23 31 33 49 18 31 18 32 -1 50 -11 10
-37 39 -58 65 -20 27 -48 51 -61 54 -13 3 -33 0 -45 -6 -12 -6 -39 -27 -60
-46 -33 -30 -40 -43 -45 -89 -6 -48 -4 -61 28 -127 19 -40 58 -102 87 -138 28
-36 58 -68 65 -72 7 -5 24 -27 38 -51 14 -24 46 -60 71 -81 42 -34 50 -37 102
-34 56 3 56 3 75 53 12 31 17 60 13 75 -4 14 -7 78 -8 143 -1 65 1 122 5 128
3 6 2 25 -4 43 -5 17 -14 39 -19 49 -7 14 -5 24 8 38 14 16 15 23 6 45 -7 13
-12 48 -11 77 0 29 4 76 8 105 4 28 4 76 0 105 -4 31 -2 57 4 65 6 7 22 10 41
7 17 -3 45 -2 61 3 17 5 31 16 33 25 2 12 -8 22 -31 32 -18 7 -39 21 -47 29
-7 9 -18 16 -26 16 -7 0 -18 9 -24 19 -5 11 -10 30 -10 43 0 13 -7 33 -15 44
-8 10 -15 29 -15 41 0 14 14 33 35 50 19 15 35 31 35 36 0 4 -40 7 -90 7z m4
-480 c10 0 16 -9 16 -21 0 -12 -5 -19 -12 -17 -7 3 -14 12 -16 21 -2 10 3 17
12 17z m-569 -74 c6 -1 11 -28 13 -59 2 -37 -2 -67 -13 -87 -8 -16 -20 -30
-25 -30 -6 0 -10 -6 -10 -12 0 -7 -15 -31 -33 -52 -34 -39 -34 -39 -55 -18
-14 14 -22 34 -22 55 0 17 5 52 11 77 7 32 20 53 46 75 20 16 46 35 57 42 12
7 26 11 31 9z"/>
<path d="M746 1250 c-1 0 -11 -6 -21 -14 -12 -8 -16 -19 -12 -30 4 -10 13 -16
19 -14 7 3 14 17 15 31 1 15 1 27 -1 27z"/>
<path d="M446 1158 c-10 2 -16 -3 -16 -13 0 -10 7 -15 18 -13 9 2 16 8 15 13
-1 6 -9 11 -17 13z"/>
<path d="M47 660 c-8 0 -17 -3 -20 -6 -4 -4 -4 -11 -1 -15 3 -5 12 -9 20 -9 8
0 14 7 14 15 0 8 -6 15 -13 15z"/>
<path d="M53 578 c-11 2 -24 -2 -27 -7 -4 -6 -6 -59 -5 -118 1 -60 8 -132 16
-161 7 -29 13 -63 13 -76 0 -13 9 -43 20 -67 11 -24 25 -51 30 -59 5 -8 11
-23 14 -33 4 -13 14 -17 43 -15 31 3 38 8 44 32 5 18 3 39 -5 55 -7 14 -19 46
-26 71 -7 25 -17 49 -22 55 -4 5 -8 22 -8 39 0 16 -7 38 -17 48 -9 10 -20 39
-25 66 -5 26 -13 74 -16 107 -6 51 -10 60 -29 63z"/>
<path d="M542 207 c-12 7 -24 8 -35 1 -9 -5 -17 -16 -17 -23 0 -10 11 -15 31
-15 20 0 41 -10 60 -27 16 -16 34 -44 40 -63 6 -19 15 -45 21 -58 10 -19 19
-22 70 -22 52 0 58 2 58 21 0 11 -12 41 -27 66 -22 37 -38 50 -91 75 -36 16
-72 26 -79 24 -7 -3 -13 -2 -13 2 0 4 -8 12 -18 19z"/>
</g>
</svg>
