<?xml version="1.0" standalone="no"?>
<!DOCTYPE svg PUBLIC "-//W3C//DTD SVG 20010904//EN"
 "http://www.w3.org/TR/2001/REC-SVG-20010904/DTD/svg10.dtd">
<svg version="1.0" xmlns="http://www.w3.org/2000/svg"
 width="128.000000pt" height="128.000000pt" viewBox="0 0 128.000000 128.000000"
 preserveAspectRatio="xMidYMid meet">
<metadata>
Created by potrace 1.16, written by Peter Selinger 2001-2019
</metadata>
<g transform="translate(0.000000,128.000000) scale(0.100000,-0.100000)"
fill="#000000" stroke="none">
<path d="M713 1280 c-19 0 -39 -12 -60 -35 -18 -19 -33 -41 -33 -49 0 -10 7
-12 24 -8 13 4 34 19 46 35 12 15 28 27 36 27 8 0 14 7 14 15 0 10 -10 15 -27
15z"/>
<path d="M876 1250 c-7 0 -16 -3 -19 -7 -4 -3 -7 -10 -7 -14 0 -5 18 -18 39
-29 22 -11 41 -28 43 -37 2 -10 -9 -37 -24 -59 -16 -23 -28 -47 -28 -53 0 -7
-9 -9 -24 -5 -17 4 -30 0 -45 -15 -15 -15 -26 -18 -42 -13 -12 5 -34 6 -50 4
-16 -2 -29 -8 -29 -13 0 -5 8 -12 18 -15 9 -3 26 -10 37 -15 11 -5 36 -8 55
-7 32 3 34 1 37 -29 1 -18 -2 -33 -7 -33 -6 0 -18 -8 -28 -17 -10 -10 -27 -23
-38 -29 -10 -6 -19 -17 -19 -24 0 -7 14 -21 30 -31 17 -10 36 -18 43 -18 7 -1
25 13 39 29 20 24 28 28 39 19 11 -9 18 -8 32 5 10 9 31 16 45 16 15 0 27 -5
27 -10 0 -6 -10 -14 -23 -19 -12 -5 -37 -22 -55 -39 -25 -23 -32 -38 -32 -66
0 -22 5 -36 13 -36 6 0 20 12 30 26 12 16 16 32 11 47 -6 19 -5 20 9 9 10 -9
17 -10 22 -2 3 6 11 8 17 4 5 -3 7 -17 3 -31 -3 -14 -1 -31 6 -39 8 -10 8 -22
0 -46 -6 -17 -8 -34 -3 -37 4 -3 9 -42 9 -86 1 -44 5 -107 8 -140 3 -33 5 -67
5 -75 -1 -8 -2 -46 -1 -85 0 -38 3 -96 5 -127 3 -32 4 -58 1 -58 -2 0 -23 9
-47 20 -24 11 -67 38 -97 59 -30 22 -59 47 -64 56 -6 11 -4 22 6 33 8 9 17 25
18 35 2 10 31 33 64 52 43 24 64 30 73 23 8 -7 12 -7 12 1 0 6 -9 20 -21 32
-15 15 -18 24 -9 33 8 10 5 15 -11 19 -18 5 -20 9 -11 20 9 11 9 23 -3 51 -8
20 -20 36 -26 36 -6 0 -32 -7 -60 -16 -27 -9 -49 -20 -49 -25 0 -4 -20 -22
-45 -40 -40 -29 -45 -37 -45 -71 0 -31 4 -38 19 -38 12 0 22 9 26 23 3 12 11
34 17 50 6 15 16 27 22 27 7 0 27 13 46 30 19 16 38 29 41 30 4 0 4 -21 1 -46
-3 -33 -1 -49 9 -55 11 -7 9 -9 -7 -9 -13 0 -39 -22 -70 -60 -27 -33 -52 -60
-56 -60 -5 0 -8 7 -8 15 0 8 -4 15 -9 15 -6 0 -13 -5 -17 -11 -3 -6 -2 -15 4
-21 6 -6 8 -26 5 -44 -5 -27 -2 -34 11 -34 9 0 49 -34 89 -75 45 -46 81 -75
94 -75 11 0 26 -7 33 -15 7 -8 24 -15 37 -15 16 0 27 7 30 20 3 11 8 20 12 20
4 0 12 -5 19 -12 6 -6 15 -9 18 -5 4 4 1 13 -6 22 -10 12 -10 18 0 30 9 10 10
29 6 58 -4 23 -12 110 -17 192 -5 83 -8 157 -8 165 0 8 0 35 -1 59 0 28 6 51
16 62 9 10 13 23 9 28 -3 6 -8 21 -10 33 -3 12 -16 33 -30 48 -18 19 -22 29
-14 37 6 6 17 22 23 35 6 12 21 24 33 26 14 2 23 13 27 34 3 17 6 37 6 44 0 7
-13 20 -30 29 -16 8 -34 15 -40 15 -7 0 -10 -13 -8 -32 2 -27 0 -33 -17 -33
-14 0 -21 8 -25 29 -3 16 -10 31 -15 33 -6 2 -22 -8 -37 -22 -15 -14 -32 -25
-37 -25 -6 0 -15 9 -21 19 -8 16 -2 27 35 66 25 25 45 52 45 59 0 8 13 19 29
25 15 7 37 24 48 39 11 15 18 33 16 40 -3 6 -15 12 -27 12 -15 0 -25 9 -33 30
-6 16 -20 32 -30 35 -10 4 -31 13 -46 21 -16 7 -34 14 -41 14z"/>
<path d="M561 1154 c-4 3 -11 3 -15 -1 -3 -3 -6 -10 -6 -15 0 -4 7 -8 15 -8 8
0 15 4 15 9 0 6 -4 12 -9 15z"/>
<path d="M502 1119 c-4 0 -22 -10 -39 -22 -18 -12 -33 -29 -33 -38 0 -9 -11
-22 -25 -29 -13 -7 -27 -21 -30 -31 -3 -9 -15 -19 -25 -22 -11 -3 -20 -12 -20
-21 0 -9 -7 -16 -16 -16 -9 0 -14 -7 -12 -17 2 -9 8 -18 14 -20 6 -2 23 6 37
17 15 12 27 30 27 40 0 10 8 20 19 23 10 2 24 18 32 36 8 17 18 31 24 31 5 0
23 11 39 23 17 14 26 29 22 35 -4 7 -10 12 -14 11z"/>
<path d="M633 980 c-10 -1 -29 -17 -41 -37 -13 -21 -25 -48 -25 -61 -1 -14 3
-27 10 -29 6 -2 20 13 29 34 10 21 24 44 31 51 7 7 13 20 13 28 0 8 -8 14 -17
14z"/>
<path d="M476 879 c-6 -1 -22 -7 -35 -14 -13 -7 -28 -19 -32 -27 -5 -7 -9 -19
-9 -26 0 -10 7 -9 29 4 25 15 32 15 45 5 9 -8 16 -21 16 -30 0 -10 -13 -37
-29 -62 -15 -25 -40 -55 -55 -66 -14 -12 -26 -28 -26 -37 0 -9 -8 -24 -17 -33
-10 -10 -24 -18 -30 -18 -7 0 -13 -3 -13 -7 0 -5 0 -12 0 -18 0 -5 6 -10 13
-10 6 -1 25 -21 40 -45 16 -25 33 -45 38 -45 5 0 7 11 3 25 -3 14 -1 31 5 39
6 7 9 21 5 30 -4 12 0 16 15 16 15 0 21 6 21 21 0 14 5 19 18 17 11 -2 16 -12
15 -28 -1 -14 -5 -42 -9 -63 -5 -28 -14 -41 -35 -53 -16 -8 -36 -26 -46 -40
-16 -25 -16 -27 2 -41 11 -7 26 -12 35 -11 8 2 24 21 34 43 11 22 25 44 33 48
7 4 13 23 13 42 0 19 5 37 10 40 8 5 7 11 0 20 -8 10 -8 19 0 35 6 11 22 25
36 30 13 5 24 14 24 20 0 5 -9 10 -19 10 -11 0 -23 5 -26 10 -3 6 0 13 8 16 8
3 17 19 21 35 3 16 0 41 -6 55 -9 19 -9 30 -1 44 7 10 9 21 6 24 -4 3 -16 6
-28 6 -12 0 -30 9 -40 20 -10 11 -23 20 -29 19z"/>
<path d="M272 860 c-10 0 -28 -13 -40 -30 -12 -16 -22 -34 -22 -40 0 -6 -9
-30 -20 -52 -11 -23 -20 -48 -20 -55 0 -8 -9 -31 -20 -53 -11 -21 -17 -45 -14
-54 3 -8 -1 -27 -9 -43 -8 -15 -17 -43 -20 -60 -5 -24 -2 -37 12 -50 10 -10
21 -29 24 -43 4 -14 19 -41 35 -60 27 -32 31 -33 56 -22 22 10 26 18 26 52 0
38 -3 42 -40 59 -22 10 -37 21 -33 24 3 4 14 7 24 7 9 0 20 -8 24 -17 6 -17 7
-17 21 1 8 11 14 28 14 37 0 10 10 25 22 34 23 15 23 15 -5 38 -29 22 -29 22
11 67 22 25 43 61 47 80 4 19 16 46 26 59 11 13 19 30 19 38 0 9 -5 11 -13 6
-7 -4 -32 -29 -56 -55 -23 -26 -43 -58 -45 -72 -1 -15 -10 -34 -19 -44 -10 -9
-26 -28 -37 -42 -19 -25 -19 -25 -20 16 0 23 6 60 14 82 8 23 29 71 45 107 17
37 31 71 31 76 0 5 -8 9 -18 9z"/>
<path d="M732 810 c-5 0 -19 -11 -32 -25 -19 -21 -22 -29 -13 -43 7 -11 22
-16 42 -15 17 0 38 7 46 13 8 7 15 19 15 26 0 8 -10 14 -25 14 -16 0 -25 6
-25 15 0 8 -4 15 -8 15z"/>
<path d="M872 714 c-5 3 -28 -11 -51 -30 -22 -20 -41 -42 -41 -50 0 -8 -4 -14
-10 -14 -5 0 -27 -15 -47 -33 -21 -19 -46 -37 -55 -40 -10 -4 -18 -14 -18 -23
0 -10 7 -26 16 -35 13 -14 21 -16 36 -8 11 6 26 8 33 5 8 -3 18 0 22 7 4 7 6
20 5 29 -2 10 4 17 15 17 10 0 34 3 53 5 19 2 51 10 70 18 19 7 45 19 58 26
12 7 20 17 17 23 -4 5 -22 7 -43 3 -20 -4 -50 -13 -66 -21 -19 -10 -32 -11
-38 -5 -7 7 -4 19 11 38 11 15 21 34 21 43 0 10 5 22 11 28 6 6 7 13 1 17z
m-160 -172 c6 -6 7 -16 3 -22 -5 -8 -11 -8 -17 -2 -6 6 -7 16 -3 22 5 8 11 8
17 2z"/>
<path d="M1142 660 c-10 0 -25 -9 -35 -20 -10 -12 -15 -25 -12 -30 4 -6 15
-10 25 -10 10 0 20 -5 22 -11 2 -5 11 -7 21 -4 9 4 17 13 17 21 0 8 -4 14 -10
14 -5 0 -10 9 -10 20 0 12 -7 20 -18 20z"/>
<path d="M698 180 c-13 -1 -29 -7 -35 -15 -7 -8 -13 -18 -13 -23 0 -5 -20 -27
-43 -50 -24 -22 -60 -47 -80 -57 -21 -9 -37 -21 -37 -26 0 -5 13 -9 29 -9 16
0 41 4 55 10 15 5 41 25 60 43 18 19 41 37 50 40 9 4 16 15 16 26 0 11 5 23
10 26 6 3 10 13 10 21 0 8 -9 14 -22 14z"/>
</g>
</svg>
