<?xml version="1.0" standalone="no"?>
<!DOCTYPE svg PUBLIC "-//W3C//DTD SVG 20010904//EN"
 "http://www.w3.org/TR/2001/REC-SVG-20010904/DTD/svg10.dtd">
<svg version="1.0" xmlns="http://www.w3.org/2000/svg"
 width="128.000000pt" height="128.000000pt" viewBox="0 0 128.000000 128.000000"
 preserveAspectRatio="xMidYMid meet">
<metadata>
Created by potrace 1.16, written by Peter Selinger 2001-2019
</metadata>
<g transform="translate(0.000000,128.000000) scale(0.100000,-0.100000)"
fill="#000000" stroke="none">
<path d="M1065 1280 c-17 0 -25 -5 -22 -12 2 -7 12 -13 22 -13 10 0 20 6 23
13 2 7 -6 12 -23 12z"/>
<path d="M698 1260 c-9 0 -20 -5 -24 -11 -3 -6 -30 -22 -58 -35 -28 -13 -58
-28 -66 -34 -8 -5 -31 -16 -50 -23 -19 -8 -43 -17 -52 -21 -10 -3 -18 -12 -18
-21 0 -13 7 -15 38 -9 20 4 43 12 51 18 9 7 16 7 18 1 2 -5 7 -16 12 -24 8
-12 12 -12 25 -2 8 7 20 10 27 6 6 -4 23 -2 37 5 15 7 36 17 47 23 11 6 30 16
43 23 13 6 29 20 37 30 8 11 15 22 15 27 0 4 -15 16 -32 27 -18 11 -41 20 -50
20z"/>
<path d="M1071 1229 c-3 -1 -17 -7 -30 -14 -14 -8 -31 -25 -38 -40 -8 -14 -11
-30 -8 -35 3 -5 18 -5 38 1 17 5 37 16 43 24 6 8 9 26 6 40 -2 14 -7 25 -11
24z"/>
<path d="M263 1100 c-9 0 -12 -27 -11 -97 1 -54 -6 -161 -16 -238 -9 -77 -21
-176 -27 -220 -5 -44 -12 -173 -15 -287 -6 -183 -5 -210 10 -233 13 -20 25
-25 55 -25 33 0 40 4 45 24 3 13 1 48 -4 77 -6 30 -11 106 -11 169 0 63 4 183
10 265 6 83 15 205 21 273 5 67 17 138 25 158 15 36 15 36 -28 85 -23 27 -47
49 -54 49z"/>
<path d="M747 1089 c-12 -1 -32 -6 -43 -13 -12 -6 -30 -18 -39 -26 -9 -8 -27
-19 -39 -25 -14 -7 -20 -19 -18 -35 2 -23 1 -24 -11 -7 -14 16 -16 16 -39 -3
-14 -10 -47 -25 -73 -32 -27 -7 -51 -21 -57 -32 -9 -16 -6 -23 12 -38 12 -10
28 -18 36 -18 8 0 15 -6 16 -12 0 -7 2 -18 2 -24 1 -6 8 -24 16 -38 12 -24 12
-28 0 -36 -13 -8 -12 -10 3 -10 9 0 17 -4 17 -10 0 -5 -6 -10 -14 -10 -8 0
-17 -7 -20 -16 -3 -9 -2 -23 3 -32 6 -11 5 -25 -4 -42 -8 -16 -13 -71 -14
-154 -1 -71 -4 -133 -7 -137 -3 -5 -1 -17 4 -26 5 -10 6 -55 1 -103 -4 -47 -4
-89 1 -93 4 -5 11 -4 14 2 4 6 23 11 41 11 27 0 38 6 52 27 9 16 26 39 38 53
12 14 36 52 53 85 16 33 33 68 36 78 5 16 13 18 49 12 23 -4 49 -13 58 -21 8
-8 20 -14 26 -14 6 0 22 -9 37 -21 14 -11 26 -29 26 -40 0 -13 7 -19 21 -19
11 0 28 -4 38 -10 12 -6 32 -6 57 1 21 6 44 17 50 25 7 8 9 25 6 37 -3 12 -12
32 -20 45 -8 12 -24 22 -38 22 -14 0 -24 -6 -24 -14 0 -8 -4 -17 -9 -21 -5 -3
-12 -1 -15 4 -4 5 1 16 10 25 8 9 12 20 9 26 -3 5 -22 10 -41 10 -19 0 -34 -4
-34 -10 0 -5 -5 -10 -11 -10 -6 0 -9 6 -6 14 3 8 0 17 -8 20 -7 2 -41 8 -74
12 -34 3 -61 10 -61 14 0 3 12 13 26 20 22 12 25 19 19 47 -4 24 -2 33 7 33 7
0 30 23 51 51 20 27 37 55 37 60 0 6 -10 19 -22 30 -13 10 -39 18 -58 19 -24
0 -52 -11 -86 -34 -28 -19 -65 -52 -81 -73 -17 -21 -37 -52 -46 -69 -12 -23
-14 -40 -8 -61 5 -16 16 -43 25 -61 9 -17 16 -37 16 -45 0 -8 -21 -36 -46 -63
-41 -45 -46 -47 -56 -30 -7 12 -9 88 -5 224 5 188 7 207 24 213 10 4 49 8 86
8 63 1 70 3 96 32 16 17 43 60 60 95 17 36 34 85 38 109 3 27 1 56 -7 76 -7
17 -24 35 -37 40 -13 5 -34 9 -46 8z m-25 -109 c4 0 13 -7 22 -15 10 -11 13
-26 9 -52 -4 -21 -15 -51 -24 -68 -10 -17 -32 -41 -48 -53 -17 -12 -37 -22
-45 -22 -7 0 -17 7 -20 16 -4 9 -1 23 5 30 7 9 10 33 6 62 -6 48 -6 48 41 75
26 14 50 27 54 27z m50 -360 c21 0 28 -5 28 -20 0 -11 -16 -42 -36 -70 -25
-35 -43 -50 -59 -50 -12 0 -28 7 -35 15 -6 8 -9 23 -5 35 4 11 23 36 42 55 24
23 46 35 65 35z"/>
<path d="M1088 828 c-8 6 -19 7 -27 3 -7 -5 -11 -19 -9 -32 2 -16 10 -24 23
-24 13 0 21 8 23 21 2 11 -3 26 -10 32z"/>
<path d="M1072 568 c-7 2 -15 -4 -18 -13 -4 -10 1 -21 12 -30 12 -9 23 -10 29
-4 6 6 6 15 -1 26 -6 9 -16 19 -22 21z"/>
</g>
</svg>
