<?xml version="1.0" standalone="no"?>
<!DOCTYPE svg PUBLIC "-//W3C//DTD SVG 20010904//EN"
 "http://www.w3.org/TR/2001/REC-SVG-20010904/DTD/svg10.dtd">
<svg version="1.0" xmlns="http://www.w3.org/2000/svg"
 width="128.000000pt" height="128.000000pt" viewBox="0 0 128.000000 128.000000"
 preserveAspectRatio="xMidYMid meet">
<metadata>
Created by potrace 1.16, written by Peter Selinger 2001-2019
</metadata>
<g transform="translate(0.000000,128.000000) scale(0.100000,-0.100000)"
fill="#000000" stroke="none">
<path d="M909 1250 c-24 0 -64 -10 -89 -21 -25 -12 -62 -30 -83 -40 -21 -11
-43 -19 -50 -19 -7 0 -43 -16 -81 -35 -39 -19 -76 -35 -83 -35 -7 0 -33 -10
-58 -22 -24 -13 -45 -28 -45 -34 0 -7 18 -11 49 -11 33 1 57 -5 76 -19 15 -11
34 -38 41 -60 8 -21 14 -47 14 -56 0 -9 -12 -26 -26 -37 -15 -12 -34 -21 -44
-21 -9 0 -25 -8 -34 -19 -9 -10 -30 -21 -47 -25 -16 -3 -29 -12 -29 -19 0 -7
-14 -26 -30 -42 -18 -17 -27 -32 -21 -38 6 -6 23 -5 44 2 18 6 41 9 50 5 10
-3 17 -12 17 -18 0 -7 -10 -22 -22 -33 -13 -11 -36 -35 -52 -52 -16 -18 -35
-31 -44 -29 -8 2 -18 10 -23 18 -4 8 -14 31 -23 50 -8 20 -20 58 -27 85 -7 30
-11 115 -10 211 1 148 0 163 -19 186 -11 15 -20 32 -20 40 0 8 -5 19 -12 26
-7 7 -20 12 -29 12 -10 0 -20 -4 -23 -8 -2 -4 -7 -66 -11 -137 -3 -72 -8 -170
-11 -219 -4 -74 -1 -101 17 -155 12 -36 33 -94 47 -128 14 -34 33 -70 42 -78
10 -9 42 -23 71 -31 30 -7 68 -14 86 -14 18 0 43 -5 57 -12 14 -6 29 -20 33
-32 4 -12 6 -94 6 -183 -1 -163 -1 -163 24 -183 14 -11 34 -20 45 -20 13 0 25
14 38 46 12 28 24 89 30 157 6 62 13 149 17 194 6 81 7 83 40 103 18 11 37 30
42 43 5 14 17 27 26 31 9 3 25 6 34 6 10 0 26 9 36 20 10 11 25 20 33 20 8 0
31 12 51 27 20 15 44 34 54 43 10 8 29 36 43 62 13 26 32 53 42 60 11 7 29 32
40 55 20 37 21 52 16 139 -4 54 -12 111 -19 128 -8 17 -27 45 -44 62 -16 17
-48 36 -69 42 -22 7 -59 12 -83 12z m32 -100 c14 0 33 -8 41 -17 9 -10 21 -36
28 -58 10 -37 9 -44 -20 -95 -17 -30 -36 -64 -43 -75 -6 -11 -24 -39 -39 -62
-15 -23 -28 -46 -28 -52 0 -6 -10 -16 -22 -22 -13 -7 -42 -28 -65 -46 -23 -19
-50 -33 -60 -31 -14 2 -19 14 -21 48 -3 40 2 51 33 87 19 23 35 44 35 47 0 3
9 15 20 26 11 11 20 31 20 45 0 14 -8 29 -19 35 -11 5 -34 10 -51 10 -18 0
-33 6 -36 15 -4 9 -1 29 6 46 7 16 21 34 31 39 10 6 28 10 41 10 13 0 29 5 35
11 6 6 28 17 49 24 22 8 51 14 65 15z m-297 -450 c8 0 18 -5 21 -10 4 -6 1
-17 -5 -25 -7 -8 -16 -15 -21 -15 -5 0 -9 11 -9 25 0 15 6 25 14 25z m-82 -50
c10 0 18 -6 18 -12 0 -7 -6 -31 -14 -52 -9 -25 -22 -43 -37 -48 -18 -7 -27 -5
-36 7 -6 10 -9 24 -5 33 3 9 17 29 31 44 13 16 33 28 43 28z"/>
</g>
</svg>
