<?xml version="1.0" standalone="no"?>
<!DOCTYPE svg PUBLIC "-//W3C//DTD SVG 20010904//EN"
 "http://www.w3.org/TR/2001/REC-SVG-20010904/DTD/svg10.dtd">
<svg version="1.0" xmlns="http://www.w3.org/2000/svg"
 width="56.000000pt" height="56.000000pt" viewBox="0 0 56.000000 56.000000"
 preserveAspectRatio="xMidYMid meet">
<metadata>
Created by potrace 1.16, written by Peter Selinger 2001-2019
</metadata>
<g transform="translate(0.000000,56.000000) scale(0.100000,-0.100000)"
fill="#000000" stroke="none">
<path d="M324 530 c-17 15 -23 16 -64 3 -25 -7 -63 -15 -86 -17 -23 -2 -46 -6
-53 -10 -6 -4 -11 -16 -11 -27 0 -11 7 -23 17 -26 9 -4 47 4 85 17 37 13 71
20 75 17 3 -4 6 -44 5 -89 -1 -46 1 -91 4 -100 3 -10 13 -18 23 -18 9 0 22 5
29 12 7 7 12 28 12 48 0 20 -3 40 -6 43 -4 4 -8 34 -9 68 -2 45 -8 66 -21 79z"/>
<path d="M174 315 c-12 4 -25 1 -32 -8 -10 -11 -8 -20 8 -40 14 -18 22 -45 25
-91 2 -36 9 -75 15 -86 6 -11 18 -20 27 -20 9 0 43 7 75 16 32 9 62 14 65 10
4 -4 -2 -15 -13 -26 -10 -10 -41 -30 -69 -44 -50 -25 -50 -25 -13 -26 20 0 67
13 105 29 58 25 68 33 71 57 2 15 -2 38 -9 51 -10 19 -19 23 -39 20 -14 -3
-44 -11 -67 -17 -23 -7 -54 -9 -68 -6 -21 5 -25 12 -25 42 0 20 7 48 16 64 10
15 14 34 11 43 -3 8 -18 17 -34 20 -15 3 -37 8 -49 12z"/>
</g>
</svg>
