<?xml version="1.0" standalone="no"?>
<!DOCTYPE svg PUBLIC "-//W3C//DTD SVG 20010904//EN"
 "http://www.w3.org/TR/2001/REC-SVG-20010904/DTD/svg10.dtd">
<svg version="1.0" xmlns="http://www.w3.org/2000/svg"
 width="56.000000pt" height="56.000000pt" viewBox="0 0 56.000000 56.000000"
 preserveAspectRatio="xMidYMid meet">
<metadata>
Created by potrace 1.16, written by Peter Selinger 2001-2019
</metadata>
<g transform="translate(0.000000,56.000000) scale(0.100000,-0.100000)"
fill="#000000" stroke="none">
<path d="M255 560 c-14 0 -25 -4 -25 -10 0 -5 -5 -10 -11 -10 -6 0 -22 -9 -36
-20 -20 -15 -22 -20 -9 -20 9 0 37 9 62 20 24 11 44 25 44 30 0 6 -11 10 -25
10z"/>
<path d="M64 520 c-2 0 -7 -7 -10 -15 -4 -9 -1 -29 6 -46 9 -21 11 -58 6 -127
-4 -61 -13 -106 -22 -121 -13 -18 -14 -29 -5 -48 6 -13 11 -35 11 -49 0 -14 7
-38 15 -54 9 -17 22 -30 30 -30 7 0 17 5 20 11 4 5 6 78 6 162 -1 84 -6 175
-12 202 -7 28 -18 65 -26 83 -8 17 -16 32 -19 32z"/>
<path d="M432 440 c-9 0 -24 -5 -32 -10 -8 -5 -27 -10 -43 -10 -15 0 -35 -4
-45 -9 -9 -5 -42 -15 -73 -21 -42 -10 -61 -10 -77 -1 -18 9 -22 9 -22 -2 0 -7
11 -23 23 -36 23 -21 26 -21 81 -7 32 9 72 22 89 31 18 9 51 19 75 22 33 4 47
2 62 -12 12 -11 20 -31 20 -52 0 -18 -4 -41 -9 -51 -5 -9 -19 -38 -31 -64 -13
-26 -30 -55 -39 -65 -9 -10 -40 -46 -68 -80 -29 -34 -53 -64 -53 -67 0 -3 9
-6 21 -6 11 0 36 17 55 38 20 20 57 69 82 107 26 39 54 83 62 99 8 16 15 50
15 76 0 26 -6 59 -14 73 -8 15 -22 27 -32 27 -10 0 -21 5 -24 10 -3 6 -14 10
-23 10z"/>
</g>
</svg>
