<?xml version="1.0" standalone="no"?>
<!DOCTYPE svg PUBLIC "-//W3C//DTD SVG 20010904//EN"
 "http://www.w3.org/TR/2001/REC-SVG-20010904/DTD/svg10.dtd">
<svg version="1.0" xmlns="http://www.w3.org/2000/svg"
 width="56.000000pt" height="56.000000pt" viewBox="0 0 56.000000 56.000000"
 preserveAspectRatio="xMidYMid meet">
<metadata>
Created by potrace 1.16, written by Peter Selinger 2001-2019
</metadata>
<g transform="translate(0.000000,56.000000) scale(0.100000,-0.100000)"
fill="#000000" stroke="none">
<path d="M103 560 c-7 0 -13 -9 -13 -20 0 -10 14 -41 30 -67 17 -26 30 -55 30
-65 0 -11 -6 -31 -14 -46 -8 -15 -37 -49 -65 -77 -42 -42 -51 -56 -51 -86 0
-31 4 -38 28 -47 15 -6 40 -13 55 -17 22 -4 26 -9 18 -19 -8 -9 -7 -27 4 -64
9 -31 22 -52 30 -52 8 0 17 5 20 10 4 6 8 43 10 83 2 39 6 115 10 168 8 96 8
96 45 113 20 9 60 16 89 16 37 0 62 -7 90 -25 22 -13 42 -28 45 -34 3 -5 7
-38 8 -74 1 -43 -3 -72 -13 -85 -8 -10 -31 -41 -51 -68 -20 -27 -50 -57 -67
-67 -17 -10 -31 -23 -31 -28 0 -6 16 -9 36 -7 24 2 41 10 48 22 6 11 25 32 43
48 18 16 43 46 55 66 13 20 28 62 33 92 9 47 8 62 -8 101 -15 38 -27 50 -70
72 -29 14 -64 29 -79 32 -19 5 -42 0 -73 -15 -25 -12 -49 -19 -53 -16 -3 4 -1
15 6 24 7 9 20 32 29 49 14 28 15 36 3 58 -8 16 -22 25 -37 25 -14 0 -23 -6
-23 -15 0 -9 -7 -27 -16 -40 -9 -14 -22 -25 -28 -25 -7 0 -23 18 -36 40 -14
22 -31 40 -37 40z m26 -270 c5 0 11 -5 13 -12 3 -7 0 -34 -5 -60 -9 -47 -11
-48 -28 -32 -11 10 -19 20 -19 24 0 4 7 24 15 44 8 20 19 36 24 36z"/>
<path d="M520 70 c-19 0 -21 -3 -12 -12 9 -9 15 -9 24 0 9 9 7 12 -12 12z"/>
</g>
</svg>
