<?xml version="1.0" standalone="no"?>
<!DOCTYPE svg PUBLIC "-//W3C//DTD SVG 20010904//EN"
 "http://www.w3.org/TR/2001/REC-SVG-20010904/DTD/svg10.dtd">
<svg version="1.0" xmlns="http://www.w3.org/2000/svg"
 width="56.000000pt" height="56.000000pt" viewBox="0 0 56.000000 56.000000"
 preserveAspectRatio="xMidYMid meet">
<metadata>
Created by potrace 1.16, written by Peter Selinger 2001-2019
</metadata>
<g transform="translate(0.000000,56.000000) scale(0.100000,-0.100000)"
fill="#000000" stroke="none">
<path d="M94 560 c-13 0 -15 -6 -10 -32 4 -18 18 -43 31 -56 14 -12 32 -36 40
-52 9 -17 20 -30 25 -30 5 0 20 10 34 23 14 12 41 35 60 50 20 16 45 27 56 25
19 -3 19 -5 5 -32 -8 -15 -15 -44 -15 -63 0 -19 -5 -55 -11 -81 -7 -26 -15
-51 -20 -56 -5 -6 -11 -2 -15 8 -3 9 -19 23 -34 31 -23 12 -30 12 -49 -1 -11
-8 -21 -19 -21 -23 0 -5 12 -25 26 -46 25 -37 25 -40 10 -72 -9 -19 -16 -53
-16 -77 0 -36 5 -47 27 -61 23 -15 31 -16 60 -6 25 10 37 10 48 1 7 -6 38 -10
71 -8 39 2 60 8 67 19 5 9 7 28 3 43 -4 15 -14 30 -23 33 -8 3 -24 1 -34 -5
-10 -7 -31 -12 -46 -12 -16 -1 -45 -7 -65 -14 -34 -12 -38 -12 -43 5 -3 10 -3
34 1 54 3 19 10 38 15 41 5 3 19 -2 31 -10 12 -9 25 -16 28 -16 3 0 12 16 19
36 7 19 11 38 8 41 -3 2 6 35 19 71 13 37 24 73 24 80 0 8 9 25 20 39 11 14
20 32 20 40 0 8 -9 28 -21 44 -11 16 -25 27 -30 24 -5 -4 -9 -2 -9 3 0 5 -12
12 -28 15 -15 3 -54 -1 -87 -8 -33 -7 -69 -16 -81 -20 -16 -5 -27 1 -47 24
-14 17 -33 31 -43 31z"/>
</g>
</svg>
