<?xml version="1.0" standalone="no"?>
<!DOCTYPE svg PUBLIC "-//W3C//DTD SVG 20010904//EN"
 "http://www.w3.org/TR/2001/REC-SVG-20010904/DTD/svg10.dtd">
<svg version="1.0" xmlns="http://www.w3.org/2000/svg"
 width="56.000000pt" height="56.000000pt" viewBox="0 0 56.000000 56.000000"
 preserveAspectRatio="xMidYMid meet">
<metadata>
Created by potrace 1.16, written by Peter Selinger 2001-2019
</metadata>
<g transform="translate(0.000000,56.000000) scale(0.100000,-0.100000)"
fill="#000000" stroke="none">
<path d="M315 560 c-15 0 -25 -6 -25 -14 0 -8 -12 -27 -27 -44 -16 -16 -34
-40 -41 -51 -7 -12 -10 -26 -7 -31 4 -6 12 -10 20 -10 8 0 29 9 49 20 22 14
37 17 41 10 3 -5 3 -43 -2 -83 -4 -39 -6 -81 -5 -92 2 -11 0 -39 -3 -62 -6
-39 -9 -43 -35 -43 -27 0 -29 2 -24 29 3 16 1 38 -5 50 -7 12 -21 21 -35 21
-13 0 -35 -11 -50 -25 -14 -13 -26 -28 -26 -33 0 -5 14 -26 30 -47 17 -21 30
-47 30 -59 0 -11 3 -31 6 -44 4 -14 21 -29 41 -37 20 -8 62 -15 94 -15 51 0
59 3 59 18 0 10 -10 24 -22 30 -13 7 -42 11 -64 10 -23 -1 -49 4 -58 11 -12
10 -14 17 -5 27 6 8 15 12 19 9 4 -3 21 2 38 10 16 9 34 21 40 28 5 6 12 48
16 92 4 44 10 110 13 146 5 63 4 67 -22 87 -15 12 -34 22 -41 22 -8 0 -14 4
-14 8 0 5 9 17 20 27 11 10 20 22 20 27 0 4 -11 8 -25 8z m-115 -340 c11 0 20
-6 20 -12 0 -7 -4 -19 -9 -27 -7 -11 -11 -10 -20 7 -6 11 -11 23 -11 26 0 3 9
6 20 6z"/>
</g>
</svg>
