<?xml version="1.0" standalone="no"?>
<!DOCTYPE svg PUBLIC "-//W3C//DTD SVG 20010904//EN"
 "http://www.w3.org/TR/2001/REC-SVG-20010904/DTD/svg10.dtd">
<svg version="1.0" xmlns="http://www.w3.org/2000/svg"
 width="56.000000pt" height="56.000000pt" viewBox="0 0 56.000000 56.000000"
 preserveAspectRatio="xMidYMid meet">
<metadata>
Created by potrace 1.16, written by Peter Selinger 2001-2019
</metadata>
<g transform="translate(0.000000,56.000000) scale(0.100000,-0.100000)"
fill="#000000" stroke="none">
<path d="M187 540 c-8 0 -19 -18 -26 -40 -7 -23 -9 -49 -6 -59 3 -11 15 -21
26 -24 12 -3 32 -1 46 4 13 5 33 9 44 9 17 0 19 -7 18 -67 -1 -38 -4 -81 -8
-98 -3 -17 -14 -31 -24 -33 -14 -3 -17 4 -17 47 0 38 -4 53 -18 60 -11 6 -24
6 -35 -1 -16 -8 -18 -18 -12 -71 4 -41 1 -87 -9 -134 -11 -50 -13 -80 -6 -98
9 -24 11 -24 88 -18 54 4 81 2 86 -6 4 -6 20 -11 37 -11 22 0 29 5 29 19 0 10
-12 31 -26 46 -24 26 -29 27 -85 21 -45 -4 -61 -2 -65 7 -3 8 0 26 5 41 9 22
15 25 36 20 14 -3 36 -3 49 0 13 3 28 18 34 33 7 16 12 51 12 78 0 28 -2 79
-4 116 -2 36 -9 81 -15 102 -7 20 -21 39 -31 42 -11 4 -40 3 -65 -1 -30 -4
-45 -3 -45 5 0 6 -6 11 -13 11z"/>
</g>
</svg>
