<?xml version="1.0" standalone="no"?>
<!DOCTYPE svg PUBLIC "-//W3C//DTD SVG 20010904//EN"
 "http://www.w3.org/TR/2001/REC-SVG-20010904/DTD/svg10.dtd">
<svg version="1.0" xmlns="http://www.w3.org/2000/svg"
 width="56.000000pt" height="56.000000pt" viewBox="0 0 56.000000 56.000000"
 preserveAspectRatio="xMidYMid meet">
<metadata>
Created by potrace 1.16, written by Peter Selinger 2001-2019
</metadata>
<g transform="translate(0.000000,56.000000) scale(0.100000,-0.100000)"
fill="#000000" stroke="none">
<path d="M244 559 c-5 0 -19 -10 -31 -22 -13 -12 -25 -36 -29 -53 -5 -25 -1
-36 17 -53 13 -12 29 -19 37 -16 8 3 31 8 52 11 35 6 40 4 44 -17 3 -13 7 -58
8 -99 3 -67 5 -75 23 -75 17 0 21 10 29 61 5 40 4 79 -3 116 -7 31 -20 63 -30
72 -14 13 -24 14 -45 6 -15 -5 -41 -10 -58 -10 -25 0 -29 3 -23 18 4 9 10 27
12 40 3 12 1 22 -3 21z"/>
<path d="M378 560 c-34 0 -48 -4 -46 -12 2 -6 21 -20 41 -31 29 -15 41 -16 51
-8 8 7 12 21 9 31 -4 17 -14 20 -55 20z"/>
<path d="M172 280 c-7 0 -15 -7 -18 -15 -4 -8 1 -26 10 -40 16 -24 15 -28 -9
-79 -14 -29 -25 -59 -25 -67 0 -8 7 -25 16 -37 13 -19 24 -22 79 -22 35 0 67
-4 70 -10 3 -5 24 -10 46 -10 22 0 49 5 60 10 10 6 19 17 19 24 0 7 -8 20 -17
28 -10 8 -36 18 -59 21 -22 4 -67 2 -99 -3 -32 -5 -60 -8 -62 -6 -2 1 2 18 9
37 6 19 16 37 22 41 5 4 31 10 58 13 26 4 52 13 59 21 9 10 9 18 2 25 -8 8
-17 8 -31 0 -11 -6 -34 -11 -50 -11 -26 0 -29 3 -25 21 4 15 -1 27 -18 40 -13
10 -30 19 -37 19z"/>
</g>
</svg>
