<?xml version="1.0" standalone="no"?>
<!DOCTYPE svg PUBLIC "-//W3C//DTD SVG 20010904//EN"
 "http://www.w3.org/TR/2001/REC-SVG-20010904/DTD/svg10.dtd">
<svg version="1.0" xmlns="http://www.w3.org/2000/svg"
 width="56.000000pt" height="56.000000pt" viewBox="0 0 56.000000 56.000000"
 preserveAspectRatio="xMidYMid meet">
<metadata>
Created by potrace 1.16, written by Peter Selinger 2001-2019
</metadata>
<g transform="translate(0.000000,56.000000) scale(0.100000,-0.100000)"
fill="#000000" stroke="none">
<path d="M313 559 c-5 0 -28 -14 -52 -30 -37 -24 -51 -28 -83 -23 -24 4 -38 3
-38 -4 0 -6 17 -24 37 -41 21 -17 44 -31 52 -31 8 0 32 17 53 37 37 36 38 36
53 17 8 -10 15 -35 16 -54 1 -19 1 -44 0 -56 -1 -12 -15 -49 -31 -83 -16 -33
-34 -61 -38 -61 -5 0 -17 7 -28 15 -10 8 -34 15 -51 15 -18 0 -33 -4 -33 -9 0
-5 15 -24 34 -43 31 -31 34 -38 29 -81 -5 -41 -2 -52 17 -72 13 -14 32 -25 42
-25 10 0 18 -7 18 -15 0 -9 9 -15 23 -15 13 0 34 11 47 25 22 24 23 26 6 44
-10 11 -31 23 -46 26 -16 3 -34 13 -40 21 -8 8 -10 27 -6 47 4 21 18 42 36 56
17 12 30 28 30 35 0 8 9 33 20 57 13 28 20 66 20 106 0 52 -4 66 -26 92 -14
17 -32 31 -40 31 -8 0 -14 5 -14 10 0 6 -3 10 -7 9z"/>
</g>
</svg>
