<?xml version="1.0" standalone="no"?>
<!DOCTYPE svg PUBLIC "-//W3C//DTD SVG 20010904//EN"
 "http://www.w3.org/TR/2001/REC-SVG-20010904/DTD/svg10.dtd">
<svg version="1.0" xmlns="http://www.w3.org/2000/svg"
 width="56.000000pt" height="56.000000pt" viewBox="0 0 56.000000 56.000000"
 preserveAspectRatio="xMidYMid meet">
<metadata>
Created by potrace 1.16, written by Peter Selinger 2001-2019
</metadata>
<g transform="translate(0.000000,56.000000) scale(0.100000,-0.100000)"
fill="#000000" stroke="none">
<path d="M231 554 c-4 3 -18 -14 -31 -38 -13 -27 -20 -52 -16 -64 4 -11 14
-23 23 -26 10 -4 26 2 40 16 24 22 24 22 21 -100 -3 -123 -3 -123 -28 -120
-19 2 -25 9 -27 28 0 14 -1 37 -2 52 -1 21 -7 29 -26 34 -16 4 -34 0 -50 -10
-14 -9 -25 -21 -25 -26 0 -5 12 -15 27 -22 26 -12 28 -18 30 -83 1 -39 5 -89
8 -113 4 -26 13 -46 22 -49 10 -4 24 3 37 19 12 13 42 37 68 51 26 15 51 27
57 27 6 0 11 -13 11 -29 0 -15 -9 -40 -20 -54 -11 -14 -20 -30 -20 -36 0 -6
12 -11 28 -11 19 0 33 9 50 33 12 18 22 46 22 63 0 21 -9 36 -36 57 -19 16
-41 26 -49 23 -7 -2 -18 1 -24 8 -6 7 -11 26 -13 42 -1 16 2 36 6 43 5 8 12
49 17 93 5 49 4 90 -2 108 -6 16 -18 31 -27 33 -9 2 -28 0 -41 -5 -14 -5 -32
-6 -40 -3 -14 6 -14 7 2 16 9 6 17 16 17 24 0 8 -4 16 -9 19z m2 -377 c7 -2
13 -11 15 -20 2 -10 -3 -17 -12 -17 -8 0 -18 5 -21 10 -3 6 -3 15 0 21 4 5 12
8 18 6z"/>
</g>
</svg>
