<?xml version="1.0" standalone="no"?>
<!DOCTYPE svg PUBLIC "-//W3C//DTD SVG 20010904//EN"
 "http://www.w3.org/TR/2001/REC-SVG-20010904/DTD/svg10.dtd">
<svg version="1.0" xmlns="http://www.w3.org/2000/svg"
 width="56.000000pt" height="56.000000pt" viewBox="0 0 56.000000 56.000000"
 preserveAspectRatio="xMidYMid meet">
<metadata>
Created by potrace 1.16, written by Peter Selinger 2001-2019
</metadata>
<g transform="translate(0.000000,56.000000) scale(0.100000,-0.100000)"
fill="#000000" stroke="none">
<path d="M321 560 c-5 0 -11 -5 -13 -11 -2 -7 -41 -11 -101 -12 -66 -1 -97 -5
-97 -13 0 -7 8 -15 18 -19 9 -4 30 -11 46 -16 20 -6 37 -4 57 6 15 8 35 15 44
15 9 0 15 -9 15 -24 0 -14 -4 -27 -8 -30 -5 -3 -9 -21 -10 -40 -1 -19 3 -38 8
-41 6 -3 10 -25 10 -49 0 -23 -5 -47 -11 -53 -7 -7 -12 -27 -13 -45 -1 -20 -6
-33 -14 -33 -8 0 -22 23 -31 50 -15 44 -21 50 -48 53 -32 3 -32 3 -35 -95 -2
-54 0 -102 4 -107 5 -6 8 -24 8 -42 0 -17 7 -37 15 -44 13 -11 20 -11 39 0 17
9 45 10 93 6 37 -4 81 -7 96 -8 16 0 33 4 40 11 9 9 7 18 -5 39 -12 19 -24 26
-40 24 -13 -1 -46 -5 -75 -8 -29 -4 -59 -4 -68 0 -11 4 -13 11 -8 20 4 8 31
32 58 54 49 39 50 42 67 123 9 46 22 114 28 150 9 54 9 71 -2 88 -7 12 -23 24
-35 27 -13 4 -23 10 -23 15 0 5 -4 9 -9 9z"/>
</g>
</svg>
