<?xml version="1.0" standalone="no"?>
<!DOCTYPE svg PUBLIC "-//W3C//DTD SVG 20010904//EN"
 "http://www.w3.org/TR/2001/REC-SVG-20010904/DTD/svg10.dtd">
<svg version="1.0" xmlns="http://www.w3.org/2000/svg"
 width="128.000000pt" height="128.000000pt" viewBox="0 0 128.000000 128.000000"
 preserveAspectRatio="xMidYMid meet">
<metadata>
Created by potrace 1.16, written by Peter Selinger 2001-2019
</metadata>
<g transform="translate(0.000000,128.000000) scale(0.100000,-0.100000)"
fill="#000000" stroke="none">
<path d="M670 1080 c-3 -1 -17 -7 -32 -15 -27 -15 -27 -15 -5 -83 18 -54 22
-90 22 -182 0 -115 0 -115 -43 -139 -38 -20 -46 -22 -58 -9 -8 8 -16 34 -17
59 -1 24 1 56 5 70 5 16 3 32 -5 43 -8 11 -28 17 -55 19 -27 1 -48 -4 -58 -15
-15 -15 -15 -18 0 -39 9 -13 16 -33 16 -44 0 -11 -4 -26 -9 -34 -5 -7 -27 -17
-51 -21 -35 -6 -44 -4 -61 13 -12 14 -19 35 -19 63 0 22 -5 66 -10 95 -8 41
-7 60 2 77 10 20 9 29 -7 60 -15 28 -26 37 -45 37 -23 0 -25 -4 -28 -48 -2
-27 1 -54 7 -61 6 -7 11 -43 12 -82 1 -38 6 -79 10 -92 5 -13 6 -34 3 -46 -4
-17 -17 -27 -47 -35 -23 -7 -56 -17 -73 -22 -17 -5 -49 -9 -72 -9 -23 0 -42
-4 -42 -8 0 -5 8 -16 18 -25 9 -8 29 -18 43 -22 16 -4 53 2 94 14 37 12 75 21
85 21 12 0 20 -11 24 -36 4 -21 3 -41 -3 -48 -8 -9 -8 -22 0 -43 5 -17 9 -57
7 -89 -3 -59 -3 -59 -48 -81 -24 -13 -61 -23 -82 -23 -20 0 -40 -5 -43 -11 -4
-6 3 -21 16 -35 13 -14 34 -24 50 -24 15 0 31 5 34 10 3 6 58 35 121 66 96 47
117 54 130 43 8 -7 22 -25 30 -41 8 -15 20 -28 28 -28 7 0 23 11 35 24 23 24
23 27 11 113 -7 48 -13 103 -13 121 0 18 6 39 14 47 8 7 32 15 53 17 34 3 42
-1 53 -22 9 -18 12 -71 9 -189 -2 -150 -1 -165 16 -181 11 -10 36 -20 56 -24
20 -3 82 -6 137 -6 77 0 106 4 124 16 19 14 27 14 47 4 18 -10 35 -11 70 -3
28 6 60 7 82 2 20 -5 45 -9 55 -9 13 0 17 8 17 40 0 22 -4 40 -10 40 -5 0 -18
17 -29 37 -11 21 -42 60 -70 88 -28 27 -51 56 -51 65 0 9 -16 31 -35 50 -19
19 -35 41 -35 50 0 8 -7 25 -15 37 -15 21 -14 25 12 64 15 23 35 52 43 65 13
21 13 25 -3 41 -11 11 -31 17 -56 16 -21 -1 -83 -20 -137 -43 -55 -23 -103
-45 -108 -50 -6 -6 -3 -12 8 -16 9 -4 28 -2 40 4 13 5 48 13 79 17 53 7 57 6
57 -13 0 -12 -5 -24 -10 -27 -6 -4 -22 -28 -35 -55 -14 -27 -25 -58 -25 -69 0
-10 -8 -28 -17 -39 -12 -13 -36 -22 -70 -26 -37 -5 -54 -3 -60 6 -4 7 -13 33
-20 58 -6 25 -9 56 -6 70 3 14 15 35 26 47 20 23 20 23 -6 43 -24 19 -26 26
-22 83 2 34 6 108 11 164 7 102 7 102 -27 122 -19 12 -36 21 -39 21z m-261
-433 c14 -1 26 -7 28 -14 2 -6 -6 -21 -19 -32 -22 -22 -22 -22 4 -44 15 -12
32 -35 38 -50 5 -16 10 -39 10 -52 0 -17 -13 -32 -46 -54 -25 -17 -52 -31 -60
-31 -8 0 -19 12 -26 28 -6 15 -14 61 -17 101 -7 75 -7 75 29 113 24 27 42 37
59 35z m591 -97 c9 0 21 -5 28 -12 7 -7 12 -22 12 -34 0 -12 11 -36 25 -52 14
-17 25 -32 25 -35 0 -3 16 -34 36 -67 20 -34 32 -66 28 -70 -5 -5 -34 -11 -64
-15 -30 -3 -111 -9 -180 -11 -115 -5 -127 -3 -143 14 -11 12 -19 40 -21 72 -3
37 0 53 10 57 7 2 23 -2 36 -11 12 -9 32 -16 43 -16 12 0 38 20 63 49 23 28
42 58 42 67 0 10 10 28 22 41 12 13 29 23 38 23z"/>
</g>
</svg>
