<?xml version="1.0" standalone="no"?>
<!DOCTYPE svg PUBLIC "-//W3C//DTD SVG 20010904//EN"
 "http://www.w3.org/TR/2001/REC-SVG-20010904/DTD/svg10.dtd">
<svg version="1.0" xmlns="http://www.w3.org/2000/svg"
 width="128.000000pt" height="128.000000pt" viewBox="0 0 128.000000 128.000000"
 preserveAspectRatio="xMidYMid meet">
<metadata>
Created by potrace 1.16, written by Peter Selinger 2001-2019
</metadata>
<g transform="translate(0.000000,128.000000) scale(0.100000,-0.100000)"
fill="#000000" stroke="none">
<path d="M864 1240 c-14 14 -23 16 -36 9 -15 -8 -18 -24 -18 -89 0 -44 -5
-101 -11 -127 -6 -27 -15 -64 -20 -83 -7 -24 -26 -48 -62 -77 -29 -23 -55 -39
-59 -35 -4 4 0 38 9 76 15 60 15 71 2 94 -8 14 -19 27 -26 29 -6 2 -17 -5 -23
-16 -6 -12 -13 -58 -16 -103 -3 -46 -12 -105 -21 -133 -8 -27 -28 -79 -46
-113 -17 -35 -39 -68 -48 -73 -9 -4 -26 -25 -38 -45 -12 -19 -18 -40 -15 -45
3 -6 -3 -13 -15 -16 -12 -3 -25 -19 -31 -39 -7 -19 -22 -47 -34 -62 -12 -15
-37 -56 -55 -92 -19 -36 -38 -71 -43 -77 -6 -7 -15 -10 -20 -7 -7 4 -8 30 -4
68 4 33 14 122 22 196 9 74 19 160 23 190 4 30 11 63 16 73 4 9 15 17 25 17
10 0 23 7 30 15 7 8 25 15 40 15 15 0 35 9 46 21 10 12 29 25 42 30 12 5 22
13 22 19 0 6 -12 15 -26 21 -15 5 -34 7 -44 4 -9 -3 -34 2 -54 10 -37 16 -37
16 -31 -28 6 -40 5 -44 -19 -55 -26 -11 -26 -11 -26 27 0 23 8 48 19 63 12 14
16 29 12 37 -5 7 -4 31 0 54 4 23 8 76 9 118 0 61 -4 79 -18 92 -10 10 -23 17
-28 17 -5 0 -17 -7 -26 -14 -17 -12 -17 -15 -2 -45 14 -28 15 -46 5 -144 -7
-62 -14 -137 -16 -167 -4 -42 -11 -60 -29 -77 -14 -11 -43 -24 -65 -28 -22 -4
-45 -13 -51 -21 -7 -7 -34 -17 -61 -20 -39 -5 -49 -10 -49 -25 0 -11 9 -21 23
-24 13 -4 50 3 83 14 32 11 74 22 92 26 32 7 32 7 28 -29 -2 -19 -7 -39 -9
-43 -3 -5 -10 -60 -16 -123 -6 -63 -13 -174 -16 -245 -5 -118 -4 -135 15 -178
12 -26 25 -47 29 -47 5 0 14 7 22 16 7 8 27 43 46 77 18 34 40 78 49 97 9 19
34 71 55 115 22 44 39 85 39 91 0 6 14 30 30 52 17 23 30 46 30 51 0 5 7 14
15 21 9 7 18 10 21 7 4 -3 6 -39 6 -78 -1 -52 5 -86 19 -120 16 -36 29 -50 52
-58 23 -9 33 -8 39 1 4 7 8 17 8 22 0 5 6 3 13 -3 8 -6 16 -9 19 -6 3 3 29 8
59 11 30 2 63 9 74 14 11 6 52 13 91 18 72 8 72 8 61 -16 -6 -13 -43 -44 -81
-70 -39 -25 -82 -52 -96 -60 -14 -7 -42 -26 -62 -43 -20 -16 -41 -29 -46 -29
-5 0 -17 -9 -27 -20 -10 -11 -22 -20 -26 -20 -4 0 -30 -17 -58 -37 -27 -20
-47 -41 -45 -45 3 -4 14 -8 25 -8 10 0 27 9 36 20 10 11 21 20 25 20 4 0 27
14 51 30 25 17 48 30 52 30 3 0 27 15 52 33 25 17 57 40 72 49 14 10 44 26 66
37 22 10 48 21 58 25 9 3 17 12 17 20 0 8 14 16 34 20 19 4 45 18 58 31 13 14
32 25 43 25 11 0 31 7 45 15 14 8 44 14 68 15 34 0 42 3 42 19 0 10 -9 21 -20
24 -11 3 -23 1 -26 -4 -3 -5 -13 -5 -24 1 -12 6 -19 19 -17 33 2 20 -2 22 -43
20 -25 -1 -60 -4 -77 -8 -18 -4 -38 -14 -44 -21 -6 -8 -21 -14 -33 -14 -11 0
-50 -6 -86 -14 -36 -8 -77 -19 -91 -24 -15 -6 -60 -11 -102 -11 -73 0 -77 1
-97 28 -15 22 -20 44 -20 88 1 32 7 85 15 118 8 33 15 72 15 88 0 16 15 47 38
76 20 27 50 55 65 62 15 6 31 9 35 5 3 -4 1 -11 -6 -15 -7 -4 -14 -39 -17 -87
-2 -43 -9 -103 -15 -133 -5 -29 -10 -70 -10 -90 0 -21 6 -46 14 -57 14 -18 15
-17 30 19 9 20 23 37 31 37 8 0 30 13 48 30 19 17 44 30 56 30 13 0 30 14 46
40 14 22 30 40 35 40 6 0 27 17 48 37 20 20 49 55 64 78 15 22 28 47 28 56 0
8 5 20 10 25 6 6 16 35 24 65 7 29 17 75 20 101 7 45 6 48 -23 62 -16 9 -37
16 -46 16 -8 0 -23 -4 -33 -8 -9 -5 -38 -18 -65 -30 -26 -12 -66 -30 -90 -42
-23 -11 -45 -20 -48 -20 -3 0 -5 19 -5 43 1 23 5 47 9 54 4 6 8 37 8 68 1 44
-3 61 -17 75z m178 -201 c4 0 12 -8 18 -18 7 -13 7 -28 0 -46 -5 -14 -10 -35
-10 -46 0 -11 -20 -49 -45 -86 -25 -36 -45 -74 -45 -84 0 -11 -4 -19 -8 -19
-4 0 -25 -22 -45 -50 -21 -27 -41 -50 -45 -50 -5 0 -18 10 -31 21 -17 16 -21
28 -17 48 4 14 12 72 19 128 7 55 18 107 24 115 7 7 29 20 50 27 21 8 49 22
63 31 14 10 34 20 45 23 11 2 23 5 27 6z"/>
</g>
</svg>
