<?xml version="1.0" standalone="no"?>
<!DOCTYPE svg PUBLIC "-//W3C//DTD SVG 20010904//EN"
 "http://www.w3.org/TR/2001/REC-SVG-20010904/DTD/svg10.dtd">
<svg version="1.0" xmlns="http://www.w3.org/2000/svg"
 width="128.000000pt" height="128.000000pt" viewBox="0 0 128.000000 128.000000"
 preserveAspectRatio="xMidYMid meet">
<metadata>
Created by potrace 1.16, written by Peter Selinger 2001-2019
</metadata>
<g transform="translate(0.000000,128.000000) scale(0.100000,-0.100000)"
fill="#000000" stroke="none">
<path d="M735 1180 c-7 0 -19 -8 -29 -19 -16 -17 -15 -19 9 -35 26 -17 26 -17
24 -197 -1 -167 -3 -182 -22 -199 -11 -11 -32 -23 -47 -28 -21 -8 -34 -6 -59
10 -27 17 -31 26 -31 63 0 27 -6 47 -17 56 -10 9 -39 14 -75 14 -58 -1 -58 -1
-58 41 0 27 -6 47 -18 57 -10 9 -33 23 -52 30 -22 9 -43 12 -56 7 -12 -5 -24
-15 -27 -23 -3 -9 3 -21 16 -30 17 -11 23 -28 28 -83 6 -65 4 -71 -20 -97 -14
-16 -48 -40 -76 -54 -31 -16 -67 -26 -97 -26 -33 -1 -48 -5 -48 -14 0 -7 10
-17 23 -22 12 -5 44 -26 71 -46 39 -30 55 -36 83 -33 22 3 38 -1 47 -11 8 -9
16 -36 17 -59 3 -42 1 -46 -48 -85 -28 -23 -78 -63 -111 -90 -33 -26 -65 -47
-71 -47 -6 0 -11 7 -11 15 0 8 -6 15 -14 15 -8 0 -24 -15 -35 -34 -12 -18 -21
-42 -21 -52 0 -11 9 -39 20 -63 19 -40 22 -43 50 -38 16 4 51 22 78 41 26 19
70 63 98 97 27 34 63 81 79 104 17 24 56 77 88 119 36 47 68 78 83 82 18 5 29
1 39 -12 8 -11 15 -28 15 -39 0 -11 13 -47 29 -81 16 -33 40 -70 55 -81 14
-12 59 -29 98 -39 57 -15 110 -19 238 -19 154 0 168 2 210 24 24 13 55 34 67
48 13 13 23 32 23 42 0 9 -5 22 -12 29 -8 8 -13 44 -13 95 0 45 -4 84 -9 87
-5 3 -13 -6 -16 -20 -4 -14 -16 -43 -28 -66 -11 -22 -36 -55 -56 -71 -19 -17
-61 -41 -93 -54 -49 -20 -77 -23 -185 -23 -113 -1 -130 1 -155 20 -15 11 -38
38 -50 60 -18 30 -23 55 -23 110 0 45 5 77 14 90 14 18 15 18 45 -10 17 -16
33 -38 37 -48 3 -10 13 -18 22 -18 9 0 31 9 47 20 17 11 43 20 59 20 22 0 43
14 87 58 36 37 61 71 69 97 8 29 9 48 1 68 -8 21 -17 27 -41 27 -18 0 -49 -14
-80 -36 -30 -21 -57 -34 -66 -30 -13 5 -14 21 -9 108 3 57 2 132 -2 168 -7 58
-11 66 -42 87 -19 13 -39 23 -46 23z m153 -420 c13 0 22 -6 22 -14 0 -8 -7
-22 -16 -31 -9 -9 -27 -23 -40 -32 -13 -8 -28 -12 -34 -8 -5 3 -10 17 -10 30
0 16 9 29 28 39 15 8 37 15 50 16z m-463 -60 c8 0 15 -7 15 -15 0 -8 -7 -15
-15 -15 -8 0 -15 7 -15 15 0 8 7 15 15 15z m113 0 c14 0 22 -6 22 -17 0 -9 -7
-25 -17 -35 -9 -10 -27 -18 -40 -18 -13 0 -26 7 -30 16 -4 11 2 23 18 35 13
10 34 19 47 19z m172 -20 c5 0 11 -4 14 -9 3 -5 -1 -12 -10 -15 -9 -4 -19 -4
-21 -2 -3 3 -2 9 2 15 3 6 10 11 15 11z m-235 -62 c11 -2 21 -12 23 -24 2 -13
-6 -25 -22 -33 -13 -7 -29 -10 -35 -7 -6 4 -11 15 -11 25 0 9 6 23 12 29 7 7
22 11 33 10z"/>
</g>
</svg>
