<?xml version="1.0" standalone="no"?>
<!DOCTYPE svg PUBLIC "-//W3C//DTD SVG 20010904//EN"
 "http://www.w3.org/TR/2001/REC-SVG-20010904/DTD/svg10.dtd">
<svg version="1.0" xmlns="http://www.w3.org/2000/svg"
 width="128.000000pt" height="128.000000pt" viewBox="0 0 128.000000 128.000000"
 preserveAspectRatio="xMidYMid meet">
<metadata>
Created by potrace 1.16, written by Peter Selinger 2001-2019
</metadata>
<g transform="translate(0.000000,128.000000) scale(0.100000,-0.100000)"
fill="#000000" stroke="none">
<path d="M606 1260 c-15 0 -30 -8 -36 -21 -7 -11 -9 -27 -6 -35 3 -8 14 -14
24 -14 11 0 25 -7 32 -15 7 -9 15 -55 18 -108 5 -94 5 -94 -25 -106 -16 -6
-80 -15 -143 -19 -68 -4 -115 -11 -117 -18 -2 -6 12 -31 32 -55 20 -24 44 -54
54 -66 19 -23 19 -23 87 3 37 14 81 24 98 22 31 -3 31 -3 33 -187 2 -122 -1
-189 -9 -198 -7 -9 -38 -13 -98 -13 -84 0 -90 1 -109 27 -21 26 -21 26 -1 45
11 10 20 28 20 39 0 12 -15 36 -33 54 -19 19 -46 37 -60 41 -17 4 -40 0 -62
-10 -19 -9 -35 -21 -35 -25 0 -5 16 -21 35 -35 19 -15 35 -33 35 -40 0 -7 -13
-42 -29 -77 -21 -46 -54 -89 -116 -154 -48 -50 -94 -103 -103 -120 -8 -16 -15
-49 -14 -72 0 -23 3 -47 7 -52 3 -6 28 -11 54 -11 43 0 51 4 78 38 16 20 37
51 46 69 10 18 23 36 29 40 7 4 22 22 34 38 12 17 24 39 28 50 3 11 19 35 34
53 28 34 28 34 111 24 46 -6 90 -8 97 -5 8 3 25 2 39 -1 25 -6 26 -8 22 -91
-1 -49 -8 -90 -15 -97 -9 -9 -21 -7 -54 12 -24 13 -54 32 -67 42 -13 10 -32
18 -42 18 -11 0 -19 -7 -19 -16 0 -8 28 -43 63 -77 35 -34 76 -79 91 -99 23
-31 35 -38 62 -38 25 0 38 7 50 26 13 19 18 52 20 127 1 56 3 119 3 139 1 28
6 38 22 43 12 4 26 2 32 -4 6 -6 19 -11 28 -11 9 0 52 -18 95 -40 44 -23 86
-45 94 -50 8 -5 23 -11 33 -14 9 -3 17 -12 17 -20 0 -7 -34 -30 -75 -49 -41
-20 -75 -41 -75 -46 0 -6 19 -15 43 -22 25 -7 64 -8 97 -4 30 4 78 8 105 9 50
1 50 1 50 77 0 65 -4 81 -27 116 -21 32 -38 45 -80 58 -29 10 -57 21 -63 25
-5 4 -28 10 -50 14 -22 3 -65 11 -95 17 -30 6 -77 14 -105 18 -50 6 -50 6 -56
96 -3 50 -4 141 -3 204 2 63 -1 122 -6 132 -7 11 -6 20 3 27 6 5 26 13 44 17
18 3 41 2 52 -5 18 -9 23 -6 41 32 11 23 20 47 20 54 0 7 -20 24 -44 38 -25
14 -51 26 -59 26 -8 0 -26 -9 -41 -21 -14 -11 -31 -17 -37 -13 -9 5 -7 11 6
20 15 11 17 22 11 61 -4 26 -8 60 -10 74 -1 14 -13 40 -25 58 -12 17 -31 36
-41 41 -10 6 -30 10 -44 10z"/>
</g>
</svg>
