<?xml version="1.0" standalone="no"?>
<!DOCTYPE svg PUBLIC "-//W3C//DTD SVG 20010904//EN"
 "http://www.w3.org/TR/2001/REC-SVG-20010904/DTD/svg10.dtd">
<svg version="1.0" xmlns="http://www.w3.org/2000/svg"
 width="128.000000pt" height="128.000000pt" viewBox="0 0 128.000000 128.000000"
 preserveAspectRatio="xMidYMid meet">
<metadata>
Created by potrace 1.16, written by Peter Selinger 2001-2019
</metadata>
<g transform="translate(0.000000,128.000000) scale(0.100000,-0.100000)"
fill="#000000" stroke="none">
<path d="M898 1197 c-30 4 -38 1 -47 -16 -10 -18 -7 -23 28 -40 21 -11 42 -28
46 -38 5 -10 7 -22 5 -28 -2 -5 -4 -26 -5 -45 -1 -19 -2 -79 -3 -132 -2 -97
-2 -97 -34 -112 -17 -9 -39 -16 -48 -16 -10 0 -34 -7 -55 -16 -28 -11 -45 -13
-64 -6 -14 6 -44 9 -66 8 -22 -1 -46 -5 -53 -9 -6 -5 -12 -17 -12 -27 0 -11
12 -26 30 -35 16 -8 41 -15 55 -15 14 0 33 4 43 9 9 5 28 13 42 19 14 5 38 15
53 21 15 6 43 11 62 11 34 0 34 0 38 -107 3 -60 6 -112 6 -118 1 -5 -3 -36 -7
-68 -4 -31 -15 -65 -25 -74 -13 -13 -19 -14 -31 -4 -9 8 -46 11 -108 10 -51
-1 -102 0 -113 2 -14 3 -21 -2 -23 -17 -2 -15 7 -29 27 -43 18 -13 47 -22 76
-23 38 -2 50 2 64 20 15 20 28 23 116 28 55 3 117 5 138 5 21 0 50 -9 65 -19
15 -11 34 -20 42 -21 8 -1 36 -4 62 -7 39 -5 49 -3 54 11 5 12 -2 25 -22 41
-16 13 -46 29 -67 35 -20 7 -42 18 -48 26 -6 7 -21 13 -32 13 -11 0 -29 -7
-39 -16 -17 -16 -19 -15 -34 22 -14 32 -16 62 -11 176 4 93 11 146 21 166 8
16 23 32 32 36 9 4 27 0 40 -9 16 -10 36 -13 68 -9 34 5 46 11 46 23 0 10 -13
27 -30 39 -16 12 -38 22 -49 22 -11 0 -25 -9 -31 -20 -8 -14 -19 -19 -41 -16
-16 2 -32 5 -34 8 -2 2 -5 22 -6 43 -1 22 1 87 5 144 5 83 4 108 -8 126 -8 12
-30 26 -48 29 -18 4 -49 10 -70 13z"/>
<path d="M444 1186 c-37 5 -53 3 -62 -9 -10 -12 -6 -21 23 -53 32 -34 34 -40
20 -51 -9 -6 -15 -20 -13 -31 2 -11 -5 -29 -15 -40 -11 -12 -20 -39 -21 -66
-3 -36 -11 -54 -40 -86 -20 -22 -36 -49 -36 -60 0 -11 7 -20 15 -20 9 0 18 -8
22 -17 3 -10 10 -23 15 -30 8 -9 14 -9 29 0 17 10 23 9 35 -8 9 -12 12 -30 8
-48 -3 -16 -1 -34 6 -42 8 -10 8 -19 1 -34 -6 -11 -18 -111 -26 -223 -8 -112
-17 -214 -20 -228 -4 -14 0 -33 8 -44 8 -11 21 -17 29 -14 8 4 25 27 36 52 14
28 22 65 22 96 0 28 6 63 13 78 10 20 13 74 11 202 -1 102 -7 195 -14 223 -10
37 -10 50 0 62 6 8 9 23 5 34 -3 10 -12 22 -20 25 -8 3 -15 15 -15 26 0 11 4
20 10 20 5 0 17 11 26 25 9 14 18 37 20 51 1 14 7 30 12 37 6 7 9 38 8 70 -1
42 -7 62 -22 77 -12 13 -39 23 -70 26z"/>
<path d="M292 696 c-38 4 -44 1 -52 -21 -5 -14 -28 -43 -50 -65 -40 -39 -40
-40 -24 -65 9 -14 20 -25 25 -25 5 0 19 6 32 13 12 6 23 13 25 14 2 0 -2 10
-9 22 -7 11 -10 23 -6 28 5 4 18 1 29 -6 20 -12 24 -10 50 20 17 20 27 44 25
58 -2 20 -8 24 -45 27z"/>
<path d="M1254 610 c-19 0 -25 -5 -22 -17 2 -10 13 -19 26 -21 17 -3 22 2 22
17 0 16 -6 21 -26 21z"/>
<path d="M132 520 c-10 0 -23 -5 -30 -12 -7 -7 -12 -20 -12 -30 0 -12 8 -18
24 -18 13 0 29 7 36 15 7 8 10 22 6 30 -3 8 -14 15 -24 15z"/>
<path d="M13 458 c-8 2 -13 -5 -13 -18 0 -13 5 -20 13 -17 6 2 12 10 12 17 0
7 -6 15 -12 18z"/>
</g>
</svg>
