<?xml version="1.0" standalone="no"?>
<!DOCTYPE svg PUBLIC "-//W3C//DTD SVG 20010904//EN"
 "http://www.w3.org/TR/2001/REC-SVG-20010904/DTD/svg10.dtd">
<svg version="1.0" xmlns="http://www.w3.org/2000/svg"
 width="56.000000pt" height="56.000000pt" viewBox="0 0 56.000000 56.000000"
 preserveAspectRatio="xMidYMid meet">
<metadata>
Created by potrace 1.16, written by Peter Selinger 2001-2019
</metadata>
<g transform="translate(0.000000,56.000000) scale(0.100000,-0.100000)"
fill="#000000" stroke="none">
<path d="M218 560 c-14 0 -40 -18 -65 -44 -25 -26 -43 -54 -43 -67 0 -13 12
-32 26 -44 22 -18 24 -23 15 -48 -6 -16 -11 -39 -11 -51 0 -13 -14 -50 -30
-82 -21 -41 -33 -82 -38 -132 -5 -39 -5 -77 -1 -83 4 -7 18 -9 37 -4 20 4 39
19 56 45 14 22 26 44 26 49 0 5 7 15 16 22 9 8 27 12 40 11 15 -2 27 4 35 20
7 12 14 66 17 119 4 89 6 98 28 107 20 10 27 6 64 -35 36 -38 42 -50 37 -77
-3 -18 -16 -54 -30 -82 -13 -27 -40 -76 -61 -108 -20 -33 -36 -63 -36 -68 0
-4 13 -8 29 -8 24 0 34 8 55 43 14 23 41 74 61 112 25 47 37 85 38 115 1 34
-5 54 -27 85 -15 22 -39 47 -54 56 -21 13 -38 15 -74 10 -26 -4 -62 -20 -82
-34 -19 -15 -38 -27 -42 -27 -3 0 -4 14 0 32 3 17 18 47 32 65 14 19 23 41 20
48 -3 8 -16 15 -28 15 -21 1 -22 2 -5 14 9 7 17 16 17 20 0 3 -10 6 -22 6z
m-30 -55 c2 -2 1 -13 -3 -24 -3 -12 -11 -21 -16 -21 -5 0 -9 5 -9 10 0 6 6 17
13 24 6 8 14 13 15 11z m40 -200 c2 -6 -2 -24 -8 -39 -8 -23 -13 -26 -25 -16
-13 11 -12 16 8 39 12 15 23 23 25 16z m-66 -107 c7 -3 14 -12 16 -21 2 -9 -4
-27 -14 -41 -9 -14 -23 -26 -30 -26 -8 0 -14 5 -14 10 0 6 7 27 15 46 8 20 20
34 27 32z"/>
</g>
</svg>
