<?xml version="1.0" standalone="no"?>
<!DOCTYPE svg PUBLIC "-//W3C//DTD SVG 20010904//EN"
 "http://www.w3.org/TR/2001/REC-SVG-20010904/DTD/svg10.dtd">
<svg version="1.0" xmlns="http://www.w3.org/2000/svg"
 width="56.000000pt" height="56.000000pt" viewBox="0 0 56.000000 56.000000"
 preserveAspectRatio="xMidYMid meet">
<metadata>
Created by potrace 1.16, written by Peter Selinger 2001-2019
</metadata>
<g transform="translate(0.000000,56.000000) scale(0.100000,-0.100000)"
fill="#000000" stroke="none">
<path d="M101 560 c-51 0 -51 0 -51 -33 0 -20 8 -41 18 -50 17 -16 20 -15 44
11 14 15 29 37 33 50 6 21 4 22 -44 22z"/>
<path d="M268 538 c-14 2 -29 -2 -33 -7 -3 -6 1 -21 9 -33 9 -12 16 -32 16
-44 0 -12 -6 -27 -14 -33 -7 -6 -29 -10 -47 -9 -25 2 -34 -1 -34 -12 0 -8 16
-22 35 -31 19 -9 35 -23 35 -30 0 -8 -33 -31 -74 -52 -40 -21 -82 -48 -92 -60
-10 -12 -18 -35 -17 -52 1 -16 12 -54 24 -83 13 -30 29 -52 38 -52 9 0 23 11
32 25 9 14 22 25 29 25 7 0 15 -7 19 -15 3 -8 12 -15 21 -15 11 0 15 10 15 37
0 20 5 66 11 102 5 36 12 76 14 87 3 14 21 29 54 43 27 11 58 21 68 21 10 0
25 -6 33 -13 9 -7 22 -26 29 -44 12 -29 10 -37 -13 -86 -18 -39 -48 -75 -101
-122 -41 -37 -75 -71 -75 -76 0 -5 10 -9 23 -9 12 0 36 10 52 22 15 13 36 30
44 38 9 9 36 40 61 69 25 29 50 63 57 75 7 11 12 35 13 53 0 17 -4 35 -10 38
-5 3 -10 14 -10 24 0 10 -9 26 -21 37 -11 10 -33 24 -47 30 -21 8 -36 8 -66
-3 -21 -7 -45 -13 -52 -13 -8 0 -14 4 -14 9 0 4 20 21 45 37 25 15 52 38 60
51 8 12 11 24 6 27 -4 3 -23 1 -42 -4 -19 -6 -37 -10 -41 -10 -4 0 -8 12 -10
28 -2 21 -9 28 -30 30z m-65 -269 c4 1 7 -4 7 -9 0 -6 -9 -29 -20 -53 -12 -23
-30 -53 -41 -67 -20 -24 -21 -24 -35 -5 -8 10 -14 26 -14 35 0 9 15 32 33 52
17 20 39 38 47 41 8 3 18 6 23 6z"/>
</g>
</svg>
