<?xml version="1.0" standalone="no"?>
<!DOCTYPE svg PUBLIC "-//W3C//DTD SVG 20010904//EN"
 "http://www.w3.org/TR/2001/REC-SVG-20010904/DTD/svg10.dtd">
<svg version="1.0" xmlns="http://www.w3.org/2000/svg"
 width="56.000000pt" height="56.000000pt" viewBox="0 0 56.000000 56.000000"
 preserveAspectRatio="xMidYMid meet">
<metadata>
Created by potrace 1.16, written by Peter Selinger 2001-2019
</metadata>
<g transform="translate(0.000000,56.000000) scale(0.100000,-0.100000)"
fill="#000000" stroke="none">
<path d="M278 543 c-8 8 -20 11 -28 6 -8 -4 -23 -10 -32 -13 -10 -3 -18 -10
-18 -15 0 -5 16 -15 35 -22 19 -7 35 -19 35 -25 0 -7 -7 -19 -15 -28 -12 -11
-28 -14 -65 -9 -42 5 -50 3 -50 -11 0 -9 7 -16 15 -16 9 0 34 -9 57 -21 38
-19 40 -22 22 -32 -10 -6 -21 -13 -24 -17 -3 -3 -22 -14 -42 -23 -21 -10 -38
-21 -38 -26 0 -4 -12 -14 -26 -21 -14 -8 -32 -27 -40 -43 -13 -23 -13 -38 -4
-83 9 -43 17 -58 36 -66 21 -10 28 -8 50 12 25 24 25 24 48 -4 12 -16 28 -26
33 -23 7 4 11 40 11 85 0 44 5 88 11 100 6 11 11 31 11 44 0 15 16 41 42 66
22 23 51 42 62 42 12 0 26 -4 31 -8 6 -4 20 -26 33 -48 12 -23 22 -54 22 -70
0 -15 -5 -44 -11 -63 -6 -20 -20 -55 -32 -79 -11 -24 -38 -63 -59 -87 -39 -44
-39 -45 -15 -45 18 0 38 14 66 46 23 26 41 51 41 56 0 6 9 22 19 37 10 14 25
61 32 104 11 66 11 82 -1 100 -7 12 -19 32 -25 44 -7 13 -24 32 -39 44 -23 18
-31 20 -53 10 -14 -7 -28 -9 -31 -7 -3 3 0 11 6 19 6 7 7 18 2 26 -4 8 -17 12
-29 8 -12 -3 -21 -2 -22 1 0 4 -2 15 -4 24 -2 10 -9 24 -17 31z m-85 -263 c4
0 7 -14 7 -32 0 -23 -10 -40 -38 -68 -22 -20 -44 -45 -50 -56 -10 -16 -11 -11
-11 31 0 28 6 58 14 69 8 11 27 28 42 38 16 10 31 18 36 18z"/>
</g>
</svg>
