<?xml version="1.0" standalone="no"?>
<!DOCTYPE svg PUBLIC "-//W3C//DTD SVG 20010904//EN"
 "http://www.w3.org/TR/2001/REC-SVG-20010904/DTD/svg10.dtd">
<svg version="1.0" xmlns="http://www.w3.org/2000/svg"
 width="56.000000pt" height="56.000000pt" viewBox="0 0 56.000000 56.000000"
 preserveAspectRatio="xMidYMid meet">
<metadata>
Created by potrace 1.16, written by Peter Selinger 2001-2019
</metadata>
<g transform="translate(0.000000,56.000000) scale(0.100000,-0.100000)"
fill="#000000" stroke="none">
<path d="M269 560 c-16 0 -19 -7 -19 -46 0 -42 -2 -46 -35 -60 -19 -7 -46 -14
-60 -14 -14 0 -25 -4 -25 -9 0 -6 10 -17 22 -25 12 -9 34 -16 48 -16 14 0 31
-4 39 -9 9 -6 11 -17 7 -32 -3 -13 -24 -36 -46 -51 -22 -16 -46 -28 -54 -28
-7 0 -26 -11 -42 -25 -16 -14 -34 -25 -40 -25 -7 0 -15 -7 -18 -15 -3 -9 2
-30 12 -48 9 -18 32 -55 51 -84 34 -52 34 -52 65 -30 17 12 36 29 43 37 11 13
14 13 23 0 6 -8 9 -25 7 -38 -3 -15 2 -26 14 -32 10 -6 33 -10 53 -10 26 0 47
10 88 46 29 25 61 59 70 77 9 18 20 55 23 83 6 41 3 57 -11 79 -9 14 -36 35
-58 45 -23 11 -61 20 -86 22 -38 3 -45 6 -48 26 -2 13 4 32 13 42 9 10 29 20
44 22 18 2 26 9 26 23 0 16 -8 21 -40 25 -37 5 -40 8 -43 38 -2 24 -8 32 -23
32z m86 -254 c11 -3 25 -6 31 -6 7 0 15 -12 18 -27 4 -16 11 -46 16 -68 7 -32
5 -44 -11 -66 -10 -15 -19 -36 -19 -47 0 -11 -15 -31 -34 -46 -19 -14 -39 -26
-44 -26 -6 0 -13 34 -17 75 -4 42 -5 101 -3 132 4 40 10 60 24 70 10 8 28 12
39 9z m-129 -46 c8 0 14 -10 14 -25 0 -15 -6 -38 -14 -53 -8 -15 -26 -38 -40
-51 -23 -22 -29 -23 -50 -11 -14 7 -27 24 -31 37 -3 14 -1 31 6 39 6 8 18 14
26 14 8 0 28 11 45 25 16 14 36 25 44 25z"/>
</g>
</svg>
