<?xml version="1.0" standalone="no"?>
<!DOCTYPE svg PUBLIC "-//W3C//DTD SVG 20010904//EN"
 "http://www.w3.org/TR/2001/REC-SVG-20010904/DTD/svg10.dtd">
<svg version="1.0" xmlns="http://www.w3.org/2000/svg"
 width="56.000000pt" height="56.000000pt" viewBox="0 0 56.000000 56.000000"
 preserveAspectRatio="xMidYMid meet">
<metadata>
Created by potrace 1.16, written by Peter Selinger 2001-2019
</metadata>
<g transform="translate(0.000000,56.000000) scale(0.100000,-0.100000)"
fill="#000000" stroke="none">
<path d="M276 540 c-46 0 -46 0 -43 -62 2 -63 2 -63 -43 -60 -25 2 -49 8 -55
13 -5 5 -13 9 -17 9 -4 0 -8 -10 -8 -23 0 -12 7 -33 16 -45 10 -14 25 -22 45
-22 27 0 30 -3 27 -27 -2 -19 -14 -32 -44 -48 -22 -12 -59 -40 -83 -63 -40
-39 -42 -43 -39 -94 3 -50 5 -53 37 -62 29 -8 36 -7 53 15 10 13 23 34 28 47
5 12 14 22 20 22 5 0 12 -11 16 -25 3 -14 10 -25 15 -25 4 0 13 9 19 20 6 11
10 54 9 95 -1 42 0 77 2 78 2 1 22 16 44 33 22 17 50 36 62 42 12 7 41 12 65
12 24 0 49 -5 56 -12 7 -7 12 -25 12 -41 0 -15 -13 -47 -29 -70 -16 -23 -40
-55 -54 -72 -15 -16 -54 -63 -87 -102 -61 -73 -61 -73 -32 -73 15 0 35 6 43
13 9 6 37 40 63 74 26 33 56 63 67 66 11 3 19 14 19 26 0 11 14 42 30 68 20
31 30 60 30 84 0 31 -6 43 -33 63 -20 16 -47 26 -66 26 -20 0 -50 -12 -76 -30
-24 -16 -51 -30 -59 -30 -9 0 -16 4 -16 10 0 5 14 19 30 32 17 12 30 25 30 29
0 5 11 20 25 35 14 15 25 31 25 35 0 5 -13 15 -30 24 -16 8 -49 15 -74 15z
m14 -30 c19 0 30 -5 30 -14 0 -7 -7 -20 -16 -27 -14 -11 -18 -10 -30 6 -8 10
-14 22 -14 27 0 4 14 8 30 8z m-169 -300 c10 0 20 -4 24 -9 3 -5 -5 -22 -18
-37 -14 -16 -29 -24 -35 -20 -7 4 -12 15 -12 25 0 9 5 22 12 29 7 7 20 12 29
12z"/>
</g>
</svg>
