<?xml version="1.0" standalone="no"?>
<!DOCTYPE svg PUBLIC "-//W3C//DTD SVG 20010904//EN"
 "http://www.w3.org/TR/2001/REC-SVG-20010904/DTD/svg10.dtd">
<svg version="1.0" xmlns="http://www.w3.org/2000/svg"
 width="56.000000pt" height="56.000000pt" viewBox="0 0 56.000000 56.000000"
 preserveAspectRatio="xMidYMid meet">
<metadata>
Created by potrace 1.16, written by Peter Selinger 2001-2019
</metadata>
<g transform="translate(0.000000,56.000000) scale(0.100000,-0.100000)"
fill="#000000" stroke="none">
<path d="M497 545 c-9 8 -17 11 -19 7 -2 -4 -29 -19 -61 -35 -34 -16 -57 -33
-54 -40 2 -6 10 -12 18 -11 8 1 29 4 47 8 28 7 32 5 32 -13 0 -12 3 -21 6 -21
4 0 26 12 50 28 24 15 44 32 44 38 0 7 -11 15 -24 18 -14 3 -31 13 -39 21z"/>
<path d="M156 499 c-6 0 -26 -16 -45 -35 -19 -19 -46 -37 -60 -40 -14 -3 -33
-8 -41 -11 -12 -3 -10 -8 9 -24 13 -10 36 -19 51 -19 15 0 35 9 45 20 10 11
22 20 27 20 4 0 8 -20 8 -45 0 -25 -4 -64 -9 -87 -6 -24 -17 -76 -25 -115 -11
-51 -13 -80 -6 -98 5 -14 17 -28 25 -31 8 -4 22 -1 30 6 11 9 15 32 15 79 0
36 4 104 9 151 6 47 12 109 14 138 4 45 1 57 -16 73 -12 10 -26 19 -31 18z"/>
<path d="M407 340 c-18 0 -40 -5 -50 -11 -9 -5 -24 -24 -33 -42 -10 -18 -17
-55 -17 -85 0 -29 5 -58 11 -64 7 -7 21 -2 46 18 20 16 41 45 47 64 7 19 16
41 22 48 7 9 13 9 23 1 8 -6 14 -28 14 -48 0 -20 -14 -70 -31 -111 -16 -41
-34 -79 -40 -85 -5 -5 -9 -13 -9 -18 0 -4 12 -7 26 -5 19 2 32 16 52 53 15 28
33 67 40 87 8 22 10 53 7 75 -4 21 -11 53 -17 71 -6 21 -19 37 -35 43 -13 5
-39 9 -56 9z m-19 -50 c6 0 12 -6 12 -13 0 -7 -7 -23 -16 -35 -8 -12 -22 -22
-30 -22 -8 0 -14 5 -14 11 0 5 8 21 18 34 9 14 23 25 30 25z"/>
</g>
</svg>
