<?xml version="1.0" standalone="no"?>
<!DOCTYPE svg PUBLIC "-//W3C//DTD SVG 20010904//EN"
 "http://www.w3.org/TR/2001/REC-SVG-20010904/DTD/svg10.dtd">
<svg version="1.0" xmlns="http://www.w3.org/2000/svg"
 width="56.000000pt" height="56.000000pt" viewBox="0 0 56.000000 56.000000"
 preserveAspectRatio="xMidYMid meet">
<metadata>
Created by potrace 1.16, written by Peter Selinger 2001-2019
</metadata>
<g transform="translate(0.000000,56.000000) scale(0.100000,-0.100000)"
fill="#000000" stroke="none">
<path d="M278 560 c-16 0 -28 -3 -28 -6 0 -4 5 -24 12 -46 9 -32 9 -41 -1 -48
-8 -4 -31 -5 -52 -3 -21 3 -45 3 -54 -1 -13 -5 -14 -10 -5 -27 9 -16 20 -20
53 -19 23 1 48 1 55 1 6 -1 12 -12 12 -25 0 -13 -8 -33 -17 -45 -14 -16 -32
-22 -72 -24 -46 -3 -58 -8 -82 -35 -23 -26 -27 -36 -20 -54 5 -13 17 -40 25
-61 10 -23 27 -42 43 -48 24 -9 30 -6 58 27 22 26 37 35 48 31 10 -4 17 -17
17 -32 0 -14 4 -25 9 -25 5 0 16 3 25 6 9 3 16 13 16 21 0 8 -5 24 -12 36 -7
12 -11 33 -9 47 1 14 8 37 14 53 8 17 19 27 34 27 12 0 33 -14 48 -32 24 -28
26 -37 20 -77 -4 -25 -20 -66 -36 -90 -16 -25 -29 -50 -29 -58 0 -7 -3 -13 -8
-13 -4 0 -13 -9 -20 -20 -11 -18 -10 -20 18 -20 20 0 33 6 37 18 4 9 29 50 55
91 26 40 48 84 48 96 0 12 -5 35 -10 52 -6 16 -25 40 -42 53 -17 12 -51 25
-74 28 -37 4 -44 8 -44 26 0 11 3 31 6 44 6 21 11 23 44 17 29 -5 39 -3 43 9
4 9 4 22 1 30 -3 8 -16 17 -30 20 -13 4 -34 22 -47 41 -16 26 -29 35 -49 35z
m-81 -280 c25 0 33 -4 33 -17 0 -10 -4 -23 -8 -29 -4 -5 -18 -18 -31 -27 -18
-12 -28 -14 -38 -5 -7 6 -13 20 -13 32 0 12 5 27 12 34 7 7 27 12 45 12z"/>
</g>
</svg>
