<?xml version="1.0" standalone="no"?>
<!DOCTYPE svg PUBLIC "-//W3C//DTD SVG 20010904//EN"
 "http://www.w3.org/TR/2001/REC-SVG-20010904/DTD/svg10.dtd">
<svg version="1.0" xmlns="http://www.w3.org/2000/svg"
 width="56.000000pt" height="56.000000pt" viewBox="0 0 56.000000 56.000000"
 preserveAspectRatio="xMidYMid meet">
<metadata>
Created by potrace 1.16, written by Peter Selinger 2001-2019
</metadata>
<g transform="translate(0.000000,56.000000) scale(0.100000,-0.100000)"
fill="#000000" stroke="none">
<path d="M235 540 c-11 0 -15 -10 -15 -35 0 -23 -6 -38 -16 -42 -8 -3 -25 4
-38 16 -12 11 -34 21 -49 21 -15 0 -27 -5 -27 -11 0 -7 15 -26 33 -44 18 -18
43 -38 55 -44 12 -6 22 -18 22 -26 0 -8 -4 -15 -9 -15 -6 0 -46 -32 -89 -71
-80 -71 -80 -71 -84 -143 -3 -39 -1 -75 4 -80 5 -6 21 3 41 22 17 17 52 38 76
47 24 8 46 13 49 11 2 -3 6 -20 7 -38 2 -18 4 -50 4 -70 1 -35 3 -38 30 -38
27 0 29 3 33 48 3 26 0 98 -6 161 -10 114 -10 114 18 137 18 16 40 24 66 24
34 0 43 -6 90 -60 49 -56 52 -63 47 -101 -3 -22 -12 -46 -20 -52 -7 -7 -23
-28 -35 -47 -11 -20 -32 -46 -46 -59 -14 -14 -26 -30 -26 -38 0 -7 11 -13 27
-13 19 0 39 14 71 48 25 26 56 64 69 84 21 32 24 44 19 93 -4 31 -15 73 -25
93 -11 21 -30 48 -44 61 -19 17 -46 26 -101 34 -42 6 -76 15 -76 19 0 4 4 8 9
8 5 0 12 7 15 15 4 10 -7 29 -29 50 -19 19 -41 35 -50 35z m-52 -250 c10 0 17
-7 17 -17 0 -10 3 -35 6 -55 5 -31 4 -38 -9 -38 -10 0 -14 6 -11 15 4 8 1 15
-4 15 -6 0 -27 -9 -46 -21 -27 -16 -36 -18 -37 -7 -1 7 0 22 1 33 0 11 16 32
33 47 18 15 40 28 50 28z"/>
</g>
</svg>
