<?xml version="1.0" standalone="no"?>
<!DOCTYPE svg PUBLIC "-//W3C//DTD SVG 20010904//EN"
 "http://www.w3.org/TR/2001/REC-SVG-20010904/DTD/svg10.dtd">
<svg version="1.0" xmlns="http://www.w3.org/2000/svg"
 width="56.000000pt" height="56.000000pt" viewBox="0 0 56.000000 56.000000"
 preserveAspectRatio="xMidYMid meet">
<metadata>
Created by potrace 1.16, written by Peter Selinger 2001-2019
</metadata>
<g transform="translate(0.000000,56.000000) scale(0.100000,-0.100000)"
fill="#000000" stroke="none">
<path d="M473 520 c-10 0 -26 -7 -37 -15 -10 -8 -38 -17 -62 -21 -25 -3 -44
-12 -44 -19 0 -6 18 -17 40 -24 27 -8 40 -17 40 -30 0 -10 -16 -29 -37 -42
-20 -13 -39 -33 -43 -44 -4 -11 -4 -30 1 -42 6 -16 17 -23 33 -23 15 0 32 10
43 25 10 14 25 35 34 47 13 17 19 19 37 9 12 -6 24 -22 28 -36 4 -15 -5 -45
-25 -87 -17 -35 -48 -87 -71 -116 -22 -29 -40 -57 -40 -62 0 -6 9 -10 20 -10
12 0 32 12 46 28 13 15 43 59 67 97 23 39 45 72 49 73 5 2 8 21 8 43 0 30 -7
48 -32 74 -18 20 -41 35 -54 35 -14 0 -25 8 -29 21 -5 16 1 30 25 54 20 21 30
40 27 49 -4 9 -14 16 -24 16z"/>
<path d="M21 420 c-5 0 -13 -21 -17 -47 -4 -25 -3 -58 2 -72 8 -20 16 -26 39
-26 29 0 30 -1 37 -65 4 -36 5 -89 1 -117 -4 -44 -2 -54 12 -59 9 -4 23 0 32
9 8 8 18 36 20 61 3 26 0 88 -7 139 -7 51 -17 98 -22 105 -6 6 -23 12 -38 12
-22 0 -30 6 -39 30 -5 17 -14 30 -20 30z"/>
</g>
</svg>
