<?xml version="1.0" standalone="no"?>
<!DOCTYPE svg PUBLIC "-//W3C//DTD SVG 20010904//EN"
 "http://www.w3.org/TR/2001/REC-SVG-20010904/DTD/svg10.dtd">
<svg version="1.0" xmlns="http://www.w3.org/2000/svg"
 width="56.000000pt" height="56.000000pt" viewBox="0 0 56.000000 56.000000"
 preserveAspectRatio="xMidYMid meet">
<metadata>
Created by potrace 1.16, written by Peter Selinger 2001-2019
</metadata>
<g transform="translate(0.000000,56.000000) scale(0.100000,-0.100000)"
fill="#000000" stroke="none">
<path d="M285 540 c-19 0 -28 -7 -36 -27 -6 -16 -13 -49 -16 -75 -4 -33 -12
-52 -27 -61 -12 -8 -37 -17 -56 -20 -19 -3 -50 -9 -67 -13 -18 -3 -44 -18 -59
-32 -23 -24 -25 -32 -20 -75 4 -27 14 -68 23 -90 9 -23 19 -46 23 -50 4 -5 21
-2 38 7 16 8 32 23 36 31 3 9 6 19 6 22 0 3 -8 3 -19 0 -10 -2 -26 0 -35 5
-12 7 -16 24 -16 67 0 57 0 57 53 69 28 7 62 15 75 18 18 5 22 2 22 -16 0 -13
-13 -45 -30 -72 -17 -26 -30 -50 -30 -53 0 -3 9 -5 20 -5 11 0 20 5 20 10 0 6
7 10 14 10 11 0 16 -14 18 -47 3 -44 5 -48 28 -48 25 0 25 0 22 128 -3 127 -3
127 47 127 28 0 51 -4 51 -8 0 -5 11 -14 25 -20 14 -7 31 -12 36 -12 6 0 9 10
7 22 -2 15 -15 25 -43 34 -22 8 -56 16 -75 19 -19 3 -41 9 -48 13 -9 6 -10 16
-3 34 8 22 18 27 60 33 42 6 51 11 51 26 0 13 -12 25 -35 35 -19 7 -46 14 -60
14z"/>
<path d="M482 323 c-10 10 -22 14 -25 10 -4 -3 -7 -19 -7 -34 0 -15 5 -31 10
-34 6 -3 10 -16 10 -28 0 -12 -6 -33 -13 -46 -6 -13 -30 -34 -52 -47 -22 -13
-65 -36 -95 -52 -30 -15 -55 -34 -55 -42 0 -11 10 -14 39 -12 22 2 53 10 70
19 17 9 42 24 55 34 13 11 31 19 41 19 9 0 35 16 58 36 23 19 42 42 42 49 0 8
-10 17 -22 21 -21 6 -21 6 2 19 24 13 24 13 -8 20 -25 5 -32 12 -32 29 0 13
-8 30 -18 39z"/>
<path d="M222 30 c-5 0 -16 -7 -23 -16 -12 -14 -11 -16 5 -13 11 2 21 10 24
17 2 6 -1 12 -6 12z"/>
</g>
</svg>
