<?xml version="1.0" standalone="no"?>
<!DOCTYPE svg PUBLIC "-//W3C//DTD SVG 20010904//EN"
 "http://www.w3.org/TR/2001/REC-SVG-20010904/DTD/svg10.dtd">
<svg version="1.0" xmlns="http://www.w3.org/2000/svg"
 width="56.000000pt" height="56.000000pt" viewBox="0 0 56.000000 56.000000"
 preserveAspectRatio="xMidYMid meet">
<metadata>
Created by potrace 1.16, written by Peter Selinger 2001-2019
</metadata>
<g transform="translate(0.000000,56.000000) scale(0.100000,-0.100000)"
fill="#000000" stroke="none">
<path d="M203 560 c-10 0 -29 -9 -43 -19 -24 -19 -24 -20 -6 -40 12 -14 19
-34 18 -58 -1 -20 -8 -43 -15 -50 -8 -8 -36 -14 -65 -15 -37 0 -52 -4 -52 -14
0 -7 13 -20 30 -29 16 -8 42 -15 59 -15 16 0 32 -4 36 -9 3 -6 -21 -37 -54
-69 -39 -39 -63 -73 -70 -97 -6 -21 -8 -42 -5 -47 3 -4 11 -8 19 -8 8 0 20 11
27 24 7 13 24 43 38 67 25 44 25 44 28 0 2 -24 1 -50 -2 -57 -3 -8 -14 -14
-25 -14 -15 0 -19 -4 -13 -18 4 -9 16 -32 27 -50 10 -17 24 -32 30 -32 5 0 16
18 23 40 6 22 12 91 12 155 0 116 0 116 36 131 22 9 49 12 72 9 20 -4 55 -13
78 -21 34 -12 45 -23 64 -64 18 -39 21 -53 12 -62 -7 -7 -12 -19 -12 -29 0 -9
-13 -29 -28 -45 -15 -16 -38 -36 -52 -45 -13 -8 -20 -20 -17 -26 4 -6 16 -9
27 -6 11 3 20 9 20 14 0 5 6 9 13 9 7 0 30 17 50 38 22 23 37 48 37 62 0 14 4
31 9 39 6 9 2 30 -10 58 -10 24 -30 55 -45 70 -15 15 -48 32 -74 39 -27 7 -66
10 -89 7 -36 -5 -41 -3 -41 15 0 11 -7 23 -15 26 -11 4 -15 17 -14 38 2 18 2
48 1 66 -2 23 -7 32 -19 32z"/>
</g>
</svg>
