<?xml version="1.0" standalone="no"?>
<!DOCTYPE svg PUBLIC "-//W3C//DTD SVG 20010904//EN"
 "http://www.w3.org/TR/2001/REC-SVG-20010904/DTD/svg10.dtd">
<svg version="1.0" xmlns="http://www.w3.org/2000/svg"
 width="56.000000pt" height="56.000000pt" viewBox="0 0 56.000000 56.000000"
 preserveAspectRatio="xMidYMid meet">
<metadata>
Created by potrace 1.16, written by Peter Selinger 2001-2019
</metadata>
<g transform="translate(0.000000,56.000000) scale(0.100000,-0.100000)"
fill="#000000" stroke="none">
<path d="M246 560 c-7 0 -19 -11 -26 -25 -7 -14 -11 -28 -7 -31 3 -4 2 -15 -3
-25 -8 -14 -25 -19 -83 -21 -63 -3 -72 -5 -72 -22 0 -13 10 -22 30 -28 17 -5
51 -9 78 -9 26 -1 50 -5 53 -11 3 -5 3 -20 0 -33 -3 -13 -16 -27 -28 -31 -12
-4 -35 -20 -51 -35 -16 -16 -34 -29 -42 -29 -7 0 -25 -16 -39 -35 -24 -31 -27
-42 -24 -107 2 -40 8 -73 13 -73 6 0 11 13 13 28 3 28 4 28 23 11 17 -16 22
-16 29 -4 6 8 10 19 10 23 0 5 -9 11 -20 14 -18 5 -21 12 -18 51 2 33 8 48 23
56 11 6 32 19 47 29 14 9 33 17 42 17 9 0 16 -8 16 -20 0 -11 -18 -40 -40 -64
-22 -24 -40 -48 -40 -54 0 -6 9 -14 20 -17 12 -4 27 -1 35 5 8 7 22 10 30 6
13 -5 15 -18 13 -63 -3 -53 -1 -58 18 -61 13 -2 24 4 28 13 3 9 2 24 -3 33 -4
9 -6 71 -4 137 2 66 4 147 3 180 0 33 4 66 9 74 5 8 24 14 42 15 24 1 35 6 37
19 2 10 -4 20 -15 23 -10 3 -30 10 -45 16 -15 6 -30 19 -33 29 -4 10 -12 19
-19 19z"/>
<path d="M367 359 c-7 -1 -22 -4 -34 -6 -12 -2 -27 -10 -33 -18 -10 -11 -6
-15 17 -20 15 -4 42 -11 58 -17 17 -5 40 -15 52 -20 12 -6 27 -23 33 -39 7
-16 9 -41 5 -56 -4 -16 -41 -61 -87 -105 -81 -78 -81 -78 -40 -78 31 0 45 6
64 28 13 15 37 34 54 42 16 9 40 36 52 60 18 33 23 56 19 86 -2 22 -12 53 -23
69 -10 16 -41 38 -71 51 -30 13 -59 23 -66 23z"/>
</g>
</svg>
