<?xml version="1.0" standalone="no"?>
<!DOCTYPE svg PUBLIC "-//W3C//DTD SVG 20010904//EN"
 "http://www.w3.org/TR/2001/REC-SVG-20010904/DTD/svg10.dtd">
<svg version="1.0" xmlns="http://www.w3.org/2000/svg"
 width="56.000000pt" height="56.000000pt" viewBox="0 0 56.000000 56.000000"
 preserveAspectRatio="xMidYMid meet">
<metadata>
Created by potrace 1.16, written by Peter Selinger 2001-2019
</metadata>
<g transform="translate(0.000000,56.000000) scale(0.100000,-0.100000)"
fill="#000000" stroke="none">
<path d="M275 544 c-24 16 -25 16 -25 -7 0 -13 4 -27 9 -32 5 -6 11 -27 13
-48 3 -37 1 -40 -36 -52 -22 -8 -42 -17 -45 -22 -3 -4 -19 -15 -35 -23 -16 -8
-35 -28 -42 -45 -7 -17 -10 -54 -8 -84 2 -38 10 -61 26 -78 12 -12 29 -23 39
-23 13 0 18 8 18 32 -1 18 -8 47 -16 64 -15 29 -14 32 8 67 13 20 37 42 52 48
15 6 29 10 31 8 2 -2 1 -21 -2 -42 -3 -28 -11 -41 -28 -49 -13 -6 -24 -19 -24
-29 0 -10 10 -25 21 -33 17 -12 20 -21 15 -48 -4 -18 -8 -42 -9 -53 -1 -11 5
-21 15 -23 10 -2 22 7 31 25 9 17 17 77 21 153 3 68 10 128 15 133 6 6 21 -9
40 -39 23 -35 31 -60 31 -92 0 -25 -10 -72 -22 -106 -11 -34 -34 -75 -50 -91
-15 -17 -28 -36 -28 -43 0 -7 11 -12 25 -12 18 0 25 5 25 19 0 10 6 21 13 24
7 3 30 39 50 80 26 53 37 88 37 120 0 28 -8 61 -21 84 -12 21 -40 55 -63 75
-41 38 -41 38 -13 63 23 23 26 29 16 48 -7 12 -17 25 -23 29 -6 4 -16 2 -23
-4 -9 -7 -20 -6 -38 6z"/>
<path d="M106 418 c-12 3 -17 -1 -14 -10 3 -7 13 -15 22 -16 12 -3 17 1 14 10
-3 7 -13 15 -22 16z"/>
</g>
</svg>
