<?xml version="1.0" standalone="no"?>
<!DOCTYPE svg PUBLIC "-//W3C//DTD SVG 20010904//EN"
 "http://www.w3.org/TR/2001/REC-SVG-20010904/DTD/svg10.dtd">
<svg version="1.0" xmlns="http://www.w3.org/2000/svg"
 width="56.000000pt" height="56.000000pt" viewBox="0 0 56.000000 56.000000"
 preserveAspectRatio="xMidYMid meet">
<metadata>
Created by potrace 1.16, written by Peter Selinger 2001-2019
</metadata>
<g transform="translate(0.000000,56.000000) scale(0.100000,-0.100000)"
fill="#000000" stroke="none">
<path d="M213 506 c-20 5 -23 2 -23 -19 0 -14 5 -38 12 -53 11 -23 10 -28 -9
-43 -12 -9 -38 -27 -57 -41 -19 -14 -41 -41 -50 -61 -9 -19 -18 -49 -22 -65
-6 -29 -5 -30 29 -26 23 3 46 15 68 38 18 19 37 34 41 34 5 0 7 -33 6 -74 -3
-62 0 -77 16 -95 16 -18 21 -19 28 -7 4 7 6 58 4 112 -2 72 1 107 11 128 12
22 12 30 2 36 -6 5 -9 15 -6 24 5 11 19 16 52 16 26 0 56 -5 68 -12 12 -6 26
-16 32 -22 5 -7 16 -22 22 -34 7 -12 13 -34 13 -49 0 -16 -11 -48 -24 -73 -19
-36 -28 -45 -49 -45 -15 1 -27 -3 -27 -7 0 -4 -8 -8 -18 -8 -10 0 -22 -3 -25
-7 -4 -3 -2 -12 4 -19 6 -7 17 -10 25 -7 8 3 14 2 14 -2 0 -3 -13 -20 -30 -36
-16 -16 -39 -43 -50 -59 -21 -30 -21 -30 9 -30 17 0 31 4 31 8 0 5 11 14 25
20 14 6 25 17 25 25 0 7 23 35 50 62 28 27 50 55 50 62 0 7 3 13 8 13 4 0 12
17 19 38 8 26 9 51 3 77 -5 22 -10 54 -10 71 0 18 -8 38 -20 49 -11 10 -26 15
-36 11 -9 -3 -34 -1 -56 4 -27 8 -42 19 -48 36 -8 19 -16 24 -47 24 -21 0 -48
3 -60 6z"/>
<path d="M315 380 c-8 0 -15 -4 -15 -10 0 -5 7 -10 15 -10 8 0 15 5 15 10 0 6
-7 10 -15 10z"/>
</g>
</svg>
