<?xml version="1.0" standalone="no"?>
<!DOCTYPE svg PUBLIC "-//W3C//DTD SVG 20010904//EN"
 "http://www.w3.org/TR/2001/REC-SVG-20010904/DTD/svg10.dtd">
<svg version="1.0" xmlns="http://www.w3.org/2000/svg"
 width="56.000000pt" height="56.000000pt" viewBox="0 0 56.000000 56.000000"
 preserveAspectRatio="xMidYMid meet">
<metadata>
Created by potrace 1.16, written by Peter Selinger 2001-2019
</metadata>
<g transform="translate(0.000000,56.000000) scale(0.100000,-0.100000)"
fill="#000000" stroke="none">
<path d="M220 560 c-11 0 -22 -15 -30 -40 -12 -36 -16 -40 -47 -40 -23 0 -33
-4 -31 -12 3 -7 13 -15 24 -17 10 -2 25 -8 32 -13 6 -6 12 -20 12 -33 0 -14
-13 -30 -37 -46 -27 -17 -39 -34 -45 -59 -4 -19 -5 -43 -2 -52 3 -10 12 -18
20 -18 7 0 23 -20 35 -45 12 -25 25 -48 29 -50 5 -3 11 -1 15 5 3 5 8 38 11
72 2 35 7 84 10 110 5 42 9 48 42 61 21 8 52 12 70 10 22 -4 41 -16 57 -38 14
-17 25 -44 25 -58 0 -14 -10 -43 -22 -64 -13 -21 -48 -76 -78 -123 -31 -47
-60 -91 -64 -97 -5 -10 4 -13 33 -13 23 0 41 4 41 9 0 5 22 46 49 89 27 44 59
107 70 139 12 33 21 67 21 76 0 10 -12 36 -27 58 -14 22 -39 47 -54 55 -16 8
-51 14 -79 14 -51 0 -51 0 -44 36 4 22 2 45 -6 60 -8 13 -21 24 -30 24z m-52
-250 c2 -6 -1 -17 -7 -23 -6 -6 -14 -8 -17 -4 -4 4 -1 14 7 23 9 11 15 12 17
4z"/>
</g>
</svg>
