<?xml version="1.0" standalone="no"?>
<!DOCTYPE svg PUBLIC "-//W3C//DTD SVG 20010904//EN"
 "http://www.w3.org/TR/2001/REC-SVG-20010904/DTD/svg10.dtd">
<svg version="1.0" xmlns="http://www.w3.org/2000/svg"
 width="56.000000pt" height="56.000000pt" viewBox="0 0 56.000000 56.000000"
 preserveAspectRatio="xMidYMid meet">
<metadata>
Created by potrace 1.16, written by Peter Selinger 2001-2019
</metadata>
<g transform="translate(0.000000,56.000000) scale(0.100000,-0.100000)"
fill="#000000" stroke="none">
<path d="M187 560 c-8 0 -18 -12 -21 -26 -4 -14 -4 -35 0 -47 3 -12 15 -31 25
-42 10 -11 15 -25 11 -31 -4 -6 -29 -25 -57 -42 -27 -17 -58 -44 -67 -60 -10
-16 -19 -55 -20 -87 -2 -38 1 -59 9 -62 7 -2 32 14 57 37 24 22 46 37 49 33 3
-4 8 -23 12 -40 3 -18 10 -35 15 -38 4 -3 14 5 22 18 8 12 18 57 22 100 4 43
9 84 12 92 3 8 21 19 40 25 25 9 43 9 69 0 19 -6 42 -21 50 -33 8 -12 15 -43
15 -69 0 -39 -10 -68 -51 -146 -28 -53 -54 -99 -57 -102 -4 -3 -13 -13 -21
-22 -12 -17 -10 -18 30 -18 43 1 45 2 79 58 19 31 47 82 62 112 15 30 28 70
28 88 0 18 -10 53 -21 77 -12 25 -38 59 -58 76 -31 26 -42 30 -79 26 -42 -5
-43 -4 -38 19 4 16 0 30 -14 44 -11 11 -26 17 -34 14 -7 -3 -23 6 -34 20 -11
14 -27 26 -35 26z m5 -206 c5 -3 5 -11 1 -17 -3 -7 -19 -29 -36 -49 -16 -21
-35 -38 -43 -38 -8 0 -14 4 -14 9 0 4 5 22 11 39 6 18 23 36 42 45 17 9 35 13
39 11z"/>
</g>
</svg>
