<?xml version="1.0" standalone="no"?>
<!DOCTYPE svg PUBLIC "-//W3C//DTD SVG 20010904//EN"
 "http://www.w3.org/TR/2001/REC-SVG-20010904/DTD/svg10.dtd">
<svg version="1.0" xmlns="http://www.w3.org/2000/svg"
 width="56.000000pt" height="56.000000pt" viewBox="0 0 56.000000 56.000000"
 preserveAspectRatio="xMidYMid meet">
<metadata>
Created by potrace 1.16, written by Peter Selinger 2001-2019
</metadata>
<g transform="translate(0.000000,56.000000) scale(0.100000,-0.100000)"
fill="#000000" stroke="none">
<path d="M335 560 c-25 0 -45 -5 -45 -11 0 -6 -13 -22 -30 -36 -16 -13 -30
-33 -30 -43 0 -11 5 -31 12 -44 9 -22 8 -29 -8 -47 -10 -12 -43 -38 -73 -58
-42 -28 -65 -53 -98 -111 -37 -62 -43 -78 -34 -97 6 -12 29 -36 52 -53 23 -16
50 -30 60 -30 10 0 34 14 53 31 20 17 40 28 46 24 6 -4 18 -24 27 -46 10 -25
22 -39 33 -39 15 0 19 12 25 73 3 39 2 109 -3 155 -4 45 -5 87 -2 93 5 7 19 7
41 2 23 -6 43 -23 62 -49 16 -22 32 -57 37 -77 7 -33 3 -43 -36 -103 -24 -37
-44 -73 -44 -80 0 -9 12 -14 35 -14 25 0 35 4 35 15 0 9 7 18 15 21 8 3 26 25
40 49 21 36 25 56 25 119 0 41 -4 86 -9 99 -5 13 -23 38 -41 55 -17 18 -52 38
-78 45 -46 14 -46 14 -49 64 -3 36 1 54 12 63 8 7 15 16 15 21 0 5 -20 9 -45
9z m-83 -266 c4 -3 8 -21 8 -39 0 -24 -6 -38 -20 -45 -11 -6 -20 -19 -20 -29
0 -10 -11 -26 -25 -35 -13 -9 -29 -16 -35 -16 -5 0 -10 9 -10 20 0 11 9 36 21
57 11 21 32 50 46 65 15 15 30 25 35 22z"/>
</g>
</svg>
