<?xml version="1.0" standalone="no"?>
<!DOCTYPE svg PUBLIC "-//W3C//DTD SVG 20010904//EN"
 "http://www.w3.org/TR/2001/REC-SVG-20010904/DTD/svg10.dtd">
<svg version="1.0" xmlns="http://www.w3.org/2000/svg"
 width="56.000000pt" height="56.000000pt" viewBox="0 0 56.000000 56.000000"
 preserveAspectRatio="xMidYMid meet">
<metadata>
Created by potrace 1.16, written by Peter Selinger 2001-2019
</metadata>
<g transform="translate(0.000000,56.000000) scale(0.100000,-0.100000)"
fill="#000000" stroke="none">
<path d="M258 524 c-28 28 -35 32 -46 20 -10 -11 -10 -18 4 -38 8 -14 13 -30
9 -36 -3 -5 -21 -10 -39 -10 -18 0 -36 -3 -40 -7 -3 -4 13 -24 36 -44 36 -31
41 -40 32 -55 -6 -10 -20 -21 -32 -24 -12 -3 -30 -12 -39 -20 -10 -8 -31 -21
-48 -29 -30 -13 -30 -13 -7 -28 19 -13 22 -24 22 -79 0 -51 3 -65 18 -73 15
-8 23 -4 41 19 12 17 26 30 31 30 6 0 10 -14 10 -30 0 -17 7 -45 16 -62 11
-20 12 -34 5 -41 -6 -6 -15 -4 -26 7 -9 9 -27 16 -40 16 -13 0 -27 -5 -31 -11
-3 -6 0 -15 7 -20 8 -5 43 -9 77 -9 37 0 78 6 96 15 18 9 49 32 69 53 19 20
49 62 66 93 24 45 29 64 25 95 -3 21 -10 51 -16 66 -6 15 -29 38 -53 53 -25
14 -51 22 -62 19 -10 -3 -28 -11 -41 -17 -16 -8 -25 -8 -34 1 -8 8 -4 14 18
22 16 5 36 14 44 19 8 4 16 16 18 25 2 9 -2 23 -8 31 -7 8 -21 15 -31 15 -10
0 -33 15 -51 34z m79 -195 c24 1 36 -6 52 -28 12 -16 21 -44 21 -61 0 -22 -14
-52 -44 -94 -24 -33 -55 -72 -69 -85 -14 -12 -30 -20 -36 -16 -6 3 -11 38 -11
79 0 40 3 100 6 134 6 51 10 62 28 65 11 2 35 5 53 6z m-124 -82 c5 -14 1 -27
-14 -44 -13 -12 -31 -23 -41 -23 -13 0 -18 7 -18 28 0 20 8 31 33 43 30 15 32
15 40 -4z"/>
</g>
</svg>
