<?xml version="1.0" standalone="no"?>
<!DOCTYPE svg PUBLIC "-//W3C//DTD SVG 20010904//EN"
 "http://www.w3.org/TR/2001/REC-SVG-20010904/DTD/svg10.dtd">
<svg version="1.0" xmlns="http://www.w3.org/2000/svg"
 width="56.000000pt" height="56.000000pt" viewBox="0 0 56.000000 56.000000"
 preserveAspectRatio="xMidYMid meet">
<metadata>
Created by potrace 1.16, written by Peter Selinger 2001-2019
</metadata>
<g transform="translate(0.000000,56.000000) scale(0.100000,-0.100000)"
fill="#000000" stroke="none">
<path d="M171 560 c-5 0 -11 -21 -13 -47 -3 -46 -4 -48 -35 -51 -20 -2 -33 -9
-33 -17 0 -8 14 -24 30 -37 20 -14 30 -30 30 -47 -1 -14 -6 -36 -13 -48 -7
-12 -24 -31 -39 -43 -19 -14 -28 -31 -28 -49 0 -15 3 -30 6 -34 3 -3 17 -2 30
3 23 9 24 7 25 -28 1 -20 1 -41 0 -46 -1 -4 1 -17 4 -27 4 -10 13 -19 21 -19
8 0 22 16 30 35 9 22 14 69 14 129 0 90 1 96 24 108 13 7 37 21 54 31 26 14
39 15 79 7 46 -10 50 -13 62 -55 11 -38 11 -51 -4 -95 -9 -28 -28 -64 -43 -81
-14 -17 -44 -43 -66 -57 -23 -15 -70 -41 -106 -60 -65 -32 -65 -32 -2 -28 48
3 75 12 115 36 29 17 72 50 97 73 25 23 51 55 57 70 7 15 13 45 13 65 0 20 -5
54 -10 74 -6 20 -24 50 -40 66 -18 18 -44 32 -70 36 -30 5 -50 1 -80 -14 -21
-11 -44 -20 -50 -20 -5 0 -10 9 -10 20 0 14 9 21 38 25 20 3 44 10 52 14 8 5
15 17 15 27 0 15 -10 20 -49 25 -36 4 -55 12 -72 32 -13 15 -28 27 -33 27z"/>
</g>
</svg>
