<?xml version="1.0" standalone="no"?>
<!DOCTYPE svg PUBLIC "-//W3C//DTD SVG 20010904//EN"
 "http://www.w3.org/TR/2001/REC-SVG-20010904/DTD/svg10.dtd">
<svg version="1.0" xmlns="http://www.w3.org/2000/svg"
 width="56.000000pt" height="56.000000pt" viewBox="0 0 56.000000 56.000000"
 preserveAspectRatio="xMidYMid meet">
<metadata>
Created by potrace 1.16, written by Peter Selinger 2001-2019
</metadata>
<g transform="translate(0.000000,56.000000) scale(0.100000,-0.100000)"
fill="#000000" stroke="none">
<path d="M201 560 c-5 0 -13 -10 -17 -22 -4 -13 -8 -32 -8 -43 -1 -16 -8 -20
-41 -21 -22 0 -53 -1 -68 -2 -16 -1 -26 -6 -23 -11 4 -5 26 -19 49 -30 24 -12
48 -21 53 -21 5 0 15 -9 22 -20 7 -12 10 -25 8 -29 -3 -5 -20 -11 -37 -15 -18
-3 -52 -26 -80 -53 -27 -26 -49 -55 -49 -65 0 -10 4 -18 10 -18 5 0 19 14 32
30 12 17 27 30 34 30 6 0 23 9 36 20 14 10 28 16 32 13 3 -3 6 -19 6 -35 0
-16 -5 -38 -11 -50 -6 -11 -26 -26 -44 -34 -19 -8 -45 -14 -59 -14 -16 0 -27
-7 -31 -21 -4 -12 -2 -26 3 -31 6 -6 8 -16 6 -23 -3 -6 2 -17 10 -24 11 -10
21 -6 49 19 19 16 40 30 46 30 6 0 16 -12 22 -27 6 -15 8 -35 6 -44 -2 -9 0
-24 5 -33 5 -9 15 -16 23 -16 8 0 19 10 26 21 7 14 10 71 8 164 -2 79 0 147 4
152 5 4 38 15 75 24 37 9 72 17 77 19 6 1 19 -1 31 -5 12 -4 31 -24 43 -45 12
-22 24 -61 28 -89 5 -42 3 -50 -15 -60 -11 -6 -27 -28 -35 -50 -9 -22 -24 -42
-35 -45 -10 -3 -36 -24 -57 -46 -39 -40 -39 -40 11 -40 48 0 52 2 111 62 56
57 63 69 74 125 6 35 9 84 6 110 -3 32 -12 52 -28 65 -13 11 -37 28 -54 39
-16 10 -42 19 -57 19 -15 0 -30 -4 -33 -10 -3 -5 -15 -10 -25 -10 -11 0 -24 6
-29 13 -6 6 -31 36 -56 65 -25 29 -45 59 -45 67 0 8 -4 15 -9 15z"/>
<path d="M445 560 c-9 0 -15 -5 -13 -11 2 -6 8 -10 13 -10 5 0 11 4 13 10 2 6
-4 11 -13 11z"/>
</g>
</svg>
