<?xml version="1.0" standalone="no"?>
<!DOCTYPE svg PUBLIC "-//W3C//DTD SVG 20010904//EN"
 "http://www.w3.org/TR/2001/REC-SVG-20010904/DTD/svg10.dtd">
<svg version="1.0" xmlns="http://www.w3.org/2000/svg"
 width="56.000000pt" height="56.000000pt" viewBox="0 0 56.000000 56.000000"
 preserveAspectRatio="xMidYMid meet">
<metadata>
Created by potrace 1.16, written by Peter Selinger 2001-2019
</metadata>
<g transform="translate(0.000000,56.000000) scale(0.100000,-0.100000)"
fill="#000000" stroke="none">
<path d="M220 560 c-43 0 -47 -2 -63 -35 -9 -20 -17 -47 -17 -61 0 -14 4 -33
10 -43 7 -15 -1 -27 -44 -68 -29 -28 -63 -71 -75 -96 -13 -27 -21 -60 -19 -79
2 -28 7 -34 31 -36 16 -2 43 6 63 19 28 17 38 19 44 9 4 -7 8 -39 8 -70 0 -32
5 -67 11 -79 7 -11 21 -21 31 -21 17 0 20 7 20 41 0 23 1 103 3 180 1 87 6
142 14 150 6 6 40 13 75 16 58 5 66 3 100 -24 20 -15 41 -38 47 -51 6 -13 16
-44 21 -68 8 -33 7 -57 -2 -87 -6 -23 -28 -62 -48 -87 -20 -25 -40 -51 -44
-57 -5 -9 -1 -13 12 -13 10 0 41 21 69 48 31 29 54 63 62 89 9 26 12 61 8 92
-3 27 -15 69 -26 93 -11 24 -36 56 -57 72 -31 24 -46 29 -93 29 -31 0 -63 -2
-71 -4 -10 -3 -14 3 -13 16 1 11 5 33 9 48 4 17 1 38 -6 53 -11 20 -21 24 -60
24z m-67 -230 c4 0 7 -14 7 -32 0 -22 -10 -42 -32 -65 -18 -18 -38 -33 -45
-33 -7 0 -13 6 -13 14 0 8 5 27 10 43 6 15 23 38 38 50 15 13 30 23 35 23z"/>
</g>
</svg>
