<?xml version="1.0" standalone="no"?>
<!DOCTYPE svg PUBLIC "-//W3C//DTD SVG 20010904//EN"
 "http://www.w3.org/TR/2001/REC-SVG-20010904/DTD/svg10.dtd">
<svg version="1.0" xmlns="http://www.w3.org/2000/svg"
 width="56.000000pt" height="56.000000pt" viewBox="0 0 56.000000 56.000000"
 preserveAspectRatio="xMidYMid meet">
<metadata>
Created by potrace 1.16, written by Peter Selinger 2001-2019
</metadata>
<g transform="translate(0.000000,56.000000) scale(0.100000,-0.100000)"
fill="#000000" stroke="none">
<path d="M181 560 c-13 0 -27 -18 -46 -57 -16 -32 -32 -66 -37 -75 -4 -10 -8
-28 -8 -42 0 -13 9 -30 21 -38 16 -10 24 -29 30 -72 4 -31 15 -68 24 -82 13
-21 19 -23 31 -13 9 7 21 24 28 38 7 14 19 51 26 81 7 30 22 71 33 90 11 19
27 47 34 62 8 15 21 32 30 36 8 5 37 7 64 4 46 -4 49 -3 49 18 0 13 -8 29 -17
36 -10 7 -27 14 -37 14 -10 0 -41 -17 -67 -37 -36 -28 -57 -54 -82 -107 -19
-39 -38 -82 -44 -96 -10 -25 -10 -25 -26 6 -9 18 -23 34 -32 37 -8 4 -15 18
-15 34 0 15 14 55 30 88 17 33 30 63 30 67 0 5 -8 8 -19 8z"/>
<path d="M336 350 c-7 0 -17 -7 -20 -16 -3 -9 -6 -24 -6 -33 0 -10 -11 -23
-25 -29 -14 -7 -28 -18 -31 -26 -3 -8 2 -29 12 -47 16 -31 17 -32 31 -13 7 10
16 29 20 42 3 12 13 22 23 22 10 0 21 -7 24 -16 3 -9 6 -23 6 -32 0 -10 -14
-46 -31 -82 -18 -36 -40 -77 -51 -92 -19 -28 -19 -28 6 -28 16 0 32 10 45 29
12 16 21 33 21 38 0 5 14 25 30 45 19 23 32 53 36 82 6 42 4 48 -24 75 -18 16
-36 40 -42 55 -5 14 -16 26 -24 26z"/>
</g>
</svg>
