<?xml version="1.0" standalone="no"?>
<!DOCTYPE svg PUBLIC "-//W3C//DTD SVG 20010904//EN"
 "http://www.w3.org/TR/2001/REC-SVG-20010904/DTD/svg10.dtd">
<svg version="1.0" xmlns="http://www.w3.org/2000/svg"
 width="56.000000pt" height="56.000000pt" viewBox="0 0 56.000000 56.000000"
 preserveAspectRatio="xMidYMid meet">
<metadata>
Created by potrace 1.16, written by Peter Selinger 2001-2019
</metadata>
<g transform="translate(0.000000,56.000000) scale(0.100000,-0.100000)"
fill="#000000" stroke="none">
<path d="M236 530 c-7 0 -17 -5 -24 -12 -7 -7 -12 -18 -12 -25 0 -7 -5 -13
-12 -13 -6 0 -31 10 -55 21 -24 12 -47 19 -50 15 -3 -3 2 -16 10 -30 9 -14 30
-33 46 -42 17 -10 32 -23 35 -29 2 -6 2 -24 -1 -39 -4 -19 -21 -37 -57 -60
-28 -18 -64 -48 -79 -65 -18 -21 -27 -44 -27 -66 0 -18 7 -41 16 -50 10 -10
24 -13 38 -9 11 4 33 15 48 25 14 11 31 19 37 19 6 0 11 -12 11 -26 0 -14 5
-34 10 -45 9 -15 15 -17 30 -9 18 10 20 20 17 127 -2 117 -2 117 38 136 22 11
49 23 60 28 11 4 40 10 64 14 24 3 59 1 78 -6 21 -7 38 -20 44 -36 5 -13 9
-38 9 -54 0 -17 -6 -42 -14 -57 -8 -15 -36 -47 -63 -72 -26 -25 -70 -64 -98
-86 -27 -22 -58 -43 -68 -47 -10 -4 -15 -11 -12 -17 3 -5 14 -10 25 -10 10 0
36 10 58 21 22 12 73 54 114 93 40 39 81 81 91 94 11 14 17 40 17 72 0 33 -6
57 -17 71 -10 11 -25 29 -33 38 -8 10 -25 23 -37 29 -12 7 -45 12 -74 12 -41
0 -66 -8 -115 -34 -34 -19 -65 -32 -68 -29 -3 4 -6 15 -6 26 0 10 16 33 35 50
19 17 35 38 35 48 0 9 -7 20 -16 23 -9 3 -21 6 -28 6z m-95 -250 c10 0 19 -6
19 -12 0 -7 -9 -28 -20 -46 -11 -18 -31 -38 -45 -44 -14 -6 -28 -9 -31 -5 -3
3 -3 15 1 26 3 12 18 35 32 51 13 17 33 30 44 30z"/>
<path d="M197 33 c-7 3 -19 2 -26 -3 -10 -5 -9 -8 2 -13 7 -3 19 -2 26 3 10 5
9 8 -2 13z"/>
</g>
</svg>
