<?xml version="1.0" standalone="no"?>
<!DOCTYPE svg PUBLIC "-//W3C//DTD SVG 20010904//EN"
 "http://www.w3.org/TR/2001/REC-SVG-20010904/DTD/svg10.dtd">
<svg version="1.0" xmlns="http://www.w3.org/2000/svg"
 width="56.000000pt" height="56.000000pt" viewBox="0 0 56.000000 56.000000"
 preserveAspectRatio="xMidYMid meet">
<metadata>
Created by potrace 1.16, written by Peter Selinger 2001-2019
</metadata>
<g transform="translate(0.000000,56.000000) scale(0.100000,-0.100000)"
fill="#000000" stroke="none">
<path d="M267 560 c-7 0 -17 -8 -23 -17 -6 -10 -9 -35 -6 -57 4 -38 4 -38 -29
-33 -19 3 -44 8 -56 12 -19 6 -23 4 -23 -16 0 -15 18 -40 52 -72 42 -40 50
-52 41 -65 -5 -9 -28 -25 -49 -36 -21 -10 -46 -22 -54 -26 -8 -4 -21 -20 -29
-35 -7 -16 -20 -51 -27 -79 -12 -44 -11 -52 3 -68 12 -14 20 -15 37 -6 11 6
34 22 49 34 16 13 34 24 41 24 8 0 16 -19 20 -50 6 -45 9 -49 26 -40 13 7 20
26 25 62 3 29 7 78 8 108 1 30 6 61 11 68 5 9 21 11 54 7 29 -4 54 -15 65 -27
9 -11 17 -32 17 -46 0 -14 -11 -48 -25 -76 -14 -28 -39 -67 -55 -86 -29 -34
-29 -35 -9 -38 13 -2 33 7 51 25 17 15 50 55 74 88 29 38 44 69 44 89 0 22
-11 40 -45 73 -42 40 -49 43 -100 43 -48 0 -57 3 -64 23 -7 15 -5 25 5 33 8 6
14 16 14 23 0 6 9 16 20 23 11 7 20 20 20 28 0 9 -16 31 -35 50 -19 19 -35 40
-35 47 0 7 -6 13 -13 13z m-54 -311 c13 1 17 -7 17 -29 0 -16 -4 -30 -9 -30
-4 0 -19 -11 -33 -25 -14 -14 -36 -26 -49 -27 -20 -3 -24 1 -21 22 1 14 7 34
13 46 6 11 23 25 37 31 15 6 35 11 45 12z"/>
</g>
</svg>
