<?xml version="1.0" standalone="no"?>
<!DOCTYPE svg PUBLIC "-//W3C//DTD SVG 20010904//EN"
 "http://www.w3.org/TR/2001/REC-SVG-20010904/DTD/svg10.dtd">
<svg version="1.0" xmlns="http://www.w3.org/2000/svg"
 width="56.000000pt" height="56.000000pt" viewBox="0 0 56.000000 56.000000"
 preserveAspectRatio="xMidYMid meet">
<metadata>
Created by potrace 1.16, written by Peter Selinger 2001-2019
</metadata>
<g transform="translate(0.000000,56.000000) scale(0.100000,-0.100000)"
fill="#000000" stroke="none">
<path d="M200 560 c-5 0 -10 -8 -10 -17 0 -10 7 -27 15 -37 8 -11 15 -28 15
-37 0 -10 -5 -21 -11 -25 -6 -3 -33 -6 -60 -5 -30 0 -49 -4 -49 -11 0 -6 8
-17 18 -24 9 -7 34 -14 55 -14 34 0 37 -2 37 -27 -1 -16 -6 -38 -13 -50 -7
-12 -25 -31 -40 -43 -15 -12 -37 -40 -48 -62 -11 -22 -19 -52 -17 -66 2 -20
10 -28 26 -30 15 -2 33 5 47 18 24 22 24 22 39 -14 8 -20 19 -36 24 -36 6 0
12 7 16 15 3 9 3 35 0 58 -5 36 -1 52 31 110 20 37 43 67 51 67 8 0 26 -11 39
-25 14 -13 25 -33 25 -45 0 -11 -4 -20 -10 -20 -5 0 -10 -7 -10 -15 0 -8 5
-15 10 -15 6 0 10 -6 10 -13 0 -7 -14 -40 -32 -72 -17 -32 -40 -67 -50 -77
-10 -10 -18 -25 -18 -33 0 -9 9 -15 25 -15 14 0 25 4 25 8 0 5 8 17 18 28 9
10 33 46 53 79 20 33 39 73 42 89 3 16 -1 50 -9 76 -8 26 -22 54 -32 63 -11
10 -40 18 -73 20 -37 2 -62 -2 -78 -12 -24 -15 -24 -15 -18 9 4 14 7 30 7 37
0 6 17 17 38 23 20 7 41 16 46 21 5 5 4 14 -4 24 -7 8 -19 15 -28 15 -8 0 -21
-8 -28 -17 -12 -16 -13 -14 -14 20 0 30 -5 40 -25 49 -14 6 -25 15 -25 20 0 4
-4 8 -10 8z m-9 -315 c5 -4 9 -13 9 -20 0 -8 -9 -19 -20 -25 -14 -8 -20 -8
-20 0 0 6 5 20 11 31 5 11 14 17 20 14z"/>
</g>
</svg>
