<?xml version="1.0" standalone="no"?>
<!DOCTYPE svg PUBLIC "-//W3C//DTD SVG 20010904//EN"
 "http://www.w3.org/TR/2001/REC-SVG-20010904/DTD/svg10.dtd">
<svg version="1.0" xmlns="http://www.w3.org/2000/svg"
 width="56.000000pt" height="56.000000pt" viewBox="0 0 56.000000 56.000000"
 preserveAspectRatio="xMidYMid meet">
<metadata>
Created by potrace 1.16, written by Peter Selinger 2001-2019
</metadata>
<g transform="translate(0.000000,56.000000) scale(0.100000,-0.100000)"
fill="#000000" stroke="none">
<path d="M213 560 c-18 0 -33 -4 -33 -10 0 -5 8 -17 19 -27 10 -10 23 -33 29
-51 9 -25 8 -34 -1 -36 -7 -2 -31 -9 -55 -15 -24 -7 -52 -9 -62 -6 -11 4 -20
2 -20 -4 0 -5 11 -18 24 -28 13 -10 32 -23 42 -29 17 -10 12 -15 -39 -44 -32
-18 -62 -43 -67 -55 -5 -13 -14 -26 -19 -30 -6 -3 -11 -27 -11 -52 0 -25 10
-73 22 -105 12 -33 28 -62 35 -65 8 -3 27 4 43 16 16 11 34 21 40 21 5 0 10
-4 10 -10 0 -5 6 -10 14 -10 9 0 16 17 20 48 3 26 14 91 24 146 17 98 17 98
57 119 25 13 58 20 89 20 37 -1 54 -6 72 -24 15 -15 26 -41 30 -69 4 -32 1
-56 -10 -80 -8 -19 -21 -44 -28 -55 -7 -11 -32 -44 -56 -72 -44 -53 -44 -53
-3 -53 23 0 41 4 41 8 0 4 24 37 54 72 40 47 56 75 60 104 4 24 0 64 -9 96
-10 39 -25 65 -49 88 -28 25 -44 32 -76 32 -22 0 -49 -5 -60 -12 -10 -7 -22
-9 -26 -5 -4 4 5 18 20 32 18 16 26 33 24 48 -2 15 -9 21 -23 20 -11 -1 -29
-3 -40 -5 -13 -2 -20 4 -23 17 -2 11 -8 30 -14 43 -8 16 -20 22 -45 22z m-42
-286 c5 -3 9 -20 8 -37 0 -18 -12 -57 -27 -87 -15 -30 -34 -55 -42 -55 -11 0
-16 14 -18 52 -3 48 0 55 34 92 20 23 40 38 45 35z"/>
</g>
</svg>
