<?xml version="1.0" standalone="no"?>
<!DOCTYPE svg PUBLIC "-//W3C//DTD SVG 20010904//EN"
 "http://www.w3.org/TR/2001/REC-SVG-20010904/DTD/svg10.dtd">
<svg version="1.0" xmlns="http://www.w3.org/2000/svg"
 width="56.000000pt" height="56.000000pt" viewBox="0 0 56.000000 56.000000"
 preserveAspectRatio="xMidYMid meet">
<metadata>
Created by potrace 1.16, written by Peter Selinger 2001-2019
</metadata>
<g transform="translate(0.000000,56.000000) scale(0.100000,-0.100000)"
fill="#000000" stroke="none">
<path d="M210 560 c-9 0 -10 -11 -5 -37 4 -21 18 -52 31 -70 25 -32 25 -32
-25 -58 -28 -14 -57 -25 -65 -25 -7 0 -28 -16 -46 -36 -27 -32 -31 -42 -27
-78 3 -22 9 -58 15 -79 6 -21 13 -41 16 -44 3 -4 17 -1 30 6 13 7 35 24 49 37
21 19 26 21 31 8 3 -9 6 -25 6 -35 0 -11 10 -49 23 -85 22 -65 22 -65 61 -62
27 2 42 9 50 23 6 11 13 22 16 25 3 3 17 23 31 45 14 22 38 61 53 87 20 36 26
60 26 105 -1 32 -6 68 -13 80 -7 12 -25 31 -40 43 -16 13 -42 22 -62 22 -19 0
-37 4 -40 8 -3 5 4 14 15 20 11 6 20 16 20 23 0 7 -9 18 -21 25 -12 8 -32 11
-49 7 -22 -5 -32 -1 -48 19 -11 15 -25 26 -32 26z m125 -180 c14 0 34 -13 49
-31 18 -21 26 -42 26 -69 0 -21 -4 -41 -9 -45 -5 -3 -13 -20 -16 -38 -4 -17
-18 -52 -30 -77 -13 -25 -30 -54 -38 -65 -15 -19 -15 -19 -36 5 -11 14 -20 29
-21 34 0 6 9 20 21 32 21 22 21 24 4 68 -15 39 -16 54 -6 102 6 31 16 63 22
70 6 8 22 14 34 14z m-111 -20 c9 0 16 -7 16 -15 0 -8 -8 -30 -17 -50 -9 -19
-23 -35 -30 -35 -7 0 -21 -9 -30 -20 -10 -11 -23 -20 -30 -20 -7 0 -13 4 -13
9 0 5 4 20 9 33 5 13 25 40 44 61 19 20 42 37 51 37z"/>
</g>
</svg>
