<?xml version="1.0" standalone="no"?>
<!DOCTYPE svg PUBLIC "-//W3C//DTD SVG 20010904//EN"
 "http://www.w3.org/TR/2001/REC-SVG-20010904/DTD/svg10.dtd">
<svg version="1.0" xmlns="http://www.w3.org/2000/svg"
 width="56.000000pt" height="56.000000pt" viewBox="0 0 56.000000 56.000000"
 preserveAspectRatio="xMidYMid meet">
<metadata>
Created by potrace 1.16, written by Peter Selinger 2001-2019
</metadata>
<g transform="translate(0.000000,56.000000) scale(0.100000,-0.100000)"
fill="#000000" stroke="none">
<path d="M208 559 c-13 1 -18 -7 -18 -29 0 -23 -6 -33 -25 -42 -14 -6 -24 -16
-22 -22 2 -6 13 -12 25 -14 19 -3 22 -10 22 -52 0 -46 -2 -50 -50 -85 -48 -35
-50 -39 -50 -83 0 -26 7 -55 14 -65 7 -9 20 -17 28 -17 8 0 33 14 56 31 41 30
42 32 42 87 0 32 4 63 9 71 6 10 13 11 29 2 11 -6 36 -11 55 -11 30 0 36 -5
55 -44 12 -24 22 -55 22 -69 0 -14 -8 -41 -17 -59 -9 -18 -53 -60 -97 -93 -81
-60 -81 -60 -43 -63 32 -3 46 3 85 34 26 21 68 59 95 85 40 40 47 52 47 85 0
22 -8 55 -19 74 -10 19 -35 48 -55 65 -30 24 -50 31 -99 35 -62 5 -62 5 -58
49 1 25 9 51 17 59 12 12 11 18 -8 42 -13 16 -31 29 -40 29z m-33 -269 c12 0
11 -8 -4 -42 -9 -23 -23 -44 -29 -46 -8 -2 -12 8 -12 26 0 17 7 38 16 46 8 9
22 16 29 16z"/>
</g>
</svg>
