<?xml version="1.0" standalone="no"?>
<!DOCTYPE svg PUBLIC "-//W3C//DTD SVG 20010904//EN"
 "http://www.w3.org/TR/2001/REC-SVG-20010904/DTD/svg10.dtd">
<svg version="1.0" xmlns="http://www.w3.org/2000/svg"
 width="56.000000pt" height="56.000000pt" viewBox="0 0 56.000000 56.000000"
 preserveAspectRatio="xMidYMid meet">
<metadata>
Created by potrace 1.16, written by Peter Selinger 2001-2019
</metadata>
<g transform="translate(0.000000,56.000000) scale(0.100000,-0.100000)"
fill="#000000" stroke="none">
<path d="M366 535 c-20 22 -25 23 -30 9 -3 -8 -6 -29 -6 -45 0 -23 -6 -32 -27
-40 -16 -6 -39 -16 -53 -21 -24 -9 -24 -10 -5 -24 11 -8 28 -11 39 -8 12 4 27
9 34 11 8 4 12 -5 12 -25 0 -16 6 -35 14 -41 11 -9 24 -8 55 2 34 12 42 12 52
1 6 -8 14 -33 16 -57 3 -25 -1 -56 -10 -77 -9 -20 -24 -44 -36 -54 -11 -10
-25 -15 -30 -11 -6 3 -11 17 -11 30 0 14 -13 34 -32 51 -18 15 -41 39 -50 55
-9 15 -25 32 -36 38 -14 7 -25 6 -40 -5 -19 -13 -20 -19 -11 -37 10 -18 7 -25
-25 -51 -27 -24 -36 -39 -36 -62 0 -17 6 -47 14 -66 8 -19 22 -40 30 -47 8 -7
23 -10 34 -7 10 4 26 21 35 40 8 19 19 50 22 70 4 20 12 39 17 42 5 4 16 0 23
-7 8 -8 20 -33 28 -56 14 -42 14 -42 -30 -59 -24 -9 -42 -22 -40 -28 2 -6 19
-11 38 -12 28 0 34 -4 33 -22 0 -15 5 -22 18 -22 14 0 18 8 18 40 0 28 5 42
19 50 11 5 40 41 65 79 37 54 46 77 46 111 0 24 -9 58 -21 79 -11 21 -29 43
-40 49 -15 10 -25 9 -48 -3 -26 -13 -30 -13 -42 1 -12 14 -8 21 25 49 22 19
36 37 32 44 -4 6 -14 11 -22 11 -8 0 -25 11 -38 25z m-124 -316 c4 0 10 -4 14
-10 3 -6 -2 -28 -11 -50 -10 -21 -23 -39 -29 -39 -7 0 -20 14 -30 30 -14 24
-15 34 -6 45 6 8 21 16 33 18 12 2 25 5 29 6z"/>
<path d="M78 380 c-15 0 -18 -10 -20 -57 -1 -32 -3 -71 -4 -88 -1 -16 -8 -56
-15 -88 -9 -43 -9 -64 -1 -82 7 -14 16 -25 22 -25 6 0 15 12 20 26 6 14 10 46
10 72 0 26 7 77 15 114 11 52 11 74 2 97 -7 19 -19 31 -29 31z"/>
</g>
</svg>
