<?xml version="1.0" standalone="no"?>
<!DOCTYPE svg PUBLIC "-//W3C//DTD SVG 20010904//EN"
 "http://www.w3.org/TR/2001/REC-SVG-20010904/DTD/svg10.dtd">
<svg version="1.0" xmlns="http://www.w3.org/2000/svg"
 width="56.000000pt" height="56.000000pt" viewBox="0 0 56.000000 56.000000"
 preserveAspectRatio="xMidYMid meet">
<metadata>
Created by potrace 1.16, written by Peter Selinger 2001-2019
</metadata>
<g transform="translate(0.000000,56.000000) scale(0.100000,-0.100000)"
fill="#000000" stroke="none">
<path d="M275 560 c-8 0 -26 -20 -40 -43 -14 -24 -25 -57 -25 -74 0 -21 12
-44 40 -76 30 -33 42 -57 46 -90 4 -25 4 -57 0 -71 -5 -21 -12 -26 -37 -26
-16 0 -43 -7 -59 -15 -16 -8 -36 -25 -44 -36 -10 -15 -12 -28 -6 -39 5 -10 29
-23 54 -30 40 -11 47 -10 69 6 14 11 33 31 42 47 9 15 20 27 24 27 5 0 14 -7
21 -15 10 -13 11 -24 0 -58 -6 -23 -17 -48 -22 -54 -8 -10 -4 -13 13 -13 13 0
30 9 36 20 7 10 16 37 19 59 5 29 2 48 -9 65 -9 14 -26 27 -37 31 -18 6 -20
15 -20 91 0 50 5 92 12 104 10 16 10 24 0 41 -8 12 -12 42 -11 70 2 27 -2 54
-9 61 -9 9 -13 8 -16 -3 -3 -8 -6 -27 -8 -44 -2 -22 -9 -31 -25 -33 -17 -3
-23 2 -23 15 1 10 7 29 15 43 8 14 14 28 15 33 0 4 -7 7 -15 7z m-1 -140 c8 0
18 -4 21 -10 3 -5 3 -15 0 -20 -5 -8 -11 -7 -21 1 -8 6 -14 15 -14 20 0 5 6 9
14 9z m1 -281 c7 -7 4 -15 -9 -25 -11 -8 -23 -14 -28 -14 -4 0 -8 7 -8 15 0 7
8 18 18 24 11 6 20 6 27 0z"/>
</g>
</svg>
