<?xml version="1.0" standalone="no"?>
<!DOCTYPE svg PUBLIC "-//W3C//DTD SVG 20010904//EN"
 "http://www.w3.org/TR/2001/REC-SVG-20010904/DTD/svg10.dtd">
<svg version="1.0" xmlns="http://www.w3.org/2000/svg"
 width="56.000000pt" height="56.000000pt" viewBox="0 0 56.000000 56.000000"
 preserveAspectRatio="xMidYMid meet">
<metadata>
Created by potrace 1.16, written by Peter Selinger 2001-2019
</metadata>
<g transform="translate(0.000000,56.000000) scale(0.100000,-0.100000)"
fill="#000000" stroke="none">
<path d="M289 560 c-16 0 -29 -2 -29 -5 0 -3 7 -16 15 -29 12 -18 13 -29 5
-51 -6 -16 -18 -34 -28 -41 -10 -8 -47 -13 -94 -14 -47 0 -80 -4 -84 -12 -4
-6 1 -17 10 -24 12 -8 48 -12 107 -11 90 2 90 2 87 -88 -3 -90 -3 -90 -52
-116 -27 -14 -53 -34 -56 -45 -4 -10 -5 -27 -2 -37 2 -9 16 -26 30 -37 13 -11
29 -20 33 -20 5 0 19 11 31 25 12 14 27 25 34 25 6 0 15 -7 18 -16 3 -9 6 -27
6 -40 0 -20 5 -24 30 -24 29 0 30 1 30 48 0 39 -5 55 -30 82 -26 29 -29 38
-24 78 3 26 13 51 22 58 9 7 40 17 67 21 38 7 49 13 47 25 -1 9 2 19 8 23 5 3
10 16 10 29 0 12 -13 34 -28 49 -15 15 -37 27 -48 27 -10 0 -29 3 -41 6 -16 5
-24 16 -29 43 -3 20 -8 44 -11 54 -3 11 -14 17 -34 17z m94 -172 c9 -5 17 -12
17 -15 0 -4 -7 -15 -17 -25 -9 -10 -24 -18 -33 -18 -10 0 -21 7 -24 16 -3 9
-6 20 -6 25 0 5 10 13 23 18 12 5 30 5 40 -1z"/>
</g>
</svg>
