<?xml version="1.0" standalone="no"?>
<!DOCTYPE svg PUBLIC "-//W3C//DTD SVG 20010904//EN"
 "http://www.w3.org/TR/2001/REC-SVG-20010904/DTD/svg10.dtd">
<svg version="1.0" xmlns="http://www.w3.org/2000/svg"
 width="56.000000pt" height="56.000000pt" viewBox="0 0 56.000000 56.000000"
 preserveAspectRatio="xMidYMid meet">
<metadata>
Created by potrace 1.16, written by Peter Selinger 2001-2019
</metadata>
<g transform="translate(0.000000,56.000000) scale(0.100000,-0.100000)"
fill="#000000" stroke="none">
<path d="M158 560 c-10 0 -18 -3 -18 -8 0 -4 9 -15 20 -25 12 -10 25 -15 30
-12 6 4 5 14 -3 25 -6 11 -20 20 -29 20z"/>
<path d="M338 533 c-21 3 -40 1 -43 -4 -4 -5 -21 -9 -40 -9 -19 0 -36 -4 -40
-9 -3 -6 9 -17 27 -25 18 -8 44 -16 58 -18 22 -3 26 -9 32 -58 3 -30 10 -84
15 -120 5 -36 12 -71 16 -77 6 -9 0 -13 -22 -13 -16 0 -33 -5 -36 -10 -3 -6 4
-14 17 -19 13 -5 30 -16 37 -25 7 -9 20 -16 28 -16 13 0 14 11 9 63 -3 34 -10
89 -16 122 -6 33 -13 81 -16 107 -5 43 -4 47 17 50 13 2 25 11 27 20 2 9 -5
21 -15 26 -10 5 -35 12 -55 15z"/>
<path d="M141 380 c-6 0 -11 -5 -11 -11 0 -7 8 -19 18 -28 9 -9 23 -26 30 -38
6 -13 12 -32 12 -42 0 -11 5 -23 10 -26 6 -3 10 -46 10 -94 0 -54 -4 -91 -12
-99 -9 -9 -9 -15 0 -24 9 -9 15 -3 27 25 9 22 15 67 15 111 0 41 -4 78 -10 81
-5 3 -10 15 -10 25 0 11 -9 36 -21 56 -11 20 -26 43 -34 50 -7 8 -18 14 -24
14z"/>
</g>
</svg>
