<?xml version="1.0" standalone="no"?>
<!DOCTYPE svg PUBLIC "-//W3C//DTD SVG 20010904//EN"
 "http://www.w3.org/TR/2001/REC-SVG-20010904/DTD/svg10.dtd">
<svg version="1.0" xmlns="http://www.w3.org/2000/svg"
 width="56.000000pt" height="56.000000pt" viewBox="0 0 56.000000 56.000000"
 preserveAspectRatio="xMidYMid meet">
<metadata>
Created by potrace 1.16, written by Peter Selinger 2001-2019
</metadata>
<g transform="translate(0.000000,56.000000) scale(0.100000,-0.100000)"
fill="#000000" stroke="none">
<path d="M256 560 c-7 0 -16 -12 -19 -27 -3 -15 0 -38 5 -52 6 -15 10 -42 9
-62 -1 -22 5 -43 14 -53 9 -9 24 -16 34 -16 9 0 22 -5 27 -10 7 -7 25 -7 50
-2 24 5 39 14 39 22 0 9 -12 16 -28 18 -17 2 -36 -3 -47 -13 -16 -15 -18 -13
-27 23 -6 22 -8 63 -5 91 4 47 3 53 -17 58 -11 3 -21 9 -21 14 0 5 -6 9 -14 9z"/>
<path d="M166 500 c-19 0 -38 -5 -41 -10 -3 -6 6 -15 21 -20 15 -6 33 -9 41
-6 7 3 13 12 13 21 0 10 -10 15 -34 15z"/>
<path d="M186 340 c-21 8 -28 6 -40 -12 -8 -12 -13 -25 -10 -30 3 -4 13 -8 22
-8 9 0 34 -5 54 -10 32 -9 37 -15 40 -43 2 -21 9 -33 21 -35 11 -2 17 3 17 16
0 11 6 25 14 31 8 7 11 22 8 39 -3 15 -10 30 -16 34 -6 4 -28 8 -48 8 -20 0
-48 4 -62 10z"/>
<path d="M207 173 c-13 8 -33 11 -47 7 -15 -3 -29 -17 -34 -32 -7 -19 -6 -31
4 -42 7 -9 20 -16 29 -16 9 0 22 5 28 11 7 7 19 9 27 6 10 -4 16 -18 16 -36 0
-16 -4 -33 -10 -36 -5 -3 -10 -13 -10 -21 0 -8 10 -14 24 -14 19 0 25 7 30 32
4 18 7 44 6 58 0 14 -1 37 -2 52 0 15 -7 29 -14 32 -7 3 -16 1 -20 -5 -4 -6
-14 -5 -27 4z"/>
</g>
</svg>
