<?xml version="1.0" standalone="no"?>
<!DOCTYPE svg PUBLIC "-//W3C//DTD SVG 20010904//EN"
 "http://www.w3.org/TR/2001/REC-SVG-20010904/DTD/svg10.dtd">
<svg version="1.0" xmlns="http://www.w3.org/2000/svg"
 width="56.000000pt" height="56.000000pt" viewBox="0 0 56.000000 56.000000"
 preserveAspectRatio="xMidYMid meet">
<metadata>
Created by potrace 1.16, written by Peter Selinger 2001-2019
</metadata>
<g transform="translate(0.000000,56.000000) scale(0.100000,-0.100000)"
fill="#000000" stroke="none">
<path d="M336 560 c-25 0 -35 -5 -39 -19 -3 -12 -15 -21 -33 -23 -26 -3 -29
-7 -32 -45 -2 -27 -10 -47 -21 -55 -10 -7 -21 -28 -24 -46 -4 -19 -2 -43 4
-54 6 -11 17 -17 24 -14 8 3 18 0 21 -6 4 -7 8 -36 9 -65 2 -41 -4 -67 -26
-111 -24 -49 -26 -59 -14 -71 13 -13 18 -12 40 9 22 21 28 22 35 10 6 -8 9
-22 9 -30 -1 -8 -1 -21 0 -27 0 -7 12 -13 25 -13 22 0 24 4 24 47 0 37 -6 55
-30 85 -25 32 -29 45 -26 85 3 47 4 48 37 48 20 0 38 7 44 16 8 13 6 24 -7 44
-10 15 -33 33 -52 41 -19 8 -34 18 -34 24 0 5 4 12 10 15 5 3 28 37 50 75 22
38 40 71 40 74 0 3 -15 6 -34 6z"/>
</g>
</svg>
