<?xml version="1.0" standalone="no"?>
<!DOCTYPE svg PUBLIC "-//W3C//DTD SVG 20010904//EN"
 "http://www.w3.org/TR/2001/REC-SVG-20010904/DTD/svg10.dtd">
<svg version="1.0" xmlns="http://www.w3.org/2000/svg"
 width="56.000000pt" height="56.000000pt" viewBox="0 0 56.000000 56.000000"
 preserveAspectRatio="xMidYMid meet">
<metadata>
Created by potrace 1.16, written by Peter Selinger 2001-2019
</metadata>
<g transform="translate(0.000000,56.000000) scale(0.100000,-0.100000)"
fill="#000000" stroke="none">
<path d="M195 560 c-8 0 -16 -4 -16 -10 -1 -5 -2 -15 -3 -20 -1 -6 10 -16 24
-23 20 -10 26 -21 28 -57 3 -45 2 -45 -37 -57 -23 -7 -48 -13 -56 -13 -8 0
-15 7 -15 15 0 9 -7 18 -16 22 -11 4 -23 -2 -35 -18 -10 -13 -19 -33 -19 -43
0 -10 8 -25 18 -32 9 -7 23 -14 30 -14 8 0 26 8 40 19 15 10 39 21 54 24 14 4
33 10 41 13 11 4 17 -3 21 -23 3 -15 10 -61 15 -102 5 -40 7 -80 4 -87 -3 -8
-13 -14 -24 -14 -10 0 -30 -5 -43 -12 -17 -7 -29 -24 -36 -47 -5 -19 -6 -38
-2 -42 4 -4 27 -9 52 -11 25 -3 55 -1 68 4 13 4 28 21 33 38 7 18 18 30 28 30
10 0 26 -9 36 -20 18 -20 18 -22 1 -50 -17 -30 -17 -30 13 -30 20 0 34 7 41
19 5 11 7 34 4 53 -4 18 -13 40 -21 49 -8 9 -26 19 -41 22 -15 3 -35 12 -45
19 -10 8 -22 31 -27 53 -5 22 -10 59 -10 82 0 23 -5 54 -12 69 -11 23 -10 28
7 40 10 8 40 14 67 14 37 0 50 -4 58 -20 9 -17 6 -25 -20 -49 -32 -29 -32 -29
-9 -45 13 -9 29 -16 35 -16 7 0 26 12 43 26 21 18 31 35 31 54 0 18 -11 39
-31 59 -23 24 -40 31 -68 31 -20 0 -47 -7 -59 -16 -18 -12 -26 -13 -37 -4 -8
7 -15 23 -15 36 0 13 -9 33 -20 44 -11 11 -29 20 -40 20 -11 0 -20 5 -20 10 0
6 -7 10 -15 10z"/>
</g>
</svg>
