<?xml version="1.0" standalone="no"?>
<!DOCTYPE svg PUBLIC "-//W3C//DTD SVG 20010904//EN"
 "http://www.w3.org/TR/2001/REC-SVG-20010904/DTD/svg10.dtd">
<svg version="1.0" xmlns="http://www.w3.org/2000/svg"
 width="56.000000pt" height="56.000000pt" viewBox="0 0 56.000000 56.000000"
 preserveAspectRatio="xMidYMid meet">
<metadata>
Created by potrace 1.16, written by Peter Selinger 2001-2019
</metadata>
<g transform="translate(0.000000,56.000000) scale(0.100000,-0.100000)"
fill="#000000" stroke="none">
<path d="M298 560 c-10 0 -18 -4 -18 -10 0 -5 -13 -16 -30 -25 -16 -8 -43 -15
-59 -15 -24 0 -29 -4 -24 -16 3 -8 17 -20 30 -25 17 -6 35 -4 58 5 19 8 36 12
38 8 2 -4 7 -15 10 -25 4 -12 -2 -25 -18 -39 -13 -11 -27 -34 -30 -49 -4 -16
-23 -42 -46 -60 -21 -17 -39 -37 -39 -45 0 -8 13 -28 29 -45 17 -17 33 -44 36
-60 4 -16 11 -31 16 -34 5 -4 9 -13 9 -21 0 -9 -11 -30 -24 -47 -12 -18 -26
-38 -30 -44 -5 -9 1 -13 17 -13 18 0 35 14 63 50 25 33 47 51 68 56 17 3 50
22 73 41 24 19 54 53 67 76 20 33 26 59 28 119 3 75 2 79 -29 109 -26 27 -40
32 -85 34 -50 3 -54 5 -73 39 -11 20 -28 36 -37 36z m113 -121 c9 1 27 -7 39
-17 17 -14 22 -29 23 -68 0 -28 -5 -66 -13 -85 -7 -19 -22 -44 -33 -56 -11
-13 -26 -23 -33 -23 -8 0 -10 18 -7 64 5 59 3 68 -21 96 -14 17 -26 39 -26 49
0 9 12 22 28 28 15 6 34 11 43 12z m-89 -119 c4 0 12 -9 18 -19 5 -11 7 -34 4
-53 -4 -18 -13 -43 -20 -55 -8 -13 -21 -23 -29 -23 -8 0 -22 11 -31 25 -16 24
-15 27 17 75 19 27 37 50 41 50z"/>
<path d="M84 460 c-8 0 -14 -3 -14 -6 0 -3 -9 -52 -21 -107 -15 -74 -20 -123
-16 -177 3 -41 13 -96 22 -122 12 -35 22 -48 36 -48 12 0 25 13 36 35 16 34
16 38 -12 120 -27 81 -27 89 -18 177 5 51 7 101 5 111 -2 9 -11 17 -18 17z"/>
</g>
</svg>
