<?xml version="1.0" standalone="no"?>
<!DOCTYPE svg PUBLIC "-//W3C//DTD SVG 20010904//EN"
 "http://www.w3.org/TR/2001/REC-SVG-20010904/DTD/svg10.dtd">
<svg version="1.0" xmlns="http://www.w3.org/2000/svg"
 width="56.000000pt" height="56.000000pt" viewBox="0 0 56.000000 56.000000"
 preserveAspectRatio="xMidYMid meet">
<metadata>
Created by potrace 1.16, written by Peter Selinger 2001-2019
</metadata>
<g transform="translate(0.000000,56.000000) scale(0.100000,-0.100000)"
fill="#000000" stroke="none">
<path d="M182 560 c-23 0 -33 -9 -60 -56 -18 -31 -32 -63 -32 -72 0 -9 -9 -25
-20 -37 -13 -13 -26 -52 -36 -101 -8 -43 -17 -92 -19 -109 -2 -16 -7 -47 -11
-67 -4 -26 -2 -48 10 -72 9 -19 21 -38 27 -41 5 -4 16 -2 23 4 8 7 12 29 11
58 -1 28 6 69 17 98 11 28 37 79 58 115 22 36 52 78 67 94 27 29 27 29 35 1 4
-16 13 -32 20 -36 7 -5 38 -9 69 -9 31 0 71 -3 88 -6 20 -4 42 -20 58 -40 19
-25 24 -40 19 -60 -4 -15 -29 -49 -55 -76 -30 -31 -51 -45 -56 -39 -3 7 -5 28
-3 48 3 31 -1 38 -27 53 -22 12 -31 25 -33 48 -2 24 -8 32 -23 32 -10 0 -28
-9 -39 -20 -11 -11 -20 -31 -20 -44 0 -20 -8 -27 -42 -38 -23 -8 -46 -21 -52
-30 -7 -12 -6 -21 3 -32 8 -9 22 -16 32 -16 10 0 30 -16 45 -36 23 -30 26 -39
16 -55 -11 -17 -9 -19 22 -19 27 0 39 7 56 31 16 22 30 30 49 29 14 -1 31 -2
37 -1 6 1 41 29 77 64 62 59 67 66 67 105 0 34 -7 50 -32 78 -18 20 -42 41
-53 47 -11 7 -51 14 -90 17 -70 5 -70 5 -79 48 -7 35 -6 50 8 73 14 23 15 32
4 49 -7 11 -20 20 -29 20 -9 0 -24 -15 -33 -34 -9 -19 -16 -43 -16 -55 0 -11
-25 -48 -55 -81 -30 -34 -57 -71 -61 -83 -3 -11 -14 -29 -24 -39 -10 -11 -20
-15 -24 -10 -3 5 6 41 20 81 14 40 37 93 51 119 14 26 34 56 44 68 11 11 19
23 19 27 0 4 -13 7 -28 7z m-129 -383 c7 -2 11 -18 9 -38 -2 -19 -7 -40 -12
-48 -5 -10 -10 -1 -15 27 -3 23 -4 46 0 52 4 6 12 9 18 7z m257 -17 c9 0 21
-5 28 -12 7 -7 12 -20 12 -29 0 -9 -7 -19 -15 -23 -8 -3 -23 -3 -32 1 -10 3
-24 11 -31 16 -10 8 -9 14 4 28 10 11 25 19 34 19z"/>
</g>
</svg>
