<?xml version="1.0" standalone="no"?>
<!DOCTYPE svg PUBLIC "-//W3C//DTD SVG 20010904//EN"
 "http://www.w3.org/TR/2001/REC-SVG-20010904/DTD/svg10.dtd">
<svg version="1.0" xmlns="http://www.w3.org/2000/svg"
 width="56.000000pt" height="56.000000pt" viewBox="0 0 56.000000 56.000000"
 preserveAspectRatio="xMidYMid meet">
<metadata>
Created by potrace 1.16, written by Peter Selinger 2001-2019
</metadata>
<g transform="translate(0.000000,56.000000) scale(0.100000,-0.100000)"
fill="#000000" stroke="none">
<path d="M268 560 c-27 -1 -39 -9 -65 -44 -18 -24 -33 -54 -33 -67 0 -14 9
-32 19 -41 17 -14 18 -21 9 -46 -6 -15 -8 -40 -5 -54 5 -18 20 -32 47 -45 33
-15 40 -22 38 -43 -2 -20 -8 -25 -28 -23 -14 1 -35 0 -47 -3 -13 -2 -29 -18
-38 -34 -8 -16 -15 -44 -15 -62 0 -18 7 -41 14 -50 7 -10 20 -18 28 -18 8 0
32 14 53 30 21 17 44 30 53 30 11 0 14 -10 10 -45 -5 -42 -4 -45 18 -45 14 0
25 8 29 21 4 11 4 37 0 57 -4 20 -13 49 -21 64 -8 15 -14 41 -14 58 0 22 9 41
30 62 17 16 30 36 30 44 0 9 -11 30 -25 48 -21 28 -25 43 -24 90 2 40 -3 61
-14 74 -10 10 -17 24 -17 30 0 7 -14 12 -32 12z m-12 -50 c6 0 14 -14 18 -32
3 -17 3 -35 -1 -39 -5 -5 -19 0 -32 10 -21 16 -22 20 -10 39 8 12 19 22 25 22z
m14 -140 c5 0 10 -13 10 -29 0 -17 -4 -32 -9 -35 -5 -3 -13 0 -19 7 -6 7 -6
21 -1 35 5 12 13 22 19 22z m-41 -210 c5 0 13 -5 17 -11 3 -6 -3 -20 -15 -32
-11 -11 -23 -18 -26 -15 -3 3 -1 17 4 32 6 14 15 26 20 26z"/>
</g>
</svg>
