<?xml version="1.0" standalone="no"?>
<!DOCTYPE svg PUBLIC "-//W3C//DTD SVG 20010904//EN"
 "http://www.w3.org/TR/2001/REC-SVG-20010904/DTD/svg10.dtd">
<svg version="1.0" xmlns="http://www.w3.org/2000/svg"
 width="56.000000pt" height="56.000000pt" viewBox="0 0 56.000000 56.000000"
 preserveAspectRatio="xMidYMid meet">
<metadata>
Created by potrace 1.16, written by Peter Selinger 2001-2019
</metadata>
<g transform="translate(0.000000,56.000000) scale(0.100000,-0.100000)"
fill="#000000" stroke="none">
<path d="M220 560 c-5 0 -10 -4 -10 -9 0 -5 -9 -11 -21 -14 -12 -3 -18 -10
-14 -16 3 -6 15 -11 25 -11 11 0 24 -9 30 -19 5 -11 10 -31 10 -46 0 -18 -7
-28 -26 -35 -14 -6 -43 -10 -65 -10 -26 0 -39 -4 -39 -14 0 -7 13 -19 29 -26
16 -6 44 -10 63 -8 33 3 33 3 36 -82 2 -47 0 -95 -3 -107 -4 -16 -13 -23 -29
-23 -12 0 -31 -9 -40 -19 -10 -11 -16 -28 -14 -38 1 -10 18 -25 36 -33 22 -10
31 -20 28 -33 -3 -13 2 -17 24 -17 16 0 32 4 35 10 3 5 17 10 30 10 13 0 40
14 59 31 19 16 38 39 41 49 3 11 1 28 -5 39 -5 11 -31 29 -56 40 -44 20 -45
21 -42 63 3 42 4 43 58 63 30 11 61 24 68 28 6 5 12 19 12 32 0 16 -13 34 -35
52 -19 15 -49 30 -67 33 -25 4 -32 10 -33 29 -1 13 -13 33 -26 43 -13 10 -29
22 -36 28 -7 5 -17 10 -23 10z m109 -160 c17 0 32 -4 36 -10 3 -5 -3 -18 -15
-30 -11 -11 -27 -20 -35 -20 -10 0 -15 10 -15 30 0 27 3 30 29 30z m-7 -260
c5 0 11 -7 14 -15 4 -8 1 -22 -6 -30 -7 -8 -16 -15 -21 -15 -5 0 -9 11 -9 23
0 13 3 27 7 30 3 4 10 7 15 7z"/>
</g>
</svg>
