<?xml version="1.0" standalone="no"?>
<!DOCTYPE svg PUBLIC "-//W3C//DTD SVG 20010904//EN"
 "http://www.w3.org/TR/2001/REC-SVG-20010904/DTD/svg10.dtd">
<svg version="1.0" xmlns="http://www.w3.org/2000/svg"
 width="56.000000pt" height="56.000000pt" viewBox="0 0 56.000000 56.000000"
 preserveAspectRatio="xMidYMid meet">
<metadata>
Created by potrace 1.16, written by Peter Selinger 2001-2019
</metadata>
<g transform="translate(0.000000,56.000000) scale(0.100000,-0.100000)"
fill="#000000" stroke="none">
<path d="M279 560 c-10 0 -20 -9 -24 -19 -3 -11 -12 -22 -20 -25 -8 -3 -15
-13 -15 -23 0 -10 6 -29 13 -43 9 -18 10 -31 2 -45 -5 -11 -22 -36 -37 -56
-16 -20 -28 -45 -28 -56 0 -11 7 -27 16 -34 9 -7 33 -12 53 -10 29 2 34 0 24
-10 -7 -7 -13 -26 -13 -41 0 -18 -5 -28 -12 -27 -7 1 -25 -3 -40 -9 -20 -8
-28 -19 -28 -36 0 -14 9 -31 22 -40 22 -15 22 -17 5 -45 -9 -16 -17 -32 -17
-35 0 -3 16 -6 35 -6 32 0 35 3 40 38 3 20 13 49 21 64 8 14 14 35 14 45 0 11
3 23 7 27 4 4 6 26 4 50 -2 40 0 44 29 56 17 7 33 16 36 21 3 5 -2 23 -10 41
-8 18 -20 56 -26 83 -6 28 -11 57 -11 65 -1 8 -5 27 -11 43 -6 16 -18 27 -29
27z m-26 -215 c4 -8 5 -20 2 -25 -3 -6 -13 -10 -21 -10 -8 0 -14 6 -14 13 0 7
5 18 12 25 9 9 14 9 21 -3z"/>
</g>
</svg>
