<?xml version="1.0" standalone="no"?>
<!DOCTYPE svg PUBLIC "-//W3C//DTD SVG 20010904//EN"
 "http://www.w3.org/TR/2001/REC-SVG-20010904/DTD/svg10.dtd">
<svg version="1.0" xmlns="http://www.w3.org/2000/svg"
 width="56.000000pt" height="56.000000pt" viewBox="0 0 56.000000 56.000000"
 preserveAspectRatio="xMidYMid meet">
<metadata>
Created by potrace 1.16, written by Peter Selinger 2001-2019
</metadata>
<g transform="translate(0.000000,56.000000) scale(0.100000,-0.100000)"
fill="#000000" stroke="none">
<path d="M225 560 c-8 0 -15 -9 -15 -19 0 -11 5 -23 10 -26 6 -3 10 -13 10
-20 0 -10 -17 -17 -50 -21 -28 -4 -53 -10 -55 -14 -3 -5 -2 -15 1 -24 3 -9 18
-16 33 -16 14 0 32 -4 39 -8 10 -7 10 -14 -3 -38 -8 -16 -15 -33 -15 -38 0 -5
-6 -17 -14 -25 -7 -9 -20 -37 -29 -63 -15 -46 -15 -47 9 -63 24 -15 27 -15 76
15 37 23 54 28 62 20 7 -7 7 -16 0 -28 -6 -9 -37 -31 -70 -49 -32 -17 -60 -35
-61 -40 -2 -5 13 -28 33 -51 19 -23 44 -42 54 -42 10 0 32 13 48 30 17 16 35
30 41 30 6 0 11 -6 11 -13 0 -7 -7 -23 -16 -35 -14 -21 -14 -22 10 -22 20 0
30 9 46 40 11 21 20 46 20 55 0 9 -7 18 -15 21 -8 4 -15 12 -15 19 0 8 -5 17
-11 21 -6 3 -16 1 -22 -5 -6 -6 -15 -11 -19 -11 -5 0 -6 10 -4 23 3 12 8 39
11 59 5 34 11 40 60 63 30 13 55 28 55 32 0 5 -9 19 -18 31 -19 24 -19 24 -58
-13 -39 -37 -39 -37 -42 59 -3 96 -3 96 -42 122 -22 15 -40 31 -40 35 0 5 -7
9 -15 9z m30 -161 c7 -8 16 -32 19 -54 3 -22 3 -45 -1 -50 -5 -6 -22 -21 -40
-33 -17 -12 -36 -22 -42 -22 -7 0 -9 10 -5 26 4 15 7 34 8 43 1 9 12 36 25 60
19 37 25 41 36 30z m2 -279 c6 0 15 -5 18 -11 4 -5 4 -21 1 -35 -4 -16 -13
-24 -29 -24 -12 0 -28 9 -34 20 -11 16 -9 21 9 35 13 8 28 15 35 15z"/>
</g>
</svg>
