<?xml version="1.0" standalone="no"?>
<!DOCTYPE svg PUBLIC "-//W3C//DTD SVG 20010904//EN"
 "http://www.w3.org/TR/2001/REC-SVG-20010904/DTD/svg10.dtd">
<svg version="1.0" xmlns="http://www.w3.org/2000/svg"
 width="56.000000pt" height="56.000000pt" viewBox="0 0 56.000000 56.000000"
 preserveAspectRatio="xMidYMid meet">
<metadata>
Created by potrace 1.16, written by Peter Selinger 2001-2019
</metadata>
<g transform="translate(0.000000,56.000000) scale(0.100000,-0.100000)"
fill="#000000" stroke="none">
<path d="M327 538 c-27 3 -27 2 -21 -35 4 -29 2 -42 -9 -52 -10 -8 -49 -13
-100 -14 -54 -1 -89 2 -99 10 -11 10 -17 10 -26 1 -7 -7 -12 -18 -12 -24 0 -7
15 -17 34 -24 19 -6 36 -19 39 -30 3 -11 13 -20 24 -20 10 0 27 7 37 15 11 8
27 15 37 15 9 0 22 7 29 15 7 8 24 15 39 15 21 0 26 -5 27 -27 1 -16 3 -58 5
-95 4 -67 4 -67 -31 -70 -29 -2 -38 -9 -51 -38 -10 -19 -15 -38 -13 -42 3 -4
23 -13 46 -20 38 -11 42 -10 59 11 10 12 23 20 29 16 5 -3 10 -15 10 -25 0
-10 -18 -40 -40 -65 -22 -25 -40 -48 -40 -51 0 -2 12 -4 28 -3 21 0 37 13 70
55 42 52 43 56 32 90 -7 19 -20 40 -31 47 -14 9 -19 23 -19 55 0 32 5 44 18
49 9 3 24 12 32 18 8 7 24 15 35 17 16 3 19 10 17 38 -2 19 -10 42 -18 51 -8
9 -32 22 -53 29 -32 10 -40 18 -47 49 -7 29 -14 37 -37 39z m47 -113 c6 -3 19
-8 29 -11 9 -4 17 -14 17 -24 0 -9 -9 -25 -20 -35 -11 -10 -23 -16 -26 -13 -3
3 -7 25 -8 47 -2 28 0 40 8 36z"/>
</g>
</svg>
