<?xml version="1.0" standalone="no"?>
<!DOCTYPE svg PUBLIC "-//W3C//DTD SVG 20010904//EN"
 "http://www.w3.org/TR/2001/REC-SVG-20010904/DTD/svg10.dtd">
<svg version="1.0" xmlns="http://www.w3.org/2000/svg"
 width="56.000000pt" height="56.000000pt" viewBox="0 0 56.000000 56.000000"
 preserveAspectRatio="xMidYMid meet">
<metadata>
Created by potrace 1.16, written by Peter Selinger 2001-2019
</metadata>
<g transform="translate(0.000000,56.000000) scale(0.100000,-0.100000)"
fill="#000000" stroke="none">
<path d="M351 560 c-10 0 -23 -11 -29 -25 -7 -14 -12 -36 -12 -49 0 -18 -9
-25 -53 -39 -30 -9 -64 -17 -76 -17 -20 0 -22 4 -16 30 4 18 3 30 -3 30 -6 0
-17 -7 -26 -15 -8 -8 -18 -24 -21 -35 -3 -11 0 -32 7 -47 8 -17 26 -32 48 -39
23 -8 37 -20 43 -38 8 -23 14 -26 48 -24 21 1 40 0 42 -3 2 -2 7 -23 10 -46 3
-26 1 -46 -7 -51 -6 -5 -23 -12 -38 -16 -16 -4 -34 -18 -43 -36 -8 -16 -15
-42 -15 -58 0 -18 10 -38 28 -55 25 -24 33 -26 55 -18 14 6 33 24 42 40 8 17
15 39 15 51 0 11 7 23 16 27 8 3 20 1 27 -6 6 -6 19 -11 29 -11 13 0 18 8 18
30 0 19 -7 33 -19 40 -11 5 -29 10 -40 10 -11 0 -22 9 -26 19 -3 10 -5 46 -4
80 2 46 7 65 22 78 10 10 25 30 33 45 8 15 14 43 14 62 0 24 -8 43 -25 61 -14
14 -34 25 -44 25z m26 -61 c7 -6 13 -20 13 -30 0 -10 -5 -30 -12 -44 -6 -14
-15 -25 -19 -25 -4 0 -9 15 -11 33 -2 17 1 42 6 54 7 18 12 20 23 12z m-80
-81 c7 -6 13 -16 13 -24 0 -7 -9 -18 -19 -24 -11 -5 -24 -10 -30 -10 -6 0 -11
11 -11 25 0 13 8 28 17 34 12 6 22 6 30 -1z m-10 -278 c7 0 13 -6 13 -13 0 -7
-5 -18 -12 -25 -7 -7 -18 -12 -25 -12 -7 0 -13 6 -13 13 0 7 5 18 12 25 7 7
18 12 25 12z"/>
<path d="M145 140 c-2 0 -9 -9 -15 -21 -11 -19 -10 -20 10 -9 11 6 18 15 15
21 -4 5 -8 9 -10 9z"/>
</g>
</svg>
