<?xml version="1.0" standalone="no"?>
<!DOCTYPE svg PUBLIC "-//W3C//DTD SVG 20010904//EN"
 "http://www.w3.org/TR/2001/REC-SVG-20010904/DTD/svg10.dtd">
<svg version="1.0" xmlns="http://www.w3.org/2000/svg"
 width="56.000000pt" height="56.000000pt" viewBox="0 0 56.000000 56.000000"
 preserveAspectRatio="xMidYMid meet">
<metadata>
Created by potrace 1.16, written by Peter Selinger 2001-2019
</metadata>
<g transform="translate(0.000000,56.000000) scale(0.100000,-0.100000)"
fill="#000000" stroke="none">
<path d="M304 560 c-7 0 -15 -8 -20 -17 -4 -10 -10 -49 -13 -88 -6 -70 -6 -70
-44 -73 -21 -2 -45 2 -53 9 -8 6 -14 19 -14 28 0 10 9 27 20 39 11 12 20 26
20 32 0 5 -5 10 -10 10 -6 0 -22 -12 -35 -27 -14 -16 -25 -41 -25 -58 0 -19
10 -40 32 -62 25 -26 29 -36 20 -45 -7 -7 -12 -24 -12 -38 0 -14 6 -35 14 -45
12 -16 18 -17 39 -8 20 9 28 9 36 -1 6 -7 8 -33 4 -64 -3 -30 -11 -52 -18 -52
-6 0 -22 -11 -35 -25 -24 -26 -24 -26 5 -50 17 -14 43 -24 61 -25 18 0 34 6
37 14 3 7 -8 26 -24 42 -27 26 -28 29 -11 35 12 5 21 21 25 46 4 21 7 54 7 73
0 28 8 44 38 73 20 20 45 52 56 71 17 32 17 38 4 72 -9 21 -33 59 -54 85 -22
27 -44 48 -50 49z m14 -100 c4 0 17 -16 30 -35 12 -19 22 -41 22 -48 0 -7 -13
-28 -29 -47 -16 -19 -32 -32 -36 -28 -4 4 -7 37 -6 74 1 36 4 70 7 75 3 5 8 9
12 9z m-63 -130 c9 0 15 -9 15 -24 0 -13 -7 -29 -15 -36 -12 -10 -19 -10 -27
-2 -9 9 -9 18 0 37 6 14 18 25 27 25z"/>
</g>
</svg>
