<?xml version="1.0" standalone="no"?>
<!DOCTYPE svg PUBLIC "-//W3C//DTD SVG 20010904//EN"
 "http://www.w3.org/TR/2001/REC-SVG-20010904/DTD/svg10.dtd">
<svg version="1.0" xmlns="http://www.w3.org/2000/svg"
 width="56.000000pt" height="56.000000pt" viewBox="0 0 56.000000 56.000000"
 preserveAspectRatio="xMidYMid meet">
<metadata>
Created by potrace 1.16, written by Peter Selinger 2001-2019
</metadata>
<g transform="translate(0.000000,56.000000) scale(0.100000,-0.100000)"
fill="#000000" stroke="none">
<path d="M290 560 c-5 0 -10 -13 -10 -29 0 -16 -6 -34 -14 -40 -11 -9 -20 -10
-36 -1 -11 6 -25 8 -30 5 -6 -3 -10 -14 -10 -25 0 -10 7 -21 16 -24 9 -3 31
-6 50 -6 34 0 34 0 34 -49 0 -31 5 -53 15 -61 8 -7 15 -16 15 -21 0 -5 -14 -9
-31 -9 -17 0 -38 -4 -48 -10 -10 -5 -26 -21 -35 -35 -14 -22 -15 -34 -5 -91 7
-39 17 -68 26 -71 8 -3 24 4 37 16 16 15 33 20 64 18 25 -1 42 -7 42 -14 0 -7
-8 -27 -18 -45 -10 -18 -21 -41 -25 -50 -5 -14 -1 -18 17 -18 19 0 28 11 48
58 14 31 31 73 38 92 7 19 19 42 26 50 6 8 21 32 33 53 12 21 21 44 21 52 0 8
-7 32 -16 53 -8 22 -26 45 -39 52 -20 11 -31 10 -65 -4 -23 -9 -46 -14 -51
-10 -5 3 -7 15 -4 27 4 12 11 32 18 45 8 16 8 28 1 40 -6 9 -20 21 -32 27 -12
5 -22 13 -22 17 0 5 -4 8 -10 8z m137 -191 c12 1 27 -8 33 -18 5 -11 10 -31
10 -44 0 -13 -9 -32 -20 -42 -19 -17 -21 -17 -55 6 -25 17 -35 32 -35 50 0 17
8 30 23 37 12 6 32 11 44 11z m-145 -99 c28 0 29 -2 23 -32 -4 -17 -15 -44
-24 -59 -13 -22 -20 -26 -29 -17 -7 7 -12 23 -12 37 0 15 3 36 6 49 5 16 14
22 36 22z m84 -31 c13 -12 24 -28 24 -35 0 -7 -10 -20 -22 -28 -12 -9 -28 -16
-35 -16 -7 0 -13 8 -13 19 0 10 5 32 11 50 11 32 11 32 35 10z"/>
<path d="M106 340 c-7 0 -18 -6 -24 -13 -6 -7 -12 -36 -13 -65 -2 -29 -8 -81
-15 -115 -12 -57 -12 -63 6 -81 15 -16 22 -17 34 -7 9 7 14 30 14 59 0 26 -4
52 -9 59 -7 7 -6 13 0 17 6 4 8 13 5 20 -3 8 -1 17 5 21 6 3 11 28 11 56 0 35
-4 49 -14 49z"/>
</g>
</svg>
