<?xml version="1.0" standalone="no"?>
<!DOCTYPE svg PUBLIC "-//W3C//DTD SVG 20010904//EN"
 "http://www.w3.org/TR/2001/REC-SVG-20010904/DTD/svg10.dtd">
<svg version="1.0" xmlns="http://www.w3.org/2000/svg"
 width="56.000000pt" height="56.000000pt" viewBox="0 0 56.000000 56.000000"
 preserveAspectRatio="xMidYMid meet">
<metadata>
Created by potrace 1.16, written by Peter Selinger 2001-2019
</metadata>
<g transform="translate(0.000000,56.000000) scale(0.100000,-0.100000)"
fill="#000000" stroke="none">
<path d="M251 560 c-5 0 -12 -8 -16 -17 -4 -13 4 -26 29 -46 20 -16 36 -37 36
-47 0 -11 -10 -20 -27 -23 -16 -3 -40 -9 -55 -13 -24 -5 -30 -2 -45 25 -10 17
-24 31 -30 31 -9 0 -13 -15 -13 -44 0 -35 5 -47 25 -60 23 -15 23 -17 10 -50
-11 -26 -12 -37 -2 -49 8 -11 31 -17 72 -19 60 -3 60 -3 63 -40 2 -20 -2 -46
-8 -58 -8 -15 -21 -20 -51 -20 -33 0 -41 -4 -49 -26 -7 -17 -7 -32 0 -45 6
-10 17 -19 25 -19 8 0 19 -9 25 -20 7 -13 21 -20 40 -20 24 0 32 6 43 33 8 18
15 72 16 120 1 49 4 94 7 102 3 8 22 15 42 17 25 2 37 8 37 18 0 8 -14 24 -31
35 -29 18 -33 27 -44 98 -10 64 -17 81 -39 97 -14 11 -31 24 -38 30 -7 5 -16
10 -22 10z m33 -202 c13 -2 21 -10 21 -23 0 -13 -8 -21 -23 -23 -13 -2 -30 -1
-39 2 -14 6 -14 9 3 27 10 11 27 19 38 17z"/>
</g>
</svg>
