<?xml version="1.0" standalone="no"?>
<!DOCTYPE svg PUBLIC "-//W3C//DTD SVG 20010904//EN"
 "http://www.w3.org/TR/2001/REC-SVG-20010904/DTD/svg10.dtd">
<svg version="1.0" xmlns="http://www.w3.org/2000/svg"
 width="56.000000pt" height="56.000000pt" viewBox="0 0 56.000000 56.000000"
 preserveAspectRatio="xMidYMid meet">
<metadata>
Created by potrace 1.16, written by Peter Selinger 2001-2019
</metadata>
<g transform="translate(0.000000,56.000000) scale(0.100000,-0.100000)"
fill="#000000" stroke="none">
<path d="M235 560 c-20 0 -25 -5 -25 -25 0 -14 6 -25 13 -25 7 0 18 5 25 12 7
7 12 18 12 25 0 7 -11 13 -25 13z"/>
<path d="M333 540 c-20 0 -23 -4 -21 -32 2 -23 -2 -35 -17 -42 -11 -6 -41 -23
-67 -38 -25 -16 -59 -48 -76 -73 -17 -25 -32 -42 -35 -38 -2 4 -10 25 -17 47
-7 21 -15 34 -19 28 -3 -6 -7 -73 -9 -150 -2 -84 1 -142 7 -146 5 -3 16 0 23
8 8 8 20 47 27 87 7 41 18 88 26 104 7 17 25 45 40 63 15 18 43 39 62 47 20 8
39 15 44 15 5 0 9 -21 9 -46 0 -44 -1 -46 -25 -40 -20 5 -27 1 -41 -25 -8 -17
-13 -40 -11 -50 4 -14 -3 -24 -22 -34 -15 -7 -33 -20 -40 -29 -7 -8 -13 -29
-13 -47 -1 -22 6 -38 21 -50 15 -12 32 -16 55 -12 22 3 42 0 58 -11 18 -12 37
-15 65 -10 38 6 41 4 62 -31 15 -26 25 -35 32 -28 7 7 7 23 1 44 -7 29 -4 41
20 82 15 26 28 55 28 64 0 8 -10 34 -22 57 -13 22 -30 49 -38 58 -9 9 -33 23
-55 30 -31 10 -39 18 -37 33 1 11 5 37 9 58 3 21 11 37 19 37 7 0 16 5 19 11
4 6 -3 21 -16 35 -12 13 -33 24 -46 24z m43 -241 c11 0 28 -7 37 -16 8 -10 18
-35 22 -55 4 -21 4 -49 1 -63 -4 -14 -12 -25 -19 -25 -6 0 -36 22 -65 48 -51
45 -53 48 -42 74 7 15 20 29 29 31 9 3 25 5 37 6z m-100 -9 c8 0 14 -6 14 -13
0 -7 -6 -21 -13 -32 -8 -10 -17 -14 -20 -8 -3 5 -3 19 0 31 3 12 12 22 19 22z
m-62 -100 c7 0 16 -10 20 -22 3 -13 1 -27 -3 -31 -5 -5 -14 -6 -20 -3 -6 4
-11 18 -11 32 0 14 6 24 14 24z m105 -20 c11 -5 27 -20 35 -32 9 -12 16 -26
16 -30 0 -5 -18 -8 -40 -8 -28 0 -43 5 -47 16 -3 8 -1 26 6 40 9 21 14 23 30
14z"/>
<path d="M242 28 c-7 2 -12 -3 -12 -12 0 -9 7 -16 16 -16 9 0 14 5 12 12 -2 6
-10 14 -16 16z"/>
</g>
</svg>
