<?xml version="1.0" standalone="no"?>
<!DOCTYPE svg PUBLIC "-//W3C//DTD SVG 20010904//EN"
 "http://www.w3.org/TR/2001/REC-SVG-20010904/DTD/svg10.dtd">
<svg version="1.0" xmlns="http://www.w3.org/2000/svg"
 width="56.000000pt" height="56.000000pt" viewBox="0 0 56.000000 56.000000"
 preserveAspectRatio="xMidYMid meet">
<metadata>
Created by potrace 1.16, written by Peter Selinger 2001-2019
</metadata>
<g transform="translate(0.000000,56.000000) scale(0.100000,-0.100000)"
fill="#000000" stroke="none">
<path d="M253 560 c-10 0 -27 -13 -38 -27 -11 -15 -39 -52 -62 -82 -24 -31
-43 -63 -43 -72 0 -9 8 -23 18 -32 10 -10 35 -17 55 -17 20 0 37 -3 37 -7 -1
-5 -21 -28 -46 -53 -24 -25 -43 -52 -42 -60 2 -9 17 -16 37 -18 19 -2 55 2 79
8 38 9 48 9 60 -4 13 -13 10 -17 -31 -37 -35 -17 -47 -29 -47 -45 0 -12 3 -29
6 -38 3 -9 14 -16 25 -16 10 0 27 10 38 21 12 13 26 19 35 16 9 -4 16 -17 16
-31 0 -14 -4 -28 -10 -31 -5 -3 -10 -13 -10 -21 0 -8 10 -14 23 -14 17 0 26 9
36 36 11 30 10 40 -3 68 -9 18 -22 38 -29 44 -11 9 -11 21 -3 57 10 42 13 46
35 42 14 -3 31 -3 38 0 7 3 13 13 13 24 0 10 -10 25 -22 34 -21 15 -24 14 -40
-5 -9 -11 -21 -20 -28 -20 -7 0 -10 32 -8 106 2 94 0 108 -17 120 -11 8 -28
11 -43 7 -23 -5 -24 -4 -18 21 5 21 3 26 -11 26z m-10 -82 c17 -2 24 -13 31
-46 7 -34 6 -46 -5 -53 -8 -5 -30 -9 -50 -9 -25 0 -39 5 -43 16 -3 9 -6 21 -6
27 0 7 12 25 26 40 16 18 34 27 47 25z m32 -148 c3 0 12 -16 20 -36 8 -20 15
-39 15 -43 0 -4 -25 -11 -55 -17 -46 -8 -55 -7 -55 4 0 8 10 25 23 37 12 13
28 30 35 39 7 9 15 16 17 16z"/>
</g>
</svg>
