<?xml version="1.0" standalone="no"?>
<!DOCTYPE svg PUBLIC "-//W3C//DTD SVG 20010904//EN"
 "http://www.w3.org/TR/2001/REC-SVG-20010904/DTD/svg10.dtd">
<svg version="1.0" xmlns="http://www.w3.org/2000/svg"
 width="56.000000pt" height="56.000000pt" viewBox="0 0 56.000000 56.000000"
 preserveAspectRatio="xMidYMid meet">
<metadata>
Created by potrace 1.16, written by Peter Selinger 2001-2019
</metadata>
<g transform="translate(0.000000,56.000000) scale(0.100000,-0.100000)"
fill="#000000" stroke="none">
<path d="M172 560 c-22 0 -32 -6 -37 -21 -4 -11 -24 -50 -45 -87 -21 -37 -44
-87 -50 -112 -7 -25 -15 -52 -17 -60 -3 -8 -7 -24 -8 -35 -2 -11 -6 -61 -10
-111 -7 -86 -7 -92 14 -113 18 -18 25 -20 37 -11 10 9 14 34 13 89 0 42 2 105
5 141 3 36 12 85 21 110 9 25 21 50 27 57 6 7 24 41 41 75 17 35 33 66 35 71
2 4 -10 7 -26 7z"/>
<path d="M315 520 c-6 0 -15 -3 -18 -7 -4 -3 -7 -14 -7 -23 0 -10 -18 -38 -40
-63 -22 -25 -40 -48 -40 -52 0 -4 12 -4 28 0 15 3 37 16 49 27 12 11 26 17 32
13 6 -3 11 -15 11 -25 0 -10 -10 -26 -22 -34 -17 -12 -20 -18 -10 -28 7 -7 12
-22 12 -34 0 -16 -9 -25 -31 -33 -18 -6 -39 -11 -48 -11 -9 -1 -33 -16 -54
-35 -32 -28 -38 -39 -35 -67 2 -25 8 -34 25 -36 12 -2 39 8 60 22 38 26 38 26
74 -14 20 -22 46 -40 56 -40 11 0 35 5 54 11 19 7 45 21 57 33 13 11 35 40 49
64 23 38 25 51 19 105 -5 51 -11 66 -33 84 -22 18 -41 23 -84 23 -56 0 -56 0
-57 42 -1 23 -9 50 -19 60 -9 10 -21 18 -28 18z m110 -175 c22 -3 43 -11 47
-18 4 -7 8 -22 8 -35 0 -12 -7 -34 -16 -48 -15 -22 -19 -23 -33 -11 -9 8 -26
18 -38 21 -19 6 -23 15 -23 45 0 21 3 41 8 45 4 4 25 5 47 1z m-148 -112 c11
-4 11 -8 1 -20 -6 -8 -24 -21 -40 -29 -16 -8 -33 -12 -38 -9 -6 3 -10 10 -10
15 0 5 17 18 37 29 21 10 43 16 50 14z m69 -13 c1 0 9 -3 18 -6 9 -3 16 -15
16 -25 0 -12 -10 -21 -26 -25 -17 -4 -29 -2 -35 7 -5 8 -2 20 8 31 9 10 17 18
19 18z"/>
<path d="M241 60 c-11 0 -22 -4 -25 -8 -3 -5 8 -19 24 -30 16 -12 41 -22 55
-22 15 0 25 6 25 15 0 8 -13 21 -30 30 -16 8 -38 15 -49 15z"/>
</g>
</svg>
