<?xml version="1.0" standalone="no"?>
<!DOCTYPE svg PUBLIC "-//W3C//DTD SVG 20010904//EN"
 "http://www.w3.org/TR/2001/REC-SVG-20010904/DTD/svg10.dtd">
<svg version="1.0" xmlns="http://www.w3.org/2000/svg"
 width="56.000000pt" height="56.000000pt" viewBox="0 0 56.000000 56.000000"
 preserveAspectRatio="xMidYMid meet">
<metadata>
Created by potrace 1.16, written by Peter Selinger 2001-2019
</metadata>
<g transform="translate(0.000000,56.000000) scale(0.100000,-0.100000)"
fill="#000000" stroke="none">
<path d="M253 560 c-10 0 -29 -17 -43 -38 -13 -20 -39 -55 -56 -77 -17 -22
-42 -60 -56 -85 -15 -27 -32 -85 -43 -146 -10 -57 -16 -122 -13 -149 3 -26 10
-51 16 -57 6 -6 18 -8 26 -5 13 5 16 23 16 85 0 61 5 87 23 122 16 34 37 54
80 80 54 32 66 35 135 35 74 0 76 -1 94 -31 15 -26 17 -39 9 -74 -5 -23 -12
-44 -15 -47 -3 -4 -27 -2 -54 3 -44 8 -47 11 -50 44 -2 19 -8 41 -14 47 -6 7
-21 13 -34 13 -12 0 -26 -5 -29 -10 -3 -6 1 -17 9 -26 9 -8 16 -19 16 -23 0
-4 -5 -12 -12 -19 -7 -7 -24 -12 -38 -12 -15 0 -34 -8 -43 -18 -9 -10 -18 -29
-19 -43 -3 -22 1 -24 40 -25 23 -1 44 -3 45 -5 1 -2 7 -13 13 -24 7 -13 23
-21 45 -23 25 -2 47 6 81 28 46 31 47 31 80 14 18 -9 35 -18 37 -20 3 -3 -11
-20 -30 -40 -34 -35 -34 -35 6 -32 40 3 40 3 39 57 -1 43 -6 57 -24 71 -21 16
-21 18 -6 54 9 21 16 55 16 76 0 31 -7 44 -41 75 -37 33 -45 37 -81 31 -39 -6
-39 -6 -23 18 16 24 16 25 -14 40 -16 9 -37 16 -45 16 -8 0 -20 -9 -26 -19 -5
-11 -10 -28 -10 -39 0 -11 -11 -24 -26 -31 -15 -6 -46 -28 -70 -48 -24 -19
-44 -31 -44 -27 0 5 9 33 19 62 11 30 26 61 33 70 7 9 16 19 19 22 4 3 23 25
43 48 20 24 36 52 36 63 0 11 -7 19 -17 19z m92 -410 c11 -4 20 -14 20 -21 0
-8 -18 -20 -39 -27 -25 -8 -43 -9 -49 -3 -5 5 -7 17 -4 26 4 8 17 19 29 24 13
5 32 5 43 1z"/>
</g>
</svg>
