<?xml version="1.0" standalone="no"?>
<!DOCTYPE svg PUBLIC "-//W3C//DTD SVG 20010904//EN"
 "http://www.w3.org/TR/2001/REC-SVG-20010904/DTD/svg10.dtd">
<svg version="1.0" xmlns="http://www.w3.org/2000/svg"
 width="56.000000pt" height="56.000000pt" viewBox="0 0 56.000000 56.000000"
 preserveAspectRatio="xMidYMid meet">
<metadata>
Created by potrace 1.16, written by Peter Selinger 2001-2019
</metadata>
<g transform="translate(0.000000,56.000000) scale(0.100000,-0.100000)"
fill="#000000" stroke="none">
<path d="M180 560 c-11 0 -20 -4 -20 -9 0 -5 6 -11 14 -14 8 -3 17 -3 20 0 3
4 6 10 6 15 0 4 -9 8 -20 8z"/>
<path d="M326 560 c-7 0 -17 -15 -22 -32 -4 -18 -8 -46 -8 -63 -1 -29 -3 -30
-43 -27 -23 1 -44 -2 -47 -7 -3 -5 4 -21 15 -36 16 -20 27 -25 45 -21 12 3 25
3 27 -1 3 -5 1 -18 -4 -30 -6 -17 -16 -23 -40 -23 -28 0 -31 3 -27 25 3 16 1
22 -6 18 -6 -3 -19 -13 -28 -21 -10 -8 -18 -24 -18 -34 0 -10 7 -21 14 -24 8
-3 34 -6 58 -7 43 -2 43 -2 40 -37 -2 -20 -14 -46 -28 -61 -20 -20 -24 -36
-24 -81 0 -31 -4 -60 -10 -63 -5 -3 -10 -13 -10 -21 0 -10 8 -14 21 -12 14 2
32 22 51 55 26 46 30 64 32 144 3 92 3 92 37 103 26 8 35 17 37 37 2 17 -6 37
-22 57 -22 25 -26 40 -26 96 0 49 -3 66 -14 66z m4 -185 c6 -3 10 -13 10 -21
0 -8 -4 -14 -10 -14 -5 0 -10 9 -10 21 0 11 5 17 10 14z"/>
</g>
</svg>
