<?xml version="1.0" standalone="no"?>
<!DOCTYPE svg PUBLIC "-//W3C//DTD SVG 20010904//EN"
 "http://www.w3.org/TR/2001/REC-SVG-20010904/DTD/svg10.dtd">
<svg version="1.0" xmlns="http://www.w3.org/2000/svg"
 width="128.000000pt" height="128.000000pt" viewBox="0 0 128.000000 128.000000"
 preserveAspectRatio="xMidYMid meet">
<metadata>
Created by potrace 1.16, written by Peter Selinger 2001-2019
</metadata>
<g transform="translate(0.000000,128.000000) scale(0.100000,-0.100000)"
fill="#000000" stroke="none">
<path d="M804 1257 c-10 0 -35 -2 -54 -6 -19 -4 -46 -13 -60 -21 -14 -7 -50
-21 -80 -30 -37 -11 -56 -22 -58 -34 -2 -10 1 -29 8 -41 6 -12 24 -29 39 -38
19 -11 40 -14 63 -11 22 4 38 2 42 -5 4 -6 5 -24 1 -39 -3 -16 -16 -38 -28
-50 -12 -12 -38 -35 -58 -52 -20 -16 -41 -30 -47 -30 -5 0 -17 11 -26 25 -14
22 -24 25 -71 25 -45 0 -56 -4 -66 -21 -8 -15 -8 -24 0 -32 6 -6 11 -20 11
-31 0 -11 5 -35 12 -53 9 -26 9 -40 0 -67 -10 -26 -10 -41 0 -72 8 -23 20 -40
31 -42 10 -2 41 8 70 23 29 15 65 39 80 54 16 14 35 40 43 58 9 17 42 54 75
83 45 39 65 51 86 48 14 -2 28 -9 31 -16 2 -7 -17 -32 -43 -55 -26 -23 -60
-61 -76 -83 -15 -23 -51 -56 -78 -73 -27 -18 -60 -48 -73 -68 -13 -20 -31 -50
-40 -67 -10 -17 -18 -45 -18 -63 0 -17 7 -39 16 -47 8 -9 23 -16 33 -16 10 0
39 11 64 24 37 20 48 22 56 12 8 -10 6 -25 -9 -59 -11 -25 -23 -72 -26 -104
-5 -48 -3 -61 11 -73 10 -8 35 -13 61 -12 24 1 57 8 72 17 15 8 47 29 70 47
44 33 44 33 68 5 13 -16 24 -39 24 -52 0 -13 -7 -31 -15 -39 -9 -9 -22 -19
-28 -23 -7 -5 -23 -22 -35 -39 -12 -17 -36 -37 -54 -44 -18 -6 -41 -16 -50
-21 -10 -5 -30 -9 -46 -9 -15 0 -33 5 -40 12 -7 7 -12 22 -12 33 0 12 -8 29
-18 38 -10 10 -25 17 -33 17 -8 0 -32 -7 -54 -15 -23 -8 -39 -19 -37 -27 2 -7
10 -17 20 -23 9 -5 29 -23 44 -38 28 -29 28 -29 130 -24 57 3 121 9 143 13 22
3 59 19 83 35 24 16 47 29 52 29 5 0 25 17 45 38 19 20 42 58 50 84 12 42 12
53 -1 92 -13 38 -23 49 -67 70 -28 15 -56 26 -62 26 -7 0 -33 -11 -60 -25 -27
-15 -55 -23 -66 -20 -11 4 -19 14 -19 24 0 9 5 22 12 29 7 7 19 12 29 12 9 0
27 8 40 18 13 11 39 22 57 25 18 4 50 21 72 38 22 18 44 47 50 65 6 19 12 55
13 81 2 47 3 48 37 51 24 2 47 15 73 40 20 20 37 42 37 49 0 8 -18 38 -40 67
-22 29 -50 58 -62 64 -13 6 -39 13 -58 14 -32 3 -35 6 -38 36 -2 19 4 44 12
57 9 14 16 32 16 42 0 10 -9 33 -20 51 -18 29 -25 32 -66 32 -25 0 -54 -5 -65
-10 -15 -9 -17 -15 -9 -30 5 -10 10 -37 10 -59 0 -28 -7 -48 -20 -61 -11 -11
-31 -20 -44 -20 -14 0 -32 7 -40 16 -13 12 -15 33 -12 104 3 48 10 97 18 109
9 16 10 26 2 39 -6 9 -20 18 -30 19z m179 -387 c12 0 37 -9 55 -20 26 -16 32
-26 32 -54 0 -18 -6 -38 -12 -44 -7 -6 -35 -11 -63 -11 -27 0 -68 -2 -90 -3
-30 -2 -40 1 -43 13 -2 10 19 39 48 68 30 31 60 51 73 51z m-32 -190 c10 0 23
-9 29 -19 5 -11 10 -29 10 -41 0 -11 -12 -33 -27 -47 -16 -14 -43 -32 -61 -40
-19 -8 -42 -11 -53 -8 -12 4 -19 15 -19 30 0 15 7 26 20 30 11 3 34 26 52 51
17 24 39 44 49 44z"/>
<path d="M396 1159 c-12 0 -48 -15 -81 -33 -33 -18 -88 -38 -122 -46 -34 -7
-64 -19 -67 -26 -3 -7 5 -20 17 -29 12 -8 30 -15 40 -15 9 0 33 -7 52 -14 19
-8 35 -19 35 -25 0 -5 -15 -27 -34 -47 -19 -21 -42 -57 -51 -81 -16 -40 -16
-46 -1 -68 9 -14 23 -25 31 -25 7 0 21 -7 29 -16 9 -8 16 -22 16 -29 0 -8 -18
-35 -40 -60 -22 -25 -43 -57 -46 -70 -3 -14 -4 -44 -1 -67 3 -24 8 -55 12 -69
5 -21 1 -33 -22 -58 -15 -17 -53 -44 -83 -60 -31 -16 -61 -40 -68 -55 -11 -22
-11 -30 4 -56 10 -16 25 -32 33 -35 8 -3 24 3 35 13 12 10 33 26 48 35 15 9
33 17 40 17 7 0 33 -25 58 -55 25 -30 50 -55 56 -55 5 0 22 12 36 28 14 15 33
41 42 59 9 18 16 41 16 52 0 11 4 22 9 25 5 3 8 42 7 86 -1 65 -5 84 -22 100
-11 11 -35 29 -54 39 -19 10 -39 25 -44 34 -9 13 -5 22 17 42 15 14 37 44 48
67 16 31 20 54 17 90 -3 31 -13 57 -27 71 -13 15 -21 36 -21 60 0 31 7 42 50
79 28 24 62 63 75 87 14 24 25 50 25 57 0 7 -10 22 -22 34 -12 11 -31 20 -42
19z m-118 -781 c8 -2 20 -16 25 -31 5 -15 6 -39 3 -52 -5 -18 -13 -25 -31 -25
-13 0 -31 10 -39 22 -9 12 -16 25 -16 29 0 3 10 18 21 33 12 15 28 26 37 24z"/>
</g>
</svg>
