<?xml version="1.0" standalone="no"?>
<!DOCTYPE svg PUBLIC "-//W3C//DTD SVG 20010904//EN"
 "http://www.w3.org/TR/2001/REC-SVG-20010904/DTD/svg10.dtd">
<svg version="1.0" xmlns="http://www.w3.org/2000/svg"
 width="56.000000pt" height="56.000000pt" viewBox="0 0 56.000000 56.000000"
 preserveAspectRatio="xMidYMid meet">
<metadata>
Created by potrace 1.16, written by Peter Selinger 2001-2019
</metadata>
<g transform="translate(0.000000,56.000000) scale(0.100000,-0.100000)"
fill="#000000" stroke="none">
<path d="M275 560 c-14 0 -25 -4 -25 -9 0 -5 -9 -11 -20 -14 -11 -3 -25 -17
-31 -31 -11 -23 -9 -28 14 -47 15 -11 27 -30 27 -43 0 -13 -15 -42 -33 -65
-18 -22 -43 -48 -55 -57 -12 -8 -22 -22 -22 -30 0 -10 8 -13 33 -9 17 3 45 8
61 11 26 6 27 5 17 -14 -6 -12 -16 -24 -21 -27 -6 -3 -10 -32 -10 -64 0 -52 3
-60 33 -87 17 -16 47 -40 65 -52 23 -16 44 -22 70 -20 24 2 37 8 37 18 0 8
-18 20 -40 28 -22 8 -54 20 -71 27 -18 8 -38 26 -46 42 -10 20 -11 37 -5 58 5
17 14 41 21 55 6 14 31 35 56 47 29 14 45 28 45 40 0 11 -9 19 -24 21 -13 2
-42 -6 -64 -18 -27 -16 -42 -19 -49 -12 -8 8 -1 23 21 50 17 22 31 45 31 52 0
6 -9 23 -20 37 -11 14 -20 32 -20 39 0 7 11 21 25 32 14 11 25 25 25 31 0 6
-11 11 -25 11z"/>
</g>
</svg>
