<?xml version="1.0" standalone="no"?>
<!DOCTYPE svg PUBLIC "-//W3C//DTD SVG 20010904//EN"
 "http://www.w3.org/TR/2001/REC-SVG-20010904/DTD/svg10.dtd">
<svg version="1.0" xmlns="http://www.w3.org/2000/svg"
 width="56.000000pt" height="56.000000pt" viewBox="0 0 56.000000 56.000000"
 preserveAspectRatio="xMidYMid meet">
<metadata>
Created by potrace 1.16, written by Peter Selinger 2001-2019
</metadata>
<g transform="translate(0.000000,56.000000) scale(0.100000,-0.100000)"
fill="#000000" stroke="none">
<path d="M188 560 c-14 0 -28 -3 -31 -7 -4 -3 -7 -19 -7 -35 0 -21 5 -28 20
-28 12 0 20 -7 20 -17 0 -10 -11 -36 -25 -58 -13 -22 -25 -47 -25 -56 0 -9 6
-21 13 -27 10 -8 24 -4 58 18 24 17 50 30 57 30 6 0 12 -6 12 -13 0 -7 -9 -29
-20 -50 -11 -20 -20 -45 -20 -55 0 -10 16 -33 36 -50 20 -18 34 -37 32 -44 -3
-7 -24 -28 -48 -46 -24 -18 -56 -49 -72 -69 -15 -20 -28 -40 -28 -44 0 -5 14
-9 30 -9 17 0 30 4 30 8 0 4 15 24 33 43 17 18 53 49 79 67 25 17 51 32 57 32
6 0 11 9 11 20 0 13 -19 33 -50 56 -42 30 -50 41 -50 68 0 19 13 52 30 80 17
26 42 58 55 72 14 14 25 31 25 39 0 8 -11 17 -25 21 -19 5 -35 -2 -68 -28 -23
-19 -52 -40 -64 -47 -20 -10 -23 -9 -23 8 0 11 5 23 10 26 6 3 10 16 10 28 -1
12 -9 32 -19 45 -11 12 -30 22 -43 22z"/>
</g>
</svg>
