<?xml version="1.0" standalone="no"?>
<!DOCTYPE svg PUBLIC "-//W3C//DTD SVG 20010904//EN"
 "http://www.w3.org/TR/2001/REC-SVG-20010904/DTD/svg10.dtd">
<svg version="1.0" xmlns="http://www.w3.org/2000/svg"
 width="56.000000pt" height="56.000000pt" viewBox="0 0 56.000000 56.000000"
 preserveAspectRatio="xMidYMid meet">
<metadata>
Created by potrace 1.16, written by Peter Selinger 2001-2019
</metadata>
<g transform="translate(0.000000,56.000000) scale(0.100000,-0.100000)"
fill="#000000" stroke="none">
<path d="M200 560 c-5 0 -10 -3 -10 -8 0 -4 -19 -17 -42 -29 -24 -12 -51 -24
-60 -27 -10 -3 -18 -12 -18 -20 0 -8 10 -27 23 -42 23 -26 24 -26 55 -10 17 9
38 16 46 16 8 0 17 -4 21 -9 3 -5 -8 -33 -25 -61 -16 -28 -30 -54 -30 -57 0
-3 -12 -21 -26 -40 -14 -18 -24 -41 -22 -51 3 -13 12 -16 46 -14 23 2 42 1 42
-2 0 -3 -12 -28 -27 -55 -27 -49 -27 -49 -8 -86 11 -20 32 -43 47 -51 17 -9
58 -14 111 -14 75 0 86 2 106 23 21 23 21 25 4 45 -15 18 -31 22 -97 24 -77 3
-80 4 -87 29 -4 19 -1 36 13 57 11 17 28 34 39 37 10 4 19 10 19 15 0 5 36 30
80 56 46 27 80 55 80 63 0 9 -14 24 -31 34 -17 9 -36 17 -43 17 -7 0 -28 -10
-47 -23 -19 -12 -49 -29 -67 -36 -25 -11 -36 -11 -45 -2 -8 8 -8 20 2 49 8 20
27 56 42 79 16 23 26 44 22 46 -5 2 -29 10 -55 17 -27 7 -48 17 -48 21 0 5 -4
9 -10 9z"/>
</g>
</svg>
