<?xml version="1.0" standalone="no"?>
<!DOCTYPE svg PUBLIC "-//W3C//DTD SVG 20010904//EN"
 "http://www.w3.org/TR/2001/REC-SVG-20010904/DTD/svg10.dtd">
<svg version="1.0" xmlns="http://www.w3.org/2000/svg"
 width="56.000000pt" height="56.000000pt" viewBox="0 0 56.000000 56.000000"
 preserveAspectRatio="xMidYMid meet">
<metadata>
Created by potrace 1.16, written by Peter Selinger 2001-2019
</metadata>
<g transform="translate(0.000000,56.000000) scale(0.100000,-0.100000)"
fill="#000000" stroke="none">
<path d="M322 559 c-9 -1 -28 -12 -42 -26 -14 -14 -36 -31 -50 -38 -14 -7 -35
-15 -47 -19 -16 -5 -23 -2 -28 14 -3 11 -13 20 -21 20 -8 0 -14 -6 -14 -14 0
-7 3 -28 6 -45 4 -17 15 -36 26 -42 11 -6 30 -8 43 -5 13 3 37 18 54 32 17 14
35 23 40 19 7 -4 6 -15 -2 -33 -6 -15 -23 -43 -37 -62 -13 -19 -39 -48 -57
-65 -19 -17 -36 -44 -39 -62 -6 -28 -3 -33 20 -39 16 -4 32 -1 41 6 8 7 15 9
16 4 0 -5 0 -27 -1 -50 -1 -32 4 -46 24 -65 14 -13 26 -29 26 -36 0 -7 -10
-21 -22 -33 -22 -20 -22 -20 5 -20 14 0 28 4 31 9 3 5 26 12 51 15 32 5 50 14
61 31 9 13 13 29 9 35 -3 5 -26 10 -50 10 -24 0 -56 5 -70 12 -14 6 -25 20
-25 30 0 10 11 40 25 67 20 41 30 50 59 55 19 4 45 15 57 25 14 11 20 24 16
34 -4 12 -18 17 -42 17 -23 0 -48 -9 -69 -25 -18 -14 -38 -25 -44 -25 -7 0
-12 3 -12 8 0 4 25 47 55 97 30 49 55 97 55 105 0 9 -7 26 -16 38 -8 12 -23
22 -32 21z"/>
</g>
</svg>
