<?xml version="1.0" standalone="no"?>
<!DOCTYPE svg PUBLIC "-//W3C//DTD SVG 20010904//EN"
 "http://www.w3.org/TR/2001/REC-SVG-20010904/DTD/svg10.dtd">
<svg version="1.0" xmlns="http://www.w3.org/2000/svg"
 width="56.000000pt" height="56.000000pt" viewBox="0 0 56.000000 56.000000"
 preserveAspectRatio="xMidYMid meet">
<metadata>
Created by potrace 1.16, written by Peter Selinger 2001-2019
</metadata>
<g transform="translate(0.000000,56.000000) scale(0.100000,-0.100000)"
fill="#000000" stroke="none">
<path d="M259 560 c-24 -1 -48 -5 -54 -10 -5 -5 -25 -22 -44 -38 -25 -21 -32
-34 -28 -47 5 -11 14 -16 28 -12 12 3 22 0 26 -9 3 -7 -4 -30 -16 -50 -12 -19
-22 -49 -24 -67 -1 -22 3 -32 14 -35 9 -1 37 13 63 33 25 19 48 35 50 35 2 0
3 -30 3 -67 -1 -53 4 -79 23 -116 24 -49 24 -49 0 -68 -14 -11 -48 -33 -77
-50 -28 -16 -57 -37 -65 -46 -12 -14 -6 -15 65 -11 66 4 80 8 94 27 8 13 35
31 59 41 37 16 44 24 44 47 0 20 -13 39 -46 70 -47 42 -47 42 -40 104 4 43 18
83 46 137 21 41 37 79 34 84 -3 4 -15 8 -26 8 -12 0 -45 -24 -76 -55 -31 -31
-61 -54 -66 -52 -6 2 -9 21 -8 43 3 27 13 49 35 72 31 32 31 32 -14 32z"/>
</g>
</svg>
