<?xml version="1.0" standalone="no"?>
<!DOCTYPE svg PUBLIC "-//W3C//DTD SVG 20010904//EN"
 "http://www.w3.org/TR/2001/REC-SVG-20010904/DTD/svg10.dtd">
<svg version="1.0" xmlns="http://www.w3.org/2000/svg"
 width="56.000000pt" height="56.000000pt" viewBox="0 0 56.000000 56.000000"
 preserveAspectRatio="xMidYMid meet">
<metadata>
Created by potrace 1.16, written by Peter Selinger 2001-2019
</metadata>
<g transform="translate(0.000000,56.000000) scale(0.100000,-0.100000)"
fill="#000000" stroke="none">
<path d="M111 560 c-3 0 -15 -15 -25 -34 -10 -18 -16 -42 -14 -52 2 -14 16
-21 52 -27 29 -5 60 -4 77 2 20 7 29 6 32 -4 3 -7 -5 -34 -17 -61 -13 -27 -38
-64 -57 -81 -19 -18 -50 -45 -69 -61 -30 -26 -33 -32 -21 -46 7 -9 26 -16 41
-16 16 0 59 16 96 35 37 19 75 35 84 35 10 0 24 9 31 19 10 14 31 21 78 25 36
3 69 10 75 16 7 7 7 16 0 28 -6 9 -25 18 -41 20 -18 2 -47 -6 -69 -19 -22 -12
-63 -35 -93 -51 -29 -15 -55 -28 -58 -28 -2 0 -1 10 2 23 4 12 15 31 24 42 9
11 27 39 39 61 12 23 22 50 22 61 0 10 5 24 11 30 7 7 9 19 6 27 -4 9 -16 16
-29 16 -12 0 -41 -9 -65 -21 -24 -12 -50 -19 -57 -16 -8 3 -22 22 -31 41 -10
20 -20 36 -24 36z"/>
<path d="M284 200 c-8 0 -15 -8 -15 -17 -1 -10 0 -27 1 -37 1 -11 8 -29 16
-40 7 -12 11 -31 8 -43 -3 -12 -19 -27 -35 -33 -16 -7 -29 -16 -29 -21 0 -5
18 -9 41 -9 33 0 42 4 46 20 5 19 6 19 18 4 7 -10 17 -14 24 -10 7 5 16 17 20
29 6 16 0 28 -31 57 -21 21 -41 50 -44 68 -4 18 -13 32 -20 32z"/>
</g>
</svg>
