<?xml version="1.0" standalone="no"?>
<!DOCTYPE svg PUBLIC "-//W3C//DTD SVG 20010904//EN"
 "http://www.w3.org/TR/2001/REC-SVG-20010904/DTD/svg10.dtd">
<svg version="1.0" xmlns="http://www.w3.org/2000/svg"
 width="56.000000pt" height="56.000000pt" viewBox="0 0 56.000000 56.000000"
 preserveAspectRatio="xMidYMid meet">
<metadata>
Created by potrace 1.16, written by Peter Selinger 2001-2019
</metadata>
<g transform="translate(0.000000,56.000000) scale(0.100000,-0.100000)"
fill="#000000" stroke="none">
<path d="M199 542 c-39 2 -76 0 -81 -3 -6 -4 -7 -16 -4 -27 4 -11 13 -23 20
-25 8 -3 30 -1 50 5 20 6 39 9 42 5 3 -3 3 -14 0 -25 -4 -11 -31 -59 -61 -107
-42 -66 -55 -96 -55 -125 0 -22 4 -42 10 -45 5 -3 17 3 27 14 10 13 20 16 23
10 4 -5 3 -35 -2 -65 -7 -48 -6 -60 11 -87 11 -18 36 -41 56 -51 32 -18 42
-19 92 -8 36 7 67 21 85 39 15 15 28 34 28 44 0 9 -7 19 -15 23 -8 3 -29 0
-47 -6 -18 -6 -40 -17 -49 -25 -11 -9 -34 -13 -65 -11 -49 3 -49 3 -46 57 2
30 14 78 27 108 13 29 29 53 34 53 6 0 21 10 33 23 12 12 40 27 61 32 24 6 44
20 55 38 13 21 14 31 6 45 -6 9 -26 18 -44 20 -26 3 -40 -4 -69 -30 -20 -19
-48 -42 -63 -51 -15 -9 -30 -17 -33 -17 -3 0 -5 6 -5 14 0 8 11 28 25 44 14
17 30 44 36 61 7 21 7 36 0 49 -9 17 -23 21 -82 24z"/>
</g>
</svg>
