<?xml version="1.0" standalone="no"?>
<!DOCTYPE svg PUBLIC "-//W3C//DTD SVG 20010904//EN"
 "http://www.w3.org/TR/2001/REC-SVG-20010904/DTD/svg10.dtd">
<svg version="1.0" xmlns="http://www.w3.org/2000/svg"
 width="56.000000pt" height="56.000000pt" viewBox="0 0 56.000000 56.000000"
 preserveAspectRatio="xMidYMid meet">
<metadata>
Created by potrace 1.16, written by Peter Selinger 2001-2019
</metadata>
<g transform="translate(0.000000,56.000000) scale(0.100000,-0.100000)"
fill="#000000" stroke="none">
<path d="M166 539 c-12 -1 -37 -9 -56 -20 -19 -10 -41 -18 -47 -19 -7 0 -13 7
-13 16 0 9 -6 14 -12 12 -7 -3 -20 -17 -28 -31 -14 -25 -13 -28 7 -48 21 -22
23 -22 65 -6 24 10 50 17 57 17 10 0 12 -10 8 -40 -3 -22 -15 -60 -27 -84 -12
-25 -41 -67 -66 -93 -30 -33 -44 -57 -44 -76 0 -20 7 -30 26 -37 21 -8 31 -5
64 21 21 17 46 29 57 27 10 -2 19 -13 21 -28 2 -14 8 -40 13 -58 7 -21 25 -42
48 -57 30 -18 49 -23 92 -21 30 2 68 10 84 18 17 8 56 25 88 38 31 12 57 28
57 35 0 6 -11 17 -25 23 -14 7 -40 12 -58 12 -18 0 -55 -14 -87 -34 -30 -18
-69 -37 -87 -40 -25 -6 -34 -3 -47 16 -10 13 -16 43 -16 74 0 47 3 55 39 87
22 20 52 44 68 54 15 10 34 26 41 35 7 10 19 18 27 18 8 0 17 5 21 11 3 6 1
22 -7 35 -9 18 -21 24 -45 24 -21 0 -38 -7 -46 -19 -7 -10 -43 -46 -81 -80
-37 -33 -75 -61 -83 -61 -14 0 -14 3 2 28 10 15 29 47 42 70 15 26 25 60 25
83 0 30 -7 47 -29 70 -15 16 -37 29 -48 28z"/>
</g>
</svg>
