<?xml version="1.0" standalone="no"?>
<!DOCTYPE svg PUBLIC "-//W3C//DTD SVG 20010904//EN"
 "http://www.w3.org/TR/2001/REC-SVG-20010904/DTD/svg10.dtd">
<svg version="1.0" xmlns="http://www.w3.org/2000/svg"
 width="56.000000pt" height="56.000000pt" viewBox="0 0 56.000000 56.000000"
 preserveAspectRatio="xMidYMid meet">
<metadata>
Created by potrace 1.16, written by Peter Selinger 2001-2019
</metadata>
<g transform="translate(0.000000,56.000000) scale(0.100000,-0.100000)"
fill="#000000" stroke="none">
<path d="M203 560 c-17 0 -35 -4 -38 -10 -3 -5 -17 -10 -30 -10 -12 0 -25 -6
-28 -13 -3 -8 -1 -20 3 -27 5 -8 25 -13 54 -12 42 2 46 0 46 -20 0 -13 -14
-54 -30 -93 -17 -38 -30 -76 -30 -84 0 -11 12 -13 55 -8 41 4 53 3 48 -6 -4
-7 -19 -28 -34 -47 -15 -19 -32 -52 -39 -74 -10 -30 -10 -43 0 -61 7 -13 23
-28 36 -35 13 -7 40 -16 61 -19 28 -5 38 -12 37 -24 -1 -14 7 -17 41 -17 23 0
47 6 52 13 6 6 13 20 16 29 4 11 -2 25 -15 38 -17 15 -36 20 -78 20 -42 0 -61
5 -73 18 -10 10 -17 28 -17 40 0 12 16 40 35 61 22 24 55 46 86 57 27 10 59
26 69 37 16 14 18 22 10 37 -5 10 -19 22 -30 25 -11 4 -45 -3 -75 -14 -31 -12
-64 -21 -74 -21 -18 0 -18 3 -4 48 8 27 12 65 9 89 -3 24 -11 52 -18 63 -9 13
-24 20 -45 20z"/>
</g>
</svg>
