<?xml version="1.0" standalone="no"?>
<!DOCTYPE svg PUBLIC "-//W3C//DTD SVG 20010904//EN"
 "http://www.w3.org/TR/2001/REC-SVG-20010904/DTD/svg10.dtd">
<svg version="1.0" xmlns="http://www.w3.org/2000/svg"
 width="56.000000pt" height="56.000000pt" viewBox="0 0 56.000000 56.000000"
 preserveAspectRatio="xMidYMid meet">
<metadata>
Created by potrace 1.16, written by Peter Selinger 2001-2019
</metadata>
<g transform="translate(0.000000,56.000000) scale(0.100000,-0.100000)"
fill="#000000" stroke="none">
<path d="M172 560 c-13 0 -22 -12 -30 -37 -6 -20 -8 -42 -4 -49 6 -11 13 -11
36 1 16 8 35 15 43 15 10 0 12 -6 7 -22 -3 -13 -12 -34 -19 -48 -7 -14 -22
-34 -34 -44 -14 -13 -21 -31 -21 -56 0 -20 3 -39 6 -43 3 -3 33 15 65 40 33
25 63 43 66 40 3 -4 -4 -27 -16 -52 -12 -26 -25 -76 -28 -111 -6 -65 -6 -65
41 -109 38 -35 46 -48 41 -65 -6 -19 -3 -21 27 -18 30 3 33 6 31 33 -2 21 -14
41 -42 65 -35 31 -40 41 -42 85 -1 28 -2 63 -1 78 2 20 20 45 63 87 52 50 59
62 49 75 -7 8 -25 15 -41 15 -16 0 -50 -14 -76 -30 -38 -25 -49 -28 -51 -16
-2 9 9 37 24 64 16 28 25 56 21 65 -5 12 -19 17 -52 17 -25 0 -45 5 -45 10 0
6 -8 10 -18 10z"/>
</g>
</svg>
