<?xml version="1.0" standalone="no"?>
<!DOCTYPE svg PUBLIC "-//W3C//DTD SVG 20010904//EN"
 "http://www.w3.org/TR/2001/REC-SVG-20010904/DTD/svg10.dtd">
<svg version="1.0" xmlns="http://www.w3.org/2000/svg"
 width="56.000000pt" height="56.000000pt" viewBox="0 0 56.000000 56.000000"
 preserveAspectRatio="xMidYMid meet">
<metadata>
Created by potrace 1.16, written by Peter Selinger 2001-2019
</metadata>
<g transform="translate(0.000000,56.000000) scale(0.100000,-0.100000)"
fill="#000000" stroke="none">
<path d="M160 560 c-16 0 -30 -5 -30 -12 0 -6 -9 -22 -21 -34 -18 -19 -19 -25
-7 -43 7 -12 22 -21 33 -21 11 0 37 11 58 25 20 14 42 23 47 20 6 -3 10 -12
10 -19 0 -7 -12 -35 -27 -63 -16 -27 -38 -63 -51 -79 -13 -16 -34 -47 -48 -68
-22 -33 -23 -41 -11 -53 11 -11 19 -12 41 -2 16 8 30 9 35 3 4 -5 13 -29 20
-54 8 -28 27 -58 50 -80 21 -19 55 -45 75 -57 21 -13 53 -23 72 -23 35 0 35 0
14 30 -14 19 -30 30 -46 30 -13 0 -34 6 -46 13 -11 6 -30 21 -42 32 -11 12
-27 33 -33 48 -7 16 -13 41 -13 58 0 21 12 43 41 74 30 32 49 45 69 45 15 0
44 7 64 15 21 9 36 21 33 28 -2 7 -20 13 -41 15 -21 2 -44 -2 -52 -9 -8 -6
-29 -20 -47 -30 -17 -10 -42 -23 -55 -30 -12 -7 -25 -9 -28 -6 -4 3 4 28 16
54 12 26 31 67 41 91 11 24 19 46 19 48 0 3 -12 16 -26 29 -23 21 -28 22 -41
10 -8 -8 -21 -15 -29 -15 -8 0 -14 7 -14 15 0 10 -10 15 -30 15z"/>
</g>
</svg>
