<?xml version="1.0" standalone="no"?>
<!DOCTYPE svg PUBLIC "-//W3C//DTD SVG 20010904//EN"
 "http://www.w3.org/TR/2001/REC-SVG-20010904/DTD/svg10.dtd">
<svg version="1.0" xmlns="http://www.w3.org/2000/svg"
 width="56.000000pt" height="56.000000pt" viewBox="0 0 56.000000 56.000000"
 preserveAspectRatio="xMidYMid meet">
<metadata>
Created by potrace 1.16, written by Peter Selinger 2001-2019
</metadata>
<g transform="translate(0.000000,56.000000) scale(0.100000,-0.100000)"
fill="#000000" stroke="none">
<path d="M208 560 c-23 0 -37 -7 -46 -20 -7 -12 -10 -26 -6 -32 5 -7 -1 -9
-20 -4 -22 5 -29 1 -46 -26 -11 -18 -19 -40 -17 -48 1 -8 10 -16 21 -18 10 -2
31 8 46 23 17 17 35 25 44 22 9 -4 16 -13 16 -21 0 -8 -15 -34 -34 -59 -19
-24 -37 -53 -40 -64 -4 -13 0 -25 10 -34 15 -12 23 -6 75 49 41 44 61 59 65
49 3 -8 -2 -43 -12 -78 -9 -35 -17 -91 -17 -124 -1 -43 5 -72 20 -100 11 -22
30 -48 42 -59 17 -16 31 -18 86 -13 37 2 69 8 73 11 3 4 1 15 -4 24 -6 9 -22
19 -35 22 -13 3 -41 16 -62 29 -21 13 -44 36 -52 52 -9 17 -15 56 -15 97 0 40
7 86 16 108 8 22 34 56 57 76 35 31 40 40 31 55 -6 10 -25 19 -42 21 -22 2
-39 -5 -65 -27 -19 -17 -37 -28 -41 -24 -3 3 -6 19 -6 34 0 15 -5 31 -10 34
-6 4 -8 15 -5 26 5 16 1 19 -27 19z"/>
</g>
</svg>
