<?xml version="1.0" standalone="no"?>
<!DOCTYPE svg PUBLIC "-//W3C//DTD SVG 20010904//EN"
 "http://www.w3.org/TR/2001/REC-SVG-20010904/DTD/svg10.dtd">
<svg version="1.0" xmlns="http://www.w3.org/2000/svg"
 width="56.000000pt" height="56.000000pt" viewBox="0 0 56.000000 56.000000"
 preserveAspectRatio="xMidYMid meet">
<metadata>
Created by potrace 1.16, written by Peter Selinger 2001-2019
</metadata>
<g transform="translate(0.000000,56.000000) scale(0.100000,-0.100000)"
fill="#000000" stroke="none">
<path d="M201 560 c-21 0 -30 -6 -34 -21 -3 -11 -1 -34 5 -50 5 -16 14 -29 19
-29 4 0 13 -9 19 -20 8 -15 7 -27 -5 -50 -9 -18 -13 -40 -9 -55 3 -14 2 -25
-3 -25 -6 0 -15 -11 -21 -26 -7 -14 -27 -31 -45 -39 -17 -7 -40 -28 -51 -45
-12 -21 -15 -35 -8 -42 5 -5 18 -8 28 -6 9 1 31 23 48 47 17 24 39 49 48 55 9
5 20 7 25 3 4 -5 2 -16 -5 -25 -6 -9 -24 -39 -38 -67 -22 -41 -25 -55 -18 -84
6 -23 21 -43 43 -58 31 -21 45 -23 158 -23 95 0 124 3 121 12 -3 7 -19 21 -37
32 -29 17 -39 18 -83 7 -27 -6 -67 -11 -88 -11 -21 0 -41 4 -45 9 -3 5 -9 30
-14 55 -6 35 -5 48 5 57 8 6 14 20 14 30 0 11 4 19 10 19 5 0 12 11 16 24 4
16 19 29 47 41 23 10 53 17 67 16 14 -1 38 7 52 18 14 12 33 21 42 21 9 0 16
6 16 13 0 7 -5 18 -12 25 -7 7 -31 12 -54 12 -25 0 -47 -6 -54 -15 -7 -8 -18
-15 -25 -15 -8 0 -15 -5 -17 -11 -2 -7 -15 -9 -35 -5 -20 5 -35 15 -39 28 -3
11 -1 24 5 27 6 4 12 30 13 58 2 37 -3 57 -15 71 -9 10 -17 24 -17 30 0 7 -13
12 -29 12z"/>
</g>
</svg>
