<?xml version="1.0" standalone="no"?>
<!DOCTYPE svg PUBLIC "-//W3C//DTD SVG 20010904//EN"
 "http://www.w3.org/TR/2001/REC-SVG-20010904/DTD/svg10.dtd">
<svg version="1.0" xmlns="http://www.w3.org/2000/svg"
 width="56.000000pt" height="56.000000pt" viewBox="0 0 56.000000 56.000000"
 preserveAspectRatio="xMidYMid meet">
<metadata>
Created by potrace 1.16, written by Peter Selinger 2001-2019
</metadata>
<g transform="translate(0.000000,56.000000) scale(0.100000,-0.100000)"
fill="#000000" stroke="none">
<path d="M171 560 c-57 0 -59 -1 -76 -35 -10 -23 -14 -47 -10 -65 3 -15 13
-31 21 -34 9 -3 28 1 44 9 16 8 36 15 45 15 8 0 15 -3 15 -7 -1 -5 -7 -19 -15
-33 -8 -14 -14 -34 -15 -46 0 -11 -16 -39 -35 -61 -19 -23 -35 -50 -35 -61 0
-12 5 -24 10 -27 6 -4 21 0 34 8 13 9 31 17 42 19 16 2 19 -4 20 -42 1 -25 11
-65 22 -90 11 -25 31 -55 44 -66 12 -12 33 -27 45 -33 12 -6 43 -11 68 -11 33
0 45 4 43 13 -3 6 -35 32 -72 57 -42 27 -75 59 -87 80 -10 19 -18 47 -19 61 0
15 14 44 30 65 17 22 45 51 63 66 18 15 40 28 50 28 10 0 31 7 47 15 17 9 30
23 30 33 0 10 -5 23 -12 30 -7 7 -23 12 -37 12 -15 0 -54 -22 -96 -55 -40 -30
-77 -55 -84 -55 -6 0 -11 5 -11 10 0 6 9 28 19 48 12 24 17 48 13 67 -3 17
-13 36 -24 43 -10 7 -18 20 -18 28 0 11 -14 14 -59 14z m19 -20 c6 0 10 -4 10
-10 0 -5 -9 -14 -21 -20 -19 -11 -20 -10 -9 9 6 12 15 21 20 21z"/>
</g>
</svg>
