<?xml version="1.0" standalone="no"?>
<!DOCTYPE svg PUBLIC "-//W3C//DTD SVG 20010904//EN"
 "http://www.w3.org/TR/2001/REC-SVG-20010904/DTD/svg10.dtd">
<svg version="1.0" xmlns="http://www.w3.org/2000/svg"
 width="56.000000pt" height="56.000000pt" viewBox="0 0 56.000000 56.000000"
 preserveAspectRatio="xMidYMid meet">
<metadata>
Created by potrace 1.16, written by Peter Selinger 2001-2019
</metadata>
<g transform="translate(0.000000,56.000000) scale(0.100000,-0.100000)"
fill="#000000" stroke="none">
<path d="M215 560 c-22 0 -35 -5 -35 -13 0 -7 5 -18 12 -25 7 -7 22 -12 35
-12 21 0 23 -5 23 -46 0 -38 -8 -58 -40 -105 -22 -32 -40 -70 -40 -84 0 -14 3
-25 6 -25 3 0 26 18 52 40 25 22 56 43 69 46 13 4 26 4 29 1 4 -3 -4 -25 -17
-49 -13 -24 -30 -51 -39 -62 -8 -10 -20 -40 -26 -66 -6 -27 -7 -55 -3 -63 5
-8 22 -29 39 -47 16 -18 30 -36 30 -41 0 -5 11 -9 25 -9 16 0 25 6 25 16 0 9
-18 34 -40 56 -22 22 -40 45 -40 51 0 6 5 27 12 46 7 20 29 62 50 93 21 31 38
65 38 75 0 11 -5 24 -12 31 -7 7 -23 12 -37 12 -15 0 -33 -4 -41 -9 -8 -6 -17
-8 -22 -5 -4 3 2 25 12 50 11 25 20 59 20 75 0 22 -7 32 -25 41 -14 6 -25 15
-25 20 0 4 -16 8 -35 8z"/>
</g>
</svg>
