<?xml version="1.0" standalone="no"?>
<!DOCTYPE svg PUBLIC "-//W3C//DTD SVG 20010904//EN"
 "http://www.w3.org/TR/2001/REC-SVG-20010904/DTD/svg10.dtd">
<svg version="1.0" xmlns="http://www.w3.org/2000/svg"
 width="56.000000pt" height="56.000000pt" viewBox="0 0 56.000000 56.000000"
 preserveAspectRatio="xMidYMid meet">
<metadata>
Created by potrace 1.16, written by Peter Selinger 2001-2019
</metadata>
<g transform="translate(0.000000,56.000000) scale(0.100000,-0.100000)"
fill="#000000" stroke="none">
<path d="M169 560 c-5 0 -9 -9 -9 -19 0 -11 12 -33 26 -50 26 -31 26 -31 4
-104 -12 -39 -28 -84 -36 -99 -8 -15 -11 -34 -8 -42 4 -10 19 -16 40 -16 19 0
34 -3 34 -7 -1 -5 -7 -19 -15 -33 -8 -14 -14 -38 -15 -55 0 -16 10 -43 23 -58
21 -27 24 -28 67 -18 24 5 48 7 53 4 5 -3 7 -18 5 -34 -4 -24 -1 -29 17 -29
11 0 26 5 33 12 7 7 12 28 12 47 0 20 -4 42 -9 50 -6 10 -21 12 -50 8 -23 -3
-50 -3 -61 0 -11 3 -22 14 -25 24 -3 10 -1 28 5 39 6 12 30 39 52 60 23 22 56
41 75 45 18 3 33 12 33 18 0 7 -5 18 -12 25 -7 7 -26 12 -44 12 -17 0 -48 -7
-67 -15 -20 -8 -45 -15 -56 -15 -17 0 -19 4 -10 32 5 18 18 52 29 75 11 24 20
49 20 57 0 8 -12 24 -26 35 -15 12 -32 21 -39 21 -7 0 -18 7 -25 15 -7 8 -16
15 -21 15z"/>
</g>
</svg>
