<?xml version="1.0" standalone="no"?>
<!DOCTYPE svg PUBLIC "-//W3C//DTD SVG 20010904//EN"
 "http://www.w3.org/TR/2001/REC-SVG-20010904/DTD/svg10.dtd">
<svg version="1.0" xmlns="http://www.w3.org/2000/svg"
 width="56.000000pt" height="56.000000pt" viewBox="0 0 56.000000 56.000000"
 preserveAspectRatio="xMidYMid meet">
<metadata>
Created by potrace 1.16, written by Peter Selinger 2001-2019
</metadata>
<g transform="translate(0.000000,56.000000) scale(0.100000,-0.100000)"
fill="#000000" stroke="none">
<path d="M296 560 c-8 0 -17 -4 -20 -9 -3 -5 -25 -14 -49 -20 -25 -6 -50 -17
-57 -26 -7 -8 -21 -15 -31 -15 -11 0 -19 -6 -19 -12 0 -7 14 -21 30 -30 29
-16 32 -16 75 2 38 16 45 17 45 4 0 -8 -12 -33 -26 -57 -15 -23 -42 -59 -60
-80 -19 -20 -34 -46 -34 -56 0 -12 -9 -23 -22 -27 -13 -3 -31 -15 -41 -25 -9
-10 -17 -21 -17 -24 0 -4 -10 -15 -22 -25 -18 -14 -20 -21 -11 -31 6 -6 19 -9
27 -6 9 4 16 15 16 25 0 14 11 22 40 30 22 5 42 7 45 2 2 -4 2 -31 0 -61 -4
-42 -1 -61 14 -86 20 -32 20 -32 93 -28 40 2 85 7 99 11 15 3 30 1 33 -5 4 -6
27 -11 52 -11 35 0 44 3 44 18 0 9 -6 24 -13 34 -11 14 -26 15 -131 7 -65 -5
-123 -6 -129 -2 -5 3 -7 28 -4 57 3 29 12 68 21 87 9 19 22 44 30 56 7 13 15
20 18 17 3 -3 35 0 69 6 35 6 83 20 107 31 23 10 42 22 42 25 0 3 -5 14 -10
25 -6 10 -21 19 -33 19 -12 0 -52 -8 -89 -17 -37 -9 -70 -14 -74 -10 -4 4 2
31 13 60 12 28 24 63 26 77 4 16 -1 33 -13 48 -10 12 -25 22 -34 22z"/>
</g>
</svg>
