<?xml version="1.0" standalone="no"?>
<!DOCTYPE svg PUBLIC "-//W3C//DTD SVG 20010904//EN"
 "http://www.w3.org/TR/2001/REC-SVG-20010904/DTD/svg10.dtd">
<svg version="1.0" xmlns="http://www.w3.org/2000/svg"
 width="56.000000pt" height="56.000000pt" viewBox="0 0 56.000000 56.000000"
 preserveAspectRatio="xMidYMid meet">
<metadata>
Created by potrace 1.16, written by Peter Selinger 2001-2019
</metadata>
<g transform="translate(0.000000,56.000000) scale(0.100000,-0.100000)"
fill="#000000" stroke="none">
<path d="M216 543 c-11 14 -16 15 -22 6 -4 -7 -7 -33 -5 -57 2 -42 1 -44 -21
-40 -13 3 -31 9 -40 13 -14 5 -18 2 -18 -13 0 -12 10 -28 22 -36 12 -9 30 -16
40 -16 9 0 19 -4 22 -9 3 -4 -10 -26 -29 -48 -19 -22 -55 -50 -80 -62 -40 -19
-46 -25 -43 -49 2 -15 10 -28 19 -30 9 -2 30 9 47 23 18 15 36 23 46 19 9 -3
16 -10 16 -15 0 -5 9 -9 19 -9 16 0 20 10 26 60 6 53 11 63 51 100 24 22 48
40 54 40 5 0 10 -6 10 -14 0 -7 -16 -34 -36 -60 -20 -26 -33 -54 -30 -62 3 -8
14 -17 23 -21 10 -3 23 -10 30 -15 9 -7 9 -16 1 -34 -9 -19 -8 -32 5 -60 9
-19 17 -41 17 -49 0 -7 -21 -34 -46 -59 -42 -43 -44 -46 -21 -46 14 0 53 23
96 57 53 42 71 62 69 77 -2 14 -15 25 -38 32 -33 11 -35 14 -35 57 -1 25 -7
52 -14 61 -7 9 -20 16 -27 16 -8 0 -14 3 -14 8 0 4 7 18 16 30 12 18 19 20 30
11 11 -9 21 -3 51 31 21 23 55 51 76 61 20 11 37 25 37 33 0 7 -8 20 -18 29
-18 16 -21 14 -66 -33 -26 -27 -54 -50 -63 -50 -13 0 -14 8 -9 40 5 33 3 41
-14 50 -11 6 -25 8 -30 5 -6 -3 -10 -17 -10 -31 0 -14 -12 -36 -27 -50 -16
-14 -36 -30 -45 -35 -14 -7 -18 -6 -18 5 0 9 9 20 20 26 11 6 20 17 20 24 0 8
-7 16 -15 20 -8 3 -15 16 -15 28 0 13 -7 31 -14 41z"/>
</g>
</svg>
