<?xml version="1.0" standalone="no"?>
<!DOCTYPE svg PUBLIC "-//W3C//DTD SVG 20010904//EN"
 "http://www.w3.org/TR/2001/REC-SVG-20010904/DTD/svg10.dtd">
<svg version="1.0" xmlns="http://www.w3.org/2000/svg"
 width="128.000000pt" height="128.000000pt" viewBox="0 0 128.000000 128.000000"
 preserveAspectRatio="xMidYMid meet">
<metadata>
Created by potrace 1.16, written by Peter Selinger 2001-2019
</metadata>
<g transform="translate(0.000000,128.000000) scale(0.100000,-0.100000)"
fill="#000000" stroke="none">
<path d="M488 1278 c-13 0 -42 -20 -65 -43 -24 -23 -43 -50 -43 -60 0 -10 -7
-26 -16 -36 -14 -15 -14 -26 -4 -76 7 -32 18 -68 26 -80 8 -13 23 -23 34 -23
11 0 20 -4 20 -9 0 -4 21 -11 46 -14 32 -3 54 -13 70 -30 12 -14 20 -28 17
-31 -4 -3 -13 -6 -20 -6 -8 0 -27 -10 -43 -22 -17 -12 -30 -27 -30 -34 0 -6 6
-14 14 -17 8 -3 26 3 40 14 14 11 26 27 26 34 0 8 12 15 27 17 17 2 33 13 43
30 14 25 13 28 -5 42 -11 9 -18 16 -15 17 3 0 30 6 60 12 36 8 56 17 58 28 2
10 -5 19 -18 22 -11 3 -20 10 -20 16 0 6 5 11 12 11 6 0 19 -7 28 -15 9 -8 37
-18 62 -21 43 -6 46 -5 77 35 32 40 33 43 16 61 -14 16 -32 20 -79 21 -34 1
-72 4 -86 8 -17 5 -28 18 -35 41 -6 19 -16 45 -23 58 -8 13 -22 22 -37 22 -13
0 -36 -5 -50 -10 -21 -8 -25 -14 -20 -33 4 -12 15 -29 25 -37 10 -8 21 -25 24
-36 4 -14 1 -28 -9 -38 -9 -9 -23 -16 -31 -16 -8 0 -14 -4 -14 -10 0 -5 9 -14
19 -20 11 -5 31 -10 45 -10 16 0 26 -6 26 -14 0 -8 -9 -18 -20 -21 -13 -4 -33
2 -55 15 -21 13 -32 26 -28 36 3 8 -1 14 -10 14 -8 0 -20 -7 -27 -15 -8 -9
-30 -15 -57 -15 -42 0 -45 1 -38 23 3 12 9 33 12 47 3 14 15 36 28 50 12 14
32 41 43 61 12 20 22 41 22 48 0 6 -10 10 -22 9z"/>
<path d="M856 860 c-15 0 -29 -7 -32 -15 -4 -8 -1 -22 6 -31 10 -11 10 -18 2
-26 -8 -8 -23 -6 -57 7 -34 13 -50 14 -58 6 -8 -8 -8 -14 1 -23 7 -7 12 -16
12 -20 0 -4 -8 -8 -19 -8 -10 0 -24 -7 -31 -15 -7 -8 -18 -15 -26 -15 -7 0
-17 7 -21 15 -7 11 -33 16 -100 20 -80 4 -92 2 -108 -15 -10 -11 -15 -28 -12
-39 3 -12 -1 -22 -10 -25 -8 -3 -22 -6 -31 -6 -9 0 -29 -12 -44 -28 -16 -15
-44 -49 -63 -75 -25 -33 -34 -55 -30 -68 4 -11 1 -26 -5 -34 -10 -12 -10 -18
1 -31 11 -13 25 -15 71 -10 50 5 58 3 58 -11 0 -9 -9 -26 -19 -37 -14 -14 -21
-38 -22 -73 -2 -31 3 -58 10 -67 9 -11 11 -31 6 -65 -5 -40 -3 -53 12 -68 10
-10 17 -27 16 -38 -2 -13 9 -27 33 -42 19 -13 40 -23 46 -23 5 0 21 9 35 20
14 11 32 20 39 20 7 0 21 11 30 25 10 15 16 48 17 87 1 48 6 66 19 76 10 7 18
19 18 27 0 7 19 30 41 51 23 22 59 56 81 77 21 20 45 37 53 37 7 0 15 6 18 13
2 6 -5 17 -17 24 -20 11 -20 12 -3 19 10 3 28 2 41 -4 15 -7 28 -7 41 1 15 8
23 5 42 -19 12 -16 23 -39 23 -51 0 -13 -19 -38 -51 -66 -35 -30 -64 -47 -90
-51 -25 -4 -53 -19 -75 -39 -30 -28 -34 -36 -28 -65 4 -20 19 -42 38 -56 17
-13 57 -37 88 -54 32 -17 71 -40 88 -52 26 -19 35 -20 58 -11 15 7 35 23 46
37 13 19 15 29 7 37 -6 6 -11 19 -11 29 0 13 -8 18 -27 18 -16 0 -43 9 -60 20
-19 11 -33 28 -33 39 0 12 20 34 49 55 27 20 52 47 55 61 4 15 13 25 25 25 10
0 23 6 29 13 5 6 8 32 7 57 -2 25 -7 58 -12 74 -5 16 -22 36 -39 45 -16 9 -43
26 -58 39 -16 12 -36 22 -46 22 -9 0 -37 -13 -61 -30 -24 -16 -56 -30 -70 -30
-17 0 -33 -9 -43 -25 -9 -14 -21 -25 -28 -25 -6 0 -21 -10 -33 -22 -12 -13
-38 -35 -58 -51 -20 -15 -45 -48 -56 -72 -11 -25 -34 -60 -51 -76 -25 -26 -33
-29 -46 -18 -12 10 -14 24 -8 68 3 31 15 71 25 89 10 18 19 42 19 53 0 10 4
19 9 19 5 0 12 11 15 24 3 14 15 28 26 31 11 3 24 15 30 25 5 10 30 32 55 49
25 17 64 35 87 42 24 6 64 22 90 35 26 13 58 24 72 24 14 0 33 10 44 25 14 17
30 25 51 25 17 0 31 5 31 12 0 6 -5 26 -12 44 -7 21 -23 37 -48 48 -20 9 -49
16 -64 16z m-428 -255 c38 -1 74 -5 80 -9 7 -4 12 -11 12 -15 0 -5 -13 -14
-29 -21 -16 -6 -31 -20 -34 -31 -3 -10 -12 -19 -20 -19 -8 0 -17 13 -20 30 -5
21 -14 31 -32 36 -14 3 -25 12 -25 18 0 9 20 12 68 11z m-113 -105 c8 0 17 -5
20 -11 4 -6 5 -13 2 -16 -3 -2 -15 -2 -26 2 -12 3 -19 11 -16 16 4 5 12 9 20
9z m238 -229 c6 -6 8 -13 4 -17 -3 -3 -11 -3 -16 1 -6 3 -8 11 -5 17 4 6 10 6
17 -1z m-126 -163 c7 -6 13 -19 13 -30 0 -13 -6 -18 -16 -16 -9 2 -22 11 -28
21 -8 14 -8 20 4 27 9 5 19 5 27 -2z"/>
</g>
</svg>
