<?xml version="1.0" standalone="no"?>
<!DOCTYPE svg PUBLIC "-//W3C//DTD SVG 20010904//EN"
 "http://www.w3.org/TR/2001/REC-SVG-20010904/DTD/svg10.dtd">
<svg version="1.0" xmlns="http://www.w3.org/2000/svg"
 width="128.000000pt" height="128.000000pt" viewBox="0 0 128.000000 128.000000"
 preserveAspectRatio="xMidYMid meet">
<metadata>
Created by potrace 1.16, written by Peter Selinger 2001-2019
</metadata>
<g transform="translate(0.000000,128.000000) scale(0.100000,-0.100000)"
fill="#000000" stroke="none">
<path d="M624 1250 c-5 0 -23 -8 -40 -19 -17 -10 -45 -37 -62 -59 -18 -22 -32
-42 -32 -44 0 -3 33 -4 73 -4 72 1 72 1 74 -44 1 -25 4 -56 5 -70 2 -19 -2
-25 -17 -27 -11 -1 -74 -7 -140 -13 -66 -7 -140 -18 -165 -25 -25 -7 -45 -18
-45 -25 0 -7 16 -19 36 -25 27 -10 56 -10 122 -2 47 6 89 8 93 5 3 -4 3 -16
-1 -27 -3 -11 -22 -39 -40 -61 -19 -23 -37 -57 -41 -76 -3 -19 -18 -44 -33
-57 -14 -12 -39 -39 -55 -60 -18 -23 -41 -40 -58 -44 -16 -3 -36 -16 -45 -30
-10 -16 -14 -35 -10 -60 4 -20 16 -46 28 -59 13 -13 32 -24 44 -24 11 0 41 15
66 32 24 18 52 42 61 53 13 15 19 17 29 8 9 -9 6 -18 -13 -41 -13 -16 -30 -45
-37 -63 -7 -19 -18 -43 -24 -54 -6 -11 -22 -40 -34 -64 -14 -26 -23 -62 -23
-87 0 -24 5 -56 12 -71 7 -15 20 -39 30 -52 10 -13 18 -32 18 -43 0 -17 5 -18
47 -13 26 3 56 8 65 11 10 3 18 15 18 28 0 17 10 28 39 41 22 9 56 34 76 54
20 20 60 61 89 91 29 30 71 70 92 87 21 18 47 33 57 33 15 0 18 -5 14 -22 -3
-13 -12 -41 -20 -63 -9 -24 -27 -48 -46 -60 -17 -11 -34 -31 -37 -45 -4 -14
-14 -33 -22 -43 -14 -16 -13 -20 19 -47 29 -26 40 -29 74 -24 22 3 57 10 77
15 23 6 39 17 43 29 4 13 -1 30 -14 46 -12 15 -21 34 -21 43 0 10 11 32 25 51
14 19 25 40 25 48 0 7 12 33 26 57 14 25 24 54 22 66 -2 12 -10 27 -20 32 -12
8 -27 6 -58 -8 -36 -16 -46 -17 -76 -6 -23 8 -39 9 -47 3 -7 -6 -29 -13 -50
-17 -20 -4 -40 -11 -43 -16 -3 -5 -16 -9 -29 -9 -13 0 -25 -4 -27 -9 -1 -6
-34 -30 -73 -55 -38 -25 -75 -46 -82 -46 -7 0 -17 8 -22 18 -6 11 -5 27 3 47
7 17 11 35 9 41 -2 6 5 18 16 28 11 10 17 25 14 33 -3 8 0 26 8 41 7 15 28 41
45 57 31 30 32 30 54 13 12 -10 30 -18 39 -18 9 0 24 7 34 14 10 8 26 12 37 9
12 -3 22 2 29 15 8 15 8 21 -1 24 -7 3 -9 12 -5 22 4 10 15 16 24 14 10 -2 19
-13 21 -26 2 -15 10 -22 27 -22 12 0 26 7 29 15 3 9 20 21 36 27 21 7 29 15
26 25 -3 8 -6 30 -6 48 0 28 -5 35 -36 50 -27 12 -48 15 -81 10 -25 -4 -56
-11 -69 -17 -13 -6 -24 -14 -24 -18 0 -4 -12 -12 -27 -18 -16 -6 -53 -18 -84
-26 -31 -9 -80 -32 -108 -51 -28 -20 -65 -38 -82 -42 -16 -3 -34 -13 -39 -23
-5 -10 -7 -20 -3 -23 3 -3 3 -14 -1 -23 -5 -13 -9 -14 -21 -4 -13 10 -12 17 4
48 10 21 27 44 37 52 11 8 29 21 41 28 13 6 32 12 43 12 12 0 28 13 40 33 11
17 20 47 20 64 0 25 11 45 47 83 26 28 52 63 58 78 11 26 11 26 141 23 103 -2
141 1 183 15 51 16 56 16 107 -1 44 -15 56 -16 69 -5 8 7 15 19 15 27 0 8 -10
32 -22 54 -23 40 -23 40 -143 33 -66 -4 -130 -11 -143 -15 -13 -5 -45 -9 -71
-9 -30 0 -53 6 -60 14 -7 9 -10 28 -6 48 5 30 0 39 -53 96 -32 34 -63 62 -68
62z"/>
<path d="M130 960 c-32 0 -40 -4 -40 -18 0 -10 7 -27 15 -38 9 -13 31 -24 56
-28 30 -5 48 -2 65 9 13 8 21 21 18 28 -3 8 -21 21 -40 30 -19 10 -53 17 -74
17z"/>
</g>
</svg>
