<?xml version="1.0" standalone="no"?>
<!DOCTYPE svg PUBLIC "-//W3C//DTD SVG 20010904//EN"
 "http://www.w3.org/TR/2001/REC-SVG-20010904/DTD/svg10.dtd">
<svg version="1.0" xmlns="http://www.w3.org/2000/svg"
 width="128.000000pt" height="128.000000pt" viewBox="0 0 128.000000 128.000000"
 preserveAspectRatio="xMidYMid meet">
<metadata>
Created by potrace 1.16, written by Peter Selinger 2001-2019
</metadata>
<g transform="translate(0.000000,128.000000) scale(0.100000,-0.100000)"
fill="#000000" stroke="none">
<path d="M367 1280 c-56 0 -65 -3 -70 -20 -3 -13 3 -24 19 -35 17 -11 24 -25
24 -49 0 -20 8 -40 19 -51 17 -15 28 -16 75 -8 33 6 61 6 71 0 15 -8 15 -10
-1 -28 -9 -10 -21 -19 -25 -19 -5 0 -36 -20 -68 -45 -33 -25 -70 -58 -82 -73
-16 -21 -20 -36 -16 -66 4 -28 14 -46 36 -63 24 -19 31 -32 31 -60 0 -20 -9
-48 -22 -66 -12 -18 -40 -48 -62 -68 -40 -35 -40 -36 -40 -113 -1 -70 1 -80
22 -97 18 -14 28 -16 42 -9 10 6 23 10 29 10 6 0 11 -18 11 -40 0 -22 -4 -40
-8 -40 -4 0 -32 -24 -63 -52 -30 -29 -74 -69 -97 -89 -34 -30 -42 -42 -42 -71
0 -19 7 -55 16 -81 12 -37 21 -47 38 -47 12 0 31 8 42 19 12 10 57 73 102 139
45 66 94 130 108 141 24 19 28 19 49 5 13 -9 27 -28 30 -44 4 -16 3 -48 0 -72
-6 -38 -3 -47 19 -71 14 -15 32 -27 42 -27 9 0 33 14 55 30 21 17 48 51 60 75
12 25 47 74 77 110 48 57 59 65 89 65 23 0 42 -8 58 -24 14 -14 22 -31 19 -40
-3 -8 -29 -22 -57 -31 -29 -9 -58 -18 -66 -21 -11 -3 -11 -7 0 -20 8 -10 23
-14 43 -11 20 3 50 -4 84 -20 29 -14 70 -27 91 -30 32 -4 41 -1 55 18 10 15
16 44 16 80 0 53 -3 59 -35 88 -20 17 -42 31 -50 31 -8 0 -22 8 -32 18 -10 10
-38 24 -61 31 -24 7 -63 11 -85 10 -23 -1 -55 -9 -72 -17 -16 -8 -47 -29 -67
-46 -20 -17 -51 -42 -68 -54 -17 -13 -37 -21 -45 -18 -8 3 -15 14 -15 24 0 11
-9 31 -20 45 -11 14 -20 30 -20 37 0 6 11 28 25 48 14 20 25 41 25 47 0 6 11
27 25 47 14 20 25 43 25 50 0 8 8 25 18 38 9 14 22 39 28 55 5 17 26 52 45 79
19 27 53 68 75 92 36 38 47 44 81 44 23 0 45 -6 51 -12 5 -7 13 -27 16 -45 4
-17 2 -50 -4 -72 -7 -28 -27 -56 -66 -93 -31 -29 -70 -57 -87 -61 -18 -5 -39
-15 -47 -22 -8 -7 -25 -16 -37 -19 -13 -4 -23 -14 -23 -22 0 -12 15 -14 90 -9
63 3 106 12 143 28 28 12 76 35 105 50 34 18 57 37 63 55 6 15 9 56 6 92 -2
36 -12 80 -22 99 -9 19 -40 56 -68 83 -27 26 -56 48 -64 48 -7 0 -35 -11 -61
-24 -31 -16 -53 -21 -62 -16 -12 8 -12 16 1 57 8 26 12 63 9 82 -3 19 -12 38
-21 44 -9 5 -32 7 -52 3 -20 -4 -55 -23 -79 -42 -24 -20 -44 -40 -46 -45 -2
-4 15 -20 38 -34 35 -22 41 -30 35 -48 -4 -12 -10 -40 -15 -62 -4 -22 -16 -46
-27 -53 -10 -7 -46 -31 -80 -53 -35 -22 -76 -42 -92 -45 -28 -6 -32 -3 -57 49
-15 30 -24 62 -21 71 4 9 19 24 34 33 16 9 45 37 66 62 21 25 48 60 61 76 13
17 29 54 37 83 10 39 10 58 2 70 -6 9 -19 16 -29 14 -11 -1 -47 -7 -81 -14
-47 -8 -66 -8 -77 1 -8 6 -12 21 -9 31 5 18 0 20 -60 20z m119 -630 c6 0 17
-6 23 -13 6 -8 8 -17 4 -20 -3 -4 -14 -30 -25 -59 -10 -28 -30 -64 -45 -80
-15 -15 -33 -28 -40 -28 -8 0 -13 12 -13 28 0 16 9 37 20 47 11 10 20 25 20
33 0 8 10 32 22 53 12 22 27 39 34 39z"/>
<path d="M765 56 c-27 2 -71 -1 -96 -6 -26 -4 -56 -13 -67 -19 -11 -6 -36 -11
-54 -11 -18 0 -40 -5 -48 -10 -10 -6 56 -10 195 -10 210 0 210 0 165 27 -29
18 -61 28 -95 29z"/>
</g>
</svg>
