<?xml version="1.0" standalone="no"?>
<!DOCTYPE svg PUBLIC "-//W3C//DTD SVG 20010904//EN"
 "http://www.w3.org/TR/2001/REC-SVG-20010904/DTD/svg10.dtd">
<svg version="1.0" xmlns="http://www.w3.org/2000/svg"
 width="128.000000pt" height="128.000000pt" viewBox="0 0 128.000000 128.000000"
 preserveAspectRatio="xMidYMid meet">
<metadata>
Created by potrace 1.16, written by Peter Selinger 2001-2019
</metadata>
<g transform="translate(0.000000,128.000000) scale(0.100000,-0.100000)"
fill="#000000" stroke="none">
<path d="M266 1280 c-22 0 -36 -6 -40 -16 -3 -9 -6 -20 -6 -25 0 -5 7 -9 15
-9 9 0 27 7 40 16 14 9 25 20 25 25 0 5 -15 9 -34 9z"/>
<path d="M559 1256 c-21 3 -39 2 -43 -4 -3 -6 11 -19 32 -30 30 -15 38 -26 44
-58 4 -21 7 -70 7 -109 1 -66 0 -71 -31 -97 -18 -15 -39 -28 -46 -28 -7 0 -61
-16 -120 -36 -93 -31 -119 -36 -200 -35 -75 0 -92 -2 -92 -14 0 -8 5 -15 10
-15 6 0 10 -7 10 -15 0 -8 4 -15 10 -15 5 0 24 -13 43 -29 18 -16 52 -37 75
-47 27 -10 56 -14 78 -11 19 3 62 24 96 46 33 23 66 41 74 41 7 0 19 8 26 19
7 10 27 25 43 34 21 10 36 12 48 6 13 -8 14 -14 6 -27 -8 -13 -8 -58 -1 -156
5 -77 6 -151 2 -165 -4 -14 -8 -59 -9 -100 -1 -41 -4 -78 -6 -81 -3 -4 -7 -27
-10 -51 -3 -24 -8 -52 -11 -62 -3 -9 2 -51 11 -92 9 -41 26 -86 37 -100 14
-19 28 -25 47 -23 18 2 35 17 59 53 29 43 32 55 27 90 -4 22 -7 49 -7 60 1 11
4 35 8 53 3 19 1 45 -6 62 -10 24 -10 33 1 46 11 14 10 18 -6 30 -15 12 -17
19 -9 46 6 20 7 64 2 113 -5 44 -9 87 -9 95 -1 8 -5 20 -9 25 -4 6 -3 52 0
104 6 72 4 102 -6 125 -8 17 -20 40 -27 50 -6 11 -20 28 -29 38 -10 10 -18 27
-18 38 0 11 7 23 16 27 8 3 20 1 26 -5 6 -6 11 -25 12 -41 1 -20 7 -33 18 -37
10 -3 22 -3 27 0 4 3 16 -3 26 -14 10 -11 26 -20 36 -20 10 0 33 -9 51 -20 18
-11 45 -20 59 -20 14 0 43 -11 63 -25 21 -14 51 -25 69 -25 18 0 42 8 53 18
12 9 27 27 33 39 6 12 8 30 4 40 -3 10 -33 46 -66 80 -54 55 -62 60 -73 45
-11 -15 -13 -14 -19 11 -4 15 -13 27 -19 27 -7 0 -21 -8 -32 -19 -15 -14 -24
-16 -41 -8 -12 5 -30 6 -40 2 -10 -4 -36 -10 -57 -12 -39 -4 -39 -4 -33 39 5
34 1 52 -13 76 -11 18 -23 32 -27 32 -5 0 -13 -4 -19 -8 -6 -4 -14 -20 -18
-37 -7 -29 -7 -29 -28 4 -16 25 -18 35 -9 41 9 5 8 9 -6 15 -10 5 -27 10 -38
12 -11 1 -36 5 -56 9z m466 -256 c14 0 25 -4 25 -10 0 -5 -11 -10 -25 -10 -14
0 -25 5 -25 10 0 6 11 10 25 10z m-360 -120 c9 0 15 -5 13 -11 -2 -6 -8 -10
-13 -10 -5 0 -11 4 -13 10 -2 6 4 11 13 11z m51 -311 c8 -6 14 -18 14 -27 0
-13 -3 -12 -20 3 -11 10 -17 22 -14 27 3 5 12 4 20 -3z"/>
<path d="M450 1110 c-6 0 -10 -4 -10 -10 0 -5 11 -17 25 -26 14 -9 28 -15 30
-12 3 2 -4 14 -15 26 -12 12 -25 22 -30 22z"/>
<path d="M893 478 c-16 2 -23 -2 -23 -13 0 -11 7 -15 23 -13 12 2 22 8 22 13
0 6 -10 11 -22 13z"/>
<path d="M1073 31 c-7 7 -13 7 -17 1 -3 -6 -1 -14 5 -17 5 -4 13 -4 16 -1 4 4
2 11 -4 17z"/>
</g>
</svg>
