<?xml version="1.0" standalone="no"?>
<!DOCTYPE svg PUBLIC "-//W3C//DTD SVG 20010904//EN"
 "http://www.w3.org/TR/2001/REC-SVG-20010904/DTD/svg10.dtd">
<svg version="1.0" xmlns="http://www.w3.org/2000/svg"
 width="128.000000pt" height="128.000000pt" viewBox="0 0 128.000000 128.000000"
 preserveAspectRatio="xMidYMid meet">
<metadata>
Created by potrace 1.16, written by Peter Selinger 2001-2019
</metadata>
<g transform="translate(0.000000,128.000000) scale(0.100000,-0.100000)"
fill="#000000" stroke="none">
<path d="M59 1220 c-59 0 -59 0 -59 -30 0 -16 2 -30 5 -30 2 0 28 5 57 11 29
6 56 16 60 22 4 6 4 15 2 19 -3 4 -32 8 -65 8z"/>
<path d="M682 1209 c-20 0 -65 -13 -99 -29 -36 -17 -63 -35 -63 -44 0 -8 15
-20 34 -26 19 -6 46 -22 60 -35 20 -18 26 -34 26 -63 0 -37 -3 -41 -46 -61
-25 -12 -60 -24 -77 -28 -18 -3 -41 -10 -52 -16 -11 -6 -53 -14 -95 -19 -41
-6 -113 -9 -160 -8 -47 1 -93 6 -104 12 -10 6 -29 22 -41 36 -14 16 -28 23
-38 19 -10 -4 -17 -15 -17 -26 0 -11 15 -33 33 -49 17 -17 60 -53 95 -82 34
-28 74 -69 87 -90 14 -22 35 -46 48 -54 12 -9 55 -18 95 -21 44 -4 88 -1 114
6 24 7 47 16 53 21 5 4 24 8 41 8 18 0 36 -5 40 -12 4 -6 6 -107 5 -224 -1
-122 2 -228 8 -250 5 -22 13 -51 16 -66 4 -23 11 -28 35 -28 19 0 33 7 40 20
6 11 21 22 35 26 13 3 30 13 38 22 8 10 20 34 26 54 8 23 13 116 14 242 2 205
2 205 47 251 24 25 49 45 56 45 6 0 25 7 40 15 20 10 60 15 126 15 88 0 99 2
119 23 12 12 26 34 31 50 6 15 14 27 19 27 5 0 9 14 9 30 0 17 -4 30 -8 30 -5
0 -13 10 -19 23 -6 12 -39 37 -73 55 -35 17 -71 32 -82 32 -10 0 -33 7 -50 16
-28 15 -36 14 -109 -7 -64 -18 -81 -20 -93 -9 -10 7 -16 29 -16 54 0 33 -6 48
-27 68 -16 15 -41 32 -56 37 -16 6 -45 11 -65 10z m93 -242 c16 -3 56 -16 88
-30 32 -13 63 -29 68 -34 6 -6 -4 -22 -28 -44 -20 -19 -67 -64 -104 -101 -37
-38 -75 -68 -86 -68 -10 0 -30 7 -43 17 -14 9 -40 30 -57 46 -18 17 -33 35
-33 39 0 5 37 47 82 94 74 77 85 85 113 81z m-465 -173 c18 -1 37 -7 42 -12 6
-6 8 -15 4 -20 -3 -5 -22 -12 -42 -14 -24 -3 -38 0 -41 9 -3 7 -3 19 0 26 3 8
18 12 37 11z"/>
</g>
</svg>
