<?xml version="1.0" standalone="no"?>
<!DOCTYPE svg PUBLIC "-//W3C//DTD SVG 20010904//EN"
 "http://www.w3.org/TR/2001/REC-SVG-20010904/DTD/svg10.dtd">
<svg version="1.0" xmlns="http://www.w3.org/2000/svg"
 width="128.000000pt" height="128.000000pt" viewBox="0 0 128.000000 128.000000"
 preserveAspectRatio="xMidYMid meet">
<metadata>
Created by potrace 1.16, written by Peter Selinger 2001-2019
</metadata>
<g transform="translate(0.000000,128.000000) scale(0.100000,-0.100000)"
fill="#000000" stroke="none">
<path d="M263 1280 c-35 0 -39 -3 -56 -44 -10 -24 -27 -52 -38 -62 -15 -14
-19 -30 -19 -88 0 -39 4 -76 8 -83 5 -8 11 -8 24 1 10 7 26 34 38 60 11 26 20
54 20 62 0 7 14 39 30 69 17 30 30 62 30 70 0 11 -11 15 -37 15z"/>
<path d="M1085 1280 c-19 0 -35 -3 -35 -7 0 -5 7 -16 14 -25 7 -10 23 -18 35
-18 16 0 21 6 21 25 0 22 -4 25 -35 25z"/>
<path d="M572 1260 c-10 0 -28 -7 -40 -16 -12 -8 -22 -22 -22 -31 0 -9 19 -34
43 -57 29 -29 46 -56 55 -89 6 -26 12 -58 12 -72 0 -15 9 -29 22 -36 22 -12
22 -12 -5 -31 -24 -18 -27 -26 -27 -82 0 -62 0 -62 -52 -85 -29 -12 -67 -36
-84 -52 -17 -17 -35 -29 -40 -28 -5 1 -22 -3 -39 -10 -16 -7 -43 -19 -60 -27
-22 -10 -45 -11 -86 -6 -30 5 -61 6 -67 4 -7 -2 -12 -10 -12 -17 0 -8 18 -19
43 -25 23 -6 54 -16 69 -22 15 -5 34 -8 43 -4 8 3 15 12 15 21 0 8 3 15 6 15
3 0 14 -5 25 -11 16 -8 25 -7 37 3 9 7 31 21 48 30 17 10 50 20 74 24 43 7 43
7 35 -82 -4 -49 -8 -172 -9 -274 0 -174 1 -188 24 -242 15 -36 30 -58 40 -58
8 0 26 19 38 42 19 36 22 53 17 108 -3 36 -8 108 -11 160 -3 52 -7 127 -8 165
-2 39 3 108 12 155 8 50 22 93 32 104 14 14 32 18 76 18 33 0 112 -4 177 -7
103 -7 120 -5 136 9 11 10 21 25 24 35 3 11 -10 33 -33 59 -26 28 -50 43 -76
48 -21 4 -68 22 -103 41 -36 18 -73 41 -83 50 -10 9 -18 22 -18 30 0 7 -8 17
-17 20 -10 4 -27 18 -38 31 -11 14 -30 43 -42 66 -13 22 -23 46 -23 53 0 6
-20 25 -46 42 -25 17 -53 31 -62 31z m145 -250 c3 0 27 -17 55 -37 28 -21 64
-53 81 -70 17 -18 39 -33 49 -33 11 0 28 -5 39 -10 10 -6 19 -17 19 -25 0 -7
-6 -15 -12 -18 -7 -2 -24 2 -38 10 -23 13 -32 12 -94 -10 -38 -14 -75 -23 -82
-20 -10 3 -14 24 -15 67 0 33 -2 80 -4 104 -2 23 -1 42 2 42z m-85 -318 c9 -9
9 -15 0 -24 -6 -6 -15 -9 -18 -5 -4 3 -4 14 0 23 5 13 9 15 18 6z"/>
</g>
</svg>
