<?xml version="1.0" standalone="no"?>
<!DOCTYPE svg PUBLIC "-//W3C//DTD SVG 20010904//EN"
 "http://www.w3.org/TR/2001/REC-SVG-20010904/DTD/svg10.dtd">
<svg version="1.0" xmlns="http://www.w3.org/2000/svg"
 width="128.000000pt" height="128.000000pt" viewBox="0 0 128.000000 128.000000"
 preserveAspectRatio="xMidYMid meet">
<metadata>
Created by potrace 1.16, written by Peter Selinger 2001-2019
</metadata>
<g transform="translate(0.000000,128.000000) scale(0.100000,-0.100000)"
fill="#000000" stroke="none">
<path d="M532 1280 c-18 0 -32 -6 -36 -16 -4 -9 -1 -23 5 -30 6 -7 21 -16 32
-20 12 -4 38 -20 57 -36 19 -16 45 -39 58 -50 23 -21 23 -23 17 -192 -4 -93
-11 -178 -17 -189 -5 -10 -24 -25 -41 -33 -18 -8 -39 -18 -47 -24 -8 -5 -51
-16 -95 -26 -44 -9 -99 -23 -122 -31 -30 -11 -58 -13 -99 -8 -31 4 -63 9 -70
12 -8 3 -22 -10 -34 -29 -11 -18 -20 -38 -20 -43 0 -6 28 -23 62 -39 52 -23
67 -26 93 -18 16 5 62 22 100 36 39 15 103 38 143 52 40 15 80 23 88 20 14 -5
15 -17 9 -74 -4 -37 -9 -101 -10 -142 -2 -41 -9 -122 -15 -180 -7 -58 -13
-114 -13 -125 0 -11 0 -37 1 -57 2 -33 5 -38 25 -38 13 0 31 8 40 18 11 12 24
66 37 158 12 76 25 158 30 180 5 23 14 99 19 169 5 69 15 133 22 141 6 8 21
14 33 14 11 0 48 9 81 19 33 11 85 27 116 35 31 9 71 16 90 16 19 0 45 7 57
16 17 12 22 25 22 59 0 24 -5 47 -11 50 -6 4 -37 9 -70 12 -33 3 -62 10 -65
14 -3 5 -23 9 -44 9 -22 0 -69 10 -106 22 -65 21 -66 22 -59 52 3 17 10 56 14
86 4 30 6 61 3 68 -2 7 -23 26 -47 42 -23 16 -73 38 -111 50 -38 12 -74 29
-80 36 -6 8 -25 14 -42 14z m244 -370 c8 0 35 -17 60 -37 24 -21 44 -45 44
-55 0 -10 -3 -19 -7 -19 -5 -1 -21 -4 -38 -6 -16 -2 -43 -5 -60 -6 -29 -2 -30
-1 -27 38 1 22 5 50 7 63 3 12 12 22 21 22z"/>
</g>
</svg>
