<?xml version="1.0" standalone="no"?>
<!DOCTYPE svg PUBLIC "-//W3C//DTD SVG 20010904//EN"
 "http://www.w3.org/TR/2001/REC-SVG-20010904/DTD/svg10.dtd">
<svg version="1.0" xmlns="http://www.w3.org/2000/svg"
 width="128.000000pt" height="128.000000pt" viewBox="0 0 128.000000 128.000000"
 preserveAspectRatio="xMidYMid meet">
<metadata>
Created by potrace 1.16, written by Peter Selinger 2001-2019
</metadata>
<g transform="translate(0.000000,128.000000) scale(0.100000,-0.100000)"
fill="#000000" stroke="none">
<path d="M372 1246 c-40 6 -42 6 -42 -20 0 -20 9 -32 35 -47 19 -12 35 -22 35
-23 0 -2 -14 -30 -30 -63 -17 -34 -37 -66 -44 -73 -8 -6 -17 -34 -21 -62 -4
-27 -15 -58 -25 -68 -10 -10 -20 -29 -22 -42 -2 -12 -17 -32 -35 -43 -18 -11
-35 -29 -39 -40 -4 -11 -19 -38 -35 -59 -16 -22 -29 -47 -29 -56 0 -9 10 -26
23 -38 13 -12 27 -22 31 -22 4 0 21 9 36 20 19 14 30 31 32 51 3 30 5 31 54
35 41 3 54 0 68 -15 13 -14 15 -24 8 -38 -6 -10 -20 -46 -31 -80 -12 -34 -21
-72 -21 -83 0 -11 -7 -37 -16 -58 -9 -20 -18 -57 -20 -82 -3 -25 -6 -58 -7
-75 -2 -25 2 -31 21 -33 13 -2 29 2 37 8 8 6 23 39 34 73 11 34 23 80 26 102
3 22 18 78 32 125 14 47 36 108 49 135 13 28 27 66 30 85 4 19 10 40 14 45 5
6 20 40 35 78 15 37 38 76 51 86 13 10 33 41 45 67 11 27 27 52 34 57 8 4 24
25 36 47 13 22 30 40 39 40 9 0 21 -5 28 -12 7 -7 12 -20 12 -29 0 -9 -18 -33
-40 -53 -22 -20 -45 -36 -50 -36 -6 0 -10 -5 -10 -11 0 -6 -11 -24 -25 -41
-14 -16 -25 -35 -25 -42 0 -7 9 -21 19 -30 11 -10 41 -21 68 -25 42 -6 48 -10
46 -29 -2 -13 -31 -51 -65 -86 -35 -35 -73 -77 -86 -95 -17 -24 -20 -35 -13
-50 6 -10 23 -22 38 -26 24 -6 33 -1 59 29 17 20 38 36 47 36 9 0 21 8 26 18
6 12 31 23 68 31 32 7 68 18 80 23 12 6 29 8 38 4 13 -4 2 -19 -49 -68 -36
-35 -84 -79 -107 -98 -23 -19 -56 -43 -73 -54 -17 -10 -40 -28 -52 -40 -12
-11 -47 -36 -78 -54 -43 -25 -56 -39 -56 -57 0 -17 8 -26 31 -34 18 -6 39 -11
48 -11 9 0 35 9 56 20 22 11 47 19 55 18 8 -1 21 1 29 6 8 5 50 10 93 11 64 2
81 -1 85 -13 4 -9 -5 -25 -23 -40 -16 -14 -62 -56 -102 -93 -40 -38 -78 -69
-84 -69 -5 0 -32 -14 -59 -32 -27 -17 -49 -35 -49 -38 0 -4 -14 -13 -30 -20
-17 -7 -42 -26 -55 -42 -15 -17 -31 -28 -39 -25 -8 3 -20 -1 -28 -10 -12 -14
-4 -15 87 -11 83 5 101 8 110 24 5 10 24 32 40 49 17 16 41 37 54 45 13 8 47
33 75 54 28 22 55 46 59 53 4 7 14 13 22 13 8 0 29 13 47 29 18 16 49 37 68
48 26 15 34 26 32 41 -2 12 1 22 5 22 5 0 14 -5 20 -11 8 -8 17 -8 32 0 12 7
21 21 21 34 -1 12 -10 33 -21 46 -11 13 -22 21 -26 17 -4 -3 -16 0 -28 8 -11
7 -43 17 -70 20 -28 4 -69 8 -92 8 -24 0 -43 4 -43 9 0 4 5 20 12 34 6 14 15
25 20 25 5 0 35 18 66 40 31 23 65 55 76 71 12 20 19 50 20 87 1 54 0 57 -24
58 -14 0 -34 4 -45 9 -11 4 -30 17 -42 28 -13 11 -23 25 -23 30 0 6 6 18 14
26 8 9 18 32 24 52 6 24 6 42 -1 55 -6 10 -15 22 -21 26 -6 4 -16 2 -23 -3 -7
-6 -17 -8 -23 -4 -8 5 -7 12 3 23 8 10 17 25 20 35 4 9 13 17 22 17 9 0 15 9
15 21 0 11 -8 34 -17 50 -10 16 -24 29 -33 29 -9 0 -21 5 -27 11 -7 7 -47 13
-89 15 -60 3 -82 0 -95 -12 -9 -8 -22 -27 -29 -42 -6 -15 -29 -40 -51 -55 -32
-22 -49 -47 -80 -114 -22 -47 -43 -100 -46 -117 -4 -17 -19 -59 -34 -93 -16
-35 -31 -63 -34 -63 -3 0 -18 8 -33 17 -15 10 -30 22 -34 28 -4 5 -8 21 -8 35
0 14 11 45 25 69 14 23 25 50 25 59 0 9 8 25 19 36 10 12 25 43 34 69 9 27 14
61 10 78 -3 16 -14 34 -24 40 -11 5 -19 18 -19 29 0 10 -4 21 -8 24 -5 3 -28
8 -50 12z m449 -186 c10 0 20 -4 23 -9 4 -5 2 -21 -4 -36 -7 -19 -16 -26 -31
-23 -12 2 -27 11 -33 21 -9 15 -7 21 8 33 11 8 28 14 37 14z"/>
</g>
</svg>
