<?xml version="1.0" standalone="no"?>
<!DOCTYPE svg PUBLIC "-//W3C//DTD SVG 20010904//EN"
 "http://www.w3.org/TR/2001/REC-SVG-20010904/DTD/svg10.dtd">
<svg version="1.0" xmlns="http://www.w3.org/2000/svg"
 width="128.000000pt" height="128.000000pt" viewBox="0 0 128.000000 128.000000"
 preserveAspectRatio="xMidYMid meet">
<metadata>
Created by potrace 1.16, written by Peter Selinger 2001-2019
</metadata>
<g transform="translate(0.000000,128.000000) scale(0.100000,-0.100000)"
fill="#000000" stroke="none">
<path d="M565 1110 c-7 0 -16 -7 -19 -16 -3 -9 -6 -33 -6 -54 0 -21 -5 -42
-10 -45 -6 -4 -48 -8 -93 -10 -63 -3 -90 0 -115 13 -27 14 -34 15 -41 3 -6 -9
-1 -28 13 -54 11 -22 32 -49 46 -59 16 -11 51 -21 93 -25 55 -5 71 -10 82 -27
10 -16 11 -44 4 -127 -4 -58 -13 -118 -19 -133 -8 -22 -6 -37 10 -72 14 -34
17 -51 10 -70 -6 -14 -10 -33 -10 -43 0 -10 11 -30 24 -44 15 -16 31 -24 42
-20 11 2 37 30 59 60 22 31 68 86 103 122 35 36 76 82 92 101 15 19 31 49 34
67 4 18 15 35 25 38 9 3 25 18 34 35 10 16 25 30 33 30 8 0 18 -10 23 -22 5
-13 14 -43 20 -68 7 -25 17 -65 22 -90 6 -25 13 -62 16 -82 4 -32 0 -41 -38
-83 -24 -25 -63 -58 -88 -72 -25 -15 -55 -34 -66 -43 -11 -10 -51 -35 -90 -56
-38 -22 -81 -41 -95 -44 -14 -3 -26 -13 -28 -23 -2 -10 2 -24 8 -32 8 -10 31
-15 66 -15 35 0 67 7 91 20 21 11 52 20 71 20 18 0 50 11 71 25 22 13 42 29
45 34 4 5 20 12 36 16 17 4 60 31 96 61 37 30 71 54 76 54 6 0 20 12 32 27 11
15 26 36 33 48 7 11 15 26 19 32 3 8 -14 32 -42 59 -27 25 -68 59 -92 75 -23
17 -42 35 -43 42 -1 7 0 44 1 84 1 39 -1 81 -5 92 -4 12 -29 32 -61 47 -33 15
-62 23 -74 19 -11 -4 -41 -39 -67 -78 -26 -40 -55 -78 -65 -85 -10 -8 -44 -36
-75 -63 -34 -30 -66 -49 -81 -49 -22 0 -23 3 -16 28 4 15 7 38 7 52 0 14 -3
57 -6 97 -6 71 -6 71 30 99 32 24 39 26 68 16 17 -7 38 -12 47 -12 9 0 21 14
28 30 10 23 10 33 1 44 -7 8 -34 17 -61 21 -34 5 -63 17 -92 41 -24 19 -50 34
-59 34 -9 0 -22 7 -29 15 -7 8 -18 15 -25 15z"/>
<path d="M94 830 c-7 0 -15 -3 -16 -7 0 -5 -2 -42 -4 -83 -2 -41 -3 -102 -3
-135 0 -33 -6 -88 -14 -121 -8 -34 -12 -66 -8 -71 3 -5 27 -20 53 -33 25 -12
53 -20 62 -17 8 3 17 24 20 49 4 24 7 79 7 123 0 44 -1 96 -3 115 -2 19 -20
68 -41 108 -21 39 -45 72 -53 72z"/>
</g>
</svg>
