<?xml version="1.0" standalone="no"?>
<!DOCTYPE svg PUBLIC "-//W3C//DTD SVG 20010904//EN"
 "http://www.w3.org/TR/2001/REC-SVG-20010904/DTD/svg10.dtd">
<svg version="1.0" xmlns="http://www.w3.org/2000/svg"
 width="128.000000pt" height="128.000000pt" viewBox="0 0 128.000000 128.000000"
 preserveAspectRatio="xMidYMid meet">
<metadata>
Created by potrace 1.16, written by Peter Selinger 2001-2019
</metadata>
<g transform="translate(0.000000,128.000000) scale(0.100000,-0.100000)"
fill="#000000" stroke="none">
<path d="M689 1233 c-27 2 -56 -1 -71 -9 -14 -8 -31 -28 -37 -45 -6 -18 -12
-53 -12 -78 -1 -25 -4 -59 -8 -76 -5 -24 -11 -30 -36 -31 -17 -1 -57 -10 -90
-20 -33 -10 -71 -27 -85 -37 -14 -10 -44 -31 -67 -48 -24 -16 -59 -53 -78 -83
-25 -37 -35 -62 -33 -82 2 -24 -1 -30 -19 -32 -17 -2 -23 2 -24 15 0 10 -2 56
-4 103 -3 80 -5 86 -35 113 -19 17 -40 27 -53 25 -12 -2 -23 -10 -25 -20 -2
-9 6 -25 17 -35 16 -15 22 -39 29 -118 6 -62 5 -107 0 -119 -6 -10 -11 -89
-13 -176 -4 -152 -3 -160 25 -237 15 -45 39 -105 53 -135 14 -29 32 -59 40
-66 13 -11 19 -11 37 0 11 7 24 24 27 38 3 14 17 35 31 48 24 23 25 26 20 138
-3 71 -10 120 -18 129 -10 12 -11 39 -5 113 4 53 8 107 9 119 2 13 16 38 34
57 17 19 34 35 39 37 4 2 31 29 58 59 30 33 62 58 80 62 17 4 42 10 57 14 23
5 29 2 39 -19 8 -18 8 -30 0 -45 -6 -11 -11 -30 -11 -41 0 -12 6 -21 13 -21 6
0 20 -12 30 -26 11 -14 16 -28 13 -31 -3 -3 2 -12 12 -19 9 -7 25 -14 36 -14
16 0 17 -5 10 -37 -4 -21 -7 -48 -7 -60 1 -13 -5 -23 -12 -23 -7 0 -16 11 -19
24 -3 14 -3 31 0 39 3 9 -9 26 -32 45 -29 24 -36 36 -32 56 3 15 1 29 -3 32
-5 3 -11 -1 -14 -8 -3 -7 0 -36 6 -63 6 -28 11 -101 11 -163 -1 -94 2 -112 15
-112 8 0 20 13 26 29 9 26 12 27 22 14 11 -14 16 -13 46 8 19 13 45 33 57 44
13 11 33 37 43 58 13 25 23 75 30 149 7 81 15 120 29 143 11 18 20 40 20 49 0
9 -5 16 -10 16 -6 0 -20 -16 -31 -35 -12 -20 -29 -35 -40 -35 -12 0 -19 7 -19
19 0 13 -8 21 -22 23 -13 2 -24 11 -26 21 -2 10 -1 25 2 33 5 12 9 12 25 2 15
-9 26 -9 43 -1 13 6 35 15 50 21 14 6 29 8 32 5 3 -4 6 -14 6 -23 0 -13 7 -16
30 -12 22 3 32 0 36 -13 4 -9 1 -63 -6 -119 -8 -55 -20 -112 -27 -126 -7 -14
-13 -33 -13 -43 0 -11 9 -32 21 -48 11 -16 29 -29 39 -29 10 0 26 -7 34 -16 9
-8 16 -26 16 -38 0 -14 -14 -34 -38 -52 -20 -16 -50 -38 -67 -48 -16 -11 -36
-28 -43 -38 -7 -10 -45 -33 -85 -52 -40 -18 -87 -39 -105 -46 -18 -7 -31 -18
-29 -24 2 -7 41 -12 103 -14 54 -1 108 1 119 6 11 6 47 14 80 20 33 6 78 15
100 20 22 5 57 16 79 25 21 10 47 17 57 17 11 0 19 4 19 9 0 4 14 25 30 46 17
21 30 46 30 57 0 10 7 21 15 24 11 5 15 21 15 60 0 30 -4 54 -8 54 -5 0 -16
16 -25 35 -9 20 -17 41 -17 48 0 8 -12 25 -27 40 -16 14 -46 32 -67 39 -29 9
-42 21 -49 41 -8 23 -5 34 12 58 15 20 21 43 21 81 0 29 -4 58 -8 64 -4 6 -26
21 -50 33 -31 16 -52 20 -77 15 -31 -5 -35 -4 -35 15 0 12 7 38 15 58 8 19 15
39 15 43 0 4 -17 19 -38 34 -21 14 -46 26 -56 26 -9 0 -32 11 -49 24 -18 13
-48 28 -67 34 -19 6 -56 12 -81 15z m113 -130 c10 -9 18 -20 18 -25 0 -4 -11
-8 -25 -8 -18 0 -25 5 -25 18 0 10 3 22 7 25 3 4 15 0 25 -10z m-72 -38 c5 -3
10 -15 10 -26 0 -10 -4 -19 -9 -19 -6 0 -13 5 -16 10 -4 6 -4 18 -1 26 3 8 10
12 16 9z m-108 -47 c12 -2 23 -7 25 -13 1 -5 -1 -16 -6 -24 -8 -12 -12 -12
-25 -2 -9 8 -16 20 -16 28 0 9 8 13 22 11z m144 2 c9 0 14 -7 12 -17 -2 -9 -9
-18 -15 -21 -8 -2 -13 5 -13 17 0 12 6 21 16 21z m-175 -91 c11 -6 19 -18 17
-26 -2 -9 -8 -18 -15 -20 -6 -2 -17 5 -23 17 -6 11 -8 25 -5 30 4 7 13 6 26
-1z m53 11 c2 0 11 -9 20 -19 10 -11 13 -21 7 -25 -5 -3 -17 1 -25 10 -9 8
-14 20 -11 25 4 5 7 9 9 9z m-200 -20 c8 0 28 -3 45 -6 17 -4 31 -10 31 -14 0
-4 -17 -10 -37 -13 -21 -4 -42 -2 -50 4 -7 6 -10 15 -7 20 3 5 11 9 18 9z
m202 -70 c6 0 17 -7 24 -15 10 -13 7 -17 -23 -30 -20 -8 -39 -15 -42 -15 -3 0
-5 9 -5 20 0 10 8 24 18 29 9 6 22 11 28 11z m-405 -132 c6 -2 11 -8 11 -13 0
-5 -5 -11 -11 -13 -6 -2 -11 4 -11 13 0 9 5 15 11 13z m869 -63 c5 -3 10 -20
10 -36 0 -20 -4 -29 -12 -27 -7 3 -15 12 -16 22 -2 9 -1 24 2 32 3 8 10 12 16
9z m-119 -25 c5 0 9 -6 9 -14 0 -8 -4 -17 -9 -21 -5 -3 -12 -1 -16 5 -3 5 -3
15 0 20 3 6 10 10 16 10z m-271 -30 c6 0 10 -9 10 -21 0 -11 -4 -17 -10 -14
-5 3 -10 13 -10 21 0 8 5 14 10 14z m287 -21 c6 1 14 -3 17 -8 3 -4 -5 -13
-18 -19 -19 -8 -25 -8 -30 3 -3 8 0 16 7 19 7 2 17 5 24 5z m77 1 c7 0 16 -9
19 -19 3 -11 2 -22 -1 -25 -3 -3 -11 -6 -19 -6 -7 0 -13 11 -13 25 0 15 6 25
14 25z m72 -10 c7 0 19 -3 28 -6 9 -3 16 -12 16 -20 0 -8 -7 -14 -15 -14 -8 0
-15 6 -16 13 0 10 -2 10 -6 0 -2 -7 -11 -13 -19 -13 -8 0 -14 6 -14 13 0 8 3
17 7 20 3 4 12 7 19 7z m-104 -18 c6 -6 8 -18 4 -28 -5 -13 -10 -14 -18 -6 -6
6 -8 18 -4 28 5 13 10 14 18 6z m-916 -62 c8 0 14 -6 14 -14 0 -8 -5 -18 -11
-22 -6 -3 -15 -2 -21 4 -6 6 -7 15 -4 21 4 6 14 11 22 11z m1056 -8 c6 -6 8
-19 4 -29 -7 -17 -8 -17 -17 0 -6 9 -7 22 -3 28 4 7 10 7 16 1z m-82 -18 c4
-5 10 -18 12 -29 2 -13 12 -21 31 -23 15 -2 27 -9 27 -16 0 -7 -5 -27 -11 -43
-7 -22 -18 -32 -37 -36 -15 -3 -32 -1 -39 5 -8 6 -28 6 -60 0 -35 -8 -50 -8
-55 1 -4 7 -6 16 -5 22 2 5 14 12 27 15 13 3 26 12 28 19 3 10 0 12 -12 8 -9
-4 -16 -2 -16 3 0 5 9 15 21 23 11 8 29 13 40 10 10 -3 19 -12 19 -19 0 -8 -4
-14 -8 -14 -5 0 -14 -11 -20 -25 -11 -25 -11 -25 11 -13 12 6 32 11 45 9 15
-2 22 3 22 14 0 10 -11 26 -25 37 -21 16 -23 23 -14 40 6 11 14 16 19 12z
m-999 -24 c10 0 20 -4 24 -9 3 -5 -8 -16 -25 -24 -18 -9 -32 -12 -36 -6 -3 6
0 16 6 24 7 8 21 15 31 15z m32 -51 c5 0 17 -4 28 -9 10 -6 19 -19 19 -29 0
-11 -7 -21 -15 -25 -8 -3 -15 -14 -15 -25 0 -11 -9 -25 -20 -31 -16 -9 -22 -8
-26 5 -4 8 -2 21 4 28 7 8 7 17 -1 28 -7 9 -25 19 -41 23 -15 4 -26 10 -22 13
3 3 23 9 43 13 21 4 42 8 46 9z m77 -89 c5 0 12 -4 15 -10 3 -5 3 -15 0 -20
-5 -8 -11 -7 -21 1 -7 6 -11 15 -8 20 3 5 9 9 14 9z m808 0 c6 0 12 -9 12 -19
0 -11 -5 -23 -11 -27 -6 -3 -18 1 -27 10 -15 15 -15 18 -2 26 8 5 21 10 28 10z"/>
<path d="M1105 1220 c-8 0 -15 -7 -15 -15 0 -8 7 -15 15 -15 8 0 15 7 15 15 0
8 -7 15 -15 15z"/>
<path d="M1153 1131 c-4 4 -14 5 -21 0 -10 -6 -11 -17 -5 -42 5 -19 13 -34 19
-34 5 0 10 15 12 34 2 18 0 37 -5 42z"/>
</g>
</svg>
