<?xml version="1.0" standalone="no"?>
<!DOCTYPE svg PUBLIC "-//W3C//DTD SVG 20010904//EN"
 "http://www.w3.org/TR/2001/REC-SVG-20010904/DTD/svg10.dtd">
<svg version="1.0" xmlns="http://www.w3.org/2000/svg"
 width="128.000000pt" height="128.000000pt" viewBox="0 0 128.000000 128.000000"
 preserveAspectRatio="xMidYMid meet">
<metadata>
Created by potrace 1.16, written by Peter Selinger 2001-2019
</metadata>
<g transform="translate(0.000000,128.000000) scale(0.100000,-0.100000)"
fill="#000000" stroke="none">
<path d="M591 1280 c-17 0 -31 -5 -31 -10 0 -6 -11 -15 -25 -20 -14 -5 -25
-14 -25 -20 0 -6 11 -16 25 -22 19 -8 25 -19 25 -42 0 -17 4 -37 9 -45 5 -8 7
-20 4 -28 -3 -7 -15 -13 -27 -13 -12 0 -32 -7 -44 -16 -13 -9 -44 -19 -70 -23
-38 -5 -47 -10 -47 -26 0 -13 9 -22 30 -27 17 -4 51 -10 78 -13 36 -5 47 -10
47 -24 0 -10 -18 -39 -40 -64 -22 -25 -50 -47 -62 -49 -11 -2 -26 -10 -31 -20
-8 -12 -7 -21 3 -33 10 -13 24 -16 50 -12 19 3 45 9 58 13 20 6 22 3 22 -26 0
-18 -5 -50 -11 -70 -10 -33 -9 -41 12 -69 14 -19 32 -31 46 -31 17 0 31 12 51
43 15 24 58 74 96 111 49 49 71 65 79 57 7 -7 11 -56 11 -123 0 -62 -2 -198
-5 -303 -3 -104 -4 -232 -1 -283 5 -92 5 -92 34 -92 20 0 31 7 38 23 6 12 16
54 23 92 8 46 9 97 4 150 -4 44 -8 94 -8 110 0 17 0 55 2 85 1 30 2 73 1 95
-1 22 1 63 4 90 4 28 11 56 16 62 6 7 27 17 47 23 20 5 53 25 74 44 20 18 37
42 37 53 0 12 11 25 26 31 21 10 25 18 22 49 -2 29 -10 42 -36 59 -19 13 -41
20 -53 17 -13 -4 -19 -11 -16 -22 3 -9 11 -30 18 -48 9 -23 10 -40 3 -60 -5
-15 -18 -30 -29 -32 -11 -2 -33 -14 -48 -27 -22 -19 -33 -22 -47 -14 -11 6
-26 20 -34 32 -9 12 -16 30 -16 39 0 9 6 22 14 28 8 7 36 18 63 24 47 12 48
13 50 50 1 39 1 39 -35 32 -24 -4 -51 -21 -76 -46 -22 -21 -48 -39 -58 -39
-11 0 -33 -10 -49 -22 -16 -13 -52 -42 -80 -65 -27 -24 -56 -43 -63 -43 -8 0
-17 7 -20 16 -3 9 -6 35 -6 59 0 24 5 47 11 50 5 4 33 8 61 10 39 2 56 8 70
25 10 12 18 25 18 29 0 3 -4 12 -9 20 -8 12 -14 13 -36 3 -15 -7 -31 -10 -36
-7 -5 4 -9 14 -9 24 0 9 4 21 9 26 6 6 13 29 17 52 6 39 4 42 -24 57 -16 8
-32 23 -36 31 -3 9 -6 31 -6 48 0 18 -7 40 -14 50 -8 10 -26 17 -45 17z m50
-202 c6 -2 11 -8 11 -13 0 -5 -5 -11 -11 -13 -6 -2 -11 4 -11 13 0 9 5 15 11
13z"/>
<path d="M206 1030 c-6 0 -17 -5 -24 -12 -7 -7 -12 -18 -12 -25 0 -7 9 -28 20
-47 10 -20 28 -44 40 -56 11 -11 20 -28 20 -38 0 -10 -5 -23 -11 -29 -7 -7 -9
-18 -6 -27 5 -13 12 -13 54 0 26 8 57 23 68 34 19 20 19 20 0 56 -10 19 -45
60 -78 90 -32 30 -64 54 -71 54z"/>
<path d="M250 680 c-15 11 -30 17 -34 13 -3 -3 -6 -43 -6 -87 0 -64 -6 -94
-26 -141 -14 -33 -30 -73 -35 -90 -5 -16 -10 -47 -11 -68 0 -20 5 -43 11 -51
7 -8 20 -12 30 -9 10 3 32 19 49 36 23 25 33 49 45 112 9 44 21 103 27 130 6
28 8 64 4 80 -3 17 -11 36 -17 43 -6 7 -22 22 -37 32z"/>
</g>
</svg>
