<?xml version="1.0" standalone="no"?>
<!DOCTYPE svg PUBLIC "-//W3C//DTD SVG 20010904//EN"
 "http://www.w3.org/TR/2001/REC-SVG-20010904/DTD/svg10.dtd">
<svg version="1.0" xmlns="http://www.w3.org/2000/svg"
 width="128.000000pt" height="128.000000pt" viewBox="0 0 128.000000 128.000000"
 preserveAspectRatio="xMidYMid meet">
<metadata>
Created by potrace 1.16, written by Peter Selinger 2001-2019
</metadata>
<g transform="translate(0.000000,128.000000) scale(0.100000,-0.100000)"
fill="#000000" stroke="none">
<path d="M612 1280 c-4 0 -21 -16 -37 -35 -17 -20 -43 -43 -60 -52 -16 -9 -49
-36 -73 -61 -38 -40 -42 -48 -36 -78 5 -26 2 -35 -10 -40 -10 -4 -35 1 -56 11
-24 11 -44 29 -53 49 -8 17 -16 36 -18 41 -3 6 -15 27 -28 48 -13 21 -31 37
-42 37 -10 0 -28 -10 -39 -22 -11 -13 -23 -32 -25 -43 -2 -11 -12 -58 -21
-105 -10 -47 -18 -104 -19 -126 -2 -23 -7 -57 -13 -75 -6 -19 -16 -86 -21
-149 -5 -63 -7 -134 -4 -156 3 -25 1 -44 -6 -48 -6 -4 -11 -31 -11 -61 0 -41
8 -68 34 -117 18 -35 37 -78 40 -95 4 -17 13 -37 21 -43 10 -8 17 -7 29 5 9 9
16 30 16 48 0 18 9 40 22 54 18 20 22 37 24 101 1 42 6 115 11 162 6 47 15
101 21 120 6 19 20 65 31 103 12 37 21 73 21 80 0 6 12 20 28 30 15 9 56 32
92 51 42 22 77 49 99 77 18 24 41 44 50 44 13 0 18 -16 24 -75 5 -41 9 -84 9
-95 0 -11 -5 -52 -12 -92 -11 -62 -10 -76 4 -104 15 -31 15 -34 -5 -55 -11
-12 -23 -40 -26 -62 -3 -21 -1 -48 5 -58 7 -14 7 -32 -1 -61 -9 -33 -7 -47 7
-79 9 -22 26 -55 36 -75 19 -35 19 -36 -1 -68 -11 -18 -42 -55 -69 -82 -37
-37 -50 -57 -50 -79 0 -20 -5 -30 -14 -30 -8 0 -18 -4 -21 -10 -4 -6 28 -10
90 -10 68 0 97 4 99 13 2 6 7 26 13 42 8 26 13 30 41 27 26 -3 38 2 53 22 11
14 26 26 33 26 8 0 34 12 60 26 25 14 46 32 46 40 0 7 9 18 19 24 11 5 30 10
44 10 13 0 41 15 63 33 21 18 50 41 64 50 13 9 34 17 46 17 12 0 33 9 48 21
14 11 33 33 40 48 8 15 18 54 21 87 7 60 7 60 -49 125 -34 39 -56 73 -56 88 0
13 11 49 24 80 13 31 28 76 34 101 7 28 7 51 1 62 -6 12 -6 25 1 39 8 14 8 29
1 50 -6 17 -25 52 -42 79 -26 41 -39 51 -68 55 -20 4 -51 13 -69 21 -18 8 -39
14 -46 14 -8 0 -16 -6 -19 -14 -3 -8 -30 -29 -60 -47 -48 -28 -56 -38 -63 -73
-7 -32 -14 -42 -32 -44 -20 -3 -23 0 -22 25 1 15 2 35 1 43 -1 9 -24 47 -51
85 -28 38 -64 77 -81 87 -16 10 -33 18 -37 18z m355 -210 c13 0 38 -7 55 -16
17 -9 52 -20 77 -24 43 -7 44 -8 11 -9 -20 0 -46 -8 -58 -17 -18 -12 -22 -25
-22 -63 0 -27 -7 -68 -15 -92 -9 -24 -14 -48 -11 -55 2 -6 0 -16 -6 -22 -6 -6
-21 -37 -34 -69 -13 -32 -24 -64 -24 -71 0 -8 9 -27 21 -43 17 -25 20 -38 14
-75 -4 -28 -13 -48 -25 -54 -11 -6 -43 -35 -72 -66 -29 -31 -58 -70 -64 -87
-6 -18 -23 -38 -38 -46 -26 -12 -30 -11 -49 8 -19 19 -20 24 -8 57 7 21 14 60
15 88 1 28 5 56 9 62 4 7 -4 19 -18 28 -14 9 -25 23 -25 31 0 9 11 20 25 25
19 7 25 17 25 38 0 16 5 42 10 58 6 16 15 61 21 99 5 39 10 84 10 100 -1 17 6
44 14 61 8 18 24 34 35 37 15 4 20 13 20 36 0 21 6 34 18 38 9 4 28 15 41 25
13 10 35 18 48 18z m-744 -153 c7 -2 13 -11 15 -19 2 -9 -4 -18 -13 -22 -9 -3
-21 -4 -26 0 -5 3 -5 13 2 25 6 11 16 18 22 16z m454 -727 c7 0 19 -11 25 -25
8 -18 8 -29 1 -36 -8 -8 -17 -8 -32 0 -12 7 -21 20 -21 30 0 10 3 21 7 24 3 4
12 7 20 7z"/>
</g>
</svg>
