<?xml version="1.0" standalone="no"?>
<!DOCTYPE svg PUBLIC "-//W3C//DTD SVG 20010904//EN"
 "http://www.w3.org/TR/2001/REC-SVG-20010904/DTD/svg10.dtd">
<svg version="1.0" xmlns="http://www.w3.org/2000/svg"
 width="128.000000pt" height="128.000000pt" viewBox="0 0 128.000000 128.000000"
 preserveAspectRatio="xMidYMid meet">
<metadata>
Created by potrace 1.16, written by Peter Selinger 2001-2019
</metadata>
<g transform="translate(0.000000,128.000000) scale(0.100000,-0.100000)"
fill="#000000" stroke="none">
<path d="M130 1280 c-5 0 -10 -9 -10 -20 0 -11 5 -20 10 -20 6 0 10 9 10 20 0
11 -4 20 -10 20z"/>
<path d="M596 1280 c-16 0 -18 -5 -12 -54 7 -50 5 -55 -20 -75 -15 -11 -34
-21 -43 -21 -10 0 -25 -6 -34 -12 -9 -8 -13 -18 -9 -25 5 -9 20 -9 55 -1 26 5
54 7 62 4 8 -3 15 -13 15 -22 0 -9 -13 -28 -30 -42 -16 -14 -55 -36 -87 -48
-55 -21 -57 -22 -33 -32 18 -6 36 -5 64 4 22 8 41 13 43 11 1 -2 4 -46 5 -98
3 -86 5 -94 23 -97 14 -2 43 18 88 61 37 36 78 67 92 69 14 3 29 0 34 -6 5 -6
12 -51 16 -101 4 -49 11 -108 15 -130 5 -22 10 -62 11 -90 1 -27 4 -54 6 -58
3 -4 18 9 35 30 27 35 29 43 23 88 -3 27 -8 92 -11 145 -2 52 -11 119 -20 148
-15 46 -15 55 -3 67 8 7 31 20 51 28 28 12 39 13 46 4 5 -7 13 -22 16 -34 5
-14 -1 -37 -14 -64 -18 -34 -19 -43 -8 -50 7 -5 27 -6 43 -3 17 3 47 12 67 21
20 8 39 22 43 31 3 8 3 30 -1 48 -4 21 -21 47 -48 72 -34 31 -52 40 -95 45
-38 5 -62 2 -82 -9 -16 -8 -29 -19 -29 -23 0 -5 -40 -37 -90 -70 -49 -34 -94
-61 -99 -61 -5 0 -13 9 -16 20 -4 12 -4 39 0 60 5 30 17 48 48 74 38 32 40 35
29 62 -7 16 -29 38 -50 49 -20 11 -46 34 -57 52 -11 18 -28 32 -39 33z"/>
<path d="M1137 1248 c-9 2 -20 -4 -23 -12 -3 -9 -4 -30 -2 -46 3 -17 1 -30 -4
-30 -4 0 -8 -7 -8 -16 0 -9 7 -14 18 -12 10 2 16 11 14 22 -2 10 4 26 13 36 9
10 15 27 13 37 -2 10 -11 19 -21 21z"/>
<path d="M303 1180 c-7 0 -16 -6 -19 -14 -3 -8 -4 -20 -3 -27 2 -8 -1 -34 -5
-59 -5 -25 -17 -71 -27 -102 -12 -35 -19 -86 -19 -130 0 -40 -7 -108 -14 -151
-8 -42 -26 -101 -41 -131 -27 -53 -27 -53 0 -95 16 -23 36 -41 46 -41 10 0 25
13 33 28 8 16 22 58 31 93 9 35 20 84 26 109 5 25 10 92 10 150 0 58 -1 115
-1 128 -1 13 0 26 3 29 4 3 21 8 39 12 28 6 33 12 36 37 2 19 -7 50 -23 80
-14 26 -33 56 -42 66 -9 10 -22 18 -30 18z"/>
<path d="M1135 1100 c-8 0 -16 -4 -19 -9 -3 -5 1 -14 10 -21 10 -9 18 -10 26
-2 5 5 7 15 4 21 -4 6 -13 11 -21 11z"/>
<path d="M911 510 c-4 0 -17 -14 -30 -31 -20 -26 -22 -38 -17 -87 3 -31 7 -97
7 -147 1 -50 1 -100 0 -112 -1 -17 -7 -23 -26 -23 -14 0 -25 -6 -25 -13 0 -7
20 -32 44 -56 31 -31 50 -42 67 -39 22 3 24 7 22 63 -1 33 -4 78 -6 100 -3 22
-8 101 -11 175 -3 74 -9 142 -12 152 -3 10 -9 18 -13 18z"/>
<path d="M472 49 c-20 0 -54 -8 -74 -18 -21 -10 -41 -21 -45 -24 -3 -4 42 -7
100 -7 89 0 107 3 107 15 0 9 -12 20 -26 25 -14 6 -42 10 -62 9z"/>
</g>
</svg>
