<?xml version="1.0" standalone="no"?>
<!DOCTYPE svg PUBLIC "-//W3C//DTD SVG 20010904//EN"
 "http://www.w3.org/TR/2001/REC-SVG-20010904/DTD/svg10.dtd">
<svg version="1.0" xmlns="http://www.w3.org/2000/svg"
 width="128.000000pt" height="128.000000pt" viewBox="0 0 128.000000 128.000000"
 preserveAspectRatio="xMidYMid meet">
<metadata>
Created by potrace 1.16, written by Peter Selinger 2001-2019
</metadata>
<g transform="translate(0.000000,128.000000) scale(0.100000,-0.100000)"
fill="#000000" stroke="none">
<path d="M541 1260 c-12 0 -23 -11 -30 -31 -6 -18 -11 -61 -11 -96 0 -56 -2
-64 -22 -72 -13 -5 -68 -23 -123 -39 -55 -16 -126 -35 -157 -41 -46 -10 -62
-10 -82 1 -14 7 -35 28 -48 47 -13 19 -29 36 -36 39 -11 3 -12 -14 -7 -89 4
-52 8 -195 9 -319 1 -225 1 -225 29 -268 15 -23 32 -42 37 -42 6 0 10 -11 10
-24 0 -14 -4 -28 -10 -31 -5 -3 -10 -17 -10 -29 0 -13 7 -29 15 -36 8 -7 15
-20 15 -30 0 -10 17 -47 37 -84 22 -39 50 -75 69 -87 17 -10 39 -19 48 -19 9
0 37 19 61 41 40 37 45 46 45 86 0 24 -7 60 -15 80 -8 20 -21 41 -29 47 -7 6
-34 51 -60 99 -25 49 -46 95 -46 103 0 8 -6 25 -14 37 -8 12 -19 47 -25 78 -5
31 -19 81 -29 111 -16 46 -18 65 -10 109 7 45 16 61 50 92 23 20 58 41 77 46
20 5 70 17 112 26 42 10 88 15 103 11 25 -6 26 -9 26 -73 0 -37 -4 -80 -10
-97 -5 -17 -22 -70 -38 -118 -26 -77 -28 -93 -20 -145 5 -32 17 -69 27 -83 10
-14 28 -26 40 -28 12 -2 38 4 57 13 20 9 43 29 52 45 10 15 23 56 30 91 8 35
32 111 55 169 22 58 55 130 73 160 18 30 44 68 57 85 24 29 25 29 51 12 24
-16 26 -23 26 -91 0 -40 -5 -88 -11 -107 -7 -19 -17 -41 -24 -49 -7 -8 -13
-24 -14 -35 -1 -11 -2 -43 -2 -71 0 -29 6 -66 15 -82 9 -17 16 -47 16 -67 0
-26 -8 -43 -28 -63 -16 -15 -46 -42 -67 -60 -21 -18 -76 -51 -122 -73 -46 -22
-87 -47 -90 -55 -3 -9 -1 -20 4 -25 5 -5 49 -5 113 1 58 5 130 14 160 19 30 5
86 14 123 19 38 6 92 22 122 37 29 15 71 45 93 65 30 30 41 49 46 84 6 35 2
56 -13 91 -16 36 -29 49 -63 64 -24 10 -58 33 -75 51 -18 18 -33 41 -33 52 0
11 15 46 34 77 19 31 37 68 41 82 4 17 -3 48 -20 91 -15 38 -37 73 -53 85 -15
11 -41 27 -59 36 -18 10 -55 17 -87 17 -52 0 -57 -3 -126 -60 -39 -33 -75 -60
-79 -60 -4 0 -15 6 -26 13 -13 10 -16 21 -11 40 3 15 16 32 29 38 12 7 47 32
77 57 30 24 59 51 64 60 6 11 3 20 -12 32 -18 15 -36 17 -111 12 -69 -4 -99
-1 -131 12 -22 9 -49 16 -59 16z m503 -730 c7 0 21 -9 30 -19 14 -15 15 -24 6
-40 -6 -12 -20 -21 -31 -21 -11 0 -22 7 -25 15 -4 8 -3 26 0 40 4 14 12 25 20
25z m-878 -30 c2 0 4 -10 4 -22 0 -16 -3 -19 -11 -11 -6 6 -8 16 -5 22 4 6 9
11 12 11z m7 -102 c6 -3 13 -12 15 -21 2 -10 -3 -17 -12 -17 -10 0 -16 9 -16
21 0 12 5 19 13 17z"/>
</g>
</svg>
