<?xml version="1.0" standalone="no"?>
<!DOCTYPE svg PUBLIC "-//W3C//DTD SVG 20010904//EN"
 "http://www.w3.org/TR/2001/REC-SVG-20010904/DTD/svg10.dtd">
<svg version="1.0" xmlns="http://www.w3.org/2000/svg"
 width="56.000000pt" height="56.000000pt" viewBox="0 0 56.000000 56.000000"
 preserveAspectRatio="xMidYMid meet">
<metadata>
Created by potrace 1.16, written by Peter Selinger 2001-2019
</metadata>
<g transform="translate(0.000000,56.000000) scale(0.100000,-0.100000)"
fill="#000000" stroke="none">
<path d="M221 540 c-9 0 -45 -14 -79 -31 -34 -18 -62 -37 -62 -45 0 -7 8 -15
18 -18 9 -3 34 -22 55 -41 21 -19 35 -40 31 -46 -3 -6 -27 -21 -53 -32 -25
-12 -50 -21 -56 -21 -5 -1 -23 -10 -40 -20 -17 -11 -32 -21 -33 -22 -2 -1 -1
-12 3 -23 3 -12 13 -28 21 -36 13 -13 19 -13 42 -1 15 8 36 24 47 36 11 12 47
37 81 56 33 19 67 34 75 34 8 0 31 -15 52 -33 21 -18 34 -36 30 -43 -5 -5 -44
-18 -88 -27 -44 -10 -108 -31 -142 -47 -43 -20 -63 -36 -63 -48 0 -10 15 -32
33 -49 17 -16 53 -36 79 -43 26 -7 62 -10 80 -6 19 3 48 20 66 36 18 17 37 30
43 30 5 0 9 4 9 9 0 5 12 17 27 26 15 10 42 18 61 17 19 -1 40 -6 48 -13 7 -6
22 -8 34 -4 11 3 20 13 20 21 0 8 -10 26 -22 39 -17 18 -36 25 -73 27 -49 3
-50 4 -52 37 -1 19 -10 46 -21 60 -10 14 -34 29 -53 32 -22 5 -46 22 -69 48
-30 35 -41 41 -75 41 -40 0 -40 0 -2 35 21 19 44 35 52 35 8 0 16 4 19 9 3 5
-1 12 -10 15 -9 3 -23 6 -33 6z m94 -365 c6 -1 10 -8 10 -16 0 -8 -22 -26 -50
-41 -27 -15 -65 -29 -83 -33 -27 -5 -39 -2 -58 16 -24 23 -24 23 33 39 32 10
76 22 98 27 22 6 45 9 50 8z"/>
</g>
</svg>
