<?xml version="1.0" standalone="no"?>
<!DOCTYPE svg PUBLIC "-//W3C//DTD SVG 20010904//EN"
 "http://www.w3.org/TR/2001/REC-SVG-20010904/DTD/svg10.dtd">
<svg version="1.0" xmlns="http://www.w3.org/2000/svg"
 width="56.000000pt" height="56.000000pt" viewBox="0 0 56.000000 56.000000"
 preserveAspectRatio="xMidYMid meet">
<metadata>
Created by potrace 1.16, written by Peter Selinger 2001-2019
</metadata>
<g transform="translate(0.000000,56.000000) scale(0.100000,-0.100000)"
fill="#000000" stroke="none">
<path d="M388 539 c-15 1 -30 -4 -34 -11 -4 -6 2 -19 14 -28 21 -17 21 -17
-10 -46 -17 -16 -36 -43 -44 -60 -7 -17 -18 -69 -25 -116 -12 -85 -12 -85 -66
-108 -36 -15 -61 -33 -74 -53 -13 -23 -15 -34 -7 -44 7 -9 23 -11 47 -7 20 3
46 12 58 20 12 8 29 14 38 14 8 0 15 -6 15 -13 0 -7 -14 -29 -31 -50 -17 -20
-25 -37 -19 -37 7 0 34 18 61 41 43 36 49 46 49 79 0 21 -6 43 -14 49 -11 10
-13 33 -9 109 3 53 11 106 17 116 7 10 43 35 82 55 39 20 69 43 69 51 0 9 -17
19 -45 27 -25 6 -57 12 -72 12z"/>
<path d="M125 520 c-13 0 -26 -4 -30 -9 -3 -5 -1 -12 5 -16 5 -3 10 -12 10
-20 0 -7 -12 -16 -27 -20 -28 -7 -28 -7 0 -27 27 -20 27 -20 27 -148 0 -71 4
-131 9 -134 5 -4 16 -3 25 0 9 3 16 15 16 26 0 11 5 28 10 38 6 11 12 60 13
111 3 90 4 92 36 118 30 24 32 30 22 49 -6 12 -16 22 -22 22 -6 0 -20 -5 -31
-11 -17 -9 -23 -8 -30 5 -5 9 -20 16 -33 16z"/>
</g>
</svg>
