<?xml version="1.0" standalone="no"?>
<!DOCTYPE svg PUBLIC "-//W3C//DTD SVG 20010904//EN"
 "http://www.w3.org/TR/2001/REC-SVG-20010904/DTD/svg10.dtd">
<svg version="1.0" xmlns="http://www.w3.org/2000/svg"
 width="56.000000pt" height="56.000000pt" viewBox="0 0 56.000000 56.000000"
 preserveAspectRatio="xMidYMid meet">
<metadata>
Created by potrace 1.16, written by Peter Selinger 2001-2019
</metadata>
<g transform="translate(0.000000,56.000000) scale(0.100000,-0.100000)"
fill="#000000" stroke="none">
<path d="M94 560 c-14 0 -15 -7 -9 -47 4 -27 14 -56 22 -65 9 -10 21 -18 26
-18 6 0 18 7 28 16 10 9 23 13 28 9 6 -3 11 -39 11 -81 0 -64 -2 -74 -17 -74
-10 0 -25 15 -33 33 -9 20 -24 33 -37 35 -15 2 -23 -2 -23 -11 0 -8 7 -20 15
-27 8 -7 15 -28 15 -47 0 -21 -10 -47 -25 -68 -14 -18 -36 -36 -49 -39 -12 -3
-28 -17 -34 -31 -7 -14 -12 -30 -12 -35 0 -6 16 -28 36 -50 22 -24 45 -40 59
-40 12 0 30 10 38 22 16 23 16 23 44 -10 15 -18 33 -32 39 -32 6 0 19 9 28 19
12 13 15 27 11 41 -4 12 -7 69 -6 127 0 75 4 111 15 127 8 11 31 39 51 60 20
21 48 56 62 78 17 25 30 35 36 29 6 -6 3 -26 -8 -55 -14 -37 -15 -49 -5 -61 7
-9 21 -13 31 -10 11 4 28 3 39 0 15 -5 20 -15 20 -45 0 -29 -12 -56 -51 -114
-28 -42 -48 -83 -46 -91 3 -7 16 -15 29 -17 17 -2 23 -9 22 -28 -1 -14 -4 -33
-9 -43 -6 -14 -2 -17 28 -17 34 0 36 2 46 47 9 43 7 50 -11 70 -21 22 -21 22
6 63 15 22 29 54 33 70 3 17 9 30 14 30 5 0 9 11 9 24 0 13 -8 38 -17 54 -9
16 -30 34 -46 40 -28 11 -29 14 -23 53 5 30 2 48 -9 65 -11 18 -25 24 -50 24
-25 0 -35 -5 -40 -20 -3 -11 -26 -45 -51 -75 -25 -30 -49 -55 -55 -55 -5 0 -9
29 -9 64 0 43 -5 67 -15 76 -8 7 -24 9 -37 5 -13 -4 -33 -16 -45 -27 -12 -11
-26 -17 -31 -14 -5 3 -12 19 -15 36 -4 19 -13 30 -23 30z m91 -310 c8 0 14
-17 17 -44 1 -25 1 -55 -2 -68 -3 -12 -14 -24 -23 -26 -13 -3 -17 4 -17 30 0
18 3 50 6 71 4 20 12 37 19 37z m-84 -82 c6 -2 10 -6 10 -8 0 -3 -3 -24 -7
-47 -4 -26 -12 -43 -20 -43 -8 0 -16 11 -20 25 -4 16 0 35 11 51 9 14 21 24
26 22z"/>
</g>
</svg>
