<?xml version="1.0" standalone="no"?>
<!DOCTYPE svg PUBLIC "-//W3C//DTD SVG 20010904//EN"
 "http://www.w3.org/TR/2001/REC-SVG-20010904/DTD/svg10.dtd">
<svg version="1.0" xmlns="http://www.w3.org/2000/svg"
 width="56.000000pt" height="56.000000pt" viewBox="0 0 56.000000 56.000000"
 preserveAspectRatio="xMidYMid meet">
<metadata>
Created by potrace 1.16, written by Peter Selinger 2001-2019
</metadata>
<g transform="translate(0.000000,56.000000) scale(0.100000,-0.100000)"
fill="#000000" stroke="none">
<path d="M274 520 c-7 0 -18 -8 -23 -18 -7 -13 -7 -22 1 -30 9 -9 8 -18 0 -37
-6 -14 -18 -25 -26 -25 -7 0 -21 10 -29 23 -16 22 -16 22 -16 -6 -1 -29 -2
-29 -58 -27 -32 1 -73 2 -90 1 -30 -1 -33 -4 -33 -31 0 -30 0 -30 95 -27 72 2
95 -1 95 -10 0 -7 6 -13 14 -13 8 0 18 5 21 10 3 6 32 10 64 10 32 0 62 5 69
12 9 9 15 9 20 2 4 -6 43 -10 94 -10 84 1 88 2 88 23 0 13 -8 24 -21 28 -12 4
-45 4 -74 0 -29 -3 -69 -3 -88 0 -28 6 -34 10 -30 26 5 17 2 19 -21 13 -14 -3
-26 -2 -26 2 0 5 4 16 10 24 6 10 26 15 62 15 29 0 53 5 53 10 0 6 -24 9 -56
7 -41 -2 -60 2 -69 13 -7 8 -18 15 -26 15z"/>
<path d="M68 500 c-54 0 -68 -3 -68 -15 0 -13 12 -15 73 -11 39 2 77 5 82 5 6
1 3 6 -5 11 -8 5 -45 10 -82 10z"/>
<path d="M195 299 c-6 6 -17 4 -28 -4 -11 -7 -25 -11 -32 -9 -10 4 -12 -1 -8
-15 3 -12 1 -21 -5 -21 -6 0 -22 -12 -36 -27 -14 -15 -23 -30 -20 -35 3 -4 13
-8 23 -8 10 0 28 12 42 26 13 15 43 35 67 45 32 14 49 16 62 9 10 -5 26 -17
34 -26 9 -8 14 -20 11 -25 -4 -5 -32 -9 -63 -9 -31 0 -64 -5 -72 -10 -10 -7 9
-10 62 -10 42 0 80 -5 83 -10 3 -6 4 -19 0 -30 -3 -10 -16 -22 -28 -26 -12 -4
-53 -8 -90 -9 -53 -1 -70 2 -77 14 -7 13 -11 14 -21 3 -7 -6 -32 -12 -56 -12
-38 0 -43 -3 -43 -23 0 -16 10 -27 36 -39 30 -14 36 -14 41 -2 4 11 38 14 177
13 135 0 174 -4 187 -15 14 -13 18 -13 29 1 7 9 29 15 51 15 32 0 39 3 39 20
0 15 -7 20 -25 20 -14 0 -25 5 -25 10 0 6 7 24 15 40 9 17 20 30 25 30 6 0 10
24 10 54 0 53 0 53 -37 60 -21 3 -55 6 -75 6 -20 0 -39 -4 -42 -9 -3 -5 1 -12
10 -15 9 -3 28 -6 43 -6 15 0 35 -8 45 -19 9 -10 14 -25 11 -33 -4 -9 -25 -19
-48 -23 -42 -8 -42 -8 -7 -14 28 -5 34 -10 32 -26 -2 -11 -9 -25 -15 -31 -7
-7 -36 -14 -65 -16 -53 -5 -53 -5 -50 31 2 28 8 37 28 42 15 4 18 7 8 8 -10 1
-28 17 -42 37 -13 20 -22 43 -19 50 4 11 -9 14 -64 14 -38 0 -73 4 -78 9z"/>
</g>
</svg>
