<?xml version="1.0" standalone="no"?>
<!DOCTYPE svg PUBLIC "-//W3C//DTD SVG 20010904//EN"
 "http://www.w3.org/TR/2001/REC-SVG-20010904/DTD/svg10.dtd">
<svg version="1.0" xmlns="http://www.w3.org/2000/svg"
 width="56.000000pt" height="56.000000pt" viewBox="0 0 56.000000 56.000000"
 preserveAspectRatio="xMidYMid meet">
<metadata>
Created by potrace 1.16, written by Peter Selinger 2001-2019
</metadata>
<g transform="translate(0.000000,56.000000) scale(0.100000,-0.100000)"
fill="#000000" stroke="none">
<path d="M186 560 c-6 0 -17 -9 -24 -21 -11 -17 -11 -25 3 -46 16 -24 16 -26
-16 -59 -17 -18 -41 -34 -52 -36 -12 -2 -24 -15 -30 -31 -7 -22 -6 -33 6 -44
11 -11 19 -12 33 -5 11 6 37 18 59 28 22 10 58 21 80 26 22 5 52 12 68 15 15
3 42 -2 62 -11 19 -10 43 -28 52 -42 13 -21 14 -29 3 -49 -7 -13 -30 -43 -51
-67 -21 -24 -41 -51 -44 -60 -4 -10 -10 -18 -15 -18 -4 0 -13 -14 -19 -30 -7
-20 -7 -39 0 -59 6 -17 22 -34 39 -41 17 -7 36 -10 45 -7 8 4 17 19 21 34 4
15 18 43 32 61 13 19 33 57 43 85 11 29 19 75 19 102 0 43 -5 55 -27 77 -16
14 -46 36 -68 47 -35 19 -51 21 -125 17 -47 -3 -76 -3 -65 1 11 3 37 23 58 45
21 21 35 43 32 48 -4 6 -19 10 -35 10 -16 0 -32 -4 -35 -10 -3 -5 -10 -10 -15
-10 -5 0 -12 11 -16 25 -3 14 -11 25 -18 25z m236 -330 c4 0 8 -15 8 -33 0
-19 -10 -47 -24 -66 -14 -18 -34 -40 -46 -48 -21 -15 -21 -14 -14 23 3 22 13
46 20 55 8 8 14 19 14 24 0 5 7 17 17 27 9 10 20 18 25 18z"/>
</g>
</svg>
