<?xml version="1.0" standalone="no"?>
<!DOCTYPE svg PUBLIC "-//W3C//DTD SVG 20010904//EN"
 "http://www.w3.org/TR/2001/REC-SVG-20010904/DTD/svg10.dtd">
<svg version="1.0" xmlns="http://www.w3.org/2000/svg"
 width="56.000000pt" height="56.000000pt" viewBox="0 0 56.000000 56.000000"
 preserveAspectRatio="xMidYMid meet">
<metadata>
Created by potrace 1.16, written by Peter Selinger 2001-2019
</metadata>
<g transform="translate(0.000000,56.000000) scale(0.100000,-0.100000)"
fill="#000000" stroke="none">
<path d="M80 540 c-5 0 -12 -5 -15 -11 -4 -5 -4 -21 -1 -33 3 -13 17 -31 31
-40 14 -9 25 -23 25 -30 0 -7 -18 -25 -40 -40 -22 -14 -44 -26 -49 -26 -5 0
-12 -7 -15 -16 -3 -9 -6 -26 -6 -39 0 -12 7 -28 15 -35 8 -6 18 -10 24 -8 5 1
29 28 54 58 33 40 64 65 118 93 42 21 88 37 107 37 21 0 35 -6 39 -16 4 -12
-16 -38 -70 -90 -43 -42 -87 -95 -102 -123 -14 -28 -25 -60 -25 -71 0 -12 5
-30 10 -41 7 -12 21 -19 40 -19 23 0 30 -5 30 -19 0 -11 -5 -23 -10 -26 -5 -3
-10 -13 -10 -21 0 -8 6 -14 13 -14 6 1 29 20 49 44 21 24 43 57 50 72 6 16 32
54 57 84 24 30 61 71 80 91 20 20 46 48 59 63 12 15 22 40 22 54 0 17 -8 32
-21 40 -11 7 -40 12 -64 11 -24 -2 -49 2 -57 8 -7 5 -29 15 -48 22 -27 9 -46
9 -81 0 -40 -10 -52 -10 -82 4 -19 10 -51 17 -70 17 -20 0 -39 5 -42 10 -3 6
-10 10 -15 10z m311 -180 c5 0 12 -7 15 -15 4 -9 1 -28 -6 -44 -6 -16 -30 -47
-52 -70 -23 -22 -49 -41 -60 -41 -10 0 -18 4 -18 8 0 4 4 12 9 18 5 5 14 26
20 46 7 20 28 51 47 68 19 16 39 30 45 30z"/>
</g>
</svg>
