<?xml version="1.0" standalone="no"?>
<!DOCTYPE svg PUBLIC "-//W3C//DTD SVG 20010904//EN"
 "http://www.w3.org/TR/2001/REC-SVG-20010904/DTD/svg10.dtd">
<svg version="1.0" xmlns="http://www.w3.org/2000/svg"
 width="56.000000pt" height="56.000000pt" viewBox="0 0 56.000000 56.000000"
 preserveAspectRatio="xMidYMid meet">
<metadata>
Created by potrace 1.16, written by Peter Selinger 2001-2019
</metadata>
<g transform="translate(0.000000,56.000000) scale(0.100000,-0.100000)"
fill="#000000" stroke="none">
<path d="M332 559 c-9 0 -54 -40 -99 -88 -45 -48 -92 -99 -103 -114 -12 -15
-19 -34 -16 -43 4 -11 10 -12 25 -4 11 5 26 16 33 22 8 7 24 19 36 26 18 10
22 10 22 -3 0 -8 -16 -43 -35 -79 -20 -35 -56 -84 -80 -108 -35 -33 -45 -50
-45 -75 0 -20 5 -33 13 -33 7 0 22 7 34 15 12 8 31 31 43 50 12 20 40 45 62
56 22 11 44 17 49 12 4 -4 -15 -34 -42 -65 -37 -42 -49 -63 -44 -77 3 -11 16
-23 27 -27 17 -5 30 4 64 42 23 26 46 59 49 73 4 14 11 32 17 38 6 7 26 13 44
13 32 0 34 -2 27 -28 -3 -15 -26 -57 -50 -94 -37 -58 -40 -68 -24 -68 11 0 35
21 58 51 21 28 48 65 61 81 12 17 22 41 22 54 0 13 -9 28 -19 34 -12 6 -36 7
-65 1 -35 -6 -48 -5 -57 5 -6 8 -18 14 -27 14 -9 0 -30 -5 -49 -12 -18 -6 -35
-9 -39 -6 -3 4 15 46 41 93 33 63 44 90 36 98 -8 8 -21 7 -47 -2 -19 -7 -37
-11 -39 -9 -2 2 25 33 60 68 35 36 66 71 69 78 3 7 -2 12 -12 11z"/>
</g>
</svg>
