<?xml version="1.0" standalone="no"?>
<!DOCTYPE svg PUBLIC "-//W3C//DTD SVG 20010904//EN"
 "http://www.w3.org/TR/2001/REC-SVG-20010904/DTD/svg10.dtd">
<svg version="1.0" xmlns="http://www.w3.org/2000/svg"
 width="56.000000pt" height="56.000000pt" viewBox="0 0 56.000000 56.000000"
 preserveAspectRatio="xMidYMid meet">
<metadata>
Created by potrace 1.16, written by Peter Selinger 2001-2019
</metadata>
<g transform="translate(0.000000,56.000000) scale(0.100000,-0.100000)"
fill="#000000" stroke="none">
<path d="M96 530 c-8 0 -17 -9 -21 -20 -3 -11 1 -30 10 -44 9 -13 23 -27 31
-30 8 -3 14 -14 14 -24 0 -12 -21 -34 -57 -58 -39 -27 -59 -48 -65 -69 -4 -17
-6 -36 -3 -42 2 -7 15 -13 28 -13 18 0 36 16 68 58 24 31 48 59 53 61 5 2 25
18 45 36 20 18 58 40 84 49 26 9 56 16 66 16 10 0 24 -6 30 -14 9 -11 5 -19
-21 -40 -18 -14 -44 -34 -58 -43 -13 -10 -43 -36 -65 -59 -23 -22 -55 -64 -72
-94 -28 -48 -29 -55 -17 -79 8 -14 14 -35 14 -46 0 -11 7 -31 16 -43 12 -18
25 -22 63 -22 45 0 50 3 75 38 14 21 40 51 56 67 17 16 30 32 30 37 0 4 29 46
65 92 45 60 67 98 71 126 4 22 10 40 15 40 5 0 9 9 9 20 0 11 -6 20 -12 21 -7
0 -35 2 -61 4 -27 3 -69 14 -93 26 -39 18 -49 19 -74 9 -17 -7 -30 -17 -30
-22 0 -5 -9 -4 -20 2 -11 6 -20 20 -20 31 0 11 -7 22 -15 25 -8 4 -30 -1 -49
-10 -19 -9 -41 -16 -49 -16 -8 0 -17 7 -21 15 -3 8 -12 15 -20 15z m319 -160
c6 0 14 -3 17 -6 3 -3 -2 -27 -12 -54 -10 -27 -31 -65 -47 -84 -15 -19 -49
-53 -75 -75 -25 -23 -56 -41 -67 -41 -12 0 -24 7 -27 15 -3 8 0 31 7 52 7 22
37 61 76 100 36 35 71 63 78 63 7 0 18 7 25 15 7 8 18 15 25 15z"/>
</g>
</svg>
