<?xml version="1.0" standalone="no"?>
<!DOCTYPE svg PUBLIC "-//W3C//DTD SVG 20010904//EN"
 "http://www.w3.org/TR/2001/REC-SVG-20010904/DTD/svg10.dtd">
<svg version="1.0" xmlns="http://www.w3.org/2000/svg"
 width="56.000000pt" height="56.000000pt" viewBox="0 0 56.000000 56.000000"
 preserveAspectRatio="xMidYMid meet">
<metadata>
Created by potrace 1.16, written by Peter Selinger 2001-2019
</metadata>
<g transform="translate(0.000000,56.000000) scale(0.100000,-0.100000)"
fill="#000000" stroke="none">
<path d="M152 560 c-10 0 -13 -11 -11 -37 1 -21 1 -44 0 -50 0 -7 -12 -13 -25
-13 -14 0 -27 -4 -31 -9 -3 -5 4 -16 16 -24 19 -14 20 -19 10 -68 -6 -30 -14
-65 -17 -79 -4 -18 1 -31 15 -44 16 -15 22 -16 25 -5 3 8 7 34 10 59 3 25 8
66 12 92 5 43 9 47 37 54 18 3 49 13 70 22 30 11 37 19 35 36 -2 14 -10 21
-23 20 -11 -1 -32 -4 -46 -8 -23 -7 -30 -3 -45 23 -10 17 -24 31 -32 31z"/>
<path d="M405 480 c-9 0 -18 -7 -21 -15 -3 -8 -3 -19 1 -25 4 -6 -9 -28 -29
-50 -20 -22 -42 -56 -50 -75 -9 -20 -18 -52 -22 -72 -4 -23 -20 -49 -41 -69
-20 -19 -33 -41 -33 -56 0 -14 7 -31 15 -38 8 -6 19 -9 26 -5 6 4 17 23 25 41
8 19 20 34 28 34 8 0 17 -11 20 -24 3 -14 2 -35 -3 -48 -4 -13 -11 -35 -15
-50 -5 -24 -3 -28 14 -28 12 0 26 12 36 32 9 17 20 45 25 60 4 17 3 41 -2 58
-7 18 -21 32 -40 39 -16 5 -29 14 -29 18 0 4 11 30 25 57 14 27 25 57 25 67 0
10 20 32 44 49 25 16 49 30 55 30 6 0 11 8 11 19 0 10 -11 26 -25 35 -13 9
-31 16 -40 16z"/>
</g>
</svg>
