<?xml version="1.0" standalone="no"?>
<!DOCTYPE svg PUBLIC "-//W3C//DTD SVG 20010904//EN"
 "http://www.w3.org/TR/2001/REC-SVG-20010904/DTD/svg10.dtd">
<svg version="1.0" xmlns="http://www.w3.org/2000/svg"
 width="56.000000pt" height="56.000000pt" viewBox="0 0 56.000000 56.000000"
 preserveAspectRatio="xMidYMid meet">
<metadata>
Created by potrace 1.16, written by Peter Selinger 2001-2019
</metadata>
<g transform="translate(0.000000,56.000000) scale(0.100000,-0.100000)"
fill="#000000" stroke="none">
<path d="M250 560 c-11 0 -22 -5 -25 -11 -4 -5 -17 -14 -30 -19 -12 -5 -38 -5
-58 -1 -19 5 -41 5 -48 0 -11 -6 -11 -11 -2 -20 6 -6 22 -17 35 -23 12 -6 24
-21 26 -32 2 -15 -5 -25 -25 -33 -15 -6 -44 -25 -63 -40 -31 -26 -34 -32 -25
-58 7 -17 19 -29 33 -31 13 -2 35 7 54 23 17 14 48 35 69 45 21 11 45 20 52
20 8 0 31 -18 51 -40 19 -22 39 -51 42 -66 5 -21 2 -31 -17 -45 -13 -9 -35
-20 -50 -23 -14 -3 -46 -20 -70 -38 -24 -19 -50 -45 -58 -59 -9 -16 -11 -36
-7 -53 4 -15 13 -29 22 -33 8 -3 43 0 76 8 55 11 68 19 119 72 31 33 61 57 67
53 6 -4 14 -22 17 -40 5 -26 1 -43 -19 -75 -26 -41 -26 -41 29 -41 43 0 56 4
65 19 5 11 10 44 10 73 0 50 -3 56 -50 105 -33 35 -50 61 -50 78 0 14 -7 39
-14 54 -8 15 -31 42 -51 60 -22 19 -47 31 -63 31 -16 0 -33 5 -40 12 -8 8 -7
17 7 37 11 15 20 33 22 41 1 8 -1 23 -5 33 -5 9 -16 17 -26 17z"/>
<path d="M546 540 c-8 0 -24 -9 -37 -19 -19 -15 -21 -22 -12 -32 7 -7 22 -9
37 -5 19 5 26 13 26 31 0 15 -6 25 -14 25z"/>
</g>
</svg>
