<?xml version="1.0" standalone="no"?>
<!DOCTYPE svg PUBLIC "-//W3C//DTD SVG 20010904//EN"
 "http://www.w3.org/TR/2001/REC-SVG-20010904/DTD/svg10.dtd">
<svg version="1.0" xmlns="http://www.w3.org/2000/svg"
 width="56.000000pt" height="56.000000pt" viewBox="0 0 56.000000 56.000000"
 preserveAspectRatio="xMidYMid meet">
<metadata>
Created by potrace 1.16, written by Peter Selinger 2001-2019
</metadata>
<g transform="translate(0.000000,56.000000) scale(0.100000,-0.100000)"
fill="#000000" stroke="none">
<path d="M200 560 c-19 0 -29 -6 -33 -20 -4 -15 5 -30 30 -54 36 -34 36 -34
12 -67 -13 -19 -35 -43 -49 -54 -13 -11 -33 -28 -43 -38 -14 -14 -15 -22 -7
-37 6 -11 17 -20 24 -20 7 0 39 27 70 61 53 55 60 60 82 51 12 -6 30 -22 39
-36 9 -14 19 -42 22 -63 5 -38 5 -38 -57 -39 -51 -2 -70 -7 -104 -31 -22 -16
-47 -42 -55 -58 -13 -26 -12 -30 9 -47 12 -10 37 -18 54 -18 22 0 55 15 100
46 38 25 75 43 83 40 11 -5 13 -14 8 -38 -4 -18 -18 -48 -32 -66 -13 -17 -38
-40 -56 -50 -32 -17 -32 -17 10 -20 23 -2 51 2 63 8 11 6 31 29 45 50 17 27
25 54 25 83 0 29 -7 53 -20 70 -11 14 -20 40 -20 60 0 19 -10 54 -22 77 -13
23 -30 46 -40 51 -9 5 -24 16 -32 25 -10 10 -14 24 -10 40 5 19 1 26 -20 34
-14 5 -31 21 -38 35 -8 18 -19 25 -38 25z m67 -360 c15 0 23 -5 21 -12 -3 -7
-21 -19 -42 -27 -20 -8 -40 -11 -44 -7 -4 4 4 16 17 27 13 10 34 19 48 19z"/>
</g>
</svg>
