<?xml version="1.0" standalone="no"?>
<!DOCTYPE svg PUBLIC "-//W3C//DTD SVG 20010904//EN"
 "http://www.w3.org/TR/2001/REC-SVG-20010904/DTD/svg10.dtd">
<svg version="1.0" xmlns="http://www.w3.org/2000/svg"
 width="56.000000pt" height="56.000000pt" viewBox="0 0 56.000000 56.000000"
 preserveAspectRatio="xMidYMid meet">
<metadata>
Created by potrace 1.16, written by Peter Selinger 2001-2019
</metadata>
<g transform="translate(0.000000,56.000000) scale(0.100000,-0.100000)"
fill="#000000" stroke="none">
<path d="M252 528 c-21 7 -37 6 -61 -4 -18 -8 -64 -14 -102 -14 -55 0 -69 -3
-69 -15 0 -9 12 -20 26 -25 14 -6 45 -10 68 -10 26 0 48 -6 55 -14 10 -11 9
-24 0 -58 -7 -24 -31 -63 -55 -89 -23 -25 -51 -68 -63 -95 -21 -45 -21 -51 -7
-76 9 -14 16 -39 16 -55 0 -16 7 -39 16 -51 10 -15 25 -22 47 -22 18 0 40 7
50 14 9 7 17 17 17 22 0 5 20 29 45 54 25 25 52 57 60 73 9 15 22 27 30 27 7
0 17 -5 20 -10 4 -6 -1 -23 -11 -38 -9 -14 -37 -46 -61 -70 -23 -24 -43 -48
-43 -54 0 -5 16 -6 38 -2 20 3 48 16 61 28 13 11 32 40 42 64 11 24 19 66 19
93 0 40 3 49 18 49 9 0 32 -9 50 -20 17 -11 32 -24 32 -30 0 -5 11 -10 25 -10
15 0 25 6 25 15 0 8 -12 28 -27 45 -24 26 -37 32 -88 37 -45 4 -66 11 -83 29
-14 15 -34 24 -52 24 -22 0 -31 6 -35 23 -3 12 1 39 10 59 8 21 15 51 15 67 0
23 -6 31 -28 39z m40 -238 c11 0 18 -7 18 -18 0 -10 -9 -36 -20 -57 -11 -23
-45 -59 -76 -83 -31 -23 -64 -42 -74 -42 -11 0 -26 10 -34 21 -8 12 -12 29 -9
38 3 9 22 35 41 59 24 30 40 42 53 39 10 -3 33 6 50 19 18 13 41 24 51 24z"/>
</g>
</svg>
