<?xml version="1.0" standalone="no"?>
<!DOCTYPE svg PUBLIC "-//W3C//DTD SVG 20010904//EN"
 "http://www.w3.org/TR/2001/REC-SVG-20010904/DTD/svg10.dtd">
<svg version="1.0" xmlns="http://www.w3.org/2000/svg"
 width="56.000000pt" height="56.000000pt" viewBox="0 0 56.000000 56.000000"
 preserveAspectRatio="xMidYMid meet">
<metadata>
Created by potrace 1.16, written by Peter Selinger 2001-2019
</metadata>
<g transform="translate(0.000000,56.000000) scale(0.100000,-0.100000)"
fill="#000000" stroke="none">
<path d="M226 560 c-8 0 -23 -20 -35 -45 -18 -38 -26 -45 -50 -45 -16 0 -34
-6 -40 -14 -10 -12 -8 -17 8 -25 11 -6 29 -11 40 -11 12 0 21 -6 21 -13 0 -7
-22 -39 -50 -72 -27 -33 -50 -68 -50 -77 0 -9 5 -20 11 -23 5 -4 34 5 63 19
29 14 60 26 69 26 10 0 17 -5 17 -11 0 -6 -13 -29 -30 -52 -16 -23 -42 -57
-58 -74 -16 -18 -33 -33 -40 -33 -6 0 -19 11 -30 25 -11 14 -27 25 -36 25 -9
0 -16 -8 -16 -17 0 -10 8 -32 18 -48 11 -17 33 -45 51 -63 27 -26 40 -32 77
-32 24 0 44 2 44 5 0 3 -11 10 -25 15 -14 5 -25 16 -25 25 0 9 13 41 29 73 17
31 47 77 69 101 23 27 43 42 50 37 7 -4 12 -23 12 -42 0 -20 -5 -44 -11 -55
-5 -11 -28 -27 -50 -35 -21 -9 -39 -21 -39 -28 0 -7 23 -12 58 -14 48 -2 62 2
77 18 13 15 19 38 20 83 1 34 3 64 4 67 0 2 26 -20 56 -50 46 -45 58 -53 73
-44 9 6 18 20 20 30 2 13 -13 31 -46 55 -26 20 -62 44 -80 53 -17 9 -40 16
-50 16 -11 0 -33 7 -48 15 -16 8 -46 15 -66 15 -32 0 -38 3 -38 21 0 11 9 33
21 47 17 22 29 27 68 27 44 0 46 1 46 30 0 28 -2 30 -39 30 -36 0 -40 3 -48
33 -5 17 -15 32 -22 32z"/>
</g>
</svg>
