<?xml version="1.0" standalone="no"?>
<!DOCTYPE svg PUBLIC "-//W3C//DTD SVG 20010904//EN"
 "http://www.w3.org/TR/2001/REC-SVG-20010904/DTD/svg10.dtd">
<svg version="1.0" xmlns="http://www.w3.org/2000/svg"
 width="56.000000pt" height="56.000000pt" viewBox="0 0 56.000000 56.000000"
 preserveAspectRatio="xMidYMid meet">
<metadata>
Created by potrace 1.16, written by Peter Selinger 2001-2019
</metadata>
<g transform="translate(0.000000,56.000000) scale(0.100000,-0.100000)"
fill="#000000" stroke="none">
<path d="M110 560 c-10 0 -20 -7 -24 -15 -3 -8 2 -31 10 -50 8 -20 12 -40 9
-45 -4 -6 -12 -10 -19 -10 -7 0 -25 -17 -40 -37 -26 -38 -26 -38 -6 -55 16
-13 32 -16 69 -11 33 4 57 1 79 -11 20 -10 38 -32 52 -64 17 -38 20 -58 15
-104 -5 -44 -14 -65 -35 -88 -19 -20 -38 -30 -57 -30 -16 0 -39 7 -51 16 -12
8 -22 19 -22 25 0 5 11 9 25 9 18 0 31 10 45 33 11 17 23 42 26 55 4 13 4 26
0 29 -3 4 -20 -3 -36 -15 -16 -12 -33 -22 -37 -22 -4 1 -17 15 -28 33 -11 18
-27 32 -35 32 -9 0 -19 -15 -24 -35 -6 -26 -3 -52 12 -100 11 -35 26 -67 33
-71 8 -4 26 -12 41 -19 16 -8 46 -11 73 -8 34 4 54 14 74 34 15 16 35 44 44
63 9 19 17 47 17 62 0 15 4 30 10 34 5 3 6 15 1 28 -5 12 -17 41 -27 65 -12
30 -27 47 -51 59 -19 8 -48 19 -66 22 -17 4 -33 14 -35 22 -2 11 16 25 53 43
37 19 55 33 55 46 0 12 -16 26 -43 39 -24 12 -51 21 -60 21 -9 0 -19 5 -22 10
-3 6 -14 10 -25 10z"/>
<path d="M402 400 c-10 0 -22 -3 -25 -7 -4 -4 10 -23 31 -43 21 -21 46 -53 55
-73 10 -20 22 -39 28 -43 6 -3 19 2 30 12 13 12 17 24 13 38 -4 12 -15 32 -26
45 -10 14 -34 35 -53 48 -19 13 -42 23 -53 23z"/>
</g>
</svg>
