<?xml version="1.0" standalone="no"?>
<!DOCTYPE svg PUBLIC "-//W3C//DTD SVG 20010904//EN"
 "http://www.w3.org/TR/2001/REC-SVG-20010904/DTD/svg10.dtd">
<svg version="1.0" xmlns="http://www.w3.org/2000/svg"
 width="56.000000pt" height="56.000000pt" viewBox="0 0 56.000000 56.000000"
 preserveAspectRatio="xMidYMid meet">
<metadata>
Created by potrace 1.16, written by Peter Selinger 2001-2019
</metadata>
<g transform="translate(0.000000,56.000000) scale(0.100000,-0.100000)"
fill="#000000" stroke="none">
<path d="M101 520 c-5 0 -13 -6 -18 -12 -5 -7 -18 -31 -27 -52 -13 -28 -17
-51 -12 -84 5 -38 2 -49 -19 -74 -14 -16 -25 -35 -25 -42 0 -6 5 -17 11 -23 8
-8 28 -3 73 18 33 16 85 33 113 39 29 5 60 7 68 4 8 -4 15 -12 15 -18 0 -7
-34 -50 -75 -95 -41 -46 -78 -95 -81 -108 -4 -16 -2 -28 7 -34 8 -4 25 -6 39
-3 14 3 48 12 75 21 28 8 58 22 68 31 10 9 25 32 33 51 8 19 13 50 12 70 -3
34 -2 36 40 45 30 6 46 6 54 -2 8 -8 8 -15 -1 -26 -7 -8 -10 -20 -6 -26 3 -5
24 -10 45 -10 21 0 45 3 54 6 9 3 16 13 16 21 0 9 -10 24 -22 35 -13 11 -34
25 -48 32 -14 7 -54 12 -90 11 -53 -1 -71 3 -100 23 -27 18 -47 23 -85 22 -27
-2 -54 -2 -59 -1 -4 0 -1 12 8 26 15 23 15 25 -3 35 -11 5 -26 10 -34 10 -8 0
-20 6 -26 14 -10 11 -9 21 4 46 9 17 13 35 10 40 -3 6 -10 10 -14 10z m211
-308 c8 -8 7 -17 -4 -34 -9 -13 -26 -33 -37 -45 -12 -13 -28 -23 -36 -23 -8 0
-17 5 -20 10 -4 6 14 32 39 57 34 34 50 43 58 35z"/>
</g>
</svg>
