<?xml version="1.0" standalone="no"?>
<!DOCTYPE svg PUBLIC "-//W3C//DTD SVG 20010904//EN"
 "http://www.w3.org/TR/2001/REC-SVG-20010904/DTD/svg10.dtd">
<svg version="1.0" xmlns="http://www.w3.org/2000/svg"
 width="56.000000pt" height="56.000000pt" viewBox="0 0 56.000000 56.000000"
 preserveAspectRatio="xMidYMid meet">
<metadata>
Created by potrace 1.16, written by Peter Selinger 2001-2019
</metadata>
<g transform="translate(0.000000,56.000000) scale(0.100000,-0.100000)"
fill="#000000" stroke="none">
<path d="M153 560 c-11 0 -14 -7 -10 -27 3 -16 9 -40 13 -55 6 -26 3 -30 -55
-57 -34 -16 -68 -34 -76 -41 -8 -7 -15 -27 -15 -46 0 -18 4 -36 10 -39 5 -3
22 2 37 11 15 10 39 27 53 39 14 12 53 34 86 48 34 15 89 30 123 33 41 5 61 3
61 -4 0 -6 -12 -19 -26 -29 -15 -10 -49 -38 -77 -63 -28 -25 -67 -72 -89 -104
-24 -38 -38 -71 -38 -92 0 -18 5 -45 10 -59 9 -23 14 -26 38 -21 15 4 49 20
75 37 27 16 52 27 57 24 5 -3 0 -24 -10 -48 -11 -23 -20 -48 -20 -54 0 -8 13
-13 35 -13 31 0 35 3 44 38 5 20 12 53 15 73 4 19 20 57 37 84 17 27 47 80 67
119 22 43 36 86 36 109 1 27 -5 43 -16 51 -14 8 -26 6 -53 -8 -32 -17 -40 -18
-89 -6 -30 7 -66 10 -80 6 -22 -5 -28 -2 -36 19 -5 14 -26 33 -47 43 -21 9
-39 20 -41 25 -2 4 -11 7 -19 7z m258 -216 c5 -3 9 -14 9 -25 0 -11 -13 -39
-29 -62 -16 -23 -47 -57 -69 -74 -23 -18 -50 -33 -62 -33 -11 0 -23 7 -26 15
-3 8 9 34 26 59 18 24 57 63 87 85 30 22 59 38 64 35z"/>
</g>
</svg>
