<?xml version="1.0" standalone="no"?>
<!DOCTYPE svg PUBLIC "-//W3C//DTD SVG 20010904//EN"
 "http://www.w3.org/TR/2001/REC-SVG-20010904/DTD/svg10.dtd">
<svg version="1.0" xmlns="http://www.w3.org/2000/svg"
 width="56.000000pt" height="56.000000pt" viewBox="0 0 56.000000 56.000000"
 preserveAspectRatio="xMidYMid meet">
<metadata>
Created by potrace 1.16, written by Peter Selinger 2001-2019
</metadata>
<g transform="translate(0.000000,56.000000) scale(0.100000,-0.100000)"
fill="#000000" stroke="none">
<path d="M175 540 c-6 0 -15 -3 -18 -7 -4 -4 -5 -20 -2 -37 3 -17 -3 -60 -13
-96 -17 -62 -20 -66 -70 -92 -29 -15 -58 -29 -65 -32 -8 -3 -4 -12 12 -25 13
-12 34 -21 47 -21 14 0 24 -6 24 -14 0 -8 -9 -35 -20 -61 -11 -26 -20 -67 -20
-91 0 -38 3 -44 20 -44 11 0 22 6 24 13 2 6 18 55 36 107 18 52 34 107 37 121
3 16 19 34 44 50 27 16 39 31 39 46 0 13 5 23 11 23 6 0 9 10 7 23 -2 16 -10
22 -28 22 -23 1 -25 4 -22 39 3 25 -2 44 -14 57 -9 10 -22 19 -29 19z"/>
<path d="M427 500 c-9 0 -17 -6 -17 -13 0 -8 11 -20 25 -27 14 -7 25 -17 25
-21 0 -5 -9 -13 -20 -19 -11 -6 -18 -15 -15 -21 4 -5 28 -9 55 -9 26 0 55 3
64 6 9 3 16 16 16 28 -1 16 -15 28 -58 49 -32 15 -65 27 -75 27z"/>
<path d="M405 310 c-12 0 -15 -16 -15 -81 0 -81 0 -81 -36 -75 -22 5 -41 3
-50 -5 -8 -6 -14 -18 -14 -26 0 -8 14 -34 30 -59 17 -24 39 -44 48 -44 12 0
22 17 35 53 11 36 17 85 17 145 0 75 -3 92 -15 92z"/>
<path d="M552 100 c-5 0 -12 -3 -15 -7 -4 -3 -7 -15 -7 -25 0 -10 7 -18 15
-18 9 0 15 9 15 25 0 14 -4 25 -8 25z"/>
</g>
</svg>
