<?xml version="1.0" standalone="no"?>
<!DOCTYPE svg PUBLIC "-//W3C//DTD SVG 20010904//EN"
 "http://www.w3.org/TR/2001/REC-SVG-20010904/DTD/svg10.dtd">
<svg version="1.0" xmlns="http://www.w3.org/2000/svg"
 width="56.000000pt" height="56.000000pt" viewBox="0 0 56.000000 56.000000"
 preserveAspectRatio="xMidYMid meet">
<metadata>
Created by potrace 1.16, written by Peter Selinger 2001-2019
</metadata>
<g transform="translate(0.000000,56.000000) scale(0.100000,-0.100000)"
fill="#000000" stroke="none">
<path d="M289 540 c-13 0 -33 -7 -43 -15 -11 -8 -30 -15 -43 -15 -18 0 -25 -7
-29 -29 -5 -23 -14 -30 -52 -42 -32 -10 -51 -22 -59 -39 -6 -14 -15 -37 -18
-52 -5 -21 -3 -29 9 -34 11 -4 31 5 54 23 20 17 51 37 68 46 18 9 51 23 75 31
24 9 71 16 105 16 33 0 65 -5 72 -12 7 -7 12 -18 12 -26 0 -7 -15 -19 -34 -27
-19 -8 -48 -31 -65 -52 -17 -20 -37 -51 -45 -68 -8 -16 -17 -55 -21 -86 -6
-48 -3 -63 19 -107 24 -47 30 -52 59 -52 26 1 38 9 63 43 18 23 42 64 54 91
12 28 30 85 38 127 14 67 14 84 3 116 -7 21 -22 48 -33 60 -11 12 -32 26 -47
33 -18 7 -41 8 -67 2 -21 -5 -44 -7 -51 -5 -7 3 -10 17 -6 39 5 31 3 34 -18
34z m119 -230 c2 0 12 -5 23 -10 13 -8 19 -21 19 -46 0 -19 -6 -47 -14 -62 -8
-15 -25 -38 -39 -51 -15 -13 -31 -20 -37 -16 -8 5 -10 22 -6 51 3 24 16 64 28
88 13 25 24 46 26 46z"/>
</g>
</svg>
