<?xml version="1.0" standalone="no"?>
<!DOCTYPE svg PUBLIC "-//W3C//DTD SVG 20010904//EN"
 "http://www.w3.org/TR/2001/REC-SVG-20010904/DTD/svg10.dtd">
<svg version="1.0" xmlns="http://www.w3.org/2000/svg"
 width="56.000000pt" height="56.000000pt" viewBox="0 0 56.000000 56.000000"
 preserveAspectRatio="xMidYMid meet">
<metadata>
Created by potrace 1.16, written by Peter Selinger 2001-2019
</metadata>
<g transform="translate(0.000000,56.000000) scale(0.100000,-0.100000)"
fill="#000000" stroke="none">
<path d="M168 560 c-2 0 -11 -11 -21 -25 -13 -19 -25 -23 -55 -22 -20 1 -38
-2 -40 -8 -1 -5 12 -12 30 -15 29 -5 33 -9 31 -33 -1 -15 -16 -48 -32 -73 -17
-25 -31 -49 -31 -53 0 -5 -7 -14 -15 -21 -8 -7 -15 -23 -15 -35 0 -13 6 -25
14 -28 7 -3 30 7 51 21 30 22 48 27 94 26 31 0 66 -6 79 -13 12 -6 22 -17 22
-23 0 -5 -25 -37 -55 -70 -53 -56 -55 -62 -55 -113 0 -30 4 -57 10 -60 5 -3
35 2 65 11 49 14 61 22 85 61 16 24 34 66 40 93 6 27 17 51 23 53 7 3 28 -1
47 -7 24 -8 36 -18 38 -33 2 -13 -7 -38 -19 -55 -13 -18 -40 -54 -61 -79 -21
-26 -38 -50 -38 -53 0 -3 13 -6 28 -6 19 0 39 12 64 38 19 20 42 51 51 67 9
17 20 45 26 63 7 22 7 40 1 51 -5 10 -25 30 -45 45 -19 15 -43 28 -53 28 -9 1
-34 -2 -54 -6 -34 -6 -38 -4 -53 23 -10 21 -27 33 -53 40 -28 8 -47 7 -80 -4
-24 -9 -47 -13 -52 -10 -5 3 6 38 25 77 22 49 40 75 56 81 24 8 24 8 -1 28
-14 10 -30 23 -37 29 -7 5 -13 10 -15 10z m137 -350 c8 0 17 -4 20 -10 3 -5
-1 -22 -9 -37 -7 -15 -32 -42 -54 -60 -22 -18 -42 -30 -45 -27 -3 3 -2 16 2
29 3 13 21 42 39 65 19 22 40 40 47 40z"/>
</g>
</svg>
