<?xml version="1.0" standalone="no"?>
<!DOCTYPE svg PUBLIC "-//W3C//DTD SVG 20010904//EN"
 "http://www.w3.org/TR/2001/REC-SVG-20010904/DTD/svg10.dtd">
<svg version="1.0" xmlns="http://www.w3.org/2000/svg"
 width="56.000000pt" height="56.000000pt" viewBox="0 0 56.000000 56.000000"
 preserveAspectRatio="xMidYMid meet">
<metadata>
Created by potrace 1.16, written by Peter Selinger 2001-2019
</metadata>
<g transform="translate(0.000000,56.000000) scale(0.100000,-0.100000)"
fill="#000000" stroke="none">
<path d="M473 540 c-11 0 -23 -3 -26 -6 -4 -4 -3 -12 0 -18 4 -6 7 -22 7 -36
1 -20 7 -26 30 -28 15 -2 39 -1 52 2 18 5 24 13 24 34 0 23 -6 30 -33 40 -18
7 -42 12 -54 12z"/>
<path d="M262 520 c-20 0 -40 -13 -70 -42 -24 -25 -59 -48 -83 -56 -41 -13
-43 -12 -75 19 -34 33 -34 33 -34 1 0 -18 9 -52 21 -76 11 -24 31 -54 44 -66
21 -20 28 -22 50 -12 14 7 30 12 35 12 6 0 10 -12 10 -26 0 -15 -14 -50 -30
-79 -17 -29 -37 -58 -45 -65 -10 -8 -15 -30 -15 -61 0 -36 4 -49 14 -49 8 0
28 16 44 36 17 20 40 69 53 108 12 39 28 80 36 91 7 11 13 34 13 51 0 23 8 39
28 56 15 12 37 36 50 52 12 16 22 37 22 47 0 11 -9 28 -20 39 -11 11 -33 20
-48 20z"/>
<path d="M429 455 c-5 4 -14 -6 -21 -22 -6 -15 -14 -74 -16 -130 -4 -102 -4
-102 -42 -117 -21 -8 -45 -25 -54 -37 -10 -14 -13 -32 -9 -48 3 -14 15 -40 26
-58 17 -29 24 -33 63 -33 31 0 46 5 53 18 5 10 10 54 12 97 1 44 1 135 0 202
-1 68 -7 125 -12 128z m-81 -307 c8 -2 21 -12 29 -24 12 -19 11 -24 -7 -45
-20 -24 -20 -24 -35 -5 -8 11 -15 29 -15 41 0 12 3 25 7 29 4 4 13 5 21 4z"/>
</g>
</svg>
