<?xml version="1.0" standalone="no"?>
<!DOCTYPE svg PUBLIC "-//W3C//DTD SVG 20010904//EN"
 "http://www.w3.org/TR/2001/REC-SVG-20010904/DTD/svg10.dtd">
<svg version="1.0" xmlns="http://www.w3.org/2000/svg"
 width="56.000000pt" height="56.000000pt" viewBox="0 0 56.000000 56.000000"
 preserveAspectRatio="xMidYMid meet">
<metadata>
Created by potrace 1.16, written by Peter Selinger 2001-2019
</metadata>
<g transform="translate(0.000000,56.000000) scale(0.100000,-0.100000)"
fill="#000000" stroke="none">
<path d="M165 560 c-9 0 -15 -5 -13 -11 2 -6 8 -10 13 -10 5 0 11 4 13 10 2 6
-4 11 -13 11z"/>
<path d="M241 560 c-7 0 -9 -24 -5 -72 4 -44 2 -84 -5 -101 -7 -19 -20 -29
-40 -33 -27 -6 -29 -8 -19 -30 10 -21 6 -29 -35 -73 -26 -28 -47 -59 -47 -70
0 -11 5 -23 10 -26 6 -4 29 12 52 35 23 23 53 47 67 54 14 7 34 11 44 8 14 -3
18 -10 14 -29 -3 -15 1 -27 9 -30 8 -3 14 -17 14 -32 0 -15 -7 -37 -16 -49
-11 -16 -24 -22 -42 -20 -17 2 -26 9 -26 18 1 8 5 23 9 33 7 17 5 17 -41 0
-40 -15 -50 -23 -52 -46 -3 -24 0 -27 25 -27 15 0 37 -7 47 -15 11 -8 29 -15
41 -15 12 0 35 15 52 33 17 17 36 49 42 71 5 21 8 51 4 66 -4 24 -1 31 25 44
17 9 38 13 46 10 9 -3 16 -15 16 -26 0 -10 -6 -31 -14 -46 -8 -15 -23 -36 -35
-46 -12 -11 -21 -24 -21 -31 0 -6 -16 -34 -35 -61 -20 -27 -30 -51 -24 -53 6
-2 28 14 50 35 21 21 42 35 45 31 4 -3 15 -2 25 4 12 6 19 21 19 38 0 16 7 45
15 64 8 20 15 48 15 61 0 14 -10 34 -22 46 -13 12 -35 20 -55 20 -19 0 -44 -7
-57 -15 -18 -12 -30 -13 -50 -6 -14 6 -26 18 -26 28 0 9 10 27 23 41 21 22 21
24 4 37 -16 12 -17 16 -2 59 13 37 13 50 4 68 -7 13 -18 28 -25 35 -7 7 -17
13 -23 13z"/>
<path d="M92 514 c-6 3 -14 1 -17 -5 -4 -5 -4 -13 -1 -16 4 -4 11 -2 17 4 7 7
7 13 1 17z"/>
</g>
</svg>
