<?xml version="1.0" standalone="no"?>
<!DOCTYPE svg PUBLIC "-//W3C//DTD SVG 20010904//EN"
 "http://www.w3.org/TR/2001/REC-SVG-20010904/DTD/svg10.dtd">
<svg version="1.0" xmlns="http://www.w3.org/2000/svg"
 width="56.000000pt" height="56.000000pt" viewBox="0 0 56.000000 56.000000"
 preserveAspectRatio="xMidYMid meet">
<metadata>
Created by potrace 1.16, written by Peter Selinger 2001-2019
</metadata>
<g transform="translate(0.000000,56.000000) scale(0.100000,-0.100000)"
fill="#000000" stroke="none">
<path d="M154 525 c-13 4 -25 0 -33 -9 -9 -11 -11 -29 -7 -55 5 -33 3 -41 -11
-45 -10 -2 -33 -7 -51 -11 -18 -4 -37 -15 -43 -26 -7 -14 -6 -27 3 -47 7 -15
23 -28 36 -30 14 -2 33 7 53 28 28 27 43 33 117 44 61 8 95 9 119 1 18 -5 36
-18 39 -28 3 -10 3 -21 0 -25 -4 -3 -22 -7 -41 -8 -19 -2 -60 -17 -93 -34 -34
-17 -83 -56 -115 -90 -33 -36 -61 -77 -68 -100 -6 -21 -9 -46 -6 -54 4 -9 17
-16 29 -16 13 0 59 8 102 17 78 18 81 20 153 92 41 41 85 94 99 118 16 26 33
43 44 43 11 0 22 -4 25 -10 3 -5 17 -10 31 -10 15 0 24 6 24 15 0 8 -7 15 -15
15 -8 0 -23 4 -33 9 -9 5 -30 15 -45 22 -18 8 -30 23 -34 40 -3 15 -15 31 -27
37 -12 5 -58 13 -102 17 -43 4 -82 9 -87 12 -4 2 0 17 10 33 9 16 14 33 10 37
-4 4 -20 8 -35 9 -15 2 -36 6 -48 9z m209 -256 c4 0 10 -6 13 -14 4 -8 -1 -26
-10 -40 -9 -13 -40 -41 -69 -62 -28 -21 -70 -46 -91 -56 -34 -16 -41 -16 -53
-4 -13 13 -13 18 0 43 8 16 23 36 33 45 11 9 44 29 74 46 31 17 64 33 75 36
11 2 24 5 28 6z"/>
<path d="M369 90 c-18 0 -38 -10 -54 -27 -20 -23 -22 -29 -10 -31 9 -2 22 1
29 7 10 8 17 7 26 -4 7 -8 25 -15 41 -15 15 0 31 5 34 11 4 6 -3 21 -16 35
-13 14 -34 24 -50 24z"/>
</g>
</svg>
