<?xml version="1.0" standalone="no"?>
<!DOCTYPE svg PUBLIC "-//W3C//DTD SVG 20010904//EN"
 "http://www.w3.org/TR/2001/REC-SVG-20010904/DTD/svg10.dtd">
<svg version="1.0" xmlns="http://www.w3.org/2000/svg"
 width="56.000000pt" height="56.000000pt" viewBox="0 0 56.000000 56.000000"
 preserveAspectRatio="xMidYMid meet">
<metadata>
Created by potrace 1.16, written by Peter Selinger 2001-2019
</metadata>
<g transform="translate(0.000000,56.000000) scale(0.100000,-0.100000)"
fill="#000000" stroke="none">
<path d="M535 560 c-15 0 -25 -6 -25 -14 0 -8 3 -21 6 -30 3 -9 15 -16 25 -16
14 0 19 7 19 30 0 25 -4 30 -25 30z"/>
<path d="M223 531 c-21 2 -61 3 -90 1 -51 -3 -52 -4 -43 -27 7 -18 5 -28 -6
-40 -9 -8 -26 -15 -40 -15 -14 0 -26 -6 -29 -12 -2 -7 -6 -29 -9 -49 -6 -35
-6 -35 28 -33 19 2 51 10 71 19 21 8 58 15 83 15 28 0 57 -8 78 -21 19 -11 43
-33 54 -49 11 -15 20 -35 20 -44 0 -9 -8 -20 -18 -24 -10 -4 -32 -18 -48 -32
-16 -14 -41 -44 -56 -67 -16 -24 -28 -49 -28 -57 0 -8 -4 -17 -9 -20 -4 -3 -6
-17 -3 -31 3 -19 11 -25 30 -25 13 0 42 -5 63 -12 28 -8 46 -8 63 0 13 5 38
36 55 68 18 31 35 70 37 87 2 16 6 38 9 48 4 10 15 19 26 19 12 0 23 -10 29
-25 7 -20 5 -40 -10 -82 -11 -31 -26 -63 -33 -72 -8 -9 -17 -24 -20 -33 -5
-13 -1 -18 11 -18 10 0 34 27 60 67 23 37 42 75 42 85 0 10 5 18 10 18 6 0 10
7 10 15 0 8 -12 29 -27 45 -19 21 -35 30 -58 30 -19 0 -39 8 -50 21 -19 20
-18 21 5 67 14 26 32 54 40 63 8 9 23 26 33 38 9 12 17 27 17 35 0 7 -9 16
-20 19 -11 3 -23 0 -27 -6 -4 -7 -6 -21 -5 -32 2 -19 2 -19 -11 -2 -14 16 -15
16 -31 -8 -12 -19 -14 -30 -7 -39 7 -9 7 -16 -1 -24 -7 -7 -16 -12 -22 -12 -5
0 -17 6 -25 13 -9 7 -34 19 -56 25 -22 6 -52 14 -67 17 -16 3 -28 10 -28 16 0
6 9 22 20 36 11 14 20 29 20 33 0 4 -17 9 -37 11z m105 -351 c6 0 12 -9 12
-19 0 -11 -12 -33 -26 -50 -14 -17 -30 -31 -35 -31 -5 0 -9 7 -9 15 0 8 10 31
23 50 12 19 28 35 35 35z"/>
</g>
</svg>
