<?xml version="1.0" standalone="no"?>
<!DOCTYPE svg PUBLIC "-//W3C//DTD SVG 20010904//EN"
 "http://www.w3.org/TR/2001/REC-SVG-20010904/DTD/svg10.dtd">
<svg version="1.0" xmlns="http://www.w3.org/2000/svg"
 width="56.000000pt" height="56.000000pt" viewBox="0 0 56.000000 56.000000"
 preserveAspectRatio="xMidYMid meet">
<metadata>
Created by potrace 1.16, written by Peter Selinger 2001-2019
</metadata>
<g transform="translate(0.000000,56.000000) scale(0.100000,-0.100000)"
fill="#000000" stroke="none">
<path d="M439 480 c-37 0 -49 -4 -49 -15 0 -9 9 -15 22 -15 11 0 36 -12 55
-26 19 -14 38 -36 43 -49 7 -17 14 -22 29 -18 14 3 21 14 21 29 0 13 -4 24
-10 24 -5 0 -10 6 -10 14 0 8 -12 24 -26 35 -19 15 -41 21 -75 21z"/>
<path d="M158 460 c-8 0 -26 -12 -41 -27 -27 -27 -29 -27 -42 -9 -13 17 -15
17 -20 3 -4 -8 -1 -26 6 -38 10 -20 8 -26 -25 -52 -20 -16 -36 -38 -36 -48 0
-11 6 -22 13 -25 7 -2 32 2 56 11 24 8 55 15 70 15 15 0 37 -7 49 -16 14 -9
22 -26 22 -43 0 -16 -7 -45 -15 -65 -8 -20 -19 -36 -24 -36 -6 0 -12 8 -15 18
-4 11 -17 28 -29 40 -21 20 -25 20 -45 6 -12 -8 -22 -24 -22 -35 0 -11 12 -36
26 -55 22 -28 33 -34 63 -34 32 0 42 7 76 47 36 42 39 53 40 104 0 42 -5 62
-19 78 -10 11 -43 29 -73 38 -29 9 -53 21 -53 27 0 5 14 21 32 36 21 18 29 32
25 43 -3 9 -12 17 -19 17z"/>
</g>
</svg>
