<?xml version="1.0" standalone="no"?>
<!DOCTYPE svg PUBLIC "-//W3C//DTD SVG 20010904//EN"
 "http://www.w3.org/TR/2001/REC-SVG-20010904/DTD/svg10.dtd">
<svg version="1.0" xmlns="http://www.w3.org/2000/svg"
 width="56.000000pt" height="56.000000pt" viewBox="0 0 56.000000 56.000000"
 preserveAspectRatio="xMidYMid meet">
<metadata>
Created by potrace 1.16, written by Peter Selinger 2001-2019
</metadata>
<g transform="translate(0.000000,56.000000) scale(0.100000,-0.100000)"
fill="#000000" stroke="none">
<path d="M157 560 c-12 -1 -28 -7 -34 -15 -7 -8 -13 -17 -13 -20 0 -4 9 -14
19 -23 15 -13 17 -22 10 -40 -8 -20 -14 -23 -39 -17 -26 6 -30 4 -30 -14 0
-13 15 -30 41 -47 41 -26 41 -26 35 -76 -4 -28 -18 -71 -32 -95 -13 -24 -24
-54 -24 -66 0 -13 5 -28 12 -35 7 -7 15 -12 20 -12 4 0 18 19 32 43 17 29 30
76 41 152 10 61 19 116 21 123 2 7 15 17 29 22 14 5 25 16 25 24 0 8 -15 19
-33 25 -20 7 -37 22 -45 41 -9 20 -21 30 -35 30z"/>
<path d="M397 520 c-16 0 -18 -5 -13 -26 5 -18 -1 -39 -20 -71 -18 -32 -29
-69 -35 -122 -5 -42 -11 -88 -14 -102 -4 -17 -17 -31 -38 -40 -22 -10 -33 -22
-35 -40 -2 -16 8 -38 27 -63 17 -21 28 -42 25 -47 -3 -5 9 -9 25 -9 25 0 31 4
32 23 1 12 3 38 5 57 1 19 6 86 11 148 6 75 14 117 24 126 7 8 30 23 49 33 21
12 36 29 38 42 3 16 -7 35 -29 57 -18 19 -42 34 -52 34z"/>
</g>
</svg>
