<?xml version="1.0" standalone="no"?>
<!DOCTYPE svg PUBLIC "-//W3C//DTD SVG 20010904//EN"
 "http://www.w3.org/TR/2001/REC-SVG-20010904/DTD/svg10.dtd">
<svg version="1.0" xmlns="http://www.w3.org/2000/svg"
 width="56.000000pt" height="56.000000pt" viewBox="0 0 56.000000 56.000000"
 preserveAspectRatio="xMidYMid meet">
<metadata>
Created by potrace 1.16, written by Peter Selinger 2001-2019
</metadata>
<g transform="translate(0.000000,56.000000) scale(0.100000,-0.100000)"
fill="#000000" stroke="none">
<path d="M109 560 c-79 0 -79 0 -79 -27 0 -16 9 -43 20 -60 11 -18 28 -33 38
-33 13 0 22 12 31 41 7 22 19 43 27 46 9 3 27 -6 45 -23 16 -15 29 -36 29 -45
0 -10 -12 -31 -26 -48 -14 -17 -30 -31 -36 -31 -5 0 -30 -16 -54 -36 -24 -20
-44 -44 -44 -54 0 -10 7 -23 15 -30 12 -10 22 -9 49 4 19 9 50 16 70 16 21 0
56 9 78 20 23 11 50 20 60 20 10 0 18 -6 18 -14 0 -8 -10 -22 -22 -30 -12 -9
-31 -16 -41 -16 -11 0 -41 -12 -67 -26 -27 -15 -62 -43 -79 -64 -16 -21 -33
-51 -37 -66 -4 -16 -11 -34 -16 -41 -5 -6 -6 -23 -2 -37 6 -24 10 -26 60 -26
41 0 54 4 54 15 0 8 13 21 30 30 16 8 36 15 44 15 8 0 24 -14 36 -30 16 -23
29 -30 53 -30 32 0 32 0 0 30 -28 26 -32 35 -26 63 3 17 12 42 19 54 8 12 23
27 33 33 16 8 26 5 49 -15 16 -14 37 -41 47 -60 9 -20 22 -34 28 -32 7 2 12
23 11 49 0 29 -8 55 -23 76 -14 20 -31 32 -45 32 -13 0 -30 8 -39 18 -10 10
-14 21 -11 25 4 3 3 22 0 42 -5 25 -15 39 -36 50 -16 8 -41 12 -57 10 -15 -3
-34 -1 -42 4 -8 5 -11 16 -8 25 4 9 20 24 36 34 17 9 36 27 42 39 10 19 9 26
-5 42 -14 15 -31 19 -79 20 -34 0 -63 5 -65 10 -2 7 -36 11 -83 11z m208 -333
c9 -9 12 -23 7 -41 -4 -16 -22 -37 -43 -50 -20 -13 -49 -36 -65 -50 -15 -15
-35 -25 -42 -22 -8 3 -14 13 -14 22 0 9 17 39 37 65 20 27 44 49 54 49 9 0 24
9 34 20 16 18 21 19 32 7z"/>
<path d="M470 560 c-28 0 -50 -5 -50 -10 0 -6 12 -22 26 -35 15 -14 33 -25 39
-25 7 0 18 14 24 31 6 18 11 34 11 35 0 2 -22 4 -50 4z"/>
</g>
</svg>
