<?xml version="1.0" standalone="no"?>
<!DOCTYPE svg PUBLIC "-//W3C//DTD SVG 20010904//EN"
 "http://www.w3.org/TR/2001/REC-SVG-20010904/DTD/svg10.dtd">
<svg version="1.0" xmlns="http://www.w3.org/2000/svg"
 width="128.000000pt" height="128.000000pt" viewBox="0 0 128.000000 128.000000"
 preserveAspectRatio="xMidYMid meet">
<metadata>
Created by potrace 1.16, written by Peter Selinger 2001-2019
</metadata>
<g transform="translate(0.000000,128.000000) scale(0.100000,-0.100000)"
fill="#000000" stroke="none">
<path d="M820 1257 c-33 0 -63 -4 -67 -9 -3 -6 -26 -19 -52 -30 -26 -11 -72
-20 -106 -21 -53 -2 -60 -4 -60 -22 0 -11 8 -21 17 -23 10 -2 31 -17 49 -33
17 -16 35 -29 40 -29 5 0 15 14 24 30 9 17 23 30 31 30 9 0 36 14 60 32 24 17
44 35 44 40 0 4 7 8 15 8 13 0 14 -4 5 -21 -8 -14 -8 -24 -1 -32 6 -8 6 -18 1
-27 -6 -8 -7 -29 -4 -45 3 -18 -1 -42 -10 -60 -9 -17 -16 -38 -16 -49 0 -15 5
-17 29 -13 19 4 31 2 34 -6 3 -8 -13 -20 -44 -30 -29 -11 -49 -24 -49 -33 0
-11 -7 -13 -27 -8 -16 4 -43 15 -61 26 -18 11 -39 17 -47 14 -8 -3 -15 -12
-15 -20 0 -9 12 -22 28 -30 26 -15 26 -15 4 -16 -12 0 -25 -7 -28 -15 -4 -8
-15 -15 -26 -15 -11 0 -30 -12 -42 -27 -11 -15 -33 -47 -48 -72 -15 -25 -28
-59 -28 -74 0 -15 6 -30 14 -33 8 -3 27 2 43 11 15 9 46 27 68 40 24 14 57 24
83 24 41 1 43 0 40 -26 -2 -21 2 -28 17 -31 11 -2 24 -8 30 -13 5 -6 5 -13 -3
-21 -8 -8 -15 -8 -27 2 -12 10 -19 10 -27 2 -7 -7 -18 -12 -25 -12 -7 0 -13 6
-13 14 0 8 -6 16 -12 19 -7 2 -29 -5 -48 -16 -19 -11 -60 -42 -91 -69 -31 -26
-62 -48 -68 -48 -6 0 -32 -16 -57 -36 -26 -19 -65 -45 -88 -57 -23 -12 -57
-26 -76 -32 -19 -6 -36 -18 -38 -27 -2 -9 19 -39 46 -68 38 -39 53 -49 68 -44
10 4 40 21 67 37 26 16 47 35 47 43 0 8 -10 28 -22 45 -23 30 -23 31 -4 45 11
8 28 14 38 14 14 0 16 -6 12 -29 -5 -23 -2 -32 16 -41 12 -7 36 -10 54 -7 17
3 59 14 93 24 49 13 65 15 75 5 6 -6 14 -49 18 -94 4 -46 3 -91 -2 -101 -5 -9
-9 -46 -9 -82 -1 -49 -6 -71 -21 -90 -19 -25 -19 -25 45 -25 40 0 68 5 74 12
6 7 14 33 18 58 4 25 8 105 9 178 1 73 -2 138 -6 145 -4 6 0 20 10 30 13 15
14 22 4 37 -7 11 -12 24 -12 30 0 5 11 10 23 10 13 0 27 -3 30 -7 4 -3 2 -12
-4 -20 -9 -10 -3 -13 32 -13 24 0 57 7 73 15 15 8 46 15 67 15 26 0 42 5 46
15 3 9 -3 25 -12 35 -10 11 -29 20 -42 20 -16 0 -23 6 -23 20 0 11 -4 20 -9
20 -5 0 -30 -9 -56 -20 -26 -11 -55 -20 -65 -20 -10 0 -22 10 -26 23 -4 12 -7
29 -5 39 1 9 -3 19 -9 23 -5 3 -10 13 -10 21 0 8 8 14 19 14 10 0 30 9 44 20
14 11 32 20 40 20 8 0 28 5 46 11 17 6 36 20 42 31 9 17 3 27 -41 69 -28 27
-55 49 -60 49 -5 0 -12 -5 -15 -11 -4 -6 1 -16 11 -23 9 -7 14 -18 10 -24 -4
-7 -12 -12 -17 -12 -6 0 -28 18 -49 39 -21 21 -45 41 -52 44 -7 2 -9 8 -5 13
4 4 17 3 27 -4 11 -7 24 -12 29 -12 5 0 12 15 16 33 4 17 8 51 10 74 1 24 9
50 16 59 8 10 15 45 16 88 2 47 -2 78 -12 92 -12 19 -23 22 -75 21z m-120
-407 c4 0 10 -3 14 -7 4 -5 20 -8 34 -8 20 0 28 -6 30 -22 3 -19 -1 -23 -22
-23 -14 0 -28 4 -31 10 -3 5 -19 7 -35 3 -17 -3 -30 -2 -30 2 0 5 7 17 17 27
9 10 19 18 23 18z m131 -36 c5 -3 9 -9 9 -15 0 -5 -7 -9 -15 -9 -8 0 -15 4
-15 8 0 5 3 12 6 15 4 4 11 4 15 1z m-251 -34 c15 0 30 -3 33 -7 4 -3 2 -12
-4 -20 -6 -7 -24 -13 -40 -13 -18 0 -29 5 -29 13 0 8 3 17 7 20 3 4 18 7 33 7z
m279 -30 c11 0 21 -4 21 -9 0 -6 -4 -12 -9 -15 -5 -3 -14 1 -21 9 -10 13 -9
15 9 15z m-188 -181 c4 1 12 -6 19 -14 6 -8 10 -22 8 -31 -2 -9 -10 -20 -18
-25 -8 -4 -33 -15 -55 -25 -22 -10 -63 -23 -92 -30 -28 -6 -54 -10 -57 -7 -3
3 1 14 7 24 7 11 31 29 55 40 23 12 42 25 42 30 0 5 8 9 18 9 9 0 28 7 42 14
14 8 28 14 31 15z m91 -24 c13 -4 27 -11 31 -15 5 -4 3 -17 -5 -29 -7 -11 -21
-21 -30 -21 -10 0 -18 5 -18 10 0 6 4 10 10 10 6 0 6 9 0 26 -9 23 -8 25 12
19z"/>
</g>
</svg>
