<?xml version="1.0" standalone="no"?>
<!DOCTYPE svg PUBLIC "-//W3C//DTD SVG 20010904//EN"
 "http://www.w3.org/TR/2001/REC-SVG-20010904/DTD/svg10.dtd">
<svg version="1.0" xmlns="http://www.w3.org/2000/svg"
 width="128.000000pt" height="128.000000pt" viewBox="0 0 128.000000 128.000000"
 preserveAspectRatio="xMidYMid meet">
<metadata>
Created by potrace 1.16, written by Peter Selinger 2001-2019
</metadata>
<g transform="translate(0.000000,128.000000) scale(0.100000,-0.100000)"
fill="#000000" stroke="none">
<path d="M175 1280 c-25 0 -25 0 -27 -100 -1 -55 -2 -110 -2 -122 -1 -19 5
-23 37 -26 35 -3 38 -1 56 40 10 24 35 78 55 120 20 42 36 80 36 83 0 3 -24 5
-53 5 -29 0 -58 -5 -65 -12 -9 -9 -12 -9 -12 0 0 7 -11 12 -25 12z"/>
<path d="M558 1280 c-33 0 -38 -3 -48 -36 -7 -20 -18 -48 -26 -62 -8 -15 -14
-36 -14 -48 0 -12 -20 -52 -45 -89 -24 -37 -79 -102 -121 -144 -42 -42 -85
-89 -96 -106 -10 -16 -18 -40 -18 -52 0 -13 13 -32 33 -47 19 -15 38 -26 43
-26 6 0 37 -15 69 -32 33 -18 84 -50 113 -72 29 -21 51 -43 49 -49 -1 -5 -21
-15 -43 -22 -21 -6 -59 -26 -84 -43 -25 -16 -53 -39 -62 -49 -9 -10 -29 -44
-43 -75 -25 -56 -26 -57 -10 -123 8 -36 22 -79 30 -94 8 -16 38 -42 67 -58 29
-17 73 -33 98 -36 25 -3 81 1 125 9 44 8 107 19 140 24 33 5 83 16 111 24 28
9 59 25 68 35 10 11 15 27 12 38 -3 10 -30 30 -59 46 -29 15 -55 27 -59 27 -3
0 -38 -18 -76 -40 -38 -21 -83 -42 -98 -46 -16 -4 -33 -10 -39 -14 -5 -4 -44
-9 -85 -11 -68 -4 -75 -2 -78 16 -3 11 -13 26 -24 33 -11 8 -18 23 -16 35 2
14 16 25 46 35 28 9 53 27 75 55 17 23 37 51 44 62 7 11 26 43 42 70 30 50 30
50 143 53 62 1 148 7 191 13 60 9 84 9 101 -1 13 -6 36 -10 52 -8 24 2 30 8
32 33 2 19 -6 43 -20 64 -13 19 -36 44 -51 55 -23 17 -41 21 -94 19 -38 -1
-75 -9 -89 -17 -12 -9 -47 -25 -76 -36 -29 -11 -65 -20 -79 -20 -15 0 -46 -7
-69 -15 -23 -8 -48 -15 -55 -15 -8 0 -36 30 -64 68 -27 37 -56 75 -64 84 -7
10 -26 22 -41 28 -15 5 -38 10 -52 10 -13 0 -24 6 -24 14 0 7 55 68 121 136
77 78 128 139 141 167 15 35 18 61 16 138 -3 95 -3 95 -40 95z m-131 -890 c7
0 13 -9 13 -20 0 -12 -8 -33 -17 -48 -9 -15 -26 -37 -37 -49 -11 -13 -25 -23
-33 -23 -7 0 -13 8 -13 19 0 10 7 35 15 54 8 20 25 43 37 51 12 9 28 16 35 16z"/>
<path d="M840 1280 c-126 0 -230 -2 -230 -5 0 -2 28 -20 63 -39 34 -19 87 -42
118 -50 31 -9 63 -14 71 -11 9 4 18 15 21 26 3 10 10 19 16 19 6 0 11 -6 11
-14 0 -8 4 -17 9 -21 6 -3 29 -1 53 4 29 7 52 20 71 43 15 18 27 36 27 40 0 4
-103 8 -230 8z"/>
</g>
</svg>
