<?xml version="1.0" standalone="no"?>
<!DOCTYPE svg PUBLIC "-//W3C//DTD SVG 20010904//EN"
 "http://www.w3.org/TR/2001/REC-SVG-20010904/DTD/svg10.dtd">
<svg version="1.0" xmlns="http://www.w3.org/2000/svg"
 width="128.000000pt" height="128.000000pt" viewBox="0 0 128.000000 128.000000"
 preserveAspectRatio="xMidYMid meet">
<metadata>
Created by potrace 1.16, written by Peter Selinger 2001-2019
</metadata>
<g transform="translate(0.000000,128.000000) scale(0.100000,-0.100000)"
fill="#000000" stroke="none">
<path d="M808 1000 c-7 0 -22 -7 -32 -15 -11 -8 -27 -15 -37 -15 -9 0 -22 -7
-29 -14 -6 -8 -27 -20 -45 -26 -19 -6 -61 -27 -95 -47 -33 -20 -60 -42 -60
-49 0 -7 14 -21 30 -31 27 -16 30 -22 30 -69 0 -32 13 -87 34 -149 26 -76 43
-109 74 -142 41 -43 41 -43 4 -70 -20 -15 -40 -32 -44 -38 -4 -5 2 -19 13 -31
11 -12 19 -28 17 -35 -2 -10 9 -15 39 -17 38 -3 43 0 57 27 9 16 16 38 16 48
0 10 -7 29 -16 41 -13 20 -13 23 0 28 8 3 39 1 68 -5 29 -6 113 -10 186 -9
132 1 132 1 183 55 47 50 51 57 45 91 -3 20 -15 66 -26 102 -12 36 -26 75 -32
88 -6 12 -18 22 -26 22 -12 0 -13 -9 -8 -42 4 -24 10 -62 13 -85 3 -23 3 -53
-1 -68 -4 -17 -19 -31 -44 -41 -20 -9 -51 -23 -69 -31 -26 -13 -55 -14 -159
-8 -126 7 -129 8 -157 38 -15 17 -41 57 -58 90 -18 37 -29 75 -29 101 0 30 -6
48 -20 61 -11 10 -20 26 -20 36 0 10 10 25 22 33 12 9 35 16 50 16 15 0 29 -4
32 -8 3 -4 1 -25 -4 -46 -5 -21 -4 -51 1 -71 6 -19 16 -35 22 -35 7 0 37 9 67
19 32 12 58 27 63 39 5 12 7 32 3 45 -4 17 -15 26 -36 30 -16 4 -30 10 -30 15
0 4 18 31 40 61 22 29 40 57 40 61 0 5 -13 18 -29 29 -16 12 -35 21 -43 21z"/>
<path d="M360 980 c-26 0 -30 -4 -30 -27 0 -19 -21 -55 -60 -107 -33 -44 -60
-88 -60 -98 0 -10 11 -23 25 -28 13 -5 27 -20 29 -32 3 -13 7 -42 10 -64 4
-27 2 -45 -7 -52 -6 -5 -30 -20 -52 -33 -22 -12 -66 -35 -98 -51 -31 -15 -61
-28 -65 -28 -4 0 -18 -9 -32 -20 -25 -20 -25 -20 7 -50 22 -19 39 -27 50 -23
10 3 27 14 38 24 11 10 30 28 42 40 11 11 25 25 30 30 4 5 23 20 40 35 18 14
37 23 43 19 5 -3 10 -32 10 -64 0 -33 -6 -65 -14 -76 -14 -19 -15 -19 -51 -2
-21 10 -40 16 -43 13 -2 -3 2 -16 11 -28 8 -13 29 -39 45 -58 30 -35 31 -35
59 -18 15 9 37 34 48 55 15 28 20 60 22 123 1 47 4 116 8 154 5 70 5 70 -32
108 -32 33 -36 41 -25 56 6 9 18 31 25 47 8 17 21 36 30 44 10 7 17 20 17 27
0 8 5 23 12 33 6 10 8 26 5 35 -4 10 -18 16 -37 16z"/>
<path d="M885 299 c-11 -1 -32 -8 -48 -16 -15 -8 -25 -18 -22 -24 4 -5 33 -9
66 -9 37 0 59 4 59 11 0 7 -8 18 -17 25 -10 7 -27 13 -38 13z"/>
</g>
</svg>
