<?xml version="1.0" standalone="no"?>
<!DOCTYPE svg PUBLIC "-//W3C//DTD SVG 20010904//EN"
 "http://www.w3.org/TR/2001/REC-SVG-20010904/DTD/svg10.dtd">
<svg version="1.0" xmlns="http://www.w3.org/2000/svg"
 width="128.000000pt" height="128.000000pt" viewBox="0 0 128.000000 128.000000"
 preserveAspectRatio="xMidYMid meet">
<metadata>
Created by potrace 1.16, written by Peter Selinger 2001-2019
</metadata>
<g transform="translate(0.000000,128.000000) scale(0.100000,-0.100000)"
fill="#000000" stroke="none">
<path d="M390 1060 c-18 0 -33 -7 -38 -17 -5 -10 -6 -27 -1 -38 4 -11 8 -32 8
-46 1 -14 -16 -52 -37 -85 -21 -32 -45 -66 -54 -74 -8 -9 -23 -30 -32 -47 -9
-18 -23 -36 -32 -41 -9 -5 -16 -24 -17 -43 -2 -30 1 -34 26 -37 16 -2 36 3 46
13 15 12 20 13 28 3 5 -7 14 -34 21 -60 6 -26 9 -53 7 -60 -3 -8 -20 -25 -37
-38 -18 -14 -47 -40 -66 -57 -19 -18 -39 -33 -46 -33 -6 0 -36 -16 -66 -35
-30 -19 -59 -35 -65 -35 -6 0 -16 -5 -23 -12 -9 -9 -8 -16 5 -30 9 -10 24 -18
34 -18 10 0 31 11 47 25 17 14 33 25 38 25 4 0 30 -14 58 -32 28 -17 65 -45
83 -62 17 -17 40 -39 51 -48 10 -10 26 -18 35 -18 9 0 21 8 26 18 6 11 13 104
17 208 4 104 7 202 6 218 -1 15 -11 48 -22 72 -12 24 -20 52 -18 61 3 13 11
17 33 15 17 -1 38 3 48 10 13 10 18 35 23 118 6 105 6 105 -26 143 -23 27 -39
37 -60 37z m-82 -591 c8 1 12 -20 12 -74 0 -59 -3 -76 -17 -83 -12 -7 -28 -4
-55 10 -21 11 -38 24 -38 30 0 5 19 33 43 63 23 30 48 54 55 54z"/>
<path d="M837 1000 c-2 0 -22 -12 -43 -26 -21 -15 -57 -41 -79 -58 -22 -18
-65 -47 -96 -64 -31 -18 -62 -39 -69 -47 -7 -8 -21 -15 -32 -15 -16 0 -19 -5
-15 -22 3 -13 16 -54 30 -93 14 -38 28 -107 32 -152 7 -82 7 -82 60 -132 53
-50 53 -50 122 -44 37 3 75 9 83 14 9 4 49 11 90 14 41 4 80 11 85 14 6 4 30
14 55 21 25 8 66 27 92 44 33 21 52 43 63 68 8 21 15 58 15 82 0 24 -10 84
-23 134 -13 49 -33 105 -43 123 -11 19 -27 34 -35 34 -10 0 -14 -13 -13 -50 0
-27 6 -83 13 -123 10 -55 10 -80 1 -107 -7 -20 -23 -43 -36 -52 -13 -8 -24
-24 -24 -34 0 -10 -15 -29 -32 -42 -23 -17 -52 -26 -93 -30 -34 -4 -77 -13
-98 -22 -20 -8 -56 -15 -81 -15 -25 0 -56 4 -69 9 -19 7 -28 22 -37 62 -7 29
-13 70 -13 91 0 22 7 46 15 54 10 10 46 17 107 21 78 5 94 9 106 27 8 11 15
28 15 38 0 11 -14 23 -35 32 -19 8 -35 21 -35 29 0 8 7 20 15 27 9 7 29 33 45
57 17 24 30 50 30 58 0 7 -3 21 -6 30 -4 8 -19 22 -35 30 -15 8 -30 15 -32 15z
m-114 -161 c4 1 10 -6 14 -15 3 -8 0 -26 -7 -39 -7 -12 -27 -40 -44 -60 -33
-38 -33 -38 -54 -14 -12 12 -22 31 -22 41 0 11 21 32 53 53 28 19 56 34 60 34z"/>
</g>
</svg>
