<?xml version="1.0" standalone="no"?>
<!DOCTYPE svg PUBLIC "-//W3C//DTD SVG 20010904//EN"
 "http://www.w3.org/TR/2001/REC-SVG-20010904/DTD/svg10.dtd">
<svg version="1.0" xmlns="http://www.w3.org/2000/svg"
 width="128.000000pt" height="128.000000pt" viewBox="0 0 128.000000 128.000000"
 preserveAspectRatio="xMidYMid meet">
<metadata>
Created by potrace 1.16, written by Peter Selinger 2001-2019
</metadata>
<g transform="translate(0.000000,128.000000) scale(0.100000,-0.100000)"
fill="#000000" stroke="none">
<path d="M824 1280 c-8 0 -14 -4 -14 -8 0 -5 -24 -18 -53 -30 -29 -12 -66 -22
-83 -22 -16 0 -47 -9 -69 -20 -22 -11 -58 -20 -82 -20 -23 0 -45 -4 -48 -10
-3 -5 -28 -10 -54 -10 -26 0 -52 -5 -59 -12 -7 -7 -12 -20 -12 -30 0 -11 10
-20 26 -24 14 -4 36 -2 50 4 13 7 31 9 40 5 12 -4 14 -15 9 -52 -4 -31 -1 -61
9 -90 9 -24 16 -74 16 -112 0 -37 4 -71 10 -74 6 -3 10 -24 10 -46 0 -32 -4
-41 -25 -51 -14 -6 -25 -17 -25 -23 0 -7 -9 -23 -19 -36 -16 -20 -22 -22 -32
-11 -8 7 -19 31 -26 55 -7 23 -13 53 -13 66 0 13 16 48 36 78 31 47 35 59 29
91 -4 20 -11 43 -17 50 -6 6 -18 12 -28 12 -10 0 -40 -10 -67 -22 -48 -23 -48
-23 -24 -48 21 -23 23 -31 17 -92 -3 -37 -11 -78 -17 -91 -9 -20 -7 -32 11
-67 21 -41 21 -48 9 -99 -7 -31 -19 -65 -26 -76 -7 -11 -13 -28 -13 -38 0 -10
9 -36 21 -58 13 -27 26 -39 37 -37 9 2 27 23 39 48 13 25 31 52 40 60 10 8 24
28 31 43 6 15 12 37 12 47 0 13 7 20 19 20 15 0 19 -10 24 -57 2 -32 0 -82 -6
-111 -9 -48 -14 -56 -62 -87 -29 -19 -57 -35 -63 -35 -6 0 -18 -10 -26 -22 -9
-12 -16 -41 -16 -64 0 -24 6 -47 15 -54 10 -8 23 -9 42 -3 16 6 41 6 57 2 20
-6 47 -1 95 15 36 13 90 31 119 41 41 14 73 16 133 12 68 -4 85 -9 116 -34 20
-15 61 -47 92 -70 31 -24 60 -43 66 -43 5 0 15 4 20 8 6 4 23 26 39 50 25 36
29 52 28 100 0 31 -6 111 -12 177 -5 66 -15 206 -21 310 -8 128 -16 201 -26
223 -12 26 -13 35 -3 47 10 12 11 43 6 127 -4 62 -10 116 -12 120 -3 4 -16 8
-29 8 -13 0 -39 13 -57 29 -26 22 -38 27 -51 20 -9 -6 -17 -22 -17 -37 0 -15
11 -51 25 -80 18 -40 25 -71 25 -117 0 -35 4 -66 9 -69 4 -3 9 -70 10 -148 2
-79 4 -213 6 -298 1 -85 6 -172 10 -192 6 -30 4 -39 -9 -44 -10 -4 -34 1 -55
11 -30 13 -43 14 -59 6 -12 -6 -23 -7 -26 -2 -3 5 -35 8 -70 6 -46 -1 -72 -8
-94 -23 -16 -12 -37 -22 -44 -22 -8 0 -23 9 -33 20 -18 20 -18 21 6 46 20 22
29 24 70 20 41 -5 49 -3 62 18 9 13 38 47 66 75 28 29 55 66 59 84 5 19 5 44
-1 60 -5 15 -18 32 -28 38 -11 5 -23 7 -28 4 -5 -3 -17 -2 -26 1 -13 5 -15 15
-10 48 4 22 13 48 21 57 8 8 14 22 14 30 0 8 14 31 31 52 26 32 30 43 25 75
-3 20 -8 52 -11 71 -3 19 -14 40 -23 48 -9 7 -28 16 -41 19 -20 6 -31 0 -59
-32 -19 -21 -52 -58 -74 -81 -22 -24 -46 -43 -54 -43 -8 0 -17 6 -19 13 -3 6
-6 44 -8 83 -2 39 -11 85 -20 104 -10 18 -17 37 -17 42 0 5 16 16 35 24 19 7
51 14 72 14 21 0 49 6 63 13 14 7 31 25 38 40 10 20 19 26 31 22 10 -3 34 2
54 10 21 8 37 20 37 25 0 6 -11 10 -24 10 -14 0 -28 5 -31 10 -3 6 -13 10 -21
10z m-63 -380 c4 0 10 -4 13 -8 3 -5 -2 -28 -10 -51 -8 -24 -21 -56 -29 -72
-8 -15 -15 -37 -15 -47 0 -10 -9 -27 -20 -37 -11 -10 -20 -28 -20 -40 0 -12 9
-34 21 -48 11 -15 22 -41 25 -59 4 -28 -1 -40 -36 -76 -24 -26 -47 -42 -58
-40 -15 3 -17 20 -17 173 0 94 3 178 7 187 5 9 16 19 25 22 10 3 26 19 35 36
9 16 23 30 31 30 8 0 20 7 27 15 7 8 16 15 21 15z"/>
<path d="M142 1058 c-13 2 -24 -3 -28 -12 -3 -9 -3 -37 0 -63 3 -27 10 -115
16 -198 8 -123 7 -159 -5 -207 -8 -32 -14 -103 -15 -160 0 -57 -2 -151 -4
-209 -5 -95 -3 -111 17 -150 16 -33 29 -45 48 -47 14 -2 31 4 38 12 7 8 12 30
12 48 0 18 -1 183 -3 367 -2 263 -6 335 -16 339 -10 3 -9 10 4 29 14 23 15 33
4 87 -7 33 -18 70 -25 82 -8 11 -15 34 -17 50 -2 21 -9 30 -26 32z"/>
</g>
</svg>
