<?xml version="1.0" standalone="no"?>
<!DOCTYPE svg PUBLIC "-//W3C//DTD SVG 20010904//EN"
 "http://www.w3.org/TR/2001/REC-SVG-20010904/DTD/svg10.dtd">
<svg version="1.0" xmlns="http://www.w3.org/2000/svg"
 width="128.000000pt" height="128.000000pt" viewBox="0 0 128.000000 128.000000"
 preserveAspectRatio="xMidYMid meet">
<metadata>
Created by potrace 1.16, written by Peter Selinger 2001-2019
</metadata>
<g transform="translate(0.000000,128.000000) scale(0.100000,-0.100000)"
fill="#000000" stroke="none">
<path d="M667 1280 c-51 0 -64 -3 -75 -20 -6 -11 -12 -30 -12 -42 -1 -13 -7
-34 -14 -47 -9 -16 -11 -32 -6 -45 5 -12 11 -33 14 -47 3 -15 24 -40 48 -58
24 -18 51 -37 60 -44 16 -11 16 -22 7 -117 -5 -58 -11 -111 -14 -117 -2 -7
-11 -13 -20 -13 -8 0 -20 11 -26 24 -10 20 -8 31 10 60 22 35 22 35 -26 70
-26 20 -54 36 -61 36 -7 0 -23 -5 -35 -11 -12 -7 -24 -13 -26 -15 -3 -2 6 -15
18 -28 22 -24 22 -25 5 -53 -10 -15 -26 -36 -36 -46 -10 -10 -18 -26 -18 -36
0 -10 14 -30 32 -45 17 -14 35 -26 40 -26 4 0 8 -8 8 -17 0 -10 -31 -52 -70
-93 -38 -41 -85 -92 -105 -112 -27 -28 -35 -43 -30 -58 4 -13 1 -22 -9 -26 -9
-4 -16 -18 -16 -33 0 -14 6 -44 14 -66 8 -23 25 -46 40 -55 23 -13 32 -13 88
2 55 14 65 14 78 2 8 -8 24 -21 35 -29 15 -10 17 -17 9 -25 -8 -8 -14 -7 -24
5 -7 8 -16 15 -21 15 -5 0 -9 -6 -9 -14 0 -8 9 -18 20 -21 11 -3 20 -15 20
-26 0 -10 5 -19 11 -19 6 0 26 -12 45 -27 35 -26 36 -26 67 -8 18 10 43 27 56
39 13 12 27 31 32 44 5 13 17 22 29 22 15 0 20 -7 20 -24 0 -19 6 -25 28 -28
27 -3 27 -3 1 -18 -14 -8 -49 -30 -77 -48 -29 -19 -52 -35 -52 -37 0 -2 56 -4
124 -4 124 -1 124 -1 131 27 3 16 1 41 -5 56 -5 15 -10 37 -10 50 0 13 -17 38
-42 62 -24 22 -56 49 -72 58 -22 14 -41 17 -82 13 -41 -4 -54 -2 -58 10 -3 8
-6 21 -6 29 0 8 9 23 20 34 12 12 33 20 54 20 23 0 39 7 48 19 7 10 31 22 54
25 22 4 55 16 73 27 20 12 31 26 29 37 -2 9 -28 31 -59 47 -31 17 -64 36 -73
44 -8 7 -22 11 -29 8 -8 -3 -19 -2 -26 3 -8 4 -13 28 -13 56 0 27 2 104 4 171
3 112 5 124 27 147 17 18 36 26 69 28 28 2 49 9 55 19 8 12 2 27 -22 62 -17
25 -41 49 -54 53 -12 4 -48 24 -79 45 -31 22 -64 39 -72 39 -9 0 -16 -2 -16
-4 0 -2 7 -20 15 -39 8 -20 15 -46 15 -57 0 -15 -7 -20 -28 -20 -16 0 -36 8
-45 18 -10 10 -17 26 -17 36 0 9 6 29 14 44 8 15 30 43 50 62 19 19 36 38 36
43 0 4 -28 7 -63 7z m-48 -752 c12 -3 16 -15 14 -51 -1 -26 -7 -54 -13 -62 -7
-8 -23 -15 -36 -15 -13 0 -40 -9 -59 -19 -20 -10 -45 -17 -56 -14 -11 3 -24
13 -29 23 -7 13 -4 20 15 28 13 6 31 23 41 37 9 14 23 25 31 25 8 0 29 11 45
25 17 14 38 24 47 23z m64 -138 c16 0 17 -3 7 -15 -7 -8 -19 -15 -26 -15 -8 0
-14 4 -14 8 0 5 3 12 7 15 3 4 15 7 26 7z m-99 -63 c6 -2 12 -11 14 -20 2 -11
-3 -17 -16 -17 -10 0 -22 3 -25 7 -4 3 -2 12 5 20 6 7 16 12 22 10z m-64 -17
c6 0 10 -7 10 -15 0 -8 -4 -15 -10 -15 -5 0 -10 7 -10 15 0 8 5 15 10 15z"/>
</g>
</svg>
