<?xml version="1.0" standalone="no"?>
<!DOCTYPE svg PUBLIC "-//W3C//DTD SVG 20010904//EN"
 "http://www.w3.org/TR/2001/REC-SVG-20010904/DTD/svg10.dtd">
<svg version="1.0" xmlns="http://www.w3.org/2000/svg"
 width="128.000000pt" height="128.000000pt" viewBox="0 0 128.000000 128.000000"
 preserveAspectRatio="xMidYMid meet">
<metadata>
Created by potrace 1.16, written by Peter Selinger 2001-2019
</metadata>
<g transform="translate(0.000000,128.000000) scale(0.100000,-0.100000)"
fill="#000000" stroke="none">
<path d="M415 1280 c-21 0 -35 -5 -35 -12 0 -7 3 -23 6 -35 4 -13 12 -23 18
-23 6 0 19 13 29 29 9 16 17 32 17 35 0 3 -16 6 -35 6z"/>
<path d="M620 1280 c-57 0 -62 -2 -57 -19 3 -11 -1 -28 -8 -38 -7 -10 -14 -43
-16 -73 -4 -52 -3 -55 28 -75 18 -11 32 -26 33 -32 0 -8 -13 -13 -30 -13 -17
0 -33 -6 -36 -14 -3 -8 -19 -20 -35 -26 -16 -7 -34 -20 -39 -30 -6 -11 -5 -21
2 -28 7 -7 20 -12 29 -12 10 0 20 -4 24 -9 3 -5 -2 -27 -11 -48 -9 -21 -26
-56 -37 -77 -20 -39 -20 -39 7 -63 19 -16 39 -23 71 -23 24 0 50 -3 59 -6 9
-3 16 -14 16 -24 0 -10 -7 -20 -15 -23 -8 -4 -26 -29 -40 -57 -14 -27 -29 -50
-33 -50 -5 0 -31 -19 -60 -43 -28 -23 -67 -52 -87 -64 -20 -13 -48 -26 -61
-29 -14 -4 -32 -17 -41 -30 -14 -23 -14 -26 2 -44 10 -11 39 -32 64 -46 36
-20 55 -25 86 -20 23 3 49 8 58 12 11 4 19 0 23 -10 4 -9 -1 -25 -10 -35 -9
-10 -16 -27 -16 -38 0 -12 -8 -41 -19 -65 -16 -38 -17 -48 -5 -70 7 -14 24
-33 38 -42 14 -9 34 -16 44 -16 12 0 24 11 32 30 7 17 29 44 49 61 20 17 71
65 114 107 42 41 79 73 80 71 2 -2 11 -22 19 -44 8 -22 18 -56 22 -77 5 -26
18 -46 50 -72 25 -20 51 -36 59 -36 9 0 17 4 19 10 2 5 2 48 0 95 -3 83 -5 86
-30 96 -15 6 -43 26 -63 45 -20 19 -49 38 -65 43 -19 5 -29 14 -29 26 0 13 14
23 50 35 31 10 54 25 61 39 7 13 17 28 23 34 6 6 11 14 11 18 0 4 -15 16 -34
27 -18 11 -52 23 -74 27 -26 4 -43 13 -46 23 -3 9 -6 73 -6 142 0 69 -1 148
-3 175 -1 28 -6 55 -10 61 -4 7 0 29 9 49 13 31 18 36 37 30 12 -4 38 -9 57
-12 19 -2 47 0 62 6 27 10 27 10 11 43 -9 18 -30 46 -45 62 -25 24 -33 27 -51
18 -12 -5 -29 -12 -38 -15 -9 -3 -22 0 -28 6 -8 8 -11 7 -11 -6 0 -10 -8 -17
-19 -17 -11 0 -21 -9 -24 -21 -3 -12 -12 -19 -19 -17 -7 3 -19 16 -26 31 -7
14 -21 29 -31 32 -11 3 -26 16 -35 30 -14 21 -14 26 0 55 12 24 19 28 29 20 8
-6 19 -10 27 -9 7 1 19 1 27 0 9 -1 12 -10 8 -33 -3 -18 -2 -41 2 -52 6 -17
10 -16 41 10 19 16 38 33 42 39 4 5 8 21 8 35 -1 14 -7 33 -14 43 -7 9 -23 17
-36 17 -13 0 -29 -8 -36 -17 -13 -17 -15 -17 -28 0 -10 13 -28 17 -76 17z m57
-260 c23 0 23 -1 23 -120 0 -101 -3 -122 -16 -127 -9 -3 -37 3 -62 13 -26 11
-48 27 -50 36 -2 10 11 45 27 80 17 34 31 70 31 78 0 9 5 21 12 28 7 7 22 12
35 12z m-17 -453 c21 -2 25 -7 23 -32 -1 -16 -10 -44 -20 -62 -15 -29 -23 -33
-56 -33 -24 0 -49 -8 -64 -20 -14 -11 -36 -20 -49 -20 -13 0 -24 6 -24 13 0 6
4 17 8 24 4 7 41 40 82 73 54 43 82 59 100 57z m84 -129 c10 -1 17 -7 17 -13
-1 -5 -6 -10 -13 -10 -6 0 -13 6 -16 13 -3 9 2 13 12 10z m-2 -98 c5 0 11 -7
15 -16 3 -8 0 -25 -6 -37 -7 -12 -32 -44 -56 -71 -25 -27 -45 -53 -45 -58 0
-4 -13 -8 -30 -8 -28 0 -30 3 -30 35 0 20 8 48 18 63 10 15 23 36 28 47 7 12
26 22 48 26 20 3 39 9 43 12 3 4 10 7 15 7z"/>
</g>
</svg>
