<?xml version="1.0" standalone="no"?>
<!DOCTYPE svg PUBLIC "-//W3C//DTD SVG 20010904//EN"
 "http://www.w3.org/TR/2001/REC-SVG-20010904/DTD/svg10.dtd">
<svg version="1.0" xmlns="http://www.w3.org/2000/svg"
 width="128.000000pt" height="128.000000pt" viewBox="0 0 128.000000 128.000000"
 preserveAspectRatio="xMidYMid meet">
<metadata>
Created by potrace 1.16, written by Peter Selinger 2001-2019
</metadata>
<g transform="translate(0.000000,128.000000) scale(0.100000,-0.100000)"
fill="#000000" stroke="none">
<path d="M668 1273 c-3 7 -6 8 -9 2 -2 -5 -23 -23 -47 -39 -43 -29 -43 -29
-22 -51 11 -12 20 -30 20 -41 0 -11 -10 -30 -23 -42 -13 -12 -32 -22 -43 -22
-10 0 -25 -4 -33 -9 -8 -5 -11 -16 -8 -25 3 -8 21 -19 39 -24 19 -5 38 -18 45
-32 9 -17 9 -28 1 -37 -7 -8 -35 -13 -79 -13 -69 0 -69 0 -69 -35 0 -19 9 -49
20 -67 11 -18 20 -36 20 -40 0 -5 -25 -34 -55 -65 -33 -36 -55 -67 -55 -81 0
-13 7 -36 15 -52 9 -18 24 -30 35 -30 10 0 22 5 25 10 3 6 15 10 26 10 10 0
19 -6 19 -13 0 -7 -5 -18 -11 -24 -8 -8 -8 -13 0 -17 6 -4 11 -11 11 -17 0 -5
-9 -9 -20 -9 -11 0 -29 -9 -40 -20 -12 -12 -20 -33 -20 -54 0 -19 5 -38 10
-41 8 -5 7 -12 -2 -22 -10 -12 -8 -18 11 -33 19 -14 23 -23 17 -46 -4 -16 -14
-36 -22 -45 -9 -10 -13 -26 -9 -41 3 -13 20 -38 36 -56 20 -22 39 -32 59 -32
15 0 57 13 92 30 34 16 68 30 75 30 7 0 28 16 47 35 20 19 44 35 55 35 11 0
24 -8 29 -17 5 -10 12 -32 15 -49 4 -23 1 -37 -13 -51 -11 -13 -38 -23 -71
-27 -29 -4 -64 -13 -78 -21 -14 -7 -56 -16 -94 -20 -42 -5 -76 -15 -91 -26
-13 -11 -39 -19 -58 -19 -18 0 -40 -5 -48 -10 -10 -7 14 -10 78 -10 63 0 102
5 122 15 16 8 62 19 102 24 40 5 93 14 118 21 25 6 56 21 68 33 13 12 30 34
38 49 8 15 14 44 14 66 0 21 -3 42 -7 46 -4 4 -8 17 -8 28 0 17 -12 25 -62 41
-62 20 -62 20 -98 -9 -20 -16 -47 -39 -61 -52 -14 -12 -29 -22 -34 -22 -4 0
-22 -8 -39 -17 -24 -14 -35 -15 -48 -7 -10 6 -19 21 -21 33 -2 15 15 41 55 85
34 37 79 75 108 89 28 14 67 32 88 41 26 11 37 22 35 33 -2 10 -14 23 -28 29
-14 7 -37 18 -53 25 -24 11 -30 10 -55 -12 -15 -13 -45 -41 -68 -62 -24 -22
-52 -39 -69 -40 -15 -1 -30 4 -32 11 -3 7 9 25 26 41 17 16 31 33 31 37 0 4
10 18 22 32 19 19 23 35 23 85 0 62 0 62 -32 65 -18 2 -33 9 -33 15 0 7 9 18
20 25 11 7 20 18 20 24 0 7 11 23 24 37 21 21 27 43 36 121 7 52 14 98 16 101
2 3 31 9 64 12 33 3 67 11 75 17 8 7 15 19 15 26 0 8 -12 17 -27 20 -14 4 -40
2 -56 -4 -17 -6 -34 -9 -38 -6 -5 3 -9 14 -9 24 0 11 7 37 16 59 12 30 13 44
4 60 -6 12 -17 21 -25 21 -7 0 -15 6 -17 13z"/>
</g>
</svg>
