<?xml version="1.0" standalone="no"?>
<!DOCTYPE svg PUBLIC "-//W3C//DTD SVG 20010904//EN"
 "http://www.w3.org/TR/2001/REC-SVG-20010904/DTD/svg10.dtd">
<svg version="1.0" xmlns="http://www.w3.org/2000/svg"
 width="128.000000pt" height="128.000000pt" viewBox="0 0 128.000000 128.000000"
 preserveAspectRatio="xMidYMid meet">
<metadata>
Created by potrace 1.16, written by Peter Selinger 2001-2019
</metadata>
<g transform="translate(0.000000,128.000000) scale(0.100000,-0.100000)"
fill="#000000" stroke="none">
<path d="M318 1271 c-14 7 -18 5 -18 -10 0 -10 7 -24 16 -32 8 -7 22 -25 29
-40 8 -15 29 -34 46 -43 18 -9 40 -16 50 -16 12 0 21 10 25 25 4 15 1 32 -6
41 -8 8 -38 26 -69 40 -31 14 -64 29 -73 35z"/>
<path d="M690 1280 c-11 0 -28 -18 -45 -46 -20 -34 -24 -48 -15 -59 7 -8 9
-48 6 -116 -3 -57 -9 -131 -13 -164 -4 -33 -6 -130 -6 -215 1 -103 6 -175 16
-215 9 -33 18 -69 22 -81 5 -17 -3 -27 -48 -56 -49 -33 -56 -42 -67 -87 -6
-27 -9 -55 -5 -61 3 -5 15 -10 26 -10 10 0 41 16 68 35 27 20 52 42 55 50 3 8
17 15 30 15 14 0 41 9 61 21 19 12 42 18 50 15 9 -3 15 -18 15 -40 0 -23 -12
-52 -41 -92 -22 -33 -51 -74 -65 -93 -13 -19 -24 -45 -24 -57 0 -15 6 -24 16
-24 9 0 52 34 96 75 63 58 92 78 134 90 39 11 59 12 79 5 25 -9 27 -14 20 -48
-4 -20 -9 -40 -12 -44 -2 -5 -17 -15 -33 -23 -16 -8 -34 -24 -40 -35 -10 -18
-6 -19 80 -18 84 1 92 3 110 26 15 18 20 40 20 84 0 37 -6 68 -16 83 -10 15
-26 25 -41 25 -13 0 -34 7 -47 15 -21 14 -28 14 -78 -5 -31 -11 -63 -18 -72
-14 -9 3 -16 11 -16 18 1 6 7 32 13 58 7 27 17 52 22 57 6 6 39 14 74 20 35 6
64 12 65 13 1 2 10 16 20 32 17 26 18 54 17 312 -2 240 1 288 14 314 8 16 22
30 30 30 10 0 15 11 15 35 0 19 -2 35 -3 35 -2 0 -18 -7 -36 -16 -22 -11 -41
-13 -64 -8 -17 4 -36 6 -42 5 -5 -2 -30 -3 -55 -2 -30 1 -63 -7 -95 -23 -28
-13 -66 -36 -85 -51 -35 -27 -35 -27 6 -21 31 4 43 2 47 -8 3 -7 -7 -25 -21
-39 -15 -14 -45 -37 -66 -51 -21 -14 -43 -26 -47 -26 -5 0 -13 8 -18 18 -7 14
-5 28 8 53 13 23 16 42 11 60 -5 15 -6 69 -4 121 2 51 1 101 -2 111 -3 9 -14
17 -24 17z m301 -191 c3 1 17 -5 32 -11 14 -7 31 -24 37 -38 5 -14 11 -50 12
-80 1 -30 2 -117 0 -192 -2 -128 -3 -138 -21 -138 -10 0 -33 16 -50 35 -17 20
-31 39 -31 43 0 4 9 25 20 47 11 22 20 45 20 52 0 7 -23 24 -52 38 -28 14 -55
25 -60 25 -4 0 -8 -10 -8 -23 0 -13 -6 -30 -12 -39 -7 -9 -29 -18 -48 -20 -26
-2 -35 1 -38 15 -2 11 22 42 72 90 42 39 76 77 76 84 0 6 -11 20 -25 31 -14
11 -25 24 -25 29 0 5 10 14 23 20 12 6 33 15 47 21 14 6 27 11 31 11z m-216
-211 c6 -5 0 -25 -14 -52 -20 -35 -23 -51 -17 -89 4 -25 16 -57 27 -70 10 -14
19 -29 19 -35 0 -5 -14 -28 -31 -51 -17 -24 -28 -49 -25 -56 3 -8 16 -21 30
-30 21 -14 30 -14 66 -4 25 8 44 9 50 3 6 -6 6 -23 0 -46 -6 -20 -18 -45 -28
-56 -9 -11 -36 -23 -59 -26 -40 -6 -43 -5 -43 17 0 14 -9 26 -22 32 -20 9 -24
21 -30 80 -4 39 -11 111 -16 160 -5 50 -5 94 -1 99 5 6 9 30 9 55 0 26 4 51 8
58 4 6 21 13 37 15 17 2 34 0 40 -4z m175 -115 c3 -3 -1 -8 -7 -10 -7 -3 -13
-11 -13 -19 0 -8 -7 -14 -15 -14 -8 0 -15 4 -15 9 0 5 10 15 23 24 12 8 24 12
27 10z m-20 -108 c5 -3 10 -15 10 -25 0 -10 5 -20 11 -22 6 -2 17 -22 25 -43
7 -22 14 -43 14 -47 0 -5 -9 -8 -20 -8 -13 0 -20 7 -20 19 0 11 -10 37 -21 59
-12 22 -19 48 -15 57 3 9 10 13 16 10z m132 -45 c4 0 8 -7 8 -15 0 -8 -7 -15
-15 -15 -8 0 -15 4 -15 8 0 5 3 12 7 15 3 4 10 7 15 7z m-41 -150 c5 0 9 -10
9 -21 0 -18 -2 -19 -15 -9 -8 7 -12 16 -9 21 3 5 9 9 15 9z"/>
<path d="M512 1050 c-5 0 -12 -3 -15 -7 -4 -3 -7 -10 -7 -15 0 -4 7 -8 15 -8
8 0 15 7 15 15 0 8 -4 15 -8 15z"/>
<path d="M471 980 c-5 0 -16 -11 -25 -25 -9 -13 -16 -29 -16 -35 0 -7 6 -10
13 -7 6 2 12 10 12 18 0 8 6 18 13 22 6 4 12 12 12 17 0 6 -4 10 -9 10z"/>
<path d="M412 886 c-4 1 -26 -2 -49 -5 -23 -4 -50 -14 -60 -23 -10 -9 -43 -29
-73 -46 -30 -17 -69 -33 -87 -37 -17 -3 -37 -12 -43 -20 -9 -11 -5 -17 19 -29
16 -9 41 -16 54 -16 13 0 44 13 68 30 24 16 56 30 72 30 23 0 27 -4 27 -30 0
-16 -7 -55 -15 -87 -8 -32 -46 -121 -85 -198 -38 -78 -70 -150 -70 -161 0 -11
3 -23 6 -27 4 -3 19 4 36 16 22 16 33 19 45 11 11 -6 23 -45 36 -109 11 -54
29 -117 41 -139 13 -25 28 -41 40 -41 11 0 28 17 43 44 15 28 22 52 19 67 -4
13 -8 191 -11 396 -3 205 -8 374 -13 374z m-55 -486 c12 0 14 -13 11 -72 -3
-58 -7 -73 -20 -76 -10 -2 -23 8 -32 27 -9 16 -16 37 -16 46 0 10 9 30 21 46
11 16 27 29 36 29z"/>
</g>
</svg>
