<?xml version="1.0" standalone="no"?>
<!DOCTYPE svg PUBLIC "-//W3C//DTD SVG 20010904//EN"
 "http://www.w3.org/TR/2001/REC-SVG-20010904/DTD/svg10.dtd">
<svg version="1.0" xmlns="http://www.w3.org/2000/svg"
 width="128.000000pt" height="128.000000pt" viewBox="0 0 128.000000 128.000000"
 preserveAspectRatio="xMidYMid meet">
<metadata>
Created by potrace 1.16, written by Peter Selinger 2001-2019
</metadata>
<g transform="translate(0.000000,128.000000) scale(0.100000,-0.100000)"
fill="#000000" stroke="none">
<path d="M546 1196 c-54 4 -64 2 -89 -21 -15 -14 -36 -25 -45 -25 -10 0 -27
-7 -39 -15 -12 -8 -57 -21 -100 -29 -43 -7 -91 -13 -108 -12 -16 0 -32 -3 -34
-9 -2 -5 7 -15 20 -22 19 -10 23 -19 21 -43 -4 -32 -4 -32 40 -27 23 3 59 9
78 13 19 4 41 11 48 17 6 5 60 18 119 29 59 10 112 23 118 27 5 5 31 12 57 15
25 4 52 13 58 21 6 8 9 19 5 25 -3 6 -25 20 -47 31 -23 12 -68 23 -102 25z
m-300 -146 c9 0 14 -5 12 -12 -2 -6 -10 -14 -16 -16 -7 -2 -12 3 -12 12 0 9 7
16 16 16z"/>
<path d="M869 1096 c-9 2 -22 -3 -29 -11 -10 -12 -10 -19 -2 -27 7 -7 12 -22
12 -34 0 -12 8 -32 18 -43 16 -21 27 -22 152 -24 88 -1 143 -7 158 -15 20 -12
22 -18 16 -63 -6 -44 -4 -51 13 -55 10 -3 24 -19 30 -35 6 -16 18 -29 27 -29
12 0 16 11 16 46 0 28 -6 51 -16 61 -11 12 -14 27 -10 51 4 26 1 39 -12 49 -9
8 -27 21 -39 29 -12 9 -54 22 -94 30 -39 9 -77 13 -84 10 -7 -2 -28 6 -45 19
-18 13 -47 27 -64 30 -17 4 -38 9 -47 11z"/>
<path d="M542 1009 c-4 0 -25 -7 -46 -15 -21 -8 -44 -18 -50 -23 -6 -4 -24
-11 -40 -15 -16 -4 -42 -18 -57 -31 -24 -19 -26 -25 -14 -35 8 -7 24 -9 37 -5
13 4 37 16 54 26 17 11 43 19 57 19 14 0 29 -5 32 -10 4 -6 -10 -29 -30 -51
-30 -33 -35 -45 -30 -69 5 -25 2 -31 -24 -45 -17 -8 -31 -19 -31 -24 0 -5 14
-14 30 -20 17 -5 30 -14 30 -19 0 -5 -10 -18 -23 -30 -13 -12 -35 -22 -49 -22
-14 0 -32 -8 -41 -18 -10 -10 -14 -22 -10 -25 3 -4 15 -7 27 -7 11 0 38 9 60
19 23 10 59 27 81 37 24 11 60 18 95 17 30 0 61 4 68 10 9 7 18 5 30 -7 10 -9
23 -16 29 -16 6 0 17 7 24 16 11 14 10 19 -11 36 -15 12 -32 17 -46 14 -12 -3
-26 0 -32 7 -6 7 -14 25 -17 40 -5 17 -17 32 -32 38 -13 5 -26 9 -29 9 -2 0
-4 -9 -4 -20 0 -10 6 -23 14 -27 8 -4 16 -21 18 -38 3 -29 1 -30 -40 -33 -32
-2 -44 1 -49 14 -3 9 0 31 7 48 7 17 12 43 12 57 -1 21 12 37 58 74 33 27 60
51 60 55 0 4 -8 13 -17 21 -10 8 -35 22 -56 32 -21 9 -41 17 -45 16z"/>
<path d="M114 904 c-7 3 -16 1 -19 -4 -3 -5 -1 -30 5 -57 7 -31 8 -54 1 -68
-5 -11 -17 -52 -26 -92 -12 -53 -13 -77 -5 -92 6 -12 25 -23 48 -26 20 -4 54
-13 75 -22 29 -13 42 -14 62 -5 14 6 25 18 25 25 0 10 -14 14 -47 15 -41 0
-51 5 -75 34 -15 18 -28 41 -28 51 0 11 8 17 21 17 14 0 19 5 17 18 -2 10 -14
18 -31 20 -15 2 -27 7 -27 12 0 5 7 16 16 24 8 9 22 16 29 16 8 0 16 8 20 18
3 11 22 24 43 30 20 7 51 13 67 14 22 2 30 8 30 23 0 15 -8 21 -34 23 -19 2
-44 -1 -55 -6 -12 -6 -34 -13 -49 -15 -23 -4 -31 0 -39 19 -6 12 -17 25 -24
28z m-5 -248 c4 -3 6 -17 3 -31 -2 -14 -6 -25 -8 -25 -2 0 -4 14 -4 31 0 16 4
28 9 25z"/>
<path d="M935 890 c-8 7 -15 9 -15 4 0 -5 7 -18 15 -28 12 -16 15 -17 15 -4 0
8 -7 21 -15 28z"/>
<path d="M998 820 c-21 0 -28 -5 -28 -19 0 -11 -5 -23 -10 -26 -7 -4 -7 -12 0
-24 5 -10 23 -24 39 -31 21 -8 28 -16 23 -28 -3 -10 -21 -31 -39 -48 -23 -22
-33 -40 -33 -62 0 -17 5 -43 12 -57 6 -14 19 -25 29 -25 9 0 20 -8 23 -17 5
-11 -7 -30 -36 -60 -24 -24 -52 -43 -64 -43 -11 0 -28 -8 -37 -18 -13 -14 -14
-21 -5 -30 7 -7 20 -12 30 -12 10 0 25 11 34 25 11 17 26 25 44 25 15 0 35 8
44 19 9 10 37 26 61 36 25 9 45 22 45 29 0 7 -20 26 -45 42 -25 15 -45 32 -45
38 0 5 -10 20 -22 33 -18 19 -20 27 -10 48 6 14 18 25 25 25 7 0 32 20 55 44
42 44 42 44 -10 90 -35 31 -62 46 -80 46z"/>
<path d="M1210 745 c-4 2 -10 2 -14 -2 -3 -3 -6 -50 -6 -104 0 -53 3 -104 6
-113 3 -9 16 -16 28 -16 13 0 28 12 39 31 16 29 16 33 2 43 -9 6 -21 29 -26
51 -6 22 -13 55 -16 73 -3 18 -9 34 -13 37z"/>
<path d="M866 700 c-8 0 -17 -4 -20 -9 -3 -5 0 -14 8 -20 7 -6 16 -8 19 -4 4
3 7 12 7 20 0 7 -6 13 -14 13z"/>
<path d="M460 590 c-11 0 -24 -9 -30 -20 -8 -15 -8 -30 1 -55 10 -27 10 -53 1
-122 -6 -49 -14 -123 -18 -165 -5 -60 -3 -79 8 -83 7 -3 27 -1 43 4 28 7 30
11 27 51 -1 25 3 52 12 64 8 12 11 29 7 37 -4 8 -5 39 -3 70 3 47 8 58 26 67
16 7 37 6 71 -3 31 -7 51 -19 56 -31 4 -10 8 -36 8 -56 1 -20 -3 -48 -9 -62
-5 -14 -6 -28 -1 -30 4 -3 17 5 29 17 11 12 22 41 25 67 3 25 9 63 14 85 5 22
15 49 21 61 6 11 8 30 5 42 -3 12 -12 22 -19 22 -8 0 -14 -6 -14 -13 0 -8 -8
-21 -18 -30 -10 -10 -31 -17 -47 -17 -16 0 -37 8 -47 17 -16 14 -22 15 -36 5
-9 -7 -23 -15 -30 -18 -7 -4 -19 -1 -27 6 -8 7 -20 30 -25 51 -8 28 -16 39
-30 39z"/>
<path d="M48 520 c-16 0 -31 -6 -34 -15 -4 -8 -3 -31 1 -51 4 -23 11 -34 19
-31 7 3 19 2 26 -3 7 -4 10 -15 7 -24 -4 -9 -15 -16 -26 -16 -17 0 -20 -9 -23
-72 -2 -40 3 -111 11 -156 8 -50 19 -86 28 -89 7 -3 25 2 39 12 18 12 24 23
22 43 -2 21 -9 28 -30 30 -16 2 -28 9 -28 16 0 8 9 20 21 27 17 12 22 27 25
78 3 45 -1 69 -11 84 -8 12 -15 25 -15 29 0 4 23 -5 52 -19 48 -24 56 -25 96
-14 24 6 64 21 88 31 24 11 55 25 69 30 17 7 25 17 25 34 0 25 0 25 -52 1 -40
-19 -56 -22 -71 -13 -16 8 -23 7 -33 -7 -9 -13 -20 -15 -44 -10 -20 4 -36 2
-47 -6 -13 -11 -18 -10 -34 10 -11 13 -22 35 -26 50 -3 14 -10 32 -16 39 -5 6
-23 12 -39 12z m14 -222 c6 -2 14 -10 16 -16 2 -7 -3 -12 -12 -12 -9 0 -16 7
-16 16 0 9 5 14 12 12z"/>
<path d="M280 500 c-11 0 -20 -6 -20 -12 0 -7 4 -19 9 -27 5 -7 14 -10 20 -7
6 4 11 16 11 27 0 12 -7 19 -20 19z"/>
<path d="M1210 500 c-5 0 -16 -24 -25 -53 -9 -30 -12 -63 -9 -73 4 -10 16 -29
27 -41 12 -14 32 -23 49 -23 21 0 28 5 28 20 0 11 -6 30 -12 41 -10 17 -10 23
0 26 6 3 12 18 12 34 0 22 -5 29 -20 29 -10 0 -24 9 -30 20 -6 11 -15 20 -20
20z"/>
<path d="M313 353 c-5 3 -21 -5 -37 -18 -21 -17 -27 -28 -21 -44 4 -12 0 -30
-9 -43 -10 -14 -16 -44 -16 -75 0 -31 4 -53 11 -53 6 0 19 5 29 10 11 6 25 20
31 31 6 12 13 58 15 104 3 46 1 86 -3 88z"/>
<path d="M943 275 c-17 5 -23 2 -23 -9 0 -9 4 -16 9 -16 5 0 23 -13 40 -29 17
-16 31 -33 31 -39 0 -5 6 -15 14 -21 10 -8 16 -9 21 -1 3 5 13 10 21 10 8 0
14 -10 14 -24 0 -16 12 -31 40 -50 22 -14 44 -26 50 -26 6 0 28 12 49 26 22
14 42 32 45 40 3 8 -3 23 -14 34 -11 11 -28 20 -38 20 -10 0 -23 -5 -30 -12
-7 -7 -12 -15 -12 -19 0 -4 9 -9 20 -12 11 -3 20 -12 20 -21 0 -9 -8 -16 -17
-16 -10 1 -28 9 -39 18 -12 10 -29 32 -38 50 -10 19 -27 34 -44 38 -15 4 -43
17 -62 30 -19 12 -45 25 -57 29z"/>
<path d="M1252 258 c-6 9 -14 7 -31 -9 -22 -21 -22 -21 0 -45 12 -13 26 -21
30 -18 5 3 9 17 9 32 0 15 -4 33 -8 40z"/>
<path d="M600 236 c-30 3 -58 3 -62 -2 -4 -4 -3 -13 3 -21 6 -7 20 -13 30 -13
13 0 19 -7 19 -24 0 -13 6 -28 13 -34 6 -6 29 -13 50 -17 22 -4 37 -3 37 2 0
6 11 23 25 39 14 16 25 35 25 42 0 6 -4 12 -9 12 -6 0 -12 -4 -15 -9 -4 -5
-18 -3 -34 4 -15 8 -52 17 -82 21z"/>
</g>
</svg>
