<?xml version="1.0" standalone="no"?>
<!DOCTYPE svg PUBLIC "-//W3C//DTD SVG 20010904//EN"
 "http://www.w3.org/TR/2001/REC-SVG-20010904/DTD/svg10.dtd">
<svg version="1.0" xmlns="http://www.w3.org/2000/svg"
 width="128.000000pt" height="128.000000pt" viewBox="0 0 128.000000 128.000000"
 preserveAspectRatio="xMidYMid meet">
<metadata>
Created by potrace 1.16, written by Peter Selinger 2001-2019
</metadata>
<g transform="translate(0.000000,128.000000) scale(0.100000,-0.100000)"
fill="#000000" stroke="none">
<path d="M438 1279 c-57 -1 -66 -4 -93 -32 -17 -18 -54 -53 -83 -79 -28 -25
-52 -53 -52 -62 0 -8 9 -38 20 -66 14 -36 17 -56 10 -69 -5 -10 -25 -38 -45
-62 -20 -24 -43 -53 -52 -63 -9 -11 -24 -33 -34 -51 -17 -28 -18 -47 -13 -191
3 -87 7 -186 8 -219 2 -33 7 -73 11 -90 4 -16 12 -35 17 -41 5 -7 8 -16 6 -20
-1 -5 2 -29 6 -54 5 -25 12 -53 17 -62 6 -10 27 -27 48 -37 20 -11 43 -27 51
-36 7 -9 26 -23 41 -31 27 -14 29 -13 73 33 32 33 44 53 41 68 -3 11 -8 52
-11 90 -3 39 -8 97 -10 130 -3 33 -7 80 -8 105 -1 25 -3 123 -4 218 -2 131 -5
172 -15 172 -7 0 -18 -23 -24 -51 -7 -28 -11 -55 -8 -59 2 -3 0 -51 -6 -106
-5 -54 -12 -119 -15 -144 -3 -25 -9 -80 -13 -122 -4 -43 -10 -81 -14 -84 -3
-4 -12 -4 -19 -1 -8 2 -25 26 -38 53 -23 44 -25 58 -25 198 -1 143 -2 154 -27
201 -24 47 -25 53 -12 90 7 22 30 54 51 72 21 18 66 51 100 75 35 24 63 50 63
58 0 8 -18 39 -40 68 -40 52 -40 53 -18 61 13 5 57 35 98 66 41 32 77 61 78
66 2 5 -25 9 -60 8z"/>
<path d="M698 1280 c-10 0 -18 -5 -18 -10 0 -6 -11 -16 -25 -22 -14 -6 -25
-17 -25 -23 0 -7 9 -20 20 -30 11 -10 20 -23 20 -28 0 -6 7 -18 15 -27 13 -14
14 -22 4 -43 -7 -15 -23 -28 -38 -32 -14 -3 -55 -7 -91 -10 -36 -2 -68 -5 -72
-5 -5 0 -8 -7 -8 -15 0 -9 20 -24 47 -36 35 -15 57 -18 91 -13 42 6 44 6 40
-17 -3 -21 -8 -24 -39 -22 -29 2 -45 -5 -75 -32 -39 -33 -39 -33 9 -82 26 -27
47 -52 47 -56 0 -3 -16 -30 -35 -59 -20 -29 -51 -72 -70 -96 -19 -24 -35 -50
-35 -58 0 -8 7 -17 15 -20 8 -4 34 1 58 11 23 9 48 22 55 28 8 6 36 12 62 14
27 1 52 -2 55 -8 4 -5 0 -21 -9 -34 -9 -13 -16 -31 -16 -38 0 -8 -26 -26 -59
-41 -32 -14 -65 -26 -74 -26 -8 0 -30 -6 -48 -14 -19 -8 -37 -18 -41 -22 -4
-4 -3 -13 3 -20 5 -7 33 -18 61 -25 28 -8 52 -19 55 -25 2 -6 -16 -41 -41 -77
-25 -35 -46 -69 -46 -74 0 -5 26 -34 58 -64 31 -31 80 -72 108 -92 31 -22 63
-37 80 -37 25 0 37 12 87 84 40 59 57 94 57 116 0 17 4 40 10 50 5 10 13 49
16 87 5 58 3 75 -11 97 -10 15 -39 38 -65 51 -26 13 -50 31 -54 40 -3 8 -3 35
0 59 6 40 4 46 -20 61 -14 10 -26 23 -26 30 0 8 -9 16 -19 20 -11 3 -21 12
-24 19 -3 8 7 26 23 41 16 15 39 33 51 39 13 6 27 26 32 45 8 31 6 37 -22 58
-27 21 -29 27 -19 48 9 20 8 28 -6 44 -16 17 -16 20 0 35 14 14 28 16 80 11
63 -7 63 -7 81 29 12 27 14 42 7 53 -6 9 -18 21 -26 27 -12 7 -30 4 -66 -13
-27 -13 -58 -21 -68 -19 -12 2 -18 11 -17 23 1 11 4 36 8 57 6 27 3 42 -11 62
-11 14 -27 26 -36 26z m59 -860 c28 0 35 -5 46 -32 9 -23 11 -50 5 -93 -4 -33
-16 -77 -25 -97 -18 -38 -18 -38 -68 -32 -27 4 -62 13 -77 21 -16 7 -28 22
-28 32 0 10 7 24 14 31 8 6 29 33 45 59 17 26 31 57 31 67 0 11 5 25 12 32 7
7 27 12 45 12z"/>
<path d="M963 849 c-23 4 -47 5 -54 1 -6 -5 -9 -15 -6 -24 4 -9 19 -22 34 -28
15 -7 56 -35 91 -61 34 -27 62 -54 62 -61 0 -6 -20 -22 -45 -36 -25 -14 -45
-30 -45 -38 0 -7 7 -15 15 -18 8 -4 27 2 43 12 15 11 50 29 77 41 50 22 50 22
47 65 -2 24 -8 45 -14 47 -6 2 -19 12 -28 21 -10 10 -29 24 -42 31 -13 8 -39
19 -58 26 -19 8 -54 17 -77 22z"/>
</g>
</svg>
