<?xml version="1.0" standalone="no"?>
<!DOCTYPE svg PUBLIC "-//W3C//DTD SVG 20010904//EN"
 "http://www.w3.org/TR/2001/REC-SVG-20010904/DTD/svg10.dtd">
<svg version="1.0" xmlns="http://www.w3.org/2000/svg"
 width="128.000000pt" height="128.000000pt" viewBox="0 0 128.000000 128.000000"
 preserveAspectRatio="xMidYMid meet">
<metadata>
Created by potrace 1.16, written by Peter Selinger 2001-2019
</metadata>
<g transform="translate(0.000000,128.000000) scale(0.100000,-0.100000)"
fill="#000000" stroke="none">
<path d="M315 1280 c-36 0 -65 -4 -65 -9 0 -5 7 -14 15 -21 8 -7 15 -18 15
-24 0 -6 -7 -19 -15 -30 -12 -15 -16 -16 -32 -5 -10 8 -18 23 -18 34 0 14 -6
19 -20 17 -11 -2 -24 -8 -29 -13 -6 -5 -4 -31 3 -66 8 -32 22 -86 33 -121 11
-34 40 -89 64 -123 30 -39 51 -59 62 -57 9 2 28 25 41 53 18 38 21 53 12 65
-6 8 -20 34 -31 57 -11 23 -24 43 -29 45 -5 2 -20 20 -34 41 -26 38 -26 38 26
88 28 27 55 49 59 49 4 0 8 5 8 10 0 6 -28 10 -65 10z"/>
<path d="M744 1280 c-50 0 -61 -3 -73 -22 -12 -19 -11 -23 5 -34 11 -8 25 -18
32 -24 6 -6 12 -15 12 -20 0 -5 -13 -18 -29 -30 -28 -19 -35 -20 -97 -10 -47
8 -70 8 -78 0 -7 -7 1 -21 25 -46 32 -33 37 -35 77 -29 31 5 50 2 68 -10 13
-8 24 -24 24 -33 0 -10 -12 -29 -27 -43 -16 -13 -50 -35 -76 -48 -45 -23 -48
-27 -43 -55 2 -17 12 -62 21 -99 15 -68 15 -69 -7 -88 -13 -11 -36 -25 -51
-31 -24 -9 -28 -15 -22 -35 3 -14 13 -36 22 -49 8 -13 23 -24 32 -24 10 0 26
7 37 15 10 8 25 15 32 15 6 0 12 -9 12 -21 0 -12 -8 -23 -19 -26 -12 -3 -21
-17 -26 -39 -3 -20 -15 -44 -26 -55 -10 -10 -19 -32 -19 -47 0 -21 -7 -32 -25
-40 -14 -6 -25 -18 -25 -26 0 -7 7 -19 15 -26 8 -7 15 -27 15 -44 0 -17 4 -36
8 -43 4 -7 21 -11 37 -10 29 2 31 0 60 -90 17 -51 36 -98 42 -104 9 -9 25 -8
67 5 31 10 67 27 80 37 14 11 31 30 38 43 7 13 32 55 55 94 24 39 47 72 53 74
5 1 14 38 20 80 9 65 9 82 -5 108 -8 16 -20 30 -26 30 -6 0 -24 9 -39 20 -16
11 -46 21 -67 22 -21 0 -55 -3 -75 -7 -30 -6 -38 -5 -38 7 0 8 9 23 20 33 11
10 20 24 20 31 0 7 9 22 21 33 11 10 19 27 17 38 -2 11 -15 20 -33 23 -20 4
-31 13 -36 30 -4 14 -7 30 -8 37 -1 8 10 10 32 6 32 -5 36 -2 61 41 14 25 29
58 32 74 5 22 -1 37 -29 70 -34 40 -35 45 -33 113 2 39 8 75 15 82 6 6 11 34
11 62 0 27 -7 58 -14 68 -10 13 -28 17 -72 17z m-70 -363 c6 -2 10 -17 8 -33
-2 -16 -7 -33 -11 -37 -4 -4 -15 -5 -24 -1 -9 3 -17 13 -17 22 0 8 8 24 17 34
9 10 21 17 27 15z m150 -477 c39 0 39 0 32 -77 -3 -46 -13 -87 -23 -102 -9
-14 -20 -44 -23 -65 -3 -21 -13 -44 -22 -50 -11 -7 -26 -7 -44 -1 -16 6 -47
35 -71 65 -23 30 -42 65 -43 76 0 16 8 23 28 27 17 4 45 27 77 66 46 55 53 61
89 61z"/>
<path d="M1185 1280 c-13 0 -16 -8 -13 -37 2 -21 8 -38 13 -38 6 0 11 17 13
38 3 29 0 37 -13 37z"/>
<path d="M957 1159 c-7 -1 -25 -8 -40 -16 -17 -9 -27 -21 -25 -31 2 -10 15
-18 31 -20 17 -2 37 4 48 14 14 13 16 21 8 35 -5 11 -15 19 -22 18z"/>
<path d="M1188 989 c-7 0 -28 -18 -46 -39 -19 -22 -32 -46 -30 -55 2 -9 15
-24 29 -32 15 -9 34 -13 43 -10 12 5 16 21 16 72 0 46 -4 65 -12 64z"/>
<path d="M1075 820 c-3 0 -5 -10 -5 -23 0 -12 24 -54 53 -92 30 -39 58 -70 63
-70 5 0 10 23 12 50 2 30 -2 57 -10 66 -7 9 -35 29 -61 43 -26 14 -50 26 -52
26z"/>
<path d="M181 700 c-11 0 -31 -15 -44 -32 -13 -18 -29 -52 -35 -74 -7 -23 -15
-92 -18 -153 -5 -112 -5 -112 30 -147 20 -20 36 -44 36 -54 0 -9 31 -52 68
-94 38 -41 87 -92 110 -112 23 -19 50 -34 59 -32 10 2 19 12 22 23 2 11 19 33
38 50 33 29 34 31 24 75 -6 25 -14 65 -20 90 -5 25 -14 72 -20 106 -6 33 -11
79 -11 102 0 22 -4 43 -9 47 -5 3 -12 1 -16 -5 -3 -6 -7 -83 -8 -172 -2 -146
-4 -163 -20 -166 -11 -2 -23 8 -34 27 -10 16 -26 32 -35 35 -10 2 -18 14 -18
26 0 13 -8 24 -20 27 -11 3 -20 9 -20 13 0 5 5 10 11 12 9 3 8 14 -1 43 -7 22
-16 49 -21 60 -4 11 -10 34 -14 50 -3 17 -7 41 -9 55 -1 14 -4 64 -4 113 -2
79 -4 87 -21 87z"/>
</g>
</svg>
