<?xml version="1.0" standalone="no"?>
<!DOCTYPE svg PUBLIC "-//W3C//DTD SVG 20010904//EN"
 "http://www.w3.org/TR/2001/REC-SVG-20010904/DTD/svg10.dtd">
<svg version="1.0" xmlns="http://www.w3.org/2000/svg"
 width="128.000000pt" height="128.000000pt" viewBox="0 0 128.000000 128.000000"
 preserveAspectRatio="xMidYMid meet">
<metadata>
Created by potrace 1.16, written by Peter Selinger 2001-2019
</metadata>
<g transform="translate(0.000000,128.000000) scale(0.100000,-0.100000)"
fill="#000000" stroke="none">
<path d="M376 1255 c-9 13 -14 13 -24 3 -6 -6 -12 -16 -12 -20 0 -4 6 -8 14
-8 7 0 24 -14 38 -31 25 -29 25 -32 12 -76 -8 -26 -21 -54 -29 -63 -8 -9 -15
-25 -15 -36 0 -11 -18 -38 -41 -59 -22 -22 -48 -57 -56 -77 -8 -21 -21 -38
-28 -38 -7 0 -24 -10 -39 -21 -19 -15 -26 -29 -24 -47 2 -14 10 -29 19 -35 9
-5 28 -7 42 -3 17 4 29 16 36 38 6 19 24 40 41 50 17 9 30 24 30 32 0 8 9 20
21 26 11 7 32 9 45 6 15 -4 24 -14 24 -26 0 -11 -9 -45 -21 -77 -12 -32 -30
-76 -40 -99 -10 -22 -19 -45 -19 -51 0 -6 -10 -22 -21 -37 -13 -17 -22 -44
-23 -69 -1 -23 -10 -58 -20 -77 -10 -19 -27 -46 -37 -59 -11 -13 -19 -31 -19
-41 0 -9 -9 -25 -20 -35 -10 -9 -22 -37 -26 -61 -3 -24 -10 -47 -15 -50 -5 -3
-9 -16 -9 -29 0 -13 -11 -36 -23 -52 -18 -21 -23 -39 -22 -73 1 -25 3 -48 4
-52 0 -5 8 -8 16 -8 8 0 15 5 15 11 0 6 9 9 19 6 12 -3 27 3 39 17 10 11 25
44 32 71 7 28 20 58 28 67 13 16 13 23 -3 63 -12 33 -14 49 -6 59 6 7 7 17 2
22 -5 5 -1 21 9 37 15 24 19 26 30 12 10 -12 10 -21 1 -43 -7 -16 -9 -41 -5
-55 3 -15 10 -27 15 -27 5 0 9 -13 9 -28 0 -15 6 -34 12 -40 10 -10 16 -8 30
10 18 22 19 22 33 4 10 -14 12 -24 4 -38 -6 -10 -9 -31 -7 -46 3 -25 6 -27 43
-24 22 2 44 7 48 12 5 4 1 23 -9 41 -9 19 -27 47 -40 62 -13 16 -24 36 -24 46
0 9 5 22 12 29 8 8 9 18 1 35 -9 19 -7 28 8 48 10 13 19 40 19 62 0 30 -4 37
-20 37 -10 0 -24 -9 -30 -20 -6 -11 -16 -20 -22 -20 -7 0 -8 14 -4 43 4 24 14
46 24 52 9 6 30 24 47 41 16 17 42 34 56 37 18 5 31 2 39 -8 10 -12 7 -20 -17
-43 -17 -15 -33 -37 -37 -49 -5 -16 0 -25 29 -41 19 -12 35 -29 35 -39 0 -10
-18 -45 -40 -77 -22 -33 -43 -70 -46 -83 -4 -14 2 -41 15 -68 12 -25 26 -43
31 -40 6 3 10 12 10 20 0 7 9 16 20 20 11 3 29 18 40 32 15 19 19 35 15 55 -4
16 -2 34 3 41 5 7 12 30 16 52 3 22 6 50 6 62 0 12 10 38 21 58 12 19 25 32
30 29 5 -3 9 -11 9 -19 0 -8 4 -16 8 -19 5 -3 31 6 58 19 27 14 52 25 57 25 4
0 7 -18 7 -40 0 -22 -7 -67 -16 -99 -9 -33 -14 -67 -10 -76 4 -11 13 -15 25
-12 12 3 22 -1 25 -9 5 -13 10 -13 33 -1 16 8 42 17 58 20 17 3 38 9 48 12 12
5 17 2 17 -9 0 -9 -20 -37 -45 -62 -25 -24 -45 -47 -45 -50 0 -3 21 -2 48 1
26 4 78 16 115 28 60 18 71 25 85 55 17 34 17 34 -21 68 -20 19 -47 34 -60 34
-13 0 -27 4 -33 10 -6 6 -32 4 -73 -6 -36 -8 -69 -13 -74 -11 -6 2 -12 42 -14
89 -2 53 0 89 7 93 5 3 10 16 10 28 0 14 11 28 31 40 17 9 33 26 36 38 4 14
12 19 25 16 10 -3 39 3 64 14 24 11 44 25 44 31 0 7 -10 22 -22 35 -20 21 -20
25 -7 50 8 14 32 45 55 67 22 23 46 51 52 63 10 18 8 26 -13 52 -14 16 -39 33
-56 36 -24 5 -38 2 -60 -14 -15 -12 -34 -21 -41 -21 -8 0 -24 -7 -36 -16 -12
-8 -26 -13 -31 -9 -5 3 -12 19 -16 36 -5 24 -2 36 15 54 18 20 22 32 17 61 -4
20 -18 49 -32 64 -13 14 -41 32 -60 39 -31 11 -39 10 -60 -3 -15 -10 -22 -22
-18 -31 3 -9 17 -22 31 -29 23 -12 26 -19 23 -55 -1 -25 4 -52 15 -71 14 -23
16 -32 6 -42 -7 -7 -12 -39 -12 -74 0 -60 -1 -63 -37 -90 -21 -15 -51 -42 -67
-59 -16 -16 -39 -47 -52 -67 -13 -20 -33 -42 -45 -49 -17 -8 -30 -7 -63 5 -31
12 -50 14 -75 6 -19 -5 -38 -7 -42 -4 -5 3 -9 21 -9 40 0 24 8 43 26 61 18 18
29 44 36 82 5 31 10 69 11 86 2 27 -1 30 -40 38 -38 7 -43 11 -43 36 0 16 7
35 17 42 9 8 22 28 30 46 7 18 13 45 13 62 0 21 -11 38 -40 65 -22 20 -47 36
-56 36 -9 0 -22 7 -28 15z m641 -342 c7 -3 13 -15 13 -28 0 -14 -14 -35 -34
-53 -19 -16 -42 -41 -51 -56 -9 -14 -21 -23 -26 -20 -5 3 -9 18 -9 34 0 20 13
43 47 78 26 27 53 48 60 45z m-256 -223 c4 0 14 -3 23 -6 9 -3 16 -16 16 -29
0 -12 -7 -29 -16 -36 -9 -7 -26 -19 -38 -26 -11 -7 -31 -18 -44 -24 -18 -10
-25 -10 -35 0 -9 10 -9 15 4 24 8 7 18 20 22 30 3 9 13 17 22 17 8 0 15 6 15
13 0 7 5 18 12 25 7 7 15 12 19 12z"/>
</g>
</svg>
