<?xml version="1.0" standalone="no"?>
<!DOCTYPE svg PUBLIC "-//W3C//DTD SVG 20010904//EN"
 "http://www.w3.org/TR/2001/REC-SVG-20010904/DTD/svg10.dtd">
<svg version="1.0" xmlns="http://www.w3.org/2000/svg"
 width="128.000000pt" height="128.000000pt" viewBox="0 0 128.000000 128.000000"
 preserveAspectRatio="xMidYMid meet">
<metadata>
Created by potrace 1.16, written by Peter Selinger 2001-2019
</metadata>
<g transform="translate(0.000000,128.000000) scale(0.100000,-0.100000)"
fill="#000000" stroke="none">
<path d="M516 1280 c-18 0 -26 -5 -26 -18 0 -10 4 -22 10 -28 5 -5 10 -21 9
-34 0 -14 -1 -43 -3 -65 -3 -34 -13 -50 -72 -111 -38 -39 -87 -82 -109 -95
-22 -13 -52 -35 -67 -50 -17 -17 -29 -40 -30 -61 -3 -33 -3 -33 60 -33 54 -1
66 3 81 21 9 12 36 31 59 43 22 11 50 21 60 21 11 0 24 -6 30 -13 8 -9 8 -26
0 -57 -6 -25 -19 -54 -28 -65 -10 -11 -27 -38 -39 -60 -11 -22 -28 -56 -37
-75 -9 -19 -31 -53 -49 -75 -17 -22 -39 -54 -49 -72 -9 -18 -16 -41 -16 -53 0
-11 -8 -23 -17 -27 -10 -3 -30 -20 -45 -37 -15 -17 -27 -43 -28 -57 0 -17 -9
-33 -25 -43 -14 -9 -25 -25 -25 -36 0 -10 5 -22 10 -25 6 -3 10 -17 10 -31 0
-14 7 -27 15 -30 9 -4 23 3 34 17 10 13 35 41 55 61 20 20 36 44 36 52 0 9 11
23 25 32 14 9 25 21 25 28 1 6 25 38 54 70 39 42 59 57 71 52 13 -5 15 -13 10
-38 -4 -18 -13 -47 -21 -65 -8 -17 -37 -56 -64 -85 -28 -29 -52 -62 -55 -73
-3 -11 -1 -36 3 -55 7 -32 11 -35 46 -38 31 -3 41 -10 58 -38 17 -29 25 -34
58 -34 28 0 40 5 44 18 2 9 8 46 12 82 5 36 8 76 9 90 1 14 2 42 3 63 2 30 7
39 26 47 14 5 30 18 36 29 6 12 24 28 40 36 16 8 30 25 32 37 2 13 11 24 20
26 12 2 19 -5 24 -22 4 -17 14 -26 32 -28 16 -2 28 -10 30 -20 2 -12 -5 -19
-22 -24 -15 -3 -32 -2 -39 4 -6 5 -24 12 -39 16 -24 5 -28 3 -34 -19 -4 -17 1
-36 17 -62 15 -23 24 -53 24 -77 0 -31 6 -43 28 -60 20 -15 42 -21 73 -20 25
1 50 6 56 12 7 7 25 12 40 12 18 0 28 -5 28 -14 0 -8 -10 -32 -22 -53 -12 -21
-28 -46 -36 -55 -14 -17 -12 -18 21 -18 27 0 46 8 72 33 20 17 50 51 66 75 28
39 29 46 19 77 -6 19 -19 39 -28 44 -10 5 -41 3 -77 -4 -33 -7 -64 -14 -70
-16 -5 -2 -24 0 -41 3 -17 4 -34 13 -37 20 -2 8 5 34 17 58 19 41 25 46 64 51
24 3 50 14 62 27 11 12 38 26 59 32 21 5 44 17 51 25 6 7 10 24 8 37 -2 18
-10 24 -36 26 -18 2 -35 9 -38 17 -3 7 2 28 11 45 11 21 15 44 11 65 -5 25 -3
34 9 39 10 3 15 15 13 28 -2 14 -15 28 -33 36 -16 7 -37 17 -45 21 -11 6 -17
32 -21 87 -3 43 -13 103 -23 131 -12 39 -23 54 -40 59 -12 3 -51 6 -87 7 -64
2 -64 2 -80 -48 -9 -27 -15 -54 -12 -61 2 -7 19 -15 36 -18 18 -4 41 -13 51
-21 17 -13 18 -18 7 -39 -9 -15 -14 -66 -15 -139 -1 -90 -5 -119 -17 -133 -9
-11 -19 -27 -22 -37 -4 -9 -19 -22 -34 -28 -15 -6 -45 -19 -66 -29 -21 -11
-44 -17 -51 -14 -8 3 -22 23 -32 45 -9 22 -30 49 -46 60 -15 11 -28 26 -28 33
0 7 14 32 30 55 19 25 29 49 25 60 -3 11 4 26 20 41 14 13 25 29 25 36 0 6 -7
17 -15 24 -8 7 -15 16 -15 21 0 5 11 9 24 9 13 0 27 7 30 16 3 9 6 24 6 34 0
10 -7 26 -16 34 -10 10 -33 16 -63 16 -27 0 -53 6 -59 13 -5 6 -6 21 -2 32 4
11 20 30 34 42 14 13 26 27 26 32 0 6 -5 13 -12 17 -7 5 -4 10 11 15 21 8 22
12 15 86 -4 43 -13 83 -20 90 -7 7 -24 13 -38 13z m396 -758 c6 -6 7 -16 3
-22 -5 -8 -11 -8 -17 -2 -6 6 -7 16 -3 22 5 8 11 8 17 2z"/>
</g>
</svg>
