<?xml version="1.0" standalone="no"?>
<!DOCTYPE svg PUBLIC "-//W3C//DTD SVG 20010904//EN"
 "http://www.w3.org/TR/2001/REC-SVG-20010904/DTD/svg10.dtd">
<svg version="1.0" xmlns="http://www.w3.org/2000/svg"
 width="56.000000pt" height="56.000000pt" viewBox="0 0 56.000000 56.000000"
 preserveAspectRatio="xMidYMid meet">
<metadata>
Created by potrace 1.16, written by Peter Selinger 2001-2019
</metadata>
<g transform="translate(0.000000,56.000000) scale(0.100000,-0.100000)"
fill="#000000" stroke="none">
<path d="M263 559 c-16 -1 -39 -12 -53 -27 -14 -15 -33 -42 -42 -61 -10 -19
-18 -38 -18 -41 0 -4 17 -19 38 -32 24 -17 60 -28 99 -33 62 -7 62 -7 68 -47
4 -22 18 -65 32 -96 13 -30 22 -61 19 -68 -3 -8 -16 -14 -30 -14 -14 0 -27 -4
-30 -9 -4 -5 -3 -16 0 -24 3 -9 22 -23 41 -32 35 -17 36 -17 55 6 15 19 18 36
15 79 -2 30 -15 82 -29 115 -15 33 -29 73 -32 88 -6 25 -3 29 31 43 38 16 38
16 14 35 -13 10 -27 19 -32 19 -4 0 -11 -4 -14 -10 -3 -5 -10 -10 -15 -10 -5
0 -16 14 -25 30 -9 17 -22 30 -30 30 -12 0 -14 -9 -11 -38 3 -20 2 -42 -2 -49
-4 -6 -19 -9 -34 -6 -14 3 -36 16 -49 29 -21 22 -21 24 -5 48 9 14 27 33 41
42 14 9 25 20 25 25 0 5 -12 9 -27 8z"/>
<path d="M122 190 c-4 0 -13 -5 -20 -12 -7 -7 -12 -21 -12 -32 0 -12 16 -37
34 -57 19 -20 49 -48 68 -63 24 -17 47 -26 73 -26 32 0 36 2 25 15 -6 8 -22
17 -33 21 -12 4 -34 15 -48 25 -15 10 -38 43 -53 74 -14 30 -29 55 -34 55z"/>
</g>
</svg>
