<?xml version="1.0" standalone="no"?>
<!DOCTYPE svg PUBLIC "-//W3C//DTD SVG 20010904//EN"
 "http://www.w3.org/TR/2001/REC-SVG-20010904/DTD/svg10.dtd">
<svg version="1.0" xmlns="http://www.w3.org/2000/svg"
 width="56.000000pt" height="56.000000pt" viewBox="0 0 56.000000 56.000000"
 preserveAspectRatio="xMidYMid meet">
<metadata>
Created by potrace 1.16, written by Peter Selinger 2001-2019
</metadata>
<g transform="translate(0.000000,56.000000) scale(0.100000,-0.100000)"
fill="#000000" stroke="none">
<path d="M218 560 c-15 0 -27 -10 -35 -27 -7 -15 -13 -43 -13 -63 0 -20 5 -41
12 -48 7 -7 36 -12 64 -12 29 0 63 -4 76 -9 19 -7 27 -24 42 -90 11 -44 17
-83 14 -87 -3 -3 -30 1 -59 9 -30 7 -72 12 -94 10 -22 -2 -51 -9 -65 -16 -14
-6 -40 -24 -57 -41 -22 -20 -33 -39 -33 -58 0 -15 4 -28 10 -28 5 0 15 10 21
23 6 12 21 32 32 44 17 19 31 23 84 23 35 0 71 -4 81 -9 9 -5 41 -20 71 -35
48 -23 57 -24 75 -12 12 7 22 23 24 34 2 11 -7 40 -19 63 -12 24 -30 67 -40
97 -10 30 -16 58 -13 63 3 5 23 9 45 9 28 0 39 4 39 15 0 9 -8 24 -18 35 -9
10 -28 21 -42 25 -16 4 -31 20 -43 46 -14 30 -24 39 -43 39 -13 0 -24 -4 -24
-9 0 -5 7 -25 16 -46 8 -21 13 -44 10 -51 -3 -8 -18 -14 -34 -14 -16 0 -46 7
-66 15 -31 13 -36 19 -30 38 3 12 13 29 20 38 8 8 14 19 14 22 0 4 -10 7 -22
7z"/>
<path d="M381 98 c-9 5 -45 4 -81 0 -36 -5 -91 -14 -122 -20 -32 -6 -65 -19
-74 -29 -9 -10 -13 -23 -9 -28 3 -6 17 -11 30 -11 13 0 26 4 29 9 3 5 44 14
90 21 47 7 90 9 95 5 6 -3 11 -15 11 -26 0 -16 7 -19 40 -19 22 0 40 2 40 5 0
2 -7 23 -16 45 -9 22 -24 44 -33 48z"/>
</g>
</svg>
