<?xml version="1.0" standalone="no"?>
<!DOCTYPE svg PUBLIC "-//W3C//DTD SVG 20010904//EN"
 "http://www.w3.org/TR/2001/REC-SVG-20010904/DTD/svg10.dtd">
<svg version="1.0" xmlns="http://www.w3.org/2000/svg"
 width="56.000000pt" height="56.000000pt" viewBox="0 0 56.000000 56.000000"
 preserveAspectRatio="xMidYMid meet">
<metadata>
Created by potrace 1.16, written by Peter Selinger 2001-2019
</metadata>
<g transform="translate(0.000000,56.000000) scale(0.100000,-0.100000)"
fill="#000000" stroke="none">
<path d="M181 560 c-11 0 -21 -9 -25 -22 -3 -13 -6 -33 -6 -45 0 -12 12 -31
26 -42 19 -15 41 -21 75 -21 45 0 49 -2 55 -27 3 -16 8 -35 11 -43 3 -8 9 -35
14 -60 4 -25 9 -54 11 -65 2 -17 -3 -20 -32 -20 -19 0 -57 -4 -85 -9 -27 -5
-60 -18 -72 -29 -13 -11 -23 -30 -23 -42 0 -11 5 -32 12 -46 6 -13 29 -39 51
-57 28 -23 49 -32 75 -32 36 0 36 0 -3 40 -21 22 -43 40 -48 40 -6 0 -16 8
-23 17 -7 10 -14 28 -14 39 0 12 7 25 16 28 9 3 58 6 110 6 94 0 94 0 94 40 0
22 -4 48 -9 58 -4 9 -18 49 -31 88 -12 40 -20 77 -16 82 3 6 22 16 41 22 24 8
35 18 35 31 0 12 -13 25 -35 36 -19 9 -35 20 -35 25 0 4 -11 8 -24 8 -16 0
-26 -7 -30 -22 -3 -13 -6 -33 -6 -45 0 -13 -6 -23 -14 -23 -7 0 -28 3 -45 6
-28 6 -31 10 -31 45 0 32 -4 39 -19 39z"/>
</g>
</svg>
