<?xml version="1.0" standalone="no"?>
<!DOCTYPE svg PUBLIC "-//W3C//DTD SVG 20010904//EN"
 "http://www.w3.org/TR/2001/REC-SVG-20010904/DTD/svg10.dtd">
<svg version="1.0" xmlns="http://www.w3.org/2000/svg"
 width="56.000000pt" height="56.000000pt" viewBox="0 0 56.000000 56.000000"
 preserveAspectRatio="xMidYMid meet">
<metadata>
Created by potrace 1.16, written by Peter Selinger 2001-2019
</metadata>
<g transform="translate(0.000000,56.000000) scale(0.100000,-0.100000)"
fill="#000000" stroke="none">
<path d="M115 560 c-22 0 -25 -4 -25 -35 0 -22 5 -35 13 -35 7 0 18 5 25 12 7
7 12 22 12 35 0 18 -6 23 -25 23z"/>
<path d="M237 560 c-16 0 -26 -9 -33 -29 -9 -21 -8 -36 1 -57 7 -16 34 -51 59
-78 26 -27 54 -62 62 -78 8 -16 13 -32 10 -37 -3 -4 -40 -11 -83 -15 -60 -5
-87 -13 -115 -33 -23 -15 -38 -34 -38 -46 0 -11 20 -37 45 -59 41 -36 45 -44
45 -84 0 -44 0 -44 40 -44 40 0 40 0 40 49 0 42 -5 56 -36 92 -33 39 -34 44
-19 56 11 7 49 12 100 12 63 -1 89 3 110 17 22 14 26 23 21 47 -4 18 -24 45
-51 69 -25 22 -45 46 -45 54 0 8 5 23 12 34 10 16 9 23 -12 45 -13 14 -31 25
-41 25 -10 0 -21 -4 -24 -10 -3 -5 -10 -10 -16 -10 -5 0 -9 18 -9 40 0 35 -3
40 -23 40z"/>
</g>
</svg>
