<?xml version="1.0" standalone="no"?>
<!DOCTYPE svg PUBLIC "-//W3C//DTD SVG 20010904//EN"
 "http://www.w3.org/TR/2001/REC-SVG-20010904/DTD/svg10.dtd">
<svg version="1.0" xmlns="http://www.w3.org/2000/svg"
 width="56.000000pt" height="56.000000pt" viewBox="0 0 56.000000 56.000000"
 preserveAspectRatio="xMidYMid meet">
<metadata>
Created by potrace 1.16, written by Peter Selinger 2001-2019
</metadata>
<g transform="translate(0.000000,56.000000) scale(0.100000,-0.100000)"
fill="#000000" stroke="none">
<path d="M308 560 c-4 0 -15 -22 -25 -50 -17 -49 -19 -50 -58 -50 -22 0 -48
-7 -57 -14 -10 -7 -18 -18 -18 -24 0 -7 11 -14 25 -18 14 -3 38 -3 53 1 15 3
38 7 50 8 18 2 28 -7 42 -33 10 -19 24 -47 31 -63 8 -17 9 -31 3 -36 -5 -5
-58 -14 -118 -19 -87 -7 -112 -13 -123 -28 -7 -10 -13 -28 -13 -39 0 -12 10
-33 22 -46 13 -13 36 -34 52 -47 28 -22 29 -25 19 -62 -10 -40 -10 -40 49 -40
53 0 63 3 82 27 11 15 24 34 27 42 4 9 2 24 -3 33 -5 10 -18 18 -29 18 -11 0
-22 7 -25 15 -4 8 -18 15 -33 15 -16 0 -37 10 -49 23 -12 13 -22 27 -22 32 0
4 48 5 108 3 59 -3 113 -7 120 -9 7 -2 20 8 29 22 10 16 13 36 10 51 -4 14
-17 36 -30 49 -13 13 -32 46 -42 72 -14 36 -15 53 -8 70 7 15 7 29 1 40 -5 9
-15 17 -23 17 -8 0 -20 9 -27 20 -7 11 -16 20 -20 20z"/>
</g>
</svg>
