<?xml version="1.0" standalone="no"?>
<!DOCTYPE svg PUBLIC "-//W3C//DTD SVG 20010904//EN"
 "http://www.w3.org/TR/2001/REC-SVG-20010904/DTD/svg10.dtd">
<svg version="1.0" xmlns="http://www.w3.org/2000/svg"
 width="56.000000pt" height="56.000000pt" viewBox="0 0 56.000000 56.000000"
 preserveAspectRatio="xMidYMid meet">
<metadata>
Created by potrace 1.16, written by Peter Selinger 2001-2019
</metadata>
<g transform="translate(0.000000,56.000000) scale(0.100000,-0.100000)"
fill="#000000" stroke="none">
<path d="M324 560 c-12 0 -15 -10 -14 -47 1 -27 1 -53 1 -60 -1 -7 -18 -17
-38 -22 -21 -6 -40 -11 -43 -11 -3 0 -16 20 -30 45 -14 25 -29 45 -35 45 -5 0
-15 -11 -22 -25 -8 -17 -8 -36 -2 -59 6 -22 20 -39 42 -50 31 -17 34 -17 84 3
29 11 59 18 67 15 8 -3 28 -37 45 -75 17 -38 31 -75 31 -83 0 -8 -20 -23 -45
-35 -25 -12 -51 -21 -59 -21 -8 0 -26 11 -40 25 -16 16 -36 25 -57 25 -17 0
-45 -7 -62 -16 -18 -9 -39 -20 -47 -24 -8 -4 -22 -19 -30 -33 -12 -21 -12 -29
-3 -38 9 -9 18 -10 35 -2 13 6 37 16 53 21 17 6 42 13 58 16 20 5 29 2 34 -10
3 -10 2 -38 -4 -63 -5 -25 -13 -54 -18 -64 -6 -14 -2 -17 28 -17 25 0 37 5 41
18 3 9 8 38 11 63 4 25 10 50 13 56 4 6 23 13 42 16 19 3 49 9 65 13 17 3 38
14 48 22 14 13 17 24 12 50 -3 18 -16 50 -27 70 -11 20 -31 56 -44 78 -23 41
-23 42 -4 59 11 10 20 26 20 36 0 13 -16 26 -45 40 -25 12 -45 25 -45 30 0 5
-7 9 -16 9z"/>
</g>
</svg>
