<?xml version="1.0" standalone="no"?>
<!DOCTYPE svg PUBLIC "-//W3C//DTD SVG 20010904//EN"
 "http://www.w3.org/TR/2001/REC-SVG-20010904/DTD/svg10.dtd">
<svg version="1.0" xmlns="http://www.w3.org/2000/svg"
 width="56.000000pt" height="56.000000pt" viewBox="0 0 56.000000 56.000000"
 preserveAspectRatio="xMidYMid meet">
<metadata>
Created by potrace 1.16, written by Peter Selinger 2001-2019
</metadata>
<g transform="translate(0.000000,56.000000) scale(0.100000,-0.100000)"
fill="#000000" stroke="none">
<path d="M194 560 c-2 0 -4 -4 -4 -10 0 -5 -6 -10 -14 -10 -8 0 -18 -4 -21
-10 -3 -5 20 -28 53 -51 32 -24 66 -54 76 -67 19 -24 19 -24 -15 -51 -18 -14
-44 -31 -56 -38 -13 -7 -52 -17 -86 -24 -34 -7 -71 -16 -81 -22 -19 -9 -19
-10 3 -28 18 -15 33 -17 87 -12 53 5 64 3 64 -9 0 -9 -14 -21 -30 -28 -17 -7
-37 -22 -45 -33 -10 -14 -11 -26 -4 -46 6 -14 25 -41 42 -59 18 -19 47 -40 66
-48 18 -8 47 -14 63 -14 16 0 41 6 56 14 15 8 35 23 45 34 15 17 17 24 7 43
-12 21 -16 21 -95 15 -80 -6 -83 -5 -99 19 -9 13 -13 31 -10 39 3 9 17 16 29
16 13 0 26 4 29 9 3 5 39 12 80 16 55 5 79 12 92 26 12 13 17 34 16 69 -1 49
0 51 36 68 20 9 37 23 37 31 0 8 -12 23 -27 34 -25 18 -31 19 -74 7 -47 -13
-47 -13 -83 27 -20 22 -58 52 -85 67 -27 14 -50 26 -52 26z"/>
</g>
</svg>
