<?xml version="1.0" standalone="no"?>
<!DOCTYPE svg PUBLIC "-//W3C//DTD SVG 20010904//EN"
 "http://www.w3.org/TR/2001/REC-SVG-20010904/DTD/svg10.dtd">
<svg version="1.0" xmlns="http://www.w3.org/2000/svg"
 width="56.000000pt" height="56.000000pt" viewBox="0 0 56.000000 56.000000"
 preserveAspectRatio="xMidYMid meet">
<metadata>
Created by potrace 1.16, written by Peter Selinger 2001-2019
</metadata>
<g transform="translate(0.000000,56.000000) scale(0.100000,-0.100000)"
fill="#000000" stroke="none">
<path d="M355 540 c-17 0 -29 -9 -41 -31 -14 -28 -19 -30 -47 -24 -18 4 -54 8
-82 8 -43 2 -50 -1 -50 -17 0 -17 11 -22 63 -31 35 -7 74 -10 86 -8 21 4 23
-1 33 -68 7 -40 9 -77 7 -81 -3 -5 -29 -21 -57 -36 -29 -15 -68 -29 -87 -32
-29 -4 -35 -9 -35 -30 0 -17 8 -29 28 -38 22 -11 27 -20 27 -48 0 -20 -5 -45
-12 -57 -6 -12 -18 -27 -27 -34 -13 -10 -5 -12 45 -13 62 0 62 0 68 45 4 25 3
53 -3 64 -6 11 -11 33 -11 49 0 22 7 32 27 41 23 11 29 10 39 -3 6 -9 24 -19
40 -22 25 -5 32 -1 43 20 11 20 12 34 3 63 -6 21 -13 61 -17 88 -3 28 -8 65
-11 83 -4 28 -2 33 13 30 9 -2 19 4 21 13 1 8 -7 27 -18 42 -13 16 -31 27 -45
27z"/>
</g>
</svg>
