<?xml version="1.0" standalone="no"?>
<!DOCTYPE svg PUBLIC "-//W3C//DTD SVG 20010904//EN"
 "http://www.w3.org/TR/2001/REC-SVG-20010904/DTD/svg10.dtd">
<svg version="1.0" xmlns="http://www.w3.org/2000/svg"
 width="56.000000pt" height="56.000000pt" viewBox="0 0 56.000000 56.000000"
 preserveAspectRatio="xMidYMid meet">
<metadata>
Created by potrace 1.16, written by Peter Selinger 2001-2019
</metadata>
<g transform="translate(0.000000,56.000000) scale(0.100000,-0.100000)"
fill="#000000" stroke="none">
<path d="M267 560 c-12 0 -29 -10 -37 -22 -8 -13 -20 -34 -27 -47 -7 -13 -13
-29 -13 -37 0 -7 5 -25 12 -39 9 -21 18 -25 55 -25 35 0 43 -3 43 -18 0 -10 5
-23 12 -30 9 -9 9 -15 1 -23 -6 -6 -43 -19 -83 -30 -40 -10 -79 -24 -87 -30
-9 -8 -10 -16 -4 -22 5 -5 7 -15 5 -22 -3 -6 3 -18 12 -26 9 -7 39 -16 67 -19
29 -3 52 -11 55 -18 2 -7 -26 -42 -62 -77 -36 -35 -66 -67 -66 -70 0 -3 6 -5
14 -5 7 0 37 15 66 32 29 18 70 50 92 71 21 21 38 44 38 52 0 7 -17 24 -37 37
-21 12 -60 25 -86 28 -26 3 -47 10 -47 15 0 6 41 11 97 13 54 1 102 7 107 12
5 5 1 20 -10 37 -10 15 -24 42 -30 60 -6 18 -9 35 -5 39 3 3 21 12 39 19 17 8
32 18 32 23 0 4 -15 23 -34 41 -21 21 -41 31 -50 28 -8 -3 -18 -19 -22 -34 -4
-15 -12 -31 -18 -35 -6 -4 -21 -8 -33 -8 -14 0 -23 6 -23 15 0 8 11 34 25 59
14 25 25 47 25 50 0 3 -10 6 -23 6z"/>
</g>
</svg>
