<?xml version="1.0" standalone="no"?>
<!DOCTYPE svg PUBLIC "-//W3C//DTD SVG 20010904//EN"
 "http://www.w3.org/TR/2001/REC-SVG-20010904/DTD/svg10.dtd">
<svg version="1.0" xmlns="http://www.w3.org/2000/svg"
 width="56.000000pt" height="56.000000pt" viewBox="0 0 56.000000 56.000000"
 preserveAspectRatio="xMidYMid meet">
<metadata>
Created by potrace 1.16, written by Peter Selinger 2001-2019
</metadata>
<g transform="translate(0.000000,56.000000) scale(0.100000,-0.100000)"
fill="#000000" stroke="none">
<path d="M257 560 c-1 0 -10 -10 -19 -22 -10 -12 -18 -26 -18 -30 0 -4 11 -8
25 -8 14 0 25 -5 25 -12 0 -6 9 -22 21 -34 12 -12 18 -27 14 -33 -3 -6 -14
-11 -23 -11 -10 0 -23 -9 -29 -20 -11 -17 -23 -19 -110 -17 -92 2 -98 1 -101
-19 -3 -18 5 -22 70 -33 40 -7 83 -17 96 -22 15 -6 38 -5 65 2 39 10 43 9 64
-16 13 -14 23 -30 23 -36 0 -5 -12 -14 -27 -20 -16 -6 -50 -15 -77 -20 -27 -5
-56 -14 -64 -21 -8 -7 -24 -17 -36 -23 -16 -8 -22 -21 -23 -55 -2 -33 2 -51
18 -69 16 -20 28 -24 62 -22 23 1 46 6 52 11 5 4 27 11 48 15 24 5 42 3 52 -5
12 -10 13 -16 4 -26 -9 -12 -2 -14 40 -14 50 0 51 0 51 30 0 17 -7 44 -15 59
-8 16 -22 31 -30 35 -9 3 -25 1 -35 -4 -10 -6 -30 -10 -44 -10 -14 0 -45 -5
-69 -12 -24 -6 -52 -8 -62 -4 -18 7 -18 8 1 26 11 11 44 24 74 30 30 5 87 11
125 14 39 2 78 7 88 11 10 4 17 18 17 34 0 19 -14 40 -45 71 -25 24 -45 50
-45 56 0 7 16 25 37 41 23 19 34 35 31 45 -4 8 -21 18 -38 21 -17 4 -41 2 -52
-4 -11 -6 -26 -8 -34 -5 -8 3 -14 15 -14 26 0 12 -4 30 -10 40 -5 10 -26 27
-45 39 -20 11 -37 21 -38 21z"/>
</g>
</svg>
