<?xml version="1.0" standalone="no"?>
<!DOCTYPE svg PUBLIC "-//W3C//DTD SVG 20010904//EN"
 "http://www.w3.org/TR/2001/REC-SVG-20010904/DTD/svg10.dtd">
<svg version="1.0" xmlns="http://www.w3.org/2000/svg"
 width="56.000000pt" height="56.000000pt" viewBox="0 0 56.000000 56.000000"
 preserveAspectRatio="xMidYMid meet">
<metadata>
Created by potrace 1.16, written by Peter Selinger 2001-2019
</metadata>
<g transform="translate(0.000000,56.000000) scale(0.100000,-0.100000)"
fill="#000000" stroke="none">
<path d="M303 560 c-22 0 -35 -11 -61 -51 -18 -28 -31 -57 -28 -65 3 -8 23
-22 43 -30 21 -8 44 -18 52 -22 7 -4 23 -25 35 -47 12 -22 30 -62 40 -88 10
-27 16 -50 13 -53 -2 -3 -36 0 -73 7 -38 6 -96 24 -128 40 -54 25 -62 26 -87
14 -14 -8 -29 -22 -33 -30 -3 -9 -6 -32 -6 -51 0 -19 6 -47 14 -62 8 -15 30
-42 49 -60 19 -19 52 -38 73 -44 22 -5 50 -11 64 -11 19 -2 25 3 25 18 0 13
-13 26 -37 37 -20 10 -55 36 -77 59 -22 23 -45 55 -52 71 -10 24 -10 31 1 38
7 4 24 2 39 -6 14 -7 79 -35 144 -63 64 -28 123 -51 131 -51 7 0 19 6 25 14 7
8 15 31 18 51 4 27 1 43 -14 63 -10 15 -33 55 -51 89 -18 34 -32 71 -32 82 0
10 7 21 15 25 8 3 15 12 15 20 0 7 -10 20 -22 28 -13 8 -31 17 -40 21 -13 5
-22 -2 -33 -23 -9 -18 -23 -30 -36 -30 -11 0 -22 7 -26 17 -4 11 5 25 30 46
21 16 37 33 37 38 0 5 -12 9 -27 9z"/>
</g>
</svg>
