<?xml version="1.0" standalone="no"?>
<!DOCTYPE svg PUBLIC "-//W3C//DTD SVG 20010904//EN"
 "http://www.w3.org/TR/2001/REC-SVG-20010904/DTD/svg10.dtd">
<svg version="1.0" xmlns="http://www.w3.org/2000/svg"
 width="56.000000pt" height="56.000000pt" viewBox="0 0 56.000000 56.000000"
 preserveAspectRatio="xMidYMid meet">
<metadata>
Created by potrace 1.16, written by Peter Selinger 2001-2019
</metadata>
<g transform="translate(0.000000,56.000000) scale(0.100000,-0.100000)"
fill="#000000" stroke="none">
<path d="M151 560 c-6 0 -11 -9 -11 -19 0 -10 6 -21 14 -24 12 -5 13 -11 3
-37 -9 -25 -9 -36 3 -58 10 -17 31 -32 61 -42 35 -12 44 -19 41 -34 -2 -11 1
-17 9 -14 6 2 24 -7 39 -21 15 -15 31 -36 34 -48 7 -22 5 -23 -71 -22 -52 1
-91 -4 -115 -15 -21 -9 -44 -29 -53 -46 -8 -16 -15 -34 -15 -41 0 -6 16 -33
36 -60 22 -30 51 -56 72 -65 20 -8 50 -14 67 -12 24 2 30 8 30 27 0 18 -12 34
-41 55 -23 17 -49 36 -58 41 -10 6 -18 19 -19 30 -2 16 5 21 35 23 20 2 61 -2
90 -8 29 -6 69 -14 88 -17 27 -4 40 0 55 17 17 19 17 24 6 58 -8 20 -33 58
-56 83 -23 25 -48 56 -55 68 -7 14 -9 37 -6 57 5 26 3 35 -13 43 -11 6 -29 11
-40 11 -11 0 -24 -7 -29 -16 -7 -12 -11 -13 -17 -5 -4 7 4 28 19 49 26 37 26
37 -5 40 -21 2 -35 -2 -45 -15 -13 -17 -15 -17 -28 0 -7 9 -18 17 -25 17z"/>
</g>
</svg>
