<?xml version="1.0" standalone="no"?>
<!DOCTYPE svg PUBLIC "-//W3C//DTD SVG 20010904//EN"
 "http://www.w3.org/TR/2001/REC-SVG-20010904/DTD/svg10.dtd">
<svg version="1.0" xmlns="http://www.w3.org/2000/svg"
 width="56.000000pt" height="56.000000pt" viewBox="0 0 56.000000 56.000000"
 preserveAspectRatio="xMidYMid meet">
<metadata>
Created by potrace 1.16, written by Peter Selinger 2001-2019
</metadata>
<g transform="translate(0.000000,56.000000) scale(0.100000,-0.100000)"
fill="#000000" stroke="none">
<path d="M135 560 c-8 0 -15 -5 -15 -12 0 -6 20 -30 44 -52 24 -23 61 -50 82
-61 20 -11 53 -43 72 -70 20 -28 39 -51 44 -53 4 -2 8 -16 8 -32 0 -20 -6 -31
-21 -35 -11 -4 -18 -12 -16 -18 2 -7 23 -12 48 -12 33 0 45 4 47 17 2 10 -5
34 -14 55 -10 21 -35 59 -56 84 -38 47 -38 47 -13 63 14 9 25 23 25 32 0 8
-19 24 -42 34 -24 11 -56 20 -72 20 -16 0 -46 5 -67 12 -22 6 -39 15 -39 20 0
4 -7 8 -15 8z"/>
<path d="M213 191 c-8 8 -13 7 -18 -1 -4 -6 -2 -17 4 -23 6 -6 11 -19 11 -28
0 -9 8 -20 17 -23 9 -4 21 -2 27 4 5 5 26 10 46 10 23 0 44 -8 58 -20 12 -12
22 -33 23 -48 1 -25 2 -24 11 8 9 32 8 37 -20 60 -17 14 -49 31 -71 38 -22 6
-49 12 -59 12 -10 0 -23 5 -29 11z"/>
</g>
</svg>
