<?xml version="1.0" standalone="no"?>
<!DOCTYPE svg PUBLIC "-//W3C//DTD SVG 20010904//EN"
 "http://www.w3.org/TR/2001/REC-SVG-20010904/DTD/svg10.dtd">
<svg version="1.0" xmlns="http://www.w3.org/2000/svg"
 width="56.000000pt" height="56.000000pt" viewBox="0 0 56.000000 56.000000"
 preserveAspectRatio="xMidYMid meet">
<metadata>
Created by potrace 1.16, written by Peter Selinger 2001-2019
</metadata>
<g transform="translate(0.000000,56.000000) scale(0.100000,-0.100000)"
fill="#000000" stroke="none">
<path d="M294 560 c-7 0 -16 -11 -20 -25 -3 -14 -3 -36 0 -49 4 -15 0 -28 -10
-36 -11 -10 -18 -10 -26 -2 -7 7 -21 12 -32 12 -11 0 -35 14 -53 32 -24 24
-36 29 -44 21 -7 -7 -9 -25 -5 -46 4 -24 18 -44 43 -63 35 -27 38 -27 92 -16
53 12 57 11 74 -10 10 -13 31 -43 47 -68 16 -25 26 -48 22 -52 -4 -4 -55 -10
-114 -14 -107 -7 -107 -7 -152 -54 -25 -27 -46 -52 -46 -57 0 -6 8 -17 18 -26
15 -14 23 -14 79 1 50 13 65 14 75 4 10 -10 8 -21 -10 -55 -12 -23 -22 -45
-22 -49 0 -5 10 -8 23 -8 14 0 30 12 45 33 12 18 22 42 22 53 0 11 -7 30 -16
42 -8 12 -22 22 -30 22 -8 0 -14 6 -14 14 0 8 6 16 14 19 8 3 35 4 61 1 26 -2
62 -11 82 -19 19 -8 46 -15 59 -15 21 0 24 5 24 36 0 25 -9 48 -30 74 -16 21
-30 43 -30 49 0 7 -11 29 -25 49 -14 20 -25 42 -25 48 0 6 7 17 16 24 8 8 14
25 12 39 -2 19 -13 31 -41 44 -21 10 -40 24 -43 32 -4 8 -12 15 -20 15z"/>
</g>
</svg>
