<?xml version="1.0" standalone="no"?>
<!DOCTYPE svg PUBLIC "-//W3C//DTD SVG 20010904//EN"
 "http://www.w3.org/TR/2001/REC-SVG-20010904/DTD/svg10.dtd">
<svg version="1.0" xmlns="http://www.w3.org/2000/svg"
 width="56.000000pt" height="56.000000pt" viewBox="0 0 56.000000 56.000000"
 preserveAspectRatio="xMidYMid meet">
<metadata>
Created by potrace 1.16, written by Peter Selinger 2001-2019
</metadata>
<g transform="translate(0.000000,56.000000) scale(0.100000,-0.100000)"
fill="#000000" stroke="none">
<path d="M388 560 c-2 0 -17 -15 -34 -33 -17 -18 -35 -41 -41 -51 -8 -14 -17
-17 -35 -13 -14 4 -37 25 -52 48 -25 36 -30 40 -42 27 -13 -12 -13 -23 -3 -64
6 -27 19 -57 27 -67 9 -9 39 -24 68 -33 45 -13 56 -21 73 -55 12 -22 21 -43
21 -48 0 -5 -14 -15 -32 -22 -20 -8 -61 -12 -109 -10 -57 2 -85 -2 -110 -14
-19 -10 -42 -26 -52 -37 -10 -10 -16 -25 -14 -32 3 -8 35 -24 72 -36 40 -13
80 -35 101 -56 23 -21 34 -39 30 -49 -4 -12 4 -15 44 -15 46 0 50 2 50 24 0
14 -4 36 -9 49 -5 13 -33 39 -61 57 -48 31 -51 35 -34 47 12 9 52 13 126 13
96 0 108 2 118 19 5 11 10 31 10 44 0 16 -18 40 -55 75 -30 28 -55 55 -55 60
0 5 11 25 24 45 13 19 27 44 30 54 4 14 -3 27 -24 46 -16 15 -31 27 -32 27z"/>
</g>
</svg>
