<?xml version="1.0" standalone="no"?>
<!DOCTYPE svg PUBLIC "-//W3C//DTD SVG 20010904//EN"
 "http://www.w3.org/TR/2001/REC-SVG-20010904/DTD/svg10.dtd">
<svg version="1.0" xmlns="http://www.w3.org/2000/svg"
 width="56.000000pt" height="56.000000pt" viewBox="0 0 56.000000 56.000000"
 preserveAspectRatio="xMidYMid meet">
<metadata>
Created by potrace 1.16, written by Peter Selinger 2001-2019
</metadata>
<g transform="translate(0.000000,56.000000) scale(0.100000,-0.100000)"
fill="#000000" stroke="none">
<path d="M170 560 c-22 0 -40 -3 -40 -7 0 -5 7 -16 14 -25 7 -10 18 -18 23
-18 5 0 17 8 26 18 10 10 17 22 17 25 0 4 -18 7 -40 7z"/>
<path d="M253 560 c-11 0 -13 -7 -8 -32 4 -18 16 -45 27 -60 10 -15 26 -31 33
-36 13 -7 13 -11 -1 -30 -13 -19 -24 -22 -90 -22 -54 0 -74 -3 -74 -13 0 -7 5
-18 12 -25 7 -7 28 -12 48 -12 20 0 40 4 46 9 5 5 20 10 34 11 14 1 30 2 36 1
6 -1 17 -15 24 -32 8 -19 9 -34 3 -40 -5 -5 -38 -14 -72 -20 -34 -5 -80 -21
-102 -34 -34 -22 -39 -30 -39 -63 0 -20 7 -45 14 -54 9 -12 27 -18 55 -18 23
0 55 7 72 15 16 9 27 20 24 25 -4 6 -21 10 -40 10 -19 0 -37 -5 -40 -11 -5 -7
-13 -5 -25 6 -9 8 -16 26 -15 38 1 12 3 25 4 28 0 4 28 12 61 19 45 10 70 10
104 1 25 -6 52 -11 60 -11 9 0 16 9 16 20 0 11 -13 46 -30 77 -29 58 -29 58
-4 61 14 2 28 10 31 18 3 9 -2 23 -11 32 -16 16 -18 16 -30 0 -7 -10 -18 -18
-23 -18 -5 0 -14 10 -20 23 -6 12 -17 38 -24 57 -7 19 -19 45 -27 58 -8 12
-21 22 -29 22z"/>
<path d="M403 138 c-10 5 -22 8 -28 7 -5 -2 -23 -6 -38 -10 -23 -5 -26 -9 -17
-20 9 -10 5 -19 -17 -40 -15 -14 -44 -36 -63 -48 -35 -22 -35 -22 -7 -25 16
-2 36 3 45 11 10 8 37 23 62 34 25 11 53 23 63 26 10 4 17 16 17 31 0 14 -8
29 -17 34z"/>
</g>
</svg>
