<?xml version="1.0" standalone="no"?>
<!DOCTYPE svg PUBLIC "-//W3C//DTD SVG 20010904//EN"
 "http://www.w3.org/TR/2001/REC-SVG-20010904/DTD/svg10.dtd">
<svg version="1.0" xmlns="http://www.w3.org/2000/svg"
 width="56.000000pt" height="56.000000pt" viewBox="0 0 56.000000 56.000000"
 preserveAspectRatio="xMidYMid meet">
<metadata>
Created by potrace 1.16, written by Peter Selinger 2001-2019
</metadata>
<g transform="translate(0.000000,56.000000) scale(0.100000,-0.100000)"
fill="#000000" stroke="none">
<path d="M104 540 c-8 0 -14 -7 -14 -16 0 -8 13 -35 29 -58 17 -24 42 -51 56
-60 21 -14 43 -17 97 -14 70 3 70 3 84 -42 8 -25 19 -60 25 -78 6 -19 9 -35 7
-37 -2 -3 -40 -7 -83 -10 -44 -3 -114 -10 -155 -17 -41 -6 -87 -17 -102 -24
-16 -8 -29 -25 -33 -42 -3 -16 -1 -41 4 -55 6 -15 31 -40 56 -56 43 -27 53
-29 151 -30 86 -1 105 1 110 14 4 9 -1 21 -12 29 -10 8 -57 16 -108 18 -57 4
-105 12 -127 23 -28 13 -35 22 -32 39 3 12 12 22 21 22 9 0 67 8 127 17 81 13
120 14 145 7 19 -6 56 -7 82 -4 48 7 48 7 48 51 0 37 -5 48 -34 73 -18 17 -39
43 -46 59 -6 16 -10 39 -8 52 2 18 13 25 46 34 24 5 54 21 68 34 13 13 24 31
24 41 0 10 -10 20 -22 24 -13 3 -34 6 -47 6 -13 0 -45 -8 -72 -17 -28 -10 -50
-25 -53 -36 -4 -15 -13 -18 -58 -16 -32 2 -72 12 -103 27 -27 14 -51 29 -53
34 -2 4 -10 8 -18 8z"/>
<path d="M296 273 c-8 3 -18 2 -21 -3 -3 -5 0 -12 6 -15 6 -4 15 -3 21 3 6 6
4 11 -6 15z"/>
</g>
</svg>
