<?xml version="1.0" standalone="no"?>
<!DOCTYPE svg PUBLIC "-//W3C//DTD SVG 20010904//EN"
 "http://www.w3.org/TR/2001/REC-SVG-20010904/DTD/svg10.dtd">
<svg version="1.0" xmlns="http://www.w3.org/2000/svg"
 width="56.000000pt" height="56.000000pt" viewBox="0 0 56.000000 56.000000"
 preserveAspectRatio="xMidYMid meet">
<metadata>
Created by potrace 1.16, written by Peter Selinger 2001-2019
</metadata>
<g transform="translate(0.000000,56.000000) scale(0.100000,-0.100000)"
fill="#000000" stroke="none">
<path d="M376 523 c-33 34 -33 34 -50 13 -12 -15 -16 -35 -14 -71 3 -46 1 -50
-21 -53 -13 -2 -38 4 -56 14 -18 9 -40 30 -49 46 -10 15 -26 28 -37 28 -10 0
-19 -6 -19 -14 0 -8 10 -33 22 -55 12 -23 32 -50 44 -61 14 -14 34 -21 60 -21
22 1 52 2 68 3 25 3 32 -3 58 -51 16 -29 27 -60 24 -68 -5 -12 -31 -14 -138
-12 -110 2 -139 -1 -166 -15 -21 -11 -32 -23 -30 -34 2 -13 17 -18 55 -22 29
-3 58 -11 65 -18 8 -8 13 -38 13 -73 0 -57 1 -59 27 -59 21 0 28 6 33 29 3 16
3 41 -1 57 -4 16 -13 41 -21 57 -11 21 -11 27 -1 28 7 0 41 0 75 -1 33 -1 79
4 101 9 22 6 46 18 53 27 10 12 10 20 1 35 -7 10 -12 26 -12 34 0 8 -13 27
-30 42 -16 14 -30 33 -30 40 0 8 11 34 25 57 14 25 23 50 19 60 -3 9 -13 16
-21 16 -8 0 -29 15 -47 33z"/>
</g>
</svg>
