<?xml version="1.0" standalone="no"?>
<!DOCTYPE svg PUBLIC "-//W3C//DTD SVG 20010904//EN"
 "http://www.w3.org/TR/2001/REC-SVG-20010904/DTD/svg10.dtd">
<svg version="1.0" xmlns="http://www.w3.org/2000/svg"
 width="56.000000pt" height="56.000000pt" viewBox="0 0 56.000000 56.000000"
 preserveAspectRatio="xMidYMid meet">
<metadata>
Created by potrace 1.16, written by Peter Selinger 2001-2019
</metadata>
<g transform="translate(0.000000,56.000000) scale(0.100000,-0.100000)"
fill="#000000" stroke="none">
<path d="M273 559 c-10 0 -32 -17 -49 -37 -17 -21 -35 -48 -40 -62 -4 -14 -7
-49 -5 -79 1 -30 7 -63 12 -73 5 -10 19 -18 30 -18 12 0 32 9 47 20 14 12 29
17 34 12 5 -5 11 -25 14 -44 5 -28 2 -39 -16 -56 -17 -15 -35 -21 -67 -20 -29
0 -50 -5 -63 -17 -11 -10 -20 -25 -20 -34 0 -9 13 -27 29 -41 30 -25 30 -25
11 -64 -11 -22 -20 -41 -20 -43 0 -2 14 -3 30 -3 21 0 39 9 55 26 14 15 25 31
25 36 0 5 -6 11 -14 14 -11 4 -13 16 -9 42 3 20 10 42 15 49 8 10 13 9 25 -2
8 -8 27 -15 43 -15 22 0 33 7 45 30 8 16 15 36 15 44 0 8 -11 36 -25 62 -14
26 -25 54 -25 64 0 9 7 25 15 36 8 10 15 24 15 31 0 7 -21 33 -46 58 -25 25
-50 45 -55 45 -5 0 -9 -15 -9 -33 0 -26 -6 -36 -25 -45 -23 -11 -25 -10 -25
12 0 14 15 39 35 59 19 19 35 38 35 41 0 3 -8 6 -17 5z"/>
</g>
</svg>
