<?xml version="1.0" standalone="no"?>
<!DOCTYPE svg PUBLIC "-//W3C//DTD SVG 20010904//EN"
 "http://www.w3.org/TR/2001/REC-SVG-20010904/DTD/svg10.dtd">
<svg version="1.0" xmlns="http://www.w3.org/2000/svg"
 width="56.000000pt" height="56.000000pt" viewBox="0 0 56.000000 56.000000"
 preserveAspectRatio="xMidYMid meet">
<metadata>
Created by potrace 1.16, written by Peter Selinger 2001-2019
</metadata>
<g transform="translate(0.000000,56.000000) scale(0.100000,-0.100000)"
fill="#000000" stroke="none">
<path d="M281 560 c-23 0 -41 -4 -41 -8 0 -5 -23 -24 -51 -43 -28 -19 -59 -39
-69 -44 -10 -6 -25 -17 -34 -24 -9 -8 -15 -27 -14 -47 1 -24 8 -38 22 -46 13
-7 56 -9 122 -5 101 7 101 7 116 -31 9 -20 22 -56 29 -80 11 -37 11 -45 -2
-53 -8 -5 -41 -9 -74 -10 -33 -1 -75 -2 -92 -4 -18 -1 -48 -10 -67 -19 -19 -9
-37 -23 -40 -32 -3 -8 -6 -29 -6 -45 0 -20 8 -34 27 -46 20 -14 54 -18 157
-21 131 -4 131 -4 104 24 -25 27 -33 29 -114 32 -47 1 -90 5 -95 8 -5 3 -9 14
-9 24 0 11 9 24 19 30 11 5 53 10 95 10 41 0 97 -5 125 -12 40 -9 53 -9 66 2
8 7 15 20 15 29 0 10 -11 39 -24 67 -14 27 -32 66 -40 88 -9 21 -16 46 -16 56
0 10 16 28 37 40 33 19 35 23 21 37 -9 8 -31 18 -49 22 -21 4 -38 15 -44 28
-5 12 -18 24 -28 27 -14 3 -17 10 -12 25 6 19 2 21 -34 21z m-36 -76 c6 -3 19
-17 28 -33 13 -23 14 -31 4 -39 -6 -5 -32 -8 -57 -6 -25 3 -51 7 -57 9 -7 2
-13 9 -13 14 0 5 19 20 42 34 23 14 47 23 53 21z"/>
</g>
</svg>
