<?xml version="1.0" standalone="no"?>
<!DOCTYPE svg PUBLIC "-//W3C//DTD SVG 20010904//EN"
 "http://www.w3.org/TR/2001/REC-SVG-20010904/DTD/svg10.dtd">
<svg version="1.0" xmlns="http://www.w3.org/2000/svg"
 width="56.000000pt" height="56.000000pt" viewBox="0 0 56.000000 56.000000"
 preserveAspectRatio="xMidYMid meet">
<metadata>
Created by potrace 1.16, written by Peter Selinger 2001-2019
</metadata>
<g transform="translate(0.000000,56.000000) scale(0.100000,-0.100000)"
fill="#000000" stroke="none">
<path d="M411 533 c-22 13 -31 13 -58 2 -17 -7 -39 -25 -48 -39 -13 -19 -26
-26 -51 -26 -18 0 -56 9 -84 20 -41 16 -50 17 -50 5 0 -8 15 -25 32 -38 18
-13 54 -29 80 -36 26 -6 53 -9 60 -6 8 3 20 -10 31 -35 9 -22 17 -44 17 -49 0
-5 7 -14 15 -21 8 -7 15 -20 15 -30 0 -10 -16 -27 -35 -39 -19 -11 -41 -18
-48 -15 -8 3 -34 -2 -58 -10 -24 -9 -54 -16 -66 -16 -12 0 -38 -9 -57 -21 -33
-19 -36 -25 -36 -67 0 -26 7 -55 15 -66 11 -15 24 -17 74 -14 33 3 65 2 72 -2
6 -4 8 -13 5 -19 -5 -8 13 -11 58 -11 36 0 66 3 66 8 0 4 10 12 22 17 13 6 24
17 26 26 2 12 -7 19 -34 24 -20 3 -81 6 -135 6 -92 -1 -98 1 -105 21 -5 16 -1
27 15 39 12 10 47 20 79 23 31 4 80 10 107 14 28 4 70 5 93 1 38 -5 46 -3 59
18 8 12 13 30 9 38 -3 8 -21 22 -40 31 -19 10 -37 24 -40 33 -3 9 -17 32 -31
51 -16 20 -25 44 -23 60 2 16 10 26 23 29 11 2 32 12 47 23 23 16 26 22 16 37
-6 10 -23 26 -37 34z"/>
</g>
</svg>
