<?xml version="1.0" standalone="no"?>
<!DOCTYPE svg PUBLIC "-//W3C//DTD SVG 20010904//EN"
 "http://www.w3.org/TR/2001/REC-SVG-20010904/DTD/svg10.dtd">
<svg version="1.0" xmlns="http://www.w3.org/2000/svg"
 width="56.000000pt" height="56.000000pt" viewBox="0 0 56.000000 56.000000"
 preserveAspectRatio="xMidYMid meet">
<metadata>
Created by potrace 1.16, written by Peter Selinger 2001-2019
</metadata>
<g transform="translate(0.000000,56.000000) scale(0.100000,-0.100000)"
fill="#000000" stroke="none">
<path d="M306 559 c-75 0 -83 -2 -104 -27 -12 -14 -25 -36 -28 -49 -4 -16 0
-31 12 -44 16 -17 27 -20 62 -15 42 6 42 6 72 -58 17 -34 30 -66 30 -69 0 -4
-9 -11 -19 -17 -11 -5 -54 -13 -98 -16 -51 -4 -85 -12 -97 -23 -10 -9 -22 -26
-27 -39 -7 -17 -3 -36 14 -70 17 -36 37 -57 86 -89 43 -29 75 -43 97 -43 23 0
37 6 44 19 5 11 8 26 5 33 -3 8 -30 26 -59 40 -30 15 -70 41 -90 58 -20 18
-36 38 -36 45 0 7 15 16 33 20 17 4 58 9 90 12 38 3 63 1 73 -8 11 -9 18 -9
26 -1 7 7 20 12 30 12 12 0 18 8 18 24 0 14 -18 60 -40 103 -22 43 -40 83 -40
89 0 6 9 19 20 29 11 10 20 26 20 36 0 9 -3 24 -6 33 -5 13 -22 16 -88 15z
m-37 -41 c2 -6 -4 -17 -13 -26 -15 -15 -16 -15 -16 5 0 12 6 23 13 26 6 2 14
0 16 -5z"/>
</g>
</svg>
