<?xml version="1.0" standalone="no"?>
<!DOCTYPE svg PUBLIC "-//W3C//DTD SVG 20010904//EN"
 "http://www.w3.org/TR/2001/REC-SVG-20010904/DTD/svg10.dtd">
<svg version="1.0" xmlns="http://www.w3.org/2000/svg"
 width="56.000000pt" height="56.000000pt" viewBox="0 0 56.000000 56.000000"
 preserveAspectRatio="xMidYMid meet">
<metadata>
Created by potrace 1.16, written by Peter Selinger 2001-2019
</metadata>
<g transform="translate(0.000000,56.000000) scale(0.100000,-0.100000)"
fill="#000000" stroke="none">
<path d="M284 560 c-10 0 -14 -13 -14 -48 0 -26 4 -52 10 -58 5 -5 11 -25 12
-44 3 -32 0 -35 -26 -38 -20 -3 -36 4 -56 23 -15 15 -36 25 -46 23 -11 -2 -20
-11 -22 -21 -2 -10 12 -32 34 -53 37 -34 41 -35 98 -32 60 3 60 3 84 -40 18
-32 21 -46 13 -56 -6 -7 -42 -19 -81 -26 -54 -10 -79 -11 -108 -2 -30 9 -45 9
-65 -1 -15 -6 -27 -17 -27 -24 0 -6 6 -15 13 -20 6 -4 40 -10 75 -14 35 -4 65
-9 68 -11 2 -3 5 -18 6 -34 1 -16 -1 -41 -5 -56 -7 -26 -5 -28 22 -28 17 0 31
6 35 16 3 9 6 26 6 38 0 12 -8 38 -19 58 -16 33 -17 38 -3 43 9 3 51 9 94 12
72 6 78 8 78 28 0 13 -6 33 -13 46 -7 13 -25 37 -40 53 -15 16 -27 37 -27 46
0 10 9 20 20 23 11 3 23 13 26 22 5 12 -3 27 -25 47 -18 17 -37 42 -42 56 -6
15 -13 22 -19 16 -6 -6 -3 -27 8 -56 9 -26 13 -50 9 -54 -4 -4 -11 -3 -16 2
-5 5 -16 44 -25 87 -12 52 -22 77 -32 77z"/>
<path d="M90 80 c-3 0 -10 -3 -13 -7 -4 -3 -7 -22 -7 -40 0 -30 3 -34 23 -31
14 2 23 11 25 26 2 13 -2 30 -8 38 -7 7 -16 14 -20 14z"/>
</g>
</svg>
