<?xml version="1.0" standalone="no"?>
<!DOCTYPE svg PUBLIC "-//W3C//DTD SVG 20010904//EN"
 "http://www.w3.org/TR/2001/REC-SVG-20010904/DTD/svg10.dtd">
<svg version="1.0" xmlns="http://www.w3.org/2000/svg"
 width="56.000000pt" height="56.000000pt" viewBox="0 0 56.000000 56.000000"
 preserveAspectRatio="xMidYMid meet">
<metadata>
Created by potrace 1.16, written by Peter Selinger 2001-2019
</metadata>
<g transform="translate(0.000000,56.000000) scale(0.100000,-0.100000)"
fill="#000000" stroke="none">
<path d="M465 560 c-10 0 -15 -6 -13 -16 2 -8 7 -16 13 -17 5 -1 11 6 13 16 2
10 -3 17 -13 17z"/>
<path d="M264 498 c-21 26 -21 26 -33 5 -6 -12 -11 -32 -11 -45 0 -13 -7 -34
-16 -46 -8 -12 -21 -22 -28 -22 -8 0 -24 9 -37 19 -24 19 -24 20 -6 49 9 17
17 35 17 41 0 7 -14 1 -31 -11 -30 -22 -31 -26 -27 -83 2 -33 11 -73 19 -90 8
-18 23 -31 37 -33 13 -2 41 4 63 12 22 9 43 16 47 16 4 0 16 -25 27 -56 15
-45 16 -57 6 -64 -8 -4 -39 -6 -71 -3 -32 3 -65 1 -77 -5 -12 -7 -23 -25 -25
-41 -2 -17 0 -37 4 -45 5 -9 18 -16 29 -16 11 0 35 -7 54 -14 27 -12 35 -21
35 -40 0 -24 3 -26 49 -26 43 0 49 3 53 24 3 13 -1 35 -8 47 -7 13 -13 30 -14
37 0 6 7 12 16 12 9 0 32 -14 52 -31 33 -30 36 -30 49 -13 7 10 13 24 13 33 0
8 -13 35 -29 60 -16 25 -39 70 -50 99 -12 29 -21 64 -21 77 0 13 5 27 10 30 6
3 10 15 10 25 0 12 -16 30 -42 46 -24 15 -52 38 -64 52z"/>
</g>
</svg>
