<?xml version="1.0" standalone="no"?>
<!DOCTYPE svg PUBLIC "-//W3C//DTD SVG 20010904//EN"
 "http://www.w3.org/TR/2001/REC-SVG-20010904/DTD/svg10.dtd">
<svg version="1.0" xmlns="http://www.w3.org/2000/svg"
 width="56.000000pt" height="56.000000pt" viewBox="0 0 56.000000 56.000000"
 preserveAspectRatio="xMidYMid meet">
<metadata>
Created by potrace 1.16, written by Peter Selinger 2001-2019
</metadata>
<g transform="translate(0.000000,56.000000) scale(0.100000,-0.100000)"
fill="#000000" stroke="none">
<path d="M95 560 c-15 0 -25 -6 -25 -14 0 -8 3 -21 6 -30 5 -12 10 -13 25 -5
10 5 19 19 19 29 0 15 -7 20 -25 20z"/>
<path d="M352 560 c-11 0 -24 -11 -30 -24 -8 -18 -16 -22 -36 -19 -14 3 -26 2
-26 -1 0 -3 5 -15 12 -26 10 -15 9 -24 -2 -45 -8 -14 -21 -24 -29 -23 -12 2
-16 16 -17 51 -1 26 -4 50 -7 54 -3 3 -14 3 -23 -1 -13 -5 -16 -19 -13 -84 4
-77 4 -77 -43 -80 -33 -2 -48 -7 -48 -17 0 -8 18 -20 41 -26 35 -11 44 -10 70
5 28 17 29 17 67 -13 21 -17 45 -44 55 -61 18 -29 18 -29 -95 -32 -113 -3
-113 -3 -116 -45 -3 -38 -1 -43 18 -43 11 0 29 5 40 12 16 10 23 9 40 -7 17
-15 21 -28 18 -60 -3 -22 -8 -48 -12 -57 -7 -15 -3 -18 18 -18 15 0 30 8 36
19 5 11 10 40 10 64 0 31 -6 49 -20 62 -11 10 -20 25 -20 32 0 11 11 14 48 10
26 -3 60 -12 75 -20 15 -8 34 -23 41 -32 9 -12 19 -15 34 -11 18 6 22 15 22
51 0 39 -4 45 -35 64 -19 11 -40 32 -47 46 -6 14 -14 25 -18 25 -4 0 -20 16
-34 35 -27 35 -27 35 -7 61 12 15 21 41 21 58 1 17 7 42 15 56 8 14 14 28 15
33 0 4 -8 7 -18 7z"/>
</g>
</svg>
