<?xml version="1.0" standalone="no"?>
<!DOCTYPE svg PUBLIC "-//W3C//DTD SVG 20010904//EN"
 "http://www.w3.org/TR/2001/REC-SVG-20010904/DTD/svg10.dtd">
<svg version="1.0" xmlns="http://www.w3.org/2000/svg"
 width="56.000000pt" height="56.000000pt" viewBox="0 0 56.000000 56.000000"
 preserveAspectRatio="xMidYMid meet">
<metadata>
Created by potrace 1.16, written by Peter Selinger 2001-2019
</metadata>
<g transform="translate(0.000000,56.000000) scale(0.100000,-0.100000)"
fill="#000000" stroke="none">
<path d="M336 560 c-17 0 -28 -9 -37 -28 -7 -17 -26 -34 -43 -40 -26 -10 -33
-9 -53 9 -22 22 -22 22 -34 -4 -10 -22 -9 -31 5 -52 10 -14 24 -29 32 -32 9
-3 25 -1 37 5 12 5 29 13 38 15 9 3 26 -1 38 -9 12 -9 28 -31 36 -51 8 -19 15
-39 15 -43 0 -4 -20 -17 -45 -29 -25 -12 -69 -26 -98 -32 -28 -6 -64 -15 -80
-21 -16 -6 -30 -21 -34 -36 -5 -20 0 -30 20 -46 14 -12 38 -30 53 -40 25 -17
26 -23 21 -72 -6 -54 -6 -54 35 -54 41 0 41 0 36 44 -3 24 -17 69 -32 101 -16
36 -23 62 -17 68 5 5 40 15 78 23 37 8 83 22 102 30 33 16 33 16 27 68 -4 29
-18 67 -33 88 -23 34 -24 41 -13 67 6 17 9 35 5 40 -3 6 -13 11 -21 11 -8 0
-14 5 -14 10 0 6 -11 10 -24 10z"/>
</g>
</svg>
