<?xml version="1.0" standalone="no"?>
<!DOCTYPE svg PUBLIC "-//W3C//DTD SVG 20010904//EN"
 "http://www.w3.org/TR/2001/REC-SVG-20010904/DTD/svg10.dtd">
<svg version="1.0" xmlns="http://www.w3.org/2000/svg"
 width="56.000000pt" height="56.000000pt" viewBox="0 0 56.000000 56.000000"
 preserveAspectRatio="xMidYMid meet">
<metadata>
Created by potrace 1.16, written by Peter Selinger 2001-2019
</metadata>
<g transform="translate(0.000000,56.000000) scale(0.100000,-0.100000)"
fill="#000000" stroke="none">
<path d="M371 559 c-9 0 -23 -4 -31 -9 -8 -5 -32 -12 -52 -15 -35 -5 -38 -8
-38 -39 0 -32 -2 -34 -42 -39 -23 -3 -55 -3 -70 0 -18 4 -28 1 -28 -6 0 -7 6
-18 13 -25 6 -6 28 -19 47 -28 30 -15 38 -15 68 -2 19 8 41 14 50 14 9 0 28
-15 44 -32 16 -18 42 -52 58 -75 17 -23 27 -44 23 -46 -5 -3 -24 -8 -43 -13
-19 -4 -90 -7 -157 -5 -120 1 -122 1 -139 -24 -11 -16 -14 -34 -9 -52 3 -14
18 -43 33 -64 15 -21 43 -45 62 -55 19 -10 51 -24 70 -31 19 -7 49 -13 67 -13
17 0 43 4 57 10 14 5 26 15 26 23 0 7 -15 18 -32 24 -18 6 -55 14 -83 18 -27
4 -69 18 -92 31 -23 13 -49 34 -58 46 -8 13 -15 27 -15 33 0 8 22 10 63 7 34
-2 86 -7 115 -11 30 -5 55 -4 58 1 3 5 11 4 19 -2 9 -7 27 -7 64 1 30 6 55 18
61 28 6 11 5 30 -3 53 -7 19 -28 57 -47 83 -19 26 -45 57 -57 70 -13 12 -23
30 -23 39 0 9 4 16 10 16 5 0 16 10 24 23 9 12 13 32 9 45 -3 12 -13 22 -22
21z"/>
</g>
</svg>
