<?xml version="1.0" standalone="no"?>
<!DOCTYPE svg PUBLIC "-//W3C//DTD SVG 20010904//EN"
 "http://www.w3.org/TR/2001/REC-SVG-20010904/DTD/svg10.dtd">
<svg version="1.0" xmlns="http://www.w3.org/2000/svg"
 width="56.000000pt" height="56.000000pt" viewBox="0 0 56.000000 56.000000"
 preserveAspectRatio="xMidYMid meet">
<metadata>
Created by potrace 1.16, written by Peter Selinger 2001-2019
</metadata>
<g transform="translate(0.000000,56.000000) scale(0.100000,-0.100000)"
fill="#000000" stroke="none">
<path d="M303 540 c-5 0 -14 -5 -21 -12 -7 -7 -12 -27 -12 -46 0 -33 -1 -33
-32 -27 -18 4 -47 20 -63 36 -17 16 -39 29 -48 29 -9 0 -17 -4 -17 -8 0 -5 8
-17 18 -28 10 -11 27 -32 37 -47 17 -26 23 -28 76 -26 54 2 59 1 92 -35 20
-21 47 -53 61 -71 14 -19 26 -38 26 -44 0 -6 -10 -13 -23 -16 -13 -4 -55 1
-95 9 -68 14 -75 14 -129 -5 -31 -10 -67 -26 -80 -34 -13 -9 -23 -22 -23 -30
0 -11 12 -15 45 -15 26 0 65 9 87 20 23 11 52 20 65 20 20 0 23 -5 23 -43 0
-32 -8 -55 -27 -83 -16 -22 -34 -50 -41 -62 -12 -21 -11 -22 31 -22 43 0 43 0
74 68 17 37 35 81 40 97 8 29 11 30 63 30 50 0 55 2 58 24 2 12 1 33 -2 45 -3
12 -33 53 -66 91 -60 68 -60 68 -40 90 11 12 20 29 20 38 0 10 -8 20 -17 23
-10 3 -30 12 -45 20 -14 8 -30 14 -35 14z"/>
</g>
</svg>
