<?xml version="1.0" standalone="no"?>
<!DOCTYPE svg PUBLIC "-//W3C//DTD SVG 20010904//EN"
 "http://www.w3.org/TR/2001/REC-SVG-20010904/DTD/svg10.dtd">
<svg version="1.0" xmlns="http://www.w3.org/2000/svg"
 width="56.000000pt" height="56.000000pt" viewBox="0 0 56.000000 56.000000"
 preserveAspectRatio="xMidYMid meet">
<metadata>
Created by potrace 1.16, written by Peter Selinger 2001-2019
</metadata>
<g transform="translate(0.000000,56.000000) scale(0.100000,-0.100000)"
fill="#000000" stroke="none">
<path d="M218 560 c-10 0 -18 -5 -18 -10 0 -6 -11 -15 -24 -20 -14 -5 -32 -20
-41 -33 -10 -16 -14 -34 -9 -51 3 -15 16 -33 27 -41 12 -8 32 -15 44 -15 13 0
32 5 42 12 10 6 25 9 32 6 8 -3 23 -23 34 -44 11 -22 25 -43 32 -47 7 -4 13
-19 13 -32 0 -19 -7 -26 -37 -34 -21 -6 -46 -11 -55 -11 -9 0 -28 -15 -42 -33
-15 -20 -26 -47 -26 -65 0 -20 5 -32 13 -32 8 0 22 -9 32 -20 9 -10 33 -24 52
-31 30 -9 34 -14 29 -35 -6 -22 -3 -24 32 -24 38 0 38 0 34 35 -3 24 -15 44
-38 65 -19 16 -39 30 -44 30 -5 0 -14 9 -20 20 -9 17 -7 22 17 32 15 7 48 26
72 43 24 16 48 41 53 55 7 19 5 27 -6 36 -9 6 -16 16 -16 21 0 5 -12 20 -26
34 -14 13 -32 36 -40 52 -11 20 -12 32 -4 47 8 15 8 21 -2 25 -7 3 -26 4 -43
2 -26 -2 -31 2 -40 31 -6 21 -15 32 -27 32z"/>
</g>
</svg>
