<?xml version="1.0" standalone="no"?>
<!DOCTYPE svg PUBLIC "-//W3C//DTD SVG 20010904//EN"
 "http://www.w3.org/TR/2001/REC-SVG-20010904/DTD/svg10.dtd">
<svg version="1.0" xmlns="http://www.w3.org/2000/svg"
 width="56.000000pt" height="56.000000pt" viewBox="0 0 56.000000 56.000000"
 preserveAspectRatio="xMidYMid meet">
<metadata>
Created by potrace 1.16, written by Peter Selinger 2001-2019
</metadata>
<g transform="translate(0.000000,56.000000) scale(0.100000,-0.100000)"
fill="#000000" stroke="none">
<path d="M184 560 c-8 0 -14 -8 -14 -17 1 -10 7 -44 15 -76 7 -33 22 -65 32
-73 10 -8 44 -33 76 -56 31 -22 57 -45 57 -49 0 -5 -10 -14 -22 -20 -12 -6
-61 -14 -109 -17 -75 -4 -91 -8 -110 -28 -12 -13 -19 -30 -16 -38 3 -8 31 -21
61 -30 31 -9 67 -28 82 -43 23 -23 26 -32 20 -70 -6 -43 -6 -43 27 -43 18 0
38 5 45 12 7 7 12 22 12 34 0 14 -22 47 -54 81 -30 33 -52 64 -48 70 4 6 26
16 50 22 23 7 68 13 100 15 31 2 60 4 65 5 4 1 7 14 7 31 0 24 -9 35 -48 61
-26 18 -60 44 -75 58 -22 20 -26 31 -22 52 5 21 2 30 -14 38 -11 6 -33 11 -50
11 -25 0 -31 5 -41 35 -6 19 -18 35 -26 35z"/>
</g>
</svg>
