<?xml version="1.0" standalone="no"?>
<!DOCTYPE svg PUBLIC "-//W3C//DTD SVG 20010904//EN"
 "http://www.w3.org/TR/2001/REC-SVG-20010904/DTD/svg10.dtd">
<svg version="1.0" xmlns="http://www.w3.org/2000/svg"
 width="56.000000pt" height="56.000000pt" viewBox="0 0 56.000000 56.000000"
 preserveAspectRatio="xMidYMid meet">
<metadata>
Created by potrace 1.16, written by Peter Selinger 2001-2019
</metadata>
<g transform="translate(0.000000,56.000000) scale(0.100000,-0.100000)"
fill="#000000" stroke="none">
<path d="M255 560 c-8 0 -15 -4 -15 -10 0 -5 7 -10 15 -10 8 0 15 5 15 10 0 6
-7 10 -15 10z"/>
<path d="M391 540 c-5 0 -17 -10 -25 -22 -9 -12 -16 -29 -16 -36 0 -11 -8 -13
-31 -8 -17 3 -44 15 -61 27 -30 21 -30 21 -69 -17 -21 -21 -39 -44 -39 -52 0
-9 7 -13 20 -9 11 3 22 2 25 -3 2 -4 36 -7 75 -8 57 0 74 -4 85 -19 8 -10 17
-33 21 -52 4 -19 2 -41 -3 -50 -6 -9 -44 -24 -89 -34 -43 -11 -85 -21 -93 -23
-10 -3 -11 -8 -4 -15 6 -6 34 -11 62 -11 28 1 76 -6 107 -14 30 -8 64 -14 76
-14 11 0 27 8 34 17 7 10 14 32 14 49 0 20 -11 43 -34 70 -19 22 -37 56 -41
75 -5 30 -3 36 25 51 21 12 30 25 30 42 0 18 -9 30 -30 41 -16 8 -33 15 -39
15z"/>
<path d="M125 200 c-8 0 -23 -12 -34 -26 -18 -23 -19 -29 -8 -57 9 -22 28 -40
61 -57 34 -17 50 -21 53 -13 2 7 11 9 19 6 8 -3 14 -11 14 -18 0 -8 24 -17 63
-24 35 -6 76 -11 90 -11 15 0 27 6 27 13 0 6 -16 27 -35 45 -27 24 -45 32 -73
32 -21 0 -42 4 -48 9 -5 5 -27 11 -49 13 -36 3 -40 6 -43 33 -2 17 -8 36 -14
43 -6 6 -16 12 -23 12z"/>
</g>
</svg>
