<?xml version="1.0" standalone="no"?>
<!DOCTYPE svg PUBLIC "-//W3C//DTD SVG 20010904//EN"
 "http://www.w3.org/TR/2001/REC-SVG-20010904/DTD/svg10.dtd">
<svg version="1.0" xmlns="http://www.w3.org/2000/svg"
 width="128.000000pt" height="128.000000pt" viewBox="0 0 128.000000 128.000000"
 preserveAspectRatio="xMidYMid meet">
<metadata>
Created by potrace 1.16, written by Peter Selinger 2001-2019
</metadata>
<g transform="translate(0.000000,128.000000) scale(0.100000,-0.100000)"
fill="#000000" stroke="none">
<path d="M396 1229 c-134 -2 -146 -4 -146 -21 0 -11 7 -18 19 -18 11 0 23 -5
26 -10 4 -6 26 -8 53 -5 26 4 78 9 117 13 56 6 70 11 73 25 3 16 -8 17 -142
16z"/>
<path d="M712 1209 c-9 0 -37 -20 -61 -44 -24 -23 -40 -48 -37 -54 4 -6 25
-11 46 -11 31 0 43 -5 55 -24 10 -15 14 -33 9 -50 -3 -15 -17 -35 -31 -44 -13
-9 -34 -25 -46 -34 -16 -12 -19 -20 -11 -28 9 -8 20 -8 45 3 19 7 40 12 47 10
6 -3 12 -15 12 -27 0 -12 -13 -35 -30 -51 -16 -16 -30 -33 -30 -38 0 -4 7 -15
15 -23 8 -9 15 -23 15 -32 0 -10 -14 -32 -30 -50 -17 -19 -38 -32 -48 -30 -15
3 -17 17 -18 103 -1 71 -6 111 -18 138 -9 21 -22 36 -29 34 -7 -2 -11 -12 -11
-21 1 -9 -2 -16 -7 -16 -5 0 -9 13 -9 29 0 20 -9 36 -26 50 -20 16 -30 18 -40
10 -7 -6 -16 -19 -19 -30 -4 -13 2 -30 20 -50 23 -28 26 -39 24 -103 -2 -50 2
-80 14 -102 9 -17 27 -39 41 -48 15 -9 26 -22 26 -29 0 -7 -15 -28 -34 -46
-19 -18 -36 -46 -40 -62 -3 -16 -1 -40 4 -54 5 -13 20 -27 34 -31 16 -4 36 1
55 12 25 15 31 25 31 51 0 22 10 44 31 68 18 20 40 35 53 35 11 0 27 -9 34
-20 11 -18 9 -22 -18 -38 -27 -15 -31 -21 -27 -52 4 -31 -3 -43 -49 -98 -30
-35 -54 -68 -54 -73 0 -6 5 -19 10 -29 8 -15 17 -18 43 -14 17 3 44 15 59 25
27 19 28 19 37 0 6 -10 8 -21 5 -24 -3 -3 2 -19 10 -35 10 -19 29 -35 51 -42
20 -7 52 -9 70 -6 29 6 37 3 50 -17 16 -24 17 -25 159 -22 79 1 149 5 155 9 6
4 11 13 11 21 0 7 -12 23 -26 34 -15 12 -39 20 -53 19 -15 -1 -32 1 -39 6 -7
4 -18 4 -24 0 -7 -5 -51 -9 -98 -11 -47 -1 -99 2 -116 8 -18 5 -39 18 -49 29
-9 10 -18 33 -18 51 -2 30 1 33 37 41 22 5 45 13 53 19 7 6 13 22 13 35 0 17
-6 24 -20 24 -11 0 -36 7 -55 14 -22 10 -35 22 -35 33 0 11 4 23 9 29 5 5 11
20 13 34 3 21 7 25 34 22 19 -2 38 3 47 12 9 9 20 16 25 16 5 0 21 9 36 21 15
11 26 31 26 44 0 13 -10 30 -26 40 -18 11 -35 15 -53 10 -14 -4 -48 -8 -74 -8
-27 -1 -53 3 -58 10 -6 6 -7 22 -4 36 5 18 2 28 -12 35 -14 9 -15 13 -6 23 10
10 18 10 38 -1 23 -12 28 -12 35 0 6 8 10 18 10 22 0 4 -10 8 -21 10 -12 2
-27 10 -32 20 -7 11 -8 32 -1 63 8 43 12 48 49 61 22 7 46 14 54 14 9 0 11 -8
7 -27 -4 -16 -15 -34 -26 -41 -10 -8 -29 -22 -41 -33 -12 -11 -19 -25 -15 -34
3 -8 12 -15 21 -15 8 0 20 9 27 19 9 14 20 18 42 14 19 -3 39 2 51 11 11 9 30
24 43 34 19 14 22 23 17 45 -4 15 -25 40 -49 58 -32 24 -47 29 -71 24 -16 -4
-47 -9 -67 -12 -36 -5 -37 -4 -43 31 -5 23 -3 41 5 51 7 8 10 22 6 30 -3 10
-19 15 -45 15 -22 0 -43 5 -46 10 -3 6 -14 10 -23 9z m-6 -529 c8 0 14 -4 14
-9 0 -6 -4 -13 -10 -16 -5 -3 -15 -3 -20 0 -6 4 -8 11 -5 16 4 5 13 9 21 9z
m149 0 c6 0 16 -5 23 -12 7 -7 12 -19 12 -28 0 -9 -14 -24 -30 -33 -17 -10
-35 -15 -40 -12 -6 3 -10 16 -10 27 0 12 7 30 17 40 9 10 21 18 28 18z"/>
<path d="M171 940 c-16 0 -21 -6 -21 -25 0 -14 -7 -37 -16 -51 -15 -23 -15
-28 5 -83 11 -32 21 -60 21 -63 0 -3 -16 -25 -35 -49 -19 -24 -35 -50 -35 -56
0 -7 -6 -13 -14 -13 -8 0 -18 -5 -21 -10 -4 -6 -1 -25 5 -44 6 -18 24 -46 40
-61 17 -16 30 -36 30 -44 -1 -9 -11 -32 -23 -52 -12 -19 -39 -61 -59 -92 -29
-43 -38 -66 -38 -99 0 -24 6 -60 13 -81 8 -21 19 -43 25 -49 9 -9 19 -5 42 17
16 16 30 36 30 45 0 9 7 25 15 36 8 10 15 27 15 38 0 10 9 35 20 55 10 20 35
79 55 131 20 52 43 111 52 130 9 19 49 103 89 186 41 83 74 161 74 173 0 11
-4 21 -8 21 -5 0 -16 -8 -25 -18 -10 -10 -17 -22 -17 -26 0 -4 -9 -19 -20 -33
-11 -14 -20 -34 -20 -44 0 -10 -6 -22 -14 -26 -7 -4 -25 -31 -39 -59 -14 -27
-29 -67 -32 -87 -4 -21 -18 -53 -31 -73 -13 -19 -24 -39 -24 -44 0 -6 -6 -10
-13 -10 -7 0 -30 21 -52 46 -38 47 -38 47 -17 63 11 9 39 30 62 46 23 17 49
43 57 58 11 22 12 32 2 43 -6 8 -16 14 -21 14 -5 0 -22 10 -38 22 -17 12 -30
29 -30 39 0 9 11 24 24 32 13 9 26 27 28 40 3 13 -1 32 -7 41 -7 9 -22 16 -34
16z"/>
<path d="M380 80 c-5 0 -11 -4 -15 -9 -3 -5 -1 -12 5 -16 5 -3 15 -3 20 0 6 4
8 11 5 16 -4 5 -10 9 -15 9z"/>
</g>
</svg>
