<?xml version="1.0" standalone="no"?>
<!DOCTYPE svg PUBLIC "-//W3C//DTD SVG 20010904//EN"
 "http://www.w3.org/TR/2001/REC-SVG-20010904/DTD/svg10.dtd">
<svg version="1.0" xmlns="http://www.w3.org/2000/svg"
 width="128.000000pt" height="128.000000pt" viewBox="0 0 128.000000 128.000000"
 preserveAspectRatio="xMidYMid meet">
<metadata>
Created by potrace 1.16, written by Peter Selinger 2001-2019
</metadata>
<g transform="translate(0.000000,128.000000) scale(0.100000,-0.100000)"
fill="#000000" stroke="none">
<path d="M50 1280 c-29 0 -30 -2 -30 -44 0 -24 -3 -51 -6 -59 -3 -8 2 -22 11
-31 9 -9 27 -16 41 -16 13 0 42 11 64 25 21 13 43 32 49 42 7 13 22 18 53 19
24 0 64 10 91 22 26 11 47 26 47 31 0 7 -24 11 -59 11 -50 0 -64 -4 -87 -25
-17 -16 -34 -23 -46 -20 -10 4 -28 -1 -40 -9 -12 -9 -30 -16 -40 -16 -14 0
-18 8 -18 35 0 32 -2 35 -30 35z"/>
<path d="M693 1219 c-28 0 -63 -8 -83 -20 -19 -10 -50 -19 -68 -19 -18 0 -49
-7 -69 -15 -26 -11 -39 -12 -49 -4 -7 6 -23 9 -35 7 -12 -2 -27 -11 -32 -20
-8 -12 -7 -24 1 -43 11 -23 16 -25 47 -19 26 5 40 1 61 -15 15 -12 34 -21 44
-21 9 0 24 -8 33 -18 10 -10 17 -27 17 -37 0 -10 7 -42 17 -71 13 -42 14 -56
4 -68 -7 -8 -33 -22 -58 -30 -26 -9 -75 -16 -109 -16 -35 0 -66 -4 -69 -10 -3
-5 -17 -10 -31 -10 -16 0 -24 6 -24 18 0 9 7 30 15 46 8 15 15 46 15 67 0 21
-5 41 -11 45 -7 4 -26 -10 -45 -32 -18 -21 -37 -58 -43 -81 -6 -24 -15 -43
-19 -43 -4 0 -27 -19 -50 -42 -41 -39 -43 -44 -39 -87 2 -25 13 -68 24 -96 12
-32 29 -55 47 -65 26 -14 28 -14 51 14 13 17 26 49 30 79 3 28 12 69 18 89 7
24 17 37 26 36 8 -2 17 -10 22 -18 4 -8 20 -42 34 -75 15 -33 39 -72 53 -88
14 -15 33 -27 42 -27 9 0 26 10 38 23 12 13 22 33 22 46 0 12 -14 35 -30 50
-17 15 -35 42 -40 61 -6 20 -6 38 -1 44 5 6 30 17 56 25 29 8 50 10 56 4 5 -5
10 -73 10 -152 0 -97 -3 -146 -11 -156 -7 -8 -21 -15 -32 -15 -11 0 -34 -7
-51 -15 -18 -8 -67 -19 -111 -24 -43 -5 -82 -13 -87 -18 -4 -4 -3 -19 4 -33 9
-17 23 -27 47 -30 19 -3 49 -1 67 4 17 5 38 6 47 3 9 -4 16 -13 16 -22 0 -8
-12 -20 -26 -25 -14 -6 -38 -10 -54 -10 -16 0 -55 -10 -86 -21 -42 -16 -68
-20 -102 -15 -28 4 -50 2 -58 -5 -8 -6 -14 -24 -14 -39 0 -20 13 -39 46 -70
28 -25 51 -39 60 -36 9 3 44 14 79 23 36 9 67 14 71 11 3 -4 1 -21 -5 -39 -9
-26 -8 -37 4 -55 14 -22 17 -22 187 -18 126 2 199 9 267 24 95 20 95 20 113 0
10 -11 30 -20 43 -20 15 0 31 9 40 23 8 13 17 36 21 53 5 24 -2 38 -37 82 -31
38 -51 53 -76 58 -19 4 -45 2 -58 -4 -12 -6 -33 -30 -47 -54 -13 -23 -35 -48
-48 -55 -14 -6 -63 -13 -110 -15 -76 -3 -85 -1 -88 15 -2 11 5 25 16 33 11 7
23 25 26 39 4 16 16 27 34 31 15 4 44 22 64 40 21 19 54 40 74 49 20 8 53 15
73 15 26 0 47 9 70 28 26 21 32 33 27 49 -4 12 -24 27 -49 37 -24 9 -52 16
-64 16 -12 0 -25 5 -28 11 -4 5 -8 21 -10 35 -1 14 -11 31 -21 39 -11 8 -26
13 -35 11 -9 -2 -24 1 -33 6 -9 5 -16 12 -16 17 0 4 29 31 65 59 35 29 71 52
79 52 8 0 37 22 66 50 44 43 50 52 40 70 -6 11 -22 27 -35 36 -14 9 -25 24
-25 33 0 10 15 25 35 34 20 9 42 17 51 17 8 0 17 -6 20 -14 3 -8 -2 -28 -10
-44 -14 -26 -14 -31 -1 -42 10 -8 32 -10 63 -7 26 3 71 13 101 21 29 9 60 21
67 27 8 6 14 20 14 29 0 10 -11 32 -25 48 -14 16 -45 39 -70 51 -25 11 -60 21
-79 21 -19 0 -37 -4 -40 -9 -3 -4 -23 -11 -44 -13 -21 -3 -90 -27 -153 -52
-63 -26 -121 -50 -130 -53 -14 -4 -17 8 -22 79 -3 46 -7 92 -9 102 -2 15 7 23
42 35 25 9 51 20 58 24 6 5 12 19 12 32 0 14 -8 29 -19 35 -11 5 -41 10 -68 9z
m45 -366 c20 -8 44 -19 52 -23 8 -4 16 -14 18 -22 2 -9 -20 -35 -49 -58 -41
-35 -54 -41 -68 -33 -12 8 -16 25 -16 65 0 31 6 62 13 71 12 14 17 15 50 0z
m-75 -415 c22 -2 33 -9 35 -22 2 -10 -2 -22 -10 -27 -7 -5 -25 -9 -40 -9 -15
0 -30 4 -33 10 -3 5 -1 19 5 30 9 16 19 20 43 18z m-143 -148 c6 0 10 -5 10
-10 0 -6 -9 -29 -20 -50 -11 -22 -27 -40 -35 -40 -7 0 -17 5 -21 11 -4 6 7 25
25 41 17 16 31 33 31 39 0 5 5 9 10 9z"/>
</g>
</svg>
