<?xml version="1.0" standalone="no"?>
<!DOCTYPE svg PUBLIC "-//W3C//DTD SVG 20010904//EN"
 "http://www.w3.org/TR/2001/REC-SVG-20010904/DTD/svg10.dtd">
<svg version="1.0" xmlns="http://www.w3.org/2000/svg"
 width="128.000000pt" height="128.000000pt" viewBox="0 0 128.000000 128.000000"
 preserveAspectRatio="xMidYMid meet">
<metadata>
Created by potrace 1.16, written by Peter Selinger 2001-2019
</metadata>
<g transform="translate(0.000000,128.000000) scale(0.100000,-0.100000)"
fill="#000000" stroke="none">
<path d="M558 1150 c-6 0 -8 -11 -5 -30 4 -16 2 -32 -4 -35 -5 -4 -7 -22 -3
-43 4 -20 10 -44 15 -53 6 -12 2 -25 -12 -43 -11 -14 -28 -26 -38 -26 -9 0
-26 -7 -37 -15 -10 -8 -39 -15 -64 -15 -25 0 -57 -6 -72 -14 -15 -8 -42 -18
-60 -22 -18 -4 -44 -8 -58 -8 -14 -1 -26 -8 -28 -17 -2 -12 6 -18 30 -21 18
-3 53 0 78 7 25 7 96 25 158 40 63 15 115 25 118 23 2 -2 -1 -33 -7 -68 -5
-35 -8 -74 -5 -86 5 -19 15 -22 88 -27 66 -5 86 -4 98 8 11 12 12 19 4 33 -7
11 -24 17 -45 17 -19 0 -53 -4 -77 -8 -42 -7 -43 -7 -36 15 4 13 8 47 9 76 1
40 7 56 22 67 10 7 35 15 54 17 22 2 34 8 34 18 0 11 -11 15 -40 15 -30 0 -39
4 -37 15 2 8 8 39 13 69 4 30 6 57 4 61 -3 5 -23 17 -45 29 -22 12 -46 21 -52
21z"/>
<path d="M925 1003 c-22 3 -47 4 -55 1 -8 -3 -24 -9 -35 -14 -11 -5 -33 -11
-50 -12 -19 -2 -30 -9 -30 -18 0 -12 19 -15 110 -15 99 0 110 2 113 19 2 10 0
22 -5 26 -4 4 -26 10 -48 13z"/>
<path d="M505 699 c-16 0 -39 -5 -50 -11 -11 -6 -36 -11 -55 -10 -19 1 -41 -2
-49 -7 -7 -5 -10 -14 -7 -20 4 -6 20 -11 35 -11 15 0 31 3 34 7 4 4 29 7 55 8
26 1 61 7 77 14 28 12 28 14 10 21 -11 5 -33 9 -50 9z"/>
<path d="M974 640 c-12 0 -26 -4 -29 -10 -3 -5 -16 -10 -28 -10 -12 0 -33 -9
-47 -20 -14 -11 -41 -20 -61 -20 -25 0 -53 -11 -88 -34 -28 -19 -53 -30 -57
-25 -3 5 -22 7 -42 3 -20 -3 -44 -13 -52 -21 -13 -12 -12 -16 10 -34 17 -13
34 -18 53 -14 16 3 38 0 49 -6 12 -6 31 -23 44 -38 13 -14 24 -29 24 -33 0 -4
20 -35 44 -70 24 -35 47 -73 50 -85 7 -21 4 -23 -25 -23 -18 0 -40 -7 -50 -16
-16 -14 -18 -14 -28 4 -6 11 -30 27 -53 35 -24 8 -63 20 -88 27 -25 7 -58 19
-75 28 -16 8 -55 31 -86 51 -33 21 -68 54 -87 83 -22 32 -39 48 -53 48 -17 0
-19 4 -13 18 4 9 10 47 12 85 2 39 0 67 -6 67 -5 0 -13 -7 -16 -16 -3 -9 -6
-28 -6 -42 -1 -15 -9 -50 -18 -78 -10 -28 -29 -65 -42 -83 -14 -17 -42 -52
-62 -77 -21 -25 -38 -53 -38 -63 0 -9 -5 -22 -11 -28 -7 -7 -9 -19 -6 -27 4
-9 13 -16 21 -16 8 0 28 17 45 39 17 21 45 65 62 97 17 33 35 64 41 69 6 7 22
-4 47 -32 21 -23 72 -65 114 -92 42 -28 101 -62 131 -76 30 -14 67 -30 83 -37
15 -6 53 -16 83 -21 30 -5 94 -10 142 -10 57 0 93 5 103 13 14 12 14 15 -1 31
-10 11 -14 22 -11 25 4 4 14 1 23 -6 14 -12 15 -10 12 20 -2 18 -10 36 -18 40
-8 4 -27 13 -41 20 -15 7 -53 38 -85 69 -33 31 -70 69 -83 85 -21 23 -22 29
-10 37 8 5 26 16 42 25 15 8 27 18 27 23 0 4 11 6 24 4 18 -4 33 5 63 35 30
31 41 37 49 27 5 -7 35 -15 67 -18 46 -4 57 -3 57 9 0 8 -8 18 -17 21 -10 4
-29 15 -42 25 -13 10 -34 18 -47 18z"/>
<path d="M1108 570 c-4 0 -9 -4 -13 -10 -3 -5 0 -18 7 -30 7 -11 32 -30 55
-41 23 -11 47 -18 52 -15 5 4 -2 19 -15 34 -14 14 -38 35 -52 44 -15 10 -30
18 -34 18z"/>
</g>
</svg>
