<?xml version="1.0" standalone="no"?>
<!DOCTYPE svg PUBLIC "-//W3C//DTD SVG 20010904//EN"
 "http://www.w3.org/TR/2001/REC-SVG-20010904/DTD/svg10.dtd">
<svg version="1.0" xmlns="http://www.w3.org/2000/svg"
 width="128.000000pt" height="128.000000pt" viewBox="0 0 128.000000 128.000000"
 preserveAspectRatio="xMidYMid meet">
<metadata>
Created by potrace 1.16, written by Peter Selinger 2001-2019
</metadata>
<g transform="translate(0.000000,128.000000) scale(0.100000,-0.100000)"
fill="#000000" stroke="none">
<path d="M748 1260 c-21 0 -28 -5 -28 -19 0 -10 16 -29 38 -43 20 -14 67 -54
103 -90 36 -35 68 -71 72 -80 3 -9 18 -24 32 -34 14 -9 29 -14 32 -10 4 3 6
29 4 57 -1 28 -6 61 -11 73 -5 13 -33 37 -64 55 -31 17 -61 31 -68 31 -7 1
-29 14 -48 30 -20 18 -46 30 -62 30z"/>
<path d="M433 1206 c-18 4 -33 1 -37 -5 -4 -6 -5 -20 -1 -30 3 -11 -1 -35 -9
-54 -8 -20 -27 -44 -42 -54 -16 -10 -35 -24 -44 -31 -8 -8 -41 -33 -74 -58
-32 -24 -62 -44 -67 -44 -5 0 -9 -7 -9 -16 0 -13 8 -15 53 -10 28 4 69 9 89
12 21 3 54 19 75 35 20 16 44 28 52 27 9 -2 17 -13 19 -26 2 -13 -2 -22 -10
-22 -7 0 -20 -4 -28 -10 -12 -7 -12 -12 5 -29 10 -12 16 -24 13 -27 -4 -3 -23
-7 -43 -8 -20 -2 -44 -10 -52 -19 -14 -14 -12 -21 22 -76 35 -57 38 -66 37
-138 0 -43 -8 -117 -18 -166 -9 -48 -14 -90 -10 -94 3 -4 23 3 44 16 20 12 49
28 65 34 17 7 25 17 22 26 -3 7 2 24 10 37 11 16 25 24 45 24 24 0 30 -4 30
-21 0 -12 -16 -36 -35 -53 -19 -18 -35 -39 -35 -47 0 -8 -13 -35 -28 -61 -15
-26 -45 -61 -67 -78 -22 -18 -52 -38 -67 -46 -16 -8 -28 -21 -28 -29 0 -9 10
-15 24 -15 14 0 28 4 31 10 3 5 26 24 51 41 45 31 46 31 77 14 18 -10 57 -51
87 -92 30 -41 67 -85 82 -99 15 -13 31 -24 35 -24 5 0 21 11 37 24 30 23 30
23 18 201 -10 163 -10 179 6 201 9 13 23 24 30 24 8 0 38 -20 66 -45 29 -25
58 -45 63 -45 6 0 16 -7 23 -15 7 -8 28 -15 47 -15 18 0 48 6 67 14 20 8 37
25 45 45 7 17 11 38 7 47 -3 8 -1 59 5 112 10 88 9 97 -7 109 -10 7 -35 13
-56 13 -21 0 -61 -12 -90 -27 -29 -15 -60 -30 -68 -35 -8 -4 -26 -13 -40 -19
-14 -6 -43 -11 -64 -10 -21 0 -45 6 -52 12 -8 6 -14 24 -14 39 0 15 8 34 18
43 10 10 30 17 44 17 19 0 27 -6 32 -25 4 -14 14 -25 22 -25 13 0 15 7 11 38
-4 24 -1 47 8 66 8 15 15 40 15 55 0 16 10 37 24 50 13 12 27 36 30 53 4 19 1
37 -6 46 -7 8 -30 26 -51 39 -33 21 -43 23 -66 14 -14 -6 -43 -14 -64 -16 -21
-3 -61 -12 -88 -21 -42 -14 -56 -15 -94 -4 -30 9 -45 18 -45 29 0 9 5 22 11
28 6 6 13 35 15 65 2 29 5 62 6 73 2 16 -3 20 -23 20 -14 0 -33 6 -41 12 -8 7
-29 16 -45 19z m342 -301 c6 -1 9 -15 8 -31 0 -16 -8 -46 -17 -66 -14 -34 -20
-38 -51 -38 -25 0 -37 5 -41 18 -3 9 -10 25 -15 34 -5 10 -9 26 -9 37 0 10 6
23 13 29 7 6 33 12 57 14 25 3 50 4 55 3z m-322 -45 c12 -1 42 -6 67 -13 25
-7 53 -17 63 -23 14 -8 18 -20 15 -50 -3 -39 -3 -39 -53 -36 -43 3 -54 8 -82
40 -18 20 -32 47 -33 60 0 16 6 22 23 22z m120 -201 c4 1 19 -10 32 -24 14
-13 25 -31 25 -39 0 -8 -3 -21 -6 -30 -4 -11 -19 -16 -44 -16 -22 0 -47 8 -60
18 -18 14 -21 25 -17 44 4 16 18 30 34 36 16 6 32 11 36 11z m394 -100 c7 0
20 -13 28 -30 12 -21 14 -43 9 -75 -5 -34 -10 -44 -25 -44 -11 0 -60 20 -110
45 -51 26 -87 50 -83 56 3 6 18 15 32 21 15 6 52 14 82 18 30 4 61 8 67 9z
m-329 -151 c10 -2 20 -23 28 -58 7 -30 13 -92 14 -138 0 -68 -3 -84 -17 -89
-11 -5 -33 12 -75 57 -35 39 -58 72 -58 86 0 13 4 25 9 28 5 3 26 31 46 62 23
34 43 54 53 52z"/>
</g>
</svg>
