<?xml version="1.0" standalone="no"?>
<!DOCTYPE svg PUBLIC "-//W3C//DTD SVG 20010904//EN"
 "http://www.w3.org/TR/2001/REC-SVG-20010904/DTD/svg10.dtd">
<svg version="1.0" xmlns="http://www.w3.org/2000/svg"
 width="128.000000pt" height="128.000000pt" viewBox="0 0 128.000000 128.000000"
 preserveAspectRatio="xMidYMid meet">
<metadata>
Created by potrace 1.16, written by Peter Selinger 2001-2019
</metadata>
<g transform="translate(0.000000,128.000000) scale(0.100000,-0.100000)"
fill="#000000" stroke="none">
<path d="M751 1260 c-22 0 -43 -5 -46 -11 -4 -6 9 -25 29 -44 20 -18 36 -42
36 -54 0 -11 8 -36 17 -56 13 -28 26 -38 57 -46 23 -6 45 -13 49 -16 5 -3 1
-13 -7 -22 -9 -10 -35 -24 -57 -31 -24 -8 -44 -22 -49 -34 -4 -12 -5 -27 -3
-33 3 -7 0 -13 -7 -13 -6 0 -19 4 -28 9 -13 7 -25 4 -42 -9 -24 -18 -24 -18
18 -57 23 -21 42 -42 42 -46 0 -4 -20 -27 -44 -52 -25 -25 -49 -45 -53 -45 -5
0 -14 -15 -21 -33 -7 -18 -12 -47 -12 -64 0 -22 8 -38 26 -52 15 -12 34 -21
42 -21 8 0 40 14 71 31 31 18 69 42 84 55 18 15 41 24 63 24 19 0 34 -3 34 -7
0 -4 -12 -20 -27 -35 -15 -15 -32 -28 -39 -28 -6 0 -36 -24 -66 -53 -31 -28
-76 -68 -102 -87 -25 -19 -59 -53 -75 -75 -16 -22 -34 -58 -40 -80 -8 -32 -8
-44 5 -63 8 -12 26 -27 40 -32 14 -6 54 -10 88 -10 54 0 73 6 133 38 39 20 89
52 113 69 34 26 46 30 61 22 11 -5 19 -18 19 -28 0 -10 11 -35 25 -55 14 -20
25 -46 25 -56 0 -11 9 -24 20 -30 11 -6 24 -9 29 -6 5 3 20 30 35 59 14 30 26
60 26 68 0 8 -7 22 -15 33 -9 12 -22 17 -35 13 -11 -3 -20 -2 -20 2 0 4 5 12
11 18 5 5 7 22 4 36 -4 14 -22 44 -42 66 -19 23 -43 41 -53 41 -10 0 -28 -12
-39 -27 -11 -16 -33 -40 -48 -56 -16 -15 -55 -40 -88 -56 -46 -23 -73 -29
-118 -29 -37 1 -60 5 -64 13 -2 7 13 30 35 51 21 22 62 58 90 82 28 23 55 42
59 42 5 0 25 15 44 34 18 19 39 39 44 45 6 6 24 22 41 36 18 14 34 38 38 56 3
17 3 42 0 56 -4 13 -18 29 -31 34 -19 7 -31 5 -53 -11 -15 -11 -41 -20 -57
-20 -15 0 -45 -4 -66 -9 -22 -5 -49 -19 -61 -30 -12 -12 -30 -21 -39 -21 -10
0 -20 7 -24 15 -3 11 13 32 48 65 30 27 70 56 90 65 19 9 43 29 52 45 9 15 17
35 17 44 0 8 -9 20 -19 26 -11 5 -31 10 -45 10 -15 0 -26 6 -26 13 0 7 12 22
28 34 15 11 39 24 52 28 14 4 32 13 40 21 9 7 32 20 53 29 20 8 37 22 37 30 0
7 -10 21 -22 29 -14 10 -44 16 -78 16 -30 0 -60 4 -67 8 -6 4 -14 21 -18 37
-4 17 -9 38 -12 48 -3 11 -20 25 -39 33 -18 8 -51 14 -73 14z"/>
<path d="M96 1020 c-13 32 -13 32 -25 -13 -6 -25 -11 -76 -11 -112 0 -38 6
-78 15 -94 8 -16 24 -31 35 -34 13 -3 23 0 27 8 2 8 20 23 39 35 20 11 46 20
59 20 12 0 26 -7 29 -15 3 -9 1 -37 -5 -63 -6 -26 -18 -62 -25 -80 -8 -19 -17
-61 -21 -95 -3 -35 -14 -74 -24 -89 -11 -15 -19 -43 -19 -67 0 -22 -11 -75
-25 -118 -14 -43 -24 -86 -21 -96 2 -9 -1 -30 -7 -46 -9 -26 -7 -36 24 -86 19
-31 44 -61 57 -66 13 -5 36 -9 50 -9 15 0 37 7 49 15 12 9 25 31 29 50 3 19
12 39 20 46 8 6 14 21 14 34 0 12 9 30 19 39 11 10 22 29 26 43 3 14 17 48 30
76 14 28 25 59 25 70 0 13 -6 17 -21 15 -15 -2 -33 -23 -56 -68 -19 -36 -41
-76 -49 -90 -8 -14 -14 -30 -14 -37 0 -6 -14 -23 -31 -37 -17 -14 -35 -26 -40
-26 -6 0 -17 17 -26 37 -14 34 -14 42 1 89 9 28 16 71 16 95 0 24 5 61 11 82
10 37 11 38 29 22 10 -9 24 -14 29 -10 6 3 11 14 11 24 0 10 -9 26 -20 36 -11
10 -20 26 -20 35 0 10 9 37 20 61 11 24 20 56 20 70 0 15 9 38 20 51 16 21 19
37 16 94 -2 38 -4 75 -5 81 -1 7 -12 20 -26 29 -24 15 -27 15 -90 -20 -36 -20
-72 -36 -80 -36 -8 0 -22 16 -30 36 -8 20 -15 47 -15 59 0 13 -6 37 -14 55z"/>
</g>
</svg>
