<?xml version="1.0" standalone="no"?>
<!DOCTYPE svg PUBLIC "-//W3C//DTD SVG 20010904//EN"
 "http://www.w3.org/TR/2001/REC-SVG-20010904/DTD/svg10.dtd">
<svg version="1.0" xmlns="http://www.w3.org/2000/svg"
 width="128.000000pt" height="128.000000pt" viewBox="0 0 128.000000 128.000000"
 preserveAspectRatio="xMidYMid meet">
<metadata>
Created by potrace 1.16, written by Peter Selinger 2001-2019
</metadata>
<g transform="translate(0.000000,128.000000) scale(0.100000,-0.100000)"
fill="#000000" stroke="none">
<path d="M782 1280 c-17 0 -32 -3 -34 -7 -1 -5 -21 -16 -42 -26 -23 -11 -35
-22 -30 -27 5 -5 34 -10 64 -12 47 -3 55 -6 58 -24 2 -14 -10 -36 -35 -62 -21
-23 -46 -55 -55 -71 -14 -25 -15 -37 -6 -63 6 -18 18 -41 26 -50 14 -16 12
-21 -21 -53 -31 -30 -37 -43 -37 -76 0 -28 8 -51 26 -74 26 -34 26 -34 -29
-69 -31 -20 -69 -56 -86 -81 -17 -25 -31 -59 -31 -74 0 -15 9 -36 20 -46 20
-18 22 -18 68 3 26 12 66 28 90 36 23 7 45 10 47 5 3 -4 -21 -34 -54 -66 -32
-32 -66 -76 -75 -97 -9 -21 -16 -53 -16 -72 0 -18 7 -40 16 -48 8 -9 26 -19
39 -22 13 -3 48 -1 79 6 31 6 80 24 109 40 39 20 58 26 70 19 9 -6 24 -23 32
-39 8 -16 15 -38 15 -48 0 -11 7 -25 15 -32 11 -9 28 -10 62 -4 46 9 48 10 51
46 2 27 -5 51 -23 83 -15 25 -31 45 -36 45 -5 0 -11 10 -15 23 -3 12 -29 41
-58 65 -29 23 -59 42 -67 42 -8 0 -23 -18 -33 -41 -11 -22 -37 -54 -57 -70
-20 -16 -48 -29 -62 -29 -14 0 -28 7 -31 16 -3 8 -1 25 6 37 6 12 36 48 67 79
31 32 62 58 70 58 7 0 28 15 47 34 19 19 34 44 34 55 0 12 -6 23 -12 26 -7 2
-35 5 -61 8 -33 3 -52 0 -62 -9 -8 -8 -33 -21 -57 -30 -23 -8 -62 -16 -86 -17
-29 -1 -46 3 -49 10 -3 7 6 17 19 22 13 5 34 21 47 35 18 19 35 26 61 26 20 0
58 7 84 16 26 9 50 23 53 32 4 9 -3 23 -16 34 -13 10 -34 18 -47 18 -12 0 -26
-4 -29 -10 -3 -5 -11 -10 -18 -10 -8 0 -8 3 1 12 8 8 3 15 -20 27 -18 9 -34
22 -36 29 -2 7 10 25 27 41 24 23 45 31 89 36 31 4 63 8 70 10 6 3 12 15 12
28 0 16 -11 33 -32 49 -18 13 -45 29 -60 36 -16 6 -28 16 -28 22 0 6 13 30 29
53 16 23 41 53 55 66 15 14 26 35 26 51 0 14 -5 31 -12 38 -7 7 -24 12 -39 12
-15 0 -34 7 -43 15 -8 8 -28 15 -44 15z"/>
<path d="M1044 1130 c-8 0 -14 -9 -14 -21 0 -11 9 -34 21 -50 11 -16 17 -33
14 -39 -3 -5 -20 -10 -36 -10 -24 0 -30 -4 -27 -17 2 -10 13 -19 25 -21 12 -2
36 -16 52 -31 23 -22 31 -25 35 -14 4 8 6 45 6 83 0 64 -2 70 -31 94 -17 14
-37 26 -45 26z"/>
<path d="M179 1040 c-21 0 -22 -3 -15 -61 3 -34 6 -74 6 -90 0 -15 12 -41 26
-58 14 -17 35 -31 47 -31 12 0 36 9 52 20 17 11 41 20 54 20 23 0 24 -1 17
-62 -3 -34 -11 -67 -17 -73 -5 -5 -31 -17 -57 -25 -33 -11 -51 -23 -60 -43 -7
-15 -20 -52 -28 -82 -7 -31 -14 -88 -14 -128 0 -40 -7 -117 -16 -172 -16 -95
-16 -104 0 -155 9 -30 26 -66 36 -80 17 -22 20 -23 44 -11 14 8 34 33 46 57
11 24 20 58 20 76 0 18 7 58 16 88 9 30 17 69 18 85 1 17 13 64 26 105 12 41
36 117 52 168 22 66 27 96 19 105 -7 9 -7 43 0 112 10 97 9 100 -12 117 -13
11 -38 18 -63 18 -25 0 -51 -8 -66 -20 -14 -11 -37 -20 -52 -20 -22 0 -31 7
-43 36 -8 20 -15 52 -15 70 0 28 -4 34 -21 34z m124 -410 c6 0 28 -12 49 -26
21 -15 38 -32 38 -37 0 -6 -19 -49 -42 -94 -31 -62 -46 -83 -61 -83 -19 0 -20
5 -14 111 4 60 9 114 12 120 4 5 11 9 18 9z m-32 -317 c4 -5 8 -17 9 -28 1
-11 2 -35 1 -52 -1 -22 -6 -33 -16 -33 -11 0 -15 13 -15 53 0 30 3 57 7 61 4
3 10 3 14 -1z m-56 -133 c8 0 17 -11 21 -24 3 -14 3 -30 -2 -37 -5 -9 -11 -7
-21 6 -7 11 -13 27 -13 37 0 10 7 18 15 18z"/>
</g>
</svg>
