<?xml version="1.0" standalone="no"?>
<!DOCTYPE svg PUBLIC "-//W3C//DTD SVG 20010904//EN"
 "http://www.w3.org/TR/2001/REC-SVG-20010904/DTD/svg10.dtd">
<svg version="1.0" xmlns="http://www.w3.org/2000/svg"
 width="128.000000pt" height="128.000000pt" viewBox="0 0 128.000000 128.000000"
 preserveAspectRatio="xMidYMid meet">
<metadata>
Created by potrace 1.16, written by Peter Selinger 2001-2019
</metadata>
<g transform="translate(0.000000,128.000000) scale(0.100000,-0.100000)"
fill="#000000" stroke="none">
<path d="M576 1242 c-26 26 -35 31 -44 21 -7 -7 -30 -17 -52 -23 -22 -6 -40
-14 -40 -19 0 -4 -17 -15 -37 -24 -21 -8 -50 -18 -66 -21 -16 -4 -40 0 -58 10
-22 11 -34 13 -42 5 -8 -8 -3 -28 18 -71 16 -33 35 -60 43 -60 8 0 31 13 51
29 20 15 46 33 58 40 12 6 24 11 27 11 3 0 6 -6 6 -14 0 -8 -36 -44 -79 -81
-43 -36 -82 -76 -85 -87 -4 -18 -7 -19 -21 -8 -13 11 -23 11 -53 1 -20 -7 -49
-17 -64 -23 -20 -7 -28 -17 -28 -34 0 -18 10 -28 40 -43 22 -10 42 -15 46 -10
3 5 18 9 33 9 16 0 34 7 41 15 7 8 28 15 47 15 31 0 34 2 27 23 -4 12 -8 27
-11 32 -2 6 11 19 29 30 18 10 39 27 46 37 7 10 29 25 47 33 19 7 54 33 78 57
25 24 55 50 67 58 16 12 21 22 16 37 -4 11 -21 36 -40 55z"/>
<path d="M831 1250 c-10 0 -26 -12 -36 -26 -14 -21 -15 -31 -6 -48 7 -11 10
-42 9 -67 -2 -26 -8 -53 -15 -60 -6 -8 -20 -35 -32 -61 -11 -26 -21 -51 -21
-56 0 -6 -6 -12 -14 -15 -8 -3 -17 -3 -20 0 -3 4 -6 14 -6 24 0 9 -13 28 -29
42 -28 23 -32 24 -77 12 -26 -6 -50 -17 -52 -24 -2 -7 4 -19 14 -26 18 -14 16
-18 -35 -65 -29 -27 -57 -50 -61 -50 -4 0 -24 -13 -44 -29 -20 -16 -50 -32
-66 -36 -15 -3 -31 -13 -34 -22 -4 -9 1 -26 9 -39 9 -13 24 -24 35 -24 10 0
21 -9 25 -20 3 -11 3 -25 0 -30 -5 -8 -11 -7 -21 1 -7 6 -20 9 -28 6 -8 -3
-22 -22 -31 -41 -17 -36 -17 -36 12 -82 27 -41 29 -49 19 -77 -7 -18 -19 -46
-29 -64 -9 -18 -17 -37 -17 -43 0 -7 -9 -23 -19 -36 -11 -14 -27 -47 -36 -73
-14 -43 -14 -51 0 -84 10 -25 22 -37 35 -37 13 0 24 10 31 27 5 16 20 48 32
71 12 24 35 55 51 69 29 24 29 24 50 -25 12 -27 26 -55 31 -63 6 -8 16 -25 22
-39 6 -14 17 -41 24 -60 7 -19 15 -38 18 -42 3 -4 15 0 25 8 17 12 21 33 28
136 5 68 10 161 12 208 2 47 8 96 15 107 6 12 11 29 11 37 0 10 -9 16 -25 16
-13 0 -36 5 -51 12 -22 10 -28 10 -39 -5 -7 -9 -21 -17 -33 -17 -15 0 -22 8
-27 30 -4 16 -4 34 0 39 3 6 12 8 20 4 9 -3 15 1 15 10 0 9 10 32 21 52 22 36
22 36 -5 64 -14 15 -26 32 -26 39 0 6 17 16 38 21 21 6 46 17 57 25 11 9 37
16 57 16 20 0 40 5 43 10 4 6 11 8 16 5 5 -4 9 -21 9 -39 0 -20 -8 -40 -20
-51 -11 -10 -20 -31 -20 -46 0 -29 0 -29 53 11 28 22 55 40 60 40 4 0 7 -12 7
-27 0 -16 -7 -64 -16 -108 -9 -44 -20 -114 -24 -155 -5 -41 -15 -103 -23 -137
-8 -34 -13 -64 -11 -66 3 -2 -3 -20 -11 -40 -10 -24 -13 -51 -9 -77 4 -22 13
-45 20 -51 8 -7 17 -9 21 -5 3 3 15 30 25 58 10 29 18 71 18 93 0 22 0 53 0
70 0 16 10 55 22 87 11 32 25 61 29 64 5 3 9 12 9 20 0 8 -6 14 -14 14 -8 0
-18 5 -21 10 -3 6 1 17 10 26 8 9 22 30 29 47 7 18 29 48 47 68 19 20 54 64
78 98 24 34 49 60 55 58 6 -2 14 -19 18 -38 4 -19 5 -40 3 -47 -3 -7 -10 -74
-16 -150 -6 -75 -10 -144 -10 -152 1 -8 3 -52 4 -98 3 -66 0 -85 -13 -97 -14
-13 -19 -13 -38 0 -12 9 -24 32 -28 53 -3 20 -12 47 -20 59 -8 12 -14 42 -14
66 0 44 0 44 37 43 33 -1 38 2 39 24 1 14 -6 39 -16 57 -9 18 -20 29 -24 25
-4 -4 -14 -7 -23 -7 -9 0 -24 -11 -35 -25 -14 -19 -19 -45 -21 -105 -2 -67 2
-86 19 -115 12 -19 19 -41 17 -48 -3 -6 7 -26 21 -43 14 -17 26 -36 26 -44 0
-7 7 -16 15 -19 9 -3 15 -11 14 -18 -1 -7 -1 -30 0 -51 1 -26 6 -40 19 -44 9
-3 27 -15 40 -27 23 -21 24 -21 38 -2 8 11 14 39 14 62 0 39 -2 43 -27 46 -14
2 -28 8 -30 15 -2 6 10 14 26 18 17 4 33 10 36 15 3 5 8 53 12 107 4 54 6 127
5 163 -1 36 -7 75 -13 87 -9 17 -9 25 3 37 12 12 13 26 7 68 -5 32 -5 56 1 62
6 6 10 18 10 28 0 9 -6 21 -14 25 -7 4 -17 27 -21 49 -4 26 -2 44 4 49 6 3 12
0 13 -7 0 -7 2 -19 2 -27 1 -8 7 -16 14 -19 6 -2 12 0 12 5 0 4 -5 26 -10 47
-8 36 -6 42 16 62 13 13 24 19 24 14 0 -6 7 -10 15 -10 9 0 15 9 15 23 0 12
-12 30 -26 40 -25 18 -26 18 -39 0 -13 -16 -14 -16 -15 -1 0 9 4 19 10 23 5 3
8 47 8 97 -2 77 -5 94 -22 109 -11 11 -32 19 -48 19 -18 0 -33 -8 -44 -25 -9
-14 -14 -32 -10 -40 3 -8 17 -20 31 -25 20 -8 25 -16 25 -44 0 -19 5 -47 12
-61 10 -21 8 -29 -9 -48 -11 -12 -26 -33 -33 -46 -8 -16 -9 -26 -1 -34 7 -7 2
-16 -19 -29 -17 -10 -30 -22 -30 -28 0 -6 -15 -24 -34 -40 -19 -17 -37 -42
-40 -56 -5 -17 -12 -24 -24 -22 -9 2 -22 19 -29 38 -8 22 -10 59 -6 99 3 36
16 89 29 118 13 30 24 62 24 73 0 11 5 20 11 20 5 0 21 25 35 56 14 31 23 63
20 70 -3 8 -12 14 -20 14 -8 0 -16 -5 -18 -12 -2 -6 -10 -8 -17 -4 -7 4 -16
19 -21 32 -6 14 -18 24 -29 24z m1 -198 c6 -6 7 -16 3 -22 -6 -9 -9 -9 -16 1
-4 7 -5 17 -2 22 3 5 10 4 15 -1z m-304 -593 c9 1 12 -20 10 -80 -2 -62 -7
-84 -19 -92 -12 -7 -29 -5 -63 9 -34 14 -46 25 -48 42 -1 12 -2 29 -2 37 -1 8
24 31 54 49 30 19 61 35 68 35z"/>
<path d="M498 958 c-13 0 -38 -3 -55 -5 -18 -2 -33 -8 -33 -13 0 -4 16 -11 35
-14 19 -4 44 -2 55 4 11 6 20 15 20 20 0 6 -10 9 -22 8z"/>
<path d="M359 940 c-5 0 -9 -9 -9 -20 0 -11 6 -20 14 -20 7 0 19 6 25 14 9 11
8 15 -5 20 -8 3 -20 6 -25 6z"/>
<path d="M631 654 c-5 4 -17 -5 -26 -18 -10 -15 -14 -33 -10 -46 3 -11 11 -18
16 -15 5 4 9 16 9 29 0 12 5 27 11 33 7 7 7 13 0 17z"/>
<path d="M1151 288 c-6 2 -11 -4 -11 -13 0 -9 5 -15 11 -13 6 2 11 8 11 13 0
5 -5 11 -11 13z"/>
<path d="M1151 100 c-6 0 -24 -20 -41 -44 -16 -25 -30 -47 -30 -51 0 -3 17 -5
38 -3 37 3 37 3 40 51 2 27 -1 47 -7 47z"/>
</g>
</svg>
