<?xml version="1.0" standalone="no"?>
<!DOCTYPE svg PUBLIC "-//W3C//DTD SVG 20010904//EN"
 "http://www.w3.org/TR/2001/REC-SVG-20010904/DTD/svg10.dtd">
<svg version="1.0" xmlns="http://www.w3.org/2000/svg"
 width="56.000000pt" height="56.000000pt" viewBox="0 0 56.000000 56.000000"
 preserveAspectRatio="xMidYMid meet">
<metadata>
Created by potrace 1.16, written by Peter Selinger 2001-2019
</metadata>
<g transform="translate(0.000000,56.000000) scale(0.100000,-0.100000)"
fill="#000000" stroke="none">
<path d="M468 480 c-7 -1 -20 -8 -28 -18 -11 -12 -15 -39 -13 -103 1 -87 1
-87 -75 -104 -43 -9 -86 -20 -97 -25 -11 -4 -33 -13 -50 -20 -16 -7 -41 -17
-55 -23 -14 -5 -34 -13 -45 -17 -11 -4 -39 -13 -62 -20 -38 -12 -43 -17 -43
-42 0 -15 3 -28 8 -28 4 0 18 6 32 13 14 8 42 24 63 35 29 17 54 22 110 22 40
0 102 5 139 10 39 6 76 6 90 1 17 -7 34 -2 70 18 33 17 48 32 48 46 0 11 -8
25 -18 31 -10 6 -32 15 -50 19 -32 7 -32 7 -32 85 0 43 5 82 10 85 6 3 10 13
10 21 0 8 -6 14 -12 14z m-95 -247 c23 -3 44 -7 46 -10 3 -2 0 -7 -5 -13 -5
-5 -48 -14 -96 -20 -48 -7 -93 -10 -100 -7 -7 3 -1 6 14 6 15 1 30 6 33 11 3
6 17 10 31 10 14 0 27 6 30 14 4 10 17 12 47 9z m111 -6 c6 -2 11 -8 13 -13 2
-5 -11 -18 -28 -28 -17 -10 -32 -16 -35 -13 -3 2 6 16 18 31 13 14 27 24 32
23z"/>
<path d="M531 94 c-4 3 -11 3 -15 -1 -3 -3 -6 -10 -6 -15 0 -4 7 -8 15 -8 8 0
15 4 15 9 0 6 -4 12 -9 15z"/>
</g>
</svg>
