<?xml version="1.0" standalone="no"?>
<!DOCTYPE svg PUBLIC "-//W3C//DTD SVG 20010904//EN"
 "http://www.w3.org/TR/2001/REC-SVG-20010904/DTD/svg10.dtd">
<svg version="1.0" xmlns="http://www.w3.org/2000/svg"
 width="56.000000pt" height="56.000000pt" viewBox="0 0 56.000000 56.000000"
 preserveAspectRatio="xMidYMid meet">
<metadata>
Created by potrace 1.16, written by Peter Selinger 2001-2019
</metadata>
<g transform="translate(0.000000,56.000000) scale(0.100000,-0.100000)"
fill="#000000" stroke="none">
<path d="M439 517 c-2 4 -30 7 -62 5 -47 -2 -60 -7 -72 -26 -10 -15 -17 -51
-18 -100 -2 -76 -2 -76 -59 -76 -52 0 -61 -3 -98 -37 -22 -20 -40 -45 -40 -54
0 -10 -5 -21 -12 -25 -7 -4 -26 -8 -43 -8 -22 -1 -31 -6 -33 -22 -2 -11 7 -32
18 -47 12 -15 26 -27 32 -27 6 0 30 16 54 35 38 31 49 35 101 35 51 0 64 4 96
31 20 17 37 39 37 49 0 10 5 22 11 25 5 4 19 -1 31 -12 11 -10 31 -39 44 -64
13 -26 28 -68 35 -95 7 -27 16 -55 22 -62 5 -6 25 -12 43 -12 32 0 34 2 34 34
0 19 -4 37 -9 40 -5 4 -15 29 -22 57 -11 40 -24 60 -62 95 -27 24 -54 44 -61
44 -6 0 -24 10 -39 23 -28 22 -28 23 -15 71 9 35 24 58 51 82 22 18 37 36 36
41z m-194 -227 c20 0 35 -5 35 -12 0 -6 -10 -22 -22 -35 -15 -16 -33 -23 -60
-23 -21 0 -38 4 -38 9 0 4 11 20 25 35 17 19 34 26 60 26z"/>
</g>
</svg>
