<?xml version="1.0" standalone="no"?>
<!DOCTYPE svg PUBLIC "-//W3C//DTD SVG 20010904//EN"
 "http://www.w3.org/TR/2001/REC-SVG-20010904/DTD/svg10.dtd">
<svg version="1.0" xmlns="http://www.w3.org/2000/svg"
 width="56.000000pt" height="56.000000pt" viewBox="0 0 56.000000 56.000000"
 preserveAspectRatio="xMidYMid meet">
<metadata>
Created by potrace 1.16, written by Peter Selinger 2001-2019
</metadata>
<g transform="translate(0.000000,56.000000) scale(0.100000,-0.100000)"
fill="#000000" stroke="none">
<path d="M330 540 c-11 0 -27 -11 -35 -24 -9 -13 -20 -38 -25 -56 -5 -17 -6
-46 -3 -63 4 -18 19 -52 35 -76 15 -25 28 -52 28 -61 0 -10 -29 -25 -93 -47
-51 -18 -124 -49 -162 -70 -49 -27 -71 -45 -73 -60 -3 -20 -1 -21 28 -13 16 5
44 16 62 24 17 9 45 16 63 16 17 0 35 3 39 7 3 4 -3 12 -15 18 -19 11 -16 14
39 33 32 12 69 22 80 22 14 0 20 -5 16 -14 -3 -7 -23 -16 -46 -19 -22 -3 -45
-10 -50 -15 -6 -6 -7 -15 -4 -21 4 -6 27 -11 51 -11 35 0 47 5 67 29 12 15 28
36 33 45 6 10 16 15 25 11 8 -3 32 -32 52 -63 20 -31 42 -69 49 -85 9 -20 19
-27 41 -27 24 0 28 4 28 29 0 16 -7 34 -15 41 -8 7 -15 18 -15 25 0 8 -11 22
-23 32 -13 10 -29 28 -36 41 -6 12 -32 31 -56 42 -33 15 -46 28 -51 48 -3 15
-18 53 -34 84 -25 51 -27 61 -17 90 7 18 20 42 29 52 10 10 15 23 12 28 -3 4
-14 8 -24 8z"/>
</g>
</svg>
