<?xml version="1.0" standalone="no"?>
<!DOCTYPE svg PUBLIC "-//W3C//DTD SVG 20010904//EN"
 "http://www.w3.org/TR/2001/REC-SVG-20010904/DTD/svg10.dtd">
<svg version="1.0" xmlns="http://www.w3.org/2000/svg"
 width="56.000000pt" height="56.000000pt" viewBox="0 0 56.000000 56.000000"
 preserveAspectRatio="xMidYMid meet">
<metadata>
Created by potrace 1.16, written by Peter Selinger 2001-2019
</metadata>
<g transform="translate(0.000000,56.000000) scale(0.100000,-0.100000)"
fill="#000000" stroke="none">
<path d="M293 458 c-17 2 -21 -4 -27 -37 -3 -22 -1 -62 4 -87 6 -26 7 -50 3
-54 -4 -4 -47 -21 -94 -39 -47 -18 -92 -32 -100 -31 -8 1 -20 2 -27 1 -6 0
-21 -10 -32 -21 -12 -12 -18 -25 -15 -30 4 -6 20 -10 36 -10 17 0 42 6 57 14
21 10 42 11 99 3 61 -9 75 -8 97 6 15 10 30 33 36 56 11 40 11 40 46 19 19
-11 50 -39 69 -62 19 -22 46 -54 60 -71 24 -30 25 -30 31 -7 3 12 10 22 15 22
5 0 9 7 9 15 0 8 -4 15 -10 15 -5 0 -10 5 -10 11 0 6 -10 25 -22 41 -11 17
-41 43 -66 59 -30 19 -59 29 -83 29 -21 0 -41 5 -44 10 -4 6 -8 41 -10 78 -2
58 -5 67 -22 70z m-32 -218 c10 0 19 -4 19 -8 0 -5 -11 -14 -25 -20 -14 -7
-34 -12 -43 -12 -14 1 -13 4 7 20 13 11 32 20 42 20z"/>
</g>
</svg>
