<?xml version="1.0" standalone="no"?>
<!DOCTYPE svg PUBLIC "-//W3C//DTD SVG 20010904//EN"
 "http://www.w3.org/TR/2001/REC-SVG-20010904/DTD/svg10.dtd">
<svg version="1.0" xmlns="http://www.w3.org/2000/svg"
 width="56.000000pt" height="56.000000pt" viewBox="0 0 56.000000 56.000000"
 preserveAspectRatio="xMidYMid meet">
<metadata>
Created by potrace 1.16, written by Peter Selinger 2001-2019
</metadata>
<g transform="translate(0.000000,56.000000) scale(0.100000,-0.100000)"
fill="#000000" stroke="none">
<path d="M273 560 c-7 0 -16 -12 -19 -27 -4 -15 -1 -40 6 -57 7 -17 13 -43 13
-58 0 -15 -7 -42 -16 -61 -12 -24 -14 -42 -8 -64 5 -17 14 -40 21 -53 6 -12 9
-33 5 -47 -4 -16 -18 -30 -41 -39 -20 -8 -38 -24 -41 -35 -3 -10 -14 -19 -24
-19 -10 0 -33 -9 -53 -20 -22 -14 -37 -17 -41 -10 -3 5 -14 10 -24 10 -10 0
-24 -7 -31 -15 -7 -8 -10 -25 -6 -40 5 -21 12 -25 41 -25 18 0 37 5 40 10 4 6
25 20 47 31 31 16 59 21 114 21 45 -1 77 4 83 12 5 6 11 34 12 61 1 28 7 53
13 57 6 4 25 8 43 8 22 0 38 -8 52 -26 12 -15 21 -32 21 -39 0 -8 -21 -32 -46
-54 -26 -23 -53 -41 -60 -41 -8 0 -14 -9 -14 -20 0 -15 7 -20 29 -20 20 0 45
13 78 41 26 23 58 53 71 66 12 13 22 28 22 34 0 5 -4 9 -9 9 -5 0 -13 10 -17
23 -4 12 -18 37 -32 55 -16 20 -33 32 -49 32 -13 0 -38 -7 -54 -16 -17 -8 -36
-13 -43 -11 -7 3 -18 24 -26 47 -11 33 -11 45 -2 58 7 10 19 31 28 49 16 30
16 33 -6 70 -13 21 -32 53 -44 70 -12 18 -27 33 -33 33z m33 -400 c1 0 6 -5 9
-10 4 -6 -7 -15 -24 -21 -17 -6 -31 -15 -31 -20 0 -5 -6 -9 -12 -9 -7 0 2 14
21 30 18 17 35 30 37 30z"/>
<path d="M415 560 c-14 0 -25 -4 -25 -10 0 -5 11 -10 25 -10 14 0 25 5 25 10
0 6 -11 10 -25 10z"/>
</g>
</svg>
