<?xml version="1.0" standalone="no"?>
<!DOCTYPE svg PUBLIC "-//W3C//DTD SVG 20010904//EN"
 "http://www.w3.org/TR/2001/REC-SVG-20010904/DTD/svg10.dtd">
<svg version="1.0" xmlns="http://www.w3.org/2000/svg"
 width="56.000000pt" height="56.000000pt" viewBox="0 0 56.000000 56.000000"
 preserveAspectRatio="xMidYMid meet">
<metadata>
Created by potrace 1.16, written by Peter Selinger 2001-2019
</metadata>
<g transform="translate(0.000000,56.000000) scale(0.100000,-0.100000)"
fill="#000000" stroke="none">
<path d="M259 540 c-28 0 -29 -2 -29 -43 0 -24 7 -58 16 -75 8 -18 19 -32 23
-32 4 0 13 -11 19 -25 7 -14 12 -34 12 -44 0 -10 -10 -27 -22 -38 -13 -12 -50
-35 -82 -52 -32 -17 -65 -31 -73 -31 -8 0 -39 -23 -69 -51 -40 -38 -54 -59
-54 -79 0 -16 7 -30 16 -34 9 -3 27 -6 41 -6 15 0 39 14 61 36 20 20 47 43 59
51 12 8 28 11 34 7 7 -4 30 -6 51 -6 21 1 56 11 78 22 27 14 42 29 46 48 3 15
7 33 10 40 3 10 9 10 24 2 11 -6 20 -15 20 -20 0 -5 8 -17 19 -27 10 -10 21
-35 25 -55 4 -23 14 -39 25 -43 10 -3 26 -3 35 1 9 3 16 12 16 20 0 8 -6 14
-12 14 -9 0 -9 3 1 9 12 8 10 19 -13 66 -16 35 -35 59 -47 62 -11 3 -43 17
-72 32 -37 18 -53 33 -57 51 -3 14 -17 48 -32 76 -14 27 -29 67 -33 87 -6 33
-11 37 -36 37z"/>
<path d="M232 370 c-5 0 -17 -6 -28 -14 -15 -11 -16 -17 -7 -27 6 -6 19 -9 27
-6 9 4 16 16 16 27 0 11 -4 20 -8 20z"/>
<path d="M55 360 c-14 0 -25 -5 -25 -11 0 -6 6 -17 14 -25 8 -8 19 -14 25 -14
6 0 11 11 11 25 0 20 -5 25 -25 25z"/>
<path d="M155 310 c-9 0 -18 -7 -22 -15 -3 -9 -3 -18 0 -22 4 -3 13 -3 22 0 8
4 15 13 15 22 0 8 -7 15 -15 15z"/>
</g>
</svg>
