<?xml version="1.0" standalone="no"?>
<!DOCTYPE svg PUBLIC "-//W3C//DTD SVG 20010904//EN"
 "http://www.w3.org/TR/2001/REC-SVG-20010904/DTD/svg10.dtd">
<svg version="1.0" xmlns="http://www.w3.org/2000/svg"
 width="56.000000pt" height="56.000000pt" viewBox="0 0 56.000000 56.000000"
 preserveAspectRatio="xMidYMid meet">
<metadata>
Created by potrace 1.16, written by Peter Selinger 2001-2019
</metadata>
<g transform="translate(0.000000,56.000000) scale(0.100000,-0.100000)"
fill="#000000" stroke="none">
<path d="M370 520 c-23 0 -33 -7 -45 -30 -8 -16 -15 -55 -15 -89 0 -53 -3 -60
-22 -67 -12 -3 -46 -29 -75 -57 -29 -28 -62 -65 -73 -82 -13 -21 -33 -36 -60
-44 -23 -7 -50 -21 -61 -32 -10 -10 -19 -30 -19 -44 0 -21 5 -25 28 -25 16 0
44 13 67 32 22 18 43 38 48 45 4 6 21 19 39 27 17 9 39 16 50 16 10 0 37 12
61 27 23 15 48 34 55 42 6 8 12 25 12 38 0 13 6 26 14 29 8 3 26 -2 39 -11 14
-9 37 -33 51 -54 16 -23 26 -51 26 -73 0 -20 4 -39 9 -42 5 -4 21 -2 35 4 16
6 26 17 26 30 0 11 -4 20 -9 20 -4 0 -16 26 -25 58 -13 45 -23 62 -51 80 -19
12 -41 22 -49 22 -8 0 -27 5 -41 12 -21 9 -25 18 -25 51 0 27 8 48 25 69 14
16 23 34 19 39 -3 5 -18 9 -34 9z m-75 -220 c8 0 16 -4 19 -9 3 -4 -5 -17 -17
-29 -12 -11 -34 -25 -49 -31 -22 -8 -28 -8 -28 3 0 8 14 26 31 40 17 14 37 26
44 26z"/>
<path d="M310 130 c-11 0 -20 -4 -20 -9 0 -4 8 -19 18 -32 10 -13 22 -32 25
-42 5 -13 15 -17 34 -15 23 2 29 8 31 36 3 29 -1 34 -32 47 -19 8 -45 15 -56
15z"/>
</g>
</svg>
