<?xml version="1.0" standalone="no"?>
<!DOCTYPE svg PUBLIC "-//W3C//DTD SVG 20010904//EN"
 "http://www.w3.org/TR/2001/REC-SVG-20010904/DTD/svg10.dtd">
<svg version="1.0" xmlns="http://www.w3.org/2000/svg"
 width="56.000000pt" height="56.000000pt" viewBox="0 0 56.000000 56.000000"
 preserveAspectRatio="xMidYMid meet">
<metadata>
Created by potrace 1.16, written by Peter Selinger 2001-2019
</metadata>
<g transform="translate(0.000000,56.000000) scale(0.100000,-0.100000)"
fill="#000000" stroke="none">
<path d="M353 560 c-16 -1 -35 -8 -43 -18 -8 -9 -20 -27 -27 -39 -9 -18 -9
-29 3 -53 9 -16 19 -32 24 -35 4 -3 6 -14 3 -26 -3 -11 -17 -32 -30 -45 -13
-13 -28 -24 -33 -24 -4 0 -25 -19 -44 -42 -20 -23 -36 -50 -36 -59 0 -10 -6
-22 -14 -26 -8 -4 -42 -32 -75 -61 -34 -30 -61 -60 -61 -68 0 -7 10 -18 21
-25 17 -8 27 -8 47 2 14 8 35 30 47 49 18 29 35 39 94 58 40 13 87 37 106 53
27 24 33 36 31 67 -1 20 -5 43 -9 50 -5 7 -3 12 5 12 7 0 19 -4 26 -9 7 -4 14
-19 15 -32 1 -13 14 -45 30 -71 15 -26 27 -51 27 -56 0 -6 -13 -21 -29 -34
-16 -12 -59 -45 -95 -72 -36 -27 -66 -51 -66 -53 0 -3 17 -2 37 2 21 4 49 15
64 26 15 10 31 19 36 19 4 0 20 11 35 25 14 13 38 27 52 31 14 3 30 12 37 20
6 8 8 25 5 40 -4 14 -18 43 -31 64 -15 23 -21 42 -15 45 6 4 8 11 5 16 -4 5
-17 9 -30 9 -13 0 -33 12 -47 29 -14 16 -34 32 -46 35 -16 5 -23 19 -28 54 -4
26 -7 56 -5 67 2 11 11 29 22 41 10 11 19 23 19 27 0 4 -12 7 -27 7z m-40
-250 c4 0 7 -6 7 -14 0 -8 -13 -28 -29 -45 -16 -17 -36 -31 -46 -31 -10 0 -14
5 -9 13 4 6 21 26 38 44 17 18 34 33 39 33z"/>
</g>
</svg>
