<?xml version="1.0" standalone="no"?>
<!DOCTYPE svg PUBLIC "-//W3C//DTD SVG 20010904//EN"
 "http://www.w3.org/TR/2001/REC-SVG-20010904/DTD/svg10.dtd">
<svg version="1.0" xmlns="http://www.w3.org/2000/svg"
 width="56.000000pt" height="56.000000pt" viewBox="0 0 56.000000 56.000000"
 preserveAspectRatio="xMidYMid meet">
<metadata>
Created by potrace 1.16, written by Peter Selinger 2001-2019
</metadata>
<g transform="translate(0.000000,56.000000) scale(0.100000,-0.100000)"
fill="#000000" stroke="none">
<path d="M286 560 c-273 0 -273 0 -280 -66 -4 -37 -5 -68 -3 -71 2 -2 24 12
48 31 24 19 58 47 76 61 26 22 38 25 67 19 20 -3 36 -10 36 -15 0 -6 -7 -21
-16 -34 -9 -13 -17 -51 -18 -87 -2 -35 -7 -75 -11 -90 -4 -16 -4 -40 -1 -54 5
-19 20 -31 56 -46 27 -11 51 -27 55 -36 4 -10 -1 -23 -13 -32 -11 -8 -28 -20
-38 -26 -17 -10 -15 -13 21 -28 39 -17 39 -17 10 -41 -17 -13 -33 -24 -37 -25
-5 0 -8 -4 -8 -10 0 -5 7 -10 15 -10 9 0 46 19 83 42 37 23 72 48 77 54 6 7
27 17 47 24 21 6 53 25 72 42 32 29 33 31 19 59 -8 16 -24 36 -36 44 -12 8
-40 15 -62 14 -22 0 -49 -4 -59 -8 -16 -6 -10 -10 28 -21 26 -7 50 -19 53 -27
3 -7 2 -24 -1 -37 -3 -14 -20 -30 -41 -40 -19 -10 -40 -14 -45 -11 -6 3 -10
12 -10 19 0 7 -9 25 -21 40 -11 15 -18 33 -15 41 4 11 -2 15 -20 15 -14 0 -38
7 -54 15 -17 9 -30 22 -30 30 0 7 5 17 12 21 6 4 25 10 42 13 21 5 32 13 34
27 2 13 -10 31 -38 52 -22 18 -40 39 -40 46 0 7 7 27 15 44 16 30 16 30 113
27 53 -2 104 -4 113 -5 9 0 26 -9 39 -20 13 -11 27 -20 32 -20 4 0 8 18 8 40
0 40 0 40 -274 40z"/>
<path d="M188 169 c-2 0 -10 -3 -18 -6 -8 -3 -23 -14 -34 -25 -11 -10 -27 -18
-36 -18 -9 0 -31 -7 -49 -16 -17 -8 -36 -25 -42 -36 -7 -14 -8 -23 -1 -30 8
-8 32 -2 77 18 37 15 69 35 72 43 2 9 11 28 19 44 8 15 14 27 12 26z"/>
</g>
</svg>
