<?xml version="1.0" standalone="no"?>
<!DOCTYPE svg PUBLIC "-//W3C//DTD SVG 20010904//EN"
 "http://www.w3.org/TR/2001/REC-SVG-20010904/DTD/svg10.dtd">
<svg version="1.0" xmlns="http://www.w3.org/2000/svg"
 width="56.000000pt" height="56.000000pt" viewBox="0 0 56.000000 56.000000"
 preserveAspectRatio="xMidYMid meet">
<metadata>
Created by potrace 1.16, written by Peter Selinger 2001-2019
</metadata>
<g transform="translate(0.000000,56.000000) scale(0.100000,-0.100000)"
fill="#000000" stroke="none">
<path d="M396 560 c-26 0 -38 -6 -48 -24 -7 -13 -23 -41 -34 -62 -12 -22 -29
-61 -38 -87 -13 -40 -14 -60 -6 -114 8 -45 8 -69 0 -78 -6 -7 -8 -20 -4 -29 4
-10 -5 -27 -25 -47 -18 -17 -35 -29 -38 -25 -4 3 8 21 26 40 20 20 29 36 22
40 -6 4 -24 0 -40 -8 -16 -9 -38 -26 -48 -39 -10 -13 -37 -36 -60 -50 -28 -18
-44 -23 -49 -16 -5 8 -9 8 -14 -1 -4 -6 -5 -22 -2 -36 3 -19 10 -24 36 -24 23
0 41 9 60 29 18 19 38 29 55 29 14 -1 41 7 59 16 18 9 47 37 64 61 32 45 32
45 62 27 16 -10 42 -38 56 -62 16 -27 35 -46 47 -48 13 -2 26 4 31 15 7 13 5
29 -9 58 -11 22 -30 48 -42 57 -12 10 -40 18 -63 18 -24 0 -47 6 -54 15 -7 8
-15 44 -17 79 -5 57 -2 70 27 127 17 35 43 76 56 92 13 16 24 33 24 38 0 5
-16 9 -34 9z"/>
<path d="M300 29 c-8 0 -26 -5 -40 -12 -23 -11 -22 -12 24 -15 26 -2 51 0 54
3 4 3 0 10 -8 15 -8 6 -22 9 -30 9z"/>
</g>
</svg>
