<?xml version="1.0" standalone="no"?>
<!DOCTYPE svg PUBLIC "-//W3C//DTD SVG 20010904//EN"
 "http://www.w3.org/TR/2001/REC-SVG-20010904/DTD/svg10.dtd">
<svg version="1.0" xmlns="http://www.w3.org/2000/svg"
 width="56.000000pt" height="56.000000pt" viewBox="0 0 56.000000 56.000000"
 preserveAspectRatio="xMidYMid meet">
<metadata>
Created by potrace 1.16, written by Peter Selinger 2001-2019
</metadata>
<g transform="translate(0.000000,56.000000) scale(0.100000,-0.100000)"
fill="#000000" stroke="none">
<path d="M390 510 c-21 0 -36 -9 -54 -33 -18 -23 -26 -47 -26 -72 0 -22 7 -46
16 -57 14 -14 14 -20 4 -33 -7 -8 -27 -22 -44 -30 -17 -8 -55 -35 -85 -59 -30
-24 -68 -47 -86 -50 -18 -4 -38 -13 -45 -21 -10 -12 -9 -16 4 -21 15 -6 14 -8
-4 -21 -16 -11 -25 -12 -33 -4 -6 6 -17 11 -24 11 -7 0 -13 -8 -13 -17 0 -9 9
-27 21 -39 18 -19 25 -21 50 -12 16 5 38 23 50 39 11 16 27 29 34 29 8 0 17 9
20 21 5 16 12 19 31 15 15 -4 33 -1 45 8 11 7 28 12 39 9 10 -3 21 0 24 6 4 6
22 11 40 11 19 0 39 6 45 13 6 8 14 28 17 45 4 18 12 32 18 32 6 0 17 -10 25
-21 7 -12 19 -43 27 -69 8 -27 21 -51 30 -54 11 -4 18 1 21 14 3 11 9 20 14
20 5 0 9 12 9 27 0 20 -14 41 -51 75 -27 27 -63 51 -79 55 -16 3 -37 14 -46
24 -12 13 -15 28 -10 51 3 18 18 44 32 59 15 15 23 32 20 38 -4 6 -20 11 -36
11z m-62 -240 c6 0 12 -4 12 -8 0 -5 -8 -16 -19 -26 -16 -14 -20 -15 -30 -2
-10 11 -8 17 6 25 10 6 24 11 31 11z"/>
<path d="M344 84 c-22 5 -35 2 -43 -8 -7 -8 -10 -20 -6 -26 3 -5 24 -10 45
-10 21 0 41 4 44 8 2 4 2 13 -2 19 -4 6 -21 14 -38 17z"/>
</g>
</svg>
