<?xml version="1.0" standalone="no"?>
<!DOCTYPE svg PUBLIC "-//W3C//DTD SVG 20010904//EN"
 "http://www.w3.org/TR/2001/REC-SVG-20010904/DTD/svg10.dtd">
<svg version="1.0" xmlns="http://www.w3.org/2000/svg"
 width="56.000000pt" height="56.000000pt" viewBox="0 0 56.000000 56.000000"
 preserveAspectRatio="xMidYMid meet">
<metadata>
Created by potrace 1.16, written by Peter Selinger 2001-2019
</metadata>
<g transform="translate(0.000000,56.000000) scale(0.100000,-0.100000)"
fill="#000000" stroke="none">
<path d="M372 478 c-20 3 -22 -1 -22 -42 0 -24 5 -67 12 -95 11 -47 10 -53
-11 -75 -12 -12 -39 -28 -60 -35 -21 -6 -52 -11 -70 -11 -17 0 -31 -4 -31 -10
0 -5 -13 -10 -29 -10 -17 0 -33 -4 -36 -10 -3 -6 -15 -10 -26 -10 -10 0 -29
-6 -42 -12 -12 -7 -30 -19 -39 -27 -10 -8 -18 -25 -18 -38 0 -12 3 -23 8 -23
4 0 30 12 57 26 28 15 63 33 79 41 15 9 58 17 95 20 36 2 77 10 91 16 14 6 38
20 54 31 17 11 43 19 60 18 16 -2 36 -8 43 -14 12 -10 12 -13 -1 -20 -9 -5
-16 -13 -16 -19 0 -5 11 -14 25 -19 18 -7 32 -6 45 3 11 6 20 21 20 33 0 13
-13 27 -37 41 -21 11 -52 24 -69 27 -29 7 -32 10 -33 54 -1 26 -7 72 -15 102
-10 44 -17 56 -34 58z"/>
</g>
</svg>
