<?xml version="1.0" standalone="no"?>
<!DOCTYPE svg PUBLIC "-//W3C//DTD SVG 20010904//EN"
 "http://www.w3.org/TR/2001/REC-SVG-20010904/DTD/svg10.dtd">
<svg version="1.0" xmlns="http://www.w3.org/2000/svg"
 width="56.000000pt" height="56.000000pt" viewBox="0 0 56.000000 56.000000"
 preserveAspectRatio="xMidYMid meet">
<metadata>
Created by potrace 1.16, written by Peter Selinger 2001-2019
</metadata>
<g transform="translate(0.000000,56.000000) scale(0.100000,-0.100000)"
fill="#000000" stroke="none">
<path d="M418 560 c-19 0 -28 -13 -55 -83 -18 -45 -35 -96 -39 -113 -4 -22 3
-56 21 -109 14 -42 24 -83 22 -89 -3 -7 -27 -18 -53 -25 -27 -6 -65 -16 -84
-20 -19 -4 -61 -20 -93 -35 -32 -14 -70 -25 -84 -24 -15 2 -30 -4 -36 -13 -5
-9 -7 -24 -4 -33 4 -9 16 -16 27 -16 11 0 38 9 59 20 21 10 67 24 102 31 35 6
83 12 105 14 25 2 57 13 80 29 21 14 47 26 57 26 10 0 20 -7 23 -15 4 -8 1
-21 -5 -29 -6 -7 -8 -16 -4 -19 3 -4 20 -7 37 -7 20 0 38 8 49 21 18 20 17 21
-7 44 -15 13 -42 27 -61 31 -19 3 -38 11 -43 18 -5 6 -12 22 -15 36 -3 14 -14
51 -26 82 -14 38 -19 68 -14 90 3 18 19 62 34 97 16 35 29 70 29 77 0 8 -10
14 -22 14z"/>
</g>
</svg>
