<?xml version="1.0" standalone="no"?>
<!DOCTYPE svg PUBLIC "-//W3C//DTD SVG 20010904//EN"
 "http://www.w3.org/TR/2001/REC-SVG-20010904/DTD/svg10.dtd">
<svg version="1.0" xmlns="http://www.w3.org/2000/svg"
 width="56.000000pt" height="56.000000pt" viewBox="0 0 56.000000 56.000000"
 preserveAspectRatio="xMidYMid meet">
<metadata>
Created by potrace 1.16, written by Peter Selinger 2001-2019
</metadata>
<g transform="translate(0.000000,56.000000) scale(0.100000,-0.100000)"
fill="#000000" stroke="none">
<path d="M338 469 c-13 0 -29 -3 -35 -6 -8 -3 -11 -14 -8 -26 5 -18 -9 -33
-76 -86 -44 -36 -99 -88 -121 -118 -22 -29 -47 -53 -54 -53 -8 0 -14 5 -14 11
0 8 -5 8 -15 -1 -8 -7 -15 -26 -15 -42 0 -16 6 -36 14 -44 8 -8 21 -14 30 -14
8 0 24 12 35 26 12 15 21 33 21 40 0 7 9 16 20 19 11 3 25 15 31 26 6 12 16
18 23 16 7 -3 46 2 87 10 41 9 79 23 86 32 7 9 12 36 11 61 -3 40 0 45 19 48
16 2 33 -8 58 -35 19 -21 35 -46 35 -56 0 -9 9 -36 19 -60 10 -23 21 -50 24
-59 4 -11 13 -15 26 -11 18 4 21 13 21 54 0 27 -4 49 -9 49 -5 0 -17 20 -27
45 -9 26 -36 62 -60 85 -24 22 -58 43 -74 47 -21 4 -30 11 -30 24 0 13 -7 19
-22 18z m-20 -117 c6 -2 12 -19 12 -37 0 -28 -4 -34 -27 -38 -16 -3 -41 -9
-56 -13 -28 -7 -28 -7 3 39 17 25 36 47 43 50 6 2 18 2 25 -1z"/>
<path d="M480 110 c-13 0 -20 -5 -17 -12 2 -7 10 -13 17 -13 7 0 15 6 18 13 2
7 -5 12 -18 12z"/>
</g>
</svg>
