<?xml version="1.0" standalone="no"?>
<!DOCTYPE svg PUBLIC "-//W3C//DTD SVG 20010904//EN"
 "http://www.w3.org/TR/2001/REC-SVG-20010904/DTD/svg10.dtd">
<svg version="1.0" xmlns="http://www.w3.org/2000/svg"
 width="56.000000pt" height="56.000000pt" viewBox="0 0 56.000000 56.000000"
 preserveAspectRatio="xMidYMid meet">
<metadata>
Created by potrace 1.16, written by Peter Selinger 2001-2019
</metadata>
<g transform="translate(0.000000,56.000000) scale(0.100000,-0.100000)"
fill="#000000" stroke="none">
<path d="M356 560 c-17 0 -26 -7 -30 -23 -3 -13 -1 -59 4 -103 6 -43 14 -99
19 -123 5 -25 7 -49 5 -55 -3 -6 -27 -22 -54 -35 -27 -13 -75 -44 -107 -68
-32 -24 -86 -58 -121 -75 -51 -25 -62 -35 -60 -52 2 -15 11 -22 34 -24 22 -2
41 6 70 29 21 17 50 36 64 41 14 6 41 14 60 19 19 4 62 14 94 21 51 11 61 17
77 48 11 19 19 49 19 67 0 17 4 34 9 37 5 3 20 -4 35 -15 14 -11 26 -29 26
-39 0 -11 -11 -43 -24 -72 -13 -29 -40 -69 -59 -88 -20 -19 -37 -38 -37 -42 0
-5 12 -8 26 -8 14 0 34 10 45 23 10 12 35 47 54 78 19 31 35 64 35 73 0 9 5
16 10 16 6 0 10 12 10 28 -1 17 -9 33 -24 44 -13 9 -42 19 -66 21 -23 2 -46
10 -51 18 -5 8 -21 52 -36 98 -22 71 -24 88 -15 115 7 18 12 35 12 39 0 4 -11
7 -24 7z m17 -330 c4 0 7 -8 7 -17 -1 -10 -11 -30 -23 -44 -14 -18 -36 -29
-64 -34 -24 -4 -43 -3 -43 2 0 4 26 27 58 50 31 24 60 43 65 43z"/>
</g>
</svg>
