<?xml version="1.0" standalone="no"?>
<!DOCTYPE svg PUBLIC "-//W3C//DTD SVG 20010904//EN"
 "http://www.w3.org/TR/2001/REC-SVG-20010904/DTD/svg10.dtd">
<svg version="1.0" xmlns="http://www.w3.org/2000/svg"
 width="56.000000pt" height="56.000000pt" viewBox="0 0 56.000000 56.000000"
 preserveAspectRatio="xMidYMid meet">
<metadata>
Created by potrace 1.16, written by Peter Selinger 2001-2019
</metadata>
<g transform="translate(0.000000,56.000000) scale(0.100000,-0.100000)"
fill="#000000" stroke="none">
<path d="M235 560 c-20 0 -25 -5 -25 -24 0 -14 -4 -28 -10 -31 -5 -3 -10 -13
-10 -21 0 -8 7 -14 15 -14 8 0 15 6 15 13 0 7 9 23 20 35 11 12 20 26 20 32 0
5 -11 10 -25 10z"/>
<path d="M184 420 c-8 0 -14 -4 -14 -9 0 -5 7 -25 15 -45 8 -19 31 -50 49 -67
20 -18 32 -37 29 -45 -3 -8 -13 -14 -23 -14 -11 0 -22 -10 -26 -22 -4 -13 -23
-37 -43 -55 -20 -18 -45 -32 -57 -33 -11 0 -26 -6 -32 -12 -7 -7 -20 -13 -29
-13 -8 0 -22 -10 -30 -21 -12 -19 -11 -25 13 -53 17 -21 34 -31 48 -29 14 2
28 19 43 50 15 31 30 49 45 52 13 3 41 6 63 7 22 2 52 2 68 1 20 -2 27 -7 27
-23 0 -17 5 -20 33 -17 28 3 33 7 38 38 3 20 -1 50 -8 70 -8 19 -21 42 -29 52
-9 9 -13 21 -10 27 4 5 21 8 39 7 18 -2 41 -7 52 -11 11 -4 30 -12 42 -17 12
-6 29 -8 37 -5 9 4 16 13 16 21 0 8 -11 24 -25 35 -14 11 -39 22 -54 26 -16 3
-57 -1 -91 -10 -54 -14 -64 -14 -79 -2 -9 8 -26 23 -39 33 -13 10 -30 34 -39
52 -8 17 -22 32 -29 32z m114 -202 c6 -6 12 -16 12 -23 0 -8 -12 -23 -26 -34
-15 -12 -37 -21 -50 -21 -17 0 -24 6 -24 19 0 10 17 29 38 43 26 18 41 23 50
16z"/>
</g>
</svg>
