<?xml version="1.0" standalone="no"?>
<!DOCTYPE svg PUBLIC "-//W3C//DTD SVG 20010904//EN"
 "http://www.w3.org/TR/2001/REC-SVG-20010904/DTD/svg10.dtd">
<svg version="1.0" xmlns="http://www.w3.org/2000/svg"
 width="56.000000pt" height="56.000000pt" viewBox="0 0 56.000000 56.000000"
 preserveAspectRatio="xMidYMid meet">
<metadata>
Created by potrace 1.16, written by Peter Selinger 2001-2019
</metadata>
<g transform="translate(0.000000,56.000000) scale(0.100000,-0.100000)"
fill="#000000" stroke="none">
<path d="M326 460 c-13 0 -31 -9 -41 -20 -15 -17 -17 -31 -12 -94 7 -75 7 -75
-25 -90 -17 -9 -38 -16 -47 -16 -9 0 -29 -8 -46 -18 -16 -10 -43 -22 -60 -26
-16 -4 -40 -17 -52 -28 -13 -12 -23 -27 -23 -34 0 -7 5 -16 10 -19 6 -4 34 1
62 11 39 12 69 15 124 11 72 -7 73 -6 99 24 14 17 32 44 41 60 8 17 23 29 33
29 11 0 40 -24 65 -52 39 -44 49 -51 64 -42 9 6 18 19 20 28 2 9 -12 32 -31
51 -18 18 -47 37 -63 40 -16 4 -46 11 -66 16 -38 10 -38 10 -38 74 0 35 5 67
10 70 6 4 8 11 5 16 -4 5 -16 9 -29 9z m-48 -231 c8 1 12 -7 10 -16 -2 -13
-14 -19 -41 -21 -20 -2 -37 1 -37 7 0 5 12 14 28 19 15 6 33 11 40 11z"/>
</g>
</svg>
