<?xml version="1.0" standalone="no"?>
<!DOCTYPE svg PUBLIC "-//W3C//DTD SVG 20010904//EN"
 "http://www.w3.org/TR/2001/REC-SVG-20010904/DTD/svg10.dtd">
<svg version="1.0" xmlns="http://www.w3.org/2000/svg"
 width="56.000000pt" height="56.000000pt" viewBox="0 0 56.000000 56.000000"
 preserveAspectRatio="xMidYMid meet">
<metadata>
Created by potrace 1.16, written by Peter Selinger 2001-2019
</metadata>
<g transform="translate(0.000000,56.000000) scale(0.100000,-0.100000)"
fill="#000000" stroke="none">
<path d="M315 520 c-26 0 -27 -1 -22 -57 2 -32 9 -75 14 -95 10 -33 8 -39 -16
-62 -15 -14 -32 -26 -38 -26 -6 0 -51 -35 -100 -78 -48 -43 -103 -88 -120
-100 -22 -16 -33 -32 -33 -48 0 -18 5 -24 23 -24 13 0 37 15 56 34 18 19 45
37 59 41 14 3 44 15 66 26 22 10 46 19 54 19 7 0 38 24 68 54 37 37 54 63 54
80 0 14 8 29 17 34 11 7 26 6 42 -1 14 -7 32 -17 39 -24 7 -6 21 -32 32 -57
11 -26 26 -46 35 -46 11 0 15 11 15 39 0 31 -7 47 -35 75 -31 33 -41 37 -96
40 -44 3 -64 9 -74 22 -8 11 -17 36 -20 56 -4 21 -4 51 0 68 6 28 4 30 -20 30z
m-4 -246 c5 -3 -1 -19 -14 -36 -12 -16 -43 -41 -69 -54 -27 -13 -48 -21 -48
-17 0 5 6 15 13 23 7 9 34 32 61 53 27 20 52 34 57 31z"/>
</g>
</svg>
