<?xml version="1.0" standalone="no"?>
<!DOCTYPE svg PUBLIC "-//W3C//DTD SVG 20010904//EN"
 "http://www.w3.org/TR/2001/REC-SVG-20010904/DTD/svg10.dtd">
<svg version="1.0" xmlns="http://www.w3.org/2000/svg"
 width="56.000000pt" height="56.000000pt" viewBox="0 0 56.000000 56.000000"
 preserveAspectRatio="xMidYMid meet">
<metadata>
Created by potrace 1.16, written by Peter Selinger 2001-2019
</metadata>
<g transform="translate(0.000000,56.000000) scale(0.100000,-0.100000)"
fill="#000000" stroke="none">
<path d="M268 522 c-18 13 -29 15 -33 7 -4 -6 10 -29 31 -51 22 -22 47 -44 57
-49 13 -7 23 -7 33 2 8 6 14 18 14 25 0 8 -17 22 -37 31 -21 10 -50 25 -65 35z"/>
<path d="M261 350 c-6 0 -11 -3 -11 -8 0 -4 14 -24 31 -45 31 -37 31 -37 -16
-57 -26 -11 -50 -20 -53 -20 -4 0 -41 -16 -82 -36 -41 -21 -86 -40 -100 -44
-21 -5 -26 -13 -28 -48 -2 -30 1 -44 11 -48 9 -3 42 13 75 35 33 23 62 41 65
41 3 0 32 16 64 35 32 19 68 35 80 35 12 0 34 -5 48 -12 18 -8 31 -8 49 0 14
6 26 21 28 34 2 13 11 24 21 26 11 2 30 -6 43 -19 13 -12 24 -32 24 -43 0 -11
-9 -29 -20 -41 -11 -11 -32 -37 -45 -58 -14 -21 -25 -42 -25 -47 0 -6 5 -10
10 -10 6 0 31 21 56 47 24 26 47 58 50 70 4 13 10 23 15 23 5 0 9 15 9 33 0
28 -8 37 -56 71 -54 37 -58 38 -100 29 -42 -10 -47 -9 -89 23 -24 19 -49 34
-54 34z"/>
</g>
</svg>
