<?xml version="1.0" standalone="no"?>
<!DOCTYPE svg PUBLIC "-//W3C//DTD SVG 20010904//EN"
 "http://www.w3.org/TR/2001/REC-SVG-20010904/DTD/svg10.dtd">
<svg version="1.0" xmlns="http://www.w3.org/2000/svg"
 width="56.000000pt" height="56.000000pt" viewBox="0 0 56.000000 56.000000"
 preserveAspectRatio="xMidYMid meet">
<metadata>
Created by potrace 1.16, written by Peter Selinger 2001-2019
</metadata>
<g transform="translate(0.000000,56.000000) scale(0.100000,-0.100000)"
fill="#000000" stroke="none">
<path d="M200 560 c-11 0 -20 -4 -20 -9 0 -5 16 -22 37 -38 36 -30 36 -30 4
-77 -32 -46 -32 -48 -17 -80 9 -18 22 -39 31 -46 8 -7 15 -16 15 -20 0 -4 -12
-12 -27 -18 -16 -5 -62 -20 -103 -33 -41 -13 -85 -34 -97 -46 -13 -12 -23 -31
-23 -43 0 -15 6 -20 28 -20 16 0 69 22 118 50 49 27 97 50 106 50 10 0 30 -18
44 -40 15 -22 33 -40 41 -40 7 0 18 11 24 24 8 17 8 29 0 45 -7 12 -9 26 -5
32 4 7 29 10 65 7 32 -2 62 -7 65 -11 4 -4 -4 -24 -18 -44 -14 -21 -60 -74
-102 -118 -77 -80 -77 -80 -44 -83 29 -3 40 4 111 79 43 46 86 96 95 111 9 15
20 28 24 28 4 0 8 9 8 21 0 11 -6 27 -14 35 -8 8 -26 18 -41 24 -14 5 -66 10
-116 10 -88 0 -89 0 -129 36 -39 36 -40 38 -23 56 10 11 37 28 60 39 24 11 43
25 43 33 0 7 -8 20 -17 28 -10 9 -37 22 -60 29 -24 7 -43 16 -43 21 0 4 -9 8
-20 8z"/>
<path d="M485 560 c-51 0 -55 -2 -55 -23 0 -13 5 -28 12 -35 7 -7 19 -12 27
-12 8 0 28 12 43 27 15 15 28 30 28 35 0 4 -25 8 -55 8z"/>
</g>
</svg>
