<?xml version="1.0" standalone="no"?>
<!DOCTYPE svg PUBLIC "-//W3C//DTD SVG 20010904//EN"
 "http://www.w3.org/TR/2001/REC-SVG-20010904/DTD/svg10.dtd">
<svg version="1.0" xmlns="http://www.w3.org/2000/svg"
 width="56.000000pt" height="56.000000pt" viewBox="0 0 56.000000 56.000000"
 preserveAspectRatio="xMidYMid meet">
<metadata>
Created by potrace 1.16, written by Peter Selinger 2001-2019
</metadata>
<g transform="translate(0.000000,56.000000) scale(0.100000,-0.100000)"
fill="#000000" stroke="none">
<path d="M358 500 c-31 0 -46 -7 -70 -30 -26 -26 -29 -36 -25 -68 3 -20 7 -48
9 -62 3 -21 -5 -29 -53 -55 -31 -16 -75 -46 -98 -65 -23 -19 -56 -43 -73 -52
-17 -10 -35 -23 -40 -30 -4 -7 -8 -25 -8 -40 0 -14 6 -28 13 -31 6 -2 20 0 30
5 9 5 17 16 17 24 0 9 9 28 19 43 17 24 27 27 83 29 34 1 82 10 105 18 28 11
50 29 68 56 21 32 30 38 48 32 12 -3 33 -12 47 -19 14 -8 45 -34 70 -59 24
-25 48 -46 52 -46 4 0 8 17 8 39 0 23 -6 44 -16 52 -9 7 -26 19 -38 26 -11 7
-30 16 -41 21 -11 5 -42 15 -70 21 -27 7 -55 17 -62 23 -7 6 -13 29 -13 52 0
23 5 47 12 54 7 7 19 12 28 12 9 0 24 8 33 18 10 10 14 22 10 25 -3 4 -24 7
-45 7z m-80 -223 c7 -1 14 -6 15 -12 1 -5 -21 -22 -48 -37 -28 -15 -63 -28
-79 -28 -21 0 -27 3 -20 10 6 6 35 24 65 40 30 16 60 28 67 27z"/>
<path d="M243 120 c-4 0 -19 -6 -32 -13 -13 -6 -23 -16 -23 -22 1 -5 24 -13
51 -16 27 -4 54 -10 60 -13 6 -4 11 -1 11 8 0 8 -13 24 -29 35 -16 12 -33 21
-38 21z"/>
</g>
</svg>
