<?xml version="1.0" standalone="no"?>
<!DOCTYPE svg PUBLIC "-//W3C//DTD SVG 20010904//EN"
 "http://www.w3.org/TR/2001/REC-SVG-20010904/DTD/svg10.dtd">
<svg version="1.0" xmlns="http://www.w3.org/2000/svg"
 width="56.000000pt" height="56.000000pt" viewBox="0 0 56.000000 56.000000"
 preserveAspectRatio="xMidYMid meet">
<metadata>
Created by potrace 1.16, written by Peter Selinger 2001-2019
</metadata>
<g transform="translate(0.000000,56.000000) scale(0.100000,-0.100000)"
fill="#000000" stroke="none">
<path d="M339 460 c-10 0 -20 -4 -23 -9 -3 -4 3 -16 14 -26 11 -10 20 -23 20
-28 0 -6 -7 -18 -15 -27 -12 -13 -12 -23 -3 -53 6 -20 9 -40 6 -43 -3 -3 -39
-13 -79 -24 -41 -10 -87 -23 -104 -28 -16 -6 -51 -13 -76 -17 -40 -5 -48 -10
-62 -41 -10 -19 -15 -40 -12 -45 4 -5 17 -9 31 -9 13 0 43 9 67 19 23 11 59
24 80 30 20 6 52 16 70 21 18 6 60 10 93 10 33 0 65 5 72 12 7 7 12 18 12 25
0 8 -12 18 -27 24 -16 6 -23 13 -16 16 6 2 29 -1 51 -6 22 -6 45 -18 52 -27
11 -12 8 -22 -16 -57 -17 -23 -42 -48 -57 -55 -15 -7 -25 -17 -22 -23 4 -5 18
-9 33 -9 18 0 44 16 80 50 42 41 52 56 52 83 0 28 -6 37 -39 55 -25 14 -56 22
-88 22 -27 0 -54 5 -61 12 -7 7 -12 22 -12 35 0 13 10 29 24 38 13 9 27 22 30
30 3 9 -7 20 -26 30 -17 8 -39 15 -49 15z"/>
<path d="M544 440 c-10 0 -14 -7 -12 -22 2 -12 9 -23 16 -26 7 -2 12 6 12 22
0 17 -5 26 -16 26z"/>
</g>
</svg>
