<?xml version="1.0" standalone="no"?>
<!DOCTYPE svg PUBLIC "-//W3C//DTD SVG 20010904//EN"
 "http://www.w3.org/TR/2001/REC-SVG-20010904/DTD/svg10.dtd">
<svg version="1.0" xmlns="http://www.w3.org/2000/svg"
 width="56.000000pt" height="56.000000pt" viewBox="0 0 56.000000 56.000000"
 preserveAspectRatio="xMidYMid meet">
<metadata>
Created by potrace 1.16, written by Peter Selinger 2001-2019
</metadata>
<g transform="translate(0.000000,56.000000) scale(0.100000,-0.100000)"
fill="#000000" stroke="none">
<path d="M280 560 c-5 0 -10 -6 -10 -14 0 -7 7 -26 15 -42 8 -16 12 -39 8 -54
-3 -14 -14 -37 -24 -52 -11 -14 -19 -35 -19 -45 0 -11 13 -44 30 -74 16 -30
30 -59 30 -65 0 -6 -19 -16 -42 -23 -23 -7 -70 -26 -105 -42 -35 -16 -65 -29
-67 -29 -2 0 -3 6 -2 12 0 7 -1 15 -4 18 -3 3 -22 -5 -43 -18 -29 -17 -38 -28
-35 -44 2 -14 13 -26 29 -32 22 -7 34 -4 70 21 24 16 53 33 64 38 11 5 41 9
66 11 25 1 62 9 82 18 35 14 37 18 37 58 0 33 -7 52 -29 79 -17 20 -33 47 -36
61 -5 21 1 34 29 66 20 22 36 48 36 59 0 10 -16 36 -35 56 -19 20 -39 37 -45
37z"/>
<path d="M443 220 c-28 0 -54 -4 -57 -9 -3 -5 1 -12 10 -15 9 -3 27 -6 40 -6
14 0 24 -6 24 -14 0 -7 -30 -36 -67 -63 -38 -28 -79 -56 -93 -63 -13 -7 -31
-19 -38 -27 -8 -8 -12 -17 -8 -20 3 -3 16 -1 28 5 13 7 37 20 53 29 17 10 48
29 70 43 22 14 58 34 79 45 22 11 44 28 50 38 9 15 6 21 -14 37 -17 14 -41 20
-77 20z"/>
</g>
</svg>
