<?xml version="1.0" standalone="no"?>
<!DOCTYPE svg PUBLIC "-//W3C//DTD SVG 20010904//EN"
 "http://www.w3.org/TR/2001/REC-SVG-20010904/DTD/svg10.dtd">
<svg version="1.0" xmlns="http://www.w3.org/2000/svg"
 width="56.000000pt" height="56.000000pt" viewBox="0 0 56.000000 56.000000"
 preserveAspectRatio="xMidYMid meet">
<metadata>
Created by potrace 1.16, written by Peter Selinger 2001-2019
</metadata>
<g transform="translate(0.000000,56.000000) scale(0.100000,-0.100000)"
fill="#000000" stroke="none">
<path d="M71 560 c-17 0 -31 -6 -35 -16 -3 -9 -6 -24 -6 -35 0 -11 7 -22 15
-26 9 -3 25 3 35 12 11 10 20 29 20 42 0 19 -5 23 -29 23z"/>
<path d="M242 560 c-10 0 -25 -13 -35 -29 -12 -20 -14 -32 -7 -36 6 -4 17 -4
25 -1 8 3 15 12 15 21 0 8 5 15 10 15 6 0 10 7 10 15 0 8 -8 15 -18 15z"/>
<path d="M186 480 c-7 0 -17 -12 -20 -27 -4 -16 -12 -48 -17 -73 -6 -25 -13
-60 -16 -78 -3 -22 -21 -46 -54 -76 -27 -25 -54 -58 -60 -75 -6 -17 -8 -38 -5
-46 3 -8 14 -15 25 -15 11 0 34 16 53 35 20 22 41 35 53 33 13 -2 19 -10 18
-23 -1 -11 -3 -29 -5 -40 -2 -16 3 -21 28 -23 19 -2 38 3 47 12 9 9 20 16 26
16 6 0 11 -9 11 -20 0 -13 10 -24 27 -31 14 -5 40 -7 57 -3 17 3 45 14 63 24
32 19 32 19 60 -18 15 -20 31 -40 34 -45 4 -5 16 -6 28 -2 11 3 21 13 21 21 0
8 -4 20 -10 27 -5 7 -21 25 -35 41 -14 16 -25 36 -25 45 1 9 7 27 15 41 8 14
14 38 15 53 0 20 -13 40 -50 76 -32 31 -50 57 -50 72 0 13 -7 32 -14 42 -10
13 -24 17 -48 15 -21 -2 -33 -8 -33 -18 0 -8 9 -16 20 -18 13 -2 27 -18 38
-42 9 -22 17 -43 17 -48 0 -4 14 -19 31 -33 24 -20 33 -37 39 -73 5 -35 4 -49
-6 -53 -7 -2 -30 7 -51 21 -21 14 -44 26 -51 26 -10 0 -12 7 -7 22 4 13 9 35
12 49 3 15 -1 30 -11 38 -8 7 -23 11 -32 9 -10 -2 -19 -9 -22 -15 -2 -7 4 -13
13 -13 13 0 16 -6 11 -22 -3 -13 -6 -29 -6 -35 0 -7 -7 -13 -15 -13 -10 0 -15
10 -15 33 0 24 -3 28 -10 17 -5 -8 -10 -36 -10 -62 0 -35 -6 -54 -20 -68 -11
-11 -25 -20 -31 -20 -5 0 -7 6 -3 13 4 6 16 22 27 35 11 12 16 22 11 22 -5 0
-20 -7 -32 -16 -12 -8 -26 -13 -31 -10 -5 3 -7 18 -6 33 1 16 5 35 9 43 3 8
10 27 15 42 6 15 33 44 60 65 27 21 50 41 50 46 1 4 -4 7 -9 7 -6 0 -34 -16
-63 -35 -28 -19 -55 -35 -59 -35 -5 0 -8 9 -8 19 0 11 5 23 10 26 6 3 10 28
10 56 0 35 -4 49 -14 49z m142 -320 c15 0 39 -8 52 -17 14 -9 27 -18 29 -19 2
-2 -2 -10 -9 -19 -7 -8 -29 -15 -50 -15 -21 0 -43 7 -50 15 -6 8 -9 23 -5 35
4 14 15 20 33 20z"/>
</g>
</svg>
