<?xml version="1.0" standalone="no"?>
<!DOCTYPE svg PUBLIC "-//W3C//DTD SVG 20010904//EN"
 "http://www.w3.org/TR/2001/REC-SVG-20010904/DTD/svg10.dtd">
<svg version="1.0" xmlns="http://www.w3.org/2000/svg"
 width="56.000000pt" height="56.000000pt" viewBox="0 0 56.000000 56.000000"
 preserveAspectRatio="xMidYMid meet">
<metadata>
Created by potrace 1.16, written by Peter Selinger 2001-2019
</metadata>
<g transform="translate(0.000000,56.000000) scale(0.100000,-0.100000)"
fill="#000000" stroke="none">
<path d="M63 529 c-4 -1 -18 -4 -29 -6 -12 -2 -24 -13 -27 -24 -3 -10 -2 -32
2 -47 4 -15 14 -27 21 -27 8 0 23 17 33 37 11 20 17 44 14 52 -4 9 -10 15 -14
15z"/>
<path d="M360 530 c-6 0 -10 -10 -8 -22 2 -14 18 -30 41 -42 33 -17 42 -18 75
-7 20 7 49 17 65 23 16 6 27 18 27 29 0 16 -5 18 -27 14 -16 -3 -45 -11 -66
-17 -32 -10 -43 -9 -67 5 -15 9 -33 17 -40 17z"/>
<path d="M139 510 c-5 0 -9 -9 -9 -19 0 -10 14 -34 32 -52 18 -19 31 -42 29
-51 -2 -13 5 -18 23 -18 13 0 37 5 51 10 16 6 25 16 23 26 -2 9 -21 26 -43 38
-23 12 -54 31 -69 44 -16 12 -33 22 -37 22z"/>
<path d="M173 371 c-5 5 -25 -5 -47 -25 -31 -29 -36 -38 -27 -54 6 -11 25 -25
43 -33 18 -7 46 -26 61 -43 15 -16 32 -37 38 -47 5 -10 9 -34 9 -53 0 -29 -4
-36 -19 -36 -10 0 -35 7 -55 15 -24 10 -36 22 -36 35 0 10 5 22 10 25 6 3 10
10 10 16 0 5 -6 9 -13 9 -7 0 -36 -12 -65 -26 -29 -14 -59 -35 -67 -47 -8 -12
-15 -31 -15 -44 0 -12 5 -25 11 -29 6 -3 30 13 54 36 42 42 42 42 96 1 33 -25
65 -41 81 -41 22 0 31 7 41 33 8 17 14 49 15 71 1 28 -7 50 -29 82 -17 25 -45
50 -65 59 -19 8 -37 22 -41 31 -3 9 -1 26 6 37 7 11 9 23 4 28z"/>
<path d="M428 284 c-21 4 -38 5 -38 2 0 -3 18 -24 41 -46 32 -31 40 -46 35
-63 -3 -14 1 -33 10 -45 8 -12 25 -22 38 -22 12 0 27 5 34 12 7 7 12 25 12 40
0 15 -4 28 -9 28 -5 0 -11 8 -13 18 -3 11 -21 30 -39 44 -19 14 -51 29 -71 32z"/>
</g>
</svg>
