<?xml version="1.0" standalone="no"?>
<!DOCTYPE svg PUBLIC "-//W3C//DTD SVG 20010904//EN"
 "http://www.w3.org/TR/2001/REC-SVG-20010904/DTD/svg10.dtd">
<svg version="1.0" xmlns="http://www.w3.org/2000/svg"
 width="56.000000pt" height="56.000000pt" viewBox="0 0 56.000000 56.000000"
 preserveAspectRatio="xMidYMid meet">
<metadata>
Created by potrace 1.16, written by Peter Selinger 2001-2019
</metadata>
<g transform="translate(0.000000,56.000000) scale(0.100000,-0.100000)"
fill="#000000" stroke="none">
<path d="M328 459 c-7 0 -24 -12 -37 -26 -14 -15 -26 -41 -28 -67 -3 -26 1
-56 11 -80 9 -21 16 -40 16 -41 0 -1 -12 -7 -27 -13 -16 -5 -48 -15 -73 -23
-25 -7 -49 -16 -54 -21 -6 -4 -22 -8 -37 -8 -15 0 -31 -4 -34 -10 -3 -6 -15
-10 -25 -10 -11 0 -24 -8 -29 -19 -6 -10 -7 -21 -4 -25 3 -3 14 -6 24 -6 10 0
34 9 53 20 19 10 52 20 73 21 21 2 48 -3 60 -9 12 -7 37 -12 56 -12 20 0 41 7
50 18 10 10 17 33 17 50 0 27 4 32 23 32 13 0 44 -14 68 -31 24 -18 53 -43 65
-57 15 -18 26 -23 42 -18 12 4 22 14 22 22 0 8 -3 14 -8 14 -4 0 -12 10 -17
23 -6 12 -34 35 -64 51 -39 21 -66 28 -101 27 -46 -1 -48 1 -54 32 -4 17 -10
48 -12 67 -4 28 -1 40 15 54 12 11 21 25 21 33 0 7 -6 13 -12 12z m-55 -249
c10 0 17 -5 15 -12 -3 -7 -17 -15 -33 -20 -15 -4 -33 -4 -38 -1 -5 3 1 12 14
19 13 7 32 13 42 14z"/>
</g>
</svg>
