<?xml version="1.0" standalone="no"?>
<!DOCTYPE svg PUBLIC "-//W3C//DTD SVG 20010904//EN"
 "http://www.w3.org/TR/2001/REC-SVG-20010904/DTD/svg10.dtd">
<svg version="1.0" xmlns="http://www.w3.org/2000/svg"
 width="56.000000pt" height="56.000000pt" viewBox="0 0 56.000000 56.000000"
 preserveAspectRatio="xMidYMid meet">
<metadata>
Created by potrace 1.16, written by Peter Selinger 2001-2019
</metadata>
<g transform="translate(0.000000,56.000000) scale(0.100000,-0.100000)"
fill="#000000" stroke="none">
<path d="M396 493 c-6 3 -26 -1 -43 -8 -17 -7 -38 -23 -47 -36 -9 -13 -16 -42
-16 -64 0 -35 -5 -43 -35 -62 -19 -13 -38 -23 -42 -23 -5 0 -30 -23 -57 -50
-27 -28 -53 -50 -58 -50 -5 0 -29 -15 -53 -32 -28 -21 -44 -41 -45 -54 0 -12
6 -27 14 -33 11 -10 25 -2 68 39 33 32 59 49 70 46 11 -2 20 4 24 18 3 11 29
45 57 74 28 28 54 52 58 52 4 0 9 -10 12 -21 3 -13 -1 -32 -11 -45 -9 -13 -22
-24 -28 -24 -6 0 -19 -9 -28 -19 -10 -10 -13 -21 -9 -24 5 -3 15 -2 23 4 8 5
24 9 36 9 12 0 34 12 49 26 24 22 27 31 22 70 -3 30 -1 44 7 44 7 0 29 -22 49
-48 20 -27 46 -72 58 -100 13 -31 28 -52 37 -52 8 0 23 8 32 17 15 16 14 21
-8 62 -13 24 -32 56 -43 70 -11 14 -36 38 -56 54 -20 15 -47 27 -60 27 -16 0
-23 6 -23 19 0 11 10 32 23 48 13 15 26 36 30 45 3 9 0 18 -7 21z"/>
</g>
</svg>
