<?xml version="1.0" standalone="no"?>
<!DOCTYPE svg PUBLIC "-//W3C//DTD SVG 20010904//EN"
 "http://www.w3.org/TR/2001/REC-SVG-20010904/DTD/svg10.dtd">
<svg version="1.0" xmlns="http://www.w3.org/2000/svg"
 width="56.000000pt" height="56.000000pt" viewBox="0 0 56.000000 56.000000"
 preserveAspectRatio="xMidYMid meet">
<metadata>
Created by potrace 1.16, written by Peter Selinger 2001-2019
</metadata>
<g transform="translate(0.000000,56.000000) scale(0.100000,-0.100000)"
fill="#000000" stroke="none">
<path d="M346 480 c-8 0 -27 -16 -42 -36 -16 -19 -32 -45 -35 -57 -3 -12 -1
-40 4 -62 4 -22 11 -52 14 -67 5 -25 1 -29 -53 -53 -33 -15 -67 -31 -76 -36
-10 -5 -29 -9 -43 -9 -14 0 -38 -6 -54 -14 -15 -8 -33 -22 -40 -30 -11 -13
-10 -17 3 -22 9 -3 40 3 69 14 35 13 79 20 137 21 85 1 85 1 41 -23 -28 -15
-40 -26 -32 -30 7 -4 35 -2 64 4 29 7 61 17 72 23 11 6 43 11 70 12 49 0 50 1
72 45 16 33 18 48 10 58 -6 7 -23 20 -38 28 -16 8 -44 14 -63 14 -19 0 -37 -4
-40 -9 -3 -5 13 -15 36 -23 24 -7 44 -20 46 -29 2 -10 -10 -22 -33 -33 -20
-10 -52 -20 -71 -23 -21 -3 -34 -2 -34 5 0 6 4 13 9 16 5 4 12 23 16 44 4 26
1 48 -11 71 -10 19 -19 55 -22 80 -3 38 0 50 17 65 12 11 21 27 21 38 0 10 -6
18 -14 18z"/>
</g>
</svg>
