<?xml version="1.0" standalone="no"?>
<!DOCTYPE svg PUBLIC "-//W3C//DTD SVG 20010904//EN"
 "http://www.w3.org/TR/2001/REC-SVG-20010904/DTD/svg10.dtd">
<svg version="1.0" xmlns="http://www.w3.org/2000/svg"
 width="56.000000pt" height="56.000000pt" viewBox="0 0 56.000000 56.000000"
 preserveAspectRatio="xMidYMid meet">
<metadata>
Created by potrace 1.16, written by Peter Selinger 2001-2019
</metadata>
<g transform="translate(0.000000,56.000000) scale(0.100000,-0.100000)"
fill="#000000" stroke="none">
<path d="M323 540 c-17 0 -33 -8 -41 -20 -6 -11 -12 -47 -12 -80 0 -56 -3 -64
-32 -91 -18 -16 -38 -29 -46 -29 -7 0 -19 -15 -27 -34 -8 -19 -19 -37 -25 -41
-5 -3 -10 -19 -10 -34 0 -15 -5 -32 -11 -38 -7 -7 -25 -9 -41 -6 -19 4 -35 0
-47 -11 -10 -9 -22 -35 -25 -58 -5 -29 -2 -47 9 -64 13 -20 19 -22 39 -13 13
6 34 28 47 50 17 27 35 42 59 49 19 5 41 10 48 10 6 0 12 4 12 8 0 4 12 12 28
18 15 6 32 21 38 35 6 13 16 40 23 60 6 19 11 49 11 65 0 17 5 35 11 41 8 8
19 7 40 -4 16 -8 36 -28 45 -44 8 -17 33 -53 54 -82 22 -28 40 -60 42 -72 2
-12 12 -21 26 -23 19 -3 22 1 22 27 0 17 -4 31 -8 31 -4 0 -13 12 -20 28 -7
15 -23 45 -35 67 -13 22 -35 53 -50 69 -21 22 -38 30 -78 34 -51 5 -51 5 -45
36 3 17 7 40 9 51 2 11 7 30 11 43 6 19 4 22 -21 22z m-68 -250 c10 0 15 -11
15 -32 0 -29 -5 -35 -43 -50 -23 -10 -48 -18 -55 -18 -6 0 -12 4 -12 8 0 4 18
27 40 50 23 23 47 42 55 42z m-208 -140 c3 0 12 -8 19 -17 7 -10 14 -21 14
-25 0 -5 -3 -8 -7 -8 -5 0 -13 11 -20 25 -6 14 -9 25 -6 25z"/>
</g>
</svg>
