<?xml version="1.0" standalone="no"?>
<!DOCTYPE svg PUBLIC "-//W3C//DTD SVG 20010904//EN"
 "http://www.w3.org/TR/2001/REC-SVG-20010904/DTD/svg10.dtd">
<svg version="1.0" xmlns="http://www.w3.org/2000/svg"
 width="128.000000pt" height="128.000000pt" viewBox="0 0 128.000000 128.000000"
 preserveAspectRatio="xMidYMid meet">
<metadata>
Created by potrace 1.16, written by Peter Selinger 2001-2019
</metadata>
<g transform="translate(0.000000,128.000000) scale(0.100000,-0.100000)"
fill="#000000" stroke="none">
<path d="M716 1260 c-1 0 -21 -14 -44 -31 -23 -17 -42 -36 -42 -43 0 -7 -9
-21 -20 -31 -11 -10 -20 -26 -20 -35 0 -9 -9 -25 -20 -35 -11 -10 -43 -55 -71
-99 -28 -45 -74 -116 -102 -158 -28 -43 -54 -78 -59 -78 -4 0 -11 8 -16 18 -5
9 -12 50 -14 90 -5 68 -4 74 20 92 13 11 33 20 42 20 10 0 45 21 79 46 55 41
61 49 61 83 0 20 -8 48 -17 61 -9 14 -24 29 -32 35 -9 5 -35 15 -59 21 -33 9
-44 8 -53 -3 -9 -9 -8 -21 1 -43 7 -18 10 -50 7 -77 -4 -37 -12 -53 -36 -73
-17 -14 -42 -34 -57 -46 -24 -18 -28 -29 -30 -83 -3 -44 2 -77 15 -110 10 -25
23 -62 30 -82 6 -19 11 -45 11 -57 0 -11 -4 -23 -9 -26 -4 -3 -11 -18 -14 -33
-4 -17 -18 -35 -36 -45 -17 -9 -31 -23 -31 -31 0 -7 -10 -23 -22 -35 -13 -11
-30 -29 -38 -38 -8 -10 -21 -36 -27 -59 -7 -22 -13 -59 -13 -83 0 -24 7 -57
16 -75 9 -18 23 -40 32 -49 8 -10 22 -18 30 -18 9 0 24 -7 33 -16 17 -15 21
-15 41 -2 13 9 36 16 51 16 15 -1 33 5 41 11 7 6 23 44 34 84 12 39 22 97 22
127 1 30 -1 82 -3 116 -3 33 -9 70 -16 82 -6 11 -11 32 -11 46 0 15 8 31 21
38 11 7 29 33 40 57 10 24 19 47 19 51 0 4 18 38 40 76 21 37 43 70 48 73 4 3
21 29 37 56 17 28 35 61 40 75 6 14 24 45 40 67 17 23 44 48 61 57 23 11 34
12 43 3 6 -6 11 -29 11 -52 0 -23 5 -46 12 -53 7 -7 20 -12 30 -12 10 0 21 -7
24 -15 4 -10 -10 -33 -37 -63 -24 -26 -62 -60 -83 -77 -22 -16 -44 -43 -49
-58 -6 -19 -6 -32 1 -39 8 -8 27 -8 62 -1 40 8 53 8 56 -2 3 -7 -5 -28 -18
-46 -13 -19 -51 -62 -85 -97 -38 -39 -64 -75 -69 -94 -6 -28 -2 -36 26 -61 25
-22 38 -27 59 -22 14 3 37 13 49 21 13 9 30 31 38 49 10 24 30 42 71 65 32 17
76 33 99 37 30 4 45 1 57 -12 9 -9 17 -25 17 -36 0 -12 -13 -33 -28 -47 -15
-15 -43 -36 -62 -47 -18 -11 -49 -30 -69 -42 -20 -13 -51 -23 -68 -23 -23 0
-37 -7 -47 -22 -8 -13 -17 -37 -20 -54 -5 -21 -2 -35 8 -43 10 -8 37 -12 73
-9 54 3 58 1 66 -22 7 -20 4 -38 -13 -75 -12 -28 -33 -62 -47 -77 -14 -15 -31
-35 -37 -46 -6 -10 -21 -34 -33 -53 -23 -34 -23 -34 18 -37 28 -2 47 2 59 13
10 9 21 27 24 41 4 13 12 24 19 24 6 1 38 29 69 64 32 35 62 75 67 88 4 12 6
43 2 68 -5 41 -10 47 -48 65 -24 11 -43 24 -43 30 0 6 5 16 11 22 6 6 17 9 24
7 7 -3 19 4 27 15 8 11 40 38 72 59 31 21 68 49 81 60 17 15 25 32 25 53 0 17
-13 49 -29 73 -30 43 -30 43 -110 50 -59 5 -91 2 -122 -8 -24 -8 -45 -13 -47
-11 -2 2 5 16 16 30 12 14 26 51 33 80 9 42 9 58 0 68 -6 8 -25 17 -41 21 -17
3 -30 12 -30 20 0 7 18 30 40 50 22 20 45 36 50 36 6 0 15 11 21 24 6 13 25
29 42 37 19 8 33 23 35 35 2 11 -6 28 -17 38 -18 16 -23 16 -71 2 -29 -9 -56
-13 -61 -10 -5 2 -17 24 -28 48 -17 40 -23 45 -70 55 -29 6 -53 11 -55 11z
m-435 -810 c9 0 21 -11 27 -25 7 -14 12 -35 12 -47 0 -11 -10 -47 -22 -80 -11
-32 -29 -63 -39 -68 -14 -8 -23 -3 -43 21 -16 18 -26 43 -26 61 0 17 12 52 27
77 14 25 31 49 37 53 6 4 18 8 27 8z"/>
</g>
</svg>
