<?xml version="1.0" standalone="no"?>
<!DOCTYPE svg PUBLIC "-//W3C//DTD SVG 20010904//EN"
 "http://www.w3.org/TR/2001/REC-SVG-20010904/DTD/svg10.dtd">
<svg version="1.0" xmlns="http://www.w3.org/2000/svg"
 width="128.000000pt" height="128.000000pt" viewBox="0 0 128.000000 128.000000"
 preserveAspectRatio="xMidYMid meet">
<metadata>
Created by potrace 1.16, written by Peter Selinger 2001-2019
</metadata>
<g transform="translate(0.000000,128.000000) scale(0.100000,-0.100000)"
fill="#000000" stroke="none">
<path d="M1036 1280 c-30 0 -46 -5 -50 -15 -3 -9 -18 -15 -39 -15 -21 0 -41
-7 -51 -19 -10 -11 -33 -27 -52 -36 -19 -9 -34 -20 -34 -26 0 -5 7 -21 16 -34
10 -16 14 -34 10 -50 -4 -14 -13 -25 -21 -25 -8 0 -28 -15 -44 -32 -17 -18
-31 -37 -31 -41 0 -4 -18 -36 -41 -69 -22 -34 -49 -84 -60 -112 -10 -28 -19
-68 -19 -88 0 -20 -5 -49 -10 -64 -8 -19 -7 -30 2 -41 9 -12 26 -14 69 -10 31
3 61 2 67 -2 5 -3 16 -26 23 -50 12 -42 12 -45 -9 -59 -13 -8 -22 -25 -22 -39
0 -17 -16 -41 -50 -74 -27 -27 -50 -52 -50 -57 0 -5 -14 -26 -30 -47 -16 -21
-30 -45 -30 -54 1 -9 9 -25 18 -37 10 -12 27 -26 39 -32 12 -7 28 -9 36 -6 9
3 28 31 42 62 15 31 32 66 38 77 6 11 22 40 35 65 13 25 29 51 35 58 5 7 24
12 41 10 31 -3 31 -4 31 -59 0 -31 6 -68 14 -82 8 -15 22 -29 32 -32 9 -3 23
-13 30 -21 9 -11 9 -20 1 -37 -6 -12 -13 -34 -16 -49 -4 -19 -13 -28 -26 -28
-12 0 -29 -15 -44 -39 -14 -22 -30 -42 -36 -46 -5 -3 -10 -10 -10 -16 0 -5 14
-9 30 -9 17 0 30 5 30 11 0 8 4 8 13 1 7 -6 17 -8 23 -4 5 4 21 25 34 47 13
22 37 56 54 77 17 20 39 48 50 63 10 15 34 36 52 47 23 14 34 27 34 43 0 13
-7 31 -16 39 -11 12 -27 14 -57 10 -23 -3 -52 -7 -63 -10 -12 -2 -26 2 -32 9
-5 6 -13 45 -17 86 -6 58 -12 79 -31 98 -13 12 -31 23 -40 23 -13 0 -15 7 -10
38 3 20 8 63 12 95 7 56 8 58 48 76 23 10 58 32 78 50 20 17 42 31 50 31 8 0
27 11 42 25 15 14 26 31 24 37 -2 6 -13 16 -24 22 -10 6 -34 23 -52 39 -18 15
-39 27 -46 27 -7 0 -23 11 -36 25 -13 14 -32 25 -41 25 -10 0 -23 8 -28 18 -7
14 -6 25 5 40 8 12 26 22 39 22 15 0 40 18 72 51 26 28 48 57 47 65 0 8 -1 23
-2 34 -2 17 -9 20 -46 20z m-200 -300 c7 0 18 -10 25 -21 9 -17 7 -39 -6 -98
-10 -42 -27 -89 -38 -104 -15 -22 -26 -27 -51 -25 -30 3 -31 5 -30 48 0 25 6
64 13 88 6 23 26 58 42 77 17 19 37 35 45 35z"/>
<path d="M385 1189 c-5 0 -33 -13 -61 -27 -28 -15 -62 -31 -75 -37 -16 -6 -25
-20 -27 -37 -3 -25 0 -28 27 -28 21 0 34 -7 42 -21 6 -12 15 -36 20 -53 5 -17
6 -56 3 -87 -3 -31 -10 -62 -14 -69 -6 -9 -13 -9 -29 -1 -16 9 -26 8 -46 -5
-13 -9 -27 -23 -30 -32 -2 -10 -1 -37 3 -61 4 -25 13 -46 19 -48 7 -3 19 12
27 32 14 32 18 35 37 25 11 -7 31 -9 43 -6 13 3 28 17 34 32 7 14 18 24 25 21
8 -2 11 -19 9 -48 -2 -24 -10 -54 -18 -66 -8 -12 -14 -28 -14 -35 0 -7 -9 -24
-20 -38 -15 -19 -20 -41 -20 -89 0 -58 -2 -63 -20 -58 -13 3 -24 -1 -30 -13
-6 -10 -10 -33 -10 -50 0 -23 -6 -33 -22 -39 -13 -5 -29 -6 -35 -4 -7 3 -13
18 -13 33 0 16 4 31 8 34 5 3 8 54 7 113 -1 88 -5 109 -17 111 -8 2 -20 -3
-26 -10 -5 -7 -18 -49 -28 -93 -11 -47 -17 -111 -16 -155 1 -41 7 -104 13
-140 6 -36 14 -78 18 -95 5 -24 14 -32 50 -42 29 -8 49 -9 62 -3 10 6 21 27
25 47 4 19 15 59 26 87 10 28 21 77 25 109 3 32 10 60 14 63 5 3 9 19 9 36 0
18 11 45 26 65 18 24 25 43 23 68 -3 24 3 41 19 58 12 13 22 34 22 46 0 13 9
34 20 48 11 14 23 44 27 66 3 24 21 57 44 86 21 25 47 56 57 68 11 12 26 39
32 60 7 21 20 50 28 65 9 15 13 30 10 33 -3 4 -25 1 -47 -6 -31 -9 -49 -23
-71 -56 -17 -24 -30 -48 -30 -54 0 -5 -10 -23 -21 -39 -12 -16 -25 -46 -28
-67 -5 -29 -11 -39 -29 -41 -20 -3 -22 1 -22 41 0 28 7 53 19 68 14 18 19 43
20 104 0 44 -2 85 -6 91 -5 5 -19 18 -33 27 -13 9 -29 17 -35 16z"/>
<path d="M754 1177 c-5 2 -13 0 -17 -3 -4 -4 -7 -14 -7 -21 0 -8 8 -13 18 -11
9 2 17 10 17 17 0 8 -5 16 -11 18z"/>
</g>
</svg>
