<?xml version="1.0" standalone="no"?>
<!DOCTYPE svg PUBLIC "-//W3C//DTD SVG 20010904//EN"
 "http://www.w3.org/TR/2001/REC-SVG-20010904/DTD/svg10.dtd">
<svg version="1.0" xmlns="http://www.w3.org/2000/svg"
 width="128.000000pt" height="128.000000pt" viewBox="0 0 128.000000 128.000000"
 preserveAspectRatio="xMidYMid meet">
<metadata>
Created by potrace 1.16, written by Peter Selinger 2001-2019
</metadata>
<g transform="translate(0.000000,128.000000) scale(0.100000,-0.100000)"
fill="#000000" stroke="none">
<path d="M744 1280 c-39 0 -54 -4 -54 -14 0 -7 9 -20 21 -27 13 -9 24 -32 29
-59 5 -25 9 -77 10 -117 0 -70 0 -72 -32 -87 -17 -9 -37 -16 -44 -16 -7 0 -25
-6 -41 -14 -15 -8 -47 -20 -69 -26 -23 -7 -46 -10 -51 -7 -6 4 -8 41 -5 85 3
51 0 87 -8 101 -7 13 -17 20 -26 17 -8 -3 -14 1 -14 9 0 7 -4 16 -9 19 -5 4
-20 2 -33 -4 -12 -5 -36 -21 -53 -34 -29 -25 -29 -25 -4 -34 14 -6 30 -16 36
-24 7 -8 12 -23 11 -33 0 -11 5 -40 11 -65 7 -25 13 -52 14 -60 1 -10 -5 -14
-18 -13 -11 1 -47 -5 -80 -13 -34 -8 -74 -14 -91 -12 -16 1 -35 -1 -42 -6 -7
-4 -12 -16 -12 -26 0 -11 11 -27 25 -36 21 -14 30 -15 48 -5 12 7 33 18 47 26
14 8 45 17 69 21 43 7 43 7 37 -77 -4 -46 -9 -101 -12 -121 -5 -34 -3 -38 15
-38 14 0 21 6 21 20 0 11 7 20 15 20 8 0 19 9 25 19 5 11 10 35 10 55 0 19 -4
37 -9 41 -5 3 -7 22 -4 43 3 20 10 45 15 55 6 11 20 17 41 17 18 0 38 5 44 11
6 6 30 13 54 16 24 2 62 5 84 6 39 2 39 2 42 -83 1 -49 -3 -90 -9 -97 -6 -7
-22 -13 -37 -13 -14 0 -40 -9 -57 -19 -24 -14 -35 -16 -43 -8 -8 8 -19 7 -41
-6 -16 -10 -31 -17 -32 -15 -2 1 -18 -5 -35 -12 -18 -8 -35 -21 -38 -29 -5
-11 10 -13 82 -8 68 4 99 11 135 30 43 24 47 24 60 9 11 -13 13 -44 10 -137
-2 -66 -4 -156 -5 -200 -2 -78 -2 -80 22 -80 14 0 26 -6 28 -12 2 -6 -8 -13
-24 -15 -20 -2 -29 -9 -31 -25 -3 -17 1 -21 11 -17 8 3 18 1 22 -5 3 -7 -3
-11 -16 -11 -17 0 -20 -4 -15 -22 4 -13 12 -43 19 -68 9 -33 18 -46 33 -48 13
-2 24 5 31 20 7 13 15 39 18 58 4 19 8 152 9 295 1 143 3 266 4 273 1 7 14 17
28 22 14 6 89 11 166 11 113 1 140 3 145 16 3 8 -1 26 -8 40 -8 15 -27 35 -44
45 -16 10 -40 18 -51 18 -12 0 -33 -9 -46 -20 -14 -11 -38 -19 -54 -18 -16 1
-50 -2 -75 -6 -33 -6 -48 -4 -56 6 -7 7 -13 49 -14 92 -2 76 -1 80 22 89 13 5
35 10 48 12 13 1 27 9 32 16 6 10 1 20 -14 32 -12 9 -35 20 -50 24 -16 3 -31
12 -34 20 -3 8 -1 42 4 76 7 38 7 71 1 86 -5 14 -20 35 -34 48 -20 18 -36 23
-80 23z"/>
<path d="M344 548 c-13 6 -34 3 -69 -10 -27 -10 -86 -22 -129 -26 -52 -5 -81
-12 -84 -20 -2 -7 5 -16 17 -19 12 -3 21 -9 21 -14 0 -5 11 -9 25 -9 20 0 25
-5 25 -24 0 -14 5 -28 11 -32 6 -3 29 -1 50 6 22 8 51 24 64 36 14 13 25 34
25 49 0 14 4 25 9 25 5 0 11 -9 14 -21 4 -15 12 -20 29 -17 21 3 23 0 20 -39
-3 -33 1 -44 20 -57 17 -12 20 -18 10 -28 -7 -7 -12 -23 -12 -36 0 -17 5 -23
18 -20 13 2 18 15 20 55 2 29 9 56 17 63 10 8 15 31 15 65 0 30 -3 60 -6 69
-4 10 -18 16 -38 16 -18 0 -37 -5 -43 -11 -7 -7 -17 -8 -29 -1z m-88 -69 c12
-10 12 -14 2 -20 -7 -5 -17 -4 -22 1 -4 4 -5 13 -1 20 5 8 11 8 21 -1z"/>
<path d="M371 354 c-6 4 -15 -4 -21 -19 -6 -14 -10 -32 -10 -39 0 -8 -7 -19
-15 -26 -8 -7 -15 -28 -15 -47 0 -22 -10 -47 -29 -71 -16 -20 -32 -49 -35 -65
-5 -21 -2 -29 11 -34 12 -5 29 8 63 46 27 31 52 71 60 98 9 31 10 48 3 50 -6
2 -8 24 -5 52 2 30 0 51 -7 55z"/>
</g>
</svg>
