<?xml version="1.0" standalone="no"?>
<!DOCTYPE svg PUBLIC "-//W3C//DTD SVG 20010904//EN"
 "http://www.w3.org/TR/2001/REC-SVG-20010904/DTD/svg10.dtd">
<svg version="1.0" xmlns="http://www.w3.org/2000/svg"
 width="128.000000pt" height="128.000000pt" viewBox="0 0 128.000000 128.000000"
 preserveAspectRatio="xMidYMid meet">
<metadata>
Created by potrace 1.16, written by Peter Selinger 2001-2019
</metadata>
<g transform="translate(0.000000,128.000000) scale(0.100000,-0.100000)"
fill="#000000" stroke="none">
<path d="M205 1240 c-7 0 -17 -6 -22 -12 -6 -7 -13 -22 -16 -33 -3 -11 -14
-42 -24 -70 -10 -27 -26 -61 -35 -75 -9 -14 -20 -38 -23 -55 -4 -16 -12 -46
-20 -65 -7 -19 -18 -57 -23 -85 -6 -27 -11 -84 -12 -125 0 -41 -1 -86 -1 -100
0 -14 2 -61 4 -105 3 -44 8 -102 12 -130 3 -27 11 -74 17 -103 5 -29 19 -74
30 -100 12 -25 28 -53 36 -62 8 -8 35 -24 58 -36 41 -20 45 -20 59 -4 8 9 15
27 15 39 0 21 -3 23 -33 17 -27 -5 -38 -2 -56 18 -12 13 -27 41 -32 63 -6 21
-14 52 -18 68 -4 17 -3 59 2 95 5 36 6 94 3 130 -3 36 -6 102 -5 148 0 49 7
98 15 119 8 19 12 43 9 53 -3 10 2 41 11 69 9 28 20 51 24 51 4 0 12 18 19 39
6 21 8 46 5 55 -4 10 0 22 9 29 8 7 17 36 20 65 4 31 1 63 -5 77 -6 14 -17 25
-23 25z"/>
<path d="M1057 1229 c-23 0 -57 -7 -75 -15 -24 -10 -43 -12 -66 -6 -17 5 -57
6 -88 2 -30 -5 -64 -13 -76 -19 -11 -6 -57 -10 -103 -10 -46 0 -100 0 -119 0
-26 0 -41 -7 -57 -28 -13 -15 -23 -35 -23 -43 0 -8 10 -21 21 -29 12 -7 45
-19 73 -26 43 -11 55 -11 78 1 15 8 33 14 41 14 8 0 39 11 68 24 30 13 88 29
131 36 45 8 102 10 140 6 65 -7 65 -7 92 -74 26 -62 28 -78 31 -227 1 -88 5
-198 9 -245 4 -47 9 -97 12 -113 4 -18 -1 -38 -15 -60 -11 -18 -20 -48 -19
-67 0 -19 -3 -48 -7 -65 -3 -16 -11 -40 -17 -52 -6 -12 -27 -33 -47 -47 -27
-18 -54 -25 -108 -29 -40 -2 -80 -10 -88 -17 -11 -9 -12 -16 -4 -26 6 -7 21
-16 32 -20 12 -4 52 -24 89 -45 36 -22 77 -39 91 -39 13 0 33 10 45 23 12 13
22 33 22 45 0 12 11 29 25 38 13 9 34 31 45 49 15 24 21 53 23 116 2 47 7 91
11 98 5 7 7 83 6 169 -1 87 -4 175 -6 197 -2 22 -9 105 -15 184 -7 96 -17 162
-30 197 -11 29 -34 65 -50 79 -23 18 -41 25 -72 24z"/>
<path d="M709 939 c-13 0 -35 -5 -49 -11 -14 -5 -46 -11 -71 -12 -26 -1 -53
-7 -60 -13 -8 -6 -26 -35 -41 -65 -14 -29 -36 -78 -48 -108 -12 -30 -30 -72
-41 -92 -10 -20 -19 -42 -19 -49 0 -6 8 -30 19 -53 10 -23 25 -61 32 -86 11
-34 20 -46 37 -48 20 -3 22 1 22 42 0 25 -5 65 -12 90 -10 39 -9 48 11 87 12
24 33 60 46 79 14 19 44 56 67 83 24 26 50 47 60 47 11 0 18 -12 23 -39 4 -22
2 -48 -3 -58 -5 -10 -10 -40 -12 -68 -1 -27 -3 -68 -4 -90 -1 -40 -1 -40 62
-45 40 -3 66 -10 72 -20 5 -8 6 -35 3 -60 -4 -24 -26 -84 -50 -131 -23 -48
-50 -92 -58 -99 -9 -7 -15 -29 -15 -54 0 -37 -6 -48 -57 -101 -56 -60 -56 -60
22 -63 65 -2 79 0 91 15 7 10 14 28 14 39 0 12 6 27 14 33 8 7 25 31 37 54 12
23 30 76 41 117 10 41 29 98 43 126 14 27 34 79 45 113 11 35 20 74 20 87 0
13 -10 30 -22 38 -13 8 -42 19 -66 26 -34 9 -46 18 -57 43 -8 20 -10 39 -4 53
4 13 4 37 -2 56 -5 18 -9 44 -9 59 0 15 -12 36 -28 52 -16 15 -39 27 -53 26z"/>
</g>
</svg>
