<?xml version="1.0" standalone="no"?>
<!DOCTYPE svg PUBLIC "-//W3C//DTD SVG 20010904//EN"
 "http://www.w3.org/TR/2001/REC-SVG-20010904/DTD/svg10.dtd">
<svg version="1.0" xmlns="http://www.w3.org/2000/svg"
 width="128.000000pt" height="128.000000pt" viewBox="0 0 128.000000 128.000000"
 preserveAspectRatio="xMidYMid meet">
<metadata>
Created by potrace 1.16, written by Peter Selinger 2001-2019
</metadata>
<g transform="translate(0.000000,128.000000) scale(0.100000,-0.100000)"
fill="#000000" stroke="none">
<path d="M863 1232 c-42 3 -76 1 -82 -5 -5 -5 -54 -11 -108 -12 -76 -3 -107
-8 -138 -24 -21 -12 -49 -21 -62 -21 -12 0 -44 -8 -70 -19 -26 -10 -65 -21
-85 -25 -21 -4 -40 -11 -43 -15 -3 -5 -2 -16 1 -25 5 -12 14 -15 38 -11 17 4
58 2 91 -3 39 -6 68 -6 85 0 14 6 40 10 57 9 18 -1 51 8 72 19 22 11 53 20 69
20 16 0 35 6 41 14 7 8 25 17 40 21 17 3 45 -1 70 -11 24 -9 62 -39 91 -71 28
-31 59 -72 69 -92 11 -20 22 -71 26 -113 7 -75 8 -78 33 -78 24 0 24 -1 8 -19
-15 -17 -16 -38 -12 -187 2 -93 9 -180 13 -194 5 -14 6 -36 3 -50 -4 -14 -15
-44 -25 -67 -17 -41 -20 -43 -60 -43 -29 0 -47 6 -60 20 -10 11 -28 20 -40 20
-13 0 -28 6 -35 14 -6 8 -21 16 -33 18 -13 2 -23 13 -27 28 -3 14 -14 26 -24
28 -17 4 -18 -1 -12 -37 4 -25 2 -41 -4 -41 -5 0 -10 -4 -10 -9 0 -5 9 -11 20
-14 11 -3 32 -31 51 -70 21 -43 40 -68 54 -71 11 -3 29 -21 38 -41 14 -30 21
-35 52 -35 19 0 43 -4 53 -9 9 -5 36 -15 59 -22 31 -9 46 -9 56 -1 7 6 26 10
42 9 26 -2 31 3 43 38 10 31 11 56 3 111 -6 39 -8 86 -5 105 3 19 -2 88 -12
154 -10 66 -18 170 -19 230 -1 61 -6 122 -12 136 -6 14 -15 64 -19 110 -5 63
-15 102 -39 154 -18 39 -50 87 -71 108 -20 21 -51 44 -68 51 -17 7 -63 15
-103 18z"/>
<path d="M225 1186 c-5 2 -25 -3 -44 -12 -34 -14 -34 -14 -28 -76 4 -43 11
-66 23 -75 10 -7 28 -13 40 -13 13 0 25 4 29 9 3 5 7 29 9 53 3 23 1 47 -4 53
-4 5 -10 21 -12 34 -1 14 -7 26 -13 27z"/>
<path d="M1183 1167 c-6 2 -18 -10 -27 -28 -9 -18 -15 -33 -14 -34 2 -1 13 -7
25 -14 12 -6 24 -11 28 -11 3 0 5 19 3 42 -2 23 -8 43 -15 45z"/>
<path d="M210 1000 c-22 0 -43 -7 -50 -15 -11 -13 -11 -26 -2 -66 8 -33 9 -57
2 -68 -5 -10 -7 -35 -3 -55 3 -23 0 -52 -11 -80 -14 -37 -15 -48 -4 -65 10
-17 10 -25 -5 -50 -10 -16 -16 -43 -15 -59 1 -17 -12 -58 -32 -98 -31 -64 -34
-75 -32 -159 1 -49 6 -93 12 -99 6 -6 15 -5 24 3 12 10 18 9 34 -7 11 -11 22
-26 24 -33 4 -11 9 -10 30 3 16 11 32 39 48 85 19 57 23 93 26 228 2 88 6 238
9 334 4 122 2 178 -6 187 -6 8 -28 14 -49 14z"/>
<path d="M607 940 c-38 0 -53 -5 -72 -25 -14 -13 -25 -33 -25 -43 0 -11 16
-50 35 -88 19 -37 42 -72 50 -77 12 -6 15 -2 15 18 0 17 5 25 18 25 9 -1 37
-28 62 -61 25 -34 58 -70 73 -81 18 -13 36 -18 52 -14 13 3 32 18 43 34 11 15
22 44 26 64 4 21 2 46 -3 57 -6 10 -22 21 -35 25 -14 3 -37 25 -53 49 -16 23
-53 59 -83 79 -44 30 -64 37 -103 38z"/>
<path d="M936 800 c-8 0 -17 -4 -21 -9 -3 -5 -1 -12 5 -16 5 -3 15 -3 20 0 6
3 10 10 10 16 0 5 -6 9 -14 9z"/>
<path d="M931 614 c-5 3 -14 -1 -21 -10 -9 -10 -10 -18 -2 -26 5 -5 15 -7 21
-4 6 4 11 13 11 21 0 8 -4 16 -9 19z"/>
<path d="M689 500 c-5 0 -12 -7 -16 -16 -3 -8 -1 -20 6 -27 7 -7 14 -8 21 -1
6 6 8 18 4 27 -3 9 -10 17 -15 17z"/>
</g>
</svg>
