<?xml version="1.0" standalone="no"?>
<!DOCTYPE svg PUBLIC "-//W3C//DTD SVG 20010904//EN"
 "http://www.w3.org/TR/2001/REC-SVG-20010904/DTD/svg10.dtd">
<svg version="1.0" xmlns="http://www.w3.org/2000/svg"
 width="128.000000pt" height="128.000000pt" viewBox="0 0 128.000000 128.000000"
 preserveAspectRatio="xMidYMid meet">
<metadata>
Created by potrace 1.16, written by Peter Selinger 2001-2019
</metadata>
<g transform="translate(0.000000,128.000000) scale(0.100000,-0.100000)"
fill="#000000" stroke="none">
<path d="M598 1015 c-142 0 -203 -3 -210 -12 -6 -8 -6 -18 1 -32 6 -11 23 -28
38 -39 25 -17 51 -20 216 -24 184 -5 189 -5 196 15 5 12 6 29 4 38 -3 10 -14
26 -25 36 -18 16 -41 18 -220 18z"/>
<path d="M570 713 c-36 2 -107 2 -157 0 -73 -3 -93 -7 -93 -18 0 -8 11 -22 25
-31 14 -9 25 -22 25 -30 0 -8 -37 -32 -82 -55 -44 -22 -99 -52 -120 -67 -22
-14 -51 -27 -66 -28 -14 -2 -37 -12 -51 -22 -18 -13 -27 -30 -29 -56 -3 -35 2
-43 57 -98 55 -56 63 -60 93 -54 18 3 53 11 78 17 25 6 88 16 140 24 52 7 122
21 155 30 33 10 87 22 120 27 33 5 116 13 185 19 90 7 138 7 170 -1 25 -6 68
-23 97 -37 31 -14 60 -22 71 -19 11 4 32 18 46 31 17 16 26 35 26 54 0 27 -6
33 -62 60 -61 29 -65 30 -142 20 -44 -5 -86 -7 -93 -4 -8 3 -58 -3 -111 -14
-54 -10 -146 -24 -207 -31 -60 -6 -126 -18 -145 -25 -19 -8 -60 -17 -90 -20
-30 -4 -71 -8 -90 -10 -19 -2 -67 -6 -106 -10 -40 -3 -83 -3 -98 1 -16 4 -26
13 -26 25 0 12 12 24 33 33 17 7 43 25 56 40 14 14 32 26 40 26 9 0 30 7 46
16 17 9 75 31 130 49 55 18 132 37 170 40 39 4 78 12 88 17 10 5 17 20 17 37
0 15 -8 35 -18 44 -11 10 -42 17 -82 20z"/>
</g>
</svg>
