<?xml version="1.0" standalone="no"?>
<!DOCTYPE svg PUBLIC "-//W3C//DTD SVG 20010904//EN"
 "http://www.w3.org/TR/2001/REC-SVG-20010904/DTD/svg10.dtd">
<svg version="1.0" xmlns="http://www.w3.org/2000/svg"
 width="128.000000pt" height="128.000000pt" viewBox="0 0 128.000000 128.000000"
 preserveAspectRatio="xMidYMid meet">
<metadata>
Created by potrace 1.16, written by Peter Selinger 2001-2019
</metadata>
<g transform="translate(0.000000,128.000000) scale(0.100000,-0.100000)"
fill="#000000" stroke="none">
<path d="M220 1280 c-16 0 -20 -7 -20 -34 0 -22 9 -45 23 -62 16 -18 30 -25
40 -21 12 4 17 18 17 44 0 26 -6 44 -20 56 -11 9 -29 17 -40 17z"/>
<path d="M387 1247 c-15 7 -29 7 -40 1 -11 -5 -17 -21 -17 -42 0 -23 8 -42 26
-60 20 -20 33 -24 53 -20 14 4 35 12 47 19 13 9 26 10 37 3 13 -7 19 -5 23 9
3 10 10 29 16 43 8 20 6 28 -12 42 -12 10 -31 18 -41 18 -10 0 -30 -5 -44 -12
-18 -8 -32 -8 -48 -1z"/>
<path d="M219 820 c-3 0 -10 -5 -17 -12 -7 -7 -12 -18 -12 -25 0 -7 11 -20 25
-29 13 -8 29 -13 35 -9 5 3 10 14 10 24 0 10 -8 25 -18 34 -10 10 -21 17 -23
17z"/>
<path d="M535 806 c-22 1 -60 -1 -85 -3 -25 -2 -50 -11 -56 -19 -10 -12 -13
-12 -24 1 -7 8 -20 15 -30 15 -9 0 -24 -8 -34 -19 -16 -17 -15 -21 6 -62 13
-24 38 -53 56 -66 18 -12 39 -20 46 -17 7 3 20 -4 30 -15 15 -16 21 -18 37 -8
15 9 21 8 32 -7 8 -11 19 -16 25 -12 7 4 12 27 12 52 0 31 5 46 15 51 9 3 25
-3 36 -13 15 -13 22 -15 31 -6 9 9 6 18 -12 37 -13 14 -29 40 -35 58 -9 29
-14 32 -50 33z"/>
<path d="M246 280 c-8 0 -19 -7 -27 -16 -9 -11 -10 -20 -3 -32 6 -10 20 -21
32 -27 12 -5 22 -15 22 -22 0 -7 9 -22 20 -33 16 -16 24 -18 44 -8 20 9 30 8
50 -6 14 -9 36 -16 50 -16 15 0 32 10 44 27 20 27 20 27 50 1 26 -22 47 -27
149 -38 97 -11 124 -17 151 -37 21 -16 32 -32 32 -49 0 -22 3 -24 53 -24 28 0
69 5 89 10 21 6 42 19 48 30 5 10 10 33 10 51 0 19 -11 49 -27 72 -15 21 -40
45 -57 54 -17 9 -42 24 -55 34 -16 13 -40 19 -75 19 -29 0 -58 -6 -65 -12 -6
-7 -31 -14 -54 -15 -23 0 -57 -4 -75 -8 -22 -5 -39 -2 -57 9 -23 15 -28 15
-77 -3 -29 -10 -61 -22 -70 -26 -11 -4 -20 0 -28 14 -6 12 -19 21 -30 21 -10
0 -22 -5 -26 -11 -4 -7 -21 -9 -42 -6 -19 4 -41 15 -49 27 -8 11 -20 20 -27
20z"/>
</g>
</svg>
