<?xml version="1.0" standalone="no"?>
<!DOCTYPE svg PUBLIC "-//W3C//DTD SVG 20010904//EN"
 "http://www.w3.org/TR/2001/REC-SVG-20010904/DTD/svg10.dtd">
<svg version="1.0" xmlns="http://www.w3.org/2000/svg"
 width="128.000000pt" height="128.000000pt" viewBox="0 0 128.000000 128.000000"
 preserveAspectRatio="xMidYMid meet">
<metadata>
Created by potrace 1.16, written by Peter Selinger 2001-2019
</metadata>
<g transform="translate(0.000000,128.000000) scale(0.100000,-0.100000)"
fill="#000000" stroke="none">
<path d="M884 1020 c-22 0 -44 -3 -47 -7 -4 -3 -39 -6 -79 -5 -47 2 -76 -2
-87 -11 -9 -8 -34 -18 -56 -24 -22 -5 -67 -9 -100 -7 -33 1 -65 -2 -72 -8 -9
-7 -21 -7 -40 0 -16 6 -50 13 -78 17 -27 3 -56 1 -64 -4 -12 -8 -12 -14 -1
-41 9 -21 28 -39 64 -57 37 -19 71 -27 133 -31 56 -3 101 0 140 10 36 9 96 14
158 13 55 -1 118 3 140 8 22 6 55 24 73 41 17 16 32 36 32 43 0 7 -17 24 -37
38 -25 17 -51 25 -79 25z"/>
<path d="M10 955 c-5 3 -10 -3 -10 -14 0 -12 5 -21 10 -21 6 0 10 6 10 14 0 8
-4 18 -10 21z"/>
<path d="M929 720 c-9 0 -24 -9 -34 -20 -10 -11 -26 -20 -37 -20 -10 0 -27 -5
-37 -12 -15 -9 -28 -9 -59 0 -22 7 -49 12 -60 12 -11 0 -34 -8 -50 -17 -25
-15 -32 -15 -46 -4 -11 9 -49 15 -108 16 -66 2 -101 -2 -124 -12 -24 -12 -30
-20 -26 -35 3 -11 24 -28 49 -39 33 -14 49 -16 70 -8 20 7 36 6 66 -6 31 -13
60 -15 131 -10 50 4 120 8 156 9 43 2 74 -3 92 -12 24 -14 28 -13 56 9 16 13
35 32 41 42 9 13 8 24 -4 47 -8 16 -25 36 -37 44 -12 9 -30 16 -39 16z"/>
<path d="M1195 544 c-11 3 -33 -1 -50 -10 -16 -8 -40 -25 -53 -37 -19 -17 -34
-22 -74 -20 -32 2 -64 -4 -88 -16 -30 -15 -53 -17 -109 -13 -46 3 -81 0 -101
-8 -18 -7 -53 -12 -78 -12 -26 1 -54 2 -62 3 -8 0 -48 -2 -88 -5 -39 -3 -78
-8 -85 -13 -6 -4 -88 -8 -182 -8 -154 0 -170 -2 -173 -17 -3 -14 3 -18 26 -18
17 0 61 -18 99 -40 68 -39 68 -39 198 -34 109 5 133 8 149 24 17 16 23 17 45
7 19 -10 60 -11 156 -5 72 4 186 10 254 13 75 3 134 11 150 19 14 8 38 19 54
25 15 6 36 25 47 43 11 18 20 43 20 54 0 12 -8 31 -17 42 -10 11 -27 23 -38
26z"/>
</g>
</svg>
