<?xml version="1.0" standalone="no"?>
<!DOCTYPE svg PUBLIC "-//W3C//DTD SVG 20010904//EN"
 "http://www.w3.org/TR/2001/REC-SVG-20010904/DTD/svg10.dtd">
<svg version="1.0" xmlns="http://www.w3.org/2000/svg"
 width="128.000000pt" height="128.000000pt" viewBox="0 0 128.000000 128.000000"
 preserveAspectRatio="xMidYMid meet">
<metadata>
Created by potrace 1.16, written by Peter Selinger 2001-2019
</metadata>
<g transform="translate(0.000000,128.000000) scale(0.100000,-0.100000)"
fill="#000000" stroke="none">
<path d="M433 1250 c-5 0 -14 -4 -22 -9 -8 -5 -20 -31 -27 -58 -9 -35 -10 -58
-2 -84 7 -25 7 -57 -1 -106 -6 -40 -8 -79 -5 -87 3 -9 12 -16 19 -16 8 0 17 5
21 11 3 6 27 20 53 30 25 11 58 33 73 50 18 19 37 29 56 29 15 0 46 9 68 20
21 11 49 27 61 37 13 10 25 32 28 48 4 20 0 37 -12 52 -10 13 -32 27 -49 32
-26 7 -45 3 -117 -30 -48 -21 -92 -36 -100 -33 -8 3 -19 16 -26 30 -6 14 -11
38 -11 54 0 17 -3 30 -7 30z"/>
<path d="M366 870 c-7 0 -18 -6 -23 -12 -6 -7 -17 -28 -27 -47 -9 -19 -16 -40
-16 -48 0 -7 7 -24 15 -37 13 -19 13 -29 4 -49 -10 -23 -8 -30 26 -70 23 -28
49 -47 67 -51 21 -4 29 -11 26 -23 -2 -10 -14 -19 -26 -21 -19 -3 -23 -8 -18
-26 4 -17 -2 -30 -24 -50 -17 -14 -30 -31 -30 -36 0 -6 13 -10 29 -10 17 0 33
5 36 10 3 6 24 10 45 10 21 0 42 5 46 11 3 6 22 17 41 25 18 8 36 21 40 29 3
8 14 15 24 15 11 0 30 7 43 15 19 13 28 14 50 4 24 -12 30 -10 56 17 25 24 31
39 34 88 2 32 9 63 15 69 6 6 11 17 11 24 0 7 -3 13 -7 13 -3 0 -15 -7 -25
-16 -17 -16 -20 -15 -59 11 -40 26 -43 26 -79 12 -27 -10 -41 -12 -49 -4 -6 6
-27 10 -48 9 -21 -1 -54 3 -73 9 -19 7 -46 16 -59 21 -18 7 -22 14 -18 35 3
15 1 37 -4 50 -5 13 -15 23 -23 23z"/>
<path d="M211 539 c-3 -1 -18 -8 -34 -16 -15 -8 -25 -18 -22 -24 4 -5 16 -9
28 -9 12 0 28 9 34 19 7 10 9 22 6 25 -4 3 -9 6 -12 5z"/>
<path d="M71 520 c-4 0 -11 -3 -14 -7 -4 -3 -7 -14 -7 -24 0 -10 9 -20 20 -24
11 -3 24 -3 30 0 5 3 10 10 10 15 0 5 -7 16 -16 24 -8 9 -19 16 -23 16z"/>
<path d="M327 390 c-7 0 -20 -5 -30 -11 -13 -8 -15 -14 -7 -30 6 -10 17 -19
25 -19 8 0 19 9 25 20 6 11 8 25 5 30 -3 6 -12 10 -18 10z"/>
<path d="M252 340 c-4 -1 -24 -10 -44 -20 -20 -11 -39 -24 -42 -29 -4 -5 -3
-16 0 -25 3 -9 14 -16 25 -16 10 0 29 5 43 11 13 6 27 22 31 36 3 13 3 28 0
33 -4 6 -9 10 -13 10z"/>
<path d="M1016 328 c-12 0 -64 -5 -116 -9 -52 -4 -111 -12 -130 -17 -19 -5
-49 -16 -67 -25 -18 -10 -43 -17 -57 -17 -14 0 -76 -20 -138 -46 -62 -25 -123
-52 -135 -60 -12 -7 -29 -14 -37 -14 -9 0 -34 -7 -56 -16 -32 -13 -39 -20 -35
-35 4 -11 2 -19 -5 -19 -6 0 -13 6 -16 13 -3 8 -27 38 -54 67 -49 53 -49 53
-69 9 -13 -27 -21 -66 -21 -101 0 -58 0 -58 129 -58 94 0 136 4 157 15 16 8
37 12 47 9 11 -4 27 2 40 15 13 11 46 24 77 29 30 5 63 13 73 17 11 5 17 3 17
-6 0 -7 -14 -28 -32 -46 -32 -33 -32 -33 65 -33 97 0 97 0 97 26 0 17 -12 37
-35 59 -22 20 -33 38 -30 47 4 9 28 27 54 42 33 17 64 26 94 26 25 0 49 5 52
10 3 6 24 10 45 10 30 0 40 -5 45 -20 3 -10 0 -30 -7 -44 -7 -13 -31 -44 -54
-68 -22 -24 -53 -54 -69 -66 -28 -22 -28 -22 33 -22 51 0 63 3 72 20 9 16 21
20 68 20 32 0 82 8 111 19 36 13 57 27 67 46 8 15 14 38 14 51 0 13 -16 42
-36 64 -20 22 -44 40 -53 40 -9 0 -32 16 -51 35 -19 20 -43 34 -54 33z"/>
</g>
</svg>
