<?xml version="1.0" standalone="no"?>
<!DOCTYPE svg PUBLIC "-//W3C//DTD SVG 20010904//EN"
 "http://www.w3.org/TR/2001/REC-SVG-20010904/DTD/svg10.dtd">
<svg version="1.0" xmlns="http://www.w3.org/2000/svg"
 width="56.000000pt" height="56.000000pt" viewBox="0 0 56.000000 56.000000"
 preserveAspectRatio="xMidYMid meet">
<metadata>
Created by potrace 1.16, written by Peter Selinger 2001-2019
</metadata>
<g transform="translate(0.000000,56.000000) scale(0.100000,-0.100000)"
fill="#000000" stroke="none">
<path d="M211 560 c-26 0 -29 -4 -43 -62 -9 -35 -21 -85 -26 -113 -6 -27 -16
-76 -23 -108 -10 -45 -10 -69 0 -115 7 -31 21 -73 30 -92 9 -19 24 -35 31 -35
9 0 19 16 24 38 8 31 6 45 -8 71 -13 25 -16 44 -11 79 5 29 16 54 32 69 20 19
34 23 80 21 31 -1 60 -6 65 -11 5 -5 14 -28 19 -50 7 -33 5 -53 -12 -99 -12
-32 -25 -62 -29 -68 -4 -5 -18 -27 -29 -49 -22 -38 -22 -38 6 -32 15 4 36 17
46 29 9 12 29 44 43 71 15 30 27 75 31 113 5 57 4 65 -22 98 -15 20 -37 40
-48 44 -12 5 -47 5 -77 1 -30 -4 -63 -11 -73 -15 -17 -7 -18 -4 -12 51 4 32
14 74 21 93 8 18 14 42 14 52 0 14 -7 19 -29 19z"/>
</g>
</svg>
