<?xml version="1.0" standalone="no"?>
<!DOCTYPE svg PUBLIC "-//W3C//DTD SVG 20010904//EN"
 "http://www.w3.org/TR/2001/REC-SVG-20010904/DTD/svg10.dtd">
<svg version="1.0" xmlns="http://www.w3.org/2000/svg"
 width="56.000000pt" height="56.000000pt" viewBox="0 0 56.000000 56.000000"
 preserveAspectRatio="xMidYMid meet">
<metadata>
Created by potrace 1.16, written by Peter Selinger 2001-2019
</metadata>
<g transform="translate(0.000000,56.000000) scale(0.100000,-0.100000)"
fill="#000000" stroke="none">
<path d="M227 560 c-7 0 -28 -24 -46 -54 -25 -41 -32 -63 -29 -93 3 -38 3 -38
48 -38 45 0 45 0 42 -55 -3 -44 -8 -59 -28 -73 -15 -12 -24 -29 -24 -47 0 -15
7 -33 15 -40 9 -7 15 -29 15 -55 0 -27 6 -47 18 -57 9 -9 32 -23 50 -32 18
-10 45 -16 60 -14 21 2 27 8 27 26 0 14 -10 29 -25 38 -14 8 -37 18 -52 24
-27 9 -27 9 -22 92 5 61 11 86 23 93 9 6 30 24 47 42 17 17 41 52 52 77 12 25
22 56 22 70 0 13 -9 35 -21 50 -11 14 -26 26 -33 26 -6 0 -38 -22 -71 -50 -33
-27 -65 -50 -71 -50 -7 0 -16 5 -19 10 -4 6 3 27 14 46 12 19 21 42 21 50 0 8
-6 14 -13 14z m133 -70 c6 0 10 -4 10 -9 0 -5 -6 -27 -14 -49 -8 -23 -25 -55
-37 -72 -13 -16 -27 -30 -32 -30 -5 0 -6 23 -2 53 5 40 13 58 36 80 16 15 34
27 39 27z"/>
</g>
</svg>
