<?xml version="1.0" standalone="no"?>
<!DOCTYPE svg PUBLIC "-//W3C//DTD SVG 20010904//EN"
 "http://www.w3.org/TR/2001/REC-SVG-20010904/DTD/svg10.dtd">
<svg version="1.0" xmlns="http://www.w3.org/2000/svg"
 width="56.000000pt" height="56.000000pt" viewBox="0 0 56.000000 56.000000"
 preserveAspectRatio="xMidYMid meet">
<metadata>
Created by potrace 1.16, written by Peter Selinger 2001-2019
</metadata>
<g transform="translate(0.000000,56.000000) scale(0.100000,-0.100000)"
fill="#000000" stroke="none">
<path d="M297 540 c-8 0 -17 -3 -20 -7 -4 -3 -7 -34 -7 -68 0 -50 -4 -66 -21
-81 -21 -19 -21 -19 -44 10 -14 17 -30 27 -41 24 -11 -2 -21 -15 -25 -33 -4
-17 -7 -49 -8 -72 -1 -41 0 -43 29 -43 19 0 33 7 40 20 6 11 15 20 20 20 4 0
22 -13 38 -30 16 -16 32 -26 36 -23 3 4 6 42 6 85 0 56 4 78 13 78 6 0 17 -4
22 -8 6 -4 16 -18 23 -31 8 -14 14 -55 14 -100 0 -51 -6 -89 -18 -116 -10 -22
-17 -46 -15 -53 1 -6 -3 -12 -8 -12 -6 0 -17 -13 -25 -29 -8 -15 -32 -36 -53
-46 -21 -10 -32 -20 -25 -23 7 -2 28 -1 46 2 19 4 47 22 68 44 19 20 42 56 51
80 10 23 20 80 23 127 5 59 3 94 -6 117 -7 18 -20 41 -28 51 -8 9 -28 17 -44
17 -27 0 -28 2 -28 50 0 35 -4 50 -13 50z m-105 -182 c4 -7 8 -19 8 -25 0 -7
-7 -13 -15 -13 -8 0 -15 8 -15 18 0 10 3 22 7 25 4 4 10 2 15 -5z"/>
<path d="M411 40 c-6 0 -13 -4 -16 -10 -3 -6 -3 -15 0 -20 3 -5 10 -10 16 -10
5 0 9 9 9 20 0 11 -4 20 -9 20z"/>
</g>
</svg>
