<?xml version="1.0" standalone="no"?>
<!DOCTYPE svg PUBLIC "-//W3C//DTD SVG 20010904//EN"
 "http://www.w3.org/TR/2001/REC-SVG-20010904/DTD/svg10.dtd">
<svg version="1.0" xmlns="http://www.w3.org/2000/svg"
 width="56.000000pt" height="56.000000pt" viewBox="0 0 56.000000 56.000000"
 preserveAspectRatio="xMidYMid meet">
<metadata>
Created by potrace 1.16, written by Peter Selinger 2001-2019
</metadata>
<g transform="translate(0.000000,56.000000) scale(0.100000,-0.100000)"
fill="#000000" stroke="none">
<path d="M275 560 c-19 0 -35 -5 -35 -11 0 -6 -11 -25 -25 -43 -13 -17 -36
-58 -51 -89 -17 -38 -24 -67 -20 -82 5 -20 13 -25 36 -25 25 0 33 6 47 35 10
21 27 38 40 41 13 4 30 1 38 -6 8 -6 19 -27 26 -47 7 -23 9 -64 4 -119 -6 -74
-11 -90 -46 -144 -21 -33 -39 -63 -39 -66 0 -3 17 -4 37 -2 32 3 41 9 60 43
13 22 30 64 39 94 10 33 16 87 16 134 -1 53 -7 88 -17 103 -8 13 -26 31 -39
39 -13 9 -42 19 -66 23 -42 7 -42 7 -6 61 20 29 36 55 36 57 0 2 -16 4 -35 4z"/>
</g>
</svg>
