<?xml version="1.0" standalone="no"?>
<!DOCTYPE svg PUBLIC "-//W3C//DTD SVG 20010904//EN"
 "http://www.w3.org/TR/2001/REC-SVG-20010904/DTD/svg10.dtd">
<svg version="1.0" xmlns="http://www.w3.org/2000/svg"
 width="56.000000pt" height="56.000000pt" viewBox="0 0 56.000000 56.000000"
 preserveAspectRatio="xMidYMid meet">
<metadata>
Created by potrace 1.16, written by Peter Selinger 2001-2019
</metadata>
<g transform="translate(0.000000,56.000000) scale(0.100000,-0.100000)"
fill="#000000" stroke="none">
<path d="M338 560 c-18 0 -28 -12 -46 -53 -13 -28 -34 -75 -48 -103 -17 -37
-22 -60 -18 -83 4 -17 10 -34 14 -36 4 -3 20 11 34 30 15 19 33 35 41 35 9 0
16 -17 21 -45 3 -25 3 -65 -1 -90 -3 -25 -20 -70 -38 -100 -17 -30 -37 -55
-44 -55 -7 0 -13 -4 -13 -9 0 -5 -16 -15 -35 -22 -19 -7 -35 -17 -35 -21 0 -4
8 -8 19 -8 10 0 38 9 62 19 25 11 54 30 65 43 11 13 31 41 44 63 20 35 23 53
22 138 -1 53 -3 101 -6 106 -3 5 -22 12 -41 15 -19 4 -35 10 -35 13 0 3 5 24
12 47 7 22 20 56 30 74 10 18 18 35 18 37 0 3 -10 5 -22 5z"/>
</g>
</svg>
