<?xml version="1.0" standalone="no"?>
<!DOCTYPE svg PUBLIC "-//W3C//DTD SVG 20010904//EN"
 "http://www.w3.org/TR/2001/REC-SVG-20010904/DTD/svg10.dtd">
<svg version="1.0" xmlns="http://www.w3.org/2000/svg"
 width="56.000000pt" height="56.000000pt" viewBox="0 0 56.000000 56.000000"
 preserveAspectRatio="xMidYMid meet">
<metadata>
Created by potrace 1.16, written by Peter Selinger 2001-2019
</metadata>
<g transform="translate(0.000000,56.000000) scale(0.100000,-0.100000)"
fill="#000000" stroke="none">
<path d="M251 560 c-13 0 -21 -10 -25 -32 -4 -18 -11 -63 -15 -99 -4 -36 -11
-71 -15 -77 -3 -6 -1 -29 6 -51 8 -26 19 -41 29 -41 9 0 20 7 23 16 3 9 6 42
6 75 0 43 4 59 14 59 7 0 19 -14 26 -31 11 -25 11 -51 1 -133 -6 -56 -17 -118
-23 -137 -6 -19 -16 -46 -22 -61 -6 -16 -14 -28 -18 -28 -5 0 -8 -4 -8 -10 0
-5 11 -10 24 -10 17 0 28 9 39 33 9 17 22 52 31 77 9 25 16 59 16 75 0 17 5
47 11 69 8 28 7 52 -1 90 -7 28 -23 66 -37 84 -13 17 -31 32 -40 32 -13 0 -15
9 -10 50 5 44 4 50 -12 50z"/>
</g>
</svg>
