<?xml version="1.0" standalone="no"?>
<!DOCTYPE svg PUBLIC "-//W3C//DTD SVG 20010904//EN"
 "http://www.w3.org/TR/2001/REC-SVG-20010904/DTD/svg10.dtd">
<svg version="1.0" xmlns="http://www.w3.org/2000/svg"
 width="56.000000pt" height="56.000000pt" viewBox="0 0 56.000000 56.000000"
 preserveAspectRatio="xMidYMid meet">
<metadata>
Created by potrace 1.16, written by Peter Selinger 2001-2019
</metadata>
<g transform="translate(0.000000,56.000000) scale(0.100000,-0.100000)"
fill="#000000" stroke="none">
<path d="M313 559 c-21 0 -43 -16 -85 -61 -50 -52 -58 -66 -58 -99 0 -21 4
-40 9 -43 5 -3 17 7 27 22 10 15 24 33 31 40 7 8 20 11 28 9 7 -3 21 -17 30
-30 10 -16 16 -52 18 -114 2 -77 -1 -97 -23 -144 -14 -30 -36 -65 -50 -79 -14
-14 -31 -33 -39 -42 -12 -16 -11 -18 11 -18 16 0 41 16 70 43 24 24 56 67 71
95 18 34 27 67 27 96 0 25 -4 48 -10 51 -5 3 -10 22 -10 40 0 19 -10 51 -21
72 -12 21 -30 44 -40 51 -11 7 -19 19 -19 26 0 7 14 25 30 41 17 16 30 32 30
37 0 4 -12 8 -27 7z"/>
</g>
</svg>
