<?xml version="1.0" standalone="no"?>
<!DOCTYPE svg PUBLIC "-//W3C//DTD SVG 20010904//EN"
 "http://www.w3.org/TR/2001/REC-SVG-20010904/DTD/svg10.dtd">
<svg version="1.0" xmlns="http://www.w3.org/2000/svg"
 width="56.000000pt" height="56.000000pt" viewBox="0 0 56.000000 56.000000"
 preserveAspectRatio="xMidYMid meet">
<metadata>
Created by potrace 1.16, written by Peter Selinger 2001-2019
</metadata>
<g transform="translate(0.000000,56.000000) scale(0.100000,-0.100000)"
fill="#000000" stroke="none">
<path d="M329 560 c-15 -1 -32 -12 -46 -33 -12 -18 -32 -50 -44 -72 -12 -22
-28 -62 -35 -90 -8 -27 -14 -66 -14 -85 0 -20 5 -41 12 -48 7 -7 18 -12 25
-12 7 0 13 9 13 20 0 12 7 50 16 85 9 36 23 70 31 76 10 9 17 9 25 1 6 -6 18
-28 26 -49 8 -21 14 -54 13 -73 -1 -19 -15 -63 -32 -98 -18 -34 -44 -72 -60
-83 -16 -11 -29 -27 -29 -35 0 -8 -21 -25 -47 -37 -47 -21 -47 -22 -18 -25 20
-3 34 2 45 15 9 11 27 23 40 27 14 3 46 32 72 64 26 31 59 75 73 96 22 32 26
47 22 80 -3 23 -9 57 -13 76 -3 19 -22 55 -41 80 -21 28 -33 53 -30 65 2 11 8
28 12 38 6 13 2 17 -16 17z"/>
<path d="M304 20 c-19 0 -34 -4 -34 -10 0 -5 18 -10 41 -10 24 0 38 4 34 10
-3 6 -22 10 -41 10z"/>
</g>
</svg>
