<?xml version="1.0" standalone="no"?>
<!DOCTYPE svg PUBLIC "-//W3C//DTD SVG 20010904//EN"
 "http://www.w3.org/TR/2001/REC-SVG-20010904/DTD/svg10.dtd">
<svg version="1.0" xmlns="http://www.w3.org/2000/svg"
 width="56.000000pt" height="56.000000pt" viewBox="0 0 56.000000 56.000000"
 preserveAspectRatio="xMidYMid meet">
<metadata>
Created by potrace 1.16, written by Peter Selinger 2001-2019
</metadata>
<g transform="translate(0.000000,56.000000) scale(0.100000,-0.100000)"
fill="#000000" stroke="none">
<path d="M301 560 c-26 0 -32 -7 -65 -75 -20 -41 -36 -81 -36 -89 0 -7 -6 -19
-13 -25 -8 -6 -20 -29 -27 -52 -11 -32 -11 -45 -2 -60 7 -11 11 -23 8 -27 -2
-4 7 -15 20 -25 19 -14 25 -15 28 -5 2 7 7 35 10 62 3 27 13 60 21 72 10 16
21 21 37 17 13 -3 30 -12 39 -20 11 -9 16 -26 14 -46 -2 -18 -7 -45 -11 -62
-4 -16 -25 -54 -46 -82 -21 -29 -43 -53 -49 -53 -5 0 -25 -16 -44 -35 -19 -19
-35 -39 -35 -45 0 -5 18 -10 39 -10 35 0 46 7 108 71 37 39 78 89 90 112 12
23 22 61 23 84 0 36 -6 47 -46 87 -25 25 -53 47 -62 47 -9 1 -23 1 -29 0 -7
-1 -13 9 -13 22 0 13 16 44 35 68 19 24 35 50 35 57 0 7 -12 12 -29 12z"/>
</g>
</svg>
