<?xml version="1.0" standalone="no"?>
<!DOCTYPE svg PUBLIC "-//W3C//DTD SVG 20010904//EN"
 "http://www.w3.org/TR/2001/REC-SVG-20010904/DTD/svg10.dtd">
<svg version="1.0" xmlns="http://www.w3.org/2000/svg"
 width="56.000000pt" height="56.000000pt" viewBox="0 0 56.000000 56.000000"
 preserveAspectRatio="xMidYMid meet">
<metadata>
Created by potrace 1.16, written by Peter Selinger 2001-2019
</metadata>
<g transform="translate(0.000000,56.000000) scale(0.100000,-0.100000)"
fill="#000000" stroke="none">
<path d="M290 560 c-12 0 -20 -7 -20 -17 0 -9 -18 -54 -40 -99 -22 -46 -40
-90 -40 -98 0 -8 -4 -17 -9 -20 -5 -3 -12 -22 -15 -42 -5 -22 -3 -41 4 -50 9
-10 17 -11 31 -3 14 7 19 21 19 55 0 30 10 67 31 110 17 35 35 64 39 64 4 0
13 -7 20 -15 6 -8 17 -36 24 -62 8 -32 10 -65 4 -98 -5 -27 -13 -59 -18 -70
-5 -11 -16 -43 -25 -72 -11 -36 -31 -66 -62 -98 -46 -45 -46 -45 -10 -45 31 0
44 7 74 41 20 22 46 60 56 82 10 23 25 59 32 81 7 21 12 43 10 50 -2 6 -6 48
-9 94 -3 46 -10 91 -16 101 -5 10 -21 26 -35 35 -17 11 -25 25 -25 46 0 23 -4
30 -20 30z"/>
</g>
</svg>
