<?xml version="1.0" standalone="no"?>
<!DOCTYPE svg PUBLIC "-//W3C//DTD SVG 20010904//EN"
 "http://www.w3.org/TR/2001/REC-SVG-20010904/DTD/svg10.dtd">
<svg version="1.0" xmlns="http://www.w3.org/2000/svg"
 width="56.000000pt" height="56.000000pt" viewBox="0 0 56.000000 56.000000"
 preserveAspectRatio="xMidYMid meet">
<metadata>
Created by potrace 1.16, written by Peter Selinger 2001-2019
</metadata>
<g transform="translate(0.000000,56.000000) scale(0.100000,-0.100000)"
fill="#000000" stroke="none">
<path d="M320 560 c-20 0 -30 -5 -30 -16 0 -8 -19 -43 -42 -77 -23 -34 -55
-75 -70 -92 -19 -20 -28 -41 -28 -62 0 -22 6 -36 19 -42 15 -9 22 -6 35 14 9
13 16 28 16 34 0 5 15 22 33 38 26 23 31 33 23 45 -7 12 0 31 32 80 23 36 42
67 42 71 0 4 -13 7 -30 7z"/>
<path d="M323 400 c-5 0 -13 -3 -16 -7 -4 -3 -1 -13 7 -22 7 -9 17 -29 21 -46
4 -16 9 -54 12 -83 3 -29 0 -65 -5 -82 -6 -16 -26 -49 -44 -74 -18 -24 -46
-52 -63 -63 -30 -18 -30 -18 2 -21 23 -2 43 5 74 28 23 16 48 38 54 48 7 9 17
38 23 64 7 26 12 69 12 96 0 27 -6 65 -14 83 -8 19 -23 44 -34 57 -11 12 -24
22 -29 22z"/>
</g>
</svg>
