<?xml version="1.0" standalone="no"?>
<!DOCTYPE svg PUBLIC "-//W3C//DTD SVG 20010904//EN"
 "http://www.w3.org/TR/2001/REC-SVG-20010904/DTD/svg10.dtd">
<svg version="1.0" xmlns="http://www.w3.org/2000/svg"
 width="56.000000pt" height="56.000000pt" viewBox="0 0 56.000000 56.000000"
 preserveAspectRatio="xMidYMid meet">
<metadata>
Created by potrace 1.16, written by Peter Selinger 2001-2019
</metadata>
<g transform="translate(0.000000,56.000000) scale(0.100000,-0.100000)"
fill="#000000" stroke="none">
<path d="M333 560 c-11 0 -29 -20 -45 -48 -15 -26 -34 -58 -41 -72 -8 -14 -21
-45 -29 -70 -10 -29 -12 -53 -7 -68 5 -12 13 -22 18 -22 6 0 19 10 31 22 11
12 20 34 20 49 0 14 7 43 15 62 8 20 19 38 24 41 5 3 12 -16 16 -44 4 -27 4
-74 0 -102 -3 -29 -11 -66 -17 -83 -5 -16 -19 -49 -30 -72 -11 -23 -42 -65
-69 -94 -27 -29 -49 -54 -49 -56 0 -2 9 -3 20 -3 11 0 41 16 67 35 27 18 59
50 72 70 13 19 28 54 33 78 5 23 14 65 20 93 6 29 8 75 4 108 -6 42 -15 66
-36 89 -25 29 -27 34 -14 52 8 10 14 22 14 27 0 4 -8 8 -17 8z"/>
</g>
</svg>
