<?xml version="1.0" standalone="no"?>
<!DOCTYPE svg PUBLIC "-//W3C//DTD SVG 20010904//EN"
 "http://www.w3.org/TR/2001/REC-SVG-20010904/DTD/svg10.dtd">
<svg version="1.0" xmlns="http://www.w3.org/2000/svg"
 width="56.000000pt" height="56.000000pt" viewBox="0 0 56.000000 56.000000"
 preserveAspectRatio="xMidYMid meet">
<metadata>
Created by potrace 1.16, written by Peter Selinger 2001-2019
</metadata>
<g transform="translate(0.000000,56.000000) scale(0.100000,-0.100000)"
fill="#000000" stroke="none">
<path d="M253 559 c-10 -1 -37 -20 -59 -43 -23 -22 -50 -53 -59 -68 -9 -15
-14 -36 -10 -46 3 -11 14 -22 24 -25 11 -2 32 4 48 14 28 19 28 19 36 -39 4
-31 10 -78 13 -104 5 -36 3 -48 -8 -49 -7 -1 -21 0 -31 1 -10 1 -27 -6 -38
-16 -10 -9 -19 -20 -19 -24 0 -4 19 -29 42 -55 23 -26 60 -61 82 -77 21 -15
51 -28 66 -28 15 0 33 6 39 14 9 11 8 17 -3 29 -9 8 -34 18 -57 22 -41 7 -41
7 -37 89 3 82 3 82 58 144 30 34 60 77 67 95 6 18 12 50 12 73 1 28 -5 46 -17
57 -10 10 -25 17 -33 17 -8 0 -50 -22 -94 -50 -44 -27 -83 -50 -87 -50 -4 0
-8 4 -8 8 0 4 20 28 45 52 25 24 45 48 45 52 0 4 -8 7 -17 7z m102 -73 c6 -2
9 -18 7 -35 -1 -18 -14 -54 -27 -82 -14 -27 -30 -49 -35 -49 -6 0 -10 20 -10
44 0 25 -4 48 -10 51 -5 3 -10 13 -10 20 0 8 17 23 38 34 20 11 42 19 47 17z"/>
</g>
</svg>
