<?xml version="1.0" standalone="no"?>
<!DOCTYPE svg PUBLIC "-//W3C//DTD SVG 20010904//EN"
 "http://www.w3.org/TR/2001/REC-SVG-20010904/DTD/svg10.dtd">
<svg version="1.0" xmlns="http://www.w3.org/2000/svg"
 width="56.000000pt" height="56.000000pt" viewBox="0 0 56.000000 56.000000"
 preserveAspectRatio="xMidYMid meet">
<metadata>
Created by potrace 1.16, written by Peter Selinger 2001-2019
</metadata>
<g transform="translate(0.000000,56.000000) scale(0.100000,-0.100000)"
fill="#000000" stroke="none">
<path d="M366 560 c-12 -1 -25 -5 -31 -11 -5 -5 -41 -36 -79 -69 -38 -33 -75
-60 -81 -60 -7 0 -16 8 -19 17 -5 11 -10 13 -17 6 -6 -6 -9 -21 -7 -33 1 -13
11 -28 20 -34 13 -8 25 -6 48 7 16 10 34 16 39 13 4 -3 11 -48 15 -101 3 -53
4 -100 1 -105 -4 -6 -14 -5 -25 3 -16 9 -23 9 -36 -5 -11 -11 -14 -25 -10 -46
4 -16 19 -44 34 -61 15 -17 35 -42 45 -56 15 -21 26 -25 72 -25 43 0 56 4 65
19 5 11 10 24 10 29 0 7 -13 6 -35 -1 -26 -8 -42 -7 -61 2 -26 11 -27 14 -20
72 5 49 11 65 31 81 14 11 35 41 47 66 11 26 25 63 31 82 5 19 12 60 14 90 4
40 0 63 -13 87 -11 22 -24 33 -38 33z m-9 -40 c9 0 13 -17 13 -63 0 -37 -8
-88 -21 -124 -11 -34 -27 -64 -35 -67 -11 -4 -14 7 -14 57 0 40 -5 70 -15 83
-8 10 -15 24 -15 30 0 6 17 27 37 47 20 21 42 37 50 37z"/>
</g>
</svg>
