<?xml version="1.0" standalone="no"?>
<!DOCTYPE svg PUBLIC "-//W3C//DTD SVG 20010904//EN"
 "http://www.w3.org/TR/2001/REC-SVG-20010904/DTD/svg10.dtd">
<svg version="1.0" xmlns="http://www.w3.org/2000/svg"
 width="56.000000pt" height="56.000000pt" viewBox="0 0 56.000000 56.000000"
 preserveAspectRatio="xMidYMid meet">
<metadata>
Created by potrace 1.16, written by Peter Selinger 2001-2019
</metadata>
<g transform="translate(0.000000,56.000000) scale(0.100000,-0.100000)"
fill="#000000" stroke="none">
<path d="M301 560 c-26 0 -32 -7 -64 -77 -20 -43 -47 -90 -61 -105 -14 -15
-26 -34 -26 -42 0 -8 5 -27 12 -41 6 -14 19 -25 29 -25 12 0 25 16 37 43 11
23 32 55 48 71 27 29 27 29 43 0 10 -20 15 -52 13 -100 -1 -61 -7 -80 -34
-128 -18 -30 -37 -56 -43 -56 -5 0 -29 -19 -52 -41 -24 -22 -43 -45 -43 -51 0
-7 17 -8 48 -3 26 3 65 17 88 30 23 13 48 34 56 47 8 13 22 43 30 68 9 25 18
61 19 80 2 19 -3 62 -10 95 -7 32 -28 81 -46 108 -29 42 -32 53 -24 80 5 18 9
35 9 39 0 5 -13 8 -29 8z"/>
</g>
</svg>
