<?xml version="1.0" standalone="no"?>
<!DOCTYPE svg PUBLIC "-//W3C//DTD SVG 20010904//EN"
 "http://www.w3.org/TR/2001/REC-SVG-20010904/DTD/svg10.dtd">
<svg version="1.0" xmlns="http://www.w3.org/2000/svg"
 width="56.000000pt" height="56.000000pt" viewBox="0 0 56.000000 56.000000"
 preserveAspectRatio="xMidYMid meet">
<metadata>
Created by potrace 1.16, written by Peter Selinger 2001-2019
</metadata>
<g transform="translate(0.000000,56.000000) scale(0.100000,-0.100000)"
fill="#000000" stroke="none">
<path d="M233 560 c-11 0 -25 -10 -31 -22 -6 -13 -16 -39 -23 -59 -10 -29 -10
-46 1 -83 9 -32 18 -46 28 -44 8 2 19 12 25 23 6 11 13 27 17 35 4 8 17 16 29
18 15 3 24 -4 32 -25 6 -15 9 -59 7 -98 -4 -52 -13 -86 -36 -135 -18 -36 -32
-70 -32 -77 0 -6 -18 -30 -40 -52 -41 -41 -41 -41 -12 -41 19 0 37 10 53 28
13 15 34 41 45 57 12 17 31 57 43 90 12 33 25 92 28 131 3 44 1 84 -7 108 -6
20 -23 44 -36 52 -17 12 -35 14 -60 9 -36 -6 -37 -6 -31 22 3 15 9 36 12 46 5
12 2 17 -12 17z"/>
</g>
</svg>
