<?xml version="1.0" standalone="no"?>
<!DOCTYPE svg PUBLIC "-//W3C//DTD SVG 20010904//EN"
 "http://www.w3.org/TR/2001/REC-SVG-20010904/DTD/svg10.dtd">
<svg version="1.0" xmlns="http://www.w3.org/2000/svg"
 width="56.000000pt" height="56.000000pt" viewBox="0 0 56.000000 56.000000"
 preserveAspectRatio="xMidYMid meet">
<metadata>
Created by potrace 1.16, written by Peter Selinger 2001-2019
</metadata>
<g transform="translate(0.000000,56.000000) scale(0.100000,-0.100000)"
fill="#000000" stroke="none">
<path d="M146 560 c-14 0 -26 -4 -26 -10 0 -5 9 -10 19 -10 11 0 23 5 26 10 4
6 -5 10 -19 10z"/>
<path d="M380 560 c-35 0 -50 -4 -50 -13 0 -8 -24 -40 -52 -73 -29 -32 -77
-82 -106 -111 -50 -50 -52 -53 -46 -93 4 -22 10 -43 14 -45 5 -3 15 -3 23 0 7
3 24 26 36 50 18 36 30 47 61 56 21 6 50 9 64 5 22 -5 26 -12 28 -49 1 -23 1
-55 1 -71 -1 -16 -12 -49 -24 -73 -13 -25 -41 -60 -64 -79 -22 -19 -49 -41
-60 -49 -19 -14 -19 -14 7 -15 16 0 49 15 78 36 27 20 50 39 50 43 0 4 13 12
29 18 23 8 30 18 36 52 4 22 10 43 14 46 5 2 9 32 9 66 1 34 -3 71 -9 81 -5
10 -16 18 -24 18 -9 0 -24 14 -34 31 -11 18 -17 37 -14 44 2 8 22 26 44 41 30
20 39 33 39 55 0 28 -2 29 -50 29z"/>
</g>
</svg>
