<?xml version="1.0" standalone="no"?>
<!DOCTYPE svg PUBLIC "-//W3C//DTD SVG 20010904//EN"
 "http://www.w3.org/TR/2001/REC-SVG-20010904/DTD/svg10.dtd">
<svg version="1.0" xmlns="http://www.w3.org/2000/svg"
 width="56.000000pt" height="56.000000pt" viewBox="0 0 56.000000 56.000000"
 preserveAspectRatio="xMidYMid meet">
<metadata>
Created by potrace 1.16, written by Peter Selinger 2001-2019
</metadata>
<g transform="translate(0.000000,56.000000) scale(0.100000,-0.100000)"
fill="#000000" stroke="none">
<path d="M306 560 c-23 0 -35 -5 -39 -17 -4 -10 -18 -38 -33 -63 -14 -25 -35
-57 -45 -72 -11 -14 -19 -29 -19 -32 0 -3 -13 -28 -30 -56 -25 -43 -28 -54
-18 -70 7 -11 21 -20 31 -20 9 0 23 12 30 28 6 15 16 32 22 38 5 6 21 29 35
51 14 22 37 45 53 51 25 9 30 7 52 -22 19 -25 25 -45 25 -84 0 -28 -4 -54 -10
-57 -5 -3 -10 -14 -10 -24 0 -9 -10 -31 -22 -47 -13 -17 -48 -52 -78 -80 -30
-27 -66 -57 -80 -67 -25 -18 -25 -18 33 -12 38 5 71 15 95 32 20 14 47 29 60
34 12 5 22 15 22 23 0 9 8 30 18 48 11 18 24 56 31 84 9 37 10 63 3 88 -6 19
-20 49 -31 65 -12 16 -21 33 -21 38 0 6 -9 18 -19 27 -13 11 -27 15 -40 11
-13 -4 -21 -2 -21 5 0 6 9 30 20 52 11 23 20 43 20 45 0 2 -15 3 -34 3z"/>
</g>
</svg>
