<?xml version="1.0" standalone="no"?>
<!DOCTYPE svg PUBLIC "-//W3C//DTD SVG 20010904//EN"
 "http://www.w3.org/TR/2001/REC-SVG-20010904/DTD/svg10.dtd">
<svg version="1.0" xmlns="http://www.w3.org/2000/svg"
 width="56.000000pt" height="56.000000pt" viewBox="0 0 56.000000 56.000000"
 preserveAspectRatio="xMidYMid meet">
<metadata>
Created by potrace 1.16, written by Peter Selinger 2001-2019
</metadata>
<g transform="translate(0.000000,56.000000) scale(0.100000,-0.100000)"
fill="#000000" stroke="none">
<path d="M255 560 c-96 0 -125 -3 -125 -13 0 -7 5 -18 12 -25 7 -7 19 -12 28
-12 8 0 28 7 44 15 15 8 39 15 52 15 13 0 24 -5 24 -12 0 -6 -19 -36 -42 -66
-23 -30 -47 -63 -53 -72 -5 -10 -23 -34 -38 -54 -16 -19 -26 -40 -22 -46 3 -5
23 -10 44 -10 25 0 44 7 56 20 10 11 23 30 29 43 7 12 18 22 25 22 8 0 25 -20
38 -44 16 -30 23 -61 23 -97 0 -46 -5 -58 -39 -101 -21 -26 -50 -59 -65 -72
-14 -14 -26 -30 -26 -38 0 -7 2 -13 5 -13 3 0 31 13 63 29 31 16 68 40 81 55
15 16 24 38 25 63 0 21 8 43 16 50 12 9 13 17 2 45 -6 19 -12 44 -12 56 0 11
-5 33 -12 47 -6 14 -14 25 -18 25 -4 0 -23 12 -42 28 -35 27 -35 27 -21 67 8
26 24 47 43 58 17 10 30 22 30 28 0 5 -53 9 -125 9z"/>
</g>
</svg>
