<?xml version="1.0" standalone="no"?>
<!DOCTYPE svg PUBLIC "-//W3C//DTD SVG 20010904//EN"
 "http://www.w3.org/TR/2001/REC-SVG-20010904/DTD/svg10.dtd">
<svg version="1.0" xmlns="http://www.w3.org/2000/svg"
 width="128.000000pt" height="128.000000pt" viewBox="0 0 128.000000 128.000000"
 preserveAspectRatio="xMidYMid meet">
<metadata>
Created by potrace 1.16, written by Peter Selinger 2001-2019
</metadata>
<g transform="translate(0.000000,128.000000) scale(0.100000,-0.100000)"
fill="#000000" stroke="none">
<path d="M1138 1195 c-23 2 -52 2 -63 -1 -11 -3 -49 -12 -85 -21 -36 -9 -69
-20 -74 -25 -6 -4 -19 -8 -30 -8 -11 0 -36 -5 -55 -12 -20 -6 -69 -24 -110
-40 -40 -15 -84 -28 -97 -28 -12 0 -26 -4 -29 -10 -3 -5 -23 -10 -43 -11 -20
0 -73 -6 -117 -14 -44 -7 -118 -23 -165 -34 -47 -11 -101 -20 -121 -20 -26 -1
-46 8 -76 34 -23 19 -46 35 -51 35 -6 0 -13 -4 -16 -9 -3 -5 1 -30 9 -56 7
-26 26 -61 41 -76 18 -19 38 -29 56 -29 15 0 47 4 70 10 24 5 88 17 143 26 55
10 122 26 149 35 27 10 53 16 58 12 6 -3 7 -19 4 -35 -3 -16 -21 -48 -39 -71
-18 -23 -45 -61 -60 -84 -15 -24 -27 -49 -27 -56 0 -7 -13 -31 -29 -53 -16
-21 -46 -73 -67 -114 -21 -41 -49 -90 -61 -109 -20 -29 -23 -47 -23 -133 0
-82 3 -100 16 -105 9 -3 23 -2 31 3 8 5 25 41 39 79 14 41 22 80 19 94 -5 18
0 29 20 45 16 13 30 38 36 64 5 24 25 77 45 118 19 42 42 78 50 81 9 3 20 1
27 -6 6 -6 19 -11 28 -11 10 0 25 -7 33 -16 11 -10 14 -24 10 -42 -4 -15 -13
-37 -20 -49 -8 -13 -22 -23 -32 -23 -10 0 -30 -6 -45 -12 -15 -7 -27 -18 -27
-24 0 -7 9 -14 21 -17 12 -3 18 -10 15 -15 -3 -6 -15 -8 -26 -5 -15 4 -22 -2
-31 -23 -6 -16 -15 -51 -19 -79 -5 -27 -20 -81 -34 -118 -14 -37 -26 -85 -26
-106 0 -22 6 -44 15 -51 9 -8 29 -10 53 -7 25 4 43 1 56 -8 11 -8 35 -15 53
-15 25 0 33 4 33 18 0 10 8 28 17 42 11 16 19 56 24 127 4 56 10 117 14 134 7
30 6 31 -19 27 -15 -3 -29 -2 -31 2 -3 4 2 24 10 44 8 20 22 36 30 36 7 0 16
4 20 10 3 5 0 18 -6 28 -11 17 -7 24 23 55 19 19 40 49 46 66 6 17 8 31 3 31
-4 0 -16 -7 -27 -15 -10 -8 -22 -15 -26 -15 -5 0 -8 6 -8 13 0 7 -13 26 -29
42 -25 23 -36 27 -67 22 -36 -6 -36 -6 -31 29 3 19 15 46 27 61 11 14 30 57
41 95 12 38 28 72 36 75 7 3 20 21 28 39 8 19 18 34 23 34 6 0 13 -16 16 -36
5 -22 3 -41 -5 -50 -6 -8 -10 -16 -8 -19 3 -2 25 1 49 6 25 6 49 14 55 20 5 5
19 9 31 9 12 0 29 3 38 6 9 3 16 14 16 24 0 11 -4 21 -9 24 -4 3 -6 17 -3 31
2 15 11 25 21 25 13 0 18 -8 18 -30 0 -17 5 -36 11 -42 6 -6 18 -8 26 -5 10 4
16 18 16 36 0 22 4 29 14 25 8 -3 16 -15 18 -27 3 -20 10 -22 68 -26 36 -1 87
-3 114 -2 27 1 60 8 73 16 17 12 23 25 23 53 0 30 -7 45 -34 71 -26 25 -45 34
-78 36z m-612 -758 c2 -1 -3 -21 -9 -45 -6 -23 -17 -42 -23 -42 -7 0 -16 10
-20 22 -5 17 0 27 22 44 15 13 29 22 30 21z m30 -49 c8 -2 16 -7 17 -13 1 -5
-6 -11 -15 -13 -11 -2 -18 3 -18 13 0 10 6 15 16 13z"/>
<path d="M965 859 c-5 -1 -29 -5 -53 -10 -23 -4 -47 -11 -52 -14 -6 -3 -10
-18 -10 -32 0 -19 4 -24 18 -20 9 2 22 6 27 7 6 1 20 2 33 1 12 0 22 -5 22
-11 0 -5 -8 -9 -17 -8 -10 1 -26 0 -36 0 -17 -2 -17 -3 2 -27 16 -22 18 -31 9
-56 -6 -17 -17 -33 -25 -36 -8 -3 -19 -1 -25 5 -7 7 -17 3 -33 -16 -12 -15
-28 -38 -35 -51 -10 -20 -10 -26 2 -35 8 -6 13 -17 11 -23 -3 -7 -11 -13 -19
-13 -8 0 -14 8 -14 17 0 16 -1 16 -17 0 -10 -9 -23 -43 -29 -75 -7 -31 -8 -61
-4 -65 4 -5 26 3 49 17 22 15 41 30 41 35 0 6 13 9 28 9 15 -1 38 5 51 11 12
7 21 20 19 29 -2 9 -13 21 -25 27 -22 11 -22 11 -1 46 11 19 50 66 85 106 45
50 66 82 70 107 5 31 2 37 -28 55 -19 12 -38 20 -44 20z"/>
<path d="M827 800 c-8 0 -17 -3 -20 -7 -4 -3 -7 -14 -7 -24 0 -10 -8 -20 -18
-23 -11 -4 -30 -18 -43 -32 -24 -26 -24 -26 6 -18 17 4 33 9 38 11 4 2 7 11 7
19 0 8 11 19 25 24 15 6 25 17 25 30 0 11 -6 20 -13 20z"/>
<path d="M1155 640 c-1 0 -10 -6 -21 -14 -10 -8 -28 -13 -39 -10 -11 3 -49 -6
-85 -19 -35 -14 -69 -32 -75 -41 -8 -14 -5 -22 14 -37 19 -16 33 -18 72 -13
26 4 59 4 73 0 15 -3 26 -13 26 -20 0 -8 -30 -40 -67 -71 -38 -31 -85 -65
-105 -76 -20 -10 -41 -25 -45 -32 -4 -7 -26 -21 -48 -31 -22 -10 -46 -25 -52
-34 -7 -9 -13 -28 -13 -43 0 -15 6 -31 13 -36 6 -4 32 -13 57 -20 25 -7 56
-12 70 -13 14 0 53 -7 85 -15 33 -9 78 -25 101 -35 22 -11 50 -20 61 -20 12 0
29 8 38 17 12 12 15 26 11 51 -3 19 -12 42 -21 52 -9 10 -44 27 -78 38 -34 11
-82 22 -106 25 -24 3 -48 10 -54 16 -7 7 8 19 49 38 32 16 91 47 129 70 39 23
77 49 86 60 9 10 20 31 23 48 4 16 13 33 19 37 9 5 7 15 -6 37 -9 16 -17 36
-17 44 0 9 -19 22 -47 31 -26 9 -47 16 -48 16z m-79 -80 c8 0 14 -4 14 -10 0
-5 -9 -10 -21 -10 -11 0 -17 5 -14 10 3 6 13 10 21 10z m-210 -340 c8 0 14 -4
14 -10 0 -5 -9 -10 -21 -10 -11 0 -17 5 -14 10 3 6 13 10 21 10z"/>
</g>
</svg>
