<?xml version="1.0" standalone="no"?>
<!DOCTYPE svg PUBLIC "-//W3C//DTD SVG 20010904//EN"
 "http://www.w3.org/TR/2001/REC-SVG-20010904/DTD/svg10.dtd">
<svg version="1.0" xmlns="http://www.w3.org/2000/svg"
 width="128.000000pt" height="128.000000pt" viewBox="0 0 128.000000 128.000000"
 preserveAspectRatio="xMidYMid meet">
<metadata>
Created by potrace 1.16, written by Peter Selinger 2001-2019
</metadata>
<g transform="translate(0.000000,128.000000) scale(0.100000,-0.100000)"
fill="#000000" stroke="none">
<path d="M1098 1256 c-54 3 -71 0 -91 -16 -14 -11 -31 -20 -38 -20 -7 0 -22
-9 -34 -20 -12 -11 -39 -22 -61 -24 -22 -1 -51 -9 -64 -16 -14 -7 -33 -19 -42
-27 -9 -8 -36 -20 -60 -27 -27 -8 -47 -21 -53 -35 -5 -12 -21 -25 -35 -28 -14
-3 -68 -26 -120 -50 -52 -24 -121 -57 -153 -74 -31 -16 -63 -29 -70 -29 -7 0
-30 -9 -51 -21 -31 -16 -44 -19 -62 -10 -14 6 -24 21 -26 38 -3 24 -8 28 -38
31 -19 1 -42 -2 -50 -7 -8 -6 -17 -35 -21 -73 -5 -54 -3 -69 18 -108 13 -25
31 -58 41 -74 10 -16 25 -34 34 -40 13 -8 24 -5 45 12 15 12 48 32 73 43 25
11 60 34 78 52 21 21 30 37 26 49 -3 12 0 18 10 18 9 0 16 -4 16 -10 0 -5 11
-10 23 -10 13 0 49 18 80 41 32 22 57 45 57 50 0 6 -8 9 -17 8 -10 -1 -24 -1
-30 0 -7 0 -13 8 -13 17 0 9 8 23 18 30 9 7 32 14 50 14 28 0 32 -3 32 -25 0
-17 5 -25 18 -25 9 0 22 4 28 8 6 4 16 17 23 29 7 15 8 24 1 28 -6 4 -8 11 -5
16 4 5 17 9 29 9 13 0 39 -6 58 -14 19 -8 41 -22 48 -31 11 -13 7 -18 -29 -32
-31 -12 -41 -21 -41 -39 0 -17 -9 -25 -34 -34 -19 -6 -40 -18 -47 -26 -10 -12
-10 -20 -1 -35 7 -10 12 -21 12 -24 0 -3 -18 -5 -41 -5 -31 0 -47 -6 -67 -28
-15 -15 -37 -39 -49 -52 -12 -14 -40 -42 -62 -63 -21 -21 -49 -58 -61 -82 -12
-24 -20 -51 -17 -59 4 -9 0 -30 -7 -48 -7 -18 -17 -65 -20 -105 -5 -46 -3 -80
4 -93 7 -13 21 -20 40 -20 21 0 30 6 36 23 3 12 15 34 25 49 11 14 19 31 19
38 0 6 16 39 35 71 19 33 35 71 35 83 0 13 9 44 20 69 11 25 27 47 35 51 11 4
15 18 13 53 -3 48 -3 48 40 63 29 10 45 22 48 37 4 13 12 23 20 23 7 0 18 -9
24 -20 8 -14 7 -39 -1 -87 -6 -38 -19 -80 -30 -95 -10 -15 -19 -32 -19 -37 0
-6 -12 -32 -26 -58 -15 -26 -33 -57 -40 -68 -8 -11 -14 -27 -14 -36 0 -9 -13
-40 -28 -70 -16 -30 -32 -71 -35 -91 -3 -21 -2 -40 3 -43 5 -3 27 4 50 16 23
12 55 40 71 62 16 22 34 59 40 81 6 23 15 51 20 64 5 12 15 22 23 22 7 0 19
-6 25 -14 9 -11 10 -20 1 -35 -7 -15 -7 -39 0 -87 10 -61 9 -69 -9 -88 -10
-12 -21 -30 -23 -41 -2 -11 -12 -21 -23 -23 -11 -1 -51 -13 -88 -25 -41 -13
-79 -33 -95 -50 -27 -28 -27 -28 88 -24 63 3 140 9 170 15 30 5 87 21 125 35
39 13 95 30 125 37 48 11 63 22 120 81 36 37 76 82 89 99 19 25 25 48 29 105
4 68 2 77 -24 121 -16 25 -39 57 -51 70 -12 14 -34 24 -48 24 -15 0 -46 -12
-70 -26 -27 -15 -42 -30 -39 -39 3 -7 1 -16 -4 -19 -6 -3 -22 -2 -36 4 -16 6
-26 17 -26 30 0 11 -11 42 -24 68 -13 26 -54 78 -91 116 -50 53 -65 75 -61 91
3 11 27 43 54 69 27 27 62 56 78 65 16 9 43 25 61 36 17 11 38 34 47 52 14 29
20 33 55 33 31 0 44 6 60 26 16 20 26 25 46 20 17 -4 31 0 45 14 11 11 20 28
20 38 0 9 -9 32 -20 50 -11 17 -28 32 -37 33 -10 1 -48 3 -85 5z m-96 -56 c4
0 8 -7 8 -15 0 -8 -7 -15 -15 -15 -8 0 -15 4 -15 8 0 5 3 12 7 15 3 4 10 7 15
7z m-43 -40 c10 0 21 -9 24 -20 3 -11 1 -20 -3 -20 -5 0 -15 3 -24 6 -9 3 -16
12 -16 20 0 8 8 14 19 14z m-125 -530 c17 0 27 -11 44 -48 12 -27 22 -59 22
-71 0 -13 14 -36 30 -51 17 -15 30 -35 30 -43 0 -9 5 -19 11 -22 5 -4 22 -4
35 -1 18 5 24 12 20 22 -3 9 -1 24 4 35 8 14 21 19 50 19 28 0 40 -5 44 -17 3
-10 8 -35 12 -55 3 -21 3 -53 0 -71 -5 -26 -19 -43 -60 -74 -46 -34 -65 -41
-120 -47 -51 -5 -71 -3 -98 11 -33 17 -33 17 -34 121 -2 89 -5 109 -23 133
-12 15 -21 35 -21 43 0 8 5 18 11 22 6 3 8 17 5 30 -4 14 -2 33 4 44 6 11 21
20 34 20z m69 -493 c7 -2 13 -11 15 -20 2 -10 -3 -17 -12 -17 -8 0 -18 5 -21
10 -3 6 -3 15 0 21 4 5 12 8 18 6z"/>
</g>
</svg>
