<?xml version="1.0" standalone="no"?>
<!DOCTYPE svg PUBLIC "-//W3C//DTD SVG 20010904//EN"
 "http://www.w3.org/TR/2001/REC-SVG-20010904/DTD/svg10.dtd">
<svg version="1.0" xmlns="http://www.w3.org/2000/svg"
 width="56.000000pt" height="56.000000pt" viewBox="0 0 56.000000 56.000000"
 preserveAspectRatio="xMidYMid meet">
<metadata>
Created by potrace 1.16, written by Peter Selinger 2001-2019
</metadata>
<g transform="translate(0.000000,56.000000) scale(0.100000,-0.100000)"
fill="#000000" stroke="none">
<path d="M428 480 c-9 0 -19 -4 -23 -9 -3 -5 -1 -12 4 -15 5 -4 21 -27 35 -52
14 -25 28 -62 32 -82 4 -20 11 -42 16 -49 7 -8 17 -9 39 -1 25 9 29 15 29 46
0 27 -10 49 -36 82 -19 25 -45 53 -57 62 -12 10 -30 18 -39 18z"/>
<path d="M552 480 c-5 0 -12 -3 -15 -6 -4 -4 -4 -11 -1 -15 3 -5 9 -9 15 -9 5
0 9 7 9 15 0 8 -4 15 -8 15z"/>
<path d="M4 390 c-2 0 -4 -10 -4 -22 1 -13 14 -61 30 -107 24 -70 38 -94 82
-138 29 -29 57 -53 64 -53 6 0 18 8 27 18 10 10 17 25 17 34 0 8 -11 26 -24
39 -13 13 -41 38 -63 56 -22 18 -52 55 -67 82 -14 28 -26 57 -26 65 0 8 -7 17
-16 20 -9 3 -18 6 -20 6z"/>
</g>
</svg>
