<?xml version="1.0" standalone="no"?>
<!DOCTYPE svg PUBLIC "-//W3C//DTD SVG 20010904//EN"
 "http://www.w3.org/TR/2001/REC-SVG-20010904/DTD/svg10.dtd">
<svg version="1.0" xmlns="http://www.w3.org/2000/svg"
 width="56.000000pt" height="56.000000pt" viewBox="0 0 56.000000 56.000000"
 preserveAspectRatio="xMidYMid meet">
<metadata>
Created by potrace 1.16, written by Peter Selinger 2001-2019
</metadata>
<g transform="translate(0.000000,56.000000) scale(0.100000,-0.100000)"
fill="#000000" stroke="none">
<path d="M91 425 c-5 3 -22 -5 -36 -18 -24 -20 -28 -33 -33 -95 -3 -55 -1 -77
11 -96 9 -13 29 -33 45 -44 28 -21 28 -21 78 38 27 32 54 59 60 59 6 1 19 10
29 21 10 11 38 31 63 45 24 14 53 25 63 25 10 0 26 -12 37 -27 10 -16 22 -43
25 -61 6 -27 0 -43 -28 -87 -18 -29 -35 -62 -37 -72 -2 -12 4 -19 18 -21 15
-2 29 7 45 28 13 17 36 46 51 64 16 19 28 37 28 42 0 4 7 15 16 25 11 12 14
27 9 48 -3 17 -22 46 -42 66 -21 21 -45 35 -60 35 -13 0 -33 5 -44 10 -13 8
-31 7 -58 -1 -26 -8 -67 -38 -122 -90 -45 -44 -86 -79 -90 -79 -3 0 -15 12
-24 27 -10 15 -19 47 -19 72 -1 27 4 46 12 48 6 3 12 11 12 18 0 8 -4 16 -9
20z"/>
</g>
</svg>
