<?xml version="1.0" standalone="no"?>
<!DOCTYPE svg PUBLIC "-//W3C//DTD SVG 20010904//EN"
 "http://www.w3.org/TR/2001/REC-SVG-20010904/DTD/svg10.dtd">
<svg version="1.0" xmlns="http://www.w3.org/2000/svg"
 width="56.000000pt" height="56.000000pt" viewBox="0 0 56.000000 56.000000"
 preserveAspectRatio="xMidYMid meet">
<metadata>
Created by potrace 1.16, written by Peter Selinger 2001-2019
</metadata>
<g transform="translate(0.000000,56.000000) scale(0.100000,-0.100000)"
fill="#000000" stroke="none">
<path d="M392 446 c-16 3 -32 1 -36 -4 -3 -6 18 -35 47 -65 30 -30 63 -72 74
-93 11 -22 28 -41 37 -42 11 -2 19 4 23 17 3 12 9 21 14 21 5 0 9 6 9 13 0 6
-31 42 -69 80 -43 41 -81 69 -99 73z"/>
<path d="M29 380 c-4 0 -10 -3 -13 -8 -2 -4 0 -28 6 -52 6 -25 17 -65 26 -89
8 -24 30 -61 50 -83 19 -21 42 -38 52 -38 11 0 25 14 34 32 9 17 16 35 16 40
0 4 -17 15 -38 23 -24 10 -48 31 -65 58 -15 23 -30 53 -34 67 -3 14 -10 31
-16 38 -5 6 -13 12 -18 12z"/>
</g>
</svg>
