<?xml version="1.0" standalone="no"?>
<!DOCTYPE svg PUBLIC "-//W3C//DTD SVG 20010904//EN"
 "http://www.w3.org/TR/2001/REC-SVG-20010904/DTD/svg10.dtd">
<svg version="1.0" xmlns="http://www.w3.org/2000/svg"
 width="56.000000pt" height="56.000000pt" viewBox="0 0 56.000000 56.000000"
 preserveAspectRatio="xMidYMid meet">
<metadata>
Created by potrace 1.16, written by Peter Selinger 2001-2019
</metadata>
<g transform="translate(0.000000,56.000000) scale(0.100000,-0.100000)"
fill="#000000" stroke="none">
<path d="M356 560 c-13 0 -26 -4 -28 -8 -1 -4 -24 -25 -50 -47 -27 -22 -48
-45 -48 -53 0 -9 7 -11 23 -6 12 4 24 10 27 13 3 4 16 15 30 24 13 9 33 17 43
17 11 0 41 -18 68 -41 28 -24 49 -49 49 -61 0 -10 -5 -29 -11 -40 -6 -11 -31
-46 -54 -77 -24 -32 -78 -92 -119 -133 -42 -42 -76 -79 -76 -84 0 -4 -12 -21
-27 -36 -24 -26 -25 -28 -7 -28 11 0 41 24 69 56 28 30 68 72 90 92 22 20 54
52 71 70 17 17 35 32 40 32 5 0 25 12 43 28 31 26 33 31 34 95 1 56 -2 71 -20
90 -12 12 -31 32 -43 45 -11 12 -34 25 -50 29 -17 3 -30 9 -30 14 0 5 -11 9
-24 9z"/>
<path d="M54 500 c-28 0 -34 -4 -34 -21 0 -12 8 -23 20 -26 12 -3 30 -27 45
-60 14 -31 25 -61 25 -67 0 -7 11 -23 24 -35 14 -13 30 -20 36 -16 8 5 10 21
7 41 -3 19 -2 34 4 34 5 0 9 9 9 20 0 11 -6 20 -14 20 -8 0 -18 9 -21 21 -4
11 -20 36 -37 55 -23 26 -38 34 -64 34z"/>
</g>
</svg>
