<?xml version="1.0" standalone="no"?>
<!DOCTYPE svg PUBLIC "-//W3C//DTD SVG 20010904//EN"
 "http://www.w3.org/TR/2001/REC-SVG-20010904/DTD/svg10.dtd">
<svg version="1.0" xmlns="http://www.w3.org/2000/svg"
 width="56.000000pt" height="56.000000pt" viewBox="0 0 56.000000 56.000000"
 preserveAspectRatio="xMidYMid meet">
<metadata>
Created by potrace 1.16, written by Peter Selinger 2001-2019
</metadata>
<g transform="translate(0.000000,56.000000) scale(0.100000,-0.100000)"
fill="#000000" stroke="none">
<path d="M37 484 c-7 9 -16 14 -20 10 -4 -4 -7 -30 -7 -57 0 -27 10 -79 22
-114 14 -40 32 -71 45 -80 13 -9 23 -21 23 -29 0 -8 18 -25 41 -39 32 -21 44
-24 54 -15 8 7 25 35 38 63 13 29 27 64 30 78 4 17 18 31 37 39 17 7 39 23 49
36 11 13 22 24 26 24 4 0 25 -14 47 -32 40 -32 40 -32 35 -92 -2 -34 -16 -87
-30 -118 -14 -31 -35 -63 -46 -70 -12 -7 -21 -18 -21 -25 0 -8 15 -13 40 -13
33 0 40 3 40 20 0 11 6 20 14 20 8 0 28 17 44 38 16 20 32 49 36 65 3 15 11
27 16 27 6 0 10 15 10 34 0 21 -6 36 -15 40 -9 3 -15 18 -15 35 0 21 -8 36
-27 50 -16 12 -33 25 -40 31 -7 5 -18 10 -26 10 -7 0 -16 3 -20 6 -3 3 -26 8
-50 10 -42 3 -47 1 -89 -44 -24 -26 -59 -66 -77 -89 -19 -24 -39 -43 -44 -43
-6 0 -23 14 -39 32 -15 17 -28 36 -28 42 -1 6 -9 29 -20 51 -11 22 -19 49 -20
61 0 11 -6 28 -13 38z"/>
</g>
</svg>
