<?xml version="1.0" standalone="no"?>
<!DOCTYPE svg PUBLIC "-//W3C//DTD SVG 20010904//EN"
 "http://www.w3.org/TR/2001/REC-SVG-20010904/DTD/svg10.dtd">
<svg version="1.0" xmlns="http://www.w3.org/2000/svg"
 width="56.000000pt" height="56.000000pt" viewBox="0 0 56.000000 56.000000"
 preserveAspectRatio="xMidYMid meet">
<metadata>
Created by potrace 1.16, written by Peter Selinger 2001-2019
</metadata>
<g transform="translate(0.000000,56.000000) scale(0.100000,-0.100000)"
fill="#000000" stroke="none">
<path d="M265 507 c-33 -1 -81 -4 -106 -8 -26 -4 -56 -12 -67 -18 -11 -6 -30
-24 -42 -40 -15 -22 -22 -52 -27 -109 -4 -52 -1 -92 7 -118 7 -21 22 -52 32
-67 11 -15 38 -39 59 -53 21 -13 47 -24 57 -24 10 0 28 10 39 23 11 12 24 35
27 51 4 16 28 51 54 77 26 26 60 52 75 58 19 8 34 7 52 -1 14 -6 25 -15 25
-20 0 -4 -9 -28 -20 -51 -11 -24 -38 -61 -60 -82 -22 -22 -40 -47 -40 -57 0
-13 8 -18 28 -18 18 0 37 10 53 28 14 15 45 53 68 85 39 51 43 62 38 97 -3 23
-13 52 -22 67 -16 23 -21 25 -75 21 -43 -3 -67 -11 -93 -31 -19 -14 -57 -53
-83 -86 -32 -39 -57 -60 -71 -60 -12 -1 -37 14 -56 31 -29 28 -36 42 -41 93
-4 34 -3 71 2 86 6 14 25 38 43 54 31 26 38 27 97 22 36 -4 70 -11 78 -17 7
-7 23 -10 36 -8 16 2 24 11 26 30 2 18 -3 30 -15 36 -10 6 -45 10 -78 9z"/>
</g>
</svg>
