<?xml version="1.0" standalone="no"?>
<!DOCTYPE svg PUBLIC "-//W3C//DTD SVG 20010904//EN"
 "http://www.w3.org/TR/2001/REC-SVG-20010904/DTD/svg10.dtd">
<svg version="1.0" xmlns="http://www.w3.org/2000/svg"
 width="56.000000pt" height="56.000000pt" viewBox="0 0 56.000000 56.000000"
 preserveAspectRatio="xMidYMid meet">
<metadata>
Created by potrace 1.16, written by Peter Selinger 2001-2019
</metadata>
<g transform="translate(0.000000,56.000000) scale(0.100000,-0.100000)"
fill="#000000" stroke="none">
<path d="M317 439 c-7 -1 -21 -6 -32 -12 -11 -7 -35 -23 -53 -37 -19 -14 -45
-43 -58 -66 -13 -23 -33 -49 -43 -59 -11 -9 -24 -14 -29 -11 -5 3 -13 18 -17
33 -3 15 -14 38 -24 52 -10 14 -21 39 -25 55 -5 20 -10 26 -18 18 -6 -6 -8
-31 -5 -59 3 -26 10 -69 16 -95 5 -26 23 -67 38 -90 15 -24 33 -49 42 -55 11
-10 18 -10 28 -1 9 7 12 21 8 39 -3 15 -1 30 4 34 6 3 11 15 11 25 0 11 11 27
25 36 14 9 28 27 31 40 3 13 31 44 61 69 30 25 59 45 63 45 4 0 32 -35 62 -77
30 -43 65 -95 77 -116 13 -21 28 -35 35 -32 6 3 19 8 29 11 9 4 17 15 17 25 0
11 -4 19 -10 19 -5 0 -10 8 -10 18 0 10 -7 40 -16 66 -10 28 -33 63 -57 86
-32 31 -46 38 -72 36 -18 -2 -37 -6 -43 -10 -6 -3 -13 -2 -17 4 -3 5 -12 10
-18 9z"/>
<path d="M333 148 c-7 2 -16 -5 -20 -15 -3 -10 -8 -21 -9 -24 -2 -3 8 -4 22
-1 16 3 24 10 22 20 -2 8 -9 17 -15 20z"/>
</g>
</svg>
