<?xml version="1.0" standalone="no"?>
<!DOCTYPE svg PUBLIC "-//W3C//DTD SVG 20010904//EN"
 "http://www.w3.org/TR/2001/REC-SVG-20010904/DTD/svg10.dtd">
<svg version="1.0" xmlns="http://www.w3.org/2000/svg"
 width="56.000000pt" height="56.000000pt" viewBox="0 0 56.000000 56.000000"
 preserveAspectRatio="xMidYMid meet">
<metadata>
Created by potrace 1.16, written by Peter Selinger 2001-2019
</metadata>
<g transform="translate(0.000000,56.000000) scale(0.100000,-0.100000)"
fill="#000000" stroke="none">
<path d="M102 490 c-17 0 -37 -10 -50 -23 -12 -13 -22 -33 -22 -45 0 -11 -4
-23 -8 -26 -5 -3 -10 -20 -12 -38 -1 -18 -3 -71 -3 -118 0 -54 5 -100 15 -125
13 -33 21 -41 46 -43 24 -3 35 4 59 35 15 21 44 76 62 123 19 47 45 102 58
123 13 21 35 43 50 50 25 11 29 8 87 -54 34 -36 71 -87 84 -112 12 -25 28 -47
35 -50 7 -2 22 1 35 6 16 8 22 19 22 43 0 18 -4 34 -8 36 -5 2 -27 35 -50 74
-24 42 -51 75 -67 82 -14 7 -34 12 -43 12 -10 0 -33 9 -53 19 -27 15 -40 16
-55 8 -10 -5 -35 -24 -54 -40 -19 -17 -47 -48 -62 -69 -16 -21 -28 -41 -28
-45 0 -5 -14 -26 -30 -47 -17 -22 -30 -46 -30 -53 0 -7 -9 -13 -20 -13 -16 0
-20 7 -20 33 0 17 7 63 17 100 11 47 25 77 45 97 15 16 28 36 28 44 0 11 -9
16 -28 16z"/>
<path d="M264 90 c-7 0 -16 -4 -19 -10 -3 -5 -3 -14 0 -20 3 -5 14 -10 24 -10
10 0 21 3 24 7 4 3 2 12 -4 20 -6 7 -17 13 -25 13z"/>
</g>
</svg>
