<?xml version="1.0" standalone="no"?>
<!DOCTYPE svg PUBLIC "-//W3C//DTD SVG 20010904//EN"
 "http://www.w3.org/TR/2001/REC-SVG-20010904/DTD/svg10.dtd">
<svg version="1.0" xmlns="http://www.w3.org/2000/svg"
 width="56.000000pt" height="56.000000pt" viewBox="0 0 56.000000 56.000000"
 preserveAspectRatio="xMidYMid meet">
<metadata>
Created by potrace 1.16, written by Peter Selinger 2001-2019
</metadata>
<g transform="translate(0.000000,56.000000) scale(0.100000,-0.100000)"
fill="#000000" stroke="none">
<path d="M77 520 c-15 0 -26 -10 -36 -32 -8 -17 -16 -41 -17 -52 -2 -12 -6
-41 -10 -64 -5 -29 -1 -71 11 -124 15 -63 26 -88 55 -120 27 -31 41 -39 55
-34 11 3 34 25 50 48 17 24 36 55 44 71 8 15 36 52 62 80 27 29 49 57 49 64 0
6 14 16 31 22 17 6 35 9 38 6 4 -2 20 -22 36 -45 27 -38 27 -42 15 -86 -7 -26
-35 -80 -62 -121 -26 -40 -48 -78 -48 -83 0 -6 16 -10 35 -10 32 0 39 5 70 55
19 30 35 58 35 62 0 5 8 20 18 33 9 14 22 38 27 55 8 22 6 41 -5 75 -9 25 -24
60 -35 78 -11 19 -35 40 -54 48 -18 8 -44 14 -58 14 -13 0 -41 -12 -60 -27
-20 -16 -48 -46 -62 -68 -15 -22 -54 -66 -88 -98 -34 -33 -66 -56 -71 -53 -6
3 -18 31 -27 61 -12 37 -16 69 -11 97 3 24 9 60 12 81 3 20 10 37 15 37 5 0 9
7 9 15 0 9 -9 15 -23 15z"/>
</g>
</svg>
