<?xml version="1.0" standalone="no"?>
<!DOCTYPE svg PUBLIC "-//W3C//DTD SVG 20010904//EN"
 "http://www.w3.org/TR/2001/REC-SVG-20010904/DTD/svg10.dtd">
<svg version="1.0" xmlns="http://www.w3.org/2000/svg"
 width="56.000000pt" height="56.000000pt" viewBox="0 0 56.000000 56.000000"
 preserveAspectRatio="xMidYMid meet">
<metadata>
Created by potrace 1.16, written by Peter Selinger 2001-2019
</metadata>
<g transform="translate(0.000000,56.000000) scale(0.100000,-0.100000)"
fill="#000000" stroke="none">
<path d="M448 441 c-20 5 -30 4 -34 -4 -2 -7 16 -34 40 -61 25 -26 48 -57 52
-68 4 -13 13 -18 27 -16 17 2 23 11 25 35 2 22 -4 40 -20 58 -13 15 -32 31
-42 37 -10 6 -32 14 -48 19z"/>
<path d="M20 390 c-18 9 -20 8 -20 -14 0 -14 6 -45 14 -68 7 -24 19 -63 27
-88 7 -25 23 -62 36 -83 13 -20 27 -37 32 -37 6 0 19 13 30 29 12 16 21 33 21
38 0 4 9 19 20 33 11 14 20 31 20 38 0 6 -6 12 -13 12 -8 0 -20 -11 -27 -25
-7 -13 -22 -27 -32 -31 -13 -4 -24 1 -33 13 -8 10 -15 26 -15 35 0 9 -4 20
-10 23 -5 3 -10 17 -10 30 0 13 -4 27 -10 30 -5 3 -10 17 -10 30 0 14 -9 29
-20 35z"/>
<path d="M219 160 c-6 0 -9 -17 -7 -37 2 -31 7 -39 26 -41 19 -3 22 1 22 31 0
23 -6 37 -16 41 -9 3 -20 6 -25 6z"/>
</g>
</svg>
