<?xml version="1.0" standalone="no"?>
<!DOCTYPE svg PUBLIC "-//W3C//DTD SVG 20010904//EN"
 "http://www.w3.org/TR/2001/REC-SVG-20010904/DTD/svg10.dtd">
<svg version="1.0" xmlns="http://www.w3.org/2000/svg"
 width="56.000000pt" height="56.000000pt" viewBox="0 0 56.000000 56.000000"
 preserveAspectRatio="xMidYMid meet">
<metadata>
Created by potrace 1.16, written by Peter Selinger 2001-2019
</metadata>
<g transform="translate(0.000000,56.000000) scale(0.100000,-0.100000)"
fill="#000000" stroke="none">
<path d="M13 472 c-15 12 -16 7 -10 -49 4 -34 18 -86 32 -116 16 -35 43 -72
76 -100 29 -25 57 -43 63 -41 6 3 27 28 46 56 19 29 45 62 58 75 12 12 22 26
22 31 0 4 14 18 30 30 17 13 30 27 30 33 0 6 -10 9 -22 7 -15 -2 -24 -11 -26
-25 -2 -15 -10 -23 -22 -23 -10 0 -25 -8 -32 -18 -7 -10 -30 -33 -51 -51 -28
-25 -43 -32 -62 -27 -13 3 -37 26 -54 49 -16 24 -37 68 -46 99 -9 31 -23 62
-32 70z"/>
<path d="M466 480 c-14 0 -27 -4 -30 -8 -3 -5 10 -23 29 -40 24 -21 35 -39 35
-58 0 -16 -11 -39 -24 -53 -14 -15 -38 -51 -54 -81 -16 -30 -39 -72 -50 -93
-12 -21 -22 -46 -22 -57 0 -14 7 -20 24 -20 18 0 28 10 41 38 10 20 36 69 59
107 22 39 46 82 53 98 7 15 17 27 23 27 5 0 10 18 10 40 0 22 -4 40 -10 40 -5
0 -10 6 -10 14 0 7 -11 21 -25 30 -13 9 -35 16 -49 16z"/>
</g>
</svg>
