<?xml version="1.0" standalone="no"?>
<!DOCTYPE svg PUBLIC "-//W3C//DTD SVG 20010904//EN"
 "http://www.w3.org/TR/2001/REC-SVG-20010904/DTD/svg10.dtd">
<svg version="1.0" xmlns="http://www.w3.org/2000/svg"
 width="56.000000pt" height="56.000000pt" viewBox="0 0 56.000000 56.000000"
 preserveAspectRatio="xMidYMid meet">
<metadata>
Created by potrace 1.16, written by Peter Selinger 2001-2019
</metadata>
<g transform="translate(0.000000,56.000000) scale(0.100000,-0.100000)"
fill="#000000" stroke="none">
<path d="M54 450 c-6 6 -17 5 -32 -6 -17 -12 -22 -25 -22 -63 0 -30 9 -66 25
-99 14 -29 25 -54 25 -56 0 -3 14 -25 31 -51 17 -25 39 -49 49 -55 13 -7 21
-6 30 5 6 7 18 37 25 66 8 28 23 61 34 73 12 12 21 27 21 32 0 5 12 18 27 29
15 11 35 28 45 38 10 9 24 17 32 17 8 0 35 -9 60 -19 24 -11 52 -31 61 -45 16
-24 16 -28 0 -70 -9 -24 -30 -57 -46 -72 -16 -15 -29 -36 -29 -46 0 -13 8 -18
28 -18 19 0 41 15 77 50 27 28 53 50 57 50 4 0 8 22 8 50 0 33 -6 57 -17 71
-10 12 -36 33 -58 47 -28 18 -51 25 -82 23 -24 0 -43 3 -43 9 0 5 -8 10 -17
10 -10 0 -37 -15 -59 -33 -23 -17 -67 -54 -98 -81 -57 -49 -57 -49 -101 -6
-25 24 -48 52 -51 62 -3 10 3 31 12 48 12 20 15 33 8 40z"/>
</g>
</svg>
