<?xml version="1.0" standalone="no"?>
<!DOCTYPE svg PUBLIC "-//W3C//DTD SVG 20010904//EN"
 "http://www.w3.org/TR/2001/REC-SVG-20010904/DTD/svg10.dtd">
<svg version="1.0" xmlns="http://www.w3.org/2000/svg"
 width="56.000000pt" height="56.000000pt" viewBox="0 0 56.000000 56.000000"
 preserveAspectRatio="xMidYMid meet">
<metadata>
Created by potrace 1.16, written by Peter Selinger 2001-2019
</metadata>
<g transform="translate(0.000000,56.000000) scale(0.100000,-0.100000)"
fill="#000000" stroke="none">
<path d="M32 410 c-5 0 -12 -3 -15 -7 -4 -3 -7 -30 -7 -58 0 -28 5 -76 11
-106 6 -30 19 -65 30 -78 17 -20 24 -22 62 -17 39 7 46 13 98 89 36 54 69 90
95 104 21 13 47 23 57 23 10 0 23 -5 30 -10 7 -6 25 -20 41 -32 16 -12 35 -35
42 -52 8 -17 18 -38 24 -46 5 -8 11 -27 15 -42 4 -19 12 -28 25 -28 17 0 20 7
20 54 0 30 -3 56 -7 58 -5 2 -19 26 -32 53 -13 28 -31 58 -39 68 -12 13 -31
17 -88 17 -40 0 -76 -4 -79 -10 -3 -5 -14 -10 -24 -10 -10 0 -50 -38 -90 -85
-41 -47 -79 -85 -86 -85 -7 0 -17 6 -23 13 -6 6 -16 41 -22 77 -7 36 -16 75
-21 88 -5 12 -12 22 -17 22z"/>
</g>
</svg>
