<?xml version="1.0" standalone="no"?>
<!DOCTYPE svg PUBLIC "-//W3C//DTD SVG 20010904//EN"
 "http://www.w3.org/TR/2001/REC-SVG-20010904/DTD/svg10.dtd">
<svg version="1.0" xmlns="http://www.w3.org/2000/svg"
 width="56.000000pt" height="56.000000pt" viewBox="0 0 56.000000 56.000000"
 preserveAspectRatio="xMidYMid meet">
<metadata>
Created by potrace 1.16, written by Peter Selinger 2001-2019
</metadata>
<g transform="translate(0.000000,56.000000) scale(0.100000,-0.100000)"
fill="#000000" stroke="none">
<path d="M34 480 c-7 0 -18 -17 -23 -37 -5 -21 -8 -58 -6 -83 2 -25 8 -70 13
-100 6 -30 19 -75 30 -100 11 -25 30 -54 43 -66 13 -12 31 -24 41 -27 9 -3 23
2 31 11 8 9 25 35 38 57 12 22 33 63 47 90 13 28 31 68 39 90 7 22 23 50 35
62 12 13 27 23 35 23 7 0 26 -19 43 -42 16 -22 30 -51 30 -63 0 -11 10 -50 21
-86 12 -35 25 -68 30 -73 5 -6 16 -2 28 8 11 10 23 31 26 47 4 16 11 29 16 29
5 0 9 5 9 11 0 6 -7 17 -15 25 -8 9 -15 24 -15 35 0 11 -14 44 -31 74 -17 30
-44 64 -59 75 -19 13 -44 20 -77 20 -44 0 -51 -4 -82 -41 -19 -23 -41 -60 -48
-83 -8 -22 -21 -57 -30 -76 -8 -19 -20 -45 -26 -58 -6 -12 -17 -20 -24 -18 -7
3 -15 1 -18 -4 -3 -5 -12 -7 -20 -4 -8 3 -19 20 -24 37 -6 18 -11 77 -12 132
-1 74 -5 105 -17 118 -8 9 -21 17 -28 17z"/>
<path d="M210 470 c-16 0 -21 -5 -18 -22 2 -17 9 -22 23 -20 11 2 22 6 24 8 2
2 1 10 -2 19 -4 8 -16 15 -27 15z"/>
</g>
</svg>
