<?xml version="1.0" standalone="no"?>
<!DOCTYPE svg PUBLIC "-//W3C//DTD SVG 20010904//EN"
 "http://www.w3.org/TR/2001/REC-SVG-20010904/DTD/svg10.dtd">
<svg version="1.0" xmlns="http://www.w3.org/2000/svg"
 width="56.000000pt" height="56.000000pt" viewBox="0 0 56.000000 56.000000"
 preserveAspectRatio="xMidYMid meet">
<metadata>
Created by potrace 1.16, written by Peter Selinger 2001-2019
</metadata>
<g transform="translate(0.000000,56.000000) scale(0.100000,-0.100000)"
fill="#000000" stroke="none">
<path d="M315 430 c-5 -1 -23 -8 -40 -17 -16 -8 -38 -23 -48 -31 -10 -9 -39
-53 -63 -99 -25 -45 -50 -86 -57 -90 -6 -3 -23 9 -38 27 -23 27 -29 45 -31 94
-2 46 -7 61 -18 61 -11 0 -16 -13 -18 -47 -2 -31 4 -62 17 -90 10 -24 36 -60
57 -80 20 -21 40 -38 44 -38 4 0 14 8 22 18 9 9 18 33 22 53 3 19 17 51 31 69
14 19 25 39 25 44 0 6 19 28 42 49 38 35 44 37 66 25 13 -7 47 -37 74 -67 28
-30 56 -69 64 -86 7 -16 16 -47 19 -67 4 -27 11 -38 23 -38 9 0 25 7 35 14 10
8 17 26 17 45 0 17 -4 31 -9 31 -5 0 -15 16 -21 35 -6 19 -28 55 -49 80 -24
28 -61 58 -97 76 -33 16 -63 29 -69 29z"/>
</g>
</svg>
