<?xml version="1.0" standalone="no"?>
<!DOCTYPE svg PUBLIC "-//W3C//DTD SVG 20010904//EN"
 "http://www.w3.org/TR/2001/REC-SVG-20010904/DTD/svg10.dtd">
<svg version="1.0" xmlns="http://www.w3.org/2000/svg"
 width="56.000000pt" height="56.000000pt" viewBox="0 0 56.000000 56.000000"
 preserveAspectRatio="xMidYMid meet">
<metadata>
Created by potrace 1.16, written by Peter Selinger 2001-2019
</metadata>
<g transform="translate(0.000000,56.000000) scale(0.100000,-0.100000)"
fill="#000000" stroke="none">
<path d="M355 440 c-11 -1 -33 -12 -50 -26 -16 -14 -40 -34 -52 -45 -12 -11
-40 -58 -63 -104 -42 -83 -42 -83 -71 -73 -16 5 -40 23 -54 40 -19 23 -25 41
-25 78 0 27 -4 51 -9 54 -5 3 -14 -1 -21 -9 -8 -10 -11 -36 -8 -73 3 -40 12
-68 30 -96 15 -21 40 -47 57 -57 18 -10 40 -19 51 -19 10 0 28 12 39 26 12 15
21 39 21 55 0 15 5 31 10 34 6 3 10 15 10 26 0 10 5 19 10 19 6 0 10 7 10 15
0 9 14 31 31 49 16 19 44 36 60 40 17 3 46 -1 69 -10 22 -9 51 -30 65 -46 14
-16 25 -36 25 -43 0 -8 -16 -27 -35 -42 -19 -15 -35 -31 -35 -35 0 -5 24 -8
53 -8 40 0 58 5 70 18 10 10 17 31 17 45 0 15 -6 35 -14 44 -8 10 -27 33 -42
51 -15 18 -50 46 -78 62 -28 17 -60 30 -71 30z"/>
</g>
</svg>
