<?xml version="1.0" standalone="no"?>
<!DOCTYPE svg PUBLIC "-//W3C//DTD SVG 20010904//EN"
 "http://www.w3.org/TR/2001/REC-SVG-20010904/DTD/svg10.dtd">
<svg version="1.0" xmlns="http://www.w3.org/2000/svg"
 width="56.000000pt" height="56.000000pt" viewBox="0 0 56.000000 56.000000"
 preserveAspectRatio="xMidYMid meet">
<metadata>
Created by potrace 1.16, written by Peter Selinger 2001-2019
</metadata>
<g transform="translate(0.000000,56.000000) scale(0.100000,-0.100000)"
fill="#000000" stroke="none">
<path d="M379 460 c-10 0 -20 -4 -23 -9 -3 -4 11 -22 32 -38 20 -17 54 -60 76
-97 21 -36 44 -66 52 -66 7 0 19 3 28 6 9 3 16 17 16 30 0 14 -5 30 -10 37 -6
7 -25 31 -41 55 -17 23 -50 51 -72 62 -22 11 -49 20 -58 20z"/>
<path d="M32 402 c-6 6 -12 6 -17 -2 -4 -6 -3 -16 3 -22 6 -6 12 -6 17 2 4 6
3 16 -3 22z"/>
<path d="M8 360 c-7 0 -9 -17 -5 -51 4 -33 16 -64 34 -87 14 -19 45 -53 67
-74 23 -21 47 -38 53 -38 7 0 13 -4 13 -10 0 -5 8 -10 19 -10 10 0 30 12 45
26 14 15 26 32 26 38 0 6 -9 22 -20 36 -11 14 -20 31 -20 38 0 6 -7 12 -15 12
-10 0 -15 -10 -15 -30 0 -21 -5 -30 -16 -30 -8 0 -34 13 -57 29 -23 16 -49 37
-58 47 -8 11 -21 38 -28 62 -6 23 -17 42 -23 42z"/>
</g>
</svg>
