<?xml version="1.0" standalone="no"?>
<!DOCTYPE svg PUBLIC "-//W3C//DTD SVG 20010904//EN"
 "http://www.w3.org/TR/2001/REC-SVG-20010904/DTD/svg10.dtd">
<svg version="1.0" xmlns="http://www.w3.org/2000/svg"
 width="56.000000pt" height="56.000000pt" viewBox="0 0 56.000000 56.000000"
 preserveAspectRatio="xMidYMid meet">
<metadata>
Created by potrace 1.16, written by Peter Selinger 2001-2019
</metadata>
<g transform="translate(0.000000,56.000000) scale(0.100000,-0.100000)"
fill="#000000" stroke="none">
<path d="M330 516 c-69 0 -150 -2 -181 -5 -31 -4 -64 -13 -74 -21 -10 -8 -29
-37 -41 -65 -16 -34 -24 -68 -24 -106 0 -35 8 -74 20 -103 16 -34 31 -51 60
-66 22 -11 45 -20 53 -20 7 0 23 10 35 23 12 13 22 27 22 32 0 4 25 37 56 73
31 36 67 72 81 79 14 7 44 14 67 14 23 1 52 -3 65 -10 20 -11 22 -17 16 -54
-4 -23 -16 -58 -26 -78 -10 -21 -33 -46 -51 -57 -18 -11 -46 -34 -62 -50 -15
-17 -25 -35 -22 -41 4 -6 27 -11 51 -11 38 0 47 4 62 27 10 15 35 46 56 67 21
22 41 52 44 68 3 15 9 28 14 28 5 0 9 14 9 30 0 17 -4 30 -10 30 -5 0 -10 18
-10 39 0 23 -7 46 -16 56 -13 13 -28 14 -78 9 -33 -4 -79 -15 -101 -24 -22
-10 -63 -41 -91 -69 -29 -28 -55 -51 -59 -51 -4 0 -20 -11 -37 -25 -23 -20
-33 -23 -49 -15 -10 6 -26 27 -34 47 -9 22 -13 50 -10 68 4 16 14 46 23 65 9
19 26 42 37 52 11 9 32 17 47 18 14 0 28 5 30 10 2 6 28 11 58 11 30 0 82 -4
115 -9 33 -5 66 -7 73 -4 7 2 12 12 10 21 -3 14 -21 16 -128 17z"/>
</g>
</svg>
