<?xml version="1.0" standalone="no"?>
<!DOCTYPE svg PUBLIC "-//W3C//DTD SVG 20010904//EN"
 "http://www.w3.org/TR/2001/REC-SVG-20010904/DTD/svg10.dtd">
<svg version="1.0" xmlns="http://www.w3.org/2000/svg"
 width="56.000000pt" height="56.000000pt" viewBox="0 0 56.000000 56.000000"
 preserveAspectRatio="xMidYMid meet">
<metadata>
Created by potrace 1.16, written by Peter Selinger 2001-2019
</metadata>
<g transform="translate(0.000000,56.000000) scale(0.100000,-0.100000)"
fill="#000000" stroke="none">
<path d="M43 517 c-6 2 -16 -4 -21 -14 -5 -10 -12 -49 -15 -86 -4 -39 -2 -89
5 -115 6 -26 27 -87 47 -135 20 -49 46 -100 59 -114 22 -24 24 -24 43 -8 15
15 19 32 19 84 0 36 6 82 13 101 7 19 21 50 30 68 10 17 25 32 34 32 9 0 25 7
35 17 17 15 21 15 60 -3 24 -10 60 -34 81 -53 20 -18 37 -37 37 -42 0 -5 -7
-9 -15 -9 -8 0 -19 -9 -25 -20 -8 -15 -8 -21 2 -24 7 -2 28 -7 46 -10 19 -3
45 -3 58 0 19 5 24 13 24 36 0 16 -6 36 -12 43 -7 7 -24 32 -37 54 -18 29 -37
45 -74 60 -32 14 -72 21 -113 21 -57 0 -65 -3 -81 -26 -10 -14 -25 -33 -33
-43 -8 -9 -30 -40 -49 -69 -34 -54 -34 -54 -57 -25 -13 15 -23 38 -24 50 0 12
-5 34 -11 50 -6 15 -11 61 -12 102 -1 47 -6 76 -14 78z"/>
<path d="M338 140 c-16 0 -17 -6 -12 -42 4 -24 11 -49 17 -56 6 -7 20 -12 31
-10 15 2 22 11 24 35 2 22 -3 37 -19 52 -13 12 -31 21 -41 21z"/>
</g>
</svg>
