<?xml version="1.0" standalone="no"?>
<!DOCTYPE svg PUBLIC "-//W3C//DTD SVG 20010904//EN"
 "http://www.w3.org/TR/2001/REC-SVG-20010904/DTD/svg10.dtd">
<svg version="1.0" xmlns="http://www.w3.org/2000/svg"
 width="56.000000pt" height="56.000000pt" viewBox="0 0 56.000000 56.000000"
 preserveAspectRatio="xMidYMid meet">
<metadata>
Created by potrace 1.16, written by Peter Selinger 2001-2019
</metadata>
<g transform="translate(0.000000,56.000000) scale(0.100000,-0.100000)"
fill="#000000" stroke="none">
<path d="M246 480 c-25 0 -47 -4 -50 -9 -3 -4 2 -15 12 -23 9 -8 36 -22 60
-31 23 -10 54 -17 69 -17 16 0 39 11 55 27 15 15 28 33 28 40 0 8 -12 13 -33
13 -18 0 -39 -6 -45 -12 -10 -10 -17 -10 -32 0 -11 6 -40 12 -64 12z"/>
<path d="M45 470 c-8 0 -17 -5 -20 -11 -4 -6 -7 -36 -6 -66 0 -31 3 -77 7
-102 4 -25 18 -66 32 -91 13 -25 34 -55 45 -67 11 -13 26 -23 34 -23 7 0 37
15 66 34 33 21 76 63 110 108 31 40 66 79 78 86 17 11 27 11 50 2 16 -7 29
-18 29 -24 0 -6 -4 -28 -9 -48 -5 -20 -15 -44 -22 -52 -8 -8 -27 -37 -44 -65
-16 -28 -33 -51 -37 -51 -5 0 -8 -7 -8 -15 0 -8 7 -15 16 -15 9 0 44 28 78 63
33 34 70 80 81 102 11 22 23 42 28 43 4 2 7 8 7 13 0 5 -18 28 -39 49 -36 36
-44 40 -91 40 -51 0 -51 0 -160 -105 -59 -58 -112 -105 -117 -105 -4 0 -12 4
-18 8 -5 4 -18 23 -27 43 -9 20 -20 70 -23 110 -4 41 -11 89 -17 107 -5 17
-16 32 -23 32z"/>
</g>
</svg>
