<?xml version="1.0" standalone="no"?>
<!DOCTYPE svg PUBLIC "-//W3C//DTD SVG 20010904//EN"
 "http://www.w3.org/TR/2001/REC-SVG-20010904/DTD/svg10.dtd">
<svg version="1.0" xmlns="http://www.w3.org/2000/svg"
 width="56.000000pt" height="56.000000pt" viewBox="0 0 56.000000 56.000000"
 preserveAspectRatio="xMidYMid meet">
<metadata>
Created by potrace 1.16, written by Peter Selinger 2001-2019
</metadata>
<g transform="translate(0.000000,56.000000) scale(0.100000,-0.100000)"
fill="#000000" stroke="none">
<path d="M317 519 c-39 0 -67 -9 -112 -33 -33 -18 -88 -48 -123 -66 -37 -19
-67 -42 -72 -55 -5 -12 -5 -51 0 -87 4 -35 17 -82 28 -104 11 -21 42 -63 67
-92 26 -28 50 -52 55 -52 4 0 25 35 45 77 20 42 62 110 93 150 35 45 64 73 75
73 11 0 39 -21 63 -47 24 -27 53 -67 65 -90 11 -22 27 -44 35 -47 9 -3 18 -6
20 -6 2 0 4 23 4 50 0 28 -4 50 -10 50 -5 0 -18 17 -29 38 -10 20 -32 49 -48
63 -15 14 -50 33 -78 42 -49 16 -49 16 -85 -25 -19 -23 -56 -64 -82 -92 -27
-28 -48 -54 -48 -58 0 -4 -12 -18 -26 -32 -15 -13 -33 -22 -41 -19 -7 3 -24
24 -37 47 -13 22 -27 60 -31 82 -6 37 -3 44 21 63 15 11 31 21 36 21 6 0 33
12 62 26 28 14 69 32 91 40 22 7 48 14 58 14 10 0 29 11 43 25 14 14 22 30 19
35 -3 6 -30 10 -58 9z"/>
</g>
</svg>
