<?xml version="1.0" standalone="no"?>
<!DOCTYPE svg PUBLIC "-//W3C//DTD SVG 20010904//EN"
 "http://www.w3.org/TR/2001/REC-SVG-20010904/DTD/svg10.dtd">
<svg version="1.0" xmlns="http://www.w3.org/2000/svg"
 width="56.000000pt" height="56.000000pt" viewBox="0 0 56.000000 56.000000"
 preserveAspectRatio="xMidYMid meet">
<metadata>
Created by potrace 1.16, written by Peter Selinger 2001-2019
</metadata>
<g transform="translate(0.000000,56.000000) scale(0.100000,-0.100000)"
fill="#000000" stroke="none">
<path d="M166 430 c-9 0 -16 -18 -20 -52 -4 -29 -9 -87 -12 -129 -5 -71 -4
-78 21 -107 15 -18 34 -32 43 -32 10 0 32 21 51 45 18 25 37 45 41 45 4 0 27
25 50 55 23 30 64 71 92 90 27 20 46 40 43 45 -3 6 -15 10 -25 10 -10 0 -25
-8 -32 -18 -7 -10 -35 -31 -63 -46 -27 -16 -60 -39 -72 -51 -12 -11 -33 -27
-48 -35 -23 -12 -28 -12 -35 0 -6 8 -11 29 -12 45 -1 17 -1 44 1 60 1 17 -1
40 -4 53 -3 12 -12 22 -19 22z"/>
<path d="M492 368 c-6 2 -15 -6 -21 -17 -6 -11 -11 -33 -11 -50 0 -17 -7 -47
-16 -68 -9 -21 -24 -56 -35 -77 -12 -25 -16 -43 -10 -49 5 -5 17 -7 26 -3 9 3
25 26 36 51 11 25 27 45 35 45 9 0 12 5 8 11 -4 6 -1 36 7 66 9 38 10 60 3 71
-6 9 -15 17 -22 20z"/>
<path d="M558 174 c-2 11 -7 13 -18 6 -12 -7 -12 -12 -3 -21 7 -7 15 -10 19
-7 3 4 4 13 2 22z"/>
</g>
</svg>
