<?xml version="1.0" standalone="no"?>
<!DOCTYPE svg PUBLIC "-//W3C//DTD SVG 20010904//EN"
 "http://www.w3.org/TR/2001/REC-SVG-20010904/DTD/svg10.dtd">
<svg version="1.0" xmlns="http://www.w3.org/2000/svg"
 width="56.000000pt" height="56.000000pt" viewBox="0 0 56.000000 56.000000"
 preserveAspectRatio="xMidYMid meet">
<metadata>
Created by potrace 1.16, written by Peter Selinger 2001-2019
</metadata>
<g transform="translate(0.000000,56.000000) scale(0.100000,-0.100000)"
fill="#000000" stroke="none">
<path d="M18 500 c-16 0 -19 -4 -14 -22 4 -13 13 -55 21 -94 8 -38 25 -101 39
-138 13 -38 32 -76 41 -85 15 -15 18 -14 33 9 9 14 33 42 53 63 20 20 40 37
46 37 5 0 18 8 29 18 11 11 33 22 49 26 17 4 47 10 68 13 30 4 44 0 72 -21 19
-15 35 -32 35 -39 0 -7 -29 -54 -65 -106 -35 -52 -62 -98 -59 -103 3 -4 13 -8
23 -8 10 0 25 8 33 18 9 9 43 58 77 109 33 50 61 96 61 102 0 6 -17 26 -37 46
-21 19 -53 40 -72 46 -18 6 -53 9 -77 6 -32 -3 -67 -20 -127 -60 -45 -31 -90
-59 -99 -62 -10 -4 -20 0 -26 12 -5 10 -17 54 -27 98 -10 44 -27 92 -37 108
-11 15 -29 27 -40 27z"/>
</g>
</svg>
