<?xml version="1.0" standalone="no"?>
<!DOCTYPE svg PUBLIC "-//W3C//DTD SVG 20010904//EN"
 "http://www.w3.org/TR/2001/REC-SVG-20010904/DTD/svg10.dtd">
<svg version="1.0" xmlns="http://www.w3.org/2000/svg"
 width="56.000000pt" height="56.000000pt" viewBox="0 0 56.000000 56.000000"
 preserveAspectRatio="xMidYMid meet">
<metadata>
Created by potrace 1.16, written by Peter Selinger 2001-2019
</metadata>
<g transform="translate(0.000000,56.000000) scale(0.100000,-0.100000)"
fill="#000000" stroke="none">
<path d="M388 439 c-7 0 -38 -10 -68 -22 -30 -12 -62 -26 -71 -32 -8 -5 -30
-31 -47 -56 -17 -26 -37 -69 -44 -95 -7 -27 -17 -52 -22 -56 -6 -4 -24 14 -41
40 -18 26 -40 69 -50 95 -10 26 -22 50 -27 53 -5 3 -12 4 -15 1 -2 -3 2 -40
11 -82 12 -56 26 -91 56 -135 25 -38 48 -60 59 -60 14 0 32 24 64 82 24 46 47
95 50 109 4 15 25 45 47 68 22 22 49 41 59 41 11 0 33 -16 49 -36 17 -20 38
-53 48 -73 11 -20 32 -53 47 -73 16 -21 37 -38 48 -38 14 0 19 7 19 29 0 16
-3 31 -7 33 -5 2 -25 38 -45 82 -26 56 -47 85 -72 102 -19 13 -41 24 -48 23z"/>
</g>
</svg>
