<?xml version="1.0" standalone="no"?>
<!DOCTYPE svg PUBLIC "-//W3C//DTD SVG 20010904//EN"
 "http://www.w3.org/TR/2001/REC-SVG-20010904/DTD/svg10.dtd">
<svg version="1.0" xmlns="http://www.w3.org/2000/svg"
 width="56.000000pt" height="56.000000pt" viewBox="0 0 56.000000 56.000000"
 preserveAspectRatio="xMidYMid meet">
<metadata>
Created by potrace 1.16, written by Peter Selinger 2001-2019
</metadata>
<g transform="translate(0.000000,56.000000) scale(0.100000,-0.100000)"
fill="#000000" stroke="none">
<path d="M221 460 c-33 0 -62 -4 -65 -9 -3 -5 13 -21 36 -36 42 -28 42 -28 65
1 13 16 23 32 23 37 0 4 -27 7 -59 7z"/>
<path d="M25 430 c-8 0 -15 -16 -18 -42 -2 -24 3 -70 11 -103 8 -33 23 -79 34
-102 11 -23 31 -53 45 -67 21 -21 28 -23 48 -14 14 6 36 28 50 49 14 21 25 43
25 49 0 5 -4 10 -9 10 -5 0 -23 -8 -39 -17 -29 -17 -31 -17 -51 1 -11 10 -29
42 -39 70 -11 28 -22 69 -26 91 -4 22 -9 48 -12 58 -3 9 -11 17 -19 17z"/>
<path d="M403 416 c-11 2 -24 0 -27 -3 -3 -4 -6 -10 -6 -15 0 -4 17 -16 37
-25 28 -14 39 -27 46 -53 7 -28 5 -36 -9 -47 -10 -7 -30 -13 -44 -13 -14 0
-47 -13 -72 -29 -26 -16 -51 -39 -57 -50 -6 -11 -11 -36 -11 -55 0 -35 1 -36
36 -36 33 0 36 2 29 23 -3 12 -9 31 -11 42 -2 11 0 26 5 34 5 7 19 15 32 16
13 2 56 8 94 14 56 9 74 17 92 39 13 15 23 32 23 39 0 6 -15 28 -32 48 -18 21
-49 45 -68 53 -19 9 -45 17 -57 18z"/>
<path d="M385 110 c-8 0 -15 -4 -15 -10 0 -5 7 -10 15 -10 8 0 15 5 15 10 0 6
-7 10 -15 10z"/>
</g>
</svg>
