<?xml version="1.0" standalone="no"?>
<!DOCTYPE svg PUBLIC "-//W3C//DTD SVG 20010904//EN"
 "http://www.w3.org/TR/2001/REC-SVG-20010904/DTD/svg10.dtd">
<svg version="1.0" xmlns="http://www.w3.org/2000/svg"
 width="56.000000pt" height="56.000000pt" viewBox="0 0 56.000000 56.000000"
 preserveAspectRatio="xMidYMid meet">
<metadata>
Created by potrace 1.16, written by Peter Selinger 2001-2019
</metadata>
<g transform="translate(0.000000,56.000000) scale(0.100000,-0.100000)"
fill="#000000" stroke="none">
<path d="M45 480 c-8 0 -17 -5 -20 -10 -4 -6 -10 -24 -15 -41 -6 -21 -3 -54
12 -112 11 -45 26 -93 34 -107 7 -14 15 -41 19 -61 3 -20 15 -45 26 -55 15
-14 24 -16 37 -8 9 6 23 33 30 60 8 27 13 61 13 77 -1 15 3 27 9 27 5 0 10 7
10 15 0 8 -6 15 -14 15 -7 0 -17 -10 -21 -22 -5 -13 -11 -31 -14 -41 -6 -18
-8 -18 -34 3 -15 12 -27 30 -27 41 0 10 -4 38 -10 61 -5 24 -12 69 -16 101 -4
39 -10 57 -19 57z"/>
<path d="M348 478 c-27 0 -43 -6 -51 -19 -7 -11 -20 -19 -30 -19 -11 0 -25
-15 -37 -42 -11 -24 -20 -53 -20 -65 0 -14 6 -23 15 -23 8 0 15 7 15 17 0 9
11 31 25 49 14 18 25 37 25 43 0 6 13 11 29 11 17 0 32 -4 36 -10 3 -5 12 -7
20 -3 9 3 15 -1 15 -10 0 -9 12 -22 26 -29 14 -7 33 -26 42 -41 17 -28 17 -28
-38 -76 -40 -36 -52 -52 -44 -61 8 -8 18 -7 40 5 16 8 55 25 87 36 43 15 57
25 57 40 0 10 -4 19 -8 19 -5 0 -16 16 -25 35 -9 20 -24 38 -32 41 -8 4 -15
12 -15 20 0 7 -12 20 -28 28 -15 8 -35 23 -45 34 -13 15 -31 21 -59 20z"/>
<path d="M353 203 c-5 3 -18 0 -31 -6 -12 -6 -31 -25 -43 -43 -16 -26 -18 -40
-11 -66 7 -27 13 -33 40 -35 28 -2 32 0 32 22 0 18 -5 25 -20 25 -11 0 -20 7
-20 15 0 8 14 24 30 37 17 12 30 27 30 34 0 7 -3 15 -7 17z"/>
</g>
</svg>
