<?xml version="1.0" standalone="no"?>
<!DOCTYPE svg PUBLIC "-//W3C//DTD SVG 20010904//EN"
 "http://www.w3.org/TR/2001/REC-SVG-20010904/DTD/svg10.dtd">
<svg version="1.0" xmlns="http://www.w3.org/2000/svg"
 width="56.000000pt" height="56.000000pt" viewBox="0 0 56.000000 56.000000"
 preserveAspectRatio="xMidYMid meet">
<metadata>
Created by potrace 1.16, written by Peter Selinger 2001-2019
</metadata>
<g transform="translate(0.000000,56.000000) scale(0.100000,-0.100000)"
fill="#000000" stroke="none">
<path d="M52 461 c-24 26 -30 29 -40 17 -6 -8 -9 -18 -6 -21 4 -3 9 -32 13
-64 5 -48 10 -60 29 -68 13 -5 25 -20 27 -33 3 -12 7 -33 10 -45 2 -13 17 -36
32 -51 20 -20 35 -26 57 -24 30 3 31 5 37 58 3 31 11 65 17 77 7 12 12 31 12
42 0 11 -4 22 -8 25 -5 3 -26 -10 -48 -29 -21 -19 -46 -35 -55 -35 -10 0 -23
17 -33 43 -9 23 -16 50 -16 60 0 9 -13 31 -28 48z"/>
<path d="M382 448 c-47 3 -52 1 -52 -17 0 -19 6 -21 56 -21 47 0 55 3 52 18
-2 13 -15 18 -56 20z"/>
<path d="M501 380 c-10 0 -21 -3 -24 -7 -4 -3 -7 -17 -7 -29 0 -13 -4 -26 -10
-29 -5 -3 -10 -15 -10 -25 0 -11 -9 -34 -20 -52 -11 -18 -20 -42 -20 -53 0
-11 -14 -37 -31 -58 -17 -20 -29 -45 -27 -55 2 -13 13 -17 43 -17 35 0 40 3
43 25 2 14 8 29 12 34 5 5 5 17 -1 27 -7 13 -4 29 8 56 10 21 27 39 38 42 11
2 30 14 42 28 13 13 23 31 23 39 0 9 -9 29 -21 45 -11 16 -28 29 -38 29z"/>
</g>
</svg>
