<?xml version="1.0" standalone="no"?>
<!DOCTYPE svg PUBLIC "-//W3C//DTD SVG 20010904//EN"
 "http://www.w3.org/TR/2001/REC-SVG-20010904/DTD/svg10.dtd">
<svg version="1.0" xmlns="http://www.w3.org/2000/svg"
 width="56.000000pt" height="56.000000pt" viewBox="0 0 56.000000 56.000000"
 preserveAspectRatio="xMidYMid meet">
<metadata>
Created by potrace 1.16, written by Peter Selinger 2001-2019
</metadata>
<g transform="translate(0.000000,56.000000) scale(0.100000,-0.100000)"
fill="#000000" stroke="none">
<path d="M381 459 c-3 0 -21 -7 -38 -15 -18 -8 -33 -21 -33 -30 0 -11 6 -15
18 -11 9 2 25 8 34 12 12 5 25 -2 42 -20 13 -14 32 -43 42 -63 10 -20 20 -50
24 -67 3 -18 13 -31 24 -33 10 -2 29 2 42 9 19 10 24 21 24 50 0 32 -8 46 -52
92 -29 30 -68 59 -87 66 -19 6 -37 11 -40 10z"/>
<path d="M4 390 c-4 0 -3 -21 1 -47 4 -26 16 -65 26 -86 11 -20 34 -57 52 -80
18 -24 45 -53 60 -66 27 -23 28 -23 48 -5 11 10 27 34 35 53 8 18 14 51 14 73
0 27 -4 38 -12 36 -7 -3 -15 -13 -18 -24 -3 -10 -10 -27 -16 -38 -11 -18 -13
-18 -62 9 -45 25 -55 37 -87 101 -19 41 -38 74 -41 74z"/>
</g>
</svg>
