<?xml version="1.0" standalone="no"?>
<!DOCTYPE svg PUBLIC "-//W3C//DTD SVG 20010904//EN"
 "http://www.w3.org/TR/2001/REC-SVG-20010904/DTD/svg10.dtd">
<svg version="1.0" xmlns="http://www.w3.org/2000/svg"
 width="56.000000pt" height="56.000000pt" viewBox="0 0 56.000000 56.000000"
 preserveAspectRatio="xMidYMid meet">
<metadata>
Created by potrace 1.16, written by Peter Selinger 2001-2019
</metadata>
<g transform="translate(0.000000,56.000000) scale(0.100000,-0.100000)"
fill="#000000" stroke="none">
<path d="M49 472 c-23 28 -28 30 -34 16 -4 -9 1 -43 11 -75 10 -32 19 -80 19
-108 1 -27 5 -74 9 -103 5 -34 17 -62 34 -82 21 -23 35 -30 64 -30 31 0 38 4
38 19 0 10 7 24 15 31 8 7 15 21 15 31 0 10 5 21 10 24 6 3 10 15 10 26 0 10
-6 19 -12 19 -7 0 -22 -14 -33 -30 -14 -21 -28 -30 -47 -30 -15 0 -30 4 -33
10 -3 5 -12 33 -19 62 -7 29 -12 64 -11 78 1 14 5 33 10 43 4 11 3 28 -5 42
-7 14 -26 39 -41 57z"/>
<path d="M413 359 c-21 -1 -48 -6 -60 -13 -13 -6 -23 -18 -23 -26 0 -12 14
-15 64 -15 36 0 68 -4 73 -8 4 -5 -4 -29 -19 -55 -14 -26 -36 -52 -49 -59 -12
-6 -46 -34 -76 -62 -30 -28 -51 -56 -48 -61 4 -6 21 -8 43 -4 20 4 51 17 67
29 17 13 54 36 83 51 29 16 62 33 72 39 11 5 20 16 20 24 0 8 -11 38 -25 67
-14 29 -38 62 -54 73 -19 13 -43 21 -68 20z"/>
<path d="M272 274 c-6 3 -14 1 -17 -5 -4 -5 -4 -13 -1 -16 4 -4 11 -2 17 4 7
7 7 13 1 17z"/>
</g>
</svg>
