<?xml version="1.0" standalone="no"?>
<!DOCTYPE svg PUBLIC "-//W3C//DTD SVG 20010904//EN"
 "http://www.w3.org/TR/2001/REC-SVG-20010904/DTD/svg10.dtd">
<svg version="1.0" xmlns="http://www.w3.org/2000/svg"
 width="56.000000pt" height="56.000000pt" viewBox="0 0 56.000000 56.000000"
 preserveAspectRatio="xMidYMid meet">
<metadata>
Created by potrace 1.16, written by Peter Selinger 2001-2019
</metadata>
<g transform="translate(0.000000,56.000000) scale(0.100000,-0.100000)"
fill="#000000" stroke="none">
<path d="M38 480 c-21 0 -27 -6 -32 -31 -3 -17 -6 -50 -6 -73 0 -23 4 -56 9
-73 5 -18 24 -51 43 -73 18 -23 53 -64 77 -91 37 -42 49 -50 75 -47 28 3 30 6
46 78 9 41 28 98 44 127 16 28 25 56 22 62 -4 6 -11 11 -16 11 -4 0 -25 -23
-45 -51 -20 -28 -41 -62 -47 -75 -6 -13 -22 -31 -36 -40 -25 -16 -26 -16 -53
14 -15 17 -37 60 -48 96 -14 47 -18 80 -14 116 6 48 5 50 -19 50z"/>
<path d="M151 464 c-4 3 -11 3 -15 -1 -3 -3 -6 -10 -6 -15 0 -4 7 -8 15 -8 8
0 15 4 15 9 0 6 -4 12 -9 15z"/>
<path d="M389 400 c-15 0 -30 -4 -34 -10 -3 -5 5 -16 17 -24 13 -8 39 -22 59
-30 19 -8 41 -22 49 -31 10 -12 10 -27 0 -78 -6 -34 -17 -75 -23 -92 -5 -16
-17 -38 -25 -47 -8 -9 -11 -21 -8 -26 3 -4 24 -6 48 -3 40 6 43 8 51 46 4 22
10 52 14 68 3 15 9 27 14 27 5 0 9 16 9 34 0 22 -11 52 -31 81 -19 27 -47 53
-72 65 -22 11 -53 20 -68 20z"/>
</g>
</svg>
