<?xml version="1.0" standalone="no"?>
<!DOCTYPE svg PUBLIC "-//W3C//DTD SVG 20010904//EN"
 "http://www.w3.org/TR/2001/REC-SVG-20010904/DTD/svg10.dtd">
<svg version="1.0" xmlns="http://www.w3.org/2000/svg"
 width="128.000000pt" height="128.000000pt" viewBox="0 0 128.000000 128.000000"
 preserveAspectRatio="xMidYMid meet">
<metadata>
Created by potrace 1.16, written by Peter Selinger 2001-2019
</metadata>
<g transform="translate(0.000000,128.000000) scale(0.100000,-0.100000)"
fill="#000000" stroke="none">
<path d="M537 1280 c-23 0 -41 -8 -58 -26 -13 -14 -38 -34 -56 -45 -18 -12
-33 -29 -33 -39 0 -10 6 -22 13 -27 6 -4 37 -8 67 -8 40 0 55 -4 58 -15 1 -8
-20 -45 -48 -82 -27 -36 -50 -72 -50 -80 0 -7 14 -31 30 -52 17 -22 30 -50 30
-62 0 -12 -8 -49 -19 -82 -15 -50 -16 -63 -5 -84 7 -14 26 -30 41 -36 15 -6
53 -14 83 -17 30 -4 86 -19 124 -34 49 -19 72 -34 82 -53 8 -15 14 -51 14 -80
0 -39 -9 -70 -33 -118 -25 -51 -37 -66 -57 -68 -20 -2 -30 5 -48 37 -13 24
-37 47 -57 57 -20 9 -37 20 -40 24 -3 4 -22 -1 -42 -11 -21 -10 -42 -19 -48
-19 -5 -1 -19 -9 -31 -18 -12 -10 -40 -48 -64 -85 -41 -65 -42 -69 -25 -87 10
-11 33 -24 53 -31 19 -6 56 -9 84 -6 27 4 55 4 63 0 8 -3 15 -14 15 -25 0 -11
-4 -27 -9 -36 -4 -9 -11 -29 -15 -44 -6 -28 -6 -28 43 -28 37 0 50 4 55 18 3
9 9 24 14 32 5 8 19 36 31 63 17 38 27 49 51 54 20 4 36 16 46 34 8 16 28 36
44 44 17 9 30 22 30 29 0 8 11 21 25 30 24 16 25 21 25 121 0 104 0 104 -45
150 -34 36 -50 46 -66 42 -14 -4 -28 2 -44 19 -13 14 -50 35 -84 49 -43 17
-72 22 -98 18 -34 -6 -36 -5 -31 18 3 13 17 62 31 108 25 84 25 84 -9 118 -19
18 -34 38 -34 43 0 6 27 36 60 67 33 31 60 60 60 65 0 6 9 17 21 27 21 16 21
16 -5 44 -22 24 -30 26 -68 21 -32 -5 -47 -2 -56 9 -10 12 -10 18 3 30 8 9 15
18 15 21 0 3 -15 6 -33 6z m1 -990 c10 0 23 -5 30 -12 7 -7 12 -22 12 -33 0
-16 -11 -27 -39 -40 -22 -9 -44 -14 -51 -10 -6 4 -8 16 -4 28 3 12 12 32 20
45 8 12 22 22 32 22z"/>
</g>
</svg>
