<?xml version="1.0" standalone="no"?>
<!DOCTYPE svg PUBLIC "-//W3C//DTD SVG 20010904//EN"
 "http://www.w3.org/TR/2001/REC-SVG-20010904/DTD/svg10.dtd">
<svg version="1.0" xmlns="http://www.w3.org/2000/svg"
 width="56.000000pt" height="56.000000pt" viewBox="0 0 56.000000 56.000000"
 preserveAspectRatio="xMidYMid meet">
<metadata>
Created by potrace 1.16, written by Peter Selinger 2001-2019
</metadata>
<g transform="translate(0.000000,56.000000) scale(0.100000,-0.100000)"
fill="#000000" stroke="none">
<path d="M66 440 c-7 0 -18 -6 -24 -13 -6 -6 -14 -25 -17 -40 -4 -15 -11 -30
-16 -33 -5 -3 -9 -14 -9 -25 0 -14 7 -19 27 -19 15 0 42 5 60 12 25 9 33 17
31 33 -2 13 -12 21 -30 23 -16 2 -28 7 -28 12 0 5 5 12 10 15 6 3 10 13 10 21
0 8 -6 14 -14 14z"/>
<path d="M162 438 c-9 3 -13 -2 -10 -12 1 -10 8 -17 13 -17 6 1 10 6 10 13 0
6 -6 13 -13 16z"/>
<path d="M207 399 c-18 -1 -40 -3 -49 -6 -15 -4 -16 -8 -7 -24 9 -17 19 -20
72 -17 49 2 66 -1 86 -17 13 -11 56 -52 95 -92 39 -39 84 -85 99 -102 16 -17
35 -31 43 -31 8 0 14 7 14 15 0 9 -11 32 -25 53 -13 20 -35 45 -48 54 -12 10
-44 38 -71 63 -27 25 -55 45 -62 45 -8 0 -14 4 -14 9 0 4 -20 14 -45 21 -25 7
-48 17 -51 21 -3 5 -20 8 -37 8z"/>
<path d="M150 240 c-5 0 -10 -7 -10 -15 0 -8 7 -15 15 -15 8 0 15 -7 15 -15 0
-9 7 -18 15 -22 9 -3 25 3 35 12 11 10 20 24 20 31 0 7 -5 16 -11 20 -7 4 -16
-1 -21 -10 -5 -9 -15 -16 -22 -16 -8 0 -16 7 -20 15 -3 8 -10 15 -16 15z"/>
<path d="M184 150 c-2 0 -4 -7 -4 -15 0 -8 7 -15 16 -15 14 0 14 3 4 15 -7 8
-14 15 -16 15z"/>
</g>
</svg>
