<?xml version="1.0" standalone="no"?>
<!DOCTYPE svg PUBLIC "-//W3C//DTD SVG 20010904//EN"
 "http://www.w3.org/TR/2001/REC-SVG-20010904/DTD/svg10.dtd">
<svg version="1.0" xmlns="http://www.w3.org/2000/svg"
 width="56.000000pt" height="56.000000pt" viewBox="0 0 56.000000 56.000000"
 preserveAspectRatio="xMidYMid meet">
<metadata>
Created by potrace 1.16, written by Peter Selinger 2001-2019
</metadata>
<g transform="translate(0.000000,56.000000) scale(0.100000,-0.100000)"
fill="#000000" stroke="none">
<path d="M273 480 c-20 0 -50 -20 -104 -68 -43 -37 -90 -74 -105 -81 -16 -7
-36 -17 -44 -21 -8 -4 -16 -18 -18 -32 -2 -17 3 -28 14 -32 9 -4 27 0 39 8 13
8 62 20 109 27 71 10 94 10 129 -1 23 -8 57 -22 76 -33 18 -10 51 -37 72 -60
22 -23 47 -55 57 -70 11 -18 24 -27 37 -25 12 2 21 12 23 26 2 16 -6 32 -25
49 -15 14 -48 44 -73 68 -25 23 -62 52 -83 64 -29 16 -64 23 -133 28 -52 3
-94 9 -94 13 0 4 28 27 63 51 34 24 68 49 75 55 6 7 12 17 12 23 0 6 -12 11
-27 11z"/>
</g>
</svg>
