<?xml version="1.0" standalone="no"?>
<!DOCTYPE svg PUBLIC "-//W3C//DTD SVG 20010904//EN"
 "http://www.w3.org/TR/2001/REC-SVG-20010904/DTD/svg10.dtd">
<svg version="1.0" xmlns="http://www.w3.org/2000/svg"
 width="56.000000pt" height="56.000000pt" viewBox="0 0 56.000000 56.000000"
 preserveAspectRatio="xMidYMid meet">
<metadata>
Created by potrace 1.16, written by Peter Selinger 2001-2019
</metadata>
<g transform="translate(0.000000,56.000000) scale(0.100000,-0.100000)"
fill="#000000" stroke="none">
<path d="M254 487 c-5 1 -23 -4 -40 -13 -18 -8 -41 -24 -52 -35 -12 -10 -25
-19 -30 -19 -4 0 -36 -20 -70 -45 -47 -34 -62 -51 -62 -70 0 -25 0 -25 38 -9
20 9 49 22 64 29 22 11 27 11 32 -1 3 -8 13 -14 23 -14 10 0 34 -6 53 -13 20
-6 48 -20 63 -30 14 -9 29 -17 32 -17 3 0 32 -18 64 -39 32 -22 83 -62 113
-90 31 -28 61 -51 67 -51 6 0 11 11 11 25 0 15 -14 41 -32 61 -18 20 -46 43
-63 51 -16 8 -41 26 -55 38 -14 13 -56 40 -95 60 -38 20 -96 42 -129 49 -59
12 -59 12 -10 48 27 19 59 41 72 47 13 7 22 17 19 24 -2 6 -7 12 -13 14z"/>
</g>
</svg>
