<?xml version="1.0" standalone="no"?>
<!DOCTYPE svg PUBLIC "-//W3C//DTD SVG 20010904//EN"
 "http://www.w3.org/TR/2001/REC-SVG-20010904/DTD/svg10.dtd">
<svg version="1.0" xmlns="http://www.w3.org/2000/svg"
 width="56.000000pt" height="56.000000pt" viewBox="0 0 56.000000 56.000000"
 preserveAspectRatio="xMidYMid meet">
<metadata>
Created by potrace 1.16, written by Peter Selinger 2001-2019
</metadata>
<g transform="translate(0.000000,56.000000) scale(0.100000,-0.100000)"
fill="#000000" stroke="none">
<path d="M199 420 c-10 0 -33 -13 -51 -30 -18 -16 -38 -30 -45 -30 -7 0 -32
-11 -55 -24 -23 -13 -44 -28 -45 -33 -2 -5 3 -18 11 -28 14 -19 16 -19 91 19
74 38 79 39 150 33 41 -4 93 -14 117 -23 24 -9 60 -34 80 -56 20 -22 43 -53
50 -69 9 -20 20 -29 35 -29 20 0 23 5 23 38 0 36 -3 40 -92 100 -51 34 -113
68 -137 77 -24 8 -61 15 -83 15 -33 0 -38 3 -29 13 6 8 8 17 4 20 -3 4 -14 7
-24 7z"/>
<path d="M253 158 c-16 2 -23 -2 -23 -13 0 -11 7 -15 23 -13 12 2 22 8 22 13
0 6 -10 11 -22 13z"/>
</g>
</svg>
