<?xml version="1.0" standalone="no"?>
<!DOCTYPE svg PUBLIC "-//W3C//DTD SVG 20010904//EN"
 "http://www.w3.org/TR/2001/REC-SVG-20010904/DTD/svg10.dtd">
<svg version="1.0" xmlns="http://www.w3.org/2000/svg"
 width="56.000000pt" height="56.000000pt" viewBox="0 0 56.000000 56.000000"
 preserveAspectRatio="xMidYMid meet">
<metadata>
Created by potrace 1.16, written by Peter Selinger 2001-2019
</metadata>
<g transform="translate(0.000000,56.000000) scale(0.100000,-0.100000)"
fill="#000000" stroke="none">
<path d="M188 460 c-7 0 -29 -17 -48 -38 -19 -20 -59 -55 -88 -77 -47 -36 -52
-43 -52 -79 0 -40 0 -40 33 -9 17 16 48 38 67 47 19 10 57 22 84 27 47 9 55 7
125 -28 46 -23 104 -64 148 -105 40 -38 80 -68 88 -68 11 0 15 11 15 36 0 31
-8 44 -52 85 -29 26 -84 67 -123 91 -69 42 -71 43 -154 41 -84 -2 -84 -2 -58
25 15 16 27 33 27 40 0 7 -6 12 -12 12z"/>
<path d="M211 174 c-4 3 -20 -7 -34 -22 -15 -16 -27 -33 -27 -39 0 -7 4 -14 9
-17 5 -3 20 12 35 34 14 21 22 41 17 44z"/>
<path d="M265 140 c-7 0 -18 -7 -25 -15 -6 -8 -9 -19 -5 -25 3 -5 17 -10 30
-10 13 0 27 5 30 10 4 6 1 17 -5 25 -7 8 -18 15 -25 15z"/>
</g>
</svg>
