<?xml version="1.0" standalone="no"?>
<!DOCTYPE svg PUBLIC "-//W3C//DTD SVG 20010904//EN"
 "http://www.w3.org/TR/2001/REC-SVG-20010904/DTD/svg10.dtd">
<svg version="1.0" xmlns="http://www.w3.org/2000/svg"
 width="56.000000pt" height="56.000000pt" viewBox="0 0 56.000000 56.000000"
 preserveAspectRatio="xMidYMid meet">
<metadata>
Created by potrace 1.16, written by Peter Selinger 2001-2019
</metadata>
<g transform="translate(0.000000,56.000000) scale(0.100000,-0.100000)"
fill="#000000" stroke="none">
<path d="M280 457 c-8 2 -53 -34 -100 -79 -47 -46 -107 -102 -133 -126 -30
-27 -45 -47 -40 -55 4 -7 18 -24 32 -38 26 -26 26 -26 52 3 15 15 41 31 58 34
16 4 38 15 47 25 12 13 31 19 58 19 23 0 58 -3 78 -6 27 -5 54 -23 104 -70 37
-35 70 -64 73 -64 3 1 16 9 29 19 12 11 22 26 22 35 0 9 -4 16 -8 16 -5 0 -31
23 -58 50 -27 28 -58 56 -68 62 -10 5 -59 14 -108 18 -48 4 -91 10 -94 13 -3
3 -2 12 3 20 4 9 23 32 41 52 18 20 32 44 30 53 -2 9 -10 18 -18 19z"/>
</g>
</svg>
