<?xml version="1.0" standalone="no"?>
<!DOCTYPE svg PUBLIC "-//W3C//DTD SVG 20010904//EN"
 "http://www.w3.org/TR/2001/REC-SVG-20010904/DTD/svg10.dtd">
<svg version="1.0" xmlns="http://www.w3.org/2000/svg"
 width="56.000000pt" height="56.000000pt" viewBox="0 0 56.000000 56.000000"
 preserveAspectRatio="xMidYMid meet">
<metadata>
Created by potrace 1.16, written by Peter Selinger 2001-2019
</metadata>
<g transform="translate(0.000000,56.000000) scale(0.100000,-0.100000)"
fill="#000000" stroke="none">
<path d="M300 470 c-16 0 -41 -12 -61 -30 -19 -17 -63 -50 -99 -74 -36 -24
-80 -51 -97 -60 -19 -9 -35 -27 -39 -41 -3 -13 -3 -29 1 -34 3 -6 16 -11 28
-11 13 0 31 6 42 14 11 7 41 25 67 40 26 14 57 26 69 26 12 0 50 -13 83 -30
35 -17 96 -62 143 -105 47 -43 90 -75 102 -75 14 0 21 6 21 19 0 11 -28 47
-63 80 -34 33 -82 74 -105 91 -23 17 -64 38 -90 46 -26 9 -53 21 -60 27 -9 7
-1 18 36 43 27 18 52 39 55 47 3 8 3 18 0 21 -4 3 -18 6 -33 6z"/>
</g>
</svg>
