<?xml version="1.0" standalone="no"?>
<!DOCTYPE svg PUBLIC "-//W3C//DTD SVG 20010904//EN"
 "http://www.w3.org/TR/2001/REC-SVG-20010904/DTD/svg10.dtd">
<svg version="1.0" xmlns="http://www.w3.org/2000/svg"
 width="56.000000pt" height="56.000000pt" viewBox="0 0 56.000000 56.000000"
 preserveAspectRatio="xMidYMid meet">
<metadata>
Created by potrace 1.16, written by Peter Selinger 2001-2019
</metadata>
<g transform="translate(0.000000,56.000000) scale(0.100000,-0.100000)"
fill="#000000" stroke="none">
<path d="M282 420 c-11 0 -57 -28 -103 -62 -46 -34 -86 -65 -89 -69 -3 -4 -21
-15 -40 -26 -26 -15 -37 -29 -44 -57 -6 -29 -5 -40 5 -47 10 -6 23 1 44 24 17
18 52 43 78 56 41 20 58 23 105 17 31 -3 77 -16 102 -28 25 -12 75 -36 112
-55 36 -18 76 -33 87 -33 15 0 21 6 21 23 0 20 -11 28 -72 51 -40 15 -84 32
-98 38 -14 6 -33 14 -42 19 -10 5 -28 9 -40 9 -13 1 -44 7 -71 13 -47 13 -47
13 -25 33 13 12 38 31 56 43 17 12 32 29 32 37 0 8 -8 14 -18 14z"/>
</g>
</svg>
