<?xml version="1.0" standalone="no"?>
<!DOCTYPE svg PUBLIC "-//W3C//DTD SVG 20010904//EN"
 "http://www.w3.org/TR/2001/REC-SVG-20010904/DTD/svg10.dtd">
<svg version="1.0" xmlns="http://www.w3.org/2000/svg"
 width="56.000000pt" height="56.000000pt" viewBox="0 0 56.000000 56.000000"
 preserveAspectRatio="xMidYMid meet">
<metadata>
Created by potrace 1.16, written by Peter Selinger 2001-2019
</metadata>
<g transform="translate(0.000000,56.000000) scale(0.100000,-0.100000)"
fill="#000000" stroke="none">
<path d="M230 496 c-36 2 -64 -8 -135 -45 -63 -32 -91 -52 -93 -66 -2 -12 9
-31 25 -46 15 -15 48 -34 73 -43 25 -9 74 -20 110 -25 36 -5 89 -18 118 -29
30 -10 69 -34 88 -51 19 -18 34 -36 34 -41 0 -5 -4 -12 -10 -15 -5 -3 -10 -12
-10 -20 0 -7 18 -22 40 -34 22 -12 52 -21 65 -21 22 0 25 5 25 33 0 26 -6 37
-26 47 -14 8 -32 28 -39 45 -8 16 -22 39 -32 51 -10 11 -30 28 -45 38 -15 10
-32 15 -37 11 -6 -3 -29 7 -52 22 -34 22 -55 28 -112 30 -45 2 -81 9 -101 21
-17 10 -32 25 -33 33 -2 8 16 22 45 35 26 12 69 28 95 36 27 8 49 18 50 24 1
5 -18 10 -43 10z"/>
</g>
</svg>
