<?xml version="1.0" standalone="no"?>
<!DOCTYPE svg PUBLIC "-//W3C//DTD SVG 20010904//EN"
 "http://www.w3.org/TR/2001/REC-SVG-20010904/DTD/svg10.dtd">
<svg version="1.0" xmlns="http://www.w3.org/2000/svg"
 width="56.000000pt" height="56.000000pt" viewBox="0 0 56.000000 56.000000"
 preserveAspectRatio="xMidYMid meet">
<metadata>
Created by potrace 1.16, written by Peter Selinger 2001-2019
</metadata>
<g transform="translate(0.000000,56.000000) scale(0.100000,-0.100000)"
fill="#000000" stroke="none">
<path d="M219 440 c-21 0 -46 -15 -92 -56 -34 -31 -77 -70 -94 -86 -18 -16
-33 -33 -33 -38 0 -5 7 -16 16 -24 8 -9 22 -16 31 -16 8 0 40 20 71 44 32 24
72 51 90 60 30 16 35 16 70 0 20 -9 47 -21 59 -27 13 -5 32 -18 42 -29 11 -10
27 -18 36 -18 8 0 15 -5 15 -11 0 -5 23 -32 52 -60 28 -27 57 -49 65 -49 7 0
13 7 13 15 0 8 -4 15 -10 15 -5 0 -22 18 -36 40 -14 21 -39 45 -54 52 -16 7
-31 19 -33 28 -2 8 -17 22 -33 30 -16 8 -32 19 -35 24 -4 5 -30 17 -58 27 -29
10 -59 15 -67 12 -8 -3 -14 -1 -14 4 0 6 9 18 20 28 11 10 17 22 14 26 -3 5
-18 9 -35 9z"/>
</g>
</svg>
