<?xml version="1.0" standalone="no"?>
<!DOCTYPE svg PUBLIC "-//W3C//DTD SVG 20010904//EN"
 "http://www.w3.org/TR/2001/REC-SVG-20010904/DTD/svg10.dtd">
<svg version="1.0" xmlns="http://www.w3.org/2000/svg"
 width="56.000000pt" height="56.000000pt" viewBox="0 0 56.000000 56.000000"
 preserveAspectRatio="xMidYMid meet">
<metadata>
Created by potrace 1.16, written by Peter Selinger 2001-2019
</metadata>
<g transform="translate(0.000000,56.000000) scale(0.100000,-0.100000)"
fill="#000000" stroke="none">
<path d="M303 430 c-16 0 -39 -6 -53 -13 -14 -7 -29 -21 -34 -32 -5 -11 -49
-47 -99 -80 -50 -33 -96 -66 -104 -73 -7 -7 -13 -22 -13 -32 0 -10 8 -21 17
-24 11 -5 30 8 64 44 26 27 53 50 61 50 8 0 19 5 25 11 6 6 34 11 62 11 28 0
64 -4 79 -10 15 -5 45 -15 67 -22 22 -6 50 -20 63 -31 13 -10 21 -23 18 -28
-3 -5 -41 -16 -83 -26 -43 -9 -84 -19 -91 -21 -8 -2 -12 -10 -9 -17 3 -8 19
-11 48 -9 24 2 49 7 54 12 6 4 26 10 45 14 19 3 59 6 88 6 39 -1 52 3 52 14 0
8 -15 31 -32 51 -18 20 -51 45 -72 56 -22 10 -46 19 -53 19 -7 0 -21 4 -31 9
-9 5 -43 15 -74 22 -32 7 -58 15 -58 19 0 3 20 17 45 29 25 12 45 29 45 37 0
9 -10 14 -27 14z"/>
</g>
</svg>
