<?xml version="1.0" standalone="no"?>
<!DOCTYPE svg PUBLIC "-//W3C//DTD SVG 20010904//EN"
 "http://www.w3.org/TR/2001/REC-SVG-20010904/DTD/svg10.dtd">
<svg version="1.0" xmlns="http://www.w3.org/2000/svg"
 width="56.000000pt" height="56.000000pt" viewBox="0 0 56.000000 56.000000"
 preserveAspectRatio="xMidYMid meet">
<metadata>
Created by potrace 1.16, written by Peter Selinger 2001-2019
</metadata>
<g transform="translate(0.000000,56.000000) scale(0.100000,-0.100000)"
fill="#000000" stroke="none">
<path d="M266 458 c-51 2 -87 -1 -91 -8 -3 -5 0 -12 7 -15 7 -3 48 -4 91 -2
43 1 77 6 77 12 0 6 -37 11 -84 13z"/>
<path d="M114 405 c-21 4 -35 0 -44 -10 -7 -8 -24 -21 -38 -28 -14 -6 -27 -18
-30 -24 -2 -8 5 -13 17 -13 12 0 21 5 21 10 0 6 30 10 70 10 44 0 82 6 100 15
18 9 31 11 35 5 3 -5 25 -18 48 -28 23 -10 63 -37 89 -59 26 -23 50 -43 55
-44 4 -2 30 -37 57 -77 26 -39 52 -72 57 -72 5 0 9 22 9 50 0 32 -5 52 -14 57
-8 4 -31 29 -51 56 -20 26 -41 47 -46 47 -6 0 -30 16 -55 36 -24 20 -60 40
-81 45 -21 5 -67 12 -103 14 -36 3 -79 7 -96 10z"/>
<path d="M240 200 c-17 0 -30 -4 -30 -9 0 -5 7 -14 15 -21 8 -7 15 -28 15 -47
0 -32 2 -34 27 -31 17 2 29 10 31 21 2 10 -4 34 -13 53 -13 27 -22 34 -45 34z"/>
</g>
</svg>
