<?xml version="1.0" standalone="no"?>
<!DOCTYPE svg PUBLIC "-//W3C//DTD SVG 20010904//EN"
 "http://www.w3.org/TR/2001/REC-SVG-20010904/DTD/svg10.dtd">
<svg version="1.0" xmlns="http://www.w3.org/2000/svg"
 width="56.000000pt" height="56.000000pt" viewBox="0 0 56.000000 56.000000"
 preserveAspectRatio="xMidYMid meet">
<metadata>
Created by potrace 1.16, written by Peter Selinger 2001-2019
</metadata>
<g transform="translate(0.000000,56.000000) scale(0.100000,-0.100000)"
fill="#000000" stroke="none">
<path d="M20 400 c-13 17 -20 20 -20 10 0 -8 5 -32 11 -53 6 -21 19 -47 30
-58 14 -14 27 -18 41 -13 11 3 41 19 66 35 33 21 59 29 90 29 28 0 66 -11 106
-29 33 -17 77 -46 95 -65 23 -23 30 -36 20 -37 -7 -1 -28 0 -45 1 -18 1 -35
-4 -39 -10 -4 -6 6 -15 25 -22 17 -6 53 -21 78 -34 26 -13 55 -24 65 -24 12 0
17 8 17 30 0 17 -4 30 -10 30 -5 0 -10 6 -10 13 0 6 -20 32 -44 57 -23 25 -52
52 -63 61 -12 10 -50 31 -86 48 -46 22 -80 31 -115 31 -28 0 -71 -9 -97 -20
-26 -11 -58 -20 -71 -20 -13 0 -24 3 -24 8 0 4 -9 18 -20 32z"/>
</g>
</svg>
