<?xml version="1.0" standalone="no"?>
<!DOCTYPE svg PUBLIC "-//W3C//DTD SVG 20010904//EN"
 "http://www.w3.org/TR/2001/REC-SVG-20010904/DTD/svg10.dtd">
<svg version="1.0" xmlns="http://www.w3.org/2000/svg"
 width="56.000000pt" height="56.000000pt" viewBox="0 0 56.000000 56.000000"
 preserveAspectRatio="xMidYMid meet">
<metadata>
Created by potrace 1.16, written by Peter Selinger 2001-2019
</metadata>
<g transform="translate(0.000000,56.000000) scale(0.100000,-0.100000)"
fill="#000000" stroke="none">
<path d="M277 419 c-7 0 -21 -4 -32 -8 -11 -5 -36 -13 -56 -20 -19 -6 -49 -11
-66 -11 -18 0 -39 -7 -48 -16 -15 -15 -15 -18 1 -35 9 -11 27 -19 39 -19 12 0
40 9 63 20 22 11 49 20 58 20 9 0 42 -19 73 -42 31 -23 65 -51 76 -62 11 -12
35 -41 53 -65 17 -25 32 -50 32 -56 0 -7 8 -19 18 -28 10 -10 24 -17 31 -17 7
0 19 6 27 14 8 8 14 18 14 21 0 4 -24 32 -54 63 -29 32 -90 99 -136 150 -45
50 -87 92 -93 91z"/>
<path d="M297 104 c-10 13 -15 14 -25 4 -6 -6 -12 -18 -12 -25 0 -7 9 -13 19
-13 11 0 22 4 25 9 3 4 0 16 -7 25z"/>
</g>
</svg>
