<?xml version="1.0" standalone="no"?>
<!DOCTYPE svg PUBLIC "-//W3C//DTD SVG 20010904//EN"
 "http://www.w3.org/TR/2001/REC-SVG-20010904/DTD/svg10.dtd">
<svg version="1.0" xmlns="http://www.w3.org/2000/svg"
 width="56.000000pt" height="56.000000pt" viewBox="0 0 56.000000 56.000000"
 preserveAspectRatio="xMidYMid meet">
<metadata>
Created by potrace 1.16, written by Peter Selinger 2001-2019
</metadata>
<g transform="translate(0.000000,56.000000) scale(0.100000,-0.100000)"
fill="#000000" stroke="none">
<path d="M27 380 c-8 0 -17 -3 -20 -7 -4 -3 -7 -19 -7 -35 0 -15 9 -37 19 -47
19 -19 20 -19 76 1 37 13 69 18 93 14 20 -3 62 -9 92 -14 30 -6 69 -14 86 -20
17 -5 41 -15 53 -21 15 -9 20 -18 15 -35 -4 -19 0 -24 34 -34 22 -7 51 -12 66
-12 20 0 26 5 26 23 -1 14 -15 33 -43 53 -23 17 -58 36 -77 43 -19 7 -44 17
-55 21 -11 4 -33 12 -50 18 -16 5 -48 15 -71 22 -24 7 -61 10 -88 6 -25 -3
-66 -9 -91 -12 -41 -5 -45 -4 -45 15 0 12 -6 21 -13 21z"/>
<path d="M255 200 c-13 0 -27 -5 -30 -10 -4 -6 -1 -17 5 -25 7 -8 22 -15 35
-15 12 0 25 3 28 6 3 4 2 15 -4 25 -5 11 -21 19 -34 19z"/>
</g>
</svg>
