<?xml version="1.0" standalone="no"?>
<!DOCTYPE svg PUBLIC "-//W3C//DTD SVG 20010904//EN"
 "http://www.w3.org/TR/2001/REC-SVG-20010904/DTD/svg10.dtd">
<svg version="1.0" xmlns="http://www.w3.org/2000/svg"
 width="56.000000pt" height="56.000000pt" viewBox="0 0 56.000000 56.000000"
 preserveAspectRatio="xMidYMid meet">
<metadata>
Created by potrace 1.16, written by Peter Selinger 2001-2019
</metadata>
<g transform="translate(0.000000,56.000000) scale(0.100000,-0.100000)"
fill="#000000" stroke="none">
<path d="M111 540 c-5 0 -20 -12 -35 -26 -14 -15 -26 -30 -26 -34 0 -3 -10 -6
-23 -6 -16 1 -23 -5 -25 -21 -3 -20 1 -23 27 -23 17 0 53 -13 81 -30 28 -16
55 -30 60 -30 6 0 30 -15 55 -34 24 -19 54 -37 65 -41 11 -3 20 -10 20 -14 0
-5 26 -29 59 -54 34 -27 78 -76 107 -119 27 -40 54 -76 59 -80 6 -4 13 -8 18
-8 4 0 7 18 7 40 0 22 -4 40 -8 40 -5 0 -15 15 -24 33 -8 17 -36 57 -61 89
-26 31 -60 62 -77 70 -16 7 -30 16 -30 19 0 3 -12 18 -27 33 -14 15 -40 33
-57 40 -17 7 -53 22 -81 34 -27 11 -65 26 -82 32 -18 7 -33 16 -33 19 0 4 11
18 25 31 13 12 22 27 19 31 -3 5 -9 9 -13 9z"/>
<path d="M319 110 c-5 0 -9 -2 -9 -3 0 -2 7 -18 15 -34 9 -17 21 -35 28 -41 6
-5 25 -12 41 -15 17 -3 36 -3 43 0 11 4 7 13 -13 34 -18 19 -38 29 -56 29 -16
0 -31 7 -34 15 -4 8 -10 15 -15 15z"/>
<path d="M138 78 c-20 12 -39 18 -42 15 -3 -4 -6 -15 -6 -25 0 -11 7 -18 19
-18 10 0 21 -9 24 -20 3 -13 14 -20 30 -20 14 0 29 5 33 11 3 6 0 17 -7 24 -8
7 -30 22 -51 33z"/>
</g>
</svg>
