<?xml version="1.0" standalone="no"?>
<!DOCTYPE svg PUBLIC "-//W3C//DTD SVG 20010904//EN"
 "http://www.w3.org/TR/2001/REC-SVG-20010904/DTD/svg10.dtd">
<svg version="1.0" xmlns="http://www.w3.org/2000/svg"
 width="56.000000pt" height="56.000000pt" viewBox="0 0 56.000000 56.000000"
 preserveAspectRatio="xMidYMid meet">
<metadata>
Created by potrace 1.16, written by Peter Selinger 2001-2019
</metadata>
<g transform="translate(0.000000,56.000000) scale(0.100000,-0.100000)"
fill="#000000" stroke="none">
<path d="M323 470 c-32 -1 -50 -11 -115 -68 -42 -37 -94 -80 -115 -95 -21 -15
-50 -37 -66 -48 -16 -13 -27 -30 -27 -45 0 -17 7 -25 25 -30 14 -4 66 1 114
10 49 9 126 16 172 16 77 0 88 -3 134 -32 50 -31 50 -31 8 -50 -24 -10 -43
-23 -43 -28 0 -6 26 -10 58 -10 31 0 65 7 75 14 9 7 17 23 17 35 0 13 -7 21
-17 22 -10 1 -24 1 -30 0 -7 -1 -13 7 -13 18 0 13 -17 32 -46 52 -47 32 -47
32 -190 25 -97 -5 -144 -4 -144 3 0 6 13 17 28 25 16 8 55 36 88 63 32 26 65
53 72 60 8 7 22 18 33 23 10 6 19 17 19 25 0 11 -11 15 -37 15z"/>
</g>
</svg>
