<?xml version="1.0" standalone="no"?>
<!DOCTYPE svg PUBLIC "-//W3C//DTD SVG 20010904//EN"
 "http://www.w3.org/TR/2001/REC-SVG-20010904/DTD/svg10.dtd">
<svg version="1.0" xmlns="http://www.w3.org/2000/svg"
 width="56.000000pt" height="56.000000pt" viewBox="0 0 56.000000 56.000000"
 preserveAspectRatio="xMidYMid meet">
<metadata>
Created by potrace 1.16, written by Peter Selinger 2001-2019
</metadata>
<g transform="translate(0.000000,56.000000) scale(0.100000,-0.100000)"
fill="#000000" stroke="none">
<path d="M248 359 c-29 0 -73 -7 -98 -16 -25 -8 -67 -18 -95 -22 -42 -5 -51
-10 -53 -28 -3 -20 1 -23 32 -23 19 0 59 9 88 19 29 10 65 22 79 25 16 3 39 0
55 -9 16 -8 36 -15 45 -15 8 0 36 -13 62 -30 26 -17 53 -30 60 -30 7 0 26 -9
43 -19 18 -11 40 -20 50 -21 11 -1 25 -2 32 -1 6 0 12 7 12 14 0 7 -17 20 -37
30 -21 9 -60 30 -88 47 -27 17 -57 33 -65 37 -8 3 -27 15 -42 25 -18 12 -43
18 -80 17z"/>
</g>
</svg>
