<?xml version="1.0" standalone="no"?>
<!DOCTYPE svg PUBLIC "-//W3C//DTD SVG 20010904//EN"
 "http://www.w3.org/TR/2001/REC-SVG-20010904/DTD/svg10.dtd">
<svg version="1.0" xmlns="http://www.w3.org/2000/svg"
 width="56.000000pt" height="56.000000pt" viewBox="0 0 56.000000 56.000000"
 preserveAspectRatio="xMidYMid meet">
<metadata>
Created by potrace 1.16, written by Peter Selinger 2001-2019
</metadata>
<g transform="translate(0.000000,56.000000) scale(0.100000,-0.100000)"
fill="#000000" stroke="none">
<path d="M257 439 c-12 0 -44 -18 -72 -40 -27 -22 -80 -63 -118 -91 -51 -38
-67 -57 -67 -75 0 -14 3 -23 8 -21 4 2 25 12 47 22 22 10 49 22 60 26 11 4 33
13 48 19 15 6 40 11 55 11 15 0 58 -11 97 -25 38 -14 78 -32 90 -40 11 -8 31
-23 44 -33 15 -12 22 -25 18 -36 -4 -11 3 -20 23 -31 16 -8 38 -15 50 -15 14
0 20 6 20 23 0 14 -22 43 -65 83 -35 33 -84 71 -108 83 -38 20 -55 22 -133 18
-49 -2 -100 -7 -114 -11 -21 -7 -19 -2 15 28 22 20 45 36 52 36 7 0 13 4 13 9
0 5 16 16 35 25 20 10 33 21 30 27 -4 5 -16 9 -28 8z"/>
<path d="M339 138 c-19 2 -38 0 -42 -4 -3 -4 -4 -11 -1 -15 3 -5 23 -9 45 -9
28 0 39 4 37 13 -3 6 -20 13 -39 15z"/>
</g>
</svg>
