<?xml version="1.0" standalone="no"?>
<!DOCTYPE svg PUBLIC "-//W3C//DTD SVG 20010904//EN"
 "http://www.w3.org/TR/2001/REC-SVG-20010904/DTD/svg10.dtd">
<svg version="1.0" xmlns="http://www.w3.org/2000/svg"
 width="56.000000pt" height="56.000000pt" viewBox="0 0 56.000000 56.000000"
 preserveAspectRatio="xMidYMid meet">
<metadata>
Created by potrace 1.16, written by Peter Selinger 2001-2019
</metadata>
<g transform="translate(0.000000,56.000000) scale(0.100000,-0.100000)"
fill="#000000" stroke="none">
<path d="M219 380 c-8 0 -25 -9 -39 -20 -14 -11 -29 -20 -33 -20 -5 0 -28 -13
-52 -30 -24 -16 -52 -30 -63 -30 -11 0 -23 -7 -26 -16 -3 -9 -6 -20 -6 -25 0
-5 11 -9 25 -9 14 0 25 4 25 8 0 5 15 16 33 25 17 9 51 28 75 42 23 14 53 25
65 25 12 0 33 -9 47 -20 14 -11 30 -20 35 -20 6 0 26 -13 45 -28 19 -16 56
-37 82 -47 26 -10 53 -24 59 -31 6 -8 24 -14 40 -14 25 0 29 4 29 30 0 24 -5
31 -27 36 -16 4 -40 15 -55 25 -14 11 -29 19 -32 19 -4 0 -53 23 -110 50 -57
28 -109 50 -117 50z"/>
</g>
</svg>
