<?xml version="1.0" standalone="no"?>
<!DOCTYPE svg PUBLIC "-//W3C//DTD SVG 20010904//EN"
 "http://www.w3.org/TR/2001/REC-SVG-20010904/DTD/svg10.dtd">
<svg version="1.0" xmlns="http://www.w3.org/2000/svg"
 width="56.000000pt" height="56.000000pt" viewBox="0 0 56.000000 56.000000"
 preserveAspectRatio="xMidYMid meet">
<metadata>
Created by potrace 1.16, written by Peter Selinger 2001-2019
</metadata>
<g transform="translate(0.000000,56.000000) scale(0.100000,-0.100000)"
fill="#000000" stroke="none">
<path d="M216 379 c-28 0 -70 -15 -128 -45 -55 -28 -88 -51 -88 -61 0 -13 8
-15 46 -9 26 3 52 10 58 15 6 4 29 14 51 21 22 7 44 16 50 21 5 5 20 9 32 9
13 0 57 -22 98 -50 41 -27 77 -50 80 -50 3 0 15 -8 26 -18 10 -11 32 -25 47
-32 15 -7 35 -16 44 -21 10 -5 20 -9 23 -9 3 0 5 10 5 23 0 16 -10 27 -37 40
-21 10 -76 45 -123 78 -47 33 -98 66 -114 74 -16 8 -48 15 -70 14z"/>
</g>
</svg>
