<?xml version="1.0" standalone="no"?>
<!DOCTYPE svg PUBLIC "-//W3C//DTD SVG 20010904//EN"
 "http://www.w3.org/TR/2001/REC-SVG-20010904/DTD/svg10.dtd">
<svg version="1.0" xmlns="http://www.w3.org/2000/svg"
 width="56.000000pt" height="56.000000pt" viewBox="0 0 56.000000 56.000000"
 preserveAspectRatio="xMidYMid meet">
<metadata>
Created by potrace 1.16, written by Peter Selinger 2001-2019
</metadata>
<g transform="translate(0.000000,56.000000) scale(0.100000,-0.100000)"
fill="#000000" stroke="none">
<path d="M248 420 c-12 -1 -41 -9 -63 -19 -22 -10 -56 -23 -76 -29 -19 -7 -52
-12 -72 -12 -25 0 -37 -5 -37 -14 0 -8 12 -17 26 -20 14 -4 42 -4 62 0 20 4
42 10 47 14 6 4 40 13 77 20 55 11 73 11 95 1 16 -8 38 -18 49 -25 12 -6 37
-25 56 -42 19 -16 37 -37 41 -45 4 -8 20 -36 36 -64 18 -31 37 -51 50 -53 18
-3 21 2 21 31 0 23 -9 46 -27 68 -16 18 -56 61 -90 95 -50 50 -74 66 -117 78
-30 9 -65 16 -78 16z"/>
</g>
</svg>
