<?xml version="1.0" standalone="no"?>
<!DOCTYPE svg PUBLIC "-//W3C//DTD SVG 20010904//EN"
 "http://www.w3.org/TR/2001/REC-SVG-20010904/DTD/svg10.dtd">
<svg version="1.0" xmlns="http://www.w3.org/2000/svg"
 width="56.000000pt" height="56.000000pt" viewBox="0 0 56.000000 56.000000"
 preserveAspectRatio="xMidYMid meet">
<metadata>
Created by potrace 1.16, written by Peter Selinger 2001-2019
</metadata>
<g transform="translate(0.000000,56.000000) scale(0.100000,-0.100000)"
fill="#000000" stroke="none">
<path d="M245 410 c-14 0 -25 -5 -25 -10 0 -6 -16 -25 -35 -43 -19 -17 -35
-36 -35 -41 0 -4 -19 -27 -43 -50 -24 -22 -56 -48 -71 -56 -16 -8 -31 -21 -34
-28 -2 -7 0 -18 6 -24 9 -9 18 -8 36 2 14 7 45 33 70 57 25 24 52 54 61 66 10
14 34 26 68 33 50 12 55 11 115 -19 34 -17 85 -52 113 -78 35 -32 57 -45 70
-42 10 3 19 14 19 24 0 11 -3 19 -7 19 -5 0 -27 18 -51 39 -24 21 -82 58 -130
82 -48 24 -91 50 -95 57 -4 6 -19 12 -32 12z"/>
</g>
</svg>
