<?xml version="1.0" standalone="no"?>
<!DOCTYPE svg PUBLIC "-//W3C//DTD SVG 20010904//EN"
 "http://www.w3.org/TR/2001/REC-SVG-20010904/DTD/svg10.dtd">
<svg version="1.0" xmlns="http://www.w3.org/2000/svg"
 width="128.000000pt" height="128.000000pt" viewBox="0 0 128.000000 128.000000"
 preserveAspectRatio="xMidYMid meet">
<metadata>
Created by potrace 1.16, written by Peter Selinger 2001-2019
</metadata>
<g transform="translate(0.000000,128.000000) scale(0.100000,-0.100000)"
fill="#000000" stroke="none">
<path d="M244 1280 c-18 0 -24 -7 -30 -35 -5 -29 0 -45 30 -97 21 -34 40 -74
43 -89 3 -16 3 -43 -1 -61 -3 -18 -20 -48 -36 -67 -17 -18 -30 -45 -30 -58 0
-13 7 -38 16 -55 12 -23 15 -48 11 -92 -3 -35 -16 -84 -31 -116 -14 -30 -31
-63 -38 -72 -10 -14 -9 -31 6 -90 10 -40 27 -92 38 -116 11 -26 16 -52 12 -65
-3 -12 -17 -40 -30 -63 -12 -22 -37 -55 -53 -73 -17 -18 -31 -41 -31 -51 0
-10 6 -23 14 -29 8 -7 29 -9 53 -5 25 4 54 18 76 39 25 23 40 49 52 91 9 33
24 73 32 90 9 19 12 41 7 59 -4 15 -20 53 -35 84 -16 31 -29 66 -29 78 0 13
15 40 34 60 26 30 35 50 40 96 6 47 4 69 -12 110 -11 29 -25 70 -32 93 -7 22
-10 49 -8 60 2 11 20 25 48 35 26 10 50 26 57 40 7 13 10 35 7 49 -3 14 -10
37 -16 53 -6 15 -15 27 -20 27 -5 0 -20 12 -34 27 -14 15 -39 53 -56 85 -24
45 -36 58 -54 58z"/>
<path d="M885 1156 c-13 3 -31 -3 -48 -16 -15 -12 -27 -27 -27 -35 0 -7 9 -15
20 -18 11 -3 20 -10 20 -16 0 -6 -6 -11 -14 -11 -7 0 -19 7 -26 15 -7 8 -24
15 -39 15 -15 0 -32 5 -38 11 -7 7 -19 9 -28 5 -9 -3 -15 -11 -13 -17 2 -6 26
-20 52 -30 27 -10 54 -27 62 -37 9 -14 21 -18 40 -14 16 3 29 -1 34 -9 5 -7 3
-24 -5 -39 -8 -15 -32 -43 -54 -63 -23 -20 -46 -37 -51 -37 -6 0 -15 -11 -22
-25 -8 -19 -8 -28 2 -40 7 -8 16 -15 21 -15 4 0 43 31 86 70 43 38 93 84 111
102 18 18 51 42 75 53 31 15 43 27 45 46 2 19 -7 37 -31 63 -32 33 -39 36 -93
36 -33 0 -68 3 -79 6z"/>
<path d="M780 760 c-13 7 -21 7 -26 -1 -4 -6 -20 -8 -40 -5 -29 6 -35 3 -51
-21 -10 -15 -27 -35 -37 -44 -10 -8 -17 -21 -15 -28 3 -9 14 -5 36 13 17 14
38 26 46 26 9 0 19 -5 22 -11 4 -6 2 -32 -5 -57 -8 -28 -27 -62 -48 -84 -25
-27 -45 -38 -64 -38 -16 0 -45 7 -66 15 -37 16 -37 16 0 48 20 18 41 42 48 55
10 21 9 22 -17 16 -15 -3 -45 -17 -65 -30 -20 -13 -40 -33 -43 -46 -4 -12 -17
-30 -29 -39 -21 -18 -21 -18 4 -64 14 -26 34 -53 45 -61 11 -8 33 -14 50 -14
16 1 41 7 55 15 14 8 37 14 52 15 15 0 29 -4 32 -9 4 -5 -5 -23 -19 -39 -16
-19 -28 -48 -31 -79 -4 -26 -13 -61 -21 -76 -13 -25 -12 -31 1 -53 9 -13 36
-33 61 -44 24 -11 53 -20 65 -20 12 0 30 5 40 10 14 8 29 6 55 -4 19 -8 35
-21 35 -29 0 -8 -7 -18 -16 -21 -9 -3 -24 -6 -34 -6 -10 0 -25 -11 -34 -25
-16 -25 -16 -25 66 -25 58 1 89 5 103 16 11 8 36 19 55 24 23 6 48 6 69 0 19
-5 42 -5 56 0 13 5 29 19 35 31 7 12 9 36 5 56 -4 24 -10 33 -20 29 -8 -3 -33
11 -56 30 -23 19 -54 47 -69 64 -15 16 -40 32 -55 36 -17 4 -41 2 -59 -5 -17
-7 -40 -15 -51 -18 -12 -2 -32 5 -48 17 -16 13 -27 31 -27 46 0 14 7 36 17 50
14 22 21 24 52 19 23 -4 50 0 75 10 22 9 55 28 73 42 23 18 48 26 84 28 28 2
58 10 66 17 10 11 15 47 17 134 2 71 -1 124 -7 132 -6 8 -22 10 -46 6 -20 -4
-49 -17 -64 -30 -16 -13 -34 -24 -42 -24 -7 0 -15 -7 -19 -15 -3 -9 -26 -24
-51 -35 -36 -15 -45 -24 -45 -43 0 -14 7 -30 16 -38 13 -11 23 -9 59 10 24 12
53 21 66 19 12 -2 24 -8 26 -15 2 -6 -9 -23 -24 -37 -15 -14 -37 -26 -48 -26
-11 0 -33 -7 -50 -16 -16 -9 -47 -20 -67 -24 -27 -5 -41 -3 -49 6 -7 9 -8 24
-4 41 5 16 9 62 10 103 2 41 -2 83 -6 92 -5 10 -18 22 -29 28z"/>
</g>
</svg>
