<?xml version="1.0" standalone="no"?>
<!DOCTYPE svg PUBLIC "-//W3C//DTD SVG 20010904//EN"
 "http://www.w3.org/TR/2001/REC-SVG-20010904/DTD/svg10.dtd">
<svg version="1.0" xmlns="http://www.w3.org/2000/svg"
 width="128.000000pt" height="128.000000pt" viewBox="0 0 128.000000 128.000000"
 preserveAspectRatio="xMidYMid meet">
<metadata>
Created by potrace 1.16, written by Peter Selinger 2001-2019
</metadata>
<g transform="translate(0.000000,128.000000) scale(0.100000,-0.100000)"
fill="#000000" stroke="none">
<path d="M850 1240 c-22 6 -34 5 -45 -7 -10 -10 -13 -23 -9 -37 4 -11 10 -35
14 -53 6 -26 1 -46 -29 -105 -20 -40 -49 -92 -64 -115 -17 -27 -35 -43 -47
-43 -11 0 -40 -5 -65 -12 -31 -8 -45 -17 -45 -29 0 -10 12 -27 26 -38 20 -16
41 -21 84 -21 47 0 60 4 79 24 15 16 38 26 69 30 26 3 79 9 117 15 39 5 80 13
93 17 17 5 34 -1 67 -25 37 -26 53 -32 87 -29 38 3 43 6 46 30 2 16 -8 46 -23
72 -15 25 -36 48 -48 52 -12 3 -35 16 -52 29 -16 12 -42 25 -56 28 -15 4 -33
1 -44 -7 -12 -9 -16 -21 -13 -39 3 -17 -1 -31 -11 -40 -9 -8 -30 -19 -47 -24
-19 -7 -37 -7 -47 -1 -9 5 -17 15 -17 22 0 7 16 39 36 72 20 32 45 74 56 93
16 28 17 39 8 61 -6 15 -29 37 -51 49 -22 12 -53 26 -69 31z"/>
<path d="M493 1209 c-10 0 -43 -9 -73 -19 -30 -10 -99 -31 -152 -47 -54 -15
-98 -33 -98 -39 0 -6 6 -16 13 -22 7 -6 31 -14 52 -17 22 -4 60 -2 85 4 31 7
48 7 57 -1 7 -6 13 -21 13 -35 0 -13 -4 -33 -10 -43 -5 -10 -38 -32 -73 -49
-35 -17 -74 -31 -88 -31 -13 0 -37 9 -54 20 -16 11 -41 20 -54 20 -14 0 -33
-7 -42 -16 -15 -14 -17 -27 -13 -78 3 -33 10 -73 16 -88 8 -23 5 -43 -18 -107
-28 -79 -28 -79 -9 -120 10 -23 24 -41 30 -41 7 0 35 15 61 33 27 19 63 41 81
50 18 10 47 17 66 17 18 0 38 -5 45 -12 7 -7 12 -27 12 -45 0 -19 -7 -45 -16
-59 -10 -14 -30 -32 -46 -40 -17 -9 -48 -14 -71 -13 -23 1 -68 -4 -99 -11 -43
-10 -58 -18 -58 -30 0 -9 8 -24 18 -33 9 -8 37 -26 61 -39 35 -18 47 -31 54
-57 5 -23 4 -48 -5 -77 -7 -24 -16 -44 -21 -44 -5 0 -24 16 -42 36 -26 27 -40
35 -62 32 -27 -3 -28 -5 -27 -53 0 -27 7 -63 15 -80 11 -24 23 -31 59 -37 28
-5 55 -4 72 3 14 6 43 32 65 59 21 27 48 53 60 59 12 6 34 28 47 50 14 22 30
42 36 46 5 3 10 13 10 22 0 9 8 26 19 37 10 12 25 42 34 68 8 26 13 55 11 65
-3 11 11 56 31 102 23 53 35 91 31 106 -3 12 -20 33 -38 47 -18 13 -53 32 -78
41 -45 17 -47 17 -99 -8 -29 -15 -63 -25 -74 -23 -14 2 -24 14 -29 36 -7 25
-5 40 6 57 10 16 29 26 53 30 21 3 46 10 55 16 10 5 32 9 50 9 18 0 50 5 71
11 25 6 44 21 56 40 10 16 24 55 31 87 7 31 21 68 31 81 11 13 19 38 19 55 0
17 -4 36 -8 42 -4 6 -17 16 -29 23 -12 6 -30 11 -40 10z"/>
<path d="M861 789 c-14 0 -36 -7 -48 -16 -13 -8 -23 -19 -23 -23 0 -4 15 -23
34 -42 26 -26 33 -41 29 -58 -3 -12 -20 -31 -37 -41 -19 -11 -50 -19 -78 -19
-26 0 -69 -7 -95 -16 -26 -9 -51 -19 -55 -22 -4 -4 -1 -39 7 -79 8 -40 19 -81
25 -92 10 -20 17 -20 115 -14 104 6 104 6 103 -53 0 -32 -5 -67 -9 -76 -5 -9
-22 -19 -39 -23 -17 -4 -51 -18 -76 -32 -26 -14 -67 -30 -92 -35 -25 -4 -49
-13 -53 -20 -4 -6 -5 -17 -3 -23 3 -7 16 -17 30 -24 14 -6 35 -11 48 -11 13 0
36 10 51 22 19 15 45 22 81 24 32 2 76 14 109 29 30 15 57 30 60 34 2 5 42 7
87 6 46 -1 91 -5 100 -9 9 -4 24 -19 33 -32 9 -15 25 -24 40 -24 15 0 31 9 40
23 13 21 13 28 -1 69 -8 25 -23 52 -32 60 -9 8 -37 22 -62 31 -25 9 -58 17
-73 17 -21 0 -30 -7 -41 -34 -8 -19 -23 -39 -33 -44 -10 -6 -30 -11 -44 -13
-14 -2 -34 2 -43 10 -11 9 -16 29 -16 66 0 28 5 65 10 82 7 19 7 39 2 54 -5
13 -7 42 -3 63 5 35 12 42 51 62 25 12 64 24 88 27 32 4 48 1 65 -13 22 -18
22 -18 -9 -61 -18 -24 -40 -46 -50 -49 -11 -3 -29 -12 -41 -20 -13 -8 -23 -22
-23 -31 0 -9 8 -23 18 -32 10 -10 26 -17 36 -17 9 0 30 7 46 15 16 8 47 42 70
75 24 32 53 66 65 74 13 9 26 29 30 46 4 16 11 30 16 30 5 0 9 8 9 18 -1 9
-17 29 -37 45 -20 15 -46 28 -57 28 -12 1 -28 0 -36 -1 -8 -1 -31 -11 -49 -23
-19 -12 -55 -23 -79 -25 -24 -2 -50 2 -58 9 -8 6 -14 25 -14 41 0 21 -10 39
-31 59 -19 17 -42 29 -58 28z m-90 -242 c22 -3 47 -11 55 -18 10 -8 14 -26 12
-53 -3 -39 -5 -41 -31 -38 -16 2 -39 -4 -52 -12 -18 -12 -25 -13 -33 -3 -5 7
-13 27 -17 45 -5 23 -2 40 10 59 15 22 22 25 56 20z"/>
</g>
</svg>
