<?xml version="1.0" standalone="no"?>
<!DOCTYPE svg PUBLIC "-//W3C//DTD SVG 20010904//EN"
 "http://www.w3.org/TR/2001/REC-SVG-20010904/DTD/svg10.dtd">
<svg version="1.0" xmlns="http://www.w3.org/2000/svg"
 width="56.000000pt" height="56.000000pt" viewBox="0 0 56.000000 56.000000"
 preserveAspectRatio="xMidYMid meet">
<metadata>
Created by potrace 1.16, written by Peter Selinger 2001-2019
</metadata>
<g transform="translate(0.000000,56.000000) scale(0.100000,-0.100000)"
fill="#000000" stroke="none">
<path d="M301 560 c-64 0 -69 -2 -75 -23 -3 -13 -23 -37 -45 -55 -21 -17 -42
-43 -45 -57 -5 -21 9 -58 63 -168 50 -102 82 -155 115 -188 25 -26 46 -52 46
-59 0 -6 5 -10 12 -8 7 3 19 18 29 34 10 18 14 42 11 63 -3 22 -11 35 -23 38
-11 3 -19 10 -20 17 -1 6 0 23 1 38 1 15 -6 35 -15 45 -8 10 -34 40 -55 66
-22 27 -47 61 -55 77 -14 26 -13 29 10 44 15 10 25 26 25 40 0 18 12 31 45 50
25 15 45 31 45 36 0 6 -31 10 -69 10z"/>
</g>
</svg>
