<?xml version="1.0" standalone="no"?>
<!DOCTYPE svg PUBLIC "-//W3C//DTD SVG 20010904//EN"
 "http://www.w3.org/TR/2001/REC-SVG-20010904/DTD/svg10.dtd">
<svg version="1.0" xmlns="http://www.w3.org/2000/svg"
 width="56.000000pt" height="56.000000pt" viewBox="0 0 56.000000 56.000000"
 preserveAspectRatio="xMidYMid meet">
<metadata>
Created by potrace 1.16, written by Peter Selinger 2001-2019
</metadata>
<g transform="translate(0.000000,56.000000) scale(0.100000,-0.100000)"
fill="#000000" stroke="none">
<path d="M323 560 c-18 0 -33 -4 -33 -8 0 -4 5 -13 12 -20 9 -9 9 -18 0 -37
-7 -14 -12 -37 -12 -50 0 -14 -4 -25 -8 -25 -4 0 -16 -20 -26 -44 -10 -25 -29
-55 -41 -66 -13 -12 -26 -37 -30 -57 -4 -21 -2 -40 6 -49 9 -11 15 -12 25 -3
11 9 14 9 14 0 0 -6 -5 -20 -12 -30 -9 -15 -7 -24 10 -46 12 -15 22 -34 22
-41 0 -7 14 -29 31 -49 19 -22 40 -35 55 -35 17 0 24 6 24 19 0 11 -4 23 -10
26 -5 3 -10 14 -10 24 0 10 -7 32 -16 49 -8 18 -21 35 -28 39 -7 5 -18 22 -25
39 -6 17 -13 49 -14 72 -1 33 3 45 21 58 12 8 40 46 63 85 41 68 42 71 29 109
-12 36 -17 40 -47 40z"/>
</g>
</svg>
