<?xml version="1.0" standalone="no"?>
<!DOCTYPE svg PUBLIC "-//W3C//DTD SVG 20010904//EN"
 "http://www.w3.org/TR/2001/REC-SVG-20010904/DTD/svg10.dtd">
<svg version="1.0" xmlns="http://www.w3.org/2000/svg"
 width="56.000000pt" height="56.000000pt" viewBox="0 0 56.000000 56.000000"
 preserveAspectRatio="xMidYMid meet">
<metadata>
Created by potrace 1.16, written by Peter Selinger 2001-2019
</metadata>
<g transform="translate(0.000000,56.000000) scale(0.100000,-0.100000)"
fill="#000000" stroke="none">
<path d="M288 560 c-40 -1 -42 -2 -23 -16 11 -8 29 -13 39 -12 11 2 21 9 24
16 2 8 -9 12 -40 12z"/>
<path d="M141 530 c-20 -1 -33 -12 -55 -46 -22 -36 -27 -52 -22 -79 4 -20 2
-42 -5 -53 -10 -16 -10 -26 0 -51 8 -17 28 -40 47 -52 18 -11 51 -41 73 -65
22 -25 66 -61 98 -81 32 -19 67 -46 79 -60 12 -16 33 -28 50 -30 16 -1 38 -4
49 -5 16 -2 21 4 25 37 3 22 9 45 13 52 4 6 -14 31 -44 60 -38 37 -69 56 -121
74 -39 13 -86 38 -104 54 -26 22 -38 45 -50 90 -9 33 -14 81 -11 108 4 45 3
47 -22 47z"/>
</g>
</svg>
