<?xml version="1.0" standalone="no"?>
<!DOCTYPE svg PUBLIC "-//W3C//DTD SVG 20010904//EN"
 "http://www.w3.org/TR/2001/REC-SVG-20010904/DTD/svg10.dtd">
<svg version="1.0" xmlns="http://www.w3.org/2000/svg"
 width="56.000000pt" height="56.000000pt" viewBox="0 0 56.000000 56.000000"
 preserveAspectRatio="xMidYMid meet">
<metadata>
Created by potrace 1.16, written by Peter Selinger 2001-2019
</metadata>
<g transform="translate(0.000000,56.000000) scale(0.100000,-0.100000)"
fill="#000000" stroke="none">
<path d="M315 560 c-17 0 -25 -6 -25 -17 0 -10 -8 -31 -18 -48 -10 -16 -32
-66 -50 -110 -17 -44 -34 -99 -38 -122 -5 -35 -1 -53 26 -106 17 -35 50 -85
72 -111 28 -33 47 -46 62 -44 12 2 25 14 30 30 7 21 5 36 -10 63 -10 20 -31
43 -45 50 -14 8 -31 27 -37 42 -6 15 -14 49 -18 74 -5 38 0 65 26 140 17 52
36 102 41 111 5 10 9 25 9 33 0 9 -9 15 -25 15z"/>
</g>
</svg>
