<?xml version="1.0" standalone="no"?>
<!DOCTYPE svg PUBLIC "-//W3C//DTD SVG 20010904//EN"
 "http://www.w3.org/TR/2001/REC-SVG-20010904/DTD/svg10.dtd">
<svg version="1.0" xmlns="http://www.w3.org/2000/svg"
 width="56.000000pt" height="56.000000pt" viewBox="0 0 56.000000 56.000000"
 preserveAspectRatio="xMidYMid meet">
<metadata>
Created by potrace 1.16, written by Peter Selinger 2001-2019
</metadata>
<g transform="translate(0.000000,56.000000) scale(0.100000,-0.100000)"
fill="#000000" stroke="none">
<path d="M186 560 c-56 0 -64 -3 -69 -21 -3 -11 8 -50 27 -92 19 -40 41 -79
50 -86 9 -8 27 -36 41 -63 14 -27 25 -57 25 -66 0 -9 -17 -30 -37 -47 -21 -16
-51 -36 -68 -43 -16 -7 -40 -23 -52 -34 -17 -16 -23 -33 -23 -65 0 -29 4 -43
13 -43 7 0 28 11 47 25 21 15 47 25 69 25 19 0 53 8 75 18 23 11 66 29 96 42
30 13 63 31 73 39 9 8 17 19 17 26 0 6 -18 29 -41 50 -22 22 -50 58 -61 80
-11 22 -32 54 -45 70 -13 17 -40 55 -59 85 -29 44 -34 58 -25 72 6 10 11 20
11 23 0 3 -29 5 -64 5z"/>
</g>
</svg>
