<?xml version="1.0" standalone="no"?>
<!DOCTYPE svg PUBLIC "-//W3C//DTD SVG 20010904//EN"
 "http://www.w3.org/TR/2001/REC-SVG-20010904/DTD/svg10.dtd">
<svg version="1.0" xmlns="http://www.w3.org/2000/svg"
 width="56.000000pt" height="56.000000pt" viewBox="0 0 56.000000 56.000000"
 preserveAspectRatio="xMidYMid meet">
<metadata>
Created by potrace 1.16, written by Peter Selinger 2001-2019
</metadata>
<g transform="translate(0.000000,56.000000) scale(0.100000,-0.100000)"
fill="#000000" stroke="none">
<path d="M163 560 c-66 0 -66 0 -58 -47 5 -27 9 -71 9 -98 1 -45 5 -55 44 -95
23 -24 42 -52 42 -61 0 -10 4 -20 9 -24 5 -3 13 -20 17 -38 3 -17 17 -46 30
-63 13 -17 24 -41 24 -54 0 -14 -13 -35 -32 -51 -33 -28 -33 -28 77 -29 110 0
110 0 110 108 0 107 0 107 -48 166 -27 33 -57 77 -68 97 -10 21 -25 42 -33 46
-7 4 -20 22 -28 38 -9 17 -18 47 -22 68 -7 37 -7 37 -73 37z"/>
</g>
</svg>
