<?xml version="1.0" standalone="no"?>
<!DOCTYPE svg PUBLIC "-//W3C//DTD SVG 20010904//EN"
 "http://www.w3.org/TR/2001/REC-SVG-20010904/DTD/svg10.dtd">
<svg version="1.0" xmlns="http://www.w3.org/2000/svg"
 width="56.000000pt" height="56.000000pt" viewBox="0 0 56.000000 56.000000"
 preserveAspectRatio="xMidYMid meet">
<metadata>
Created by potrace 1.16, written by Peter Selinger 2001-2019
</metadata>
<g transform="translate(0.000000,56.000000) scale(0.100000,-0.100000)"
fill="#000000" stroke="none">
<path d="M253 560 c-21 0 -35 -10 -55 -39 -16 -22 -28 -49 -28 -60 0 -11 -7
-39 -16 -61 -12 -30 -15 -57 -11 -98 5 -44 12 -62 31 -79 14 -12 24 -28 21
-35 -3 -7 18 -41 47 -75 32 -38 69 -71 95 -83 24 -11 48 -18 53 -15 6 4 10 21
10 38 -1 26 -9 39 -47 67 -25 19 -58 46 -73 60 -16 14 -40 36 -54 49 -16 14
-26 34 -26 51 0 16 -4 31 -9 34 -4 3 -8 24 -8 47 0 31 9 56 37 98 20 31 42 66
49 79 11 20 10 22 -16 22z"/>
</g>
</svg>
