<?xml version="1.0" standalone="no"?>
<!DOCTYPE svg PUBLIC "-//W3C//DTD SVG 20010904//EN"
 "http://www.w3.org/TR/2001/REC-SVG-20010904/DTD/svg10.dtd">
<svg version="1.0" xmlns="http://www.w3.org/2000/svg"
 width="56.000000pt" height="56.000000pt" viewBox="0 0 56.000000 56.000000"
 preserveAspectRatio="xMidYMid meet">
<metadata>
Created by potrace 1.16, written by Peter Selinger 2001-2019
</metadata>
<g transform="translate(0.000000,56.000000) scale(0.100000,-0.100000)"
fill="#000000" stroke="none">
<path d="M180 475 c-19 3 -42 1 -50 -5 -8 -5 -27 -8 -41 -5 -17 4 -34 -1 -52
-15 -15 -12 -27 -25 -27 -30 0 -4 11 -18 25 -31 13 -13 25 -28 25 -34 1 -5 15
-21 31 -35 17 -14 44 -40 62 -57 17 -18 37 -33 44 -33 7 0 13 -7 13 -15 0 -8
4 -15 10 -15 5 0 29 -18 51 -40 23 -22 46 -40 52 -40 6 0 20 -9 32 -20 15 -15
39 -22 81 -24 54 -4 62 -1 92 25 17 16 32 37 32 48 0 10 -7 21 -15 25 -8 3
-15 12 -15 21 0 8 7 15 15 15 8 0 15 9 15 20 0 11 -4 20 -10 20 -5 0 -16 15
-23 33 -8 17 -45 62 -82 99 -37 37 -71 65 -76 62 -4 -2 -32 2 -61 9 -29 8 -62
15 -73 16 -11 0 -36 3 -55 6z"/>
</g>
</svg>
