<?xml version="1.0" standalone="no"?>
<!DOCTYPE svg PUBLIC "-//W3C//DTD SVG 20010904//EN"
 "http://www.w3.org/TR/2001/REC-SVG-20010904/DTD/svg10.dtd">
<svg version="1.0" xmlns="http://www.w3.org/2000/svg"
 width="56.000000pt" height="56.000000pt" viewBox="0 0 56.000000 56.000000"
 preserveAspectRatio="xMidYMid meet">
<metadata>
Created by potrace 1.16, written by Peter Selinger 2001-2019
</metadata>
<g transform="translate(0.000000,56.000000) scale(0.100000,-0.100000)"
fill="#000000" stroke="none">
<path d="M328 560 c-42 0 -43 -1 -76 -63 -32 -62 -32 -62 -23 -149 5 -47 16
-99 24 -115 9 -16 18 -45 22 -64 6 -32 2 -41 -39 -89 -25 -30 -46 -60 -46 -67
0 -8 13 -13 36 -13 27 0 43 7 62 28 15 16 37 34 50 41 12 6 22 20 22 30 0 10
-12 45 -27 77 -22 47 -28 78 -31 152 -4 89 -3 95 21 120 14 15 31 40 36 55 6
16 11 35 11 43 0 10 -12 14 -42 14z"/>
</g>
</svg>
