<?xml version="1.0" standalone="no"?>
<!DOCTYPE svg PUBLIC "-//W3C//DTD SVG 20010904//EN"
 "http://www.w3.org/TR/2001/REC-SVG-20010904/DTD/svg10.dtd">
<svg version="1.0" xmlns="http://www.w3.org/2000/svg"
 width="56.000000pt" height="56.000000pt" viewBox="0 0 56.000000 56.000000"
 preserveAspectRatio="xMidYMid meet">
<metadata>
Created by potrace 1.16, written by Peter Selinger 2001-2019
</metadata>
<g transform="translate(0.000000,56.000000) scale(0.100000,-0.100000)"
fill="#000000" stroke="none">
<path d="M287 560 c-74 0 -74 0 -90 -69 -10 -38 -17 -81 -17 -96 0 -15 6 -39
14 -53 8 -15 28 -57 46 -94 17 -38 35 -68 41 -68 5 0 9 -9 9 -20 0 -11 -5 -20
-12 -20 -6 0 -41 -21 -78 -46 -37 -25 -73 -57 -79 -70 -11 -24 -10 -24 50 -24
44 0 73 7 109 25 27 13 51 34 55 45 4 11 15 20 26 20 11 0 35 16 54 35 19 19
35 41 35 49 0 8 -5 27 -12 41 -7 15 -29 33 -53 44 -23 10 -54 34 -67 52 -14
19 -33 48 -42 66 -9 18 -16 40 -16 50 0 10 23 40 50 67 28 27 50 53 50 58 0 4
-33 8 -73 8z"/>
</g>
</svg>
