<?xml version="1.0" standalone="no"?>
<!DOCTYPE svg PUBLIC "-//W3C//DTD SVG 20010904//EN"
 "http://www.w3.org/TR/2001/REC-SVG-20010904/DTD/svg10.dtd">
<svg version="1.0" xmlns="http://www.w3.org/2000/svg"
 width="56.000000pt" height="56.000000pt" viewBox="0 0 56.000000 56.000000"
 preserveAspectRatio="xMidYMid meet">
<metadata>
Created by potrace 1.16, written by Peter Selinger 2001-2019
</metadata>
<g transform="translate(0.000000,56.000000) scale(0.100000,-0.100000)"
fill="#000000" stroke="none">
<path d="M193 560 c-44 0 -44 0 -37 -62 4 -36 21 -91 40 -132 23 -51 42 -76
64 -88 28 -16 31 -21 25 -50 -5 -22 -24 -48 -56 -76 -30 -26 -49 -52 -49 -65
-1 -14 -15 -32 -41 -50 -23 -16 -39 -31 -36 -34 3 -3 43 -2 87 2 73 6 85 10
107 36 14 16 34 31 44 34 10 3 21 16 25 27 3 12 19 32 35 45 15 13 31 33 34
43 3 11 1 29 -5 40 -6 12 -22 25 -36 30 -16 6 -24 17 -24 33 0 12 -14 49 -30
82 -17 33 -42 70 -56 83 -14 12 -32 22 -40 22 -8 0 -14 3 -14 6 0 3 4 14 10
24 5 10 7 26 4 34 -4 11 -19 16 -51 16z"/>
</g>
</svg>
