<?xml version="1.0" standalone="no"?>
<!DOCTYPE svg PUBLIC "-//W3C//DTD SVG 20010904//EN"
 "http://www.w3.org/TR/2001/REC-SVG-20010904/DTD/svg10.dtd">
<svg version="1.0" xmlns="http://www.w3.org/2000/svg"
 width="56.000000pt" height="56.000000pt" viewBox="0 0 56.000000 56.000000"
 preserveAspectRatio="xMidYMid meet">
<metadata>
Created by potrace 1.16, written by Peter Selinger 2001-2019
</metadata>
<g transform="translate(0.000000,56.000000) scale(0.100000,-0.100000)"
fill="#000000" stroke="none">
<path d="M101 560 c-39 0 -41 -2 -41 -29 0 -17 5 -33 10 -36 6 -3 10 -30 10
-60 0 -38 4 -54 15 -59 8 -3 15 -16 15 -29 0 -13 11 -45 24 -71 13 -26 38 -63
55 -81 17 -19 31 -40 31 -46 0 -6 23 -33 51 -60 28 -27 57 -49 64 -49 6 0 20
-9 30 -20 13 -14 31 -20 60 -20 31 0 47 6 64 24 15 16 21 33 19 52 -2 25 -8
29 -35 32 -23 2 -33 8 -33 20 0 9 -16 37 -35 61 -19 24 -35 50 -35 57 0 8 -7
14 -16 14 -8 0 -28 15 -45 32 -16 18 -29 38 -29 44 0 6 -9 19 -20 29 -11 10
-20 22 -20 28 0 5 -16 27 -35 48 -19 22 -35 49 -35 62 0 12 -7 30 -14 40 -9
11 -27 17 -55 17z"/>
</g>
</svg>
