<?xml version="1.0" standalone="no"?>
<!DOCTYPE svg PUBLIC "-//W3C//DTD SVG 20010904//EN"
 "http://www.w3.org/TR/2001/REC-SVG-20010904/DTD/svg10.dtd">
<svg version="1.0" xmlns="http://www.w3.org/2000/svg"
 width="56.000000pt" height="56.000000pt" viewBox="0 0 56.000000 56.000000"
 preserveAspectRatio="xMidYMid meet">
<metadata>
Created by potrace 1.16, written by Peter Selinger 2001-2019
</metadata>
<g transform="translate(0.000000,56.000000) scale(0.100000,-0.100000)"
fill="#000000" stroke="none">
<path d="M335 560 c-18 0 -29 -8 -36 -27 -7 -16 -20 -46 -30 -68 -10 -22 -23
-66 -29 -99 -9 -42 -9 -61 -1 -69 6 -6 11 -19 11 -29 0 -10 9 -46 20 -78 20
-60 20 -60 -2 -92 -13 -18 -35 -43 -50 -56 -16 -13 -28 -28 -28 -33 0 -5 15
-9 34 -9 18 0 55 12 81 26 33 19 52 38 62 63 12 28 13 43 3 76 -6 22 -20 58
-30 80 -10 22 -24 65 -31 95 -7 30 -12 66 -11 78 1 13 10 36 20 50 10 15 23
40 30 55 7 15 12 30 12 32 0 3 -11 5 -25 5z"/>
</g>
</svg>
