<?xml version="1.0" standalone="no"?>
<!DOCTYPE svg PUBLIC "-//W3C//DTD SVG 20010904//EN"
 "http://www.w3.org/TR/2001/REC-SVG-20010904/DTD/svg10.dtd">
<svg version="1.0" xmlns="http://www.w3.org/2000/svg"
 width="56.000000pt" height="56.000000pt" viewBox="0 0 56.000000 56.000000"
 preserveAspectRatio="xMidYMid meet">
<metadata>
Created by potrace 1.16, written by Peter Selinger 2001-2019
</metadata>
<g transform="translate(0.000000,56.000000) scale(0.100000,-0.100000)"
fill="#000000" stroke="none">
<path d="M157 560 c-51 0 -52 -1 -65 -37 -7 -21 -15 -46 -19 -56 -4 -12 9 -32
40 -65 25 -26 56 -57 69 -70 13 -13 49 -47 81 -77 47 -44 59 -61 59 -87 1 -26
-7 -40 -48 -75 -32 -29 -45 -46 -38 -53 5 -5 65 -13 133 -17 123 -6 123 -6
117 43 -3 27 -8 69 -11 93 -3 24 -14 63 -25 86 -11 24 -33 54 -50 68 -16 14
-68 44 -115 67 -68 33 -86 47 -91 68 -4 15 -13 34 -21 43 -12 15 -11 19 11 37
15 11 26 23 26 26 0 3 -24 6 -53 6z"/>
</g>
</svg>
