<?xml version="1.0" standalone="no"?>
<!DOCTYPE svg PUBLIC "-//W3C//DTD SVG 20010904//EN"
 "http://www.w3.org/TR/2001/REC-SVG-20010904/DTD/svg10.dtd">
<svg version="1.0" xmlns="http://www.w3.org/2000/svg"
 width="56.000000pt" height="56.000000pt" viewBox="0 0 56.000000 56.000000"
 preserveAspectRatio="xMidYMid meet">
<metadata>
Created by potrace 1.16, written by Peter Selinger 2001-2019
</metadata>
<g transform="translate(0.000000,56.000000) scale(0.100000,-0.100000)"
fill="#000000" stroke="none">
<path d="M368 559 c-27 0 -42 -11 -81 -55 -26 -31 -55 -72 -64 -92 -8 -20 -20
-46 -26 -57 -5 -11 -9 -42 -8 -70 1 -27 6 -63 11 -80 5 -16 16 -58 26 -92 9
-34 25 -72 36 -83 10 -11 23 -20 28 -20 5 0 17 11 26 25 12 18 14 35 9 62 -3
20 -18 51 -31 69 -14 18 -33 54 -43 81 -10 28 -16 64 -13 82 3 21 23 51 59 89
30 31 66 71 79 88 13 17 24 36 24 42 0 7 -14 12 -32 11z"/>
</g>
</svg>
