<?xml version="1.0" standalone="no"?>
<!DOCTYPE svg PUBLIC "-//W3C//DTD SVG 20010904//EN"
 "http://www.w3.org/TR/2001/REC-SVG-20010904/DTD/svg10.dtd">
<svg version="1.0" xmlns="http://www.w3.org/2000/svg"
 width="56.000000pt" height="56.000000pt" viewBox="0 0 56.000000 56.000000"
 preserveAspectRatio="xMidYMid meet">
<metadata>
Created by potrace 1.16, written by Peter Selinger 2001-2019
</metadata>
<g transform="translate(0.000000,56.000000) scale(0.100000,-0.100000)"
fill="#000000" stroke="none">
<path d="M337 560 c-22 0 -35 -6 -42 -19 -6 -11 -23 -46 -39 -78 -15 -32 -33
-69 -38 -83 -6 -14 -14 -33 -19 -42 -5 -10 -9 -32 -9 -49 0 -25 10 -41 40 -69
22 -20 40 -46 40 -57 0 -11 -17 -46 -38 -79 -21 -32 -41 -65 -46 -71 -5 -9 0
-13 18 -13 19 0 35 15 71 65 31 44 47 76 48 98 0 23 -11 47 -41 87 -23 30 -42
63 -42 73 0 10 7 32 16 50 9 18 32 53 50 78 19 26 34 51 34 57 0 5 7 15 15 22
8 7 15 16 15 21 0 5 -15 9 -33 9z"/>
</g>
</svg>
