<?xml version="1.0" standalone="no"?>
<!DOCTYPE svg PUBLIC "-//W3C//DTD SVG 20010904//EN"
 "http://www.w3.org/TR/2001/REC-SVG-20010904/DTD/svg10.dtd">
<svg version="1.0" xmlns="http://www.w3.org/2000/svg"
 width="56.000000pt" height="56.000000pt" viewBox="0 0 56.000000 56.000000"
 preserveAspectRatio="xMidYMid meet">
<metadata>
Created by potrace 1.16, written by Peter Selinger 2001-2019
</metadata>
<g transform="translate(0.000000,56.000000) scale(0.100000,-0.100000)"
fill="#000000" stroke="none">
<path d="M362 560 c-53 0 -59 -2 -75 -29 -9 -16 -33 -39 -52 -51 -20 -12 -42
-35 -50 -50 -8 -16 -15 -50 -15 -75 0 -31 9 -62 26 -93 14 -26 37 -58 50 -73
13 -14 24 -30 24 -37 0 -7 -6 -12 -13 -12 -7 0 -33 -15 -57 -32 -24 -18 -64
-44 -89 -58 -24 -14 -46 -31 -49 -37 -3 -10 16 -13 71 -13 54 0 86 5 114 19
21 11 66 32 101 47 35 15 70 37 78 48 8 11 14 35 14 52 0 25 -14 46 -69 104
-39 40 -75 86 -82 102 -8 20 -9 38 -3 56 6 16 20 28 38 33 16 5 44 23 63 41
18 17 33 38 33 45 0 9 -17 13 -58 13z"/>
</g>
</svg>
