<?xml version="1.0" standalone="no"?>
<!DOCTYPE svg PUBLIC "-//W3C//DTD SVG 20010904//EN"
 "http://www.w3.org/TR/2001/REC-SVG-20010904/DTD/svg10.dtd">
<svg version="1.0" xmlns="http://www.w3.org/2000/svg"
 width="56.000000pt" height="56.000000pt" viewBox="0 0 56.000000 56.000000"
 preserveAspectRatio="xMidYMid meet">
<metadata>
Created by potrace 1.16, written by Peter Selinger 2001-2019
</metadata>
<g transform="translate(0.000000,56.000000) scale(0.100000,-0.100000)"
fill="#000000" stroke="none">
<path d="M326 560 c-63 0 -64 -1 -80 -34 -9 -19 -16 -41 -16 -50 0 -8 10 -45
22 -81 11 -36 32 -76 44 -88 13 -12 24 -31 24 -41 0 -10 -21 -42 -47 -70 -26
-28 -66 -63 -90 -79 -24 -15 -43 -32 -43 -37 0 -5 -20 -19 -44 -31 -25 -11
-50 -27 -57 -35 -10 -12 1 -14 71 -14 58 0 88 4 99 14 9 8 71 42 139 76 107
54 124 66 142 100 11 22 20 57 20 79 0 28 -8 48 -26 70 -14 17 -31 31 -37 31
-7 0 -29 16 -49 35 -21 18 -38 41 -38 50 0 9 7 32 15 52 8 19 15 39 15 44 0 5
-29 9 -64 9z"/>
</g>
</svg>
