<?xml version="1.0" standalone="no"?>
<!DOCTYPE svg PUBLIC "-//W3C//DTD SVG 20010904//EN"
 "http://www.w3.org/TR/2001/REC-SVG-20010904/DTD/svg10.dtd">
<svg version="1.0" xmlns="http://www.w3.org/2000/svg"
 width="128.000000pt" height="128.000000pt" viewBox="0 0 128.000000 128.000000"
 preserveAspectRatio="xMidYMid meet">
<metadata>
Created by potrace 1.16, written by Peter Selinger 2001-2019
</metadata>
<g transform="translate(0.000000,128.000000) scale(0.100000,-0.100000)"
fill="#000000" stroke="none">
<path d="M945 1165 c-5 1 -23 0 -40 -2 -16 -3 -34 -8 -39 -13 -4 -5 -10 -31
-11 -58 -2 -27 -8 -67 -15 -88 -7 -22 -17 -48 -21 -59 -5 -11 -13 -33 -19 -48
-9 -26 -11 -27 -37 -14 -17 8 -46 12 -70 9 -42 -4 -43 -3 -43 26 0 16 7 49 15
73 9 24 13 49 11 56 -3 7 -15 13 -28 13 -12 0 -42 -7 -65 -16 -24 -9 -43 -21
-43 -27 0 -6 6 -18 14 -26 7 -9 16 -35 19 -58 3 -27 0 -48 -9 -61 -7 -11 -28
-22 -46 -24 -18 -3 -39 -7 -47 -9 -8 -2 -20 7 -26 21 -7 14 -18 41 -24 59 -10
32 -7 42 25 107 20 40 34 83 32 96 -3 21 -7 23 -55 20 -28 -1 -67 -9 -85 -16
-18 -8 -42 -24 -53 -36 -11 -12 -30 -26 -42 -31 -15 -5 -21 -14 -17 -24 3 -8
14 -16 23 -16 9 -1 18 -1 21 -1 3 0 25 3 49 7 44 7 44 7 37 -46 -4 -30 -17
-70 -29 -89 -12 -19 -28 -51 -36 -70 -7 -19 -15 -51 -18 -70 -3 -19 -15 -58
-28 -85 -13 -28 -27 -63 -30 -77 -4 -15 -15 -30 -25 -33 -10 -3 -30 -28 -44
-55 -14 -27 -23 -56 -20 -65 3 -8 -1 -34 -11 -57 -9 -23 -29 -56 -44 -73 -15
-18 -35 -55 -44 -83 -12 -36 -14 -58 -8 -75 6 -14 14 -28 19 -31 6 -3 26 16
46 43 20 27 36 56 36 64 0 8 13 44 29 80 18 39 27 74 24 90 -4 18 0 28 14 36
11 5 28 29 38 53 10 24 38 75 62 114 24 39 43 76 43 82 0 7 4 12 9 12 5 0 14
-6 20 -14 7 -8 23 -17 36 -20 21 -5 25 -12 25 -46 0 -34 -4 -42 -24 -50 -18
-6 -27 -20 -31 -44 -4 -19 -4 -39 0 -45 3 -6 15 -11 25 -11 10 0 21 4 25 10 3
5 12 7 20 3 10 -3 15 -19 15 -44 0 -28 -8 -47 -30 -72 -16 -19 -34 -46 -40
-61 -5 -15 -8 -31 -5 -36 3 -5 1 -20 -5 -35 -7 -18 -7 -33 0 -46 6 -10 16 -19
23 -19 7 0 29 17 49 38 20 20 41 47 47 60 8 15 21 22 41 22 19 0 30 5 30 14 0
8 -9 18 -20 21 -12 4 -20 15 -20 28 0 12 12 52 27 89 14 38 31 68 38 68 6 0
32 -19 58 -41 26 -23 47 -48 47 -56 0 -8 -10 -23 -22 -34 -13 -10 -31 -18 -40
-19 -9 0 -24 -7 -32 -16 -9 -8 -16 -20 -16 -25 0 -5 7 -12 15 -15 8 -4 31 6
49 20 19 14 44 26 55 26 11 0 27 8 36 17 10 9 22 29 27 45 6 15 16 28 22 28 7
0 17 -10 23 -23 6 -13 47 -51 92 -85 45 -34 84 -62 87 -62 3 0 40 -28 82 -62
43 -34 81 -67 85 -75 5 -7 26 -13 51 -13 30 0 48 6 61 20 10 11 13 20 7 20 -7
0 -12 5 -12 11 0 6 -13 30 -30 53 -20 28 -47 49 -82 65 -29 12 -60 27 -68 32
-8 5 -28 17 -44 27 -16 9 -49 34 -73 55 -24 20 -48 37 -54 37 -5 0 -9 13 -9
29 0 16 7 34 15 41 8 7 15 20 15 30 0 10 7 23 15 30 8 7 15 25 15 40 0 16 5
30 12 32 6 2 13 17 15 34 2 16 4 38 4 49 1 11 -3 35 -8 54 -6 24 -19 40 -43
54 -27 15 -38 17 -52 8 -10 -6 -22 -11 -27 -11 -5 0 -12 7 -15 16 -4 9 2 35
12 58 11 23 25 57 32 76 7 19 26 61 42 93 16 31 28 67 26 79 -2 12 -7 22 -13
23z m-305 -326 c3 0 15 -2 27 -5 12 -3 31 -24 43 -45 11 -22 20 -51 20 -64 0
-18 5 -25 19 -25 10 0 35 11 55 25 20 14 43 25 51 25 8 0 19 -9 26 -21 6 -12
8 -30 6 -41 -3 -11 -2 -31 3 -44 6 -15 6 -24 0 -24 -5 0 -26 -34 -46 -76 -28
-59 -40 -74 -53 -69 -9 4 -37 13 -63 21 -26 8 -60 26 -74 39 -15 14 -31 25
-35 25 -5 0 -9 6 -9 14 0 7 7 19 15 26 8 7 15 23 15 35 0 13 11 37 25 53 14
17 25 42 25 57 0 23 -2 26 -15 15 -8 -7 -15 -19 -15 -26 0 -8 -15 -31 -33 -51
-18 -21 -39 -57 -46 -81 -7 -24 -18 -45 -26 -48 -7 -3 -23 -1 -34 6 -12 6 -21
17 -21 25 0 8 5 37 11 65 7 32 17 54 27 57 10 3 25 13 35 21 9 8 17 29 17 46
0 17 4 36 8 42 4 6 14 14 22 17 8 3 17 6 20 6z m-150 -51 c21 -3 25 -9 28 -39
2 -29 -1 -37 -23 -49 -23 -12 -28 -12 -35 0 -6 8 -10 29 -10 46 0 17 3 34 7
38 4 4 19 6 33 4z"/>
</g>
</svg>
