<?xml version="1.0" standalone="no"?>
<!DOCTYPE svg PUBLIC "-//W3C//DTD SVG 20010904//EN"
 "http://www.w3.org/TR/2001/REC-SVG-20010904/DTD/svg10.dtd">
<svg version="1.0" xmlns="http://www.w3.org/2000/svg"
 width="56.000000pt" height="56.000000pt" viewBox="0 0 56.000000 56.000000"
 preserveAspectRatio="xMidYMid meet">
<metadata>
Created by potrace 1.16, written by Peter Selinger 2001-2019
</metadata>
<g transform="translate(0.000000,56.000000) scale(0.100000,-0.100000)"
fill="#000000" stroke="none">
<path d="M105 420 c-20 0 -38 -6 -40 -12 -3 -7 -13 -40 -24 -73 -10 -33 -25
-73 -32 -88 -11 -24 -11 -30 2 -37 8 -5 30 -7 50 -4 33 6 38 3 68 -35 22 -27
41 -41 56 -41 17 0 39 18 76 62 29 35 64 74 79 88 27 25 27 25 28 -9 1 -18 8
-44 16 -56 11 -17 28 -23 73 -28 32 -4 68 -10 81 -13 18 -5 22 -2 22 18 0 17
-8 29 -25 36 -14 7 -39 12 -55 12 -15 0 -31 6 -33 13 -4 10 -6 10 -6 0 -1 -7
-6 -13 -12 -13 -8 0 -9 17 -5 54 6 47 4 58 -13 75 -12 12 -27 21 -33 21 -7 0
-23 -11 -35 -24 -16 -17 -30 -22 -50 -19 -26 4 -26 3 -10 -10 9 -8 17 -18 17
-23 0 -5 -26 -36 -59 -68 -58 -58 -58 -58 -97 -33 -22 13 -44 31 -51 38 -9 11
-5 23 18 57 18 27 29 56 29 77 0 33 -2 35 -35 35z"/>
</g>
</svg>
