<?xml version="1.0" standalone="no"?>
<!DOCTYPE svg PUBLIC "-//W3C//DTD SVG 20010904//EN"
 "http://www.w3.org/TR/2001/REC-SVG-20010904/DTD/svg10.dtd">
<svg version="1.0" xmlns="http://www.w3.org/2000/svg"
 width="56.000000pt" height="56.000000pt" viewBox="0 0 56.000000 56.000000"
 preserveAspectRatio="xMidYMid meet">
<metadata>
Created by potrace 1.16, written by Peter Selinger 2001-2019
</metadata>
<g transform="translate(0.000000,56.000000) scale(0.100000,-0.100000)"
fill="#000000" stroke="none">
<path d="M346 449 c-6 -1 -21 -4 -34 -7 -13 -4 -24 -11 -25 -17 -1 -5 12 -11
28 -13 17 -1 41 -8 54 -15 13 -6 38 -37 55 -67 17 -30 36 -77 41 -105 7 -34
15 -51 27 -53 10 -2 29 5 42 15 20 14 25 27 26 60 0 30 -7 51 -22 70 -13 14
-38 43 -56 64 -20 23 -51 44 -79 53 -26 9 -51 16 -57 15z"/>
<path d="M245 400 c-8 0 -15 -7 -15 -15 0 -8 7 -15 15 -15 8 0 15 7 15 15 0 8
-7 15 -15 15z"/>
<path d="M30 342 c-31 53 -31 53 -26 -5 3 -41 15 -76 40 -120 19 -34 48 -78
64 -97 29 -34 30 -35 50 -17 14 13 23 41 31 94 6 42 15 81 20 87 4 6 11 23 15
39 3 15 3 27 -1 27 -5 0 -13 -4 -19 -8 -6 -4 -21 -31 -34 -59 -13 -29 -29 -53
-36 -53 -7 0 -26 13 -42 30 -17 16 -44 53 -62 82z"/>
</g>
</svg>
