<?xml version="1.0" standalone="no"?>
<!DOCTYPE svg PUBLIC "-//W3C//DTD SVG 20010904//EN"
 "http://www.w3.org/TR/2001/REC-SVG-20010904/DTD/svg10.dtd">
<svg version="1.0" xmlns="http://www.w3.org/2000/svg"
 width="56.000000pt" height="56.000000pt" viewBox="0 0 56.000000 56.000000"
 preserveAspectRatio="xMidYMid meet">
<metadata>
Created by potrace 1.16, written by Peter Selinger 2001-2019
</metadata>
<g transform="translate(0.000000,56.000000) scale(0.100000,-0.100000)"
fill="#000000" stroke="none">
<path d="M15 466 c-13 18 -14 17 -15 -17 0 -20 7 -76 15 -125 9 -49 21 -106
27 -127 6 -20 27 -55 45 -77 29 -34 38 -38 54 -30 14 8 19 22 19 55 0 24 5 57
11 72 6 15 25 56 42 90 16 34 45 76 63 93 19 17 34 35 34 40 0 6 -6 10 -13 10
-8 0 -30 -12 -50 -27 -20 -16 -45 -49 -57 -78 -12 -27 -33 -74 -46 -102 -13
-29 -28 -53 -33 -53 -6 0 -13 5 -16 10 -3 6 -17 47 -30 93 -12 45 -26 98 -29
118 -3 19 -13 44 -21 55z"/>
<path d="M352 480 c-19 0 -23 -5 -20 -22 2 -15 11 -24 26 -26 13 -2 38 -18 56
-37 19 -18 36 -48 40 -67 3 -18 13 -44 22 -56 8 -12 23 -22 32 -22 10 0 25 9
35 20 9 11 13 20 9 20 -4 0 -15 18 -24 39 -10 22 -31 56 -49 75 -17 20 -36 36
-43 36 -6 0 -22 9 -36 20 -14 11 -35 20 -48 20z"/>
</g>
</svg>
