<?xml version="1.0" standalone="no"?>
<!DOCTYPE svg PUBLIC "-//W3C//DTD SVG 20010904//EN"
 "http://www.w3.org/TR/2001/REC-SVG-20010904/DTD/svg10.dtd">
<svg version="1.0" xmlns="http://www.w3.org/2000/svg"
 width="56.000000pt" height="56.000000pt" viewBox="0 0 56.000000 56.000000"
 preserveAspectRatio="xMidYMid meet">
<metadata>
Created by potrace 1.16, written by Peter Selinger 2001-2019
</metadata>
<g transform="translate(0.000000,56.000000) scale(0.100000,-0.100000)"
fill="#000000" stroke="none">
<path d="M406 560 c-13 0 -26 -3 -28 -8 -1 -4 -39 -34 -83 -66 -44 -32 -99
-79 -122 -103 -37 -39 -43 -51 -44 -91 -1 -26 -1 -54 0 -62 1 -8 7 -33 13 -55
7 -22 25 -61 42 -87 18 -28 45 -55 66 -65 19 -9 60 -19 91 -21 44 -3 57 -1 62
12 3 8 -3 37 -15 63 -19 43 -22 45 -34 29 -9 -13 -20 -16 -36 -12 -13 3 -46
27 -74 53 -28 27 -58 60 -67 75 -10 15 -17 36 -17 47 0 11 6 33 13 48 6 15 27
43 46 61 18 18 53 46 77 62 23 17 45 30 49 30 3 0 24 16 45 37 22 20 40 40 40
45 0 4 -11 8 -24 8z"/>
</g>
</svg>
