<?xml version="1.0" standalone="no"?>
<!DOCTYPE svg PUBLIC "-//W3C//DTD SVG 20010904//EN"
 "http://www.w3.org/TR/2001/REC-SVG-20010904/DTD/svg10.dtd">
<svg version="1.0" xmlns="http://www.w3.org/2000/svg"
 width="56.000000pt" height="56.000000pt" viewBox="0 0 56.000000 56.000000"
 preserveAspectRatio="xMidYMid meet">
<metadata>
Created by potrace 1.16, written by Peter Selinger 2001-2019
</metadata>
<g transform="translate(0.000000,56.000000) scale(0.100000,-0.100000)"
fill="#000000" stroke="none">
<path d="M458 520 c-8 0 -56 -42 -106 -92 -51 -51 -99 -103 -107 -115 -9 -13
-20 -23 -25 -23 -5 0 -22 11 -38 25 -17 14 -38 25 -48 25 -9 0 -26 -8 -36 -17
-16 -14 -25 -15 -58 -6 -22 5 -40 8 -40 6 0 -3 7 -20 15 -38 9 -17 27 -38 41
-45 23 -13 27 -11 52 20 18 21 33 31 41 26 7 -4 16 -19 21 -32 6 -14 18 -24
29 -24 10 0 32 13 47 29 16 15 44 49 63 74 18 26 54 67 80 92 29 29 53 44 66
43 17 -3 20 -11 20 -48 0 -26 7 -57 17 -72 18 -27 18 -27 -44 -105 -34 -43
-75 -94 -92 -114 -17 -20 -39 -46 -48 -58 -10 -11 -18 -26 -18 -31 0 -6 6 -10
13 -10 8 0 32 19 53 43 22 23 55 62 74 87 19 24 51 62 70 84 19 21 41 45 48
52 6 7 12 26 12 43 0 21 -6 32 -20 36 -16 5 -20 15 -20 54 0 37 -5 52 -23 69
-13 12 -30 22 -39 22z"/>
</g>
</svg>
