<?xml version="1.0" standalone="no"?>
<!DOCTYPE svg PUBLIC "-//W3C//DTD SVG 20010904//EN"
 "http://www.w3.org/TR/2001/REC-SVG-20010904/DTD/svg10.dtd">
<svg version="1.0" xmlns="http://www.w3.org/2000/svg"
 width="56.000000pt" height="56.000000pt" viewBox="0 0 56.000000 56.000000"
 preserveAspectRatio="xMidYMid meet">
<metadata>
Created by potrace 1.16, written by Peter Selinger 2001-2019
</metadata>
<g transform="translate(0.000000,56.000000) scale(0.100000,-0.100000)"
fill="#000000" stroke="none">
<path d="M78 450 c-10 0 -24 -10 -32 -22 -8 -13 -20 -43 -25 -68 -6 -25 -11
-64 -11 -88 0 -32 7 -53 27 -79 17 -22 52 -47 88 -65 33 -15 72 -28 87 -28 14
0 33 2 40 5 12 5 14 27 10 113 -4 100 -2 109 20 142 22 32 28 35 67 32 23 -1
54 -10 67 -19 14 -9 32 -29 40 -44 7 -15 14 -42 14 -58 0 -27 -11 -40 -80 -93
-44 -35 -80 -69 -80 -77 0 -10 9 -12 38 -6 20 3 68 23 106 43 48 26 72 45 80
64 6 16 14 28 18 28 4 0 8 7 8 15 0 8 -4 15 -10 15 -5 0 -10 7 -10 15 0 9 -7
30 -16 48 -9 18 -30 47 -48 65 -17 19 -44 40 -59 49 -20 10 -42 12 -70 8 -24
-4 -54 -18 -69 -33 -16 -14 -28 -29 -28 -33 0 -5 -13 -28 -30 -52 -16 -25 -30
-52 -30 -61 0 -9 -10 -32 -23 -51 -12 -19 -27 -35 -33 -35 -7 0 -28 18 -48 40
-20 22 -36 43 -36 46 0 3 8 20 18 37 9 18 25 43 35 56 9 13 17 33 17 45 0 12
-5 27 -12 34 -7 7 -20 12 -30 12z"/>
</g>
</svg>
