<?xml version="1.0" standalone="no"?>
<!DOCTYPE svg PUBLIC "-//W3C//DTD SVG 20010904//EN"
 "http://www.w3.org/TR/2001/REC-SVG-20010904/DTD/svg10.dtd">
<svg version="1.0" xmlns="http://www.w3.org/2000/svg"
 width="56.000000pt" height="56.000000pt" viewBox="0 0 56.000000 56.000000"
 preserveAspectRatio="xMidYMid meet">
<metadata>
Created by potrace 1.16, written by Peter Selinger 2001-2019
</metadata>
<g transform="translate(0.000000,56.000000) scale(0.100000,-0.100000)"
fill="#000000" stroke="none">
<path d="M345 520 c-8 0 -15 -7 -15 -15 0 -8 7 -15 15 -15 8 0 15 7 15 15 0 8
-7 15 -15 15z"/>
<path d="M9 510 c-5 0 -9 -53 -8 -132 1 -90 7 -144 16 -168 8 -19 28 -63 43
-97 16 -34 38 -67 50 -73 11 -6 33 -10 48 -8 21 2 33 14 53 53 14 28 33 75 43
105 10 30 25 70 32 88 8 18 14 39 14 47 0 8 -6 15 -13 15 -8 0 -23 -10 -35
-23 -12 -13 -22 -27 -22 -31 0 -4 -14 -37 -31 -74 -17 -37 -36 -73 -42 -80 -8
-10 -16 -7 -39 15 -16 15 -35 50 -43 77 -8 27 -15 67 -15 89 0 29 7 45 29 67
26 27 27 30 10 35 -10 3 -21 15 -24 26 -4 11 -18 31 -31 44 -14 14 -29 25 -35
25z"/>
<path d="M391 400 c-5 0 -13 -5 -16 -10 -4 -6 -4 -33 0 -60 4 -31 12 -50 20
-50 7 0 23 -21 36 -47 14 -29 23 -68 24 -102 1 -31 6 -56 11 -55 5 0 21 5 35
11 14 6 33 23 42 37 9 14 17 41 17 60 0 21 -6 36 -15 40 -8 3 -15 12 -15 21 0
9 -18 40 -39 69 -21 29 -50 60 -65 69 -14 9 -30 17 -35 17z"/>
<path d="M169 360 c-5 0 -12 -7 -16 -15 -3 -9 -3 -19 1 -22 3 -3 12 0 21 7 8
7 12 16 9 21 -3 5 -10 9 -15 9z"/>
</g>
</svg>
