<?xml version="1.0" standalone="no"?>
<!DOCTYPE svg PUBLIC "-//W3C//DTD SVG 20010904//EN"
 "http://www.w3.org/TR/2001/REC-SVG-20010904/DTD/svg10.dtd">
<svg version="1.0" xmlns="http://www.w3.org/2000/svg"
 width="56.000000pt" height="56.000000pt" viewBox="0 0 56.000000 56.000000"
 preserveAspectRatio="xMidYMid meet">
<metadata>
Created by potrace 1.16, written by Peter Selinger 2001-2019
</metadata>
<g transform="translate(0.000000,56.000000) scale(0.100000,-0.100000)"
fill="#000000" stroke="none">
<path d="M277 520 c-18 -1 -50 -10 -71 -20 -22 -11 -43 -20 -48 -20 -5 0 -35
-25 -68 -56 -40 -39 -64 -71 -74 -101 -14 -39 -14 -52 -1 -106 8 -35 24 -70
37 -84 15 -15 37 -24 63 -26 39 -2 40 -1 46 38 3 22 10 50 15 62 5 12 25 33
44 47 19 14 47 31 63 37 15 6 27 16 27 21 0 7 18 8 48 3 26 -3 56 -9 68 -11
11 -3 28 -19 38 -35 15 -25 15 -33 5 -46 -8 -8 -36 -26 -64 -38 -27 -12 -70
-30 -95 -39 -25 -9 -63 -31 -84 -49 -23 -20 -36 -38 -32 -45 4 -7 19 -9 39 -5
18 3 52 19 76 34 25 16 58 29 75 29 17 0 43 6 57 14 14 7 39 16 55 20 16 4 37
16 47 26 9 11 17 26 17 34 0 7 -7 16 -15 20 -8 3 -15 15 -15 27 0 11 -12 35
-26 53 -19 22 -42 35 -78 43 -28 7 -71 12 -94 13 -30 0 -54 -7 -75 -22 -18
-12 -49 -38 -71 -58 -21 -19 -49 -52 -62 -72 -14 -21 -28 -38 -33 -38 -4 0
-13 11 -19 25 -7 14 -12 48 -12 75 0 27 5 52 10 55 6 3 10 13 10 21 0 9 6 21
13 27 7 7 30 26 52 42 22 17 60 37 85 45 25 8 55 20 67 28 13 8 20 18 17 23
-3 5 -20 9 -37 9z"/>
</g>
</svg>
