<?xml version="1.0" standalone="no"?>
<!DOCTYPE svg PUBLIC "-//W3C//DTD SVG 20010904//EN"
 "http://www.w3.org/TR/2001/REC-SVG-20010904/DTD/svg10.dtd">
<svg version="1.0" xmlns="http://www.w3.org/2000/svg"
 width="56.000000pt" height="56.000000pt" viewBox="0 0 56.000000 56.000000"
 preserveAspectRatio="xMidYMid meet">
<metadata>
Created by potrace 1.16, written by Peter Selinger 2001-2019
</metadata>
<g transform="translate(0.000000,56.000000) scale(0.100000,-0.100000)"
fill="#000000" stroke="none">
<path d="M48 518 c-14 2 -29 -2 -33 -8 -4 -6 -4 -32 0 -56 3 -25 6 -80 6 -122
0 -42 2 -90 5 -105 3 -15 11 -26 17 -24 7 2 16 26 21 53 4 27 9 96 10 154 1
105 1 105 -26 108z"/>
<path d="M343 499 c-10 -1 -26 -3 -36 -6 -9 -2 -23 -17 -31 -31 -7 -15 -17
-42 -21 -59 -3 -18 -11 -35 -16 -38 -5 -4 -9 -17 -9 -31 0 -13 -4 -32 -9 -42
-5 -9 -14 -35 -21 -57 -6 -22 -21 -59 -32 -83 -11 -23 -17 -49 -14 -57 3 -8
14 -15 24 -15 11 0 24 6 30 12 5 7 21 48 36 90 14 42 26 85 26 95 0 10 12 43
26 73 14 30 30 60 36 68 6 7 14 9 17 5 3 -5 22 -20 42 -35 20 -15 48 -49 61
-75 25 -47 25 -49 8 -89 -11 -24 -44 -63 -84 -99 -42 -36 -63 -62 -57 -68 5
-5 23 -4 46 4 21 8 73 45 116 84 67 59 79 74 79 101 0 19 -6 34 -15 38 -8 3
-15 14 -15 25 0 11 -4 23 -10 26 -5 3 -10 16 -10 28 0 12 -11 39 -25 60 -17
25 -33 37 -49 37 -13 0 -35 9 -49 20 -14 11 -33 19 -44 19z"/>
</g>
</svg>
