<?xml version="1.0" standalone="no"?>
<!DOCTYPE svg PUBLIC "-//W3C//DTD SVG 20010904//EN"
 "http://www.w3.org/TR/2001/REC-SVG-20010904/DTD/svg10.dtd">
<svg version="1.0" xmlns="http://www.w3.org/2000/svg"
 width="56.000000pt" height="56.000000pt" viewBox="0 0 56.000000 56.000000"
 preserveAspectRatio="xMidYMid meet">
<metadata>
Created by potrace 1.16, written by Peter Selinger 2001-2019
</metadata>
<g transform="translate(0.000000,56.000000) scale(0.100000,-0.100000)"
fill="#000000" stroke="none">
<path d="M338 460 c-15 0 -28 -4 -28 -8 0 -5 8 -15 18 -23 9 -8 30 -21 45 -29
16 -8 42 -30 59 -48 22 -26 28 -40 23 -59 -4 -18 -1 -29 12 -39 10 -8 27 -21
39 -30 12 -8 29 -12 38 -8 9 3 16 17 16 30 0 13 -4 24 -10 24 -5 0 -10 7 -10
15 0 8 -9 31 -21 52 -12 21 -26 44 -31 50 -6 7 -35 26 -66 43 -30 16 -68 30
-84 30z"/>
<path d="M6 410 c-5 0 -7 -36 -4 -79 4 -68 9 -88 39 -136 19 -31 45 -68 58
-81 13 -13 32 -24 42 -24 10 0 20 9 24 19 4 13 -6 36 -30 70 -20 28 -40 51
-44 51 -4 0 -17 20 -29 45 -12 25 -22 54 -22 63 0 10 -6 30 -12 45 -7 15 -17
27 -22 27z"/>
</g>
</svg>
