<?xml version="1.0" standalone="no"?>
<!DOCTYPE svg PUBLIC "-//W3C//DTD SVG 20010904//EN"
 "http://www.w3.org/TR/2001/REC-SVG-20010904/DTD/svg10.dtd">
<svg version="1.0" xmlns="http://www.w3.org/2000/svg"
 width="56.000000pt" height="56.000000pt" viewBox="0 0 56.000000 56.000000"
 preserveAspectRatio="xMidYMid meet">
<metadata>
Created by potrace 1.16, written by Peter Selinger 2001-2019
</metadata>
<g transform="translate(0.000000,56.000000) scale(0.100000,-0.100000)"
fill="#000000" stroke="none">
<path d="M101 480 c-27 0 -44 -7 -61 -25 -18 -19 -23 -35 -21 -71 0 -26 10
-66 20 -89 10 -24 33 -53 49 -65 17 -13 28 -28 25 -36 -2 -7 5 -18 17 -24 19
-10 28 -4 88 58 53 55 78 73 119 86 28 9 59 16 68 16 8 0 20 -10 26 -23 9 -19
5 -34 -18 -82 -15 -33 -47 -78 -70 -101 -24 -22 -40 -44 -36 -47 3 -4 25 -7
49 -7 35 0 47 5 67 30 14 16 28 39 32 50 3 11 10 20 15 20 4 0 17 16 29 35 11
20 23 46 27 59 4 17 -3 33 -26 60 -18 20 -40 36 -50 36 -11 0 -34 9 -52 19
-33 20 -33 20 -105 -14 -40 -19 -73 -37 -73 -42 -1 -4 -16 -26 -35 -47 -28
-32 -37 -37 -49 -27 -8 7 -24 32 -35 56 -12 25 -21 60 -21 79 0 28 6 38 35 56
19 12 33 26 29 31 -3 5 -22 9 -43 9z"/>
</g>
</svg>
