<?xml version="1.0" standalone="no"?>
<!DOCTYPE svg PUBLIC "-//W3C//DTD SVG 20010904//EN"
 "http://www.w3.org/TR/2001/REC-SVG-20010904/DTD/svg10.dtd">
<svg version="1.0" xmlns="http://www.w3.org/2000/svg"
 width="56.000000pt" height="56.000000pt" viewBox="0 0 56.000000 56.000000"
 preserveAspectRatio="xMidYMid meet">
<metadata>
Created by potrace 1.16, written by Peter Selinger 2001-2019
</metadata>
<g transform="translate(0.000000,56.000000) scale(0.100000,-0.100000)"
fill="#000000" stroke="none">
<path d="M8 436 c-8 5 -10 -14 -5 -72 3 -46 13 -95 24 -116 10 -20 38 -59 61
-87 24 -28 50 -51 57 -51 7 0 16 12 19 26 4 14 4 42 1 62 -4 20 -9 44 -11 52
-4 12 -9 10 -23 -9 -18 -23 -18 -23 -44 1 -15 12 -36 48 -47 78 -11 30 -20 67
-20 82 0 15 -5 30 -12 34z"/>
<path d="M393 440 c-23 0 -44 -4 -48 -9 -3 -6 2 -14 12 -20 10 -5 34 -19 53
-29 19 -11 37 -27 39 -37 2 -12 -2 -16 -11 -12 -8 3 -20 2 -27 -2 -7 -5 11
-21 50 -44 34 -20 70 -37 80 -37 15 0 19 8 19 34 0 19 -3 36 -7 38 -5 2 -15
17 -25 33 -9 17 -33 42 -55 57 -26 19 -51 27 -80 28z"/>
</g>
</svg>
