<?xml version="1.0" standalone="no"?>
<!DOCTYPE svg PUBLIC "-//W3C//DTD SVG 20010904//EN"
 "http://www.w3.org/TR/2001/REC-SVG-20010904/DTD/svg10.dtd">
<svg version="1.0" xmlns="http://www.w3.org/2000/svg"
 width="56.000000pt" height="56.000000pt" viewBox="0 0 56.000000 56.000000"
 preserveAspectRatio="xMidYMid meet">
<metadata>
Created by potrace 1.16, written by Peter Selinger 2001-2019
</metadata>
<g transform="translate(0.000000,56.000000) scale(0.100000,-0.100000)"
fill="#000000" stroke="none">
<path d="M217 560 c-23 0 -47 -6 -52 -13 -6 -8 -33 -48 -62 -91 -28 -42 -59
-101 -67 -130 -9 -30 -16 -78 -16 -108 0 -42 6 -62 25 -87 13 -19 50 -56 82
-82 37 -32 66 -49 84 -49 15 0 29 7 33 15 3 9 3 62 -1 119 -4 67 -1 126 7 170
10 55 17 70 42 87 25 18 34 20 54 10 14 -6 34 -11 45 -11 15 0 27 -14 44 -52
15 -34 26 -83 31 -136 5 -65 10 -85 25 -92 14 -8 21 -6 29 11 6 11 12 35 12
52 0 18 -5 63 -11 101 -9 56 -20 84 -54 135 -24 37 -55 72 -69 80 -23 12 -30
11 -71 -13 -25 -15 -51 -33 -57 -41 -7 -8 -18 -15 -25 -15 -7 0 -18 -6 -24
-14 -6 -8 -20 -45 -30 -82 -10 -38 -22 -94 -26 -124 -4 -30 -9 -66 -10 -80 -2
-14 -4 -28 -4 -32 -1 -5 -5 -8 -10 -8 -5 0 -21 24 -34 54 -14 29 -28 81 -32
114 -7 60 -7 60 49 144 30 46 73 98 96 116 22 18 40 37 40 43 0 5 -19 9 -43 9z"/>
</g>
</svg>
