<?xml version="1.0" standalone="no"?>
<!DOCTYPE svg PUBLIC "-//W3C//DTD SVG 20010904//EN"
 "http://www.w3.org/TR/2001/REC-SVG-20010904/DTD/svg10.dtd">
<svg version="1.0" xmlns="http://www.w3.org/2000/svg"
 width="56.000000pt" height="56.000000pt" viewBox="0 0 56.000000 56.000000"
 preserveAspectRatio="xMidYMid meet">
<metadata>
Created by potrace 1.16, written by Peter Selinger 2001-2019
</metadata>
<g transform="translate(0.000000,56.000000) scale(0.100000,-0.100000)"
fill="#000000" stroke="none">
<path d="M131 480 c-21 0 -41 -13 -80 -54 -48 -52 -51 -58 -51 -108 0 -32 6
-62 15 -74 8 -10 15 -31 15 -45 0 -15 7 -32 15 -39 8 -7 15 -17 15 -22 0 -6 9
-23 21 -39 16 -23 28 -29 58 -29 21 0 43 6 48 13 6 6 16 37 24 67 7 30 21 64
31 76 10 11 18 24 18 29 0 5 17 25 38 44 21 20 41 44 44 53 4 9 1 19 -7 21 -7
3 -21 -3 -31 -14 -9 -10 -23 -19 -29 -19 -7 0 -29 -25 -49 -55 -20 -30 -36
-58 -36 -63 0 -5 -9 -27 -20 -50 -11 -23 -26 -42 -34 -42 -7 0 -20 8 -28 18
-9 9 -19 27 -22 40 -4 12 -12 22 -17 22 -5 0 -9 8 -9 18 0 10 -5 23 -10 28 -7
7 -7 27 -1 58 5 26 18 57 30 70 11 12 21 27 21 33 0 6 14 16 30 23 17 7 30 19
30 26 0 9 -11 14 -29 14z"/>
<path d="M403 380 c-7 0 -13 -6 -13 -12 0 -7 18 -30 40 -52 26 -26 43 -53 50
-85 6 -25 12 -55 13 -67 1 -11 8 -28 15 -37 11 -13 17 -14 33 -4 14 9 19 23
19 54 0 24 -4 43 -8 43 -5 0 -23 29 -41 65 -23 44 -42 69 -63 80 -17 8 -37 15
-45 15z"/>
</g>
</svg>
