<?xml version="1.0" standalone="no"?>
<!DOCTYPE svg PUBLIC "-//W3C//DTD SVG 20010904//EN"
 "http://www.w3.org/TR/2001/REC-SVG-20010904/DTD/svg10.dtd">
<svg version="1.0" xmlns="http://www.w3.org/2000/svg"
 width="56.000000pt" height="56.000000pt" viewBox="0 0 56.000000 56.000000"
 preserveAspectRatio="xMidYMid meet">
<metadata>
Created by potrace 1.16, written by Peter Selinger 2001-2019
</metadata>
<g transform="translate(0.000000,56.000000) scale(0.100000,-0.100000)"
fill="#000000" stroke="none">
<path d="M24 447 c-6 2 -13 0 -17 -3 -4 -4 -7 -31 -7 -61 0 -36 10 -80 30
-131 19 -50 42 -90 64 -111 22 -21 41 -31 50 -28 9 4 16 13 16 20 0 8 9 22 20
32 11 10 20 22 20 26 0 4 10 19 23 32 12 13 44 47 71 76 27 28 56 51 65 51 9
0 27 -7 39 -16 12 -8 32 -34 43 -57 21 -41 21 -41 -1 -59 -12 -10 -32 -18 -44
-18 -11 0 -28 -4 -36 -10 -8 -5 -11 -12 -7 -17 5 -4 25 -6 45 -4 20 1 41 7 46
12 6 5 34 9 63 9 53 0 53 0 53 35 0 19 -4 35 -10 35 -5 0 -10 6 -10 13 0 8
-17 29 -37 48 -21 19 -44 39 -51 43 -8 5 -37 14 -64 22 -50 13 -52 12 -93 -16
-23 -16 -62 -50 -86 -75 -23 -25 -50 -45 -60 -45 -9 0 -29 19 -44 42 -16 24
-38 67 -50 97 -11 30 -25 56 -31 58z"/>
</g>
</svg>
