<?xml version="1.0" standalone="no"?>
<!DOCTYPE svg PUBLIC "-//W3C//DTD SVG 20010904//EN"
 "http://www.w3.org/TR/2001/REC-SVG-20010904/DTD/svg10.dtd">
<svg version="1.0" xmlns="http://www.w3.org/2000/svg"
 width="56.000000pt" height="56.000000pt" viewBox="0 0 56.000000 56.000000"
 preserveAspectRatio="xMidYMid meet">
<metadata>
Created by potrace 1.16, written by Peter Selinger 2001-2019
</metadata>
<g transform="translate(0.000000,56.000000) scale(0.100000,-0.100000)"
fill="#000000" stroke="none">
<path d="M374 460 c-92 0 -125 -3 -122 -12 2 -6 29 -18 59 -25 30 -8 67 -18
83 -23 23 -8 37 -5 68 12 21 12 38 28 38 35 0 10 -28 13 -126 13z"/>
<path d="M38 448 c-9 2 -19 -1 -22 -7 -4 -5 -7 -36 -8 -68 -1 -37 5 -71 16
-94 9 -20 16 -40 15 -45 -2 -5 5 -26 14 -48 9 -21 17 -41 17 -45 0 -3 9 -12
20 -18 15 -10 21 -10 27 1 4 7 19 19 33 26 14 7 50 37 80 65 30 28 71 61 90
72 19 12 49 24 65 27 17 3 35 3 41 -2 6 -4 16 -16 22 -28 7 -14 8 -34 1 -65
-7 -30 -21 -54 -44 -76 -19 -17 -35 -36 -35 -42 0 -6 8 -11 19 -11 10 0 29 6
42 12 14 7 43 32 67 56 23 23 42 47 42 52 0 6 5 10 10 10 6 0 10 14 10 30 0
17 -4 30 -8 30 -4 0 -15 13 -25 29 -9 15 -31 35 -48 44 -23 11 -39 13 -56 6
-14 -5 -36 -9 -49 -9 -14 0 -46 -11 -70 -25 -25 -14 -60 -39 -77 -55 -18 -16
-44 -34 -59 -39 -20 -7 -30 -6 -41 7 -8 9 -24 40 -37 67 -12 28 -25 70 -28 95
-5 30 -13 46 -24 48z"/>
</g>
</svg>
