<?xml version="1.0" standalone="no"?>
<!DOCTYPE svg PUBLIC "-//W3C//DTD SVG 20010904//EN"
 "http://www.w3.org/TR/2001/REC-SVG-20010904/DTD/svg10.dtd">
<svg version="1.0" xmlns="http://www.w3.org/2000/svg"
 width="56.000000pt" height="56.000000pt" viewBox="0 0 56.000000 56.000000"
 preserveAspectRatio="xMidYMid meet">
<metadata>
Created by potrace 1.16, written by Peter Selinger 2001-2019
</metadata>
<g transform="translate(0.000000,56.000000) scale(0.100000,-0.100000)"
fill="#000000" stroke="none">
<path d="M369 460 c-21 0 -41 -5 -44 -10 -3 -6 2 -13 12 -16 10 -3 38 -15 63
-26 25 -10 54 -31 64 -45 19 -26 19 -26 -5 -43 -12 -10 -41 -24 -64 -30 -22
-7 -50 -17 -62 -23 -13 -6 -23 -18 -23 -28 0 -10 -4 -21 -10 -24 -5 -3 -10
-33 -10 -66 0 -52 2 -60 18 -57 11 2 18 14 20 33 1 17 5 49 8 73 4 34 11 45
30 52 13 5 24 13 24 18 0 5 13 7 29 4 16 -2 32 1 35 7 4 6 29 11 57 11 48 0
49 1 49 30 0 22 -11 40 -46 72 -26 24 -60 49 -76 55 -17 7 -48 13 -69 13z"/>
<path d="M43 263 c-32 30 -43 37 -43 24 0 -9 12 -39 27 -67 15 -27 46 -69 70
-92 36 -35 47 -41 61 -32 9 6 18 23 20 37 3 21 -6 31 -45 58 -26 17 -67 50
-90 72z"/>
</g>
</svg>
