<?xml version="1.0" standalone="no"?>
<!DOCTYPE svg PUBLIC "-//W3C//DTD SVG 20010904//EN"
 "http://www.w3.org/TR/2001/REC-SVG-20010904/DTD/svg10.dtd">
<svg version="1.0" xmlns="http://www.w3.org/2000/svg"
 width="56.000000pt" height="56.000000pt" viewBox="0 0 56.000000 56.000000"
 preserveAspectRatio="xMidYMid meet">
<metadata>
Created by potrace 1.16, written by Peter Selinger 2001-2019
</metadata>
<g transform="translate(0.000000,56.000000) scale(0.100000,-0.100000)"
fill="#000000" stroke="none">
<path d="M377 520 c-39 0 -48 -5 -81 -42 -21 -24 -51 -65 -67 -93 -16 -27 -36
-65 -46 -84 -9 -19 -25 -36 -35 -39 -10 -2 -18 -9 -18 -14 0 -5 -12 -8 -28 -6
-22 2 -32 14 -57 65 -17 35 -33 63 -37 63 -5 0 -8 -18 -8 -40 0 -23 9 -58 20
-80 11 -22 29 -48 41 -59 11 -10 39 -24 62 -29 26 -7 47 -7 59 -1 10 5 18 16
18 24 0 9 4 23 9 33 5 9 15 37 22 62 7 25 25 68 39 95 15 28 33 60 41 73 10
16 23 22 49 22 19 -1 44 -6 56 -13 11 -7 33 -22 47 -33 15 -12 27 -29 27 -38
0 -9 -8 -29 -17 -44 -10 -15 -41 -56 -70 -91 -29 -35 -61 -83 -72 -105 -10
-23 -21 -57 -23 -76 -2 -27 1 -35 16 -38 10 -2 22 2 27 10 5 7 9 26 9 41 0 15
7 41 15 57 8 16 43 62 76 102 33 40 72 80 85 88 14 8 24 24 24 37 0 13 -8 32
-17 44 -10 12 -31 36 -48 54 -16 17 -40 37 -52 43 -12 7 -41 12 -66 12z"/>
</g>
</svg>
