<?xml version="1.0" standalone="no"?>
<!DOCTYPE svg PUBLIC "-//W3C//DTD SVG 20010904//EN"
 "http://www.w3.org/TR/2001/REC-SVG-20010904/DTD/svg10.dtd">
<svg version="1.0" xmlns="http://www.w3.org/2000/svg"
 width="56.000000pt" height="56.000000pt" viewBox="0 0 56.000000 56.000000"
 preserveAspectRatio="xMidYMid meet">
<metadata>
Created by potrace 1.16, written by Peter Selinger 2001-2019
</metadata>
<g transform="translate(0.000000,56.000000) scale(0.100000,-0.100000)"
fill="#000000" stroke="none">
<path d="M35 440 c-24 0 -24 -1 -20 -87 2 -62 9 -102 25 -135 11 -27 25 -48
30 -48 5 0 23 -14 40 -30 19 -19 41 -30 58 -30 16 0 33 5 40 12 7 7 12 29 12
49 0 21 5 41 11 45 6 3 29 34 51 68 21 33 48 66 59 72 15 8 34 7 72 -3 28 -7
60 -22 71 -32 18 -19 18 -20 -15 -60 -19 -22 -38 -41 -44 -41 -5 -1 -37 -23
-70 -49 -33 -26 -60 -54 -60 -61 0 -7 5 -15 10 -17 6 -2 33 11 60 29 27 18 65
42 86 53 20 11 53 34 73 52 27 24 36 40 36 63 0 17 -7 38 -15 46 -8 9 -15 24
-15 34 0 12 -14 23 -40 34 -22 9 -55 16 -74 16 -18 0 -47 -7 -63 -15 -17 -9
-36 -22 -43 -30 -7 -8 -18 -15 -25 -15 -7 0 -32 -21 -56 -47 -23 -27 -51 -63
-61 -80 -11 -18 -24 -33 -29 -33 -5 0 -14 11 -19 25 -5 13 -21 42 -35 64 -21
30 -26 52 -26 95 0 52 -2 56 -24 56z"/>
</g>
</svg>
