<?xml version="1.0" standalone="no"?>
<!DOCTYPE svg PUBLIC "-//W3C//DTD SVG 20010904//EN"
 "http://www.w3.org/TR/2001/REC-SVG-20010904/DTD/svg10.dtd">
<svg version="1.0" xmlns="http://www.w3.org/2000/svg"
 width="56.000000pt" height="56.000000pt" viewBox="0 0 56.000000 56.000000"
 preserveAspectRatio="xMidYMid meet">
<metadata>
Created by potrace 1.16, written by Peter Selinger 2001-2019
</metadata>
<g transform="translate(0.000000,56.000000) scale(0.100000,-0.100000)"
fill="#000000" stroke="none">
<path d="M92 460 c-4 0 -15 -8 -24 -17 -10 -10 -26 -26 -37 -37 -11 -10 -23
-31 -26 -46 -3 -15 1 -58 10 -96 9 -38 28 -86 43 -108 14 -21 37 -43 51 -49
21 -10 27 -8 51 21 15 18 32 50 39 72 6 21 27 63 46 92 19 29 35 58 35 64 0 6
9 14 20 17 12 3 20 14 20 26 0 12 -6 21 -15 21 -9 0 -27 -7 -40 -16 -14 -9
-25 -23 -25 -30 0 -8 -7 -14 -15 -14 -9 0 -31 -34 -54 -85 -23 -49 -46 -85
-54 -85 -8 0 -22 16 -32 35 -9 20 -20 58 -24 85 -4 26 -6 63 -3 80 3 22 12 34
29 41 13 5 21 13 18 19 -3 5 -9 10 -13 10z"/>
<path d="M372 440 c-31 0 -42 -4 -42 -15 0 -10 10 -15 28 -15 20 0 40 -13 70
-43 23 -23 42 -48 42 -53 0 -6 8 -18 18 -27 10 -10 31 -17 45 -17 20 0 27 5
27 20 0 11 -4 20 -8 20 -5 0 -13 10 -19 23 -6 12 -35 42 -65 65 -44 34 -63 42
-96 42z"/>
<path d="M405 174 c-12 3 -44 -9 -83 -30 -34 -20 -60 -40 -56 -45 3 -5 31 -9
63 -9 37 0 72 7 99 20 23 11 42 27 42 34 0 8 -10 16 -22 19 -13 3 -32 8 -43
11z"/>
</g>
</svg>
