<?xml version="1.0" standalone="no"?>
<!DOCTYPE svg PUBLIC "-//W3C//DTD SVG 20010904//EN"
 "http://www.w3.org/TR/2001/REC-SVG-20010904/DTD/svg10.dtd">
<svg version="1.0" xmlns="http://www.w3.org/2000/svg"
 width="56.000000pt" height="56.000000pt" viewBox="0 0 56.000000 56.000000"
 preserveAspectRatio="xMidYMid meet">
<metadata>
Created by potrace 1.16, written by Peter Selinger 2001-2019
</metadata>
<g transform="translate(0.000000,56.000000) scale(0.100000,-0.100000)"
fill="#000000" stroke="none">
<path d="M308 534 c-15 3 -30 1 -33 -5 -4 -6 8 -25 26 -43 19 -18 59 -61 89
-95 30 -35 66 -81 80 -102 14 -21 32 -39 40 -39 9 0 23 9 33 20 9 11 17 36 17
55 0 19 -3 35 -8 35 -4 0 -27 27 -51 59 -23 33 -57 66 -74 74 -18 8 -45 19
-62 25 -16 6 -42 13 -57 16z"/>
<path d="M204 517 c-6 2 -16 -3 -23 -11 -10 -11 -9 -19 1 -35 7 -11 19 -23 27
-26 7 -3 15 -4 17 -3 1 2 -1 19 -5 37 -3 19 -11 36 -17 38z"/>
<path d="M25 420 c-8 0 -15 -8 -15 -18 0 -10 4 -22 8 -27 5 -6 14 -30 21 -55
7 -25 22 -65 33 -90 11 -25 32 -63 46 -85 15 -22 40 -51 56 -65 16 -14 43 -31
59 -38 27 -11 33 -10 54 10 18 17 22 29 18 48 -4 14 -12 31 -18 38 -6 7 -25
19 -44 27 -18 8 -33 19 -33 26 0 7 -21 36 -47 64 -27 29 -65 73 -85 98 -21 25
-38 50 -38 56 0 6 -7 11 -15 11z"/>
<path d="M323 230 c-7 0 -13 -7 -13 -16 0 -8 21 -54 46 -102 25 -48 52 -90 59
-95 8 -4 16 -3 19 2 4 5 2 12 -4 16 -5 3 -10 15 -10 26 0 10 -4 19 -10 19 -5
0 -10 8 -10 19 0 10 -6 24 -13 30 -8 6 -22 31 -33 56 -10 25 -24 45 -31 45z"/>
</g>
</svg>
