<?xml version="1.0" standalone="no"?>
<!DOCTYPE svg PUBLIC "-//W3C//DTD SVG 20010904//EN"
 "http://www.w3.org/TR/2001/REC-SVG-20010904/DTD/svg10.dtd">
<svg version="1.0" xmlns="http://www.w3.org/2000/svg"
 width="56.000000pt" height="56.000000pt" viewBox="0 0 56.000000 56.000000"
 preserveAspectRatio="xMidYMid meet">
<metadata>
Created by potrace 1.16, written by Peter Selinger 2001-2019
</metadata>
<g transform="translate(0.000000,56.000000) scale(0.100000,-0.100000)"
fill="#000000" stroke="none">
<path d="M198 529 c-13 -1 -35 -4 -49 -8 -15 -3 -43 -26 -63 -50 -20 -24 -41
-52 -46 -61 -5 -10 -14 -37 -20 -61 -7 -24 -13 -60 -16 -79 -2 -19 2 -51 8
-70 6 -19 12 -64 12 -100 1 -54 4 -65 19 -68 10 -2 27 4 38 14 10 9 19 29 19
43 0 14 5 43 10 63 10 34 13 36 34 27 17 -8 26 -25 35 -66 7 -30 19 -57 27
-60 8 -3 22 1 31 8 10 9 46 15 97 16 45 0 101 1 125 2 24 0 56 3 72 6 16 4 29
13 29 21 0 8 -12 26 -27 39 -16 13 -40 25 -55 25 -17 0 -31 8 -39 21 -7 13 -8
42 -4 79 4 36 2 73 -6 98 -7 23 -23 49 -36 57 -13 9 -36 15 -50 13 -23 -3 -29
-14 -64 -118 -21 -63 -38 -125 -39 -137 0 -13 -6 -23 -14 -23 -8 0 -25 15 -37
33 -13 17 -28 35 -33 39 -6 4 -21 0 -34 -8 -13 -9 -30 -13 -38 -10 -8 3 -14
19 -14 38 0 18 7 53 16 78 8 25 23 54 33 65 9 11 23 32 30 46 7 14 26 33 42
43 16 9 29 24 29 32 0 8 -9 14 -22 13z m131 -209 c5 0 11 -13 14 -30 4 -16 9
-58 13 -94 6 -60 5 -65 -17 -79 -13 -9 -33 -17 -44 -19 -17 -3 -20 2 -19 37 0
22 6 54 12 70 6 17 16 49 22 73 6 23 15 42 19 42z"/>
</g>
</svg>
