<?xml version="1.0" standalone="no"?>
<!DOCTYPE svg PUBLIC "-//W3C//DTD SVG 20010904//EN"
 "http://www.w3.org/TR/2001/REC-SVG-20010904/DTD/svg10.dtd">
<svg version="1.0" xmlns="http://www.w3.org/2000/svg"
 width="56.000000pt" height="56.000000pt" viewBox="0 0 56.000000 56.000000"
 preserveAspectRatio="xMidYMid meet">
<metadata>
Created by potrace 1.16, written by Peter Selinger 2001-2019
</metadata>
<g transform="translate(0.000000,56.000000) scale(0.100000,-0.100000)"
fill="#000000" stroke="none">
<path d="M129 458 c-32 3 -41 -2 -67 -33 -20 -25 -32 -53 -36 -85 -4 -27 -4
-62 0 -77 4 -15 16 -46 27 -68 12 -22 30 -50 41 -63 11 -12 24 -22 30 -22 6 0
44 26 84 58 40 32 96 72 125 90 29 17 63 33 76 34 19 2 26 -3 32 -26 7 -26 2
-35 -57 -96 -39 -40 -61 -71 -55 -75 6 -3 32 -3 57 1 30 4 58 17 81 37 19 16
41 43 49 58 7 15 14 48 14 72 0 30 -6 50 -20 65 -12 12 -28 22 -38 22 -9 0
-29 6 -43 14 -23 12 -29 11 -50 -5 -13 -10 -29 -19 -34 -19 -6 0 -26 -16 -45
-35 -19 -19 -40 -35 -46 -35 -6 0 -31 -16 -55 -35 -24 -19 -49 -35 -55 -35 -6
0 -21 11 -34 25 -18 19 -25 39 -27 83 -3 44 0 64 16 89 11 17 29 33 41 35 11
2 22 8 23 13 1 6 -14 11 -34 13z"/>
</g>
</svg>
