<?xml version="1.0" standalone="no"?>
<!DOCTYPE svg PUBLIC "-//W3C//DTD SVG 20010904//EN"
 "http://www.w3.org/TR/2001/REC-SVG-20010904/DTD/svg10.dtd">
<svg version="1.0" xmlns="http://www.w3.org/2000/svg"
 width="56.000000pt" height="56.000000pt" viewBox="0 0 56.000000 56.000000"
 preserveAspectRatio="xMidYMid meet">
<metadata>
Created by potrace 1.16, written by Peter Selinger 2001-2019
</metadata>
<g transform="translate(0.000000,56.000000) scale(0.100000,-0.100000)"
fill="#000000" stroke="none">
<path d="M386 440 c-25 0 -47 -4 -51 -10 -3 -5 14 -18 39 -29 24 -12 55 -34
68 -51 12 -17 36 -46 52 -65 15 -19 37 -35 47 -35 14 0 19 7 19 30 0 24 -14
44 -64 95 -60 61 -67 65 -110 65z"/>
<path d="M4 390 c-4 0 -4 -21 0 -47 3 -26 22 -80 42 -120 20 -41 48 -83 62
-94 14 -11 35 -19 46 -17 15 2 22 12 24 32 3 25 -6 39 -61 91 -39 36 -72 79
-85 108 -11 26 -24 47 -28 47z"/>
</g>
</svg>
