<?xml version="1.0" standalone="no"?>
<!DOCTYPE svg PUBLIC "-//W3C//DTD SVG 20010904//EN"
 "http://www.w3.org/TR/2001/REC-SVG-20010904/DTD/svg10.dtd">
<svg version="1.0" xmlns="http://www.w3.org/2000/svg"
 width="56.000000pt" height="56.000000pt" viewBox="0 0 56.000000 56.000000"
 preserveAspectRatio="xMidYMid meet">
<metadata>
Created by potrace 1.16, written by Peter Selinger 2001-2019
</metadata>
<g transform="translate(0.000000,56.000000) scale(0.100000,-0.100000)"
fill="#000000" stroke="none">
<path d="M273 478 c-54 1 -107 -3 -118 -8 -15 -7 -16 -9 -4 -9 9 -1 22 -7 28
-15 8 -10 23 -13 45 -9 18 3 48 -2 70 -11 21 -9 46 -16 56 -16 9 0 25 8 34 19
15 17 15 20 2 34 -12 12 -39 15 -113 15z"/>
<path d="M102 470 c-5 0 -12 -3 -15 -7 -4 -3 -7 -10 -7 -15 0 -4 7 -8 15 -8 8
0 15 7 15 15 0 8 -4 15 -8 15z"/>
<path d="M46 450 c-8 0 -22 -7 -30 -16 -9 -8 -16 -24 -16 -34 0 -10 5 -22 10
-25 6 -3 10 -21 11 -38 0 -18 13 -52 27 -76 21 -33 37 -47 70 -58 39 -13 46
-12 80 5 20 11 68 35 105 53 38 19 73 42 79 53 9 17 7 18 -18 12 -16 -4 -47
-15 -69 -25 -22 -10 -56 -23 -76 -30 -19 -6 -50 -11 -67 -11 -29 0 -35 6 -62
60 -16 33 -30 75 -30 95 0 24 -5 35 -14 35z"/>
<path d="M454 360 c-17 0 -34 -3 -37 -7 -4 -3 -7 -10 -7 -15 0 -4 9 -8 19 -8
11 0 27 -7 35 -16 9 -8 16 -31 16 -49 0 -25 -9 -44 -34 -71 -19 -20 -43 -54
-54 -75 -17 -32 -18 -38 -5 -43 8 -3 16 -6 18 -6 1 0 27 24 58 53 36 34 59 66
67 92 7 22 16 47 20 55 4 9 2 21 -4 28 -6 6 -22 23 -36 37 -16 16 -36 25 -56
25z"/>
</g>
</svg>
