<?xml version="1.0" standalone="no"?>
<!DOCTYPE svg PUBLIC "-//W3C//DTD SVG 20010904//EN"
 "http://www.w3.org/TR/2001/REC-SVG-20010904/DTD/svg10.dtd">
<svg version="1.0" xmlns="http://www.w3.org/2000/svg"
 width="56.000000pt" height="56.000000pt" viewBox="0 0 56.000000 56.000000"
 preserveAspectRatio="xMidYMid meet">
<metadata>
Created by potrace 1.16, written by Peter Selinger 2001-2019
</metadata>
<g transform="translate(0.000000,56.000000) scale(0.100000,-0.100000)"
fill="#000000" stroke="none">
<path d="M144 537 c-5 2 -20 -7 -32 -20 -12 -13 -22 -28 -22 -34 0 -6 -16 -34
-35 -62 -19 -28 -35 -55 -35 -61 0 -5 9 -10 20 -10 11 0 27 8 35 18 9 9 32 39
51 65 23 32 34 57 32 75 -2 14 -8 27 -14 29z"/>
<path d="M325 490 c-14 0 -25 -4 -25 -10 0 -5 -15 -24 -34 -43 -21 -21 -41
-57 -54 -98 -12 -35 -23 -97 -26 -136 -3 -40 -9 -81 -15 -90 -9 -16 -15 -12
-59 33 -35 37 -51 61 -55 90 -4 21 -7 54 -7 72 0 21 -5 32 -15 32 -8 0 -18 -8
-23 -17 -5 -10 -10 -41 -10 -69 -1 -40 4 -56 20 -70 11 -11 26 -31 34 -46 9
-16 23 -28 34 -28 11 0 20 -7 20 -15 0 -8 15 -24 32 -35 18 -11 40 -20 49 -20
9 0 27 11 40 24 22 23 24 35 25 123 1 54 8 120 16 146 8 26 22 56 31 67 9 11
28 20 42 20 14 0 28 -7 31 -15 3 -8 21 -19 40 -25 19 -7 41 -9 49 -6 8 3 15
12 15 21 0 9 -8 19 -17 22 -10 4 -24 15 -31 25 -7 10 -26 18 -41 18 -16 0 -31
7 -35 15 -3 8 -17 15 -31 15z"/>
<path d="M480 360 c-9 0 -19 -3 -23 -6 -3 -4 1 -17 10 -30 8 -13 19 -42 24
-65 9 -39 7 -46 -26 -96 -19 -29 -40 -53 -45 -53 -5 0 -22 -12 -38 -28 -15
-15 -39 -34 -52 -43 -13 -8 -19 -18 -14 -21 5 -4 27 0 49 8 22 7 45 20 51 29
6 8 25 15 42 15 27 0 34 6 46 35 8 19 20 35 25 35 6 0 11 11 11 25 0 14 5 25
10 25 6 0 10 20 10 45 0 25 -4 45 -10 45 -5 0 -10 9 -10 20 0 10 -10 28 -22
40 -12 11 -29 20 -38 20z"/>
</g>
</svg>
