<?xml version="1.0" standalone="no"?>
<!DOCTYPE svg PUBLIC "-//W3C//DTD SVG 20010904//EN"
 "http://www.w3.org/TR/2001/REC-SVG-20010904/DTD/svg10.dtd">
<svg version="1.0" xmlns="http://www.w3.org/2000/svg"
 width="56.000000pt" height="56.000000pt" viewBox="0 0 56.000000 56.000000"
 preserveAspectRatio="xMidYMid meet">
<metadata>
Created by potrace 1.16, written by Peter Selinger 2001-2019
</metadata>
<g transform="translate(0.000000,56.000000) scale(0.100000,-0.100000)"
fill="#000000" stroke="none">
<path d="M251 560 c-11 0 -21 -3 -23 -7 -1 -5 -22 -21 -46 -36 -23 -15 -48
-39 -54 -52 -6 -13 -8 -31 -4 -40 5 -14 15 -16 56 -10 39 5 50 4 50 -7 0 -8
-5 -19 -12 -26 -7 -7 -12 -41 -12 -79 0 -57 5 -79 32 -133 18 -36 54 -89 81
-117 42 -45 55 -53 85 -53 25 0 36 4 36 15 0 8 -12 25 -27 38 -15 12 -44 37
-66 56 -21 19 -50 56 -63 83 -20 39 -25 65 -26 129 -1 75 1 82 28 110 15 16
45 35 66 41 21 6 43 17 48 23 6 7 8 20 4 29 -3 9 -16 16 -27 16 -11 0 -53 -17
-93 -37 -40 -21 -76 -34 -81 -29 -4 4 9 23 30 41 20 17 37 35 37 39 0 3 -9 6
-19 6z"/>
<path d="M143 60 c-7 0 -13 -6 -13 -14 0 -8 -3 -21 -6 -30 -5 -13 1 -16 25
-16 17 0 31 2 31 5 0 2 -5 16 -12 30 -6 14 -17 25 -25 25z"/>
</g>
</svg>
