<?xml version="1.0" standalone="no"?>
<!DOCTYPE svg PUBLIC "-//W3C//DTD SVG 20010904//EN"
 "http://www.w3.org/TR/2001/REC-SVG-20010904/DTD/svg10.dtd">
<svg version="1.0" xmlns="http://www.w3.org/2000/svg"
 width="56.000000pt" height="56.000000pt" viewBox="0 0 56.000000 56.000000"
 preserveAspectRatio="xMidYMid meet">
<metadata>
Created by potrace 1.16, written by Peter Selinger 2001-2019
</metadata>
<g transform="translate(0.000000,56.000000) scale(0.100000,-0.100000)"
fill="#000000" stroke="none">
<path d="M273 559 c-10 -1 -46 -31 -79 -68 -36 -38 -65 -79 -68 -97 -5 -23 -2
-34 14 -49 19 -17 21 -17 59 0 22 10 46 15 55 12 12 -5 12 -11 0 -48 -10 -27
-13 -57 -8 -88 4 -25 15 -58 25 -73 11 -14 19 -31 19 -36 0 -5 21 -33 46 -61
25 -28 54 -51 64 -51 10 0 21 7 24 16 3 9 6 24 6 34 0 11 -16 28 -37 41 -21
12 -46 32 -56 43 -10 12 -27 41 -38 65 -16 37 -18 49 -8 85 6 22 25 56 42 74
20 21 40 32 58 32 15 0 30 4 33 9 4 5 3 16 0 24 -3 8 -17 18 -31 22 -15 3 -34
0 -47 -9 -13 -8 -40 -19 -62 -24 -21 -6 -54 -13 -71 -16 -24 -4 -33 -2 -33 8
0 7 25 41 55 75 30 34 55 66 55 71 0 6 -8 9 -17 9z"/>
</g>
</svg>
