<?xml version="1.0" standalone="no"?>
<!DOCTYPE svg PUBLIC "-//W3C//DTD SVG 20010904//EN"
 "http://www.w3.org/TR/2001/REC-SVG-20010904/DTD/svg10.dtd">
<svg version="1.0" xmlns="http://www.w3.org/2000/svg"
 width="56.000000pt" height="56.000000pt" viewBox="0 0 56.000000 56.000000"
 preserveAspectRatio="xMidYMid meet">
<metadata>
Created by potrace 1.16, written by Peter Selinger 2001-2019
</metadata>
<g transform="translate(0.000000,56.000000) scale(0.100000,-0.100000)"
fill="#000000" stroke="none">
<path d="M282 560 c-15 0 -32 -6 -37 -14 -6 -7 -38 -49 -73 -92 -34 -43 -72
-88 -83 -100 -14 -14 -19 -31 -17 -50 3 -28 5 -29 58 -29 55 0 55 0 52 -40 -3
-33 3 -50 30 -90 25 -37 53 -59 118 -97 53 -30 97 -48 118 -48 22 0 32 5 32
16 0 8 -5 24 -10 35 -6 11 -48 38 -93 60 -45 22 -89 46 -97 54 -8 8 -23 29
-34 49 -13 25 -17 45 -12 71 4 20 23 53 43 76 19 21 52 48 72 60 20 11 49 38
64 59 24 34 26 42 15 60 -8 12 -23 20 -40 20 -19 0 -28 -5 -28 -15 0 -9 -26
-41 -58 -73 -32 -31 -79 -72 -105 -90 -26 -18 -52 -30 -57 -27 -6 4 9 22 32
42 24 19 64 61 90 92 26 31 48 59 48 64 0 4 -12 7 -28 7z"/>
</g>
</svg>
