<?xml version="1.0" standalone="no"?>
<!DOCTYPE svg PUBLIC "-//W3C//DTD SVG 20010904//EN"
 "http://www.w3.org/TR/2001/REC-SVG-20010904/DTD/svg10.dtd">
<svg version="1.0" xmlns="http://www.w3.org/2000/svg"
 width="56.000000pt" height="56.000000pt" viewBox="0 0 56.000000 56.000000"
 preserveAspectRatio="xMidYMid meet">
<metadata>
Created by potrace 1.16, written by Peter Selinger 2001-2019
</metadata>
<g transform="translate(0.000000,56.000000) scale(0.100000,-0.100000)"
fill="#000000" stroke="none">
<path d="M283 560 c-10 0 -30 -20 -45 -46 -16 -25 -28 -51 -28 -58 0 -7 3 -16
7 -19 3 -4 17 3 30 15 12 12 26 19 29 15 4 -4 8 -28 9 -54 1 -27 -3 -57 -9
-67 -6 -11 -19 -29 -28 -39 -9 -11 -24 -35 -33 -54 -17 -34 -16 -35 17 -86 19
-29 40 -67 46 -86 7 -19 12 -45 12 -57 0 -15 6 -24 15 -24 12 0 15 13 15 56 0
42 -6 64 -22 87 -12 18 -30 41 -40 51 -10 11 -18 22 -18 25 0 3 8 18 18 32 9
15 34 51 55 80 20 30 37 64 37 77 0 12 -7 25 -15 28 -8 4 -15 16 -15 29 0 12
-9 30 -20 40 -14 13 -17 22 -10 29 5 5 10 14 10 18 0 4 -8 8 -17 8z"/>
</g>
</svg>
