<?xml version="1.0" standalone="no"?>
<!DOCTYPE svg PUBLIC "-//W3C//DTD SVG 20010904//EN"
 "http://www.w3.org/TR/2001/REC-SVG-20010904/DTD/svg10.dtd">
<svg version="1.0" xmlns="http://www.w3.org/2000/svg"
 width="56.000000pt" height="56.000000pt" viewBox="0 0 56.000000 56.000000"
 preserveAspectRatio="xMidYMid meet">
<metadata>
Created by potrace 1.16, written by Peter Selinger 2001-2019
</metadata>
<g transform="translate(0.000000,56.000000) scale(0.100000,-0.100000)"
fill="#000000" stroke="none">
<path d="M307 560 c-7 0 -17 -10 -22 -22 -6 -13 -19 -24 -30 -26 -11 -2 -26
-11 -33 -20 -7 -9 -43 -32 -80 -52 -37 -19 -67 -42 -67 -50 0 -8 10 -16 22
-18 13 -2 42 10 67 27 25 17 60 34 77 38 29 6 32 4 25 -13 -5 -10 -13 -35 -19
-54 -6 -19 -11 -75 -11 -125 -1 -50 3 -105 7 -122 7 -28 6 -33 -10 -34 -12 0
-9 -4 10 -11 18 -6 26 -15 23 -24 -3 -7 -1 -16 4 -19 4 -3 19 -1 32 4 16 6 41
2 82 -11 32 -11 65 -17 74 -13 13 5 13 8 -2 23 -9 10 -16 23 -16 29 0 6 -14
13 -31 17 -18 3 -47 15 -66 27 -18 12 -41 35 -49 51 -11 22 -16 57 -15 122 1
74 5 96 21 118 11 15 20 31 20 35 0 5 20 26 45 47 25 20 43 42 40 47 -4 5 -24
9 -46 9 -21 0 -39 5 -39 10 0 6 -6 10 -13 10z"/>
<path d="M375 340 c-8 0 -15 -3 -15 -7 0 -5 7 -16 14 -25 7 -10 23 -18 34 -18
11 0 23 4 26 9 3 5 -5 16 -19 25 -13 9 -31 16 -40 16z"/>
<path d="M439 280 c-11 0 -22 -7 -26 -16 -3 -8 4 -25 17 -40 13 -13 27 -24 31
-24 3 0 9 11 11 24 3 13 1 31 -4 40 -5 9 -18 16 -29 16z"/>
</g>
</svg>
