<?xml version="1.0" standalone="no"?>
<!DOCTYPE svg PUBLIC "-//W3C//DTD SVG 20010904//EN"
 "http://www.w3.org/TR/2001/REC-SVG-20010904/DTD/svg10.dtd">
<svg version="1.0" xmlns="http://www.w3.org/2000/svg"
 width="56.000000pt" height="56.000000pt" viewBox="0 0 56.000000 56.000000"
 preserveAspectRatio="xMidYMid meet">
<metadata>
Created by potrace 1.16, written by Peter Selinger 2001-2019
</metadata>
<g transform="translate(0.000000,56.000000) scale(0.100000,-0.100000)"
fill="#000000" stroke="none">
<path d="M270 560 c-16 0 -30 -5 -30 -11 0 -6 -24 -38 -52 -72 -29 -33 -68
-75 -86 -93 -28 -27 -33 -37 -30 -70 3 -33 7 -39 29 -42 16 -2 38 8 63 28 21
16 44 30 50 30 7 0 12 -21 12 -54 1 -41 9 -67 32 -107 17 -30 46 -68 64 -85
18 -18 52 -43 75 -58 24 -14 52 -26 63 -26 15 0 20 7 20 25 0 18 -14 35 -54
64 -29 22 -67 56 -84 77 -17 20 -35 56 -41 80 -6 23 -11 62 -11 86 1 26 8 51
18 63 9 11 35 34 57 50 22 16 52 40 67 54 28 24 28 25 8 43 -10 10 -23 18 -29
18 -5 0 -11 -4 -13 -8 -1 -4 -39 -37 -83 -73 -44 -35 -97 -76 -117 -92 -20
-15 -41 -27 -47 -27 -6 0 -11 4 -11 8 0 4 36 43 80 85 44 43 80 84 80 92 0 10
-10 15 -30 15z"/>
</g>
</svg>
