<?xml version="1.0" standalone="no"?>
<!DOCTYPE svg PUBLIC "-//W3C//DTD SVG 20010904//EN"
 "http://www.w3.org/TR/2001/REC-SVG-20010904/DTD/svg10.dtd">
<svg version="1.0" xmlns="http://www.w3.org/2000/svg"
 width="56.000000pt" height="56.000000pt" viewBox="0 0 56.000000 56.000000"
 preserveAspectRatio="xMidYMid meet">
<metadata>
Created by potrace 1.16, written by Peter Selinger 2001-2019
</metadata>
<g transform="translate(0.000000,56.000000) scale(0.100000,-0.100000)"
fill="#000000" stroke="none">
<path d="M500 529 c-8 -1 -35 -12 -60 -25 -25 -13 -90 -38 -145 -55 -55 -18
-117 -41 -138 -51 -31 -16 -44 -17 -78 -8 -38 11 -40 12 -37 50 1 22 -1 42 -5
46 -3 4 -13 4 -22 1 -11 -5 -15 -21 -15 -57 0 -28 7 -64 15 -80 8 -16 23 -31
33 -34 11 -4 39 3 63 14 24 11 54 20 66 20 11 0 46 10 77 21 31 12 59 19 62
16 3 -3 8 -37 10 -76 3 -39 13 -91 24 -117 11 -26 38 -68 60 -93 21 -26 55
-56 74 -66 35 -19 36 -19 56 2 11 12 20 29 20 36 0 8 -15 22 -32 30 -18 9 -44
26 -57 38 -13 12 -36 42 -52 67 -24 38 -29 57 -29 109 0 50 4 67 20 83 11 11
43 31 72 45 28 14 58 25 65 25 7 0 13 11 13 24 0 16 -7 26 -22 30 -13 3 -30 5
-38 5z"/>
</g>
</svg>
