<?xml version="1.0" standalone="no"?>
<!DOCTYPE svg PUBLIC "-//W3C//DTD SVG 20010904//EN"
 "http://www.w3.org/TR/2001/REC-SVG-20010904/DTD/svg10.dtd">
<svg version="1.0" xmlns="http://www.w3.org/2000/svg"
 width="56.000000pt" height="56.000000pt" viewBox="0 0 56.000000 56.000000"
 preserveAspectRatio="xMidYMid meet">
<metadata>
Created by potrace 1.16, written by Peter Selinger 2001-2019
</metadata>
<g transform="translate(0.000000,56.000000) scale(0.100000,-0.100000)"
fill="#000000" stroke="none">
<path d="M183 560 c-22 0 -35 -11 -61 -49 -27 -41 -33 -57 -31 -97 1 -27 4
-53 6 -57 3 -4 21 8 41 28 20 19 42 35 49 35 7 0 22 5 33 12 10 7 22 9 25 6 4
-3 -5 -28 -19 -54 -18 -34 -26 -64 -26 -99 0 -27 5 -67 10 -87 7 -23 33 -60
71 -98 33 -34 79 -70 102 -81 23 -10 48 -19 55 -19 10 0 12 9 7 33 -4 17 -9
40 -11 49 -3 9 -33 32 -67 52 -37 20 -70 47 -81 67 -11 19 -21 59 -24 100 -4
56 -1 73 16 101 11 18 36 44 54 58 18 14 44 31 57 37 13 7 30 13 37 13 8 0 14
7 14 15 0 8 -9 15 -20 15 -11 0 -20 5 -20 10 0 6 -13 10 -30 10 -16 0 -30 -4
-30 -8 0 -5 -29 -21 -64 -36 -36 -15 -70 -25 -75 -22 -7 5 -7 15 -1 32 6 14
10 27 10 30 0 2 -12 4 -27 4z"/>
</g>
</svg>
