<?xml version="1.0" standalone="no"?>
<!DOCTYPE svg PUBLIC "-//W3C//DTD SVG 20010904//EN"
 "http://www.w3.org/TR/2001/REC-SVG-20010904/DTD/svg10.dtd">
<svg version="1.0" xmlns="http://www.w3.org/2000/svg"
 width="56.000000pt" height="56.000000pt" viewBox="0 0 56.000000 56.000000"
 preserveAspectRatio="xMidYMid meet">
<metadata>
Created by potrace 1.16, written by Peter Selinger 2001-2019
</metadata>
<g transform="translate(0.000000,56.000000) scale(0.100000,-0.100000)"
fill="#000000" stroke="none">
<path d="M453 560 c-18 0 -33 -4 -33 -9 0 -6 -32 -27 -71 -47 -39 -21 -73 -43
-76 -51 -3 -7 -12 -13 -20 -13 -8 0 -27 -8 -41 -19 -15 -10 -44 -24 -64 -32
-35 -12 -39 -11 -62 10 -15 14 -32 21 -40 18 -9 -4 -16 -10 -16 -14 0 -4 10
-21 23 -36 12 -16 37 -31 58 -36 32 -7 41 -4 102 40 37 27 68 49 70 49 2 0 4
-39 5 -86 1 -48 7 -102 13 -122 6 -19 22 -51 35 -71 13 -20 31 -46 40 -59 9
-13 34 -36 56 -53 23 -16 52 -29 65 -29 12 0 23 2 23 5 0 2 -5 15 -11 27 -5
13 -23 30 -40 37 -16 7 -29 17 -29 23 0 6 -11 19 -25 30 -14 11 -38 43 -52 71
-24 45 -27 64 -27 140 0 85 1 89 29 112 17 13 48 33 70 43 22 11 48 23 58 26
15 5 16 9 5 26 -9 13 -24 20 -45 20z"/>
<path d="M140 99 c-7 2 -11 -2 -8 -8 2 -7 7 -12 11 -12 4 1 7 4 8 8 0 4 -5 9
-11 12z"/>
</g>
</svg>
