<?xml version="1.0" standalone="no"?>
<!DOCTYPE svg PUBLIC "-//W3C//DTD SVG 20010904//EN"
 "http://www.w3.org/TR/2001/REC-SVG-20010904/DTD/svg10.dtd">
<svg version="1.0" xmlns="http://www.w3.org/2000/svg"
 width="56.000000pt" height="56.000000pt" viewBox="0 0 56.000000 56.000000"
 preserveAspectRatio="xMidYMid meet">
<metadata>
Created by potrace 1.16, written by Peter Selinger 2001-2019
</metadata>
<g transform="translate(0.000000,56.000000) scale(0.100000,-0.100000)"
fill="#000000" stroke="none">
<path d="M483 500 c-5 -1 -19 -7 -33 -15 -14 -8 -34 -14 -45 -15 -11 0 -40
-14 -65 -30 -25 -16 -60 -33 -78 -36 -18 -3 -35 -10 -38 -15 -3 -5 -13 -9 -23
-9 -10 0 -30 -9 -44 -20 -14 -11 -34 -20 -45 -20 -11 0 -42 -9 -68 -20 -43
-19 -46 -22 -32 -36 13 -13 24 -14 79 -3 35 6 71 17 79 24 8 7 29 17 46 23 32
10 32 10 38 -31 4 -23 9 -60 12 -81 3 -22 12 -55 19 -73 8 -18 21 -33 29 -33
9 0 16 -11 18 -27 3 -25 7 -28 33 -25 17 2 38 10 47 19 9 8 21 12 26 9 6 -4 8
3 5 15 -3 11 -16 27 -30 36 -13 9 -38 19 -55 22 -24 5 -34 14 -44 41 -7 19
-13 58 -13 87 -1 28 2 58 5 67 3 9 14 16 24 16 11 0 21 4 24 9 3 5 41 16 83
26 43 9 88 19 101 21 12 2 22 10 22 17 0 6 -16 22 -35 35 -19 12 -38 22 -42
22z"/>
</g>
</svg>
