<?xml version="1.0" standalone="no"?>
<!DOCTYPE svg PUBLIC "-//W3C//DTD SVG 20010904//EN"
 "http://www.w3.org/TR/2001/REC-SVG-20010904/DTD/svg10.dtd">
<svg version="1.0" xmlns="http://www.w3.org/2000/svg"
 width="56.000000pt" height="56.000000pt" viewBox="0 0 56.000000 56.000000"
 preserveAspectRatio="xMidYMid meet">
<metadata>
Created by potrace 1.16, written by Peter Selinger 2001-2019
</metadata>
<g transform="translate(0.000000,56.000000) scale(0.100000,-0.100000)"
fill="#000000" stroke="none">
<path d="M355 560 c-3 0 -5 -4 -5 -8 0 -5 -37 -26 -82 -48 -46 -21 -103 -41
-128 -44 -37 -4 -46 -9 -48 -27 -3 -21 1 -23 40 -23 24 0 48 4 54 9 5 4 30 16
56 26 25 9 51 14 57 11 7 -5 4 -20 -8 -45 -11 -20 -29 -66 -40 -102 -12 -37
-22 -96 -23 -139 -2 -71 0 -78 32 -122 30 -43 38 -48 72 -48 21 0 57 8 80 17
24 9 49 23 56 30 8 8 11 20 8 29 -5 13 -9 13 -34 0 -15 -8 -44 -17 -64 -21
-20 -4 -44 -2 -54 3 -11 6 -25 31 -33 57 -12 42 -12 58 4 139 9 50 23 102 30
116 7 14 19 39 25 57 7 17 20 39 31 49 10 9 19 24 19 33 0 9 -9 24 -20 34 -11
9 -22 17 -25 17z"/>
</g>
</svg>
