<?xml version="1.0" standalone="no"?>
<!DOCTYPE svg PUBLIC "-//W3C//DTD SVG 20010904//EN"
 "http://www.w3.org/TR/2001/REC-SVG-20010904/DTD/svg10.dtd">
<svg version="1.0" xmlns="http://www.w3.org/2000/svg"
 width="56.000000pt" height="56.000000pt" viewBox="0 0 56.000000 56.000000"
 preserveAspectRatio="xMidYMid meet">
<metadata>
Created by potrace 1.16, written by Peter Selinger 2001-2019
</metadata>
<g transform="translate(0.000000,56.000000) scale(0.100000,-0.100000)"
fill="#000000" stroke="none">
<path d="M256 560 c-18 0 -25 -7 -29 -28 -3 -15 -27 -50 -52 -77 -26 -28 -51
-58 -56 -67 -5 -9 -9 -28 -9 -42 0 -14 4 -27 9 -30 4 -3 35 19 67 49 32 30 65
55 72 55 9 0 12 -28 12 -107 0 -92 4 -117 26 -175 15 -36 42 -83 60 -102 21
-23 43 -36 59 -36 14 0 25 3 25 6 0 3 -22 30 -48 59 -26 28 -53 70 -59 91 -6
21 -16 63 -22 92 -6 30 -11 73 -11 97 0 23 6 53 13 66 6 14 22 34 35 47 12 12
22 29 22 37 0 8 -6 15 -14 15 -7 0 -35 -12 -60 -26 -26 -15 -50 -23 -53 -20
-4 4 3 27 15 51 22 45 22 45 -2 45z"/>
</g>
</svg>
