<?xml version="1.0" standalone="no"?>
<!DOCTYPE svg PUBLIC "-//W3C//DTD SVG 20010904//EN"
 "http://www.w3.org/TR/2001/REC-SVG-20010904/DTD/svg10.dtd">
<svg version="1.0" xmlns="http://www.w3.org/2000/svg"
 width="56.000000pt" height="56.000000pt" viewBox="0 0 56.000000 56.000000"
 preserveAspectRatio="xMidYMid meet">
<metadata>
Created by potrace 1.16, written by Peter Selinger 2001-2019
</metadata>
<g transform="translate(0.000000,56.000000) scale(0.100000,-0.100000)"
fill="#000000" stroke="none">
<path d="M318 560 c-15 -1 -35 -16 -57 -45 -27 -37 -31 -48 -21 -60 8 -9 10
-28 6 -50 -5 -27 -2 -39 14 -55 11 -11 20 -24 20 -29 0 -5 -16 -32 -35 -60
-23 -34 -35 -62 -35 -85 0 -19 4 -37 8 -40 4 -2 23 -34 41 -70 18 -36 39 -66
47 -66 8 0 14 10 14 26 0 14 -8 38 -18 52 -10 15 -26 43 -35 64 -9 20 -17 40
-17 45 0 5 20 35 45 67 37 48 43 61 34 78 -6 10 -17 22 -24 24 -8 3 -17 15
-20 25 -4 11 -1 27 6 35 9 12 9 20 -1 39 -12 23 -11 27 18 55 18 17 32 35 32
40 0 6 -10 10 -22 10z"/>
</g>
</svg>
