<?xml version="1.0" standalone="no"?>
<!DOCTYPE svg PUBLIC "-//W3C//DTD SVG 20010904//EN"
 "http://www.w3.org/TR/2001/REC-SVG-20010904/DTD/svg10.dtd">
<svg version="1.0" xmlns="http://www.w3.org/2000/svg"
 width="56.000000pt" height="56.000000pt" viewBox="0 0 56.000000 56.000000"
 preserveAspectRatio="xMidYMid meet">
<metadata>
Created by potrace 1.16, written by Peter Selinger 2001-2019
</metadata>
<g transform="translate(0.000000,56.000000) scale(0.100000,-0.100000)"
fill="#000000" stroke="none">
<path d="M253 560 c-10 0 -34 -22 -53 -48 -19 -26 -37 -49 -40 -52 -3 -3 -18
-20 -33 -38 -15 -19 -27 -37 -27 -42 0 -5 7 -16 16 -25 13 -12 26 -15 55 -10
21 4 56 15 76 25 21 9 48 21 61 24 12 4 22 4 22 -1 0 -5 -9 -33 -21 -63 -12
-34 -21 -82 -22 -125 0 -44 4 -80 14 -97 8 -14 31 -45 52 -67 24 -27 46 -41
62 -41 14 0 25 6 25 13 0 7 -22 36 -49 64 -38 39 -50 59 -55 94 -3 24 -2 60 3
79 5 19 15 52 21 74 6 21 29 56 51 77 25 24 37 44 33 54 -4 8 -18 18 -32 22
-16 4 -34 0 -51 -11 -14 -10 -46 -27 -71 -38 -24 -12 -64 -23 -87 -26 -31 -3
-43 -1 -43 8 0 7 8 20 18 29 10 9 34 37 55 62 20 25 37 49 37 53 0 3 -8 6 -17
6z"/>
</g>
</svg>
