<?xml version="1.0" standalone="no"?>
<!DOCTYPE svg PUBLIC "-//W3C//DTD SVG 20010904//EN"
 "http://www.w3.org/TR/2001/REC-SVG-20010904/DTD/svg10.dtd">
<svg version="1.0" xmlns="http://www.w3.org/2000/svg"
 width="56.000000pt" height="56.000000pt" viewBox="0 0 56.000000 56.000000"
 preserveAspectRatio="xMidYMid meet">
<metadata>
Created by potrace 1.16, written by Peter Selinger 2001-2019
</metadata>
<g transform="translate(0.000000,56.000000) scale(0.100000,-0.100000)"
fill="#000000" stroke="none">
<path d="M282 560 c-11 0 -22 -3 -24 -7 -1 -5 -20 -21 -41 -37 -21 -15 -41
-26 -44 -22 -3 3 -13 -4 -22 -14 -9 -11 -41 -32 -71 -48 -47 -24 -55 -33 -58
-59 -2 -19 2 -32 11 -36 8 -3 23 2 33 12 11 9 35 27 54 40 19 13 50 38 68 55
24 22 35 27 43 19 9 -9 6 -25 -11 -65 -21 -51 -21 -56 -6 -92 9 -21 16 -51 16
-66 0 -15 -9 -35 -20 -45 -11 -10 -20 -27 -20 -38 0 -11 -7 -29 -16 -39 -16
-16 -15 -18 2 -25 10 -4 19 -2 22 5 2 7 7 12 12 12 4 0 6 -10 3 -21 -4 -16 -2
-20 8 -17 8 3 13 15 11 29 -1 13 3 32 10 42 13 17 17 14 57 -33 24 -29 62 -65
84 -81 31 -22 51 -29 88 -29 26 0 50 4 53 9 4 5 4 16 0 24 -3 8 -19 17 -35 21
-16 3 -55 23 -87 45 -31 21 -67 49 -78 62 -12 13 -25 41 -28 62 -5 27 -3 37 6
37 7 0 2 6 -12 13 -21 10 -26 21 -28 62 -2 37 2 60 19 90 13 22 31 46 41 53
10 7 18 19 18 25 -1 7 -9 22 -19 35 -11 12 -28 22 -39 22z"/>
<path d="M364 360 c-11 11 -23 17 -27 14 -4 -4 -7 -23 -7 -41 0 -27 4 -34 16
-31 9 2 22 11 28 20 8 14 6 22 -10 38z"/>
</g>
</svg>
