<?xml version="1.0" standalone="no"?>
<!DOCTYPE svg PUBLIC "-//W3C//DTD SVG 20010904//EN"
 "http://www.w3.org/TR/2001/REC-SVG-20010904/DTD/svg10.dtd">
<svg version="1.0" xmlns="http://www.w3.org/2000/svg"
 width="56.000000pt" height="56.000000pt" viewBox="0 0 56.000000 56.000000"
 preserveAspectRatio="xMidYMid meet">
<metadata>
Created by potrace 1.16, written by Peter Selinger 2001-2019
</metadata>
<g transform="translate(0.000000,56.000000) scale(0.100000,-0.100000)"
fill="#000000" stroke="none">
<path d="M313 560 c-19 0 -39 -12 -60 -35 -20 -20 -30 -40 -27 -49 3 -8 14
-18 25 -21 15 -5 19 -16 19 -55 0 -39 4 -52 22 -64 21 -15 21 -15 -4 -48 -14
-18 -42 -53 -62 -78 -20 -25 -36 -51 -36 -59 0 -8 21 -35 48 -60 26 -25 52
-55 58 -66 6 -11 23 -21 38 -23 14 -2 26 0 26 3 0 4 -10 21 -22 38 -12 18 -39
51 -60 74 -21 24 -38 46 -38 51 0 4 27 37 60 72 37 39 60 73 60 87 0 13 -11
29 -25 39 -23 15 -25 21 -19 59 4 27 2 45 -5 49 -6 4 -11 16 -11 26 0 11 9 24
20 30 11 6 20 15 20 20 0 6 -12 10 -27 10z"/>
</g>
</svg>
