<?xml version="1.0" standalone="no"?>
<!DOCTYPE svg PUBLIC "-//W3C//DTD SVG 20010904//EN"
 "http://www.w3.org/TR/2001/REC-SVG-20010904/DTD/svg10.dtd">
<svg version="1.0" xmlns="http://www.w3.org/2000/svg"
 width="56.000000pt" height="56.000000pt" viewBox="0 0 56.000000 56.000000"
 preserveAspectRatio="xMidYMid meet">
<metadata>
Created by potrace 1.16, written by Peter Selinger 2001-2019
</metadata>
<g transform="translate(0.000000,56.000000) scale(0.100000,-0.100000)"
fill="#000000" stroke="none">
<path d="M285 560 c-95 0 -104 -2 -110 -20 -4 -13 1 -31 14 -49 12 -16 21 -44
21 -63 0 -20 -12 -52 -29 -80 -16 -25 -49 -59 -73 -76 -23 -16 -51 -39 -62
-50 -10 -12 -16 -28 -13 -37 4 -10 19 -15 43 -15 28 0 47 9 87 45 29 25 55 45
59 45 5 0 8 -4 8 -9 0 -5 -5 -22 -10 -37 -6 -15 -11 -57 -11 -95 -1 -51 4 -74
18 -93 17 -25 21 -25 137 -26 66 0 116 3 112 7 -3 4 -23 12 -43 19 -20 7 -57
10 -82 7 -42 -4 -49 -2 -76 26 -22 24 -29 40 -28 69 0 20 6 63 13 95 11 54 15
60 74 101 33 24 87 56 119 70 32 15 57 33 57 42 0 8 -7 17 -16 21 -8 3 -20 1
-27 -6 -6 -6 -17 -11 -24 -11 -8 0 -41 -18 -74 -40 -33 -22 -63 -40 -66 -40
-3 0 -28 -13 -54 -30 -27 -16 -49 -27 -49 -24 0 3 10 20 22 37 17 23 22 44 21
84 -1 29 -4 67 -8 83 -4 18 -2 30 3 30 6 0 30 -9 54 -20 24 -11 51 -25 60 -32
14 -10 21 -10 34 4 11 11 15 25 10 42 -6 26 -7 26 -111 26z"/>
</g>
</svg>
