<?xml version="1.0" standalone="no"?>
<!DOCTYPE svg PUBLIC "-//W3C//DTD SVG 20010904//EN"
 "http://www.w3.org/TR/2001/REC-SVG-20010904/DTD/svg10.dtd">
<svg version="1.0" xmlns="http://www.w3.org/2000/svg"
 width="128.000000pt" height="128.000000pt" viewBox="0 0 128.000000 128.000000"
 preserveAspectRatio="xMidYMid meet">
<metadata>
Created by potrace 1.16, written by Peter Selinger 2001-2019
</metadata>
<g transform="translate(0.000000,128.000000) scale(0.100000,-0.100000)"
fill="#000000" stroke="none">
<path d="M450 1180 c-53 0 -70 -3 -70 -14 0 -7 6 -19 14 -25 8 -7 30 -15 50
-18 27 -4 42 -1 56 12 11 10 20 24 20 32 0 10 -18 13 -70 13z"/>
<path d="M829 1140 c-48 0 -49 -1 -104 -67 -30 -37 -55 -71 -55 -75 0 -5 -22
-57 -49 -116 -26 -59 -54 -125 -61 -147 -7 -22 -21 -59 -31 -83 -11 -23 -19
-50 -19 -60 0 -9 -7 -30 -15 -46 -8 -15 -15 -45 -15 -65 0 -21 -6 -46 -14 -56
-14 -19 -15 -19 -33 -2 -11 9 -24 17 -29 17 -5 0 -27 -9 -48 -19 -21 -11 -57
-38 -79 -61 -23 -22 -53 -44 -66 -47 -18 -4 -29 0 -43 17 -10 12 -18 32 -18
44 0 12 6 29 13 38 6 8 34 23 61 32 27 9 60 16 73 16 16 0 27 8 34 28 6 15 19
78 29 141 11 63 16 126 13 141 -4 21 0 31 18 44 13 9 32 16 41 16 10 0 37 12
61 27 23 16 47 35 54 43 7 8 13 25 13 38 0 14 -9 26 -23 33 -18 8 -33 7 -62
-5 -20 -9 -46 -16 -56 -16 -12 0 -26 15 -39 40 -11 22 -26 40 -33 40 -6 0 -25
7 -41 15 -18 10 -41 13 -58 10 -15 -4 -30 -11 -34 -16 -3 -6 13 -30 35 -54 25
-28 41 -54 41 -70 0 -19 -11 -32 -47 -55 -37 -23 -56 -30 -81 -26 -19 3 -42 0
-53 -7 -10 -6 -19 -17 -19 -24 0 -6 12 -21 26 -32 15 -12 39 -21 54 -21 15 0
44 7 63 15 20 8 43 15 51 15 9 0 19 -15 24 -34 7 -23 6 -49 -3 -84 -8 -28 -18
-60 -24 -71 -6 -11 -11 -30 -11 -43 0 -13 -5 -29 -12 -36 -7 -7 -22 -12 -34
-12 -13 0 -25 -4 -28 -9 -3 -4 -19 -11 -34 -14 -24 -5 -35 -18 -62 -71 -27
-54 -31 -72 -25 -103 4 -21 15 -56 25 -78 10 -22 21 -50 24 -62 4 -11 13 -26
20 -32 7 -6 21 -9 29 -5 9 3 45 45 81 92 36 48 77 100 91 115 20 22 29 26 43
18 10 -5 35 -28 55 -51 21 -22 37 -44 37 -49 0 -5 7 -11 15 -15 8 -3 26 5 39
17 20 18 26 38 35 111 6 49 15 94 21 101 9 10 28 5 93 -27 45 -22 90 -47 100
-55 9 -9 17 -24 17 -33 0 -9 -10 -22 -22 -28 -13 -6 -50 -13 -82 -16 -32 -3
-64 -10 -69 -15 -8 -8 -6 -16 5 -28 9 -9 34 -19 55 -22 21 -4 59 -3 86 1 28 4
65 20 91 38 33 24 50 30 68 25 12 -4 64 -27 113 -53 50 -25 102 -51 117 -59
16 -8 37 -12 48 -8 11 4 26 18 34 33 12 23 12 31 0 54 -8 16 -18 28 -22 28 -4
0 -24 15 -44 34 -29 28 -46 35 -96 41 -33 4 -69 13 -79 20 -15 11 -16 17 -5
36 6 13 19 44 27 68 8 24 15 64 15 90 0 25 -6 75 -14 111 -8 36 -26 89 -41
117 -23 48 -30 54 -71 64 -25 7 -48 18 -51 26 -3 7 2 22 10 31 9 10 23 34 32
55 8 20 15 49 15 65 0 16 -9 41 -21 56 -17 22 -28 26 -70 26z m-44 -60 c7 0
18 -12 23 -27 6 -19 5 -46 -4 -83 -7 -30 -21 -80 -31 -110 -14 -42 -16 -64 -9
-92 6 -23 16 -38 25 -38 8 0 26 14 40 31 17 20 32 28 42 24 9 -3 26 -32 39
-63 20 -48 24 -72 22 -152 -1 -52 -6 -108 -10 -125 -5 -16 -13 -29 -18 -28 -5
1 -25 7 -44 14 -19 6 -42 15 -50 20 -8 5 -39 22 -68 40 -40 23 -60 29 -80 25
-15 -4 -36 -8 -47 -9 -15 -2 -20 4 -19 23 1 14 7 54 13 90 6 36 14 88 19 115
5 28 13 61 19 75 6 14 19 52 29 85 9 33 24 74 32 90 8 17 25 45 39 63 13 17
30 32 38 32z"/>
<path d="M908 130 c-13 0 -29 -5 -36 -12 -7 -7 -12 -16 -12 -20 0 -4 22 -8 49
-8 28 0 52 4 56 9 3 6 -3 15 -14 20 -11 6 -30 11 -43 11z"/>
</g>
</svg>
