<?xml version="1.0" standalone="no"?>
<!DOCTYPE svg PUBLIC "-//W3C//DTD SVG 20010904//EN"
 "http://www.w3.org/TR/2001/REC-SVG-20010904/DTD/svg10.dtd">
<svg version="1.0" xmlns="http://www.w3.org/2000/svg"
 width="128.000000pt" height="128.000000pt" viewBox="0 0 128.000000 128.000000"
 preserveAspectRatio="xMidYMid meet">
<metadata>
Created by potrace 1.16, written by Peter Selinger 2001-2019
</metadata>
<g transform="translate(0.000000,128.000000) scale(0.100000,-0.100000)"
fill="#000000" stroke="none">
<path d="M980 1257 c-91 2 -108 0 -127 -16 -13 -11 -23 -24 -23 -29 0 -5 12
-17 26 -27 21 -14 25 -22 21 -48 -3 -18 -10 -51 -15 -74 -5 -24 -26 -63 -46
-87 -20 -25 -43 -61 -51 -80 -13 -30 -13 -39 0 -70 9 -20 19 -36 23 -36 5 0
41 11 81 25 54 18 78 22 92 14 10 -5 21 -20 23 -32 3 -12 8 -53 11 -92 4 -38
6 -83 6 -100 -1 -16 -9 -41 -19 -55 -10 -14 -23 -44 -30 -66 -7 -23 -19 -47
-27 -54 -13 -11 -24 -11 -58 0 -23 7 -51 16 -62 22 -11 5 -52 8 -90 6 -39 -2
-70 -7 -69 -13 0 -5 11 -15 25 -22 13 -6 42 -16 64 -22 22 -6 49 -17 60 -26
20 -15 20 -15 -7 -38 -15 -12 -49 -30 -75 -39 -38 -13 -67 -16 -141 -11 -51 3
-95 9 -97 13 -3 5 2 21 10 36 8 16 15 36 15 44 0 8 8 38 18 65 11 28 36 85 56
127 21 42 43 82 51 88 7 6 16 22 19 36 4 14 18 43 31 65 14 21 25 50 25 64 0
15 5 36 12 48 7 12 13 55 15 95 2 64 0 72 -12 62 -9 -7 -23 -38 -31 -69 -9
-31 -37 -96 -62 -146 -24 -49 -51 -103 -58 -118 -8 -16 -14 -34 -14 -41 0 -7
-15 -29 -34 -49 -18 -20 -38 -37 -44 -37 -5 0 -15 7 -22 16 -8 8 -29 22 -48
30 -19 8 -43 14 -53 14 -10 0 -21 4 -24 10 -3 5 6 38 20 73 14 35 25 68 25 74
0 5 11 22 25 37 14 15 35 26 50 26 15 0 39 6 53 14 15 8 41 19 58 26 18 6 41
20 53 31 12 12 18 26 14 37 -3 9 -13 23 -21 30 -9 6 -26 12 -39 12 -13 0 -38
-7 -54 -16 -28 -14 -33 -14 -55 1 -15 10 -24 25 -24 42 0 15 -10 47 -21 71
-22 45 -22 45 -83 39 -40 -4 -71 -1 -94 8 -28 12 -34 12 -38 0 -3 -8 -3 -18 0
-23 3 -5 30 -21 60 -35 30 -15 60 -35 65 -46 6 -11 11 -42 11 -68 0 -27 -6
-57 -13 -67 -8 -10 -36 -23 -63 -29 -27 -6 -82 -10 -122 -10 -63 1 -72 -1 -72
-17 0 -11 15 -25 38 -36 20 -10 59 -23 86 -29 27 -6 54 -18 59 -27 6 -8 7 -26
4 -40 -4 -13 -18 -41 -32 -62 -14 -20 -25 -43 -25 -51 0 -8 -21 -65 -46 -127
-25 -62 -63 -150 -86 -195 -35 -71 -39 -85 -30 -111 5 -16 22 -48 36 -71 14
-22 33 -41 41 -41 9 0 20 11 25 25 5 13 9 44 9 67 -1 24 9 72 21 108 11 36 33
94 47 130 13 36 36 89 49 118 19 40 30 52 47 52 15 0 36 -17 65 -54 23 -30 42
-59 42 -65 0 -5 -6 -14 -14 -18 -7 -4 -23 -28 -36 -52 -12 -25 -23 -67 -25
-99 -2 -31 1 -67 6 -79 5 -13 16 -26 24 -29 8 -4 26 -3 40 0 16 4 30 19 40 42
15 35 15 35 72 29 32 -4 76 -11 98 -16 22 -5 56 -9 76 -9 23 0 42 7 54 20 10
11 29 20 42 20 12 0 44 13 70 29 36 22 51 27 65 20 10 -5 18 -14 18 -20 0 -5
11 -14 25 -19 14 -5 25 -14 25 -20 0 -5 28 -40 61 -77 34 -38 69 -79 77 -93 9
-14 22 -31 31 -37 8 -7 23 -13 33 -13 10 0 24 10 33 23 11 18 12 31 4 61 -6
22 -30 58 -57 86 -26 26 -63 58 -82 71 -19 13 -52 38 -73 54 -28 23 -37 37
-37 60 0 17 9 41 20 55 11 14 20 30 20 37 0 6 9 15 20 18 11 3 23 18 26 33 4
15 14 35 23 46 12 14 16 38 16 100 -1 68 -5 88 -27 128 -14 26 -35 58 -45 72
-11 13 -37 31 -57 40 -30 13 -37 20 -31 33 4 10 14 41 22 68 10 34 13 75 9
125 -3 41 -2 80 2 87 5 8 17 8 47 -3 22 -8 46 -12 53 -9 7 3 12 15 10 27 -3
22 -7 23 -108 25z"/>
<path d="M1270 620 c-5 0 -10 -10 -10 -22 0 -12 -11 -38 -25 -57 -15 -22 -25
-53 -27 -81 -2 -34 1 -45 13 -48 11 -2 20 7 27 27 6 17 16 31 21 31 7 0 11 29
11 75 0 43 -4 75 -10 75z"/>
</g>
</svg>
