<?xml version="1.0" standalone="no"?>
<!DOCTYPE svg PUBLIC "-//W3C//DTD SVG 20010904//EN"
 "http://www.w3.org/TR/2001/REC-SVG-20010904/DTD/svg10.dtd">
<svg version="1.0" xmlns="http://www.w3.org/2000/svg"
 width="128.000000pt" height="128.000000pt" viewBox="0 0 128.000000 128.000000"
 preserveAspectRatio="xMidYMid meet">
<metadata>
Created by potrace 1.16, written by Peter Selinger 2001-2019
</metadata>
<g transform="translate(0.000000,128.000000) scale(0.100000,-0.100000)"
fill="#000000" stroke="none">
<path d="M716 1260 c-17 0 -42 -7 -54 -16 -22 -15 -22 -15 12 -47 30 -28 35
-41 41 -100 4 -36 5 -73 2 -81 -4 -9 -22 -22 -41 -30 -19 -8 -42 -26 -51 -40
-10 -14 -26 -26 -36 -26 -10 0 -34 -8 -54 -17 -19 -9 -38 -13 -42 -9 -5 4 -9
29 -10 54 -2 26 -3 62 -2 80 0 26 -6 35 -28 44 -15 7 -34 21 -41 31 -10 12
-24 17 -45 15 -21 -2 -33 -9 -35 -20 -2 -11 5 -21 20 -27 13 -5 31 -18 42 -30
12 -13 16 -29 13 -43 -3 -13 -12 -48 -20 -78 -7 -30 -25 -78 -40 -106 -24 -47
-25 -53 -11 -73 8 -11 25 -21 37 -21 13 0 37 14 55 30 18 17 41 30 49 30 9 0
31 15 48 33 18 17 49 44 70 60 21 15 46 27 57 27 10 0 18 -6 18 -13 0 -8 -11
-24 -25 -37 -14 -13 -25 -29 -25 -36 0 -7 -16 -22 -36 -34 -19 -12 -42 -33
-51 -47 -9 -13 -38 -35 -64 -48 -26 -14 -57 -38 -69 -55 -12 -16 -27 -30 -34
-30 -7 0 -23 -11 -36 -25 -13 -14 -29 -25 -36 -25 -6 0 -17 -7 -24 -15 -7 -8
-25 -15 -40 -15 -19 0 -36 -9 -49 -26 -12 -15 -21 -38 -21 -53 0 -14 4 -31 8
-37 4 -6 14 -13 22 -16 8 -3 23 2 33 10 13 12 20 13 29 4 7 -7 22 -12 34 -12
12 0 25 7 28 16 3 9 4 20 0 25 -3 5 -11 9 -18 9 -6 0 -17 5 -24 12 -9 9 -8 16
5 30 9 10 20 18 25 18 4 0 8 -7 8 -15 0 -9 12 -20 26 -25 14 -6 38 -10 53 -10
16 0 40 9 54 20 14 11 32 20 40 20 9 0 18 4 22 9 3 5 20 13 38 17 17 3 51 16
74 27 34 17 45 18 57 8 13 -11 15 -44 13 -217 -2 -165 0 -204 10 -204 10 0 11
-5 3 -19 -5 -11 -10 -27 -10 -35 0 -12 10 -16 40 -16 28 0 40 4 40 15 0 8 -10
20 -22 26 -22 12 -22 12 -3 19 16 6 21 18 23 56 1 27 2 81 1 119 -2 39 -2 108
-1 155 1 47 1 101 2 120 0 19 3 40 8 46 4 5 23 20 43 32 20 12 50 22 66 22 17
0 48 -7 69 -16 22 -8 54 -22 72 -30 31 -14 35 -14 53 2 10 9 19 21 19 27 0 5
-9 21 -19 36 -12 16 -37 33 -62 40 -23 7 -58 23 -78 35 -20 13 -47 27 -61 31
-13 4 -37 17 -52 28 -16 12 -28 29 -28 39 0 10 18 29 43 44 23 15 59 40 80 56
20 16 37 37 37 45 0 8 -18 33 -40 54 -33 33 -44 38 -60 29 -10 -5 -26 -10 -36
-10 -12 0 -15 6 -11 23 3 12 8 32 12 44 5 16 -3 32 -35 67 -33 36 -49 46 -74
46z m72 -470 c10 0 30 -13 45 -28 15 -15 27 -34 27 -40 0 -7 -16 -20 -36 -29
-31 -15 -36 -15 -44 -3 -6 8 -10 34 -10 58 0 34 3 42 18 42z m-112 -30 c7 0
15 -3 17 -7 3 -5 12 -31 20 -60 16 -52 16 -52 -41 -68 -31 -10 -93 -34 -137
-55 -44 -21 -92 -42 -106 -45 -15 -4 -29 -2 -33 3 -3 5 17 23 45 41 28 17 55
31 60 31 5 0 9 14 9 30 0 17 5 30 10 30 6 0 26 16 46 35 19 19 43 35 53 35 10
0 24 7 31 15 7 8 18 15 26 15z"/>
<path d="M687 28 c-10 2 -17 -3 -17 -12 0 -10 9 -16 21 -16 12 0 19 5 17 13
-3 6 -12 13 -21 15z"/>
</g>
</svg>
