<?xml version="1.0" standalone="no"?>
<!DOCTYPE svg PUBLIC "-//W3C//DTD SVG 20010904//EN"
 "http://www.w3.org/TR/2001/REC-SVG-20010904/DTD/svg10.dtd">
<svg version="1.0" xmlns="http://www.w3.org/2000/svg"
 width="128.000000pt" height="128.000000pt" viewBox="0 0 128.000000 128.000000"
 preserveAspectRatio="xMidYMid meet">
<metadata>
Created by potrace 1.16, written by Peter Selinger 2001-2019
</metadata>
<g transform="translate(0.000000,128.000000) scale(0.100000,-0.100000)"
fill="#000000" stroke="none">
<path d="M726 1280 c-9 0 -16 -4 -16 -10 0 -5 -11 -10 -25 -10 -14 0 -28 -7
-32 -16 -3 -9 4 -26 18 -40 13 -14 39 -32 57 -39 17 -8 32 -20 32 -28 0 -7 -6
-20 -12 -29 -7 -8 -28 -21 -47 -27 -19 -6 -46 -11 -60 -11 -15 0 -32 5 -39 12
-7 7 -12 19 -12 28 0 8 -11 32 -25 53 -22 32 -31 37 -63 37 -20 0 -45 -7 -54
-14 -10 -7 -18 -17 -18 -22 0 -5 14 -21 30 -36 17 -14 30 -33 30 -41 0 -8 -14
-27 -31 -41 -17 -14 -34 -26 -39 -26 -5 0 -21 5 -35 10 -19 7 -47 7 -91 -1
-35 -6 -64 -15 -64 -20 0 -5 17 -16 37 -24 21 -9 46 -23 56 -32 15 -15 24 -15
63 -5 24 7 55 12 68 12 13 0 29 -7 36 -15 11 -13 11 -35 0 -116 -12 -95 -14
-100 -42 -115 -23 -12 -33 -13 -44 -3 -9 8 -32 10 -65 6 -28 -4 -57 -12 -65
-18 -8 -7 -14 -30 -14 -55 0 -24 -14 -85 -30 -135 -17 -51 -29 -98 -26 -106 3
-7 16 -13 30 -13 15 0 33 11 45 26 12 15 21 40 21 57 0 20 10 41 27 59 21 22
24 30 14 42 -11 13 -8 21 18 46 29 30 33 31 91 24 36 -4 65 -3 72 4 7 5 63 11
123 12 61 2 116 2 123 1 6 0 12 -10 12 -21 0 -11 -12 -26 -28 -34 -17 -9 -70
-16 -138 -19 -61 -2 -120 -10 -132 -16 -12 -6 -22 -18 -22 -26 0 -7 13 -23 30
-35 25 -18 32 -19 49 -8 16 9 23 10 32 1 6 -6 9 -18 6 -26 -3 -8 -33 -30 -67
-48 -34 -18 -65 -40 -71 -50 -7 -13 -3 -25 14 -45 24 -27 24 -27 96 -10 41 9
82 16 92 16 16 0 19 -8 19 -60 0 -53 -3 -61 -26 -76 -21 -15 -31 -15 -58 -6
-18 7 -54 12 -80 12 -33 0 -48 -4 -53 -16 -3 -9 3 -24 14 -35 15 -15 36 -20
98 -22 69 -3 79 -6 86 -25 6 -15 2 -28 -11 -44 -17 -22 -25 -23 -152 -24 -95
0 -133 -4 -132 -12 1 -7 2 -17 3 -23 1 -7 39 -9 124 -5 67 3 146 8 175 12 28
3 52 10 52 15 0 5 8 9 18 9 10 0 23 -5 29 -11 8 -8 17 -8 31 0 14 7 23 8 27 1
3 -5 25 -10 48 -10 23 0 60 5 82 11 22 6 46 16 53 22 10 8 8 15 -9 33 -11 12
-18 27 -14 33 4 7 -4 11 -19 11 -13 0 -37 5 -53 11 -27 10 -27 11 -8 24 11 8
25 19 32 25 7 5 10 17 7 25 -4 8 -21 22 -40 31 -19 9 -44 14 -56 11 -12 -4
-41 -3 -64 0 -42 5 -42 6 -37 42 3 20 10 46 14 58 5 13 22 26 44 32 20 5 43 7
51 4 8 -3 21 -20 29 -38 13 -33 14 -33 54 -23 27 7 41 16 41 27 0 9 -18 53
-41 97 -33 67 -39 86 -30 102 6 11 39 38 73 60 35 23 73 48 86 57 12 9 22 26
22 40 0 14 -9 34 -21 46 -17 17 -29 20 -62 15 -23 -3 -51 -6 -62 -7 -11 0 -37
-5 -58 -11 -25 -8 -41 -8 -47 -2 -6 6 -12 59 -14 119 -3 66 0 117 6 130 6 11
16 23 21 27 6 4 32 4 57 1 42 -5 49 -3 68 21 11 15 19 33 16 40 -3 7 -19 23
-36 36 -19 14 -47 24 -67 24 -33 1 -36 4 -41 36 -4 20 -10 41 -14 48 -4 7 -16
12 -26 12 -10 0 -25 7 -34 15 -8 8 -22 15 -30 15z m-31 -284 c30 -1 41 -5 43
-19 2 -10 -2 -24 -8 -32 -9 -11 -34 -15 -86 -15 -74 0 -74 0 -74 29 0 28 3 30
43 34 23 2 60 4 82 3z m-31 -112 c13 -9 26 -10 43 -3 21 8 24 6 21 -8 -2 -12
-13 -19 -35 -20 -17 0 -40 -6 -50 -11 -11 -7 -24 -7 -35 -1 -10 5 -18 16 -18
24 0 7 12 18 28 23 19 6 32 5 46 -4z m35 -67 c13 -1 29 -10 34 -19 8 -12 7
-24 -1 -42 -11 -24 -16 -26 -77 -26 -60 0 -66 2 -77 25 -7 16 -8 29 -2 34 5 5
29 14 54 19 25 6 56 10 69 9z m214 -118 c4 1 10 -5 13 -13 3 -8 -6 -33 -20
-55 -15 -23 -32 -41 -39 -41 -8 0 -23 11 -35 25 -12 14 -22 32 -22 39 0 9 20
21 48 29 26 8 51 15 55 16z m-136 -179 c7 0 17 -9 23 -20 6 -12 8 -29 5 -40
-3 -10 -20 -23 -37 -29 -17 -6 -39 -11 -48 -11 -10 0 -23 7 -30 15 -10 12 -10
18 1 32 8 9 28 24 44 35 17 10 35 18 42 18z m43 -360 c19 -3 34 -10 32 -15 -1
-6 -22 -17 -46 -25 -24 -8 -53 -23 -64 -33 -12 -11 -26 -16 -31 -12 -6 3 -8
18 -5 33 4 15 11 32 16 39 5 6 22 13 36 15 15 2 43 1 62 -2z"/>
</g>
</svg>
