<?xml version="1.0" standalone="no"?>
<!DOCTYPE svg PUBLIC "-//W3C//DTD SVG 20010904//EN"
 "http://www.w3.org/TR/2001/REC-SVG-20010904/DTD/svg10.dtd">
<svg version="1.0" xmlns="http://www.w3.org/2000/svg"
 width="56.000000pt" height="56.000000pt" viewBox="0 0 56.000000 56.000000"
 preserveAspectRatio="xMidYMid meet">
<metadata>
Created by potrace 1.16, written by Peter Selinger 2001-2019
</metadata>
<g transform="translate(0.000000,56.000000) scale(0.100000,-0.100000)"
fill="#000000" stroke="none">
<path d="M345 560 c-25 0 -35 -4 -35 -16 0 -8 -14 -36 -32 -62 -17 -26 -44
-63 -59 -82 -15 -19 -32 -52 -38 -74 -10 -37 -8 -41 49 -127 32 -49 61 -102
65 -119 4 -19 2 -36 -5 -45 -7 -8 -18 -15 -26 -15 -7 0 -16 -4 -19 -10 -4 -6
11 -10 37 -10 25 0 52 6 62 13 17 13 18 18 6 68 -7 30 -31 81 -53 114 -22 33
-49 70 -59 82 -20 21 -20 21 31 97 28 41 64 98 81 126 16 28 30 53 30 55 0 3
-16 5 -35 5z"/>
</g>
</svg>
