<?xml version="1.0" standalone="no"?>
<!DOCTYPE svg PUBLIC "-//W3C//DTD SVG 20010904//EN"
 "http://www.w3.org/TR/2001/REC-SVG-20010904/DTD/svg10.dtd">
<svg version="1.0" xmlns="http://www.w3.org/2000/svg"
 width="56.000000pt" height="56.000000pt" viewBox="0 0 56.000000 56.000000"
 preserveAspectRatio="xMidYMid meet">
<metadata>
Created by potrace 1.16, written by Peter Selinger 2001-2019
</metadata>
<g transform="translate(0.000000,56.000000) scale(0.100000,-0.100000)"
fill="#000000" stroke="none">
<path d="M405 560 c-19 0 -35 -4 -35 -8 0 -4 5 -13 10 -18 8 -8 -1 -20 -27
-40 -21 -15 -74 -63 -119 -107 -44 -43 -91 -85 -102 -93 -12 -8 -22 -24 -22
-35 0 -11 6 -22 13 -24 6 -3 41 -41 77 -85 36 -44 70 -80 75 -80 6 0 17 -15
26 -33 13 -27 22 -32 57 -35 30 -2 42 1 42 10 0 7 -31 45 -68 83 -37 39 -81
88 -98 110 -23 29 -29 45 -24 60 4 11 58 67 119 125 97 92 111 109 111 138 0
30 -2 32 -35 32z"/>
</g>
</svg>
