<?xml version="1.0" standalone="no"?>
<!DOCTYPE svg PUBLIC "-//W3C//DTD SVG 20010904//EN"
 "http://www.w3.org/TR/2001/REC-SVG-20010904/DTD/svg10.dtd">
<svg version="1.0" xmlns="http://www.w3.org/2000/svg"
 width="56.000000pt" height="56.000000pt" viewBox="0 0 56.000000 56.000000"
 preserveAspectRatio="xMidYMid meet">
<metadata>
Created by potrace 1.16, written by Peter Selinger 2001-2019
</metadata>
<g transform="translate(0.000000,56.000000) scale(0.100000,-0.100000)"
fill="#000000" stroke="none">
<path d="M95 560 c-22 0 -25 -4 -25 -40 0 -23 5 -40 11 -40 7 0 18 8 25 18 7
9 14 27 14 40 0 17 -6 22 -25 22z"/>
<path d="M233 560 c-8 0 -12 -11 -11 -27 1 -16 7 -35 13 -43 7 -8 15 -27 19
-41 3 -16 -2 -52 -13 -87 -11 -33 -32 -79 -46 -103 -15 -23 -40 -67 -56 -98
-16 -30 -29 -70 -29 -89 0 -18 6 -35 13 -37 7 -3 50 1 97 9 56 10 88 12 95 5
6 -6 5 -16 -3 -29 -11 -18 -10 -20 18 -20 21 0 30 5 30 16 0 12 6 15 23 10 19
-4 26 0 35 20 7 14 12 30 12 37 0 7 -8 17 -17 23 -10 6 -42 17 -71 24 -41 9
-59 10 -82 0 -16 -7 -34 -9 -40 -5 -7 4 -9 18 -5 32 3 13 21 48 40 76 19 29
39 76 46 106 6 30 9 73 6 96 -2 25 -16 60 -33 84 -16 22 -35 41 -41 41z"/>
<path d="M344 560 c-13 0 -24 -4 -24 -9 0 -4 25 -25 55 -45 30 -20 61 -36 69
-36 9 0 20 8 25 18 5 9 7 30 4 45 -3 15 -12 27 -19 27 -8 0 -14 -4 -14 -10 0
-5 -13 -10 -29 -10 -17 0 -33 5 -36 10 -3 6 -17 10 -31 10z"/>
</g>
</svg>
