<?xml version="1.0" standalone="no"?>
<!DOCTYPE svg PUBLIC "-//W3C//DTD SVG 20010904//EN"
 "http://www.w3.org/TR/2001/REC-SVG-20010904/DTD/svg10.dtd">
<svg version="1.0" xmlns="http://www.w3.org/2000/svg"
 width="56.000000pt" height="56.000000pt" viewBox="0 0 56.000000 56.000000"
 preserveAspectRatio="xMidYMid meet">
<metadata>
Created by potrace 1.16, written by Peter Selinger 2001-2019
</metadata>
<g transform="translate(0.000000,56.000000) scale(0.100000,-0.100000)"
fill="#000000" stroke="none">
<path d="M295 560 c-24 0 -25 -2 -25 -63 0 -43 -6 -77 -20 -105 -11 -22 -20
-45 -20 -50 0 -4 -13 -21 -30 -37 -16 -16 -30 -35 -30 -42 0 -7 6 -23 13 -36
6 -12 26 -38 42 -58 17 -20 48 -67 70 -103 25 -42 46 -66 58 -66 10 0 20 6 23
14 3 7 -4 34 -16 60 -12 25 -39 61 -60 80 -22 19 -46 49 -55 66 -15 29 -15 33
3 63 11 18 31 54 46 80 21 39 26 61 26 122 0 73 -1 75 -25 75z"/>
<path d="M225 20 c-8 0 -17 -4 -20 -10 -4 -6 5 -10 20 -10 15 0 24 4 20 10 -3
5 -12 10 -20 10z"/>
</g>
</svg>
