<?xml version="1.0" standalone="no"?>
<!DOCTYPE svg PUBLIC "-//W3C//DTD SVG 20010904//EN"
 "http://www.w3.org/TR/2001/REC-SVG-20010904/DTD/svg10.dtd">
<svg version="1.0" xmlns="http://www.w3.org/2000/svg"
 width="56.000000pt" height="56.000000pt" viewBox="0 0 56.000000 56.000000"
 preserveAspectRatio="xMidYMid meet">
<metadata>
Created by potrace 1.16, written by Peter Selinger 2001-2019
</metadata>
<g transform="translate(0.000000,56.000000) scale(0.100000,-0.100000)"
fill="#000000" stroke="none">
<path d="M360 560 c-11 0 -20 -4 -20 -10 0 -5 -26 -40 -57 -77 -32 -38 -70
-81 -85 -97 -16 -16 -28 -39 -28 -51 0 -13 18 -45 41 -71 22 -27 50 -69 61
-94 10 -24 20 -63 20 -85 1 -22 8 -48 16 -57 8 -10 23 -18 34 -18 13 0 18 8
18 30 0 17 -9 60 -21 96 -12 35 -36 86 -55 112 -19 26 -39 57 -45 69 -10 19
-6 28 36 75 26 29 60 72 76 95 16 23 29 51 29 62 0 14 -6 21 -20 21z"/>
</g>
</svg>
