<?xml version="1.0" standalone="no"?>
<!DOCTYPE svg PUBLIC "-//W3C//DTD SVG 20010904//EN"
 "http://www.w3.org/TR/2001/REC-SVG-20010904/DTD/svg10.dtd">
<svg version="1.0" xmlns="http://www.w3.org/2000/svg"
 width="56.000000pt" height="56.000000pt" viewBox="0 0 56.000000 56.000000"
 preserveAspectRatio="xMidYMid meet">
<metadata>
Created by potrace 1.16, written by Peter Selinger 2001-2019
</metadata>
<g transform="translate(0.000000,56.000000) scale(0.100000,-0.100000)"
fill="#000000" stroke="none">
<path d="M305 560 c-8 0 -15 -6 -15 -14 0 -8 5 -18 10 -21 6 -3 10 -19 10 -34
0 -15 -9 -36 -20 -46 -11 -10 -20 -23 -20 -29 -1 -6 -19 -29 -40 -51 -22 -22
-40 -43 -40 -47 0 -3 -15 -16 -34 -27 -26 -17 -35 -30 -40 -62 -5 -32 -3 -46
10 -60 10 -11 25 -19 36 -19 10 0 26 -4 36 -9 9 -6 31 -13 47 -16 18 -4 53
-30 88 -66 32 -32 67 -59 77 -59 12 0 20 7 20 17 0 9 -24 40 -53 67 -28 28
-72 61 -97 72 -25 12 -60 27 -78 34 -18 7 -35 17 -38 22 -3 5 6 24 21 44 14
19 47 56 71 82 25 26 59 66 75 89 16 23 29 54 29 70 0 16 -9 36 -20 46 -11 9
-27 17 -35 17z"/>
</g>
</svg>
