<?xml version="1.0" standalone="no"?>
<!DOCTYPE svg PUBLIC "-//W3C//DTD SVG 20010904//EN"
 "http://www.w3.org/TR/2001/REC-SVG-20010904/DTD/svg10.dtd">
<svg version="1.0" xmlns="http://www.w3.org/2000/svg"
 width="56.000000pt" height="56.000000pt" viewBox="0 0 56.000000 56.000000"
 preserveAspectRatio="xMidYMid meet">
<metadata>
Created by potrace 1.16, written by Peter Selinger 2001-2019
</metadata>
<g transform="translate(0.000000,56.000000) scale(0.100000,-0.100000)"
fill="#000000" stroke="none">
<path d="M125 560 c-32 0 -45 -4 -45 -14 0 -8 7 -16 15 -20 8 -3 15 -12 15
-19 0 -8 -9 -25 -20 -37 -12 -13 -20 -33 -18 -45 2 -15 10 -20 33 -20 27 0 30
3 30 30 1 17 4 39 9 50 4 11 12 30 17 43 5 13 9 25 9 27 0 3 -20 5 -45 5z"/>
<path d="M350 560 c-26 0 -30 -4 -30 -27 -1 -16 -3 -51 -6 -80 -5 -43 -2 -57
16 -82 18 -23 21 -37 16 -64 -3 -19 -15 -42 -25 -51 -10 -9 -26 -37 -36 -61
-9 -25 -23 -45 -30 -45 -8 0 -22 -12 -32 -26 -10 -14 -29 -36 -41 -47 -13 -12
-33 -34 -44 -49 -19 -28 -19 -28 16 -28 31 0 40 6 67 43 16 23 38 52 47 65 9
12 27 22 39 22 12 0 30 12 42 29 21 29 21 29 1 34 -11 3 -20 13 -20 22 0 13 8
16 37 13 34 -3 37 -1 46 32 5 19 13 40 18 47 6 6 11 35 12 65 2 45 -3 60 -30
101 -18 26 -33 57 -33 68 0 14 -7 19 -30 19z"/>
</g>
</svg>
