<?xml version="1.0" standalone="no"?>
<!DOCTYPE svg PUBLIC "-//W3C//DTD SVG 20010904//EN"
 "http://www.w3.org/TR/2001/REC-SVG-20010904/DTD/svg10.dtd">
<svg version="1.0" xmlns="http://www.w3.org/2000/svg"
 width="56.000000pt" height="56.000000pt" viewBox="0 0 56.000000 56.000000"
 preserveAspectRatio="xMidYMid meet">
<metadata>
Created by potrace 1.16, written by Peter Selinger 2001-2019
</metadata>
<g transform="translate(0.000000,56.000000) scale(0.100000,-0.100000)"
fill="#000000" stroke="none">
<path d="M314 560 c-19 0 -34 -5 -34 -12 0 -6 7 -19 15 -28 13 -14 13 -21 2
-46 -7 -16 -22 -44 -32 -61 -11 -18 -23 -33 -27 -33 -5 0 -8 -11 -8 -25 0 -14
6 -25 13 -25 7 0 31 21 52 47 22 26 45 56 52 67 7 12 12 35 13 53 0 17 -3 38
-6 47 -4 10 -18 16 -40 16z"/>
<path d="M213 330 c-5 0 -25 -18 -45 -40 -21 -22 -38 -44 -38 -49 0 -5 -3 -16
-6 -25 -3 -9 10 -32 36 -60 24 -25 49 -46 56 -46 7 0 35 -14 61 -30 26 -17 53
-30 60 -30 7 0 15 -11 19 -25 5 -19 13 -25 34 -25 15 0 30 6 33 14 3 8 3 24 0
35 -3 12 -18 28 -34 36 -15 8 -34 15 -41 15 -7 0 -40 14 -74 30 -34 17 -71 40
-83 52 -17 15 -21 27 -16 47 4 14 15 35 26 47 10 11 19 28 19 37 0 9 -3 17 -7
17z"/>
</g>
</svg>
