<?xml version="1.0" standalone="no"?>
<!DOCTYPE svg PUBLIC "-//W3C//DTD SVG 20010904//EN"
 "http://www.w3.org/TR/2001/REC-SVG-20010904/DTD/svg10.dtd">
<svg version="1.0" xmlns="http://www.w3.org/2000/svg"
 width="56.000000pt" height="56.000000pt" viewBox="0 0 56.000000 56.000000"
 preserveAspectRatio="xMidYMid meet">
<metadata>
Created by potrace 1.16, written by Peter Selinger 2001-2019
</metadata>
<g transform="translate(0.000000,56.000000) scale(0.100000,-0.100000)"
fill="#000000" stroke="none">
<path d="M285 560 c-19 0 -35 -3 -35 -7 0 -4 12 -17 27 -29 20 -16 24 -25 18
-40 -4 -10 -7 -25 -6 -31 1 -7 -5 -13 -14 -13 -8 0 -19 -10 -24 -23 -5 -13
-21 -31 -36 -41 -14 -9 -31 -29 -37 -44 -6 -15 -10 -36 -9 -47 2 -11 10 -28
18 -37 9 -10 22 -18 30 -18 7 0 13 -11 13 -24 0 -17 10 -31 29 -42 17 -10 28
-21 25 -26 -3 -4 5 -21 17 -37 12 -16 18 -34 15 -40 -5 -7 -15 -6 -32 6 -18
12 -28 13 -36 5 -8 -8 -6 -13 8 -18 10 -4 36 -18 56 -31 21 -13 44 -23 53 -23
11 0 15 11 15 44 0 25 -4 48 -10 51 -5 3 -10 23 -10 44 0 24 -7 44 -18 54 -10
10 -23 17 -29 17 -6 0 -29 21 -53 46 -42 46 -42 46 -15 74 14 15 42 36 60 46
19 10 43 35 55 59 20 38 20 42 5 73 -9 17 -23 32 -31 32 -8 0 -14 5 -14 10 0
6 -16 10 -35 10z"/>
</g>
</svg>
