<?xml version="1.0" standalone="no"?>
<!DOCTYPE svg PUBLIC "-//W3C//DTD SVG 20010904//EN"
 "http://www.w3.org/TR/2001/REC-SVG-20010904/DTD/svg10.dtd">
<svg version="1.0" xmlns="http://www.w3.org/2000/svg"
 width="56.000000pt" height="56.000000pt" viewBox="0 0 56.000000 56.000000"
 preserveAspectRatio="xMidYMid meet">
<metadata>
Created by potrace 1.16, written by Peter Selinger 2001-2019
</metadata>
<g transform="translate(0.000000,56.000000) scale(0.100000,-0.100000)"
fill="#000000" stroke="none">
<path d="M325 560 c-17 0 -25 -5 -25 -18 0 -10 -18 -41 -39 -70 -22 -29 -43
-61 -46 -72 -4 -11 -10 -20 -15 -20 -5 0 -11 -14 -15 -30 -5 -25 1 -42 37 -98
24 -37 49 -80 56 -95 7 -15 12 -44 12 -63 0 -19 7 -49 16 -65 11 -22 21 -29
37 -27 18 2 23 11 25 46 3 34 -6 61 -39 130 -23 48 -52 101 -65 119 -13 17
-24 39 -24 47 0 9 6 26 13 38 6 12 20 29 29 38 9 8 25 31 36 50 10 19 22 47
26 63 6 24 4 27 -19 27z"/>
</g>
</svg>
