<?xml version="1.0" standalone="no"?>
<!DOCTYPE svg PUBLIC "-//W3C//DTD SVG 20010904//EN"
 "http://www.w3.org/TR/2001/REC-SVG-20010904/DTD/svg10.dtd">
<svg version="1.0" xmlns="http://www.w3.org/2000/svg"
 width="56.000000pt" height="56.000000pt" viewBox="0 0 56.000000 56.000000"
 preserveAspectRatio="xMidYMid meet">
<metadata>
Created by potrace 1.16, written by Peter Selinger 2001-2019
</metadata>
<g transform="translate(0.000000,56.000000) scale(0.100000,-0.100000)"
fill="#000000" stroke="none">
<path d="M229 520 c-7 0 -9 -9 -6 -22 3 -13 9 -40 13 -61 4 -26 1 -52 -11 -85
-11 -26 -39 -67 -64 -92 -25 -25 -70 -72 -99 -104 -35 -39 -52 -66 -50 -80 2
-16 10 -21 33 -20 17 1 46 3 65 3 19 1 71 -2 115 -7 44 -5 94 -15 111 -21 18
-7 71 -11 127 -9 97 3 97 3 60 32 -23 19 -55 33 -87 38 -28 4 -105 10 -170 13
-66 3 -123 8 -128 11 -5 4 3 19 19 36 15 16 63 65 106 108 69 71 77 83 77 118
0 33 -7 47 -49 90 -28 29 -55 52 -62 52z"/>
</g>
</svg>
