<?xml version="1.0" standalone="no"?>
<!DOCTYPE svg PUBLIC "-//W3C//DTD SVG 20010904//EN"
 "http://www.w3.org/TR/2001/REC-SVG-20010904/DTD/svg10.dtd">
<svg version="1.0" xmlns="http://www.w3.org/2000/svg"
 width="56.000000pt" height="56.000000pt" viewBox="0 0 56.000000 56.000000"
 preserveAspectRatio="xMidYMid meet">
<metadata>
Created by potrace 1.16, written by Peter Selinger 2001-2019
</metadata>
<g transform="translate(0.000000,56.000000) scale(0.100000,-0.100000)"
fill="#000000" stroke="none">
<path d="M289 560 c-14 0 -19 -7 -19 -26 0 -14 -5 -35 -11 -47 -6 -12 -42 -53
-79 -92 -37 -38 -71 -80 -75 -93 -4 -13 -1 -29 6 -38 10 -12 30 -14 113 -9 64
5 111 3 129 -4 16 -6 27 -18 27 -29 0 -10 -7 -27 -15 -38 -8 -10 -15 -25 -15
-32 0 -7 -18 -40 -40 -72 -22 -32 -40 -64 -40 -69 0 -6 11 -11 25 -11 14 0 25
3 25 8 0 4 27 41 60 82 52 65 60 81 60 118 0 34 -6 48 -26 67 -15 14 -45 30
-67 36 -23 6 -57 8 -76 5 -20 -4 -51 -9 -68 -12 -21 -4 -33 -2 -33 5 0 6 19
32 42 57 23 25 61 57 85 71 24 14 50 34 58 46 13 18 11 22 -17 48 -16 16 -39
29 -49 29z"/>
</g>
</svg>
