<?xml version="1.0" standalone="no"?>
<!DOCTYPE svg PUBLIC "-//W3C//DTD SVG 20010904//EN"
 "http://www.w3.org/TR/2001/REC-SVG-20010904/DTD/svg10.dtd">
<svg version="1.0" xmlns="http://www.w3.org/2000/svg"
 width="56.000000pt" height="56.000000pt" viewBox="0 0 56.000000 56.000000"
 preserveAspectRatio="xMidYMid meet">
<metadata>
Created by potrace 1.16, written by Peter Selinger 2001-2019
</metadata>
<g transform="translate(0.000000,56.000000) scale(0.100000,-0.100000)"
fill="#000000" stroke="none">
<path d="M400 560 c-47 0 -50 -2 -50 -25 0 -14 -3 -25 -8 -25 -4 0 -25 -17
-48 -37 -22 -21 -62 -56 -90 -77 -27 -22 -59 -52 -72 -67 -12 -15 -19 -34 -16
-42 3 -9 13 -18 21 -21 10 -4 29 7 53 31 20 21 64 61 98 88 33 28 63 57 67 67
3 9 16 19 28 22 12 3 29 11 38 18 9 7 19 25 23 41 6 27 6 27 -44 27z"/>
<path d="M179 243 c-8 3 -23 1 -32 -4 -15 -9 -14 -14 7 -57 14 -26 29 -58 34
-72 5 -14 18 -44 27 -67 16 -39 21 -43 53 -43 34 0 34 0 18 25 -9 13 -16 33
-16 44 0 11 -11 33 -25 49 -14 17 -25 43 -25 59 0 16 -6 36 -12 45 -7 8 -20
18 -29 21z"/>
</g>
</svg>
