<?xml version="1.0" standalone="no"?>
<!DOCTYPE svg PUBLIC "-//W3C//DTD SVG 20010904//EN"
 "http://www.w3.org/TR/2001/REC-SVG-20010904/DTD/svg10.dtd">
<svg version="1.0" xmlns="http://www.w3.org/2000/svg"
 width="56.000000pt" height="56.000000pt" viewBox="0 0 56.000000 56.000000"
 preserveAspectRatio="xMidYMid meet">
<metadata>
Created by potrace 1.16, written by Peter Selinger 2001-2019
</metadata>
<g transform="translate(0.000000,56.000000) scale(0.100000,-0.100000)"
fill="#000000" stroke="none">
<path d="M270 560 c-5 0 -12 -12 -16 -27 -3 -16 -11 -41 -17 -58 -6 -16 -19
-42 -29 -57 -10 -14 -18 -38 -18 -51 0 -14 4 -28 9 -31 5 -4 20 6 33 22 12 15
32 47 42 70 10 23 25 42 32 42 10 0 12 -9 8 -32 -3 -18 -10 -45 -16 -60 -5
-15 -21 -34 -34 -43 -22 -14 -24 -20 -18 -73 4 -37 14 -65 27 -80 18 -20 20
-26 8 -44 -11 -18 -10 -25 9 -50 21 -29 21 -29 0 -58 -21 -30 -21 -30 4 -30
16 0 32 10 45 29 12 16 21 36 21 43 0 8 -9 23 -21 34 -16 14 -19 26 -15 50 5
21 2 35 -9 44 -8 7 -15 24 -15 39 0 14 14 62 30 106 16 44 30 94 30 110 -1 17
-7 38 -14 48 -7 9 -25 17 -40 17 -19 0 -26 5 -26 20 0 11 -4 20 -10 20z"/>
</g>
</svg>
