<?xml version="1.0" standalone="no"?>
<!DOCTYPE svg PUBLIC "-//W3C//DTD SVG 20010904//EN"
 "http://www.w3.org/TR/2001/REC-SVG-20010904/DTD/svg10.dtd">
<svg version="1.0" xmlns="http://www.w3.org/2000/svg"
 width="56.000000pt" height="56.000000pt" viewBox="0 0 56.000000 56.000000"
 preserveAspectRatio="xMidYMid meet">
<metadata>
Created by potrace 1.16, written by Peter Selinger 2001-2019
</metadata>
<g transform="translate(0.000000,56.000000) scale(0.100000,-0.100000)"
fill="#000000" stroke="none">
<path d="M392 560 c-24 0 -42 -5 -45 -13 -3 -7 -28 -24 -56 -38 -28 -13 -54
-32 -57 -41 -3 -10 -20 -25 -38 -33 -17 -8 -40 -28 -49 -44 -9 -16 -17 -43
-17 -60 0 -18 6 -42 14 -54 8 -12 24 -51 36 -86 12 -36 28 -74 36 -85 8 -11
14 -28 14 -38 0 -9 5 -29 12 -43 7 -16 19 -25 35 -25 13 0 26 7 30 16 3 8 -2
34 -12 57 -9 23 -28 65 -40 92 -13 28 -33 72 -44 99 -12 27 -21 58 -21 69 0
12 12 34 27 49 15 15 33 28 40 28 8 0 26 8 41 17 15 9 32 21 37 27 6 6 28 20
50 31 30 15 41 27 43 48 3 25 1 27 -36 27z"/>
</g>
</svg>
