<?xml version="1.0" standalone="no"?>
<!DOCTYPE svg PUBLIC "-//W3C//DTD SVG 20010904//EN"
 "http://www.w3.org/TR/2001/REC-SVG-20010904/DTD/svg10.dtd">
<svg version="1.0" xmlns="http://www.w3.org/2000/svg"
 width="56.000000pt" height="56.000000pt" viewBox="0 0 56.000000 56.000000"
 preserveAspectRatio="xMidYMid meet">
<metadata>
Created by potrace 1.16, written by Peter Selinger 2001-2019
</metadata>
<g transform="translate(0.000000,56.000000) scale(0.100000,-0.100000)"
fill="#000000" stroke="none">
<path d="M172 560 c-28 0 -33 -4 -43 -40 -10 -32 -9 -43 1 -56 10 -11 23 -14
43 -10 17 3 51 16 76 27 25 12 59 27 74 35 27 13 28 13 21 -9 -4 -12 -25 -43
-47 -70 -22 -26 -61 -61 -86 -77 -25 -16 -54 -37 -63 -46 -10 -10 -18 -23 -18
-30 0 -7 22 -34 50 -60 27 -26 50 -51 50 -56 0 -5 11 -24 25 -42 13 -18 34
-53 45 -80 15 -33 27 -46 38 -44 12 2 18 15 20 41 2 26 -3 47 -19 70 -13 17
-47 57 -76 87 -29 30 -53 64 -53 74 0 11 30 48 70 85 38 36 86 88 105 116 19
27 35 58 35 67 0 15 -10 18 -64 18 -35 0 -66 -3 -68 -7 -1 -5 -22 -19 -46 -31
-35 -19 -46 -21 -58 -11 -13 10 -12 14 2 30 16 18 16 19 -14 19z"/>
</g>
</svg>
