<?xml version="1.0" standalone="no"?>
<!DOCTYPE svg PUBLIC "-//W3C//DTD SVG 20010904//EN"
 "http://www.w3.org/TR/2001/REC-SVG-20010904/DTD/svg10.dtd">
<svg version="1.0" xmlns="http://www.w3.org/2000/svg"
 width="56.000000pt" height="56.000000pt" viewBox="0 0 56.000000 56.000000"
 preserveAspectRatio="xMidYMid meet">
<metadata>
Created by potrace 1.16, written by Peter Selinger 2001-2019
</metadata>
<g transform="translate(0.000000,56.000000) scale(0.100000,-0.100000)"
fill="#000000" stroke="none">
<path d="M330 560 c-24 0 -31 -5 -36 -27 -4 -16 -28 -64 -54 -108 -26 -44 -50
-94 -53 -111 -4 -21 0 -39 14 -60 11 -16 31 -54 45 -84 19 -39 25 -65 21 -92
-4 -29 0 -41 17 -57 12 -12 29 -21 37 -21 8 0 20 5 27 12 7 7 12 33 12 58 0
35 -8 59 -34 100 -19 30 -47 75 -62 99 -24 38 -26 46 -14 65 8 11 31 55 53 96
22 41 44 79 48 85 5 5 9 17 9 27 0 13 -8 18 -30 18z"/>
</g>
</svg>
