<?xml version="1.0" standalone="no"?>
<!DOCTYPE svg PUBLIC "-//W3C//DTD SVG 20010904//EN"
 "http://www.w3.org/TR/2001/REC-SVG-20010904/DTD/svg10.dtd">
<svg version="1.0" xmlns="http://www.w3.org/2000/svg"
 width="56.000000pt" height="56.000000pt" viewBox="0 0 56.000000 56.000000"
 preserveAspectRatio="xMidYMid meet">
<metadata>
Created by potrace 1.16, written by Peter Selinger 2001-2019
</metadata>
<g transform="translate(0.000000,56.000000) scale(0.100000,-0.100000)"
fill="#000000" stroke="none">
<path d="M295 560 c-14 0 -16 -6 -11 -35 5 -27 1 -44 -18 -78 -14 -24 -37 -54
-52 -68 -14 -13 -34 -36 -45 -50 -15 -22 -17 -32 -8 -57 6 -17 27 -41 48 -55
20 -14 52 -39 70 -57 18 -18 41 -51 51 -74 10 -22 21 -51 25 -63 4 -14 14 -23
26 -23 15 0 19 7 19 35 0 19 -9 51 -21 72 -11 21 -28 44 -36 50 -9 7 -29 24
-45 38 -15 14 -32 25 -36 25 -5 0 -16 8 -25 18 -10 10 -17 26 -17 35 0 9 20
44 44 77 25 33 47 73 51 90 4 16 11 32 16 35 5 4 9 16 9 28 0 12 -7 30 -14 40
-7 9 -21 17 -31 17z"/>
</g>
</svg>
