<?xml version="1.0" standalone="no"?>
<!DOCTYPE svg PUBLIC "-//W3C//DTD SVG 20010904//EN"
 "http://www.w3.org/TR/2001/REC-SVG-20010904/DTD/svg10.dtd">
<svg version="1.0" xmlns="http://www.w3.org/2000/svg"
 width="56.000000pt" height="56.000000pt" viewBox="0 0 56.000000 56.000000"
 preserveAspectRatio="xMidYMid meet">
<metadata>
Created by potrace 1.16, written by Peter Selinger 2001-2019
</metadata>
<g transform="translate(0.000000,56.000000) scale(0.100000,-0.100000)"
fill="#000000" stroke="none">
<path d="M245 560 c-22 0 -25 -4 -25 -40 0 -22 -5 -40 -11 -40 -6 0 -24 9 -39
20 -16 11 -31 16 -34 12 -3 -5 2 -16 12 -23 9 -8 27 -20 39 -26 13 -7 32 -13
43 -13 19 0 20 -2 6 -27 -8 -16 -35 -48 -60 -73 -33 -32 -46 -52 -46 -73 0
-16 17 -54 41 -90 23 -34 49 -71 59 -82 9 -11 23 -39 30 -62 9 -29 19 -43 31
-43 9 0 20 7 23 16 3 9 6 24 6 34 0 10 -13 32 -30 48 -16 17 -30 36 -30 42 0
7 -20 39 -45 72 -25 33 -45 63 -45 67 0 4 15 25 33 46 17 22 56 62 86 90 30
27 59 56 65 63 6 7 23 25 39 39 15 15 27 30 27 35 0 4 -13 8 -29 8 -21 0 -32
-6 -36 -20 -3 -11 -12 -20 -19 -20 -7 0 -21 -9 -31 -20 -10 -11 -22 -20 -27
-20 -4 0 -8 18 -8 40 0 36 -2 40 -25 40z"/>
</g>
</svg>
