<?xml version="1.0" standalone="no"?>
<!DOCTYPE svg PUBLIC "-//W3C//DTD SVG 20010904//EN"
 "http://www.w3.org/TR/2001/REC-SVG-20010904/DTD/svg10.dtd">
<svg version="1.0" xmlns="http://www.w3.org/2000/svg"
 width="56.000000pt" height="56.000000pt" viewBox="0 0 56.000000 56.000000"
 preserveAspectRatio="xMidYMid meet">
<metadata>
Created by potrace 1.16, written by Peter Selinger 2001-2019
</metadata>
<g transform="translate(0.000000,56.000000) scale(0.100000,-0.100000)"
fill="#000000" stroke="none">
<path d="M283 540 c-7 0 -13 -5 -13 -10 0 -6 9 -20 20 -32 11 -12 20 -27 20
-34 0 -6 -6 -22 -12 -35 -7 -14 -26 -42 -43 -64 -16 -22 -32 -42 -35 -45 -3
-3 -11 -15 -17 -27 -7 -13 -13 -30 -13 -38 0 -8 5 -15 10 -15 6 0 10 -8 10
-18 0 -10 4 -22 9 -27 5 -6 21 -32 36 -59 24 -44 25 -50 11 -58 -9 -5 -16 -15
-16 -23 0 -7 12 -23 27 -35 15 -11 36 -20 47 -18 16 2 20 9 18 28 -1 14 -8 36
-14 50 -7 14 -24 43 -39 65 -15 22 -36 57 -48 79 -18 31 -20 41 -9 55 7 9 34
37 60 63 45 44 48 50 48 97 0 28 -4 51 -8 51 -5 0 -15 11 -22 25 -7 14 -19 25
-27 25z"/>
</g>
</svg>
