<?xml version="1.0" standalone="no"?>
<!DOCTYPE svg PUBLIC "-//W3C//DTD SVG 20010904//EN"
 "http://www.w3.org/TR/2001/REC-SVG-20010904/DTD/svg10.dtd">
<svg version="1.0" xmlns="http://www.w3.org/2000/svg"
 width="56.000000pt" height="56.000000pt" viewBox="0 0 56.000000 56.000000"
 preserveAspectRatio="xMidYMid meet">
<metadata>
Created by potrace 1.16, written by Peter Selinger 2001-2019
</metadata>
<g transform="translate(0.000000,56.000000) scale(0.100000,-0.100000)"
fill="#000000" stroke="none">
<path d="M236 540 c-17 0 -36 -4 -43 -8 -8 -5 -1 -14 22 -26 29 -16 35 -25 35
-53 0 -19 -8 -46 -17 -61 -10 -15 -36 -45 -58 -67 -22 -22 -55 -59 -72 -81
-26 -33 -33 -51 -33 -88 0 -35 5 -48 19 -56 11 -6 62 -9 117 -7 54 2 111 1
127 -2 17 -4 35 -14 41 -23 8 -14 5 -22 -14 -40 -25 -23 -25 -23 24 -26 28 -2
60 -1 73 3 18 4 23 12 23 38 -1 17 -9 41 -18 52 -10 11 -28 26 -40 33 -13 7
-59 12 -114 12 -70 0 -103 5 -136 20 -23 10 -45 26 -48 34 -3 8 6 27 20 43 13
15 33 37 43 48 10 12 39 38 66 59 26 21 47 47 47 57 0 10 4 21 10 24 6 3 10
21 10 40 0 24 -7 39 -26 54 -15 12 -41 21 -58 21z"/>
</g>
</svg>
