<?xml version="1.0" standalone="no"?>
<!DOCTYPE svg PUBLIC "-//W3C//DTD SVG 20010904//EN"
 "http://www.w3.org/TR/2001/REC-SVG-20010904/DTD/svg10.dtd">
<svg version="1.0" xmlns="http://www.w3.org/2000/svg"
 width="56.000000pt" height="56.000000pt" viewBox="0 0 56.000000 56.000000"
 preserveAspectRatio="xMidYMid meet">
<metadata>
Created by potrace 1.16, written by Peter Selinger 2001-2019
</metadata>
<g transform="translate(0.000000,56.000000) scale(0.100000,-0.100000)"
fill="#000000" stroke="none">
<path d="M368 560 c-26 0 -36 -7 -48 -29 -8 -16 -50 -59 -92 -96 -68 -58 -78
-72 -78 -100 0 -25 7 -37 29 -52 16 -10 47 -41 70 -70 22 -29 41 -55 41 -58 0
-3 8 -18 17 -32 10 -15 25 -47 34 -72 11 -34 21 -47 37 -49 13 -2 25 3 28 13
4 9 -2 35 -12 58 -10 23 -36 72 -57 110 -22 37 -57 86 -78 108 -21 22 -39 45
-39 50 0 5 41 49 90 97 50 49 90 96 90 105 0 13 -9 17 -32 17z"/>
</g>
</svg>
