<?xml version="1.0" standalone="no"?>
<!DOCTYPE svg PUBLIC "-//W3C//DTD SVG 20010904//EN"
 "http://www.w3.org/TR/2001/REC-SVG-20010904/DTD/svg10.dtd">
<svg version="1.0" xmlns="http://www.w3.org/2000/svg"
 width="56.000000pt" height="56.000000pt" viewBox="0 0 56.000000 56.000000"
 preserveAspectRatio="xMidYMid meet">
<metadata>
Created by potrace 1.16, written by Peter Selinger 2001-2019
</metadata>
<g transform="translate(0.000000,56.000000) scale(0.100000,-0.100000)"
fill="#000000" stroke="none">
<path d="M340 532 c-17 19 -20 19 -26 4 -3 -9 -1 -23 6 -31 9 -11 7 -21 -14
-48 -15 -19 -54 -47 -93 -67 -38 -18 -80 -44 -95 -58 -16 -14 -28 -36 -28 -48
0 -11 12 -33 26 -48 20 -19 38 -26 68 -27 22 -1 75 -1 116 0 71 1 74 1 55 -15
-11 -9 -52 -31 -91 -50 -39 -19 -77 -41 -84 -49 -7 -8 -18 -15 -24 -15 -7 0
-30 -18 -51 -40 -38 -38 -38 -40 -15 -40 15 0 41 15 64 37 29 28 38 32 34 18
-3 -11 -9 -28 -13 -37 -6 -16 -1 -18 48 -18 36 0 59 5 67 15 10 12 10 16 -1
19 -8 3 -23 6 -34 8 -11 2 -21 11 -23 21 -2 10 6 21 20 27 13 5 30 14 38 19 8
5 47 21 86 35 39 15 80 36 92 47 12 11 22 28 22 39 0 10 -5 22 -10 25 -6 4
-73 6 -149 6 -77 -1 -151 3 -165 9 -16 6 -26 17 -26 29 0 12 9 22 23 26 12 4
40 16 62 26 22 11 54 27 70 36 17 9 38 23 48 31 11 9 17 29 17 54 0 25 -7 46
-20 60z"/>
</g>
</svg>
