<?xml version="1.0" standalone="no"?>
<!DOCTYPE svg PUBLIC "-//W3C//DTD SVG 20010904//EN"
 "http://www.w3.org/TR/2001/REC-SVG-20010904/DTD/svg10.dtd">
<svg version="1.0" xmlns="http://www.w3.org/2000/svg"
 width="56.000000pt" height="56.000000pt" viewBox="0 0 56.000000 56.000000"
 preserveAspectRatio="xMidYMid meet">
<metadata>
Created by potrace 1.16, written by Peter Selinger 2001-2019
</metadata>
<g transform="translate(0.000000,56.000000) scale(0.100000,-0.100000)"
fill="#000000" stroke="none">
<path d="M357 560 c-37 0 -44 -3 -56 -31 -7 -16 -44 -64 -82 -104 -38 -41 -69
-82 -69 -90 0 -8 4 -23 10 -33 5 -9 34 -72 64 -140 30 -67 50 -125 44 -128 -5
-3 -4 -11 3 -20 6 -8 22 -14 34 -14 13 0 29 10 37 23 8 12 14 31 13 42 -1 11
-6 29 -10 40 -4 11 -14 35 -22 54 -9 19 -35 59 -59 90 -32 41 -43 65 -42 89 1
23 6 32 19 32 9 0 49 35 88 77 39 42 71 85 71 95 0 15 -8 18 -43 18z"/>
</g>
</svg>
