<?xml version="1.0" standalone="no"?>
<!DOCTYPE svg PUBLIC "-//W3C//DTD SVG 20010904//EN"
 "http://www.w3.org/TR/2001/REC-SVG-20010904/DTD/svg10.dtd">
<svg version="1.0" xmlns="http://www.w3.org/2000/svg"
 width="56.000000pt" height="56.000000pt" viewBox="0 0 56.000000 56.000000"
 preserveAspectRatio="xMidYMid meet">
<metadata>
Created by potrace 1.16, written by Peter Selinger 2001-2019
</metadata>
<g transform="translate(0.000000,56.000000) scale(0.100000,-0.100000)"
fill="#000000" stroke="none">
<path d="M375 560 c-20 0 -26 -7 -36 -40 -7 -21 -25 -51 -40 -66 -16 -15 -29
-33 -29 -38 0 -6 -9 -17 -20 -23 -10 -7 -37 -36 -60 -64 -26 -34 -40 -61 -40
-81 0 -22 12 -41 47 -76 26 -26 55 -60 65 -77 10 -16 25 -45 34 -62 11 -24 23
-33 40 -33 18 0 24 6 24 21 0 11 -13 39 -30 62 -16 23 -50 65 -75 92 -25 28
-48 58 -51 68 -4 13 10 35 48 76 29 32 74 84 101 117 34 43 47 67 47 91 0 28
-3 33 -25 33z"/>
</g>
</svg>
