<?xml version="1.0" standalone="no"?>
<!DOCTYPE svg PUBLIC "-//W3C//DTD SVG 20010904//EN"
 "http://www.w3.org/TR/2001/REC-SVG-20010904/DTD/svg10.dtd">
<svg version="1.0" xmlns="http://www.w3.org/2000/svg"
 width="56.000000pt" height="56.000000pt" viewBox="0 0 56.000000 56.000000"
 preserveAspectRatio="xMidYMid meet">
<metadata>
Created by potrace 1.16, written by Peter Selinger 2001-2019
</metadata>
<g transform="translate(0.000000,56.000000) scale(0.100000,-0.100000)"
fill="#000000" stroke="none">
<path d="M347 560 c-41 0 -44 -2 -62 -42 -10 -24 -31 -62 -47 -85 -15 -23 -28
-44 -28 -48 0 -4 -13 -26 -30 -50 -16 -24 -30 -51 -30 -59 0 -8 34 -59 75
-113 42 -54 87 -113 101 -130 16 -22 33 -33 49 -33 22 0 25 4 25 39 0 24 -8
49 -22 67 -12 16 -52 60 -90 98 -43 42 -68 76 -68 90 0 12 20 49 44 83 25 34
50 64 56 68 6 4 21 23 34 43 12 21 25 45 29 55 5 14 0 17 -36 17z"/>
</g>
</svg>
