<?xml version="1.0" standalone="no"?>
<!DOCTYPE svg PUBLIC "-//W3C//DTD SVG 20010904//EN"
 "http://www.w3.org/TR/2001/REC-SVG-20010904/DTD/svg10.dtd">
<svg version="1.0" xmlns="http://www.w3.org/2000/svg"
 width="56.000000pt" height="56.000000pt" viewBox="0 0 56.000000 56.000000"
 preserveAspectRatio="xMidYMid meet">
<metadata>
Created by potrace 1.16, written by Peter Selinger 2001-2019
</metadata>
<g transform="translate(0.000000,56.000000) scale(0.100000,-0.100000)"
fill="#000000" stroke="none">
<path d="M334 560 c-34 0 -36 -2 -30 -25 4 -14 2 -33 -3 -42 -5 -10 -19 -39
-31 -64 -12 -25 -39 -68 -60 -96 -21 -28 -44 -67 -51 -88 -13 -36 -13 -38 16
-61 17 -14 53 -45 81 -69 28 -25 59 -60 68 -80 14 -28 23 -35 46 -35 23 0 30
5 30 18 0 11 -7 33 -16 51 -8 17 -49 61 -90 98 -41 37 -74 74 -74 83 0 8 19
39 41 69 23 30 50 70 62 90 11 20 26 47 34 61 7 14 13 40 13 58 0 30 -2 32
-36 32z"/>
</g>
</svg>
