<?xml version="1.0" standalone="no"?>
<!DOCTYPE svg PUBLIC "-//W3C//DTD SVG 20010904//EN"
 "http://www.w3.org/TR/2001/REC-SVG-20010904/DTD/svg10.dtd">
<svg version="1.0" xmlns="http://www.w3.org/2000/svg"
 width="56.000000pt" height="56.000000pt" viewBox="0 0 56.000000 56.000000"
 preserveAspectRatio="xMidYMid meet">
<metadata>
Created by potrace 1.16, written by Peter Selinger 2001-2019
</metadata>
<g transform="translate(0.000000,56.000000) scale(0.100000,-0.100000)"
fill="#000000" stroke="none">
<path d="M374 445 c-16 2 -36 1 -44 -3 -8 -4 -34 -19 -57 -34 -23 -15 -44 -32
-48 -38 -3 -5 -42 -37 -86 -70 -44 -33 -83 -60 -88 -60 -5 0 -16 -11 -25 -24
-8 -14 -18 -42 -22 -64 -6 -39 -6 -39 37 -39 24 0 56 5 70 13 14 7 43 15 65
18 21 2 53 9 69 15 17 6 51 15 77 20 34 6 53 5 64 -4 16 -11 15 -14 -4 -33
-12 -12 -22 -26 -22 -32 0 -5 15 -10 33 -10 20 0 47 10 67 25 20 15 47 25 67
25 25 0 33 4 33 18 -1 9 -17 29 -36 44 -35 26 -38 27 -157 23 -89 -3 -134 -10
-167 -23 -25 -11 -61 -24 -80 -31 -19 -6 -38 -7 -43 -2 -4 4 9 21 30 36 21 16
41 34 45 41 5 7 60 38 124 70 64 32 119 64 121 72 3 7 12 11 19 8 9 -3 14 2
14 14 0 11 -6 20 -14 20 -7 0 -26 2 -42 5z"/>
<path d="M285 300 c-8 0 -19 -9 -25 -20 -6 -11 -8 -20 -5 -20 4 0 15 5 26 10
10 6 19 15 19 20 0 6 -7 10 -15 10z"/>
</g>
</svg>
