<?xml version="1.0" standalone="no"?>
<!DOCTYPE svg PUBLIC "-//W3C//DTD SVG 20010904//EN"
 "http://www.w3.org/TR/2001/REC-SVG-20010904/DTD/svg10.dtd">
<svg version="1.0" xmlns="http://www.w3.org/2000/svg"
 width="56.000000pt" height="56.000000pt" viewBox="0 0 56.000000 56.000000"
 preserveAspectRatio="xMidYMid meet">
<metadata>
Created by potrace 1.16, written by Peter Selinger 2001-2019
</metadata>
<g transform="translate(0.000000,56.000000) scale(0.100000,-0.100000)"
fill="#000000" stroke="none">
<path d="M255 510 c-20 0 -26 -4 -23 -17 2 -10 12 -18 23 -18 11 0 21 8 23 18
3 13 -3 17 -23 17z"/>
<path d="M128 498 c-9 2 -23 -6 -30 -17 -9 -14 -23 -21 -45 -21 -17 0 -34 -4
-37 -9 -3 -5 1 -12 10 -15 9 -3 24 -6 34 -6 10 0 27 -15 39 -33 11 -18 36 -45
55 -61 20 -15 36 -34 36 -41 0 -7 -7 -15 -15 -19 -8 -3 -15 -10 -15 -16 0 -5
7 -10 15 -10 8 0 18 -12 21 -26 4 -14 2 -35 -3 -47 -10 -21 -11 -20 -26 16 -9
21 -21 36 -27 32 -5 -3 -10 -19 -10 -34 0 -15 5 -42 11 -60 6 -18 24 -38 41
-47 19 -10 57 -15 103 -16 41 0 79 3 84 7 6 3 11 14 11 24 0 10 -7 24 -15 31
-12 10 -24 10 -54 1 -21 -6 -48 -11 -60 -11 -14 0 -21 6 -21 18 0 10 7 41 16
68 9 27 24 57 32 67 8 9 21 17 28 17 7 0 38 13 69 29 30 16 75 35 100 42 24 7
47 19 50 27 3 8 3 17 0 22 -3 4 -20 11 -40 14 -30 6 -46 0 -120 -44 -47 -29
-85 -58 -85 -66 0 -9 -10 -14 -27 -14 -22 1 -37 13 -71 60 -36 50 -43 66 -40
97 2 29 -1 38 -14 41z"/>
</g>
</svg>
