<?xml version="1.0" standalone="no"?>
<!DOCTYPE svg PUBLIC "-//W3C//DTD SVG 20010904//EN"
 "http://www.w3.org/TR/2001/REC-SVG-20010904/DTD/svg10.dtd">
<svg version="1.0" xmlns="http://www.w3.org/2000/svg"
 width="56.000000pt" height="56.000000pt" viewBox="0 0 56.000000 56.000000"
 preserveAspectRatio="xMidYMid meet">
<metadata>
Created by potrace 1.16, written by Peter Selinger 2001-2019
</metadata>
<g transform="translate(0.000000,56.000000) scale(0.100000,-0.100000)"
fill="#000000" stroke="none">
<path d="M231 560 c-5 0 -11 -7 -15 -15 -3 -9 -19 -18 -36 -21 -17 -4 -33 -11
-36 -16 -3 -5 0 -15 6 -23 7 -8 16 -13 20 -10 5 3 11 1 15 -5 3 -5 1 -20 -6
-32 -6 -13 -20 -32 -29 -43 -10 -11 -20 -29 -22 -40 -3 -17 3 -20 38 -20 23
-1 49 -7 58 -14 11 -9 16 -29 16 -65 -1 -28 -7 -62 -15 -76 -8 -14 -14 -33
-15 -43 0 -10 7 -20 15 -24 9 -3 23 2 33 10 9 9 33 47 52 84 19 37 39 71 44
75 6 4 19 2 29 -4 15 -7 23 -6 35 6 11 11 13 19 6 26 -6 6 -20 11 -30 12 -10
0 -40 -3 -66 -7 -44 -7 -48 -6 -48 12 0 11 -8 27 -17 35 -10 9 -28 19 -40 22
-13 4 -23 14 -23 21 0 8 4 16 9 20 6 3 24 26 41 52 31 45 31 46 11 64 -11 11
-24 19 -30 19z"/>
<path d="M188 221 c-2 7 -16 -3 -31 -23 -15 -20 -27 -47 -27 -64 1 -16 7 -40
14 -53 7 -14 33 -32 57 -42 24 -10 61 -18 81 -18 20 -1 40 -6 43 -11 3 -6 24
-10 45 -10 29 0 43 6 54 22 9 12 14 24 11 26 -2 2 -32 10 -67 18 -35 7 -88 13
-119 14 -38 0 -61 5 -69 15 -7 9 -10 18 -7 22 4 3 2 14 -4 24 -7 14 -5 26 7
44 9 13 14 30 12 36z"/>
</g>
</svg>
