<?xml version="1.0" standalone="no"?>
<!DOCTYPE svg PUBLIC "-//W3C//DTD SVG 20010904//EN"
 "http://www.w3.org/TR/2001/REC-SVG-20010904/DTD/svg10.dtd">
<svg version="1.0" xmlns="http://www.w3.org/2000/svg"
 width="56.000000pt" height="56.000000pt" viewBox="0 0 56.000000 56.000000"
 preserveAspectRatio="xMidYMid meet">
<metadata>
Created by potrace 1.16, written by Peter Selinger 2001-2019
</metadata>
<g transform="translate(0.000000,56.000000) scale(0.100000,-0.100000)"
fill="#000000" stroke="none">
<path d="M380 500 c-5 0 -12 -5 -15 -11 -4 -6 -4 -13 -1 -16 3 -3 12 -3 21 1
9 3 13 10 10 16 -3 5 -10 10 -15 10z"/>
<path d="M123 484 c-15 5 -29 0 -48 -16 -24 -21 -26 -26 -14 -51 7 -15 10 -29
7 -32 -3 -3 -17 0 -32 6 -14 7 -29 9 -33 6 -4 -4 7 -21 23 -38 26 -28 33 -30
75 -25 45 6 47 5 109 -51 62 -58 62 -58 51 -100 -8 -31 -9 -49 -1 -63 6 -11
24 -27 40 -35 15 -8 60 -18 98 -21 66 -6 71 -5 82 16 11 21 10 26 -10 42 -14
11 -39 18 -67 18 -24 0 -53 5 -64 10 -12 7 -19 21 -19 39 0 16 6 41 14 56 8
15 29 39 48 54 18 15 65 42 105 61 55 27 72 40 72 56 1 17 -7 23 -33 28 -19 4
-47 4 -63 0 -15 -4 -30 -10 -33 -13 -3 -4 -17 -14 -32 -24 -15 -9 -46 -44 -69
-78 -41 -61 -41 -61 -72 -33 -18 16 -42 39 -55 52 -20 19 -23 29 -17 61 5 32
3 40 -17 53 -13 8 -33 18 -45 22z m-13 -34 c13 0 20 -7 20 -19 0 -11 -4 -22
-9 -26 -6 -3 -15 3 -20 14 -6 11 -11 22 -11 25 0 3 9 6 20 6z m358 -40 c14 0
23 -2 21 -4 -2 -2 -21 -13 -42 -25 -37 -21 -37 -21 -21 4 10 16 26 25 42 25z"/>
</g>
</svg>
