<?xml version="1.0" standalone="no"?>
<!DOCTYPE svg PUBLIC "-//W3C//DTD SVG 20010904//EN"
 "http://www.w3.org/TR/2001/REC-SVG-20010904/DTD/svg10.dtd">
<svg version="1.0" xmlns="http://www.w3.org/2000/svg"
 width="56.000000pt" height="56.000000pt" viewBox="0 0 56.000000 56.000000"
 preserveAspectRatio="xMidYMid meet">
<metadata>
Created by potrace 1.16, written by Peter Selinger 2001-2019
</metadata>
<g transform="translate(0.000000,56.000000) scale(0.100000,-0.100000)"
fill="#000000" stroke="none">
<path d="M474 440 c-12 0 -26 -5 -29 -10 -4 -6 1 -22 9 -35 9 -14 20 -25 25
-25 4 0 16 9 26 20 15 16 15 22 5 35 -7 8 -23 15 -36 15z"/>
<path d="M106 426 c-12 5 -20 -4 -32 -31 -13 -33 -18 -37 -45 -33 -16 3 -29 1
-29 -4 0 -5 5 -18 10 -29 6 -10 21 -19 33 -19 12 0 30 7 41 15 16 12 24 12 60
-2 22 -8 56 -22 74 -30 17 -7 32 -18 32 -23 0 -5 -4 -12 -10 -15 -5 -3 -10
-21 -10 -39 0 -19 7 -39 18 -47 9 -8 29 -21 44 -28 14 -8 53 -14 85 -15 56 -1
58 0 61 27 3 28 3 28 -78 25 -63 -2 -83 0 -90 12 -5 8 -10 23 -10 33 0 9 5 17
11 17 7 0 18 -8 24 -17 12 -17 14 -17 34 1 12 11 21 23 21 28 0 4 -10 8 -22 8
-17 0 -19 3 -10 12 8 8 15 8 27 -2 12 -10 19 -9 40 4 15 10 46 16 84 16 33 0
66 3 75 6 9 3 16 17 16 30 0 20 -5 24 -28 24 -16 0 -37 -7 -48 -15 -10 -8 -34
-15 -53 -15 -19 0 -60 -5 -90 -11 -51 -11 -60 -10 -94 10 -21 11 -48 21 -60
21 -13 0 -28 5 -35 12 -7 7 -12 25 -12 40 0 15 -4 28 -9 28 -5 0 -17 3 -25 6z"/>
</g>
</svg>
