<?xml version="1.0" standalone="no"?>
<!DOCTYPE svg PUBLIC "-//W3C//DTD SVG 20010904//EN"
 "http://www.w3.org/TR/2001/REC-SVG-20010904/DTD/svg10.dtd">
<svg version="1.0" xmlns="http://www.w3.org/2000/svg"
 width="56.000000pt" height="56.000000pt" viewBox="0 0 56.000000 56.000000"
 preserveAspectRatio="xMidYMid meet">
<metadata>
Created by potrace 1.16, written by Peter Selinger 2001-2019
</metadata>
<g transform="translate(0.000000,56.000000) scale(0.100000,-0.100000)"
fill="#000000" stroke="none">
<path d="M110 560 c-13 0 -20 -7 -20 -19 0 -11 -5 -21 -10 -23 -6 -2 -12 -22
-13 -45 -1 -29 5 -48 17 -62 11 -12 30 -21 43 -21 15 0 23 -6 23 -18 0 -10
-18 -36 -40 -57 -22 -21 -40 -47 -40 -56 0 -9 7 -22 15 -29 12 -10 18 -10 31
1 8 7 24 30 35 51 11 22 31 43 46 49 20 7 30 6 45 -8 16 -14 19 -26 15 -58 -3
-22 -11 -41 -16 -43 -6 -2 -11 -10 -11 -18 0 -8 4 -14 9 -14 5 0 11 -12 13
-27 3 -24 8 -28 33 -28 24 0 31 5 35 25 3 14 14 40 25 58 10 17 27 32 37 32 9
0 19 4 22 9 3 4 19 11 35 14 17 4 35 16 41 27 6 11 8 25 5 30 -3 6 -19 10 -34
10 -16 0 -34 -7 -41 -15 -7 -9 -33 -25 -56 -35 -24 -11 -45 -20 -47 -20 -3 0
-12 16 -21 35 -11 23 -26 37 -44 41 -15 3 -33 7 -40 10 -9 2 -10 9 -3 21 5 10
12 26 15 35 3 9 17 18 33 20 20 2 28 9 28 23 0 14 -8 21 -27 23 -16 2 -28 9
-28 16 0 7 -9 21 -20 31 -16 14 -21 15 -24 4 -3 -8 -7 -30 -8 -49 -3 -32 -6
-35 -33 -35 -25 0 -30 4 -33 27 -2 15 4 38 12 50 9 12 16 26 16 30 0 5 -9 8
-20 8z"/>
<path d="M209 190 c-6 0 -26 -15 -45 -34 -23 -23 -34 -43 -34 -64 0 -17 10
-40 25 -56 14 -15 35 -26 52 -27 15 0 53 -2 83 -3 30 -2 65 0 77 5 13 5 25 4
28 -1 4 -6 19 -10 34 -10 16 0 34 7 41 15 7 8 10 22 6 30 -3 9 -13 18 -22 22
-10 4 -30 -1 -46 -10 -21 -12 -53 -17 -112 -17 -68 0 -86 3 -99 18 -10 10 -17
29 -17 43 0 13 9 39 20 57 11 17 15 32 9 32z"/>
</g>
</svg>
