<?xml version="1.0" standalone="no"?>
<!DOCTYPE svg PUBLIC "-//W3C//DTD SVG 20010904//EN"
 "http://www.w3.org/TR/2001/REC-SVG-20010904/DTD/svg10.dtd">
<svg version="1.0" xmlns="http://www.w3.org/2000/svg"
 width="56.000000pt" height="56.000000pt" viewBox="0 0 56.000000 56.000000"
 preserveAspectRatio="xMidYMid meet">
<metadata>
Created by potrace 1.16, written by Peter Selinger 2001-2019
</metadata>
<g transform="translate(0.000000,56.000000) scale(0.100000,-0.100000)"
fill="#000000" stroke="none">
<path d="M102 560 c-7 0 -14 -11 -18 -25 -3 -14 -4 -37 -1 -52 3 -15 -2 -37
-10 -50 -10 -15 -24 -23 -37 -21 -16 2 -22 -3 -24 -21 -2 -13 1 -28 7 -34 7
-7 18 -7 36 3 22 12 27 11 48 -8 13 -12 30 -22 39 -22 9 0 21 -7 28 -15 7 -8
19 -15 27 -15 12 0 13 -7 8 -27 -3 -16 -17 -39 -31 -54 -13 -14 -24 -33 -24
-42 0 -10 -5 -26 -12 -36 -8 -14 -9 -33 -2 -68 7 -40 12 -48 29 -45 11 1 27 2
35 3 8 0 55 -7 105 -15 50 -8 104 -15 121 -16 16 0 39 6 49 14 18 13 18 14 -4
45 -12 17 -29 31 -36 31 -8 0 -18 -8 -24 -17 -9 -17 -10 -17 -16 0 -4 9 -13
17 -20 17 -7 0 -15 -6 -18 -14 -4 -9 -14 -12 -29 -9 -13 4 -26 11 -30 17 -4 6
-7 22 -7 36 0 14 11 43 24 65 14 22 31 54 39 71 9 17 23 35 33 38 10 4 53 30
96 59 58 39 77 57 77 74 0 13 -9 32 -20 43 -11 11 -24 20 -28 20 -5 0 -30 -16
-55 -36 -26 -20 -47 -41 -47 -47 0 -6 -16 -26 -36 -44 -20 -18 -42 -33 -48
-33 -7 0 -17 -5 -24 -12 -7 -7 -12 -19 -12 -29 0 -12 -6 -15 -25 -11 -14 2
-25 8 -25 13 0 5 -29 32 -65 60 -57 46 -63 54 -51 68 8 9 17 34 20 56 6 32 3
45 -12 63 -11 12 -24 22 -30 22z m110 -384 c5 -9 15 -34 23 -56 14 -40 14 -40
-18 -48 -18 -5 -36 -7 -40 -4 -5 2 -6 25 -2 51 4 25 12 52 18 59 9 11 12 10
19 -2z"/>
</g>
</svg>
