<?xml version="1.0" standalone="no"?>
<!DOCTYPE svg PUBLIC "-//W3C//DTD SVG 20010904//EN"
 "http://www.w3.org/TR/2001/REC-SVG-20010904/DTD/svg10.dtd">
<svg version="1.0" xmlns="http://www.w3.org/2000/svg"
 width="56.000000pt" height="56.000000pt" viewBox="0 0 56.000000 56.000000"
 preserveAspectRatio="xMidYMid meet">
<metadata>
Created by potrace 1.16, written by Peter Selinger 2001-2019
</metadata>
<g transform="translate(0.000000,56.000000) scale(0.100000,-0.100000)"
fill="#000000" stroke="none">
<path d="M131 520 c-9 0 -29 -12 -45 -26 -22 -20 -36 -24 -58 -20 -26 5 -29 3
-26 -17 2 -15 14 -25 38 -33 30 -10 36 -17 43 -52 5 -28 17 -48 37 -62 15 -11
37 -20 49 -20 15 0 23 -10 30 -37 6 -21 11 -43 11 -49 0 -6 -13 -28 -30 -50
-16 -21 -30 -51 -30 -65 0 -15 7 -32 16 -40 10 -8 55 -14 123 -17 79 -3 110
-1 116 8 4 7 0 19 -9 28 -12 12 -35 17 -91 17 -43 0 -79 5 -86 12 -9 9 -7 17
5 35 9 12 59 66 112 119 52 53 114 110 136 125 23 16 52 39 65 52 13 13 23 27
23 32 0 5 -14 17 -31 25 -30 16 -30 16 -87 -42 -32 -32 -81 -86 -111 -120 -29
-35 -56 -63 -59 -63 -4 0 -16 14 -27 30 -11 17 -38 37 -63 47 -24 9 -47 24
-52 34 -6 10 -10 24 -10 33 0 8 14 28 31 46 30 30 31 31 14 50 -10 11 -25 20
-34 20z"/>
</g>
</svg>
