<?xml version="1.0" standalone="no"?>
<!DOCTYPE svg PUBLIC "-//W3C//DTD SVG 20010904//EN"
 "http://www.w3.org/TR/2001/REC-SVG-20010904/DTD/svg10.dtd">
<svg version="1.0" xmlns="http://www.w3.org/2000/svg"
 width="56.000000pt" height="56.000000pt" viewBox="0 0 56.000000 56.000000"
 preserveAspectRatio="xMidYMid meet">
<metadata>
Created by potrace 1.16, written by Peter Selinger 2001-2019
</metadata>
<g transform="translate(0.000000,56.000000) scale(0.100000,-0.100000)"
fill="#000000" stroke="none">
<path d="M163 560 c-39 -1 -55 -7 -86 -33 -20 -18 -37 -38 -37 -44 0 -7 9 -18
20 -25 11 -7 20 -20 20 -29 0 -9 -7 -22 -15 -29 -8 -7 -15 -19 -15 -28 0 -8
11 -29 24 -46 13 -17 26 -41 30 -54 6 -16 1 -31 -19 -54 -17 -19 -23 -34 -17
-40 6 -6 19 -7 30 -4 11 4 54 34 94 68 40 34 78 68 84 76 9 13 14 11 32 -9 12
-12 22 -29 22 -36 0 -8 7 -25 17 -39 16 -24 15 -26 -22 -64 -22 -22 -48 -43
-59 -46 -12 -3 -33 -11 -48 -17 -16 -7 -28 -18 -28 -24 0 -7 11 -13 24 -13 13
0 58 18 100 39 76 40 76 40 93 14 9 -13 25 -39 35 -56 10 -18 21 -40 24 -49 4
-10 15 -18 25 -18 11 0 22 6 25 14 3 8 -21 54 -54 103 -36 55 -56 95 -52 104
4 7 12 24 19 37 7 13 9 37 5 57 -3 19 -12 35 -19 35 -7 0 -15 -10 -19 -22 -3
-13 -6 -33 -6 -46 0 -23 0 -23 -24 -5 -14 10 -29 28 -35 41 -6 13 -9 28 -6 33
4 5 12 9 18 9 7 0 20 11 29 24 17 23 17 25 -6 39 -21 14 -26 14 -42 2 -11 -8
-23 -15 -27 -15 -4 0 -17 21 -27 46 -14 33 -25 45 -37 42 -10 -2 -19 -13 -21
-26 -2 -12 1 -22 5 -22 5 0 17 -18 26 -39 17 -39 17 -40 -5 -64 -13 -13 -33
-29 -45 -36 -19 -9 -28 -8 -48 5 -14 9 -30 25 -35 34 -7 13 -4 22 9 34 11 10
22 33 26 53 4 25 2 40 -10 53 -12 14 -13 20 -4 26 7 4 26 10 42 13 17 4 32 12
35 19 2 8 -11 12 -45 12z"/>
<path d="M388 507 c-12 4 -18 0 -18 -11 0 -9 8 -19 18 -23 9 -3 30 -15 45 -26
16 -11 32 -16 37 -11 5 5 10 15 12 22 2 8 -14 20 -37 28 -22 9 -48 18 -57 21z"/>
</g>
</svg>
