<?xml version="1.0" standalone="no"?>
<!DOCTYPE svg PUBLIC "-//W3C//DTD SVG 20010904//EN"
 "http://www.w3.org/TR/2001/REC-SVG-20010904/DTD/svg10.dtd">
<svg version="1.0" xmlns="http://www.w3.org/2000/svg"
 width="56.000000pt" height="56.000000pt" viewBox="0 0 56.000000 56.000000"
 preserveAspectRatio="xMidYMid meet">
<metadata>
Created by potrace 1.16, written by Peter Selinger 2001-2019
</metadata>
<g transform="translate(0.000000,56.000000) scale(0.100000,-0.100000)"
fill="#000000" stroke="none">
<path d="M186 509 c-35 -1 -48 -8 -88 -49 -27 -27 -48 -56 -48 -64 0 -9 11
-18 25 -22 14 -3 25 -12 25 -19 0 -7 -7 -18 -15 -25 -8 -7 -15 -25 -15 -41 0
-21 5 -28 22 -31 13 -2 24 -10 26 -19 1 -8 -25 -43 -59 -77 -58 -57 -62 -64
-51 -87 7 -15 20 -25 32 -25 11 0 28 12 37 27 10 15 24 34 31 43 7 8 31 38 53
65 23 28 50 61 61 73 11 13 22 21 25 19 3 -3 6 -32 7 -64 1 -53 3 -58 25 -61
16 -3 31 6 51 30 28 33 28 33 52 8 14 -14 32 -38 41 -55 9 -16 28 -42 41 -57
14 -16 34 -28 45 -28 11 0 26 3 35 6 9 3 16 12 16 19 0 7 -37 49 -82 93 -75
74 -82 83 -70 102 6 11 12 31 12 44 0 14 -4 27 -10 31 -5 3 -16 -8 -25 -25 -8
-16 -22 -30 -30 -30 -9 0 -21 11 -27 25 -10 22 -8 29 17 55 21 22 26 33 18 41
-6 6 -9 18 -6 25 3 8 11 14 18 14 6 0 19 -8 28 -18 9 -10 22 -35 29 -57 9 -29
19 -41 36 -43 13 -2 24 3 28 12 3 8 0 25 -6 38 -7 13 -28 40 -48 61 -28 28
-44 37 -70 37 -25 0 -35 -5 -39 -20 -3 -11 -11 -20 -18 -20 -7 0 -16 -7 -19
-16 -5 -12 -9 -14 -20 -5 -7 6 -21 29 -31 51 -17 38 -20 40 -59 39z m9 -45 c6
-9 20 -29 32 -44 12 -14 25 -38 28 -51 5 -22 -1 -31 -39 -63 -45 -37 -45 -37
-67 -15 -18 18 -19 25 -10 46 6 13 11 31 11 39 0 8 -10 18 -21 23 -20 7 -20 9
17 44 34 33 40 35 49 21z m104 -164 c11 -5 27 -20 35 -32 15 -21 14 -24 -3
-42 -11 -11 -26 -16 -35 -13 -11 5 -16 20 -16 52 0 42 1 45 19 35z"/>
</g>
</svg>
