<?xml version="1.0" standalone="no"?>
<!DOCTYPE svg PUBLIC "-//W3C//DTD SVG 20010904//EN"
 "http://www.w3.org/TR/2001/REC-SVG-20010904/DTD/svg10.dtd">
<svg version="1.0" xmlns="http://www.w3.org/2000/svg"
 width="56.000000pt" height="56.000000pt" viewBox="0 0 56.000000 56.000000"
 preserveAspectRatio="xMidYMid meet">
<metadata>
Created by potrace 1.16, written by Peter Selinger 2001-2019
</metadata>
<g transform="translate(0.000000,56.000000) scale(0.100000,-0.100000)"
fill="#000000" stroke="none">
<path d="M119 460 c-11 0 -19 -9 -21 -22 -3 -20 -8 -23 -45 -20 -32 2 -43 -1
-43 -12 0 -8 26 -28 57 -45 31 -17 72 -37 91 -43 20 -7 49 -26 65 -42 25 -26
28 -35 23 -68 -6 -33 -2 -42 27 -74 29 -32 42 -38 97 -46 50 -6 67 -5 77 5 12
11 11 17 -5 37 -13 16 -32 24 -63 27 -24 2 -52 12 -61 20 -10 9 -18 26 -18 38
0 15 20 37 68 71 37 28 95 65 130 84 34 18 62 39 62 46 0 7 -9 18 -20 24 -12
6 -28 9 -38 6 -9 -3 -31 -19 -49 -36 -18 -16 -36 -30 -40 -30 -5 0 -35 -22
-68 -50 -33 -27 -64 -50 -70 -50 -7 0 -17 11 -23 24 -6 14 -31 37 -56 51 -26
15 -46 30 -46 34 0 4 5 12 12 19 9 9 7 16 -7 32 -10 11 -26 20 -36 20z"/>
</g>
</svg>
