<?xml version="1.0" standalone="no"?>
<!DOCTYPE svg PUBLIC "-//W3C//DTD SVG 20010904//EN"
 "http://www.w3.org/TR/2001/REC-SVG-20010904/DTD/svg10.dtd">
<svg version="1.0" xmlns="http://www.w3.org/2000/svg"
 width="56.000000pt" height="56.000000pt" viewBox="0 0 56.000000 56.000000"
 preserveAspectRatio="xMidYMid meet">
<metadata>
Created by potrace 1.16, written by Peter Selinger 2001-2019
</metadata>
<g transform="translate(0.000000,56.000000) scale(0.100000,-0.100000)"
fill="#000000" stroke="none">
<path d="M313 539 c-16 0 -45 -12 -65 -26 -21 -14 -38 -30 -38 -34 0 -5 -8 -9
-17 -10 -11 0 -7 -5 10 -11 22 -8 36 -7 55 3 15 7 39 22 55 32 15 10 27 25 27
33 0 9 -10 14 -27 13z"/>
<path d="M98 518 c-19 2 -28 -1 -28 -10 0 -8 -5 -19 -11 -25 -8 -8 -17 -5 -32
10 -14 14 -22 17 -25 9 -2 -7 4 -24 13 -38 9 -13 43 -44 77 -67 33 -23 77 -56
97 -74 36 -31 36 -31 14 -55 -12 -13 -29 -42 -37 -65 -11 -32 -12 -51 -4 -80
5 -21 15 -43 21 -50 7 -6 37 -17 67 -23 30 -6 76 -15 102 -20 27 -5 52 -11 57
-14 5 -3 14 0 20 8 9 11 7 20 -11 41 -21 24 -31 27 -101 30 -57 2 -84 8 -98
21 -12 11 -19 30 -19 53 0 20 9 51 20 69 11 18 25 30 31 26 7 -4 8 -24 4 -54
-5 -37 -3 -51 10 -64 9 -9 21 -14 26 -10 5 3 19 24 31 47 11 23 35 60 53 82
18 22 40 54 50 71 15 27 26 32 74 40 46 7 57 13 59 30 2 16 -4 24 -26 32 -24
8 -35 6 -58 -9 -16 -11 -54 -31 -84 -45 -30 -14 -66 -34 -81 -45 -15 -10 -33
-19 -39 -19 -7 0 -33 17 -59 38 -25 20 -55 42 -66 48 -16 9 -20 22 -20 60 0
46 -2 49 -27 52z m255 -188 c4 0 7 -3 7 -8 0 -4 -8 -19 -17 -32 -9 -14 -21
-28 -27 -32 -6 -4 -14 -2 -18 5 -4 7 -8 17 -8 24 0 7 12 19 28 27 15 8 30 15
35 16z"/>
</g>
</svg>
