<?xml version="1.0" standalone="no"?>
<!DOCTYPE svg PUBLIC "-//W3C//DTD SVG 20010904//EN"
 "http://www.w3.org/TR/2001/REC-SVG-20010904/DTD/svg10.dtd">
<svg version="1.0" xmlns="http://www.w3.org/2000/svg"
 width="56.000000pt" height="56.000000pt" viewBox="0 0 56.000000 56.000000"
 preserveAspectRatio="xMidYMid meet">
<metadata>
Created by potrace 1.16, written by Peter Selinger 2001-2019
</metadata>
<g transform="translate(0.000000,56.000000) scale(0.100000,-0.100000)"
fill="#000000" stroke="none">
<path d="M21 480 c-21 35 -21 35 -21 -17 0 -40 5 -58 20 -73 11 -11 33 -20 49
-20 17 0 50 -13 74 -30 33 -22 47 -39 56 -72 7 -24 17 -53 22 -65 5 -13 4 -25
-1 -28 -5 -3 -14 -24 -21 -47 -9 -36 -8 -43 10 -61 16 -16 37 -21 103 -25 65
-3 86 -1 96 10 9 12 7 19 -10 37 -17 19 -28 22 -63 19 -23 -3 -50 -1 -59 4 -9
5 -16 14 -16 19 0 6 26 38 58 71 31 33 93 88 137 120 44 33 86 63 93 65 6 3
12 16 12 29 0 21 -5 24 -39 24 -29 0 -42 -6 -54 -23 -8 -13 -57 -65 -108 -115
-50 -50 -96 -89 -101 -86 -4 3 -8 23 -8 45 0 29 -6 46 -23 62 -13 12 -33 30
-45 39 -16 13 -20 24 -16 46 4 19 1 32 -11 42 -15 13 -19 12 -35 -8 -10 -12
-24 -22 -32 -22 -7 0 -20 6 -29 13 -9 7 -26 28 -38 47z"/>
</g>
</svg>
