<?xml version="1.0" standalone="no"?>
<!DOCTYPE svg PUBLIC "-//W3C//DTD SVG 20010904//EN"
 "http://www.w3.org/TR/2001/REC-SVG-20010904/DTD/svg10.dtd">
<svg version="1.0" xmlns="http://www.w3.org/2000/svg"
 width="56.000000pt" height="56.000000pt" viewBox="0 0 56.000000 56.000000"
 preserveAspectRatio="xMidYMid meet">
<metadata>
Created by potrace 1.16, written by Peter Selinger 2001-2019
</metadata>
<g transform="translate(0.000000,56.000000) scale(0.100000,-0.100000)"
fill="#000000" stroke="none">
<path d="M126 520 c-14 0 -44 -19 -75 -48 -28 -26 -51 -55 -51 -64 0 -8 6 -21
13 -27 10 -8 22 -7 44 1 28 11 33 8 99 -47 38 -32 71 -63 73 -68 2 -5 -7 -27
-19 -49 -20 -36 -21 -45 -11 -79 9 -30 20 -42 49 -55 20 -9 46 -19 57 -24 11
-4 37 -13 59 -20 32 -10 41 -10 53 3 12 11 12 19 4 35 -6 11 -19 23 -28 25
-10 3 -39 8 -64 12 -25 3 -56 15 -68 26 -11 11 -21 31 -21 44 0 14 5 25 10 25
6 0 13 1 17 1 4 1 15 -11 23 -27 9 -15 21 -29 27 -31 6 -2 13 4 15 14 2 10 0
32 -6 50 -7 24 -6 36 5 49 8 10 38 28 67 41 29 12 66 23 82 23 16 0 41 5 55
12 14 6 25 16 25 21 0 5 -8 16 -17 23 -10 7 -27 13 -38 14 -11 0 -68 -24 -126
-54 -103 -52 -108 -54 -130 -38 -13 9 -41 32 -61 51 -21 19 -38 38 -38 43 0 5
7 17 16 26 15 15 14 18 -12 38 -24 20 -26 24 -11 30 9 3 14 10 11 15 -3 5 -16
9 -28 9z"/>
</g>
</svg>
