<?xml version="1.0" standalone="no"?>
<!DOCTYPE svg PUBLIC "-//W3C//DTD SVG 20010904//EN"
 "http://www.w3.org/TR/2001/REC-SVG-20010904/DTD/svg10.dtd">
<svg version="1.0" xmlns="http://www.w3.org/2000/svg"
 width="56.000000pt" height="56.000000pt" viewBox="0 0 56.000000 56.000000"
 preserveAspectRatio="xMidYMid meet">
<metadata>
Created by potrace 1.16, written by Peter Selinger 2001-2019
</metadata>
<g transform="translate(0.000000,56.000000) scale(0.100000,-0.100000)"
fill="#000000" stroke="none">
<path d="M102 560 c-10 0 -13 -8 -9 -27 3 -16 7 -37 9 -48 2 -16 -5 -20 -45
-26 -27 -4 -51 -10 -54 -13 -3 -3 5 -21 17 -40 14 -24 29 -36 44 -36 12 0 33
11 46 25 13 14 29 25 36 25 6 0 14 -7 18 -15 3 -8 17 -20 31 -27 14 -6 25 -20
25 -31 0 -10 -10 -32 -22 -47 -13 -16 -38 -49 -56 -73 -17 -24 -32 -51 -32
-60 0 -9 5 -37 12 -62 7 -25 25 -58 41 -73 27 -26 32 -27 163 -30 131 -3 134
-3 134 18 0 11 -7 32 -16 46 -16 23 -21 24 -80 20 -35 -3 -64 -1 -64 4 0 4 13
49 30 99 16 49 38 107 49 129 15 30 36 47 100 82 45 23 81 46 81 49 0 3 -15
16 -34 28 -19 12 -49 24 -67 28 -30 5 -39 1 -74 -33 -22 -21 -48 -48 -57 -60
-10 -12 -27 -22 -38 -22 -12 0 -33 6 -49 14 -15 8 -33 22 -41 31 -11 13 -10
19 5 35 10 11 15 26 12 35 -4 8 -13 15 -21 15 -8 0 -18 -4 -21 -10 -3 -5 -10
-10 -15 -10 -5 0 -17 14 -27 30 -9 17 -24 30 -31 30z m153 -300 c9 -8 14 -35
14 -84 0 -40 1 -79 3 -86 2 -7 -10 -16 -25 -21 -16 -4 -36 -5 -44 -2 -12 5
-14 17 -9 58 3 29 15 73 27 99 16 38 23 45 34 36z"/>
</g>
</svg>
