<?xml version="1.0" standalone="no"?>
<!DOCTYPE svg PUBLIC "-//W3C//DTD SVG 20010904//EN"
 "http://www.w3.org/TR/2001/REC-SVG-20010904/DTD/svg10.dtd">
<svg version="1.0" xmlns="http://www.w3.org/2000/svg"
 width="56.000000pt" height="56.000000pt" viewBox="0 0 56.000000 56.000000"
 preserveAspectRatio="xMidYMid meet">
<metadata>
Created by potrace 1.16, written by Peter Selinger 2001-2019
</metadata>
<g transform="translate(0.000000,56.000000) scale(0.100000,-0.100000)"
fill="#000000" stroke="none">
<path d="M230 560 c-34 0 -40 -3 -40 -21 0 -11 -18 -46 -40 -77 -22 -31 -54
-76 -71 -100 -18 -25 -32 -59 -34 -80 -2 -20 -7 -52 -10 -70 -5 -22 -2 -40 9
-57 16 -24 16 -27 -9 -59 -14 -18 -25 -42 -25 -53 0 -11 6 -25 13 -31 10 -9
23 -1 55 34 24 24 48 57 54 72 7 15 25 46 40 69 15 23 28 46 28 52 0 6 4 11 9
11 5 0 21 25 37 55 16 30 32 55 36 55 4 0 12 -9 18 -20 6 -11 8 -42 4 -74 -6
-52 -5 -55 17 -60 13 -3 32 -7 43 -8 11 -2 33 -30 56 -72 21 -37 43 -72 51
-76 7 -5 17 -6 21 -4 4 3 8 16 8 30 0 13 -16 45 -36 71 -20 26 -40 59 -46 72
-7 19 -5 35 7 62 9 20 15 45 13 55 -2 11 -12 19 -23 19 -12 0 -21 -9 -25 -24
-3 -14 -11 -26 -17 -28 -6 -2 -17 5 -23 17 -6 11 -9 37 -6 58 3 20 3 29 0 20
-3 -10 -11 -18 -18 -18 -9 0 -12 9 -9 24 4 17 -1 27 -15 35 -11 6 -28 8 -36 5
-11 -4 -16 -19 -16 -48 0 -25 -8 -51 -20 -66 -11 -14 -20 -29 -20 -33 0 -5
-19 -35 -41 -68 -23 -32 -45 -59 -49 -59 -4 0 -14 8 -23 18 -10 10 -17 26 -17
35 0 8 12 29 26 47 25 29 25 32 10 49 -9 10 -16 22 -16 27 0 6 8 19 18 30 9
10 29 35 44 54 14 19 45 55 67 79 23 24 41 45 41 47 0 2 -18 4 -40 4z"/>
<path d="M440 559 c-26 0 -40 -6 -53 -25 -12 -16 -16 -32 -11 -47 7 -22 7 -22
17 0 5 13 19 25 30 29 12 4 26 0 36 -11 15 -15 15 -17 -3 -30 -10 -8 -16 -21
-13 -29 3 -8 20 -17 38 -21 22 -5 34 -3 40 6 5 8 9 23 9 35 0 11 -12 37 -27
57 -23 30 -35 36 -63 36z"/>
<path d="M390 20 c-21 0 -42 -4 -45 -10 -4 -6 13 -10 45 -10 32 0 49 4 45 10
-3 6 -24 10 -45 10z"/>
</g>
</svg>
