<?xml version="1.0" standalone="no"?>
<!DOCTYPE svg PUBLIC "-//W3C//DTD SVG 20010904//EN"
 "http://www.w3.org/TR/2001/REC-SVG-20010904/DTD/svg10.dtd">
<svg version="1.0" xmlns="http://www.w3.org/2000/svg"
 width="56.000000pt" height="56.000000pt" viewBox="0 0 56.000000 56.000000"
 preserveAspectRatio="xMidYMid meet">
<metadata>
Created by potrace 1.16, written by Peter Selinger 2001-2019
</metadata>
<g transform="translate(0.000000,56.000000) scale(0.100000,-0.100000)"
fill="#000000" stroke="none">
<path d="M127 529 c-1 0 -8 -3 -15 -6 -8 -3 -11 -16 -6 -38 4 -20 1 -35 -6
-40 -7 -4 -27 8 -49 29 -20 20 -41 36 -45 36 -5 0 -6 -19 -3 -42 4 -27 14 -49
28 -61 15 -12 31 -16 49 -12 19 4 31 1 41 -11 8 -10 37 -27 65 -40 36 -16 54
-31 63 -53 13 -29 11 -32 -43 -87 -44 -45 -56 -64 -56 -89 0 -18 8 -39 18 -47
9 -9 31 -23 49 -32 22 -11 57 -16 115 -15 46 1 94 4 108 8 14 4 26 14 28 23 2
11 -7 18 -32 22 -19 4 -58 4 -85 0 -28 -3 -61 -4 -74 0 -13 3 -36 18 -50 32
-15 15 -27 31 -27 36 0 5 7 11 15 14 8 3 29 -2 47 -11 32 -16 33 -16 56 10 12
14 22 38 22 54 0 15 5 38 12 52 6 13 27 37 47 52 19 15 46 30 61 33 14 3 42
13 63 21 20 9 37 23 37 31 0 8 -8 21 -17 28 -10 7 -29 14 -42 14 -14 0 -46
-19 -80 -48 -31 -26 -69 -56 -85 -66 -29 -18 -29 -18 -60 16 -17 19 -43 40
-58 46 -17 7 -28 19 -28 31 0 10 7 24 15 31 8 7 15 19 15 27 0 7 -21 23 -46
33 -25 11 -46 20 -47 19z"/>
</g>
</svg>
