<?xml version="1.0" standalone="no"?>
<!DOCTYPE svg PUBLIC "-//W3C//DTD SVG 20010904//EN"
 "http://www.w3.org/TR/2001/REC-SVG-20010904/DTD/svg10.dtd">
<svg version="1.0" xmlns="http://www.w3.org/2000/svg"
 width="56.000000pt" height="56.000000pt" viewBox="0 0 56.000000 56.000000"
 preserveAspectRatio="xMidYMid meet">
<metadata>
Created by potrace 1.16, written by Peter Selinger 2001-2019
</metadata>
<g transform="translate(0.000000,56.000000) scale(0.100000,-0.100000)"
fill="#000000" stroke="none">
<path d="M238 560 c-18 -1 -38 -6 -44 -13 -6 -7 -25 -23 -43 -37 -26 -20 -35
-38 -46 -85 -11 -45 -11 -62 -2 -73 7 -9 24 -12 48 -9 26 3 36 1 33 -7 -2 -6
-35 -36 -74 -66 -38 -30 -73 -67 -79 -82 -8 -23 -7 -28 11 -34 14 -4 28 2 46
19 15 14 37 28 49 31 12 4 24 2 27 -3 4 -5 -5 -26 -19 -47 -14 -20 -25 -40
-25 -45 0 -4 5 -20 11 -36 6 -15 20 -38 31 -51 20 -20 30 -22 135 -22 86 0
113 3 113 13 0 7 -6 21 -13 31 -12 17 -18 17 -50 7 -21 -7 -62 -13 -92 -13
-30 0 -62 5 -70 12 -8 7 -15 20 -15 29 0 9 5 22 12 29 7 7 15 12 18 12 4 0 12
-12 18 -26 7 -14 17 -22 22 -19 6 3 10 21 10 40 0 19 4 45 10 59 5 15 20 30
32 35 13 5 41 14 63 20 22 6 68 18 103 27 62 17 62 17 62 59 0 31 -7 49 -25
69 -23 24 -30 27 -66 21 -22 -4 -52 -13 -67 -21 -15 -7 -39 -26 -53 -41 -14
-15 -31 -42 -38 -60 -7 -17 -20 -34 -28 -37 -9 -4 -22 -1 -29 5 -8 6 -14 17
-14 23 0 6 11 28 25 48 16 23 36 39 55 43 20 4 30 13 30 25 0 11 -19 32 -44
50 -25 16 -49 30 -55 30 -6 0 -11 7 -11 15 0 9 16 25 35 36 19 12 35 25 35 30
0 5 -15 9 -32 9z m-55 -133 c12 -8 21 -18 20 -23 -1 -5 -9 -11 -19 -12 -9 -2
-21 1 -26 6 -6 6 -8 18 -4 27 6 16 9 16 29 2z m225 -87 c23 0 42 -4 42 -9 0
-5 -16 -19 -37 -31 -20 -11 -49 -24 -65 -27 -16 -3 -28 -1 -28 5 0 6 10 22 23
36 17 20 32 26 65 26z"/>
</g>
</svg>
