<?xml version="1.0" standalone="no"?>
<!DOCTYPE svg PUBLIC "-//W3C//DTD SVG 20010904//EN"
 "http://www.w3.org/TR/2001/REC-SVG-20010904/DTD/svg10.dtd">
<svg version="1.0" xmlns="http://www.w3.org/2000/svg"
 width="56.000000pt" height="56.000000pt" viewBox="0 0 56.000000 56.000000"
 preserveAspectRatio="xMidYMid meet">
<metadata>
Created by potrace 1.16, written by Peter Selinger 2001-2019
</metadata>
<g transform="translate(0.000000,56.000000) scale(0.100000,-0.100000)"
fill="#000000" stroke="none">
<path d="M98 498 c-9 2 -23 -6 -30 -17 -7 -12 -20 -21 -28 -21 -9 0 -21 5 -28
12 -9 9 -12 7 -12 -9 0 -12 12 -31 26 -42 15 -12 32 -21 39 -21 7 0 20 -11 28
-23 9 -13 41 -36 72 -52 31 -15 59 -33 61 -40 3 -7 -4 -28 -15 -48 -20 -36
-20 -36 9 -94 24 -47 37 -62 70 -77 22 -9 54 -16 71 -14 18 2 37 11 42 20 8
12 7 24 -1 42 -9 21 -19 26 -47 26 -21 0 -38 6 -41 14 -3 8 4 37 17 65 21 51
21 51 73 51 33 0 69 9 104 25 41 19 52 29 52 47 0 15 -12 31 -34 46 -26 18
-38 21 -58 13 -14 -5 -52 -32 -86 -60 -34 -28 -68 -51 -77 -51 -9 0 -38 20
-64 45 -26 25 -54 45 -62 45 -8 0 -24 8 -36 18 -15 11 -23 30 -25 57 -2 28 -8
41 -20 43z m375 -128 c9 0 17 -4 17 -10 0 -5 -13 -16 -30 -25 -16 -8 -36 -15
-45 -15 -12 0 -8 7 12 25 15 13 36 25 46 25z m-217 -145 c8 -10 14 -29 14 -42
0 -13 -4 -23 -9 -23 -6 0 -17 10 -25 22 -11 16 -12 26 -4 41 10 20 11 20 24 2z"/>
</g>
</svg>
