<?xml version="1.0" standalone="no"?>
<!DOCTYPE svg PUBLIC "-//W3C//DTD SVG 20010904//EN"
 "http://www.w3.org/TR/2001/REC-SVG-20010904/DTD/svg10.dtd">
<svg version="1.0" xmlns="http://www.w3.org/2000/svg"
 width="56.000000pt" height="56.000000pt" viewBox="0 0 56.000000 56.000000"
 preserveAspectRatio="xMidYMid meet">
<metadata>
Created by potrace 1.16, written by Peter Selinger 2001-2019
</metadata>
<g transform="translate(0.000000,56.000000) scale(0.100000,-0.100000)"
fill="#000000" stroke="none">
<path d="M103 460 c-28 0 -32 -3 -35 -32 -2 -17 -9 -33 -16 -36 -6 -2 -16 7
-21 20 -9 23 -9 23 -20 -5 -6 -16 -11 -37 -11 -47 0 -10 3 -25 6 -34 3 -9 17
-16 30 -16 13 0 33 5 44 12 15 10 22 9 37 -4 10 -8 39 -28 66 -43 26 -15 47
-31 47 -36 0 -5 -11 -14 -24 -21 -14 -6 -27 -17 -30 -25 -3 -8 0 -26 8 -41 8
-15 28 -40 44 -56 25 -23 43 -30 99 -36 41 -4 77 -3 91 3 12 6 22 15 22 22 0
6 -5 16 -12 23 -7 7 -38 12 -69 12 -57 0 -57 0 -35 58 17 45 29 61 57 74 18 9
52 17 73 18 22 0 55 5 73 12 23 9 33 18 33 33 0 16 -10 25 -39 35 -36 11 -42
11 -68 -8 -16 -11 -56 -34 -88 -51 -33 -17 -67 -31 -76 -31 -9 0 -24 9 -34 20
-10 11 -23 20 -29 20 -6 0 -24 10 -40 23 -28 23 -28 24 -15 61 13 36 12 38
-11 57 -14 10 -39 19 -57 19z m155 -262 c9 -2 18 -11 20 -21 2 -10 1 -25 -2
-32 -3 -8 -12 -12 -20 -9 -8 3 -18 14 -21 25 -4 10 -3 24 0 29 4 6 14 10 23 8z"/>
<path d="M472 80 c-5 0 -12 -3 -15 -6 -4 -4 -4 -11 -1 -15 3 -5 9 -9 15 -9 5
0 9 7 9 15 0 8 -4 15 -8 15z"/>
</g>
</svg>
