<?xml version="1.0" standalone="no"?>
<!DOCTYPE svg PUBLIC "-//W3C//DTD SVG 20010904//EN"
 "http://www.w3.org/TR/2001/REC-SVG-20010904/DTD/svg10.dtd">
<svg version="1.0" xmlns="http://www.w3.org/2000/svg"
 width="56.000000pt" height="56.000000pt" viewBox="0 0 56.000000 56.000000"
 preserveAspectRatio="xMidYMid meet">
<metadata>
Created by potrace 1.16, written by Peter Selinger 2001-2019
</metadata>
<g transform="translate(0.000000,56.000000) scale(0.100000,-0.100000)"
fill="#000000" stroke="none">
<path d="M191 560 c-6 0 -11 -12 -13 -27 -3 -26 -6 -28 -53 -28 -38 0 -50 -4
-50 -15 0 -10 12 -16 38 -18 20 -2 37 -9 37 -15 0 -7 -9 -23 -20 -37 -11 -14
-20 -29 -20 -33 0 -5 -13 -28 -30 -52 -16 -24 -30 -48 -30 -54 0 -6 9 -11 19
-11 10 0 34 17 51 37 18 20 49 45 68 56 19 10 41 16 48 13 9 -4 14 -21 14 -51
0 -31 -4 -45 -13 -45 -8 0 -23 -10 -35 -23 -12 -13 -22 -29 -22 -37 0 -9 9 -5
25 10 14 13 28 20 32 17 4 -4 0 -29 -9 -56 -8 -27 -12 -54 -8 -60 3 -7 14 -9
24 -5 9 4 26 25 38 48 12 22 21 53 20 67 -1 15 4 32 12 38 8 6 19 10 26 9 7
-2 15 3 17 10 3 8 -6 12 -26 12 -24 0 -31 4 -31 20 0 10 -5 30 -12 44 -6 14
-20 29 -32 32 -11 4 -22 2 -23 -3 -2 -5 -17 -7 -33 -5 -17 2 -30 6 -30 9 0 3
7 20 16 38 9 20 25 36 40 39 13 4 24 12 24 19 0 8 -11 23 -25 35 -14 12 -29
22 -34 22z"/>
<path d="M450 334 c-17 1 -36 -4 -42 -11 -8 -11 -6 -18 11 -34 13 -13 32 -19
49 -17 22 2 27 7 24 27 -1 14 -4 27 -6 29 -3 2 -19 5 -36 6z"/>
<path d="M171 194 c-4 3 -11 3 -15 -1 -3 -3 -6 -26 -6 -50 0 -30 7 -50 22 -69
13 -14 37 -34 55 -45 23 -15 46 -19 80 -17 46 3 48 4 48 33 0 25 -4 30 -25 33
-14 1 -44 5 -68 8 -24 3 -52 14 -63 25 -10 10 -19 32 -19 48 0 17 -4 32 -9 35z"/>
</g>
</svg>
