<?xml version="1.0" standalone="no"?>
<!DOCTYPE svg PUBLIC "-//W3C//DTD SVG 20010904//EN"
 "http://www.w3.org/TR/2001/REC-SVG-20010904/DTD/svg10.dtd">
<svg version="1.0" xmlns="http://www.w3.org/2000/svg"
 width="56.000000pt" height="56.000000pt" viewBox="0 0 56.000000 56.000000"
 preserveAspectRatio="xMidYMid meet">
<metadata>
Created by potrace 1.16, written by Peter Selinger 2001-2019
</metadata>
<g transform="translate(0.000000,56.000000) scale(0.100000,-0.100000)"
fill="#000000" stroke="none">
<path d="M153 559 c-17 -1 -43 -16 -67 -39 -24 -23 -36 -43 -32 -51 3 -8 15
-29 26 -47 20 -33 20 -33 -5 -66 -14 -18 -25 -36 -25 -39 0 -3 15 -17 34 -29
34 -24 34 -24 -14 -123 -33 -70 -45 -106 -40 -120 4 -11 18 -21 31 -22 21 -1
29 8 52 55 15 31 27 64 27 73 0 9 9 24 20 34 11 10 20 24 20 32 0 7 4 13 8 13
4 0 13 -5 20 -12 7 -7 12 -24 12 -38 0 -16 11 -37 26 -51 26 -24 26 -24 46 1
13 16 18 33 15 50 -4 19 0 28 18 36 22 11 26 8 50 -40 15 -28 34 -64 44 -81 9
-16 31 -45 50 -62 18 -18 37 -33 42 -33 5 0 9 20 9 45 0 31 -5 47 -15 51 -8 4
-15 13 -15 21 0 8 -18 35 -39 61 -22 26 -45 60 -50 75 -6 16 -11 41 -11 56 0
23 -8 30 -55 51 -44 19 -52 27 -43 38 9 10 8 20 -5 41 -9 16 -14 31 -10 35 3
3 14 6 24 6 9 0 19 5 21 11 2 6 14 9 27 7 23 -3 23 -3 -7 -38 -17 -19 -28 -38
-24 -42 4 -4 19 -9 33 -13 21 -5 27 -2 37 20 9 19 17 25 31 20 13 -4 25 2 40
21 12 15 21 30 21 35 0 4 -7 14 -15 23 -13 13 -20 13 -56 -2 -38 -15 -42 -15
-51 1 -5 9 -12 17 -17 17 -4 0 -25 -16 -47 -35 -36 -33 -43 -35 -102 -33 -35
1 -65 5 -68 9 -2 4 9 17 26 29 16 12 30 28 30 36 0 9 -10 14 -27 13z m50 -129
c4 0 14 -15 23 -33 16 -32 15 -34 -16 -80 -17 -25 -35 -49 -40 -52 -5 -3 -12
5 -15 17 -4 13 -14 31 -22 40 -12 13 -12 21 -3 40 7 13 24 33 39 45 14 12 29
22 34 23z m132 -100 c9 0 12 -6 9 -15 -4 -8 -10 -15 -15 -15 -5 0 -9 7 -9 15
0 8 7 15 15 15z m-54 -10 c4 0 12 -14 19 -31 12 -28 11 -33 -13 -57 -26 -26
-26 -26 -37 2 -5 15 -10 36 -10 46 0 11 8 24 18 29 9 6 20 11 23 11z"/>
</g>
</svg>
