<?xml version="1.0" standalone="no"?>
<!DOCTYPE svg PUBLIC "-//W3C//DTD SVG 20010904//EN"
 "http://www.w3.org/TR/2001/REC-SVG-20010904/DTD/svg10.dtd">
<svg version="1.0" xmlns="http://www.w3.org/2000/svg"
 width="56.000000pt" height="56.000000pt" viewBox="0 0 56.000000 56.000000"
 preserveAspectRatio="xMidYMid meet">
<metadata>
Created by potrace 1.16, written by Peter Selinger 2001-2019
</metadata>
<g transform="translate(0.000000,56.000000) scale(0.100000,-0.100000)"
fill="#000000" stroke="none">
<path d="M107 539 c-18 0 -45 -8 -62 -18 -21 -12 -33 -30 -40 -56 -8 -33 -7
-40 9 -49 11 -6 28 -22 40 -34 12 -13 36 -30 55 -38 18 -8 43 -14 56 -14 13 0
26 -9 33 -24 10 -23 7 -27 -37 -60 -40 -28 -50 -42 -56 -74 -4 -29 -2 -49 10
-72 10 -19 31 -38 53 -47 20 -9 73 -22 117 -29 73 -12 81 -12 93 3 6 9 9 20 5
24 -5 4 -30 9 -58 10 -27 2 -61 9 -75 16 -14 7 -35 13 -48 13 -14 0 -29 11
-41 31 -10 17 -17 39 -14 49 3 10 15 28 28 40 13 12 28 19 34 16 6 -4 8 -24 5
-50 -4 -27 -2 -46 4 -50 6 -4 20 2 32 14 11 11 20 30 21 43 0 12 1 40 2 61 2
35 6 40 32 48 17 4 62 13 100 19 39 6 83 13 98 15 16 2 35 10 43 18 8 8 14 22
14 30 0 9 -6 16 -14 16 -7 0 -19 7 -26 15 -7 8 -22 15 -35 15 -12 0 -29 -8
-38 -18 -12 -13 -14 -21 -6 -29 8 -8 7 -13 -2 -18 -7 -5 -17 -1 -25 10 -13 18
-17 17 -85 -18 -70 -37 -70 -37 -103 -12 -18 14 -39 25 -47 25 -8 0 -29 9 -47
20 -33 20 -33 22 -18 45 9 13 16 29 16 34 0 5 -9 13 -20 16 -11 3 -20 12 -20
19 0 8 14 16 31 20 17 3 28 10 24 16 -3 5 -21 10 -38 9z m-47 -49 c17 0 18 -3
8 -25 -6 -14 -15 -25 -19 -25 -4 0 -10 7 -13 16 -3 9 -4 20 0 25 3 5 14 9 24
9z"/>
</g>
</svg>
