<?xml version="1.0" standalone="no"?>
<!DOCTYPE svg PUBLIC "-//W3C//DTD SVG 20010904//EN"
 "http://www.w3.org/TR/2001/REC-SVG-20010904/DTD/svg10.dtd">
<svg version="1.0" xmlns="http://www.w3.org/2000/svg"
 width="56.000000pt" height="56.000000pt" viewBox="0 0 56.000000 56.000000"
 preserveAspectRatio="xMidYMid meet">
<metadata>
Created by potrace 1.16, written by Peter Selinger 2001-2019
</metadata>
<g transform="translate(0.000000,56.000000) scale(0.100000,-0.100000)"
fill="#000000" stroke="none">
<path d="M164 514 c-38 5 -54 3 -63 -8 -10 -11 -9 -19 1 -36 11 -17 11 -22 -2
-30 -8 -6 -26 -13 -40 -16 -14 -3 -31 -8 -39 -10 -9 -3 -11 -8 -5 -13 5 -5 26
-14 46 -20 30 -10 42 -9 67 3 16 9 36 16 44 16 7 0 34 -20 60 -45 26 -24 47
-49 47 -54 0 -5 -26 -29 -57 -54 -57 -43 -58 -45 -56 -91 1 -34 9 -57 28 -81
24 -32 31 -35 77 -35 29 0 67 5 85 12 27 10 38 10 53 0 11 -7 35 -12 53 -12
22 0 41 8 55 23 12 13 22 30 22 39 0 8 -8 22 -18 31 -10 10 -31 17 -46 17 -15
0 -47 -9 -70 -20 -24 -11 -61 -22 -83 -26 -24 -4 -49 -1 -62 6 -12 6 -26 21
-30 33 -6 15 -4 27 7 40 10 11 30 17 59 17 39 0 46 3 65 35 11 20 33 42 49 50
15 8 37 15 49 15 11 0 38 6 60 12 38 12 40 15 40 52 0 25 -6 43 -17 52 -10 7
-27 13 -38 14 -11 0 -30 -6 -42 -13 -12 -6 -42 -27 -68 -44 -25 -18 -51 -33
-58 -33 -7 1 -37 24 -68 53 -51 47 -56 54 -46 75 6 14 7 26 1 31 -5 5 -32 11
-60 15z"/>
</g>
</svg>
