<?xml version="1.0" standalone="no"?>
<!DOCTYPE svg PUBLIC "-//W3C//DTD SVG 20010904//EN"
 "http://www.w3.org/TR/2001/REC-SVG-20010904/DTD/svg10.dtd">
<svg version="1.0" xmlns="http://www.w3.org/2000/svg"
 width="56.000000pt" height="56.000000pt" viewBox="0 0 56.000000 56.000000"
 preserveAspectRatio="xMidYMid meet">
<metadata>
Created by potrace 1.16, written by Peter Selinger 2001-2019
</metadata>
<g transform="translate(0.000000,56.000000) scale(0.100000,-0.100000)"
fill="#000000" stroke="none">
<path d="M141 490 c-5 0 -13 -6 -18 -12 -4 -7 -13 -22 -18 -33 -6 -11 -21 -22
-34 -23 -13 -2 -28 1 -34 7 -6 6 -17 11 -24 11 -7 0 -13 -6 -13 -12 1 -7 9
-23 19 -35 11 -13 27 -23 38 -23 10 0 24 4 31 8 9 6 33 -12 76 -56 44 -44 66
-75 70 -98 5 -23 2 -41 -9 -58 -15 -22 -14 -25 7 -49 13 -14 49 -34 80 -45 55
-19 58 -19 73 -2 15 17 15 19 -7 34 -13 9 -40 19 -60 23 -21 3 -38 11 -38 17
0 6 21 32 46 59 25 26 48 47 51 47 4 0 13 7 22 15 9 8 35 30 58 49 24 19 56
40 73 48 21 9 30 20 30 35 0 18 -6 23 -26 23 -14 0 -35 -5 -47 -11 -12 -6 -61
-50 -109 -97 -59 -58 -91 -83 -102 -79 -9 4 -16 17 -16 30 0 14 -19 41 -50 72
-30 29 -50 58 -50 71 0 12 7 24 15 28 8 3 15 12 15 20 0 9 -9 20 -19 26 -11 5
-24 10 -30 10z"/>
</g>
</svg>
