<?xml version="1.0" standalone="no"?>
<!DOCTYPE svg PUBLIC "-//W3C//DTD SVG 20010904//EN"
 "http://www.w3.org/TR/2001/REC-SVG-20010904/DTD/svg10.dtd">
<svg version="1.0" xmlns="http://www.w3.org/2000/svg"
 width="128.000000pt" height="128.000000pt" viewBox="0 0 128.000000 128.000000"
 preserveAspectRatio="xMidYMid meet">
<metadata>
Created by potrace 1.16, written by Peter Selinger 2001-2019
</metadata>
<g transform="translate(0.000000,128.000000) scale(0.100000,-0.100000)"
fill="#000000" stroke="none">
<path d="M786 1280 c-8 0 -18 -9 -21 -21 -4 -11 -4 -23 -1 -27 4 -3 -8 -20
-25 -38 -31 -32 -31 -32 -9 -73 11 -23 18 -47 14 -53 -4 -6 -9 -36 -10 -66 -2
-30 -9 -64 -17 -76 -7 -11 -20 -49 -27 -84 -7 -35 -20 -70 -28 -78 -8 -8 -22
-14 -31 -12 -8 2 -19 14 -22 28 -4 14 -14 78 -23 144 -8 65 -22 129 -30 141
-8 12 -27 25 -43 27 -15 3 -35 8 -44 12 -12 5 -25 -2 -43 -21 -14 -15 -26 -33
-26 -40 0 -9 15 -13 45 -13 39 0 46 -4 60 -30 8 -16 15 -36 15 -45 0 -8 -11
-20 -24 -25 -13 -5 -63 -13 -111 -18 -47 -6 -95 -8 -106 -5 -14 4 -19 0 -19
-14 0 -11 11 -30 24 -43 19 -17 32 -21 53 -16 15 4 44 11 63 16 19 5 52 13 73
18 20 6 39 7 41 3 2 -3 7 -31 10 -63 5 -40 4 -58 -5 -64 -7 -4 -29 -8 -48 -8
-30 -1 -36 -4 -33 -21 1 -11 7 -58 12 -105 5 -47 10 -109 10 -137 0 -35 4 -53
13 -54 6 0 32 0 57 1 25 1 49 6 54 11 6 5 25 9 43 9 26 0 33 -4 33 -20 0 -13
-10 -24 -26 -30 -14 -6 -54 -10 -90 -10 -58 0 -66 -2 -73 -22 -4 -12 -6 -31
-3 -41 4 -15 14 -18 71 -16 36 1 76 5 88 10 15 5 25 3 35 -9 8 -9 14 -30 13
-47 -1 -16 -3 -35 -4 -41 0 -5 -7 -19 -15 -29 -13 -18 -15 -18 -46 8 -17 15
-36 27 -41 27 -5 0 -9 -6 -9 -12 0 -7 12 -47 26 -88 14 -41 32 -85 40 -98 8
-13 25 -22 39 -22 13 0 31 7 39 16 11 10 16 35 17 77 0 34 6 102 12 152 12 90
12 90 97 91 47 0 95 4 108 8 12 4 22 13 22 19 0 7 -20 24 -44 39 -24 16 -51
28 -61 28 -9 0 -30 -9 -46 -21 -16 -11 -39 -19 -52 -17 -20 3 -22 9 -23 72 -1
37 -4 81 -8 97 -4 21 -1 29 13 34 10 3 26 2 36 -1 15 -6 17 -15 11 -66 -5 -48
-3 -60 10 -65 8 -3 19 -2 25 4 5 5 18 42 30 83 11 41 25 82 30 90 5 8 16 27
24 42 15 27 14 29 -27 74 -39 43 -45 45 -80 40 -21 -3 -40 -2 -43 4 -4 6 6 36
20 67 27 56 27 56 110 49 50 -3 86 -2 90 4 3 5 0 18 -7 29 -7 11 -30 26 -53
34 -22 9 -52 18 -68 21 -27 6 -27 8 -21 64 3 31 7 66 9 77 3 12 -5 35 -15 53
-11 18 -20 44 -20 57 0 15 -6 25 -14 25z m0 -541 c6 1 17 -6 24 -14 7 -8 10
-25 6 -40 -3 -13 -20 -32 -37 -40 -16 -9 -39 -13 -49 -10 -11 4 -21 15 -22 26
-1 10 -2 26 -2 36 -1 10 12 21 34 29 19 7 40 13 46 13z m-199 -41 c66 -3 66
-3 79 -41 11 -33 11 -39 -2 -44 -8 -3 -39 -2 -70 2 -34 4 -63 14 -75 26 -16
16 -17 24 -9 40 10 17 19 20 77 17z m10 -140 c54 -3 58 -5 58 -28 0 -16 -9
-29 -27 -39 -20 -11 -34 -13 -54 -6 -15 6 -31 17 -37 26 -6 9 -7 24 -4 33 6
14 18 16 64 14z"/>
<path d="M353 280 c-20 0 -23 -5 -23 -37 1 -22 12 -59 29 -88 15 -27 35 -51
43 -53 10 -2 31 16 52 44 20 26 36 50 36 54 0 4 -18 15 -40 25 -22 10 -47 26
-56 36 -10 11 -28 19 -41 19z"/>
<path d="M920 274 c-8 3 -20 2 -25 -2 -6 -4 -22 -25 -38 -48 -15 -22 -27 -45
-27 -51 0 -6 7 -14 16 -17 9 -3 38 -6 66 -6 34 0 59 6 79 21 16 11 29 28 29
38 0 10 -8 25 -17 33 -10 9 -29 18 -43 20 -14 3 -32 8 -40 12z"/>
</g>
</svg>
