<?xml version="1.0" standalone="no"?>
<!DOCTYPE svg PUBLIC "-//W3C//DTD SVG 20010904//EN"
 "http://www.w3.org/TR/2001/REC-SVG-20010904/DTD/svg10.dtd">
<svg version="1.0" xmlns="http://www.w3.org/2000/svg"
 width="56.000000pt" height="56.000000pt" viewBox="0 0 56.000000 56.000000"
 preserveAspectRatio="xMidYMid meet">
<metadata>
Created by potrace 1.16, written by Peter Selinger 2001-2019
</metadata>
<g transform="translate(0.000000,56.000000) scale(0.100000,-0.100000)"
fill="#000000" stroke="none">
<path d="M201 560 c-22 0 -41 -3 -41 -7 0 -4 12 -20 27 -35 15 -15 37 -28 49
-28 13 0 24 8 26 18 3 10 0 26 -7 35 -8 11 -26 17 -54 17z"/>
<path d="M411 560 c-4 0 -13 -10 -19 -22 -6 -13 -16 -45 -21 -73 -6 -27 -13
-63 -16 -80 -4 -16 -10 -39 -14 -50 -5 -11 -13 -31 -18 -45 -6 -14 -20 -45
-32 -68 -11 -24 -21 -50 -21 -57 0 -7 -25 -38 -55 -69 -34 -36 -61 -56 -72
-54 -10 2 -27 21 -38 43 -15 30 -21 65 -23 145 -3 63 1 126 9 159 7 29 18 55
25 58 8 3 27 -5 43 -16 16 -12 35 -35 43 -51 7 -16 19 -32 26 -35 8 -3 18 -3
23 1 5 3 9 11 9 18 0 6 -25 35 -56 64 -39 37 -64 52 -83 52 -23 0 -32 -8 -51
-45 -21 -40 -23 -58 -23 -182 1 -121 3 -144 23 -185 12 -26 28 -52 36 -59 8
-7 27 -9 47 -5 20 4 47 21 69 44 19 20 48 57 65 82 16 25 39 70 51 100 11 30
26 73 33 95 6 22 16 51 22 65 10 23 12 19 18 -35 3 -33 10 -78 13 -100 4 -22
17 -78 28 -125 11 -47 26 -91 33 -99 7 -7 18 -10 24 -7 6 4 11 14 11 22 0 8
-13 63 -29 122 -16 59 -34 130 -40 157 -5 28 -13 84 -16 125 -4 41 -9 83 -11
93 -3 9 -9 17 -13 17z"/>
</g>
</svg>
