<?xml version="1.0" standalone="no"?>
<!DOCTYPE svg PUBLIC "-//W3C//DTD SVG 20010904//EN"
 "http://www.w3.org/TR/2001/REC-SVG-20010904/DTD/svg10.dtd">
<svg version="1.0" xmlns="http://www.w3.org/2000/svg"
 width="56.000000pt" height="56.000000pt" viewBox="0 0 56.000000 56.000000"
 preserveAspectRatio="xMidYMid meet">
<metadata>
Created by potrace 1.16, written by Peter Selinger 2001-2019
</metadata>
<g transform="translate(0.000000,56.000000) scale(0.100000,-0.100000)"
fill="#000000" stroke="none">
<path d="M206 560 c-31 0 -56 -4 -56 -9 0 -6 4 -12 9 -16 6 -3 1 -24 -11 -48
-11 -23 -25 -53 -31 -67 -5 -14 -13 -33 -18 -42 -5 -10 -9 -29 -9 -42 0 -14
-4 -27 -9 -30 -5 -3 -12 -25 -16 -48 -3 -24 -9 -81 -11 -127 -4 -57 -2 -92 7
-108 8 -15 21 -23 38 -23 15 0 43 11 63 25 21 14 51 45 68 69 16 25 30 49 30
55 0 6 9 26 20 46 11 20 20 44 20 55 0 10 5 22 10 25 6 3 10 19 10 36 0 16 6
38 12 49 10 15 10 22 0 32 -9 9 -15 3 -27 -25 -8 -20 -15 -47 -15 -61 0 -14
-4 -28 -10 -31 -5 -3 -10 -17 -10 -30 0 -13 -4 -27 -10 -30 -5 -3 -10 -15 -10
-26 0 -10 -3 -19 -8 -19 -4 0 -13 -15 -21 -32 -8 -18 -30 -48 -49 -65 -19 -18
-42 -33 -51 -33 -9 0 -22 5 -29 12 -7 7 -12 40 -12 79 0 37 5 71 10 74 6 3 10
24 10 45 0 21 5 42 10 45 6 3 10 17 10 31 0 13 4 32 9 42 5 9 14 31 21 47 7
17 18 41 26 55 7 14 19 28 26 31 7 3 22 10 33 16 11 6 21 18 23 27 3 13 -6 16
-52 16z"/>
<path d="M421 399 c-12 16 -21 20 -25 12 -4 -6 -4 -17 1 -23 4 -7 11 -38 16
-68 4 -30 11 -77 13 -105 3 -27 10 -54 15 -60 5 -5 9 -33 9 -62 0 -42 4 -54
20 -63 16 -9 22 -8 27 5 3 9 1 33 -5 53 -6 20 -14 51 -17 67 -4 17 -11 55 -16
85 -6 30 -12 73 -15 95 -3 23 -14 51 -23 64z"/>
</g>
</svg>
