<?xml version="1.0" standalone="no"?>
<!DOCTYPE svg PUBLIC "-//W3C//DTD SVG 20010904//EN"
 "http://www.w3.org/TR/2001/REC-SVG-20010904/DTD/svg10.dtd">
<svg version="1.0" xmlns="http://www.w3.org/2000/svg"
 width="56.000000pt" height="56.000000pt" viewBox="0 0 56.000000 56.000000"
 preserveAspectRatio="xMidYMid meet">
<metadata>
Created by potrace 1.16, written by Peter Selinger 2001-2019
</metadata>
<g transform="translate(0.000000,56.000000) scale(0.100000,-0.100000)"
fill="#000000" stroke="none">
<path d="M535 560 c-14 0 -25 -5 -25 -10 0 -6 7 -22 16 -35 9 -14 20 -25 25
-25 5 0 9 16 9 35 0 31 -3 35 -25 35z"/>
<path d="M396 540 c-12 0 -27 -5 -34 -12 -7 -7 -12 -17 -12 -24 0 -6 7 -17 15
-24 8 -7 17 -28 21 -49 4 -20 11 -41 16 -48 5 -7 6 -18 2 -25 -4 -6 -8 -23 -9
-36 0 -13 3 -26 7 -28 4 -3 8 -20 8 -37 0 -18 9 -50 20 -72 11 -21 17 -42 12
-45 -4 -4 -30 -23 -58 -43 -29 -20 -56 -37 -62 -37 -6 0 -34 -12 -63 -28 -54
-27 -54 -27 -16 -30 24 -2 56 5 90 22 28 13 69 30 90 36 21 7 48 10 59 7 12
-4 30 -2 40 4 10 6 18 21 18 36 0 14 -16 67 -36 117 -20 50 -40 116 -45 146
-5 30 -12 75 -15 100 -4 25 -11 51 -17 58 -5 6 -19 12 -31 12z"/>
<path d="M137 529 c-29 0 -63 -5 -76 -10 -14 -6 -21 -13 -15 -18 5 -5 26 -14
47 -21 25 -8 37 -17 37 -30 0 -10 -13 -29 -29 -42 -17 -13 -44 -42 -60 -65
-18 -25 -31 -55 -30 -70 0 -16 6 -42 12 -58 7 -17 19 -40 27 -51 8 -11 35 -35
59 -52 24 -18 52 -32 62 -32 11 0 29 17 45 42 14 24 34 55 45 70 10 15 19 38
19 52 0 14 9 40 19 58 10 18 22 50 25 70 6 31 4 37 -8 32 -8 -3 -18 -14 -21
-25 -4 -10 -11 -19 -16 -19 -5 0 -9 -5 -9 -11 0 -5 -11 -26 -25 -46 -13 -20
-32 -60 -41 -90 -9 -29 -22 -53 -29 -53 -7 0 -24 9 -39 21 -14 11 -33 34 -41
49 -8 16 -15 41 -15 56 0 16 12 45 26 65 14 20 48 56 75 79 27 22 49 45 49 49
0 4 -9 17 -20 29 -17 17 -32 22 -73 21z"/>
</g>
</svg>
