<?xml version="1.0" standalone="no"?>
<!DOCTYPE svg PUBLIC "-//W3C//DTD SVG 20010904//EN"
 "http://www.w3.org/TR/2001/REC-SVG-20010904/DTD/svg10.dtd">
<svg version="1.0" xmlns="http://www.w3.org/2000/svg"
 width="56.000000pt" height="56.000000pt" viewBox="0 0 56.000000 56.000000"
 preserveAspectRatio="xMidYMid meet">
<metadata>
Created by potrace 1.16, written by Peter Selinger 2001-2019
</metadata>
<g transform="translate(0.000000,56.000000) scale(0.100000,-0.100000)"
fill="#000000" stroke="none">
<path d="M237 560 c-26 0 -35 -6 -48 -33 -11 -24 -13 -39 -5 -59 8 -22 5 -31
-17 -57 -14 -17 -28 -40 -32 -51 -3 -11 -10 -20 -15 -20 -4 0 -18 -21 -31 -47
-19 -40 -23 -64 -23 -144 0 -74 4 -103 17 -123 15 -22 25 -26 68 -26 29 0 63
7 79 16 15 9 34 28 43 43 9 14 26 38 38 53 12 15 28 45 36 65 7 21 13 54 13
73 0 19 3 45 6 58 4 12 9 22 13 22 4 0 22 -48 41 -106 19 -58 41 -108 48 -111
7 -3 18 -1 24 5 8 8 8 23 -1 54 -8 24 -17 52 -22 63 -5 11 -21 63 -35 115 -14
52 -28 107 -31 122 -3 15 -11 33 -19 39 -10 8 -18 9 -27 0 -10 -8 -16 -52 -20
-148 -4 -75 -12 -142 -17 -147 -6 -6 -10 -18 -10 -28 0 -10 -6 -28 -12 -40 -7
-12 -21 -31 -30 -42 -10 -11 -18 -23 -18 -28 0 -5 -20 -18 -45 -30 -34 -17
-50 -20 -62 -12 -10 6 -21 24 -25 40 -5 16 -6 58 -3 94 3 35 9 69 14 75 4 5
13 29 21 53 7 24 35 68 62 98 26 30 48 64 48 75 0 11 -5 29 -10 40 -6 11 -7
19 -1 19 5 0 11 7 15 15 4 11 -2 15 -27 15z"/>
<path d="M382 29 c-11 6 -26 4 -45 -5 -15 -8 -27 -17 -27 -19 0 -3 23 -5 51
-5 31 0 48 4 44 10 -3 5 -14 14 -23 19z"/>
</g>
</svg>
