<?xml version="1.0" standalone="no"?>
<!DOCTYPE svg PUBLIC "-//W3C//DTD SVG 20010904//EN"
 "http://www.w3.org/TR/2001/REC-SVG-20010904/DTD/svg10.dtd">
<svg version="1.0" xmlns="http://www.w3.org/2000/svg"
 width="56.000000pt" height="56.000000pt" viewBox="0 0 56.000000 56.000000"
 preserveAspectRatio="xMidYMid meet">
<metadata>
Created by potrace 1.16, written by Peter Selinger 2001-2019
</metadata>
<g transform="translate(0.000000,56.000000) scale(0.100000,-0.100000)"
fill="#000000" stroke="none">
<path d="M233 559 c-25 0 -46 -8 -60 -22 -14 -14 -23 -35 -23 -52 0 -23 -14
-45 -59 -92 -40 -42 -64 -75 -71 -103 -6 -22 -9 -68 -7 -103 2 -40 10 -73 22
-92 11 -16 34 -45 51 -62 29 -31 36 -33 97 -33 36 0 77 4 90 9 13 5 47 31 74
58 33 32 53 61 57 83 4 19 10 54 13 78 3 27 1 42 -6 42 -6 0 -13 -12 -17 -27
-3 -16 -18 -53 -32 -83 -20 -40 -42 -64 -81 -92 -41 -28 -61 -36 -87 -34 -19
2 -46 14 -59 26 -14 13 -34 48 -45 78 -11 29 -21 63 -22 75 -1 12 4 42 12 67
9 33 24 54 54 76 23 17 54 34 69 38 15 4 30 13 34 21 3 8 -2 33 -11 55 -8 22
-13 46 -10 55 3 8 17 15 30 15 13 0 24 5 24 10 0 6 -17 10 -37 9z"/>
<path d="M433 400 c-23 0 -25 -3 -19 -31 3 -17 12 -45 19 -62 8 -18 24 -59 37
-92 13 -33 31 -73 40 -90 9 -16 24 -31 33 -33 14 -3 17 5 17 37 0 23 -4 41 -8
41 -5 0 -18 24 -30 53 -12 28 -26 74 -32 102 -6 27 -16 55 -22 62 -6 7 -22 13
-35 13z"/>
</g>
</svg>
