<?xml version="1.0" standalone="no"?>
<!DOCTYPE svg PUBLIC "-//W3C//DTD SVG 20010904//EN"
 "http://www.w3.org/TR/2001/REC-SVG-20010904/DTD/svg10.dtd">
<svg version="1.0" xmlns="http://www.w3.org/2000/svg"
 width="56.000000pt" height="56.000000pt" viewBox="0 0 56.000000 56.000000"
 preserveAspectRatio="xMidYMid meet">
<metadata>
Created by potrace 1.16, written by Peter Selinger 2001-2019
</metadata>
<g transform="translate(0.000000,56.000000) scale(0.100000,-0.100000)"
fill="#000000" stroke="none">
<path d="M178 560 c-10 0 -18 -4 -18 -9 0 -5 -15 -14 -33 -20 -19 -7 -41 -9
-50 -5 -10 3 -17 1 -17 -4 0 -6 7 -17 15 -26 8 -8 15 -23 15 -34 0 -10 -11
-39 -23 -65 -20 -38 -23 -60 -22 -124 1 -50 8 -89 18 -108 9 -16 24 -33 34
-37 10 -3 29 -7 42 -7 14 -1 40 9 58 21 18 13 36 32 39 43 4 11 19 38 33 60
14 22 42 73 61 112 27 56 40 73 56 73 14 0 24 -8 28 -22 4 -17 8 -20 17 -11 6
6 12 24 12 39 0 17 -9 35 -23 46 -12 10 -30 18 -40 18 -9 0 -24 -8 -32 -17 -8
-10 -22 -34 -32 -53 -9 -19 -21 -42 -26 -50 -5 -8 -17 -33 -27 -55 -9 -22 -28
-56 -40 -75 -12 -19 -30 -43 -40 -52 -9 -10 -27 -18 -40 -18 -16 0 -27 8 -34
27 -6 16 -11 58 -10 94 0 36 7 81 15 100 8 19 27 45 43 57 15 11 37 28 48 36
18 13 18 17 6 40 -8 14 -23 26 -33 26z"/>
<path d="M453 378 c-7 2 -16 -4 -19 -12 -4 -9 -2 -29 4 -44 6 -15 13 -45 16
-66 4 -29 0 -45 -14 -63 -11 -14 -49 -58 -86 -99 -37 -41 -73 -74 -80 -74 -7
0 -16 -4 -19 -10 -4 -6 18 -10 60 -10 42 0 64 4 60 10 -3 6 -16 10 -28 10 -19
0 -17 4 17 33 21 17 59 51 83 75 24 24 48 54 53 68 7 17 5 36 -4 62 -7 20 -18
55 -22 76 -5 22 -15 41 -21 44z"/>
</g>
</svg>
