<?xml version="1.0" standalone="no"?>
<!DOCTYPE svg PUBLIC "-//W3C//DTD SVG 20010904//EN"
 "http://www.w3.org/TR/2001/REC-SVG-20010904/DTD/svg10.dtd">
<svg version="1.0" xmlns="http://www.w3.org/2000/svg"
 width="56.000000pt" height="56.000000pt" viewBox="0 0 56.000000 56.000000"
 preserveAspectRatio="xMidYMid meet">
<metadata>
Created by potrace 1.16, written by Peter Selinger 2001-2019
</metadata>
<g transform="translate(0.000000,56.000000) scale(0.100000,-0.100000)"
fill="#000000" stroke="none">
<path d="M158 560 c-1 -1 -8 -6 -15 -13 -7 -7 -18 -17 -26 -24 -8 -6 -17 -30
-21 -52 -4 -25 -12 -41 -20 -41 -8 0 -21 -19 -29 -42 -9 -24 -23 -66 -31 -95
-9 -28 -16 -68 -16 -88 0 -20 11 -61 26 -90 14 -30 39 -66 55 -80 17 -14 42
-25 55 -25 14 0 41 9 62 19 20 11 43 29 50 42 8 12 22 37 33 56 10 18 19 44
19 56 0 13 4 27 9 32 4 6 18 44 31 86 12 41 29 83 36 94 11 14 16 16 28 6 8
-7 18 -31 21 -54 4 -23 12 -51 18 -62 6 -11 10 -23 9 -26 0 -4 3 -33 8 -64 6
-35 19 -70 35 -91 14 -19 35 -34 46 -34 15 0 19 7 19 35 0 22 -8 44 -20 57
-11 12 -20 30 -20 40 0 11 -8 33 -17 51 -9 18 -20 50 -25 72 -5 22 -13 60 -17
85 -5 25 -12 54 -17 65 -4 11 -14 26 -21 33 -7 8 -21 12 -30 10 -11 -2 -20
-16 -24 -38 -3 -19 -13 -49 -22 -67 -9 -18 -17 -39 -17 -47 0 -9 -11 -41 -25
-73 -14 -32 -32 -71 -40 -86 -8 -16 -15 -36 -15 -46 0 -10 -21 -31 -49 -49
-27 -18 -56 -32 -65 -32 -9 0 -28 18 -43 41 -15 23 -29 55 -31 73 -2 17 -3 47
-3 67 0 20 7 59 16 85 9 27 23 58 31 69 8 11 25 20 39 20 13 1 31 7 39 14 9 8
16 25 16 40 -1 14 -9 36 -19 49 -11 12 -21 22 -23 22z"/>
<path d="M150 290 c-15 0 -20 -5 -18 -17 2 -10 10 -18 18 -18 8 0 16 8 18 18
2 12 -3 17 -18 17z"/>
</g>
</svg>
