<?xml version="1.0" standalone="no"?>
<!DOCTYPE svg PUBLIC "-//W3C//DTD SVG 20010904//EN"
 "http://www.w3.org/TR/2001/REC-SVG-20010904/DTD/svg10.dtd">
<svg version="1.0" xmlns="http://www.w3.org/2000/svg"
 width="56.000000pt" height="56.000000pt" viewBox="0 0 56.000000 56.000000"
 preserveAspectRatio="xMidYMid meet">
<metadata>
Created by potrace 1.16, written by Peter Selinger 2001-2019
</metadata>
<g transform="translate(0.000000,56.000000) scale(0.100000,-0.100000)"
fill="#000000" stroke="none">
<path d="M423 559 c-4 0 -18 -10 -30 -22 -12 -12 -36 -48 -52 -81 -17 -32 -31
-66 -31 -75 0 -10 -9 -36 -20 -59 -11 -22 -20 -54 -20 -70 0 -16 -7 -49 -15
-74 -9 -25 -29 -58 -45 -73 -24 -23 -34 -26 -63 -21 -19 4 -47 16 -61 27 -20
16 -26 29 -26 61 0 30 16 73 61 162 34 66 65 125 70 130 5 6 9 20 9 32 0 12
-7 27 -15 34 -12 10 -22 9 -50 -4 -20 -10 -46 -16 -58 -14 -16 2 -22 -2 -22
-16 0 -10 7 -22 15 -27 8 -4 23 -10 33 -13 15 -5 14 -12 -17 -73 -19 -38 -41
-90 -50 -116 -9 -26 -16 -75 -16 -108 0 -53 3 -63 28 -85 15 -15 39 -32 53
-40 15 -7 42 -15 60 -18 19 -2 44 -8 56 -11 21 -7 22 -5 17 22 -5 24 1 40 30
80 20 28 36 59 36 68 0 10 4 32 9 49 6 17 15 58 21 91 7 33 17 74 23 90 6 17
20 45 30 63 15 26 22 30 33 21 8 -6 12 -14 10 -18 -3 -4 0 -43 5 -86 6 -44 19
-120 30 -168 18 -74 19 -90 7 -104 -7 -9 -44 -37 -83 -62 -70 -46 -70 -46 -35
-49 24 -3 56 7 103 29 45 22 69 40 73 55 3 11 0 59 -6 105 -6 46 -17 116 -25
154 -7 39 -17 95 -20 125 -5 33 -15 62 -26 73 -10 9 -22 17 -26 16z"/>
</g>
</svg>
