<?xml version="1.0" standalone="no"?>
<!DOCTYPE svg PUBLIC "-//W3C//DTD SVG 20010904//EN"
 "http://www.w3.org/TR/2001/REC-SVG-20010904/DTD/svg10.dtd">
<svg version="1.0" xmlns="http://www.w3.org/2000/svg"
 width="56.000000pt" height="56.000000pt" viewBox="0 0 56.000000 56.000000"
 preserveAspectRatio="xMidYMid meet">
<metadata>
Created by potrace 1.16, written by Peter Selinger 2001-2019
</metadata>
<g transform="translate(0.000000,56.000000) scale(0.100000,-0.100000)"
fill="#000000" stroke="none">
<path d="M60 560 c-16 0 -30 -4 -30 -8 0 -5 6 -15 13 -24 6 -8 26 -25 44 -36
17 -12 41 -22 52 -22 12 0 24 7 28 15 3 9 -3 25 -12 35 -10 11 -29 20 -42 20
-12 0 -23 5 -23 10 0 6 -13 10 -30 10z"/>
<path d="M59 409 c-31 26 -40 29 -45 17 -3 -8 4 -33 16 -54 22 -39 22 -39 1
-80 -12 -23 -21 -48 -21 -57 0 -9 6 -17 13 -20 6 -2 29 -6 50 -10 20 -3 37
-11 37 -17 0 -6 -18 -38 -40 -71 -27 -40 -40 -70 -38 -86 3 -26 3 -26 122 -29
83 -2 123 1 133 10 8 7 23 17 32 23 10 5 33 20 52 33 19 13 52 45 74 72 22 27
45 49 52 49 7 1 17 10 23 20 5 11 10 37 10 59 0 24 -9 52 -23 73 -20 30 -29
35 -75 39 -37 4 -56 2 -64 -7 -7 -9 -5 -14 8 -18 11 -3 35 -14 54 -23 22 -11
36 -25 38 -39 2 -13 -10 -43 -29 -70 -17 -27 -54 -71 -82 -100 -28 -29 -53
-50 -57 -48 -4 2 -1 32 6 67 8 35 14 77 14 94 0 16 4 34 9 40 5 5 12 29 16 52
7 42 6 43 -14 33 -12 -7 -21 -22 -21 -36 0 -13 -4 -27 -10 -30 -6 -3 -10 -26
-10 -50 0 -24 -4 -47 -10 -50 -6 -3 -10 -30 -10 -60 0 -35 -5 -59 -16 -69 -10
-11 -34 -16 -73 -16 -32 0 -61 3 -64 7 -4 3 0 15 10 25 9 10 22 28 29 41 7 12
21 37 31 55 13 25 15 37 7 50 -7 10 -33 20 -65 26 -30 4 -55 9 -57 11 -2 2 5
20 16 42 10 21 17 45 15 54 -2 9 -22 31 -44 48z"/>
<path d="M414 38 c-10 3 -15 -1 -12 -10 3 -7 10 -13 16 -13 7 0 12 5 13 10 0
6 -7 12 -17 13z"/>
</g>
</svg>
