<?xml version="1.0" standalone="no"?>
<!DOCTYPE svg PUBLIC "-//W3C//DTD SVG 20010904//EN"
 "http://www.w3.org/TR/2001/REC-SVG-20010904/DTD/svg10.dtd">
<svg version="1.0" xmlns="http://www.w3.org/2000/svg"
 width="56.000000pt" height="56.000000pt" viewBox="0 0 56.000000 56.000000"
 preserveAspectRatio="xMidYMid meet">
<metadata>
Created by potrace 1.16, written by Peter Selinger 2001-2019
</metadata>
<g transform="translate(0.000000,56.000000) scale(0.100000,-0.100000)"
fill="#000000" stroke="none">
<path d="M255 560 c-14 0 -25 -4 -25 -8 0 -4 -12 -15 -27 -24 -16 -9 -38 -25
-50 -36 -13 -11 -23 -28 -23 -38 0 -11 -13 -33 -29 -49 -15 -17 -33 -40 -39
-52 -7 -12 -12 -65 -12 -118 0 -54 5 -106 12 -118 6 -12 27 -41 45 -64 19 -23
43 -45 53 -48 10 -3 43 7 76 24 53 27 62 36 87 91 16 33 35 88 43 123 9 35 12
78 8 100 -3 22 -11 36 -17 34 -7 -2 -11 -17 -9 -34 2 -17 -3 -54 -11 -81 -9
-27 -23 -65 -33 -83 -9 -19 -31 -51 -48 -71 -18 -22 -40 -38 -53 -38 -12 0
-35 11 -51 25 -23 19 -31 37 -39 87 -6 35 -9 81 -7 104 2 22 8 52 13 67 7 17
26 34 56 47 30 14 45 27 45 40 0 10 -4 22 -10 25 -5 3 -10 9 -10 13 0 4 18 18
40 32 22 14 40 30 40 37 0 7 -11 13 -25 13z"/>
<path d="M387 480 c-9 0 -17 -6 -17 -14 0 -8 4 -17 9 -20 4 -3 12 -29 15 -58
4 -29 10 -70 13 -91 3 -20 9 -40 14 -43 5 -3 9 -14 9 -25 0 -10 4 -27 9 -37 5
-9 12 -25 15 -35 4 -11 13 -17 23 -15 11 2 19 14 21 32 2 16 -1 39 -6 50 -6
12 -19 53 -31 91 -12 39 -21 84 -21 101 0 17 -8 38 -18 47 -10 10 -26 17 -35
17z"/>
</g>
</svg>
