<?xml version="1.0" standalone="no"?>
<!DOCTYPE svg PUBLIC "-//W3C//DTD SVG 20010904//EN"
 "http://www.w3.org/TR/2001/REC-SVG-20010904/DTD/svg10.dtd">
<svg version="1.0" xmlns="http://www.w3.org/2000/svg"
 width="56.000000pt" height="56.000000pt" viewBox="0 0 56.000000 56.000000"
 preserveAspectRatio="xMidYMid meet">
<metadata>
Created by potrace 1.16, written by Peter Selinger 2001-2019
</metadata>
<g transform="translate(0.000000,56.000000) scale(0.100000,-0.100000)"
fill="#000000" stroke="none">
<path d="M156 560 c-9 0 -20 -9 -26 -21 -9 -16 -8 -24 4 -38 9 -10 16 -22 16
-27 0 -5 -18 -56 -40 -114 -22 -57 -40 -118 -40 -135 0 -17 9 -54 19 -83 11
-30 25 -59 31 -67 6 -7 24 -19 41 -25 27 -11 33 -11 49 6 11 10 33 69 50 129
17 61 35 133 40 160 4 28 11 62 15 77 4 16 11 26 15 23 5 -3 16 -31 25 -63 9
-31 30 -83 46 -115 16 -32 29 -59 29 -61 0 -3 -38 -46 -85 -97 -47 -50 -85
-96 -85 -100 0 -5 11 -9 23 -9 16 0 54 28 115 88 51 48 92 95 92 104 0 9 -4
20 -10 23 -5 3 -10 14 -10 23 0 9 -7 31 -16 47 -9 17 -23 55 -31 85 -8 30 -19
75 -25 100 -6 25 -18 55 -27 67 -9 12 -20 23 -25 23 -5 0 -15 -8 -22 -17 -7
-10 -14 -25 -14 -33 0 -8 -18 -59 -40 -114 -22 -54 -43 -115 -46 -135 -4 -20
-13 -48 -20 -63 -8 -15 -14 -36 -14 -48 0 -11 -6 -20 -13 -20 -7 0 -23 20 -35
45 -12 25 -22 52 -22 61 0 8 21 59 46 112 26 53 50 106 54 117 4 11 4 30 -1
43 -5 12 -15 22 -23 22 -7 0 -16 7 -20 15 -3 8 -12 15 -20 15z"/>
</g>
</svg>
