<?xml version="1.0" standalone="no"?>
<!DOCTYPE svg PUBLIC "-//W3C//DTD SVG 20010904//EN"
 "http://www.w3.org/TR/2001/REC-SVG-20010904/DTD/svg10.dtd">
<svg version="1.0" xmlns="http://www.w3.org/2000/svg"
 width="56.000000pt" height="56.000000pt" viewBox="0 0 56.000000 56.000000"
 preserveAspectRatio="xMidYMid meet">
<metadata>
Created by potrace 1.16, written by Peter Selinger 2001-2019
</metadata>
<g transform="translate(0.000000,56.000000) scale(0.100000,-0.100000)"
fill="#000000" stroke="none">
<path d="M165 560 c-22 0 -38 -6 -41 -15 -4 -8 -4 -21 -1 -29 3 -8 -8 -49 -24
-93 -21 -57 -29 -96 -29 -144 0 -54 5 -77 28 -121 16 -29 37 -66 46 -81 11
-16 27 -27 41 -27 12 0 29 8 37 18 8 9 23 44 32 77 10 33 29 93 44 133 27 72
27 72 40 10 7 -35 21 -94 31 -133 11 -38 23 -88 28 -110 5 -27 14 -41 26 -43
10 -2 27 4 38 14 11 10 19 30 19 49 0 18 -11 49 -25 70 -15 20 -24 40 -21 43
3 3 2 10 -2 16 -5 6 -16 36 -26 66 -9 31 -25 70 -36 88 -14 22 -27 32 -45 32
-19 0 -29 -9 -45 -44 -11 -25 -20 -48 -20 -51 0 -3 -11 -31 -25 -61 -14 -30
-25 -58 -25 -63 0 -5 -6 -21 -14 -35 -14 -27 -14 -27 -33 1 -11 15 -25 43 -33
61 -9 22 -11 57 -7 107 3 41 13 89 23 107 9 18 25 50 35 70 11 20 19 49 19 63
0 22 -4 25 -35 25z"/>
<path d="M235 20 c-8 0 -17 -4 -20 -10 -4 -6 5 -10 20 -10 15 0 24 4 20 10 -3
5 -12 10 -20 10z"/>
</g>
</svg>
