<?xml version="1.0" standalone="no"?>
<!DOCTYPE svg PUBLIC "-//W3C//DTD SVG 20010904//EN"
 "http://www.w3.org/TR/2001/REC-SVG-20010904/DTD/svg10.dtd">
<svg version="1.0" xmlns="http://www.w3.org/2000/svg"
 width="56.000000pt" height="56.000000pt" viewBox="0 0 56.000000 56.000000"
 preserveAspectRatio="xMidYMid meet">
<metadata>
Created by potrace 1.16, written by Peter Selinger 2001-2019
</metadata>
<g transform="translate(0.000000,56.000000) scale(0.100000,-0.100000)"
fill="#000000" stroke="none">
<path d="M202 534 c-6 3 -17 -1 -25 -9 -9 -8 -20 -15 -26 -15 -6 0 -11 -3 -11
-7 0 -3 7 -14 15 -23 14 -15 12 -23 -16 -81 -17 -35 -35 -73 -39 -84 -4 -11
-12 -31 -18 -45 -6 -14 -14 -38 -17 -55 -4 -16 -9 -59 -12 -95 -4 -60 -2 -68
22 -94 24 -26 31 -28 83 -24 52 5 59 9 99 52 24 27 43 54 43 62 0 8 5 14 10
14 6 0 10 9 10 19 0 11 -4 22 -9 26 -6 3 -17 -11 -27 -30 -9 -20 -32 -51 -50
-69 -18 -18 -46 -36 -62 -39 -16 -3 -38 -3 -50 -1 -11 3 -26 19 -33 36 -9 23
-9 41 0 86 7 31 17 65 22 74 5 10 9 24 9 32 0 8 10 34 21 58 12 23 26 52 32
63 6 11 17 32 24 47 8 15 30 37 49 49 19 11 33 26 31 33 -2 6 -17 11 -34 12
-16 1 -35 4 -41 8z"/>
<path d="M440 497 c-8 2 -23 -3 -32 -11 -10 -7 -18 -23 -18 -35 0 -14 6 -21
19 -21 12 0 21 -10 26 -27 4 -16 11 -59 15 -98 5 -38 12 -94 16 -122 4 -37 11
-53 22 -53 12 0 14 12 8 78 -4 42 -9 100 -12 127 -3 28 -9 59 -14 70 -5 11
-11 36 -12 55 -2 22 -9 36 -18 37z"/>
<path d="M388 401 c-2 19 -5 20 -10 8 -3 -9 -9 -38 -12 -65 -3 -27 -3 -40 0
-29 3 11 10 29 15 41 6 12 9 32 7 45z"/>
<path d="M349 290 c-5 0 -9 -11 -9 -25 0 -14 2 -25 4 -25 2 0 6 11 8 25 3 14
1 25 -3 25z"/>
</g>
</svg>
