<?xml version="1.0" standalone="no"?>
<!DOCTYPE svg PUBLIC "-//W3C//DTD SVG 20010904//EN"
 "http://www.w3.org/TR/2001/REC-SVG-20010904/DTD/svg10.dtd">
<svg version="1.0" xmlns="http://www.w3.org/2000/svg"
 width="56.000000pt" height="56.000000pt" viewBox="0 0 56.000000 56.000000"
 preserveAspectRatio="xMidYMid meet">
<metadata>
Created by potrace 1.16, written by Peter Selinger 2001-2019
</metadata>
<g transform="translate(0.000000,56.000000) scale(0.100000,-0.100000)"
fill="#000000" stroke="none">
<path d="M195 560 c-14 0 -25 -4 -25 -10 0 -5 -6 -10 -14 -10 -8 0 -18 -5 -22
-11 -3 -6 -1 -22 6 -35 12 -21 9 -33 -29 -111 -24 -49 -47 -96 -52 -105 -5
-10 -9 -27 -9 -37 0 -11 -5 -23 -10 -26 -6 -3 -10 -38 -10 -77 0 -61 4 -76 26
-106 24 -30 31 -34 60 -29 19 3 47 15 63 26 16 12 33 21 38 21 4 0 13 -10 18
-22 6 -13 18 -24 28 -26 16 -3 16 0 -3 34 -21 37 -21 37 1 81 12 24 20 46 16
49 -3 3 -34 -24 -70 -60 -45 -46 -73 -66 -89 -66 -14 0 -32 8 -41 18 -12 13
-17 37 -17 75 0 31 4 59 10 62 5 3 10 17 10 31 0 13 4 32 9 42 5 9 15 31 22
47 8 17 16 32 19 35 3 3 16 26 29 52 13 26 38 61 55 79 20 21 27 34 19 36 -7
3 -13 13 -13 24 0 14 -7 19 -25 19z"/>
<path d="M417 529 c-14 9 -19 8 -23 -4 -4 -9 2 -26 14 -38 11 -12 23 -38 26
-57 4 -19 10 -55 13 -80 3 -25 9 -50 14 -56 5 -6 10 -41 11 -77 1 -37 5 -67
10 -67 4 0 8 -9 8 -20 0 -12 7 -20 16 -20 13 0 15 9 10 53 -3 28 -8 72 -12 97
-3 25 -10 49 -15 55 -5 5 -9 28 -9 51 0 24 -4 46 -10 49 -5 3 -10 16 -10 29 0
12 -6 34 -12 48 -7 14 -21 31 -31 37z"/>
</g>
</svg>
