<?xml version="1.0" standalone="no"?>
<!DOCTYPE svg PUBLIC "-//W3C//DTD SVG 20010904//EN"
 "http://www.w3.org/TR/2001/REC-SVG-20010904/DTD/svg10.dtd">
<svg version="1.0" xmlns="http://www.w3.org/2000/svg"
 width="56.000000pt" height="56.000000pt" viewBox="0 0 56.000000 56.000000"
 preserveAspectRatio="xMidYMid meet">
<metadata>
Created by potrace 1.16, written by Peter Selinger 2001-2019
</metadata>
<g transform="translate(0.000000,56.000000) scale(0.100000,-0.100000)"
fill="#000000" stroke="none">
<path d="M191 490 c-10 0 -36 -14 -57 -31 -22 -17 -45 -34 -53 -38 -11 -7 -11
-14 0 -44 13 -36 13 -36 -34 -77 -34 -30 -47 -49 -47 -68 0 -15 14 -50 30 -79
17 -29 38 -56 48 -61 9 -5 32 -12 50 -15 17 -4 44 -1 60 5 15 6 41 17 59 24
17 8 49 35 70 62 21 26 44 59 51 75 6 15 17 38 24 52 6 14 16 24 22 22 6 -2
17 -23 26 -48 9 -24 24 -62 33 -84 10 -21 25 -47 34 -57 9 -10 24 -18 35 -18
13 0 18 7 18 29 0 16 -7 34 -16 42 -8 7 -35 53 -59 103 -24 50 -46 108 -50
129 -4 21 -14 45 -22 52 -8 8 -18 15 -22 15 -4 0 -16 -9 -25 -19 -15 -16 -16
-23 -5 -43 7 -13 12 -41 10 -63 -1 -22 -8 -54 -16 -71 -8 -17 -34 -50 -57 -73
-23 -24 -59 -51 -80 -62 -20 -10 -52 -19 -71 -19 -20 0 -40 7 -49 18 -9 9 -21
28 -28 41 -7 13 -9 37 -5 58 5 27 17 41 61 69 44 28 54 40 54 62 0 16 -5 33
-11 39 -8 8 -4 16 15 28 14 10 26 24 26 31 0 8 -8 14 -19 14z"/>
</g>
</svg>
