<?xml version="1.0" standalone="no"?>
<!DOCTYPE svg PUBLIC "-//W3C//DTD SVG 20010904//EN"
 "http://www.w3.org/TR/2001/REC-SVG-20010904/DTD/svg10.dtd">
<svg version="1.0" xmlns="http://www.w3.org/2000/svg"
 width="56.000000pt" height="56.000000pt" viewBox="0 0 56.000000 56.000000"
 preserveAspectRatio="xMidYMid meet">
<metadata>
Created by potrace 1.16, written by Peter Selinger 2001-2019
</metadata>
<g transform="translate(0.000000,56.000000) scale(0.100000,-0.100000)"
fill="#000000" stroke="none">
<path d="M92 520 c-5 0 -12 -3 -15 -7 -4 -3 -7 -13 -7 -20 0 -8 14 -19 30 -24
17 -6 30 -14 30 -18 0 -3 -14 -19 -30 -34 -16 -16 -30 -34 -30 -40 0 -6 7 -18
15 -28 15 -15 12 -21 -29 -65 -25 -27 -46 -55 -46 -61 0 -7 6 -13 14 -13 7 0
27 5 45 11 18 6 35 9 38 6 3 -3 -2 -14 -11 -23 -10 -9 -24 -27 -33 -40 -13
-21 -13 -29 -3 -57 8 -17 20 -40 28 -49 8 -10 22 -18 31 -18 9 0 52 12 96 26
55 18 100 26 147 25 54 0 70 3 75 16 3 8 1 24 -5 34 -7 10 -12 20 -12 22 0 2
32 24 70 48 50 31 70 49 69 64 0 11 -22 47 -48 80 -32 40 -56 61 -73 63 -13 2
-29 -3 -35 -10 -6 -7 -15 -69 -20 -137 -8 -105 -13 -125 -29 -135 -10 -6 -39
-14 -64 -18 -25 -4 -71 -11 -104 -17 -32 -5 -64 -7 -72 -4 -8 3 -14 18 -14 33
0 16 9 36 23 48 12 11 39 35 60 52 20 18 37 37 37 42 0 7 -22 9 -62 5 -63 -6
-63 -6 -30 22 17 15 32 34 32 43 0 9 -7 21 -15 28 -14 12 -12 17 15 45 16 17
30 34 30 37 0 4 -20 21 -44 38 -25 16 -49 30 -54 30z m342 -150 c8 0 24 -13
35 -28 11 -16 22 -39 26 -53 5 -20 -1 -30 -33 -57 -40 -31 -40 -31 -45 1 -3
18 -4 46 -3 62 2 17 4 40 4 53 1 12 8 22 16 22z"/>
<path d="M265 60 c-8 0 -17 -5 -20 -10 -3 -6 1 -13 9 -16 8 -3 20 -3 26 1 6 3
8 11 5 16 -4 5 -12 9 -20 9z"/>
</g>
</svg>
