<?xml version="1.0" standalone="no"?>
<!DOCTYPE svg PUBLIC "-//W3C//DTD SVG 20010904//EN"
 "http://www.w3.org/TR/2001/REC-SVG-20010904/DTD/svg10.dtd">
<svg version="1.0" xmlns="http://www.w3.org/2000/svg"
 width="56.000000pt" height="56.000000pt" viewBox="0 0 56.000000 56.000000"
 preserveAspectRatio="xMidYMid meet">
<metadata>
Created by potrace 1.16, written by Peter Selinger 2001-2019
</metadata>
<g transform="translate(0.000000,56.000000) scale(0.100000,-0.100000)"
fill="#000000" stroke="none">
<path d="M198 560 c-15 -1 -35 -17 -58 -48 -19 -26 -45 -78 -58 -117 -13 -38
-27 -101 -32 -140 -5 -38 -5 -88 -1 -110 5 -22 14 -59 21 -83 7 -23 19 -47 27
-54 10 -8 22 -6 49 8 20 10 44 31 55 46 10 14 19 35 19 46 0 11 5 22 11 24 6
2 21 28 33 58 12 30 36 83 54 117 17 34 40 67 50 72 17 9 20 3 31 -62 7 -40
14 -79 14 -87 1 -8 14 -16 30 -18 18 -2 29 2 33 13 4 9 2 26 -4 38 -6 12 -15
49 -21 81 -6 33 -19 68 -28 78 -10 11 -27 18 -42 16 -19 -2 -39 -22 -78 -78
-29 -41 -52 -78 -53 -83 0 -4 -12 -26 -27 -50 -15 -23 -32 -51 -38 -61 -5 -11
-23 -29 -38 -40 -29 -21 -29 -21 -44 -1 -11 16 -14 36 -9 93 4 53 15 92 40
145 18 40 50 87 70 106 26 24 34 37 27 44 -6 6 -11 19 -11 29 0 12 -7 18 -22
18z"/>
<path d="M470 118 c-27 1 -46 -6 -81 -32 -25 -19 -49 -42 -53 -51 -3 -9 -6
-21 -6 -26 0 -6 12 -9 28 -7 17 2 31 12 37 26 9 21 16 23 60 20 50 -3 50 -3
50 32 0 33 -2 35 -35 38z"/>
</g>
</svg>
