<?xml version="1.0" standalone="no"?>
<!DOCTYPE svg PUBLIC "-//W3C//DTD SVG 20010904//EN"
 "http://www.w3.org/TR/2001/REC-SVG-20010904/DTD/svg10.dtd">
<svg version="1.0" xmlns="http://www.w3.org/2000/svg"
 width="56.000000pt" height="56.000000pt" viewBox="0 0 56.000000 56.000000"
 preserveAspectRatio="xMidYMid meet">
<metadata>
Created by potrace 1.16, written by Peter Selinger 2001-2019
</metadata>
<g transform="translate(0.000000,56.000000) scale(0.100000,-0.100000)"
fill="#000000" stroke="none">
<path d="M283 559 c-19 0 -43 -15 -72 -44 -35 -34 -43 -47 -38 -67 5 -17 -2
-37 -24 -68 -16 -25 -37 -61 -46 -80 -8 -19 -24 -57 -34 -85 -11 -27 -19 -61
-19 -74 0 -14 9 -44 20 -67 12 -23 33 -50 47 -59 24 -16 28 -16 57 -1 17 9 49
27 71 40 22 13 56 47 76 76 20 29 42 68 49 89 7 20 17 47 22 60 6 18 11 21 22
12 7 -6 16 -32 20 -58 5 -37 3 -48 -11 -59 -17 -13 -16 -16 12 -39 17 -14 37
-24 45 -23 8 2 16 13 18 26 2 12 -6 48 -17 80 -12 32 -21 70 -21 85 0 14 -4
37 -9 50 -5 13 -19 27 -30 30 -11 2 -26 0 -34 -7 -8 -6 -24 -40 -37 -76 -12
-36 -41 -92 -64 -125 -23 -33 -57 -70 -75 -82 -19 -13 -44 -23 -56 -23 -13 0
-28 6 -34 14 -6 8 -12 27 -13 42 0 16 4 49 9 74 6 27 33 78 66 126 31 44 63
87 72 94 8 7 15 21 15 31 0 10 -7 22 -16 27 -14 8 -11 14 20 38 20 16 36 32
36 37 0 4 -12 7 -27 6z"/>
</g>
</svg>
