<?xml version="1.0" standalone="no"?>
<!DOCTYPE svg PUBLIC "-//W3C//DTD SVG 20010904//EN"
 "http://www.w3.org/TR/2001/REC-SVG-20010904/DTD/svg10.dtd">
<svg version="1.0" xmlns="http://www.w3.org/2000/svg"
 width="56.000000pt" height="56.000000pt" viewBox="0 0 56.000000 56.000000"
 preserveAspectRatio="xMidYMid meet">
<metadata>
Created by potrace 1.16, written by Peter Selinger 2001-2019
</metadata>
<g transform="translate(0.000000,56.000000) scale(0.100000,-0.100000)"
fill="#000000" stroke="none">
<path d="M471 544 c-5 3 -20 -3 -33 -13 -13 -11 -30 -39 -38 -63 -7 -24 -17
-47 -20 -53 -4 -5 -17 -37 -29 -70 -13 -33 -26 -69 -30 -80 -4 -11 -26 -58
-49 -105 -23 -47 -50 -95 -60 -108 -16 -21 -22 -22 -61 -13 -23 5 -48 17 -55
26 -7 10 -18 44 -26 77 -7 33 -10 83 -7 113 3 29 13 71 23 92 10 21 33 56 51
79 18 23 33 49 33 58 0 9 -7 19 -15 22 -8 3 -27 2 -42 -3 -22 -8 -29 -18 -36
-54 -5 -24 -17 -55 -27 -69 -10 -14 -26 -54 -35 -90 -11 -42 -14 -80 -10 -114
4 -28 11 -65 16 -82 5 -17 27 -45 49 -63 33 -26 47 -31 95 -31 33 0 65 6 79
15 21 14 24 14 29 0 4 -8 17 -15 30 -15 17 0 28 10 41 37 10 21 30 53 46 73
16 20 57 49 98 70 50 24 71 41 71 54 1 10 -6 24 -14 30 -8 6 -20 40 -26 74 -5
35 -16 83 -24 105 -8 23 -15 54 -15 69 0 15 -4 29 -9 32z m-30 -94 c5 0 9 -15
9 -33 0 -18 8 -63 19 -100 19 -69 19 -69 -3 -92 -11 -13 -37 -32 -56 -43 -19
-10 -51 -39 -70 -65 -19 -26 -36 -43 -38 -39 -1 5 11 43 28 85 16 41 30 80 30
86 0 6 4 19 9 29 6 9 20 49 32 87 12 39 24 73 26 78 2 4 8 7 14 7z"/>
</g>
</svg>
