<?xml version="1.0" standalone="no"?>
<!DOCTYPE svg PUBLIC "-//W3C//DTD SVG 20010904//EN"
 "http://www.w3.org/TR/2001/REC-SVG-20010904/DTD/svg10.dtd">
<svg version="1.0" xmlns="http://www.w3.org/2000/svg"
 width="56.000000pt" height="56.000000pt" viewBox="0 0 56.000000 56.000000"
 preserveAspectRatio="xMidYMid meet">
<metadata>
Created by potrace 1.16, written by Peter Selinger 2001-2019
</metadata>
<g transform="translate(0.000000,56.000000) scale(0.100000,-0.100000)"
fill="#000000" stroke="none">
<path d="M201 560 c-17 0 -31 -6 -35 -16 -3 -9 -6 -28 -6 -44 0 -15 -11 -53
-25 -84 -14 -31 -25 -67 -25 -80 0 -14 -5 -26 -11 -28 -7 -2 -11 -39 -12 -98
0 -52 2 -108 5 -124 4 -15 19 -41 34 -57 15 -16 33 -29 39 -29 6 0 30 9 53 20
22 11 48 30 56 42 9 12 27 52 40 88 14 38 26 97 29 142 4 61 2 78 -9 82 -8 3
-16 0 -19 -7 -2 -6 -6 -34 -9 -62 -3 -27 -14 -80 -24 -116 -13 -49 -26 -74
-49 -93 -17 -14 -40 -26 -51 -26 -11 0 -30 13 -41 29 -18 24 -21 44 -21 118 0
77 3 92 20 108 11 10 20 28 20 41 0 14 14 34 40 54 22 17 40 40 40 50 0 10 -5
22 -11 26 -6 3 -9 19 -5 35 5 27 3 29 -23 29z"/>
<path d="M376 505 c-6 9 -15 13 -19 9 -4 -4 -7 -18 -7 -30 0 -13 5 -26 10 -29
6 -3 10 -22 10 -42 0 -20 5 -66 11 -102 6 -36 15 -70 20 -76 5 -5 9 -19 9 -31
0 -12 7 -27 15 -34 8 -6 22 -10 32 -8 11 2 17 11 16 23 -1 11 -9 49 -17 85 -8
36 -15 82 -16 102 0 20 -3 43 -6 52 -3 8 -12 12 -20 9 -8 -3 -14 0 -14 6 0 6
5 11 10 11 6 0 10 13 10 29 0 17 -5 33 -10 36 -6 3 -13 -1 -16 -10 -6 -14 -7
-14 -18 0z"/>
<path d="M343 438 c-8 2 -13 -5 -13 -17 0 -12 6 -21 16 -21 9 0 14 7 12 17 -2
9 -9 18 -15 21z"/>
</g>
</svg>
