<?xml version="1.0" standalone="no"?>
<!DOCTYPE svg PUBLIC "-//W3C//DTD SVG 20010904//EN"
 "http://www.w3.org/TR/2001/REC-SVG-20010904/DTD/svg10.dtd">
<svg version="1.0" xmlns="http://www.w3.org/2000/svg"
 width="56.000000pt" height="56.000000pt" viewBox="0 0 56.000000 56.000000"
 preserveAspectRatio="xMidYMid meet">
<metadata>
Created by potrace 1.16, written by Peter Selinger 2001-2019
</metadata>
<g transform="translate(0.000000,56.000000) scale(0.100000,-0.100000)"
fill="#000000" stroke="none">
<path d="M133 560 c-24 0 -43 -5 -43 -10 0 -6 7 -22 16 -35 9 -14 22 -25 29
-25 7 0 18 -7 25 -15 7 -8 16 -15 21 -15 5 0 14 11 20 24 9 20 8 29 -7 50 -15
20 -28 25 -61 26z"/>
<path d="M127 411 c-42 25 -48 27 -54 12 -4 -11 3 -24 22 -40 28 -24 28 -24
-9 -99 -20 -41 -36 -85 -36 -98 0 -14 3 -27 8 -29 4 -3 24 3 44 13 20 9 48 20
62 24 21 5 26 3 26 -11 0 -10 -14 -47 -30 -81 -17 -35 -30 -72 -30 -83 0 -17
8 -19 68 -19 38 0 95 5 128 11 32 6 65 15 72 21 6 6 12 18 12 28 0 10 -16 32
-35 49 -32 28 -35 35 -35 85 0 30 5 67 10 81 6 15 17 33 24 41 9 9 17 10 21 4
3 -5 15 -10 26 -10 11 0 23 -8 26 -17 4 -10 14 -23 22 -30 9 -6 19 -9 23 -7 5
3 8 21 8 39 0 23 -6 37 -17 43 -10 6 -36 13 -58 16 -35 6 -45 3 -77 -24 -29
-24 -38 -40 -44 -76 -4 -26 -2 -76 4 -112 7 -37 18 -72 27 -78 8 -6 15 -13 15
-15 0 -2 -38 -4 -85 -5 -48 0 -85 4 -85 9 0 6 16 34 35 63 19 29 35 61 35 72
0 10 -8 26 -18 35 -10 10 -32 17 -48 17 -16 0 -35 4 -43 9 -11 7 -10 15 9 41
12 17 23 45 24 62 1 27 -5 35 -47 59z"/>
</g>
</svg>
