<?xml version="1.0" standalone="no"?>
<!DOCTYPE svg PUBLIC "-//W3C//DTD SVG 20010904//EN"
 "http://www.w3.org/TR/2001/REC-SVG-20010904/DTD/svg10.dtd">
<svg version="1.0" xmlns="http://www.w3.org/2000/svg"
 width="128.000000pt" height="128.000000pt" viewBox="0 0 128.000000 128.000000"
 preserveAspectRatio="xMidYMid meet">
<metadata>
Created by potrace 1.16, written by Peter Selinger 2001-2019
</metadata>
<g transform="translate(0.000000,128.000000) scale(0.100000,-0.100000)"
fill="#000000" stroke="none">
<path d="M695 1149 c-5 -1 -17 -3 -26 -6 -9 -2 -56 -24 -104 -48 -49 -25 -100
-45 -114 -45 -14 -1 -51 -9 -81 -20 -31 -10 -67 -16 -82 -13 -16 3 -35 0 -43
-7 -8 -7 -15 -18 -15 -25 0 -7 22 -22 49 -33 41 -18 53 -20 79 -10 17 7 34 9
38 5 4 -3 1 -21 -7 -39 -7 -18 -27 -53 -44 -77 -16 -24 -47 -60 -67 -81 -21
-20 -38 -40 -38 -45 0 -4 13 -5 30 -2 16 4 47 18 69 33 22 14 48 24 58 22 13
-2 19 -14 21 -44 3 -37 0 -42 -25 -52 -15 -6 -52 -16 -82 -23 -29 -8 -55 -19
-58 -26 -3 -6 3 -38 13 -70 10 -32 18 -64 19 -71 0 -7 7 -17 15 -22 8 -5 36
-10 61 -10 33 0 49 -5 53 -16 3 -9 6 -22 6 -29 0 -7 -8 -23 -18 -35 -14 -17
-36 -25 -93 -34 -41 -6 -74 -15 -74 -21 0 -5 20 -20 44 -31 35 -17 51 -20 72
-12 15 5 33 16 40 24 6 8 29 14 50 14 21 0 41 4 44 10 3 5 28 21 56 35 28 14
57 25 65 25 8 0 14 -10 14 -22 0 -13 7 -32 15 -42 8 -11 15 -27 15 -36 0 -9 8
-24 18 -33 10 -10 26 -17 35 -17 8 0 23 7 31 16 9 8 16 30 16 48 0 28 -10 42
-70 95 -70 62 -70 62 -117 38 -27 -14 -60 -28 -76 -31 -20 -5 -29 -2 -33 9 -4
8 -1 29 6 46 7 16 25 36 41 44 15 8 42 15 58 15 20 0 43 11 66 31 19 17 41 29
49 26 8 -3 17 -24 21 -46 4 -22 13 -45 21 -52 8 -6 14 -17 14 -23 0 -7 41 -50
90 -97 50 -46 117 -98 148 -115 31 -17 82 -45 112 -62 36 -21 69 -32 96 -32
30 0 46 6 62 23 21 23 22 27 12 126 -6 56 -15 113 -20 125 -5 13 -13 27 -18
30 -5 3 -16 -2 -23 -11 -8 -9 -16 -50 -19 -92 -5 -76 -5 -76 -40 -79 -24 -2
-47 4 -70 20 -19 13 -57 34 -83 48 -27 14 -55 36 -62 50 -7 14 -34 38 -59 54
-33 21 -52 42 -67 75 -11 25 -29 79 -40 118 -10 40 -19 92 -19 116 0 24 4 57
10 73 5 16 14 58 20 94 5 36 12 79 15 95 3 17 6 48 8 70 2 36 -1 41 -38 62
-22 12 -44 22 -50 22z m-58 -109 c6 0 15 -5 19 -11 4 -6 7 -71 7 -143 0 -131
0 -131 -65 -164 -35 -18 -72 -30 -80 -27 -9 4 -19 16 -22 28 -3 12 -6 41 -6
64 0 34 5 46 25 59 14 9 25 24 25 33 0 9 -16 33 -36 52 -35 34 -35 34 -13 51
11 10 27 18 34 18 7 0 32 9 56 20 24 11 49 20 56 20z m-88 -400 c17 0 32 -3
34 -7 3 -5 2 -23 0 -41 -4 -23 -13 -37 -29 -44 -17 -8 -31 -8 -49 0 -15 7 -25
20 -25 32 0 11 9 29 20 40 11 11 33 20 49 20z m-172 -60 c17 0 23 -6 23 -23 0
-16 -9 -28 -26 -36 -14 -6 -30 -9 -35 -6 -5 4 -9 14 -9 24 0 9 5 22 12 29 7 7
22 12 35 12z"/>
<path d="M40 950 c-11 0 -23 -7 -27 -16 -3 -9 -2 -24 4 -33 5 -9 22 -22 36
-29 19 -9 31 -27 41 -62 8 -26 19 -58 25 -69 7 -11 12 -82 13 -161 1 -77 5
-140 9 -140 3 0 11 6 17 13 6 7 18 46 28 87 12 54 15 95 10 150 -4 41 -8 88
-10 103 -3 16 -11 43 -20 60 -8 18 -25 42 -38 53 -13 12 -33 27 -45 33 -12 6
-31 11 -43 11z"/>
</g>
</svg>
