<?xml version="1.0" standalone="no"?>
<!DOCTYPE svg PUBLIC "-//W3C//DTD SVG 20010904//EN"
 "http://www.w3.org/TR/2001/REC-SVG-20010904/DTD/svg10.dtd">
<svg version="1.0" xmlns="http://www.w3.org/2000/svg"
 width="128.000000pt" height="128.000000pt" viewBox="0 0 128.000000 128.000000"
 preserveAspectRatio="xMidYMid meet">
<metadata>
Created by potrace 1.16, written by Peter Selinger 2001-2019
</metadata>
<g transform="translate(0.000000,128.000000) scale(0.100000,-0.100000)"
fill="#000000" stroke="none">
<path d="M221 1280 c-37 0 -41 -2 -41 -26 0 -14 -11 -64 -24 -112 -14 -48 -32
-127 -41 -177 -9 -49 -21 -103 -26 -120 -6 -16 -14 -61 -19 -100 -5 -38 -14
-92 -20 -120 -6 -27 -14 -102 -17 -165 -3 -63 -5 -146 -4 -185 1 -38 4 -78 7
-88 3 -10 17 -22 31 -28 15 -6 31 -5 42 1 10 5 26 32 35 59 9 27 16 66 16 86
0 20 7 67 16 103 10 37 32 112 50 166 19 55 41 110 50 123 8 13 20 23 26 21 5
-2 21 -30 34 -63 13 -32 24 -65 24 -73 0 -8 -18 -34 -40 -59 -22 -25 -40 -55
-40 -66 0 -12 10 -32 23 -45 20 -22 22 -31 19 -129 -3 -104 -2 -107 24 -134
15 -16 33 -29 40 -29 6 0 17 -7 24 -15 10 -12 9 -19 -3 -38 -8 -13 -34 -29
-56 -37 -23 -7 -44 -17 -47 -22 -3 -4 33 -8 80 -8 47 0 88 5 91 10 3 6 19 10
35 10 16 0 31 4 35 9 3 5 31 19 62 31 31 12 62 29 69 38 8 9 13 28 13 42 0 14
-6 34 -14 44 -13 17 -30 20 -107 23 -67 3 -97 8 -110 20 -13 12 -18 31 -18 75
0 39 -6 68 -17 86 -10 14 -31 38 -47 53 -30 26 -30 26 2 66 17 22 38 46 47 53
8 7 15 23 15 35 0 12 -9 33 -19 47 -11 13 -29 55 -42 93 -22 68 -22 68 12 97
28 24 40 27 69 22 19 -3 73 -8 120 -10 47 -2 94 -6 106 -9 19 -4 22 -14 28
-87 4 -46 11 -117 16 -158 5 -41 13 -113 19 -160 6 -47 15 -103 21 -125 6 -22
14 -50 17 -63 3 -12 17 -29 32 -36 14 -7 45 -19 69 -26 42 -13 46 -13 100 17
31 17 75 36 97 42 22 6 57 27 79 48 21 20 47 56 57 80 10 25 22 69 25 99 7 53
5 57 -27 90 -18 19 -38 45 -44 58 -5 14 -47 63 -92 110 -64 66 -97 93 -155
120 -40 20 -83 36 -94 36 -12 0 -27 6 -33 14 -9 10 -9 43 -3 117 4 57 6 126 4
152 -4 42 -9 51 -40 72 -20 14 -49 25 -63 25 -16 0 -44 -14 -70 -35 -23 -20
-49 -40 -58 -45 -9 -5 -46 -37 -82 -72 -35 -35 -78 -81 -94 -103 -17 -21 -37
-49 -45 -61 -8 -12 -44 -67 -80 -121 -36 -54 -71 -111 -78 -126 -7 -16 -18
-27 -25 -24 -6 2 -14 12 -16 23 -2 10 2 50 8 89 6 38 16 93 21 120 6 28 17 90
26 139 8 50 17 93 20 97 2 4 8 29 13 56 5 26 13 56 16 66 6 14 1 17 -34 17z
m445 -110 c5 0 18 -6 28 -13 11 -8 22 -33 26 -61 4 -27 4 -77 1 -112 -4 -35
-9 -66 -12 -69 -3 -3 -41 -5 -85 -6 -43 -1 -98 -1 -121 0 -28 1 -43 6 -43 14
0 7 24 47 54 90 29 42 73 95 97 117 24 21 49 39 55 40z m149 -360 c3 0 28 -11
56 -25 27 -14 82 -57 122 -94 40 -39 85 -93 101 -124 29 -53 29 -56 16 -98 -8
-24 -30 -64 -48 -89 -19 -25 -44 -50 -56 -57 -11 -7 -44 -12 -71 -13 -46 0
-55 4 -88 38 -36 37 -37 42 -47 137 -5 55 -10 139 -10 187 0 48 4 98 10 112 5
14 12 26 15 26z"/>
<path d="M106 20 c-14 0 -28 -4 -31 -10 -4 -6 7 -10 24 -10 17 0 31 5 31 10 0
6 -11 10 -24 10z"/>
</g>
</svg>
