<?xml version="1.0" standalone="no"?>
<!DOCTYPE svg PUBLIC "-//W3C//DTD SVG 20010904//EN"
 "http://www.w3.org/TR/2001/REC-SVG-20010904/DTD/svg10.dtd">
<svg version="1.0" xmlns="http://www.w3.org/2000/svg"
 width="128.000000pt" height="128.000000pt" viewBox="0 0 128.000000 128.000000"
 preserveAspectRatio="xMidYMid meet">
<metadata>
Created by potrace 1.16, written by Peter Selinger 2001-2019
</metadata>
<g transform="translate(0.000000,128.000000) scale(0.100000,-0.100000)"
fill="#000000" stroke="none">
<path d="M459 1280 c-22 0 -39 -4 -39 -10 0 -5 -25 -35 -55 -67 -30 -32 -55
-61 -55 -65 0 -4 -13 -14 -30 -23 -19 -10 -30 -23 -30 -38 0 -12 -6 -29 -13
-38 -7 -8 -20 -18 -29 -22 -11 -4 -18 -17 -18 -31 0 -14 6 -28 13 -33 6 -4 26
-12 42 -18 21 -7 33 -19 40 -42 5 -18 16 -35 25 -38 8 -3 27 -16 41 -29 24
-22 26 -31 24 -83 -1 -32 -7 -69 -14 -81 -6 -12 -9 -33 -5 -47 4 -17 1 -32 -9
-43 -9 -9 -20 -46 -26 -81 -6 -39 -18 -72 -31 -86 -11 -12 -20 -35 -20 -51 0
-17 -5 -35 -12 -42 -7 -7 -10 -12 -7 -12 2 -1 28 -3 57 -5 40 -3 54 0 59 11 3
8 0 21 -7 29 -9 11 -8 22 7 52 10 20 24 39 31 41 6 2 12 -4 12 -12 0 -9 12
-21 26 -26 14 -6 34 -9 43 -8 10 2 17 -5 19 -19 2 -12 9 -27 17 -33 10 -8 19
-8 34 -1 11 6 24 11 30 11 6 0 18 -15 27 -32 11 -21 18 -59 18 -103 1 -38 5
-76 9 -83 5 -6 13 -12 19 -12 5 0 21 -9 34 -19 22 -17 36 -19 97 -14 40 3 77
10 84 15 7 6 20 5 33 -2 13 -7 41 -9 76 -4 30 3 57 10 60 15 3 5 15 9 27 9 12
0 33 7 47 15 14 8 43 23 66 34 36 17 41 23 42 56 1 33 -5 44 -55 94 -31 31
-67 73 -81 93 -13 21 -33 40 -44 44 -12 3 -24 1 -28 -6 -4 -7 -2 -35 6 -63 7
-27 18 -55 23 -60 6 -6 11 -15 11 -19 0 -5 -12 -13 -26 -18 -14 -6 -22 -15
-18 -21 4 -7 21 -9 46 -5 29 5 40 3 44 -9 4 -8 1 -22 -6 -30 -7 -8 -25 -15
-40 -15 -15 0 -35 9 -45 20 -10 11 -24 20 -32 20 -7 0 -16 -7 -19 -15 -5 -13
-8 -12 -22 1 -12 13 -28 15 -68 10 -28 -3 -64 -13 -80 -21 -16 -8 -35 -15 -42
-15 -11 0 -12 17 -7 86 8 87 8 87 -29 80 -32 -6 -36 -4 -36 13 0 11 -5 23 -10
26 -6 4 -8 10 -5 15 3 5 18 2 33 -6 15 -7 39 -14 53 -14 15 0 32 7 39 15 10
12 9 15 -4 15 -9 0 -19 7 -22 15 -4 8 -15 15 -26 15 -19 0 -19 1 2 30 12 16
26 30 32 30 6 0 19 -7 29 -16 13 -12 16 -25 12 -45 -5 -24 -2 -29 14 -29 11 0
51 10 89 21 38 12 73 25 78 29 4 5 -2 17 -14 27 -13 10 -43 36 -67 59 -43 41
-43 41 -18 79 15 21 24 43 21 51 -3 8 5 14 22 16 25 3 27 6 27 51 1 26 -4 47
-10 48 -5 1 -21 0 -35 0 -14 -1 -38 3 -53 8 -15 6 -27 15 -27 21 0 6 7 18 15
26 8 9 15 25 15 36 0 20 -4 20 -77 14 -46 -4 -84 -2 -93 4 -13 8 -13 13 2 37
10 16 28 48 40 73 12 25 21 55 20 67 -1 12 3 25 9 29 6 4 15 0 20 -7 7 -12 13
-11 36 3 23 14 28 24 28 55 0 35 -3 39 -43 58 -24 11 -47 27 -52 35 -8 13 -11
13 -22 -1 -7 -9 -38 -33 -68 -53 -30 -20 -59 -36 -63 -36 -5 0 -36 -21 -69
-46 -34 -25 -74 -51 -90 -56 -20 -7 -33 -7 -40 0 -7 7 -4 18 10 37 11 14 24
39 27 56 4 16 17 36 30 45 12 8 25 26 28 39 4 23 1 25 -34 25z m190 -180 c4 0
12 -5 19 -12 7 -7 12 -17 12 -23 0 -7 -10 -17 -22 -22 -13 -6 -54 -39 -91 -72
-55 -50 -74 -61 -102 -61 -19 0 -35 4 -35 10 0 5 17 26 39 47 21 21 57 49 81
63 23 14 53 35 67 48 13 12 27 22 32 22z m-57 -260 c5 0 22 -7 38 -15 27 -14
28 -16 17 -47 -7 -17 -27 -48 -46 -67 -18 -20 -37 -48 -41 -63 -5 -14 -6 -29
-2 -32 3 -3 15 -6 27 -6 13 0 28 7 35 15 7 8 26 15 42 15 21 0 31 -6 35 -20 3
-11 12 -20 19 -20 8 0 14 -7 14 -15 0 -8 -9 -15 -20 -15 -12 0 -34 7 -51 15
-26 14 -30 14 -35 0 -3 -8 -4 -21 -1 -29 3 -8 0 -21 -6 -30 -7 -9 -29 -19 -50
-23 -24 -4 -37 -2 -37 6 0 6 9 16 20 23 11 7 20 20 20 30 0 9 -4 19 -9 22 -5
4 -15 4 -23 1 -7 -3 -26 -25 -41 -50 -17 -26 -39 -48 -53 -51 -14 -4 -27 -4
-29 -2 -3 2 6 45 20 94 14 49 22 97 19 107 -3 9 -13 17 -22 18 -9 0 0 7 22 15
21 7 49 25 62 39 13 14 30 25 39 25 9 0 15 9 15 23 0 13 3 27 7 30 3 4 10 7
15 7z m207 -100 c17 0 32 -4 35 -9 3 -4 -6 -23 -20 -42 -13 -18 -31 -37 -39
-42 -9 -4 -24 -6 -34 -2 -11 3 -24 20 -30 37 -6 17 -11 33 -11 34 0 2 16 4 35
4 19 0 35 5 35 10 0 6 13 10 29 10z m-160 -262 c8 -2 16 -9 19 -15 2 -8 -5
-13 -17 -13 -11 0 -22 4 -25 9 -3 4 -2 11 1 15 4 4 14 5 22 4z m229 -308 c16
0 31 -3 35 -6 3 -3 -4 -15 -15 -26 -19 -19 -20 -19 -33 -1 -8 10 -15 21 -15
26 0 4 13 7 28 7z"/>
<path d="M75 420 c-20 0 -26 -4 -23 -17 2 -10 12 -18 23 -18 11 0 21 8 23 18
3 13 -3 17 -23 17z"/>
<path d="M97 290 c-10 0 -20 -6 -23 -14 -3 -8 -1 -31 5 -53 6 -21 11 -59 11
-86 0 -33 7 -59 25 -86 13 -22 28 -42 32 -44 4 -3 26 5 47 17 22 12 43 28 47
36 4 8 15 42 24 75 10 33 29 72 42 87 14 14 22 31 18 38 -4 6 -14 10 -23 8
-10 -1 -23 1 -30 6 -7 4 -19 3 -27 -4 -8 -7 -15 -20 -15 -30 0 -9 -9 -25 -21
-36 -20 -18 -21 -18 -35 1 -8 10 -14 24 -14 30 0 6 -10 21 -23 33 -13 12 -31
22 -40 22z"/>
</g>
</svg>
