<?xml version="1.0" standalone="no"?>
<!DOCTYPE svg PUBLIC "-//W3C//DTD SVG 20010904//EN"
 "http://www.w3.org/TR/2001/REC-SVG-20010904/DTD/svg10.dtd">
<svg version="1.0" xmlns="http://www.w3.org/2000/svg"
 width="56.000000pt" height="56.000000pt" viewBox="0 0 56.000000 56.000000"
 preserveAspectRatio="xMidYMid meet">
<metadata>
Created by potrace 1.16, written by Peter Selinger 2001-2019
</metadata>
<g transform="translate(0.000000,56.000000) scale(0.100000,-0.100000)"
fill="#000000" stroke="none">
<path d="M217 530 c-7 0 -20 -5 -29 -11 -10 -5 -18 -14 -18 -20 0 -5 9 -23 21
-38 20 -27 20 -30 4 -62 -10 -19 -28 -48 -41 -65 -12 -17 -26 -43 -29 -57 -4
-14 -4 -35 0 -46 3 -12 14 -21 24 -21 9 0 48 31 87 70 38 38 77 70 87 70 11 0
18 -9 19 -27 1 -16 1 -37 1 -49 -1 -11 -22 -51 -48 -87 -26 -37 -50 -67 -54
-67 -4 0 -27 -18 -52 -40 -24 -23 -57 -49 -74 -58 -30 -17 -30 -17 54 -20 64
-2 87 1 101 13 9 8 21 15 26 15 5 0 30 24 55 53 26 29 55 70 66 92 11 22 23
55 26 73 4 20 0 48 -10 75 -9 23 -25 50 -37 59 -12 10 -37 18 -56 18 -20 0
-41 5 -48 12 -7 7 -12 31 -12 53 0 35 -4 44 -25 53 -14 7 -31 12 -38 12z"/>
</g>
</svg>
