<?xml version="1.0" standalone="no"?>
<!DOCTYPE svg PUBLIC "-//W3C//DTD SVG 20010904//EN"
 "http://www.w3.org/TR/2001/REC-SVG-20010904/DTD/svg10.dtd">
<svg version="1.0" xmlns="http://www.w3.org/2000/svg"
 width="56.000000pt" height="56.000000pt" viewBox="0 0 56.000000 56.000000"
 preserveAspectRatio="xMidYMid meet">
<metadata>
Created by potrace 1.16, written by Peter Selinger 2001-2019
</metadata>
<g transform="translate(0.000000,56.000000) scale(0.100000,-0.100000)"
fill="#000000" stroke="none">
<path d="M250 510 c-5 0 -17 -14 -25 -31 -9 -17 -30 -44 -46 -61 -16 -17 -29
-38 -29 -47 0 -10 -5 -22 -11 -28 -7 -7 -9 -18 -6 -27 3 -8 14 -12 24 -10 10
3 27 18 38 35 11 16 29 29 40 29 11 -1 40 -11 64 -23 24 -12 51 -34 59 -49 14
-24 14 -33 3 -65 -7 -21 -18 -50 -24 -65 -7 -16 -15 -28 -18 -28 -4 0 -9 -8
-12 -17 -4 -10 -22 -42 -42 -70 -35 -53 -35 -53 -7 -53 21 1 37 14 75 64 26
35 47 70 47 78 0 8 4 18 8 23 5 6 14 29 20 51 7 23 12 49 12 58 0 9 -16 34
-36 56 -20 22 -51 47 -68 54 -17 8 -41 17 -53 21 -14 4 -23 14 -23 25 0 10 5
22 10 25 6 3 10 17 10 31 0 13 -4 24 -10 24z"/>
</g>
</svg>
