<?xml version="1.0" standalone="no"?>
<!DOCTYPE svg PUBLIC "-//W3C//DTD SVG 20010904//EN"
 "http://www.w3.org/TR/2001/REC-SVG-20010904/DTD/svg10.dtd">
<svg version="1.0" xmlns="http://www.w3.org/2000/svg"
 width="56.000000pt" height="56.000000pt" viewBox="0 0 56.000000 56.000000"
 preserveAspectRatio="xMidYMid meet">
<metadata>
Created by potrace 1.16, written by Peter Selinger 2001-2019
</metadata>
<g transform="translate(0.000000,56.000000) scale(0.100000,-0.100000)"
fill="#000000" stroke="none">
<path d="M423 559 c-37 0 -40 -4 -95 -89 -38 -58 -58 -99 -58 -119 0 -21 -8
-35 -27 -49 -16 -10 -50 -29 -78 -41 -27 -13 -55 -31 -62 -40 -7 -9 -13 -24
-13 -33 0 -9 5 -20 10 -23 6 -3 53 -3 106 1 97 7 97 7 90 65 -4 47 -3 59 8 59
8 0 26 -14 40 -31 15 -17 26 -43 26 -59 0 -16 -10 -62 -23 -102 -13 -41 -22
-79 -19 -86 2 -7 10 -12 18 -12 8 0 19 12 26 28 6 15 19 46 29 69 11 25 19 66
19 98 0 54 0 54 -55 95 -30 22 -55 44 -55 49 0 5 20 33 45 63 25 30 45 59 45
64 1 5 14 25 30 44 17 19 30 38 30 42 0 4 -17 8 -37 7z m-156 -290 c7 1 9 -8
6 -21 -3 -13 -10 -29 -16 -35 -5 -7 -28 -13 -50 -13 -40 0 -40 0 -22 20 10 12
30 27 44 34 14 8 31 14 38 15z"/>
</g>
</svg>
