<?xml version="1.0" standalone="no"?>
<!DOCTYPE svg PUBLIC "-//W3C//DTD SVG 20010904//EN"
 "http://www.w3.org/TR/2001/REC-SVG-20010904/DTD/svg10.dtd">
<svg version="1.0" xmlns="http://www.w3.org/2000/svg"
 width="56.000000pt" height="56.000000pt" viewBox="0 0 56.000000 56.000000"
 preserveAspectRatio="xMidYMid meet">
<metadata>
Created by potrace 1.16, written by Peter Selinger 2001-2019
</metadata>
<g transform="translate(0.000000,56.000000) scale(0.100000,-0.100000)"
fill="#000000" stroke="none">
<path d="M189 560 c-19 0 -28 -6 -33 -22 -3 -13 -6 -35 -6 -49 0 -15 -9 -38
-20 -52 -11 -14 -20 -32 -20 -41 0 -9 -9 -36 -21 -61 -16 -34 -19 -51 -12 -72
6 -16 18 -29 30 -31 11 -2 25 4 32 12 7 9 29 41 48 73 19 32 36 73 38 91 1 18
10 41 19 50 9 10 16 24 16 31 0 6 -10 25 -22 41 -15 20 -30 30 -49 30z"/>
<path d="M348 520 c-4 0 -10 -5 -14 -11 -3 -6 7 -25 23 -42 17 -18 41 -58 54
-90 20 -50 21 -62 11 -90 -7 -19 -12 -48 -12 -66 0 -17 -11 -57 -24 -89 -13
-31 -27 -74 -31 -95 -7 -35 -6 -37 19 -37 14 0 26 5 26 10 0 6 10 24 22 40 11
16 22 44 23 62 1 18 9 48 19 65 12 25 16 61 16 162 0 116 -2 131 -18 140 -11
6 -39 17 -63 25 -24 9 -47 16 -51 16z"/>
<path d="M310 110 c-5 0 -12 -5 -16 -11 -3 -6 -2 -15 4 -21 6 -6 15 -7 21 -4
5 4 8 13 4 21 -3 8 -9 15 -13 15z"/>
</g>
</svg>
