<?xml version="1.0" standalone="no"?>
<!DOCTYPE svg PUBLIC "-//W3C//DTD SVG 20010904//EN"
 "http://www.w3.org/TR/2001/REC-SVG-20010904/DTD/svg10.dtd">
<svg version="1.0" xmlns="http://www.w3.org/2000/svg"
 width="56.000000pt" height="56.000000pt" viewBox="0 0 56.000000 56.000000"
 preserveAspectRatio="xMidYMid meet">
<metadata>
Created by potrace 1.16, written by Peter Selinger 2001-2019
</metadata>
<g transform="translate(0.000000,56.000000) scale(0.100000,-0.100000)"
fill="#000000" stroke="none">
<path d="M132 558 c-27 3 -32 0 -32 -18 0 -12 14 -35 30 -50 20 -19 30 -38 30
-57 0 -15 -11 -45 -25 -65 -14 -20 -25 -50 -25 -67 0 -16 7 -37 16 -45 8 -9
21 -16 28 -16 6 0 28 17 47 38 19 20 41 49 48 63 7 15 24 32 37 38 18 8 30 8
45 -2 11 -6 24 -30 30 -51 6 -22 8 -51 4 -65 -3 -14 -9 -39 -12 -56 -4 -21
-34 -58 -95 -117 -89 -88 -89 -88 -55 -88 19 0 63 13 98 30 35 16 79 45 97 63
19 19 38 52 43 73 4 22 9 66 9 99 0 54 -4 66 -37 112 -21 28 -51 56 -67 62
-16 6 -41 11 -55 11 -14 1 -37 7 -50 14 -13 7 -36 31 -51 52 -19 30 -34 40
-58 42z"/>
</g>
</svg>
