<?xml version="1.0" standalone="no"?>
<!DOCTYPE svg PUBLIC "-//W3C//DTD SVG 20010904//EN"
 "http://www.w3.org/TR/2001/REC-SVG-20010904/DTD/svg10.dtd">
<svg version="1.0" xmlns="http://www.w3.org/2000/svg"
 width="56.000000pt" height="56.000000pt" viewBox="0 0 56.000000 56.000000"
 preserveAspectRatio="xMidYMid meet">
<metadata>
Created by potrace 1.16, written by Peter Selinger 2001-2019
</metadata>
<g transform="translate(0.000000,56.000000) scale(0.100000,-0.100000)"
fill="#000000" stroke="none">
<path d="M226 460 c-23 0 -57 -10 -77 -21 -25 -15 -43 -37 -62 -78 -14 -31
-33 -80 -42 -108 -10 -29 -15 -59 -12 -67 3 -7 22 -17 41 -20 20 -4 40 -4 45
-1 6 3 15 31 21 63 6 31 18 85 26 120 16 60 17 62 49 62 18 0 39 8 48 18 10
10 14 22 10 25 -3 4 -25 7 -47 7z"/>
<path d="M332 460 c-10 0 -21 -3 -25 -6 -3 -3 -3 -12 0 -20 3 -8 14 -14 24
-14 12 0 19 7 19 20 0 13 -7 20 -18 20z"/>
<path d="M458 380 c-10 0 -20 -6 -22 -12 -3 -7 -10 -42 -16 -78 -7 -36 -17
-74 -23 -85 -5 -11 -35 -44 -65 -73 -30 -30 -73 -65 -94 -78 -21 -14 -36 -29
-33 -34 3 -6 25 -10 48 -10 24 0 53 7 65 16 12 8 41 21 65 28 33 9 46 20 62
51 11 22 28 65 38 96 9 31 17 78 17 105 0 28 -5 55 -12 62 -7 7 -20 12 -30 12z"/>
</g>
</svg>
