<?xml version="1.0" standalone="no"?>
<!DOCTYPE svg PUBLIC "-//W3C//DTD SVG 20010904//EN"
 "http://www.w3.org/TR/2001/REC-SVG-20010904/DTD/svg10.dtd">
<svg version="1.0" xmlns="http://www.w3.org/2000/svg"
 width="56.000000pt" height="56.000000pt" viewBox="0 0 56.000000 56.000000"
 preserveAspectRatio="xMidYMid meet">
<metadata>
Created by potrace 1.16, written by Peter Selinger 2001-2019
</metadata>
<g transform="translate(0.000000,56.000000) scale(0.100000,-0.100000)"
fill="#000000" stroke="none">
<path d="M265 560 c-8 0 -15 -7 -15 -15 0 -9 7 -27 16 -40 9 -13 13 -32 10
-42 -3 -10 -21 -27 -38 -38 -18 -10 -56 -42 -84 -71 -44 -45 -52 -60 -62 -115
-7 -40 -8 -67 -2 -73 6 -6 25 -2 52 10 23 10 55 30 70 42 15 13 28 31 28 41 0
10 13 22 33 29 18 7 41 12 49 12 9 0 28 -14 43 -32 24 -28 27 -39 23 -85 -3
-32 -13 -65 -25 -81 -11 -15 -41 -43 -67 -62 -45 -34 -45 -35 -20 -38 15 -2
41 7 65 22 21 14 43 26 48 26 5 0 28 22 50 49 39 47 41 52 41 118 0 63 -3 72
-27 95 -16 13 -44 35 -65 47 -20 12 -38 27 -41 35 -3 7 -1 19 4 27 5 8 9 26 9
40 0 15 -11 36 -28 52 -15 15 -33 27 -40 27 -7 0 -12 5 -12 10 0 6 -7 10 -15
10z"/>
</g>
</svg>
