<?xml version="1.0" standalone="no"?>
<!DOCTYPE svg PUBLIC "-//W3C//DTD SVG 20010904//EN"
 "http://www.w3.org/TR/2001/REC-SVG-20010904/DTD/svg10.dtd">
<svg version="1.0" xmlns="http://www.w3.org/2000/svg"
 width="56.000000pt" height="56.000000pt" viewBox="0 0 56.000000 56.000000"
 preserveAspectRatio="xMidYMid meet">
<metadata>
Created by potrace 1.16, written by Peter Selinger 2001-2019
</metadata>
<g transform="translate(0.000000,56.000000) scale(0.100000,-0.100000)"
fill="#000000" stroke="none">
<path d="M190 540 c-10 0 -21 -4 -24 -8 -3 -5 9 -25 26 -46 30 -36 30 -37 12
-59 -11 -12 -27 -28 -37 -37 -10 -8 -27 -40 -37 -69 -10 -30 -16 -60 -13 -67
2 -7 11 -15 19 -18 8 -3 27 0 42 6 15 7 42 27 60 45 18 18 42 33 53 33 13 0
25 -11 35 -35 7 -19 14 -46 14 -61 0 -20 -19 -46 -78 -103 -42 -42 -86 -80
-96 -84 -12 -5 -16 -11 -10 -17 5 -5 44 -6 88 -3 73 6 82 9 118 42 22 20 48
50 59 67 10 17 19 47 19 67 0 20 -5 48 -10 63 -6 15 -25 43 -42 63 -17 20 -47
41 -67 47 -30 9 -36 16 -37 40 -1 16 -2 45 -3 65 -1 30 -6 38 -36 52 -20 9
-44 17 -55 17z"/>
</g>
</svg>
