<?xml version="1.0" standalone="no"?>
<!DOCTYPE svg PUBLIC "-//W3C//DTD SVG 20010904//EN"
 "http://www.w3.org/TR/2001/REC-SVG-20010904/DTD/svg10.dtd">
<svg version="1.0" xmlns="http://www.w3.org/2000/svg"
 width="56.000000pt" height="56.000000pt" viewBox="0 0 56.000000 56.000000"
 preserveAspectRatio="xMidYMid meet">
<metadata>
Created by potrace 1.16, written by Peter Selinger 2001-2019
</metadata>
<g transform="translate(0.000000,56.000000) scale(0.100000,-0.100000)"
fill="#000000" stroke="none">
<path d="M262 540 c-10 0 -22 -3 -25 -6 -4 -4 5 -20 18 -36 14 -16 25 -36 25
-45 0 -8 -22 -36 -49 -61 -26 -26 -66 -57 -87 -69 -21 -12 -40 -29 -42 -37 -3
-12 5 -16 27 -16 24 0 31 4 31 19 0 11 12 24 32 32 17 7 47 12 65 12 19 -1 48
-12 67 -26 18 -14 39 -39 45 -55 11 -26 9 -36 -13 -81 -15 -29 -26 -67 -26
-91 0 -22 -3 -40 -7 -40 -5 0 -19 -9 -33 -20 -25 -20 -25 -20 10 -19 30 0 40
6 68 43 19 26 32 55 32 73 0 17 9 42 20 56 13 17 20 40 20 70 0 35 -5 48 -22
60 -13 8 -40 30 -60 50 -33 31 -35 37 -22 48 8 7 21 24 29 39 9 17 10 31 4 43
-6 9 -28 26 -49 37 -22 11 -48 20 -58 20z"/>
</g>
</svg>
