<?xml version="1.0" standalone="no"?>
<!DOCTYPE svg PUBLIC "-//W3C//DTD SVG 20010904//EN"
 "http://www.w3.org/TR/2001/REC-SVG-20010904/DTD/svg10.dtd">
<svg version="1.0" xmlns="http://www.w3.org/2000/svg"
 width="56.000000pt" height="56.000000pt" viewBox="0 0 56.000000 56.000000"
 preserveAspectRatio="xMidYMid meet">
<metadata>
Created by potrace 1.16, written by Peter Selinger 2001-2019
</metadata>
<g transform="translate(0.000000,56.000000) scale(0.100000,-0.100000)"
fill="#000000" stroke="none">
<path d="M251 560 c-28 0 -30 -3 -40 -52 -6 -29 -13 -70 -16 -90 -3 -22 -17
-49 -34 -66 -19 -19 -30 -40 -31 -63 -1 -19 -2 -42 -1 -51 1 -11 9 -18 22 -18
11 0 34 13 50 29 15 16 49 39 73 51 36 17 49 19 66 10 17 -9 19 -17 14 -53 -4
-23 -15 -54 -25 -69 -11 -14 -19 -31 -19 -37 0 -6 -9 -15 -20 -21 -14 -7 -20
-21 -20 -44 0 -28 -5 -36 -30 -46 -16 -7 -30 -19 -30 -26 0 -8 9 -14 19 -14
11 0 23 5 26 10 3 6 16 10 28 10 15 0 38 20 70 59 26 32 47 65 47 73 0 7 9 21
20 31 11 9 20 28 20 42 0 14 -9 44 -20 68 -12 23 -38 54 -61 70 -21 15 -46 27
-53 27 -8 0 -17 14 -21 33 -4 17 -12 47 -18 64 -8 25 -8 36 1 45 7 7 12 16 12
20 0 4 -13 8 -29 8z"/>
</g>
</svg>
