<?xml version="1.0" standalone="no"?>
<!DOCTYPE svg PUBLIC "-//W3C//DTD SVG 20010904//EN"
 "http://www.w3.org/TR/2001/REC-SVG-20010904/DTD/svg10.dtd">
<svg version="1.0" xmlns="http://www.w3.org/2000/svg"
 width="56.000000pt" height="56.000000pt" viewBox="0 0 56.000000 56.000000"
 preserveAspectRatio="xMidYMid meet">
<metadata>
Created by potrace 1.16, written by Peter Selinger 2001-2019
</metadata>
<g transform="translate(0.000000,56.000000) scale(0.100000,-0.100000)"
fill="#000000" stroke="none">
<path d="M193 560 c-18 0 -33 -5 -33 -11 0 -6 9 -22 19 -35 18 -23 18 -27 3
-57 -8 -17 -29 -47 -46 -64 -17 -18 -36 -33 -43 -33 -7 0 -19 -13 -28 -30 -15
-28 -14 -30 21 -64 19 -19 46 -37 60 -40 19 -5 35 1 63 23 28 23 41 43 51 78
6 27 14 54 16 61 3 10 19 12 65 8 33 -4 70 -11 82 -17 19 -11 19 -13 4 -24
-12 -9 -17 -27 -17 -62 0 -28 -6 -64 -13 -81 -7 -16 -38 -54 -70 -82 -31 -29
-69 -59 -84 -68 -16 -8 -46 -24 -68 -36 -40 -21 -40 -21 12 -24 29 -2 69 3 90
11 21 7 53 22 72 33 19 10 44 28 56 39 12 11 38 33 59 49 38 28 38 29 31 80
-3 28 -6 68 -5 88 0 26 -5 41 -20 51 -16 11 -19 21 -14 41 5 22 2 27 -22 37
-16 6 -39 16 -51 22 -12 5 -37 7 -55 3 -18 -3 -46 -9 -61 -12 -28 -7 -28 -6
-21 30 4 24 2 46 -6 62 -10 18 -22 24 -47 24z"/>
</g>
</svg>
