<?xml version="1.0" standalone="no"?>
<!DOCTYPE svg PUBLIC "-//W3C//DTD SVG 20010904//EN"
 "http://www.w3.org/TR/2001/REC-SVG-20010904/DTD/svg10.dtd">
<svg version="1.0" xmlns="http://www.w3.org/2000/svg"
 width="56.000000pt" height="56.000000pt" viewBox="0 0 56.000000 56.000000"
 preserveAspectRatio="xMidYMid meet">
<metadata>
Created by potrace 1.16, written by Peter Selinger 2001-2019
</metadata>
<g transform="translate(0.000000,56.000000) scale(0.100000,-0.100000)"
fill="#000000" stroke="none">
<path d="M325 534 c-37 6 -44 3 -82 -33 -24 -21 -43 -43 -43 -49 0 -6 -24 -24
-52 -41 -29 -16 -74 -50 -100 -75 -44 -42 -48 -49 -48 -93 0 -27 5 -65 11 -86
5 -20 16 -37 23 -37 8 0 21 11 30 25 9 13 16 31 16 38 0 8 38 47 86 86 47 39
91 71 98 71 8 0 19 6 25 14 10 11 4 18 -26 32 -21 11 -38 26 -38 34 0 10 12
16 33 18 19 2 44 -4 58 -13 14 -9 23 -23 20 -30 -3 -8 8 -21 27 -33 22 -13 37
-33 48 -65 16 -46 16 -46 -19 -69 -22 -14 -39 -35 -44 -53 -4 -17 -34 -56 -68
-89 -33 -33 -59 -64 -57 -70 2 -6 23 -9 48 -7 36 2 49 9 72 36 15 18 43 43 63
55 19 12 33 27 31 34 -2 6 -13 11 -25 11 -12 0 -23 5 -24 10 -2 6 17 11 42 13
24 2 51 8 58 14 7 6 19 25 26 43 7 17 21 38 30 48 16 15 16 19 2 39 -9 12 -16
28 -16 36 0 7 -14 31 -32 52 -17 22 -40 42 -52 46 -12 3 -31 16 -43 27 -13 11
-23 26 -23 33 0 7 -3 15 -7 17 -5 3 -26 8 -48 11z"/>
</g>
</svg>
