<?xml version="1.0" standalone="no"?>
<!DOCTYPE svg PUBLIC "-//W3C//DTD SVG 20010904//EN"
 "http://www.w3.org/TR/2001/REC-SVG-20010904/DTD/svg10.dtd">
<svg version="1.0" xmlns="http://www.w3.org/2000/svg"
 width="56.000000pt" height="56.000000pt" viewBox="0 0 56.000000 56.000000"
 preserveAspectRatio="xMidYMid meet">
<metadata>
Created by potrace 1.16, written by Peter Selinger 2001-2019
</metadata>
<g transform="translate(0.000000,56.000000) scale(0.100000,-0.100000)"
fill="#000000" stroke="none">
<path d="M266 560 c-8 0 -17 -9 -21 -20 -3 -10 -1 -28 4 -39 6 -11 11 -26 11
-33 0 -7 -20 -21 -43 -31 -23 -10 -52 -24 -64 -29 -13 -6 -25 -18 -27 -27 -3
-9 -2 -32 2 -51 6 -25 14 -36 29 -38 14 -2 33 12 63 47 34 42 48 51 73 51 18
0 37 -4 43 -8 5 -4 15 -23 20 -42 7 -25 6 -50 -4 -90 -7 -30 -17 -70 -22 -88
-4 -18 -20 -57 -34 -86 -14 -29 -26 -58 -26 -65 0 -8 12 -11 31 -9 28 3 33 10
60 76 16 40 40 98 54 128 15 32 25 73 25 98 0 25 -9 64 -19 89 -10 24 -27 47
-36 51 -9 3 -25 6 -36 6 -14 0 -19 7 -19 28 0 15 -12 39 -25 55 -13 15 -31 27
-39 27z"/>
</g>
</svg>
