<?xml version="1.0" standalone="no"?>
<!DOCTYPE svg PUBLIC "-//W3C//DTD SVG 20010904//EN"
 "http://www.w3.org/TR/2001/REC-SVG-20010904/DTD/svg10.dtd">
<svg version="1.0" xmlns="http://www.w3.org/2000/svg"
 width="56.000000pt" height="56.000000pt" viewBox="0 0 56.000000 56.000000"
 preserveAspectRatio="xMidYMid meet">
<metadata>
Created by potrace 1.16, written by Peter Selinger 2001-2019
</metadata>
<g transform="translate(0.000000,56.000000) scale(0.100000,-0.100000)"
fill="#000000" stroke="none">
<path d="M280 540 c-9 0 -21 -5 -28 -12 -7 -7 -12 -25 -12 -41 0 -18 -10 -38
-28 -55 -16 -15 -48 -40 -71 -56 -34 -22 -42 -33 -39 -54 2 -14 10 -30 20 -35
11 -8 28 -7 58 3 23 8 52 22 65 32 16 12 25 14 33 6 8 -8 14 -4 21 15 6 15 14
27 18 27 5 0 14 -4 22 -9 10 -6 12 -28 10 -84 -4 -66 -8 -81 -39 -126 -19 -28
-46 -55 -60 -61 -14 -6 -45 -29 -70 -50 -45 -39 -45 -39 15 -40 43 0 69 6 93
20 17 11 32 24 32 30 0 5 7 10 15 10 8 0 30 21 49 48 19 26 38 58 41 72 4 14
14 33 22 42 14 16 13 23 -7 74 -13 32 -39 71 -61 91 -33 31 -37 38 -28 61 8
22 5 30 -23 59 -17 18 -39 33 -48 33z"/>
</g>
</svg>
