<?xml version="1.0" standalone="no"?>
<!DOCTYPE svg PUBLIC "-//W3C//DTD SVG 20010904//EN"
 "http://www.w3.org/TR/2001/REC-SVG-20010904/DTD/svg10.dtd">
<svg version="1.0" xmlns="http://www.w3.org/2000/svg"
 width="56.000000pt" height="56.000000pt" viewBox="0 0 56.000000 56.000000"
 preserveAspectRatio="xMidYMid meet">
<metadata>
Created by potrace 1.16, written by Peter Selinger 2001-2019
</metadata>
<g transform="translate(0.000000,56.000000) scale(0.100000,-0.100000)"
fill="#000000" stroke="none">
<path d="M262 527 c-23 13 -43 18 -51 13 -11 -6 -10 -16 4 -53 17 -46 17 -46
-19 -90 -20 -24 -36 -48 -36 -54 0 -5 -11 -15 -25 -21 -20 -9 -25 -19 -27 -52
-1 -22 -2 -48 -2 -57 -1 -10 6 -19 14 -21 8 -1 38 18 65 44 28 25 60 54 73 64
12 10 31 16 41 13 11 -3 29 -15 41 -28 19 -20 20 -27 10 -63 -8 -31 -23 -50
-61 -79 -28 -21 -65 -50 -83 -66 -19 -15 -36 -38 -38 -52 -5 -22 -2 -25 27
-25 22 0 54 15 99 45 37 25 80 57 95 73 15 15 33 37 40 50 6 12 9 27 6 32 -3
5 -1 11 5 15 5 3 10 18 10 33 -1 15 -11 39 -23 53 -12 15 -41 36 -63 48 -23
11 -49 27 -58 36 -12 12 -13 22 -5 42 5 15 7 38 4 52 -3 16 -20 34 -43 48z"/>
</g>
</svg>
