<?xml version="1.0" standalone="no"?>
<!DOCTYPE svg PUBLIC "-//W3C//DTD SVG 20010904//EN"
 "http://www.w3.org/TR/2001/REC-SVG-20010904/DTD/svg10.dtd">
<svg version="1.0" xmlns="http://www.w3.org/2000/svg"
 width="56.000000pt" height="56.000000pt" viewBox="0 0 56.000000 56.000000"
 preserveAspectRatio="xMidYMid meet">
<metadata>
Created by potrace 1.16, written by Peter Selinger 2001-2019
</metadata>
<g transform="translate(0.000000,56.000000) scale(0.100000,-0.100000)"
fill="#000000" stroke="none">
<path d="M226 560 c-31 0 -36 -3 -36 -22 0 -13 5 -41 11 -62 8 -30 8 -45 -3
-65 -7 -14 -25 -45 -39 -69 -22 -34 -26 -53 -25 -96 2 -29 6 -58 10 -64 4 -7
13 -12 20 -12 7 0 25 11 40 25 15 14 26 35 26 49 0 19 7 27 25 32 16 4 34 -1
56 -16 29 -21 30 -25 24 -68 -4 -26 -15 -73 -26 -107 -10 -33 -19 -66 -19 -72
0 -7 8 -13 18 -13 9 0 29 15 43 33 15 18 36 54 48 79 11 26 21 54 21 63 0 8
-6 18 -13 21 -9 3 -12 16 -9 34 3 18 0 30 -7 30 -6 0 -11 6 -12 13 0 6 -22 30
-48 52 -45 38 -48 43 -47 86 1 33 -5 53 -17 67 -14 15 -17 29 -12 51 6 30 6
31 -29 31z"/>
</g>
</svg>
