<?xml version="1.0" standalone="no"?>
<!DOCTYPE svg PUBLIC "-//W3C//DTD SVG 20010904//EN"
 "http://www.w3.org/TR/2001/REC-SVG-20010904/DTD/svg10.dtd">
<svg version="1.0" xmlns="http://www.w3.org/2000/svg"
 width="56.000000pt" height="56.000000pt" viewBox="0 0 56.000000 56.000000"
 preserveAspectRatio="xMidYMid meet">
<metadata>
Created by potrace 1.16, written by Peter Selinger 2001-2019
</metadata>
<g transform="translate(0.000000,56.000000) scale(0.100000,-0.100000)"
fill="#000000" stroke="none">
<path d="M479 460 c-9 0 -23 -8 -32 -18 -10 -10 -14 -22 -10 -25 3 -4 15 -7
25 -7 12 0 18 -7 18 -21 0 -12 -8 -43 -17 -70 -10 -27 -23 -49 -29 -49 -7 0
-20 -12 -29 -27 -10 -16 -35 -51 -56 -79 -22 -28 -39 -56 -39 -62 0 -7 6 -12
13 -12 7 0 56 44 110 98 53 53 97 102 97 108 0 7 7 17 15 24 8 7 15 23 15 36
0 13 -4 24 -10 24 -5 0 -10 11 -10 24 0 14 -10 32 -22 40 -12 9 -30 16 -39 16z"/>
<path d="M122 440 c-5 0 -12 -3 -15 -7 -4 -3 -7 -20 -7 -38 0 -17 -5 -36 -12
-43 -7 -7 -19 -12 -28 -12 -8 0 -21 9 -28 20 -7 11 -17 20 -22 20 -6 0 -10
-15 -10 -34 0 -19 8 -44 19 -57 17 -21 21 -22 50 -9 17 7 35 9 39 5 4 -3 6
-33 5 -65 -2 -58 -2 -58 44 -94 47 -37 47 -37 65 -14 10 13 25 38 33 55 9 18
16 61 17 96 0 36 -5 75 -13 92 -8 15 -23 34 -35 42 -18 12 -24 11 -48 -8 -15
-12 -34 -18 -42 -15 -13 5 -14 9 -4 21 7 8 10 22 6 30 -3 8 -9 15 -14 15z m71
-90 c18 0 19 -5 14 -45 -4 -25 -2 -47 3 -50 6 -3 10 -21 10 -39 0 -17 -5 -37
-12 -44 -7 -7 -22 -12 -35 -12 -23 0 -23 0 -1 45 22 45 22 45 0 61 -12 8 -22
25 -22 38 0 12 5 27 12 34 7 7 21 12 31 12z"/>
<path d="M480 170 c-6 0 -10 -4 -10 -9 0 -5 12 -23 26 -40 14 -17 34 -31 45
-31 13 0 19 7 19 23 0 17 -10 28 -35 40 -20 9 -40 17 -45 17z"/>
</g>
</svg>
