<?xml version="1.0" standalone="no"?>
<!DOCTYPE svg PUBLIC "-//W3C//DTD SVG 20010904//EN"
 "http://www.w3.org/TR/2001/REC-SVG-20010904/DTD/svg10.dtd">
<svg version="1.0" xmlns="http://www.w3.org/2000/svg"
 width="56.000000pt" height="56.000000pt" viewBox="0 0 56.000000 56.000000"
 preserveAspectRatio="xMidYMid meet">
<metadata>
Created by potrace 1.16, written by Peter Selinger 2001-2019
</metadata>
<g transform="translate(0.000000,56.000000) scale(0.100000,-0.100000)"
fill="#000000" stroke="none">
<path d="M245 560 c-8 0 -16 -17 -20 -40 -4 -22 -4 -53 0 -69 4 -18 1 -40 -8
-58 -9 -15 -30 -41 -47 -58 -18 -16 -43 -52 -56 -80 -22 -44 -23 -51 -9 -64
14 -14 19 -14 49 3 18 10 57 38 85 63 52 45 52 45 76 23 14 -13 27 -38 31 -56
4 -21 -1 -56 -14 -96 -11 -35 -24 -78 -27 -96 -7 -32 -7 -32 38 -32 44 0 44 0
70 62 14 35 30 78 36 97 10 30 8 40 -16 80 -14 25 -48 68 -75 94 -26 26 -48
57 -48 67 0 11 -4 29 -9 42 -5 13 -17 44 -26 71 -9 26 -23 47 -30 47z"/>
</g>
</svg>
