<?xml version="1.0" standalone="no"?>
<!DOCTYPE svg PUBLIC "-//W3C//DTD SVG 20010904//EN"
 "http://www.w3.org/TR/2001/REC-SVG-20010904/DTD/svg10.dtd">
<svg version="1.0" xmlns="http://www.w3.org/2000/svg"
 width="56.000000pt" height="56.000000pt" viewBox="0 0 56.000000 56.000000"
 preserveAspectRatio="xMidYMid meet">
<metadata>
Created by potrace 1.16, written by Peter Selinger 2001-2019
</metadata>
<g transform="translate(0.000000,56.000000) scale(0.100000,-0.100000)"
fill="#000000" stroke="none">
<path d="M252 560 c-17 0 -32 -6 -35 -14 -3 -8 -4 -30 -1 -48 4 -29 -1 -39
-38 -76 -24 -23 -64 -56 -90 -73 -27 -17 -48 -38 -48 -46 0 -9 11 -31 25 -49
18 -23 36 -34 65 -39 39 -7 44 -4 111 51 39 32 73 64 76 70 3 7 16 20 29 29
14 9 33 13 44 10 10 -3 22 -15 25 -25 3 -11 -2 -45 -12 -76 -10 -32 -33 -74
-55 -99 -21 -24 -38 -50 -38 -59 0 -8 -6 -19 -14 -23 -7 -4 -35 -27 -61 -50
-48 -43 -48 -43 9 -43 44 0 56 3 56 16 0 8 15 21 33 29 17 8 54 39 80 69 26
31 54 71 62 90 8 19 19 37 25 41 5 3 10 30 10 59 0 30 -7 70 -15 90 -10 24
-28 42 -56 56 -34 18 -45 19 -74 10 -19 -6 -39 -9 -45 -5 -6 4 -10 21 -8 40 1
19 -5 39 -14 49 -9 9 -30 16 -46 16z"/>
</g>
</svg>
