<?xml version="1.0" standalone="no"?>
<!DOCTYPE svg PUBLIC "-//W3C//DTD SVG 20010904//EN"
 "http://www.w3.org/TR/2001/REC-SVG-20010904/DTD/svg10.dtd">
<svg version="1.0" xmlns="http://www.w3.org/2000/svg"
 width="56.000000pt" height="56.000000pt" viewBox="0 0 56.000000 56.000000"
 preserveAspectRatio="xMidYMid meet">
<metadata>
Created by potrace 1.16, written by Peter Selinger 2001-2019
</metadata>
<g transform="translate(0.000000,56.000000) scale(0.100000,-0.100000)"
fill="#000000" stroke="none">
<path d="M305 543 c-14 10 -25 13 -25 7 0 -6 -10 -15 -22 -20 -13 -5 -17 -9
-10 -9 6 -1 12 -6 12 -12 0 -6 -14 -30 -32 -53 -17 -22 -36 -45 -42 -51 -7 -5
-26 -32 -44 -59 -17 -27 -32 -53 -32 -58 0 -4 -7 -8 -15 -8 -9 0 -20 -12 -25
-26 -7 -18 -7 -31 1 -40 6 -7 18 -10 27 -7 9 4 37 29 62 56 46 50 46 50 77 33
32 -16 32 -16 70 28 24 28 44 42 51 37 7 -4 23 -22 37 -41 14 -19 25 -43 25
-53 0 -11 -18 -39 -40 -63 -22 -24 -40 -50 -40 -57 0 -8 -25 -32 -57 -56 -31
-23 -62 -53 -69 -66 -13 -25 -12 -25 31 -25 29 0 55 8 78 23 18 12 54 39 79
60 29 24 54 56 67 87 12 27 21 69 21 93 0 35 -7 53 -35 89 -19 24 -45 49 -58
55 -12 6 -35 14 -52 20 -23 7 -30 14 -29 33 1 14 5 34 8 45 4 14 -1 25 -19 38z"/>
</g>
</svg>
