<?xml version="1.0" standalone="no"?>
<!DOCTYPE svg PUBLIC "-//W3C//DTD SVG 20010904//EN"
 "http://www.w3.org/TR/2001/REC-SVG-20010904/DTD/svg10.dtd">
<svg version="1.0" xmlns="http://www.w3.org/2000/svg"
 width="56.000000pt" height="56.000000pt" viewBox="0 0 56.000000 56.000000"
 preserveAspectRatio="xMidYMid meet">
<metadata>
Created by potrace 1.16, written by Peter Selinger 2001-2019
</metadata>
<g transform="translate(0.000000,56.000000) scale(0.100000,-0.100000)"
fill="#000000" stroke="none">
<path d="M185 450 c-6 0 -18 -15 -26 -32 -13 -31 -17 -33 -67 -34 -29 -1 -58
-6 -64 -12 -6 -6 -8 -18 -4 -27 4 -12 13 -15 29 -11 12 3 28 2 35 -3 8 -5 11
-17 7 -33 -3 -13 -19 -40 -36 -59 -16 -19 -29 -40 -29 -46 0 -7 8 -13 18 -13
10 0 23 5 30 12 9 9 12 8 13 -7 1 -11 0 -35 -1 -53 -1 -18 4 -40 10 -48 7 -7
20 -14 29 -14 9 0 37 19 61 43 31 30 49 57 57 88 6 24 14 63 17 86 3 23 2 53
-4 67 -5 14 -16 26 -23 26 -7 0 -19 16 -27 35 -8 19 -19 35 -25 35z m14 -106
c12 -11 12 -23 1 -84 -7 -39 -19 -78 -26 -88 -10 -13 -17 -15 -31 -6 -9 6 -21
27 -25 48 -6 30 -3 44 17 76 14 22 25 44 25 49 0 5 6 11 13 14 6 3 18 -1 26
-9z"/>
<path d="M409 420 c-10 0 -21 -5 -24 -10 -4 -6 -1 -17 5 -25 7 -8 20 -15 29
-15 9 0 28 -10 43 -23 27 -22 27 -22 5 -76 -18 -45 -32 -62 -81 -95 -33 -23
-60 -45 -60 -51 -1 -5 9 -11 22 -13 13 -2 31 3 40 11 9 7 42 26 72 41 30 15
61 35 68 44 6 9 12 43 12 77 0 51 -4 65 -22 82 -13 11 -38 28 -57 37 -19 9
-42 16 -52 16z"/>
</g>
</svg>
