<?xml version="1.0" standalone="no"?>
<!DOCTYPE svg PUBLIC "-//W3C//DTD SVG 20010904//EN"
 "http://www.w3.org/TR/2001/REC-SVG-20010904/DTD/svg10.dtd">
<svg version="1.0" xmlns="http://www.w3.org/2000/svg"
 width="56.000000pt" height="56.000000pt" viewBox="0 0 56.000000 56.000000"
 preserveAspectRatio="xMidYMid meet">
<metadata>
Created by potrace 1.16, written by Peter Selinger 2001-2019
</metadata>
<g transform="translate(0.000000,56.000000) scale(0.100000,-0.100000)"
fill="#000000" stroke="none">
<path d="M236 545 c-11 12 -16 12 -23 3 -4 -7 -9 -26 -10 -43 0 -16 -8 -55
-16 -85 -8 -31 -20 -66 -28 -78 -11 -17 -11 -24 -1 -34 9 -9 24 -9 70 0 32 7
72 12 90 12 21 0 35 -6 42 -19 5 -11 7 -28 3 -38 -3 -10 -19 -38 -35 -64 -16
-25 -61 -70 -100 -100 -39 -29 -83 -64 -97 -76 -26 -22 -26 -22 14 -23 33 0
50 8 99 48 32 26 73 55 90 65 17 11 48 36 69 58 36 38 37 40 37 117 0 63 -4
82 -17 95 -10 8 -36 15 -58 15 -28 0 -44 6 -57 22 -10 12 -16 26 -13 31 3 4
-1 24 -9 44 -8 19 -19 35 -25 35 -5 0 -16 7 -25 15z"/>
</g>
</svg>
