<?xml version="1.0" standalone="no"?>
<!DOCTYPE svg PUBLIC "-//W3C//DTD SVG 20010904//EN"
 "http://www.w3.org/TR/2001/REC-SVG-20010904/DTD/svg10.dtd">
<svg version="1.0" xmlns="http://www.w3.org/2000/svg"
 width="56.000000pt" height="56.000000pt" viewBox="0 0 56.000000 56.000000"
 preserveAspectRatio="xMidYMid meet">
<metadata>
Created by potrace 1.16, written by Peter Selinger 2001-2019
</metadata>
<g transform="translate(0.000000,56.000000) scale(0.100000,-0.100000)"
fill="#000000" stroke="none">
<path d="M205 500 c-12 0 -30 -9 -40 -20 -18 -20 -18 -21 2 -26 11 -3 26 -17
33 -30 8 -13 10 -27 6 -31 -4 -4 -20 -8 -36 -9 -21 -1 -34 5 -45 23 -9 13 -20
21 -26 17 -6 -3 -7 -19 -3 -37 3 -18 15 -44 25 -59 14 -20 17 -32 10 -50 -5
-13 -16 -30 -25 -37 -9 -7 -16 -20 -16 -27 0 -8 -7 -14 -15 -14 -8 0 -15 -3
-15 -7 0 -5 -14 -16 -30 -25 -26 -15 -30 -23 -30 -62 0 -26 5 -46 13 -49 6 -3
29 13 49 35 21 22 38 50 39 62 0 11 3 15 6 9 2 -7 10 -13 16 -13 7 -1 22 -9
35 -20 13 -11 25 -32 26 -47 3 -23 9 -29 33 -31 25 -3 37 4 65 37 19 23 42 41
52 41 9 0 24 4 34 9 9 5 44 22 77 37 33 16 65 28 71 29 6 0 18 8 27 17 9 9 17
30 17 47 0 17 -8 41 -17 53 -10 12 -31 36 -48 55 -24 27 -41 35 -82 42 -45 7
-55 5 -70 -11 -11 -12 -13 -22 -7 -28 5 -5 31 -14 57 -19 26 -5 57 -17 67 -26
11 -10 20 -27 20 -39 0 -11 -21 -40 -47 -65 -27 -25 -70 -53 -98 -63 -33 -12
-63 -17 -86 -13 -20 4 -46 16 -58 28 -20 22 -20 22 6 66 16 27 28 39 33 32 4
-7 8 -33 9 -58 1 -26 3 -48 5 -51 2 -2 13 1 24 7 14 7 22 25 26 64 4 30 4 67
0 83 -4 16 -15 40 -25 53 -10 13 -16 28 -13 33 4 5 -2 27 -11 49 -13 28 -24
39 -40 39z m7 -370 c9 0 20 -5 23 -11 4 -6 4 -13 1 -17 -4 -3 -14 2 -23 11
-16 16 -16 17 -1 17z"/>
</g>
</svg>
