<?xml version="1.0" standalone="no"?>
<!DOCTYPE svg PUBLIC "-//W3C//DTD SVG 20010904//EN"
 "http://www.w3.org/TR/2001/REC-SVG-20010904/DTD/svg10.dtd">
<svg version="1.0" xmlns="http://www.w3.org/2000/svg"
 width="56.000000pt" height="56.000000pt" viewBox="0 0 56.000000 56.000000"
 preserveAspectRatio="xMidYMid meet">
<metadata>
Created by potrace 1.16, written by Peter Selinger 2001-2019
</metadata>
<g transform="translate(0.000000,56.000000) scale(0.100000,-0.100000)"
fill="#000000" stroke="none">
<path d="M144 490 c-8 0 -14 -5 -14 -11 0 -6 9 -22 20 -36 11 -14 20 -34 20
-43 0 -12 -12 -21 -37 -27 -20 -4 -38 -14 -41 -21 -2 -7 5 -16 17 -19 12 -3
21 -11 21 -17 0 -6 -27 -40 -59 -74 -32 -35 -62 -75 -66 -89 -4 -17 -1 -31 8
-40 12 -12 18 -11 44 11 16 14 41 42 55 63 14 21 42 64 62 96 20 31 39 57 42
57 3 0 14 -5 25 -10 10 -6 19 -20 19 -31 0 -11 -9 -38 -20 -59 -15 -30 -26
-40 -45 -40 -14 0 -29 -8 -35 -19 -5 -11 -10 -31 -10 -45 0 -15 7 -27 19 -31
10 -3 29 -1 42 5 13 6 34 26 47 45 12 19 22 39 22 45 0 5 9 24 20 42 11 18 20
47 20 65 0 22 -8 38 -26 52 -15 12 -35 21 -45 21 -12 0 -21 10 -25 28 -3 15
-8 35 -11 45 -2 10 -16 22 -30 28 -13 5 -31 9 -39 9z"/>
<path d="M490 422 c-14 2 -38 1 -55 -2 -16 -3 -29 -10 -29 -15 1 -6 23 -17 50
-26 32 -11 51 -24 56 -40 6 -16 4 -37 -6 -64 -10 -24 -49 -74 -97 -123 -54
-56 -78 -87 -71 -94 6 -6 17 -5 33 4 13 7 51 40 84 73 34 33 67 75 74 93 7 17
17 32 22 32 5 0 9 25 9 55 0 44 -5 61 -22 79 -13 13 -34 25 -48 28z"/>
</g>
</svg>
