<?xml version="1.0" standalone="no"?>
<!DOCTYPE svg PUBLIC "-//W3C//DTD SVG 20010904//EN"
 "http://www.w3.org/TR/2001/REC-SVG-20010904/DTD/svg10.dtd">
<svg version="1.0" xmlns="http://www.w3.org/2000/svg"
 width="128.000000pt" height="128.000000pt" viewBox="0 0 128.000000 128.000000"
 preserveAspectRatio="xMidYMid meet">
<metadata>
Created by potrace 1.16, written by Peter Selinger 2001-2019
</metadata>
<g transform="translate(0.000000,128.000000) scale(0.100000,-0.100000)"
fill="#000000" stroke="none">
<path d="M617 1239 c-18 0 -38 -3 -44 -6 -7 -2 -13 -11 -13 -18 0 -7 20 -31
45 -53 25 -22 45 -44 45 -49 0 -5 -19 -25 -42 -44 -24 -20 -53 -41 -64 -47
-12 -6 -46 -32 -75 -57 -30 -26 -63 -52 -75 -58 -11 -7 -34 -21 -51 -31 -17
-11 -39 -35 -49 -53 -13 -24 -14 -37 -6 -45 6 -6 48 -17 94 -24 46 -8 107 -14
136 -14 28 0 52 -1 52 -3 0 -2 -9 -21 -20 -44 -10 -22 -26 -73 -34 -112 -8
-39 -13 -77 -10 -84 2 -7 19 -20 37 -28 18 -9 46 -23 62 -32 17 -9 38 -19 49
-22 15 -4 18 -12 13 -41 -3 -19 -17 -60 -31 -91 -14 -30 -26 -64 -26 -76 0
-11 9 -35 21 -53 14 -22 32 -37 57 -44 20 -5 45 -10 55 -10 13 0 18 -6 15 -22
-2 -17 -17 -28 -56 -44 -28 -11 -55 -24 -59 -27 -3 -4 26 -7 66 -7 40 0 93 7
119 15 26 9 74 30 107 48 47 25 61 38 63 58 2 19 -4 33 -24 48 -23 18 -38 20
-115 19 -48 -1 -91 1 -94 4 -4 4 -7 30 -7 60 0 29 3 85 6 123 4 48 2 78 -6 94
-7 13 -29 30 -48 37 -19 7 -47 13 -62 13 -23 1 -28 6 -29 29 -1 15 -2 64 -4
110 -2 63 1 86 12 98 10 10 32 14 62 13 25 -1 73 4 106 11 33 7 81 23 107 36
33 17 50 32 54 50 4 16 0 39 -9 60 -15 30 -22 34 -54 34 -21 1 -78 9 -127 18
-49 10 -91 23 -93 28 -2 6 5 18 15 28 11 9 50 25 87 36 38 11 73 24 79 30 7 7
7 16 0 28 -6 9 -33 24 -59 34 -26 9 -57 26 -69 37 -11 11 -34 24 -49 30 -16 6
-43 11 -60 10z m-3 -249 c5 -5 4 -23 -4 -42 -7 -18 -18 -46 -25 -63 -7 -16
-16 -43 -22 -60 -5 -16 -14 -29 -19 -28 -5 1 -40 14 -79 28 -38 15 -71 28 -73
30 -2 2 1 11 6 21 5 10 54 41 108 70 55 29 103 48 108 44z m78 -50 c6 0 29
-12 50 -26 21 -15 38 -31 38 -35 0 -5 -10 -15 -23 -23 -12 -9 -38 -17 -57 -18
-31 -3 -35 0 -38 23 -2 14 2 37 7 52 6 15 16 27 23 27z"/>
</g>
</svg>
