<?xml version="1.0" standalone="no"?>
<!DOCTYPE svg PUBLIC "-//W3C//DTD SVG 20010904//EN"
 "http://www.w3.org/TR/2001/REC-SVG-20010904/DTD/svg10.dtd">
<svg version="1.0" xmlns="http://www.w3.org/2000/svg"
 width="128.000000pt" height="128.000000pt" viewBox="0 0 128.000000 128.000000"
 preserveAspectRatio="xMidYMid meet">
<metadata>
Created by potrace 1.16, written by Peter Selinger 2001-2019
</metadata>
<g transform="translate(0.000000,128.000000) scale(0.100000,-0.100000)"
fill="#000000" stroke="none">
<path d="M797 1255 c-33 0 -61 -4 -64 -8 -3 -5 6 -21 20 -35 14 -15 28 -44 32
-64 7 -34 5 -39 -26 -57 -19 -12 -43 -21 -55 -21 -11 0 -29 -7 -40 -15 -10 -8
-22 -15 -27 -15 -4 0 -23 23 -43 50 -35 48 -38 50 -73 44 -20 -4 -37 -8 -39
-9 -2 -2 4 -17 12 -34 9 -16 16 -37 16 -45 0 -8 -11 -27 -24 -43 -15 -18 -48
-37 -88 -50 -34 -12 -76 -24 -93 -25 -18 -2 -31 -9 -33 -20 -2 -9 6 -22 19
-28 17 -9 29 -9 58 3 20 8 56 20 81 26 25 7 52 14 61 17 12 4 18 -3 22 -33 4
-21 4 -85 1 -143 -3 -58 -7 -114 -9 -126 -3 -11 -14 -31 -25 -44 -11 -13 -20
-33 -20 -46 0 -12 7 -29 15 -37 8 -8 16 -20 17 -25 2 -6 -15 -20 -36 -31 -29
-15 -43 -18 -53 -10 -7 7 -10 21 -7 34 3 13 1 25 -4 29 -5 3 -14 -6 -20 -19
-7 -14 -23 -27 -39 -31 -15 -3 -55 -20 -88 -37 -33 -17 -72 -42 -87 -56 -22
-20 -28 -35 -28 -68 0 -33 5 -45 21 -54 12 -6 35 -8 51 -5 17 3 52 24 79 47
29 24 55 39 64 35 8 -3 15 -13 15 -23 0 -10 -9 -33 -21 -52 -14 -23 -23 -59
-26 -107 -5 -58 -2 -78 11 -99 9 -14 23 -25 31 -25 8 0 35 14 59 32 25 17 50
45 56 62 7 17 15 38 19 46 4 8 22 18 39 22 18 5 32 13 32 17 0 5 14 14 30 20
17 5 30 14 30 20 0 5 8 7 18 5 9 -2 22 -1 29 3 6 5 13 22 15 38 2 25 -1 31
-20 33 -17 3 -25 -2 -29 -17 -4 -16 -13 -21 -40 -21 -27 0 -37 -6 -50 -27 -13
-24 -23 -28 -65 -30 -50 -2 -50 -2 -44 50 4 29 7 69 7 89 0 20 4 40 10 44 6 3
16 -2 23 -12 12 -16 14 -16 31 9 9 15 21 24 26 21 5 -3 34 3 65 13 35 11 66
29 83 48 23 27 31 30 51 23 15 -5 34 -5 49 1 15 6 49 12 78 14 29 2 59 10 68
17 10 9 43 12 99 11 63 -2 86 1 95 13 8 9 10 27 6 46 -4 16 -15 35 -25 40 -10
6 -36 10 -57 10 -21 0 -58 -9 -82 -20 -24 -11 -49 -20 -57 -20 -7 0 -16 5 -19
10 -4 6 -7 46 -7 88 0 42 -2 85 -5 95 -2 10 -16 22 -30 28 -15 6 -31 5 -42 -1
-14 -7 -24 -3 -46 20 -27 29 -27 29 -64 9 -19 -10 -48 -19 -63 -19 -28 0 -28
0 -25 80 2 75 4 80 27 90 14 5 49 14 79 20 36 7 58 7 66 0 7 -6 15 -37 18 -70
3 -34 10 -67 16 -74 6 -7 22 -11 35 -9 16 4 28 16 35 36 6 16 11 51 11 76 0
25 6 57 13 71 9 18 24 26 57 32 25 4 51 16 58 25 7 10 11 27 10 38 -3 18 -11
20 -75 20 -39 0 -76 5 -82 10 -5 6 -11 26 -13 45 -3 35 -3 35 -61 35z m-166
-476 c16 -11 29 -25 29 -30 0 -5 -7 -21 -16 -34 -9 -14 -25 -25 -35 -25 -16 0
-19 8 -19 48 0 27 3 52 6 55 4 4 20 -3 35 -14z m151 -39 c10 -12 18 -27 18
-34 0 -6 -4 -17 -9 -24 -4 -8 -19 -12 -32 -10 -16 2 -25 11 -27 26 -2 13 5 33
14 44 18 20 19 20 36 -2z m-117 -71 c5 1 31 -22 58 -50 39 -41 46 -53 36 -65
-6 -8 -17 -14 -24 -14 -7 0 -18 -7 -25 -15 -8 -9 -22 -12 -41 -8 -24 4 -33 1
-45 -16 -8 -11 -25 -21 -38 -21 -12 0 -27 -5 -33 -11 -8 -8 -13 0 -18 30 -5
29 -2 46 9 63 9 12 16 29 16 38 0 8 4 21 9 29 8 13 12 13 26 1 15 -13 20 -11
39 12 11 15 25 27 31 27z"/>
<path d="M891 349 c-31 -1 -65 -4 -76 -6 -10 -3 -29 -12 -41 -19 -12 -8 -28
-12 -37 -9 -8 4 -18 2 -22 -4 -3 -6 -3 -16 0 -21 5 -7 11 -8 19 -1 6 5 28 8
49 6 20 -1 57 -15 82 -29 24 -15 49 -35 55 -46 5 -10 10 -29 10 -42 0 -13 -21
-48 -48 -80 -36 -44 -53 -57 -75 -57 -22 -1 -28 -5 -25 -18 2 -12 11 -17 23
-15 11 2 64 5 117 7 62 3 108 10 127 20 17 8 37 25 45 38 11 16 12 33 7 65 -5
23 -16 51 -25 61 -9 9 -16 26 -16 36 0 10 -9 33 -21 52 -12 18 -37 40 -56 48
-20 8 -61 14 -92 14z"/>
</g>
</svg>
