<?xml version="1.0" standalone="no"?>
<!DOCTYPE svg PUBLIC "-//W3C//DTD SVG 20010904//EN"
 "http://www.w3.org/TR/2001/REC-SVG-20010904/DTD/svg10.dtd">
<svg version="1.0" xmlns="http://www.w3.org/2000/svg"
 width="128.000000pt" height="128.000000pt" viewBox="0 0 128.000000 128.000000"
 preserveAspectRatio="xMidYMid meet">
<metadata>
Created by potrace 1.16, written by Peter Selinger 2001-2019
</metadata>
<g transform="translate(0.000000,128.000000) scale(0.100000,-0.100000)"
fill="#000000" stroke="none">
<path d="M425 1280 c-55 0 -55 0 -55 -30 0 -17 7 -44 15 -61 11 -20 20 -27 29
-22 8 5 25 22 40 39 14 18 26 41 26 53 0 19 -6 21 -55 21z"/>
<path d="M744 1280 c-21 0 -34 -5 -34 -13 0 -7 -9 -23 -20 -35 -11 -12 -20
-26 -20 -32 0 -5 16 -10 35 -10 29 0 36 -4 41 -25 3 -14 4 -40 0 -58 -3 -17
-6 -65 -7 -105 -1 -41 -7 -78 -13 -83 -6 -5 -28 -22 -49 -38 -21 -16 -52 -33
-69 -36 -21 -5 -34 -16 -41 -36 -6 -16 -15 -29 -20 -29 -4 0 -10 7 -13 15 -4
8 -15 15 -25 15 -10 0 -19 -6 -19 -14 0 -8 5 -18 10 -21 6 -3 8 -25 5 -48 -3
-23 -9 -64 -15 -90 -5 -27 -12 -53 -16 -58 -3 -6 -3 -32 1 -59 5 -34 12 -50
22 -50 12 0 12 -2 1 -13 -7 -7 -35 -20 -62 -28 -30 -9 -55 -24 -67 -41 -10
-14 -19 -30 -19 -36 0 -5 -7 -23 -16 -41 -9 -17 -13 -39 -10 -47 5 -13 10 -13
37 3 17 10 33 24 36 31 3 6 9 12 14 12 5 0 32 11 61 25 36 17 55 22 62 15 7
-7 7 -16 -2 -28 -7 -9 -26 -45 -43 -79 -30 -62 -30 -62 -13 -117 15 -47 22
-56 40 -56 13 0 28 9 34 20 6 11 16 20 23 20 7 0 26 12 42 28 16 15 45 33 65
40 19 8 55 17 79 22 24 4 52 5 63 2 13 -3 18 -14 18 -37 0 -27 -9 -40 -54 -79
-30 -25 -58 -46 -63 -46 -4 0 -19 -9 -33 -20 -25 -20 -25 -20 13 -20 21 0 72
10 113 22 54 15 82 29 100 50 19 24 24 41 24 88 0 48 -5 64 -25 88 -14 17 -38
33 -53 36 -15 4 -65 -1 -112 -10 -47 -9 -102 -19 -123 -21 -21 -3 -43 -1 -49
5 -7 7 6 23 39 48 27 22 66 48 86 59 20 11 37 23 37 27 0 5 20 8 43 8 31 0 49
6 62 20 12 13 15 27 11 45 -5 18 -15 27 -36 32 -16 3 -35 12 -41 20 -9 11 -9
39 3 126 9 62 16 143 17 181 1 39 4 73 7 77 2 4 11 61 19 126 8 65 15 135 15
155 0 27 -8 44 -31 67 -22 23 -40 31 -65 31z m-61 -503 c32 2 39 -2 48 -24 6
-18 6 -37 -1 -59 -11 -32 -13 -34 -49 -28 -22 4 -48 1 -60 -5 -17 -9 -22 -9
-26 1 -3 7 -6 33 -7 58 -3 42 -2 45 27 50 17 3 47 6 68 7z m-111 -138 c4 0 10
-3 13 -9 3 -5 1 -18 -5 -29 -7 -13 -7 -22 0 -26 5 -3 10 -10 10 -16 0 -5 -8
-9 -19 -9 -10 0 -26 11 -35 25 -9 13 -16 28 -16 32 0 5 10 13 23 19 12 7 25
12 29 13z m121 -8 c5 -5 7 -17 5 -27 -1 -9 -9 -19 -15 -22 -8 -2 -13 6 -13 21
0 13 3 27 7 31 4 3 11 2 16 -3z m-104 -91 c11 0 27 -3 35 -6 11 -4 13 -10 7
-18 -6 -7 -12 -36 -15 -66 -3 -30 -1 -62 4 -69 5 -9 5 -22 -1 -33 -5 -10 -16
-18 -24 -18 -10 0 -15 11 -16 33 -1 17 -1 36 0 41 1 5 -8 6 -21 3 -12 -4 -27
-2 -34 4 -9 8 -9 16 2 38 11 21 20 28 34 24 14 -4 20 0 20 10 0 8 -5 17 -12
19 -6 2 -9 12 -5 21 3 9 15 17 26 17z m108 -31 c7 -6 13 -15 13 -20 0 -5 -9
-9 -20 -9 -11 0 -20 6 -20 13 0 8 3 17 7 20 3 4 12 2 20 -4z m14 -59 c5 0 9
-7 9 -15 0 -8 -7 -15 -15 -15 -9 0 -12 6 -9 15 4 8 10 15 15 15z m-240 -66 c5
-3 9 -9 9 -15 0 -5 -7 -9 -15 -9 -8 0 -15 4 -15 8 0 5 3 12 6 15 4 4 11 4 15
1z m140 -165 c4 -7 5 -17 2 -22 -3 -5 -10 -4 -15 1 -6 6 -7 16 -3 22 6 9 9 9
16 -1z"/>
</g>
</svg>
