<?xml version="1.0" standalone="no"?>
<!DOCTYPE svg PUBLIC "-//W3C//DTD SVG 20010904//EN"
 "http://www.w3.org/TR/2001/REC-SVG-20010904/DTD/svg10.dtd">
<svg version="1.0" xmlns="http://www.w3.org/2000/svg"
 width="128.000000pt" height="128.000000pt" viewBox="0 0 128.000000 128.000000"
 preserveAspectRatio="xMidYMid meet">
<metadata>
Created by potrace 1.16, written by Peter Selinger 2001-2019
</metadata>
<g transform="translate(0.000000,128.000000) scale(0.100000,-0.100000)"
fill="#000000" stroke="none">
<path d="M655 1270 c-12 10 -16 7 -24 -13 -6 -14 -7 -43 -4 -64 3 -21 13 -51
21 -68 8 -16 33 -47 56 -67 36 -33 39 -39 26 -52 -8 -7 -36 -25 -62 -40 -27
-14 -69 -38 -95 -53 -27 -14 -92 -63 -146 -107 -54 -44 -105 -93 -113 -108
-11 -21 -12 -38 -5 -69 5 -23 14 -46 19 -51 5 -5 33 -15 61 -23 38 -10 68 -11
104 -5 29 5 72 16 96 24 24 9 52 16 62 16 16 0 19 -8 19 -45 0 -32 5 -47 16
-52 8 -3 19 -16 24 -29 5 -12 22 -28 37 -36 15 -7 29 -22 31 -34 2 -14 -15
-37 -53 -73 -48 -46 -56 -58 -53 -85 2 -25 11 -36 49 -56 25 -14 60 -33 78
-43 18 -10 31 -23 28 -30 -2 -6 -17 -18 -33 -27 -16 -9 -55 -27 -87 -39 -31
-13 -60 -27 -63 -32 -3 -5 15 -9 39 -9 30 0 55 8 80 25 20 13 56 30 79 36 24
7 55 21 70 31 14 10 29 32 33 49 4 17 2 35 -4 43 -7 8 -32 17 -57 21 -25 3
-64 13 -87 21 -23 8 -44 20 -48 26 -4 7 2 26 13 42 12 17 38 47 60 67 22 22
38 46 38 59 0 15 -18 40 -50 69 -27 25 -56 52 -64 59 -12 10 -13 17 -4 37 8
17 25 29 52 36 23 6 56 19 75 28 19 9 50 31 68 49 19 19 33 41 31 50 -3 13
-14 17 -51 16 -33 0 -53 -6 -69 -21 -13 -12 -35 -25 -50 -28 -23 -6 -30 -2
-47 25 -13 23 -18 43 -14 66 4 26 2 35 -12 40 -9 4 -41 -1 -71 -10 -29 -9 -61
-24 -70 -33 -15 -16 -15 -18 6 -35 12 -10 31 -18 41 -18 11 0 23 -10 28 -22 5
-13 6 -28 4 -35 -3 -6 -23 -21 -44 -33 -22 -11 -71 -25 -108 -32 -37 -6 -74
-9 -83 -6 -8 4 -18 19 -22 34 -6 24 2 36 71 109 61 64 95 90 158 122 44 22
101 50 126 62 25 11 52 21 60 21 8 0 27 6 42 13 15 6 29 18 32 26 3 8 -2 22
-11 32 -10 11 -23 19 -30 19 -7 0 -49 36 -93 80 -44 44 -82 89 -86 99 -3 11
-12 25 -20 31z"/>
</g>
</svg>
