<?xml version="1.0" standalone="no"?>
<!DOCTYPE svg PUBLIC "-//W3C//DTD SVG 20010904//EN"
 "http://www.w3.org/TR/2001/REC-SVG-20010904/DTD/svg10.dtd">
<svg version="1.0" xmlns="http://www.w3.org/2000/svg"
 width="128.000000pt" height="128.000000pt" viewBox="0 0 128.000000 128.000000"
 preserveAspectRatio="xMidYMid meet">
<metadata>
Created by potrace 1.16, written by Peter Selinger 2001-2019
</metadata>
<g transform="translate(0.000000,128.000000) scale(0.100000,-0.100000)"
fill="#000000" stroke="none">
<path d="M580 1280 c-13 0 -20 -7 -20 -20 0 -10 14 -35 30 -53 17 -19 30 -39
30 -44 0 -5 -13 -21 -28 -36 -15 -15 -51 -34 -78 -42 -28 -8 -60 -23 -72 -34
-12 -10 -22 -23 -22 -29 0 -6 -12 -28 -26 -49 -20 -29 -25 -46 -21 -75 3 -20
12 -51 21 -69 9 -18 16 -49 16 -69 0 -27 7 -43 28 -63 15 -15 38 -27 51 -27
23 0 23 0 17 -122 -3 -68 -8 -140 -12 -160 -5 -29 -1 -44 16 -68 12 -16 30
-30 40 -30 12 0 22 -12 30 -35 6 -19 24 -45 39 -57 15 -13 50 -34 79 -48 32
-15 52 -31 52 -41 0 -9 -16 -24 -35 -33 -19 -9 -41 -26 -50 -39 -8 -12 -15
-25 -15 -29 0 -5 17 -8 38 -8 20 0 46 7 56 15 11 8 28 15 38 15 11 0 35 16 55
35 19 18 39 35 45 37 5 2 12 23 15 47 5 35 3 43 -8 39 -8 -2 -15 -14 -17 -26
-2 -12 -8 -22 -14 -22 -5 0 -18 10 -29 22 -11 13 -29 40 -40 61 -13 25 -25 37
-35 33 -8 -3 -21 -3 -29 0 -8 4 -15 12 -15 20 0 7 -13 23 -29 35 -17 12 -35
34 -41 50 -7 17 -17 26 -26 22 -8 -3 -18 5 -25 20 -10 22 -8 32 10 62 12 21
21 53 21 78 0 23 -4 58 -10 77 -5 19 -22 44 -37 56 -27 22 -27 22 7 42 19 11
42 27 50 34 8 8 32 22 53 32 21 10 37 24 37 34 0 9 3 27 6 40 5 17 2 22 -12
22 -10 0 -28 10 -42 23 -22 20 -24 21 -36 5 -12 -16 -16 -14 -47 18 -21 21
-41 34 -54 32 -13 -2 -24 -15 -31 -38 -7 -19 -18 -35 -25 -35 -7 0 -21 15 -32
33 -10 18 -16 39 -13 47 3 9 18 15 35 15 19 0 34 8 43 23 9 12 33 28 54 36 21
7 46 20 55 28 9 7 47 27 85 43 52 21 70 34 72 50 3 15 -8 34 -28 55 -27 28
-42 34 -91 40 -33 4 -59 11 -59 16 0 5 -9 9 -20 9z"/>
</g>
</svg>
