<?xml version="1.0" standalone="no"?>
<!DOCTYPE svg PUBLIC "-//W3C//DTD SVG 20010904//EN"
 "http://www.w3.org/TR/2001/REC-SVG-20010904/DTD/svg10.dtd">
<svg version="1.0" xmlns="http://www.w3.org/2000/svg"
 width="128.000000pt" height="128.000000pt" viewBox="0 0 128.000000 128.000000"
 preserveAspectRatio="xMidYMid meet">
<metadata>
Created by potrace 1.16, written by Peter Selinger 2001-2019
</metadata>
<g transform="translate(0.000000,128.000000) scale(0.100000,-0.100000)"
fill="#000000" stroke="none">
<path d="M931 1280 c-9 0 -22 -9 -29 -20 -6 -11 -12 -31 -12 -44 0 -13 8 -34
18 -46 16 -20 20 -21 33 -8 10 10 13 31 11 66 -3 40 -8 52 -21 52z"/>
<path d="M731 1260 c-15 0 -31 -3 -34 -7 -4 -3 -2 -12 3 -18 6 -7 12 -50 14
-96 2 -46 2 -96 -1 -112 -5 -24 -7 -25 -17 -11 -11 14 -17 14 -66 -4 -30 -11
-68 -24 -85 -31 -16 -6 -65 -18 -108 -27 -63 -13 -77 -19 -75 -32 3 -14 16
-17 76 -16 56 1 72 -1 72 -12 0 -8 -10 -35 -21 -60 -18 -37 -21 -56 -16 -108
3 -35 16 -84 28 -108 22 -45 22 -45 -69 -133 -84 -80 -92 -92 -102 -141 -6
-30 -9 -58 -5 -64 3 -5 12 -10 19 -10 7 0 37 15 68 33 30 19 65 37 77 40 11 3
23 1 27 -4 3 -5 -15 -33 -39 -63 -29 -36 -49 -74 -61 -116 -10 -34 -15 -68
-12 -76 3 -8 19 -14 36 -14 18 0 60 16 98 39 37 21 99 50 139 65 40 15 77 25
82 21 6 -3 7 -13 4 -23 -4 -9 -22 -37 -41 -62 -19 -25 -47 -57 -63 -71 -16
-14 -29 -29 -29 -33 0 -5 19 -6 43 -3 23 3 56 8 72 12 17 4 39 10 50 15 11 5
34 13 50 18 17 4 40 24 53 42 12 18 27 51 34 72 11 36 10 40 -18 69 -16 17
-42 37 -58 44 -24 10 -36 9 -75 -6 -25 -10 -88 -34 -138 -54 -51 -19 -102 -35
-113 -35 -13 0 -20 7 -20 19 0 11 29 45 67 80 37 34 71 61 75 61 4 0 31 15 61
34 29 18 73 41 97 49 25 8 46 22 48 31 2 10 -3 28 -12 41 -8 13 -31 28 -50 35
-19 6 -36 17 -39 24 -3 7 -1 19 4 27 5 8 9 41 9 74 -1 33 -5 92 -11 130 -5 39
-12 89 -16 111 -5 38 -3 43 18 49 13 4 32 14 42 23 9 8 17 25 17 38 0 13 -9
28 -20 34 -18 9 -20 21 -20 96 0 47 -5 94 -10 105 -7 12 -21 19 -39 19z m-76
-331 c16 1 23 -8 32 -41 6 -24 11 -50 11 -58 -1 -8 2 -36 6 -62 5 -30 3 -49
-4 -53 -6 -4 -23 3 -36 16 -20 18 -28 21 -42 12 -12 -7 -17 -24 -17 -56 0 -26
-5 -51 -12 -58 -6 -6 -16 -8 -23 -4 -6 4 -10 28 -10 53 1 26 -1 86 -3 134 -3
58 -1 91 7 97 6 5 25 11 41 14 17 2 39 5 50 6z m-24 -369 c4 0 11 -10 14 -21
5 -13 2 -25 -6 -30 -7 -4 -17 -5 -21 -3 -4 3 -8 13 -8 23 0 10 3 21 7 24 3 4
10 7 14 7z m140 -460 c10 0 19 -4 19 -9 0 -6 -5 -13 -10 -16 -6 -4 -18 -4 -26
-1 -8 3 -12 10 -9 16 3 5 15 10 26 10z"/>
</g>
</svg>
