<?xml version="1.0" standalone="no"?>
<!DOCTYPE svg PUBLIC "-//W3C//DTD SVG 20010904//EN"
 "http://www.w3.org/TR/2001/REC-SVG-20010904/DTD/svg10.dtd">
<svg version="1.0" xmlns="http://www.w3.org/2000/svg"
 width="128.000000pt" height="128.000000pt" viewBox="0 0 128.000000 128.000000"
 preserveAspectRatio="xMidYMid meet">
<metadata>
Created by potrace 1.16, written by Peter Selinger 2001-2019
</metadata>
<g transform="translate(0.000000,128.000000) scale(0.100000,-0.100000)"
fill="#000000" stroke="none">
<path d="M704 1260 c-17 0 -37 -7 -44 -15 -9 -11 -22 -14 -42 -10 -23 6 -28 3
-28 -13 0 -12 7 -27 15 -36 8 -8 15 -19 15 -24 0 -4 -17 -13 -37 -18 -23 -5
-39 -16 -41 -27 -2 -10 5 -20 19 -25 12 -5 18 -12 12 -15 -5 -4 -25 -1 -43 6
-26 9 -34 9 -37 0 -3 -7 -10 -13 -18 -13 -7 0 -18 -7 -25 -15 -7 -8 -21 -15
-31 -15 -10 0 -21 -5 -24 -11 -4 -6 2 -13 14 -16 12 -3 21 -11 21 -19 0 -7 -4
-15 -9 -18 -5 -4 -5 -21 2 -41 8 -27 7 -41 -2 -59 -8 -13 -11 -28 -8 -33 3 -4
-1 -33 -9 -63 -8 -30 -14 -80 -14 -110 0 -32 6 -64 14 -75 13 -18 17 -18 40
-6 14 8 26 21 26 30 0 9 20 30 43 48 23 18 50 35 60 39 13 4 17 1 17 -15 0
-12 -6 -21 -15 -21 -8 0 -26 -18 -41 -39 -17 -27 -24 -49 -22 -73 2 -27 8 -34
28 -36 14 -2 37 -15 53 -30 15 -14 27 -33 27 -42 0 -9 -7 -25 -15 -36 -8 -10
-15 -26 -15 -35 0 -9 -9 -24 -20 -34 -11 -10 -20 -26 -20 -36 0 -12 10 -21 28
-25 15 -4 41 -19 59 -32 31 -25 31 -25 0 -70 -18 -25 -61 -76 -96 -113 -64
-69 -64 -69 -15 -69 44 0 52 3 67 29 9 16 15 36 11 44 -4 11 2 14 22 14 19 0
34 10 48 29 11 15 36 43 54 61 28 28 33 39 27 61 -4 15 -7 27 -8 27 -1 1 -22
14 -47 30 -25 16 -46 30 -48 31 -2 1 0 13 3 27 4 14 22 49 41 78 19 29 34 61
34 71 0 10 -15 27 -32 38 -23 15 -43 19 -65 15 -17 -3 -34 -2 -37 3 -3 5 6 30
19 57 14 27 25 60 25 74 0 14 3 35 6 46 3 11 19 28 35 38 17 9 42 17 55 17 14
0 27 7 30 14 3 8 30 33 60 56 30 22 54 46 54 53 0 7 -16 22 -35 35 -19 12 -50
22 -69 22 -22 0 -38 -6 -44 -16 -8 -14 -11 -11 -22 17 -7 19 -13 41 -14 49 0
8 -11 16 -23 18 -12 2 -35 -4 -52 -13 -17 -8 -31 -20 -31 -26 0 -5 11 -14 24
-18 18 -8 23 -16 21 -43 -1 -19 -7 -43 -14 -55 -6 -12 -11 -33 -11 -46 0 -17
-19 -42 -67 -86 -37 -33 -71 -61 -76 -61 -5 0 -8 21 -5 48 3 27 12 63 21 81 9
19 14 44 11 56 -3 13 -1 32 5 43 8 16 6 25 -9 45 -18 23 -18 26 -4 38 9 8 42
28 73 46 31 17 75 41 99 53 23 12 42 28 42 35 0 9 14 15 38 17 36 3 37 4 37
41 1 28 -5 43 -19 53 -11 8 -35 14 -52 14z m-20 -303 c6 -2 11 -10 11 -18 0
-7 -8 -15 -17 -17 -10 -2 -18 3 -18 11 0 7 3 17 7 21 4 3 12 5 17 3z m49 -54
c4 -2 7 -11 7 -19 0 -8 -8 -14 -17 -13 -10 0 -27 4 -38 8 -18 7 -17 9 10 18
17 6 33 8 38 6z"/>
</g>
</svg>
