<?xml version="1.0" standalone="no"?>
<!DOCTYPE svg PUBLIC "-//W3C//DTD SVG 20010904//EN"
 "http://www.w3.org/TR/2001/REC-SVG-20010904/DTD/svg10.dtd">
<svg version="1.0" xmlns="http://www.w3.org/2000/svg"
 width="128.000000pt" height="128.000000pt" viewBox="0 0 128.000000 128.000000"
 preserveAspectRatio="xMidYMid meet">
<metadata>
Created by potrace 1.16, written by Peter Selinger 2001-2019
</metadata>
<g transform="translate(0.000000,128.000000) scale(0.100000,-0.100000)"
fill="#000000" stroke="none">
<path d="M881 1279 c-14 0 -33 -8 -42 -17 -9 -9 -24 -33 -32 -54 -13 -31 -22
-38 -70 -52 -30 -9 -59 -16 -64 -16 -6 0 -38 -18 -73 -41 -61 -40 -64 -40 -94
-25 -17 8 -49 18 -70 21 -28 5 -52 19 -84 51 -29 27 -50 40 -55 35 -6 -6 2
-34 22 -75 17 -35 31 -69 31 -74 0 -5 8 -16 18 -24 9 -9 43 -18 74 -20 32 -3
61 -8 64 -11 4 -3 1 -21 -6 -39 -6 -18 -16 -42 -20 -53 -4 -11 -13 -40 -20
-65 -6 -25 -15 -58 -20 -75 -5 -16 -12 -56 -16 -88 -3 -31 -10 -59 -14 -62 -4
-3 -18 4 -31 14 -13 10 -34 23 -46 30 -18 9 -30 8 -55 -2 -18 -8 -39 -12 -45
-10 -7 3 -13 13 -13 22 0 10 -8 25 -18 34 -10 10 -21 15 -24 11 -3 -3 -1 -20
5 -37 5 -18 16 -50 24 -72 8 -22 21 -50 29 -62 11 -18 24 -23 54 -23 29 0 42
-5 50 -21 7 -13 9 -50 5 -102 -3 -45 -11 -121 -16 -168 -9 -77 -8 -90 11 -140
12 -30 26 -58 31 -63 5 -6 19 0 35 15 15 13 33 38 40 56 10 23 13 90 13 260 0
125 5 264 11 308 7 44 18 109 26 143 8 35 21 83 28 105 7 23 19 61 26 85 8 25
28 55 46 72 21 18 50 31 77 35 24 4 56 5 72 3 16 -1 30 -9 33 -15 2 -8 -15
-21 -41 -32 -25 -11 -52 -30 -61 -42 -9 -13 -16 -31 -16 -41 0 -9 7 -24 16
-33 9 -9 23 -14 30 -11 8 3 21 3 29 0 11 -4 13 -13 9 -28 -4 -11 -22 -42 -40
-67 -25 -35 -34 -57 -34 -87 0 -23 4 -43 9 -46 5 -3 31 12 57 34 27 22 59 40
73 40 21 0 23 -3 18 -30 -4 -16 -19 -48 -34 -71 -15 -23 -36 -57 -46 -76 -11
-20 -17 -50 -15 -71 2 -29 8 -39 30 -46 23 -8 34 -4 81 32 31 25 65 42 80 42
14 0 29 -5 32 -10 3 -6 -4 -25 -16 -43 -13 -17 -37 -49 -54 -70 -18 -20 -39
-60 -48 -88 -10 -28 -17 -68 -17 -89 0 -21 6 -42 13 -47 6 -6 56 -18 109 -28
91 -17 99 -17 123 -1 14 9 25 23 25 31 0 7 -10 26 -23 40 -15 18 -38 30 -72
36 -27 5 -56 16 -64 24 -14 13 -10 20 30 62 24 27 58 66 75 88 17 22 35 54 41
71 9 24 8 38 -5 63 -8 18 -27 40 -41 49 -15 10 -48 18 -81 19 -30 1 -58 2 -62
2 -5 1 -8 7 -8 14 0 6 14 32 30 57 16 25 30 57 30 71 0 15 -6 32 -14 38 -9 7
-29 9 -56 5 -43 -7 -43 -7 -37 22 3 16 10 46 15 67 5 20 24 50 41 66 17 16 31
39 31 50 0 13 -10 26 -25 33 -18 8 -25 19 -25 38 0 18 10 33 30 48 19 14 30
32 30 47 0 13 -5 36 -12 50 -8 18 -19 25 -37 24z"/>
<path d="M624 60 c-34 0 -65 -4 -69 -9 -3 -5 7 -19 21 -30 20 -16 41 -21 85
-21 33 0 59 2 59 5 0 3 -7 17 -16 30 -14 22 -23 25 -80 25z"/>
</g>
</svg>
