<?xml version="1.0" standalone="no"?>
<!DOCTYPE svg PUBLIC "-//W3C//DTD SVG 20010904//EN"
 "http://www.w3.org/TR/2001/REC-SVG-20010904/DTD/svg10.dtd">
<svg version="1.0" xmlns="http://www.w3.org/2000/svg"
 width="128.000000pt" height="128.000000pt" viewBox="0 0 128.000000 128.000000"
 preserveAspectRatio="xMidYMid meet">
<metadata>
Created by potrace 1.16, written by Peter Selinger 2001-2019
</metadata>
<g transform="translate(0.000000,128.000000) scale(0.100000,-0.100000)"
fill="#000000" stroke="none">
<path d="M349 1130 c-3 0 -9 -3 -12 -7 -4 -3 -7 -12 -7 -20 0 -7 17 -24 39
-37 38 -24 38 -25 36 -83 -1 -32 -10 -76 -20 -99 -13 -31 -27 -46 -61 -62 -25
-12 -49 -22 -55 -22 -6 0 -23 -9 -37 -21 -19 -15 -39 -20 -77 -19 -27 1 -56 1
-62 1 -7 -1 -13 -14 -13 -29 0 -20 12 -41 37 -66 21 -21 48 -42 61 -47 12 -5
22 -16 22 -26 0 -10 -9 -37 -20 -61 -10 -23 -27 -45 -37 -49 -10 -4 -30 -16
-45 -27 -16 -11 -28 -24 -28 -30 0 -5 -16 -24 -36 -42 -31 -29 -35 -38 -32
-75 2 -28 9 -46 21 -53 16 -9 23 -5 48 24 16 19 29 41 29 50 0 8 23 34 51 57
28 24 55 40 60 37 5 -3 9 -11 9 -17 0 -7 9 -30 21 -51 12 -23 19 -50 16 -65
-3 -14 -1 -36 4 -50 6 -15 6 -35 0 -52 -7 -21 -6 -31 4 -39 9 -7 30 -9 60 -5
32 5 62 20 103 52 31 24 62 54 69 66 7 12 12 37 13 55 0 21 5 32 15 32 8 0 22
11 30 24 9 13 27 55 41 92 13 37 28 72 34 78 5 7 12 42 16 79 4 37 13 72 20
78 8 7 14 31 14 56 0 24 -7 55 -16 68 -9 14 -22 25 -30 25 -7 0 -18 8 -23 19
-6 10 -26 26 -45 35 -19 9 -38 20 -40 25 -3 5 1 30 9 56 8 29 11 54 5 64 -4 9
-19 26 -33 39 -17 16 -45 26 -88 32 -35 5 -67 10 -70 10z m194 -311 c14 1 17
-8 17 -61 -1 -46 -7 -76 -25 -113 -14 -27 -25 -64 -25 -81 0 -17 11 -48 25
-69 26 -37 26 -37 -1 -72 -14 -19 -30 -31 -34 -26 -4 4 -13 25 -20 46 -6 20
-13 37 -15 37 -2 0 -11 -3 -20 -6 -9 -4 -27 -28 -40 -54 -13 -27 -30 -50 -37
-53 -7 -2 -20 -1 -29 4 -9 5 -29 29 -43 53 -14 25 -26 53 -26 63 0 10 13 34
29 53 15 19 34 52 41 72 12 33 12 40 -3 56 -15 17 -15 19 2 34 10 8 25 25 33
36 8 12 46 35 84 51 38 16 77 29 87 30z m-190 -588 c7 -7 6 -15 -3 -26 -9 -11
-16 -13 -23 -6 -7 7 -6 15 3 26 9 11 16 13 23 6z"/>
<path d="M760 1009 c-8 -1 -26 -4 -40 -8 -14 -4 -26 -15 -28 -27 -2 -13 13
-36 40 -63 23 -24 55 -48 71 -54 27 -9 29 -12 23 -49 -4 -21 -2 -48 4 -58 8
-14 7 -26 0 -41 -9 -15 -9 -28 0 -48 8 -21 8 -34 -2 -57 -6 -16 -13 -49 -14
-74 -1 -25 -7 -85 -12 -134 -6 -52 -7 -109 -2 -134 4 -24 14 -50 22 -58 8 -8
32 -15 53 -17 40 -2 40 -2 43 40 2 23 -3 55 -12 70 -9 19 -11 34 -5 45 5 9 9
38 9 65 -1 26 -1 77 -1 113 1 36 -2 81 -5 100 -3 22 0 42 9 54 12 17 18 18 47
8 23 -9 44 -9 70 -2 21 6 45 21 54 35 9 14 20 25 25 25 5 0 13 -12 19 -27 6
-16 13 -49 17 -75 5 -42 4 -48 -12 -48 -10 0 -33 -16 -52 -35 -29 -31 -32 -39
-26 -73 5 -34 3 -39 -19 -50 -14 -6 -26 -18 -26 -26 0 -8 -10 -16 -22 -18 -12
-2 -23 -9 -26 -15 -2 -7 4 -16 13 -19 9 -4 20 -3 24 3 3 5 35 10 70 11 48 1
70 7 85 21 12 11 35 21 51 23 22 2 31 9 33 24 2 14 -7 29 -24 43 -15 11 -33
21 -40 21 -8 0 -14 7 -14 15 0 9 18 39 39 68 22 29 49 62 60 75 14 15 21 36
21 62 0 22 -4 40 -10 40 -5 0 -10 10 -10 23 0 13 -5 28 -12 35 -7 7 -20 12
-29 12 -9 0 -20 -7 -23 -15 -5 -14 -10 -13 -34 5 -17 12 -35 18 -45 14 -9 -3
-17 -10 -17 -14 0 -5 -19 -17 -42 -28 -24 -10 -55 -24 -70 -30 -16 -6 -28 -16
-28 -22 0 -5 -9 -10 -20 -10 -12 0 -21 8 -24 23 -3 12 -8 45 -11 72 -3 28 -12
64 -20 80 -7 17 -16 38 -19 48 -3 10 -25 27 -48 37 -24 11 -50 19 -58 19z"/>
</g>
</svg>
