<?xml version="1.0" standalone="no"?>
<!DOCTYPE svg PUBLIC "-//W3C//DTD SVG 20010904//EN"
 "http://www.w3.org/TR/2001/REC-SVG-20010904/DTD/svg10.dtd">
<svg version="1.0" xmlns="http://www.w3.org/2000/svg"
 width="128.000000pt" height="128.000000pt" viewBox="0 0 128.000000 128.000000"
 preserveAspectRatio="xMidYMid meet">
<metadata>
Created by potrace 1.16, written by Peter Selinger 2001-2019
</metadata>
<g transform="translate(0.000000,128.000000) scale(0.100000,-0.100000)"
fill="#000000" stroke="none">
<path d="M458 1220 c-4 0 -9 -4 -12 -9 -3 -5 8 -36 26 -70 32 -61 32 -61 10
-89 -12 -15 -36 -54 -54 -87 -18 -33 -38 -80 -45 -105 -7 -25 -12 -63 -12 -85
0 -22 4 -60 10 -84 8 -38 7 -46 -10 -62 -11 -10 -25 -34 -32 -53 -10 -27 -20
-37 -43 -42 -17 -4 -48 -24 -68 -44 -21 -21 -38 -47 -38 -58 0 -11 7 -28 16
-37 15 -15 18 -14 42 7 14 13 46 43 72 68 26 25 50 57 54 73 3 15 12 27 19 27
9 0 11 -18 7 -67 -3 -38 -11 -78 -18 -90 -7 -13 -16 -23 -21 -23 -4 0 -22 -22
-39 -48 -17 -27 -52 -68 -77 -90 -24 -23 -48 -42 -53 -42 -4 0 -15 -17 -25
-37 -15 -34 -15 -40 -1 -61 8 -13 22 -26 31 -29 9 -4 22 2 32 14 9 10 28 27
43 36 15 9 33 17 41 17 7 0 23 -10 34 -22 11 -13 24 -33 27 -45 4 -12 19 -32
33 -43 14 -11 36 -20 49 -20 12 0 32 12 43 26 12 15 21 38 21 52 0 24 1 24 18
9 10 -10 23 -17 28 -17 5 1 27 9 49 20 22 11 45 19 51 20 5 0 38 27 72 60 42
40 62 67 62 83 0 14 7 30 15 37 8 7 23 9 37 4 13 -4 37 -17 54 -30 19 -15 49
-61 78 -119 27 -53 59 -103 72 -111 12 -9 31 -14 41 -12 13 2 20 16 24 48 5
38 1 54 -28 110 -19 36 -53 82 -76 103 -23 20 -56 42 -74 48 -17 5 -44 9 -60
7 -27 -3 -28 -2 -27 42 1 25 9 77 18 115 8 39 15 103 16 143 0 58 4 76 19 91
11 11 37 24 58 30 21 6 45 11 53 11 9 0 26 7 38 16 12 8 22 23 22 33 0 10 -7
24 -15 31 -8 6 -34 14 -57 17 -24 2 -53 6 -66 9 -22 4 -22 7 -16 97 4 58 2
102 -5 120 -7 19 -26 34 -58 48 -40 17 -53 19 -79 10 -17 -6 -38 -11 -47 -11
-9 0 -17 -6 -17 -14 0 -7 7 -19 15 -26 8 -7 15 -17 15 -21 0 -5 16 -32 35 -60
33 -48 35 -56 35 -131 0 -65 -4 -85 -21 -109 -11 -16 -39 -37 -62 -48 -23 -10
-67 -44 -97 -75 -30 -31 -59 -56 -65 -56 -5 0 -37 19 -71 42 -61 42 -62 43
-68 100 -4 38 -1 68 8 90 8 18 29 44 48 58 18 14 40 30 49 35 8 6 32 21 52 33
29 19 37 30 37 54 0 26 -14 45 -82 109 -45 44 -86 79 -90 79z m337 -540 c8 -6
9 -26 4 -57 -4 -27 -14 -73 -21 -103 -8 -30 -35 -98 -61 -151 -25 -52 -62
-115 -81 -138 -20 -24 -40 -50 -45 -59 -5 -8 -17 -16 -27 -17 -11 0 -25 -4
-31 -8 -6 -4 -15 -2 -18 4 -4 6 -13 38 -20 72 -7 34 -15 83 -19 108 -7 46 -7
46 76 132 46 46 90 92 98 102 8 9 42 41 75 71 39 35 63 50 70 44z m-392 -451
c4 1 12 -11 17 -25 6 -14 10 -38 10 -54 0 -16 -6 -30 -12 -33 -7 -2 -21 0 -30
5 -10 5 -24 21 -32 37 -12 22 -13 32 -3 44 7 8 19 17 27 20 8 3 18 6 23 6z"/>
<path d="M1150 705 c-6 3 -13 -1 -16 -9 -3 -9 -3 -23 0 -32 3 -8 10 -12 16 -9
5 3 10 15 10 25 0 10 -5 22 -10 25z"/>
</g>
</svg>
