<?xml version="1.0" standalone="no"?>
<!DOCTYPE svg PUBLIC "-//W3C//DTD SVG 20010904//EN"
 "http://www.w3.org/TR/2001/REC-SVG-20010904/DTD/svg10.dtd">
<svg version="1.0" xmlns="http://www.w3.org/2000/svg"
 width="128.000000pt" height="128.000000pt" viewBox="0 0 128.000000 128.000000"
 preserveAspectRatio="xMidYMid meet">
<metadata>
Created by potrace 1.16, written by Peter Selinger 2001-2019
</metadata>
<g transform="translate(0.000000,128.000000) scale(0.100000,-0.100000)"
fill="#000000" stroke="none">
<path d="M439 1230 c-4 0 -9 -7 -13 -15 -3 -9 14 -30 52 -59 31 -24 73 -60 91
-80 19 -20 40 -36 46 -36 6 0 24 13 39 29 22 23 26 33 18 47 -6 11 -28 36 -49
56 -33 32 -48 39 -108 48 -39 5 -73 10 -76 10z"/>
<path d="M815 1094 c-15 5 -32 -2 -60 -24 -21 -17 -50 -33 -64 -37 -14 -3 -68
-28 -119 -55 -51 -26 -100 -48 -108 -48 -8 0 -35 -11 -59 -25 -25 -13 -52 -22
-60 -19 -8 4 -35 3 -60 0 -26 -4 -45 -13 -45 -20 0 -7 18 -22 41 -34 22 -12
46 -22 53 -22 6 0 44 16 85 35 40 19 77 33 82 29 5 -3 9 -11 9 -17 0 -7 -16
-29 -36 -49 -19 -21 -46 -52 -59 -70 -14 -18 -31 -42 -39 -53 -9 -11 -22 -51
-30 -88 -13 -66 -13 -69 11 -120 14 -28 29 -59 33 -67 4 -8 17 -16 29 -18 12
-2 41 8 65 22 36 21 44 32 49 63 4 21 11 58 16 83 6 25 10 62 11 83 0 20 -4
37 -9 37 -5 0 -19 -19 -30 -43 -12 -24 -21 -47 -21 -52 0 -4 -8 -26 -17 -47
-9 -21 -22 -38 -29 -38 -6 0 -15 12 -19 27 -3 15 -8 50 -11 76 -3 39 1 58 20
90 14 22 51 70 83 107 32 37 74 78 93 91 19 12 45 31 56 42 12 10 46 25 75 32
30 8 79 14 109 13 30 -1 65 4 78 11 12 6 22 18 22 25 0 7 -9 25 -20 39 -14 18
-32 26 -62 30 -24 2 -52 8 -63 11z"/>
<path d="M863 890 c-10 0 -27 -7 -37 -15 -11 -8 -26 -15 -34 -15 -8 0 -58 -25
-112 -55 -54 -30 -101 -62 -104 -71 -5 -14 -1 -16 22 -11 16 3 56 22 88 41 33
20 67 36 77 36 9 0 17 -7 17 -15 0 -9 -19 -41 -42 -72 -24 -30 -50 -67 -58
-82 -8 -14 -35 -46 -59 -70 -41 -42 -43 -46 -36 -85 3 -23 8 -59 11 -81 2 -22
6 -60 8 -85 3 -25 8 -73 11 -108 4 -34 11 -65 16 -68 5 -3 9 -10 9 -15 0 -6
-14 -7 -35 -3 -31 5 -35 4 -35 -14 0 -12 9 -23 20 -27 11 -3 20 -12 20 -19 0
-7 10 -22 23 -34 13 -12 33 -22 45 -22 12 0 22 6 22 14 0 7 6 19 14 25 8 6 16
26 19 44 2 18 1 39 -4 48 -4 9 -10 43 -13 75 -2 33 -7 83 -11 112 -4 29 -11
54 -14 57 -4 2 -6 32 -4 67 2 35 8 77 13 94 9 26 19 34 53 42 23 6 63 14 89
17 25 3 52 12 58 20 7 8 10 22 6 30 -3 9 -18 15 -35 15 -16 0 -32 4 -35 9 -3
4 6 19 20 32 14 13 38 40 54 59 15 19 31 50 35 68 6 30 4 33 -29 47 -19 8 -43
15 -53 15z"/>
<path d="M879 480 c-10 0 -19 -2 -19 -4 0 -2 24 -34 53 -70 28 -36 64 -86 79
-111 22 -37 32 -45 56 -45 16 0 37 9 47 20 13 15 16 29 12 57 -4 25 -16 46
-36 63 -17 14 -43 35 -60 48 -17 13 -43 22 -64 22 -20 0 -39 5 -42 10 -3 6
-15 10 -26 10z"/>
<path d="M220 375 c-15 14 -16 7 -14 -88 1 -56 7 -114 13 -129 5 -14 18 -29
29 -32 11 -4 27 -3 36 0 10 4 21 17 26 30 6 16 15 21 28 17 14 -3 33 7 61 35
23 22 41 47 41 56 0 9 -8 16 -20 16 -11 0 -41 -20 -66 -45 -44 -45 -45 -45
-54 -21 -5 13 -13 27 -19 30 -6 4 -18 31 -27 61 -10 31 -25 62 -34 70z"/>
</g>
</svg>
