<?xml version="1.0" standalone="no"?>
<!DOCTYPE svg PUBLIC "-//W3C//DTD SVG 20010904//EN"
 "http://www.w3.org/TR/2001/REC-SVG-20010904/DTD/svg10.dtd">
<svg version="1.0" xmlns="http://www.w3.org/2000/svg"
 width="128.000000pt" height="128.000000pt" viewBox="0 0 128.000000 128.000000"
 preserveAspectRatio="xMidYMid meet">
<metadata>
Created by potrace 1.16, written by Peter Selinger 2001-2019
</metadata>
<g transform="translate(0.000000,128.000000) scale(0.100000,-0.100000)"
fill="#000000" stroke="none">
<path d="M695 1114 c-16 3 -40 1 -52 -4 -13 -5 -23 -14 -23 -19 0 -5 7 -17 16
-25 8 -9 23 -16 33 -16 10 0 28 -11 40 -24 15 -16 23 -38 24 -61 1 -26 -5 -42
-18 -51 -10 -8 -29 -14 -42 -14 -13 0 -41 -9 -63 -20 -22 -11 -45 -20 -53 -20
-8 0 -21 -8 -30 -18 -10 -11 -14 -26 -10 -40 4 -19 -7 -35 -62 -87 -45 -44
-76 -65 -92 -65 -18 0 -28 9 -39 35 -7 19 -14 41 -14 49 0 8 12 26 28 40 15
14 47 36 72 48 37 19 46 28 48 54 2 20 -3 38 -14 49 -12 11 -26 15 -43 11 -14
-3 -40 -9 -57 -12 -27 -5 -33 -2 -52 29 -11 20 -39 45 -61 56 -22 12 -46 21
-54 21 -8 0 -21 -8 -30 -17 -8 -10 -17 -26 -19 -37 -2 -13 6 -21 32 -30 19 -6
36 -19 38 -28 2 -10 -9 -28 -24 -41 -14 -14 -36 -33 -46 -45 -11 -11 -32 -33
-47 -49 -14 -16 -33 -32 -41 -35 -12 -4 -13 -8 -2 -19 6 -7 51 -18 99 -24 88
-10 88 -10 99 -60 7 -27 13 -66 13 -85 1 -20 -4 -41 -11 -48 -7 -7 -32 -12
-57 -12 -25 0 -69 -10 -98 -22 -29 -12 -55 -28 -58 -36 -3 -9 6 -27 22 -44 21
-22 34 -28 52 -23 13 3 37 1 53 -6 23 -9 32 -9 46 3 9 8 32 20 49 27 18 7 51
33 73 57 22 24 40 50 40 58 0 7 10 16 23 20 13 3 29 16 36 28 6 13 32 37 57
53 26 17 61 55 84 90 21 33 47 69 57 81 15 16 36 22 93 28 40 3 77 3 81 -1 4
-5 8 -21 10 -38 1 -16 1 -37 1 -46 -1 -11 -15 -19 -35 -23 -19 -3 -44 -17 -57
-31 -22 -23 -22 -26 -7 -43 10 -10 17 -24 17 -32 0 -7 -15 -45 -34 -84 -19
-39 -51 -89 -71 -111 -19 -22 -49 -55 -67 -74 -17 -18 -41 -54 -54 -79 -15
-29 -20 -50 -14 -56 6 -6 25 -5 52 3 24 7 58 24 76 37 17 14 32 32 32 41 0 8
12 31 28 49 15 19 39 49 53 66 14 18 43 63 63 101 36 64 37 69 22 92 -9 13
-16 29 -16 34 0 5 23 15 52 21 28 7 78 13 112 13 34 0 80 -4 104 -10 24 -6 47
-15 52 -19 4 -5 4 -31 0 -59 -5 -27 -14 -70 -20 -95 -7 -25 -19 -61 -27 -80
-9 -19 -25 -42 -37 -52 -12 -9 -35 -17 -53 -18 -17 0 -43 -4 -57 -10 -17 -6
-26 -17 -26 -31 0 -12 17 -44 37 -71 21 -27 48 -56 61 -64 13 -8 32 -12 43 -9
12 4 36 41 64 99 25 50 45 99 45 108 0 8 10 28 22 43 12 15 27 57 34 94 6 36
17 91 24 121 7 30 13 69 14 85 1 27 -5 33 -49 54 -45 22 -55 23 -100 13 -27
-7 -85 -19 -129 -28 -57 -11 -81 -13 -89 -5 -6 6 -10 32 -9 58 1 25 4 53 7 62
3 9 31 26 63 39 31 13 81 29 110 37 29 8 79 15 111 15 40 0 63 5 71 15 10 12
10 21 0 45 -7 16 -23 36 -36 45 -13 8 -38 15 -55 15 -17 0 -46 -9 -63 -19 -17
-11 -63 -29 -103 -41 -40 -12 -79 -20 -88 -18 -10 2 -25 28 -38 68 -22 65 -22
65 -67 67 -25 0 -58 4 -75 7z"/>
</g>
</svg>
