<?xml version="1.0" standalone="no"?>
<!DOCTYPE svg PUBLIC "-//W3C//DTD SVG 20010904//EN"
 "http://www.w3.org/TR/2001/REC-SVG-20010904/DTD/svg10.dtd">
<svg version="1.0" xmlns="http://www.w3.org/2000/svg"
 width="128.000000pt" height="128.000000pt" viewBox="0 0 128.000000 128.000000"
 preserveAspectRatio="xMidYMid meet">
<metadata>
Created by potrace 1.16, written by Peter Selinger 2001-2019
</metadata>
<g transform="translate(0.000000,128.000000) scale(0.100000,-0.100000)"
fill="#000000" stroke="none">
<path d="M839 1180 c-9 0 -18 -2 -21 -5 -2 -3 -43 -17 -89 -31 -73 -23 -104
-26 -236 -28 -84 -2 -156 -5 -159 -9 -3 -3 -3 -15 1 -26 3 -11 22 -30 41 -42
34 -20 39 -21 132 -9 53 6 113 14 132 17 19 4 51 8 70 10 19 2 67 4 106 6 41
2 79 8 88 16 9 7 16 19 16 25 0 7 -15 26 -33 44 -18 18 -40 32 -48 32z"/>
<path d="M1267 1060 c-7 0 -18 -5 -25 -12 -7 -7 -12 -18 -12 -24 0 -7 -10 -16
-22 -20 -13 -4 -38 -18 -55 -32 -18 -13 -33 -31 -33 -38 0 -8 6 -14 14 -14 8
0 17 4 21 9 3 5 32 22 65 38 55 26 60 31 60 61 0 20 -5 32 -13 32z"/>
<path d="M851 920 c-14 0 -33 -5 -42 -10 -9 -5 -57 -20 -107 -33 -50 -13 -97
-29 -105 -35 -8 -7 -32 -9 -64 -5 -28 3 -73 0 -101 -7 -28 -6 -57 -18 -63 -27
-10 -12 -10 -21 0 -46 7 -18 16 -48 21 -67 4 -19 15 -55 25 -80 10 -25 21 -49
26 -54 4 -4 23 -3 42 3 19 7 74 12 123 13 49 0 98 5 108 10 13 7 31 6 58 -3
31 -10 44 -10 59 -1 17 11 23 9 42 -14 20 -23 26 -25 45 -15 12 6 22 20 22 29
0 10 -5 23 -12 30 -7 7 -23 12 -37 12 -15 0 -32 4 -39 9 -8 4 -12 19 -10 32 2
16 11 25 26 27 12 2 22 8 22 14 0 5 24 32 53 59 52 50 52 50 -7 104 -41 38
-67 55 -85 55z m12 -90 c4 0 10 -7 14 -16 3 -9 -5 -26 -20 -42 -14 -15 -29
-39 -32 -54 -4 -15 -14 -29 -23 -33 -10 -3 -46 -13 -82 -22 -36 -9 -94 -16
-130 -17 -65 -1 -65 -1 -74 42 -6 27 -5 51 1 65 8 18 25 26 74 35 35 7 98 12
140 11 57 -2 81 1 99 14 14 9 28 17 33 17z"/>
<path d="M890 528 c-4 1 -13 -4 -20 -13 -7 -9 -14 -36 -15 -62 -1 -30 -7 -50
-18 -58 -9 -6 -31 -36 -49 -66 -18 -30 -41 -63 -51 -74 -9 -11 -30 -35 -46
-54 -25 -31 -35 -35 -97 -42 -38 -4 -74 -3 -79 1 -6 5 -50 14 -99 20 -48 7
-118 10 -154 6 -37 -3 -99 -9 -138 -14 -39 -5 -76 -12 -82 -16 -7 -4 -12 -14
-12 -21 0 -8 8 -19 19 -24 10 -6 43 -11 72 -11 30 -1 275 -1 544 0 270 0 509
-3 532 -6 39 -6 44 -4 54 20 7 14 16 26 20 26 4 0 -11 20 -33 45 -29 32 -49
45 -68 45 -14 0 -30 -4 -35 -8 -6 -5 -42 -14 -81 -21 -54 -9 -91 -10 -149 -2
-42 6 -81 8 -86 5 -6 -3 -17 -3 -26 0 -12 5 -2 20 46 65 33 33 65 71 71 85 5
14 15 26 22 26 7 1 23 9 36 19 12 11 22 24 22 30 0 6 -21 30 -46 53 -25 24
-50 44 -54 46z"/>
<path d="M394 470 c-16 0 -24 -6 -24 -17 0 -9 7 -25 17 -35 9 -10 21 -27 27
-37 6 -10 30 -44 54 -75 23 -31 49 -56 57 -56 8 0 18 8 24 17 7 13 5 23 -6 35
-14 16 -14 20 2 44 16 25 16 27 -5 48 -11 13 -38 28 -59 35 -21 6 -44 18 -51
26 -7 8 -23 15 -36 15z"/>
</g>
</svg>
