<?xml version="1.0" standalone="no"?>
<!DOCTYPE svg PUBLIC "-//W3C//DTD SVG 20010904//EN"
 "http://www.w3.org/TR/2001/REC-SVG-20010904/DTD/svg10.dtd">
<svg version="1.0" xmlns="http://www.w3.org/2000/svg"
 width="128.000000pt" height="128.000000pt" viewBox="0 0 128.000000 128.000000"
 preserveAspectRatio="xMidYMid meet">
<metadata>
Created by potrace 1.16, written by Peter Selinger 2001-2019
</metadata>
<g transform="translate(0.000000,128.000000) scale(0.100000,-0.100000)"
fill="#000000" stroke="none">
<path d="M655 1036 c-11 1 -35 -13 -52 -30 -18 -18 -33 -37 -33 -43 0 -6 12
-14 26 -17 16 -4 30 -19 40 -41 8 -21 14 -68 14 -118 0 -85 0 -85 -32 -98 -28
-12 -33 -11 -42 6 -6 10 -31 46 -56 79 -41 55 -49 61 -85 64 -32 2 -45 -2 -63
-21 -19 -20 -22 -37 -25 -116 -3 -78 -7 -94 -24 -106 -10 -7 -53 -26 -94 -41
-41 -15 -90 -28 -109 -29 -19 -1 -54 -2 -77 -3 -35 -2 -43 -6 -43 -21 0 -14
16 -24 65 -40 45 -15 76 -20 98 -16 18 4 63 22 100 41 37 19 72 32 76 29 5 -2
12 -20 15 -40 4 -19 24 -56 44 -81 20 -26 61 -72 91 -102 53 -55 53 -55 175
-48 66 4 139 9 161 11 22 2 67 12 100 22 45 14 65 17 77 9 10 -6 19 -8 22 -6
2 3 2 27 -1 53 -5 42 -11 51 -49 79 -31 22 -44 39 -44 55 0 13 6 26 14 29 7 3
22 26 33 52 11 26 26 63 32 83 6 19 11 51 11 70 0 19 4 39 8 45 4 6 22 15 40
19 18 4 65 7 104 7 39 0 79 5 90 11 10 7 18 17 18 24 0 7 -5 13 -11 13 -6 0
-9 15 -7 35 1 23 -3 39 -11 44 -8 5 -27 5 -44 0 -17 -5 -35 -13 -41 -19 -5 -5
-23 -10 -39 -10 -15 0 -37 -5 -48 -11 -12 -6 -26 -8 -33 -6 -10 4 -11 18 -5
59 5 29 6 60 4 69 -3 9 -17 21 -31 27 -14 7 -36 12 -50 12 -13 0 -40 -6 -58
-14 -18 -8 -50 -30 -70 -50 -20 -20 -36 -41 -36 -46 0 -6 7 -10 15 -10 7 0 18
6 22 13 4 6 17 17 28 23 12 6 35 15 52 18 31 7 31 7 26 -61 -3 -37 -11 -74
-17 -80 -6 -7 -38 -18 -71 -24 -33 -6 -75 -17 -93 -25 -28 -11 -34 -11 -38 1
-3 8 1 24 10 36 13 19 13 24 1 33 -8 6 -19 35 -25 65 -6 30 -17 62 -25 71 -9
9 -14 28 -13 41 2 18 -2 24 -17 25z m-197 -256 c3 0 14 -7 24 -17 10 -9 18
-22 18 -29 0 -7 11 -21 25 -32 14 -11 25 -25 25 -31 0 -5 -18 -15 -41 -21 -22
-6 -48 -10 -57 -8 -13 2 -18 16 -20 56 -2 31 2 60 9 68 6 8 14 14 17 14z m423
-41 c3 1 12 -5 21 -11 9 -7 18 -20 20 -28 1 -8 -4 -41 -11 -72 -8 -32 -22 -65
-32 -74 -16 -15 -24 -15 -64 -4 -25 7 -48 17 -51 22 -3 5 -17 13 -30 18 -13 5
-24 18 -24 28 0 10 6 30 13 45 7 16 23 30 37 33 14 3 45 14 70 24 25 10 48 19
51 19z m-279 -100 c3 1 11 -14 17 -31 5 -18 11 -53 12 -78 1 -25 -2 -71 -6
-103 -6 -45 -13 -62 -31 -74 -22 -14 -26 -14 -51 3 -16 10 -37 23 -48 29 -11
6 -28 26 -38 45 -12 24 -17 53 -15 90 3 54 4 55 48 77 25 13 59 27 75 32 17 5
33 10 37 10z m102 -69 c7 0 32 -20 56 -45 24 -25 50 -45 56 -45 7 0 22 -15 33
-34 12 -18 21 -41 21 -50 0 -9 -10 -20 -22 -25 -13 -4 -50 -11 -84 -15 -48 -5
-64 -3 -73 8 -10 11 -11 40 -6 111 5 62 11 95 19 95z"/>
<path d="M1199 700 c-11 0 -19 -5 -19 -10 0 -6 7 -13 15 -16 8 -4 15 -12 15
-20 0 -8 -23 -20 -55 -29 -43 -13 -55 -21 -55 -36 0 -11 6 -22 14 -25 8 -3 33
4 56 16 23 12 51 20 62 18 20 -3 21 -9 19 -75 -2 -61 0 -73 13 -73 14 0 16 18
16 119 0 119 0 119 -31 125 -17 3 -40 6 -50 6z"/>
</g>
</svg>
