<?xml version="1.0" standalone="no"?>
<!DOCTYPE svg PUBLIC "-//W3C//DTD SVG 20010904//EN"
 "http://www.w3.org/TR/2001/REC-SVG-20010904/DTD/svg10.dtd">
<svg version="1.0" xmlns="http://www.w3.org/2000/svg"
 width="128.000000pt" height="128.000000pt" viewBox="0 0 128.000000 128.000000"
 preserveAspectRatio="xMidYMid meet">
<metadata>
Created by potrace 1.16, written by Peter Selinger 2001-2019
</metadata>
<g transform="translate(0.000000,128.000000) scale(0.100000,-0.100000)"
fill="#000000" stroke="none">
<path d="M937 1010 c-23 -1 -58 -7 -77 -14 -19 -6 -69 -36 -110 -66 -70 -51
-79 -54 -143 -58 -58 -4 -72 -1 -90 16 -12 11 -31 22 -43 26 -11 3 -28 0 -39
-8 -17 -12 -17 -16 -5 -46 13 -32 12 -34 -18 -61 -18 -16 -43 -29 -55 -29 -13
0 -30 6 -38 13 -9 6 -23 24 -32 40 -10 15 -25 27 -35 27 -9 0 -25 -7 -35 -14
-9 -7 -17 -21 -17 -30 0 -10 5 -26 11 -37 7 -15 7 -24 -2 -35 -8 -9 -32 -14
-74 -14 -34 0 -79 -7 -99 -15 -21 -9 -36 -21 -34 -27 3 -7 18 -20 34 -29 16
-10 39 -18 52 -18 13 -1 45 6 72 15 27 9 56 14 65 12 10 -2 27 -28 41 -63 14
-33 31 -66 38 -73 8 -9 22 -11 35 -7 12 3 28 21 37 38 9 18 26 42 37 55 12 13
22 35 23 50 0 15 2 42 2 60 2 28 5 33 24 30 15 -2 32 -21 53 -61 18 -32 39
-67 47 -77 12 -14 24 -16 49 -11 30 6 35 11 39 46 4 25 21 61 48 98 24 31 48
58 55 58 7 1 23 3 37 4 14 2 51 7 83 11 57 7 57 7 57 -22 0 -21 -15 -44 -55
-86 -30 -32 -63 -58 -73 -58 -10 0 -25 -12 -33 -26 -7 -14 -24 -30 -37 -35
-13 -5 -28 -22 -33 -38 -9 -26 -17 -31 -57 -36 -26 -4 -58 -15 -72 -24 -14
-10 -33 -20 -42 -24 -10 -3 -18 -11 -18 -17 0 -5 -11 -10 -24 -10 -14 0 -30
-10 -40 -25 -9 -13 -16 -32 -16 -42 0 -10 18 -35 40 -57 26 -26 44 -36 56 -32
9 3 44 -3 78 -14 51 -18 81 -20 186 -18 109 3 125 5 125 20 0 9 4 20 8 24 4 4
7 13 7 21 0 7 -8 16 -17 20 -10 3 -25 12 -34 20 -12 10 -45 14 -108 14 -73 1
-93 4 -100 17 -5 9 -5 25 2 39 6 14 27 28 58 38 27 9 49 21 49 26 0 5 8 9 18
9 11 0 25 16 37 43 12 25 28 43 40 45 11 2 32 16 48 30 19 19 26 34 25 56 -2
16 3 31 10 34 7 2 19 10 27 19 8 8 15 25 15 37 0 13 6 29 14 35 10 8 33 7 92
-5 43 -9 90 -23 103 -31 19 -13 27 -13 47 -2 14 7 24 21 24 34 0 12 -10 31
-22 43 -13 11 -36 26 -53 32 -16 6 -55 11 -85 10 -30 -2 -60 -2 -66 -1 -6 0
-14 20 -17 43 -4 29 -14 50 -32 65 -18 16 -39 23 -68 23z m-21 -90 c14 0 25
-8 29 -20 3 -11 3 -24 0 -30 -3 -5 -20 -10 -36 -10 -17 0 -32 6 -35 15 -4 8
-1 22 6 30 7 8 23 15 36 15z m-318 -511 c41 0 44 -2 28 -12 -11 -7 -30 -23
-44 -37 -23 -25 -23 -25 -40 -2 -13 17 -20 20 -29 11 -8 -8 -13 -8 -17 0 -4 6
-4 16 0 22 3 6 17 8 30 5 14 -4 24 -2 24 4 0 5 21 10 48 9z m-3 -79 c8 0 15
-2 15 -4 0 -2 -7 -9 -15 -16 -12 -10 -15 -10 -15 4 0 9 7 16 15 16z"/>
</g>
</svg>
