<?xml version="1.0" standalone="no"?>
<!DOCTYPE svg PUBLIC "-//W3C//DTD SVG 20010904//EN"
 "http://www.w3.org/TR/2001/REC-SVG-20010904/DTD/svg10.dtd">
<svg version="1.0" xmlns="http://www.w3.org/2000/svg"
 width="128.000000pt" height="128.000000pt" viewBox="0 0 128.000000 128.000000"
 preserveAspectRatio="xMidYMid meet">
<metadata>
Created by potrace 1.16, written by Peter Selinger 2001-2019
</metadata>
<g transform="translate(0.000000,128.000000) scale(0.100000,-0.100000)"
fill="#000000" stroke="none">
<path d="M1230 1060 c-15 0 -31 -5 -38 -12 -8 -8 -9 -15 -1 -25 7 -7 27 -13
46 -13 22 0 36 6 40 16 3 9 0 20 -8 25 -8 5 -25 9 -39 9z"/>
<path d="M816 1040 c0 -1 -13 -8 -29 -16 -15 -8 -41 -39 -58 -69 -16 -29 -37
-59 -44 -65 -8 -7 -15 -20 -15 -30 0 -10 -6 -20 -14 -23 -8 -3 -20 -29 -27
-57 -7 -29 -20 -55 -28 -58 -9 -3 -32 13 -60 44 -25 28 -54 53 -63 56 -9 4
-22 1 -29 -8 -9 -11 -8 -24 6 -60 9 -25 16 -47 14 -48 -2 -2 -29 -11 -59 -19
-52 -15 -56 -15 -75 2 -11 11 -37 26 -59 35 -21 9 -40 16 -42 16 -2 0 -4 -12
-4 -27 1 -16 7 -39 15 -53 8 -14 14 -29 15 -35 0 -5 -26 -18 -58 -27 -31 -10
-87 -21 -124 -24 -55 -6 -68 -10 -68 -24 0 -11 18 -25 51 -39 28 -11 56 -18
62 -14 5 3 37 16 71 28 34 12 69 25 78 29 13 6 21 -2 37 -38 12 -25 21 -49 21
-55 0 -5 7 -17 16 -25 8 -9 24 -16 35 -16 16 0 19 7 19 40 0 22 -9 56 -20 77
-14 27 -17 41 -9 55 6 11 18 21 27 24 9 3 35 14 58 24 31 14 55 17 107 13 66
-6 66 -6 84 26 10 17 28 34 39 37 12 3 33 4 45 2 16 -2 25 -11 27 -25 2 -16
-13 -40 -53 -82 -32 -33 -65 -73 -75 -89 -11 -18 -33 -35 -54 -42 -20 -6 -42
-19 -48 -29 -7 -10 -26 -22 -41 -27 -16 -5 -57 -32 -92 -59 -45 -35 -65 -57
-65 -72 0 -15 7 -24 23 -28 12 -3 42 -2 66 2 24 5 96 5 160 1 64 -5 145 -13
181 -19 36 -7 83 -12 105 -13 37 -1 41 1 51 34 8 22 8 41 3 52 -6 10 -14 18
-20 18 -5 0 -26 15 -45 34 -31 30 -39 33 -87 30 -28 -1 -69 -7 -90 -12 -21 -6
-41 -13 -44 -16 -4 -3 -12 -1 -20 5 -7 6 -13 18 -13 26 0 8 15 20 33 28 17 7
42 24 54 37 12 13 38 42 58 64 19 23 35 46 35 53 0 6 15 34 33 64 17 29 37 61
43 72 10 18 21 20 113 18 56 -1 118 -7 139 -13 20 -5 56 -10 80 -10 28 0 45 5
48 15 3 8 14 17 25 20 10 4 19 11 19 16 0 5 -13 9 -29 9 -17 0 -46 9 -65 21
-19 11 -46 20 -58 18 -13 -1 -31 1 -41 6 -10 4 -39 0 -68 -9 -28 -10 -58 -15
-67 -11 -11 4 -13 15 -7 48 3 23 9 57 12 74 4 28 2 34 -21 43 -14 5 -26 14
-26 19 0 6 -21 19 -46 31 -26 11 -47 20 -48 20z m-16 -110 c9 0 21 -5 28 -12
7 -7 12 -26 12 -43 0 -18 -8 -39 -17 -48 -10 -8 -40 -21 -66 -28 -29 -7 -52
-8 -57 -3 -6 6 -3 19 5 34 8 14 19 35 24 46 5 12 20 29 33 38 12 9 30 16 38
16z"/>
</g>
</svg>
