<?xml version="1.0" standalone="no"?>
<!DOCTYPE svg PUBLIC "-//W3C//DTD SVG 20010904//EN"
 "http://www.w3.org/TR/2001/REC-SVG-20010904/DTD/svg10.dtd">
<svg version="1.0" xmlns="http://www.w3.org/2000/svg"
 width="128.000000pt" height="128.000000pt" viewBox="0 0 128.000000 128.000000"
 preserveAspectRatio="xMidYMid meet">
<metadata>
Created by potrace 1.16, written by Peter Selinger 2001-2019
</metadata>
<g transform="translate(0.000000,128.000000) scale(0.100000,-0.100000)"
fill="#000000" stroke="none">
<path d="M945 1280 c-19 0 -35 -2 -35 -5 0 -3 10 -21 23 -40 12 -19 28 -35 35
-35 7 0 12 15 12 40 0 39 -1 40 -35 40z"/>
<path d="M749 1250 c-3 0 -8 -3 -11 -6 -3 -3 -49 -9 -102 -14 -53 -5 -106 -6
-119 -1 -12 4 -28 6 -34 4 -7 -3 -13 -13 -13 -23 0 -10 15 -31 33 -46 17 -15
56 -38 85 -51 28 -14 52 -30 52 -37 0 -7 -30 -44 -67 -82 -38 -38 -85 -94
-106 -124 -20 -30 -64 -97 -97 -149 -41 -65 -60 -105 -60 -127 0 -17 7 -37 15
-44 13 -11 25 -7 73 26 31 21 70 51 87 66 17 15 50 34 74 44 30 12 45 14 53 6
8 -8 -8 -33 -55 -89 -37 -43 -89 -100 -117 -128 -27 -27 -55 -65 -61 -83 -6
-18 -8 -44 -5 -58 5 -20 12 -24 46 -24 34 0 42 4 50 25 6 15 17 25 30 25 11 0
20 -6 20 -12 0 -7 -43 -55 -94 -107 -88 -88 -95 -98 -106 -153 -7 -32 -10 -61
-6 -65 3 -3 66 -6 139 -5 72 1 162 6 199 11 42 6 92 6 130 0 35 -5 84 -9 109
-9 32 0 51 6 62 18 10 10 17 32 17 48 0 16 -7 39 -15 51 -9 13 -45 39 -80 59
-59 32 -70 35 -118 30 -28 -3 -78 -8 -109 -12 -34 -3 -58 -2 -58 4 0 5 11 21
25 36 13 14 29 26 35 26 7 0 10 16 8 42 -2 36 -7 44 -28 50 -14 4 -37 10 -52
13 -16 3 -28 12 -28 20 0 8 18 33 39 54 21 21 42 48 46 60 4 13 15 21 28 21
12 0 32 3 44 6 16 4 26 -1 38 -20 10 -15 15 -35 11 -49 -3 -13 -17 -40 -31
-61 -14 -20 -25 -44 -25 -53 0 -9 -8 -22 -17 -29 -16 -11 -16 -13 -3 -19 9 -3
40 8 70 24 30 17 64 44 75 61 11 16 26 30 32 30 7 0 19 11 28 23 8 13 16 44
17 69 1 25 -3 52 -10 61 -7 8 -34 17 -61 21 -27 3 -60 2 -75 -4 -14 -5 -33 -7
-41 -4 -8 4 -15 12 -15 19 0 7 35 43 78 81 59 51 77 74 77 93 0 23 -5 26 -38
29 -21 2 -69 -6 -106 -18 -38 -11 -77 -27 -87 -35 -11 -8 -42 -15 -71 -15 -40
0 -53 4 -53 14 0 8 4 18 10 21 5 3 16 20 25 38 9 18 31 53 50 80 20 26 39 47
44 47 5 0 33 -18 62 -40 42 -31 60 -39 79 -35 14 4 28 12 32 18 4 7 8 21 8 32
0 10 -14 34 -32 52 -29 30 -30 35 -19 57 7 13 25 30 40 37 14 8 34 23 43 34
10 11 17 34 18 50 0 17 -7 40 -15 52 -9 12 -32 27 -53 33 -20 5 -40 10 -43 10z
m-99 -590 c5 0 11 -4 14 -9 3 -5 -1 -14 -8 -20 -10 -8 -16 -9 -21 -1 -3 5 -3
15 0 20 3 6 10 10 15 10z m84 -470 c7 0 19 -6 25 -14 9 -10 9 -16 1 -21 -6 -4
-17 -1 -25 5 -8 7 -15 16 -15 21 0 5 6 9 14 9z m-75 -10 c5 0 16 -11 24 -23 8
-13 17 -32 19 -43 2 -13 -3 -19 -17 -19 -12 0 -20 7 -20 18 0 10 -6 22 -14 26
-8 5 -11 16 -8 25 4 9 10 16 16 16z m81 -90 c6 0 10 -7 10 -15 0 -8 -4 -15
-10 -15 -5 0 -10 7 -10 15 0 8 5 15 10 15z"/>
</g>
</svg>
