<?xml version="1.0" standalone="no"?>
<!DOCTYPE svg PUBLIC "-//W3C//DTD SVG 20010904//EN"
 "http://www.w3.org/TR/2001/REC-SVG-20010904/DTD/svg10.dtd">
<svg version="1.0" xmlns="http://www.w3.org/2000/svg"
 width="128.000000pt" height="128.000000pt" viewBox="0 0 128.000000 128.000000"
 preserveAspectRatio="xMidYMid meet">
<metadata>
Created by potrace 1.16, written by Peter Selinger 2001-2019
</metadata>
<g transform="translate(0.000000,128.000000) scale(0.100000,-0.100000)"
fill="#000000" stroke="none">
<path d="M768 1256 c-21 3 -48 -3 -73 -16 -22 -10 -56 -22 -75 -26 -19 -3 -60
-15 -90 -26 -30 -11 -76 -21 -102 -22 -26 -1 -50 -5 -53 -8 -3 -3 0 -18 7 -34
7 -16 20 -37 30 -46 9 -10 22 -18 28 -18 6 0 18 4 28 9 9 5 44 20 77 32 33 13
64 27 70 31 5 4 13 8 17 8 4 0 8 -7 8 -15 0 -8 -20 -34 -45 -57 -25 -23 -45
-50 -45 -59 0 -9 8 -23 18 -31 9 -8 30 -19 47 -22 26 -7 27 -9 12 -17 -9 -6
-17 -17 -17 -24 0 -8 4 -15 8 -15 5 0 35 5 68 11 32 7 65 17 72 22 8 6 12 25
10 46 -3 33 -7 37 -50 51 -26 8 -50 21 -53 28 -3 8 10 19 33 29 20 8 58 37 85
65 26 28 47 56 47 63 0 7 -6 18 -14 24 -8 7 -29 14 -48 17z"/>
<path d="M482 940 c-16 0 -32 -3 -35 -7 -4 -3 -7 -12 -7 -19 0 -8 -12 -41 -27
-74 -16 -33 -34 -60 -40 -60 -7 0 -19 -12 -27 -27 -8 -16 -71 -83 -140 -150
-126 -123 -126 -123 -106 -143 11 -11 28 -20 39 -20 10 0 24 7 31 15 7 8 27
17 45 21 25 4 41 17 62 47 15 23 56 75 90 115 35 40 70 84 79 98 12 17 14 28
7 35 -6 6 -9 19 -6 29 3 13 13 18 31 17 24 -2 28 2 36 44 5 26 6 54 3 63 -4
10 -18 16 -35 16z"/>
<path d="M652 860 c-10 0 -27 -9 -37 -20 -17 -18 -17 -22 -4 -36 10 -9 44 -17
88 -21 39 -3 74 -10 77 -14 3 -5 16 -9 28 -9 13 0 29 -6 35 -14 6 -8 31 -19
55 -25 29 -7 46 -18 54 -35 6 -13 25 -31 43 -40 18 -9 38 -16 46 -16 7 0 30
-18 51 -39 20 -22 50 -45 65 -51 16 -5 33 -8 38 -4 5 3 9 24 9 48 0 29 -6 49
-21 65 -12 13 -36 29 -53 36 -17 7 -61 18 -98 25 -46 8 -69 17 -73 29 -3 9
-29 29 -57 44 -39 21 -60 27 -81 22 -20 -5 -27 -3 -27 7 0 10 -11 15 -29 16
-16 0 -43 8 -60 16 -16 9 -39 16 -49 16z"/>
<path d="M703 647 c-34 0 -75 -6 -92 -13 -20 -9 -31 -20 -31 -34 0 -13 7 -20
19 -20 11 0 23 4 26 10 3 5 23 14 44 20 22 6 45 8 52 5 11 -4 13 -31 11 -123
-3 -100 0 -122 16 -154 13 -25 16 -41 10 -53 -6 -9 -7 -27 -4 -40 4 -16 1 -27
-10 -33 -9 -5 -25 -7 -35 -5 -11 3 -19 1 -19 -5 0 -6 7 -15 16 -20 10 -6 17
-24 18 -48 1 -39 1 -39 -37 -36 -26 3 -45 -2 -58 -14 -16 -14 -21 -15 -35 -3
-9 7 -28 12 -43 11 -15 -1 -35 4 -45 11 -15 11 -16 17 -5 40 7 15 19 29 28 31
9 3 30 7 47 11 18 3 46 21 63 40 19 21 31 45 31 63 0 15 -7 38 -16 50 -12 17
-13 33 -7 70 4 26 6 58 5 72 -2 14 -8 29 -13 35 -5 5 -30 15 -57 22 -26 6 -55
10 -64 7 -12 -4 -19 2 -24 21 -4 16 -15 27 -31 31 -13 4 -29 2 -34 -3 -5 -5
-9 -20 -10 -33 0 -14 2 -47 4 -75 3 -27 8 -90 12 -140 5 -54 13 -97 22 -107
12 -13 12 -24 3 -57 -8 -29 -19 -45 -40 -56 -16 -8 -35 -15 -43 -15 -8 0 -25
-9 -38 -20 -23 -19 -23 -21 -7 -34 10 -7 18 -23 18 -35 0 -20 4 -21 107 -19
98 1 109 3 130 25 19 18 25 20 29 8 4 -8 9 -15 13 -15 3 0 11 10 16 23 6 12
20 23 32 25 14 2 26 -4 33 -18 9 -17 18 -21 38 -17 15 3 35 1 45 -5 10 -5 51
-11 90 -13 40 -2 100 -6 133 -10 43 -5 64 -4 69 4 4 7 2 18 -4 25 -6 7 -22 11
-35 9 -19 -4 -27 1 -38 23 -7 16 -21 30 -31 32 -11 2 -20 -6 -26 -22 -6 -13
-20 -30 -31 -36 -16 -9 -25 -8 -37 1 -8 8 -19 22 -23 33 -4 11 -22 25 -41 31
-28 10 -33 16 -31 36 2 13 8 28 13 33 5 6 9 20 9 33 0 16 8 27 25 33 14 5 25
16 25 24 0 8 -5 18 -11 22 -8 4 -9 25 -5 59 3 29 1 77 -5 106 -6 30 -11 77
-10 106 1 48 -1 53 -31 71 -24 15 -50 20 -95 19z m-156 -131 c8 -3 18 -6 22
-6 4 0 13 -11 19 -25 10 -21 9 -32 -3 -55 -8 -16 -15 -38 -15 -49 0 -11 11
-32 24 -48 13 -16 25 -37 27 -48 2 -11 0 -26 -4 -32 -5 -7 -16 -13 -26 -13 -9
0 -25 6 -34 13 -12 9 -19 41 -26 131 -6 65 -8 123 -5 128 3 5 13 7 21 4z
m-115 -444 c4 -1 4 -9 1 -18 -4 -10 -16 -14 -36 -12 -17 2 -32 8 -34 15 -3 7
9 13 29 15 18 2 36 2 40 0z"/>
</g>
</svg>
