<?xml version="1.0" standalone="no"?>
<!DOCTYPE svg PUBLIC "-//W3C//DTD SVG 20010904//EN"
 "http://www.w3.org/TR/2001/REC-SVG-20010904/DTD/svg10.dtd">
<svg version="1.0" xmlns="http://www.w3.org/2000/svg"
 width="128.000000pt" height="128.000000pt" viewBox="0 0 128.000000 128.000000"
 preserveAspectRatio="xMidYMid meet">
<metadata>
Created by potrace 1.16, written by Peter Selinger 2001-2019
</metadata>
<g transform="translate(0.000000,128.000000) scale(0.100000,-0.100000)"
fill="#000000" stroke="none">
<path d="M1020 1280 c-11 0 -20 -4 -20 -9 0 -5 -24 -24 -52 -41 -29 -18 -66
-45 -83 -60 -16 -16 -46 -37 -66 -48 -20 -11 -47 -22 -60 -24 -20 -2 -23 1
-21 20 3 17 -2 22 -17 22 -12 0 -21 -6 -21 -14 0 -7 6 -25 13 -39 11 -20 17
-23 25 -15 9 9 15 9 23 1 8 -8 8 -13 0 -17 -6 -4 -11 -13 -11 -21 0 -7 16 -23
36 -35 34 -21 34 -23 17 -40 -14 -13 -19 -14 -21 -3 -2 7 -8 13 -13 13 -5 0
-9 -9 -9 -19 0 -11 -3 -27 -7 -37 -5 -15 -2 -16 33 -10 21 4 45 14 53 21 11
11 12 17 2 28 -9 12 -8 16 5 21 9 3 20 4 25 0 5 -3 9 -14 9 -25 0 -10 -19 -37
-42 -60 -24 -22 -53 -45 -65 -49 -12 -5 -25 -21 -29 -35 -3 -14 -4 -32 0 -40
3 -8 12 -15 20 -15 9 0 16 11 18 28 2 21 9 28 31 30 22 3 27 -1 27 -18 0 -11
7 -23 16 -27 11 -4 13 -13 9 -34 -6 -26 -4 -29 15 -27 12 2 27 -4 33 -13 5 -9
7 -23 4 -32 -3 -9 -25 -28 -48 -42 -27 -18 -45 -23 -51 -17 -7 7 -2 21 13 41
18 24 20 34 11 43 -9 9 -17 7 -32 -10 -12 -12 -25 -22 -31 -22 -6 0 -28 -18
-50 -41 -21 -22 -39 -49 -39 -59 0 -9 7 -23 15 -30 10 -8 28 -10 52 -5 21 4
42 10 48 13 5 4 26 12 45 19 19 7 38 9 43 4 5 -5 9 -53 10 -107 0 -54 -5 -144
-12 -200 -8 -56 -11 -121 -7 -147 4 -26 11 -49 15 -52 5 -2 17 5 27 16 10 11
26 57 35 101 10 49 15 109 12 152 -2 39 -5 112 -7 161 -2 50 -1 96 2 103 2 7
14 18 26 24 11 7 48 17 81 23 43 8 61 16 63 28 2 9 -6 31 -18 47 -19 26 -26
30 -54 25 -25 -5 -36 -1 -56 20 -25 26 -25 26 -5 43 11 9 31 29 44 44 20 23
22 30 11 43 -8 9 -21 13 -36 9 -23 -6 -23 -5 -12 27 6 19 17 41 24 50 8 8 14
19 14 23 0 5 -14 21 -31 36 -29 28 -30 30 -14 60 9 17 20 28 26 25 5 -4 30 14
54 40 38 38 44 50 39 72 -4 16 -18 30 -35 37 -16 6 -29 14 -29 18 0 4 -9 8
-20 8z m6 -61 c6 1 19 -8 29 -19 18 -19 17 -20 -3 -20 -11 0 -31 -12 -44 -28
-12 -15 -39 -37 -58 -49 -20 -12 -46 -33 -59 -47 -14 -14 -30 -26 -37 -26 -7
0 -16 4 -19 10 -3 5 1 22 9 37 8 15 34 47 58 70 24 23 59 48 78 56 19 9 40 16
46 16z m-134 -207 c6 -6 7 -16 3 -22 -5 -8 -11 -8 -17 -2 -6 6 -7 16 -3 22 5
8 11 8 17 2z m80 -14 c6 -2 14 -10 16 -16 2 -7 -3 -12 -12 -12 -9 0 -16 7 -16
16 0 9 5 14 12 12z m-21 -33 c5 -4 9 -13 9 -21 0 -8 -4 -14 -9 -14 -6 0 -13 5
-16 10 -3 6 -3 15 0 20 4 6 11 8 16 5z m-35 -138 c37 0 44 -3 38 -16 -4 -9 -6
-25 -6 -35 1 -11 -3 -27 -9 -37 -6 -11 -6 -20 1 -24 5 -3 10 -11 10 -17 0 -6
-8 -4 -18 5 -10 10 -27 17 -38 18 -16 0 -16 2 4 10 17 6 22 15 20 31 -2 17
-10 23 -30 23 -15 1 -30 4 -34 8 -4 3 -1 13 5 21 7 9 29 14 57 13z m100 -157
c9 0 14 -7 12 -17 -2 -9 -9 -18 -15 -21 -8 -2 -13 5 -13 17 0 12 6 21 16 21z"/>
<path d="M565 1209 c-11 0 -29 -4 -40 -8 -11 -5 -42 -12 -70 -16 -27 -4 -56
-12 -63 -18 -8 -6 -32 -10 -55 -9 -23 1 -48 -2 -56 -7 -9 -6 -23 -5 -37 1 -12
6 -31 8 -40 4 -16 -6 -16 -8 3 -27 11 -12 35 -22 54 -23 18 -1 35 -8 37 -14 2
-7 14 -12 26 -12 12 0 32 7 45 17 13 9 33 17 45 19 11 1 46 12 76 23 30 12 63
18 73 15 17 -5 19 -13 13 -53 -4 -37 -13 -53 -46 -83 -40 -35 -42 -36 -74 -23
-20 9 -37 10 -47 4 -7 -5 -39 -9 -69 -9 -31 0 -61 -5 -68 -12 -9 -9 -7 -17 10
-35 21 -23 21 -23 -4 -70 -15 -27 -39 -54 -55 -62 -15 -7 -36 -21 -46 -29 -14
-13 -16 -25 -11 -61 4 -25 8 -49 10 -52 2 -3 27 2 56 12 45 15 55 16 64 4 6
-9 19 -12 34 -8 17 4 21 2 18 -8 -3 -8 -15 -13 -27 -12 -13 2 -21 -3 -21 -13
0 -8 -5 -25 -12 -37 -7 -12 -22 -51 -35 -87 -13 -36 -23 -86 -23 -111 0 -32 6
-51 18 -62 17 -16 20 -16 39 6 12 12 35 52 52 88 17 36 31 73 31 81 0 8 9 23
19 32 16 14 23 15 41 6 12 -6 37 -29 57 -51 19 -21 41 -39 49 -39 7 0 19 10
25 23 7 12 12 35 11 52 -2 16 6 47 17 70 11 22 26 61 34 88 8 26 11 49 7 52
-4 2 -14 -3 -22 -13 -7 -9 -19 -29 -26 -44 -7 -16 -17 -38 -23 -51 -5 -13 -19
-28 -29 -35 -15 -9 -25 -8 -48 5 -27 16 -31 16 -64 -5 -19 -12 -41 -22 -47
-22 -8 0 -10 8 -5 22 4 13 9 41 11 63 2 22 4 48 4 58 0 12 9 17 32 17 18 0 52
9 76 20 24 11 53 20 65 20 12 0 35 14 52 31 28 30 28 31 10 45 -11 8 -26 14
-33 14 -7 0 -30 9 -50 20 -21 11 -51 20 -68 21 -30 1 -30 1 3 10 18 6 42 19
52 29 11 11 26 20 33 20 6 0 30 16 52 34 38 32 40 37 39 91 0 50 -3 59 -30 80
-16 13 -38 24 -49 24z m-214 -308 c9 -22 11 -23 27 -7 10 9 22 16 25 16 4 0
-2 -16 -12 -36 -11 -20 -29 -43 -41 -51 -15 -11 -25 -12 -32 -5 -8 8 -6 21 6
45 9 19 16 41 17 49 0 7 5 2 10 -11z m87 -3 c8 -2 19 -10 25 -19 6 -9 7 -24 4
-33 -4 -9 -15 -16 -26 -16 -11 0 -22 3 -24 8 -3 4 -3 20 0 35 4 18 11 27 21
25z"/>
<path d="M943 40 c-6 0 -15 -4 -18 -10 -3 -6 -3 -15 0 -20 3 -5 17 -10 31 -10
22 0 23 2 12 20 -7 11 -18 20 -25 20z"/>
</g>
</svg>
