<?xml version="1.0" standalone="no"?>
<!DOCTYPE svg PUBLIC "-//W3C//DTD SVG 20010904//EN"
 "http://www.w3.org/TR/2001/REC-SVG-20010904/DTD/svg10.dtd">
<svg version="1.0" xmlns="http://www.w3.org/2000/svg"
 width="56.000000pt" height="56.000000pt" viewBox="0 0 56.000000 56.000000"
 preserveAspectRatio="xMidYMid meet">
<metadata>
Created by potrace 1.16, written by Peter Selinger 2001-2019
</metadata>
<g transform="translate(0.000000,56.000000) scale(0.100000,-0.100000)"
fill="#000000" stroke="none">
<path d="M154 547 c-9 10 -13 9 -18 -3 -3 -9 -6 -33 -6 -54 0 -20 -6 -42 -12
-48 -7 -5 -32 -13 -55 -17 -24 -4 -45 -11 -48 -15 -3 -5 10 -16 29 -25 20 -9
41 -15 48 -13 9 4 16 -20 24 -84 9 -69 17 -95 35 -114 12 -13 28 -24 36 -24 7
0 20 11 29 25 9 14 43 45 75 70 31 24 73 48 92 53 21 6 40 6 50 0 11 -6 17
-22 17 -46 0 -20 -8 -59 -17 -87 -12 -32 -36 -69 -70 -103 -29 -30 -53 -56
-53 -58 0 -2 15 -4 33 -4 26 0 42 10 83 53 27 28 55 63 61 77 6 14 16 40 22
59 6 19 11 49 11 68 0 25 -8 43 -29 63 -16 16 -41 32 -56 36 -18 4 -36 2 -49
-6 -12 -8 -54 -31 -95 -52 -41 -22 -83 -38 -95 -36 -19 3 -21 11 -24 71 -3 65
-2 67 25 78 15 6 38 20 51 31 12 12 22 28 22 36 0 11 -8 13 -34 8 -29 -6 -36
-3 -52 21 -10 16 -23 34 -30 40z"/>
</g>
</svg>
