<?xml version="1.0" standalone="no"?>
<!DOCTYPE svg PUBLIC "-//W3C//DTD SVG 20010904//EN"
 "http://www.w3.org/TR/2001/REC-SVG-20010904/DTD/svg10.dtd">
<svg version="1.0" xmlns="http://www.w3.org/2000/svg"
 width="56.000000pt" height="56.000000pt" viewBox="0 0 56.000000 56.000000"
 preserveAspectRatio="xMidYMid meet">
<metadata>
Created by potrace 1.16, written by Peter Selinger 2001-2019
</metadata>
<g transform="translate(0.000000,56.000000) scale(0.100000,-0.100000)"
fill="#000000" stroke="none">
<path d="M184 560 c-12 0 -14 -12 -13 -50 2 -27 0 -53 -4 -56 -4 -4 -27 1 -53
11 -32 12 -49 14 -56 7 -8 -8 -6 -18 6 -36 13 -21 25 -26 56 -26 29 0 40 -4
40 -15 0 -8 -6 -32 -14 -52 -7 -21 -18 -58 -24 -84 -8 -32 -8 -57 0 -87 8 -33
15 -42 31 -42 12 0 45 23 77 54 30 29 78 66 106 81 43 22 55 25 73 16 12 -7
21 -21 21 -36 0 -18 -28 -52 -105 -127 -58 -56 -105 -106 -105 -110 0 -4 11
-8 25 -8 17 0 60 31 137 98 101 87 113 102 116 134 3 30 -3 43 -36 77 -34 36
-44 41 -68 35 -16 -4 -50 -22 -77 -40 -26 -19 -51 -34 -56 -34 -5 0 -14 -7
-21 -15 -7 -8 -19 -15 -26 -15 -11 0 -14 18 -14 76 0 41 5 84 10 95 6 10 15
19 21 19 6 0 24 9 40 21 21 14 29 29 29 50 0 18 -5 29 -14 29 -7 0 -19 -7 -26
-15 -7 -8 -18 -15 -24 -15 -6 0 -17 14 -24 30 -8 17 -20 30 -28 30z"/>
</g>
</svg>
