<?xml version="1.0" standalone="no"?>
<!DOCTYPE svg PUBLIC "-//W3C//DTD SVG 20010904//EN"
 "http://www.w3.org/TR/2001/REC-SVG-20010904/DTD/svg10.dtd">
<svg version="1.0" xmlns="http://www.w3.org/2000/svg"
 width="56.000000pt" height="56.000000pt" viewBox="0 0 56.000000 56.000000"
 preserveAspectRatio="xMidYMid meet">
<metadata>
Created by potrace 1.16, written by Peter Selinger 2001-2019
</metadata>
<g transform="translate(0.000000,56.000000) scale(0.100000,-0.100000)"
fill="#000000" stroke="none">
<path d="M276 500 c-7 0 -16 -3 -19 -7 -4 -3 -7 -14 -7 -23 0 -10 -7 -23 -15
-30 -8 -7 -39 -13 -69 -14 -30 -1 -58 -5 -61 -8 -4 -4 -4 -11 0 -17 3 -6 14
-11 23 -11 9 0 35 -6 56 -14 22 -8 43 -22 47 -32 3 -11 4 -54 1 -97 -4 -64 -2
-77 10 -77 8 0 30 7 48 16 18 10 41 25 51 35 11 11 31 19 45 19 14 0 34 -5 45
-10 10 -6 19 -16 19 -21 0 -6 -18 -33 -41 -60 -22 -26 -56 -58 -75 -69 -18
-12 -34 -28 -34 -36 0 -8 8 -14 19 -14 10 0 30 6 45 14 14 7 35 25 47 40 11
14 27 26 34 26 8 0 28 20 45 44 16 25 30 54 30 65 0 11 -5 32 -11 48 -5 15
-16 31 -22 35 -7 4 -34 8 -60 8 -28 0 -64 -8 -87 -20 -39 -20 -39 -20 -50 22
-10 35 -9 47 7 77 13 25 27 37 48 41 16 3 28 9 28 14 -1 5 -20 19 -43 32 -23
13 -48 24 -54 24z"/>
</g>
</svg>
