<?xml version="1.0" standalone="no"?>
<!DOCTYPE svg PUBLIC "-//W3C//DTD SVG 20010904//EN"
 "http://www.w3.org/TR/2001/REC-SVG-20010904/DTD/svg10.dtd">
<svg version="1.0" xmlns="http://www.w3.org/2000/svg"
 width="56.000000pt" height="56.000000pt" viewBox="0 0 56.000000 56.000000"
 preserveAspectRatio="xMidYMid meet">
<metadata>
Created by potrace 1.16, written by Peter Selinger 2001-2019
</metadata>
<g transform="translate(0.000000,56.000000) scale(0.100000,-0.100000)"
fill="#000000" stroke="none">
<path d="M131 460 c-37 0 -54 -6 -74 -24 -14 -13 -30 -42 -36 -64 -6 -22 -9
-47 -6 -55 4 -8 27 -21 52 -29 47 -15 47 -15 44 -71 -2 -50 1 -59 25 -82 15
-14 34 -25 43 -24 9 0 34 22 56 49 22 26 56 57 75 69 19 12 53 35 75 51 22 16
49 29 61 30 11 0 28 -8 37 -18 10 -10 17 -23 17 -28 0 -5 -29 -40 -65 -79 -35
-38 -65 -73 -65 -76 0 -4 7 -10 16 -13 9 -4 38 3 63 14 25 12 53 25 61 29 8 4
19 24 23 45 5 20 13 36 18 36 5 0 9 16 9 35 0 24 -9 45 -27 66 -16 17 -40 37
-56 45 -24 13 -33 13 -75 -1 -36 -12 -66 -35 -129 -100 -45 -47 -86 -85 -92
-85 -6 0 -11 19 -11 42 0 35 6 49 36 79 22 23 34 44 31 53 -3 8 -16 16 -29 18
-19 2 -23 10 -26 46 -3 42 -3 42 -51 42z m-15 -90 c8 0 14 -9 14 -20 0 -11 -7
-23 -16 -27 -8 -3 -20 -1 -26 5 -8 8 -8 15 2 27 7 8 19 15 26 15z"/>
</g>
</svg>
