<?xml version="1.0" standalone="no"?>
<!DOCTYPE svg PUBLIC "-//W3C//DTD SVG 20010904//EN"
 "http://www.w3.org/TR/2001/REC-SVG-20010904/DTD/svg10.dtd">
<svg version="1.0" xmlns="http://www.w3.org/2000/svg"
 width="56.000000pt" height="56.000000pt" viewBox="0 0 56.000000 56.000000"
 preserveAspectRatio="xMidYMid meet">
<metadata>
Created by potrace 1.16, written by Peter Selinger 2001-2019
</metadata>
<g transform="translate(0.000000,56.000000) scale(0.100000,-0.100000)"
fill="#000000" stroke="none">
<path d="M277 559 c-7 0 -26 -17 -42 -36 -31 -35 -31 -35 -62 -9 -17 14 -36
26 -42 26 -6 0 -11 -6 -11 -13 0 -8 9 -25 20 -38 11 -13 27 -32 36 -41 14 -14
16 -36 15 -118 -2 -84 0 -100 13 -100 9 0 38 13 64 30 27 17 52 30 55 30 4 0
15 -10 27 -22 13 -14 20 -35 20 -60 0 -21 -6 -48 -12 -60 -7 -12 -30 -41 -51
-64 -21 -23 -52 -48 -68 -54 -16 -7 -29 -16 -29 -21 0 -5 10 -9 23 -9 12 0 45
12 72 26 28 14 64 42 81 61 18 19 34 50 37 69 3 19 3 49 0 68 -3 21 -19 47
-39 67 -30 29 -40 32 -80 30 -30 -1 -50 3 -55 11 -5 7 -9 27 -9 44 0 17 3 45
6 62 4 21 15 34 35 42 16 7 29 19 29 27 0 8 -5 23 -10 34 -6 10 -16 19 -23 18z"/>
</g>
</svg>
