<?xml version="1.0" standalone="no"?>
<!DOCTYPE svg PUBLIC "-//W3C//DTD SVG 20010904//EN"
 "http://www.w3.org/TR/2001/REC-SVG-20010904/DTD/svg10.dtd">
<svg version="1.0" xmlns="http://www.w3.org/2000/svg"
 width="56.000000pt" height="56.000000pt" viewBox="0 0 56.000000 56.000000"
 preserveAspectRatio="xMidYMid meet">
<metadata>
Created by potrace 1.16, written by Peter Selinger 2001-2019
</metadata>
<g transform="translate(0.000000,56.000000) scale(0.100000,-0.100000)"
fill="#000000" stroke="none">
<path d="M145 560 c-9 0 -15 -9 -15 -24 0 -14 -10 -32 -22 -41 -19 -13 -21
-18 -10 -35 7 -13 12 -60 12 -129 0 -62 5 -121 12 -136 6 -14 17 -25 23 -25 7
0 35 26 62 58 28 31 73 69 100 83 31 17 58 25 75 22 19 -4 27 -13 32 -34 3
-16 3 -37 0 -46 -4 -10 -13 -32 -20 -50 -8 -18 -31 -54 -50 -80 -20 -26 -53
-64 -73 -83 -30 -29 -33 -35 -18 -38 10 -2 36 8 57 22 21 14 46 39 56 56 10
16 22 30 26 30 4 0 20 19 36 43 16 23 32 59 35 80 3 23 1 47 -8 63 -7 14 -21
33 -31 42 -11 9 -31 23 -46 31 -26 13 -32 11 -119 -44 -79 -50 -93 -56 -105
-43 -11 11 -12 27 -5 78 4 36 6 70 4 77 -3 6 7 19 21 28 14 10 26 23 26 31 0
7 -9 18 -20 24 -11 6 -20 17 -20 25 0 8 -7 15 -15 15z"/>
</g>
</svg>
