<?xml version="1.0" standalone="no"?>
<!DOCTYPE svg PUBLIC "-//W3C//DTD SVG 20010904//EN"
 "http://www.w3.org/TR/2001/REC-SVG-20010904/DTD/svg10.dtd">
<svg version="1.0" xmlns="http://www.w3.org/2000/svg"
 width="56.000000pt" height="56.000000pt" viewBox="0 0 56.000000 56.000000"
 preserveAspectRatio="xMidYMid meet">
<metadata>
Created by potrace 1.16, written by Peter Selinger 2001-2019
</metadata>
<g transform="translate(0.000000,56.000000) scale(0.100000,-0.100000)"
fill="#000000" stroke="none">
<path d="M263 560 c-5 0 -16 -12 -25 -27 -9 -16 -27 -41 -40 -57 -13 -15 -33
-40 -45 -55 -13 -14 -23 -32 -23 -39 0 -7 5 -22 10 -33 6 -10 18 -19 28 -19 9
0 28 9 42 20 14 11 30 20 36 20 7 0 14 -10 18 -22 3 -13 6 -49 6 -81 0 -32 5
-67 10 -78 6 -10 17 -19 25 -19 8 0 15 5 15 10 0 6 11 10 24 10 13 0 26 -6 29
-13 3 -7 3 -25 0 -40 -3 -15 -14 -32 -23 -37 -10 -6 -24 -16 -32 -23 -7 -7
-39 -25 -70 -41 -32 -15 -58 -30 -58 -33 0 -3 16 -3 36 0 19 3 49 12 65 19 16
7 29 16 29 20 0 5 6 8 13 8 7 0 29 14 50 31 29 24 37 38 37 63 0 21 -9 43 -25
60 -13 14 -30 27 -37 27 -7 1 -16 1 -20 0 -4 0 -12 7 -17 17 -5 9 -12 47 -16
84 -6 58 -5 69 9 73 9 3 24 8 34 11 15 5 13 8 -10 26 -20 14 -27 26 -23 41 3
14 -4 32 -20 50 -13 15 -28 27 -32 27z m-1 -50 c4 0 8 -20 8 -44 0 -40 -3 -45
-34 -60 -19 -9 -39 -16 -45 -16 -6 0 -11 5 -11 11 0 7 17 34 37 60 20 27 41
49 45 49z"/>
</g>
</svg>
