<?xml version="1.0" standalone="no"?>
<!DOCTYPE svg PUBLIC "-//W3C//DTD SVG 20010904//EN"
 "http://www.w3.org/TR/2001/REC-SVG-20010904/DTD/svg10.dtd">
<svg version="1.0" xmlns="http://www.w3.org/2000/svg"
 width="56.000000pt" height="56.000000pt" viewBox="0 0 56.000000 56.000000"
 preserveAspectRatio="xMidYMid meet">
<metadata>
Created by potrace 1.16, written by Peter Selinger 2001-2019
</metadata>
<g transform="translate(0.000000,56.000000) scale(0.100000,-0.100000)"
fill="#000000" stroke="none">
<path d="M234 560 c-33 -1 -43 -7 -67 -37 -27 -37 -27 -37 -2 -63 24 -25 24
-27 13 -93 -10 -58 -9 -73 5 -103 9 -19 20 -34 24 -34 5 0 34 13 66 29 54 26
59 27 67 10 6 -10 10 -26 10 -37 0 -11 -8 -30 -17 -43 -10 -13 -29 -46 -42
-72 -14 -27 -37 -63 -53 -79 -15 -17 -28 -32 -28 -34 0 -2 12 -4 27 -4 20 0
42 15 83 58 43 44 60 71 75 117 10 33 18 71 17 83 -1 13 -12 36 -24 52 -13 15
-34 30 -47 33 -14 3 -40 -2 -58 -11 -18 -8 -35 -14 -37 -11 -2 2 -8 31 -11 65
-6 48 -4 64 9 76 8 9 21 18 28 21 10 3 11 9 1 25 -7 12 -10 28 -7 37 5 12 -2
15 -32 15z"/>
</g>
</svg>
