<?xml version="1.0" standalone="no"?>
<!DOCTYPE svg PUBLIC "-//W3C//DTD SVG 20010904//EN"
 "http://www.w3.org/TR/2001/REC-SVG-20010904/DTD/svg10.dtd">
<svg version="1.0" xmlns="http://www.w3.org/2000/svg"
 width="56.000000pt" height="56.000000pt" viewBox="0 0 56.000000 56.000000"
 preserveAspectRatio="xMidYMid meet">
<metadata>
Created by potrace 1.16, written by Peter Selinger 2001-2019
</metadata>
<g transform="translate(0.000000,56.000000) scale(0.100000,-0.100000)"
fill="#000000" stroke="none">
<path d="M160 560 c-31 0 -39 -6 -63 -42 -15 -23 -27 -52 -27 -65 0 -15 9 -27
25 -35 14 -6 26 -16 26 -22 1 -6 2 -48 3 -93 1 -71 4 -85 25 -107 14 -14 34
-26 46 -26 11 0 50 25 85 55 48 41 73 55 96 55 17 0 37 -7 45 -16 10 -12 10
-24 1 -61 -7 -24 -30 -70 -51 -102 -21 -31 -46 -63 -55 -70 -9 -7 -16 -17 -16
-22 0 -5 9 -9 20 -9 11 0 41 15 67 34 39 28 53 46 72 96 17 44 22 74 18 103
-3 22 -14 52 -25 66 -10 14 -32 30 -48 34 -24 7 -43 2 -102 -28 -40 -20 -81
-35 -90 -33 -11 2 -18 15 -20 38 -2 19 -1 54 3 78 3 24 12 45 18 47 7 2 24 6
40 9 17 4 27 13 27 24 0 10 -14 28 -30 41 -31 22 -31 22 -61 -3 -17 -14 -34
-26 -39 -26 -5 0 -12 5 -16 11 -3 6 9 24 27 39 34 29 34 29 -1 30z"/>
</g>
</svg>
