<?xml version="1.0" standalone="no"?>
<!DOCTYPE svg PUBLIC "-//W3C//DTD SVG 20010904//EN"
 "http://www.w3.org/TR/2001/REC-SVG-20010904/DTD/svg10.dtd">
<svg version="1.0" xmlns="http://www.w3.org/2000/svg"
 width="56.000000pt" height="56.000000pt" viewBox="0 0 56.000000 56.000000"
 preserveAspectRatio="xMidYMid meet">
<metadata>
Created by potrace 1.16, written by Peter Selinger 2001-2019
</metadata>
<g transform="translate(0.000000,56.000000) scale(0.100000,-0.100000)"
fill="#000000" stroke="none">
<path d="M196 560 c-8 0 -17 -11 -20 -25 -4 -15 -11 -23 -17 -19 -6 4 -15 0
-20 -7 -5 -8 -26 -14 -51 -14 -40 0 -43 -2 -40 -25 2 -14 10 -35 18 -47 10
-16 24 -23 47 -23 17 0 38 -4 46 -9 9 -6 12 -18 7 -37 -4 -16 -11 -56 -15 -89
-4 -33 -11 -70 -15 -81 -3 -12 -2 -33 3 -48 6 -14 18 -26 28 -26 9 0 49 33 87
73 39 40 86 81 103 89 18 9 35 12 38 8 3 -5 5 -34 4 -64 -2 -48 -7 -62 -37
-97 -19 -22 -52 -52 -73 -65 -22 -13 -39 -31 -39 -39 0 -10 11 -15 34 -15 18
0 45 6 58 13 13 6 45 30 69 52 25 22 55 56 66 75 11 19 21 54 22 78 2 29 -4
53 -19 77 -12 20 -38 42 -57 50 -20 8 -46 12 -60 9 -14 -4 -48 -27 -75 -51
-27 -24 -55 -42 -61 -40 -7 2 -11 13 -10 23 1 10 8 44 15 76 7 31 21 65 31 75
9 11 17 29 17 40 0 12 -14 30 -35 44 -19 13 -35 27 -35 32 0 4 -6 7 -14 7z"/>
</g>
</svg>
