<?xml version="1.0" standalone="no"?>
<!DOCTYPE svg PUBLIC "-//W3C//DTD SVG 20010904//EN"
 "http://www.w3.org/TR/2001/REC-SVG-20010904/DTD/svg10.dtd">
<svg version="1.0" xmlns="http://www.w3.org/2000/svg"
 width="56.000000pt" height="56.000000pt" viewBox="0 0 56.000000 56.000000"
 preserveAspectRatio="xMidYMid meet">
<metadata>
Created by potrace 1.16, written by Peter Selinger 2001-2019
</metadata>
<g transform="translate(0.000000,56.000000) scale(0.100000,-0.100000)"
fill="#000000" stroke="none">
<path d="M195 560 c-14 0 -25 -4 -25 -10 0 -5 -18 -22 -40 -36 -22 -15 -40
-34 -40 -43 0 -9 -5 -22 -10 -27 -7 -7 -6 -20 5 -40 8 -16 15 -50 15 -75 0
-29 -6 -51 -15 -59 -8 -7 -15 -27 -15 -46 0 -18 5 -36 10 -39 5 -3 10 -19 10
-35 0 -16 4 -31 9 -35 5 -3 17 5 25 17 9 12 16 29 16 37 0 8 19 32 43 54 23
21 58 51 77 65 19 15 37 29 40 32 3 3 15 11 27 18 13 6 38 12 57 12 25 0 38
-6 50 -25 9 -13 16 -37 16 -53 0 -16 -5 -44 -11 -63 -6 -19 -20 -54 -32 -79
-12 -25 -28 -51 -35 -58 -6 -8 -17 -22 -22 -32 -8 -15 -6 -17 9 -13 11 3 32
19 48 37 15 17 38 49 49 71 12 22 27 63 32 91 8 38 8 59 -2 87 -7 21 -21 44
-32 52 -10 8 -40 15 -66 15 -29 0 -61 -8 -87 -22 -23 -12 -50 -30 -61 -40 -10
-10 -35 -27 -56 -38 -20 -12 -39 -19 -41 -16 -3 3 -5 48 -5 102 1 97 1 97 41
138 23 23 41 45 41 49 0 4 -11 7 -25 7z"/>
</g>
</svg>
