<?xml version="1.0" standalone="no"?>
<!DOCTYPE svg PUBLIC "-//W3C//DTD SVG 20010904//EN"
 "http://www.w3.org/TR/2001/REC-SVG-20010904/DTD/svg10.dtd">
<svg version="1.0" xmlns="http://www.w3.org/2000/svg"
 width="56.000000pt" height="56.000000pt" viewBox="0 0 56.000000 56.000000"
 preserveAspectRatio="xMidYMid meet">
<metadata>
Created by potrace 1.16, written by Peter Selinger 2001-2019
</metadata>
<g transform="translate(0.000000,56.000000) scale(0.100000,-0.100000)"
fill="#000000" stroke="none">
<path d="M286 560 c-13 0 -27 -7 -30 -15 -4 -10 -16 -15 -33 -13 -25 3 -28 -1
-31 -30 -2 -23 -18 -48 -52 -85 -28 -29 -50 -57 -50 -63 0 -7 11 -19 25 -28
14 -10 34 -14 45 -11 10 3 20 2 23 -2 2 -4 0 -44 -5 -88 -8 -72 -7 -81 11 -99
18 -17 24 -18 61 -7 22 6 40 15 40 19 0 4 16 16 36 27 27 14 40 16 52 8 9 -5
21 -22 26 -36 7 -19 6 -34 -4 -52 -8 -15 -32 -39 -54 -56 -38 -28 -39 -29 -14
-29 14 0 31 6 38 14 6 8 23 16 37 18 14 2 35 15 46 30 17 23 19 34 11 78 -8
49 -11 53 -49 66 -22 7 -52 14 -66 14 -15 0 -43 -7 -64 -16 -23 -9 -41 -12
-47 -6 -5 5 -6 39 -1 83 7 62 11 74 28 77 11 2 30 13 43 25 12 11 22 26 22 34
0 7 -6 14 -12 14 -7 1 -19 1 -26 0 -8 -1 -20 3 -28 10 -8 6 -14 19 -14 28 0 9
14 28 30 43 17 14 30 31 30 37 0 6 -11 11 -24 11z"/>
</g>
</svg>
