<?xml version="1.0" standalone="no"?>
<!DOCTYPE svg PUBLIC "-//W3C//DTD SVG 20010904//EN"
 "http://www.w3.org/TR/2001/REC-SVG-20010904/DTD/svg10.dtd">
<svg version="1.0" xmlns="http://www.w3.org/2000/svg"
 width="128.000000pt" height="128.000000pt" viewBox="0 0 128.000000 128.000000"
 preserveAspectRatio="xMidYMid meet">
<metadata>
Created by potrace 1.16, written by Peter Selinger 2001-2019
</metadata>
<g transform="translate(0.000000,128.000000) scale(0.100000,-0.100000)"
fill="#000000" stroke="none">
<path d="M560 1280 c-4 0 -10 -9 -13 -20 -3 -13 4 -32 21 -53 15 -17 33 -36
41 -41 7 -5 31 -24 52 -43 28 -25 45 -34 66 -31 25 3 28 7 28 38 0 30 -5 37
-35 52 -19 9 -48 22 -64 30 -16 7 -42 25 -59 41 -16 15 -33 27 -37 27z"/>
<path d="M474 1060 c-7 0 -16 -4 -19 -10 -3 -5 0 -19 9 -31 8 -11 24 -27 35
-35 12 -9 21 -21 21 -29 0 -8 -10 -20 -22 -26 -13 -7 -54 -32 -93 -57 -38 -25
-87 -56 -107 -70 -20 -13 -44 -35 -53 -49 -14 -21 -15 -30 -4 -56 7 -18 19
-40 27 -49 8 -10 27 -18 41 -18 14 0 44 7 66 14 22 8 86 37 143 66 56 28 116
53 132 57 20 4 30 2 30 -7 0 -6 -16 -41 -36 -76 -26 -47 -43 -66 -62 -70 -15
-4 -52 -18 -82 -32 -30 -13 -71 -35 -90 -48 -22 -15 -49 -48 -68 -84 -27 -50
-32 -69 -32 -129 0 -59 4 -75 21 -92 15 -15 28 -19 47 -14 15 3 36 18 47 33
11 15 32 38 48 53 15 14 27 30 27 34 0 5 11 22 23 39 13 17 36 54 52 81 16 28
40 62 54 78 13 15 34 27 46 27 12 0 33 -12 47 -27 14 -16 33 -48 42 -72 9 -24
17 -62 18 -85 0 -23 -3 -58 -6 -77 -4 -18 -12 -47 -18 -64 -6 -16 -29 -58 -52
-92 -22 -35 -47 -63 -54 -63 -7 0 -22 -6 -34 -12 -12 -7 -31 -21 -42 -30 -16
-15 -17 -18 -4 -23 9 -3 32 3 52 14 20 12 42 21 49 21 7 0 26 11 42 25 17 13
38 32 49 42 10 10 35 43 54 73 35 53 36 58 33 138 -1 46 -9 100 -17 120 -8 20
-20 48 -26 62 -7 14 -26 40 -43 58 -16 19 -40 38 -52 43 -13 5 -23 16 -23 24
0 9 7 29 14 44 8 15 32 42 53 60 21 18 53 46 71 64 17 17 32 36 32 43 0 6 -7
17 -15 24 -9 7 -29 13 -44 12 -16 0 -46 -9 -68 -19 -21 -11 -47 -24 -58 -31
-11 -6 -74 -33 -140 -61 -66 -27 -141 -52 -167 -56 -36 -5 -48 -3 -48 7 0 7
46 43 103 80 56 38 118 79 137 93 19 15 39 35 44 45 6 12 4 30 -4 50 -7 16
-17 30 -22 30 -5 0 -28 9 -50 20 -23 11 -47 20 -54 20z m52 -540 c8 0 14 -2
14 -5 0 -2 -8 -19 -19 -37 -10 -18 -34 -60 -52 -92 -19 -32 -46 -68 -62 -79
-21 -16 -30 -18 -39 -9 -9 9 -8 22 3 54 7 23 27 61 44 83 17 22 46 50 64 62
19 13 40 23 47 23z"/>
<path d="M868 1060 c-7 -1 -25 -8 -40 -16 -16 -8 -28 -16 -28 -18 0 -2 24 -18
54 -35 49 -27 56 -36 75 -88 12 -32 25 -64 29 -72 5 -8 16 -19 25 -25 12 -8
22 -8 34 0 10 6 19 23 21 38 2 14 -8 52 -23 83 -14 32 -34 66 -43 76 -9 11
-34 28 -54 38 -21 10 -43 19 -50 19z"/>
<path d="M520 20 c-11 0 -20 -4 -20 -10 0 -5 9 -10 20 -10 11 0 20 5 20 10 0
6 -9 10 -20 10z"/>
</g>
</svg>
