<?xml version="1.0" standalone="no"?>
<!DOCTYPE svg PUBLIC "-//W3C//DTD SVG 20010904//EN"
 "http://www.w3.org/TR/2001/REC-SVG-20010904/DTD/svg10.dtd">
<svg version="1.0" xmlns="http://www.w3.org/2000/svg"
 width="128.000000pt" height="128.000000pt" viewBox="0 0 128.000000 128.000000"
 preserveAspectRatio="xMidYMid meet">
<metadata>
Created by potrace 1.16, written by Peter Selinger 2001-2019
</metadata>
<g transform="translate(0.000000,128.000000) scale(0.100000,-0.100000)"
fill="#000000" stroke="none">
<path d="M581 1280 c-12 0 -23 -6 -25 -12 -2 -7 -14 -47 -26 -88 -13 -41 -30
-94 -38 -117 -8 -23 -22 -44 -31 -47 -9 -2 -32 -7 -51 -11 -19 -4 -68 -23
-107 -42 -40 -20 -73 -42 -73 -49 0 -8 16 -22 35 -31 34 -16 37 -16 66 1 16
10 37 15 45 12 7 -3 14 -17 14 -32 0 -15 -20 -68 -44 -118 -24 -50 -47 -102
-51 -115 -4 -13 -27 -66 -51 -118 -24 -52 -44 -97 -44 -101 0 -3 -18 -42 -40
-87 -22 -44 -48 -90 -56 -102 -15 -21 -15 -23 1 -29 13 -5 33 10 79 58 55 59
67 80 119 209 31 80 57 152 57 161 0 9 4 19 9 22 5 3 14 27 20 53 7 27 24 67
37 91 14 23 35 69 47 102 13 33 37 80 55 105 24 34 38 45 58 45 15 0 48 12 73
26 25 15 54 34 63 42 15 12 20 12 33 2 11 -9 14 -22 10 -44 -4 -17 -14 -42
-23 -56 -10 -14 -23 -42 -31 -63 -7 -22 -10 -53 -7 -73 5 -23 20 -45 51 -71
25 -20 41 -41 37 -47 -4 -6 -7 -51 -8 -101 0 -53 -8 -115 -18 -150 -10 -33
-27 -70 -39 -82 -11 -13 -28 -23 -38 -23 -10 0 -37 26 -61 57 -38 51 -49 58
-82 61 -21 2 -43 -1 -47 -5 -5 -5 -2 -17 8 -29 10 -10 30 -38 46 -62 15 -23
31 -42 36 -42 5 0 19 -21 32 -47 23 -47 23 -47 -15 -79 -21 -18 -61 -40 -89
-48 -29 -9 -77 -20 -107 -25 -30 -5 -67 -14 -82 -20 -16 -6 -28 -17 -28 -24 0
-8 8 -21 18 -30 10 -10 35 -17 55 -17 20 0 67 10 104 22 38 12 81 32 96 45 16
13 35 23 43 23 8 0 33 9 55 19 22 11 46 18 52 15 7 -3 37 -37 67 -75 30 -39
66 -80 79 -90 20 -16 34 -19 80 -13 31 3 74 1 96 -4 22 -6 68 -14 103 -18 41
-4 62 -3 62 4 0 6 -38 29 -84 51 -46 23 -88 41 -94 41 -5 0 -34 16 -63 35 -30
19 -71 46 -91 60 -21 15 -49 46 -64 70 -24 41 -24 45 -9 68 9 14 20 37 25 53
4 16 20 67 35 114 15 47 29 99 32 115 2 17 5 46 6 66 1 28 -8 50 -38 94 -22
32 -47 70 -55 84 -8 14 -14 44 -14 66 1 22 11 67 22 99 13 34 19 68 16 80 -4
12 -18 36 -32 54 -13 17 -30 32 -36 32 -6 0 -27 -13 -46 -30 -19 -16 -40 -29
-47 -30 -7 0 -28 -13 -46 -30 -19 -16 -38 -30 -42 -30 -4 0 -5 30 -1 68 3 37
9 82 12 100 6 28 4 32 -15 32z"/>
</g>
</svg>
