<?xml version="1.0" standalone="no"?>
<!DOCTYPE svg PUBLIC "-//W3C//DTD SVG 20010904//EN"
 "http://www.w3.org/TR/2001/REC-SVG-20010904/DTD/svg10.dtd">
<svg version="1.0" xmlns="http://www.w3.org/2000/svg"
 width="128.000000pt" height="128.000000pt" viewBox="0 0 128.000000 128.000000"
 preserveAspectRatio="xMidYMid meet">
<metadata>
Created by potrace 1.16, written by Peter Selinger 2001-2019
</metadata>
<g transform="translate(0.000000,128.000000) scale(0.100000,-0.100000)"
fill="#000000" stroke="none">
<path d="M889 1192 c-41 3 -90 4 -109 1 -19 -2 -47 -9 -62 -15 -16 -6 -28 -18
-28 -28 0 -9 8 -24 18 -33 11 -10 38 -17 71 -18 40 -2 55 -7 67 -23 8 -11 14
-28 14 -36 0 -9 -12 -28 -27 -42 -16 -14 -50 -38 -76 -53 -27 -15 -51 -34 -54
-42 -3 -7 -18 -20 -34 -29 -19 -9 -40 -37 -61 -77 -27 -54 -31 -72 -31 -137 1
-41 1 -91 2 -110 0 -19 -3 -38 -8 -43 -5 -5 -37 -3 -72 3 -35 6 -74 16 -87 22
-16 9 -35 8 -73 0 -28 -7 -67 -12 -88 -12 -24 0 -49 -9 -71 -25 -19 -14 -39
-25 -45 -25 -6 0 -26 -19 -45 -41 -19 -23 -40 -53 -46 -67 -8 -18 -8 -34 0
-61 7 -20 22 -53 35 -73 23 -38 23 -38 107 -37 63 1 89 5 106 18 13 10 39 25
60 34 20 9 43 17 51 17 9 0 29 12 46 26 17 14 46 30 65 35 24 7 39 19 50 44
17 35 17 35 50 12 18 -12 69 -50 112 -85 43 -35 86 -69 94 -75 9 -7 32 -25 53
-40 20 -15 60 -39 89 -52 29 -14 70 -25 91 -25 21 0 54 -7 74 -15 19 -8 55
-15 78 -15 24 0 50 3 59 6 11 4 16 19 16 44 0 27 -5 39 -17 43 -10 3 -44 15
-77 27 -46 18 -62 20 -80 11 -16 -9 -35 -7 -87 8 -36 10 -80 26 -98 35 -18 10
-60 38 -94 64 -33 25 -67 47 -74 48 -8 1 -36 19 -63 40 -28 21 -50 46 -50 55
0 9 7 22 14 29 8 6 20 27 26 45 10 30 8 40 -15 81 -19 34 -25 57 -21 78 3 17
8 46 12 65 4 19 17 45 30 58 13 13 27 23 32 23 5 0 19 12 33 26 15 16 31 23
42 20 11 -2 43 6 72 19 29 14 74 30 101 36 27 6 61 16 77 22 15 5 39 23 52 39
14 16 25 40 25 52 0 13 -9 35 -21 50 -11 14 -25 26 -31 26 -6 0 -32 15 -57 34
-41 29 -57 34 -122 38z m-552 -728 c21 -2 65 -10 98 -17 39 -8 61 -18 63 -28
2 -9 -5 -22 -14 -30 -9 -7 -40 -26 -68 -41 -28 -15 -73 -39 -101 -52 -27 -14
-66 -28 -85 -32 -19 -4 -46 -6 -60 -5 -13 1 -31 8 -39 16 -12 12 -12 20 4 61
10 27 34 63 54 81 25 23 46 33 68 33 17 0 34 4 37 9 3 4 22 7 43 5z"/>
<path d="M303 962 c-10 3 -24 3 -31 0 -9 -3 -11 -15 -6 -40 4 -21 10 -42 14
-47 5 -6 3 -20 -3 -31 -7 -12 -36 -41 -66 -65 -29 -24 -61 -48 -70 -54 -8 -5
-41 -27 -72 -47 -31 -20 -59 -45 -63 -54 -3 -9 -1 -23 6 -31 7 -9 21 -12 37
-8 14 4 40 19 56 34 17 15 53 38 80 50 28 13 61 33 75 46 14 12 43 25 65 28
25 4 50 17 69 36 22 22 30 40 30 66 0 25 -8 43 -29 65 -16 16 -37 30 -46 30
-10 0 -20 4 -23 9 -3 5 -14 11 -23 13z"/>
<path d="M1138 898 c-9 2 -19 -1 -22 -7 -3 -5 -3 -17 0 -26 4 -9 14 -15 23
-13 9 2 16 12 16 23 0 11 -7 21 -17 23z"/>
</g>
</svg>
