<?xml version="1.0" standalone="no"?>
<!DOCTYPE svg PUBLIC "-//W3C//DTD SVG 20010904//EN"
 "http://www.w3.org/TR/2001/REC-SVG-20010904/DTD/svg10.dtd">
<svg version="1.0" xmlns="http://www.w3.org/2000/svg"
 width="56.000000pt" height="56.000000pt" viewBox="0 0 56.000000 56.000000"
 preserveAspectRatio="xMidYMid meet">
<metadata>
Created by potrace 1.16, written by Peter Selinger 2001-2019
</metadata>
<g transform="translate(0.000000,56.000000) scale(0.100000,-0.100000)"
fill="#000000" stroke="none">
<path d="M335 560 c-8 0 -15 -4 -15 -10 0 -5 -6 -10 -14 -10 -8 0 -18 -5 -21
-10 -4 -6 13 -19 37 -30 24 -11 53 -28 65 -37 21 -18 21 -18 -23 -88 -24 -38
-56 -95 -70 -125 -21 -44 -25 -65 -21 -105 3 -31 16 -69 34 -98 26 -43 31 -46
71 -47 38 0 42 2 42 25 0 13 -18 54 -40 91 -28 45 -38 70 -31 78 5 6 18 36 29
66 11 30 23 67 26 83 4 15 12 27 18 27 7 0 29 12 50 26 27 19 38 34 38 51 0
15 -13 37 -31 54 -21 20 -45 30 -80 35 -27 4 -49 10 -49 15 0 5 -7 9 -15 9z"/>
<path d="M183 538 c-10 2 -22 0 -26 -4 -4 -4 -7 -18 -7 -30 0 -13 5 -26 10
-29 6 -3 17 -20 26 -36 13 -25 13 -33 2 -46 -7 -9 -30 -27 -51 -40 -21 -13
-54 -49 -73 -79 -20 -30 -38 -70 -41 -88 -3 -18 0 -43 7 -56 10 -19 18 -22 53
-17 27 4 48 14 60 29 9 13 26 34 37 46 11 13 20 29 20 36 0 7 6 26 14 42 8 16
17 61 20 99 6 56 3 80 -13 120 -12 33 -25 51 -38 53z"/>
</g>
</svg>
