<?xml version="1.0" standalone="no"?>
<!DOCTYPE svg PUBLIC "-//W3C//DTD SVG 20010904//EN"
 "http://www.w3.org/TR/2001/REC-SVG-20010904/DTD/svg10.dtd">
<svg version="1.0" xmlns="http://www.w3.org/2000/svg"
 width="56.000000pt" height="56.000000pt" viewBox="0 0 56.000000 56.000000"
 preserveAspectRatio="xMidYMid meet">
<metadata>
Created by potrace 1.16, written by Peter Selinger 2001-2019
</metadata>
<g transform="translate(0.000000,56.000000) scale(0.100000,-0.100000)"
fill="#000000" stroke="none">
<path d="M111 560 c-24 0 -31 -6 -46 -45 -12 -32 -15 -57 -10 -88 4 -23 11
-47 17 -54 6 -7 5 -14 -2 -18 -5 -3 -10 -18 -10 -32 0 -14 11 -51 24 -82 13
-31 29 -71 36 -88 7 -18 17 -33 23 -33 5 0 16 8 23 18 7 9 14 27 14 39 0 12
-7 49 -16 83 -15 61 -15 61 15 107 17 26 31 53 31 62 0 11 -3 12 -11 4 -6 -6
-18 -9 -26 -6 -7 3 -22 -2 -33 -12 -18 -16 -18 -15 -15 40 2 31 6 59 9 63 3 3
6 14 6 24 0 13 -8 18 -29 18z"/>
<path d="M373 538 c-21 3 -23 0 -23 -46 0 -49 0 -49 -47 -41 -29 6 -51 5 -57
-1 -6 -6 1 -13 20 -20 16 -6 41 -16 57 -23 15 -7 27 -16 28 -22 1 -5 0 -26 -1
-45 -1 -19 -10 -46 -19 -60 -10 -14 -23 -55 -30 -93 -6 -37 -17 -78 -23 -92
-10 -23 -12 -23 -24 -7 -11 15 -14 14 -24 -13 -6 -16 -21 -40 -32 -53 -21 -22
-21 -22 4 -22 14 0 42 7 62 15 20 9 41 26 45 38 5 13 21 38 36 55 17 20 35 62
47 109 11 42 17 87 13 100 -3 13 -1 32 5 42 6 12 26 22 50 26 30 5 40 11 38
23 -2 8 -18 20 -35 26 -18 6 -39 20 -47 31 -8 11 -16 32 -18 45 -2 17 -10 26
-25 28z"/>
</g>
</svg>
