<?xml version="1.0" standalone="no"?>
<!DOCTYPE svg PUBLIC "-//W3C//DTD SVG 20010904//EN"
 "http://www.w3.org/TR/2001/REC-SVG-20010904/DTD/svg10.dtd">
<svg version="1.0" xmlns="http://www.w3.org/2000/svg"
 width="56.000000pt" height="56.000000pt" viewBox="0 0 56.000000 56.000000"
 preserveAspectRatio="xMidYMid meet">
<metadata>
Created by potrace 1.16, written by Peter Selinger 2001-2019
</metadata>
<g transform="translate(0.000000,56.000000) scale(0.100000,-0.100000)"
fill="#000000" stroke="none">
<path d="M137 560 c-2 0 -8 -5 -15 -12 -7 -7 -12 -17 -12 -23 0 -7 11 -18 25
-25 21 -11 24 -20 23 -57 -2 -27 -9 -50 -20 -60 -13 -12 -15 -19 -7 -29 8 -10
7 -21 -2 -43 -8 -17 -24 -33 -37 -36 -15 -4 -22 -12 -20 -23 2 -10 14 -18 30
-20 15 -2 40 4 56 12 28 14 31 14 51 -8 11 -12 21 -26 21 -32 0 -5 -16 -29
-35 -53 -25 -32 -34 -50 -29 -65 4 -12 11 -26 16 -33 5 -7 29 -21 52 -32 23
-12 54 -21 67 -21 14 0 34 6 45 14 15 12 17 17 6 28 -7 7 -38 18 -70 23 -49 9
-57 14 -60 34 -2 13 2 35 9 47 7 13 17 24 22 24 5 0 22 -9 38 -21 24 -17 33
-18 44 -9 8 7 22 39 32 71 13 44 22 59 36 59 10 0 31 7 47 15 18 9 30 24 30
35 0 13 -7 20 -19 20 -11 0 -40 -13 -64 -30 -25 -16 -49 -30 -54 -30 -6 0 -23
-12 -38 -26 -29 -27 -29 -27 -47 -4 -10 12 -18 26 -18 30 0 4 14 13 30 20 17
7 30 19 30 26 0 8 -9 14 -21 14 -11 0 -27 -7 -36 -15 -8 -8 -19 -13 -24 -10
-5 4 -9 12 -9 19 0 7 9 21 20 31 11 10 20 25 20 33 0 10 -7 12 -25 8 -20 -5
-26 -2 -31 19 -3 14 -4 39 -2 55 4 23 -2 35 -24 55 -15 14 -29 25 -31 25z m31
-250 c1 0 2 -7 2 -15 0 -9 -9 -15 -22 -15 -21 0 -21 0 -2 15 10 8 20 15 22 15z
m158 -80 c2 0 4 -7 4 -15 0 -8 -7 -15 -16 -15 -14 0 -14 3 -4 15 7 8 14 15 16
15z"/>
<path d="M330 560 c-29 0 -40 -4 -37 -12 2 -7 19 -13 37 -13 18 0 35 6 38 13
2 8 -9 12 -38 12z"/>
</g>
</svg>
