<?xml version="1.0" standalone="no"?>
<!DOCTYPE svg PUBLIC "-//W3C//DTD SVG 20010904//EN"
 "http://www.w3.org/TR/2001/REC-SVG-20010904/DTD/svg10.dtd">
<svg version="1.0" xmlns="http://www.w3.org/2000/svg"
 width="56.000000pt" height="56.000000pt" viewBox="0 0 56.000000 56.000000"
 preserveAspectRatio="xMidYMid meet">
<metadata>
Created by potrace 1.16, written by Peter Selinger 2001-2019
</metadata>
<g transform="translate(0.000000,56.000000) scale(0.100000,-0.100000)"
fill="#000000" stroke="none">
<path d="M234 560 c-79 0 -79 0 -111 -59 -22 -39 -38 -88 -48 -146 -8 -48 -15
-126 -14 -174 1 -47 4 -97 8 -111 4 -15 15 -26 28 -28 17 -3 26 8 46 50 15 31
28 81 31 120 4 40 16 85 29 110 21 41 24 43 62 40 22 -2 44 -8 49 -12 5 -6 5
-71 -1 -162 -6 -84 -14 -161 -18 -170 -6 -15 -2 -18 28 -18 32 0 35 3 42 38 4
20 9 95 12 167 3 94 8 134 19 146 8 9 32 21 55 28 22 7 43 19 46 28 3 9 2 23
-4 31 -5 9 -29 22 -53 30 -43 15 -44 14 -67 -12 -13 -15 -23 -33 -23 -40 0 -8
-7 -17 -16 -20 -8 -3 -31 1 -51 9 -19 8 -44 15 -53 15 -10 0 -28 -12 -39 -26
-11 -14 -24 -40 -30 -57 -5 -18 -15 -52 -21 -76 -8 -31 -15 -40 -22 -33 -8 8
-8 30 0 79 6 37 15 86 20 108 5 22 19 57 31 78 21 34 26 37 71 37 30 0 52 5
60 15 11 13 3 15 -66 15z"/>
</g>
</svg>
