<?xml version="1.0" standalone="no"?>
<!DOCTYPE svg PUBLIC "-//W3C//DTD SVG 20010904//EN"
 "http://www.w3.org/TR/2001/REC-SVG-20010904/DTD/svg10.dtd">
<svg version="1.0" xmlns="http://www.w3.org/2000/svg"
 width="56.000000pt" height="56.000000pt" viewBox="0 0 56.000000 56.000000"
 preserveAspectRatio="xMidYMid meet">
<metadata>
Created by potrace 1.16, written by Peter Selinger 2001-2019
</metadata>
<g transform="translate(0.000000,56.000000) scale(0.100000,-0.100000)"
fill="#000000" stroke="none">
<path d="M178 560 c-18 0 -28 -12 -47 -53 -13 -28 -29 -62 -34 -75 -6 -13 -11
-61 -11 -108 0 -68 4 -89 20 -111 11 -15 32 -36 47 -47 21 -16 30 -17 39 -8
10 10 9 19 -2 45 -8 17 -14 57 -14 89 -1 31 -4 59 -8 63 -3 3 -9 -7 -13 -24
-4 -18 -11 -28 -17 -25 -7 4 -8 29 -4 66 4 38 17 79 36 114 16 31 30 59 30 65
0 5 -10 9 -22 9z"/>
<path d="M367 500 c-8 0 -20 -7 -27 -15 -10 -12 -10 -19 -2 -27 7 -7 12 -22
12 -35 0 -21 -5 -22 -75 -25 -41 -2 -76 -7 -78 -13 -1 -5 15 -12 36 -16 20 -3
40 -9 43 -12 4 -4 15 -2 25 3 9 6 25 7 33 4 10 -4 16 -18 16 -40 0 -18 -4 -43
-9 -56 -5 -13 -19 -50 -32 -83 -12 -33 -42 -88 -65 -122 -36 -53 -40 -63 -25
-63 11 0 32 12 48 28 16 15 38 45 49 67 11 22 30 60 41 85 12 25 26 66 32 92
6 26 11 58 11 71 0 19 7 26 30 30 18 4 30 13 30 22 0 9 -11 20 -25 25 -14 5
-31 25 -39 45 -8 19 -21 35 -29 35z"/>
</g>
</svg>
