<?xml version="1.0" standalone="no"?>
<!DOCTYPE svg PUBLIC "-//W3C//DTD SVG 20010904//EN"
 "http://www.w3.org/TR/2001/REC-SVG-20010904/DTD/svg10.dtd">
<svg version="1.0" xmlns="http://www.w3.org/2000/svg"
 width="56.000000pt" height="56.000000pt" viewBox="0 0 56.000000 56.000000"
 preserveAspectRatio="xMidYMid meet">
<metadata>
Created by potrace 1.16, written by Peter Selinger 2001-2019
</metadata>
<g transform="translate(0.000000,56.000000) scale(0.100000,-0.100000)"
fill="#000000" stroke="none">
<path d="M212 560 c-14 0 -26 -14 -41 -45 -12 -25 -21 -56 -21 -69 0 -14 -4
-27 -9 -30 -5 -3 -12 -27 -17 -53 -4 -27 -7 -55 -6 -63 2 -8 3 -32 2 -53 0
-21 7 -53 16 -70 9 -18 23 -40 32 -49 8 -10 23 -18 34 -18 14 0 18 8 19 43 0
23 6 76 13 117 12 75 12 75 49 81 22 3 41 1 46 -5 4 -6 7 -72 6 -146 -1 -74
-6 -150 -10 -169 -5 -26 -4 -32 6 -29 8 2 22 20 31 39 9 19 19 66 23 104 4 39
2 96 -3 127 -5 31 -6 61 -3 65 3 4 17 8 31 8 18 0 26 6 28 22 2 14 -7 29 -31
47 -19 14 -41 26 -50 26 -9 0 -17 -10 -19 -22 -2 -18 -13 -25 -49 -33 -25 -5
-54 -16 -63 -24 -9 -7 -16 -20 -16 -27 0 -8 -6 -32 -12 -54 -7 -22 -18 -42
-25 -45 -9 -3 -13 5 -14 23 -1 15 0 41 1 57 1 17 8 53 15 82 8 29 20 67 29 85
8 18 17 43 21 56 5 17 2 22 -13 22z"/>
<path d="M282 73 c-10 9 -22 14 -25 10 -4 -3 -7 -24 -7 -45 0 -35 2 -39 23
-36 15 2 23 11 25 29 2 15 -5 32 -16 42z"/>
</g>
</svg>
