<?xml version="1.0" standalone="no"?>
<!DOCTYPE svg PUBLIC "-//W3C//DTD SVG 20010904//EN"
 "http://www.w3.org/TR/2001/REC-SVG-20010904/DTD/svg10.dtd">
<svg version="1.0" xmlns="http://www.w3.org/2000/svg"
 width="56.000000pt" height="56.000000pt" viewBox="0 0 56.000000 56.000000"
 preserveAspectRatio="xMidYMid meet">
<metadata>
Created by potrace 1.16, written by Peter Selinger 2001-2019
</metadata>
<g transform="translate(0.000000,56.000000) scale(0.100000,-0.100000)"
fill="#000000" stroke="none">
<path d="M83 560 c-18 0 -33 -4 -33 -9 0 -6 4 -13 10 -16 6 -4 5 -13 -2 -25
-9 -15 -8 -27 6 -58 10 -22 15 -45 12 -51 -4 -6 -20 -11 -37 -11 -16 0 -29 -5
-29 -10 0 -6 11 -20 24 -31 19 -17 24 -30 23 -65 0 -24 3 -47 7 -51 4 -4 21
-1 39 6 18 7 40 15 49 18 11 3 20 -1 24 -12 4 -10 2 -26 -5 -37 -7 -11 -10
-32 -6 -48 3 -16 12 -34 19 -40 10 -7 22 -7 40 0 15 5 41 10 57 10 16 0 29 -3
29 -7 0 -3 -7 -15 -17 -25 -9 -10 -13 -21 -10 -24 3 -3 18 3 34 13 15 11 36
23 46 26 9 4 17 15 17 26 0 11 -12 29 -28 39 -17 13 -37 18 -54 15 -14 -3 -28
-1 -30 4 -3 4 -1 22 4 38 7 24 22 36 76 62 37 17 85 37 107 43 22 7 55 19 73
28 32 15 32 15 0 44 -17 15 -37 28 -44 28 -7 0 -16 -5 -19 -10 -4 -6 -41 -33
-83 -61 -42 -29 -91 -65 -109 -82 -21 -19 -37 -27 -49 -23 -13 5 -15 15 -11
45 4 33 1 43 -19 62 -13 12 -30 40 -38 63 -8 23 -20 60 -27 84 -11 38 -15 42
-46 42z m12 -97 c8 -2 18 -18 24 -35 11 -30 10 -31 -8 -14 -10 10 -21 26 -24
36 -3 12 0 17 8 13z m41 -113 c8 0 14 -5 14 -12 0 -6 -7 -20 -17 -30 -9 -10
-22 -18 -30 -18 -7 0 -13 6 -13 14 0 8 7 22 16 30 8 9 22 16 30 16z"/>
<path d="M436 49 c-6 -1 -18 -3 -26 -5 -9 -3 -21 -13 -27 -22 -10 -17 -6 -18
38 -19 27 0 52 4 56 10 3 5 -2 16 -12 24 -11 7 -24 12 -29 12z"/>
</g>
</svg>
