<?xml version="1.0" standalone="no"?>
<!DOCTYPE svg PUBLIC "-//W3C//DTD SVG 20010904//EN"
 "http://www.w3.org/TR/2001/REC-SVG-20010904/DTD/svg10.dtd">
<svg version="1.0" xmlns="http://www.w3.org/2000/svg"
 width="56.000000pt" height="56.000000pt" viewBox="0 0 56.000000 56.000000"
 preserveAspectRatio="xMidYMid meet">
<metadata>
Created by potrace 1.16, written by Peter Selinger 2001-2019
</metadata>
<g transform="translate(0.000000,56.000000) scale(0.100000,-0.100000)"
fill="#000000" stroke="none">
<path d="M228 560 c-12 -1 -27 -5 -33 -10 -5 -6 -32 -29 -58 -52 -39 -35 -53
-58 -78 -123 -16 -44 -32 -105 -35 -136 -5 -41 -2 -63 10 -87 9 -18 22 -32 30
-32 7 0 22 10 34 23 17 18 22 36 22 78 0 31 8 71 19 95 10 23 29 49 42 58 17
12 46 16 105 16 81 0 81 0 88 -38 3 -21 2 -63 -3 -94 -5 -30 -15 -74 -21 -97
-6 -23 -23 -55 -38 -70 -15 -15 -36 -31 -46 -35 -14 -5 -16 -10 -8 -18 6 -6
23 -11 39 -11 20 0 38 12 64 41 27 32 39 56 48 104 7 35 16 74 20 88 5 14 5
34 0 45 -4 11 -8 33 -8 48 -1 15 5 30 13 33 8 3 23 1 33 -5 11 -5 25 -6 33 -1
8 5 14 25 14 46 0 29 -6 42 -30 61 -16 13 -40 26 -53 30 -17 4 -28 1 -38 -12
-7 -11 -13 -28 -13 -39 0 -12 -4 -27 -8 -33 -6 -10 -17 -10 -46 -2 -29 8 -51
8 -85 -2 -25 -7 -55 -18 -66 -23 -11 -6 -29 -18 -41 -26 -11 -8 -28 -26 -37
-40 -13 -19 -17 -21 -17 -7 0 9 4 17 8 17 5 0 20 26 34 58 15 31 34 66 45 77
10 11 31 28 48 37 16 9 31 21 33 27 2 6 -7 11 -20 11z m203 -100 c5 0 13 -9
19 -20 9 -17 8 -20 -9 -20 -10 0 -21 6 -24 14 -3 8 -3 17 0 20 4 3 10 6 14 6z"/>
</g>
</svg>
