<?xml version="1.0" standalone="no"?>
<!DOCTYPE svg PUBLIC "-//W3C//DTD SVG 20010904//EN"
 "http://www.w3.org/TR/2001/REC-SVG-20010904/DTD/svg10.dtd">
<svg version="1.0" xmlns="http://www.w3.org/2000/svg"
 width="56.000000pt" height="56.000000pt" viewBox="0 0 56.000000 56.000000"
 preserveAspectRatio="xMidYMid meet">
<metadata>
Created by potrace 1.16, written by Peter Selinger 2001-2019
</metadata>
<g transform="translate(0.000000,56.000000) scale(0.100000,-0.100000)"
fill="#000000" stroke="none">
<path d="M192 560 c-10 0 -23 -10 -29 -22 -6 -13 -16 -48 -23 -78 -7 -30 -17
-62 -21 -70 -4 -8 -17 -40 -28 -70 -11 -30 -26 -75 -32 -100 -10 -37 -9 -60 5
-125 9 -44 21 -84 26 -89 7 -7 13 -7 20 0 5 5 12 42 15 82 4 53 12 82 30 109
13 21 32 46 42 56 12 13 33 17 80 17 57 0 64 -2 59 -17 -2 -10 -10 -45 -16
-78 -7 -32 -25 -84 -41 -115 -28 -55 -28 -55 3 -58 17 -2 36 2 43 10 7 7 22
38 34 68 11 30 24 80 27 110 3 30 8 58 10 61 2 4 24 4 49 2 34 -4 46 -2 51 10
3 8 -6 33 -21 55 -14 21 -37 45 -50 52 -19 10 -27 10 -39 1 -8 -7 -16 -25 -18
-39 -3 -27 -4 -27 -85 -27 -79 0 -83 -1 -115 -32 -19 -18 -37 -33 -41 -33 -4
0 -7 6 -7 13 0 8 13 40 29 73 16 33 36 81 45 107 9 26 16 66 16 87 0 32 -4 40
-18 40z m225 -242 c9 -2 18 -9 21 -15 2 -8 -5 -13 -17 -13 -12 0 -21 6 -21 16
0 9 7 14 17 12z"/>
</g>
</svg>
