<?xml version="1.0" standalone="no"?>
<!DOCTYPE svg PUBLIC "-//W3C//DTD SVG 20010904//EN"
 "http://www.w3.org/TR/2001/REC-SVG-20010904/DTD/svg10.dtd">
<svg version="1.0" xmlns="http://www.w3.org/2000/svg"
 width="56.000000pt" height="56.000000pt" viewBox="0 0 56.000000 56.000000"
 preserveAspectRatio="xMidYMid meet">
<metadata>
Created by potrace 1.16, written by Peter Selinger 2001-2019
</metadata>
<g transform="translate(0.000000,56.000000) scale(0.100000,-0.100000)"
fill="#000000" stroke="none">
<path d="M103 560 c-11 0 -13 -5 -7 -17 5 -10 10 -58 12 -107 2 -54 -1 -93 -7
-99 -6 -6 -11 -30 -11 -53 0 -24 5 -46 10 -49 6 -3 10 -13 10 -21 0 -8 16 -30
36 -50 20 -19 42 -33 49 -30 9 3 10 15 3 48 -5 24 -10 50 -10 58 -1 8 2 30 6
49 6 26 5 32 -5 29 -8 -3 -18 -19 -23 -37 -5 -17 -14 -30 -20 -28 -7 2 -10 28
-8 68 2 35 8 68 13 73 5 6 9 32 9 58 0 26 -3 48 -8 48 -4 0 -13 14 -20 30 -8
17 -21 30 -29 30z"/>
<path d="M365 540 c-9 0 -15 -21 -19 -67 -4 -38 -8 -114 -10 -170 -2 -57 -6
-127 -10 -155 -6 -45 -14 -60 -54 -100 -46 -48 -46 -48 -15 -48 19 0 43 10 62
26 17 14 31 35 31 45 0 11 7 34 16 50 8 17 15 43 14 57 -1 15 -2 62 -1 105 1
75 2 77 24 72 12 -3 28 -1 36 4 12 8 12 12 2 25 -8 9 -20 16 -27 16 -8 0 -16
10 -19 23 -4 12 -1 35 4 51 6 15 11 29 11 31 0 2 -7 11 -16 19 -8 9 -21 16
-29 16z"/>
<path d="M278 377 c-13 0 -31 -1 -40 -4 -10 -2 -18 -8 -18 -13 0 -4 19 -7 43
-6 23 0 41 6 40 11 -1 6 -13 11 -25 12z"/>
</g>
</svg>
