<?xml version="1.0" standalone="no"?>
<!DOCTYPE svg PUBLIC "-//W3C//DTD SVG 20010904//EN"
 "http://www.w3.org/TR/2001/REC-SVG-20010904/DTD/svg10.dtd">
<svg version="1.0" xmlns="http://www.w3.org/2000/svg"
 width="56.000000pt" height="56.000000pt" viewBox="0 0 56.000000 56.000000"
 preserveAspectRatio="xMidYMid meet">
<metadata>
Created by potrace 1.16, written by Peter Selinger 2001-2019
</metadata>
<g transform="translate(0.000000,56.000000) scale(0.100000,-0.100000)"
fill="#000000" stroke="none">
<path d="M140 560 c-25 0 -30 -4 -30 -24 0 -13 -9 -45 -20 -71 -12 -27 -20
-69 -20 -101 0 -36 7 -66 21 -91 12 -21 26 -44 31 -50 6 -7 17 -13 24 -13 11
0 13 12 8 54 -7 54 -7 54 50 80 31 14 67 26 79 26 14 0 32 -12 47 -32 22 -29
22 -34 10 -81 -7 -28 -22 -68 -34 -91 -11 -22 -40 -60 -63 -83 -31 -31 -50
-43 -72 -43 -16 0 -33 -5 -36 -10 -3 -6 -17 -10 -31 -10 -13 0 -24 -5 -24 -11
0 -8 19 -10 60 -6 47 4 70 12 106 39 26 18 67 58 91 89 44 56 44 58 48 144 2
48 6 90 10 93 3 3 15 1 25 -6 11 -7 28 -12 38 -12 10 0 21 3 24 6 3 3 4 13 1
23 -2 9 -14 23 -26 31 -12 8 -40 16 -62 19 -37 6 -42 10 -70 68 -19 40 -36 62
-47 62 -11 1 -20 -9 -24 -24 -4 -16 0 -30 11 -41 9 -10 21 -28 26 -41 5 -13 9
-31 9 -39 0 -8 -8 -14 -17 -14 -9 0 -33 -5 -52 -11 -20 -6 -55 -20 -79 -31
-23 -12 -45 -18 -48 -15 -3 3 0 25 6 49 7 23 17 54 22 68 6 14 17 37 24 52 8
14 14 31 14 37 0 6 -13 11 -30 11z"/>
</g>
</svg>
