<?xml version="1.0" standalone="no"?>
<!DOCTYPE svg PUBLIC "-//W3C//DTD SVG 20010904//EN"
 "http://www.w3.org/TR/2001/REC-SVG-20010904/DTD/svg10.dtd">
<svg version="1.0" xmlns="http://www.w3.org/2000/svg"
 width="56.000000pt" height="56.000000pt" viewBox="0 0 56.000000 56.000000"
 preserveAspectRatio="xMidYMid meet">
<metadata>
Created by potrace 1.16, written by Peter Selinger 2001-2019
</metadata>
<g transform="translate(0.000000,56.000000) scale(0.100000,-0.100000)"
fill="#000000" stroke="none">
<path d="M268 560 c-29 -1 -36 -6 -56 -47 -13 -25 -28 -71 -33 -102 -6 -31
-11 -83 -12 -116 -2 -33 -9 -88 -17 -123 -13 -60 -13 -66 5 -100 13 -24 27
-37 40 -37 18 0 20 8 23 85 1 46 7 89 12 94 6 6 10 22 10 36 0 14 -5 31 -11
37 -7 7 -10 34 -7 70 2 32 13 76 23 98 10 22 27 52 37 67 10 14 18 29 18 32 0
3 -15 6 -32 6z"/>
<path d="M371 520 c-4 0 -16 -9 -25 -19 -16 -18 -16 -20 7 -42 16 -16 26 -40
30 -70 6 -42 4 -47 -19 -58 -14 -6 -36 -8 -49 -5 -13 3 -33 1 -44 -6 -12 -6
-19 -15 -17 -19 3 -5 33 -11 65 -15 33 -4 63 -11 65 -15 3 -5 -1 -46 -8 -93
-8 -47 -21 -99 -30 -116 -9 -17 -16 -38 -16 -47 0 -10 10 -15 30 -15 22 0 33
7 44 28 8 15 19 54 25 87 6 32 11 79 11 104 0 25 4 51 8 57 4 5 22 16 40 23
21 9 32 20 30 30 -2 9 -12 17 -23 19 -11 2 -25 8 -31 13 -6 5 -14 31 -18 59
-5 38 -13 54 -37 74 -17 14 -34 26 -38 26z"/>
</g>
</svg>
