<?xml version="1.0" standalone="no"?>
<!DOCTYPE svg PUBLIC "-//W3C//DTD SVG 20010904//EN"
 "http://www.w3.org/TR/2001/REC-SVG-20010904/DTD/svg10.dtd">
<svg version="1.0" xmlns="http://www.w3.org/2000/svg"
 width="56.000000pt" height="56.000000pt" viewBox="0 0 56.000000 56.000000"
 preserveAspectRatio="xMidYMid meet">
<metadata>
Created by potrace 1.16, written by Peter Selinger 2001-2019
</metadata>
<g transform="translate(0.000000,56.000000) scale(0.100000,-0.100000)"
fill="#000000" stroke="none">
<path d="M268 559 c-15 0 -38 -19 -66 -55 -23 -30 -47 -66 -52 -79 -5 -14 -7
-32 -3 -41 4 -11 14 -14 34 -10 21 4 31 0 43 -19 9 -14 24 -25 34 -26 13 0 11
-3 -5 -9 -13 -5 -23 -14 -23 -19 0 -6 -25 -26 -54 -45 -30 -19 -62 -46 -71
-60 -9 -14 -14 -30 -10 -36 3 -5 13 -10 21 -10 9 0 36 16 60 36 34 29 47 34
58 25 11 -9 16 -5 26 19 7 16 16 30 20 30 4 0 13 -6 19 -14 7 -8 11 -27 9 -43
-2 -17 -12 -32 -27 -40 -16 -7 -31 -8 -41 -3 -13 7 -20 4 -27 -13 -5 -12 -7
-33 -3 -47 3 -14 14 -26 24 -28 10 -2 23 1 29 7 6 6 14 11 18 11 4 0 9 -7 13
-15 3 -8 -6 -28 -20 -45 -24 -28 -25 -30 -6 -30 12 0 36 18 56 42 20 23 36 49
36 58 0 9 22 45 50 79 27 34 50 70 50 80 0 10 -9 30 -21 45 -11 14 -29 26 -39
26 -10 0 -21 4 -24 8 -3 5 13 26 34 47 22 22 40 46 40 55 0 8 -9 21 -20 28
-18 11 -26 6 -78 -50 -36 -37 -63 -59 -70 -54 -7 4 -12 22 -12 40 0 17 5 37
12 44 9 9 8 18 -2 37 -11 21 -12 30 -2 45 7 11 12 22 12 25 0 3 -10 5 -22 4z
m102 -273 c8 -1 16 -10 18 -21 1 -11 -4 -29 -12 -40 -14 -20 -15 -20 -39 4
-14 13 -23 29 -20 36 2 8 12 16 21 18 10 3 24 4 32 3z"/>
</g>
</svg>
