<?xml version="1.0" standalone="no"?>
<!DOCTYPE svg PUBLIC "-//W3C//DTD SVG 20010904//EN"
 "http://www.w3.org/TR/2001/REC-SVG-20010904/DTD/svg10.dtd">
<svg version="1.0" xmlns="http://www.w3.org/2000/svg"
 width="128.000000pt" height="128.000000pt" viewBox="0 0 128.000000 128.000000"
 preserveAspectRatio="xMidYMid meet">
<metadata>
Created by potrace 1.16, written by Peter Selinger 2001-2019
</metadata>
<g transform="translate(0.000000,128.000000) scale(0.100000,-0.100000)"
fill="#000000" stroke="none">
<path d="M721 1280 c-25 0 -41 -5 -45 -15 -3 -8 -12 -15 -20 -15 -7 0 -16 -9
-19 -21 -4 -14 -10 -18 -19 -13 -7 5 -42 7 -78 5 -35 -1 -68 -5 -72 -7 -5 -3
-3 -14 3 -25 5 -11 21 -25 34 -31 13 -6 26 -19 28 -29 4 -13 14 -19 36 -19 18
0 59 17 102 44 64 38 76 43 101 34 16 -6 33 -18 38 -28 6 -10 10 -30 10 -45 0
-14 -12 -43 -26 -65 -15 -22 -32 -40 -38 -41 -6 0 -33 -2 -61 -3 -27 -2 -60
-6 -72 -10 -12 -4 -25 -15 -28 -26 -4 -12 6 -34 29 -64 35 -46 35 -46 30 -138
-3 -51 -7 -103 -10 -115 -3 -14 -14 -24 -34 -28 -16 -4 -34 -14 -40 -23 -8
-15 -11 -15 -19 -2 -8 12 -16 13 -40 3 -17 -6 -39 -9 -50 -6 -10 2 -38 -5 -62
-18 -24 -12 -63 -35 -86 -51 -26 -17 -43 -37 -43 -48 0 -12 68 -90 173 -196
94 -96 174 -177 176 -179 2 -2 -15 -26 -38 -52 -41 -48 -41 -48 -7 -51 31 -3
43 7 176 140 78 78 159 168 179 198 21 30 45 76 55 102 10 26 15 56 12 65 -3
10 -23 37 -44 59 -29 32 -53 46 -110 65 -42 13 -78 31 -83 41 -5 10 -8 57 -7
105 3 87 3 87 65 131 55 38 64 49 78 94 8 29 15 66 15 84 0 17 -3 46 -6 64 -4
17 -23 47 -42 66 -19 18 -50 36 -68 40 -19 3 -34 10 -34 15 0 5 -18 9 -39 9z
m-95 -731 c7 0 14 -6 18 -14 3 -8 3 -66 0 -128 -3 -61 -7 -114 -10 -116 -2 -2
-18 2 -36 10 -18 7 -51 29 -72 49 -22 19 -50 46 -63 59 -13 13 -23 31 -23 40
0 9 11 28 25 43 14 15 36 30 48 32 12 2 40 8 62 14 22 5 45 10 51 11z m146 1
c14 0 34 -7 43 -16 13 -14 15 -28 9 -83 -5 -45 -15 -78 -32 -104 -15 -22 -29
-34 -34 -29 -5 5 -10 59 -11 120 -2 112 -2 112 25 112z"/>
<path d="M926 90 c-9 0 -16 -7 -16 -16 0 -9 5 -14 12 -12 6 2 14 10 16 16 2 7
-3 12 -12 12z"/>
</g>
</svg>
