<?xml version="1.0" standalone="no"?>
<!DOCTYPE svg PUBLIC "-//W3C//DTD SVG 20010904//EN"
 "http://www.w3.org/TR/2001/REC-SVG-20010904/DTD/svg10.dtd">
<svg version="1.0" xmlns="http://www.w3.org/2000/svg"
 width="128.000000pt" height="128.000000pt" viewBox="0 0 128.000000 128.000000"
 preserveAspectRatio="xMidYMid meet">
<metadata>
Created by potrace 1.16, written by Peter Selinger 2001-2019
</metadata>
<g transform="translate(0.000000,128.000000) scale(0.100000,-0.100000)"
fill="#000000" stroke="none">
<path d="M923 979 c-15 0 -48 -7 -73 -15 -25 -8 -81 -21 -125 -30 -44 -9 -105
-18 -135 -19 -30 -2 -84 -7 -120 -11 -36 -5 -127 -9 -202 -9 -119 0 -138 -2
-138 -16 0 -8 10 -24 23 -35 12 -11 36 -29 54 -42 20 -13 47 -22 70 -22 21 0
52 4 69 9 17 5 112 17 213 26 149 15 190 16 229 6 26 -7 67 -17 92 -22 25 -6
63 -13 86 -16 38 -4 43 -2 73 36 24 30 31 48 27 64 -3 12 -30 39 -60 60 -33
22 -65 37 -83 36z"/>
<path d="M1019 519 c-71 -1 -132 -5 -135 -10 -2 -5 -22 -13 -42 -18 -20 -6
-71 -16 -112 -22 -41 -7 -93 -11 -115 -10 -22 1 -89 -3 -150 -9 -60 -6 -136
-17 -167 -25 -35 -8 -73 -10 -98 -5 -25 4 -53 3 -69 -3 -23 -8 -36 -6 -73 11
-24 12 -47 22 -51 22 -4 0 -7 -8 -7 -17 0 -10 23 -43 50 -73 48 -55 48 -55
157 -53 68 1 142 9 200 22 51 12 110 21 130 21 21 0 54 6 74 13 26 9 88 12
215 9 99 -2 193 -3 209 -3 17 1 50 -4 75 -11 25 -6 56 -18 70 -25 14 -7 34
-13 45 -13 11 1 28 7 38 14 11 9 17 27 17 53 0 31 -5 42 -22 51 -13 7 -43 28
-67 47 -43 35 -43 35 -172 34z"/>
</g>
</svg>
