<?xml version="1.0" standalone="no"?>
<!DOCTYPE svg PUBLIC "-//W3C//DTD SVG 20010904//EN"
 "http://www.w3.org/TR/2001/REC-SVG-20010904/DTD/svg10.dtd">
<svg version="1.0" xmlns="http://www.w3.org/2000/svg"
 width="128.000000pt" height="128.000000pt" viewBox="0 0 128.000000 128.000000"
 preserveAspectRatio="xMidYMid meet">
<metadata>
Created by potrace 1.16, written by Peter Selinger 2001-2019
</metadata>
<g transform="translate(0.000000,128.000000) scale(0.100000,-0.100000)"
fill="#000000" stroke="none">
<path d="M836 1035 c-33 14 -37 14 -43 0 -3 -9 -15 -15 -27 -14 -11 2 -34 -4
-51 -13 -16 -8 -59 -23 -95 -32 -36 -10 -80 -26 -98 -37 -17 -10 -58 -21 -90
-25 -31 -4 -73 -7 -93 -8 -21 -1 -45 -8 -55 -17 -11 -9 -44 -22 -74 -28 -30
-6 -68 -12 -84 -14 -16 -1 -31 -7 -33 -13 -2 -6 10 -25 26 -43 16 -17 38 -31
50 -31 12 0 45 12 74 26 28 14 68 28 87 29 19 2 55 6 80 10 25 4 50 11 56 16
6 5 57 10 115 13 57 2 115 8 129 14 14 5 69 14 124 20 55 6 108 18 122 27 13
8 24 20 24 26 0 5 -12 26 -27 45 -19 23 -36 34 -54 34 -15 0 -43 7 -63 15z"/>
<path d="M1206 1040 c-8 0 -18 -4 -21 -10 -3 -5 -19 -10 -35 -10 -20 0 -36
-10 -59 -37 -17 -21 -40 -47 -51 -59 -11 -12 -20 -26 -20 -31 0 -5 17 -17 39
-25 25 -10 44 -12 54 -6 12 6 15 17 10 38 -4 22 -1 31 11 36 10 4 25 -1 36
-11 19 -17 21 -17 60 10 23 16 43 32 46 36 2 4 -5 11 -16 14 -12 4 -25 18 -30
31 -5 13 -16 24 -24 24z"/>
<path d="M693 778 c-8 2 -13 -5 -13 -18 0 -13 5 -20 13 -17 6 2 12 10 12 17 0
7 -6 15 -12 18z"/>
<path d="M860 685 c-5 3 -17 -6 -26 -20 -10 -16 -24 -25 -37 -23 -11 2 -25 -5
-31 -15 -9 -16 -7 -22 12 -34 12 -9 22 -24 22 -35 0 -10 7 -21 16 -25 8 -3 23
2 32 11 13 13 14 20 5 35 -9 14 -8 25 3 46 8 15 14 33 14 41 0 7 -4 15 -10 19z"/>
<path d="M971 673 c-5 5 -11 1 -15 -8 -3 -9 -14 -15 -23 -13 -12 2 -24 -9 -35
-31 -15 -29 -15 -36 -2 -48 8 -8 14 -19 14 -25 0 -5 5 -8 11 -6 6 2 22 30 35
63 14 34 20 63 15 68z"/>
<path d="M1137 529 c-17 -1 -49 -5 -70 -10 -20 -5 -47 -15 -60 -23 -12 -8 -48
-18 -80 -21 -41 -5 -62 -4 -73 6 -14 11 -18 11 -28 -2 -6 -9 -27 -21 -46 -28
-19 -6 -75 -18 -125 -26 -49 -8 -107 -15 -128 -15 -27 0 -43 -7 -58 -24 -18
-20 -26 -23 -46 -15 -14 5 -59 9 -100 8 -44 -1 -87 -8 -105 -17 -20 -9 -55
-14 -102 -13 -60 1 -75 -2 -90 -18 -14 -15 -15 -24 -7 -39 6 -12 25 -31 42
-43 31 -22 32 -22 101 -5 38 9 91 25 118 36 30 12 68 18 103 17 43 -2 60 2 77
18 16 15 38 20 79 21 31 1 85 4 121 7 36 3 88 9 115 12 28 3 76 13 108 21 51
13 61 13 90 -1 25 -12 43 -13 82 -6 27 5 73 7 102 4 42 -5 57 -2 72 11 11 10
22 27 25 39 4 16 -6 32 -40 64 -34 34 -51 43 -77 42z"/>
</g>
</svg>
