<?xml version="1.0" standalone="no"?>
<!DOCTYPE svg PUBLIC "-//W3C//DTD SVG 20010904//EN"
 "http://www.w3.org/TR/2001/REC-SVG-20010904/DTD/svg10.dtd">
<svg version="1.0" xmlns="http://www.w3.org/2000/svg"
 width="128.000000pt" height="128.000000pt" viewBox="0 0 128.000000 128.000000"
 preserveAspectRatio="xMidYMid meet">
<metadata>
Created by potrace 1.16, written by Peter Selinger 2001-2019
</metadata>
<g transform="translate(0.000000,128.000000) scale(0.100000,-0.100000)"
fill="#000000" stroke="none">
<path d="M298 1260 c-4 0 -8 -24 -8 -53 0 -29 5 -58 11 -64 9 -9 8 -20 -4 -45
-10 -21 -12 -37 -6 -42 6 -6 13 -6 21 2 7 7 30 12 53 12 22 0 45 4 51 8 7 4
11 26 9 49 -1 31 -9 48 -31 67 -16 14 -34 26 -40 26 -6 0 -19 9 -29 20 -10 11
-22 20 -27 20z"/>
<path d="M772 1200 c-22 0 -55 -11 -79 -26 -24 -14 -43 -30 -43 -36 0 -6 10
-8 25 -4 17 4 31 0 44 -13 12 -12 22 -41 26 -74 4 -31 2 -95 -5 -144 -6 -48
-22 -128 -36 -178 -14 -49 -31 -108 -38 -130 -7 -22 -18 -62 -25 -90 -6 -27
-14 -66 -17 -85 -3 -19 -9 -67 -12 -107 -6 -61 -12 -77 -37 -102 -15 -17 -25
-34 -22 -38 4 -3 19 0 34 8 21 11 27 12 31 1 2 -7 14 -25 27 -40 22 -26 22
-26 161 -13 77 7 143 17 148 22 6 5 19 9 29 9 10 0 31 8 45 18 15 10 50 28 77
40 28 12 67 28 88 36 20 8 40 22 43 31 3 8 15 15 25 15 10 0 19 4 19 9 0 5 -9
12 -19 16 -11 3 -24 20 -30 36 -6 17 -19 33 -30 36 -11 3 -26 23 -36 50 -10
26 -33 63 -51 83 -19 21 -37 53 -40 71 -4 19 -16 44 -27 56 -11 12 -45 30 -76
39 -31 9 -60 21 -65 25 -5 4 12 29 38 55 26 27 49 59 52 73 3 15 10 39 15 55
5 16 9 51 9 77 0 26 -5 59 -12 73 -6 14 -19 28 -29 31 -11 4 -24 3 -31 -1 -6
-4 -28 -11 -47 -14 -20 -4 -43 -11 -52 -14 -14 -6 -17 3 -21 57 -3 36 -9 70
-12 76 -4 6 -24 11 -44 11z m115 -170 c6 0 16 -14 22 -31 6 -18 11 -55 11 -83
0 -28 -6 -61 -13 -73 -6 -12 -25 -41 -41 -63 -16 -22 -33 -63 -38 -91 -7 -37
-6 -54 3 -66 9 -10 24 -13 45 -10 21 4 37 1 44 -8 9 -11 8 -22 -4 -47 -9 -18
-45 -65 -81 -103 -36 -38 -65 -75 -65 -82 0 -7 11 -13 23 -13 13 0 32 9 42 20
10 11 23 20 28 20 5 0 28 15 51 34 23 19 56 48 74 65 19 17 37 29 41 26 5 -2
19 -36 31 -75 23 -71 23 -71 3 -98 -11 -14 -35 -30 -54 -35 -19 -4 -54 -17
-78 -28 -24 -11 -68 -24 -96 -29 -37 -6 -64 -5 -91 5 -21 7 -40 17 -41 22 -2
5 10 19 27 31 16 13 30 27 30 32 0 6 -7 10 -15 10 -9 0 -18 -7 -21 -15 -4 -9
-16 -20 -27 -26 -19 -11 -20 -9 -14 51 4 34 14 89 22 123 9 34 19 71 24 82 5
11 16 49 25 85 9 36 24 90 32 120 8 30 21 93 27 140 11 74 15 86 37 97 14 7
30 13 37 13z"/>
<path d="M628 1110 c-8 0 -25 -11 -38 -25 -13 -14 -31 -25 -40 -25 -9 0 -26
-10 -36 -22 -11 -13 -39 -61 -61 -108 -22 -47 -46 -98 -52 -113 -6 -16 -16
-27 -23 -25 -6 2 -16 25 -23 50 -8 31 -28 64 -61 101 -27 30 -52 53 -56 50 -5
-2 -8 -24 -8 -49 0 -38 4 -46 25 -54 14 -5 31 -25 40 -46 8 -20 13 -40 9 -43
-3 -3 -24 -6 -46 -6 -24 0 -43 -5 -45 -12 -3 -8 4 -13 15 -13 12 0 25 -13 37
-39 12 -27 15 -49 10 -72 -4 -19 -28 -56 -53 -84 -26 -27 -64 -58 -85 -67 -29
-13 -44 -15 -58 -8 -14 8 -19 22 -19 56 0 34 7 56 29 87 16 23 43 54 61 69 21
18 30 32 26 43 -4 12 -10 13 -23 6 -10 -6 -41 -32 -69 -58 -28 -26 -59 -60
-68 -75 -10 -16 -14 -33 -10 -40 4 -7 11 -37 15 -66 4 -30 15 -62 25 -73 15
-17 18 -17 29 -2 9 12 20 14 48 9 31 -6 40 -2 72 25 19 17 38 29 41 27 3 -3
-7 -57 -21 -119 -15 -63 -34 -130 -43 -149 -11 -24 -15 -62 -14 -124 0 -64 5
-93 15 -104 13 -13 18 -10 40 24 16 25 28 61 33 99 3 33 11 71 17 85 5 14 14
45 19 70 5 25 10 59 11 75 2 17 8 39 14 50 6 11 23 61 38 110 14 50 33 105 41
123 8 18 14 40 14 48 0 9 8 33 19 53 10 20 27 63 37 96 10 33 24 67 31 75 11
12 15 13 22 2 4 -8 14 -38 21 -68 7 -30 16 -54 20 -54 4 0 12 11 18 25 7 14
12 31 12 37 0 6 6 19 14 27 8 9 20 41 26 71 7 30 14 76 17 103 4 36 2 47 -9
47z"/>
<path d="M512 114 c-5 3 -15 -1 -22 -9 -6 -8 -10 -19 -8 -25 2 -7 11 -3 21 8
10 11 14 23 9 26z"/>
<path d="M474 40 c-5 5 -16 5 -26 -1 -10 -6 -18 -17 -18 -24 0 -8 6 -15 14
-15 7 0 19 7 26 15 8 10 9 19 4 25z"/>
</g>
</svg>
