<?xml version="1.0" standalone="no"?>
<!DOCTYPE svg PUBLIC "-//W3C//DTD SVG 20010904//EN"
 "http://www.w3.org/TR/2001/REC-SVG-20010904/DTD/svg10.dtd">
<svg version="1.0" xmlns="http://www.w3.org/2000/svg"
 width="128.000000pt" height="128.000000pt" viewBox="0 0 128.000000 128.000000"
 preserveAspectRatio="xMidYMid meet">
<metadata>
Created by potrace 1.16, written by Peter Selinger 2001-2019
</metadata>
<g transform="translate(0.000000,128.000000) scale(0.100000,-0.100000)"
fill="#000000" stroke="none">
<path d="M618 1254 c-7 2 -27 -2 -44 -8 -17 -6 -38 -17 -47 -25 -13 -10 -14
-18 -6 -32 5 -10 16 -19 24 -19 8 0 21 -10 29 -22 9 -12 16 -35 16 -50 0 -23
-4 -28 -24 -28 -17 0 -26 -7 -30 -25 -5 -18 -13 -25 -31 -25 -14 0 -29 -8 -34
-19 -6 -11 -26 -21 -48 -25 -21 -3 -56 -8 -78 -12 -22 -3 -46 -11 -52 -16 -7
-6 -13 -16 -13 -23 0 -6 19 -20 43 -30 23 -10 45 -20 48 -22 3 -2 21 10 40 27
19 17 45 30 61 30 17 0 35 -10 52 -31 14 -17 26 -40 26 -51 0 -11 -16 -36 -36
-55 -20 -18 -53 -42 -74 -53 -21 -11 -41 -24 -45 -29 -3 -6 -25 -23 -48 -38
-23 -16 -50 -32 -59 -36 -12 -4 -18 -17 -18 -36 0 -27 3 -29 48 -33 46 -4 48
-3 101 54 30 32 61 58 70 58 9 0 34 7 56 15 22 8 57 14 78 15 34 0 37 -2 37
-29 0 -17 4 -33 10 -36 5 -3 22 1 37 9 15 8 41 28 56 44 23 24 29 40 29 77 1
40 -3 50 -31 75 -32 29 -32 29 -12 67 11 21 29 48 39 59 10 12 27 24 38 28 11
3 41 28 67 54 29 30 45 54 42 63 -3 8 -22 24 -41 36 -20 13 -46 26 -60 29 -15
4 -34 0 -49 -10 -13 -9 -33 -16 -44 -16 -12 0 -29 16 -45 45 -17 28 -34 45
-46 45 -10 0 -24 2 -32 4z m157 -157 c16 -2 20 -9 18 -32 -1 -18 -12 -38 -27
-50 -13 -11 -26 -29 -27 -39 -2 -10 -12 -24 -21 -30 -11 -7 -21 -7 -27 -1 -5
6 -12 33 -16 60 -6 50 -6 50 37 72 24 12 52 21 63 20z m-215 -117 c5 0 14 -9
19 -19 8 -14 7 -20 -3 -24 -8 -3 -20 0 -26 8 -7 8 -9 19 -5 25 3 5 10 10 15
10z"/>
<path d="M640 626 c-45 6 -45 6 -63 -43 -11 -26 -24 -58 -30 -71 -6 -13 -19
-28 -29 -33 -10 -5 -18 -19 -18 -29 0 -12 -7 -20 -17 -20 -10 0 -33 -18 -50
-40 -18 -21 -33 -46 -33 -54 0 -9 -18 -25 -39 -36 -28 -14 -43 -30 -51 -55 -6
-19 -25 -44 -41 -56 -16 -11 -49 -42 -74 -67 -35 -38 -43 -52 -38 -72 3 -14
11 -31 18 -39 9 -9 23 -11 44 -6 21 4 35 15 41 30 5 13 23 31 39 40 17 8 39
28 48 43 10 14 26 35 36 44 9 10 17 28 17 41 0 13 -5 28 -12 35 -9 9 -9 12 3
12 8 0 20 -5 26 -11 8 -8 15 -3 27 19 9 17 16 40 16 51 0 11 17 34 40 52 22
18 40 36 40 41 0 5 13 23 29 39 16 16 34 29 40 29 6 0 12 -6 13 -12 1 -7 2
-58 2 -113 1 -93 2 -101 23 -110 13 -5 23 -20 25 -35 3 -25 4 -25 108 -27 58
-1 134 -4 170 -6 36 -3 88 1 115 8 39 9 51 17 53 34 2 11 0 21 -5 22 -4 1 -55
2 -113 4 -58 1 -147 3 -198 4 -88 1 -93 2 -104 26 -9 20 -8 28 6 44 13 15 15
30 11 80 -3 34 -15 82 -25 107 -11 25 -20 51 -20 57 0 6 8 19 17 29 11 12 13
22 7 28 -5 5 -30 12 -54 16z"/>
<path d="M1039 45 c-35 5 -48 3 -58 -9 -8 -9 -21 -16 -30 -16 -9 0 -23 -5 -31
-10 -10 -7 20 -10 95 -10 108 0 109 0 90 19 -11 11 -41 22 -66 26z"/>
</g>
</svg>
