<?xml version="1.0" standalone="no"?>
<!DOCTYPE svg PUBLIC "-//W3C//DTD SVG 20010904//EN"
 "http://www.w3.org/TR/2001/REC-SVG-20010904/DTD/svg10.dtd">
<svg version="1.0" xmlns="http://www.w3.org/2000/svg"
 width="128.000000pt" height="128.000000pt" viewBox="0 0 128.000000 128.000000"
 preserveAspectRatio="xMidYMid meet">
<metadata>
Created by potrace 1.16, written by Peter Selinger 2001-2019
</metadata>
<g transform="translate(0.000000,128.000000) scale(0.100000,-0.100000)"
fill="#000000" stroke="none">
<path d="M175 1189 c-6 1 -11 -43 -12 -109 -1 -89 -5 -116 -21 -142 -11 -18
-22 -51 -25 -72 -4 -22 -17 -51 -30 -65 -14 -14 -30 -42 -36 -61 -6 -19 -18
-61 -26 -93 -8 -32 -15 -62 -15 -67 0 -6 9 -10 19 -10 10 0 32 15 49 34 17 19
54 45 84 57 29 12 62 30 73 39 11 9 27 22 36 28 14 10 20 10 32 -2 11 -12 15
-35 13 -92 -1 -75 -1 -75 -48 -119 -26 -24 -66 -55 -90 -69 -24 -14 -54 -42
-67 -62 -14 -20 -40 -47 -58 -61 -24 -18 -33 -33 -33 -54 0 -21 5 -29 18 -29
9 0 26 -7 37 -16 12 -9 30 -12 48 -8 18 4 37 0 52 -10 14 -9 25 -23 25 -30 0
-7 15 -17 33 -21 17 -4 42 -9 54 -11 11 -1 28 3 37 9 9 7 26 50 37 96 11 47
18 94 15 105 -3 12 -1 46 6 76 6 30 21 66 32 78 12 13 37 33 56 43 19 11 55
33 80 49 25 16 59 36 77 45 18 9 37 14 42 10 6 -3 34 -44 62 -90 28 -46 57
-86 65 -89 7 -3 20 5 29 17 8 12 15 27 15 34 0 8 11 18 24 22 19 8 25 19 30
61 4 32 3 57 -4 65 -6 7 -11 30 -13 51 -2 36 -1 38 41 50 33 10 57 11 100 3
31 -6 67 -19 80 -30 14 -10 30 -19 37 -19 8 0 10 -9 8 -24 -3 -14 0 -40 6 -59
7 -20 22 -39 36 -45 15 -7 25 -20 25 -33 0 -18 -4 -20 -25 -15 -20 5 -27 1
-38 -21 -8 -16 -20 -49 -27 -76 -7 -26 -16 -47 -20 -47 -4 0 -18 -16 -32 -35
-14 -20 -49 -51 -79 -70 -30 -19 -82 -47 -115 -63 -38 -18 -65 -38 -69 -51 -3
-12 -13 -21 -21 -21 -8 0 -14 5 -14 11 0 7 -10 9 -27 4 -16 -4 -41 -7 -57 -6
-16 1 -50 11 -77 22 -27 12 -49 25 -49 30 0 4 -17 13 -37 18 -28 8 -42 19 -51
41 -8 16 -18 30 -23 30 -5 0 -12 -6 -15 -14 -3 -8 9 -41 26 -72 17 -32 43 -68
57 -80 15 -13 47 -25 75 -29 31 -5 52 -13 58 -25 6 -12 17 -16 33 -13 14 3 28
0 31 -6 4 -6 22 -11 41 -11 18 0 40 3 49 6 9 3 16 13 16 21 0 12 7 14 30 10
19 -4 52 2 97 19 37 14 82 38 98 53 17 16 42 31 58 35 15 3 27 13 27 21 0 9
11 20 25 25 21 8 25 16 25 49 0 22 5 43 11 47 6 3 9 19 5 34 -4 22 0 32 18 43
17 11 25 30 31 69 5 29 8 79 7 111 -1 40 -7 66 -22 86 -11 16 -20 40 -20 54 0
19 -14 35 -57 67 -58 41 -58 41 -143 38 -53 -3 -98 -10 -119 -21 -19 -9 -43
-17 -53 -17 -11 0 -28 -4 -38 -10 -13 -7 -24 -5 -41 9 -13 10 -35 22 -49 26
-14 5 -36 8 -50 8 -14 0 -35 -1 -48 -2 -12 0 -25 -8 -29 -17 -3 -9 2 -21 14
-29 13 -9 20 -26 21 -47 1 -24 -6 -39 -25 -55 -14 -13 -33 -23 -41 -23 -8 0
-45 -17 -83 -37 -38 -20 -72 -34 -76 -30 -4 4 -1 22 5 40 7 19 12 54 12 79 0
30 6 53 18 65 9 11 37 28 62 38 25 10 60 32 78 49 17 16 32 36 32 44 0 12 -12
14 -61 9 -59 -5 -62 -4 -100 30 -21 19 -46 33 -56 31 -13 -2 -17 -11 -15 -32
2 -16 -8 -52 -25 -87 -18 -37 -37 -62 -53 -69 -14 -6 -36 -17 -50 -25 -14 -8
-35 -15 -47 -15 -14 0 -23 6 -23 15 0 8 4 23 9 33 4 9 20 43 35 75 14 31 26
68 26 81 0 14 8 39 17 58 9 18 20 41 25 51 7 14 1 27 -23 55 -18 20 -42 40
-53 44 -12 3 -25 6 -31 7z m98 -772 c6 -2 15 -10 21 -19 7 -11 6 -29 -4 -58
-9 -28 -22 -45 -38 -51 -13 -5 -30 -9 -38 -9 -8 0 -17 7 -21 16 -3 9 10 38 32
70 21 30 43 53 48 51z m642 -227 c13 0 14 -4 5 -20 -6 -11 -13 -20 -15 -20 -3
0 -5 9 -5 20 0 11 7 20 15 20z"/>
</g>
</svg>
