<?xml version="1.0" standalone="no"?>
<!DOCTYPE svg PUBLIC "-//W3C//DTD SVG 20010904//EN"
 "http://www.w3.org/TR/2001/REC-SVG-20010904/DTD/svg10.dtd">
<svg version="1.0" xmlns="http://www.w3.org/2000/svg"
 width="128.000000pt" height="128.000000pt" viewBox="0 0 128.000000 128.000000"
 preserveAspectRatio="xMidYMid meet">
<metadata>
Created by potrace 1.16, written by Peter Selinger 2001-2019
</metadata>
<g transform="translate(0.000000,128.000000) scale(0.100000,-0.100000)"
fill="#000000" stroke="none">
<path d="M728 1260 c-3 0 -12 -7 -19 -16 -7 -9 -24 -20 -37 -25 -24 -9 -24 -9
-3 -45 13 -22 19 -45 16 -58 -4 -11 -10 -30 -15 -41 -5 -11 -11 -36 -14 -56
-4 -20 -14 -43 -24 -52 -13 -12 -34 -15 -82 -13 -65 2 -65 2 -62 47 2 24 10
54 18 67 13 19 13 26 2 39 -7 9 -17 30 -23 46 -5 17 -23 39 -38 51 -23 17 -31
18 -47 8 -11 -7 -27 -12 -36 -12 -13 0 -15 -7 -11 -32 2 -18 10 -49 17 -68 7
-19 15 -39 16 -45 2 -5 11 -20 20 -33 16 -22 16 -23 -5 -29 -12 -3 -24 -16
-28 -31 -4 -18 -1 -29 12 -38 15 -11 16 -16 6 -28 -7 -8 -41 -29 -75 -46 -35
-16 -70 -30 -79 -30 -9 0 -17 7 -17 15 0 9 6 28 14 43 7 15 16 48 19 74 4 31
2 59 -8 82 -8 19 -19 37 -25 41 -5 3 -10 16 -10 28 0 12 -13 38 -29 57 -19 23
-44 40 -75 49 -41 12 -49 11 -71 -3 -14 -9 -25 -20 -25 -25 0 -5 7 -14 15 -21
8 -7 15 -19 15 -27 0 -7 7 -16 15 -19 8 -4 15 -14 15 -24 0 -10 6 -25 13 -32
6 -7 18 -29 25 -49 6 -19 12 -45 12 -57 0 -12 5 -30 11 -40 9 -14 7 -26 -9
-53 -17 -31 -18 -38 -6 -60 7 -13 13 -35 14 -49 0 -17 10 -30 31 -42 17 -10
41 -18 54 -18 12 0 28 7 35 15 7 9 18 14 24 12 6 -2 16 2 21 10 8 11 16 9 43
-7 27 -17 32 -26 32 -57 0 -34 -4 -41 -45 -66 -25 -15 -50 -27 -54 -27 -5 0
-11 -7 -15 -15 -3 -8 -12 -15 -21 -15 -9 0 -33 -19 -55 -42 -36 -39 -40 -41
-63 -29 -13 7 -39 11 -58 9 -23 -2 -35 -9 -37 -20 -2 -10 3 -18 10 -18 7 0 28
-13 46 -30 18 -16 42 -34 52 -40 10 -5 23 -10 28 -10 4 0 24 15 44 33 19 17
44 53 56 79 12 25 34 55 51 67 16 12 33 21 38 21 4 0 14 -9 21 -20 7 -12 10
-25 6 -31 -3 -6 2 -19 11 -29 10 -11 15 -26 11 -36 -5 -14 -15 -15 -57 -10
-51 7 -51 7 -44 -21 3 -15 17 -38 31 -51 13 -14 24 -30 24 -36 0 -7 12 -27 28
-45 27 -33 27 -33 46 -12 17 19 19 38 17 247 -2 170 1 229 11 241 7 8 17 25
23 37 7 14 22 22 43 24 18 2 40 -2 48 -9 8 -6 14 -22 14 -34 0 -13 -7 -25 -15
-29 -9 -3 -15 -18 -15 -36 0 -21 5 -30 16 -30 9 0 27 9 41 20 14 11 34 20 44
20 10 0 21 5 24 10 3 6 21 10 39 10 29 0 34 4 40 30 3 17 14 33 23 36 10 3 34
13 53 22 19 10 50 29 68 45 18 15 38 28 45 28 7 1 19 1 29 0 9 -1 19 2 22 8 4
6 18 6 38 0 17 -5 35 -14 40 -21 5 -7 6 -24 4 -39 -4 -19 3 -31 28 -51 21 -17
36 -40 40 -60 4 -18 9 -47 12 -64 4 -18 1 -35 -5 -38 -6 -4 -11 -26 -11 -48 0
-23 -8 -59 -17 -80 -9 -21 -23 -38 -30 -38 -7 0 -13 -9 -13 -19 0 -10 -7 -22
-16 -25 -9 -3 -20 -6 -26 -6 -7 0 -8 14 -5 38 3 20 2 57 -2 81 -5 24 -13 46
-18 50 -6 3 -15 16 -22 29 -11 20 -19 22 -85 22 -73 0 -74 0 -115 41 -40 40
-42 41 -56 23 -8 -10 -15 -28 -15 -38 0 -11 7 -27 16 -37 9 -10 14 -25 11 -34
-4 -8 -17 -15 -30 -15 -13 0 -28 -5 -35 -12 -7 -7 -12 -19 -12 -28 0 -9 -11
-26 -25 -38 -19 -17 -25 -32 -25 -62 0 -28 5 -43 16 -47 11 -4 26 5 45 27 16
18 29 40 29 49 0 10 14 30 30 46 17 16 30 37 30 47 0 9 9 22 19 28 11 5 34 10
51 10 23 0 33 -5 37 -20 3 -10 14 -22 25 -26 16 -5 19 -12 15 -37 -2 -18 -1
-42 4 -54 6 -15 3 -27 -11 -43 -10 -12 -22 -34 -25 -50 -3 -15 -17 -38 -31
-50 -14 -14 -24 -35 -24 -51 0 -18 -6 -28 -19 -32 -11 -2 -24 -21 -31 -42 -7
-21 -26 -56 -42 -79 -16 -23 -36 -51 -45 -64 -11 -15 -13 -26 -6 -33 6 -6 22
-7 37 -3 14 3 36 18 47 32 11 15 32 52 47 84 15 31 36 62 48 68 17 10 30 8 66
-9 28 -12 61 -19 84 -17 24 2 42 9 48 21 6 10 21 29 34 41 12 11 22 26 22 33
0 6 4 11 10 11 5 0 25 16 45 37 19 20 35 44 35 54 0 10 5 21 11 25 7 4 9 21 6
40 -3 19 -2 36 2 38 4 3 11 54 15 113 5 59 7 137 7 173 -1 38 -10 88 -22 121
-17 48 -27 60 -73 87 -45 28 -61 32 -123 32 -40 0 -75 -4 -78 -10 -3 -5 -15
-10 -25 -10 -11 0 -36 -16 -56 -35 -19 -19 -40 -35 -44 -35 -5 0 -26 -12 -47
-26 -21 -14 -41 -34 -45 -45 -4 -10 -13 -19 -20 -19 -7 0 -18 4 -25 8 -9 6 -9
20 3 60 12 39 20 52 34 52 11 0 40 21 65 48 46 47 46 47 40 117 -3 39 -8 77
-10 85 -3 8 -24 27 -48 43 -24 15 -46 27 -49 27z"/>
</g>
</svg>
