<?xml version="1.0" standalone="no"?>
<!DOCTYPE svg PUBLIC "-//W3C//DTD SVG 20010904//EN"
 "http://www.w3.org/TR/2001/REC-SVG-20010904/DTD/svg10.dtd">
<svg version="1.0" xmlns="http://www.w3.org/2000/svg"
 width="128.000000pt" height="128.000000pt" viewBox="0 0 128.000000 128.000000"
 preserveAspectRatio="xMidYMid meet">
<metadata>
Created by potrace 1.16, written by Peter Selinger 2001-2019
</metadata>
<g transform="translate(0.000000,128.000000) scale(0.100000,-0.100000)"
fill="#000000" stroke="none">
<path d="M452 1130 c-10 0 -23 -5 -30 -12 -7 -7 -12 -16 -12 -20 0 -4 -9 -17
-21 -29 -11 -11 -18 -26 -16 -32 2 -7 13 -11 23 -10 16 2 19 -5 19 -38 0 -27
6 -45 18 -54 9 -7 17 -21 17 -31 0 -10 -4 -25 -9 -33 -5 -8 -16 -11 -30 -6
-11 3 -29 25 -39 48 -19 42 -19 42 -82 42 -63 0 -63 0 -66 -62 -3 -48 0 -66
16 -86 11 -14 38 -29 64 -36 37 -9 49 -8 74 6 16 9 36 14 45 10 10 -4 17 -17
17 -31 0 -14 -5 -37 -12 -51 -6 -14 -27 -35 -46 -47 -35 -22 -35 -22 -50 0 -8
12 -18 22 -22 22 -4 0 -10 -12 -13 -28 -4 -21 -18 -33 -61 -55 -31 -15 -61
-27 -67 -27 -6 0 -7 14 -3 35 5 28 3 35 -10 35 -9 0 -24 -13 -34 -30 -10 -16
-29 -38 -43 -48 -13 -11 -33 -21 -44 -23 -11 -3 -21 -11 -23 -20 -1 -8 6 -26
18 -39 11 -12 20 -34 20 -47 0 -13 6 -26 14 -29 8 -3 35 4 60 15 41 18 47 18
61 5 8 -9 13 -20 9 -25 -3 -5 4 -22 15 -38 11 -15 26 -50 32 -77 7 -27 13 -67
13 -89 1 -40 1 -40 45 -43 30 -2 49 2 61 13 12 11 21 38 25 74 3 31 9 64 13
74 6 16 10 15 44 -8 20 -14 44 -25 53 -25 9 0 28 -6 43 -14 15 -7 45 -17 67
-22 22 -4 47 -9 55 -10 8 -2 41 -11 73 -20 49 -15 66 -16 103 -6 24 7 57 12
73 12 15 0 50 12 77 26 27 14 57 36 67 50 10 13 27 24 38 24 10 0 24 9 31 20
7 11 20 20 28 20 9 0 21 5 28 12 7 7 12 24 12 39 0 15 -6 30 -12 32 -7 3 -4 6
8 6 12 1 26 12 32 26 7 14 12 42 12 61 0 19 7 48 15 63 10 21 12 37 5 60 -5
19 -5 33 1 37 6 3 8 29 4 62 -4 32 -12 73 -18 92 -6 19 -33 56 -59 82 -26 26
-48 51 -48 56 0 5 -34 15 -75 21 -66 11 -82 10 -126 -4 -34 -12 -54 -14 -61
-7 -6 6 -6 12 1 16 6 4 11 11 11 16 0 5 -16 17 -35 26 -33 15 -37 15 -53 0 -9
-9 -27 -24 -39 -34 -12 -9 -25 -29 -29 -44 -4 -17 -2 -28 4 -28 6 0 30 18 54
40 39 36 44 38 56 23 6 -9 12 -20 12 -23 0 -3 -18 -14 -39 -23 -22 -10 -51
-33 -66 -52 -14 -19 -33 -35 -41 -35 -8 0 -24 16 -35 35 -12 20 -29 40 -39 45
-13 7 -25 4 -44 -11 -15 -12 -33 -19 -40 -16 -7 3 -19 34 -26 70 -6 36 -20 79
-31 96 -10 17 -27 31 -37 31z m512 -171 c5 1 26 -4 48 -11 30 -9 43 -19 54
-46 8 -19 14 -43 14 -52 0 -10 14 -30 31 -43 31 -24 31 -24 34 -143 2 -84 -1
-124 -10 -137 -12 -17 -14 -15 -31 22 -10 23 -23 40 -28 38 -6 -2 -12 -19 -13
-38 -2 -19 -4 -45 -5 -59 -3 -22 1 -25 25 -23 17 1 27 -3 27 -12 0 -7 -7 -15
-16 -17 -9 -2 -22 -19 -28 -38 -8 -24 -18 -36 -33 -38 -13 -2 -23 -1 -23 3 0
3 6 18 14 34 8 15 11 33 7 40 -5 8 -17 10 -27 7 -11 -4 -27 -25 -37 -49 -10
-23 -23 -49 -28 -57 -5 -8 -14 -26 -21 -40 -12 -25 -12 -25 -15 0 -2 14 -6 31
-9 39 -3 11 -9 10 -29 -3 -13 -9 -50 -19 -82 -22 -41 -5 -62 -13 -72 -27 -14
-19 -15 -19 -28 -2 -7 11 -13 29 -13 42 0 13 -6 26 -14 29 -8 3 -24 1 -35 -6
-16 -8 -27 -7 -48 4 -16 8 -37 25 -49 38 -11 12 -27 38 -34 56 -7 18 -10 52
-7 77 2 25 1 48 -4 51 -5 3 -9 10 -9 15 0 6 31 41 69 78 38 39 85 75 106 82
34 13 38 12 51 -6 8 -10 14 -26 14 -35 0 -10 13 -35 29 -58 17 -22 41 -46 54
-54 14 -7 39 -21 57 -31 30 -17 34 -17 66 -2 18 8 40 25 48 36 11 17 12 27 4
45 -8 17 -19 24 -40 24 -16 0 -46 9 -67 20 -22 11 -49 36 -62 57 -12 21 -29
44 -37 50 -14 11 -12 17 13 43 16 16 35 30 42 30 7 0 30 16 51 35 22 19 50 39
63 44 13 5 28 10 33 10z m-473 -49 c5 0 9 -9 9 -20 0 -11 -4 -20 -9 -20 -6 0
-13 5 -16 10 -3 6 -3 15 0 20 3 6 10 10 16 10z m60 -10 c5 0 9 -4 9 -8 0 -5
-3 -12 -6 -15 -4 -4 -11 -4 -16 -1 -4 3 -6 10 -3 15 4 5 10 9 16 9z m79 -20
c15 0 29 -3 32 -6 3 -3 -12 -22 -34 -43 -21 -21 -50 -44 -63 -51 -20 -11 -27
-11 -40 0 -9 7 -15 23 -13 34 2 14 12 22 29 24 15 2 35 12 45 23 9 10 29 19
44 19z m-290 -340 c5 0 17 -11 26 -25 8 -13 14 -32 12 -42 -2 -10 -11 -18 -20
-18 -9 0 -19 -3 -22 -6 -3 -3 1 -26 9 -51 7 -26 11 -56 8 -67 -3 -12 -12 -21
-19 -21 -8 0 -17 14 -21 30 -4 21 -19 39 -47 58 -22 15 -42 37 -44 49 -2 13 8
30 28 47 17 14 40 26 50 26 10 0 22 5 25 10 3 6 10 10 15 10z"/>
<path d="M609 648 c-9 2 -19 -3 -22 -11 -3 -8 3 -21 14 -31 11 -9 22 -16 25
-16 3 0 4 12 2 27 -2 16 -10 29 -19 31z"/>
<path d="M947 1100 c-8 0 -17 -3 -20 -7 -4 -3 -7 -15 -7 -25 0 -11 7 -18 20
-18 15 0 20 7 20 25 0 14 -6 25 -13 25z"/>
</g>
</svg>
