<?xml version="1.0" standalone="no"?>
<!DOCTYPE svg PUBLIC "-//W3C//DTD SVG 20010904//EN"
 "http://www.w3.org/TR/2001/REC-SVG-20010904/DTD/svg10.dtd">
<svg version="1.0" xmlns="http://www.w3.org/2000/svg"
 width="128.000000pt" height="128.000000pt" viewBox="0 0 128.000000 128.000000"
 preserveAspectRatio="xMidYMid meet">
<metadata>
Created by potrace 1.16, written by Peter Selinger 2001-2019
</metadata>
<g transform="translate(0.000000,128.000000) scale(0.100000,-0.100000)"
fill="#000000" stroke="none">
<path d="M464 1260 c-12 0 -25 -4 -28 -8 -3 -5 -1 -34 3 -66 4 -32 6 -70 3
-84 -3 -15 -12 -33 -21 -39 -9 -7 -27 -10 -41 -7 -14 3 -37 17 -51 30 -26 25
-26 25 -52 -15 -15 -23 -27 -49 -27 -60 0 -10 7 -24 15 -31 9 -7 22 -9 32 -5
10 5 32 10 48 12 17 2 44 4 60 6 26 2 30 -2 33 -27 3 -20 -4 -36 -22 -55 -15
-15 -23 -30 -20 -34 4 -3 -1 -23 -10 -44 -10 -21 -23 -49 -30 -63 -7 -14 -16
-38 -20 -54 -5 -21 -2 -31 11 -41 15 -12 16 -17 5 -32 -6 -10 -16 -28 -21 -39
-5 -12 -17 -24 -25 -27 -9 -4 -16 -13 -16 -22 0 -8 4 -15 9 -15 4 0 42 23 84
50 42 28 82 50 90 50 7 0 16 -3 20 -6 3 -3 -4 -22 -15 -42 -12 -21 -27 -47
-33 -59 -7 -13 -32 -50 -56 -84 -24 -33 -81 -100 -127 -147 -50 -52 -86 -98
-89 -115 -3 -15 -10 -30 -14 -33 -5 -3 -9 -12 -9 -20 0 -8 4 -14 10 -14 5 0
25 14 45 31 20 18 38 29 42 26 3 -4 -4 -29 -16 -56 -11 -27 -21 -61 -21 -75 0
-14 5 -28 10 -31 6 -3 32 4 58 17 26 12 79 55 119 95 52 53 79 73 97 73 14 0
26 -4 26 -9 0 -6 20 -13 45 -17 28 -4 45 -11 45 -20 0 -7 13 -20 30 -29 16 -8
35 -15 43 -15 8 0 25 -11 38 -24 13 -12 40 -31 61 -40 20 -10 42 -16 50 -15 7
1 20 0 28 -3 8 -3 34 -11 58 -19 29 -8 54 -10 79 -3 20 5 38 14 40 20 2 6 -8
26 -22 43 -15 17 -37 31 -48 31 -12 0 -31 7 -41 15 -13 10 -23 11 -31 5 -6 -5
-22 -8 -34 -5 -13 2 -43 17 -68 32 -25 15 -57 34 -71 42 -15 8 -34 18 -42 22
-8 5 -43 22 -78 40 -63 31 -63 31 -56 67 4 20 13 43 21 50 7 7 13 19 13 26 0
7 9 21 20 31 12 11 27 33 35 50 9 17 16 48 18 70 2 37 0 40 -27 43 -20 3 -36
-4 -57 -24 -16 -15 -32 -24 -36 -20 -4 4 2 25 15 46 12 21 22 44 22 51 0 7 7
20 16 30 9 10 14 25 10 34 -4 11 -13 14 -30 9 -14 -3 -31 -2 -40 3 -12 7 -7
18 29 61 24 28 46 66 50 83 5 24 2 36 -15 54 -12 13 -38 26 -57 30 -33 6 -35
8 -29 37 3 17 6 34 6 39 0 5 25 25 56 45 37 24 54 41 52 52 -3 13 -15 17 -53
17 -50 0 -50 0 -53 50 -2 27 -8 55 -14 62 -6 7 -21 13 -34 13z m50 -390 c7 -7
7 -16 0 -27 -6 -9 -16 -19 -22 -21 -7 -2 -12 5 -12 15 0 11 5 24 12 31 8 8 15
9 22 2z m27 -380 c5 0 7 -11 3 -24 -3 -13 -20 -52 -38 -87 -27 -54 -35 -64
-56 -62 -14 1 -38 -3 -54 -8 -15 -5 -32 -6 -38 -3 -5 3 8 24 28 47 21 23 62
63 91 90 30 26 58 47 64 47z m-156 -260 c23 0 25 -3 20 -22 -4 -13 -24 -40
-46 -61 -22 -21 -45 -37 -52 -34 -7 2 -13 13 -15 26 -2 14 8 33 31 56 23 23
45 35 62 35z"/>
<path d="M911 1093 c-6 6 -20 -6 -38 -30 -18 -26 -43 -46 -73 -57 -25 -10 -53
-22 -62 -27 -10 -5 -29 -9 -42 -9 -14 0 -28 -5 -32 -11 -3 -6 -1 -16 5 -22 6
-6 36 -11 66 -11 30 1 55 -2 55 -6 0 -4 -9 -19 -20 -33 -12 -14 -32 -52 -46
-83 -14 -32 -28 -82 -31 -111 -4 -41 -2 -53 9 -53 7 0 40 22 73 50 33 27 66
50 73 50 6 0 12 -6 12 -14 0 -7 -7 -38 -16 -67 -8 -30 -23 -74 -33 -99 -15
-40 -20 -45 -47 -45 -17 0 -43 -6 -57 -14 -15 -8 -27 -22 -27 -31 0 -10 -7
-23 -15 -30 -8 -7 -15 -27 -15 -46 0 -18 7 -40 16 -48 8 -9 19 -16 23 -16 4 0
16 9 26 20 10 11 24 20 30 20 7 0 18 7 25 15 7 8 21 15 32 15 11 0 34 -11 52
-25 17 -13 50 -39 74 -57 24 -18 62 -50 86 -70 24 -21 50 -38 59 -38 9 0 23
13 32 30 8 16 15 33 15 37 0 4 -29 38 -65 76 -36 37 -69 67 -73 67 -5 0 -34
14 -65 31 -49 26 -57 35 -57 59 0 16 9 44 20 63 12 19 29 77 39 128 13 70 26
106 51 143 25 37 31 52 23 65 -5 9 -19 17 -29 19 -16 2 -22 17 -32 79 -7 43
-16 81 -21 86z m-40 -179 c5 -3 9 -25 9 -49 0 -38 -5 -47 -37 -74 -21 -17 -45
-31 -55 -31 -15 0 -14 8 14 63 17 34 38 70 46 79 8 10 19 15 23 12z"/>
</g>
</svg>
