<?xml version="1.0" standalone="no"?>
<!DOCTYPE svg PUBLIC "-//W3C//DTD SVG 20010904//EN"
 "http://www.w3.org/TR/2001/REC-SVG-20010904/DTD/svg10.dtd">
<svg version="1.0" xmlns="http://www.w3.org/2000/svg"
 width="128.000000pt" height="128.000000pt" viewBox="0 0 128.000000 128.000000"
 preserveAspectRatio="xMidYMid meet">
<metadata>
Created by potrace 1.16, written by Peter Selinger 2001-2019
</metadata>
<g transform="translate(0.000000,128.000000) scale(0.100000,-0.100000)"
fill="#000000" stroke="none">
<path d="M223 1220 c-32 0 -32 0 -32 -57 1 -41 -9 -85 -32 -148 -17 -49 -38
-99 -45 -110 -7 -11 -17 -53 -23 -94 -7 -46 -8 -78 -2 -84 5 -5 28 1 57 18 27
15 58 35 69 46 11 11 38 33 59 49 22 17 44 29 50 27 7 -3 10 -47 8 -133 -3
-129 -3 -129 -44 -189 -23 -33 -45 -62 -48 -65 -4 -3 -19 -27 -35 -55 -15 -27
-43 -70 -64 -93 -20 -24 -41 -51 -46 -60 -6 -10 -18 -29 -28 -43 -10 -15 -26
-29 -36 -32 -10 -2 -21 -17 -24 -35 -3 -16 -3 -46 0 -66 3 -20 11 -41 19 -47
9 -7 19 -7 36 3 13 7 30 13 38 13 11 0 15 12 15 40 0 22 11 62 25 89 13 27 50
88 83 135 32 47 65 101 73 119 7 19 19 32 26 30 7 -3 14 -17 16 -32 2 -15 0
-35 -4 -44 -3 -10 -8 -35 -10 -57 -2 -22 -6 -49 -8 -60 -1 -11 -8 -32 -15 -46
-7 -14 -26 -30 -42 -36 -16 -6 -29 -18 -29 -27 0 -9 16 -23 37 -31 20 -8 44
-13 53 -10 9 3 27 16 38 28 17 18 23 40 28 103 3 43 6 96 6 118 0 21 -5 43
-10 48 -7 7 -6 18 4 34 10 15 13 34 9 56 -5 28 0 46 30 97 20 34 42 60 48 58
7 -2 14 -30 17 -63 4 -48 11 -68 37 -101 18 -22 55 -58 83 -79 27 -21 52 -46
55 -55 3 -9 14 -24 24 -33 16 -15 22 -15 40 -4 16 10 23 10 33 0 6 -6 32 -12
57 -12 26 0 70 3 100 7 40 5 55 11 59 25 2 10 9 18 15 18 5 0 15 -8 22 -17 11
-14 18 -16 42 -8 17 7 29 19 31 33 2 12 7 22 11 22 5 0 14 13 21 29 6 16 20
31 29 34 10 2 21 18 24 36 4 17 13 31 20 31 7 0 22 12 34 28 16 22 21 44 22
112 1 62 6 88 16 96 8 6 15 20 15 32 0 11 -7 22 -15 26 -8 3 -15 18 -15 33 0
15 -6 44 -13 63 -8 19 -24 58 -36 85 -12 28 -41 67 -64 87 -39 35 -46 37 -109
38 -55 0 -79 -6 -127 -29 -32 -15 -63 -26 -68 -22 -4 3 -21 25 -36 48 -21 29
-37 43 -60 47 -18 3 -52 1 -77 -5 -25 -5 -67 -12 -95 -15 -30 -3 -58 0 -72 7
-17 9 -29 9 -52 -1 -20 -8 -34 -23 -40 -44 -6 -17 -13 -48 -17 -69 -4 -24 -15
-44 -30 -54 -13 -8 -24 -20 -24 -27 0 -6 -11 -18 -24 -26 -13 -8 -49 -34 -81
-58 -32 -25 -63 -41 -71 -38 -13 5 -12 10 1 43 8 20 21 43 27 51 7 8 18 24 25
36 7 11 14 26 17 31 2 6 15 46 29 89 20 63 23 83 14 98 -8 11 -24 18 -44 18z
m461 -73 c12 -8 31 -29 44 -48 13 -18 22 -42 20 -54 -2 -11 -20 -31 -40 -44
-21 -13 -38 -31 -38 -38 0 -9 -7 -12 -18 -9 -13 5 -28 -5 -51 -34 -17 -22 -38
-40 -45 -40 -10 0 -12 12 -8 45 3 27 1 45 -6 45 -5 0 -13 -7 -16 -16 -3 -9 -6
-26 -6 -38 0 -13 -13 -52 -29 -87 -16 -35 -38 -72 -50 -83 -11 -10 -27 -16
-36 -13 -11 5 -15 21 -15 59 0 29 4 70 9 90 5 20 24 52 42 70 19 19 50 45 69
58 19 13 50 37 68 54 17 16 32 35 32 42 0 7 12 22 27 33 23 19 29 20 47 8z
m271 -76 c6 -3 17 -6 25 -6 8 0 39 -13 67 -30 31 -17 53 -37 53 -47 0 -9 9
-37 20 -63 15 -34 19 -62 16 -108 -2 -34 -7 -73 -12 -86 -6 -20 -4 -23 9 -18
10 4 17 2 17 -3 0 -6 -4 -10 -9 -10 -6 0 -16 -10 -23 -23 -7 -13 -35 -56 -61
-95 -29 -43 -61 -78 -80 -88 -18 -9 -43 -26 -57 -39 -14 -12 -44 -25 -67 -29
-23 -3 -66 -1 -95 5 -29 6 -77 22 -105 36 -29 14 -53 31 -53 39 0 7 -9 19 -20
27 -11 7 -26 31 -33 53 -8 21 -17 62 -21 91 -5 37 -3 55 7 65 7 7 31 38 52 68
21 30 54 73 74 95 19 22 50 48 68 57 18 10 35 18 38 18 3 0 12 -16 20 -36 8
-20 15 -46 15 -58 0 -12 4 -26 9 -31 5 -6 11 -23 13 -39 2 -17 14 -37 31 -49
21 -16 30 -18 39 -9 7 7 25 12 40 12 28 0 29 1 22 38 -4 20 -17 53 -29 72 -12
19 -29 58 -38 85 -10 28 -18 54 -19 59 -2 5 15 19 37 31 22 12 45 19 50 16z
m257 -379 c5 -5 6 -16 2 -25 -3 -9 -12 -17 -18 -17 -7 0 -16 3 -19 7 -4 3 1
15 10 25 9 10 20 15 25 10z"/>
<path d="M200 160 c-11 0 -20 -4 -20 -9 0 -5 6 -11 14 -14 8 -3 17 -3 20 0 3
4 6 10 6 15 0 4 -9 8 -20 8z"/>
</g>
</svg>
