<?xml version="1.0" standalone="no"?>
<!DOCTYPE svg PUBLIC "-//W3C//DTD SVG 20010904//EN"
 "http://www.w3.org/TR/2001/REC-SVG-20010904/DTD/svg10.dtd">
<svg version="1.0" xmlns="http://www.w3.org/2000/svg"
 width="128.000000pt" height="128.000000pt" viewBox="0 0 128.000000 128.000000"
 preserveAspectRatio="xMidYMid meet">
<metadata>
Created by potrace 1.16, written by Peter Selinger 2001-2019
</metadata>
<g transform="translate(0.000000,128.000000) scale(0.100000,-0.100000)"
fill="#000000" stroke="none">
<path d="M374 1270 c-6 6 -13 5 -19 -4 -6 -7 -26 -38 -45 -67 -20 -30 -52 -89
-72 -131 -20 -42 -49 -107 -64 -145 -14 -37 -34 -77 -44 -88 -10 -11 -22 -29
-28 -40 -6 -11 -11 -41 -12 -65 -1 -25 -1 -57 -1 -72 1 -18 7 -28 16 -28 9 0
15 9 15 24 0 13 6 26 13 29 6 2 19 1 28 -4 8 -4 20 -5 25 -1 5 4 20 21 32 39
12 17 22 39 22 49 0 9 -11 32 -25 50 -24 31 -24 33 -7 46 11 7 24 23 30 35 7
12 12 31 12 42 0 11 11 37 25 57 14 21 32 61 41 91 8 29 22 59 30 67 8 8 14
20 14 27 0 7 5 28 12 46 8 21 9 36 2 43z"/>
<path d="M414 954 c-27 3 -54 3 -59 -2 -6 -4 -21 -21 -33 -39 -17 -23 -21 -39
-16 -59 6 -23 4 -26 -9 -21 -12 4 -23 -2 -34 -19 -14 -22 -15 -32 -4 -67 7
-23 14 -91 16 -151 3 -65 0 -117 -6 -129 -6 -11 -27 -40 -46 -66 -20 -25 -49
-60 -66 -77 -17 -18 -38 -45 -46 -61 -9 -16 -31 -51 -49 -78 -17 -27 -32 -59
-32 -72 0 -13 3 -23 6 -23 3 0 13 4 22 9 9 4 29 11 44 15 24 5 28 3 28 -15 0
-17 4 -20 22 -16 12 3 30 2 40 -4 10 -5 18 -14 18 -20 0 -5 12 -21 26 -34 25
-23 27 -23 51 -8 13 9 32 32 42 52 10 20 24 74 30 120 6 46 11 129 11 183 0
96 1 99 31 132 17 19 41 37 55 40 13 4 24 13 24 20 0 8 21 36 48 62 26 27 76
71 112 98 35 27 71 49 79 50 8 1 25 -19 38 -44 13 -25 23 -50 23 -57 0 -6 11
-20 25 -31 14 -11 25 -27 25 -36 0 -9 15 -25 33 -36 17 -11 36 -19 41 -17 4 1
14 20 21 40 7 21 11 56 8 77 -5 32 -16 49 -59 89 -30 27 -54 55 -55 62 0 8
-12 24 -27 35 -15 12 -52 29 -82 38 -29 9 -60 16 -67 16 -7 0 -30 -16 -50 -35
-20 -19 -33 -38 -29 -42 4 -4 16 -2 26 5 11 7 31 12 46 12 14 0 34 -5 45 -10
10 -6 19 -15 19 -20 0 -5 -21 -19 -46 -32 -25 -12 -58 -33 -72 -46 -14 -13
-52 -42 -84 -64 -32 -22 -62 -48 -67 -57 -5 -9 -21 -23 -36 -31 -23 -12 -28
-12 -35 0 -6 8 -10 47 -10 86 0 67 1 72 35 104 19 18 56 45 82 59 30 16 49 34
50 46 2 12 -9 29 -26 42 -16 13 -49 24 -77 27z m-142 -630 c4 -3 8 -21 8 -40
0 -19 -4 -34 -10 -34 -5 0 -10 -7 -10 -15 0 -9 -10 -26 -22 -39 -13 -13 -33
-27 -46 -31 -15 -4 -24 -2 -28 9 -4 9 8 38 27 67 18 29 42 60 52 70 11 10 24
16 29 13z"/>
<path d="M946 879 c-17 -1 -46 -7 -63 -12 -18 -6 -33 -17 -33 -24 0 -9 22 -12
79 -12 47 0 99 -7 130 -17 42 -13 55 -23 69 -53 10 -20 20 -59 22 -86 2 -28 3
-59 2 -70 -1 -11 -4 -37 -8 -57 -3 -21 -10 -38 -14 -38 -5 0 -10 -6 -12 -14
-2 -8 -28 -44 -58 -80 -35 -42 -65 -68 -83 -72 -16 -4 -34 -15 -40 -25 -7 -11
-21 -19 -32 -19 -11 0 -30 -6 -41 -14 -15 -11 -30 -12 -57 -6 -32 7 -39 5 -51
-12 -13 -18 -15 -18 -23 -3 -5 9 -16 18 -24 19 -8 2 -34 13 -59 24 -25 12 -51
22 -57 22 -7 0 -13 9 -13 20 0 10 -9 24 -20 30 -11 6 -20 15 -20 21 0 6 -8 23
-19 37 -10 15 -22 45 -26 67 -7 37 -8 38 -16 16 -6 -15 -5 -37 2 -60 7 -20 13
-42 15 -49 2 -8 13 -16 23 -19 11 -3 17 -11 15 -17 -3 -7 2 -19 11 -26 8 -7
15 -18 15 -24 0 -7 14 -22 30 -34 19 -15 30 -31 30 -47 0 -14 3 -26 8 -26 4
-1 18 -3 31 -4 13 -1 26 -7 30 -13 3 -5 23 -11 43 -13 24 -2 42 2 50 11 7 9
26 26 42 40 29 25 29 25 22 -17 -3 -24 -4 -43 0 -43 3 0 14 5 25 10 15 9 21 7
25 -5 4 -9 18 -15 38 -15 19 0 38 8 49 20 9 11 23 20 32 20 8 0 19 9 25 20 6
11 20 20 31 20 14 0 25 10 32 30 7 18 22 33 40 39 21 8 35 26 59 78 23 52 32
87 36 150 3 50 0 107 -8 145 -8 34 -22 70 -32 80 -10 10 -18 24 -18 32 0 8
-13 24 -30 36 -21 15 -47 21 -94 23 -36 2 -68 6 -72 10 -4 4 -21 6 -38 6z"/>
</g>
</svg>
