<?xml version="1.0" standalone="no"?>
<!DOCTYPE svg PUBLIC "-//W3C//DTD SVG 20010904//EN"
 "http://www.w3.org/TR/2001/REC-SVG-20010904/DTD/svg10.dtd">
<svg version="1.0" xmlns="http://www.w3.org/2000/svg"
 width="128.000000pt" height="128.000000pt" viewBox="0 0 128.000000 128.000000"
 preserveAspectRatio="xMidYMid meet">
<metadata>
Created by potrace 1.16, written by Peter Selinger 2001-2019
</metadata>
<g transform="translate(0.000000,128.000000) scale(0.100000,-0.100000)"
fill="#000000" stroke="none">
<path d="M413 1089 c-4 0 -15 -3 -23 -6 -8 -3 -18 -11 -22 -17 -4 -6 -8 -38
-8 -71 0 -59 -1 -61 -46 -101 -33 -30 -61 -45 -99 -53 -29 -7 -58 -18 -64 -25
-8 -9 -7 -18 2 -31 11 -13 22 -16 53 -12 21 3 63 11 92 17 41 8 57 8 68 -1 8
-6 14 -26 14 -44 0 -17 -7 -46 -16 -64 -10 -21 -14 -44 -10 -66 5 -25 13 -35
32 -39 21 -6 24 -9 14 -21 -7 -8 -23 -15 -36 -15 -12 0 -26 -4 -29 -10 -3 -5
-15 -10 -26 -10 -11 0 -34 -7 -52 -15 -18 -8 -39 -19 -47 -25 -8 -5 -50 -26
-93 -45 -58 -27 -81 -43 -88 -63 -6 -15 -13 -41 -16 -57 -3 -22 1 -35 14 -47
18 -17 22 -15 83 27 36 24 72 45 81 45 8 0 23 -8 33 -17 9 -10 43 -46 76 -80
59 -63 59 -63 121 -63 63 0 63 0 127 65 35 36 67 65 71 65 4 0 16 9 26 20 10
11 29 20 42 20 13 0 34 -7 47 -15 12 -8 58 -24 101 -36 78 -20 78 -20 142 7
43 18 84 47 124 85 32 32 59 63 59 69 0 5 16 32 35 59 22 30 35 60 35 79 0 17
5 34 10 37 5 3 10 41 10 84 0 68 -4 86 -35 148 -19 40 -47 81 -61 92 -20 16
-41 21 -88 21 -33 0 -79 0 -101 0 -22 0 -60 -1 -84 -2 -42 -3 -47 0 -68 32
-12 19 -27 41 -33 48 -6 6 -19 12 -30 12 -10 0 -29 -5 -42 -10 -13 -6 -36 -19
-53 -29 -16 -11 -38 -20 -47 -20 -9 -1 -26 -13 -38 -28 -11 -15 -30 -33 -41
-41 -15 -10 -23 -11 -33 -3 -7 6 -19 38 -25 71 -8 40 -18 63 -31 70 -10 5 -22
10 -27 9z m298 -150 c11 1 19 -9 22 -26 3 -16 -1 -38 -9 -50 -8 -13 -19 -23
-25 -23 -6 0 -30 -16 -55 -36 -26 -21 -50 -34 -59 -30 -8 3 -15 13 -15 23 0
10 17 40 38 66 21 27 50 54 63 62 13 7 31 13 40 14z m307 -9 c2 0 12 -4 22
-10 10 -5 32 -35 49 -67 17 -31 31 -67 31 -79 0 -13 9 -29 20 -37 18 -12 18
-16 5 -33 -8 -10 -15 -33 -15 -49 0 -17 5 -36 10 -41 7 -7 -3 -23 -32 -50 -24
-21 -57 -58 -73 -81 -17 -23 -41 -47 -55 -53 -14 -6 -47 -24 -75 -40 -27 -16
-62 -30 -76 -30 -14 0 -40 5 -56 11 -30 10 -30 10 -16 51 7 22 21 54 30 72 9
17 31 49 49 72 19 22 40 57 49 77 8 20 15 41 15 47 0 5 -9 19 -20 30 -11 11
-33 20 -50 20 -27 0 -30 3 -30 33 0 18 6 42 14 53 8 11 34 29 58 39 24 10 65
29 92 42 28 12 52 23 54 23z m-527 -30 c10 0 20 -8 23 -18 4 -10 5 -55 3 -98
-3 -44 -10 -90 -16 -102 -7 -13 -9 -31 -6 -41 5 -16 -1 -19 -34 -23 -41 -3
-41 -3 -35 92 3 52 7 110 9 129 1 19 11 40 21 48 10 7 26 13 35 13z m222 -141
c10 1 22 -10 27 -25 6 -14 10 -35 10 -46 0 -12 7 -30 17 -40 13 -14 14 -23 5
-41 -6 -12 -14 -33 -18 -47 -4 -14 -18 -40 -32 -58 -19 -24 -32 -32 -50 -30
-19 2 -32 17 -54 56 -16 30 -31 73 -34 96 -6 43 -6 43 52 89 33 25 67 46 77
46z m-195 -167 c7 -2 15 -16 18 -31 3 -14 15 -51 26 -81 11 -30 22 -65 25 -77
4 -17 -8 -35 -53 -78 -33 -31 -72 -63 -87 -71 -15 -8 -31 -12 -36 -9 -5 2 -6
42 -4 87 3 47 14 101 24 126 11 24 19 59 19 77 0 27 6 37 28 48 15 7 33 11 40
9z m-186 -139 c18 -19 18 -21 1 -51 -10 -18 -25 -32 -34 -32 -8 0 -20 5 -27
12 -7 7 -12 17 -12 23 0 5 12 23 26 39 26 28 27 28 46 9z"/>
</g>
</svg>
