<?xml version="1.0" standalone="no"?>
<!DOCTYPE svg PUBLIC "-//W3C//DTD SVG 20010904//EN"
 "http://www.w3.org/TR/2001/REC-SVG-20010904/DTD/svg10.dtd">
<svg version="1.0" xmlns="http://www.w3.org/2000/svg"
 width="128.000000pt" height="128.000000pt" viewBox="0 0 128.000000 128.000000"
 preserveAspectRatio="xMidYMid meet">
<metadata>
Created by potrace 1.16, written by Peter Selinger 2001-2019
</metadata>
<g transform="translate(0.000000,128.000000) scale(0.100000,-0.100000)"
fill="#000000" stroke="none">
<path d="M738 1280 c-10 0 -18 -4 -18 -10 0 -5 -7 -10 -15 -10 -8 0 -15 -7
-15 -16 0 -9 13 -21 30 -27 24 -9 30 -18 36 -52 4 -27 1 -54 -9 -77 -9 -20
-24 -41 -34 -46 -10 -6 -40 -13 -68 -17 -27 -4 -60 -13 -72 -21 -12 -8 -29
-14 -36 -14 -8 0 -22 19 -31 43 -10 23 -21 49 -26 57 -4 8 -22 16 -41 18 -19
2 -51 -1 -72 -5 -21 -4 -37 -13 -36 -18 0 -6 21 -16 45 -23 24 -7 48 -22 54
-33 6 -11 8 -27 5 -37 -3 -9 -25 -26 -49 -37 -31 -15 -49 -18 -64 -12 -11 5
-23 22 -26 39 -4 20 -11 28 -22 26 -9 -2 -22 -21 -30 -43 -7 -22 -14 -48 -14
-57 0 -9 13 -26 29 -37 16 -12 38 -21 50 -21 11 0 33 5 48 12 15 6 38 20 50
31 11 10 32 17 45 15 17 -2 24 -10 26 -30 2 -16 8 -28 13 -28 6 0 18 4 28 10
10 5 21 23 24 39 4 17 17 37 30 45 13 9 37 19 55 22 24 5 33 3 38 -10 4 -9 -7
-35 -25 -63 -17 -27 -39 -57 -49 -69 -10 -12 -37 -33 -61 -48 -35 -22 -42 -32
-39 -54 3 -25 6 -27 45 -24 23 1 44 -2 48 -8 3 -5 14 -10 24 -10 10 0 25 -8
34 -18 10 -10 17 -32 17 -48 0 -25 -7 -33 -35 -47 -20 -9 -43 -17 -53 -17 -9
-1 -33 -9 -52 -20 -19 -10 -50 -26 -69 -35 -19 -8 -38 -12 -42 -8 -4 5 -4 29
0 56 5 30 4 52 -3 61 -6 8 -32 16 -57 19 -26 2 -54 0 -63 -5 -11 -6 -14 -14
-8 -24 5 -9 20 -21 33 -27 19 -10 25 -22 27 -54 2 -25 -4 -55 -13 -73 -13 -25
-14 -35 -4 -46 6 -8 19 -14 29 -14 10 0 39 17 64 38 30 25 58 39 76 40 18 0
54 18 89 42 33 23 68 40 78 38 11 -2 19 -14 21 -31 2 -15 8 -27 13 -27 5 0 9
-4 9 -10 0 -5 -5 -10 -12 -10 -6 0 -19 7 -29 16 -16 14 -21 13 -61 -11 -23
-15 -67 -52 -95 -83 -29 -30 -53 -59 -53 -64 0 -5 -7 -17 -16 -26 -12 -12 -15
-27 -10 -59 5 -38 3 -45 -19 -59 -13 -9 -27 -25 -30 -35 -4 -11 -24 -27 -44
-35 -21 -8 -44 -26 -51 -40 -9 -17 -10 -28 -3 -35 6 -6 24 -7 54 0 32 7 53 20
76 48 28 33 35 36 50 25 10 -6 34 -20 53 -29 19 -9 61 -29 93 -45 38 -18 75
-28 103 -28 24 0 45 3 46 8 0 4 2 63 3 132 2 69 -2 130 -7 137 -5 7 -6 18 -2
24 4 7 6 37 5 68 -1 30 -5 60 -10 66 -4 5 -8 49 -10 96 -2 58 1 89 9 94 6 4
17 0 23 -8 8 -10 40 -17 95 -21 82 -6 82 -6 82 18 0 17 -7 27 -22 32 -13 4
-54 7 -93 6 -60 -2 -77 2 -120 25 -27 16 -50 35 -50 43 0 10 17 18 52 25 28 5
55 13 58 17 4 4 -8 16 -26 27 -19 12 -42 21 -52 21 -10 0 -20 7 -24 16 -3 9 5
26 19 42 14 15 35 42 47 60 13 18 26 45 30 60 6 23 14 28 52 34 32 4 55 1 84
-12 22 -10 57 -20 77 -23 20 -3 46 -3 57 0 12 3 21 13 21 22 0 9 -8 23 -17 31
-10 9 -36 25 -59 37 -41 21 -42 21 -70 2 -16 -10 -40 -19 -53 -19 -20 0 -22 3
-17 28 4 15 9 34 12 43 2 9 -6 30 -19 45 -12 16 -34 46 -47 66 -14 21 -33 38
-42 38z m-141 -862 c8 -7 9 -17 2 -35 -5 -13 -32 -51 -59 -82 -28 -32 -50 -63
-50 -69 0 -7 -7 -12 -15 -12 -11 0 -15 11 -15 40 0 27 7 47 24 65 13 15 30 32
36 38 7 7 24 24 39 38 18 19 30 24 38 17z m97 -11 c6 -2 12 -17 13 -33 2 -16
3 -63 3 -104 0 -41 -2 -98 -6 -127 -3 -29 -12 -57 -20 -64 -8 -7 -29 -8 -53
-4 -22 3 -60 20 -85 36 -25 15 -46 32 -46 37 0 4 18 26 40 47 22 21 40 45 40
52 0 7 9 17 20 23 11 6 23 22 26 37 4 14 18 43 32 64 14 22 31 38 36 36z"/>
<path d="M240 750 c-10 5 -20 6 -24 3 -3 -3 -6 -30 -6 -60 0 -40 4 -55 16 -60
8 -3 22 1 30 9 11 11 13 26 8 57 -4 24 -14 46 -24 51z"/>
<path d="M1047 620 c-8 0 -20 -7 -27 -16 -10 -11 -11 -23 -4 -42 5 -15 16 -27
24 -27 10 0 16 13 18 43 2 31 -1 42 -11 42z"/>
</g>
</svg>
