<?xml version="1.0" standalone="no"?>
<!DOCTYPE svg PUBLIC "-//W3C//DTD SVG 20010904//EN"
 "http://www.w3.org/TR/2001/REC-SVG-20010904/DTD/svg10.dtd">
<svg version="1.0" xmlns="http://www.w3.org/2000/svg"
 width="128.000000pt" height="128.000000pt" viewBox="0 0 128.000000 128.000000"
 preserveAspectRatio="xMidYMid meet">
<metadata>
Created by potrace 1.16, written by Peter Selinger 2001-2019
</metadata>
<g transform="translate(0.000000,128.000000) scale(0.100000,-0.100000)"
fill="#000000" stroke="none">
<path d="M800 1250 c-6 0 -10 -4 -10 -10 0 -5 -13 -10 -30 -10 -16 0 -41 -5
-55 -12 -15 -7 -24 -17 -21 -25 3 -7 3 -13 1 -13 -2 0 -15 5 -29 11 -20 10
-30 8 -59 -10 -20 -12 -51 -21 -75 -21 -22 0 -47 -3 -56 -6 -9 -3 -16 -12 -16
-19 0 -8 14 -27 31 -44 22 -22 40 -31 64 -31 18 0 57 12 87 26 29 15 61 34 71
42 15 14 19 13 35 -2 18 -16 17 -18 -25 -60 -41 -42 -44 -47 -37 -83 4 -21 11
-46 16 -55 5 -10 21 -24 37 -32 15 -8 33 -21 39 -29 7 -8 22 -12 37 -9 14 2
34 17 45 32 11 16 20 39 20 52 0 13 -7 34 -16 47 -14 20 -15 29 -4 65 7 22 16
51 21 64 5 13 9 32 9 42 0 10 -5 30 -11 43 -6 14 -22 30 -36 36 -13 6 -28 11
-33 11z"/>
<path d="M484 939 c-5 -1 -22 -4 -38 -8 -16 -3 -31 -12 -33 -18 -3 -7 13 -21
34 -30 21 -10 42 -22 46 -28 4 -5 5 -26 3 -46 -3 -19 -19 -68 -36 -109 -16
-40 -30 -85 -30 -99 0 -15 -7 -37 -16 -49 -9 -14 -26 -22 -43 -22 -15 0 -31
-4 -36 -9 -6 -6 -28 -14 -50 -20 -22 -5 -57 -14 -79 -20 -21 -5 -43 -14 -48
-19 -6 -6 -6 -17 1 -31 7 -11 25 -28 42 -36 16 -9 34 -13 39 -10 6 3 10 15 10
26 0 11 10 23 24 29 13 5 40 12 59 15 36 7 36 7 32 -42 -2 -26 -8 -65 -13 -86
-6 -21 -18 -47 -28 -58 -9 -10 -21 -19 -26 -19 -5 0 -18 21 -29 48 -19 44 -21
46 -34 28 -8 -10 -20 -44 -26 -75 -7 -31 -12 -85 -11 -120 1 -38 8 -73 17 -87
10 -16 25 -24 43 -24 22 0 36 11 63 47 19 27 44 62 54 78 11 17 28 48 38 70
10 22 27 76 38 120 12 44 23 94 26 112 3 18 10 36 17 42 6 5 29 11 51 14 22 3
54 8 70 12 17 3 39 8 51 10 11 3 26 16 32 30 7 14 23 30 38 35 16 6 32 7 42 1
15 -9 15 -10 -3 -16 -11 -4 -26 -10 -34 -14 -9 -4 -15 -25 -16 -53 -2 -26 -12
-66 -24 -90 -11 -24 -24 -71 -27 -105 -4 -40 -3 -63 5 -67 8 -5 7 -12 -1 -26
-10 -16 -9 -25 5 -49 9 -16 17 -38 17 -48 0 -11 8 -27 18 -36 10 -10 26 -17
34 -17 9 0 18 6 21 13 2 6 2 51 -1 98 -5 86 -5 86 47 112 28 15 62 27 75 27
14 0 27 -4 31 -9 3 -5 -2 -29 -11 -53 -9 -24 -17 -56 -17 -73 0 -17 18 -63 43
-107 42 -75 45 -78 81 -78 20 0 41 6 47 13 5 6 15 29 23 50 13 38 13 38 -45
90 -58 51 -58 53 -52 93 5 28 20 56 47 85 21 24 39 51 39 60 0 9 -7 23 -16 30
-9 8 -40 19 -68 24 -40 8 -64 7 -113 -7 -43 -11 -72 -14 -98 -8 -20 5 -39 11
-42 13 -2 3 5 10 16 16 11 6 26 21 33 34 6 12 14 38 17 57 5 29 11 35 40 41
19 4 38 14 42 22 5 9 18 13 33 10 19 -4 28 1 40 25 9 17 16 38 16 47 0 8 -11
20 -24 26 -18 9 -31 7 -64 -10 -23 -12 -43 -21 -45 -21 -2 0 -19 29 -37 65
-18 35 -41 67 -51 70 -10 4 -28 1 -39 -5 -20 -10 -21 -17 -15 -109 5 -97 5
-97 -32 -111 -21 -7 -58 -17 -83 -21 -25 -4 -57 -11 -72 -15 -22 -5 -28 -3
-28 10 0 8 9 30 20 48 11 18 20 41 20 51 0 10 5 28 12 40 7 12 20 44 29 72 16
44 16 53 3 80 -8 16 -29 40 -47 53 -18 12 -37 21 -43 21z"/>
<path d="M1093 770 c-5 0 -14 -4 -22 -9 -7 -5 -10 -14 -7 -20 4 -6 14 -11 22
-11 8 0 14 9 14 20 0 11 -3 20 -7 20z"/>
<path d="M1075 710 c-8 0 -17 -5 -21 -11 -3 -6 -2 -15 4 -21 6 -6 18 -8 26 -5
9 4 13 13 10 22 -3 8 -12 15 -19 15z"/>
</g>
</svg>
