<?xml version="1.0" standalone="no"?>
<!DOCTYPE svg PUBLIC "-//W3C//DTD SVG 20010904//EN"
 "http://www.w3.org/TR/2001/REC-SVG-20010904/DTD/svg10.dtd">
<svg version="1.0" xmlns="http://www.w3.org/2000/svg"
 width="128.000000pt" height="128.000000pt" viewBox="0 0 128.000000 128.000000"
 preserveAspectRatio="xMidYMid meet">
<metadata>
Created by potrace 1.16, written by Peter Selinger 2001-2019
</metadata>
<g transform="translate(0.000000,128.000000) scale(0.100000,-0.100000)"
fill="#000000" stroke="none">
<path d="M802 1260 c-4 0 -12 -4 -18 -8 -6 -4 -14 -19 -18 -34 -3 -16 -11 -28
-16 -28 -5 0 0 -16 11 -35 15 -25 28 -35 45 -35 14 0 27 7 30 15 4 8 16 15 29
15 12 0 28 7 35 15 6 8 9 19 5 25 -3 5 -11 10 -17 10 -6 0 -26 14 -45 30 -18
17 -37 30 -41 30z"/>
<path d="M670 1210 c-11 0 -20 -6 -20 -12 0 -7 -12 -19 -27 -25 -15 -7 -46
-13 -69 -13 -23 0 -47 -6 -53 -14 -6 -7 -33 -19 -59 -26 -26 -7 -57 -19 -69
-27 -13 -7 -23 -20 -23 -27 0 -8 14 -19 31 -25 18 -6 45 -11 60 -11 16 0 63
11 106 25 43 14 81 32 85 40 5 7 21 16 37 20 16 3 35 13 42 21 6 8 7 14 1 14
-5 0 -12 14 -15 30 -5 21 -12 30 -27 30z"/>
<path d="M737 1100 c-7 0 -28 -16 -47 -35 -19 -19 -51 -47 -72 -61 -37 -26
-39 -26 -57 -9 -11 9 -25 14 -30 10 -6 -3 -11 -14 -11 -25 0 -10 7 -21 16 -24
9 -3 20 -4 25 0 5 3 16 1 25 -4 14 -8 14 -10 -1 -25 -9 -10 -25 -17 -36 -17
-10 0 -20 -6 -21 -12 -1 -7 -3 -33 -4 -58 -2 -25 -6 -81 -10 -124 -6 -77 -6
-79 15 -73 12 3 33 -1 47 -8 26 -13 26 -13 -5 -20 -17 -3 -35 -4 -40 -1 -5 4
-22 -5 -37 -19 -16 -15 -34 -23 -44 -20 -9 3 -46 1 -81 -5 -35 -5 -86 -15
-114 -21 -27 -6 -84 -14 -125 -17 -73 -7 -75 -8 -78 -35 -2 -16 1 -34 6 -40 5
-7 13 -31 17 -54 4 -23 20 -59 36 -79 16 -20 29 -45 29 -55 0 -10 4 -20 9 -24
5 -3 12 -18 16 -33 3 -15 26 -48 50 -74 39 -42 49 -48 85 -48 37 0 42 3 55 33
8 19 21 39 29 47 9 7 16 17 16 23 0 5 11 25 25 43 14 18 25 45 25 59 0 15 6
39 14 53 7 15 18 40 22 57 6 19 18 31 34 35 14 3 31 18 38 33 11 22 11 31 2
43 -10 12 -8 14 16 14 16 0 61 10 99 21 39 11 78 23 88 26 14 4 17 13 14 30
-3 19 -1 23 11 18 9 -3 30 2 48 11 25 14 39 15 65 7 26 -7 42 -6 67 6 17 8 32
21 32 28 0 11 10 13 44 8 24 -4 53 -4 65 0 11 3 23 14 26 24 3 10 17 23 30 29
14 6 25 18 25 26 0 8 -15 27 -34 41 -32 24 -37 25 -80 14 -26 -6 -51 -20 -57
-30 -6 -12 -21 -19 -38 -19 -15 0 -36 -9 -46 -20 -10 -11 -22 -20 -27 -20 -5
0 -24 16 -42 35 -22 23 -43 35 -60 35 -14 0 -26 5 -26 10 0 6 -12 23 -26 37
-25 25 -26 27 -8 40 10 7 32 13 49 13 18 0 46 5 63 11 17 6 34 20 37 30 4 11
1 27 -6 35 -9 11 -22 14 -46 9 -19 -3 -33 -2 -33 4 0 5 5 11 12 13 9 3 9 6 1
11 -7 4 -21 -3 -32 -15 -12 -12 -21 -30 -21 -40 0 -11 -7 -18 -18 -18 -10 0
-23 5 -29 11 -7 7 -5 22 8 49 11 22 19 53 19 70 0 18 -5 30 -13 30z m-71 -210
c5 0 15 -5 22 -12 9 -9 8 -16 -5 -30 -9 -10 -14 -19 -12 -21 2 -1 22 -12 44
-23 28 -15 47 -35 63 -68 12 -26 20 -51 17 -56 -3 -4 -29 -11 -58 -15 -28 -4
-65 -10 -82 -14 -30 -8 -30 -8 -24 58 4 36 10 77 14 90 6 17 4 26 -9 33 -9 5
-16 15 -16 23 0 8 8 19 18 24 9 6 22 11 28 11z m-288 -416 c8 -2 17 -4 22 -4
4 0 4 -19 -1 -41 -6 -23 -19 -53 -29 -67 -11 -13 -20 -29 -20 -34 0 -5 -12
-25 -26 -44 -17 -21 -35 -34 -49 -34 -16 0 -38 17 -68 53 -24 28 -46 59 -49
68 -4 9 -3 21 1 28 4 6 32 20 62 31 29 11 63 20 74 20 11 0 31 7 45 14 14 8
31 12 38 10z"/>
<path d="M1066 600 c-2 0 -9 -7 -16 -15 -7 -8 -18 -15 -24 -15 -6 0 -27 -14
-46 -30 -19 -16 -40 -30 -47 -30 -7 0 -22 -13 -35 -30 -19 -27 -27 -30 -75
-30 -53 0 -53 0 -53 -36 0 -19 -5 -44 -10 -55 -7 -12 -7 -25 -2 -36 6 -10 6
-27 0 -46 -8 -21 -7 -35 2 -53 9 -16 22 -24 40 -24 15 0 34 8 43 18 10 10 17
23 17 29 0 5 15 38 33 71 17 34 43 75 57 92 14 17 44 52 68 76 25 27 49 44 59
42 10 -2 20 -17 24 -36 5 -26 3 -35 -12 -43 -11 -5 -19 -20 -19 -34 0 -19 -5
-25 -22 -25 -15 0 -31 -12 -45 -35 -13 -19 -23 -41 -23 -48 0 -7 7 -23 16 -35
9 -13 27 -27 40 -32 13 -5 24 -15 24 -23 0 -7 -29 -25 -65 -41 -36 -15 -65
-32 -65 -36 0 -4 -21 -15 -47 -25 -27 -10 -55 -24 -64 -31 -8 -8 -20 -14 -26
-14 -5 0 -18 -9 -27 -19 -10 -11 -31 -23 -47 -26 -16 -4 -31 -11 -34 -16 -4
-5 29 -9 79 -9 47 0 88 5 91 10 3 6 16 10 28 10 12 0 36 9 52 20 17 11 42 20
57 20 17 0 44 15 74 41 32 27 55 40 73 39 14 -1 34 -2 44 -1 9 1 26 10 37 21
20 20 20 20 0 52 -11 18 -20 42 -20 54 0 13 -10 25 -25 32 -14 7 -32 12 -39
12 -8 0 -21 11 -30 25 -9 13 -16 26 -16 29 0 3 27 17 60 32 43 19 60 32 60 46
0 11 -11 23 -27 29 -28 11 -28 11 0 25 15 8 27 18 27 23 0 4 -8 15 -17 24 -10
8 -42 25 -71 36 -29 12 -54 21 -56 21z"/>
<path d="M829 590 c-25 0 -32 -6 -45 -36 -9 -20 -13 -47 -10 -60 6 -21 9 -22
37 -12 16 6 37 21 46 34 9 15 13 33 9 49 -5 20 -13 25 -37 25z"/>
</g>
</svg>
