<?xml version="1.0" standalone="no"?>
<!DOCTYPE svg PUBLIC "-//W3C//DTD SVG 20010904//EN"
 "http://www.w3.org/TR/2001/REC-SVG-20010904/DTD/svg10.dtd">
<svg version="1.0" xmlns="http://www.w3.org/2000/svg"
 width="128.000000pt" height="128.000000pt" viewBox="0 0 128.000000 128.000000"
 preserveAspectRatio="xMidYMid meet">
<metadata>
Created by potrace 1.16, written by Peter Selinger 2001-2019
</metadata>
<g transform="translate(0.000000,128.000000) scale(0.100000,-0.100000)"
fill="#000000" stroke="none">
<path d="M762 1250 c-21 0 -42 -4 -47 -9 -6 -5 -43 -20 -84 -35 -41 -14 -87
-26 -102 -26 -15 0 -39 -4 -53 -10 -14 -5 -26 -16 -26 -24 0 -8 17 -28 37 -45
21 -17 53 -34 73 -37 19 -3 41 -8 49 -10 11 -3 9 -10 -9 -29 -19 -20 -34 -25
-93 -27 -39 -2 -72 -8 -74 -14 -2 -5 10 -30 26 -55 27 -41 30 -52 34 -157 4
-107 3 -114 -17 -127 -12 -7 -67 -25 -122 -39 -56 -14 -119 -31 -140 -38 -31
-11 -40 -18 -42 -41 -3 -23 2 -30 31 -42 33 -14 34 -16 41 -84 3 -39 11 -83
17 -98 7 -15 18 -44 26 -63 7 -19 19 -46 26 -60 10 -20 21 -26 56 -28 23 -2
49 2 57 9 8 6 21 26 28 43 8 17 22 51 31 76 9 25 26 78 37 119 10 41 27 90 37
110 11 20 28 44 39 54 19 18 22 18 46 2 15 -10 29 -28 32 -41 3 -12 1 -38 -4
-56 -6 -18 -14 -67 -17 -108 -5 -57 -3 -80 8 -94 10 -13 21 -17 38 -13 14 4
33 23 46 46 12 21 27 60 33 86 6 26 21 56 33 66 12 11 44 31 71 44 28 14 56
25 63 25 7 0 13 -6 13 -12 0 -7 -9 -28 -20 -46 -11 -18 -20 -41 -20 -50 0 -10
9 -28 20 -40 11 -12 20 -28 20 -36 0 -8 -18 -28 -40 -44 -23 -16 -64 -49 -92
-73 -28 -24 -65 -57 -82 -73 -17 -16 -59 -52 -93 -79 -35 -27 -63 -53 -63 -58
0 -5 24 -9 54 -9 30 0 57 4 60 9 3 5 32 24 64 41 31 18 91 58 132 89 41 32
102 72 135 91 33 18 63 38 67 44 4 6 8 28 8 49 0 21 -5 47 -11 58 -5 11 -22
24 -36 30 -21 8 -24 14 -18 37 3 15 9 42 12 60 4 25 -1 40 -21 67 -23 29 -33
35 -66 35 -21 0 -52 -5 -67 -12 -15 -7 -47 -25 -70 -41 -23 -16 -46 -26 -51
-23 -5 3 -13 17 -16 30 -3 14 -2 36 4 50 7 19 17 26 37 26 16 0 48 6 73 14 31
9 50 22 62 42 14 24 15 32 4 47 -12 15 -19 16 -66 6 -48 -10 -55 -10 -67 7 -9
13 -12 33 -7 64 3 25 13 67 22 94 14 45 14 52 -1 79 -9 16 -17 36 -17 45 0 9
14 35 30 56 17 22 30 52 30 67 0 15 -3 35 -6 44 -4 8 -19 22 -35 30 -15 8 -45
15 -67 15z m-89 -392 c15 -2 23 -13 29 -38 4 -19 4 -51 1 -70 -3 -19 -13 -40
-22 -47 -9 -7 -29 -13 -44 -13 -28 0 -28 0 -24 59 2 33 12 71 21 86 12 17 24
25 39 23z m-240 -319 c16 1 27 -4 27 -12 0 -7 -11 -28 -25 -47 -14 -19 -25
-45 -26 -59 0 -14 -8 -46 -18 -71 -12 -28 -25 -45 -35 -45 -11 0 -27 22 -46
65 -16 36 -30 77 -30 92 0 23 8 29 63 51 34 14 74 26 90 26z"/>
</g>
</svg>
