<?xml version="1.0" standalone="no"?>
<!DOCTYPE svg PUBLIC "-//W3C//DTD SVG 20010904//EN"
 "http://www.w3.org/TR/2001/REC-SVG-20010904/DTD/svg10.dtd">
<svg version="1.0" xmlns="http://www.w3.org/2000/svg"
 width="128.000000pt" height="128.000000pt" viewBox="0 0 128.000000 128.000000"
 preserveAspectRatio="xMidYMid meet">
<metadata>
Created by potrace 1.16, written by Peter Selinger 2001-2019
</metadata>
<g transform="translate(0.000000,128.000000) scale(0.100000,-0.100000)"
fill="#000000" stroke="none">
<path d="M861 1279 c-9 0 -29 -16 -45 -35 -21 -25 -35 -34 -49 -30 -10 2 -31
0 -46 -5 -14 -6 -38 -22 -53 -36 -25 -24 -30 -25 -52 -13 -22 11 -29 10 -63
-10 -26 -15 -47 -20 -70 -17 -18 3 -35 2 -38 -2 -2 -5 3 -19 13 -32 10 -13 23
-36 30 -51 9 -22 8 -30 -4 -43 -9 -8 -21 -15 -28 -15 -6 0 -17 -5 -23 -11 -6
-6 -9 -18 -6 -26 3 -8 16 -18 28 -23 19 -7 24 -19 30 -74 6 -57 4 -69 -14 -91
-11 -14 -29 -58 -41 -96 -16 -52 -20 -82 -15 -115 4 -31 2 -50 -6 -61 -7 -8
-13 -27 -14 -41 0 -15 -4 -26 -10 -25 -5 1 -12 10 -13 20 -2 10 -7 21 -11 26
-4 4 -24 1 -44 -8 -21 -8 -46 -23 -57 -33 -12 -9 -31 -18 -43 -19 -12 -1 -53
-2 -90 -4 -44 -1 -71 -6 -74 -15 -2 -6 16 -33 40 -59 41 -42 49 -46 84 -43 38
3 38 3 45 -42 3 -25 7 -72 7 -105 1 -32 8 -79 17 -102 9 -24 21 -43 26 -43 4
0 26 11 48 25 30 19 42 34 50 67 6 24 22 80 36 126 14 45 23 88 21 95 -2 7 1
23 8 37 7 14 16 46 20 72 4 26 12 51 19 56 6 5 36 14 66 21 30 6 66 13 79 16
13 2 27 8 30 14 4 5 18 14 33 20 14 5 29 7 32 4 3 -4 6 -16 6 -28 0 -11 -5
-26 -12 -33 -7 -7 -20 -12 -30 -12 -10 0 -26 -12 -35 -27 -10 -15 -24 -43 -31
-63 -7 -19 -24 -75 -38 -123 -13 -49 -24 -104 -24 -122 0 -19 4 -37 10 -40 5
-3 10 -15 10 -25 0 -10 7 -26 16 -35 16 -15 19 -14 50 16 19 18 34 38 34 45 0
6 9 23 20 37 11 14 20 36 20 49 0 12 4 28 8 35 4 6 32 28 62 48 30 20 68 44
83 52 25 13 33 12 73 -3 27 -10 44 -23 44 -33 0 -9 -23 -37 -51 -62 -45 -39
-51 -49 -45 -72 3 -14 16 -38 29 -52 13 -15 40 -30 66 -36 35 -8 48 -7 68 6
13 9 27 23 30 31 3 8 -2 23 -12 33 -9 11 -27 22 -41 25 -13 4 -24 13 -24 20 0
8 11 17 24 20 13 3 33 21 44 40 11 19 34 42 51 50 16 9 32 24 35 34 4 11 -5
39 -20 66 -15 26 -38 53 -51 59 -18 8 -29 8 -44 -1 -10 -7 -32 -12 -47 -12
-17 0 -45 -12 -67 -30 -21 -17 -50 -33 -64 -37 -14 -3 -45 -15 -68 -25 -23
-10 -45 -23 -48 -28 -3 -6 -20 -10 -36 -10 -18 0 -32 6 -36 16 -3 9 2 31 11
51 16 33 18 34 59 28 28 -4 48 -2 59 7 13 10 20 38 26 106 5 52 14 98 19 103
5 5 63 10 128 11 66 1 138 -1 160 -5 32 -6 45 -3 65 13 19 15 23 23 15 36 -6
9 -30 27 -54 41 -37 21 -48 23 -71 13 -16 -7 -43 -8 -64 -5 -21 4 -41 3 -49
-3 -7 -6 -35 -16 -61 -22 -36 -8 -52 -8 -62 1 -8 6 -14 19 -14 29 0 9 -10 29
-21 44 -18 23 -28 27 -62 24 -25 -2 -42 2 -44 9 -3 7 6 17 19 22 13 5 49 19
81 31 32 13 69 31 82 42 14 11 25 28 25 38 0 11 -8 24 -19 29 -10 6 -21 7 -25
4 -3 -3 -15 2 -26 12 -11 10 -20 23 -20 28 0 5 25 47 56 93 40 61 54 92 52
112 -2 19 -9 28 -26 30 -13 2 -26 10 -29 18 -3 8 -13 14 -22 13z m-145 -209
c8 0 14 -9 14 -19 0 -11 -16 -39 -35 -63 -19 -23 -42 -50 -50 -59 -8 -9 -15
-18 -15 -22 0 -3 -5 -18 -10 -32 -10 -27 -10 -27 -29 -4 -10 13 -23 44 -29 68
-6 24 -8 49 -6 56 3 7 15 16 27 19 12 3 35 6 51 6 18 0 35 9 48 25 11 14 26
25 34 25z m-95 -275 c27 -1 58 -10 81 -24 24 -14 39 -32 43 -51 3 -16 1 -38
-5 -49 -6 -11 -19 -25 -30 -31 -10 -5 -29 -10 -41 -10 -12 0 -46 -14 -76 -30
-46 -26 -54 -28 -60 -15 -3 9 0 51 7 93 7 42 18 86 25 97 10 16 23 20 56 20z
m-289 -436 c9 1 19 -3 22 -8 3 -5 -4 -32 -15 -60 -12 -28 -28 -51 -35 -51 -8
0 -20 16 -28 35 -9 20 -13 42 -10 49 3 7 15 18 27 24 12 6 30 11 39 11z"/>
</g>
</svg>
