<?xml version="1.0" standalone="no"?>
<!DOCTYPE svg PUBLIC "-//W3C//DTD SVG 20010904//EN"
 "http://www.w3.org/TR/2001/REC-SVG-20010904/DTD/svg10.dtd">
<svg version="1.0" xmlns="http://www.w3.org/2000/svg"
 width="128.000000pt" height="128.000000pt" viewBox="0 0 128.000000 128.000000"
 preserveAspectRatio="xMidYMid meet">
<metadata>
Created by potrace 1.16, written by Peter Selinger 2001-2019
</metadata>
<g transform="translate(0.000000,128.000000) scale(0.100000,-0.100000)"
fill="#000000" stroke="none">
<path d="M825 1223 c-11 3 -42 -1 -70 -8 -27 -8 -53 -14 -57 -15 -5 0 -8 -7
-8 -15 0 -9 12 -20 26 -25 14 -6 38 -10 54 -10 18 0 33 -7 38 -17 5 -10 9 -53
10 -95 0 -44 -5 -83 -12 -93 -6 -9 -29 -21 -51 -27 -22 -6 -76 -11 -120 -12
-75 -2 -80 -3 -83 -24 -2 -14 3 -25 15 -29 10 -4 24 -13 31 -20 7 -7 30 -13
51 -13 20 0 46 7 57 15 10 8 33 15 51 15 28 0 33 -4 38 -33 4 -17 5 -55 3 -82
-3 -50 -3 -50 -45 -56 -23 -3 -51 -13 -61 -22 -10 -9 -28 -17 -41 -17 -12 0
-24 -6 -27 -14 -3 -7 -26 -16 -51 -20 -29 -4 -51 -2 -60 5 -10 9 -22 8 -48 -7
-33 -17 -35 -17 -54 1 -12 10 -21 31 -21 46 0 15 -4 31 -10 34 -5 3 -10 14
-10 23 0 10 -10 26 -22 37 -23 20 -23 20 4 23 14 2 32 9 38 17 7 8 9 19 5 26
-5 7 -21 9 -44 5 -20 -3 -56 -9 -81 -12 -25 -4 -52 -13 -61 -20 -10 -9 -27
-12 -45 -8 -20 4 -34 1 -42 -9 -9 -11 -21 -13 -45 -7 -18 4 -36 9 -42 10 -5 1
-16 2 -22 1 -7 0 -13 -10 -13 -21 0 -12 14 -29 34 -42 19 -12 39 -31 46 -41 8
-13 8 -22 1 -31 -6 -8 -11 -53 -10 -105 0 -50 5 -94 11 -97 5 -4 22 -1 36 6
15 6 38 17 52 24 14 6 26 22 28 34 2 12 8 22 14 22 7 0 6 5 -2 14 -6 8 -24 16
-38 18 -23 3 -27 8 -29 38 -1 19 -5 51 -8 71 -5 25 -2 39 9 48 10 8 31 11 58
8 24 -3 60 -8 82 -12 21 -3 47 -10 57 -15 14 -8 16 -16 9 -37 -4 -16 -13 -40
-19 -55 -7 -19 -18 -28 -34 -28 -12 0 -33 -7 -45 -16 -12 -8 -22 -19 -22 -25
0 -5 20 -9 44 -9 26 0 48 6 56 15 7 8 24 15 39 15 14 0 32 -4 39 -9 7 -4 34
-4 60 2 26 5 65 10 87 11 22 1 51 9 65 17 14 7 50 19 80 25 45 10 59 10 78 -2
14 -10 22 -24 22 -44 0 -16 5 -32 10 -35 6 -4 7 -24 4 -48 -4 -23 -10 -49 -14
-57 -5 -8 -3 -54 2 -102 9 -70 8 -90 -2 -103 -10 -12 -23 -15 -54 -10 -23 4
-45 11 -50 16 -6 5 -23 9 -38 9 -21 0 -28 -5 -28 -20 0 -10 9 -24 20 -30 11
-6 20 -16 20 -23 0 -7 19 -31 43 -53 23 -23 52 -45 63 -48 14 -4 28 -1 38 9 8
9 25 48 36 86 12 39 19 73 16 76 -3 3 1 18 9 33 10 20 12 36 5 60 -7 24 -5 42
5 67 8 20 15 49 15 65 0 20 -6 31 -22 38 -16 6 -18 9 -6 9 13 1 17 14 20 59 3
37 0 62 -9 73 -7 9 -10 19 -6 22 3 4 14 7 24 7 9 0 42 -24 72 -53 30 -28 77
-74 105 -101 28 -27 54 -57 57 -67 4 -11 1 -35 -5 -54 -6 -19 -19 -37 -29 -40
-10 -3 -30 -32 -45 -64 -14 -32 -33 -64 -41 -71 -8 -7 -15 -15 -15 -19 0 -3 4
-13 10 -21 7 -12 12 -12 29 4 12 11 21 25 21 33 0 7 4 13 10 13 5 0 18 17 28
38 15 31 22 37 46 34 20 -2 43 8 82 38 51 38 54 43 54 84 0 34 -6 51 -27 75
-15 17 -32 31 -39 31 -6 0 -37 19 -70 42 -32 23 -77 51 -99 63 -22 11 -41 27
-43 35 -2 10 11 22 35 32 21 9 49 18 63 19 14 2 31 0 38 -5 7 -4 25 -5 40 -1
15 4 32 11 39 17 10 8 8 19 -7 48 -11 21 -23 41 -28 44 -5 3 -33 -2 -63 -11
-30 -8 -58 -19 -64 -24 -5 -5 -17 -9 -27 -9 -10 0 -30 -7 -43 -16 -14 -9 -33
-13 -44 -9 -12 4 -26 24 -36 56 -9 27 -26 54 -36 60 -14 7 -19 19 -17 37 2 18
8 26 18 24 8 -2 30 -6 47 -9 20 -3 46 1 67 11 19 9 43 16 53 16 11 0 34 18 51
39 18 22 32 46 32 54 0 8 -14 20 -31 27 -23 10 -36 11 -48 2 -9 -6 -40 -23
-68 -37 -29 -15 -58 -23 -64 -19 -7 4 -9 32 -6 83 3 42 1 83 -4 92 -4 9 -18
23 -31 31 -13 8 -32 18 -43 21z m28 -568 c5 -9 6 -19 3 -22 -3 -3 -13 -3 -22
1 -13 5 -14 9 -3 22 11 14 13 14 22 -1z m342 -285 c8 0 15 -7 15 -15 0 -8 -7
-15 -15 -15 -8 0 -15 7 -15 15 0 8 7 15 15 15z"/>
<path d="M503 389 c-21 0 -49 -7 -63 -16 -14 -9 -37 -28 -53 -42 -19 -18 -37
-24 -61 -23 -20 2 -38 -4 -46 -13 -7 -9 -29 -15 -54 -15 -24 0 -51 -8 -65 -19
-24 -18 -24 -18 -2 -40 15 -15 28 -20 45 -15 13 3 33 1 44 -5 18 -9 24 -6 46
22 22 26 28 29 36 17 6 -10 6 -16 -1 -19 -6 -2 -15 -14 -20 -28 -8 -21 -14
-24 -38 -18 -16 3 -32 2 -35 -3 -3 -5 0 -15 8 -21 8 -7 20 -10 27 -9 8 2 15
-7 17 -19 2 -13 9 -23 16 -23 7 0 22 10 34 23 12 13 22 29 22 36 0 7 13 29 28
49 16 20 33 51 38 67 7 22 16 31 36 33 15 2 39 17 53 33 14 17 25 35 25 40 0
5 -17 9 -37 8z"/>
</g>
</svg>
