<?xml version="1.0" standalone="no"?>
<!DOCTYPE svg PUBLIC "-//W3C//DTD SVG 20010904//EN"
 "http://www.w3.org/TR/2001/REC-SVG-20010904/DTD/svg10.dtd">
<svg version="1.0" xmlns="http://www.w3.org/2000/svg"
 width="128.000000pt" height="128.000000pt" viewBox="0 0 128.000000 128.000000"
 preserveAspectRatio="xMidYMid meet">
<metadata>
Created by potrace 1.16, written by Peter Selinger 2001-2019
</metadata>
<g transform="translate(0.000000,128.000000) scale(0.100000,-0.100000)"
fill="#000000" stroke="none">
<path d="M535 1258 c-22 0 -92 -4 -156 -8 -64 -4 -131 -13 -148 -20 -18 -7
-30 -18 -28 -24 2 -6 32 -15 68 -20 41 -5 74 -5 94 2 16 6 64 14 105 17 41 4
88 14 104 22 22 12 26 17 15 24 -8 5 -32 8 -54 7z"/>
<path d="M830 1240 c-14 -1 -33 -5 -44 -11 -10 -7 -35 -8 -58 -5 -25 4 -46 2
-54 -5 -8 -6 -14 -20 -14 -30 0 -10 9 -20 20 -24 11 -3 24 -4 28 -1 5 3 22 2
37 -2 20 -6 32 -18 41 -43 7 -18 13 -51 13 -72 1 -22 -4 -39 -11 -41 -7 -2
-35 -12 -63 -21 -27 -9 -79 -21 -115 -27 -41 -6 -71 -16 -83 -29 -10 -10 -24
-19 -31 -19 -8 0 -31 -15 -51 -32 -21 -18 -55 -60 -76 -92 -22 -33 -39 -70
-39 -82 0 -13 -4 -34 -10 -48 -5 -14 -16 -26 -24 -26 -8 0 -39 10 -70 21 -36
14 -58 29 -63 43 -4 11 -7 50 -7 85 -1 64 -1 64 -43 80 -31 11 -46 12 -54 4
-6 -6 -15 -28 -21 -49 -6 -22 -11 -59 -10 -84 0 -25 4 -73 9 -106 5 -34 15
-69 23 -79 12 -14 24 -16 81 -10 60 6 69 5 88 -14 12 -12 21 -28 21 -36 0 -8
15 -24 33 -35 17 -11 41 -20 53 -20 11 0 29 12 40 28 11 15 28 52 38 82 10 30
27 70 39 89 11 18 26 57 33 85 8 28 19 72 27 98 7 26 15 49 18 52 3 3 22 1 42
-5 31 -8 43 -6 80 14 32 16 56 22 85 19 30 -3 42 -9 42 -20 0 -8 -11 -35 -25
-58 -14 -24 -35 -49 -47 -55 -11 -6 -34 -15 -50 -19 -15 -5 -48 -21 -73 -37
-37 -23 -44 -33 -45 -59 0 -17 6 -36 13 -42 6 -6 26 -14 42 -18 17 -4 40 -14
52 -21 19 -13 27 -12 66 5 24 11 48 25 51 31 4 6 18 11 32 11 16 0 28 8 36 25
6 14 14 25 17 25 3 0 12 -4 18 -8 9 -6 10 -22 4 -62 -5 -30 -17 -70 -26 -87
-13 -26 -23 -33 -45 -33 -15 0 -33 -6 -39 -14 -7 -8 -24 -17 -38 -21 -15 -3
-38 -14 -52 -24 -14 -9 -52 -27 -85 -39 -32 -12 -72 -34 -89 -48 -20 -17 -37
-24 -52 -20 -14 4 -34 -3 -55 -19 -20 -15 -47 -25 -67 -25 -19 0 -55 -11 -82
-25 -27 -13 -51 -31 -55 -40 -3 -9 -6 -27 -6 -39 0 -13 9 -35 21 -50 17 -22
28 -26 71 -26 33 0 62 7 83 20 18 11 36 27 39 35 3 8 17 15 30 15 17 0 34 12
52 35 14 19 31 35 36 35 6 0 26 14 45 31 19 16 42 29 51 27 13 -3 16 -12 14
-36 -2 -18 1 -32 6 -32 5 0 46 -36 91 -80 45 -44 90 -80 100 -80 10 0 27 17
41 41 18 33 23 57 23 113 0 58 5 81 28 128 16 31 34 58 41 61 7 2 35 -2 61
-10 32 -9 62 -28 88 -55 22 -23 39 -50 39 -63 0 -14 -12 -33 -30 -47 -17 -13
-46 -35 -64 -51 -19 -15 -39 -27 -45 -27 -6 0 -11 -7 -11 -15 0 -13 13 -14 88
-9 48 4 104 13 126 21 21 7 47 13 57 13 17 0 19 8 19 74 0 66 -3 78 -25 102
-14 15 -25 34 -25 43 -1 9 -11 28 -23 43 -13 17 -45 35 -80 46 -31 11 -68 17
-82 14 -14 -2 -38 1 -55 8 -16 7 -31 20 -34 29 -3 9 -8 34 -11 56 -4 22 -9 48
-12 58 -2 9 -12 17 -21 17 -11 1 -6 7 13 16 17 9 41 24 55 32 14 9 42 17 62
18 20 0 44 6 53 14 9 8 15 24 13 39 -3 22 -9 27 -48 33 -25 4 -63 10 -85 14
-22 3 -46 13 -52 22 -7 9 -13 28 -13 43 0 14 7 32 15 39 11 9 18 10 29 1 10
-9 16 -8 26 4 7 8 28 23 47 32 19 9 41 26 49 38 8 12 12 30 8 39 -3 9 -14 16
-23 16 -9 1 -34 13 -56 28 -26 18 -51 49 -71 87 -16 33 -41 66 -55 72 -13 7
-35 13 -49 13z m30 -880 c11 -14 20 -30 20 -37 0 -6 -4 -14 -9 -17 -5 -3 -14
8 -20 26 -6 17 -11 36 -11 42 0 6 9 0 20 -14z m-80 -23 c8 -1 16 -14 18 -28 2
-15 -5 -32 -18 -44 -18 -16 -23 -17 -45 -5 -14 7 -25 19 -25 26 0 7 12 22 28
33 15 11 34 20 42 18z"/>
</g>
</svg>
