<?xml version="1.0" standalone="no"?>
<!DOCTYPE svg PUBLIC "-//W3C//DTD SVG 20010904//EN"
 "http://www.w3.org/TR/2001/REC-SVG-20010904/DTD/svg10.dtd">
<svg version="1.0" xmlns="http://www.w3.org/2000/svg"
 width="128.000000pt" height="128.000000pt" viewBox="0 0 128.000000 128.000000"
 preserveAspectRatio="xMidYMid meet">
<metadata>
Created by potrace 1.16, written by Peter Selinger 2001-2019
</metadata>
<g transform="translate(0.000000,128.000000) scale(0.100000,-0.100000)"
fill="#000000" stroke="none">
<path d="M757 1257 c-18 2 -35 1 -39 -3 -5 -4 -8 -16 -8 -26 0 -10 14 -37 30
-60 17 -22 30 -47 30 -54 0 -7 -7 -20 -16 -28 -8 -9 -30 -16 -49 -16 -18 0
-40 -3 -49 -6 -9 -3 -16 -11 -16 -18 0 -6 12 -24 26 -41 19 -22 24 -36 19 -55
-4 -14 -9 -45 -12 -69 -5 -39 -2 -46 23 -66 25 -20 27 -25 16 -46 -6 -13 -21
-36 -33 -51 -15 -19 -22 -42 -23 -76 -1 -40 -6 -55 -28 -77 -16 -15 -28 -36
-28 -47 0 -10 -9 -37 -20 -59 -19 -36 -20 -43 -6 -82 8 -23 25 -62 38 -86 12
-24 31 -49 41 -55 13 -8 25 -7 48 7 17 9 41 17 53 17 13 0 38 11 57 25 19 13
57 35 84 49 28 14 69 32 92 40 37 13 43 13 56 -2 8 -9 21 -30 29 -46 12 -22
13 -37 5 -63 -6 -18 -16 -33 -23 -33 -7 0 -19 -8 -26 -18 -7 -11 -32 -22 -56
-26 -23 -3 -93 -27 -155 -52 -62 -25 -122 -52 -134 -60 -12 -7 -29 -14 -36
-14 -8 0 -28 -14 -46 -31 -32 -30 -32 -30 66 -26 54 3 115 8 136 12 20 4 40
11 43 16 3 5 19 9 36 9 16 0 41 9 55 20 13 10 49 28 79 40 30 11 66 20 80 20
16 0 37 12 55 31 27 29 28 34 28 129 -1 93 -3 102 -29 138 -15 22 -45 49 -65
62 -32 20 -44 22 -103 16 -45 -5 -80 -15 -110 -34 -25 -15 -54 -36 -66 -48
-11 -12 -36 -29 -54 -38 -28 -14 -37 -15 -60 -4 -20 10 -27 21 -28 43 -1 17
-5 37 -8 47 -5 10 0 24 11 37 10 12 20 31 23 44 4 16 14 23 35 24 17 1 59 7
94 12 35 6 82 17 105 25 39 14 41 16 38 53 -1 21 -5 44 -7 50 -2 7 -22 15 -43
19 -22 3 -45 10 -52 14 -10 6 -8 15 11 38 13 17 33 32 44 34 15 2 20 11 21 33
0 20 -9 39 -27 58 -15 15 -35 27 -43 27 -9 0 -16 8 -16 20 0 12 10 24 23 30
12 5 39 11 60 15 28 4 37 11 37 25 0 13 7 20 19 20 15 0 21 10 26 40 4 21 4
44 0 50 -4 7 -21 9 -44 5 -20 -3 -49 -2 -63 4 -15 6 -34 23 -42 38 -8 15 -28
38 -46 51 -17 13 -46 26 -63 29z m118 -587 c8 0 15 -4 15 -10 0 -5 -7 -10 -15
-10 -8 0 -15 5 -15 10 0 6 7 10 15 10z"/>
<path d="M444 1250 c-7 0 -26 -12 -43 -26 -17 -14 -31 -31 -31 -36 0 -6 11
-26 24 -43 16 -21 23 -40 19 -54 -3 -11 0 -28 7 -36 7 -8 10 -21 7 -28 -3 -7
-1 -55 5 -107 5 -51 6 -100 2 -109 -4 -9 -9 -29 -11 -46 -2 -16 -5 -91 -6
-165 -1 -74 -5 -140 -10 -147 -4 -6 3 -23 17 -40 23 -28 23 -28 -9 -45 -31
-16 -34 -16 -48 0 -8 9 -18 27 -21 39 -4 12 -23 32 -42 43 -27 17 -34 28 -34
53 0 17 7 39 16 49 13 14 14 21 5 32 -9 11 -9 25 -2 53 7 27 7 50 0 78 -6 22
-16 46 -22 54 -8 10 -7 16 4 25 14 10 13 18 -3 74 -12 40 -24 62 -34 62 -8 0
-17 7 -20 15 -3 8 -24 20 -45 26 -34 11 -42 10 -59 -6 -11 -10 -20 -26 -20
-37 0 -10 4 -18 9 -18 5 0 14 -15 21 -32 8 -18 19 -40 26 -48 7 -9 16 -45 19
-80 3 -36 7 -76 7 -90 1 -14 -1 -47 -4 -73 -3 -27 -10 -53 -17 -60 -6 -6 -11
-22 -11 -34 0 -13 -7 -35 -16 -48 -15 -22 -15 -25 -1 -31 9 -3 20 -3 26 0 5 4
12 2 16 -3 3 -6 -8 -17 -25 -26 -25 -13 -29 -19 -20 -30 6 -8 10 -24 8 -37 -3
-21 0 -23 37 -20 31 3 47 12 73 40 34 37 34 37 58 7 13 -16 24 -40 24 -52 0
-12 5 -25 10 -28 6 -4 17 -21 26 -38 8 -18 20 -42 27 -55 7 -12 18 -21 26 -20
8 2 22 17 31 33 9 17 22 62 29 100 7 39 15 85 18 103 3 17 9 32 13 32 4 0 12
30 17 68 6 40 6 99 1 147 -5 44 -8 114 -8 155 0 41 2 86 3 99 1 17 -5 29 -21
37 -12 6 -26 14 -30 18 -4 5 8 6 27 4 35 -3 35 -3 48 67 9 48 10 80 3 105 -5
20 -26 58 -46 83 -20 26 -42 47 -50 47z m-230 -691 c5 1 18 -6 28 -16 10 -9
18 -20 18 -25 0 -4 -11 -8 -23 -8 -13 0 -32 9 -41 19 -13 15 -14 20 -4 24 7 3
17 6 22 6z m198 -277 c6 -6 8 -18 4 -28 -5 -13 -10 -14 -18 -6 -6 6 -8 18 -4
28 5 13 10 14 18 6z"/>
</g>
</svg>
