<?xml version="1.0" standalone="no"?>
<!DOCTYPE svg PUBLIC "-//W3C//DTD SVG 20010904//EN"
 "http://www.w3.org/TR/2001/REC-SVG-20010904/DTD/svg10.dtd">
<svg version="1.0" xmlns="http://www.w3.org/2000/svg"
 width="128.000000pt" height="128.000000pt" viewBox="0 0 128.000000 128.000000"
 preserveAspectRatio="xMidYMid meet">
<metadata>
Created by potrace 1.16, written by Peter Selinger 2001-2019
</metadata>
<g transform="translate(0.000000,128.000000) scale(0.100000,-0.100000)"
fill="#000000" stroke="none">
<path d="M565 1280 c-28 0 -35 -4 -35 -19 0 -11 17 -33 37 -50 36 -29 37 -32
35 -93 -2 -58 -5 -65 -37 -95 -19 -18 -35 -38 -35 -46 0 -8 -9 -22 -19 -31
-11 -10 -23 -32 -27 -49 -3 -17 -15 -38 -26 -46 -10 -9 -30 -47 -43 -86 -14
-38 -25 -83 -25 -98 0 -15 -6 -40 -14 -55 -7 -15 -19 -55 -27 -89 -7 -35 -16
-63 -20 -63 -4 0 -11 35 -15 77 -4 43 -7 101 -7 128 1 28 4 80 8 116 6 52 4
73 -9 97 -9 18 -21 32 -26 32 -5 0 -16 13 -24 29 -9 16 -22 31 -31 34 -8 4
-22 4 -30 1 -8 -4 -15 -15 -15 -26 0 -10 13 -43 30 -72 27 -50 29 -59 26 -152
-1 -55 2 -157 6 -229 7 -95 16 -149 34 -199 13 -39 30 -73 36 -77 7 -4 20 -3
29 2 10 5 21 15 26 22 4 6 11 46 15 87 4 41 10 91 12 110 2 19 13 78 24 130
11 52 32 121 47 152 14 31 27 69 29 85 2 16 12 46 23 68 10 21 23 37 28 36 6
-1 9 -29 9 -64 -1 -34 -3 -76 -5 -94 -3 -17 -7 -35 -11 -38 -4 -4 -4 -13 -1
-21 3 -8 11 -14 18 -14 8 0 15 7 17 16 2 9 20 22 40 29 20 6 41 9 48 5 7 -5 8
-15 1 -33 -6 -15 -17 -27 -25 -27 -7 0 -36 -19 -62 -43 -27 -23 -68 -55 -91
-70 -24 -15 -43 -32 -43 -38 0 -6 14 -25 31 -42 31 -31 31 -31 108 51 42 46
81 82 88 82 8 0 13 -29 15 -86 2 -47 -1 -89 -6 -94 -5 -5 -24 1 -45 16 -19 13
-39 24 -43 24 -5 0 -8 -7 -8 -15 0 -8 24 -32 54 -54 30 -22 64 -54 76 -71 12
-17 30 -30 42 -30 19 0 20 4 14 58 -3 31 -11 119 -16 196 -9 120 -9 141 5 156
8 9 15 22 15 28 0 6 8 17 18 24 10 7 32 33 48 58 16 25 33 48 39 52 5 4 16 8
24 8 10 0 12 -9 8 -37 -3 -21 -11 -69 -17 -107 -12 -69 -12 -69 30 -153 28
-55 45 -104 49 -141 4 -36 2 -74 -6 -101 -7 -25 -22 -54 -33 -66 -11 -12 -20
-26 -20 -32 0 -6 -11 -18 -25 -27 -13 -9 -46 -28 -72 -43 -26 -14 -70 -45 -98
-68 -27 -23 -66 -49 -86 -58 -20 -9 -42 -24 -50 -33 -13 -16 -10 -17 28 -12
23 3 52 15 64 27 13 12 29 21 36 21 8 0 46 21 86 48 40 26 81 52 92 58 11 6
24 20 30 32 5 12 17 22 27 22 9 0 30 17 46 38 16 20 40 57 52 82 12 25 26 53
31 62 5 10 9 36 9 58 0 22 -8 59 -17 82 -9 24 -36 70 -60 103 -24 32 -43 66
-43 75 0 8 8 35 16 60 9 25 22 75 30 112 12 62 11 71 -6 112 -11 24 -28 46
-39 49 -11 3 -26 0 -34 -7 -8 -6 -23 -27 -33 -46 -10 -19 -32 -50 -48 -67 -17
-18 -35 -33 -41 -33 -7 0 -26 18 -44 40 -17 22 -38 40 -45 40 -8 0 -17 7 -20
16 -4 9 -2 22 4 29 6 7 23 18 38 24 15 6 53 20 85 31 41 15 57 27 57 39 0 10
-6 24 -14 30 -9 8 -28 10 -50 5 -20 -3 -47 -15 -61 -26 -14 -11 -35 -18 -47
-16 -20 3 -24 11 -28 55 -4 36 -13 60 -29 77 -14 14 -30 26 -38 26 -7 0 -13 5
-13 10 0 6 -16 10 -35 10z m98 -283 c7 -2 13 -30 15 -75 3 -69 2 -72 -22 -78
-14 -3 -30 -3 -36 1 -6 4 -8 14 -4 24 4 9 6 26 6 38 -1 12 5 38 14 58 8 20 20
35 27 32z m47 -177 c10 0 21 -4 24 -8 2 -4 1 -14 -3 -21 -7 -10 -13 -11 -30
-2 -12 7 -19 16 -16 22 4 5 15 9 25 9z"/>
<path d="M299 1200 c-5 0 -9 -10 -9 -22 1 -13 11 -42 23 -64 12 -23 33 -58 45
-78 13 -20 30 -36 36 -36 7 0 21 8 30 19 12 13 15 27 10 47 -3 16 -18 46 -32
67 -14 21 -41 45 -60 53 -19 8 -38 14 -43 14z"/>
</g>
</svg>
