<?xml version="1.0" standalone="no"?>
<!DOCTYPE svg PUBLIC "-//W3C//DTD SVG 20010904//EN"
 "http://www.w3.org/TR/2001/REC-SVG-20010904/DTD/svg10.dtd">
<svg version="1.0" xmlns="http://www.w3.org/2000/svg"
 width="128.000000pt" height="128.000000pt" viewBox="0 0 128.000000 128.000000"
 preserveAspectRatio="xMidYMid meet">
<metadata>
Created by potrace 1.16, written by Peter Selinger 2001-2019
</metadata>
<g transform="translate(0.000000,128.000000) scale(0.100000,-0.100000)"
fill="#000000" stroke="none">
<path d="M656 1253 c-6 2 -15 3 -21 1 -5 -1 -22 -5 -37 -8 -19 -4 -28 -13 -28
-26 0 -11 4 -20 10 -20 5 0 19 -18 30 -40 11 -21 20 -55 20 -75 0 -19 -5 -35
-11 -35 -6 0 -25 -6 -42 -14 -18 -8 -48 -20 -67 -26 -19 -7 -99 -15 -177 -17
-109 -4 -140 -8 -137 -18 3 -7 13 -16 22 -19 9 -4 28 -13 42 -21 16 -10 37
-13 59 -9 23 3 37 1 42 -8 5 -7 9 -17 9 -22 0 -5 -15 -6 -32 -4 -18 3 -39 3
-45 1 -7 -3 -13 -10 -13 -17 0 -6 20 -32 45 -56 25 -24 45 -52 45 -62 0 -10
13 -30 30 -45 17 -14 30 -30 30 -35 0 -5 -11 -13 -24 -18 -17 -6 -26 -19 -31
-46 -4 -22 -19 -49 -36 -65 -16 -15 -36 -43 -44 -63 -8 -19 -15 -38 -15 -41 0
-3 6 -5 14 -5 8 0 18 9 21 20 3 11 13 20 21 20 10 0 14 -12 14 -37 0 -21 -4
-54 -9 -73 -5 -19 -14 -48 -20 -65 -5 -16 -17 -60 -27 -97 -12 -50 -21 -69
-36 -74 -15 -4 -30 4 -59 32 -22 21 -39 48 -39 60 0 12 6 24 14 27 7 3 35 38
61 77 35 52 45 74 36 83 -8 8 -27 -6 -71 -53 -39 -42 -64 -60 -70 -54 -6 6 -6
21 -1 39 5 17 15 48 21 70 7 22 26 67 42 100 16 32 45 79 65 103 30 37 35 48
27 70 -7 19 -23 29 -64 43 -30 10 -64 18 -76 18 -11 1 -28 -7 -37 -17 -10 -10
-17 -23 -17 -29 0 -5 10 -15 22 -21 13 -6 32 -12 42 -14 10 -2 24 -11 29 -20
8 -12 7 -23 -1 -40 -7 -13 -16 -30 -21 -38 -6 -8 -27 -55 -47 -105 -20 -49
-39 -112 -41 -140 -4 -48 -2 -53 46 -111 28 -34 59 -77 69 -95 11 -19 28 -49
38 -66 11 -18 25 -35 32 -38 6 -2 18 -2 26 1 8 3 24 25 35 50 12 24 21 54 21
66 1 13 8 41 16 63 9 22 25 82 35 134 11 52 23 99 28 105 5 6 11 36 15 66 4
30 14 75 23 99 13 33 14 47 5 61 -6 10 -8 27 -5 39 3 13 0 22 -8 23 -8 1 24 4
71 7 79 6 85 8 88 29 2 16 15 28 40 39 20 8 57 25 81 36 39 19 63 22 175 22
125 0 131 1 134 21 2 14 -9 32 -33 53 -20 17 -44 31 -55 31 -10 0 -29 -4 -42
-9 -13 -5 -50 -16 -83 -26 -33 -9 -103 -37 -155 -61 -52 -25 -104 -50 -115
-56 -11 -6 -28 -16 -37 -21 -11 -8 -21 -7 -31 1 -7 6 -24 32 -37 56 -21 41
-21 46 -6 67 11 17 27 24 56 25 23 1 66 14 97 29 30 15 58 36 60 46 4 15 8 16
24 6 16 -10 21 -9 29 2 7 12 14 13 33 4 19 -9 30 -8 49 1 13 7 55 16 92 20 38
4 83 13 102 21 18 7 41 11 52 8 14 -3 26 5 42 27 12 17 19 37 16 45 -3 8 -14
15 -23 15 -10 0 -27 6 -38 14 -11 7 -36 14 -55 14 -19 1 -44 -5 -55 -12 -11
-8 -32 -13 -47 -13 -14 0 -42 -13 -61 -27 -25 -19 -45 -26 -67 -24 -28 3 -34
8 -47 48 -7 25 -19 55 -25 67 -6 12 -16 24 -22 26z"/>
<path d="M1194 1018 c-11 2 -27 -4 -34 -13 -10 -12 -11 -21 -3 -33 5 -10 22
-18 37 -20 25 -3 27 -1 24 30 -2 25 -8 34 -24 36z"/>
<path d="M806 790 c-14 0 -26 -6 -26 -12 0 -7 7 -33 15 -57 12 -33 13 -46 4
-57 -6 -8 -19 -14 -28 -14 -10 0 -28 -11 -40 -24 -23 -24 -23 -24 -1 -31 13
-4 31 0 46 10 13 9 29 13 34 10 6 -3 10 -16 10 -29 0 -13 -5 -38 -11 -55 -9
-25 -9 -42 2 -73 13 -40 13 -41 -19 -68 -18 -14 -32 -29 -32 -32 0 -3 48 -5
106 -6 103 0 105 0 115 25 5 13 9 35 9 49 0 18 -9 30 -31 42 -17 9 -42 25 -55
35 -21 16 -22 21 -12 40 7 12 15 42 18 67 4 34 9 44 20 40 8 -2 42 -5 75 -6
33 -1 67 -5 77 -9 9 -3 21 -18 26 -33 6 -15 11 -40 11 -57 0 -16 5 -61 12 -98
11 -59 10 -72 -4 -103 -9 -19 -17 -44 -17 -55 0 -10 -11 -37 -25 -59 -14 -22
-30 -40 -37 -40 -6 0 -36 7 -67 16 -31 9 -69 23 -86 30 -16 7 -51 15 -77 19
-40 6 -48 5 -48 -9 0 -9 6 -16 14 -16 8 0 43 -18 77 -40 35 -22 75 -45 88 -50
13 -6 32 -8 41 -5 13 4 25 -4 40 -25 12 -16 27 -30 35 -30 7 0 34 29 59 65 25
36 50 74 56 85 8 14 8 26 0 41 -9 16 -8 24 4 38 12 13 17 50 20 168 5 147 4
152 -19 183 -13 18 -38 41 -55 51 -17 11 -46 19 -64 19 -18 0 -53 -7 -76 -15
-23 -8 -48 -15 -56 -15 -7 0 -33 20 -57 45 -31 31 -53 45 -71 45z"/>
<path d="M581 640 c-11 0 -22 -4 -25 -8 -2 -4 -7 -52 -11 -106 -3 -55 -8 -103
-11 -108 -4 -6 -8 -37 -10 -70 -2 -38 2 -73 11 -95 13 -30 17 -34 30 -23 9 7
14 19 11 27 -4 10 2 13 22 11 27 -3 27 -3 33 82 3 47 12 101 19 120 7 19 17
39 21 45 5 5 9 17 9 27 0 10 -6 18 -14 18 -8 0 -18 -4 -21 -10 -3 -5 -15 -10
-26 -10 -16 0 -19 7 -19 50 0 43 -3 50 -19 50z"/>
</g>
</svg>
