<?xml version="1.0" standalone="no"?>
<!DOCTYPE svg PUBLIC "-//W3C//DTD SVG 20010904//EN"
 "http://www.w3.org/TR/2001/REC-SVG-20010904/DTD/svg10.dtd">
<svg version="1.0" xmlns="http://www.w3.org/2000/svg"
 width="128.000000pt" height="128.000000pt" viewBox="0 0 128.000000 128.000000"
 preserveAspectRatio="xMidYMid meet">
<metadata>
Created by potrace 1.16, written by Peter Selinger 2001-2019
</metadata>
<g transform="translate(0.000000,128.000000) scale(0.100000,-0.100000)"
fill="#000000" stroke="none">
<path d="M498 1280 c-35 0 -48 -4 -48 -14 0 -8 9 -30 20 -48 14 -24 20 -56 22
-112 3 -72 1 -79 -21 -97 -13 -11 -31 -18 -40 -17 -13 3 -16 17 -16 65 0 45
-5 66 -18 81 -10 11 -31 22 -48 24 -20 3 -34 -1 -46 -14 -16 -17 -15 -20 14
-51 31 -31 31 -33 19 -77 -6 -25 -17 -56 -25 -69 -8 -14 -10 -36 -6 -58 4 -24
13 -37 31 -44 20 -7 32 -5 53 10 15 11 34 27 41 36 7 8 20 15 30 15 10 0 20
-7 24 -15 3 -8 3 -21 0 -27 -3 -7 -35 -28 -72 -45 -37 -18 -73 -33 -81 -33 -7
0 -25 -8 -39 -19 -15 -10 -41 -22 -58 -25 -18 -4 -40 -16 -50 -27 -16 -18 -16
-20 1 -39 10 -11 29 -20 42 -20 13 0 32 -4 42 -10 10 -5 21 -16 24 -24 4 -9
-1 -48 -9 -88 -9 -40 -16 -85 -16 -101 -1 -15 7 -36 17 -47 11 -12 28 -20 39
-18 11 2 25 13 31 25 7 14 8 50 3 105 -7 81 -7 84 18 106 16 14 38 22 59 22
25 0 37 -6 45 -21 9 -15 9 -53 1 -141 -6 -66 -9 -124 -6 -129 4 -5 19 -9 36
-9 19 0 29 -5 29 -15 0 -8 4 -15 8 -15 4 0 9 8 10 18 1 9 6 46 10 82 6 55 10
65 27 68 12 2 31 -8 45 -23 13 -14 29 -25 36 -25 7 0 16 5 19 10 4 6 14 52 22
103 8 51 15 114 16 141 0 46 -4 53 -39 83 -21 18 -48 33 -59 32 -11 -1 -28 -1
-37 0 -10 1 -18 8 -18 16 0 9 21 29 48 45 26 16 53 34 60 41 11 9 10 15 -5 31
-13 15 -26 19 -51 14 -24 -3 -35 -1 -39 11 -4 10 3 22 17 33 13 10 42 24 63
31 23 7 44 22 49 35 6 13 8 30 5 38 -3 9 -18 18 -32 22 -18 4 -40 -1 -70 -17
-32 -17 -47 -21 -55 -13 -8 8 -8 23 0 54 6 23 8 56 5 73 -3 18 -11 42 -17 55
-10 18 -20 22 -60 22z m-31 -501 c6 1 14 -8 18 -19 3 -11 4 -24 1 -29 -3 -5
-23 -18 -44 -29 -27 -14 -43 -17 -55 -10 -9 5 -17 13 -17 18 0 5 19 22 43 38
23 17 47 31 54 31z m128 -69 c7 0 20 -3 29 -6 12 -5 16 -20 16 -61 0 -30 -5
-63 -10 -74 -6 -10 -19 -19 -30 -19 -10 0 -22 5 -26 12 -4 6 -6 38 -5 72 1 33
4 63 7 68 3 4 11 8 19 8z"/>
<path d="M1043 1180 c-29 0 -43 -8 -73 -40 -20 -22 -42 -40 -48 -40 -6 0 -25
-20 -43 -45 -29 -41 -34 -44 -49 -30 -9 8 -29 15 -44 15 -15 0 -29 -7 -33 -16
-3 -8 4 -26 18 -40 17 -19 23 -36 23 -67 -1 -23 -2 -61 -4 -85 -2 -30 3 -49
15 -62 10 -11 26 -20 35 -20 9 0 24 8 32 18 10 10 17 46 21 93 4 52 15 101 37
155 17 44 36 83 41 89 6 6 15 4 24 -6 11 -10 15 -40 16 -107 1 -86 3 -94 23
-102 16 -7 17 -9 4 -9 -9 -1 -20 -7 -25 -13 -4 -7 -8 -176 -9 -374 -1 -341 -2
-363 -20 -385 -12 -15 -27 -23 -41 -21 -13 2 -23 -1 -23 -6 0 -5 18 -26 40
-46 23 -21 50 -36 65 -36 15 0 31 10 41 26 15 22 16 44 9 187 -5 89 -8 218 -8
287 0 69 0 148 0 175 0 28 -1 66 -1 85 -1 19 -5 40 -9 47 -4 7 -1 22 7 35 9
14 16 49 16 88 1 36 6 97 12 136 7 52 7 77 -1 93 -9 15 -21 21 -48 21z"/>
</g>
</svg>
