<?xml version="1.0" standalone="no"?>
<!DOCTYPE svg PUBLIC "-//W3C//DTD SVG 20010904//EN"
 "http://www.w3.org/TR/2001/REC-SVG-20010904/DTD/svg10.dtd">
<svg version="1.0" xmlns="http://www.w3.org/2000/svg"
 width="128.000000pt" height="128.000000pt" viewBox="0 0 128.000000 128.000000"
 preserveAspectRatio="xMidYMid meet">
<metadata>
Created by potrace 1.16, written by Peter Selinger 2001-2019
</metadata>
<g transform="translate(0.000000,128.000000) scale(0.100000,-0.100000)"
fill="#000000" stroke="none">
<path d="M790 1250 c-36 0 -70 -7 -95 -20 -22 -11 -49 -20 -62 -20 -12 0 -33
-5 -47 -11 -19 -9 -37 -8 -83 6 -32 9 -68 22 -80 27 -12 6 -29 8 -38 4 -10 -3
-13 -11 -9 -18 4 -7 29 -45 56 -84 27 -40 60 -79 74 -89 24 -15 27 -15 51 0
14 9 39 30 56 46 16 16 41 29 54 29 13 0 34 5 45 11 18 9 24 8 35 -6 11 -16
10 -23 -7 -49 -11 -17 -29 -50 -41 -73 -11 -23 -41 -60 -65 -83 -24 -22 -54
-55 -66 -74 -13 -18 -41 -58 -63 -87 -22 -30 -46 -66 -52 -80 -6 -14 -32 -51
-57 -82 -25 -31 -46 -63 -46 -70 0 -7 -11 -24 -25 -37 -14 -13 -38 -46 -54
-74 -16 -28 -38 -60 -50 -70 -11 -11 -21 -25 -21 -31 0 -7 -17 -28 -39 -48
-21 -19 -42 -36 -47 -38 -5 -2 -22 -21 -39 -43 -16 -21 -38 -49 -48 -62 -17
-22 -17 -23 6 -39 19 -12 30 -13 48 -5 13 6 33 16 44 23 11 7 36 27 55 45 19
18 52 49 73 70 29 29 37 43 34 64 -3 22 1 28 14 28 10 0 25 10 34 22 15 22 14
23 -5 26 -11 2 -20 10 -20 17 0 8 5 17 11 20 5 4 18 0 28 -9 10 -9 22 -16 27
-16 5 0 19 -18 32 -40 12 -21 22 -48 22 -58 0 -11 18 -40 41 -66 22 -25 45
-46 49 -46 5 0 15 10 21 22 8 15 11 80 10 206 -2 129 1 188 10 198 6 8 19 14
29 14 9 0 25 -9 35 -20 10 -11 24 -20 32 -20 7 0 40 13 73 30 32 16 61 34 65
40 3 5 21 10 38 10 18 0 41 6 52 13 11 7 40 21 65 30 25 9 55 17 67 17 12 0
34 5 48 12 19 8 28 9 37 0 8 -8 8 -23 -2 -56 -9 -33 -18 -46 -31 -46 -10 0
-29 -11 -43 -25 -21 -21 -24 -32 -19 -58 6 -31 6 -32 -14 -15 -11 10 -26 18
-34 18 -8 0 -41 -20 -74 -45 -33 -25 -88 -62 -122 -81 -35 -20 -66 -40 -69
-45 -3 -6 -3 -20 0 -33 4 -17 27 -33 85 -60 44 -20 86 -36 94 -36 7 0 22 -7
33 -15 10 -8 33 -15 51 -15 25 0 35 7 52 36 13 21 19 44 16 55 -4 11 -16 26
-28 33 -12 8 -41 17 -64 21 -24 4 -46 12 -50 17 -3 6 13 28 37 48 26 22 40 41
36 48 -4 7 -2 12 3 12 6 0 11 -4 11 -10 0 -5 10 -10 23 -10 13 0 38 11 57 25
19 14 39 25 44 25 6 0 19 13 28 29 11 21 29 33 57 41 25 6 48 21 57 36 16 23
15 29 -7 97 -23 68 -26 72 -55 72 -16 1 -41 8 -54 18 -13 9 -36 17 -51 17 -15
0 -32 -7 -39 -15 -7 -8 -26 -15 -42 -15 -16 0 -39 -5 -51 -11 -12 -6 -31 -19
-42 -29 -11 -10 -36 -20 -56 -23 -20 -3 -55 -17 -78 -31 -34 -22 -47 -25 -86
-19 -31 4 -49 12 -56 25 -9 17 -4 30 26 74 20 29 46 56 56 59 12 4 23 22 30
51 7 28 30 68 58 102 26 31 69 90 96 130 39 58 47 77 39 90 -6 9 -26 25 -45
34 -20 11 -56 18 -89 18z"/>
<path d="M1097 99 c-7 -1 -30 -5 -52 -10 -22 -5 -60 -11 -85 -13 -25 -3 -60
-9 -79 -15 -19 -6 -41 -17 -50 -24 -9 -8 -29 -18 -46 -23 -23 -7 -8 -10 69
-12 64 -2 102 1 106 8 5 8 14 8 32 0 20 -10 32 -9 58 5 31 16 35 16 45 1 8
-11 27 -16 56 -16 44 1 44 1 12 29 -17 16 -36 39 -43 50 -6 12 -16 20 -23 20z"/>
</g>
</svg>
