<?xml version="1.0" standalone="no"?>
<!DOCTYPE svg PUBLIC "-//W3C//DTD SVG 20010904//EN"
 "http://www.w3.org/TR/2001/REC-SVG-20010904/DTD/svg10.dtd">
<svg version="1.0" xmlns="http://www.w3.org/2000/svg"
 width="128.000000pt" height="128.000000pt" viewBox="0 0 128.000000 128.000000"
 preserveAspectRatio="xMidYMid meet">
<metadata>
Created by potrace 1.16, written by Peter Selinger 2001-2019
</metadata>
<g transform="translate(0.000000,128.000000) scale(0.100000,-0.100000)"
fill="#000000" stroke="none">
<path d="M540 1260 c-15 0 -30 -3 -33 -7 -4 -3 -7 -14 -7 -24 0 -10 16 -53 36
-96 20 -43 46 -109 59 -148 16 -47 20 -75 14 -87 -5 -9 -29 -30 -54 -47 -26
-17 -56 -31 -68 -31 -13 0 -32 -7 -43 -15 -12 -7 -65 -23 -120 -35 -54 -11
-103 -25 -108 -30 -6 -6 -34 -10 -63 -10 -41 0 -55 -4 -60 -16 -4 -12 5 -26
28 -45 19 -16 46 -29 60 -29 14 0 60 16 102 35 42 19 83 35 92 35 14 0 14 -3
-2 -32 -10 -18 -42 -57 -71 -88 -30 -30 -68 -73 -86 -95 -18 -22 -38 -55 -46
-73 -8 -20 -19 -32 -31 -32 -12 0 -25 -12 -33 -32 -8 -18 -24 -63 -35 -99 -12
-36 -21 -75 -21 -86 0 -11 8 -27 18 -36 10 -10 26 -17 36 -17 9 0 26 5 37 11
16 8 26 5 50 -15 25 -22 36 -24 82 -20 28 2 74 7 101 9 26 2 53 8 60 14 6 5
45 14 86 21 41 7 82 18 90 25 8 7 27 15 42 19 15 3 30 16 34 29 4 12 7 28 5
36 -1 8 -12 26 -23 42 -11 15 -31 30 -44 33 -13 4 -24 11 -24 16 0 5 -18 19
-40 30 -23 11 -45 18 -50 15 -6 -3 -10 -13 -10 -21 0 -7 16 -32 36 -54 20 -22
35 -42 33 -44 -2 -2 -23 -13 -46 -25 -23 -11 -60 -21 -82 -21 -22 0 -51 -4
-65 -10 -15 -5 -68 -13 -120 -16 -61 -4 -95 -3 -100 4 -3 5 5 33 17 61 13 27
30 57 37 66 7 8 27 15 44 15 17 0 51 9 75 20 24 11 48 20 53 20 5 0 21 9 35
20 14 11 32 20 40 20 8 0 40 12 71 28 31 15 86 46 122 69 36 24 73 43 82 43
12 0 21 -13 29 -42 6 -24 24 -71 40 -106 16 -35 29 -69 29 -76 0 -8 13 -47 29
-87 16 -41 41 -105 56 -144 15 -38 34 -78 43 -87 8 -10 24 -18 34 -18 10 0 30
12 43 28 13 15 24 36 25 47 0 11 -7 33 -15 49 -8 15 -15 34 -15 41 0 7 -17 46
-37 87 -21 41 -51 103 -67 139 -15 35 -45 100 -66 144 -20 44 -48 112 -60 150
-13 39 -44 113 -70 165 -26 52 -53 116 -60 142 -7 26 -21 55 -31 64 -11 9 -19
25 -19 36 0 10 4 18 10 18 6 0 8 23 7 53 -3 46 -7 54 -37 75 -18 12 -45 22
-60 22z m110 -436 c4 -5 17 -36 28 -69 12 -33 24 -76 27 -95 6 -35 6 -35 -55
-63 -34 -15 -66 -27 -71 -27 -5 0 -17 -4 -27 -9 -9 -6 -45 -24 -80 -40 -34
-17 -67 -31 -72 -31 -6 0 -10 13 -10 29 0 21 13 43 50 82 27 29 52 61 56 71 3
10 9 18 14 18 5 0 32 23 60 52 29 29 56 61 62 71 5 11 13 15 18 11z"/>
<path d="M340 1119 c-3 0 -11 -3 -17 -6 -7 -2 -13 -13 -13 -23 0 -10 13 -32
30 -48 16 -17 43 -36 60 -44 16 -7 30 -16 30 -20 0 -5 6 -8 14 -8 8 0 30 9 50
20 19 12 37 27 39 34 3 8 3 17 0 20 -4 3 -13 6 -21 6 -8 0 -30 7 -50 16 -21 8
-55 24 -77 35 -22 10 -42 19 -45 18z"/>
<path d="M999 940 c-31 0 -59 -3 -62 -7 -4 -3 -7 -14 -7 -23 0 -10 23 -27 61
-46 34 -16 69 -40 77 -54 9 -14 28 -37 44 -52 17 -17 34 -24 47 -21 11 3 27
13 37 24 13 14 15 28 10 63 -4 25 -11 48 -15 51 -5 2 -26 7 -47 11 -22 3 -50
17 -65 30 -20 19 -36 24 -80 24z"/>
</g>
</svg>
