<?xml version="1.0" standalone="no"?>
<!DOCTYPE svg PUBLIC "-//W3C//DTD SVG 20010904//EN"
 "http://www.w3.org/TR/2001/REC-SVG-20010904/DTD/svg10.dtd">
<svg version="1.0" xmlns="http://www.w3.org/2000/svg"
 width="128.000000pt" height="128.000000pt" viewBox="0 0 128.000000 128.000000"
 preserveAspectRatio="xMidYMid meet">
<metadata>
Created by potrace 1.16, written by Peter Selinger 2001-2019
</metadata>
<g transform="translate(0.000000,128.000000) scale(0.100000,-0.100000)"
fill="#000000" stroke="none">
<path d="M475 1280 c-19 0 -35 -4 -35 -9 0 -6 4 -12 9 -16 6 -3 6 -17 -1 -36
-6 -16 -30 -46 -54 -67 -31 -25 -44 -44 -44 -62 0 -14 4 -32 9 -39 6 -9 6 -23
-1 -35 -6 -12 -20 -31 -31 -43 -12 -13 -32 -23 -47 -23 -15 0 -39 -10 -54 -21
-17 -13 -24 -25 -18 -31 5 -5 18 -9 28 -9 10 0 66 2 124 5 84 5 108 10 118 24
8 9 20 30 28 45 15 28 14 29 -31 74 -43 42 -46 48 -40 82 4 20 15 45 26 57 10
11 19 27 19 35 0 8 7 24 15 35 8 10 15 22 15 27 0 4 -16 7 -35 7z"/>
<path d="M676 1280 c-45 0 -65 -4 -69 -14 -3 -7 -17 -16 -32 -20 -15 -4 -38
-14 -51 -23 -13 -8 -24 -22 -24 -30 0 -12 8 -14 34 -9 34 6 34 6 61 -76 15
-46 36 -98 47 -115 11 -18 16 -38 12 -44 -4 -6 -25 -28 -46 -48 -22 -20 -58
-48 -81 -63 -22 -16 -49 -28 -59 -28 -10 0 -38 -10 -61 -22 -23 -12 -49 -25
-57 -30 -8 -4 -26 -13 -39 -18 -13 -6 -36 -20 -52 -31 -17 -12 -26 -25 -22
-34 3 -8 2 -15 -3 -15 -4 0 -18 10 -31 21 -22 22 -22 22 -33 -5 -8 -21 -14
-25 -34 -20 -13 3 -27 1 -30 -4 -3 -6 -3 -17 0 -26 3 -9 17 -16 31 -16 14 0
66 14 116 31 51 16 99 36 107 43 8 8 30 17 48 21 18 4 46 18 62 32 16 13 37
23 47 21 9 -2 18 -8 20 -14 2 -6 -32 -58 -75 -115 -44 -58 -87 -122 -97 -142
-9 -20 -23 -37 -30 -37 -8 0 -39 -32 -69 -72 -56 -71 -56 -71 -53 -162 2 -91
2 -91 57 -90 30 1 73 6 95 11 22 5 49 14 60 21 11 6 54 26 95 45 41 19 94 42
117 52 23 10 50 26 59 36 8 9 18 36 21 58 5 36 3 41 -18 50 -13 5 -46 15 -72
22 -27 6 -55 19 -63 26 -13 13 -9 20 25 53 21 21 52 41 69 45 17 3 47 15 68
26 21 10 46 19 55 19 10 0 27 -24 47 -67 17 -38 37 -95 45 -128 8 -34 19 -70
25 -80 5 -11 15 -40 22 -65 7 -25 23 -69 36 -97 14 -29 27 -67 31 -85 3 -18
10 -41 15 -51 5 -9 15 -17 22 -17 7 0 20 8 30 19 9 10 20 31 25 48 5 18 3 54
-6 97 -7 37 -20 82 -28 99 -8 18 -19 39 -24 47 -5 8 -30 58 -54 110 -25 52
-48 105 -52 118 -4 13 -22 57 -41 98 -19 41 -34 82 -34 90 0 8 -9 36 -21 62
-11 26 -24 56 -29 67 -5 11 -20 47 -34 80 -13 33 -35 94 -47 135 -12 41 -28
92 -37 112 -12 30 -12 41 -3 52 7 8 26 18 42 21 16 4 29 11 29 16 0 5 -29 9
-64 9z m39 -460 c6 0 18 -23 27 -52 15 -43 15 -55 4 -82 -7 -17 -22 -39 -33
-48 -10 -10 -57 -35 -103 -57 -47 -22 -98 -50 -115 -61 -16 -11 -40 -20 -52
-20 -14 0 -23 6 -23 15 0 8 8 15 18 15 9 0 61 48 114 108 54 59 110 124 125
144 15 21 33 37 38 38z m-305 -375 c22 -1 49 -9 58 -17 9 -8 29 -22 45 -31 15
-10 27 -26 27 -35 0 -10 -10 -27 -22 -38 -13 -11 -36 -29 -52 -40 -16 -10 -40
-27 -55 -36 -14 -10 -45 -18 -69 -18 -28 0 -45 5 -48 15 -3 8 2 38 11 67 10
29 25 64 35 78 9 14 19 33 23 42 4 12 16 16 47 13z"/>
<path d="M881 1170 c-6 0 -11 -9 -11 -20 0 -10 18 -34 41 -52 22 -18 64 -64
92 -103 29 -38 61 -87 71 -108 11 -21 32 -47 47 -57 25 -19 27 -19 43 -1 9 9
16 29 16 43 0 14 -8 36 -19 49 -10 13 -30 50 -45 81 -15 31 -41 68 -57 82 -16
14 -47 33 -67 42 -20 9 -51 23 -69 30 -17 8 -36 14 -42 14z"/>
<path d="M655 90 c-11 4 -27 5 -35 2 -8 -3 -28 -16 -43 -28 -16 -13 -35 -24
-43 -24 -8 0 -14 6 -14 14 0 8 -5 18 -11 22 -6 3 -14 2 -19 -2 -4 -5 -11 -24
-15 -41 -7 -33 -7 -33 109 -33 104 0 116 2 116 18 0 9 -6 28 -13 41 -6 13 -21
27 -32 31z"/>
</g>
</svg>
