<?xml version="1.0" standalone="no"?>
<!DOCTYPE svg PUBLIC "-//W3C//DTD SVG 20010904//EN"
 "http://www.w3.org/TR/2001/REC-SVG-20010904/DTD/svg10.dtd">
<svg version="1.0" xmlns="http://www.w3.org/2000/svg"
 width="128.000000pt" height="128.000000pt" viewBox="0 0 128.000000 128.000000"
 preserveAspectRatio="xMidYMid meet">
<metadata>
Created by potrace 1.16, written by Peter Selinger 2001-2019
</metadata>
<g transform="translate(0.000000,128.000000) scale(0.100000,-0.100000)"
fill="#000000" stroke="none">
<path d="M288 1279 c-49 0 -68 -5 -83 -21 -11 -11 -39 -38 -62 -61 -24 -23
-43 -47 -43 -53 0 -6 -18 -25 -40 -43 -40 -32 -40 -32 -40 -112 0 -44 5 -89
11 -101 6 -11 27 -27 47 -35 20 -9 73 -20 117 -24 44 -5 97 -12 118 -15 20 -3
44 -15 51 -26 12 -16 12 -28 1 -71 -7 -29 -21 -79 -30 -112 -9 -33 -19 -78
-22 -100 -2 -22 -9 -45 -14 -51 -5 -6 -25 -58 -45 -115 -19 -57 -43 -132 -53
-166 -10 -35 -24 -69 -30 -77 -9 -11 -8 -17 4 -30 9 -9 25 -16 36 -16 10 0 28
9 39 20 11 11 24 20 28 20 5 0 17 9 27 20 19 20 19 20 49 -7 17 -16 46 -36 64
-46 19 -11 41 -16 53 -12 11 4 25 19 30 33 6 15 13 65 16 112 4 65 2 94 -10
123 -9 21 -14 45 -11 55 3 9 10 27 16 38 7 15 6 28 -2 44 -10 19 -9 27 9 51
12 15 21 31 21 35 0 3 12 18 28 33 15 16 37 39 50 53 12 14 22 32 22 41 0 8
16 34 35 58 19 24 35 49 35 55 0 7 16 26 36 43 20 18 41 30 47 28 7 -2 11 -17
10 -33 -1 -16 -3 -49 -5 -74 -3 -25 -9 -54 -15 -65 -6 -11 -21 -52 -33 -92
-19 -59 -21 -75 -10 -88 7 -8 22 -15 34 -15 11 0 26 -4 33 -8 6 -4 14 -19 18
-33 5 -20 -2 -36 -32 -75 -22 -27 -42 -57 -46 -67 -3 -9 -17 -21 -30 -26 -13
-5 -34 -24 -48 -43 -14 -18 -31 -48 -37 -67 -7 -19 -12 -48 -12 -65 0 -18 5
-37 12 -44 7 -7 30 -12 52 -12 23 0 50 7 60 15 11 8 27 15 36 15 9 0 35 16 58
36 23 20 42 44 42 55 0 11 5 30 12 42 6 12 24 34 40 49 15 14 28 33 28 42 0 9
20 41 45 72 25 30 45 61 45 68 0 7 9 21 20 31 12 11 20 31 20 51 0 18 4 35 9
39 6 3 15 -3 20 -13 6 -11 7 -22 4 -26 -4 -3 0 -17 7 -31 10 -19 11 -30 2 -48
-7 -12 -18 -47 -26 -77 -8 -30 -21 -68 -30 -85 -9 -16 -16 -36 -16 -44 0 -8
-11 -34 -25 -58 -14 -23 -30 -43 -35 -43 -6 0 -10 -9 -10 -20 0 -12 7 -34 15
-49 11 -22 28 -33 70 -46 53 -17 57 -17 98 0 23 9 49 20 57 25 8 4 16 19 18
34 2 15 -6 47 -18 71 -14 30 -30 47 -46 51 -17 4 -24 13 -24 29 0 12 7 28 15
35 8 7 15 22 15 34 0 12 11 41 24 66 20 38 22 48 11 63 -10 14 -9 24 7 56 12
24 18 54 16 78 -3 38 -3 38 -116 45 -62 3 -127 12 -143 19 -28 11 -30 15 -24
50 4 22 2 46 -5 59 -9 17 -8 26 5 46 9 14 15 37 13 52 -2 21 -11 29 -35 37
-25 7 -33 15 -33 32 0 12 16 51 35 86 19 35 35 70 35 78 0 8 -11 27 -24 44
-21 26 -27 29 -52 20 -16 -6 -35 -23 -43 -40 -7 -17 -24 -41 -37 -55 -12 -14
-26 -37 -29 -53 -4 -15 -20 -37 -36 -48 -16 -11 -36 -34 -45 -50 -8 -16 -45
-60 -82 -98 -37 -37 -82 -78 -100 -91 -19 -12 -37 -19 -42 -14 -5 5 -2 26 5
47 12 35 11 40 -5 55 -10 10 -26 23 -35 30 -8 7 -12 18 -8 25 4 6 7 23 7 37 1
20 7 26 29 28 25 3 28 1 25 -25 -3 -24 1 -28 22 -28 19 0 25 5 23 20 -1 11 5
24 13 28 8 4 14 16 14 26 0 11 -10 21 -22 25 -13 3 -40 6 -60 6 -20 0 -42 2
-50 5 -9 4 -12 18 -10 46 3 22 -1 46 -7 52 -6 6 -11 25 -11 42 0 16 -5 47 -11
67 -5 21 -21 50 -34 64 -14 15 -25 33 -25 40 0 10 -16 14 -62 13z m-28 -161
c8 1 25 -1 37 -4 12 -3 26 -18 31 -32 5 -15 10 -36 9 -47 0 -11 3 -30 7 -42 7
-21 4 -23 -32 -23 -23 0 -49 8 -63 19 -13 10 -39 26 -56 35 -23 12 -33 24 -33
40 0 13 6 28 13 34 6 6 26 12 42 15 17 2 37 5 45 5z m689 -598 c22 0 42 -4 46
-9 3 -5 -9 -17 -26 -25 -18 -9 -38 -16 -46 -16 -7 0 -13 11 -13 25 0 22 4 25
39 25z"/>
</g>
</svg>
