<?xml version="1.0" standalone="no"?>
<!DOCTYPE svg PUBLIC "-//W3C//DTD SVG 20010904//EN"
 "http://www.w3.org/TR/2001/REC-SVG-20010904/DTD/svg10.dtd">
<svg version="1.0" xmlns="http://www.w3.org/2000/svg"
 width="128.000000pt" height="128.000000pt" viewBox="0 0 128.000000 128.000000"
 preserveAspectRatio="xMidYMid meet">
<metadata>
Created by potrace 1.16, written by Peter Selinger 2001-2019
</metadata>
<g transform="translate(0.000000,128.000000) scale(0.100000,-0.100000)"
fill="#000000" stroke="none">
<path d="M696 1280 c-13 0 -26 -4 -28 -8 -1 -4 -23 -23 -48 -42 -24 -19 -58
-47 -75 -62 -16 -16 -34 -28 -38 -28 -5 0 -49 -42 -98 -92 -50 -51 -101 -106
-114 -123 -12 -16 -25 -45 -28 -62 -4 -18 -4 -40 -1 -48 4 -9 21 -23 38 -33
17 -9 49 -17 71 -17 40 0 40 0 37 -47 -2 -25 1 -56 7 -67 9 -16 8 -29 -3 -56
-8 -19 -19 -35 -24 -35 -5 0 -12 -9 -15 -20 -3 -11 -11 -20 -19 -20 -8 0 -25
-15 -39 -33 -13 -17 -28 -39 -34 -48 -5 -9 -29 -41 -53 -70 -23 -30 -46 -59
-50 -64 -4 -6 -15 -25 -24 -42 -10 -17 -18 -43 -18 -57 0 -15 8 -30 20 -36 10
-6 42 -12 69 -14 38 -4 65 -15 110 -46 34 -22 61 -47 61 -54 0 -8 6 -18 13
-24 10 -8 20 -5 40 14 20 19 27 34 27 64 0 21 -5 42 -10 45 -6 4 -7 13 -1 23
4 9 7 49 6 87 -1 39 -3 85 -4 103 -1 21 -6 32 -16 32 -8 0 -15 7 -15 15 0 8 7
15 15 15 12 0 15 12 14 55 -2 55 -2 55 79 133 44 42 109 105 145 140 36 34 68
62 71 62 3 0 6 -12 6 -27 0 -16 3 -39 7 -51 4 -16 21 -30 49 -43 24 -10 44
-24 44 -30 0 -6 -9 -27 -21 -45 -11 -19 -27 -34 -34 -34 -7 0 -15 7 -19 15 -3
8 -18 15 -34 15 -17 0 -37 -9 -49 -22 -12 -13 -24 -37 -28 -55 -5 -27 -2 -34
19 -48 19 -13 29 -14 45 -5 16 8 21 8 21 -2 0 -7 -5 -83 -11 -168 -6 -85 -16
-161 -21 -167 -6 -7 -10 -40 -10 -74 0 -33 4 -65 10 -71 5 -5 18 -8 28 -6 13
2 21 15 24 39 4 19 15 47 26 61 16 21 30 27 84 32 36 3 80 8 99 11 19 2 41 0
48 -6 9 -8 17 -8 27 0 11 9 20 9 34 2 11 -6 22 -8 24 -5 3 2 0 19 -6 37 -6 18
-14 35 -18 37 -4 3 -16 -3 -28 -12 -18 -16 -20 -16 -20 -2 0 9 -9 27 -20 41
-12 16 -17 30 -11 37 4 6 14 29 21 51 7 22 16 44 21 50 5 5 9 26 9 47 0 30 -5
41 -23 49 -16 7 -31 6 -57 -5 -19 -8 -52 -32 -74 -53 -21 -21 -49 -55 -62 -75
-13 -21 -24 -43 -24 -49 0 -6 -8 -21 -18 -34 -18 -23 -18 -23 -14 33 2 32 10
81 18 109 8 29 11 65 8 79 -6 24 1 34 55 84 33 32 61 64 61 73 0 8 -12 29 -26
46 -14 17 -45 40 -70 50 -43 20 -44 21 -44 69 0 36 7 59 25 86 14 20 25 40 25
45 0 4 9 16 20 26 11 10 20 29 20 42 0 16 -6 23 -19 23 -11 0 -31 -4 -44 -9
-16 -6 -26 -20 -30 -40 -4 -21 -27 -50 -69 -88 -35 -32 -84 -79 -109 -105 -26
-27 -50 -48 -54 -48 -5 0 -25 -19 -45 -41 -24 -27 -42 -39 -50 -34 -8 5 -10
23 -5 63 4 30 9 61 11 67 3 7 25 27 49 44 24 17 53 31 65 31 12 0 18 4 15 10
-4 6 -12 10 -18 9 -7 -1 -20 1 -30 6 -9 4 -27 5 -38 2 -12 -3 -22 0 -25 8 -3
7 1 29 10 48 8 20 12 44 9 55 -2 11 -16 25 -29 31 -14 6 -32 11 -40 11 -8 0
19 29 60 65 41 36 78 65 83 65 5 0 18 8 29 18 10 9 36 30 57 45 20 15 37 32
37 38 0 5 -11 9 -24 9z m-266 -263 c11 -2 15 -18 16 -67 1 -36 -5 -77 -12 -91
-10 -20 -20 -26 -46 -26 -18 0 -41 7 -50 15 -10 8 -18 23 -18 32 0 9 9 25 20
35 11 10 20 22 20 28 0 5 12 24 28 43 15 18 34 32 42 31z m-23 -557 c9 0 13
-16 13 -53 0 -40 5 -60 20 -77 11 -13 18 -25 15 -28 -2 -3 -11 0 -19 7 -12 10
-16 6 -25 -22 -7 -21 -8 -43 -3 -58 5 -13 6 -35 2 -49 -3 -14 -14 -26 -24 -28
-10 -2 -23 1 -29 7 -6 6 -18 11 -27 11 -10 0 -31 7 -48 16 -18 8 -32 23 -32
33 0 9 15 48 33 86 19 39 51 89 72 113 21 23 44 42 52 42z m586 -55 c6 -11 5
-26 -1 -41 -6 -13 -14 -46 -18 -74 -5 -40 -3 -54 10 -69 16 -17 15 -19 -11
-29 -15 -5 -50 -16 -76 -23 -43 -11 -50 -10 -65 6 -16 17 -16 17 1 12 12 -5
17 -1 17 14 0 12 9 32 20 46 11 14 20 36 20 48 0 13 20 45 47 75 40 44 48 49
56 35z"/>
<path d="M529 435 c-16 4 -30 2 -34 -5 -4 -7 2 -25 14 -41 11 -15 21 -32 21
-37 0 -5 9 -17 21 -28 21 -19 21 -18 45 10 14 15 24 35 22 44 -2 9 -17 24 -33
33 -17 10 -42 21 -56 24z"/>
</g>
</svg>
