<?xml version="1.0" standalone="no"?>
<!DOCTYPE svg PUBLIC "-//W3C//DTD SVG 20010904//EN"
 "http://www.w3.org/TR/2001/REC-SVG-20010904/DTD/svg10.dtd">
<svg version="1.0" xmlns="http://www.w3.org/2000/svg"
 width="128.000000pt" height="128.000000pt" viewBox="0 0 128.000000 128.000000"
 preserveAspectRatio="xMidYMid meet">
<metadata>
Created by potrace 1.16, written by Peter Selinger 2001-2019
</metadata>
<g transform="translate(0.000000,128.000000) scale(0.100000,-0.100000)"
fill="#000000" stroke="none">
<path d="M583 1279 c-59 0 -82 -5 -94 -17 -9 -9 -46 -41 -82 -71 -36 -30 -78
-71 -93 -91 -15 -20 -39 -42 -53 -48 -14 -7 -29 -12 -34 -12 -4 0 -31 -23 -59
-52 -30 -31 -62 -78 -79 -116 -16 -35 -29 -72 -29 -82 0 -9 14 -35 31 -56 17
-22 46 -44 65 -51 26 -9 54 -9 120 -1 72 10 87 10 94 -3 5 -8 7 -21 5 -29 -3
-9 -5 -47 -6 -85 -1 -39 -3 -77 -5 -87 -3 -9 -15 -19 -29 -22 -13 -3 -33 -21
-44 -39 -11 -18 -29 -42 -41 -52 -11 -10 -20 -29 -20 -42 0 -19 -5 -23 -29
-23 -17 0 -50 -12 -75 -27 -38 -24 -45 -33 -46 -60 0 -17 7 -39 16 -47 10 -11
24 -14 42 -10 15 4 54 32 87 63 33 31 69 67 81 81 19 21 24 22 38 11 13 -11
15 -28 10 -110 -6 -79 -4 -102 10 -129 9 -18 21 -32 27 -32 6 0 19 5 30 10 10
6 26 24 35 41 13 26 14 45 5 137 -6 58 -11 133 -11 166 0 35 -8 83 -19 111
-10 28 -17 65 -16 83 2 18 6 36 9 39 3 4 9 4 12 0 3 -3 8 -25 11 -49 3 -24 10
-49 16 -56 5 -6 19 -12 31 -12 12 0 35 13 51 30 15 16 38 45 49 64 12 18 42
62 69 97 26 35 47 69 47 76 0 7 4 13 9 13 5 0 16 15 24 33 9 18 25 41 37 52
16 14 23 16 32 7 9 -9 9 -15 1 -23 -7 -7 -7 -21 2 -47 7 -20 25 -46 40 -58 27
-21 27 -21 -11 -53 -27 -22 -49 -31 -74 -31 -20 0 -43 -6 -52 -12 -8 -7 -18
-28 -22 -46 -5 -29 -2 -34 22 -44 15 -6 45 -14 67 -17 35 -5 40 -10 43 -34 2
-15 -6 -46 -17 -67 -11 -22 -18 -46 -15 -55 3 -8 -5 -28 -20 -46 -14 -17 -26
-34 -26 -38 0 -4 5 -12 10 -17 7 -7 0 -17 -20 -32 -18 -14 -30 -32 -30 -45 0
-12 7 -33 16 -45 8 -12 26 -22 39 -22 13 0 34 10 45 23 12 12 29 36 37 52 9
17 29 46 44 65 16 19 40 46 54 60 14 14 25 31 25 37 0 6 16 27 36 47 31 31 43
36 80 36 31 0 46 5 50 15 4 8 3 26 0 40 -4 14 -15 34 -26 45 -11 11 -31 20
-45 20 -14 0 -33 -8 -43 -18 -10 -9 -33 -27 -50 -39 -17 -13 -38 -23 -47 -23
-9 0 -15 9 -15 25 0 14 -5 34 -12 44 -9 15 -7 27 15 62 14 24 39 55 56 69 17
14 31 33 31 43 0 10 -7 25 -15 33 -8 8 -27 19 -42 25 -21 7 -37 26 -61 77 -18
37 -32 72 -32 78 0 6 11 21 25 34 14 13 25 27 25 32 0 4 -28 6 -62 4 -35 -2
-66 -4 -70 -5 -4 -1 -27 -31 -51 -68 -24 -38 -51 -74 -60 -82 -9 -7 -17 -20
-17 -28 0 -7 -7 -16 -15 -19 -8 -3 -39 6 -70 21 -43 22 -55 32 -55 51 0 13 5
35 12 48 9 22 8 29 -8 47 -10 12 -39 30 -64 41 -24 10 -50 24 -57 30 -11 9 0
19 49 46 35 19 71 41 80 49 9 8 31 23 50 34 18 10 48 27 66 36 17 9 32 23 32
30 0 10 -20 13 -77 12z m-234 -241 c8 -2 30 -25 49 -52 30 -43 33 -52 22 -70
-10 -16 -10 -22 6 -33 10 -7 21 -13 25 -13 4 0 10 -8 14 -17 4 -12 -1 -24 -17
-36 -22 -19 -22 -19 -1 -35 11 -10 24 -27 28 -39 5 -18 14 -23 41 -23 22 0 37
-6 40 -15 4 -8 1 -21 -5 -29 -6 -7 -10 -24 -9 -37 3 -20 -2 -24 -30 -27 -22
-2 -34 2 -38 12 -4 9 -1 23 6 31 6 8 9 23 5 35 -5 16 -13 20 -26 17 -11 -3
-35 4 -54 16 -21 14 -34 30 -35 43 0 19 -8 22 -57 28 -32 4 -78 10 -103 13
-25 3 -49 9 -54 14 -6 5 -1 20 12 39 12 16 22 33 22 38 0 5 16 27 36 50 19 23
41 42 48 42 7 0 23 11 36 25 13 14 31 24 39 23z m567 -278 c8 0 14 -4 14 -10
0 -5 -9 -10 -21 -10 -11 0 -17 5 -14 10 3 6 13 10 21 10z"/>
<path d="M735 1280 c-16 0 -25 -6 -25 -15 0 -9 7 -18 16 -22 9 -3 20 0 25 8 5
8 9 17 9 22 0 4 -11 7 -25 7z"/>
<path d="M957 1200 c-7 0 -19 -4 -27 -10 -12 -8 -12 -10 3 -16 9 -3 24 -3 33
0 8 3 12 10 9 16 -3 5 -12 10 -18 10z"/>
<path d="M853 1100 c-10 0 -29 -6 -42 -13 -13 -6 -23 -16 -23 -22 1 -5 7 -11
15 -13 7 -2 26 2 40 7 15 6 27 17 27 26 0 8 -8 15 -17 15z"/>
<path d="M1092 410 c-10 0 -30 -13 -45 -28 -19 -19 -27 -39 -27 -62 0 -25 7
-40 26 -55 26 -21 26 -21 4 -63 -12 -23 -28 -42 -35 -42 -7 0 -33 -19 -58 -43
-25 -23 -60 -53 -78 -67 -17 -14 -44 -31 -58 -38 -23 -11 -13 -12 69 -9 72 3
105 10 138 26 27 14 42 28 42 40 0 10 8 22 18 26 9 5 27 7 38 6 14 -1 32 11
53 37 17 22 31 44 31 49 0 6 -13 29 -30 51 -16 23 -30 48 -30 55 0 7 -14 25
-31 39 -25 23 -28 30 -20 47 6 11 11 22 11 25 0 3 -8 6 -18 6z m-93 -300 c10
0 24 -7 31 -15 11 -13 8 -15 -19 -15 -21 0 -31 5 -31 15 0 8 8 15 19 15z"/>
</g>
</svg>
