<?xml version="1.0" standalone="no"?>
<!DOCTYPE svg PUBLIC "-//W3C//DTD SVG 20010904//EN"
 "http://www.w3.org/TR/2001/REC-SVG-20010904/DTD/svg10.dtd">
<svg version="1.0" xmlns="http://www.w3.org/2000/svg"
 width="128.000000pt" height="128.000000pt" viewBox="0 0 128.000000 128.000000"
 preserveAspectRatio="xMidYMid meet">
<metadata>
Created by potrace 1.16, written by Peter Selinger 2001-2019
</metadata>
<g transform="translate(0.000000,128.000000) scale(0.100000,-0.100000)"
fill="#000000" stroke="none">
<path d="M322 1280 c-71 0 -80 -2 -91 -22 -7 -13 -32 -39 -57 -58 -24 -19 -56
-52 -71 -72 -14 -21 -29 -57 -33 -80 -5 -24 -6 -71 -3 -107 5 -60 8 -66 50
-107 38 -38 51 -44 86 -44 29 0 51 -7 69 -23 26 -21 27 -24 16 -77 -6 -30 -22
-71 -36 -90 -14 -19 -55 -65 -91 -101 -51 -51 -69 -76 -79 -112 -6 -26 -12
-56 -12 -66 0 -10 7 -21 15 -25 8 -3 35 3 60 14 25 11 45 23 45 27 0 5 13 16
29 26 27 16 30 16 50 -1 12 -9 21 -28 22 -42 0 -14 -3 -54 -6 -90 -3 -36 -5
-96 -5 -134 0 -39 4 -73 11 -76 6 -4 28 -4 50 0 22 4 48 15 59 25 11 10 24 34
30 54 5 20 10 50 10 68 0 17 -3 34 -8 36 -4 3 -6 40 -5 83 1 45 -3 84 -9 92
-8 9 -8 16 0 24 8 8 12 51 12 117 0 102 1 105 33 149 17 25 44 58 60 74 15 16
27 33 27 37 0 4 14 20 30 34 17 15 30 36 30 47 0 11 9 30 19 42 11 13 38 45
60 73 23 27 39 55 37 62 -3 6 2 14 10 17 9 3 29 6 44 6 16 0 32 -5 35 -11 4
-6 -7 -28 -24 -49 -19 -24 -31 -50 -31 -68 0 -18 16 -53 40 -89 37 -57 39 -61
28 -97 -7 -23 -21 -43 -35 -49 -16 -7 -26 -7 -36 1 -8 7 -29 9 -50 5 -21 -3
-40 -10 -43 -15 -3 -5 3 -24 14 -43 12 -18 23 -53 26 -77 4 -24 2 -90 -3 -148
-5 -58 -11 -121 -14 -140 -3 -19 -10 -66 -15 -105 -5 -38 -9 -81 -8 -95 1 -21
-8 -30 -54 -52 -55 -27 -55 -27 52 -28 59 0 109 4 112 9 3 4 24 11 47 15 23 4
60 15 83 25 22 11 59 23 81 27 22 4 60 18 86 31 26 12 53 23 61 23 7 0 30 20
51 44 26 32 37 54 37 78 0 25 -10 43 -47 80 -47 48 -47 48 -25 100 12 30 22
68 22 86 0 18 -5 42 -10 53 -6 10 -15 19 -21 19 -6 0 -22 9 -36 20 -14 11 -32
20 -41 20 -8 0 -29 -12 -47 -28 -19 -15 -54 -42 -79 -60 -25 -17 -54 -32 -65
-32 -14 0 -23 9 -28 28 -4 15 -6 34 -4 42 2 8 29 44 62 81 47 53 59 73 59 100
0 19 -5 50 -10 70 -5 19 -21 45 -35 57 -14 12 -25 32 -25 45 0 13 16 56 36 95
36 70 36 70 12 111 -23 41 -23 41 -90 37 -51 -3 -74 -9 -97 -27 -17 -13 -34
-35 -37 -49 -4 -14 -29 -44 -55 -68 -26 -23 -70 -78 -98 -122 -36 -55 -58 -80
-71 -80 -13 0 -20 7 -20 20 0 12 7 32 16 45 14 22 15 33 4 90 -7 36 -25 84
-41 110 -16 25 -36 48 -45 52 -8 3 -20 17 -25 30 -6 17 -4 35 6 60 8 19 15 37
15 39 0 2 -35 4 -78 4z m-69 -169 c6 -6 8 -13 4 -17 -3 -3 -11 -3 -16 1 -6 3
-8 11 -5 17 4 6 10 6 17 -1z m48 -11 c25 0 28 -4 35 -45 3 -25 10 -48 15 -51
5 -3 9 -14 9 -24 0 -11 -9 -24 -19 -30 -11 -5 -37 -10 -57 -10 -21 0 -46 7
-56 17 -10 9 -18 30 -18 47 0 20 10 41 32 63 21 22 41 33 59 33z m44 -560 c8
0 17 -5 21 -11 3 -6 1 -16 -4 -21 -8 -8 -16 -7 -26 2 -9 7 -13 16 -10 21 3 5
11 9 19 9z m-90 -26 c9 -4 15 -15 13 -26 -2 -11 -20 -29 -41 -41 -28 -16 -40
-18 -49 -9 -8 8 -2 20 25 47 23 23 41 33 52 29z m35 -64 c11 0 22 -5 26 -11 3
-6 2 -15 -4 -21 -5 -5 -19 -7 -30 -3 -13 4 -19 12 -15 21 3 7 13 14 23 14z
m602 -10 c6 0 20 -7 30 -16 9 -9 37 -26 60 -38 23 -11 44 -27 46 -35 4 -11 -4
-13 -39 -7 -27 4 -48 15 -58 28 -8 12 -23 30 -33 40 -10 10 -18 20 -18 23 0 3
5 5 12 5z m9 -110 c12 0 35 -7 52 -15 18 -8 45 -25 60 -38 20 -16 26 -27 21
-40 -3 -10 -30 -30 -58 -44 -28 -14 -55 -32 -59 -39 -4 -8 -21 -21 -38 -29
-23 -12 -34 -13 -50 -4 -16 8 -20 17 -16 37 3 15 9 41 14 57 5 17 18 49 31 73
15 29 29 42 43 42z"/>
</g>
</svg>
