<?xml version="1.0" standalone="no"?>
<!DOCTYPE svg PUBLIC "-//W3C//DTD SVG 20010904//EN"
 "http://www.w3.org/TR/2001/REC-SVG-20010904/DTD/svg10.dtd">
<svg version="1.0" xmlns="http://www.w3.org/2000/svg"
 width="56.000000pt" height="56.000000pt" viewBox="0 0 56.000000 56.000000"
 preserveAspectRatio="xMidYMid meet">
<metadata>
Created by potrace 1.16, written by Peter Selinger 2001-2019
</metadata>
<g transform="translate(0.000000,56.000000) scale(0.100000,-0.100000)"
fill="#000000" stroke="none">
<path d="M220 560 c-16 0 -30 -5 -30 -11 0 -6 -20 -35 -45 -66 -25 -30 -45
-58 -46 -61 0 -4 -2 -18 -3 -31 -2 -13 -10 -28 -20 -33 -9 -5 -23 -26 -32 -46
-12 -28 -15 -58 -11 -125 4 -65 12 -102 29 -135 20 -41 27 -47 59 -50 28 -2
44 4 77 30 22 18 41 39 41 46 1 6 5 12 11 12 5 0 27 27 50 59 22 33 40 67 40
75 0 9 5 16 10 16 6 0 10 7 10 15 0 8 5 25 12 38 6 12 14 28 18 36 3 8 11 16
17 18 7 3 18 -11 26 -29 8 -18 22 -50 32 -71 11 -26 22 -37 33 -35 11 2 18 15
20 36 2 19 -4 43 -15 60 -11 15 -29 48 -42 74 -13 26 -32 55 -42 64 -10 9 -25
14 -34 11 -11 -5 -15 -21 -15 -57 0 -28 -4 -59 -10 -70 -6 -11 -15 -29 -20
-40 -6 -11 -10 -25 -11 -32 0 -7 -22 -40 -48 -73 -26 -33 -71 -79 -100 -103
-29 -23 -57 -40 -62 -37 -5 4 -16 22 -24 42 -9 22 -15 68 -15 120 0 54 5 94
15 112 10 20 27 32 60 41 33 9 45 18 45 31 0 11 -5 28 -12 38 -10 16 -6 27 25
70 20 28 37 53 37 56 0 3 -13 5 -30 5z"/>
</g>
</svg>
