<?xml version="1.0" standalone="no"?>
<!DOCTYPE svg PUBLIC "-//W3C//DTD SVG 20010904//EN"
 "http://www.w3.org/TR/2001/REC-SVG-20010904/DTD/svg10.dtd">
<svg version="1.0" xmlns="http://www.w3.org/2000/svg"
 width="56.000000pt" height="56.000000pt" viewBox="0 0 56.000000 56.000000"
 preserveAspectRatio="xMidYMid meet">
<metadata>
Created by potrace 1.16, written by Peter Selinger 2001-2019
</metadata>
<g transform="translate(0.000000,56.000000) scale(0.100000,-0.100000)"
fill="#000000" stroke="none">
<path d="M383 538 c-6 2 -26 -10 -44 -26 -19 -17 -29 -34 -25 -40 4 -7 18 -12
31 -12 13 0 28 -6 32 -14 4 -8 31 -43 58 -77 28 -34 60 -73 72 -86 12 -12 29
-23 38 -23 8 0 15 9 15 20 0 11 -7 28 -15 37 -8 10 -45 63 -82 117 -38 55 -73
102 -80 104z"/>
<path d="M90 480 c-28 0 -51 -3 -51 -7 -1 -5 0 -16 1 -26 1 -10 -5 -29 -14
-41 -8 -13 -18 -54 -21 -92 -4 -40 -2 -102 5 -148 6 -44 19 -94 28 -113 8 -18
24 -35 34 -38 9 -4 37 3 60 13 24 11 56 33 72 51 17 17 36 31 43 31 9 0 13
-15 13 -50 0 -46 2 -50 24 -50 14 0 28 5 31 11 4 6 1 31 -5 56 -7 24 -21 50
-30 55 -16 10 -16 13 2 49 10 21 18 51 18 67 0 15 4 32 9 38 5 5 11 39 13 77
2 37 0 67 -4 67 -4 0 -11 0 -15 0 -5 0 -11 -26 -15 -57 -4 -32 -10 -72 -13
-90 -4 -17 -21 -60 -39 -95 -27 -54 -38 -66 -80 -86 -27 -13 -54 -21 -61 -18
-7 2 -18 28 -24 56 -6 28 -11 95 -11 150 0 97 0 99 29 119 16 12 36 21 43 21
8 0 18 3 21 6 3 4 2 15 -4 25 -7 15 -21 19 -59 19z"/>
</g>
</svg>
