<?xml version="1.0" standalone="no"?>
<!DOCTYPE svg PUBLIC "-//W3C//DTD SVG 20010904//EN"
 "http://www.w3.org/TR/2001/REC-SVG-20010904/DTD/svg10.dtd">
<svg version="1.0" xmlns="http://www.w3.org/2000/svg"
 width="56.000000pt" height="56.000000pt" viewBox="0 0 56.000000 56.000000"
 preserveAspectRatio="xMidYMid meet">
<metadata>
Created by potrace 1.16, written by Peter Selinger 2001-2019
</metadata>
<g transform="translate(0.000000,56.000000) scale(0.100000,-0.100000)"
fill="#000000" stroke="none">
<path d="M187 560 c-16 0 -29 -13 -49 -53 -16 -29 -28 -60 -28 -68 0 -9 -9
-28 -20 -42 -11 -14 -20 -30 -20 -36 0 -7 -8 -28 -18 -49 -10 -20 -24 -62 -31
-92 -12 -52 -11 -61 12 -129 14 -40 28 -75 31 -78 3 -3 26 -8 52 -11 34 -3 56
0 78 12 17 10 41 33 54 53 13 20 34 63 48 96 13 33 24 67 24 74 0 8 9 33 20
55 11 23 20 47 20 53 0 6 6 23 13 38 6 15 17 25 22 24 6 -2 15 -14 22 -28 6
-13 16 -49 23 -79 6 -30 16 -76 22 -102 9 -37 9 -50 -2 -63 -7 -8 -18 -15 -24
-14 -6 1 -30 1 -53 0 -36 -1 -44 -5 -56 -31 -9 -16 -18 -43 -22 -60 -6 -28 -5
-30 24 -30 30 0 31 1 31 45 0 40 3 45 23 46 12 0 51 1 87 2 65 2 65 2 63 37
-2 19 -5 51 -7 70 -2 19 -14 53 -27 74 -14 25 -22 52 -21 75 2 29 -4 43 -27
65 -20 20 -37 27 -57 24 -21 -2 -34 -14 -54 -48 -14 -25 -32 -61 -40 -80 -7
-19 -32 -76 -56 -126 -26 -55 -56 -102 -75 -118 -17 -15 -39 -26 -48 -24 -9 2
-21 19 -28 38 -7 19 -12 68 -12 109 -1 64 3 81 32 134 17 34 51 81 74 105 28
30 40 51 37 65 -2 11 -9 24 -15 28 -7 4 -9 14 -6 23 5 12 0 16 -16 16z"/>
</g>
</svg>
