<?xml version="1.0" standalone="no"?>
<!DOCTYPE svg PUBLIC "-//W3C//DTD SVG 20010904//EN"
 "http://www.w3.org/TR/2001/REC-SVG-20010904/DTD/svg10.dtd">
<svg version="1.0" xmlns="http://www.w3.org/2000/svg"
 width="56.000000pt" height="56.000000pt" viewBox="0 0 56.000000 56.000000"
 preserveAspectRatio="xMidYMid meet">
<metadata>
Created by potrace 1.16, written by Peter Selinger 2001-2019
</metadata>
<g transform="translate(0.000000,56.000000) scale(0.100000,-0.100000)"
fill="#000000" stroke="none">
<path d="M197 530 c-21 0 -47 -10 -70 -27 -20 -16 -41 -41 -48 -56 -8 -19 -9
-35 -2 -50 8 -17 5 -34 -14 -75 -13 -28 -27 -52 -32 -52 -5 0 -14 -14 -20 -30
-5 -17 -8 -56 -5 -88 5 -47 11 -63 40 -92 31 -33 38 -35 77 -30 23 3 57 16 75
29 17 14 32 31 32 38 0 7 4 13 10 13 5 0 21 25 35 56 21 46 26 71 26 150 1 95
1 95 41 17 22 -43 47 -85 54 -94 8 -8 14 -19 14 -22 0 -4 21 -33 46 -65 26
-31 50 -61 54 -65 4 -5 17 -3 29 5 11 7 21 21 21 31 0 11 -21 42 -47 69 -27
28 -58 61 -70 74 -13 13 -23 26 -23 29 0 4 -11 21 -25 39 -14 18 -25 38 -25
43 0 6 -7 16 -15 23 -8 7 -15 19 -15 27 0 7 -10 27 -22 43 -12 17 -27 30 -34
30 -8 0 -15 -21 -19 -54 -4 -30 -5 -59 -1 -64 3 -5 1 -38 -5 -73 -6 -35 -23
-86 -37 -114 -14 -27 -30 -60 -36 -72 -6 -12 -23 -29 -39 -38 -17 -10 -38 -14
-53 -11 -14 4 -29 18 -34 32 -6 14 -10 49 -10 78 0 35 5 58 15 66 8 7 15 18
15 26 0 7 23 32 50 55 28 23 50 47 50 53 0 6 -9 22 -20 36 -19 25 -19 25 2 47
12 13 27 23 34 23 7 0 18 9 24 20 10 18 8 20 -23 20z"/>
<path d="M331 60 c-4 0 -15 -6 -26 -13 -10 -8 -15 -19 -11 -25 4 -7 18 -12 31
-12 13 0 27 5 30 10 4 6 1 17 -5 25 -7 8 -16 15 -19 15z"/>
</g>
</svg>
