<?xml version="1.0" standalone="no"?>
<!DOCTYPE svg PUBLIC "-//W3C//DTD SVG 20010904//EN"
 "http://www.w3.org/TR/2001/REC-SVG-20010904/DTD/svg10.dtd">
<svg version="1.0" xmlns="http://www.w3.org/2000/svg"
 width="56.000000pt" height="56.000000pt" viewBox="0 0 56.000000 56.000000"
 preserveAspectRatio="xMidYMid meet">
<metadata>
Created by potrace 1.16, written by Peter Selinger 2001-2019
</metadata>
<g transform="translate(0.000000,56.000000) scale(0.100000,-0.100000)"
fill="#000000" stroke="none">
<path d="M82 540 c-5 0 -15 -6 -21 -14 -6 -7 -8 -21 -5 -30 4 -9 22 -23 42
-32 35 -14 35 -14 15 -37 -11 -12 -25 -40 -31 -62 -6 -22 -18 -65 -28 -95 -9
-30 -19 -89 -22 -130 -4 -72 -3 -78 24 -109 27 -33 29 -33 87 -28 44 4 70 13
101 35 24 17 51 49 65 77 14 26 29 69 33 94 5 25 10 55 11 66 1 11 -2 22 -8
25 -5 3 -11 -6 -13 -20 -2 -14 -7 -34 -11 -45 -5 -11 -19 -42 -32 -70 -13 -27
-41 -67 -61 -87 -32 -32 -45 -38 -81 -38 -24 0 -48 5 -55 12 -7 7 -12 40 -12
76 0 36 5 83 11 106 6 22 15 57 20 76 6 19 19 53 30 75 11 22 35 51 54 65 19
14 33 30 31 35 -1 6 -30 11 -63 13 -51 2 -62 6 -66 22 -3 11 -9 20 -15 20z"/>
<path d="M418 520 c-4 0 -8 -16 -8 -35 0 -24 -5 -35 -15 -35 -8 0 -15 -4 -15
-9 0 -5 8 -7 19 -4 10 3 21 1 24 -4 3 -5 1 -44 -5 -87 -7 -53 -7 -85 0 -100 5
-11 18 -38 27 -59 16 -38 16 -38 -11 -75 -15 -20 -40 -50 -56 -66 -15 -17 -28
-33 -28 -38 0 -4 7 -8 16 -8 9 0 29 12 44 28 16 15 46 42 69 60 23 18 41 42
41 53 0 11 -11 38 -26 60 -14 22 -28 62 -31 89 -3 28 0 69 7 94 7 25 10 56 6
70 -3 14 -16 35 -28 46 -12 11 -25 20 -30 20z"/>
</g>
</svg>
