<?xml version="1.0" standalone="no"?>
<!DOCTYPE svg PUBLIC "-//W3C//DTD SVG 20010904//EN"
 "http://www.w3.org/TR/2001/REC-SVG-20010904/DTD/svg10.dtd">
<svg version="1.0" xmlns="http://www.w3.org/2000/svg"
 width="56.000000pt" height="56.000000pt" viewBox="0 0 56.000000 56.000000"
 preserveAspectRatio="xMidYMid meet">
<metadata>
Created by potrace 1.16, written by Peter Selinger 2001-2019
</metadata>
<g transform="translate(0.000000,56.000000) scale(0.100000,-0.100000)"
fill="#000000" stroke="none">
<path d="M155 560 c-14 0 -25 -6 -25 -13 0 -7 5 -18 11 -24 9 -9 9 -19 0 -41
-7 -16 -30 -42 -51 -58 -32 -24 -40 -38 -49 -83 -8 -39 -8 -58 0 -68 6 -7 22
-13 35 -13 14 0 24 -6 24 -15 0 -8 -16 -27 -35 -42 -19 -15 -35 -33 -35 -39 0
-6 9 -19 19 -28 18 -16 21 -16 55 15 24 20 40 29 47 22 6 -6 5 -22 -2 -44 -7
-19 -16 -38 -20 -43 -5 -6 -9 -19 -9 -30 0 -12 7 -29 14 -39 8 -10 27 -17 48
-17 19 0 39 5 46 12 9 9 15 9 24 0 7 -7 20 -12 31 -12 10 0 42 19 71 43 30 23
61 57 70 75 13 26 14 36 4 52 -11 16 -9 26 7 57 11 21 35 57 53 80 19 25 32
55 32 72 0 15 -9 40 -21 55 -11 14 -29 26 -39 26 -10 0 -22 5 -26 11 -4 7 -29
-12 -66 -51 -60 -63 -60 -63 -54 -129 3 -36 8 -82 12 -102 4 -26 1 -44 -10
-62 -12 -18 -29 -27 -63 -32 -25 -3 -49 -3 -54 2 -5 5 -5 22 0 40 6 22 4 45
-7 78 -14 44 -14 50 3 81 10 19 16 35 14 37 -2 1 -21 9 -42 16 -29 9 -42 10
-50 2 -6 -6 -17 -11 -24 -11 -8 0 -2 15 15 40 15 21 46 53 70 70 28 20 42 38
42 53 0 12 -9 30 -20 40 -11 9 -31 17 -45 17z m249 -150 c6 0 19 -7 29 -14 9
-7 17 -22 17 -32 0 -10 -14 -43 -30 -72 -17 -29 -35 -50 -40 -47 -6 4 -17 20
-26 36 -13 25 -13 36 -2 67 6 20 19 43 27 50 8 6 20 12 25 12z"/>
</g>
</svg>
