<?xml version="1.0" standalone="no"?>
<!DOCTYPE svg PUBLIC "-//W3C//DTD SVG 20010904//EN"
 "http://www.w3.org/TR/2001/REC-SVG-20010904/DTD/svg10.dtd">
<svg version="1.0" xmlns="http://www.w3.org/2000/svg"
 width="56.000000pt" height="56.000000pt" viewBox="0 0 56.000000 56.000000"
 preserveAspectRatio="xMidYMid meet">
<metadata>
Created by potrace 1.16, written by Peter Selinger 2001-2019
</metadata>
<g transform="translate(0.000000,56.000000) scale(0.100000,-0.100000)"
fill="#000000" stroke="none">
<path d="M311 560 c-5 0 -15 -16 -21 -35 -6 -19 -9 -41 -7 -48 4 -7 6 -6 6 4
1 9 8 22 16 29 8 7 15 21 15 31 0 11 -4 19 -9 19z"/>
<path d="M429 540 c-5 0 -12 -8 -17 -17 -5 -10 -13 -45 -17 -78 -3 -33 -15
-75 -26 -93 -10 -18 -19 -39 -19 -46 0 -7 -9 -21 -20 -31 -12 -11 -20 -31 -20
-52 0 -18 4 -33 9 -33 5 0 27 38 49 84 22 46 45 87 51 90 8 5 11 -19 11 -80 0
-64 6 -104 22 -148 11 -34 32 -78 45 -98 14 -23 31 -38 43 -38 13 0 20 7 20
20 0 11 -4 20 -9 20 -5 0 -17 19 -26 43 -10 23 -22 56 -27 72 -5 17 -14 64
-19 105 -5 41 -12 116 -15 165 -4 50 -11 96 -16 103 -6 6 -14 12 -19 12z"/>
<path d="M128 479 c-18 0 -46 -8 -62 -17 -16 -10 -38 -33 -48 -52 -16 -29 -19
-50 -15 -125 3 -67 9 -102 26 -137 12 -26 35 -55 49 -65 18 -12 45 -17 83 -17
52 1 61 4 108 45 28 24 51 50 51 57 0 7 -7 15 -16 19 -10 4 -26 -7 -45 -31
-17 -20 -37 -36 -45 -36 -8 0 -23 -5 -33 -12 -15 -9 -27 -8 -56 3 -26 10 -44
26 -59 54 -12 22 -27 68 -34 103 -11 51 -11 70 0 100 7 20 18 43 25 50 7 7 36
13 68 13 49 1 62 -3 95 -30 21 -17 44 -31 49 -31 6 0 11 17 11 38 0 37 -1 37
-60 55 -32 9 -74 17 -92 16z"/>
</g>
</svg>
