<?xml version="1.0" standalone="no"?>
<!DOCTYPE svg PUBLIC "-//W3C//DTD SVG 20010904//EN"
 "http://www.w3.org/TR/2001/REC-SVG-20010904/DTD/svg10.dtd">
<svg version="1.0" xmlns="http://www.w3.org/2000/svg"
 width="56.000000pt" height="56.000000pt" viewBox="0 0 56.000000 56.000000"
 preserveAspectRatio="xMidYMid meet">
<metadata>
Created by potrace 1.16, written by Peter Selinger 2001-2019
</metadata>
<g transform="translate(0.000000,56.000000) scale(0.100000,-0.100000)"
fill="#000000" stroke="none">
<path d="M160 560 c-10 0 -28 -12 -40 -27 -18 -23 -20 -36 -15 -71 4 -24 2
-49 -3 -55 -6 -7 -22 -34 -37 -62 -15 -27 -33 -70 -41 -95 -7 -25 -16 -75 -19
-111 -6 -63 -5 -67 23 -97 21 -22 39 -32 60 -32 16 0 43 6 58 13 16 6 53 30
82 52 34 26 60 55 73 85 11 25 25 54 29 65 5 11 23 63 41 115 18 52 37 101 42
108 8 11 12 11 19 0 4 -7 20 -51 34 -98 14 -47 32 -96 39 -110 8 -14 23 -26
34 -28 18 -3 21 2 21 32 0 20 -4 36 -8 36 -5 0 -14 19 -21 43 -7 23 -29 86
-49 140 -26 71 -40 97 -53 97 -10 0 -21 -13 -29 -32 -6 -18 -20 -52 -31 -76
-10 -23 -19 -47 -19 -53 0 -5 -9 -29 -20 -51 -11 -23 -20 -48 -20 -55 0 -8 -8
-25 -17 -39 -9 -14 -24 -38 -32 -54 -9 -15 -30 -43 -46 -61 -17 -19 -50 -44
-73 -57 -23 -13 -50 -21 -60 -18 -9 3 -22 18 -29 33 -8 19 -9 43 -4 71 5 24
14 49 20 55 6 6 11 23 11 38 0 15 5 31 10 34 6 4 21 28 35 54 13 26 44 65 69
86 25 21 46 44 46 52 0 7 -11 19 -25 25 -13 6 -27 19 -30 30 -4 10 -15 18 -25
18z"/>
</g>
</svg>
