<?xml version="1.0" standalone="no"?>
<!DOCTYPE svg PUBLIC "-//W3C//DTD SVG 20010904//EN"
 "http://www.w3.org/TR/2001/REC-SVG-20010904/DTD/svg10.dtd">
<svg version="1.0" xmlns="http://www.w3.org/2000/svg"
 width="56.000000pt" height="56.000000pt" viewBox="0 0 56.000000 56.000000"
 preserveAspectRatio="xMidYMid meet">
<metadata>
Created by potrace 1.16, written by Peter Selinger 2001-2019
</metadata>
<g transform="translate(0.000000,56.000000) scale(0.100000,-0.100000)"
fill="#000000" stroke="none">
<path d="M248 559 c-14 -1 -56 -34 -105 -83 -53 -53 -84 -91 -88 -111 -3 -16
-10 -46 -15 -66 -6 -20 -10 -70 -10 -110 1 -60 6 -84 28 -129 25 -51 30 -55
65 -58 26 -2 49 4 75 19 20 13 42 30 49 39 7 8 19 29 28 47 9 18 23 36 32 41
10 6 14 16 10 27 -6 13 -20 3 -76 -56 -65 -67 -71 -71 -102 -65 -17 3 -38 14
-45 24 -7 9 -18 36 -24 59 -7 24 -9 59 -5 85 4 23 17 66 30 93 13 28 26 60 30
72 3 12 37 53 76 90 38 37 69 71 69 75 0 5 -10 7 -22 7z"/>
<path d="M421 441 c-18 22 -19 22 -29 3 -5 -10 -13 -41 -17 -69 -4 -27 -16
-65 -26 -83 -10 -18 -19 -40 -19 -48 0 -8 7 -14 15 -14 8 0 15 7 15 15 0 8 9
30 20 50 11 20 20 43 20 53 1 15 2 15 11 -1 6 -10 19 -48 29 -84 11 -36 24
-71 30 -78 9 -11 15 -11 31 3 10 9 19 22 19 29 0 7 -13 35 -30 63 -16 28 -30
57 -30 65 0 8 -4 17 -10 20 -5 3 -10 17 -10 29 0 13 -8 34 -19 47z"/>
</g>
</svg>
