<?xml version="1.0" standalone="no"?>
<!DOCTYPE svg PUBLIC "-//W3C//DTD SVG 20010904//EN"
 "http://www.w3.org/TR/2001/REC-SVG-20010904/DTD/svg10.dtd">
<svg version="1.0" xmlns="http://www.w3.org/2000/svg"
 width="56.000000pt" height="56.000000pt" viewBox="0 0 56.000000 56.000000"
 preserveAspectRatio="xMidYMid meet">
<metadata>
Created by potrace 1.16, written by Peter Selinger 2001-2019
</metadata>
<g transform="translate(0.000000,56.000000) scale(0.100000,-0.100000)"
fill="#000000" stroke="none">
<path d="M178 560 c-15 -1 -34 -16 -56 -44 -17 -24 -39 -56 -47 -73 -8 -16
-26 -40 -40 -53 -22 -21 -25 -31 -25 -94 0 -39 6 -105 14 -146 7 -41 21 -90
30 -108 9 -18 24 -36 33 -39 9 -4 29 1 45 10 17 9 38 17 49 17 10 0 19 3 19 8
0 4 12 14 28 23 15 8 34 29 42 45 8 16 19 32 24 35 4 4 4 9 -1 12 -6 4 -34
-16 -62 -42 -33 -31 -65 -51 -87 -56 -19 -3 -39 -3 -44 0 -6 4 -16 21 -24 39
-8 18 -15 81 -17 140 -4 108 -4 108 35 134 23 17 43 41 50 62 7 19 19 50 26
68 8 17 18 32 22 32 5 0 8 7 8 15 0 9 -9 15 -22 15z"/>
<path d="M403 430 c-7 0 -13 -9 -13 -20 0 -11 3 -20 8 -20 4 0 13 -15 21 -32
8 -18 23 -53 34 -78 10 -25 26 -60 34 -78 12 -28 17 -31 34 -22 10 6 19 21 19
33 0 13 -4 27 -9 33 -5 5 -23 34 -39 64 -15 30 -35 66 -43 80 -8 14 -18 28
-24 32 -5 4 -16 8 -22 8z"/>
<path d="M373 331 c-5 5 -12 6 -16 2 -4 -3 -7 -15 -7 -25 0 -10 5 -18 10 -18
6 0 13 7 17 16 3 8 1 20 -4 25z"/>
</g>
</svg>
