<?xml version="1.0" standalone="no"?>
<!DOCTYPE svg PUBLIC "-//W3C//DTD SVG 20010904//EN"
 "http://www.w3.org/TR/2001/REC-SVG-20010904/DTD/svg10.dtd">
<svg version="1.0" xmlns="http://www.w3.org/2000/svg"
 width="56.000000pt" height="56.000000pt" viewBox="0 0 56.000000 56.000000"
 preserveAspectRatio="xMidYMid meet">
<metadata>
Created by potrace 1.16, written by Peter Selinger 2001-2019
</metadata>
<g transform="translate(0.000000,56.000000) scale(0.100000,-0.100000)"
fill="#000000" stroke="none">
<path d="M240 560 c-11 0 -20 -4 -20 -9 0 -5 -17 -17 -37 -26 -21 -10 -44 -22
-51 -28 -10 -8 -9 -15 3 -34 15 -23 15 -27 -12 -71 -15 -26 -38 -71 -50 -101
-14 -34 -23 -74 -22 -105 0 -28 6 -64 12 -81 7 -16 23 -47 36 -68 14 -22 31
-37 43 -37 11 0 53 28 93 63 40 34 108 82 152 106 43 24 88 50 101 58 17 11
21 20 16 36 -3 12 -14 38 -24 58 -9 21 -23 58 -31 84 -8 25 -21 53 -30 61 -9
8 -24 12 -33 8 -9 -3 -16 -17 -16 -30 0 -13 -4 -33 -9 -46 -5 -13 -14 -43 -21
-68 -7 -25 -24 -69 -38 -99 -13 -29 -38 -69 -55 -88 -16 -19 -43 -41 -59 -49
-27 -14 -32 -14 -47 0 -9 9 -23 38 -30 65 -10 41 -10 57 2 98 8 27 24 70 36
95 11 25 41 66 66 91 37 37 45 52 45 81 0 29 -4 36 -20 36z m150 -170 c5 0 15
-10 22 -22 7 -13 18 -39 25 -58 7 -19 13 -38 13 -41 0 -4 -21 -23 -47 -43 -27
-20 -52 -35 -58 -34 -5 1 -9 9 -7 18 1 8 7 33 13 55 6 22 15 48 20 57 5 10 9
29 9 43 0 14 4 25 10 25z"/>
<path d="M397 80 c-7 0 -23 -11 -37 -23 -14 -12 -37 -30 -50 -40 -25 -18 -25
-18 28 -14 31 3 60 11 72 22 15 13 17 22 9 36 -5 11 -15 19 -22 19z"/>
</g>
</svg>
