<?xml version="1.0" standalone="no"?>
<!DOCTYPE svg PUBLIC "-//W3C//DTD SVG 20010904//EN"
 "http://www.w3.org/TR/2001/REC-SVG-20010904/DTD/svg10.dtd">
<svg version="1.0" xmlns="http://www.w3.org/2000/svg"
 width="56.000000pt" height="56.000000pt" viewBox="0 0 56.000000 56.000000"
 preserveAspectRatio="xMidYMid meet">
<metadata>
Created by potrace 1.16, written by Peter Selinger 2001-2019
</metadata>
<g transform="translate(0.000000,56.000000) scale(0.100000,-0.100000)"
fill="#000000" stroke="none">
<path d="M267 540 c-8 0 -21 -8 -30 -18 -10 -10 -40 -24 -68 -30 -28 -7 -61
-12 -75 -12 -14 0 -24 -6 -24 -14 0 -7 16 -21 35 -30 24 -12 35 -24 35 -39 0
-12 -7 -35 -15 -51 -8 -15 -15 -36 -15 -46 0 -10 -4 -20 -8 -22 -5 -1 -20 -32
-35 -68 -14 -36 -31 -83 -37 -106 -9 -31 -9 -46 -1 -63 7 -11 15 -21 20 -21 4
0 11 21 14 47 3 27 14 73 23 103 10 30 21 57 24 60 3 3 17 30 29 60 13 30 27
57 30 60 4 3 19 25 33 50 14 25 38 56 52 69 14 14 26 35 26 48 0 13 -6 23 -13
23z"/>
<path d="M415 520 c-6 5 -18 4 -28 -1 -9 -6 -17 -17 -17 -25 0 -8 -4 -22 -9
-32 -5 -9 -27 -53 -47 -97 -21 -44 -60 -107 -87 -140 -27 -32 -69 -71 -92 -86
-23 -15 -45 -34 -48 -42 -3 -9 1 -21 9 -28 12 -10 20 -8 44 9 16 12 33 22 38
22 5 0 30 24 56 54 25 30 46 58 46 64 0 5 9 17 20 27 11 10 20 24 20 31 0 7
14 35 31 63 18 28 36 51 40 51 4 0 10 -8 12 -17 3 -10 11 -56 18 -103 7 -47
16 -89 20 -95 4 -5 10 -34 14 -62 7 -52 6 -53 -19 -53 -16 0 -26 -6 -26 -15 0
-11 12 -15 49 -15 32 0 55 6 65 16 9 8 16 16 16 17 0 1 -14 54 -30 117 -16 63
-37 144 -45 180 -9 36 -22 84 -28 108 -7 24 -16 47 -22 52z"/>
<path d="M253 40 c-17 0 -35 -4 -38 -10 -3 -6 -3 -15 0 -20 3 -5 28 -10 56
-10 27 0 49 3 49 6 0 4 -8 13 -17 20 -10 7 -32 14 -50 14z"/>
</g>
</svg>
