<?xml version="1.0" standalone="no"?>
<!DOCTYPE svg PUBLIC "-//W3C//DTD SVG 20010904//EN"
 "http://www.w3.org/TR/2001/REC-SVG-20010904/DTD/svg10.dtd">
<svg version="1.0" xmlns="http://www.w3.org/2000/svg"
 width="56.000000pt" height="56.000000pt" viewBox="0 0 56.000000 56.000000"
 preserveAspectRatio="xMidYMid meet">
<metadata>
Created by potrace 1.16, written by Peter Selinger 2001-2019
</metadata>
<g transform="translate(0.000000,56.000000) scale(0.100000,-0.100000)"
fill="#000000" stroke="none">
<path d="M233 559 c-16 -1 -37 -11 -48 -23 -11 -11 -35 -32 -54 -46 -18 -13
-37 -33 -43 -43 -7 -15 -7 -22 3 -28 8 -5 17 -10 21 -11 4 -2 -1 -31 -12 -65
-11 -35 -26 -76 -35 -92 -10 -20 -15 -58 -15 -108 0 -57 5 -85 17 -103 9 -14
22 -28 27 -32 6 -4 30 -8 52 -8 27 0 51 7 67 21 15 11 31 38 38 62 6 23 15 60
21 82 6 22 15 56 21 75 5 19 16 49 24 67 7 18 17 34 21 37 5 3 14 -12 21 -32
7 -20 17 -48 23 -62 6 -14 14 -33 19 -42 5 -10 9 -25 9 -33 0 -8 15 -23 34
-32 19 -9 42 -13 51 -9 14 5 12 12 -17 48 -18 23 -38 52 -44 64 -6 12 -17 45
-25 73 -7 28 -21 58 -30 67 -16 14 -20 14 -47 0 -17 -9 -33 -26 -37 -38 -3
-13 -11 -34 -17 -48 -6 -14 -14 -33 -19 -42 -5 -10 -9 -27 -9 -37 0 -11 -4
-23 -10 -26 -5 -3 -10 -17 -10 -30 0 -14 -9 -41 -21 -62 -12 -21 -30 -48 -42
-61 -11 -12 -24 -22 -28 -22 -5 0 -16 14 -25 32 -13 24 -15 48 -11 97 3 37 15
95 27 131 11 35 27 74 35 87 8 12 15 35 15 51 0 15 -5 33 -12 40 -9 9 -8 16 5
30 10 11 33 28 52 38 19 10 35 22 35 26 0 5 -12 8 -27 7z"/>
</g>
</svg>
