<?xml version="1.0" standalone="no"?>
<!DOCTYPE svg PUBLIC "-//W3C//DTD SVG 20010904//EN"
 "http://www.w3.org/TR/2001/REC-SVG-20010904/DTD/svg10.dtd">
<svg version="1.0" xmlns="http://www.w3.org/2000/svg"
 width="56.000000pt" height="56.000000pt" viewBox="0 0 56.000000 56.000000"
 preserveAspectRatio="xMidYMid meet">
<metadata>
Created by potrace 1.16, written by Peter Selinger 2001-2019
</metadata>
<g transform="translate(0.000000,56.000000) scale(0.100000,-0.100000)"
fill="#000000" stroke="none">
<path d="M101 560 c-11 0 -21 -9 -24 -21 -3 -12 3 -41 14 -64 20 -43 20 -44 1
-82 -10 -21 -28 -55 -40 -76 -15 -26 -22 -54 -22 -92 0 -31 4 -63 9 -73 5 -9
15 -30 22 -45 7 -15 28 -46 47 -67 18 -22 40 -40 47 -40 8 0 22 17 32 38 9 20
39 75 66 122 27 47 58 95 70 108 11 12 26 22 33 22 7 0 29 -14 49 -31 22 -20
35 -40 35 -56 0 -17 -25 -51 -82 -111 -81 -85 -82 -87 -55 -90 23 -3 44 12
120 79 50 45 96 88 100 96 4 7 3 23 -4 35 -6 13 -32 44 -58 71 -29 31 -60 51
-85 58 -35 9 -42 8 -53 -8 -7 -10 -21 -29 -30 -42 -10 -14 -27 -36 -39 -50
-12 -14 -29 -42 -39 -61 -10 -19 -24 -39 -31 -43 -8 -4 -14 -14 -14 -21 0 -8
-6 -16 -13 -19 -8 -3 -19 -2 -24 1 -6 4 -20 24 -32 45 -11 21 -21 55 -21 77 0
22 11 63 26 92 14 29 33 68 44 86 10 18 25 41 34 51 9 10 16 23 16 29 0 7 -18
23 -40 37 -22 14 -40 30 -40 35 0 6 -8 10 -19 10z"/>
</g>
</svg>
