<?xml version="1.0" standalone="no"?>
<!DOCTYPE svg PUBLIC "-//W3C//DTD SVG 20010904//EN"
 "http://www.w3.org/TR/2001/REC-SVG-20010904/DTD/svg10.dtd">
<svg version="1.0" xmlns="http://www.w3.org/2000/svg"
 width="56.000000pt" height="56.000000pt" viewBox="0 0 56.000000 56.000000"
 preserveAspectRatio="xMidYMid meet">
<metadata>
Created by potrace 1.16, written by Peter Selinger 2001-2019
</metadata>
<g transform="translate(0.000000,56.000000) scale(0.100000,-0.100000)"
fill="#000000" stroke="none">
<path d="M113 546 c-11 15 -13 14 -19 -10 -3 -14 -1 -40 5 -57 6 -18 11 -49
11 -70 0 -21 -6 -62 -14 -91 -8 -29 -20 -71 -28 -94 -12 -32 -12 -50 -3 -92 7
-29 21 -62 31 -73 10 -12 38 -30 62 -40 24 -11 55 -19 69 -19 14 0 38 9 54 21
16 11 38 40 49 64 11 24 20 49 20 54 0 6 10 31 22 56 12 25 27 44 32 42 6 -2
12 -23 14 -48 2 -24 11 -57 21 -74 9 -16 24 -30 32 -30 10 0 15 15 17 57 2 42
-2 67 -17 97 -11 21 -25 59 -32 83 -6 23 -13 55 -16 71 -3 15 -14 32 -24 37
-12 7 -20 7 -24 0 -3 -5 -4 -14 0 -19 3 -5 1 -12 -5 -16 -5 -3 -10 -28 -10
-54 0 -26 -7 -71 -15 -99 -9 -29 -24 -57 -34 -64 -11 -7 -16 -19 -13 -34 3
-17 -5 -33 -31 -59 -19 -19 -44 -35 -56 -35 -11 0 -36 15 -54 34 -22 22 -36
47 -40 72 -4 22 -4 50 -1 64 3 14 12 39 19 55 8 17 39 56 69 87 31 31 56 64
56 72 0 8 -18 20 -42 28 -24 8 -44 21 -46 29 -1 8 11 23 28 34 16 11 30 23 30
28 0 4 -16 7 -35 7 -19 0 -35 -4 -35 -9 0 -5 -8 -12 -17 -15 -11 -5 -22 -1
-30 10z"/>
<path d="M403 560 c-7 0 -13 -4 -13 -10 0 -5 -6 -10 -14 -10 -8 0 -18 -4 -21
-10 -3 -5 1 -23 10 -40 9 -17 20 -28 26 -24 5 3 9 13 8 22 -1 10 -1 21 0 26 0
4 17 -4 36 -19 20 -15 43 -24 50 -21 8 3 15 18 15 33 0 15 -4 34 -9 42 -7 11
-10 9 -16 -8 -3 -11 -10 -21 -14 -21 -4 0 -16 9 -26 20 -10 11 -24 20 -32 20z"/>
</g>
</svg>
