<?xml version="1.0" standalone="no"?>
<!DOCTYPE svg PUBLIC "-//W3C//DTD SVG 20010904//EN"
 "http://www.w3.org/TR/2001/REC-SVG-20010904/DTD/svg10.dtd">
<svg version="1.0" xmlns="http://www.w3.org/2000/svg"
 width="56.000000pt" height="56.000000pt" viewBox="0 0 56.000000 56.000000"
 preserveAspectRatio="xMidYMid meet">
<metadata>
Created by potrace 1.16, written by Peter Selinger 2001-2019
</metadata>
<g transform="translate(0.000000,56.000000) scale(0.100000,-0.100000)"
fill="#000000" stroke="none">
<path d="M177 560 c-8 0 -22 -9 -31 -19 -10 -11 -15 -25 -11 -31 3 -5 -6 -36
-20 -68 -15 -31 -31 -66 -35 -77 -5 -11 -14 -38 -21 -60 -6 -22 -15 -50 -20
-63 -5 -13 -9 -60 -9 -106 0 -74 3 -86 25 -110 13 -14 29 -26 34 -26 6 0 38 9
72 21 61 21 61 21 75 0 12 -16 26 -21 58 -21 30 0 46 5 50 15 4 11 -6 21 -31
33 -28 13 -37 14 -40 5 -3 -7 -11 -13 -19 -13 -8 0 -14 7 -14 16 0 8 14 36 31
61 20 29 28 48 22 54 -7 7 -17 0 -28 -18 -10 -15 -31 -41 -47 -56 -16 -15 -40
-32 -54 -37 -14 -6 -38 -10 -53 -10 -15 0 -32 5 -39 12 -7 7 -12 34 -12 60 0
26 5 69 11 95 6 27 15 56 20 65 5 10 9 27 9 37 0 11 5 23 10 26 6 3 10 15 10
26 0 10 4 19 8 19 4 0 16 21 27 46 10 25 29 54 42 64 13 10 23 21 23 25 0 3
-6 13 -14 21 -8 8 -21 14 -29 14z"/>
<path d="M436 500 c-14 0 -27 -4 -31 -9 -3 -6 1 -13 8 -18 8 -4 17 -19 21 -33
4 -14 11 -52 17 -85 5 -33 11 -76 14 -95 3 -19 11 -52 17 -72 8 -27 17 -38 30
-38 18 0 19 5 13 43 -4 23 -10 56 -15 72 -5 17 -13 51 -19 78 -6 26 -11 60
-11 77 0 16 -4 32 -10 35 -5 3 -10 15 -10 26 0 14 -7 19 -24 19z"/>
</g>
</svg>
