<?xml version="1.0" standalone="no"?>
<!DOCTYPE svg PUBLIC "-//W3C//DTD SVG 20010904//EN"
 "http://www.w3.org/TR/2001/REC-SVG-20010904/DTD/svg10.dtd">
<svg version="1.0" xmlns="http://www.w3.org/2000/svg"
 width="56.000000pt" height="56.000000pt" viewBox="0 0 56.000000 56.000000"
 preserveAspectRatio="xMidYMid meet">
<metadata>
Created by potrace 1.16, written by Peter Selinger 2001-2019
</metadata>
<g transform="translate(0.000000,56.000000) scale(0.100000,-0.100000)"
fill="#000000" stroke="none">
<path d="M218 560 c-17 0 -29 -7 -32 -18 -3 -9 -2 -32 4 -50 5 -18 7 -41 4
-50 -3 -9 -9 -26 -14 -37 -4 -11 -14 -36 -21 -55 -8 -20 -14 -71 -13 -117 0
-45 5 -92 12 -105 6 -13 20 -45 29 -72 10 -27 24 -51 30 -53 7 -3 26 8 42 24
23 24 31 42 36 89 3 32 11 72 16 88 5 16 9 50 10 75 1 46 1 46 14 -8 8 -30 16
-78 19 -108 5 -45 2 -56 -14 -71 -11 -9 -20 -21 -20 -26 0 -6 5 -5 11 1 6 6
18 9 25 6 8 -3 26 2 40 12 21 13 25 22 19 43 -3 15 -13 40 -21 56 -8 17 -14
62 -15 107 -1 52 -6 82 -15 89 -7 7 -21 10 -31 8 -11 -2 -22 -20 -30 -48 -7
-25 -24 -88 -38 -140 -14 -52 -30 -99 -35 -104 -4 -4 -14 2 -21 15 -9 16 -13
56 -11 123 1 56 9 118 17 143 9 25 26 64 38 86 22 39 22 44 8 69 -11 20 -24
28 -43 28z"/>
</g>
</svg>
