<?xml version="1.0" standalone="no"?>
<!DOCTYPE svg PUBLIC "-//W3C//DTD SVG 20010904//EN"
 "http://www.w3.org/TR/2001/REC-SVG-20010904/DTD/svg10.dtd">
<svg version="1.0" xmlns="http://www.w3.org/2000/svg"
 width="56.000000pt" height="56.000000pt" viewBox="0 0 56.000000 56.000000"
 preserveAspectRatio="xMidYMid meet">
<metadata>
Created by potrace 1.16, written by Peter Selinger 2001-2019
</metadata>
<g transform="translate(0.000000,56.000000) scale(0.100000,-0.100000)"
fill="#000000" stroke="none">
<path d="M120 560 c-5 0 -10 -22 -10 -48 0 -27 3 -52 7 -56 4 -3 12 -22 19
-41 10 -29 9 -36 -6 -50 -9 -8 -29 -37 -42 -63 -14 -26 -29 -70 -33 -97 -5
-39 -2 -61 14 -98 12 -27 34 -62 50 -78 16 -16 36 -29 44 -29 8 0 27 7 43 15
17 8 39 25 51 37 12 13 31 41 43 62 17 31 20 49 15 82 -3 24 -2 45 4 48 5 4
12 2 16 -4 4 -6 11 -8 16 -5 5 4 9 15 9 25 0 13 -9 20 -27 23 -26 4 -27 5 -6
12 14 4 20 12 16 22 -5 12 -1 14 18 8 13 -4 32 -14 41 -22 9 -8 20 -31 25 -51
8 -32 13 -37 38 -37 23 0 31 5 33 23 2 12 -1 22 -7 22 -6 0 -11 5 -11 12 0 6
-10 22 -22 35 -12 13 -23 34 -23 46 0 16 -10 25 -39 35 -22 7 -46 10 -54 7 -8
-3 -12 -12 -9 -19 3 -8 0 -17 -8 -20 -8 -3 -17 -21 -20 -40 -4 -19 -13 -40
-21 -47 -8 -6 -14 -21 -14 -33 0 -12 -9 -39 -20 -61 -11 -22 -20 -51 -20 -65
0 -14 -5 -31 -12 -38 -7 -7 -19 -12 -28 -12 -9 0 -28 6 -43 13 -18 8 -29 22
-32 42 -3 17 -3 48 -2 70 2 22 9 53 16 69 6 16 25 56 41 89 23 48 27 64 18 75
-7 8 -13 19 -14 26 -1 6 -5 19 -9 29 -5 12 -2 17 9 17 9 0 16 4 16 8 0 5 -13
21 -30 35 -16 15 -34 27 -40 27z"/>
<path d="M201 478 c-8 3 -12 -1 -9 -9 2 -7 10 -15 17 -17 8 -3 12 1 9 9 -2 7
-10 15 -17 17z"/>
</g>
</svg>
