<?xml version="1.0" standalone="no"?>
<!DOCTYPE svg PUBLIC "-//W3C//DTD SVG 20010904//EN"
 "http://www.w3.org/TR/2001/REC-SVG-20010904/DTD/svg10.dtd">
<svg version="1.0" xmlns="http://www.w3.org/2000/svg"
 width="56.000000pt" height="56.000000pt" viewBox="0 0 56.000000 56.000000"
 preserveAspectRatio="xMidYMid meet">
<metadata>
Created by potrace 1.16, written by Peter Selinger 2001-2019
</metadata>
<g transform="translate(0.000000,56.000000) scale(0.100000,-0.100000)"
fill="#000000" stroke="none">
<path d="M385 560 c-13 0 -26 -7 -29 -16 -3 -9 -6 -41 -6 -71 0 -31 -4 -72 -9
-92 -5 -20 -15 -56 -21 -81 -7 -24 -29 -70 -51 -101 -21 -32 -52 -67 -68 -78
-16 -12 -41 -21 -55 -21 -15 0 -30 8 -36 20 -7 12 -7 33 -2 58 5 22 27 72 49
113 22 41 50 91 62 111 15 25 21 49 19 75 -2 27 -8 39 -21 41 -9 2 -42 -9 -73
-24 -54 -26 -57 -27 -70 -10 -7 11 -20 16 -29 13 -9 -4 -15 -19 -15 -42 0 -30
3 -35 23 -35 12 0 40 9 61 20 22 10 42 17 47 15 4 -3 4 -18 -1 -34 -4 -15 -21
-54 -38 -87 -17 -32 -40 -80 -51 -106 -12 -26 -21 -66 -21 -89 0 -32 6 -47 30
-71 27 -27 36 -30 70 -25 22 3 60 17 84 31 35 20 51 40 84 103 22 43 45 96 50
118 6 22 13 61 17 88 3 26 10 47 15 47 4 0 13 -33 19 -72 7 -40 16 -89 21
-108 5 -19 12 -71 16 -115 3 -44 11 -91 18 -105 6 -14 18 -25 26 -25 11 0 16
14 18 50 2 28 -6 90 -17 140 -12 50 -30 135 -42 190 -11 55 -28 117 -36 138
-12 27 -22 37 -38 37z"/>
</g>
</svg>
