<?xml version="1.0" standalone="no"?>
<!DOCTYPE svg PUBLIC "-//W3C//DTD SVG 20010904//EN"
 "http://www.w3.org/TR/2001/REC-SVG-20010904/DTD/svg10.dtd">
<svg version="1.0" xmlns="http://www.w3.org/2000/svg"
 width="56.000000pt" height="56.000000pt" viewBox="0 0 56.000000 56.000000"
 preserveAspectRatio="xMidYMid meet">
<metadata>
Created by potrace 1.16, written by Peter Selinger 2001-2019
</metadata>
<g transform="translate(0.000000,56.000000) scale(0.100000,-0.100000)"
fill="#000000" stroke="none">
<path d="M195 529 c-17 -1 -41 -4 -55 -6 -14 -3 -33 -12 -42 -20 -10 -9 -18
-22 -18 -28 0 -7 -16 -16 -35 -19 -19 -4 -37 -11 -40 -16 -3 -6 0 -22 7 -37
10 -21 21 -28 43 -28 17 0 31 -3 33 -8 1 -4 -4 -20 -11 -35 -8 -15 -19 -47
-25 -72 -6 -25 -9 -63 -7 -85 3 -34 12 -48 60 -92 53 -51 58 -53 111 -53 43 0
56 4 61 18 4 9 15 28 25 42 10 14 20 41 22 60 3 19 12 77 20 128 9 51 21 104
26 118 6 14 14 23 19 20 5 -3 17 -36 26 -73 10 -38 22 -72 27 -77 4 -6 8 -18
8 -27 0 -9 7 -30 15 -45 8 -16 15 -36 15 -45 0 -8 6 -23 13 -33 9 -13 20 -16
40 -11 17 5 27 14 27 25 0 10 -7 20 -15 24 -8 3 -15 13 -15 23 0 10 -11 39
-25 65 -14 26 -25 54 -25 63 0 8 -4 15 -10 15 -5 0 -10 11 -10 25 0 13 -12 41
-26 62 -14 21 -28 50 -31 66 -4 20 -11 27 -28 27 -12 0 -27 -6 -32 -12 -6 -7
-14 -33 -17 -58 -4 -25 -10 -61 -12 -80 -3 -19 -9 -44 -14 -55 -4 -11 -15 -52
-24 -91 -9 -40 -16 -79 -16 -88 0 -10 -8 -16 -22 -16 -13 0 -41 6 -63 14 -21
8 -48 24 -58 37 -15 19 -18 35 -14 79 3 30 9 66 15 80 6 14 26 40 46 59 34 33
35 35 20 63 -12 24 -20 28 -49 26 -19 -1 -37 1 -41 4 -3 4 4 12 17 18 12 7 35
13 51 14 15 1 36 10 45 19 16 16 15 17 -12 16z"/>
<path d="M428 120 c-4 0 -10 -5 -13 -10 -4 -6 -1 -17 5 -25 7 -8 17 -15 22
-15 5 0 11 7 15 16 3 9 0 20 -8 25 -8 5 -17 9 -21 9z"/>
<path d="M46 69 c-16 15 -26 19 -31 11 -4 -6 1 -20 11 -31 9 -10 23 -19 31
-19 7 0 13 4 13 8 0 5 -11 19 -24 31z"/>
</g>
</svg>
