<?xml version="1.0" standalone="no"?>
<!DOCTYPE svg PUBLIC "-//W3C//DTD SVG 20010904//EN"
 "http://www.w3.org/TR/2001/REC-SVG-20010904/DTD/svg10.dtd">
<svg version="1.0" xmlns="http://www.w3.org/2000/svg"
 width="56.000000pt" height="56.000000pt" viewBox="0 0 56.000000 56.000000"
 preserveAspectRatio="xMidYMid meet">
<metadata>
Created by potrace 1.16, written by Peter Selinger 2001-2019
</metadata>
<g transform="translate(0.000000,56.000000) scale(0.100000,-0.100000)"
fill="#000000" stroke="none">
<path d="M223 560 c-30 0 -44 -7 -66 -31 -21 -23 -28 -38 -24 -57 3 -17 -3
-36 -18 -56 -13 -17 -37 -60 -53 -96 -17 -36 -35 -80 -41 -99 -6 -19 -11 -52
-11 -75 0 -25 11 -60 28 -91 19 -35 34 -51 51 -53 13 -2 39 -1 57 3 20 3 55
25 88 56 34 31 64 71 80 104 13 29 27 68 31 86 4 19 10 38 12 43 3 4 9 2 14
-5 5 -8 9 -22 9 -33 0 -10 18 -56 40 -101 22 -46 47 -88 55 -95 8 -7 26 -10
40 -6 17 4 25 13 25 29 0 12 -14 38 -31 57 -17 19 -44 63 -60 98 -16 34 -29
68 -29 75 0 6 -6 28 -13 47 -7 19 -16 41 -20 48 -5 6 -14 12 -21 12 -7 0 -18
-24 -25 -52 -6 -29 -17 -71 -23 -93 -7 -22 -20 -52 -30 -67 -10 -14 -18 -30
-18 -35 0 -5 -22 -30 -49 -57 -30 -30 -62 -50 -84 -56 -25 -5 -42 -4 -53 5
-11 8 -19 31 -21 66 -4 44 1 68 26 127 17 40 39 86 51 101 11 16 20 33 20 38
0 5 16 28 36 51 19 23 33 46 30 51 -3 5 4 20 15 35 20 26 20 26 -18 26z"/>
</g>
</svg>
