<?xml version="1.0" standalone="no"?>
<!DOCTYPE svg PUBLIC "-//W3C//DTD SVG 20010904//EN"
 "http://www.w3.org/TR/2001/REC-SVG-20010904/DTD/svg10.dtd">
<svg version="1.0" xmlns="http://www.w3.org/2000/svg"
 width="56.000000pt" height="56.000000pt" viewBox="0 0 56.000000 56.000000"
 preserveAspectRatio="xMidYMid meet">
<metadata>
Created by potrace 1.16, written by Peter Selinger 2001-2019
</metadata>
<g transform="translate(0.000000,56.000000) scale(0.100000,-0.100000)"
fill="#000000" stroke="none">
<path d="M184 559 c-28 0 -47 -8 -66 -27 -21 -20 -28 -37 -28 -64 0 -23 -14
-65 -37 -110 -20 -40 -37 -86 -39 -103 -1 -16 -5 -42 -9 -58 -6 -22 1 -39 36
-93 23 -36 54 -71 68 -76 14 -6 63 -12 108 -14 75 -2 88 0 135 27 29 16 60 29
69 29 9 0 36 11 60 25 24 14 52 28 62 31 9 4 17 14 17 24 0 10 -5 20 -10 22
-6 2 -24 43 -40 91 -17 48 -30 103 -30 122 0 18 -3 41 -6 50 -4 8 -19 22 -35
30 -15 8 -39 15 -52 15 -13 0 -32 -9 -42 -20 -13 -14 -21 -51 -30 -127 -7 -60
-20 -135 -30 -169 -13 -48 -23 -64 -48 -79 -16 -10 -45 -18 -64 -17 -18 1 -42
6 -52 12 -11 5 -27 30 -36 55 -13 33 -16 58 -11 97 4 28 12 61 18 72 6 12 33
48 60 81 42 52 48 64 43 92 -4 22 0 41 11 58 16 25 16 25 -22 24z m207 -151
c7 -2 18 -24 25 -48 7 -25 23 -78 35 -118 22 -72 22 -72 -3 -95 -14 -12 -36
-28 -49 -36 -13 -8 -32 -19 -41 -25 -9 -5 -20 -7 -24 -3 -4 4 -2 17 4 30 6 12
13 47 16 77 4 30 9 87 12 125 3 39 7 76 10 83 2 8 9 12 15 10z"/>
</g>
</svg>
