<?xml version="1.0" standalone="no"?>
<!DOCTYPE svg PUBLIC "-//W3C//DTD SVG 20010904//EN"
 "http://www.w3.org/TR/2001/REC-SVG-20010904/DTD/svg10.dtd">
<svg version="1.0" xmlns="http://www.w3.org/2000/svg"
 width="56.000000pt" height="56.000000pt" viewBox="0 0 56.000000 56.000000"
 preserveAspectRatio="xMidYMid meet">
<metadata>
Created by potrace 1.16, written by Peter Selinger 2001-2019
</metadata>
<g transform="translate(0.000000,56.000000) scale(0.100000,-0.100000)"
fill="#000000" stroke="none">
<path d="M78 535 c-12 5 -20 2 -24 -10 -4 -10 3 -29 16 -48 23 -31 23 -31 0
-71 -13 -23 -31 -57 -42 -77 -11 -20 -20 -65 -23 -105 -3 -57 0 -78 19 -120
18 -38 32 -55 62 -69 23 -11 66 -20 105 -21 64 -3 67 -2 101 34 19 20 38 48
42 62 4 14 11 34 16 45 4 11 16 56 25 100 10 44 21 85 26 90 4 6 10 27 14 48
4 20 13 37 20 37 8 0 17 -10 21 -22 3 -12 8 -69 9 -127 2 -58 6 -123 10 -143
4 -21 13 -42 20 -48 7 -6 19 -8 26 -5 8 3 20 17 26 32 7 15 13 33 13 40 0 7
-4 13 -9 13 -4 0 -14 20 -21 44 -6 24 -9 54 -5 65 4 12 2 28 -5 35 -6 8 -16
56 -22 107 -6 52 -15 100 -20 107 -6 6 -18 12 -27 12 -10 0 -31 -23 -49 -53
-18 -29 -32 -62 -32 -73 0 -11 -4 -24 -8 -30 -5 -5 -19 -43 -31 -84 -13 -41
-27 -83 -32 -92 -5 -10 -9 -22 -9 -28 0 -5 -14 -32 -30 -59 -20 -32 -41 -53
-61 -60 -17 -6 -36 -8 -43 -4 -6 4 -23 18 -39 32 -15 14 -36 39 -46 56 -10 16
-22 47 -25 68 -6 30 -3 43 13 64 12 14 21 34 21 43 0 10 7 30 15 46 8 15 32
44 55 65 22 20 40 41 40 47 0 5 -7 15 -15 22 -8 6 -29 16 -47 20 -18 4 -41 11
-50 15z"/>
</g>
</svg>
