<?xml version="1.0" standalone="no"?>
<!DOCTYPE svg PUBLIC "-//W3C//DTD SVG 20010904//EN"
 "http://www.w3.org/TR/2001/REC-SVG-20010904/DTD/svg10.dtd">
<svg version="1.0" xmlns="http://www.w3.org/2000/svg"
 width="56.000000pt" height="56.000000pt" viewBox="0 0 56.000000 56.000000"
 preserveAspectRatio="xMidYMid meet">
<metadata>
Created by potrace 1.16, written by Peter Selinger 2001-2019
</metadata>
<g transform="translate(0.000000,56.000000) scale(0.100000,-0.100000)"
fill="#000000" stroke="none">
<path d="M97 540 c-8 0 -17 -3 -20 -7 -4 -3 -7 -15 -7 -26 0 -12 5 -35 11 -52
10 -27 8 -39 -19 -95 -17 -36 -34 -81 -37 -100 -4 -19 -12 -42 -18 -50 -6 -10
-7 -43 -2 -84 4 -46 13 -74 26 -87 12 -12 33 -19 54 -19 26 0 51 11 88 39 29
21 67 55 85 75 18 20 52 79 77 131 25 52 47 95 49 95 3 0 14 -10 26 -22 11
-12 38 -58 59 -103 21 -44 41 -88 44 -97 4 -11 13 -15 26 -11 17 4 21 13 21
44 0 22 -3 39 -8 39 -4 0 -12 8 -17 19 -6 10 -34 53 -63 95 -29 42 -64 83 -78
92 -19 13 -30 14 -48 6 -18 -8 -25 -22 -30 -56 -4 -25 -14 -60 -23 -78 -9 -18
-33 -55 -53 -83 -21 -27 -50 -64 -66 -81 -16 -17 -44 -39 -61 -48 -33 -16 -33
-16 -59 24 -23 34 -26 47 -20 87 3 25 15 62 26 80 11 19 20 40 20 47 0 6 18
29 39 50 22 21 42 50 46 64 4 18 0 32 -18 51 -13 14 -27 34 -30 44 -4 9 -13
17 -20 17z"/>
</g>
</svg>
