<?xml version="1.0" standalone="no"?>
<!DOCTYPE svg PUBLIC "-//W3C//DTD SVG 20010904//EN"
 "http://www.w3.org/TR/2001/REC-SVG-20010904/DTD/svg10.dtd">
<svg version="1.0" xmlns="http://www.w3.org/2000/svg"
 width="56.000000pt" height="56.000000pt" viewBox="0 0 56.000000 56.000000"
 preserveAspectRatio="xMidYMid meet">
<metadata>
Created by potrace 1.16, written by Peter Selinger 2001-2019
</metadata>
<g transform="translate(0.000000,56.000000) scale(0.100000,-0.100000)"
fill="#000000" stroke="none">
<path d="M186 540 c-6 0 -33 -18 -60 -39 -27 -22 -54 -53 -61 -72 -7 -19 -22
-58 -34 -86 -12 -30 -24 -89 -27 -137 -4 -46 -4 -95 -1 -108 4 -14 18 -37 31
-51 21 -22 34 -27 76 -27 45 0 54 4 86 36 19 21 60 88 90 153 31 64 62 127 71
141 8 14 17 33 20 42 3 9 11 19 19 22 9 4 20 -9 33 -37 10 -23 24 -62 31 -87
8 -25 18 -50 23 -57 5 -7 9 -28 10 -48 1 -30 -7 -44 -51 -88 -29 -29 -52 -58
-52 -64 0 -7 5 -15 10 -18 6 -4 21 0 33 8 12 8 39 29 60 47 20 19 37 40 37 47
0 7 7 13 15 13 10 0 15 10 15 31 0 17 -6 37 -14 45 -8 8 -18 35 -22 60 -5 33
-12 48 -27 53 -13 5 -16 10 -9 15 8 5 8 14 0 34 -6 15 -17 42 -25 59 -8 18
-22 37 -33 43 -10 5 -28 10 -39 10 -15 0 -29 -17 -52 -65 -22 -44 -39 -65 -51
-65 -10 0 -18 -4 -18 -10 0 -5 5 -10 10 -10 6 0 10 -9 10 -19 0 -11 -4 -23
-10 -26 -5 -3 -10 -13 -10 -22 0 -8 -8 -27 -19 -41 -10 -15 -30 -47 -44 -72
-13 -25 -40 -55 -58 -68 -18 -13 -42 -22 -54 -20 -12 2 -29 20 -42 47 -13 24
-20 54 -18 65 3 12 6 37 8 57 2 19 17 65 35 100 19 41 52 86 88 121 50 49 56
59 45 72 -8 9 -19 16 -25 16z"/>
<path d="M180 229 c-7 2 -11 -2 -8 -8 2 -7 7 -12 11 -12 4 1 7 4 8 8 0 4 -5 9
-11 12z"/>
<path d="M358 150 c-4 0 -8 -4 -8 -9 0 -5 -3 -16 -6 -24 -4 -10 2 -14 21 -14
14 0 28 4 32 10 3 5 -2 16 -12 24 -11 7 -22 13 -27 13z"/>
</g>
</svg>
