<?xml version="1.0" standalone="no"?>
<!DOCTYPE svg PUBLIC "-//W3C//DTD SVG 20010904//EN"
 "http://www.w3.org/TR/2001/REC-SVG-20010904/DTD/svg10.dtd">
<svg version="1.0" xmlns="http://www.w3.org/2000/svg"
 width="56.000000pt" height="56.000000pt" viewBox="0 0 56.000000 56.000000"
 preserveAspectRatio="xMidYMid meet">
<metadata>
Created by potrace 1.16, written by Peter Selinger 2001-2019
</metadata>
<g transform="translate(0.000000,56.000000) scale(0.100000,-0.100000)"
fill="#000000" stroke="none">
<path d="M243 560 c-4 -1 -20 -8 -35 -16 -16 -8 -35 -31 -43 -51 -8 -19 -15
-44 -15 -54 0 -11 -6 -19 -13 -19 -8 0 -21 -8 -30 -18 -10 -10 -17 -28 -17
-41 0 -13 -9 -26 -25 -33 -14 -6 -25 -17 -25 -24 0 -7 7 -20 16 -28 8 -9 20
-16 25 -16 5 0 12 8 15 18 3 9 14 33 24 52 14 27 27 36 52 40 32 5 33 7 38 57
4 36 13 60 29 77 14 14 21 32 18 40 -4 9 -10 16 -14 16z"/>
<path d="M389 420 c-15 0 -30 -4 -33 -9 -3 -5 -13 -37 -22 -72 -8 -35 -19 -81
-23 -101 -5 -20 -16 -50 -26 -65 -10 -15 -28 -37 -39 -49 -12 -11 -35 -31 -53
-42 -17 -12 -42 -22 -55 -22 -14 0 -33 9 -44 21 -10 11 -20 37 -22 57 -2 20
-5 51 -6 67 -2 17 -4 36 -5 43 0 6 -8 12 -16 12 -8 0 -15 -7 -15 -16 0 -9 -8
-29 -17 -45 -17 -29 -17 -31 5 -69 12 -21 22 -45 22 -53 0 -8 10 -27 21 -42
19 -23 27 -26 55 -21 19 3 50 9 70 12 26 5 53 24 103 73 47 47 71 78 76 102 4
19 8 54 9 79 1 31 6 45 16 45 7 0 34 -39 59 -86 25 -48 52 -94 60 -103 7 -9
22 -16 32 -16 13 0 19 7 19 23 0 12 -23 51 -50 86 -28 36 -50 73 -50 83 0 10
-9 38 -21 63 -18 38 -26 45 -50 45z"/>
</g>
</svg>
