<?xml version="1.0" standalone="no"?>
<!DOCTYPE svg PUBLIC "-//W3C//DTD SVG 20010904//EN"
 "http://www.w3.org/TR/2001/REC-SVG-20010904/DTD/svg10.dtd">
<svg version="1.0" xmlns="http://www.w3.org/2000/svg"
 width="56.000000pt" height="56.000000pt" viewBox="0 0 56.000000 56.000000"
 preserveAspectRatio="xMidYMid meet">
<metadata>
Created by potrace 1.16, written by Peter Selinger 2001-2019
</metadata>
<g transform="translate(0.000000,56.000000) scale(0.100000,-0.100000)"
fill="#000000" stroke="none">
<path d="M213 559 c-16 0 -35 -8 -44 -17 -9 -9 -29 -26 -45 -37 -16 -11 -46
-36 -66 -56 -33 -31 -38 -42 -37 -80 1 -24 -4 -69 -9 -99 -8 -43 -7 -69 5
-115 8 -33 24 -80 36 -105 17 -36 28 -46 50 -48 18 -2 37 4 49 15 12 10 30 38
41 63 11 25 31 59 43 76 13 17 24 34 24 38 0 4 19 36 43 69 23 34 50 70 59 80
9 11 22 32 29 49 7 18 18 28 28 26 11 -2 18 -20 23 -62 5 -35 19 -79 36 -110
22 -38 36 -52 56 -54 23 -3 26 0 26 27 0 16 -5 31 -11 33 -5 2 -14 19 -19 38
-5 19 -16 55 -25 80 -12 32 -15 61 -11 101 6 52 5 57 -18 73 -25 16 -26 16
-52 -26 -15 -24 -57 -87 -93 -141 -36 -55 -72 -109 -79 -120 -7 -12 -34 -51
-61 -87 -30 -41 -54 -65 -67 -65 -13 0 -27 15 -41 44 -18 35 -22 59 -20 105 2
52 7 65 31 89 24 24 27 34 22 66 -5 31 -2 41 17 58 12 11 41 33 65 48 23 15
42 32 42 36 0 5 -12 9 -27 8z"/>
<path d="M464 80 c-6 0 -20 -10 -31 -22 -11 -13 -23 -31 -26 -41 -6 -16 -1
-18 51 -15 47 2 57 6 60 22 3 12 -5 27 -19 37 -13 10 -29 19 -35 19z"/>
</g>
</svg>
