<?xml version="1.0" standalone="no"?>
<!DOCTYPE svg PUBLIC "-//W3C//DTD SVG 20010904//EN"
 "http://www.w3.org/TR/2001/REC-SVG-20010904/DTD/svg10.dtd">
<svg version="1.0" xmlns="http://www.w3.org/2000/svg"
 width="56.000000pt" height="56.000000pt" viewBox="0 0 56.000000 56.000000"
 preserveAspectRatio="xMidYMid meet">
<metadata>
Created by potrace 1.16, written by Peter Selinger 2001-2019
</metadata>
<g transform="translate(0.000000,56.000000) scale(0.100000,-0.100000)"
fill="#000000" stroke="none">
<path d="M215 560 c-36 0 -43 -4 -59 -34 -10 -20 -16 -44 -13 -56 4 -16 -7
-39 -39 -83 -25 -33 -56 -85 -70 -114 -14 -31 -24 -72 -24 -97 0 -24 7 -63 15
-87 9 -24 25 -54 37 -66 12 -13 28 -23 35 -23 8 0 35 11 62 24 26 14 68 47 92
74 24 27 64 88 89 136 25 48 50 92 57 97 7 7 14 6 18 -1 3 -5 22 -41 41 -78
20 -37 42 -79 51 -95 8 -15 19 -27 24 -27 5 0 9 15 9 33 0 17 -17 72 -39 122
-21 50 -41 111 -45 137 -5 32 -14 53 -29 63 -19 13 -23 13 -39 -2 -10 -9 -18
-23 -18 -32 0 -9 -7 -36 -16 -61 -8 -25 -27 -70 -42 -100 -15 -30 -48 -87 -74
-127 -26 -39 -52 -74 -58 -78 -6 -4 -28 -9 -50 -11 -31 -4 -41 -1 -54 18 -10
14 -16 44 -16 79 0 45 6 65 32 105 17 27 43 66 57 88 14 21 46 54 71 74 25 20
49 39 54 43 4 4 2 23 -5 43 -12 33 -16 36 -54 36z"/>
</g>
</svg>
