<?xml version="1.0" standalone="no"?>
<!DOCTYPE svg PUBLIC "-//W3C//DTD SVG 20010904//EN"
 "http://www.w3.org/TR/2001/REC-SVG-20010904/DTD/svg10.dtd">
<svg version="1.0" xmlns="http://www.w3.org/2000/svg"
 width="128.000000pt" height="128.000000pt" viewBox="0 0 128.000000 128.000000"
 preserveAspectRatio="xMidYMid meet">
<metadata>
Created by potrace 1.16, written by Peter Selinger 2001-2019
</metadata>
<g transform="translate(0.000000,128.000000) scale(0.100000,-0.100000)"
fill="#000000" stroke="none">
<path d="M435 1185 c-5 2 -23 0 -40 -4 -27 -6 -30 -10 -27 -39 2 -23 -6 -45
-30 -79 -18 -27 -45 -59 -60 -71 -15 -13 -28 -31 -28 -40 0 -8 -5 -31 -12 -49
-9 -25 -9 -36 -1 -44 9 -9 18 -8 35 4 13 9 49 37 81 62 32 25 65 45 73 45 8 0
14 -8 14 -18 0 -10 -20 -53 -45 -96 -25 -44 -45 -85 -45 -91 0 -7 -9 -20 -20
-30 -11 -10 -20 -24 -20 -30 0 -7 -7 -18 -15 -25 -8 -7 -24 -32 -35 -56 -10
-24 -24 -44 -29 -44 -6 0 -14 -12 -17 -27 -4 -16 -17 -42 -30 -60 -14 -18 -27
-46 -30 -62 -4 -17 -15 -38 -25 -47 -11 -9 -19 -22 -19 -28 0 -6 -17 -32 -39
-58 -31 -38 -39 -58 -45 -104 -3 -31 -4 -59 -2 -61 2 -3 14 -2 25 2 11 3 30
23 43 45 13 21 38 61 57 89 19 27 38 48 41 46 4 -2 12 -42 19 -88 11 -72 18
-91 49 -130 20 -25 43 -48 50 -51 8 -4 18 -4 23 0 5 3 9 14 9 25 0 12 5 19 13
17 6 -3 13 -14 15 -26 2 -12 15 -28 30 -35 15 -8 35 -12 45 -10 13 4 17 15 17
54 0 40 -3 49 -17 50 -10 1 -32 2 -50 4 -17 1 -49 11 -71 21 -28 14 -42 28
-50 54 -6 21 -9 72 -6 124 4 68 9 93 22 102 9 7 20 11 23 8 3 -2 9 -27 14 -56
4 -29 8 -66 8 -83 1 -16 6 -32 11 -35 6 -3 21 16 34 42 13 26 32 77 42 114 9
38 22 70 29 72 6 2 11 -5 11 -17 0 -11 5 -31 11 -44 8 -18 8 -30 -1 -46 -9
-17 -9 -26 1 -38 12 -13 20 -8 66 43 29 32 53 64 53 71 0 7 5 13 10 13 6 0 15
11 20 25 5 14 17 28 26 32 8 3 20 15 25 27 5 11 14 29 21 38 9 12 9 25 2 45
-5 15 -17 29 -26 31 -11 2 -24 -11 -39 -40 -12 -24 -29 -52 -39 -63 -10 -11
-21 -30 -25 -43 -5 -16 -13 -22 -28 -20 -14 2 -23 11 -25 25 -2 12 -10 27 -17
33 -12 10 -9 19 21 55 19 24 48 48 63 53 18 7 31 20 35 37 4 15 5 29 3 31 -2
2 -18 -3 -36 -12 -18 -9 -37 -24 -44 -34 -8 -14 -15 -16 -24 -8 -7 6 -13 23
-13 38 0 17 -7 30 -16 34 -9 4 -26 4 -36 0 -11 -3 -17 -12 -14 -19 3 -8 8 -30
12 -51 5 -27 3 -40 -7 -48 -8 -6 -25 -28 -39 -48 -14 -21 -31 -40 -39 -43 -8
-3 -22 2 -32 11 -11 10 -19 21 -19 25 0 5 19 39 43 77 23 37 49 80 57 94 8 15
38 64 66 110 28 46 65 112 83 147 17 34 31 66 31 70 0 3 -12 11 -26 18 -14 6
-42 9 -62 6 -20 -3 -43 -12 -49 -21 -7 -9 -16 -13 -19 -9 -4 3 -1 20 5 36 7
16 11 39 9 52 -2 12 -7 23 -13 24z m-33 -653 c6 -6 7 -18 4 -28 -4 -11 -15
-30 -25 -43 -17 -22 -20 -23 -34 -9 -14 14 -13 19 15 52 20 24 34 34 40 28z"/>
<path d="M783 819 c-12 6 -31 3 -59 -8 -22 -9 -52 -26 -67 -37 -15 -12 -27
-26 -27 -31 0 -6 11 -15 25 -21 15 -7 25 -20 25 -32 0 -12 7 -20 18 -20 9 0
36 18 60 40 31 29 42 47 42 69 0 19 -7 34 -17 40z"/>
<path d="M1001 420 c-6 0 -11 -4 -11 -10 0 -5 5 -21 12 -35 6 -14 15 -25 19
-25 4 0 9 -15 11 -32 2 -20 9 -34 18 -35 8 -2 22 1 30 7 13 8 13 13 -3 43 -10
18 -29 45 -41 60 -13 15 -28 27 -35 27z"/>
<path d="M1149 286 c-8 1 -29 -1 -46 -3 -29 -4 -33 -8 -33 -33 0 -16 5 -32 10
-35 6 -3 10 -10 10 -14 0 -4 -8 -7 -17 -7 -10 1 -19 -3 -20 -9 -2 -5 7 -10 19
-10 12 0 24 -7 26 -14 3 -8 -3 -18 -12 -23 -9 -5 -16 -18 -16 -28 0 -11 6 -20
14 -20 8 0 18 9 21 20 3 11 11 20 16 20 5 0 9 -11 9 -25 0 -15 6 -25 14 -25 8
0 20 17 26 38 7 20 19 45 27 54 13 15 13 21 -2 50 -10 18 -21 40 -25 48 -4 8
-13 15 -21 16z"/>
<path d="M1270 220 c-5 0 -14 -9 -20 -19 -5 -11 -7 -27 -4 -35 3 -9 12 -16 20
-16 9 0 14 12 14 35 0 19 -4 35 -10 35z"/>
<path d="M942 180 c-8 0 -16 -9 -19 -20 -3 -11 -9 -20 -14 -20 -5 0 -9 5 -9
10 0 6 -7 10 -15 10 -8 0 -15 -9 -15 -19 0 -11 -5 -23 -11 -27 -6 -3 -15 -1
-19 6 -4 7 -15 10 -24 7 -9 -4 -16 -2 -16 3 0 6 -11 10 -25 10 -14 0 -30 -9
-37 -20 -7 -11 -16 -20 -20 -20 -5 0 -8 7 -8 16 0 11 -5 14 -17 10 -9 -4 -41
-1 -70 5 -41 9 -56 10 -65 1 -7 -7 -18 -12 -25 -12 -8 0 -25 -7 -38 -16 -14
-9 -21 -22 -18 -30 3 -8 13 -14 23 -14 10 0 24 -10 33 -23 15 -22 15 -22 26 6
6 15 14 27 19 27 4 0 16 -13 25 -30 11 -17 23 -27 32 -24 7 3 11 12 8 20 -3 8
0 14 6 14 6 0 11 -4 11 -10 0 -5 14 -10 30 -10 17 0 30 5 30 10 0 6 7 10 14
10 8 0 27 11 42 25 15 14 28 25 29 25 1 0 12 -9 25 -20 13 -11 29 -20 36 -20
7 0 18 9 24 21 10 19 13 19 23 4 11 -14 17 -12 52 22 22 20 46 36 53 35 6 -2
12 4 12 12 0 8 -5 18 -10 21 -6 4 -16 2 -23 -4 -8 -6 -18 -6 -27 -1 -8 6 -21
10 -28 10z m-253 -96 c3 -2 -1 -10 -7 -16 -6 -6 -15 -8 -19 -4 -4 4 -1 11 7
16 8 5 17 7 19 4z"/>
<path d="M1004 110 c-9 0 -9 -7 3 -30 8 -17 19 -28 23 -25 5 3 4 17 -2 30 -6
14 -17 25 -24 25z"/>
</g>
</svg>
