<?xml version="1.0" standalone="no"?>
<!DOCTYPE svg PUBLIC "-//W3C//DTD SVG 20010904//EN"
 "http://www.w3.org/TR/2001/REC-SVG-20010904/DTD/svg10.dtd">
<svg version="1.0" xmlns="http://www.w3.org/2000/svg"
 width="128.000000pt" height="128.000000pt" viewBox="0 0 128.000000 128.000000"
 preserveAspectRatio="xMidYMid meet">
<metadata>
Created by potrace 1.16, written by Peter Selinger 2001-2019
</metadata>
<g transform="translate(0.000000,128.000000) scale(0.100000,-0.100000)"
fill="#000000" stroke="none">
<path d="M490 1249 c-41 -1 -84 -3 -95 -6 -11 -2 -26 -6 -34 -9 -11 -4 -10 -8
4 -24 10 -11 28 -20 39 -20 12 0 32 -7 44 -16 12 -8 22 -24 22 -34 0 -11 -20
-34 -46 -54 -25 -19 -59 -53 -75 -75 -16 -23 -34 -41 -40 -41 -7 0 -28 -15
-49 -32 -20 -18 -62 -50 -92 -70 -48 -33 -56 -43 -62 -79 -4 -24 -2 -46 4 -54
6 -7 31 -15 56 -18 24 -2 53 -12 63 -21 10 -9 27 -16 39 -16 11 0 32 -4 46
-10 14 -5 26 -16 26 -23 0 -7 -9 -23 -20 -35 -11 -12 -20 -24 -20 -28 0 -3
-13 -22 -30 -41 -16 -18 -30 -39 -30 -46 0 -6 -10 -23 -23 -37 -13 -14 -53
-54 -88 -90 -35 -36 -75 -80 -87 -97 -23 -33 -23 -33 -5 -89 9 -31 23 -59 31
-61 7 -3 24 5 38 17 13 13 24 32 24 43 0 10 13 32 29 48 16 16 39 29 50 29 11
0 23 -5 27 -12 4 -7 8 -46 8 -88 1 -65 5 -80 30 -117 17 -25 37 -43 47 -43 11
0 19 5 19 11 0 6 -5 19 -11 30 -7 13 -7 24 -1 32 6 7 12 35 15 62 3 28 10 70
16 95 5 25 10 77 11 115 0 71 0 71 -27 70 -25 0 -28 3 -28 35 0 26 5 36 19 38
16 3 18 0 12 -22 -3 -14 -3 -26 2 -26 4 0 13 5 19 11 5 5 25 18 43 27 24 13
37 29 49 66 13 38 23 51 42 57 14 3 34 11 46 17 19 10 21 8 26 -30 3 -23 1
-50 -4 -60 -6 -10 -11 -67 -12 -127 -2 -88 1 -112 14 -127 9 -11 24 -36 34
-56 9 -21 24 -38 32 -38 8 0 24 5 36 11 12 7 56 41 97 76 41 36 91 88 110 116
23 33 43 52 55 52 16 0 24 -12 36 -55 9 -30 24 -86 34 -125 9 -38 21 -74 26
-80 5 -5 9 -21 9 -35 0 -15 12 -42 27 -61 14 -19 42 -44 60 -56 19 -13 41 -23
49 -23 8 0 14 10 14 25 0 14 -14 61 -30 104 -17 44 -39 90 -49 103 -10 13 -21
46 -25 73 -4 28 -13 57 -20 65 -7 8 -22 41 -34 73 -12 33 -22 67 -22 77 0 10
-11 31 -24 47 -13 15 -26 42 -29 58 -2 17 -15 64 -27 105 -11 41 -29 86 -37
100 -9 14 -18 34 -19 45 -1 11 -7 37 -12 58 -8 30 -7 40 5 50 8 7 22 20 31 30
9 10 30 25 45 34 20 10 41 12 69 8 30 -5 52 -19 85 -54 24 -25 59 -72 76 -103
17 -32 37 -58 43 -58 6 0 17 7 25 16 7 8 14 38 16 66 2 44 -1 53 -26 79 -17
16 -32 37 -36 47 -3 9 -25 32 -48 51 -39 31 -45 33 -95 27 -29 -4 -72 -16 -95
-27 -41 -21 -41 -21 -60 2 -11 13 -31 32 -46 41 -15 11 -45 18 -73 18 -38 0
-50 -4 -59 -22 -7 -13 -9 -41 -5 -72 3 -29 12 -53 21 -58 8 -5 15 -16 15 -25
0 -9 -10 -26 -22 -38 -13 -13 -32 -35 -43 -50 -11 -14 -39 -46 -62 -70 -23
-25 -43 -56 -45 -71 -2 -15 -8 -29 -15 -31 -8 -3 -13 16 -15 64 -3 63 -5 68
-26 71 -13 2 -31 -2 -40 -10 -9 -7 -27 -19 -40 -26 -13 -7 -26 -11 -30 -8 -4
2 -9 35 -10 73 -2 69 -2 69 41 104 23 19 68 52 100 73 32 21 65 52 73 68 14
27 13 32 -7 66 -13 20 -28 40 -33 44 -6 4 -45 7 -86 7z m-175 -353 c5 -1 13
-24 18 -50 5 -33 4 -52 -4 -62 -8 -10 -24 -12 -53 -8 -22 3 -51 10 -63 16 -22
11 -22 11 -2 39 11 16 26 29 32 29 7 0 23 9 37 20 14 11 29 18 35 16z m476 -6
c5 0 12 -8 17 -17 5 -10 13 -44 16 -76 4 -31 14 -63 21 -71 8 -7 12 -22 9 -32
-3 -11 9 -46 25 -79 17 -33 31 -65 31 -71 0 -6 -10 -9 -24 -7 -17 4 -28 -2
-40 -18 -9 -13 -16 -31 -16 -41 0 -9 -26 -38 -57 -63 -32 -25 -69 -55 -83 -66
-24 -21 -24 -21 -41 -1 -13 17 -17 47 -18 160 -2 116 1 141 14 152 9 7 31 38
49 69 18 31 38 71 44 90 7 19 20 43 29 53 9 10 20 18 24 18z"/>
</g>
</svg>
