<?xml version="1.0" standalone="no"?>
<!DOCTYPE svg PUBLIC "-//W3C//DTD SVG 20010904//EN"
 "http://www.w3.org/TR/2001/REC-SVG-20010904/DTD/svg10.dtd">
<svg version="1.0" xmlns="http://www.w3.org/2000/svg"
 width="128.000000pt" height="128.000000pt" viewBox="0 0 128.000000 128.000000"
 preserveAspectRatio="xMidYMid meet">
<metadata>
Created by potrace 1.16, written by Peter Selinger 2001-2019
</metadata>
<g transform="translate(0.000000,128.000000) scale(0.100000,-0.100000)"
fill="#000000" stroke="none">
<path d="M525 1280 c-31 0 -55 -4 -55 -10 0 -6 7 -22 16 -35 9 -15 26 -25 39
-25 13 0 30 10 39 25 9 13 16 29 16 35 0 6 -24 10 -55 10z"/>
<path d="M956 1260 c-7 0 -28 -10 -46 -22 -19 -13 -46 -43 -62 -68 -15 -25
-39 -67 -53 -94 -14 -28 -25 -58 -25 -68 0 -10 -13 -48 -30 -83 -16 -35 -30
-70 -30 -77 0 -7 -7 -21 -14 -30 -7 -10 -19 -18 -27 -18 -8 0 -51 19 -96 42
-46 24 -83 46 -83 51 0 4 12 25 26 46 16 25 24 50 22 68 -2 18 -12 32 -30 40
-14 7 -48 17 -75 22 -26 5 -85 6 -130 2 -45 -3 -85 -10 -89 -14 -4 -4 1 -16
10 -26 10 -11 35 -22 56 -26 21 -4 46 -15 56 -26 14 -15 15 -24 6 -43 -5 -13
-50 -68 -98 -122 -48 -54 -99 -109 -113 -121 -23 -19 -26 -28 -26 -88 0 -54 4
-70 20 -81 10 -8 28 -14 39 -14 12 0 34 7 50 15 15 8 39 15 52 15 16 0 24 -6
24 -17 0 -10 -31 -43 -68 -73 -37 -30 -80 -61 -97 -68 -16 -7 -42 -25 -57 -39
-17 -17 -28 -37 -28 -54 0 -15 3 -34 6 -43 3 -9 14 -16 24 -16 10 0 40 20 68
45 27 25 54 45 60 45 5 0 26 -25 46 -55 20 -31 44 -59 53 -62 11 -4 25 4 40
23 23 27 24 35 20 119 -3 50 -1 98 4 108 6 9 15 17 20 17 6 0 37 21 70 46 34
26 66 43 74 40 8 -3 15 -15 15 -27 0 -12 -20 -63 -45 -115 -25 -51 -45 -101
-45 -112 0 -10 5 -33 11 -50 6 -17 17 -33 25 -36 8 -3 25 0 39 6 14 6 25 15
25 19 0 5 15 16 33 25 17 9 48 32 68 50 22 22 41 32 51 29 9 -4 32 -43 51 -88
20 -45 55 -120 79 -167 39 -76 46 -85 74 -88 24 -2 33 2 42 23 7 14 12 34 12
44 0 9 -12 33 -26 52 -14 19 -35 52 -46 74 -11 22 -28 49 -38 60 -10 11 -32
48 -49 81 -17 34 -31 70 -31 81 0 10 16 49 36 86 27 52 36 80 37 125 1 33 -4
71 -13 90 -8 17 -20 32 -26 32 -6 0 -16 -30 -23 -66 -7 -37 -21 -84 -31 -105
-11 -21 -24 -41 -30 -44 -6 -4 -17 -1 -25 5 -8 7 -21 26 -29 42 -14 28 -14 34
13 92 15 34 44 87 63 117 18 30 42 71 51 91 10 20 21 56 26 80 5 24 19 70 31
103 12 33 28 70 36 83 8 12 23 22 34 22 11 0 43 -22 70 -48 34 -33 50 -56 50
-74 0 -14 -7 -31 -15 -38 -9 -7 -14 -17 -13 -22 2 -6 26 -18 53 -28 28 -10 65
-24 83 -32 32 -12 35 -12 58 15 18 21 24 40 24 73 0 25 -5 55 -11 66 -6 11
-33 41 -59 67 -26 25 -63 53 -81 62 -19 9 -51 24 -72 33 -21 9 -44 16 -51 16z
m-502 -412 c13 -2 23 -17 32 -48 8 -25 14 -53 14 -63 0 -11 9 -32 21 -48 11
-16 19 -37 17 -46 -2 -10 -32 -39 -67 -65 -35 -27 -72 -48 -82 -48 -14 0 -19
7 -19 29 0 21 9 36 38 57 20 15 40 33 44 38 4 6 8 24 8 39 0 16 -4 36 -9 46
-8 14 -19 16 -63 11 -51 -5 -53 -6 -75 -52 -19 -39 -29 -49 -63 -59 -31 -9
-43 -10 -52 -1 -9 9 -8 17 1 35 7 13 46 52 86 86 40 33 77 61 83 61 5 0 23 7
38 15 16 8 38 14 48 13z m155 -348 c5 0 18 -12 29 -27 15 -21 17 -33 10 -48
-6 -11 -26 -33 -45 -49 -20 -17 -38 -25 -43 -20 -6 6 -4 25 5 49 7 22 18 52
24 68 6 15 15 27 20 27z m-309 -60 c5 0 11 -4 15 -9 3 -5 1 -12 -5 -16 -5 -3
-15 -3 -20 0 -6 4 -8 11 -5 16 4 5 10 9 15 9z"/>
</g>
</svg>
