<?xml version="1.0" standalone="no"?>
<!DOCTYPE svg PUBLIC "-//W3C//DTD SVG 20010904//EN"
 "http://www.w3.org/TR/2001/REC-SVG-20010904/DTD/svg10.dtd">
<svg version="1.0" xmlns="http://www.w3.org/2000/svg"
 width="56.000000pt" height="56.000000pt" viewBox="0 0 56.000000 56.000000"
 preserveAspectRatio="xMidYMid meet">
<metadata>
Created by potrace 1.16, written by Peter Selinger 2001-2019
</metadata>
<g transform="translate(0.000000,56.000000) scale(0.100000,-0.100000)"
fill="#000000" stroke="none">
<path d="M167 540 c-4 0 -10 -6 -13 -14 -3 -8 -4 -25 -2 -38 2 -19 9 -23 40
-23 20 0 40 -3 44 -8 4 -4 -17 -33 -48 -65 -31 -31 -59 -67 -63 -80 -4 -16 -2
-24 10 -28 9 -4 43 7 78 24 34 17 80 35 102 41 22 6 52 11 68 11 17 0 27 -5
27 -14 0 -8 -17 -28 -37 -45 -21 -17 -44 -31 -52 -31 -8 0 -22 7 -32 16 -11
10 -26 13 -38 9 -13 -4 -21 -16 -23 -37 -3 -29 -8 -32 -78 -54 -41 -13 -82
-24 -90 -24 -9 0 -26 -7 -38 -16 -12 -8 -22 -24 -22 -35 0 -10 5 -19 10 -19 6
0 19 5 30 10 11 6 29 15 40 20 11 6 35 10 55 10 19 0 66 -5 105 -12 56 -10 77
-10 103 1 18 7 41 14 52 15 11 2 33 9 49 15 16 7 35 10 43 7 7 -3 13 -15 13
-27 0 -13 -18 -40 -45 -66 -25 -24 -52 -43 -60 -43 -8 0 -19 -10 -26 -22 -11
-20 -10 -21 35 -15 25 4 59 13 74 21 15 8 35 32 45 55 10 23 23 41 28 41 5 0
9 11 9 25 0 16 -11 36 -27 50 -16 13 -40 25 -54 25 -14 0 -52 -8 -85 -19 -32
-10 -77 -24 -100 -31 -33 -10 -46 -10 -65 1 -24 12 -23 13 31 38 30 13 71 25
91 25 30 1 43 8 72 44 20 23 39 52 42 63 4 12 0 30 -9 44 -11 16 -26 25 -42
25 -14 0 -53 -7 -86 -16 -33 -8 -63 -13 -65 -10 -3 3 8 21 25 40 16 19 35 51
42 71 7 20 9 39 6 42 -3 4 -30 -2 -60 -12 -50 -17 -55 -17 -77 -2 -13 10 -27
17 -32 17z"/>
</g>
</svg>
