<?xml version="1.0" standalone="no"?>
<!DOCTYPE svg PUBLIC "-//W3C//DTD SVG 20010904//EN"
 "http://www.w3.org/TR/2001/REC-SVG-20010904/DTD/svg10.dtd">
<svg version="1.0" xmlns="http://www.w3.org/2000/svg"
 width="56.000000pt" height="56.000000pt" viewBox="0 0 56.000000 56.000000"
 preserveAspectRatio="xMidYMid meet">
<metadata>
Created by potrace 1.16, written by Peter Selinger 2001-2019
</metadata>
<g transform="translate(0.000000,56.000000) scale(0.100000,-0.100000)"
fill="#000000" stroke="none">
<path d="M195 530 c-12 10 -15 8 -19 -12 -3 -12 -7 -32 -8 -43 -3 -17 3 -20
32 -20 31 0 35 -3 33 -23 -2 -12 -25 -43 -53 -68 -27 -26 -54 -62 -61 -81 -9
-29 -9 -37 2 -44 9 -5 22 -2 34 7 11 8 29 18 40 23 11 5 30 19 43 30 12 12 22
26 22 31 0 6 -6 10 -14 10 -8 0 -18 5 -21 10 -4 6 5 20 19 31 14 11 38 40 52
64 16 28 23 52 19 64 -3 11 -15 23 -26 26 -11 4 -34 1 -50 -5 -23 -10 -32 -10
-44 0z"/>
<path d="M375 399 c-16 0 -47 -11 -67 -25 -21 -13 -38 -29 -38 -34 0 -6 4 -10
8 -10 5 0 23 7 41 16 17 9 39 13 47 10 9 -3 14 -14 12 -23 -2 -9 -23 -32 -46
-50 -29 -22 -55 -33 -77 -33 -18 0 -38 -7 -45 -15 -7 -8 -39 -24 -71 -36 -37
-14 -71 -34 -89 -56 -16 -18 -33 -45 -36 -59 -4 -17 -1 -31 8 -40 13 -13 18
-12 43 8 22 17 43 23 80 23 37 0 58 -6 82 -24 31 -24 31 -24 65 0 18 13 36 28
40 35 4 6 30 24 58 38 28 15 55 24 60 21 6 -4 10 -11 10 -16 0 -6 -25 -37 -57
-70 -38 -40 -51 -59 -39 -59 9 0 29 8 44 17 15 10 29 20 32 23 3 3 22 14 43
24 21 9 43 28 49 41 6 13 8 34 5 48 -4 13 -17 28 -30 34 -18 9 -37 7 -83 -9
-32 -11 -69 -29 -82 -41 -20 -19 -38 -22 -124 -25 -55 -2 -104 0 -109 5 -6 6
5 20 29 37 22 15 97 47 167 71 70 25 138 51 151 60 13 8 24 18 24 21 0 3 -5
15 -11 26 -6 12 -23 31 -38 44 -15 14 -39 23 -56 23z"/>
</g>
</svg>
