<?xml version="1.0" standalone="no"?>
<!DOCTYPE svg PUBLIC "-//W3C//DTD SVG 20010904//EN"
 "http://www.w3.org/TR/2001/REC-SVG-20010904/DTD/svg10.dtd">
<svg version="1.0" xmlns="http://www.w3.org/2000/svg"
 width="56.000000pt" height="56.000000pt" viewBox="0 0 56.000000 56.000000"
 preserveAspectRatio="xMidYMid meet">
<metadata>
Created by potrace 1.16, written by Peter Selinger 2001-2019
</metadata>
<g transform="translate(0.000000,56.000000) scale(0.100000,-0.100000)"
fill="#000000" stroke="none">
<path d="M251 500 c-14 0 -37 -9 -51 -19 -14 -11 -35 -21 -48 -22 -12 -2 -24
-8 -25 -14 -1 -5 8 -11 21 -13 12 -2 22 -8 22 -13 0 -5 -12 -27 -26 -49 -14
-21 -39 -43 -55 -49 -16 -5 -33 -20 -38 -33 -4 -13 -12 -33 -16 -46 -5 -19 -3
-25 15 -29 13 -3 19 -11 16 -19 -3 -8 -1 -14 5 -14 5 0 28 12 52 28 23 15 49
30 57 35 8 4 -4 5 -27 2 -30 -4 -43 -2 -43 7 0 7 26 36 57 65 31 29 61 53 66
53 6 0 24 10 41 23 23 17 39 21 61 17 21 -3 31 -12 33 -26 2 -15 -6 -28 -25
-41 -15 -10 -50 -30 -76 -43 -26 -13 -50 -27 -53 -32 -3 -4 -1 -8 5 -8 5 0 13
5 16 10 4 6 10 8 15 5 5 -3 31 0 57 6 26 7 63 23 81 36 23 17 32 32 32 53 0
19 -9 35 -26 49 -17 13 -41 21 -66 21 -28 0 -53 -9 -84 -31 -25 -17 -48 -29
-51 -26 -3 3 17 28 45 56 27 27 47 52 44 55 -3 3 -17 6 -31 6z"/>
<path d="M348 195 c-2 3 -18 -4 -35 -15 -17 -10 -34 -23 -37 -29 -4 -6 -22
-11 -40 -11 -18 0 -46 7 -62 15 -18 9 -52 13 -89 12 -52 -2 -61 -6 -72 -27 -7
-14 -13 -35 -13 -47 0 -13 5 -23 11 -23 6 0 31 18 56 40 25 22 51 40 58 40 7
0 26 -13 42 -30 16 -16 43 -32 60 -36 26 -5 37 0 71 31 23 20 44 46 47 57 4
11 5 21 3 23z"/>
<path d="M468 174 c-25 17 -28 17 -34 2 -4 -10 1 -23 13 -34 10 -9 32 -34 47
-55 16 -20 37 -37 47 -37 13 0 19 7 19 21 0 12 -15 36 -32 53 -18 18 -45 41
-60 50z"/>
</g>
</svg>
