<?xml version="1.0" standalone="no"?>
<!DOCTYPE svg PUBLIC "-//W3C//DTD SVG 20010904//EN"
 "http://www.w3.org/TR/2001/REC-SVG-20010904/DTD/svg10.dtd">
<svg version="1.0" xmlns="http://www.w3.org/2000/svg"
 width="56.000000pt" height="56.000000pt" viewBox="0 0 56.000000 56.000000"
 preserveAspectRatio="xMidYMid meet">
<metadata>
Created by potrace 1.16, written by Peter Selinger 2001-2019
</metadata>
<g transform="translate(0.000000,56.000000) scale(0.100000,-0.100000)"
fill="#000000" stroke="none">
<path d="M282 560 c-16 0 -37 -9 -47 -20 -12 -13 -25 -18 -40 -14 -13 3 -27
-1 -35 -11 -11 -13 -10 -19 9 -38 11 -13 21 -30 21 -39 0 -8 -18 -31 -40 -51
-22 -19 -40 -42 -40 -49 0 -8 5 -19 12 -26 7 -7 22 -12 33 -12 12 0 30 -9 39
-19 17 -19 16 -21 -23 -45 -23 -15 -41 -33 -41 -41 0 -9 -9 -15 -21 -15 -12 0
-36 -15 -55 -34 -21 -21 -34 -44 -34 -60 0 -15 6 -29 14 -32 8 -3 28 4 45 17
30 22 31 22 70 4 22 -9 42 -24 45 -31 3 -8 16 -14 30 -14 16 0 38 16 68 48 24
27 61 55 86 65 23 9 51 17 62 17 11 0 20 -7 20 -15 0 -8 -19 -29 -42 -45 -23
-17 -61 -39 -83 -49 -22 -10 -46 -25 -54 -34 -12 -15 -10 -17 20 -17 23 0 52
12 86 35 29 19 57 35 63 35 6 0 26 10 45 23 19 12 35 30 35 40 0 10 -12 29
-26 42 -21 20 -37 25 -78 25 -46 0 -58 -6 -123 -54 -73 -54 -73 -54 -110 -35
-21 10 -45 19 -55 19 -10 0 -18 4 -18 8 0 5 10 18 23 29 12 12 38 30 57 40 20
11 36 29 38 41 2 12 8 22 13 22 5 0 7 -11 3 -25 -5 -21 -3 -25 15 -25 14 0 22
8 27 28 3 15 7 32 9 39 2 6 19 19 38 28 20 9 43 25 52 35 12 13 15 27 10 49
-3 16 -18 37 -32 47 -23 15 -29 15 -52 2 -14 -9 -32 -13 -38 -11 -7 3 -13 12
-13 22 0 9 9 34 20 56 11 22 20 41 20 42 0 2 -13 3 -28 3z m24 -140 c12 0 29
-3 38 -6 9 -3 16 -10 16 -15 0 -5 -10 -21 -22 -35 -13 -15 -34 -37 -47 -50
-25 -23 -25 -23 -53 -3 -15 11 -28 23 -28 26 0 2 17 22 37 44 21 22 47 39 59
39z"/>
</g>
</svg>
