<?xml version="1.0" standalone="no"?>
<!DOCTYPE svg PUBLIC "-//W3C//DTD SVG 20010904//EN"
 "http://www.w3.org/TR/2001/REC-SVG-20010904/DTD/svg10.dtd">
<svg version="1.0" xmlns="http://www.w3.org/2000/svg"
 width="56.000000pt" height="56.000000pt" viewBox="0 0 56.000000 56.000000"
 preserveAspectRatio="xMidYMid meet">
<metadata>
Created by potrace 1.16, written by Peter Selinger 2001-2019
</metadata>
<g transform="translate(0.000000,56.000000) scale(0.100000,-0.100000)"
fill="#000000" stroke="none">
<path d="M208 519 c-7 -1 -31 -8 -53 -16 -22 -8 -46 -20 -54 -28 -13 -12 -11
-16 11 -24 14 -5 35 -7 47 -4 18 4 20 2 15 -13 -4 -11 -25 -38 -46 -62 -29
-32 -38 -50 -36 -70 3 -23 7 -27 31 -24 15 1 27 -1 27 -6 0 -5 -10 -14 -22
-21 -20 -10 -18 -11 19 -6 36 4 44 2 61 -22 13 -18 24 -24 37 -20 11 5 15 14
12 26 -2 10 0 25 4 34 5 8 28 18 52 22 23 4 52 13 65 21 15 10 22 24 22 45 0
18 -9 39 -25 54 -13 14 -32 25 -42 25 -10 0 -33 -9 -51 -20 -18 -11 -39 -20
-47 -20 -8 0 -15 6 -15 13 0 6 9 23 20 37 11 14 20 33 20 42 0 10 -9 22 -19
28 -11 5 -26 9 -33 9z m92 -140 c3 0 11 -3 19 -8 12 -7 10 -14 -10 -38 -15
-18 -41 -35 -68 -42 -33 -9 -47 -9 -57 0 -11 9 -12 15 -2 26 7 9 35 26 63 38
27 13 52 24 55 24z"/>
<path d="M409 260 c-3 0 -27 -14 -55 -31 -27 -17 -60 -42 -73 -55 -13 -13 -32
-24 -43 -24 -10 0 -36 11 -56 25 -20 14 -45 25 -54 25 -10 0 -18 7 -18 15 0 8
-6 15 -13 15 -6 0 -28 -4 -46 -10 -19 -5 -38 -15 -43 -22 -4 -7 -8 -30 -8 -50
0 -26 5 -38 14 -38 7 0 25 9 38 20 14 11 37 24 52 29 22 9 31 5 71 -29 26 -22
52 -40 59 -40 6 0 28 16 47 36 18 19 55 48 80 65 25 16 55 29 65 29 11 0 29
-7 40 -15 19 -15 19 -15 -1 -31 -11 -8 -56 -38 -99 -67 -44 -29 -82 -58 -84
-64 -2 -8 6 -13 22 -13 14 0 48 13 76 30 28 17 56 30 62 30 6 0 35 12 65 27
38 20 53 33 53 48 0 11 -13 31 -30 45 -16 13 -48 30 -72 37 -24 7 -45 13 -49
13z"/>
</g>
</svg>
