<?xml version="1.0" standalone="no"?>
<!DOCTYPE svg PUBLIC "-//W3C//DTD SVG 20010904//EN"
 "http://www.w3.org/TR/2001/REC-SVG-20010904/DTD/svg10.dtd">
<svg version="1.0" xmlns="http://www.w3.org/2000/svg"
 width="56.000000pt" height="56.000000pt" viewBox="0 0 56.000000 56.000000"
 preserveAspectRatio="xMidYMid meet">
<metadata>
Created by potrace 1.16, written by Peter Selinger 2001-2019
</metadata>
<g transform="translate(0.000000,56.000000) scale(0.100000,-0.100000)"
fill="#000000" stroke="none">
<path d="M266 538 c-24 3 -28 1 -22 -15 4 -10 10 -33 13 -50 6 -33 5 -33 -34
-33 -35 0 -42 4 -53 29 -6 16 -20 37 -31 47 -17 15 -19 15 -25 1 -3 -9 -3 -21
1 -28 4 -6 10 -34 12 -63 3 -28 11 -58 17 -66 7 -8 16 -23 19 -33 5 -14 12
-17 29 -11 13 4 45 7 73 6 27 -1 53 -6 57 -10 4 -4 9 -19 10 -32 3 -24 0 -25
-82 -35 -47 -5 -96 -16 -110 -24 -14 -7 -35 -23 -47 -34 -18 -16 -23 -31 -23
-73 0 -42 5 -59 24 -81 24 -28 25 -28 40 -8 15 20 15 20 29 1 12 -16 30 -20
104 -24 49 -2 98 -2 108 0 17 3 15 7 -12 21 -18 10 -33 24 -33 31 0 8 6 17 13
19 9 4 8 8 -3 16 -8 6 -49 10 -91 10 -42 -1 -82 2 -88 5 -6 4 -11 18 -11 31 0
14 8 29 19 34 10 6 37 13 60 17 26 4 46 14 52 25 5 11 16 19 23 19 8 0 16 -9
19 -20 3 -11 13 -20 22 -20 9 0 28 -9 42 -20 14 -11 40 -20 57 -20 18 0 37 5
44 12 7 7 12 20 12 30 0 10 -19 28 -47 45 -27 15 -57 39 -68 52 -11 14 -20 30
-20 34 0 5 16 14 35 21 27 9 35 16 35 36 0 20 -7 26 -37 35 -20 5 -43 16 -50
23 -7 7 -21 31 -33 55 -16 33 -26 43 -49 45z"/>
</g>
</svg>
