<?xml version="1.0" standalone="no"?>
<!DOCTYPE svg PUBLIC "-//W3C//DTD SVG 20010904//EN"
 "http://www.w3.org/TR/2001/REC-SVG-20010904/DTD/svg10.dtd">
<svg version="1.0" xmlns="http://www.w3.org/2000/svg"
 width="56.000000pt" height="56.000000pt" viewBox="0 0 56.000000 56.000000"
 preserveAspectRatio="xMidYMid meet">
<metadata>
Created by potrace 1.16, written by Peter Selinger 2001-2019
</metadata>
<g transform="translate(0.000000,56.000000) scale(0.100000,-0.100000)"
fill="#000000" stroke="none">
<path d="M314 549 c-6 5 -17 0 -28 -13 -10 -12 -15 -30 -11 -43 3 -13 -2 -28
-11 -38 -13 -12 -26 -15 -55 -10 -36 6 -39 5 -39 -17 0 -13 7 -34 16 -46 8
-12 21 -22 27 -22 7 0 30 9 51 21 32 17 41 18 51 7 7 -7 20 -37 28 -67 14 -48
14 -56 1 -77 -9 -12 -23 -23 -32 -23 -9 -1 -28 -3 -42 -5 -14 -2 -37 -6 -52
-10 -16 -3 -39 -8 -52 -11 -13 -3 -34 -20 -45 -39 -12 -18 -21 -41 -21 -50 0
-9 7 -19 15 -23 9 -3 23 1 33 10 9 8 47 20 83 27 37 7 74 10 83 7 9 -4 16 -18
16 -32 0 -14 -7 -41 -14 -60 -14 -32 -14 -35 2 -35 11 0 31 22 50 53 18 29 32
67 32 84 0 17 7 36 16 43 8 8 20 22 25 32 7 14 1 35 -27 91 -32 62 -37 81 -36
134 1 57 -2 64 -26 83 -15 11 -32 24 -38 29z"/>
</g>
</svg>
