<?xml version="1.0" standalone="no"?>
<!DOCTYPE svg PUBLIC "-//W3C//DTD SVG 20010904//EN"
 "http://www.w3.org/TR/2001/REC-SVG-20010904/DTD/svg10.dtd">
<svg version="1.0" xmlns="http://www.w3.org/2000/svg"
 width="56.000000pt" height="56.000000pt" viewBox="0 0 56.000000 56.000000"
 preserveAspectRatio="xMidYMid meet">
<metadata>
Created by potrace 1.16, written by Peter Selinger 2001-2019
</metadata>
<g transform="translate(0.000000,56.000000) scale(0.100000,-0.100000)"
fill="#000000" stroke="none">
<path d="M246 560 c-13 0 -30 -10 -39 -22 -9 -13 -29 -39 -46 -58 -20 -23 -31
-46 -31 -66 0 -16 6 -39 14 -49 13 -19 16 -19 67 -3 39 13 56 14 66 6 7 -6 13
-20 13 -32 0 -12 4 -26 8 -31 5 -6 18 -37 30 -71 12 -34 22 -71 22 -84 0 -22
-2 -23 -57 -16 -32 3 -76 12 -98 20 -22 9 -50 15 -61 16 -15 0 -24 -8 -28 -25
-4 -14 -2 -34 4 -44 5 -10 33 -27 61 -37 28 -11 61 -29 73 -41 12 -13 33 -23
49 -23 17 0 27 5 27 15 0 8 -22 26 -50 40 -28 14 -50 32 -50 41 0 10 6 14 18
11 9 -3 50 -13 90 -23 54 -13 78 -15 90 -8 9 6 18 24 20 39 2 17 -10 55 -31
99 -20 39 -45 94 -56 123 -20 52 -20 52 9 73 21 15 30 30 30 50 0 20 -9 35
-30 50 -17 12 -37 19 -45 16 -8 -3 -20 -26 -28 -52 -11 -37 -20 -50 -41 -57
-15 -5 -33 -6 -41 -3 -8 3 -15 12 -15 20 0 8 18 36 40 61 22 25 40 50 40 56 0
5 -11 9 -24 9z"/>
</g>
</svg>
