<?xml version="1.0" standalone="no"?>
<!DOCTYPE svg PUBLIC "-//W3C//DTD SVG 20010904//EN"
 "http://www.w3.org/TR/2001/REC-SVG-20010904/DTD/svg10.dtd">
<svg version="1.0" xmlns="http://www.w3.org/2000/svg"
 width="56.000000pt" height="56.000000pt" viewBox="0 0 56.000000 56.000000"
 preserveAspectRatio="xMidYMid meet">
<metadata>
Created by potrace 1.16, written by Peter Selinger 2001-2019
</metadata>
<g transform="translate(0.000000,56.000000) scale(0.100000,-0.100000)"
fill="#000000" stroke="none">
<path d="M289 540 c-6 0 -13 -8 -16 -18 -2 -10 -21 -23 -43 -30 -22 -6 -53
-12 -70 -12 -19 0 -33 -6 -37 -16 -4 -11 1 -22 13 -31 14 -10 34 -12 76 -8 51
6 59 5 65 -12 3 -10 19 -34 35 -53 15 -19 28 -40 28 -47 0 -7 -10 -14 -22 -14
-13 -1 -55 -3 -94 -4 -39 -2 -81 -8 -93 -14 -11 -7 -28 -22 -36 -34 -8 -12
-12 -32 -9 -44 4 -13 24 -31 48 -43 23 -11 51 -20 62 -20 11 0 25 -5 32 -12 7
-7 12 -22 12 -34 0 -13 -9 -39 -21 -58 -21 -36 -21 -36 19 -36 38 0 42 3 71
54 17 29 31 65 31 79 0 15 -9 32 -22 41 -14 10 -44 16 -78 16 -31 0 -61 5 -68
12 -7 7 -12 18 -12 25 0 9 20 13 72 13 39 0 88 -5 107 -11 20 -6 47 -16 61
-21 20 -8 28 -6 42 12 10 13 18 39 18 61 0 26 -7 46 -20 59 -11 11 -20 27 -20
36 0 9 -9 18 -20 21 -16 4 -18 9 -10 19 8 9 8 19 1 32 -6 11 -7 22 -4 26 3 3
-2 15 -12 26 -10 11 -31 20 -47 20 -15 0 -28 5 -28 10 0 6 -5 10 -11 10z"/>
</g>
</svg>
