<?xml version="1.0" standalone="no"?>
<!DOCTYPE svg PUBLIC "-//W3C//DTD SVG 20010904//EN"
 "http://www.w3.org/TR/2001/REC-SVG-20010904/DTD/svg10.dtd">
<svg version="1.0" xmlns="http://www.w3.org/2000/svg"
 width="56.000000pt" height="56.000000pt" viewBox="0 0 56.000000 56.000000"
 preserveAspectRatio="xMidYMid meet">
<metadata>
Created by potrace 1.16, written by Peter Selinger 2001-2019
</metadata>
<g transform="translate(0.000000,56.000000) scale(0.100000,-0.100000)"
fill="#000000" stroke="none">
<path d="M230 543 c-26 13 -29 13 -33 -2 -2 -9 12 -40 30 -69 18 -29 33 -55
33 -57 0 -3 -20 -5 -43 -5 -29 0 -49 6 -59 18 -8 9 -18 25 -21 35 -4 10 -17
17 -31 17 -14 0 -28 -5 -31 -10 -4 -6 1 -32 10 -59 10 -30 26 -56 42 -66 20
-14 40 -16 90 -12 35 2 70 10 77 17 12 9 18 6 30 -19 9 -16 34 -50 56 -76 22
-25 40 -50 40 -56 0 -5 -9 -9 -19 -9 -11 0 -22 4 -25 9 -3 5 -36 7 -73 4 -38
-2 -93 -12 -123 -21 -30 -9 -59 -23 -63 -29 -4 -7 -15 -13 -23 -13 -8 0 -23
-15 -34 -32 -11 -18 -20 -42 -20 -54 0 -11 8 -28 18 -37 14 -13 35 -16 102
-13 47 2 92 7 101 10 10 4 20 3 24 -3 3 -6 37 -11 76 -11 38 0 69 2 69 5 0 4
-7 19 -15 34 -8 16 -22 31 -30 35 -9 3 -31 6 -48 6 -18 0 -51 -7 -74 -15 -33
-11 -48 -12 -67 -3 -19 8 -32 8 -55 -2 -16 -6 -35 -9 -41 -5 -7 4 -5 16 7 37
10 16 27 35 38 41 12 6 71 10 150 9 72 -2 149 -5 173 -8 42 -6 42 -6 42 36 0
39 -5 48 -65 107 -36 35 -65 68 -65 74 0 5 9 14 20 21 11 7 20 18 20 25 0 6
-12 21 -26 32 -15 12 -36 21 -47 21 -11 0 -35 18 -54 39 -18 22 -47 46 -63 54z"/>
</g>
</svg>
