<?xml version="1.0" standalone="no"?>
<!DOCTYPE svg PUBLIC "-//W3C//DTD SVG 20010904//EN"
 "http://www.w3.org/TR/2001/REC-SVG-20010904/DTD/svg10.dtd">
<svg version="1.0" xmlns="http://www.w3.org/2000/svg"
 width="56.000000pt" height="56.000000pt" viewBox="0 0 56.000000 56.000000"
 preserveAspectRatio="xMidYMid meet">
<metadata>
Created by potrace 1.16, written by Peter Selinger 2001-2019
</metadata>
<g transform="translate(0.000000,56.000000) scale(0.100000,-0.100000)"
fill="#000000" stroke="none">
<path d="M370 560 c-3 0 -20 -17 -37 -37 -23 -25 -33 -46 -33 -68 0 -18 5 -57
10 -86 6 -30 13 -62 16 -71 4 -12 -6 -23 -35 -38 -22 -11 -60 -20 -84 -20 -30
0 -49 -6 -60 -18 -10 -10 -17 -23 -17 -28 0 -5 18 -30 40 -54 26 -30 40 -55
40 -73 0 -16 -5 -37 -10 -48 -10 -17 -7 -19 23 -19 18 0 38 5 45 12 7 7 12 25
12 41 0 16 -12 48 -26 73 -14 24 -24 51 -20 59 3 10 14 13 33 9 16 -3 45 2 66
11 22 9 42 26 47 41 6 16 6 40 0 67 -5 23 -10 59 -10 79 0 29 6 41 25 54 14 9
25 23 25 30 0 8 -10 30 -22 49 -13 19 -25 35 -28 35z"/>
<path d="M208 485 c-31 5 -38 3 -38 -10 0 -8 12 -21 28 -27 15 -6 38 -11 52
-12 16 -1 26 5 28 16 2 9 -5 18 -15 21 -10 3 -35 8 -55 12z"/>
</g>
</svg>
