<?xml version="1.0" standalone="no"?>
<!DOCTYPE svg PUBLIC "-//W3C//DTD SVG 20010904//EN"
 "http://www.w3.org/TR/2001/REC-SVG-20010904/DTD/svg10.dtd">
<svg version="1.0" xmlns="http://www.w3.org/2000/svg"
 width="56.000000pt" height="56.000000pt" viewBox="0 0 56.000000 56.000000"
 preserveAspectRatio="xMidYMid meet">
<metadata>
Created by potrace 1.16, written by Peter Selinger 2001-2019
</metadata>
<g transform="translate(0.000000,56.000000) scale(0.100000,-0.100000)"
fill="#000000" stroke="none">
<path d="M205 537 c-6 2 -16 -2 -23 -9 -7 -7 -12 -26 -12 -42 0 -17 8 -41 18
-54 12 -16 32 -25 63 -29 24 -3 52 -10 62 -15 9 -5 17 -18 17 -29 0 -11 7 -31
16 -45 13 -19 14 -28 5 -37 -6 -6 -45 -13 -85 -15 -63 -4 -79 -8 -106 -31 -25
-21 -33 -36 -37 -73 -4 -35 -1 -55 12 -74 9 -14 46 -40 82 -56 65 -31 65 -31
86 -10 20 21 20 22 2 42 -10 11 -29 20 -42 20 -13 0 -34 5 -46 11 -12 7 -25
17 -29 23 -4 6 -8 25 -8 42 0 19 8 38 21 50 17 15 36 19 98 18 42 0 88 -4 103
-8 22 -7 29 -5 35 10 4 11 -6 42 -30 86 -20 38 -37 74 -37 80 0 6 7 19 16 29
9 10 14 25 11 32 -3 8 -26 21 -51 29 -25 8 -48 13 -51 10 -3 -3 -5 -14 -5 -24
0 -10 -6 -18 -12 -18 -7 0 -23 8 -35 18 -12 9 -23 28 -25 41 -2 14 -8 26 -13
28z"/>
</g>
</svg>
