<?xml version="1.0" standalone="no"?>
<!DOCTYPE svg PUBLIC "-//W3C//DTD SVG 20010904//EN"
 "http://www.w3.org/TR/2001/REC-SVG-20010904/DTD/svg10.dtd">
<svg version="1.0" xmlns="http://www.w3.org/2000/svg"
 width="56.000000pt" height="56.000000pt" viewBox="0 0 56.000000 56.000000"
 preserveAspectRatio="xMidYMid meet">
<metadata>
Created by potrace 1.16, written by Peter Selinger 2001-2019
</metadata>
<g transform="translate(0.000000,56.000000) scale(0.100000,-0.100000)"
fill="#000000" stroke="none">
<path d="M327 530 c-12 0 -30 -5 -39 -11 -10 -5 -18 -17 -18 -24 0 -10 -11
-15 -32 -15 -18 0 -57 -3 -86 -6 -33 -4 -52 -12 -52 -20 0 -7 6 -16 13 -21 6
-4 50 -8 96 -8 84 0 84 0 113 -85 16 -47 32 -96 35 -109 6 -22 4 -23 -38 -16
-24 4 -61 16 -81 26 -21 11 -50 19 -65 19 -15 0 -41 -11 -58 -25 -30 -24 -30
-24 38 -87 62 -59 67 -67 67 -106 0 -39 2 -42 28 -42 20 0 30 7 40 27 6 15 12
35 12 45 0 9 -16 32 -36 50 -20 18 -48 43 -61 56 -14 13 -23 25 -20 28 2 3 31
-4 63 -16 33 -12 74 -26 91 -32 25 -9 39 -8 59 1 25 11 26 14 20 64 -4 29 -18
82 -32 119 -14 38 -30 70 -35 74 -5 3 -9 16 -9 28 0 18 7 25 30 30 18 3 30 12
30 21 0 9 -12 20 -26 25 -14 6 -35 10 -47 10z"/>
</g>
</svg>
