<?xml version="1.0" standalone="no"?>
<!DOCTYPE svg PUBLIC "-//W3C//DTD SVG 20010904//EN"
 "http://www.w3.org/TR/2001/REC-SVG-20010904/DTD/svg10.dtd">
<svg version="1.0" xmlns="http://www.w3.org/2000/svg"
 width="56.000000pt" height="56.000000pt" viewBox="0 0 56.000000 56.000000"
 preserveAspectRatio="xMidYMid meet">
<metadata>
Created by potrace 1.16, written by Peter Selinger 2001-2019
</metadata>
<g transform="translate(0.000000,56.000000) scale(0.100000,-0.100000)"
fill="#000000" stroke="none">
<path d="M305 559 c-5 0 -19 -12 -30 -26 -20 -25 -22 -25 -53 -9 -17 9 -36 16
-42 16 -5 0 -10 -9 -10 -19 0 -10 16 -33 35 -50 19 -17 41 -28 49 -25 10 4 22
-8 36 -37 18 -34 19 -43 8 -50 -7 -5 -24 -12 -38 -16 -14 -3 -31 -12 -38 -19
-7 -8 -21 -19 -30 -26 -9 -7 -23 -23 -29 -35 -7 -13 -13 -44 -13 -71 0 -45 3
-51 58 -104 31 -31 71 -63 89 -72 18 -9 41 -16 51 -16 10 0 26 8 36 19 16 17
16 20 -1 48 -9 17 -31 40 -48 51 -17 12 -39 19 -50 16 -11 -2 -35 5 -52 16
-30 18 -33 24 -33 68 0 39 5 53 26 73 23 21 34 24 105 23 58 -1 79 2 79 11 0
7 -21 41 -47 75 -43 58 -46 65 -35 92 8 23 8 35 -1 49 -6 10 -16 19 -22 18z"/>
</g>
</svg>
