<?xml version="1.0" standalone="no"?>
<!DOCTYPE svg PUBLIC "-//W3C//DTD SVG 20010904//EN"
 "http://www.w3.org/TR/2001/REC-SVG-20010904/DTD/svg10.dtd">
<svg version="1.0" xmlns="http://www.w3.org/2000/svg"
 width="56.000000pt" height="56.000000pt" viewBox="0 0 56.000000 56.000000"
 preserveAspectRatio="xMidYMid meet">
<metadata>
Created by potrace 1.16, written by Peter Selinger 2001-2019
</metadata>
<g transform="translate(0.000000,56.000000) scale(0.100000,-0.100000)"
fill="#000000" stroke="none">
<path d="M375 523 c-11 3 -29 2 -41 -3 -11 -4 -28 -20 -37 -34 -16 -24 -23
-26 -83 -26 -46 0 -64 -4 -62 -12 2 -6 22 -17 43 -25 21 -7 53 -11 71 -7 28 5
35 1 59 -30 15 -20 33 -53 41 -73 7 -21 13 -46 14 -57 0 -16 -5 -17 -37 -11
-21 4 -63 15 -93 26 -30 10 -64 19 -77 19 -12 0 -34 -10 -48 -23 -27 -23 -27
-23 -6 -94 12 -39 36 -93 54 -120 27 -41 37 -48 69 -51 33 -3 38 0 44 22 4 19
-2 35 -27 65 -18 23 -36 41 -40 41 -4 0 -17 15 -28 34 -12 18 -21 41 -21 50 0
13 10 16 49 16 28 0 53 -4 56 -10 3 -5 23 -10 43 -10 20 0 54 -5 75 -11 20 -5
37 -14 37 -19 0 -6 11 -10 25 -10 22 0 25 4 25 35 0 19 -4 35 -10 35 -5 0 -10
7 -10 15 0 9 -10 35 -21 58 -12 23 -31 54 -43 70 -21 29 -21 29 -1 42 11 8 26
19 33 25 6 6 12 17 12 25 0 8 -10 21 -22 29 -13 8 -32 16 -43 19z"/>
</g>
</svg>
