<?xml version="1.0" standalone="no"?>
<!DOCTYPE svg PUBLIC "-//W3C//DTD SVG 20010904//EN"
 "http://www.w3.org/TR/2001/REC-SVG-20010904/DTD/svg10.dtd">
<svg version="1.0" xmlns="http://www.w3.org/2000/svg"
 width="56.000000pt" height="56.000000pt" viewBox="0 0 56.000000 56.000000"
 preserveAspectRatio="xMidYMid meet">
<metadata>
Created by potrace 1.16, written by Peter Selinger 2001-2019
</metadata>
<g transform="translate(0.000000,56.000000) scale(0.100000,-0.100000)"
fill="#000000" stroke="none">
<path d="M255 560 c-14 0 -25 -4 -25 -9 0 -5 -16 -28 -36 -52 -19 -23 -42 -58
-50 -77 -7 -19 -14 -49 -14 -67 0 -18 3 -46 6 -63 4 -21 15 -34 35 -43 25 -10
36 -9 69 6 21 10 46 15 54 12 8 -3 26 -28 40 -56 20 -38 23 -51 13 -59 -7 -6
-29 -12 -50 -14 -21 -2 -38 -7 -40 -13 -1 -5 18 -12 43 -16 25 -3 60 -13 79
-23 33 -17 34 -17 53 2 17 17 18 24 9 58 -6 21 -29 70 -51 108 -40 68 -40 68
-15 98 14 16 25 35 25 42 0 7 -10 22 -22 33 -15 14 -40 22 -73 25 -50 3 -50 3
-50 -46 0 -47 -1 -49 -37 -62 -20 -7 -39 -10 -42 -7 -3 4 -6 15 -6 25 0 11 11
44 26 73 14 30 38 65 55 79 16 14 29 29 29 35 0 6 -11 11 -25 11z"/>
<path d="M127 100 c-4 0 -10 -6 -13 -14 -3 -8 -4 -23 -2 -33 2 -14 14 -19 55
-21 29 -2 56 -9 63 -17 8 -10 31 -15 66 -15 41 0 54 4 54 15 0 8 -12 22 -27
32 -16 11 -49 18 -84 19 -34 1 -67 9 -81 18 -12 9 -26 16 -31 16z"/>
</g>
</svg>
