<?xml version="1.0" standalone="no"?>
<!DOCTYPE svg PUBLIC "-//W3C//DTD SVG 20010904//EN"
 "http://www.w3.org/TR/2001/REC-SVG-20010904/DTD/svg10.dtd">
<svg version="1.0" xmlns="http://www.w3.org/2000/svg"
 width="56.000000pt" height="56.000000pt" viewBox="0 0 56.000000 56.000000"
 preserveAspectRatio="xMidYMid meet">
<metadata>
Created by potrace 1.16, written by Peter Selinger 2001-2019
</metadata>
<g transform="translate(0.000000,56.000000) scale(0.100000,-0.100000)"
fill="#000000" stroke="none">
<path d="M242 559 c-4 0 -17 -13 -30 -29 -13 -17 -21 -34 -17 -40 3 -5 1 -10
-4 -10 -6 0 -11 -10 -11 -22 0 -17 6 -12 28 23 16 24 31 52 35 62 3 9 3 17 -1
16z"/>
<path d="M325 500 c-7 0 -17 -6 -23 -12 -5 -7 -14 -37 -18 -67 -9 -55 -9 -55
-56 -67 -48 -12 -48 -12 -48 32 0 24 -4 44 -8 44 -5 0 -15 -15 -24 -33 -11
-23 -14 -45 -9 -68 6 -30 11 -34 41 -37 18 -2 50 4 71 14 21 9 44 14 52 11 8
-3 27 -31 41 -62 14 -32 26 -66 26 -76 0 -11 -9 -28 -20 -39 -11 -11 -20 -24
-20 -29 0 -6 20 -13 44 -16 25 -4 49 -4 55 0 6 3 11 27 11 53 0 38 -9 62 -45
122 -25 41 -45 81 -45 89 0 8 12 25 27 37 26 21 27 21 10 56 -9 20 -24 39 -33
42 -8 3 -21 6 -29 6z"/>
<path d="M141 120 c-4 0 -12 -5 -19 -12 -7 -7 -12 -18 -12 -24 0 -7 12 -22 26
-33 15 -12 37 -21 50 -21 15 0 24 -6 24 -16 0 -13 7 -15 43 -9 23 4 45 9 50
12 4 2 7 10 7 17 0 8 -12 18 -27 24 -16 6 -47 16 -71 23 -23 7 -47 18 -53 26
-6 7 -14 13 -18 13z"/>
</g>
</svg>
