<?xml version="1.0" standalone="no"?>
<!DOCTYPE svg PUBLIC "-//W3C//DTD SVG 20010904//EN"
 "http://www.w3.org/TR/2001/REC-SVG-20010904/DTD/svg10.dtd">
<svg version="1.0" xmlns="http://www.w3.org/2000/svg"
 width="56.000000pt" height="56.000000pt" viewBox="0 0 56.000000 56.000000"
 preserveAspectRatio="xMidYMid meet">
<metadata>
Created by potrace 1.16, written by Peter Selinger 2001-2019
</metadata>
<g transform="translate(0.000000,56.000000) scale(0.100000,-0.100000)"
fill="#000000" stroke="none">
<path d="M355 540 c-7 0 -16 -11 -19 -25 -3 -13 -16 -30 -28 -36 -13 -7 -38
-16 -58 -21 -19 -6 -53 -13 -75 -16 -26 -5 -41 -13 -43 -24 -2 -11 6 -22 23
-30 21 -10 36 -8 79 6 30 10 60 16 67 14 8 -3 26 -36 40 -74 19 -48 24 -73 17
-81 -7 -8 -36 -13 -76 -13 -40 0 -92 -9 -135 -22 -38 -13 -73 -30 -78 -40 -6
-10 -7 -34 -3 -53 5 -31 12 -37 60 -55 30 -11 62 -20 70 -20 8 0 40 -12 69
-26 34 -15 67 -24 87 -22 24 2 33 8 33 22 0 13 -16 24 -63 41 -35 13 -83 26
-108 30 -25 3 -54 15 -64 25 -11 11 -17 26 -14 33 3 8 22 20 42 26 23 8 70 11
127 8 50 -3 107 -8 127 -12 31 -6 39 -4 44 10 4 10 1 27 -6 39 -8 11 -29 48
-47 81 -20 37 -33 74 -33 98 0 36 3 39 45 58 25 11 45 26 45 34 0 8 -5 17 -12
21 -6 4 -28 6 -49 6 -21 -1 -41 3 -44 8 -3 6 -12 10 -20 10z"/>
</g>
</svg>
