<?xml version="1.0" standalone="no"?>
<!DOCTYPE svg PUBLIC "-//W3C//DTD SVG 20010904//EN"
 "http://www.w3.org/TR/2001/REC-SVG-20010904/DTD/svg10.dtd">
<svg version="1.0" xmlns="http://www.w3.org/2000/svg"
 width="56.000000pt" height="56.000000pt" viewBox="0 0 56.000000 56.000000"
 preserveAspectRatio="xMidYMid meet">
<metadata>
Created by potrace 1.16, written by Peter Selinger 2001-2019
</metadata>
<g transform="translate(0.000000,56.000000) scale(0.100000,-0.100000)"
fill="#000000" stroke="none">
<path d="M123 560 c-8 0 -13 -12 -13 -30 0 -17 11 -52 25 -79 14 -27 34 -55
43 -64 9 -8 44 -17 77 -20 45 -5 64 -12 78 -28 9 -12 17 -29 17 -40 0 -10 5
-21 10 -24 6 -3 10 -17 10 -30 0 -17 -9 -29 -30 -40 -16 -8 -43 -15 -60 -15
-19 0 -29 -4 -25 -11 4 -6 43 -9 103 -7 82 3 97 6 100 21 2 9 -5 29 -16 44
-13 19 -21 49 -23 92 -3 49 -1 66 11 72 8 4 27 10 43 14 20 4 27 11 27 29 0
15 -11 33 -27 46 -23 18 -37 21 -76 17 -26 -2 -50 -7 -54 -11 -3 -3 -1 -17 5
-30 7 -17 7 -27 -1 -35 -6 -6 -38 -11 -72 -11 -60 0 -60 0 -99 70 -22 39 -46
70 -53 70z"/>
<path d="M128 180 c-7 -1 -26 -16 -43 -35 -16 -18 -31 -47 -32 -64 -2 -21 3
-33 15 -40 11 -6 24 -6 33 0 7 5 26 9 41 9 15 0 30 5 33 10 3 6 20 10 36 10
22 0 32 -6 38 -22 5 -13 6 -29 4 -35 -4 -10 12 -13 61 -13 36 0 66 3 66 7 0 4
-17 22 -37 40 -20 19 -53 38 -73 43 -19 5 -61 14 -92 20 -38 8 -58 16 -58 26
0 8 5 14 10 14 6 0 10 7 10 15 0 8 -6 15 -12 15z"/>
</g>
</svg>
