<?xml version="1.0" standalone="no"?>
<!DOCTYPE svg PUBLIC "-//W3C//DTD SVG 20010904//EN"
 "http://www.w3.org/TR/2001/REC-SVG-20010904/DTD/svg10.dtd">
<svg version="1.0" xmlns="http://www.w3.org/2000/svg"
 width="56.000000pt" height="56.000000pt" viewBox="0 0 56.000000 56.000000"
 preserveAspectRatio="xMidYMid meet">
<metadata>
Created by potrace 1.16, written by Peter Selinger 2001-2019
</metadata>
<g transform="translate(0.000000,56.000000) scale(0.100000,-0.100000)"
fill="#000000" stroke="none">
<path d="M220 560 c-11 0 -22 -11 -27 -27 -6 -17 -6 -41 -1 -60 5 -18 18 -38
29 -44 12 -6 34 -8 50 -5 26 5 32 0 72 -62 24 -37 47 -79 50 -94 4 -16 2 -30
-6 -36 -7 -6 -39 -11 -72 -12 -33 0 -86 5 -117 11 -44 9 -64 9 -83 1 -19 -9
-25 -19 -25 -42 0 -18 6 -38 14 -46 8 -8 27 -14 43 -14 15 -1 43 -9 62 -18 23
-11 37 -27 43 -47 4 -16 5 -38 2 -47 -4 -14 0 -18 19 -18 14 0 27 6 30 14 3 8
3 31 0 51 -4 23 -17 45 -40 65 -18 17 -41 30 -49 30 -8 0 -28 7 -44 15 -17 9
-30 19 -30 24 0 5 17 11 37 14 20 4 42 2 48 -3 7 -6 34 -13 61 -17 27 -3 68
-14 92 -25 24 -10 52 -18 62 -18 10 0 21 7 24 16 3 9 6 28 6 42 0 15 -6 38
-13 52 -8 14 -24 43 -36 65 -13 21 -36 55 -52 74 -16 20 -29 41 -29 48 0 7 7
13 15 13 8 0 19 9 25 19 5 11 10 24 10 29 0 6 -14 15 -30 21 -17 5 -37 8 -45
5 -7 -3 -15 -18 -17 -32 -2 -23 -8 -27 -33 -27 -29 0 -30 2 -28 43 1 35 -1 42
-17 42z"/>
</g>
</svg>
