<?xml version="1.0" standalone="no"?>
<!DOCTYPE svg PUBLIC "-//W3C//DTD SVG 20010904//EN"
 "http://www.w3.org/TR/2001/REC-SVG-20010904/DTD/svg10.dtd">
<svg version="1.0" xmlns="http://www.w3.org/2000/svg"
 width="56.000000pt" height="56.000000pt" viewBox="0 0 56.000000 56.000000"
 preserveAspectRatio="xMidYMid meet">
<metadata>
Created by potrace 1.16, written by Peter Selinger 2001-2019
</metadata>
<g transform="translate(0.000000,56.000000) scale(0.100000,-0.100000)"
fill="#000000" stroke="none">
<path d="M368 560 c-11 0 -18 -7 -18 -19 0 -11 -14 -33 -30 -50 -18 -18 -26
-32 -20 -36 6 -4 27 3 46 15 27 15 39 18 50 9 7 -6 18 -8 23 -5 6 4 1 22 -11
46 -13 24 -29 40 -40 40z"/>
<path d="M219 500 c-5 0 -9 -5 -9 -11 0 -7 8 -18 18 -25 9 -7 25 -14 35 -14 9
0 17 7 17 15 0 9 -12 20 -26 25 -14 6 -30 10 -35 10z"/>
<path d="M348 436 c-15 1 -30 -1 -33 -6 -3 -5 -1 -11 5 -15 5 -3 10 -14 10
-24 0 -10 6 -24 14 -30 8 -7 12 -21 9 -32 -5 -16 -2 -20 12 -18 11 3 19 14 20
27 1 13 -1 39 -4 59 -5 30 -10 36 -33 39z"/>
<path d="M250 267 c-14 1 -34 -2 -45 -5 -11 -4 -27 -11 -35 -17 -8 -5 -20 -19
-27 -31 -6 -11 -12 -38 -13 -60 -1 -21 -2 -44 -1 -50 1 -6 19 -17 42 -24 23
-8 43 -20 46 -27 3 -7 11 -13 19 -13 8 0 14 6 14 14 0 8 6 16 13 19 7 3 -6 23
-35 54 -27 27 -48 55 -48 63 0 9 19 21 48 30 28 9 47 21 47 30 0 9 -10 16 -25
17z"/>
</g>
</svg>
