<?xml version="1.0" standalone="no"?>
<!DOCTYPE svg PUBLIC "-//W3C//DTD SVG 20010904//EN"
 "http://www.w3.org/TR/2001/REC-SVG-20010904/DTD/svg10.dtd">
<svg version="1.0" xmlns="http://www.w3.org/2000/svg"
 width="56.000000pt" height="56.000000pt" viewBox="0 0 56.000000 56.000000"
 preserveAspectRatio="xMidYMid meet">
<metadata>
Created by potrace 1.16, written by Peter Selinger 2001-2019
</metadata>
<g transform="translate(0.000000,56.000000) scale(0.100000,-0.100000)"
fill="#000000" stroke="none">
<path d="M119 560 c-12 0 -19 -5 -17 -12 3 -7 12 -14 21 -16 10 -2 17 3 17 12
0 10 -9 16 -21 16z"/>
<path d="M312 530 c-6 0 -13 -9 -17 -20 -3 -10 -1 -37 6 -59 6 -22 9 -46 6
-55 -5 -12 -18 -14 -64 -9 -37 3 -72 14 -96 29 -21 14 -42 22 -47 19 -6 -3
-10 -15 -10 -25 0 -11 16 -35 35 -55 20 -19 47 -38 61 -41 13 -3 59 -1 101 5
68 10 77 10 89 -6 7 -10 21 -33 29 -51 12 -25 14 -37 5 -46 -6 -8 -32 -19 -58
-26 -26 -6 -78 -11 -117 -11 -42 0 -87 7 -109 16 -38 16 -39 16 -67 -11 -16
-15 -29 -32 -29 -37 0 -6 7 -15 16 -22 12 -8 31 -9 63 -3 25 5 70 6 99 2 42
-5 52 -10 52 -25 0 -11 -9 -36 -20 -57 -20 -37 -20 -37 11 -40 18 -2 38 3 49
13 10 9 21 32 25 51 4 21 2 41 -5 49 -6 7 -7 15 -3 18 4 2 35 8 68 11 33 4 74
12 92 17 18 6 35 19 38 30 4 11 -2 32 -14 52 -11 17 -33 45 -50 61 -17 17 -31
35 -31 42 0 7 16 22 35 34 19 12 42 31 50 43 8 12 15 31 15 43 0 12 -6 24 -12
27 -7 2 -36 2 -65 -1 -41 -4 -58 0 -86 17 -19 11 -39 21 -45 21z m83 -70 c8 0
16 -4 20 -9 3 -5 1 -13 -5 -16 -6 -4 -18 -4 -26 -1 -8 3 -12 10 -9 16 3 5 12
10 20 10z"/>
</g>
</svg>
