<?xml version="1.0" standalone="no"?>
<!DOCTYPE svg PUBLIC "-//W3C//DTD SVG 20010904//EN"
 "http://www.w3.org/TR/2001/REC-SVG-20010904/DTD/svg10.dtd">
<svg version="1.0" xmlns="http://www.w3.org/2000/svg"
 width="56.000000pt" height="56.000000pt" viewBox="0 0 56.000000 56.000000"
 preserveAspectRatio="xMidYMid meet">
<metadata>
Created by potrace 1.16, written by Peter Selinger 2001-2019
</metadata>
<g transform="translate(0.000000,56.000000) scale(0.100000,-0.100000)"
fill="#000000" stroke="none">
<path d="M359 560 c-13 0 -25 -11 -34 -34 -12 -28 -21 -34 -50 -38 -19 -2 -40
-1 -47 3 -7 3 -30 10 -51 13 -37 7 -38 6 -32 -16 4 -13 11 -27 16 -33 5 -5 41
-8 79 -7 39 2 70 -1 70 -6 0 -5 16 -36 35 -68 20 -32 34 -65 33 -74 -2 -8 -21
-18 -43 -23 -22 -4 -56 -10 -75 -13 -19 -3 -44 -9 -55 -13 -11 -5 -42 -19 -69
-32 -27 -13 -53 -33 -58 -45 -8 -17 -5 -29 14 -58 12 -20 31 -38 40 -42 10 -3
42 -1 73 5 30 6 69 8 86 4 17 -3 33 -12 36 -19 3 -8 -2 -25 -11 -39 -16 -25
-16 -25 17 -25 25 0 38 7 55 30 12 16 22 35 22 43 0 8 -8 21 -18 30 -11 10
-35 17 -58 17 -21 0 -68 5 -104 10 -46 8 -70 17 -83 32 -16 19 -16 23 -2 30 8
5 39 15 68 23 28 7 81 16 117 20 36 4 81 7 101 6 24 -1 39 3 42 13 4 9 -13 39
-40 73 -25 32 -52 72 -59 90 -8 18 -14 37 -14 42 0 6 14 17 30 26 18 9 30 23
30 35 0 13 -7 20 -20 20 -11 0 -20 5 -20 10 0 6 -9 10 -21 10z"/>
</g>
</svg>
