<?xml version="1.0" standalone="no"?>
<!DOCTYPE svg PUBLIC "-//W3C//DTD SVG 20010904//EN"
 "http://www.w3.org/TR/2001/REC-SVG-20010904/DTD/svg10.dtd">
<svg version="1.0" xmlns="http://www.w3.org/2000/svg"
 width="56.000000pt" height="56.000000pt" viewBox="0 0 56.000000 56.000000"
 preserveAspectRatio="xMidYMid meet">
<metadata>
Created by potrace 1.16, written by Peter Selinger 2001-2019
</metadata>
<g transform="translate(0.000000,56.000000) scale(0.100000,-0.100000)"
fill="#000000" stroke="none">
<path d="M274 560 c-35 0 -35 0 -29 -44 6 -39 4 -46 -14 -56 -17 -9 -34 -8
-74 4 -37 11 -55 12 -64 4 -7 -6 -13 -17 -13 -24 0 -8 10 -18 23 -23 12 -5 45
-15 72 -24 28 -8 73 -21 100 -28 28 -7 55 -16 60 -21 6 -4 25 -19 43 -34 17
-14 32 -29 32 -32 0 -4 -19 -15 -43 -24 -32 -14 -71 -18 -162 -18 -102 0 -125
-3 -153 -20 -18 -11 -36 -28 -39 -37 -5 -12 8 -30 44 -62 29 -25 69 -55 90
-66 21 -10 50 -27 65 -37 14 -10 36 -18 47 -18 15 0 21 6 21 23 0 13 -10 33
-22 44 -13 11 -44 30 -70 41 -26 11 -60 33 -75 49 -28 28 -28 28 72 35 55 4
143 11 195 15 52 5 101 12 108 16 6 5 12 22 12 39 0 16 -9 42 -20 58 -11 15
-43 40 -72 55 -29 15 -59 32 -65 39 -10 9 -8 21 9 55 21 42 21 44 3 57 -10 8
-25 14 -32 14 -7 0 -13 5 -13 10 0 6 -16 10 -36 10z"/>
</g>
</svg>
