<?xml version="1.0" standalone="no"?>
<!DOCTYPE svg PUBLIC "-//W3C//DTD SVG 20010904//EN"
 "http://www.w3.org/TR/2001/REC-SVG-20010904/DTD/svg10.dtd">
<svg version="1.0" xmlns="http://www.w3.org/2000/svg"
 width="56.000000pt" height="56.000000pt" viewBox="0 0 56.000000 56.000000"
 preserveAspectRatio="xMidYMid meet">
<metadata>
Created by potrace 1.16, written by Peter Selinger 2001-2019
</metadata>
<g transform="translate(0.000000,56.000000) scale(0.100000,-0.100000)"
fill="#000000" stroke="none">
<path d="M215 560 c-17 0 -25 -5 -22 -12 2 -7 12 -13 22 -13 10 0 20 6 23 13
2 7 -6 12 -23 12z"/>
<path d="M298 560 c-29 -1 -36 -6 -56 -48 -12 -26 -22 -62 -22 -80 0 -30 5
-35 40 -49 31 -12 45 -26 61 -61 22 -44 22 -45 3 -59 -10 -8 -30 -16 -44 -19
-14 -3 -31 -7 -37 -10 -7 -2 -13 -8 -13 -14 0 -6 31 -10 79 -10 59 0 84 4 95
16 9 8 16 21 15 27 0 7 -8 24 -17 38 -9 14 -27 41 -39 59 -22 34 -22 34 -3 68
11 18 20 40 20 48 0 8 -7 17 -15 20 -8 3 -29 -6 -47 -22 -33 -27 -33 -27 -36
-5 -2 12 8 37 22 56 14 18 26 36 26 39 0 3 -15 6 -32 6z"/>
<path d="M192 220 c-16 0 -36 -8 -45 -18 -10 -10 -17 -29 -17 -43 0 -13 7 -33
16 -44 8 -11 43 -33 77 -50 45 -22 61 -35 59 -47 -2 -15 5 -18 37 -18 35 0 41
3 47 26 4 17 1 31 -9 41 -8 9 -39 21 -68 27 -37 9 -59 20 -73 39 -17 23 -18
31 -8 47 7 11 12 24 12 30 0 5 -13 10 -28 10z"/>
</g>
</svg>
