<?xml version="1.0" standalone="no"?>
<!DOCTYPE svg PUBLIC "-//W3C//DTD SVG 20010904//EN"
 "http://www.w3.org/TR/2001/REC-SVG-20010904/DTD/svg10.dtd">
<svg version="1.0" xmlns="http://www.w3.org/2000/svg"
 width="56.000000pt" height="56.000000pt" viewBox="0 0 56.000000 56.000000"
 preserveAspectRatio="xMidYMid meet">
<metadata>
Created by potrace 1.16, written by Peter Selinger 2001-2019
</metadata>
<g transform="translate(0.000000,56.000000) scale(0.100000,-0.100000)"
fill="#000000" stroke="none">
<path d="M248 560 c-7 0 -28 -23 -45 -50 -27 -41 -33 -60 -33 -104 0 -36 5
-58 15 -66 11 -9 35 -11 76 -7 50 4 61 3 66 -11 3 -10 20 -49 39 -88 19 -39
34 -75 34 -80 0 -5 -16 -19 -36 -32 -19 -13 -34 -28 -31 -35 2 -7 9 -12 15
-11 7 1 23 2 37 2 14 1 34 11 45 22 15 15 18 28 14 52 -4 18 -14 44 -22 58 -9
14 -27 45 -39 69 -13 25 -23 57 -23 72 0 17 12 42 30 62 17 19 30 45 30 59 0
13 -7 34 -16 46 -8 12 -22 22 -30 22 -8 0 -14 5 -14 10 0 6 -13 10 -30 10 -22
0 -30 -5 -30 -18 0 -10 -5 -23 -12 -30 -9 -9 -9 -12 0 -12 7 0 15 7 18 15 4 8
15 15 25 15 10 0 26 -11 35 -24 13 -22 14 -29 2 -53 -7 -15 -20 -29 -29 -31
-11 -2 -19 6 -23 23 -4 15 -11 23 -17 19 -6 -3 -9 -19 -5 -34 3 -18 0 -33 -9
-40 -7 -6 -29 -10 -47 -8 -30 3 -33 6 -36 41 -2 21 2 45 8 52 7 8 9 18 6 23
-2 4 6 16 20 26 13 11 24 23 24 27 0 5 -6 9 -12 9z"/>
<path d="M163 120 c-28 0 -54 -4 -58 -9 -3 -6 9 -16 27 -25 18 -8 50 -17 72
-21 30 -5 41 -12 49 -36 6 -16 17 -29 25 -29 7 0 15 7 19 16 3 9 6 28 7 43 1
22 -6 29 -44 43 -25 10 -68 18 -97 18z"/>
</g>
</svg>
