<?xml version="1.0" standalone="no"?>
<!DOCTYPE svg PUBLIC "-//W3C//DTD SVG 20010904//EN"
 "http://www.w3.org/TR/2001/REC-SVG-20010904/DTD/svg10.dtd">
<svg version="1.0" xmlns="http://www.w3.org/2000/svg"
 width="56.000000pt" height="56.000000pt" viewBox="0 0 56.000000 56.000000"
 preserveAspectRatio="xMidYMid meet">
<metadata>
Created by potrace 1.16, written by Peter Selinger 2001-2019
</metadata>
<g transform="translate(0.000000,56.000000) scale(0.100000,-0.100000)"
fill="#000000" stroke="none">
<path d="M303 560 c-9 0 -13 -15 -13 -50 0 -46 -2 -50 -24 -50 -14 0 -27 -4
-31 -9 -3 -6 4 -15 15 -21 11 -6 29 -9 39 -5 10 3 23 0 28 -7 6 -7 23 -53 37
-101 15 -48 24 -92 21 -97 -3 -6 -17 -10 -31 -10 -14 0 -50 11 -80 25 -30 14
-69 25 -87 25 -18 0 -39 -6 -48 -13 -9 -7 -19 -25 -23 -40 -5 -21 0 -43 18
-80 14 -29 31 -60 38 -70 11 -14 10 -19 -2 -27 -8 -5 -25 -10 -37 -10 -12 0
-25 -5 -28 -10 -4 -7 12 -9 47 -6 29 3 70 5 91 6 25 0 40 5 44 16 4 12 -8 29
-40 58 -31 27 -52 56 -62 85 -10 29 -12 48 -6 54 6 6 41 -9 97 -42 48 -29 99
-53 113 -54 19 -2 29 5 40 27 12 25 12 41 2 95 -7 36 -21 95 -32 130 -11 35
-18 65 -15 68 2 3 19 12 38 21 18 10 33 24 33 32 0 12 -11 14 -51 12 -45 -2
-52 0 -64 23 -7 14 -19 25 -27 25z"/>
</g>
</svg>
