<?xml version="1.0" standalone="no"?>
<!DOCTYPE svg PUBLIC "-//W3C//DTD SVG 20010904//EN"
 "http://www.w3.org/TR/2001/REC-SVG-20010904/DTD/svg10.dtd">
<svg version="1.0" xmlns="http://www.w3.org/2000/svg"
 width="56.000000pt" height="56.000000pt" viewBox="0 0 56.000000 56.000000"
 preserveAspectRatio="xMidYMid meet">
<metadata>
Created by potrace 1.16, written by Peter Selinger 2001-2019
</metadata>
<g transform="translate(0.000000,56.000000) scale(0.100000,-0.100000)"
fill="#000000" stroke="none">
<path d="M263 560 c-14 0 -23 -6 -23 -16 0 -9 9 -27 20 -41 11 -14 20 -29 20
-33 0 -4 -27 -24 -60 -44 -33 -21 -60 -44 -60 -53 0 -13 8 -15 45 -10 25 4 56
14 70 23 14 9 32 14 40 10 9 -3 15 -18 15 -36 0 -24 -8 -35 -37 -53 -21 -13
-47 -27 -59 -31 -11 -3 -31 -17 -43 -30 -18 -19 -20 -28 -12 -48 5 -14 28 -50
50 -79 22 -29 41 -67 43 -84 3 -26 7 -30 36 -33 29 -3 32 -1 32 24 0 15 -19
59 -42 97 -23 38 -47 71 -55 74 -7 3 -13 9 -13 14 0 5 34 26 76 47 43 20 82
45 88 55 8 13 6 29 -7 67 -16 45 -16 52 -2 74 14 22 14 25 0 40 -10 9 -25 14
-38 11 -17 -4 -27 2 -42 25 -12 18 -29 30 -42 30z"/>
</g>
</svg>
