<?xml version="1.0" standalone="no"?>
<!DOCTYPE svg PUBLIC "-//W3C//DTD SVG 20010904//EN"
 "http://www.w3.org/TR/2001/REC-SVG-20010904/DTD/svg10.dtd">
<svg version="1.0" xmlns="http://www.w3.org/2000/svg"
 width="56.000000pt" height="56.000000pt" viewBox="0 0 56.000000 56.000000"
 preserveAspectRatio="xMidYMid meet">
<metadata>
Created by potrace 1.16, written by Peter Selinger 2001-2019
</metadata>
<g transform="translate(0.000000,56.000000) scale(0.100000,-0.100000)"
fill="#000000" stroke="none">
<path d="M114 560 c-61 0 -65 -1 -62 -21 2 -12 12 -25 24 -30 13 -4 36 -1 62
11 23 11 42 24 42 30 0 6 -27 10 -66 10z"/>
<path d="M356 530 c-23 0 -46 -4 -51 -8 -6 -4 -18 -19 -28 -34 -15 -24 -24
-28 -61 -28 -25 0 -51 -3 -60 -6 -9 -3 -16 -15 -16 -25 0 -10 9 -28 20 -39 15
-15 33 -20 69 -20 27 0 57 -3 66 -6 9 -4 25 -24 35 -45 11 -21 20 -47 20 -59
0 -11 -3 -20 -6 -20 -4 0 -32 9 -63 19 -31 11 -87 29 -124 40 -38 12 -73 19
-78 16 -5 -4 -9 -29 -9 -56 0 -44 5 -57 38 -96 20 -26 58 -68 84 -95 30 -31
55 -48 70 -48 13 0 32 6 42 13 11 8 17 23 14 37 -2 17 -23 38 -64 67 -34 23
-74 59 -89 79 -18 23 -24 39 -18 45 7 7 26 3 54 -10 24 -10 64 -25 89 -31 25
-7 63 -18 85 -26 23 -8 48 -14 56 -14 9 0 26 11 38 24 23 24 23 24 3 68 -11
23 -36 65 -56 93 -20 27 -36 57 -36 65 0 8 9 29 19 46 14 23 16 35 8 43 -6 6
-29 11 -51 11z"/>
</g>
</svg>
