<?xml version="1.0" standalone="no"?>
<!DOCTYPE svg PUBLIC "-//W3C//DTD SVG 20010904//EN"
 "http://www.w3.org/TR/2001/REC-SVG-20010904/DTD/svg10.dtd">
<svg version="1.0" xmlns="http://www.w3.org/2000/svg"
 width="56.000000pt" height="56.000000pt" viewBox="0 0 56.000000 56.000000"
 preserveAspectRatio="xMidYMid meet">
<metadata>
Created by potrace 1.16, written by Peter Selinger 2001-2019
</metadata>
<g transform="translate(0.000000,56.000000) scale(0.100000,-0.100000)"
fill="#000000" stroke="none">
<path d="M269 560 c-23 0 -29 -5 -29 -21 0 -11 4 -29 10 -39 7 -13 6 -21 -5
-30 -11 -9 -22 -9 -46 -1 -18 6 -40 11 -50 11 -11 0 -19 -7 -19 -15 0 -8 5
-15 10 -15 6 0 10 -9 10 -20 0 -11 6 -21 13 -21 6 -1 14 -1 17 -1 3 0 28 2 57
6 51 6 52 6 66 -26 8 -18 20 -46 26 -63 11 -25 10 -31 -5 -42 -12 -9 -40 -11
-93 -7 -42 3 -84 7 -93 9 -12 2 -30 -14 -55 -47 -31 -43 -35 -53 -25 -69 9
-15 9 -23 0 -38 -10 -16 -9 -25 2 -46 8 -14 21 -24 29 -23 8 2 18 17 22 35 3
17 2 37 -2 45 -5 7 -9 23 -9 35 0 15 10 28 32 39 21 11 44 14 72 10 23 -3 64
-11 91 -17 28 -7 66 -13 85 -13 19 -1 50 -11 67 -24 18 -13 37 -20 43 -17 5 3
10 22 10 41 0 24 -7 42 -24 57 -14 12 -45 38 -70 57 -24 19 -51 48 -60 65 -8
16 -12 33 -10 37 3 4 22 8 43 8 22 0 44 6 51 15 11 13 11 20 0 40 -7 13 -19
26 -27 30 -8 3 -28 -3 -44 -12 -26 -16 -31 -16 -40 -3 -5 8 -12 27 -16 43 -4
22 -11 27 -34 27z"/>
<path d="M348 129 c-13 -1 -48 -6 -78 -11 -30 -4 -70 -10 -89 -12 -18 -2 -38
-9 -44 -15 -8 -8 -8 -14 1 -23 6 -6 33 -13 59 -15 26 -1 53 -5 61 -8 9 -3 12
-13 9 -25 -4 -17 0 -20 34 -20 21 0 39 5 39 10 0 6 6 10 14 10 8 0 24 12 35
26 12 15 21 31 21 35 0 5 -9 18 -20 29 -11 11 -30 19 -42 19z"/>
</g>
</svg>
