<?xml version="1.0" standalone="no"?>
<!DOCTYPE svg PUBLIC "-//W3C//DTD SVG 20010904//EN"
 "http://www.w3.org/TR/2001/REC-SVG-20010904/DTD/svg10.dtd">
<svg version="1.0" xmlns="http://www.w3.org/2000/svg"
 width="56.000000pt" height="56.000000pt" viewBox="0 0 56.000000 56.000000"
 preserveAspectRatio="xMidYMid meet">
<metadata>
Created by potrace 1.16, written by Peter Selinger 2001-2019
</metadata>
<g transform="translate(0.000000,56.000000) scale(0.100000,-0.100000)"
fill="#000000" stroke="none">
<path d="M212 560 c-11 0 -25 -14 -35 -35 -15 -32 -15 -40 -3 -70 8 -18 23
-38 33 -43 10 -5 43 -13 75 -16 56 -7 56 -7 78 -58 14 -34 18 -54 12 -60 -6
-6 -28 -14 -49 -18 -21 -4 -63 -17 -93 -28 -30 -11 -70 -34 -87 -51 -24 -23
-33 -40 -33 -65 0 -24 9 -43 30 -66 17 -18 46 -36 67 -41 21 -5 71 -9 111 -9
39 0 72 4 72 9 0 5 -6 13 -12 18 -7 5 -35 8 -63 8 -38 -1 -60 4 -93 24 -23 14
-45 36 -48 48 -4 13 -4 30 -1 38 4 8 23 21 43 30 22 9 67 15 111 15 41 0 83 5
94 10 14 8 19 21 19 51 0 24 -8 52 -19 67 -10 15 -21 39 -25 55 -5 23 -3 29
19 37 14 5 25 14 25 19 0 4 -6 13 -13 19 -7 6 -23 9 -34 6 -15 -4 -25 1 -33
17 -7 12 -24 33 -38 46 -14 12 -28 23 -33 23 -4 0 -10 -4 -14 -9 -3 -6 4 -25
15 -43 11 -18 20 -36 20 -40 0 -5 -11 -8 -25 -8 -14 0 -37 11 -50 25 -14 13
-25 33 -25 44 0 11 5 23 10 26 6 3 10 10 10 16 0 5 -8 9 -18 9z"/>
</g>
</svg>
