<?xml version="1.0" standalone="no"?>
<!DOCTYPE svg PUBLIC "-//W3C//DTD SVG 20010904//EN"
 "http://www.w3.org/TR/2001/REC-SVG-20010904/DTD/svg10.dtd">
<svg version="1.0" xmlns="http://www.w3.org/2000/svg"
 width="56.000000pt" height="56.000000pt" viewBox="0 0 56.000000 56.000000"
 preserveAspectRatio="xMidYMid meet">
<metadata>
Created by potrace 1.16, written by Peter Selinger 2001-2019
</metadata>
<g transform="translate(0.000000,56.000000) scale(0.100000,-0.100000)"
fill="#000000" stroke="none">
<path d="M379 559 c-8 0 -26 -12 -40 -27 -15 -15 -29 -35 -33 -46 -6 -16 -13
-18 -57 -13 -39 5 -51 3 -56 -9 -3 -8 3 -24 13 -35 15 -17 27 -20 62 -16 27 3
48 0 55 -8 7 -7 19 -30 26 -52 13 -38 12 -42 -10 -64 -17 -17 -32 -22 -61 -20
-21 1 -54 -6 -73 -15 -19 -9 -35 -20 -35 -25 0 -5 -6 -9 -13 -9 -8 0 -21 -8
-31 -19 -13 -14 -14 -24 -7 -44 6 -15 28 -35 50 -47 22 -11 46 -20 53 -20 8 0
30 -14 51 -31 20 -17 37 -37 37 -45 0 -10 13 -14 45 -14 25 0 45 4 45 8 0 4
-13 29 -29 54 -19 30 -43 52 -68 63 -21 9 -53 23 -71 31 -18 8 -35 21 -38 29
-4 8 -1 22 6 30 9 11 36 15 110 15 84 0 99 3 115 20 10 11 18 34 17 51 0 17
-9 41 -20 53 -10 11 -25 36 -32 55 -13 31 -12 35 8 52 12 9 22 28 22 41 0 12
-7 31 -14 41 -7 9 -19 17 -27 16z"/>
</g>
</svg>
