<?xml version="1.0" standalone="no"?>
<!DOCTYPE svg PUBLIC "-//W3C//DTD SVG 20010904//EN"
 "http://www.w3.org/TR/2001/REC-SVG-20010904/DTD/svg10.dtd">
<svg version="1.0" xmlns="http://www.w3.org/2000/svg"
 width="56.000000pt" height="56.000000pt" viewBox="0 0 56.000000 56.000000"
 preserveAspectRatio="xMidYMid meet">
<metadata>
Created by potrace 1.16, written by Peter Selinger 2001-2019
</metadata>
<g transform="translate(0.000000,56.000000) scale(0.100000,-0.100000)"
fill="#000000" stroke="none">
<path d="M260 540 c-38 0 -50 -4 -50 -15 0 -9 16 -25 35 -36 19 -12 35 -27 35
-35 0 -8 -9 -14 -19 -14 -11 0 -23 -4 -26 -10 -3 -5 -24 -10 -46 -10 -28 0
-39 -4 -39 -15 0 -12 17 -15 93 -15 92 -1 92 -1 121 -65 16 -36 26 -68 23 -71
-3 -4 -58 -8 -121 -10 -79 -2 -125 -8 -145 -19 -17 -8 -35 -24 -41 -34 -5 -11
-10 -37 -10 -59 0 -24 6 -45 18 -55 10 -9 44 -17 82 -21 36 -3 77 -5 93 -5 22
-1 27 -5 27 -26 0 -23 3 -25 49 -25 28 0 53 5 56 10 3 6 4 19 0 30 -3 10 -22
29 -41 40 -19 12 -41 19 -50 16 -8 -3 -39 1 -67 10 -29 10 -62 26 -75 38 -20
18 -21 22 -8 32 9 6 41 10 73 8 31 -2 71 -6 88 -10 16 -3 54 -18 83 -32 41
-21 56 -24 70 -15 11 7 17 23 16 49 0 29 -13 57 -48 109 -31 46 -46 78 -44 95
2 19 10 26 32 30 16 3 34 12 39 22 8 12 7 21 -3 33 -10 12 -23 15 -45 11 -27
-5 -37 -1 -68 29 -32 31 -42 35 -87 35z"/>
</g>
</svg>
