<?xml version="1.0" standalone="no"?>
<!DOCTYPE svg PUBLIC "-//W3C//DTD SVG 20010904//EN"
 "http://www.w3.org/TR/2001/REC-SVG-20010904/DTD/svg10.dtd">
<svg version="1.0" xmlns="http://www.w3.org/2000/svg"
 width="56.000000pt" height="56.000000pt" viewBox="0 0 56.000000 56.000000"
 preserveAspectRatio="xMidYMid meet">
<metadata>
Created by potrace 1.16, written by Peter Selinger 2001-2019
</metadata>
<g transform="translate(0.000000,56.000000) scale(0.100000,-0.100000)"
fill="#000000" stroke="none">
<path d="M467 560 c-7 0 -18 -9 -25 -20 -7 -11 -20 -20 -30 -20 -10 0 -27 -6
-37 -14 -13 -9 -38 -12 -85 -8 -43 3 -70 1 -74 -6 -4 -6 -2 -19 5 -29 6 -10
31 -31 55 -46 31 -20 44 -35 44 -52 0 -12 7 -39 15 -58 8 -20 19 -38 25 -42 5
-3 15 -16 21 -27 11 -21 10 -21 -64 -15 -58 5 -88 3 -129 -10 -33 -11 -69 -33
-96 -60 -24 -23 -42 -48 -40 -55 3 -7 22 -21 43 -31 21 -10 72 -25 114 -33 41
-8 80 -19 85 -24 6 -6 24 -10 42 -10 27 0 31 3 27 19 -3 11 -19 26 -36 34 -18
8 -49 20 -71 26 -21 5 -47 18 -57 27 -11 9 -19 22 -19 29 0 7 41 18 108 28 70
11 120 13 144 8 25 -6 43 -5 54 3 14 11 14 15 -8 42 -14 16 -37 62 -52 102
-16 40 -25 80 -22 88 3 9 15 18 26 21 10 3 29 25 40 49 13 26 19 52 15 64 -3
11 -12 20 -18 20z"/>
</g>
</svg>
