<?xml version="1.0" standalone="no"?>
<!DOCTYPE svg PUBLIC "-//W3C//DTD SVG 20010904//EN"
 "http://www.w3.org/TR/2001/REC-SVG-20010904/DTD/svg10.dtd">
<svg version="1.0" xmlns="http://www.w3.org/2000/svg"
 width="128.000000pt" height="128.000000pt" viewBox="0 0 128.000000 128.000000"
 preserveAspectRatio="xMidYMid meet">
<metadata>
Created by potrace 1.16, written by Peter Selinger 2001-2019
</metadata>
<g transform="translate(0.000000,128.000000) scale(0.100000,-0.100000)"
fill="#000000" stroke="none">
<path d="M919 1020 c-13 0 -31 -5 -39 -10 -8 -5 -27 -10 -41 -10 -15 0 -37 -8
-50 -18 -13 -10 -57 -37 -97 -61 -67 -39 -76 -42 -102 -31 -16 7 -36 20 -46
31 -9 10 -25 19 -34 19 -13 0 -16 7 -12 31 4 26 2 30 -14 27 -11 -2 -17 -11
-15 -19 2 -8 3 -31 2 -52 -1 -26 7 -50 24 -75 14 -20 25 -42 25 -49 0 -8 10
-29 23 -48 12 -19 30 -38 40 -41 11 -3 31 4 50 19 18 14 39 33 48 43 9 11 46
49 83 86 36 36 86 76 109 87 24 12 50 21 58 21 8 0 44 -33 80 -73 45 -49 78
-99 103 -152 20 -44 46 -90 58 -102 12 -13 28 -23 36 -23 8 0 27 14 43 31 21
23 29 41 29 69 0 27 -8 48 -27 71 -15 19 -66 71 -112 117 -47 47 -95 85 -110
88 -14 2 -40 9 -57 14 -17 6 -41 10 -55 10z"/>
<path d="M195 790 c-8 0 -17 -4 -20 -10 -3 -5 12 -43 35 -84 22 -41 40 -81 40
-87 0 -7 7 -20 16 -30 8 -9 22 -47 31 -83 10 -46 25 -78 48 -106 18 -22 35
-44 37 -49 1 -6 41 -24 88 -41 73 -26 106 -32 236 -39 82 -5 166 -6 184 -2 29
6 36 12 43 41 4 19 8 45 8 58 -1 12 -8 39 -16 59 -9 21 -31 50 -50 66 -19 16
-35 34 -35 41 0 7 -15 30 -33 52 -18 21 -40 51 -50 66 -9 15 -17 37 -17 48 0
11 -7 23 -16 27 -8 3 -20 1 -27 -6 -8 -8 -8 -19 1 -44 7 -19 14 -52 16 -75 2
-22 11 -53 19 -69 9 -15 24 -45 33 -67 13 -28 15 -43 7 -55 -9 -13 -29 -16
-111 -15 -92 0 -103 2 -139 27 -22 15 -44 27 -50 27 -7 0 -38 33 -71 73 -32
39 -65 86 -74 102 -8 17 -22 46 -31 65 -9 19 -21 47 -27 63 -5 15 -21 32 -35
37 -15 6 -32 10 -40 10z"/>
<path d="M59 770 c-5 0 -13 -8 -18 -18 -5 -9 -7 -49 -4 -87 3 -39 12 -79 19
-90 8 -11 14 -22 14 -26 0 -4 -10 -9 -21 -12 -20 -5 -21 -11 -16 -57 5 -40 2
-57 -15 -85 -18 -32 -19 -39 -7 -81 8 -25 21 -52 31 -60 12 -11 21 -13 35 -6
12 7 23 32 33 74 7 34 13 108 12 163 0 55 -4 132 -8 170 -5 50 -13 77 -27 93
-11 12 -24 22 -28 22z"/>
</g>
</svg>
