<?xml version="1.0" standalone="no"?>
<!DOCTYPE svg PUBLIC "-//W3C//DTD SVG 20010904//EN"
 "http://www.w3.org/TR/2001/REC-SVG-20010904/DTD/svg10.dtd">
<svg version="1.0" xmlns="http://www.w3.org/2000/svg"
 width="128.000000pt" height="128.000000pt" viewBox="0 0 128.000000 128.000000"
 preserveAspectRatio="xMidYMid meet">
<metadata>
Created by potrace 1.16, written by Peter Selinger 2001-2019
</metadata>
<g transform="translate(0.000000,128.000000) scale(0.100000,-0.100000)"
fill="#000000" stroke="none">
<path d="M1063 1028 c-37 0 -73 -8 -94 -19 -19 -10 -42 -18 -51 -19 -9 0 -34
-11 -54 -25 -20 -14 -44 -25 -53 -25 -9 0 -47 -9 -86 -21 -38 -12 -79 -25 -90
-29 -11 -4 -37 -15 -58 -24 -21 -9 -44 -16 -52 -16 -11 0 -10 -5 5 -20 12 -12
20 -33 20 -52 0 -32 0 -32 -30 -3 -16 16 -30 39 -30 51 0 18 -7 22 -46 28 -26
3 -66 6 -90 6 -23 0 -46 -4 -49 -10 -3 -5 7 -12 22 -16 15 -4 34 -11 41 -17 8
-7 21 -6 38 2 22 10 25 9 20 -6 -3 -10 -2 -22 2 -28 4 -5 21 -18 39 -27 17
-10 39 -18 50 -18 10 0 31 -14 47 -30 16 -17 38 -30 48 -30 10 0 18 4 18 9 0
6 17 19 38 31 20 12 55 44 77 71 24 29 48 49 61 49 11 0 24 4 30 9 5 5 37 17
70 25 34 9 80 16 102 16 25 0 49 -8 66 -21 19 -15 26 -30 26 -53 0 -20 -8 -40
-20 -51 -11 -10 -20 -23 -20 -29 0 -6 -25 -34 -55 -61 -30 -28 -55 -56 -55
-63 0 -7 -7 -15 -15 -19 -9 -3 -23 -19 -31 -35 -13 -26 -19 -29 -47 -23 -18 4
-41 16 -53 26 -11 10 -26 19 -32 19 -7 0 -12 4 -12 8 0 5 -17 30 -37 56 -31
40 -38 45 -46 30 -6 -10 -5 -25 2 -41 6 -13 11 -37 11 -53 0 -15 -6 -30 -12
-33 -7 -2 -27 -2 -44 0 -19 3 -46 -3 -72 -16 -37 -19 -42 -20 -42 -5 0 9 -8
23 -18 30 -9 7 -27 14 -39 14 -13 0 -30 11 -38 24 -9 13 -29 29 -44 36 -23 9
-27 16 -23 37 5 25 3 26 -27 20 -31 -6 -31 -6 -31 48 0 46 -4 57 -24 70 -13 9
-39 18 -58 21 -28 5 -37 1 -63 -28 -17 -18 -41 -48 -53 -65 -13 -18 -30 -33
-38 -33 -9 0 -14 10 -14 28 0 15 -3 37 -6 50 -4 12 -13 22 -22 22 -13 0 -14
-15 -8 -111 4 -69 14 -134 27 -172 11 -33 36 -80 56 -104 25 -30 43 -43 57
-41 14 2 22 13 28 40 6 30 2 46 -23 94 -20 37 -33 77 -36 113 -2 31 0 74 4 96
8 34 13 40 34 37 13 -1 31 -12 39 -25 8 -12 34 -42 58 -65 23 -24 45 -57 49
-73 3 -15 13 -31 23 -34 10 -3 21 -17 24 -31 4 -14 18 -29 34 -36 15 -6 45
-19 68 -30 22 -10 49 -18 59 -18 10 0 39 -10 64 -21 25 -12 52 -25 60 -28 8
-4 16 -12 18 -18 2 -6 -4 -17 -13 -25 -9 -7 -34 -29 -55 -49 -22 -20 -39 -42
-39 -48 0 -6 17 -11 39 -11 28 0 49 8 77 31 22 17 58 42 81 56 23 13 45 32 48
42 3 10 23 23 45 30 22 7 55 24 73 40 17 15 40 30 50 34 9 4 17 13 17 21 0 8
-7 19 -16 24 -11 6 -13 12 -6 16 6 4 20 1 30 -5 16 -10 26 -10 51 1 17 7 64
42 104 77 39 36 80 79 89 96 9 18 17 51 18 73 0 24 6 47 15 54 8 7 15 23 15
36 0 13 -4 24 -8 24 -4 0 -18 20 -29 44 -13 26 -31 47 -45 51 -13 4 -35 16
-49 26 -18 13 -43 18 -86 17z m-259 -513 c6 -3 19 -8 29 -11 10 -4 17 -16 17
-33 0 -20 -9 -30 -35 -43 -29 -15 -35 -15 -35 -3 0 7 10 21 22 29 15 11 18 16
8 16 -8 0 -21 4 -29 9 -12 8 -13 12 -1 26 7 8 18 13 24 10z m-85 -37 c8 -2 16
-9 19 -15 2 -8 -5 -13 -17 -13 -11 0 -22 4 -25 9 -3 4 -2 11 1 15 4 4 14 5 22
4z"/>
</g>
</svg>
