<?xml version="1.0" standalone="no"?>
<!DOCTYPE svg PUBLIC "-//W3C//DTD SVG 20010904//EN"
 "http://www.w3.org/TR/2001/REC-SVG-20010904/DTD/svg10.dtd">
<svg version="1.0" xmlns="http://www.w3.org/2000/svg"
 width="128.000000pt" height="128.000000pt" viewBox="0 0 128.000000 128.000000"
 preserveAspectRatio="xMidYMid meet">
<metadata>
Created by potrace 1.16, written by Peter Selinger 2001-2019
</metadata>
<g transform="translate(0.000000,128.000000) scale(0.100000,-0.100000)"
fill="#000000" stroke="none">
<path d="M544 990 c-8 0 -14 -9 -14 -21 0 -11 14 -41 31 -65 23 -34 32 -61 36
-103 5 -54 4 -58 -23 -76 -16 -10 -49 -19 -74 -21 -25 -1 -68 -9 -96 -17 -36
-11 -83 -14 -165 -11 -63 3 -130 9 -150 15 -20 6 -44 9 -55 7 -16 -3 -19 -11
-16 -53 3 -43 8 -54 40 -82 35 -30 42 -32 114 -33 50 0 91 6 115 16 21 9 56
24 78 34 22 10 70 29 107 44 36 14 71 26 77 26 6 0 11 -4 11 -10 0 -5 -5 -20
-12 -34 -10 -23 -7 -31 25 -72 21 -26 37 -53 37 -59 0 -7 -6 -17 -12 -23 -7
-6 -42 -20 -78 -32 -36 -12 -71 -28 -79 -35 -7 -7 -11 -20 -8 -28 4 -11 38
-16 147 -21 99 -5 145 -4 155 4 7 6 25 8 42 4 15 -4 36 -13 45 -22 16 -14 17
-16 1 -27 -9 -7 -13 -17 -9 -23 4 -7 27 -12 50 -12 29 0 52 7 69 21 15 11 43
23 62 26 19 3 35 11 35 18 0 6 -8 19 -18 28 -10 10 -30 17 -44 17 -14 0 -33
-9 -43 -20 -10 -11 -24 -20 -31 -20 -7 0 -15 4 -19 9 -3 5 -10 33 -15 62 -8
43 -7 55 5 69 9 10 19 35 22 56 3 22 10 48 16 59 6 11 9 41 8 67 -2 43 0 48
23 54 14 3 39 1 55 -4 16 -6 72 -16 124 -23 96 -12 96 -12 131 17 19 16 35 34
35 41 1 6 -20 18 -46 27 -27 8 -68 16 -93 17 -25 1 -69 -3 -99 -10 -29 -6 -75
-11 -101 -11 -33 0 -52 5 -64 19 -15 16 -15 22 -4 41 11 19 11 24 -7 34 -10 6
-30 23 -44 39 -14 15 -36 27 -49 27 -19 0 -23 -4 -19 -20 3 -11 1 -22 -3 -25
-4 -3 -6 -14 -3 -25 3 -12 27 -32 54 -46 27 -13 49 -28 49 -34 0 -5 -5 -12
-10 -15 -6 -4 -17 -2 -24 5 -8 6 -26 8 -41 4 -18 -5 -30 -2 -36 7 -5 8 -9 26
-9 41 0 19 -17 45 -56 87 -31 34 -64 61 -74 61 -10 0 -23 7 -30 15 -7 8 -19
15 -26 15z m166 -300 c3 0 25 -6 50 -14 25 -7 46 -19 48 -27 1 -8 -7 -29 -18
-46 -12 -21 -28 -33 -41 -33 -11 0 -34 9 -50 20 -24 18 -27 25 -22 53 3 18 11
35 17 39 6 4 13 8 16 8z m161 -6 c5 -3 9 -9 9 -15 0 -5 -10 -9 -21 -9 -18 0
-19 2 -9 15 7 8 16 12 21 9z"/>
</g>
</svg>
