<?xml version="1.0" standalone="no"?>
<!DOCTYPE svg PUBLIC "-//W3C//DTD SVG 20010904//EN"
 "http://www.w3.org/TR/2001/REC-SVG-20010904/DTD/svg10.dtd">
<svg version="1.0" xmlns="http://www.w3.org/2000/svg"
 width="128.000000pt" height="128.000000pt" viewBox="0 0 128.000000 128.000000"
 preserveAspectRatio="xMidYMid meet">
<metadata>
Created by potrace 1.16, written by Peter Selinger 2001-2019
</metadata>
<g transform="translate(0.000000,128.000000) scale(0.100000,-0.100000)"
fill="#000000" stroke="none">
<path d="M83 988 c-28 3 -33 0 -33 -18 0 -18 5 -21 33 -18 20 2 32 8 32 18 0
10 -12 16 -32 18z"/>
<path d="M953 965 c-25 5 -33 3 -33 -8 0 -7 9 -22 20 -32 11 -10 20 -28 20
-40 0 -11 -27 -74 -61 -138 -33 -64 -69 -122 -79 -127 -10 -6 -39 -10 -64 -10
-25 0 -46 5 -46 10 0 6 20 53 45 103 26 53 45 107 45 126 0 24 -8 41 -30 61
-16 15 -40 30 -52 33 -13 3 -33 9 -45 12 -19 6 -23 4 -23 -16 0 -14 16 -37 41
-60 42 -38 42 -38 -15 -153 -32 -64 -63 -116 -70 -116 -7 0 -16 4 -22 10 -5 5
-46 14 -89 18 -44 5 -87 6 -95 2 -8 -5 -41 -6 -73 -3 -44 4 -73 -1 -130 -20
-39 -14 -98 -37 -129 -52 -51 -23 -58 -30 -58 -55 0 -16 4 -31 8 -34 4 -2 37
-5 73 -6 35 -1 100 0 144 3 44 2 109 9 145 16 36 6 99 18 140 26 41 9 86 18
101 21 22 5 30 -2 63 -51 30 -45 35 -59 24 -66 -7 -5 -38 -13 -68 -19 -30 -6
-68 -14 -83 -18 -16 -4 -28 -11 -28 -17 0 -5 17 -14 38 -18 21 -4 54 -5 73 -2
19 3 50 13 68 23 17 9 32 20 32 24 0 5 8 8 18 8 10 0 38 -21 62 -46 25 -25 52
-50 61 -55 12 -6 25 -2 43 12 17 14 26 30 26 49 0 16 -5 41 -12 55 -6 14 -23
28 -37 31 -14 3 -32 7 -39 10 -7 2 -15 11 -19 20 -3 9 0 19 6 24 7 4 18 18 25
31 10 21 19 24 81 27 39 2 84 1 102 -3 17 -3 34 -12 37 -20 3 -9 -11 -31 -34
-55 -22 -23 -40 -45 -40 -50 0 -4 5 -10 12 -12 6 -2 32 -1 57 3 25 4 67 5 92
2 46 -5 46 -5 64 41 10 25 22 46 26 46 5 0 9 10 9 23 0 15 -11 29 -31 41 -18
10 -46 22 -63 27 -17 4 -51 15 -76 24 -32 12 -60 15 -98 10 -39 -5 -53 -3 -57
7 -3 8 15 49 40 93 35 62 45 89 45 125 0 38 -5 51 -27 72 -16 14 -43 29 -60
33z m-598 -346 c17 0 54 -2 83 -5 31 -4 52 -12 52 -19 0 -8 -27 -14 -77 -19
-42 -3 -102 -6 -135 -6 -32 0 -58 4 -58 9 0 6 4 13 10 16 5 3 29 10 52 14 24
5 57 9 73 10z"/>
</g>
</svg>
