<?xml version="1.0" standalone="no"?>
<!DOCTYPE svg PUBLIC "-//W3C//DTD SVG 20010904//EN"
 "http://www.w3.org/TR/2001/REC-SVG-20010904/DTD/svg10.dtd">
<svg version="1.0" xmlns="http://www.w3.org/2000/svg"
 width="128.000000pt" height="128.000000pt" viewBox="0 0 128.000000 128.000000"
 preserveAspectRatio="xMidYMid meet">
<metadata>
Created by potrace 1.16, written by Peter Selinger 2001-2019
</metadata>
<g transform="translate(0.000000,128.000000) scale(0.100000,-0.100000)"
fill="#000000" stroke="none">
<path d="M563 1106 c-72 1 -105 -2 -113 -11 -6 -7 -8 -19 -5 -26 3 -8 42 -32
88 -54 82 -40 82 -40 79 -79 -2 -21 -15 -56 -28 -78 -14 -22 -32 -59 -40 -81
-8 -23 -20 -45 -27 -49 -7 -4 -26 -8 -43 -8 -17 0 -51 -7 -75 -15 -32 -12 -61
-14 -106 -9 -50 5 -68 3 -89 -11 -19 -12 -37 -15 -73 -10 -43 6 -49 4 -86 -29
-40 -35 -40 -35 -3 -73 35 -35 40 -37 68 -26 22 8 39 8 65 0 31 -9 38 -8 58
11 16 15 38 21 84 24 34 1 65 -1 69 -5 5 -4 11 -29 14 -55 5 -47 5 -47 65 -66
33 -10 79 -28 103 -40 23 -11 55 -31 69 -42 24 -19 26 -24 15 -45 -7 -13 -20
-37 -30 -52 -10 -17 -47 -44 -87 -65 -39 -21 -70 -44 -70 -52 0 -12 17 -15 91
-15 90 0 90 0 145 45 29 25 69 56 87 68 26 18 36 21 47 12 8 -6 21 -34 30 -61
11 -33 25 -53 39 -58 11 -5 27 -6 33 -4 7 3 22 20 33 38 16 26 19 42 13 81 -3
27 -14 60 -25 73 -10 13 -18 33 -18 45 0 12 -5 27 -11 33 -6 6 -13 24 -15 40
-2 16 7 58 20 93 24 65 24 65 77 66 30 0 63 4 74 8 14 5 32 -1 58 -18 21 -14
46 -26 57 -26 10 0 22 6 27 12 4 7 8 36 8 63 0 44 3 50 23 53 12 2 22 9 22 17
0 7 -13 16 -30 20 -16 4 -71 8 -122 10 -51 1 -102 -2 -114 -7 -15 -7 -32 -7
-51 -1 -19 7 -56 5 -116 -5 -87 -14 -89 -14 -110 7 -19 19 -20 24 -8 53 7 18
16 48 21 66 5 19 16 42 25 52 11 12 14 26 10 39 -3 12 -15 21 -26 21 -11 0
-23 10 -29 23 -5 12 -11 34 -14 49 -4 15 -16 33 -29 40 -12 7 -66 13 -124 14z
m69 -487 c15 1 30 -3 33 -9 3 -5 34 -10 69 -10 35 0 67 -5 74 -12 7 -7 12 -22
12 -33 0 -12 -11 -32 -25 -45 -24 -22 -27 -23 -79 -11 -30 7 -65 20 -78 29
-13 10 -35 23 -50 30 -16 6 -28 18 -28 25 0 8 10 19 23 25 12 6 34 11 49 11z
m67 -149 c11 0 23 -5 27 -11 3 -6 2 -15 -3 -20 -5 -5 -17 -7 -26 -3 -9 3 -17
12 -17 20 0 8 9 14 19 14z"/>
<path d="M824 1070 c-11 0 -14 -5 -10 -16 3 -9 6 -23 7 -32 0 -14 2 -13 9 3 5
11 9 26 9 33 1 6 -6 12 -15 12z"/>
<path d="M881 984 c-4 3 -11 3 -15 -1 -3 -3 -6 -10 -6 -15 0 -4 7 -8 15 -8 8
0 15 4 15 9 0 6 -4 12 -9 15z"/>
<path d="M874 920 c-29 0 -56 -5 -59 -11 -4 -6 -4 -13 -1 -17 4 -3 21 -6 39
-6 27 -1 32 -5 35 -29 3 -24 7 -28 30 -25 18 2 26 8 23 18 -2 8 -6 27 -9 43
-4 25 -7 27 -58 27z"/>
</g>
</svg>
