<?xml version="1.0" standalone="no"?>
<!DOCTYPE svg PUBLIC "-//W3C//DTD SVG 20010904//EN"
 "http://www.w3.org/TR/2001/REC-SVG-20010904/DTD/svg10.dtd">
<svg version="1.0" xmlns="http://www.w3.org/2000/svg"
 width="128.000000pt" height="128.000000pt" viewBox="0 0 128.000000 128.000000"
 preserveAspectRatio="xMidYMid meet">
<metadata>
Created by potrace 1.16, written by Peter Selinger 2001-2019
</metadata>
<g transform="translate(0.000000,128.000000) scale(0.100000,-0.100000)"
fill="#000000" stroke="none">
<path d="M399 1020 c-22 0 -42 -7 -52 -18 -10 -10 -17 -24 -17 -30 0 -6 12
-17 27 -24 21 -10 31 -26 42 -66 13 -48 13 -55 -3 -70 -13 -14 -38 -17 -124
-19 -59 -1 -134 -4 -167 -8 -33 -4 -65 -11 -72 -17 -7 -6 -13 -18 -13 -28 0
-10 13 -32 29 -49 20 -21 39 -31 58 -31 15 0 89 -2 164 -5 117 -5 137 -3 142
10 5 11 22 15 65 15 33 0 76 7 97 15 20 9 45 13 56 10 11 -4 24 -17 29 -30 7
-17 3 -41 -13 -84 -19 -54 -25 -61 -49 -61 -15 0 -38 -4 -52 -10 -21 -8 -31
-5 -56 16 -16 14 -30 33 -30 43 0 9 -5 22 -12 29 -7 7 -22 12 -34 12 -13 0
-30 -10 -38 -22 -9 -12 -16 -33 -16 -46 0 -13 7 -25 18 -28 9 -3 36 -14 58
-24 23 -10 58 -33 78 -50 20 -18 36 -38 36 -45 0 -7 -22 -32 -48 -56 -27 -24
-63 -52 -81 -61 -21 -12 -31 -24 -29 -35 2 -10 10 -19 18 -21 9 -1 24 5 35 15
11 10 54 34 95 53 41 19 81 41 88 50 8 8 20 23 27 34 13 18 15 18 62 -4 26
-13 55 -29 63 -35 8 -7 27 -15 42 -19 21 -5 30 -2 37 12 6 10 7 30 4 43 -3 13
-10 30 -16 37 -6 7 -32 22 -59 34 -34 14 -50 28 -54 45 -5 19 1 32 25 57 17
17 31 42 31 55 0 12 -4 30 -9 39 -6 12 -1 28 15 55 19 28 31 37 52 37 15 0 36
-7 46 -15 15 -11 38 -13 105 -8 70 4 93 2 118 -11 18 -9 47 -16 64 -16 18 0
48 5 66 12 28 10 33 17 33 43 0 25 -8 35 -44 58 -24 15 -49 27 -56 27 -8 0
-22 8 -32 17 -16 14 -28 15 -99 6 -58 -8 -87 -17 -103 -32 -12 -11 -29 -21
-38 -21 -9 0 -18 7 -22 15 -3 8 -12 15 -20 15 -9 0 -23 -11 -31 -24 -14 -22
-22 -23 -89 -21 -40 1 -79 6 -86 10 -7 5 -41 7 -74 6 -34 -1 -66 2 -72 6 -6 5
-17 48 -24 96 -10 68 -18 92 -34 103 -11 8 -37 14 -57 14z"/>
<path d="M311 610 c-6 0 -13 -4 -16 -10 -3 -5 -3 -15 0 -20 4 -6 11 -8 16 -5
5 4 9 13 9 21 0 8 -4 14 -9 14z"/>
<path d="M1260 453 c-13 3 -20 0 -20 -9 0 -8 9 -14 20 -14 11 0 20 4 20 9 0 5
-9 11 -20 14z"/>
</g>
</svg>
