<?xml version="1.0" standalone="no"?>
<!DOCTYPE svg PUBLIC "-//W3C//DTD SVG 20010904//EN"
 "http://www.w3.org/TR/2001/REC-SVG-20010904/DTD/svg10.dtd">
<svg version="1.0" xmlns="http://www.w3.org/2000/svg"
 width="128.000000pt" height="128.000000pt" viewBox="0 0 128.000000 128.000000"
 preserveAspectRatio="xMidYMid meet">
<metadata>
Created by potrace 1.16, written by Peter Selinger 2001-2019
</metadata>
<g transform="translate(0.000000,128.000000) scale(0.100000,-0.100000)"
fill="#000000" stroke="none">
<path d="M533 1280 c-4 0 -14 -9 -20 -19 -7 -10 -9 -22 -6 -25 4 -3 15 -6 25
-6 13 0 18 -8 19 -32 1 -18 0 -44 -1 -58 -1 -14 -4 -27 -6 -30 -3 -2 -42 -7
-87 -10 -82 -5 -82 -5 -78 -55 1 -27 7 -57 12 -66 5 -11 4 -20 -4 -26 -6 -6
-34 -16 -60 -23 -35 -9 -57 -24 -82 -53 -19 -22 -35 -46 -35 -53 0 -7 17 -15
38 -18 27 -5 60 1 122 23 47 16 89 26 93 21 5 -4 0 -22 -10 -40 -10 -18 -25
-45 -33 -60 -8 -15 -30 -43 -48 -61 -19 -19 -40 -46 -48 -62 -13 -24 -13 -28
1 -34 9 -3 27 0 41 7 13 8 25 11 27 9 2 -2 11 -16 20 -31 12 -19 26 -28 43
-28 15 0 24 -5 22 -12 -2 -6 -21 -20 -41 -31 -20 -10 -37 -25 -37 -32 0 -8 4
-16 9 -19 5 -3 24 2 42 11 19 9 46 27 60 40 18 17 36 24 55 21 29 -3 29 -3 30
-92 1 -74 -2 -92 -17 -103 -9 -8 -38 -34 -64 -58 -27 -26 -44 -49 -40 -55 5
-8 19 -1 40 20 19 18 41 30 51 28 17 -3 19 -15 20 -99 1 -52 6 -105 13 -117 6
-12 19 -26 29 -31 9 -5 46 -11 82 -13 52 -2 65 0 65 12 0 8 -15 17 -39 22 -21
5 -50 17 -65 27 -23 17 -26 26 -26 68 1 48 1 48 52 58 29 5 55 13 59 17 4 5
21 8 37 8 17 0 45 5 63 12 29 10 36 9 54 -7 15 -14 20 -30 20 -69 0 -28 -3
-61 -6 -73 -4 -15 -18 -26 -41 -32 -19 -5 -40 -8 -47 -5 -6 2 -20 -2 -30 -9
-11 -8 -16 -19 -12 -25 4 -7 27 -12 51 -12 24 0 67 5 94 11 40 8 54 17 71 43
11 19 20 37 20 43 0 5 -15 33 -34 63 -19 30 -41 62 -49 72 -13 14 -13 19 0 38
8 11 12 27 9 35 -3 9 -18 15 -35 15 -16 0 -36 -3 -45 -6 -9 -3 -16 -12 -16
-20 0 -8 -4 -14 -9 -14 -5 0 -13 6 -19 13 -5 7 -7 33 -3 65 4 29 12 57 18 63
6 6 31 11 57 11 33 0 46 4 46 14 0 9 -11 14 -28 14 -16 0 -36 8 -44 18 -8 9
-18 25 -21 34 -4 11 -12 15 -22 12 -8 -4 -15 -18 -15 -34 0 -21 -8 -33 -35
-48 -19 -12 -57 -29 -85 -39 -45 -16 -52 -16 -60 -3 -6 8 -9 31 -8 50 3 34 7
37 113 91 82 41 111 61 113 77 2 11 -6 30 -19 43 -17 17 -29 20 -65 16 -25 -2
-47 -1 -49 4 -3 4 5 13 17 20 13 6 37 25 55 41 23 23 38 29 55 25 13 -4 54
-36 90 -72 37 -36 73 -65 82 -65 9 0 16 6 16 14 0 7 -9 25 -20 39 -11 14 -20
29 -20 34 0 5 -12 21 -27 35 -16 15 -40 31 -56 37 -15 6 -30 17 -33 26 -4 9 6
25 25 41 23 19 30 32 25 46 -3 10 0 25 6 33 8 10 31 15 62 15 35 0 50 4 55 16
3 9 0 20 -8 25 -8 5 -39 9 -69 8 -30 0 -66 -6 -80 -14 -14 -8 -35 -14 -47 -15
-14 0 -23 6 -23 14 0 8 4 17 8 20 5 3 21 23 36 44 24 35 25 42 15 66 -8 17
-20 26 -35 26 -18 0 -22 -5 -21 -33 1 -24 -11 -48 -41 -89 -23 -31 -50 -59
-60 -63 -11 -3 -32 -1 -47 5 -16 6 -40 8 -55 5 -18 -4 -31 -1 -40 9 -10 14 -6
19 35 36 27 12 45 25 42 33 -2 6 -19 12 -38 12 -23 0 -35 5 -37 16 -2 11 11
21 40 32 24 8 60 18 81 22 21 3 41 13 44 22 3 8 0 19 -8 24 -8 5 -25 9 -39 9
-14 0 -44 -9 -67 -20 -43 -19 -43 -19 -43 30 0 42 -4 51 -29 69 -16 12 -33 21
-38 21z m-5 -211 c6 1 12 -6 12 -14 0 -8 -13 -21 -30 -30 -16 -8 -43 -15 -60
-15 -20 0 -30 5 -30 15 0 9 19 20 48 29 26 8 53 15 60 15z m-18 -101 c17 -2
26 -10 28 -25 2 -15 13 -24 32 -28 15 -3 47 -1 70 5 23 6 45 9 48 6 3 -3 -2
-14 -11 -24 -10 -10 -17 -24 -17 -31 0 -9 8 -11 21 -8 16 4 32 -5 64 -39 43
-44 43 -44 11 -70 -17 -15 -51 -35 -75 -46 -24 -10 -49 -17 -55 -15 -6 2 -9
23 -8 48 2 25 -3 52 -10 62 -8 10 -30 22 -48 26 -19 4 -34 11 -34 16 1 6 13
16 28 23 14 7 24 17 21 23 -4 5 -15 9 -25 9 -10 0 -20 6 -22 12 -4 10 -22 7
-74 -10 -38 -12 -82 -22 -99 -21 -16 0 -23 3 -15 6 8 3 22 11 30 18 8 7 38 24
65 39 28 15 61 25 75 24z m333 -48 c9 0 17 -6 17 -13 0 -7 -7 -23 -16 -35 -10
-15 -25 -22 -48 -22 -18 0 -40 6 -51 13 -10 8 -15 19 -11 25 4 7 19 12 34 12
15 0 34 5 42 10 8 5 23 10 33 10z m-331 -142 c28 1 55 -1 60 -4 5 -3 1 -15 -7
-27 -8 -12 -15 -27 -15 -35 0 -7 -10 -27 -22 -45 -13 -18 -31 -42 -41 -54 -16
-18 -23 -20 -40 -10 -12 7 -27 19 -33 27 -7 8 -9 21 -6 30 3 8 16 30 29 49 13
19 23 42 23 51 0 15 9 18 52 18z m101 -139 c15 0 27 -3 27 -8 0 -5 -12 -17
-27 -26 -16 -10 -31 -23 -35 -30 -4 -7 -20 -10 -38 -7 -27 4 -31 8 -28 31 2
21 10 27 38 32 19 4 47 7 63 8z m185 0 c6 1 12 -3 12 -8 0 -5 -15 -20 -32 -33
-18 -14 -47 -32 -64 -41 -27 -14 -34 -14 -50 -2 -18 14 -18 15 6 35 14 11 45
26 70 34 25 8 51 15 58 15z m-26 -239 c4 0 10 -5 13 -10 4 -6 3 -35 0 -65 -7
-52 -9 -55 -55 -79 -38 -20 -51 -23 -62 -13 -8 7 -21 27 -28 44 -7 18 -10 39
-6 48 3 8 13 15 23 15 10 0 38 14 63 30 25 16 48 30 52 30z"/>
<path d="M397 398 c-9 2 -19 -2 -22 -10 -2 -7 -6 -29 -7 -48 -3 -30 -7 -35
-32 -38 -16 -2 -33 1 -39 7 -6 6 -19 11 -29 11 -12 0 -18 -8 -18 -24 0 -13 7
-29 16 -37 9 -7 31 -12 50 -11 28 2 34 -1 34 -17 0 -11 -4 -31 -10 -46 -7 -19
-6 -34 5 -56 9 -16 22 -29 30 -29 8 0 26 11 42 24 27 23 27 25 11 43 -10 11
-21 34 -24 52 -5 24 -2 39 13 59 17 24 18 32 8 72 -7 29 -17 46 -28 48z"/>
<path d="M513 370 c-10 0 -26 -7 -35 -14 -10 -7 -18 -21 -18 -30 0 -9 8 -16
19 -16 11 0 27 10 35 22 9 12 16 26 16 30 0 5 -8 8 -17 8z"/>
</g>
</svg>
