<?xml version="1.0" standalone="no"?>
<!DOCTYPE svg PUBLIC "-//W3C//DTD SVG 20010904//EN"
 "http://www.w3.org/TR/2001/REC-SVG-20010904/DTD/svg10.dtd">
<svg version="1.0" xmlns="http://www.w3.org/2000/svg"
 width="128.000000pt" height="128.000000pt" viewBox="0 0 128.000000 128.000000"
 preserveAspectRatio="xMidYMid meet">
<metadata>
Created by potrace 1.16, written by Peter Selinger 2001-2019
</metadata>
<g transform="translate(0.000000,128.000000) scale(0.100000,-0.100000)"
fill="#000000" stroke="none">
<path d="M530 1280 c-64 0 -70 -2 -70 -20 0 -18 5 -20 35 -15 19 3 51 7 70 10
19 3 35 10 35 15 0 6 -31 10 -70 10z"/>
<path d="M740 1280 c-11 0 -20 -5 -20 -10 0 -6 -16 -18 -35 -27 -19 -9 -35
-23 -35 -30 0 -8 12 -13 29 -13 16 0 34 -6 40 -14 8 -9 10 -29 6 -53 -3 -21
-8 -48 -11 -60 -2 -13 -11 -23 -20 -23 -9 0 -28 7 -44 17 -26 15 -31 15 -69 0
-37 -15 -42 -15 -53 -1 -7 9 -23 27 -35 40 -15 17 -32 24 -55 23 -18 0 -49 -6
-68 -13 -19 -7 -35 -19 -35 -26 0 -7 14 -18 32 -24 18 -6 38 -17 45 -24 11
-11 9 -17 -11 -33 -13 -10 -35 -19 -50 -19 -14 0 -43 -3 -64 -6 -27 -5 -37
-12 -37 -25 0 -10 8 -22 17 -27 10 -5 33 -7 50 -5 23 4 33 1 34 -8 1 -8 1 -39
-1 -69 -1 -30 -8 -88 -16 -127 -8 -40 -16 -94 -17 -120 -1 -27 5 -61 13 -78 9
-16 24 -31 34 -33 12 -3 41 20 90 70 39 40 81 87 93 103 13 17 34 46 47 66 13
21 27 46 30 57 4 11 26 30 49 41 42 21 42 21 60 0 9 -12 17 -29 17 -39 0 -10
-28 -43 -62 -74 -34 -31 -69 -56 -78 -56 -9 0 -24 -8 -32 -17 -9 -10 -19 -28
-23 -41 -4 -13 -1 -37 5 -53 7 -17 20 -29 31 -29 10 0 45 25 78 56 37 34 67
54 78 52 14 -2 19 -15 21 -58 2 -30 -2 -85 -9 -123 -7 -37 -18 -72 -25 -77 -9
-8 -18 -1 -34 25 -12 19 -25 35 -28 35 -4 0 -26 -10 -49 -22 -23 -12 -44 -29
-48 -38 -3 -8 -12 -27 -20 -42 -8 -14 -12 -33 -9 -42 4 -9 18 -16 34 -16 16 0
40 -4 54 -10 18 -7 26 -17 26 -34 0 -14 -4 -28 -10 -31 -5 -3 -10 -16 -10 -29
0 -12 15 -36 33 -53 17 -17 48 -39 67 -48 19 -9 51 -25 70 -36 19 -10 54 -19
78 -19 29 0 45 5 48 15 4 8 -9 36 -28 62 -30 42 -40 49 -83 56 -27 4 -56 13
-63 20 -9 7 -12 22 -9 41 3 17 19 72 36 121 18 50 38 121 46 158 8 38 15 92
15 121 0 35 -5 58 -15 66 -8 7 -15 21 -15 31 0 10 4 20 9 23 5 3 26 32 47 63
21 32 48 67 60 78 12 11 39 60 59 108 30 70 36 95 31 125 -4 20 -14 54 -23 74
-9 21 -24 40 -35 44 -13 4 -35 -11 -80 -56 -34 -33 -69 -59 -77 -58 -13 3 -15
16 -13 66 2 53 0 63 -18 74 -11 7 -20 18 -20 25 0 7 -9 13 -20 13z m191 -140
c5 0 9 -13 9 -29 0 -16 -9 -51 -20 -77 -12 -26 -35 -69 -52 -96 -17 -26 -38
-48 -45 -48 -8 0 -25 11 -38 24 -17 17 -23 31 -18 43 3 10 12 27 19 37 8 11
41 48 75 83 34 35 66 63 70 63z m-279 -130 c15 0 30 -5 33 -11 4 -5 -19 -50
-52 -99 -32 -49 -69 -107 -82 -129 -14 -22 -45 -63 -71 -91 -25 -27 -51 -50
-58 -50 -7 0 -12 13 -12 31 0 18 9 63 21 102 11 39 19 84 16 101 -3 17 -8 41
-12 53 -6 17 -1 24 22 36 15 8 48 18 73 22 25 4 56 13 70 21 14 7 37 13 52 14z"/>
</g>
</svg>
