<?xml version="1.0" standalone="no"?>
<!DOCTYPE svg PUBLIC "-//W3C//DTD SVG 20010904//EN"
 "http://www.w3.org/TR/2001/REC-SVG-20010904/DTD/svg10.dtd">
<svg version="1.0" xmlns="http://www.w3.org/2000/svg"
 width="128.000000pt" height="128.000000pt" viewBox="0 0 128.000000 128.000000"
 preserveAspectRatio="xMidYMid meet">
<metadata>
Created by potrace 1.16, written by Peter Selinger 2001-2019
</metadata>
<g transform="translate(0.000000,128.000000) scale(0.100000,-0.100000)"
fill="#000000" stroke="none">
<path d="M718 1249 c-7 0 -28 -7 -47 -15 -26 -12 -41 -13 -64 -5 -16 6 -42 11
-56 11 -15 0 -32 -5 -39 -12 -7 -7 -12 -18 -12 -25 0 -7 9 -22 20 -33 11 -11
33 -20 49 -20 16 0 34 7 41 15 7 8 19 15 27 15 7 0 25 -7 38 -16 21 -14 33
-15 67 -6 23 6 45 9 50 6 4 -3 8 -25 8 -50 0 -37 -4 -46 -22 -53 -13 -5 -47
-32 -75 -59 -38 -35 -53 -57 -53 -76 0 -14 -4 -26 -9 -26 -6 0 -16 8 -23 18
-7 11 -36 27 -64 36 -29 9 -60 26 -69 36 -10 11 -29 20 -42 20 -12 0 -41 16
-62 36 -30 26 -47 35 -68 32 -22 -2 -27 -7 -25 -23 2 -11 13 -32 23 -47 11
-15 39 -36 62 -46 23 -11 51 -29 61 -41 11 -11 27 -21 37 -21 10 0 26 -11 35
-25 10 -16 14 -34 10 -51 -6 -22 -10 -25 -36 -19 -26 6 -31 3 -40 -19 -5 -15
-17 -26 -29 -26 -10 0 -23 -6 -29 -13 -6 -6 -12 -28 -14 -47 -3 -32 -6 -35
-38 -38 -19 -1 -45 -5 -56 -7 -13 -3 -24 -16 -29 -32 -3 -15 -11 -34 -17 -40
-6 -7 -23 -13 -39 -13 -15 0 -31 -5 -34 -10 -3 -6 -17 -7 -30 -4 -20 5 -27 0
-43 -33 -10 -21 -27 -71 -36 -111 -14 -57 -15 -76 -6 -88 7 -7 23 -14 35 -14
12 0 34 9 48 20 14 11 30 20 35 20 6 0 20 16 33 36 14 24 27 34 38 31 9 -3 32
-11 51 -18 19 -6 58 -22 87 -35 28 -13 54 -28 58 -33 3 -5 18 -12 34 -16 16
-3 37 -15 47 -26 9 -10 25 -19 36 -19 10 0 37 6 60 13 26 7 52 26 71 50 17 20
35 37 41 37 6 0 28 16 49 35 20 18 37 39 37 44 0 6 15 18 33 26 17 9 46 24 62
34 17 9 47 33 68 52 20 20 37 41 37 47 0 7 -11 12 -25 12 -14 0 -29 -8 -35
-20 -6 -11 -17 -20 -25 -20 -8 0 -18 8 -24 17 -9 17 -11 16 -33 -5 -14 -12
-34 -22 -45 -22 -12 0 -29 -3 -38 -6 -8 -4 -23 -20 -31 -36 -13 -25 -20 -29
-41 -23 -18 4 -32 0 -48 -15 -12 -12 -53 -32 -91 -45 -38 -14 -77 -25 -86 -25
-10 0 -30 14 -45 30 -14 17 -31 30 -36 30 -6 0 -19 -8 -29 -17 -18 -16 -20
-15 -36 7 -9 14 -20 32 -24 41 -4 11 0 24 13 35 11 9 19 30 19 47 0 28 2 29
32 23 30 -6 37 -1 105 69 40 41 79 75 87 75 8 0 27 5 41 12 19 9 30 8 48 -1
16 -9 34 -10 58 -4 34 9 34 10 31 64 -1 32 3 60 10 69 7 9 40 32 74 53 33 20
68 45 79 57 10 11 25 20 33 20 7 0 26 8 40 18 15 10 35 22 45 25 9 4 17 13 17
21 0 8 -6 18 -12 23 -7 4 -35 8 -62 8 -47 0 -50 1 -61 35 -8 25 -22 40 -48 53
-28 14 -41 16 -57 7 -11 -6 -29 -8 -39 -5 -11 3 -22 12 -25 20 -3 8 -11 15
-18 14z"/>
<path d="M1107 608 c-1 0 -17 -3 -34 -5 -18 -2 -33 -8 -33 -13 0 -5 9 -14 20
-20 11 -6 25 -20 31 -32 10 -19 6 -27 -42 -73 -30 -29 -66 -66 -80 -84 -18
-20 -36 -31 -53 -31 -19 0 -32 -10 -52 -41 -16 -26 -30 -39 -40 -35 -8 3 -20
9 -28 12 -8 3 -25 -9 -41 -30 -20 -26 -35 -36 -54 -36 -20 0 -40 -13 -72 -47
-24 -27 -51 -59 -59 -72 -9 -13 -22 -27 -30 -31 -8 -4 -35 -17 -60 -28 -25
-12 -55 -22 -67 -22 -12 0 -25 -5 -28 -10 -5 -7 25 -10 91 -8 97 3 98 3 114
33 14 24 23 30 51 30 31 0 36 5 60 50 21 42 30 51 60 55 19 3 50 13 69 22 20
9 44 26 54 37 11 12 26 21 34 21 8 0 44 18 79 40 35 23 73 50 83 60 15 15 34
20 69 20 42 0 53 4 70 26 12 15 21 37 21 50 0 14 -12 31 -30 44 -16 12 -30 28
-30 35 0 8 -16 30 -35 50 -20 19 -37 34 -38 33z"/>
</g>
</svg>
