<?xml version="1.0" standalone="no"?>
<!DOCTYPE svg PUBLIC "-//W3C//DTD SVG 20010904//EN"
 "http://www.w3.org/TR/2001/REC-SVG-20010904/DTD/svg10.dtd">
<svg version="1.0" xmlns="http://www.w3.org/2000/svg"
 width="128.000000pt" height="128.000000pt" viewBox="0 0 128.000000 128.000000"
 preserveAspectRatio="xMidYMid meet">
<metadata>
Created by potrace 1.16, written by Peter Selinger 2001-2019
</metadata>
<g transform="translate(0.000000,128.000000) scale(0.100000,-0.100000)"
fill="#000000" stroke="none">
<path d="M809 1256 c-59 6 -67 4 -94 -18 -17 -14 -50 -35 -75 -48 -40 -20 -49
-21 -94 -11 -27 6 -51 9 -54 6 -3 -3 20 -29 52 -58 39 -37 55 -58 51 -70 -4
-9 -18 -23 -31 -32 -14 -9 -24 -25 -24 -38 1 -12 7 -33 15 -47 8 -14 14 -42
15 -62 0 -21 8 -56 17 -79 16 -41 16 -42 -7 -61 -13 -10 -28 -17 -34 -15 -6 2
-14 19 -17 38 -4 19 -17 68 -29 109 -12 41 -27 111 -34 155 -6 44 -20 97 -31
118 -10 20 -25 37 -33 37 -11 0 -13 -9 -8 -37 4 -21 11 -71 16 -111 8 -57 7
-81 -5 -115 -14 -40 -13 -46 11 -120 14 -43 24 -84 21 -91 -3 -8 -19 -17 -35
-21 -17 -3 -50 -19 -75 -35 -33 -21 -49 -40 -62 -72 -9 -25 -15 -62 -13 -84 2
-31 7 -40 24 -42 12 -2 37 6 55 17 19 12 44 21 57 21 12 0 32 11 44 25 14 17
32 25 53 25 18 0 39 -8 48 -18 10 -10 17 -22 17 -27 0 -5 12 -22 27 -37 15
-15 36 -28 48 -28 12 0 30 9 41 21 10 12 40 32 66 45 26 13 61 24 77 24 16 0
37 -7 45 -16 9 -8 16 -18 16 -22 0 -4 -5 -24 -10 -44 -6 -21 -38 -73 -72 -115
-33 -43 -117 -133 -185 -201 -117 -114 -123 -122 -95 -122 24 0 54 23 158 117
71 65 146 133 166 152 21 18 46 40 56 47 10 7 27 12 38 11 13 -1 20 5 22 23 2
13 17 39 33 58 16 18 31 43 35 57 5 18 -3 37 -30 74 -24 32 -50 54 -76 65 -22
9 -59 16 -81 16 -23 0 -53 -6 -67 -14 -15 -7 -53 -24 -84 -36 -58 -22 -58 -22
-89 4 -17 14 -41 29 -53 32 -13 3 -60 -4 -106 -15 -49 -12 -87 -18 -93 -12 -5
5 3 17 19 30 14 11 43 25 63 31 20 5 46 16 58 25 12 8 41 20 65 25 24 5 70 16
102 24 41 10 65 12 78 5 10 -5 18 -14 18 -19 0 -6 10 -10 23 -10 12 0 32 8 44
18 14 10 39 60 62 123 22 58 47 137 56 175 9 38 21 90 27 116 6 26 8 53 5 60
-2 8 -22 26 -44 41 -29 20 -57 29 -104 33z m3 -47 c4 1 14 -6 22 -15 9 -8 16
-32 16 -52 0 -20 -7 -69 -15 -107 -9 -39 -20 -92 -25 -118 -5 -27 -12 -53 -15
-58 -4 -5 -12 -9 -19 -9 -7 0 -21 9 -31 20 -11 12 -31 20 -51 20 -18 0 -35 4
-38 9 -3 5 2 19 12 32 10 13 26 43 35 66 9 23 14 49 11 58 -3 8 -15 15 -25 15
-10 0 -20 6 -20 13 -1 6 0 21 1 32 1 11 7 26 12 32 6 7 29 21 52 32 22 11 48
22 56 25 8 2 18 5 22 5z"/>
<path d="M876 100 c-8 0 -17 -4 -20 -9 -4 -5 -3 -16 0 -24 3 -9 12 -18 20 -21
8 -3 17 1 20 9 4 8 4 22 0 30 -3 8 -12 15 -20 15z"/>
</g>
</svg>
