<?xml version="1.0" standalone="no"?>
<!DOCTYPE svg PUBLIC "-//W3C//DTD SVG 20010904//EN"
 "http://www.w3.org/TR/2001/REC-SVG-20010904/DTD/svg10.dtd">
<svg version="1.0" xmlns="http://www.w3.org/2000/svg"
 width="128.000000pt" height="128.000000pt" viewBox="0 0 128.000000 128.000000"
 preserveAspectRatio="xMidYMid meet">
<metadata>
Created by potrace 1.16, written by Peter Selinger 2001-2019
</metadata>
<g transform="translate(0.000000,128.000000) scale(0.100000,-0.100000)"
fill="#000000" stroke="none">
<path d="M789 1100 c-10 0 -19 -6 -19 -14 0 -7 9 -16 20 -19 11 -3 23 -1 26 4
3 5 2 14 -1 19 -3 6 -15 10 -26 10z"/>
<path d="M1190 1090 c-81 0 -90 -2 -90 -19 0 -10 7 -24 15 -31 10 -9 31 -10
68 -6 28 4 62 10 75 13 13 3 22 13 22 24 0 17 -8 19 -90 19z"/>
<path d="M940 1059 c-14 -1 -40 -7 -59 -14 -19 -7 -44 -23 -56 -37 -11 -13
-27 -22 -34 -20 -6 2 -20 -2 -29 -10 -9 -8 -42 -24 -72 -36 -30 -11 -64 -22
-75 -24 -11 -2 -20 -10 -20 -18 0 -12 14 -15 68 -13 57 1 67 -1 67 -15 0 -9
-14 -37 -30 -61 -17 -24 -30 -56 -30 -70 0 -14 -4 -32 -9 -40 -6 -10 -4 -25 6
-45 9 -17 23 -36 32 -43 14 -10 14 -12 -3 -19 -10 -4 -21 -2 -25 5 -6 9 -14 9
-36 -1 -24 -11 -29 -10 -45 9 -9 12 -20 45 -24 73 -4 28 -11 61 -15 73 -5 12
-14 40 -20 62 -7 22 -17 50 -23 61 -6 12 -21 27 -35 33 -13 6 -28 11 -33 11
-6 0 -10 -10 -10 -23 0 -13 9 -26 22 -32 16 -7 25 -22 30 -50 3 -22 7 -91 8
-153 2 -106 0 -115 -21 -138 -22 -24 -22 -24 6 -24 15 0 34 8 41 17 12 17 13
16 14 -8 0 -14 -6 -32 -12 -41 -8 -9 -36 -18 -70 -21 -42 -4 -58 -2 -58 7 0 6
5 17 12 24 6 6 9 15 5 19 -4 4 -31 1 -60 -6 -28 -7 -61 -19 -73 -26 -12 -8
-45 -21 -75 -29 -30 -9 -68 -24 -85 -35 -18 -11 -44 -45 -67 -89 -20 -38 -37
-77 -37 -86 0 -8 9 -20 19 -26 11 -5 29 -10 39 -10 11 0 47 22 79 48 38 32 96
65 167 95 60 26 122 47 138 47 16 0 53 -9 81 -21 29 -12 63 -26 77 -32 14 -6
39 -22 55 -34 17 -13 40 -33 53 -46 22 -22 22 -22 45 5 12 14 37 34 56 43 19
10 56 34 81 54 26 21 60 42 76 48 16 7 60 21 97 33 37 11 72 18 77 15 6 -4 10
-13 10 -21 0 -9 -12 -32 -27 -52 -16 -22 -51 -49 -87 -67 -33 -16 -61 -36 -64
-42 -2 -9 6 -13 25 -13 15 1 64 10 108 21 44 11 89 20 100 20 11 -1 30 4 43
11 19 10 22 19 22 70 0 45 -3 58 -15 58 -8 0 -21 15 -29 33 -7 19 -26 43 -40
55 -21 16 -33 19 -54 12 -15 -4 -43 -16 -62 -26 -19 -10 -56 -19 -82 -20 -29
0 -55 -7 -66 -17 -10 -10 -22 -17 -26 -17 -4 0 -34 -15 -65 -34 -32 -19 -67
-37 -78 -40 -15 -5 -34 5 -67 33 -26 21 -55 38 -64 37 -10 0 -18 7 -20 19 -1
11 7 35 18 53 15 24 27 32 49 32 24 0 33 7 47 35 9 19 24 35 33 35 9 0 22 -9
28 -19 10 -17 9 -20 -14 -26 -15 -3 -22 -10 -17 -15 5 -5 30 -10 57 -11 37 -2
50 1 62 17 8 11 15 14 15 7 0 -9 16 -13 44 -13 28 0 52 7 66 18 14 11 20 24
16 31 -5 7 -18 16 -31 21 -23 9 -23 9 23 97 44 84 46 92 46 168 0 44 -6 90
-13 103 -7 13 -27 32 -44 42 -18 11 -43 19 -57 19z m-15 -73 c6 -1 15 -18 21
-37 8 -25 8 -52 0 -104 -6 -38 -19 -85 -29 -102 -10 -18 -24 -33 -31 -33 -7 0
-19 7 -26 15 -8 9 -10 28 -6 50 7 33 5 36 -24 47 -30 10 -31 13 -24 47 4 20 7
51 6 69 -2 30 0 32 31 33 17 0 41 4 52 9 11 5 25 7 30 6z m-150 -106 c9 0 12
-6 9 -15 -4 -8 -10 -15 -15 -15 -5 0 -9 7 -9 15 0 8 7 15 15 15z m-14 -70 c5
0 7 -11 3 -25 -5 -19 -2 -25 10 -25 9 0 16 -7 16 -15 0 -8 -7 -15 -15 -15 -8
0 -24 8 -35 17 -11 10 -20 21 -20 25 0 3 7 14 16 22 8 9 20 16 25 16z m-38
-100 c12 0 31 -8 42 -16 20 -15 20 -15 1 -30 -11 -8 -30 -14 -42 -14 -12 0
-24 8 -26 18 -3 9 -3 23 -1 30 3 6 14 12 26 12z m117 -30 c11 -6 18 -15 15
-21 -4 -5 -13 -9 -21 -9 -8 0 -14 9 -14 20 0 18 3 19 20 10z m-271 -160 c5 0
12 -7 15 -16 3 -9 6 -22 6 -29 0 -7 -7 -15 -15 -19 -12 -4 -15 3 -15 29 0 19
4 35 9 35z m-304 -111 c11 1 4 -7 -20 -19 -22 -11 -43 -20 -48 -20 -5 0 -7 6
-5 12 3 7 15 15 29 19 13 4 33 7 44 8z m626 -14 c4 -3 6 -12 2 -20 -3 -8 -9
-15 -14 -15 -5 0 -9 2 -9 4 0 2 3 11 6 20 3 9 10 14 15 11z m314 -15 c10 0 15
-7 13 -17 -2 -10 -8 -17 -13 -16 -6 1 -11 9 -13 17 -2 10 3 16 13 16z m-451
-33 c5 -2 12 -9 14 -15 2 -7 -3 -15 -12 -18 -9 -3 -24 -3 -33 1 -17 6 -17 7 2
21 10 8 24 13 29 11z"/>
</g>
</svg>
