<?xml version="1.0" standalone="no"?>
<!DOCTYPE svg PUBLIC "-//W3C//DTD SVG 20010904//EN"
 "http://www.w3.org/TR/2001/REC-SVG-20010904/DTD/svg10.dtd">
<svg version="1.0" xmlns="http://www.w3.org/2000/svg"
 width="128.000000pt" height="128.000000pt" viewBox="0 0 128.000000 128.000000"
 preserveAspectRatio="xMidYMid meet">
<metadata>
Created by potrace 1.16, written by Peter Selinger 2001-2019
</metadata>
<g transform="translate(0.000000,128.000000) scale(0.100000,-0.100000)"
fill="#000000" stroke="none">
<path d="M767 1260 c-7 0 -21 -6 -32 -13 -10 -8 -15 -19 -11 -25 4 -7 15 -12
24 -12 10 0 22 -8 28 -17 6 -10 10 -30 9 -44 -1 -14 -9 -43 -19 -63 -10 -21
-38 -58 -63 -84 -24 -26 -48 -54 -52 -62 -4 -8 -5 -31 -2 -50 6 -32 9 -35 41
-35 34 0 34 0 37 -70 2 -38 -1 -110 -8 -160 -6 -49 -17 -112 -24 -140 -7 -27
-10 -74 -8 -103 4 -36 10 -52 20 -52 7 0 16 8 20 18 3 9 18 44 33 78 16 34 34
97 41 144 7 50 9 122 6 179 -4 53 -3 101 1 106 4 6 21 15 37 21 17 6 38 15 47
19 13 5 20 1 27 -17 5 -14 7 -100 5 -191 -5 -161 -4 -167 15 -167 11 0 22 -4
26 -9 3 -5 -5 -11 -17 -13 -20 -3 -23 -9 -24 -58 -1 -30 -6 -82 -13 -115 -6
-33 -11 -93 -11 -133 0 -70 -1 -73 -27 -83 -16 -6 -36 -15 -45 -20 -10 -5 -27
-9 -37 -9 -11 0 -22 -4 -26 -9 -3 -6 3 -15 14 -20 11 -6 27 -11 36 -11 9 0 35
-9 57 -20 37 -18 43 -18 58 -5 9 8 21 15 27 15 6 0 23 19 38 42 15 22 30 59
33 80 2 22 0 99 -7 171 -6 73 -13 225 -15 338 -3 130 -9 215 -16 229 -8 15 -8
25 -1 34 6 8 31 19 55 26 25 7 49 9 54 6 6 -3 17 -3 26 0 9 3 16 17 16 30 0
16 -9 28 -30 39 -16 8 -41 15 -55 15 -15 0 -39 -9 -53 -21 -15 -11 -54 -41
-87 -65 -33 -24 -68 -44 -77 -44 -10 0 -24 13 -32 29 -14 27 -14 31 18 84 19
31 37 74 41 97 5 31 2 47 -14 74 -12 19 -32 41 -46 50 -13 9 -30 16 -38 16z
m219 -1045 c8 -11 14 -22 14 -26 0 -3 -6 -12 -14 -18 -9 -8 -16 -8 -20 -2 -4
6 -4 22 0 37 7 26 8 26 20 9z m-88 -156 c9 -7 19 -15 21 -16 2 -2 -5 -3 -17
-3 -14 0 -22 6 -22 16 0 14 3 15 18 3z"/>
<path d="M346 1237 c-96 4 -118 3 -114 -8 3 -8 32 -18 71 -25 36 -6 73 -16 81
-23 9 -8 16 -20 16 -28 0 -8 -6 -27 -14 -42 -13 -25 -13 -29 3 -42 9 -9 25
-18 34 -22 9 -3 17 -16 17 -28 0 -12 7 -27 16 -34 13 -9 14 -16 6 -32 -6 -11
-8 -30 -5 -41 3 -12 0 -29 -7 -37 -9 -10 -9 -15 -1 -15 6 0 11 -16 11 -37 0
-21 -7 -46 -15 -57 -12 -16 -17 -17 -44 -5 -17 8 -31 20 -31 27 0 7 7 15 15
18 8 4 15 12 15 20 0 7 -7 17 -15 21 -12 7 -12 14 -1 48 8 22 21 41 30 43 9 2
16 5 16 7 0 1 -7 19 -15 38 -8 20 -19 38 -24 41 -5 4 -12 -3 -16 -14 -3 -11
-13 -20 -21 -20 -8 0 -14 3 -14 6 0 3 8 19 17 35 12 21 14 32 6 40 -8 8 -18 3
-36 -15 -21 -21 -24 -31 -17 -53 4 -16 11 -36 15 -46 4 -10 2 -29 -5 -43 -8
-13 -19 -24 -27 -24 -7 0 -13 -5 -13 -11 0 -6 5 -19 11 -31 6 -11 8 -30 5 -41
-3 -12 -38 -49 -77 -81 -39 -33 -75 -70 -80 -83 -6 -17 -4 -35 6 -60 11 -26
20 -34 32 -30 10 3 34 12 54 20 22 10 40 12 50 7 12 -8 11 -14 -4 -43 -10 -18
-29 -46 -43 -62 -19 -23 -24 -38 -22 -70 3 -36 6 -40 28 -39 14 1 40 5 58 9
28 7 32 5 32 -13 0 -12 -5 -24 -11 -28 -6 -3 -28 -34 -50 -67 -35 -57 -37 -63
-22 -79 9 -10 26 -18 37 -18 12 0 32 7 44 16 13 9 22 26 22 41 0 13 9 38 21
54 16 23 24 27 34 19 7 -6 16 -30 19 -53 4 -23 11 -48 15 -56 8 -12 13 -12 34
2 17 11 28 32 36 64 6 26 12 68 12 93 0 25 -4 61 -10 80 -6 19 -11 44 -11 55
0 15 13 27 45 43 24 12 51 32 60 45 8 13 13 30 10 38 -3 8 -23 24 -45 37 -22
12 -40 27 -40 31 0 5 14 22 30 38 17 15 30 35 30 43 0 8 -6 22 -13 30 -7 8
-21 20 -32 26 -10 6 -20 15 -22 20 -2 6 12 31 32 57 19 25 35 51 35 58 0 6 -8
17 -17 24 -15 11 -15 17 -5 39 7 15 12 38 12 52 0 19 -8 29 -30 37 -16 6 -30
17 -30 24 0 6 5 15 10 18 6 3 10 19 10 35 0 16 -4 31 -8 34 -5 3 -22 8 -38 12
-16 3 -82 9 -148 11z m55 -507 c4 0 14 -3 23 -6 9 -3 16 -10 16 -15 0 -6 -10
-23 -22 -39 -12 -17 -28 -30 -35 -30 -8 0 -13 12 -13 33 0 18 5 38 12 45 7 7
15 12 19 12z m68 -40 c5 0 14 -7 21 -15 7 -8 9 -23 5 -32 -6 -17 -7 -17 -21 1
-8 11 -14 26 -14 33 0 7 4 13 9 13z m-52 -70 c7 0 17 -8 22 -19 6 -10 8 -35 4
-55 -5 -31 -12 -40 -46 -56 -23 -11 -46 -20 -53 -20 -7 0 -15 4 -19 10 -3 5 1
26 10 47 9 21 28 50 42 66 15 15 32 27 40 27z m62 -20 c4 0 11 -3 14 -6 4 -4
4 -10 1 -15 -2 -4 -11 -6 -19 -3 -8 4 -12 10 -9 15 3 5 9 9 13 9z"/>
<path d="M624 20 c-8 0 -14 -4 -14 -10 0 -5 9 -10 21 -10 11 0 17 4 14 10 -3
5 -13 10 -21 10z"/>
</g>
</svg>
