<?xml version="1.0" standalone="no"?>
<!DOCTYPE svg PUBLIC "-//W3C//DTD SVG 20010904//EN"
 "http://www.w3.org/TR/2001/REC-SVG-20010904/DTD/svg10.dtd">
<svg version="1.0" xmlns="http://www.w3.org/2000/svg"
 width="128.000000pt" height="128.000000pt" viewBox="0 0 128.000000 128.000000"
 preserveAspectRatio="xMidYMid meet">
<metadata>
Created by potrace 1.16, written by Peter Selinger 2001-2019
</metadata>
<g transform="translate(0.000000,128.000000) scale(0.100000,-0.100000)"
fill="#000000" stroke="none">
<path d="M930 1260 c-4 0 -10 -3 -13 -7 -4 -3 -7 -13 -7 -22 0 -9 -14 -24 -30
-33 -17 -9 -30 -24 -30 -31 0 -8 7 -17 15 -21 8 -3 25 -2 38 3 12 4 34 11 50
15 23 6 27 3 27 -17 0 -14 -16 -39 -39 -61 -39 -38 -40 -39 -65 -22 -15 9 -26
22 -26 29 0 8 -10 23 -23 35 -16 15 -36 22 -62 22 -22 0 -64 -10 -93 -22 -52
-22 -55 -22 -67 -4 -8 10 -31 22 -52 27 -21 5 -44 9 -52 9 -10 0 -12 -10 -7
-40 3 -22 2 -40 -3 -40 -5 0 -16 -21 -25 -47 -9 -26 -16 -55 -16 -65 0 -11 -7
-32 -15 -49 -15 -28 -15 -32 7 -72 18 -32 29 -42 48 -42 20 0 26 6 30 30 3 17
16 51 28 77 18 38 21 57 16 102 -5 44 -4 57 8 61 8 3 27 -1 43 -9 16 -8 32
-13 36 -10 5 3 29 11 54 19 43 12 47 12 70 -8 22 -20 26 -34 35 -132 10 -110
10 -110 -28 -140 -20 -16 -54 -47 -74 -67 -21 -21 -44 -38 -53 -38 -8 0 -32
-16 -54 -35 -21 -19 -48 -35 -59 -35 -15 0 -27 -14 -45 -52 -14 -29 -27 -61
-31 -71 -3 -10 2 -25 14 -37 11 -11 31 -22 45 -26 17 -4 38 0 61 12 19 11 44
29 55 40 13 13 28 20 40 17 10 -3 25 0 33 6 7 6 31 12 52 14 39 2 39 2 38 -34
-1 -20 -11 -49 -24 -67 -14 -18 -45 -40 -77 -53 -30 -12 -66 -35 -81 -50 -15
-16 -30 -29 -35 -29 -4 0 -20 14 -36 32 -27 30 -30 31 -60 19 -17 -8 -42 -26
-56 -42 -13 -16 -27 -38 -30 -49 -4 -13 0 -31 10 -46 9 -14 32 -32 50 -40 19
-8 41 -14 49 -14 9 0 25 18 36 39 11 22 25 43 31 47 7 4 18 -1 26 -11 7 -11
13 -35 13 -54 0 -29 9 -43 50 -83 28 -26 50 -57 50 -68 0 -16 7 -20 35 -20 28
0 37 5 50 30 9 17 22 30 31 30 9 0 29 13 45 29 22 23 29 39 29 69 0 21 -9 72
-19 113 -12 48 -17 93 -14 129 3 30 7 81 10 113 4 52 8 61 35 77 16 10 48 18
70 18 23 1 48 8 58 17 10 9 16 23 14 30 -3 7 -16 16 -30 19 -13 4 -24 11 -24
16 0 6 -10 10 -23 10 -13 0 -28 -5 -34 -11 -6 -6 -21 -9 -34 -7 -21 3 -25 10
-30 52 -5 46 -3 53 25 82 17 17 40 35 52 38 11 3 31 17 43 30 12 12 19 29 16
37 -3 8 -17 22 -31 32 -24 18 -25 18 -59 -3 -35 -22 -35 -22 -45 6 -6 15 -9
35 -8 43 2 11 16 17 43 19 22 2 45 9 50 17 6 7 41 30 78 50 37 20 70 41 73 46
3 6 3 21 0 34 -4 15 -24 35 -51 50 -41 25 -45 25 -68 11 -22 -15 -25 -15 -47
9 -13 14 -26 25 -30 25z m-132 -541 c8 1 12 -15 12 -48 0 -32 -6 -55 -16 -65
-8 -9 -24 -16 -33 -16 -10 0 -40 -9 -65 -21 -26 -11 -54 -18 -62 -15 -8 3 -14
11 -14 19 0 7 25 37 55 67 30 29 67 59 82 66 16 7 34 13 41 13z m-32 -359 c17
0 28 -8 35 -27 6 -15 7 -49 4 -75 -6 -40 -10 -48 -28 -48 -11 0 -31 10 -44 22
-14 13 -23 33 -23 50 0 16 7 40 16 53 10 15 26 25 40 25z"/>
<path d="M293 1120 c-7 0 -20 -15 -29 -32 -9 -18 -27 -46 -40 -61 -13 -16 -24
-35 -24 -43 0 -8 6 -17 13 -19 6 -3 25 -1 42 3 20 6 36 21 52 52 13 24 23 51
23 60 0 9 -5 21 -12 28 -7 7 -18 12 -25 12z"/>
<path d="M645 1000 c-8 0 -17 -12 -20 -27 -3 -16 -13 -48 -22 -73 -9 -25 -17
-63 -17 -84 -1 -22 4 -41 11 -43 6 -2 29 12 51 31 23 21 43 51 51 77 12 38 11
44 -13 80 -15 21 -33 39 -41 39z"/>
<path d="M1250 785 c-6 3 -12 0 -14 -7 -2 -7 -7 -24 -9 -36 -3 -13 -3 -30 0
-38 3 -8 11 -14 19 -14 10 0 14 13 14 44 0 25 -5 48 -10 51z"/>
<path d="M108 760 c-10 0 -22 -11 -28 -24 -5 -14 -9 -60 -8 -103 0 -43 -5 -91
-12 -108 -7 -16 -14 -70 -15 -120 -1 -49 -7 -108 -13 -131 -10 -35 -9 -50 7
-100 11 -32 17 -63 13 -68 -3 -6 -5 -26 -3 -45 1 -19 7 -41 13 -48 6 -7 31
-13 59 -13 44 0 51 3 59 26 6 15 19 38 30 52 14 17 20 40 20 73 0 26 7 60 17
77 15 27 16 32 2 53 -15 21 -14 25 3 39 13 11 20 34 25 85 3 38 12 80 20 95 7
14 13 35 13 46 0 12 -7 27 -16 34 -12 11 -17 11 -28 -1 -7 -8 -19 -30 -25 -49
-7 -19 -23 -77 -37 -128 -13 -51 -37 -122 -53 -157 -17 -36 -35 -65 -40 -65
-6 0 -12 9 -12 20 -1 11 -3 44 -5 73 -3 28 -5 67 -5 86 0 20 9 47 21 63 16 22
22 47 25 114 3 52 10 95 19 108 8 13 12 34 9 52 -3 16 -12 37 -21 47 -8 9 -24
17 -34 17z"/>
<path d="M330 740 c-6 0 -20 -19 -30 -42 -11 -24 -20 -48 -20 -55 0 -6 4 -14
10 -18 5 -3 18 3 30 15 13 13 20 33 20 60 0 22 -5 40 -10 40z"/>
<path d="M1016 520 c-6 0 -23 -8 -39 -18 -27 -19 -27 -19 10 -31 25 -8 55 -32
85 -67 26 -29 50 -66 53 -81 3 -16 11 -39 18 -53 9 -18 22 -26 48 -28 23 -2
40 2 48 12 9 11 11 31 6 66 -6 43 -15 58 -64 110 -43 46 -68 64 -105 75 -27 8
-54 15 -60 15z"/>
</g>
</svg>
