<?xml version="1.0" standalone="no"?>
<!DOCTYPE svg PUBLIC "-//W3C//DTD SVG 20010904//EN"
 "http://www.w3.org/TR/2001/REC-SVG-20010904/DTD/svg10.dtd">
<svg version="1.0" xmlns="http://www.w3.org/2000/svg"
 width="128.000000pt" height="128.000000pt" viewBox="0 0 128.000000 128.000000"
 preserveAspectRatio="xMidYMid meet">
<metadata>
Created by potrace 1.16, written by Peter Selinger 2001-2019
</metadata>
<g transform="translate(0.000000,128.000000) scale(0.100000,-0.100000)"
fill="#000000" stroke="none">
<path d="M248 1280 c-27 0 -49 -3 -49 -7 -1 -5 -3 -27 -4 -50 -2 -24 1 -45 6
-49 5 -3 9 -14 9 -24 0 -11 11 -35 24 -54 13 -19 35 -49 49 -66 14 -16 30 -30
36 -30 5 0 13 10 17 22 4 13 21 39 38 60 17 20 48 45 69 54 27 12 41 14 48 7
6 -6 8 -20 5 -31 -4 -11 -38 -44 -76 -73 -37 -30 -79 -71 -92 -91 -13 -21 -27
-36 -33 -34 -5 2 -18 -1 -27 -6 -10 -5 -25 -23 -35 -41 -9 -18 -15 -50 -14
-72 1 -22 7 -43 13 -46 6 -4 30 1 54 11 40 18 43 18 58 1 9 -10 16 -23 16 -29
0 -7 -8 -12 -17 -12 -9 0 -31 -15 -48 -32 -18 -18 -51 -48 -74 -67 -22 -18
-41 -41 -41 -50 0 -9 -4 -21 -9 -27 -5 -5 -12 -30 -15 -57 -6 -37 -4 -48 8
-53 8 -3 35 3 60 14 24 11 55 32 67 46 12 14 28 26 35 26 7 0 16 -5 19 -10 4
-6 -4 -23 -17 -37 -13 -15 -46 -50 -74 -77 -28 -28 -74 -72 -102 -97 -29 -25
-52 -50 -52 -55 0 -6 14 -8 31 -6 24 4 30 1 27 -9 -3 -8 -16 -14 -29 -14 -13
0 -27 -4 -31 -9 -3 -5 -6 -33 -6 -63 0 -38 4 -53 14 -53 8 0 28 12 44 28 16
15 45 40 65 56 22 18 35 37 35 52 0 17 7 25 24 30 14 3 30 3 37 -1 7 -5 9 -23
6 -48 -3 -24 0 -54 7 -72 7 -17 27 -42 44 -56 20 -18 47 -28 83 -32 38 -5 57
-3 67 7 7 7 17 39 21 70 5 38 4 59 -3 64 -6 3 -21 5 -33 3 -13 -1 -23 2 -23 6
0 5 16 17 35 26 22 10 37 26 41 42 4 15 4 46 1 70 -4 24 -3 47 2 49 5 3 12 48
16 98 4 51 11 102 15 113 4 11 2 28 -4 39 -8 14 -8 20 2 23 6 3 12 13 12 23 0
11 4 29 9 42 5 13 16 46 25 75 10 28 16 60 14 71 -2 10 3 26 10 35 8 9 16 34
19 57 5 34 9 40 30 40 13 0 43 13 66 29 23 16 62 56 86 89 24 34 48 59 54 55
5 -3 7 -26 4 -52 -3 -25 -11 -77 -17 -116 -8 -52 -8 -75 1 -92 10 -19 8 -25
-17 -47 -16 -14 -37 -26 -46 -26 -9 0 -29 -6 -45 -14 -15 -8 -40 -19 -54 -26
-24 -11 -26 -16 -24 -68 1 -31 2 -74 3 -95 1 -25 8 -40 18 -44 11 -4 22 1 30
12 8 10 14 42 14 70 0 28 6 60 14 70 14 19 15 19 58 -4 23 -13 49 -28 56 -34
6 -5 12 -20 12 -33 0 -13 -4 -24 -8 -24 -5 0 -19 -19 -32 -43 -13 -23 -36 -60
-52 -81 -15 -21 -28 -49 -28 -61 0 -11 -5 -26 -12 -33 -7 -7 -20 -12 -31 -12
-10 0 -15 5 -12 10 4 6 4 24 0 40 -5 21 -13 30 -26 30 -11 0 -22 -7 -25 -15
-4 -8 -1 -21 5 -29 6 -7 8 -26 5 -42 -5 -25 -2 -30 25 -41 22 -8 31 -18 31
-33 0 -19 -4 -21 -29 -15 -23 5 -34 1 -55 -20 -15 -14 -24 -31 -21 -36 4 -5
14 -9 24 -9 10 0 25 -8 34 -18 10 -10 17 -26 17 -35 0 -10 -8 -17 -20 -17 -17
0 -19 -3 -10 -19 5 -11 19 -22 29 -26 15 -4 19 -14 17 -45 -2 -35 -7 -43 -45
-68 -42 -27 -42 -27 3 -30 29 -2 60 4 90 18 36 16 46 26 46 44 0 17 -8 27 -29
34 -23 8 -29 17 -33 46 -2 23 2 43 14 58 10 13 18 32 18 43 0 11 6 37 13 57 7
20 21 46 31 57 10 11 16 26 14 33 -3 7 15 42 39 77 24 35 55 85 68 111 13 26
31 50 39 53 8 3 17 3 20 0 3 -4 6 -25 6 -49 0 -32 -9 -55 -39 -100 -22 -33
-40 -68 -41 -79 -1 -11 -2 -29 -1 -40 0 -12 14 -29 31 -38 17 -10 30 -26 30
-36 0 -10 -11 -29 -24 -42 -13 -13 -53 -42 -89 -64 -59 -35 -66 -42 -61 -65 3
-14 8 -31 10 -39 3 -9 14 -11 39 -7 19 4 56 18 82 31 27 14 70 29 98 34 31 6
56 17 67 31 10 12 18 33 18 47 0 13 5 33 10 43 6 11 8 31 4 45 -3 13 -24 42
-45 64 -21 21 -39 43 -39 47 1 5 14 25 30 44 17 19 30 39 30 45 0 5 -9 16 -20
23 -15 9 -20 23 -20 57 0 32 -10 62 -36 110 -20 36 -40 65 -45 65 -6 0 -23 -7
-39 -15 -18 -9 -31 -11 -35 -5 -3 6 -3 31 1 58 3 26 12 58 19 72 7 14 24 50
38 80 15 31 25 69 23 88 -1 17 -3 41 -4 52 -1 11 -29 51 -62 90 -34 38 -69 70
-79 70 -10 0 -26 -10 -37 -21 -10 -12 -37 -33 -59 -48 -22 -14 -53 -31 -69
-38 -15 -7 -38 -13 -51 -13 -16 0 -32 15 -56 52 -19 28 -42 56 -51 62 -13 8
-25 6 -47 -7 -16 -9 -34 -17 -40 -17 -6 0 -36 -20 -67 -45 -30 -25 -63 -45
-73 -45 -10 0 -24 7 -31 15 -7 9 -13 42 -14 75 -1 60 -1 60 -48 60z m284 -170
c14 0 18 -5 15 -15 -4 -8 -2 -17 3 -20 5 -3 25 1 44 9 20 8 38 11 41 6 3 -5 1
-35 -5 -67 -6 -32 -12 -67 -13 -78 -1 -11 -5 -25 -9 -31 -4 -6 -12 -39 -19
-75 -6 -35 -14 -87 -18 -115 -4 -29 -12 -59 -19 -67 -7 -8 -27 -17 -44 -19
-17 -3 -46 0 -65 5 -18 6 -33 14 -33 19 0 5 6 21 14 36 8 15 25 34 39 41 13 7
34 31 46 53 11 22 21 43 21 48 0 4 -29 11 -65 15 -42 4 -65 11 -65 19 0 7 24
36 54 65 30 28 60 51 65 51 6 0 11 15 11 33 0 22 -7 36 -21 45 -16 11 -18 16
-9 28 7 8 21 14 32 14z m-198 -240 c7 -7 6 -14 -2 -22 -9 -9 -15 -9 -24 0 -10
10 -10 15 2 22 9 6 19 5 24 0z m186 -293 c8 -2 14 -8 13 -15 -2 -6 -8 -43 -14
-83 -10 -57 -10 -75 1 -92 11 -18 10 -23 -9 -38 -12 -10 -28 -34 -36 -53 -8
-20 -14 -39 -13 -43 1 -5 -1 -18 -6 -30 -4 -13 -13 -23 -21 -23 -7 0 -32 27
-54 61 -41 61 -41 61 3 132 24 40 51 87 60 105 9 17 23 32 31 32 8 0 15 8 15
18 0 10 3 22 7 26 4 4 14 5 23 3z"/>
<path d="M743 577 c-7 3 -16 -2 -19 -11 -3 -8 -4 -23 -2 -33 2 -10 10 -18 18
-18 10 0 15 10 15 29 0 16 -6 31 -12 33z"/>
</g>
</svg>
