<?xml version="1.0" standalone="no"?>
<!DOCTYPE svg PUBLIC "-//W3C//DTD SVG 20010904//EN"
 "http://www.w3.org/TR/2001/REC-SVG-20010904/DTD/svg10.dtd">
<svg version="1.0" xmlns="http://www.w3.org/2000/svg"
 width="56.000000pt" height="56.000000pt" viewBox="0 0 56.000000 56.000000"
 preserveAspectRatio="xMidYMid meet">
<metadata>
Created by potrace 1.16, written by Peter Selinger 2001-2019
</metadata>
<g transform="translate(0.000000,56.000000) scale(0.100000,-0.100000)"
fill="#000000" stroke="none">
<path d="M205 538 c-11 1 -30 -5 -42 -13 -18 -13 -23 -26 -23 -59 0 -31 -5
-46 -16 -50 -9 -3 -23 -6 -33 -6 -9 0 -22 -5 -29 -12 -9 -9 -8 -16 5 -30 9
-10 30 -18 48 -18 29 0 33 -4 37 -31 3 -17 3 -41 1 -53 -3 -15 -20 -30 -46
-43 -23 -11 -57 -24 -75 -27 -17 -4 -32 -13 -32 -20 0 -7 9 -21 20 -31 13 -12
27 -15 44 -11 20 5 30 0 52 -29 23 -30 32 -35 69 -35 37 0 47 5 82 43 22 24
48 55 58 70 9 15 14 34 10 45 -3 11 -18 25 -33 31 -15 5 -44 13 -64 17 -38 6
-38 6 -38 69 0 55 3 65 20 70 11 3 20 12 20 19 0 7 -3 16 -7 20 -5 4 -8 24 -8
44 0 29 -4 38 -20 40z m16 -308 c34 0 39 -3 39 -24 0 -13 -7 -30 -16 -37 -9
-7 -32 -19 -50 -25 -32 -11 -36 -10 -55 14 -19 25 -19 26 -2 33 10 4 25 14 32
23 8 10 29 16 52 16z"/>
<path d="M419 467 c-9 7 -19 10 -22 6 -4 -3 -7 -12 -7 -20 0 -7 10 -24 22 -38
12 -14 32 -25 44 -25 13 0 25 4 28 9 3 4 -7 19 -22 32 -15 13 -35 30 -43 36z"/>
<path d="M517 388 c-8 7 -18 6 -31 -3 -11 -8 -16 -21 -13 -30 4 -8 13 -15 22
-15 12 0 15 -12 15 -54 0 -30 -4 -57 -9 -61 -6 -3 -24 -26 -40 -51 -17 -25
-31 -48 -31 -52 0 -4 -16 -27 -35 -51 -19 -24 -35 -50 -35 -57 0 -8 6 -14 14
-14 8 0 42 30 76 67 35 38 69 83 76 101 8 17 19 32 24 32 6 0 10 22 10 49 0
30 -5 51 -12 54 -10 4 -10 6 0 6 6 1 12 5 12 10 0 5 -13 14 -30 21 -16 7 -30
17 -30 22 0 6 7 8 15 4 8 -3 15 -2 15 3 0 5 -6 13 -13 19z"/>
</g>
</svg>
