<?xml version="1.0" standalone="no"?>
<!DOCTYPE svg PUBLIC "-//W3C//DTD SVG 20010904//EN"
 "http://www.w3.org/TR/2001/REC-SVG-20010904/DTD/svg10.dtd">
<svg version="1.0" xmlns="http://www.w3.org/2000/svg"
 width="56.000000pt" height="56.000000pt" viewBox="0 0 56.000000 56.000000"
 preserveAspectRatio="xMidYMid meet">
<metadata>
Created by potrace 1.16, written by Peter Selinger 2001-2019
</metadata>
<g transform="translate(0.000000,56.000000) scale(0.100000,-0.100000)"
fill="#000000" stroke="none">
<path d="M134 460 c-12 0 -15 -6 -11 -23 4 -12 2 -29 -3 -36 -7 -13 -15 -12
-51 2 -23 9 -45 15 -47 12 -3 -3 3 -23 13 -44 10 -22 27 -49 39 -59 11 -11 30
-22 41 -24 13 -2 20 -11 20 -27 0 -13 -7 -27 -15 -31 -8 -5 -34 -14 -58 -21
-33 -10 -42 -17 -39 -30 3 -10 -1 -20 -9 -23 -8 -3 -14 -12 -14 -20 0 -7 6
-16 14 -19 7 -3 18 -1 24 5 8 8 22 5 49 -7 21 -10 61 -21 90 -23 41 -3 58 0
81 17 20 14 32 33 36 57 6 29 3 42 -19 70 -25 33 -30 35 -65 29 -34 -6 -39 -4
-45 16 -6 18 1 31 39 66 25 25 46 49 46 54 0 5 -22 20 -50 34 -27 14 -57 25
-66 25z m81 -230 c15 0 25 -6 25 -15 0 -8 -12 -26 -27 -40 -18 -16 -39 -25
-60 -25 -18 0 -33 5 -33 10 0 6 11 15 24 20 14 5 30 18 36 30 6 12 21 20 35
20z"/>
<path d="M354 383 c-16 4 -23 4 -16 1 6 -3 12 -12 12 -20 0 -8 6 -14 14 -14 7
0 47 -33 87 -73 41 -41 82 -77 92 -80 14 -5 17 0 17 34 0 30 -6 46 -22 60 -13
11 -53 35 -89 53 -37 18 -80 36 -95 39z"/>
</g>
</svg>
