<?xml version="1.0" standalone="no"?>
<!DOCTYPE svg PUBLIC "-//W3C//DTD SVG 20010904//EN"
 "http://www.w3.org/TR/2001/REC-SVG-20010904/DTD/svg10.dtd">
<svg version="1.0" xmlns="http://www.w3.org/2000/svg"
 width="56.000000pt" height="56.000000pt" viewBox="0 0 56.000000 56.000000"
 preserveAspectRatio="xMidYMid meet">
<metadata>
Created by potrace 1.16, written by Peter Selinger 2001-2019
</metadata>
<g transform="translate(0.000000,56.000000) scale(0.100000,-0.100000)"
fill="#000000" stroke="none">
<path d="M134 540 c-14 0 -27 -6 -30 -14 -3 -7 6 -30 20 -51 14 -21 26 -43 26
-49 0 -6 -29 -20 -65 -30 -36 -10 -68 -23 -71 -28 -3 -5 2 -16 12 -24 11 -8
36 -13 59 -11 34 2 40 -1 43 -20 2 -15 -15 -40 -61 -86 -50 -50 -62 -68 -55
-81 5 -9 14 -16 20 -16 6 0 20 8 30 17 12 11 22 13 29 6 6 -6 6 -19 -1 -37 -5
-15 -8 -32 -4 -37 3 -5 14 -9 24 -9 10 0 22 4 25 10 3 5 17 10 31 10 14 0 47
11 74 25 27 14 54 33 59 43 5 10 9 39 9 65 0 43 -3 50 -31 67 -20 12 -40 17
-59 13 -15 -3 -28 -2 -28 2 0 4 10 25 22 47 14 24 36 45 55 53 21 9 33 21 33
33 0 10 -8 26 -17 35 -16 13 -21 14 -43 2 -14 -8 -28 -14 -32 -15 -5 0 -8 6
-8 14 0 7 -9 25 -21 40 -12 15 -30 26 -45 26z m80 -293 c10 -1 24 -10 30 -19
8 -13 8 -23 0 -35 -6 -10 -30 -33 -53 -51 -24 -17 -47 -32 -52 -32 -5 0 -14
12 -20 27 -5 15 -8 38 -4 50 3 13 12 23 19 23 8 0 24 9 37 20 13 11 33 19 43
17z"/>
<path d="M410 379 c-14 -1 -40 -6 -58 -12 -18 -5 -31 -15 -29 -21 2 -6 15 -13
28 -17 13 -3 40 -12 59 -21 19 -8 43 -18 52 -21 9 -3 21 -14 27 -25 8 -15 5
-26 -12 -49 -12 -16 -38 -43 -57 -59 -19 -17 -65 -52 -102 -79 -38 -27 -68
-55 -68 -62 0 -8 11 -13 28 -13 15 0 36 10 48 23 12 12 56 39 98 60 42 21 76
44 76 52 0 8 6 15 13 15 8 0 21 8 30 18 10 10 17 31 17 45 0 15 -4 27 -8 27
-5 0 -14 23 -21 51 -12 45 -18 53 -55 70 -22 10 -52 18 -66 18z"/>
</g>
</svg>
