<?xml version="1.0" standalone="no"?>
<!DOCTYPE svg PUBLIC "-//W3C//DTD SVG 20010904//EN"
 "http://www.w3.org/TR/2001/REC-SVG-20010904/DTD/svg10.dtd">
<svg version="1.0" xmlns="http://www.w3.org/2000/svg"
 width="56.000000pt" height="56.000000pt" viewBox="0 0 56.000000 56.000000"
 preserveAspectRatio="xMidYMid meet">
<metadata>
Created by potrace 1.16, written by Peter Selinger 2001-2019
</metadata>
<g transform="translate(0.000000,56.000000) scale(0.100000,-0.100000)"
fill="#000000" stroke="none">
<path d="M209 540 c-15 0 -31 -6 -37 -12 -5 -7 -12 -24 -14 -38 -2 -19 -10
-26 -31 -28 -16 -2 -46 4 -68 12 -22 9 -44 16 -49 16 -6 0 -10 -6 -10 -12 0
-7 14 -34 30 -61 29 -46 31 -47 69 -41 31 5 43 2 60 -15 12 -12 21 -29 21 -38
0 -10 -14 -26 -31 -35 -17 -10 -39 -18 -49 -18 -10 0 -20 -10 -23 -21 -4 -13
-11 -20 -20 -16 -8 3 -18 2 -24 -1 -6 -4 -13 -32 -17 -64 -6 -49 -5 -57 11
-61 10 -3 45 -4 78 -2 33 1 85 -2 115 -7 37 -6 64 -6 83 1 17 7 27 18 27 31 0
13 13 28 35 41 31 19 34 24 33 66 0 36 -5 47 -24 55 -13 6 -24 20 -26 32 -2
11 -12 22 -23 25 -12 2 -27 -7 -41 -24 -12 -15 -27 -24 -33 -21 -6 4 -10 26
-7 52 3 35 11 53 36 79 21 21 30 39 26 50 -5 13 -15 15 -56 9 -35 -5 -50 -3
-50 5 0 6 14 14 31 18 22 4 27 8 17 14 -7 5 -25 9 -39 9z m98 -272 c12 1 25
-3 28 -8 4 -6 -6 -30 -22 -54 -16 -23 -34 -41 -41 -38 -7 2 -21 -3 -30 -11 -9
-8 -38 -17 -64 -20 -27 -4 -50 -2 -53 3 -3 6 17 34 45 64 37 39 61 56 83 59
18 2 42 5 54 5z"/>
<path d="M476 380 c-3 0 -6 -7 -6 -16 0 -8 11 -32 25 -52 14 -20 25 -44 25
-52 0 -8 -18 -38 -41 -65 -22 -27 -53 -57 -67 -66 -15 -9 -54 -42 -87 -73 -60
-56 -60 -56 -22 -56 27 0 45 7 63 25 14 14 39 32 56 41 18 9 49 34 69 55 21
22 41 48 44 59 4 11 11 20 16 20 5 0 9 26 9 58 0 56 -2 60 -39 90 -22 18 -42
32 -45 32z"/>
</g>
</svg>
