<?xml version="1.0" standalone="no"?>
<!DOCTYPE svg PUBLIC "-//W3C//DTD SVG 20010904//EN"
 "http://www.w3.org/TR/2001/REC-SVG-20010904/DTD/svg10.dtd">
<svg version="1.0" xmlns="http://www.w3.org/2000/svg"
 width="56.000000pt" height="56.000000pt" viewBox="0 0 56.000000 56.000000"
 preserveAspectRatio="xMidYMid meet">
<metadata>
Created by potrace 1.16, written by Peter Selinger 2001-2019
</metadata>
<g transform="translate(0.000000,56.000000) scale(0.100000,-0.100000)"
fill="#000000" stroke="none">
<path d="M186 560 c-8 0 -17 -7 -20 -16 -4 -9 -4 -19 -2 -22 3 -2 12 -2 21 1
8 4 15 13 15 22 0 8 -6 15 -14 15z"/>
<path d="M482 539 c-4 0 -19 -6 -33 -12 -15 -7 -62 -46 -105 -88 -44 -42 -101
-106 -129 -142 -27 -37 -56 -67 -62 -67 -10 0 -13 23 -13 83 1 56 5 88 15 101
8 11 15 28 15 38 0 10 -10 28 -21 39 -22 22 -22 22 -40 -2 -10 -13 -19 -31
-19 -40 0 -9 -7 -22 -15 -29 -11 -9 -22 -9 -46 -1 -27 9 -30 8 -25 -5 3 -9 6
-17 6 -19 0 -3 17 -9 38 -14 30 -8 40 -18 50 -44 7 -18 12 -49 12 -68 0 -19
-5 -40 -12 -47 -7 -7 -22 -12 -35 -12 -15 0 -28 -10 -39 -31 -11 -23 -13 -34
-5 -42 9 -9 17 -8 33 2 20 13 24 11 48 -17 24 -29 27 -30 98 -27 39 2 72 1 72
-3 0 -4 -13 -23 -30 -42 -16 -19 -29 -38 -30 -42 0 -5 6 -8 14 -8 7 0 44 41
82 92 38 51 76 104 84 118 8 15 27 42 43 62 15 19 27 40 27 45 0 6 6 13 14 16
7 3 26 31 42 61 15 31 32 56 36 56 4 0 8 17 8 39 0 30 -4 40 -19 44 -11 2 -24
0 -29 -5 -6 -6 -12 -6 -16 1 -4 6 -10 11 -14 10z m-3 -39 c3 0 12 -4 20 -9 12
-8 9 -19 -16 -68 -16 -32 -41 -77 -54 -100 -13 -24 -29 -43 -35 -43 -7 0 -14
9 -17 20 -3 12 -14 20 -25 20 -11 0 -27 3 -36 6 -9 3 -16 12 -16 18 0 7 26 34
57 62 31 27 70 59 87 72 16 12 32 22 35 22z m-173 -211 c12 1 27 -6 34 -14 7
-8 10 -25 7 -37 -4 -13 -23 -40 -44 -60 -21 -20 -50 -40 -65 -43 -27 -7 -28
-6 -28 31 0 22 3 48 6 59 3 11 20 30 37 42 18 11 42 22 53 22z m-136 -95 c6
-6 7 -25 3 -45 -7 -34 -7 -34 -15 -4 -4 17 -6 36 -3 44 4 9 9 11 15 5z"/>
</g>
</svg>
