<?xml version="1.0" standalone="no"?>
<!DOCTYPE svg PUBLIC "-//W3C//DTD SVG 20010904//EN"
 "http://www.w3.org/TR/2001/REC-SVG-20010904/DTD/svg10.dtd">
<svg version="1.0" xmlns="http://www.w3.org/2000/svg"
 width="56.000000pt" height="56.000000pt" viewBox="0 0 56.000000 56.000000"
 preserveAspectRatio="xMidYMid meet">
<metadata>
Created by potrace 1.16, written by Peter Selinger 2001-2019
</metadata>
<g transform="translate(0.000000,56.000000) scale(0.100000,-0.100000)"
fill="#000000" stroke="none">
<path d="M142 460 c-11 0 -13 -9 -9 -40 4 -35 2 -40 -14 -40 -10 0 -19 -7 -19
-15 0 -8 6 -15 14 -15 7 0 18 -6 23 -12 6 -7 13 -32 16 -55 5 -39 3 -43 -16
-43 -12 0 -43 -16 -70 -35 -26 -20 -47 -43 -47 -53 0 -12 13 -22 44 -31 25 -7
54 -10 65 -6 11 3 30 18 41 32 11 14 20 35 20 47 0 12 5 27 11 33 6 6 19 8 30
6 11 -3 19 -14 19 -28 0 -12 -9 -30 -20 -40 -11 -10 -20 -22 -20 -27 0 -4 8
-8 18 -8 9 0 24 6 32 13 9 7 23 22 32 35 9 13 14 31 11 40 -2 10 -19 27 -37
40 -18 12 -42 22 -54 22 -12 0 -22 4 -22 9 0 5 -3 16 -6 25 -4 10 -1 16 8 16
8 0 22 8 31 18 10 10 17 26 17 35 0 9 -6 17 -14 17 -8 0 -18 -4 -21 -10 -3 -5
-10 -10 -16 -10 -5 0 -9 7 -9 15 0 8 -5 26 -12 40 -6 14 -18 25 -26 25z m8
-256 c3 -3 -6 -14 -19 -25 -13 -10 -29 -19 -37 -19 -8 0 -14 2 -14 5 0 3 14
14 32 25 18 10 35 17 38 14z"/>
<path d="M446 365 c-14 8 -28 10 -31 5 -3 -4 14 -32 37 -62 23 -29 49 -58 57
-65 9 -6 19 -9 23 -7 5 3 8 12 8 21 0 8 -15 33 -34 55 -19 22 -46 46 -60 53z"/>
</g>
</svg>
