<?xml version="1.0" standalone="no"?>
<!DOCTYPE svg PUBLIC "-//W3C//DTD SVG 20010904//EN"
 "http://www.w3.org/TR/2001/REC-SVG-20010904/DTD/svg10.dtd">
<svg version="1.0" xmlns="http://www.w3.org/2000/svg"
 width="56.000000pt" height="56.000000pt" viewBox="0 0 56.000000 56.000000"
 preserveAspectRatio="xMidYMid meet">
<metadata>
Created by potrace 1.16, written by Peter Selinger 2001-2019
</metadata>
<g transform="translate(0.000000,56.000000) scale(0.100000,-0.100000)"
fill="#000000" stroke="none">
<path d="M136 480 c-17 0 -37 -4 -44 -9 -11 -6 -11 -10 0 -18 7 -6 23 -14 36
-18 20 -6 22 -11 16 -38 -3 -18 -9 -36 -11 -40 -3 -5 -20 -6 -38 -3 -18 4 -44
2 -59 -4 -14 -5 -26 -17 -26 -25 0 -9 6 -18 14 -21 8 -3 33 0 56 6 31 8 45 8
56 -1 8 -7 14 -30 14 -58 0 -46 -1 -47 -52 -78 -29 -17 -63 -34 -75 -38 -13
-3 -23 -12 -23 -20 0 -7 7 -21 16 -29 8 -9 22 -16 30 -16 8 0 32 11 54 25 21
14 44 34 50 45 6 11 28 29 49 40 21 10 41 26 44 35 4 8 1 16 -6 16 -7 1 -19 2
-27 3 -10 1 -17 16 -20 49 -3 26 -1 52 4 57 6 6 20 10 32 10 13 0 25 4 28 9 3
5 -2 15 -10 22 -9 8 -24 14 -33 14 -10 0 -17 11 -19 30 -2 17 -8 36 -14 43 -6
6 -25 12 -42 12z"/>
<path d="M375 340 c-13 0 -26 -4 -29 -9 -3 -5 20 -22 52 -38 40 -21 58 -36 60
-52 3 -17 -13 -39 -62 -89 -36 -36 -66 -69 -66 -74 0 -4 9 -8 20 -8 11 0 30 6
43 13 12 6 50 38 84 70 34 31 66 57 72 57 6 0 11 10 11 23 0 14 -12 30 -33 45
-18 12 -38 22 -45 22 -6 0 -27 9 -47 20 -20 11 -46 20 -60 20z"/>
<path d="M282 230 c-7 0 -12 -6 -13 -12 -1 -7 0 -25 0 -39 2 -18 -5 -28 -24
-37 -14 -7 -23 -17 -20 -22 3 -6 20 -10 36 -10 16 0 41 7 54 16 14 9 25 26 25
38 0 13 -10 32 -23 44 -13 12 -29 22 -35 22z"/>
</g>
</svg>
