<?xml version="1.0" standalone="no"?>
<!DOCTYPE svg PUBLIC "-//W3C//DTD SVG 20010904//EN"
 "http://www.w3.org/TR/2001/REC-SVG-20010904/DTD/svg10.dtd">
<svg version="1.0" xmlns="http://www.w3.org/2000/svg"
 width="56.000000pt" height="56.000000pt" viewBox="0 0 56.000000 56.000000"
 preserveAspectRatio="xMidYMid meet">
<metadata>
Created by potrace 1.16, written by Peter Selinger 2001-2019
</metadata>
<g transform="translate(0.000000,56.000000) scale(0.100000,-0.100000)"
fill="#000000" stroke="none">
<path d="M174 468 c-11 6 -26 7 -33 3 -7 -5 -15 -26 -18 -49 -5 -38 -8 -41
-45 -47 -40 -7 -40 -7 -17 -31 15 -16 32 -24 49 -22 23 3 25 0 22 -32 -2 -24
-12 -42 -35 -62 -18 -15 -40 -27 -49 -28 -9 0 -24 -7 -32 -16 -9 -8 -16 -29
-16 -46 0 -27 3 -30 24 -24 16 4 42 -3 74 -19 28 -14 61 -25 74 -25 14 0 42
15 64 35 21 19 49 44 61 55 20 17 21 22 11 45 -7 15 -24 33 -39 41 -21 10 -35
11 -54 4 -15 -6 -30 -10 -35 -10 -5 0 -9 24 -9 53 0 29 3 58 7 64 4 6 16 12
26 14 10 2 24 12 30 21 9 15 6 22 -15 42 -14 13 -34 28 -45 34z m49 -259 c4 1
10 -6 13 -14 4 -8 -1 -26 -10 -40 -14 -21 -24 -25 -66 -25 -27 0 -51 4 -54 9
-3 4 3 16 12 25 10 8 36 22 58 30 21 8 43 15 47 15z"/>
<path d="M420 440 c-6 0 -10 -6 -10 -12 0 -7 11 -26 25 -43 14 -16 32 -46 41
-65 13 -31 13 -36 -1 -46 -9 -7 -17 -25 -18 -40 -1 -21 3 -29 15 -29 9 0 20
-4 24 -8 4 -4 13 -7 21 -7 9 0 11 8 7 24 -4 19 -1 26 15 31 15 4 21 15 21 36
0 24 -14 44 -65 95 -36 35 -70 64 -75 64z"/>
</g>
</svg>
