<?xml version="1.0" standalone="no"?>
<!DOCTYPE svg PUBLIC "-//W3C//DTD SVG 20010904//EN"
 "http://www.w3.org/TR/2001/REC-SVG-20010904/DTD/svg10.dtd">
<svg version="1.0" xmlns="http://www.w3.org/2000/svg"
 width="56.000000pt" height="56.000000pt" viewBox="0 0 56.000000 56.000000"
 preserveAspectRatio="xMidYMid meet">
<metadata>
Created by potrace 1.16, written by Peter Selinger 2001-2019
</metadata>
<g transform="translate(0.000000,56.000000) scale(0.100000,-0.100000)"
fill="#000000" stroke="none">
<path d="M117 487 c-33 2 -57 0 -57 -6 0 -5 15 -21 32 -35 23 -18 30 -28 22
-36 -7 -7 -23 -6 -53 5 -24 8 -47 15 -52 15 -5 0 -9 -11 -9 -25 0 -14 9 -34
20 -45 11 -11 26 -20 33 -21 6 -1 23 -2 37 -2 22 -2 25 -6 24 -35 -2 -22 -14
-45 -38 -72 -19 -22 -38 -51 -42 -65 -3 -14 -2 -31 4 -38 6 -6 12 -23 14 -37
3 -24 7 -25 77 -28 60 -2 75 0 86 14 6 9 17 14 22 11 6 -4 25 -2 42 4 20 7 33
20 37 35 3 13 3 35 0 49 -3 13 -19 36 -34 50 -15 14 -37 25 -49 25 -12 0 -25
-5 -28 -10 -3 -6 -15 -10 -27 -10 -17 0 -19 5 -14 33 3 17 9 52 13 76 7 40 11
45 38 48 17 2 34 9 40 14 6 6 6 16 -1 27 -6 9 -21 17 -32 17 -12 0 -28 9 -35
19 -10 13 -30 20 -70 23z m107 -297 c19 -19 19 -20 1 -40 -14 -15 -29 -20 -54
-18 -28 2 -36 7 -36 23 0 13 12 26 35 37 33 16 36 16 54 -2z"/>
<path d="M390 410 c-30 0 -38 -3 -34 -14 3 -8 24 -26 47 -41 23 -14 54 -44 69
-66 15 -21 35 -39 44 -39 8 0 22 6 30 14 8 8 14 23 14 33 0 10 -17 29 -38 43
-20 13 -50 35 -65 47 -19 15 -42 23 -67 23z"/>
</g>
</svg>
