<?xml version="1.0" standalone="no"?>
<!DOCTYPE svg PUBLIC "-//W3C//DTD SVG 20010904//EN"
 "http://www.w3.org/TR/2001/REC-SVG-20010904/DTD/svg10.dtd">
<svg version="1.0" xmlns="http://www.w3.org/2000/svg"
 width="56.000000pt" height="56.000000pt" viewBox="0 0 56.000000 56.000000"
 preserveAspectRatio="xMidYMid meet">
<metadata>
Created by potrace 1.16, written by Peter Selinger 2001-2019
</metadata>
<g transform="translate(0.000000,56.000000) scale(0.100000,-0.100000)"
fill="#000000" stroke="none">
<path d="M120 474 c-27 4 -43 0 -73 -21 -37 -25 -37 -27 -33 -80 2 -30 7 -57
11 -61 4 -4 32 -7 63 -7 56 0 56 0 63 -40 4 -22 4 -45 2 -52 -3 -7 -11 -13
-18 -13 -6 0 -20 -9 -31 -21 -10 -12 -36 -30 -57 -40 -27 -14 -37 -26 -37 -44
0 -13 5 -27 11 -31 6 -3 24 6 40 22 28 27 31 28 76 16 32 -9 49 -10 57 -2 5 5
20 10 32 10 13 0 25 -4 29 -10 3 -5 15 -6 28 -1 12 5 22 13 21 20 -1 6 -2 25
-2 41 -2 22 -9 33 -24 39 -13 5 -35 22 -50 37 -20 22 -25 36 -21 57 4 18 15
32 29 37 14 6 24 18 24 30 0 13 -7 20 -19 20 -13 0 -24 13 -35 39 -8 22 -23
42 -33 45 -10 3 -34 7 -53 10z m-12 -47 c12 0 22 -3 22 -7 0 -4 3 -21 6 -37 6
-28 4 -31 -26 -35 -20 -3 -37 1 -46 9 -8 8 -14 25 -14 38 0 14 7 25 18 27 9 3
27 5 40 5z m97 -227 c6 0 19 -6 29 -13 10 -8 16 -22 14 -33 -2 -12 -10 -18
-22 -16 -9 2 -23 -1 -29 -6 -7 -5 -21 -4 -35 3 -24 13 -24 13 5 39 15 14 33
26 38 26z"/>
<path d="M446 380 c-18 0 -36 -3 -39 -6 -3 -4 -2 -15 4 -25 5 -11 18 -19 29
-19 10 0 28 -12 39 -26 12 -15 21 -30 21 -35 0 -4 -16 -13 -35 -20 -21 -8 -35
-19 -33 -28 2 -7 23 -20 47 -27 33 -10 48 -10 62 -1 13 8 19 23 19 49 0 21 -7
46 -15 56 -9 9 -27 32 -41 50 -20 24 -34 32 -58 32z"/>
</g>
</svg>
