<?xml version="1.0" standalone="no"?>
<!DOCTYPE svg PUBLIC "-//W3C//DTD SVG 20010904//EN"
 "http://www.w3.org/TR/2001/REC-SVG-20010904/DTD/svg10.dtd">
<svg version="1.0" xmlns="http://www.w3.org/2000/svg"
 width="56.000000pt" height="56.000000pt" viewBox="0 0 56.000000 56.000000"
 preserveAspectRatio="xMidYMid meet">
<metadata>
Created by potrace 1.16, written by Peter Selinger 2001-2019
</metadata>
<g transform="translate(0.000000,56.000000) scale(0.100000,-0.100000)"
fill="#000000" stroke="none">
<path d="M163 560 c-7 0 -13 -4 -13 -9 0 -4 5 -22 11 -40 6 -18 9 -35 5 -38
-3 -3 -18 2 -33 12 -15 10 -34 25 -41 32 -7 7 -17 13 -22 13 -5 0 -7 -15 -4
-32 3 -18 14 -44 24 -58 11 -16 29 -26 48 -28 24 -2 32 -8 32 -23 0 -11 -10
-39 -21 -62 -12 -23 -35 -58 -50 -77 -16 -19 -29 -40 -29 -46 0 -6 7 -17 15
-24 11 -9 19 -10 27 -2 7 7 19 5 42 -9 17 -10 43 -19 58 -19 17 0 35 11 52 31
14 17 29 42 32 55 4 17 0 31 -12 45 -11 13 -26 19 -39 16 -11 -3 -31 -9 -44
-13 -21 -6 -23 -5 -16 17 3 13 14 43 22 67 12 32 21 42 38 42 12 0 29 8 38 18
10 10 14 22 10 25 -3 4 -19 7 -34 7 -20 0 -31 7 -41 28 -8 15 -21 37 -29 50
-7 12 -19 22 -26 22z m80 -301 c4 0 7 -8 7 -19 0 -11 -9 -29 -20 -40 -16 -16
-24 -18 -50 -9 -16 6 -30 14 -30 19 0 4 10 14 23 23 13 8 32 17 42 20 11 2 23
5 28 6z"/>
<path d="M390 385 c-25 2 -55 1 -68 -3 -13 -4 -24 -11 -25 -17 -1 -5 19 -11
45 -13 33 -2 54 -10 73 -28 24 -22 27 -30 21 -65 -4 -22 -15 -59 -26 -82 -11
-23 -47 -71 -79 -107 -51 -56 -56 -65 -39 -68 13 -2 34 9 55 30 19 18 57 65
84 105 45 66 49 77 49 130 0 45 -5 64 -23 86 -16 20 -33 28 -67 32z"/>
</g>
</svg>
