<?xml version="1.0" standalone="no"?>
<!DOCTYPE svg PUBLIC "-//W3C//DTD SVG 20010904//EN"
 "http://www.w3.org/TR/2001/REC-SVG-20010904/DTD/svg10.dtd">
<svg version="1.0" xmlns="http://www.w3.org/2000/svg"
 width="56.000000pt" height="56.000000pt" viewBox="0 0 56.000000 56.000000"
 preserveAspectRatio="xMidYMid meet">
<metadata>
Created by potrace 1.16, written by Peter Selinger 2001-2019
</metadata>
<g transform="translate(0.000000,56.000000) scale(0.100000,-0.100000)"
fill="#000000" stroke="none">
<path d="M126 530 c-9 0 -19 -6 -22 -14 -3 -8 -1 -31 5 -53 9 -32 8 -40 -7
-51 -9 -7 -36 -18 -59 -25 -24 -6 -43 -14 -43 -17 0 -3 7 -14 16 -25 11 -14
27 -20 57 -20 39 0 42 -2 48 -33 5 -23 2 -37 -8 -47 -8 -8 -25 -15 -38 -15
-13 0 -36 -5 -50 -12 -21 -9 -25 -18 -25 -55 0 -43 0 -43 40 -27 39 16 40 16
71 -10 17 -14 42 -29 57 -33 17 -4 38 0 61 13 19 10 43 35 53 55 15 30 17 41
7 62 -6 13 -22 30 -34 35 -13 6 -40 8 -60 5 -36 -6 -36 -6 -29 38 4 29 15 51
31 64 25 20 25 20 4 39 -14 13 -21 31 -21 56 0 23 -7 43 -18 53 -10 10 -26 17
-36 17z m82 -321 c6 1 12 -7 12 -16 0 -9 -7 -25 -17 -35 -9 -10 -28 -18 -43
-18 -15 0 -33 6 -39 14 -8 10 -8 16 1 23 7 6 27 15 43 21 17 6 36 11 43 11z"/>
<path d="M379 460 c-5 0 -9 -6 -9 -13 0 -7 25 -42 55 -77 30 -36 60 -75 67
-88 10 -19 9 -28 -5 -51 -9 -15 -52 -63 -97 -107 -44 -43 -80 -85 -80 -91 0
-7 9 -13 20 -13 11 0 37 16 59 35 21 19 68 65 105 101 58 59 66 71 66 104 0
21 -3 40 -7 42 -5 2 -25 27 -45 57 -21 31 -55 64 -79 77 -22 13 -45 24 -50 24z"/>
</g>
</svg>
