<?xml version="1.0" standalone="no"?>
<!DOCTYPE svg PUBLIC "-//W3C//DTD SVG 20010904//EN"
 "http://www.w3.org/TR/2001/REC-SVG-20010904/DTD/svg10.dtd">
<svg version="1.0" xmlns="http://www.w3.org/2000/svg"
 width="56.000000pt" height="56.000000pt" viewBox="0 0 56.000000 56.000000"
 preserveAspectRatio="xMidYMid meet">
<metadata>
Created by potrace 1.16, written by Peter Selinger 2001-2019
</metadata>
<g transform="translate(0.000000,56.000000) scale(0.100000,-0.100000)"
fill="#000000" stroke="none">
<path d="M203 526 c-10 6 -29 8 -42 4 -14 -3 -26 -11 -29 -18 -2 -6 8 -16 22
-22 20 -7 26 -17 26 -38 0 -16 -9 -37 -19 -46 -11 -10 -38 -20 -60 -23 -23 -3
-44 -10 -47 -14 -3 -5 -14 -9 -24 -9 -10 0 -22 -5 -25 -11 -4 -6 1 -17 11 -25
12 -9 32 -13 54 -9 19 3 46 8 59 12 22 6 23 4 18 -23 -3 -16 -13 -51 -22 -77
-10 -26 -37 -69 -60 -95 -23 -26 -45 -62 -48 -80 -5 -22 -3 -34 6 -37 6 -3 30
1 52 9 21 8 41 20 43 27 3 8 25 33 50 57 25 23 54 42 64 42 12 0 18 -7 18 -21
0 -11 -13 -34 -29 -50 -18 -17 -40 -29 -56 -29 -14 0 -24 -4 -21 -9 3 -5 25
-9 49 -9 27 -1 55 6 76 19 18 11 39 35 47 54 8 20 12 46 8 60 -3 14 -14 30
-24 35 -10 6 -31 10 -45 10 -14 0 -41 -11 -59 -25 -18 -14 -38 -25 -44 -25 -7
0 -12 3 -12 8 0 4 14 27 30 51 18 27 30 57 30 77 0 18 4 43 9 56 5 13 19 33
30 45 12 12 21 26 21 31 0 4 -9 26 -19 48 -11 21 -28 44 -38 50z"/>
<path d="M519 274 c-19 7 -40 11 -46 9 -7 -3 -13 -10 -13 -17 0 -7 11 -23 25
-36 14 -13 30 -41 35 -62 6 -22 17 -38 25 -38 12 0 15 15 15 65 0 36 -2 65 -4
65 -2 0 -19 6 -37 14z"/>
</g>
</svg>
