<?xml version="1.0" standalone="no"?>
<!DOCTYPE svg PUBLIC "-//W3C//DTD SVG 20010904//EN"
 "http://www.w3.org/TR/2001/REC-SVG-20010904/DTD/svg10.dtd">
<svg version="1.0" xmlns="http://www.w3.org/2000/svg"
 width="56.000000pt" height="56.000000pt" viewBox="0 0 56.000000 56.000000"
 preserveAspectRatio="xMidYMid meet">
<metadata>
Created by potrace 1.16, written by Peter Selinger 2001-2019
</metadata>
<g transform="translate(0.000000,56.000000) scale(0.100000,-0.100000)"
fill="#000000" stroke="none">
<path d="M176 479 c-13 11 -17 10 -22 -3 -4 -9 -4 -34 -1 -55 2 -21 2 -43 -2
-50 -4 -6 -36 -17 -72 -24 -35 -7 -63 -17 -62 -22 1 -6 13 -12 25 -13 13 -2
27 -8 33 -13 5 -5 20 -9 33 -9 13 0 32 5 42 10 15 8 21 6 30 -11 7 -11 9 -27
6 -34 -2 -7 -34 -27 -70 -45 -40 -19 -66 -37 -66 -47 0 -12 8 -15 39 -10 34 4
40 2 50 -19 8 -19 18 -24 45 -24 19 0 46 5 58 11 13 5 38 31 56 57 18 26 32
53 32 59 0 7 -10 18 -22 24 -13 7 -36 13 -53 13 -26 1 -30 5 -33 31 -2 23 4
37 28 60 16 16 30 35 30 43 0 11 -8 13 -30 9 -25 -6 -32 -2 -44 22 -8 15 -22
33 -30 40z m92 -250 c1 1 2 -3 2 -8 0 -6 -10 -22 -23 -37 -21 -24 -26 -25 -46
-14 -18 9 -20 15 -12 23 7 7 26 17 44 24 18 6 33 12 35 12z"/>
<path d="M490 380 c-4 0 -9 -2 -12 -5 -3 -3 -3 -26 0 -50 4 -37 0 -52 -22 -85
-14 -22 -51 -65 -81 -96 -30 -32 -55 -64 -55 -72 0 -10 7 -12 26 -8 14 4 38
21 53 39 16 18 54 59 85 91 31 33 56 66 56 73 0 7 5 13 10 13 6 0 10 7 10 15
0 9 -14 31 -32 50 -17 19 -34 35 -38 35z"/>
</g>
</svg>
