<?xml version="1.0" standalone="no"?>
<!DOCTYPE svg PUBLIC "-//W3C//DTD SVG 20010904//EN"
 "http://www.w3.org/TR/2001/REC-SVG-20010904/DTD/svg10.dtd">
<svg version="1.0" xmlns="http://www.w3.org/2000/svg"
 width="56.000000pt" height="56.000000pt" viewBox="0 0 56.000000 56.000000"
 preserveAspectRatio="xMidYMid meet">
<metadata>
Created by potrace 1.16, written by Peter Selinger 2001-2019
</metadata>
<g transform="translate(0.000000,56.000000) scale(0.100000,-0.100000)"
fill="#000000" stroke="none">
<path d="M163 520 c-8 0 -13 -12 -13 -29 0 -17 -6 -31 -16 -35 -9 -3 -26 -6
-38 -6 -12 0 -30 -6 -40 -13 -15 -11 -13 -16 28 -47 26 -18 46 -39 45 -44 0
-6 -4 -19 -8 -29 -3 -10 -16 -23 -27 -30 -11 -7 -37 -23 -57 -35 -32 -21 -37
-29 -37 -63 0 -38 1 -39 38 -39 20 0 66 -5 101 -11 65 -10 65 -10 97 23 31 31
32 35 21 68 -9 25 -23 40 -49 53 -21 9 -38 22 -38 27 0 6 7 26 14 45 11 24 21
35 36 35 12 0 30 5 41 10 10 6 19 16 19 23 0 7 -14 21 -31 31 -17 10 -41 29
-52 42 -11 13 -27 24 -34 24z m11 -273 c20 -1 32 -8 34 -19 2 -11 -9 -25 -30
-38 -18 -11 -46 -20 -63 -20 -16 0 -41 9 -55 20 -14 11 -20 20 -15 21 6 0 22
2 37 3 16 1 35 9 44 18 9 9 30 15 48 15z"/>
<path d="M468 380 c-10 0 -18 -6 -18 -13 0 -7 5 -18 12 -25 7 -7 22 -12 35
-12 13 0 23 5 23 11 0 7 -8 18 -17 25 -10 7 -26 14 -35 14z"/>
<path d="M543 320 c-10 0 -29 -17 -43 -37 -14 -20 -37 -48 -51 -62 -15 -14
-70 -60 -122 -101 -74 -57 -94 -77 -85 -87 6 -7 16 -13 23 -13 8 0 27 11 43
25 17 14 33 25 37 25 4 0 32 21 61 46 30 25 54 52 54 61 0 9 6 13 15 9 8 -3
20 1 27 8 8 7 23 18 36 25 18 9 22 20 22 56 0 36 -3 45 -17 45z"/>
</g>
</svg>
