<?xml version="1.0" standalone="no"?>
<!DOCTYPE svg PUBLIC "-//W3C//DTD SVG 20010904//EN"
 "http://www.w3.org/TR/2001/REC-SVG-20010904/DTD/svg10.dtd">
<svg version="1.0" xmlns="http://www.w3.org/2000/svg"
 width="56.000000pt" height="56.000000pt" viewBox="0 0 56.000000 56.000000"
 preserveAspectRatio="xMidYMid meet">
<metadata>
Created by potrace 1.16, written by Peter Selinger 2001-2019
</metadata>
<g transform="translate(0.000000,56.000000) scale(0.100000,-0.100000)"
fill="#000000" stroke="none">
<path d="M178 506 c-23 5 -28 3 -28 -12 0 -10 5 -33 12 -51 10 -29 10 -36 -2
-43 -8 -6 -39 -10 -68 -10 -38 0 -54 -4 -59 -15 -3 -9 2 -22 13 -31 13 -9 37
-13 74 -12 55 3 55 3 58 -34 3 -30 -2 -43 -23 -62 -15 -14 -55 -35 -91 -48
-35 -12 -63 -27 -61 -33 2 -5 23 -20 47 -33 40 -20 54 -22 121 -17 64 6 77 4
82 -9 3 -8 2 -18 -3 -21 -6 -4 -10 -13 -10 -21 0 -9 10 -14 30 -14 16 0 37 8
47 18 10 10 32 28 50 40 17 12 44 22 60 22 15 0 45 3 66 6 22 4 37 12 37 21 0
7 7 16 15 19 8 4 15 15 15 25 0 10 -4 19 -9 19 -5 0 -12 12 -16 27 -3 15 -15
39 -25 53 -10 14 -35 35 -54 45 -32 18 -37 18 -51 4 -14 -14 -11 -20 30 -58
25 -23 45 -48 45 -55 0 -7 -11 -23 -24 -35 -13 -13 -43 -27 -67 -32 -27 -6
-46 -6 -52 0 -6 6 -13 27 -16 48 -6 35 -10 39 -51 49 -27 6 -46 17 -48 26 -2
9 1 31 6 50 7 29 13 34 48 38 31 4 39 9 39 25 0 16 -8 21 -42 23 -37 3 -43 6
-43 26 0 12 -6 30 -12 39 -7 9 -25 19 -40 23z m69 -306 c13 0 23 -4 23 -9 0
-5 -14 -21 -31 -35 -17 -14 -36 -26 -43 -26 -7 0 -16 3 -19 7 -4 4 5 19 20 35
15 15 37 28 50 28z"/>
</g>
</svg>
