<?xml version="1.0" standalone="no"?>
<!DOCTYPE svg PUBLIC "-//W3C//DTD SVG 20010904//EN"
 "http://www.w3.org/TR/2001/REC-SVG-20010904/DTD/svg10.dtd">
<svg version="1.0" xmlns="http://www.w3.org/2000/svg"
 width="56.000000pt" height="56.000000pt" viewBox="0 0 56.000000 56.000000"
 preserveAspectRatio="xMidYMid meet">
<metadata>
Created by potrace 1.16, written by Peter Selinger 2001-2019
</metadata>
<g transform="translate(0.000000,56.000000) scale(0.100000,-0.100000)"
fill="#000000" stroke="none">
<path d="M354 458 c-19 -1 -37 -5 -40 -9 -2 -4 0 -10 6 -14 5 -3 14 -4 19 -1
4 3 17 -1 27 -9 10 -8 25 -15 32 -15 7 0 30 -11 52 -25 22 -14 40 -29 40 -34
0 -4 -24 -33 -52 -63 -29 -31 -63 -61 -75 -67 -12 -6 -24 -11 -27 -11 -3 0
-12 15 -20 34 -8 18 -21 42 -31 53 -11 13 -25 18 -41 15 -13 -2 -27 -8 -30
-13 -3 -5 -10 -9 -15 -9 -5 0 -14 12 -20 27 -9 24 -7 31 15 50 14 12 26 26 26
31 0 6 -11 17 -25 26 -13 9 -36 16 -50 16 -22 0 -25 -3 -19 -24 5 -20 0 -27
-27 -40 -18 -9 -40 -16 -51 -16 -11 0 -18 -7 -18 -19 0 -11 9 -23 20 -26 13
-4 31 0 47 10 16 11 29 13 35 7 5 -5 8 -29 6 -53 -3 -41 -5 -44 -54 -63 -28
-12 -59 -27 -68 -35 -15 -13 -15 -15 0 -32 10 -11 22 -19 29 -19 7 0 20 -9 30
-20 10 -11 24 -20 32 -20 7 0 13 4 13 9 0 6 -4 13 -10 16 -5 3 -10 12 -10 18
0 7 20 33 43 60 23 26 50 47 59 47 10 0 22 9 28 20 6 11 15 20 20 20 6 0 10
-15 10 -34 0 -26 -10 -45 -45 -84 -25 -28 -56 -53 -68 -56 -12 -3 6 -3 40 -1
35 3 65 0 68 -5 4 -6 11 -8 16 -5 5 4 9 16 9 28 0 16 13 28 45 45 25 12 54 22
64 22 11 0 22 4 26 9 3 5 31 23 62 40 31 17 63 31 70 31 8 0 13 12 13 30 0 17
-4 30 -8 30 -5 0 -16 16 -25 35 -9 19 -23 35 -31 35 -7 0 -19 7 -26 16 -8 8
-29 22 -47 29 -19 8 -50 14 -69 13z"/>
</g>
</svg>
