<?xml version="1.0" standalone="no"?>
<!DOCTYPE svg PUBLIC "-//W3C//DTD SVG 20010904//EN"
 "http://www.w3.org/TR/2001/REC-SVG-20010904/DTD/svg10.dtd">
<svg version="1.0" xmlns="http://www.w3.org/2000/svg"
 width="56.000000pt" height="56.000000pt" viewBox="0 0 56.000000 56.000000"
 preserveAspectRatio="xMidYMid meet">
<metadata>
Created by potrace 1.16, written by Peter Selinger 2001-2019
</metadata>
<g transform="translate(0.000000,56.000000) scale(0.100000,-0.100000)"
fill="#000000" stroke="none">
<path d="M88 490 c-4 0 -1 -16 7 -36 8 -20 15 -39 15 -43 0 -3 -12 -12 -27
-18 -15 -7 -40 -13 -55 -13 -18 0 -28 -5 -28 -15 0 -10 16 -16 50 -21 28 -4
52 -10 55 -14 2 -4 8 -26 14 -49 9 -40 8 -42 -23 -58 -17 -9 -38 -17 -46 -17
-8 -1 -21 -19 -30 -43 -14 -41 -13 -43 10 -68 13 -14 31 -25 41 -25 9 0 39 18
65 40 31 26 54 38 64 34 8 -4 32 -9 53 -12 20 -2 37 -6 37 -9 0 -3 -12 -16
-26 -29 -14 -13 -22 -29 -19 -34 3 -6 10 -10 15 -10 4 0 28 21 52 46 23 25 89
92 145 147 101 100 103 103 103 147 -1 40 -4 47 -36 68 -21 13 -51 22 -74 22
-21 0 -42 -4 -45 -10 -3 -5 -15 -10 -26 -10 -10 0 -19 -7 -19 -15 0 -12 13
-15 55 -15 45 0 56 -4 65 -21 9 -16 8 -30 -5 -61 -9 -22 -27 -56 -42 -74 -14
-19 -28 -34 -32 -34 -3 0 -13 13 -22 28 -12 21 -28 31 -69 40 -45 11 -55 10
-70 -3 -9 -8 -26 -15 -37 -15 -11 0 -26 6 -32 14 -6 7 -8 26 -5 44 4 18 13 37
20 43 8 6 14 19 14 29 0 9 -8 24 -18 32 -9 8 -32 20 -51 27 -19 6 -38 11 -43
11z m217 -222 c25 -22 25 -22 3 -46 -13 -14 -38 -31 -57 -39 -21 -9 -47 -12
-72 -8 -32 6 -37 9 -28 23 6 9 28 29 49 45 21 15 48 27 59 27 12 0 21 4 21 10
0 5 11 0 25 -12z"/>
<path d="M540 130 c-16 0 -18 -4 -11 -22 4 -12 13 -24 19 -26 7 -2 12 7 12 22
0 19 -5 26 -20 26z"/>
<path d="M489 100 c-3 0 -8 -3 -12 -6 -3 -3 -1 -15 6 -25 6 -10 20 -19 29 -19
10 0 18 5 18 11 0 7 -8 18 -17 25 -10 7 -21 14 -24 14z"/>
</g>
</svg>
