<?xml version="1.0" standalone="no"?>
<!DOCTYPE svg PUBLIC "-//W3C//DTD SVG 20010904//EN"
 "http://www.w3.org/TR/2001/REC-SVG-20010904/DTD/svg10.dtd">
<svg version="1.0" xmlns="http://www.w3.org/2000/svg"
 width="56.000000pt" height="56.000000pt" viewBox="0 0 56.000000 56.000000"
 preserveAspectRatio="xMidYMid meet">
<metadata>
Created by potrace 1.16, written by Peter Selinger 2001-2019
</metadata>
<g transform="translate(0.000000,56.000000) scale(0.100000,-0.100000)"
fill="#000000" stroke="none">
<path d="M105 500 c-8 0 -15 -7 -15 -15 0 -9 9 -33 20 -55 11 -22 20 -45 20
-53 0 -8 -11 -19 -25 -25 -14 -7 -41 -12 -60 -12 -19 0 -36 -4 -39 -9 -3 -4 3
-16 14 -26 14 -13 28 -16 54 -11 21 4 37 2 41 -4 4 -6 4 -22 1 -35 -3 -13 -16
-27 -29 -30 -12 -4 -32 -17 -44 -28 -13 -11 -23 -31 -23 -44 0 -13 5 -23 11
-23 6 0 31 18 56 40 25 22 61 42 80 46 19 4 39 2 44 -3 6 -6 2 -19 -12 -37
-12 -15 -37 -35 -56 -44 -20 -9 -36 -21 -37 -27 0 -5 22 -11 50 -13 46 -3 51
-5 47 -22 -5 -17 0 -20 34 -20 33 0 49 8 86 40 25 22 52 40 60 40 9 0 19 5 22
10 3 6 13 10 20 10 8 0 42 19 74 43 33 23 60 48 60 55 1 6 -5 12 -12 12 -7 0
-13 11 -12 27 0 20 -10 34 -43 57 -37 27 -53 31 -105 31 -34 0 -63 -4 -64 -10
-1 -5 20 -18 47 -27 27 -9 61 -25 74 -35 14 -10 26 -27 26 -39 0 -11 -11 -30
-25 -42 -14 -12 -27 -22 -29 -22 -2 0 -37 -20 -77 -44 -41 -25 -75 -43 -77
-41 -2 2 2 12 9 22 7 12 9 34 5 56 -4 19 -19 48 -34 64 -15 15 -36 33 -46 38
-17 10 -14 13 23 38 28 19 41 34 41 51 0 14 -9 27 -22 33 -13 6 -44 27 -71 47
-26 20 -54 36 -62 36z"/>
</g>
</svg>
