<?xml version="1.0" standalone="no"?>
<!DOCTYPE svg PUBLIC "-//W3C//DTD SVG 20010904//EN"
 "http://www.w3.org/TR/2001/REC-SVG-20010904/DTD/svg10.dtd">
<svg version="1.0" xmlns="http://www.w3.org/2000/svg"
 width="56.000000pt" height="56.000000pt" viewBox="0 0 56.000000 56.000000"
 preserveAspectRatio="xMidYMid meet">
<metadata>
Created by potrace 1.16, written by Peter Selinger 2001-2019
</metadata>
<g transform="translate(0.000000,56.000000) scale(0.100000,-0.100000)"
fill="#000000" stroke="none">
<path d="M101 450 c-16 8 -22 7 -29 -6 -5 -9 -7 -26 -4 -39 2 -13 19 -40 38
-60 19 -21 34 -41 34 -45 0 -5 2 -15 5 -23 4 -8 -9 -24 -34 -40 -22 -15 -49
-27 -59 -27 -10 0 -23 -5 -30 -12 -7 -7 -12 -29 -12 -50 0 -21 4 -38 8 -38 5
0 23 7 40 15 22 11 29 21 25 32 -5 13 -1 15 28 9 19 -4 49 -10 68 -13 33 -5
33 -5 25 28 -4 19 -9 59 -11 89 -2 30 -4 72 -4 92 0 29 -4 38 -22 44 -12 5
-28 7 -34 6 -7 -2 -13 4 -13 12 0 9 -9 20 -19 26z"/>
<path d="M426 440 c-11 0 -42 -16 -68 -35 -25 -18 -61 -52 -78 -74 -18 -22
-42 -42 -54 -44 -12 -3 -6 -5 15 -6 20 0 38 -4 42 -7 3 -3 -8 -31 -24 -61 -20
-36 -27 -59 -20 -66 6 -6 17 -4 32 7 13 9 33 16 45 16 13 0 32 12 43 26 12 15
21 34 21 43 0 9 -13 33 -30 53 -30 36 -30 36 17 67 25 17 53 31 60 31 8 0 23
-5 34 -10 10 -6 19 -21 19 -33 0 -12 -7 -31 -15 -41 -8 -11 -15 -27 -15 -36 0
-10 -11 -29 -25 -44 -14 -15 -36 -44 -50 -64 -14 -20 -25 -43 -25 -50 0 -9 12
-12 41 -10 42 3 42 3 95 103 29 55 57 105 63 112 6 7 11 19 11 28 0 9 -14 28
-32 43 -17 15 -42 32 -56 39 -13 7 -34 13 -46 13z"/>
</g>
</svg>
