<?xml version="1.0" standalone="no"?>
<!DOCTYPE svg PUBLIC "-//W3C//DTD SVG 20010904//EN"
 "http://www.w3.org/TR/2001/REC-SVG-20010904/DTD/svg10.dtd">
<svg version="1.0" xmlns="http://www.w3.org/2000/svg"
 width="56.000000pt" height="56.000000pt" viewBox="0 0 56.000000 56.000000"
 preserveAspectRatio="xMidYMid meet">
<metadata>
Created by potrace 1.16, written by Peter Selinger 2001-2019
</metadata>
<g transform="translate(0.000000,56.000000) scale(0.100000,-0.100000)"
fill="#000000" stroke="none">
<path d="M75 510 c-8 0 -15 -7 -15 -15 0 -9 9 -33 20 -55 13 -25 16 -41 9 -45
-5 -4 -21 0 -34 9 -13 9 -27 16 -30 16 -3 0 -5 -5 -5 -11 0 -6 19 -28 41 -49
42 -39 42 -39 61 -14 11 13 27 24 37 24 10 0 27 10 39 23 12 13 22 33 22 45 0
13 -6 25 -14 28 -8 3 -25 -1 -38 -10 -22 -15 -25 -14 -51 19 -15 19 -34 35
-42 35z"/>
<path d="M381 440 c-15 0 -32 -5 -39 -12 -7 -7 -12 -17 -12 -24 0 -6 15 -17
33 -24 17 -6 51 -20 75 -31 23 -10 42 -23 42 -28 0 -5 -12 -24 -27 -43 -15
-18 -34 -37 -42 -42 -8 -5 -61 -54 -118 -109 -56 -55 -100 -104 -97 -108 3 -5
12 -9 20 -9 8 0 27 12 42 27 16 16 47 43 69 61 23 17 46 32 52 32 5 0 17 12
26 28 9 15 33 35 53 44 20 10 52 26 69 35 22 12 33 26 33 41 0 12 -4 22 -9 22
-5 0 -15 16 -21 35 -6 19 -26 46 -44 60 -18 14 -40 25 -49 25 -9 0 -19 5 -22
10 -3 6 -19 10 -34 10z"/>
<path d="M168 300 c-7 0 -22 -7 -32 -15 -11 -8 -30 -15 -43 -15 -13 0 -23 -6
-23 -14 0 -7 6 -18 13 -24 9 -8 21 -7 41 3 16 8 37 15 47 15 11 0 19 -7 19
-15 0 -9 -7 -29 -15 -45 -9 -17 -22 -30 -30 -30 -8 0 -15 5 -15 10 0 6 -4 10
-9 10 -5 0 -7 -9 -4 -20 3 -11 19 -26 36 -35 16 -8 35 -15 42 -15 7 0 19 8 27
18 8 9 18 32 22 50 3 20 0 47 -8 67 -8 18 -23 38 -34 44 -12 6 -27 11 -34 11z"/>
<path d="M19 200 c-14 0 -19 -6 -17 -16 2 -9 11 -22 20 -28 9 -5 20 -7 23 -4
4 4 4 16 0 27 -4 12 -15 21 -26 21z"/>
</g>
</svg>
