<?xml version="1.0" standalone="no"?>
<!DOCTYPE svg PUBLIC "-//W3C//DTD SVG 20010904//EN"
 "http://www.w3.org/TR/2001/REC-SVG-20010904/DTD/svg10.dtd">
<svg version="1.0" xmlns="http://www.w3.org/2000/svg"
 width="56.000000pt" height="56.000000pt" viewBox="0 0 56.000000 56.000000"
 preserveAspectRatio="xMidYMid meet">
<metadata>
Created by potrace 1.16, written by Peter Selinger 2001-2019
</metadata>
<g transform="translate(0.000000,56.000000) scale(0.100000,-0.100000)"
fill="#000000" stroke="none">
<path d="M143 458 c-12 2 -24 -1 -27 -7 -4 -5 -2 -12 4 -16 5 -3 10 -23 10
-44 0 -35 -3 -39 -31 -45 -17 -3 -44 -6 -60 -6 -17 0 -29 -5 -29 -12 0 -7 12
-19 27 -25 15 -7 36 -13 48 -13 12 0 26 5 32 11 6 6 16 8 22 5 6 -4 11 -15 11
-25 0 -10 -9 -26 -20 -36 -11 -10 -30 -23 -43 -29 -15 -8 -23 -22 -25 -44 -2
-18 1 -32 8 -32 6 0 22 7 35 16 25 16 25 16 25 -25 0 -26 5 -41 13 -41 6 0 29
6 49 13 21 8 49 24 63 37 14 13 25 33 25 46 0 12 -11 29 -25 38 -13 9 -36 16
-50 16 -24 0 -25 3 -25 55 0 30 5 55 10 55 6 0 10 7 10 15 0 9 -9 15 -22 15
-18 0 -20 2 -8 10 11 7 12 15 4 37 -6 17 -18 29 -31 31z m78 -248 c4 0 9 -7
13 -15 3 -9 -4 -21 -19 -31 -14 -9 -32 -13 -41 -10 -9 3 -14 12 -12 19 3 6 15
18 29 24 13 7 27 13 30 13z"/>
<path d="M483 381 c-19 19 -23 20 -28 7 -4 -9 3 -32 14 -52 12 -20 21 -42 21
-49 0 -7 6 -22 14 -33 14 -19 15 -19 35 3 12 12 21 31 21 42 0 12 -8 30 -17
41 -10 11 -22 20 -27 20 -5 0 -20 10 -33 21z"/>
</g>
</svg>
