<?xml version="1.0" standalone="no"?>
<!DOCTYPE svg PUBLIC "-//W3C//DTD SVG 20010904//EN"
 "http://www.w3.org/TR/2001/REC-SVG-20010904/DTD/svg10.dtd">
<svg version="1.0" xmlns="http://www.w3.org/2000/svg"
 width="56.000000pt" height="56.000000pt" viewBox="0 0 56.000000 56.000000"
 preserveAspectRatio="xMidYMid meet">
<metadata>
Created by potrace 1.16, written by Peter Selinger 2001-2019
</metadata>
<g transform="translate(0.000000,56.000000) scale(0.100000,-0.100000)"
fill="#000000" stroke="none">
<path d="M118 520 c-4 0 -12 -8 -17 -18 -7 -14 -5 -23 10 -35 10 -9 19 -26 19
-37 0 -11 -6 -20 -14 -20 -8 0 -28 11 -44 25 -16 13 -32 22 -36 18 -3 -3 -6
-16 -6 -27 0 -12 9 -35 19 -53 15 -24 28 -32 53 -35 32 -3 33 -4 33 -48 0 -44
0 -44 -45 -52 -25 -4 -55 -10 -68 -13 -12 -3 -22 -12 -22 -19 0 -8 19 -22 43
-32 23 -9 49 -18 57 -18 12 -1 14 -12 12 -52 -3 -37 1 -54 12 -63 13 -11 19
-11 31 -1 8 7 15 20 15 30 0 11 16 23 45 35 25 9 59 28 75 42 23 19 30 33 30
61 0 21 -4 42 -8 48 -4 6 -16 15 -26 21 -11 6 -37 8 -58 6 -33 -5 -38 -3 -38
14 0 12 7 26 15 33 8 7 15 28 15 46 0 19 -4 34 -10 34 -5 0 -19 19 -31 42 -12
24 -29 48 -38 55 -9 7 -19 13 -23 13z m85 -320 c13 0 27 -3 30 -7 4 -3 0 -15
-10 -25 -9 -10 -22 -18 -29 -18 -7 0 -16 5 -19 10 -4 6 -4 17 -1 25 3 8 16 15
29 15z"/>
<path d="M402 376 c-15 3 -30 2 -35 -2 -4 -4 -7 -13 -7 -21 0 -7 10 -18 23
-23 12 -5 42 -23 67 -39 25 -17 53 -31 62 -31 9 0 23 3 32 6 9 3 16 16 16 29
0 15 -11 29 -33 43 -18 10 -48 22 -65 26 -18 3 -44 9 -60 12z"/>
</g>
</svg>
