<?xml version="1.0" standalone="no"?>
<!DOCTYPE svg PUBLIC "-//W3C//DTD SVG 20010904//EN"
 "http://www.w3.org/TR/2001/REC-SVG-20010904/DTD/svg10.dtd">
<svg version="1.0" xmlns="http://www.w3.org/2000/svg"
 width="56.000000pt" height="56.000000pt" viewBox="0 0 56.000000 56.000000"
 preserveAspectRatio="xMidYMid meet">
<metadata>
Created by potrace 1.16, written by Peter Selinger 2001-2019
</metadata>
<g transform="translate(0.000000,56.000000) scale(0.100000,-0.100000)"
fill="#000000" stroke="none">
<path d="M135 460 c-6 0 -15 -3 -18 -7 -4 -3 -7 -24 -7 -45 0 -38 0 -38 -57
-38 -55 0 -56 0 -38 -20 9 -10 36 -23 59 -28 36 -7 41 -11 39 -33 -2 -14 -24
-44 -58 -75 -30 -28 -55 -54 -55 -58 0 -3 12 -6 26 -6 14 0 55 16 90 36 36 20
68 34 71 31 3 -4 3 -16 -1 -29 -3 -13 -10 -30 -15 -38 -7 -10 -27 -15 -60 -15
-27 0 -52 -3 -56 -7 -4 -3 8 -14 25 -23 20 -11 42 -14 59 -10 14 4 41 23 60
43 18 20 37 48 42 61 7 18 5 29 -8 43 -9 11 -28 18 -43 17 -14 0 -32 -1 -40 0
-11 1 -11 4 -2 13 7 7 12 27 12 45 0 26 5 36 24 43 13 5 28 14 32 21 5 8 -6
25 -31 46 -21 18 -44 33 -50 33z"/>
<path d="M389 400 c-4 0 -11 -5 -14 -10 -4 -6 12 -27 35 -47 23 -21 58 -59 78
-85 20 -26 44 -48 54 -48 13 0 18 8 18 29 0 21 -14 41 -57 82 -32 30 -69 60
-82 66 -13 7 -27 13 -32 13z"/>
</g>
</svg>
