<?xml version="1.0" standalone="no"?>
<!DOCTYPE svg PUBLIC "-//W3C//DTD SVG 20010904//EN"
 "http://www.w3.org/TR/2001/REC-SVG-20010904/DTD/svg10.dtd">
<svg version="1.0" xmlns="http://www.w3.org/2000/svg"
 width="56.000000pt" height="56.000000pt" viewBox="0 0 56.000000 56.000000"
 preserveAspectRatio="xMidYMid meet">
<metadata>
Created by potrace 1.16, written by Peter Selinger 2001-2019
</metadata>
<g transform="translate(0.000000,56.000000) scale(0.100000,-0.100000)"
fill="#000000" stroke="none">
<path d="M133 480 c-8 0 -16 -7 -20 -16 -3 -9 -1 -31 4 -49 8 -23 7 -37 0 -44
-6 -6 -27 -11 -47 -11 -20 0 -40 -3 -43 -6 -3 -4 -2 -16 4 -26 8 -15 18 -19
37 -15 15 3 35 9 45 12 14 6 17 1 17 -33 0 -39 -3 -43 -56 -74 -31 -18 -62
-41 -68 -50 -8 -13 -7 -21 1 -29 8 -8 22 -4 52 17 23 15 43 25 44 23 1 -2 10
-21 20 -41 16 -36 19 -38 66 -38 32 0 55 6 66 16 8 9 22 29 31 46 9 18 13 40
9 59 -4 16 -12 32 -18 36 -7 4 -32 10 -57 13 -45 5 -45 5 -45 44 0 36 4 42 40
60 25 13 40 28 40 40 0 13 -13 22 -45 33 -25 8 -49 19 -54 24 -6 5 -16 9 -23
9z m80 -271 c9 1 17 -3 17 -7 0 -5 -8 -16 -17 -25 -10 -8 -25 -16 -33 -17 -8
-1 -21 -2 -27 -1 -7 0 -13 7 -13 15 0 8 12 19 28 24 15 6 35 11 45 11z"/>
<path d="M449 400 c-4 0 -10 -4 -13 -8 -3 -5 8 -22 24 -37 18 -18 30 -39 30
-55 0 -14 -13 -47 -29 -72 -16 -25 -52 -68 -81 -95 -30 -29 -50 -55 -46 -62 4
-6 11 -11 16 -11 5 0 47 37 92 83 46 46 91 93 101 105 9 12 17 36 17 52 0 16
-8 39 -17 51 -10 11 -33 27 -52 35 -18 8 -37 14 -42 14z"/>
</g>
</svg>
