<?xml version="1.0" standalone="no"?>
<!DOCTYPE svg PUBLIC "-//W3C//DTD SVG 20010904//EN"
 "http://www.w3.org/TR/2001/REC-SVG-20010904/DTD/svg10.dtd">
<svg version="1.0" xmlns="http://www.w3.org/2000/svg"
 width="56.000000pt" height="56.000000pt" viewBox="0 0 56.000000 56.000000"
 preserveAspectRatio="xMidYMid meet">
<metadata>
Created by potrace 1.16, written by Peter Selinger 2001-2019
</metadata>
<g transform="translate(0.000000,56.000000) scale(0.100000,-0.100000)"
fill="#000000" stroke="none">
<path d="M392 492 c-8 8 -13 7 -18 -6 -4 -10 -2 -22 4 -28 8 -8 13 -7 18 6 4
10 2 22 -4 28z"/>
<path d="M166 480 c-13 0 -30 -8 -39 -18 -14 -15 -15 -23 -5 -49 9 -24 9 -35
0 -46 -7 -8 -35 -17 -62 -21 -27 -4 -52 -10 -54 -15 -3 -5 19 -21 49 -36 30
-14 59 -24 65 -20 6 3 13 -1 16 -10 4 -9 2 -27 -4 -39 -7 -15 -27 -29 -54 -37
-26 -9 -44 -21 -46 -31 -3 -14 3 -18 28 -18 20 0 33 -6 37 -17 4 -10 11 -21
17 -25 6 -4 39 -8 73 -8 56 0 63 2 87 31 15 17 26 43 26 59 0 19 -7 33 -19 40
-11 5 -36 10 -56 10 -22 0 -38 6 -41 15 -4 8 -4 25 0 38 3 13 17 29 31 37 14
7 25 19 25 25 0 7 -7 18 -15 25 -9 7 -13 20 -10 30 3 9 -2 31 -11 48 -10 22
-23 32 -38 32z m57 -290 c9 0 17 -3 17 -7 0 -5 -13 -23 -28 -41 -28 -34 -28
-34 -52 -14 -24 20 -24 20 10 41 19 11 43 21 53 21z"/>
<path d="M441 407 c-10 7 -21 9 -25 6 -3 -3 -6 -10 -6 -14 0 -5 13 -23 29 -41
15 -18 33 -42 39 -54 10 -18 5 -30 -32 -80 -24 -32 -62 -77 -85 -99 -22 -21
-41 -43 -41 -47 0 -4 15 -8 33 -8 26 0 42 10 83 53 28 28 64 73 80 99 16 27
32 48 37 48 4 0 7 7 7 15 0 8 -23 36 -51 62 -28 26 -59 53 -68 60z"/>
</g>
</svg>
