<?xml version="1.0" standalone="no"?>
<!DOCTYPE svg PUBLIC "-//W3C//DTD SVG 20010904//EN"
 "http://www.w3.org/TR/2001/REC-SVG-20010904/DTD/svg10.dtd">
<svg version="1.0" xmlns="http://www.w3.org/2000/svg"
 width="56.000000pt" height="56.000000pt" viewBox="0 0 56.000000 56.000000"
 preserveAspectRatio="xMidYMid meet">
<metadata>
Created by potrace 1.16, written by Peter Selinger 2001-2019
</metadata>
<g transform="translate(0.000000,56.000000) scale(0.100000,-0.100000)"
fill="#000000" stroke="none">
<path d="M156 490 c-3 0 -6 -10 -6 -23 0 -13 6 -29 13 -36 10 -10 5 -12 -23
-10 -19 1 -47 2 -62 1 -18 -1 -28 -8 -28 -17 0 -9 12 -18 30 -21 23 -5 30 -12
30 -29 0 -14 -17 -40 -42 -64 -22 -23 -45 -41 -50 -41 -4 0 -8 -8 -8 -19 0
-10 6 -23 13 -29 9 -8 27 -4 65 15 29 14 52 29 52 34 0 5 -7 9 -16 9 -14 0
-14 1 0 16 9 8 16 24 16 34 0 10 8 32 18 49 9 17 22 31 28 31 7 0 26 13 44 30
29 27 30 31 13 36 -10 3 -32 12 -50 20 -17 8 -34 14 -37 14z"/>
<path d="M323 440 c-13 0 -23 -3 -23 -7 0 -4 15 -20 33 -35 17 -15 38 -28 45
-28 6 0 12 -5 12 -11 0 -5 15 -16 34 -24 24 -10 38 -24 46 -49 6 -18 19 -41
29 -50 16 -15 22 -15 40 -4 12 7 21 23 21 35 0 13 -4 23 -9 23 -5 0 -13 10
-17 23 -3 12 -13 30 -22 39 -8 10 -30 20 -48 24 -19 3 -34 10 -34 15 0 5 -8 9
-17 9 -10 0 -29 9 -43 20 -14 11 -35 20 -47 20z"/>
<path d="M231 278 c-6 2 -13 -2 -15 -10 -3 -7 -10 -31 -15 -53 -6 -22 -11 -46
-11 -52 0 -7 9 -13 19 -13 10 0 29 8 41 18 21 17 22 20 7 62 -8 24 -20 46 -26
48z"/>
<path d="M74 180 c-7 0 -15 -4 -18 -9 -3 -4 3 -16 14 -26 11 -10 26 -15 36
-11 15 6 15 8 -1 26 -10 11 -24 20 -31 20z"/>
<path d="M418 109 c-13 0 -29 -3 -35 -6 -7 -2 -13 -13 -13 -24 0 -12 7 -19 19
-19 11 0 26 3 35 6 9 3 16 15 16 25 0 13 -7 19 -22 18z"/>
</g>
</svg>
