<?xml version="1.0" standalone="no"?>
<!DOCTYPE svg PUBLIC "-//W3C//DTD SVG 20010904//EN"
 "http://www.w3.org/TR/2001/REC-SVG-20010904/DTD/svg10.dtd">
<svg version="1.0" xmlns="http://www.w3.org/2000/svg"
 width="56.000000pt" height="56.000000pt" viewBox="0 0 56.000000 56.000000"
 preserveAspectRatio="xMidYMid meet">
<metadata>
Created by potrace 1.16, written by Peter Selinger 2001-2019
</metadata>
<g transform="translate(0.000000,56.000000) scale(0.100000,-0.100000)"
fill="#000000" stroke="none">
<path d="M110 540 c-5 0 -10 -17 -10 -38 0 -21 7 -47 15 -59 8 -12 12 -28 9
-37 -3 -9 -17 -16 -31 -16 -13 0 -33 5 -43 10 -11 6 -26 23 -34 38 -15 27 -15
27 -16 -11 0 -21 5 -48 11 -59 10 -18 17 -19 59 -14 49 7 49 7 43 -51 -2 -32
-6 -63 -8 -70 -2 -6 -16 -17 -32 -25 -15 -7 -36 -29 -45 -48 -9 -19 -17 -42
-18 -51 0 -8 18 -27 41 -42 40 -27 40 -27 57 3 9 16 22 30 29 30 6 0 14 -9 18
-19 3 -11 21 -31 41 -46 26 -20 41 -25 63 -20 20 4 46 30 93 93 36 48 80 102
97 119 17 18 31 40 31 48 0 8 5 15 10 15 6 0 19 15 30 32 11 18 17 41 14 51
-3 10 1 19 10 23 10 4 16 18 16 38 0 21 -7 36 -22 46 -13 8 -35 20 -50 27 -15
6 -30 8 -32 4 -3 -4 8 -18 24 -30 22 -15 30 -30 30 -51 0 -16 -9 -45 -20 -65
-11 -19 -29 -50 -39 -69 -11 -18 -25 -43 -32 -55 -8 -11 -19 -21 -26 -21 -6 0
-17 16 -23 36 -8 23 -21 39 -38 45 -15 6 -37 8 -49 6 -12 -2 -24 0 -25 5 -2 6
11 26 29 45 18 19 33 40 33 48 0 7 12 21 27 31 15 9 36 25 46 35 13 12 15 19
7 24 -7 4 -22 2 -33 -5 -12 -6 -38 -31 -57 -56 -19 -24 -43 -59 -52 -76 -10
-18 -30 -43 -45 -55 -16 -13 -34 -23 -40 -23 -8 0 -13 14 -13 35 0 22 -6 38
-17 45 -16 9 -15 10 4 5 18 -5 22 -3 17 9 -3 9 -1 16 4 16 6 0 23 15 37 34 16
20 23 40 19 50 -4 9 -28 28 -55 41 -27 14 -53 25 -59 25z m177 -271 c7 1 17
-8 23 -19 6 -11 18 -20 28 -20 16 -1 16 -1 -1 -11 -9 -5 -26 -27 -37 -47 -11
-20 -28 -46 -37 -57 -10 -11 -30 -21 -44 -22 -20 -2 -34 7 -58 37 -17 21 -31
43 -31 49 0 6 10 16 23 22 12 6 31 19 42 29 11 10 34 22 50 28 17 6 35 11 42
11z"/>
</g>
</svg>
