<?xml version="1.0" standalone="no"?>
<!DOCTYPE svg PUBLIC "-//W3C//DTD SVG 20010904//EN"
 "http://www.w3.org/TR/2001/REC-SVG-20010904/DTD/svg10.dtd">
<svg version="1.0" xmlns="http://www.w3.org/2000/svg"
 width="56.000000pt" height="56.000000pt" viewBox="0 0 56.000000 56.000000"
 preserveAspectRatio="xMidYMid meet">
<metadata>
Created by potrace 1.16, written by Peter Selinger 2001-2019
</metadata>
<g transform="translate(0.000000,56.000000) scale(0.100000,-0.100000)"
fill="#000000" stroke="none">
<path d="M156 560 c-8 0 -18 -15 -22 -32 -4 -18 -7 -59 -8 -90 -1 -31 -5 -60
-8 -64 -4 -3 -21 1 -39 10 -18 9 -36 16 -41 16 -5 0 -8 -10 -6 -22 2 -16 15
-27 48 -38 44 -15 45 -17 48 -61 3 -46 3 -46 -40 -52 -23 -3 -48 -13 -54 -22
-7 -9 -10 -24 -7 -32 3 -8 16 -19 29 -24 13 -4 32 -24 41 -44 10 -21 24 -35
35 -35 15 0 18 8 18 43 0 23 6 53 13 66 7 14 26 28 43 33 17 4 37 15 44 23 7
8 19 15 26 15 8 0 14 -8 14 -18 0 -10 -9 -36 -21 -57 -11 -22 -32 -68 -45
-103 -13 -34 -24 -65 -24 -67 0 -3 13 -5 29 -5 26 0 31 6 51 58 12 31 31 75
41 98 11 22 19 52 19 66 0 22 5 26 39 32 22 3 48 3 58 -1 10 -3 21 -11 25 -17
4 -6 -4 -25 -18 -43 -25 -33 -25 -33 20 -33 35 0 48 5 56 19 5 11 10 28 10 39
0 10 -11 31 -24 46 -22 26 -27 28 -95 24 -71 -3 -71 -3 -71 84 0 81 -2 89 -23
103 -16 10 -35 13 -55 9 -18 -4 -32 -11 -32 -15 0 -5 11 -14 24 -19 15 -5 26
-19 30 -37 3 -15 6 -53 8 -83 3 -55 3 -55 -33 -52 -23 2 -40 -2 -49 -12 -7 -9
-19 -16 -28 -16 -11 0 -13 8 -8 38 3 20 6 45 6 55 0 10 8 17 20 17 13 0 20 7
20 19 0 11 -8 26 -19 33 -13 9 -18 25 -18 53 1 22 -2 52 -6 68 -4 15 -14 27
-21 27z"/>
<path d="M476 110 c-6 0 -16 -4 -22 -8 -6 -4 -16 -17 -23 -29 -6 -12 -11 -26
-11 -32 0 -6 11 -18 25 -27 14 -9 32 -13 45 -9 12 4 26 18 31 32 8 21 6 30
-12 50 -13 12 -27 23 -33 23z"/>
</g>
</svg>
