<?xml version="1.0" standalone="no"?>
<!DOCTYPE svg PUBLIC "-//W3C//DTD SVG 20010904//EN"
 "http://www.w3.org/TR/2001/REC-SVG-20010904/DTD/svg10.dtd">
<svg version="1.0" xmlns="http://www.w3.org/2000/svg"
 width="56.000000pt" height="56.000000pt" viewBox="0 0 56.000000 56.000000"
 preserveAspectRatio="xMidYMid meet">
<metadata>
Created by potrace 1.16, written by Peter Selinger 2001-2019
</metadata>
<g transform="translate(0.000000,56.000000) scale(0.100000,-0.100000)"
fill="#000000" stroke="none">
<path d="M160 467 c-8 1 -25 -2 -38 -7 -22 -9 -22 -11 -7 -46 8 -20 15 -40 15
-45 0 -4 -28 -14 -62 -21 -35 -8 -63 -19 -62 -24 1 -5 12 -15 25 -23 21 -12
30 -11 69 7 25 11 61 25 80 31 19 6 41 20 47 30 9 15 9 21 0 29 -7 5 -21 12
-32 14 -13 2 -20 11 -20 28 0 14 -6 26 -15 27z"/>
<path d="M443 356 c-21 15 -23 15 -30 -2 -4 -10 -2 -19 5 -22 7 -2 12 -10 12
-18 0 -8 13 -23 30 -32 16 -9 30 -24 30 -33 0 -9 8 -23 18 -32 10 -10 26 -17
35 -17 13 0 17 9 17 38 0 33 -5 41 -47 70 -27 17 -58 39 -70 48z"/>
<path d="M139 310 c-5 0 -9 -16 -9 -35 0 -20 -6 -37 -12 -39 -7 -3 -26 -7 -41
-11 -16 -3 -40 -17 -53 -30 -13 -13 -24 -33 -24 -45 0 -16 6 -20 31 -20 17 0
42 -9 56 -20 16 -12 41 -20 64 -20 21 0 41 5 44 10 3 6 14 10 24 10 10 0 27
10 39 23 11 12 23 34 27 49 6 21 2 30 -19 43 -19 13 -37 16 -66 11 -37 -6 -40
-5 -40 18 0 13 -3 31 -6 40 -3 9 -10 16 -15 16z m44 -103 c15 0 27 -6 27 -12
0 -7 -8 -23 -18 -35 -16 -19 -24 -22 -55 -16 -20 4 -39 11 -42 15 -3 5 10 18
27 29 18 11 45 19 61 19z"/>
</g>
</svg>
