<?xml version="1.0" standalone="no"?>
<!DOCTYPE svg PUBLIC "-//W3C//DTD SVG 20010904//EN"
 "http://www.w3.org/TR/2001/REC-SVG-20010904/DTD/svg10.dtd">
<svg version="1.0" xmlns="http://www.w3.org/2000/svg"
 width="56.000000pt" height="56.000000pt" viewBox="0 0 56.000000 56.000000"
 preserveAspectRatio="xMidYMid meet">
<metadata>
Created by potrace 1.16, written by Peter Selinger 2001-2019
</metadata>
<g transform="translate(0.000000,56.000000) scale(0.100000,-0.100000)"
fill="#000000" stroke="none">
<path d="M175 540 c-8 0 -19 -9 -25 -20 -6 -11 -10 -30 -9 -43 1 -12 1 -30 1
-39 -2 -13 -11 -18 -36 -18 -19 0 -45 4 -59 9 -14 5 -30 6 -38 0 -12 -7 -12
-12 2 -36 12 -22 23 -28 50 -29 18 0 43 -1 53 -2 17 -2 18 -8 13 -58 -3 -30
-11 -62 -18 -70 -6 -8 -26 -14 -44 -14 -20 0 -39 -8 -51 -21 -19 -21 -18 -21
6 -40 14 -10 38 -28 53 -40 23 -18 34 -20 55 -13 20 7 30 20 36 47 7 26 15 37
25 35 9 -2 24 5 33 14 10 10 27 18 38 18 15 0 20 -7 20 -29 0 -16 -7 -46 -16
-67 -9 -22 -27 -53 -40 -70 -13 -17 -20 -34 -17 -38 4 -3 14 -6 24 -6 10 0 32
17 49 37 18 21 42 63 55 93 14 30 24 65 25 76 0 12 7 27 15 34 9 8 28 10 50 6
19 -4 35 -11 35 -16 0 -5 -9 -14 -20 -20 -11 -6 -20 -17 -20 -25 0 -11 13 -15
53 -15 28 0 60 7 70 14 9 7 17 18 17 24 0 5 -7 12 -15 16 -8 3 -15 14 -15 25
0 10 -10 22 -22 27 -13 4 -48 10 -78 13 -53 6 -55 7 -57 36 0 17 -2 49 -2 73
-1 37 -5 44 -28 53 -16 6 -40 13 -55 16 -23 4 -28 2 -28 -13 0 -11 11 -29 24
-41 19 -19 23 -31 21 -74 -1 -28 -9 -57 -16 -64 -8 -7 -35 -17 -62 -23 -26 -5
-50 -6 -52 -2 -3 5 0 31 6 59 8 39 17 54 37 63 15 7 28 21 30 30 2 9 -6 25
-17 35 -12 9 -21 26 -21 36 0 10 -5 27 -10 38 -6 10 -17 19 -25 19z"/>
</g>
</svg>
