<?xml version="1.0" standalone="no"?>
<!DOCTYPE svg PUBLIC "-//W3C//DTD SVG 20010904//EN"
 "http://www.w3.org/TR/2001/REC-SVG-20010904/DTD/svg10.dtd">
<svg version="1.0" xmlns="http://www.w3.org/2000/svg"
 width="56.000000pt" height="56.000000pt" viewBox="0 0 56.000000 56.000000"
 preserveAspectRatio="xMidYMid meet">
<metadata>
Created by potrace 1.16, written by Peter Selinger 2001-2019
</metadata>
<g transform="translate(0.000000,56.000000) scale(0.100000,-0.100000)"
fill="#000000" stroke="none">
<path d="M450 530 c-8 -1 -37 -9 -65 -19 -32 -11 -51 -24 -54 -36 -3 -16 2
-17 33 -11 20 3 51 9 70 12 34 6 35 5 42 -31 4 -22 2 -47 -6 -63 -6 -15 -41
-74 -77 -132 -36 -58 -75 -118 -87 -133 -12 -15 -33 -43 -48 -61 -15 -18 -25
-36 -21 -40 3 -3 14 -6 24 -6 9 0 33 21 53 48 20 26 58 74 86 107 28 33 65 78
84 100 18 22 38 57 45 78 7 20 17 37 22 37 5 0 9 19 9 43 0 39 -3 44 -48 75
-26 17 -54 32 -62 32z"/>
<path d="M91 510 c-6 0 -11 -4 -11 -9 0 -5 7 -16 15 -25 8 -8 15 -27 15 -43 0
-20 -10 -36 -36 -56 -34 -28 -36 -28 -55 -11 -18 16 -19 16 -19 -3 0 -11 7
-26 15 -33 9 -7 26 -9 46 -5 32 7 32 7 26 -24 -4 -18 -21 -52 -38 -77 -17 -25
-29 -54 -27 -67 2 -14 11 -23 25 -25 13 -2 32 -15 43 -29 16 -21 28 -25 70
-26 42 0 56 4 77 25 18 19 26 37 26 64 1 22 -5 53 -13 69 -9 17 -32 38 -53 49
-35 17 -38 21 -32 50 4 18 21 43 41 59 19 16 34 33 34 38 0 5 -14 9 -30 9 -18
0 -33 6 -36 15 -3 8 -21 24 -39 35 -18 11 -37 20 -44 20z m84 -293 c6 -2 11
-10 13 -18 1 -8 -7 -29 -18 -47 -13 -21 -27 -32 -38 -30 -9 2 -19 14 -20 28
-3 17 4 31 25 47 15 13 33 21 38 20z"/>
</g>
</svg>
