<?xml version="1.0" standalone="no"?>
<!DOCTYPE svg PUBLIC "-//W3C//DTD SVG 20010904//EN"
 "http://www.w3.org/TR/2001/REC-SVG-20010904/DTD/svg10.dtd">
<svg version="1.0" xmlns="http://www.w3.org/2000/svg"
 width="56.000000pt" height="56.000000pt" viewBox="0 0 56.000000 56.000000"
 preserveAspectRatio="xMidYMid meet">
<metadata>
Created by potrace 1.16, written by Peter Selinger 2001-2019
</metadata>
<g transform="translate(0.000000,56.000000) scale(0.100000,-0.100000)"
fill="#000000" stroke="none">
<path d="M117 520 c-3 0 -12 -12 -19 -27 -8 -17 -23 -29 -37 -31 -13 -2 -28 1
-34 7 -6 6 -15 11 -19 11 -4 0 -8 -9 -8 -20 0 -10 14 -35 30 -53 24 -28 30
-44 30 -80 0 -25 -4 -48 -9 -51 -4 -3 -18 -33 -31 -67 -16 -46 -19 -63 -10
-69 7 -4 32 3 57 16 24 13 47 24 52 24 4 0 15 -16 24 -35 9 -19 22 -35 28 -35
7 0 38 26 71 58 48 48 58 65 58 92 0 21 -8 43 -22 57 -18 20 -20 26 -9 45 7
13 31 37 54 55 23 17 56 35 72 39 17 4 35 11 41 16 8 5 18 3 28 -7 9 -9 16
-27 16 -40 0 -13 -22 -52 -48 -87 -27 -35 -83 -116 -125 -180 -42 -64 -77
-121 -77 -127 0 -5 5 -13 10 -16 6 -3 19 -4 29 0 11 3 31 28 45 55 14 27 26
55 26 61 0 6 22 42 49 78 28 37 77 93 110 125 53 50 61 62 61 94 -1 31 -7 42
-37 65 -28 21 -47 27 -85 27 -40 0 -57 -6 -91 -32 -23 -18 -75 -61 -116 -96
-48 -40 -82 -62 -95 -60 -12 2 -22 10 -24 19 -2 9 8 34 22 54 15 21 26 48 26
60 0 12 -8 29 -18 38 -10 10 -21 17 -25 17z m93 -250 c16 0 30 -7 34 -15 3 -9
-3 -24 -14 -35 -11 -11 -29 -20 -39 -20 -11 0 -23 9 -26 20 -4 12 -1 27 5 35
7 8 25 15 40 15z"/>
</g>
</svg>
