<?xml version="1.0" standalone="no"?>
<!DOCTYPE svg PUBLIC "-//W3C//DTD SVG 20010904//EN"
 "http://www.w3.org/TR/2001/REC-SVG-20010904/DTD/svg10.dtd">
<svg version="1.0" xmlns="http://www.w3.org/2000/svg"
 width="56.000000pt" height="56.000000pt" viewBox="0 0 56.000000 56.000000"
 preserveAspectRatio="xMidYMid meet">
<metadata>
Created by potrace 1.16, written by Peter Selinger 2001-2019
</metadata>
<g transform="translate(0.000000,56.000000) scale(0.100000,-0.100000)"
fill="#000000" stroke="none">
<path d="M169 486 c-3 2 -9 1 -13 -3 -3 -3 -6 -19 -6 -34 0 -15 -7 -29 -15
-32 -8 -4 -36 9 -64 28 -44 31 -51 32 -62 18 -12 -13 -9 -20 21 -45 19 -16 52
-38 73 -49 20 -11 37 -24 37 -30 0 -5 -6 -24 -14 -42 -8 -18 -37 -56 -65 -86
-31 -33 -51 -63 -51 -78 0 -14 6 -23 16 -23 9 0 42 22 73 48 31 26 68 56 84
65 25 16 28 17 53 0 26 -17 26 -17 -7 -44 -19 -16 -60 -38 -91 -50 -32 -12
-58 -23 -58 -25 0 -1 7 -10 16 -18 8 -9 27 -16 41 -16 14 0 37 8 51 18 15 10
45 26 67 34 29 12 42 24 51 49 7 19 13 43 13 55 1 11 -8 29 -19 39 -15 13 -35
19 -71 18 -41 -1 -49 2 -45 16 3 9 8 29 12 44 6 25 10 28 34 23 17 -3 33 0 39
8 8 10 -1 24 -41 60 -29 26 -55 49 -59 52z"/>
<path d="M411 440 c-12 0 -21 -7 -21 -15 0 -8 11 -22 24 -30 13 -9 36 -34 50
-55 14 -22 26 -44 26 -48 0 -5 -20 -17 -46 -27 -32 -12 -44 -22 -42 -34 2 -9
12 -15 23 -14 11 1 46 7 78 14 57 11 57 11 57 55 0 24 -4 44 -8 44 -5 0 -15
12 -23 26 -7 14 -32 39 -56 55 -23 16 -51 29 -62 29z"/>
<path d="M452 172 c-9 9 -13 7 -18 -6 -4 -9 -4 -20 0 -23 3 -4 12 -1 18 5 9 9
9 15 0 24z"/>
</g>
</svg>
