<?xml version="1.0" standalone="no"?>
<!DOCTYPE svg PUBLIC "-//W3C//DTD SVG 20010904//EN"
 "http://www.w3.org/TR/2001/REC-SVG-20010904/DTD/svg10.dtd">
<svg version="1.0" xmlns="http://www.w3.org/2000/svg"
 width="56.000000pt" height="56.000000pt" viewBox="0 0 56.000000 56.000000"
 preserveAspectRatio="xMidYMid meet">
<metadata>
Created by potrace 1.16, written by Peter Selinger 2001-2019
</metadata>
<g transform="translate(0.000000,56.000000) scale(0.100000,-0.100000)"
fill="#000000" stroke="none">
<path d="M121 500 c-17 0 -31 -5 -31 -11 0 -6 9 -13 19 -16 11 -3 22 -15 25
-26 3 -12 6 -32 6 -43 0 -12 -7 -25 -16 -28 -9 -3 -28 -6 -44 -6 -17 0 -33 8
-43 23 -14 19 -18 20 -26 7 -6 -8 -11 -18 -11 -22 0 -5 9 -17 19 -27 15 -15
28 -18 64 -14 43 5 46 4 52 -20 4 -14 5 -33 3 -43 -1 -10 -16 -22 -33 -27 -16
-5 -42 -8 -58 -8 -20 1 -30 -5 -39 -24 -8 -17 -8 -29 -1 -36 7 -7 18 -6 37 2
24 11 29 10 57 -17 31 -29 31 -29 54 0 12 16 27 42 31 59 8 25 17 32 59 43 28
7 53 9 58 5 4 -4 -11 -35 -33 -70 -22 -34 -40 -66 -40 -71 0 -6 -6 -10 -13
-10 -7 0 -23 -13 -35 -30 -12 -16 -22 -34 -22 -40 0 -5 10 -10 23 -10 13 0 30
6 39 12 9 7 31 40 48 73 18 33 40 69 49 80 10 11 28 41 39 68 22 47 22 47 65
41 23 -4 50 -14 59 -22 10 -8 18 -19 18 -23 0 -4 -14 -17 -30 -29 -24 -17 -34
-19 -45 -10 -7 6 -26 10 -42 8 -15 -2 -28 -7 -28 -12 0 -5 22 -15 49 -23 47
-14 50 -13 102 13 45 23 54 32 54 53 -1 18 -12 35 -38 54 -33 25 -42 27 -84
22 -48 -7 -48 -7 -42 24 5 23 2 37 -11 51 -10 11 -24 20 -32 20 -9 0 -12 -8
-9 -22 3 -13 0 -38 -7 -57 -10 -28 -20 -37 -62 -50 -27 -9 -60 -22 -73 -29
-19 -11 -23 -10 -28 2 -3 8 -3 20 1 26 4 6 1 17 -5 25 -10 13 -8 15 18 15 18
0 32 6 36 16 3 9 3 20 0 26 -3 5 -15 8 -25 5 -16 -4 -19 1 -19 31 0 21 -7 45
-14 55 -8 10 -26 17 -45 17z"/>
</g>
</svg>
