<?xml version="1.0" standalone="no"?>
<!DOCTYPE svg PUBLIC "-//W3C//DTD SVG 20010904//EN"
 "http://www.w3.org/TR/2001/REC-SVG-20010904/DTD/svg10.dtd">
<svg version="1.0" xmlns="http://www.w3.org/2000/svg"
 width="128.000000pt" height="128.000000pt" viewBox="0 0 128.000000 128.000000"
 preserveAspectRatio="xMidYMid meet">
<metadata>
Created by potrace 1.16, written by Peter Selinger 2001-2019
</metadata>
<g transform="translate(0.000000,128.000000) scale(0.100000,-0.100000)"
fill="#000000" stroke="none">
<path d="M630 1280 c-16 0 -30 -4 -30 -10 0 -5 -16 -16 -35 -24 -19 -8 -35
-20 -35 -25 0 -6 -7 -11 -15 -11 -9 0 -33 -11 -55 -25 -22 -14 -46 -25 -54
-25 -8 0 -18 -4 -21 -10 -3 -5 -17 -10 -31 -10 -14 0 -24 -6 -24 -14 0 -7 7
-19 15 -26 9 -8 29 -10 49 -7 32 5 38 2 73 -41 23 -28 36 -54 35 -67 -2 -11
-13 -30 -25 -42 -11 -13 -25 -23 -30 -23 -6 0 -18 7 -28 16 -15 14 -20 14 -46
1 -15 -8 -44 -18 -63 -22 -19 -4 -41 -12 -47 -17 -7 -6 -19 -8 -27 -5 -8 3
-22 0 -31 -7 -15 -11 -16 -15 -4 -34 7 -11 23 -26 35 -33 19 -10 29 -9 56 5
18 9 40 20 48 25 8 5 31 13 50 20 22 7 38 7 44 1 6 -6 4 -22 -7 -45 -9 -20
-17 -44 -17 -55 0 -11 -13 -35 -30 -53 -16 -19 -30 -43 -30 -53 0 -11 -4 -24
-8 -29 -4 -6 -18 -16 -32 -23 -14 -7 -48 -34 -74 -59 -34 -32 -45 -48 -37 -56
7 -7 18 -7 36 1 14 7 32 12 39 12 9 0 11 -16 8 -60 -2 -33 -1 -80 3 -105 4
-28 13 -49 22 -52 9 -4 21 1 28 10 9 12 15 13 23 5 8 -8 15 -8 27 2 8 7 15 21
15 32 0 15 -5 19 -20 15 -13 -3 -23 1 -29 11 -4 10 -11 34 -14 55 -3 21 -3 45
0 53 3 8 18 14 35 14 16 0 43 9 59 21 16 11 36 18 44 15 8 -3 16 -18 16 -33 1
-15 0 -32 -1 -38 -2 -5 -5 -21 -8 -35 -3 -14 -21 -39 -41 -56 -28 -25 -33 -34
-24 -45 7 -8 10 -34 8 -59 -2 -25 -4 -48 -4 -52 -1 -3 -12 -20 -26 -36 -25
-30 -25 -30 2 -82 15 -29 33 -55 41 -58 8 -3 22 0 32 6 10 6 34 14 54 17 21 4
45 18 56 32 11 14 20 30 20 35 0 5 -8 12 -17 15 -11 4 -22 -1 -31 -15 -9 -14
-25 -22 -42 -22 -15 0 -32 6 -38 13 -6 7 -10 28 -10 46 1 24 7 35 20 39 13 3
19 15 20 41 1 20 2 49 2 64 1 15 8 32 16 37 8 5 16 24 17 42 2 18 4 44 6 58 2
14 6 32 10 40 3 8 7 26 9 40 2 20 10 26 41 31 21 3 40 2 43 -3 4 -6 -4 -37
-17 -70 -17 -42 -32 -64 -52 -75 -17 -9 -27 -21 -25 -31 3 -14 15 -17 63 -17
60 0 60 0 61 48 1 41 6 52 38 83 20 19 36 41 36 49 0 8 -5 25 -11 38 -6 14
-22 30 -35 37 -20 11 -31 10 -73 -8 -27 -11 -52 -18 -55 -14 -3 3 -6 21 -6 41
0 20 -9 50 -19 67 -14 23 -27 32 -46 32 -15 0 -29 -7 -32 -14 -3 -8 2 -25 11
-39 9 -14 25 -25 36 -25 10 0 21 -4 25 -9 3 -6 -4 -15 -15 -21 -11 -6 -20 -19
-20 -29 0 -10 -6 -23 -12 -28 -7 -5 -48 -18 -91 -28 -43 -9 -81 -15 -84 -11
-3 3 -1 24 6 46 8 28 16 38 26 34 9 -4 18 1 22 12 3 11 19 34 35 52 15 18 31
45 34 60 4 15 12 34 19 42 6 8 17 33 24 55 7 23 11 54 9 70 -1 17 2 30 7 30 6
0 9 -6 9 -13 -1 -7 19 -36 45 -64 25 -29 66 -70 90 -92 24 -23 55 -53 70 -68
14 -16 33 -28 42 -28 9 0 22 -7 29 -15 7 -8 36 -29 66 -45 31 -18 71 -32 96
-34 24 -1 51 -6 60 -10 9 -4 24 -6 34 -4 9 1 22 11 28 20 8 14 6 22 -11 40
-17 16 -38 23 -85 26 -54 4 -70 10 -118 46 -30 22 -61 49 -69 59 -8 11 -21 17
-32 14 -11 -3 -19 -2 -19 3 0 4 -40 37 -89 74 -49 36 -91 72 -94 80 -3 8 3 20
16 28 12 8 42 20 67 28 25 7 57 12 71 11 15 -1 34 5 43 14 9 9 16 20 16 25 0
4 -18 15 -40 24 -22 8 -52 16 -67 17 -16 1 -45 -7 -66 -19 -21 -12 -41 -22
-45 -22 -5 0 -19 25 -31 55 -12 30 -20 59 -16 64 3 6 22 13 43 17 20 4 48 13
62 20 14 8 43 20 65 28 28 9 40 19 40 32 0 13 -8 20 -27 22 -16 2 -28 8 -28
13 0 5 -13 9 -30 9z"/>
<path d="M675 167 c-31 11 -35 10 -50 -14 -16 -23 -16 -26 3 -46 11 -12 28
-40 39 -62 16 -35 23 -40 56 -43 37 -3 37 -3 37 40 0 32 -7 54 -25 79 -14 19
-41 39 -60 46z"/>
</g>
</svg>
