<?xml version="1.0" standalone="no"?>
<!DOCTYPE svg PUBLIC "-//W3C//DTD SVG 20010904//EN"
 "http://www.w3.org/TR/2001/REC-SVG-20010904/DTD/svg10.dtd">
<svg version="1.0" xmlns="http://www.w3.org/2000/svg"
 width="128.000000pt" height="128.000000pt" viewBox="0 0 128.000000 128.000000"
 preserveAspectRatio="xMidYMid meet">
<metadata>
Created by potrace 1.16, written by Peter Selinger 2001-2019
</metadata>
<g transform="translate(0.000000,128.000000) scale(0.100000,-0.100000)"
fill="#000000" stroke="none">
<path d="M619 1256 c-19 4 -34 -1 -56 -20 -20 -17 -43 -26 -66 -26 -19 0 -40
-6 -46 -13 -6 -8 -10 -31 -8 -52 2 -35 -1 -41 -28 -53 -16 -8 -53 -29 -81 -48
-28 -19 -56 -46 -63 -60 -6 -14 -9 -41 -5 -59 3 -18 14 -42 24 -53 18 -19 21
-19 65 -5 25 9 50 24 56 34 8 16 13 17 32 6 12 -6 24 -13 26 -14 2 -2 -2 -9
-8 -17 -8 -10 -9 -16 -1 -21 6 -3 8 -11 5 -16 -4 -5 -17 -9 -30 -9 -17 0 -26
-8 -33 -29 -6 -17 -34 -52 -63 -79 -29 -27 -49 -54 -46 -59 4 -6 20 -13 37
-16 22 -5 30 -12 32 -29 1 -13 0 -43 -1 -68 -1 -31 5 -55 18 -77 12 -18 27
-33 35 -33 8 0 17 6 20 13 3 9 8 7 16 -5 8 -14 16 -15 37 -7 15 5 32 8 40 5 9
-4 12 -17 8 -43 -3 -21 -8 -58 -11 -83 -4 -32 -1 -51 10 -65 13 -17 18 -18 36
-7 12 7 29 10 39 7 10 -3 37 -1 60 4 41 9 41 9 41 -34 0 -27 6 -47 16 -56 10
-8 21 -10 30 -3 8 5 26 33 39 62 22 48 23 53 7 59 -9 3 -26 17 -38 31 -20 24
-23 25 -80 15 -32 -6 -69 -14 -80 -18 -21 -7 -22 -5 -20 77 2 74 4 83 21 86
11 2 24 8 29 13 6 5 17 2 27 -7 11 -10 25 -13 38 -9 12 3 21 13 21 20 0 8 -8
18 -17 23 -10 5 -22 8 -28 6 -5 -2 -11 11 -12 30 -1 33 1 35 59 57 35 13 66
32 75 46 13 20 14 28 3 47 -7 13 -23 30 -37 37 -21 11 -29 11 -54 -4 -18 -10
-40 -14 -57 -11 -17 3 -34 18 -45 36 -9 16 -17 36 -17 44 0 8 -6 14 -14 14 -7
0 -19 -7 -26 -15 -10 -12 -11 -24 -2 -53 9 -30 9 -41 -4 -60 -9 -14 -22 -21
-30 -18 -8 3 -21 3 -29 0 -8 -4 -15 -12 -15 -20 0 -9 11 -14 28 -14 15 0 32
-4 38 -8 6 -4 13 -15 17 -24 3 -10 16 -18 27 -18 11 0 20 -5 20 -11 0 -5 -13
-15 -29 -20 -16 -6 -32 -16 -34 -23 -3 -8 -15 -12 -31 -9 -18 4 -28 0 -32 -11
-3 -9 -14 -16 -24 -16 -13 0 -19 11 -23 43 -3 24 -3 54 0 68 3 13 12 31 19 39
7 9 11 26 7 38 -3 12 -16 25 -28 28 -23 6 -23 6 -1 29 12 13 28 36 36 52 8 15
25 36 38 47 18 14 23 27 20 55 -3 31 0 36 21 39 14 2 32 -5 45 -17 11 -11 51
-43 88 -71 37 -27 70 -50 74 -50 3 0 15 -11 26 -25 11 -14 26 -25 34 -25 8 0
29 -10 47 -22 17 -13 37 -30 44 -39 8 -10 28 -17 51 -17 21 0 44 3 51 8 9 5
11 17 7 34 -4 17 -13 26 -26 26 -11 0 -20 4 -20 10 0 5 -18 18 -41 29 -22 11
-48 17 -56 14 -10 -4 -24 3 -37 19 -12 13 -54 46 -94 73 -41 26 -76 54 -79 62
-3 8 0 19 8 24 8 5 24 9 35 9 12 0 32 9 45 20 24 20 24 20 0 40 -13 11 -33 20
-46 20 -13 0 -25 -7 -29 -15 -3 -9 -18 -15 -40 -15 -20 0 -36 6 -39 14 -3 8
-3 23 -1 34 4 14 0 21 -15 25 -12 3 -21 10 -21 15 0 6 20 18 45 28 25 9 55 30
66 46 11 15 27 28 35 28 8 0 14 4 14 9 0 4 -15 11 -32 15 -18 3 -45 9 -59 12z
m-103 -166 c6 0 13 -3 16 -6 3 -3 -4 -30 -16 -61 -21 -54 -23 -56 -71 -69 -28
-6 -53 -10 -57 -7 -5 2 -8 10 -8 18 0 7 28 38 63 69 34 31 67 56 73 56z m191
-403 c9 -9 13 -23 9 -32 -4 -10 -12 -15 -21 -11 -9 3 -24 1 -34 -6 -10 -6 -27
-8 -37 -4 -18 7 -18 8 1 22 11 8 25 12 32 10 7 -3 18 4 24 16 10 18 12 19 26
5z"/>
<path d="M1053 740 c-2 0 -8 -12 -13 -26 -6 -14 -10 -29 -10 -34 0 -5 4 -12
10 -15 5 -3 25 -3 45 1 25 4 35 12 35 24 0 11 -14 25 -32 34 -17 9 -33 16 -35
16z"/>
<path d="M251 655 c-5 3 -18 -5 -28 -18 -10 -13 -24 -22 -31 -19 -6 2 -15 -4
-18 -13 -4 -9 -2 -21 3 -26 6 -6 16 -2 28 11 10 11 26 20 37 20 11 0 18 7 18
19 0 11 -4 22 -9 26z"/>
<path d="M715 150 c-8 0 -21 -10 -29 -22 -9 -12 -16 -32 -16 -43 0 -12 -4 -25
-9 -30 -5 -6 -12 -20 -16 -32 -5 -19 -2 -23 14 -23 15 0 28 17 51 65 17 36 28
70 25 75 -3 6 -12 10 -20 10z"/>
</g>
</svg>
