<?xml version="1.0" standalone="no"?>
<!DOCTYPE svg PUBLIC "-//W3C//DTD SVG 20010904//EN"
 "http://www.w3.org/TR/2001/REC-SVG-20010904/DTD/svg10.dtd">
<svg version="1.0" xmlns="http://www.w3.org/2000/svg"
 width="128.000000pt" height="128.000000pt" viewBox="0 0 128.000000 128.000000"
 preserveAspectRatio="xMidYMid meet">
<metadata>
Created by potrace 1.16, written by Peter Selinger 2001-2019
</metadata>
<g transform="translate(0.000000,128.000000) scale(0.100000,-0.100000)"
fill="#000000" stroke="none">
<path d="M250 1280 c-50 0 -90 -3 -90 -8 0 -4 7 -18 16 -30 9 -13 27 -27 40
-32 17 -7 36 -5 65 6 22 9 44 25 49 35 6 10 10 20 10 23 0 3 -40 6 -90 6z"/>
<path d="M671 1280 c-9 0 -28 -11 -41 -25 -14 -13 -41 -35 -60 -49 -19 -14
-54 -35 -78 -47 -24 -12 -50 -32 -59 -45 -8 -13 -21 -24 -28 -24 -7 0 -18 7
-25 15 -7 8 -21 15 -32 15 -13 0 -18 -6 -16 -17 2 -9 17 -24 33 -33 17 -9 31
-27 33 -39 2 -14 -6 -30 -22 -44 -14 -13 -26 -33 -26 -45 0 -15 -6 -22 -19
-22 -10 0 -24 -7 -31 -15 -7 -9 -13 -29 -12 -45 0 -16 -4 -32 -10 -36 -5 -3
-15 -1 -21 5 -6 6 -14 11 -18 11 -4 0 -15 -7 -23 -16 -9 -8 -16 -31 -16 -50 0
-26 5 -37 23 -45 18 -8 32 -7 58 5 19 8 47 23 62 33 27 17 29 17 42 -1 13 -17
12 -24 -7 -55 -12 -20 -50 -67 -86 -106 -35 -38 -81 -87 -101 -108 -20 -20
-43 -39 -53 -42 -9 -3 -23 -17 -32 -30 -9 -14 -24 -25 -34 -25 -10 0 -23 -5
-30 -12 -7 -7 -12 -18 -12 -24 0 -7 8 -14 18 -16 9 -2 34 -1 55 3 21 4 47 16
57 27 12 13 27 18 42 15 17 -3 35 4 57 23 24 20 35 24 44 15 8 -8 8 -23 -3
-59 -7 -26 -15 -65 -17 -87 -4 -30 1 -47 17 -68 17 -22 29 -27 65 -27 26 0 47
6 55 15 7 9 23 15 34 13 16 -2 21 -10 21 -33 0 -16 4 -37 9 -44 5 -8 8 -37 7
-64 -2 -37 2 -52 16 -63 10 -7 25 -14 34 -14 9 0 38 11 64 26 26 14 53 23 60
20 6 -2 38 5 71 16 32 11 66 26 75 34 15 13 19 13 32 -1 9 -8 26 -33 38 -55
16 -29 29 -40 46 -40 16 0 24 7 29 26 4 17 -1 41 -17 74 -19 38 -35 53 -77 75
-53 27 -53 27 -90 2 -20 -13 -54 -34 -75 -46 -21 -11 -56 -21 -77 -21 -37 0
-40 2 -49 37 -7 24 -7 41 -1 47 6 6 10 16 10 23 0 8 -11 18 -25 23 -14 5 -25
17 -25 26 0 12 6 14 28 9 19 -4 33 -1 41 9 7 8 31 18 54 21 23 4 49 13 57 21
9 7 33 19 55 26 30 10 39 18 38 33 -1 11 -5 34 -9 51 -5 28 -3 32 20 38 14 3
32 19 39 34 7 15 12 36 9 46 -3 14 0 17 12 13 10 -4 19 -1 23 9 3 8 1 26 -5
38 -8 19 -21 24 -67 29 -35 4 -64 1 -75 -6 -14 -8 -22 -8 -34 2 -9 8 -16 24
-16 37 0 13 -5 35 -12 49 -7 15 -8 29 -2 34 5 5 39 3 79 -6 39 -8 83 -12 99
-9 21 5 51 -5 112 -34 46 -22 87 -40 91 -40 4 0 16 -9 28 -20 13 -12 42 -23
71 -26 36 -5 53 -2 61 8 7 8 10 24 6 36 -3 13 -16 25 -31 29 -14 3 -55 23 -92
43 -36 21 -83 43 -105 49 -22 6 -57 11 -77 11 -20 0 -49 5 -64 10 -15 6 -63
12 -108 14 -45 2 -91 7 -104 11 -22 7 -22 6 -16 -32 5 -35 3 -42 -20 -61 -21
-16 -26 -26 -21 -49 3 -15 11 -46 16 -68 7 -27 18 -44 35 -52 20 -9 31 -8 64
10 37 21 40 21 56 5 11 -10 14 -25 11 -40 -4 -13 -24 -33 -46 -45 -22 -13 -45
-23 -50 -23 -6 0 -11 16 -11 35 0 33 -1 34 -20 23 -17 -11 -26 -10 -58 9 -38
21 -38 21 -97 -9 -34 -17 -77 -31 -100 -32 -33 -1 -40 -5 -40 -21 0 -19 6 -20
90 -17 50 2 94 8 100 13 5 5 13 9 18 9 5 0 6 -19 2 -43 -4 -30 -15 -50 -38
-69 -17 -16 -37 -28 -44 -28 -7 0 -17 -8 -22 -18 -5 -9 -31 -26 -56 -36 -40
-16 -48 -17 -56 -5 -5 8 -9 25 -9 38 0 14 7 32 16 42 12 13 15 28 10 54 -4 20
-13 35 -21 35 -8 0 -17 4 -20 10 -3 5 -1 19 5 31 6 11 20 30 31 42 11 12 26
29 34 38 8 9 15 21 15 28 0 7 15 26 34 44 19 18 48 60 66 94 25 49 30 69 25
96 -7 35 -7 35 49 35 45 -1 62 4 80 21 12 11 34 21 49 21 14 0 45 9 67 21 22
12 40 27 40 35 0 7 -15 20 -34 29 -27 13 -44 14 -87 6 -39 -7 -61 -6 -79 2
-20 10 -26 21 -28 53 -3 38 0 43 35 65 20 13 49 32 63 41 14 10 35 22 48 28
12 5 22 14 22 19 0 5 -8 12 -19 16 -10 3 -26 14 -36 25 -10 11 -25 20 -34 20z
m-147 -203 c5 -2 12 -9 14 -15 2 -7 -6 -12 -17 -12 -12 0 -21 4 -21 8 0 5 3
12 7 16 4 3 11 5 17 3z m-69 -89 c16 -3 20 -10 19 -42 -1 -24 -8 -44 -18 -51
-10 -8 -14 -19 -10 -29 5 -14 -1 -16 -47 -12 -49 4 -54 6 -57 29 -3 21 1 26
25 29 21 2 33 13 48 41 14 27 26 37 40 35z"/>
<path d="M200 700 c-9 0 -19 -3 -23 -6 -3 -3 -3 -12 0 -20 3 -8 13 -14 23 -14
10 0 20 6 23 14 3 8 3 17 0 20 -4 3 -14 6 -23 6z"/>
</g>
</svg>
