<?xml version="1.0" standalone="no"?>
<!DOCTYPE svg PUBLIC "-//W3C//DTD SVG 20010904//EN"
 "http://www.w3.org/TR/2001/REC-SVG-20010904/DTD/svg10.dtd">
<svg version="1.0" xmlns="http://www.w3.org/2000/svg"
 width="128.000000pt" height="128.000000pt" viewBox="0 0 128.000000 128.000000"
 preserveAspectRatio="xMidYMid meet">
<metadata>
Created by potrace 1.16, written by Peter Selinger 2001-2019
</metadata>
<g transform="translate(0.000000,128.000000) scale(0.100000,-0.100000)"
fill="#000000" stroke="none">
<path d="M410 1270 c-3 4 -20 -2 -37 -13 -18 -10 -33 -23 -33 -28 0 -5 11 -14
23 -18 13 -5 29 -22 35 -38 6 -15 14 -44 17 -63 4 -19 9 -42 11 -51 3 -11 -12
-30 -45 -56 -40 -32 -67 -44 -145 -62 -53 -13 -98 -27 -101 -31 -3 -5 9 -16
26 -24 18 -9 49 -16 71 -16 21 0 38 -5 38 -11 0 -7 11 -9 28 -6 15 2 42 11 60
18 31 13 35 12 48 -5 8 -11 14 -32 14 -46 0 -15 -8 -34 -17 -42 -10 -9 -40
-22 -68 -30 -27 -7 -49 -18 -47 -23 1 -6 43 -9 100 -7 53 2 101 8 107 13 5 5
15 9 23 9 7 0 20 -16 28 -36 11 -25 13 -53 9 -97 -4 -34 -14 -75 -24 -92 -15
-27 -22 -30 -67 -30 -32 0 -65 -8 -95 -24 -26 -13 -52 -22 -59 -19 -7 2 -19
26 -26 54 -7 27 -13 63 -14 79 0 17 -10 48 -23 69 -12 22 -30 44 -39 50 -9 6
-20 8 -23 4 -3 -3 1 -55 10 -114 9 -60 20 -127 25 -149 5 -22 19 -48 31 -57
18 -15 19 -19 5 -24 -9 -3 -43 -37 -76 -76 -43 -50 -60 -77 -60 -98 0 -16 -5
-32 -10 -35 -6 -3 -10 -13 -10 -22 0 -12 7 -14 35 -10 20 3 52 19 73 35 20 16
53 37 72 48 19 10 43 25 52 33 15 12 21 11 43 -3 14 -9 25 -20 25 -24 0 -5 -5
-13 -11 -19 -8 -8 -8 -17 0 -31 8 -15 8 -35 0 -73 -10 -47 -9 -54 7 -66 10 -7
24 -13 31 -13 7 0 13 10 13 23 -1 12 4 49 9 82 6 33 8 78 5 100 -3 23 1 50 8
65 8 15 28 28 53 35 22 5 46 14 53 18 6 5 12 14 12 22 0 9 -17 16 -45 21 -35
5 -50 3 -64 -10 -10 -9 -23 -16 -29 -16 -7 0 -12 4 -12 9 0 6 5 13 10 16 6 3
10 19 10 35 0 25 7 33 43 49 23 11 57 35 74 54 22 23 38 54 49 98 9 35 17 84
16 108 0 27 -8 54 -20 70 -16 21 -29 27 -78 31 -58 5 -59 6 -62 36 -2 18 7 52
19 78 11 25 24 46 28 47 3 1 23 2 44 3 21 2 50 12 65 23 15 11 28 27 30 35 2
9 -4 22 -12 31 -9 8 -39 18 -68 22 -29 4 -59 12 -65 17 -7 6 -13 30 -13 53 0
27 -7 51 -20 68 -11 14 -31 29 -43 33 -12 4 -24 10 -27 14z m-39 -881 c4 1 9
-9 13 -21 3 -13 6 -29 6 -35 0 -7 -15 -20 -32 -29 -18 -9 -46 -27 -61 -40 -16
-13 -42 -24 -58 -24 -16 0 -29 4 -29 8 0 4 17 24 38 44 20 20 55 50 77 67 22
16 43 30 46 30z"/>
<path d="M1167 1160 c-8 0 -20 -7 -27 -15 -6 -8 -10 -22 -8 -32 2 -10 12 -18
23 -18 15 0 21 8 23 33 2 23 -1 32 -11 32z"/>
<path d="M798 940 c-4 0 -9 -4 -12 -9 -3 -5 -1 -22 5 -38 5 -17 9 -34 8 -39
-1 -5 -1 -19 0 -30 1 -13 10 -24 23 -28 13 -3 26 -2 30 2 3 4 9 28 13 54 7 46
6 48 -26 67 -19 12 -37 21 -41 21z"/>
<path d="M796 780 c-8 0 -26 -21 -40 -47 -15 -25 -29 -57 -32 -70 -5 -19 -2
-23 18 -23 13 0 33 7 45 15 14 10 24 11 28 5 3 -5 -6 -27 -22 -47 -15 -21 -54
-63 -86 -94 -45 -43 -58 -62 -55 -80 1 -13 11 -25 21 -27 10 -2 30 10 46 27
16 17 35 31 43 31 8 0 23 -6 33 -14 17 -12 18 -17 6 -42 -7 -15 -25 -44 -42
-65 -16 -20 -29 -42 -29 -48 0 -6 10 -11 23 -11 15 0 43 23 85 69 34 38 62 79
62 90 0 11 -4 31 -10 45 -5 15 -17 26 -28 26 -10 0 -26 6 -36 13 -17 12 -16
15 15 41 18 16 43 33 54 38 11 5 34 28 52 51 30 39 31 43 16 59 -9 10 -29 18
-44 18 -17 0 -42 -12 -61 -29 -25 -22 -38 -27 -50 -20 -13 7 -15 15 -7 42 5
17 9 35 9 39 0 5 -6 8 -14 8z"/>
<path d="M452 639 c-9 -1 -33 -6 -52 -13 -19 -6 -45 -17 -58 -24 -12 -7 -20
-17 -17 -23 4 -5 21 -9 38 -9 18 0 48 5 69 10 20 6 39 17 42 26 3 9 4 20 0 25
-3 5 -13 9 -22 8z"/>
<path d="M1060 500 c-6 0 -10 -16 -10 -35 0 -18 6 -58 14 -87 8 -29 19 -67 24
-84 6 -17 7 -36 3 -43 -4 -6 -29 -22 -56 -34 -46 -23 -52 -23 -119 -12 -39 7
-105 17 -146 23 -41 6 -79 7 -83 3 -4 -4 1 -19 13 -33 15 -20 35 -29 87 -38
38 -7 84 -18 103 -25 19 -7 58 -20 86 -29 49 -15 53 -15 110 7 38 15 63 32 71
48 7 13 13 46 13 72 0 38 -8 62 -35 108 -19 33 -35 66 -35 73 0 8 -7 30 -15
50 -8 20 -20 36 -25 36z"/>
<path d="M704 297 c-5 2 -13 0 -17 -3 -4 -4 -7 -16 -7 -26 0 -13 6 -18 18 -16
9 2 17 12 17 22 0 11 -5 21 -11 23z"/>
</g>
</svg>
