<?xml version="1.0" standalone="no"?>
<!DOCTYPE svg PUBLIC "-//W3C//DTD SVG 20010904//EN"
 "http://www.w3.org/TR/2001/REC-SVG-20010904/DTD/svg10.dtd">
<svg version="1.0" xmlns="http://www.w3.org/2000/svg"
 width="128.000000pt" height="128.000000pt" viewBox="0 0 128.000000 128.000000"
 preserveAspectRatio="xMidYMid meet">
<metadata>
Created by potrace 1.16, written by Peter Selinger 2001-2019
</metadata>
<g transform="translate(0.000000,128.000000) scale(0.100000,-0.100000)"
fill="#000000" stroke="none">
<path d="M952 1249 c-26 0 -54 -3 -62 -6 -8 -3 -23 -12 -32 -20 -9 -8 -36 -19
-60 -24 -24 -5 -56 -15 -71 -21 -25 -10 -28 -15 -23 -41 4 -17 14 -39 23 -49
9 -10 24 -18 33 -18 10 0 23 7 31 16 7 8 26 22 42 31 23 12 31 12 37 2 5 -7 4
-23 -1 -36 -5 -14 -9 -35 -9 -48 0 -14 -7 -40 -16 -59 -10 -19 -24 -37 -33
-40 -9 -4 -26 -12 -39 -20 -12 -7 -40 -29 -62 -49 -22 -19 -40 -40 -40 -47 0
-6 12 -15 26 -20 14 -6 22 -14 19 -20 -3 -5 -15 -10 -26 -10 -10 0 -19 7 -19
15 0 8 -11 17 -24 21 -14 3 -32 14 -42 25 -14 16 -15 24 -6 44 6 14 9 32 5 41
-3 9 0 20 7 24 8 5 20 30 27 57 8 26 18 75 23 108 5 33 7 62 4 66 -2 3 -25 9
-52 12 -26 3 -54 7 -62 9 -11 2 -14 -5 -12 -32 2 -19 3 -51 3 -70 0 -19 -3
-81 -6 -137 -4 -83 -2 -108 10 -127 15 -23 14 -25 -15 -57 -16 -19 -32 -40
-34 -49 -2 -8 -8 -33 -12 -55 -4 -22 -6 -46 -5 -54 1 -8 -5 -31 -14 -52 -16
-34 -16 -40 -2 -68 13 -26 13 -32 1 -42 -10 -8 -13 -22 -9 -39 4 -18 1 -33
-10 -43 -14 -15 -19 -14 -50 5 -20 11 -45 33 -58 49 -12 17 -35 45 -51 65 -28
34 -29 37 -21 112 4 42 9 93 11 112 2 19 6 51 9 70 4 28 1 40 -18 62 -14 14
-43 38 -66 52 -22 14 -51 26 -63 26 -13 0 -49 -21 -81 -47 -53 -43 -57 -49
-41 -60 11 -8 31 -11 49 -8 18 4 37 1 49 -8 14 -10 22 -32 26 -73 4 -33 3
-122 -2 -199 -6 -106 -14 -160 -34 -223 -20 -64 -23 -86 -14 -97 7 -9 23 -12
48 -8 20 3 44 14 54 24 9 11 24 53 34 94 12 51 22 75 32 75 8 0 24 -10 36 -23
11 -12 29 -36 40 -52 10 -15 44 -56 75 -90 31 -34 71 -87 90 -118 19 -31 43
-60 54 -63 11 -3 26 0 34 9 14 13 14 20 -1 59 -14 34 -15 50 -6 72 8 23 7 34
-5 52 -8 13 -20 24 -25 24 -6 0 -10 4 -10 9 0 5 9 11 20 14 12 3 20 14 20 27
0 12 -8 35 -17 52 -18 29 -17 30 5 48 20 16 22 27 22 104 0 82 -1 86 -24 92
-14 3 -32 14 -41 24 -13 15 -14 20 -3 27 7 4 19 21 26 36 6 15 19 30 27 33 9
4 24 -1 35 -11 18 -16 20 -16 26 -1 3 9 12 16 20 16 8 0 14 -3 14 -6 0 -3 -15
-24 -34 -46 -19 -21 -36 -48 -39 -58 -3 -11 6 -30 24 -49 23 -26 36 -31 71
-31 34 0 52 -7 81 -31 21 -17 46 -48 57 -68 10 -21 30 -45 44 -55 19 -12 26
-25 26 -47 0 -16 -9 -47 -20 -69 -11 -22 -20 -45 -20 -53 0 -7 10 -23 23 -34
12 -11 67 -42 122 -69 55 -27 114 -59 130 -71 17 -12 41 -24 55 -27 14 -4 31
-2 39 3 11 7 11 17 -3 62 -8 30 -27 71 -41 91 -17 26 -38 41 -65 49 -22 7 -45
18 -51 26 -6 7 -17 13 -23 13 -6 0 -19 13 -29 29 -9 16 -17 40 -17 53 0 14 13
33 35 51 19 15 35 36 35 45 -1 9 -31 40 -68 67 -39 30 -68 60 -70 72 -3 17 8
27 48 47 29 14 58 26 67 26 8 0 28 11 45 25 16 14 36 25 45 25 8 0 38 15 65
32 50 33 50 33 44 90 -6 51 -5 59 14 70 11 7 20 19 20 26 0 8 -12 12 -32 11
-18 -1 -67 8 -108 19 -47 13 -90 19 -115 15 -34 -4 -44 -1 -64 20 -22 24 -22
27 -7 49 9 12 16 34 16 47 0 14 11 41 24 60 13 20 27 46 30 57 4 14 1 28 -9
38 -11 10 -33 16 -63 15z m24 -379 c8 0 22 -8 32 -17 10 -10 27 -23 37 -29 17
-9 18 -14 6 -42 -8 -18 -17 -32 -21 -32 -5 0 -27 -16 -50 -35 -23 -19 -52 -35
-65 -35 -12 0 -28 7 -36 16 -7 8 -25 22 -41 30 -29 15 -29 15 -7 47 12 18 33
44 47 59 18 20 32 26 48 22 12 -3 25 -1 28 5 4 6 14 11 22 11z m-242 -230 c7
-7 6 -14 -2 -22 -9 -9 -15 -9 -24 0 -10 10 -10 15 2 22 9 6 19 5 24 0z"/>
<path d="M1134 1250 c-8 0 -14 -6 -14 -14 0 -8 5 -18 10 -21 6 -3 10 -17 10
-31 0 -13 5 -24 10 -24 6 0 10 8 8 18 -2 11 2 16 12 13 8 -2 26 -6 39 -9 23
-5 24 -4 8 18 -8 12 -27 28 -42 36 -15 8 -34 14 -41 14z"/>
<path d="M1216 1100 c-8 0 -17 -3 -19 -7 -3 -5 -1 -18 4 -30 5 -13 13 -23 19
-23 5 0 10 14 10 30 0 19 -5 30 -14 30z"/>
<path d="M810 340 c-5 0 -10 -7 -10 -15 0 -8 5 -15 10 -15 6 0 10 7 10 15 0 8
-4 15 -10 15z"/>
</g>
</svg>
