<?xml version="1.0" standalone="no"?>
<!DOCTYPE svg PUBLIC "-//W3C//DTD SVG 20010904//EN"
 "http://www.w3.org/TR/2001/REC-SVG-20010904/DTD/svg10.dtd">
<svg version="1.0" xmlns="http://www.w3.org/2000/svg"
 width="128.000000pt" height="128.000000pt" viewBox="0 0 128.000000 128.000000"
 preserveAspectRatio="xMidYMid meet">
<metadata>
Created by potrace 1.16, written by Peter Selinger 2001-2019
</metadata>
<g transform="translate(0.000000,128.000000) scale(0.100000,-0.100000)"
fill="#000000" stroke="none">
<path d="M250 1280 c-16 0 -30 -4 -30 -9 0 -6 5 -13 10 -16 6 -3 19 -3 30 0
11 4 20 11 20 16 0 5 -13 9 -30 9z"/>
<path d="M765 1280 c-19 0 -37 -4 -40 -10 -3 -5 -16 -10 -28 -10 -12 0 -40 -7
-62 -14 -27 -10 -40 -20 -40 -33 0 -16 7 -18 66 -15 67 3 67 3 72 -35 2 -21 1
-41 -2 -45 -4 -4 -27 -12 -51 -17 -25 -6 -61 -14 -80 -18 -25 -6 -35 -14 -35
-28 0 -13 10 -21 34 -28 22 -5 37 -5 44 2 6 6 19 11 29 11 10 0 18 -7 18 -15
0 -9 -8 -28 -17 -43 -9 -15 -27 -38 -39 -52 -12 -14 -23 -32 -24 -40 -1 -8 -2
-21 -1 -27 0 -7 8 -13 17 -13 10 0 39 21 66 46 47 44 50 45 68 29 10 -9 21
-27 24 -41 4 -13 10 -24 15 -24 5 0 25 7 44 15 22 9 67 15 112 15 59 0 77 3
82 15 3 9 -2 24 -12 35 -9 10 -29 21 -44 25 -15 3 -52 -3 -86 -14 -38 -13 -63
-17 -70 -10 -5 5 -10 38 -12 73 -2 64 -2 65 32 85 24 14 33 25 29 36 -3 8 -14
15 -24 15 -9 0 -25 9 -35 20 -12 13 -15 27 -11 45 4 15 4 35 1 46 -5 14 -16
19 -40 19z"/>
<path d="M495 1206 c-26 10 -36 9 -75 -12 -24 -13 -59 -27 -77 -30 -19 -4 -33
-12 -33 -20 0 -8 9 -14 21 -14 11 0 29 -5 40 -10 15 -9 19 -22 19 -68 0 -36
-6 -66 -16 -80 -8 -12 -22 -22 -30 -22 -8 0 -19 11 -24 25 -5 14 -17 28 -26
32 -8 3 -20 1 -27 -6 -6 -6 -12 -24 -13 -40 -1 -15 -5 -37 -8 -48 -3 -10 0
-28 8 -38 12 -17 17 -18 40 -7 15 7 31 12 36 12 6 0 10 -9 10 -20 0 -12 -10
-35 -22 -53 -13 -18 -33 -44 -46 -58 -14 -16 -20 -32 -16 -42 3 -10 14 -17 23
-17 9 0 31 14 49 31 17 16 32 34 32 40 0 5 8 9 18 9 9 0 28 -9 41 -19 16 -12
22 -24 18 -35 -4 -9 -12 -18 -19 -20 -7 -3 -25 -7 -40 -10 -19 -4 -28 -13 -28
-26 0 -11 5 -41 11 -67 6 -27 17 -61 25 -76 13 -27 12 -30 -8 -47 -20 -16 -21
-22 -11 -39 7 -11 10 -33 7 -50 -6 -27 -11 -31 -53 -36 -25 -3 -53 -10 -61
-14 -10 -6 -14 -20 -12 -45 2 -20 9 -57 15 -83 7 -25 20 -51 29 -57 13 -8 22
-6 37 8 11 10 27 16 36 13 9 -4 15 -19 15 -37 0 -21 -9 -38 -30 -57 -16 -14
-30 -30 -30 -34 0 -5 11 -16 25 -25 20 -13 31 -14 49 -6 13 5 32 29 43 51 11
23 44 60 72 83 28 23 51 47 51 55 0 7 -4 13 -9 13 -4 0 -20 -9 -34 -20 -14
-11 -32 -20 -41 -20 -9 0 -19 7 -22 15 -4 8 1 26 10 40 9 14 32 31 51 39 21 9
35 22 35 32 0 10 12 35 26 56 15 21 24 44 20 53 -5 13 -20 15 -78 13 -70 -3
-73 -2 -76 20 -2 13 4 32 14 43 9 10 27 19 39 19 11 0 25 4 30 9 6 4 22 11 36
15 14 3 28 3 31 0 3 -3 1 -17 -4 -32 -9 -23 -5 -37 24 -92 19 -36 40 -85 47
-110 8 -25 15 -51 18 -59 3 -11 6 -12 15 -3 7 7 16 12 20 12 5 0 6 -33 2 -73
-4 -49 -3 -81 5 -95 6 -12 20 -22 29 -22 10 0 28 14 41 31 12 16 33 34 47 39
13 5 24 14 24 19 0 5 -5 13 -11 17 -6 3 -15 1 -19 -6 -5 -7 -15 -10 -25 -6
-15 5 -16 14 -11 56 4 28 9 57 12 65 3 7 17 21 30 30 19 12 29 13 45 5 15 -9
24 -8 35 1 8 6 14 17 14 23 0 7 12 24 28 39 15 14 36 42 46 62 19 35 19 35
-10 66 -26 28 -33 30 -74 25 -25 -3 -56 -7 -70 -8 -22 -3 -25 1 -28 32 -2 19
-8 39 -13 44 -5 6 -9 17 -9 26 0 9 13 34 30 56 16 21 30 47 30 57 0 10 -14 39
-31 64 -27 39 -34 44 -58 38 -14 -4 -44 -8 -66 -10 -22 -2 -56 -9 -75 -17 -19
-7 -49 -21 -67 -31 -18 -9 -47 -17 -66 -17 -18 0 -37 3 -40 6 -3 4 5 26 18 49
14 23 25 48 25 56 0 8 7 27 15 43 10 18 13 41 10 58 -4 17 -2 28 4 28 6 0 11
10 11 21 0 19 -4 21 -40 15 -38 -6 -39 -5 -49 31 -6 21 -11 41 -11 45 0 5 20
18 46 29 35 17 44 26 42 42 -2 12 -16 26 -33 33z m-57 -268 c25 -3 27 -6 25
-42 -2 -22 -7 -44 -11 -48 -5 -5 -21 -4 -35 1 -17 7 -27 18 -27 31 0 12 5 30
11 41 7 14 19 19 37 17z m292 -192 c8 0 16 -13 18 -28 2 -14 -4 -42 -12 -61
-11 -28 -26 -41 -68 -60 -29 -13 -80 -29 -113 -36 -33 -7 -67 -17 -76 -21 -12
-6 -22 -3 -32 8 -11 12 -13 22 -6 35 6 9 16 17 22 17 7 0 18 5 24 11 6 6 37
12 70 14 32 1 74 6 93 10 19 4 38 13 42 19 4 5 2 16 -4 23 -6 7 -19 13 -29 13
-10 0 -21 5 -25 11 -4 7 2 17 12 23 10 6 30 14 44 17 14 4 32 6 40 5z m-131
-29 c8 -1 16 -8 19 -15 2 -7 -12 -19 -32 -27 -19 -8 -45 -15 -56 -15 -16 0
-21 5 -18 23 2 15 9 21 21 19 9 -2 25 2 35 7 9 6 23 10 31 8z m119 -158 c7 1
17 -11 23 -26 6 -16 11 -39 11 -51 0 -13 -7 -31 -16 -40 -15 -15 -19 -13 -58
26 -22 23 -38 45 -34 49 3 3 18 14 33 24 16 10 34 18 41 18z m170 -99 c7 0 15
-7 18 -15 3 -8 0 -30 -6 -50 -7 -21 -22 -41 -35 -47 -13 -6 -31 -8 -39 -5 -9
4 -16 18 -16 35 0 15 6 35 13 44 6 8 21 20 32 26 11 6 26 12 33 12z m-163 -70
c13 0 16 -9 13 -42 -2 -24 -7 -43 -13 -43 -5 0 -11 19 -13 43 -3 33 0 42 13
42z m-255 -30 c10 0 22 -5 26 -11 3 -6 1 -22 -7 -35 -7 -13 -21 -24 -31 -24
-10 0 -21 6 -24 14 -3 8 -1 24 6 35 6 12 19 21 30 21z m-121 -50 c11 0 22 -9
26 -20 3 -11 3 -29 0 -40 -3 -11 -15 -20 -25 -20 -13 0 -22 9 -26 25 -3 14 -4
32 0 40 3 8 14 15 25 15z"/>
<path d="M943 239 c-41 45 -42 45 -47 21 -2 -14 -7 -43 -10 -64 -4 -30 0 -46
17 -68 12 -17 35 -43 51 -59 29 -30 29 -30 58 -3 15 15 28 35 28 45 0 9 -12
32 -27 50 -16 18 -47 53 -70 78z"/>
</g>
</svg>
