<?xml version="1.0" standalone="no"?>
<!DOCTYPE svg PUBLIC "-//W3C//DTD SVG 20010904//EN"
 "http://www.w3.org/TR/2001/REC-SVG-20010904/DTD/svg10.dtd">
<svg version="1.0" xmlns="http://www.w3.org/2000/svg"
 width="128.000000pt" height="128.000000pt" viewBox="0 0 128.000000 128.000000"
 preserveAspectRatio="xMidYMid meet">
<metadata>
Created by potrace 1.16, written by Peter Selinger 2001-2019
</metadata>
<g transform="translate(0.000000,128.000000) scale(0.100000,-0.100000)"
fill="#000000" stroke="none">
<path d="M853 1280 c-4 0 -13 -8 -20 -19 -6 -10 -33 -23 -65 -30 -29 -7 -68
-12 -85 -11 -24 0 -33 -4 -33 -15 0 -9 7 -18 16 -22 8 -3 20 -1 26 5 8 8 18 6
34 -5 20 -13 24 -24 24 -63 0 -29 -6 -52 -15 -60 -8 -6 -23 -9 -35 -5 -11 3
-20 14 -20 24 0 9 -5 22 -12 29 -7 7 -22 12 -33 12 -17 0 -25 -11 -38 -53 -9
-30 -17 -61 -17 -70 0 -11 8 -17 24 -17 16 0 27 7 31 20 4 12 15 20 28 20 12
0 33 3 47 7 24 6 24 6 8 -11 -10 -10 -18 -26 -18 -37 0 -11 -5 -30 -11 -42 -7
-12 -23 -35 -35 -50 -16 -18 -24 -42 -24 -65 0 -33 -5 -39 -40 -55 -22 -10
-44 -15 -50 -12 -6 4 -17 2 -24 -4 -7 -6 -24 -10 -37 -9 -16 2 -24 -2 -24 -12
0 -11 10 -15 35 -14 19 1 62 6 95 12 36 6 64 6 70 1 6 -6 3 -15 -8 -26 -10
-10 -35 -17 -69 -18 -29 -1 -72 -5 -95 -9 -40 -7 -43 -6 -66 31 -13 21 -32 44
-41 52 -9 8 -26 11 -41 7 -14 -4 -25 -11 -25 -17 0 -6 20 -36 43 -67 24 -31
47 -72 50 -89 6 -33 6 -33 -34 -33 -25 0 -42 -5 -45 -14 -3 -8 2 -28 11 -46
16 -30 16 -32 -9 -51 -14 -11 -26 -25 -26 -30 0 -5 15 -9 34 -9 30 0 34 -4 40
-31 3 -17 6 -38 6 -45 0 -7 -13 -20 -30 -29 -16 -9 -30 -20 -30 -25 0 -5 12
-10 27 -12 24 -3 28 -8 31 -41 3 -33 -2 -43 -34 -73 -21 -19 -46 -34 -56 -34
-11 0 -18 7 -18 18 1 9 5 35 9 57 5 22 12 47 15 56 5 11 1 18 -13 22 -16 4
-21 13 -21 42 0 20 -6 48 -14 63 -8 15 -27 39 -43 53 -15 14 -36 29 -45 32 -9
3 -21 0 -27 -7 -8 -9 -1 -32 23 -83 19 -39 43 -104 55 -143 11 -40 28 -81 37
-91 15 -17 15 -18 -7 -23 -13 -3 -37 -7 -54 -8 -19 -2 -31 -9 -33 -20 -2 -10
12 -33 32 -53 19 -19 40 -35 45 -35 5 0 21 14 35 30 14 17 39 33 57 37 20 4
37 16 48 34 9 17 25 29 36 29 11 0 31 9 45 20 14 11 33 20 42 20 10 0 24 13
33 29 8 16 27 39 41 50 15 12 25 23 22 26 -2 2 -23 -5 -46 -16 -24 -12 -47
-30 -53 -40 -5 -11 -20 -19 -35 -19 -13 0 -27 6 -30 14 -3 8 1 34 9 58 15 42
16 43 56 40 24 -2 49 3 64 13 21 14 24 22 22 71 -1 32 -7 61 -16 69 -8 8 -26
15 -39 16 -14 0 -34 -1 -45 -3 -12 -2 -21 4 -23 15 -2 10 4 27 13 37 9 10 31
21 48 24 18 4 73 9 122 12 50 3 101 7 115 7 25 2 25 1 31 -93 5 -82 3 -98 -12
-115 -17 -19 -17 -21 3 -45 15 -18 18 -33 14 -58 -3 -19 -13 -40 -23 -48 -10
-7 -32 -14 -49 -14 -17 0 -49 -8 -70 -17 -22 -9 -52 -18 -67 -19 -15 -1 -31
-4 -34 -7 -3 -3 -2 -10 1 -15 3 -5 42 -10 86 -10 55 0 83 5 91 14 6 7 24 20
41 28 16 8 36 12 44 9 8 -3 24 4 35 15 11 12 26 19 35 15 8 -3 25 4 40 18 24
22 24 22 40 3 8 -10 22 -33 29 -51 8 -18 25 -41 37 -53 12 -11 30 -20 40 -20
14 0 18 8 18 33 0 24 -10 42 -40 72 -22 22 -53 52 -69 68 -16 15 -36 27 -45
27 -9 0 -16 -8 -16 -18 0 -10 -11 -28 -25 -40 -13 -12 -31 -19 -40 -16 -8 4
-17 16 -20 28 -3 11 -2 34 3 51 8 28 11 30 61 31 28 0 54 -3 57 -8 3 -4 12 -8
21 -8 9 0 22 8 29 18 8 9 28 41 45 69 19 33 28 60 24 72 -3 11 -17 26 -30 35
-13 9 -43 17 -67 17 -24 1 -54 -3 -66 -10 -12 -6 -22 -16 -22 -21 0 -6 16 -10
36 -10 31 0 37 -4 50 -35 7 -19 14 -41 14 -48 0 -9 -17 -19 -40 -25 -23 -5
-53 -7 -68 -3 -25 7 -26 10 -23 57 1 27 7 54 12 60 6 7 3 23 -7 44 -13 26 -14
39 -6 69 6 20 11 45 11 56 0 11 3 32 7 48 5 21 3 27 -10 27 -9 0 -16 8 -16 20
0 13 -10 24 -27 31 -17 6 -42 7 -69 1 -23 -5 -48 -6 -55 -1 -11 6 -9 14 9 38
12 17 22 37 22 46 0 9 9 34 20 55 11 22 25 40 31 40 5 0 19 -21 29 -46 11 -25
20 -54 20 -64 0 -10 10 -26 22 -34 15 -11 26 -12 40 -5 11 6 33 7 51 3 18 -4
63 -6 101 -5 42 1 77 8 92 18 13 8 24 22 24 30 0 8 -8 17 -18 20 -9 2 -26 21
-37 41 -12 23 -29 38 -42 40 -20 3 -23 -1 -23 -32 0 -24 -6 -38 -17 -44 -10
-5 -42 -12 -72 -16 -40 -5 -56 -4 -62 6 -5 7 -9 32 -9 54 0 25 -6 47 -15 54
-9 7 -15 23 -13 34 3 18 10 21 63 21 49 0 60 3 63 17 2 12 -5 21 -21 27 -14 6
-40 6 -63 1 -21 -5 -42 -7 -46 -4 -4 3 -8 16 -8 28 0 13 -7 29 -15 36 -8 7
-15 18 -15 26 0 10 16 12 71 7 54 -5 73 -3 79 8 6 9 3 20 -7 31 -9 10 -24 18
-34 18 -10 0 -24 7 -33 15 -8 8 -18 15 -23 15z m-141 -510 c4 0 8 -4 8 -9 0
-5 9 -13 21 -16 11 -4 24 -17 29 -29 6 -16 2 -36 -13 -68 -21 -46 -21 -46 -96
-45 -42 0 -102 -5 -135 -12 -32 -6 -60 -10 -62 -8 -2 2 -5 14 -6 27 -3 22 0
24 52 26 30 1 69 7 85 14 17 7 47 13 68 14 21 1 43 9 47 16 6 9 4 20 -6 31 -7
8 -14 22 -14 31 0 8 3 18 7 21 3 4 10 7 15 7z m-251 -310 c9 0 24 -3 33 -6 11
-4 16 -19 16 -49 0 -37 -4 -45 -22 -51 -13 -4 -26 -11 -29 -17 -4 -5 -12 -6
-18 -3 -6 4 -11 31 -11 60 0 29 3 56 7 59 3 4 14 7 24 7z"/>
<path d="M424 1202 c-25 2 -64 -2 -87 -9 -23 -7 -64 -13 -92 -13 -27 0 -60 -3
-72 -6 -16 -4 -23 -14 -23 -30 0 -18 7 -25 28 -30 15 -3 32 -7 38 -9 6 -2 14
-16 17 -32 3 -15 3 -40 0 -55 -5 -26 -9 -28 -54 -28 -42 0 -49 -3 -49 -20 0
-17 7 -20 44 -20 24 0 48 6 55 13 6 8 24 14 41 15 16 0 32 -3 35 -7 2 -5 -9
-26 -25 -47 -16 -21 -30 -43 -30 -49 0 -5 -10 -11 -23 -11 -12 -1 -39 -12 -59
-24 -27 -16 -38 -29 -38 -46 0 -20 5 -24 33 -24 17 0 48 10 68 23 20 12 59 48
88 80 35 40 53 53 57 43 3 -7 4 -36 2 -62 -3 -49 -3 -49 67 -49 39 0 82 4 98
8 16 5 27 14 27 25 0 10 -5 23 -12 30 -7 7 -21 12 -33 12 -12 0 -26 -5 -32
-11 -6 -6 -21 -9 -34 -7 -22 3 -24 8 -27 72 -2 40 2 74 8 80 6 6 34 13 62 16
28 3 53 10 55 17 2 6 -7 19 -22 29 -20 13 -31 14 -49 6 -12 -5 -28 -7 -34 -3
-6 3 -13 18 -17 32 -4 18 -1 30 14 43 12 11 21 25 21 32 0 7 -18 13 -46 16z
m-94 -62 c15 0 30 -5 32 -11 2 -5 2 -28 0 -50 -3 -29 -9 -39 -22 -39 -11 0
-23 15 -33 41 -9 23 -14 46 -11 50 3 5 18 9 34 9z"/>
<path d="M505 1200 c-8 0 -15 -9 -15 -20 0 -11 7 -20 15 -20 8 0 15 9 15 20 0
11 -7 20 -15 20z"/>
<path d="M619 520 c-14 8 -19 7 -19 -2 0 -7 9 -33 20 -57 14 -29 20 -65 20
-111 0 -55 4 -70 20 -85 18 -16 22 -17 33 -4 8 8 18 26 25 41 9 21 8 29 -4 38
-8 8 -14 31 -14 60 0 41 -5 53 -31 79 -17 17 -39 36 -50 41z"/>
</g>
</svg>
