<?xml version="1.0" standalone="no"?>
<!DOCTYPE svg PUBLIC "-//W3C//DTD SVG 20010904//EN"
 "http://www.w3.org/TR/2001/REC-SVG-20010904/DTD/svg10.dtd">
<svg version="1.0" xmlns="http://www.w3.org/2000/svg"
 width="128.000000pt" height="128.000000pt" viewBox="0 0 128.000000 128.000000"
 preserveAspectRatio="xMidYMid meet">
<metadata>
Created by potrace 1.16, written by Peter Selinger 2001-2019
</metadata>
<g transform="translate(0.000000,128.000000) scale(0.100000,-0.100000)"
fill="#000000" stroke="none">
<path d="M659 1260 c-9 0 -19 -3 -22 -7 -4 -3 2 -16 14 -29 12 -13 26 -51 35
-94 12 -57 13 -75 3 -86 -7 -8 -24 -14 -38 -12 -21 3 -29 12 -46 63 -13 40
-26 61 -38 63 -10 2 -29 1 -43 -2 -21 -6 -24 -12 -25 -59 0 -28 -4 -81 -8
-117 -5 -36 -17 -108 -26 -160 -9 -52 -30 -134 -46 -182 -16 -48 -29 -98 -29
-110 0 -13 -9 -42 -20 -65 -11 -24 -26 -43 -35 -43 -8 0 -20 11 -25 24 -5 14
-9 78 -9 143 0 65 0 137 -1 159 0 23 8 66 19 95 10 30 22 84 25 120 4 37 15
93 26 124 20 57 20 57 -11 96 -17 22 -35 39 -40 39 -5 0 -9 -2 -9 -4 0 -3 -12
-80 -26 -173 -14 -92 -30 -208 -35 -258 -5 -49 -10 -128 -9 -175 0 -47 -2
-137 -4 -200 -4 -105 -2 -118 17 -148 12 -17 30 -35 41 -38 11 -4 25 1 36 12
10 11 27 46 38 79 11 33 32 92 46 130 13 39 34 95 45 125 12 30 21 66 21 79 0
14 5 41 11 60 7 20 16 48 21 63 9 25 12 26 62 21 36 -4 62 -1 82 9 16 9 35 13
42 11 6 -3 12 -13 12 -23 0 -10 -22 -47 -49 -82 -27 -35 -60 -76 -74 -93 -13
-16 -32 -45 -41 -63 -9 -18 -14 -37 -11 -41 3 -5 -11 -18 -30 -30 -19 -11 -35
-27 -35 -34 0 -8 7 -28 16 -45 8 -18 22 -32 29 -32 7 0 23 15 34 34 12 18 21
40 21 47 0 8 21 36 46 62 26 27 50 45 55 40 4 -4 9 -42 11 -83 3 -75 3 -75 65
-72 34 2 67 1 73 -3 6 -4 -38 -59 -107 -134 -65 -70 -133 -144 -151 -164 -18
-20 -50 -49 -72 -63 -22 -15 -40 -28 -40 -30 0 -2 19 -4 43 -4 38 0 48 6 109
65 37 36 72 65 78 65 5 0 18 8 28 17 10 10 42 39 72 64 30 25 80 66 110 90 30
24 74 56 98 72 25 16 42 35 42 46 0 11 -12 34 -27 51 -25 30 -30 32 -72 26
-25 -4 -70 -10 -99 -13 -43 -4 -57 -2 -73 13 -15 14 -19 26 -15 49 4 21 -1 41
-15 64 -21 34 -21 35 -1 50 10 9 22 23 26 31 3 8 20 33 37 55 16 22 46 63 66
92 27 40 34 58 29 78 -4 14 -13 28 -21 31 -8 3 -28 -4 -44 -15 -16 -12 -34
-21 -40 -21 -6 0 -16 10 -22 22 -10 19 -8 25 15 45 15 13 38 23 52 23 14 0 36
11 49 25 14 13 25 30 25 38 0 8 -7 20 -16 28 -13 10 -21 10 -47 0 -18 -7 -42
-15 -55 -18 -22 -5 -23 -4 -16 59 4 42 2 72 -5 86 -6 12 -28 26 -49 32 -20 5
-44 10 -53 10z m-87 -248 c6 -6 16 -21 22 -34 10 -19 20 -23 55 -23 43 0 43 0
47 -42 4 -38 1 -44 -24 -56 -15 -8 -56 -17 -91 -21 -63 -7 -64 -7 -57 16 4 13
11 51 15 85 5 34 12 67 16 73 5 8 11 8 17 2z"/>
<path d="M1031 1024 c-4 3 -16 -3 -25 -13 -9 -9 -16 -33 -16 -52 0 -19 7 -42
14 -51 7 -10 18 -18 25 -18 7 0 11 23 11 64 0 36 -4 67 -9 70z"/>
<path d="M772 32 c-9 9 -12 7 -12 -12 0 -19 3 -21 12 -12 9 9 9 15 0 24z"/>
</g>
</svg>
