<?xml version="1.0" standalone="no"?>
<!DOCTYPE svg PUBLIC "-//W3C//DTD SVG 20010904//EN"
 "http://www.w3.org/TR/2001/REC-SVG-20010904/DTD/svg10.dtd">
<svg version="1.0" xmlns="http://www.w3.org/2000/svg"
 width="128.000000pt" height="128.000000pt" viewBox="0 0 128.000000 128.000000"
 preserveAspectRatio="xMidYMid meet">
<metadata>
Created by potrace 1.16, written by Peter Selinger 2001-2019
</metadata>
<g transform="translate(0.000000,128.000000) scale(0.100000,-0.100000)"
fill="#000000" stroke="none">
<path d="M778 1280 c-37 0 -48 -4 -48 -16 0 -8 13 -20 29 -25 15 -5 33 -20 39
-32 6 -12 13 -35 17 -52 3 -16 10 -46 14 -66 4 -21 4 -44 -1 -53 -5 -9 -18
-16 -29 -16 -11 0 -30 -11 -42 -24 -12 -13 -32 -26 -44 -30 -11 -4 -27 -13
-33 -21 -7 -8 -21 -15 -32 -15 -11 0 -47 -27 -80 -60 -34 -33 -67 -60 -75 -60
-8 0 -31 16 -51 36 -32 31 -42 35 -74 31 -21 -3 -59 -15 -84 -28 -47 -22 -47
-22 -65 2 -17 23 -18 23 -37 6 -11 -10 -27 -38 -37 -63 -9 -24 -15 -51 -12
-58 4 -9 22 -12 64 -9 32 2 73 11 91 20 21 11 36 13 42 7 7 -7 7 -29 0 -65 -5
-30 -18 -61 -28 -69 -9 -8 -23 -28 -30 -43 -7 -16 -21 -31 -32 -34 -13 -3 -20
-14 -20 -29 0 -17 -6 -24 -20 -24 -11 0 -23 -7 -26 -15 -3 -8 -15 -17 -25 -20
-11 -4 -28 -24 -39 -45 -11 -22 -20 -57 -20 -79 0 -29 5 -43 19 -51 16 -8 24
-4 45 23 14 17 41 49 58 70 18 20 38 37 45 37 7 0 20 -17 29 -37 10 -21 31
-53 48 -71 16 -17 36 -32 42 -32 7 0 20 10 28 22 11 15 16 45 16 90 0 36 5 79
11 95 6 15 11 58 11 94 1 62 -1 69 -31 98 -17 16 -31 37 -31 46 0 8 5 15 10
15 6 0 10 -7 10 -15 0 -12 4 -13 19 -5 11 5 37 10 59 10 22 0 45 6 52 14 6 8
21 16 32 18 12 2 25 10 29 18 4 8 10 26 13 40 3 14 20 34 37 45 18 11 50 30
72 43 22 13 50 22 61 20 16 -2 23 -14 30 -51 6 -34 5 -55 -3 -71 -9 -15 -10
-68 -6 -181 3 -88 5 -169 4 -180 0 -11 -2 -49 -3 -85 -1 -36 -8 -82 -15 -103
-7 -21 -11 -48 -8 -59 3 -12 0 -36 -8 -54 -7 -18 -11 -34 -9 -37 3 -3 7 -18 8
-33 2 -16 4 -37 5 -46 1 -12 9 -18 24 -18 16 0 28 9 37 27 8 16 15 57 17 93 2
36 5 110 8 165 2 55 6 120 9 145 3 25 4 81 4 125 -1 44 -1 94 0 110 0 17 -3
63 -9 103 -8 66 -7 75 10 93 19 21 19 21 25 1 6 -18 15 -20 99 -18 82 2 95 5
119 27 14 13 33 30 41 36 9 7 19 34 23 60 5 37 3 55 -12 83 -14 26 -26 35 -44
35 -24 0 -25 -3 -28 -61 -2 -48 -8 -66 -25 -82 -14 -13 -51 -26 -102 -35 -44
-8 -82 -13 -84 -11 -2 2 -6 25 -9 52 -4 49 -4 49 66 66 51 12 77 14 90 7 14
-7 24 -7 37 3 16 12 16 14 1 44 -10 19 -24 32 -35 32 -10 0 -32 -7 -47 -15
-16 -8 -41 -15 -55 -15 -15 0 -31 6 -37 13 -5 6 -13 44 -17 82 -6 50 -14 76
-29 92 -16 17 -32 23 -68 23z m-432 -773 c2 -2 0 -16 -4 -32 -5 -16 -13 -30
-20 -33 -7 -2 -12 4 -12 14 0 10 7 26 17 36 9 10 18 17 19 15z"/>
<path d="M458 1194 c-24 3 -62 1 -86 -3 -23 -4 -47 -12 -53 -18 -8 -8 -8 -17
0 -31 6 -11 20 -24 31 -27 14 -4 20 -15 19 -33 0 -15 -4 -36 -8 -47 -4 -11
-25 -29 -47 -40 -21 -11 -40 -29 -43 -40 -2 -11 -12 -26 -22 -33 -11 -7 -19
-20 -19 -28 0 -8 8 -14 18 -14 9 0 35 21 57 46 22 25 72 67 110 92 39 26 82
59 98 73 15 16 27 38 27 53 0 15 -8 30 -20 36 -10 6 -38 12 -62 14z"/>
<path d="M1006 715 c-44 0 -70 -4 -73 -12 -3 -7 -2 -17 1 -22 4 -6 13 -8 21
-5 8 3 30 1 49 -6 19 -6 38 -20 41 -30 3 -10 17 -26 31 -35 13 -9 22 -20 19
-25 -4 -6 -14 -10 -23 -10 -10 0 -35 -9 -56 -19 -20 -11 -50 -24 -67 -30 -16
-5 -29 -17 -29 -26 0 -14 8 -15 48 -9 26 3 60 13 75 21 15 8 32 24 36 35 8 22
8 22 13 0 5 -16 14 -22 35 -22 18 0 38 9 51 23 17 18 22 36 22 75 0 39 -5 57
-20 72 -13 13 -35 21 -62 22 -24 1 -74 2 -112 3z"/>
</g>
</svg>
