<?xml version="1.0" standalone="no"?>
<!DOCTYPE svg PUBLIC "-//W3C//DTD SVG 20010904//EN"
 "http://www.w3.org/TR/2001/REC-SVG-20010904/DTD/svg10.dtd">
<svg version="1.0" xmlns="http://www.w3.org/2000/svg"
 width="128.000000pt" height="128.000000pt" viewBox="0 0 128.000000 128.000000"
 preserveAspectRatio="xMidYMid meet">
<metadata>
Created by potrace 1.16, written by Peter Selinger 2001-2019
</metadata>
<g transform="translate(0.000000,128.000000) scale(0.100000,-0.100000)"
fill="#000000" stroke="none">
<path d="M831 1280 c-43 0 -43 0 -36 -32 4 -18 9 -90 12 -160 2 -74 0 -135 -6
-146 -5 -10 -35 -27 -65 -37 -56 -19 -56 -19 -85 15 -26 32 -30 34 -56 22 -20
-9 -25 -17 -20 -30 4 -9 10 -105 12 -212 4 -157 8 -198 21 -212 8 -10 25 -18
37 -18 13 0 28 6 34 13 6 8 29 22 51 32 32 15 42 16 55 5 8 -7 13 -20 11 -29
-3 -9 -7 -77 -10 -151 -4 -74 -9 -176 -12 -225 -5 -75 -3 -93 9 -104 9 -7 26
-11 38 -9 13 2 31 16 40 33 15 27 16 46 8 179 -5 82 -8 192 -7 245 3 96 3 96
53 103 42 6 53 4 71 -12 11 -11 28 -20 38 -20 9 0 27 11 40 23 14 14 26 42 30
68 4 24 11 64 17 89 6 25 15 63 21 85 5 22 16 52 24 67 8 14 14 37 14 50 0 12
-3 32 -6 43 -3 11 -27 33 -54 48 -26 15 -53 27 -60 27 -7 0 -28 -7 -48 -16
-21 -8 -50 -22 -65 -30 -16 -8 -38 -14 -49 -14 -19 0 -19 4 -13 103 4 56 11
106 16 112 5 5 9 16 9 25 0 9 -6 28 -12 43 -11 23 -19 27 -57 27z m211 -331
c12 1 19 -9 23 -31 3 -18 4 -59 1 -90 -3 -31 -11 -67 -20 -80 -8 -13 -18 -40
-22 -61 -5 -29 -13 -41 -32 -48 -14 -6 -44 -9 -66 -7 -36 3 -41 6 -44 29 -2
20 8 38 46 75 26 27 58 57 71 67 18 15 20 21 11 33 -7 8 -23 14 -36 14 -13 0
-24 -4 -24 -10 0 -5 -16 -10 -35 -10 -25 0 -35 4 -35 16 0 8 5 24 10 35 6 10
25 26 43 36 18 9 46 20 62 24 17 4 38 7 47 8z m-265 -90 c12 1 25 -4 28 -10 4
-5 4 -20 1 -33 -4 -18 -19 -27 -67 -41 -52 -16 -62 -17 -70 -4 -5 8 -9 21 -9
30 0 9 6 21 13 27 6 6 28 15 47 20 19 6 45 11 57 11z m-79 -139 c15 0 38 -7
50 -16 12 -8 22 -20 22 -26 0 -5 -14 -23 -31 -39 -17 -16 -40 -29 -50 -29 -16
0 -19 8 -19 55 0 53 1 55 28 55z"/>
<path d="M358 1210 c-4 0 -8 -9 -8 -19 0 -11 25 -47 55 -79 30 -33 55 -64 55
-70 0 -5 -33 -27 -72 -47 -40 -20 -85 -48 -99 -61 -14 -14 -50 -37 -80 -53
-46 -23 -54 -32 -57 -58 -2 -21 3 -35 16 -45 10 -7 21 -21 25 -31 4 -9 14 -20
24 -24 9 -4 38 1 64 10 25 9 54 17 63 17 14 0 11 -8 -13 -42 -16 -24 -43 -56
-59 -73 -16 -16 -46 -45 -66 -64 -20 -19 -36 -37 -36 -40 0 -3 -18 -17 -40
-31 -26 -16 -40 -32 -40 -45 0 -12 5 -26 12 -33 7 -7 18 -12 26 -12 7 0 31 14
53 32 21 17 39 40 39 50 0 11 7 18 19 18 11 0 31 15 46 33 14 17 33 40 41 50
7 9 23 17 34 17 18 0 20 -7 20 -65 0 -65 0 -65 -31 -65 -31 0 -31 -1 -24 -37
3 -21 11 -42 16 -48 5 -5 9 -18 9 -30 0 -11 7 -31 16 -43 8 -12 26 -22 39 -22
17 0 29 9 41 31 9 19 14 43 10 59 -3 15 -1 101 4 191 5 90 12 185 16 211 6 44
5 47 -23 61 -27 14 -32 14 -57 -2 -15 -10 -54 -26 -87 -36 -44 -14 -63 -15
-71 -7 -8 8 -4 22 16 52 14 22 33 40 41 40 9 0 42 11 73 24 32 14 86 28 120
32 61 6 63 8 89 52 27 45 27 45 -3 68 -16 13 -32 24 -36 24 -3 0 -30 16 -59
35 -30 19 -59 35 -65 35 -6 0 -19 9 -29 20 -10 11 -22 20 -27 20z"/>
<path d="M1171 280 c-6 0 -18 -16 -27 -36 -13 -27 -14 -40 -6 -57 6 -12 13
-35 14 -52 2 -16 8 -29 13 -28 6 2 11 41 13 88 2 51 -1 85 -7 85z"/>
</g>
</svg>
