<?xml version="1.0" standalone="no"?>
<!DOCTYPE svg PUBLIC "-//W3C//DTD SVG 20010904//EN"
 "http://www.w3.org/TR/2001/REC-SVG-20010904/DTD/svg10.dtd">
<svg version="1.0" xmlns="http://www.w3.org/2000/svg"
 width="128.000000pt" height="128.000000pt" viewBox="0 0 128.000000 128.000000"
 preserveAspectRatio="xMidYMid meet">
<metadata>
Created by potrace 1.16, written by Peter Selinger 2001-2019
</metadata>
<g transform="translate(0.000000,128.000000) scale(0.100000,-0.100000)"
fill="#000000" stroke="none">
<path d="M390 1262 c-14 3 -44 -2 -68 -11 -28 -10 -42 -21 -40 -31 2 -8 21
-23 43 -33 22 -11 50 -28 63 -40 12 -11 22 -28 22 -37 0 -10 -9 -29 -20 -42
-11 -14 -42 -40 -70 -58 -27 -18 -67 -36 -88 -42 -20 -5 -48 -12 -62 -15 -14
-3 -28 -11 -32 -17 -4 -6 -8 -15 -8 -19 0 -4 13 -13 30 -18 17 -6 30 -17 30
-23 0 -7 19 -20 41 -29 27 -11 47 -13 58 -8 9 5 29 23 45 40 17 17 38 31 48
31 16 0 18 -9 18 -65 0 -58 -3 -66 -25 -81 -13 -9 -27 -24 -30 -33 -3 -11 -44
-34 -103 -59 -53 -23 -124 -49 -157 -57 -33 -9 -63 -19 -67 -23 -4 -4 -5 -24
-2 -44 4 -24 14 -39 29 -46 12 -6 42 -8 66 -6 24 3 54 7 67 10 12 2 27 16 32
29 8 20 17 25 43 25 19 0 46 9 60 20 14 11 35 20 46 20 19 0 21 -6 21 -53 0
-50 -2 -55 -44 -90 -25 -20 -47 -45 -51 -54 -3 -10 -28 -29 -55 -42 -26 -13
-71 -44 -98 -70 -43 -40 -48 -49 -39 -69 6 -12 16 -22 22 -22 7 0 16 -7 19
-16 5 -13 15 -15 49 -10 23 3 47 3 52 -2 6 -4 21 -21 33 -39 12 -17 22 -40 22
-50 0 -11 16 -31 36 -45 30 -22 41 -25 67 -17 17 5 34 12 39 17 4 4 8 30 9 58
1 28 -1 55 -4 61 -4 6 -2 50 4 99 6 49 12 139 13 199 2 61 6 129 11 153 6 31
16 50 40 68 17 13 39 24 48 24 10 0 17 -8 17 -18 0 -11 -11 -24 -25 -30 -15
-7 -25 -20 -25 -32 0 -11 5 -20 11 -20 6 0 24 14 40 31 16 17 29 36 29 43 0 7
-5 17 -11 23 -9 9 -8 18 5 37 9 14 16 36 16 49 0 14 -7 31 -16 38 -10 8 -36
12 -64 11 -46 -2 -48 -1 -54 29 -3 19 -1 38 5 45 6 8 20 14 29 14 10 0 31 11
47 24 15 13 37 26 48 30 11 3 35 18 53 34 25 22 32 35 32 64 0 27 -5 37 -19
41 -10 2 -25 17 -32 33 -10 20 -23 30 -42 32 -18 2 -27 -1 -27 -11 0 -8 7 -20
15 -27 8 -7 15 -17 15 -22 0 -6 -21 -29 -47 -52 -26 -22 -52 -41 -57 -41 -6 0
-12 24 -13 55 -1 30 -3 71 -5 91 -2 20 -10 44 -18 53 -7 10 -20 21 -29 25 -9
5 -27 10 -41 13z m69 -482 c15 0 21 -6 21 -21 0 -14 -5 -19 -17 -17 -10 2 -19
11 -21 21 -2 12 3 17 17 17z m-112 -490 c7 0 17 -9 23 -19 5 -11 10 -35 10
-53 0 -19 -5 -39 -12 -46 -7 -7 -23 -12 -35 -12 -13 0 -35 11 -48 25 -14 13
-25 30 -25 38 0 8 17 26 37 40 21 15 43 27 50 27z"/>
<path d="M970 1239 c-3 0 -23 -8 -45 -19 -22 -10 -62 -23 -90 -29 -27 -7 -54
-17 -60 -22 -7 -7 0 -19 19 -36 26 -22 35 -24 85 -18 31 3 64 8 74 11 10 3 20
-1 23 -9 3 -8 -4 -34 -16 -57 -11 -22 -29 -44 -38 -47 -9 -4 -22 -14 -29 -22
-10 -14 -13 -14 -31 3 -18 16 -24 16 -48 4 -15 -7 -32 -21 -38 -30 -8 -13 -6
-25 7 -47 9 -16 17 -36 17 -45 0 -9 -19 -28 -43 -42 -24 -15 -53 -44 -65 -65
-12 -21 -22 -49 -22 -62 0 -14 7 -30 16 -37 8 -8 28 -13 44 -13 17 0 44 12 65
29 21 16 58 44 83 62 26 17 54 32 63 32 9 0 30 -7 47 -16 18 -8 32 -19 32 -23
0 -4 -26 -20 -57 -35 -32 -15 -84 -41 -115 -59 -31 -18 -68 -43 -82 -56 -21
-20 -26 -34 -26 -77 0 -30 5 -56 13 -62 9 -8 20 -7 37 3 14 8 32 17 41 21 8 3
23 19 33 35 9 16 25 33 36 39 10 5 25 8 32 5 8 -3 14 -26 16 -62 2 -36 -3 -63
-12 -78 -8 -12 -29 -25 -47 -29 -18 -3 -43 -16 -56 -28 -15 -14 -23 -33 -23
-54 0 -18 7 -40 16 -48 8 -9 24 -16 33 -16 10 0 24 -6 31 -14 6 -8 11 -23 10
-33 -1 -10 -2 -33 -1 -50 1 -26 6 -34 25 -39 14 -3 32 -16 40 -29 14 -21 21
-23 73 -18 32 3 83 0 113 -5 40 -8 66 -7 93 1 32 10 37 16 37 43 0 26 -6 34
-30 44 -17 7 -37 21 -44 31 -11 17 -20 18 -92 10 -43 -5 -81 -8 -85 -6 -3 2
-7 37 -8 77 -2 40 -3 85 -2 101 0 15 1 39 2 55 0 15 -1 55 -3 88 -5 62 -5 62
85 75 49 7 96 19 103 27 8 7 14 30 14 50 -1 23 -9 47 -23 64 -12 15 -34 31
-50 37 -27 10 -27 11 -13 45 9 21 12 50 9 74 -5 35 -2 41 16 47 13 4 21 13 19
23 -2 10 -14 18 -26 20 -13 2 -30 -2 -37 -8 -12 -10 -16 -9 -21 3 -3 9 -12 18
-20 21 -9 3 -39 -9 -67 -27 -29 -18 -64 -38 -79 -45 -25 -10 -28 -10 -28 7 0
12 14 26 38 38 29 15 40 29 51 64 7 24 32 68 54 97 35 46 39 57 31 79 -7 19
-21 29 -54 39 -25 8 -47 13 -50 13z m132 -540 c10 1 22 -9 29 -20 9 -18 8 -24
-7 -33 -11 -6 -32 -16 -49 -23 -16 -6 -42 -12 -57 -12 -20 -1 -28 4 -28 17 0
10 20 28 48 44 26 15 55 27 64 27z"/>
</g>
</svg>
