<?xml version="1.0" standalone="no"?>
<!DOCTYPE svg PUBLIC "-//W3C//DTD SVG 20010904//EN"
 "http://www.w3.org/TR/2001/REC-SVG-20010904/DTD/svg10.dtd">
<svg version="1.0" xmlns="http://www.w3.org/2000/svg"
 width="128.000000pt" height="128.000000pt" viewBox="0 0 128.000000 128.000000"
 preserveAspectRatio="xMidYMid meet">
<metadata>
Created by potrace 1.16, written by Peter Selinger 2001-2019
</metadata>
<g transform="translate(0.000000,128.000000) scale(0.100000,-0.100000)"
fill="#000000" stroke="none">
<path d="M857 1280 c-45 0 -57 -4 -78 -27 -13 -16 -34 -42 -47 -60 -12 -18
-22 -38 -22 -46 0 -7 -13 -26 -29 -41 -16 -15 -32 -28 -35 -27 -3 1 -35 1 -71
1 -51 0 -65 -3 -65 -15 0 -12 13 -15 60 -15 44 0 62 -4 66 -15 3 -8 -6 -40
-20 -72 -15 -31 -37 -71 -50 -88 -18 -23 -22 -35 -15 -48 6 -11 22 -17 43 -17
19 0 39 7 46 15 6 8 10 20 7 27 -2 7 2 21 10 30 11 12 12 21 4 36 -6 12 -8 28
-5 37 5 12 9 13 21 3 11 -9 16 -9 24 3 5 8 12 24 15 37 4 12 1 29 -6 37 -11
13 -4 14 56 10 37 -3 72 -9 76 -13 4 -4 3 -25 -3 -46 -6 -21 -7 -41 -4 -44 4
-4 26 14 48 41 35 40 48 47 78 47 23 0 48 10 76 30 22 17 43 39 46 50 4 14 -2
25 -16 35 -12 8 -40 21 -62 30 -22 9 -52 29 -67 43 -16 14 -28 34 -28 44 0 15
-8 18 -53 18z m-47 -80 c15 0 33 -7 40 -15 7 -8 10 -25 6 -40 -4 -17 -13 -25
-29 -25 -12 0 -41 -11 -64 -24 -23 -13 -44 -22 -47 -19 -3 3 6 26 20 52 15 25
31 52 36 59 6 6 23 12 38 12z"/>
<path d="M249 1180 c-10 0 -21 -5 -24 -11 -4 -5 10 -27 32 -49 21 -21 46 -47
56 -57 9 -11 17 -24 17 -30 0 -6 -28 -29 -62 -52 -33 -22 -64 -41 -67 -41 -3
0 -16 -15 -28 -33 -20 -29 -22 -42 -19 -132 2 -55 -2 -143 -10 -196 -7 -53
-18 -109 -25 -125 -6 -16 -13 -81 -16 -145 -4 -88 -2 -134 11 -195 10 -43 20
-87 22 -96 4 -14 16 -18 57 -18 33 0 61 6 77 18 14 9 37 28 51 42 14 14 33 39
41 55 9 17 19 75 22 129 4 55 13 111 20 125 7 14 14 42 14 61 0 19 -4 40 -9
46 -6 8 -6 36 1 80 6 38 15 73 21 78 5 6 9 26 9 46 0 19 9 60 20 90 11 30 20
58 20 62 0 5 -6 8 -13 8 -6 0 -18 -13 -25 -29 -7 -16 -24 -80 -38 -143 -14
-62 -29 -131 -34 -153 -5 -22 -21 -85 -35 -140 -14 -55 -31 -112 -37 -126 -6
-14 -26 -36 -43 -48 -17 -11 -38 -21 -47 -21 -11 0 -17 14 -22 54 -5 39 -1 77
14 142 12 49 32 113 45 144 12 30 25 71 29 91 5 26 1 50 -13 83 -11 25 -29 58
-40 73 -11 16 -23 44 -26 64 -6 30 -3 40 17 59 12 12 41 30 63 41 23 11 68 23
100 27 60 7 60 7 63 60 2 31 -2 60 -9 68 -6 8 -20 14 -30 14 -10 0 -22 6 -26
13 -4 7 -30 25 -57 40 -27 15 -57 27 -67 27z m-14 -1030 c7 0 18 -6 22 -13 4
-8 16 -17 26 -20 10 -4 15 -11 12 -17 -3 -5 -13 -10 -22 -10 -9 0 -25 7 -35
17 -10 9 -18 22 -18 30 0 7 7 13 15 13z m-5 -70 c5 0 11 -4 15 -9 3 -5 1 -12
-5 -16 -5 -3 -15 -3 -20 0 -6 4 -8 11 -5 16 4 5 10 9 15 9z"/>
<path d="M790 920 c-5 0 -11 -4 -15 -9 -3 -5 -1 -12 5 -16 5 -3 15 -3 20 0 6
4 8 11 5 16 -4 5 -10 9 -15 9z"/>
<path d="M1013 910 c-10 -1 -36 -10 -58 -22 -22 -12 -71 -34 -110 -50 -38 -16
-75 -26 -83 -23 -8 3 -11 12 -7 25 4 11 2 20 -4 20 -6 0 -29 -12 -50 -27 -22
-16 -40 -33 -41 -40 0 -6 6 -13 13 -16 6 -2 8 -8 4 -13 -4 -5 -12 -2 -17 6 -7
11 -20 5 -66 -30 -35 -27 -60 -56 -65 -72 -5 -20 -2 -34 12 -52 10 -13 19 -36
19 -51 0 -15 -4 -55 -10 -89 -5 -33 -14 -93 -20 -132 -7 -49 -6 -98 1 -155 5
-46 15 -89 21 -96 8 -10 16 -8 35 13 13 15 33 43 44 63 16 29 19 47 13 97 -5
50 -3 63 10 71 8 4 29 42 47 83 17 41 32 95 34 120 2 25 4 55 4 68 1 16 7 22
24 22 13 0 28 -5 35 -12 7 -7 12 -40 12 -77 0 -36 -5 -116 -11 -178 -6 -62 -8
-123 -5 -136 3 -12 34 -51 68 -88 35 -36 77 -82 95 -103 31 -37 34 -38 80 -31
26 4 60 13 74 21 15 7 29 21 33 30 4 9 9 76 12 148 2 72 9 183 14 246 4 63 11
129 14 145 6 27 5 27 -4 7 -5 -13 -14 -20 -20 -17 -5 3 -10 13 -10 21 0 8 7
17 15 20 8 4 15 14 15 24 0 9 -9 25 -21 36 -17 15 -34 18 -83 16 -33 -1 -88
-3 -121 -5 -60 -2 -60 -2 -63 29 -3 29 -6 32 -34 30 -17 0 -33 4 -35 10 -2 7
8 15 22 18 14 4 31 3 38 -1 7 -4 48 -8 91 -10 71 -1 83 1 113 24 18 14 33 34
33 45 0 10 -8 21 -17 25 -10 3 -30 15 -45 25 -14 10 -34 18 -45 18z m-256
-147 c10 -3 24 -10 31 -16 6 -5 12 -22 12 -37 0 -19 -9 -36 -25 -48 -14 -11
-48 -23 -75 -27 -27 -4 -54 -13 -61 -21 -6 -7 -15 -11 -20 -8 -5 3 -9 15 -9
27 0 13 9 26 23 32 12 6 21 18 21 28 -1 12 6 17 25 17 18 0 31 9 43 30 12 22
22 28 35 23z m159 -113 c17 0 37 -7 44 -15 11 -13 11 -23 1 -53 -7 -20 -19
-58 -26 -85 -11 -35 -11 -55 -3 -80 6 -17 19 -41 29 -53 11 -11 19 -27 19 -35
0 -8 -15 -30 -34 -48 -20 -19 -42 -31 -52 -29 -17 3 -19 14 -19 98 0 52 -4
101 -8 107 -4 7 -4 21 1 30 5 10 12 42 16 70 6 45 4 52 -9 47 -9 -4 -15 -1
-15 8 0 8 5 19 12 26 7 7 26 12 44 12z m121 -12 c14 -3 17 -14 15 -73 -1 -39
-5 -89 -8 -112 -4 -26 -12 -43 -20 -43 -7 0 -18 8 -23 18 -6 10 -12 51 -15 90
-4 45 -2 72 4 72 6 0 15 12 20 26 6 16 16 24 27 22z m-386 -58 c5 0 13 -8 18
-18 6 -11 6 -36 0 -66 -5 -26 -6 -59 -3 -71 4 -17 0 -26 -16 -35 -12 -6 -24
-10 -26 -7 -2 2 -7 38 -10 80 -6 66 -4 80 11 97 10 11 22 20 26 20z m442 -29
c5 -5 7 -17 3 -27 -4 -12 -10 -14 -17 -7 -5 5 -7 17 -3 27 4 12 10 14 17 7z
m-88 -274 c11 -1 24 -13 29 -29 6 -17 6 -42 0 -65 -6 -27 -15 -39 -29 -40 -11
-2 -38 13 -60 33 -40 36 -40 36 -15 54 14 11 32 26 40 34 8 8 24 14 35 13z"/>
</g>
</svg>
