<?xml version="1.0" standalone="no"?>
<!DOCTYPE svg PUBLIC "-//W3C//DTD SVG 20010904//EN"
 "http://www.w3.org/TR/2001/REC-SVG-20010904/DTD/svg10.dtd">
<svg version="1.0" xmlns="http://www.w3.org/2000/svg"
 width="128.000000pt" height="128.000000pt" viewBox="0 0 128.000000 128.000000"
 preserveAspectRatio="xMidYMid meet">
<metadata>
Created by potrace 1.16, written by Peter Selinger 2001-2019
</metadata>
<g transform="translate(0.000000,128.000000) scale(0.100000,-0.100000)"
fill="#000000" stroke="none">
<path d="M627 1260 c-13 0 -26 -3 -30 -6 -3 -4 3 -23 15 -43 21 -37 21 -37 -6
-79 -15 -24 -42 -50 -62 -59 -28 -14 -41 -29 -54 -64 -10 -25 -20 -61 -22 -79
-3 -34 -2 -35 44 -41 26 -4 52 -11 59 -15 8 -5 10 -30 6 -84 -4 -45 -2 -81 4
-87 6 -6 4 -21 -7 -42 -10 -19 -14 -43 -10 -59 3 -15 7 -60 9 -99 2 -54 -1
-74 -11 -78 -9 -3 -13 -20 -11 -52 1 -27 -4 -61 -10 -76 -7 -18 -9 -54 -5 -96
4 -44 2 -75 -5 -89 -6 -12 -17 -22 -23 -22 -5 0 -26 14 -45 31 -20 17 -54 39
-77 49 -22 11 -58 22 -78 25 -20 3 -47 14 -60 25 -15 12 -20 22 -13 29 6 5 33
12 60 15 28 4 64 9 80 12 17 3 38 13 48 22 9 8 17 27 17 42 0 14 -5 31 -11 37
-8 8 -18 8 -35 1 -23 -11 -23 -12 -7 -30 9 -10 13 -21 10 -24 -4 -4 -13 -1
-22 6 -8 7 -15 25 -15 41 0 22 5 29 20 29 11 0 20 5 20 11 0 6 -13 23 -28 37
-16 15 -36 52 -46 82 -10 30 -22 60 -26 65 -5 6 -9 51 -11 100 -1 50 1 110 5
135 7 40 5 48 -17 68 -17 16 -34 22 -53 20 -21 -2 -30 -9 -32 -26 -2 -13 2
-30 10 -39 8 -10 14 -49 16 -102 1 -47 7 -124 13 -171 5 -47 19 -115 30 -151
10 -36 19 -72 19 -81 0 -10 -13 -17 -36 -21 -20 -3 -51 -18 -69 -32 -19 -14
-37 -35 -41 -47 -3 -13 -13 -31 -22 -40 -11 -13 -12 -21 -4 -31 7 -8 44 -19
84 -26 40 -7 93 -19 117 -27 24 -8 56 -24 72 -34 15 -11 30 -20 34 -20 3 0 27
-9 53 -21 26 -12 61 -28 79 -36 28 -13 35 -13 62 2 23 11 36 13 51 5 13 -7 71
-7 187 0 92 6 188 8 213 5 37 -5 51 -2 73 15 18 14 27 31 27 49 0 20 -7 31
-24 39 -14 6 -52 9 -88 6 -34 -2 -85 -11 -113 -19 -27 -8 -105 -22 -173 -31
-71 -9 -127 -13 -132 -8 -5 5 -5 28 1 53 5 24 7 51 4 61 -3 9 1 23 9 29 8 7
66 19 130 28 103 15 121 15 169 2 29 -9 59 -13 65 -11 7 2 12 14 12 27 0 15
-9 29 -24 37 -13 7 -45 28 -71 46 -25 18 -51 30 -56 26 -5 -3 -8 -13 -7 -22 2
-11 -4 -17 -17 -17 -17 0 -20 6 -18 35 1 19 3 56 4 83 1 26 5 47 9 47 4 0 13
-7 20 -15 9 -11 10 -18 1 -29 -6 -7 -9 -21 -5 -30 3 -9 11 -16 17 -16 6 0 26
10 44 23 18 12 33 30 33 40 0 10 -10 28 -23 41 -13 13 -29 25 -36 27 -11 4
-10 14 3 52 15 44 15 48 -5 81 -11 20 -18 40 -14 45 3 6 21 18 39 26 18 9 43
25 55 36 11 11 21 27 21 35 0 8 -16 22 -36 30 -23 10 -47 13 -63 8 -14 -4 -30
-6 -34 -5 -5 1 -33 -12 -62 -28 -34 -19 -73 -31 -102 -33 -43 -3 -48 -1 -51
20 -2 12 -8 22 -13 22 -5 0 -9 8 -9 19 0 10 6 23 13 29 6 5 56 10 111 10 76 1
102 4 116 17 10 9 25 30 33 47 8 17 13 37 11 43 -3 7 -16 17 -30 24 -20 9 -31
8 -57 -5 -18 -10 -38 -25 -45 -35 -7 -11 -24 -19 -38 -19 -14 0 -39 -7 -56
-16 -17 -9 -34 -12 -39 -7 -4 4 -15 22 -23 38 -15 28 -14 31 3 45 11 8 33 41
50 73 17 31 31 70 31 86 0 16 -10 39 -25 55 -13 14 -35 26 -48 26z m-82 -290
c9 0 15 -5 13 -11 -2 -6 -8 -10 -13 -10 -5 0 -11 4 -13 10 -2 6 4 11 13 11z
m206 -252 c9 -4 19 -21 21 -38 3 -17 0 -38 -7 -46 -6 -9 -33 -18 -59 -21 -35
-4 -50 -2 -57 8 -5 8 -9 31 -9 51 0 31 4 38 23 43 12 2 33 6 47 8 14 2 32 0
41 -5z m-71 -133 c8 -2 30 -6 48 -10 22 -5 32 -12 32 -25 0 -10 -8 -25 -17
-32 -10 -7 -23 -22 -29 -32 -6 -11 -18 -24 -26 -30 -12 -7 -21 -6 -32 3 -11 9
-16 30 -16 66 0 33 5 55 13 58 6 3 19 4 27 2z m-84 -155 c3 0 20 -6 37 -14 18
-7 44 -18 60 -24 15 -7 27 -19 27 -30 0 -10 -13 -31 -29 -46 -18 -17 -36 -26
-45 -23 -10 4 -16 19 -16 38 0 17 -9 42 -20 56 -11 14 -20 30 -20 34 0 5 3 9
6 9z"/>
<path d="M1155 1186 c-5 1 -21 -2 -34 -7 -17 -7 -21 -13 -14 -20 6 -6 21 -9
34 -7 13 1 24 9 24 17 0 8 -4 16 -10 17z"/>
<path d="M1155 1087 c-6 2 -15 -11 -20 -29 -8 -23 -23 -38 -60 -58 -27 -15
-52 -35 -53 -45 -3 -15 1 -17 22 -11 17 4 40 0 66 -13 37 -18 41 -18 48 -3 4
10 7 48 7 86 0 39 -5 71 -10 73z"/>
<path d="M1154 457 c-5 2 -13 0 -17 -3 -4 -4 -7 -14 -7 -23 0 -9 -9 -27 -20
-41 -15 -19 -20 -41 -20 -92 0 -48 4 -68 13 -68 6 0 22 23 35 51 13 31 23 75
25 112 1 35 -2 61 -9 64z"/>
</g>
</svg>
