<?xml version="1.0" standalone="no"?>
<!DOCTYPE svg PUBLIC "-//W3C//DTD SVG 20010904//EN"
 "http://www.w3.org/TR/2001/REC-SVG-20010904/DTD/svg10.dtd">
<svg version="1.0" xmlns="http://www.w3.org/2000/svg"
 width="128.000000pt" height="128.000000pt" viewBox="0 0 128.000000 128.000000"
 preserveAspectRatio="xMidYMid meet">
<metadata>
Created by potrace 1.16, written by Peter Selinger 2001-2019
</metadata>
<g transform="translate(0.000000,128.000000) scale(0.100000,-0.100000)"
fill="#000000" stroke="none">
<path d="M540 1254 c-45 1 -84 -3 -87 -8 -4 -5 8 -21 26 -35 17 -14 31 -31 31
-38 0 -6 -15 -20 -32 -31 -18 -11 -46 -24 -63 -28 -16 -4 -47 -18 -67 -31 -21
-13 -38 -30 -38 -38 0 -8 17 -23 39 -34 21 -11 53 -32 71 -48 33 -27 33 -27
26 -182 -4 -86 -9 -178 -11 -206 -2 -27 -6 -101 -10 -162 -7 -112 -7 -112 19
-124 24 -11 29 -9 56 18 24 25 43 32 102 42 47 7 130 9 230 6 108 -4 158 -3
163 5 4 6 0 21 -8 33 -8 12 -26 29 -41 36 -22 12 -35 12 -93 -1 -38 -9 -88
-17 -113 -17 -25 -1 -81 -4 -124 -7 -70 -6 -81 -4 -93 12 -7 10 -13 39 -13 65
0 26 4 50 8 53 5 3 39 8 76 12 53 5 70 4 77 -7 5 -8 9 -26 9 -41 0 -14 3 -33
6 -42 3 -9 12 -16 19 -16 8 0 21 7 30 16 8 9 13 24 11 33 -3 9 -2 22 3 29 4 8
40 22 80 32 39 11 76 22 81 25 6 3 10 15 10 25 0 11 -9 24 -19 30 -11 5 -40 7
-65 4 -37 -5 -51 -3 -66 11 -11 10 -20 26 -20 35 0 10 7 23 15 30 8 6 37 13
65 14 28 1 56 8 63 15 9 9 8 18 -4 39 -14 24 -20 27 -60 24 -35 -2 -50 2 -63
17 -11 12 -16 31 -14 53 3 33 3 33 67 40 35 4 66 10 69 13 3 3 -2 5 -10 5 -9
0 -18 10 -21 21 -5 17 -11 20 -29 15 -13 -3 -40 -9 -60 -12 -33 -6 -38 -4 -38
12 0 11 14 52 30 93 30 74 30 74 8 98 -19 20 -30 24 -72 21 -49 -3 -50 -3 -57
30 -4 18 -9 35 -12 38 -3 3 -42 7 -87 8z m96 -114 c14 0 27 -7 31 -16 3 -9 -1
-40 -10 -68 -9 -28 -18 -67 -19 -86 -3 -31 -6 -35 -42 -42 -25 -5 -43 -5 -50
2 -6 6 -16 36 -23 68 -6 31 -12 63 -12 69 -1 7 19 22 44 34 25 12 48 25 51 30
3 5 16 9 30 9z m19 -263 c17 -2 20 -9 20 -46 0 -41 -2 -45 -35 -56 -20 -7 -50
-16 -67 -19 -25 -6 -36 -3 -52 13 -14 14 -21 34 -21 62 0 41 0 41 38 35 20 -4
51 -2 67 3 17 5 39 9 50 8z m7 -158 c4 0 11 -7 16 -16 4 -10 6 -34 3 -52 -4
-25 -15 -40 -36 -52 -23 -14 -40 -16 -74 -9 -24 4 -47 14 -52 21 -5 8 -9 28
-9 46 0 17 5 35 10 38 6 3 38 10 73 14 34 5 65 9 69 10z"/>
<path d="M138 980 c-10 0 -21 -7 -25 -16 -3 -8 3 -25 14 -37 11 -12 30 -39 42
-60 23 -37 23 -39 6 -85 -9 -26 -16 -58 -16 -72 0 -14 5 -43 12 -66 8 -30 8
-55 -1 -95 -6 -30 -11 -72 -11 -94 0 -22 3 -52 6 -67 5 -20 0 -40 -20 -75 -16
-27 -39 -59 -52 -72 -13 -14 -23 -34 -21 -45 3 -19 12 -21 113 -27 61 -3 130
-12 155 -21 25 -8 70 -22 100 -31 30 -8 75 -18 100 -22 25 -3 74 -15 110 -25
36 -10 113 -30 171 -44 59 -14 121 -26 138 -26 17 0 60 12 94 26 34 14 79 33
100 42 24 10 37 22 37 35 0 10 -5 27 -10 38 -10 17 -18 19 -78 13 -37 -3 -128
-5 -202 -5 -74 1 -151 7 -170 13 -19 6 -46 12 -60 14 -14 1 -43 7 -65 12 -22
5 -76 19 -120 31 -43 11 -88 18 -98 15 -11 -3 -43 -3 -72 1 -29 3 -60 12 -70
19 -16 11 -15 15 10 52 21 31 25 46 21 74 -4 19 -8 90 -9 157 -2 68 -6 126
-10 130 -4 3 -7 14 -7 22 0 9 9 33 20 53 11 21 22 55 26 76 4 23 1 48 -6 61
-6 12 -30 30 -53 40 -23 10 -51 28 -61 40 -11 11 -28 21 -38 21z"/>
</g>
</svg>
