<?xml version="1.0" standalone="no"?>
<!DOCTYPE svg PUBLIC "-//W3C//DTD SVG 20010904//EN"
 "http://www.w3.org/TR/2001/REC-SVG-20010904/DTD/svg10.dtd">
<svg version="1.0" xmlns="http://www.w3.org/2000/svg"
 width="128.000000pt" height="128.000000pt" viewBox="0 0 128.000000 128.000000"
 preserveAspectRatio="xMidYMid meet">
<metadata>
Created by potrace 1.16, written by Peter Selinger 2001-2019
</metadata>
<g transform="translate(0.000000,128.000000) scale(0.100000,-0.100000)"
fill="#000000" stroke="none">
<path d="M622 1280 c-9 0 -23 -9 -30 -20 -10 -16 -10 -20 2 -20 7 0 19 -7 26
-15 11 -13 11 -31 0 -98 -7 -45 -17 -111 -22 -147 -5 -36 -10 -72 -10 -81 1
-10 -10 -19 -28 -22 -15 -4 -40 -18 -55 -32 -16 -14 -33 -25 -39 -25 -7 0 -17
5 -23 11 -8 8 -7 21 4 46 8 19 13 47 11 62 -2 19 -13 31 -42 44 -24 12 -48 16
-67 12 -16 -4 -32 -11 -35 -17 -4 -6 4 -21 18 -32 19 -16 27 -34 32 -74 6 -47
4 -55 -14 -70 -21 -17 -21 -17 2 -52 13 -19 33 -36 45 -38 14 -2 44 15 84 47
35 28 69 51 76 51 9 0 13 -19 13 -70 0 -68 -1 -70 -25 -70 -13 0 -28 -6 -32
-12 -4 -7 -28 -30 -53 -51 -25 -21 -60 -51 -78 -65 -17 -15 -44 -37 -58 -50
-25 -23 -25 -23 5 -51 17 -16 31 -34 31 -39 0 -6 18 -32 40 -57 22 -25 40 -50
40 -54 0 -4 -14 -17 -30 -30 -17 -12 -35 -19 -40 -16 -5 3 -12 0 -15 -6 -4 -5
0 -16 9 -22 9 -7 22 -24 29 -37 12 -24 16 -25 90 -22 42 2 77 0 77 -5 0 -4
-35 -40 -77 -80 -78 -72 -78 -72 -29 -73 45 0 54 4 108 51 33 28 81 62 107 75
36 17 52 31 60 54 9 28 8 34 -13 55 -14 13 -36 27 -50 31 -15 3 -40 1 -56 -6
-16 -6 -34 -9 -40 -5 -6 4 -8 16 -4 28 3 12 14 38 24 57 9 19 34 66 54 103 20
38 36 81 36 96 0 16 -11 49 -25 75 -23 44 -24 52 -15 114 5 37 11 90 12 117 2
40 6 49 19 47 9 -1 57 11 107 28 49 16 99 30 109 30 11 0 32 13 48 30 22 23
26 32 17 43 -7 8 -31 19 -54 27 -24 7 -54 20 -68 30 -14 10 -45 25 -70 33 -45
15 -45 15 -42 67 2 30 -1 57 -8 66 -7 7 -25 14 -41 14 -16 0 -29 5 -29 10 0 6
-8 10 -18 10z m92 -187 c7 -4 25 -22 40 -39 14 -18 26 -36 26 -42 0 -5 -11
-17 -24 -25 -13 -9 -35 -19 -49 -22 -16 -5 -26 -2 -30 8 -3 8 -1 34 5 58 5 24
12 50 14 57 2 8 9 10 18 5z m-176 -534 c7 1 15 -6 19 -15 3 -8 1 -20 -6 -27
-6 -6 -11 -25 -11 -41 0 -17 -9 -46 -20 -63 -11 -18 -26 -33 -33 -33 -7 0 -23
7 -35 16 -12 8 -22 24 -22 36 0 11 21 44 48 73 26 30 53 54 60 54z"/>
<path d="M971 474 c-4 3 -16 0 -26 -7 -9 -8 -16 -22 -13 -33 2 -11 13 -20 26
-22 19 -3 22 1 22 27 0 16 -4 32 -9 35z"/>
</g>
</svg>
