<?xml version="1.0" standalone="no"?>
<!DOCTYPE svg PUBLIC "-//W3C//DTD SVG 20010904//EN"
 "http://www.w3.org/TR/2001/REC-SVG-20010904/DTD/svg10.dtd">
<svg version="1.0" xmlns="http://www.w3.org/2000/svg"
 width="128.000000pt" height="128.000000pt" viewBox="0 0 128.000000 128.000000"
 preserveAspectRatio="xMidYMid meet">
<metadata>
Created by potrace 1.16, written by Peter Selinger 2001-2019
</metadata>
<g transform="translate(0.000000,128.000000) scale(0.100000,-0.100000)"
fill="#000000" stroke="none">
<path d="M696 1260 c-6 0 -22 -7 -34 -16 -12 -8 -22 -21 -22 -28 0 -7 11 -29
24 -48 23 -34 23 -39 15 -144 -4 -60 -8 -121 -8 -135 -1 -19 -11 -31 -41 -48
-22 -12 -43 -29 -48 -37 -6 -10 -20 -14 -43 -12 -33 3 -34 5 -37 48 -2 32 -11
53 -30 73 -14 15 -33 27 -43 27 -9 0 -33 -7 -53 -15 -20 -8 -36 -21 -36 -29 0
-8 7 -17 16 -20 9 -3 28 -6 44 -6 20 0 31 -6 35 -21 4 -13 1 -27 -10 -39 -9
-10 -15 -30 -13 -46 2 -20 11 -30 33 -37 17 -5 37 -15 45 -22 8 -7 24 -15 36
-19 15 -4 32 3 59 24 21 17 43 29 49 27 6 -2 12 -24 14 -48 3 -38 -2 -49 -30
-81 -18 -20 -43 -39 -55 -42 -12 -4 -34 -21 -48 -38 -17 -20 -25 -40 -23 -56
2 -17 16 -35 40 -52 21 -14 45 -35 54 -48 15 -21 14 -25 -15 -61 -25 -32 -31
-48 -31 -90 0 -41 4 -52 21 -62 17 -8 31 -8 60 1 20 7 49 10 63 6 14 -3 26
-10 26 -15 0 -5 -19 -27 -42 -50 -24 -22 -48 -41 -54 -41 -5 0 -23 -14 -40
-31 -29 -32 -29 -32 10 -26 23 4 52 18 70 35 17 15 48 36 69 45 21 9 44 17 51
17 7 0 34 9 60 20 38 17 46 26 46 47 0 16 -12 37 -34 58 -27 25 -51 36 -101
46 -36 7 -71 19 -77 26 -8 10 4 27 48 74 33 33 68 70 79 80 16 16 17 23 7 39
-10 17 -8 22 13 36 24 16 24 16 -1 65 -14 29 -35 54 -48 59 -13 5 -31 19 -40
32 -9 12 -16 30 -16 40 0 9 5 29 12 43 7 16 39 40 89 67 43 22 90 51 106 64
28 23 28 23 -12 58 -22 20 -44 35 -49 36 -4 0 -22 -11 -38 -25 -16 -14 -34
-23 -39 -19 -5 3 -9 26 -9 52 0 26 6 72 14 102 9 36 11 61 5 72 -5 10 -18 22
-29 28 -11 6 -20 19 -20 29 0 11 -7 22 -16 25 -9 3 -21 6 -28 6z m-64 -710 c9
0 19 -8 23 -19 3 -10 1 -30 -4 -45 -6 -14 -18 -26 -26 -26 -9 0 -25 5 -36 10
-10 6 -19 19 -19 30 0 10 10 26 22 34 12 9 30 16 40 16z"/>
</g>
</svg>
