<?xml version="1.0" standalone="no"?>
<!DOCTYPE svg PUBLIC "-//W3C//DTD SVG 20010904//EN"
 "http://www.w3.org/TR/2001/REC-SVG-20010904/DTD/svg10.dtd">
<svg version="1.0" xmlns="http://www.w3.org/2000/svg"
 width="128.000000pt" height="128.000000pt" viewBox="0 0 128.000000 128.000000"
 preserveAspectRatio="xMidYMid meet">
<metadata>
Created by potrace 1.16, written by Peter Selinger 2001-2019
</metadata>
<g transform="translate(0.000000,128.000000) scale(0.100000,-0.100000)"
fill="#000000" stroke="none">
<path d="M562 1279 c-4 -1 -22 -9 -39 -17 -18 -9 -33 -22 -33 -29 0 -8 8 -16
18 -19 9 -3 23 -9 31 -13 8 -4 23 -32 33 -62 11 -30 21 -65 23 -79 3 -14 6
-68 8 -121 4 -96 4 -96 -42 -95 -25 0 -73 -3 -106 -8 -47 -6 -64 -4 -80 7 -18
14 -19 19 -7 73 12 58 12 58 -40 111 -48 49 -56 53 -100 53 -26 0 -50 -4 -53
-10 -3 -5 1 -20 9 -32 10 -14 16 -44 16 -77 0 -29 -9 -84 -20 -121 -11 -37
-37 -101 -58 -141 -21 -41 -55 -98 -76 -127 -21 -29 -36 -59 -33 -66 5 -12 12
-12 45 4 22 11 68 50 102 87 34 37 71 84 81 103 10 19 34 52 52 72 33 37 33
37 84 1 52 -36 52 -36 111 -24 33 6 67 9 76 5 9 -3 19 -16 22 -28 2 -11 8 -63
12 -114 7 -79 5 -95 -8 -107 -9 -8 -28 -15 -41 -15 -14 0 -30 -5 -37 -12 -8
-8 -25 -7 -68 7 -52 16 -62 17 -98 4 -28 -9 -42 -21 -44 -34 -2 -13 10 -33 32
-54 31 -30 39 -33 78 -28 23 3 63 10 87 16 24 6 52 9 62 6 15 -5 19 -16 19
-53 0 -26 7 -69 16 -97 8 -28 12 -64 9 -83 -3 -19 -16 -39 -31 -48 -21 -14
-61 -17 -282 -17 -154 0 -262 -4 -269 -10 -7 -5 -13 -20 -13 -32 0 -12 7 -28
15 -35 9 -8 25 -9 47 -4 18 4 38 6 43 5 6 -2 80 -3 165 -2 85 1 178 4 205 6
28 3 99 7 158 9 59 3 111 7 115 9 4 3 16 1 27 -3 13 -5 26 -2 37 7 13 12 21
12 38 3 12 -7 56 -13 99 -13 42 -1 131 -1 199 1 122 2 122 2 121 35 0 25 -9
39 -41 65 -22 17 -51 32 -64 32 -18 0 -31 -10 -45 -35 -17 -28 -28 -35 -52
-36 -18 -1 -36 0 -42 1 -5 1 -59 4 -119 6 -59 2 -113 8 -120 13 -6 5 -29 11
-51 13 -35 3 -40 6 -48 38 -5 19 -6 57 -2 85 3 27 7 79 8 115 2 55 5 65 21 68
10 2 62 -4 114 -14 94 -18 95 -18 131 3 27 15 37 28 39 51 3 26 -2 32 -47 56
-28 14 -61 26 -74 26 -13 0 -55 -11 -93 -25 -68 -25 -69 -25 -85 -6 -12 14
-15 38 -13 97 2 44 4 88 5 99 1 11 -1 27 -5 36 -4 10 -1 23 8 32 12 12 39 15
133 13 65 -2 128 1 140 5 12 4 24 16 27 27 4 11 4 27 0 36 -3 9 -26 25 -51 36
-25 11 -62 20 -82 20 -20 0 -56 -9 -80 -20 -24 -11 -51 -20 -62 -20 -10 0 -20
4 -24 10 -3 5 -1 71 4 147 9 130 9 140 -10 170 -17 27 -28 34 -70 39 -27 4
-52 11 -55 15 -3 5 -8 8 -12 8z"/>
</g>
</svg>
