<?xml version="1.0" standalone="no"?>
<!DOCTYPE svg PUBLIC "-//W3C//DTD SVG 20010904//EN"
 "http://www.w3.org/TR/2001/REC-SVG-20010904/DTD/svg10.dtd">
<svg version="1.0" xmlns="http://www.w3.org/2000/svg"
 width="128.000000pt" height="128.000000pt" viewBox="0 0 128.000000 128.000000"
 preserveAspectRatio="xMidYMid meet">
<metadata>
Created by potrace 1.16, written by Peter Selinger 2001-2019
</metadata>
<g transform="translate(0.000000,128.000000) scale(0.100000,-0.100000)"
fill="#000000" stroke="none">
<path d="M499 1055 c-35 5 -59 4 -62 -2 -4 -6 1 -17 11 -25 9 -9 28 -18 42
-21 14 -4 40 -17 59 -29 19 -13 46 -30 60 -39 14 -9 27 -23 29 -32 2 -8 -18
-40 -45 -70 -26 -30 -71 -88 -100 -129 -28 -40 -78 -101 -110 -135 -32 -33
-84 -95 -117 -137 -32 -42 -63 -75 -70 -73 -6 2 -14 15 -18 28 -4 13 -10 41
-13 62 -4 23 -11 37 -20 37 -8 0 -21 -13 -30 -30 -8 -16 -15 -34 -15 -41 0 -7
-17 -26 -37 -44 -38 -32 -38 -32 -18 -69 11 -20 33 -42 50 -50 19 -9 50 -13
80 -11 29 2 51 10 54 17 2 7 34 45 71 83 37 39 76 86 86 105 10 19 47 65 81
102 33 36 64 76 68 88 4 12 19 34 34 48 15 15 42 50 61 77 19 28 40 59 46 70
6 11 17 20 24 20 8 0 17 -11 20 -25 4 -14 19 -45 33 -67 15 -23 39 -56 55 -75
15 -18 56 -71 89 -118 34 -47 91 -111 127 -142 63 -57 66 -58 125 -58 39 0 65
5 74 15 11 10 13 23 7 47 -4 18 -11 40 -15 50 -3 9 -21 22 -38 29 -17 7 -54
32 -82 54 -28 23 -62 49 -77 59 -14 9 -41 42 -60 73 -18 31 -57 80 -86 109
-29 30 -57 54 -62 54 -4 0 -26 29 -48 63 -29 47 -52 71 -88 92 -27 15 -65 29
-84 30 -19 1 -60 5 -91 10z"/>
<path d="M630 510 c-8 0 -26 -9 -38 -19 -24 -17 -24 -18 -8 -65 9 -26 16 -53
16 -61 0 -7 12 -36 26 -65 19 -37 23 -54 15 -64 -6 -7 -8 -16 -4 -19 3 -4 26
-7 50 -7 41 0 44 2 65 44 13 27 19 53 15 68 -4 14 -24 45 -45 69 -20 24 -46
61 -57 82 -11 20 -26 37 -35 37z"/>
</g>
</svg>
