<?xml version="1.0" standalone="no"?>
<!DOCTYPE svg PUBLIC "-//W3C//DTD SVG 20010904//EN"
 "http://www.w3.org/TR/2001/REC-SVG-20010904/DTD/svg10.dtd">
<svg version="1.0" xmlns="http://www.w3.org/2000/svg"
 width="128.000000pt" height="128.000000pt" viewBox="0 0 128.000000 128.000000"
 preserveAspectRatio="xMidYMid meet">
<metadata>
Created by potrace 1.16, written by Peter Selinger 2001-2019
</metadata>
<g transform="translate(0.000000,128.000000) scale(0.100000,-0.100000)"
fill="#000000" stroke="none">
<path d="M520 1059 c-30 0 -75 -9 -100 -19 -25 -10 -53 -21 -62 -24 -10 -3
-18 -14 -18 -24 0 -18 10 -20 123 -24 69 -2 132 -9 145 -16 12 -7 22 -22 22
-33 0 -11 -22 -44 -48 -72 -27 -29 -59 -68 -73 -87 -13 -19 -35 -48 -49 -64
-14 -17 -43 -50 -65 -74 -22 -24 -50 -48 -62 -53 -14 -5 -23 -17 -23 -31 0
-13 -7 -32 -15 -43 -9 -11 -48 -53 -87 -92 -40 -40 -79 -73 -88 -73 -8 1 -24
8 -35 18 -11 9 -29 34 -38 54 -10 21 -24 38 -32 38 -8 0 -15 -2 -15 -3 0 -2 9
-39 20 -83 15 -58 28 -87 52 -111 23 -23 41 -33 63 -33 27 0 36 8 72 62 23 35
54 78 70 97 15 19 58 66 94 105 36 39 78 87 93 106 16 19 56 66 90 104 33 38
76 86 93 105 18 20 39 44 46 55 13 18 14 18 33 -1 10 -10 41 -34 67 -53 27
-19 88 -68 135 -109 48 -40 119 -104 157 -141 39 -38 87 -87 108 -109 25 -26
47 -41 63 -41 21 0 24 4 24 39 0 22 -4 41 -9 43 -5 2 -24 21 -43 44 -18 22
-57 61 -85 85 -28 24 -82 69 -119 99 -37 30 -97 82 -133 115 -36 34 -92 81
-125 105 -32 25 -88 66 -125 92 -60 42 -71 47 -121 47z"/>
<path d="M568 480 c-8 0 -18 -3 -21 -7 -4 -3 -7 -15 -7 -25 0 -10 4 -18 8 -18
4 0 21 -18 38 -40 28 -36 30 -44 24 -85 -4 -25 -3 -48 2 -51 5 -3 7 -13 6 -22
-3 -15 9 -17 81 -20 46 -2 91 0 99 3 12 5 12 9 -4 26 -15 16 -27 20 -56 16
-38 -5 -38 -5 -38 31 0 21 -11 60 -24 88 -13 28 -39 63 -58 78 -19 14 -42 26
-50 26z"/>
</g>
</svg>
