<?xml version="1.0" standalone="no"?>
<!DOCTYPE svg PUBLIC "-//W3C//DTD SVG 20010904//EN"
 "http://www.w3.org/TR/2001/REC-SVG-20010904/DTD/svg10.dtd">
<svg version="1.0" xmlns="http://www.w3.org/2000/svg"
 width="128.000000pt" height="128.000000pt" viewBox="0 0 128.000000 128.000000"
 preserveAspectRatio="xMidYMid meet">
<metadata>
Created by potrace 1.16, written by Peter Selinger 2001-2019
</metadata>
<g transform="translate(0.000000,128.000000) scale(0.100000,-0.100000)"
fill="#000000" stroke="none">
<path d="M500 1080 c-22 0 -46 -9 -64 -24 -30 -23 -30 -23 -13 -68 11 -28 27
-49 43 -57 14 -6 38 -11 55 -11 16 0 32 -6 35 -14 3 -7 -9 -40 -25 -73 -17
-33 -31 -68 -31 -77 0 -9 -20 -29 -45 -44 -24 -15 -45 -34 -45 -43 0 -9 -9
-24 -19 -33 -11 -10 -21 -28 -23 -39 -2 -12 -12 -23 -23 -25 -11 -2 -27 -10
-35 -17 -8 -6 -35 -23 -60 -36 -25 -13 -66 -42 -92 -64 -26 -22 -65 -56 -88
-75 -22 -19 -47 -38 -55 -43 -8 -4 -15 -17 -15 -27 0 -14 7 -20 22 -20 12 0
31 9 42 19 12 10 61 40 109 65 48 25 94 46 102 46 7 0 35 18 62 39 26 22 80
70 118 108 39 37 81 84 95 102 14 19 33 42 43 52 10 9 28 19 39 22 13 4 27 -3
41 -19 12 -14 37 -53 55 -87 18 -33 62 -93 97 -132 36 -38 83 -90 105 -115 22
-25 53 -63 69 -85 15 -22 39 -50 52 -62 15 -13 43 -24 69 -27 25 -3 71 -8 103
-12 57 -6 57 -6 57 20 0 19 -5 26 -20 26 -10 0 -34 13 -52 29 -18 15 -43 31
-55 35 -12 4 -30 23 -40 43 -10 21 -30 44 -45 53 -15 8 -47 38 -71 65 -24 28
-72 84 -106 125 -34 41 -76 92 -94 113 -18 20 -44 59 -58 86 -15 27 -34 59
-43 72 -9 13 -16 31 -16 40 0 9 7 22 15 29 8 7 15 25 15 41 0 15 -10 39 -22
53 -17 19 -39 28 -88 36 -36 5 -81 10 -100 10z"/>
</g>
</svg>
