<?xml version="1.0" standalone="no"?>
<!DOCTYPE svg PUBLIC "-//W3C//DTD SVG 20010904//EN"
 "http://www.w3.org/TR/2001/REC-SVG-20010904/DTD/svg10.dtd">
<svg version="1.0" xmlns="http://www.w3.org/2000/svg"
 width="128.000000pt" height="128.000000pt" viewBox="0 0 128.000000 128.000000"
 preserveAspectRatio="xMidYMid meet">
<metadata>
Created by potrace 1.16, written by Peter Selinger 2001-2019
</metadata>
<g transform="translate(0.000000,128.000000) scale(0.100000,-0.100000)"
fill="#000000" stroke="none">
<path d="M337 1120 c-21 0 -41 -8 -51 -19 -11 -12 -14 -21 -7 -25 6 -4 29 -2
51 4 23 6 40 17 40 25 0 10 -11 15 -33 15z"/>
<path d="M494 1119 c-17 1 -37 -6 -44 -13 -6 -8 -27 -20 -46 -26 -24 -8 -34
-18 -34 -32 0 -18 4 -20 39 -14 28 4 42 2 51 -9 7 -8 20 -15 30 -15 9 0 24 -8
32 -17 8 -10 27 -39 42 -64 19 -34 25 -54 20 -77 -4 -20 -34 -59 -84 -111 -43
-45 -96 -102 -117 -128 -21 -26 -78 -87 -126 -135 -49 -49 -112 -106 -142
-128 -30 -22 -62 -56 -71 -75 -9 -19 -23 -35 -30 -35 -10 0 -14 -13 -14 -40 0
-32 4 -40 18 -40 9 1 33 15 53 33 20 18 41 42 48 55 6 12 18 22 26 22 8 0 20
9 27 20 7 11 19 20 26 20 7 0 57 46 112 103 55 56 135 137 177 180 42 42 82
77 90 77 7 0 23 16 35 35 13 19 30 35 39 35 8 0 25 -10 37 -23 12 -13 22 -27
22 -31 0 -4 20 -38 44 -75 24 -37 65 -88 92 -114 27 -26 52 -50 56 -54 3 -5
54 -56 111 -116 58 -59 110 -107 116 -107 7 0 22 -12 34 -26 17 -19 36 -27 70
-31 47 -6 47 -6 47 54 0 59 -1 61 -30 66 -16 4 -40 17 -52 29 -13 13 -38 33
-56 46 -18 12 -37 22 -43 22 -5 0 -48 39 -96 87 -47 49 -92 102 -99 120 -8 18
-30 49 -50 68 -20 20 -33 39 -30 42 3 3 -9 13 -27 22 -22 11 -32 23 -33 41 -1
14 -2 31 -3 37 0 7 -17 30 -36 50 -19 20 -35 43 -35 51 0 8 -9 26 -20 41 -10
15 -28 50 -38 77 -15 38 -30 55 -63 76 -24 14 -58 27 -75 27z"/>
</g>
</svg>
