<?xml version="1.0" standalone="no"?>
<!DOCTYPE svg PUBLIC "-//W3C//DTD SVG 20010904//EN"
 "http://www.w3.org/TR/2001/REC-SVG-20010904/DTD/svg10.dtd">
<svg version="1.0" xmlns="http://www.w3.org/2000/svg"
 width="128.000000pt" height="128.000000pt" viewBox="0 0 128.000000 128.000000"
 preserveAspectRatio="xMidYMid meet">
<metadata>
Created by potrace 1.16, written by Peter Selinger 2001-2019
</metadata>
<g transform="translate(0.000000,128.000000) scale(0.100000,-0.100000)"
fill="#000000" stroke="none">
<path d="M230 1056 c-14 2 -29 2 -33 -2 -4 -4 -7 -15 -7 -24 0 -10 16 -24 39
-35 22 -10 47 -15 55 -12 8 3 29 1 48 -5 18 -6 51 -18 73 -28 22 -10 59 -34
81 -54 23 -19 44 -45 47 -56 4 -16 -6 -32 -38 -63 -24 -23 -60 -56 -82 -73
-21 -17 -58 -47 -83 -66 -25 -19 -80 -57 -122 -86 -42 -29 -80 -52 -83 -52 -4
0 -25 -13 -48 -28 -23 -16 -50 -31 -59 -35 -10 -4 -18 -16 -18 -27 0 -11 5
-20 10 -20 6 0 59 19 118 42 59 22 112 44 117 49 6 4 37 22 70 39 33 18 69 40
80 50 11 9 50 38 87 64 59 41 70 54 81 94 8 25 18 47 23 49 6 2 71 -57 144
-131 74 -73 158 -157 185 -185 28 -29 68 -67 90 -84 22 -18 51 -44 63 -60 13
-15 28 -27 32 -27 5 0 24 -14 42 -30 27 -25 41 -30 85 -30 48 0 53 2 52 23 0
14 -18 36 -51 62 -28 22 -58 45 -67 50 -9 6 -48 42 -88 80 -39 39 -106 102
-149 140 -42 39 -98 92 -123 119 -25 27 -102 103 -169 170 -86 84 -135 124
-160 132 -21 6 -77 19 -127 28 -49 9 -101 19 -115 22z"/>
<path d="M892 852 c-8 8 -13 7 -18 -6 -4 -10 -2 -22 4 -28 8 -8 13 -7 18 6 4
10 2 22 -4 28z"/>
<path d="M900 259 c-7 2 -11 -2 -8 -8 2 -7 7 -12 11 -12 4 1 7 4 8 8 0 4 -5 9
-11 12z"/>
</g>
</svg>
