<?xml version="1.0" standalone="no"?>
<!DOCTYPE svg PUBLIC "-//W3C//DTD SVG 20010904//EN"
 "http://www.w3.org/TR/2001/REC-SVG-20010904/DTD/svg10.dtd">
<svg version="1.0" xmlns="http://www.w3.org/2000/svg"
 width="128.000000pt" height="128.000000pt" viewBox="0 0 128.000000 128.000000"
 preserveAspectRatio="xMidYMid meet">
<metadata>
Created by potrace 1.16, written by Peter Selinger 2001-2019
</metadata>
<g transform="translate(0.000000,128.000000) scale(0.100000,-0.100000)"
fill="#000000" stroke="none">
<path d="M680 959 c-14 -1 -33 -3 -42 -6 -10 -2 -18 -10 -18 -18 0 -7 17 -22
38 -32 20 -11 38 -27 40 -35 2 -10 -34 -36 -106 -76 -60 -34 -113 -62 -118
-62 -5 0 -49 -39 -98 -86 -49 -48 -112 -102 -140 -120 -28 -19 -70 -48 -94
-65 -28 -20 -51 -29 -70 -27 -23 2 -28 8 -30 36 -2 20 -8 32 -15 29 -6 -2 -14
-14 -18 -28 -4 -13 -7 -47 -8 -75 -1 -39 3 -53 15 -58 9 -3 29 -6 45 -6 16 0
58 14 92 31 34 18 85 50 112 72 28 23 95 82 150 132 55 49 102 92 105 95 3 3
23 17 45 31 22 15 70 43 107 63 36 20 80 36 96 36 25 0 37 -10 79 -67 27 -38
92 -112 143 -166 52 -54 133 -132 182 -173 48 -41 92 -74 98 -74 5 0 10 16 10
35 0 19 -4 35 -10 35 -5 0 -10 6 -10 14 0 8 -20 31 -44 51 -24 20 -51 53 -59
73 -9 20 -29 49 -45 65 -17 15 -38 27 -49 27 -10 0 -42 23 -71 51 -28 28 -72
78 -96 112 -24 34 -59 84 -78 111 -24 36 -44 52 -73 62 -22 8 -51 13 -65 13z"/>
<path d="M750 479 c-8 0 -33 -10 -55 -22 -29 -16 -41 -29 -43 -49 -2 -15 2
-36 8 -47 6 -12 24 -28 40 -36 21 -11 36 -12 54 -5 14 5 33 21 42 35 10 15 17
40 17 57 0 20 -8 37 -24 49 -13 10 -31 18 -39 18z"/>
</g>
</svg>
