<?xml version="1.0" standalone="no"?>
<!DOCTYPE svg PUBLIC "-//W3C//DTD SVG 20010904//EN"
 "http://www.w3.org/TR/2001/REC-SVG-20010904/DTD/svg10.dtd">
<svg version="1.0" xmlns="http://www.w3.org/2000/svg"
 width="128.000000pt" height="128.000000pt" viewBox="0 0 128.000000 128.000000"
 preserveAspectRatio="xMidYMid meet">
<metadata>
Created by potrace 1.16, written by Peter Selinger 2001-2019
</metadata>
<g transform="translate(0.000000,128.000000) scale(0.100000,-0.100000)"
fill="#000000" stroke="none">
<path d="M655 1280 c-25 0 -45 -5 -45 -10 0 -6 -17 -29 -38 -53 -21 -23 -50
-63 -65 -88 -14 -25 -40 -81 -57 -124 -24 -60 -30 -88 -25 -115 3 -19 9 -43
12 -53 3 -13 11 -17 26 -14 12 3 54 18 92 32 39 15 88 34 110 42 22 8 51 25
66 39 14 13 32 24 41 24 9 0 18 -5 20 -12 2 -6 1 -30 -3 -52 -4 -23 -16 -86
-27 -141 -12 -55 -29 -123 -38 -152 -9 -29 -23 -54 -30 -57 -7 -3 -42 14 -76
37 -50 33 -63 47 -62 67 0 14 4 39 8 56 5 24 3 33 -8 37 -11 4 -21 -5 -32 -29
-9 -19 -35 -48 -58 -63 -22 -16 -57 -46 -76 -66 -19 -20 -50 -45 -67 -56 -19
-12 -33 -29 -33 -40 0 -11 8 -23 17 -26 9 -4 29 1 45 10 17 9 37 17 45 17 9 0
40 14 69 31 54 30 54 30 132 -51 79 -81 79 -81 108 -43 15 20 48 84 72 142 24
59 50 124 57 146 7 22 21 58 30 79 12 29 16 61 13 117 -3 65 -7 82 -27 103
-18 19 -35 26 -62 26 -20 0 -61 -11 -92 -25 -30 -14 -61 -32 -67 -40 -7 -9
-28 -22 -46 -31 -18 -9 -38 -13 -43 -9 -6 3 -11 18 -11 33 0 15 11 47 25 71
14 23 25 47 25 51 0 5 15 33 33 62 17 29 44 63 60 76 15 13 27 30 27 38 0 10
-13 14 -45 14z"/>
<path d="M941 402 c-9 3 -43 -4 -76 -14 -33 -10 -94 -20 -135 -23 -41 -3 -109
-10 -150 -15 -41 -6 -104 -9 -140 -8 -58 3 -65 1 -65 -16 0 -10 7 -22 15 -27
8 -4 52 -19 98 -34 65 -21 101 -26 170 -25 48 1 93 1 100 1 6 -1 12 -7 12 -14
0 -8 -19 -27 -42 -44 -24 -17 -63 -40 -88 -53 -25 -12 -65 -38 -89 -58 -24
-20 -60 -44 -79 -54 -36 -18 -36 -18 30 -18 57 0 73 4 124 35 32 19 64 35 71
35 7 0 18 9 25 21 7 11 29 29 49 39 19 10 50 31 69 47 18 15 52 44 74 65 23
20 47 53 55 73 10 30 11 42 1 60 -7 13 -20 25 -29 27z"/>
</g>
</svg>
