<?xml version="1.0" standalone="no"?>
<!DOCTYPE svg PUBLIC "-//W3C//DTD SVG 20010904//EN"
 "http://www.w3.org/TR/2001/REC-SVG-20010904/DTD/svg10.dtd">
<svg version="1.0" xmlns="http://www.w3.org/2000/svg"
 width="128.000000pt" height="128.000000pt" viewBox="0 0 128.000000 128.000000"
 preserveAspectRatio="xMidYMid meet">
<metadata>
Created by potrace 1.16, written by Peter Selinger 2001-2019
</metadata>
<g transform="translate(0.000000,128.000000) scale(0.100000,-0.100000)"
fill="#000000" stroke="none">
<path d="M938 1185 c-7 3 -20 1 -28 -5 -13 -8 -9 -20 22 -83 27 -56 34 -77 26
-91 -5 -10 -7 -33 -4 -51 6 -29 3 -37 -17 -50 -13 -8 -48 -23 -78 -32 -30 -9
-63 -18 -74 -20 -11 -1 -35 -5 -53 -9 -20 -4 -38 -2 -48 7 -10 8 -13 21 -9 36
4 18 0 25 -17 32 -13 5 -31 18 -42 29 -18 21 -18 22 18 65 20 24 36 55 36 68
0 14 -13 36 -29 52 -16 15 -34 27 -40 27 -6 0 -29 -7 -51 -16 -24 -10 -40 -23
-40 -33 0 -9 13 -22 30 -28 21 -8 30 -18 30 -33 0 -17 -4 -20 -20 -15 -17 5
-24 -1 -41 -39 -11 -25 -23 -46 -27 -46 -4 0 -32 16 -62 35 -48 31 -62 35
-121 35 -38 0 -71 -5 -75 -11 -3 -6 11 -28 32 -50 29 -30 46 -39 72 -39 30 0
33 -2 30 -27 -2 -22 -10 -29 -38 -35 -19 -4 -93 -10 -165 -14 -91 -4 -134 -10
-145 -20 -9 -9 -11 -17 -5 -23 6 -6 80 -12 165 -15 155 -5 155 -5 158 -68 2
-34 1 -72 -2 -84 -3 -12 -21 -32 -39 -43 -18 -11 -39 -32 -47 -46 -11 -21 -11
-29 0 -49 7 -14 19 -28 28 -31 8 -3 21 0 29 6 10 9 11 15 3 23 -5 5 -10 13
-10 16 0 4 11 12 24 18 17 8 27 22 32 47 3 19 10 37 14 40 5 3 15 2 23 -1 9
-3 18 -12 21 -20 3 -7 -3 -22 -13 -31 -10 -10 -22 -28 -25 -40 -4 -12 -2 -24
3 -28 7 -4 5 -15 -5 -30 -9 -14 -13 -32 -10 -41 3 -8 1 -24 -4 -34 -7 -14 -7
-41 1 -87 6 -38 10 -93 10 -124 -1 -47 3 -59 24 -79 21 -20 28 -22 50 -12 14
6 25 17 25 23 0 7 -7 20 -16 30 -13 15 -20 16 -35 6 -16 -10 -21 -9 -29 3 -7
11 -4 16 12 18 12 2 28 11 34 20 7 9 10 20 8 23 -2 4 3 28 11 55 12 41 12 52
0 76 -8 17 -10 30 -4 34 5 3 7 15 4 25 -4 11 -1 26 5 34 7 8 8 20 4 27 -5 7
-7 50 -6 96 4 82 4 82 -23 82 -23 0 -26 2 -15 15 10 13 10 19 -4 34 -16 17
-15 18 33 13 47 -4 51 -2 89 37 22 22 47 41 55 41 10 0 20 -14 26 -37 6 -21
15 -60 22 -88 6 -27 21 -60 32 -73 11 -12 26 -22 34 -22 7 0 13 6 14 13 1 6 0
23 -1 37 -1 14 -11 35 -23 47 -19 21 -19 24 -4 41 10 10 17 34 17 54 0 28 5
37 25 46 14 7 41 12 60 12 18 0 35 5 37 10 2 7 22 8 58 2 55 -8 55 -8 52 -55
-3 -41 0 -48 20 -56 20 -8 15 -10 -29 -16 -30 -4 -59 -15 -69 -26 -11 -12 -25
-16 -43 -13 -14 2 -32 1 -39 -4 -10 -7 -14 -49 -17 -161 -3 -151 -3 -152 20
-163 13 -6 26 -21 29 -34 5 -17 14 -24 29 -24 13 0 42 9 64 20 23 11 44 24 47
28 3 5 -13 16 -34 26 -22 10 -40 24 -40 33 0 12 -3 13 -14 3 -11 -8 -20 -9
-33 -1 -10 6 -12 11 -5 11 6 0 12 5 12 12 0 6 7 20 16 30 14 14 14 20 4 33
-10 12 -9 20 4 40 9 13 16 31 16 39 0 8 -8 19 -17 25 -16 9 -14 13 16 40 19
17 38 31 42 31 4 0 19 -4 34 -10 20 -7 34 -6 57 6 17 9 40 13 54 10 14 -4 44
-2 67 4 23 6 52 16 65 22 13 7 30 26 38 44 10 20 13 42 9 56 -4 13 -16 31 -26
41 -10 9 -21 17 -25 17 -3 0 -4 -6 -1 -14 3 -8 -2 -16 -14 -19 -11 -3 -24 -19
-30 -36 -10 -29 -14 -31 -60 -31 -42 0 -51 4 -60 23 -7 16 -6 32 5 59 13 31
21 37 58 43 24 4 60 16 81 27 21 10 42 16 48 12 6 -3 7 -18 4 -33 -4 -18 -1
-32 8 -39 7 -6 23 -9 35 -5 20 5 22 12 22 64 0 54 -2 59 -22 60 -13 1 -38 1
-56 0 -18 -2 -45 -9 -59 -16 -20 -10 -30 -11 -40 -3 -9 8 -13 37 -11 106 2 82
-1 96 -17 108 -10 7 -42 20 -71 29 -29 8 -59 17 -66 20z m-391 -235 c13 0 26
-7 30 -16 3 -8 -4 -25 -17 -40 -13 -13 -31 -24 -40 -24 -9 0 -19 3 -23 6 -3 3
2 21 10 40 12 24 23 34 40 34z m-94 -130 c12 0 32 -7 45 -15 18 -14 20 -19 10
-35 -7 -11 -24 -24 -38 -28 -14 -5 -36 -8 -50 -6 -14 1 -28 3 -32 3 -5 1 -8 8
-8 16 0 8 11 17 25 21 16 4 25 13 25 25 0 13 7 19 23 19z m389 -460 c4 0 8 -7
8 -15 0 -8 -4 -15 -9 -15 -6 0 -12 4 -15 9 -3 4 -3 11 1 15 3 3 10 6 15 6z"/>
<path d="M204 480 c-6 0 -14 -3 -17 -7 -4 -3 -7 -21 -7 -40 0 -18 -4 -33 -8
-33 -4 0 -13 5 -19 11 -9 9 -18 8 -37 -5 -15 -9 -26 -23 -26 -31 0 -8 -4 -15
-9 -15 -5 0 -9 -15 -9 -34 0 -19 -3 -39 -6 -44 -3 -6 -3 -18 0 -27 6 -14 15
-16 48 -11 23 4 51 14 64 22 12 8 22 21 22 29 0 8 4 15 9 15 4 0 20 22 34 50
26 49 26 50 6 61 -13 7 -18 16 -14 26 3 9 0 20 -7 25 -7 4 -18 8 -24 8z m-38
-101 c6 0 13 -2 16 -5 3 -3 -1 -18 -9 -35 -11 -22 -21 -29 -43 -29 -16 0 -32
5 -35 11 -4 6 2 13 13 16 12 3 18 11 16 18 -3 7 3 15 13 18 10 3 23 5 29 6z"/>
<path d="M1088 460 c-7 -1 -43 -18 -80 -38 -37 -20 -68 -41 -68 -45 0 -4 16
-15 37 -23 29 -13 41 -13 59 -4 12 7 27 9 33 6 6 -4 11 -12 11 -17 0 -5 10
-24 23 -42 12 -18 26 -35 30 -38 4 -3 5 -14 1 -25 -4 -10 -20 -31 -36 -47 -16
-15 -34 -27 -39 -27 -5 0 -13 8 -16 17 -4 9 -1 19 5 21 7 2 12 10 12 18 0 8
-9 14 -19 14 -10 0 -21 -7 -25 -15 -3 -10 -19 -15 -45 -15 -35 0 -43 -5 -66
-37 -14 -21 -25 -32 -25 -25 0 6 -11 12 -24 12 -14 0 -31 -6 -38 -13 -8 -6
-27 -19 -42 -27 -16 -8 -27 -19 -25 -25 2 -6 37 -10 79 -9 41 1 96 6 122 12
26 6 59 19 72 27 22 15 27 15 55 1 16 -9 35 -16 41 -16 5 0 10 11 10 25 0 20
5 25 24 25 13 0 28 6 34 13 5 6 12 36 14 66 5 46 2 60 -19 90 -14 20 -27 48
-30 63 -3 15 -16 39 -29 53 -13 14 -29 25 -36 25z"/>
<path d="M1112 252 c-6 6 -12 6 -16 -1 -4 -6 -3 -19 3 -28 9 -17 10 -17 17 0
4 10 2 23 -4 29z"/>
</g>
</svg>
