<?xml version="1.0" standalone="no"?>
<!DOCTYPE svg PUBLIC "-//W3C//DTD SVG 20010904//EN"
 "http://www.w3.org/TR/2001/REC-SVG-20010904/DTD/svg10.dtd">
<svg version="1.0" xmlns="http://www.w3.org/2000/svg"
 width="56.000000pt" height="56.000000pt" viewBox="0 0 56.000000 56.000000"
 preserveAspectRatio="xMidYMid meet">
<metadata>
Created by potrace 1.16, written by Peter Selinger 2001-2019
</metadata>
<g transform="translate(0.000000,56.000000) scale(0.100000,-0.100000)"
fill="#000000" stroke="none">
<path d="M334 560 c-6 0 -14 -20 -17 -44 -4 -24 -15 -60 -26 -79 -16 -28 -17
-38 -7 -52 11 -15 13 -15 30 4 11 12 23 21 28 21 4 0 8 -13 8 -30 0 -24 -7
-33 -38 -49 -21 -11 -44 -31 -51 -44 -8 -16 -11 -37 -7 -54 4 -15 10 -40 13
-56 3 -17 12 -27 23 -27 12 0 26 23 50 85 18 47 38 89 43 92 7 4 8 -13 4 -48
-6 -52 -5 -55 23 -71 16 -9 32 -28 36 -43 4 -17 0 -41 -12 -66 -9 -22 -30 -49
-45 -60 -15 -10 -36 -19 -47 -19 -12 0 -24 -4 -27 -10 -4 -6 11 -10 38 -10 33
0 54 7 85 30 32 23 42 38 47 67 4 21 7 43 7 48 1 6 -2 22 -6 38 -5 15 -21 35
-38 45 -17 10 -27 23 -25 32 3 8 8 22 11 31 5 10 -3 28 -18 47 -15 16 -26 41
-26 55 0 15 -9 32 -21 41 -20 13 -20 16 -7 44 14 26 13 32 -1 56 -8 14 -21 26
-27 26z m-23 -270 c5 0 9 -2 9 -5 0 -4 -8 -20 -17 -38 -16 -30 -18 -31 -21 -9
-2 13 2 30 8 38 7 7 16 14 21 14z"/>
<path d="M159 500 c-8 0 -19 -3 -22 -7 -4 -3 -7 -14 -7 -23 0 -9 7 -31 16 -48
8 -18 19 -32 23 -32 4 0 15 8 23 18 15 15 15 21 0 55 -9 20 -24 37 -33 37z"/>
<path d="M114 350 c-7 7 -16 5 -26 -7 -9 -10 -19 -30 -23 -44 -4 -17 0 -33 13
-49 17 -21 22 -23 36 -11 9 8 19 11 22 8 3 -3 0 -29 -6 -58 -6 -30 -14 -65
-16 -79 -4 -17 1 -31 14 -43 11 -10 22 -15 24 -10 3 4 10 28 18 53 7 25 24 78
37 117 14 40 23 78 20 85 -3 7 -13 -5 -24 -28 -18 -41 -18 -41 -36 -18 -10 13
-29 27 -42 30 -14 3 -25 9 -25 13 0 4 5 12 12 19 8 8 9 15 2 22z"/>
</g>
</svg>
