<?xml version="1.0" standalone="no"?>
<!DOCTYPE svg PUBLIC "-//W3C//DTD SVG 20010904//EN"
 "http://www.w3.org/TR/2001/REC-SVG-20010904/DTD/svg10.dtd">
<svg version="1.0" xmlns="http://www.w3.org/2000/svg"
 width="56.000000pt" height="56.000000pt" viewBox="0 0 56.000000 56.000000"
 preserveAspectRatio="xMidYMid meet">
<metadata>
Created by potrace 1.16, written by Peter Selinger 2001-2019
</metadata>
<g transform="translate(0.000000,56.000000) scale(0.100000,-0.100000)"
fill="#000000" stroke="none">
<path d="M278 559 c-16 0 -38 -21 -76 -72 -48 -65 -53 -76 -50 -117 1 -25 -3
-55 -10 -68 -13 -23 -13 -23 27 -3 22 12 42 17 46 12 3 -5 1 -21 -4 -34 -6
-14 -13 -27 -18 -30 -4 -3 -26 1 -47 8 -22 8 -43 12 -47 9 -5 -3 -11 -20 -15
-39 -4 -22 -2 -41 6 -50 9 -11 17 -12 30 -5 10 6 23 10 29 10 6 0 11 -8 11
-17 0 -10 -7 -31 -15 -47 -8 -15 -15 -43 -15 -62 0 -18 4 -35 9 -38 5 -4 15
-4 23 -1 8 3 19 36 27 77 7 39 21 96 31 127 10 31 21 81 25 111 4 41 3 51 -5
40 -9 -13 -12 -12 -25 4 -8 11 -15 25 -15 30 1 6 23 40 50 76 28 36 50 68 50
73 0 4 -10 7 -22 6z"/>
<path d="M363 479 c-4 -1 -20 -8 -35 -16 -16 -8 -28 -19 -28 -24 0 -5 12 -8
26 -7 15 2 29 -2 31 -8 2 -6 -12 -31 -32 -54 -20 -24 -34 -50 -33 -59 2 -9 11
-15 21 -13 11 2 17 -4 17 -17 0 -13 -12 -26 -29 -36 -17 -8 -37 -25 -45 -37
-9 -12 -16 -34 -16 -48 0 -15 6 -35 14 -45 12 -16 18 -17 39 -8 15 7 34 27 43
45 9 18 17 34 19 36 1 1 16 -5 33 -14 17 -8 34 -20 38 -25 3 -6 -6 -27 -20
-49 -14 -21 -37 -50 -51 -64 -14 -14 -25 -28 -25 -31 0 -3 15 -5 33 -5 26 1
37 8 62 43 16 23 35 58 42 77 10 29 10 38 -2 57 -8 12 -23 24 -34 28 -11 3
-29 21 -40 40 -11 19 -23 49 -26 67 -5 28 -2 38 24 62 17 17 31 40 31 52 0 12
-11 29 -25 38 -13 9 -28 16 -32 15z m-62 -269 c5 0 9 -8 9 -19 0 -10 -7 -24
-15 -31 -12 -10 -16 -9 -21 4 -3 9 -1 23 6 31 7 8 16 15 21 15z"/>
</g>
</svg>
