<?xml version="1.0" standalone="no"?>
<!DOCTYPE svg PUBLIC "-//W3C//DTD SVG 20010904//EN"
 "http://www.w3.org/TR/2001/REC-SVG-20010904/DTD/svg10.dtd">
<svg version="1.0" xmlns="http://www.w3.org/2000/svg"
 width="56.000000pt" height="56.000000pt" viewBox="0 0 56.000000 56.000000"
 preserveAspectRatio="xMidYMid meet">
<metadata>
Created by potrace 1.16, written by Peter Selinger 2001-2019
</metadata>
<g transform="translate(0.000000,56.000000) scale(0.100000,-0.100000)"
fill="#000000" stroke="none">
<path d="M154 560 c-8 0 -14 -3 -14 -7 1 -5 21 -24 45 -43 25 -19 45 -38 45
-43 0 -4 -10 -29 -22 -55 -12 -26 -41 -73 -65 -105 -30 -39 -59 -64 -90 -78
-33 -15 -42 -24 -34 -32 6 -6 11 -24 11 -39 0 -20 5 -28 18 -28 9 0 52 34 95
75 43 40 85 76 95 78 16 4 16 5 0 6 -10 0 -18 8 -18 16 0 8 14 37 30 65 17 28
30 53 30 56 0 2 12 23 27 45 18 28 23 43 16 50 -6 6 -42 13 -79 15 -38 2 -70
8 -72 14 -2 5 -10 10 -18 10z"/>
<path d="M402 340 c-27 0 -51 -3 -55 -6 -3 -3 -23 -12 -44 -20 -36 -13 -34
-14 48 -8 71 5 90 4 111 -10 15 -10 29 -28 32 -42 4 -14 4 -40 0 -58 -3 -19
-30 -65 -60 -104 -29 -39 -50 -73 -45 -76 5 -3 31 14 59 39 27 25 59 65 71 90
11 25 21 58 21 75 0 17 -6 40 -12 52 -7 12 -18 27 -23 33 -6 5 -21 16 -33 23
-12 6 -44 12 -70 12z"/>
</g>
</svg>
