<?xml version="1.0" standalone="no"?>
<!DOCTYPE svg PUBLIC "-//W3C//DTD SVG 20010904//EN"
 "http://www.w3.org/TR/2001/REC-SVG-20010904/DTD/svg10.dtd">
<svg version="1.0" xmlns="http://www.w3.org/2000/svg"
 width="56.000000pt" height="56.000000pt" viewBox="0 0 56.000000 56.000000"
 preserveAspectRatio="xMidYMid meet">
<metadata>
Created by potrace 1.16, written by Peter Selinger 2001-2019
</metadata>
<g transform="translate(0.000000,56.000000) scale(0.100000,-0.100000)"
fill="#000000" stroke="none">
<path d="M248 560 c-27 0 -37 -7 -55 -35 -13 -19 -23 -45 -23 -58 0 -13 8 -31
18 -40 10 -10 24 -17 30 -17 7 0 12 -2 12 -5 0 -3 -14 -34 -31 -68 -18 -34
-45 -82 -62 -106 -18 -27 -30 -58 -31 -80 -1 -26 4 -36 16 -39 11 -2 27 12 45
41 15 25 42 56 60 71 17 14 50 33 73 41 30 11 47 12 55 5 7 -6 18 -30 25 -55
12 -43 11 -46 -15 -81 -15 -20 -46 -45 -69 -55 -22 -10 -49 -19 -59 -19 -10 0
-20 -7 -24 -16 -4 -11 1 -22 12 -30 10 -8 28 -14 39 -14 12 0 40 8 64 17 39
16 48 26 83 95 21 43 39 92 39 109 0 23 -9 41 -36 65 -32 31 -41 34 -95 34
-59 0 -59 0 -43 38 9 20 19 47 21 60 3 12 0 29 -7 37 -7 8 -21 15 -32 15 -10
0 -21 7 -25 17 -4 11 3 23 20 37 15 12 27 25 27 29 0 4 -15 7 -32 7z"/>
<path d="M423 559 c-10 0 -26 -9 -37 -19 -10 -11 -16 -26 -13 -35 4 -9 19 -15
37 -15 28 0 30 3 30 35 0 27 -4 35 -17 34z"/>
</g>
</svg>
