<?xml version="1.0" standalone="no"?>
<!DOCTYPE svg PUBLIC "-//W3C//DTD SVG 20010904//EN"
 "http://www.w3.org/TR/2001/REC-SVG-20010904/DTD/svg10.dtd">
<svg version="1.0" xmlns="http://www.w3.org/2000/svg"
 width="56.000000pt" height="56.000000pt" viewBox="0 0 56.000000 56.000000"
 preserveAspectRatio="xMidYMid meet">
<metadata>
Created by potrace 1.16, written by Peter Selinger 2001-2019
</metadata>
<g transform="translate(0.000000,56.000000) scale(0.100000,-0.100000)"
fill="#000000" stroke="none">
<path d="M279 560 c-8 -1 -19 -6 -25 -13 -6 -7 -31 -19 -55 -26 -24 -7 -50
-15 -56 -17 -7 -2 -13 -10 -13 -17 0 -7 11 -19 24 -26 18 -10 28 -10 46 -1 12
6 25 9 28 5 4 -3 -5 -27 -18 -53 -14 -26 -42 -76 -64 -112 -21 -36 -45 -72
-53 -81 -8 -10 -20 -40 -28 -68 -11 -45 -11 -53 2 -66 8 -8 19 -13 24 -10 5 4
9 12 9 19 0 7 33 44 73 83 58 56 84 74 134 90 61 21 61 21 91 -10 18 -20 32
-48 37 -72 3 -23 2 -52 -4 -67 -5 -14 -27 -42 -48 -62 -21 -20 -46 -39 -56
-42 -12 -4 -25 3 -38 20 -11 14 -28 26 -38 26 -10 0 -20 -2 -23 -5 -3 -3 -3
-17 0 -30 4 -24 7 -25 86 -25 62 0 88 4 109 19 15 10 35 29 44 41 9 13 20 44
24 69 3 25 2 59 -4 76 -6 16 -20 44 -31 62 -12 18 -37 41 -57 53 -37 20 -37
20 -85 -1 -27 -11 -61 -27 -76 -35 -14 -7 -29 -14 -32 -14 -3 0 -6 5 -6 11 0
6 18 37 39 69 21 31 48 76 60 100 12 24 21 51 21 59 0 9 -7 24 -14 34 -7 9
-19 17 -27 17z"/>
</g>
</svg>
