<?xml version="1.0" standalone="no"?>
<!DOCTYPE svg PUBLIC "-//W3C//DTD SVG 20010904//EN"
 "http://www.w3.org/TR/2001/REC-SVG-20010904/DTD/svg10.dtd">
<svg version="1.0" xmlns="http://www.w3.org/2000/svg"
 width="56.000000pt" height="56.000000pt" viewBox="0 0 56.000000 56.000000"
 preserveAspectRatio="xMidYMid meet">
<metadata>
Created by potrace 1.16, written by Peter Selinger 2001-2019
</metadata>
<g transform="translate(0.000000,56.000000) scale(0.100000,-0.100000)"
fill="#000000" stroke="none">
<path d="M307 538 c-12 0 -38 -3 -57 -5 -19 -3 -45 -14 -57 -25 -13 -12 -23
-25 -23 -30 0 -5 13 -15 30 -22 30 -12 30 -12 -1 -54 -17 -23 -34 -42 -39 -42
-4 0 -33 -20 -63 -46 -30 -25 -58 -52 -61 -60 -3 -8 1 -31 9 -50 11 -26 20
-34 40 -34 14 0 28 6 31 14 3 8 38 39 77 69 40 30 88 62 108 70 20 8 40 20 43
26 4 6 16 11 27 11 11 0 31 -11 44 -25 17 -16 25 -35 25 -57 0 -25 -12 -46
-51 -90 -28 -32 -67 -67 -87 -79 -20 -12 -46 -30 -57 -39 -11 -10 -46 -25 -78
-35 -32 -10 -60 -22 -63 -26 -3 -5 13 -9 35 -9 22 0 52 6 67 12 22 10 28 10
32 0 2 -6 12 -12 23 -12 12 0 19 7 19 19 0 10 10 25 23 33 12 8 33 18 47 21
14 3 47 20 73 38 26 17 59 51 73 75 20 34 25 52 20 78 -4 19 -13 39 -21 46 -8
7 -15 18 -15 24 0 7 -12 24 -27 38 -16 14 -38 31 -50 37 -12 6 -40 11 -61 11
-35 0 -39 3 -35 19 3 11 16 29 29 42 13 12 24 28 24 35 0 6 -7 15 -16 18 -9 3
-25 5 -37 4z"/>
</g>
</svg>
