<?xml version="1.0" standalone="no"?>
<!DOCTYPE svg PUBLIC "-//W3C//DTD SVG 20010904//EN"
 "http://www.w3.org/TR/2001/REC-SVG-20010904/DTD/svg10.dtd">
<svg version="1.0" xmlns="http://www.w3.org/2000/svg"
 width="56.000000pt" height="56.000000pt" viewBox="0 0 56.000000 56.000000"
 preserveAspectRatio="xMidYMid meet">
<metadata>
Created by potrace 1.16, written by Peter Selinger 2001-2019
</metadata>
<g transform="translate(0.000000,56.000000) scale(0.100000,-0.100000)"
fill="#000000" stroke="none">
<path d="M316 560 c-13 0 -26 -5 -28 -12 -2 -6 -26 -19 -54 -28 -42 -14 -54
-15 -81 -4 -29 13 -32 12 -38 -7 -4 -12 0 -30 10 -46 14 -21 22 -24 51 -20 25
4 34 2 34 -8 0 -8 -24 -42 -52 -76 -29 -34 -68 -82 -86 -106 -26 -35 -30 -47
-22 -62 5 -11 15 -21 22 -24 7 -2 21 0 31 5 9 5 17 15 17 23 0 8 8 22 18 32
10 10 30 34 45 54 14 21 47 47 71 59 29 14 53 19 67 15 12 -4 36 -23 53 -43
17 -19 41 -48 52 -64 18 -23 20 -36 14 -65 -5 -19 -21 -48 -36 -65 -16 -16
-42 -36 -59 -45 -16 -8 -47 -24 -67 -34 -20 -10 -40 -23 -43 -29 -4 -6 6 -10
24 -10 17 0 50 6 73 13 24 8 66 15 93 16 30 1 54 8 61 16 6 8 12 49 13 90 2
66 -2 83 -30 139 -28 56 -39 67 -91 95 -33 18 -73 33 -89 33 -17 1 -26 4 -21
7 5 3 23 26 40 50 18 25 32 56 32 73 0 23 -4 28 -24 28z"/>
</g>
</svg>
