<?xml version="1.0" standalone="no"?>
<!DOCTYPE svg PUBLIC "-//W3C//DTD SVG 20010904//EN"
 "http://www.w3.org/TR/2001/REC-SVG-20010904/DTD/svg10.dtd">
<svg version="1.0" xmlns="http://www.w3.org/2000/svg"
 width="128.000000pt" height="128.000000pt" viewBox="0 0 128.000000 128.000000"
 preserveAspectRatio="xMidYMid meet">
<metadata>
Created by potrace 1.16, written by Peter Selinger 2001-2019
</metadata>
<g transform="translate(0.000000,128.000000) scale(0.100000,-0.100000)"
fill="#000000" stroke="none">
<path d="M748 1129 c-13 -1 -33 -4 -45 -6 -14 -3 -23 -12 -23 -23 0 -10 11
-25 24 -33 13 -9 36 -19 50 -23 27 -6 27 -6 24 -108 -3 -101 -3 -101 -29 -101
-14 -1 -45 -17 -70 -37 -24 -20 -74 -50 -112 -66 -37 -17 -70 -37 -73 -46 -3
-8 7 -33 22 -55 14 -23 32 -41 39 -41 8 0 54 43 104 97 67 71 92 92 96 80 4
-8 -2 -46 -13 -84 -11 -37 -25 -91 -32 -120 -6 -28 -19 -58 -29 -67 -9 -8 -43
-22 -76 -31 -33 -8 -78 -15 -100 -15 -22 0 -51 -7 -63 -16 -16 -11 -22 -24
-20 -42 3 -25 6 -27 48 -24 25 2 59 11 77 22 17 10 48 20 69 22 36 3 39 1 45
-32 5 -21 21 -46 41 -63 18 -16 70 -65 115 -108 45 -43 90 -79 100 -79 11 0
24 5 31 12 7 7 12 25 12 41 0 21 -12 42 -45 74 -24 25 -42 51 -38 57 4 6 24
32 45 57 22 26 43 63 49 82 9 33 12 35 33 27 14 -5 70 -10 126 -11 68 -1 105
2 113 10 9 10 4 19 -21 42 -33 29 -36 30 -120 27 -87 -3 -87 -3 -87 60 0 62
-1 64 -33 77 -28 12 -36 12 -62 -3 -30 -17 -31 -18 -24 -78 6 -56 4 -61 -18
-76 -14 -9 -45 -19 -70 -23 -29 -4 -48 -3 -52 4 -4 6 0 32 9 58 9 26 21 53 26
59 5 6 16 33 24 60 8 27 15 66 15 87 0 21 6 48 14 60 8 12 20 48 27 79 9 45
10 67 1 97 -7 21 -12 48 -12 59 0 16 -12 27 -44 42 -25 11 -55 19 -68 19z m92
-673 c8 -1 16 -9 18 -18 2 -9 -7 -32 -20 -52 -13 -20 -29 -38 -36 -41 -7 -2
-24 2 -38 11 -13 9 -27 27 -30 41 -4 13 -2 29 4 35 6 6 28 14 49 18 21 5 45 7
53 6z"/>
<path d="M354 1046 c-21 4 -34 2 -39 -7 -5 -7 -1 -17 9 -25 12 -8 19 -32 23
-72 5 -56 4 -61 -18 -73 -13 -7 -49 -19 -79 -27 -30 -7 -68 -16 -85 -19 -16
-2 -36 -6 -44 -9 -10 -3 -11 -7 -1 -18 6 -8 32 -26 58 -39 47 -24 47 -24 99
-6 28 9 54 15 57 11 3 -3 6 -24 6 -46 0 -23 -3 -58 -6 -78 -5 -28 -26 -57 -88
-124 -81 -87 -81 -87 -118 -75 -33 11 -40 10 -67 -10 -19 -14 -33 -35 -37 -56
-4 -22 -1 -41 9 -57 9 -13 25 -26 36 -29 16 -4 29 4 50 30 22 26 34 33 49 29
11 -4 50 -40 87 -81 37 -41 73 -75 81 -75 7 0 18 8 23 19 6 10 13 88 16 172 2
85 7 179 9 210 3 31 12 89 21 130 8 41 15 77 15 82 0 4 25 19 55 34 30 15 56
32 59 39 3 7 -4 24 -15 38 -15 19 -28 25 -51 23 -27 -2 -32 2 -40 28 -4 17
-16 40 -26 52 -9 13 -31 25 -48 29z m-41 -573 c5 -12 6 -42 3 -68 -4 -26 -14
-49 -22 -52 -8 -3 -28 0 -44 7 -17 7 -30 20 -30 29 0 9 19 36 42 61 40 43 42
44 51 23z"/>
<path d="M1003 917 c-15 18 -22 20 -41 11 -12 -6 -25 -22 -27 -35 -3 -12 -7
-33 -10 -46 -2 -13 -16 -40 -30 -61 -14 -20 -25 -39 -25 -41 0 -3 5 -5 11 -5
6 0 45 16 85 36 41 20 79 44 84 54 7 14 5 24 -10 42 -11 13 -28 33 -37 45z"/>
</g>
</svg>
