<?xml version="1.0" standalone="no"?>
<!DOCTYPE svg PUBLIC "-//W3C//DTD SVG 20010904//EN"
 "http://www.w3.org/TR/2001/REC-SVG-20010904/DTD/svg10.dtd">
<svg version="1.0" xmlns="http://www.w3.org/2000/svg"
 width="128.000000pt" height="128.000000pt" viewBox="0 0 128.000000 128.000000"
 preserveAspectRatio="xMidYMid meet">
<metadata>
Created by potrace 1.16, written by Peter Selinger 2001-2019
</metadata>
<g transform="translate(0.000000,128.000000) scale(0.100000,-0.100000)"
fill="#000000" stroke="none">
<path d="M343 1250 c-24 0 -33 -5 -33 -16 0 -9 10 -30 22 -47 12 -18 28 -38
35 -45 7 -7 13 -19 13 -26 0 -7 -22 -38 -50 -67 -39 -43 -50 -61 -50 -88 0
-19 11 -54 26 -79 26 -43 26 -46 10 -79 -9 -18 -16 -41 -16 -50 0 -9 -6 -24
-14 -32 -8 -9 -33 -51 -55 -95 -38 -74 -39 -80 -24 -102 8 -13 20 -24 25 -24
5 0 18 5 28 10 11 6 31 22 45 36 20 20 29 23 45 14 17 -9 19 -17 14 -58 -3
-26 -10 -60 -14 -77 -5 -16 -12 -56 -16 -87 -3 -32 -11 -58 -16 -58 -5 0 -8
-12 -6 -26 2 -20 12 -29 43 -40 22 -7 43 -14 46 -14 3 0 18 23 33 51 14 28 26
64 26 79 0 16 4 32 10 35 5 3 21 30 34 58 13 29 29 75 36 102 7 28 24 68 37
91 12 22 23 57 23 76 0 19 13 61 29 94 16 32 34 74 40 92 6 18 23 50 39 70 16
20 42 57 57 81 15 25 32 51 39 58 6 8 19 23 29 34 9 10 22 19 27 19 6 0 8 -11
4 -27 -4 -16 -11 -32 -15 -38 -5 -5 -9 -23 -9 -41 0 -23 -7 -38 -26 -51 -23
-17 -24 -21 -13 -45 9 -21 9 -37 0 -74 -9 -36 -9 -54 0 -76 10 -24 17 -28 53
-28 35 0 46 -5 64 -29 12 -16 29 -57 39 -91 14 -53 15 -66 4 -93 -7 -18 -17
-58 -21 -89 -5 -38 -19 -74 -41 -107 -18 -28 -38 -51 -44 -51 -7 0 -47 -31
-91 -69 -43 -39 -92 -83 -109 -99 -16 -16 -41 -33 -55 -37 -14 -4 -36 -16 -49
-26 -13 -11 -32 -19 -42 -19 -11 0 -19 -4 -19 -9 0 -5 -3 -16 -6 -25 -5 -13 2
-16 34 -16 23 0 53 5 68 10 14 6 35 22 46 35 11 14 26 25 34 25 9 0 30 11 48
25 18 14 36 25 39 25 4 0 33 20 66 45 33 25 61 49 63 54 2 5 26 27 55 50 28
22 58 53 67 68 8 15 24 46 34 68 10 22 22 76 26 120 4 44 8 87 8 95 0 8 -1 26
-3 40 -1 14 1 35 5 47 6 19 -2 32 -46 75 -29 29 -68 66 -86 81 -30 25 -32 31
-26 65 4 20 19 62 34 92 16 31 31 81 35 112 7 56 7 56 -35 87 -24 17 -51 31
-60 31 -10 0 -41 -15 -68 -32 -39 -25 -54 -42 -62 -70 -6 -22 -23 -47 -40 -59
-16 -12 -26 -28 -23 -35 3 -8 -17 -46 -43 -86 -26 -40 -56 -95 -66 -123 -10
-27 -23 -58 -28 -67 -6 -10 -10 -24 -10 -33 0 -8 -15 -38 -33 -67 -18 -29 -38
-66 -45 -81 -7 -16 -18 -27 -25 -25 -6 3 -13 21 -15 41 -3 32 -7 37 -28 37
-14 0 -27 7 -30 15 -4 8 2 27 12 43 10 15 24 42 31 61 6 19 15 52 18 73 6 34
3 42 -24 67 -17 16 -31 35 -31 43 0 7 28 44 61 81 58 64 61 70 56 108 -3 22
-13 49 -23 60 -9 10 -27 19 -38 19 -12 0 -30 7 -40 15 -11 8 -35 15 -53 15z"/>
</g>
</svg>
