<?xml version="1.0" standalone="no"?>
<!DOCTYPE svg PUBLIC "-//W3C//DTD SVG 20010904//EN"
 "http://www.w3.org/TR/2001/REC-SVG-20010904/DTD/svg10.dtd">
<svg version="1.0" xmlns="http://www.w3.org/2000/svg"
 width="128.000000pt" height="128.000000pt" viewBox="0 0 128.000000 128.000000"
 preserveAspectRatio="xMidYMid meet">
<metadata>
Created by potrace 1.16, written by Peter Selinger 2001-2019
</metadata>
<g transform="translate(0.000000,128.000000) scale(0.100000,-0.100000)"
fill="#000000" stroke="none">
<path d="M421 1280 c-44 0 -49 -3 -55 -25 -4 -14 -2 -34 4 -45 6 -11 25 -42
42 -68 17 -26 45 -62 62 -79 16 -18 37 -33 45 -33 9 0 36 18 60 38 44 38 44
38 -9 78 -29 21 -64 45 -76 52 -18 10 -24 22 -24 48 0 34 0 34 -49 34z"/>
<path d="M875 1214 c-11 3 -36 -2 -55 -12 -19 -9 -45 -33 -57 -52 -13 -19 -50
-73 -84 -120 -33 -47 -71 -103 -85 -124 -14 -22 -48 -83 -76 -137 -27 -53 -64
-110 -81 -127 -20 -19 -48 -32 -73 -37 -28 -4 -44 -2 -49 5 -4 6 1 21 12 33
11 12 30 40 44 62 14 22 38 71 53 108 29 68 29 68 9 95 -11 15 -29 28 -41 30
-13 2 -26 -6 -36 -21 -9 -13 -30 -62 -47 -108 -17 -46 -42 -106 -57 -134 -15
-27 -41 -68 -59 -89 -22 -27 -33 -50 -33 -72 0 -17 6 -34 13 -37 7 -3 46 11
87 29 41 19 80 32 88 29 10 -4 13 -14 8 -38 -4 -17 -22 -56 -41 -84 -25 -38
-35 -64 -35 -91 0 -37 2 -40 46 -57 43 -16 46 -16 65 1 10 9 19 24 19 32 0 8
13 40 30 71 16 31 39 83 51 116 12 33 30 79 40 102 11 23 19 45 19 49 0 3 23
43 50 89 28 46 50 87 50 92 0 6 11 27 25 47 13 20 41 66 61 104 20 37 46 84
57 105 13 26 26 37 41 37 13 0 30 -8 39 -17 12 -14 15 -35 12 -93 -2 -41 -9
-101 -15 -134 -9 -45 -9 -65 0 -87 9 -21 31 -38 76 -60 34 -17 65 -38 68 -46
3 -8 3 -46 0 -83 -6 -58 -11 -73 -35 -96 -16 -15 -29 -32 -29 -36 0 -5 -15
-28 -32 -51 -18 -23 -40 -46 -48 -51 -8 -5 -42 -35 -75 -66 -33 -31 -78 -67
-100 -80 -22 -13 -58 -39 -80 -57 -21 -19 -62 -45 -90 -58 -27 -14 -63 -33
-80 -42 -16 -10 -38 -26 -49 -35 -19 -18 -19 -18 20 -18 29 0 53 10 93 37 30
21 59 41 65 45 6 3 27 13 46 22 19 8 73 40 120 70 47 30 105 70 130 88 25 18
71 55 102 81 31 27 78 80 104 118 46 69 46 69 42 163 -3 84 -7 97 -28 119 -14
13 -45 33 -70 45 -25 11 -51 25 -58 29 -9 7 -9 28 4 103 10 56 14 123 11 163
-3 47 -10 74 -23 88 -11 12 -28 25 -39 29 -11 4 -29 10 -40 14z"/>
</g>
</svg>
