<?xml version="1.0" standalone="no"?>
<!DOCTYPE svg PUBLIC "-//W3C//DTD SVG 20010904//EN"
 "http://www.w3.org/TR/2001/REC-SVG-20010904/DTD/svg10.dtd">
<svg version="1.0" xmlns="http://www.w3.org/2000/svg"
 width="128.000000pt" height="128.000000pt" viewBox="0 0 128.000000 128.000000"
 preserveAspectRatio="xMidYMid meet">
<metadata>
Created by potrace 1.16, written by Peter Selinger 2001-2019
</metadata>
<g transform="translate(0.000000,128.000000) scale(0.100000,-0.100000)"
fill="#000000" stroke="none">
<path d="M590 1280 c-6 0 -10 -4 -10 -9 0 -5 -23 -13 -51 -18 -51 -8 -51 -8
-88 -79 -20 -39 -50 -83 -66 -97 -18 -15 -50 -28 -78 -32 -39 -6 -47 -11 -47
-29 0 -11 7 -41 16 -66 8 -25 25 -55 36 -67 20 -22 22 -22 50 -5 15 9 43 34
61 56 17 22 50 69 73 105 22 36 47 66 55 66 11 0 14 -15 13 -65 -1 -36 -6 -83
-12 -105 -5 -22 -22 -98 -36 -170 -14 -71 -36 -170 -48 -220 -20 -78 -23 -115
-23 -285 0 -143 4 -204 14 -227 10 -26 19 -33 40 -33 14 0 33 6 42 13 8 7 23
23 31 37 9 14 19 48 23 75 4 28 7 134 6 236 -2 159 2 206 23 325 14 76 28 163
31 192 7 52 7 52 44 52 24 0 53 -10 82 -28 24 -16 50 -36 57 -45 8 -9 11 -25
7 -37 -3 -11 -13 -20 -21 -20 -8 0 -14 -6 -14 -14 0 -8 21 -30 48 -49 26 -20
58 -56 72 -81 15 -28 31 -45 40 -44 8 2 25 21 37 43 12 22 23 51 23 65 0 14
-14 54 -31 90 -16 36 -40 73 -52 83 -12 10 -43 29 -69 42 -37 20 -62 25 -118
25 -53 0 -72 4 -76 15 -3 8 1 50 10 93 9 44 16 89 16 101 0 12 -10 32 -23 44
-13 12 -35 32 -50 45 -15 12 -32 22 -37 22z"/>
</g>
</svg>
