<?xml version="1.0" standalone="no"?>
<!DOCTYPE svg PUBLIC "-//W3C//DTD SVG 20010904//EN"
 "http://www.w3.org/TR/2001/REC-SVG-20010904/DTD/svg10.dtd">
<svg version="1.0" xmlns="http://www.w3.org/2000/svg"
 width="128.000000pt" height="128.000000pt" viewBox="0 0 128.000000 128.000000"
 preserveAspectRatio="xMidYMid meet">
<metadata>
Created by potrace 1.16, written by Peter Selinger 2001-2019
</metadata>
<g transform="translate(0.000000,128.000000) scale(0.100000,-0.100000)"
fill="#000000" stroke="none">
<path d="M575 1280 c-41 0 -75 -3 -75 -6 0 -3 10 -19 23 -36 12 -17 36 -45 54
-64 17 -19 38 -34 47 -34 9 0 16 -6 16 -14 0 -7 -6 -19 -14 -25 -8 -6 -19 -31
-24 -54 -7 -27 -30 -62 -64 -100 -29 -33 -65 -65 -80 -73 -15 -8 -38 -14 -51
-14 -14 0 -31 7 -38 16 -11 14 -10 19 9 34 12 10 22 22 22 28 0 5 -17 14 -37
20 -21 6 -57 13 -80 16 -28 2 -46 -1 -53 -10 -7 -7 -8 -19 -4 -26 4 -7 23 -32
41 -55 32 -39 34 -48 41 -140 6 -91 9 -98 29 -101 14 -2 27 4 35 17 7 12 18
21 24 21 7 0 19 11 28 24 8 14 24 27 35 31 10 3 22 16 25 29 3 13 22 38 41 55
20 17 42 31 51 31 8 0 17 -7 20 -15 3 -8 -4 -39 -15 -69 -11 -31 -26 -66 -33
-78 -7 -13 -19 -31 -26 -40 -8 -9 -11 -25 -7 -37 3 -12 2 -21 -3 -21 -5 0 -28
-19 -51 -42 -23 -24 -58 -72 -77 -108 -19 -36 -40 -72 -47 -81 -7 -8 -38 -35
-70 -60 -32 -24 -75 -56 -95 -70 -20 -15 -39 -35 -43 -45 -3 -11 -4 -25 -1
-32 2 -7 17 -19 33 -27 15 -8 54 -15 85 -15 57 0 57 0 130 75 41 41 87 81 102
89 16 8 37 26 46 40 10 16 14 35 10 51 -5 20 -2 25 18 30 13 3 28 16 33 28 6
12 18 23 28 25 10 2 17 -3 17 -11 0 -9 -6 -17 -12 -20 -7 -2 -10 -8 -5 -12 4
-5 22 -10 40 -11 17 -1 57 -10 87 -19 30 -10 74 -23 97 -29 24 -7 56 -25 73
-41 16 -16 30 -36 30 -46 0 -11 -25 -29 -74 -52 -40 -19 -109 -59 -152 -89
-44 -30 -90 -59 -104 -66 -14 -7 -32 -16 -40 -21 -8 -5 -24 -13 -35 -18 -13
-5 18 -9 84 -11 82 -2 107 0 121 13 9 8 21 15 26 15 5 0 21 6 36 14 15 8 80
36 145 62 65 26 127 53 138 61 11 7 28 13 38 13 9 0 20 6 23 14 3 8 -12 37
-33 65 -21 27 -54 71 -73 97 -19 25 -52 58 -75 72 -22 15 -53 37 -68 49 -25
20 -40 23 -113 23 -55 0 -95 5 -114 15 -24 12 -28 20 -26 52 1 21 7 47 13 58
6 11 14 40 18 65 4 24 14 54 22 66 8 12 15 39 16 61 2 32 7 39 27 41 13 2 43
17 65 32 23 16 53 44 67 62 14 18 38 47 52 63 15 17 29 40 32 52 3 13 1 45 -6
73 -7 27 -16 53 -21 56 -5 3 -40 10 -77 15 -65 10 -68 9 -88 -16 -20 -26 -20
-26 -67 12 -26 21 -47 46 -47 56 0 15 -10 17 -75 17z m144 -190 c12 -6 21 -18
21 -26 0 -9 -7 -14 -17 -12 -10 2 -19 14 -21 26 -3 21 -1 22 17 12z m59 -32
c7 -2 13 -7 13 -13 0 -5 -9 -11 -21 -13 -11 -2 -20 1 -20 6 0 5 3 12 7 16 4 4
13 5 21 4z m-66 -98 c18 0 28 -5 28 -15 0 -10 -10 -15 -29 -15 -17 0 -32 4
-35 9 -3 4 -3 11 1 15 3 3 19 6 35 6z m-142 -440 c5 0 12 -5 15 -10 3 -6 -1
-13 -10 -16 -9 -4 -18 -4 -21 -1 -3 3 -3 10 1 16 3 6 10 11 15 11z"/>
</g>
</svg>
