<?xml version="1.0" standalone="no"?>
<!DOCTYPE svg PUBLIC "-//W3C//DTD SVG 20010904//EN"
 "http://www.w3.org/TR/2001/REC-SVG-20010904/DTD/svg10.dtd">
<svg version="1.0" xmlns="http://www.w3.org/2000/svg"
 width="128.000000pt" height="128.000000pt" viewBox="0 0 128.000000 128.000000"
 preserveAspectRatio="xMidYMid meet">
<metadata>
Created by potrace 1.16, written by Peter Selinger 2001-2019
</metadata>
<g transform="translate(0.000000,128.000000) scale(0.100000,-0.100000)"
fill="#000000" stroke="none">
<path d="M549 1247 c-30 1 -68 -3 -86 -10 -18 -7 -38 -18 -45 -24 -7 -8 -9
-16 -2 -23 5 -5 38 -20 74 -33 58 -22 65 -28 68 -54 2 -16 -3 -34 -10 -40 -7
-5 -40 -17 -73 -27 -34 -10 -99 -18 -150 -19 -77 -2 -101 2 -168 27 -69 26
-80 28 -93 14 -8 -8 -12 -22 -8 -32 3 -9 21 -23 39 -30 18 -8 41 -26 51 -41
11 -15 26 -35 35 -45 11 -11 39 -20 77 -25 45 -5 67 -3 89 8 16 9 55 25 88 36
33 12 65 21 72 21 9 0 13 -14 13 -41 0 -22 -6 -50 -12 -62 -7 -12 -18 -47 -25
-77 -8 -30 -20 -84 -28 -120 -7 -36 -28 -105 -45 -155 -18 -53 -35 -130 -41
-189 -6 -54 -9 -130 -7 -169 4 -67 5 -71 43 -103 22 -19 49 -33 60 -32 18 3
20 12 23 77 3 63 6 74 23 78 15 4 17 8 8 19 -6 8 -9 21 -5 29 3 8 12 15 21 15
8 0 15 6 15 13 0 8 -9 22 -20 32 -11 10 -20 30 -20 45 0 15 12 54 27 86 14 33
44 84 66 114 23 30 46 58 52 62 6 4 37 32 68 62 32 30 66 58 77 61 11 3 29 1
40 -5 17 -9 20 -17 15 -43 -4 -18 -17 -48 -28 -67 -11 -19 -47 -66 -79 -103
-55 -65 -58 -71 -58 -122 0 -36 5 -59 16 -70 9 -8 33 -24 54 -35 20 -10 58
-24 84 -31 39 -10 50 -9 71 5 14 9 25 24 25 33 0 9 9 27 21 39 14 15 19 29 14
44 -6 20 -8 20 -32 5 -23 -16 -25 -15 -30 4 -3 11 -18 24 -34 30 -16 5 -29 17
-29 26 0 9 8 28 17 43 10 15 29 38 43 52 14 14 41 45 60 68 21 26 38 61 43 85
4 23 5 48 2 55 -2 6 -12 12 -21 12 -10 0 -14 6 -11 14 3 7 0 19 -6 25 -6 6
-23 11 -38 11 -15 0 -40 5 -56 11 -15 6 -41 8 -58 5 -16 -4 -61 -31 -100 -61
-38 -30 -87 -69 -107 -85 -20 -17 -44 -30 -52 -30 -9 0 -16 2 -16 5 0 3 4 13
9 23 5 9 17 53 26 97 10 44 18 87 20 95 1 8 5 40 9 70 4 30 14 65 22 78 8 12
21 22 28 22 7 0 24 8 37 18 13 10 60 26 103 36 44 9 85 21 92 27 7 5 75 11
151 13 76 1 144 6 151 10 7 4 12 14 12 22 0 8 -7 26 -16 40 -10 14 -30 32 -45
40 -15 7 -50 14 -76 14 -26 0 -57 -7 -67 -15 -11 -8 -31 -15 -45 -15 -14 0
-39 -7 -54 -15 -15 -8 -45 -17 -65 -21 -20 -4 -54 -16 -74 -26 -22 -12 -51
-18 -75 -16 -35 3 -38 5 -44 41 -3 21 -15 50 -26 65 -17 23 -28 27 -74 29z"/>
<path d="M1217 828 c-9 2 -20 -4 -23 -12 -3 -9 -3 -23 0 -32 3 -8 14 -14 23
-12 12 2 18 12 18 28 0 16 -6 26 -18 28z"/>
</g>
</svg>
