<?xml version="1.0" standalone="no"?>
<!DOCTYPE svg PUBLIC "-//W3C//DTD SVG 20010904//EN"
 "http://www.w3.org/TR/2001/REC-SVG-20010904/DTD/svg10.dtd">
<svg version="1.0" xmlns="http://www.w3.org/2000/svg"
 width="128.000000pt" height="128.000000pt" viewBox="0 0 128.000000 128.000000"
 preserveAspectRatio="xMidYMid meet">
<metadata>
Created by potrace 1.16, written by Peter Selinger 2001-2019
</metadata>
<g transform="translate(0.000000,128.000000) scale(0.100000,-0.100000)"
fill="#000000" stroke="none">
<path d="M1116 760 c-8 0 -18 -5 -22 -11 -3 -6 -17 -8 -30 -5 -17 5 -26 1 -35
-16 -6 -13 -13 -25 -15 -27 -2 -2 -13 8 -26 22 -21 23 -28 25 -82 20 -42 -4
-60 -10 -63 -22 -3 -9 -17 -26 -32 -37 -23 -19 -33 -21 -80 -13 -30 5 -61 4
-70 -1 -9 -4 -41 -13 -71 -20 -30 -6 -70 -13 -88 -15 -18 -2 -37 -7 -41 -10
-5 -2 -25 2 -45 10 -19 8 -41 15 -48 15 -8 -1 -7 -5 5 -14 16 -12 14 -14 -17
-19 -18 -3 -61 -3 -94 0 -49 5 -72 1 -116 -17 -51 -20 -57 -21 -77 -6 -17 11
-26 13 -36 4 -7 -6 -13 -21 -13 -34 0 -17 7 -25 28 -30 15 -4 40 -18 55 -31
16 -12 34 -23 41 -23 8 0 40 -8 72 -18 42 -13 86 -18 151 -17 71 1 97 6 111
18 13 12 37 17 83 17 55 1 69 5 103 30 22 17 48 30 58 30 11 0 28 4 38 10 10
5 48 14 83 19 40 6 77 18 95 31 29 22 29 22 84 -4 30 -14 58 -26 62 -26 4 0
16 10 26 23 17 20 19 21 25 4 5 -11 1 -25 -10 -37 -16 -17 -15 -19 19 -35 31
-15 41 -16 69 -4 17 7 40 21 50 30 10 11 17 34 17 58 0 29 -5 41 -17 45 -10 4
-28 22 -41 42 -13 19 -39 42 -57 50 -19 8 -41 14 -49 14z m70 -160 c8 0 14 -4
14 -8 0 -5 -3 -11 -6 -15 -3 -3 -12 -3 -20 0 -8 3 -11 9 -8 14 3 5 12 9 20 9z"/>
</g>
</svg>
