<?xml version="1.0" standalone="no"?>
<!DOCTYPE svg PUBLIC "-//W3C//DTD SVG 20010904//EN"
 "http://www.w3.org/TR/2001/REC-SVG-20010904/DTD/svg10.dtd">
<svg version="1.0" xmlns="http://www.w3.org/2000/svg"
 width="128.000000pt" height="128.000000pt" viewBox="0 0 128.000000 128.000000"
 preserveAspectRatio="xMidYMid meet">
<metadata>
Created by potrace 1.16, written by Peter Selinger 2001-2019
</metadata>
<g transform="translate(0.000000,128.000000) scale(0.100000,-0.100000)"
fill="#000000" stroke="none">
<path d="M790 736 c-32 3 -55 -1 -80 -15 -19 -10 -55 -22 -80 -26 -25 -4 -92
-18 -150 -32 -82 -20 -130 -25 -219 -25 -94 1 -119 -3 -149 -19 -20 -10 -42
-19 -49 -19 -7 0 -13 -11 -13 -24 0 -19 8 -27 36 -36 22 -8 60 -10 93 -7 31 4
76 14 101 23 25 9 110 22 190 29 85 8 236 12 366 10 205 -3 223 -5 267 -26 46
-23 46 -23 94 2 32 16 49 31 51 46 2 16 -5 26 -26 37 -16 8 -74 24 -128 35
-55 11 -135 25 -179 31 -44 6 -100 13 -125 16z"/>
</g>
</svg>
