<?xml version="1.0" standalone="no"?>
<!DOCTYPE svg PUBLIC "-//W3C//DTD SVG 20010904//EN"
 "http://www.w3.org/TR/2001/REC-SVG-20010904/DTD/svg10.dtd">
<svg version="1.0" xmlns="http://www.w3.org/2000/svg"
 width="128.000000pt" height="128.000000pt" viewBox="0 0 128.000000 128.000000"
 preserveAspectRatio="xMidYMid meet">
<metadata>
Created by potrace 1.16, written by Peter Selinger 2001-2019
</metadata>
<g transform="translate(0.000000,128.000000) scale(0.100000,-0.100000)"
fill="#000000" stroke="none">
<path d="M1127 769 c-7 -1 -30 -5 -52 -10 -22 -4 -66 -13 -99 -19 -32 -6 -68
-16 -80 -22 -11 -6 -33 -22 -48 -35 -26 -25 -26 -25 -37 -4 -7 12 -18 21 -25
21 -7 0 -25 -9 -40 -21 -16 -13 -33 -18 -46 -14 -10 3 -28 1 -39 -4 -11 -6
-102 -14 -203 -18 -101 -4 -203 -6 -228 -5 -25 1 -83 3 -129 5 -52 1 -86 -2
-88 -8 -2 -6 22 -41 52 -78 52 -62 58 -67 96 -67 22 0 52 6 67 14 15 8 61 19
102 25 41 6 95 13 120 16 25 3 89 11 143 18 54 8 102 19 105 25 4 6 19 13 33
17 16 4 42 0 64 -9 21 -9 49 -16 62 -16 20 0 24 -4 20 -20 -3 -11 -3 -20 0
-20 3 0 25 14 50 30 32 22 56 30 88 30 24 0 55 -5 68 -11 13 -6 34 -31 46 -56
16 -34 26 -44 39 -40 9 3 38 13 65 23 41 14 47 20 47 45 0 16 -4 29 -9 29 -5
0 -12 11 -15 25 -3 13 -31 53 -62 90 -30 36 -61 64 -67 64z"/>
</g>
</svg>
