<?xml version="1.0" standalone="no"?>
<!DOCTYPE svg PUBLIC "-//W3C//DTD SVG 20010904//EN"
 "http://www.w3.org/TR/2001/REC-SVG-20010904/DTD/svg10.dtd">
<svg version="1.0" xmlns="http://www.w3.org/2000/svg"
 width="128.000000pt" height="128.000000pt" viewBox="0 0 128.000000 128.000000"
 preserveAspectRatio="xMidYMid meet">
<metadata>
Created by potrace 1.16, written by Peter Selinger 2001-2019
</metadata>
<g transform="translate(0.000000,128.000000) scale(0.100000,-0.100000)"
fill="#000000" stroke="none">
<path d="M164 797 c-6 2 -30 -17 -52 -41 -23 -25 -42 -52 -42 -61 0 -8 -7 -15
-15 -15 -8 0 -19 -9 -25 -19 -6 -13 -7 -42 -2 -81 7 -46 16 -68 38 -93 16 -17
35 -37 42 -44 9 -7 47 -10 108 -9 67 2 99 7 111 18 10 9 32 23 50 32 18 9 45
16 60 16 16 0 46 9 68 20 22 11 49 20 61 20 12 0 41 11 65 24 36 20 55 23 109
20 36 -2 94 -5 130 -7 35 -2 80 0 99 4 28 6 43 3 76 -17 23 -13 56 -44 74 -69
18 -25 39 -45 47 -45 9 0 38 21 65 48 30 29 49 56 49 70 0 12 -8 30 -18 40 -9
11 -25 29 -35 41 -10 12 -22 19 -28 15 -6 -3 -23 7 -39 24 -23 26 -35 30 -81
32 -30 1 -68 2 -86 1 -18 0 -35 4 -38 9 -3 6 -23 10 -44 10 -21 0 -53 -5 -72
-11 -19 -7 -41 -18 -50 -26 -9 -7 -24 -11 -33 -7 -10 4 -35 1 -57 -6 -22 -8
-45 -22 -50 -32 -8 -15 -17 -17 -48 -12 -23 4 -48 1 -61 -6 -13 -7 -57 -16
-99 -20 -42 -4 -122 -19 -179 -34 -57 -14 -107 -26 -112 -26 -5 0 -16 13 -25
30 -8 16 -15 40 -15 53 0 13 16 45 36 71 19 26 34 54 32 63 -2 9 -8 18 -14 20z"/>
</g>
</svg>
