<?xml version="1.0" standalone="no"?>
<!DOCTYPE svg PUBLIC "-//W3C//DTD SVG 20010904//EN"
 "http://www.w3.org/TR/2001/REC-SVG-20010904/DTD/svg10.dtd">
<svg version="1.0" xmlns="http://www.w3.org/2000/svg"
 width="128.000000pt" height="128.000000pt" viewBox="0 0 128.000000 128.000000"
 preserveAspectRatio="xMidYMid meet">
<metadata>
Created by potrace 1.16, written by Peter Selinger 2001-2019
</metadata>
<g transform="translate(0.000000,128.000000) scale(0.100000,-0.100000)"
fill="#000000" stroke="none">
<path d="M960 809 c-68 0 -94 -5 -129 -23 -24 -13 -52 -21 -62 -19 -11 3 -34
-2 -53 -11 -19 -9 -48 -32 -66 -52 -30 -35 -32 -35 -51 -18 -19 17 -20 16 -48
-10 -22 -21 -34 -26 -55 -20 -20 5 -30 1 -45 -17 -19 -24 -19 -24 -38 0 -15
18 -25 22 -39 16 -10 -4 -63 -9 -118 -10 -73 -1 -100 -5 -106 -16 -5 -8 -16
-23 -24 -34 -16 -20 -16 -20 -34 3 -16 20 -24 23 -55 17 -20 -4 -37 -13 -37
-20 0 -8 15 -25 32 -39 29 -22 35 -24 53 -12 16 10 26 11 41 3 10 -5 30 -23
43 -39 13 -15 33 -28 44 -28 11 0 28 6 36 14 9 7 30 18 46 23 28 9 30 8 32
-14 0 -14 6 -30 12 -36 8 -8 18 -7 36 3 22 12 27 11 48 -8 22 -21 32 -22 201
-22 178 0 178 0 231 55 30 30 62 55 72 55 10 1 29 7 43 15 14 8 36 14 50 15
14 0 41 13 60 29 26 22 42 28 62 24 23 -4 29 1 50 36 16 29 29 40 43 39 14 -2
21 4 23 20 2 13 -3 25 -13 28 -9 4 -21 -1 -29 -11 -12 -16 -13 -16 -30 0 -16
17 -20 17 -51 2 -18 -9 -36 -13 -39 -10 -3 4 -6 14 -6 24 0 10 -10 25 -22 33
-16 12 -46 16 -108 15z m52 -27 c6 -6 7 -15 3 -21 -3 -6 -10 -9 -15 -6 -5 3
-6 13 -3 21 4 10 9 12 15 6z m-59 -62 c6 0 22 -3 35 -6 12 -4 22 -13 22 -20 0
-8 -10 -14 -23 -14 -13 0 -28 5 -35 12 -7 7 -12 16 -12 20 0 4 6 8 13 8z m97
0 c5 0 12 -5 15 -11 4 -6 4 -13 1 -16 -3 -3 -12 -3 -21 1 -9 3 -13 10 -10 16
3 5 10 10 15 10z m-245 -50 c10 0 15 -7 13 -17 -2 -10 -8 -17 -13 -16 -6 1
-11 9 -13 17 -2 10 3 16 13 16z m82 -63 c3 -10 2 -21 -1 -24 -3 -4 -9 -4 -12
0 -4 3 -3 14 1 24 8 17 8 17 12 0z"/>
</g>
</svg>
