<?xml version="1.0" standalone="no"?>
<!DOCTYPE svg PUBLIC "-//W3C//DTD SVG 20010904//EN"
 "http://www.w3.org/TR/2001/REC-SVG-20010904/DTD/svg10.dtd">
<svg version="1.0" xmlns="http://www.w3.org/2000/svg"
 width="128.000000pt" height="128.000000pt" viewBox="0 0 128.000000 128.000000"
 preserveAspectRatio="xMidYMid meet">
<metadata>
Created by potrace 1.16, written by Peter Selinger 2001-2019
</metadata>
<g transform="translate(0.000000,128.000000) scale(0.100000,-0.100000)"
fill="#000000" stroke="none">
<path d="M1123 750 c-5 0 -21 -8 -34 -18 -13 -10 -55 -27 -94 -37 -38 -10 -90
-27 -115 -37 -30 -13 -56 -17 -78 -13 -21 4 -40 1 -54 -9 -15 -11 -34 -14 -59
-10 -20 4 -46 1 -58 -5 -12 -7 -76 -16 -144 -22 -67 -5 -149 -11 -181 -14 -37
-3 -62 -1 -66 6 -4 6 -52 11 -111 13 -57 1 -110 1 -116 -2 -7 -2 -13 -14 -13
-27 0 -12 7 -29 17 -36 13 -11 58 -13 227 -9 116 2 306 5 421 5 116 0 262 -4
325 -9 63 -4 126 -9 140 -9 14 0 46 0 73 1 35 2 47 6 47 17 0 9 7 18 15 21 10
4 15 20 15 49 0 32 -5 44 -17 49 -10 3 -34 17 -53 31 -19 13 -44 34 -55 45
-12 11 -26 20 -32 20z"/>
</g>
</svg>
