<?xml version="1.0" standalone="no"?>
<!DOCTYPE svg PUBLIC "-//W3C//DTD SVG 20010904//EN"
 "http://www.w3.org/TR/2001/REC-SVG-20010904/DTD/svg10.dtd">
<svg version="1.0" xmlns="http://www.w3.org/2000/svg"
 width="128.000000pt" height="128.000000pt" viewBox="0 0 128.000000 128.000000"
 preserveAspectRatio="xMidYMid meet">
<metadata>
Created by potrace 1.16, written by Peter Selinger 2001-2019
</metadata>
<g transform="translate(0.000000,128.000000) scale(0.100000,-0.100000)"
fill="#000000" stroke="none">
<path d="M490 750 c-5 0 -10 -6 -10 -14 0 -7 7 -19 15 -26 8 -7 15 -19 15 -27
0 -7 -6 -13 -12 -11 -7 1 -24 -4 -36 -11 -13 -7 -34 -10 -47 -7 -12 3 -36 1
-53 -5 -25 -8 -36 -8 -53 4 -18 13 -27 13 -63 2 -22 -8 -68 -18 -102 -24 -33
-6 -72 -11 -86 -11 -15 0 -33 -3 -42 -6 -9 -3 -16 -17 -16 -30 0 -13 10 -30
22 -38 18 -11 34 -12 78 -4 30 5 82 11 115 13 33 2 85 4 115 4 30 0 78 5 107
9 30 5 58 5 68 0 10 -6 21 -6 28 0 7 5 80 9 162 10 112 1 161 -3 192 -15 26
-9 61 -13 95 -11 29 2 100 1 158 -4 58 -4 113 -5 123 -2 12 4 17 16 17 40 0
29 -10 44 -59 94 -58 58 -59 59 -107 54 -27 -3 -78 -8 -113 -10 -35 -3 -97
-14 -139 -25 -41 -10 -96 -19 -122 -19 -26 0 -71 -5 -100 -10 -53 -10 -53 -10
-96 35 -24 25 -48 45 -54 45z"/>
</g>
</svg>
