<?xml version="1.0" standalone="no"?>
<!DOCTYPE svg PUBLIC "-//W3C//DTD SVG 20010904//EN"
 "http://www.w3.org/TR/2001/REC-SVG-20010904/DTD/svg10.dtd">
<svg version="1.0" xmlns="http://www.w3.org/2000/svg"
 width="128.000000pt" height="128.000000pt" viewBox="0 0 128.000000 128.000000"
 preserveAspectRatio="xMidYMid meet">
<metadata>
Created by potrace 1.16, written by Peter Selinger 2001-2019
</metadata>
<g transform="translate(0.000000,128.000000) scale(0.100000,-0.100000)"
fill="#000000" stroke="none">
<path d="M1055 749 c-11 0 -27 -3 -35 -6 -8 -4 -20 -13 -26 -21 -7 -10 -30
-14 -78 -13 -38 0 -88 -7 -114 -16 -29 -10 -81 -17 -134 -17 -48 -1 -90 -5
-94 -9 -4 -4 -22 -7 -40 -7 -18 0 -36 -4 -39 -10 -3 -5 -24 -10 -45 -10 -21 0
-51 -5 -66 -10 -20 -8 -41 -8 -74 1 -42 11 -50 10 -76 -9 -16 -11 -48 -22 -71
-23 -26 -2 -54 4 -77 16 -28 15 -38 17 -48 7 -9 -9 -9 -17 1 -36 8 -13 34 -36
60 -49 38 -21 53 -24 81 -18 20 4 44 13 55 19 11 6 48 16 83 23 34 6 65 16 68
20 3 5 42 9 87 9 57 1 88 5 102 16 13 10 32 13 60 9 22 -3 110 -7 195 -9 91
-3 169 -9 190 -17 19 -7 53 -25 74 -41 21 -15 52 -28 67 -28 16 0 49 5 74 12
25 7 45 18 45 25 0 7 -12 32 -26 56 -14 23 -33 48 -42 55 -9 6 -26 12 -39 12
-13 0 -23 4 -23 10 0 5 -17 21 -37 35 -21 14 -47 25 -58 24z"/>
</g>
</svg>
