<?xml version="1.0" standalone="no"?>
<!DOCTYPE svg PUBLIC "-//W3C//DTD SVG 20010904//EN"
 "http://www.w3.org/TR/2001/REC-SVG-20010904/DTD/svg10.dtd">
<svg version="1.0" xmlns="http://www.w3.org/2000/svg"
 width="128.000000pt" height="128.000000pt" viewBox="0 0 128.000000 128.000000"
 preserveAspectRatio="xMidYMid meet">
<metadata>
Created by potrace 1.16, written by Peter Selinger 2001-2019
</metadata>
<g transform="translate(0.000000,128.000000) scale(0.100000,-0.100000)"
fill="#000000" stroke="none">
<path d="M955 725 c-41 5 -55 3 -75 -13 -23 -18 -33 -19 -115 -10 -50 5 -124
11 -165 13 -53 2 -79 0 -90 -10 -8 -8 -29 -19 -45 -25 -17 -7 -45 -14 -64 -16
-18 -3 -39 1 -47 7 -7 6 -17 8 -23 5 -5 -4 -33 -11 -63 -17 -29 -6 -66 -13
-83 -15 -16 -3 -63 -4 -103 -4 -57 1 -73 -2 -78 -14 -3 -9 0 -23 7 -32 7 -8
30 -24 50 -35 34 -17 45 -17 111 -8 40 6 102 15 138 20 36 4 130 16 210 24 93
11 151 22 161 31 9 8 29 15 45 15 16 0 48 0 72 -1 24 -1 49 3 55 8 7 5 21 10
32 10 11 0 52 -6 90 -15 39 -9 90 -27 115 -40 25 -13 60 -33 78 -45 30 -18 38
-19 73 -9 37 11 39 14 39 54 0 41 -2 44 -56 77 -50 30 -65 34 -138 36 -44 2
-104 6 -131 9z"/>
</g>
</svg>
