<?xml version="1.0" standalone="no"?>
<!DOCTYPE svg PUBLIC "-//W3C//DTD SVG 20010904//EN"
 "http://www.w3.org/TR/2001/REC-SVG-20010904/DTD/svg10.dtd">
<svg version="1.0" xmlns="http://www.w3.org/2000/svg"
 width="128.000000pt" height="128.000000pt" viewBox="0 0 128.000000 128.000000"
 preserveAspectRatio="xMidYMid meet">
<metadata>
Created by potrace 1.16, written by Peter Selinger 2001-2019
</metadata>
<g transform="translate(0.000000,128.000000) scale(0.100000,-0.100000)"
fill="#000000" stroke="none">
<path d="M1133 734 c-32 1 -71 1 -88 -1 -16 -2 -61 -10 -100 -18 -38 -7 -96
-23 -127 -34 -32 -12 -70 -21 -85 -21 -16 0 -44 -5 -63 -11 -19 -6 -71 -13
-115 -14 -44 -2 -91 -7 -103 -12 -15 -6 -44 -5 -74 1 -40 8 -58 7 -98 -7 -40
-14 -68 -16 -164 -11 -116 7 -116 7 -116 -17 0 -17 10 -30 33 -42 30 -16 53
-18 198 -13 90 2 265 10 389 17 124 6 268 11 320 10 52 -1 122 -4 155 -6 33
-2 77 -7 98 -11 34 -6 42 -3 63 19 16 17 24 37 23 59 -1 26 -10 41 -44 71 -38
34 -50 38 -102 41z m-203 -84 c5 0 12 -5 15 -10 3 -6 -1 -13 -10 -16 -9 -4
-18 -4 -21 -1 -3 3 -3 10 1 16 3 6 10 11 15 11z"/>
</g>
</svg>
