<?xml version="1.0" standalone="no"?>
<!DOCTYPE svg PUBLIC "-//W3C//DTD SVG 20010904//EN"
 "http://www.w3.org/TR/2001/REC-SVG-20010904/DTD/svg10.dtd">
<svg version="1.0" xmlns="http://www.w3.org/2000/svg"
 width="128.000000pt" height="128.000000pt" viewBox="0 0 128.000000 128.000000"
 preserveAspectRatio="xMidYMid meet">
<metadata>
Created by potrace 1.16, written by Peter Selinger 2001-2019
</metadata>
<g transform="translate(0.000000,128.000000) scale(0.100000,-0.100000)"
fill="#000000" stroke="none">
<path d="M1146 790 c-6 0 -20 -6 -32 -13 -11 -6 -43 -27 -70 -44 -42 -28 -58
-33 -113 -33 -63 0 -63 0 -57 -31 3 -17 6 -43 6 -58 1 -14 12 -39 25 -55 19
-24 35 -31 77 -37 29 -4 76 -10 105 -14 52 -8 52 -8 122 51 38 33 70 67 70 77
1 9 -3 17 -9 17 -5 0 -17 14 -25 31 -9 16 -32 48 -52 70 -19 21 -40 39 -47 39z
m-95 -190 c4 0 10 -4 13 -9 3 -5 -1 -11 -9 -15 -8 -3 -17 -1 -19 3 -3 5 -3 11
1 15 3 3 10 6 14 6z"/>
<path d="M810 679 c-3 0 -18 -8 -35 -18 -16 -10 -30 -24 -30 -32 0 -8 10 -15
23 -17 12 -2 23 -9 23 -15 1 -7 2 -25 3 -42 1 -18 7 -31 16 -33 9 -1 23 3 32
10 13 11 15 23 8 72 -5 32 -15 63 -22 67 -7 5 -15 8 -18 8z"/>
<path d="M80 654 c-14 3 -37 -1 -52 -9 -16 -9 -28 -22 -28 -31 0 -8 10 -18 23
-23 12 -4 56 -16 97 -26 41 -9 84 -21 95 -25 11 -5 36 -11 55 -14 19 -3 69
-12 110 -21 41 -8 96 -15 122 -15 26 0 50 5 53 10 4 6 10 8 14 6 4 -3 34 0 67
5 32 5 70 11 84 13 14 2 31 4 38 5 6 0 12 7 12 14 0 6 -11 25 -24 42 -20 25
-26 28 -40 16 -10 -9 -14 -22 -10 -37 4 -15 2 -24 -5 -24 -6 0 -11 17 -11 40
0 22 5 40 10 40 6 0 10 7 10 15 0 8 -11 17 -25 21 -14 3 -40 3 -58 0 -18 -3
-77 -10 -132 -15 -57 -5 -161 -6 -240 -1 -77 4 -151 11 -165 14z"/>
</g>
</svg>
