<?xml version="1.0" standalone="no"?>
<!DOCTYPE svg PUBLIC "-//W3C//DTD SVG 20010904//EN"
 "http://www.w3.org/TR/2001/REC-SVG-20010904/DTD/svg10.dtd">
<svg version="1.0" xmlns="http://www.w3.org/2000/svg"
 width="128.000000pt" height="128.000000pt" viewBox="0 0 128.000000 128.000000"
 preserveAspectRatio="xMidYMid meet">
<metadata>
Created by potrace 1.16, written by Peter Selinger 2001-2019
</metadata>
<g transform="translate(0.000000,128.000000) scale(0.100000,-0.100000)"
fill="#000000" stroke="none">
<path d="M1097 738 c-42 0 -79 -3 -82 -6 -3 -4 -32 -10 -63 -14 -31 -4 -73
-10 -92 -14 -19 -3 -42 -12 -50 -19 -9 -8 -36 -11 -70 -9 -30 2 -84 -1 -120
-6 -36 -5 -154 -12 -263 -15 -199 -5 -199 -5 -268 24 -38 16 -71 26 -74 21 -2
-4 -2 -31 2 -59 4 -32 12 -55 20 -58 8 -3 19 -16 24 -29 7 -19 16 -24 42 -24
19 0 56 7 83 15 27 8 81 17 119 20 39 3 81 10 95 14 14 5 45 12 70 16 25 4 68
9 95 11 28 2 73 6 100 8 28 2 75 7 105 9 30 3 93 9 140 12 47 4 90 6 95 6 6 0
30 -3 55 -6 25 -4 84 -9 133 -12 87 -5 87 -5 87 26 0 20 -5 31 -15 31 -7 0
-18 6 -22 14 -4 7 -22 20 -39 29 -21 11 -56 16 -107 15z"/>
</g>
</svg>
