<?xml version="1.0" standalone="no"?>
<!DOCTYPE svg PUBLIC "-//W3C//DTD SVG 20010904//EN"
 "http://www.w3.org/TR/2001/REC-SVG-20010904/DTD/svg10.dtd">
<svg version="1.0" xmlns="http://www.w3.org/2000/svg"
 width="128.000000pt" height="128.000000pt" viewBox="0 0 128.000000 128.000000"
 preserveAspectRatio="xMidYMid meet">
<metadata>
Created by potrace 1.16, written by Peter Selinger 2001-2019
</metadata>
<g transform="translate(0.000000,128.000000) scale(0.100000,-0.100000)"
fill="#000000" stroke="none">
<path d="M942 829 c-20 0 -44 -3 -52 -6 -8 -3 -33 -14 -55 -23 -22 -10 -56
-23 -75 -28 -19 -6 -82 -29 -140 -52 -58 -23 -130 -50 -161 -59 -31 -9 -63
-22 -72 -29 -9 -8 -25 -10 -41 -6 -16 4 -32 1 -41 -6 -10 -8 -61 -13 -153 -15
-126 -2 -137 -3 -137 -20 0 -14 27 -33 95 -67 52 -27 105 -56 117 -64 12 -8
38 -14 58 -14 20 0 58 11 85 25 27 13 66 31 87 38 21 8 74 29 118 46 44 18
100 41 124 52 23 11 50 19 60 17 10 -2 16 -14 16 -33 0 -26 4 -30 25 -28 14 1
63 7 110 13 47 6 127 9 178 6 74 -4 99 -2 127 11 19 9 37 25 41 35 3 10 10 18
15 18 5 0 9 7 9 16 0 9 -11 27 -26 40 -14 13 -33 24 -42 24 -9 0 -66 25 -125
55 -76 39 -118 55 -145 54z"/>
</g>
</svg>
