<?xml version="1.0" standalone="no"?>
<!DOCTYPE svg PUBLIC "-//W3C//DTD SVG 20010904//EN"
 "http://www.w3.org/TR/2001/REC-SVG-20010904/DTD/svg10.dtd">
<svg version="1.0" xmlns="http://www.w3.org/2000/svg"
 width="128.000000pt" height="128.000000pt" viewBox="0 0 128.000000 128.000000"
 preserveAspectRatio="xMidYMid meet">
<metadata>
Created by potrace 1.16, written by Peter Selinger 2001-2019
</metadata>
<g transform="translate(0.000000,128.000000) scale(0.100000,-0.100000)"
fill="#000000" stroke="none">
<path d="M801 884 c-16 15 -19 15 -24 1 -4 -8 -4 -22 -1 -30 4 -8 10 -15 14
-15 4 0 13 6 19 13 8 11 6 18 -8 31z"/>
<path d="M1112 850 c-5 0 -21 -9 -35 -20 -18 -14 -40 -20 -77 -20 -36 0 -61
-6 -80 -20 -19 -13 -37 -19 -52 -15 -13 3 -37 1 -52 -5 -23 -8 -32 -7 -46 5
-9 8 -20 15 -25 15 -5 0 -16 -7 -25 -15 -9 -8 -45 -18 -81 -21 -35 -3 -80 -11
-99 -17 -19 -6 -60 -12 -90 -12 -34 -1 -65 -8 -81 -18 -14 -10 -34 -15 -43
-11 -8 3 -31 -3 -49 -13 -24 -14 -39 -18 -56 -11 -12 4 -52 6 -88 5 -54 -3
-70 -8 -85 -27 -10 -13 -18 -38 -18 -60 0 -20 4 -62 10 -91 7 -37 18 -61 36
-76 14 -13 32 -23 40 -23 8 0 39 18 68 39 30 23 70 42 92 46 21 3 57 11 79 17
22 6 47 17 55 24 8 7 38 18 65 24 28 7 84 24 125 38 69 24 87 26 230 26 85 -1
180 -2 209 -3 30 -1 73 -8 95 -15 23 -8 62 -17 88 -21 40 -6 49 -4 54 10 4 10
1 21 -7 26 -10 6 -14 29 -14 78 0 55 -4 73 -20 91 -11 12 -41 33 -67 46 -26
13 -51 24 -56 24z"/>
<path d="M671 400 c-5 0 -12 -4 -16 -9 -3 -5 0 -21 6 -35 8 -17 20 -26 35 -26
13 0 26 4 29 10 3 5 -5 21 -19 35 -14 14 -30 25 -35 25z"/>
</g>
</svg>
