<?xml version="1.0" standalone="no"?>
<!DOCTYPE svg PUBLIC "-//W3C//DTD SVG 20010904//EN"
 "http://www.w3.org/TR/2001/REC-SVG-20010904/DTD/svg10.dtd">
<svg version="1.0" xmlns="http://www.w3.org/2000/svg"
 width="128.000000pt" height="128.000000pt" viewBox="0 0 128.000000 128.000000"
 preserveAspectRatio="xMidYMid meet">
<metadata>
Created by potrace 1.16, written by Peter Selinger 2001-2019
</metadata>
<g transform="translate(0.000000,128.000000) scale(0.100000,-0.100000)"
fill="#000000" stroke="none">
<path d="M1153 769 c-10 0 -36 -9 -58 -19 -22 -10 -53 -19 -70 -20 -16 0 -67
-9 -113 -19 -45 -11 -89 -24 -97 -31 -8 -7 -15 -16 -15 -20 0 -5 8 -11 18 -13
16 -4 16 -5 -1 -6 -10 0 -26 6 -34 15 -13 13 -33 14 -116 9 -54 -3 -138 -12
-186 -19 -58 -8 -107 -10 -151 -4 -36 5 -78 9 -95 10 -16 0 -61 -3 -100 -7
-38 -4 -82 -7 -97 -7 -19 1 -28 -4 -28 -14 0 -8 8 -18 17 -21 10 -4 43 -24 75
-45 32 -21 69 -43 82 -48 21 -8 31 -4 66 25 23 19 45 35 49 35 5 0 23 -7 41
-16 25 -13 37 -14 50 -6 13 8 23 7 40 -5 16 -11 25 -12 33 -4 6 6 29 11 52 11
23 0 46 5 53 12 6 6 30 11 52 10 29 -1 45 4 57 18 10 11 22 20 27 20 5 0 29
-9 53 -21 37 -18 47 -19 76 -8 26 9 56 9 128 1 52 -6 130 -16 173 -22 67 -9
83 -8 103 5 17 11 23 25 23 50 0 19 5 35 10 35 6 0 10 9 10 20 0 11 -8 29 -17
41 -10 11 -35 29 -55 40 -21 10 -45 19 -55 18z"/>
</g>
</svg>
