<?xml version="1.0" standalone="no"?>
<!DOCTYPE svg PUBLIC "-//W3C//DTD SVG 20010904//EN"
 "http://www.w3.org/TR/2001/REC-SVG-20010904/DTD/svg10.dtd">
<svg version="1.0" xmlns="http://www.w3.org/2000/svg"
 width="128.000000pt" height="128.000000pt" viewBox="0 0 128.000000 128.000000"
 preserveAspectRatio="xMidYMid meet">
<metadata>
Created by potrace 1.16, written by Peter Selinger 2001-2019
</metadata>
<g transform="translate(0.000000,128.000000) scale(0.100000,-0.100000)"
fill="#000000" stroke="none">
<path d="M860 810 c-16 0 -31 -4 -34 -9 -3 -5 -30 -12 -61 -16 -45 -5 -58 -12
-75 -36 -12 -16 -28 -29 -36 -29 -8 0 -14 7 -14 15 0 8 -6 15 -13 15 -8 0 -28
-18 -46 -40 -18 -22 -31 -48 -29 -58 2 -10 11 -16 23 -14 11 2 57 3 103 2 50
-1 89 3 97 10 11 9 22 8 46 -4 18 -9 48 -16 68 -17 20 -1 47 -4 60 -8 14 -4
26 -11 28 -17 2 -6 -12 -31 -32 -57 -19 -25 -35 -53 -35 -61 0 -13 12 -16 58
-16 31 0 77 7 102 16 31 11 63 14 102 10 43 -4 60 -2 70 9 7 8 19 21 26 29 6
8 12 26 12 40 0 13 -12 38 -27 55 -15 17 -37 31 -50 31 -12 0 -25 5 -28 11 -4
5 -19 15 -33 21 -15 5 -40 11 -56 12 -16 1 -37 12 -47 24 -9 12 -22 22 -29 22
-6 0 -16 14 -21 30 -9 23 -17 30 -38 30 -15 0 -32 -5 -38 -11 -8 -8 -13 -8
-17 0 -4 6 -20 11 -36 11z"/>
<path d="M13 710 c-7 0 -13 -9 -13 -20 0 -10 14 -35 31 -55 17 -19 48 -40 70
-46 22 -7 44 -18 50 -26 6 -7 24 -13 40 -13 16 0 47 11 68 25 22 15 45 23 55
19 9 -3 27 1 40 10 13 8 53 18 88 22 50 5 67 11 81 30 10 13 15 29 12 34 -4 6
-35 9 -73 7 -37 -2 -76 -8 -87 -14 -11 -6 -38 -16 -61 -23 -23 -7 -52 -9 -65
-5 -13 4 -34 17 -47 28 -19 18 -27 19 -51 11 -20 -8 -41 -7 -77 2 -27 7 -55
13 -61 14z"/>
</g>
</svg>
