<?xml version="1.0" standalone="no"?>
<!DOCTYPE svg PUBLIC "-//W3C//DTD SVG 20010904//EN"
 "http://www.w3.org/TR/2001/REC-SVG-20010904/DTD/svg10.dtd">
<svg version="1.0" xmlns="http://www.w3.org/2000/svg"
 width="128.000000pt" height="128.000000pt" viewBox="0 0 128.000000 128.000000"
 preserveAspectRatio="xMidYMid meet">
<metadata>
Created by potrace 1.16, written by Peter Selinger 2001-2019
</metadata>
<g transform="translate(0.000000,128.000000) scale(0.100000,-0.100000)"
fill="#000000" stroke="none">
<path d="M800 1110 c-8 0 -30 -15 -48 -34 -18 -19 -32 -37 -32 -41 0 -3 11
-21 25 -39 14 -18 25 -40 25 -48 0 -9 -7 -21 -15 -28 -8 -7 -26 -10 -40 -8
-16 3 -33 -2 -47 -13 -11 -11 -26 -20 -32 -20 -6 -1 -16 -1 -23 0 -6 1 -14 -3
-18 -9 -4 -6 -2 -16 4 -23 5 -7 28 -12 53 -11 24 2 67 8 97 15 49 12 55 11 67
-6 8 -10 14 -36 14 -57 0 -35 -2 -38 -27 -38 -16 0 -54 -8 -85 -18 -32 -10
-60 -21 -64 -25 -4 -4 -15 -7 -25 -7 -10 0 -27 -12 -38 -26 -16 -20 -18 -30
-10 -46 6 -12 19 -18 32 -16 13 2 23 13 27 28 5 23 12 26 80 33 41 4 80 5 86
3 6 -2 14 -20 18 -40 4 -20 2 -44 -4 -56 -9 -16 -21 -20 -65 -20 -29 0 -56 -4
-59 -9 -3 -4 -19 -11 -34 -14 -20 -4 -33 -15 -40 -34 -6 -15 -13 -51 -16 -79
-5 -39 -3 -54 9 -64 12 -10 16 -8 24 12 5 13 12 50 16 81 4 31 10 57 14 58 3
0 25 2 48 4 23 2 50 6 60 9 10 3 24 2 32 -3 8 -6 14 -23 13 -43 -1 -18 -4 -63
-7 -100 -3 -37 -9 -87 -13 -110 -5 -29 -3 -52 5 -69 7 -14 22 -34 34 -45 20
-18 21 -18 34 -1 8 11 11 32 8 52 -3 18 0 57 7 86 6 30 11 95 10 146 -1 91 -1
91 37 103 21 7 42 16 47 21 6 5 -1 20 -18 38 -16 17 -38 31 -49 33 -13 2 -24
13 -27 28 -4 14 -5 31 -2 38 2 7 17 19 33 27 15 8 42 15 59 15 17 0 40 5 51
11 11 5 29 7 40 4 10 -4 26 -21 33 -39 10 -23 13 -61 10 -122 -3 -49 -6 -116
-7 -149 -2 -33 -7 -76 -11 -95 -4 -19 -12 -52 -17 -72 -5 -21 -16 -38 -23 -38
-8 0 -19 6 -25 14 -7 8 -30 17 -51 21 -21 4 -46 3 -55 -2 -13 -7 -5 -16 37
-42 29 -19 69 -44 89 -57 19 -13 45 -24 57 -24 15 0 30 14 49 42 23 37 28 59
35 153 4 61 12 129 18 152 6 27 6 59 0 93 -6 29 -10 83 -10 121 0 58 -4 72
-26 98 -14 17 -35 31 -45 31 -11 0 -69 -17 -129 -37 -91 -30 -111 -34 -124
-24 -10 8 -16 29 -16 52 0 37 2 39 30 39 16 0 53 8 82 19 29 10 69 23 88 28
19 5 35 15 35 22 0 7 -16 19 -35 25 -27 9 -44 9 -74 -2 -21 -7 -51 -19 -67
-27 -15 -8 -33 -15 -38 -15 -6 0 -18 17 -27 38 -8 20 -21 63 -27 95 -7 41 -15
57 -27 57z"/>
<path d="M1113 1100 c-12 0 -25 -5 -28 -10 -4 -6 22 -42 56 -80 34 -39 65 -70
68 -70 3 0 12 4 19 9 8 5 11 21 9 42 -2 19 -10 46 -17 61 -9 19 -25 31 -49 38
-20 5 -46 10 -58 10z"/>
<path d="M408 972 c-7 3 -26 1 -43 -5 -16 -5 -36 -14 -42 -20 -7 -5 -13 -13
-13 -18 0 -4 16 -24 36 -43 34 -33 35 -35 20 -59 -15 -21 -15 -28 -1 -59 11
-28 12 -38 2 -46 -7 -5 -52 -23 -101 -40 -49 -18 -92 -34 -94 -37 -3 -3 1 -13
10 -21 9 -9 36 -20 60 -25 23 -4 60 -8 81 -9 24 0 37 -5 37 -13 0 -8 -8 -21
-18 -30 -10 -10 -24 -17 -30 -17 -6 0 -21 -13 -34 -30 -12 -16 -31 -30 -42
-30 -12 0 -38 -18 -60 -40 -21 -21 -52 -42 -70 -46 -17 -4 -41 -13 -53 -21
-13 -9 -23 -21 -23 -28 0 -7 18 -22 40 -34 22 -12 47 -21 54 -21 7 0 31 20 52
43 22 24 52 61 67 81 16 21 40 42 54 49 19 9 26 8 33 -3 5 -8 6 -34 3 -57 -4
-28 -1 -48 7 -59 8 -8 30 -24 51 -34 31 -16 39 -17 55 -6 16 12 17 17 5 42 -7
16 -16 67 -19 114 -3 47 -5 100 -4 118 1 17 2 44 3 60 0 15 -3 41 -6 59 -6 27
-4 32 17 39 12 4 33 8 46 9 13 0 27 7 33 15 5 8 8 24 7 35 -2 15 -9 19 -28 17
-14 -2 -32 -5 -40 -5 -12 -2 -15 12 -15 67 0 46 -4 71 -12 73 -7 3 -13 11 -13
18 0 7 -6 15 -12 17z"/>
<path d="M631 595 c-5 3 -12 1 -16 -5 -3 -5 -3 -14 0 -20 3 -5 10 -10 16 -10
5 0 9 6 9 14 0 8 -4 17 -9 21z"/>
</g>
</svg>
