<?xml version="1.0" standalone="no"?>
<!DOCTYPE svg PUBLIC "-//W3C//DTD SVG 20010904//EN"
 "http://www.w3.org/TR/2001/REC-SVG-20010904/DTD/svg10.dtd">
<svg version="1.0" xmlns="http://www.w3.org/2000/svg"
 width="128.000000pt" height="128.000000pt" viewBox="0 0 128.000000 128.000000"
 preserveAspectRatio="xMidYMid meet">
<metadata>
Created by potrace 1.16, written by Peter Selinger 2001-2019
</metadata>
<g transform="translate(0.000000,128.000000) scale(0.100000,-0.100000)"
fill="#000000" stroke="none">
<path d="M318 1279 c-7 0 -23 -10 -35 -22 -13 -13 -23 -33 -23 -45 0 -15 8
-24 24 -28 13 -3 34 -16 45 -28 18 -19 22 -39 27 -143 6 -120 6 -121 -18 -137
-13 -9 -48 -20 -76 -26 -29 -5 -62 -16 -75 -25 -12 -8 -47 -18 -77 -22 -40 -6
-56 -13 -58 -26 -3 -12 7 -22 33 -32 29 -13 44 -13 78 -5 23 6 68 21 99 32 32
11 64 18 73 15 8 -4 15 -13 15 -21 0 -8 -19 -50 -42 -93 -23 -43 -51 -89 -64
-103 -12 -14 -48 -55 -79 -93 -31 -37 -69 -74 -85 -82 -15 -8 -39 -28 -54 -45
-14 -18 -26 -38 -26 -46 0 -9 10 -14 28 -14 15 0 38 9 52 20 14 11 35 20 48
20 14 0 22 -6 22 -17 0 -10 18 -35 40 -58 22 -22 63 -88 93 -145 37 -74 59
-106 72 -108 14 -2 23 6 31 25 6 15 19 62 28 103 12 58 16 123 15 285 -1 116
1 221 5 235 3 14 8 51 11 84 3 32 10 65 16 72 6 8 28 14 48 14 20 0 41 4 46 8
6 4 22 22 35 41 24 34 24 34 -4 58 -18 15 -34 22 -45 17 -9 -4 -28 -9 -43 -11
-19 -4 -29 0 -38 16 -6 12 -8 27 -3 34 4 6 12 56 18 110 11 97 11 97 -20 127
-22 21 -45 32 -78 36 -26 4 -47 11 -47 15 0 5 -6 9 -12 8z m-7 -819 c11 0 18
-11 21 -32 3 -18 2 -57 -2 -86 -3 -29 -13 -60 -22 -68 -14 -14 -19 -14 -54 4
-22 11 -48 29 -58 41 -19 21 -19 22 15 58 19 20 45 47 59 59 14 13 32 24 41
24z"/>
<path d="M1035 1050 c-30 19 -34 19 -49 5 -9 -9 -16 -18 -16 -20 0 -2 10 -21
22 -42 12 -21 51 -68 87 -106 36 -37 69 -74 74 -82 4 -8 16 -19 27 -25 10 -5
25 -7 33 -4 9 3 23 33 32 67 9 35 15 76 13 92 -3 27 -9 32 -58 45 -30 8 -66
23 -80 33 -13 9 -31 17 -39 17 -7 0 -28 9 -46 20z"/>
<path d="M728 1030 c-9 0 -19 -8 -21 -17 -3 -10 -8 -31 -12 -47 -3 -16 -18
-55 -32 -87 -15 -33 -30 -59 -35 -59 -4 0 -19 -18 -33 -40 -14 -23 -23 -45
-20 -50 4 -6 12 -10 18 -10 7 0 28 13 48 29 20 17 48 33 63 37 14 3 46 26 69
50 24 24 48 60 54 79 11 34 10 36 -35 75 -26 22 -55 40 -64 40z"/>
<path d="M1017 749 c-7 0 -32 -8 -57 -18 -39 -16 -45 -23 -45 -47 0 -20 -18
-52 -55 -99 -29 -38 -84 -105 -122 -148 -37 -42 -68 -80 -68 -84 0 -3 11 -26
25 -50 14 -23 33 -43 42 -43 8 0 31 9 50 21 18 11 57 29 86 40 28 10 59 19 67
19 9 0 48 16 87 35 39 19 78 35 87 35 10 0 26 -21 40 -54 13 -29 28 -56 33
-59 5 -3 27 7 50 21 39 25 42 31 43 70 0 31 -4 42 -15 42 -9 0 -20 12 -25 28
-6 15 -16 38 -22 52 -7 14 -30 44 -53 66 -22 23 -55 58 -72 78 -18 19 -33 42
-33 50 0 8 -7 22 -16 30 -8 9 -21 16 -27 15z m13 -122 c9 -1 25 -32 39 -74 13
-40 21 -80 17 -88 -3 -8 -17 -15 -31 -15 -14 0 -38 -6 -53 -14 -15 -7 -64 -16
-109 -19 -53 -4 -85 -3 -89 4 -3 6 13 27 36 47 23 20 72 65 109 99 36 35 73
62 81 60z"/>
<path d="M512 610 c-10 0 -27 -9 -36 -19 -13 -15 -15 -24 -7 -38 5 -11 17 -26
26 -33 9 -8 28 -36 41 -62 14 -27 32 -52 40 -55 9 -3 26 4 40 19 14 13 27 40
30 59 4 26 1 41 -16 62 -12 15 -39 36 -61 47 -21 11 -47 20 -57 20z"/>
<path d="M1271 230 c-5 0 -16 -12 -26 -26 -14 -22 -15 -30 -4 -50 7 -13 18
-24 26 -24 9 0 13 15 13 50 0 28 -4 50 -9 50z"/>
</g>
</svg>
