<?xml version="1.0" standalone="no"?>
<!DOCTYPE svg PUBLIC "-//W3C//DTD SVG 20010904//EN"
 "http://www.w3.org/TR/2001/REC-SVG-20010904/DTD/svg10.dtd">
<svg version="1.0" xmlns="http://www.w3.org/2000/svg"
 width="128.000000pt" height="128.000000pt" viewBox="0 0 128.000000 128.000000"
 preserveAspectRatio="xMidYMid meet">
<metadata>
Created by potrace 1.16, written by Peter Selinger 2001-2019
</metadata>
<g transform="translate(0.000000,128.000000) scale(0.100000,-0.100000)"
fill="#000000" stroke="none">
<path d="M413 1230 c-12 0 -25 -5 -28 -10 -4 -6 -1 -51 5 -100 8 -65 9 -94 0
-109 -6 -12 -15 -21 -20 -21 -6 0 -10 -9 -10 -20 0 -11 -6 -20 -12 -20 -7 0
-21 7 -31 14 -15 12 -25 12 -62 1 -27 -9 -65 -11 -100 -8 -30 3 -58 10 -61 14
-3 5 -16 9 -30 9 -14 0 -27 -7 -30 -15 -4 -8 1 -26 10 -39 8 -13 31 -29 51
-36 19 -6 35 -15 35 -19 0 -4 11 -13 25 -19 14 -7 51 -15 81 -18 33 -4 58 -13
61 -21 3 -7 1 -19 -5 -26 -5 -6 -13 -28 -17 -47 -4 -19 -15 -46 -24 -60 -9
-14 -22 -34 -29 -45 -6 -11 -21 -39 -33 -62 -11 -22 -29 -49 -40 -59 -10 -9
-19 -25 -19 -35 0 -9 -15 -35 -32 -57 -18 -22 -48 -64 -66 -93 -26 -42 -31
-58 -26 -85 3 -19 12 -34 18 -34 7 0 22 10 34 23 12 13 22 27 22 31 0 5 13 24
30 43 16 18 30 37 30 42 0 5 16 26 35 47 20 21 38 50 42 64 3 14 12 32 19 40
7 9 21 33 31 55 10 22 31 57 47 78 16 21 34 36 39 34 6 -2 11 -33 11 -71 1
-46 -3 -70 -11 -73 -7 -3 -13 -15 -13 -28 0 -13 -11 -42 -24 -66 -23 -39 -24
-45 -10 -71 8 -16 14 -50 14 -76 -1 -26 1 -83 5 -127 3 -44 8 -90 11 -103 3
-15 11 -22 29 -22 13 0 27 5 31 12 4 6 9 23 12 37 2 14 4 79 3 143 -2 94 1
122 14 140 8 13 20 40 26 60 8 31 6 44 -11 79 -14 26 -19 50 -15 67 3 15 6 60
7 101 0 41 7 86 14 100 8 14 14 34 14 43 0 9 21 38 46 63 25 25 53 45 61 45 8
0 28 9 44 21 16 11 29 27 29 35 0 8 -10 18 -22 23 -13 5 -32 18 -42 30 -12 13
-27 19 -38 16 -10 -3 -27 -7 -37 -10 -13 -4 -23 1 -30 13 -7 13 -6 34 3 69 8
28 11 62 9 76 -3 15 -14 28 -26 31 -12 3 -32 6 -44 6z"/>
<path d="M1180 1150 c-10 0 -31 -11 -46 -24 -27 -22 -27 -24 -10 -41 12 -13
15 -26 10 -49 -3 -17 -19 -53 -35 -81 -16 -27 -55 -72 -86 -100 -31 -27 -79
-73 -107 -101 -28 -28 -63 -58 -78 -68 -18 -12 -33 -35 -42 -66 -8 -26 -21
-61 -30 -78 -12 -23 -13 -37 -6 -56 7 -18 17 -26 34 -26 14 0 38 5 53 12 15 6
38 21 50 31 17 15 20 24 13 38 -7 12 -7 20 0 24 5 3 10 -3 10 -14 0 -14 9 -23
27 -27 17 -5 28 -3 31 4 2 7 19 12 38 12 21 0 34 -5 34 -12 0 -7 -9 -24 -20
-38 -11 -14 -20 -29 -20 -34 0 -5 -18 -24 -39 -43 -22 -18 -52 -53 -67 -78
-16 -24 -41 -50 -56 -56 -14 -6 -49 -37 -76 -70 -28 -32 -74 -79 -103 -104
-29 -25 -56 -45 -61 -45 -4 0 -8 -7 -8 -15 0 -11 11 -15 38 -15 30 0 45 7 70
33 18 17 42 41 54 53 13 12 37 28 53 37 17 9 44 33 60 53 17 21 44 51 60 67
17 17 44 36 62 43 17 8 41 25 52 40 12 15 21 33 21 40 0 7 10 14 22 16 13 2
28 15 35 29 7 15 36 44 63 65 28 21 50 44 50 50 0 7 3 19 6 27 3 9 -13 27 -46
52 -46 34 -54 36 -103 32 -28 -2 -78 -11 -109 -19 -55 -15 -57 -14 -62 5 -3
12 0 27 6 34 6 7 15 13 20 13 5 0 36 18 70 41 33 23 88 68 121 101 34 34 67
70 73 82 7 11 22 40 34 64 12 23 26 42 31 42 5 0 9 7 9 16 0 8 -7 22 -15 30
-8 9 -15 24 -15 35 0 12 -10 23 -26 29 -14 6 -34 10 -44 10z"/>
<path d="M1035 1086 c-22 0 -51 -1 -65 -4 -14 -2 -30 -8 -35 -12 -6 -5 -33
-12 -61 -15 -39 -6 -53 -4 -63 9 -7 9 -23 16 -35 16 -11 0 -32 -9 -45 -19 -23
-18 -23 -18 8 -40 17 -12 31 -28 31 -36 0 -7 7 -21 16 -29 8 -9 28 -16 43 -16
18 0 34 8 42 21 9 13 32 24 64 30 28 5 60 19 75 33 14 13 34 26 45 28 11 2 20
10 20 18 0 11 -12 15 -40 16z"/>
</g>
</svg>
