<?xml version="1.0" standalone="no"?>
<!DOCTYPE svg PUBLIC "-//W3C//DTD SVG 20010904//EN"
 "http://www.w3.org/TR/2001/REC-SVG-20010904/DTD/svg10.dtd">
<svg version="1.0" xmlns="http://www.w3.org/2000/svg"
 width="128.000000pt" height="128.000000pt" viewBox="0 0 128.000000 128.000000"
 preserveAspectRatio="xMidYMid meet">
<metadata>
Created by potrace 1.16, written by Peter Selinger 2001-2019
</metadata>
<g transform="translate(0.000000,128.000000) scale(0.100000,-0.100000)"
fill="#000000" stroke="none">
<path d="M625 1254 c-28 3 -64 1 -81 -3 -17 -4 -36 -11 -42 -15 -7 -4 -12 -14
-12 -21 0 -8 17 -22 37 -30 21 -9 45 -23 55 -32 10 -9 18 -24 18 -34 0 -12
-15 -25 -42 -36 -24 -11 -62 -25 -86 -33 -35 -11 -46 -11 -66 0 -14 7 -32 10
-41 6 -14 -5 -16 -14 -11 -42 7 -33 6 -35 -13 -25 -11 6 -27 8 -35 5 -10 -4
-16 -19 -17 -38 -1 -17 -2 -51 -3 -76 -2 -25 -11 -67 -20 -95 -10 -27 -21 -59
-26 -70 -4 -11 -18 -51 -30 -90 -13 -38 -29 -77 -35 -85 -7 -8 -27 -49 -44
-90 -17 -41 -31 -81 -31 -88 0 -8 -7 -29 -16 -48 -9 -19 -14 -40 -11 -48 3 -8
22 -18 42 -22 21 -4 41 -2 49 5 8 6 24 40 36 74 13 34 31 80 40 102 10 22 26
67 35 100 9 33 21 68 26 77 5 10 9 26 9 37 0 10 8 29 19 42 17 21 21 22 46 11
16 -8 32 -9 39 -4 6 5 21 12 33 15 12 2 27 -1 33 -8 6 -7 7 -27 4 -46 -5 -24
-25 -51 -65 -89 -33 -31 -66 -74 -77 -100 -10 -25 -17 -51 -14 -58 2 -6 11
-12 19 -12 9 0 33 16 54 35 22 19 43 35 49 35 5 0 17 -12 27 -27 9 -16 25 -37
34 -48 10 -11 19 -36 21 -55 3 -32 6 -35 38 -37 19 -1 39 -2 43 -2 4 -1 2 -12
-5 -25 -7 -13 -55 -61 -105 -106 -51 -45 -93 -86 -93 -91 0 -5 7 -21 16 -34 9
-14 22 -25 30 -25 7 0 38 25 68 55 29 30 59 55 65 55 5 0 38 -27 71 -60 33
-33 67 -60 75 -60 8 0 23 8 34 19 10 10 37 43 60 74 29 38 54 60 77 67 28 10
39 9 58 -4 14 -8 36 -39 49 -69 14 -29 37 -59 51 -66 21 -11 28 -12 41 -1 10
8 15 30 15 63 0 43 -5 57 -40 101 -23 28 -51 67 -63 86 -13 19 -30 36 -40 38
-11 2 -50 -29 -107 -87 -58 -58 -98 -91 -112 -91 -12 0 -36 11 -55 26 -18 14
-33 34 -33 44 0 11 11 26 23 35 13 8 30 26 37 40 7 14 19 25 25 25 7 0 40 29
73 64 35 36 62 73 62 85 0 11 15 31 33 45 18 14 59 37 90 51 32 14 64 25 73
25 8 0 32 9 52 19 21 11 43 31 50 46 10 21 9 31 -3 55 -8 15 -26 37 -40 48
-14 11 -33 18 -43 16 -9 -2 -49 -10 -89 -19 -40 -8 -74 -15 -77 -15 -4 0 -6
17 -6 38 0 21 7 48 16 60 9 13 26 22 40 22 14 0 49 8 77 17 29 9 55 21 59 27
4 6 8 14 8 18 0 4 -8 14 -17 24 -14 13 -28 15 -75 10 -57 -6 -59 -5 -70 22 -7
15 -18 35 -26 45 -10 10 -29 17 -52 17 -21 0 -43 -7 -50 -15 -9 -11 -8 -19 4
-37 9 -12 16 -37 16 -55 0 -28 -6 -35 -42 -54 -24 -12 -56 -32 -71 -45 -16
-13 -34 -24 -42 -24 -7 0 -16 12 -20 27 -3 15 -12 31 -18 35 -7 4 -23 8 -36 8
-14 0 -37 11 -51 25 -24 23 -30 25 -54 14 -14 -7 -27 -17 -27 -23 -1 -6 -2
-27 -3 -46 -1 -33 -4 -36 -55 -53 -34 -11 -58 -14 -64 -8 -5 5 -6 28 -3 53 4
23 8 59 8 78 1 19 -2 45 -7 58 -7 20 -4 22 30 22 20 0 51 6 68 14 18 8 57 23
88 34 31 11 83 25 116 32 33 6 80 13 104 15 24 3 87 8 139 10 52 2 110 9 129
14 19 6 42 18 52 27 11 10 19 23 19 29 0 7 -12 21 -27 30 -16 10 -36 27 -47
37 -12 13 -25 18 -40 13 -11 -3 -39 -11 -61 -16 -22 -5 -51 -18 -65 -28 -14
-9 -45 -23 -70 -29 -41 -10 -47 -9 -77 14 -18 14 -33 31 -33 38 0 8 -6 18 -13
24 -7 6 -35 13 -62 16z m209 -456 c15 -2 22 -12 24 -31 2 -18 -2 -29 -13 -33
-9 -4 -24 1 -35 11 -11 10 -22 16 -24 14 -2 -2 -13 -24 -25 -48 -11 -25 -21
-50 -21 -55 0 -6 -16 -24 -35 -39 -21 -17 -35 -37 -35 -50 0 -12 7 -33 16 -45
16 -23 16 -23 65 23 27 25 53 44 58 41 5 -3 11 -18 14 -32 3 -18 -2 -33 -14
-45 -11 -11 -28 -19 -38 -19 -11 0 -23 -4 -26 -10 -3 -5 -16 -10 -29 -10 -12
0 -32 -9 -43 -20 -12 -11 -39 -22 -61 -26 -22 -3 -42 -2 -45 3 -3 5 -7 45 -8
89 -3 81 -3 81 62 142 35 34 87 72 114 85 28 14 57 32 64 41 8 9 24 16 35 14z
m-189 -22 c6 -1 10 -10 10 -20 0 -9 -12 -25 -27 -34 -19 -11 -31 -13 -38 -6
-6 6 -8 18 -5 26 4 9 16 20 28 26 12 6 27 9 32 8z m382 -97 c23 1 44 -3 47 -8
4 -5 4 -15 1 -23 -3 -7 -25 -25 -48 -39 -23 -15 -52 -32 -65 -38 -13 -7 -30
-10 -38 -7 -11 4 -14 18 -12 48 3 37 6 43 38 54 19 7 54 13 77 13z"/>
</g>
</svg>
