<?xml version="1.0" standalone="no"?>
<!DOCTYPE svg PUBLIC "-//W3C//DTD SVG 20010904//EN"
 "http://www.w3.org/TR/2001/REC-SVG-20010904/DTD/svg10.dtd">
<svg version="1.0" xmlns="http://www.w3.org/2000/svg"
 width="128.000000pt" height="128.000000pt" viewBox="0 0 128.000000 128.000000"
 preserveAspectRatio="xMidYMid meet">
<metadata>
Created by potrace 1.16, written by Peter Selinger 2001-2019
</metadata>
<g transform="translate(0.000000,128.000000) scale(0.100000,-0.100000)"
fill="#000000" stroke="none">
<path d="M600 1280 c-13 0 -20 -5 -17 -12 2 -7 10 -13 17 -13 7 0 15 6 18 13
2 7 -5 12 -18 12z"/>
<path d="M659 1280 c-14 0 -19 -5 -17 -17 2 -10 11 -19 21 -21 12 -2 17 3 17
17 0 15 -6 21 -21 21z"/>
<path d="M920 1280 c-27 0 -30 -3 -32 -32 -1 -18 -1 -42 0 -53 2 -11 3 -38 5
-60 2 -33 6 -40 22 -40 16 0 21 9 27 45 3 25 7 66 7 93 1 46 0 47 -29 47z"/>
<path d="M577 1188 c-11 9 -21 7 -47 -11 -19 -12 -38 -35 -43 -51 -8 -24 -6
-31 15 -50 14 -11 30 -40 37 -64 7 -23 12 -75 13 -115 1 -48 7 -84 20 -109 10
-21 18 -42 18 -48 0 -5 -16 -27 -35 -49 -19 -21 -35 -46 -35 -55 0 -13 -8 -15
-47 -9 -27 3 -51 11 -55 17 -4 6 -8 25 -8 42 0 17 -6 37 -14 43 -12 10 -18 8
-29 -11 -8 -13 -20 -47 -26 -75 -7 -33 -7 -61 -1 -77 5 -13 19 -31 32 -40 12
-9 35 -16 51 -16 15 0 30 7 33 15 4 8 10 15 15 15 5 0 9 -10 9 -22 0 -13 -11
-45 -24 -72 -13 -28 -45 -68 -72 -91 -44 -38 -47 -45 -47 -88 0 -25 5 -52 12
-60 8 -10 24 -13 49 -10 27 4 42 1 51 -11 10 -12 18 -13 33 -5 10 6 28 30 38
55 13 29 25 44 38 44 10 0 23 -5 30 -12 7 -7 12 -22 12 -35 0 -12 7 -47 14
-78 8 -30 17 -59 20 -64 3 -5 20 -11 38 -14 18 -2 42 -1 53 3 11 4 34 22 50
39 17 17 35 31 42 31 6 0 15 9 18 21 6 19 8 19 20 3 11 -16 14 -15 30 9 10 15
20 47 22 72 3 24 2 60 -1 79 -4 21 -20 48 -39 66 -18 17 -48 35 -67 40 -19 6
-42 16 -50 23 -8 7 -21 21 -28 32 -6 11 -15 26 -19 34 -3 8 1 18 11 23 9 5 14
14 10 19 -3 6 3 19 15 30 12 11 21 28 21 38 0 10 -8 25 -17 33 -10 9 -27 19
-39 22 -13 4 -25 20 -32 44 -6 20 -16 91 -22 157 -6 66 -16 130 -21 143 -5 13
-9 36 -9 53 0 16 -6 42 -14 58 -8 15 -21 33 -29 39z m34 -503 c5 -4 9 -13 9
-21 0 -8 -4 -14 -9 -14 -6 0 -13 5 -16 10 -3 6 -3 15 0 20 4 6 11 8 16 5z
m-72 -105 c10 -19 15 -41 13 -48 -3 -7 -12 -12 -21 -10 -9 2 -17 11 -19 21 -2
10 -1 31 3 45 7 27 7 27 24 -8z m-125 4 c9 -3 16 -13 16 -21 0 -8 -6 -13 -12
-11 -7 3 -14 12 -16 21 -2 12 1 15 12 11z m185 -44 c10 0 21 -12 28 -32 6 -18
11 -50 12 -70 0 -21 -3 -40 -8 -42 -5 -3 -15 2 -24 12 -9 9 -21 39 -27 65 -6
27 -8 53 -5 58 4 5 14 9 24 9z m-91 -60 c4 -1 17 -9 30 -19 12 -11 22 -26 22
-34 0 -8 -7 -20 -15 -27 -8 -6 -19 -9 -25 -5 -9 5 -9 10 -1 18 6 6 11 15 11
19 0 4 -7 8 -15 8 -8 0 -15 9 -15 20 0 11 3 20 8 20z m258 -100 c2 0 4 -15 3
-32 0 -31 -1 -31 -10 -10 -5 13 -7 28 -3 33 3 5 7 9 10 9z m-122 -13 c5 -2 14
-11 20 -20 7 -11 7 -20 1 -26 -6 -5 -19 -11 -30 -13 -15 -2 -21 3 -23 21 -2
13 2 28 10 32 7 5 17 7 22 6z"/>
<path d="M421 1010 c-4 0 -11 -3 -14 -7 -4 -3 -7 -15 -7 -25 0 -10 4 -18 8
-18 4 0 13 5 19 11 6 6 9 18 6 25 -3 8 -8 14 -12 14z"/>
<path d="M468 139 c-2 0 -9 -3 -15 -6 -7 -2 -13 -11 -13 -19 0 -8 7 -14 15
-14 8 0 15 9 15 20 0 11 -1 20 -2 19z"/>
<path d="M366 60 c-8 0 -18 -9 -21 -21 -4 -12 -2 -26 4 -32 9 -9 14 -8 21 3 5
8 10 23 10 33 0 9 -6 17 -14 17z"/>
</g>
</svg>
