<?xml version="1.0" standalone="no"?>
<!DOCTYPE svg PUBLIC "-//W3C//DTD SVG 20010904//EN"
 "http://www.w3.org/TR/2001/REC-SVG-20010904/DTD/svg10.dtd">
<svg version="1.0" xmlns="http://www.w3.org/2000/svg"
 width="128.000000pt" height="128.000000pt" viewBox="0 0 128.000000 128.000000"
 preserveAspectRatio="xMidYMid meet">
<metadata>
Created by potrace 1.16, written by Peter Selinger 2001-2019
</metadata>
<g transform="translate(0.000000,128.000000) scale(0.100000,-0.100000)"
fill="#000000" stroke="none">
<path d="M358 1259 c-1 -1 -24 -5 -50 -8 -27 -4 -53 -12 -60 -19 -8 -8 -8 -15
1 -25 6 -8 26 -17 44 -20 18 -3 50 -12 70 -21 29 -12 37 -20 37 -41 0 -14 6
-41 14 -60 8 -19 18 -55 21 -79 7 -43 5 -48 -28 -81 -31 -31 -38 -33 -65 -26
-27 8 -33 6 -47 -15 -11 -17 -24 -24 -38 -22 -18 2 -22 9 -20 38 1 19 3 58 5
85 1 36 -3 58 -17 79 -11 16 -35 35 -55 43 -19 8 -43 22 -52 30 -10 9 -24 13
-33 10 -8 -4 -15 -14 -15 -23 0 -9 14 -32 31 -51 17 -20 29 -43 26 -52 -3 -9
-14 -52 -26 -96 -12 -44 -25 -90 -31 -102 -5 -13 -5 -35 1 -57 6 -20 20 -43
32 -51 18 -11 31 -12 62 -4 22 6 58 16 80 22 22 6 44 14 50 19 5 4 19 8 32 8
13 0 45 11 72 25 27 13 51 21 55 18 3 -4 6 -10 6 -15 0 -4 -6 -8 -14 -8 -8 0
-29 -26 -46 -57 -18 -32 -44 -72 -59 -89 -14 -17 -44 -55 -66 -84 -22 -29 -55
-68 -72 -86 -33 -33 -33 -33 3 -103 19 -39 44 -73 54 -76 11 -3 32 0 47 8 15
8 52 20 81 26 29 6 64 18 77 27 14 9 61 24 104 34 44 10 83 15 86 12 3 -3 5
-12 5 -19 0 -8 -48 -62 -107 -120 -60 -57 -116 -109 -125 -114 -10 -5 -18 -16
-18 -24 0 -7 -12 -22 -27 -33 -21 -16 -25 -24 -17 -32 7 -7 22 -10 35 -8 16 2
25 11 27 26 2 12 8 22 13 22 5 0 21 14 36 30 14 17 32 30 38 30 7 0 41 27 76
60 35 33 65 60 67 60 2 0 22 15 44 33 22 17 59 50 82 72 23 22 64 58 90 80 27
22 67 65 89 95 22 30 78 90 124 133 46 44 94 98 108 121 14 24 25 53 25 65 0
12 -11 44 -25 72 -14 27 -42 66 -63 87 -29 29 -59 44 -141 71 -82 26 -105 31
-111 20 -5 -7 -4 -21 1 -31 5 -10 13 -18 18 -18 4 0 29 -27 55 -60 26 -32 60
-67 76 -77 16 -9 32 -23 34 -29 3 -7 -8 -29 -24 -49 -16 -20 -31 -49 -35 -65
-3 -16 -17 -36 -31 -44 -13 -9 -24 -25 -24 -36 0 -11 5 -20 10 -20 6 0 10 -7
10 -15 0 -10 -10 -15 -29 -15 -17 0 -33 -4 -36 -10 -3 -5 -15 -15 -25 -20 -17
-9 -31 0 -97 60 -43 39 -82 75 -88 81 -5 5 -20 20 -32 31 -13 12 -23 27 -23
33 0 7 31 26 69 43 39 18 73 37 76 42 4 6 3 24 0 41 -4 18 -16 34 -28 39 -12
4 -40 20 -61 35 -37 25 -42 26 -78 14 -30 -10 -40 -9 -53 1 -8 7 -15 18 -15
25 0 7 -11 29 -25 49 -14 20 -25 44 -25 52 0 9 -8 29 -17 45 -13 21 -31 33
-69 44 -29 8 -54 14 -56 14z m219 -439 c13 0 26 -7 30 -17 3 -10 24 -43 47
-73 23 -30 43 -57 47 -60 3 -3 17 -21 32 -41 15 -20 27 -42 27 -50 0 -8 -15
-24 -33 -36 -17 -12 -59 -31 -92 -43 -33 -12 -73 -26 -90 -30 -16 -5 -49 -14
-73 -21 -32 -9 -45 -9 -56 1 -8 6 -12 19 -8 28 3 9 12 23 19 30 7 7 13 20 13
27 0 8 11 24 24 37 13 13 27 37 30 53 4 17 12 59 17 95 6 36 18 73 26 83 9 9
27 17 40 17z"/>
<path d="M1212 152 c-6 6 -12 6 -17 -2 -4 -6 -3 -16 3 -22 6 -6 12 -6 17 2 4
6 3 16 -3 22z"/>
<path d="M485 20 c-13 0 -27 -4 -30 -10 -4 -6 8 -10 30 -10 22 0 34 4 30 10
-3 5 -17 10 -30 10z"/>
</g>
</svg>
