<?xml version="1.0" standalone="no"?>
<!DOCTYPE svg PUBLIC "-//W3C//DTD SVG 20010904//EN"
 "http://www.w3.org/TR/2001/REC-SVG-20010904/DTD/svg10.dtd">
<svg version="1.0" xmlns="http://www.w3.org/2000/svg"
 width="128.000000pt" height="128.000000pt" viewBox="0 0 128.000000 128.000000"
 preserveAspectRatio="xMidYMid meet">
<metadata>
Created by potrace 1.16, written by Peter Selinger 2001-2019
</metadata>
<g transform="translate(0.000000,128.000000) scale(0.100000,-0.100000)"
fill="#000000" stroke="none">
<path d="M478 1087 c-41 -1 -62 -6 -66 -16 -3 -8 8 -25 27 -40 28 -23 31 -31
30 -76 0 -27 0 -57 1 -65 0 -8 -2 -35 -6 -58 -5 -32 -13 -46 -28 -52 -12 -4
-42 -14 -67 -23 -30 -9 -51 -12 -62 -6 -13 8 -15 21 -10 72 5 54 3 64 -16 81
-11 10 -33 20 -48 22 -16 2 -35 -1 -43 -6 -12 -7 -12 -12 3 -28 9 -10 17 -31
17 -47 0 -15 -9 -59 -21 -97 -11 -38 -19 -83 -17 -101 2 -22 9 -33 22 -35 10
-2 37 4 60 13 22 10 50 21 61 26 11 5 32 18 46 30 18 15 33 19 49 14 19 -6 21
-11 15 -48 -4 -23 -15 -59 -25 -82 -13 -30 -28 -46 -62 -63 -25 -12 -49 -22
-55 -22 -5 0 -24 -16 -43 -35 -20 -21 -44 -35 -58 -35 -13 0 -49 -7 -80 -16
-32 -9 -65 -23 -74 -32 -10 -8 -18 -28 -18 -43 0 -19 8 -34 25 -45 18 -12 38
-15 67 -11 22 3 53 14 67 24 14 10 53 30 86 45 33 14 103 45 155 67 52 23 104
41 115 41 11 0 38 7 60 14 22 8 77 17 123 21 61 6 85 12 91 24 5 9 11 70 14
136 3 66 12 143 21 170 10 32 34 71 66 107 40 45 62 60 109 76 32 11 70 17 85
15 16 -3 26 -12 26 -22 -1 -9 -7 -42 -15 -74 -7 -32 -18 -64 -24 -71 -6 -7
-23 -35 -37 -62 -14 -27 -53 -89 -85 -137 -32 -49 -59 -91 -59 -95 0 -4 -19
-34 -42 -67 -23 -33 -51 -74 -63 -91 -12 -17 -31 -44 -44 -60 -12 -16 -40 -51
-61 -79 -22 -27 -40 -55 -40 -62 0 -9 17 -13 54 -13 53 0 55 1 84 44 17 24 37
52 46 62 9 11 29 35 44 54 15 19 34 47 41 62 8 15 48 70 90 122 42 53 90 115
106 138 17 23 42 63 58 88 15 25 41 74 57 109 17 35 30 71 30 80 0 10 -14 38
-30 64 -22 35 -42 53 -78 68 -33 15 -61 19 -94 16 -31 -3 -63 -15 -100 -40
-29 -19 -67 -50 -85 -69 -17 -18 -56 -80 -87 -138 -37 -72 -57 -122 -62 -160
-5 -40 -14 -62 -35 -82 -15 -16 -36 -28 -46 -28 -10 0 -40 -11 -66 -25 -26
-14 -52 -23 -58 -19 -8 4 -9 43 -4 123 4 64 11 124 16 134 6 9 18 17 29 17 10
0 22 4 25 10 3 5 16 9 28 8 12 -1 34 6 50 16 15 10 27 23 27 30 0 6 -9 26 -20
44 -17 28 -25 32 -64 32 -41 0 -44 2 -48 32 -3 17 0 44 5 59 9 23 8 32 -7 48
-14 16 -29 19 -78 18z"/>
</g>
</svg>
