<?xml version="1.0" standalone="no"?>
<!DOCTYPE svg PUBLIC "-//W3C//DTD SVG 20010904//EN"
 "http://www.w3.org/TR/2001/REC-SVG-20010904/DTD/svg10.dtd">
<svg version="1.0" xmlns="http://www.w3.org/2000/svg"
 width="128.000000pt" height="128.000000pt" viewBox="0 0 128.000000 128.000000"
 preserveAspectRatio="xMidYMid meet">
<metadata>
Created by potrace 1.16, written by Peter Selinger 2001-2019
</metadata>
<g transform="translate(0.000000,128.000000) scale(0.100000,-0.100000)"
fill="#000000" stroke="none">
<path d="M486 1040 c-8 0 -18 -6 -24 -12 -6 -7 -12 -62 -14 -123 -1 -60 1
-122 5 -136 7 -22 5 -27 -11 -31 -12 -3 -22 -16 -24 -29 -2 -15 -9 -23 -18
-20 -8 2 -31 4 -50 5 -35 1 -35 1 -37 56 -1 30 -6 78 -11 107 -4 28 -15 59
-23 69 -8 9 -27 23 -43 29 -16 7 -37 10 -47 8 -11 -3 -19 -9 -19 -14 0 -5 18
-22 40 -37 39 -26 40 -28 34 -72 -3 -25 -15 -67 -27 -95 -11 -27 -31 -66 -44
-85 -18 -27 -23 -49 -23 -98 0 -45 4 -64 14 -68 8 -3 25 0 38 7 13 6 49 32 81
55 31 24 61 44 66 44 5 0 11 6 14 14 4 10 -4 19 -21 25 -22 9 -17 10 28 5 30
-4 59 -8 63 -11 5 -3 5 -24 2 -47 -4 -22 -11 -54 -16 -71 -4 -16 -11 -47 -14
-68 -4 -27 -13 -40 -28 -47 -12 -4 -49 -13 -82 -20 -33 -6 -91 -20 -130 -31
-38 -11 -77 -25 -85 -30 -8 -5 -25 -14 -38 -21 -12 -6 -25 -22 -29 -35 -3 -14
-1 -29 5 -35 7 -7 42 -1 114 22 57 17 153 45 213 61 94 26 134 31 275 35 95 4
171 10 178 17 7 6 17 18 23 28 5 10 6 25 3 33 -3 9 -11 16 -17 16 -6 0 -19 8
-30 17 -18 17 -19 17 -32 0 -6 -9 -20 -17 -29 -17 -10 0 -24 7 -32 15 -11 10
-21 12 -32 6 -9 -5 -40 -12 -67 -15 -42 -6 -53 -4 -67 11 -8 10 -18 25 -20 33
-3 8 1 23 10 32 12 15 13 22 2 49 -9 22 -10 33 -2 38 6 3 10 28 9 55 -2 48 -2
48 42 66 25 9 49 27 54 38 5 12 21 22 35 24 18 2 28 12 35 31 6 20 5 34 -7 51
-8 14 -32 32 -53 41 -21 10 -57 41 -81 71 -24 30 -49 54 -56 54z"/>
<path d="M945 899 c-16 -1 -37 -3 -47 -6 -9 -2 -19 -10 -22 -18 -3 -8 -2 -16
2 -18 4 -2 27 -9 52 -16 25 -7 73 -26 108 -43 50 -24 62 -35 62 -54 0 -13 -9
-28 -21 -34 -11 -7 -28 -9 -36 -6 -9 4 -31 4 -49 0 -19 -3 -34 -12 -34 -19 0
-8 19 -14 50 -17 33 -3 63 -15 91 -34 23 -16 55 -38 71 -48 30 -19 30 -19 69
25 27 31 38 53 39 77 0 17 -4 32 -10 32 -5 0 -20 24 -34 53 -20 44 -32 56 -77
79 -30 15 -83 32 -119 37 -36 6 -78 10 -95 10z"/>
</g>
</svg>
