<?xml version="1.0" standalone="no"?>
<!DOCTYPE svg PUBLIC "-//W3C//DTD SVG 20010904//EN"
 "http://www.w3.org/TR/2001/REC-SVG-20010904/DTD/svg10.dtd">
<svg version="1.0" xmlns="http://www.w3.org/2000/svg"
 width="128.000000pt" height="128.000000pt" viewBox="0 0 128.000000 128.000000"
 preserveAspectRatio="xMidYMid meet">
<metadata>
Created by potrace 1.16, written by Peter Selinger 2001-2019
</metadata>
<g transform="translate(0.000000,128.000000) scale(0.100000,-0.100000)"
fill="#000000" stroke="none">
<path d="M230 1150 c-4 0 -15 -8 -24 -19 -11 -12 -18 -38 -19 -77 -2 -56 -1
-59 20 -57 16 2 27 -6 38 -28 13 -24 14 -34 4 -45 -6 -8 -16 -14 -20 -14 -5 0
-14 11 -19 25 -5 14 -14 25 -20 25 -6 0 -19 -13 -28 -30 -9 -16 -23 -30 -29
-30 -8 0 -13 -15 -13 -37 -1 -21 -2 -54 -3 -73 -2 -32 0 -35 23 -32 14 2 31 9
37 14 7 6 20 8 28 4 9 -3 15 -18 15 -39 0 -18 5 -38 11 -44 8 -8 8 -19 -2 -42
-8 -17 -17 -31 -21 -31 -5 0 -8 -6 -8 -13 0 -7 -13 -28 -30 -47 -16 -19 -29
-40 -30 -46 0 -6 -9 -19 -20 -29 -11 -10 -20 -24 -20 -31 0 -7 -6 -17 -12 -21
-7 -4 -22 -21 -34 -38 -11 -16 -23 -41 -27 -55 -3 -14 -10 -42 -15 -62 -6 -24
-6 -38 0 -38 5 0 24 11 42 25 18 14 39 25 47 25 8 0 34 26 59 57 25 32 60 75
79 96 26 29 37 35 47 26 8 -6 14 -24 14 -39 0 -15 7 -33 15 -40 8 -7 15 -29
16 -49 0 -20 6 -58 13 -86 11 -46 14 -50 39 -48 25 2 27 -1 21 -20 -4 -12 -8
-31 -8 -42 -1 -16 5 -20 33 -18 18 0 38 6 44 12 5 5 10 27 11 48 1 31 5 39 24
41 15 2 22 10 22 26 0 13 9 31 20 41 19 17 21 17 33 2 7 -10 23 -15 41 -13 16
2 35 10 41 20 9 11 21 14 41 10 26 -5 30 -2 41 26 8 23 17 31 27 27 10 -4 22
4 33 23 9 17 21 30 25 30 4 0 5 7 1 15 -3 9 2 24 10 33 9 9 22 39 29 66 11 42
11 49 -4 60 -9 7 -20 24 -23 39 -4 16 -2 33 4 41 9 11 9 24 -1 56 -7 25 -25
52 -40 63 -16 12 -28 28 -28 37 0 9 5 21 11 27 7 7 7 13 1 17 -6 3 -25 -8 -43
-25 -18 -16 -45 -33 -60 -36 -16 -3 -31 -14 -35 -25 -5 -15 -11 -18 -35 -13
-23 5 -40 1 -69 -19 -22 -14 -48 -26 -59 -26 -11 0 -29 -12 -40 -27 -11 -16
-24 -31 -28 -36 -5 -4 -19 -16 -32 -27 -13 -11 -31 -20 -39 -20 -10 0 -12 5
-6 18 4 9 8 40 10 69 1 28 10 69 20 90 10 21 28 54 39 73 12 19 26 46 30 60 4
14 26 41 49 61 40 36 40 36 6 54 -30 16 -36 16 -60 2 -14 -9 -34 -15 -45 -14
-14 1 -20 -5 -21 -21 -1 -12 -4 -25 -7 -29 -3 -3 -13 -3 -22 1 -8 3 -19 16
-25 30 -5 13 -14 27 -19 31 -6 3 -11 17 -11 31 0 13 -6 24 -13 24 -8 0 -20 11
-27 25 -7 14 -16 25 -20 25z m15 -310 c2 0 10 -6 17 -13 9 -9 12 -30 10 -61
-3 -37 -8 -46 -20 -44 -10 2 -19 19 -24 41 -5 23 -4 46 2 58 6 10 12 19 15 19z
m404 -107 c2 -1 -4 -18 -13 -37 -9 -19 -16 -38 -16 -44 0 -5 -7 -15 -15 -22
-8 -7 -15 -21 -15 -31 0 -11 -4 -19 -10 -19 -5 0 -10 -14 -10 -31 0 -16 -11
-54 -25 -84 -14 -29 -32 -59 -41 -66 -13 -10 -21 -9 -45 5 -16 10 -40 28 -54
40 -16 15 -25 35 -26 62 -1 26 6 52 21 77 15 25 28 36 37 33 9 -4 17 1 20 12
3 11 41 36 96 63 51 25 94 44 96 42z m58 -3 c6 0 21 -13 32 -29 12 -16 21 -35
21 -43 0 -7 9 -26 20 -43 14 -21 16 -33 9 -42 -6 -6 -8 -17 -4 -23 4 -6 0 -19
-8 -28 -8 -9 -18 -28 -22 -42 -4 -14 -21 -42 -38 -62 -17 -21 -38 -38 -47 -38
-9 0 -32 -7 -50 -16 -27 -14 -34 -14 -41 -3 -5 8 -9 26 -9 42 0 15 11 44 25
65 17 26 25 53 26 87 1 28 5 55 9 60 4 6 7 17 7 26 0 9 13 32 29 52 16 21 34
37 41 37z m-434 -139 c5 -5 2 -21 -7 -40 -9 -17 -23 -31 -32 -31 -11 0 -14 6
-8 23 3 12 13 30 22 40 9 10 19 14 25 8z m136 -187 c15 -16 38 -37 50 -47 18
-14 21 -24 16 -45 -4 -15 -11 -30 -17 -33 -6 -4 -22 -3 -37 0 -21 6 -26 13
-27 42 -1 19 -7 45 -13 58 -7 12 -10 30 -7 38 5 13 12 10 35 -13z"/>
<path d="M1025 963 c-27 1 -63 1 -80 -1 -16 -1 -41 -8 -55 -14 -14 -5 -36 -16
-50 -24 -14 -7 -25 -19 -25 -26 0 -7 5 -12 10 -11 6 1 35 11 65 23 47 18 61
19 95 9 27 -7 50 -23 70 -49 17 -22 36 -39 43 -40 6 0 12 -6 12 -14 0 -7 11
-30 25 -50 21 -30 23 -40 13 -61 -9 -20 -7 -29 8 -52 10 -15 17 -38 15 -50 -1
-12 9 -39 23 -60 14 -21 26 -43 26 -49 0 -6 8 -18 18 -27 10 -10 24 -17 30
-17 8 0 12 30 12 100 0 92 -2 101 -25 124 -14 14 -25 34 -25 44 0 11 -7 25
-15 32 -8 7 -15 22 -15 34 0 12 -7 32 -16 44 -8 12 -13 26 -10 31 3 4 -18 29
-46 55 -47 42 -58 48 -103 49z"/>
</g>
</svg>
