<?xml version="1.0" standalone="no"?>
<!DOCTYPE svg PUBLIC "-//W3C//DTD SVG 20010904//EN"
 "http://www.w3.org/TR/2001/REC-SVG-20010904/DTD/svg10.dtd">
<svg version="1.0" xmlns="http://www.w3.org/2000/svg"
 width="128.000000pt" height="128.000000pt" viewBox="0 0 128.000000 128.000000"
 preserveAspectRatio="xMidYMid meet">
<metadata>
Created by potrace 1.16, written by Peter Selinger 2001-2019
</metadata>
<g transform="translate(0.000000,128.000000) scale(0.100000,-0.100000)"
fill="#000000" stroke="none">
<path d="M648 1279 c-2 -1 -15 -13 -30 -28 -16 -15 -28 -33 -28 -40 0 -7 9
-20 20 -29 19 -16 21 -31 24 -184 3 -160 2 -168 -18 -186 -12 -11 -43 -22 -72
-26 -43 -5 -53 -4 -58 10 -4 9 3 36 14 59 11 23 20 61 20 86 0 34 -9 58 -36
102 -23 37 -42 57 -55 57 -10 0 -20 -6 -20 -12 -1 -7 -3 -26 -4 -43 -1 -16 -8
-61 -14 -100 -6 -38 -25 -98 -41 -132 -17 -34 -36 -81 -44 -105 -7 -24 -11
-49 -8 -56 2 -6 17 -12 32 -12 18 0 43 11 62 28 18 16 42 32 53 37 11 4 40 12
65 17 25 5 57 11 72 14 20 5 29 1 39 -17 10 -18 14 -95 16 -284 2 -143 1 -270
-2 -281 -4 -16 -15 -23 -47 -28 -24 -3 -63 -10 -88 -15 -25 -5 -67 -14 -95
-19 -27 -5 -58 -13 -67 -17 -14 -5 -18 -2 -18 15 0 12 28 70 62 128 34 59 70
124 80 145 17 34 17 39 3 67 -11 20 -23 30 -39 30 -20 0 -30 -13 -58 -72 -19
-40 -53 -102 -76 -138 -22 -36 -50 -81 -62 -100 -12 -19 -24 -49 -27 -67 -3
-17 -3 -43 1 -57 4 -16 13 -26 25 -26 10 0 31 7 47 15 17 8 66 17 110 19 43 3
106 10 139 15 33 5 105 21 160 36 70 18 140 29 231 33 91 5 137 12 149 22 15
12 16 26 10 100 -3 47 -8 111 -10 144 -2 46 -8 63 -28 83 -24 25 -27 25 -68
12 -32 -10 -44 -20 -45 -34 -1 -11 -4 -28 -8 -37 -4 -9 -3 -26 3 -37 6 -11 14
-47 18 -80 4 -40 2 -65 -6 -75 -6 -8 -33 -21 -59 -29 -26 -8 -59 -17 -73 -21
-16 -3 -31 -1 -37 7 -5 6 -13 46 -17 87 -4 41 -9 106 -11 145 -2 38 -3 77 -3
85 0 8 2 58 3 110 3 67 -1 103 -11 123 -11 22 -11 28 -1 31 7 3 38 7 68 9 30
2 65 0 77 -6 18 -8 29 -5 59 18 20 15 43 44 52 64 8 20 15 46 14 59 -1 13 5
36 13 52 8 16 15 42 15 58 0 15 -5 33 -12 40 -7 7 -26 12 -44 12 -17 0 -37 -6
-43 -14 -6 -7 -8 -21 -5 -30 4 -10 2 -34 -4 -54 -6 -20 -14 -53 -19 -72 -7
-28 -15 -36 -43 -43 -19 -5 -52 -11 -72 -14 -29 -4 -39 -1 -44 11 -4 9 -1 92
6 183 13 167 13 167 -21 195 -19 15 -42 35 -51 43 -10 8 -19 15 -20 14z"/>
</g>
</svg>
