<?xml version="1.0" standalone="no"?>
<!DOCTYPE svg PUBLIC "-//W3C//DTD SVG 20010904//EN"
 "http://www.w3.org/TR/2001/REC-SVG-20010904/DTD/svg10.dtd">
<svg version="1.0" xmlns="http://www.w3.org/2000/svg"
 width="128.000000pt" height="128.000000pt" viewBox="0 0 128.000000 128.000000"
 preserveAspectRatio="xMidYMid meet">
<metadata>
Created by potrace 1.16, written by Peter Selinger 2001-2019
</metadata>
<g transform="translate(0.000000,128.000000) scale(0.100000,-0.100000)"
fill="#000000" stroke="none">
<path d="M175 1140 c-19 0 -39 -8 -49 -19 -15 -16 -16 -25 -6 -63 6 -23 22
-72 36 -108 14 -36 33 -83 43 -105 10 -22 16 -46 14 -52 -3 -7 -11 -13 -18
-13 -7 0 -27 -11 -43 -25 -17 -14 -35 -25 -41 -25 -5 0 -15 9 -21 20 -6 12
-10 28 -9 38 2 9 -2 27 -9 40 -7 12 -19 22 -27 22 -8 0 -19 -9 -25 -21 -7 -13
-9 -48 -4 -98 5 -64 11 -84 31 -105 13 -14 32 -26 41 -26 9 0 26 -3 37 -6 13
-3 31 4 50 20 17 14 33 26 36 26 4 0 11 -6 18 -13 8 -10 3 -29 -19 -74 -16
-33 -36 -66 -45 -73 -8 -7 -15 -21 -15 -31 0 -11 -18 -37 -40 -60 -21 -22 -53
-67 -69 -100 -23 -47 -28 -65 -21 -88 4 -15 13 -38 19 -50 7 -11 20 -21 29
-21 10 0 26 6 37 14 11 7 30 17 43 21 17 5 29 1 46 -18 22 -24 22 -24 304 -26
282 -1 282 -1 280 26 -1 16 2 38 6 50 4 12 15 25 25 28 11 3 35 20 55 38 19
18 56 48 82 67 26 19 59 47 73 61 14 15 35 29 46 33 11 3 32 17 47 31 16 14
28 30 28 34 0 5 18 16 39 25 32 12 44 25 60 62 12 26 21 57 21 70 0 13 5 24
10 24 6 0 10 16 10 35 0 19 -4 35 -10 35 -5 0 -10 7 -10 15 0 9 -7 30 -16 48
-9 18 -26 42 -37 55 -12 12 -32 22 -48 22 -14 0 -33 7 -40 17 -8 9 -27 22 -44
29 -21 8 -52 10 -105 4 -45 -4 -101 -19 -140 -35 -36 -16 -72 -35 -80 -42 -13
-13 -13 -16 2 -27 12 -9 43 -12 100 -9 54 2 88 9 98 18 9 8 21 15 27 15 6 0
13 -8 15 -18 3 -10 22 -22 51 -29 40 -11 49 -18 62 -50 9 -22 13 -49 10 -65
-4 -16 -24 -51 -46 -78 -21 -27 -39 -53 -39 -57 0 -5 -10 -18 -22 -31 -13 -12
-40 -38 -60 -58 -21 -20 -38 -42 -38 -49 0 -8 -9 -17 -21 -20 -12 -4 -37 -18
-56 -31 -19 -13 -47 -41 -63 -63 -16 -21 -39 -43 -52 -46 -13 -4 -39 -25 -59
-46 -20 -22 -41 -39 -47 -39 -7 0 -12 11 -12 25 0 18 17 42 54 78 30 29 57 64
60 77 2 14 7 53 10 87 4 46 1 72 -10 95 -9 18 -35 48 -59 66 -25 17 -51 32
-59 32 -8 0 -39 -22 -69 -50 -30 -27 -62 -50 -71 -50 -9 0 -16 -4 -16 -10 0
-5 -9 -14 -20 -20 -16 -9 -22 -6 -35 19 -8 17 -15 39 -15 51 0 12 15 31 40 48
21 15 39 32 40 38 0 6 21 47 47 90 29 48 50 97 55 129 5 27 11 64 14 81 4 19
1 34 -8 41 -8 7 -31 9 -56 6 -27 -4 -46 -12 -53 -24 -5 -11 -17 -19 -26 -19
-10 0 -36 -19 -59 -41 -28 -27 -48 -40 -58 -36 -12 5 -16 20 -16 60 0 33 -8
73 -21 103 -12 27 -31 59 -42 72 -13 14 -32 22 -52 22z m168 -303 c6 -2 12
-14 12 -27 0 -13 -6 -25 -12 -27 -7 -3 -16 2 -19 11 -3 9 -3 23 0 32 3 9 12
14 19 11z m-29 -377 c6 0 17 -5 24 -12 7 -7 12 -24 12 -40 0 -15 -5 -49 -11
-77 -9 -45 -13 -50 -43 -55 -18 -4 -40 -4 -49 0 -9 3 -19 14 -22 24 -3 11 4
38 16 62 12 24 30 55 41 71 11 15 25 27 32 27z m210 -20 c19 0 29 -7 37 -26 7
-20 6 -32 -4 -48 -8 -12 -18 -37 -22 -56 -4 -19 -16 -45 -28 -57 -19 -22 -22
-22 -39 -6 -10 9 -18 29 -18 44 0 15 -4 31 -10 34 -5 3 -10 17 -10 29 0 17 9
27 29 36 16 6 31 20 34 31 3 13 14 19 31 19z m-224 -180 c13 0 20 -7 20 -18 0
-10 -3 -21 -6 -25 -3 -3 -12 -3 -20 0 -8 3 -14 14 -14 24 0 12 7 19 20 19z"/>
<path d="M713 840 c-4 -1 -25 -10 -46 -21 -29 -15 -37 -25 -35 -42 2 -12 11
-23 20 -25 9 -2 31 10 49 26 22 19 30 34 26 45 -4 10 -10 17 -14 17z"/>
</g>
</svg>
