<?xml version="1.0" standalone="no"?>
<!DOCTYPE svg PUBLIC "-//W3C//DTD SVG 20010904//EN"
 "http://www.w3.org/TR/2001/REC-SVG-20010904/DTD/svg10.dtd">
<svg version="1.0" xmlns="http://www.w3.org/2000/svg"
 width="128.000000pt" height="128.000000pt" viewBox="0 0 128.000000 128.000000"
 preserveAspectRatio="xMidYMid meet">
<metadata>
Created by potrace 1.16, written by Peter Selinger 2001-2019
</metadata>
<g transform="translate(0.000000,128.000000) scale(0.100000,-0.100000)"
fill="#000000" stroke="none">
<path d="M400 1160 c-19 0 -33 -7 -40 -19 -5 -11 -10 -29 -10 -40 0 -13 -12
-26 -35 -37 -22 -10 -38 -26 -41 -41 -5 -19 1 -33 31 -63 25 -26 40 -52 46
-82 4 -23 8 -64 9 -90 0 -44 -3 -49 -47 -85 -27 -21 -52 -44 -56 -51 -5 -7
-12 -10 -17 -7 -6 3 -20 -3 -32 -15 -13 -11 -32 -19 -43 -18 -18 3 -20 10 -19
93 1 74 5 99 26 140 13 28 30 60 38 71 7 12 10 29 6 40 -7 17 -10 16 -33 -11
-14 -16 -43 -50 -63 -73 -36 -41 -39 -49 -45 -128 -6 -64 -3 -101 10 -156 9
-40 23 -91 30 -113 7 -22 19 -44 27 -49 10 -6 38 3 88 28 41 20 80 36 87 36 7
0 18 -12 23 -26 6 -14 10 -42 9 -62 0 -20 -4 -45 -8 -56 -4 -10 -25 -24 -47
-32 -21 -8 -61 -14 -87 -14 -26 0 -61 -7 -77 -15 -16 -8 -35 -25 -41 -37 -6
-11 -29 -40 -51 -64 -23 -25 -37 -48 -33 -55 5 -7 22 -9 48 -5 22 4 68 18 102
31 34 14 69 25 79 25 9 0 29 6 44 14 15 8 52 19 82 26 30 6 84 13 120 15 36 3
113 7 172 8 102 3 109 5 133 31 14 15 25 36 25 46 0 11 -7 25 -16 32 -9 7 -29
26 -45 42 -16 15 -29 34 -29 42 0 8 -6 14 -14 14 -8 0 -20 -15 -26 -34 -6 -19
-17 -39 -25 -46 -7 -6 -37 -15 -67 -21 -29 -5 -66 -12 -82 -14 -16 -3 -38 -12
-48 -22 -10 -9 -20 -14 -23 -11 -3 2 0 42 7 87 9 63 9 100 0 158 -12 72 -11
77 9 96 11 10 23 17 26 14 3 -3 -2 -16 -11 -29 -9 -12 -16 -28 -16 -35 0 -7 5
-13 11 -13 6 0 13 9 16 20 3 11 14 20 24 20 10 0 23 9 29 20 6 11 15 20 20 20
5 0 27 19 49 43 22 23 41 49 41 58 0 8 -7 37 -16 64 -10 27 -34 65 -55 86 -24
24 -49 39 -63 39 -13 0 -30 7 -37 16 -8 10 -20 47 -27 83 -7 36 -12 76 -12 89
0 18 -6 22 -30 22z m75 -259 c19 -9 34 -18 35 -21 0 -3 -13 -11 -30 -18 -16
-8 -34 -11 -40 -7 -5 3 -10 16 -10 29 0 12 2 25 5 28 3 3 21 -2 40 -11z m24
-71 c5 0 12 -7 15 -16 3 -8 1 -24 -4 -35 -6 -10 -16 -19 -21 -19 -6 0 -8 7 -5
16 3 9 6 24 6 35 0 10 4 19 9 19z m-57 -40 c6 0 7 -7 3 -17 -4 -10 -7 -33 -6
-50 1 -22 -3 -33 -12 -33 -8 0 -16 3 -19 6 -4 3 1 25 9 50 8 24 19 44 25 44z
m-131 -140 c5 0 9 -6 9 -12 0 -7 -7 -21 -14 -30 -7 -10 -18 -18 -25 -18 -6 0
-11 2 -11 5 0 3 7 17 16 30 9 14 20 25 25 25z m-9 -72 c6 -2 14 -10 16 -16 2
-7 -3 -12 -12 -12 -9 0 -16 7 -16 16 0 9 5 14 12 12z"/>
<path d="M1266 1000 c-7 0 -22 -21 -34 -47 -11 -27 -24 -60 -27 -74 -5 -21 0
-31 25 -53 17 -14 36 -26 40 -26 5 0 9 45 9 100 0 74 -3 100 -13 100z"/>
<path d="M1011 820 c-37 0 -72 -4 -80 -9 -8 -5 -11 -16 -8 -25 4 -9 15 -16 25
-16 10 0 39 -14 65 -30 45 -28 47 -32 42 -63 -6 -31 -4 -34 35 -52 23 -10 62
-33 87 -51 25 -18 52 -30 59 -27 8 3 17 16 20 30 4 13 3 47 0 75 -5 38 -15 58
-39 82 -18 18 -57 45 -86 59 -43 21 -69 27 -120 27z"/>
<path d="M1031 370 c-6 0 -13 -4 -16 -10 -3 -5 -3 -15 0 -20 4 -6 11 -8 16 -5
5 4 9 13 9 21 0 8 -4 14 -9 14z"/>
</g>
</svg>
