<?xml version="1.0" standalone="no"?>
<!DOCTYPE svg PUBLIC "-//W3C//DTD SVG 20010904//EN"
 "http://www.w3.org/TR/2001/REC-SVG-20010904/DTD/svg10.dtd">
<svg version="1.0" xmlns="http://www.w3.org/2000/svg"
 width="128.000000pt" height="128.000000pt" viewBox="0 0 128.000000 128.000000"
 preserveAspectRatio="xMidYMid meet">
<metadata>
Created by potrace 1.16, written by Peter Selinger 2001-2019
</metadata>
<g transform="translate(0.000000,128.000000) scale(0.100000,-0.100000)"
fill="#000000" stroke="none">
<path d="M186 1170 c-7 0 -17 -5 -24 -12 -7 -7 -12 -19 -12 -28 0 -9 -9 -43
-20 -76 -11 -32 -24 -68 -29 -79 -6 -11 -22 -56 -36 -100 -15 -44 -33 -89 -41
-100 -8 -11 -14 -29 -14 -42 0 -12 6 -28 14 -36 13 -12 22 -12 63 -2 26 7 65
20 86 29 21 10 48 14 62 10 16 -4 35 0 51 11 16 11 35 14 51 10 16 -4 34 0 49
10 22 14 25 14 31 0 3 -9 0 -35 -7 -58 -7 -23 -17 -54 -22 -69 -6 -15 -54 -73
-108 -128 -53 -55 -104 -100 -112 -100 -8 0 -24 -10 -35 -23 -11 -12 -29 -42
-40 -67 -11 -25 -28 -64 -38 -87 -10 -23 -15 -49 -11 -58 5 -14 17 -15 78 -10
40 3 100 10 133 15 33 5 83 14 110 21 28 6 91 12 140 13 87 1 90 0 93 -23 3
-17 -6 -31 -32 -53 -20 -16 -36 -34 -36 -39 0 -5 22 -9 50 -9 44 0 52 3 77 35
15 20 59 59 97 88 38 29 83 60 100 69 17 10 42 30 56 46 14 16 45 41 69 58 24
16 53 42 65 57 12 16 37 37 56 47 19 10 47 31 61 47 15 16 38 64 54 113 15 47
31 100 37 118 5 19 7 48 4 65 -4 18 -20 47 -36 64 -16 18 -57 44 -91 58 -52
21 -78 25 -158 25 -92 -1 -97 -2 -128 -30 -18 -16 -33 -34 -33 -38 0 -5 -10
-17 -21 -28 -12 -10 -30 -38 -40 -62 -11 -24 -19 -50 -19 -58 0 -8 6 -14 13
-14 6 0 26 14 42 32 16 17 34 40 40 51 5 11 43 41 82 65 73 45 73 45 112 18
22 -15 58 -45 81 -66 41 -38 41 -38 17 -87 -14 -27 -46 -80 -72 -118 -25 -39
-94 -116 -152 -173 -99 -98 -106 -103 -123 -87 -14 12 -20 37 -24 93 -4 43 -7
113 -9 157 -2 63 -5 79 -16 77 -8 -2 -20 -11 -27 -20 -6 -9 -17 -39 -23 -67
-6 -28 -16 -84 -21 -125 -5 -41 -13 -91 -18 -110 -7 -34 -10 -35 -62 -41 -30
-4 -83 -9 -117 -12 -57 -5 -63 -3 -63 14 0 10 3 19 8 19 4 0 16 19 28 43 12
23 31 67 42 97 12 30 26 76 31 101 6 26 15 58 20 72 6 15 11 58 12 97 1 47 7
76 16 86 8 8 19 14 25 14 6 0 33 14 60 31 26 17 48 38 48 47 0 8 -11 30 -26
49 -21 28 -31 33 -66 33 -22 0 -59 5 -81 12 -35 11 -41 10 -53 -7 -8 -10 -14
-33 -14 -50 0 -17 -6 -40 -14 -50 -7 -10 -42 -28 -77 -41 -35 -12 -91 -33
-123 -47 -33 -14 -65 -23 -73 -20 -7 3 -13 13 -13 22 0 9 15 61 34 116 18 55
37 115 41 133 4 21 2 38 -5 47 -7 8 -18 15 -24 15z"/>
</g>
</svg>
