<?xml version="1.0" standalone="no"?>
<!DOCTYPE svg PUBLIC "-//W3C//DTD SVG 20010904//EN"
 "http://www.w3.org/TR/2001/REC-SVG-20010904/DTD/svg10.dtd">
<svg version="1.0" xmlns="http://www.w3.org/2000/svg"
 width="128.000000pt" height="128.000000pt" viewBox="0 0 128.000000 128.000000"
 preserveAspectRatio="xMidYMid meet">
<metadata>
Created by potrace 1.16, written by Peter Selinger 2001-2019
</metadata>
<g transform="translate(0.000000,128.000000) scale(0.100000,-0.100000)"
fill="#000000" stroke="none">
<path d="M899 1280 c-47 0 -49 -1 -49 -29 0 -16 7 -34 15 -41 8 -7 15 -17 15
-22 0 -6 14 -28 31 -49 17 -22 35 -37 40 -33 5 3 9 26 9 52 0 26 -3 64 -6 85
-7 37 -7 37 -55 37z"/>
<path d="M605 1218 c-32 1 -63 -6 -87 -19 -21 -11 -45 -30 -54 -44 -8 -13 -14
-36 -12 -52 2 -16 10 -29 20 -31 9 -2 19 5 23 17 3 12 10 21 14 21 4 0 13 -22
20 -49 7 -29 9 -68 5 -100 -5 -40 -2 -61 12 -93 18 -41 18 -41 -4 -56 -19 -12
-22 -23 -22 -76 0 -38 -6 -70 -14 -81 -12 -17 -17 -18 -39 -6 -14 8 -31 28
-38 45 -7 17 -17 45 -24 61 -7 17 -18 43 -24 60 -12 29 -13 29 -27 10 -8 -10
-14 -32 -14 -47 0 -16 6 -41 14 -56 7 -15 17 -56 21 -92 4 -36 14 -78 22 -94
9 -18 12 -41 9 -61 -4 -18 -15 -40 -26 -50 -11 -10 -27 -42 -36 -72 -8 -29
-20 -55 -25 -58 -5 -4 -9 -22 -9 -41 0 -28 6 -38 33 -54 17 -11 42 -20 55 -20
12 0 34 7 47 16 25 16 25 16 40 -17 8 -19 21 -42 28 -51 8 -10 28 -21 46 -24
17 -4 31 -13 31 -20 0 -8 -9 -14 -20 -14 -10 0 -24 -9 -30 -19 -7 -15 -6 -23
4 -34 10 -10 42 -14 108 -15 73 -1 99 3 119 16 15 9 42 31 61 48 28 25 41 51
72 147 25 76 36 126 32 143 -4 13 -17 29 -31 34 -13 5 -31 23 -40 39 -8 17
-15 36 -15 43 0 8 10 20 22 28 12 8 37 30 55 48 26 24 33 40 31 60 -2 15 -10
28 -18 30 -9 1 -35 -12 -58 -30 -23 -18 -45 -41 -48 -53 -4 -11 -13 -24 -20
-30 -7 -5 -14 -23 -16 -40 -2 -22 -9 -31 -25 -33 -18 -3 -23 2 -25 20 -1 13
-2 32 -3 43 0 11 -4 31 -9 44 -5 14 -4 27 4 35 8 8 15 7 24 -7 11 -14 19 -15
39 -8 19 7 27 19 32 48 3 22 1 51 -4 66 -6 16 -26 34 -47 45 -36 17 -37 17
-52 -6 -8 -12 -23 -22 -33 -22 -10 0 -21 6 -26 13 -4 6 -9 35 -10 62 -1 28 -3
66 -3 85 0 19 -5 45 -12 58 -9 17 -8 27 1 46 7 13 10 32 7 43 -4 11 0 36 9 56
8 20 15 56 15 80 0 25 -6 49 -12 54 -7 5 -35 10 -63 11z m-76 -598 c3 0 13 -5
21 -10 12 -7 9 -14 -18 -41 -25 -25 -33 -28 -38 -16 -3 9 2 27 11 41 10 14 20
26 24 26z m92 -10 c13 0 25 -11 32 -29 10 -24 16 -27 30 -20 13 8 19 6 24 -7
4 -11 -1 -23 -15 -34 -19 -15 -20 -22 -11 -55 6 -20 8 -47 5 -59 -3 -11 -26
-43 -51 -70 -38 -40 -43 -51 -31 -58 8 -5 13 -15 10 -23 -4 -8 -13 -15 -21
-15 -8 0 -17 9 -20 20 -3 11 -12 20 -19 20 -8 0 -14 4 -14 9 0 5 -15 8 -32 7
-30 -1 -33 2 -36 30 -2 20 4 36 18 49 11 10 20 23 20 30 0 6 9 42 21 79 12 37
32 80 46 97 14 16 34 29 44 29z m137 -270 c14 0 22 -6 23 -17 1 -10 0 -29 -1
-43 -1 -14 -6 -29 -11 -35 -5 -5 -9 -16 -9 -24 0 -8 -7 -23 -17 -33 -9 -10
-27 -18 -39 -18 -13 0 -30 10 -38 23 -14 20 -13 27 7 70 13 26 32 54 43 62 10
8 29 15 42 15z"/>
</g>
</svg>
