<?xml version="1.0" standalone="no"?>
<!DOCTYPE svg PUBLIC "-//W3C//DTD SVG 20010904//EN"
 "http://www.w3.org/TR/2001/REC-SVG-20010904/DTD/svg10.dtd">
<svg version="1.0" xmlns="http://www.w3.org/2000/svg"
 width="128.000000pt" height="128.000000pt" viewBox="0 0 128.000000 128.000000"
 preserveAspectRatio="xMidYMid meet">
<metadata>
Created by potrace 1.16, written by Peter Selinger 2001-2019
</metadata>
<g transform="translate(0.000000,128.000000) scale(0.100000,-0.100000)"
fill="#000000" stroke="none">
<path d="M695 1249 c-30 -1 -57 -5 -60 -9 -3 -5 -3 -15 1 -23 3 -8 16 -19 30
-25 13 -7 24 -20 24 -30 0 -10 -7 -43 -16 -73 -9 -30 -20 -59 -26 -66 -5 -6
-28 -15 -51 -18 -22 -4 -59 -19 -82 -33 -22 -14 -50 -35 -63 -46 -13 -12 -40
-21 -67 -22 -24 -2 -61 -12 -82 -22 -21 -11 -58 -25 -83 -30 -29 -7 -51 -7
-63 0 -13 6 -23 6 -33 -3 -8 -6 -14 -20 -14 -30 0 -10 10 -24 22 -30 12 -7 66
-17 120 -24 90 -11 102 -10 140 7 22 10 50 16 60 12 10 -3 30 -23 43 -44 13
-21 31 -42 38 -47 7 -4 16 -16 20 -25 3 -10 13 -18 21 -18 8 0 27 11 42 25 15
14 31 25 35 25 5 0 9 -5 9 -12 0 -6 -5 -28 -11 -47 -6 -20 -18 -51 -25 -69 -8
-18 -14 -43 -14 -55 0 -12 -9 -30 -20 -40 -11 -9 -20 -23 -20 -31 0 -8 -7 -19
-16 -24 -8 -5 -19 -26 -24 -48 -5 -21 -10 -75 -10 -119 0 -65 5 -88 23 -120
16 -28 30 -41 48 -43 15 -2 32 5 43 17 14 16 19 38 20 93 1 54 9 90 29 139 15
36 27 71 27 77 0 6 18 35 40 64 22 29 40 58 40 63 0 6 22 34 50 63 29 31 55
49 63 46 9 -3 17 -26 20 -57 4 -28 2 -94 -4 -146 -6 -52 -8 -105 -4 -119 4
-16 0 -31 -11 -43 -9 -11 -29 -19 -44 -19 -15 0 -35 -9 -45 -20 -18 -20 -18
-23 10 -107 28 -86 28 -86 8 -102 -11 -9 -29 -21 -39 -28 -16 -10 -9 -12 42
-12 35 -1 65 4 72 11 10 10 17 10 32 0 11 -6 28 -12 39 -12 11 0 22 8 25 18 2
9 9 42 15 72 6 30 18 163 26 295 8 132 15 242 15 245 0 3 -21 28 -46 55 -47
49 -47 49 -107 47 -52 -2 -63 -6 -88 -33 -16 -17 -33 -28 -39 -24 -5 3 -10 19
-10 34 0 15 7 42 16 59 8 18 14 44 12 59 -2 14 -8 28 -14 30 -7 2 -21 -16 -33
-40 -12 -24 -32 -50 -46 -57 -14 -7 -28 -11 -31 -8 -3 3 -1 14 4 25 5 10 20
51 33 92 17 55 20 76 11 79 -7 2 -12 9 -12 15 0 7 15 22 33 35 18 12 41 22 51
22 10 0 30 8 44 19 15 10 46 21 70 25 37 5 42 4 42 -13 0 -14 -5 -18 -19 -14
-13 3 -21 -2 -26 -16 -3 -12 -10 -21 -15 -21 -5 0 -25 -17 -44 -37 -20 -21
-36 -46 -36 -55 0 -10 6 -18 14 -18 8 0 18 5 21 10 3 6 16 10 28 10 15 0 36
17 62 50 22 28 51 54 65 57 14 3 34 12 45 19 11 8 28 14 38 14 10 0 29 7 42
16 16 11 25 26 25 43 0 14 -11 40 -24 56 -23 29 -26 30 -102 28 -58 -2 -82 -6
-90 -18 -6 -8 -17 -15 -24 -15 -7 0 -28 -12 -47 -26 -18 -14 -41 -24 -51 -22
-11 2 -18 14 -20 33 -1 17 -5 40 -7 52 -3 12 -12 28 -20 37 -11 10 -34 15 -70
15z m-97 -339 c7 0 15 -6 18 -14 3 -8 -2 -28 -10 -44 -9 -17 -25 -33 -36 -37
-11 -3 -24 -3 -30 0 -5 3 -10 16 -10 28 0 12 12 31 28 44 15 12 33 22 40 23z"/>
</g>
</svg>
