<?xml version="1.0" standalone="no"?>
<!DOCTYPE svg PUBLIC "-//W3C//DTD SVG 20010904//EN"
 "http://www.w3.org/TR/2001/REC-SVG-20010904/DTD/svg10.dtd">
<svg version="1.0" xmlns="http://www.w3.org/2000/svg"
 width="128.000000pt" height="128.000000pt" viewBox="0 0 128.000000 128.000000"
 preserveAspectRatio="xMidYMid meet">
<metadata>
Created by potrace 1.16, written by Peter Selinger 2001-2019
</metadata>
<g transform="translate(0.000000,128.000000) scale(0.100000,-0.100000)"
fill="#000000" stroke="none">
<path d="M743 1243 c-18 35 -18 35 -48 11 -16 -13 -39 -24 -50 -24 -11 0 -31
-7 -45 -15 -14 -8 -45 -24 -70 -36 -25 -12 -53 -26 -62 -30 -10 -5 -27 -9 -39
-9 -15 0 -20 -5 -17 -22 2 -14 9 -22 18 -21 8 1 34 6 57 11 24 5 50 15 59 23
9 8 38 19 63 26 25 7 52 12 59 13 7 0 12 -12 12 -28 0 -16 -7 -50 -16 -75 -12
-35 -22 -49 -40 -53 -14 -4 -30 -16 -36 -28 -6 -11 -21 -28 -32 -36 -11 -8
-43 -26 -70 -40 -32 -17 -55 -37 -67 -60 -10 -19 -30 -47 -46 -62 -23 -24 -26
-31 -17 -55 6 -18 17 -28 29 -28 11 0 24 10 30 22 5 12 19 26 32 32 13 6 23
19 23 29 0 10 22 35 49 55 26 20 53 37 58 37 6 0 16 7 23 15 7 8 16 15 21 15
5 0 9 -4 9 -10 0 -5 -11 -34 -25 -64 -14 -30 -25 -62 -25 -70 0 -9 9 -16 20
-16 13 0 26 14 40 42 11 23 20 47 20 53 0 7 7 26 16 44 12 23 22 31 37 29 18
-3 20 -9 19 -43 -1 -22 -5 -66 -8 -97 -4 -32 -13 -63 -20 -69 -8 -6 -14 -20
-14 -31 0 -11 13 -26 32 -36 17 -9 47 -32 65 -49 19 -18 29 -33 24 -33 -5 0
-12 -8 -16 -19 -3 -10 -26 -31 -50 -47 -25 -15 -45 -31 -45 -35 0 -4 -47 -37
-104 -74 -83 -54 -107 -75 -121 -106 -11 -23 -15 -45 -10 -56 4 -10 7 -28 6
-40 -1 -12 7 -27 20 -36 15 -11 35 -14 69 -10 27 3 56 1 68 -6 17 -9 27 -9 43
0 14 7 25 7 31 1 6 -6 -3 -17 -24 -30 -19 -12 -47 -38 -61 -59 -27 -38 -27
-38 20 -41 41 -3 51 0 70 22 12 14 31 26 42 26 10 0 40 20 65 45 31 30 46 53
46 70 0 14 -7 37 -16 50 -9 14 -25 25 -36 25 -10 0 -31 -6 -46 -14 -15 -7 -76
-16 -136 -20 -98 -6 -108 -5 -102 9 3 9 6 18 6 21 0 2 17 12 38 23 20 10 57
38 81 60 25 23 61 46 82 51 20 6 42 17 49 25 6 7 31 21 55 31 34 13 49 26 64
57 18 36 19 46 9 80 -8 25 -31 56 -71 93 -58 53 -59 56 -46 82 7 15 18 63 25
107 12 78 12 80 -12 108 -13 16 -24 33 -24 38 0 5 -11 9 -24 9 -14 0 -27 4
-30 9 -4 5 5 31 18 57 16 31 22 54 16 64 -4 8 -5 29 -3 46 3 19 -2 45 -14 67z"/>
<path d="M587 740 c-7 0 -17 -3 -20 -7 -4 -3 -7 -16 -7 -29 0 -12 -4 -24 -8
-26 -4 -1 -19 -24 -32 -50 -14 -27 -29 -48 -35 -49 -5 0 -14 13 -19 30 -5 17
-18 33 -29 37 -12 4 -23 1 -28 -7 -5 -8 -6 -21 -4 -29 3 -9 6 -46 7 -84 1 -43
7 -73 16 -82 12 -12 18 -12 44 3 19 11 38 35 49 63 11 25 30 65 43 90 13 25
26 66 30 93 6 37 4 47 -7 47z"/>
</g>
</svg>
