<?xml version="1.0" standalone="no"?>
<!DOCTYPE svg PUBLIC "-//W3C//DTD SVG 20010904//EN"
 "http://www.w3.org/TR/2001/REC-SVG-20010904/DTD/svg10.dtd">
<svg version="1.0" xmlns="http://www.w3.org/2000/svg"
 width="128.000000pt" height="128.000000pt" viewBox="0 0 128.000000 128.000000"
 preserveAspectRatio="xMidYMid meet">
<metadata>
Created by potrace 1.16, written by Peter Selinger 2001-2019
</metadata>
<g transform="translate(0.000000,128.000000) scale(0.100000,-0.100000)"
fill="#000000" stroke="none">
<path d="M620 1259 c-3 -1 -20 -5 -38 -9 -18 -4 -42 -16 -53 -26 -20 -18 -21
-18 -38 5 -12 16 -24 22 -35 18 -9 -4 -16 -13 -16 -22 0 -9 7 -32 15 -51 14
-33 18 -36 47 -31 18 3 45 9 59 12 23 6 28 3 36 -22 6 -16 7 -54 2 -93 -5 -43
-13 -68 -25 -77 -10 -7 -41 -13 -70 -13 -42 0 -58 -6 -90 -30 -22 -17 -64 -53
-96 -82 -49 -44 -60 -61 -82 -127 -22 -65 -24 -83 -16 -121 6 -25 12 -55 15
-67 4 -18 12 -23 36 -23 17 0 38 4 47 9 10 5 40 30 67 55 28 25 67 63 88 83
22 21 50 59 63 85 13 26 36 55 50 65 22 14 27 14 35 2 5 -8 8 -25 8 -39 0 -14
-4 -45 -9 -70 -4 -25 -13 -72 -19 -105 -11 -57 -10 -61 11 -78 14 -12 32 -17
48 -14 14 3 57 14 95 25 50 13 86 17 125 13 55 -6 55 -6 55 -41 0 -34 -1 -34
-75 -58 -41 -12 -81 -29 -90 -36 -8 -8 -26 -17 -40 -21 -14 -4 -70 -31 -125
-59 -55 -29 -119 -64 -143 -79 -23 -15 -47 -38 -53 -50 -5 -12 -16 -33 -25
-47 -8 -14 -13 -44 -12 -70 3 -45 3 -45 103 -48 55 -2 180 -3 278 -3 117 0
183 3 192 11 7 6 16 22 20 37 4 17 0 31 -11 44 -11 12 -31 19 -52 19 -20 0
-55 -10 -80 -21 -37 -18 -62 -22 -170 -22 -98 -1 -136 3 -165 16 -21 9 -37 22
-35 28 2 7 46 29 98 51 52 21 108 45 123 53 16 8 33 15 38 15 6 0 67 25 137
55 70 30 138 57 152 60 16 4 36 23 53 51 15 25 27 56 27 69 0 13 -4 35 -9 48
-5 14 -31 39 -57 56 -46 32 -48 32 -113 22 -36 -6 -89 -13 -117 -16 -29 -4
-54 -3 -56 2 -3 4 -1 54 5 111 7 78 6 110 -3 133 -7 17 -28 45 -47 62 -31 30
-33 34 -22 67 6 19 17 48 25 63 8 16 14 51 14 79 0 27 -7 65 -16 84 -9 19 -26
41 -38 49 -11 8 -23 15 -26 14z m-82 -373 c12 -11 11 -18 -1 -42 -9 -16 -35
-49 -59 -74 -24 -25 -65 -64 -89 -87 -25 -24 -54 -43 -64 -43 -14 0 -16 6 -12
29 3 16 20 48 36 72 17 24 43 56 59 71 15 15 48 41 73 57 37 25 46 28 57 17z"/>
</g>
</svg>
