<?xml version="1.0" standalone="no"?>
<!DOCTYPE svg PUBLIC "-//W3C//DTD SVG 20010904//EN"
 "http://www.w3.org/TR/2001/REC-SVG-20010904/DTD/svg10.dtd">
<svg version="1.0" xmlns="http://www.w3.org/2000/svg"
 width="128.000000pt" height="128.000000pt" viewBox="0 0 128.000000 128.000000"
 preserveAspectRatio="xMidYMid meet">
<metadata>
Created by potrace 1.16, written by Peter Selinger 2001-2019
</metadata>
<g transform="translate(0.000000,128.000000) scale(0.100000,-0.100000)"
fill="#000000" stroke="none">
<path d="M620 1260 c-24 0 -43 -7 -55 -20 -15 -17 -16 -24 -7 -43 7 -12 12
-44 11 -72 -1 -27 -6 -65 -11 -82 -7 -26 -15 -33 -34 -33 -14 0 -40 -11 -57
-24 -18 -13 -65 -33 -105 -45 -40 -12 -78 -21 -85 -20 -7 1 -18 1 -24 0 -7 0
-20 -12 -28 -25 -13 -19 -14 -29 -5 -45 8 -16 21 -21 51 -21 33 0 41 -4 49
-26 6 -14 10 -41 10 -60 0 -19 7 -46 16 -59 9 -14 26 -25 38 -25 11 0 36 15
54 33 19 17 43 48 56 67 14 24 31 36 49 38 17 2 27 -1 27 -10 0 -7 -12 -58
-26 -113 -14 -55 -32 -131 -40 -170 -7 -38 -21 -83 -30 -98 -8 -15 -27 -69
-40 -118 -13 -50 -24 -101 -24 -113 0 -13 9 -33 20 -46 11 -13 20 -31 20 -40
0 -10 7 -24 16 -31 13 -11 20 -11 41 1 14 9 34 35 44 60 10 25 18 64 18 86 1
28 -4 44 -14 48 -8 3 -15 12 -15 21 0 8 7 15 16 15 14 0 15 7 10 39 -3 22 0
59 8 87 8 27 17 82 21 122 4 44 13 79 23 88 8 9 31 27 51 40 20 14 51 36 70
49 19 14 47 25 63 25 24 0 32 -6 44 -35 8 -19 15 -65 16 -102 1 -38 -1 -73 -5
-80 -5 -8 -25 -10 -61 -7 -53 6 -53 6 -96 -48 -42 -53 -42 -53 -35 -138 6 -73
12 -93 43 -143 19 -32 50 -73 68 -92 18 -19 39 -35 46 -35 7 0 18 -10 23 -22
7 -17 20 -24 46 -26 27 -2 42 3 63 23 23 22 27 32 22 57 -3 18 -14 40 -22 50
-12 12 -14 22 -7 30 6 7 13 28 16 46 4 21 0 49 -13 82 -11 27 -15 52 -10 55 4
3 7 33 4 68 -2 34 -6 126 -8 205 -3 78 -8 147 -11 152 -3 6 -15 10 -25 10 -11
0 -28 9 -39 21 -19 21 -19 21 -58 1 -21 -11 -59 -30 -85 -42 -26 -12 -54 -20
-62 -17 -10 4 -13 13 -10 24 3 10 12 32 20 48 8 17 20 37 26 45 7 9 29 28 48
42 19 14 60 39 91 56 30 16 80 35 111 41 30 7 62 9 70 6 10 -4 22 2 32 17 9
12 16 28 16 34 0 7 -21 26 -47 43 -25 17 -54 31 -63 31 -10 0 -23 -7 -30 -15
-7 -8 -26 -15 -42 -15 -16 0 -38 -5 -49 -10 -10 -6 -38 -14 -61 -19 -24 -5
-51 -12 -60 -16 -16 -6 -18 1 -15 80 2 76 0 88 -17 101 -11 8 -36 14 -56 14z
m77 -260 c18 0 33 -5 33 -12 0 -6 -17 -27 -37 -47 -21 -20 -46 -46 -55 -59
-10 -12 -25 -22 -33 -22 -13 0 -15 11 -11 58 3 51 6 57 27 60 13 2 28 8 34 13
5 5 24 9 42 9z m-218 -96 c13 -12 12 -16 -2 -32 -9 -10 -17 -23 -17 -28 0 -5
-9 -20 -20 -34 -17 -22 -21 -23 -34 -10 -8 8 -18 32 -21 52 -7 35 -5 37 21 43
16 3 36 10 44 15 9 5 20 3 29 -6z m275 -467 c6 -2 25 -25 43 -51 17 -27 43
-60 57 -75 21 -22 26 -37 26 -78 0 -29 -4 -54 -9 -57 -5 -3 -25 1 -44 9 -19 8
-48 33 -65 55 -23 31 -31 56 -37 106 -5 46 -3 69 6 80 6 8 17 13 23 11z"/>
</g>
</svg>
