<?xml version="1.0" standalone="no"?>
<!DOCTYPE svg PUBLIC "-//W3C//DTD SVG 20010904//EN"
 "http://www.w3.org/TR/2001/REC-SVG-20010904/DTD/svg10.dtd">
<svg version="1.0" xmlns="http://www.w3.org/2000/svg"
 width="128.000000pt" height="128.000000pt" viewBox="0 0 128.000000 128.000000"
 preserveAspectRatio="xMidYMid meet">
<metadata>
Created by potrace 1.16, written by Peter Selinger 2001-2019
</metadata>
<g transform="translate(0.000000,128.000000) scale(0.100000,-0.100000)"
fill="#000000" stroke="none">
<path d="M370 1280 c-37 0 -50 -4 -47 -12 2 -8 21 -13 47 -13 26 0 45 5 48 13
2 8 -11 12 -48 12z"/>
<path d="M730 1260 c-12 0 -29 -15 -45 -40 -14 -22 -30 -40 -36 -40 -6 0 -33
-25 -60 -55 -34 -36 -74 -66 -122 -90 -71 -36 -71 -36 -88 -14 -10 14 -22 20
-33 16 -9 -4 -16 -11 -16 -16 0 -5 6 -16 13 -23 8 -7 12 -19 9 -26 -2 -6 4
-15 13 -18 9 -4 31 0 48 8 18 8 37 13 44 11 9 -3 8 -14 -4 -41 -8 -20 -19 -45
-24 -54 -5 -10 -9 -31 -9 -48 0 -17 -6 -39 -12 -50 -10 -15 -10 -24 -1 -39 9
-14 9 -21 0 -30 -7 -7 -13 -51 -14 -108 -2 -96 -2 -96 -42 -137 -33 -34 -41
-49 -41 -78 0 -20 4 -39 8 -42 4 -2 34 1 67 8 33 7 79 18 103 25 31 9 42 17
42 31 0 10 8 24 18 29 16 10 15 11 -5 17 -12 3 -24 13 -27 21 -3 8 -3 19 0 24
3 6 23 21 45 35 22 13 37 29 33 35 -3 6 3 19 15 30 12 11 21 31 21 44 0 13 -4
26 -9 29 -5 3 -11 18 -14 32 -3 20 2 34 19 51 13 12 35 23 50 23 27 0 27 0 19
-82 -4 -46 -7 -108 -6 -139 2 -53 0 -57 -24 -63 -14 -4 -30 -17 -34 -29 -7
-18 -3 -25 19 -38 21 -13 28 -27 32 -60 3 -24 3 -69 2 -99 -2 -30 -3 -69 -3
-86 0 -17 -4 -42 -9 -55 -5 -13 -31 -36 -58 -51 -27 -15 -66 -35 -86 -44 -21
-9 -38 -20 -38 -25 0 -5 25 -9 55 -9 30 0 82 7 114 16 52 15 60 20 65 45 3 16
3 36 0 44 -4 8 -2 21 4 28 6 6 9 37 8 68 -2 31 -5 60 -9 65 -3 5 -4 25 -2 44
2 19 6 49 10 65 4 17 9 38 12 48 3 13 15 17 46 17 24 0 66 -6 95 -14 46 -11
55 -11 68 1 8 8 14 18 14 23 0 5 -9 27 -20 48 -14 26 -34 45 -65 60 -45 22
-45 22 -45 -7 0 -25 -5 -30 -35 -35 -20 -4 -40 -4 -45 -1 -7 4 -9 66 -5 173 3
92 8 193 10 225 4 53 3 58 -19 66 -12 5 -35 24 -49 41 -15 17 -27 38 -27 46 0
8 20 23 43 33 24 11 54 31 65 46 12 15 22 31 22 36 0 5 -8 16 -18 26 -11 10
-22 26 -25 36 -4 9 -15 17 -27 17z m-100 -231 c8 0 32 -23 53 -50 21 -28 36
-57 33 -65 -3 -8 -12 -14 -19 -14 -8 0 -20 7 -27 15 -7 8 -20 15 -29 15 -9 -1
-29 -18 -46 -39 -16 -21 -43 -43 -59 -49 -16 -6 -32 -9 -36 -7 -5 3 -3 24 2
47 6 24 17 50 24 59 8 8 14 23 14 32 0 9 6 17 14 17 8 0 24 9 37 20 13 10 31
19 39 19z m-60 -189 c5 0 11 -4 15 -9 3 -5 1 -12 -5 -16 -5 -3 -15 -3 -20 0
-6 4 -8 11 -5 16 4 5 10 9 15 9z m-54 -60 c8 0 17 -7 20 -15 4 -8 12 -15 20
-15 8 0 14 -5 14 -10 0 -6 -11 -8 -27 -4 -16 4 -34 11 -40 17 -7 5 -10 13 -7
18 3 5 12 9 20 9z m5 -81 c3 0 15 -9 26 -21 11 -13 23 -40 25 -60 3 -28 0 -38
-10 -38 -8 0 -27 -11 -44 -25 -16 -14 -36 -25 -44 -25 -8 0 -17 7 -21 17 -3 9
3 35 15 57 13 24 19 50 16 63 -4 15 -1 22 13 26 10 3 21 5 24 6z"/>
</g>
</svg>
