<?xml version="1.0" standalone="no"?>
<!DOCTYPE svg PUBLIC "-//W3C//DTD SVG 20010904//EN"
 "http://www.w3.org/TR/2001/REC-SVG-20010904/DTD/svg10.dtd">
<svg version="1.0" xmlns="http://www.w3.org/2000/svg"
 width="128.000000pt" height="128.000000pt" viewBox="0 0 128.000000 128.000000"
 preserveAspectRatio="xMidYMid meet">
<metadata>
Created by potrace 1.16, written by Peter Selinger 2001-2019
</metadata>
<g transform="translate(0.000000,128.000000) scale(0.100000,-0.100000)"
fill="#000000" stroke="none">
<path d="M830 1280 c-5 0 -10 -3 -12 -7 -1 -5 -21 -18 -43 -30 -22 -12 -73
-38 -113 -57 -40 -20 -91 -41 -115 -47 -23 -6 -64 -14 -92 -18 -35 -4 -50 -11
-50 -21 0 -9 11 -16 30 -18 17 -1 45 -5 63 -8 29 -5 33 -8 27 -27 -3 -12 -13
-51 -21 -87 -8 -36 -14 -100 -14 -143 0 -59 6 -92 25 -138 25 -61 25 -61 -28
-110 -28 -27 -83 -64 -122 -82 -38 -19 -83 -38 -100 -43 -23 -7 -31 -17 -37
-48 -5 -21 -16 -51 -25 -66 -9 -15 -13 -35 -10 -44 4 -9 16 -16 27 -16 11 0
55 20 98 45 42 25 115 61 162 81 47 19 123 47 170 61 47 14 96 26 110 27 25 1
25 1 26 -204 1 -167 4 -212 18 -243 11 -24 23 -37 36 -37 15 0 20 10 26 48 4
26 2 132 -5 235 -11 170 -10 191 4 213 9 14 28 30 43 35 15 6 52 8 83 5 52 -6
57 -5 73 18 9 14 16 36 16 50 0 20 -11 31 -59 56 -32 17 -71 45 -87 61 -25 27
-27 32 -17 59 9 24 8 33 -4 45 -8 8 -23 20 -34 25 -17 10 -19 22 -19 110 0 54
-4 110 -10 124 -5 14 -17 26 -26 26 -9 0 -25 -10 -36 -22 -19 -22 -19 -23 1
-32 15 -6 21 -18 21 -43 0 -18 -4 -33 -9 -33 -5 0 -14 7 -21 15 -7 8 -28 15
-47 15 -30 0 -44 -10 -102 -70 -37 -38 -73 -70 -79 -70 -8 0 -12 23 -11 68 0
37 6 83 13 102 11 31 17 35 52 38 21 1 48 7 59 12 11 5 70 25 130 45 61 20
116 43 124 50 7 7 11 21 8 29 -4 9 -23 24 -44 34 -21 9 -39 20 -41 25 -2 4 -7
7 -12 7z m-39 -320 c5 0 11 -11 15 -24 3 -14 4 -33 2 -43 -2 -10 -12 -18 -22
-18 -10 0 -23 7 -29 16 -7 11 -5 23 8 42 9 15 21 27 26 27z m-141 -82 c8 -2
18 -19 21 -38 3 -19 13 -48 22 -64 8 -16 13 -35 10 -42 -3 -7 -19 -20 -36 -29
-16 -8 -33 -15 -37 -15 -4 0 -19 18 -34 40 -15 22 -29 53 -32 68 -5 23 0 32
33 55 21 15 45 26 53 25z m213 -148 c8 0 24 -22 36 -49 13 -26 21 -57 19 -67
-2 -13 -13 -20 -36 -22 -32 -3 -32 -3 -32 67 0 52 3 71 13 71z m-76 -30 c9 0
13 -17 13 -59 0 -36 -5 -63 -13 -69 -7 -6 -40 -18 -73 -27 -32 -8 -87 -25
-122 -36 -34 -11 -70 -18 -79 -15 -14 6 -14 9 3 27 11 12 39 35 64 53 25 17
78 52 120 79 41 26 80 47 87 47z"/>
</g>
</svg>
