<?xml version="1.0" standalone="no"?>
<!DOCTYPE svg PUBLIC "-//W3C//DTD SVG 20010904//EN"
 "http://www.w3.org/TR/2001/REC-SVG-20010904/DTD/svg10.dtd">
<svg version="1.0" xmlns="http://www.w3.org/2000/svg"
 width="56.000000pt" height="56.000000pt" viewBox="0 0 56.000000 56.000000"
 preserveAspectRatio="xMidYMid meet">
<metadata>
Created by potrace 1.16, written by Peter Selinger 2001-2019
</metadata>
<g transform="translate(0.000000,56.000000) scale(0.100000,-0.100000)"
fill="#000000" stroke="none">
<path d="M198 560 c-24 -1 -48 -6 -54 -12 -7 -6 -26 -24 -43 -40 -25 -24 -31
-38 -31 -71 0 -23 -4 -59 -9 -79 -6 -26 -3 -64 10 -130 10 -51 19 -96 19 -100
0 -3 12 -20 26 -37 14 -17 32 -31 39 -31 7 0 20 12 30 26 15 24 15 30 0 91
-11 43 -14 82 -10 110 5 34 3 43 -9 43 -8 0 -17 -6 -19 -12 -4 -10 -8 -10 -15
1 -6 8 -13 31 -16 52 -4 25 -1 52 8 73 9 21 28 41 48 52 18 9 41 23 51 32 9 8
17 19 17 24 0 4 -19 8 -42 8z"/>
<path d="M343 540 c-4 0 -22 -12 -38 -27 -30 -28 -30 -28 7 -31 33 -3 38 -7
47 -40 6 -20 9 -38 6 -40 -2 -2 -27 1 -55 7 -28 6 -64 11 -80 11 -16 0 -32 -5
-36 -11 -3 -6 -1 -16 5 -22 7 -7 33 -13 59 -14 26 -1 65 -7 87 -15 33 -11 41
-18 43 -43 2 -16 -2 -48 -8 -70 -7 -22 -27 -72 -46 -111 -19 -39 -41 -77 -49
-84 -8 -7 -15 -21 -15 -31 0 -11 6 -19 14 -19 8 0 26 15 41 32 14 18 35 42 45
54 10 11 28 47 39 80 11 32 23 79 26 103 5 31 16 53 36 70 16 14 29 36 29 48
0 19 -5 23 -33 23 -18 0 -38 5 -45 12 -7 7 -12 26 -12 42 0 17 -4 36 -8 42 -4
6 -17 16 -29 23 -12 6 -25 11 -30 11z"/>
</g>
</svg>
