<?xml version="1.0" standalone="no"?>
<!DOCTYPE svg PUBLIC "-//W3C//DTD SVG 20010904//EN"
 "http://www.w3.org/TR/2001/REC-SVG-20010904/DTD/svg10.dtd">
<svg version="1.0" xmlns="http://www.w3.org/2000/svg"
 width="56.000000pt" height="56.000000pt" viewBox="0 0 56.000000 56.000000"
 preserveAspectRatio="xMidYMid meet">
<metadata>
Created by potrace 1.16, written by Peter Selinger 2001-2019
</metadata>
<g transform="translate(0.000000,56.000000) scale(0.100000,-0.100000)"
fill="#000000" stroke="none">
<path d="M273 559 c-42 -1 -53 -7 -93 -46 -25 -24 -71 -65 -103 -90 -48 -39
-57 -51 -57 -79 0 -18 7 -68 15 -111 8 -43 25 -103 37 -133 12 -30 28 -65 36
-77 11 -18 18 -21 33 -12 12 6 19 20 19 40 0 16 -8 44 -17 62 -10 18 -22 64
-28 104 -6 39 -9 76 -7 82 2 6 12 11 22 11 10 0 22 5 25 10 4 6 2 16 -3 23 -5
7 -12 24 -16 38 -5 24 2 33 57 78 34 28 77 58 95 67 17 8 32 19 32 24 0 6 -21
9 -47 9z"/>
<path d="M366 500 c-13 0 -29 -6 -35 -14 -9 -11 -9 -29 -1 -77 8 -45 8 -65 0
-73 -6 -6 -38 -11 -72 -11 -36 0 -63 -5 -65 -11 -2 -6 6 -14 19 -18 13 -3 48
-6 79 -6 48 0 57 -3 62 -20 3 -11 -3 -51 -13 -89 -9 -38 -25 -83 -34 -101 -8
-18 -13 -36 -10 -41 3 -5 14 -9 25 -9 11 0 38 14 59 31 21 17 46 49 55 71 11
29 14 56 9 103 -7 63 -6 64 20 71 14 3 33 3 41 0 9 -3 18 1 21 9 4 9 -9 30
-32 53 -22 20 -54 59 -71 85 -24 34 -39 47 -57 47z"/>
</g>
</svg>
