<?xml version="1.0" standalone="no"?>
<!DOCTYPE svg PUBLIC "-//W3C//DTD SVG 20010904//EN"
 "http://www.w3.org/TR/2001/REC-SVG-20010904/DTD/svg10.dtd">
<svg version="1.0" xmlns="http://www.w3.org/2000/svg"
 width="56.000000pt" height="56.000000pt" viewBox="0 0 56.000000 56.000000"
 preserveAspectRatio="xMidYMid meet">
<metadata>
Created by potrace 1.16, written by Peter Selinger 2001-2019
</metadata>
<g transform="translate(0.000000,56.000000) scale(0.100000,-0.100000)"
fill="#000000" stroke="none">
<path d="M136 560 c-7 0 -19 -12 -26 -27 -8 -16 -14 -32 -15 -38 0 -5 13 -9
30 -10 24 0 31 -6 43 -38 8 -20 12 -41 8 -44 -4 -4 -16 -2 -26 5 -11 7 -24 12
-30 12 -5 0 -10 -5 -10 -12 0 -7 12 -25 27 -40 25 -26 26 -31 16 -68 -5 -22
-8 -51 -5 -65 3 -18 11 -25 27 -25 12 0 30 9 40 20 10 11 24 20 30 20 7 0 16
-7 19 -16 3 -8 -2 -38 -11 -66 -15 -48 -15 -52 2 -85 11 -19 32 -45 48 -59 22
-19 40 -24 82 -24 35 0 57 5 65 15 10 12 10 19 1 28 -6 6 -39 17 -72 24 -34 7
-67 17 -75 24 -8 6 -14 21 -14 33 0 12 7 31 15 43 9 13 43 31 86 45 63 20 70
25 67 47 -2 13 -11 29 -21 35 -14 9 -28 5 -68 -17 -27 -15 -54 -25 -60 -22 -5
4 -9 13 -9 22 0 8 9 28 21 44 11 16 19 35 16 42 -3 7 -23 19 -46 25 -22 7 -47
22 -56 35 -8 12 -15 31 -15 42 0 11 -16 37 -35 58 -20 20 -41 37 -49 37z m134
-180 c6 0 13 -7 17 -16 3 -8 1 -20 -6 -27 -8 -8 -14 -8 -22 0 -7 7 -9 19 -6
27 4 9 11 16 17 16z m-49 -50 c5 0 9 -11 9 -25 0 -14 -7 -28 -16 -32 -8 -3
-20 -1 -25 4 -5 5 -3 17 7 31 8 12 19 22 25 22z"/>
<path d="M318 559 c-28 0 -49 -7 -62 -19 -18 -18 -18 -20 -2 -26 10 -4 27 -2
39 4 12 6 31 12 41 14 11 2 21 9 24 16 2 8 -9 12 -40 11z"/>
</g>
</svg>
