<?xml version="1.0" standalone="no"?>
<!DOCTYPE svg PUBLIC "-//W3C//DTD SVG 20010904//EN"
 "http://www.w3.org/TR/2001/REC-SVG-20010904/DTD/svg10.dtd">
<svg version="1.0" xmlns="http://www.w3.org/2000/svg"
 width="56.000000pt" height="56.000000pt" viewBox="0 0 56.000000 56.000000"
 preserveAspectRatio="xMidYMid meet">
<metadata>
Created by potrace 1.16, written by Peter Selinger 2001-2019
</metadata>
<g transform="translate(0.000000,56.000000) scale(0.100000,-0.100000)"
fill="#000000" stroke="none">
<path d="M164 540 c-10 0 -14 -16 -14 -64 0 -36 -4 -68 -10 -71 -5 -3 -10 -13
-10 -21 0 -8 -9 -34 -20 -56 -11 -23 -20 -51 -20 -63 0 -11 -5 -26 -10 -31 -7
-7 -6 -16 4 -29 7 -11 20 -16 29 -12 8 3 22 21 30 39 9 18 20 56 25 83 6 28
13 75 16 106 3 31 3 71 0 88 -4 17 -13 31 -20 31z"/>
<path d="M421 489 c-10 6 -21 7 -25 4 -3 -3 -6 -25 -6 -47 0 -23 -6 -58 -13
-78 -7 -21 -16 -41 -20 -44 -4 -4 -7 -29 -7 -55 0 -43 4 -51 34 -74 24 -18 32
-31 29 -45 -3 -11 -36 -49 -74 -85 -65 -61 -68 -65 -42 -65 16 0 46 12 68 26
22 15 55 41 73 57 21 21 32 40 32 59 0 20 -14 43 -46 78 -36 39 -43 52 -36 67
5 10 14 29 20 43 5 14 15 38 21 53 6 15 11 43 11 62 0 23 -6 38 -19 44z"/>
</g>
</svg>
