<?xml version="1.0" standalone="no"?>
<!DOCTYPE svg PUBLIC "-//W3C//DTD SVG 20010904//EN"
 "http://www.w3.org/TR/2001/REC-SVG-20010904/DTD/svg10.dtd">
<svg version="1.0" xmlns="http://www.w3.org/2000/svg"
 width="56.000000pt" height="56.000000pt" viewBox="0 0 56.000000 56.000000"
 preserveAspectRatio="xMidYMid meet">
<metadata>
Created by potrace 1.16, written by Peter Selinger 2001-2019
</metadata>
<g transform="translate(0.000000,56.000000) scale(0.100000,-0.100000)"
fill="#000000" stroke="none">
<path d="M286 540 c-7 0 -18 -6 -23 -12 -6 -7 -13 -21 -16 -30 -5 -14 -18 -18
-62 -18 -52 0 -55 -1 -55 -25 0 -17 9 -29 30 -40 17 -9 40 -13 51 -10 13 5 21
1 25 -12 3 -10 10 -26 15 -35 5 -10 9 -24 9 -32 0 -8 -18 -30 -40 -48 -21 -19
-52 -40 -67 -48 -15 -8 -36 -21 -45 -29 -11 -8 -18 -28 -18 -47 0 -18 4 -35 9
-39 5 -3 12 -1 16 5 4 6 11 8 16 4 5 -3 33 1 62 10 28 8 79 15 111 15 33 0 66
-5 73 -11 7 -6 13 -18 13 -28 0 -10 -13 -23 -30 -30 -26 -11 -33 -10 -50 5
-16 15 -25 16 -44 7 -14 -6 -30 -20 -36 -31 -9 -18 -6 -24 22 -41 18 -11 43
-20 56 -20 12 0 22 6 22 13 0 7 22 19 50 26 37 9 53 19 62 39 11 22 11 32 1
53 -7 15 -20 33 -29 40 -12 10 -49 14 -130 14 -63 0 -114 2 -114 5 0 3 16 17
34 33 19 15 45 27 56 27 12 0 35 9 51 21 16 11 29 29 29 39 0 10 -11 27 -25
38 -14 11 -28 34 -31 51 -5 23 -3 31 8 31 8 0 23 9 33 20 18 20 18 21 -3 43
-12 13 -22 29 -22 35 0 7 -6 12 -14 12z"/>
</g>
</svg>
