<?xml version="1.0" standalone="no"?>
<!DOCTYPE svg PUBLIC "-//W3C//DTD SVG 20010904//EN"
 "http://www.w3.org/TR/2001/REC-SVG-20010904/DTD/svg10.dtd">
<svg version="1.0" xmlns="http://www.w3.org/2000/svg"
 width="56.000000pt" height="56.000000pt" viewBox="0 0 56.000000 56.000000"
 preserveAspectRatio="xMidYMid meet">
<metadata>
Created by potrace 1.16, written by Peter Selinger 2001-2019
</metadata>
<g transform="translate(0.000000,56.000000) scale(0.100000,-0.100000)"
fill="#000000" stroke="none">
<path d="M91 560 c-5 0 -12 -7 -15 -16 -4 -10 -13 -14 -22 -10 -11 4 -19 -4
-29 -28 -12 -28 -13 -56 -5 -148 5 -62 14 -131 20 -153 7 -22 20 -56 30 -75
10 -19 21 -43 24 -53 3 -9 13 -20 22 -24 12 -4 25 3 41 23 15 20 23 42 23 70
0 22 7 63 15 90 8 27 18 54 22 60 5 6 47 15 96 19 87 7 87 7 87 -19 0 -14 -16
-57 -36 -95 -19 -38 -60 -98 -90 -135 -54 -66 -54 -66 -20 -66 19 0 52 10 73
22 21 12 53 37 72 56 18 19 44 59 57 88 13 30 24 65 24 77 0 12 3 32 6 44 3
12 14 25 24 28 10 3 21 13 24 21 4 10 0 18 -11 20 -10 3 -38 44 -63 92 -45 87
-45 87 -93 93 -27 3 -50 2 -53 -3 -3 -4 6 -25 20 -46 13 -22 26 -47 28 -57 2
-14 -14 -23 -82 -46 -70 -24 -92 -36 -123 -71 -34 -40 -38 -42 -51 -26 -7 10
-16 53 -20 97 -4 46 -2 90 4 106 5 14 10 35 10 46 0 10 -4 19 -9 19z"/>
</g>
</svg>
