<?xml version="1.0" standalone="no"?>
<!DOCTYPE svg PUBLIC "-//W3C//DTD SVG 20010904//EN"
 "http://www.w3.org/TR/2001/REC-SVG-20010904/DTD/svg10.dtd">
<svg version="1.0" xmlns="http://www.w3.org/2000/svg"
 width="56.000000pt" height="56.000000pt" viewBox="0 0 56.000000 56.000000"
 preserveAspectRatio="xMidYMid meet">
<metadata>
Created by potrace 1.16, written by Peter Selinger 2001-2019
</metadata>
<g transform="translate(0.000000,56.000000) scale(0.100000,-0.100000)"
fill="#000000" stroke="none">
<path d="M164 560 c-46 0 -46 0 -38 -47 4 -27 7 -63 6 -81 -1 -18 -11 -51 -21
-75 -11 -23 -23 -66 -26 -96 -7 -53 -7 -53 54 -112 34 -31 61 -61 61 -65 0 -5
-17 -25 -37 -46 -37 -38 -37 -38 -8 -38 15 0 37 8 48 17 18 17 19 17 28 0 6
-9 19 -17 30 -17 18 0 19 1 3 24 -15 24 -15 25 23 49 25 16 47 43 65 78 15 30
32 72 37 94 6 22 11 54 11 71 0 16 5 35 12 42 7 7 22 12 34 12 13 0 26 5 29
11 4 5 0 18 -10 29 -10 11 -24 16 -37 12 -11 -3 -24 1 -29 9 -5 8 -9 24 -9 35
0 12 -9 33 -21 48 -11 14 -25 23 -31 20 -5 -3 -8 -35 -6 -72 3 -60 1 -67 -17
-70 -11 -2 -32 -8 -47 -14 -15 -6 -25 -14 -22 -19 3 -5 28 -9 56 -9 51 0 51 0
45 -54 -3 -29 -14 -73 -25 -97 -11 -24 -33 -56 -49 -72 -30 -27 -30 -27 -40
-5 -5 13 -9 57 -8 98 1 41 6 87 10 103 4 17 3 27 -4 27 -6 0 -17 -13 -26 -30
-8 -16 -15 -40 -15 -54 0 -14 -5 -37 -11 -53 -11 -28 -11 -28 -30 -4 -10 13
-19 35 -19 50 0 14 16 57 35 95 19 39 35 84 35 101 0 17 -6 40 -14 51 -9 12
-11 26 -6 33 4 8 13 10 19 7 6 -4 11 -2 11 3 0 6 -20 11 -46 11z"/>
</g>
</svg>
