<?xml version="1.0" standalone="no"?>
<!DOCTYPE svg PUBLIC "-//W3C//DTD SVG 20010904//EN"
 "http://www.w3.org/TR/2001/REC-SVG-20010904/DTD/svg10.dtd">
<svg version="1.0" xmlns="http://www.w3.org/2000/svg"
 width="56.000000pt" height="56.000000pt" viewBox="0 0 56.000000 56.000000"
 preserveAspectRatio="xMidYMid meet">
<metadata>
Created by potrace 1.16, written by Peter Selinger 2001-2019
</metadata>
<g transform="translate(0.000000,56.000000) scale(0.100000,-0.100000)"
fill="#000000" stroke="none">
<path d="M221 560 c-5 0 -12 -8 -14 -17 -3 -10 -3 -36 -1 -58 3 -22 6 -54 6
-72 1 -22 -11 -49 -38 -89 -21 -31 -67 -85 -101 -119 -35 -34 -63 -68 -63 -76
0 -9 10 -25 23 -37 13 -12 31 -22 40 -22 10 0 22 11 27 25 5 14 31 54 57 90
27 36 75 98 108 137 33 39 77 80 98 91 34 17 43 18 82 7 25 -7 45 -14 45 -15
0 -1 -8 -20 -17 -41 -9 -22 -17 -43 -18 -49 -1 -5 -3 -16 -3 -24 -2 -11 -5
-11 -17 -1 -13 11 -21 7 -50 -21 -19 -19 -35 -42 -35 -53 0 -12 -5 -16 -15
-12 -10 3 -30 -8 -53 -29 -24 -22 -33 -37 -27 -43 6 -5 34 -17 63 -26 30 -9
62 -14 73 -11 11 4 19 2 19 -5 0 -7 -9 -24 -20 -40 -11 -15 -17 -30 -13 -34 3
-3 19 -6 34 -6 16 0 40 5 54 12 14 6 28 22 32 35 3 14 1 35 -5 48 -6 14 -27
31 -45 39 -30 12 -34 18 -29 41 3 17 17 35 38 47 24 14 34 27 34 44 0 17 6 24
20 24 15 0 20 7 20 25 0 14 7 28 15 31 8 4 15 14 15 24 0 10 -7 21 -15 24 -9
3 -20 19 -26 35 -8 24 -17 29 -52 34 -23 3 -47 1 -53 -4 -6 -5 -19 -6 -28 -3
-10 4 -22 0 -29 -10 -11 -15 -15 -14 -45 13 -17 17 -32 36 -32 44 0 8 -11 22
-25 31 -13 9 -29 16 -34 16z"/>
</g>
</svg>
