<?xml version="1.0" standalone="no"?>
<!DOCTYPE svg PUBLIC "-//W3C//DTD SVG 20010904//EN"
 "http://www.w3.org/TR/2001/REC-SVG-20010904/DTD/svg10.dtd">
<svg version="1.0" xmlns="http://www.w3.org/2000/svg"
 width="56.000000pt" height="56.000000pt" viewBox="0 0 56.000000 56.000000"
 preserveAspectRatio="xMidYMid meet">
<metadata>
Created by potrace 1.16, written by Peter Selinger 2001-2019
</metadata>
<g transform="translate(0.000000,56.000000) scale(0.100000,-0.100000)"
fill="#000000" stroke="none">
<path d="M377 525 c-28 25 -37 29 -41 18 -3 -8 1 -37 10 -64 13 -39 14 -52 4
-64 -7 -8 -26 -17 -44 -20 -17 -3 -44 -7 -59 -9 -15 -1 -33 -8 -39 -14 -9 -9
-9 -15 -1 -23 7 -7 30 -7 77 1 36 7 73 10 81 6 10 -3 15 -19 15 -46 0 -26 -12
-65 -35 -110 -19 -37 -39 -71 -45 -75 -5 -3 -10 -15 -10 -25 0 -11 -19 -37
-42 -59 -43 -40 -43 -40 -7 -41 21 0 39 6 42 13 3 7 31 44 63 82 33 38 66 78
75 88 9 10 22 45 29 77 7 33 10 76 7 95 -5 33 -4 35 24 35 17 0 32 6 35 15 4
8 1 22 -6 30 -7 8 -31 24 -55 36 -23 11 -58 36 -78 54z"/>
<path d="M167 510 c-7 0 -26 -24 -41 -52 -16 -29 -35 -57 -42 -63 -7 -5 -22
-46 -33 -89 -20 -79 -20 -79 11 -140 17 -34 36 -72 42 -86 7 -14 19 -26 28
-28 12 -2 25 12 43 47 18 37 25 66 25 110 0 33 -5 63 -10 66 -6 4 -18 -12 -28
-35 -16 -39 -19 -41 -32 -25 -10 12 -14 38 -13 76 1 41 10 76 32 122 17 36 31
72 31 81 0 9 -6 16 -13 16z"/>
</g>
</svg>
