<?xml version="1.0" standalone="no"?>
<!DOCTYPE svg PUBLIC "-//W3C//DTD SVG 20010904//EN"
 "http://www.w3.org/TR/2001/REC-SVG-20010904/DTD/svg10.dtd">
<svg version="1.0" xmlns="http://www.w3.org/2000/svg"
 width="56.000000pt" height="56.000000pt" viewBox="0 0 56.000000 56.000000"
 preserveAspectRatio="xMidYMid meet">
<metadata>
Created by potrace 1.16, written by Peter Selinger 2001-2019
</metadata>
<g transform="translate(0.000000,56.000000) scale(0.100000,-0.100000)"
fill="#000000" stroke="none">
<path d="M347 560 c-1 0 -10 -17 -20 -37 -15 -33 -15 -39 -1 -54 10 -11 13
-25 8 -45 -4 -16 -15 -42 -25 -59 -10 -16 -21 -48 -25 -71 -5 -37 -3 -43 22
-61 16 -11 46 -23 67 -27 20 -4 37 -12 37 -17 0 -6 -18 -48 -40 -94 -22 -46
-40 -86 -40 -89 0 -3 11 -6 24 -6 20 0 32 15 71 86 26 48 48 100 49 117 1 23
-5 34 -24 43 -14 7 -43 16 -64 21 -22 4 -41 14 -44 20 -2 7 10 25 26 40 16 16
36 47 45 69 9 25 13 52 9 66 -4 14 -21 41 -39 62 -18 20 -34 36 -36 36z"/>
<path d="M166 540 c-12 0 -26 -3 -29 -7 -4 -3 -2 -12 3 -19 6 -6 11 -32 12
-57 0 -33 -9 -63 -41 -123 -34 -66 -40 -85 -35 -116 4 -21 13 -43 20 -49 7 -6
22 -8 33 -4 11 3 23 16 26 28 4 12 14 37 22 56 9 19 22 60 29 90 8 31 16 72
18 90 3 22 -3 49 -15 73 -14 27 -26 38 -43 38z"/>
</g>
</svg>
