<?xml version="1.0" standalone="no"?>
<!DOCTYPE svg PUBLIC "-//W3C//DTD SVG 20010904//EN"
 "http://www.w3.org/TR/2001/REC-SVG-20010904/DTD/svg10.dtd">
<svg version="1.0" xmlns="http://www.w3.org/2000/svg"
 width="56.000000pt" height="56.000000pt" viewBox="0 0 56.000000 56.000000"
 preserveAspectRatio="xMidYMid meet">
<metadata>
Created by potrace 1.16, written by Peter Selinger 2001-2019
</metadata>
<g transform="translate(0.000000,56.000000) scale(0.100000,-0.100000)"
fill="#000000" stroke="none">
<path d="M95 560 c-21 0 -23 -7 -34 -107 -6 -60 -13 -144 -15 -189 -3 -69 0
-86 18 -116 11 -19 38 -54 58 -77 22 -26 43 -41 51 -38 8 3 21 31 30 64 9 32
21 110 27 173 6 63 16 120 22 127 6 7 27 13 47 13 20 0 42 4 50 9 8 5 20 7 28
4 9 -4 13 -24 13 -67 0 -33 -7 -81 -16 -105 -8 -24 -37 -81 -65 -126 -37 -60
-60 -87 -87 -101 -37 -19 -37 -19 7 -22 32 -2 52 2 70 16 14 10 46 44 71 74
25 32 55 84 68 120 18 51 21 76 16 119 -3 30 -6 65 -7 78 -2 17 6 29 27 40 16
9 31 22 33 28 2 6 -6 20 -18 32 -12 11 -35 23 -51 27 -17 3 -34 2 -38 -2 -5
-5 -10 -22 -12 -39 -2 -24 -8 -31 -28 -33 -14 -1 -49 -7 -78 -14 -38 -8 -58
-19 -73 -39 -10 -15 -19 -32 -19 -38 0 -6 -7 -11 -15 -11 -8 0 -19 -9 -24 -19
-8 -15 -7 -20 6 -25 13 -5 15 -17 9 -68 -3 -34 -10 -66 -15 -71 -6 -6 -16 3
-25 21 -11 21 -16 57 -16 108 0 43 7 107 16 142 13 53 14 68 3 88 -7 14 -21
24 -34 24z"/>
</g>
</svg>
