<?xml version="1.0" standalone="no"?>
<!DOCTYPE svg PUBLIC "-//W3C//DTD SVG 20010904//EN"
 "http://www.w3.org/TR/2001/REC-SVG-20010904/DTD/svg10.dtd">
<svg version="1.0" xmlns="http://www.w3.org/2000/svg"
 width="56.000000pt" height="56.000000pt" viewBox="0 0 56.000000 56.000000"
 preserveAspectRatio="xMidYMid meet">
<metadata>
Created by potrace 1.16, written by Peter Selinger 2001-2019
</metadata>
<g transform="translate(0.000000,56.000000) scale(0.100000,-0.100000)"
fill="#000000" stroke="none">
<path d="M215 560 c-14 0 -25 -6 -25 -12 0 -7 -10 -33 -22 -58 -12 -25 -25
-54 -29 -65 -4 -11 -11 -38 -14 -60 -4 -22 -7 -49 -7 -60 0 -11 4 -47 9 -80 5
-33 18 -76 28 -95 11 -19 26 -43 34 -52 7 -10 18 -15 22 -12 5 3 9 11 9 19 0
8 -14 43 -31 79 -28 58 -30 71 -26 133 3 37 8 84 13 103 4 19 15 48 25 65 11
16 19 38 19 48 0 9 5 17 10 17 6 0 10 7 10 15 0 9 -9 15 -25 15z"/>
<path d="M294 400 c-8 0 -17 -7 -21 -16 -4 -10 1 -22 12 -30 9 -7 24 -25 31
-40 8 -14 14 -28 14 -30 0 -2 -25 -4 -55 -4 -41 0 -55 -4 -55 -15 0 -8 14 -17
34 -21 19 -3 39 -3 45 0 5 4 12 2 16 -4 3 -6 -1 -36 -10 -67 -9 -32 -25 -70
-36 -84 -10 -15 -19 -30 -19 -33 0 -4 -9 -17 -21 -29 -20 -22 -20 -22 1 -25
12 -2 28 4 35 15 8 10 32 54 55 98 22 44 40 94 40 110 0 28 2 30 37 30 31 0
38 4 38 20 0 17 -7 20 -45 20 -41 0 -45 2 -47 27 -1 15 -9 38 -19 52 -9 14
-23 26 -30 26z"/>
</g>
</svg>
