<?xml version="1.0" standalone="no"?>
<!DOCTYPE svg PUBLIC "-//W3C//DTD SVG 20010904//EN"
 "http://www.w3.org/TR/2001/REC-SVG-20010904/DTD/svg10.dtd">
<svg version="1.0" xmlns="http://www.w3.org/2000/svg"
 width="56.000000pt" height="56.000000pt" viewBox="0 0 56.000000 56.000000"
 preserveAspectRatio="xMidYMid meet">
<metadata>
Created by potrace 1.16, written by Peter Selinger 2001-2019
</metadata>
<g transform="translate(0.000000,56.000000) scale(0.100000,-0.100000)"
fill="#000000" stroke="none">
<path d="M185 560 c-8 0 -15 -4 -15 -10 0 -5 7 -10 15 -10 8 0 15 5 15 10 0 6
-7 10 -15 10z"/>
<path d="M333 540 c-12 0 -25 -4 -28 -10 -3 -5 -3 -14 0 -20 3 -5 14 -10 24
-10 10 0 23 -6 29 -12 5 -7 11 -22 12 -33 1 -11 2 -28 1 -39 0 -10 -28 -45
-62 -77 -48 -47 -61 -65 -63 -91 -1 -29 4 -35 37 -51 20 -10 37 -25 37 -33 0
-8 -12 -19 -26 -24 -14 -6 -22 -15 -18 -21 3 -6 -17 -35 -47 -65 -53 -54 -53
-54 -21 -54 25 0 50 16 122 77 75 64 90 82 88 103 -2 17 -18 34 -50 55 -26 17
-48 35 -48 42 0 6 8 14 18 17 10 3 34 21 53 39 20 19 43 44 52 58 9 13 17 38
17 55 0 17 -7 37 -15 44 -8 6 -31 20 -52 31 -20 10 -47 19 -60 19z"/>
<path d="M214 530 c-2 0 -4 -7 -4 -15 0 -9 -11 -38 -25 -65 -14 -27 -41 -65
-60 -85 -20 -19 -33 -40 -30 -45 3 -6 23 -10 45 -10 34 0 42 5 74 50 20 28 36
56 36 63 0 7 7 22 15 33 8 10 15 26 15 36 0 9 -13 21 -31 27 -18 6 -34 11 -35
11z"/>
</g>
</svg>
