<?xml version="1.0" standalone="no"?>
<!DOCTYPE svg PUBLIC "-//W3C//DTD SVG 20010904//EN"
 "http://www.w3.org/TR/2001/REC-SVG-20010904/DTD/svg10.dtd">
<svg version="1.0" xmlns="http://www.w3.org/2000/svg"
 width="56.000000pt" height="56.000000pt" viewBox="0 0 56.000000 56.000000"
 preserveAspectRatio="xMidYMid meet">
<metadata>
Created by potrace 1.16, written by Peter Selinger 2001-2019
</metadata>
<g transform="translate(0.000000,56.000000) scale(0.100000,-0.100000)"
fill="#000000" stroke="none">
<path d="M188 560 c-13 -1 -27 -5 -33 -10 -5 -5 -36 -33 -68 -63 -45 -43 -57
-61 -57 -85 0 -17 5 -34 10 -37 6 -3 10 -15 10 -25 0 -11 9 -50 21 -87 12 -38
26 -81 31 -96 8 -20 17 -27 32 -25 16 2 22 11 24 38 2 19 -1 52 -8 73 -9 29
-8 42 1 53 8 9 32 14 74 14 34 0 65 3 69 7 3 4 -10 15 -30 25 -21 10 -54 18
-74 18 -23 0 -43 -7 -53 -18 -9 -9 -20 -28 -25 -42 -8 -22 -10 -21 -24 21 -8
24 -13 59 -10 77 3 24 21 48 68 91 35 32 64 61 64 65 0 3 -10 6 -22 6z"/>
<path d="M417 443 c-11 4 -25 -1 -38 -14 -13 -13 -20 -32 -19 -52 1 -18 2 -37
1 -43 -1 -7 -11 -15 -23 -18 -22 -6 -22 -7 -5 -20 17 -13 17 -18 3 -85 -8 -39
-22 -85 -30 -103 -9 -18 -30 -49 -46 -68 -29 -34 -29 -35 -9 -38 12 -2 34 5
48 16 14 10 37 42 51 69 14 28 31 73 37 99 6 27 14 61 17 77 6 23 11 27 41 27
24 0 38 7 49 22 9 12 16 32 16 45 0 13 -12 30 -32 44 -18 13 -35 26 -38 29 -3
4 -13 9 -23 13z m4 -65 c6 -2 11 -8 11 -13 0 -5 -5 -11 -11 -13 -6 -2 -11 4
-11 13 0 9 5 15 11 13z"/>
</g>
</svg>
