<?xml version="1.0" standalone="no"?>
<!DOCTYPE svg PUBLIC "-//W3C//DTD SVG 20010904//EN"
 "http://www.w3.org/TR/2001/REC-SVG-20010904/DTD/svg10.dtd">
<svg version="1.0" xmlns="http://www.w3.org/2000/svg"
 width="56.000000pt" height="56.000000pt" viewBox="0 0 56.000000 56.000000"
 preserveAspectRatio="xMidYMid meet">
<metadata>
Created by potrace 1.16, written by Peter Selinger 2001-2019
</metadata>
<g transform="translate(0.000000,56.000000) scale(0.100000,-0.100000)"
fill="#000000" stroke="none">
<path d="M179 560 c-13 -1 -29 -6 -35 -13 -6 -7 -14 -26 -17 -43 -3 -16 -15
-56 -27 -89 -14 -37 -25 -100 -30 -163 -6 -74 -5 -112 4 -135 6 -18 20 -47 31
-65 11 -17 28 -35 38 -38 10 -3 24 0 32 6 9 7 15 30 15 54 0 22 -7 61 -15 85
-9 24 -13 53 -9 65 3 11 15 40 26 64 11 23 26 42 33 42 7 0 18 -6 24 -14 6 -8
25 -19 41 -26 17 -7 30 -20 30 -29 0 -10 -11 -55 -25 -101 -14 -46 -30 -89
-35 -94 -6 -6 -10 -23 -10 -38 0 -21 5 -28 19 -28 10 0 24 6 30 14 6 7 20 47
31 87 11 41 25 96 31 123 11 49 11 49 62 43 31 -4 56 -2 64 4 7 7 13 19 13 28
0 10 -11 27 -23 39 -14 13 -34 21 -47 20 -19 -2 -25 3 -30 27 -4 17 -12 40
-19 53 -6 12 -21 22 -33 22 -19 0 -20 -4 -15 -44 4 -24 4 -46 1 -49 -3 -3 -25
1 -47 9 -23 8 -51 13 -62 10 -11 -3 -35 -29 -52 -58 -32 -52 -33 -52 -33 -22
0 18 12 69 26 115 14 46 28 96 31 112 5 23 2 27 -18 27z"/>
</g>
</svg>
