<?xml version="1.0" standalone="no"?>
<!DOCTYPE svg PUBLIC "-//W3C//DTD SVG 20010904//EN"
 "http://www.w3.org/TR/2001/REC-SVG-20010904/DTD/svg10.dtd">
<svg version="1.0" xmlns="http://www.w3.org/2000/svg"
 width="56.000000pt" height="56.000000pt" viewBox="0 0 56.000000 56.000000"
 preserveAspectRatio="xMidYMid meet">
<metadata>
Created by potrace 1.16, written by Peter Selinger 2001-2019
</metadata>
<g transform="translate(0.000000,56.000000) scale(0.100000,-0.100000)"
fill="#000000" stroke="none">
<path d="M188 560 c-14 -1 -37 -17 -58 -43 -20 -23 -46 -56 -58 -74 -12 -17
-22 -45 -22 -61 0 -17 5 -54 11 -84 6 -29 15 -62 19 -73 4 -11 14 -40 21 -63
8 -28 25 -53 46 -69 18 -14 40 -23 48 -19 8 3 15 13 16 23 1 10 2 56 3 103 2
59 8 95 20 117 16 31 18 32 79 29 62 -4 62 -4 61 -49 0 -25 -6 -65 -13 -88 -7
-24 -17 -53 -21 -64 -4 -11 -13 -39 -19 -62 -7 -24 -15 -43 -19 -43 -4 0 -13
-9 -20 -20 -11 -18 -10 -20 18 -20 20 0 33 6 36 18 4 9 19 43 35 75 16 32 29
71 29 86 0 15 4 31 9 36 6 6 11 35 13 65 3 55 3 55 38 55 25 0 36 5 38 17 2
12 -9 23 -36 34 -25 11 -43 28 -52 48 -7 17 -20 39 -28 49 -8 9 -26 17 -39 17
-12 0 -23 -2 -23 -5 0 -2 13 -23 29 -47 16 -23 26 -48 23 -56 -4 -11 -17 -13
-52 -9 -26 3 -57 3 -69 0 -14 -4 -34 -32 -63 -89 -23 -46 -45 -84 -49 -84 -5
0 -15 13 -24 30 -9 17 -15 56 -15 97 0 67 1 69 55 140 30 40 55 75 55 78 0 3
-10 5 -22 5z"/>
</g>
</svg>
