<?xml version="1.0" standalone="no"?>
<!DOCTYPE svg PUBLIC "-//W3C//DTD SVG 20010904//EN"
 "http://www.w3.org/TR/2001/REC-SVG-20010904/DTD/svg10.dtd">
<svg version="1.0" xmlns="http://www.w3.org/2000/svg"
 width="56.000000pt" height="56.000000pt" viewBox="0 0 56.000000 56.000000"
 preserveAspectRatio="xMidYMid meet">
<metadata>
Created by potrace 1.16, written by Peter Selinger 2001-2019
</metadata>
<g transform="translate(0.000000,56.000000) scale(0.100000,-0.100000)"
fill="#000000" stroke="none">
<path d="M83 559 c-7 1 -13 -8 -13 -18 0 -11 5 -23 11 -27 8 -5 10 -32 4 -93
-4 -47 -7 -93 -6 -101 0 -8 3 -58 7 -110 4 -60 13 -108 24 -130 10 -19 27 -44
39 -54 17 -15 24 -17 34 -7 7 6 12 35 11 64 0 29 -9 81 -19 117 -13 47 -19
101 -19 194 -1 129 -1 129 -31 147 -16 10 -36 18 -42 18z"/>
<path d="M381 560 c-10 0 -22 -7 -25 -16 -3 -9 -6 -42 -6 -75 0 -55 -1 -59
-23 -59 -13 0 -34 9 -47 20 -13 11 -27 20 -32 20 -5 0 -6 -10 -3 -22 4 -13 17
-32 29 -43 13 -11 33 -28 46 -38 16 -13 19 -22 12 -29 -7 -7 -8 -17 -2 -29 7
-11 5 -32 -5 -61 -8 -23 -20 -64 -27 -90 -7 -27 -15 -48 -18 -48 -4 0 -14 -6
-25 -13 -16 -13 -17 -17 -4 -45 11 -25 20 -32 41 -32 19 0 26 4 22 14 -3 8 6
39 20 69 14 29 26 63 26 75 0 11 4 23 9 26 4 3 11 31 14 61 5 51 10 61 51 99
25 23 46 47 46 52 0 5 -18 28 -41 51 -22 23 -40 50 -39 60 1 10 2 26 1 36 -1
10 -9 17 -20 17z"/>
</g>
</svg>
