<?xml version="1.0" standalone="no"?>
<!DOCTYPE svg PUBLIC "-//W3C//DTD SVG 20010904//EN"
 "http://www.w3.org/TR/2001/REC-SVG-20010904/DTD/svg10.dtd">
<svg version="1.0" xmlns="http://www.w3.org/2000/svg"
 width="56.000000pt" height="56.000000pt" viewBox="0 0 56.000000 56.000000"
 preserveAspectRatio="xMidYMid meet">
<metadata>
Created by potrace 1.16, written by Peter Selinger 2001-2019
</metadata>
<g transform="translate(0.000000,56.000000) scale(0.100000,-0.100000)"
fill="#000000" stroke="none">
<path d="M235 560 c-18 0 -25 -5 -25 -19 0 -11 -6 -32 -14 -48 -8 -15 -24 -57
-36 -93 -12 -36 -30 -94 -42 -130 -11 -36 -22 -80 -25 -98 -4 -25 1 -40 22
-68 17 -22 31 -32 37 -26 5 5 12 38 16 73 7 64 7 64 37 61 17 -2 34 -7 39 -12
6 -6 5 -29 -2 -61 -7 -28 -12 -70 -12 -95 0 -30 4 -44 14 -44 9 0 17 24 25 72
6 40 12 84 13 98 2 16 11 26 28 31 14 4 43 7 66 8 30 1 47 8 65 27 24 26 24
26 -35 80 -33 30 -65 54 -72 54 -7 0 -20 -15 -28 -32 -8 -18 -17 -43 -21 -56
-4 -13 -17 -27 -29 -32 -12 -4 -34 -6 -49 -3 -15 3 -29 9 -32 12 -2 4 2 32 10
62 8 30 19 63 24 74 5 11 15 41 21 68 7 26 17 50 21 53 5 3 9 14 9 25 0 14 -7
19 -25 19z m123 -264 c15 -15 15 -18 2 -26 -9 -5 -19 -5 -24 0 -5 5 -6 17 -2
26 6 17 8 17 24 0z"/>
</g>
</svg>
