<?xml version="1.0" standalone="no"?>
<!DOCTYPE svg PUBLIC "-//W3C//DTD SVG 20010904//EN"
 "http://www.w3.org/TR/2001/REC-SVG-20010904/DTD/svg10.dtd">
<svg version="1.0" xmlns="http://www.w3.org/2000/svg"
 width="56.000000pt" height="56.000000pt" viewBox="0 0 56.000000 56.000000"
 preserveAspectRatio="xMidYMid meet">
<metadata>
Created by potrace 1.16, written by Peter Selinger 2001-2019
</metadata>
<g transform="translate(0.000000,56.000000) scale(0.100000,-0.100000)"
fill="#000000" stroke="none">
<path d="M182 560 c-7 0 -12 -6 -12 -13 0 -8 9 -22 20 -32 11 -10 20 -28 20
-40 0 -12 -10 -35 -22 -51 -13 -16 -31 -36 -40 -44 -10 -8 -20 -34 -24 -57 -5
-33 -3 -43 7 -43 8 0 30 15 49 33 19 18 46 52 60 75 16 26 32 42 45 42 11 0
30 3 43 6 18 5 22 2 22 -14 0 -12 -26 -52 -58 -90 -32 -39 -64 -89 -72 -112
-12 -36 -12 -43 1 -51 8 -5 24 -9 37 -9 12 0 25 -7 28 -15 4 -8 -2 -27 -12
-43 -9 -15 -36 -44 -58 -64 -41 -38 -41 -38 1 -38 37 0 47 6 102 61 34 34 61
69 61 78 0 9 -13 31 -30 49 -16 18 -30 44 -30 57 0 16 19 42 55 78 43 42 55
61 55 85 0 19 -9 39 -22 52 -17 16 -32 20 -58 17 -19 -3 -45 -8 -57 -12 -18
-6 -23 -3 -29 19 -3 15 -21 38 -39 51 -17 14 -37 25 -43 25z"/>
</g>
</svg>
