<?xml version="1.0" standalone="no"?>
<!DOCTYPE svg PUBLIC "-//W3C//DTD SVG 20010904//EN"
 "http://www.w3.org/TR/2001/REC-SVG-20010904/DTD/svg10.dtd">
<svg version="1.0" xmlns="http://www.w3.org/2000/svg"
 width="128.000000pt" height="128.000000pt" viewBox="0 0 128.000000 128.000000"
 preserveAspectRatio="xMidYMid meet">
<metadata>
Created by potrace 1.16, written by Peter Selinger 2001-2019
</metadata>
<g transform="translate(0.000000,128.000000) scale(0.100000,-0.100000)"
fill="#000000" stroke="none">
<path d="M675 1255 c-36 6 -45 4 -45 -8 0 -8 20 -32 44 -53 25 -22 70 -58 101
-82 35 -28 63 -42 78 -40 14 2 23 11 25 25 2 16 -11 38 -44 73 -27 28 -63 58
-81 65 -18 8 -53 17 -78 20z"/>
<path d="M458 1195 c-31 6 -39 4 -44 -10 -4 -9 0 -29 9 -44 13 -22 14 -35 5
-67 -5 -21 -12 -57 -15 -79 -3 -22 -9 -44 -14 -50 -5 -5 -9 -31 -9 -57 0 -26
4 -48 9 -48 4 0 20 17 34 38 14 20 36 60 49 87 17 38 22 69 23 132 0 45 -2 84
-5 86 -3 3 -22 8 -42 12z"/>
<path d="M581 1190 c-9 0 -22 -5 -28 -11 -9 -9 -1 -26 33 -69 24 -31 44 -64
44 -74 0 -10 -23 -48 -52 -85 -28 -36 -56 -68 -62 -70 -5 -2 -33 -28 -61 -58
-27 -30 -97 -102 -154 -159 -58 -57 -110 -104 -116 -104 -7 0 -20 -9 -30 -20
-10 -11 -28 -20 -40 -20 -11 0 -26 -5 -33 -12 -7 -7 -12 -19 -12 -28 0 -9 8
-24 18 -33 10 -10 26 -17 35 -17 8 0 57 40 107 90 50 49 97 90 105 90 8 0 17
-5 21 -11 4 -7 23 -9 51 -5 33 4 45 2 49 -9 3 -8 -18 -39 -53 -77 -32 -34 -77
-81 -101 -103 -24 -22 -52 -55 -64 -73 -16 -26 -18 -35 -8 -47 7 -8 22 -15 34
-15 12 0 44 23 75 53 30 28 72 76 94 105 29 39 46 52 61 50 13 -2 22 -12 24
-24 2 -12 -11 -42 -28 -67 -17 -26 -41 -54 -54 -64 -12 -10 -52 -53 -89 -95
-37 -42 -67 -81 -67 -86 0 -5 9 -17 19 -26 12 -11 27 -15 38 -12 10 3 35 25
54 49 20 23 44 57 53 75 9 17 24 32 32 32 13 0 15 -8 11 -37 -3 -21 -9 -51
-12 -66 -6 -21 -2 -33 14 -50 11 -13 27 -41 34 -62 13 -37 17 -40 57 -43 43
-3 43 -3 36 28 -3 17 -22 50 -41 73 -19 22 -35 50 -35 63 0 12 11 56 25 98 14
42 25 92 25 111 0 18 4 36 9 39 5 3 25 -1 45 -9 28 -12 36 -21 37 -43 0 -15 3
-61 5 -102 2 -41 6 -88 9 -105 3 -16 8 -57 13 -90 6 -55 9 -60 32 -60 25 0 25
0 26 120 0 66 4 126 8 133 6 9 14 7 36 -8 16 -11 41 -34 57 -51 15 -17 41 -40
56 -51 28 -20 28 -20 83 37 49 52 54 62 54 102 0 41 -5 49 -66 110 -60 60 -64
68 -58 97 3 17 11 36 16 43 5 6 8 24 6 39 -2 18 -13 32 -36 45 -30 15 -39 16
-76 5 -27 -8 -77 -42 -134 -90 -49 -42 -97 -76 -106 -76 -9 0 -16 8 -16 18 0
9 27 46 61 82 43 47 56 66 45 68 -9 2 -32 -7 -52 -19 -37 -22 -37 -22 -55 2
-10 13 -19 31 -19 40 0 9 11 21 24 27 14 6 30 20 36 32 9 16 8 22 -5 26 -9 4
-31 4 -51 1 -19 -3 -46 -15 -61 -26 -14 -12 -33 -21 -43 -21 -9 0 -25 -9 -35
-20 -10 -11 -22 -20 -27 -20 -5 0 -8 7 -6 15 2 8 47 59 102 115 54 55 102 100
106 100 4 0 15 -9 24 -19 9 -10 43 -35 76 -55 32 -20 64 -36 72 -36 7 0 51
-15 98 -34 47 -18 110 -45 140 -58 30 -14 73 -31 96 -38 22 -7 49 -10 60 -8
14 2 20 13 22 38 1 19 -2 41 -7 49 -5 8 -29 17 -52 22 -24 4 -62 11 -84 15
-22 4 -68 20 -103 36 -34 15 -72 28 -83 28 -12 0 -34 11 -51 25 -16 14 -35 25
-42 25 -6 0 -29 17 -49 38 -21 21 -35 40 -33 43 3 3 12 22 21 42 15 37 15 37
-28 85 -24 26 -54 62 -66 80 -12 17 -30 32 -40 32z m212 -650 c5 0 17 -5 28
-10 10 -6 19 -19 19 -29 0 -10 13 -37 29 -62 16 -24 46 -60 65 -78 20 -19 36
-40 36 -47 0 -7 -12 -26 -26 -43 -14 -17 -32 -31 -39 -31 -7 0 -37 19 -66 42
-30 23 -78 64 -106 92 -29 28 -53 55 -53 60 0 5 24 31 53 57 28 27 56 48 60
49z"/>
</g>
</svg>
