<?xml version="1.0" standalone="no"?>
<!DOCTYPE svg PUBLIC "-//W3C//DTD SVG 20010904//EN"
 "http://www.w3.org/TR/2001/REC-SVG-20010904/DTD/svg10.dtd">
<svg version="1.0" xmlns="http://www.w3.org/2000/svg"
 width="128.000000pt" height="128.000000pt" viewBox="0 0 128.000000 128.000000"
 preserveAspectRatio="xMidYMid meet">
<metadata>
Created by potrace 1.16, written by Peter Selinger 2001-2019
</metadata>
<g transform="translate(0.000000,128.000000) scale(0.100000,-0.100000)"
fill="#000000" stroke="none">
<path d="M274 1218 c-7 37 -12 58 -13 46 -1 -13 -14 -26 -35 -37 -26 -12 -38
-26 -47 -55 -9 -30 -9 -48 1 -76 6 -20 20 -42 31 -50 11 -8 28 -12 38 -9 11 3
33 -8 55 -27 20 -18 36 -38 36 -44 0 -7 -22 -39 -50 -70 -27 -31 -50 -61 -50
-65 0 -5 6 -14 13 -20 8 -6 20 -30 27 -53 7 -24 25 -69 41 -101 25 -49 27 -58
14 -63 -9 -4 -29 -4 -44 -1 -16 4 -53 2 -82 -2 -37 -6 -59 -16 -72 -32 -14
-17 -17 -32 -12 -59 4 -19 18 -48 33 -63 22 -23 34 -27 65 -25 28 2 42 -2 50
-14 9 -13 7 -21 -6 -36 -9 -10 -20 -34 -23 -53 -3 -19 -15 -61 -27 -94 -11
-33 -24 -64 -29 -70 -4 -5 -8 -19 -8 -32 0 -12 5 -33 11 -47 7 -14 17 -27 24
-30 7 -2 33 -8 59 -11 25 -4 46 -3 47 1 0 5 2 25 3 44 2 19 12 69 22 110 10
41 18 93 17 115 -1 22 -2 72 -3 112 -2 52 2 78 14 94 9 13 16 34 16 47 0 13 9
35 20 49 11 14 20 35 20 47 -1 11 -14 46 -30 76 -17 30 -30 70 -30 89 0 19 12
55 27 80 14 25 34 57 45 70 11 15 18 40 18 68 0 24 -7 57 -15 73 -14 27 -18
29 -76 28 -34 0 -65 4 -72 11 -7 6 -17 42 -23 79z"/>
<path d="M576 1280 c-25 0 -25 0 0 -50 13 -27 35 -62 48 -77 12 -15 35 -54 50
-86 25 -54 26 -60 12 -76 -9 -10 -34 -23 -55 -29 -21 -7 -55 -12 -75 -12 -30
0 -38 -4 -47 -27 -8 -21 -6 -30 11 -48 11 -12 20 -25 20 -31 0 -5 29 -9 63 -9
35 0 70 5 78 10 8 6 30 16 49 22 19 6 52 14 74 18 28 5 43 2 57 -11 10 -9 30
-16 44 -16 14 0 32 5 40 12 8 7 15 23 15 36 0 12 -7 30 -16 38 -8 9 -17 16
-19 16 -2 0 -15 -5 -29 -11 -23 -11 -30 -8 -71 26 -30 24 -48 48 -52 67 -4 20
-17 37 -40 51 -26 15 -33 25 -29 40 3 15 -5 30 -29 53 -19 18 -35 36 -35 41
-1 4 -9 18 -19 31 -11 12 -30 22 -45 22z"/>
<path d="M826 850 c-12 0 -45 -21 -74 -47 -28 -27 -66 -60 -84 -74 -18 -14
-45 -29 -59 -32 -15 -4 -36 -15 -47 -24 -11 -10 -23 -27 -26 -39 -3 -11 0 -29
8 -39 14 -19 15 -19 68 -1 29 10 63 28 75 39 19 16 25 18 38 7 8 -7 15 -20 15
-29 0 -9 -15 -23 -33 -31 -19 -9 -36 -27 -42 -44 -5 -15 -27 -46 -49 -68 -39
-39 -39 -39 -9 -70 31 -31 31 -31 63 -5 25 21 42 27 80 27 28 0 52 -5 57 -12
4 -7 8 -24 8 -38 0 -15 6 -26 17 -28 9 -2 35 2 57 8 22 6 47 17 56 26 8 8 15
26 15 40 0 17 -10 30 -32 44 -22 13 -51 20 -86 20 -29 0 -62 5 -72 10 -13 7
-21 7 -25 0 -3 -5 -18 -10 -33 -9 -23 1 -24 2 -7 7 11 4 27 12 36 17 9 6 18
19 20 30 2 11 19 26 37 34 21 10 32 22 32 35 0 12 -16 35 -37 53 -38 32 -38
32 -18 51 11 11 36 29 55 39 25 14 36 28 38 47 2 15 -2 34 -9 42 -6 8 -21 14
-33 14z"/>
<path d="M790 327 c-8 2 -24 -3 -35 -10 -12 -6 -35 -21 -53 -32 -17 -11 -32
-25 -32 -32 0 -6 4 -14 10 -18 5 -3 32 2 59 11 28 9 55 22 61 30 7 7 10 21 8
31 -2 10 -10 19 -18 20z"/>
<path d="M614 218 c-10 1 -40 -11 -66 -28 -26 -16 -52 -39 -58 -50 -6 -12 -9
-28 -6 -36 3 -8 21 -21 41 -29 19 -8 60 -15 92 -15 32 0 81 -8 108 -17 28 -9
108 -20 180 -24 72 -5 154 -11 184 -15 40 -4 56 -3 62 7 5 8 9 22 9 32 0 10
-12 33 -26 52 -14 18 -39 38 -56 44 -17 6 -47 11 -66 11 -19 0 -52 -5 -73 -12
-31 -9 -51 -8 -97 3 -31 7 -87 13 -124 14 -36 0 -70 3 -74 8 -4 4 -8 17 -9 30
-1 13 -9 23 -21 25z"/>
</g>
</svg>
