<?xml version="1.0" standalone="no"?>
<!DOCTYPE svg PUBLIC "-//W3C//DTD SVG 20010904//EN"
 "http://www.w3.org/TR/2001/REC-SVG-20010904/DTD/svg10.dtd">
<svg version="1.0" xmlns="http://www.w3.org/2000/svg"
 width="56.000000pt" height="56.000000pt" viewBox="0 0 56.000000 56.000000"
 preserveAspectRatio="xMidYMid meet">
<metadata>
Created by potrace 1.16, written by Peter Selinger 2001-2019
</metadata>
<g transform="translate(0.000000,56.000000) scale(0.100000,-0.100000)"
fill="#000000" stroke="none">
<path d="M93 560 c-8 0 -13 -12 -13 -28 0 -16 13 -47 30 -70 28 -40 29 -44 19
-84 -7 -24 -14 -78 -16 -120 -4 -72 -3 -77 19 -89 13 -7 41 -13 63 -13 40 -1
40 -1 37 -59 -3 -45 1 -64 14 -78 11 -12 30 -19 56 -19 21 0 38 4 38 9 0 5
-18 27 -40 50 -22 22 -40 46 -40 51 0 6 11 28 25 50 14 22 47 56 73 75 26 19
52 35 59 35 6 0 21 12 32 26 16 20 18 31 10 45 -7 14 -21 19 -49 19 -35 0 -46
-7 -102 -62 -62 -63 -62 -63 -69 -13 -4 28 -8 71 -8 97 -1 39 3 49 26 66 26
19 26 19 -3 38 -16 10 -38 27 -48 38 -20 19 -20 19 -29 -8 -6 -17 -15 -26 -26
-24 -9 2 -22 18 -30 36 -8 17 -21 32 -28 32z m74 -232 c10 -2 21 -17 26 -35 5
-18 6 -40 3 -50 -7 -17 -9 -16 -27 6 -10 13 -19 37 -19 53 0 22 4 29 17 26z"/>
</g>
</svg>
