<?xml version="1.0" standalone="no"?>
<!DOCTYPE svg PUBLIC "-//W3C//DTD SVG 20010904//EN"
 "http://www.w3.org/TR/2001/REC-SVG-20010904/DTD/svg10.dtd">
<svg version="1.0" xmlns="http://www.w3.org/2000/svg"
 width="56.000000pt" height="56.000000pt" viewBox="0 0 56.000000 56.000000"
 preserveAspectRatio="xMidYMid meet">
<metadata>
Created by potrace 1.16, written by Peter Selinger 2001-2019
</metadata>
<g transform="translate(0.000000,56.000000) scale(0.100000,-0.100000)"
fill="#000000" stroke="none">
<path d="M221 537 c-27 -1 -45 -7 -49 -16 -3 -8 6 -22 21 -33 22 -16 26 -25
21 -46 -4 -15 -22 -41 -40 -58 -24 -22 -34 -41 -34 -60 0 -16 16 -65 35 -108
27 -62 33 -88 29 -116 -4 -25 -1 -48 10 -68 15 -29 21 -32 61 -32 25 0 45 3
45 8 0 4 -13 20 -30 35 -17 16 -30 39 -30 52 0 15 15 39 39 62 21 21 50 47 65
58 15 11 32 28 37 38 7 13 7 23 -2 33 -6 8 -21 14 -34 14 -13 0 -36 -16 -58
-40 -19 -22 -44 -40 -55 -40 -15 0 -24 13 -36 49 -9 28 -16 57 -16 66 0 14 6
16 27 11 16 -5 29 -3 34 5 4 7 5 36 2 64 -5 44 -2 55 16 72 20 19 20 20 4 35
-11 10 -35 15 -62 15z"/>
</g>
</svg>
