<?xml version="1.0" standalone="no"?>
<!DOCTYPE svg PUBLIC "-//W3C//DTD SVG 20010904//EN"
 "http://www.w3.org/TR/2001/REC-SVG-20010904/DTD/svg10.dtd">
<svg version="1.0" xmlns="http://www.w3.org/2000/svg"
 width="56.000000pt" height="56.000000pt" viewBox="0 0 56.000000 56.000000"
 preserveAspectRatio="xMidYMid meet">
<metadata>
Created by potrace 1.16, written by Peter Selinger 2001-2019
</metadata>
<g transform="translate(0.000000,56.000000) scale(0.100000,-0.100000)"
fill="#000000" stroke="none">
<path d="M212 540 c-10 0 -32 -13 -50 -30 -18 -16 -38 -30 -43 -30 -5 0 -28
-12 -50 -27 -37 -24 -40 -29 -37 -67 3 -41 3 -41 53 -38 28 2 85 9 128 17 44
8 89 12 102 9 18 -4 24 -14 28 -52 3 -25 1 -57 -4 -69 -7 -19 -13 -22 -26 -15
-10 5 -24 7 -30 5 -7 -3 -13 -21 -13 -40 0 -21 11 -55 26 -80 24 -41 24 -46
10 -62 -9 -10 -13 -21 -9 -24 3 -4 25 -7 48 -7 38 0 42 3 54 35 7 21 9 41 3
52 -5 10 -6 76 -3 148 6 130 6 130 56 138 28 4 56 14 64 22 12 11 12 17 2 29
-7 9 -33 27 -58 41 -36 20 -49 23 -60 13 -8 -6 -23 -29 -34 -50 -19 -38 -19
-38 -139 -38 -66 0 -120 2 -120 5 0 3 10 19 22 35 12 17 30 30 40 30 10 0 30
7 43 16 14 9 22 20 19 25 -3 5 -13 9 -22 9z"/>
</g>
</svg>
