<?xml version="1.0" standalone="no"?>
<!DOCTYPE svg PUBLIC "-//W3C//DTD SVG 20010904//EN"
 "http://www.w3.org/TR/2001/REC-SVG-20010904/DTD/svg10.dtd">
<svg version="1.0" xmlns="http://www.w3.org/2000/svg"
 width="56.000000pt" height="56.000000pt" viewBox="0 0 56.000000 56.000000"
 preserveAspectRatio="xMidYMid meet">
<metadata>
Created by potrace 1.16, written by Peter Selinger 2001-2019
</metadata>
<g transform="translate(0.000000,56.000000) scale(0.100000,-0.100000)"
fill="#000000" stroke="none">
<path d="M228 560 c-7 -1 -18 -6 -25 -13 -6 -7 -33 -29 -60 -50 -26 -21 -59
-46 -72 -56 -14 -10 -21 -23 -17 -29 4 -7 16 -12 26 -12 11 0 48 11 82 24 35
13 85 30 111 37 41 10 50 10 58 -2 5 -8 9 -20 9 -26 0 -7 -9 -13 -21 -13 -13
0 -25 -11 -35 -35 -7 -19 -14 -54 -14 -79 0 -36 5 -47 25 -60 22 -15 25 -22
19 -54 -3 -20 -13 -48 -22 -62 -9 -14 -40 -49 -70 -77 -55 -53 -55 -53 -24
-53 18 0 44 11 64 27 18 16 38 32 43 38 6 5 21 32 33 59 21 43 23 64 24 202 0
154 0 154 48 154 27 0 55 3 64 6 9 3 16 10 16 15 0 5 -18 16 -40 25 -22 9 -40
20 -40 25 0 5 -11 9 -23 9 -15 0 -28 -9 -34 -23 -9 -19 -26 -28 -80 -40 -37
-10 -77 -17 -88 -17 -16 0 -12 6 18 31 20 17 37 35 37 40 0 5 -6 9 -12 9z m87
-196 c8 -4 15 -14 15 -24 0 -10 -7 -20 -15 -24 -11 -4 -15 2 -15 24 0 22 4 28
15 24z"/>
</g>
</svg>
