<?xml version="1.0" standalone="no"?>
<!DOCTYPE svg PUBLIC "-//W3C//DTD SVG 20010904//EN"
 "http://www.w3.org/TR/2001/REC-SVG-20010904/DTD/svg10.dtd">
<svg version="1.0" xmlns="http://www.w3.org/2000/svg"
 width="56.000000pt" height="56.000000pt" viewBox="0 0 56.000000 56.000000"
 preserveAspectRatio="xMidYMid meet">
<metadata>
Created by potrace 1.16, written by Peter Selinger 2001-2019
</metadata>
<g transform="translate(0.000000,56.000000) scale(0.100000,-0.100000)"
fill="#000000" stroke="none">
<path d="M198 560 c-13 0 -31 -12 -41 -26 -11 -14 -30 -29 -43 -34 -13 -5 -24
-16 -24 -25 0 -8 -4 -15 -9 -15 -5 0 -12 -7 -15 -16 -4 -9 -5 -19 -3 -21 2 -2
16 1 31 6 14 6 26 16 26 23 0 7 13 19 30 26 16 8 34 11 40 7 6 -4 8 -15 5 -25
-4 -12 1 -22 13 -29 17 -9 20 -6 26 28 3 22 8 46 12 54 4 11 -1 13 -20 10 -16
-3 -26 -1 -26 6 0 6 5 11 10 11 6 0 10 5 10 10 0 6 -10 10 -22 10z"/>
<path d="M338 560 c-13 0 -29 -9 -35 -20 -11 -16 -10 -22 2 -32 9 -7 22 -19
30 -26 8 -7 15 -24 15 -36 0 -13 -8 -30 -17 -39 -10 -8 -40 -18 -68 -22 -27
-4 -58 -11 -67 -16 -9 -5 -45 -11 -80 -12 -54 -3 -63 -7 -66 -24 -2 -11 5 -30
15 -42 17 -21 21 -21 48 -10 17 8 33 19 37 25 4 6 18 9 32 7 13 -3 27 0 30 6
4 6 18 11 30 11 13 0 40 7 60 15 20 9 41 13 46 10 5 -3 6 -38 3 -77 -5 -56
-12 -81 -35 -114 -15 -23 -28 -46 -28 -52 0 -5 14 -26 30 -47 17 -21 30 -44
30 -51 0 -8 11 -14 25 -14 17 0 25 6 25 18 1 9 2 85 4 167 1 83 6 156 10 163
5 9 14 8 36 -3 16 -8 34 -15 40 -15 6 0 10 23 10 54 0 30 -4 57 -9 61 -5 3
-28 -1 -51 -9 -41 -14 -41 -14 -39 35 2 39 -2 53 -19 69 -12 11 -32 20 -44 20z"/>
<path d="M490 270 c-5 0 -10 -9 -10 -21 0 -11 5 -17 10 -14 6 3 10 13 10 21 0
8 -4 14 -10 14z"/>
<path d="M490 210 c-4 0 -10 -6 -13 -12 -2 -7 -2 -21 1 -31 4 -16 6 -16 19 3
8 11 11 25 8 30 -3 6 -10 10 -15 10z"/>
<path d="M491 58 c-6 2 -11 -4 -11 -13 0 -9 5 -15 11 -13 6 2 11 8 11 13 0 5
-5 11 -11 13z"/>
</g>
</svg>
