<?xml version="1.0" standalone="no"?>
<!DOCTYPE svg PUBLIC "-//W3C//DTD SVG 20010904//EN"
 "http://www.w3.org/TR/2001/REC-SVG-20010904/DTD/svg10.dtd">
<svg version="1.0" xmlns="http://www.w3.org/2000/svg"
 width="56.000000pt" height="56.000000pt" viewBox="0 0 56.000000 56.000000"
 preserveAspectRatio="xMidYMid meet">
<metadata>
Created by potrace 1.16, written by Peter Selinger 2001-2019
</metadata>
<g transform="translate(0.000000,56.000000) scale(0.100000,-0.100000)"
fill="#000000" stroke="none">
<path d="M186 510 c-8 0 -23 -8 -35 -17 -11 -10 -36 -44 -55 -77 -20 -32 -43
-82 -52 -110 -9 -28 -20 -55 -25 -61 -5 -5 -9 -21 -9 -36 0 -15 7 -42 15 -62
8 -19 26 -49 41 -66 21 -25 33 -31 65 -31 30 0 39 4 39 18 0 9 7 26 15 36 8
11 15 28 15 38 0 10 18 54 40 98 22 44 43 80 46 80 3 0 25 -11 49 -25 40 -24
43 -28 35 -55 -5 -16 -11 -34 -15 -40 -4 -6 -1 -18 6 -27 8 -9 31 -26 51 -39
21 -14 38 -31 38 -40 0 -12 8 -14 38 -9 20 4 45 9 54 12 10 2 18 10 18 17 0 7
-16 20 -35 29 -20 9 -44 17 -54 17 -9 0 -28 11 -40 24 -23 24 -23 24 -1 54 13
17 20 38 17 46 -4 9 -17 16 -29 16 -13 0 -34 9 -48 20 -14 11 -31 20 -37 20
-7 0 -13 4 -13 9 0 5 23 28 51 50 29 23 56 41 62 41 7 0 8 3 1 10 -5 5 -26 10
-48 12 -31 2 -42 -3 -58 -22 -11 -14 -41 -49 -66 -79 -26 -29 -55 -68 -65 -85
-11 -17 -35 -48 -55 -68 -20 -21 -42 -38 -49 -38 -8 0 -18 12 -24 27 -8 21 -5
38 12 82 12 31 38 79 56 108 19 28 40 57 48 63 8 7 15 23 15 36 0 14 -6 24
-14 24z"/>
</g>
</svg>
