<?xml version="1.0" standalone="no"?>
<!DOCTYPE svg PUBLIC "-//W3C//DTD SVG 20010904//EN"
 "http://www.w3.org/TR/2001/REC-SVG-20010904/DTD/svg10.dtd">
<svg version="1.0" xmlns="http://www.w3.org/2000/svg"
 width="56.000000pt" height="56.000000pt" viewBox="0 0 56.000000 56.000000"
 preserveAspectRatio="xMidYMid meet">
<metadata>
Created by potrace 1.16, written by Peter Selinger 2001-2019
</metadata>
<g transform="translate(0.000000,56.000000) scale(0.100000,-0.100000)"
fill="#000000" stroke="none">
<path d="M225 560 c-10 0 -15 -10 -15 -28 0 -16 8 -36 18 -44 9 -9 22 -17 27
-19 7 -3 6 -19 -1 -49 -11 -45 -11 -45 -28 -12 -12 23 -22 32 -32 28 -9 -3
-17 -6 -19 -6 -2 0 -9 -24 -15 -52 -9 -43 -9 -64 3 -108 14 -55 14 -55 56 -58
22 -2 41 -5 41 -7 0 -2 -11 -21 -25 -41 -14 -20 -25 -46 -25 -58 0 -13 19 -40
44 -65 30 -30 50 -42 66 -39 21 3 20 6 -19 50 -23 25 -41 56 -41 68 0 12 5 31
11 42 7 12 31 41 54 65 24 24 48 43 53 43 6 0 13 4 16 9 3 5 -6 16 -19 25 -25
16 -27 16 -55 -12 -16 -17 -46 -33 -66 -37 -20 -3 -40 -3 -45 2 -4 4 -11 36
-15 71 -4 41 -3 62 4 62 6 0 17 -19 25 -42 9 -30 19 -43 32 -43 16 0 21 14 32
85 8 47 19 95 25 108 9 17 9 25 0 34 -10 10 -17 10 -33 0 -11 -7 -24 -10 -29
-7 -6 4 -10 13 -10 21 0 8 -7 14 -15 14z"/>
</g>
</svg>
