<?xml version="1.0" standalone="no"?>
<!DOCTYPE svg PUBLIC "-//W3C//DTD SVG 20010904//EN"
 "http://www.w3.org/TR/2001/REC-SVG-20010904/DTD/svg10.dtd">
<svg version="1.0" xmlns="http://www.w3.org/2000/svg"
 width="56.000000pt" height="56.000000pt" viewBox="0 0 56.000000 56.000000"
 preserveAspectRatio="xMidYMid meet">
<metadata>
Created by potrace 1.16, written by Peter Selinger 2001-2019
</metadata>
<g transform="translate(0.000000,56.000000) scale(0.100000,-0.100000)"
fill="#000000" stroke="none">
<path d="M269 560 c-14 0 -19 -7 -19 -25 0 -14 7 -37 16 -50 9 -14 20 -22 25
-19 5 3 9 18 9 34 0 15 -3 35 -6 44 -3 9 -15 16 -25 16z"/>
<path d="M292 450 c-17 0 -32 -5 -34 -11 -2 -7 -19 -13 -37 -14 -18 -2 -38 -8
-44 -14 -8 -8 -3 -12 19 -17 18 -3 34 -15 42 -32 6 -14 12 -39 12 -54 0 -15
-4 -28 -9 -28 -5 0 -11 4 -13 9 -1 6 -22 14 -46 20 -41 9 -44 8 -53 -16 -5
-13 -6 -30 -3 -35 4 -6 6 -32 5 -57 -1 -25 1 -59 5 -74 6 -29 6 -29 29 -7 13
12 28 19 34 16 5 -4 13 -1 17 5 4 7 -2 19 -13 29 -12 9 -24 35 -28 58 -6 38
-5 42 14 42 12 0 31 -6 44 -12 12 -7 23 -13 23 -13 1 0 5 -10 8 -22 5 -16 2
-23 -14 -28 -11 -4 -17 -11 -14 -17 4 -5 19 -8 34 -4 15 3 30 2 33 -1 3 -3 -7
-16 -24 -30 -16 -14 -29 -31 -29 -39 0 -8 5 -14 10 -14 6 0 13 6 16 14 3 8 20
18 36 22 17 3 36 10 42 15 6 4 27 21 46 37 30 26 33 32 21 46 -11 12 -25 15
-57 12 -23 -3 -48 -7 -56 -8 -8 -2 -12 5 -11 17 1 11 -3 36 -8 55 -8 27 -7 45
4 75 8 22 18 48 22 58 6 14 2 17 -23 17z"/>
<path d="M267 64 c-22 22 -38 31 -47 26 -10 -6 -9 -16 6 -49 18 -41 18 -41
107 -41 78 0 88 2 77 15 -8 10 -30 15 -61 15 -43 0 -54 4 -82 34z"/>
</g>
</svg>
