<?xml version="1.0" standalone="no"?>
<!DOCTYPE svg PUBLIC "-//W3C//DTD SVG 20010904//EN"
 "http://www.w3.org/TR/2001/REC-SVG-20010904/DTD/svg10.dtd">
<svg version="1.0" xmlns="http://www.w3.org/2000/svg"
 width="56.000000pt" height="56.000000pt" viewBox="0 0 56.000000 56.000000"
 preserveAspectRatio="xMidYMid meet">
<metadata>
Created by potrace 1.16, written by Peter Selinger 2001-2019
</metadata>
<g transform="translate(0.000000,56.000000) scale(0.100000,-0.100000)"
fill="#000000" stroke="none">
<path d="M259 560 c-5 0 -9 -4 -9 -10 0 -5 -16 -10 -35 -10 -24 0 -38 -5 -42
-17 -4 -10 3 -24 21 -39 14 -13 29 -36 32 -52 4 -18 1 -32 -6 -37 -6 -4 -19 0
-29 9 -10 9 -23 16 -29 16 -7 0 -12 -10 -12 -22 0 -12 5 -37 10 -55 6 -18 14
-48 19 -65 6 -19 6 -51 2 -76 -5 -23 -4 -45 0 -48 5 -3 9 -16 9 -30 0 -14 5
-34 10 -45 6 -10 34 -31 62 -45 28 -14 75 -28 104 -31 47 -5 54 -4 54 12 0 10
-8 24 -18 31 -9 7 -30 14 -46 14 -16 0 -49 11 -72 25 -33 19 -46 34 -54 63 -5
20 -10 44 -10 53 0 8 5 26 12 40 6 13 33 42 60 64 27 22 63 52 81 67 25 22 29
30 18 37 -8 5 -21 7 -30 3 -9 -3 -30 -16 -47 -29 -23 -17 -33 -20 -42 -11 -7
7 -12 39 -12 73 0 34 5 66 10 71 6 6 8 18 4 27 -3 9 -10 17 -15 17z"/>
</g>
</svg>
