<?xml version="1.0" standalone="no"?>
<!DOCTYPE svg PUBLIC "-//W3C//DTD SVG 20010904//EN"
 "http://www.w3.org/TR/2001/REC-SVG-20010904/DTD/svg10.dtd">
<svg version="1.0" xmlns="http://www.w3.org/2000/svg"
 width="56.000000pt" height="56.000000pt" viewBox="0 0 56.000000 56.000000"
 preserveAspectRatio="xMidYMid meet">
<metadata>
Created by potrace 1.16, written by Peter Selinger 2001-2019
</metadata>
<g transform="translate(0.000000,56.000000) scale(0.100000,-0.100000)"
fill="#000000" stroke="none">
<path d="M265 559 c-33 0 -47 -7 -80 -39 -22 -22 -45 -40 -51 -40 -6 0 -17 -7
-25 -16 -7 -8 -21 -13 -31 -11 -10 3 -21 1 -24 -4 -3 -5 2 -12 10 -15 9 -3 13
-10 10 -15 -3 -5 -13 -9 -23 -9 -10 0 -26 -15 -36 -34 -18 -33 -18 -36 -1 -54
9 -11 29 -22 44 -25 15 -3 32 -2 37 3 6 4 45 15 87 24 72 16 79 16 103 0 24
-15 27 -15 44 0 9 9 25 16 33 16 13 0 16 -18 20 -92 3 -51 4 -95 2 -97 -2 -2
-11 15 -20 37 -10 22 -31 48 -47 57 -28 17 -30 17 -56 -2 -14 -11 -27 -32 -29
-46 -2 -17 9 -46 31 -80 19 -29 47 -63 62 -75 15 -12 24 -26 20 -32 -4 -6 19
-10 67 -10 50 0 68 3 58 10 -12 7 -16 40 -19 165 -2 85 0 162 3 171 5 13 9 14
21 4 12 -10 20 -9 40 4 14 9 25 24 25 34 0 10 -7 28 -16 40 -8 12 -30 29 -47
38 -18 9 -42 25 -54 36 -12 11 -26 17 -32 13 -6 -3 -11 -21 -11 -38 0 -18 -4
-38 -9 -46 -6 -9 -18 -11 -34 -7 -14 3 -40 -1 -60 -9 -19 -8 -37 -12 -40 -9
-3 3 -15 3 -26 -1 -12 -3 -21 -17 -24 -33 -4 -27 -4 -27 -6 0 0 16 -9 32 -21
38 -18 10 -15 14 39 63 33 28 70 60 83 69 23 17 23 17 -17 17z m90 -419 c8 0
15 -4 15 -10 0 -5 -7 -10 -15 -10 -8 0 -15 5 -15 10 0 6 7 10 15 10z"/>
</g>
</svg>
