<?xml version="1.0" standalone="no"?>
<!DOCTYPE svg PUBLIC "-//W3C//DTD SVG 20010904//EN"
 "http://www.w3.org/TR/2001/REC-SVG-20010904/DTD/svg10.dtd">
<svg version="1.0" xmlns="http://www.w3.org/2000/svg"
 width="56.000000pt" height="56.000000pt" viewBox="0 0 56.000000 56.000000"
 preserveAspectRatio="xMidYMid meet">
<metadata>
Created by potrace 1.16, written by Peter Selinger 2001-2019
</metadata>
<g transform="translate(0.000000,56.000000) scale(0.100000,-0.100000)"
fill="#000000" stroke="none">
<path d="M288 540 c-3 16 -4 16 -20 0 -10 -9 -18 -22 -18 -28 0 -6 -9 -14 -20
-17 -12 -4 -39 -4 -60 0 -36 6 -40 5 -40 -13 0 -12 9 -23 20 -27 11 -3 35 -7
52 -7 18 -1 36 -6 40 -12 4 -6 8 -23 8 -38 0 -24 -4 -28 -27 -29 -16 -1 -41
-3 -57 -5 -16 -1 -39 -13 -52 -25 -13 -12 -24 -28 -24 -35 0 -7 17 -30 37 -51
20 -21 45 -52 55 -70 14 -27 15 -32 3 -37 -9 -3 -15 -19 -15 -39 0 -24 8 -41
29 -61 20 -19 43 -30 68 -32 21 -1 55 -6 76 -10 38 -7 39 -6 35 22 -3 28 -5
29 -66 34 -49 4 -66 9 -75 25 -7 11 -15 30 -19 42 -5 18 -2 23 12 23 9 0 29 9
43 20 14 11 29 20 34 20 5 0 28 9 51 20 22 11 49 20 60 20 10 0 23 5 30 12 7
7 12 15 12 20 0 4 -13 14 -30 23 -16 8 -33 15 -39 15 -5 0 -29 -16 -53 -36
-23 -20 -45 -41 -48 -48 -3 -6 -24 -12 -47 -13 -26 -1 -43 3 -43 9 0 6 -11 25
-24 42 -13 17 -26 42 -31 55 -7 22 -6 23 34 17 23 -3 59 -9 81 -12 40 -6 40
-6 42 45 1 28 2 59 2 69 1 9 12 25 26 34 14 10 25 23 25 30 0 7 -14 16 -32 21
-18 5 -33 17 -35 27z"/>
</g>
</svg>
