<?xml version="1.0" standalone="no"?>
<!DOCTYPE svg PUBLIC "-//W3C//DTD SVG 20010904//EN"
 "http://www.w3.org/TR/2001/REC-SVG-20010904/DTD/svg10.dtd">
<svg version="1.0" xmlns="http://www.w3.org/2000/svg"
 width="56.000000pt" height="56.000000pt" viewBox="0 0 56.000000 56.000000"
 preserveAspectRatio="xMidYMid meet">
<metadata>
Created by potrace 1.16, written by Peter Selinger 2001-2019
</metadata>
<g transform="translate(0.000000,56.000000) scale(0.100000,-0.100000)"
fill="#000000" stroke="none">
<path d="M329 514 c-29 17 -29 17 -41 -8 -6 -15 -16 -26 -22 -27 -6 0 -29 -1
-51 -2 -33 -2 -41 -6 -43 -24 -3 -18 4 -23 50 -33 53 -12 53 -12 52 -114 -1
-55 -2 -105 -3 -110 0 -5 -19 9 -41 30 -22 22 -46 39 -52 39 -7 0 -14 -15 -16
-33 -3 -25 3 -39 27 -62 17 -17 40 -30 54 -30 22 0 26 -6 32 -48 3 -26 13 -57
21 -69 12 -18 24 -23 61 -23 46 0 46 0 19 33 -15 17 -32 43 -38 55 -11 22 -8
28 34 65 25 23 49 54 52 69 4 17 1 28 -7 31 -6 2 -30 -4 -53 -13 -28 -13 -46
-15 -58 -8 -13 7 -14 13 -6 23 6 7 11 47 11 88 0 70 2 75 29 95 19 14 27 28
23 40 -2 10 -18 26 -34 36z"/>
</g>
</svg>
