<?xml version="1.0" standalone="no"?>
<!DOCTYPE svg PUBLIC "-//W3C//DTD SVG 20010904//EN"
 "http://www.w3.org/TR/2001/REC-SVG-20010904/DTD/svg10.dtd">
<svg version="1.0" xmlns="http://www.w3.org/2000/svg"
 width="56.000000pt" height="56.000000pt" viewBox="0 0 56.000000 56.000000"
 preserveAspectRatio="xMidYMid meet">
<metadata>
Created by potrace 1.16, written by Peter Selinger 2001-2019
</metadata>
<g transform="translate(0.000000,56.000000) scale(0.100000,-0.100000)"
fill="#000000" stroke="none">
<path d="M331 534 c-5 4 -13 1 -16 -5 -4 -5 -5 -12 -2 -15 2 -3 -1 -24 -8 -47
-10 -34 -17 -43 -39 -45 -14 -2 -26 -10 -26 -18 0 -8 10 -14 24 -14 15 0 26
-7 29 -20 3 -11 10 -20 16 -20 6 0 11 9 11 20 0 11 4 20 9 20 5 0 14 14 20 30
8 25 7 32 -5 37 -11 4 -12 9 -4 18 7 9 8 15 1 19 -6 4 -8 13 -5 20 3 8 1 17
-5 20z"/>
<path d="M312 287 c-5 26 -10 40 -11 31 0 -10 -5 -18 -10 -18 -6 0 -13 5 -16
10 -3 6 -13 10 -21 10 -8 0 -25 -10 -38 -23 -13 -13 -26 -36 -30 -52 -4 -17
-10 -43 -13 -58 -3 -16 0 -40 7 -53 10 -18 22 -24 47 -24 19 0 45 7 58 16 23
15 25 15 25 0 0 -9 -9 -35 -19 -57 -11 -22 -17 -47 -14 -55 3 -9 21 -14 54
-14 27 0 49 4 49 9 0 5 -9 12 -19 16 -10 3 -25 4 -32 3 -10 -2 -14 7 -12 31 1
18 5 36 10 40 4 3 18 25 30 49 18 35 20 44 8 48 -7 3 -40 -8 -71 -26 -31 -17
-63 -29 -71 -26 -11 5 -13 17 -8 53 4 27 15 56 25 67 10 10 23 15 30 11 6 -4
16 -18 21 -33 7 -18 13 -22 21 -14 7 7 7 25 0 59z"/>
</g>
</svg>
