<?xml version="1.0" standalone="no"?>
<!DOCTYPE svg PUBLIC "-//W3C//DTD SVG 20010904//EN"
 "http://www.w3.org/TR/2001/REC-SVG-20010904/DTD/svg10.dtd">
<svg version="1.0" xmlns="http://www.w3.org/2000/svg"
 width="56.000000pt" height="56.000000pt" viewBox="0 0 56.000000 56.000000"
 preserveAspectRatio="xMidYMid meet">
<metadata>
Created by potrace 1.16, written by Peter Selinger 2001-2019
</metadata>
<g transform="translate(0.000000,56.000000) scale(0.100000,-0.100000)"
fill="#000000" stroke="none">
<path d="M198 559 c-13 0 -33 -10 -45 -22 -13 -13 -23 -30 -23 -39 0 -9 -4
-20 -10 -23 -5 -3 -10 -26 -10 -50 0 -24 -5 -47 -10 -50 -6 -3 -10 -50 -10
-106 0 -78 3 -99 14 -99 7 0 17 15 20 33 4 17 12 57 17 87 6 30 13 86 16 123
4 60 8 70 34 89 16 12 29 30 29 40 0 12 -7 18 -22 17z"/>
<path d="M245 560 c-9 0 -15 -5 -13 -11 2 -6 8 -10 13 -10 5 0 11 4 13 10 2 6
-4 11 -13 11z"/>
<path d="M350 444 c-14 3 -33 1 -42 -5 -10 -5 -18 -19 -18 -29 0 -11 4 -20 9
-20 6 0 9 -18 8 -40 -1 -28 5 -46 21 -63 20 -21 21 -27 11 -85 -10 -56 -9 -64
11 -92 12 -16 25 -30 29 -30 4 0 18 -9 31 -20 13 -11 29 -20 37 -20 7 0 16 6
19 13 2 7 1 23 -3 35 -5 12 -24 31 -43 41 -35 18 -35 19 -35 87 -1 50 -6 80
-22 109 -21 40 -21 40 4 69 13 16 20 32 16 37 -4 4 -19 10 -33 13z"/>
<path d="M246 240 c-8 0 -17 -4 -21 -9 -3 -5 -1 -12 5 -16 5 -3 15 -3 20 0 6
3 10 10 10 16 0 5 -6 9 -14 9z"/>
<path d="M215 169 c-6 6 -17 -4 -27 -25 -10 -19 -18 -41 -18 -48 0 -8 -7 -16
-15 -20 -10 -3 -20 5 -30 24 -9 17 -20 30 -25 30 -6 0 -10 -22 -10 -48 0 -26
5 -53 12 -60 7 -7 19 -12 28 -12 9 0 28 12 43 28 14 15 32 48 38 74 8 31 10
51 4 57z"/>
</g>
</svg>
