<?xml version="1.0" standalone="no"?>
<!DOCTYPE svg PUBLIC "-//W3C//DTD SVG 20010904//EN"
 "http://www.w3.org/TR/2001/REC-SVG-20010904/DTD/svg10.dtd">
<svg version="1.0" xmlns="http://www.w3.org/2000/svg"
 width="56.000000pt" height="56.000000pt" viewBox="0 0 56.000000 56.000000"
 preserveAspectRatio="xMidYMid meet">
<metadata>
Created by potrace 1.16, written by Peter Selinger 2001-2019
</metadata>
<g transform="translate(0.000000,56.000000) scale(0.100000,-0.100000)"
fill="#000000" stroke="none">
<path d="M204 560 c-13 0 -24 -5 -24 -11 0 -5 -9 -31 -21 -56 -13 -28 -18 -55
-14 -70 5 -21 11 -24 43 -21 27 2 37 -1 40 -13 1 -8 -2 -28 -7 -42 -10 -27
-10 -27 -44 -7 -19 11 -41 18 -50 15 -8 -4 -17 -16 -19 -29 -3 -12 -1 -53 3
-91 5 -48 12 -73 24 -81 10 -8 30 -11 48 -7 28 6 30 5 23 -20 -4 -19 1 -33 20
-57 15 -17 44 -40 65 -50 24 -13 58 -20 94 -20 51 0 55 2 55 24 0 13 -7 27
-16 30 -9 3 -39 6 -68 6 -42 0 -57 5 -73 22 -11 13 -24 33 -28 46 -4 15 1 34
15 58 13 19 51 53 87 76 42 26 63 46 61 57 -2 8 -16 20 -32 26 -27 9 -32 6
-80 -46 -36 -40 -64 -60 -95 -70 -40 -12 -44 -11 -57 6 -8 10 -14 27 -14 37 0
10 7 18 15 18 9 0 29 -7 44 -15 23 -11 31 -12 39 -2 6 6 16 41 23 76 11 58 15
65 46 77 18 8 33 21 33 30 0 9 -9 18 -21 21 -11 3 -25 16 -30 29 -5 15 -17 24
-29 24 -11 0 -23 7 -26 15 -4 8 -17 15 -30 15z m11 -60 c6 0 14 -3 18 -6 3 -3
3 -12 0 -20 -3 -8 -14 -14 -24 -14 -10 0 -19 6 -19 13 0 8 3 17 7 20 3 4 12 7
18 7z"/>
</g>
</svg>
