<?xml version="1.0" standalone="no"?>
<!DOCTYPE svg PUBLIC "-//W3C//DTD SVG 20010904//EN"
 "http://www.w3.org/TR/2001/REC-SVG-20010904/DTD/svg10.dtd">
<svg version="1.0" xmlns="http://www.w3.org/2000/svg"
 width="56.000000pt" height="56.000000pt" viewBox="0 0 56.000000 56.000000"
 preserveAspectRatio="xMidYMid meet">
<metadata>
Created by potrace 1.16, written by Peter Selinger 2001-2019
</metadata>
<g transform="translate(0.000000,56.000000) scale(0.100000,-0.100000)"
fill="#000000" stroke="none">
<path d="M278 559 c-16 0 -48 -29 -105 -96 -79 -91 -83 -98 -83 -143 0 -30 5
-52 15 -60 13 -11 22 -10 53 5 20 10 44 21 53 26 9 4 33 11 53 14 29 6 36 4
36 -9 0 -8 -11 -18 -25 -22 -14 -3 -34 -19 -45 -34 -11 -16 -20 -35 -20 -43 0
-7 7 -28 15 -44 9 -17 22 -36 30 -43 8 -7 15 -18 15 -26 0 -7 -9 -29 -21 -48
-18 -31 -19 -36 -5 -36 9 0 27 13 42 29 14 16 35 46 46 67 11 22 25 52 29 68
6 22 3 41 -16 79 -17 37 -21 55 -14 69 8 14 22 18 68 18 44 0 60 4 65 16 3 9
6 17 6 20 0 2 -13 10 -29 19 -26 13 -33 13 -65 0 -22 -9 -37 -11 -41 -5 -3 5
-3 26 1 45 5 27 2 41 -11 55 -10 11 -29 20 -43 20 -25 0 -25 0 -4 23 12 13 22
26 22 30 0 4 -10 7 -22 6z m-38 -69 c3 0 15 -8 26 -18 12 -9 25 -33 28 -54 5
-26 2 -40 -9 -52 -9 -9 -24 -16 -33 -16 -10 0 -28 -7 -41 -16 -13 -9 -38 -20
-57 -24 -30 -7 -34 -5 -34 12 0 11 10 34 22 51 12 18 38 51 57 75 19 23 38 42
41 42z m41 -270 c4 0 11 -4 14 -10 3 -5 3 -25 0 -44 -5 -22 -12 -33 -20 -30
-7 3 -18 17 -26 31 -12 22 -11 27 6 39 10 8 22 14 26 14z"/>
</g>
</svg>
