<?xml version="1.0" standalone="no"?>
<!DOCTYPE svg PUBLIC "-//W3C//DTD SVG 20010904//EN"
 "http://www.w3.org/TR/2001/REC-SVG-20010904/DTD/svg10.dtd">
<svg version="1.0" xmlns="http://www.w3.org/2000/svg"
 width="56.000000pt" height="56.000000pt" viewBox="0 0 56.000000 56.000000"
 preserveAspectRatio="xMidYMid meet">
<metadata>
Created by potrace 1.16, written by Peter Selinger 2001-2019
</metadata>
<g transform="translate(0.000000,56.000000) scale(0.100000,-0.100000)"
fill="#000000" stroke="none">
<path d="M268 559 c-7 -1 -28 -16 -45 -35 -18 -18 -33 -42 -33 -52 0 -11 7
-25 15 -32 8 -7 15 -23 15 -37 0 -18 -9 -28 -33 -38 -19 -8 -39 -21 -46 -29
-9 -10 -11 -28 -7 -48 4 -18 9 -46 13 -61 3 -16 16 -35 29 -44 18 -11 24 -24
24 -52 0 -20 10 -57 23 -81 22 -45 22 -45 100 -48 71 -3 78 -1 75 15 -2 14
-14 19 -48 21 -25 1 -54 4 -66 7 -11 2 -26 16 -32 30 -7 14 -12 39 -12 55 0
16 9 46 21 67 12 21 28 46 36 55 8 9 39 28 70 42 39 19 53 31 51 44 -2 11 -14
18 -33 20 -23 2 -40 -7 -75 -39 -25 -23 -58 -52 -75 -64 -16 -12 -36 -20 -42
-18 -8 3 -13 24 -13 54 0 33 4 49 13 49 6 0 19 -4 27 -10 9 -5 19 -5 27 2 7 6
13 29 13 53 0 29 6 47 20 60 11 10 20 25 20 32 0 8 -9 17 -20 20 -11 3 -20 9
-20 14 0 4 5 11 10 14 6 3 10 13 10 21 0 8 -6 13 -12 13z"/>
</g>
</svg>
