<?xml version="1.0" standalone="no"?>
<!DOCTYPE svg PUBLIC "-//W3C//DTD SVG 20010904//EN"
 "http://www.w3.org/TR/2001/REC-SVG-20010904/DTD/svg10.dtd">
<svg version="1.0" xmlns="http://www.w3.org/2000/svg"
 width="56.000000pt" height="56.000000pt" viewBox="0 0 56.000000 56.000000"
 preserveAspectRatio="xMidYMid meet">
<metadata>
Created by potrace 1.16, written by Peter Selinger 2001-2019
</metadata>
<g transform="translate(0.000000,56.000000) scale(0.100000,-0.100000)"
fill="#000000" stroke="none">
<path d="M205 560 c-25 0 -45 -3 -45 -7 0 -5 -23 -33 -50 -63 -28 -30 -49 -59
-47 -65 2 -5 13 -10 24 -10 13 0 51 29 92 68 39 38 71 71 71 73 0 2 -20 4 -45
4z"/>
<path d="M433 538 c-33 2 -46 -2 -63 -20 -12 -13 -36 -45 -55 -73 -18 -27 -58
-75 -87 -106 -34 -35 -59 -72 -66 -98 -7 -22 -19 -41 -26 -41 -7 0 -23 11 -35
24 -16 17 -22 35 -21 58 1 18 2 51 3 73 2 34 -1 40 -20 43 -16 2 -26 -4 -34
-22 -9 -18 -10 -48 -3 -103 9 -78 9 -78 58 -110 26 -18 54 -33 62 -33 7 0 21
15 30 33 9 17 36 62 60 98 24 37 50 72 58 78 10 9 20 9 34 2 10 -5 24 -16 30
-24 9 -10 9 -22 1 -45 -8 -22 -7 -36 1 -52 6 -12 12 -35 12 -52 1 -16 7 -32
14 -35 8 -3 11 -9 8 -15 -3 -5 -12 -4 -20 3 -12 10 -21 8 -44 -9 -16 -12 -34
-22 -39 -22 -6 0 -25 -7 -43 -15 -18 -8 -58 -22 -89 -30 -31 -9 -64 -22 -75
-31 -17 -14 -13 -15 51 -11 39 2 79 9 90 14 11 6 49 21 85 33 36 12 88 28 116
35 28 7 59 17 71 23 11 6 25 17 31 25 9 10 9 22 1 45 -8 25 -18 32 -49 37 -28
5 -40 12 -44 28 -3 12 -1 26 4 31 6 6 10 25 10 42 0 18 -7 39 -15 48 -8 8 -24
18 -35 21 -11 3 -20 13 -20 20 0 8 12 21 28 29 15 8 38 25 50 39 13 14 22 33
20 44 -2 13 -14 19 -45 21z"/>
</g>
</svg>
