<?xml version="1.0" standalone="no"?>
<!DOCTYPE svg PUBLIC "-//W3C//DTD SVG 20010904//EN"
 "http://www.w3.org/TR/2001/REC-SVG-20010904/DTD/svg10.dtd">
<svg version="1.0" xmlns="http://www.w3.org/2000/svg"
 width="56.000000pt" height="56.000000pt" viewBox="0 0 56.000000 56.000000"
 preserveAspectRatio="xMidYMid meet">
<metadata>
Created by potrace 1.16, written by Peter Selinger 2001-2019
</metadata>
<g transform="translate(0.000000,56.000000) scale(0.100000,-0.100000)"
fill="#000000" stroke="none">
<path d="M357 558 c-15 2 -27 -1 -27 -7 0 -6 9 -15 20 -21 13 -7 20 -21 20
-39 0 -28 -1 -29 -95 -46 -53 -9 -102 -14 -110 -11 -9 3 -26 2 -38 -3 -17 -7
-29 -4 -48 10 -13 10 -32 19 -41 19 -10 0 -18 -4 -18 -9 0 -6 17 -23 37 -38
32 -25 43 -28 101 -25 35 1 73 7 83 12 10 6 35 10 56 10 21 0 45 5 53 10 13 8
16 -2 20 -68 5 -70 7 -77 28 -80 21 -3 22 -1 22 87 0 58 4 92 12 97 6 4 30 8
52 8 30 1 42 5 44 19 3 14 -4 17 -40 17 -24 0 -49 -5 -55 -11 -9 -9 -16 -2
-30 27 -14 29 -25 40 -46 42z"/>
<path d="M405 257 c-6 2 -16 -2 -23 -9 -7 -7 -12 -29 -12 -50 0 -26 -4 -38
-14 -38 -8 0 -18 9 -21 20 -4 11 -17 28 -30 36 -23 15 -27 14 -60 -6 -19 -12
-35 -30 -35 -40 0 -10 15 -31 34 -46 19 -16 45 -36 57 -45 22 -15 22 -17 6
-40 -9 -13 -17 -27 -17 -31 0 -5 11 -8 24 -8 16 0 27 7 31 20 4 11 17 31 31
43 14 13 27 40 32 67 4 25 7 63 7 84 0 22 -5 41 -10 43z m-132 -87 c7 0 18 -5
25 -12 7 -7 12 -18 12 -25 0 -7 -7 -13 -15 -13 -8 0 -19 9 -25 19 -5 11 -10
22 -10 25 0 3 6 6 13 6z"/>
</g>
</svg>
