<?xml version="1.0" standalone="no"?>
<!DOCTYPE svg PUBLIC "-//W3C//DTD SVG 20010904//EN"
 "http://www.w3.org/TR/2001/REC-SVG-20010904/DTD/svg10.dtd">
<svg version="1.0" xmlns="http://www.w3.org/2000/svg"
 width="56.000000pt" height="56.000000pt" viewBox="0 0 56.000000 56.000000"
 preserveAspectRatio="xMidYMid meet">
<metadata>
Created by potrace 1.16, written by Peter Selinger 2001-2019
</metadata>
<g transform="translate(0.000000,56.000000) scale(0.100000,-0.100000)"
fill="#000000" stroke="none">
<path d="M278 559 c-49 -2 -56 -5 -102 -50 -31 -31 -46 -54 -43 -64 4 -8 14
-15 23 -15 9 0 18 9 21 20 3 11 8 20 12 20 4 0 11 -20 17 -45 6 -25 7 -50 3
-56 -4 -8 -19 -10 -40 -6 -19 4 -46 10 -61 13 -25 6 -28 3 -38 -36 -6 -23 -9
-49 -5 -57 3 -9 1 -21 -5 -28 -8 -9 -8 -15 0 -20 5 -3 10 -21 10 -39 0 -17 5
-37 12 -44 7 -7 21 -12 33 -12 12 0 26 5 32 11 7 7 19 9 28 6 14 -6 14 -9 0
-36 -8 -17 -15 -41 -15 -55 0 -15 8 -30 19 -36 11 -5 32 -10 47 -10 15 0 36 8
46 17 14 12 21 14 30 5 8 -8 8 -15 -2 -27 -11 -13 -6 -15 41 -15 30 0 62 7 72
14 9 7 17 18 17 24 0 6 -15 20 -34 31 -19 12 -41 18 -50 15 -9 -3 -32 -3 -51
0 -19 4 -35 13 -35 20 0 7 19 23 43 36 23 12 51 31 62 40 11 10 46 26 78 36
39 12 57 23 57 34 0 9 -7 31 -16 49 -8 17 -25 36 -36 42 -17 9 -26 5 -63 -31
-24 -23 -48 -39 -54 -36 -6 4 -21 1 -33 -6 -13 -7 -45 -20 -73 -28 -42 -14
-50 -20 -48 -38 2 -12 -2 -22 -7 -22 -6 0 -10 9 -10 20 0 13 -7 20 -19 20 -11
0 -21 6 -24 13 -2 6 0 19 5 27 4 8 12 28 18 43 8 23 14 27 33 22 12 -4 31 -16
43 -26 11 -11 26 -19 32 -19 7 0 13 15 13 33 1 17 1 46 0 63 -1 18 2 35 8 39
6 3 11 16 11 27 0 12 -9 32 -21 44 -12 12 -18 28 -14 34 4 6 23 9 43 8 28 -2
37 1 40 15 3 15 -4 17 -50 16z"/>
</g>
</svg>
