<?xml version="1.0" standalone="no"?>
<!DOCTYPE svg PUBLIC "-//W3C//DTD SVG 20010904//EN"
 "http://www.w3.org/TR/2001/REC-SVG-20010904/DTD/svg10.dtd">
<svg version="1.0" xmlns="http://www.w3.org/2000/svg"
 width="56.000000pt" height="56.000000pt" viewBox="0 0 56.000000 56.000000"
 preserveAspectRatio="xMidYMid meet">
<metadata>
Created by potrace 1.16, written by Peter Selinger 2001-2019
</metadata>
<g transform="translate(0.000000,56.000000) scale(0.100000,-0.100000)"
fill="#000000" stroke="none">
<path d="M115 560 c-20 0 -25 -5 -25 -25 0 -15 6 -25 15 -25 8 0 19 9 25 19 5
11 10 22 10 25 0 3 -11 6 -25 6z"/>
<path d="M248 559 c-13 0 -30 -8 -39 -17 -9 -9 -21 -27 -27 -38 -6 -12 -9 -24
-5 -28 3 -3 -5 -14 -18 -25 -23 -18 -24 -24 -24 -127 1 -60 4 -115 8 -122 5
-6 26 -12 49 -12 40 0 40 0 35 -32 -3 -18 -8 -44 -12 -59 -6 -22 -1 -28 40
-49 26 -13 50 -30 52 -37 3 -7 16 -13 29 -13 14 0 24 6 24 15 0 7 -20 31 -45
52 -25 20 -47 45 -51 55 -3 9 2 31 11 48 10 20 33 39 68 55 29 13 60 26 70 29
9 3 17 12 17 21 0 8 -11 21 -25 27 -21 9 -32 8 -61 -5 -19 -9 -41 -17 -49 -17
-12 0 -15 15 -15 73 0 65 2 73 22 82 13 6 24 18 26 28 3 12 -7 22 -32 32 -19
8 -37 19 -40 24 -4 5 -2 12 4 16 5 3 10 10 10 16 0 5 -10 9 -22 8z m-42 -111
c25 -3 29 -8 32 -37 2 -21 -1 -32 -8 -29 -6 2 -20 18 -32 36 -21 34 -21 34 8
30z m24 -138 c16 -19 28 -39 26 -45 -1 -5 -13 -10 -26 -10 -17 0 -26 8 -33 28
-5 15 -6 35 -2 45 5 14 11 12 35 -18z"/>
</g>
</svg>
