<?xml version="1.0" standalone="no"?>
<!DOCTYPE svg PUBLIC "-//W3C//DTD SVG 20010904//EN"
 "http://www.w3.org/TR/2001/REC-SVG-20010904/DTD/svg10.dtd">
<svg version="1.0" xmlns="http://www.w3.org/2000/svg"
 width="56.000000pt" height="56.000000pt" viewBox="0 0 56.000000 56.000000"
 preserveAspectRatio="xMidYMid meet">
<metadata>
Created by potrace 1.16, written by Peter Selinger 2001-2019
</metadata>
<g transform="translate(0.000000,56.000000) scale(0.100000,-0.100000)"
fill="#000000" stroke="none">
<path d="M361 560 c-13 0 -25 -13 -37 -39 -9 -22 -27 -44 -40 -49 -12 -6 -38
-14 -58 -18 -24 -4 -42 -2 -52 7 -11 9 -14 22 -9 46 5 26 3 33 -10 33 -8 0
-20 -12 -26 -27 -6 -16 -8 -46 -6 -67 3 -21 11 -42 18 -47 7 -4 28 -5 48 -2
20 3 50 11 68 18 17 8 34 11 37 7 3 -3 6 -11 6 -18 0 -7 -8 -15 -19 -19 -10
-3 -25 -22 -34 -43 -8 -20 -18 -59 -21 -86 -4 -33 -1 -58 10 -81 9 -19 27 -41
40 -50 13 -8 24 -20 24 -25 0 -6 -14 -29 -31 -53 -31 -42 -31 -42 2 -45 25 -3
38 2 51 18 10 12 27 53 39 92 16 55 18 76 10 100 -6 16 -13 75 -17 131 -6 102
-6 102 35 139 23 21 40 42 36 48 -3 5 -15 10 -26 10 -10 0 -19 5 -19 10 0 6
-9 10 -19 10z m-68 -239 c6 -6 12 -33 15 -60 3 -33 1 -51 -6 -51 -6 0 -16 9
-22 19 -5 11 -10 35 -10 54 0 18 3 37 7 41 4 3 11 2 16 -3z"/>
</g>
</svg>
