<?xml version="1.0" standalone="no"?>
<!DOCTYPE svg PUBLIC "-//W3C//DTD SVG 20010904//EN"
 "http://www.w3.org/TR/2001/REC-SVG-20010904/DTD/svg10.dtd">
<svg version="1.0" xmlns="http://www.w3.org/2000/svg"
 width="56.000000pt" height="56.000000pt" viewBox="0 0 56.000000 56.000000"
 preserveAspectRatio="xMidYMid meet">
<metadata>
Created by potrace 1.16, written by Peter Selinger 2001-2019
</metadata>
<g transform="translate(0.000000,56.000000) scale(0.100000,-0.100000)"
fill="#000000" stroke="none">
<path d="M128 522 c-20 14 -29 15 -34 6 -4 -7 6 -23 27 -41 19 -16 53 -38 75
-48 23 -10 66 -22 95 -27 54 -7 54 -7 57 -109 2 -95 1 -102 -18 -108 -13 -4
-20 -15 -20 -30 0 -13 5 -27 10 -30 6 -3 10 -14 10 -23 0 -10 -13 -33 -30 -52
-16 -19 -29 -41 -30 -47 0 -7 7 -13 15 -13 8 0 25 16 37 34 13 19 31 37 41 40
9 2 17 13 17 25 0 11 6 32 12 47 10 22 10 28 0 32 -8 2 -12 36 -12 117 0 114
0 114 41 113 22 0 45 4 50 9 5 5 4 16 -4 27 -7 10 -36 24 -63 31 -38 9 -50 17
-52 34 -2 11 -5 21 -6 21 -2 0 -19 -7 -39 -15 -19 -8 -37 -19 -39 -25 -2 -8
-20 -7 -58 1 -30 7 -67 21 -82 31z"/>
</g>
</svg>
