<?xml version="1.0" standalone="no"?>
<!DOCTYPE svg PUBLIC "-//W3C//DTD SVG 20010904//EN"
 "http://www.w3.org/TR/2001/REC-SVG-20010904/DTD/svg10.dtd">
<svg version="1.0" xmlns="http://www.w3.org/2000/svg"
 width="56.000000pt" height="56.000000pt" viewBox="0 0 56.000000 56.000000"
 preserveAspectRatio="xMidYMid meet">
<metadata>
Created by potrace 1.16, written by Peter Selinger 2001-2019
</metadata>
<g transform="translate(0.000000,56.000000) scale(0.100000,-0.100000)"
fill="#000000" stroke="none">
<path d="M302 559 c-9 0 -25 -8 -34 -18 -10 -10 -18 -23 -18 -29 0 -6 9 -16
19 -22 12 -6 22 -26 26 -49 4 -22 12 -42 20 -45 7 -2 16 -2 19 1 3 4 6 24 6
45 0 27 4 38 15 38 8 0 15 7 15 15 0 8 -11 26 -25 40 -14 14 -34 25 -43 24z"/>
<path d="M241 378 c-86 2 -90 2 -110 -24 -12 -15 -21 -31 -21 -36 0 -5 -18
-31 -40 -59 -22 -28 -40 -57 -40 -65 0 -8 7 -17 17 -21 10 -4 22 2 33 15 15
19 21 20 44 9 21 -10 26 -19 26 -51 0 -24 -6 -43 -16 -50 -8 -7 -18 -31 -21
-54 -5 -34 -3 -42 11 -42 11 0 16 9 16 29 0 17 6 31 16 35 9 3 24 6 35 6 11 0
37 -9 57 -19 21 -11 63 -25 93 -31 29 -6 68 -14 84 -17 23 -3 35 1 54 21 23
24 23 26 7 51 -16 24 -20 25 -69 18 -29 -3 -59 -7 -67 -7 -8 0 -32 1 -52 2
-26 1 -48 11 -70 31 -33 29 -33 29 -7 78 26 47 28 48 85 57 33 5 64 15 69 23
8 11 17 12 38 4 16 -6 41 -11 57 -11 19 0 33 7 40 19 5 11 7 27 4 35 -3 9 -14
16 -24 16 -11 0 -22 5 -25 10 -3 6 -15 10 -26 10 -11 0 -33 -7 -49 -15 -28
-14 -30 -14 -44 8 -14 21 -24 23 -105 25z m-52 -28 c10 0 35 -7 55 -15 20 -8
36 -19 36 -25 0 -5 -27 -19 -60 -31 -33 -12 -65 -28 -71 -35 -6 -8 -15 -14
-20 -14 -5 0 -9 7 -9 15 0 8 9 31 21 52 12 21 23 41 26 46 2 4 12 7 22 7z"/>
</g>
</svg>
