<?xml version="1.0" standalone="no"?>
<!DOCTYPE svg PUBLIC "-//W3C//DTD SVG 20010904//EN"
 "http://www.w3.org/TR/2001/REC-SVG-20010904/DTD/svg10.dtd">
<svg version="1.0" xmlns="http://www.w3.org/2000/svg"
 width="56.000000pt" height="56.000000pt" viewBox="0 0 56.000000 56.000000"
 preserveAspectRatio="xMidYMid meet">
<metadata>
Created by potrace 1.16, written by Peter Selinger 2001-2019
</metadata>
<g transform="translate(0.000000,56.000000) scale(0.100000,-0.100000)"
fill="#000000" stroke="none">
<path d="M380 530 c-10 0 -27 -16 -39 -35 -12 -21 -28 -35 -40 -35 -14 0 -19
5 -15 15 4 8 2 15 -3 15 -6 0 -20 -9 -32 -20 -20 -16 -33 -18 -86 -13 -39 3
-65 2 -69 -5 -3 -6 6 -20 21 -32 25 -20 37 -22 121 -18 92 4 92 4 92 -49 0
-49 -2 -54 -27 -64 -15 -6 -31 -15 -35 -22 -4 -6 -4 -25 -1 -42 3 -16 12 -39
19 -49 8 -11 11 -32 7 -50 -3 -17 -21 -51 -40 -76 -34 -45 -34 -45 -11 -49 17
-2 33 8 59 38 20 22 40 53 44 68 3 16 11 55 16 88 6 33 13 95 16 138 3 61 8
80 21 84 9 3 25 13 35 21 9 8 17 23 17 33 0 10 -12 27 -26 38 -15 12 -35 21
-44 21z"/>
</g>
</svg>
