<?xml version="1.0" standalone="no"?>
<!DOCTYPE svg PUBLIC "-//W3C//DTD SVG 20010904//EN"
 "http://www.w3.org/TR/2001/REC-SVG-20010904/DTD/svg10.dtd">
<svg version="1.0" xmlns="http://www.w3.org/2000/svg"
 width="56.000000pt" height="56.000000pt" viewBox="0 0 56.000000 56.000000"
 preserveAspectRatio="xMidYMid meet">
<metadata>
Created by potrace 1.16, written by Peter Selinger 2001-2019
</metadata>
<g transform="translate(0.000000,56.000000) scale(0.100000,-0.100000)"
fill="#000000" stroke="none">
<path d="M251 560 c-5 0 -12 -7 -15 -17 -4 -10 1 -23 14 -35 11 -10 20 -25 20
-33 0 -9 -10 -15 -24 -15 -14 0 -28 5 -31 10 -3 6 -10 10 -16 10 -5 0 -9 -13
-9 -29 0 -17 5 -33 12 -37 7 -5 25 -7 41 -6 28 2 28 2 25 -55 -3 -58 -3 -58
-53 -71 -27 -8 -65 -17 -83 -22 -18 -4 -39 -13 -46 -19 -7 -6 -16 -43 -20 -81
-4 -43 -2 -79 4 -90 6 -11 18 -20 27 -20 9 0 29 13 45 30 15 16 32 30 36 30 5
0 19 11 32 25 13 14 29 25 36 25 9 0 10 -7 1 -29 -5 -15 -7 -35 -4 -44 4 -10
23 -19 47 -23 22 -4 40 -9 40 -12 0 -3 -10 -16 -22 -29 -21 -23 -21 -23 18
-23 21 0 45 4 52 9 7 4 20 20 27 35 13 24 12 27 -8 40 -12 8 -39 17 -59 20
-21 4 -40 11 -43 16 -3 5 -1 18 4 28 6 11 23 27 38 38 19 12 49 19 93 20 55 1
65 4 65 19 0 10 -15 27 -34 37 -33 19 -34 19 -77 -1 -24 -12 -51 -21 -59 -21
-13 0 -15 14 -12 91 3 91 3 91 36 105 18 8 31 19 29 26 -3 7 -17 14 -32 16
-17 2 -30 12 -36 25 -4 12 -18 30 -29 40 -12 9 -25 17 -30 17z m-6 -322 c6 1
16 -2 24 -7 7 -5 11 -13 7 -19 -3 -6 -20 -18 -38 -26 -17 -9 -37 -16 -43 -16
-7 0 -24 -9 -39 -21 -14 -11 -30 -17 -36 -14 -6 3 -7 18 -4 33 4 15 13 35 21
44 9 9 34 19 57 21 22 2 46 4 51 5z"/>
<path d="M427 178 c-10 2 -17 -3 -17 -12 0 -10 9 -16 21 -16 12 0 19 5 17 13
-3 6 -12 13 -21 15z"/>
</g>
</svg>
