<?xml version="1.0" standalone="no"?>
<!DOCTYPE svg PUBLIC "-//W3C//DTD SVG 20010904//EN"
 "http://www.w3.org/TR/2001/REC-SVG-20010904/DTD/svg10.dtd">
<svg version="1.0" xmlns="http://www.w3.org/2000/svg"
 width="56.000000pt" height="56.000000pt" viewBox="0 0 56.000000 56.000000"
 preserveAspectRatio="xMidYMid meet">
<metadata>
Created by potrace 1.16, written by Peter Selinger 2001-2019
</metadata>
<g transform="translate(0.000000,56.000000) scale(0.100000,-0.100000)"
fill="#000000" stroke="none">
<path d="M217 560 c-16 0 -28 -9 -35 -25 -7 -14 -12 -38 -12 -53 0 -19 11 -36
35 -57 31 -26 35 -34 29 -62 -6 -29 -10 -32 -61 -40 -49 -7 -58 -12 -73 -41
-17 -31 -17 -35 1 -93 10 -33 23 -69 29 -79 6 -11 19 -20 29 -20 10 0 26 9 36
20 10 11 25 20 33 20 8 0 12 -6 9 -14 -3 -8 -1 -31 6 -51 7 -23 21 -42 38 -51
16 -8 51 -14 79 -14 27 0 50 5 50 10 0 6 -6 11 -12 12 -7 0 -25 2 -39 3 -14 1
-40 13 -58 26 -30 22 -32 28 -28 62 3 21 13 47 23 58 9 10 23 19 30 19 7 0 29
9 49 20 20 11 41 20 48 20 7 0 22 8 35 18 22 17 23 18 5 35 -18 15 -21 15 -48
-3 -17 -11 -37 -24 -45 -29 -8 -5 -28 -15 -45 -22 -16 -7 -43 -24 -58 -36 -15
-12 -44 -30 -63 -39 -19 -9 -36 -15 -38 -13 -2 2 -13 31 -24 63 -12 33 -19 63
-16 68 3 4 23 11 44 14 22 4 37 10 35 15 -3 4 3 13 14 19 13 7 22 7 26 0 3 -5
13 -10 21 -10 10 0 14 13 14 51 0 36 6 58 21 77 20 27 20 27 -1 44 -12 10 -27
18 -32 18 -5 0 -12 -9 -15 -20 -3 -11 -8 -20 -12 -20 -4 0 -16 6 -26 14 -18
13 -18 14 3 44 12 16 22 33 22 36 0 3 -11 6 -23 6z"/>
</g>
</svg>
