<?xml version="1.0" standalone="no"?>
<!DOCTYPE svg PUBLIC "-//W3C//DTD SVG 20010904//EN"
 "http://www.w3.org/TR/2001/REC-SVG-20010904/DTD/svg10.dtd">
<svg version="1.0" xmlns="http://www.w3.org/2000/svg"
 width="56.000000pt" height="56.000000pt" viewBox="0 0 56.000000 56.000000"
 preserveAspectRatio="xMidYMid meet">
<metadata>
Created by potrace 1.16, written by Peter Selinger 2001-2019
</metadata>
<g transform="translate(0.000000,56.000000) scale(0.100000,-0.100000)"
fill="#000000" stroke="none">
<path d="M115 560 c-25 0 -45 -2 -45 -5 0 -3 7 -17 16 -30 9 -14 22 -25 29
-25 7 0 20 11 29 25 9 13 16 27 16 30 0 3 -20 5 -45 5z"/>
<path d="M322 540 c-6 0 -14 -11 -18 -25 -3 -14 -1 -31 5 -39 7 -8 8 -17 3
-19 -4 -3 -28 -13 -53 -21 -24 -9 -58 -16 -76 -16 -18 0 -42 -4 -55 -9 -13 -5
-32 -13 -43 -17 -11 -4 -28 -6 -37 -5 -12 1 -18 -4 -18 -16 0 -11 5 -24 12
-31 7 -7 22 -12 35 -12 13 0 31 4 41 9 9 5 33 14 53 20 19 6 42 11 49 11 8 0
24 10 36 21 13 12 30 19 38 16 13 -5 16 -23 16 -82 0 -57 3 -75 14 -75 8 0 16
10 20 23 3 13 8 49 12 81 6 46 12 61 32 74 23 15 27 15 62 -6 36 -20 38 -20
54 -3 9 10 16 27 16 38 0 11 -7 26 -16 34 -12 10 -20 10 -34 2 -9 -7 -34 -15
-54 -18 -28 -6 -36 -4 -36 7 0 8 -10 24 -23 36 -13 12 -29 22 -35 22z"/>
<path d="M297 210 c-22 -1 -37 -8 -49 -25 -10 -13 -18 -30 -18 -37 0 -8 7 -24
16 -36 8 -12 26 -22 38 -22 17 0 25 -7 28 -23 3 -13 1 -34 -3 -45 -7 -19 -5
-22 21 -22 25 0 31 5 38 34 7 22 6 50 -2 82 -6 27 -17 59 -24 72 -9 16 -22 22
-45 22z"/>
</g>
</svg>
