<?xml version="1.0" standalone="no"?>
<!DOCTYPE svg PUBLIC "-//W3C//DTD SVG 20010904//EN"
 "http://www.w3.org/TR/2001/REC-SVG-20010904/DTD/svg10.dtd">
<svg version="1.0" xmlns="http://www.w3.org/2000/svg"
 width="56.000000pt" height="56.000000pt" viewBox="0 0 56.000000 56.000000"
 preserveAspectRatio="xMidYMid meet">
<metadata>
Created by potrace 1.16, written by Peter Selinger 2001-2019
</metadata>
<g transform="translate(0.000000,56.000000) scale(0.100000,-0.100000)"
fill="#000000" stroke="none">
<path d="M233 560 c-10 0 -32 -22 -50 -50 -18 -27 -33 -58 -33 -69 0 -12 12
-26 32 -35 17 -9 38 -16 48 -16 9 0 20 4 25 9 6 5 20 12 33 16 21 6 22 3 22
-40 0 -39 -5 -50 -30 -72 -27 -22 -30 -31 -30 -84 0 -55 2 -59 31 -74 23 -12
29 -21 23 -33 -4 -9 -9 -38 -12 -64 -3 -38 -1 -48 11 -48 9 0 17 13 21 35 3
19 9 52 12 72 3 21 10 48 17 61 6 13 11 40 11 60 0 20 -6 69 -13 109 -9 54
-10 77 -1 93 6 11 22 25 36 30 13 5 24 14 24 18 0 5 -9 21 -21 36 -11 14 -27
26 -34 26 -8 0 -19 -9 -25 -19 -5 -11 -10 -29 -10 -40 0 -11 -4 -23 -10 -26
-5 -3 -32 -9 -60 -12 -42 -5 -50 -3 -50 10 0 9 11 37 25 62 23 40 24 45 8 45z
m75 -302 c2 -18 -3 -37 -12 -47 -15 -14 -16 -12 -16 17 0 18 6 39 13 46 10 11
13 8 15 -16z"/>
</g>
</svg>
