<?xml version="1.0" standalone="no"?>
<!DOCTYPE svg PUBLIC "-//W3C//DTD SVG 20010904//EN"
 "http://www.w3.org/TR/2001/REC-SVG-20010904/DTD/svg10.dtd">
<svg version="1.0" xmlns="http://www.w3.org/2000/svg"
 width="56.000000pt" height="56.000000pt" viewBox="0 0 56.000000 56.000000"
 preserveAspectRatio="xMidYMid meet">
<metadata>
Created by potrace 1.16, written by Peter Selinger 2001-2019
</metadata>
<g transform="translate(0.000000,56.000000) scale(0.100000,-0.100000)"
fill="#000000" stroke="none">
<path d="M189 560 c-10 0 -19 -6 -19 -14 0 -8 5 -18 10 -21 6 -3 10 -37 10
-74 0 -58 -4 -74 -31 -117 -18 -27 -49 -82 -70 -123 -30 -57 -39 -86 -39 -123
0 -27 5 -58 10 -69 6 -10 17 -19 25 -19 8 0 27 19 42 43 16 23 34 53 40 67 6
14 21 48 33 75 12 28 36 77 52 110 17 33 43 86 60 118 16 31 36 57 44 57 12 0
11 -6 -5 -29 -12 -16 -21 -37 -21 -48 0 -10 14 -30 32 -44 30 -25 31 -29 20
-53 -7 -15 -12 -37 -12 -50 0 -12 12 -33 26 -47 14 -13 34 -38 45 -56 12 -19
29 -33 40 -33 14 0 19 7 19 29 0 19 -8 36 -23 48 -13 10 -32 31 -42 46 -16 25
-17 32 -4 69 13 40 13 40 -24 74 -20 19 -37 39 -37 44 0 5 18 22 40 36 34 22
38 29 29 46 -6 10 -21 24 -34 30 -19 8 -28 8 -41 -3 -9 -7 -38 -46 -65 -86
-27 -40 -49 -75 -49 -79 0 -3 -18 -45 -41 -92 -22 -48 -50 -105 -61 -127 -12
-22 -26 -50 -32 -62 -6 -13 -17 -23 -23 -23 -7 0 -13 9 -13 20 0 10 5 32 11
47 6 15 16 39 23 53 6 14 22 43 36 65 13 22 30 49 37 60 7 11 19 34 28 52 8
18 15 57 15 86 0 30 -5 68 -11 86 -7 20 -18 31 -30 31z"/>
<path d="M427 40 c-8 0 -17 -3 -20 -6 -4 -4 -4 -11 -1 -15 3 -5 12 -9 20 -9 8
0 14 7 14 15 0 8 -6 15 -13 15z"/>
</g>
</svg>
