<?xml version="1.0" standalone="no"?>
<!DOCTYPE svg PUBLIC "-//W3C//DTD SVG 20010904//EN"
 "http://www.w3.org/TR/2001/REC-SVG-20010904/DTD/svg10.dtd">
<svg version="1.0" xmlns="http://www.w3.org/2000/svg"
 width="56.000000pt" height="56.000000pt" viewBox="0 0 56.000000 56.000000"
 preserveAspectRatio="xMidYMid meet">
<metadata>
Created by potrace 1.16, written by Peter Selinger 2001-2019
</metadata>
<g transform="translate(0.000000,56.000000) scale(0.100000,-0.100000)"
fill="#000000" stroke="none">
<path d="M248 559 c-22 0 -41 -10 -58 -28 -14 -14 -51 -44 -82 -65 -35 -24
-58 -47 -58 -57 0 -11 10 -21 24 -25 13 -3 71 6 130 21 58 14 110 24 116 20 5
-3 10 -17 10 -31 0 -19 -5 -24 -26 -24 -14 0 -33 -4 -43 -10 -10 -5 -22 -25
-25 -43 -4 -21 -1 -47 8 -69 9 -20 22 -38 31 -42 9 -3 25 -1 36 4 17 10 19 7
19 -26 0 -21 -9 -49 -21 -66 -12 -16 -44 -43 -70 -60 -27 -16 -49 -36 -49 -44
0 -8 6 -14 13 -14 8 0 40 13 73 30 40 19 63 38 71 57 7 15 18 49 24 75 10 35
10 53 1 72 -7 17 -8 35 -1 58 5 18 9 53 9 78 0 25 4 51 9 59 6 9 28 15 57 15
26 1 49 6 51 12 2 7 -26 28 -63 48 -37 21 -73 35 -80 32 -8 -3 -14 -14 -14
-25 0 -11 -3 -26 -6 -35 -3 -9 -17 -16 -31 -16 -13 0 -43 -5 -67 -11 -24 -6
-56 -9 -72 -7 -28 3 -25 6 44 52 39 27 72 53 72 57 0 5 -15 9 -32 8z m42 -236
c4 -4 11 -18 15 -30 4 -17 2 -23 -9 -23 -8 0 -17 9 -21 20 -3 11 -3 25 0 31 4
6 11 7 15 2z"/>
<path d="M340 8 c-19 0 -27 -2 -17 -5 9 -2 25 -2 35 0 9 3 1 5 -18 5z"/>
</g>
</svg>
