<?xml version="1.0" standalone="no"?>
<!DOCTYPE svg PUBLIC "-//W3C//DTD SVG 20010904//EN"
 "http://www.w3.org/TR/2001/REC-SVG-20010904/DTD/svg10.dtd">
<svg version="1.0" xmlns="http://www.w3.org/2000/svg"
 width="56.000000pt" height="56.000000pt" viewBox="0 0 56.000000 56.000000"
 preserveAspectRatio="xMidYMid meet">
<metadata>
Created by potrace 1.16, written by Peter Selinger 2001-2019
</metadata>
<g transform="translate(0.000000,56.000000) scale(0.100000,-0.100000)"
fill="#000000" stroke="none">
<path d="M183 558 c-9 3 -13 -12 -13 -52 0 -44 4 -60 20 -73 15 -13 20 -30 20
-65 0 -27 -2 -48 -5 -48 -2 0 -21 9 -40 20 -20 11 -40 18 -46 15 -5 -4 -9 -25
-9 -47 0 -22 5 -70 11 -107 6 -36 13 -72 15 -79 3 -10 11 -8 33 7 16 12 32 21
35 21 3 0 6 -13 6 -28 0 -16 9 -37 20 -47 11 -10 20 -26 20 -37 0 -10 -4 -18
-10 -18 -5 0 -10 -4 -10 -10 0 -5 10 -10 23 -10 12 0 37 9 55 20 17 11 32 26
32 33 0 8 -8 20 -17 29 -10 8 -30 19 -45 26 -17 7 -28 19 -28 31 0 11 12 34
28 53 15 18 38 43 52 55 14 12 39 29 56 37 17 9 37 22 44 31 10 12 8 16 -15
25 -14 5 -31 10 -37 10 -6 0 -33 -23 -60 -51 -37 -39 -52 -49 -60 -41 -9 9 -9
34 0 98 9 69 17 93 42 127 30 41 30 41 10 59 -20 19 -21 19 -48 -13 -15 -18
-30 -37 -34 -43 -5 -7 -10 -7 -17 -1 -5 6 -11 23 -13 39 -2 16 -9 31 -15 34z
m-15 -252 c5 -3 17 -23 27 -45 9 -22 15 -47 12 -55 -4 -9 -11 -16 -17 -16 -6
0 -15 12 -20 26 -6 14 -10 41 -10 60 0 19 4 33 8 30z"/>
</g>
</svg>
