<?xml version="1.0" standalone="no"?>
<!DOCTYPE svg PUBLIC "-//W3C//DTD SVG 20010904//EN"
 "http://www.w3.org/TR/2001/REC-SVG-20010904/DTD/svg10.dtd">
<svg version="1.0" xmlns="http://www.w3.org/2000/svg"
 width="56.000000pt" height="56.000000pt" viewBox="0 0 56.000000 56.000000"
 preserveAspectRatio="xMidYMid meet">
<metadata>
Created by potrace 1.16, written by Peter Selinger 2001-2019
</metadata>
<g transform="translate(0.000000,56.000000) scale(0.100000,-0.100000)"
fill="#000000" stroke="none">
<path d="M295 560 c-14 0 -25 -3 -25 -8 0 -4 -23 -25 -51 -47 -28 -22 -56 -45
-63 -50 -6 -6 -28 -19 -49 -28 -20 -10 -46 -28 -57 -39 -11 -12 -20 -34 -20
-50 0 -23 4 -28 25 -28 13 0 34 4 47 9 13 5 60 24 106 41 45 18 85 30 88 27 3
-3 8 -23 11 -45 4 -30 1 -40 -11 -45 -8 -3 -18 -2 -21 3 -4 6 -17 10 -30 10
-13 0 -27 -5 -31 -12 -4 -6 1 -17 11 -24 16 -12 16 -14 1 -29 -9 -9 -16 -19
-16 -21 0 -3 5 -15 11 -26 6 -11 26 -41 45 -65 19 -25 34 -52 34 -62 0 -9 -7
-26 -15 -37 -8 -10 -15 -22 -15 -26 0 -5 11 -8 24 -8 16 0 32 11 45 29 12 16
21 38 21 48 0 10 5 24 10 29 7 7 7 20 0 40 -6 17 -9 84 -8 150 3 119 3 119 68
119 36 0 71 4 78 8 6 5 12 17 12 27 0 11 -9 24 -19 30 -11 5 -42 10 -69 10
-44 0 -53 4 -81 35 -20 23 -39 35 -56 35z m-7 -50 c8 0 12 -15 12 -44 0 -43 0
-43 -47 -56 -27 -6 -57 -15 -68 -20 -11 -4 -35 -14 -53 -20 -18 -7 -35 -10
-38 -7 -3 3 10 17 28 31 18 14 60 46 93 70 33 25 66 45 73 46z m88 -30 c8 0
14 -4 14 -9 0 -6 -4 -13 -10 -16 -5 -3 -15 -3 -20 0 -6 4 -8 11 -5 16 4 5 13
9 21 9z m-119 -220 c3 0 15 -7 25 -17 10 -9 18 -24 18 -33 0 -9 -3 -20 -7 -23
-3 -4 -15 5 -25 20 -10 16 -18 34 -18 41 0 6 3 12 7 12z"/>
</g>
</svg>
