<?xml version="1.0" standalone="no"?>
<!DOCTYPE svg PUBLIC "-//W3C//DTD SVG 20010904//EN"
 "http://www.w3.org/TR/2001/REC-SVG-20010904/DTD/svg10.dtd">
<svg version="1.0" xmlns="http://www.w3.org/2000/svg"
 width="56.000000pt" height="56.000000pt" viewBox="0 0 56.000000 56.000000"
 preserveAspectRatio="xMidYMid meet">
<metadata>
Created by potrace 1.16, written by Peter Selinger 2001-2019
</metadata>
<g transform="translate(0.000000,56.000000) scale(0.100000,-0.100000)"
fill="#000000" stroke="none">
<path d="M298 560 c-10 0 -27 -13 -36 -29 -9 -17 -26 -34 -38 -39 -13 -7 -27
-6 -40 1 -10 6 -27 19 -38 28 -10 10 -23 16 -28 13 -4 -3 -8 -11 -8 -18 0 -7
16 -30 35 -51 27 -28 41 -36 60 -32 24 4 25 2 25 -44 0 -39 -3 -47 -15 -43 -8
4 -15 10 -15 16 0 5 -10 8 -22 6 -17 -2 -24 -12 -29 -38 -4 -19 -14 -61 -23
-93 -9 -32 -16 -69 -16 -82 0 -19 5 -25 21 -25 11 0 41 14 65 31 25 17 48 28
51 25 4 -3 -4 -26 -17 -51 -13 -25 -29 -50 -37 -56 -7 -6 -13 -19 -13 -29 0
-10 6 -23 13 -29 11 -8 17 -7 29 7 8 9 19 29 26 44 8 19 19 28 35 28 12 0 33
-7 45 -16 12 -8 22 -21 22 -29 0 -7 13 -23 29 -34 16 -12 36 -21 45 -21 12 0
16 10 16 39 0 32 -5 44 -27 59 -16 11 -50 23 -78 26 -27 4 -51 9 -54 11 -2 3
2 17 8 32 7 15 22 40 35 54 13 15 32 30 44 33 11 4 32 16 46 27 14 11 26 29
26 40 0 12 -10 23 -26 29 -14 6 -30 10 -35 10 -5 0 -24 -21 -42 -46 -19 -27
-50 -54 -77 -68 -25 -12 -55 -29 -67 -36 -12 -8 -25 -11 -29 -8 -3 4 -1 30 6
57 7 28 18 51 25 51 7 0 20 -10 29 -23 15 -22 16 -22 31 -3 10 14 15 42 15 90
0 70 1 72 37 102 36 30 37 33 24 58 -8 14 -23 26 -33 26z"/>
</g>
</svg>
