<?xml version="1.0" standalone="no"?>
<!DOCTYPE svg PUBLIC "-//W3C//DTD SVG 20010904//EN"
 "http://www.w3.org/TR/2001/REC-SVG-20010904/DTD/svg10.dtd">
<svg version="1.0" xmlns="http://www.w3.org/2000/svg"
 width="56.000000pt" height="56.000000pt" viewBox="0 0 56.000000 56.000000"
 preserveAspectRatio="xMidYMid meet">
<metadata>
Created by potrace 1.16, written by Peter Selinger 2001-2019
</metadata>
<g transform="translate(0.000000,56.000000) scale(0.100000,-0.100000)"
fill="#000000" stroke="none">
<path d="M259 541 c-14 7 -19 4 -24 -11 -5 -15 -14 -20 -33 -18 -18 2 -27 -2
-30 -14 -2 -10 10 -30 29 -47 20 -19 30 -35 26 -45 -4 -11 -17 -15 -38 -14
-27 3 -33 -1 -39 -23 -4 -14 -1 -59 6 -100 9 -47 22 -81 36 -96 12 -13 28 -40
35 -61 8 -20 17 -45 20 -54 3 -11 -5 -22 -29 -35 -33 -18 -33 -18 17 -21 30
-2 66 4 88 13 20 8 37 19 37 24 0 4 -18 24 -40 45 -22 20 -40 41 -40 47 0 5 6
25 14 43 8 19 34 47 60 65 25 18 50 40 55 50 6 10 7 21 4 25 -3 3 -16 6 -28 6
-12 0 -32 -12 -46 -26 -13 -14 -43 -35 -66 -46 -23 -11 -47 -17 -53 -13 -5 3
-10 20 -10 37 0 26 3 30 20 25 14 -4 25 2 35 16 7 12 16 40 20 62 4 22 12 50
18 63 9 19 7 30 -8 58 -10 20 -27 40 -36 45z"/>
</g>
</svg>
