<?xml version="1.0" standalone="no"?>
<!DOCTYPE svg PUBLIC "-//W3C//DTD SVG 20010904//EN"
 "http://www.w3.org/TR/2001/REC-SVG-20010904/DTD/svg10.dtd">
<svg version="1.0" xmlns="http://www.w3.org/2000/svg"
 width="56.000000pt" height="56.000000pt" viewBox="0 0 56.000000 56.000000"
 preserveAspectRatio="xMidYMid meet">
<metadata>
Created by potrace 1.16, written by Peter Selinger 2001-2019
</metadata>
<g transform="translate(0.000000,56.000000) scale(0.100000,-0.100000)"
fill="#000000" stroke="none">
<path d="M238 538 c-22 2 -38 -1 -38 -7 0 -6 9 -25 20 -43 11 -18 20 -36 20
-40 0 -5 -14 -8 -30 -8 -23 0 -33 6 -40 25 -5 14 -14 25 -20 25 -6 0 -13 -7
-17 -16 -3 -10 -1 -31 6 -48 7 -17 13 -39 13 -50 -1 -16 5 -18 38 -13 25 3 43
0 50 -8 6 -7 7 -21 4 -31 -4 -11 -14 -27 -22 -37 -14 -15 -13 -19 6 -40 12
-13 22 -29 22 -36 0 -6 -19 -20 -42 -31 -23 -10 -46 -16 -50 -14 -4 3 -8 18
-8 34 0 19 12 43 32 65 26 30 29 38 17 46 -8 5 -21 8 -29 6 -8 -1 -28 -25 -43
-52 -23 -42 -27 -59 -24 -107 2 -32 6 -61 10 -64 4 -4 25 -1 48 6 34 12 42 12
49 0 5 -8 7 -18 4 -22 -3 -4 2 -20 10 -36 8 -16 23 -32 31 -36 9 -3 55 -6 101
-6 67 0 84 3 84 15 0 8 -8 19 -18 24 -10 5 -43 9 -73 8 -30 0 -60 2 -67 7 -6
4 -12 20 -12 35 0 15 8 35 18 43 9 8 29 18 44 22 14 3 47 15 72 26 26 11 46
26 46 34 0 9 -11 23 -25 32 -18 12 -35 14 -62 9 -21 -4 -44 -12 -51 -17 -8 -7
-16 -7 -21 -2 -4 5 -5 37 -2 71 4 34 10 65 13 69 4 3 22 8 40 10 18 2 39 6 46
9 6 2 12 13 12 23 0 11 -7 25 -15 32 -9 8 -29 10 -49 7 -21 -3 -39 -1 -44 6
-6 7 -12 26 -14 42 -3 27 -7 30 -40 33z"/>
</g>
</svg>
