<?xml version="1.0" standalone="no"?>
<!DOCTYPE svg PUBLIC "-//W3C//DTD SVG 20010904//EN"
 "http://www.w3.org/TR/2001/REC-SVG-20010904/DTD/svg10.dtd">
<svg version="1.0" xmlns="http://www.w3.org/2000/svg"
 width="56.000000pt" height="56.000000pt" viewBox="0 0 56.000000 56.000000"
 preserveAspectRatio="xMidYMid meet">
<metadata>
Created by potrace 1.16, written by Peter Selinger 2001-2019
</metadata>
<g transform="translate(0.000000,56.000000) scale(0.100000,-0.100000)"
fill="#000000" stroke="none">
<path d="M201 560 c-19 0 -32 -9 -44 -29 -9 -16 -17 -40 -17 -53 0 -13 -16
-47 -35 -75 -21 -32 -43 -84 -57 -135 -19 -74 -20 -89 -9 -152 6 -39 18 -81
27 -93 11 -18 24 -23 55 -23 22 0 57 9 79 20 25 13 54 41 78 78 21 31 42 71
46 87 4 17 11 50 16 75 5 25 13 65 18 90 8 43 9 44 19 20 6 -14 16 -43 23 -65
6 -22 18 -56 26 -75 8 -19 22 -48 31 -65 9 -16 21 -33 27 -37 6 -4 17 -8 24
-8 6 0 12 12 12 27 0 14 -16 49 -35 77 -19 28 -47 87 -63 131 -25 70 -32 80
-55 83 -22 3 -27 -1 -32 -25 -3 -15 -10 -44 -15 -64 -6 -20 -10 -50 -10 -67 0
-17 -4 -34 -10 -37 -5 -3 -10 -16 -10 -27 0 -11 -10 -36 -21 -55 -12 -19 -32
-45 -44 -58 -13 -12 -40 -32 -60 -45 -33 -21 -38 -21 -52 -7 -9 9 -19 33 -22
54 -4 21 -3 69 1 106 5 41 19 88 35 119 15 28 43 73 64 101 29 38 38 59 37 88
0 35 -3 39 -27 39z"/>
<path d="M508 46 c-3 2 -12 -4 -21 -14 -10 -10 -17 -22 -17 -25 0 -4 6 -7 14
-7 8 0 18 9 21 21 4 11 5 22 3 25z"/>
</g>
</svg>
