<?xml version="1.0" standalone="no"?>
<!DOCTYPE svg PUBLIC "-//W3C//DTD SVG 20010904//EN"
 "http://www.w3.org/TR/2001/REC-SVG-20010904/DTD/svg10.dtd">
<svg version="1.0" xmlns="http://www.w3.org/2000/svg"
 width="56.000000pt" height="56.000000pt" viewBox="0 0 56.000000 56.000000"
 preserveAspectRatio="xMidYMid meet">
<metadata>
Created by potrace 1.16, written by Peter Selinger 2001-2019
</metadata>
<g transform="translate(0.000000,56.000000) scale(0.100000,-0.100000)"
fill="#000000" stroke="none">
<path d="M112 524 c-17 9 -34 11 -42 6 -7 -4 -11 -14 -8 -22 3 -7 18 -20 32
-28 24 -12 28 -12 36 0 6 8 10 18 10 22 0 4 -13 14 -28 22z"/>
<path d="M283 529 c-16 -1 -38 -4 -51 -6 -12 -2 -37 -19 -55 -36 -20 -19 -40
-53 -50 -84 -9 -28 -27 -68 -39 -88 -13 -20 -38 -54 -55 -74 -32 -37 -32 -39
-20 -82 10 -33 18 -45 35 -47 12 -2 22 -9 22 -16 0 -8 18 -25 40 -40 23 -15
54 -26 74 -26 26 0 40 7 55 28 12 15 32 39 45 53 14 16 25 45 29 75 4 27 14
75 24 107 9 32 23 57 30 57 7 0 13 -9 13 -19 0 -11 4 -22 9 -25 5 -3 16 -28
25 -55 9 -27 16 -59 16 -71 0 -14 -22 -43 -60 -77 -33 -31 -60 -60 -60 -64 0
-5 15 -9 33 -9 17 0 43 10 57 21 14 11 43 32 65 46 22 14 46 34 53 45 7 10 21
18 30 19 11 0 12 3 4 6 -6 2 -28 29 -48 59 -20 30 -40 54 -46 54 -6 0 -7 7 -4
16 4 9 -1 25 -9 34 -9 10 -15 21 -14 26 1 5 1 17 0 27 0 10 -18 34 -38 52 -21
19 -46 35 -55 35 -10 0 -18 -1 -19 -2 0 -2 -3 -32 -5 -67 -3 -36 -14 -92 -24
-125 -11 -32 -20 -72 -20 -87 0 -19 -7 -32 -22 -40 -12 -6 -31 -20 -42 -30
-11 -11 -28 -19 -38 -19 -10 0 -34 10 -53 23 -21 13 -35 30 -35 43 0 12 8 32
19 45 10 13 24 40 31 61 12 33 16 36 44 32 17 -3 37 0 45 5 10 6 14 27 13 68
-1 32 -3 67 -4 77 -2 13 6 22 27 29 17 5 36 14 43 20 6 5 12 13 12 18 0 5 -12
8 -27 8z"/>
</g>
</svg>
