<?xml version="1.0" standalone="no"?>
<!DOCTYPE svg PUBLIC "-//W3C//DTD SVG 20010904//EN"
 "http://www.w3.org/TR/2001/REC-SVG-20010904/DTD/svg10.dtd">
<svg version="1.0" xmlns="http://www.w3.org/2000/svg"
 width="56.000000pt" height="56.000000pt" viewBox="0 0 56.000000 56.000000"
 preserveAspectRatio="xMidYMid meet">
<metadata>
Created by potrace 1.16, written by Peter Selinger 2001-2019
</metadata>
<g transform="translate(0.000000,56.000000) scale(0.100000,-0.100000)"
fill="#000000" stroke="none">
<path d="M226 560 c-15 0 -38 -16 -66 -46 -33 -36 -41 -51 -37 -71 4 -20 -5
-36 -37 -72 -22 -25 -48 -54 -57 -64 -9 -10 -19 -39 -23 -64 -3 -25 -6 -62 -6
-82 1 -20 9 -50 18 -68 9 -17 37 -46 61 -63 38 -28 49 -31 95 -27 28 2 68 11
89 19 21 8 44 26 50 39 7 13 23 56 35 94 12 39 28 113 35 165 7 52 16 95 21
95 4 0 16 -25 27 -55 11 -30 24 -68 29 -85 6 -16 19 -50 31 -74 12 -25 29 -51
38 -58 9 -7 19 -13 24 -13 4 0 7 14 7 30 0 17 -4 30 -9 30 -4 0 -20 35 -34 78
-14 42 -28 104 -32 137 -4 33 -9 68 -12 78 -4 15 -14 17 -56 15 -52 -3 -52 -3
-59 -63 -4 -33 -14 -94 -23 -135 -9 -41 -20 -94 -25 -117 -5 -24 -16 -56 -24
-71 -8 -16 -26 -36 -39 -45 -13 -8 -41 -15 -63 -16 -21 0 -52 5 -67 11 -17 6
-36 27 -49 51 -16 33 -19 51 -13 101 3 34 16 79 28 101 17 30 29 40 48 40 13
0 44 15 67 33 35 28 40 37 32 53 -6 10 -17 19 -25 19 -8 0 -15 7 -15 15 0 8
14 27 30 42 17 14 30 30 30 35 0 4 -11 8 -24 8z"/>
</g>
</svg>
