<?xml version="1.0" standalone="no"?>
<!DOCTYPE svg PUBLIC "-//W3C//DTD SVG 20010904//EN"
 "http://www.w3.org/TR/2001/REC-SVG-20010904/DTD/svg10.dtd">
<svg version="1.0" xmlns="http://www.w3.org/2000/svg"
 width="56.000000pt" height="56.000000pt" viewBox="0 0 56.000000 56.000000"
 preserveAspectRatio="xMidYMid meet">
<metadata>
Created by potrace 1.16, written by Peter Selinger 2001-2019
</metadata>
<g transform="translate(0.000000,56.000000) scale(0.100000,-0.100000)"
fill="#000000" stroke="none">
<path d="M159 509 c-8 -1 -21 -3 -29 -5 -9 -3 -21 -14 -29 -26 -10 -17 -10
-25 0 -44 11 -22 9 -27 -29 -60 -23 -20 -42 -44 -42 -53 0 -9 -5 -22 -11 -28
-5 -5 -13 -34 -16 -64 -4 -44 -1 -62 18 -99 13 -25 32 -52 44 -60 11 -8 43
-18 70 -21 28 -3 64 -2 82 3 18 5 46 20 63 34 17 15 42 50 55 79 21 44 24 61
19 112 -4 37 -3 63 4 66 5 4 15 -8 22 -26 7 -17 28 -69 48 -115 19 -45 41 -87
48 -93 7 -5 28 -13 48 -16 33 -5 36 -4 36 18 0 15 -11 31 -30 44 -16 11 -30
24 -30 28 0 5 -9 21 -19 36 -11 15 -31 60 -44 99 -13 39 -31 82 -41 96 -10 15
-26 26 -39 26 -17 0 -26 -9 -35 -33 -7 -18 -12 -65 -13 -103 0 -38 -5 -83 -12
-101 -7 -17 -26 -47 -44 -67 -21 -23 -41 -36 -57 -36 -14 0 -28 -4 -31 -10 -3
-5 -13 -10 -21 -10 -8 0 -30 14 -49 32 -21 18 -40 48 -46 71 -8 30 -8 52 1 83
7 24 21 51 31 60 11 9 19 23 19 29 0 7 12 17 28 23 15 6 36 12 47 14 11 2 21
11 23 20 2 10 -5 27 -16 38 -12 13 -18 30 -15 41 4 12 0 19 -8 18z"/>
</g>
</svg>
