<?xml version="1.0" standalone="no"?>
<!DOCTYPE svg PUBLIC "-//W3C//DTD SVG 20010904//EN"
 "http://www.w3.org/TR/2001/REC-SVG-20010904/DTD/svg10.dtd">
<svg version="1.0" xmlns="http://www.w3.org/2000/svg"
 width="56.000000pt" height="56.000000pt" viewBox="0 0 56.000000 56.000000"
 preserveAspectRatio="xMidYMid meet">
<metadata>
Created by potrace 1.16, written by Peter Selinger 2001-2019
</metadata>
<g transform="translate(0.000000,56.000000) scale(0.100000,-0.100000)"
fill="#000000" stroke="none">
<path d="M165 530 c-16 0 -42 -16 -70 -41 -29 -27 -45 -50 -45 -65 0 -13 5
-24 10 -24 6 0 10 -7 10 -16 0 -8 -16 -49 -36 -90 -30 -62 -35 -82 -29 -112 4
-20 18 -55 31 -79 17 -28 35 -45 57 -52 18 -5 51 -9 73 -8 33 2 50 10 85 43
24 22 53 58 64 80 14 27 21 68 25 134 5 95 5 95 53 0 27 -52 64 -114 84 -137
23 -29 42 -43 59 -43 17 0 24 5 24 20 0 11 -12 33 -26 49 -14 16 -44 62 -68
103 -23 41 -48 89 -56 107 -7 17 -22 39 -34 49 -12 9 -25 25 -29 34 -3 10 -18
20 -32 24 -15 4 -31 2 -37 -4 -7 -7 -5 -26 7 -62 10 -31 15 -68 12 -90 -3 -21
-17 -69 -32 -107 -15 -37 -41 -83 -58 -100 -24 -26 -39 -33 -67 -33 -25 0 -43
7 -58 23 -16 17 -22 36 -22 70 0 43 5 52 55 107 32 35 55 69 55 82 0 12 -10
32 -22 45 -22 24 -22 24 10 49 18 14 32 30 32 35 0 5 -11 9 -25 9z"/>
</g>
</svg>
