<?xml version="1.0" standalone="no"?>
<!DOCTYPE svg PUBLIC "-//W3C//DTD SVG 20010904//EN"
 "http://www.w3.org/TR/2001/REC-SVG-20010904/DTD/svg10.dtd">
<svg version="1.0" xmlns="http://www.w3.org/2000/svg"
 width="56.000000pt" height="56.000000pt" viewBox="0 0 56.000000 56.000000"
 preserveAspectRatio="xMidYMid meet">
<metadata>
Created by potrace 1.16, written by Peter Selinger 2001-2019
</metadata>
<g transform="translate(0.000000,56.000000) scale(0.100000,-0.100000)"
fill="#000000" stroke="none">
<path d="M216 560 c-31 0 -46 -4 -46 -13 0 -7 -14 -26 -31 -43 -22 -21 -28
-34 -24 -49 4 -11 8 -29 9 -40 2 -14 10 -20 27 -20 22 0 24 4 27 54 2 29 9 59
16 66 7 7 23 15 36 17 13 1 25 9 28 16 2 8 -10 12 -42 12z"/>
<path d="M423 440 c-17 0 -27 -10 -38 -36 -8 -20 -15 -45 -15 -55 0 -11 6 -19
14 -19 8 0 16 5 18 12 2 6 12 9 21 5 9 -3 23 -23 32 -43 8 -20 15 -49 15 -64
0 -15 7 -33 15 -40 8 -7 15 -27 15 -45 0 -18 6 -35 13 -38 7 -3 21 1 30 8 9 7
17 24 17 39 0 14 -4 26 -8 26 -5 0 -14 19 -21 43 -7 23 -19 54 -27 68 -7 14
-16 46 -20 70 -3 24 -13 50 -22 57 -9 6 -26 12 -39 12z"/>
<path d="M54 327 c-6 2 -13 0 -17 -3 -4 -4 -7 -21 -7 -39 0 -17 -5 -36 -10
-41 -6 -6 -12 -40 -13 -75 -1 -37 4 -78 12 -97 8 -18 28 -40 45 -49 17 -9 49
-18 70 -19 22 -2 57 1 78 6 23 7 47 23 63 44 16 21 25 46 25 69 0 21 -5 37
-10 37 -6 0 -17 -17 -25 -37 -9 -22 -30 -48 -50 -61 -21 -13 -50 -22 -75 -22
-35 0 -43 4 -64 38 -14 20 -28 54 -31 74 -5 28 -2 48 13 77 15 28 19 47 13 67
-4 15 -12 29 -17 31z"/>
<path d="M371 314 c-5 4 -15 -2 -20 -13 -6 -11 -11 -25 -11 -32 0 -7 -7 -20
-16 -30 -9 -10 -14 -25 -11 -34 4 -8 15 -15 26 -15 10 0 21 6 24 14 3 7 8 34
12 59 4 27 3 47 -4 51z"/>
<path d="M325 170 c-8 0 -15 -7 -15 -15 0 -8 7 -15 15 -15 8 0 15 7 15 15 0 8
-7 15 -15 15z"/>
</g>
</svg>
