<?xml version="1.0" standalone="no"?>
<!DOCTYPE svg PUBLIC "-//W3C//DTD SVG 20010904//EN"
 "http://www.w3.org/TR/2001/REC-SVG-20010904/DTD/svg10.dtd">
<svg version="1.0" xmlns="http://www.w3.org/2000/svg"
 width="56.000000pt" height="56.000000pt" viewBox="0 0 56.000000 56.000000"
 preserveAspectRatio="xMidYMid meet">
<metadata>
Created by potrace 1.16, written by Peter Selinger 2001-2019
</metadata>
<g transform="translate(0.000000,56.000000) scale(0.100000,-0.100000)"
fill="#000000" stroke="none">
<path d="M248 560 c-29 -1 -57 -5 -63 -11 -5 -5 -21 -18 -34 -29 -13 -11 -28
-20 -33 -20 -4 0 -8 -11 -8 -25 0 -14 4 -25 10 -25 5 0 14 -9 20 -21 9 -16 8
-24 -4 -38 -9 -10 -16 -23 -16 -29 0 -6 -16 -41 -35 -79 -27 -52 -35 -80 -35
-121 0 -40 6 -62 26 -92 14 -21 37 -46 50 -55 16 -10 48 -15 100 -15 43 0 100
7 128 15 28 8 68 17 88 20 24 4 42 14 49 26 8 15 7 24 -2 35 -6 8 -17 14 -24
14 -7 0 -57 -22 -111 -50 -54 -27 -106 -50 -116 -50 -10 0 -18 2 -18 5 0 3 9
23 20 45 11 22 20 50 20 62 0 13 6 32 14 43 7 11 16 37 20 58 4 21 16 53 27
72 11 19 22 50 24 70 2 19 10 47 19 60 9 13 16 33 16 45 0 11 5 20 10 20 6 0
10 -6 9 -12 -1 -7 -1 -23 0 -35 0 -13 7 -23 15 -23 7 0 16 12 19 26 3 16 0 28
-9 31 -11 4 -12 9 -3 19 6 8 9 21 5 29 -3 8 -15 15 -26 15 -15 0 -27 -14 -44
-52 -14 -29 -32 -71 -41 -93 -10 -22 -33 -73 -51 -113 -19 -40 -44 -96 -55
-125 -12 -28 -26 -67 -31 -84 -5 -18 -14 -33 -21 -33 -7 0 -21 12 -31 27 -12
16 -19 42 -18 68 0 23 9 71 20 107 12 37 37 88 57 115 20 26 43 53 51 59 8 6
12 18 8 27 -3 8 -19 21 -35 28 -28 11 -29 13 -15 28 9 8 35 20 58 26 23 5 43
16 46 23 3 8 -11 12 -50 12z"/>
<path d="M423 400 c-8 0 -13 -13 -13 -36 0 -20 5 -55 11 -78 6 -22 15 -50 20
-61 4 -11 9 -31 11 -45 2 -17 10 -26 26 -28 17 -3 22 2 22 18 0 12 -9 49 -20
83 -10 34 -25 81 -31 105 -7 23 -18 42 -26 42z"/>
</g>
</svg>
