<?xml version="1.0" standalone="no"?>
<!DOCTYPE svg PUBLIC "-//W3C//DTD SVG 20010904//EN"
 "http://www.w3.org/TR/2001/REC-SVG-20010904/DTD/svg10.dtd">
<svg version="1.0" xmlns="http://www.w3.org/2000/svg"
 width="56.000000pt" height="56.000000pt" viewBox="0 0 56.000000 56.000000"
 preserveAspectRatio="xMidYMid meet">
<metadata>
Created by potrace 1.16, written by Peter Selinger 2001-2019
</metadata>
<g transform="translate(0.000000,56.000000) scale(0.100000,-0.100000)"
fill="#000000" stroke="none">
<path d="M191 560 c-12 0 -21 -4 -21 -10 0 -5 -7 -10 -15 -10 -11 0 -13 -9 -9
-43 5 -32 1 -51 -14 -79 -11 -20 -28 -58 -37 -84 -10 -27 -23 -78 -31 -114 -8
-35 -11 -74 -8 -85 4 -11 14 -38 24 -60 10 -22 27 -49 39 -59 14 -13 28 -16
48 -11 15 3 35 11 43 18 8 7 23 24 32 39 10 15 26 42 36 60 10 18 24 53 31 78
7 25 17 58 22 74 5 16 9 40 9 52 0 14 6 24 14 24 8 0 19 -20 26 -47 6 -27 16
-61 22 -78 5 -16 14 -39 19 -50 4 -11 15 -40 22 -65 8 -25 22 -46 30 -48 8 -2
18 6 22 17 3 11 -3 46 -13 78 -10 32 -30 98 -43 146 -16 59 -30 92 -42 99 -11
5 -29 7 -41 4 -16 -4 -26 -18 -35 -48 -8 -24 -17 -52 -21 -63 -4 -11 -18 -52
-30 -90 -12 -39 -34 -88 -49 -110 -15 -22 -32 -40 -39 -39 -7 1 -23 2 -36 3
-16 1 -28 11 -36 32 -11 25 -11 49 -1 122 6 50 15 96 19 102 4 5 14 28 21 50
7 22 31 63 52 91 22 28 39 56 39 63 0 7 -6 19 -14 27 -8 8 -24 14 -35 14z"/>
</g>
</svg>
