<?xml version="1.0" standalone="no"?>
<!DOCTYPE svg PUBLIC "-//W3C//DTD SVG 20010904//EN"
 "http://www.w3.org/TR/2001/REC-SVG-20010904/DTD/svg10.dtd">
<svg version="1.0" xmlns="http://www.w3.org/2000/svg"
 width="56.000000pt" height="56.000000pt" viewBox="0 0 56.000000 56.000000"
 preserveAspectRatio="xMidYMid meet">
<metadata>
Created by potrace 1.16, written by Peter Selinger 2001-2019
</metadata>
<g transform="translate(0.000000,56.000000) scale(0.100000,-0.100000)"
fill="#000000" stroke="none">
<path d="M207 520 c-7 0 -28 -16 -47 -35 -22 -23 -40 -33 -51 -30 -10 3 -30 3
-45 -1 -27 -7 -27 -7 -3 -19 12 -7 29 -11 36 -8 7 3 13 -2 13 -11 0 -8 -9 -39
-19 -68 -10 -29 -22 -70 -25 -92 -3 -21 0 -62 6 -90 9 -42 21 -61 68 -109 40
-39 66 -57 83 -57 14 0 39 12 56 26 17 14 37 40 45 57 8 18 17 41 21 52 4 11
11 36 17 55 5 19 13 62 18 95 6 33 13 79 16 103 5 30 11 42 24 42 11 0 26 -21
44 -61 28 -60 28 -60 6 -84 -20 -21 -21 -25 -7 -31 8 -3 26 0 39 7 13 6 31 20
40 30 10 9 14 19 10 21 -4 2 -23 34 -42 71 -19 37 -45 74 -58 83 -21 14 -25
13 -51 -5 -15 -11 -33 -37 -39 -59 -7 -22 -12 -47 -12 -57 0 -10 -4 -32 -9
-49 -5 -17 -15 -51 -22 -76 -6 -25 -17 -61 -22 -80 -6 -19 -21 -45 -34 -58
-19 -18 -32 -22 -65 -19 -28 2 -47 11 -60 26 -15 19 -18 41 -18 130 0 99 2
111 30 166 17 33 40 67 50 77 11 9 20 26 20 37 0 12 -6 21 -13 21z"/>
<path d="M527 86 c-9 3 -16 -3 -20 -18 -3 -13 -9 -33 -12 -45 -6 -19 -3 -23
13 -23 11 0 27 11 36 25 9 13 16 31 16 40 0 8 -4 15 -9 15 -5 0 -16 3 -24 6z"/>
</g>
</svg>
