<?xml version="1.0" standalone="no"?>
<!DOCTYPE svg PUBLIC "-//W3C//DTD SVG 20010904//EN"
 "http://www.w3.org/TR/2001/REC-SVG-20010904/DTD/svg10.dtd">
<svg version="1.0" xmlns="http://www.w3.org/2000/svg"
 width="56.000000pt" height="56.000000pt" viewBox="0 0 56.000000 56.000000"
 preserveAspectRatio="xMidYMid meet">
<metadata>
Created by potrace 1.16, written by Peter Selinger 2001-2019
</metadata>
<g transform="translate(0.000000,56.000000) scale(0.100000,-0.100000)"
fill="#000000" stroke="none">
<path d="M48 499 c-20 0 -39 -3 -43 -8 -3 -6 3 -15 14 -20 11 -6 31 -11 45
-11 14 0 27 -4 30 -9 3 -5 -15 -48 -41 -97 -45 -86 -47 -92 -48 -175 0 -72 3
-91 19 -108 15 -17 31 -21 79 -21 59 0 59 0 121 63 43 44 77 93 112 160 47 92
51 96 70 83 13 -9 26 -37 34 -73 8 -32 29 -87 48 -123 19 -36 38 -65 43 -64 5
1 14 2 19 3 6 0 10 21 10 46 0 25 -5 45 -10 45 -6 0 -19 19 -29 43 -10 23 -32
72 -49 108 -23 51 -37 69 -62 79 -26 11 -33 11 -45 -1 -7 -8 -29 -45 -49 -84
-19 -38 -61 -99 -92 -135 -36 -41 -70 -69 -93 -77 -20 -7 -41 -13 -48 -13 -6
0 -19 14 -27 32 -9 17 -16 48 -16 70 0 21 6 48 13 61 6 12 28 40 47 63 19 23
42 54 50 69 13 25 13 28 -9 44 -19 15 -21 20 -10 27 10 6 6 10 -16 15 -16 4
-47 7 -67 8z"/>
</g>
</svg>
