<?xml version="1.0" standalone="no"?>
<!DOCTYPE svg PUBLIC "-//W3C//DTD SVG 20010904//EN"
 "http://www.w3.org/TR/2001/REC-SVG-20010904/DTD/svg10.dtd">
<svg version="1.0" xmlns="http://www.w3.org/2000/svg"
 width="56.000000pt" height="56.000000pt" viewBox="0 0 56.000000 56.000000"
 preserveAspectRatio="xMidYMid meet">
<metadata>
Created by potrace 1.16, written by Peter Selinger 2001-2019
</metadata>
<g transform="translate(0.000000,56.000000) scale(0.100000,-0.100000)"
fill="#000000" stroke="none">
<path d="M120 505 c-33 2 -62 0 -64 -4 -3 -4 -1 -13 5 -21 5 -8 9 -29 9 -47 0
-17 -5 -35 -11 -39 -6 -3 -22 -31 -35 -61 -18 -41 -24 -71 -24 -128 0 -65 3
-77 27 -107 15 -18 32 -36 38 -40 5 -4 23 -8 38 -8 15 0 46 9 69 21 23 12 62
42 87 68 30 30 53 67 65 102 10 30 28 69 39 88 20 33 20 33 33 -5 8 -22 14
-48 14 -60 0 -11 17 -47 38 -80 21 -32 46 -65 55 -72 9 -8 25 -11 37 -7 13 4
20 15 20 33 0 19 -12 37 -40 61 -22 18 -44 48 -49 65 -6 17 -19 58 -30 90 -12
33 -21 71 -21 85 0 14 -7 34 -15 44 -7 10 -21 17 -31 15 -11 -2 -25 -25 -38
-65 -12 -34 -27 -68 -33 -75 -7 -6 -13 -19 -13 -28 0 -9 -4 -20 -8 -26 -5 -5
-15 -25 -22 -44 -8 -19 -34 -56 -59 -81 -26 -27 -57 -48 -71 -49 -14 -2 -37 2
-52 8 -23 10 -28 18 -28 47 0 20 9 61 20 92 14 41 36 73 75 113 33 33 55 64
55 77 0 12 -4 25 -10 28 -5 3 -36 8 -70 10z"/>
</g>
</svg>
