<?xml version="1.0" standalone="no"?>
<!DOCTYPE svg PUBLIC "-//W3C//DTD SVG 20010904//EN"
 "http://www.w3.org/TR/2001/REC-SVG-20010904/DTD/svg10.dtd">
<svg version="1.0" xmlns="http://www.w3.org/2000/svg"
 width="56.000000pt" height="56.000000pt" viewBox="0 0 56.000000 56.000000"
 preserveAspectRatio="xMidYMid meet">
<metadata>
Created by potrace 1.16, written by Peter Selinger 2001-2019
</metadata>
<g transform="translate(0.000000,56.000000) scale(0.100000,-0.100000)"
fill="#000000" stroke="none">
<path d="M223 540 c-16 0 -37 -7 -47 -15 -12 -9 -29 -12 -44 -8 -24 6 -25 5
-18 -37 6 -38 3 -46 -29 -85 -19 -24 -45 -65 -56 -92 -15 -33 -22 -68 -22
-114 0 -52 5 -75 22 -103 12 -20 33 -44 47 -55 21 -16 29 -17 56 -8 17 7 60
45 97 85 44 49 69 87 77 115 6 23 22 66 35 94 13 29 30 55 37 58 9 3 27 -24
53 -80 21 -46 39 -90 39 -97 0 -7 7 -21 15 -31 7 -10 22 -17 32 -15 10 2 19
12 21 22 2 10 -4 35 -15 55 -10 20 -27 52 -39 71 -11 19 -26 54 -33 77 -8 23
-24 52 -37 64 -12 11 -30 19 -40 17 -10 -2 -22 -19 -29 -43 -6 -22 -18 -51
-26 -65 -8 -14 -33 -46 -56 -72 -23 -25 -45 -59 -49 -75 -4 -15 -13 -41 -21
-56 -8 -15 -23 -37 -34 -48 -10 -10 -30 -19 -43 -19 -15 0 -33 11 -46 27 -18
23 -21 38 -18 83 3 30 15 77 28 103 13 27 39 65 58 85 20 21 53 59 74 87 21
27 38 55 38 62 0 8 -12 13 -27 13z"/>
</g>
</svg>
