<?xml version="1.0" standalone="no"?>
<!DOCTYPE svg PUBLIC "-//W3C//DTD SVG 20010904//EN"
 "http://www.w3.org/TR/2001/REC-SVG-20010904/DTD/svg10.dtd">
<svg version="1.0" xmlns="http://www.w3.org/2000/svg"
 width="56.000000pt" height="56.000000pt" viewBox="0 0 56.000000 56.000000"
 preserveAspectRatio="xMidYMid meet">
<metadata>
Created by potrace 1.16, written by Peter Selinger 2001-2019
</metadata>
<g transform="translate(0.000000,56.000000) scale(0.100000,-0.100000)"
fill="#000000" stroke="none">
<path d="M111 560 c-11 0 -25 -13 -35 -34 -9 -19 -16 -43 -16 -54 0 -12 6 -24
12 -28 7 -5 27 -7 45 -5 20 1 33 -2 33 -9 0 -7 -9 -25 -21 -41 -11 -16 -33
-57 -48 -91 -24 -52 -29 -78 -30 -145 -1 -82 -1 -82 35 -119 34 -33 41 -36 82
-31 24 3 56 14 71 24 14 11 42 41 63 68 20 26 38 60 41 74 3 14 12 57 21 96 9
38 16 87 16 107 0 20 -4 39 -9 42 -5 3 -12 -1 -15 -10 -3 -9 -6 -32 -6 -52 0
-19 -9 -63 -21 -96 -11 -34 -27 -76 -35 -94 -9 -18 -29 -48 -46 -67 -17 -20
-47 -40 -70 -47 -38 -11 -42 -10 -59 11 -13 16 -19 39 -19 75 0 28 7 80 16
116 9 39 31 89 55 127 22 34 47 67 55 74 13 10 12 14 -2 30 -13 14 -31 19 -71
19 -54 0 -54 0 -39 22 9 12 16 26 16 30 0 5 -8 8 -19 8z"/>
<path d="M396 560 c-3 0 -7 -8 -10 -17 -3 -10 1 -40 9 -67 8 -27 15 -85 15
-129 0 -44 5 -110 11 -146 6 -36 16 -72 21 -78 6 -7 22 -13 35 -13 23 0 25 3
20 42 -3 24 -10 61 -17 83 -6 22 -16 65 -20 95 -5 30 -9 85 -9 121 -1 57 -4
68 -26 87 -14 12 -27 22 -29 22z"/>
</g>
</svg>
