<?xml version="1.0" standalone="no"?>
<!DOCTYPE svg PUBLIC "-//W3C//DTD SVG 20010904//EN"
 "http://www.w3.org/TR/2001/REC-SVG-20010904/DTD/svg10.dtd">
<svg version="1.0" xmlns="http://www.w3.org/2000/svg"
 width="56.000000pt" height="56.000000pt" viewBox="0 0 56.000000 56.000000"
 preserveAspectRatio="xMidYMid meet">
<metadata>
Created by potrace 1.16, written by Peter Selinger 2001-2019
</metadata>
<g transform="translate(0.000000,56.000000) scale(0.100000,-0.100000)"
fill="#000000" stroke="none">
<path d="M158 560 c-16 0 -33 -15 -56 -49 -28 -41 -32 -54 -26 -88 5 -31 1
-50 -19 -89 -14 -27 -30 -79 -36 -116 -10 -59 -9 -73 9 -122 16 -41 30 -60 57
-76 20 -11 41 -20 47 -18 6 2 41 35 78 73 49 51 79 97 116 170 27 55 52 111
56 125 3 14 10 31 15 39 5 7 14 10 20 7 6 -4 11 -16 11 -27 0 -10 4 -27 9 -37
5 -9 13 -33 19 -52 6 -19 16 -61 24 -93 7 -31 18 -57 24 -57 6 0 17 7 24 15 7
8 10 29 7 47 -2 18 -16 67 -31 108 -14 41 -30 83 -36 92 -5 10 -10 26 -10 36
0 11 -8 26 -18 35 -10 10 -26 17 -35 17 -9 0 -21 -9 -27 -19 -5 -11 -10 -30
-10 -43 0 -13 -4 -28 -8 -34 -4 -5 -14 -27 -21 -49 -8 -22 -22 -51 -32 -64
-11 -13 -19 -28 -19 -33 0 -5 -14 -30 -32 -56 -17 -26 -52 -66 -77 -90 -25
-23 -52 -41 -60 -40 -8 2 -23 16 -35 31 -15 21 -21 42 -20 85 0 31 8 82 19
112 10 30 27 67 38 82 11 15 33 32 48 38 16 7 34 18 40 26 9 11 8 18 -1 29 -7
8 -22 15 -34 15 -12 0 -27 -5 -34 -12 -6 -6 -15 -9 -18 -5 -4 3 7 22 25 42 17
20 31 38 31 40 0 3 -10 5 -22 5z"/>
</g>
</svg>
