<?xml version="1.0" standalone="no"?>
<!DOCTYPE svg PUBLIC "-//W3C//DTD SVG 20010904//EN"
 "http://www.w3.org/TR/2001/REC-SVG-20010904/DTD/svg10.dtd">
<svg version="1.0" xmlns="http://www.w3.org/2000/svg"
 width="56.000000pt" height="56.000000pt" viewBox="0 0 56.000000 56.000000"
 preserveAspectRatio="xMidYMid meet">
<metadata>
Created by potrace 1.16, written by Peter Selinger 2001-2019
</metadata>
<g transform="translate(0.000000,56.000000) scale(0.100000,-0.100000)"
fill="#000000" stroke="none">
<path d="M166 520 c-29 0 -48 -6 -57 -17 -8 -10 -20 -29 -26 -43 -6 -14 -11
-41 -11 -61 0 -19 -9 -51 -21 -70 -11 -18 -21 -46 -21 -61 0 -15 -5 -30 -10
-33 -6 -4 -9 -21 -8 -38 1 -18 9 -43 18 -57 9 -14 19 -33 23 -42 3 -9 21 -23
39 -31 18 -8 46 -19 62 -26 24 -10 32 -9 50 6 11 10 35 34 53 53 18 20 35 51
38 73 4 20 10 37 14 37 4 0 12 19 18 43 7 23 15 58 19 77 3 19 13 49 22 65 15
30 15 30 26 -2 6 -17 14 -35 19 -39 4 -4 7 -16 7 -28 0 -11 8 -29 19 -40 10
-12 21 -40 25 -63 6 -40 4 -43 -16 -43 -12 0 -37 -5 -55 -12 -18 -7 -32 -17
-30 -23 2 -6 45 -11 100 -13 92 -3 97 -2 97 18 0 11 -3 20 -7 20 -5 0 -14 12
-20 27 -7 15 -13 32 -13 37 0 6 -11 24 -24 39 -14 16 -27 46 -31 68 -4 21 -10
39 -15 39 -5 0 -11 19 -15 42 -4 23 -18 53 -31 67 -19 21 -27 24 -42 15 -9 -6
-23 -35 -30 -65 -8 -30 -17 -74 -22 -99 -5 -25 -12 -58 -16 -75 -4 -16 -15
-41 -24 -55 -10 -14 -20 -34 -24 -46 -3 -11 -19 -33 -36 -49 -29 -28 -29 -28
-77 -4 -27 14 -55 37 -65 54 -13 23 -15 40 -8 74 4 24 12 46 17 50 5 3 24 30
42 59 18 29 45 61 58 72 19 15 24 26 19 44 -4 16 -1 26 10 30 8 3 12 10 9 16
-3 5 -25 10 -49 10z"/>
</g>
</svg>
