<?xml version="1.0" standalone="no"?>
<!DOCTYPE svg PUBLIC "-//W3C//DTD SVG 20010904//EN"
 "http://www.w3.org/TR/2001/REC-SVG-20010904/DTD/svg10.dtd">
<svg version="1.0" xmlns="http://www.w3.org/2000/svg"
 width="128.000000pt" height="128.000000pt" viewBox="0 0 128.000000 128.000000"
 preserveAspectRatio="xMidYMid meet">
<metadata>
Created by potrace 1.16, written by Peter Selinger 2001-2019
</metadata>
<g transform="translate(0.000000,128.000000) scale(0.100000,-0.100000)"
fill="#000000" stroke="none">
<path d="M832 1139 c-9 0 -43 -32 -75 -69 -45 -55 -59 -79 -63 -114 -5 -32
-13 -50 -30 -61 -13 -8 -24 -22 -24 -29 0 -7 -7 -19 -15 -26 -8 -7 -15 -20
-15 -30 0 -10 -13 -32 -30 -50 -16 -18 -30 -38 -30 -46 0 -8 -15 -31 -33 -51
-18 -21 -41 -50 -50 -65 -10 -16 -21 -28 -26 -28 -4 0 -11 28 -15 62 -3 34
-11 65 -17 69 -7 4 -5 8 6 12 12 5 14 15 10 40 -6 30 -2 37 38 73 25 21 56 47
71 57 14 9 31 35 37 56 6 22 9 47 6 55 -4 9 -13 13 -22 10 -9 -4 -22 -22 -30
-40 -8 -19 -19 -34 -26 -34 -7 0 -27 -11 -45 -25 -18 -14 -38 -25 -44 -25 -6
0 -24 7 -40 15 -21 11 -30 23 -30 40 0 13 9 40 20 60 11 20 20 42 20 50 0 8
-4 15 -8 15 -5 0 -20 -12 -34 -27 -14 -16 -34 -51 -44 -79 -15 -45 -16 -56 -4
-98 7 -26 28 -66 47 -89 21 -25 33 -48 30 -59 -3 -10 1 -38 8 -62 10 -32 10
-47 2 -55 -6 -6 -15 -11 -19 -11 -5 0 -44 -30 -86 -66 -42 -37 -83 -74 -89
-82 -7 -8 -10 -25 -7 -37 3 -11 0 -33 -5 -48 -8 -20 -7 -27 2 -27 6 0 26 13
44 30 17 16 34 38 37 48 4 10 24 26 46 36 22 9 45 14 51 10 6 -3 9 -20 7 -36
-3 -16 0 -32 5 -35 6 -3 16 2 23 12 13 17 14 17 33 -6 16 -19 22 -21 32 -12
10 10 10 18 2 35 -6 13 -14 35 -17 51 -5 21 0 36 22 65 16 20 55 71 86 113 31
42 56 81 56 87 0 5 7 15 15 22 9 7 22 29 31 49 9 20 20 43 25 51 5 8 16 29 24
45 9 17 20 38 25 48 6 9 14 25 19 35 4 9 14 17 22 17 8 0 15 -10 17 -23 2 -12
-4 -64 -14 -115 -9 -50 -16 -111 -15 -134 1 -33 -2 -43 -14 -43 -9 0 -15 -9
-15 -24 0 -16 7 -27 21 -31 19 -6 20 -8 3 -26 -9 -10 -22 -19 -29 -19 -7 0
-20 -9 -31 -21 -15 -17 -19 -36 -19 -98 0 -68 4 -82 34 -136 19 -33 42 -71 52
-84 11 -13 19 -32 19 -43 0 -11 -7 -26 -15 -34 -8 -9 -15 -20 -15 -26 0 -7 17
-9 46 -5 40 4 54 13 105 63 57 57 60 58 90 47 27 -10 37 -9 70 8 26 13 39 26
39 39 0 13 -7 20 -20 20 -11 0 -20 -4 -20 -10 0 -5 -7 -10 -15 -10 -8 0 -15 3
-15 8 0 4 14 16 30 27 16 11 30 28 30 39 0 13 -5 16 -17 11 -10 -4 -26 -9 -35
-12 -10 -3 -27 6 -43 22 -14 16 -25 33 -25 40 0 7 6 28 14 46 7 19 11 50 9 69
-3 19 -10 41 -15 48 -6 6 -19 12 -29 12 -10 0 -25 -11 -34 -23 -10 -16 -16
-50 -16 -100 -1 -66 3 -83 26 -123 15 -25 24 -51 22 -58 -3 -7 -27 -27 -53
-44 -26 -18 -55 -32 -65 -32 -15 0 -18 14 -24 95 -4 52 -4 143 0 203 4 59 11
114 16 124 5 10 16 14 29 11 11 -3 27 0 35 7 8 7 12 16 9 21 -3 5 -14 9 -24 9
-10 0 -20 6 -23 13 -2 6 -2 37 0 67 3 30 8 64 13 75 4 11 15 47 24 81 9 33 16
79 16 103 0 23 -9 60 -20 81 -12 24 -27 40 -38 39z m-447 -599 c3 0 5 -12 5
-27 0 -20 -3 -24 -11 -16 -7 7 -9 19 -6 27 4 9 9 16 12 16z"/>
<path d="M1179 800 c-27 0 -43 -6 -56 -23 -10 -12 -29 -23 -41 -24 -13 -1 -54
-11 -91 -23 -52 -16 -71 -27 -80 -46 -9 -20 -8 -26 4 -30 8 -4 27 -3 43 2 15
4 31 6 35 5 4 -1 25 11 45 26 20 16 42 34 48 42 7 10 21 12 45 7 34 -6 34 -6
31 -86 -2 -44 -1 -80 4 -80 4 0 15 7 24 15 15 14 18 13 32 -2 10 -12 14 -31
10 -56 -4 -38 -4 -38 -48 -31 -41 6 -44 4 -64 -27 -11 -19 -23 -45 -27 -58 -5
-19 -1 -28 15 -39 12 -8 22 -22 22 -31 0 -9 -5 -22 -12 -29 -9 -9 -7 -13 6
-18 11 -4 27 3 46 21 15 14 31 40 34 57 3 16 14 42 25 57 11 15 22 43 26 64 4
20 11 37 16 37 5 0 9 36 9 79 0 44 -4 82 -9 85 -4 3 -11 20 -15 38 -3 17 -14
40 -23 50 -10 11 -30 18 -54 18z m21 -320 c4 0 11 -7 14 -16 3 -9 3 -20 0 -25
-4 -6 -11 -6 -19 1 -8 6 -11 18 -8 26 3 8 9 14 13 14z"/>
<path d="M135 380 c-14 12 -17 10 -22 -8 -3 -12 -20 -29 -39 -38 -22 -10 -40
-31 -54 -60 -19 -38 -20 -46 -8 -71 13 -27 16 -28 103 -30 50 -1 121 -5 160
-9 44 -4 74 -12 81 -22 7 -10 13 -12 18 -4 3 6 -2 16 -13 21 -11 6 -21 21 -23
33 -3 22 -7 23 -116 26 -90 2 -114 6 -119 18 -3 8 4 25 16 38 12 13 24 39 27
58 4 24 1 38 -11 48z"/>
<path d="M381 340 c-5 0 -13 -4 -16 -10 -3 -5 -1 -18 4 -29 7 -13 8 -20 1 -23
-6 -2 -8 -16 -4 -33 3 -17 14 -41 24 -54 11 -16 23 -22 34 -18 12 5 16 20 16
71 0 57 -3 65 -25 80 -13 9 -29 16 -34 16z"/>
</g>
</svg>
