<?xml version="1.0" standalone="no"?>
<!DOCTYPE svg PUBLIC "-//W3C//DTD SVG 20010904//EN"
 "http://www.w3.org/TR/2001/REC-SVG-20010904/DTD/svg10.dtd">
<svg version="1.0" xmlns="http://www.w3.org/2000/svg"
 width="128.000000pt" height="128.000000pt" viewBox="0 0 128.000000 128.000000"
 preserveAspectRatio="xMidYMid meet">
<metadata>
Created by potrace 1.16, written by Peter Selinger 2001-2019
</metadata>
<g transform="translate(0.000000,128.000000) scale(0.100000,-0.100000)"
fill="#000000" stroke="none">
<path d="M303 1260 c-23 0 -45 -5 -49 -12 -4 -7 0 -16 11 -22 10 -6 34 -27 52
-46 18 -19 33 -38 33 -42 0 -4 -14 -27 -30 -50 -17 -24 -40 -57 -52 -74 -12
-17 -37 -41 -56 -55 -20 -13 -51 -34 -71 -46 -20 -12 -46 -27 -59 -32 -12 -6
-27 -22 -34 -36 -9 -21 -9 -29 3 -40 13 -13 19 -12 49 5 19 10 60 32 90 47 30
16 66 39 80 51 14 13 49 41 77 63 29 22 62 57 73 79 11 22 23 40 25 40 3 0 22
-9 42 -20 21 -11 50 -20 65 -20 15 0 30 -4 33 -10 3 -5 26 -10 50 -10 24 0 56
5 72 11 15 5 31 15 35 22 4 6 4 15 1 20 -3 4 -17 13 -31 18 -15 6 -51 12 -81
15 -29 2 -60 9 -67 15 -8 6 -32 12 -54 13 -33 0 -41 5 -50 26 -6 15 -35 41
-63 58 -37 22 -66 32 -94 32z"/>
<path d="M774 1220 c-6 0 -17 -7 -24 -16 -10 -11 -11 -23 -4 -42 5 -15 33 -44
62 -66 50 -37 52 -41 52 -87 0 -26 -5 -60 -12 -74 -11 -25 -14 -26 -77 -20
-46 4 -74 2 -91 -7 -14 -8 -25 -22 -25 -33 0 -18 7 -20 75 -21 41 0 81 -1 88
-2 6 -1 12 -8 12 -16 0 -8 -10 -32 -22 -53 -13 -21 -29 -54 -36 -73 -7 -19
-17 -48 -22 -65 -4 -16 -16 -55 -25 -85 -9 -30 -17 -77 -18 -105 -2 -44 1 -50
19 -53 12 -2 34 9 52 27 27 24 32 37 32 73 0 24 4 48 9 54 5 5 11 39 13 76 3
48 9 73 23 88 10 11 28 20 39 18 14 -2 24 -16 33 -47 7 -24 10 -55 6 -69 -3
-13 -21 -33 -39 -44 -18 -11 -36 -29 -40 -40 -3 -11 -2 -24 3 -28 4 -4 17 -10
28 -12 18 -3 20 -10 17 -63 -1 -33 -8 -103 -15 -155 -7 -52 -12 -130 -12 -173
1 -57 5 -81 15 -87 8 -6 18 -10 23 -10 4 0 19 26 33 58 15 31 31 73 36 92 6
19 14 71 18 115 5 44 9 88 9 97 1 10 13 24 29 32 27 15 27 15 3 22 -22 6 -23
10 -16 58 3 28 13 61 21 74 9 14 24 22 43 22 16 0 39 9 52 20 24 20 24 20 5
35 -11 8 -30 15 -42 15 -13 0 -26 -4 -29 -10 -3 -5 -14 -10 -24 -10 -13 0 -21
17 -36 73 -10 39 -25 80 -34 90 -11 14 -25 17 -47 14 -17 -3 -37 0 -43 6 -6 6
-11 17 -11 23 0 7 7 20 16 29 13 13 34 16 105 14 49 -2 91 0 95 4 3 3 9 26 11
51 5 36 2 46 -14 54 -11 6 -35 8 -54 4 -19 -4 -43 -6 -54 -6 -11 1 -25 2 -31
3 -6 1 -14 27 -17 59 -4 32 -9 66 -13 75 -3 9 -22 26 -41 39 -20 13 -50 31
-67 40 -17 10 -36 18 -42 18z"/>
<path d="M531 929 c-31 -1 -80 -6 -109 -11 -38 -7 -57 -16 -68 -34 -11 -16
-26 -24 -44 -24 -15 0 -33 -7 -40 -15 -6 -8 -9 -19 -5 -25 3 -5 12 -10 19 -10
7 0 25 9 39 20 19 15 27 17 35 7 6 -6 10 -28 10 -48 0 -20 8 -49 17 -63 10
-15 15 -29 12 -32 -3 -3 -29 -6 -59 -6 -29 0 -63 1 -75 1 -13 1 -31 1 -40 0
-10 0 -32 2 -50 5 -20 4 -35 0 -43 -9 -9 -10 -8 -21 4 -44 9 -17 25 -35 36
-41 14 -8 28 -6 55 7 32 15 41 16 93 2 57 -14 57 -14 58 -174 1 -110 -3 -169
-12 -190 -7 -16 -21 -40 -31 -53 -11 -13 -42 -29 -73 -38 -30 -8 -93 -16 -139
-18 -66 -2 -87 -6 -97 -20 -7 -10 -11 -23 -8 -30 3 -7 18 -20 33 -29 16 -9 40
-17 53 -17 13 0 29 -5 34 -10 7 -7 21 -7 45 1 19 7 41 18 50 25 8 8 26 14 38
14 12 0 33 7 46 16 19 12 23 22 19 40 -3 13 -4 24 -1 24 3 0 17 -4 31 -10 20
-7 36 -4 73 15 27 13 59 26 73 30 14 3 36 15 50 25 24 18 24 20 9 47 -10 19
-22 27 -35 25 -10 -2 -30 -4 -43 -5 -13 -1 -26 3 -28 9 -2 6 14 30 37 54 22
23 43 52 46 65 3 13 17 31 31 40 16 11 22 20 16 26 -6 6 -24 12 -42 14 -23 3
-35 -1 -44 -15 -6 -11 -17 -20 -24 -20 -9 0 -14 20 -15 65 -1 36 -2 73 -2 83
-1 12 7 17 26 18 15 1 34 7 43 14 8 7 15 28 15 47 0 25 6 36 23 44 16 7 7 8
-37 4 -37 -3 -63 -1 -72 6 -8 6 -14 23 -14 38 0 14 -4 32 -9 40 -5 8 -7 20 -4
28 4 10 17 12 52 7 25 -3 58 -1 74 5 15 6 31 21 36 33 5 14 5 28 -1 36 -7 7
-32 12 -67 11z"/>
<path d="M1168 930 c-3 0 -11 -6 -17 -14 -9 -10 -9 -21 -3 -33 5 -10 15 -50
22 -90 8 -48 17 -73 27 -78 10 -3 26 4 40 16 12 13 23 33 23 46 0 13 5 23 10
23 6 0 10 9 10 20 0 11 -10 31 -22 46 -13 14 -37 34 -54 45 -17 10 -34 19 -36
19z"/>
<path d="M582 598 c-18 3 -22 -1 -22 -23 0 -14 7 -28 16 -32 9 -3 20 0 25 8 5
8 8 21 6 29 -1 8 -12 16 -25 18z"/>
<path d="M217 539 c-10 8 -18 7 -29 -2 -9 -6 -18 -27 -22 -45 -4 -24 1 -45 19
-80 13 -26 27 -55 30 -65 3 -12 12 -17 27 -15 16 2 24 12 30 38 4 21 2 49 -5
70 -6 19 -17 42 -24 51 -7 8 -13 20 -13 26 0 6 -6 16 -13 22z"/>
</g>
</svg>
