<?xml version="1.0" standalone="no"?>
<!DOCTYPE svg PUBLIC "-//W3C//DTD SVG 20010904//EN"
 "http://www.w3.org/TR/2001/REC-SVG-20010904/DTD/svg10.dtd">
<svg version="1.0" xmlns="http://www.w3.org/2000/svg"
 width="128.000000pt" height="128.000000pt" viewBox="0 0 128.000000 128.000000"
 preserveAspectRatio="xMidYMid meet">
<metadata>
Created by potrace 1.16, written by Peter Selinger 2001-2019
</metadata>
<g transform="translate(0.000000,128.000000) scale(0.100000,-0.100000)"
fill="#000000" stroke="none">
<path d="M316 1280 c-75 0 -136 -4 -136 -9 0 -5 7 -12 16 -15 9 -3 23 -6 33
-6 10 0 22 -13 29 -33 7 -18 12 -47 12 -65 0 -18 -13 -50 -30 -75 -16 -25 -30
-57 -30 -71 0 -15 7 -38 16 -51 10 -16 14 -34 10 -51 -5 -20 3 -40 39 -93 25
-38 45 -73 45 -79 0 -6 10 -18 22 -26 18 -13 20 -19 10 -40 -6 -14 -23 -33
-38 -42 -21 -14 -30 -15 -45 -6 -10 7 -28 18 -39 25 -18 10 -23 9 -40 -13 -11
-14 -20 -39 -20 -57 0 -22 6 -33 18 -37 10 -4 28 -15 40 -26 18 -17 20 -24 10
-40 -10 -15 -10 -22 0 -32 6 -6 12 -15 12 -18 0 -4 -10 -11 -23 -17 -14 -6
-29 -29 -40 -61 -11 -30 -36 -69 -59 -92 -22 -22 -44 -40 -49 -40 -5 0 -9 -11
-9 -23 0 -13 8 -31 18 -41 18 -15 22 -15 64 4 24 10 52 28 61 38 10 11 26 50
37 88 11 38 20 83 20 99 0 18 8 38 20 48 15 13 20 29 20 67 0 45 4 55 34 83
18 18 42 50 53 72 11 22 27 56 37 75 9 19 37 57 63 83 25 27 46 47 47 45 0 -2
6 -12 12 -23 7 -12 19 -19 30 -17 11 2 22 9 26 15 4 7 5 28 2 47 -4 19 -7 39
-8 44 0 5 31 19 69 32 39 13 84 24 101 24 18 0 39 8 50 21 14 15 16 24 8 37
-7 10 -27 18 -51 20 -27 2 -46 -2 -56 -12 -9 -9 -20 -16 -26 -16 -6 0 -12 6
-12 13 -1 6 0 20 1 30 1 10 -4 25 -11 33 -6 8 -15 29 -18 47 -4 17 -14 33 -22
35 -9 2 -24 -10 -35 -25 -10 -15 -18 -41 -19 -58 0 -21 -5 -29 -15 -28 -8 1
-27 5 -42 9 -28 6 -28 6 -28 -50 0 -43 -5 -62 -20 -78 -11 -12 -20 -28 -20
-36 0 -7 -12 -33 -26 -58 -14 -24 -29 -44 -33 -44 -3 0 -16 7 -27 15 -13 9
-24 30 -28 57 -4 24 -14 62 -23 85 -16 42 -16 42 17 79 26 30 31 43 27 68 -3
17 -9 45 -13 63 -5 27 -2 37 24 63 18 17 37 28 45 24 8 -3 18 -1 22 5 4 8 -36
11 -129 11z"/>
<path d="M960 914 c-14 3 -32 2 -40 -1 -8 -3 -21 -10 -27 -15 -9 -8 -10 -15
-2 -30 9 -16 17 -19 43 -14 25 5 37 2 51 -14 10 -11 33 -22 51 -26 19 -3 44
-14 57 -23 12 -9 39 -22 59 -29 21 -7 42 -10 48 -7 5 3 10 14 10 24 0 10 -17
34 -37 53 -21 20 -43 42 -50 49 -7 8 -19 20 -28 28 -10 8 -26 11 -43 6 -15 -4
-36 -7 -47 -7 -11 0 -31 3 -45 6z"/>
<path d="M592 772 c-9 9 -13 7 -18 -6 -4 -9 -4 -20 0 -23 3 -4 12 -1 18 5 9 9
9 15 0 24z"/>
<path d="M571 689 c-6 8 -15 6 -34 -9 -20 -16 -27 -31 -27 -55 0 -22 -7 -37
-21 -47 -15 -9 -24 -30 -30 -66 -4 -29 -17 -64 -28 -79 -12 -14 -21 -36 -21
-49 0 -12 4 -34 10 -48 7 -19 17 -26 35 -26 18 0 28 7 35 25 8 21 16 25 49 25
22 0 52 5 68 11 15 6 38 20 50 31 12 11 27 18 35 16 8 -3 12 -18 10 -44 -2
-21 -13 -59 -24 -82 -20 -43 -20 -46 -5 -125 9 -45 19 -101 23 -124 5 -38 9
-43 33 -43 26 0 27 3 44 88 10 51 16 123 14 174 -1 47 -5 90 -9 94 -5 4 -8 18
-8 30 0 13 5 26 10 29 6 3 10 21 10 39 0 25 -5 35 -20 39 -11 3 -20 12 -20 21
0 9 8 16 20 16 12 0 38 -9 60 -20 22 -11 50 -20 63 -20 13 0 33 9 46 21 17 16
21 30 19 62 -3 42 -3 42 -64 45 -57 3 -61 4 -57 26 3 12 -1 27 -9 33 -7 5 -27
13 -44 16 -20 4 -39 0 -54 -10 -16 -12 -21 -22 -16 -42 3 -14 9 -48 14 -76 8
-41 7 -52 -7 -62 -9 -7 -28 -11 -42 -9 -19 4 -33 -2 -50 -20 -12 -13 -40 -29
-61 -35 -21 -5 -43 -7 -49 -3 -7 4 -8 21 -5 43 4 20 9 54 12 76 4 22 12 47 19
55 8 8 18 27 23 41 6 14 7 31 3 38z"/>
<path d="M163 100 c-10 0 -26 -14 -35 -31 -10 -17 -18 -37 -18 -45 0 -8 6 -14
13 -14 8 0 23 10 35 23 12 13 22 33 22 45 0 14 -6 22 -17 22z"/>
</g>
</svg>
