<?xml version="1.0" standalone="no"?>
<!DOCTYPE svg PUBLIC "-//W3C//DTD SVG 20010904//EN"
 "http://www.w3.org/TR/2001/REC-SVG-20010904/DTD/svg10.dtd">
<svg version="1.0" xmlns="http://www.w3.org/2000/svg"
 width="128.000000pt" height="128.000000pt" viewBox="0 0 128.000000 128.000000"
 preserveAspectRatio="xMidYMid meet">
<metadata>
Created by potrace 1.16, written by Peter Selinger 2001-2019
</metadata>
<g transform="translate(0.000000,128.000000) scale(0.100000,-0.100000)"
fill="#000000" stroke="none">
<path d="M411 1199 c-25 -1 -56 -4 -68 -6 -13 -2 -23 -11 -23 -19 0 -8 4 -14
10 -14 5 0 22 -13 38 -28 23 -23 36 -28 61 -24 18 2 40 15 52 30 20 27 20 27
-1 44 -15 12 -37 18 -69 17z"/>
<path d="M807 1170 c-4 0 -10 -8 -13 -17 -3 -10 -10 -27 -14 -38 -5 -11 -23
-64 -40 -118 -17 -54 -41 -114 -52 -135 -12 -20 -42 -59 -68 -87 -26 -27 -62
-70 -82 -95 -19 -25 -40 -58 -47 -75 -7 -16 -30 -50 -51 -74 -32 -34 -41 -40
-46 -27 -3 9 -3 28 1 44 5 15 9 46 11 69 2 25 14 59 31 84 25 38 28 51 28 126
0 60 -5 87 -15 98 -9 8 -33 17 -55 20 -22 3 -64 0 -92 -6 -29 -6 -55 -15 -59
-20 -3 -5 0 -17 7 -25 7 -8 28 -22 48 -30 27 -11 42 -12 59 -5 13 6 25 11 27
11 3 0 5 -24 5 -53 0 -43 -5 -58 -23 -75 -15 -15 -36 -22 -61 -22 -23 0 -59
-12 -93 -30 -30 -17 -77 -52 -105 -78 -27 -26 -56 -51 -64 -55 -9 -5 -19 -18
-23 -30 -5 -12 -4 -33 0 -46 8 -19 7 -22 -6 -17 -13 5 -16 0 -13 -22 3 -26 6
-27 67 -30 52 -2 68 1 85 16 11 11 48 34 80 51 32 17 63 31 67 31 5 0 6 -15 3
-32 -4 -18 -12 -51 -20 -73 -7 -22 -22 -64 -33 -92 -10 -29 -29 -68 -41 -88
-13 -20 -18 -40 -13 -47 4 -7 9 -28 10 -47 1 -19 4 -40 7 -48 3 -7 10 -13 16
-13 6 0 19 20 30 45 11 25 26 48 34 51 9 3 30 36 47 72 17 37 39 76 48 87 9
11 22 41 29 68 7 26 28 69 47 95 19 26 44 64 55 84 11 20 33 57 50 82 18 25
36 46 41 46 5 0 9 -4 9 -9 0 -5 -6 -26 -14 -47 -7 -22 -18 -68 -25 -104 -7
-39 -8 -77 -3 -95 6 -22 15 -31 33 -33 19 -2 47 13 100 54 41 31 87 70 103 85
16 16 33 26 38 23 5 -4 9 -50 7 -103 -1 -53 2 -148 6 -211 6 -87 13 -124 28
-153 11 -20 28 -37 37 -37 9 0 25 9 35 20 12 13 16 28 12 47 -3 15 -11 53 -17
83 -7 30 -20 125 -29 210 -10 92 -14 167 -9 185 4 17 18 37 30 45 12 8 52 46
89 85 40 40 70 81 73 98 3 16 0 40 -9 57 -11 21 -21 28 -37 26 -13 -2 -35 -9
-50 -16 -16 -7 -28 -18 -28 -24 0 -6 4 -17 9 -25 5 -8 5 -27 -1 -45 -6 -17
-18 -39 -26 -48 -8 -10 -21 -18 -28 -18 -7 0 -16 16 -20 36 -5 25 -1 47 10 71
13 28 14 38 4 50 -10 12 -14 8 -28 -29 -10 -24 -20 -74 -24 -111 -4 -38 -14
-80 -23 -93 -8 -13 -20 -24 -27 -24 -6 0 -16 -10 -21 -22 -6 -12 -32 -35 -60
-50 -27 -16 -60 -34 -72 -40 -13 -6 -23 -15 -23 -20 0 -4 -7 -8 -15 -8 -8 0
-15 8 -15 19 0 10 5 33 11 52 6 19 14 43 18 54 5 11 21 49 37 85 16 36 47 90
69 121 22 30 60 72 85 92 25 20 54 37 66 37 11 0 29 10 40 23 11 12 26 34 33
49 7 14 10 32 6 38 -6 9 -26 11 -69 7 -62 -6 -62 -6 -86 39 -14 24 -28 44 -33
44z m33 -150 c4 0 9 -3 13 -6 3 -3 1 -15 -6 -25 -6 -10 -17 -19 -24 -19 -7 0
-13 6 -13 13 0 7 5 18 12 25 7 7 15 12 18 12z m-559 -351 c9 1 19 -8 22 -19 3
-12 -6 -35 -24 -60 -16 -22 -47 -49 -69 -60 -21 -11 -44 -29 -49 -39 -6 -10
-25 -21 -43 -24 -18 -2 -36 -3 -41 0 -4 2 4 26 18 51 14 26 47 63 72 82 26 19
51 40 57 46 6 6 18 13 26 17 8 3 22 6 31 6z"/>
<path d="M1180 1060 c-5 0 -12 -5 -15 -10 -4 -6 -4 -27 0 -48 3 -20 19 -53 36
-72 27 -32 30 -34 43 -17 7 9 18 17 25 17 6 0 11 16 11 38 -1 33 -5 40 -46 65
-25 15 -49 27 -54 27z"/>
</g>
</svg>
