<?xml version="1.0" standalone="no"?>
<!DOCTYPE svg PUBLIC "-//W3C//DTD SVG 20010904//EN"
 "http://www.w3.org/TR/2001/REC-SVG-20010904/DTD/svg10.dtd">
<svg version="1.0" xmlns="http://www.w3.org/2000/svg"
 width="56.000000pt" height="56.000000pt" viewBox="0 0 56.000000 56.000000"
 preserveAspectRatio="xMidYMid meet">
<metadata>
Created by potrace 1.16, written by Peter Selinger 2001-2019
</metadata>
<g transform="translate(0.000000,56.000000) scale(0.100000,-0.100000)"
fill="#000000" stroke="none">
<path d="M278 560 c-20 0 -40 -4 -43 -10 -3 -5 -31 -10 -61 -10 -41 0 -56 -4
-61 -16 -3 -9 3 -24 15 -36 17 -17 25 -19 50 -10 24 8 32 8 36 -4 3 -8 1 -46
-3 -84 -6 -46 -21 -94 -45 -142 -20 -40 -50 -88 -67 -106 -29 -30 -31 -38 -25
-79 3 -24 8 -49 12 -54 3 -5 15 -9 28 -9 20 0 27 12 54 93 18 56 36 93 45 95
11 2 22 -16 38 -58 12 -33 32 -69 45 -79 12 -9 55 -24 94 -31 68 -13 73 -12
86 5 8 11 10 24 5 34 -5 9 -39 26 -74 39 -36 13 -77 35 -91 48 -13 14 -28 39
-31 55 -4 17 -18 36 -36 46 -16 10 -29 24 -29 33 0 9 6 28 13 43 6 15 17 26
22 26 6 -1 15 -1 22 0 7 0 28 22 48 47 19 26 35 58 35 71 0 13 -10 39 -22 58
-19 29 -29 35 -60 35z m-2 -60 c10 0 14 -12 14 -39 0 -22 -6 -44 -15 -51 -9
-7 -19 -10 -22 -6 -4 4 -7 22 -6 41 1 18 4 38 8 44 3 6 13 11 21 11z"/>
</g>
</svg>
