<?xml version="1.0" standalone="no"?>
<!DOCTYPE svg PUBLIC "-//W3C//DTD SVG 20010904//EN"
 "http://www.w3.org/TR/2001/REC-SVG-20010904/DTD/svg10.dtd">
<svg version="1.0" xmlns="http://www.w3.org/2000/svg"
 width="56.000000pt" height="56.000000pt" viewBox="0 0 56.000000 56.000000"
 preserveAspectRatio="xMidYMid meet">
<metadata>
Created by potrace 1.16, written by Peter Selinger 2001-2019
</metadata>
<g transform="translate(0.000000,56.000000) scale(0.100000,-0.100000)"
fill="#000000" stroke="none">
<path d="M115 560 c-14 0 -25 -4 -25 -10 0 -5 9 -19 20 -30 11 -11 20 -23 20
-27 0 -4 14 -22 32 -40 31 -32 31 -32 -10 -86 -23 -30 -42 -58 -42 -63 0 -5
14 -17 31 -26 17 -10 39 -18 50 -18 10 0 19 -6 19 -12 0 -7 -20 -34 -45 -60
-38 -40 -44 -53 -42 -84 2 -34 7 -40 57 -67 48 -26 68 -31 158 -35 82 -4 102
-2 102 9 0 8 -6 21 -13 30 -8 11 -36 18 -88 22 -42 4 -98 15 -125 24 -26 10
-49 23 -51 29 -2 7 24 31 57 55 34 24 71 51 82 60 13 10 19 22 15 32 -3 9 -31
28 -61 42 -31 15 -56 31 -56 36 0 5 20 19 45 31 25 12 45 27 45 34 0 6 -7 14
-15 18 -8 3 -15 11 -15 19 0 7 -17 19 -37 26 -21 7 -48 23 -60 34 -13 11 -23
29 -23 39 0 13 -7 18 -25 18z"/>
</g>
</svg>
