<?xml version="1.0" standalone="no"?>
<!DOCTYPE svg PUBLIC "-//W3C//DTD SVG 20010904//EN"
 "http://www.w3.org/TR/2001/REC-SVG-20010904/DTD/svg10.dtd">
<svg version="1.0" xmlns="http://www.w3.org/2000/svg"
 width="56.000000pt" height="56.000000pt" viewBox="0 0 56.000000 56.000000"
 preserveAspectRatio="xMidYMid meet">
<metadata>
Created by potrace 1.16, written by Peter Selinger 2001-2019
</metadata>
<g transform="translate(0.000000,56.000000) scale(0.100000,-0.100000)"
fill="#000000" stroke="none">
<path d="M249 536 c-41 4 -69 3 -72 -3 -4 -6 2 -18 12 -27 10 -10 32 -21 47
-25 16 -4 30 -14 32 -23 2 -10 -13 -23 -41 -37 -24 -12 -52 -30 -61 -40 -9
-10 -18 -38 -19 -62 -2 -41 0 -43 31 -51 17 -4 46 -11 63 -15 30 -8 30 -8 0
-48 -17 -22 -33 -55 -37 -72 -3 -18 -3 -44 0 -58 5 -18 22 -33 58 -50 28 -14
69 -25 90 -25 31 0 36 3 31 18 -3 9 -15 27 -26 40 -11 12 -26 22 -33 22 -6 0
-22 8 -34 18 -16 13 -21 24 -16 39 4 12 25 40 46 62 22 23 40 47 40 54 0 8 -8
21 -18 30 -10 9 -36 23 -57 30 -21 8 -44 21 -49 31 -9 13 -7 20 9 32 11 8 36
17 57 20 20 4 50 15 67 25 22 13 31 26 31 44 0 21 -8 30 -43 45 -23 10 -72 22
-108 26z"/>
</g>
</svg>
