<?xml version="1.0" standalone="no"?>
<!DOCTYPE svg PUBLIC "-//W3C//DTD SVG 20010904//EN"
 "http://www.w3.org/TR/2001/REC-SVG-20010904/DTD/svg10.dtd">
<svg version="1.0" xmlns="http://www.w3.org/2000/svg"
 width="56.000000pt" height="56.000000pt" viewBox="0 0 56.000000 56.000000"
 preserveAspectRatio="xMidYMid meet">
<metadata>
Created by potrace 1.16, written by Peter Selinger 2001-2019
</metadata>
<g transform="translate(0.000000,56.000000) scale(0.100000,-0.100000)"
fill="#000000" stroke="none">
<path d="M241 560 c-5 0 -11 -6 -14 -14 -3 -8 -16 -16 -29 -18 -17 -2 -23 -9
-23 -28 0 -20 6 -26 29 -28 16 -2 39 -10 52 -18 20 -14 26 -14 53 1 17 8 31
22 31 29 0 8 -20 23 -45 35 -25 12 -45 26 -45 31 0 6 -4 10 -9 10z"/>
<path d="M193 380 c-13 0 -23 -6 -23 -14 0 -7 14 -19 30 -26 20 -8 30 -19 30
-34 0 -12 -12 -29 -30 -41 -16 -11 -30 -27 -30 -36 0 -9 7 -34 16 -55 9 -22
34 -60 56 -86 21 -26 54 -56 72 -68 18 -11 44 -20 56 -20 21 0 22 3 16 42 -4
23 -14 50 -23 60 -9 10 -22 18 -29 18 -8 0 -34 19 -59 43 -25 24 -45 50 -45
59 0 8 16 31 36 50 24 24 35 44 32 58 -2 15 -15 26 -43 36 -22 7 -50 14 -62
14z"/>
</g>
</svg>
