<?xml version="1.0" standalone="no"?>
<!DOCTYPE svg PUBLIC "-//W3C//DTD SVG 20010904//EN"
 "http://www.w3.org/TR/2001/REC-SVG-20010904/DTD/svg10.dtd">
<svg version="1.0" xmlns="http://www.w3.org/2000/svg"
 width="56.000000pt" height="56.000000pt" viewBox="0 0 56.000000 56.000000"
 preserveAspectRatio="xMidYMid meet">
<metadata>
Created by potrace 1.16, written by Peter Selinger 2001-2019
</metadata>
<g transform="translate(0.000000,56.000000) scale(0.100000,-0.100000)"
fill="#000000" stroke="none">
<path d="M222 560 c-28 0 -42 -5 -46 -16 -4 -9 5 -36 19 -61 18 -33 22 -50 15
-62 -5 -10 -16 -23 -24 -31 -9 -7 -16 -19 -16 -28 0 -8 7 -23 16 -33 9 -10 14
-25 10 -34 -3 -9 -19 -23 -36 -33 -17 -9 -33 -27 -37 -40 -3 -13 2 -40 11 -60
11 -23 35 -49 64 -69 26 -17 72 -45 103 -62 31 -17 70 -31 86 -31 17 0 36 7
43 15 6 8 10 22 8 32 -2 12 -27 26 -78 43 -41 13 -82 32 -91 40 -9 8 -30 23
-47 32 -18 9 -32 23 -31 30 0 7 28 27 62 43 46 22 63 36 65 53 3 18 -3 25 -27
33 -17 6 -36 19 -41 29 -8 15 -3 24 23 47 19 16 37 34 40 40 4 6 4 18 1 27 -3
9 -12 16 -19 16 -6 0 -20 9 -29 19 -11 13 -15 27 -11 40 6 19 2 21 -33 21z"/>
</g>
</svg>
