<?xml version="1.0" standalone="no"?>
<!DOCTYPE svg PUBLIC "-//W3C//DTD SVG 20010904//EN"
 "http://www.w3.org/TR/2001/REC-SVG-20010904/DTD/svg10.dtd">
<svg version="1.0" xmlns="http://www.w3.org/2000/svg"
 width="56.000000pt" height="56.000000pt" viewBox="0 0 56.000000 56.000000"
 preserveAspectRatio="xMidYMid meet">
<metadata>
Created by potrace 1.16, written by Peter Selinger 2001-2019
</metadata>
<g transform="translate(0.000000,56.000000) scale(0.100000,-0.100000)"
fill="#000000" stroke="none">
<path d="M335 560 c-14 0 -25 -6 -25 -13 0 -7 -14 -26 -31 -43 -17 -16 -40
-49 -50 -72 -11 -24 -16 -48 -13 -54 4 -5 21 -7 40 -3 23 4 34 2 34 -6 0 -6
-14 -36 -31 -65 -19 -34 -39 -56 -52 -58 -12 -2 -48 -10 -81 -17 -48 -10 -62
-18 -77 -43 -11 -17 -19 -40 -19 -52 0 -11 7 -35 16 -52 10 -22 23 -32 38 -32
12 0 51 24 87 53 35 30 72 66 82 80 10 15 25 27 35 27 9 0 36 -9 60 -20 23
-10 42 -24 42 -31 0 -6 -18 -33 -41 -60 -22 -26 -57 -58 -77 -71 -28 -17 -33
-24 -19 -26 9 -2 32 2 51 8 19 6 43 19 53 28 11 9 27 31 36 47 9 17 21 36 26
44 8 12 16 10 45 -13 20 -15 41 -24 46 -21 6 3 10 14 10 24 0 9 -13 30 -30 46
-24 23 -30 37 -30 72 0 29 -4 43 -13 43 -7 0 -19 -16 -26 -35 -10 -30 -16 -35
-33 -29 -12 3 -36 13 -55 20 -18 8 -33 17 -33 20 0 3 13 24 29 47 15 23 32 57
35 74 6 27 3 37 -18 56 -14 14 -26 29 -26 34 0 5 6 21 13 36 6 15 15 27 20 27
4 0 7 7 7 15 0 9 -9 15 -25 15z m-168 -350 c13 0 23 -4 23 -9 0 -6 -10 -21
-22 -35 -13 -14 -35 -28 -50 -32 -20 -4 -28 -2 -28 7 0 7 12 26 27 41 15 15
37 28 50 28z"/>
<path d="M496 20 c-14 0 -28 -4 -31 -10 -4 -6 7 -10 24 -10 17 0 31 5 31 10 0
6 -11 10 -24 10z"/>
</g>
</svg>
