<?xml version="1.0" standalone="no"?>
<!DOCTYPE svg PUBLIC "-//W3C//DTD SVG 20010904//EN"
 "http://www.w3.org/TR/2001/REC-SVG-20010904/DTD/svg10.dtd">
<svg version="1.0" xmlns="http://www.w3.org/2000/svg"
 width="56.000000pt" height="56.000000pt" viewBox="0 0 56.000000 56.000000"
 preserveAspectRatio="xMidYMid meet">
<metadata>
Created by potrace 1.16, written by Peter Selinger 2001-2019
</metadata>
<g transform="translate(0.000000,56.000000) scale(0.100000,-0.100000)"
fill="#000000" stroke="none">
<path d="M191 536 c-44 2 -76 -3 -96 -13 -16 -9 -33 -21 -37 -27 -4 -6 -8 -22
-8 -35 0 -21 4 -23 29 -18 15 3 38 3 50 0 11 -3 21 -10 21 -15 0 -5 -14 -27
-31 -48 -31 -38 -31 -40 -15 -65 10 -14 24 -29 32 -32 8 -3 14 -14 14 -25 0
-11 -12 -41 -27 -68 -26 -47 -26 -47 3 -88 24 -34 39 -43 89 -57 33 -9 85 -20
115 -25 30 -5 65 -7 76 -4 12 3 25 1 28 -5 4 -6 18 -11 31 -11 12 0 26 8 29
17 4 10 -4 32 -22 57 -16 22 -42 44 -57 49 -18 6 -34 5 -50 -3 -14 -7 -29 -9
-37 -4 -7 5 -35 11 -63 14 -42 4 -50 8 -53 27 -3 19 6 27 54 48 32 14 62 31
66 38 4 7 8 23 8 36 0 21 -3 23 -42 19 -33 -3 -52 1 -80 19 -21 13 -38 30 -38
38 0 9 10 20 23 26 12 6 37 30 55 53 17 24 32 50 32 58 0 9 -7 22 -16 29 -9 7
-45 14 -83 15z"/>
</g>
</svg>
