<?xml version="1.0" standalone="no"?>
<!DOCTYPE svg PUBLIC "-//W3C//DTD SVG 20010904//EN"
 "http://www.w3.org/TR/2001/REC-SVG-20010904/DTD/svg10.dtd">
<svg version="1.0" xmlns="http://www.w3.org/2000/svg"
 width="56.000000pt" height="56.000000pt" viewBox="0 0 56.000000 56.000000"
 preserveAspectRatio="xMidYMid meet">
<metadata>
Created by potrace 1.16, written by Peter Selinger 2001-2019
</metadata>
<g transform="translate(0.000000,56.000000) scale(0.100000,-0.100000)"
fill="#000000" stroke="none">
<path d="M317 560 c-91 0 -104 -2 -115 -20 -6 -11 -12 -35 -12 -53 0 -24 -9
-43 -30 -65 -16 -18 -30 -35 -30 -39 0 -5 23 -28 51 -52 49 -42 51 -45 46 -85
-3 -22 -8 -53 -12 -69 -4 -15 -2 -39 4 -55 6 -15 25 -36 41 -47 16 -11 32 -26
35 -34 3 -7 0 -20 -6 -27 -9 -12 -1 -14 48 -14 54 0 61 2 71 25 7 14 12 32 12
39 0 7 -11 22 -23 35 -13 12 -31 19 -39 16 -8 -3 -33 4 -54 17 -21 12 -42 26
-46 32 -3 5 -3 16 0 25 3 9 14 22 24 29 11 8 18 26 18 46 0 27 -10 42 -56 85
-49 44 -55 53 -43 67 10 12 23 14 60 9 31 -4 49 -3 54 5 4 7 -8 28 -30 50 -21
21 -34 43 -30 49 4 8 32 9 86 5 69 -6 79 -5 79 10 0 14 -14 16 -103 16z"/>
</g>
</svg>
