<?xml version="1.0" standalone="no"?>
<!DOCTYPE svg PUBLIC "-//W3C//DTD SVG 20010904//EN"
 "http://www.w3.org/TR/2001/REC-SVG-20010904/DTD/svg10.dtd">
<svg version="1.0" xmlns="http://www.w3.org/2000/svg"
 width="56.000000pt" height="56.000000pt" viewBox="0 0 56.000000 56.000000"
 preserveAspectRatio="xMidYMid meet">
<metadata>
Created by potrace 1.16, written by Peter Selinger 2001-2019
</metadata>
<g transform="translate(0.000000,56.000000) scale(0.100000,-0.100000)"
fill="#000000" stroke="none">
<path d="M243 560 c-5 -1 -14 -8 -22 -17 -11 -12 -12 -20 -3 -34 9 -14 6 -23
-18 -49 -17 -18 -30 -37 -30 -44 0 -7 5 -17 12 -24 7 -7 21 -12 33 -12 12 0
26 -5 33 -12 7 -7 12 -17 12 -23 0 -6 -16 -30 -35 -52 -23 -27 -35 -52 -35
-70 0 -16 5 -34 12 -41 7 -7 19 -12 28 -12 9 0 24 -6 35 -13 17 -13 17 -16 -8
-63 -14 -27 -28 -59 -32 -71 -5 -19 -2 -23 18 -23 17 0 37 16 68 53 24 28 49
56 56 60 7 4 13 16 13 26 0 10 -10 27 -23 39 -13 12 -37 27 -55 33 -18 6 -32
16 -32 22 0 6 25 34 56 63 49 47 54 55 43 72 -7 11 -25 27 -41 37 -20 12 -40
15 -63 11 -21 -4 -36 -2 -41 5 -4 7 1 18 11 25 9 7 42 16 72 20 48 6 54 9 51
28 -2 14 -11 22 -28 24 -14 2 -37 8 -52 14 -16 6 -28 14 -28 19 0 5 -3 9 -7 9z"/>
</g>
</svg>
