<?xml version="1.0" standalone="no"?>
<!DOCTYPE svg PUBLIC "-//W3C//DTD SVG 20010904//EN"
 "http://www.w3.org/TR/2001/REC-SVG-20010904/DTD/svg10.dtd">
<svg version="1.0" xmlns="http://www.w3.org/2000/svg"
 width="56.000000pt" height="56.000000pt" viewBox="0 0 56.000000 56.000000"
 preserveAspectRatio="xMidYMid meet">
<metadata>
Created by potrace 1.16, written by Peter Selinger 2001-2019
</metadata>
<g transform="translate(0.000000,56.000000) scale(0.100000,-0.100000)"
fill="#000000" stroke="none">
<path d="M224 560 c-41 0 -74 -4 -74 -9 0 -6 -17 -11 -37 -13 -36 -3 -38 -5
-41 -39 -2 -24 3 -42 13 -53 9 -9 27 -16 41 -16 17 0 27 -8 34 -25 5 -14 7
-31 4 -40 -3 -8 -14 -17 -23 -20 -10 -3 -29 -18 -43 -33 -14 -15 -30 -41 -36
-58 -6 -18 -6 -37 -1 -46 5 -9 23 -19 39 -23 17 -4 37 -13 45 -22 8 -8 15 -25
15 -39 0 -13 12 -37 28 -54 22 -25 41 -33 112 -47 47 -9 111 -18 143 -20 46
-4 57 -2 57 10 0 9 -4 27 -10 41 -9 25 -12 26 -100 26 -85 0 -90 1 -106 25
-14 21 -14 28 -3 42 8 9 33 25 57 35 23 10 42 25 42 33 0 8 -10 21 -22 29 -14
10 -35 14 -62 10 -31 -4 -47 0 -65 14 -14 11 -21 24 -17 31 4 6 30 23 58 36
28 14 66 28 85 31 20 4 41 16 49 29 9 14 14 39 12 62 -2 30 -8 39 -28 45 -14
4 -38 10 -54 13 -16 4 -30 14 -33 25 -5 18 -14 20 -79 20z"/>
</g>
</svg>
