<?xml version="1.0" standalone="no"?>
<!DOCTYPE svg PUBLIC "-//W3C//DTD SVG 20010904//EN"
 "http://www.w3.org/TR/2001/REC-SVG-20010904/DTD/svg10.dtd">
<svg version="1.0" xmlns="http://www.w3.org/2000/svg"
 width="56.000000pt" height="56.000000pt" viewBox="0 0 56.000000 56.000000"
 preserveAspectRatio="xMidYMid meet">
<metadata>
Created by potrace 1.16, written by Peter Selinger 2001-2019
</metadata>
<g transform="translate(0.000000,56.000000) scale(0.100000,-0.100000)"
fill="#000000" stroke="none">
<path d="M226 560 c-13 0 -27 -7 -30 -16 -3 -9 -6 -20 -6 -25 0 -5 8 -9 19 -9
10 0 23 -6 29 -13 9 -10 4 -22 -18 -49 -17 -20 -31 -47 -32 -60 -2 -18 4 -25
30 -33 21 -6 32 -15 32 -28 0 -11 -11 -41 -25 -69 -14 -27 -25 -55 -25 -62 0
-7 23 -32 51 -56 43 -36 50 -46 44 -67 -3 -14 -13 -32 -20 -40 -8 -8 -15 -18
-15 -23 0 -5 13 -5 29 0 15 4 38 13 49 19 11 6 24 20 27 31 5 14 -4 37 -25 70
-18 28 -35 50 -39 50 -4 0 -17 9 -29 20 -21 20 -21 20 14 71 19 28 34 56 34
63 0 7 -9 22 -20 33 -10 12 -28 24 -40 28 -11 3 -20 10 -20 14 0 4 14 20 30
36 17 16 30 38 30 50 0 12 -11 31 -25 43 -14 12 -36 22 -49 22z"/>
</g>
</svg>
