<?xml version="1.0" standalone="no"?>
<!DOCTYPE svg PUBLIC "-//W3C//DTD SVG 20010904//EN"
 "http://www.w3.org/TR/2001/REC-SVG-20010904/DTD/svg10.dtd">
<svg version="1.0" xmlns="http://www.w3.org/2000/svg"
 width="56.000000pt" height="56.000000pt" viewBox="0 0 56.000000 56.000000"
 preserveAspectRatio="xMidYMid meet">
<metadata>
Created by potrace 1.16, written by Peter Selinger 2001-2019
</metadata>
<g transform="translate(0.000000,56.000000) scale(0.100000,-0.100000)"
fill="#000000" stroke="none">
<path d="M265 560 c-25 0 -35 -4 -35 -16 0 -8 12 -28 28 -43 15 -15 42 -37 59
-49 26 -19 36 -21 53 -12 11 6 20 16 20 23 0 7 -7 22 -15 33 -8 12 -28 27 -45
34 -16 7 -30 16 -30 21 0 5 -16 9 -35 9z"/>
<path d="M228 420 c-10 0 -18 -5 -18 -11 0 -7 12 -22 28 -35 15 -13 30 -24 33
-24 3 0 4 -44 1 -97 -4 -98 -4 -98 29 -110 33 -13 33 -13 1 -46 -18 -18 -50
-44 -72 -58 -22 -13 -40 -27 -40 -31 0 -5 10 -8 23 -8 12 0 39 8 59 18 19 10
48 28 63 40 15 12 34 22 41 22 7 0 29 15 48 33 35 34 35 34 7 61 -20 19 -37
26 -57 24 -21 -2 -31 3 -43 24 -13 23 -14 31 -3 48 6 11 12 36 12 55 0 31 -5
39 -47 65 -26 17 -55 30 -65 30z"/>
</g>
</svg>
