<?xml version="1.0" standalone="no"?>
<!DOCTYPE svg PUBLIC "-//W3C//DTD SVG 20010904//EN"
 "http://www.w3.org/TR/2001/REC-SVG-20010904/DTD/svg10.dtd">
<svg version="1.0" xmlns="http://www.w3.org/2000/svg"
 width="56.000000pt" height="56.000000pt" viewBox="0 0 56.000000 56.000000"
 preserveAspectRatio="xMidYMid meet">
<metadata>
Created by potrace 1.16, written by Peter Selinger 2001-2019
</metadata>
<g transform="translate(0.000000,56.000000) scale(0.100000,-0.100000)"
fill="#000000" stroke="none">
<path d="M228 559 c-13 0 -31 -8 -40 -18 -10 -10 -18 -23 -18 -29 0 -6 9 -16
19 -22 11 -5 29 -10 40 -10 12 0 21 -6 21 -13 0 -6 -18 -32 -40 -56 -23 -25
-40 -54 -40 -67 0 -18 9 -29 35 -41 19 -9 35 -21 35 -27 -1 -6 -7 -29 -15 -50
-13 -36 -12 -43 7 -80 11 -23 43 -65 71 -94 28 -28 59 -52 69 -52 13 0 18 8
18 31 0 25 -13 43 -65 94 -36 35 -65 70 -65 78 0 8 9 22 20 32 12 11 20 31 20
50 0 18 -8 39 -18 48 -10 10 -24 17 -30 17 -6 0 -14 5 -17 11 -4 5 14 32 39
59 25 27 46 55 46 63 0 7 -10 23 -23 35 -13 12 -29 22 -35 22 -7 0 -12 5 -12
10 0 6 -10 10 -22 9z"/>
</g>
</svg>
