<?xml version="1.0" standalone="no"?>
<!DOCTYPE svg PUBLIC "-//W3C//DTD SVG 20010904//EN"
 "http://www.w3.org/TR/2001/REC-SVG-20010904/DTD/svg10.dtd">
<svg version="1.0" xmlns="http://www.w3.org/2000/svg"
 width="56.000000pt" height="56.000000pt" viewBox="0 0 56.000000 56.000000"
 preserveAspectRatio="xMidYMid meet">
<metadata>
Created by potrace 1.16, written by Peter Selinger 2001-2019
</metadata>
<g transform="translate(0.000000,56.000000) scale(0.100000,-0.100000)"
fill="#000000" stroke="none">
<path d="M358 559 c-38 -1 -48 -6 -82 -45 -22 -25 -52 -52 -67 -61 -16 -10
-31 -23 -33 -30 -3 -7 8 -29 25 -48 31 -35 31 -35 -4 -79 -20 -23 -39 -55 -42
-69 -6 -22 -3 -28 19 -37 14 -5 26 -13 26 -17 0 -3 -9 -25 -20 -48 -11 -23
-18 -48 -15 -56 3 -8 25 -26 49 -42 24 -15 54 -27 67 -27 13 0 44 6 69 14 31
9 46 19 48 33 2 12 -6 24 -20 31 -13 7 -45 18 -73 25 -32 8 -51 18 -53 29 -2
9 11 32 27 51 17 19 31 42 31 51 0 9 -14 25 -31 35 -31 19 -31 19 10 52 23 18
41 40 41 50 0 11 -14 25 -35 35 -20 9 -34 22 -32 28 2 6 32 31 67 56 35 25 65
51 68 58 2 8 -9 12 -40 11z"/>
</g>
</svg>
