<?xml version="1.0" standalone="no"?>
<!DOCTYPE svg PUBLIC "-//W3C//DTD SVG 20010904//EN"
 "http://www.w3.org/TR/2001/REC-SVG-20010904/DTD/svg10.dtd">
<svg version="1.0" xmlns="http://www.w3.org/2000/svg"
 width="56.000000pt" height="56.000000pt" viewBox="0 0 56.000000 56.000000"
 preserveAspectRatio="xMidYMid meet">
<metadata>
Created by potrace 1.16, written by Peter Selinger 2001-2019
</metadata>
<g transform="translate(0.000000,56.000000) scale(0.100000,-0.100000)"
fill="#000000" stroke="none">
<path d="M280 560 c-22 0 -40 -4 -40 -8 0 -5 -16 -16 -35 -25 -22 -11 -35 -24
-35 -36 0 -11 5 -31 11 -44 9 -20 6 -30 -15 -62 -14 -21 -26 -45 -26 -54 0 -8
12 -25 26 -36 22 -18 27 -31 30 -85 3 -35 10 -70 16 -77 6 -7 15 -13 20 -13 5
0 25 -12 43 -26 19 -14 43 -41 55 -60 16 -29 25 -35 48 -32 23 3 27 8 30 39 2
27 -3 44 -23 68 -15 18 -36 31 -49 31 -12 0 -32 11 -44 23 -21 22 -22 26 -7
60 8 19 19 38 25 42 5 3 10 12 10 20 0 7 -24 22 -52 33 -43 16 -53 24 -53 43
0 17 11 30 43 47 23 13 42 30 42 38 0 9 -5 24 -11 36 -9 16 -7 24 10 42 12 12
21 25 21 29 0 4 -18 7 -40 7z"/>
<path d="M405 560 c-10 0 -15 -6 -13 -16 2 -8 7 -16 13 -17 5 -1 11 6 13 16 2
10 -3 17 -13 17z"/>
<path d="M167 90 c-3 0 -9 -5 -12 -11 -4 -5 8 -25 27 -44 24 -26 42 -35 65
-35 33 0 33 0 17 34 -12 24 -27 37 -54 45 -20 6 -40 11 -43 11z"/>
</g>
</svg>
