<?xml version="1.0" standalone="no"?>
<!DOCTYPE svg PUBLIC "-//W3C//DTD SVG 20010904//EN"
 "http://www.w3.org/TR/2001/REC-SVG-20010904/DTD/svg10.dtd">
<svg version="1.0" xmlns="http://www.w3.org/2000/svg"
 width="56.000000pt" height="56.000000pt" viewBox="0 0 56.000000 56.000000"
 preserveAspectRatio="xMidYMid meet">
<metadata>
Created by potrace 1.16, written by Peter Selinger 2001-2019
</metadata>
<g transform="translate(0.000000,56.000000) scale(0.100000,-0.100000)"
fill="#000000" stroke="none">
<path d="M249 560 c-12 0 -19 -7 -19 -20 0 -12 12 -26 31 -36 31 -16 31 -16
-1 -49 -21 -22 -28 -35 -20 -40 6 -4 36 5 66 20 35 17 54 33 54 44 0 10 -10
27 -23 39 -13 12 -31 22 -40 22 -9 0 -19 5 -22 10 -3 6 -15 10 -26 10z"/>
<path d="M224 390 c-8 0 -17 -7 -21 -16 -3 -8 4 -25 17 -40 13 -13 29 -24 36
-24 7 0 16 -5 19 -10 4 -6 -14 -34 -40 -62 -34 -38 -45 -58 -43 -77 2 -19 14
-32 43 -47 22 -11 41 -27 43 -35 1 -8 -9 -26 -23 -39 -14 -13 -25 -27 -25 -32
0 -4 8 -8 18 -8 10 0 35 17 55 38 20 21 37 47 37 59 0 12 -12 31 -26 42 -15
12 -32 21 -39 21 -7 0 -17 6 -23 13 -9 10 0 25 38 62 32 31 50 58 50 73 0 18
-10 28 -45 43 -24 11 -47 24 -50 29 -3 6 -13 10 -21 10z"/>
</g>
</svg>
