<?xml version="1.0" standalone="no"?>
<!DOCTYPE svg PUBLIC "-//W3C//DTD SVG 20010904//EN"
 "http://www.w3.org/TR/2001/REC-SVG-20010904/DTD/svg10.dtd">
<svg version="1.0" xmlns="http://www.w3.org/2000/svg"
 width="56.000000pt" height="56.000000pt" viewBox="0 0 56.000000 56.000000"
 preserveAspectRatio="xMidYMid meet">
<metadata>
Created by potrace 1.16, written by Peter Selinger 2001-2019
</metadata>
<g transform="translate(0.000000,56.000000) scale(0.100000,-0.100000)"
fill="#000000" stroke="none">
<path d="M364 418 c-22 2 -43 0 -46 -3 -3 -4 0 -21 7 -39 13 -31 12 -35 -8
-54 -12 -11 -40 -22 -62 -25 -22 -3 -62 -10 -88 -16 -27 -6 -76 -23 -108 -37
-54 -24 -59 -29 -59 -58 0 -18 5 -37 12 -44 7 -7 22 -12 35 -12 13 0 45 10 71
22 26 12 67 35 92 52 25 17 54 38 64 48 11 10 25 18 30 17 6 0 42 -6 80 -12
38 -7 71 -17 73 -24 2 -6 -12 -30 -32 -52 -20 -22 -34 -45 -30 -51 4 -7 12 -7
25 0 11 6 33 31 50 55 26 38 34 44 50 35 10 -5 23 -10 29 -10 6 0 11 8 11 18
0 10 -11 25 -25 32 -14 7 -34 28 -45 47 -10 18 -26 33 -34 33 -8 0 -17 -4 -21
-9 -3 -5 -1 -12 5 -16 5 -3 10 -13 10 -21 0 -12 -8 -14 -37 -9 -21 4 -44 9
-52 11 -10 3 -3 16 25 45 31 32 37 43 28 57 -7 10 -26 18 -50 20z m-192 -168
c4 0 9 -4 13 -10 3 -5 -7 -15 -22 -23 -15 -8 -40 -17 -55 -21 -15 -3 -29 -2
-32 3 -3 5 16 18 42 29 26 12 50 21 54 22z"/>
</g>
</svg>
