<?xml version="1.0" standalone="no"?>
<!DOCTYPE svg PUBLIC "-//W3C//DTD SVG 20010904//EN"
 "http://www.w3.org/TR/2001/REC-SVG-20010904/DTD/svg10.dtd">
<svg version="1.0" xmlns="http://www.w3.org/2000/svg"
 width="56.000000pt" height="56.000000pt" viewBox="0 0 56.000000 56.000000"
 preserveAspectRatio="xMidYMid meet">
<metadata>
Created by potrace 1.16, written by Peter Selinger 2001-2019
</metadata>
<g transform="translate(0.000000,56.000000) scale(0.100000,-0.100000)"
fill="#000000" stroke="none">
<path d="M217 560 c-8 0 -18 -7 -21 -16 -3 -9 -6 -20 -6 -25 0 -5 11 -14 25
-19 21 -8 24 -14 19 -42 -3 -18 -12 -52 -20 -75 -8 -23 -31 -61 -49 -85 -19
-24 -35 -52 -35 -63 0 -12 5 -26 12 -33 7 -7 20 -12 29 -12 9 0 33 21 51 48
19 26 47 54 62 62 27 14 29 13 53 -15 21 -24 24 -35 19 -71 -3 -27 -22 -68
-51 -111 -25 -37 -52 -71 -60 -76 -8 -4 -15 -12 -15 -17 0 -6 22 -10 49 -10
46 0 52 3 81 40 17 22 35 53 40 70 5 17 10 69 11 116 1 67 -2 88 -15 103 -10
11 -33 22 -52 25 -29 6 -34 11 -34 36 0 16 -7 51 -16 77 -9 26 -26 58 -39 71
-13 12 -31 22 -38 22z"/>
</g>
</svg>
