<?xml version="1.0" standalone="no"?>
<!DOCTYPE svg PUBLIC "-//W3C//DTD SVG 20010904//EN"
 "http://www.w3.org/TR/2001/REC-SVG-20010904/DTD/svg10.dtd">
<svg version="1.0" xmlns="http://www.w3.org/2000/svg"
 width="56.000000pt" height="56.000000pt" viewBox="0 0 56.000000 56.000000"
 preserveAspectRatio="xMidYMid meet">
<metadata>
Created by potrace 1.16, written by Peter Selinger 2001-2019
</metadata>
<g transform="translate(0.000000,56.000000) scale(0.100000,-0.100000)"
fill="#000000" stroke="none">
<path d="M273 560 c-34 0 -40 -4 -55 -38 -10 -20 -26 -51 -36 -69 -10 -17 -26
-43 -35 -57 -9 -14 -17 -39 -17 -55 0 -16 4 -32 10 -36 5 -3 20 -3 32 0 17 4
35 29 67 91 23 46 46 84 51 84 5 0 17 -17 26 -37 10 -21 26 -50 36 -65 10 -14
18 -33 18 -41 0 -7 -7 -28 -16 -45 -8 -18 -14 -40 -12 -49 2 -9 8 -18 14 -20
6 -2 23 8 37 21 25 23 27 32 27 100 0 41 -5 86 -11 99 -6 13 -31 34 -55 45
-35 17 -44 27 -44 47 0 22 -4 25 -37 25z"/>
<path d="M333 191 c-6 6 -19 -4 -38 -33 -15 -24 -50 -64 -76 -90 -27 -26 -49
-52 -49 -57 0 -6 18 -11 39 -11 32 0 44 6 70 35 17 20 31 40 31 45 0 5 8 16
17 25 9 9 16 30 16 46 0 16 -4 34 -10 40z"/>
</g>
</svg>
