<?xml version="1.0" standalone="no"?>
<!DOCTYPE svg PUBLIC "-//W3C//DTD SVG 20010904//EN"
 "http://www.w3.org/TR/2001/REC-SVG-20010904/DTD/svg10.dtd">
<svg version="1.0" xmlns="http://www.w3.org/2000/svg"
 width="56.000000pt" height="56.000000pt" viewBox="0 0 56.000000 56.000000"
 preserveAspectRatio="xMidYMid meet">
<metadata>
Created by potrace 1.16, written by Peter Selinger 2001-2019
</metadata>
<g transform="translate(0.000000,56.000000) scale(0.100000,-0.100000)"
fill="#000000" stroke="none">
<path d="M169 560 c-14 0 -19 -7 -19 -30 0 -16 -6 -47 -14 -67 -8 -21 -17 -50
-20 -65 -4 -17 -18 -34 -36 -43 -20 -10 -30 -23 -30 -39 0 -12 -9 -31 -20 -41
-11 -10 -20 -31 -20 -46 0 -19 7 -32 23 -40 12 -6 29 -19 38 -29 12 -11 27
-15 48 -12 21 3 44 19 69 46 20 23 45 45 55 49 9 4 21 17 26 31 9 21 15 24 58
22 42 -1 48 -4 51 -25 2 -13 -1 -28 -7 -34 -6 -6 -11 -19 -11 -28 0 -9 -10
-36 -22 -59 -13 -23 -38 -55 -55 -71 -18 -16 -33 -37 -33 -48 0 -15 9 -20 41
-23 22 -2 43 0 45 4 3 4 17 8 32 8 14 0 47 10 73 23 31 14 56 36 74 64 15 24
31 43 36 43 5 0 9 13 9 29 0 18 -6 31 -17 36 -17 6 -17 7 0 19 15 12 15 15 2
26 -8 7 -15 17 -15 22 0 5 -10 22 -22 38 -14 20 -39 35 -77 46 -31 10 -61 21
-67 25 -5 5 -19 6 -31 3 -11 -3 -24 -1 -27 5 -4 6 -16 11 -26 11 -16 0 -18 5
-14 29 4 20 -1 45 -16 75 -12 26 -26 46 -30 46 -5 0 -11 -6 -14 -12 -5 -10 -7
-10 -12 0 -3 6 -14 12 -25 12z"/>
</g>
</svg>
