<?xml version="1.0" standalone="no"?>
<!DOCTYPE svg PUBLIC "-//W3C//DTD SVG 20010904//EN"
 "http://www.w3.org/TR/2001/REC-SVG-20010904/DTD/svg10.dtd">
<svg version="1.0" xmlns="http://www.w3.org/2000/svg"
 width="56.000000pt" height="56.000000pt" viewBox="0 0 56.000000 56.000000"
 preserveAspectRatio="xMidYMid meet">
<metadata>
Created by potrace 1.16, written by Peter Selinger 2001-2019
</metadata>
<g transform="translate(0.000000,56.000000) scale(0.100000,-0.100000)"
fill="#000000" stroke="none">
<path d="M258 560 c-2 0 -18 -13 -36 -30 -33 -30 -33 -30 -26 -137 6 -108 6
-108 -44 -148 -28 -22 -56 -53 -63 -68 -9 -21 -9 -37 0 -66 6 -21 11 -48 11
-60 0 -12 7 -24 16 -28 10 -4 32 13 67 50 29 30 66 74 82 96 25 34 36 40 67
41 20 0 39 -3 41 -7 3 -5 8 -23 12 -41 6 -30 3 -37 -34 -72 -22 -21 -64 -49
-93 -63 -53 -25 -53 -25 28 -26 75 -1 83 1 122 30 24 17 49 44 57 59 8 15 15
56 17 92 2 57 -1 68 -27 102 -26 34 -33 37 -62 33 -20 -4 -36 -1 -40 6 -4 7
-6 42 -4 80 3 67 3 67 -43 112 -25 25 -47 45 -48 45z"/>
</g>
</svg>
