<?xml version="1.0" standalone="no"?>
<!DOCTYPE svg PUBLIC "-//W3C//DTD SVG 20010904//EN"
 "http://www.w3.org/TR/2001/REC-SVG-20010904/DTD/svg10.dtd">
<svg version="1.0" xmlns="http://www.w3.org/2000/svg"
 width="56.000000pt" height="56.000000pt" viewBox="0 0 56.000000 56.000000"
 preserveAspectRatio="xMidYMid meet">
<metadata>
Created by potrace 1.16, written by Peter Selinger 2001-2019
</metadata>
<g transform="translate(0.000000,56.000000) scale(0.100000,-0.100000)"
fill="#000000" stroke="none">
<path d="M145 510 c-1 0 -6 -7 -9 -16 -3 -9 -6 -33 -6 -54 0 -20 -6 -42 -12
-48 -7 -5 -38 -14 -68 -19 -55 -9 -55 -9 -25 -37 17 -15 40 -32 53 -37 22 -8
22 -10 7 -38 -8 -17 -15 -39 -15 -51 0 -11 5 -20 12 -20 6 0 19 7 29 16 16 14
19 11 42 -40 14 -31 30 -56 35 -56 5 0 18 10 30 23 12 13 25 38 28 57 4 19 11
40 15 46 5 5 11 38 14 72 5 61 5 61 -39 87 -42 24 -44 28 -39 60 5 31 2 36
-21 45 -15 5 -29 10 -31 10z m39 -152 c18 -3 21 -10 21 -58 0 -30 -4 -63 -7
-72 -5 -11 -13 -15 -23 -12 -9 4 -22 19 -30 34 -13 24 -12 33 2 69 13 33 21
41 37 39z"/>
<path d="M460 403 c-11 3 -23 1 -26 -4 -3 -6 6 -21 20 -34 14 -13 28 -34 31
-48 5 -17 -1 -36 -17 -61 -13 -20 -27 -36 -31 -36 -5 0 -29 -14 -55 -32 -26
-17 -54 -39 -62 -47 -8 -9 -36 -33 -63 -54 -26 -21 -45 -43 -42 -48 4 -5 15
-9 26 -9 10 0 19 5 19 10 0 6 6 10 13 10 8 0 36 21 63 46 27 25 58 50 69 55
11 6 43 22 70 37 28 15 54 37 60 50 5 12 13 22 17 22 5 0 8 9 8 20 0 11 -12
38 -27 59 -16 22 -34 40 -40 41 -7 0 -13 4 -13 9 0 5 -9 11 -20 14z"/>
</g>
</svg>
