<?xml version="1.0" standalone="no"?>
<!DOCTYPE svg PUBLIC "-//W3C//DTD SVG 20010904//EN"
 "http://www.w3.org/TR/2001/REC-SVG-20010904/DTD/svg10.dtd">
<svg version="1.0" xmlns="http://www.w3.org/2000/svg"
 width="56.000000pt" height="56.000000pt" viewBox="0 0 56.000000 56.000000"
 preserveAspectRatio="xMidYMid meet">
<metadata>
Created by potrace 1.16, written by Peter Selinger 2001-2019
</metadata>
<g transform="translate(0.000000,56.000000) scale(0.100000,-0.100000)"
fill="#000000" stroke="none">
<path d="M97 480 c-9 0 -18 -4 -22 -9 -3 -5 6 -27 21 -48 25 -38 25 -38 -3
-60 -15 -13 -33 -23 -38 -23 -6 0 -21 -7 -33 -16 -22 -15 -22 -15 3 -61 14
-25 40 -63 57 -84 17 -21 48 -50 70 -64 22 -14 46 -25 55 -23 8 2 27 25 41 51
14 27 31 74 38 105 8 32 14 78 14 104 0 41 -4 49 -31 69 -29 20 -35 21 -67 9
-34 -12 -36 -11 -62 19 -15 17 -35 31 -43 31z m116 -70 c7 0 18 -5 25 -12 7
-7 12 -30 12 -52 0 -23 -10 -74 -22 -113 -18 -57 -27 -73 -41 -73 -11 0 -42
21 -71 46 -28 26 -54 55 -58 65 -5 13 1 25 24 44 17 14 36 24 42 22 6 -2 16
-20 21 -41 6 -20 14 -37 18 -37 4 0 12 1 19 3 7 3 8 18 0 53 -9 40 -8 54 4 73
8 12 20 22 27 22z"/>
<path d="M455 479 c-16 0 -36 -3 -42 -6 -7 -2 -13 -11 -13 -20 0 -10 6 -12 19
-8 11 3 22 1 26 -5 3 -5 15 -10 26 -10 12 0 19 -7 19 -19 0 -11 -14 -46 -32
-78 -17 -32 -50 -84 -72 -117 -23 -32 -49 -70 -58 -85 -10 -14 -18 -34 -18
-44 0 -10 7 -20 15 -23 9 -4 28 -1 43 5 22 9 27 18 28 49 0 20 9 53 20 73 10
20 43 71 72 113 29 42 57 76 62 76 6 0 10 7 10 15 0 8 -17 31 -37 50 -27 25
-46 35 -68 34z"/>
</g>
</svg>
