<?xml version="1.0" standalone="no"?>
<!DOCTYPE svg PUBLIC "-//W3C//DTD SVG 20010904//EN"
 "http://www.w3.org/TR/2001/REC-SVG-20010904/DTD/svg10.dtd">
<svg version="1.0" xmlns="http://www.w3.org/2000/svg"
 width="56.000000pt" height="56.000000pt" viewBox="0 0 56.000000 56.000000"
 preserveAspectRatio="xMidYMid meet">
<metadata>
Created by potrace 1.16, written by Peter Selinger 2001-2019
</metadata>
<g transform="translate(0.000000,56.000000) scale(0.100000,-0.100000)"
fill="#000000" stroke="none">
<path d="M182 480 c-16 0 -35 -7 -42 -15 -6 -8 -9 -19 -5 -25 3 -5 15 -10 26
-10 14 0 19 -7 19 -30 0 -18 -7 -33 -18 -39 -11 -6 -33 -6 -57 -1 -21 5 -43 7
-47 4 -4 -3 -8 -11 -8 -18 0 -8 14 -16 30 -20 17 -3 33 -12 36 -19 3 -8 -9
-36 -27 -63 -18 -27 -45 -61 -61 -76 -15 -15 -28 -34 -28 -42 0 -9 6 -16 13
-16 6 0 24 14 40 32 27 33 27 33 48 8 12 -14 26 -37 31 -52 6 -16 17 -28 25
-28 8 0 30 16 48 36 18 20 50 69 70 109 29 58 35 81 30 105 -4 16 -15 35 -25
40 -14 8 -21 6 -28 -6 -5 -9 -7 -35 -5 -59 4 -34 -1 -52 -27 -98 -17 -31 -35
-57 -39 -57 -4 0 -20 13 -36 30 -28 29 -28 29 14 84 22 30 41 59 41 64 0 5 9
17 20 27 11 10 20 29 20 42 0 13 -4 31 -9 41 -5 9 -12 25 -15 35 -3 11 -15 17
-34 17z"/>
<path d="M449 403 c-14 4 -29 4 -33 0 -3 -3 -6 -12 -6 -20 0 -7 6 -13 14 -13
7 0 25 -9 40 -21 15 -12 26 -30 26 -44 0 -16 -26 -47 -91 -107 -50 -45 -95
-84 -100 -86 -5 -2 -9 -15 -9 -28 0 -14 7 -27 17 -31 12 -5 30 8 62 45 25 29
51 52 56 52 6 0 29 22 52 49 24 27 48 61 54 75 7 14 16 26 21 26 4 0 8 8 8 18
0 9 -20 31 -43 48 -23 17 -54 34 -68 37z"/>
</g>
</svg>
