<?xml version="1.0" standalone="no"?>
<!DOCTYPE svg PUBLIC "-//W3C//DTD SVG 20010904//EN"
 "http://www.w3.org/TR/2001/REC-SVG-20010904/DTD/svg10.dtd">
<svg version="1.0" xmlns="http://www.w3.org/2000/svg"
 width="56.000000pt" height="56.000000pt" viewBox="0 0 56.000000 56.000000"
 preserveAspectRatio="xMidYMid meet">
<metadata>
Created by potrace 1.16, written by Peter Selinger 2001-2019
</metadata>
<g transform="translate(0.000000,56.000000) scale(0.100000,-0.100000)"
fill="#000000" stroke="none">
<path d="M437 439 c-1 0 -8 -3 -14 -6 -7 -2 -13 -11 -13 -19 0 -8 8 -18 18
-21 9 -4 22 -14 29 -22 7 -9 13 -31 13 -48 0 -32 1 -33 45 -33 45 0 45 0 45
44 0 43 0 44 -61 75 -33 17 -61 31 -62 30z"/>
<path d="M126 340 c-8 0 -16 -12 -18 -27 -2 -21 -10 -29 -38 -36 -19 -5 -41
-14 -49 -22 -11 -11 -10 -15 10 -25 13 -7 32 -13 44 -14 13 -1 20 -8 20 -21 0
-11 6 -20 13 -19 6 1 16 2 21 3 5 0 12 21 15 46 5 31 14 48 28 56 18 10 24 8
38 -9 13 -15 15 -31 11 -59 -5 -32 -10 -38 -30 -38 -13 0 -26 -5 -28 -12 -2
-6 5 -21 16 -32 12 -12 30 -21 41 -21 11 0 27 12 36 26 10 14 20 45 24 70 5
30 2 53 -8 74 -8 17 -24 36 -34 41 -11 6 -37 8 -59 4 -25 -4 -39 -3 -39 4 0 6
-6 11 -14 11z"/>
</g>
</svg>
