<?xml version="1.0" standalone="no"?>
<!DOCTYPE svg PUBLIC "-//W3C//DTD SVG 20010904//EN"
 "http://www.w3.org/TR/2001/REC-SVG-20010904/DTD/svg10.dtd">
<svg version="1.0" xmlns="http://www.w3.org/2000/svg"
 width="56.000000pt" height="56.000000pt" viewBox="0 0 56.000000 56.000000"
 preserveAspectRatio="xMidYMid meet">
<metadata>
Created by potrace 1.16, written by Peter Selinger 2001-2019
</metadata>
<g transform="translate(0.000000,56.000000) scale(0.100000,-0.100000)"
fill="#000000" stroke="none">
<path d="M262 560 c-31 0 -41 -5 -55 -29 -9 -16 -17 -36 -17 -44 0 -8 20 -33
45 -56 25 -23 54 -41 63 -39 11 2 18 15 20 35 3 27 -2 34 -27 48 -17 8 -31 19
-31 24 0 4 9 16 20 26 11 10 20 22 20 27 0 4 -17 8 -38 8z"/>
<path d="M255 250 c-16 -1 -45 -7 -62 -15 -18 -8 -38 -26 -45 -40 -8 -17 -9
-37 -2 -62 5 -20 16 -41 26 -46 12 -8 21 -7 34 4 9 8 26 33 36 57 10 23 24 42
31 42 7 0 23 -7 35 -16 12 -8 22 -26 22 -39 0 -14 -20 -45 -51 -79 -51 -56
-51 -56 -17 -56 21 0 51 12 85 35 36 24 55 45 63 69 9 29 8 40 -5 66 -11 21
-34 40 -68 56 -29 13 -65 24 -82 24z"/>
</g>
</svg>
