<?xml version="1.0" standalone="no"?>
<!DOCTYPE svg PUBLIC "-//W3C//DTD SVG 20010904//EN"
 "http://www.w3.org/TR/2001/REC-SVG-20010904/DTD/svg10.dtd">
<svg version="1.0" xmlns="http://www.w3.org/2000/svg"
 width="56.000000pt" height="56.000000pt" viewBox="0 0 56.000000 56.000000"
 preserveAspectRatio="xMidYMid meet">
<metadata>
Created by potrace 1.16, written by Peter Selinger 2001-2019
</metadata>
<g transform="translate(0.000000,56.000000) scale(0.100000,-0.100000)"
fill="#000000" stroke="none">
<path d="M270 556 c-8 0 -30 -7 -48 -16 -33 -16 -33 -16 -13 -35 13 -11 21
-31 21 -50 0 -18 -11 -49 -26 -71 -15 -21 -32 -42 -39 -47 -8 -4 -16 -20 -20
-36 -3 -17 -1 -39 5 -50 6 -12 17 -21 25 -21 8 0 29 19 45 43 17 23 37 50 45
59 8 10 22 14 35 11 12 -3 26 -17 31 -30 5 -13 9 -38 9 -55 0 -16 -8 -43 -17
-59 -10 -16 -21 -29 -25 -29 -4 0 -20 -19 -35 -42 -20 -29 -43 -48 -80 -64
-40 -18 -53 -29 -53 -45 0 -19 4 -21 38 -14 20 3 61 21 91 38 29 18 69 50 87
71 19 22 45 62 59 90 14 27 25 66 25 86 0 21 -10 50 -25 73 -19 26 -33 37 -53
38 -15 1 -33 1 -40 0 -10 -2 -11 13 -6 63 5 49 3 68 -7 79 -8 7 -21 14 -29 13z"/>
</g>
</svg>
