<?xml version="1.0" standalone="no"?>
<!DOCTYPE svg PUBLIC "-//W3C//DTD SVG 20010904//EN"
 "http://www.w3.org/TR/2001/REC-SVG-20010904/DTD/svg10.dtd">
<svg version="1.0" xmlns="http://www.w3.org/2000/svg"
 width="56.000000pt" height="56.000000pt" viewBox="0 0 56.000000 56.000000"
 preserveAspectRatio="xMidYMid meet">
<metadata>
Created by potrace 1.16, written by Peter Selinger 2001-2019
</metadata>
<g transform="translate(0.000000,56.000000) scale(0.100000,-0.100000)"
fill="#000000" stroke="none">
<path d="M312 560 c-23 0 -30 -6 -41 -35 -7 -19 -40 -72 -74 -118 -34 -45 -67
-98 -74 -117 -7 -19 -13 -52 -13 -72 0 -27 5 -40 19 -48 17 -9 22 -4 44 43 14
28 29 65 33 81 7 20 20 33 48 44 39 15 39 15 73 -21 29 -32 33 -43 33 -92 0
-54 0 -55 -52 -93 -29 -22 -64 -51 -77 -66 -17 -18 -35 -26 -57 -26 -17 0 -42
-9 -55 -20 -24 -19 -24 -19 29 -20 30 0 66 6 80 14 15 8 50 24 79 35 28 12 58
21 65 21 7 0 25 15 39 33 15 18 29 51 33 72 4 22 2 64 -3 93 -6 28 -20 65 -31
80 -13 18 -41 35 -75 47 -30 10 -55 22 -55 26 0 4 5 11 10 14 6 3 10 14 10 23
0 9 9 28 20 42 11 14 20 33 20 43 0 12 -8 17 -28 17z"/>
</g>
</svg>
