<?xml version="1.0" standalone="no"?>
<!DOCTYPE svg PUBLIC "-//W3C//DTD SVG 20010904//EN"
 "http://www.w3.org/TR/2001/REC-SVG-20010904/DTD/svg10.dtd">
<svg version="1.0" xmlns="http://www.w3.org/2000/svg"
 width="56.000000pt" height="56.000000pt" viewBox="0 0 56.000000 56.000000"
 preserveAspectRatio="xMidYMid meet">
<metadata>
Created by potrace 1.16, written by Peter Selinger 2001-2019
</metadata>
<g transform="translate(0.000000,56.000000) scale(0.100000,-0.100000)"
fill="#000000" stroke="none">
<path d="M298 560 c-5 0 -8 -9 -8 -21 0 -11 5 -30 11 -42 6 -12 21 -32 32 -44
11 -13 30 -23 43 -23 12 0 25 8 28 17 5 12 -8 30 -46 65 -29 26 -56 47 -60 48z"/>
<path d="M239 359 c-9 1 -31 -9 -50 -22 -19 -12 -43 -39 -54 -59 -15 -29 -17
-43 -10 -64 6 -15 18 -32 27 -38 13 -8 27 -5 60 14 24 13 58 36 76 52 26 22
37 26 47 18 8 -7 19 -28 26 -47 8 -24 9 -66 5 -125 -7 -88 -7 -88 34 -88 40 0
40 0 40 68 0 37 -7 93 -14 125 -8 33 -27 78 -44 100 -24 34 -39 44 -78 54 -27
6 -56 12 -65 12z"/>
</g>
</svg>
