<?xml version="1.0" standalone="no"?>
<!DOCTYPE svg PUBLIC "-//W3C//DTD SVG 20010904//EN"
 "http://www.w3.org/TR/2001/REC-SVG-20010904/DTD/svg10.dtd">
<svg version="1.0" xmlns="http://www.w3.org/2000/svg"
 width="56.000000pt" height="56.000000pt" viewBox="0 0 56.000000 56.000000"
 preserveAspectRatio="xMidYMid meet">
<metadata>
Created by potrace 1.16, written by Peter Selinger 2001-2019
</metadata>
<g transform="translate(0.000000,56.000000) scale(0.100000,-0.100000)"
fill="#000000" stroke="none">
<path d="M241 560 c-10 0 -22 -7 -25 -16 -3 -9 -6 -24 -6 -34 0 -9 7 -23 15
-30 11 -9 13 -23 9 -54 -4 -22 -10 -45 -15 -50 -5 -6 -9 -19 -9 -30 0 -11 -5
-36 -11 -55 -6 -20 -16 -44 -21 -54 -5 -10 -7 -26 -4 -35 4 -10 -4 -28 -18
-43 -14 -15 -26 -35 -28 -45 -2 -16 2 -18 27 -16 17 2 39 12 51 23 11 10 25
19 31 19 6 0 27 12 48 26 23 15 41 22 47 16 5 -5 10 -24 10 -43 1 -19 -2 -58
-7 -87 -8 -53 -8 -53 26 -50 33 3 34 5 39 53 3 28 9 55 13 62 4 6 3 14 -3 18
-5 3 -10 17 -10 30 0 18 -9 29 -36 41 -20 10 -53 18 -73 20 -20 1 -37 2 -39 3
-2 1 3 13 11 29 8 15 20 44 27 65 6 21 12 58 12 82 0 24 -7 57 -16 72 -8 15
-17 40 -21 56 -3 18 -12 27 -24 27z"/>
<path d="M370 480 c-5 0 -12 -4 -15 -10 -3 -5 9 -39 27 -76 19 -36 38 -67 43
-68 6 0 11 15 13 34 2 26 -5 45 -28 78 -18 23 -36 42 -40 42z"/>
</g>
</svg>
