<?xml version="1.0" standalone="no"?>
<!DOCTYPE svg PUBLIC "-//W3C//DTD SVG 20010904//EN"
 "http://www.w3.org/TR/2001/REC-SVG-20010904/DTD/svg10.dtd">
<svg version="1.0" xmlns="http://www.w3.org/2000/svg"
 width="56.000000pt" height="56.000000pt" viewBox="0 0 56.000000 56.000000"
 preserveAspectRatio="xMidYMid meet">
<metadata>
Created by potrace 1.16, written by Peter Selinger 2001-2019
</metadata>
<g transform="translate(0.000000,56.000000) scale(0.100000,-0.100000)"
fill="#000000" stroke="none">
<path d="M218 560 c-74 0 -88 -3 -88 -16 0 -13 11 -15 62 -12 59 3 62 2 79
-27 10 -16 18 -40 18 -52 1 -13 -15 -38 -36 -60 -21 -21 -52 -50 -70 -63 -18
-14 -35 -37 -39 -52 -4 -19 -2 -28 6 -28 6 0 25 9 41 21 17 12 46 21 65 22 23
1 42 -6 56 -21 22 -22 22 -22 4 -129 -9 -60 -20 -116 -22 -125 -5 -15 2 -18
39 -18 44 0 45 0 56 44 6 25 11 70 11 102 0 31 -5 74 -12 96 -7 23 -28 54 -51
75 -40 36 -40 36 -19 77 12 23 22 55 22 73 0 17 -8 45 -17 62 -18 31 -18 31
-105 31z"/>
</g>
</svg>
