<?xml version="1.0" standalone="no"?>
<!DOCTYPE svg PUBLIC "-//W3C//DTD SVG 20010904//EN"
 "http://www.w3.org/TR/2001/REC-SVG-20010904/DTD/svg10.dtd">
<svg version="1.0" xmlns="http://www.w3.org/2000/svg"
 width="56.000000pt" height="56.000000pt" viewBox="0 0 56.000000 56.000000"
 preserveAspectRatio="xMidYMid meet">
<metadata>
Created by potrace 1.16, written by Peter Selinger 2001-2019
</metadata>
<g transform="translate(0.000000,56.000000) scale(0.100000,-0.100000)"
fill="#000000" stroke="none">
<path d="M219 523 c-19 5 -20 2 -14 -34 5 -26 1 -53 -10 -82 -10 -27 -34 -58
-61 -81 -24 -20 -44 -41 -44 -46 0 -5 7 -16 16 -24 9 -10 33 -16 58 -16 32 0
48 6 66 25 15 16 34 25 55 25 20 0 39 -8 53 -23 14 -15 22 -36 22 -59 0 -26
-10 -49 -35 -82 -19 -26 -35 -50 -35 -55 0 -5 -13 -21 -30 -34 -16 -14 -30
-28 -30 -31 0 -3 17 -6 38 -6 32 0 40 5 56 34 11 21 33 40 59 52 32 15 43 26
50 54 5 19 7 62 4 95 -5 56 -9 63 -49 97 -29 26 -53 38 -73 38 -16 0 -34 4
-40 8 -5 4 -10 30 -11 59 -1 29 -6 59 -13 67 -6 7 -21 16 -32 19z"/>
</g>
</svg>
