<?xml version="1.0" standalone="no"?>
<!DOCTYPE svg PUBLIC "-//W3C//DTD SVG 20010904//EN"
 "http://www.w3.org/TR/2001/REC-SVG-20010904/DTD/svg10.dtd">
<svg version="1.0" xmlns="http://www.w3.org/2000/svg"
 width="56.000000pt" height="56.000000pt" viewBox="0 0 56.000000 56.000000"
 preserveAspectRatio="xMidYMid meet">
<metadata>
Created by potrace 1.16, written by Peter Selinger 2001-2019
</metadata>
<g transform="translate(0.000000,56.000000) scale(0.100000,-0.100000)"
fill="#000000" stroke="none">
<path d="M235 490 c-13 10 -15 9 -15 -9 0 -11 -9 -26 -21 -33 -11 -7 -26 -26
-34 -43 -7 -16 -20 -57 -29 -90 -11 -46 -12 -63 -3 -72 9 -9 22 -5 57 20 36
25 55 32 95 32 28 0 58 -3 68 -7 12 -5 17 -19 17 -44 0 -28 -15 -59 -70 -140
-71 -104 -71 -104 -38 -104 28 0 41 10 92 70 32 38 64 81 72 96 8 14 14 41 14
59 0 26 -10 41 -48 77 -30 28 -68 52 -101 63 -53 17 -53 17 -47 65 5 36 3 50
-9 60z"/>
</g>
</svg>
