<?xml version="1.0" standalone="no"?>
<!DOCTYPE svg PUBLIC "-//W3C//DTD SVG 20010904//EN"
 "http://www.w3.org/TR/2001/REC-SVG-20010904/DTD/svg10.dtd">
<svg version="1.0" xmlns="http://www.w3.org/2000/svg"
 width="56.000000pt" height="56.000000pt" viewBox="0 0 56.000000 56.000000"
 preserveAspectRatio="xMidYMid meet">
<metadata>
Created by potrace 1.16, written by Peter Selinger 2001-2019
</metadata>
<g transform="translate(0.000000,56.000000) scale(0.100000,-0.100000)"
fill="#000000" stroke="none">
<path d="M336 560 c-29 0 -46 -5 -49 -14 -3 -8 -39 -40 -80 -71 -41 -31 -80
-69 -87 -84 -6 -16 -10 -44 -8 -62 2 -23 9 -35 21 -37 10 -2 34 8 53 23 20 15
33 32 31 39 -3 7 16 22 44 35 26 13 55 21 64 18 8 -4 15 -18 15 -33 0 -14 7
-41 16 -59 14 -31 14 -36 -9 -91 -14 -33 -23 -62 -20 -66 2 -5 12 -8 22 -8 11
0 33 22 55 53 31 45 36 60 36 109 0 47 -5 65 -31 102 -16 25 -43 53 -60 63
-16 9 -29 23 -29 29 0 6 14 17 30 24 17 7 30 16 30 21 0 5 -20 9 -44 9z"/>
<path d="M311 130 c-4 0 -18 -15 -32 -32 -13 -18 -30 -44 -36 -57 -7 -13 -13
-27 -13 -32 0 -5 16 -9 35 -9 19 0 35 5 35 10 0 6 -4 10 -10 10 -5 0 -10 5
-10 11 0 5 13 24 29 42 23 23 27 34 19 44 -6 7 -14 13 -17 13z"/>
</g>
</svg>
