<?xml version="1.0" standalone="no"?>
<!DOCTYPE svg PUBLIC "-//W3C//DTD SVG 20010904//EN"
 "http://www.w3.org/TR/2001/REC-SVG-20010904/DTD/svg10.dtd">
<svg version="1.0" xmlns="http://www.w3.org/2000/svg"
 width="56.000000pt" height="56.000000pt" viewBox="0 0 56.000000 56.000000"
 preserveAspectRatio="xMidYMid meet">
<metadata>
Created by potrace 1.16, written by Peter Selinger 2001-2019
</metadata>
<g transform="translate(0.000000,56.000000) scale(0.100000,-0.100000)"
fill="#000000" stroke="none">
<path d="M403 560 c-53 -1 -60 -4 -88 -36 -16 -19 -41 -37 -53 -40 -13 -4 -59
-33 -103 -65 -75 -56 -79 -61 -79 -98 0 -24 8 -48 21 -65 11 -14 30 -26 41
-26 11 0 38 16 59 35 22 19 46 35 54 35 9 0 25 16 36 35 12 20 29 35 40 35 12
0 24 -12 32 -32 13 -30 12 -35 -10 -61 -12 -16 -23 -32 -23 -36 0 -4 -25 -32
-55 -62 -31 -30 -67 -72 -82 -94 -15 -22 -38 -50 -52 -62 -26 -23 -26 -23 47
-23 67 0 73 2 84 25 6 14 22 32 35 40 12 9 23 22 23 30 0 8 11 22 25 31 15 9
25 26 25 39 0 13 10 30 25 39 14 9 25 25 25 36 0 10 5 22 11 26 7 4 9 22 4 50
-3 24 -13 57 -21 74 -9 16 -19 30 -23 30 -4 0 -15 6 -25 13 -17 12 -17 15 4
50 12 20 30 37 39 37 9 0 22 5 29 12 7 7 12 16 12 20 0 4 -26 8 -57 8z"/>
</g>
</svg>
