<?xml version="1.0" standalone="no"?>
<!DOCTYPE svg PUBLIC "-//W3C//DTD SVG 20010904//EN"
 "http://www.w3.org/TR/2001/REC-SVG-20010904/DTD/svg10.dtd">
<svg version="1.0" xmlns="http://www.w3.org/2000/svg"
 width="56.000000pt" height="56.000000pt" viewBox="0 0 56.000000 56.000000"
 preserveAspectRatio="xMidYMid meet">
<metadata>
Created by potrace 1.16, written by Peter Selinger 2001-2019
</metadata>
<g transform="translate(0.000000,56.000000) scale(0.100000,-0.100000)"
fill="#000000" stroke="none">
<path d="M341 560 c-34 0 -40 -3 -46 -27 -3 -15 -15 -39 -26 -54 -10 -15 -19
-33 -19 -41 0 -8 5 -19 12 -26 7 -7 17 -12 23 -12 5 0 29 30 53 67 23 37 42
73 42 80 0 8 -14 13 -39 13z"/>
<path d="M286 339 c-17 0 -49 -11 -71 -24 -22 -12 -42 -30 -43 -40 -2 -9 2
-30 8 -46 7 -16 18 -29 25 -29 8 0 23 12 34 26 12 15 21 32 21 39 0 7 7 18 15
25 11 9 19 7 39 -14 24 -23 25 -30 20 -88 -3 -35 -12 -83 -19 -108 -7 -25 -16
-53 -20 -62 -6 -15 -2 -18 24 -18 23 0 31 5 31 18 0 9 7 30 15 45 8 17 15 61
16 105 2 47 -3 87 -11 102 -7 14 -22 35 -33 48 -13 14 -31 22 -51 21z"/>
</g>
</svg>
