<?xml version="1.0" standalone="no"?>
<!DOCTYPE svg PUBLIC "-//W3C//DTD SVG 20010904//EN"
 "http://www.w3.org/TR/2001/REC-SVG-20010904/DTD/svg10.dtd">
<svg version="1.0" xmlns="http://www.w3.org/2000/svg"
 width="56.000000pt" height="56.000000pt" viewBox="0 0 56.000000 56.000000"
 preserveAspectRatio="xMidYMid meet">
<metadata>
Created by potrace 1.16, written by Peter Selinger 2001-2019
</metadata>
<g transform="translate(0.000000,56.000000) scale(0.100000,-0.100000)"
fill="#000000" stroke="none">
<path d="M332 560 c-25 0 -31 -7 -52 -57 -13 -31 -38 -73 -55 -92 -17 -20 -37
-50 -44 -68 -7 -17 -10 -37 -6 -43 4 -6 30 -10 62 -9 38 2 57 -2 64 -12 5 -8
6 -27 3 -43 -3 -16 -21 -54 -39 -85 -18 -31 -52 -77 -75 -103 -42 -48 -42 -48
7 -48 39 0 54 5 70 23 12 12 46 60 77 107 45 67 56 92 56 125 0 32 -7 47 -33
75 -18 19 -42 40 -52 46 -18 10 -18 11 2 50 11 21 25 55 32 75 6 19 11 41 11
47 0 7 -13 12 -28 12z"/>
</g>
</svg>
