<?xml version="1.0" standalone="no"?>
<!DOCTYPE svg PUBLIC "-//W3C//DTD SVG 20010904//EN"
 "http://www.w3.org/TR/2001/REC-SVG-20010904/DTD/svg10.dtd">
<svg version="1.0" xmlns="http://www.w3.org/2000/svg"
 width="56.000000pt" height="56.000000pt" viewBox="0 0 56.000000 56.000000"
 preserveAspectRatio="xMidYMid meet">
<metadata>
Created by potrace 1.16, written by Peter Selinger 2001-2019
</metadata>
<g transform="translate(0.000000,56.000000) scale(0.100000,-0.100000)"
fill="#000000" stroke="none">
<path d="M220 540 c-10 0 -21 -4 -24 -9 -3 -5 1 -14 9 -21 8 -7 15 -18 15 -25
0 -7 -13 -39 -29 -71 -15 -33 -31 -76 -35 -97 -6 -30 -4 -39 10 -44 11 -4 23
2 35 18 11 13 22 35 26 49 3 14 13 35 22 47 9 12 26 23 39 23 12 0 31 -9 42
-20 11 -11 20 -30 20 -42 0 -13 -13 -49 -29 -80 -16 -31 -44 -76 -62 -99 -19
-24 -40 -50 -47 -58 -8 -8 -12 -22 -9 -31 2 -9 -2 -25 -9 -35 -8 -10 -14 -25
-14 -32 0 -7 9 -13 19 -13 11 0 23 10 27 23 4 12 8 27 8 32 1 6 17 33 36 60
19 28 49 70 68 94 18 24 39 59 47 79 8 19 15 46 15 59 0 14 -10 39 -22 56 -12
18 -27 35 -33 39 -5 4 -20 8 -33 8 -12 0 -25 8 -29 18 -3 9 -15 29 -25 45 -11
15 -28 27 -38 27z"/>
</g>
</svg>
