<?xml version="1.0" standalone="no"?>
<!DOCTYPE svg PUBLIC "-//W3C//DTD SVG 20010904//EN"
 "http://www.w3.org/TR/2001/REC-SVG-20010904/DTD/svg10.dtd">
<svg version="1.0" xmlns="http://www.w3.org/2000/svg"
 width="56.000000pt" height="56.000000pt" viewBox="0 0 56.000000 56.000000"
 preserveAspectRatio="xMidYMid meet">
<metadata>
Created by potrace 1.16, written by Peter Selinger 2001-2019
</metadata>
<g transform="translate(0.000000,56.000000) scale(0.100000,-0.100000)"
fill="#000000" stroke="none">
<path d="M133 560 c-7 0 -13 -4 -13 -10 0 -5 7 -10 15 -10 8 0 15 -9 15 -19 0
-12 11 -23 29 -29 20 -7 30 -19 34 -38 3 -16 1 -37 -4 -47 -6 -9 -30 -36 -55
-59 -44 -41 -45 -42 -42 -97 3 -47 6 -56 23 -59 16 -2 27 9 47 51 15 29 38 63
51 75 23 22 23 22 57 -19 18 -23 37 -59 42 -82 6 -26 5 -44 -2 -51 -5 -5 -10
-16 -10 -22 0 -7 -15 -28 -33 -47 -17 -19 -41 -50 -51 -67 -19 -33 -19 -33 22
-28 30 4 56 19 96 54 31 26 56 53 56 60 0 6 7 17 15 24 8 7 15 28 15 47 0 20
-9 46 -20 60 -11 14 -20 31 -20 38 0 7 -21 36 -46 64 -44 49 -46 53 -34 81 7
16 9 42 5 59 -4 17 -11 34 -16 37 -6 3 -40 8 -76 10 -37 2 -71 8 -77 14 -5 5
-16 10 -23 10z"/>
</g>
</svg>
