<?xml version="1.0" standalone="no"?>
<!DOCTYPE svg PUBLIC "-//W3C//DTD SVG 20010904//EN"
 "http://www.w3.org/TR/2001/REC-SVG-20010904/DTD/svg10.dtd">
<svg version="1.0" xmlns="http://www.w3.org/2000/svg"
 width="56.000000pt" height="56.000000pt" viewBox="0 0 56.000000 56.000000"
 preserveAspectRatio="xMidYMid meet">
<metadata>
Created by potrace 1.16, written by Peter Selinger 2001-2019
</metadata>
<g transform="translate(0.000000,56.000000) scale(0.100000,-0.100000)"
fill="#000000" stroke="none">
<path d="M256 520 c-18 0 -36 -3 -39 -6 -4 -4 4 -20 17 -35 14 -17 22 -36 19
-47 -2 -11 -19 -35 -36 -53 -27 -29 -31 -42 -32 -89 0 -45 3 -55 18 -58 10 -2
35 12 58 33 22 20 46 34 52 32 7 -2 18 -15 26 -28 13 -23 11 -32 -22 -101 -20
-42 -55 -96 -77 -120 -39 -43 -39 -43 10 -46 48 -3 50 -2 106 55 31 32 67 79
80 105 13 26 24 60 24 76 0 18 -14 46 -36 74 -26 34 -44 48 -70 53 -19 3 -37
12 -40 20 -3 7 2 27 10 44 9 16 16 39 16 51 0 13 -7 20 -19 20 -11 0 -23 5
-26 10 -3 6 -21 10 -39 10z"/>
</g>
</svg>
