<?xml version="1.0" standalone="no"?>
<!DOCTYPE svg PUBLIC "-//W3C//DTD SVG 20010904//EN"
 "http://www.w3.org/TR/2001/REC-SVG-20010904/DTD/svg10.dtd">
<svg version="1.0" xmlns="http://www.w3.org/2000/svg"
 width="56.000000pt" height="56.000000pt" viewBox="0 0 56.000000 56.000000"
 preserveAspectRatio="xMidYMid meet">
<metadata>
Created by potrace 1.16, written by Peter Selinger 2001-2019
</metadata>
<g transform="translate(0.000000,56.000000) scale(0.100000,-0.100000)"
fill="#000000" stroke="none">
<path d="M190 475 c-37 3 -49 1 -54 -11 -3 -9 -6 -26 -6 -38 0 -12 -7 -31 -15
-43 -11 -16 -28 -23 -60 -25 -25 -2 -46 -7 -48 -13 -1 -5 14 -15 33 -21 22 -7
36 -19 38 -31 2 -10 -13 -40 -33 -66 -20 -26 -33 -52 -30 -57 3 -6 12 -10 20
-10 7 0 21 -7 30 -16 9 -9 15 -28 13 -43 -3 -23 1 -26 33 -29 33 -3 39 1 52
28 16 31 16 31 -24 72 -21 22 -39 46 -39 54 0 7 16 43 35 81 19 37 38 83 41
101 3 18 10 34 14 37 4 3 20 -2 36 -9 16 -8 50 -23 75 -35 26 -11 77 -46 113
-77 36 -31 66 -64 66 -74 0 -9 -8 -24 -17 -32 -10 -8 -45 -25 -78 -37 -33 -12
-78 -30 -100 -41 -22 -10 -48 -21 -58 -24 -11 -3 -17 -13 -15 -23 2 -14 15
-19 51 -21 34 -2 55 2 75 16 15 11 41 22 57 25 17 2 44 10 60 16 17 6 47 13
68 16 33 5 37 9 37 35 0 17 -4 30 -10 30 -5 0 -10 8 -10 18 0 9 -9 35 -19 57
-11 22 -30 52 -43 66 -12 15 -45 40 -72 58 -28 17 -60 31 -72 31 -12 0 -38 7
-59 16 -21 8 -59 17 -85 19z"/>
<path d="M210 360 c-9 0 -20 -3 -23 -6 -3 -4 -2 -15 4 -26 6 -10 7 -29 4 -41
-4 -12 -13 -37 -21 -55 -8 -18 -12 -37 -9 -42 3 -6 15 -10 25 -10 11 0 26 12
34 28 8 15 17 49 21 75 5 32 3 52 -5 62 -7 8 -20 15 -30 15z"/>
</g>
</svg>
