<?xml version="1.0" standalone="no"?>
<!DOCTYPE svg PUBLIC "-//W3C//DTD SVG 20010904//EN"
 "http://www.w3.org/TR/2001/REC-SVG-20010904/DTD/svg10.dtd">
<svg version="1.0" xmlns="http://www.w3.org/2000/svg"
 width="56.000000pt" height="56.000000pt" viewBox="0 0 56.000000 56.000000"
 preserveAspectRatio="xMidYMid meet">
<metadata>
Created by potrace 1.16, written by Peter Selinger 2001-2019
</metadata>
<g transform="translate(0.000000,56.000000) scale(0.100000,-0.100000)"
fill="#000000" stroke="none">
<path d="M309 560 c-31 0 -36 -4 -53 -48 -10 -26 -39 -87 -63 -137 -25 -49
-54 -99 -64 -111 -11 -12 -19 -35 -19 -56 0 -24 5 -38 16 -42 12 -5 33 11 71
53 29 33 63 63 74 66 11 4 33 2 48 -5 15 -6 35 -24 45 -41 9 -16 15 -38 11
-48 -3 -11 -30 -39 -60 -63 -30 -23 -74 -58 -98 -76 -24 -17 -49 -32 -55 -32
-7 0 -12 -4 -12 -10 0 -5 13 -10 30 -10 16 0 63 16 104 35 41 20 86 45 100 56
14 11 32 35 40 52 8 18 17 48 19 67 4 23 0 45 -12 65 -10 17 -25 29 -34 29 -9
-1 -19 8 -23 20 -3 11 -13 29 -22 39 -8 9 -28 17 -44 17 -24 0 -28 4 -28 29 0
16 7 34 15 41 8 7 19 26 24 44 5 17 12 39 16 49 6 14 2 17 -26 17z"/>
</g>
</svg>
