<?xml version="1.0" standalone="no"?>
<!DOCTYPE svg PUBLIC "-//W3C//DTD SVG 20010904//EN"
 "http://www.w3.org/TR/2001/REC-SVG-20010904/DTD/svg10.dtd">
<svg version="1.0" xmlns="http://www.w3.org/2000/svg"
 width="56.000000pt" height="56.000000pt" viewBox="0 0 56.000000 56.000000"
 preserveAspectRatio="xMidYMid meet">
<metadata>
Created by potrace 1.16, written by Peter Selinger 2001-2019
</metadata>
<g transform="translate(0.000000,56.000000) scale(0.100000,-0.100000)"
fill="#000000" stroke="none">
<path d="M504 460 c-14 0 -27 -7 -30 -15 -3 -8 -3 -19 1 -25 3 -5 15 -10 26
-10 16 0 19 -4 14 -22 -4 -11 -20 -43 -36 -70 -16 -27 -29 -51 -29 -54 0 -3
-8 -18 -19 -32 -10 -15 -30 -48 -45 -74 -14 -26 -26 -54 -26 -63 0 -11 7 -15
22 -13 17 2 36 30 83 125 34 67 69 133 78 147 10 14 17 41 17 60 0 22 -6 36
-16 40 -9 3 -27 6 -40 6z"/>
<path d="M63 370 c-10 0 -13 -11 -11 -37 3 -35 1 -38 -24 -41 -19 -2 -28 -9
-28 -22 0 -10 7 -21 16 -24 9 -3 25 -6 36 -6 16 0 19 -4 14 -22 -4 -13 -9 -36
-12 -53 -2 -16 -1 -36 5 -44 5 -8 16 -11 24 -8 9 3 19 23 22 44 4 21 11 55 16
76 9 32 14 37 39 37 27 0 30 -3 30 -33 0 -24 -10 -45 -35 -74 -19 -23 -35 -46
-35 -51 0 -5 7 -16 16 -23 14 -12 20 -9 41 16 13 17 33 48 43 69 11 22 20 52
20 67 0 14 -9 38 -21 53 -11 14 -30 26 -42 26 -12 0 -31 -7 -41 -15 -10 -8
-23 -12 -27 -9 -5 3 -9 15 -9 28 0 12 -5 27 -12 34 -7 7 -18 12 -25 12z"/>
</g>
</svg>
