<?xml version="1.0" standalone="no"?>
<!DOCTYPE svg PUBLIC "-//W3C//DTD SVG 20010904//EN"
 "http://www.w3.org/TR/2001/REC-SVG-20010904/DTD/svg10.dtd">
<svg version="1.0" xmlns="http://www.w3.org/2000/svg"
 width="56.000000pt" height="56.000000pt" viewBox="0 0 56.000000 56.000000"
 preserveAspectRatio="xMidYMid meet">
<metadata>
Created by potrace 1.16, written by Peter Selinger 2001-2019
</metadata>
<g transform="translate(0.000000,56.000000) scale(0.100000,-0.100000)"
fill="#000000" stroke="none">
<path d="M286 450 c-3 0 -6 -5 -6 -11 0 -6 6 -23 14 -37 7 -15 21 -44 30 -65
14 -33 19 -36 35 -27 11 5 30 25 42 42 13 18 28 36 33 40 6 4 16 2 24 -4 10
-9 12 -24 7 -55 -5 -37 -4 -43 12 -43 10 0 33 14 51 30 17 16 32 35 32 41 0 6
-10 20 -22 30 -13 11 -38 27 -55 35 -31 13 -36 13 -84 -12 -50 -27 -50 -27
-79 5 -16 17 -31 31 -34 31z"/>
<path d="M77 440 c-4 0 -7 -7 -7 -15 0 -8 5 -24 11 -34 7 -10 9 -30 5 -45 -5
-19 -18 -32 -48 -45 -42 -17 -42 -17 -18 -34 14 -9 31 -17 39 -17 10 0 12 -9
8 -34 -3 -19 -3 -44 0 -55 3 -12 11 -21 18 -21 8 0 15 8 18 18 3 14 6 13 14
-8 6 -14 14 -33 17 -44 6 -18 7 -18 28 0 11 11 29 37 38 59 10 22 23 71 30
108 11 61 11 70 -5 87 -13 14 -31 20 -62 20 -29 0 -43 4 -43 13 0 8 -8 21 -18
30 -10 10 -22 17 -25 17z m96 -126 c5 -8 6 -33 2 -55 -5 -30 -11 -39 -23 -37
-13 3 -17 14 -15 48 1 24 8 47 15 51 8 5 16 2 21 -7z"/>
</g>
</svg>
