<?xml version="1.0" standalone="no"?>
<!DOCTYPE svg PUBLIC "-//W3C//DTD SVG 20010904//EN"
 "http://www.w3.org/TR/2001/REC-SVG-20010904/DTD/svg10.dtd">
<svg version="1.0" xmlns="http://www.w3.org/2000/svg"
 width="56.000000pt" height="56.000000pt" viewBox="0 0 56.000000 56.000000"
 preserveAspectRatio="xMidYMid meet">
<metadata>
Created by potrace 1.16, written by Peter Selinger 2001-2019
</metadata>
<g transform="translate(0.000000,56.000000) scale(0.100000,-0.100000)"
fill="#000000" stroke="none">
<path d="M141 434 c-10 9 -21 13 -24 9 -4 -3 -7 -23 -7 -43 0 -20 -6 -45 -14
-55 -13 -17 -19 -18 -55 -9 -23 6 -41 9 -41 7 0 -2 4 -13 10 -23 5 -10 22 -22
38 -28 29 -10 29 -10 19 -60 -8 -37 -8 -58 1 -76 6 -14 16 -26 21 -26 5 0 24
14 41 32 29 29 33 30 42 14 6 -10 19 -27 29 -37 11 -11 25 -19 33 -19 8 0 22
10 30 22 9 12 16 39 16 60 0 20 -5 61 -11 90 -6 29 -18 61 -27 71 -10 12 -27
17 -47 15 -24 -2 -31 1 -33 18 -2 12 -11 29 -21 38z m50 -104 c15 0 29 -7 33
-16 3 -9 6 -40 6 -69 0 -30 -5 -57 -11 -60 -6 -4 -17 1 -24 11 -8 11 -15 26
-15 34 0 8 -9 21 -20 28 -18 11 -20 10 -20 -11 0 -13 -5 -28 -12 -35 -7 -7
-16 -12 -20 -12 -4 0 -8 12 -8 26 0 14 14 43 32 65 23 28 39 39 59 39z"/>
<path d="M312 380 c-12 0 -23 -4 -27 -9 -3 -5 5 -17 17 -25 12 -9 27 -16 32
-16 5 0 17 -10 27 -22 18 -19 22 -20 57 -9 21 7 49 11 62 9 14 -1 26 -10 28
-18 1 -8 -8 -26 -20 -40 -13 -14 -43 -43 -68 -64 -25 -22 -51 -48 -58 -58 -7
-10 -10 -23 -6 -29 4 -7 26 8 58 38 28 28 72 67 99 88 32 26 47 45 47 61 0 13
-10 35 -22 49 -16 19 -31 25 -63 25 -22 0 -46 -5 -53 -12 -9 -9 -21 -7 -51 10
-21 12 -48 22 -59 22z"/>
</g>
</svg>
