<?xml version="1.0" standalone="no"?>
<!DOCTYPE svg PUBLIC "-//W3C//DTD SVG 20010904//EN"
 "http://www.w3.org/TR/2001/REC-SVG-20010904/DTD/svg10.dtd">
<svg version="1.0" xmlns="http://www.w3.org/2000/svg"
 width="56.000000pt" height="56.000000pt" viewBox="0 0 56.000000 56.000000"
 preserveAspectRatio="xMidYMid meet">
<metadata>
Created by potrace 1.16, written by Peter Selinger 2001-2019
</metadata>
<g transform="translate(0.000000,56.000000) scale(0.100000,-0.100000)"
fill="#000000" stroke="none">
<path d="M196 500 c-19 0 -39 -7 -48 -17 -9 -10 -28 -42 -42 -70 -14 -29 -32
-53 -40 -53 -7 0 -19 7 -26 15 -7 8 -19 15 -26 15 -8 0 -14 -4 -14 -9 0 -5 16
-30 35 -55 23 -30 32 -52 28 -63 -3 -10 -15 -28 -26 -40 -13 -15 -21 -38 -21
-65 -1 -38 2 -43 22 -44 12 -1 24 -3 25 -5 1 -2 7 -13 13 -23 6 -11 17 -24 26
-30 11 -7 23 -5 41 7 14 9 38 33 53 53 19 25 29 51 32 88 3 34 -1 65 -12 90
-9 21 -16 44 -16 51 0 6 13 32 29 55 28 41 29 46 15 72 -11 22 -21 28 -48 28z
m-41 -70 c11 0 12 -6 4 -29 -6 -17 -17 -35 -24 -41 -9 -7 -15 -8 -20 -1 -3 6
1 24 10 41 8 16 22 30 30 30z m14 -140 c10 0 12 -10 6 -47 -4 -25 -14 -57 -22
-70 -9 -13 -24 -28 -33 -33 -10 -5 -20 -6 -24 -3 -3 3 -6 14 -6 24 0 10 9 34
19 52 11 19 25 44 32 56 8 11 20 21 28 21z"/>
<path d="M317 399 c-19 10 -39 16 -46 12 -7 -5 9 -21 45 -45 54 -36 59 -38 94
-27 21 6 44 11 52 11 8 0 22 -6 32 -13 17 -12 17 -16 3 -49 -9 -20 -33 -61
-55 -90 -22 -30 -60 -69 -85 -88 -26 -19 -47 -41 -47 -47 0 -9 15 -13 44 -13
38 0 48 5 78 38 19 21 48 58 65 82 17 25 33 55 37 68 4 12 12 22 17 22 5 0 9
23 9 51 0 40 -5 55 -22 70 -13 10 -37 21 -55 25 -21 4 -43 0 -64 -10 -18 -9
-40 -16 -50 -16 -10 0 -34 9 -52 19z"/>
</g>
</svg>
