<?xml version="1.0" standalone="no"?>
<!DOCTYPE svg PUBLIC "-//W3C//DTD SVG 20010904//EN"
 "http://www.w3.org/TR/2001/REC-SVG-20010904/DTD/svg10.dtd">
<svg version="1.0" xmlns="http://www.w3.org/2000/svg"
 width="56.000000pt" height="56.000000pt" viewBox="0 0 56.000000 56.000000"
 preserveAspectRatio="xMidYMid meet">
<metadata>
Created by potrace 1.16, written by Peter Selinger 2001-2019
</metadata>
<g transform="translate(0.000000,56.000000) scale(0.100000,-0.100000)"
fill="#000000" stroke="none">
<path d="M240 528 c-41 19 -60 24 -60 16 0 -8 10 -32 22 -55 20 -38 20 -42 4
-51 -9 -5 -14 -13 -11 -18 3 -5 -5 -20 -18 -34 -14 -14 -29 -26 -36 -26 -6 0
-11 -13 -11 -29 0 -16 -3 -36 -6 -45 -4 -10 0 -18 10 -22 11 -4 23 1 31 12 9
12 12 30 9 47 -6 28 -6 28 43 26 26 -2 61 -8 78 -13 16 -6 37 -19 47 -28 10
-10 23 -18 28 -18 6 0 8 -12 4 -27 -3 -16 -11 -39 -17 -53 -7 -14 -15 -27 -18
-30 -3 -3 -17 -22 -30 -42 -13 -20 -44 -59 -67 -87 -44 -51 -44 -51 -5 -51 35
0 43 5 71 44 18 24 32 49 32 55 0 5 6 14 13 18 8 4 21 22 29 38 9 17 25 50 36
74 17 35 19 48 9 70 -6 14 -17 33 -25 43 -8 10 -37 19 -72 23 -33 4 -64 13
-70 20 -8 10 -5 20 15 40 14 16 25 38 25 51 0 18 -12 29 -60 52z"/>
<path d="M431 534 c-4 3 -11 3 -15 -1 -3 -3 -6 -15 -6 -25 0 -10 7 -18 15 -18
8 0 15 9 15 19 0 11 -4 22 -9 25z"/>
</g>
</svg>
