<?xml version="1.0" standalone="no"?>
<!DOCTYPE svg PUBLIC "-//W3C//DTD SVG 20010904//EN"
 "http://www.w3.org/TR/2001/REC-SVG-20010904/DTD/svg10.dtd">
<svg version="1.0" xmlns="http://www.w3.org/2000/svg"
 width="56.000000pt" height="56.000000pt" viewBox="0 0 56.000000 56.000000"
 preserveAspectRatio="xMidYMid meet">
<metadata>
Created by potrace 1.16, written by Peter Selinger 2001-2019
</metadata>
<g transform="translate(0.000000,56.000000) scale(0.100000,-0.100000)"
fill="#000000" stroke="none">
<path d="M294 560 c-32 0 -44 -4 -44 -14 0 -8 4 -18 10 -21 5 -3 14 -14 20
-24 7 -15 3 -28 -20 -60 -17 -22 -30 -45 -30 -50 0 -5 -13 -20 -29 -33 -15
-14 -42 -30 -60 -37 -21 -9 -31 -20 -31 -35 0 -11 7 -29 14 -38 7 -10 18 -18
23 -18 5 0 47 23 93 50 46 28 87 50 91 50 4 0 17 -15 28 -34 12 -18 21 -41 21
-50 0 -10 -12 -33 -26 -52 -15 -19 -32 -34 -39 -34 -6 0 -20 -9 -30 -20 -10
-11 -24 -20 -31 -20 -8 0 -20 -13 -29 -29 -10 -21 -20 -28 -33 -24 -10 2 -24
-3 -31 -11 -8 -9 -19 -16 -27 -16 -7 0 -18 -9 -24 -20 -10 -18 -8 -20 28 -20
23 0 45 6 52 15 7 8 19 15 28 15 8 0 37 14 64 30 26 17 56 30 64 30 9 0 38 16
65 36 45 33 49 39 49 79 0 27 -7 51 -20 68 -11 14 -20 32 -20 40 0 7 -8 21
-18 30 -10 10 -28 17 -39 17 -12 0 -23 6 -26 13 -2 6 3 26 11 44 13 27 13 41
3 88 -12 55 -12 55 -57 55z"/>
<path d="M435 20 c-14 0 -25 -4 -25 -10 0 -5 11 -10 25 -10 14 0 25 5 25 10 0
6 -11 10 -25 10z"/>
</g>
</svg>
