<?xml version="1.0" standalone="no"?>
<!DOCTYPE svg PUBLIC "-//W3C//DTD SVG 20010904//EN"
 "http://www.w3.org/TR/2001/REC-SVG-20010904/DTD/svg10.dtd">
<svg version="1.0" xmlns="http://www.w3.org/2000/svg"
 width="56.000000pt" height="56.000000pt" viewBox="0 0 56.000000 56.000000"
 preserveAspectRatio="xMidYMid meet">
<metadata>
Created by potrace 1.16, written by Peter Selinger 2001-2019
</metadata>
<g transform="translate(0.000000,56.000000) scale(0.100000,-0.100000)"
fill="#000000" stroke="none">
<path d="M143 490 c-10 0 -25 -5 -34 -10 -9 -5 -20 -22 -23 -37 -4 -16 -12
-45 -17 -67 -10 -36 -12 -38 -40 -32 -22 4 -29 2 -27 -7 3 -6 16 -18 31 -25
16 -8 29 -24 33 -40 3 -15 13 -49 21 -77 9 -27 25 -67 36 -89 20 -38 20 -38
86 -34 54 4 78 12 131 43 36 21 74 43 85 49 12 6 40 26 63 44 23 19 42 40 42
48 0 8 7 17 15 20 8 4 15 18 15 34 0 16 -10 41 -22 56 -13 15 -38 41 -56 59
-18 18 -48 36 -67 39 -18 4 -46 4 -60 0 -14 -3 -25 -10 -23 -15 2 -5 37 -26
78 -47 67 -33 75 -40 78 -68 2 -24 -4 -39 -29 -63 -18 -18 -44 -40 -58 -49
-14 -9 -42 -29 -62 -45 -22 -17 -42 -25 -52 -21 -9 3 -17 11 -17 16 0 6 20 37
45 70 25 33 46 65 46 71 1 7 0 21 -1 32 -1 11 -9 28 -18 39 -10 10 -29 25 -45
32 -15 8 -33 14 -40 13 -6 -1 -17 -1 -23 0 -6 0 -25 15 -42 31 -18 17 -40 30
-49 30z m-3 -60 c5 0 10 -6 10 -14 0 -8 -5 -18 -11 -21 -6 -4 -13 -4 -16 -1
-3 3 -3 12 0 21 4 8 11 15 17 15z m121 -60 c11 0 22 -6 25 -14 3 -7 1 -28 -3
-47 -5 -18 -14 -34 -21 -37 -6 -2 -17 9 -22 24 -6 16 -9 39 -5 51 3 14 13 23
26 23z m-100 -30 c10 0 20 -8 23 -17 2 -10 7 -33 11 -51 5 -24 3 -33 -10 -38
-9 -4 -24 1 -34 11 -11 9 -22 28 -26 42 -3 14 -1 31 6 39 6 8 20 14 30 14z"/>
</g>
</svg>
