<?xml version="1.0" standalone="no"?>
<!DOCTYPE svg PUBLIC "-//W3C//DTD SVG 20010904//EN"
 "http://www.w3.org/TR/2001/REC-SVG-20010904/DTD/svg10.dtd">
<svg version="1.0" xmlns="http://www.w3.org/2000/svg"
 width="56.000000pt" height="56.000000pt" viewBox="0 0 56.000000 56.000000"
 preserveAspectRatio="xMidYMid meet">
<metadata>
Created by potrace 1.16, written by Peter Selinger 2001-2019
</metadata>
<g transform="translate(0.000000,56.000000) scale(0.100000,-0.100000)"
fill="#000000" stroke="none">
<path d="M266 560 c-34 0 -46 -4 -43 -12 2 -8 18 -12 37 -11 18 0 37 6 43 12
8 8 -2 11 -37 11z"/>
<path d="M375 560 c-39 0 -45 -3 -45 -21 0 -11 -13 -39 -29 -62 -16 -24 -43
-66 -60 -95 -17 -29 -31 -59 -31 -67 0 -8 4 -17 10 -20 5 -3 23 1 39 10 17 8
39 15 51 15 16 0 20 -6 20 -33 0 -22 -13 -54 -39 -93 -21 -32 -69 -88 -106
-124 -68 -65 -68 -65 -29 -68 37 -3 42 0 127 87 60 62 96 109 113 146 13 31
24 64 24 74 0 10 -9 30 -21 45 -11 14 -27 26 -34 26 -8 0 -17 5 -20 11 -4 6
-2 30 5 54 7 24 25 56 41 71 16 15 29 31 29 36 0 4 -20 8 -45 8z"/>
</g>
</svg>
