<?xml version="1.0" standalone="no"?>
<!DOCTYPE svg PUBLIC "-//W3C//DTD SVG 20010904//EN"
 "http://www.w3.org/TR/2001/REC-SVG-20010904/DTD/svg10.dtd">
<svg version="1.0" xmlns="http://www.w3.org/2000/svg"
 width="56.000000pt" height="56.000000pt" viewBox="0 0 56.000000 56.000000"
 preserveAspectRatio="xMidYMid meet">
<metadata>
Created by potrace 1.16, written by Peter Selinger 2001-2019
</metadata>
<g transform="translate(0.000000,56.000000) scale(0.100000,-0.100000)"
fill="#000000" stroke="none">
<path d="M373 560 c-18 -1 -35 -10 -47 -27 -11 -14 -30 -47 -43 -72 -12 -25
-23 -52 -23 -58 0 -7 9 -13 19 -13 11 0 23 5 26 10 3 6 12 10 20 10 8 0 15
-13 17 -32 2 -19 -5 -51 -15 -73 -11 -22 -23 -48 -28 -57 -5 -10 -9 -24 -9
-31 0 -7 -22 -49 -49 -92 -27 -44 -56 -88 -65 -97 -9 -10 -16 -21 -16 -24 0
-3 12 -4 26 -2 16 2 32 14 42 33 9 16 25 38 34 49 10 10 31 47 48 82 16 34 30
66 30 69 0 4 8 19 18 33 10 15 24 44 31 65 7 21 10 51 6 68 -4 16 -16 39 -27
49 -21 19 -21 19 5 59 15 23 27 43 27 46 0 3 -12 5 -27 5z"/>
</g>
</svg>
