<?xml version="1.0" standalone="no"?>
<!DOCTYPE svg PUBLIC "-//W3C//DTD SVG 20010904//EN"
 "http://www.w3.org/TR/2001/REC-SVG-20010904/DTD/svg10.dtd">
<svg version="1.0" xmlns="http://www.w3.org/2000/svg"
 width="56.000000pt" height="56.000000pt" viewBox="0 0 56.000000 56.000000"
 preserveAspectRatio="xMidYMid meet">
<metadata>
Created by potrace 1.16, written by Peter Selinger 2001-2019
</metadata>
<g transform="translate(0.000000,56.000000) scale(0.100000,-0.100000)"
fill="#000000" stroke="none">
<path d="M277 560 c-15 0 -18 -6 -15 -27 3 -16 7 -34 9 -42 2 -7 -1 -15 -7
-18 -7 -2 -19 3 -28 13 -9 9 -23 13 -31 10 -8 -3 -15 -12 -15 -20 0 -8 16 -27
35 -43 33 -26 34 -30 22 -53 -7 -14 -20 -36 -28 -50 -8 -14 -27 -39 -43 -57
-24 -27 -27 -35 -16 -48 7 -8 17 -15 23 -15 6 0 19 8 30 17 19 18 20 17 14
-32 -3 -27 -1 -58 5 -68 8 -15 17 -18 44 -12 22 4 34 2 34 -5 0 -6 -13 -31
-30 -55 -16 -24 -30 -46 -30 -49 0 -3 8 -6 18 -6 9 0 38 27 65 60 26 32 47 66
47 74 0 8 -9 21 -21 30 -16 11 -28 12 -51 4 -16 -6 -31 -8 -34 -5 -3 3 -6 36
-7 73 -2 50 3 84 18 123 11 30 27 58 35 62 8 4 30 14 48 21 20 8 31 19 29 28
-2 10 -14 14 -35 13 -29 -1 -35 3 -50 38 -11 25 -23 39 -35 39z"/>
</g>
</svg>
