<?xml version="1.0" standalone="no"?>
<!DOCTYPE svg PUBLIC "-//W3C//DTD SVG 20010904//EN"
 "http://www.w3.org/TR/2001/REC-SVG-20010904/DTD/svg10.dtd">
<svg version="1.0" xmlns="http://www.w3.org/2000/svg"
 width="56.000000pt" height="56.000000pt" viewBox="0 0 56.000000 56.000000"
 preserveAspectRatio="xMidYMid meet">
<metadata>
Created by potrace 1.16, written by Peter Selinger 2001-2019
</metadata>
<g transform="translate(0.000000,56.000000) scale(0.100000,-0.100000)"
fill="#000000" stroke="none">
<path d="M243 559 c-5 0 -18 -7 -31 -16 -23 -16 -23 -16 13 -48 19 -18 35 -40
35 -48 0 -9 -7 -23 -16 -31 -9 -10 -33 -16 -59 -16 -24 0 -46 -4 -50 -9 -3 -5
5 -17 17 -25 12 -9 41 -16 64 -16 23 0 44 -5 46 -12 2 -6 -7 -22 -19 -35 -13
-12 -27 -23 -32 -23 -4 0 -28 -24 -54 -54 -26 -30 -47 -59 -47 -65 0 -6 5 -11
10 -11 6 0 22 7 35 16 13 9 29 13 35 9 7 -5 9 -25 5 -60 -6 -42 -3 -60 11 -84
18 -31 18 -31 121 -31 92 0 103 2 113 20 8 14 8 26 0 40 -6 11 -18 20 -28 19
-9 0 -42 -9 -72 -18 -33 -11 -61 -15 -70 -11 -11 6 -15 26 -15 68 -1 39 -7 68
-19 87 -17 26 -17 27 6 52 12 13 42 44 64 69 23 24 48 44 56 44 9 0 21 7 28
15 6 8 9 19 5 25 -3 5 -21 10 -39 10 -26 0 -35 5 -40 23 -3 12 -6 32 -6 45 0
15 -10 29 -30 40 -16 9 -30 20 -30 25 0 4 -3 7 -7 6z"/>
</g>
</svg>
