<?xml version="1.0" standalone="no"?>
<!DOCTYPE svg PUBLIC "-//W3C//DTD SVG 20010904//EN"
 "http://www.w3.org/TR/2001/REC-SVG-20010904/DTD/svg10.dtd">
<svg version="1.0" xmlns="http://www.w3.org/2000/svg"
 width="56.000000pt" height="56.000000pt" viewBox="0 0 56.000000 56.000000"
 preserveAspectRatio="xMidYMid meet">
<metadata>
Created by potrace 1.16, written by Peter Selinger 2001-2019
</metadata>
<g transform="translate(0.000000,56.000000) scale(0.100000,-0.100000)"
fill="#000000" stroke="none">
<path d="M286 460 c-9 0 -16 -5 -16 -11 0 -7 10 -20 23 -31 12 -11 33 -26 47
-35 14 -8 38 -31 53 -52 16 -21 39 -69 52 -106 13 -37 24 -71 23 -74 0 -3 0
-14 1 -23 0 -10 9 -18 19 -18 9 0 25 14 35 31 9 17 17 37 17 45 0 8 5 14 10
14 6 0 10 9 10 20 0 11 -3 20 -8 20 -4 0 -16 16 -27 36 -10 20 -40 55 -65 77
-26 23 -60 49 -76 57 -16 8 -41 22 -56 32 -14 10 -33 18 -42 18z"/>
<path d="M106 400 c-8 0 -18 -5 -22 -11 -3 -6 8 -24 25 -39 17 -16 31 -33 31
-39 0 -5 -4 -20 -9 -33 -5 -13 -29 -33 -55 -46 -25 -13 -53 -33 -61 -45 -8
-12 -15 -36 -15 -55 0 -18 6 -35 13 -38 7 -2 38 9 69 26 31 17 64 43 74 58 10
15 24 43 31 62 7 19 13 45 13 58 0 13 -17 39 -40 62 -22 22 -46 40 -54 40z"/>
</g>
</svg>
