<?xml version="1.0" standalone="no"?>
<!DOCTYPE svg PUBLIC "-//W3C//DTD SVG 20010904//EN"
 "http://www.w3.org/TR/2001/REC-SVG-20010904/DTD/svg10.dtd">
<svg version="1.0" xmlns="http://www.w3.org/2000/svg"
 width="56.000000pt" height="56.000000pt" viewBox="0 0 56.000000 56.000000"
 preserveAspectRatio="xMidYMid meet">
<metadata>
Created by potrace 1.16, written by Peter Selinger 2001-2019
</metadata>
<g transform="translate(0.000000,56.000000) scale(0.100000,-0.100000)"
fill="#000000" stroke="none">
<path d="M342 420 c-7 0 -12 -6 -12 -13 0 -7 17 -32 39 -55 21 -23 58 -73 82
-112 26 -41 50 -70 60 -70 10 0 19 11 22 27 3 15 0 38 -6 52 -7 14 -17 30 -24
34 -7 4 -19 22 -28 40 -9 20 -36 45 -68 65 -29 18 -58 32 -65 32z"/>
<path d="M114 400 c-7 0 -15 -4 -19 -10 -3 -5 -8 -40 -12 -77 -4 -51 -14 -83
-39 -129 -18 -34 -31 -64 -27 -68 3 -3 15 -6 25 -6 10 0 18 5 18 11 0 7 11 23
25 38 14 14 35 36 47 49 17 17 23 38 26 88 4 52 1 69 -13 84 -10 11 -24 20
-31 20z"/>
</g>
</svg>
