<?xml version="1.0" standalone="no"?>
<!DOCTYPE svg PUBLIC "-//W3C//DTD SVG 20010904//EN"
 "http://www.w3.org/TR/2001/REC-SVG-20010904/DTD/svg10.dtd">
<svg version="1.0" xmlns="http://www.w3.org/2000/svg"
 width="56.000000pt" height="56.000000pt" viewBox="0 0 56.000000 56.000000"
 preserveAspectRatio="xMidYMid meet">
<metadata>
Created by potrace 1.16, written by Peter Selinger 2001-2019
</metadata>
<g transform="translate(0.000000,56.000000) scale(0.100000,-0.100000)"
fill="#000000" stroke="none">
<path d="M35 420 c-8 0 -17 -5 -20 -10 -4 -6 3 -27 14 -46 12 -19 21 -38 21
-42 0 -4 -11 -20 -25 -36 -14 -16 -25 -37 -25 -47 0 -10 4 -29 10 -43 6 -18
17 -26 33 -26 13 0 31 8 39 18 9 9 19 31 22 47 4 17 10 44 13 62 3 17 0 48 -7
68 -8 23 -21 40 -37 46 -13 5 -30 9 -38 9z"/>
<path d="M339 415 c-10 3 -20 1 -25 -6 -5 -8 7 -25 33 -48 22 -20 45 -47 52
-60 7 -13 18 -42 25 -64 8 -30 23 -50 53 -70 34 -24 44 -27 62 -18 18 10 21
21 21 71 0 33 -4 60 -10 60 -5 0 -10 5 -10 11 0 7 -12 23 -27 37 -16 13 -38
33 -50 44 -12 11 -41 24 -65 28 -24 5 -50 11 -59 15z"/>
</g>
</svg>
