<?xml version="1.0" standalone="no"?>
<!DOCTYPE svg PUBLIC "-//W3C//DTD SVG 20010904//EN"
 "http://www.w3.org/TR/2001/REC-SVG-20010904/DTD/svg10.dtd">
<svg version="1.0" xmlns="http://www.w3.org/2000/svg"
 width="56.000000pt" height="56.000000pt" viewBox="0 0 56.000000 56.000000"
 preserveAspectRatio="xMidYMid meet">
<metadata>
Created by potrace 1.16, written by Peter Selinger 2001-2019
</metadata>
<g transform="translate(0.000000,56.000000) scale(0.100000,-0.100000)"
fill="#000000" stroke="none">
<path d="M316 543 c-9 4 -19 -8 -30 -37 -9 -23 -16 -47 -16 -53 0 -6 -7 -14
-16 -17 -9 -3 -30 -6 -48 -6 -19 0 -40 8 -49 18 -8 9 -17 28 -19 42 -2 17 -10
26 -26 28 -20 3 -22 -1 -22 -40 0 -36 6 -50 31 -76 21 -22 41 -32 61 -32 16 0
31 -6 34 -13 3 -8 -13 -47 -34 -88 -22 -41 -42 -93 -45 -117 -4 -31 -1 -47 11
-58 14 -15 17 -14 33 8 10 12 19 32 19 43 0 11 7 31 14 44 13 24 14 24 25 3 6
-11 11 -34 11 -50 0 -17 14 -51 33 -78 22 -35 41 -51 62 -55 17 -4 49 -7 73
-8 35 -1 42 2 42 18 0 10 -7 22 -16 25 -9 3 -27 6 -40 6 -15 0 -41 15 -65 38
-33 31 -43 49 -56 102 -8 36 -21 72 -29 81 -13 14 -13 20 0 45 8 16 17 37 20
47 3 10 18 23 33 30 16 7 40 20 56 31 15 10 27 23 27 30 0 6 -14 24 -30 40
-17 16 -30 33 -30 37 0 4 -6 9 -14 12z"/>
</g>
</svg>
