<?xml version="1.0" standalone="no"?>
<!DOCTYPE svg PUBLIC "-//W3C//DTD SVG 20010904//EN"
 "http://www.w3.org/TR/2001/REC-SVG-20010904/DTD/svg10.dtd">
<svg version="1.0" xmlns="http://www.w3.org/2000/svg"
 width="56.000000pt" height="56.000000pt" viewBox="0 0 56.000000 56.000000"
 preserveAspectRatio="xMidYMid meet">
<metadata>
Created by potrace 1.16, written by Peter Selinger 2001-2019
</metadata>
<g transform="translate(0.000000,56.000000) scale(0.100000,-0.100000)"
fill="#000000" stroke="none">
<path d="M299 434 c-10 5 -28 -2 -48 -20 -18 -15 -47 -50 -65 -79 -19 -28 -37
-61 -40 -73 -4 -12 -11 -22 -15 -22 -4 0 -17 13 -28 29 -13 16 -35 31 -54 35
-18 3 -37 2 -43 -4 -7 -7 -1 -20 18 -39 27 -28 28 -32 16 -60 -11 -27 -9 -34
10 -61 12 -16 29 -30 38 -30 9 0 22 4 28 8 5 4 18 29 28 56 10 26 30 62 45 80
15 17 33 45 41 61 8 17 22 35 30 42 8 7 29 13 47 13 17 0 35 -5 38 -10 4 -6
22 -17 41 -25 19 -8 37 -22 41 -32 3 -10 17 -31 30 -46 13 -16 23 -36 23 -44
0 -9 8 -22 18 -29 9 -7 27 -14 40 -14 18 0 22 5 22 30 0 17 -4 30 -8 30 -5 0
-21 23 -37 51 -15 28 -41 66 -57 85 -17 19 -38 34 -48 34 -11 0 -21 4 -24 9
-3 5 -20 11 -38 13 -18 3 -40 8 -49 12z"/>
</g>
</svg>
