<?xml version="1.0" standalone="no"?>
<!DOCTYPE svg PUBLIC "-//W3C//DTD SVG 20010904//EN"
 "http://www.w3.org/TR/2001/REC-SVG-20010904/DTD/svg10.dtd">
<svg version="1.0" xmlns="http://www.w3.org/2000/svg"
 width="56.000000pt" height="56.000000pt" viewBox="0 0 56.000000 56.000000"
 preserveAspectRatio="xMidYMid meet">
<metadata>
Created by potrace 1.16, written by Peter Selinger 2001-2019
</metadata>
<g transform="translate(0.000000,56.000000) scale(0.100000,-0.100000)"
fill="#000000" stroke="none">
<path d="M377 470 c-8 0 -17 -3 -20 -7 -4 -3 -7 -17 -7 -31 0 -13 9 -36 21
-50 11 -15 41 -61 67 -102 25 -41 51 -78 56 -82 6 -4 23 6 38 23 16 17 28 37
28 45 0 8 -8 23 -17 33 -10 11 -34 38 -53 61 -19 23 -50 57 -67 76 -18 19 -39
34 -46 34z"/>
<path d="M103 460 c-11 0 -23 -3 -26 -7 -4 -3 -7 -13 -7 -21 0 -8 11 -23 25
-34 14 -11 25 -28 25 -39 0 -11 -14 -47 -30 -81 -17 -33 -44 -76 -60 -95 -19
-21 -30 -45 -30 -64 0 -16 6 -32 13 -35 8 -3 26 0 41 6 23 8 26 13 16 24 -9
12 -7 19 9 35 12 12 28 21 36 21 8 0 22 12 32 27 9 16 24 37 34 48 9 11 20 46
23 77 5 34 3 65 -3 77 -6 10 -26 29 -45 40 -18 12 -42 21 -53 21z"/>
</g>
</svg>
