<?xml version="1.0" standalone="no"?>
<!DOCTYPE svg PUBLIC "-//W3C//DTD SVG 20010904//EN"
 "http://www.w3.org/TR/2001/REC-SVG-20010904/DTD/svg10.dtd">
<svg version="1.0" xmlns="http://www.w3.org/2000/svg"
 width="56.000000pt" height="56.000000pt" viewBox="0 0 56.000000 56.000000"
 preserveAspectRatio="xMidYMid meet">
<metadata>
Created by potrace 1.16, written by Peter Selinger 2001-2019
</metadata>
<g transform="translate(0.000000,56.000000) scale(0.100000,-0.100000)"
fill="#000000" stroke="none">
<path d="M280 540 c-16 0 -35 -13 -54 -36 -16 -19 -44 -41 -62 -49 -19 -8 -34
-18 -34 -23 0 -5 -13 -12 -30 -15 -16 -4 -39 -17 -50 -29 -11 -13 -27 -31 -36
-41 -8 -10 -13 -25 -10 -33 3 -8 19 -22 36 -32 16 -9 33 -25 36 -35 3 -10 -1
-29 -10 -42 -9 -13 -16 -36 -16 -49 0 -15 -8 -30 -20 -36 -11 -6 -22 -26 -26
-46 -5 -26 -2 -40 9 -52 13 -12 21 -13 41 -4 19 8 25 21 31 60 5 39 12 52 31
61 15 7 27 22 30 41 5 21 12 30 25 30 11 0 28 9 39 20 11 11 27 20 35 20 8 0
31 15 51 32 37 33 37 33 52 10 8 -12 19 -22 24 -22 5 0 20 -12 33 -28 13 -15
25 -37 25 -49 0 -12 8 -27 18 -32 12 -6 23 -32 32 -75 10 -48 18 -66 30 -66 8
0 23 9 33 20 12 14 17 38 17 75 0 30 -4 55 -10 55 -5 0 -22 19 -37 41 -16 23
-35 56 -45 73 -9 17 -28 42 -42 55 -25 23 -27 23 -86 11 -33 -7 -64 -19 -68
-26 -4 -7 -24 -24 -45 -38 -30 -21 -42 -24 -57 -16 -11 6 -26 23 -34 38 -8 15
-12 40 -9 55 4 21 20 36 70 63 36 20 70 47 76 61 6 13 21 26 35 30 18 4 20 8
10 14 -7 5 -24 9 -38 9z"/>
</g>
</svg>
