<?xml version="1.0" standalone="no"?>
<!DOCTYPE svg PUBLIC "-//W3C//DTD SVG 20010904//EN"
 "http://www.w3.org/TR/2001/REC-SVG-20010904/DTD/svg10.dtd">
<svg version="1.0" xmlns="http://www.w3.org/2000/svg"
 width="56.000000pt" height="56.000000pt" viewBox="0 0 56.000000 56.000000"
 preserveAspectRatio="xMidYMid meet">
<metadata>
Created by potrace 1.16, written by Peter Selinger 2001-2019
</metadata>
<g transform="translate(0.000000,56.000000) scale(0.100000,-0.100000)"
fill="#000000" stroke="none">
<path d="M276 500 c-8 0 -18 -5 -22 -11 -4 -7 12 -30 37 -54 24 -23 53 -53 65
-66 12 -13 47 -68 79 -121 32 -54 65 -98 72 -98 7 0 13 8 13 18 0 11 9 27 20
37 11 10 20 28 20 40 0 13 -7 25 -15 29 -8 3 -15 11 -15 18 0 7 -11 24 -25 38
-14 14 -46 46 -71 73 -24 26 -50 47 -57 47 -7 0 -29 11 -49 25 -20 14 -44 25
-52 25z"/>
<path d="M137 438 c-9 2 -19 -2 -22 -10 -2 -7 -9 -34 -15 -61 -5 -26 -31 -90
-55 -143 -37 -78 -44 -102 -37 -123 5 -15 17 -27 30 -29 14 -2 34 10 60 37 33
35 40 50 51 113 7 40 17 88 23 106 6 22 6 37 0 45 -6 7 -12 23 -14 37 -1 14
-11 26 -21 28z"/>
</g>
</svg>
