<?xml version="1.0" standalone="no"?>
<!DOCTYPE svg PUBLIC "-//W3C//DTD SVG 20010904//EN"
 "http://www.w3.org/TR/2001/REC-SVG-20010904/DTD/svg10.dtd">
<svg version="1.0" xmlns="http://www.w3.org/2000/svg"
 width="56.000000pt" height="56.000000pt" viewBox="0 0 56.000000 56.000000"
 preserveAspectRatio="xMidYMid meet">
<metadata>
Created by potrace 1.16, written by Peter Selinger 2001-2019
</metadata>
<g transform="translate(0.000000,56.000000) scale(0.100000,-0.100000)"
fill="#000000" stroke="none">
<path d="M380 440 c-26 0 -40 -4 -40 -13 0 -8 11 -24 24 -36 13 -12 31 -36 39
-54 9 -18 19 -49 22 -69 3 -21 13 -44 21 -53 9 -8 25 -15 36 -15 11 0 33 14
49 31 20 21 29 41 29 64 0 18 -3 35 -7 37 -5 2 -21 20 -37 42 -16 21 -44 44
-62 52 -18 8 -52 14 -74 14z"/>
<path d="M28 380 c-9 0 -19 -4 -22 -9 -4 -5 9 -19 27 -30 19 -11 39 -32 45
-46 7 -14 12 -31 12 -38 0 -7 -18 -34 -40 -61 -22 -26 -40 -51 -40 -55 0 -3 4
-12 8 -18 4 -7 22 -15 38 -19 27 -5 36 0 77 46 41 46 47 58 47 97 0 37 -6 50
-34 79 -19 19 -49 39 -67 44 -19 6 -42 10 -51 10z"/>
</g>
</svg>
