<?xml version="1.0" standalone="no"?>
<!DOCTYPE svg PUBLIC "-//W3C//DTD SVG 20010904//EN"
 "http://www.w3.org/TR/2001/REC-SVG-20010904/DTD/svg10.dtd">
<svg version="1.0" xmlns="http://www.w3.org/2000/svg"
 width="56.000000pt" height="56.000000pt" viewBox="0 0 56.000000 56.000000"
 preserveAspectRatio="xMidYMid meet">
<metadata>
Created by potrace 1.16, written by Peter Selinger 2001-2019
</metadata>
<g transform="translate(0.000000,56.000000) scale(0.100000,-0.100000)"
fill="#000000" stroke="none">
<path d="M386 449 c-12 0 -28 -3 -36 -6 -8 -2 -30 -12 -49 -20 -19 -8 -54 -35
-79 -60 -38 -38 -48 -44 -66 -35 -11 5 -45 19 -75 31 -29 12 -60 21 -67 21 -8
0 -14 -4 -14 -10 0 -5 26 -31 58 -58 59 -48 59 -48 46 -93 -8 -24 -14 -56 -14
-71 0 -22 5 -28 20 -28 12 0 31 10 43 23 12 13 55 62 96 110 41 47 81 89 89
92 8 3 25 -3 36 -14 12 -11 36 -49 53 -83 18 -35 35 -84 39 -110 5 -40 10 -48
28 -48 11 1 31 9 44 19 15 13 22 30 22 54 0 22 -6 37 -15 41 -8 3 -15 14 -15
24 0 11 -14 50 -31 88 -17 38 -45 84 -62 102 -17 17 -40 32 -51 31z"/>
</g>
</svg>
