<?xml version="1.0" standalone="no"?>
<!DOCTYPE svg PUBLIC "-//W3C//DTD SVG 20010904//EN"
 "http://www.w3.org/TR/2001/REC-SVG-20010904/DTD/svg10.dtd">
<svg version="1.0" xmlns="http://www.w3.org/2000/svg"
 width="56.000000pt" height="56.000000pt" viewBox="0 0 56.000000 56.000000"
 preserveAspectRatio="xMidYMid meet">
<metadata>
Created by potrace 1.16, written by Peter Selinger 2001-2019
</metadata>
<g transform="translate(0.000000,56.000000) scale(0.100000,-0.100000)"
fill="#000000" stroke="none">
<path d="M170 380 c-11 0 -24 -9 -30 -19 -5 -11 -10 -29 -10 -41 0 -13 -23
-44 -60 -79 -33 -31 -57 -60 -54 -64 4 -4 22 -7 41 -7 18 0 51 11 72 24 20 13
50 38 64 56 15 17 27 40 27 51 0 11 -7 33 -15 49 -9 18 -24 30 -35 30z"/>
<path d="M402 360 c-11 0 -24 -5 -27 -11 -4 -5 5 -27 18 -47 14 -20 30 -49 36
-64 6 -15 22 -34 35 -44 14 -9 32 -14 41 -11 8 4 17 18 21 32 3 14 4 35 0 48
-3 12 -27 39 -54 60 -27 20 -59 37 -70 37z"/>
</g>
</svg>
