<?xml version="1.0" standalone="no"?>
<!DOCTYPE svg PUBLIC "-//W3C//DTD SVG 20010904//EN"
 "http://www.w3.org/TR/2001/REC-SVG-20010904/DTD/svg10.dtd">
<svg version="1.0" xmlns="http://www.w3.org/2000/svg"
 width="56.000000pt" height="56.000000pt" viewBox="0 0 56.000000 56.000000"
 preserveAspectRatio="xMidYMid meet">
<metadata>
Created by potrace 1.16, written by Peter Selinger 2001-2019
</metadata>
<g transform="translate(0.000000,56.000000) scale(0.100000,-0.100000)"
fill="#000000" stroke="none">
<path d="M414 384 c-16 3 -35 3 -41 0 -7 -3 -13 -15 -13 -26 0 -11 28 -51 62
-90 34 -38 71 -74 81 -79 10 -6 27 -7 37 -4 14 4 20 15 20 35 0 17 -10 40 -25
56 -14 15 -25 33 -25 40 0 7 -15 24 -33 38 -19 14 -47 28 -63 30z"/>
<path d="M116 370 c-4 0 -15 -9 -27 -21 -19 -19 -20 -23 -6 -37 9 -8 33 -18
54 -21 29 -5 38 -11 38 -26 0 -18 -8 -20 -65 -23 -36 -1 -75 -4 -87 -7 -13 -3
-23 -10 -23 -15 0 -5 15 -23 32 -39 27 -25 42 -31 78 -31 25 0 62 5 82 10 20
6 51 24 68 41 21 21 30 40 30 63 0 17 -7 41 -15 53 -10 15 -37 26 -84 37 -39
9 -72 16 -75 16z"/>
</g>
</svg>
