<?xml version="1.0" standalone="no"?>
<!DOCTYPE svg PUBLIC "-//W3C//DTD SVG 20010904//EN"
 "http://www.w3.org/TR/2001/REC-SVG-20010904/DTD/svg10.dtd">
<svg version="1.0" xmlns="http://www.w3.org/2000/svg"
 width="56.000000pt" height="56.000000pt" viewBox="0 0 56.000000 56.000000"
 preserveAspectRatio="xMidYMid meet">
<metadata>
Created by potrace 1.16, written by Peter Selinger 2001-2019
</metadata>
<g transform="translate(0.000000,56.000000) scale(0.100000,-0.100000)"
fill="#000000" stroke="none">
<path d="M238 560 c-15 0 -31 -12 -45 -35 -13 -19 -23 -37 -23 -41 0 -3 -10
-19 -21 -36 -17 -23 -19 -34 -11 -52 6 -13 26 -27 51 -34 23 -7 41 -15 41 -17
0 -2 -5 -17 -11 -32 -6 -15 -16 -39 -21 -53 -6 -14 -14 -33 -19 -42 -5 -10 -9
-29 -9 -43 0 -14 5 -25 11 -25 6 0 19 10 30 23 16 19 20 20 29 7 5 -8 10 -34
10 -57 0 -36 5 -46 33 -66 17 -14 46 -32 64 -41 18 -9 41 -16 53 -16 14 0 20
6 20 24 0 14 -10 30 -25 40 -13 9 -33 16 -43 16 -10 0 -26 8 -35 18 -9 9 -19
41 -23 70 -4 36 -13 57 -25 65 -11 7 -19 20 -19 30 0 10 6 33 14 52 11 25 27
40 60 56 25 12 46 27 46 35 0 7 -12 19 -27 26 -16 7 -29 22 -29 33 -1 11 -2
26 -3 33 -1 7 -12 17 -26 22 -14 5 -25 16 -25 25 0 9 -9 15 -22 15z m3 -50 c4
0 11 -9 14 -21 4 -11 4 -36 0 -55 -5 -27 -11 -34 -29 -34 -13 0 -29 6 -35 14
-10 12 -7 23 15 55 15 23 30 41 35 41z"/>
</g>
</svg>
