<?xml version="1.0" standalone="no"?>
<!DOCTYPE svg PUBLIC "-//W3C//DTD SVG 20010904//EN"
 "http://www.w3.org/TR/2001/REC-SVG-20010904/DTD/svg10.dtd">
<svg version="1.0" xmlns="http://www.w3.org/2000/svg"
 width="56.000000pt" height="56.000000pt" viewBox="0 0 56.000000 56.000000"
 preserveAspectRatio="xMidYMid meet">
<metadata>
Created by potrace 1.16, written by Peter Selinger 2001-2019
</metadata>
<g transform="translate(0.000000,56.000000) scale(0.100000,-0.100000)"
fill="#000000" stroke="none">
<path d="M138 560 c-4 0 -8 -7 -8 -15 0 -8 9 -31 20 -50 11 -20 27 -47 36 -60
12 -18 14 -36 9 -67 -4 -24 -22 -71 -41 -106 -19 -34 -34 -69 -34 -76 0 -8 6
-19 13 -25 10 -8 20 -4 42 19 16 17 34 30 40 30 6 0 17 -17 24 -37 8 -21 21
-48 29 -60 9 -15 24 -23 42 -23 15 0 33 -7 40 -15 10 -12 9 -20 -4 -40 -9 -13
-16 -27 -16 -30 0 -4 12 -5 27 -3 22 2 33 13 50 48 13 25 23 52 23 61 0 9 -7
20 -16 23 -9 3 -27 6 -42 6 -14 0 -41 5 -59 12 -20 7 -33 19 -33 30 0 9 -5 30
-12 45 -6 15 -18 35 -25 44 -12 14 -11 21 4 47 11 18 28 33 45 36 18 3 37 20
55 47 25 38 26 43 12 67 -8 15 -25 29 -38 30 -16 3 -32 -5 -48 -22 -20 -22
-27 -24 -44 -15 -11 6 -34 30 -52 55 -17 24 -34 44 -39 44z"/>
</g>
</svg>
