<?xml version="1.0" standalone="no"?>
<!DOCTYPE svg PUBLIC "-//W3C//DTD SVG 20010904//EN"
 "http://www.w3.org/TR/2001/REC-SVG-20010904/DTD/svg10.dtd">
<svg version="1.0" xmlns="http://www.w3.org/2000/svg"
 width="56.000000pt" height="56.000000pt" viewBox="0 0 56.000000 56.000000"
 preserveAspectRatio="xMidYMid meet">
<metadata>
Created by potrace 1.16, written by Peter Selinger 2001-2019
</metadata>
<g transform="translate(0.000000,56.000000) scale(0.100000,-0.100000)"
fill="#000000" stroke="none">
<path d="M266 560 c-15 0 -26 -7 -29 -21 -4 -14 1 -22 17 -29 12 -4 28 -15 35
-24 8 -10 11 -26 7 -42 -7 -27 -7 -27 -41 9 -33 35 -33 35 -52 15 -18 -20 -17
-21 31 -63 37 -33 47 -48 42 -63 -4 -11 -47 -58 -96 -106 -49 -48 -93 -98 -96
-111 -4 -18 -1 -27 10 -31 11 -4 28 4 48 22 17 16 43 41 58 57 16 15 33 27 40
27 8 0 10 -9 7 -23 -3 -12 -9 -49 -12 -83 -7 -57 -6 -61 19 -78 21 -13 45 -16
122 -14 96 3 96 3 73 32 -19 25 -27 28 -62 23 -21 -3 -54 -3 -73 0 -31 5 -34
9 -34 39 0 18 5 44 11 57 8 19 7 30 -8 58 -20 34 -20 34 9 78 15 25 28 53 28
63 0 10 6 18 14 18 7 0 19 7 26 16 10 11 23 14 51 9 20 -4 39 -2 43 3 3 5 -8
22 -24 37 -16 16 -33 26 -36 22 -4 -4 -13 -2 -21 4 -7 6 -13 20 -13 30 0 12
-13 26 -35 36 -19 9 -35 20 -35 25 0 4 -11 8 -24 8z"/>
</g>
</svg>
