<?xml version="1.0" standalone="no"?>
<!DOCTYPE svg PUBLIC "-//W3C//DTD SVG 20010904//EN"
 "http://www.w3.org/TR/2001/REC-SVG-20010904/DTD/svg10.dtd">
<svg version="1.0" xmlns="http://www.w3.org/2000/svg"
 width="56.000000pt" height="56.000000pt" viewBox="0 0 56.000000 56.000000"
 preserveAspectRatio="xMidYMid meet">
<metadata>
Created by potrace 1.16, written by Peter Selinger 2001-2019
</metadata>
<g transform="translate(0.000000,56.000000) scale(0.100000,-0.100000)"
fill="#000000" stroke="none">
<path d="M263 540 c-23 -1 -50 -9 -68 -22 -16 -12 -64 -51 -105 -87 -41 -36
-78 -70 -82 -76 -4 -5 -8 -15 -8 -22 0 -7 20 -35 45 -63 25 -28 45 -60 45 -71
0 -11 -21 -43 -47 -70 -46 -49 -47 -51 -32 -77 8 -15 22 -28 32 -30 9 -2 30
13 49 34 18 21 40 45 48 54 8 9 25 37 38 63 12 26 22 53 22 60 0 6 -18 30 -40
51 -22 22 -40 43 -40 48 0 5 -12 13 -27 19 -28 11 -28 11 -3 29 14 11 38 29
54 42 17 13 57 37 90 53 34 17 62 38 64 48 3 14 -4 17 -35 17z"/>
<path d="M324 420 c-35 0 -64 -4 -64 -9 0 -4 26 -30 58 -57 32 -27 73 -71 90
-98 17 -28 34 -70 37 -95 4 -25 8 -52 11 -59 2 -7 14 -12 26 -10 15 2 29 16
40 38 9 19 14 45 11 58 -4 16 -1 22 11 22 9 0 16 7 16 15 0 8 -7 15 -15 15 -8
0 -20 11 -27 24 -7 13 -29 43 -48 67 -19 24 -46 54 -59 66 -20 19 -35 23 -87
23z"/>
</g>
</svg>
