<?xml version="1.0" standalone="no"?>
<!DOCTYPE svg PUBLIC "-//W3C//DTD SVG 20010904//EN"
 "http://www.w3.org/TR/2001/REC-SVG-20010904/DTD/svg10.dtd">
<svg version="1.0" xmlns="http://www.w3.org/2000/svg"
 width="56.000000pt" height="56.000000pt" viewBox="0 0 56.000000 56.000000"
 preserveAspectRatio="xMidYMid meet">
<metadata>
Created by potrace 1.16, written by Peter Selinger 2001-2019
</metadata>
<g transform="translate(0.000000,56.000000) scale(0.100000,-0.100000)"
fill="#000000" stroke="none">
<path d="M360 406 c-19 11 -45 19 -57 16 -13 -2 -23 -9 -23 -15 0 -7 26 -39
58 -72 33 -33 77 -79 99 -102 22 -24 46 -43 52 -43 6 0 25 13 42 29 30 29 30
29 -19 75 -27 25 -64 56 -83 69 -19 12 -50 32 -69 43z"/>
<path d="M153 390 c-19 0 -23 -5 -23 -30 0 -17 -6 -46 -14 -64 -8 -19 -30 -51
-49 -72 -19 -22 -39 -49 -45 -60 -6 -12 -8 -24 -5 -28 3 -3 18 -6 32 -6 18 0
42 17 83 61 32 33 65 73 73 89 11 20 12 36 5 61 -5 18 -15 36 -22 41 -7 4 -23
8 -35 8z"/>
</g>
</svg>
