<?xml version="1.0" standalone="no"?>
<!DOCTYPE svg PUBLIC "-//W3C//DTD SVG 20010904//EN"
 "http://www.w3.org/TR/2001/REC-SVG-20010904/DTD/svg10.dtd">
<svg version="1.0" xmlns="http://www.w3.org/2000/svg"
 width="56.000000pt" height="56.000000pt" viewBox="0 0 56.000000 56.000000"
 preserveAspectRatio="xMidYMid meet">
<metadata>
Created by potrace 1.16, written by Peter Selinger 2001-2019
</metadata>
<g transform="translate(0.000000,56.000000) scale(0.100000,-0.100000)"
fill="#000000" stroke="none">
<path d="M366 418 c-27 3 -28 2 -22 -24 4 -15 21 -43 37 -61 16 -19 29 -40 29
-47 0 -7 9 -25 21 -40 11 -14 25 -42 30 -61 6 -19 19 -40 30 -46 11 -6 27 -8
35 -5 10 4 14 22 14 57 0 45 -4 54 -34 83 -19 17 -50 45 -70 63 -19 18 -36 42
-38 55 -2 17 -11 24 -32 26z"/>
<path d="M93 320 c-13 0 -23 -5 -23 -11 0 -7 8 -17 17 -24 16 -12 16 -14 0
-36 -9 -13 -30 -44 -47 -68 -17 -24 -29 -50 -26 -57 3 -8 17 -14 30 -14 17 0
34 11 50 33 15 19 26 41 26 49 0 9 7 21 15 28 8 6 17 21 21 32 4 13 -2 28 -17
44 -12 13 -33 24 -46 24z"/>
</g>
</svg>
