<?xml version="1.0" standalone="no"?>
<!DOCTYPE svg PUBLIC "-//W3C//DTD SVG 20010904//EN"
 "http://www.w3.org/TR/2001/REC-SVG-20010904/DTD/svg10.dtd">
<svg version="1.0" xmlns="http://www.w3.org/2000/svg"
 width="56.000000pt" height="56.000000pt" viewBox="0 0 56.000000 56.000000"
 preserveAspectRatio="xMidYMid meet">
<metadata>
Created by potrace 1.16, written by Peter Selinger 2001-2019
</metadata>
<g transform="translate(0.000000,56.000000) scale(0.100000,-0.100000)"
fill="#000000" stroke="none">
<path d="M259 560 c-15 0 -30 -7 -33 -16 -3 -9 -6 -18 -6 -20 0 -3 11 -9 25
-14 21 -8 24 -13 16 -29 -7 -13 -7 -28 2 -51 11 -31 10 -33 -23 -61 -34 -29
-34 -29 -13 -44 15 -10 19 -22 15 -40 -2 -15 -15 -33 -28 -42 -13 -8 -24 -21
-24 -28 0 -7 -18 -25 -40 -40 -22 -16 -40 -36 -40 -46 0 -14 7 -19 25 -19 13
0 53 16 88 35 35 19 77 35 93 35 16 0 35 -4 43 -9 8 -5 11 -16 8 -24 -3 -8
-25 -29 -49 -45 -24 -17 -55 -32 -68 -34 -19 -2 -25 -9 -25 -28 0 -19 6 -26
30 -31 17 -4 49 -7 72 -8 23 0 44 3 48 9 3 5 0 18 -6 28 -7 11 -9 27 -6 36 4
9 22 26 42 37 29 17 35 27 35 55 0 24 -6 37 -21 45 -13 6 -45 9 -76 7 -40 -4
-56 -1 -60 8 -3 8 4 29 16 47 12 19 21 48 21 64 0 17 -5 44 -11 61 -7 22 -7
36 0 51 8 14 8 22 1 26 -6 4 -8 15 -5 25 3 10 0 28 -7 39 -8 13 -23 21 -39 21z"/>
</g>
</svg>
