<?xml version="1.0" standalone="no"?>
<!DOCTYPE svg PUBLIC "-//W3C//DTD SVG 20010904//EN"
 "http://www.w3.org/TR/2001/REC-SVG-20010904/DTD/svg10.dtd">
<svg version="1.0" xmlns="http://www.w3.org/2000/svg"
 width="56.000000pt" height="56.000000pt" viewBox="0 0 56.000000 56.000000"
 preserveAspectRatio="xMidYMid meet">
<metadata>
Created by potrace 1.16, written by Peter Selinger 2001-2019
</metadata>
<g transform="translate(0.000000,56.000000) scale(0.100000,-0.100000)"
fill="#000000" stroke="none">
<path d="M266 560 c-7 0 -21 -15 -30 -34 -9 -19 -16 -40 -16 -48 1 -7 14 3 30
22 17 19 30 40 30 47 0 7 -6 13 -14 13z"/>
<path d="M275 480 c0 0 -6 -5 -13 -12 -7 -7 -12 -23 -12 -37 0 -18 -8 -30 -25
-38 -16 -7 -27 -8 -31 -1 -4 6 -10 6 -16 0 -6 -6 -8 -18 -5 -26 4 -9 15 -16
26 -16 11 0 23 5 26 10 3 6 10 10 16 10 5 0 9 -9 9 -19 0 -11 -4 -23 -10 -26
-5 -3 -10 -16 -10 -28 0 -12 -9 -37 -20 -55 -11 -18 -20 -41 -20 -52 0 -11 5
-20 11 -20 6 0 20 10 31 23 19 22 19 22 14 -61 -3 -45 -1 -94 5 -108 9 -24 13
-26 50 -21 22 3 49 13 60 23 10 9 19 21 19 25 0 5 -13 15 -30 24 -27 14 -30
14 -40 -5 -6 -11 -15 -20 -21 -20 -7 0 -9 20 -5 58 3 31 8 79 12 106 6 49 6
49 -24 44 -17 -2 -30 -2 -28 1 2 3 10 22 19 41 8 19 20 50 27 68 7 18 21 37
31 43 11 5 19 16 19 24 0 7 -14 21 -32 29 -17 9 -32 16 -33 16z"/>
</g>
</svg>
