<?xml version="1.0" standalone="no"?>
<!DOCTYPE svg PUBLIC "-//W3C//DTD SVG 20010904//EN"
 "http://www.w3.org/TR/2001/REC-SVG-20010904/DTD/svg10.dtd">
<svg version="1.0" xmlns="http://www.w3.org/2000/svg"
 width="56.000000pt" height="56.000000pt" viewBox="0 0 56.000000 56.000000"
 preserveAspectRatio="xMidYMid meet">
<metadata>
Created by potrace 1.16, written by Peter Selinger 2001-2019
</metadata>
<g transform="translate(0.000000,56.000000) scale(0.100000,-0.100000)"
fill="#000000" stroke="none">
<path d="M308 559 c-7 0 -26 -16 -42 -35 -27 -33 -33 -35 -79 -33 -33 2 -52
-1 -55 -9 -2 -7 12 -31 32 -52 36 -40 36 -40 -4 -93 -22 -28 -47 -67 -56 -86
-8 -18 -13 -40 -10 -47 3 -8 14 -14 24 -14 11 0 40 11 65 24 41 22 46 23 51 8
3 -9 8 -35 12 -57 4 -22 11 -48 16 -58 5 -11 34 -30 64 -43 40 -17 54 -29 54
-44 0 -16 7 -20 35 -20 32 0 35 2 35 30 0 20 -12 43 -36 70 -23 25 -45 40 -59
40 -14 0 -33 12 -44 27 -12 14 -24 38 -27 52 -4 14 -13 36 -20 48 -12 19 -12
27 0 55 8 18 18 51 23 73 6 28 14 41 28 43 11 2 30 13 43 25 12 11 22 26 22
32 0 6 -13 24 -30 38 -16 15 -35 27 -42 26z"/>
</g>
</svg>
