<?xml version="1.0" standalone="no"?>
<!DOCTYPE svg PUBLIC "-//W3C//DTD SVG 20010904//EN"
 "http://www.w3.org/TR/2001/REC-SVG-20010904/DTD/svg10.dtd">
<svg version="1.0" xmlns="http://www.w3.org/2000/svg"
 width="56.000000pt" height="56.000000pt" viewBox="0 0 56.000000 56.000000"
 preserveAspectRatio="xMidYMid meet">
<metadata>
Created by potrace 1.16, written by Peter Selinger 2001-2019
</metadata>
<g transform="translate(0.000000,56.000000) scale(0.100000,-0.100000)"
fill="#000000" stroke="none">
<path d="M308 423 c-15 9 -29 13 -32 8 -3 -5 10 -24 30 -42 19 -19 54 -53 77
-77 33 -33 45 -56 57 -103 10 -38 23 -67 35 -75 17 -11 25 -10 53 3 19 9 32
23 32 34 0 11 -4 19 -9 19 -5 0 -16 21 -25 48 -10 30 -28 57 -50 75 -19 15
-38 27 -42 27 -4 0 -27 15 -53 33 -25 18 -58 40 -73 50z"/>
<path d="M311 349 c-4 6 -14 5 -26 -1 -11 -6 -30 -21 -43 -33 -13 -14 -20 -29
-16 -39 3 -9 12 -16 20 -16 7 0 24 5 38 11 15 7 26 22 28 40 3 16 2 33 -1 38z"/>
<path d="M59 348 c-4 2 -9 -3 -11 -10 -3 -7 -1 -30 4 -50 7 -33 4 -44 -22 -86
-16 -27 -30 -54 -30 -61 0 -6 15 -11 35 -11 27 0 39 7 57 30 12 17 28 52 34
77 9 34 9 51 1 64 -6 10 -22 23 -36 30 -15 8 -29 15 -32 17z"/>
</g>
</svg>
