<?xml version="1.0" standalone="no"?>
<!DOCTYPE svg PUBLIC "-//W3C//DTD SVG 20010904//EN"
 "http://www.w3.org/TR/2001/REC-SVG-20010904/DTD/svg10.dtd">
<svg version="1.0" xmlns="http://www.w3.org/2000/svg"
 width="56.000000pt" height="56.000000pt" viewBox="0 0 56.000000 56.000000"
 preserveAspectRatio="xMidYMid meet">
<metadata>
Created by potrace 1.16, written by Peter Selinger 2001-2019
</metadata>
<g transform="translate(0.000000,56.000000) scale(0.100000,-0.100000)"
fill="#000000" stroke="none">
<path d="M63 460 c-12 0 -25 -5 -28 -10 -4 -6 -1 -17 5 -25 7 -8 23 -15 37
-15 13 0 26 7 30 16 3 9 0 20 -8 25 -8 5 -24 9 -36 9z"/>
<path d="M360 400 c-5 0 -10 -9 -10 -19 0 -10 15 -32 33 -48 18 -16 37 -38 42
-49 5 -10 9 -24 10 -29 0 -6 10 -23 22 -38 11 -15 30 -27 41 -27 17 0 21 8 24
48 3 26 1 55 -4 65 -5 9 -13 17 -19 17 -5 0 -22 8 -37 18 -15 10 -41 28 -59
40 -18 12 -37 22 -43 22z"/>
<path d="M108 360 c-28 0 -29 -2 -23 -29 5 -22 -2 -46 -24 -92 -22 -46 -28
-67 -21 -84 5 -13 14 -26 20 -30 6 -4 22 -4 34 -1 18 4 30 22 49 68 13 35 27
75 30 89 5 19 1 34 -14 53 -14 18 -30 26 -51 26z"/>
</g>
</svg>
