<?xml version="1.0" standalone="no"?>
<!DOCTYPE svg PUBLIC "-//W3C//DTD SVG 20010904//EN"
 "http://www.w3.org/TR/2001/REC-SVG-20010904/DTD/svg10.dtd">
<svg version="1.0" xmlns="http://www.w3.org/2000/svg"
 width="56.000000pt" height="56.000000pt" viewBox="0 0 56.000000 56.000000"
 preserveAspectRatio="xMidYMid meet">
<metadata>
Created by potrace 1.16, written by Peter Selinger 2001-2019
</metadata>
<g transform="translate(0.000000,56.000000) scale(0.100000,-0.100000)"
fill="#000000" stroke="none">
<path d="M331 480 c-21 0 -41 -3 -44 -6 -3 -4 -2 -15 4 -25 5 -11 16 -19 23
-19 7 0 34 -16 59 -35 28 -22 60 -60 82 -99 19 -34 35 -70 35 -79 0 -9 5 -19
11 -23 6 -3 22 -1 35 7 18 9 24 21 24 45 0 18 -6 34 -14 37 -7 3 -16 18 -20
33 -4 14 -28 52 -53 83 -25 31 -59 61 -75 68 -17 7 -47 13 -67 13z"/>
<path d="M20 468 c-3 1 -9 -1 -13 -5 -4 -3 -4 -23 -1 -42 4 -19 20 -53 36 -76
24 -33 28 -46 23 -75 -4 -19 -16 -56 -27 -81 -11 -26 -18 -62 -16 -80 2 -26 8
-35 25 -37 16 -2 27 7 46 40 13 24 33 67 43 95 17 50 17 55 1 88 -9 20 -17 42
-17 50 0 8 -21 38 -47 67 -25 29 -49 54 -53 56z"/>
</g>
</svg>
