<?xml version="1.0" standalone="no"?>
<!DOCTYPE svg PUBLIC "-//W3C//DTD SVG 20010904//EN"
 "http://www.w3.org/TR/2001/REC-SVG-20010904/DTD/svg10.dtd">
<svg version="1.0" xmlns="http://www.w3.org/2000/svg"
 width="56.000000pt" height="56.000000pt" viewBox="0 0 56.000000 56.000000"
 preserveAspectRatio="xMidYMid meet">
<metadata>
Created by potrace 1.16, written by Peter Selinger 2001-2019
</metadata>
<g transform="translate(0.000000,56.000000) scale(0.100000,-0.100000)"
fill="#000000" stroke="none">
<path d="M250 560 c-18 0 -19 -6 -14 -77 6 -70 4 -81 -15 -102 -11 -13 -21
-30 -21 -36 0 -7 7 -18 15 -25 8 -7 15 -24 15 -38 0 -14 -12 -43 -26 -64 -15
-20 -42 -49 -60 -63 -19 -14 -34 -35 -34 -46 0 -10 7 -19 15 -19 9 0 32 11 53
25 20 13 57 31 81 40 24 8 56 15 72 15 16 0 29 -3 29 -6 0 -3 -12 -23 -27 -45
-16 -21 -41 -44 -56 -50 -15 -6 -32 -20 -38 -30 -8 -16 -5 -21 18 -30 15 -6
42 -8 60 -4 19 3 33 12 33 20 0 9 -10 15 -25 15 -14 0 -25 5 -25 10 0 6 4 10
9 10 6 0 37 23 70 50 34 28 61 57 61 66 0 8 -15 21 -33 30 -30 14 -38 15 -78
1 -24 -9 -52 -18 -61 -22 -13 -5 -18 -2 -18 11 0 11 12 42 25 69 14 28 25 58
25 67 0 9 -5 20 -11 23 -6 4 -9 38 -8 83 1 43 -1 87 -5 100 -4 12 -16 22 -26
22z"/>
</g>
</svg>
