<?xml version="1.0" standalone="no"?>
<!DOCTYPE svg PUBLIC "-//W3C//DTD SVG 20010904//EN"
 "http://www.w3.org/TR/2001/REC-SVG-20010904/DTD/svg10.dtd">
<svg version="1.0" xmlns="http://www.w3.org/2000/svg"
 width="56.000000pt" height="56.000000pt" viewBox="0 0 56.000000 56.000000"
 preserveAspectRatio="xMidYMid meet">
<metadata>
Created by potrace 1.16, written by Peter Selinger 2001-2019
</metadata>
<g transform="translate(0.000000,56.000000) scale(0.100000,-0.100000)"
fill="#000000" stroke="none">
<path d="M339 450 c-5 0 -9 -6 -9 -14 0 -7 12 -22 28 -32 15 -9 39 -30 54 -46
14 -15 34 -53 43 -83 11 -35 27 -60 43 -71 24 -16 26 -15 43 7 12 15 19 41 19
72 0 31 -4 47 -13 47 -7 0 -34 18 -61 40 -26 22 -69 49 -93 60 -25 11 -49 20
-54 20z"/>
<path d="M105 360 c-12 0 -25 -3 -28 -7 -4 -3 -7 -17 -7 -29 0 -13 5 -26 10
-29 6 -3 10 -13 10 -22 0 -8 -14 -33 -31 -55 -18 -22 -38 -56 -45 -76 -9 -28
-9 -39 -1 -44 7 -4 16 -8 20 -8 5 0 40 30 78 67 65 62 69 69 69 110 0 35 -6
49 -26 68 -15 14 -37 25 -49 25z"/>
</g>
</svg>
