<?xml version="1.0" standalone="no"?>
<!DOCTYPE svg PUBLIC "-//W3C//DTD SVG 20010904//EN"
 "http://www.w3.org/TR/2001/REC-SVG-20010904/DTD/svg10.dtd">
<svg version="1.0" xmlns="http://www.w3.org/2000/svg"
 width="56.000000pt" height="56.000000pt" viewBox="0 0 56.000000 56.000000"
 preserveAspectRatio="xMidYMid meet">
<metadata>
Created by potrace 1.16, written by Peter Selinger 2001-2019
</metadata>
<g transform="translate(0.000000,56.000000) scale(0.100000,-0.100000)"
fill="#000000" stroke="none">
<path d="M48 420 c-15 0 -30 -5 -33 -10 -4 -6 1 -33 11 -61 15 -40 16 -54 6
-69 -7 -11 -12 -29 -12 -39 0 -11 -5 -23 -10 -26 -6 -3 -10 -17 -10 -30 0 -15
7 -25 23 -28 12 -3 43 -9 69 -12 44 -7 47 -6 52 16 3 13 8 60 11 103 6 79 6
79 -37 118 -27 24 -53 38 -70 38z"/>
<path d="M405 405 c-25 3 -47 0 -51 -6 -3 -6 9 -24 28 -39 19 -16 52 -54 73
-84 21 -31 43 -56 49 -56 6 0 21 -3 34 -6 20 -6 22 -3 22 39 0 31 -5 47 -15
51 -9 3 -21 19 -27 36 -5 17 -23 37 -39 46 -16 8 -49 17 -74 19z"/>
</g>
</svg>
