<?xml version="1.0" standalone="no"?>
<!DOCTYPE svg PUBLIC "-//W3C//DTD SVG 20010904//EN"
 "http://www.w3.org/TR/2001/REC-SVG-20010904/DTD/svg10.dtd">
<svg version="1.0" xmlns="http://www.w3.org/2000/svg"
 width="56.000000pt" height="56.000000pt" viewBox="0 0 56.000000 56.000000"
 preserveAspectRatio="xMidYMid meet">
<metadata>
Created by potrace 1.16, written by Peter Selinger 2001-2019
</metadata>
<g transform="translate(0.000000,56.000000) scale(0.100000,-0.100000)"
fill="#000000" stroke="none">
<path d="M360 450 c-14 0 -18 -5 -13 -17 4 -10 20 -40 36 -68 22 -38 28 -57
23 -83 -3 -19 -1 -43 5 -53 5 -11 20 -19 32 -19 13 0 28 -5 34 -11 8 -8 21 -7
47 2 34 12 36 16 36 55 0 28 -5 44 -15 48 -8 3 -15 13 -15 23 -1 10 -11 30
-23 45 -12 15 -45 34 -74 43 -29 10 -53 21 -53 26 0 5 -9 9 -20 9z"/>
<path d="M75 440 c-6 0 -19 -6 -29 -13 -10 -7 -17 -21 -15 -31 2 -9 18 -24 34
-33 17 -9 37 -19 45 -23 8 -4 16 -18 18 -32 2 -17 -11 -43 -42 -84 -25 -32
-56 -71 -68 -87 -17 -21 -19 -30 -10 -39 9 -9 17 -7 35 10 13 12 27 22 31 22
5 0 35 26 67 59 32 32 59 65 60 72 0 8 3 23 6 34 2 11 6 31 6 44 2 18 -9 29
-53 53 -30 16 -59 33 -64 39 -6 5 -15 9 -21 9z"/>
</g>
</svg>
