<?xml version="1.0" standalone="no"?>
<!DOCTYPE svg PUBLIC "-//W3C//DTD SVG 20010904//EN"
 "http://www.w3.org/TR/2001/REC-SVG-20010904/DTD/svg10.dtd">
<svg version="1.0" xmlns="http://www.w3.org/2000/svg"
 width="128.000000pt" height="128.000000pt" viewBox="0 0 128.000000 128.000000"
 preserveAspectRatio="xMidYMid meet">
<metadata>
Created by potrace 1.16, written by Peter Selinger 2001-2019
</metadata>
<g transform="translate(0.000000,128.000000) scale(0.100000,-0.100000)"
fill="#000000" stroke="none">
<path d="M665 1280 c-14 0 -25 -4 -25 -9 0 -5 -21 -19 -47 -31 -27 -12 -56
-29 -65 -37 -9 -8 -25 -13 -34 -11 -10 2 -21 14 -24 27 -5 24 -5 24 -38 -4
-24 -20 -30 -31 -23 -43 5 -9 7 -40 4 -69 -5 -43 -2 -57 12 -73 10 -11 31 -20
46 -20 25 0 33 8 60 63 17 34 49 81 72 105 25 25 50 42 64 42 15 0 24 -7 28
-22 3 -13 -1 -42 -9 -66 -9 -24 -25 -57 -36 -73 -12 -16 -28 -29 -36 -29 -8 0
-30 -15 -49 -33 -25 -23 -38 -46 -42 -73 -3 -21 -12 -43 -20 -47 -7 -4 -13
-15 -13 -22 0 -8 6 -15 13 -15 6 0 25 7 41 15 15 8 37 15 47 15 16 0 18 -5 13
-27 -3 -16 -22 -57 -42 -93 -19 -36 -43 -81 -53 -101 -10 -20 -38 -52 -63 -73
-27 -22 -46 -46 -46 -57 0 -11 -11 -45 -25 -75 -14 -30 -25 -60 -25 -67 0 -7
9 -23 19 -36 10 -13 25 -22 32 -19 8 3 20 23 28 44 7 22 21 48 30 59 9 11 26
37 37 58 10 21 31 49 45 63 24 23 30 24 50 13 13 -7 31 -15 39 -19 8 -4 20
-23 27 -43 7 -20 16 -80 21 -134 6 -62 5 -103 -1 -110 -5 -7 -27 -18 -49 -24
-22 -6 -62 -25 -88 -42 -27 -18 -54 -43 -62 -56 -11 -21 -11 -25 6 -35 11 -6
33 -23 50 -38 18 -14 48 -29 69 -33 20 -4 37 -11 37 -16 0 -5 10 -9 23 -9 14
0 30 12 45 35 12 19 22 40 22 45 0 6 7 24 15 40 10 19 20 27 30 24 8 -4 15
-16 15 -29 0 -12 -7 -42 -15 -65 -8 -23 -15 -44 -15 -46 0 -2 10 -4 23 -4 19
0 29 12 52 59 24 52 27 63 16 88 -7 15 -20 37 -29 48 -9 12 -32 27 -49 34 -33
13 -33 14 -33 86 0 40 -3 87 -6 104 -5 23 -3 31 8 31 8 0 37 23 64 51 27 28
64 65 82 83 28 29 32 39 32 88 0 40 -5 59 -17 70 -10 9 -29 21 -42 28 -13 7
-42 12 -64 12 -21 -1 -54 -8 -73 -17 -18 -8 -36 -20 -39 -25 -3 -6 -15 -10
-26 -10 -10 0 -19 2 -19 5 0 3 12 42 27 87 27 81 27 81 0 102 -15 12 -27 26
-27 30 0 5 10 19 23 31 12 12 35 38 51 59 20 24 33 33 40 26 5 -5 16 -10 23
-10 7 0 19 13 28 30 8 16 15 40 15 54 0 13 -11 38 -25 55 -14 16 -44 38 -65
47 -22 10 -40 21 -40 26 0 4 -11 8 -25 8z m130 -551 c11 0 28 -6 38 -13 9 -7
17 -26 17 -43 0 -17 -16 -54 -40 -90 -22 -34 -49 -68 -61 -77 -12 -8 -28 -12
-35 -9 -8 3 -14 10 -14 15 0 5 -9 23 -21 39 -11 16 -29 29 -40 29 -10 0 -19 6
-19 14 0 7 21 31 47 52 26 22 61 49 77 61 17 12 40 22 51 22z"/>
</g>
</svg>
