<?xml version="1.0" standalone="no"?>
<!DOCTYPE svg PUBLIC "-//W3C//DTD SVG 20010904//EN"
 "http://www.w3.org/TR/2001/REC-SVG-20010904/DTD/svg10.dtd">
<svg version="1.0" xmlns="http://www.w3.org/2000/svg"
 width="128.000000pt" height="128.000000pt" viewBox="0 0 128.000000 128.000000"
 preserveAspectRatio="xMidYMid meet">
<metadata>
Created by potrace 1.16, written by Peter Selinger 2001-2019
</metadata>
<g transform="translate(0.000000,128.000000) scale(0.100000,-0.100000)"
fill="#000000" stroke="none">
<path d="M492 1261 c-6 15 -8 15 -23 0 -8 -9 -21 -30 -28 -48 -9 -21 -10 -37
-3 -50 5 -10 13 -37 17 -60 3 -23 12 -44 19 -46 8 -3 37 5 66 19 28 13 62 24
74 24 13 0 25 -3 29 -6 3 -3 2 -17 -3 -30 -5 -13 -41 -61 -80 -107 -62 -72
-70 -86 -68 -117 3 -32 6 -35 38 -38 19 -2 39 -7 43 -12 5 -4 0 -27 -11 -51
-11 -25 -50 -74 -92 -113 -67 -65 -72 -72 -66 -104 3 -18 10 -40 17 -48 6 -8
19 -14 28 -14 9 0 22 9 29 20 7 11 19 20 27 20 8 0 23 -17 34 -39 16 -31 28
-40 66 -51 33 -9 50 -21 60 -41 8 -15 15 -37 15 -48 0 -11 -4 -23 -10 -26 -5
-3 -25 -2 -43 3 -22 6 -56 5 -99 -3 -41 -8 -81 -23 -110 -43 -25 -17 -48 -38
-51 -46 -3 -8 -3 -25 1 -38 3 -12 14 -38 25 -55 10 -18 40 -47 65 -65 46 -32
50 -33 132 -30 85 3 86 4 109 38 14 19 25 52 27 72 1 20 2 43 3 50 1 7 7 15
15 18 8 3 41 -15 74 -40 33 -25 71 -50 85 -55 20 -8 29 -6 47 14 18 19 21 31
16 58 -4 19 -21 47 -41 67 -29 28 -45 35 -96 41 -34 4 -65 11 -71 17 -5 5 -15
31 -22 58 -8 27 -15 55 -17 63 -2 8 12 23 33 36 20 11 59 41 85 66 26 25 57
59 68 75 11 16 21 42 22 58 2 16 -2 46 -7 67 -6 21 -19 43 -30 49 -10 5 -36
10 -58 10 -22 0 -56 -7 -75 -15 -20 -8 -46 -15 -58 -15 -13 0 -31 -8 -41 -17
-12 -10 -22 -13 -28 -7 -6 6 -4 28 5 58 8 27 15 62 15 78 0 18 -5 28 -14 28
-8 0 -18 5 -21 10 -4 6 16 36 45 66 28 31 58 70 67 88 8 17 24 41 35 53 11 12
18 29 15 37 -3 8 -27 19 -54 26 -26 7 -59 11 -73 11 -14 -1 -34 -2 -45 -3 -11
-1 -39 -1 -62 0 -41 2 -43 3 -44 35 0 17 -3 39 -7 48z m309 -551 c3 0 14 -9
24 -20 13 -14 16 -28 11 -53 -4 -20 -21 -47 -44 -69 -20 -20 -47 -41 -59 -47
-12 -6 -29 -11 -37 -11 -9 0 -34 18 -56 40 -40 40 -40 40 -12 70 15 17 59 44
97 60 39 16 73 30 76 30z m-213 -496 c49 0 77 -5 82 -14 4 -7 3 -25 -3 -39 -6
-14 -18 -36 -25 -48 -10 -17 -24 -23 -48 -23 -19 0 -49 6 -67 14 -18 7 -43 25
-55 39 -13 14 -22 33 -20 44 2 11 15 20 33 23 17 3 63 5 103 4z"/>
<path d="M780 1280 c-11 0 -20 -4 -20 -10 0 -5 9 -10 20 -10 11 0 20 5 20 10
0 6 -9 10 -20 10z"/>
<path d="M879 1280 c-36 0 -49 -4 -47 -12 3 -7 15 -14 27 -16 13 -2 34 -1 47
2 13 4 24 11 24 16 0 6 -23 10 -51 10z"/>
</g>
</svg>
