<?xml version="1.0" standalone="no"?>
<!DOCTYPE svg PUBLIC "-//W3C//DTD SVG 20010904//EN"
 "http://www.w3.org/TR/2001/REC-SVG-20010904/DTD/svg10.dtd">
<svg version="1.0" xmlns="http://www.w3.org/2000/svg"
 width="128.000000pt" height="128.000000pt" viewBox="0 0 128.000000 128.000000"
 preserveAspectRatio="xMidYMid meet">
<metadata>
Created by potrace 1.16, written by Peter Selinger 2001-2019
</metadata>
<g transform="translate(0.000000,128.000000) scale(0.100000,-0.100000)"
fill="#000000" stroke="none">
<path d="M1025 1280 c-28 0 -35 -4 -35 -20 0 -11 12 -34 27 -50 14 -17 30 -30
35 -30 4 0 8 23 8 50 0 50 0 50 -35 50z"/>
<path d="M855 1262 c-27 3 -46 -2 -73 -21 -20 -13 -54 -39 -75 -58 -20 -18
-41 -33 -46 -33 -5 0 -23 11 -39 25 -19 16 -45 26 -69 28 -30 2 -38 -1 -38
-15 0 -10 16 -38 35 -62 19 -24 47 -52 63 -61 15 -9 27 -25 27 -37 0 -12 -19
-37 -45 -60 -29 -26 -45 -48 -45 -63 0 -13 5 -27 10 -30 6 -3 10 -17 10 -29 0
-13 -13 -40 -30 -61 -16 -21 -30 -42 -30 -47 0 -6 -9 -21 -20 -35 -14 -17 -20
-41 -20 -72 0 -41 5 -52 39 -85 35 -34 41 -37 62 -26 13 7 32 19 42 28 9 8 17
25 17 37 0 12 -9 41 -21 64 -11 24 -18 49 -15 56 2 7 19 15 38 18 21 3 39 -1
50 -10 9 -8 19 -31 22 -51 3 -20 8 -54 12 -74 4 -23 2 -38 -4 -38 -5 0 -34
-16 -63 -36 -30 -20 -61 -45 -69 -55 -8 -11 -43 -36 -77 -56 -34 -21 -114 -73
-177 -116 -64 -43 -116 -84 -116 -92 0 -7 4 -25 10 -39 7 -19 17 -26 36 -26
15 0 42 11 59 25 18 13 73 44 121 68 49 24 118 58 154 75 36 17 77 33 92 36
15 3 30 1 33 -5 4 -6 2 -38 -3 -72 -6 -34 -13 -106 -16 -159 -5 -97 -5 -98 17
-98 13 0 35 12 49 28 15 15 32 41 38 57 7 17 12 53 11 80 0 28 -3 73 -6 100
-3 28 -7 59 -8 70 -1 12 8 24 25 32 14 7 73 17 130 21 103 7 103 7 103 51 0
42 -2 45 -35 56 -27 9 -44 9 -77 -1 -23 -7 -58 -10 -77 -7 -31 5 -36 10 -42
39 -4 21 -2 40 6 49 7 8 20 15 30 15 10 0 27 8 39 18 11 9 39 54 61 100 30 62
40 96 40 132 0 39 -4 52 -19 60 -11 5 -36 10 -56 10 -22 0 -58 -12 -88 -29
-29 -15 -69 -38 -90 -50 -21 -11 -44 -21 -52 -21 -9 0 -24 -5 -34 -12 -10 -6
-26 -8 -36 -4 -17 6 -17 8 1 28 11 11 39 34 63 50 27 16 59 28 78 28 19 0 41
6 49 13 9 6 27 22 41 35 17 15 23 31 21 50 -3 24 -8 27 -42 30 -26 2 -54 -4
-85 -20 -25 -13 -47 -26 -49 -30 -2 -5 -10 -8 -18 -8 -8 0 -14 6 -14 13 1 6
49 44 108 82 79 52 111 80 123 105 15 30 15 39 3 61 -10 20 -23 28 -49 31z
m-46 -47 c6 -3 11 -10 11 -16 0 -5 -16 -27 -36 -49 -20 -22 -43 -40 -50 -40
-8 0 -14 7 -14 15 0 8 18 33 39 56 22 22 45 38 50 34z m54 -405 c10 0 17 -8
17 -20 0 -11 -9 -36 -21 -57 -11 -21 -33 -50 -47 -65 -14 -16 -29 -28 -34 -28
-4 0 -8 17 -8 38 0 21 -5 43 -11 49 -7 7 -9 19 -5 28 3 9 25 25 48 35 24 11
51 20 61 20z m-172 -330 c3 0 10 -5 17 -12 7 -7 12 -20 12 -30 0 -13 -18 -26
-56 -43 -31 -14 -68 -25 -81 -25 -15 0 -23 5 -21 13 3 6 20 22 39 34 19 12 45
31 59 42 14 11 27 20 31 21z"/>
</g>
</svg>
