<?xml version="1.0" standalone="no"?>
<!DOCTYPE svg PUBLIC "-//W3C//DTD SVG 20010904//EN"
 "http://www.w3.org/TR/2001/REC-SVG-20010904/DTD/svg10.dtd">
<svg version="1.0" xmlns="http://www.w3.org/2000/svg"
 width="128.000000pt" height="128.000000pt" viewBox="0 0 128.000000 128.000000"
 preserveAspectRatio="xMidYMid meet">
<metadata>
Created by potrace 1.16, written by Peter Selinger 2001-2019
</metadata>
<g transform="translate(0.000000,128.000000) scale(0.100000,-0.100000)"
fill="#000000" stroke="none">
<path d="M536 1220 c-6 0 -24 -10 -40 -23 -18 -15 -27 -30 -25 -42 3 -13 14
-21 32 -23 15 -2 32 -12 37 -23 8 -14 7 -27 -4 -47 -8 -15 -25 -49 -38 -77
-13 -27 -35 -62 -50 -77 -14 -16 -34 -51 -43 -79 -9 -28 -23 -53 -31 -56 -8
-3 -14 -11 -14 -17 0 -7 -13 -30 -30 -52 -16 -21 -30 -47 -30 -56 0 -10 -4
-18 -10 -18 -5 0 -10 -5 -10 -11 0 -8 4 -8 14 0 10 8 16 9 21 1 3 -5 15 -10
25 -10 10 0 25 7 34 15 8 9 13 23 10 33 -3 9 7 3 23 -15 15 -17 42 -38 58 -46
17 -8 37 -23 46 -33 16 -18 15 -22 -10 -66 -14 -25 -50 -80 -80 -122 -30 -42
-62 -78 -70 -81 -9 -3 -36 -28 -60 -56 -43 -50 -44 -53 -30 -78 9 -16 25 -27
41 -29 21 -3 34 7 69 53 25 31 51 54 59 53 8 -2 25 -23 38 -48 12 -24 22 -56
22 -71 0 -18 9 -35 26 -48 15 -12 41 -21 60 -21 18 0 43 4 56 9 18 7 46 54
110 182 48 96 92 194 99 219 6 25 16 51 21 58 8 9 7 25 -2 55 -8 23 -21 50
-29 61 -9 10 -29 25 -45 33 -26 13 -34 13 -83 -2 -30 -9 -68 -15 -86 -12 -18
3 -48 1 -69 -5 -20 -6 -52 -8 -71 -4 -35 6 -35 8 -30 44 3 20 13 46 22 57 10
11 32 48 50 83 18 35 39 75 47 90 8 15 14 32 14 39 0 8 7 10 18 6 9 -4 31 -18
48 -32 18 -14 42 -34 55 -44 13 -10 49 -34 79 -54 30 -19 67 -41 82 -49 15 -8
36 -14 46 -14 13 0 22 -9 26 -25 4 -14 10 -25 14 -25 4 0 39 -23 77 -51 39
-28 86 -65 105 -84 19 -18 43 -35 52 -37 9 -2 35 8 57 22 34 20 41 30 41 56 0
26 -5 33 -25 38 -14 4 -57 27 -97 53 -40 26 -99 60 -131 75 -32 16 -68 37 -79
48 -11 10 -34 22 -50 26 -17 3 -39 17 -51 30 -11 13 -29 24 -38 24 -10 0 -20
4 -24 9 -3 5 -22 15 -41 21 -29 10 -38 10 -45 -1 -4 -7 -11 -10 -16 -6 -4 5
-1 12 6 17 8 4 11 15 8 23 -3 8 -20 18 -37 22 -17 4 -34 14 -37 22 -3 9 2 37
11 64 10 26 15 53 11 59 -3 5 -15 10 -26 10 -10 0 -31 14 -46 30 -14 17 -31
30 -37 30z m204 -613 c16 -1 26 -9 28 -21 2 -11 -1 -38 -8 -60 -6 -23 -21 -66
-32 -96 -11 -30 -26 -69 -34 -87 -8 -17 -14 -35 -14 -41 0 -5 -13 -34 -30 -65
-16 -31 -30 -63 -30 -71 0 -8 -5 -18 -11 -21 -5 -4 -21 5 -34 19 -13 14 -31
26 -39 26 -8 0 -26 22 -39 49 -23 49 -23 49 25 123 27 40 51 84 54 98 2 14 11
38 19 53 8 16 15 37 15 47 0 10 4 22 10 25 5 3 29 10 52 15 24 4 54 7 68 7z"/>
<path d="M46 690 c-2 0 -6 -3 -9 -7 -4 -3 -7 -24 -7 -45 0 -21 5 -47 12 -58
10 -15 9 -26 -5 -55 -9 -20 -17 -48 -17 -63 0 -16 9 -38 19 -49 11 -12 26 -23
33 -26 10 -3 8 -9 -6 -25 -18 -21 -18 -21 9 -28 23 -6 33 -1 64 30 20 20 60
60 88 88 29 29 53 58 53 64 0 7 -10 14 -22 17 -11 3 -37 -1 -56 -9 -19 -7 -40
-14 -46 -14 -7 0 -24 18 -39 41 -15 22 -27 48 -27 56 0 9 -9 31 -21 49 -11 19
-22 34 -23 34z"/>
<path d="M291 588 c-5 9 -12 7 -26 -8 -18 -19 -18 -20 3 -20 11 0 23 4 26 8 2
4 1 13 -3 20z"/>
</g>
</svg>
