<?xml version="1.0" standalone="no"?>
<!DOCTYPE svg PUBLIC "-//W3C//DTD SVG 20010904//EN"
 "http://www.w3.org/TR/2001/REC-SVG-20010904/DTD/svg10.dtd">
<svg version="1.0" xmlns="http://www.w3.org/2000/svg"
 width="128.000000pt" height="128.000000pt" viewBox="0 0 128.000000 128.000000"
 preserveAspectRatio="xMidYMid meet">
<metadata>
Created by potrace 1.16, written by Peter Selinger 2001-2019
</metadata>
<g transform="translate(0.000000,128.000000) scale(0.100000,-0.100000)"
fill="#000000" stroke="none">
<path d="M418 1256 c-24 4 -38 2 -38 -5 0 -6 25 -36 55 -66 30 -31 55 -60 55
-65 0 -5 -14 -29 -31 -54 -16 -25 -36 -49 -42 -53 -7 -5 -33 -32 -59 -61 -35
-40 -53 -71 -68 -121 -11 -38 -20 -82 -20 -100 0 -18 6 -34 15 -37 8 -3 29 -1
47 5 18 6 55 31 81 56 34 33 56 45 78 45 16 0 32 -6 35 -13 2 -7 -9 -40 -26
-73 -17 -32 -34 -66 -39 -74 -5 -8 -17 -34 -27 -58 -9 -23 -23 -47 -31 -54 -8
-6 -23 -29 -34 -51 -12 -23 -19 -53 -17 -75 2 -26 8 -38 21 -40 11 -2 31 7 45
20 15 13 46 37 69 52 29 19 51 26 75 24 29 -3 33 -7 36 -36 2 -18 -8 -65 -23
-104 -14 -40 -38 -86 -54 -103 -16 -16 -35 -43 -42 -60 -8 -16 -26 -36 -41
-44 -23 -13 -32 -13 -63 -2 -32 11 -39 11 -56 -5 -10 -9 -19 -21 -19 -27 0 -5
16 -25 36 -43 32 -31 41 -34 97 -34 56 0 67 4 111 38 27 20 64 57 83 82 18 25
38 56 44 70 6 14 19 72 29 129 18 102 18 106 0 155 -11 27 -34 64 -52 83 -25
26 -40 33 -70 33 -24 0 -38 5 -38 13 0 7 6 21 13 32 8 11 25 50 40 87 14 36
27 81 28 100 2 18 -5 47 -14 65 -9 18 -17 39 -17 47 0 9 13 37 29 63 16 27 31
66 34 88 4 22 3 54 -1 70 -5 18 -24 40 -47 56 -25 17 -59 29 -94 33 -31 4 -73
9 -93 12z"/>
<path d="M820 954 c-30 0 -73 -1 -95 -4 -27 -3 -40 -10 -40 -20 0 -10 14 -17
40 -20 23 -3 57 -16 76 -28 19 -12 44 -30 54 -42 10 -11 23 -41 30 -67 7 -26
19 -52 28 -57 13 -8 24 -3 51 23 24 23 37 47 42 74 6 37 4 43 -23 66 -16 15
-42 36 -58 49 -16 12 -34 23 -40 23 -5 1 -35 2 -65 3z"/>
</g>
</svg>
