<?xml version="1.0" standalone="no"?>
<!DOCTYPE svg PUBLIC "-//W3C//DTD SVG 20010904//EN"
 "http://www.w3.org/TR/2001/REC-SVG-20010904/DTD/svg10.dtd">
<svg version="1.0" xmlns="http://www.w3.org/2000/svg"
 width="128.000000pt" height="128.000000pt" viewBox="0 0 128.000000 128.000000"
 preserveAspectRatio="xMidYMid meet">
<metadata>
Created by potrace 1.16, written by Peter Selinger 2001-2019
</metadata>
<g transform="translate(0.000000,128.000000) scale(0.100000,-0.100000)"
fill="#000000" stroke="none">
<path d="M287 1100 c-24 0 -48 -5 -55 -12 -7 -7 -12 -17 -12 -24 0 -6 11 -19
25 -28 19 -13 25 -25 25 -54 0 -20 -9 -57 -20 -81 -11 -24 -20 -49 -20 -55 0
-7 -10 -32 -22 -57 -12 -26 -22 -65 -22 -94 -1 -27 2 -64 6 -81 6 -28 0 -40
-48 -105 -31 -40 -67 -96 -82 -123 -22 -43 -25 -63 -24 -129 1 -43 4 -87 7
-97 3 -10 22 -26 41 -35 22 -10 46 -14 64 -10 16 3 47 26 69 50 26 29 46 63
57 102 12 39 18 93 18 163 1 106 1 106 81 182 44 42 100 92 124 112 24 20 57
51 73 68 29 31 31 32 44 13 8 -10 14 -27 14 -37 0 -10 10 -32 22 -48 12 -17
31 -30 41 -30 11 0 42 21 69 46 28 26 56 44 66 42 12 -2 18 -15 20 -44 2 -34
-6 -59 -48 -138 -28 -53 -49 -100 -46 -105 3 -5 -1 -22 -9 -37 -8 -16 -15 -48
-15 -72 0 -27 10 -64 27 -98 15 -31 35 -60 45 -65 10 -5 50 -8 88 -5 38 3 78
10 90 16 11 6 20 14 20 18 0 4 26 22 58 39 31 18 68 43 80 56 23 25 23 25 5
63 -11 22 -24 48 -30 59 -6 11 -21 45 -34 75 -12 30 -29 62 -36 70 -10 11 -16
11 -25 2 -9 -9 -8 -21 1 -54 7 -24 17 -50 22 -58 5 -8 12 -20 14 -26 3 -6 -3
-31 -14 -56 -17 -40 -27 -49 -88 -78 -37 -19 -71 -38 -74 -43 -4 -5 -15 -6
-26 -3 -11 3 -31 19 -45 34 -21 22 -27 39 -30 89 -3 56 0 64 20 78 12 9 22 24
22 34 0 10 6 24 13 30 8 6 30 42 50 81 21 38 37 84 37 101 0 17 -9 44 -21 60
-11 16 -34 36 -51 45 -29 15 -32 14 -70 -12 -22 -16 -42 -34 -45 -41 -3 -7
-13 -13 -24 -13 -13 0 -20 10 -24 38 -3 20 -8 45 -10 55 -2 10 6 22 18 28 12
7 46 32 75 57 33 27 52 51 49 61 -2 9 -10 14 -18 12 -8 -2 -30 -5 -49 -7 -19
-1 -40 2 -47 8 -7 6 -19 8 -26 5 -9 -3 -17 -29 -21 -65 -6 -54 -9 -61 -33 -67
-14 -3 -55 -31 -92 -61 -36 -30 -101 -88 -144 -127 -43 -40 -85 -76 -93 -80
-9 -5 -21 -4 -30 3 -7 7 -14 27 -14 46 0 18 4 43 9 56 5 14 34 50 65 82 31 31
65 75 76 96 11 22 20 59 20 83 0 30 -6 49 -17 59 -10 8 -31 20 -46 26 -15 7
-47 12 -70 12z m-80 -670 c12 0 14 -8 10 -32 -3 -18 -9 -51 -14 -72 -4 -21
-15 -44 -25 -49 -12 -8 -21 -7 -32 2 -9 8 -16 22 -16 32 0 10 9 35 21 56 12
21 26 44 31 51 6 6 17 12 25 12z"/>
<path d="M1162 920 c-5 0 -21 -9 -35 -20 -14 -11 -29 -20 -35 -20 -5 0 -22
-19 -37 -41 -19 -30 -24 -44 -16 -52 8 -8 19 -5 38 9 16 12 45 29 66 39 27 12
41 15 49 7 7 -7 7 -21 -1 -45 -7 -19 -18 -38 -26 -41 -8 -3 -15 -14 -15 -25 0
-10 7 -22 16 -25 10 -4 28 8 51 34 20 22 42 40 50 40 8 0 13 12 13 30 0 17 -4
30 -8 30 -5 0 -14 11 -20 26 -7 14 -28 32 -47 40 -19 7 -38 14 -43 14z"/>
<path d="M881 490 c-10 0 -24 -6 -30 -13 -6 -8 -8 -17 -4 -20 3 -4 17 -7 30
-7 16 0 23 6 23 20 0 13 -7 20 -19 20z"/>
<path d="M593 249 c-10 -1 -29 -4 -43 -8 -18 -4 -33 -23 -52 -61 -14 -30 -24
-58 -22 -62 3 -5 12 -8 20 -8 8 0 19 11 24 24 5 13 19 31 32 40 12 9 25 16 29
16 4 0 14 -18 23 -40 16 -40 16 -40 85 -40 39 0 72 4 75 9 3 5 -2 19 -12 31
-18 22 -20 22 -43 7 -25 -17 -25 -16 -44 29 -10 25 -26 49 -36 55 -10 5 -26 9
-36 8z"/>
</g>
</svg>
