<?xml version="1.0" standalone="no"?>
<!DOCTYPE svg PUBLIC "-//W3C//DTD SVG 20010904//EN"
 "http://www.w3.org/TR/2001/REC-SVG-20010904/DTD/svg10.dtd">
<svg version="1.0" xmlns="http://www.w3.org/2000/svg"
 width="128.000000pt" height="128.000000pt" viewBox="0 0 128.000000 128.000000"
 preserveAspectRatio="xMidYMid meet">
<metadata>
Created by potrace 1.16, written by Peter Selinger 2001-2019
</metadata>
<g transform="translate(0.000000,128.000000) scale(0.100000,-0.100000)"
fill="#000000" stroke="none">
<path d="M434 1280 c-65 0 -65 0 -62 -52 2 -41 7 -54 20 -56 10 -2 31 6 47 18
17 11 37 35 45 52 9 17 16 33 16 35 0 1 -29 3 -66 3z"/>
<path d="M875 1280 c-14 0 -25 -6 -25 -13 0 -7 -21 -37 -46 -67 -25 -30 -64
-62 -86 -72 -22 -10 -44 -15 -49 -12 -5 3 -9 29 -9 58 0 29 -6 60 -13 70 -7
10 -22 17 -32 15 -10 -2 -23 -12 -29 -22 -9 -14 -6 -26 12 -58 18 -31 22 -50
18 -74 -4 -22 -20 -45 -46 -67 -22 -18 -60 -50 -84 -70 -24 -21 -49 -38 -55
-38 -7 0 -11 10 -9 23 2 16 -2 22 -17 22 -15 0 -21 -8 -25 -35 -4 -19 -4 -41
-2 -48 3 -9 8 -10 18 -1 11 9 14 7 14 -14 0 -14 12 -39 26 -56 14 -17 32 -31
40 -31 8 0 14 -4 14 -9 0 -6 -5 -13 -10 -16 -6 -4 -17 -22 -25 -41 -8 -19 -21
-34 -29 -34 -9 0 -16 4 -16 9 0 6 5 13 10 16 6 3 10 13 10 21 0 8 -6 14 -14
14 -8 0 -19 -14 -25 -32 -8 -23 -8 -34 0 -38 8 -5 7 -13 -2 -27 -7 -12 -9 -31
-5 -46 4 -16 15 -29 29 -32 14 -4 47 5 87 24 43 21 68 27 74 21 6 -6 9 -39 8
-75 -1 -35 -10 -88 -20 -117 -11 -32 -17 -70 -14 -95 2 -26 -7 -82 -23 -146
-28 -105 -28 -105 -9 -146 11 -23 26 -41 35 -41 9 0 21 12 27 28 6 15 14 70
17 122 4 52 16 127 27 165 11 39 24 75 29 81 5 6 2 19 -6 32 -13 17 -14 42 -9
133 7 106 9 113 35 137 16 14 31 39 35 57 3 19 -2 54 -15 91 -11 34 -23 90
-27 126 -7 66 -7 66 36 97 24 17 48 31 54 31 6 1 35 20 65 44 36 29 58 57 67
83 8 21 14 41 14 46 0 4 -11 7 -25 7z m-288 -270 c8 0 13 -40 15 -125 3 -121
2 -124 -20 -134 -18 -9 -24 -8 -29 5 -3 9 -1 25 6 36 9 15 8 22 -12 42 -13 13
-27 31 -30 40 -4 9 -13 16 -22 16 -8 0 -15 4 -15 9 0 5 22 32 48 60 26 28 53
51 59 51z"/>
<path d="M415 530 c-7 0 -18 -6 -24 -14 -10 -11 -7 -17 10 -30 12 -8 25 -13
29 -11 4 3 5 16 2 30 -2 14 -10 25 -17 25z"/>
<path d="M779 480 c-16 0 -29 -5 -29 -11 0 -6 9 -13 20 -16 11 -3 24 -20 30
-39 7 -19 13 -60 15 -92 2 -31 6 -65 10 -75 4 -9 17 -17 30 -17 12 0 28 7 35
15 7 8 9 23 5 32 -3 10 -11 42 -15 71 -6 35 -20 66 -40 93 -24 29 -39 39 -61
39z"/>
<path d="M465 430 c-10 0 -15 -6 -13 -16 2 -8 7 -16 13 -17 5 -1 11 6 13 16 2
10 -3 17 -13 17z"/>
<path d="M516 418 c-12 3 -17 -1 -14 -10 3 -7 13 -15 22 -16 12 -3 17 1 14 10
-3 7 -13 15 -22 16z"/>
<path d="M400 250 c-16 22 -20 23 -25 8 -4 -9 -3 -23 2 -31 4 -8 15 -12 25 -8
16 6 16 8 -2 31z"/>
</g>
</svg>
