<?xml version="1.0" standalone="no"?>
<!DOCTYPE svg PUBLIC "-//W3C//DTD SVG 20010904//EN"
 "http://www.w3.org/TR/2001/REC-SVG-20010904/DTD/svg10.dtd">
<svg version="1.0" xmlns="http://www.w3.org/2000/svg"
 width="128.000000pt" height="128.000000pt" viewBox="0 0 128.000000 128.000000"
 preserveAspectRatio="xMidYMid meet">
<metadata>
Created by potrace 1.16, written by Peter Selinger 2001-2019
</metadata>
<g transform="translate(0.000000,128.000000) scale(0.100000,-0.100000)"
fill="#000000" stroke="none">
<path d="M638 1236 c-18 5 -48 8 -65 6 -24 -2 -33 -8 -33 -21 0 -9 13 -27 29
-39 16 -12 35 -38 41 -59 7 -21 16 -43 21 -49 5 -6 3 -19 -6 -30 -8 -10 -24
-37 -36 -59 -11 -22 -28 -53 -37 -70 -10 -16 -30 -48 -45 -70 -15 -22 -47 -69
-71 -105 -25 -36 -62 -84 -83 -108 -21 -23 -46 -56 -55 -74 -10 -18 -29 -43
-43 -57 -14 -14 -45 -48 -69 -76 -24 -27 -51 -66 -60 -85 -9 -19 -36 -59 -61
-88 -44 -52 -45 -54 -45 -123 0 -53 4 -71 15 -75 8 -4 26 -3 40 0 14 4 30 17
35 31 5 13 24 47 42 74 18 28 43 65 55 83 13 18 35 53 50 77 16 24 53 74 85
112 31 38 69 89 85 114 15 24 35 47 44 50 9 3 54 -12 99 -34 46 -22 90 -47
100 -56 9 -8 24 -15 34 -15 10 0 38 -12 64 -27 26 -15 90 -62 142 -105 52 -42
128 -111 169 -152 41 -42 79 -76 83 -76 5 0 16 -16 24 -35 8 -20 21 -38 29
-42 8 -3 26 -2 40 1 15 4 25 13 25 24 0 9 -7 26 -15 36 -8 11 -15 31 -15 45 0
18 -16 42 -53 78 -28 28 -84 81 -124 117 -40 36 -78 66 -85 66 -8 0 -29 13
-48 28 -19 16 -65 43 -101 60 -37 18 -72 32 -78 32 -6 0 -28 10 -49 23 -20 13
-61 35 -89 50 -29 15 -64 27 -78 27 -14 0 -25 5 -25 10 0 6 7 25 17 43 9 18
31 48 49 67 18 19 47 55 66 80 18 25 50 71 72 102 37 55 38 59 34 124 -4 60
-7 70 -35 93 -16 14 -35 35 -41 47 -6 11 -26 24 -44 30z"/>
<path d="M552 189 c-4 -1 -18 -4 -31 -8 -13 -3 -29 -14 -35 -24 -8 -12 -8 -22
1 -34 7 -10 22 -35 33 -56 18 -33 24 -37 60 -37 37 0 40 2 40 26 0 15 -14 51
-31 80 -17 30 -34 54 -37 53z"/>
</g>
</svg>
