<?xml version="1.0" standalone="no"?>
<!DOCTYPE svg PUBLIC "-//W3C//DTD SVG 20010904//EN"
 "http://www.w3.org/TR/2001/REC-SVG-20010904/DTD/svg10.dtd">
<svg version="1.0" xmlns="http://www.w3.org/2000/svg"
 width="128.000000pt" height="128.000000pt" viewBox="0 0 128.000000 128.000000"
 preserveAspectRatio="xMidYMid meet">
<metadata>
Created by potrace 1.16, written by Peter Selinger 2001-2019
</metadata>
<g transform="translate(0.000000,128.000000) scale(0.100000,-0.100000)"
fill="#000000" stroke="none">
<path d="M1220 1280 c-20 0 -30 -5 -30 -15 0 -8 4 -23 9 -33 5 -9 12 -25 15
-34 3 -10 12 -18 21 -18 11 0 15 12 15 50 0 49 -1 50 -30 50z"/>
<path d="M650 1257 c-30 6 -33 4 -25 -13 5 -10 9 -35 9 -54 0 -23 -13 -56 -36
-95 -20 -33 -47 -79 -60 -101 -12 -23 -62 -100 -109 -170 -47 -71 -93 -140
-102 -154 -9 -14 -31 -46 -49 -71 -18 -25 -52 -74 -76 -107 -23 -34 -67 -87
-97 -118 -31 -31 -60 -65 -66 -76 -6 -11 -8 -43 -4 -76 3 -31 8 -67 10 -78 3
-12 11 -24 20 -27 8 -4 28 5 45 19 16 14 30 30 30 34 0 5 19 37 43 72 24 35
77 119 119 188 42 69 101 163 132 210 30 47 74 112 96 145 22 33 61 92 87 130
25 39 68 96 94 128 36 43 49 67 49 90 0 17 -7 51 -16 74 -13 33 -22 43 -39 43
-12 0 -37 3 -55 7z"/>
<path d="M1239 1030 c-4 0 -10 -3 -12 -7 -3 -5 -12 -36 -21 -71 -10 -39 -16
-105 -16 -171 0 -93 3 -110 19 -125 11 -10 21 -13 25 -7 4 5 8 93 10 195 2
102 0 186 -5 186z"/>
<path d="M506 620 c-3 0 -7 -4 -10 -8 -3 -5 8 -22 24 -37 17 -16 30 -34 30
-40 0 -6 13 -23 28 -38 15 -15 36 -27 47 -27 10 0 34 -12 54 -27 20 -15 106
-82 191 -149 100 -79 173 -145 207 -187 28 -37 57 -75 63 -86 7 -15 21 -21 44
-21 19 0 39 7 46 15 8 10 11 33 8 66 -4 40 -12 58 -39 86 -19 20 -87 78 -151
129 -64 52 -129 99 -143 104 -15 6 -59 30 -98 54 -40 24 -83 47 -97 51 -14 4
-45 19 -70 32 -24 14 -63 38 -86 54 -24 16 -45 29 -48 29z"/>
<path d="M543 278 c-25 3 -33 -1 -33 -13 0 -12 8 -16 33 -13 17 2 32 8 32 13
0 6 -15 11 -32 13z"/>
<path d="M463 137 c-6 2 -14 -1 -18 -6 -3 -6 -3 -15 0 -21 3 -5 13 -10 21 -10
9 0 14 7 12 17 -2 9 -8 18 -15 20z"/>
<path d="M585 29 c-5 0 -16 -3 -22 -6 -7 -2 -13 -9 -13 -14 0 -5 20 -9 45 -9
25 0 45 4 45 9 0 5 -10 11 -22 15 -13 3 -27 5 -33 5z"/>
</g>
</svg>
