<?xml version="1.0" standalone="no"?>
<!DOCTYPE svg PUBLIC "-//W3C//DTD SVG 20010904//EN"
 "http://www.w3.org/TR/2001/REC-SVG-20010904/DTD/svg10.dtd">
<svg version="1.0" xmlns="http://www.w3.org/2000/svg"
 width="128.000000pt" height="128.000000pt" viewBox="0 0 128.000000 128.000000"
 preserveAspectRatio="xMidYMid meet">
<metadata>
Created by potrace 1.16, written by Peter Selinger 2001-2019
</metadata>
<g transform="translate(0.000000,128.000000) scale(0.100000,-0.100000)"
fill="#000000" stroke="none">
<path d="M860 1260 c-9 0 -11 -10 -7 -35 4 -26 -1 -47 -20 -82 -14 -27 -31
-57 -37 -68 -7 -11 -30 -46 -51 -79 -22 -32 -49 -72 -59 -90 -10 -17 -50 -77
-88 -133 -37 -56 -68 -105 -68 -108 0 -3 -17 -31 -37 -63 -21 -31 -62 -87 -91
-125 -29 -37 -70 -85 -91 -106 -22 -22 -56 -71 -76 -109 -23 -43 -35 -76 -32
-87 4 -9 15 -15 24 -13 9 2 32 23 51 48 18 25 61 76 95 113 44 48 80 77 123
98 34 16 78 29 98 29 20 0 52 -7 72 -15 19 -8 55 -31 80 -51 24 -20 47 -48 51
-63 3 -14 24 -42 45 -62 22 -20 45 -54 53 -75 7 -22 21 -43 31 -48 11 -5 35
-29 54 -55 19 -25 43 -53 53 -63 9 -10 24 -18 32 -18 11 0 15 11 15 43 0 35
-9 54 -55 117 -30 41 -83 111 -117 154 -35 44 -79 98 -99 120 -21 23 -59 53
-86 67 -26 15 -67 30 -90 33 -29 5 -50 3 -72 -8 -16 -9 -35 -16 -41 -16 -5 0
-10 6 -10 14 0 8 30 58 68 111 37 54 74 108 82 121 8 13 33 49 54 81 21 32 47
69 57 83 11 14 34 48 53 75 19 28 40 64 47 80 7 17 26 49 41 72 15 23 28 52
28 65 0 18 -8 27 -33 36 -18 7 -39 12 -47 12z"/>
</g>
</svg>
