<?xml version="1.0" standalone="no"?>
<!DOCTYPE svg PUBLIC "-//W3C//DTD SVG 20010904//EN"
 "http://www.w3.org/TR/2001/REC-SVG-20010904/DTD/svg10.dtd">
<svg version="1.0" xmlns="http://www.w3.org/2000/svg"
 width="128.000000pt" height="128.000000pt" viewBox="0 0 128.000000 128.000000"
 preserveAspectRatio="xMidYMid meet">
<metadata>
Created by potrace 1.16, written by Peter Selinger 2001-2019
</metadata>
<g transform="translate(0.000000,128.000000) scale(0.100000,-0.100000)"
fill="#000000" stroke="none">
<path d="M324 1180 c-30 0 -46 -5 -50 -15 -3 -8 -3 -19 1 -25 3 -5 23 -10 44
-10 22 0 44 6 51 15 6 8 9 19 5 25 -3 5 -26 10 -51 10z"/>
<path d="M625 1160 c-12 0 -25 -3 -28 -7 -4 -3 -7 -14 -7 -23 0 -9 11 -27 25
-40 25 -23 25 -23 -2 -69 -14 -25 -52 -79 -85 -120 -32 -40 -58 -82 -58 -92 0
-10 -5 -21 -10 -24 -6 -4 -21 -27 -34 -53 -13 -26 -43 -65 -66 -87 -23 -22
-49 -56 -58 -75 -9 -19 -34 -52 -57 -75 -22 -22 -52 -58 -67 -80 -15 -22 -28
-44 -28 -50 0 -5 -34 -46 -75 -90 -41 -43 -75 -88 -75 -98 0 -17 5 -19 32 -13
18 3 47 16 65 29 18 12 47 42 65 67 17 25 61 77 97 116 36 39 81 89 99 112 18
23 38 55 43 72 6 16 16 30 22 30 7 0 37 -12 67 -26 30 -15 69 -33 86 -41 17
-8 42 -25 55 -37 13 -13 41 -42 62 -65 21 -23 57 -53 80 -68 23 -14 67 -42 97
-62 30 -20 87 -52 125 -71 39 -19 86 -44 105 -57 24 -15 54 -23 95 -25 56 -3
60 -2 63 20 2 13 -5 33 -15 44 -10 11 -37 29 -61 39 -24 11 -52 19 -62 19 -10
0 -54 19 -97 41 -43 23 -89 51 -103 64 -14 12 -38 30 -55 38 -16 8 -46 31 -64
51 -19 20 -39 36 -44 36 -4 0 -23 11 -41 25 -18 14 -37 25 -42 25 -5 0 -25 13
-44 28 -19 16 -51 38 -71 50 -20 12 -46 22 -58 22 -11 0 -21 5 -21 11 0 6 16
35 36 64 19 30 51 71 70 91 18 21 34 41 34 45 0 3 13 24 29 45 17 22 36 46 43
54 8 9 18 36 24 62 7 30 7 53 1 65 -5 10 -23 33 -40 51 -17 17 -41 32 -52 32z"/>
<path d="M346 200 c-25 0 -39 -7 -50 -22 -9 -12 -16 -35 -16 -50 0 -16 3 -29
8 -29 4 -1 49 -3 101 -5 52 -1 98 -1 103 2 5 3 1 19 -9 35 -9 16 -36 38 -60
49 -24 11 -58 20 -77 20z"/>
</g>
</svg>
