<?xml version="1.0" standalone="no"?>
<!DOCTYPE svg PUBLIC "-//W3C//DTD SVG 20010904//EN"
 "http://www.w3.org/TR/2001/REC-SVG-20010904/DTD/svg10.dtd">
<svg version="1.0" xmlns="http://www.w3.org/2000/svg"
 width="128.000000pt" height="128.000000pt" viewBox="0 0 128.000000 128.000000"
 preserveAspectRatio="xMidYMid meet">
<metadata>
Created by potrace 1.16, written by Peter Selinger 2001-2019
</metadata>
<g transform="translate(0.000000,128.000000) scale(0.100000,-0.100000)"
fill="#000000" stroke="none">
<path d="M709 1233 c-4 5 -10 3 -15 -4 -4 -8 -19 -34 -32 -59 -13 -25 -37 -63
-53 -85 -16 -22 -42 -59 -57 -82 -15 -23 -52 -70 -82 -104 -30 -33 -63 -69
-74 -78 -10 -9 -38 -37 -63 -63 -25 -26 -53 -58 -61 -70 -9 -13 -49 -65 -90
-116 -40 -51 -87 -103 -104 -115 -16 -12 -36 -34 -44 -50 -13 -24 -13 -28 2
-34 9 -3 37 -7 61 -7 37 -1 48 4 64 24 11 14 28 34 38 45 10 11 26 26 35 33
13 11 50 11 196 2 110 -7 194 -17 215 -26 19 -8 54 -14 77 -14 30 0 49 -6 60
-19 9 -10 41 -26 71 -35 33 -10 76 -33 107 -59 29 -23 71 -56 93 -73 23 -17
43 -38 45 -48 2 -9 -2 -24 -9 -32 -7 -9 -34 -26 -61 -40 -26 -13 -54 -24 -62
-24 -8 0 -18 -5 -22 -11 -3 -6 -2 -15 3 -20 5 -5 32 -5 66 1 31 5 71 15 89 23
18 9 50 18 71 21 22 3 45 10 53 17 8 6 14 20 14 30 0 10 -9 35 -21 56 -11 21
-33 51 -47 67 -15 16 -60 53 -100 83 -44 33 -86 56 -102 57 -16 1 -37 9 -47
17 -10 9 -38 25 -63 36 -25 11 -61 26 -82 32 -20 7 -56 12 -80 13 -23 0 -73 9
-109 19 -44 13 -96 19 -153 18 -48 0 -90 2 -93 5 -3 3 -3 15 0 28 4 13 29 48
57 78 28 30 82 89 120 130 38 41 84 93 102 115 18 22 50 65 71 96 21 31 41 73
44 93 3 21 0 56 -7 79 -8 23 -17 46 -21 50z"/>
<path d="M304 78 c-13 2 -24 -4 -28 -14 -4 -10 -2 -22 3 -27 5 -5 17 -7 27 -5
11 2 19 12 19 23 0 13 -8 21 -21 23z"/>
</g>
</svg>
