<?xml version="1.0" standalone="no"?>
<!DOCTYPE svg PUBLIC "-//W3C//DTD SVG 20010904//EN"
 "http://www.w3.org/TR/2001/REC-SVG-20010904/DTD/svg10.dtd">
<svg version="1.0" xmlns="http://www.w3.org/2000/svg"
 width="128.000000pt" height="128.000000pt" viewBox="0 0 128.000000 128.000000"
 preserveAspectRatio="xMidYMid meet">
<metadata>
Created by potrace 1.16, written by Peter Selinger 2001-2019
</metadata>
<g transform="translate(0.000000,128.000000) scale(0.100000,-0.100000)"
fill="#000000" stroke="none">
<path d="M778 1110 c-60 0 -62 -1 -105 -47 -25 -27 -55 -66 -68 -88 -14 -23
-37 -50 -52 -61 -16 -11 -35 -23 -44 -26 -9 -4 -19 -21 -23 -38 -3 -19 -19
-44 -38 -59 -17 -14 -57 -51 -87 -81 -31 -30 -79 -75 -107 -100 -28 -25 -61
-52 -73 -60 -12 -8 -34 -33 -49 -55 -15 -22 -36 -48 -47 -57 -11 -10 -25 -17
-31 -18 -6 0 -21 -11 -33 -24 -20 -22 -23 -31 -16 -72 3 -25 9 -53 12 -60 3
-8 16 -14 28 -14 14 0 33 11 44 26 12 15 21 32 21 38 0 6 15 26 34 44 19 18
40 47 47 65 7 18 21 44 31 60 12 16 29 27 42 27 13 0 41 16 62 35 21 19 46 35
56 35 10 0 37 10 60 21 42 21 42 21 117 -2 42 -12 83 -28 91 -35 8 -7 54 -31
103 -53 48 -23 91 -41 94 -41 4 0 16 -9 28 -20 11 -11 50 -43 87 -72 37 -29
94 -87 127 -129 37 -47 70 -78 84 -81 13 -3 34 -1 45 3 12 5 27 20 34 34 6 14
15 25 20 25 4 0 8 25 8 55 0 52 -1 55 -20 45 -15 -8 -24 -6 -40 10 -11 11 -20
27 -20 35 0 9 -16 31 -35 50 -19 19 -40 32 -47 30 -8 -3 -34 5 -58 18 -25 13
-57 27 -71 30 -17 4 -29 16 -33 31 -3 13 -15 26 -27 29 -12 3 -31 1 -44 -5
-19 -8 -29 -7 -52 9 -15 11 -54 32 -85 46 -31 15 -63 27 -70 27 -8 0 -19 -5
-26 -12 -9 -9 -17 -7 -35 10 -15 14 -36 22 -58 22 -19 0 -40 5 -47 12 -7 7
-12 22 -12 34 0 13 13 32 33 47 17 14 71 61 118 104 56 50 96 96 114 129 14
29 37 62 51 75 13 12 24 28 24 36 0 9 -17 13 -62 13z"/>
<path d="M1261 1110 c-11 0 -27 -10 -35 -21 -9 -14 -12 -29 -7 -43 5 -13 17
-21 32 -21 21 0 24 5 27 43 3 36 0 42 -17 42z"/>
<path d="M1276 450 c-3 0 -8 -5 -12 -11 -3 -6 -1 -16 5 -22 8 -8 11 -5 11 11
0 12 -2 22 -4 22z"/>
<path d="M820 235 c-47 6 -58 4 -73 -12 -9 -11 -17 -25 -17 -31 0 -6 9 -16 19
-22 11 -5 49 -10 85 -10 57 0 66 2 66 18 0 10 -6 25 -12 34 -8 10 -36 19 -68
23z"/>
</g>
</svg>
