<?xml version="1.0" standalone="no"?>
<!DOCTYPE svg PUBLIC "-//W3C//DTD SVG 20010904//EN"
 "http://www.w3.org/TR/2001/REC-SVG-20010904/DTD/svg10.dtd">
<svg version="1.0" xmlns="http://www.w3.org/2000/svg"
 width="128.000000pt" height="128.000000pt" viewBox="0 0 128.000000 128.000000"
 preserveAspectRatio="xMidYMid meet">
<metadata>
Created by potrace 1.16, written by Peter Selinger 2001-2019
</metadata>
<g transform="translate(0.000000,128.000000) scale(0.100000,-0.100000)"
fill="#000000" stroke="none">
<path d="M780 1200 c-13 0 -24 -11 -33 -33 -8 -18 -62 -95 -121 -172 -58 -77
-136 -174 -172 -215 -36 -41 -109 -124 -162 -185 -54 -60 -110 -125 -127 -144
-16 -19 -55 -62 -86 -96 -52 -57 -56 -65 -63 -126 -4 -35 -10 -76 -13 -91 -4
-21 -2 -28 10 -28 8 0 30 17 48 39 19 21 59 71 89 111 30 39 83 107 117 150
34 44 67 89 73 100 7 12 34 53 62 91 28 38 54 69 58 69 4 0 21 -12 36 -27 16
-16 54 -56 84 -89 34 -38 98 -90 165 -135 61 -40 146 -102 190 -137 44 -36
113 -95 152 -133 61 -57 80 -69 118 -74 24 -4 52 -5 60 -1 8 3 15 15 15 26 0
11 -15 37 -32 57 -18 20 -42 43 -52 52 -10 9 -40 34 -66 56 -26 22 -76 60
-111 86 -35 25 -95 64 -134 87 -38 23 -101 65 -140 92 -38 28 -89 60 -113 72
-23 11 -65 41 -93 65 -50 45 -50 46 -33 71 10 15 26 36 37 47 10 11 33 40 50
65 17 25 56 77 87 115 31 39 71 97 88 129 18 33 32 70 32 83 0 16 -6 23 -20
23z"/>
<path d="M815 776 c-5 2 -18 -3 -29 -11 -10 -7 -15 -18 -11 -24 3 -6 17 -11
31 -11 20 0 25 4 22 22 -2 12 -7 23 -13 24z"/>
<path d="M767 210 c-6 0 -28 -14 -47 -31 -19 -16 -61 -43 -93 -60 -32 -16 -55
-34 -52 -39 3 -6 37 -10 74 -10 55 0 71 4 86 20 10 11 25 20 34 20 9 0 22 -9
29 -20 8 -14 23 -20 47 -20 21 0 35 5 35 13 0 7 -9 18 -20 25 -11 7 -20 18
-20 26 0 7 -14 27 -30 45 -17 17 -36 31 -43 31z"/>
<path d="M910 130 c-5 0 -10 -7 -10 -15 0 -8 5 -15 10 -15 6 0 10 7 10 15 0 8
-4 15 -10 15z"/>
</g>
</svg>
