<?xml version="1.0" standalone="no"?>
<!DOCTYPE svg PUBLIC "-//W3C//DTD SVG 20010904//EN"
 "http://www.w3.org/TR/2001/REC-SVG-20010904/DTD/svg10.dtd">
<svg version="1.0" xmlns="http://www.w3.org/2000/svg"
 width="128.000000pt" height="128.000000pt" viewBox="0 0 128.000000 128.000000"
 preserveAspectRatio="xMidYMid meet">
<metadata>
Created by potrace 1.16, written by Peter Selinger 2001-2019
</metadata>
<g transform="translate(0.000000,128.000000) scale(0.100000,-0.100000)"
fill="#000000" stroke="none">
<path d="M750 1209 c-3 0 -24 -8 -46 -17 -23 -9 -48 -23 -57 -30 -8 -7 -30
-18 -49 -23 -18 -6 -51 -15 -73 -19 -22 -4 -66 -15 -97 -23 -32 -9 -80 -26
-108 -39 -31 -14 -50 -29 -50 -40 0 -9 14 -23 31 -32 29 -14 36 -13 119 14 48
17 99 30 114 30 14 0 35 4 48 9 13 6 45 13 72 16 37 5 56 15 82 41 19 19 41
34 49 34 9 0 15 10 15 24 0 14 -10 32 -22 40 -12 9 -25 16 -28 15z"/>
<path d="M865 980 c-11 0 -30 -7 -42 -15 -16 -11 -22 -25 -21 -49 1 -21 -11
-55 -32 -92 -18 -32 -44 -71 -58 -86 -14 -16 -33 -28 -43 -28 -9 0 -21 12 -27
28 -6 15 -10 47 -10 72 1 25 -7 61 -17 80 -9 19 -27 45 -38 58 -11 12 -28 22
-36 22 -9 0 -33 -5 -53 -11 -26 -7 -38 -16 -38 -28 0 -10 13 -23 33 -32 17 -8
32 -21 32 -29 0 -9 -20 -21 -52 -32 -28 -9 -64 -26 -80 -37 -16 -12 -52 -24
-81 -28 -28 -3 -57 -12 -63 -19 -8 -10 -8 -23 1 -48 6 -19 20 -46 31 -60 14
-18 30 -26 52 -26 18 0 37 4 43 8 6 4 27 41 48 83 20 42 48 87 61 99 13 12 28
19 34 15 7 -4 10 -60 10 -161 -1 -99 -6 -157 -13 -163 -6 -4 -30 -11 -52 -15
-23 -3 -54 -13 -70 -21 -16 -8 -34 -15 -41 -15 -6 0 -38 -13 -70 -29 -33 -18
-90 -35 -133 -41 -41 -7 -90 -14 -107 -17 -18 -3 -33 -11 -33 -18 0 -7 7 -19
17 -26 11 -10 41 -14 95 -13 53 1 86 7 103 18 13 9 32 16 42 16 10 0 35 9 56
20 20 11 47 20 60 20 13 0 47 12 75 26 29 14 59 23 68 20 13 -5 15 -15 8 -59
-4 -28 -8 -70 -10 -92 -1 -22 -7 -71 -13 -110 -6 -38 -14 -82 -17 -97 -5 -27
-4 -28 39 -28 30 0 49 6 60 18 10 10 17 22 17 26 0 4 9 19 20 34 11 15 29 55
39 89 11 37 15 66 10 74 -5 8 -9 56 -9 107 0 92 0 92 43 92 23 0 52 7 63 15
12 8 43 18 70 22 32 6 81 4 141 -6 51 -7 100 -11 109 -7 10 4 14 13 11 26 -3
13 1 21 14 25 10 4 23 3 29 0 6 -3 7 -17 4 -30 -4 -17 0 -26 15 -34 11 -7 32
-9 46 -5 14 3 25 13 25 20 0 8 -25 40 -56 71 -56 56 -56 56 -128 43 -39 -7
-79 -17 -89 -22 -10 -5 -57 -16 -105 -23 -48 -8 -104 -15 -124 -15 -31 0 -38
4 -38 20 0 13 7 20 18 20 10 0 30 12 44 28 14 15 54 63 89 107 35 44 70 93 77
108 6 15 12 45 12 67 0 29 -6 43 -22 54 -12 9 -32 16 -43 16z"/>
<path d="M702 100 c-10 0 -23 -5 -30 -12 -7 -7 -12 -20 -12 -30 0 -10 6 -18
14 -18 8 0 21 3 30 6 9 3 16 17 16 30 0 16 -6 24 -18 24z"/>
</g>
</svg>
