<?xml version="1.0" standalone="no"?>
<!DOCTYPE svg PUBLIC "-//W3C//DTD SVG 20010904//EN"
 "http://www.w3.org/TR/2001/REC-SVG-20010904/DTD/svg10.dtd">
<svg version="1.0" xmlns="http://www.w3.org/2000/svg"
 width="128.000000pt" height="128.000000pt" viewBox="0 0 128.000000 128.000000"
 preserveAspectRatio="xMidYMid meet">
<metadata>
Created by potrace 1.16, written by Peter Selinger 2001-2019
</metadata>
<g transform="translate(0.000000,128.000000) scale(0.100000,-0.100000)"
fill="#000000" stroke="none">
<path d="M1150 1254 c-9 4 -36 -4 -60 -17 -25 -13 -63 -33 -85 -44 -22 -12
-87 -44 -145 -71 -58 -28 -129 -60 -158 -72 -54 -21 -54 -21 -90 4 -21 13 -54
28 -75 31 -24 5 -69 0 -130 -14 -50 -12 -122 -31 -159 -43 -65 -20 -70 -20
-105 -5 -21 10 -49 18 -63 20 -17 1 -25 -3 -25 -13 0 -9 42 -53 92 -98 51 -46
93 -87 93 -93 0 -5 -13 -20 -28 -34 -16 -14 -37 -32 -48 -39 -18 -13 -17 -15
9 -53 15 -21 27 -52 27 -68 0 -15 -12 -48 -26 -72 -14 -24 -31 -42 -37 -40 -6
2 -17 30 -24 63 -7 32 -12 95 -13 139 0 44 -6 102 -13 129 -7 27 -18 51 -25
54 -9 3 -12 -25 -12 -105 0 -59 -5 -141 -10 -182 -6 -41 -6 -79 -2 -85 5 -6
16 -32 26 -59 10 -26 26 -52 37 -57 12 -7 25 -7 37 -1 9 5 37 30 61 55 25 25
60 51 77 56 23 8 39 8 53 1 11 -6 31 -35 45 -66 18 -39 32 -56 49 -61 14 -3
34 -4 44 -2 10 2 33 26 51 53 18 28 48 82 67 120 20 43 46 127 65 215 18 80
35 152 39 160 4 8 30 30 57 48 27 17 52 32 56 32 4 0 12 -9 18 -20 6 -11 15
-54 20 -97 6 -42 15 -172 20 -288 6 -115 13 -244 15 -285 2 -41 7 -111 11
-155 5 -73 4 -82 -15 -99 -12 -11 -21 -27 -21 -37 0 -9 16 -26 36 -38 19 -12
41 -21 48 -21 7 0 20 8 28 18 8 9 23 47 32 83 15 55 16 90 11 200 -4 74 -8
179 -10 234 -2 55 -9 147 -14 205 -5 58 -19 132 -31 165 -11 33 -29 72 -40 87
-11 15 -20 36 -20 46 0 11 6 24 13 29 6 6 39 16 72 23 33 7 97 18 142 24 45 7
89 19 98 26 11 9 15 26 13 54 -3 36 -6 41 -33 47 -16 4 -37 9 -45 13z m-669
-266 c35 1 61 -3 67 -11 6 -7 9 -45 7 -93 -3 -61 -10 -92 -30 -131 -14 -28
-38 -62 -54 -75 -16 -14 -42 -30 -60 -37 -25 -11 -34 -11 -46 -1 -8 7 -15 16
-15 20 0 4 11 24 25 45 14 20 32 56 40 79 8 22 15 44 15 48 0 4 -29 26 -65 50
-36 23 -65 48 -65 54 0 6 11 19 24 27 13 9 41 17 62 20 21 2 64 4 95 5z"/>
<path d="M1140 990 c-11 0 -20 -2 -20 -4 0 -2 6 -9 14 -15 10 -9 15 -8 20 4 4
10 -1 15 -14 15z"/>
<path d="M1195 950 c-8 0 -15 -4 -15 -10 0 -5 7 -10 15 -10 8 0 15 5 15 10 0
6 -7 10 -15 10z"/>
<path d="M1234 581 c-7 16 -12 17 -22 7 -6 -6 -12 -22 -12 -35 0 -14 6 -23 15
-23 9 0 18 7 22 16 3 8 2 24 -3 35z"/>
</g>
</svg>
