<?xml version="1.0" standalone="no"?>
<!DOCTYPE svg PUBLIC "-//W3C//DTD SVG 20010904//EN"
 "http://www.w3.org/TR/2001/REC-SVG-20010904/DTD/svg10.dtd">
<svg version="1.0" xmlns="http://www.w3.org/2000/svg"
 width="128.000000pt" height="128.000000pt" viewBox="0 0 128.000000 128.000000"
 preserveAspectRatio="xMidYMid meet">
<metadata>
Created by potrace 1.16, written by Peter Selinger 2001-2019
</metadata>
<g transform="translate(0.000000,128.000000) scale(0.100000,-0.100000)"
fill="#000000" stroke="none">
<path d="M678 1280 c-18 0 -28 -5 -28 -15 0 -9 7 -26 15 -39 14 -21 13 -28
-14 -87 -17 -35 -56 -107 -87 -159 -31 -52 -70 -122 -86 -155 -16 -33 -33 -65
-36 -71 -4 -6 -24 -36 -44 -68 -21 -31 -53 -80 -71 -109 -19 -28 -70 -95 -115
-148 -44 -53 -104 -113 -132 -134 -28 -20 -49 -42 -47 -49 2 -6 13 -12 25 -14
11 -2 33 3 49 11 15 8 61 47 101 87 40 39 89 97 109 128 21 32 42 64 48 72 5
9 19 31 30 49 11 18 43 63 70 99 28 37 57 82 64 100 8 18 25 48 40 66 14 18
40 62 57 97 17 35 43 90 58 121 15 32 33 61 40 65 7 5 18 28 24 53 10 42 10
46 -15 72 -17 18 -37 28 -55 28z"/>
<path d="M913 960 c-16 0 -32 -3 -36 -6 -3 -3 -1 -15 6 -25 6 -10 16 -19 20
-19 5 0 21 -9 36 -20 15 -10 54 -29 86 -41 33 -12 79 -35 104 -50 25 -16 55
-29 67 -29 13 0 26 5 29 11 4 5 -1 19 -11 30 -9 10 -40 30 -68 43 -28 14 -73
35 -101 47 -27 12 -62 31 -77 41 -14 10 -39 18 -55 18z"/>
<path d="M684 844 c-39 3 -74 3 -77 -1 -4 -3 -7 -12 -7 -19 0 -6 15 -21 34
-32 29 -17 43 -19 90 -13 31 4 59 11 63 15 4 3 -2 15 -13 25 -13 13 -41 20
-90 25z"/>
<path d="M798 676 c-24 0 -63 -3 -88 -7 -25 -4 -78 -8 -117 -8 -40 -1 -73 -5
-73 -10 0 -6 10 -17 22 -25 16 -11 46 -16 100 -16 58 0 78 -3 78 -13 0 -7 -11
-37 -25 -66 -21 -43 -25 -63 -21 -113 2 -35 -2 -85 -10 -115 -8 -30 -14 -65
-14 -78 0 -13 -14 -40 -31 -60 -25 -28 -32 -46 -35 -89 -3 -38 0 -57 11 -66 8
-6 22 -10 31 -8 9 2 20 10 24 18 4 8 17 38 30 65 13 28 27 58 31 67 5 10 9 22
9 27 0 5 18 36 39 68 21 32 53 71 70 87 17 17 31 35 31 42 0 7 20 29 44 48 23
20 48 36 55 36 6 0 11 -4 11 -9 0 -6 -4 -13 -10 -16 -5 -3 -10 -15 -10 -25 0
-11 -9 -35 -20 -55 -11 -20 -20 -43 -20 -52 0 -9 11 -31 25 -49 21 -27 24 -38
15 -53 -5 -11 -28 -41 -50 -66 -22 -26 -49 -64 -60 -86 -11 -21 -20 -41 -20
-44 0 -3 14 -5 30 -5 21 0 30 5 30 16 0 9 14 33 30 53 17 20 40 46 53 59 12
12 27 22 33 22 6 0 20 10 32 23 12 13 22 27 22 31 0 4 -10 21 -22 39 -13 17
-31 38 -40 45 -13 9 -15 21 -11 50 3 20 17 50 30 65 12 16 23 39 23 51 0 12
-5 27 -12 34 -7 7 -25 12 -40 12 -16 0 -46 -9 -67 -19 -21 -11 -51 -35 -67
-54 -16 -19 -44 -53 -62 -76 -18 -23 -40 -41 -47 -41 -12 0 -13 17 -8 98 4 64
11 104 22 118 8 12 37 35 63 53 27 17 48 39 48 49 0 9 -5 24 -10 32 -6 9 -25
15 -52 16z"/>
</g>
</svg>
