<?xml version="1.0" standalone="no"?>
<!DOCTYPE svg PUBLIC "-//W3C//DTD SVG 20010904//EN"
 "http://www.w3.org/TR/2001/REC-SVG-20010904/DTD/svg10.dtd">
<svg version="1.0" xmlns="http://www.w3.org/2000/svg"
 width="128.000000pt" height="128.000000pt" viewBox="0 0 128.000000 128.000000"
 preserveAspectRatio="xMidYMid meet">
<metadata>
Created by potrace 1.16, written by Peter Selinger 2001-2019
</metadata>
<g transform="translate(0.000000,128.000000) scale(0.100000,-0.100000)"
fill="#000000" stroke="none">
<path d="M680 1257 c-11 7 -22 8 -34 1 -12 -7 -14 -13 -7 -22 7 -8 6 -24 -3
-51 -8 -22 -25 -51 -39 -65 -13 -14 -28 -39 -31 -56 -4 -17 -22 -46 -41 -64
-19 -19 -35 -39 -35 -45 0 -5 -29 -46 -65 -90 -36 -44 -79 -94 -95 -112 -17
-17 -30 -36 -30 -41 0 -6 -25 -33 -56 -61 -46 -42 -59 -49 -71 -39 -10 8 -13
22 -8 46 5 25 3 33 -6 30 -7 -2 -21 -18 -30 -34 -10 -16 -18 -36 -18 -44 -1
-9 -16 -40 -35 -70 -19 -30 -32 -58 -28 -61 4 -4 19 -9 33 -13 23 -5 39 7 135
102 60 59 125 126 145 148 19 22 46 56 59 75 13 19 34 45 47 59 13 14 38 43
56 65 19 22 39 55 47 73 7 18 30 48 51 66 22 18 39 38 39 44 0 7 14 34 30 61
26 42 29 53 19 69 -7 10 -19 24 -29 29z"/>
<path d="M818 1100 c-10 0 -21 -7 -24 -15 -3 -8 -3 -19 1 -25 4 -6 23 -10 43
-9 20 1 54 -6 74 -15 21 -9 47 -16 59 -16 11 0 34 -8 50 -17 16 -10 29 -21 29
-25 0 -5 -11 -13 -25 -18 -14 -5 -25 -12 -25 -15 0 -3 16 -13 35 -21 19 -7 46
-14 61 -14 14 0 44 -10 65 -22 36 -20 41 -21 56 -6 14 15 14 19 -5 50 -12 18
-31 39 -44 47 -13 8 -43 25 -68 38 -25 13 -57 23 -71 23 -14 0 -45 9 -69 21
-27 13 -53 19 -71 15 -17 -3 -32 0 -39 9 -7 8 -21 15 -32 15z"/>
<path d="M628 936 c-26 1 -51 -2 -54 -8 -3 -5 7 -23 22 -39 21 -22 34 -28 49
-23 11 3 37 6 57 5 20 -1 39 3 42 8 3 5 4 16 0 24 -3 8 -20 18 -37 23 -18 4
-53 9 -79 10z"/>
<path d="M784 760 c-6 0 -13 -3 -16 -6 -3 -3 -50 -9 -104 -14 -55 -5 -117 -13
-138 -17 -22 -5 -41 -14 -43 -20 -3 -7 7 -17 22 -23 14 -5 41 -10 59 -10 17 0
36 4 42 9 5 5 34 12 65 16 37 5 59 3 63 -4 4 -6 0 -21 -8 -33 -8 -13 -24 -61
-35 -108 -12 -47 -27 -116 -35 -155 -8 -38 -22 -98 -30 -131 -9 -34 -22 -74
-31 -90 -8 -16 -12 -39 -8 -54 3 -14 10 -31 15 -37 6 -7 8 -24 4 -37 -4 -15 0
-28 8 -35 11 -9 16 -9 22 0 4 7 9 27 10 43 1 17 4 40 6 51 2 11 9 24 16 28 7
4 23 30 36 56 14 26 32 53 40 60 9 8 16 21 16 31 0 10 7 23 15 30 8 7 15 20
15 29 -1 11 -7 8 -24 -13 -13 -16 -30 -27 -38 -24 -10 4 -13 27 -12 89 1 46 7
97 13 112 6 16 11 44 11 63 0 33 1 34 37 34 31 0 44 7 71 37 24 28 32 45 30
66 -2 24 -10 32 -43 43 -22 7 -45 14 -51 14z"/>
<path d="M932 530 c-9 0 -31 -11 -49 -25 -17 -14 -36 -38 -41 -55 -6 -16 -7
-32 -3 -35 5 -2 14 2 21 10 7 8 19 15 27 15 12 0 14 -11 10 -52 -3 -29 -8 -66
-12 -81 -6 -24 -4 -29 14 -34 12 -3 29 -19 37 -35 11 -20 13 -42 9 -68 -4 -21
-21 -58 -39 -82 -19 -24 -36 -53 -39 -65 -4 -17 -1 -23 12 -23 9 0 24 6 32 13
8 6 28 30 44 52 16 22 40 51 53 65 13 14 28 36 33 50 6 13 8 33 5 45 -3 11
-24 33 -46 49 -34 25 -40 35 -40 65 0 20 9 51 20 69 11 18 20 47 20 66 0 25
-6 35 -25 44 -14 7 -34 12 -43 12z"/>
</g>
</svg>
