<?xml version="1.0" standalone="no"?>
<!DOCTYPE svg PUBLIC "-//W3C//DTD SVG 20010904//EN"
 "http://www.w3.org/TR/2001/REC-SVG-20010904/DTD/svg10.dtd">
<svg version="1.0" xmlns="http://www.w3.org/2000/svg"
 width="128.000000pt" height="128.000000pt" viewBox="0 0 128.000000 128.000000"
 preserveAspectRatio="xMidYMid meet">
<metadata>
Created by potrace 1.16, written by Peter Selinger 2001-2019
</metadata>
<g transform="translate(0.000000,128.000000) scale(0.100000,-0.100000)"
fill="#000000" stroke="none">
<path d="M1030 1252 c-25 2 -79 2 -120 -2 -54 -4 -87 -12 -114 -29 -21 -13
-49 -33 -62 -45 -13 -12 -33 -29 -46 -39 -13 -10 -46 -36 -75 -58 -29 -22 -54
-48 -57 -57 -3 -10 -22 -26 -42 -37 -20 -10 -43 -28 -52 -40 -10 -11 -38 -37
-64 -58 -26 -21 -55 -37 -65 -35 -11 2 -19 14 -21 28 -1 14 -10 54 -19 90 -9
36 -22 76 -29 90 -6 14 -28 42 -48 63 -21 20 -45 37 -56 37 -10 0 -22 -5 -26
-11 -3 -6 10 -27 29 -47 31 -32 36 -44 37 -87 0 -27 -2 -75 -4 -105 -3 -30
-12 -89 -21 -130 -9 -41 -25 -110 -37 -152 -11 -42 -17 -81 -14 -87 4 -5 -3
-36 -14 -68 -11 -31 -20 -70 -20 -85 0 -16 -7 -45 -15 -65 -8 -19 -15 -53 -15
-74 0 -22 4 -47 8 -57 5 -9 20 -40 35 -68 14 -28 29 -68 32 -88 7 -36 7 -36
89 -36 82 0 82 0 94 33 6 18 14 75 17 127 3 52 7 133 10 180 4 47 12 121 20
165 8 44 14 106 13 138 -1 53 -4 59 -37 85 -20 15 -54 29 -76 32 -28 3 -41 10
-43 23 -3 15 3 17 35 16 21 0 49 2 63 6 15 4 32 1 44 -8 12 -9 20 -31 24 -65
4 -42 8 -52 23 -52 11 0 19 3 19 8 0 4 27 40 59 81 33 40 70 81 83 90 13 9 49
43 79 76 30 34 72 75 95 93 22 18 56 37 75 43 19 7 52 28 74 49 22 21 52 40
66 44 14 3 41 1 59 -4 19 -5 37 -15 42 -22 4 -7 8 -24 8 -38 -1 -14 -12 -47
-25 -75 -14 -27 -25 -55 -25 -61 0 -6 -9 -21 -20 -34 -11 -13 -20 -28 -20 -34
0 -6 -24 -34 -53 -62 -28 -28 -77 -67 -108 -87 -31 -20 -64 -46 -74 -57 -10
-11 -24 -20 -32 -20 -7 0 -13 -4 -13 -9 0 -5 -9 -13 -20 -16 -11 -3 -20 -12
-20 -19 0 -7 -19 -32 -41 -56 -41 -43 -41 -43 -34 -104 3 -34 9 -71 12 -83 3
-16 13 -23 29 -23 13 0 24 -5 24 -10 0 -6 18 -30 41 -54 22 -25 64 -63 93 -85
29 -23 60 -41 68 -41 9 0 21 7 28 15 7 8 15 15 19 15 3 0 12 -4 20 -9 12 -8
13 -12 1 -25 -7 -9 -10 -19 -7 -23 4 -3 12 -2 19 4 7 5 36 14 63 20 28 7 62
14 77 17 15 4 38 18 52 33 13 14 27 41 30 59 4 21 1 45 -11 69 -10 21 -30 43
-48 51 -16 7 -39 19 -50 26 -11 7 -34 23 -52 35 -17 13 -38 23 -46 23 -8 0
-28 5 -46 11 -20 7 -31 18 -31 30 0 11 7 31 16 44 9 14 22 25 29 25 7 0 27 14
45 30 18 17 34 30 36 30 2 0 14 10 27 23 13 12 49 44 80 71 32 27 57 56 57 67
0 10 4 19 10 19 5 0 17 16 25 36 10 26 15 72 15 154 0 112 -1 120 -25 148 -14
17 -44 41 -68 55 -23 13 -62 26 -87 29z m-509 -342 c5 0 9 -9 9 -20 0 -11 -4
-20 -9 -20 -6 0 -13 5 -16 10 -3 6 -3 15 0 20 3 6 10 10 16 10z m-255 -232 c8
-2 16 -7 17 -13 1 -5 -6 -11 -15 -13 -11 -2 -18 3 -18 13 0 10 6 15 16 13z
m533 -18 c4 0 11 -3 14 -6 4 -4 4 -10 1 -15 -2 -4 -11 -6 -19 -3 -8 4 -12 10
-9 15 3 5 9 9 13 9z m-63 -130 c8 0 14 -3 14 -7 0 -5 -11 -21 -24 -38 -21 -26
-25 -28 -31 -12 -5 11 -18 17 -36 17 -20 0 -29 5 -29 16 0 14 7 15 39 10 23
-3 42 -2 46 4 3 5 13 10 21 10z m-26 -102 c23 -16 27 -25 19 -35 -6 -7 -15
-13 -19 -13 -4 0 -15 11 -24 25 -9 14 -14 30 -11 35 3 6 19 0 35 -12z m150
-68 c14 0 20 -7 20 -21 0 -15 -4 -19 -16 -15 -9 3 -18 6 -20 6 -2 0 -4 7 -4
15 0 8 9 15 20 15z"/>
</g>
</svg>
