<?xml version="1.0" standalone="no"?>
<!DOCTYPE svg PUBLIC "-//W3C//DTD SVG 20010904//EN"
 "http://www.w3.org/TR/2001/REC-SVG-20010904/DTD/svg10.dtd">
<svg version="1.0" xmlns="http://www.w3.org/2000/svg"
 width="128.000000pt" height="128.000000pt" viewBox="0 0 128.000000 128.000000"
 preserveAspectRatio="xMidYMid meet">
<metadata>
Created by potrace 1.16, written by Peter Selinger 2001-2019
</metadata>
<g transform="translate(0.000000,128.000000) scale(0.100000,-0.100000)"
fill="#000000" stroke="none">
<path d="M79 1170 c-20 0 -42 -7 -49 -15 -7 -8 -10 -22 -6 -30 3 -9 19 -23 36
-33 17 -9 33 -26 35 -37 3 -11 7 -64 9 -118 2 -54 7 -101 10 -104 3 -4 2 -11
-4 -18 -5 -6 -10 -69 -10 -141 -1 -71 3 -140 8 -154 7 -18 6 -35 -3 -57 -12
-28 -11 -37 6 -72 10 -22 19 -44 19 -49 0 -4 11 -23 25 -42 14 -19 25 -45 25
-58 0 -13 5 -32 10 -43 6 -10 17 -19 26 -19 8 0 34 -18 57 -39 37 -35 48 -39
92 -39 27 0 57 4 67 9 10 6 18 21 18 35 0 15 -8 43 -19 63 -10 20 -27 56 -37
81 -10 25 -28 52 -38 61 -18 15 -19 21 -9 55 7 22 15 52 18 67 3 16 32 53 66
87 33 33 65 60 71 60 6 0 27 13 47 30 20 16 45 39 57 50 12 11 30 20 41 20 10
0 27 6 37 13 15 11 17 17 7 35 -9 17 -9 22 1 23 7 1 27 0 43 0 17 -1 46 6 65
16 19 11 55 33 78 50 24 18 68 39 97 48 29 8 63 15 75 15 12 0 35 -8 51 -17
17 -10 32 -29 35 -43 2 -14 9 -40 15 -58 9 -27 7 -41 -12 -83 -19 -41 -34 -57
-79 -83 -30 -18 -68 -37 -85 -43 -16 -7 -55 -21 -85 -33 -30 -12 -72 -21 -93
-21 -22 0 -50 -5 -64 -10 -14 -5 -33 -19 -43 -32 -12 -14 -17 -31 -13 -47 3
-14 12 -35 19 -47 10 -15 24 -23 43 -23 16 0 49 -9 73 -20 25 -11 51 -27 58
-36 8 -8 26 -22 41 -30 16 -8 42 -14 59 -14 23 0 33 -6 42 -24 6 -14 17 -27
24 -30 8 -3 36 -8 64 -12 47 -6 50 -5 62 22 7 16 18 33 25 37 7 4 13 21 13 37
0 23 -9 35 -37 55 -21 14 -47 25 -59 25 -12 0 -42 12 -68 26 -31 17 -46 32
-46 46 0 11 9 33 21 49 15 22 28 29 53 29 19 0 50 7 70 15 20 8 36 22 36 30 0
8 9 19 21 25 11 6 29 26 39 43 16 26 20 51 20 130 0 82 -3 104 -19 126 -11 15
-23 40 -27 55 -5 23 -11 27 -37 24 -25 -2 -34 2 -44 23 -7 15 -20 32 -28 39
-12 10 -22 8 -53 -8 -23 -12 -49 -18 -65 -15 -17 3 -35 -2 -53 -16 -15 -12
-31 -21 -37 -21 -6 0 -20 -9 -32 -20 -11 -10 -72 -46 -135 -78 -63 -33 -132
-62 -152 -66 -26 -5 -54 -22 -91 -59 -37 -36 -57 -65 -66 -95 -7 -24 -20 -50
-30 -59 -10 -8 -30 -25 -44 -38 -14 -12 -30 -40 -35 -61 -5 -22 -13 -57 -18
-79 -7 -31 -14 -41 -31 -43 -16 -2 -23 2 -24 15 -1 10 -2 30 -3 45 -1 14 -8
33 -15 42 -8 9 -10 24 -5 38 4 12 6 87 6 166 0 88 5 168 13 210 8 37 15 88 15
113 0 28 -6 51 -14 58 -8 6 -19 25 -26 41 -9 21 -23 33 -49 40 -20 5 -52 10
-72 10z m817 -741 c8 -6 14 -15 14 -20 0 -5 -6 -9 -14 -9 -8 0 -18 5 -21 10
-3 6 -3 15 0 20 5 8 11 7 21 -1z m-556 -139 c11 0 20 -4 20 -9 0 -5 -3 -16 -6
-25 -3 -9 -12 -16 -20 -16 -8 0 -14 10 -14 25 0 18 5 25 20 25z"/>
<path d="M1126 130 c-7 0 -16 -3 -19 -6 -4 -4 -4 -11 -1 -15 3 -5 9 -9 14 -9
4 0 10 7 14 15 3 9 0 15 -8 15z"/>
</g>
</svg>
