<?xml version="1.0" standalone="no"?>
<!DOCTYPE svg PUBLIC "-//W3C//DTD SVG 20010904//EN"
 "http://www.w3.org/TR/2001/REC-SVG-20010904/DTD/svg10.dtd">
<svg version="1.0" xmlns="http://www.w3.org/2000/svg"
 width="128.000000pt" height="128.000000pt" viewBox="0 0 128.000000 128.000000"
 preserveAspectRatio="xMidYMid meet">
<metadata>
Created by potrace 1.16, written by Peter Selinger 2001-2019
</metadata>
<g transform="translate(0.000000,128.000000) scale(0.100000,-0.100000)"
fill="#000000" stroke="none">
<path d="M1166 1259 c-23 0 -60 -8 -82 -17 -23 -9 -48 -22 -55 -29 -8 -6 -44
-23 -81 -36 -36 -14 -69 -23 -72 -20 -3 3 -49 -10 -103 -29 -54 -20 -116 -40
-138 -47 -22 -6 -49 -11 -60 -10 -11 0 -36 -5 -55 -13 -19 -8 -57 -28 -84 -46
-27 -17 -57 -34 -67 -37 -10 -3 -41 6 -69 21 -51 27 -51 27 -133 -1 -45 -15
-92 -33 -105 -41 -12 -8 -30 -30 -39 -49 -16 -33 -16 -36 4 -57 11 -13 28 -37
37 -54 8 -18 18 -69 22 -115 3 -46 13 -94 20 -106 8 -12 14 -33 14 -45 0 -13
7 -43 16 -67 9 -27 15 -81 16 -135 0 -50 -3 -118 -7 -151 -3 -33 -3 -85 2
-115 8 -55 8 -55 46 -58 34 -3 43 2 101 59 35 33 70 72 77 86 7 13 33 38 57
54 23 16 55 29 69 29 15 0 35 7 44 16 10 9 38 21 61 26 24 6 75 13 113 18 39
4 92 16 119 25 43 16 57 17 128 6 80 -12 80 -12 135 26 31 21 78 58 105 82 44
39 47 45 34 60 -8 9 -17 28 -21 43 -4 15 -1 36 6 50 7 12 14 39 16 58 2 19 3
64 3 100 0 36 4 80 9 97 6 20 6 45 0 67 -5 18 -25 51 -45 71 -20 21 -40 50
-45 63 -7 18 -6 28 3 33 9 6 5 11 -12 18 -14 6 -36 19 -49 31 -13 11 -21 26
-17 35 3 8 12 15 20 15 8 0 26 -5 40 -12 14 -6 33 -22 41 -35 9 -13 14 -27 11
-32 -3 -4 12 -13 33 -20 21 -6 41 -11 45 -11 3 0 6 6 6 14 0 8 -5 16 -12 18
-6 2 -17 24 -24 49 -8 24 -14 55 -14 70 0 14 -5 30 -12 37 -7 7 -30 12 -52 11z
m-236 -260 c3 0 20 -3 39 -9 22 -6 40 -6 52 1 13 7 29 5 54 -5 34 -15 35 -15
28 -63 -3 -26 -10 -56 -14 -65 -5 -9 -9 -31 -9 -48 0 -17 -9 -50 -20 -73 -15
-31 -20 -58 -18 -107 2 -57 -1 -70 -25 -106 -24 -35 -39 -46 -100 -67 -40 -14
-95 -28 -123 -31 -35 -3 -58 0 -72 9 -18 13 -23 11 -57 -20 -20 -20 -49 -42
-63 -49 -15 -8 -56 -17 -92 -21 -36 -4 -75 -11 -88 -16 -16 -6 -26 -4 -37 9
-9 9 -38 41 -65 71 -28 29 -50 60 -50 67 0 8 5 14 10 14 6 0 14 -10 19 -22 7
-20 9 -20 50 18 41 36 43 41 37 79 -3 22 -10 67 -16 100 -7 47 -6 76 6 133 16
72 17 73 63 95 25 12 56 20 67 19 12 -2 39 4 60 13 22 9 77 19 123 21 46 3 93
10 105 16 11 6 45 17 76 23 30 7 57 13 60 14z m186 -446 c10 -4 12 -9 6 -15
-6 -6 -15 -7 -21 -3 -6 3 -9 10 -6 15 3 5 13 6 21 3z"/>
<path d="M675 550 c-16 0 -25 -6 -25 -15 0 -9 9 -15 25 -15 16 0 25 6 25 15 0
9 -9 15 -25 15z"/>
<path d="M766 1220 c-3 0 -6 -8 -6 -18 0 -10 5 -23 12 -30 7 -7 18 -12 25 -12
7 0 13 9 13 20 0 10 -9 24 -19 30 -11 5 -22 10 -25 10z"/>
<path d="M747 159 c-7 0 -22 -4 -34 -9 -12 -5 -25 -20 -29 -34 -3 -14 -12 -30
-20 -37 -8 -6 -14 -22 -14 -35 0 -12 5 -26 10 -29 6 -4 30 6 53 20 39 25 42
30 44 76 2 33 -2 49 -10 48z"/>
<path d="M809 90 c-4 0 -12 -7 -19 -15 -11 -13 -10 -21 1 -43 7 -15 15 -29 16
-31 1 -2 9 2 18 9 8 7 15 22 15 34 0 12 -5 27 -12 34 -7 7 -15 12 -19 12z"/>
</g>
</svg>
