<?xml version="1.0" standalone="no"?>
<!DOCTYPE svg PUBLIC "-//W3C//DTD SVG 20010904//EN"
 "http://www.w3.org/TR/2001/REC-SVG-20010904/DTD/svg10.dtd">
<svg version="1.0" xmlns="http://www.w3.org/2000/svg"
 width="128.000000pt" height="128.000000pt" viewBox="0 0 128.000000 128.000000"
 preserveAspectRatio="xMidYMid meet">
<metadata>
Created by potrace 1.16, written by Peter Selinger 2001-2019
</metadata>
<g transform="translate(0.000000,128.000000) scale(0.100000,-0.100000)"
fill="#000000" stroke="none">
<path d="M789 1254 c-19 2 -70 0 -114 -4 -44 -4 -96 -12 -115 -18 -19 -6 -71
-13 -115 -17 -44 -4 -99 -11 -123 -17 -23 -6 -47 -18 -52 -28 -5 -9 -6 -27 -3
-39 3 -12 18 -28 34 -36 17 -9 40 -12 61 -8 18 3 45 12 60 19 15 8 44 14 65
14 21 0 49 7 61 16 12 8 47 22 77 30 31 7 65 14 75 14 11 0 20 -4 20 -9 0 -6
-27 -46 -60 -89 -33 -44 -60 -88 -60 -99 0 -10 -4 -23 -8 -29 -4 -6 -37 -10
-79 -9 -39 1 -85 8 -102 15 -25 10 -37 10 -61 0 -16 -7 -30 -16 -30 -20 0 -5
3 -15 6 -24 3 -9 30 -23 60 -32 30 -8 54 -20 54 -25 0 -5 7 -9 15 -9 8 0 15
-4 15 -9 0 -5 -8 -8 -17 -7 -11 1 -20 -11 -27 -33 -5 -19 -36 -59 -73 -96 -35
-34 -63 -65 -63 -68 0 -4 -16 -22 -36 -40 -20 -19 -45 -42 -55 -51 -11 -9 -19
-29 -19 -45 0 -20 9 -37 31 -55 17 -14 37 -26 45 -26 7 0 25 22 39 50 14 27
36 57 49 65 13 9 36 40 51 70 15 29 43 68 61 86 27 26 37 30 47 20 8 -8 11
-40 9 -103 -3 -80 -6 -95 -28 -121 -13 -16 -43 -68 -66 -115 -32 -69 -43 -106
-51 -175 -9 -75 -8 -92 6 -122 9 -20 28 -41 42 -47 17 -8 29 -8 36 -1 5 5 18
32 27 59 10 28 27 53 39 60 12 5 52 44 88 85 45 50 87 85 131 109 49 27 66 32
75 23 10 -10 9 -16 -3 -30 -8 -10 -25 -38 -37 -63 -12 -25 -29 -50 -38 -57 -8
-6 -19 -28 -23 -48 -5 -24 -4 -46 3 -62 6 -13 23 -31 38 -39 16 -8 37 -14 48
-14 11 0 33 -11 49 -25 17 -14 39 -25 51 -25 18 0 21 6 21 40 0 35 -7 48 -45
89 -25 26 -45 54 -45 61 0 8 15 27 33 44 20 19 40 52 50 84 13 39 15 57 7 72
-6 11 -22 27 -35 36 -22 14 -30 14 -88 0 -35 -9 -84 -16 -109 -16 -26 0 -50 6
-57 14 -8 9 -8 22 -1 42 6 17 9 41 8 54 -2 20 3 26 27 31 17 4 57 7 90 8 40 1
69 7 85 18 14 10 49 19 80 21 30 2 70 4 89 4 19 -1 43 4 53 9 10 6 18 21 18
36 0 14 -10 45 -22 69 -11 24 -33 54 -47 67 -14 13 -80 52 -146 87 -66 34
-126 67 -132 73 -7 5 -13 15 -13 22 0 7 28 49 63 94 34 44 68 80 75 81 7 0 12
15 12 40 0 31 -5 43 -24 55 -13 9 -39 17 -57 19z m-141 -325 c2 0 12 -4 23 -9
10 -6 40 -31 65 -56 26 -25 65 -54 88 -66 23 -11 56 -31 74 -45 23 -17 32 -32
30 -46 -2 -15 -20 -31 -53 -49 -28 -15 -77 -31 -110 -37 -33 -5 -74 -13 -92
-16 -31 -7 -31 -7 -37 61 -4 38 -11 91 -16 117 -6 27 -10 68 -10 92 0 33 4 45
18 48 9 3 18 5 20 6z m-104 -532 c11 -8 26 -23 33 -34 12 -18 10 -26 -29 -74
-24 -30 -48 -63 -54 -74 -6 -10 -15 -20 -21 -22 -6 -2 -13 5 -16 16 -2 11 3
55 13 97 11 47 26 83 36 91 15 11 21 11 38 0z"/>
</g>
</svg>
