<?xml version="1.0" standalone="no"?>
<!DOCTYPE svg PUBLIC "-//W3C//DTD SVG 20010904//EN"
 "http://www.w3.org/TR/2001/REC-SVG-20010904/DTD/svg10.dtd">
<svg version="1.0" xmlns="http://www.w3.org/2000/svg"
 width="128.000000pt" height="128.000000pt" viewBox="0 0 128.000000 128.000000"
 preserveAspectRatio="xMidYMid meet">
<metadata>
Created by potrace 1.16, written by Peter Selinger 2001-2019
</metadata>
<g transform="translate(0.000000,128.000000) scale(0.100000,-0.100000)"
fill="#000000" stroke="none">
<path d="M570 1280 c-13 0 -20 -7 -20 -18 0 -10 14 -26 30 -35 17 -10 30 -24
30 -32 0 -8 -9 -19 -19 -25 -11 -5 -27 -10 -36 -10 -13 0 -15 7 -9 35 4 22 2
35 -4 35 -6 0 -18 -7 -26 -16 -9 -8 -18 -27 -21 -42 -3 -15 -12 -47 -21 -72
-8 -25 -17 -90 -20 -145 -3 -55 -10 -110 -16 -123 -9 -17 -9 -25 0 -34 8 -8 7
-18 -3 -38 -8 -16 -17 -74 -21 -133 -3 -65 -2 -112 4 -123 7 -12 7 -25 1 -36
-7 -13 -17 -16 -39 -11 -17 3 -36 1 -42 -5 -7 -5 -28 -13 -45 -17 -18 -3 -39
-16 -47 -27 -8 -11 -12 -27 -9 -35 3 -8 -3 -27 -15 -42 -20 -28 -20 -28 13
-45 21 -11 43 -16 58 -12 13 3 46 23 73 43 27 21 69 49 94 62 25 13 49 27 53
31 5 4 0 22 -11 39 -11 18 -17 41 -15 52 3 10 1 25 -5 32 -7 8 -7 40 2 103 7
49 15 95 19 100 3 6 9 75 12 155 4 79 10 148 15 154 4 5 10 23 12 39 3 27 9
32 62 47 32 10 64 23 69 28 6 6 26 11 43 11 18 0 36 5 39 10 4 6 1 17 -5 25
-7 8 -27 15 -44 15 -17 0 -50 9 -73 20 -24 10 -43 24 -43 30 0 5 -9 10 -20 10z
m-163 -840 c7 0 13 -6 13 -14 0 -8 -3 -21 -6 -30 -3 -9 -12 -16 -20 -16 -8 0
-14 10 -14 23 0 13 3 27 7 30 3 4 12 7 20 7z"/>
<path d="M871 1129 c-21 0 -79 -20 -141 -49 -58 -27 -105 -55 -105 -62 0 -8
11 -12 30 -10 17 2 44 9 60 16 17 8 47 21 69 30 21 9 49 16 62 16 13 0 28 -9
34 -20 6 -12 12 -84 12 -170 1 -86 -2 -151 -8 -152 -5 -2 -10 7 -12 20 -2 12
-18 33 -35 46 -18 13 -47 28 -66 35 -19 6 -43 19 -53 28 -11 10 -18 30 -18 55
0 27 -5 41 -16 45 -11 4 -22 -1 -30 -12 -8 -10 -14 -38 -14 -61 0 -34 -5 -47
-26 -63 -15 -12 -33 -21 -40 -21 -8 0 -14 -4 -14 -10 0 -5 5 -22 12 -37 7 -15
25 -47 40 -70 16 -23 28 -55 28 -73 0 -20 -6 -33 -17 -37 -10 -3 -39 -15 -65
-26 -44 -19 -46 -21 -32 -41 7 -11 14 -31 14 -44 0 -12 6 -25 14 -28 7 -3 31
4 52 15 22 11 58 23 80 27 27 4 44 2 49 -5 4 -7 1 -18 -5 -26 -7 -8 -10 -22
-6 -31 4 -10 15 -14 33 -12 15 2 32 12 38 23 5 12 20 34 32 50 16 23 25 27 33
19 9 -9 9 -17 1 -33 -11 -20 -10 -21 31 -15 24 3 69 8 101 11 49 4 60 9 69 29
8 16 8 36 2 60 -7 28 -18 41 -49 57 -22 11 -47 24 -55 28 -8 3 -15 17 -14 30
1 13 7 60 14 104 6 44 14 117 17 163 3 45 2 93 -1 107 -4 14 -20 40 -37 60
-25 28 -38 35 -68 34z m-116 -326 c6 -2 16 -17 22 -33 6 -16 8 -31 5 -34 -3
-3 -19 -6 -37 -6 -17 0 -36 5 -42 11 -6 6 -8 20 -5 31 2 11 14 23 26 28 11 4
26 6 31 3z m-80 -93 c16 0 25 -6 25 -15 0 -8 -4 -15 -9 -15 -5 0 -16 3 -25 6
-9 3 -16 10 -16 15 0 5 11 9 25 9z m57 -36 c4 -3 2 -14 -4 -24 -7 -11 -9 -22
-5 -26 4 -4 13 -2 19 4 7 7 19 12 28 12 9 0 26 9 39 21 12 11 29 18 37 15 9
-3 14 -20 14 -45 0 -22 5 -52 12 -66 6 -14 15 -25 20 -25 4 0 8 8 9 18 0 11 2
12 6 4 3 -7 0 -19 -6 -26 -7 -8 -23 -16 -36 -18 -14 -3 -33 1 -43 8 -10 7 -25
12 -33 12 -8 -1 -26 0 -41 0 -19 2 -26 6 -22 16 4 10 -3 16 -23 18 -19 2 -29
9 -31 24 -2 12 9 34 24 52 15 17 31 29 36 26z"/>
<path d="M813 590 c-7 0 -13 -6 -13 -14 0 -8 8 -17 17 -20 9 -4 21 -2 27 4 8
8 7 14 -4 20 -8 5 -21 10 -27 10z"/>
<path d="M703 410 c-10 0 -31 -7 -48 -16 -16 -8 -54 -34 -84 -57 -30 -23 -72
-60 -94 -82 -22 -22 -48 -58 -58 -80 -10 -22 -19 -57 -19 -78 0 -21 7 -51 15
-67 13 -24 22 -30 49 -30 28 0 47 12 112 75 44 41 86 75 95 75 9 0 24 9 34 20
12 13 31 20 55 20 21 0 43 7 50 15 8 9 29 15 56 15 32 0 49 -6 63 -22 12 -12
23 -30 26 -40 4 -9 -2 -29 -12 -42 -10 -14 -34 -32 -53 -40 -19 -8 -44 -16
-54 -18 -11 -2 -20 -7 -20 -13 -1 -5 10 -11 24 -13 14 -1 41 -7 60 -12 21 -6
53 -7 79 -3 34 6 49 15 62 38 10 17 18 42 18 57 1 18 -13 42 -41 73 -24 26
-58 53 -76 61 -21 9 -54 12 -90 9 -31 -3 -91 -17 -132 -31 -41 -15 -84 -35
-96 -45 -11 -11 -25 -19 -32 -19 -6 0 -32 -14 -57 -31 -37 -25 -48 -29 -60
-19 -8 7 -15 21 -15 32 0 11 14 39 31 64 17 25 52 61 78 82 26 20 71 51 99 67
28 17 52 36 52 43 0 6 -8 12 -17 12z"/>
</g>
</svg>
