<?xml version="1.0" standalone="no"?>
<!DOCTYPE svg PUBLIC "-//W3C//DTD SVG 20010904//EN"
 "http://www.w3.org/TR/2001/REC-SVG-20010904/DTD/svg10.dtd">
<svg version="1.0" xmlns="http://www.w3.org/2000/svg"
 width="128.000000pt" height="128.000000pt" viewBox="0 0 128.000000 128.000000"
 preserveAspectRatio="xMidYMid meet">
<metadata>
Created by potrace 1.16, written by Peter Selinger 2001-2019
</metadata>
<g transform="translate(0.000000,128.000000) scale(0.100000,-0.100000)"
fill="#000000" stroke="none">
<path d="M569 1250 c-26 0 -42 -5 -45 -15 -4 -9 -1 -35 5 -60 6 -24 11 -55 11
-69 0 -16 -11 -33 -32 -50 -18 -13 -51 -29 -73 -35 -22 -6 -66 -13 -97 -16
-31 -4 -62 -13 -69 -21 -9 -11 -9 -21 0 -40 6 -14 11 -36 11 -49 0 -13 7 -28
17 -33 9 -6 29 -6 46 -1 16 4 48 9 71 9 22 0 55 2 71 3 29 2 30 1 33 -50 2
-43 -3 -66 -28 -118 -17 -36 -28 -70 -25 -75 3 -6 34 -11 68 -11 34 -1 93 0
130 0 47 1 76 -3 92 -13 16 -10 27 -32 34 -66 6 -28 11 -73 11 -100 0 -37 -5
-55 -21 -71 -16 -16 -28 -20 -52 -14 -18 3 -42 6 -55 7 -12 0 -47 -19 -77 -41
-30 -23 -62 -53 -71 -67 -16 -24 -16 -27 5 -54 11 -16 21 -40 21 -53 0 -13 13
-51 30 -85 16 -34 36 -62 42 -62 7 0 54 21 105 46 58 29 106 61 131 88 29 31
45 64 67 131 15 50 30 110 33 135 2 25 5 77 5 115 1 48 -4 81 -16 104 -9 19
-17 44 -17 56 0 14 -13 33 -35 49 -19 15 -35 35 -35 46 0 10 -9 22 -20 25 -11
3 -20 12 -20 18 0 7 28 27 60 46 33 19 73 51 87 70 19 24 28 48 28 73 0 23 -9
49 -23 67 -12 17 -22 39 -22 51 0 11 -9 29 -20 40 -11 11 -28 20 -38 20 -10 0
-41 6 -70 14 -44 11 -59 11 -90 0 -20 -7 -47 -13 -60 -14 -16 0 -29 11 -43 35
-18 31 -26 35 -60 35z m290 -140 c6 0 13 -5 17 -12 4 -6 -2 -19 -13 -28 -12
-9 -32 -39 -46 -66 -14 -27 -36 -61 -49 -76 -14 -17 -28 -25 -35 -20 -7 4 -17
38 -23 76 -8 50 -8 71 0 76 6 4 40 13 75 20 36 7 65 17 65 22 0 4 4 8 9 8z
m-246 -180 c7 0 28 -15 46 -34 25 -26 34 -44 35 -72 1 -27 -4 -39 -14 -41 -10
-2 -26 19 -48 64 -18 38 -32 71 -32 76 0 4 6 7 13 7z"/>
</g>
</svg>
