<?xml version="1.0" standalone="no"?>
<!DOCTYPE svg PUBLIC "-//W3C//DTD SVG 20010904//EN"
 "http://www.w3.org/TR/2001/REC-SVG-20010904/DTD/svg10.dtd">
<svg version="1.0" xmlns="http://www.w3.org/2000/svg"
 width="128.000000pt" height="128.000000pt" viewBox="0 0 128.000000 128.000000"
 preserveAspectRatio="xMidYMid meet">
<metadata>
Created by potrace 1.16, written by Peter Selinger 2001-2019
</metadata>
<g transform="translate(0.000000,128.000000) scale(0.100000,-0.100000)"
fill="#000000" stroke="none">
<path d="M819 1231 c-19 3 -42 3 -50 1 -8 -3 -31 -20 -52 -38 -20 -19 -46 -34
-56 -34 -11 0 -23 -5 -27 -11 -3 -6 -30 -26 -60 -45 -30 -19 -54 -40 -54 -47
0 -7 -6 -19 -12 -25 -7 -7 -31 -48 -54 -90 -29 -56 -46 -78 -62 -80 -17 -3
-22 2 -22 18 0 12 8 32 18 45 10 12 24 42 32 65 10 30 11 47 3 58 -5 10 -27
21 -47 26 -27 7 -42 6 -54 -2 -9 -6 -33 -21 -54 -32 -24 -13 -40 -31 -48 -54
-6 -19 -17 -37 -25 -40 -8 -3 -15 -4 -16 -3 0 1 -3 29 -5 62 -3 50 -8 64 -32
83 -15 13 -39 30 -54 37 -24 13 -29 13 -42 -1 -9 -8 -16 -22 -16 -31 0 -8 11
-28 25 -44 22 -27 24 -37 20 -96 -2 -36 0 -75 6 -86 8 -14 7 -44 -6 -112 -14
-71 -15 -96 -6 -113 9 -17 8 -27 -3 -44 -9 -14 -19 -72 -26 -152 -6 -71 -16
-138 -21 -148 -6 -10 -7 -28 -4 -39 4 -11 18 -25 31 -31 20 -10 28 -8 49 12
14 13 28 43 34 71 7 32 7 57 1 74 -6 15 -10 39 -10 55 0 16 4 31 9 34 5 4 12
28 16 55 4 31 2 57 -5 71 -9 17 -9 25 3 38 9 9 26 61 40 116 14 54 32 105 41
114 13 13 19 14 38 3 13 -7 34 -29 46 -49 17 -26 25 -56 29 -109 5 -64 3 -77
-14 -96 -11 -12 -34 -51 -51 -85 -18 -35 -32 -71 -32 -81 0 -9 5 -22 12 -29 7
-7 28 -12 48 -12 24 0 43 7 54 19 10 11 22 37 28 58 5 21 13 65 17 98 4 33 17
85 28 115 12 30 24 74 27 98 4 24 12 53 18 65 7 12 35 57 62 100 36 58 60 84
89 99 35 17 41 18 54 5 12 -11 12 -19 4 -35 -6 -12 -29 -42 -51 -67 -26 -30
-40 -56 -40 -74 0 -16 10 -37 23 -49 13 -12 28 -22 35 -22 6 0 14 -5 17 -10 4
-6 -1 -23 -11 -38 -9 -15 -36 -46 -60 -69 -37 -36 -44 -49 -44 -81 0 -20 7
-48 16 -60 12 -17 25 -22 58 -22 36 0 45 4 54 25 7 14 12 33 12 41 0 8 21 28
47 44 26 17 61 30 78 30 17 0 36 -5 43 -12 7 -7 12 -18 12 -26 0 -7 -19 -33
-42 -58 -30 -31 -51 -44 -71 -44 -15 0 -35 -9 -44 -20 -10 -11 -29 -20 -43
-20 -15 0 -37 -11 -50 -25 -14 -15 -35 -25 -50 -25 -15 0 -34 -8 -43 -18 -10
-10 -17 -29 -17 -41 0 -12 7 -35 15 -50 8 -16 25 -31 37 -35 13 -3 41 -6 63
-6 22 -1 58 -7 80 -15 22 -8 50 -15 63 -15 13 0 58 -11 102 -25 43 -14 84 -32
90 -40 7 -8 18 -15 25 -15 7 0 33 -9 58 -20 25 -11 73 -47 106 -80 50 -51 65
-60 95 -60 34 0 36 2 36 35 0 19 -3 35 -7 35 -5 0 -19 16 -32 35 -13 19 -31
35 -40 35 -9 0 -29 9 -46 20 -16 11 -39 20 -51 20 -11 0 -29 9 -39 20 -10 11
-22 20 -27 20 -5 0 -25 12 -45 27 -27 21 -48 28 -87 29 -35 1 -70 11 -112 33
-34 17 -67 38 -74 46 -7 8 -10 21 -7 29 3 8 34 31 69 50 35 20 83 54 107 76
27 25 41 45 37 55 -3 9 3 19 14 25 15 8 20 21 20 48 0 30 -7 44 -36 71 -35 33
-36 34 -105 28 -53 -4 -69 -3 -69 7 0 7 5 27 11 45 6 17 15 31 20 31 4 0 13
19 20 42 8 31 8 52 0 79 -6 20 -18 40 -26 43 -8 3 -15 12 -15 20 0 7 6 16 13
19 8 3 31 30 51 61 25 38 36 65 34 84 -2 22 -9 28 -39 33z"/>
</g>
</svg>
