<?xml version="1.0" standalone="no"?>
<!DOCTYPE svg PUBLIC "-//W3C//DTD SVG 20010904//EN"
 "http://www.w3.org/TR/2001/REC-SVG-20010904/DTD/svg10.dtd">
<svg version="1.0" xmlns="http://www.w3.org/2000/svg"
 width="128.000000pt" height="128.000000pt" viewBox="0 0 128.000000 128.000000"
 preserveAspectRatio="xMidYMid meet">
<metadata>
Created by potrace 1.16, written by Peter Selinger 2001-2019
</metadata>
<g transform="translate(0.000000,128.000000) scale(0.100000,-0.100000)"
fill="#000000" stroke="none">
<path d="M934 1000 c-7 0 -29 -17 -49 -37 -20 -21 -56 -45 -80 -54 -24 -9 -49
-13 -56 -8 -7 4 -43 6 -81 5 -49 -2 -74 -8 -88 -21 -11 -10 -20 -28 -20 -41 0
-13 -9 -28 -19 -33 -14 -8 -22 -7 -30 2 -5 7 -8 23 -4 35 4 16 -3 30 -28 53
-18 17 -43 35 -54 39 -12 4 -51 11 -88 15 -37 4 -67 4 -67 0 0 -4 20 -31 45
-59 25 -29 45 -62 45 -73 0 -11 5 -34 11 -52 9 -24 8 -35 -2 -47 -7 -8 -29
-22 -48 -30 -29 -12 -47 -13 -91 -5 -30 6 -80 8 -110 5 -30 -4 -67 -14 -82
-23 -16 -8 -28 -23 -28 -32 0 -9 16 -33 36 -53 30 -30 40 -34 67 -30 18 4 51
15 75 26 24 11 44 19 45 17 2 -2 9 -16 16 -30 7 -14 33 -39 57 -54 24 -15 49
-34 56 -42 9 -11 4 -20 -23 -43 -19 -16 -43 -32 -54 -36 -11 -3 -51 -19 -88
-36 -40 -17 -76 -27 -87 -23 -14 4 -20 2 -20 -9 0 -8 12 -24 27 -36 22 -17 34
-20 68 -14 22 4 58 7 80 6 37 -2 45 2 100 58 44 44 67 60 87 60 18 0 39 -12
62 -35 23 -22 45 -35 62 -35 20 0 46 21 109 86 64 65 91 86 117 90 28 4 38 0
69 -33 21 -21 56 -49 79 -63 23 -14 59 -39 79 -55 20 -17 47 -36 61 -43 14 -6
57 -16 95 -22 39 -5 76 -10 83 -10 7 0 12 13 11 33 0 29 -5 35 -57 59 -31 15
-69 32 -84 38 -16 5 -28 14 -28 19 0 5 -10 11 -23 15 -13 3 -39 19 -58 36 -19
17 -52 47 -74 68 -40 37 -40 37 -20 76 11 22 28 47 38 58 9 10 17 24 17 32 0
7 7 19 15 26 9 7 13 20 10 28 -3 8 6 23 21 35 23 18 26 25 21 66 -4 34 -12 51
-34 68 -15 13 -39 32 -52 43 -13 11 -30 20 -37 20z m-74 -150 c6 0 10 -7 10
-16 0 -12 7 -14 29 -9 18 4 32 2 36 -5 4 -7 2 -31 -5 -54 -7 -22 -17 -57 -24
-76 -8 -23 -19 -36 -33 -38 -18 -3 -27 8 -52 60 -17 34 -31 68 -31 75 0 6 9
15 20 18 11 3 25 15 30 26 6 10 15 19 20 19z m-183 -23 c9 -8 14 -20 12 -25
-3 -7 -11 -5 -23 3 -10 8 -15 19 -11 25 5 9 11 8 22 -3z m-48 -48 c2 -6 13
-14 25 -19 14 -5 37 -36 59 -79 20 -39 37 -77 37 -84 0 -6 -21 -33 -46 -59
-25 -27 -50 -48 -55 -48 -5 0 -21 -7 -34 -16 -20 -13 -28 -14 -40 -4 -8 7 -15
24 -15 39 0 14 9 43 20 64 11 21 23 65 25 99 3 34 7 64 10 66 3 3 0 12 -7 19
-9 11 -9 17 3 23 9 6 15 5 18 -1z m-161 -79 c7 0 22 -5 33 -10 10 -6 19 -20
19 -32 0 -12 -5 -37 -12 -55 -8 -21 -21 -36 -35 -39 -14 -4 -34 1 -48 10 -16
11 -25 26 -25 42 0 14 12 39 27 55 16 16 34 29 41 29z m215 -229 c5 -5 6 -14
3 -20 -4 -6 -14 -11 -22 -11 -8 0 -14 4 -14 8 0 4 5 13 12 20 7 7 16 8 21 3z"/>
<path d="M1272 920 c-5 0 -12 -3 -15 -7 -4 -3 -7 -17 -7 -30 0 -14 -5 -33 -10
-43 -8 -15 -6 -21 9 -30 11 -5 22 -10 25 -10 3 0 6 27 6 60 0 33 -4 60 -8 60z"/>
</g>
</svg>
