<?xml version="1.0" standalone="no"?>
<!DOCTYPE svg PUBLIC "-//W3C//DTD SVG 20010904//EN"
 "http://www.w3.org/TR/2001/REC-SVG-20010904/DTD/svg10.dtd">
<svg version="1.0" xmlns="http://www.w3.org/2000/svg"
 width="56.000000pt" height="56.000000pt" viewBox="0 0 56.000000 56.000000"
 preserveAspectRatio="xMidYMid meet">
<metadata>
Created by potrace 1.16, written by Peter Selinger 2001-2019
</metadata>
<g transform="translate(0.000000,56.000000) scale(0.100000,-0.100000)"
fill="#000000" stroke="none">
<path d="M203 560 c-28 0 -47 -9 -74 -33 -19 -17 -50 -40 -67 -49 -18 -9 -32
-24 -32 -31 0 -8 24 -26 53 -40 28 -14 68 -28 87 -32 19 -4 56 -25 82 -47 26
-22 57 -58 67 -81 11 -23 44 -80 73 -126 33 -52 65 -91 85 -102 26 -15 33 -16
43 -4 8 10 7 22 -4 47 -9 18 -36 65 -60 103 -25 39 -52 84 -61 100 -8 17 -31
51 -50 76 -27 38 -46 51 -102 73 -38 14 -74 26 -81 26 -6 0 -12 4 -12 10 0 5
20 29 45 53 25 25 45 48 45 51 0 3 -17 6 -37 6z"/>
<path d="M240 200 c-5 0 -12 -5 -15 -11 -4 -6 -4 -13 -1 -16 3 -3 12 -3 21 1
9 3 13 10 10 16 -3 5 -10 10 -15 10z"/>
<path d="M194 40 c-7 0 -16 -4 -19 -10 -3 -6 -3 -15 0 -20 3 -5 17 -10 31 -10
13 0 24 4 24 8 0 4 -5 13 -12 20 -7 7 -18 12 -24 12z"/>
</g>
</svg>
