<?xml version="1.0" standalone="no"?>
<!DOCTYPE svg PUBLIC "-//W3C//DTD SVG 20010904//EN"
 "http://www.w3.org/TR/2001/REC-SVG-20010904/DTD/svg10.dtd">
<svg version="1.0" xmlns="http://www.w3.org/2000/svg"
 width="56.000000pt" height="56.000000pt" viewBox="0 0 56.000000 56.000000"
 preserveAspectRatio="xMidYMid meet">
<metadata>
Created by potrace 1.16, written by Peter Selinger 2001-2019
</metadata>
<g transform="translate(0.000000,56.000000) scale(0.100000,-0.100000)"
fill="#000000" stroke="none">
<path d="M119 458 c-8 1 -18 0 -22 -4 -4 -4 -2 -13 4 -20 7 -8 7 -14 -1 -19
-5 -3 -7 -17 -4 -30 5 -20 1 -25 -26 -32 -23 -6 -36 -18 -50 -50 -14 -32 -16
-45 -7 -57 10 -12 20 -13 57 -4 25 6 53 14 62 19 10 5 44 9 76 9 50 0 63 -4
92 -30 19 -16 46 -29 59 -30 14 0 54 -24 97 -60 40 -33 79 -60 88 -60 9 0 16
7 16 16 0 9 -34 51 -75 94 -53 54 -88 81 -115 89 -22 6 -68 14 -102 17 -35 3
-67 10 -73 16 -7 6 11 29 52 68 34 32 59 61 56 64 -4 3 -28 6 -54 6 -44 0 -50
-3 -64 -31 -9 -16 -21 -29 -28 -26 -6 2 -14 14 -17 28 -3 13 -13 25 -21 27z"/>
<path d="M249 194 c-5 6 -11 3 -14 -6 -4 -9 -5 -33 -3 -54 2 -32 7 -40 27 -42
13 -2 28 1 33 6 6 6 1 24 -12 48 -12 21 -26 43 -31 48z"/>
</g>
</svg>
