<?xml version="1.0" standalone="no"?>
<!DOCTYPE svg PUBLIC "-//W3C//DTD SVG 20010904//EN"
 "http://www.w3.org/TR/2001/REC-SVG-20010904/DTD/svg10.dtd">
<svg version="1.0" xmlns="http://www.w3.org/2000/svg"
 width="56.000000pt" height="56.000000pt" viewBox="0 0 56.000000 56.000000"
 preserveAspectRatio="xMidYMid meet">
<metadata>
Created by potrace 1.16, written by Peter Selinger 2001-2019
</metadata>
<g transform="translate(0.000000,56.000000) scale(0.100000,-0.100000)"
fill="#000000" stroke="none">
<path d="M163 480 c-7 0 -16 -7 -20 -16 -3 -8 -16 -20 -29 -25 -13 -4 -24 -15
-24 -24 0 -8 -6 -15 -13 -15 -7 0 -27 -15 -45 -33 -22 -23 -32 -43 -32 -65 0
-32 1 -32 48 -32 26 0 52 4 57 8 6 5 34 18 64 30 29 12 76 22 102 22 27 0 59
-6 72 -12 12 -7 51 -43 88 -80 36 -38 72 -68 81 -68 9 0 23 2 30 5 10 4 0 20
-32 53 -25 26 -63 61 -85 78 -22 17 -59 41 -82 53 -23 11 -59 21 -81 21 -21 0
-42 -4 -47 -9 -6 -5 -36 -18 -68 -30 -32 -11 -67 -21 -78 -21 -16 0 -18 3 -10
19 6 10 20 28 33 40 13 11 40 36 60 55 21 18 35 36 31 40 -3 3 -12 6 -20 6z"/>
<path d="M196 263 c-8 3 -17 -1 -20 -9 -3 -8 -3 -21 0 -29 5 -12 10 -13 20 -4
8 6 14 17 14 24 0 7 -6 15 -14 18z"/>
<path d="M548 160 c-7 0 -20 -4 -28 -10 -12 -7 -11 -10 5 -16 11 -4 23 -9 28
-11 4 -2 7 5 7 16 0 12 -6 21 -12 21z"/>
<path d="M266 98 c-10 2 -16 -3 -16 -13 0 -10 7 -15 18 -13 9 2 16 8 15 13 -1
6 -9 11 -17 13z"/>
</g>
</svg>
