<?xml version="1.0" standalone="no"?>
<!DOCTYPE svg PUBLIC "-//W3C//DTD SVG 20010904//EN"
 "http://www.w3.org/TR/2001/REC-SVG-20010904/DTD/svg10.dtd">
<svg version="1.0" xmlns="http://www.w3.org/2000/svg"
 width="56.000000pt" height="56.000000pt" viewBox="0 0 56.000000 56.000000"
 preserveAspectRatio="xMidYMid meet">
<metadata>
Created by potrace 1.16, written by Peter Selinger 2001-2019
</metadata>
<g transform="translate(0.000000,56.000000) scale(0.100000,-0.100000)"
fill="#000000" stroke="none">
<path d="M374 478 c-32 2 -47 -2 -67 -20 -14 -13 -39 -35 -56 -50 -17 -16 -37
-28 -44 -28 -8 0 -49 -20 -92 -45 -44 -25 -85 -50 -92 -57 -7 -7 -14 -28 -15
-46 -3 -27 2 -36 28 -52 31 -20 31 -20 75 3 24 13 65 35 91 50 44 25 50 26 80
14 18 -8 40 -22 48 -32 8 -10 31 -28 50 -41 19 -13 57 -40 85 -59 27 -19 60
-35 72 -35 18 0 23 6 23 25 0 14 -6 25 -13 25 -8 0 -36 23 -63 51 -32 33 -77
65 -128 90 -44 21 -85 39 -92 39 -6 0 -27 -7 -45 -15 -19 -9 -47 -24 -64 -35
-16 -10 -40 -19 -52 -19 -14 -1 -23 5 -23 13 0 8 13 24 29 35 16 12 40 21 53
21 12 0 37 9 53 20 17 11 50 36 75 55 25 19 52 38 60 41 8 3 25 11 37 17 12 7
23 17 25 22 2 6 -16 11 -38 13z"/>
<path d="M206 110 c-8 0 -16 -6 -19 -14 -3 -8 -3 -17 0 -20 4 -3 12 -6 20 -6
7 0 13 9 13 20 0 11 -6 20 -14 20z"/>
</g>
</svg>
