<?xml version="1.0" standalone="no"?>
<!DOCTYPE svg PUBLIC "-//W3C//DTD SVG 20010904//EN"
 "http://www.w3.org/TR/2001/REC-SVG-20010904/DTD/svg10.dtd">
<svg version="1.0" xmlns="http://www.w3.org/2000/svg"
 width="56.000000pt" height="56.000000pt" viewBox="0 0 56.000000 56.000000"
 preserveAspectRatio="xMidYMid meet">
<metadata>
Created by potrace 1.16, written by Peter Selinger 2001-2019
</metadata>
<g transform="translate(0.000000,56.000000) scale(0.100000,-0.100000)"
fill="#000000" stroke="none">
<path d="M250 360 c-38 0 -72 -4 -75 -10 -3 -5 -19 -10 -35 -10 -16 0 -32 -4
-35 -10 -3 -5 -17 -10 -31 -10 -14 0 -36 -7 -49 -16 -18 -12 -25 -25 -25 -47
0 -31 0 -31 33 1 18 18 40 32 49 32 9 0 20 5 23 10 3 6 19 10 35 10 16 0 32 5
35 10 3 6 29 10 57 10 29 0 68 -5 87 -11 20 -6 64 -25 99 -42 34 -16 62 -34
62 -39 0 -4 6 -8 14 -8 8 0 16 -4 18 -9 2 -4 13 -12 26 -15 16 -5 22 -3 22 7
0 8 -8 21 -18 30 -10 10 -23 17 -29 17 -6 0 -13 3 -15 8 -1 4 -23 17 -46 30
-24 12 -50 22 -58 22 -8 0 -14 5 -14 10 0 6 -11 10 -24 10 -14 0 -28 5 -31 10
-3 6 -37 10 -75 10z"/>
</g>
</svg>
