<?xml version="1.0" standalone="no"?>
<!DOCTYPE svg PUBLIC "-//W3C//DTD SVG 20010904//EN"
 "http://www.w3.org/TR/2001/REC-SVG-20010904/DTD/svg10.dtd">
<svg version="1.0" xmlns="http://www.w3.org/2000/svg"
 width="56.000000pt" height="56.000000pt" viewBox="0 0 56.000000 56.000000"
 preserveAspectRatio="xMidYMid meet">
<metadata>
Created by potrace 1.16, written by Peter Selinger 2001-2019
</metadata>
<g transform="translate(0.000000,56.000000) scale(0.100000,-0.100000)"
fill="#000000" stroke="none">
<path d="M306 460 c-27 0 -43 -8 -70 -35 -20 -19 -39 -35 -44 -35 -5 0 -15 -7
-22 -15 -7 -8 -18 -15 -26 -15 -7 0 -30 -11 -51 -25 -21 -13 -50 -34 -65 -47
-16 -12 -28 -30 -28 -40 0 -12 7 -18 22 -18 12 0 52 22 90 50 38 28 71 50 74
50 3 0 47 -20 97 -45 51 -24 100 -51 110 -58 9 -8 17 -19 17 -25 0 -6 -8 -13
-17 -15 -10 -3 -31 -8 -46 -11 -17 -4 -31 -16 -37 -32 -6 -14 -10 -32 -10 -40
0 -8 7 -14 15 -14 9 0 29 13 45 30 22 23 38 30 68 30 21 0 42 -4 48 -9 5 -4
26 -11 47 -14 37 -6 37 -5 37 29 0 30 -3 34 -26 34 -22 0 -25 -2 -14 -15 9
-10 9 -15 1 -15 -6 0 -11 5 -11 10 0 6 -12 11 -27 11 -24 2 -25 2 -5 6 12 2
22 9 22 15 0 5 -9 12 -20 15 -11 3 -20 14 -20 23 0 10 -13 28 -30 40 -16 12
-43 22 -60 22 -17 1 -35 7 -41 15 -6 7 -19 13 -28 13 -9 1 -31 9 -49 19 -34
17 -34 17 -5 36 15 11 41 27 57 36 17 9 32 21 34 27 2 8 -9 12 -32 12z"/>
</g>
</svg>
