<?xml version="1.0" standalone="no"?>
<!DOCTYPE svg PUBLIC "-//W3C//DTD SVG 20010904//EN"
 "http://www.w3.org/TR/2001/REC-SVG-20010904/DTD/svg10.dtd">
<svg version="1.0" xmlns="http://www.w3.org/2000/svg"
 width="56.000000pt" height="56.000000pt" viewBox="0 0 56.000000 56.000000"
 preserveAspectRatio="xMidYMid meet">
<metadata>
Created by potrace 1.16, written by Peter Selinger 2001-2019
</metadata>
<g transform="translate(0.000000,56.000000) scale(0.100000,-0.100000)"
fill="#000000" stroke="none">
<path d="M306 498 c-13 2 -27 -2 -31 -8 -3 -5 -40 -33 -80 -60 -41 -28 -77
-50 -80 -50 -4 0 -31 -17 -61 -37 -38 -27 -54 -45 -54 -60 0 -17 6 -23 21 -23
11 0 35 10 52 22 18 11 44 32 59 46 27 25 27 25 83 7 31 -9 68 -27 83 -40 15
-12 41 -29 59 -38 17 -9 53 -38 80 -64 27 -27 57 -65 66 -85 12 -25 25 -38 37
-38 17 0 20 7 20 40 0 34 -6 45 -46 82 -26 24 -72 62 -103 86 -31 23 -79 54
-108 68 -29 14 -57 32 -64 40 -7 8 -9 17 -6 21 4 3 28 20 54 37 25 17 46 36
45 41 -1 6 -12 11 -26 13z"/>
<path d="M232 182 c-15 8 -33 13 -39 11 -9 -3 -11 -22 -6 -66 3 -34 9 -66 14
-71 5 -5 14 -4 24 4 8 7 15 20 15 29 0 10 6 24 13 33 6 9 23 19 36 23 23 7 24
6 18 -38 -6 -40 -4 -47 14 -52 12 -4 25 -3 31 3 5 5 10 34 11 65 1 33 -3 61
-10 68 -10 10 -21 8 -53 -6 -38 -17 -43 -17 -68 -3z"/>
</g>
</svg>
