<?xml version="1.0" standalone="no"?>
<!DOCTYPE svg PUBLIC "-//W3C//DTD SVG 20010904//EN"
 "http://www.w3.org/TR/2001/REC-SVG-20010904/DTD/svg10.dtd">
<svg version="1.0" xmlns="http://www.w3.org/2000/svg"
 width="56.000000pt" height="56.000000pt" viewBox="0 0 56.000000 56.000000"
 preserveAspectRatio="xMidYMid meet">
<metadata>
Created by potrace 1.16, written by Peter Selinger 2001-2019
</metadata>
<g transform="translate(0.000000,56.000000) scale(0.100000,-0.100000)"
fill="#000000" stroke="none">
<path d="M290 500 c-12 0 -29 -15 -45 -40 -14 -22 -25 -42 -25 -45 0 -4 -14
-18 -32 -33 -17 -15 -45 -35 -61 -45 -17 -10 -36 -24 -43 -32 -7 -7 -29 -23
-49 -35 -19 -12 -35 -30 -35 -40 0 -10 6 -20 14 -23 7 -3 31 6 52 21 22 14 45
34 52 44 7 10 20 18 28 18 8 0 26 7 39 16 17 11 36 14 59 10 19 -4 72 -25 117
-48 57 -29 90 -53 110 -81 16 -21 31 -49 35 -61 3 -11 13 -29 22 -38 8 -10 19
-18 24 -18 4 0 8 20 8 44 0 41 -4 48 -67 109 -38 35 -86 80 -107 98 -32 28
-48 34 -88 35 -26 1 -55 2 -63 3 -8 0 -15 10 -15 20 0 11 8 22 18 26 9 3 32
19 51 35 22 18 32 34 28 44 -4 9 -15 16 -27 16z"/>
<path d="M150 160 c-5 0 -11 -3 -13 -7 -3 -5 -4 -19 -3 -33 1 -19 8 -26 33
-31 18 -3 40 -12 48 -19 10 -8 32 -11 60 -7 25 2 55 13 65 22 11 10 20 26 20
36 0 10 -9 20 -20 24 -10 3 -40 -1 -65 -9 -25 -9 -59 -16 -75 -16 -20 0 -31 6
-35 20 -3 11 -10 20 -15 20z"/>
</g>
</svg>
