<?xml version="1.0" standalone="no"?>
<!DOCTYPE svg PUBLIC "-//W3C//DTD SVG 20010904//EN"
 "http://www.w3.org/TR/2001/REC-SVG-20010904/DTD/svg10.dtd">
<svg version="1.0" xmlns="http://www.w3.org/2000/svg"
 width="56.000000pt" height="56.000000pt" viewBox="0 0 56.000000 56.000000"
 preserveAspectRatio="xMidYMid meet">
<metadata>
Created by potrace 1.16, written by Peter Selinger 2001-2019
</metadata>
<g transform="translate(0.000000,56.000000) scale(0.100000,-0.100000)"
fill="#000000" stroke="none">
<path d="M216 500 c-6 0 -41 -24 -77 -54 -35 -30 -79 -70 -97 -89 -23 -25 -29
-37 -21 -43 8 -4 23 5 40 24 16 18 32 32 35 32 4 0 32 19 63 42 31 23 61 49
68 57 6 9 9 19 7 23 -3 5 -11 8 -18 8z"/>
<path d="M18 289 c-17 11 -19 10 -16 -11 3 -23 6 -23 148 -28 111 -4 153 -9
179 -22 19 -10 40 -18 47 -18 7 0 14 -4 16 -8 2 -4 18 -18 36 -31 31 -21 32
-24 15 -36 -17 -13 -17 -14 2 -21 11 -4 29 -15 40 -24 11 -10 32 -20 48 -22
23 -5 27 -2 27 18 0 16 -18 42 -53 74 -28 28 -79 65 -112 81 -33 17 -85 36
-116 44 -44 10 -78 10 -149 2 -70 -8 -98 -7 -112 2z"/>
</g>
</svg>
