<?xml version="1.0" standalone="no"?>
<!DOCTYPE svg PUBLIC "-//W3C//DTD SVG 20010904//EN"
 "http://www.w3.org/TR/2001/REC-SVG-20010904/DTD/svg10.dtd">
<svg version="1.0" xmlns="http://www.w3.org/2000/svg"
 width="56.000000pt" height="56.000000pt" viewBox="0 0 56.000000 56.000000"
 preserveAspectRatio="xMidYMid meet">
<metadata>
Created by potrace 1.16, written by Peter Selinger 2001-2019
</metadata>
<g transform="translate(0.000000,56.000000) scale(0.100000,-0.100000)"
fill="#000000" stroke="none">
<path d="M198 390 c-13 0 -35 -6 -49 -14 -14 -7 -37 -16 -52 -20 -15 -3 -42
-20 -62 -37 -19 -17 -35 -37 -35 -44 0 -7 7 -15 15 -19 8 -3 34 2 57 10 24 9
65 22 92 30 30 8 56 10 65 4 9 -4 32 -10 51 -12 19 -3 44 -8 55 -12 11 -4 39
-17 62 -28 23 -12 50 -28 60 -37 10 -9 29 -24 43 -34 13 -9 32 -17 42 -17 11
0 18 7 18 18 0 9 -20 36 -44 60 -25 23 -54 42 -65 42 -12 0 -29 4 -39 9 -9 5
-42 18 -73 30 -39 15 -75 21 -122 20 -37 -1 -70 1 -73 3 -2 3 13 8 36 12 26 4
40 11 40 21 0 9 -9 15 -22 15z"/>
<path d="M250 255 c-4 2 -10 2 -14 -2 -3 -3 -6 -19 -6 -34 0 -15 3 -34 6 -43
3 -9 17 -16 30 -16 13 0 24 5 24 11 0 6 -7 26 -16 45 -9 19 -20 36 -24 39z"/>
</g>
</svg>
