<?xml version="1.0" standalone="no"?>
<!DOCTYPE svg PUBLIC "-//W3C//DTD SVG 20010904//EN"
 "http://www.w3.org/TR/2001/REC-SVG-20010904/DTD/svg10.dtd">
<svg version="1.0" xmlns="http://www.w3.org/2000/svg"
 width="56.000000pt" height="56.000000pt" viewBox="0 0 56.000000 56.000000"
 preserveAspectRatio="xMidYMid meet">
<metadata>
Created by potrace 1.16, written by Peter Selinger 2001-2019
</metadata>
<g transform="translate(0.000000,56.000000) scale(0.100000,-0.100000)"
fill="#000000" stroke="none">
<path d="M92 427 c-9 0 -28 -3 -40 -7 -13 -3 -30 -16 -37 -29 -9 -18 -10 -33
-3 -55 6 -17 17 -37 24 -45 11 -12 15 -12 30 0 9 8 44 24 78 37 34 13 68 26
76 28 9 3 32 -6 53 -20 21 -14 44 -26 51 -26 7 0 54 -41 104 -91 73 -72 95
-89 112 -84 11 3 20 13 20 20 0 8 -19 34 -42 58 -24 24 -68 63 -99 86 -31 22
-62 41 -71 41 -8 0 -23 8 -34 19 -11 10 -37 24 -57 30 -20 7 -60 11 -89 10
-42 -3 -54 0 -56 13 -2 9 -11 16 -20 15z"/>
</g>
</svg>
