<?xml version="1.0" standalone="no"?>
<!DOCTYPE svg PUBLIC "-//W3C//DTD SVG 20010904//EN"
 "http://www.w3.org/TR/2001/REC-SVG-20010904/DTD/svg10.dtd">
<svg version="1.0" xmlns="http://www.w3.org/2000/svg"
 width="56.000000pt" height="56.000000pt" viewBox="0 0 56.000000 56.000000"
 preserveAspectRatio="xMidYMid meet">
<metadata>
Created by potrace 1.16, written by Peter Selinger 2001-2019
</metadata>
<g transform="translate(0.000000,56.000000) scale(0.100000,-0.100000)"
fill="#000000" stroke="none">
<path d="M21 360 c-6 0 -14 -6 -17 -14 -3 -8 -4 -25 -2 -38 3 -21 7 -23 58
-19 30 1 60 7 65 11 6 4 26 11 45 15 19 4 62 9 96 12 50 4 68 1 99 -17 21 -12
64 -44 95 -71 31 -27 66 -49 78 -49 13 0 22 6 22 15 0 8 -21 29 -48 46 -26 18
-49 36 -52 40 -3 4 -22 16 -43 28 -21 11 -44 21 -52 21 -8 0 -15 5 -15 11 0 7
-29 9 -87 6 -49 -3 -115 -10 -148 -16 -50 -9 -62 -8 -71 4 -6 8 -16 15 -23 15z"/>
</g>
</svg>
