<?xml version="1.0" standalone="no"?>
<!DOCTYPE svg PUBLIC "-//W3C//DTD SVG 20010904//EN"
 "http://www.w3.org/TR/2001/REC-SVG-20010904/DTD/svg10.dtd">
<svg version="1.0" xmlns="http://www.w3.org/2000/svg"
 width="56.000000pt" height="56.000000pt" viewBox="0 0 56.000000 56.000000"
 preserveAspectRatio="xMidYMid meet">
<metadata>
Created by potrace 1.16, written by Peter Selinger 2001-2019
</metadata>
<g transform="translate(0.000000,56.000000) scale(0.100000,-0.100000)"
fill="#000000" stroke="none">
<path d="M202 420 c-26 0 -45 -7 -57 -20 -10 -11 -23 -20 -30 -20 -7 0 -20 -9
-30 -20 -10 -11 -28 -20 -41 -20 -13 0 -28 -9 -34 -20 -8 -15 -7 -27 5 -50 9
-16 20 -30 26 -30 6 0 27 17 45 37 19 20 34 41 34 46 0 5 6 7 14 4 7 -3 23 1
35 9 12 9 30 13 41 9 11 -3 27 -16 37 -29 10 -12 48 -37 86 -55 37 -18 67 -34
67 -37 0 -2 -25 -20 -55 -40 -30 -20 -55 -41 -55 -45 0 -5 6 -10 13 -10 6 -1
21 0 31 1 11 1 35 12 55 24 20 12 59 30 88 39 28 9 59 14 67 11 10 -4 16 -1
16 9 0 9 -19 22 -47 32 -27 9 -66 25 -88 36 -22 10 -45 19 -51 19 -6 0 -20 11
-33 24 -12 12 -40 28 -61 35 -33 10 -40 16 -40 36 0 22 -4 25 -38 25z"/>
</g>
</svg>
