<?xml version="1.0" standalone="no"?>
<!DOCTYPE svg PUBLIC "-//W3C//DTD SVG 20010904//EN"
 "http://www.w3.org/TR/2001/REC-SVG-20010904/DTD/svg10.dtd">
<svg version="1.0" xmlns="http://www.w3.org/2000/svg"
 width="56.000000pt" height="56.000000pt" viewBox="0 0 56.000000 56.000000"
 preserveAspectRatio="xMidYMid meet">
<metadata>
Created by potrace 1.16, written by Peter Selinger 2001-2019
</metadata>
<g transform="translate(0.000000,56.000000) scale(0.100000,-0.100000)"
fill="#000000" stroke="none">
<path d="M308 440 c-22 0 -45 -11 -68 -31 -19 -16 -41 -34 -47 -40 -7 -5 -37
-23 -67 -39 -30 -17 -60 -30 -68 -30 -8 0 -24 -10 -36 -23 -12 -13 -22 -30
-22 -39 0 -9 6 -18 12 -20 7 -3 34 8 61 24 26 15 52 28 57 28 5 0 25 14 43 30
19 17 38 30 42 30 4 0 20 10 35 23 15 12 42 30 59 39 17 9 31 24 31 33 0 10
-10 15 -32 15z"/>
<path d="M329 350 c-9 0 -22 -7 -29 -15 -10 -12 -3 -19 41 -42 29 -15 71 -46
93 -68 23 -22 52 -55 66 -73 18 -24 30 -32 43 -27 9 4 17 18 17 31 0 13 -8 33
-17 45 -10 12 -35 38 -56 58 -21 20 -62 48 -90 63 -29 16 -59 28 -68 28z"/>
<path d="M210 170 c-13 7 -21 6 -30 -5 -10 -13 -9 -19 5 -35 13 -14 31 -20 60
-20 23 0 45 3 48 7 4 3 0 15 -10 25 -9 10 -25 18 -35 18 -11 0 -28 4 -38 10z"/>
</g>
</svg>
