<?xml version="1.0" standalone="no"?>
<!DOCTYPE svg PUBLIC "-//W3C//DTD SVG 20010904//EN"
 "http://www.w3.org/TR/2001/REC-SVG-20010904/DTD/svg10.dtd">
<svg version="1.0" xmlns="http://www.w3.org/2000/svg"
 width="56.000000pt" height="56.000000pt" viewBox="0 0 56.000000 56.000000"
 preserveAspectRatio="xMidYMid meet">
<metadata>
Created by potrace 1.16, written by Peter Selinger 2001-2019
</metadata>
<g transform="translate(0.000000,56.000000) scale(0.100000,-0.100000)"
fill="#000000" stroke="none">
<path d="M258 417 c-13 2 -48 -15 -83 -39 -33 -23 -61 -45 -63 -50 -2 -4 -10
-8 -18 -8 -8 0 -30 -10 -49 -22 -19 -13 -38 -31 -41 -41 -3 -10 -3 -21 0 -24
3 -4 27 4 53 18 27 13 61 34 78 47 27 23 36 24 101 18 40 -3 85 -11 101 -18
15 -6 52 -32 81 -57 30 -24 64 -59 75 -77 14 -22 30 -34 45 -34 16 0 22 6 22
23 0 12 -16 43 -35 69 -27 36 -53 56 -107 83 -49 24 -94 38 -135 42 -35 3 -63
9 -63 12 0 3 14 13 31 21 17 8 30 20 30 25 0 6 -11 11 -23 12z"/>
<path d="M270 235 c-6 3 -13 -1 -16 -10 -4 -8 -4 -27 -1 -40 2 -14 0 -28 -4
-31 -5 -3 -9 -9 -9 -15 0 -5 18 -9 39 -9 22 0 43 4 46 10 3 5 -5 21 -19 34
-14 13 -26 30 -26 39 0 9 -5 19 -10 22z"/>
</g>
</svg>
