<?xml version="1.0" standalone="no"?>
<!DOCTYPE svg PUBLIC "-//W3C//DTD SVG 20010904//EN"
 "http://www.w3.org/TR/2001/REC-SVG-20010904/DTD/svg10.dtd">
<svg version="1.0" xmlns="http://www.w3.org/2000/svg"
 width="56.000000pt" height="56.000000pt" viewBox="0 0 56.000000 56.000000"
 preserveAspectRatio="xMidYMid meet">
<metadata>
Created by potrace 1.16, written by Peter Selinger 2001-2019
</metadata>
<g transform="translate(0.000000,56.000000) scale(0.100000,-0.100000)"
fill="#000000" stroke="none">
<path d="M191 560 c-17 0 -31 -6 -35 -16 -3 -9 -6 -30 -6 -49 0 -18 6 -38 14
-44 9 -7 29 -9 55 -5 25 4 41 3 41 -3 0 -6 -15 -30 -34 -54 -18 -25 -68 -96
-109 -160 -42 -63 -81 -127 -86 -142 -9 -23 -8 -29 6 -34 10 -4 23 2 35 18 10
13 30 38 43 54 14 17 42 50 63 75 20 25 49 57 62 71 14 14 47 40 74 59 47 31
50 32 63 15 7 -11 13 -25 13 -32 0 -7 18 -24 40 -38 23 -14 40 -33 40 -44 0
-10 -9 -26 -20 -36 -19 -17 -20 -17 -41 9 -12 15 -30 26 -44 26 -14 0 -39 -13
-57 -29 -18 -15 -50 -34 -71 -41 -21 -6 -41 -18 -44 -26 -3 -8 2 -23 11 -33
13 -14 15 -28 10 -60 -7 -41 -7 -41 63 -41 38 0 73 3 77 7 4 4 19 7 34 8 18 0
28 6 30 19 4 17 0 18 -44 13 -27 -4 -59 -9 -71 -13 -17 -5 -23 -2 -23 9 0 8 6
17 13 20 6 3 50 22 96 41 46 20 95 45 108 58 15 14 23 33 23 53 0 25 -11 44
-50 83 -33 34 -50 59 -50 76 0 15 -8 30 -20 36 -16 9 -26 7 -48 -8 -15 -11
-37 -24 -49 -31 -19 -10 -23 -9 -23 3 0 8 18 36 41 62 22 25 39 53 37 61 -2 9
-12 22 -23 29 -17 11 -25 11 -46 0 -14 -7 -44 -16 -67 -20 -33 -5 -42 -3 -42
8 0 8 9 18 20 21 11 3 20 11 20 16 0 5 -13 9 -29 9z m181 -384 c5 -6 -2 -19
-14 -29 -15 -12 -34 -17 -62 -15 -23 2 -40 8 -39 13 1 6 25 17 55 26 37 11 55
12 60 5z"/>
</g>
</svg>
