<?xml version="1.0" standalone="no"?>
<!DOCTYPE svg PUBLIC "-//W3C//DTD SVG 20010904//EN"
 "http://www.w3.org/TR/2001/REC-SVG-20010904/DTD/svg10.dtd">
<svg version="1.0" xmlns="http://www.w3.org/2000/svg"
 width="56.000000pt" height="56.000000pt" viewBox="0 0 56.000000 56.000000"
 preserveAspectRatio="xMidYMid meet">
<metadata>
Created by potrace 1.16, written by Peter Selinger 2001-2019
</metadata>
<g transform="translate(0.000000,56.000000) scale(0.100000,-0.100000)"
fill="#000000" stroke="none">
<path d="M200 460 c-32 0 -62 -4 -65 -10 -3 -5 -14 -10 -23 -10 -10 0 -39 -20
-65 -43 -46 -43 -47 -45 -47 -105 0 -42 5 -65 16 -77 10 -10 24 -13 38 -9 11
4 32 14 46 24 14 10 40 21 58 25 28 6 44 -1 123 -49 50 -31 94 -56 98 -56 3
-1 22 -14 41 -30 24 -22 45 -30 71 -30 21 0 44 3 53 6 9 3 16 15 16 25 0 11
-7 19 -16 19 -8 0 -34 13 -57 28 -23 15 -77 45 -119 65 -43 21 -98 53 -123 72
-25 19 -51 35 -59 35 -7 0 -19 -6 -25 -14 -7 -8 -35 -19 -62 -25 -28 -6 -52
-11 -54 -11 -3 0 -5 14 -5 30 0 25 8 35 45 59 24 16 64 33 87 39 24 6 56 14
71 17 15 3 25 10 22 15 -3 6 -33 10 -65 10z"/>
<path d="M512 344 c-6 3 -14 1 -17 -5 -4 -5 -4 -13 -1 -16 4 -4 11 -2 17 4 7
7 7 13 1 17z"/>
</g>
</svg>
