<?xml version="1.0" standalone="no"?>
<!DOCTYPE svg PUBLIC "-//W3C//DTD SVG 20010904//EN"
 "http://www.w3.org/TR/2001/REC-SVG-20010904/DTD/svg10.dtd">
<svg version="1.0" xmlns="http://www.w3.org/2000/svg"
 width="56.000000pt" height="56.000000pt" viewBox="0 0 56.000000 56.000000"
 preserveAspectRatio="xMidYMid meet">
<metadata>
Created by potrace 1.16, written by Peter Selinger 2001-2019
</metadata>
<g transform="translate(0.000000,56.000000) scale(0.100000,-0.100000)"
fill="#000000" stroke="none">
<path d="M228 430 c-7 0 -26 -7 -42 -15 -15 -8 -37 -15 -47 -15 -10 0 -26 -11
-35 -25 -9 -14 -23 -25 -31 -25 -8 0 -28 -8 -44 -17 -16 -10 -29 -25 -29 -35
0 -9 9 -22 19 -28 11 -5 31 -10 44 -10 14 0 30 6 36 13 6 8 34 21 63 30 29 9
70 20 90 25 21 6 40 6 43 2 3 -5 27 -21 53 -36 26 -15 74 -57 107 -94 39 -44
68 -68 83 -69 14 -1 22 5 22 14 0 9 -6 23 -13 32 -6 8 -36 39 -65 69 -30 29
-64 56 -75 60 -12 3 -29 13 -39 21 -9 8 -45 19 -81 26 -55 9 -72 8 -106 -5
-38 -15 -41 -15 -41 1 0 11 16 23 50 35 28 10 50 24 50 32 0 8 -6 14 -12 14z"/>
<path d="M218 280 c-15 0 -28 -4 -28 -8 0 -5 14 -21 30 -37 17 -16 30 -39 30
-52 0 -14 -6 -23 -16 -23 -9 0 -33 10 -54 21 -23 13 -46 19 -56 15 -15 -6 -14
-10 11 -36 26 -28 34 -30 97 -30 67 0 68 0 69 28 1 15 0 36 -1 47 -1 11 -13
32 -28 48 -16 17 -36 27 -54 27z"/>
</g>
</svg>
