<?xml version="1.0" standalone="no"?>
<!DOCTYPE svg PUBLIC "-//W3C//DTD SVG 20010904//EN"
 "http://www.w3.org/TR/2001/REC-SVG-20010904/DTD/svg10.dtd">
<svg version="1.0" xmlns="http://www.w3.org/2000/svg"
 width="56.000000pt" height="56.000000pt" viewBox="0 0 56.000000 56.000000"
 preserveAspectRatio="xMidYMid meet">
<metadata>
Created by potrace 1.16, written by Peter Selinger 2001-2019
</metadata>
<g transform="translate(0.000000,56.000000) scale(0.100000,-0.100000)"
fill="#000000" stroke="none">
<path d="M203 420 c-4 0 -26 -10 -47 -23 -22 -12 -47 -28 -55 -35 -9 -7 -35
-27 -59 -43 -37 -25 -41 -32 -32 -49 6 -11 16 -20 23 -19 7 0 26 9 42 20 17
10 41 24 55 30 14 6 33 15 42 20 10 5 35 9 56 9 21 0 42 -4 47 -8 6 -5 30 -15
55 -22 25 -7 61 -25 80 -40 19 -14 43 -29 53 -33 9 -4 20 -15 24 -24 3 -10 13
-26 21 -35 8 -10 23 -18 34 -18 10 0 18 7 18 15 0 8 -3 15 -8 15 -4 0 -13 14
-20 30 -8 18 -21 30 -33 30 -11 0 -19 7 -19 16 0 9 -8 23 -17 30 -10 7 -26 14
-35 14 -10 0 -34 9 -55 20 -21 10 -68 25 -105 32 -52 10 -65 15 -56 25 5 7 8
20 4 28 -3 8 -9 15 -13 15z"/>
<path d="M264 180 c-7 0 -15 -4 -18 -9 -4 -5 -3 -16 0 -25 3 -9 14 -16 24 -16
11 0 22 5 25 10 4 6 1 17 -5 25 -7 8 -18 15 -26 15z"/>
</g>
</svg>
