<?xml version="1.0" standalone="no"?>
<!DOCTYPE svg PUBLIC "-//W3C//DTD SVG 20010904//EN"
 "http://www.w3.org/TR/2001/REC-SVG-20010904/DTD/svg10.dtd">
<svg version="1.0" xmlns="http://www.w3.org/2000/svg"
 width="56.000000pt" height="56.000000pt" viewBox="0 0 56.000000 56.000000"
 preserveAspectRatio="xMidYMid meet">
<metadata>
Created by potrace 1.16, written by Peter Selinger 2001-2019
</metadata>
<g transform="translate(0.000000,56.000000) scale(0.100000,-0.100000)"
fill="#000000" stroke="none">
<path d="M48 420 c-7 0 -21 -7 -31 -14 -10 -8 -17 -27 -17 -49 0 -19 3 -42 6
-51 3 -9 16 -16 29 -16 12 0 49 13 81 30 32 16 69 30 82 30 12 0 30 -4 40 -9
9 -5 31 -15 47 -22 17 -7 48 -25 70 -40 22 -15 69 -54 104 -87 44 -41 69 -58
82 -55 12 3 19 14 19 28 0 14 -23 46 -63 87 -35 36 -84 79 -110 96 -25 18 -48
32 -51 32 -4 0 -27 10 -52 22 -39 18 -51 19 -78 10 -17 -6 -54 -13 -82 -17
-42 -5 -52 -4 -57 9 -4 9 -12 16 -19 16z"/>
</g>
</svg>
