<?xml version="1.0" standalone="no"?>
<!DOCTYPE svg PUBLIC "-//W3C//DTD SVG 20010904//EN"
 "http://www.w3.org/TR/2001/REC-SVG-20010904/DTD/svg10.dtd">
<svg version="1.0" xmlns="http://www.w3.org/2000/svg"
 width="56.000000pt" height="56.000000pt" viewBox="0 0 56.000000 56.000000"
 preserveAspectRatio="xMidYMid meet">
<metadata>
Created by potrace 1.16, written by Peter Selinger 2001-2019
</metadata>
<g transform="translate(0.000000,56.000000) scale(0.100000,-0.100000)"
fill="#000000" stroke="none">
<path d="M296 440 c-8 0 -33 -19 -57 -41 -24 -23 -62 -54 -84 -68 -22 -15 -55
-33 -73 -41 -18 -7 -44 -21 -57 -32 -14 -11 -25 -30 -25 -44 0 -13 2 -24 5
-24 3 0 15 6 28 13 12 6 24 15 27 18 3 3 28 20 55 39 28 18 57 42 66 53 17 20
17 20 75 -3 33 -13 70 -31 84 -40 14 -8 39 -22 55 -30 17 -8 53 -36 80 -62 28
-26 58 -48 68 -48 11 0 17 8 17 23 0 14 -10 29 -28 39 -15 9 -43 30 -62 47
-19 17 -77 52 -129 77 -93 45 -93 46 -70 62 13 9 29 23 36 31 6 9 9 19 7 23
-3 5 -11 8 -18 8z"/>
</g>
</svg>
