<?xml version="1.0" standalone="no"?>
<!DOCTYPE svg PUBLIC "-//W3C//DTD SVG 20010904//EN"
 "http://www.w3.org/TR/2001/REC-SVG-20010904/DTD/svg10.dtd">
<svg version="1.0" xmlns="http://www.w3.org/2000/svg"
 width="56.000000pt" height="56.000000pt" viewBox="0 0 56.000000 56.000000"
 preserveAspectRatio="xMidYMid meet">
<metadata>
Created by potrace 1.16, written by Peter Selinger 2001-2019
</metadata>
<g transform="translate(0.000000,56.000000) scale(0.100000,-0.100000)"
fill="#000000" stroke="none">
<path d="M211 440 c-26 0 -51 -4 -56 -9 -6 -5 -26 -14 -46 -20 -20 -7 -53 -29
-73 -51 -22 -24 -36 -49 -36 -65 0 -14 7 -39 15 -55 9 -17 22 -30 29 -30 7 0
40 12 72 27 39 17 81 28 124 30 58 4 71 1 123 -27 31 -17 81 -54 111 -81 30
-27 61 -49 70 -49 10 0 16 8 16 21 0 13 -22 44 -52 75 -29 30 -56 54 -61 54
-4 0 -26 8 -50 19 -23 10 -56 24 -74 31 -18 7 -54 10 -80 7 -26 -2 -77 -12
-113 -21 -61 -16 -65 -16 -77 0 -7 10 -13 20 -13 23 0 4 15 12 33 19 17 7 52
22 77 34 25 11 54 24 65 28 11 5 28 11 38 14 10 3 15 10 12 16 -3 5 -28 10
-54 10z"/>
</g>
</svg>
