<?xml version="1.0" standalone="no"?>
<!DOCTYPE svg PUBLIC "-//W3C//DTD SVG 20010904//EN"
 "http://www.w3.org/TR/2001/REC-SVG-20010904/DTD/svg10.dtd">
<svg version="1.0" xmlns="http://www.w3.org/2000/svg"
 width="56.000000pt" height="56.000000pt" viewBox="0 0 56.000000 56.000000"
 preserveAspectRatio="xMidYMid meet">
<metadata>
Created by potrace 1.16, written by Peter Selinger 2001-2019
</metadata>
<g transform="translate(0.000000,56.000000) scale(0.100000,-0.100000)"
fill="#000000" stroke="none">
<path d="M227 374 c-17 7 -41 11 -52 8 -11 -2 -25 -8 -31 -13 -5 -4 -40 -14
-77 -21 -39 -7 -67 -18 -67 -25 0 -6 10 -19 22 -27 12 -9 35 -16 50 -16 14 0
33 6 40 13 7 8 23 19 35 25 12 7 30 12 41 12 11 0 73 -28 138 -61 66 -34 131
-70 146 -80 14 -11 40 -19 57 -19 26 0 31 4 31 24 0 19 -8 27 -37 37 -21 6
-58 21 -83 31 -25 11 -56 25 -70 31 -14 6 -44 24 -68 40 -23 15 -57 34 -75 41z"/>
<path d="M240 200 c-18 0 -30 -5 -30 -13 0 -8 12 -19 27 -26 17 -8 29 -9 36
-2 5 5 7 17 4 25 -4 10 -18 16 -37 16z"/>
</g>
</svg>
