<?xml version="1.0" standalone="no"?>
<!DOCTYPE svg PUBLIC "-//W3C//DTD SVG 20010904//EN"
 "http://www.w3.org/TR/2001/REC-SVG-20010904/DTD/svg10.dtd">
<svg version="1.0" xmlns="http://www.w3.org/2000/svg"
 width="56.000000pt" height="56.000000pt" viewBox="0 0 56.000000 56.000000"
 preserveAspectRatio="xMidYMid meet">
<metadata>
Created by potrace 1.16, written by Peter Selinger 2001-2019
</metadata>
<g transform="translate(0.000000,56.000000) scale(0.100000,-0.100000)"
fill="#000000" stroke="none">
<path d="M229 380 c-28 0 -45 -7 -66 -28 -15 -15 -48 -37 -73 -49 -25 -11 -55
-24 -68 -28 -14 -4 -22 -13 -20 -23 2 -10 15 -18 31 -20 19 -2 39 6 64 27 21
17 43 31 50 31 7 0 13 4 13 9 0 5 19 18 43 29 42 20 42 20 72 -1 17 -12 39
-29 49 -39 11 -10 25 -18 30 -18 6 0 16 -8 22 -18 6 -10 33 -28 60 -41 27 -13
57 -27 66 -32 10 -5 23 -9 29 -9 6 0 9 9 7 21 -2 11 -14 26 -28 34 -14 7 -38
19 -55 26 -16 8 -46 26 -65 41 -19 16 -39 28 -45 28 -5 1 -26 14 -45 30 -24
22 -45 30 -71 30z"/>
</g>
</svg>
