<?xml version="1.0" standalone="no"?>
<!DOCTYPE svg PUBLIC "-//W3C//DTD SVG 20010904//EN"
 "http://www.w3.org/TR/2001/REC-SVG-20010904/DTD/svg10.dtd">
<svg version="1.0" xmlns="http://www.w3.org/2000/svg"
 width="56.000000pt" height="56.000000pt" viewBox="0 0 56.000000 56.000000"
 preserveAspectRatio="xMidYMid meet">
<metadata>
Created by potrace 1.16, written by Peter Selinger 2001-2019
</metadata>
<g transform="translate(0.000000,56.000000) scale(0.100000,-0.100000)"
fill="#000000" stroke="none">
<path d="M32 404 c-5 3 -14 0 -20 -6 -7 -7 -12 -24 -12 -39 0 -19 9 -34 29
-48 16 -12 34 -21 40 -21 6 0 41 14 78 31 49 22 77 29 101 26 18 -3 46 -13 62
-21 17 -9 43 -23 59 -31 17 -9 61 -49 99 -90 39 -41 75 -75 81 -75 6 0 11 13
11 30 0 22 -13 43 -52 83 -29 30 -78 71 -109 91 -31 20 -81 44 -110 51 -50 14
-59 13 -124 -6 -38 -11 -78 -25 -88 -30 -10 -5 -22 -7 -27 -4 -6 4 -10 17 -10
30 0 13 -4 26 -8 29z"/>
</g>
</svg>
