<?xml version="1.0" standalone="no"?>
<!DOCTYPE svg PUBLIC "-//W3C//DTD SVG 20010904//EN"
 "http://www.w3.org/TR/2001/REC-SVG-20010904/DTD/svg10.dtd">
<svg version="1.0" xmlns="http://www.w3.org/2000/svg"
 width="56.000000pt" height="56.000000pt" viewBox="0 0 56.000000 56.000000"
 preserveAspectRatio="xMidYMid meet">
<metadata>
Created by potrace 1.16, written by Peter Selinger 2001-2019
</metadata>
<g transform="translate(0.000000,56.000000) scale(0.100000,-0.100000)"
fill="#000000" stroke="none">
<path d="M308 343 c-42 3 -78 3 -81 1 -2 -2 -50 -5 -106 -6 -86 -1 -104 -4
-112 -19 -5 -10 -9 -30 -9 -44 0 -26 0 -26 27 -7 16 10 42 23 58 27 17 4 78
10 137 12 81 3 118 0 155 -12 26 -9 63 -26 81 -37 18 -11 38 -26 45 -33 7 -7
23 -16 35 -19 18 -6 22 -4 22 16 0 15 -11 30 -32 43 -18 11 -44 28 -58 37 -14
9 -34 17 -46 17 -11 1 -24 5 -30 10 -5 5 -44 11 -86 14z"/>
</g>
</svg>
