<?xml version="1.0" standalone="no"?>
<!DOCTYPE svg PUBLIC "-//W3C//DTD SVG 20010904//EN"
 "http://www.w3.org/TR/2001/REC-SVG-20010904/DTD/svg10.dtd">
<svg version="1.0" xmlns="http://www.w3.org/2000/svg"
 width="56.000000pt" height="56.000000pt" viewBox="0 0 56.000000 56.000000"
 preserveAspectRatio="xMidYMid meet">
<metadata>
Created by potrace 1.16, written by Peter Selinger 2001-2019
</metadata>
<g transform="translate(0.000000,56.000000) scale(0.100000,-0.100000)"
fill="#000000" stroke="none">
<path d="M276 400 c-13 0 -26 -4 -28 -8 -1 -5 -23 -22 -48 -39 -25 -17 -62
-40 -83 -52 -21 -11 -44 -21 -52 -21 -8 0 -26 -18 -40 -40 -14 -22 -25 -51
-25 -65 0 -14 4 -25 9 -25 6 0 54 22 108 49 54 26 112 53 128 59 17 6 53 13
81 16 28 4 64 3 82 0 17 -3 40 -15 52 -26 16 -15 18 -23 10 -33 -8 -10 -3 -18
24 -34 18 -12 41 -18 50 -15 10 4 16 18 16 36 0 19 -9 37 -22 49 -13 11 -44
31 -70 44 -38 20 -62 25 -120 25 -40 0 -95 -7 -122 -15 -26 -8 -53 -12 -58 -9
-6 4 22 24 61 46 39 22 71 44 71 49 0 5 -11 9 -24 9z"/>
<path d="M312 232 c-6 6 -12 3 -16 -7 -3 -9 -6 -30 -6 -47 0 -23 4 -29 18 -26
12 3 17 13 15 37 0 18 -5 37 -11 43z"/>
</g>
</svg>
