<?xml version="1.0" standalone="no"?>
<!DOCTYPE svg PUBLIC "-//W3C//DTD SVG 20010904//EN"
 "http://www.w3.org/TR/2001/REC-SVG-20010904/DTD/svg10.dtd">
<svg version="1.0" xmlns="http://www.w3.org/2000/svg"
 width="56.000000pt" height="56.000000pt" viewBox="0 0 56.000000 56.000000"
 preserveAspectRatio="xMidYMid meet">
<metadata>
Created by potrace 1.16, written by Peter Selinger 2001-2019
</metadata>
<g transform="translate(0.000000,56.000000) scale(0.100000,-0.100000)"
fill="#000000" stroke="none">
<path d="M144 460 c-27 0 -36 -5 -43 -22 -5 -13 -17 -30 -27 -39 -11 -9 -29
-20 -41 -23 -11 -4 -24 -14 -27 -22 -3 -8 0 -17 7 -19 6 -2 64 -6 127 -8 109
-5 119 -7 187 -42 39 -20 96 -61 126 -90 31 -30 58 -63 62 -75 3 -11 15 -20
26 -20 15 0 19 7 19 39 0 33 -7 46 -45 84 -25 25 -72 62 -106 82 -34 20 -80
40 -103 45 -22 5 -60 14 -84 19 -25 5 -56 6 -73 1 -18 -5 -29 -5 -29 1 0 5 16
23 35 40 19 17 32 35 29 40 -3 5 -21 9 -40 9z"/>
</g>
</svg>
