<?xml version="1.0" standalone="no"?>
<!DOCTYPE svg PUBLIC "-//W3C//DTD SVG 20010904//EN"
 "http://www.w3.org/TR/2001/REC-SVG-20010904/DTD/svg10.dtd">
<svg version="1.0" xmlns="http://www.w3.org/2000/svg"
 width="56.000000pt" height="56.000000pt" viewBox="0 0 56.000000 56.000000"
 preserveAspectRatio="xMidYMid meet">
<metadata>
Created by potrace 1.16, written by Peter Selinger 2001-2019
</metadata>
<g transform="translate(0.000000,56.000000) scale(0.100000,-0.100000)"
fill="#000000" stroke="none">
<path d="M36 355 c-36 15 -36 15 -36 -9 0 -15 10 -30 26 -41 19 -12 35 -15 58
-10 17 4 65 8 106 8 41 0 95 -5 120 -10 25 -6 65 -18 90 -28 25 -10 51 -23 58
-29 11 -8 11 -12 -3 -22 -9 -7 -12 -14 -8 -17 5 -3 33 -9 61 -13 52 -7 52 -7
52 22 0 19 -8 34 -21 42 -11 7 -46 26 -78 42 -32 17 -72 30 -89 30 -17 0 -34
4 -37 10 -4 6 -60 10 -134 10 -92 0 -139 4 -165 15z"/>
</g>
</svg>
