<?xml version="1.0" standalone="no"?>
<!DOCTYPE svg PUBLIC "-//W3C//DTD SVG 20010904//EN"
 "http://www.w3.org/TR/2001/REC-SVG-20010904/DTD/svg10.dtd">
<svg version="1.0" xmlns="http://www.w3.org/2000/svg"
 width="56.000000pt" height="56.000000pt" viewBox="0 0 56.000000 56.000000"
 preserveAspectRatio="xMidYMid meet">
<metadata>
Created by potrace 1.16, written by Peter Selinger 2001-2019
</metadata>
<g transform="translate(0.000000,56.000000) scale(0.100000,-0.100000)"
fill="#000000" stroke="none">
<path d="M152 454 c-5 3 -30 -8 -56 -25 -25 -17 -55 -42 -66 -56 -11 -14 -20
-38 -20 -54 0 -15 5 -31 10 -34 6 -4 36 -1 68 6 31 7 67 19 79 27 13 8 30 11
39 8 10 -4 42 1 72 9 30 9 66 14 79 10 13 -3 36 -15 50 -28 15 -12 40 -34 55
-49 15 -14 28 -30 28 -35 0 -5 -15 -25 -34 -44 -18 -18 -48 -44 -65 -57 -17
-13 -29 -28 -25 -33 3 -5 24 -9 47 -9 25 0 62 10 94 27 53 26 53 26 53 93 0
67 0 67 -43 90 -24 13 -51 36 -59 51 -11 19 -30 31 -60 39 -33 9 -55 9 -95 0
-39 -10 -56 -10 -66 -2 -8 7 -33 9 -65 5 -29 -3 -52 -2 -52 2 0 5 9 19 21 31
11 12 16 25 11 28z"/>
</g>
</svg>
