<?xml version="1.0" standalone="no"?>
<!DOCTYPE svg PUBLIC "-//W3C//DTD SVG 20010904//EN"
 "http://www.w3.org/TR/2001/REC-SVG-20010904/DTD/svg10.dtd">
<svg version="1.0" xmlns="http://www.w3.org/2000/svg"
 width="56.000000pt" height="56.000000pt" viewBox="0 0 56.000000 56.000000"
 preserveAspectRatio="xMidYMid meet">
<metadata>
Created by potrace 1.16, written by Peter Selinger 2001-2019
</metadata>
<g transform="translate(0.000000,56.000000) scale(0.100000,-0.100000)"
fill="#000000" stroke="none">
<path d="M253 460 c-27 -1 -48 -9 -72 -30 -19 -16 -56 -37 -83 -46 -26 -8 -50
-20 -53 -25 -4 -5 -15 -9 -26 -9 -13 0 -19 -7 -19 -21 0 -19 4 -21 33 -14 17
4 52 11 77 15 25 4 57 6 73 3 15 -3 30 -10 33 -14 3 -5 18 -9 33 -9 15 0 36
-9 46 -20 10 -11 26 -20 37 -20 10 0 18 -4 18 -10 0 -5 9 -10 19 -10 11 0 30
-15 43 -32 12 -18 38 -49 58 -69 19 -20 45 -42 57 -48 12 -6 24 -11 27 -11 3
0 6 11 6 24 0 13 -3 26 -8 28 -4 2 -25 24 -46 51 -21 26 -47 47 -57 47 -12 0
-19 7 -19 20 0 12 -7 20 -18 20 -10 0 -25 9 -35 20 -11 14 -29 20 -56 20 -31
0 -38 4 -37 17 1 13 -9 19 -41 23 -24 4 -46 9 -49 13 -4 4 -1 13 6 22 7 8 19
15 27 15 7 0 25 7 38 16 14 9 25 20 25 25 0 5 -17 9 -37 9z"/>
<path d="M240 138 c-9 1 -19 0 -23 -4 -4 -4 -7 -16 -7 -26 0 -13 7 -18 26 -18
21 0 25 4 22 22 -2 13 -10 24 -18 26z"/>
</g>
</svg>
