<?xml version="1.0" standalone="no"?>
<!DOCTYPE svg PUBLIC "-//W3C//DTD SVG 20010904//EN"
 "http://www.w3.org/TR/2001/REC-SVG-20010904/DTD/svg10.dtd">
<svg version="1.0" xmlns="http://www.w3.org/2000/svg"
 width="128.000000pt" height="128.000000pt" viewBox="0 0 128.000000 128.000000"
 preserveAspectRatio="xMidYMid meet">
<metadata>
Created by potrace 1.16, written by Peter Selinger 2001-2019
</metadata>
<g transform="translate(0.000000,128.000000) scale(0.100000,-0.100000)"
fill="#000000" stroke="none">
<path d="M618 1280 c-35 0 -48 -6 -70 -30 -15 -17 -35 -30 -44 -30 -9 0 -33
-15 -54 -32 -20 -18 -79 -67 -130 -108 -51 -41 -108 -91 -127 -110 -18 -19
-36 -46 -40 -58 -3 -15 0 -30 10 -40 13 -13 37 -15 134 -13 65 1 122 7 128 12
5 5 17 9 27 9 9 0 29 12 43 27 14 15 25 33 25 40 0 8 -15 14 -37 15 -21 0 -42
1 -48 0 -5 -1 -32 -6 -59 -13 -28 -6 -56 -18 -64 -26 -8 -8 -22 -13 -31 -11
-8 2 -17 11 -19 20 -2 10 37 50 108 112 61 53 118 96 126 96 8 0 17 7 20 15 4
8 11 15 18 15 6 0 19 9 28 20 9 10 35 31 57 46 23 15 41 31 41 35 0 5 -19 9
-42 9z"/>
<path d="M1020 988 c-8 4 -32 6 -52 4 -21 -2 -38 -7 -38 -12 0 -6 -15 -17 -32
-25 -18 -9 -44 -22 -58 -30 -14 -8 -25 -20 -25 -27 0 -9 11 -12 30 -10 17 2
34 8 40 13 5 5 19 9 32 9 13 0 32 -9 43 -20 11 -11 26 -20 34 -20 8 0 18 5 21
10 3 6 17 10 30 10 13 0 26 3 28 8 3 4 2 22 0 40 -3 19 -13 36 -22 39 -9 2
-23 8 -31 11z"/>
<path d="M485 847 c-6 2 -25 -7 -43 -20 -17 -13 -41 -35 -52 -49 -11 -15 -24
-43 -28 -65 -6 -28 -13 -38 -27 -38 -18 0 -20 6 -17 47 3 37 -1 51 -17 67 -12
12 -30 21 -41 21 -11 0 -23 -7 -26 -15 -4 -8 1 -25 9 -38 9 -14 14 -42 12 -74
-1 -28 -5 -56 -9 -62 -4 -6 -12 -11 -18 -11 -6 0 -19 -6 -27 -13 -9 -8 -35
-19 -57 -25 -23 -7 -60 -12 -82 -12 -22 0 -43 -4 -46 -9 -3 -4 5 -17 17 -29
12 -11 38 -23 57 -27 25 -4 49 0 82 14 35 15 49 17 56 8 6 -8 6 -36 1 -76 -5
-35 -8 -128 -6 -206 3 -127 6 -147 26 -179 13 -20 27 -36 31 -36 5 0 14 9 20
20 6 11 11 62 10 113 0 50 5 117 10 147 6 30 11 81 11 114 0 32 4 82 10 110 6
36 17 57 36 73 16 13 36 23 46 23 9 0 17 -3 18 -7 0 -5 2 -35 4 -68 2 -33 -3
-118 -10 -190 -8 -71 -10 -150 -7 -175 5 -30 12 -45 22 -45 8 0 23 16 32 35 9
19 15 41 13 48 -3 7 0 34 6 60 6 26 13 73 14 105 2 32 9 64 15 72 9 11 10 18
1 29 -7 9 -10 44 -8 100 3 65 9 91 22 106 10 11 24 20 32 20 7 0 22 9 33 20
11 11 20 27 20 35 0 12 -13 15 -58 15 -56 0 -58 1 -67 32 -6 17 -15 33 -20 35z"/>
<path d="M926 646 c-25 3 -36 0 -36 -8 0 -7 17 -29 38 -49 36 -33 38 -38 40
-104 1 -42 10 -90 24 -127 16 -42 31 -64 51 -74 15 -8 27 -19 27 -24 0 -6 -4
-10 -8 -10 -4 0 -37 -24 -73 -53 -35 -29 -85 -64 -111 -77 -27 -13 -48 -27
-48 -31 0 -4 -8 -5 -18 -2 -12 3 -24 -4 -35 -21 -9 -13 -32 -30 -52 -37 -19
-7 -35 -17 -35 -21 0 -4 25 -8 57 -8 44 0 63 5 89 25 18 14 38 25 43 25 6 0
19 4 29 9 9 6 43 21 75 36 31 14 57 30 57 35 0 6 11 10 23 10 13 0 45 16 71
37 42 32 48 34 59 20 6 -9 23 -18 37 -19 20 -2 26 2 28 23 2 18 -8 38 -37 70
-34 36 -42 41 -51 29 -6 -10 -10 -11 -10 -3 0 7 -21 23 -47 35 -29 14 -53 34
-61 51 -11 22 -11 39 -3 78 6 27 11 63 11 79 0 17 -10 41 -22 55 -12 14 -29
25 -38 25 -9 0 -21 5 -27 11 -5 5 -27 12 -47 15z"/>
</g>
</svg>
