<?xml version="1.0" standalone="no"?>
<!DOCTYPE svg PUBLIC "-//W3C//DTD SVG 20010904//EN"
 "http://www.w3.org/TR/2001/REC-SVG-20010904/DTD/svg10.dtd">
<svg version="1.0" xmlns="http://www.w3.org/2000/svg"
 width="128.000000pt" height="128.000000pt" viewBox="0 0 128.000000 128.000000"
 preserveAspectRatio="xMidYMid meet">
<metadata>
Created by potrace 1.16, written by Peter Selinger 2001-2019
</metadata>
<g transform="translate(0.000000,128.000000) scale(0.100000,-0.100000)"
fill="#000000" stroke="none">
<path d="M737 1259 c-18 0 -38 -3 -44 -6 -7 -2 -13 -10 -13 -16 0 -7 18 -23
40 -37 22 -13 40 -29 40 -36 0 -6 -6 -16 -12 -21 -7 -5 -53 -22 -103 -37 -49
-15 -103 -34 -119 -42 -29 -15 -29 -15 -23 14 4 18 1 37 -8 48 -8 11 -15 29
-15 42 0 13 -6 22 -15 22 -13 0 -15 -11 -11 -64 4 -44 1 -67 -7 -74 -7 -5 -30
-15 -52 -22 -22 -7 -52 -21 -67 -32 -27 -19 -27 -19 -44 9 -10 15 -27 38 -37
50 -11 12 -24 20 -28 17 -5 -3 -9 -13 -9 -22 1 -9 9 -33 18 -52 16 -32 16 -40
3 -85 -8 -27 -15 -77 -15 -110 -1 -50 2 -60 17 -63 11 -2 29 5 41 17 19 18 21
27 16 81 -5 53 -3 63 15 80 12 11 25 20 30 20 5 0 16 6 24 14 9 8 34 16 55 18
37 3 40 1 52 -32 7 -19 13 -45 13 -56 1 -12 -8 -33 -19 -47 -11 -14 -20 -37
-20 -51 0 -16 6 -26 14 -26 8 0 31 10 51 21 26 16 39 19 47 11 8 -8 6 -22 -7
-49 -10 -21 -30 -48 -46 -61 -16 -13 -29 -31 -29 -41 0 -9 -13 -30 -30 -46
-16 -16 -30 -38 -30 -49 0 -12 -9 -27 -20 -34 -14 -8 -20 -23 -20 -46 0 -19 5
-38 10 -41 6 -3 19 -3 31 0 12 4 22 19 26 36 4 22 9 27 18 19 8 -7 18 -4 31
11 10 12 28 25 39 30 11 5 28 15 38 21 16 11 21 9 37 -10 15 -18 17 -28 10
-42 -6 -10 -10 -26 -10 -36 0 -9 -13 -46 -30 -81 -16 -34 -30 -67 -30 -72 0
-5 -18 -33 -41 -62 -22 -30 -47 -70 -55 -88 -8 -19 -33 -58 -54 -86 -22 -29
-40 -55 -40 -58 0 -4 11 -7 24 -7 14 0 49 20 84 50 33 27 65 64 73 82 7 18 26
55 41 81 15 26 28 56 28 65 0 10 3 13 8 7 4 -6 18 -16 32 -23 14 -7 57 -29 95
-50 64 -34 73 -42 98 -95 15 -32 34 -60 43 -64 8 -3 21 2 29 13 8 11 14 39 15
64 0 28 -8 58 -20 78 -11 17 -26 32 -33 32 -7 0 -39 14 -70 30 -30 17 -75 34
-99 38 -39 7 -43 10 -46 39 -2 18 4 48 14 68 13 29 21 35 45 33 18 -1 47 11
85 37 36 25 62 52 71 73 13 31 12 38 -7 81 -12 25 -29 54 -38 64 -9 11 -30 17
-54 17 -21 0 -51 -6 -66 -14 -15 -8 -38 -26 -51 -40 -14 -15 -38 -33 -55 -41
-16 -8 -35 -15 -43 -15 -7 0 -13 6 -13 13 0 7 22 45 49 85 27 39 59 89 72 112
24 42 24 42 -4 62 -15 11 -27 26 -27 33 0 7 11 20 25 29 14 9 25 23 25 31 0 8
6 15 13 15 8 0 22 9 31 19 10 11 15 25 11 31 -4 7 2 14 14 17 12 3 21 10 21
15 0 5 -8 8 -17 6 -12 -2 -18 3 -18 17 0 13 8 21 22 23 12 2 36 -4 53 -13 17
-9 41 -15 53 -14 12 2 32 -1 45 -5 12 -4 22 -15 22 -24 0 -9 -15 -29 -33 -44
-17 -15 -45 -39 -62 -52 -25 -21 -27 -26 -13 -31 9 -4 31 1 50 11 18 9 39 24
46 33 10 12 15 13 18 4 3 -7 15 -13 25 -13 11 0 33 7 49 15 20 10 30 23 30 38
0 13 5 28 12 35 9 9 9 18 0 37 -6 14 -20 25 -30 25 -9 0 -28 7 -40 16 -16 11
-39 15 -74 12 -37 -2 -53 1 -59 12 -4 8 -10 26 -13 40 -3 14 -19 33 -37 43
-17 9 -45 17 -62 16z m-172 -199 c2 0 10 -7 19 -15 12 -12 20 -13 40 -3 15 6
28 9 30 7 2 -2 6 -13 10 -25 5 -17 -5 -29 -54 -67 -33 -26 -66 -47 -74 -47 -8
0 -16 14 -19 38 -3 24 1 43 11 55 8 9 25 17 36 17 19 1 20 1 3 11 -9 6 -15 14
-12 20 4 5 8 9 10 9z m196 -390 c11 0 20 -11 24 -31 6 -27 2 -36 -28 -67 -27
-27 -40 -33 -59 -29 -13 4 -30 18 -38 31 -10 21 -11 28 0 41 7 8 20 15 30 15
9 0 25 9 35 20 10 11 26 20 36 20z"/>
<path d="M1056 640 c-9 0 -26 -24 -41 -55 -15 -33 -25 -74 -25 -101 0 -28 5
-47 14 -50 8 -3 11 -15 8 -30 -3 -17 2 -30 14 -39 11 -8 22 -15 26 -15 3 0 11
13 16 29 6 16 8 32 5 35 -4 3 -14 6 -23 6 -14 0 -15 8 -10 53 4 28 15 71 24
94 10 24 16 50 12 58 -3 8 -12 15 -20 15z"/>
</g>
</svg>
