<?xml version="1.0" standalone="no"?>
<!DOCTYPE svg PUBLIC "-//W3C//DTD SVG 20010904//EN"
 "http://www.w3.org/TR/2001/REC-SVG-20010904/DTD/svg10.dtd">
<svg version="1.0" xmlns="http://www.w3.org/2000/svg"
 width="128.000000pt" height="128.000000pt" viewBox="0 0 128.000000 128.000000"
 preserveAspectRatio="xMidYMid meet">
<metadata>
Created by potrace 1.16, written by Peter Selinger 2001-2019
</metadata>
<g transform="translate(0.000000,128.000000) scale(0.100000,-0.100000)"
fill="#000000" stroke="none">
<path d="M320 1280 c-11 0 -20 -4 -20 -10 0 -5 9 -10 20 -10 11 0 20 5 20 10
0 6 -9 10 -20 10z"/>
<path d="M763 1280 c-5 -1 -13 -6 -19 -13 -5 -7 -21 -20 -35 -29 -24 -17 -24
-17 1 -40 14 -13 37 -30 50 -39 19 -13 22 -19 14 -30 -6 -8 -14 -27 -17 -44
-3 -16 -10 -50 -15 -74 -6 -27 -19 -51 -33 -62 -13 -9 -36 -20 -52 -23 -16 -3
-46 -6 -67 -6 -24 0 -43 -7 -54 -19 -17 -19 -17 -21 8 -45 21 -22 34 -26 86
-26 59 0 61 -1 55 -22 -4 -13 -11 -27 -16 -32 -5 -6 -9 -25 -9 -43 0 -23 -8
-42 -27 -60 -26 -27 -26 -27 -42 -3 -9 13 -25 35 -37 49 -21 24 -21 24 -63 8
-23 -10 -47 -15 -52 -12 -5 4 -9 33 -9 66 0 33 -5 70 -11 82 -10 18 -9 23 7
32 10 5 34 25 51 43 18 18 33 43 33 56 0 12 -5 27 -11 33 -7 7 -32 1 -86 -22
-41 -19 -89 -46 -107 -62 -17 -15 -42 -34 -56 -42 -13 -8 -45 -15 -71 -15 -26
-1 -54 -8 -63 -15 -9 -7 -16 -17 -16 -21 0 -5 15 -18 34 -29 18 -12 43 -21 55
-21 12 0 44 11 71 25 27 14 56 25 65 25 8 0 15 -8 16 -17 0 -10 2 -64 4 -120
5 -103 5 -103 -28 -103 -22 0 -40 8 -53 22 -11 13 -26 35 -33 49 -7 14 -23 39
-36 55 -19 23 -26 26 -36 17 -10 -10 -10 -23 0 -65 10 -46 10 -54 -6 -69 -10
-10 -40 -24 -68 -32 -50 -14 -50 -14 -53 -74 -3 -57 -2 -60 25 -72 28 -13 28
-13 4 -32 -19 -16 -22 -25 -17 -56 3 -21 9 -94 12 -163 3 -69 10 -133 15 -143
8 -14 14 -15 29 -7 11 6 26 23 33 38 9 18 12 49 9 93 -4 58 -1 70 17 88 12 12
30 21 41 21 12 0 40 9 62 20 23 11 52 20 65 20 15 0 23 -6 23 -18 0 -10 -15
-32 -32 -49 -18 -16 -50 -42 -71 -58 -20 -15 -37 -33 -37 -40 0 -8 16 -23 35
-35 21 -13 40 -18 49 -13 7 4 31 31 53 58 21 28 44 61 51 75 7 14 19 36 26 50
8 14 16 37 20 52 5 21 2 28 -15 33 -19 6 -21 12 -15 49 4 22 9 76 13 118 3 45
11 83 19 89 7 6 23 9 36 7 19 -2 24 -11 30 -48 4 -25 7 -131 6 -237 0 -145 -3
-195 -13 -203 -7 -6 -24 -8 -37 -5 -13 3 -31 0 -43 -9 -19 -15 -19 -17 32 -66
28 -27 58 -50 67 -50 8 0 17 9 21 20 3 11 19 29 35 40 15 11 33 20 40 20 6 0
27 -12 46 -26 26 -20 40 -25 61 -20 16 4 48 11 73 16 25 4 76 13 114 19 37 6
72 14 76 16 5 3 55 7 111 9 74 3 106 9 117 20 14 14 14 17 -2 35 -10 11 -26
23 -36 26 -10 3 -30 1 -45 -5 -15 -6 -30 -9 -32 -6 -2 2 5 21 16 42 12 21 21
47 21 58 0 10 16 39 36 62 29 36 41 44 70 44 29 0 34 4 34 23 0 12 -9 28 -20
35 -14 8 -20 23 -20 46 0 20 -8 40 -20 51 -19 17 -21 17 -39 1 -11 -10 -27
-33 -36 -52 -9 -19 -28 -79 -42 -132 -14 -53 -28 -114 -30 -134 -5 -34 -8 -38
-47 -46 -22 -5 -46 -7 -53 -4 -6 2 -14 10 -17 17 -3 8 5 38 18 67 12 29 29 79
36 111 7 32 17 60 22 63 4 3 8 14 8 25 0 11 7 31 16 44 9 13 13 29 9 35 -3 5
-15 10 -27 10 -11 0 -33 -11 -50 -25 -16 -14 -42 -27 -56 -30 -15 -4 -45 -11
-67 -17 -22 -7 -51 -19 -65 -28 -14 -9 -50 -22 -81 -29 -30 -7 -64 -12 -74 -9
-12 2 -22 15 -26 33 -4 17 -7 48 -8 71 -1 38 1 42 39 59 33 15 42 16 55 5 9
-8 22 -28 30 -47 13 -30 18 -33 55 -33 23 0 53 6 69 14 15 8 33 22 40 30 9 10
30 16 60 16 33 1 53 7 71 23 14 12 36 42 48 65 12 24 20 47 18 51 -3 5 1 17 9
27 8 10 15 33 15 50 0 18 -8 38 -18 47 -10 10 -24 17 -30 17 -6 0 -28 -11 -48
-25 -20 -14 -51 -29 -70 -34 -18 -5 -46 -18 -61 -29 -15 -11 -39 -23 -53 -27
-14 -4 -37 -16 -52 -26 -14 -11 -33 -19 -42 -19 -9 0 -16 8 -16 20 0 11 13 48
29 82 17 35 32 70 34 79 3 9 32 26 64 38 33 12 75 32 94 44 19 11 54 28 79 37
39 13 45 19 45 44 0 17 -7 33 -17 40 -14 8 -22 8 -35 -2 -10 -7 -29 -17 -43
-23 -14 -6 -50 -22 -81 -36 -31 -14 -62 -22 -68 -18 -8 4 -10 19 -6 38 4 18
15 56 26 85 10 29 19 63 19 76 0 16 -12 32 -38 50 -21 14 -43 26 -50 26 -7 0
-12 5 -12 10 0 6 -3 10 -7 10z m228 -549 c4 -3 9 -20 12 -37 3 -18 1 -36 -6
-43 -6 -6 -21 -11 -33 -11 -11 0 -38 -12 -59 -26 -21 -14 -53 -28 -71 -31 -18
-3 -34 0 -39 6 -4 7 -4 23 -1 36 4 14 17 32 31 41 14 9 55 29 92 44 38 15 71
25 74 21z m-660 -131 c9 0 20 -7 23 -16 3 -9 6 -44 6 -78 0 -49 -4 -67 -20
-84 -12 -12 -25 -22 -30 -22 -5 0 -16 13 -25 30 -8 16 -15 50 -15 76 0 35 6
54 22 71 12 13 29 23 39 23z m-160 -50 c4 0 11 -6 17 -13 6 -6 14 -26 17 -42
4 -17 13 -39 20 -51 7 -11 14 -29 15 -40 1 -10 2 -25 1 -31 0 -7 -19 -22 -41
-33 -21 -11 -46 -20 -54 -20 -7 0 -17 7 -20 16 -3 9 -6 26 -6 39 0 13 -6 30
-14 38 -9 9 -11 19 -5 28 5 8 9 28 9 46 0 25 6 36 28 47 15 8 30 15 33 16z
m754 -124 c6 -2 10 -23 9 -47 0 -24 -9 -75 -19 -114 -10 -38 -19 -76 -21 -82
-2 -9 -23 -13 -59 -13 -44 0 -57 4 -62 18 -3 9 -19 46 -35 81 -16 35 -28 71
-26 80 2 11 14 16 38 16 30 0 36 -4 43 -30 5 -16 12 -41 16 -55 3 -14 14 -26
23 -28 10 -2 19 7 25 25 7 20 5 38 -5 65 -8 20 -12 44 -9 52 3 8 21 19 39 25
18 5 38 8 43 7z m-289 -146 c6 0 18 -10 26 -22 8 -13 20 -38 28 -57 12 -30 12
-35 -5 -47 -10 -8 -29 -14 -41 -14 -12 0 -25 7 -28 16 -3 9 -6 37 -6 63 0 26
3 51 7 54 3 4 12 7 19 7z"/>
<path d="M1270 1240 c-6 0 -13 -6 -16 -14 -3 -8 -4 -23 -2 -32 1 -10 9 -19 16
-22 8 -2 12 8 12 32 0 20 -5 36 -10 36z"/>
<path d="M1271 940 c-5 0 -26 -16 -47 -35 -35 -33 -36 -37 -21 -52 13 -14 20
-14 46 -3 27 11 31 17 31 51 0 22 -4 39 -9 39z"/>
</g>
</svg>
