<?xml version="1.0" standalone="no"?>
<!DOCTYPE svg PUBLIC "-//W3C//DTD SVG 20010904//EN"
 "http://www.w3.org/TR/2001/REC-SVG-20010904/DTD/svg10.dtd">
<svg version="1.0" xmlns="http://www.w3.org/2000/svg"
 width="56.000000pt" height="56.000000pt" viewBox="0 0 56.000000 56.000000"
 preserveAspectRatio="xMidYMid meet">
<metadata>
Created by potrace 1.16, written by Peter Selinger 2001-2019
</metadata>
<g transform="translate(0.000000,56.000000) scale(0.100000,-0.100000)"
fill="#000000" stroke="none">
<path d="M367 560 c-14 0 -28 -7 -31 -15 -4 -12 -14 -14 -39 -10 -22 4 -53 -1
-93 -14 -37 -14 -73 -36 -99 -61 -33 -33 -40 -47 -40 -79 0 -30 -4 -41 -17
-44 -15 -4 -18 -16 -18 -67 0 -34 7 -86 16 -116 13 -46 25 -62 75 -104 33 -28
70 -50 82 -50 12 0 54 9 92 19 39 10 82 23 96 29 14 6 38 25 53 42 15 18 34
49 42 69 10 23 13 50 9 75 -3 21 -12 51 -21 67 -14 29 -14 29 15 35 16 4 32
12 35 19 3 8 -2 19 -10 26 -8 6 -35 11 -60 11 -43 -1 -46 1 -60 34 -8 20 -15
48 -16 62 0 15 3 37 7 50 6 19 4 22 -18 22z m-101 -70 c16 0 26 -10 37 -38 8
-20 20 -58 27 -82 7 -25 17 -48 24 -52 6 -4 21 -8 33 -8 12 0 29 -10 37 -22 9
-12 16 -40 16 -61 0 -21 -7 -51 -15 -67 -8 -16 -30 -40 -47 -53 -18 -13 -57
-33 -87 -45 -54 -22 -54 -22 -98 0 -25 13 -53 33 -64 46 -10 13 -25 47 -33 77
-9 29 -16 62 -16 72 0 11 10 44 23 75 12 30 36 71 53 91 18 19 45 42 60 51 16
8 39 15 50 16z"/>
</g>
</svg>
