<?xml version="1.0" standalone="no"?>
<!DOCTYPE svg PUBLIC "-//W3C//DTD SVG 20010904//EN"
 "http://www.w3.org/TR/2001/REC-SVG-20010904/DTD/svg10.dtd">
<svg version="1.0" xmlns="http://www.w3.org/2000/svg"
 width="56.000000pt" height="56.000000pt" viewBox="0 0 56.000000 56.000000"
 preserveAspectRatio="xMidYMid meet">
<metadata>
Created by potrace 1.16, written by Peter Selinger 2001-2019
</metadata>
<g transform="translate(0.000000,56.000000) scale(0.100000,-0.100000)"
fill="#000000" stroke="none">
<path d="M128 560 c-10 0 -18 -6 -18 -14 0 -8 5 -18 10 -21 6 -3 10 -15 10
-25 0 -10 -8 -25 -18 -32 -10 -7 -33 -34 -51 -61 -19 -27 -31 -57 -29 -70 2
-15 9 -22 23 -21 11 1 28 5 38 9 15 6 17 1 17 -38 0 -41 -3 -47 -35 -66 -26
-15 -35 -27 -35 -46 0 -23 4 -26 28 -23 25 3 27 0 28 -33 1 -20 4 -41 8 -48 4
-6 13 -11 19 -11 7 0 17 12 24 26 7 15 10 31 7 36 -3 5 -7 35 -8 68 -2 56 -1
60 26 73 15 7 57 47 93 87 36 41 65 80 65 87 0 7 5 13 10 13 6 0 11 -6 11 -12
1 -7 3 -20 4 -28 1 -8 3 -21 4 -27 0 -7 12 -13 26 -13 22 0 14 -11 -63 -91
-48 -50 -90 -102 -94 -116 -5 -17 -2 -26 9 -30 8 -3 19 0 24 8 5 8 9 22 9 32
0 12 8 17 28 17 17 0 32 -8 40 -21 11 -16 20 -20 43 -15 16 3 43 9 59 12 28 6
30 5 30 -26 0 -23 -5 -33 -20 -37 -11 -3 -20 -12 -20 -19 0 -8 -10 -18 -23
-23 -13 -5 -29 -16 -36 -25 -7 -9 -19 -16 -27 -16 -7 0 -16 -5 -19 -10 -4 -6
6 -10 24 -10 16 0 36 7 45 15 8 8 17 15 20 15 3 0 15 8 27 17 12 10 35 31 50
47 16 16 29 37 29 47 0 9 -12 31 -26 48 -14 17 -32 31 -40 31 -8 0 -17 -7 -20
-15 -4 -9 -11 -15 -18 -14 -6 1 -19 -1 -29 -6 -10 -4 -23 -2 -32 5 -8 7 -15
21 -15 30 0 10 31 51 70 92 69 72 69 73 48 91 -11 9 -31 17 -45 17 -22 0 -23
3 -18 34 6 29 3 36 -15 46 -20 11 -28 5 -88 -57 -37 -38 -80 -88 -96 -111 -16
-22 -32 -39 -36 -37 -4 3 -5 16 -3 30 3 13 3 31 0 39 -5 12 -11 13 -36 3 -17
-6 -33 -9 -36 -6 -3 3 2 20 10 37 9 17 38 47 65 66 28 20 50 40 50 46 0 5 -6
10 -13 10 -8 0 -22 9 -32 20 -10 11 -26 20 -37 20z"/>
</g>
</svg>
