<?xml version="1.0" standalone="no"?>
<!DOCTYPE svg PUBLIC "-//W3C//DTD SVG 20010904//EN"
 "http://www.w3.org/TR/2001/REC-SVG-20010904/DTD/svg10.dtd">
<svg version="1.0" xmlns="http://www.w3.org/2000/svg"
 width="56.000000pt" height="56.000000pt" viewBox="0 0 56.000000 56.000000"
 preserveAspectRatio="xMidYMid meet">
<metadata>
Created by potrace 1.16, written by Peter Selinger 2001-2019
</metadata>
<g transform="translate(0.000000,56.000000) scale(0.100000,-0.100000)"
fill="#000000" stroke="none">
<path d="M252 540 c-4 0 -13 -4 -21 -9 -8 -5 -22 -29 -31 -53 -13 -36 -24 -47
-70 -70 -31 -15 -64 -24 -77 -21 -15 3 -25 -2 -33 -17 -6 -11 -10 -33 -8 -48
2 -17 10 -28 23 -31 10 -2 34 5 52 14 18 10 36 16 39 13 3 -3 2 -17 -1 -31 -4
-14 -21 -43 -39 -64 -18 -21 -38 -47 -43 -58 -6 -11 -14 -39 -17 -61 -6 -33
-4 -43 9 -47 11 -5 26 8 51 44 20 27 42 48 48 46 6 -2 11 -24 11 -48 -1 -24
-3 -50 -5 -57 -3 -8 2 -19 11 -24 9 -6 28 -8 43 -4 26 6 26 7 20 79 -5 51 -12
78 -26 94 -11 12 -19 26 -17 32 2 6 20 32 39 58 19 26 57 68 84 94 26 26 56
49 66 52 10 2 24 1 30 -3 7 -5 21 -29 31 -54 11 -29 15 -61 12 -85 -4 -29 -12
-42 -30 -50 -13 -6 -30 -11 -37 -11 -7 0 -27 -13 -44 -28 -23 -21 -32 -38 -32
-59 0 -17 7 -36 15 -43 8 -6 23 -9 34 -5 11 3 36 17 57 31 37 25 37 25 75 -12
30 -30 42 -35 63 -30 17 4 26 13 26 26 0 11 -4 20 -10 20 -5 0 -10 6 -10 13 0
8 -11 24 -25 37 -23 22 -24 27 -19 114 5 82 3 95 -18 136 -16 31 -35 50 -60
62 -36 17 -37 17 -84 -8 -26 -14 -53 -33 -60 -42 -12 -16 -13 -16 -19 0 -4 10
1 35 12 57 17 34 18 41 6 46 -8 3 -18 5 -21 5z"/>
</g>
</svg>
