<?xml version="1.0" standalone="no"?>
<!DOCTYPE svg PUBLIC "-//W3C//DTD SVG 20010904//EN"
 "http://www.w3.org/TR/2001/REC-SVG-20010904/DTD/svg10.dtd">
<svg version="1.0" xmlns="http://www.w3.org/2000/svg"
 width="56.000000pt" height="56.000000pt" viewBox="0 0 56.000000 56.000000"
 preserveAspectRatio="xMidYMid meet">
<metadata>
Created by potrace 1.16, written by Peter Selinger 2001-2019
</metadata>
<g transform="translate(0.000000,56.000000) scale(0.100000,-0.100000)"
fill="#000000" stroke="none">
<path d="M166 560 c-8 0 -18 -5 -21 -10 -3 -6 -1 -25 6 -44 7 -18 9 -41 6 -50
-4 -10 -18 -16 -35 -16 -16 0 -44 -5 -63 -11 -19 -6 -40 -13 -47 -15 -10 -3
-10 -9 -2 -24 6 -11 20 -20 32 -20 12 0 36 5 55 12 18 6 36 9 40 5 4 -4 0 -27
-9 -52 -9 -24 -24 -52 -33 -62 -9 -10 -27 -35 -41 -56 -13 -21 -24 -43 -24
-50 0 -7 7 -23 16 -35 8 -12 22 -22 30 -22 8 0 17 13 20 29 4 17 12 32 20 35
7 3 15 2 17 -2 2 -4 12 -33 22 -65 16 -53 20 -58 44 -55 25 3 26 5 23 68 -2
36 -7 69 -13 75 -5 5 -9 27 -9 50 0 23 -5 46 -11 52 -7 7 -2 14 20 21 17 6 31
17 31 24 0 7 19 34 43 59 23 25 53 51 65 58 12 6 29 8 36 4 8 -4 28 -26 44
-48 16 -22 31 -57 35 -78 5 -35 4 -37 -21 -37 -15 0 -33 -4 -41 -9 -7 -5 -16
-29 -18 -55 -5 -44 -4 -46 19 -46 14 0 33 9 44 21 19 21 19 21 36 -1 18 -22
17 -23 -12 -63 -17 -23 -39 -46 -48 -52 -10 -5 -36 -29 -56 -52 -38 -43 -38
-43 -8 -43 22 0 46 15 93 56 34 31 73 72 85 90 13 18 19 36 15 38 -5 3 -11 22
-14 42 -3 20 -13 41 -22 48 -11 7 -16 27 -16 61 0 28 -5 72 -12 99 -9 37 -19
54 -42 67 -16 11 -43 19 -59 19 -16 0 -52 -15 -82 -36 -30 -19 -54 -39 -54
-45 0 -5 -7 -9 -15 -9 -11 0 -15 12 -15 51 0 42 -3 52 -20 56 -11 3 -20 9 -20
14 0 5 -6 9 -14 9z"/>
</g>
</svg>
