<?xml version="1.0" standalone="no"?>
<!DOCTYPE svg PUBLIC "-//W3C//DTD SVG 20010904//EN"
 "http://www.w3.org/TR/2001/REC-SVG-20010904/DTD/svg10.dtd">
<svg version="1.0" xmlns="http://www.w3.org/2000/svg"
 width="56.000000pt" height="56.000000pt" viewBox="0 0 56.000000 56.000000"
 preserveAspectRatio="xMidYMid meet">
<metadata>
Created by potrace 1.16, written by Peter Selinger 2001-2019
</metadata>
<g transform="translate(0.000000,56.000000) scale(0.100000,-0.100000)"
fill="#000000" stroke="none">
<path d="M170 560 c-11 0 -23 -7 -27 -16 -4 -10 0 -22 9 -28 8 -6 18 -35 22
-63 6 -50 6 -53 -16 -53 -13 0 -34 -9 -47 -19 -16 -12 -22 -24 -18 -35 4 -9
13 -16 21 -16 8 0 18 5 21 10 3 6 11 10 17 10 7 0 9 -20 6 -58 -3 -31 -15 -74
-27 -95 -12 -21 -19 -42 -16 -46 2 -5 -4 -16 -15 -26 -11 -10 -20 -26 -20 -35
0 -9 -7 -25 -15 -36 -8 -10 -15 -27 -15 -37 0 -12 6 -17 17 -15 11 2 18 12 17
26 0 12 5 22 11 22 7 0 19 10 28 22 8 13 18 20 22 17 3 -4 8 -24 10 -44 2 -20
6 -39 9 -42 3 -4 9 -3 13 1 4 3 7 23 8 44 1 20 4 44 8 52 3 8 8 42 11 75 3 33
8 76 12 95 4 19 14 40 22 46 13 10 13 12 -4 22 -18 10 -18 11 -1 30 18 19 18
21 1 30 -15 9 -16 14 -7 35 10 21 9 32 -3 56 -9 17 -20 31 -25 31 -5 0 -9 9
-9 20 0 13 -7 20 -20 20z"/>
<path d="M352 480 c-4 0 -22 -12 -39 -27 -17 -16 -34 -38 -38 -50 -3 -12 -1
-24 5 -28 7 -4 14 1 16 12 3 11 19 27 35 37 16 9 33 15 38 12 5 -3 19 -25 31
-48 12 -24 25 -63 29 -88 5 -36 10 -45 26 -45 17 0 21 8 23 47 2 32 -3 58 -17
85 -11 21 -26 45 -33 53 -7 8 -26 21 -41 28 -15 6 -31 12 -35 12z"/>
<path d="M452 229 c-4 -1 -18 -7 -31 -14 -14 -8 -37 -11 -52 -8 -19 4 -33 -1
-48 -16 -12 -12 -21 -25 -21 -31 0 -5 5 -10 11 -10 8 0 8 -4 0 -14 -9 -10 -6
-17 13 -30 14 -9 29 -16 34 -16 5 0 16 7 23 16 7 9 23 20 36 25 13 5 23 16 24
26 0 16 2 15 9 -2 5 -11 9 -27 9 -36 1 -8 -14 -30 -31 -49 -18 -18 -46 -41
-63 -52 -30 -18 -30 -18 2 -18 17 0 38 7 47 15 8 8 19 15 23 15 5 0 20 15 33
33 14 18 25 47 26 67 0 19 -8 49 -19 67 -10 18 -22 33 -25 32z"/>
</g>
</svg>
