<?xml version="1.0" standalone="no"?>
<!DOCTYPE svg PUBLIC "-//W3C//DTD SVG 20010904//EN"
 "http://www.w3.org/TR/2001/REC-SVG-20010904/DTD/svg10.dtd">
<svg version="1.0" xmlns="http://www.w3.org/2000/svg"
 width="56.000000pt" height="56.000000pt" viewBox="0 0 56.000000 56.000000"
 preserveAspectRatio="xMidYMid meet">
<metadata>
Created by potrace 1.16, written by Peter Selinger 2001-2019
</metadata>
<g transform="translate(0.000000,56.000000) scale(0.100000,-0.100000)"
fill="#000000" stroke="none">
<path d="M333 539 c-4 0 -52 -24 -106 -53 -67 -36 -106 -52 -123 -48 -21 4
-24 1 -24 -25 0 -16 7 -39 16 -51 8 -12 22 -22 31 -22 9 0 36 11 60 25 33 20
43 22 43 11 0 -8 -4 -18 -10 -21 -5 -3 -10 -16 -10 -28 0 -14 16 -36 42 -59
33 -28 40 -39 31 -49 -6 -6 -31 -16 -55 -21 -24 -5 -68 -11 -98 -14 -30 -3
-67 -10 -82 -16 -16 -6 -28 -16 -28 -24 0 -7 25 -29 55 -49 30 -19 85 -48 122
-65 36 -16 72 -30 80 -30 8 0 28 13 44 29 19 19 29 40 29 59 0 16 8 39 18 50
15 19 23 20 81 11 38 -5 68 -6 74 0 5 5 7 19 5 32 -2 15 -15 29 -33 38 -24 11
-37 12 -73 2 -33 -9 -48 -9 -58 0 -8 6 -14 16 -14 21 0 5 -9 21 -20 35 -11 14
-20 38 -20 53 0 22 12 36 55 69 30 23 55 49 55 59 0 9 -8 27 -18 38 -9 12 -27
27 -39 33 -12 6 -25 11 -30 10z m-65 -400 c23 1 42 -1 42 -4 0 -4 -7 -19 -15
-35 -9 -17 -24 -30 -34 -30 -10 0 -35 7 -55 15 -21 9 -34 20 -30 26 3 6 16 14
28 19 11 5 40 9 64 9z"/>
</g>
</svg>
