<?xml version="1.0" standalone="no"?>
<!DOCTYPE svg PUBLIC "-//W3C//DTD SVG 20010904//EN"
 "http://www.w3.org/TR/2001/REC-SVG-20010904/DTD/svg10.dtd">
<svg version="1.0" xmlns="http://www.w3.org/2000/svg"
 width="56.000000pt" height="56.000000pt" viewBox="0 0 56.000000 56.000000"
 preserveAspectRatio="xMidYMid meet">
<metadata>
Created by potrace 1.16, written by Peter Selinger 2001-2019
</metadata>
<g transform="translate(0.000000,56.000000) scale(0.100000,-0.100000)"
fill="#000000" stroke="none">
<path d="M110 560 c-5 0 -11 -12 -14 -26 -5 -17 0 -36 14 -58 11 -19 20 -38
20 -43 0 -5 -25 -21 -55 -37 -30 -15 -60 -36 -65 -46 -6 -10 -10 -39 -10 -65
0 -31 5 -47 15 -51 8 -4 26 1 40 10 13 9 36 16 50 16 14 0 25 -3 25 -6 0 -3
-7 -21 -16 -40 -16 -34 -16 -35 10 -59 14 -13 26 -33 26 -45 0 -11 -7 -20 -15
-20 -12 0 -14 -8 -10 -32 3 -17 8 -35 11 -40 3 -4 12 -8 20 -8 10 0 14 12 14
43 0 23 3 52 6 64 4 13 12 23 19 23 8 0 16 -9 20 -19 3 -11 7 -37 8 -59 1 -35
4 -38 27 -37 14 2 33 6 42 10 10 4 24 -1 37 -14 12 -12 28 -21 37 -21 12 0 15
7 12 24 -3 14 -2 29 1 34 3 5 35 23 71 40 36 17 75 40 88 51 12 10 22 29 22
40 0 12 -4 21 -10 21 -5 0 -10 9 -10 19 0 11 -12 29 -26 40 -15 12 -39 21 -55
21 -15 0 -40 -5 -54 -12 -21 -10 -29 -9 -43 5 -15 16 -15 18 4 32 12 8 27 28
34 44 7 17 9 42 6 56 -6 22 -11 25 -55 25 -34 0 -53 -5 -64 -18 -10 -10 -17
-21 -17 -25 0 -3 -19 -31 -41 -61 -41 -55 -41 -55 -77 -40 -20 8 -42 12 -49
10 -7 -3 -24 -1 -38 4 -14 5 -25 14 -25 20 0 6 19 20 43 30 23 11 59 20 79 20
27 0 40 6 48 20 8 14 8 26 0 40 -6 11 -14 20 -18 20 -4 0 -22 23 -41 50 -19
28 -37 50 -41 50z m231 -150 c5 0 9 -7 9 -15 0 -9 -20 -46 -45 -83 -39 -58
-43 -68 -27 -73 9 -4 24 -3 34 2 11 6 18 4 22 -7 3 -9 6 -42 6 -75 0 -43 -4
-59 -14 -59 -7 0 -19 7 -26 15 -7 8 -23 15 -36 15 -19 0 -24 7 -30 38 -4 20
-11 45 -16 55 -7 13 -2 30 18 64 14 25 42 63 61 84 20 22 39 39 44 39z m110
-171 c9 0 24 -8 34 -19 17 -19 17 -21 -1 -41 -10 -12 -31 -27 -46 -35 -15 -8
-34 -14 -42 -14 -8 0 -17 13 -21 30 -4 16 -4 38 0 49 3 12 17 21 33 24 15 2
34 5 43 6z m-174 -141 c10 -2 18 -12 18 -23 0 -11 -7 -20 -15 -20 -8 0 -16 11
-18 23 -3 19 0 23 15 20z"/>
<path d="M94 167 c-6 2 -27 -11 -46 -29 -32 -30 -35 -37 -31 -76 3 -25 10 -42
18 -42 7 0 18 6 24 14 6 8 10 20 9 27 -2 8 7 15 20 17 20 3 23 8 20 44 -2 23
-8 43 -14 45z"/>
</g>
</svg>
