<?xml version="1.0" standalone="no"?>
<!DOCTYPE svg PUBLIC "-//W3C//DTD SVG 20010904//EN"
 "http://www.w3.org/TR/2001/REC-SVG-20010904/DTD/svg10.dtd">
<svg version="1.0" xmlns="http://www.w3.org/2000/svg"
 width="56.000000pt" height="56.000000pt" viewBox="0 0 56.000000 56.000000"
 preserveAspectRatio="xMidYMid meet">
<metadata>
Created by potrace 1.16, written by Peter Selinger 2001-2019
</metadata>
<g transform="translate(0.000000,56.000000) scale(0.100000,-0.100000)"
fill="#000000" stroke="none">
<path d="M195 560 c-15 0 -26 -9 -35 -29 -10 -25 -9 -33 6 -56 18 -27 18 -27
-39 -80 -31 -29 -57 -58 -57 -63 0 -6 3 -17 6 -26 3 -8 21 -20 40 -26 19 -6
34 -17 34 -23 0 -6 -34 -46 -77 -89 -56 -58 -73 -82 -65 -90 8 -8 20 -4 46 15
27 21 36 24 45 13 6 -7 14 -27 17 -44 4 -17 12 -37 20 -43 7 -6 21 -9 31 -7
10 2 23 14 30 28 7 14 13 43 13 66 0 22 3 44 7 47 3 4 13 2 20 -5 11 -9 19 -9
33 0 15 9 23 7 44 -9 18 -14 33 -18 48 -13 13 4 41 18 62 32 29 18 44 22 55
15 9 -6 16 -21 16 -34 0 -14 7 -25 17 -27 9 -2 19 5 23 17 3 12 11 21 16 21 5
0 9 8 9 18 0 10 -19 30 -42 45 -23 15 -49 27 -58 27 -9 0 -26 -13 -38 -30 -13
-16 -34 -37 -48 -46 -23 -16 -26 -15 -44 1 -11 10 -20 23 -20 30 0 6 14 24 31
41 17 16 49 51 70 77 22 27 37 53 33 58 -3 5 -23 9 -45 9 -23 0 -39 5 -39 12
0 6 9 22 21 34 12 12 18 27 14 33 -3 6 -21 11 -40 11 -28 0 -39 -7 -64 -42
-17 -23 -31 -47 -31 -53 0 -7 16 -20 35 -31 19 -10 35 -23 35 -28 0 -5 -10
-20 -21 -32 -12 -13 -27 -34 -33 -46 -6 -13 -20 -24 -30 -26 -10 -2 -22 0 -28
6 -6 6 -4 27 5 58 8 27 18 58 22 69 5 14 -2 10 -25 -13 -32 -33 -32 -33 -55
-12 -13 12 -21 28 -19 35 3 6 18 22 34 34 16 12 36 34 44 49 11 22 12 37 3 75
-8 39 -14 47 -32 47z m-44 -370 c5 0 9 -15 9 -34 0 -19 -5 -38 -12 -42 -6 -4
-17 1 -24 11 -11 14 -10 21 3 41 8 13 19 24 24 24z"/>
<path d="M466 90 c-3 0 -17 -10 -33 -23 -15 -13 -45 -31 -65 -41 -21 -9 -38
-20 -38 -23 0 -3 19 -3 42 1 27 5 51 17 70 36 15 17 28 34 28 40 0 5 -2 10 -4
10z"/>
</g>
</svg>
