<?xml version="1.0" standalone="no"?>
<!DOCTYPE svg PUBLIC "-//W3C//DTD SVG 20010904//EN"
 "http://www.w3.org/TR/2001/REC-SVG-20010904/DTD/svg10.dtd">
<svg version="1.0" xmlns="http://www.w3.org/2000/svg"
 width="128.000000pt" height="128.000000pt" viewBox="0 0 128.000000 128.000000"
 preserveAspectRatio="xMidYMid meet">
<metadata>
Created by potrace 1.16, written by Peter Selinger 2001-2019
</metadata>
<g transform="translate(0.000000,128.000000) scale(0.100000,-0.100000)"
fill="#000000" stroke="none">
<path d="M767 1260 c-7 0 -17 -3 -20 -7 -4 -3 -7 -18 -7 -32 0 -14 -8 -39 -19
-54 -10 -16 -36 -47 -58 -70 -22 -23 -57 -66 -77 -94 -21 -29 -36 -60 -34 -70
2 -10 11 -19 20 -21 8 -2 47 16 84 40 38 24 81 50 96 57 15 8 34 11 42 8 9 -4
16 -12 16 -19 -1 -7 -16 -38 -35 -68 -19 -30 -44 -72 -55 -94 -19 -34 -25 -38
-51 -32 -21 4 -35 0 -48 -13 -11 -11 -23 -40 -26 -66 -4 -25 -5 -59 -1 -76 4
-22 1 -34 -15 -47 -11 -9 -38 -46 -61 -82 -23 -36 -70 -108 -105 -160 -35 -52
-79 -115 -98 -140 -20 -25 -51 -63 -69 -86 -19 -22 -44 -57 -55 -78 -12 -20
-21 -41 -21 -46 0 -6 12 -10 28 -10 20 1 35 12 62 48 19 25 37 51 39 57 2 5
30 39 61 75 31 36 77 97 102 135 25 39 52 82 62 97 9 15 27 35 41 44 23 15 27
15 48 1 13 -9 35 -40 49 -69 14 -29 33 -60 43 -68 12 -10 21 -11 33 -3 9 5 20
25 24 44 4 19 8 57 9 85 1 28 -4 61 -11 74 -10 19 -7 26 29 59 23 21 59 46 81
56 22 10 43 15 47 11 4 -3 8 -29 10 -57 1 -29 13 -69 26 -93 19 -34 29 -42 61
-47 33 -5 43 -3 63 17 13 13 23 30 23 37 0 8 -10 24 -22 36 -13 12 -32 28 -43
35 -20 15 -20 15 8 65 20 36 27 62 25 88 -3 31 -9 40 -40 57 -37 19 -37 19
-90 -23 -29 -23 -76 -59 -103 -80 -28 -21 -61 -43 -73 -50 -13 -7 -30 -10 -38
-7 -9 4 -14 21 -14 52 0 42 6 53 64 123 35 42 85 95 110 119 26 24 58 66 71
92 14 27 25 60 25 72 0 13 -7 34 -16 46 -11 16 -25 22 -53 22 -20 0 -42 -5
-48 -11 -7 -7 -19 -9 -29 -5 -13 5 -15 9 -6 18 7 7 12 23 12 38 0 14 -4 30 -8
36 -4 6 -17 16 -29 23 -12 6 -28 11 -36 11z m104 -157 c7 -7 7 -22 1 -44 -9
-34 -9 -34 -17 -7 -4 16 -4 35 -1 45 5 11 10 13 17 6z m-138 -23 c8 0 16 -3
20 -6 3 -3 3 -12 0 -20 -3 -8 -11 -14 -19 -14 -8 0 -14 9 -14 20 0 11 6 20 13
20z"/>
<path d="M874 290 c-6 0 -14 -3 -17 -7 -4 -3 -7 -28 -7 -55 0 -37 -4 -50 -17
-56 -10 -4 -39 -20 -65 -35 -45 -27 -48 -27 -77 -13 -16 9 -40 16 -51 16 -12
0 -33 -9 -47 -20 -14 -11 -43 -25 -64 -30 -22 -6 -39 -17 -39 -24 0 -8 6 -18
13 -23 6 -6 24 -13 40 -17 15 -3 27 -11 27 -16 0 -6 18 -10 39 -10 34 0 42 5
60 35 11 19 26 36 33 36 7 1 29 2 48 3 19 1 43 -2 53 -6 10 -6 17 -20 17 -38
0 -30 0 -30 98 -30 88 0 98 2 111 21 11 19 10 24 -7 41 -19 20 -20 20 -61 -7
-24 -16 -47 -25 -57 -21 -12 5 -15 14 -11 34 3 15 10 39 16 54 7 18 20 29 38
33 15 4 35 10 43 14 8 5 15 19 15 32 0 18 -8 26 -37 34 -20 5 -47 20 -60 33
-14 12 -29 22 -34 22z"/>
</g>
</svg>
