<?xml version="1.0" standalone="no"?>
<!DOCTYPE svg PUBLIC "-//W3C//DTD SVG 20010904//EN"
 "http://www.w3.org/TR/2001/REC-SVG-20010904/DTD/svg10.dtd">
<svg version="1.0" xmlns="http://www.w3.org/2000/svg"
 width="128.000000pt" height="128.000000pt" viewBox="0 0 128.000000 128.000000"
 preserveAspectRatio="xMidYMid meet">
<metadata>
Created by potrace 1.16, written by Peter Selinger 2001-2019
</metadata>
<g transform="translate(0.000000,128.000000) scale(0.100000,-0.100000)"
fill="#000000" stroke="none">
<path d="M674 1260 c-8 0 -14 -4 -14 -9 0 -5 6 -14 14 -20 10 -8 16 -9 21 -1
3 5 3 15 0 20 -3 6 -13 10 -21 10z"/>
<path d="M938 1260 c-9 0 -30 -16 -47 -35 -17 -20 -31 -40 -31 -44 0 -5 17
-16 39 -24 21 -9 41 -23 45 -32 3 -9 6 -50 6 -91 0 -70 -1 -75 -25 -84 -14 -5
-25 -14 -25 -20 0 -5 -16 -10 -36 -10 -24 0 -52 -10 -81 -30 -39 -26 -53 -31
-97 -28 -51 3 -51 3 -54 94 -2 80 0 92 18 109 11 10 20 29 20 43 0 14 -11 35
-26 49 -14 13 -44 31 -65 40 -21 8 -46 13 -54 9 -8 -3 -15 -15 -15 -26 0 -11
-9 -37 -19 -58 -11 -20 -53 -71 -93 -112 -41 -42 -105 -96 -143 -121 -39 -26
-79 -57 -90 -69 -11 -12 -44 -40 -72 -62 -29 -21 -60 -50 -69 -64 -16 -23 -15
-26 1 -44 9 -10 31 -22 47 -26 26 -5 35 -1 60 25 15 16 48 44 72 61 25 16 49
30 54 30 5 0 49 40 98 90 49 49 93 90 97 90 5 0 15 7 24 16 9 8 25 14 37 12
21 -3 21 -3 21 -388 0 -385 0 -385 22 -388 14 -2 26 4 33 19 7 12 14 49 16 83
2 34 8 149 14 256 6 107 15 205 20 218 6 13 27 30 48 39 20 8 44 21 52 28 8 7
46 15 83 19 38 4 76 12 86 18 10 6 26 8 35 5 13 -5 16 -25 18 -119 1 -62 2
-133 3 -158 1 -25 5 -113 9 -196 6 -108 5 -158 -3 -173 -7 -11 -20 -21 -31
-21 -10 0 -22 5 -25 10 -3 6 -14 10 -23 10 -9 0 -44 14 -77 30 -33 17 -65 30
-72 30 -7 0 -13 -9 -13 -21 0 -11 15 -34 33 -52 19 -18 59 -66 90 -108 31 -42
64 -79 72 -83 9 -3 23 -6 32 -6 8 0 26 8 39 19 13 10 42 41 64 69 22 29 41 60
42 69 2 10 -3 55 -11 101 -7 46 -11 109 -8 139 3 31 1 65 -4 75 -6 10 -10 107
-11 217 0 110 3 204 7 210 3 6 28 11 54 10 25 -1 56 3 68 10 12 6 30 27 39 47
12 24 14 41 8 51 -5 8 -26 21 -47 28 -21 7 -52 26 -69 42 -17 15 -62 61 -102
101 -39 39 -79 72 -88 72z"/>
<path d="M1245 1220 c-3 0 -9 -8 -14 -18 -6 -11 -6 -24 0 -34 5 -10 17 -14 29
-11 13 3 20 14 20 28 0 13 -7 26 -16 29 -9 3 -17 6 -19 6z"/>
<path d="M737 500 c-7 0 -17 -3 -20 -7 -4 -3 3 -22 15 -42 13 -20 32 -47 43
-60 11 -14 31 -37 45 -53 17 -20 31 -27 42 -23 9 4 21 19 28 35 6 16 9 37 6
48 -4 10 -28 32 -54 49 -26 17 -57 35 -69 42 -12 6 -28 11 -36 11z"/>
<path d="M55 440 c-20 0 -25 -5 -25 -25 0 -20 5 -25 25 -25 20 0 25 5 25 25 0
20 -5 25 -25 25z"/>
<path d="M564 100 c-3 0 -7 -7 -10 -15 -3 -8 -3 -19 1 -25 3 -5 15 -10 26 -10
12 0 19 7 19 19 0 10 -7 22 -16 25 -9 3 -18 6 -20 6z"/>
</g>
</svg>
