<?xml version="1.0" standalone="no"?>
<!DOCTYPE svg PUBLIC "-//W3C//DTD SVG 20010904//EN"
 "http://www.w3.org/TR/2001/REC-SVG-20010904/DTD/svg10.dtd">
<svg version="1.0" xmlns="http://www.w3.org/2000/svg"
 width="128.000000pt" height="128.000000pt" viewBox="0 0 128.000000 128.000000"
 preserveAspectRatio="xMidYMid meet">
<metadata>
Created by potrace 1.16, written by Peter Selinger 2001-2019
</metadata>
<g transform="translate(0.000000,128.000000) scale(0.100000,-0.100000)"
fill="#000000" stroke="none">
<path d="M514 1280 c-8 0 -14 -4 -14 -9 0 -5 -14 -14 -30 -21 -17 -7 -35 -20
-40 -29 -6 -11 -3 -22 12 -38 13 -14 18 -28 13 -42 -3 -11 -23 -41 -44 -66
-21 -26 -56 -58 -77 -73 -21 -15 -66 -41 -99 -58 -33 -17 -60 -38 -60 -45 0
-8 12 -15 26 -17 15 -2 51 5 80 16 30 10 71 27 92 36 34 15 38 15 43 1 4 -9 0
-42 -8 -74 -10 -42 -11 -65 -4 -81 9 -20 4 -28 -40 -69 -28 -25 -99 -75 -159
-110 -60 -36 -128 -83 -152 -106 -33 -32 -43 -49 -43 -73 0 -17 5 -34 10 -37
6 -4 29 3 52 15 22 11 77 51 121 88 44 37 99 84 122 105 23 20 49 37 58 37 8
0 17 -6 20 -12 2 -7 0 -21 -4 -30 -5 -9 -14 -50 -20 -92 -6 -41 -17 -83 -23
-92 -11 -14 -16 -14 -34 -3 -12 7 -24 10 -28 7 -3 -4 17 -54 46 -112 29 -58
58 -110 65 -116 11 -9 19 -3 37 27 13 21 30 61 36 89 8 32 12 112 11 221 -1
108 3 183 10 206 8 24 30 49 66 76 30 23 61 44 68 47 10 4 16 -13 23 -63 9
-67 10 -68 39 -68 28 0 30 -2 28 -35 -2 -19 -5 -55 -8 -80 -3 -25 -7 -104 -10
-177 -4 -90 -3 -133 5 -138 6 -4 21 4 34 17 13 12 28 32 34 44 7 13 10 90 8
223 -2 133 -7 206 -15 214 -6 6 -11 17 -11 24 0 8 12 13 29 13 16 0 47 7 69
14 23 8 43 12 46 8 2 -4 7 -23 11 -42 4 -19 8 -114 7 -211 0 -97 -3 -186 -6
-197 -4 -10 -2 -30 3 -44 6 -16 5 -29 -3 -39 -6 -9 -11 -36 -11 -60 0 -41 2
-44 28 -47 16 -2 27 -9 27 -18 0 -10 -9 -14 -27 -12 -27 3 -28 1 -35 -59 -5
-36 -4 -72 2 -87 6 -16 17 -26 30 -26 13 0 20 7 20 19 0 11 -4 23 -10 26 -5 3
-10 12 -10 19 0 7 9 17 21 22 13 6 28 31 40 63 14 42 17 65 11 111 -5 31 -7
139 -6 239 1 146 -1 184 -12 188 -8 3 -14 9 -14 14 0 5 7 9 15 9 8 0 17 11 21
25 3 14 4 38 1 53 -3 15 -9 35 -12 44 -5 12 2 23 27 38 27 17 47 20 105 18 68
-2 74 0 103 27 16 16 30 39 30 51 0 13 -15 35 -35 53 -20 17 -41 31 -48 31 -7
0 -48 -21 -92 -48 -44 -26 -114 -64 -156 -85 -42 -20 -86 -37 -97 -37 -11 0
-23 7 -26 16 -3 8 3 34 15 57 11 23 27 62 36 86 8 24 13 60 10 80 -3 20 -10
57 -17 83 -6 25 -17 49 -24 51 -7 3 -37 -7 -67 -21 -30 -15 -57 -31 -61 -37
-4 -5 9 -26 27 -47 34 -37 34 -37 19 -90 -9 -29 -24 -79 -36 -111 -11 -32 -17
-65 -14 -74 5 -11 2 -14 -11 -8 -10 3 -30 9 -45 12 -21 4 -37 -2 -68 -27 -22
-18 -47 -29 -55 -26 -11 4 -14 23 -12 84 1 51 7 85 16 96 8 10 27 24 43 32 15
8 34 27 42 42 10 19 11 33 5 45 -9 16 -12 16 -34 1 -23 -15 -25 -15 -31 0 -4
9 -4 32 -1 51 3 19 3 51 0 70 -3 20 -11 35 -19 35z m257 -422 c6 -2 11 -8 11
-13 0 -5 -5 -11 -11 -13 -6 -2 -11 4 -11 13 0 9 5 15 11 13z"/>
<path d="M1245 136 c-5 1 -25 -7 -42 -18 -22 -13 -33 -28 -33 -43 0 -15 8 -26
20 -30 13 -4 31 0 46 10 20 13 24 23 22 47 -2 17 -7 33 -13 34z"/>
</g>
</svg>
