<?xml version="1.0" standalone="no"?>
<!DOCTYPE svg PUBLIC "-//W3C//DTD SVG 20010904//EN"
 "http://www.w3.org/TR/2001/REC-SVG-20010904/DTD/svg10.dtd">
<svg version="1.0" xmlns="http://www.w3.org/2000/svg"
 width="128.000000pt" height="128.000000pt" viewBox="0 0 128.000000 128.000000"
 preserveAspectRatio="xMidYMid meet">
<metadata>
Created by potrace 1.16, written by Peter Selinger 2001-2019
</metadata>
<g transform="translate(0.000000,128.000000) scale(0.100000,-0.100000)"
fill="#000000" stroke="none">
<path d="M337 1198 c-19 2 -27 -1 -27 -12 0 -8 5 -18 10 -21 6 -4 10 -58 10
-129 0 -122 0 -122 -77 -202 -59 -60 -95 -88 -146 -112 -37 -18 -74 -32 -82
-32 -8 0 -15 -6 -15 -13 0 -7 16 -28 35 -47 35 -34 35 -34 97 -18 34 9 65 15
70 12 4 -3 8 -16 8 -29 0 -12 -18 -45 -40 -71 -22 -27 -40 -52 -40 -56 0 -4
-15 -14 -32 -22 -18 -7 -44 -25 -57 -39 -14 -16 -28 -51 -37 -89 -10 -50 -10
-66 0 -76 9 -10 24 -5 71 24 33 20 73 37 90 38 24 1 33 -6 52 -40 14 -25 27
-72 33 -119 5 -42 12 -81 15 -86 4 -5 12 -9 19 -9 7 0 25 13 40 29 28 29 28
29 28 188 -1 87 2 174 6 193 5 22 14 36 26 38 10 2 32 -6 48 -18 25 -18 32
-20 39 -9 5 8 7 27 4 43 -3 16 -5 34 -5 40 0 7 -20 26 -45 44 -37 26 -45 37
-45 62 0 17 6 43 14 58 8 15 28 37 45 50 17 12 34 33 37 47 5 20 -3 35 -40 76
-47 52 -47 52 -41 138 6 78 4 90 -17 126 -17 29 -31 41 -51 43z"/>
<path d="M649 1200 c-10 0 -19 -6 -19 -14 0 -7 16 -26 36 -41 32 -25 36 -31
31 -62 -4 -20 -18 -46 -36 -62 -17 -16 -31 -35 -31 -42 0 -7 -7 -19 -15 -28
-9 -9 -34 -40 -55 -70 -24 -32 -40 -66 -40 -82 0 -15 4 -30 9 -33 5 -3 29 5
53 19 23 14 48 25 55 25 6 0 14 -8 17 -17 3 -10 -3 -54 -13 -98 -10 -44 -30
-109 -45 -144 -14 -36 -26 -73 -26 -83 0 -10 4 -26 9 -36 5 -9 16 -39 23 -65
7 -27 21 -53 31 -59 12 -6 22 -6 30 0 7 6 11 30 11 54 -1 23 2 84 7 133 5 50
12 124 14 165 3 41 10 100 15 130 5 30 9 72 7 94 -2 36 0 39 28 41 17 2 51 9
77 16 43 11 50 10 68 -6 11 -10 20 -24 20 -31 0 -7 9 -19 20 -27 17 -12 19
-19 11 -40 -6 -14 -10 -34 -10 -44 0 -10 0 -56 -1 -103 -1 -47 -7 -152 -15
-234 -7 -82 -11 -154 -9 -161 3 -6 -13 -18 -36 -28 -22 -8 -40 -20 -40 -25 0
-6 16 -24 36 -42 20 -17 43 -30 52 -28 9 2 26 21 38 42 13 22 28 67 34 100 6
34 13 117 14 186 2 69 6 132 9 140 3 8 8 66 10 127 2 62 9 118 15 125 5 7 12
24 14 38 2 18 12 27 35 34 26 7 44 4 83 -12 40 -17 56 -19 80 -10 18 6 30 17
30 27 0 10 -17 27 -39 39 -21 12 -48 22 -59 22 -12 0 -24 5 -27 10 -4 6 -39 8
-93 4 -48 -4 -100 -12 -117 -20 -16 -7 -59 -24 -94 -38 -36 -14 -75 -26 -89
-26 -21 0 -23 3 -17 28 3 15 18 51 33 81 26 54 26 54 -6 82 -20 18 -44 29 -62
29 -16 0 -32 5 -35 10 -3 6 -15 10 -26 10z m-1 -254 c2 -3 1 -14 -3 -25 -3
-12 -11 -21 -16 -21 -5 0 -9 6 -9 13 0 7 5 18 12 25 6 6 14 10 16 8z"/>
<path d="M1260 800 c-11 0 -20 -6 -20 -13 0 -7 5 -18 12 -25 7 -7 16 -12 20
-12 4 0 8 11 8 25 0 18 -5 25 -20 25z"/>
<path d="M1211 175 c-6 3 -14 -1 -18 -11 -3 -9 -1 -25 5 -35 7 -10 12 -20 12
-23 0 -2 -14 -9 -30 -16 -17 -7 -29 -18 -27 -24 2 -6 13 -12 25 -14 16 -2 26
6 40 35 13 26 17 45 11 59 -4 12 -12 25 -18 29z"/>
</g>
</svg>
