<?xml version="1.0" standalone="no"?>
<!DOCTYPE svg PUBLIC "-//W3C//DTD SVG 20010904//EN"
 "http://www.w3.org/TR/2001/REC-SVG-20010904/DTD/svg10.dtd">
<svg version="1.0" xmlns="http://www.w3.org/2000/svg"
 width="128.000000pt" height="128.000000pt" viewBox="0 0 128.000000 128.000000"
 preserveAspectRatio="xMidYMid meet">
<metadata>
Created by potrace 1.16, written by Peter Selinger 2001-2019
</metadata>
<g transform="translate(0.000000,128.000000) scale(0.100000,-0.100000)"
fill="#000000" stroke="none">
<path d="M671 1280 c-21 0 -30 -6 -34 -21 -4 -15 -11 -20 -22 -15 -12 4 -16 1
-13 -11 2 -10 16 -24 31 -31 16 -8 30 -19 33 -25 2 -7 6 -28 8 -47 2 -19 4
-45 5 -57 0 -13 7 -23 15 -23 8 0 18 -5 21 -10 3 -6 -5 -14 -18 -19 -13 -5
-27 -18 -31 -27 -5 -12 -1 -23 10 -31 10 -7 22 -13 28 -13 6 0 -8 -18 -29 -41
-22 -22 -49 -45 -60 -50 -11 -5 -27 -13 -35 -18 -8 -5 -31 -14 -51 -20 -19 -6
-44 -11 -55 -11 -10 -1 -31 -11 -46 -23 -16 -13 -36 -46 -46 -77 -14 -41 -24
-55 -38 -55 -10 0 -20 8 -22 19 -2 10 8 51 22 91 14 40 26 85 26 99 0 15 -10
40 -22 56 -16 22 -30 30 -54 30 -17 0 -36 -6 -42 -13 -6 -7 -13 -44 -15 -83
-3 -38 -9 -81 -15 -95 -6 -15 -9 -78 -8 -145 3 -108 5 -119 24 -132 12 -8 22
-20 22 -26 0 -6 14 -27 30 -46 28 -35 28 -35 53 -12 13 12 29 40 36 61 6 21
17 44 25 50 11 9 23 7 52 -11 22 -12 44 -29 51 -38 6 -8 14 -32 17 -54 5 -29
2 -43 -11 -58 -9 -10 -22 -34 -29 -53 -6 -19 -9 -45 -7 -57 3 -14 -6 -42 -21
-68 -14 -25 -26 -55 -26 -67 0 -12 8 -34 17 -51 9 -16 29 -34 45 -41 17 -8 51
-11 86 -8 31 3 80 10 107 17 28 7 57 18 66 26 8 8 32 14 51 14 20 0 38 6 41
13 2 6 0 30 -5 52 -5 22 -10 41 -12 42 -1 2 -20 -6 -41 -17 -21 -11 -43 -24
-49 -30 -5 -5 -25 -10 -42 -10 -18 0 -36 -5 -40 -11 -4 -7 -20 -8 -42 -4 -19
3 -47 14 -61 23 -14 9 -28 17 -30 19 -2 1 3 13 11 25 8 13 18 46 21 75 3 29
12 62 20 75 8 13 22 46 30 73 9 28 16 57 15 65 -1 8 8 36 20 63 13 26 26 47
30 47 5 0 14 -6 20 -12 10 -10 15 -10 22 2 6 9 5 19 0 24 -6 6 -10 14 -10 20
0 5 8 2 18 -7 10 -10 24 -17 30 -17 6 0 31 14 55 30 25 17 50 30 56 30 5 0 15
8 20 19 7 13 6 24 -3 37 -12 16 -11 23 16 56 16 21 38 38 48 38 11 0 25 10 31
22 7 13 34 51 61 85 35 46 48 71 48 96 0 22 -8 41 -24 56 -16 15 -36 22 -67
22 -24 0 -63 -3 -87 -6 -30 -5 -48 -15 -59 -32 -11 -17 -23 -23 -42 -21 -20 2
-25 8 -23 23 2 11 8 45 13 75 9 50 8 59 -16 107 -14 29 -31 54 -38 54 -7 1
-18 1 -24 0 -7 -1 -13 3 -13 9 0 5 -13 10 -29 10z m300 -290 c5 0 9 -7 9 -15
0 -9 -7 -18 -15 -22 -9 -3 -19 -3 -22 1 -3 3 0 12 7 21 7 8 16 15 21 15z m-82
-52 c24 -2 37 -9 39 -20 2 -9 -17 -37 -41 -62 -24 -25 -48 -46 -54 -46 -5 0
-19 -10 -31 -23 -12 -13 -27 -38 -33 -55 -7 -21 -17 -32 -27 -30 -8 2 -20 11
-25 20 -8 12 -7 24 3 45 8 15 19 51 24 78 10 46 13 50 42 53 18 2 40 12 50 23
13 14 28 19 53 17z m101 -13 c6 -3 10 -13 10 -21 0 -8 -4 -14 -10 -14 -5 0
-10 9 -10 21 0 11 5 17 10 14z m-400 -158 c10 -2 16 -15 17 -42 2 -34 -3 -45
-34 -77 -21 -21 -43 -38 -51 -38 -7 0 -20 -7 -28 -15 -9 -8 -29 -15 -45 -15
-18 0 -32 6 -36 16 -3 8 1 38 8 67 12 45 18 53 49 62 19 6 51 18 70 27 19 9
42 16 50 15z m-39 -263 c5 -3 9 -9 9 -15 0 -5 -7 -9 -15 -9 -8 0 -15 4 -15 8
0 5 3 12 6 15 4 4 11 4 15 1z"/>
<path d="M913 285 c-30 6 -33 4 -52 -34 -12 -22 -21 -47 -21 -56 0 -8 4 -15
10 -15 5 0 16 -15 24 -34 8 -18 23 -40 33 -47 11 -8 24 -27 29 -42 5 -16 21
-36 36 -45 24 -14 28 -14 50 0 13 8 29 27 37 41 11 21 12 34 1 70 -6 25 -30
67 -52 93 -22 27 -45 52 -52 55 -6 4 -25 10 -43 14z"/>
</g>
</svg>
