<?xml version="1.0" standalone="no"?>
<!DOCTYPE svg PUBLIC "-//W3C//DTD SVG 20010904//EN"
 "http://www.w3.org/TR/2001/REC-SVG-20010904/DTD/svg10.dtd">
<svg version="1.0" xmlns="http://www.w3.org/2000/svg"
 width="128.000000pt" height="128.000000pt" viewBox="0 0 128.000000 128.000000"
 preserveAspectRatio="xMidYMid meet">
<metadata>
Created by potrace 1.16, written by Peter Selinger 2001-2019
</metadata>
<g transform="translate(0.000000,128.000000) scale(0.100000,-0.100000)"
fill="#000000" stroke="none">
<path d="M220 1280 c-44 0 -80 -3 -80 -7 0 -5 4 -13 8 -18 4 -6 19 -18 34 -28
15 -9 38 -17 50 -17 13 0 34 7 46 16 12 8 22 24 22 35 0 17 -7 19 -80 19z"/>
<path d="M605 1280 c-46 0 -55 -3 -55 -18 0 -10 14 -30 31 -45 30 -26 31 -30
24 -80 -4 -28 -9 -70 -13 -92 -3 -22 -5 -55 -5 -73 0 -33 -1 -33 -34 -27 -25
4 -44 1 -70 -15 -19 -11 -42 -19 -51 -18 -11 2 -17 -4 -17 -17 0 -18 7 -20 67
-20 36 0 69 -3 73 -6 3 -4 -1 -25 -10 -47 -12 -29 -26 -44 -48 -53 -18 -7 -48
-18 -67 -25 -19 -8 -38 -14 -42 -14 -3 0 -16 20 -28 45 -16 32 -19 49 -12 58
6 7 9 38 8 70 -2 31 -11 68 -20 82 -9 14 -23 25 -31 25 -8 0 -18 -12 -22 -27
-4 -16 -7 -68 -7 -118 0 -49 4 -112 8 -138 6 -39 12 -50 33 -58 16 -6 37 -6
57 0 17 5 55 15 84 21 29 7 56 9 59 6 4 -3 6 -22 5 -42 -1 -20 5 -48 13 -63 7
-15 10 -32 6 -39 -3 -6 -27 -25 -51 -41 -25 -17 -48 -31 -52 -31 -4 0 -24 -12
-45 -26 -21 -14 -55 -41 -75 -60 -27 -25 -38 -43 -38 -64 0 -16 5 -32 10 -35
6 -3 10 -26 10 -50 0 -31 -6 -50 -19 -62 -11 -10 -28 -45 -39 -78 -19 -54 -19
-62 -6 -83 12 -18 24 -22 65 -22 41 0 59 6 95 32 24 17 44 37 44 43 0 7 9 20
20 30 11 10 20 26 20 36 0 11 12 20 34 26 22 5 59 32 100 72 36 34 66 69 66
77 0 8 4 14 9 14 5 0 31 17 58 38 26 20 67 46 90 56 23 10 46 15 53 11 6 -4 8
-16 4 -27 -3 -12 -19 -43 -35 -70 -16 -27 -29 -58 -29 -68 0 -11 12 -33 28
-49 15 -17 71 -53 125 -81 54 -27 107 -50 118 -50 11 0 22 7 25 15 4 8 3 30 0
49 -6 31 -11 34 -87 60 -44 14 -84 24 -88 22 -3 -2 -21 8 -39 23 -33 27 -33
27 -12 54 12 15 46 43 76 62 30 19 54 41 54 48 0 7 -10 23 -22 34 -13 11 -37
28 -55 37 -18 9 -44 16 -58 16 -15 0 -55 -17 -88 -37 -34 -21 -76 -51 -93 -68
-17 -16 -68 -59 -114 -95 -47 -36 -111 -93 -144 -127 -32 -35 -72 -70 -89 -78
-17 -8 -38 -15 -49 -15 -10 0 -18 7 -18 18 0 9 8 29 18 43 9 14 34 42 55 61
23 22 37 45 37 59 0 14 -9 32 -20 41 -16 15 -18 22 -8 48 6 17 21 35 33 40 13
5 26 14 30 20 4 6 30 22 58 35 28 14 57 25 65 25 8 0 25 9 39 20 14 11 31 20
38 20 7 0 18 7 25 15 7 8 23 15 37 15 13 0 39 7 58 14 27 12 35 21 35 41 0 20
-8 29 -33 40 -28 12 -41 11 -90 -3 -53 -14 -59 -14 -74 0 -14 15 -14 20 2 62
14 37 23 46 49 51 17 4 41 13 54 21 13 8 51 17 85 20 34 2 70 7 79 10 10 3 18
13 18 23 0 9 -5 22 -11 28 -6 6 -8 20 -4 32 3 12 12 21 19 21 7 0 22 10 34 23
12 13 22 31 22 40 0 9 -15 27 -32 40 -18 14 -51 27 -74 31 -26 4 -47 1 -60 -8
-10 -7 -38 -14 -61 -14 -33 -1 -43 3 -48 18 -3 11 1 40 9 65 9 25 16 68 16 95
0 40 -4 50 -20 55 -11 3 -20 11 -20 16 0 5 -25 9 -55 9z m187 -301 c3 1 13 -2
22 -5 9 -3 16 -12 16 -19 0 -7 -13 -27 -29 -44 -16 -17 -37 -31 -47 -31 -9 0
-31 -11 -48 -24 -17 -13 -42 -27 -55 -31 -16 -5 -26 -3 -32 6 -4 7 -4 18 1 24
5 6 10 28 12 50 3 39 4 40 48 46 25 4 59 11 75 17 17 6 33 11 37 11z"/>
</g>
</svg>
