<?xml version="1.0" standalone="no"?>
<!DOCTYPE svg PUBLIC "-//W3C//DTD SVG 20010904//EN"
 "http://www.w3.org/TR/2001/REC-SVG-20010904/DTD/svg10.dtd">
<svg version="1.0" xmlns="http://www.w3.org/2000/svg"
 width="128.000000pt" height="128.000000pt" viewBox="0 0 128.000000 128.000000"
 preserveAspectRatio="xMidYMid meet">
<metadata>
Created by potrace 1.16, written by Peter Selinger 2001-2019
</metadata>
<g transform="translate(0.000000,128.000000) scale(0.100000,-0.100000)"
fill="#000000" stroke="none">
<path d="M700 1214 c-19 3 -45 1 -56 -4 -12 -5 -25 -14 -29 -20 -4 -6 -4 -19
0 -28 4 -9 9 -86 10 -170 2 -84 5 -156 8 -158 3 -3 2 -18 -3 -34 -4 -15 -3
-49 2 -76 5 -27 12 -67 14 -89 2 -22 6 -102 7 -178 2 -76 0 -140 -5 -143 -4
-3 -50 -6 -100 -7 -93 -2 -93 -2 -91 161 1 90 -2 174 -7 186 -4 13 -16 30 -25
39 -11 11 -33 17 -66 17 -28 0 -63 -7 -79 -15 -17 -9 -30 -21 -30 -28 0 -6 13
-23 30 -37 21 -17 35 -42 45 -80 12 -43 13 -60 3 -77 -9 -18 -9 -28 1 -46 9
-17 9 -30 2 -51 -6 -15 -11 -43 -11 -62 0 -20 -5 -44 -10 -55 -6 -10 -21 -19
-33 -19 -13 0 -36 -13 -51 -29 -23 -24 -33 -28 -76 -26 -26 2 -62 6 -79 10
-17 3 -40 4 -51 0 -12 -4 -20 -15 -20 -29 0 -13 10 -36 22 -51 20 -26 25 -27
86 -22 52 4 69 9 82 27 13 18 24 22 46 17 19 -3 36 1 53 14 13 10 32 19 42 19
10 0 20 4 23 9 3 4 40 11 82 15 49 4 84 12 95 22 10 9 62 23 121 33 68 12 138
16 207 14 66 -3 112 -9 124 -18 11 -7 25 -11 31 -9 7 3 20 -4 30 -15 12 -13
15 -27 11 -41 -4 -13 -25 -29 -51 -40 -24 -11 -47 -25 -49 -32 -3 -7 -6 -24
-7 -38 -2 -17 3 -25 15 -28 11 -2 29 5 40 16 12 11 34 23 50 26 15 3 37 8 50
11 13 2 29 16 35 30 9 20 19 25 48 25 20 0 49 8 65 17 23 14 29 24 29 51 0 26
-10 43 -48 82 -29 29 -53 46 -60 41 -6 -4 -53 -3 -103 2 -69 7 -97 6 -115 -3
-19 -10 -26 -11 -38 -1 -9 8 -36 12 -68 9 -53 -3 -53 -3 -62 92 -4 52 -8 120
-7 150 0 37 7 63 19 80 14 18 32 27 63 31 24 3 49 7 54 9 6 2 28 -4 50 -14 27
-12 52 -15 78 -12 21 4 51 18 67 33 17 14 30 34 30 43 0 9 -8 24 -17 32 -10 9
-32 23 -50 32 -18 9 -42 16 -54 16 -12 0 -37 -11 -55 -25 -18 -14 -45 -25 -59
-25 -18 0 -38 -12 -59 -35 -22 -24 -41 -35 -60 -35 -24 0 -26 2 -15 22 8 15
10 58 5 142 -4 89 -10 124 -22 137 -12 13 -14 27 -9 51 4 18 7 52 7 76 0 24
-3 47 -8 52 -5 5 -25 11 -44 14z m1 -534 c5 0 9 -9 9 -20 0 -11 -4 -20 -9 -20
-6 0 -13 5 -16 10 -3 6 -3 15 0 20 3 6 10 10 16 10z m-323 -172 c10 -2 17 -13
17 -27 0 -14 -5 -26 -12 -28 -6 -2 -17 5 -23 17 -6 11 -8 25 -5 31 4 5 14 9
23 7z"/>
<path d="M907 70 c-7 0 -19 -5 -27 -10 -13 -9 -13 -11 0 -20 8 -5 17 -10 20
-10 3 0 11 4 19 9 7 5 10 14 7 20 -4 6 -13 11 -19 11z"/>
</g>
</svg>
