<?xml version="1.0" standalone="no"?>
<!DOCTYPE svg PUBLIC "-//W3C//DTD SVG 20010904//EN"
 "http://www.w3.org/TR/2001/REC-SVG-20010904/DTD/svg10.dtd">
<svg version="1.0" xmlns="http://www.w3.org/2000/svg"
 width="128.000000pt" height="128.000000pt" viewBox="0 0 128.000000 128.000000"
 preserveAspectRatio="xMidYMid meet">
<metadata>
Created by potrace 1.16, written by Peter Selinger 2001-2019
</metadata>
<g transform="translate(0.000000,128.000000) scale(0.100000,-0.100000)"
fill="#000000" stroke="none">
<path d="M816 1260 c-28 0 -62 -7 -76 -14 -14 -8 -57 -31 -97 -51 -40 -20 -93
-50 -118 -66 -36 -23 -46 -35 -43 -52 3 -19 9 -22 44 -21 23 0 68 14 105 31
35 16 79 44 97 62 20 21 40 31 54 29 12 -2 23 -8 25 -14 2 -7 -3 -19 -12 -27
-8 -9 -15 -20 -15 -25 0 -5 -19 -27 -42 -48 -24 -22 -59 -50 -79 -62 -20 -12
-39 -31 -42 -42 -3 -11 1 -27 10 -35 8 -8 19 -15 24 -15 5 0 9 -8 9 -19 0 -10
-17 -29 -37 -43 -21 -14 -63 -50 -93 -79 -30 -30 -66 -59 -80 -65 -14 -6 -30
-9 -36 -7 -7 2 -8 21 -3 56 4 28 17 74 28 101 12 28 21 59 19 70 -2 14 -9 20
-21 18 -10 -2 -25 2 -32 8 -8 6 -16 24 -20 39 -3 15 -21 42 -39 60 -32 31 -33
32 -82 19 -27 -6 -55 -16 -61 -21 -7 -5 -13 -16 -13 -23 0 -7 19 -23 41 -35
23 -11 55 -35 70 -52 16 -17 29 -42 29 -55 0 -12 -6 -33 -14 -45 -8 -12 -13
-40 -11 -62 1 -22 8 -52 15 -67 8 -17 22 -28 38 -30 14 -2 27 -8 29 -15 3 -7
-14 -32 -36 -56 -23 -24 -44 -58 -47 -75 -4 -22 -1 -40 10 -57 9 -14 26 -25
38 -25 12 0 32 9 44 21 12 11 37 28 55 38 19 10 38 27 43 37 5 11 25 27 45 36
20 10 60 35 90 57 36 25 70 41 99 45 24 3 52 2 62 -4 9 -5 20 -19 23 -31 4
-16 -4 -31 -37 -60 -24 -22 -72 -60 -107 -84 -35 -25 -68 -45 -73 -45 -5 0
-27 -15 -50 -33 -23 -18 -59 -38 -81 -45 -22 -6 -57 -16 -78 -23 -29 -8 -49
-25 -83 -72 -24 -34 -43 -66 -41 -72 2 -5 19 -18 38 -27 19 -11 56 -18 86 -18
29 0 70 -6 90 -14 21 -8 90 -26 153 -40 63 -15 129 -33 145 -41 17 -7 48 -19
70 -26 22 -6 57 -20 77 -30 24 -12 59 -19 98 -19 57 0 60 1 60 24 0 15 -12 32
-32 48 -18 13 -61 38 -95 56 -46 24 -93 37 -190 52 -70 12 -156 28 -190 36
-34 7 -70 14 -81 14 -10 0 -27 6 -38 14 -19 14 -19 15 5 40 14 14 29 26 35 26
6 0 31 14 56 31 24 16 47 33 50 37 3 4 21 16 40 26 19 11 44 28 55 38 11 10
50 44 86 76 36 31 80 74 98 94 31 35 32 40 21 72 -6 20 -25 47 -41 61 -17 14
-41 28 -54 31 -15 4 -55 -10 -121 -40 -63 -29 -100 -41 -103 -34 -2 6 11 25
30 41 19 16 63 57 99 91 36 34 82 72 103 85 20 12 37 30 37 40 0 9 -5 22 -12
29 -7 7 -20 12 -30 12 -10 0 -18 7 -18 15 0 8 4 15 8 15 5 0 34 25 65 57 32
31 57 62 57 69 0 7 -5 26 -12 41 -6 15 -18 36 -26 46 -11 12 -30 17 -66 17z
m-270 -570 c9 0 14 -7 12 -17 -2 -9 -9 -18 -15 -21 -8 -2 -13 5 -13 17 0 12 6
21 16 21z"/>
</g>
</svg>
