<?xml version="1.0" standalone="no"?>
<!DOCTYPE svg PUBLIC "-//W3C//DTD SVG 20010904//EN"
 "http://www.w3.org/TR/2001/REC-SVG-20010904/DTD/svg10.dtd">
<svg version="1.0" xmlns="http://www.w3.org/2000/svg"
 width="128.000000pt" height="128.000000pt" viewBox="0 0 128.000000 128.000000"
 preserveAspectRatio="xMidYMid meet">
<metadata>
Created by potrace 1.16, written by Peter Selinger 2001-2019
</metadata>
<g transform="translate(0.000000,128.000000) scale(0.100000,-0.100000)"
fill="#000000" stroke="none">
<path d="M686 1280 c-8 0 -16 -5 -18 -10 -2 -6 -29 -14 -61 -17 -46 -5 -57 -9
-55 -22 2 -9 14 -18 28 -19 13 -2 58 -17 99 -34 43 -17 84 -27 97 -24 12 3 25
13 28 22 3 8 1 24 -4 34 -5 10 -30 26 -55 35 -25 10 -45 22 -45 26 0 5 -6 9
-14 9z"/>
<path d="M911 1120 c-9 -1 -27 -7 -41 -15 -14 -8 -47 -22 -75 -31 -27 -9 -61
-22 -75 -29 -14 -7 -81 -29 -150 -49 -69 -19 -150 -40 -180 -47 -30 -6 -65
-15 -77 -20 -13 -5 -23 -15 -23 -22 0 -7 5 -18 12 -25 7 -7 24 -12 40 -12 15
0 58 11 95 25 41 16 77 24 92 20 13 -3 30 0 40 8 9 7 31 20 50 27 30 12 35 12
47 -5 8 -10 14 -37 14 -59 0 -23 -4 -46 -8 -53 -4 -6 -26 -18 -49 -26 -23 -8
-47 -11 -54 -7 -8 5 -10 22 -6 49 4 30 2 41 -8 41 -7 0 -20 -21 -29 -47 -9
-26 -16 -77 -16 -113 0 -67 0 -67 -39 -78 -21 -7 -59 -12 -85 -12 -26 0 -56
-5 -67 -10 -10 -6 -19 -18 -19 -27 0 -13 9 -15 58 -10 31 4 69 10 85 13 24 6
27 3 27 -17 0 -13 -7 -46 -14 -74 -8 -27 -22 -70 -31 -95 -8 -25 -27 -67 -40
-95 -14 -27 -53 -84 -88 -125 -51 -61 -69 -76 -95 -78 -27 -3 -32 -7 -32 -29
0 -24 2 -25 48 -21 26 3 65 13 86 23 24 12 43 29 50 46 5 15 20 30 32 33 12 3
27 18 33 33 7 16 19 42 27 58 8 17 23 46 33 65 15 31 22 36 66 41 28 3 64 13
80 22 17 9 40 17 53 17 14 0 22 -6 22 -17 0 -9 -12 -32 -27 -52 -16 -20 -39
-58 -52 -86 -18 -37 -24 -66 -23 -109 1 -33 6 -72 12 -87 9 -20 25 -31 60 -43
27 -9 81 -16 121 -16 71 0 72 0 54 20 -12 13 -28 18 -53 17 -30 -2 -39 3 -59
32 -16 24 -23 48 -22 80 0 25 5 62 12 81 9 27 19 36 44 41 17 3 52 18 76 33
25 14 50 26 56 26 6 0 11 -9 11 -20 0 -10 -11 -29 -24 -42 -13 -13 -26 -34
-29 -48 -4 -13 -1 -43 4 -66 6 -24 18 -49 28 -57 9 -7 35 -19 57 -25 23 -7 53
-12 67 -12 14 0 39 12 56 26 17 14 31 32 31 40 0 7 -25 29 -55 49 -30 19 -55
39 -55 43 0 5 23 35 50 66 28 31 50 62 50 67 0 6 -5 19 -10 30 -9 15 -21 19
-63 19 -29 0 -72 -6 -97 -14 -25 -8 -81 -35 -124 -60 -44 -26 -83 -43 -88 -38
-4 4 1 25 12 47 11 21 24 53 30 70 6 18 22 37 36 44 14 6 42 11 62 11 20 1 57
11 82 23 25 12 46 29 48 38 2 9 -5 24 -14 34 -13 12 -27 15 -51 12 -23 -4 -36
-2 -39 7 -3 7 5 33 18 57 21 40 29 46 93 67 39 13 78 31 89 41 15 15 16 22 7
40 -9 16 -21 21 -51 21 -32 0 -48 -7 -80 -36 -22 -20 -47 -34 -57 -32 -13 3
-18 12 -16 33 1 17 -1 40 -3 53 -3 12 -19 31 -37 42 -17 11 -44 20 -58 20 -15
0 -31 6 -37 13 -6 6 -8 24 -5 39 3 15 12 33 20 40 9 7 48 15 88 19 42 3 88 14
111 26 28 14 40 27 42 46 3 22 -3 29 -34 42 -20 8 -44 15 -53 15z m-135 -350
c21 0 24 -5 24 -34 0 -18 -7 -39 -16 -46 -12 -11 -18 -11 -31 2 -11 11 -13 25
-8 47 5 24 12 31 31 31z m-148 -12 c25 -3 27 -7 27 -48 0 -45 0 -45 -42 -48
-41 -3 -43 -2 -43 25 0 16 7 39 16 51 11 16 24 22 42 20z m142 -100 c8 -2 15
-12 15 -23 0 -14 -8 -21 -27 -23 -19 -2 -28 1 -28 10 0 8 6 20 12 26 7 7 19
11 28 10z m-162 -30 c55 -3 57 -4 76 -43 11 -24 15 -44 10 -53 -5 -7 -45 -35
-89 -61 -44 -27 -83 -47 -87 -44 -5 2 -8 19 -7 36 0 18 6 57 12 87 7 30 16 61
20 68 6 9 27 12 65 10z"/>
</g>
</svg>
