<?xml version="1.0" standalone="no"?>
<!DOCTYPE svg PUBLIC "-//W3C//DTD SVG 20010904//EN"
 "http://www.w3.org/TR/2001/REC-SVG-20010904/DTD/svg10.dtd">
<svg version="1.0" xmlns="http://www.w3.org/2000/svg"
 width="128.000000pt" height="128.000000pt" viewBox="0 0 128.000000 128.000000"
 preserveAspectRatio="xMidYMid meet">
<metadata>
Created by potrace 1.16, written by Peter Selinger 2001-2019
</metadata>
<g transform="translate(0.000000,128.000000) scale(0.100000,-0.100000)"
fill="#000000" stroke="none">
<path d="M759 1260 c-10 0 -20 -3 -22 -7 -2 -5 -5 -44 -6 -88 0 -44 -4 -93 -7
-110 -3 -16 -13 -37 -21 -46 -10 -12 -25 -16 -52 -12 -27 4 -42 0 -55 -12 -16
-17 -16 -19 6 -42 18 -19 30 -24 55 -20 22 4 36 0 47 -12 9 -10 16 -32 16 -49
0 -21 -7 -35 -19 -42 -11 -5 -28 -10 -39 -10 -11 0 -25 -6 -31 -14 -9 -11 -6
-21 15 -45 14 -17 33 -31 43 -31 9 0 21 4 26 9 6 4 25 11 43 14 17 4 32 2 32
-2 0 -5 -8 -23 -17 -40 -10 -17 -21 -31 -25 -31 -5 0 -8 -7 -8 -15 0 -10 -10
-15 -30 -15 -28 0 -30 -2 -20 -21 9 -16 8 -26 -4 -44 -9 -14 -16 -31 -16 -40
0 -9 -25 -41 -56 -71 -31 -30 -69 -61 -85 -69 -15 -8 -44 -32 -63 -52 -20 -21
-36 -43 -36 -50 0 -6 5 -15 10 -18 6 -4 25 4 43 18 18 13 47 38 66 56 18 17
37 31 42 31 5 0 9 7 9 15 0 8 7 15 15 15 9 0 19 8 22 18 4 9 15 23 25 30 10 7
18 19 18 26 0 7 11 22 23 35 22 20 25 20 37 6 10 -12 14 -51 14 -133 1 -74 -4
-134 -13 -162 -8 -25 -19 -63 -26 -84 -9 -28 -10 -49 -2 -70 5 -17 9 -41 9
-53 0 -15 6 -23 17 -23 9 0 22 10 30 22 7 12 17 53 22 91 5 39 10 71 11 73 2
1 27 -3 56 -9 52 -11 52 -11 52 -69 0 -51 2 -58 19 -58 11 0 31 15 45 33 15
19 26 44 26 56 0 14 11 28 30 39 16 9 30 20 30 24 0 4 -11 15 -25 24 -19 12
-23 22 -19 40 3 13 7 43 9 66 2 24 7 71 11 105 3 35 13 68 20 74 8 6 14 25 14
41 0 21 -11 41 -35 65 -19 19 -35 39 -35 44 0 5 -5 9 -12 9 -7 0 -23 -11 -37
-23 -15 -13 -46 -31 -71 -40 -25 -10 -53 -17 -63 -17 -9 0 -17 -4 -17 -8 0 -5
11 -19 24 -31 14 -13 35 -24 48 -24 13 -1 35 2 51 6 27 7 27 7 27 -53 0 -59 0
-60 -32 -68 -19 -5 -40 -5 -50 -1 -9 5 -26 9 -36 9 -16 0 -22 9 -27 42 -4 24
-14 55 -21 70 -8 15 -14 38 -14 51 0 14 7 30 16 38 8 7 25 30 36 52 11 22 24
45 29 51 5 6 17 22 27 34 14 20 31 25 96 32 43 5 83 13 90 19 6 5 39 12 74 16
55 6 62 9 62 29 0 12 -5 27 -12 34 -7 7 -24 12 -38 12 -15 0 -30 -3 -34 -7 -3
-4 -30 -8 -59 -8 -28 -1 -61 -4 -72 -6 -15 -3 -19 1 -17 16 2 11 18 44 35 73
18 29 39 64 46 77 14 21 13 26 -13 60 -16 20 -35 39 -43 42 -9 4 -23 2 -32 -4
-9 -6 -16 -24 -17 -41 -1 -17 -7 -38 -14 -47 -9 -11 -22 -14 -45 -9 -19 3 -35
1 -39 -5 -4 -6 -14 -11 -23 -11 -13 0 -14 9 -8 58 4 31 11 65 16 74 7 13 4 26
-8 45 -9 16 -23 34 -32 41 -8 6 -23 12 -32 12z m29 -170 c2 -12 1 -24 -2 -27
-3 -3 -13 0 -22 8 -14 12 -14 14 3 27 16 11 18 11 21 -8z m77 -103 c49 -2 60
-5 59 -18 -1 -9 -18 -41 -38 -71 -19 -30 -46 -59 -59 -65 -14 -7 -30 -7 -39
-2 -13 7 -14 17 -6 56 5 27 6 58 3 70 -3 12 0 24 8 27 6 2 39 4 72 3z m2 -612
c27 -4 54 -8 62 -11 10 -3 12 -20 9 -70 -2 -36 -9 -69 -16 -73 -6 -3 -35 -4
-64 -1 -53 5 -53 5 -51 68 0 34 4 69 7 78 5 12 16 14 53 9z"/>
<path d="M260 1200 c-13 7 -21 7 -25 0 -4 -6 -13 -47 -21 -90 -11 -64 -22 -91
-56 -141 -29 -44 -43 -74 -44 -101 -1 -21 -8 -45 -14 -53 -7 -8 -10 -22 -6
-30 3 -8 11 -15 18 -15 7 0 19 4 27 9 7 5 14 23 15 40 1 18 6 35 11 39 6 4 23
34 40 67 16 33 38 72 47 87 10 14 18 33 18 42 0 8 9 20 19 25 13 8 22 7 29 -2
5 -6 12 -21 16 -33 4 -13 0 -30 -12 -45 -10 -13 -21 -31 -24 -39 -3 -8 -26
-41 -52 -72 -25 -31 -46 -62 -46 -67 0 -6 -6 -21 -12 -34 -7 -12 -26 -37 -41
-55 -20 -24 -26 -40 -21 -55 3 -12 18 -35 32 -50 20 -21 32 -26 53 -22 23 5
30 1 51 -37 14 -24 31 -65 37 -93 7 -27 17 -55 23 -62 6 -7 18 -13 28 -13 14
0 18 13 23 72 5 61 3 75 -14 100 -11 15 -34 35 -50 43 -16 9 -29 19 -29 24 0
5 21 27 48 50 26 24 64 58 85 77 20 19 44 34 51 34 8 0 25 -14 38 -30 13 -17
35 -45 50 -63 23 -27 29 -30 38 -17 5 8 10 42 10 76 0 53 -3 63 -28 87 -19 18
-39 27 -60 27 -20 0 -35 6 -38 15 -4 8 -26 20 -51 27 -25 6 -47 17 -50 24 -3
7 11 27 31 45 20 17 36 40 36 51 0 10 -4 27 -10 37 -5 10 -22 24 -39 30 -22
10 -34 10 -51 1 -12 -7 -26 -8 -30 -3 -4 4 -13 25 -20 46 -6 20 -20 42 -30 47z
m100 -305 c14 -4 40 -20 58 -38 17 -17 32 -34 32 -38 0 -4 -15 -11 -32 -14
-18 -4 -54 -18 -80 -31 -26 -13 -52 -33 -58 -44 -6 -11 -15 -20 -20 -20 -6 0
-10 13 -10 29 0 15 11 43 25 62 13 19 32 49 42 67 15 28 21 32 43 27z"/>
<path d="M428 694 c-15 3 -29 2 -32 -3 -3 -5 2 -23 10 -41 9 -18 20 -46 25
-64 4 -17 14 -49 22 -71 9 -23 27 -47 43 -57 15 -9 31 -15 35 -13 3 3 10 24
14 47 4 24 7 56 5 71 -1 16 -8 44 -16 63 -10 23 -26 40 -47 48 -18 7 -44 16
-59 20z"/>
<path d="M103 570 c-13 0 -26 -7 -30 -15 -3 -9 3 -25 12 -35 15 -17 17 -32 12
-95 -6 -76 -6 -76 38 -123 24 -26 54 -59 65 -75 12 -15 26 -25 31 -22 5 4 9
24 9 46 0 22 -10 62 -21 89 -12 27 -18 57 -15 66 4 9 0 26 -7 38 -8 12 -17 35
-21 51 -4 17 -17 40 -28 53 -12 12 -32 22 -45 22z"/>
</g>
</svg>
