<?xml version="1.0" standalone="no"?>
<!DOCTYPE svg PUBLIC "-//W3C//DTD SVG 20010904//EN"
 "http://www.w3.org/TR/2001/REC-SVG-20010904/DTD/svg10.dtd">
<svg version="1.0" xmlns="http://www.w3.org/2000/svg"
 width="128.000000pt" height="128.000000pt" viewBox="0 0 128.000000 128.000000"
 preserveAspectRatio="xMidYMid meet">
<metadata>
Created by potrace 1.16, written by Peter Selinger 2001-2019
</metadata>
<g transform="translate(0.000000,128.000000) scale(0.100000,-0.100000)"
fill="#000000" stroke="none">
<path d="M770 1279 c-8 0 -20 -6 -27 -13 -7 -8 -30 -17 -52 -21 -23 -4 -43
-11 -46 -16 -3 -4 11 -16 32 -26 26 -13 39 -27 45 -49 5 -19 3 -48 -5 -75 -13
-44 -13 -44 -81 -51 -38 -4 -73 -11 -78 -16 -6 -6 -6 -17 1 -30 6 -11 18 -22
27 -26 9 -3 33 -1 55 5 30 9 42 9 54 -1 8 -7 15 -23 15 -36 0 -13 -9 -33 -19
-43 -12 -12 -28 -17 -39 -14 -11 2 -23 0 -26 -6 -4 -6 -27 -11 -50 -11 -24 0
-57 -7 -72 -15 -16 -8 -39 -15 -52 -15 -13 0 -32 5 -44 11 -17 9 -19 19 -17
73 3 45 -2 74 -15 104 -14 30 -25 42 -40 42 -12 0 -34 -7 -50 -15 -15 -8 -37
-15 -47 -15 -10 0 -20 -4 -23 -9 -3 -5 5 -16 19 -25 14 -9 29 -33 35 -56 6
-22 11 -108 10 -192 0 -84 -2 -169 -5 -188 -2 -19 -9 -55 -14 -80 -6 -25 -18
-76 -27 -115 -9 -38 -19 -83 -21 -98 -5 -26 -3 -28 18 -25 16 2 25 11 27 27 2
13 12 37 21 55 10 17 25 32 33 34 11 2 25 -20 47 -75 17 -43 35 -85 40 -93 4
-8 17 -15 27 -15 12 0 25 14 37 39 11 22 21 53 24 70 4 29 -1 37 -76 100 -45
37 -81 72 -81 78 0 5 5 29 11 54 6 24 15 47 20 50 5 3 34 12 65 20 30 8 70 25
87 37 18 13 47 30 65 37 18 7 35 10 38 7 3 -3 7 -28 9 -55 3 -35 0 -52 -9 -55
-8 -3 -33 -1 -56 4 -27 6 -47 6 -53 0 -5 -5 -5 -17 2 -30 7 -11 23 -24 37 -27
13 -4 77 -3 142 1 64 5 128 9 142 10 14 0 39 2 57 3 17 1 46 14 63 29 32 27
32 27 10 45 -12 10 -32 18 -43 18 -11 0 -50 -9 -86 -21 -52 -17 -72 -19 -93
-10 -24 9 -28 16 -28 50 0 22 6 44 15 51 8 7 15 21 15 31 0 10 -14 34 -30 53
-20 23 -27 37 -19 41 6 4 32 9 57 11 26 2 58 5 72 7 21 2 26 -3 28 -27 2 -16
-4 -60 -14 -97 -10 -38 -15 -71 -12 -75 4 -3 11 -3 17 0 5 4 24 27 40 52 17
25 31 53 31 63 0 10 7 24 16 32 9 8 13 21 10 35 -4 13 -1 26 5 30 6 4 63 6
125 5 90 -1 114 1 114 12 0 7 -11 24 -24 36 -24 23 -28 23 -153 15 -70 -4
-146 -8 -168 -9 -38 0 -39 1 -41 33 -1 18 -4 36 -8 39 -3 3 -1 13 4 23 8 14
30 19 120 25 82 5 115 11 132 24 12 11 19 24 16 33 -4 8 -26 20 -50 26 -35 9
-55 8 -98 -4 -30 -8 -62 -16 -70 -17 -12 -2 -15 11 -15 63 0 44 -6 78 -20 107
-11 23 -27 42 -35 42z m-354 -551 c15 -2 32 -11 38 -21 9 -15 7 -22 -13 -38
-13 -10 -32 -19 -42 -19 -11 0 -22 6 -25 13 -3 8 0 26 6 41 8 22 15 27 36 24z"/>
<path d="M1178 1050 c-13 0 -31 -5 -41 -11 -9 -6 -15 -14 -12 -20 4 -5 16 -9
29 -9 12 0 27 5 34 12 7 7 12 16 12 20 0 4 -10 8 -22 8z"/>
<path d="M167 710 c-7 0 -20 -21 -29 -47 -9 -27 -26 -79 -37 -118 -11 -38 -21
-77 -22 -85 -1 -8 -1 -23 0 -32 1 -11 9 -18 20 -18 15 0 28 18 50 64 27 56 31
75 31 150 0 64 -3 86 -13 86z"/>
<path d="M877 429 c-18 -1 -61 -10 -97 -20 -49 -14 -89 -18 -163 -15 -79 3
-100 1 -104 -11 -3 -8 3 -24 15 -35 16 -17 34 -21 89 -22 37 -1 74 1 82 4 9 3
16 -3 19 -13 2 -12 -10 -30 -35 -52 -35 -31 -39 -32 -56 -17 -16 14 -19 14
-28 2 -5 -8 -7 -26 -4 -40 5 -20 -1 -31 -24 -48 -17 -12 -38 -22 -48 -22 -10
0 -30 -15 -45 -34 -16 -20 -41 -37 -60 -41 -18 -4 -50 -19 -72 -34 -40 -26
-40 -26 6 -29 35 -2 59 3 95 23 26 14 55 29 63 34 8 5 30 15 48 22 18 6 49 25
69 40 20 16 42 29 49 29 7 0 18 -9 24 -19 5 -11 10 -29 10 -41 0 -12 12 -34
28 -48 27 -27 29 -27 122 -21 52 3 136 16 185 28 50 12 102 24 118 27 15 4 27
13 27 21 0 8 -7 28 -16 46 -9 18 -24 41 -34 52 -10 11 -21 37 -24 58 -4 22
-13 37 -21 37 -8 0 -17 -6 -22 -12 -4 -7 -8 -24 -9 -38 0 -14 -2 -46 -2 -71
-2 -43 -4 -46 -44 -63 -33 -15 -45 -16 -60 -7 -11 7 -39 11 -63 10 -24 -2 -50
3 -59 10 -9 8 -16 19 -16 27 0 7 -9 18 -20 24 -12 6 -20 21 -20 35 0 17 23 46
80 101 44 43 80 81 80 85 0 4 -7 15 -16 23 -8 9 -30 16 -47 15z"/>
</g>
</svg>
