<?xml version="1.0" standalone="no"?>
<!DOCTYPE svg PUBLIC "-//W3C//DTD SVG 20010904//EN"
 "http://www.w3.org/TR/2001/REC-SVG-20010904/DTD/svg10.dtd">
<svg version="1.0" xmlns="http://www.w3.org/2000/svg"
 width="128.000000pt" height="128.000000pt" viewBox="0 0 128.000000 128.000000"
 preserveAspectRatio="xMidYMid meet">
<metadata>
Created by potrace 1.16, written by Peter Selinger 2001-2019
</metadata>
<g transform="translate(0.000000,128.000000) scale(0.100000,-0.100000)"
fill="#000000" stroke="none">
<path d="M637 1279 c-107 1 -108 1 -105 -21 2 -13 11 -24 23 -27 11 -2 54 -19
95 -38 41 -19 83 -44 92 -56 13 -16 18 -41 18 -94 0 -71 0 -71 -32 -82 -18 -5
-62 -13 -98 -17 -36 -4 -69 -10 -75 -14 -5 -3 -37 -13 -70 -20 -33 -7 -66 -18
-73 -24 -8 -5 -46 -11 -85 -12 -40 -2 -97 -6 -128 -10 -35 -4 -63 -2 -76 5
-16 8 -30 7 -57 -4 -20 -9 -36 -19 -36 -23 0 -5 10 -18 22 -29 13 -12 43 -24
68 -27 25 -4 65 -11 90 -17 35 -8 55 -6 89 6 24 8 55 15 70 15 14 0 40 7 56
16 17 9 73 27 125 40 52 13 121 27 152 30 56 7 58 6 69 -22 8 -22 8 -46 -2
-98 -7 -38 -23 -84 -36 -103 -13 -19 -23 -44 -23 -56 0 -12 -9 -41 -19 -63
-10 -23 -37 -56 -60 -74 -23 -18 -41 -39 -41 -47 0 -7 -4 -13 -9 -13 -4 0 -28
-26 -52 -57 -24 -32 -65 -78 -91 -104 -26 -26 -60 -50 -77 -54 -17 -4 -33 -10
-36 -15 -3 -5 -30 -23 -60 -40 -37 -21 -55 -38 -55 -51 0 -11 6 -22 14 -25 7
-3 38 6 69 20 31 15 62 26 69 26 7 0 42 19 78 43 37 23 79 52 94 65 16 12 34
22 41 22 7 0 29 -28 50 -62 23 -39 62 -83 101 -115 46 -38 72 -53 94 -53 17 0
47 11 68 24 20 13 47 34 59 47 11 13 48 68 82 121 34 54 61 102 61 107 0 5 4
11 10 13 5 2 17 29 25 61 8 32 15 94 15 139 0 80 0 80 -54 135 -55 54 -55 54
-114 52 -32 -1 -64 1 -70 5 -7 4 -12 23 -12 43 0 20 -5 51 -11 68 -7 18 -9 44
-5 58 4 17 16 29 39 36 19 7 69 11 111 10 72 -1 78 -3 86 -25 7 -18 17 -24 40
-24 19 0 40 9 55 25 14 13 25 33 25 45 0 11 -8 23 -17 26 -10 3 -42 15 -72 26
-48 19 -59 20 -101 9 -28 -7 -68 -9 -99 -5 -40 5 -56 13 -68 31 -13 19 -14 33
-6 67 8 34 6 53 -7 87 -14 35 -27 49 -66 71 -44 24 -60 26 -157 27z m235 -655
c5 -3 37 -8 70 -10 37 -2 68 -10 78 -19 10 -9 20 -28 24 -43 3 -15 -2 -58 -11
-97 -9 -38 -32 -104 -51 -145 -20 -41 -55 -105 -79 -143 -33 -49 -50 -67 -66
-67 -12 0 -38 11 -57 24 -19 13 -45 26 -57 30 -13 4 -23 14 -23 22 0 8 -13 23
-30 32 -16 9 -37 32 -47 49 -17 33 -17 33 30 81 26 26 47 55 47 64 0 10 6 21
14 25 7 4 28 33 47 63 18 30 43 69 56 85 13 17 28 36 34 43 5 7 15 10 21 6z"/>
</g>
</svg>
