<?xml version="1.0" standalone="no"?>
<!DOCTYPE svg PUBLIC "-//W3C//DTD SVG 20010904//EN"
 "http://www.w3.org/TR/2001/REC-SVG-20010904/DTD/svg10.dtd">
<svg version="1.0" xmlns="http://www.w3.org/2000/svg"
 width="128.000000pt" height="128.000000pt" viewBox="0 0 128.000000 128.000000"
 preserveAspectRatio="xMidYMid meet">
<metadata>
Created by potrace 1.16, written by Peter Selinger 2001-2019
</metadata>
<g transform="translate(0.000000,128.000000) scale(0.100000,-0.100000)"
fill="#000000" stroke="none">
<path d="M824 1251 c-14 12 -25 14 -42 8 -12 -5 -39 -9 -60 -10 -20 -1 -51
-10 -68 -21 -17 -10 -38 -18 -45 -18 -8 0 -53 -12 -101 -27 -52 -16 -88 -32
-88 -40 0 -7 9 -18 19 -25 10 -6 17 -17 14 -25 -3 -7 7 -17 24 -24 15 -6 36
-15 45 -20 10 -5 22 -9 27 -9 4 0 24 13 42 30 19 16 37 30 41 30 4 0 22 13 40
29 19 16 40 30 48 31 8 1 20 2 26 1 6 0 14 -22 17 -48 3 -27 1 -72 -5 -101 -7
-39 -6 -57 3 -68 9 -11 9 -17 0 -28 -8 -10 -10 -47 -6 -123 3 -59 9 -111 13
-115 4 -3 18 -8 32 -10 14 -1 25 -10 25 -17 0 -11 -13 -15 -42 -16 -23 -1 -45
-4 -49 -8 -4 -3 -1 -13 6 -22 8 -9 29 -15 57 -15 24 0 53 5 64 10 10 6 19 19
19 30 0 10 -4 21 -8 24 -5 3 -5 33 0 67 7 52 6 64 -8 74 -14 10 -15 14 -3 33
11 18 11 26 1 42 -9 15 -10 26 -2 40 5 10 10 46 10 80 0 45 -4 62 -15 67 -14
5 -14 8 -2 27 8 11 17 33 21 49 4 18 0 39 -13 65 -10 20 -27 44 -37 53z"/>
<path d="M580 785 c-30 5 -39 2 -60 -20 -23 -24 -23 -27 -8 -53 15 -25 15 -30
-6 -79 -12 -28 -35 -69 -52 -90 -17 -21 -34 -47 -38 -58 -3 -12 -19 -28 -35
-38 -17 -10 -33 -27 -37 -40 -3 -12 -24 -41 -45 -64 -22 -24 -39 -51 -39 -60
0 -10 -16 -28 -36 -41 -27 -18 -35 -28 -31 -44 4 -14 0 -22 -14 -25 -16 -5
-19 -12 -15 -53 2 -26 12 -62 21 -80 15 -29 20 -31 48 -26 17 3 40 15 52 26
11 10 31 39 44 63 13 24 22 51 19 58 -3 8 -6 19 -7 24 0 6 5 10 12 10 6 1 23
7 35 14 19 10 23 19 19 39 -3 15 -1 35 5 45 5 10 20 22 33 27 18 7 25 19 30
55 4 25 11 48 16 51 5 3 18 0 29 -6 11 -6 20 -16 20 -23 0 -7 15 -21 34 -31
18 -10 45 -36 60 -58 14 -22 26 -45 26 -52 0 -6 7 -22 16 -34 10 -14 26 -22
44 -22 16 0 31 4 34 9 3 5 34 9 68 9 35 -1 71 -5 81 -10 9 -5 17 -15 17 -22 0
-7 -11 -18 -25 -24 -14 -7 -32 -12 -40 -12 -7 0 -26 -17 -41 -38 -21 -29 -43
-44 -101 -66 -40 -16 -76 -33 -79 -37 -3 -5 22 -9 55 -9 49 0 65 4 85 24 15
13 26 28 26 34 0 6 15 8 38 5 30 -4 55 3 114 30 41 19 78 39 82 46 4 6 20 11
36 11 20 0 35 8 46 25 10 15 14 34 10 50 -5 18 -23 33 -73 56 -66 31 -66 31
-167 19 -55 -6 -108 -16 -117 -21 -12 -6 -21 -3 -33 10 -9 9 -16 24 -16 33 0
8 -9 26 -19 40 -11 13 -22 40 -26 61 -4 22 -16 42 -31 52 -13 8 -32 15 -43 15
-11 0 -24 8 -30 17 -7 13 -4 25 8 43 10 14 21 36 24 50 3 14 13 34 21 45 14
19 16 19 44 3 17 -10 35 -18 41 -18 6 0 11 11 11 25 0 18 -7 26 -25 31 -16 4
-25 13 -24 23 1 9 1 22 0 28 0 7 -14 19 -29 27 -15 8 -43 17 -62 21z"/>
</g>
</svg>
