<?xml version="1.0" standalone="no"?>
<!DOCTYPE svg PUBLIC "-//W3C//DTD SVG 20010904//EN"
 "http://www.w3.org/TR/2001/REC-SVG-20010904/DTD/svg10.dtd">
<svg version="1.0" xmlns="http://www.w3.org/2000/svg"
 width="128.000000pt" height="128.000000pt" viewBox="0 0 128.000000 128.000000"
 preserveAspectRatio="xMidYMid meet">
<metadata>
Created by potrace 1.16, written by Peter Selinger 2001-2019
</metadata>
<g transform="translate(0.000000,128.000000) scale(0.100000,-0.100000)"
fill="#000000" stroke="none">
<path d="M717 1260 c-14 0 -32 -8 -39 -17 -7 -10 -21 -22 -29 -28 -9 -5 -51
-37 -93 -69 -55 -42 -80 -56 -88 -48 -5 5 -16 21 -22 34 -7 15 -20 23 -36 23
-22 0 -26 -6 -33 -49 -6 -38 -5 -52 8 -66 8 -9 15 -26 15 -38 0 -11 12 -30 26
-41 15 -12 37 -21 51 -21 13 0 26 7 30 15 3 9 -2 24 -11 34 -9 10 -16 21 -16
25 0 4 22 5 49 1 43 -6 51 -4 60 14 6 11 11 28 11 38 0 12 12 22 36 29 32 10
39 9 62 -11 25 -21 26 -25 12 -49 -10 -21 -14 -71 -14 -204 -1 -177 -1 -177
-28 -180 -19 -2 -30 3 -38 17 -6 11 -20 26 -33 33 -12 6 -42 16 -67 20 -25 5
-57 11 -71 14 -15 3 -29 2 -33 -4 -3 -5 8 -27 24 -47 17 -21 30 -44 30 -53 0
-8 -22 -45 -49 -81 -28 -37 -59 -75 -71 -86 -12 -11 -36 -49 -53 -85 -18 -36
-38 -69 -44 -75 -7 -5 -40 -46 -73 -90 -39 -53 -60 -89 -60 -108 0 -15 6 -45
12 -68 13 -40 13 -40 63 -37 43 3 52 7 63 31 7 15 19 27 27 27 7 0 17 9 20 21
4 11 17 25 31 31 13 6 48 43 77 82 29 39 61 83 70 99 10 15 23 27 31 27 7 0
25 -17 39 -37 15 -21 36 -44 47 -51 11 -7 20 -21 20 -31 0 -11 13 -29 29 -41
24 -16 38 -19 70 -14 26 4 41 3 41 -4 0 -6 -38 -39 -85 -74 -85 -63 -85 -63
-15 -66 64 -3 74 0 115 28 24 17 73 39 109 50 36 12 68 25 71 30 4 6 28 22 55
35 27 14 56 25 64 25 8 0 24 12 35 26 11 15 19 30 16 33 -2 4 -32 15 -67 25
-35 9 -76 22 -93 28 -16 6 -45 11 -64 10 -19 0 -39 -6 -44 -11 -6 -6 -44 -11
-83 -11 -61 0 -75 3 -87 20 -7 10 -25 24 -40 29 -15 6 -27 15 -27 21 0 6 -14
29 -32 51 -27 34 -30 43 -20 59 7 11 12 25 12 32 1 7 14 29 30 48 17 19 30 40
30 47 0 7 6 13 14 13 8 0 18 -4 21 -10 3 -5 17 -10 30 -10 13 0 27 5 30 10 3
6 22 10 40 10 28 0 36 4 39 23 3 12 7 78 10 147 2 73 -2 181 -11 260 -8 74
-16 145 -18 156 -3 12 -18 36 -34 53 -18 19 -39 31 -54 31z"/>
<path d="M1064 677 c-5 2 -13 0 -17 -3 -4 -4 -7 -13 -7 -21 0 -7 9 -13 21 -13
14 0 19 5 17 17 -2 9 -8 18 -14 20z"/>
</g>
</svg>
