<?xml version="1.0" standalone="no"?>
<!DOCTYPE svg PUBLIC "-//W3C//DTD SVG 20010904//EN"
 "http://www.w3.org/TR/2001/REC-SVG-20010904/DTD/svg10.dtd">
<svg version="1.0" xmlns="http://www.w3.org/2000/svg"
 width="128.000000pt" height="128.000000pt" viewBox="0 0 128.000000 128.000000"
 preserveAspectRatio="xMidYMid meet">
<metadata>
Created by potrace 1.16, written by Peter Selinger 2001-2019
</metadata>
<g transform="translate(0.000000,128.000000) scale(0.100000,-0.100000)"
fill="#000000" stroke="none">
<path d="M711 1280 c-11 0 -22 -4 -25 -8 -3 -5 -31 -15 -63 -22 -32 -7 -62
-17 -67 -21 -4 -4 9 -16 30 -27 30 -15 44 -17 62 -9 18 8 26 7 40 -6 13 -14
17 -36 17 -111 0 -56 -5 -99 -12 -108 -8 -10 -9 -40 -3 -108 4 -52 11 -105 15
-116 5 -16 -2 -31 -25 -58 -28 -31 -38 -36 -76 -36 -24 0 -52 -5 -63 -11 -11
-7 -32 -9 -55 -5 -20 4 -40 14 -43 22 -3 8 0 35 7 59 13 45 13 45 64 45 28 0
69 5 90 10 21 4 42 14 47 21 4 7 5 18 2 26 -3 7 -16 13 -28 13 -13 0 -27 -5
-30 -11 -4 -6 -14 -8 -22 -5 -8 4 -33 2 -54 -4 -21 -6 -42 -17 -47 -26 -7 -12
-10 -13 -19 -2 -6 7 -12 20 -13 28 -1 8 -2 34 -1 57 1 32 8 48 29 68 15 14 42
33 60 42 29 14 35 14 65 0 18 -9 43 -14 55 -10 12 3 22 11 22 17 0 7 -11 23
-24 35 -19 18 -32 22 -58 18 -18 -3 -51 -10 -73 -16 -22 -5 -50 -13 -62 -16
-21 -7 -22 -4 -22 41 0 27 -1 66 -1 87 0 20 -5 37 -10 37 -5 0 -15 12 -22 27
-8 17 -25 30 -47 36 -25 6 -38 5 -47 -5 -11 -11 -11 -21 2 -58 9 -25 20 -70
25 -100 6 -30 11 -68 13 -85 2 -16 7 -55 11 -86 5 -40 4 -59 -5 -64 -8 -5 -11
-36 -8 -100 3 -86 1 -95 -19 -117 -13 -14 -23 -32 -23 -41 0 -10 7 -20 15 -23
8 -4 21 -2 28 4 6 5 50 11 97 12 47 1 107 2 134 1 27 0 51 -3 53 -5 2 -1 -5
-21 -14 -42 -10 -21 -27 -52 -38 -67 -11 -16 -39 -52 -62 -82 -24 -29 -43 -59
-43 -65 0 -6 -22 -35 -48 -63 -27 -29 -65 -74 -85 -101 -31 -41 -37 -57 -37
-97 0 -37 4 -49 15 -49 8 0 34 21 57 46 24 26 55 60 71 77 15 17 26 37 25 46
-2 11 7 16 30 17 18 1 36 5 39 8 4 3 16 -2 27 -13 12 -10 55 -33 96 -51 41
-17 82 -38 92 -47 12 -11 26 -13 45 -8 15 4 57 10 93 13 64 7 65 7 68 39 3 27
-2 35 -34 56 -20 14 -42 23 -50 20 -7 -3 -16 -13 -19 -23 -3 -11 -20 -20 -43
-24 -33 -5 -40 -3 -62 24 -14 16 -53 44 -85 61 -33 17 -64 38 -68 45 -4 8 -15
14 -23 14 -9 0 -14 6 -12 13 3 6 17 18 32 25 15 8 33 26 39 40 7 15 32 55 57
90 25 35 60 82 78 105 32 39 33 44 28 101 -4 34 -7 79 -7 101 0 22 2 63 4 90
2 28 9 68 15 90 7 22 12 59 12 82 0 23 5 53 11 67 9 19 8 34 -6 69 -12 31 -28
51 -56 68 -21 13 -39 27 -39 32 0 4 -9 7 -19 7z m-19 -666 c6 -4 6 -10 -1 -17
-6 -6 -13 -8 -17 -4 -3 3 -3 11 1 16 3 6 11 8 17 5z"/>
</g>
</svg>
