<?xml version="1.0" standalone="no"?>
<!DOCTYPE svg PUBLIC "-//W3C//DTD SVG 20010904//EN"
 "http://www.w3.org/TR/2001/REC-SVG-20010904/DTD/svg10.dtd">
<svg version="1.0" xmlns="http://www.w3.org/2000/svg"
 width="128.000000pt" height="128.000000pt" viewBox="0 0 128.000000 128.000000"
 preserveAspectRatio="xMidYMid meet">
<metadata>
Created by potrace 1.16, written by Peter Selinger 2001-2019
</metadata>
<g transform="translate(0.000000,128.000000) scale(0.100000,-0.100000)"
fill="#000000" stroke="none">
<path d="M645 1259 c0 0 -7 -3 -15 -7 -9 -4 -31 -19 -50 -33 -19 -15 -45 -30
-56 -33 -12 -4 -29 -15 -39 -26 -10 -11 -23 -20 -29 -20 -5 0 -25 -14 -43 -32
-33 -32 -33 -32 -55 -11 -15 16 -22 36 -24 74 -1 29 -9 58 -17 66 -13 14 -17
13 -28 -8 -7 -13 -13 -47 -12 -75 0 -27 6 -74 14 -103 9 -37 23 -61 46 -82 19
-16 41 -29 51 -29 9 1 42 9 72 20 34 11 65 31 81 49 14 17 33 31 42 31 9 0 32
14 51 30 32 28 36 29 43 13 5 -10 8 -63 7 -118 -1 -55 2 -127 8 -159 8 -53 8
-61 -9 -70 -10 -6 -33 -16 -52 -23 -19 -6 -39 -9 -45 -5 -6 3 -23 5 -38 4 -15
-1 -44 7 -65 18 -21 11 -45 20 -53 20 -9 0 -26 -7 -38 -16 -12 -8 -22 -23 -22
-34 0 -10 14 -31 30 -47 17 -15 30 -34 30 -42 0 -8 -16 -48 -36 -90 -20 -42
-48 -89 -61 -106 -13 -16 -28 -34 -34 -40 -6 -5 -30 -28 -53 -51 -22 -23 -47
-48 -53 -57 -7 -9 -13 -25 -13 -37 0 -11 -14 -51 -30 -88 -17 -36 -30 -78 -28
-92 3 -23 7 -25 47 -25 42 0 47 3 77 45 18 25 45 58 61 74 15 16 35 39 43 51
8 12 42 43 74 70 46 37 63 46 75 38 9 -5 25 -25 36 -43 11 -18 39 -52 63 -76
23 -24 42 -50 42 -58 0 -9 -15 -22 -34 -30 -18 -8 -36 -19 -40 -24 -4 -6 -27
-14 -53 -18 -26 -4 -63 -16 -82 -28 -36 -21 -36 -21 73 -24 102 -3 111 -1 147
23 21 14 44 25 51 25 7 0 45 16 83 35 67 34 75 35 180 36 74 1 119 6 138 16
15 8 37 28 47 46 11 18 20 42 20 53 0 12 -7 25 -16 28 -9 3 -26 6 -39 6 -13 0
-26 4 -30 9 -3 6 -26 24 -51 41 -32 21 -53 29 -66 24 -12 -3 -40 -24 -63 -45
-24 -22 -65 -51 -91 -64 -27 -14 -65 -28 -86 -31 -33 -6 -38 -4 -52 24 -9 17
-23 57 -31 88 -10 37 -26 69 -46 90 -17 18 -37 43 -43 56 -6 13 -22 24 -34 26
-20 3 -23 9 -21 45 1 23 -2 51 -6 62 -4 15 1 29 21 48 15 15 31 27 36 27 5 0
20 -11 34 -25 14 -14 39 -29 55 -32 16 -3 34 -14 40 -24 6 -13 20 -19 42 -19
18 0 40 6 49 13 10 8 19 34 23 63 3 27 2 90 -3 139 -5 54 -5 123 1 173 8 68 7
86 -6 105 -12 19 -13 26 -2 41 8 10 11 25 8 34 -3 10 -13 25 -20 34 -8 9 -12
21 -9 27 4 5 1 13 -6 18 -7 4 -35 16 -63 25 -27 10 -49 18 -50 17z"/>
</g>
</svg>
