<?xml version="1.0" standalone="no"?>
<!DOCTYPE svg PUBLIC "-//W3C//DTD SVG 20010904//EN"
 "http://www.w3.org/TR/2001/REC-SVG-20010904/DTD/svg10.dtd">
<svg version="1.0" xmlns="http://www.w3.org/2000/svg"
 width="128.000000pt" height="128.000000pt" viewBox="0 0 128.000000 128.000000"
 preserveAspectRatio="xMidYMid meet">
<metadata>
Created by potrace 1.16, written by Peter Selinger 2001-2019
</metadata>
<g transform="translate(0.000000,128.000000) scale(0.100000,-0.100000)"
fill="#000000" stroke="none">
<path d="M768 1259 c-24 -1 -53 -4 -64 -6 -12 -2 -32 -15 -45 -29 -12 -13 -30
-24 -40 -24 -9 0 -22 -7 -29 -15 -7 -8 -27 -19 -44 -23 -17 -5 -32 -16 -34
-25 -3 -12 3 -17 20 -17 13 0 36 7 52 15 15 8 36 15 45 15 9 0 32 19 52 42 36
41 36 41 71 20 25 -16 38 -32 42 -55 4 -17 9 -81 12 -142 2 -60 4 -114 4 -120
-1 -5 -3 -33 -6 -62 -5 -48 -9 -53 -50 -79 -24 -15 -44 -31 -44 -35 0 -4 -30
-27 -67 -52 -38 -24 -76 -47 -85 -50 -10 -3 -20 -18 -24 -32 -3 -14 -9 -25
-14 -25 -4 0 -15 9 -24 19 -17 19 -15 22 63 101 56 57 81 89 81 106 0 13 -10
30 -22 38 -13 8 -36 18 -53 22 -16 4 -42 14 -57 22 -21 12 -31 13 -39 5 -8 -8
-3 -23 20 -56 17 -25 31 -52 31 -59 0 -7 -16 -30 -35 -50 -20 -21 -41 -38 -49
-38 -8 0 -16 7 -19 15 -4 8 -4 36 -1 62 2 26 7 73 9 103 3 30 6 65 8 77 1 13
11 29 22 37 11 7 39 17 61 20 29 5 44 4 49 -5 5 -7 1 -16 -9 -21 -9 -5 -16
-13 -16 -19 0 -6 20 -8 50 -5 27 2 54 7 60 11 5 3 10 16 10 29 0 12 -13 34
-28 49 -15 15 -32 27 -36 27 -4 0 -24 -8 -44 -17 -21 -9 -45 -23 -54 -31 -14
-12 -20 -12 -33 -2 -8 7 -15 22 -15 34 0 12 -16 37 -35 56 -27 26 -38 31 -47
22 -9 -9 -9 -18 -1 -34 6 -13 13 -30 16 -38 3 -9 0 -43 -5 -75 -6 -33 -15 -66
-21 -73 -5 -7 -10 -65 -9 -131 0 -88 4 -126 16 -149 9 -17 16 -38 16 -47 0 -8
-11 -20 -25 -25 -14 -5 -25 -13 -25 -17 -1 -5 -2 -35 -5 -68 -2 -33 1 -65 7
-72 6 -8 16 -9 26 -4 10 5 29 14 45 20 15 6 27 17 27 26 0 8 9 15 20 15 11 0
20 4 20 9 0 5 8 11 18 13 9 3 23 3 30 1 6 -3 12 -11 12 -19 0 -8 -5 -14 -11
-14 -5 0 -28 -15 -51 -32 -22 -18 -62 -59 -89 -92 -42 -49 -48 -61 -37 -74 11
-13 10 -15 -12 -9 -18 5 -37 -2 -72 -24 -26 -17 -48 -37 -48 -44 0 -7 -13 -18
-29 -23 -25 -9 -29 -16 -36 -67 -3 -31 -4 -59 -2 -62 3 -2 20 -3 39 -1 33 3
33 3 11 22 -12 11 -20 23 -17 28 3 4 14 3 26 -3 11 -6 30 -8 43 -5 15 4 34 25
52 56 16 29 35 50 45 50 11 0 25 17 38 46 11 26 20 52 20 58 0 7 16 10 45 8
29 -3 45 -9 45 -17 0 -8 10 -26 22 -40 13 -14 41 -30 63 -36 22 -5 62 -11 88
-12 27 -2 56 2 65 9 12 9 21 9 30 1 10 -8 21 -6 42 7 24 14 33 15 50 4 16 -10
24 -10 40 0 17 10 24 9 46 -10 15 -14 35 -22 50 -20 16 2 24 -1 24 -12 0 -8 8
-17 18 -20 9 -2 38 -5 64 -5 32 0 48 4 52 14 3 9 3 29 0 45 -5 22 -17 34 -50
50 -40 20 -58 21 -226 19 -101 -1 -188 -6 -194 -11 -7 -5 -31 -4 -55 1 -30 7
-52 20 -70 43 -22 26 -25 36 -17 53 6 11 26 34 44 51 25 23 34 40 34 63 0 27
3 31 28 31 15 0 36 7 46 15 11 8 29 15 41 15 11 0 26 -9 33 -20 7 -11 19 -20
26 -20 8 0 17 -6 19 -12 3 -7 6 -4 6 7 1 11 8 31 18 44 13 19 14 27 4 43 -11
17 -9 24 10 44 18 19 20 27 11 36 -7 7 -12 18 -12 25 0 7 7 13 15 13 9 0 27 7
40 16 18 12 25 25 25 49 0 19 -8 39 -20 50 -11 10 -17 22 -14 26 3 5 -1 22 -9
38 -9 18 -11 34 -6 44 5 9 10 40 12 70 1 32 -4 65 -12 80 -11 20 -11 30 -2 41
7 9 9 29 5 57 -4 24 -17 55 -29 69 -12 14 -25 33 -28 43 -5 13 -17 17 -49 16z
m-48 -599 c5 0 12 -4 15 -10 3 -5 -3 -10 -15 -10 -12 0 -18 5 -15 10 3 6 10
10 15 10z m76 0 c8 0 14 -7 14 -15 0 -8 -5 -15 -10 -15 -6 0 -10 -6 -9 -12 1
-7 1 -27 0 -45 -1 -26 -4 -30 -21 -26 -11 3 -26 0 -34 -6 -11 -10 -18 -8 -34
9 -11 12 -32 24 -48 29 -15 4 -29 12 -31 18 -2 6 5 13 16 16 11 2 32 -2 48
-10 25 -13 31 -13 60 3 18 9 30 21 27 25 -3 5 -2 14 1 19 3 6 13 10 21 10z
m-201 -86 c8 -4 15 -12 15 -19 0 -7 -6 -15 -14 -18 -8 -3 -16 -18 -18 -34 -2
-22 -9 -29 -30 -31 -22 -3 -28 1 -28 17 0 10 3 26 6 35 3 9 12 16 20 16 7 0
18 9 24 20 6 11 16 17 25 14z"/>
</g>
</svg>
