<?xml version="1.0" standalone="no"?>
<!DOCTYPE svg PUBLIC "-//W3C//DTD SVG 20010904//EN"
 "http://www.w3.org/TR/2001/REC-SVG-20010904/DTD/svg10.dtd">
<svg version="1.0" xmlns="http://www.w3.org/2000/svg"
 width="128.000000pt" height="128.000000pt" viewBox="0 0 128.000000 128.000000"
 preserveAspectRatio="xMidYMid meet">
<metadata>
Created by potrace 1.16, written by Peter Selinger 2001-2019
</metadata>
<g transform="translate(0.000000,128.000000) scale(0.100000,-0.100000)"
fill="#000000" stroke="none">
<path d="M700 1276 c-3 1 -21 -7 -41 -19 -19 -12 -51 -31 -69 -42 -19 -11 -46
-32 -61 -47 -15 -16 -31 -28 -36 -28 -6 0 -18 9 -27 19 -10 11 -42 32 -73 46
-30 15 -57 25 -60 22 -3 -4 20 -33 51 -65 55 -58 56 -60 44 -93 -6 -19 -18
-44 -26 -57 -10 -15 -13 -37 -10 -67 4 -28 15 -56 32 -75 14 -17 29 -42 32
-56 3 -13 8 -24 9 -24 2 0 39 16 82 36 43 20 89 44 103 54 14 9 50 25 80 35
30 10 62 24 71 32 10 8 14 23 11 39 -3 16 -20 35 -45 51 -34 21 -38 28 -26 37
8 6 24 24 37 40 12 16 22 42 22 58 0 16 -5 38 -10 49 -6 10 -27 27 -48 36 -20
9 -39 18 -42 19z m-59 -92 c6 -4 8 -23 4 -48 -4 -22 -12 -46 -17 -53 -5 -6 -8
-37 -7 -68 3 -54 1 -58 -39 -97 -35 -35 -43 -40 -56 -29 -11 10 -16 31 -16 76
0 55 4 68 39 121 21 32 48 69 60 82 12 12 27 20 32 16z"/>
<path d="M661 813 c-10 2 -46 -7 -82 -21 -35 -13 -72 -28 -81 -33 -10 -5 -26
-9 -36 -9 -10 0 -22 3 -25 7 -4 3 -2 12 4 20 9 10 8 13 -4 13 -8 0 -28 -11
-43 -25 -16 -13 -45 -35 -64 -48 -31 -20 -35 -28 -35 -67 0 -41 2 -45 25 -48
15 -2 34 6 47 18 12 11 32 20 43 20 12 0 31 5 42 11 13 7 24 7 30 1 6 -6 -3
-24 -24 -50 -18 -22 -59 -71 -90 -108 -45 -52 -58 -75 -58 -100 0 -18 5 -36
11 -39 5 -4 15 7 22 24 6 17 15 31 20 31 4 0 10 -7 13 -15 4 -8 15 -15 25 -15
10 0 24 9 31 20 7 11 20 20 30 20 9 0 19 -4 22 -8 3 -5 -4 -16 -15 -25 -11
-10 -17 -22 -14 -27 3 -5 1 -20 -6 -32 -7 -12 -11 -42 -10 -65 0 -24 -3 -43
-8 -43 -5 0 -12 -7 -15 -16 -4 -9 -2 -22 3 -28 6 -7 6 -17 1 -26 -6 -8 -10
-21 -10 -27 0 -7 10 -23 23 -35 12 -13 27 -32 32 -43 6 -11 22 -25 35 -33 16
-8 42 -10 70 -7 25 3 112 10 194 15 119 8 153 13 168 27 11 10 26 30 34 45 8
15 14 45 14 68 0 28 -12 64 -37 113 -21 39 -40 83 -43 97 -3 17 -13 26 -29 28
-21 3 -23 1 -17 -20 4 -12 11 -41 16 -63 4 -22 11 -54 15 -72 7 -30 5 -33 -35
-53 -23 -12 -76 -28 -118 -37 -43 -8 -105 -17 -140 -20 -35 -3 -70 -2 -78 1
-12 5 -12 10 0 43 8 21 26 76 40 123 14 47 35 100 46 118 11 18 20 41 20 51 0
10 -10 29 -23 42 -12 13 -33 32 -47 41 -25 17 -25 17 10 48 19 17 58 49 87 71
28 22 56 54 62 70 8 25 7 32 -10 48 -12 11 -29 21 -38 24z m-191 -73 c5 0 11
-4 15 -9 3 -5 1 -12 -5 -16 -5 -3 -15 -3 -20 0 -6 4 -8 11 -5 16 4 5 10 9 15
9z m45 -120 c8 0 15 -4 15 -10 0 -5 -7 -10 -15 -10 -8 0 -15 5 -15 10 0 6 7
10 15 10z m-18 -112 c9 -2 18 -9 21 -15 2 -7 -3 -13 -11 -13 -8 0 -18 7 -21
16 -4 11 -1 14 11 12z m-33 -18 c8 0 16 -6 19 -14 3 -8 3 -17 0 -20 -4 -3 -12
-6 -20 -6 -7 0 -13 9 -13 20 0 11 6 20 14 20z m372 -360 c6 0 14 -11 16 -24 3
-16 0 -27 -9 -31 -8 -3 -19 -3 -24 1 -5 3 -9 13 -9 23 0 10 3 21 7 24 3 4 12
7 19 7z"/>
</g>
</svg>
