<?xml version="1.0" standalone="no"?>
<!DOCTYPE svg PUBLIC "-//W3C//DTD SVG 20010904//EN"
 "http://www.w3.org/TR/2001/REC-SVG-20010904/DTD/svg10.dtd">
<svg version="1.0" xmlns="http://www.w3.org/2000/svg"
 width="128.000000pt" height="128.000000pt" viewBox="0 0 128.000000 128.000000"
 preserveAspectRatio="xMidYMid meet">
<metadata>
Created by potrace 1.16, written by Peter Selinger 2001-2019
</metadata>
<g transform="translate(0.000000,128.000000) scale(0.100000,-0.100000)"
fill="#000000" stroke="none">
<path d="M680 1254 c-9 4 -38 -10 -70 -32 -30 -21 -55 -45 -55 -53 0 -9 9 -13
25 -12 14 1 49 5 78 9 35 4 52 3 52 -5 0 -6 -7 -29 -16 -51 -13 -31 -14 -44
-5 -53 6 -6 11 -15 11 -19 0 -4 -11 -8 -24 -8 -13 0 -31 -3 -40 -6 -9 -3 -16
-14 -16 -24 0 -10 8 -32 18 -50 17 -31 17 -31 -7 -51 -14 -11 -38 -19 -60 -19
-20 0 -43 -6 -50 -12 -10 -11 -11 -7 -5 17 4 17 8 52 8 80 1 45 -2 51 -29 65
-30 15 -30 15 -4 18 15 2 34 11 44 22 15 17 15 19 -4 25 -15 5 -22 18 -27 54
-5 40 -11 50 -38 65 -29 15 -41 16 -100 5 -56 -9 -69 -15 -79 -36 -8 -19 -8
-26 2 -33 7 -4 44 -11 81 -14 37 -4 76 -13 85 -20 18 -13 17 -14 -2 -42 -14
-20 -23 -52 -27 -99 -3 -39 -6 -77 -7 -85 0 -8 1 -37 3 -64 3 -50 3 -50 -71
-52 -47 -2 -77 -8 -82 -16 -5 -7 -2 -19 5 -28 7 -8 16 -23 19 -32 4 -11 17
-18 32 -18 14 0 25 4 25 9 0 5 15 19 34 30 18 12 49 21 68 21 19 0 38 4 43 9
6 5 35 23 67 40 31 17 66 31 78 31 12 0 28 7 36 15 9 8 24 15 35 15 11 0 33 7
48 15 16 8 31 12 34 8 3 -3 18 -3 32 1 14 4 25 13 25 21 0 8 -4 15 -10 15 -5
0 -22 14 -37 30 -14 17 -34 30 -43 30 -9 0 -21 5 -28 12 -8 8 -6 17 9 37 11
14 30 28 42 31 11 3 22 11 25 18 2 7 -9 15 -26 18 -27 5 -29 9 -28 45 1 36 3
39 31 39 16 0 36 4 43 9 8 5 12 17 10 27 -2 13 -13 19 -33 20 -17 1 -48 6 -70
12 -22 5 -47 12 -55 16z"/>
<path d="M813 1148 c-18 3 -21 0 -17 -13 4 -9 13 -15 21 -13 8 2 15 8 16 13 1
6 -8 11 -20 13z"/>
<path d="M909 860 c-9 0 -24 -9 -35 -21 -10 -11 -26 -18 -36 -16 -10 3 -21 1
-24 -4 -3 -5 -16 -9 -28 -9 -13 0 -29 -7 -36 -15 -7 -8 -22 -15 -35 -15 -12 0
-47 -9 -77 -19 -31 -11 -67 -25 -80 -32 -12 -8 -39 -19 -58 -26 -19 -7 -45
-13 -57 -13 -13 0 -23 -4 -23 -9 0 -4 -23 -18 -51 -30 -29 -11 -58 -21 -65
-21 -8 0 -23 -5 -34 -12 -10 -7 -22 -9 -26 -5 -4 4 -2 18 5 31 7 12 11 34 9
47 -2 19 -10 25 -34 27 -19 2 -36 -3 -44 -12 -10 -13 -10 -19 1 -32 11 -14 10
-18 -6 -30 -10 -8 -22 -14 -27 -14 -4 0 -8 -9 -8 -21 0 -11 -9 -32 -20 -46
-11 -14 -20 -32 -20 -39 0 -8 6 -14 13 -14 6 0 30 6 52 14 22 7 71 14 109 15
38 1 77 6 85 10 9 4 35 6 58 5 23 -1 47 -6 55 -10 7 -5 31 -10 53 -10 22 -1
59 5 83 13 23 9 42 22 42 29 0 7 9 16 20 19 11 3 20 10 20 14 0 4 8 18 19 29
11 14 30 22 50 22 24 0 34 6 40 24 8 19 21 25 73 36 34 6 75 18 91 26 22 12
27 20 21 37 -3 12 -14 31 -23 42 -9 11 -20 23 -26 27 -5 4 -17 8 -26 8z m-169
-110 c17 0 30 -4 30 -9 0 -5 -7 -14 -15 -21 -8 -7 -22 -10 -30 -6 -8 3 -15 12
-15 21 0 10 10 15 30 15z m-90 -30 c4 0 10 -3 13 -7 4 -3 2 -12 -4 -20 -6 -7
-21 -13 -32 -13 -19 0 -20 1 -2 20 10 11 21 20 25 20z m-130 -120 c10 -6 25
-7 33 -4 8 3 18 1 22 -5 4 -7 -11 -11 -46 -11 -44 0 -50 2 -39 15 9 11 17 12
30 5z"/>
<path d="M439 500 c-9 0 -35 -15 -58 -32 -22 -18 -50 -40 -62 -49 -19 -13 -20
-18 -10 -37 6 -11 26 -28 44 -36 17 -8 42 -17 55 -21 12 -3 22 -13 22 -21 0
-8 -9 -14 -19 -14 -11 0 -26 -3 -35 -6 -9 -4 -16 -18 -16 -34 0 -23 -5 -30
-30 -35 -22 -5 -32 -14 -36 -33 -3 -15 -10 -38 -15 -51 -6 -15 -6 -35 2 -60 7
-20 13 -41 15 -47 1 -6 35 -14 75 -17 43 -4 78 -2 83 3 7 7 6 14 -2 22 -7 7
-12 20 -12 30 0 10 -8 21 -17 24 -10 4 -33 13 -50 21 -18 7 -33 18 -33 23 0 6
15 10 34 10 18 0 39 6 45 14 6 8 11 18 9 22 -1 5 6 24 15 42 13 24 24 32 46
32 15 0 42 5 60 11 17 6 31 17 31 25 0 7 -9 18 -21 24 -11 7 -18 15 -14 18 4
4 23 7 43 7 25 0 37 5 37 14 0 8 -7 17 -15 21 -8 4 -25 12 -38 19 -12 6 -33 9
-46 5 -18 -4 -33 2 -57 24 -32 29 -33 31 -16 49 9 11 14 23 10 26 -3 4 -14 7
-24 7z"/>
<path d="M940 360 c-22 0 -30 -5 -30 -17 0 -10 7 -27 15 -37 8 -11 15 -27 15
-37 0 -9 7 -22 15 -29 8 -7 15 -19 15 -26 0 -8 -16 -22 -35 -31 -22 -10 -35
-23 -33 -32 2 -9 12 -17 23 -19 11 -2 26 -9 33 -14 6 -6 12 -17 12 -25 0 -11
-6 -13 -22 -8 -13 3 -36 10 -53 14 -20 4 -26 9 -17 15 7 4 10 12 7 17 -4 5
-15 9 -26 9 -10 0 -19 -7 -19 -15 0 -8 5 -15 11 -15 5 0 7 -5 4 -10 -4 -7 -17
-4 -35 7 -24 14 -33 15 -52 5 -13 -7 -52 -13 -88 -14 -38 -1 -72 -7 -81 -15
-12 -10 -28 -11 -72 -2 -32 5 -62 7 -67 4 -6 -3 -10 -13 -10 -21 0 -8 6 -14
14 -14 7 0 20 -7 27 -16 11 -13 26 -15 80 -10 54 5 68 3 73 -9 3 -9 18 -15 35
-15 24 0 28 4 24 19 -3 10 0 21 5 25 5 3 29 -1 52 -9 30 -11 47 -12 61 -5 11
6 66 9 125 8 106 -3 106 -3 133 29 15 18 33 33 39 33 6 0 14 17 17 38 4 20 11
48 16 61 8 19 6 28 -6 40 -9 9 -30 16 -48 16 -27 0 -32 4 -32 25 0 20 -7 26
-38 33 -20 5 -42 18 -48 28 -6 12 -20 19 -39 19z"/>
</g>
</svg>
