<?xml version="1.0" standalone="no"?>
<!DOCTYPE svg PUBLIC "-//W3C//DTD SVG 20010904//EN"
 "http://www.w3.org/TR/2001/REC-SVG-20010904/DTD/svg10.dtd">
<svg version="1.0" xmlns="http://www.w3.org/2000/svg"
 width="128.000000pt" height="128.000000pt" viewBox="0 0 128.000000 128.000000"
 preserveAspectRatio="xMidYMid meet">
<metadata>
Created by potrace 1.16, written by Peter Selinger 2001-2019
</metadata>
<g transform="translate(0.000000,128.000000) scale(0.100000,-0.100000)"
fill="#000000" stroke="none">
<path d="M693 1210 c-21 0 -47 -6 -58 -13 -11 -7 -36 -20 -55 -27 -19 -7 -47
-22 -62 -32 -14 -10 -39 -18 -55 -18 -17 0 -33 -8 -41 -20 -10 -17 -10 -21 2
-26 8 -3 20 -3 26 1 7 4 37 14 68 21 31 8 81 21 111 28 30 8 60 12 67 9 7 -2
11 -10 8 -17 -3 -7 -6 -41 -9 -77 -2 -35 -6 -102 -10 -149 -3 -47 -8 -95 -11
-106 -2 -14 -14 -24 -31 -29 -16 -3 -45 -20 -66 -36 -20 -17 -63 -41 -94 -55
-36 -16 -59 -22 -66 -15 -5 5 -7 25 -3 45 4 21 16 42 29 51 12 8 42 17 67 21
25 4 57 14 73 23 15 8 27 21 27 28 0 8 -6 16 -13 19 -8 3 -38 1 -68 -5 -30 -5
-69 -15 -86 -22 -29 -12 -35 -11 -49 3 -9 9 -19 37 -21 62 -3 25 -3 46 1 46 3
0 15 -5 25 -11 13 -9 37 -9 88 -1 39 5 91 19 117 30 33 15 46 27 46 41 0 11
-11 28 -26 37 -24 16 -26 16 -52 -3 -15 -11 -45 -29 -67 -40 -22 -11 -57 -23
-77 -27 -28 -5 -38 -3 -39 6 0 7 -3 27 -5 43 -3 17 -10 35 -15 40 -7 7 -15 4
-23 -8 -8 -9 -16 -40 -20 -68 -4 -27 -4 -54 -1 -60 4 -5 2 -15 -3 -22 -5 -7
-12 -26 -15 -44 -4 -19 1 -52 14 -88 11 -32 22 -78 25 -104 4 -40 1 -50 -23
-79 -17 -20 -49 -39 -80 -50 -29 -10 -61 -26 -71 -35 -10 -9 -32 -17 -49 -17
-16 0 -44 -7 -62 -16 -18 -9 -35 -23 -38 -30 -3 -8 0 -21 7 -29 7 -8 21 -15
32 -15 10 0 30 7 44 17 14 9 40 24 57 33 18 10 56 30 85 44 28 15 57 36 62 47
6 10 17 19 25 19 7 0 17 -5 21 -11 3 -6 -2 -29 -12 -52 -10 -23 -42 -71 -71
-107 -29 -36 -73 -85 -98 -110 -25 -25 -45 -48 -45 -52 0 -4 11 -10 25 -14 16
-4 36 1 59 15 18 12 50 41 70 66 20 24 46 66 58 92 12 26 29 54 40 61 10 7 24
25 32 40 7 15 17 47 21 72 4 25 13 48 19 52 6 4 19 8 28 8 10 0 27 9 39 21 12
12 25 17 29 12 4 -4 11 -65 14 -134 6 -107 4 -128 -8 -132 -9 -4 -35 2 -58 12
-24 10 -55 21 -70 25 -23 5 -28 3 -28 -14 0 -14 15 -27 53 -46 28 -14 59 -32
67 -39 8 -8 42 -28 76 -47 33 -18 92 -59 130 -91 38 -32 86 -68 108 -79 37
-19 45 -19 180 -8 122 10 146 15 177 36 20 14 49 39 64 56 20 23 24 33 15 42
-6 6 -32 12 -58 13 -26 2 -60 3 -77 3 -16 0 -88 -1 -160 -3 -94 -2 -136 1
-152 10 -12 7 -47 22 -78 34 -31 11 -67 31 -80 42 -23 20 -24 25 -14 69 7 32
7 53 0 66 -7 14 -5 26 9 50 19 31 20 32 79 26 54 -6 63 -4 103 23 23 16 52 32
62 36 17 7 15 12 -23 48 -42 41 -42 41 -64 21 -12 -12 -44 -33 -70 -46 -34
-18 -49 -22 -52 -13 -2 6 -5 31 -8 53 -3 23 -2 46 2 51 3 5 24 20 46 33 22 14
61 35 87 47 27 12 49 30 53 43 5 15 1 26 -12 35 -10 8 -25 15 -34 15 -9 0 -24
-9 -34 -20 -10 -11 -24 -20 -32 -20 -7 0 -13 8 -13 17 0 9 7 54 16 101 8 46
22 102 30 124 8 22 14 47 14 54 0 8 -17 32 -39 54 -32 33 -45 40 -78 40z"/>
<path d="M361 103 c-9 2 -27 0 -39 -4 -13 -5 -22 -17 -22 -29 0 -17 6 -20 38
-20 21 0 41 3 44 6 3 3 4 13 1 24 -3 10 -12 20 -22 23z"/>
</g>
</svg>
