<?xml version="1.0" standalone="no"?>
<!DOCTYPE svg PUBLIC "-//W3C//DTD SVG 20010904//EN"
 "http://www.w3.org/TR/2001/REC-SVG-20010904/DTD/svg10.dtd">
<svg version="1.0" xmlns="http://www.w3.org/2000/svg"
 width="128.000000pt" height="128.000000pt" viewBox="0 0 128.000000 128.000000"
 preserveAspectRatio="xMidYMid meet">
<metadata>
Created by potrace 1.16, written by Peter Selinger 2001-2019
</metadata>
<g transform="translate(0.000000,128.000000) scale(0.100000,-0.100000)"
fill="#000000" stroke="none">
<path d="M949 1280 c-80 0 -80 0 -77 -27 2 -17 14 -33 33 -44 17 -10 39 -18
50 -18 11 -1 33 10 48 24 15 14 27 35 27 45 0 18 -7 20 -81 20z"/>
<path d="M685 1250 c-16 -1 -41 -7 -55 -15 -14 -8 -38 -14 -53 -15 -15 0 -43
-7 -62 -14 -19 -8 -35 -19 -35 -23 0 -5 5 -14 12 -21 7 -7 25 -12 40 -12 18 0
28 -5 28 -14 0 -8 -14 -18 -32 -21 -18 -4 -44 -12 -58 -17 -24 -9 -24 -9 4
-32 28 -22 28 -23 12 -48 -9 -14 -14 -32 -11 -40 4 -9 22 -24 41 -34 19 -10
34 -22 34 -25 0 -4 -3 -15 -6 -24 -4 -9 -23 -27 -42 -40 -27 -18 -39 -22 -49
-13 -7 6 -13 25 -13 44 0 18 -4 55 -9 81 -5 26 -15 75 -21 108 -7 34 -20 72
-30 84 -10 15 -22 21 -29 16 -8 -4 -10 -17 -6 -34 4 -14 9 -71 11 -126 2 -55
11 -129 18 -165 9 -40 10 -69 5 -76 -5 -7 -31 -21 -58 -33 -33 -14 -52 -29
-60 -49 -6 -15 -13 -41 -14 -57 -2 -27 1 -30 32 -33 25 -3 45 4 75 26 23 17
82 48 133 71 50 23 102 41 116 41 14 0 29 -5 33 -11 4 -7 -4 -20 -17 -30 -13
-10 -57 -34 -96 -54 -40 -20 -95 -57 -123 -83 -46 -42 -51 -51 -52 -90 0 -23
5 -49 12 -57 7 -8 18 -15 25 -15 7 0 28 7 46 15 19 9 48 24 64 35 17 10 47 24
67 30 27 8 44 8 58 0 11 -6 20 -20 20 -31 0 -11 -13 -34 -29 -50 -16 -16 -33
-29 -37 -29 -4 0 -18 -9 -30 -21 -12 -11 -52 -32 -89 -45 -36 -13 -75 -24 -86
-24 -12 0 -41 -23 -69 -52 -27 -29 -49 -62 -50 -73 0 -11 10 -27 22 -34 13 -8
65 -18 117 -22 52 -5 119 -13 150 -20 31 -6 83 -17 117 -25 33 -8 88 -14 122
-14 33 0 74 -5 89 -11 15 -6 37 -16 49 -21 11 -5 38 -8 59 -6 33 2 41 8 49 30
8 23 6 32 -15 54 -13 14 -32 30 -42 35 -10 6 -32 12 -50 14 -18 3 -66 9 -108
14 -42 6 -111 20 -155 32 -43 12 -94 24 -112 27 -24 3 -32 9 -30 21 2 9 18 23
35 31 17 8 40 23 50 33 10 9 37 32 60 51 24 19 48 36 53 38 6 2 15 23 21 47 8
37 6 48 -11 76 -12 19 -35 41 -52 50 -17 8 -48 15 -69 15 -21 0 -41 5 -44 10
-4 6 -1 17 5 25 7 8 68 42 136 76 106 53 124 65 124 86 0 12 -9 32 -20 43 -11
11 -33 20 -50 20 -18 0 -33 6 -36 15 -3 8 4 28 15 44 12 16 30 58 40 93 11 34
23 90 27 124 4 40 2 69 -6 83 -6 12 -26 31 -43 41 -18 11 -45 20 -62 20z m10
-82 c5 -5 5 -20 -2 -41 -7 -17 -15 -60 -19 -94 -3 -35 -12 -70 -19 -80 -12
-16 -15 -16 -50 2 -20 11 -41 26 -48 33 -8 10 -8 19 2 34 7 11 13 45 13 74 0
30 6 58 12 61 6 4 31 10 56 13 25 3 49 2 55 -2z m-55 -313 c30 -2 56 -4 58 -4
2 -1 -1 -8 -6 -17 -5 -9 -40 -27 -77 -40 -38 -13 -74 -24 -81 -24 -8 0 -44
-14 -80 -31 -41 -18 -71 -26 -76 -21 -6 6 3 20 22 36 17 14 38 26 45 26 7 0
26 11 42 24 16 13 44 31 63 39 21 9 57 14 90 12z"/>
</g>
</svg>
