<?xml version="1.0" standalone="no"?>
<!DOCTYPE svg PUBLIC "-//W3C//DTD SVG 20010904//EN"
 "http://www.w3.org/TR/2001/REC-SVG-20010904/DTD/svg10.dtd">
<svg version="1.0" xmlns="http://www.w3.org/2000/svg"
 width="128.000000pt" height="128.000000pt" viewBox="0 0 128.000000 128.000000"
 preserveAspectRatio="xMidYMid meet">
<metadata>
Created by potrace 1.16, written by Peter Selinger 2001-2019
</metadata>
<g transform="translate(0.000000,128.000000) scale(0.100000,-0.100000)"
fill="#000000" stroke="none">
<path d="M950 1260 c-16 0 -31 -4 -34 -9 -3 -5 -47 -29 -98 -54 -51 -24 -115
-52 -143 -60 -27 -9 -66 -18 -86 -21 -27 -5 -43 -17 -71 -54 -20 -26 -44 -64
-54 -85 -11 -22 -24 -37 -33 -35 -8 2 -18 16 -23 33 -4 16 -15 35 -24 42 -13
9 -26 8 -65 -8 -28 -10 -58 -19 -68 -19 -10 0 -24 -7 -31 -15 -7 -9 -29 -15
-52 -15 -24 0 -41 -5 -44 -14 -3 -7 3 -31 13 -52 12 -26 26 -40 41 -42 16 -3
40 14 88 59 54 53 68 61 82 52 13 -8 17 -24 15 -69 -1 -33 -9 -75 -17 -94 -8
-19 -29 -89 -46 -155 -18 -66 -41 -149 -51 -184 -11 -35 -22 -83 -26 -106 -3
-28 1 -61 12 -96 10 -30 21 -58 26 -64 5 -5 9 -17 9 -26 0 -9 7 -23 16 -30 14
-11 19 -10 35 10 16 19 19 41 19 125 1 55 7 139 15 186 7 47 21 126 30 175 9
50 25 120 36 156 10 36 19 72 19 80 0 9 14 28 30 44 17 16 30 34 30 41 0 7 14
24 31 38 20 17 43 26 64 26 19 0 36 -4 40 -9 3 -5 1 -12 -5 -16 -5 -3 -10 -13
-10 -21 0 -10 13 -14 50 -14 42 0 50 -3 50 -18 0 -12 -27 -37 -72 -68 -40 -26
-83 -57 -95 -68 -14 -11 -23 -31 -23 -47 0 -16 5 -40 12 -54 6 -14 16 -25 22
-25 6 0 31 14 56 31 25 17 60 44 77 60 18 16 39 29 48 29 9 0 18 -7 22 -16 3
-10 -9 -30 -35 -57 -22 -23 -68 -72 -101 -108 -60 -64 -61 -67 -61 -122 0 -43
4 -58 17 -66 13 -7 27 -4 53 11 19 11 65 52 102 89 37 38 74 69 83 69 14 0 16
-8 12 -52 -3 -29 -10 -78 -15 -108 -6 -30 -22 -86 -35 -125 -13 -38 -42 -108
-64 -155 -22 -47 -54 -102 -72 -123 -33 -37 -33 -37 8 -37 33 0 49 7 77 32 20
18 65 76 101 128 36 52 71 115 78 140 7 25 16 69 20 99 4 31 15 60 25 70 10 9
48 41 84 71 37 30 76 69 87 86 11 18 19 49 19 74 0 34 -6 47 -32 72 -18 17
-43 34 -57 39 -17 7 -34 4 -65 -11 -23 -11 -51 -20 -62 -20 -11 0 -25 5 -32
12 -7 7 -12 15 -12 20 0 4 14 15 31 23 16 9 48 32 70 52 21 19 39 43 39 53 0
10 -7 23 -15 30 -11 9 -22 9 -45 2 -20 -8 -32 -8 -36 0 -4 5 18 35 48 66 30
32 61 71 67 89 7 17 10 41 6 52 -3 11 -22 34 -41 50 -22 20 -46 31 -64 31z
m-15 -63 c15 -2 21 -11 23 -36 2 -18 -2 -47 -9 -65 -7 -17 -19 -39 -27 -48 -8
-10 -23 -18 -34 -18 -10 0 -26 4 -36 9 -9 5 -29 14 -45 22 -24 11 -30 10 -50
-8 -12 -11 -39 -27 -59 -34 -21 -7 -41 -10 -45 -6 -4 4 5 19 19 33 14 14 74
54 134 89 60 35 118 63 129 62z m-205 -317 c5 0 12 -5 16 -11 3 -6 1 -16 -5
-22 -9 -9 -14 -8 -21 3 -5 8 -6 18 -4 22 3 4 9 8 14 8z m76 -141 c5 1 15 -4
22 -11 7 -7 12 -19 12 -27 0 -9 -23 -33 -51 -53 -27 -21 -57 -38 -65 -38 -7 0
-14 3 -14 8 0 4 9 18 20 32 11 14 20 32 20 41 0 9 10 24 23 32 12 9 27 16 33
16z m219 -2 c5 -2 12 -12 14 -22 1 -10 -7 -36 -19 -59 -13 -23 -34 -53 -48
-68 -14 -16 -32 -28 -40 -28 -9 0 -12 6 -8 16 3 9 6 35 6 59 0 39 4 46 42 74
23 17 47 30 53 28z"/>
</g>
</svg>
