<?xml version="1.0" standalone="no"?>
<!DOCTYPE svg PUBLIC "-//W3C//DTD SVG 20010904//EN"
 "http://www.w3.org/TR/2001/REC-SVG-20010904/DTD/svg10.dtd">
<svg version="1.0" xmlns="http://www.w3.org/2000/svg"
 width="128.000000pt" height="128.000000pt" viewBox="0 0 128.000000 128.000000"
 preserveAspectRatio="xMidYMid meet">
<metadata>
Created by potrace 1.16, written by Peter Selinger 2001-2019
</metadata>
<g transform="translate(0.000000,128.000000) scale(0.100000,-0.100000)"
fill="#000000" stroke="none">
<path d="M380 1160 c-9 0 -19 -3 -22 -6 -3 -3 -28 -8 -54 -12 -33 -5 -50 -12
-52 -23 -2 -9 14 -27 37 -43 22 -16 43 -37 46 -47 4 -12 -8 -40 -34 -79 -23
-34 -41 -68 -41 -75 0 -8 -11 -22 -25 -31 -14 -9 -25 -25 -25 -35 0 -10 4 -21
10 -24 5 -3 18 -2 27 3 10 6 38 11 63 13 35 3 45 1 48 -12 2 -9 -8 -29 -21
-45 -14 -16 -26 -38 -28 -49 -3 -13 -18 -25 -43 -33 -22 -7 -46 -22 -53 -32
-8 -11 -25 -20 -39 -20 -14 0 -46 -15 -72 -34 -26 -19 -55 -42 -65 -51 -14
-12 -17 -24 -12 -43 3 -15 11 -31 16 -37 7 -6 20 -4 40 8 17 9 39 17 48 17 10
0 32 5 49 11 17 6 34 20 38 32 4 12 11 25 17 29 6 3 21 1 33 -4 17 -8 27 -8
39 2 9 8 27 10 49 6 19 -4 37 -13 40 -22 3 -8 -8 -39 -24 -68 -18 -31 -47 -65
-70 -80 -22 -14 -40 -34 -40 -44 0 -10 -20 -32 -45 -50 -25 -17 -45 -36 -45
-42 0 -5 -6 -10 -12 -10 -7 0 -34 -14 -60 -30 -36 -23 -48 -36 -48 -55 0 -14
8 -29 21 -35 16 -9 26 -8 45 5 13 8 24 19 24 24 0 5 10 11 23 15 12 3 47 23
76 46 33 24 65 40 80 39 14 0 35 -4 46 -9 11 -5 14 -9 8 -9 -7 -1 -13 -5 -13
-11 0 -5 25 -26 56 -45 31 -20 63 -34 70 -31 8 3 18 16 23 28 4 13 18 55 29
93 12 39 31 99 42 135 11 36 24 71 29 79 5 7 21 14 37 14 20 0 37 -10 56 -34
15 -18 28 -36 28 -40 0 -4 9 -11 20 -14 12 -4 27 -1 35 5 9 7 15 29 15 51 0
29 5 39 20 44 11 3 20 12 20 19 0 9 9 12 24 9 18 -4 32 2 50 23 14 16 31 34
37 39 6 6 24 22 41 38 25 23 28 30 18 42 -7 8 -26 15 -43 15 -22 0 -41 -11
-73 -44 -25 -24 -44 -53 -44 -65 0 -12 -7 -24 -16 -28 -9 -3 -46 4 -84 16 -50
17 -80 35 -119 72 -42 40 -58 49 -87 49 -19 0 -56 -9 -82 -20 -26 -11 -59 -27
-74 -35 -24 -12 -30 -12 -43 1 -8 9 -15 24 -15 34 0 10 12 26 28 34 15 8 42
22 60 31 17 8 32 22 32 30 0 8 11 22 25 31 14 9 25 25 25 36 0 11 4 28 10 38
7 14 6 23 -6 34 -8 9 -26 16 -39 16 -17 0 -26 -8 -34 -30 -5 -16 -17 -30 -25
-30 -8 0 -21 3 -30 6 -9 3 -16 15 -16 26 0 11 8 32 18 46 10 15 26 52 35 83
11 35 15 69 11 90 -4 19 -11 40 -17 47 -5 6 -17 12 -27 12z m216 -550 c6 0 14
-6 17 -14 3 -8 -7 -31 -22 -50 -16 -19 -34 -50 -41 -68 -6 -18 -23 -56 -36
-83 -13 -28 -24 -66 -24 -86 0 -19 -5 -40 -12 -47 -7 -7 -24 -12 -38 -12 -19
0 -36 12 -58 39 -18 22 -32 49 -32 60 0 11 12 28 28 38 15 10 62 53 105 96 42
43 77 84 77 91 0 6 5 17 12 24 7 7 17 12 24 12z"/>
<path d="M1088 679 c-18 0 -39 -3 -45 -6 -7 -2 -13 -10 -13 -17 0 -6 13 -19
29 -29 16 -9 38 -17 50 -17 13 0 30 -14 45 -39 14 -22 30 -42 36 -46 5 -3 10
-19 10 -34 0 -16 10 -37 23 -49 23 -22 23 -22 40 -2 11 14 17 38 17 74 0 47
-4 59 -32 90 -27 31 -38 36 -74 36 -33 0 -43 4 -47 20 -4 15 -13 20 -39 19z"/>
<path d="M1164 430 c-12 0 -33 -13 -47 -30 -14 -16 -28 -39 -32 -49 -3 -11
-26 -31 -50 -46 -29 -17 -45 -33 -45 -45 0 -14 -7 -20 -21 -20 -11 0 -47 -21
-80 -46 -32 -25 -59 -50 -59 -55 0 -5 -11 -14 -25 -19 -14 -5 -25 -14 -25 -19
0 -6 33 -10 80 -9 76 1 82 2 105 30 14 16 26 37 26 46 1 9 1 25 0 35 -2 11 5
17 17 17 11 0 25 7 32 15 7 8 22 15 35 15 12 0 47 21 78 48 44 37 56 53 56 78
1 16 -4 35 -11 42 -7 7 -22 12 -34 12z"/>
</g>
</svg>
