<?xml version="1.0" standalone="no"?>
<!DOCTYPE svg PUBLIC "-//W3C//DTD SVG 20010904//EN"
 "http://www.w3.org/TR/2001/REC-SVG-20010904/DTD/svg10.dtd">
<svg version="1.0" xmlns="http://www.w3.org/2000/svg"
 width="128.000000pt" height="128.000000pt" viewBox="0 0 128.000000 128.000000"
 preserveAspectRatio="xMidYMid meet">
<metadata>
Created by potrace 1.16, written by Peter Selinger 2001-2019
</metadata>
<g transform="translate(0.000000,128.000000) scale(0.100000,-0.100000)"
fill="#000000" stroke="none">
<path d="M728 1174 c-46 4 -79 3 -82 -3 -4 -5 8 -26 25 -45 17 -20 36 -36 43
-36 6 0 22 9 36 20 14 11 32 20 41 20 9 0 20 -7 23 -16 3 -8 0 -27 -8 -42 -8
-15 -46 -65 -84 -112 -38 -47 -74 -95 -81 -107 -6 -12 -11 -39 -11 -60 0 -21
7 -49 16 -61 8 -12 21 -22 28 -22 7 0 21 9 31 20 10 11 22 20 27 20 5 0 6 -31
2 -72 -3 -40 -15 -98 -25 -128 -11 -30 -19 -73 -19 -95 0 -22 7 -50 15 -62 8
-12 13 -28 10 -36 -4 -9 -38 -18 -103 -26 -53 -7 -115 -17 -137 -22 -22 -5
-79 -18 -127 -30 -54 -13 -99 -18 -118 -14 -20 4 -38 2 -53 -8 -12 -8 -47 -20
-77 -27 -30 -7 -65 -22 -77 -33 -13 -11 -23 -29 -23 -39 0 -10 6 -18 14 -18 8
0 63 15 122 34 60 19 152 43 204 55 52 12 111 26 130 31 19 4 62 14 95 20 33
7 89 18 125 26 36 7 74 14 85 15 11 1 26 1 33 0 6 0 12 -14 12 -30 0 -16 -6
-33 -13 -39 -7 -6 -39 -12 -72 -14 -55 -3 -60 -5 -69 -31 -7 -19 -7 -33 1 -45
6 -9 19 -16 28 -14 10 2 30 13 45 24 15 11 36 18 46 16 11 -2 21 -16 25 -37 4
-18 13 -37 20 -42 7 -4 21 -4 30 1 9 5 22 24 28 41 6 18 11 42 11 54 0 11 6
29 13 39 13 17 15 17 46 2 20 -11 31 -23 29 -34 -2 -9 -16 -23 -32 -31 -28
-13 -29 -14 -10 -28 13 -9 32 -12 63 -7 25 4 56 17 69 30 16 14 23 28 19 39
-4 8 -26 25 -49 35 -24 11 -60 20 -80 20 -20 0 -43 3 -52 6 -10 4 -16 18 -16
35 0 21 6 30 23 34 12 4 72 7 132 8 76 1 120 -2 143 -12 27 -11 37 -12 58 -1
13 7 24 21 24 30 0 11 -16 23 -44 34 -25 10 -53 17 -63 18 -10 0 -49 -7 -88
-16 -38 -9 -94 -21 -123 -27 -49 -11 -53 -10 -75 12 -13 13 -36 34 -51 47 -16
14 -25 29 -22 38 3 8 11 68 17 132 6 65 17 127 25 140 10 15 24 22 44 22 27 0
30 -3 30 -30 0 -19 -5 -30 -14 -30 -8 0 -18 -5 -21 -10 -4 -6 5 -20 19 -31 15
-12 26 -31 26 -44 0 -13 -10 -29 -26 -40 -25 -16 -25 -16 2 -40 18 -15 25 -29
21 -40 -4 -9 -11 -13 -17 -10 -5 3 -10 14 -10 23 -1 15 -2 15 -15 -2 -8 -11
-15 -25 -15 -31 0 -6 9 -21 20 -33 18 -19 27 -20 92 -15 40 3 83 12 96 19 12
8 22 21 22 28 0 7 -13 19 -28 25 -16 7 -40 9 -54 6 -14 -4 -29 -2 -32 4 -4 5
10 22 29 37 20 15 34 32 32 38 -2 6 -17 13 -33 16 -24 5 -29 10 -26 30 1 14
14 34 28 46 20 16 22 23 12 31 -7 5 -21 13 -30 16 -10 4 -18 13 -18 22 0 9 8
18 18 21 9 3 32 13 51 22 18 9 36 23 39 31 3 8 -5 22 -17 33 -13 10 -38 18
-57 18 -18 0 -36 -5 -39 -10 -4 -6 -31 -26 -62 -46 -31 -20 -66 -39 -78 -44
-17 -7 -27 -4 -39 9 -9 10 -16 23 -16 30 0 7 25 47 55 89 30 43 65 89 77 105
13 16 22 41 22 63 0 24 -6 41 -19 50 -10 8 -32 14 -47 14 -16 0 -39 6 -51 14
-12 7 -57 17 -99 20z m89 -774 c9 0 13 -8 11 -22 -2 -13 -11 -24 -20 -26 -12
-2 -18 3 -18 16 0 10 3 22 7 25 3 4 13 7 20 7z m-81 -180 c8 0 14 -4 14 -9 0
-6 -4 -13 -10 -16 -5 -3 -15 -3 -20 0 -6 4 -8 11 -5 16 4 5 13 9 21 9z"/>
<path d="M1017 989 c-7 0 -33 -10 -59 -22 -27 -12 -48 -27 -48 -33 0 -6 14
-14 31 -18 17 -3 44 -6 59 -6 15 0 34 8 43 18 10 10 17 26 17 34 0 9 -7 19
-16 22 -9 3 -21 6 -27 5z"/>
</g>
</svg>
