<?xml version="1.0" standalone="no"?>
<!DOCTYPE svg PUBLIC "-//W3C//DTD SVG 20010904//EN"
 "http://www.w3.org/TR/2001/REC-SVG-20010904/DTD/svg10.dtd">
<svg version="1.0" xmlns="http://www.w3.org/2000/svg"
 width="128.000000pt" height="128.000000pt" viewBox="0 0 128.000000 128.000000"
 preserveAspectRatio="xMidYMid meet">
<metadata>
Created by potrace 1.16, written by Peter Selinger 2001-2019
</metadata>
<g transform="translate(0.000000,128.000000) scale(0.100000,-0.100000)"
fill="#000000" stroke="none">
<path d="M572 1249 c-15 -1 -36 -3 -47 -6 -11 -3 -24 -9 -29 -14 -6 -5 -19 -9
-31 -9 -11 0 -54 -18 -95 -40 -64 -34 -84 -40 -137 -40 -34 0 -64 -4 -67 -9
-4 -5 -4 -15 -1 -23 3 -7 30 -28 59 -46 38 -22 67 -32 95 -32 38 0 49 7 111
65 56 52 76 65 102 65 18 0 48 -11 69 -26 21 -14 49 -43 62 -63 14 -21 39 -44
56 -51 27 -11 41 -10 92 5 34 9 95 19 136 22 49 4 81 2 97 -6 12 -7 30 -25 39
-41 13 -21 17 -53 17 -132 0 -56 0 -112 1 -123 1 -11 2 -38 2 -60 0 -22 0 -74
0 -115 0 -41 0 -144 -1 -228 -1 -148 -2 -155 -26 -193 -15 -21 -44 -50 -66
-64 -22 -14 -40 -31 -40 -38 0 -8 10 -19 23 -25 12 -6 43 -12 68 -15 26 -2 54
0 62 5 9 5 35 41 58 80 42 71 42 71 29 157 -9 55 -13 186 -13 361 0 151 4 288
9 304 7 20 6 43 0 70 -6 23 -21 58 -33 79 -12 20 -33 41 -45 46 -13 5 -49 17
-80 26 -46 13 -61 14 -79 4 -15 -8 -48 -10 -101 -6 -68 6 -86 11 -126 39 -26
18 -49 36 -52 39 -3 3 -24 13 -48 22 -23 9 -55 16 -70 16z"/>
<path d="M136 980 c-9 0 -19 -7 -23 -15 -3 -9 0 -42 7 -75 7 -34 10 -85 6
-122 -3 -35 -8 -91 -12 -124 -4 -40 -2 -64 5 -68 6 -4 7 -13 2 -24 -5 -9 -14
-28 -20 -42 -6 -14 -13 -65 -14 -115 -1 -49 -5 -94 -9 -100 -3 -5 -9 -29 -13
-51 -4 -25 -1 -60 6 -85 7 -24 17 -50 22 -56 5 -7 17 -13 27 -13 9 0 22 10 28
23 6 12 18 40 27 62 12 30 16 65 13 141 -2 67 1 106 9 115 7 8 13 41 13 74 1
33 8 87 15 120 8 33 17 76 21 95 3 19 12 46 19 60 10 21 10 32 -5 65 -10 22
-37 61 -62 88 -24 26 -52 47 -62 47z"/>
</g>
</svg>
