<?xml version="1.0" standalone="no"?>
<!DOCTYPE svg PUBLIC "-//W3C//DTD SVG 20010904//EN"
 "http://www.w3.org/TR/2001/REC-SVG-20010904/DTD/svg10.dtd">
<svg version="1.0" xmlns="http://www.w3.org/2000/svg"
 width="128.000000pt" height="128.000000pt" viewBox="0 0 128.000000 128.000000"
 preserveAspectRatio="xMidYMid meet">
<metadata>
Created by potrace 1.16, written by Peter Selinger 2001-2019
</metadata>
<g transform="translate(0.000000,128.000000) scale(0.100000,-0.100000)"
fill="#000000" stroke="none">
<path d="M733 1260 c-22 0 -60 -12 -89 -28 -29 -15 -74 -43 -100 -62 -42 -30
-57 -35 -101 -34 -29 0 -53 -4 -53 -9 0 -4 5 -17 10 -27 6 -11 28 -25 50 -31
37 -11 43 -10 81 16 23 15 52 37 63 50 12 12 39 32 61 44 22 11 48 21 57 21
14 0 18 -8 18 -38 0 -21 -4 -42 -9 -47 -5 -6 -19 -35 -31 -65 -12 -30 -41 -84
-66 -121 -24 -37 -51 -73 -60 -80 -9 -8 -28 -31 -41 -52 -13 -21 -35 -43 -49
-49 -22 -10 -36 -7 -107 29 -45 23 -100 46 -122 52 -22 6 -61 12 -87 14 -25 2
-52 1 -58 -3 -7 -4 -9 -13 -6 -19 4 -6 15 -11 24 -11 9 0 48 -11 86 -25 38
-14 94 -37 123 -51 30 -14 53 -30 50 -37 -2 -6 -19 -20 -37 -30 -19 -10 -64
-30 -100 -43 -67 -24 -67 -24 -138 -4 -40 11 -79 20 -87 20 -8 0 -15 -7 -15
-16 0 -9 7 -29 17 -44 9 -16 27 -33 40 -39 13 -6 50 -11 82 -11 32 0 76 7 97
16 22 9 68 27 104 40 35 13 68 31 73 39 4 8 21 15 37 15 16 0 50 -13 74 -29
25 -15 86 -61 136 -102 50 -41 128 -106 173 -144 45 -39 107 -93 137 -120 30
-28 98 -92 152 -143 79 -74 104 -92 128 -92 25 0 30 4 30 24 0 17 -20 45 -63
88 -34 35 -105 101 -156 148 -52 47 -104 92 -117 100 -12 8 -51 42 -87 75 -36
33 -78 68 -93 77 -16 10 -49 33 -74 53 -25 19 -63 47 -86 62 -23 14 -46 34
-53 44 -9 16 -4 28 33 76 24 32 65 79 90 106 25 26 46 51 46 56 0 4 13 26 28
47 15 21 34 66 41 99 7 33 16 74 22 91 5 17 9 36 9 43 0 6 -11 23 -25 36 -17
18 -35 25 -62 25z"/>
<path d="M487 78 c-75 -2 -140 -4 -146 -6 -6 -2 -11 -13 -11 -24 0 -19 6 -20
88 -18 48 1 95 2 105 1 9 0 17 -8 17 -16 0 -12 16 -15 85 -15 47 0 85 3 85 8
0 4 -4 12 -8 18 -4 5 -23 20 -43 32 -33 20 -47 22 -172 20z"/>
</g>
</svg>
