<?xml version="1.0" standalone="no"?>
<!DOCTYPE svg PUBLIC "-//W3C//DTD SVG 20010904//EN"
 "http://www.w3.org/TR/2001/REC-SVG-20010904/DTD/svg10.dtd">
<svg version="1.0" xmlns="http://www.w3.org/2000/svg"
 width="128.000000pt" height="128.000000pt" viewBox="0 0 128.000000 128.000000"
 preserveAspectRatio="xMidYMid meet">
<metadata>
Created by potrace 1.16, written by Peter Selinger 2001-2019
</metadata>
<g transform="translate(0.000000,128.000000) scale(0.100000,-0.100000)"
fill="#000000" stroke="none">
<path d="M260 1160 c-5 0 -12 -5 -15 -11 -4 -6 -4 -13 -1 -16 3 -3 12 -3 21 1
9 3 13 10 10 16 -3 5 -10 10 -15 10z"/>
<path d="M613 1149 c-10 -1 -27 -3 -38 -5 -11 -3 -58 -23 -105 -45 -47 -23
-98 -48 -115 -57 -16 -8 -48 -19 -70 -24 -22 -6 -52 -11 -66 -12 -14 -2 -31
-6 -37 -10 -7 -4 -12 -11 -12 -16 0 -5 20 -23 44 -40 29 -19 57 -30 79 -30 20
0 49 10 71 25 20 14 40 25 43 25 4 0 14 6 22 13 9 8 32 19 51 27 19 7 50 19
68 27 18 8 40 13 50 11 12 -2 19 -17 24 -48 3 -25 4 -72 1 -105 -4 -39 -13
-72 -29 -95 -12 -19 -26 -48 -30 -65 -4 -16 -19 -50 -34 -75 -15 -25 -30 -58
-34 -73 -3 -15 -13 -30 -21 -33 -8 -3 -49 11 -92 31 -43 20 -100 48 -128 61
-27 14 -70 28 -95 30 -25 3 -51 1 -59 -4 -8 -6 -11 -18 -6 -30 3 -12 20 -25
38 -31 18 -5 62 -21 100 -35 37 -14 72 -28 77 -31 6 -3 10 -19 10 -35 0 -21
-7 -33 -27 -44 -16 -8 -40 -20 -55 -27 -16 -6 -28 -14 -28 -18 0 -5 -21 -18
-47 -31 -27 -12 -58 -27 -71 -33 -13 -6 -28 -19 -33 -29 -8 -15 -5 -20 16 -28
15 -6 35 -10 45 -10 11 0 34 6 52 14 18 8 60 25 93 37 33 13 64 27 70 31 5 4
17 8 27 8 10 0 35 16 57 35 21 19 47 35 57 35 11 0 28 -6 39 -14 11 -7 32 -16
46 -19 14 -4 55 -26 93 -51 37 -24 79 -48 94 -54 15 -5 57 -19 94 -31 36 -13
77 -24 90 -26 12 -1 43 -10 67 -19 24 -9 56 -16 71 -16 16 0 49 -9 75 -20 26
-11 60 -20 75 -20 16 0 31 4 34 9 3 5 -1 25 -9 45 -8 20 -21 37 -28 37 -6 1
-19 1 -29 0 -9 -1 -31 7 -50 19 -18 11 -42 20 -53 20 -11 0 -58 12 -105 27
-47 14 -99 37 -116 50 -17 13 -45 23 -63 23 -21 0 -46 11 -71 31 -24 20 -45
29 -55 25 -9 -3 -26 -1 -38 6 -12 6 -37 23 -54 37 -18 14 -33 31 -33 36 0 6
14 29 30 53 16 24 47 60 70 80 23 20 49 55 57 77 8 22 19 66 23 99 4 32 7 91
5 130 -2 39 -11 88 -19 107 -10 24 -27 42 -50 53 -19 9 -42 15 -53 15z"/>
<path d="M852 572 c-6 6 -12 6 -16 -1 -4 -6 -3 -19 3 -28 9 -17 10 -17 17 0 4
10 2 23 -4 29z"/>
</g>
</svg>
