<?xml version="1.0" standalone="no"?>
<!DOCTYPE svg PUBLIC "-//W3C//DTD SVG 20010904//EN"
 "http://www.w3.org/TR/2001/REC-SVG-20010904/DTD/svg10.dtd">
<svg version="1.0" xmlns="http://www.w3.org/2000/svg"
 width="128.000000pt" height="128.000000pt" viewBox="0 0 128.000000 128.000000"
 preserveAspectRatio="xMidYMid meet">
<metadata>
Created by potrace 1.16, written by Peter Selinger 2001-2019
</metadata>
<g transform="translate(0.000000,128.000000) scale(0.100000,-0.100000)"
fill="#000000" stroke="none">
<path d="M844 1126 c-20 4 -34 1 -42 -9 -7 -8 -30 -17 -53 -20 -22 -3 -51 -13
-66 -24 -14 -10 -31 -21 -37 -24 -6 -3 -40 -20 -76 -38 -52 -25 -77 -32 -126
-31 -44 0 -65 -4 -75 -16 -9 -11 -10 -21 -3 -31 5 -8 32 -24 59 -34 28 -10 58
-19 67 -19 10 0 28 10 40 22 17 17 32 21 68 19 29 -1 63 6 93 19 26 12 60 20
75 18 20 -2 28 -9 30 -27 2 -13 -4 -49 -13 -80 -9 -31 -18 -60 -21 -66 -2 -5
-10 -19 -16 -30 -7 -11 -27 -40 -45 -65 -17 -25 -35 -58 -39 -74 -3 -15 -12
-30 -19 -33 -7 -2 -31 9 -54 25 -22 16 -62 34 -88 41 -26 7 -64 17 -83 23 -19
6 -96 11 -170 11 -129 -1 -135 -2 -152 -24 -10 -13 -30 -36 -44 -50 -25 -27
-25 -27 -11 -123 8 -52 19 -102 26 -110 6 -7 31 -17 54 -20 24 -4 56 -15 73
-25 17 -10 49 -22 71 -26 26 -4 58 -1 89 8 27 8 74 27 104 42 30 14 73 37 95
50 22 13 49 24 61 24 13 1 29 -12 45 -36 13 -21 42 -50 64 -65 22 -16 56 -37
75 -49 19 -11 59 -35 89 -53 35 -21 62 -31 77 -28 13 2 24 0 24 -6 0 -6 7 -18
16 -26 12 -13 41 -16 145 -16 129 0 129 0 129 24 0 16 -12 32 -38 50 -21 14
-51 40 -67 56 -16 17 -38 30 -49 30 -11 0 -30 9 -42 21 -15 14 -46 24 -101 32
-62 8 -82 16 -96 34 -10 13 -23 23 -29 23 -5 0 -26 7 -46 16 -21 9 -47 21 -59
27 -15 7 -23 19 -23 35 0 14 17 44 40 71 21 25 52 59 67 74 15 16 37 45 50 65
12 20 23 52 23 69 0 18 7 50 15 70 8 21 19 72 24 113 10 75 10 75 -32 117 -23
24 -56 45 -73 49z m-618 -486 c3 0 13 -4 22 -9 9 -5 64 -19 122 -31 71 -14
112 -28 128 -42 12 -12 22 -26 22 -32 0 -5 -10 -20 -22 -33 -12 -13 -26 -23
-31 -23 -6 0 -19 -7 -29 -17 -10 -9 -43 -26 -73 -38 -55 -23 -55 -23 -89 4
-19 14 -49 45 -66 68 -16 24 -30 52 -30 64 0 12 9 37 21 55 11 19 23 34 25 34z"/>
</g>
</svg>
