<?xml version="1.0" standalone="no"?>
<!DOCTYPE svg PUBLIC "-//W3C//DTD SVG 20010904//EN"
 "http://www.w3.org/TR/2001/REC-SVG-20010904/DTD/svg10.dtd">
<svg version="1.0" xmlns="http://www.w3.org/2000/svg"
 width="56.000000pt" height="56.000000pt" viewBox="0 0 56.000000 56.000000"
 preserveAspectRatio="xMidYMid meet">
<metadata>
Created by potrace 1.16, written by Peter Selinger 2001-2019
</metadata>
<g transform="translate(0.000000,56.000000) scale(0.100000,-0.100000)"
fill="#000000" stroke="none">
<path d="M50 520 c-39 0 -50 -4 -50 -16 0 -8 5 -24 10 -35 6 -10 20 -19 31
-19 11 0 29 5 40 10 11 6 19 21 19 35 0 23 -4 25 -50 25z"/>
<path d="M283 519 c-10 0 -54 -25 -98 -55 -44 -30 -88 -64 -98 -76 -18 -21
-17 -22 10 -43 27 -22 27 -23 10 -49 -17 -26 -17 -28 3 -55 11 -16 20 -37 20
-48 0 -10 -15 -34 -32 -54 -18 -20 -41 -39 -51 -43 -13 -4 -17 -14 -15 -33 2
-18 10 -29 22 -31 12 -3 37 16 75 55 31 32 77 76 102 96 25 20 49 37 53 37 3
0 4 -11 0 -25 -4 -15 -1 -32 6 -40 7 -8 16 -15 20 -15 4 0 20 11 36 25 16 14
34 25 41 25 6 0 28 -22 48 -50 20 -27 43 -50 51 -50 8 0 14 10 14 23 0 14 -16
39 -40 62 -22 21 -40 47 -40 56 0 9 7 19 15 23 9 3 12 12 8 21 -4 13 -14 15
-40 10 -26 -5 -35 -2 -40 11 -4 11 4 24 26 41 17 13 31 29 31 36 0 6 -9 21
-21 33 -20 22 -20 22 1 42 15 14 18 22 10 27 -7 4 -23 -7 -40 -26 -27 -33 -27
-33 -64 -9 -20 14 -36 30 -36 36 0 7 7 14 15 18 8 3 15 10 15 16 0 5 -8 10
-17 9z m-62 -69 c5 0 16 -14 25 -31 9 -18 27 -42 41 -55 22 -21 24 -26 14 -56
-6 -18 -31 -54 -56 -80 -25 -27 -47 -48 -49 -48 -2 0 -15 18 -30 40 -14 22
-26 46 -26 55 0 8 5 15 10 15 6 0 10 13 10 30 0 19 -7 33 -20 40 -11 6 -20 15
-20 21 0 5 15 16 33 24 19 8 39 21 47 29 7 9 16 16 21 16z m141 -72 c5 -2 10
-8 11 -13 0 -6 -7 -11 -16 -13 -12 -3 -15 1 -11 13 4 9 11 14 16 13z m-27
-108 c8 0 19 -9 25 -20 6 -11 9 -24 6 -29 -3 -5 -15 -11 -26 -14 -17 -4 -20 0
-20 29 0 23 5 34 15 34z"/>
<path d="M468 500 c-5 0 -11 -7 -15 -16 -3 -9 2 -21 14 -29 11 -8 28 -30 37
-50 11 -22 24 -35 36 -35 15 0 20 7 20 25 0 16 -15 39 -41 65 -23 22 -46 40
-51 40z"/>
<path d="M230 60 c-11 0 -20 -7 -20 -15 0 -8 9 -15 20 -15 11 0 20 7 20 15 0
8 -9 15 -20 15z"/>
</g>
</svg>
