<?xml version="1.0" standalone="no"?>
<!DOCTYPE svg PUBLIC "-//W3C//DTD SVG 20010904//EN"
 "http://www.w3.org/TR/2001/REC-SVG-20010904/DTD/svg10.dtd">
<svg version="1.0" xmlns="http://www.w3.org/2000/svg"
 width="56.000000pt" height="56.000000pt" viewBox="0 0 56.000000 56.000000"
 preserveAspectRatio="xMidYMid meet">
<metadata>
Created by potrace 1.16, written by Peter Selinger 2001-2019
</metadata>
<g transform="translate(0.000000,56.000000) scale(0.100000,-0.100000)"
fill="#000000" stroke="none">
<path d="M128 560 c-49 0 -55 -3 -76 -33 -15 -23 -23 -51 -25 -88 -2 -54 -2
-54 38 -56 22 -1 45 -2 52 -2 6 -1 17 -16 23 -35 6 -19 18 -40 26 -46 7 -7 14
-18 14 -25 0 -7 -14 -18 -30 -25 -17 -7 -37 -25 -45 -41 -8 -15 -15 -45 -15
-67 0 -29 7 -45 28 -65 15 -15 37 -27 48 -27 10 0 42 -12 69 -25 33 -17 67
-25 100 -25 33 0 58 7 74 19 17 13 22 23 16 39 -6 20 -14 22 -72 22 -36 0 -89
7 -118 15 -29 9 -59 23 -66 31 -7 8 -12 29 -12 45 0 16 7 37 15 45 12 13 20
14 36 5 18 -10 25 -6 53 29 18 23 49 50 68 62 19 12 57 27 84 33 28 6 55 19
61 28 8 13 6 20 -9 31 -11 9 -34 16 -51 16 -17 0 -42 -8 -55 -18 -13 -10 -45
-28 -70 -40 -25 -12 -51 -22 -57 -22 -7 0 -23 10 -37 22 -14 12 -25 30 -25 40
0 10 7 29 15 42 15 22 14 25 -10 44 -14 11 -25 25 -25 31 0 7 7 14 15 17 8 4
15 10 15 15 0 5 -24 9 -52 9z m-16 -80 c10 0 18 -4 18 -9 0 -5 -6 -14 -14 -20
-10 -8 -16 -8 -25 2 -6 8 -8 17 -4 20 3 4 15 7 25 7z"/>
<path d="M510 560 c-21 0 -30 -4 -27 -12 2 -7 14 -13 27 -13 13 0 25 6 28 13
2 8 -7 12 -28 12z"/>
</g>
</svg>
