<?xml version="1.0" standalone="no"?>
<!DOCTYPE svg PUBLIC "-//W3C//DTD SVG 20010904//EN"
 "http://www.w3.org/TR/2001/REC-SVG-20010904/DTD/svg10.dtd">
<svg version="1.0" xmlns="http://www.w3.org/2000/svg"
 width="56.000000pt" height="56.000000pt" viewBox="0 0 56.000000 56.000000"
 preserveAspectRatio="xMidYMid meet">
<metadata>
Created by potrace 1.16, written by Peter Selinger 2001-2019
</metadata>
<g transform="translate(0.000000,56.000000) scale(0.100000,-0.100000)"
fill="#000000" stroke="none">
<path d="M363 559 c-10 0 -26 -9 -36 -19 -18 -18 -18 -18 5 -25 13 -4 40 -23
61 -41 20 -19 41 -34 45 -34 4 0 13 5 20 12 7 7 12 20 12 30 0 10 -9 27 -20
38 -11 11 -31 20 -45 20 -14 0 -25 5 -25 10 0 6 -8 10 -17 9z"/>
<path d="M69 530 c-3 0 -9 -3 -12 -7 -4 -3 -7 -14 -7 -23 0 -9 9 -25 20 -35
11 -10 20 -26 20 -37 0 -10 -5 -27 -12 -38 -10 -15 -10 -27 1 -57 7 -21 25
-53 38 -71 22 -29 24 -37 14 -59 -7 -14 -32 -49 -56 -78 -25 -29 -45 -57 -45
-64 0 -7 9 -21 19 -32 12 -14 26 -19 38 -15 11 3 29 29 41 56 12 28 22 54 22
59 0 4 9 20 21 35 11 14 24 26 28 26 4 0 19 -27 32 -60 22 -56 26 -60 49 -55
14 4 35 18 47 33 12 15 22 37 23 49 0 12 4 24 9 27 5 4 22 -15 38 -41 15 -27
35 -60 42 -75 8 -15 23 -37 33 -48 11 -12 25 -19 31 -17 6 2 15 10 20 19 8 12
-3 35 -44 99 -31 46 -59 91 -64 99 -5 8 -9 28 -10 45 0 23 -5 31 -22 33 -12 2
-24 10 -27 19 -4 9 1 27 9 40 9 13 13 28 10 33 -3 6 -21 10 -40 10 -22 0 -41
8 -55 22 -11 12 -20 25 -20 30 0 4 -7 8 -15 8 -8 0 -15 -9 -15 -19 0 -11 10
-36 21 -56 22 -36 22 -36 -11 -70 -28 -28 -38 -33 -64 -28 -17 3 -34 9 -39 13
-4 3 -8 20 -9 36 -1 16 4 48 9 72 11 41 10 44 -26 82 -20 22 -40 40 -42 40z
m213 -250 c12 0 32 -10 45 -22 13 -12 23 -29 23 -38 0 -9 -15 -31 -34 -49 -29
-28 -37 -31 -55 -22 -11 7 -24 23 -27 37 -4 16 -1 31 10 43 9 10 16 22 15 27
-1 5 -1 12 0 17 0 4 11 7 23 7z"/>
</g>
</svg>
