<?xml version="1.0" standalone="no"?>
<!DOCTYPE svg PUBLIC "-//W3C//DTD SVG 20010904//EN"
 "http://www.w3.org/TR/2001/REC-SVG-20010904/DTD/svg10.dtd">
<svg version="1.0" xmlns="http://www.w3.org/2000/svg"
 width="56.000000pt" height="56.000000pt" viewBox="0 0 56.000000 56.000000"
 preserveAspectRatio="xMidYMid meet">
<metadata>
Created by potrace 1.16, written by Peter Selinger 2001-2019
</metadata>
<g transform="translate(0.000000,56.000000) scale(0.100000,-0.100000)"
fill="#000000" stroke="none">
<path d="M290 510 c-18 0 -20 -6 -20 -79 0 -44 4 -82 9 -86 5 -3 12 3 14 12 3
10 11 42 17 71 7 29 9 59 6 67 -3 8 -15 15 -26 15z"/>
<path d="M114 498 c-14 2 -27 -6 -38 -23 -16 -25 -19 -25 -35 -11 -10 9 -23
16 -29 16 -7 0 -12 -11 -12 -24 0 -16 11 -32 30 -46 22 -16 30 -29 30 -51 0
-26 6 -32 44 -49 25 -10 50 -29 56 -41 7 -12 13 -57 14 -100 1 -60 6 -82 20
-98 15 -17 31 -21 77 -21 32 0 70 5 84 12 14 6 25 16 25 23 0 6 -5 16 -12 23
-7 7 -35 12 -64 12 -34 0 -56 5 -64 16 -12 13 -1 27 71 100 46 47 116 109 155
139 39 30 76 55 83 55 6 0 11 5 11 11 0 6 -10 19 -22 30 -13 10 -30 18 -39 19
-9 0 -63 -53 -119 -117 -57 -65 -115 -128 -131 -141 -25 -20 -28 -21 -32 -5
-3 10 -8 31 -12 48 -3 16 -24 44 -44 62 -21 18 -41 41 -44 52 -2 11 2 29 10
41 8 11 13 30 11 43 -2 13 -11 23 -24 25z"/>
</g>
</svg>
