<?xml version="1.0" standalone="no"?>
<!DOCTYPE svg PUBLIC "-//W3C//DTD SVG 20010904//EN"
 "http://www.w3.org/TR/2001/REC-SVG-20010904/DTD/svg10.dtd">
<svg version="1.0" xmlns="http://www.w3.org/2000/svg"
 width="56.000000pt" height="56.000000pt" viewBox="0 0 56.000000 56.000000"
 preserveAspectRatio="xMidYMid meet">
<metadata>
Created by potrace 1.16, written by Peter Selinger 2001-2019
</metadata>
<g transform="translate(0.000000,56.000000) scale(0.100000,-0.100000)"
fill="#000000" stroke="none">
<path d="M25 560 c-9 0 -15 -10 -15 -26 0 -19 7 -28 30 -37 16 -6 30 -17 30
-24 0 -7 6 -32 12 -55 9 -29 30 -55 71 -92 35 -31 57 -58 57 -71 0 -12 -5 -26
-11 -32 -7 -7 -12 -36 -12 -65 -1 -29 3 -70 7 -91 6 -30 13 -40 43 -52 19 -8
65 -15 100 -15 55 0 64 2 59 16 -3 9 -6 18 -6 20 0 2 -20 4 -44 4 -26 0 -48 6
-56 15 -10 12 -8 22 9 50 12 20 21 51 21 69 0 19 10 46 22 62 12 16 37 44 56
62 19 17 44 32 55 32 11 0 36 5 54 12 23 9 33 18 33 33 0 12 -9 30 -19 39 -12
11 -25 15 -33 10 -7 -4 -21 -18 -30 -29 -9 -12 -56 -41 -103 -64 -87 -43 -87
-43 -114 -19 -14 13 -42 36 -62 51 -20 14 -44 41 -53 60 -9 19 -16 51 -16 70
0 32 -3 35 -35 41 -19 4 -35 11 -35 16 0 6 -7 10 -15 10z m293 -281 c6 1 12
-2 12 -6 0 -5 -7 -16 -14 -25 -7 -10 -18 -18 -25 -18 -6 0 -11 9 -11 19 0 11
6 22 13 24 6 3 18 6 25 6z m-82 -60 c9 -7 14 -32 14 -65 0 -30 -4 -54 -10 -54
-5 0 -14 18 -20 40 -6 21 -8 51 -4 65 5 20 9 23 20 14z"/>
<path d="M346 560 c-20 0 -36 -4 -36 -10 0 -5 5 -21 12 -35 6 -14 14 -25 18
-25 4 0 12 6 18 13 5 6 13 22 16 35 7 20 4 22 -28 22z"/>
</g>
</svg>
