<?xml version="1.0" standalone="no"?>
<!DOCTYPE svg PUBLIC "-//W3C//DTD SVG 20010904//EN"
 "http://www.w3.org/TR/2001/REC-SVG-20010904/DTD/svg10.dtd">
<svg version="1.0" xmlns="http://www.w3.org/2000/svg"
 width="56.000000pt" height="56.000000pt" viewBox="0 0 56.000000 56.000000"
 preserveAspectRatio="xMidYMid meet">
<metadata>
Created by potrace 1.16, written by Peter Selinger 2001-2019
</metadata>
<g transform="translate(0.000000,56.000000) scale(0.100000,-0.100000)"
fill="#000000" stroke="none">
<path d="M236 540 c-8 0 -16 -16 -20 -40 -5 -32 -11 -40 -29 -42 -12 -1 -42
-2 -67 -2 -38 -1 -45 -4 -45 -21 0 -18 7 -20 57 -20 31 0 60 -3 63 -7 4 -3 -5
-24 -19 -47 -14 -22 -50 -59 -78 -82 -29 -23 -57 -48 -61 -56 -5 -8 -6 -21 -3
-29 3 -8 17 -14 31 -14 14 0 34 9 44 19 11 11 27 33 35 49 8 16 31 41 50 55
19 15 39 27 44 27 6 0 12 -10 15 -22 3 -13 2 -45 -3 -73 -6 -40 -14 -54 -41
-75 -19 -14 -44 -35 -56 -47 -13 -12 -23 -33 -23 -47 0 -17 9 -32 27 -43 21
-14 51 -18 134 -20 107 -1 107 -1 114 24 3 14 3 28 0 31 -3 3 -44 -2 -92 -11
-78 -16 -89 -16 -110 -2 -12 9 -23 20 -23 26 0 6 5 19 10 30 6 10 16 19 22 19
6 0 16 -7 22 -16 7 -9 18 -12 28 -9 9 4 22 21 28 39 6 18 21 39 34 46 13 7 29
9 35 6 6 -4 11 0 11 8 0 9 8 16 19 16 11 0 23 5 26 10 3 5 21 10 39 10 20 0
40 8 50 19 10 11 15 25 11 30 -3 6 -20 18 -37 27 -29 15 -31 15 -62 -14 -17
-16 -49 -41 -70 -55 -22 -14 -43 -24 -47 -22 -3 3 -4 33 -2 68 5 60 4 65 -21
84 -14 12 -26 30 -26 42 0 13 9 25 23 30 13 5 29 17 37 26 13 15 12 19 -5 31
-11 8 -28 21 -38 29 -9 8 -23 15 -31 15z"/>
<path d="M505 140 c-13 0 -15 -10 -13 -52 2 -29 8 -52 13 -51 6 2 11 25 13 53
2 40 0 50 -13 50z"/>
</g>
</svg>
