<?xml version="1.0" standalone="no"?>
<!DOCTYPE svg PUBLIC "-//W3C//DTD SVG 20010904//EN"
 "http://www.w3.org/TR/2001/REC-SVG-20010904/DTD/svg10.dtd">
<svg version="1.0" xmlns="http://www.w3.org/2000/svg"
 width="56.000000pt" height="56.000000pt" viewBox="0 0 56.000000 56.000000"
 preserveAspectRatio="xMidYMid meet">
<metadata>
Created by potrace 1.16, written by Peter Selinger 2001-2019
</metadata>
<g transform="translate(0.000000,56.000000) scale(0.100000,-0.100000)"
fill="#000000" stroke="none">
<path d="M26 480 c-8 0 -17 -7 -20 -16 -3 -9 -6 -33 -6 -54 0 -20 6 -42 13
-48 6 -5 46 -13 87 -17 57 -5 83 -13 108 -32 33 -24 33 -24 4 -51 -16 -15 -37
-42 -46 -60 -11 -22 -14 -38 -8 -45 5 -7 12 -24 16 -39 3 -15 16 -34 29 -42
15 -10 65 -17 155 -21 118 -5 133 -4 139 11 4 11 -2 23 -18 36 -18 14 -36 18
-71 15 -32 -3 -52 0 -59 9 -6 7 -8 17 -5 23 4 5 8 28 10 51 2 22 9 47 16 55 6
8 13 26 15 41 1 14 9 30 16 35 8 5 27 9 42 9 16 0 48 5 73 11 41 11 44 14 44
44 0 29 -4 35 -35 45 -25 8 -40 8 -55 0 -11 -6 -20 -17 -20 -25 0 -9 -9 -15
-21 -15 -12 0 -39 -16 -60 -35 -22 -19 -50 -35 -63 -35 -13 0 -29 7 -36 15 -7
8 -16 15 -21 15 -4 0 -19 4 -33 10 -23 8 -25 12 -14 34 8 20 8 29 -2 41 -7 9
-29 15 -51 15 -36 0 -39 -2 -39 -29 0 -17 -6 -31 -16 -35 -9 -3 -24 -6 -35 -6
-16 0 -19 7 -19 45 0 32 -4 45 -14 45z m220 -261 c18 1 23 -6 28 -44 4 -25 4
-49 1 -55 -3 -5 -14 -10 -24 -10 -10 0 -25 8 -33 18 -8 9 -18 31 -21 49 -5 25
-2 33 11 36 9 3 27 5 38 6z"/>
</g>
</svg>
