<?xml version="1.0" standalone="no"?>
<!DOCTYPE svg PUBLIC "-//W3C//DTD SVG 20010904//EN"
 "http://www.w3.org/TR/2001/REC-SVG-20010904/DTD/svg10.dtd">
<svg version="1.0" xmlns="http://www.w3.org/2000/svg"
 width="56.000000pt" height="56.000000pt" viewBox="0 0 56.000000 56.000000"
 preserveAspectRatio="xMidYMid meet">
<metadata>
Created by potrace 1.16, written by Peter Selinger 2001-2019
</metadata>
<g transform="translate(0.000000,56.000000) scale(0.100000,-0.100000)"
fill="#000000" stroke="none">
<path d="M213 560 c-12 -1 -34 -28 -61 -75 -24 -41 -41 -79 -37 -85 3 -5 14
-10 23 -10 13 0 17 -9 17 -42 0 -43 0 -43 49 -55 27 -7 54 -17 60 -23 7 -7 2
-27 -17 -66 -21 -43 -26 -64 -21 -90 3 -19 14 -39 24 -44 10 -5 36 -12 59 -16
35 -6 41 -10 41 -30 0 -18 5 -24 23 -24 13 0 28 5 35 12 7 7 12 22 12 35 0 15
-10 28 -30 38 -17 9 -39 13 -49 10 -10 -3 -29 4 -44 16 -15 11 -27 29 -27 40
0 10 4 19 9 19 5 0 14 -7 21 -15 7 -8 18 -15 25 -15 7 0 15 6 18 14 3 7 4 27
2 42 -2 19 4 37 18 52 12 13 34 30 50 38 15 8 27 23 27 34 0 16 -7 20 -38 20
-29 0 -43 -7 -64 -30 -27 -30 -27 -30 -52 -5 -14 14 -39 28 -56 31 -21 5 -30
12 -30 26 0 10 12 29 27 42 27 24 27 24 1 63 -23 34 -24 41 -12 58 8 10 14 22
14 27 0 4 -8 8 -17 8z"/>
</g>
</svg>
