<?xml version="1.0" standalone="no"?>
<!DOCTYPE svg PUBLIC "-//W3C//DTD SVG 20010904//EN"
 "http://www.w3.org/TR/2001/REC-SVG-20010904/DTD/svg10.dtd">
<svg version="1.0" xmlns="http://www.w3.org/2000/svg"
 width="56.000000pt" height="56.000000pt" viewBox="0 0 56.000000 56.000000"
 preserveAspectRatio="xMidYMid meet">
<metadata>
Created by potrace 1.16, written by Peter Selinger 2001-2019
</metadata>
<g transform="translate(0.000000,56.000000) scale(0.100000,-0.100000)"
fill="#000000" stroke="none">
<path d="M210 560 c-5 0 -10 -9 -10 -20 0 -11 -4 -20 -9 -20 -6 0 -13 5 -16
10 -3 6 -13 10 -22 10 -12 0 -14 -6 -8 -27 3 -16 15 -37 26 -49 10 -11 19 -26
19 -32 0 -7 -8 -25 -17 -40 -9 -15 -30 -42 -45 -60 -16 -19 -28 -45 -28 -61 0
-16 6 -34 14 -40 11 -10 20 -5 42 24 25 34 28 35 45 19 11 -10 19 -25 19 -34
0 -10 -15 -29 -34 -43 -18 -14 -39 -39 -46 -56 -7 -17 -10 -41 -7 -53 4 -13
12 -31 19 -40 7 -10 39 -25 71 -33 32 -8 78 -15 103 -15 38 0 45 3 42 18 -2
11 -18 20 -43 26 -22 4 -46 10 -52 12 -9 2 -10 10 -3 29 6 15 10 41 10 59 0
19 6 39 14 45 8 6 38 14 67 18 30 3 64 13 77 21 13 8 22 24 22 39 0 16 -11 35
-27 49 -20 17 -40 24 -70 24 -33 0 -45 -5 -54 -21 -10 -20 -9 -21 21 -14 20 4
41 2 56 -6 13 -7 24 -16 24 -20 0 -5 -12 -15 -27 -22 -16 -8 -45 -17 -66 -20
-33 -5 -39 -3 -54 21 -9 15 -27 36 -40 48 -25 21 -25 21 3 75 15 30 34 62 42
71 13 15 13 22 -2 53 -9 19 -23 35 -31 35 -8 0 -15 5 -15 10 0 6 -4 10 -10 10z
m-4 -400 c8 0 16 -6 18 -12 3 -7 7 -30 10 -50 4 -30 2 -38 -11 -38 -9 0 -25 7
-35 17 -10 9 -18 22 -18 30 0 8 5 23 10 34 6 10 17 19 26 19z"/>
</g>
</svg>
