<?xml version="1.0" standalone="no"?>
<!DOCTYPE svg PUBLIC "-//W3C//DTD SVG 20010904//EN"
 "http://www.w3.org/TR/2001/REC-SVG-20010904/DTD/svg10.dtd">
<svg version="1.0" xmlns="http://www.w3.org/2000/svg"
 width="56.000000pt" height="56.000000pt" viewBox="0 0 56.000000 56.000000"
 preserveAspectRatio="xMidYMid meet">
<metadata>
Created by potrace 1.16, written by Peter Selinger 2001-2019
</metadata>
<g transform="translate(0.000000,56.000000) scale(0.100000,-0.100000)"
fill="#000000" stroke="none">
<path d="M54 490 c-7 7 -16 5 -27 -8 -9 -9 -19 -35 -22 -57 -4 -22 -2 -52 4
-67 6 -15 19 -28 32 -30 13 -2 29 -17 40 -38 16 -29 28 -37 81 -52 34 -10 65
-21 70 -26 6 -6 -1 -25 -16 -47 -14 -21 -26 -50 -26 -65 0 -15 10 -36 23 -48
19 -18 39 -23 114 -27 74 -4 92 -3 96 10 4 8 -5 23 -21 35 -18 15 -35 20 -53
16 -19 -3 -29 0 -33 10 -3 9 -6 29 -6 46 0 20 9 39 29 57 16 15 53 35 83 45
29 9 72 20 96 23 36 5 42 9 42 29 0 23 -4 24 -59 24 -44 0 -70 -6 -103 -25
-24 -13 -55 -36 -68 -50 -13 -14 -29 -25 -36 -25 -6 0 -17 7 -24 15 -7 9 -49
32 -93 52 -79 37 -79 37 -74 84 4 36 2 51 -9 60 -12 10 -20 10 -35 1 -16 -10
-19 -9 -19 6 0 10 5 23 12 30 8 8 9 15 2 22z m195 -346 c5 -5 12 -19 16 -31 5
-17 2 -23 -10 -23 -8 0 -18 7 -21 15 -4 8 -3 23 0 32 4 10 10 13 15 7z"/>
</g>
</svg>
