<?xml version="1.0" standalone="no"?>
<!DOCTYPE svg PUBLIC "-//W3C//DTD SVG 20010904//EN"
 "http://www.w3.org/TR/2001/REC-SVG-20010904/DTD/svg10.dtd">
<svg version="1.0" xmlns="http://www.w3.org/2000/svg"
 width="56.000000pt" height="56.000000pt" viewBox="0 0 56.000000 56.000000"
 preserveAspectRatio="xMidYMid meet">
<metadata>
Created by potrace 1.16, written by Peter Selinger 2001-2019
</metadata>
<g transform="translate(0.000000,56.000000) scale(0.100000,-0.100000)"
fill="#000000" stroke="none">
<path d="M126 490 c-4 0 -16 -11 -28 -25 -13 -15 -37 -28 -60 -31 -21 -4 -38
-10 -38 -13 0 -4 5 -12 12 -19 7 -7 29 -12 49 -12 21 0 40 -4 44 -9 3 -5 22
-15 43 -21 20 -7 52 -26 70 -43 17 -17 32 -34 32 -39 0 -4 -11 -24 -25 -44
-17 -25 -25 -50 -25 -79 0 -32 6 -47 26 -66 24 -22 32 -24 126 -22 57 2 107 8
114 14 8 6 14 15 14 20 0 5 -14 16 -31 24 -28 15 -33 15 -74 -5 -29 -14 -52
-19 -67 -15 -13 4 -29 12 -35 17 -7 6 -13 13 -13 17 0 3 15 6 32 6 31 0 33 3
39 40 3 22 13 54 22 71 9 18 29 42 44 55 16 13 49 32 73 43 25 10 55 22 68 27
14 6 22 17 22 33 0 21 -5 24 -42 28 -39 4 -47 0 -86 -37 -24 -22 -61 -57 -82
-77 -22 -21 -43 -38 -49 -38 -5 0 -21 19 -34 43 -20 34 -35 46 -67 56 -41 12
-42 14 -36 46 5 27 3 36 -13 44 -11 6 -22 11 -25 11z"/>
</g>
</svg>
