<?xml version="1.0" standalone="no"?>
<!DOCTYPE svg PUBLIC "-//W3C//DTD SVG 20010904//EN"
 "http://www.w3.org/TR/2001/REC-SVG-20010904/DTD/svg10.dtd">
<svg version="1.0" xmlns="http://www.w3.org/2000/svg"
 width="56.000000pt" height="56.000000pt" viewBox="0 0 56.000000 56.000000"
 preserveAspectRatio="xMidYMid meet">
<metadata>
Created by potrace 1.16, written by Peter Selinger 2001-2019
</metadata>
<g transform="translate(0.000000,56.000000) scale(0.100000,-0.100000)"
fill="#000000" stroke="none">
<path d="M473 470 c-6 0 -31 -15 -56 -34 -24 -18 -73 -45 -109 -60 -61 -24
-69 -25 -95 -12 -15 8 -36 17 -46 20 -9 3 -22 17 -27 30 -5 14 -19 30 -30 36
-12 6 -28 9 -36 6 -7 -3 -11 -11 -9 -18 3 -7 -8 -21 -25 -30 -16 -9 -30 -22
-30 -28 0 -6 17 -10 43 -9 26 1 55 -5 76 -17 19 -11 39 -27 45 -36 8 -13 5
-22 -11 -40 -12 -13 -27 -36 -33 -52 -9 -23 -7 -35 8 -65 10 -20 32 -42 48
-50 16 -8 65 -18 109 -23 44 -4 98 -11 121 -14 33 -5 42 -2 48 11 3 9 4 21 0
26 -3 5 -22 9 -42 10 -20 0 -59 8 -87 17 -48 17 -50 19 -47 51 1 19 7 40 12
46 5 7 7 15 3 18 -3 4 4 18 16 31 13 14 20 29 17 35 -4 6 11 15 36 21 24 6 52
14 63 17 11 3 44 14 73 25 43 16 52 24 52 43 0 19 -8 26 -37 34 -21 6 -43 11
-50 11z m-227 -203 c2 -2 0 -17 -5 -34 -5 -18 -5 -37 1 -47 5 -9 7 -24 4 -32
-3 -9 -15 -14 -28 -12 -12 2 -30 17 -40 34 -19 32 -19 32 19 55 21 13 40 27
42 32 1 4 5 7 7 4z"/>
</g>
</svg>
