<?xml version="1.0" standalone="no"?>
<!DOCTYPE svg PUBLIC "-//W3C//DTD SVG 20010904//EN"
 "http://www.w3.org/TR/2001/REC-SVG-20010904/DTD/svg10.dtd">
<svg version="1.0" xmlns="http://www.w3.org/2000/svg"
 width="56.000000pt" height="56.000000pt" viewBox="0 0 56.000000 56.000000"
 preserveAspectRatio="xMidYMid meet">
<metadata>
Created by potrace 1.16, written by Peter Selinger 2001-2019
</metadata>
<g transform="translate(0.000000,56.000000) scale(0.100000,-0.100000)"
fill="#000000" stroke="none">
<path d="M106 510 c-11 0 -16 -9 -16 -29 0 -17 -5 -33 -11 -36 -5 -4 -21 -4
-35 -1 -15 4 -24 14 -24 26 0 11 -4 20 -10 20 -5 0 -10 -15 -10 -33 0 -18 7
-43 16 -55 12 -18 22 -22 44 -17 21 5 34 0 57 -22 16 -15 47 -43 68 -61 38
-32 38 -32 12 -60 -15 -16 -27 -37 -27 -48 0 -10 9 -30 20 -44 11 -14 20 -30
20 -36 0 -6 11 -23 25 -37 20 -19 41 -27 86 -32 40 -5 64 -3 74 5 7 6 11 18 9
25 -3 7 -19 18 -36 24 -17 6 -45 11 -63 11 -18 0 -44 9 -59 21 -20 16 -26 29
-26 60 0 28 4 39 15 39 9 0 18 -8 21 -17 3 -10 12 -33 20 -51 8 -19 20 -32 26
-30 6 2 19 29 27 60 9 31 24 65 34 76 11 12 37 22 70 26 29 3 69 9 90 12 29 5
37 11 37 28 0 15 -9 25 -30 33 -26 10 -38 8 -90 -18 -33 -16 -63 -29 -65 -29
-3 0 -24 -9 -48 -20 -43 -20 -43 -20 -92 26 -28 25 -63 53 -78 61 -27 14 -28
15 -13 38 9 13 16 33 16 44 0 11 -9 25 -19 31 -11 5 -27 10 -35 10z"/>
</g>
</svg>
