<?xml version="1.0" standalone="no"?>
<!DOCTYPE svg PUBLIC "-//W3C//DTD SVG 20010904//EN"
 "http://www.w3.org/TR/2001/REC-SVG-20010904/DTD/svg10.dtd">
<svg version="1.0" xmlns="http://www.w3.org/2000/svg"
 width="56.000000pt" height="56.000000pt" viewBox="0 0 56.000000 56.000000"
 preserveAspectRatio="xMidYMid meet">
<metadata>
Created by potrace 1.16, written by Peter Selinger 2001-2019
</metadata>
<g transform="translate(0.000000,56.000000) scale(0.100000,-0.100000)"
fill="#000000" stroke="none">
<path d="M95 560 c-21 0 -25 -5 -25 -30 0 -17 5 -39 10 -50 6 -11 15 -29 20
-40 6 -11 10 -26 10 -34 0 -7 -7 -27 -15 -42 -8 -16 -15 -34 -15 -41 0 -7 18
-27 40 -44 29 -23 40 -40 40 -59 0 -15 -17 -49 -40 -80 -22 -29 -40 -55 -40
-56 0 -2 4 -14 10 -28 5 -14 16 -26 24 -26 8 0 26 24 41 53 15 28 32 58 37 65
8 9 14 9 24 1 8 -6 17 -29 20 -51 4 -21 11 -41 17 -45 6 -4 28 13 48 37 21 24
40 42 43 39 3 -3 24 -33 46 -67 26 -41 46 -62 59 -62 11 0 23 4 26 10 3 5 -17
39 -46 76 -32 41 -52 78 -54 97 -1 20 -13 39 -34 56 -18 15 -31 35 -31 48 0
13 11 30 25 39 14 9 25 25 25 35 0 16 -8 19 -53 19 -31 0 -61 6 -73 15 -10 8
-27 15 -36 15 -12 0 -18 8 -18 24 0 17 -9 27 -30 36 -26 11 -30 18 -30 51 0
35 -3 39 -25 39z m79 -160 c6 0 23 -18 38 -39 17 -24 25 -45 22 -59 -4 -11
-12 -23 -19 -26 -7 -2 -29 7 -49 20 -20 14 -36 27 -36 30 0 3 7 21 16 40 9 19
21 34 28 34z m96 -160 c11 0 27 -11 36 -25 13 -20 15 -31 6 -50 -6 -13 -20
-29 -32 -35 -11 -6 -20 -7 -20 -3 -1 4 -5 28 -10 53 -4 25 -6 48 -4 52 3 5 14
8 24 8z"/>
<path d="M333 500 c-12 0 -24 -4 -28 -9 -3 -5 5 -17 17 -25 12 -9 26 -16 30
-16 5 0 28 -9 53 -21 25 -12 52 -19 60 -15 8 3 15 10 15 15 0 6 -12 19 -27 28
-15 10 -43 24 -63 30 -19 7 -45 13 -57 13z"/>
</g>
</svg>
