<?xml version="1.0" standalone="no"?>
<!DOCTYPE svg PUBLIC "-//W3C//DTD SVG 20010904//EN"
 "http://www.w3.org/TR/2001/REC-SVG-20010904/DTD/svg10.dtd">
<svg version="1.0" xmlns="http://www.w3.org/2000/svg"
 width="56.000000pt" height="56.000000pt" viewBox="0 0 56.000000 56.000000"
 preserveAspectRatio="xMidYMid meet">
<metadata>
Created by potrace 1.16, written by Peter Selinger 2001-2019
</metadata>
<g transform="translate(0.000000,56.000000) scale(0.100000,-0.100000)"
fill="#000000" stroke="none">
<path d="M265 560 c-9 0 -15 -5 -13 -11 2 -6 8 -10 13 -10 5 0 11 4 13 10 2 6
-4 11 -13 11z"/>
<path d="M423 559 c-10 -1 -29 -7 -42 -14 -13 -8 -28 -20 -33 -29 -7 -12 -3
-13 24 -5 18 5 36 9 41 9 4 0 28 -19 52 -41 28 -25 51 -39 60 -35 8 3 15 12
15 20 0 8 -16 28 -35 45 -20 17 -42 31 -50 31 -8 0 -15 5 -15 10 0 6 -8 10
-17 9z"/>
<path d="M66 489 c-20 18 -25 20 -35 7 -9 -11 -6 -20 14 -44 15 -18 25 -42 25
-60 0 -17 -4 -34 -10 -37 -5 -3 -10 -10 -10 -14 0 -5 12 -25 26 -46 22 -33 25
-45 19 -84 -4 -25 -10 -48 -14 -51 -3 -3 -19 -30 -34 -60 -15 -30 -27 -63 -27
-73 0 -10 8 -17 20 -17 13 0 26 13 38 37 10 21 31 61 47 88 15 28 37 64 48 80
11 17 36 44 56 62 20 18 42 32 49 33 6 0 12 -1 12 -2 0 -2 4 -29 10 -62 5 -32
15 -64 21 -72 6 -8 15 -14 20 -14 5 0 25 17 44 37 21 22 38 33 43 28 5 -6 20
-47 35 -93 15 -45 34 -93 43 -107 9 -14 25 -25 35 -25 14 0 19 7 19 30 0 17
-4 30 -10 30 -5 0 -10 7 -10 15 0 8 -18 54 -39 102 -22 49 -44 107 -49 131 -6
23 -17 54 -26 67 -10 15 -14 35 -11 48 4 15 0 29 -14 41 -11 10 -28 16 -38 14
-10 -2 -25 -19 -35 -38 -9 -19 -53 -71 -99 -115 -83 -80 -83 -80 -89 -43 -4
20 -12 44 -20 53 -8 10 -10 29 -6 57 4 23 14 50 22 59 12 14 13 22 5 38 -7 11
-17 18 -25 15 -8 -3 -17 -13 -20 -21 -6 -14 -10 -13 -30 6z m282 -119 c5 0 14
-6 20 -13 6 -7 12 -29 14 -50 1 -20 -1 -40 -5 -44 -5 -4 -16 -2 -25 3 -9 6
-18 26 -20 43 -2 18 -1 39 2 47 3 8 9 14 14 14z"/>
<path d="M16 178 c-10 2 -16 -3 -16 -13 0 -10 7 -15 18 -13 9 2 16 8 15 13 -1
6 -9 11 -17 13z"/>
</g>
</svg>
