<?xml version="1.0" standalone="no"?>
<!DOCTYPE svg PUBLIC "-//W3C//DTD SVG 20010904//EN"
 "http://www.w3.org/TR/2001/REC-SVG-20010904/DTD/svg10.dtd">
<svg version="1.0" xmlns="http://www.w3.org/2000/svg"
 width="56.000000pt" height="56.000000pt" viewBox="0 0 56.000000 56.000000"
 preserveAspectRatio="xMidYMid meet">
<metadata>
Created by potrace 1.16, written by Peter Selinger 2001-2019
</metadata>
<g transform="translate(0.000000,56.000000) scale(0.100000,-0.100000)"
fill="#000000" stroke="none">
<path d="M195 524 c-13 17 -14 17 -24 -3 -6 -11 -11 -29 -11 -41 0 -13 8 -24
20 -27 14 -4 22 -17 26 -44 4 -26 16 -48 35 -63 16 -14 30 -38 34 -60 6 -30 2
-41 -22 -73 -16 -21 -37 -50 -46 -65 -9 -15 -18 -48 -19 -73 -1 -31 4 -50 13
-56 8 -6 44 -8 82 -4 38 3 77 10 88 16 10 5 19 16 19 24 0 7 -6 17 -12 22 -7
4 -42 8 -78 8 -59 0 -65 2 -68 21 -2 12 8 34 22 50 24 29 24 29 35 2 6 -16 15
-28 20 -28 5 0 17 12 27 28 11 15 25 40 31 56 7 15 13 36 13 46 0 10 -9 21
-20 25 -11 3 -24 4 -29 1 -5 -4 -14 8 -20 26 -6 18 -22 46 -36 62 -14 16 -25
40 -25 53 0 14 9 36 20 50 15 19 17 30 9 44 -5 10 -12 19 -15 19 -2 0 -16 -8
-31 -17 -24 -16 -26 -16 -38 1z"/>
</g>
</svg>
