<?xml version="1.0" standalone="no"?>
<!DOCTYPE svg PUBLIC "-//W3C//DTD SVG 20010904//EN"
 "http://www.w3.org/TR/2001/REC-SVG-20010904/DTD/svg10.dtd">
<svg version="1.0" xmlns="http://www.w3.org/2000/svg"
 width="56.000000pt" height="56.000000pt" viewBox="0 0 56.000000 56.000000"
 preserveAspectRatio="xMidYMid meet">
<metadata>
Created by potrace 1.16, written by Peter Selinger 2001-2019
</metadata>
<g transform="translate(0.000000,56.000000) scale(0.100000,-0.100000)"
fill="#000000" stroke="none">
<path d="M293 560 c-24 0 -44 -7 -53 -18 -8 -9 -28 -24 -45 -32 -16 -8 -47
-25 -67 -39 -26 -16 -38 -31 -38 -47 0 -12 -9 -39 -21 -59 -12 -19 -18 -42
-15 -50 3 -8 12 -15 21 -15 9 0 27 12 42 28 25 27 25 27 58 -11 18 -21 36 -54
39 -73 6 -31 3 -39 -38 -80 -38 -38 -46 -52 -46 -83 0 -25 7 -44 19 -55 13
-12 43 -19 98 -22 78 -6 78 -6 53 15 -14 11 -33 23 -42 27 -10 3 -18 15 -18
28 0 13 12 35 26 49 14 14 23 30 20 35 -3 6 0 14 7 20 6 5 26 13 42 17 17 4
59 8 95 9 49 1 65 5 67 16 2 8 -13 25 -32 38 -27 17 -40 20 -55 12 -11 -5 -30
-15 -42 -22 -13 -6 -36 -18 -51 -26 -15 -8 -34 -11 -42 -8 -8 3 -15 13 -15 23
0 10 -25 51 -55 91 -45 58 -54 77 -49 98 4 17 20 32 49 45 23 11 51 28 62 38
11 11 28 21 38 22 10 2 20 10 23 17 2 8 -8 12 -35 12z m-119 -440 c10 0 16 -9
16 -21 0 -12 -5 -19 -12 -17 -7 3 -14 12 -16 21 -2 10 3 17 12 17z"/>
</g>
</svg>
