<?xml version="1.0" standalone="no"?>
<!DOCTYPE svg PUBLIC "-//W3C//DTD SVG 20010904//EN"
 "http://www.w3.org/TR/2001/REC-SVG-20010904/DTD/svg10.dtd">
<svg version="1.0" xmlns="http://www.w3.org/2000/svg"
 width="56.000000pt" height="56.000000pt" viewBox="0 0 56.000000 56.000000"
 preserveAspectRatio="xMidYMid meet">
<metadata>
Created by potrace 1.16, written by Peter Selinger 2001-2019
</metadata>
<g transform="translate(0.000000,56.000000) scale(0.100000,-0.100000)"
fill="#000000" stroke="none">
<path d="M240 560 c-5 0 -10 -4 -10 -10 0 -5 -9 -18 -21 -29 -21 -19 -21 -19
0 -40 18 -18 19 -24 9 -53 -6 -18 -22 -49 -35 -68 -12 -19 -23 -41 -23 -48 0
-10 7 -12 25 -8 24 6 25 5 25 -48 0 -42 -4 -55 -17 -61 -17 -6 -17 -7 0 -19 9
-7 17 -20 17 -28 0 -8 9 -23 20 -33 16 -14 21 -15 24 -4 3 8 7 34 8 58 3 38 7
47 35 62 17 10 51 19 75 21 40 3 43 5 43 33 0 26 -4 30 -32 33 -24 2 -33 -1
-38 -16 -3 -11 -21 -27 -39 -36 -19 -9 -36 -16 -39 -16 -3 0 -12 22 -20 48 -9
26 -14 59 -11 73 3 13 11 35 17 49 6 14 18 33 26 43 12 15 13 22 3 35 -7 9
-16 27 -22 40 -5 12 -14 22 -20 22z"/>
<path d="M167 170 c-3 0 -15 -12 -26 -26 -12 -15 -21 -31 -21 -36 0 -5 6 -23
14 -41 11 -27 23 -36 66 -50 29 -9 74 -17 101 -17 27 0 49 4 49 10 0 5 -9 14
-19 20 -11 5 -40 10 -65 10 -34 0 -52 6 -76 26 -28 24 -31 31 -25 65 4 22 4
39 2 39z"/>
</g>
</svg>
