<?xml version="1.0" standalone="no"?>
<!DOCTYPE svg PUBLIC "-//W3C//DTD SVG 20010904//EN"
 "http://www.w3.org/TR/2001/REC-SVG-20010904/DTD/svg10.dtd">
<svg version="1.0" xmlns="http://www.w3.org/2000/svg"
 width="56.000000pt" height="56.000000pt" viewBox="0 0 56.000000 56.000000"
 preserveAspectRatio="xMidYMid meet">
<metadata>
Created by potrace 1.16, written by Peter Selinger 2001-2019
</metadata>
<g transform="translate(0.000000,56.000000) scale(0.100000,-0.100000)"
fill="#000000" stroke="none">
<path d="M271 560 c-33 0 -61 -3 -63 -7 -1 -5 -34 -24 -73 -43 -52 -26 -72
-42 -80 -63 -7 -21 -5 -34 7 -55 13 -21 26 -28 55 -30 21 -1 47 -4 58 -7 11
-2 29 -19 39 -36 19 -32 19 -32 -33 -80 -34 -32 -51 -57 -51 -73 0 -13 6 -39
14 -57 8 -19 27 -46 43 -60 15 -15 51 -32 78 -38 28 -7 88 -10 134 -9 68 2 86
6 95 21 9 15 7 21 -9 33 -15 11 -39 13 -99 10 -59 -4 -87 -1 -110 11 -17 8
-39 22 -48 31 -10 8 -18 27 -18 42 0 15 10 36 25 50 24 23 24 23 33 -1 5 -13
11 -31 14 -39 4 -11 9 -7 16 12 6 15 27 42 47 60 20 18 44 37 53 42 10 6 32
12 51 15 19 3 39 14 45 24 9 15 6 22 -16 42 -28 24 -28 24 -105 -11 -42 -19
-81 -33 -87 -31 -7 3 -20 21 -31 42 -20 36 -20 37 -1 50 10 8 24 16 30 19 7 3
3 12 -10 23 -12 10 -30 23 -39 28 -15 9 -16 15 -6 33 8 15 21 22 41 22 15 0
35 3 44 6 9 3 16 10 16 15 0 5 -27 9 -59 9z m-90 -80 c10 0 20 -3 22 -7 3 -5
1 -18 -4 -31 -5 -12 -16 -25 -25 -29 -8 -3 -23 1 -32 10 -14 15 -14 18 3 37
10 11 26 20 36 20z"/>
</g>
</svg>
