<?xml version="1.0" standalone="no"?>
<!DOCTYPE svg PUBLIC "-//W3C//DTD SVG 20010904//EN"
 "http://www.w3.org/TR/2001/REC-SVG-20010904/DTD/svg10.dtd">
<svg version="1.0" xmlns="http://www.w3.org/2000/svg"
 width="56.000000pt" height="56.000000pt" viewBox="0 0 56.000000 56.000000"
 preserveAspectRatio="xMidYMid meet">
<metadata>
Created by potrace 1.16, written by Peter Selinger 2001-2019
</metadata>
<g transform="translate(0.000000,56.000000) scale(0.100000,-0.100000)"
fill="#000000" stroke="none">
<path d="M146 550 c-2 8 -5 10 -5 4 -1 -6 -23 -34 -50 -62 -45 -47 -48 -53
-31 -62 10 -5 30 -10 44 -10 14 0 27 -4 31 -10 3 -5 12 -7 19 -4 7 3 29 -12
49 -33 21 -20 37 -45 37 -55 0 -9 -9 -22 -19 -28 -11 -5 -29 -25 -40 -44 -15
-23 -21 -50 -21 -88 0 -32 6 -62 15 -74 8 -10 15 -25 15 -31 0 -7 -6 -13 -14
-13 -7 0 -19 7 -26 15 -7 8 -18 15 -24 15 -7 0 -20 -6 -31 -13 -17 -13 -17
-15 3 -35 20 -20 32 -22 157 -22 112 0 135 2 135 15 0 8 -11 22 -24 30 -13 9
-41 19 -62 22 -22 3 -45 10 -51 16 -7 5 -13 24 -13 43 0 18 6 37 14 41 7 4 25
32 40 60 14 29 36 59 49 66 12 8 54 15 92 16 39 1 74 6 79 11 5 5 6 16 3 24
-4 9 -20 24 -37 35 -26 16 -37 17 -68 8 -20 -6 -44 -16 -52 -22 -8 -7 -27 -15
-43 -19 -23 -5 -29 -2 -37 18 -5 13 -25 40 -45 60 -19 20 -39 36 -44 36 -4 0
-15 17 -24 38 -9 20 -18 44 -21 52z"/>
<path d="M337 517 c-16 16 -17 16 -17 1 0 -9 5 -20 11 -23 6 -4 13 -4 17 -1 3
4 -2 14 -11 23z"/>
<path d="M376 459 c-10 9 -16 9 -21 1 -4 -7 -2 -17 4 -23 8 -8 14 -8 21 -1 8
8 6 15 -4 23z"/>
<path d="M293 139 c-10 0 -24 -3 -30 -6 -7 -2 -13 -11 -13 -19 0 -8 8 -14 18
-14 10 0 23 5 30 12 7 7 12 16 12 20 0 4 -8 8 -17 7z"/>
</g>
</svg>
