<?xml version="1.0" standalone="no"?>
<!DOCTYPE svg PUBLIC "-//W3C//DTD SVG 20010904//EN"
 "http://www.w3.org/TR/2001/REC-SVG-20010904/DTD/svg10.dtd">
<svg version="1.0" xmlns="http://www.w3.org/2000/svg"
 width="56.000000pt" height="56.000000pt" viewBox="0 0 56.000000 56.000000"
 preserveAspectRatio="xMidYMid meet">
<metadata>
Created by potrace 1.16, written by Peter Selinger 2001-2019
</metadata>
<g transform="translate(0.000000,56.000000) scale(0.100000,-0.100000)"
fill="#000000" stroke="none">
<path d="M133 560 c-45 -1 -50 -3 -81 -45 -23 -32 -32 -55 -32 -83 0 -27 7
-45 23 -60 13 -12 32 -22 43 -22 10 0 24 -10 29 -22 6 -14 28 -29 55 -38 25
-9 46 -22 47 -30 2 -8 -24 -35 -57 -60 -33 -24 -62 -52 -65 -60 -3 -9 4 -35
15 -57 11 -23 25 -45 32 -49 6 -4 48 -11 92 -16 45 -4 119 -11 165 -14 77 -7
83 -6 79 12 -3 15 -20 20 -108 32 -58 7 -125 19 -149 26 -25 7 -51 22 -58 32
-7 11 -9 24 -5 29 4 6 22 22 40 37 28 24 36 26 62 16 23 -7 34 -7 45 2 8 7 15
18 15 24 0 7 41 17 107 26 58 8 108 20 110 26 2 6 -8 23 -21 37 -17 18 -35 27
-55 27 -17 0 -60 -12 -96 -26 -66 -27 -66 -27 -88 -5 -13 11 -41 27 -62 34
-23 8 -41 22 -43 31 -2 10 4 26 14 37 9 10 30 19 46 19 17 0 28 5 28 14 0 8
-21 26 -46 40 -25 14 -50 23 -55 20 -5 -3 -18 -23 -30 -45 -13 -26 -26 -39
-36 -37 -9 2 -21 11 -27 20 -7 11 -7 26 0 45 7 22 21 32 59 44 27 10 51 22 53
28 2 7 -14 11 -45 11z"/>
</g>
</svg>
