<?xml version="1.0" standalone="no"?>
<!DOCTYPE svg PUBLIC "-//W3C//DTD SVG 20010904//EN"
 "http://www.w3.org/TR/2001/REC-SVG-20010904/DTD/svg10.dtd">
<svg version="1.0" xmlns="http://www.w3.org/2000/svg"
 width="56.000000pt" height="56.000000pt" viewBox="0 0 56.000000 56.000000"
 preserveAspectRatio="xMidYMid meet">
<metadata>
Created by potrace 1.16, written by Peter Selinger 2001-2019
</metadata>
<g transform="translate(0.000000,56.000000) scale(0.100000,-0.100000)"
fill="#000000" stroke="none">
<path d="M61 540 c-3 0 -17 -6 -31 -13 -16 -8 -26 -23 -28 -40 -2 -15 1 -27 5
-27 5 0 24 15 41 33 18 18 29 36 26 40 -4 4 -10 7 -13 7z"/>
<path d="M120 520 c-5 0 -11 -3 -12 -7 0 -5 -2 -12 -3 -18 -2 -5 -3 -16 -4
-22 0 -7 -18 -16 -40 -19 -21 -3 -44 -10 -51 -14 -10 -6 -9 -15 7 -42 13 -22
26 -32 39 -30 10 2 37 6 59 8 34 4 45 0 73 -26 17 -16 32 -35 32 -41 0 -6 -8
-23 -19 -37 -10 -15 -26 -49 -35 -75 -16 -48 -16 -48 21 -85 21 -21 56 -47 79
-59 29 -15 64 -22 125 -24 84 -4 84 -4 87 33 2 28 -1 39 -16 47 -11 6 -22 8
-25 4 -4 -3 -47 -8 -96 -10 -83 -3 -91 -2 -101 18 -10 17 -8 23 9 36 12 8 21
24 21 36 1 12 12 40 25 62 14 22 31 51 37 65 7 13 28 39 46 57 18 18 40 33 50
33 9 0 42 9 72 20 30 11 56 20 57 20 2 0 3 14 3 30 0 23 -5 30 -19 30 -11 0
-23 -4 -26 -10 -3 -5 -14 -10 -24 -10 -10 0 -50 -21 -87 -47 -38 -25 -70 -50
-72 -55 -2 -4 -13 -8 -23 -8 -13 0 -24 -10 -31 -31 -10 -29 -11 -30 -25 -10
-8 12 -22 21 -32 21 -10 0 -24 6 -30 14 -6 7 -9 20 -6 28 3 8 -1 20 -9 27 -7
6 -12 20 -9 30 3 11 -4 28 -16 40 -12 12 -25 21 -31 21z"/>
</g>
</svg>
