<?xml version="1.0" standalone="no"?>
<!DOCTYPE svg PUBLIC "-//W3C//DTD SVG 20010904//EN"
 "http://www.w3.org/TR/2001/REC-SVG-20010904/DTD/svg10.dtd">
<svg version="1.0" xmlns="http://www.w3.org/2000/svg"
 width="56.000000pt" height="56.000000pt" viewBox="0 0 56.000000 56.000000"
 preserveAspectRatio="xMidYMid meet">
<metadata>
Created by potrace 1.16, written by Peter Selinger 2001-2019
</metadata>
<g transform="translate(0.000000,56.000000) scale(0.100000,-0.100000)"
fill="#000000" stroke="none">
<path d="M279 560 c-28 0 -28 0 -7 -49 20 -49 20 -49 -3 -80 -18 -25 -20 -34
-10 -44 10 -9 15 -8 25 6 7 9 17 17 23 17 5 0 21 -25 36 -55 15 -31 27 -62 27
-71 0 -8 -15 -34 -32 -57 -18 -23 -37 -45 -42 -48 -5 -4 -6 -14 -3 -23 4 -9
13 -16 21 -16 7 0 16 10 20 23 3 12 19 28 36 36 28 12 33 11 53 -7 12 -12 28
-41 36 -66 7 -25 24 -57 38 -70 14 -14 29 -23 34 -20 5 3 9 13 9 23 0 10 -6
24 -14 30 -8 7 -18 27 -21 44 -3 18 -11 44 -17 60 -6 15 -14 27 -18 27 -4 0
-12 18 -18 39 -7 21 -28 65 -47 97 -19 32 -35 61 -35 64 0 4 11 12 25 18 14 6
25 16 25 21 0 6 -9 15 -19 21 -11 5 -29 10 -41 10 -13 0 -26 12 -37 35 -13 28
-23 35 -44 35z"/>
<path d="M445 560 c-8 0 -15 -6 -15 -14 0 -8 16 -31 35 -52 29 -31 37 -35 50
-24 13 11 14 16 2 34 -8 12 -24 25 -35 31 -12 5 -22 13 -22 17 0 5 -7 8 -15 8z"/>
<path d="M51 450 c-6 0 -14 -7 -18 -16 -3 -9 0 -20 7 -24 11 -7 11 -19 -3 -67
-9 -32 -19 -70 -22 -85 -3 -16 0 -31 7 -38 7 -5 24 -18 36 -28 24 -18 24 -18
-18 -78 -30 -43 -41 -69 -38 -88 3 -28 3 -28 31 -6 15 12 27 31 27 43 0 12 9
28 20 35 11 7 20 23 20 36 0 14 5 28 10 31 6 3 10 15 10 26 0 10 4 19 9 19 5
0 27 26 48 58 22 31 45 72 51 90 6 17 7 32 3 32 -5 0 -20 -9 -35 -21 -14 -11
-26 -29 -26 -39 0 -11 -13 -33 -29 -49 -16 -16 -31 -35 -34 -43 -3 -10 -11 -7
-28 10 -20 19 -22 25 -11 42 6 11 12 31 12 44 0 14 4 28 10 31 5 3 10 16 10
29 0 13 -8 30 -18 39 -10 10 -24 17 -31 17z"/>
<path d="M292 287 c-5 21 -10 30 -11 20 -1 -9 -7 -26 -13 -37 -10 -15 -10 -22
0 -32 9 -9 15 -9 23 -1 8 8 8 22 1 50z"/>
<path d="M271 214 c-4 3 -11 3 -15 -1 -3 -3 -6 -24 -6 -45 0 -27 4 -38 15 -38
11 0 15 11 15 39 0 22 -4 42 -9 45z"/>
</g>
</svg>
