<?xml version="1.0" standalone="no"?>
<!DOCTYPE svg PUBLIC "-//W3C//DTD SVG 20010904//EN"
 "http://www.w3.org/TR/2001/REC-SVG-20010904/DTD/svg10.dtd">
<svg version="1.0" xmlns="http://www.w3.org/2000/svg"
 width="56.000000pt" height="56.000000pt" viewBox="0 0 56.000000 56.000000"
 preserveAspectRatio="xMidYMid meet">
<metadata>
Created by potrace 1.16, written by Peter Selinger 2001-2019
</metadata>
<g transform="translate(0.000000,56.000000) scale(0.100000,-0.100000)"
fill="#000000" stroke="none">
<path d="M141 560 c-20 0 -34 -8 -47 -27 -10 -16 -25 -39 -32 -53 -11 -20 -11
-29 -1 -48 10 -18 10 -30 2 -53 -11 -28 -9 -33 14 -54 22 -18 27 -31 27 -72 0
-33 -7 -61 -21 -84 -12 -19 -32 -53 -44 -76 -14 -28 -20 -50 -15 -67 3 -14 12
-26 19 -26 6 1 22 17 35 36 12 20 22 42 22 49 0 8 8 18 17 23 9 5 24 23 32 39
9 17 29 49 44 72 15 23 33 41 40 38 7 -2 13 -23 14 -47 1 -24 9 -50 17 -58 13
-13 18 -12 48 6 18 11 41 35 52 52 15 27 20 30 31 18 7 -7 32 -50 56 -96 23
-45 48 -87 55 -93 7 -6 18 -8 24 -4 5 3 10 25 10 47 0 24 -9 55 -22 77 -12 20
-36 54 -54 76 -18 22 -46 66 -62 97 -27 50 -28 59 -16 75 7 10 14 23 14 30 0
7 -19 17 -42 23 -22 7 -52 19 -65 27 -12 8 -30 13 -38 9 -8 -3 -15 -12 -15
-21 0 -8 6 -15 14 -15 7 0 21 -12 31 -26 10 -16 13 -30 7 -37 -5 -7 -31 -39
-57 -72 -26 -33 -54 -64 -61 -68 -11 -6 -14 0 -14 23 0 18 -9 44 -20 60 -20
28 -20 28 5 64 14 20 25 39 25 42 0 3 -12 16 -27 29 -28 25 -28 25 0 50 15 13
27 27 27 30 0 3 -13 5 -29 5z m177 -210 c3 0 14 -7 24 -17 10 -9 18 -22 18
-29 0 -7 -11 -26 -25 -43 -16 -18 -32 -28 -41 -24 -12 4 -14 15 -9 47 4 22 12
47 17 54 6 6 13 12 16 12z"/>
<path d="M360 560 c-13 0 -20 -7 -20 -19 0 -10 7 -22 16 -25 9 -3 24 -6 35 -6
11 0 29 -16 43 -39 14 -22 35 -46 48 -55 13 -9 26 -12 31 -7 5 5 6 23 2 40 -4
18 -22 43 -43 61 -21 17 -48 30 -64 30 -16 0 -28 5 -28 10 0 6 -9 10 -20 10z"/>
</g>
</svg>
