<?xml version="1.0" standalone="no"?>
<!DOCTYPE svg PUBLIC "-//W3C//DTD SVG 20010904//EN"
 "http://www.w3.org/TR/2001/REC-SVG-20010904/DTD/svg10.dtd">
<svg version="1.0" xmlns="http://www.w3.org/2000/svg"
 width="56.000000pt" height="56.000000pt" viewBox="0 0 56.000000 56.000000"
 preserveAspectRatio="xMidYMid meet">
<metadata>
Created by potrace 1.16, written by Peter Selinger 2001-2019
</metadata>
<g transform="translate(0.000000,56.000000) scale(0.100000,-0.100000)"
fill="#000000" stroke="none">
<path d="M168 518 c-1 5 -12 6 -23 3 -11 -3 -34 -17 -52 -30 -17 -13 -37 -37
-44 -53 -10 -24 -9 -31 6 -48 11 -12 15 -28 12 -42 -3 -13 -11 -37 -18 -55
-12 -29 -11 -35 9 -63 23 -31 23 -31 -4 -85 -14 -30 -33 -55 -41 -55 -10 0
-13 -9 -11 -28 2 -21 9 -28 31 -30 15 -2 27 1 27 6 0 5 20 31 45 58 25 27 48
59 51 71 3 12 17 29 30 38 14 9 29 13 35 9 6 -4 8 -20 5 -39 -4 -18 -2 -44 4
-59 5 -14 14 -26 20 -26 6 0 40 29 75 64 65 63 65 63 90 40 14 -13 25 -30 25
-38 0 -8 6 -19 13 -23 7 -4 28 -27 47 -50 18 -24 39 -43 47 -43 8 0 13 12 13
31 0 24 -11 41 -53 79 -29 26 -58 63 -66 82 -9 25 -22 37 -44 44 -18 5 -38 21
-47 36 -13 25 -13 29 8 51 12 13 19 27 15 30 -3 4 -19 7 -35 7 -22 0 -27 4
-25 19 2 10 9 26 16 35 11 13 11 17 -3 22 -9 3 -22 1 -30 -5 -7 -6 -21 -9 -30
-5 -12 5 -16 0 -16 -19 0 -14 5 -29 10 -32 6 -3 10 -24 10 -45 0 -29 -7 -46
-27 -67 -16 -16 -43 -35 -61 -42 -25 -11 -35 -11 -47 -1 -8 6 -17 20 -20 31
-4 12 2 29 14 45 12 15 21 32 21 39 0 6 -9 20 -20 30 -11 10 -20 22 -20 26 0
5 14 24 31 43 17 20 29 39 27 44z m159 -220 c13 -12 23 -33 23 -47 0 -13 -10
-35 -22 -48 -12 -13 -29 -23 -39 -23 -15 0 -17 9 -15 61 2 39 8 64 17 69 9 6
21 2 36 -12z"/>
<path d="M435 516 c-16 5 -42 8 -57 6 -16 -2 -28 -9 -28 -18 0 -8 9 -14 20
-14 12 0 32 -7 45 -16 14 -9 29 -33 35 -53 5 -20 16 -45 23 -56 14 -18 15 -18
41 8 14 14 26 30 26 35 0 5 -11 21 -25 36 -14 15 -25 34 -25 42 0 8 -6 16 -12
18 -7 2 -26 7 -43 12z"/>
</g>
</svg>
