<?xml version="1.0" standalone="no"?>
<!DOCTYPE svg PUBLIC "-//W3C//DTD SVG 20010904//EN"
 "http://www.w3.org/TR/2001/REC-SVG-20010904/DTD/svg10.dtd">
<svg version="1.0" xmlns="http://www.w3.org/2000/svg"
 width="128.000000pt" height="128.000000pt" viewBox="0 0 128.000000 128.000000"
 preserveAspectRatio="xMidYMid meet">
<metadata>
Created by potrace 1.16, written by Peter Selinger 2001-2019
</metadata>
<g transform="translate(0.000000,128.000000) scale(0.100000,-0.100000)"
fill="#000000" stroke="none">
<path d="M545 1280 c-17 0 -25 -5 -22 -12 2 -7 12 -13 22 -13 10 0 20 6 23 13
2 7 -6 12 -23 12z"/>
<path d="M445 1256 c-5 1 -20 -2 -32 -8 -13 -6 -23 -19 -23 -30 0 -10 11 -23
24 -30 21 -9 26 -20 32 -75 3 -36 3 -95 -1 -132 -4 -36 -7 -70 -6 -76 0 -5 2
-28 4 -50 1 -22 7 -46 11 -54 5 -7 4 -23 -2 -34 -6 -12 -15 -35 -20 -52 -8
-27 -14 -30 -52 -33 -23 -2 -49 -9 -56 -17 -8 -7 -23 -11 -34 -8 -14 4 -30 -3
-45 -17 -19 -18 -35 -22 -79 -21 -39 1 -60 -4 -77 -18 -12 -10 -20 -24 -17
-32 3 -8 22 -20 42 -27 32 -12 40 -12 54 0 9 8 43 21 75 28 31 7 62 19 68 27
6 7 22 13 34 13 13 0 30 -3 39 -6 9 -3 16 -12 16 -20 0 -8 -12 -33 -27 -57
-15 -23 -36 -58 -46 -77 -11 -19 -27 -44 -36 -55 -9 -11 -24 -34 -34 -52 -9
-17 -17 -47 -17 -66 0 -20 5 -48 10 -62 8 -22 13 -25 24 -15 8 6 33 50 56 98
23 48 49 95 57 104 10 12 20 15 27 9 7 -6 10 -41 8 -93 -1 -45 -5 -100 -8
-121 -4 -23 -1 -43 6 -52 7 -8 25 -15 40 -15 24 0 31 6 42 38 7 20 13 66 13
102 0 63 1 65 26 68 15 2 35 12 45 23 9 10 27 19 38 19 12 0 43 7 70 15 27 8
57 22 66 30 9 8 52 21 96 29 53 9 83 10 92 4 9 -8 11 -62 7 -234 -4 -211 -3
-224 14 -224 10 0 31 19 48 43 17 23 37 56 45 72 14 27 14 42 1 140 -8 61 -16
142 -16 180 -2 70 -2 70 55 67 32 -2 66 2 78 8 11 6 20 21 20 34 0 20 -7 24
-72 34 -48 7 -77 17 -86 29 -12 15 -13 54 -7 213 3 107 8 227 10 265 3 39 7
80 10 93 4 16 -2 30 -20 48 -19 18 -33 24 -48 20 -12 -3 -39 -6 -59 -6 -28 0
-38 -4 -38 -16 0 -9 14 -32 30 -51 28 -31 30 -40 31 -111 0 -42 2 -170 5 -283
5 -207 5 -207 -18 -223 -12 -9 -31 -16 -41 -16 -10 0 -34 -8 -55 -19 -20 -10
-63 -24 -94 -30 -32 -7 -80 -20 -108 -30 -27 -10 -58 -25 -68 -34 -10 -9 -26
-17 -36 -17 -9 0 -20 10 -25 22 -4 13 -6 51 -3 86 2 37 0 74 -8 91 -6 16 -9
38 -6 49 6 17 11 18 74 7 64 -10 67 -12 64 -37 -1 -14 4 -31 13 -38 8 -7 28
-10 47 -7 18 3 65 14 104 24 39 10 79 24 88 32 9 8 16 21 14 29 -2 8 -19 21
-38 27 -30 11 -39 10 -65 -6 -17 -10 -51 -21 -75 -25 -44 -7 -44 -7 -28 18 13
20 14 29 5 40 -7 9 -26 23 -44 33 -28 16 -37 17 -75 6 -24 -7 -50 -19 -59 -27
-15 -13 -17 -11 -23 19 -4 19 -2 47 4 61 9 24 14 26 44 21 19 -4 43 -2 55 4
12 7 21 17 21 24 0 7 10 26 23 42 12 16 43 51 70 77 26 27 47 57 47 67 0 10
-8 25 -17 33 -10 9 -31 18 -48 22 -16 4 -39 8 -50 9 -14 1 -20 -4 -18 -18 1
-11 4 -30 8 -42 6 -18 0 -29 -22 -51 -17 -15 -38 -42 -47 -60 -9 -17 -22 -32
-29 -32 -8 0 -12 26 -14 87 0 47 3 97 8 111 6 16 5 36 -3 59 -9 25 -20 36 -40
40 -17 3 -28 13 -30 26 -2 11 -7 22 -13 23z"/>
<path d="M299 1040 c-5 0 -12 -6 -14 -12 -3 -7 1 -44 7 -83 13 -68 14 -69 48
-76 19 -4 42 -3 51 2 9 4 19 15 23 24 4 10 -2 19 -16 24 -14 5 -17 10 -10 15
7 4 12 16 12 26 0 11 -19 31 -46 49 -25 17 -49 31 -55 31z"/>
<path d="M831 910 c-14 -1 -37 -10 -50 -20 -13 -11 -31 -20 -41 -20 -10 0 -23
-7 -30 -16 -8 -9 -25 -14 -43 -12 -17 2 -32 -2 -34 -9 -2 -6 7 -19 20 -27 22
-15 30 -14 121 15 53 17 100 37 103 45 3 8 0 21 -7 29 -7 8 -24 15 -39 15z"/>
<path d="M312 732 c-5 5 -12 6 -15 1 -3 -5 -2 -15 2 -22 7 -10 10 -10 16 -1 4
6 3 16 -3 22z"/>
</g>
</svg>
