<?xml version="1.0" standalone="no"?>
<!DOCTYPE svg PUBLIC "-//W3C//DTD SVG 20010904//EN"
 "http://www.w3.org/TR/2001/REC-SVG-20010904/DTD/svg10.dtd">
<svg version="1.0" xmlns="http://www.w3.org/2000/svg"
 width="128.000000pt" height="128.000000pt" viewBox="0 0 128.000000 128.000000"
 preserveAspectRatio="xMidYMid meet">
<metadata>
Created by potrace 1.16, written by Peter Selinger 2001-2019
</metadata>
<g transform="translate(0.000000,128.000000) scale(0.100000,-0.100000)"
fill="#000000" stroke="none">
<path d="M913 1279 c-4 0 -16 -9 -25 -20 -10 -10 -18 -23 -18 -29 0 -5 -4 -10
-10 -10 -5 0 -10 -5 -10 -11 0 -6 9 -18 20 -27 19 -16 20 -25 14 -218 -7 -201
-7 -201 -38 -216 -17 -9 -42 -20 -56 -25 -14 -5 -40 -16 -58 -24 -18 -8 -30
-19 -27 -26 3 -9 -6 -13 -25 -13 -17 0 -30 4 -30 10 0 5 8 25 18 44 9 18 35
46 58 60 22 14 49 35 59 46 15 16 16 25 7 44 -6 13 -20 27 -31 31 -13 4 -31
-1 -49 -13 -15 -11 -44 -25 -64 -33 -21 -7 -38 -16 -38 -20 0 -4 15 -9 33 -11
27 -3 32 -7 29 -26 -1 -13 -17 -45 -34 -70 -18 -26 -43 -59 -57 -74 -14 -16
-24 -40 -24 -56 0 -16 10 -43 23 -60 15 -20 32 -32 47 -32 15 0 40 16 66 43
23 24 63 59 88 79 25 20 58 40 72 44 27 6 27 6 28 -117 1 -68 1 -220 0 -336
-1 -117 2 -213 7 -213 5 0 16 8 24 18 8 9 22 37 30 62 9 25 21 88 28 141 6 53
10 189 8 304 -3 209 -3 209 32 218 27 7 49 4 101 -14 56 -19 70 -21 83 -10 9
8 16 22 16 32 0 9 -7 25 -16 33 -8 9 -26 16 -39 16 -14 0 -40 8 -60 17 -33 16
-37 16 -64 0 -23 -14 -31 -14 -46 -3 -15 10 -16 16 -6 35 7 12 14 50 16 84 2
34 8 87 14 117 6 30 13 70 17 88 6 30 2 38 -49 88 -31 29 -60 54 -64 53z"/>
<path d="M404 1250 c-11 0 -28 -8 -37 -18 -15 -17 -14 -20 14 -45 29 -26 30
-28 24 -89 -4 -34 -10 -67 -13 -73 -4 -6 -25 -34 -46 -62 -21 -28 -44 -49 -50
-47 -6 2 -24 30 -41 62 -16 31 -37 57 -45 57 -9 0 -15 -10 -16 -25 -1 -14 -5
-65 -9 -115 -7 -81 -5 -92 12 -114 13 -16 26 -22 37 -18 9 4 24 21 34 38 9 17
27 44 40 59 12 15 22 32 22 37 0 5 11 20 25 33 18 17 28 21 36 13 7 -7 7 -27
0 -68 -6 -32 -16 -64 -22 -71 -6 -8 -16 -14 -21 -14 -6 0 -27 -13 -47 -28 -20
-15 -63 -38 -96 -50 -33 -13 -79 -32 -102 -43 -24 -10 -43 -23 -43 -28 0 -5
16 -18 36 -30 19 -12 47 -21 61 -21 16 0 36 12 54 33 16 17 32 35 36 40 5 4
25 19 46 32 21 14 44 25 51 25 7 0 15 -2 18 -5 3 -3 -6 -29 -20 -58 -14 -30
-57 -86 -103 -133 -44 -45 -79 -85 -79 -90 0 -5 5 -26 10 -46 7 -22 19 -39 31
-43 12 -4 30 0 45 9 13 9 36 34 50 55 14 22 32 42 40 45 7 3 16 1 18 -3 3 -4
-2 -34 -11 -65 -15 -53 -15 -60 1 -92 13 -29 21 -35 44 -32 22 2 28 9 30 33 2
16 -4 63 -13 103 -12 47 -15 89 -11 120 3 25 21 70 38 99 18 29 36 53 40 53 4
0 8 7 8 16 0 9 9 23 20 32 11 10 30 37 43 62 13 25 35 51 50 58 15 7 27 17 27
22 0 6 -17 17 -37 25 -35 15 -38 14 -74 -10 -21 -14 -45 -25 -54 -25 -8 0 -15
8 -15 18 0 11 9 27 19 36 11 10 46 28 78 41 34 14 64 33 72 47 9 15 11 35 7
52 -4 15 -18 39 -32 53 -20 20 -32 24 -55 19 -28 -5 -29 -4 -29 32 0 20 -6 44
-13 52 -7 9 -23 24 -37 33 -13 9 -34 17 -46 17z m115 -162 c9 -2 17 -15 19
-29 2 -16 -9 -43 -30 -74 -19 -26 -38 -46 -43 -44 -6 2 -9 16 -9 31 1 14 12
47 25 73 15 29 29 45 38 43z m-16 -288 c9 0 17 -4 17 -9 0 -5 -21 -35 -46 -66
-28 -34 -50 -53 -56 -47 -5 5 -6 28 -2 51 6 36 12 46 38 57 17 7 39 13 49 14z"/>
<path d="M1214 1210 c-5 5 -16 3 -26 -4 -10 -7 -18 -18 -18 -25 0 -6 6 -11 14
-11 7 0 19 7 26 15 8 10 9 19 4 25z"/>
<path d="M766 1120 c-3 0 -7 -4 -10 -8 -3 -5 -23 -15 -46 -22 -22 -7 -46 -20
-52 -27 -9 -11 -9 -16 1 -22 7 -5 29 -5 50 0 28 6 45 4 78 -12 23 -11 47 -18
53 -14 5 3 10 17 10 29 0 16 -13 32 -40 50 -22 14 -42 26 -44 26z"/>
<path d="M1201 1100 c-4 0 -22 -17 -39 -37 -18 -22 -27 -42 -22 -47 5 -5 22
-3 40 5 17 8 33 24 36 36 3 12 3 27 -1 32 -3 6 -10 11 -14 11z"/>
<path d="M1211 1014 c-4 3 -15 0 -24 -7 -8 -7 -18 -27 -22 -45 -5 -24 -3 -33
9 -38 9 -3 23 -1 31 6 8 7 15 27 15 46 0 18 -4 35 -9 38z"/>
</g>
</svg>
