<?xml version="1.0" standalone="no"?>
<!DOCTYPE svg PUBLIC "-//W3C//DTD SVG 20010904//EN"
 "http://www.w3.org/TR/2001/REC-SVG-20010904/DTD/svg10.dtd">
<svg version="1.0" xmlns="http://www.w3.org/2000/svg"
 width="128.000000pt" height="128.000000pt" viewBox="0 0 128.000000 128.000000"
 preserveAspectRatio="xMidYMid meet">
<metadata>
Created by potrace 1.16, written by Peter Selinger 2001-2019
</metadata>
<g transform="translate(0.000000,128.000000) scale(0.100000,-0.100000)"
fill="#000000" stroke="none">
<path d="M719 1260 c-15 0 -31 -5 -34 -11 -4 -6 1 -17 11 -24 11 -8 22 -15 26
-15 4 0 9 -9 13 -20 3 -11 -2 -38 -13 -62 -11 -24 -55 -78 -97 -120 -43 -43
-82 -78 -86 -78 -4 0 -10 -8 -14 -17 -4 -10 -13 -40 -20 -68 -7 -27 -11 -54
-8 -58 3 -5 24 -6 46 -3 40 7 40 7 34 -116 -4 -68 -10 -136 -15 -153 -8 -28
-12 -30 -68 -37 -32 -3 -131 -18 -219 -32 -88 -14 -186 -26 -218 -26 -48 0
-58 -3 -55 -16 2 -8 27 -29 56 -45 29 -16 62 -29 72 -29 10 0 21 4 24 9 3 5
23 11 43 14 21 3 90 20 153 38 63 17 135 34 159 37 43 4 43 4 38 -94 -3 -55
-10 -133 -17 -174 -6 -41 -18 -87 -26 -102 -8 -16 -12 -33 -9 -38 3 -6 13 -10
21 -10 8 0 31 12 50 28 19 15 45 43 57 62 19 31 23 53 27 183 3 87 9 147 15
148 6 0 24 -35 40 -78 28 -72 33 -78 59 -78 26 0 33 -9 75 -88 25 -48 64 -107
85 -132 31 -36 45 -45 70 -45 17 0 42 9 55 19 14 11 25 31 27 52 2 19 6 40 9
48 3 8 -6 50 -20 94 -15 44 -24 85 -21 92 2 7 0 31 -5 54 -5 23 -6 53 -3 66 5
22 12 25 50 25 25 0 60 -6 79 -14 18 -8 44 -15 57 -16 13 -1 31 -2 41 -1 11 1
17 9 16 24 -1 13 -19 38 -46 62 -42 37 -49 40 -97 37 -28 -2 -64 -4 -81 -5
-30 -2 -30 -2 -31 196 -1 190 -2 199 -23 220 -16 17 -33 22 -69 22 -36 0 -69
-11 -141 -48 -52 -26 -101 -47 -108 -47 -7 0 -13 3 -13 6 0 4 41 61 91 127 67
89 89 126 87 145 -2 17 -19 36 -52 59 -27 18 -61 33 -77 33z m191 -333 c23 -2
25 -7 31 -67 4 -36 8 -121 10 -190 4 -125 4 -125 -51 -125 -53 0 -54 1 -64 34
-5 18 -22 45 -37 60 -27 26 -27 26 13 68 38 39 40 45 32 75 -6 20 -22 39 -42
51 -32 19 -32 19 -67 -19 -33 -36 -34 -39 -18 -56 15 -17 15 -25 4 -71 -6 -29
-14 -64 -17 -79 -6 -25 -4 -27 32 -30 36 -3 39 -5 39 -33 0 -29 -2 -30 -55
-37 -30 -3 -57 -5 -60 -3 -3 2 -5 81 -5 177 0 173 0 173 40 186 22 8 74 24
115 37 41 13 86 23 100 22z m20 -440 c24 -2 25 -5 32 -92 4 -49 9 -103 12
-120 3 -16 2 -36 -3 -44 -5 -8 -16 -11 -27 -7 -11 4 -40 26 -66 50 -47 44 -47
44 -40 122 7 77 8 79 37 85 17 4 41 6 55 6z m-179 -7 c15 0 31 -5 34 -10 3 -6
3 -30 0 -53 -4 -24 -11 -50 -15 -57 -7 -12 -12 -11 -27 2 -10 9 -27 33 -38 53
-19 36 -19 37 0 51 10 8 31 14 46 14z"/>
<path d="M1268 959 c-7 0 -29 -5 -48 -11 -19 -5 -43 -17 -53 -26 -9 -8 -14
-19 -10 -23 5 -4 34 -10 66 -14 57 -6 57 -6 57 34 0 27 -4 41 -12 40z"/>
</g>
</svg>
