<?xml version="1.0" standalone="no"?>
<!DOCTYPE svg PUBLIC "-//W3C//DTD SVG 20010904//EN"
 "http://www.w3.org/TR/2001/REC-SVG-20010904/DTD/svg10.dtd">
<svg version="1.0" xmlns="http://www.w3.org/2000/svg"
 width="128.000000pt" height="128.000000pt" viewBox="0 0 128.000000 128.000000"
 preserveAspectRatio="xMidYMid meet">
<metadata>
Created by potrace 1.16, written by Peter Selinger 2001-2019
</metadata>
<g transform="translate(0.000000,128.000000) scale(0.100000,-0.100000)"
fill="#000000" stroke="none">
<path d="M819 1158 c-14 2 -28 0 -31 -4 -4 -3 -2 -17 4 -30 9 -20 7 -30 -15
-61 -15 -21 -47 -55 -71 -76 -25 -20 -49 -37 -55 -37 -5 0 -21 -15 -35 -33
-15 -19 -26 -41 -26 -50 0 -10 6 -17 14 -17 8 0 18 5 21 10 3 6 16 10 27 10
20 0 21 -3 13 -67 -4 -38 -9 -84 -10 -103 -2 -19 -3 -39 -4 -45 -1 -5 -5 -16
-9 -22 -4 -7 -44 -20 -87 -28 -44 -9 -132 -25 -195 -35 -63 -10 -135 -23 -160
-30 -25 -6 -59 -9 -77 -5 -29 5 -35 1 -77 -51 -25 -31 -46 -62 -46 -71 0 -11
9 -13 47 -7 27 3 62 15 79 25 17 11 39 19 47 19 9 0 42 12 73 26 31 14 77 30
103 34 25 5 84 18 131 29 47 10 100 22 118 26 31 7 32 7 32 -26 0 -19 -7 -79
-15 -134 -8 -55 -15 -115 -15 -132 0 -23 5 -33 15 -33 9 0 18 8 22 18 3 9 12
24 20 34 8 9 21 45 30 80 9 34 18 95 22 133 6 70 6 70 74 73 63 3 68 2 76 -21
6 -14 7 -35 4 -48 -2 -13 -12 -39 -21 -56 -9 -18 -20 -33 -24 -33 -5 0 -8 -8
-8 -18 0 -10 3 -22 6 -25 4 -4 19 2 34 13 15 11 42 42 60 69 23 36 31 59 28
83 -2 27 1 34 18 36 16 2 23 -3 26 -22 3 -14 3 -91 0 -171 -3 -80 -9 -148 -14
-151 -4 -3 -34 16 -65 43 -31 26 -65 56 -75 66 -10 10 -23 15 -29 11 -6 -3 -1
-21 13 -44 13 -21 63 -75 113 -119 49 -45 98 -81 107 -81 10 0 22 9 28 21 7
11 12 55 12 97 1 43 -3 85 -7 95 -4 10 -5 38 -2 63 2 24 1 47 -4 50 -5 3 -9
31 -9 63 0 37 5 63 13 70 10 8 30 8 73 0 32 -6 70 -16 84 -23 14 -7 33 -11 43
-9 10 3 17 13 17 26 -1 13 -15 33 -37 50 -32 24 -45 27 -108 27 -50 0 -76 4
-84 14 -9 10 -9 46 -2 137 10 123 10 124 -13 148 -24 23 -24 23 -86 8 -34 -9
-72 -23 -84 -30 -11 -8 -44 -21 -73 -29 -29 -9 -55 -13 -58 -10 -3 3 -5 13 -5
23 0 9 28 39 63 66 49 39 65 59 75 93 12 39 11 46 -6 69 -10 14 -30 27 -43 29z
m122 -268 c9 0 21 -11 26 -23 6 -13 12 -67 12 -119 1 -73 -2 -98 -14 -108 -8
-7 -25 -10 -38 -6 -13 3 -29 17 -35 30 -9 20 -8 33 3 60 8 19 12 42 9 50 -3 9
-26 26 -51 38 -24 12 -47 26 -50 31 -3 5 1 13 8 18 8 5 30 9 49 9 19 0 42 5
50 10 8 5 22 10 31 10z m-194 -50 c3 0 22 -10 42 -22 20 -12 39 -26 43 -32 3
-5 4 -14 2 -21 -3 -6 -8 -41 -12 -76 -7 -64 -7 -64 -51 -67 -24 -2 -48 1 -53
6 -6 6 -6 44 2 102 6 51 13 97 16 102 3 4 8 8 11 8z"/>
<path d="M342 980 c-11 0 -26 -8 -35 -18 -10 -10 -17 -26 -17 -35 0 -10 8 -17
18 -17 11 0 26 8 35 18 10 10 17 26 17 35 0 10 -8 17 -18 17z"/>
<path d="M1270 290 c-5 0 -10 -9 -10 -20 0 -11 5 -20 10 -20 6 0 10 9 10 20 0
11 -4 20 -10 20z"/>
<path d="M1168 270 c-5 0 -6 -5 -3 -10 4 -6 1 -17 -5 -25 -7 -8 -10 -20 -8
-26 2 -7 17 -13 32 -14 16 0 31 5 33 13 3 7 -5 24 -17 38 -13 13 -27 24 -32
24z"/>
<path d="M1271 210 c-6 0 -13 -4 -16 -10 -3 -5 -3 -14 0 -20 3 -5 10 -10 16
-10 5 0 9 9 9 20 0 11 -4 20 -9 20z"/>
<path d="M1266 160 c-8 0 -17 -4 -21 -9 -3 -5 2 -17 11 -25 8 -9 17 -16 20
-16 2 0 4 11 4 25 0 15 -6 25 -14 25z"/>
</g>
</svg>
