<?xml version="1.0" standalone="no"?>
<!DOCTYPE svg PUBLIC "-//W3C//DTD SVG 20010904//EN"
 "http://www.w3.org/TR/2001/REC-SVG-20010904/DTD/svg10.dtd">
<svg version="1.0" xmlns="http://www.w3.org/2000/svg"
 width="128.000000pt" height="128.000000pt" viewBox="0 0 128.000000 128.000000"
 preserveAspectRatio="xMidYMid meet">
<metadata>
Created by potrace 1.16, written by Peter Selinger 2001-2019
</metadata>
<g transform="translate(0.000000,128.000000) scale(0.100000,-0.100000)"
fill="#000000" stroke="none">
<path d="M763 1250 c-4 0 -27 -10 -50 -22 -24 -12 -43 -27 -43 -34 0 -7 10
-14 23 -16 18 -2 23 -10 25 -41 3 -30 -4 -48 -37 -95 -23 -32 -41 -63 -41 -69
0 -6 -11 -18 -25 -27 -15 -10 -34 -14 -45 -11 -14 4 -20 15 -20 36 0 16 -6 44
-14 62 -7 18 -26 44 -42 59 -27 25 -32 26 -66 15 -21 -7 -38 -18 -38 -26 0 -8
14 -26 31 -40 20 -17 33 -41 40 -69 6 -29 6 -49 -1 -62 -6 -11 -23 -22 -38
-26 -15 -3 -36 -9 -47 -13 -11 -5 -36 -13 -56 -20 -19 -6 -58 -11 -86 -11 -27
0 -52 -3 -56 -6 -3 -4 1 -17 10 -31 9 -13 29 -31 44 -39 28 -14 33 -12 122 31
51 25 100 45 108 45 9 0 21 -12 28 -26 9 -20 9 -30 0 -40 -6 -8 -9 -27 -6 -43
5 -23 -3 -40 -44 -94 -27 -36 -54 -69 -59 -72 -6 -4 -25 3 -44 14 -18 12 -41
21 -50 21 -9 0 -16 -6 -16 -14 0 -7 7 -19 16 -26 8 -8 19 -21 25 -31 6 -12 5
-34 -3 -65 -8 -30 -28 -62 -53 -89 -22 -23 -60 -67 -85 -98 -24 -31 -60 -65
-80 -76 -19 -11 -45 -33 -58 -50 -12 -17 -22 -41 -22 -54 0 -13 8 -31 18 -40
10 -10 22 -17 26 -17 4 0 26 15 48 32 22 18 58 49 80 68 22 19 59 59 82 90 23
30 50 72 61 93 12 22 27 37 37 37 10 0 22 -10 27 -22 5 -13 14 -49 21 -80 6
-32 16 -60 21 -64 5 -3 24 6 42 20 17 14 39 32 47 40 8 8 25 29 38 47 13 19
43 66 67 104 24 39 52 81 63 94 19 25 19 25 76 7 40 -13 61 -25 68 -42 9 -19
5 -34 -20 -86 -17 -35 -42 -73 -56 -85 -14 -13 -26 -29 -26 -36 0 -7 -15 -27
-32 -43 -18 -17 -58 -47 -88 -66 -30 -20 -72 -43 -92 -51 -21 -9 -38 -20 -38
-25 0 -4 6 -16 14 -27 11 -15 22 -17 65 -12 47 6 61 13 126 72 41 36 91 89
112 117 21 29 56 84 79 122 23 41 47 71 55 70 9 -1 50 -28 93 -60 43 -32 92
-68 110 -78 33 -19 33 -19 79 14 26 18 47 41 47 50 0 8 -12 30 -27 48 -21 24
-51 40 -112 62 -46 16 -102 41 -123 55 -21 14 -45 40 -53 58 -7 18 -19 47 -26
65 -7 19 -28 44 -48 57 -20 13 -47 27 -61 30 -19 5 -33 -1 -59 -24 -18 -16
-48 -37 -66 -45 -18 -9 -58 -16 -89 -16 -31 0 -56 4 -56 8 0 5 23 47 51 93 29
46 63 103 77 127 13 24 36 48 51 54 14 5 55 15 91 22 36 7 81 22 100 33 19 11
36 26 37 34 2 8 -8 27 -22 42 -24 27 -27 27 -65 16 -25 -8 -44 -9 -50 -3 -6 6
-4 20 5 38 8 16 15 44 15 63 0 25 -8 43 -29 64 -16 16 -33 29 -38 29z m30
-612 c14 -2 23 -11 25 -26 2 -13 1 -30 -2 -37 -4 -11 -13 -12 -37 -5 -17 5
-34 12 -37 14 -2 3 3 17 12 31 12 18 24 25 39 23z m-268 -38 c5 0 29 -7 52
-16 32 -13 43 -22 43 -38 0 -11 -24 -57 -53 -100 -28 -44 -58 -81 -65 -84 -7
-2 -21 15 -32 40 -11 23 -20 56 -20 72 0 15 10 47 23 70 12 22 27 44 32 48 6
4 14 8 20 8z"/>
<path d="M1203 1097 c-6 2 -14 -1 -18 -7 -4 -6 1 -22 9 -36 10 -14 19 -56 23
-102 4 -55 1 -99 -11 -153 -10 -42 -16 -96 -14 -120 2 -36 7 -44 23 -44 14 0
22 11 32 44 7 25 17 49 23 55 5 5 10 32 10 58 0 26 -4 48 -10 48 -5 0 -10 11
-10 25 0 14 5 25 10 25 6 0 10 20 10 45 0 25 -4 45 -8 45 -4 0 -17 15 -27 33
-11 17 -22 43 -25 56 -3 13 -10 26 -17 28z"/>
</g>
</svg>
