<?xml version="1.0" standalone="no"?>
<!DOCTYPE svg PUBLIC "-//W3C//DTD SVG 20010904//EN"
 "http://www.w3.org/TR/2001/REC-SVG-20010904/DTD/svg10.dtd">
<svg version="1.0" xmlns="http://www.w3.org/2000/svg"
 width="56.000000pt" height="56.000000pt" viewBox="0 0 56.000000 56.000000"
 preserveAspectRatio="xMidYMid meet">
<metadata>
Created by potrace 1.16, written by Peter Selinger 2001-2019
</metadata>
<g transform="translate(0.000000,56.000000) scale(0.100000,-0.100000)"
fill="#000000" stroke="none">
<path d="M215 560 c-14 0 -25 -4 -25 -10 0 -5 -7 -10 -15 -10 -8 0 -15 -9 -15
-21 0 -16 4 -19 23 -13 12 3 30 13 40 22 9 8 17 19 17 24 0 4 -11 8 -25 8z"/>
<path d="M356 540 c-22 0 -42 -8 -59 -25 -14 -14 -32 -41 -41 -60 -9 -18 -23
-68 -32 -110 -9 -42 -13 -87 -10 -100 4 -15 1 -25 -8 -28 -8 -3 -33 -32 -55
-65 -22 -33 -48 -62 -57 -66 -10 -4 -22 -2 -27 3 -5 5 -4 43 3 99 7 50 10 98
6 107 -3 9 -12 15 -19 13 -6 -3 -16 -25 -20 -49 -4 -24 -10 -76 -14 -115 -4
-54 -1 -78 11 -103 9 -17 22 -31 30 -31 7 0 31 21 53 47 22 27 52 67 66 90 14
23 31 44 37 48 6 4 10 -5 10 -22 1 -15 7 -46 15 -67 14 -40 14 -40 -23 -72
-37 -33 -37 -33 -10 -34 17 0 41 12 61 30 19 17 41 30 50 30 8 0 43 21 78 47
34 26 79 65 101 87 30 32 38 48 38 77 0 24 -8 44 -25 63 -13 14 -33 26 -45 26
-11 0 -20 -7 -20 -15 0 -8 8 -15 18 -15 11 0 22 -12 30 -33 7 -18 12 -38 12
-44 0 -6 -8 -10 -17 -9 -12 0 -19 -7 -21 -21 -2 -13 -10 -23 -19 -23 -8 0 -17
-9 -20 -20 -3 -11 -13 -20 -23 -20 -10 0 -25 -3 -33 -6 -8 -3 -17 2 -21 11 -3
9 1 23 8 31 8 8 18 36 22 62 3 26 11 53 17 60 6 7 12 49 15 92 4 63 1 85 -12
105 -12 18 -25 25 -50 25z m-7 -32 c12 -2 17 -17 19 -57 2 -29 -2 -74 -8 -100
-7 -25 -15 -64 -18 -86 -4 -22 -17 -59 -30 -83 -12 -23 -27 -42 -32 -42 -5 0
-13 12 -17 28 -4 15 -7 52 -7 82 -1 31 5 76 13 100 7 25 21 65 29 90 9 25 20
51 25 58 6 7 17 11 26 10z"/>
</g>
</svg>
