<?xml version="1.0" standalone="no"?>
<!DOCTYPE svg PUBLIC "-//W3C//DTD SVG 20010904//EN"
 "http://www.w3.org/TR/2001/REC-SVG-20010904/DTD/svg10.dtd">
<svg version="1.0" xmlns="http://www.w3.org/2000/svg"
 width="56.000000pt" height="56.000000pt" viewBox="0 0 56.000000 56.000000"
 preserveAspectRatio="xMidYMid meet">
<metadata>
Created by potrace 1.16, written by Peter Selinger 2001-2019
</metadata>
<g transform="translate(0.000000,56.000000) scale(0.100000,-0.100000)"
fill="#000000" stroke="none">
<path d="M258 560 c-7 0 -21 -14 -31 -31 -11 -21 -22 -29 -33 -25 -8 3 -13 2
-10 -3 3 -4 1 -25 -5 -45 -6 -20 -17 -40 -25 -43 -8 -3 -24 3 -35 13 -12 11
-30 36 -40 57 -11 20 -27 37 -35 37 -14 0 -15 -7 -9 -42 4 -24 7 -47 7 -53 -1
-5 -2 -19 -4 -30 -2 -13 2 -19 11 -17 7 2 21 -3 30 -11 9 -8 23 -17 32 -20 14
-4 16 -17 11 -76 -3 -54 0 -83 13 -119 10 -26 29 -61 42 -79 14 -17 34 -33 46
-35 15 -2 21 -9 19 -20 -2 -13 4 -18 22 -18 16 0 27 7 31 19 3 11 15 31 26 45
11 13 44 39 75 57 30 17 67 43 82 58 15 14 25 33 23 41 -1 8 3 32 10 53 10 30
10 43 1 58 -7 10 -12 25 -12 32 0 8 -9 22 -21 33 -14 13 -42 21 -82 24 -62 5
-62 5 -69 50 -5 27 -17 53 -32 67 -14 13 -31 23 -38 23z m1 -82 c9 -2 17 -15
19 -30 2 -18 -4 -31 -20 -42 -12 -9 -30 -16 -40 -16 -9 0 -19 4 -22 8 -3 5 7
25 21 46 15 20 34 35 42 34z m126 -103 c17 -3 38 -15 48 -26 9 -12 17 -35 17
-51 0 -16 -5 -39 -11 -51 -6 -12 -23 -34 -37 -49 -14 -16 -31 -28 -37 -28 -6
0 -21 24 -33 53 -12 29 -22 68 -22 87 0 19 4 40 8 46 4 6 14 14 22 17 8 3 29
4 45 2z m-168 -29 c8 -3 19 -6 24 -6 5 0 9 -24 9 -54 0 -46 3 -56 25 -70 19
-13 25 -25 25 -55 0 -31 -5 -40 -25 -49 -19 -9 -30 -9 -45 0 -10 7 -23 22 -29
35 -6 12 -15 52 -22 88 -10 57 -9 69 6 91 10 16 22 23 32 20z"/>
<path d="M355 560 c-17 0 -25 -5 -22 -12 2 -7 12 -13 22 -13 10 0 20 6 23 13
2 7 -6 12 -23 12z"/>
</g>
</svg>
