<?xml version="1.0" standalone="no"?>
<!DOCTYPE svg PUBLIC "-//W3C//DTD SVG 20010904//EN"
 "http://www.w3.org/TR/2001/REC-SVG-20010904/DTD/svg10.dtd">
<svg version="1.0" xmlns="http://www.w3.org/2000/svg"
 width="56.000000pt" height="56.000000pt" viewBox="0 0 56.000000 56.000000"
 preserveAspectRatio="xMidYMid meet">
<metadata>
Created by potrace 1.16, written by Peter Selinger 2001-2019
</metadata>
<g transform="translate(0.000000,56.000000) scale(0.100000,-0.100000)"
fill="#000000" stroke="none">
<path d="M284 520 c-7 0 -15 -4 -18 -9 -3 -5 -2 -35 2 -68 4 -32 6 -66 4 -75
-2 -9 -17 -20 -33 -23 -17 -4 -33 -14 -37 -23 -3 -10 -19 -36 -35 -59 -16 -24
-32 -43 -37 -43 -5 0 -13 23 -19 50 -6 28 -11 75 -11 105 0 43 -4 56 -19 64
-13 7 -23 6 -36 -3 -13 -10 -15 -17 -8 -32 6 -10 13 -53 16 -94 3 -41 13 -99
22 -127 10 -29 26 -59 35 -68 9 -9 24 -13 32 -10 8 3 22 19 31 34 9 16 21 57
25 91 5 34 15 66 23 71 8 5 23 8 34 7 16 -2 21 -12 23 -46 2 -23 -4 -68 -13
-98 -9 -30 -31 -77 -50 -103 -19 -27 -35 -51 -35 -55 0 -3 13 -6 28 -6 17 0
37 10 50 23 12 13 22 29 22 35 0 7 5 22 12 35 6 12 14 29 18 37 5 10 25 16 61
18 33 2 61 10 72 20 11 9 32 42 47 72 15 30 28 72 28 93 1 29 -5 45 -24 64
-21 21 -31 24 -72 20 -26 -3 -56 -6 -66 -8 -17 -3 -21 4 -28 40 -4 24 -13 49
-19 57 -6 8 -17 14 -25 14z m161 -144 c6 -2 9 -20 7 -42 -2 -21 -8 -53 -13
-70 -6 -21 -20 -36 -39 -44 -16 -6 -38 -9 -50 -5 -18 6 -20 13 -16 61 2 30 7
58 11 62 4 4 25 15 48 24 23 9 47 16 52 14z"/>
</g>
</svg>
