<?xml version="1.0" standalone="no"?>
<!DOCTYPE svg PUBLIC "-//W3C//DTD SVG 20010904//EN"
 "http://www.w3.org/TR/2001/REC-SVG-20010904/DTD/svg10.dtd">
<svg version="1.0" xmlns="http://www.w3.org/2000/svg"
 width="56.000000pt" height="56.000000pt" viewBox="0 0 56.000000 56.000000"
 preserveAspectRatio="xMidYMid meet">
<metadata>
Created by potrace 1.16, written by Peter Selinger 2001-2019
</metadata>
<g transform="translate(0.000000,56.000000) scale(0.100000,-0.100000)"
fill="#000000" stroke="none">
<path d="M56 543 c-10 4 -15 -9 -19 -51 -4 -31 -9 -109 -13 -172 -6 -108 -5
-117 16 -142 12 -16 30 -28 40 -28 10 0 21 7 24 16 3 9 6 27 6 40 0 14 5 34
11 46 6 11 8 22 6 25 -3 2 -14 0 -25 -6 -16 -8 -21 -7 -24 7 -3 9 -1 55 4 102
7 58 6 97 -1 121 -6 21 -17 39 -25 42z"/>
<path d="M283 500 c-5 0 -14 -5 -21 -12 -7 -7 -12 -18 -12 -25 0 -7 -8 -27
-19 -46 -10 -18 -21 -51 -25 -72 -4 -22 -9 -59 -13 -83 -3 -24 0 -56 7 -71 6
-16 22 -39 36 -52 13 -12 24 -32 24 -45 0 -12 -7 -38 -15 -58 -15 -36 -15 -36
14 -36 28 0 31 4 48 60 15 50 22 62 43 66 14 3 44 14 67 24 22 10 52 34 66 52
13 18 30 49 36 69 6 20 9 45 5 55 -3 10 -13 35 -21 54 -9 19 -29 50 -46 68
-21 21 -40 32 -59 32 -15 0 -28 -4 -28 -9 0 -5 10 -15 23 -24 13 -8 31 -33 41
-55 14 -31 17 -52 11 -88 -4 -32 -16 -56 -35 -76 -16 -15 -35 -28 -43 -28 -8
0 -17 6 -20 14 -3 8 -2 29 3 48 5 18 8 66 6 106 -2 68 -5 76 -34 103 -17 16
-35 29 -39 29z m8 -57 c5 -5 11 -40 15 -78 3 -39 2 -88 -3 -110 -7 -30 -14
-40 -28 -40 -11 0 -24 10 -31 23 -8 16 -8 39 1 87 7 36 18 79 25 96 7 16 17
26 21 22z"/>
</g>
</svg>
