<?xml version="1.0" standalone="no"?>
<!DOCTYPE svg PUBLIC "-//W3C//DTD SVG 20010904//EN"
 "http://www.w3.org/TR/2001/REC-SVG-20010904/DTD/svg10.dtd">
<svg version="1.0" xmlns="http://www.w3.org/2000/svg"
 width="56.000000pt" height="56.000000pt" viewBox="0 0 56.000000 56.000000"
 preserveAspectRatio="xMidYMid meet">
<metadata>
Created by potrace 1.16, written by Peter Selinger 2001-2019
</metadata>
<g transform="translate(0.000000,56.000000) scale(0.100000,-0.100000)"
fill="#000000" stroke="none">
<path d="M197 510 c-7 0 -18 -5 -25 -12 -7 -7 -12 -18 -12 -25 0 -10 5 -11 19
-4 10 6 21 17 25 26 3 8 0 15 -7 15z"/>
<path d="M283 490 c-37 0 -45 -4 -53 -24 -5 -13 -12 -40 -15 -59 -4 -19 -21
-51 -38 -70 -18 -20 -37 -42 -43 -49 -6 -7 -19 -26 -29 -42 -18 -26 -20 -27
-32 -10 -7 10 -13 24 -13 31 0 8 8 31 19 51 10 20 31 59 46 86 16 28 22 46 14
41 -8 -4 -24 -17 -37 -29 -13 -11 -30 -37 -38 -56 -9 -19 -20 -43 -25 -52 -5
-10 -9 -35 -9 -57 0 -27 10 -53 33 -87 20 -32 39 -49 52 -49 16 0 22 10 30 57
6 31 13 60 18 64 4 4 7 15 7 24 0 9 6 24 13 33 11 16 19 12 80 -45 52 -49 67
-69 67 -91 0 -15 -4 -35 -9 -45 -5 -9 -17 -35 -27 -57 -10 -22 -20 -43 -22
-47 -2 -5 5 -8 16 -8 10 0 26 8 35 18 10 10 25 43 35 73 15 43 24 55 44 59 14
3 37 19 50 35 14 17 30 39 35 50 6 11 16 44 22 73 10 46 9 58 -6 83 -10 16
-22 30 -28 31 -5 1 -37 2 -69 2 -59 1 -60 2 -69 34 -9 30 -13 32 -54 32z m-6
-50 c7 0 16 -7 20 -16 3 -9 0 -20 -8 -25 -8 -5 -20 -9 -26 -9 -7 0 -13 8 -13
18 0 10 3 22 7 25 3 4 12 7 20 7z m154 -51 c9 -5 19 -21 22 -36 3 -16 -2 -45
-13 -69 -10 -23 -23 -45 -30 -49 -6 -4 -14 -5 -17 -2 -2 3 -7 39 -10 80 -4 67
-3 76 14 79 10 3 25 1 34 -3z m-116 -15 c7 -3 16 -19 19 -36 3 -17 6 -41 6
-54 0 -12 -5 -26 -10 -29 -6 -4 -28 8 -50 25 -22 17 -40 38 -40 46 0 8 14 23
31 33 18 11 37 17 44 15z"/>
</g>
</svg>
