<?xml version="1.0" standalone="no"?>
<!DOCTYPE svg PUBLIC "-//W3C//DTD SVG 20010904//EN"
 "http://www.w3.org/TR/2001/REC-SVG-20010904/DTD/svg10.dtd">
<svg version="1.0" xmlns="http://www.w3.org/2000/svg"
 width="56.000000pt" height="56.000000pt" viewBox="0 0 56.000000 56.000000"
 preserveAspectRatio="xMidYMid meet">
<metadata>
Created by potrace 1.16, written by Peter Selinger 2001-2019
</metadata>
<g transform="translate(0.000000,56.000000) scale(0.100000,-0.100000)"
fill="#000000" stroke="none">
<path d="M352 560 c-6 0 -14 -10 -18 -22 -4 -13 -14 -34 -23 -48 -9 -13 -22
-40 -28 -60 -7 -19 -13 -56 -13 -81 0 -26 7 -63 15 -83 10 -23 24 -38 40 -42
16 -4 25 -13 25 -26 0 -10 -14 -49 -32 -86 -17 -37 -40 -77 -51 -89 -20 -23
-20 -23 6 -23 16 0 37 11 52 28 14 15 35 46 46 69 10 23 24 65 30 93 9 43 17
55 50 75 21 14 45 38 54 54 8 17 15 40 15 52 0 12 -11 41 -25 64 -14 25 -39
49 -59 59 -19 9 -44 28 -54 41 -11 14 -25 25 -30 25z m7 -60 c5 0 11 -10 15
-22 3 -13 6 -48 6 -79 0 -31 -3 -70 -6 -87 -4 -18 -14 -32 -25 -35 -13 -3 -23
2 -30 16 -7 12 -9 46 -7 82 3 33 13 75 22 93 9 18 20 32 25 32z m74 -50 c6 0
16 -8 23 -17 7 -10 14 -34 14 -54 0 -19 -6 -44 -14 -55 -8 -10 -16 -17 -19
-14 -3 3 -7 35 -9 73 -2 38 0 67 5 67z"/>
<path d="M63 480 c-9 0 -13 -18 -13 -63 0 -35 -5 -89 -11 -121 -12 -56 -11
-57 17 -86 16 -16 36 -30 44 -30 8 0 20 12 26 28 7 15 15 42 18 60 4 25 3 31
-7 26 -6 -4 -20 -14 -30 -22 -9 -8 -20 -12 -24 -9 -3 4 -1 36 5 71 7 35 12 77
12 93 0 16 -5 34 -12 41 -7 7 -18 12 -25 12z"/>
</g>
</svg>
