<?xml version="1.0" standalone="no"?>
<!DOCTYPE svg PUBLIC "-//W3C//DTD SVG 20010904//EN"
 "http://www.w3.org/TR/2001/REC-SVG-20010904/DTD/svg10.dtd">
<svg version="1.0" xmlns="http://www.w3.org/2000/svg"
 width="56.000000pt" height="56.000000pt" viewBox="0 0 56.000000 56.000000"
 preserveAspectRatio="xMidYMid meet">
<metadata>
Created by potrace 1.16, written by Peter Selinger 2001-2019
</metadata>
<g transform="translate(0.000000,56.000000) scale(0.100000,-0.100000)"
fill="#000000" stroke="none">
<path d="M330 540 c-25 18 -25 18 -53 -20 -24 -34 -27 -47 -27 -116 0 -43 5
-94 11 -113 7 -20 16 -45 21 -56 7 -15 3 -32 -17 -67 -14 -25 -32 -52 -40 -58
-8 -7 -15 -17 -15 -22 0 -6 -19 -28 -42 -49 -43 -39 -43 -39 -13 -37 20 2 33
11 40 25 5 13 15 23 20 23 6 0 27 21 47 48 19 26 41 57 47 70 10 18 15 20 31
12 10 -5 26 -10 35 -10 8 0 36 20 60 45 45 44 45 44 45 125 0 73 -3 84 -27
115 -22 28 -30 32 -46 23 -18 -9 -18 -10 2 -32 12 -12 23 -42 27 -67 3 -24 2
-62 -3 -84 -7 -29 -17 -44 -41 -58 -18 -11 -35 -17 -38 -15 -2 3 3 60 12 127
15 104 16 124 4 147 -8 14 -26 34 -40 44z m-18 -55 c6 -10 13 -51 16 -90 2
-40 -1 -83 -8 -100 -11 -29 -12 -29 -26 -11 -9 13 -14 45 -14 92 0 40 5 85 11
101 10 26 11 27 21 8z"/>
<path d="M91 454 c-5 4 -12 2 -15 -3 -3 -4 -6 -60 -7 -122 -1 -63 -1 -129 0
-146 1 -27 5 -33 22 -33 12 0 28 8 35 18 7 9 14 26 14 37 0 11 7 28 15 39 7
10 22 43 31 72 9 30 14 57 11 60 -3 3 -10 3 -16 -1 -6 -3 -11 -17 -11 -31 0
-13 -4 -24 -10 -24 -5 0 -10 -8 -10 -17 0 -10 -11 -31 -25 -48 -21 -26 -24
-28 -25 -10 -1 11 -1 61 0 112 1 50 -3 94 -9 97z"/>
<path d="M212 422 c-6 6 -12 6 -17 -2 -4 -6 -3 -16 3 -22 6 -6 12 -6 17 2 4 6
3 16 -3 22z"/>
<path d="M376 69 c-6 -1 -19 -3 -28 -6 -10 -2 -18 -8 -18 -13 0 -4 -17 -16
-37 -26 -38 -19 -38 -19 10 -22 36 -2 57 2 84 19 33 21 34 23 17 36 -10 7 -23
12 -28 12z"/>
</g>
</svg>
