<?xml version="1.0" standalone="no"?>
<!DOCTYPE svg PUBLIC "-//W3C//DTD SVG 20010904//EN"
 "http://www.w3.org/TR/2001/REC-SVG-20010904/DTD/svg10.dtd">
<svg version="1.0" xmlns="http://www.w3.org/2000/svg"
 width="128.000000pt" height="128.000000pt" viewBox="0 0 128.000000 128.000000"
 preserveAspectRatio="xMidYMid meet">
<metadata>
Created by potrace 1.16, written by Peter Selinger 2001-2019
</metadata>
<g transform="translate(0.000000,128.000000) scale(0.100000,-0.100000)"
fill="#000000" stroke="none">
<path d="M824 1280 c-5 -1 -14 -6 -20 -13 -6 -7 -22 -20 -34 -30 -22 -19 -22
-19 4 -46 14 -15 26 -37 26 -48 0 -15 -19 -33 -67 -63 -66 -42 -66 -42 -87
-14 -12 15 -23 44 -26 64 -4 31 -9 35 -37 38 -17 2 -46 -4 -62 -13 -17 -8 -31
-19 -31 -24 0 -5 7 -14 15 -21 8 -7 15 -24 15 -39 0 -14 -4 -31 -8 -37 -4 -6
-26 -15 -50 -19 -24 -4 -59 -7 -78 -7 -27 0 -34 -4 -32 -16 2 -10 23 -20 58
-28 30 -7 63 -11 72 -8 10 3 21 -3 28 -16 6 -11 9 -29 6 -38 -4 -10 -31 -34
-61 -52 -31 -19 -64 -42 -75 -50 -11 -8 -28 -41 -37 -73 -9 -31 -13 -60 -10
-64 4 -3 17 2 29 11 13 9 33 23 46 33 20 14 25 14 37 2 7 -8 17 -30 20 -50 5
-29 3 -38 -12 -44 -10 -4 -47 -10 -83 -14 -36 -3 -64 -10 -64 -16 1 -5 33 -15
70 -22 38 -6 78 -9 89 -7 11 2 25 1 32 -4 9 -5 5 -27 -13 -82 -14 -41 -42
-105 -61 -143 -23 -43 -64 -95 -113 -145 -72 -72 -77 -80 -83 -130 -5 -45 -4
-52 11 -52 9 0 44 30 77 67 33 37 70 83 82 102 12 20 34 56 48 81 15 25 42 85
59 135 32 90 32 90 82 98 27 5 61 8 76 8 16 -1 31 6 37 16 9 16 10 14 11 -8 0
-19 -5 -26 -17 -25 -12 1 -19 -7 -21 -23 -2 -13 -14 -33 -25 -43 -12 -10 -48
-35 -80 -55 -57 -36 -57 -36 -57 -103 0 -44 5 -73 15 -86 15 -18 16 -18 50 21
34 40 34 40 10 43 -18 2 -25 9 -25 26 0 12 5 27 12 34 7 7 27 12 45 12 26 0
33 4 33 20 0 11 -5 20 -12 20 -6 0 -3 9 7 20 10 11 22 20 28 20 5 0 7 -19 2
-47 -4 -34 -14 -53 -31 -67 -23 -17 -24 -19 -7 -31 16 -12 16 -18 5 -72 -8
-32 -16 -76 -19 -98 -4 -31 -1 -44 12 -55 15 -13 20 -11 44 18 14 18 31 32 38
32 6 0 20 -11 31 -25 11 -14 27 -25 35 -25 9 0 25 12 36 27 13 15 19 34 16 44
-4 10 -6 69 -6 131 -1 62 4 125 10 140 5 14 19 29 31 33 12 4 30 0 44 -9 13
-8 34 -32 47 -52 23 -37 23 -37 -5 -59 -27 -22 -27 -22 23 -47 47 -23 52 -24
66 -8 8 9 15 33 15 52 0 32 -8 44 -62 93 -35 32 -73 64 -86 72 -12 9 -37 19
-55 22 -22 5 -35 15 -41 33 -5 14 -6 33 -3 41 3 9 29 28 57 42 27 14 50 32 50
39 0 8 -8 17 -17 21 -10 5 -25 7 -35 6 -9 -1 -19 3 -23 8 -3 6 4 23 15 39 19
26 20 32 9 74 -10 37 -10 50 0 61 6 8 36 25 66 37 37 15 55 28 55 39 0 10 -11
28 -25 41 -13 13 -42 26 -62 29 -36 6 -38 8 -41 48 -2 32 2 47 17 62 13 13 34
21 55 21 19 0 38 5 42 12 4 6 -6 23 -25 40 -26 23 -39 28 -62 23 -29 -6 -29
-6 -29 37 0 24 -7 51 -14 61 -7 9 -17 17 -22 17z m-41 -220 c8 0 17 -3 20 -6
3 -4 2 -15 -4 -26 -5 -10 -14 -16 -20 -13 -5 4 -9 15 -9 26 0 10 6 19 13 19z
m-203 -10 c6 0 13 -7 16 -15 4 -8 12 -15 20 -15 7 0 17 -7 21 -15 7 -12 14
-11 45 11 21 15 44 24 52 21 13 -5 13 -12 4 -39 -6 -18 -22 -47 -35 -64 -12
-17 -23 -38 -23 -47 0 -9 -10 -17 -22 -19 -14 -2 -31 -17 -43 -40 -15 -28 -17
-40 -9 -48 9 -9 18 -4 37 16 19 20 36 28 61 28 21 0 32 4 29 11 -2 7 3 17 11
24 8 7 23 11 32 9 11 -2 17 -14 19 -36 2 -21 -2 -35 -11 -39 -8 -3 -22 1 -31
8 -15 12 -16 12 -10 -4 4 -11 10 -31 13 -45 3 -15 10 -37 16 -49 6 -13 8 -26
3 -30 -4 -5 -10 -2 -12 5 -3 6 -11 12 -18 12 -7 0 -25 -6 -40 -14 -27 -14 -27
-14 -3 -22 12 -4 30 -7 39 -5 11 1 18 -7 21 -24 3 -14 0 -32 -7 -41 -6 -9 -20
-15 -31 -12 -10 2 -20 12 -22 23 -2 11 -11 28 -20 38 -12 13 -28 17 -66 15
-51 -3 -51 -3 -49 126 3 130 3 130 35 160 33 30 33 30 3 36 -26 4 -30 10 -33
43 -2 22 1 37 8 37z m210 -55 c6 -3 10 -23 10 -44 0 -31 -4 -40 -21 -44 -11
-3 -22 0 -25 7 -3 7 2 29 11 49 9 21 20 35 25 32z m85 -85 c8 0 17 -5 21 -11
3 -6 2 -15 -4 -21 -6 -6 -18 -8 -26 -5 -9 4 -13 13 -10 22 3 8 12 15 19 15z
m-239 -300 c5 0 15 -5 22 -12 7 -7 12 -22 12 -33 0 -13 -10 -26 -22 -32 -13
-6 -33 -13 -45 -16 -12 -3 -30 1 -39 7 -11 8 -14 20 -10 33 4 12 21 28 39 37
18 8 37 16 43 16z m117 -147 c4 -3 14 -20 22 -40 8 -19 15 -37 15 -39 0 -2 -7
-1 -15 2 -8 4 -22 1 -30 -6 -8 -7 -15 -16 -15 -21 0 -5 9 -9 20 -9 11 0 20 -7
20 -15 0 -9 7 -18 15 -21 13 -6 14 -8 1 -18 -7 -6 -16 -38 -20 -73 -4 -44 -2
-63 7 -66 9 -3 9 -8 -2 -20 -7 -10 -27 -17 -42 -17 -22 0 -32 6 -39 25 -6 16
-5 35 2 56 7 19 8 61 4 108 -3 42 -11 78 -16 79 -6 2 -10 10 -10 18 0 8 6 14
14 14 8 0 17 9 21 19 3 11 14 21 23 24 9 2 20 2 25 0z"/>
<path d="M1045 656 c-5 1 -20 -2 -32 -8 -13 -6 -23 -19 -23 -28 0 -10 7 -23
15 -30 8 -6 22 -10 32 -8 13 2 18 12 18 37 0 19 -4 36 -10 37z"/>
</g>
</svg>
