<?xml version="1.0" standalone="no"?>
<!DOCTYPE svg PUBLIC "-//W3C//DTD SVG 20010904//EN"
 "http://www.w3.org/TR/2001/REC-SVG-20010904/DTD/svg10.dtd">
<svg version="1.0" xmlns="http://www.w3.org/2000/svg"
 width="128.000000pt" height="128.000000pt" viewBox="0 0 128.000000 128.000000"
 preserveAspectRatio="xMidYMid meet">
<metadata>
Created by potrace 1.16, written by Peter Selinger 2001-2019
</metadata>
<g transform="translate(0.000000,128.000000) scale(0.100000,-0.100000)"
fill="#000000" stroke="none">
<path d="M1026 1000 c-18 0 -39 -7 -46 -15 -10 -12 -9 -20 4 -40 9 -13 16 -43
16 -65 0 -26 -13 -69 -34 -116 -19 -41 -61 -107 -94 -146 -33 -40 -87 -99
-121 -131 -33 -32 -61 -63 -61 -68 0 -5 7 -9 15 -9 8 0 30 9 49 20 19 10 74
49 121 85 47 36 90 65 94 65 5 0 29 -20 53 -44 23 -24 54 -56 67 -72 13 -16
40 -53 59 -81 28 -42 40 -53 62 -53 16 0 35 10 48 25 12 14 22 39 22 56 0 17
-7 38 -15 47 -9 9 -35 36 -58 59 -23 24 -53 47 -67 52 -14 5 -43 13 -65 17
-33 7 -41 14 -43 35 -2 21 11 40 65 95 37 38 78 82 91 98 12 16 22 43 22 61 0
25 -7 38 -32 57 -18 13 -52 34 -76 46 -23 12 -58 22 -76 22z"/>
<path d="M429 959 c-13 0 -31 -3 -39 -6 -8 -3 -21 -10 -28 -16 -9 -7 -4 -19
22 -48 19 -21 42 -51 50 -68 9 -16 29 -39 45 -50 29 -21 29 -21 58 3 15 13 37
41 47 63 11 21 27 47 36 58 10 11 20 28 23 37 3 10 2 20 -4 23 -5 4 -27 -7
-48 -24 -21 -17 -44 -31 -51 -31 -7 0 -29 14 -50 30 -21 17 -48 30 -61 29z"/>
<path d="M184 899 c-10 -1 -35 -4 -54 -8 -20 -4 -41 -11 -48 -15 -7 -4 -12
-14 -12 -23 0 -9 8 -26 19 -37 10 -12 33 -49 51 -83 20 -40 35 -86 40 -130 5
-37 11 -90 13 -117 5 -48 5 -48 -68 -82 -41 -19 -80 -34 -88 -34 -8 0 -20 -6
-26 -14 -10 -11 -4 -22 27 -55 23 -24 48 -41 61 -41 12 0 36 7 54 17 18 9 56
39 86 67 29 28 70 67 91 86 21 19 55 49 75 65 21 17 64 54 96 84 33 30 59 60
59 68 0 7 -11 13 -26 13 -14 0 -46 -14 -72 -32 -25 -17 -63 -47 -84 -66 -21
-19 -44 -32 -52 -29 -11 4 -16 38 -21 138 -8 132 -8 132 -55 180 -26 28 -55
49 -66 48z"/>
</g>
</svg>
