<?xml version="1.0" standalone="no"?>
<!DOCTYPE svg PUBLIC "-//W3C//DTD SVG 20010904//EN"
 "http://www.w3.org/TR/2001/REC-SVG-20010904/DTD/svg10.dtd">
<svg version="1.0" xmlns="http://www.w3.org/2000/svg"
 width="128.000000pt" height="128.000000pt" viewBox="0 0 128.000000 128.000000"
 preserveAspectRatio="xMidYMid meet">
<metadata>
Created by potrace 1.16, written by Peter Selinger 2001-2019
</metadata>
<g transform="translate(0.000000,128.000000) scale(0.100000,-0.100000)"
fill="#000000" stroke="none">
<path d="M737 1090 c-7 0 -21 -6 -30 -13 -16 -11 -11 -17 43 -65 33 -29 60
-58 60 -63 0 -5 -10 -23 -21 -38 -12 -16 -18 -34 -15 -39 4 -6 -10 -41 -29
-79 -20 -37 -42 -73 -50 -79 -8 -6 -18 -22 -24 -35 -5 -14 -7 -36 -4 -50 3
-18 -1 -26 -19 -34 -12 -5 -32 -25 -43 -44 -11 -18 -49 -67 -84 -110 -35 -42
-77 -89 -95 -104 -17 -16 -54 -39 -82 -53 -28 -13 -54 -24 -58 -24 -3 0 -25
-9 -49 -19 -23 -10 -50 -22 -60 -25 -11 -3 -17 -13 -15 -23 2 -13 15 -19 47
-21 25 -2 54 1 65 6 12 6 37 16 56 23 19 6 81 39 137 72 86 49 108 67 133 108
16 27 30 54 30 59 0 5 15 20 34 32 18 12 43 37 56 55 12 18 27 33 33 33 5 0
52 -42 103 -94 51 -51 110 -101 131 -111 21 -10 51 -29 68 -43 27 -22 35 -24
94 -18 36 4 80 14 98 23 18 8 33 18 33 22 0 3 -11 13 -23 22 -12 9 -45 23 -73
33 -28 9 -68 25 -90 36 -21 11 -46 20 -55 20 -9 0 -24 9 -34 20 -10 11 -27 22
-39 26 -11 4 -48 24 -81 46 -33 21 -70 41 -82 44 -13 4 -23 10 -23 15 0 6 12
33 26 62 15 29 35 64 45 78 10 14 32 66 48 114 29 88 29 88 10 124 -14 27 -36
46 -89 74 -38 20 -76 37 -83 37z"/>
<path d="M85 1000 c-18 0 -35 -3 -38 -7 -4 -3 -7 -13 -7 -20 0 -8 10 -27 21
-43 21 -27 21 -32 9 -112 -6 -46 -21 -119 -31 -163 -11 -44 -25 -88 -30 -97
-5 -10 -9 -33 -9 -52 0 -22 6 -36 16 -40 9 -3 22 -6 30 -6 8 0 27 8 42 18 15
11 51 33 80 50 29 18 59 32 65 32 7 0 33 10 59 22 26 12 50 28 53 36 2 7 -3
16 -12 19 -8 3 -23 1 -32 -5 -9 -6 -36 -21 -60 -32 -24 -11 -49 -20 -56 -20
-7 0 -18 7 -26 16 -11 13 -9 27 10 87 13 40 34 95 47 124 13 28 24 56 24 62 0
6 -28 37 -62 71 -49 47 -69 60 -93 60z"/>
<path d="M347 800 c-3 0 -9 -5 -12 -10 -4 -6 -3 -30 0 -53 4 -23 14 -51 21
-62 8 -11 14 -30 14 -43 0 -12 7 -38 14 -57 8 -19 21 -35 28 -35 8 0 31 17 51
38 20 21 37 47 37 57 0 11 -32 52 -74 93 -40 39 -76 72 -79 72z"/>
<path d="M1143 242 c-10 2 -52 -4 -93 -15 -41 -10 -88 -22 -105 -26 -16 -4
-30 -11 -30 -16 0 -6 44 -11 99 -13 90 -3 101 -1 122 19 13 13 24 28 24 35 0
6 -8 14 -17 16z"/>
</g>
</svg>
