<?xml version="1.0" standalone="no"?>
<!DOCTYPE svg PUBLIC "-//W3C//DTD SVG 20010904//EN"
 "http://www.w3.org/TR/2001/REC-SVG-20010904/DTD/svg10.dtd">
<svg version="1.0" xmlns="http://www.w3.org/2000/svg"
 width="128.000000pt" height="128.000000pt" viewBox="0 0 128.000000 128.000000"
 preserveAspectRatio="xMidYMid meet">
<metadata>
Created by potrace 1.16, written by Peter Selinger 2001-2019
</metadata>
<g transform="translate(0.000000,128.000000) scale(0.100000,-0.100000)"
fill="#000000" stroke="none">
<path d="M949 1250 c-8 0 -18 -3 -21 -6 -4 -3 -17 -7 -30 -9 -12 -1 -43 -8
-68 -14 -25 -7 -74 -19 -110 -27 -36 -7 -85 -19 -110 -26 -25 -6 -60 -23 -77
-36 -18 -13 -33 -31 -33 -38 0 -8 9 -14 20 -14 10 0 36 -11 56 -25 21 -14 49
-28 63 -32 13 -3 38 0 55 7 17 7 54 19 81 27 28 8 60 17 73 20 18 4 25 -1 36
-29 10 -22 14 -67 14 -129 -1 -76 3 -102 17 -126 17 -30 17 -33 1 -58 -9 -14
-28 -30 -42 -36 -17 -6 -40 -6 -67 2 -23 6 -73 15 -112 19 -38 4 -79 11 -90
14 -11 4 -28 1 -38 -6 -12 -9 -16 -20 -11 -31 3 -10 21 -25 38 -34 17 -8 39
-22 49 -31 12 -10 17 -30 17 -62 0 -30 -7 -56 -18 -71 -10 -13 -23 -36 -29
-50 -9 -20 -21 -28 -53 -33 -33 -5 -47 -3 -62 11 -15 14 -17 25 -12 62 4 25 7
51 6 56 -1 6 -3 67 -5 136 -3 83 -10 144 -22 179 -9 28 -15 64 -12 79 5 23 -1
34 -31 62 -20 19 -57 45 -82 58 -40 21 -49 22 -87 12 -24 -7 -43 -18 -43 -26
0 -7 3 -21 6 -30 4 -9 23 -25 44 -35 21 -11 45 -27 54 -35 9 -9 16 -29 16 -45
0 -16 5 -32 10 -35 6 -4 8 -66 4 -171 -3 -106 -10 -176 -19 -198 -9 -20 -12
-48 -8 -70 3 -20 1 -62 -6 -93 -6 -32 -13 -101 -16 -153 -3 -52 -8 -107 -11
-122 -4 -19 0 -29 13 -36 10 -5 42 -12 71 -15 30 -4 61 -2 70 2 9 5 30 13 47
17 23 7 32 18 42 53 8 29 9 49 3 62 -6 10 -10 27 -10 38 0 11 10 32 23 46 22
26 22 26 67 3 25 -13 65 -30 90 -38 25 -8 54 -20 66 -27 11 -7 48 -16 82 -19
34 -4 67 -13 73 -20 6 -8 23 -14 38 -14 14 0 32 4 40 9 8 5 18 33 22 63 4 29
8 84 8 122 1 39 8 98 17 133 12 48 14 89 10 161 -3 53 -8 126 -10 162 -2 36
-9 136 -16 223 -6 87 -9 170 -6 185 3 15 3 32 -2 38 -4 5 -18 18 -32 27 -13 9
-32 17 -41 17z m-104 -620 c6 0 21 -9 34 -21 21 -20 22 -25 15 -127 -3 -59
-12 -129 -19 -157 -9 -37 -17 -51 -32 -53 -11 -2 -24 3 -30 10 -6 7 -27 44
-47 83 -20 38 -36 80 -36 93 0 13 12 44 27 70 14 26 38 59 52 75 13 15 30 27
36 27z"/>
</g>
</svg>
