<?xml version="1.0" standalone="no"?>
<!DOCTYPE svg PUBLIC "-//W3C//DTD SVG 20010904//EN"
 "http://www.w3.org/TR/2001/REC-SVG-20010904/DTD/svg10.dtd">
<svg version="1.0" xmlns="http://www.w3.org/2000/svg"
 width="128.000000pt" height="128.000000pt" viewBox="0 0 128.000000 128.000000"
 preserveAspectRatio="xMidYMid meet">
<metadata>
Created by potrace 1.16, written by Peter Selinger 2001-2019
</metadata>
<g transform="translate(0.000000,128.000000) scale(0.100000,-0.100000)"
fill="#000000" stroke="none">
<path d="M829 1260 c-8 -1 -30 -9 -49 -20 -19 -11 -44 -19 -55 -20 -11 0 -49
-10 -85 -21 -36 -12 -85 -29 -109 -37 -24 -8 -57 -27 -74 -42 -17 -15 -27 -32
-23 -38 4 -7 14 -12 23 -12 8 0 32 9 52 19 20 11 65 27 101 35 36 8 83 16 105
17 22 1 56 -3 77 -10 20 -6 39 -19 42 -27 3 -8 -1 -25 -8 -37 -12 -18 -14 -64
-11 -245 3 -122 9 -280 15 -351 6 -71 8 -136 4 -145 -3 -9 -17 -16 -32 -16
-14 0 -46 12 -71 28 -25 15 -59 35 -76 44 -16 9 -28 20 -26 25 2 4 18 13 34
18 17 6 32 15 34 21 2 6 -8 23 -21 37 -18 20 -35 27 -61 27 -20 0 -45 -5 -56
-11 -14 -7 -30 -7 -55 1 -23 8 -43 24 -56 46 -11 19 -34 42 -50 50 -27 14 -30
19 -24 52 3 20 -3 88 -14 152 -11 63 -25 140 -31 170 -6 30 -22 72 -36 93 -14
20 -32 37 -40 37 -7 0 -16 -6 -19 -14 -3 -8 2 -29 11 -46 9 -18 23 -74 31
-124 10 -66 11 -109 4 -161 -6 -38 -12 -115 -14 -170 -2 -55 -8 -111 -13 -125
-6 -14 -13 -46 -17 -72 -5 -32 -2 -61 8 -90 8 -24 26 -70 40 -102 14 -32 26
-67 26 -78 0 -10 11 -41 25 -69 14 -27 30 -47 35 -44 6 3 10 17 10 31 0 17 5
24 20 24 12 0 22 9 26 24 3 13 -2 57 -11 98 -9 40 -22 84 -28 98 -6 14 -14 57
-18 95 -3 39 -10 80 -14 92 -5 17 -3 25 11 30 13 5 31 -9 73 -55 48 -52 64
-63 112 -75 40 -10 76 -30 123 -68 36 -29 66 -56 66 -60 0 -4 19 -28 43 -52
23 -24 52 -56 64 -70 13 -15 32 -27 43 -27 14 0 25 12 37 38 8 20 19 46 23 57
4 11 13 43 20 70 7 28 15 118 17 200 2 83 6 204 8 270 2 66 9 152 14 190 5 39
14 85 20 104 8 26 7 40 -4 62 -8 15 -15 36 -15 46 0 10 -8 28 -18 40 -9 12
-47 37 -83 57 -36 20 -72 36 -80 36z m-13 -41 c10 -8 12 -15 4 -23 -7 -7 -13
-7 -21 1 -6 6 -8 16 -4 23 5 8 11 8 21 -1z m49 -149 c5 0 15 -4 21 -8 6 -4 13
-15 17 -24 3 -10 10 -18 16 -18 5 0 11 9 14 21 3 12 10 18 16 14 6 -3 11 -15
11 -26 0 -11 -10 -23 -24 -29 -15 -5 -36 -4 -60 4 -19 7 -38 15 -42 18 -3 3 1
15 8 27 7 12 17 21 23 21z m53 -90 c5 0 15 -7 22 -15 11 -13 11 -20 0 -40 -7
-14 -17 -25 -22 -25 -5 0 -6 5 -3 10 4 6 1 17 -5 25 -7 8 -10 22 -6 30 3 8 9
15 14 15z m22 -101 c8 1 21 -8 28 -20 11 -18 11 -24 -3 -39 -16 -17 -17 -17
-41 7 -13 13 -24 28 -24 33 0 4 6 11 13 13 6 3 19 6 27 6z"/>
<path d="M611 980 c-21 0 -42 -5 -47 -10 -6 -6 -41 -17 -78 -24 -37 -8 -70
-17 -73 -20 -3 -3 0 -12 7 -21 7 -8 27 -15 44 -15 17 0 37 -4 45 -9 10 -7 12
-21 8 -53 -4 -23 -10 -53 -13 -65 -5 -18 -2 -23 12 -23 11 0 30 6 44 13 14 8
49 26 78 42 30 15 58 38 64 51 6 12 8 38 4 58 -4 20 -18 44 -33 56 -15 12 -41
20 -62 20z"/>
</g>
</svg>
