<?xml version="1.0" standalone="no"?>
<!DOCTYPE svg PUBLIC "-//W3C//DTD SVG 20010904//EN"
 "http://www.w3.org/TR/2001/REC-SVG-20010904/DTD/svg10.dtd">
<svg version="1.0" xmlns="http://www.w3.org/2000/svg"
 width="128.000000pt" height="128.000000pt" viewBox="0 0 128.000000 128.000000"
 preserveAspectRatio="xMidYMid meet">
<metadata>
Created by potrace 1.16, written by Peter Selinger 2001-2019
</metadata>
<g transform="translate(0.000000,128.000000) scale(0.100000,-0.100000)"
fill="#000000" stroke="none">
<path d="M926 1250 c-8 0 -20 -10 -27 -21 -9 -17 -17 -20 -44 -16 -19 3 -44
-1 -60 -9 -15 -8 -34 -14 -43 -14 -8 0 -50 -36 -93 -80 -51 -53 -79 -90 -81
-108 -3 -26 -5 -27 -58 -23 -36 2 -59 9 -66 20 -7 9 -30 35 -52 59 -39 42 -42
43 -93 40 -54 -3 -54 -3 -57 -40 -2 -29 1 -39 17 -48 19 -10 21 -20 21 -129 0
-96 3 -120 15 -125 12 -4 15 -24 15 -90 0 -65 3 -85 15 -90 9 -3 15 -18 15
-40 0 -20 -6 -39 -14 -43 -11 -6 -15 -40 -17 -147 -3 -119 -1 -140 13 -150 13
-9 15 -22 11 -54 -5 -39 -3 -45 35 -82 41 -41 41 -41 76 -3 33 35 35 43 36
102 0 55 3 67 25 87 14 13 25 34 25 49 0 16 6 25 16 25 8 0 22 -7 31 -16 11
-11 32 -15 71 -13 41 2 57 -1 62 -12 4 -8 13 -25 21 -39 10 -17 14 -58 14
-130 0 -105 0 -105 58 -108 55 -3 57 -2 57 21 0 14 7 28 15 31 12 4 14 14 10
38 -5 30 -1 38 49 86 30 28 64 52 75 52 18 0 21 6 21 49 0 42 -5 54 -30 79
-30 30 -30 30 -30 151 0 93 3 122 14 128 8 4 16 19 18 33 2 20 9 24 33 25 25
0 30 4 30 24 0 17 -10 30 -30 41 -24 13 -31 24 -33 57 -2 27 2 44 13 53 12 10
15 40 15 166 0 154 0 154 -24 154 -15 0 -34 12 -49 30 -14 17 -33 30 -41 30z
m-80 -140 c1 0 9 -3 18 -6 9 -3 16 -15 16 -25 0 -11 6 -28 13 -39 10 -17 9
-22 -3 -30 -10 -6 -15 -26 -15 -62 0 -53 0 -53 -92 -56 -74 -2 -93 0 -93 11 0
8 7 29 16 46 9 18 33 48 53 67 20 18 44 34 54 34 11 0 17 8 17 23 0 13 3 27 7
30 3 4 7 7 9 7z m-290 -241 c58 1 76 -3 97 -19 14 -11 32 -20 41 -20 9 0 16
-8 16 -19 0 -11 3 -26 6 -35 4 -10 -13 -36 -50 -74 -30 -32 -65 -80 -77 -106
-16 -37 -19 -58 -14 -93 4 -25 9 -51 12 -59 3 -8 -11 -21 -36 -33 -22 -12 -52
-21 -65 -21 -18 0 -27 6 -31 23 -2 12 -4 54 -3 92 1 39 -5 121 -14 183 -12 81
-14 121 -7 142 6 17 19 31 32 33 12 2 54 5 93 6z m386 1 c4 0 8 -9 8 -20 0
-13 -5 -18 -15 -14 -8 4 -15 9 -15 13 0 4 3 11 7 14 3 4 10 7 15 7z m-24 -64
c8 -8 11 -19 8 -25 -4 -6 -14 -11 -22 -11 -8 0 -14 8 -14 18 0 10 3 22 7 26 4
3 13 0 21 -8z m-141 -126 c11 0 30 -12 43 -27 14 -16 23 -37 21 -48 -1 -11 -8
-26 -13 -33 -6 -7 -11 -36 -12 -65 -1 -52 -1 -52 -48 -55 -42 -3 -48 -1 -64
27 -10 17 -24 31 -31 31 -6 0 -15 5 -19 12 -4 6 2 19 14 29 12 9 22 25 22 35
0 10 7 26 17 36 9 10 22 18 28 18 7 0 15 9 18 20 3 11 14 20 24 20z m-154
-120 c4 0 7 -11 7 -25 0 -16 -6 -25 -15 -25 -9 0 -18 7 -22 16 -3 9 0 20 8 25
8 5 17 9 22 9z m237 -202 c8 -2 15 -12 15 -23 0 -13 -8 -21 -22 -23 -17 -3
-23 2 -23 16 0 10 3 22 7 26 4 4 14 5 23 4z m52 -16 c6 -6 7 -16 3 -22 -5 -8
-11 -8 -17 -2 -6 6 -7 16 -3 22 5 8 11 8 17 2z m-80 -50 c6 -6 8 -18 4 -28 -5
-13 -10 -14 -18 -6 -6 6 -8 18 -4 28 5 13 10 14 18 6z"/>
<path d="M243 667 c-6 2 -14 -1 -18 -6 -3 -6 -3 -15 0 -21 3 -5 13 -10 21 -10
9 0 14 7 12 17 -2 9 -8 18 -15 20z"/>
</g>
</svg>
