<?xml version="1.0" standalone="no"?>
<!DOCTYPE svg PUBLIC "-//W3C//DTD SVG 20010904//EN"
 "http://www.w3.org/TR/2001/REC-SVG-20010904/DTD/svg10.dtd">
<svg version="1.0" xmlns="http://www.w3.org/2000/svg"
 width="128.000000pt" height="128.000000pt" viewBox="0 0 128.000000 128.000000"
 preserveAspectRatio="xMidYMid meet">
<metadata>
Created by potrace 1.16, written by Peter Selinger 2001-2019
</metadata>
<g transform="translate(0.000000,128.000000) scale(0.100000,-0.100000)"
fill="#000000" stroke="none">
<path d="M957 1280 c-6 0 -17 -7 -22 -16 -8 -13 -35 -15 -160 -16 -82 0 -158
-4 -168 -10 -10 -5 -55 -10 -100 -12 -72 -2 -82 -5 -85 -22 -1 -10 3 -27 11
-38 7 -10 33 -22 58 -28 24 -5 109 -10 189 -11 121 -3 150 -6 173 -21 15 -10
30 -29 33 -43 4 -13 4 -44 1 -68 -5 -34 -1 -53 18 -91 25 -49 25 -49 4 -78
-18 -24 -20 -32 -10 -48 8 -13 10 -38 5 -74 -3 -30 -10 -57 -15 -60 -5 -3 -9
-14 -9 -25 0 -10 4 -19 10 -19 5 0 21 -17 35 -37 14 -21 25 -50 25 -64 0 -15
8 -51 17 -80 10 -30 24 -59 32 -65 8 -6 11 -16 6 -23 -4 -7 -17 -10 -30 -7
-13 3 -44 -3 -70 -14 -40 -17 -52 -19 -80 -9 -18 7 -40 9 -49 6 -9 -4 -21 -18
-26 -32 -5 -14 -16 -28 -24 -31 -7 -3 -25 6 -39 20 -22 22 -35 26 -83 26 -41
0 -64 6 -85 21 -29 20 -29 20 -29 141 0 68 5 136 12 154 9 27 9 37 -6 58 -13
20 -15 38 -10 75 4 32 2 56 -7 72 -8 15 -12 53 -10 102 2 68 0 81 -21 107 -13
17 -33 44 -46 60 -15 18 -39 34 -65 41 -23 6 -65 26 -94 44 -28 19 -63 37 -76
40 -16 4 -30 1 -41 -10 -11 -11 -14 -25 -10 -39 3 -11 13 -36 22 -55 10 -19
25 -38 35 -43 9 -4 25 -12 34 -16 10 -5 22 -31 29 -63 7 -30 18 -106 25 -169
7 -63 12 -126 11 -140 0 -14 -4 -74 -7 -135 -3 -60 -9 -160 -12 -222 -3 -77
-1 -123 7 -145 7 -18 15 -62 19 -98 6 -65 6 -65 58 -68 48 -3 53 -1 67 25 8
15 26 38 40 50 14 13 26 30 26 38 0 9 7 27 16 40 9 13 31 29 49 35 20 6 53 8
79 5 27 -4 52 -2 66 5 12 6 29 8 38 4 9 -5 42 -9 72 -11 30 -1 80 -3 110 -6
30 -2 69 1 87 6 27 9 35 7 63 -17 19 -15 42 -26 54 -24 17 2 22 11 24 48 2 29
-3 56 -14 78 -15 28 -16 37 -4 71 10 30 10 53 1 105 -9 49 -9 77 0 111 9 37 8
56 -6 109 -17 61 -17 65 1 95 16 27 16 32 2 48 -8 10 -19 49 -23 88 -5 39 -9
118 -10 177 -1 86 -4 111 -18 126 -10 10 -33 28 -52 38 -19 10 -35 22 -35 26
0 5 -6 8 -13 8z"/>
</g>
</svg>
