<?xml version="1.0" standalone="no"?>
<!DOCTYPE svg PUBLIC "-//W3C//DTD SVG 20010904//EN"
 "http://www.w3.org/TR/2001/REC-SVG-20010904/DTD/svg10.dtd">
<svg version="1.0" xmlns="http://www.w3.org/2000/svg"
 width="128.000000pt" height="128.000000pt" viewBox="0 0 128.000000 128.000000"
 preserveAspectRatio="xMidYMid meet">
<metadata>
Created by potrace 1.16, written by Peter Selinger 2001-2019
</metadata>
<g transform="translate(0.000000,128.000000) scale(0.100000,-0.100000)"
fill="#000000" stroke="none">
<path d="M891 1239 c-15 0 -44 -7 -66 -15 -22 -8 -44 -19 -49 -24 -6 -6 -19
-10 -31 -10 -11 0 -30 -6 -40 -14 -11 -8 -47 -17 -80 -20 -33 -3 -97 -6 -142
-5 -45 0 -91 -4 -102 -10 -11 -7 -25 -20 -31 -31 -7 -13 -7 -26 1 -43 6 -13
24 -31 40 -41 16 -9 34 -27 40 -39 7 -12 17 -25 23 -29 8 -6 7 -11 -3 -17 -13
-8 -13 -15 -2 -49 9 -27 10 -45 3 -58 -6 -11 -8 -31 -5 -46 3 -16 -6 -55 -22
-97 -14 -38 -33 -75 -41 -81 -8 -7 -14 -18 -14 -24 0 -6 18 -28 39 -49 28 -27
44 -36 54 -30 7 4 27 24 43 43 16 19 37 49 47 67 9 17 17 39 17 48 0 9 -9 28
-19 41 -14 17 -21 49 -26 110 -6 68 -12 89 -29 105 -16 16 -18 22 -7 28 7 5
18 19 25 32 9 19 23 26 65 32 52 9 53 9 87 -28 19 -21 34 -41 34 -45 0 -4 -7
-13 -15 -20 -8 -7 -15 -21 -15 -31 0 -11 -11 -42 -25 -71 -14 -28 -25 -59 -25
-68 0 -10 16 -38 35 -64 22 -27 44 -46 56 -46 11 0 22 -7 26 -16 3 -9 1 -24
-6 -33 -6 -9 -14 -23 -17 -33 -3 -9 -16 -19 -29 -22 -12 -3 -33 -21 -46 -41
-14 -20 -45 -44 -72 -57 -32 -15 -47 -28 -44 -38 3 -8 6 -22 8 -30 3 -10 -9
-17 -43 -24 -27 -5 -50 -16 -53 -25 -4 -9 1 -21 11 -28 10 -7 28 -10 43 -6 14
3 33 12 42 19 8 8 23 14 33 14 9 0 39 17 66 38 27 20 60 45 75 55 14 10 33 35
43 55 16 33 21 37 52 34 27 -2 43 -12 68 -42 19 -22 40 -40 48 -40 7 0 21 12
31 27 14 22 18 51 19 157 1 72 7 169 14 216 6 47 12 139 14 205 1 66 0 131 -4
145 -3 14 -17 30 -29 36 -12 7 -28 17 -34 23 -6 6 -22 11 -36 10z m-86 -121
c90 -3 90 -3 96 -63 5 -40 1 -96 -11 -168 -10 -59 -16 -124 -13 -145 3 -25 -1
-50 -11 -70 -9 -18 -23 -32 -32 -32 -8 0 -35 20 -59 44 -23 24 -46 58 -50 76
-6 27 -1 40 35 91 28 40 39 65 35 79 -3 10 -15 22 -26 25 -11 4 -25 19 -31 33
-5 15 -16 48 -22 74 -7 26 -11 50 -7 53 3 3 46 4 96 3z"/>
<path d="M914 300 c-12 0 -27 -7 -34 -15 -8 -9 -30 -15 -59 -15 -25 0 -66 -9
-90 -20 -24 -11 -50 -20 -57 -20 -8 0 -32 -9 -54 -20 -26 -13 -59 -20 -99 -20
-33 0 -63 -4 -66 -10 -3 -5 -19 -10 -34 -10 -15 0 -31 3 -34 7 -4 3 0 14 9 24
9 10 14 26 12 36 -2 10 -13 19 -26 21 -15 2 -32 -7 -53 -30 -17 -18 -39 -50
-49 -71 -14 -29 -16 -44 -9 -61 6 -12 19 -28 30 -34 15 -10 24 -10 42 0 12 6
39 13 60 14 21 1 45 8 53 15 9 7 32 12 52 11 20 -2 59 2 86 9 28 6 67 18 88
26 25 11 51 13 87 8 28 -4 53 -10 56 -15 3 -4 0 -21 -5 -36 -8 -22 -23 -34
-62 -49 -28 -11 -53 -26 -56 -32 -3 -10 13 -13 55 -13 55 0 60 2 59 22 -1 21
3 23 37 20 32 -3 39 0 55 27 9 17 25 31 34 31 10 0 24 10 32 23 7 12 20 39 27
60 13 37 13 38 -26 77 -22 22 -49 40 -61 40z"/>
</g>
</svg>
