<?xml version="1.0" standalone="no"?>
<!DOCTYPE svg PUBLIC "-//W3C//DTD SVG 20010904//EN"
 "http://www.w3.org/TR/2001/REC-SVG-20010904/DTD/svg10.dtd">
<svg version="1.0" xmlns="http://www.w3.org/2000/svg"
 width="128.000000pt" height="128.000000pt" viewBox="0 0 128.000000 128.000000"
 preserveAspectRatio="xMidYMid meet">
<metadata>
Created by potrace 1.16, written by Peter Selinger 2001-2019
</metadata>
<g transform="translate(0.000000,128.000000) scale(0.100000,-0.100000)"
fill="#000000" stroke="none">
<path d="M483 1280 c-7 0 -13 -5 -13 -10 0 -6 4 -18 9 -28 5 -9 16 -33 25 -52
8 -20 20 -58 26 -85 8 -36 8 -62 0 -97 -7 -26 -9 -52 -5 -58 3 -5 13 -10 22
-10 8 0 29 11 45 25 17 14 35 24 41 22 6 -2 13 -9 15 -15 2 -7 -7 -16 -21 -21
-13 -5 -43 -31 -65 -58 -23 -26 -42 -53 -42 -60 0 -6 7 -18 15 -26 8 -9 20
-17 27 -20 9 -3 7 -13 -9 -35 -13 -17 -23 -35 -24 -39 0 -4 -28 -28 -62 -53
-34 -25 -68 -58 -77 -73 -14 -27 -14 -29 9 -48 15 -12 31 -17 40 -13 9 4 27 7
41 8 20 1 24 -3 22 -19 -2 -10 -13 -31 -23 -45 -11 -14 -54 -63 -97 -109 -42
-47 -103 -110 -135 -140 -31 -31 -57 -64 -57 -74 0 -10 7 -31 15 -47 10 -19
23 -30 36 -30 12 0 43 16 70 36 28 20 56 33 64 30 9 -3 15 -19 15 -41 0 -20 7
-49 15 -65 11 -21 23 -30 40 -30 13 0 27 4 30 10 3 5 14 10 25 10 11 0 38 26
68 67 27 38 71 101 98 141 27 40 64 94 81 120 18 26 57 68 85 94 29 26 58 46
63 45 6 -2 11 -20 13 -40 2 -28 -6 -51 -38 -104 -22 -37 -39 -74 -38 -83 2 -8
22 -24 46 -35 23 -11 42 -25 42 -31 0 -7 -14 -27 -32 -45 -17 -19 -44 -52 -60
-74 -16 -21 -41 -47 -56 -57 -27 -18 -27 -18 35 -18 60 0 66 2 145 58 46 33
93 64 106 71 17 9 22 20 22 49 0 31 -7 44 -39 72 -21 19 -47 40 -57 46 -17 10
-18 14 -5 45 7 19 18 50 24 70 5 19 7 48 3 63 -4 16 -20 41 -36 57 -22 23 -38
29 -70 29 -22 0 -56 -6 -75 -14 -21 -9 -46 -32 -62 -58 -16 -24 -41 -61 -58
-83 -16 -22 -47 -61 -70 -87 -22 -25 -60 -71 -84 -102 -24 -31 -46 -56 -50
-56 -3 0 -10 4 -16 8 -5 4 -20 29 -33 56 -23 49 -23 49 -2 75 11 14 40 53 65
86 24 33 64 84 87 114 24 30 55 75 70 100 15 25 28 51 28 57 0 6 -13 17 -30
24 -16 7 -41 9 -56 6 -19 -5 -24 -4 -18 6 4 7 27 30 50 51 24 21 46 47 49 58
4 12 -2 33 -15 54 -12 20 -19 42 -16 50 3 8 29 30 58 49 29 20 64 44 78 55 14
11 30 21 37 21 7 0 17 9 22 19 7 13 7 29 0 49 -5 16 -21 34 -35 41 -14 6 -31
11 -38 11 -7 0 -23 -11 -36 -25 -13 -14 -27 -25 -31 -25 -5 0 -29 -14 -54 -32
-34 -24 -48 -29 -57 -20 -9 9 -9 18 0 37 7 14 12 40 12 57 0 22 -10 40 -36 64
-19 19 -42 34 -50 34 -7 0 -19 9 -26 20 -7 11 -18 20 -25 20z"/>
<path d="M930 1280 c-38 0 -70 -4 -70 -8 0 -5 8 -16 18 -25 10 -10 34 -17 53
-17 19 0 42 7 52 14 9 7 17 18 17 25 0 7 -24 11 -70 11z"/>
</g>
</svg>
