<?xml version="1.0" standalone="no"?>
<!DOCTYPE svg PUBLIC "-//W3C//DTD SVG 20010904//EN"
 "http://www.w3.org/TR/2001/REC-SVG-20010904/DTD/svg10.dtd">
<svg version="1.0" xmlns="http://www.w3.org/2000/svg"
 width="56.000000pt" height="56.000000pt" viewBox="0 0 56.000000 56.000000"
 preserveAspectRatio="xMidYMid meet">
<metadata>
Created by potrace 1.16, written by Peter Selinger 2001-2019
</metadata>
<g transform="translate(0.000000,56.000000) scale(0.100000,-0.100000)"
fill="#000000" stroke="none">
<path d="M267 560 c-7 0 -18 -9 -25 -20 -6 -11 -12 -29 -12 -40 0 -13 7 -20
20 -20 13 0 20 -7 20 -19 0 -11 -3 -21 -7 -23 -5 -1 -19 -24 -32 -51 -13 -26
-21 -50 -17 -54 3 -4 10 -2 15 3 5 5 19 27 32 49 12 22 32 57 43 79 21 39 21
39 -1 53 -13 9 -23 22 -23 29 0 8 -6 14 -13 14z"/>
<path d="M310 360 c-16 0 -20 -7 -20 -30 0 -28 -3 -30 -34 -30 -19 0 -37 -4
-40 -9 -3 -4 3 -16 14 -26 16 -14 23 -16 32 -7 7 7 20 12 30 12 10 0 18 -6 18
-14 0 -8 9 -31 21 -50 11 -19 19 -45 17 -58 -2 -19 -10 -24 -41 -26 -25 -2
-50 4 -73 17 -33 19 -37 20 -59 5 -14 -9 -25 -21 -25 -28 0 -6 17 -33 38 -61
26 -35 46 -51 65 -53 15 -2 27 0 27 4 0 3 -18 24 -40 45 -22 22 -40 48 -40 59
0 19 1 20 25 4 13 -9 42 -20 64 -25 23 -5 50 -5 63 0 13 5 29 20 37 33 11 22
10 30 -7 64 -11 21 -29 57 -40 79 -14 28 -17 44 -10 52 6 7 8 20 4 28 -3 8
-15 15 -26 15z"/>
</g>
</svg>
