<?xml version="1.0" standalone="no"?>
<!DOCTYPE svg PUBLIC "-//W3C//DTD SVG 20010904//EN"
 "http://www.w3.org/TR/2001/REC-SVG-20010904/DTD/svg10.dtd">
<svg version="1.0" xmlns="http://www.w3.org/2000/svg"
 width="56.000000pt" height="56.000000pt" viewBox="0 0 56.000000 56.000000"
 preserveAspectRatio="xMidYMid meet">
<metadata>
Created by potrace 1.16, written by Peter Selinger 2001-2019
</metadata>
<g transform="translate(0.000000,56.000000) scale(0.100000,-0.100000)"
fill="#000000" stroke="none">
<path d="M213 560 c-24 0 -43 -4 -43 -9 0 -5 21 -25 46 -46 31 -26 42 -41 35
-48 -7 -7 -22 -7 -49 1 -21 7 -47 21 -57 32 -10 11 -22 20 -27 20 -4 0 -8 -8
-8 -17 0 -9 9 -36 21 -59 19 -41 19 -44 3 -68 -12 -20 -14 -29 -5 -40 8 -10
24 -11 63 -5 29 4 74 10 100 13 45 5 47 4 68 -31 21 -35 21 -38 4 -50 -10 -7
-26 -13 -36 -13 -10 0 -18 -7 -18 -15 0 -9 9 -15 24 -15 14 0 28 4 31 10 3 5
26 10 51 10 32 0 44 4 44 15 0 8 -16 35 -35 61 -19 25 -35 49 -35 54 0 4 7 11
16 14 8 3 12 10 9 16 -3 5 -17 10 -31 10 -19 0 -35 16 -76 80 -52 79 -54 80
-95 80z m57 -140 c10 0 23 -7 30 -15 7 -9 11 -17 9 -20 -3 -2 -24 -8 -47 -13
-29 -7 -44 -7 -49 1 -3 5 4 19 17 29 12 10 30 18 40 18z"/>
<path d="M206 218 c-13 2 -26 0 -27 -5 -2 -4 -17 -16 -34 -25 -16 -9 -37 -31
-47 -50 -10 -18 -18 -45 -18 -61 0 -16 7 -30 15 -34 9 -3 64 -1 123 4 59 5
109 8 112 5 3 -2 -8 -15 -25 -28 -30 -24 -30 -24 1 -24 18 0 47 12 72 31 23
17 42 39 42 49 0 10 -8 20 -17 22 -10 2 -49 0 -88 -4 -38 -4 -94 -7 -122 -7
-44 -1 -53 2 -52 17 0 9 8 31 18 47 11 19 28 32 46 35 16 3 28 10 27 15 -1 6
-12 11 -26 13z"/>
</g>
</svg>
