<?xml version="1.0" standalone="no"?>
<!DOCTYPE svg PUBLIC "-//W3C//DTD SVG 20010904//EN"
 "http://www.w3.org/TR/2001/REC-SVG-20010904/DTD/svg10.dtd">
<svg version="1.0" xmlns="http://www.w3.org/2000/svg"
 width="56.000000pt" height="56.000000pt" viewBox="0 0 56.000000 56.000000"
 preserveAspectRatio="xMidYMid meet">
<metadata>
Created by potrace 1.16, written by Peter Selinger 2001-2019
</metadata>
<g transform="translate(0.000000,56.000000) scale(0.100000,-0.100000)"
fill="#000000" stroke="none">
<path d="M291 560 c-11 0 -21 -9 -24 -21 -3 -12 -3 -35 0 -51 3 -15 10 -31 14
-34 5 -3 9 -14 9 -26 0 -18 -4 -19 -34 -14 -20 4 -37 2 -41 -4 -3 -5 -1 -10 4
-10 6 0 20 -9 31 -20 12 -12 35 -29 52 -40 25 -15 29 -20 16 -25 -9 -4 -44 1
-78 9 -34 9 -66 13 -72 10 -5 -4 3 -19 18 -35 26 -27 33 -29 106 -29 66 0 79
-3 88 -19 5 -11 10 -27 10 -35 0 -13 -14 -16 -82 -16 -46 -1 -110 -6 -143 -13
-43 -9 -63 -19 -70 -34 -6 -12 -9 -37 -7 -56 4 -33 8 -37 60 -55 32 -11 77
-24 102 -28 25 -3 74 -6 110 -5 36 1 69 7 75 12 6 6 6 16 -1 27 -8 11 -22 16
-45 15 -19 -1 -69 -3 -111 -4 -46 0 -90 5 -108 13 -24 10 -30 19 -30 45 0 33
0 33 73 35 39 1 95 0 122 -1 28 -2 54 -6 58 -11 5 -4 22 -1 38 7 29 15 29 15
10 42 -11 15 -23 39 -26 53 -6 22 -3 27 17 30 12 2 23 10 23 18 0 8 -8 14 -17
14 -10 -1 -18 3 -19 10 -1 6 -2 22 -2 36 -2 19 -8 26 -28 28 -18 2 -28 12 -36
35 -6 18 -16 52 -23 77 -7 25 -14 51 -16 58 -2 6 -12 12 -23 12z"/>
</g>
</svg>
