<?xml version="1.0" standalone="no"?>
<!DOCTYPE svg PUBLIC "-//W3C//DTD SVG 20010904//EN"
 "http://www.w3.org/TR/2001/REC-SVG-20010904/DTD/svg10.dtd">
<svg version="1.0" xmlns="http://www.w3.org/2000/svg"
 width="56.000000pt" height="56.000000pt" viewBox="0 0 56.000000 56.000000"
 preserveAspectRatio="xMidYMid meet">
<metadata>
Created by potrace 1.16, written by Peter Selinger 2001-2019
</metadata>
<g transform="translate(0.000000,56.000000) scale(0.100000,-0.100000)"
fill="#000000" stroke="none">
<path d="M175 536 c-11 1 -30 0 -42 -3 -12 -2 -26 -10 -32 -17 -6 -6 -8 -22
-4 -34 3 -13 19 -30 36 -38 25 -13 27 -18 16 -29 -8 -7 -30 -22 -49 -32 -21
-12 -35 -27 -35 -39 0 -16 6 -19 43 -16 39 2 42 1 42 -23 0 -14 -18 -55 -40
-91 -22 -36 -40 -71 -40 -78 0 -6 -14 -24 -30 -40 -17 -16 -30 -37 -30 -46 0
-10 7 -23 14 -30 8 -6 25 -10 38 -8 16 2 30 18 47 53 13 28 28 57 33 65 4 8
22 42 39 75 18 33 42 74 55 91 13 17 24 36 24 42 0 7 -11 9 -28 6 -20 -4 -33
0 -46 15 -15 17 -16 23 -6 35 6 9 20 18 30 21 10 3 21 13 24 22 4 9 -2 25 -13
37 -10 12 -21 30 -23 41 -2 11 -12 21 -23 21z"/>
<path d="M374 470 c-8 0 -14 -9 -14 -20 0 -10 6 -23 14 -27 7 -4 18 -18 25
-30 6 -12 11 -28 11 -36 0 -8 -20 -27 -45 -43 -35 -22 -48 -37 -56 -68 -6 -22
-8 -56 -5 -75 3 -20 7 -43 8 -52 2 -9 14 -26 28 -37 24 -19 24 -21 7 -39 -9
-11 -14 -23 -10 -26 3 -4 17 -7 30 -7 12 0 61 12 108 27 47 15 85 32 85 38 0
6 -14 19 -31 29 -22 13 -41 17 -70 12 -25 -4 -49 -1 -72 10 -29 14 -34 22 -35
53 -1 20 0 48 3 62 5 20 19 32 65 52 44 18 60 31 60 45 0 10 -7 33 -15 50 -9
17 -30 43 -46 57 -17 14 -37 25 -45 25z"/>
</g>
</svg>
