<?xml version="1.0" standalone="no"?>
<!DOCTYPE svg PUBLIC "-//W3C//DTD SVG 20010904//EN"
 "http://www.w3.org/TR/2001/REC-SVG-20010904/DTD/svg10.dtd">
<svg version="1.0" xmlns="http://www.w3.org/2000/svg"
 width="56.000000pt" height="56.000000pt" viewBox="0 0 56.000000 56.000000"
 preserveAspectRatio="xMidYMid meet">
<metadata>
Created by potrace 1.16, written by Peter Selinger 2001-2019
</metadata>
<g transform="translate(0.000000,56.000000) scale(0.100000,-0.100000)"
fill="#000000" stroke="none">
<path d="M219 560 c-5 0 -9 -11 -9 -25 0 -20 6 -25 35 -31 19 -3 38 -10 40
-15 3 -5 -12 -25 -35 -45 -22 -20 -40 -40 -40 -45 0 -5 6 -9 13 -9 6 1 28 14
47 30 19 17 39 30 45 30 5 0 20 8 33 18 14 11 21 24 17 34 -4 10 -28 20 -68
27 -34 6 -63 15 -65 21 -2 5 -8 10 -13 10z"/>
<path d="M345 385 c-11 3 -28 0 -37 -6 -10 -5 -18 -17 -18 -24 0 -8 -10 -16
-22 -17 -13 0 -35 0 -50 1 -22 2 -28 -2 -28 -18 0 -11 8 -25 19 -30 12 -7 31
-7 55 0 27 7 41 7 51 -1 8 -6 21 -31 31 -55 9 -24 13 -48 9 -54 -3 -6 -17 -11
-31 -11 -15 0 -24 -6 -24 -16 0 -8 5 -12 10 -9 6 4 27 -3 47 -15 20 -11 42
-19 49 -16 9 3 14 21 14 49 0 35 -8 54 -40 98 -41 54 -41 54 -15 72 14 10 25
25 25 33 0 8 -6 14 -12 14 -7 0 -22 2 -33 5z"/>
<path d="M215 160 c-49 0 -55 -2 -68 -30 -12 -23 -13 -35 -4 -53 6 -13 22 -29
36 -35 14 -7 32 -12 41 -12 9 0 20 -4 25 -9 6 -5 31 -12 58 -16 31 -5 47 -4
47 3 0 6 -10 18 -22 26 -12 9 -43 19 -68 22 -25 3 -54 12 -64 19 -10 8 -16 22
-14 32 2 11 13 19 28 21 14 1 35 5 48 8 13 2 20 9 17 14 -3 6 -30 10 -60 10z"/>
</g>
</svg>
