<?xml version="1.0" standalone="no"?>
<!DOCTYPE svg PUBLIC "-//W3C//DTD SVG 20010904//EN"
 "http://www.w3.org/TR/2001/REC-SVG-20010904/DTD/svg10.dtd">
<svg version="1.0" xmlns="http://www.w3.org/2000/svg"
 width="56.000000pt" height="56.000000pt" viewBox="0 0 56.000000 56.000000"
 preserveAspectRatio="xMidYMid meet">
<metadata>
Created by potrace 1.16, written by Peter Selinger 2001-2019
</metadata>
<g transform="translate(0.000000,56.000000) scale(0.100000,-0.100000)"
fill="#000000" stroke="none">
<path d="M348 559 c-7 0 -41 -31 -75 -67 -56 -60 -62 -71 -63 -109 0 -23 4
-45 10 -48 6 -4 4 -19 -5 -42 -8 -19 -15 -44 -15 -54 0 -9 7 -25 16 -34 10 -9
24 -13 33 -10 9 4 21 9 27 11 6 3 17 -14 24 -36 8 -23 21 -45 30 -50 10 -5 20
-6 24 -3 3 3 6 16 6 28 0 12 -9 31 -21 44 -15 16 -20 30 -16 51 4 18 1 32 -8
40 -10 8 -19 8 -33 1 -11 -6 -22 -7 -26 -4 -3 4 5 18 18 32 14 14 28 38 31 53
5 21 2 29 -14 38 -12 6 -21 16 -21 23 0 7 11 24 25 39 14 15 25 31 25 35 0 5
9 14 20 21 11 7 20 19 20 27 0 8 -6 15 -12 14z"/>
<path d="M198 120 c-4 0 -8 -9 -8 -19 0 -11 14 -28 33 -40 18 -11 42 -29 52
-41 10 -11 29 -20 42 -20 21 0 24 4 21 28 -2 22 -11 30 -48 42 -25 8 -54 23
-64 33 -11 9 -23 17 -28 17z"/>
</g>
</svg>
