<?xml version="1.0" standalone="no"?>
<!DOCTYPE svg PUBLIC "-//W3C//DTD SVG 20010904//EN"
 "http://www.w3.org/TR/2001/REC-SVG-20010904/DTD/svg10.dtd">
<svg version="1.0" xmlns="http://www.w3.org/2000/svg"
 width="56.000000pt" height="56.000000pt" viewBox="0 0 56.000000 56.000000"
 preserveAspectRatio="xMidYMid meet">
<metadata>
Created by potrace 1.16, written by Peter Selinger 2001-2019
</metadata>
<g transform="translate(0.000000,56.000000) scale(0.100000,-0.100000)"
fill="#000000" stroke="none">
<path d="M208 560 c-28 0 -38 -4 -38 -15 0 -9 16 -25 35 -37 21 -12 35 -27 33
-36 -2 -9 -15 -19 -30 -23 -15 -4 -41 -17 -58 -29 -17 -12 -29 -27 -27 -34 2
-6 28 -13 58 -16 54 -5 54 -5 -1 -35 -30 -16 -55 -37 -55 -45 0 -10 9 -15 25
-14 14 0 40 4 58 8 24 6 32 4 32 -7 0 -7 -17 -29 -37 -49 -21 -19 -47 -45 -58
-59 -12 -16 -19 -37 -17 -63 1 -29 9 -47 33 -73 19 -18 43 -33 56 -33 18 0 23
6 23 24 0 16 -12 31 -40 50 -27 18 -40 34 -40 49 0 13 12 31 27 42 15 11 44
35 65 54 23 20 42 48 48 72 10 38 12 39 54 39 32 0 48 6 64 23 12 13 22 28 22
34 0 6 -7 14 -16 17 -9 3 -24 6 -35 6 -10 0 -19 4 -19 9 0 5 7 14 15 21 8 7
15 18 15 25 0 6 -11 17 -25 23 -14 6 -38 9 -53 6 -24 -5 -32 0 -53 30 -20 30
-30 36 -61 36z"/>
<path d="M325 560 c-8 0 -15 -4 -15 -10 0 -5 7 -10 15 -10 8 0 15 5 15 10 0 6
-7 10 -15 10z"/>
</g>
</svg>
