<?xml version="1.0" standalone="no"?>
<!DOCTYPE svg PUBLIC "-//W3C//DTD SVG 20010904//EN"
 "http://www.w3.org/TR/2001/REC-SVG-20010904/DTD/svg10.dtd">
<svg version="1.0" xmlns="http://www.w3.org/2000/svg"
 width="56.000000pt" height="56.000000pt" viewBox="0 0 56.000000 56.000000"
 preserveAspectRatio="xMidYMid meet">
<metadata>
Created by potrace 1.16, written by Peter Selinger 2001-2019
</metadata>
<g transform="translate(0.000000,56.000000) scale(0.100000,-0.100000)"
fill="#000000" stroke="none">
<path d="M253 560 c-12 0 -23 -4 -23 -10 0 -5 9 -24 20 -42 11 -18 20 -39 20
-47 0 -11 -12 -12 -54 -7 -35 4 -57 2 -61 -5 -4 -5 3 -19 16 -30 18 -16 31
-18 70 -13 45 6 49 5 60 -20 10 -21 10 -29 0 -39 -6 -6 -33 -12 -59 -12 -26 0
-57 4 -69 8 -19 7 -23 5 -23 -12 0 -11 11 -28 25 -37 23 -15 30 -15 92 0 54
14 68 15 75 4 4 -7 7 -22 6 -33 -2 -10 -16 -26 -33 -34 -16 -8 -38 -18 -47
-23 -10 -4 -27 -8 -37 -8 -11 0 -30 -10 -41 -22 -14 -15 -20 -33 -18 -53 2
-24 16 -38 72 -77 38 -27 78 -48 88 -48 11 0 18 7 18 20 0 10 -10 28 -22 40
-12 11 -29 20 -39 20 -9 0 -28 10 -43 21 -17 14 -26 29 -24 42 2 15 15 25 48
34 25 7 64 18 87 23 32 8 44 17 49 34 3 14 -1 37 -10 54 -9 17 -16 42 -16 55
0 13 -12 34 -26 48 -14 13 -23 31 -21 41 3 9 -3 24 -13 33 -9 8 -23 33 -30 55
-10 32 -18 40 -37 40z"/>
</g>
</svg>
