<?xml version="1.0" standalone="no"?>
<!DOCTYPE svg PUBLIC "-//W3C//DTD SVG 20010904//EN"
 "http://www.w3.org/TR/2001/REC-SVG-20010904/DTD/svg10.dtd">
<svg version="1.0" xmlns="http://www.w3.org/2000/svg"
 width="56.000000pt" height="56.000000pt" viewBox="0 0 56.000000 56.000000"
 preserveAspectRatio="xMidYMid meet">
<metadata>
Created by potrace 1.16, written by Peter Selinger 2001-2019
</metadata>
<g transform="translate(0.000000,56.000000) scale(0.100000,-0.100000)"
fill="#000000" stroke="none">
<path d="M245 560 c-40 0 -45 -3 -51 -27 -5 -19 -2 -30 11 -40 11 -7 25 -13
32 -13 7 0 14 6 14 13 1 6 1 18 0 25 -1 8 7 16 18 19 12 3 21 9 21 14 0 5 -20
9 -45 9z"/>
<path d="M264 480 c-3 0 -8 -9 -11 -20 -4 -15 -11 -19 -24 -15 -11 4 -19 2
-19 -4 0 -5 9 -16 19 -23 11 -8 29 -43 40 -78 11 -36 27 -90 35 -120 7 -30 11
-59 9 -63 -3 -5 -9 -5 -14 0 -5 5 -12 33 -16 63 -5 40 -11 54 -25 58 -10 2
-18 13 -18 24 0 14 -6 19 -22 16 -21 -3 -23 -9 -26 -64 -2 -45 1 -64 13 -74
12 -10 18 -10 30 0 13 11 15 8 15 -20 0 -18 -5 -51 -12 -74 -7 -22 -15 -43
-18 -46 -4 -3 -9 -13 -13 -22 -3 -10 -3 -18 2 -18 4 0 18 9 30 20 13 10 29 35
36 55 12 37 12 37 38 6 14 -17 30 -31 36 -31 6 0 11 20 11 48 -1 26 -8 74 -16
107 -8 33 -19 74 -24 90 -5 17 -13 45 -18 62 -8 26 -7 36 4 47 8 8 14 23 14
34 0 10 -11 24 -25 30 -14 7 -28 12 -31 12z"/>
</g>
</svg>
