<?xml version="1.0" standalone="no"?>
<!DOCTYPE svg PUBLIC "-//W3C//DTD SVG 20010904//EN"
 "http://www.w3.org/TR/2001/REC-SVG-20010904/DTD/svg10.dtd">
<svg version="1.0" xmlns="http://www.w3.org/2000/svg"
 width="56.000000pt" height="56.000000pt" viewBox="0 0 56.000000 56.000000"
 preserveAspectRatio="xMidYMid meet">
<metadata>
Created by potrace 1.16, written by Peter Selinger 2001-2019
</metadata>
<g transform="translate(0.000000,56.000000) scale(0.100000,-0.100000)"
fill="#000000" stroke="none">
<path d="M245 560 c-6 0 -16 -9 -23 -20 -10 -17 -10 -29 3 -67 9 -25 13 -48 9
-52 -3 -3 -17 -6 -31 -6 -15 0 -28 -6 -30 -13 -3 -7 9 -18 26 -25 31 -13 31
-13 11 -32 -11 -10 -20 -28 -20 -40 0 -12 9 -30 21 -41 11 -10 41 -21 67 -24
39 -4 48 -9 50 -28 2 -14 -5 -29 -19 -41 -12 -10 -19 -23 -15 -29 4 -7 13 -12
20 -12 7 0 22 10 35 21 18 17 22 28 16 55 -4 26 -2 36 10 40 12 5 14 14 9 38
-3 17 -9 35 -12 40 -3 5 -10 2 -17 -7 -11 -15 -14 -13 -31 18 -10 19 -15 37
-11 41 3 4 -5 20 -18 36 -14 16 -28 41 -31 54 -3 13 -1 31 5 38 9 11 9 19 -1
35 -7 12 -17 21 -23 21z m22 -212 c8 -2 21 -18 28 -35 14 -33 14 -33 -25 -33
-21 0 -42 5 -45 10 -4 6 1 22 10 36 9 14 23 24 32 22z"/>
<path d="M383 539 c-10 -1 -28 -6 -40 -13 -13 -6 -23 -16 -23 -23 0 -7 11 -13
24 -13 13 0 31 3 40 6 9 3 16 15 16 25 0 12 -7 19 -17 18z"/>
<path d="M187 190 c-1 0 -10 -5 -19 -11 -10 -5 -18 -21 -18 -34 0 -14 9 -41
21 -62 11 -21 32 -48 46 -61 17 -16 35 -22 57 -20 20 2 31 9 31 18 0 9 -11 16
-27 18 -17 2 -37 16 -52 35 -13 18 -27 42 -31 55 -5 18 -2 22 14 22 11 0 23 5
26 10 3 6 -6 15 -20 20 -14 6 -27 10 -28 10z"/>
</g>
</svg>
