<?xml version="1.0" standalone="no"?>
<!DOCTYPE svg PUBLIC "-//W3C//DTD SVG 20010904//EN"
 "http://www.w3.org/TR/2001/REC-SVG-20010904/DTD/svg10.dtd">
<svg version="1.0" xmlns="http://www.w3.org/2000/svg"
 width="56.000000pt" height="56.000000pt" viewBox="0 0 56.000000 56.000000"
 preserveAspectRatio="xMidYMid meet">
<metadata>
Created by potrace 1.16, written by Peter Selinger 2001-2019
</metadata>
<g transform="translate(0.000000,56.000000) scale(0.100000,-0.100000)"
fill="#000000" stroke="none">
<path d="M321 560 c-25 0 -32 -7 -60 -63 -25 -51 -31 -74 -31 -130 0 -36 -5
-87 -12 -111 -11 -40 -10 -47 7 -66 10 -11 28 -20 39 -21 20 0 21 0 2 -12 -11
-7 -30 -22 -43 -34 -13 -12 -23 -32 -23 -43 0 -12 13 -35 29 -51 24 -24 38
-29 76 -29 39 0 46 3 43 18 -2 11 -14 18 -33 20 -17 1 -40 8 -52 14 -13 6 -23
20 -23 31 0 11 8 25 17 32 12 9 25 10 42 4 16 -6 28 -6 35 1 7 7 6 21 -3 46
-9 26 -10 39 -2 47 6 6 11 19 11 29 0 9 -8 22 -19 27 -14 8 -22 6 -33 -7 -9
-9 -18 -24 -21 -32 -3 -9 -6 -5 -6 10 0 14 8 36 19 50 11 14 20 31 20 39 0 8
-10 25 -21 37 -21 22 -21 25 -6 56 9 18 30 53 47 78 16 25 30 48 30 53 0 4
-13 7 -29 7z"/>
</g>
</svg>
