<?xml version="1.0" standalone="no"?>
<!DOCTYPE svg PUBLIC "-//W3C//DTD SVG 20010904//EN"
 "http://www.w3.org/TR/2001/REC-SVG-20010904/DTD/svg10.dtd">
<svg version="1.0" xmlns="http://www.w3.org/2000/svg"
 width="56.000000pt" height="56.000000pt" viewBox="0 0 56.000000 56.000000"
 preserveAspectRatio="xMidYMid meet">
<metadata>
Created by potrace 1.16, written by Peter Selinger 2001-2019
</metadata>
<g transform="translate(0.000000,56.000000) scale(0.100000,-0.100000)"
fill="#000000" stroke="none">
<path d="M273 560 c-10 0 -31 -17 -48 -37 -16 -20 -33 -45 -38 -56 -5 -13 -1
-30 12 -51 19 -30 19 -32 1 -71 -11 -22 -19 -53 -20 -70 0 -16 4 -36 9 -44 8
-12 14 -12 41 -1 18 7 34 9 39 4 5 -5 13 -23 19 -40 9 -28 8 -33 -11 -41 -19
-9 -17 -12 26 -33 38 -19 49 -21 62 -10 8 7 15 19 15 28 0 8 -16 32 -35 53
-19 22 -35 50 -35 63 0 13 7 29 15 36 8 7 15 21 15 32 0 10 -7 21 -16 25 -9 3
-32 -2 -51 -11 -20 -9 -38 -14 -41 -11 -3 3 9 21 27 39 19 20 31 42 29 52 -2
11 -16 25 -31 32 -15 7 -27 19 -27 26 0 7 14 25 30 41 17 16 30 32 30 37 0 4
-8 8 -17 8z"/>
<path d="M185 110 c-10 0 -15 -10 -15 -29 0 -21 9 -36 35 -55 29 -23 43 -27
87 -24 39 2 54 7 56 19 2 10 -8 20 -25 26 -15 6 -39 11 -51 11 -13 1 -35 8
-48 17 -13 8 -24 20 -24 25 0 6 -7 10 -15 10z"/>
</g>
</svg>
