<?xml version="1.0" standalone="no"?>
<!DOCTYPE svg PUBLIC "-//W3C//DTD SVG 20010904//EN"
 "http://www.w3.org/TR/2001/REC-SVG-20010904/DTD/svg10.dtd">
<svg version="1.0" xmlns="http://www.w3.org/2000/svg"
 width="56.000000pt" height="56.000000pt" viewBox="0 0 56.000000 56.000000"
 preserveAspectRatio="xMidYMid meet">
<metadata>
Created by potrace 1.16, written by Peter Selinger 2001-2019
</metadata>
<g transform="translate(0.000000,56.000000) scale(0.100000,-0.100000)"
fill="#000000" stroke="none">
<path d="M246 560 c-2 0 -7 -7 -10 -16 -3 -9 -6 -35 -6 -58 0 -23 5 -47 11
-53 6 -6 8 -16 5 -22 -4 -6 -16 -11 -26 -11 -11 0 -24 -8 -29 -18 -6 -11 -6
-24 -1 -32 5 -8 19 -15 32 -15 16 0 22 -5 19 -15 -3 -8 -5 -27 -4 -42 0 -15 6
-35 14 -44 10 -13 24 -15 61 -11 41 5 49 3 59 -15 6 -11 7 -24 2 -29 -5 -5
-38 -4 -78 2 -39 5 -87 12 -107 16 -25 3 -38 1 -38 -6 0 -7 8 -14 18 -17 9 -3
25 -10 34 -15 10 -5 29 -9 42 -9 14 0 27 -4 30 -9 3 -4 29 -11 58 -13 29 -3
68 -3 86 -1 31 5 34 8 28 35 -3 15 -17 45 -31 65 -25 37 -25 37 6 69 24 25 30
39 27 65 -2 27 -8 34 -32 40 -19 5 -35 4 -44 -3 -12 -10 -11 -14 3 -24 9 -7
15 -22 13 -35 -2 -12 -8 -24 -15 -26 -6 -2 -23 13 -37 34 -14 21 -26 43 -26
49 0 6 21 19 48 29 26 10 59 29 75 43 19 18 27 36 27 59 0 21 -5 33 -13 33 -8
0 -20 -11 -27 -24 -7 -14 -37 -41 -68 -60 -30 -20 -58 -36 -63 -36 -6 0 -14
10 -18 23 -6 15 -4 27 7 40 14 16 14 19 -6 37 -12 11 -23 20 -26 20z m60 -231
c13 -13 24 -33 24 -46 0 -20 -5 -23 -40 -23 -33 0 -38 3 -34 18 3 9 11 30 16
45 11 28 11 28 34 6z"/>
<path d="M110 160 c-11 0 -20 -6 -20 -12 0 -7 6 -30 13 -51 8 -20 26 -51 42
-67 16 -17 37 -30 47 -30 13 0 26 15 39 45 11 25 19 50 17 55 -2 6 -16 3 -33
-6 -23 -12 -34 -13 -51 -3 -12 6 -25 24 -28 40 -4 21 -11 29 -26 29z"/>
</g>
</svg>
