<?xml version="1.0" standalone="no"?>
<!DOCTYPE svg PUBLIC "-//W3C//DTD SVG 20010904//EN"
 "http://www.w3.org/TR/2001/REC-SVG-20010904/DTD/svg10.dtd">
<svg version="1.0" xmlns="http://www.w3.org/2000/svg"
 width="56.000000pt" height="56.000000pt" viewBox="0 0 56.000000 56.000000"
 preserveAspectRatio="xMidYMid meet">
<metadata>
Created by potrace 1.16, written by Peter Selinger 2001-2019
</metadata>
<g transform="translate(0.000000,56.000000) scale(0.100000,-0.100000)"
fill="#000000" stroke="none">
<path d="M105 560 c-9 0 -15 -5 -13 -11 2 -6 8 -10 13 -10 5 0 11 4 13 10 2 6
-4 11 -13 11z"/>
<path d="M249 544 c-5 6 -10 3 -13 -5 -3 -8 -7 -32 -8 -54 -3 -40 -3 -40 -48
-43 -25 -2 -49 -8 -55 -13 -7 -7 -2 -17 13 -29 18 -15 33 -18 67 -13 38 5 44
3 50 -16 3 -11 3 -25 0 -31 -3 -5 -18 -10 -33 -10 -15 0 -37 -3 -49 -6 -13 -4
-23 -12 -23 -20 0 -7 16 -16 35 -20 19 -3 54 -3 78 0 36 6 44 3 55 -15 8 -12
22 -37 33 -56 10 -18 19 -42 19 -53 0 -17 -5 -19 -31 -13 -25 5 -31 3 -27 -8
3 -8 18 -21 34 -30 16 -9 38 -20 50 -23 13 -4 30 0 44 12 22 18 22 18 2 58
-11 22 -27 46 -36 53 -8 7 -24 30 -36 53 -21 40 -21 40 5 60 21 16 25 27 23
56 -2 19 -9 37 -16 40 -7 2 -17 -10 -23 -27 -7 -19 -18 -31 -28 -31 -11 0 -24
14 -34 38 -8 20 -21 60 -28 87 -6 28 -16 54 -20 59z"/>
<path d="M143 180 c-7 0 -18 -12 -23 -26 -7 -18 -6 -33 4 -52 8 -15 27 -39 43
-53 15 -15 39 -32 52 -39 19 -10 26 -9 38 3 10 10 13 24 9 41 -4 15 -23 36
-44 50 -20 13 -43 35 -51 50 -8 14 -20 26 -28 26z"/>
</g>
</svg>
