<?xml version="1.0" standalone="no"?>
<!DOCTYPE svg PUBLIC "-//W3C//DTD SVG 20010904//EN"
 "http://www.w3.org/TR/2001/REC-SVG-20010904/DTD/svg10.dtd">
<svg version="1.0" xmlns="http://www.w3.org/2000/svg"
 width="56.000000pt" height="56.000000pt" viewBox="0 0 56.000000 56.000000"
 preserveAspectRatio="xMidYMid meet">
<metadata>
Created by potrace 1.16, written by Peter Selinger 2001-2019
</metadata>
<g transform="translate(0.000000,56.000000) scale(0.100000,-0.100000)"
fill="#000000" stroke="none">
<path d="M188 535 c-2 3 -8 2 -11 -2 -4 -3 -7 -15 -7 -27 0 -11 12 -33 27 -48
15 -15 35 -28 45 -28 12 0 18 8 18 24 0 18 -6 26 -22 28 -12 2 -28 13 -34 26
-6 12 -13 25 -16 27z"/>
<path d="M179 380 c-5 0 -9 -6 -9 -14 0 -8 12 -23 28 -34 15 -11 37 -22 49
-26 12 -4 35 -19 50 -34 16 -15 39 -41 51 -59 12 -17 22 -35 22 -41 0 -5 -13
-15 -30 -22 -16 -7 -30 -16 -30 -20 0 -4 14 -10 31 -14 17 -3 38 -6 45 -6 7 0
18 9 24 19 7 14 6 29 -5 55 -9 20 -45 68 -82 106 -51 54 -72 70 -94 70 -15 0
-31 5 -34 10 -3 6 -10 10 -16 10z"/>
<path d="M185 120 c-7 0 -16 -11 -19 -25 -4 -14 -2 -34 4 -45 6 -11 24 -27 41
-36 17 -8 40 -14 52 -12 12 2 22 10 22 18 0 8 -18 24 -40 36 -25 13 -41 28
-43 42 -2 12 -9 22 -17 22z"/>
</g>
</svg>
