<?xml version="1.0" standalone="no"?>
<!DOCTYPE svg PUBLIC "-//W3C//DTD SVG 20010904//EN"
 "http://www.w3.org/TR/2001/REC-SVG-20010904/DTD/svg10.dtd">
<svg version="1.0" xmlns="http://www.w3.org/2000/svg"
 width="56.000000pt" height="56.000000pt" viewBox="0 0 56.000000 56.000000"
 preserveAspectRatio="xMidYMid meet">
<metadata>
Created by potrace 1.16, written by Peter Selinger 2001-2019
</metadata>
<g transform="translate(0.000000,56.000000) scale(0.100000,-0.100000)"
fill="#000000" stroke="none">
<path d="M238 559 c-13 0 -37 -17 -55 -39 -18 -20 -33 -45 -33 -54 0 -9 -8
-33 -19 -54 -10 -20 -21 -52 -24 -70 -5 -27 -2 -36 18 -54 14 -12 25 -32 25
-46 0 -13 -11 -42 -25 -66 -13 -23 -38 -55 -55 -71 -16 -16 -30 -39 -30 -51 0
-12 3 -29 6 -38 3 -9 14 -16 25 -16 12 0 39 32 82 97 35 54 85 135 112 181 27
46 53 86 58 89 6 3 7 -11 3 -38 -4 -24 -9 -71 -12 -105 -5 -56 -4 -62 19 -77
14 -9 54 -18 93 -20 37 -3 74 -3 81 0 7 3 13 13 13 23 0 10 -12 25 -26 35 -18
12 -39 15 -75 12 -33 -3 -52 0 -59 8 -7 8 -8 29 -4 52 5 26 22 54 55 90 42 44
49 58 49 91 0 23 -6 45 -15 52 -8 7 -27 13 -42 13 -17 0 -35 -11 -51 -29 -13
-16 -50 -71 -83 -123 -61 -94 -61 -94 -84 -65 -14 16 -24 39 -25 52 0 13 9 42
20 64 11 23 20 51 20 63 0 11 7 31 16 43 8 12 22 22 30 22 8 0 14 7 14 15 0 9
-9 15 -22 14z m142 -109 c5 0 11 -4 14 -8 3 -5 2 -18 -1 -30 -3 -12 -11 -22
-19 -22 -7 0 -16 4 -19 10 -3 5 -1 19 5 30 6 11 15 20 20 20z"/>
<path d="M309 20 c-10 0 -19 -4 -19 -10 0 -5 12 -10 26 -10 14 0 23 4 19 10
-3 6 -15 10 -26 10z"/>
</g>
</svg>
