<?xml version="1.0" standalone="no"?>
<!DOCTYPE svg PUBLIC "-//W3C//DTD SVG 20010904//EN"
 "http://www.w3.org/TR/2001/REC-SVG-20010904/DTD/svg10.dtd">
<svg version="1.0" xmlns="http://www.w3.org/2000/svg"
 width="56.000000pt" height="56.000000pt" viewBox="0 0 56.000000 56.000000"
 preserveAspectRatio="xMidYMid meet">
<metadata>
Created by potrace 1.16, written by Peter Selinger 2001-2019
</metadata>
<g transform="translate(0.000000,56.000000) scale(0.100000,-0.100000)"
fill="#000000" stroke="none">
<path d="M162 560 c-34 0 -41 -4 -58 -35 -15 -29 -17 -39 -6 -55 6 -11 12 -28
12 -37 0 -10 -9 -33 -20 -51 -11 -18 -20 -43 -20 -55 0 -13 5 -28 12 -35 7 -7
20 -12 29 -12 9 0 21 -6 28 -13 8 -10 5 -27 -9 -65 -11 -29 -20 -63 -20 -77 0
-17 9 -29 31 -40 16 -9 29 -21 26 -28 -2 -6 -23 -16 -47 -22 -24 -6 -46 -17
-48 -24 -4 -11 4 -12 39 -7 24 4 55 9 68 11 14 1 37 18 52 36 15 19 26 37 23
40 -2 4 -21 9 -43 13 -22 3 -43 10 -46 16 -3 5 6 33 20 62 15 29 38 76 52 103
14 28 44 78 66 113 23 34 45 62 50 62 4 0 13 -12 19 -26 11 -23 9 -28 -25 -59
-24 -22 -37 -43 -37 -59 0 -14 5 -37 10 -52 6 -15 22 -38 35 -50 14 -13 25
-27 25 -32 0 -5 -34 -47 -75 -93 -41 -46 -70 -86 -64 -88 6 -2 42 18 80 44 38
26 90 72 115 101 31 36 45 60 42 76 -2 16 -17 30 -50 46 -27 12 -48 28 -48 36
0 7 7 19 16 27 8 7 22 25 30 40 8 16 14 37 14 49 0 11 -12 38 -26 60 -15 22
-34 40 -44 40 -9 0 -32 -10 -51 -23 -18 -12 -39 -34 -45 -47 -7 -14 -17 -36
-24 -50 -6 -14 -25 -41 -41 -60 -29 -34 -29 -34 -50 -13 -21 21 -21 21 5 65
14 25 26 52 26 61 0 10 -6 17 -14 17 -8 0 -18 5 -22 11 -3 6 6 23 20 38 14 15
26 30 26 34 0 4 -17 7 -38 7z"/>
<path d="M407 19 c-7 0 -21 -4 -32 -9 -16 -7 -12 -9 18 -9 23 -1 36 3 32 9 -3
5 -12 10 -18 9z"/>
</g>
</svg>
