<?xml version="1.0" standalone="no"?>
<!DOCTYPE svg PUBLIC "-//W3C//DTD SVG 20010904//EN"
 "http://www.w3.org/TR/2001/REC-SVG-20010904/DTD/svg10.dtd">
<svg version="1.0" xmlns="http://www.w3.org/2000/svg"
 width="56.000000pt" height="56.000000pt" viewBox="0 0 56.000000 56.000000"
 preserveAspectRatio="xMidYMid meet">
<metadata>
Created by potrace 1.16, written by Peter Selinger 2001-2019
</metadata>
<g transform="translate(0.000000,56.000000) scale(0.100000,-0.100000)"
fill="#000000" stroke="none">
<path d="M170 560 c-11 0 -20 -6 -20 -13 0 -7 5 -18 12 -25 7 -7 24 -12 38
-12 14 0 31 -5 38 -12 8 -8 2 -22 -26 -57 -20 -25 -43 -56 -49 -68 -7 -13 -13
-31 -13 -40 0 -10 9 -29 19 -43 15 -18 22 -21 33 -13 7 6 30 13 52 15 39 3 39
3 52 -50 8 -30 11 -58 8 -63 -3 -5 -33 -8 -67 -7 -52 3 -62 0 -65 -14 -2 -12
5 -21 20 -27 13 -5 32 -19 43 -31 20 -22 20 -22 -18 -56 -20 -19 -37 -36 -37
-39 0 -3 8 -5 18 -5 10 0 51 24 90 52 59 43 73 59 78 87 4 19 1 62 -5 96 -12
57 -11 65 7 95 16 25 18 38 11 54 -6 12 -24 29 -40 38 -27 16 -29 21 -23 53 4
22 2 41 -6 50 -8 10 -31 15 -71 15 -33 0 -59 4 -59 10 0 6 -9 10 -20 10z m103
-139 c5 -5 7 -19 5 -32 -2 -15 -13 -27 -31 -33 -19 -7 -31 -6 -39 2 -9 9 -10
17 -2 30 6 9 22 22 35 29 13 7 28 8 32 4z"/>
</g>
</svg>
