<?xml version="1.0" standalone="no"?>
<!DOCTYPE svg PUBLIC "-//W3C//DTD SVG 20010904//EN"
 "http://www.w3.org/TR/2001/REC-SVG-20010904/DTD/svg10.dtd">
<svg version="1.0" xmlns="http://www.w3.org/2000/svg"
 width="56.000000pt" height="56.000000pt" viewBox="0 0 56.000000 56.000000"
 preserveAspectRatio="xMidYMid meet">
<metadata>
Created by potrace 1.16, written by Peter Selinger 2001-2019
</metadata>
<g transform="translate(0.000000,56.000000) scale(0.100000,-0.100000)"
fill="#000000" stroke="none">
<path d="M210 560 c-5 0 -10 -4 -10 -9 0 -5 -14 -11 -31 -15 -27 -5 -30 -8
-19 -21 7 -8 27 -15 44 -15 17 0 37 -4 44 -9 10 -6 3 -20 -28 -57 -28 -34 -40
-57 -38 -74 3 -22 11 -27 65 -40 54 -13 65 -19 88 -55 14 -22 24 -47 23 -55
-3 -12 -18 -14 -83 -12 -74 4 -82 2 -108 -22 -21 -19 -27 -34 -27 -65 0 -35 5
-44 44 -76 44 -36 44 -36 132 -33 57 2 89 7 91 15 3 7 -8 15 -23 19 -20 5 -30
2 -39 -10 -11 -14 -14 -15 -25 -1 -7 8 -24 15 -39 15 -14 0 -41 9 -58 20 -19
11 -33 28 -33 39 0 11 -3 26 -6 34 -4 11 7 16 49 21 31 4 73 2 98 -4 31 -8 53
-8 72 -1 22 9 27 17 27 45 0 19 -7 39 -16 47 -9 7 -20 22 -25 34 -5 11 -14 28
-21 37 -10 14 -9 21 5 36 17 18 17 21 2 36 -9 9 -25 16 -36 16 -11 0 -31 -7
-44 -16 -14 -9 -32 -14 -40 -10 -8 3 -15 14 -15 25 0 11 11 29 25 40 14 11 39
23 55 26 21 5 30 13 30 26 0 10 -12 26 -26 36 -16 10 -41 16 -60 14 -20 -1
-34 2 -34 8 0 6 -4 11 -10 11z"/>
</g>
</svg>
