<?xml version="1.0" standalone="no"?>
<!DOCTYPE svg PUBLIC "-//W3C//DTD SVG 20010904//EN"
 "http://www.w3.org/TR/2001/REC-SVG-20010904/DTD/svg10.dtd">
<svg version="1.0" xmlns="http://www.w3.org/2000/svg"
 width="128.000000pt" height="128.000000pt" viewBox="0 0 128.000000 128.000000"
 preserveAspectRatio="xMidYMid meet">
<metadata>
Created by potrace 1.16, written by Peter Selinger 2001-2019
</metadata>
<g transform="translate(0.000000,128.000000) scale(0.100000,-0.100000)"
fill="#000000" stroke="none">
<path d="M1185 942 c-11 3 -33 3 -50 0 -16 -2 -34 -7 -40 -12 -5 -4 -24 -11
-41 -14 -17 -4 -44 -2 -60 4 -27 11 -31 9 -59 -24 -23 -28 -38 -36 -62 -36
-17 0 -35 -4 -38 -10 -3 -5 -15 -10 -26 -10 -11 0 -19 -7 -19 -16 0 -11 8 -15
28 -14 15 1 38 2 51 1 22 -1 23 -3 17 -50 -4 -32 -3 -52 5 -56 6 -4 8 -18 4
-32 -3 -14 -15 -46 -27 -72 -12 -25 -27 -53 -34 -61 -8 -9 -20 -35 -28 -58
-11 -30 -13 -50 -6 -67 5 -14 14 -25 20 -25 6 0 13 8 16 18 3 9 15 36 26 59
12 24 29 50 39 59 10 9 22 13 28 10 6 -4 13 -23 17 -44 3 -20 18 -52 31 -70
14 -19 39 -42 57 -53 17 -10 46 -19 65 -19 20 0 49 10 68 23 18 12 33 26 33
31 0 4 14 28 30 53 21 30 30 56 30 84 0 21 5 39 10 39 6 0 10 52 10 135 0 83
-4 135 -10 135 -5 0 -10 8 -10 18 0 10 -12 30 -27 44 -16 14 -37 28 -48 30z
m-54 -32 c14 0 37 -6 51 -12 16 -8 31 -27 38 -48 7 -22 10 -74 6 -140 -3 -58
-7 -112 -10 -120 -2 -8 -10 -32 -16 -53 -6 -20 -26 -53 -45 -72 -23 -25 -41
-35 -63 -35 -24 0 -39 10 -71 46 -23 26 -41 55 -41 65 0 10 -9 35 -21 56 -21
37 -21 37 0 82 12 25 29 78 39 116 16 67 19 71 62 92 25 12 56 22 71 23z
m-191 -100 c6 0 10 -8 10 -18 0 -10 -7 -27 -16 -38 -15 -18 -15 -18 -10 6 3
14 6 31 6 38 0 6 5 12 10 12z"/>
<path d="M384 870 c-6 0 -20 -10 -31 -22 -11 -13 -26 -38 -33 -55 -7 -18 -20
-33 -29 -33 -9 0 -48 -5 -88 -10 -61 -8 -81 -6 -130 10 -32 11 -61 20 -65 20
-5 0 -8 -11 -8 -24 0 -16 8 -26 22 -32 13 -4 81 -10 153 -13 130 -6 130 -6
129 -56 -1 -27 -2 -72 -4 -100 -1 -27 1 -67 5 -88 5 -24 23 -55 52 -87 25 -28
53 -50 64 -50 10 0 20 3 20 8 1 4 3 27 4 52 1 25 5 62 10 83 4 20 11 40 16 43
5 3 9 16 9 30 0 13 5 24 10 24 6 0 10 6 10 14 0 8 -4 18 -10 21 -5 3 -17 -9
-25 -27 -9 -18 -23 -47 -32 -65 -9 -18 -23 -35 -31 -38 -9 -3 -21 0 -29 7 -8
9 -14 52 -17 130 -3 87 -1 118 8 121 7 3 37 8 67 12 30 4 66 15 79 26 25 19
25 19 -5 43 -16 14 -35 25 -41 26 -7 0 -25 7 -40 15 -16 8 -34 15 -40 15z m10
-56 c8 -3 17 -12 20 -19 2 -7 -2 -16 -11 -20 -9 -3 -21 -1 -26 4 -5 5 -7 17
-4 25 4 9 13 13 21 10z"/>
</g>
</svg>
