<?xml version="1.0" standalone="no"?>
<!DOCTYPE svg PUBLIC "-//W3C//DTD SVG 20010904//EN"
 "http://www.w3.org/TR/2001/REC-SVG-20010904/DTD/svg10.dtd">
<svg version="1.0" xmlns="http://www.w3.org/2000/svg"
 width="128.000000pt" height="128.000000pt" viewBox="0 0 128.000000 128.000000"
 preserveAspectRatio="xMidYMid meet">
<metadata>
Created by potrace 1.16, written by Peter Selinger 2001-2019
</metadata>
<g transform="translate(0.000000,128.000000) scale(0.100000,-0.100000)"
fill="#000000" stroke="none">
<path d="M442 1279 c-9 0 -27 -10 -39 -22 -13 -12 -30 -46 -38 -75 -11 -38
-13 -57 -5 -71 5 -11 10 -42 10 -69 0 -33 -6 -57 -17 -71 -14 -16 -31 -22 -73
-24 -47 -2 -55 -5 -58 -22 -2 -12 8 -36 20 -55 13 -19 38 -41 56 -49 32 -14
32 -14 27 -120 -3 -58 -8 -157 -12 -219 -3 -74 -2 -121 5 -135 6 -12 12 -33
14 -46 2 -14 8 -26 15 -28 7 -3 21 15 32 39 11 24 23 54 26 68 4 14 13 32 21
40 7 9 20 32 28 51 8 20 40 72 70 117 30 45 57 91 61 102 3 11 15 20 26 20 14
0 20 9 25 39 3 22 15 54 25 71 11 18 24 28 30 24 7 -4 9 -25 5 -58 -3 -29 -11
-67 -17 -85 -7 -20 -16 -30 -25 -27 -8 3 -15 -6 -19 -24 -4 -16 -4 -34 -1 -39
3 -5 -1 -38 -10 -73 -8 -34 -38 -135 -66 -223 -28 -88 -59 -177 -70 -197 -10
-21 -18 -48 -18 -62 0 -13 3 -31 6 -40 3 -9 12 -16 19 -16 7 0 26 7 41 15 16
8 47 15 69 15 22 0 55 9 73 20 17 11 32 26 32 34 0 7 -6 18 -13 24 -6 6 -24
13 -38 17 -17 4 -37 -1 -62 -15 -21 -12 -44 -19 -53 -16 -11 4 -14 12 -9 24 4
9 20 49 35 89 15 39 35 101 45 137 10 36 21 66 24 66 4 0 11 -4 17 -9 5 -5 23
-11 39 -12 17 -2 54 8 87 24 31 15 62 27 67 27 6 0 11 4 11 10 0 5 19 29 43
53 26 27 53 69 70 112 16 38 35 112 43 164 8 52 14 112 14 133 0 21 7 49 15
62 10 15 14 33 9 50 -3 15 -16 33 -27 41 -12 8 -43 15 -70 15 -27 0 -56 -4
-66 -9 -10 -6 -33 -24 -50 -40 -27 -26 -42 -31 -80 -31 -36 0 -52 -5 -69 -22
-11 -13 -30 -46 -41 -75 -11 -29 -48 -92 -81 -140 -33 -48 -88 -126 -121 -173
-33 -47 -66 -85 -72 -85 -7 0 -11 12 -9 30 1 17 7 71 12 120 6 50 13 108 16
130 3 22 7 50 10 62 3 14 22 31 55 48 28 14 58 25 68 25 10 0 27 10 39 23 12
13 22 35 22 49 0 14 -3 45 -6 70 -6 44 -6 44 -60 34 -36 -6 -58 -6 -65 1 -6 6
-6 27 2 62 6 29 8 68 5 87 -5 23 -12 34 -24 33z m459 -289 c3 0 10 -5 17 -12
7 -7 12 -31 12 -55 0 -23 -5 -64 -11 -90 -6 -27 -20 -68 -29 -93 -10 -25 -29
-72 -41 -105 -13 -33 -34 -72 -47 -87 -14 -15 -38 -31 -53 -37 -22 -8 -32 -6
-44 5 -8 9 -20 24 -25 35 -8 13 -6 29 6 56 8 21 26 71 40 112 13 40 24 88 25
105 0 17 6 47 13 66 10 27 25 42 72 67 32 18 61 33 65 33z"/>
</g>
</svg>
