<?xml version="1.0" standalone="no"?>
<!DOCTYPE svg PUBLIC "-//W3C//DTD SVG 20010904//EN"
 "http://www.w3.org/TR/2001/REC-SVG-20010904/DTD/svg10.dtd">
<svg version="1.0" xmlns="http://www.w3.org/2000/svg"
 width="128.000000pt" height="128.000000pt" viewBox="0 0 128.000000 128.000000"
 preserveAspectRatio="xMidYMid meet">
<metadata>
Created by potrace 1.16, written by Peter Selinger 2001-2019
</metadata>
<g transform="translate(0.000000,128.000000) scale(0.100000,-0.100000)"
fill="#000000" stroke="none">
<path d="M485 1000 c-8 0 -15 -6 -15 -12 0 -7 9 -24 20 -38 11 -14 20 -30 20
-37 0 -7 -9 -17 -19 -23 -11 -5 -44 -10 -73 -11 -29 0 -62 -4 -72 -8 -18 -7
-18 -8 5 -14 13 -4 86 -7 161 -7 75 0 139 4 142 9 3 4 0 15 -7 23 -7 8 -42 38
-79 66 -37 29 -74 52 -83 52z"/>
<path d="M1223 898 c-7 2 -17 -8 -23 -23 -5 -14 -10 -39 -10 -55 0 -16 -5 -41
-11 -57 -6 -15 -19 -59 -29 -98 -10 -38 -26 -90 -35 -113 -8 -24 -24 -61 -35
-83 -12 -23 -34 -45 -53 -54 -17 -9 -50 -26 -72 -40 -22 -14 -43 -25 -48 -25
-4 0 -27 18 -50 40 -24 22 -53 43 -64 47 -12 4 -72 51 -135 103 -63 52 -132
116 -153 143 -22 26 -58 59 -81 72 -22 14 -46 25 -52 25 -7 0 -41 14 -75 30
-35 17 -74 30 -87 30 -13 0 -37 4 -54 9 -17 5 -50 14 -74 19 -23 5 -45 6 -47
2 -3 -5 -3 -15 1 -23 3 -8 24 -24 47 -35 23 -12 70 -28 105 -36 35 -9 88 -27
118 -41 30 -14 57 -25 60 -25 4 0 41 -26 83 -57 42 -31 147 -128 233 -214 87
-87 167 -160 178 -164 12 -4 53 -1 93 5 40 7 86 18 102 26 17 7 42 24 57 38
15 13 42 55 59 92 18 38 36 86 41 109 5 22 13 87 19 144 5 58 9 127 7 155 -2
28 -8 51 -15 54z"/>
</g>
</svg>
