<?xml version="1.0" standalone="no"?>
<!DOCTYPE svg PUBLIC "-//W3C//DTD SVG 20010904//EN"
 "http://www.w3.org/TR/2001/REC-SVG-20010904/DTD/svg10.dtd">
<svg version="1.0" xmlns="http://www.w3.org/2000/svg"
 width="128.000000pt" height="128.000000pt" viewBox="0 0 128.000000 128.000000"
 preserveAspectRatio="xMidYMid meet">
<metadata>
Created by potrace 1.16, written by Peter Selinger 2001-2019
</metadata>
<g transform="translate(0.000000,128.000000) scale(0.100000,-0.100000)"
fill="#000000" stroke="none">
<path d="M140 1160 c-47 0 -62 -4 -67 -16 -3 -9 -1 -25 5 -35 7 -10 12 -25 12
-33 0 -7 7 -19 15 -26 8 -6 22 -9 32 -6 10 3 28 21 41 39 12 18 22 43 22 55 0
20 -5 22 -60 22z"/>
<path d="M498 1158 c-13 2 -30 -3 -36 -11 -8 -9 -10 -34 -6 -74 6 -59 6 -59
-42 -94 -27 -19 -65 -40 -84 -48 -19 -7 -53 -17 -75 -22 -22 -6 -55 -19 -73
-30 -18 -10 -39 -19 -47 -19 -7 0 -27 -8 -44 -17 -24 -14 -31 -24 -29 -43 3
-25 5 -25 106 -30 103 -5 103 -5 153 -60 27 -30 69 -75 92 -100 24 -25 83 -84
132 -133 50 -48 115 -114 145 -147 29 -33 56 -64 60 -68 3 -4 17 -13 32 -19
15 -7 34 -25 42 -41 9 -18 28 -32 51 -39 25 -8 55 -9 96 -2 33 5 79 16 102 24
23 7 59 17 79 20 20 4 44 15 54 26 9 10 14 25 10 35 -5 13 -16 15 -64 9 -31
-3 -79 -7 -107 -7 -27 -1 -82 2 -121 6 -72 9 -72 9 -142 80 -38 39 -112 118
-163 176 -52 58 -132 144 -179 191 -47 47 -100 94 -118 103 -28 14 -31 20 -22
36 6 11 25 28 43 37 18 10 50 22 72 26 22 5 78 12 125 15 73 6 85 10 88 26 3
11 -2 24 -10 30 -8 6 -27 21 -43 34 -20 15 -31 38 -40 75 -10 44 -15 52 -37
55z"/>
</g>
</svg>
