<?xml version="1.0" standalone="no"?>
<!DOCTYPE svg PUBLIC "-//W3C//DTD SVG 20010904//EN"
 "http://www.w3.org/TR/2001/REC-SVG-20010904/DTD/svg10.dtd">
<svg version="1.0" xmlns="http://www.w3.org/2000/svg"
 width="128.000000pt" height="128.000000pt" viewBox="0 0 128.000000 128.000000"
 preserveAspectRatio="xMidYMid meet">
<metadata>
Created by potrace 1.16, written by Peter Selinger 2001-2019
</metadata>
<g transform="translate(0.000000,128.000000) scale(0.100000,-0.100000)"
fill="#000000" stroke="none">
<path d="M475 1280 c-14 0 -25 -4 -25 -10 0 -5 -9 -10 -20 -10 -11 0 -23 -6
-26 -13 -2 -7 -6 -36 -7 -63 -3 -49 -3 -49 -75 -92 -67 -40 -71 -45 -60 -65 6
-12 10 -43 9 -69 -2 -31 4 -59 18 -87 12 -22 21 -51 21 -65 0 -14 8 -49 18
-78 11 -29 25 -71 32 -93 7 -22 32 -79 56 -128 23 -48 46 -97 50 -110 4 -12
27 -53 52 -92 24 -38 56 -84 71 -100 14 -17 34 -46 44 -65 12 -23 41 -48 80
-72 34 -20 77 -44 96 -53 29 -14 43 -15 87 -7 29 6 68 8 88 5 32 -5 36 -3 36
15 0 11 -4 23 -9 26 -5 3 -38 8 -73 10 -39 3 -85 14 -121 30 -32 14 -60 33
-64 41 -3 9 -18 22 -34 31 -16 8 -45 40 -65 72 -20 31 -39 59 -43 62 -3 3 -18
23 -33 45 -15 22 -30 58 -34 80 -4 22 -15 52 -25 67 -11 14 -19 33 -19 41 0 8
-9 26 -20 40 -11 14 -20 28 -20 32 0 4 -16 48 -36 99 -19 50 -41 105 -49 121
-7 17 -16 44 -20 60 -3 17 -10 50 -15 75 -6 25 -17 50 -25 56 -11 8 -11 14 -3
22 9 9 16 8 30 -5 16 -14 21 -15 27 -4 6 10 14 11 27 3 13 -7 26 -6 45 4 15 7
29 21 33 29 3 9 6 26 6 38 0 12 -7 41 -17 65 -16 43 -16 43 10 70 15 16 27 31
27 35 0 4 -11 7 -25 7z"/>
</g>
</svg>
