<?xml version="1.0" standalone="no"?>
<!DOCTYPE svg PUBLIC "-//W3C//DTD SVG 20010904//EN"
 "http://www.w3.org/TR/2001/REC-SVG-20010904/DTD/svg10.dtd">
<svg version="1.0" xmlns="http://www.w3.org/2000/svg"
 width="128.000000pt" height="128.000000pt" viewBox="0 0 128.000000 128.000000"
 preserveAspectRatio="xMidYMid meet">
<metadata>
Created by potrace 1.16, written by Peter Selinger 2001-2019
</metadata>
<g transform="translate(0.000000,128.000000) scale(0.100000,-0.100000)"
fill="#000000" stroke="none">
<path d="M498 1060 c-55 -1 -65 -4 -81 -26 -16 -21 -17 -30 -7 -59 6 -19 16
-37 21 -40 5 -4 9 -20 9 -36 0 -30 0 -30 -44 -24 -31 5 -52 2 -74 -9 -17 -9
-32 -21 -34 -27 -2 -6 -28 -20 -58 -31 -30 -11 -75 -23 -100 -28 -25 -4 -62
-13 -83 -20 -27 -8 -37 -16 -35 -28 2 -9 12 -18 23 -20 11 -2 34 -17 50 -33
23 -22 41 -29 70 -29 22 -1 71 -2 109 -4 42 -1 71 -7 74 -14 2 -7 8 -12 14
-12 6 0 41 -20 77 -44 36 -24 95 -75 131 -113 36 -37 83 -77 105 -87 21 -10
55 -36 74 -57 19 -22 40 -39 46 -39 7 0 46 -16 88 -35 42 -19 87 -35 101 -35
14 0 61 9 103 21 43 12 86 28 96 37 9 8 22 34 28 56 7 23 21 60 32 84 11 24
26 46 33 49 11 4 14 35 14 143 0 127 -2 138 -19 143 -10 2 -23 2 -28 -2 -5 -3
-14 -40 -21 -81 -7 -41 -26 -119 -43 -172 -24 -74 -40 -106 -67 -134 -34 -35
-38 -36 -85 -30 -28 3 -53 9 -56 14 -3 5 -25 21 -47 35 -23 14 -51 42 -64 61
-12 20 -27 36 -34 36 -7 0 -28 7 -47 16 -19 8 -41 19 -49 25 -8 5 -35 20 -60
33 -25 14 -58 41 -73 60 -15 20 -35 36 -43 36 -8 0 -32 9 -54 20 -25 13 -70
22 -124 26 -53 4 -90 12 -97 20 -9 11 -8 18 1 29 7 8 19 15 27 15 8 0 37 7 64
16 27 9 52 20 55 25 3 5 14 9 25 9 10 0 46 9 79 21 46 16 64 18 75 9 7 -6 33
-12 57 -13 37 -2 43 1 46 19 2 11 -7 29 -19 40 -11 10 -39 23 -62 29 -22 5
-43 17 -47 25 -4 8 -16 34 -28 57 -22 41 -22 42 -2 48 11 4 20 11 20 16 0 5
-28 9 -62 9z"/>
</g>
</svg>
