<?xml version="1.0" standalone="no"?>
<!DOCTYPE svg PUBLIC "-//W3C//DTD SVG 20010904//EN"
 "http://www.w3.org/TR/2001/REC-SVG-20010904/DTD/svg10.dtd">
<svg version="1.0" xmlns="http://www.w3.org/2000/svg"
 width="128.000000pt" height="128.000000pt" viewBox="0 0 128.000000 128.000000"
 preserveAspectRatio="xMidYMid meet">
<metadata>
Created by potrace 1.16, written by Peter Selinger 2001-2019
</metadata>
<g transform="translate(0.000000,128.000000) scale(0.100000,-0.100000)"
fill="#000000" stroke="none">
<path d="M993 1125 c-170 7 -183 6 -183 -10 0 -10 8 -24 17 -30 12 -9 24 -10
34 -4 11 5 30 4 51 -2 18 -6 49 -18 68 -26 19 -9 60 -37 90 -63 31 -26 71 -51
90 -55 19 -4 42 -12 52 -18 12 -8 24 -7 42 3 20 10 26 21 26 46 0 19 -9 44
-22 59 -13 15 -36 42 -53 60 -30 33 -30 33 -212 40z"/>
<path d="M391 1080 c-4 0 -24 -19 -44 -42 -35 -40 -37 -46 -35 -108 0 -36 4
-74 8 -85 5 -14 -1 -31 -21 -56 -16 -20 -29 -40 -29 -44 0 -4 15 -5 33 -1 17
3 75 13 127 22 52 8 105 20 118 25 12 5 22 17 22 27 0 11 -9 27 -20 37 -11 10
-28 23 -39 29 -10 6 -37 23 -59 38 -23 15 -46 37 -52 48 -8 14 -8 31 -1 57 6
20 8 40 5 45 -3 4 -9 8 -13 8z"/>
<path d="M234 737 c-10 2 -28 -2 -39 -9 -11 -6 -34 -11 -51 -10 -24 2 -36 -5
-60 -35 -16 -21 -37 -49 -45 -63 -9 -14 -19 -49 -23 -78 -5 -36 -3 -59 5 -68
6 -8 27 -14 46 -14 22 0 64 15 112 41 42 22 84 50 93 61 10 11 25 18 33 14 8
-3 20 -17 25 -31 5 -14 17 -25 27 -25 10 0 44 -23 76 -52 32 -28 63 -62 68
-75 5 -13 20 -28 35 -33 14 -6 52 -33 84 -61 32 -29 64 -62 70 -75 7 -12 35
-34 62 -48 41 -21 64 -26 124 -26 60 0 84 5 126 26 28 14 73 47 100 72 27 26
56 58 63 72 7 14 24 32 38 39 13 7 31 28 40 47 9 19 21 34 27 34 5 0 10 23 10
50 0 28 -4 50 -10 50 -5 0 -28 -16 -50 -36 -22 -20 -40 -41 -40 -48 0 -6 -15
-25 -33 -43 -17 -17 -44 -42 -58 -55 -14 -13 -45 -39 -69 -58 -31 -24 -58 -36
-92 -40 -42 -6 -51 -3 -70 17 -12 13 -42 33 -67 44 -24 10 -49 26 -55 33 -6 8
-33 26 -61 41 -27 14 -77 50 -110 79 -33 30 -79 70 -101 90 -23 20 -49 36 -58
36 -9 0 -25 9 -37 21 -16 16 -32 20 -72 19 -29 -2 -58 -2 -64 -1 -7 0 -13 8
-13 16 0 8 9 24 21 36 11 11 18 26 16 32 -2 7 -12 13 -23 14z"/>
<path d="M294 270 c-7 0 -24 -14 -38 -31 -14 -17 -29 -41 -32 -54 -3 -13 -3
-29 1 -34 3 -6 33 -11 65 -11 59 0 59 0 53 53 -3 29 -12 57 -21 65 -9 6 -21
12 -28 12z"/>
</g>
</svg>
