<?xml version="1.0" standalone="no"?>
<!DOCTYPE svg PUBLIC "-//W3C//DTD SVG 20010904//EN"
 "http://www.w3.org/TR/2001/REC-SVG-20010904/DTD/svg10.dtd">
<svg version="1.0" xmlns="http://www.w3.org/2000/svg"
 width="128.000000pt" height="128.000000pt" viewBox="0 0 128.000000 128.000000"
 preserveAspectRatio="xMidYMid meet">
<metadata>
Created by potrace 1.16, written by Peter Selinger 2001-2019
</metadata>
<g transform="translate(0.000000,128.000000) scale(0.100000,-0.100000)"
fill="#000000" stroke="none">
<path d="M750 1218 c-113 2 -159 -1 -168 -10 -6 -6 -12 -18 -12 -25 0 -7 -8
-17 -18 -22 -13 -7 -31 -6 -58 4 -21 7 -40 20 -42 29 -3 11 -8 13 -20 6 -9 -6
-42 -19 -72 -30 -45 -16 -58 -26 -68 -52 -9 -24 -9 -41 -1 -68 6 -19 22 -60
36 -90 19 -43 22 -61 15 -80 -6 -14 -17 -32 -26 -39 -9 -7 -16 -24 -16 -37 0
-15 -6 -24 -16 -24 -9 0 -37 -15 -63 -34 -25 -19 -58 -47 -72 -63 -15 -15 -29
-37 -32 -48 -3 -11 -13 -40 -22 -65 -9 -25 -29 -58 -45 -75 -19 -20 -30 -45
-34 -75 -4 -25 -3 -50 1 -55 4 -6 20 -18 35 -28 15 -9 34 -17 42 -17 8 0 37
22 65 49 31 30 51 58 51 71 0 12 14 35 30 50 17 15 30 33 30 40 0 7 24 37 53
67 28 31 66 69 82 85 17 16 37 33 46 38 13 7 24 -2 53 -44 20 -29 36 -55 36
-59 0 -4 15 -26 33 -49 19 -24 54 -63 78 -88 24 -25 57 -66 74 -90 16 -25 48
-67 70 -95 22 -27 52 -63 65 -78 14 -16 37 -42 53 -58 15 -16 27 -38 27 -48 0
-9 10 -27 23 -39 16 -15 36 -22 65 -22 37 0 45 4 62 33 11 17 20 40 20 49 0 9
-5 28 -11 41 -6 14 -21 30 -34 37 -16 8 -21 18 -17 36 3 16 -5 35 -27 61 -17
21 -40 47 -50 58 -9 11 -33 40 -52 65 -18 25 -40 51 -47 59 -10 10 -12 29 -7
68 5 44 4 53 -9 53 -9 0 -17 -8 -18 -17 0 -10 -1 -26 0 -35 1 -10 -2 -18 -6
-18 -4 0 -12 10 -17 22 -6 12 -23 29 -40 38 -16 8 -37 25 -47 37 -10 12 -27
25 -38 28 -11 4 -20 14 -20 23 0 9 -12 29 -28 44 -15 15 -42 40 -59 54 -18 14
-33 31 -33 38 0 7 11 23 24 35 13 12 42 25 65 28 39 5 42 4 116 -71 41 -42 78
-76 81 -76 3 0 17 -9 31 -20 14 -11 36 -20 49 -20 14 0 30 10 40 25 11 17 14
34 9 53 -3 15 -9 41 -12 58 -3 19 0 35 7 39 7 4 58 9 114 11 76 3 107 9 124
22 13 9 30 35 38 57 7 22 14 56 14 76 0 22 -7 42 -17 51 -10 9 -35 26 -57 37
-21 12 -41 20 -44 17 -2 -3 -18 2 -33 11 -23 14 -31 15 -41 5 -7 -7 -31 -12
-54 -12 -35 0 -44 4 -50 22 -6 21 -6 21 -19 -3 -10 -18 -15 -20 -19 -9 -3 8
-6 24 -8 35 -3 19 -12 20 -158 23z m-4 -48 c8 0 15 -11 16 -27 0 -16 0 -37 -1
-48 -1 -11 -18 -34 -38 -51 -31 -26 -41 -29 -55 -20 -10 6 -18 21 -18 33 0 12
8 28 18 35 10 7 28 28 41 46 12 17 29 32 37 32z m-302 -110 c8 0 17 -4 20 -9
4 -5 3 -16 0 -25 -3 -9 -12 -16 -20 -16 -8 0 -14 10 -14 25 0 15 6 25 14 25z
m133 -23 c18 -6 36 -19 39 -31 5 -14 -1 -26 -22 -44 -16 -13 -46 -35 -67 -49
-37 -25 -38 -26 -52 -7 -8 10 -15 36 -15 57 0 21 7 45 15 54 9 8 28 18 43 22
15 4 42 3 59 -2z m283 11 c35 -3 35 -3 34 -52 0 -39 -5 -53 -24 -68 -18 -14
-33 -18 -55 -14 -16 4 -41 17 -53 30 -20 19 -22 26 -12 42 7 11 26 30 43 42
22 15 43 22 67 20z m122 -19 c3 1 13 -2 22 -5 9 -3 16 -13 16 -22 0 -8 -12
-30 -26 -49 -14 -18 -30 -31 -35 -28 -5 4 -9 26 -9 50 0 25 5 45 13 48 6 3 15
6 19 6z"/>
<path d="M486 570 c-3 0 -8 -4 -11 -10 -3 -5 -1 -18 4 -27 9 -16 10 -14 11 10
0 15 -2 27 -4 27z"/>
<path d="M957 528 c-7 6 -18 7 -26 3 -8 -5 -10 -14 -7 -20 4 -6 13 -11 21 -11
8 0 16 4 19 9 3 5 0 13 -7 19z"/>
<path d="M333 458 c-7 2 -13 -3 -13 -11 0 -8 7 -21 16 -28 14 -11 15 -10 12
11 -1 13 -9 25 -15 28z"/>
<path d="M455 375 c-11 4 -23 3 -27 0 -3 -4 -2 -20 3 -37 6 -21 5 -36 -3 -45
-8 -10 -6 -18 7 -33 15 -16 21 -17 40 -7 12 7 35 27 50 45 21 25 25 36 16 46
-6 7 -24 16 -39 20 -15 3 -36 8 -47 11z m33 -55 c6 0 12 -4 12 -9 0 -6 -4 -12
-9 -15 -5 -4 -17 -3 -26 0 -13 5 -14 8 -3 15 7 5 19 9 26 9z"/>
</g>
</svg>
