<?xml version="1.0" standalone="no"?>
<!DOCTYPE svg PUBLIC "-//W3C//DTD SVG 20010904//EN"
 "http://www.w3.org/TR/2001/REC-SVG-20010904/DTD/svg10.dtd">
<svg version="1.0" xmlns="http://www.w3.org/2000/svg"
 width="128.000000pt" height="128.000000pt" viewBox="0 0 128.000000 128.000000"
 preserveAspectRatio="xMidYMid meet">
<metadata>
Created by potrace 1.16, written by Peter Selinger 2001-2019
</metadata>
<g transform="translate(0.000000,128.000000) scale(0.100000,-0.100000)"
fill="#000000" stroke="none">
<path d="M741 1159 c-94 -1 -172 -4 -175 -6 -2 -3 -26 -10 -53 -17 -29 -8 -48
-18 -48 -27 0 -9 15 -16 43 -20 23 -3 46 -10 51 -15 4 -5 14 -36 20 -69 7 -33
19 -93 26 -134 8 -41 12 -78 9 -82 -2 -4 -18 -4 -34 1 -16 5 -44 20 -63 34
-25 19 -46 26 -79 26 -25 0 -58 7 -74 14 -16 8 -47 18 -69 21 -22 3 -47 1 -55
-4 -11 -8 -12 -15 -4 -28 6 -10 44 -28 85 -41 41 -13 87 -30 102 -38 16 -8 44
-14 62 -14 19 0 37 -5 40 -10 3 -6 4 -18 0 -28 -3 -9 -35 -35 -71 -57 -36 -22
-83 -55 -105 -73 -23 -17 -46 -32 -52 -32 -7 0 -18 4 -25 9 -7 4 -27 41 -44
82 -16 41 -33 99 -37 129 -5 43 -10 56 -25 58 -10 2 -22 -2 -27 -10 -5 -7 -9
-37 -9 -67 0 -30 4 -68 9 -85 5 -17 17 -55 26 -84 9 -29 14 -59 11 -67 -3 -8
-17 -15 -30 -15 -15 0 -38 -14 -59 -35 -19 -19 -41 -35 -49 -35 -9 0 -21 -7
-28 -15 -10 -13 -10 -19 5 -35 10 -11 25 -20 33 -20 7 0 27 9 43 21 16 11 46
22 66 25 21 3 51 7 66 9 24 4 38 -6 100 -69 45 -46 83 -76 102 -80 17 -4 48
-15 70 -25 22 -11 60 -28 85 -39 25 -10 70 -26 100 -35 30 -9 116 -21 190 -27
74 -7 185 -15 245 -19 90 -6 115 -5 138 8 15 8 27 20 27 26 0 5 -10 16 -22 24
-12 8 -56 14 -102 16 -45 1 -130 8 -191 15 -60 6 -126 18 -145 25 -19 8 -53
16 -75 20 -22 3 -60 14 -85 24 -25 11 -61 25 -80 32 -19 7 -52 31 -75 53 -22
21 -55 45 -73 53 -18 7 -35 20 -39 28 -3 9 -2 34 1 58 6 40 10 44 62 69 47 23
59 25 87 16 17 -6 46 -21 64 -34 17 -13 44 -24 60 -24 15 0 45 5 66 11 21 5
43 19 50 30 6 10 21 19 33 19 12 0 33 9 48 21 14 11 26 31 26 43 0 18 10 27
43 40 23 9 48 16 54 16 6 0 25 20 42 46 17 25 31 54 31 65 0 10 16 42 35 70
20 27 39 69 44 93 5 25 4 51 -1 61 -5 9 -19 15 -31 14 -12 -1 -30 1 -39 6 -10
4 -25 5 -33 1 -8 -3 -15 -17 -15 -31 0 -18 -5 -25 -20 -25 -11 0 -41 -5 -67
-12 -27 -7 -70 -29 -97 -50 -27 -21 -60 -41 -73 -44 -13 -4 -27 -4 -30 -1 -3
3 -10 28 -15 54 -5 26 -10 53 -10 58 -1 6 0 25 0 43 2 25 8 35 30 44 15 6 58
14 96 17 43 4 71 11 74 19 3 10 -31 12 -167 11z m175 -259 c15 0 24 -6 24 -16
0 -9 -11 -30 -25 -48 -14 -17 -37 -43 -50 -58 -14 -16 -28 -28 -33 -28 -5 0
-24 -13 -42 -30 -18 -16 -43 -30 -55 -30 -11 0 -26 5 -33 12 -7 7 -12 26 -12
42 0 17 9 46 20 64 16 25 26 32 52 32 18 0 44 9 58 20 14 11 33 20 42 20 9 0
20 5 23 10 3 6 17 10 31 10z"/>
</g>
</svg>
