<?xml version="1.0" standalone="no"?>
<!DOCTYPE svg PUBLIC "-//W3C//DTD SVG 20010904//EN"
 "http://www.w3.org/TR/2001/REC-SVG-20010904/DTD/svg10.dtd">
<svg version="1.0" xmlns="http://www.w3.org/2000/svg"
 width="128.000000pt" height="128.000000pt" viewBox="0 0 128.000000 128.000000"
 preserveAspectRatio="xMidYMid meet">
<metadata>
Created by potrace 1.16, written by Peter Selinger 2001-2019
</metadata>
<g transform="translate(0.000000,128.000000) scale(0.100000,-0.100000)"
fill="#000000" stroke="none">
<path d="M838 1219 c-7 -1 -42 -12 -78 -25 -36 -13 -72 -23 -80 -22 -8 1 -28
-1 -44 -6 -17 -4 -43 -17 -59 -28 -22 -15 -45 -21 -95 -22 -60 -1 -67 -3 -67
-21 0 -15 9 -21 38 -26 20 -3 39 -8 42 -11 3 -3 -2 -19 -10 -35 -9 -17 -26
-38 -39 -47 -13 -8 -40 -32 -60 -53 -21 -23 -36 -48 -36 -63 0 -14 13 -42 30
-62 28 -34 29 -38 16 -70 -8 -18 -61 -77 -118 -132 -56 -54 -127 -114 -157
-133 -30 -19 -64 -39 -77 -44 -14 -5 -24 -17 -24 -28 0 -11 5 -23 10 -26 6 -4
19 -23 30 -44 19 -39 19 -39 65 -24 33 12 49 24 60 47 8 17 36 53 61 80 29 32
44 56 41 67 -3 12 2 20 14 24 10 3 20 14 23 23 3 10 31 42 61 72 35 34 58 51
64 45 5 -6 10 -41 11 -80 0 -38 -2 -99 -5 -135 -3 -36 -6 -74 -6 -85 1 -11 -4
-32 -10 -47 -7 -18 -20 -28 -37 -30 -19 -2 -27 -9 -27 -23 0 -18 6 -20 64 -18
40 1 67 7 72 15 5 7 9 29 9 48 0 19 6 46 13 60 7 14 14 40 15 59 2 19 7 41 13
48 7 8 8 24 4 40 -5 16 -9 46 -11 68 -2 22 -3 49 -3 60 0 11 1 40 4 65 2 25 1
60 -2 78 -4 23 -14 37 -34 47 -28 15 -28 16 -11 43 9 15 26 42 37 60 11 17 25
30 30 29 6 -2 11 -18 13 -35 3 -30 6 -32 42 -32 21 0 41 4 44 9 3 5 29 16 58
26 49 16 53 16 65 -1 7 -10 13 -33 13 -51 0 -19 -6 -49 -14 -68 -12 -28 -21
-35 -53 -40 -21 -4 -54 -12 -73 -18 -19 -6 -43 -18 -52 -26 -14 -11 -15 -17
-7 -28 6 -7 26 -13 45 -13 30 0 34 -3 40 -35 3 -19 2 -41 -3 -48 -6 -6 -13
-24 -17 -39 -5 -21 -1 -32 15 -45 11 -10 25 -26 30 -35 7 -13 5 -28 -7 -50 -9
-18 -36 -54 -60 -80 -24 -26 -44 -51 -44 -57 0 -5 7 -12 16 -15 9 -3 36 -6 60
-6 31 0 46 -5 51 -16 3 -8 -4 -25 -16 -38 -11 -12 -21 -26 -21 -31 0 -5 -16
-23 -36 -41 -21 -20 -34 -40 -32 -51 2 -12 14 -19 38 -21 30 -3 39 2 65 33 27
31 38 37 85 41 37 3 60 0 70 -8 8 -7 23 -25 33 -40 16 -25 23 -28 72 -28 49 0
56 3 69 28 8 15 17 43 21 62 3 20 1 48 -5 64 -7 21 -7 38 1 65 7 20 16 47 21
61 6 18 4 35 -8 59 -9 18 -21 34 -28 37 -6 2 -40 -2 -76 -10 -58 -12 -66 -12
-77 2 -7 9 -13 26 -13 39 0 13 -10 29 -26 39 -14 9 -32 30 -40 45 -8 17 -12
39 -8 54 3 14 31 48 62 76 31 29 57 57 57 63 0 6 6 21 13 34 9 16 10 27 2 42
-10 18 -7 22 24 35 20 8 39 15 44 15 5 0 21 27 36 61 14 33 26 66 26 73 0 8
-18 30 -40 50 -22 20 -42 36 -44 36 -3 0 -17 -5 -32 -11 -16 -5 -38 -8 -50 -5
-13 3 -36 20 -53 37 -25 25 -29 33 -19 48 6 10 8 26 5 35 -4 9 -12 16 -19 15z
m-45 -91 c9 -5 17 -14 17 -21 0 -8 -13 -25 -28 -40 -15 -15 -43 -30 -61 -33
-28 -6 -37 -3 -52 17 -10 13 -19 34 -19 46 0 16 8 25 25 29 14 3 32 4 40 0 8
-3 25 -2 37 3 13 5 31 5 41 -1z m-153 -98 c11 0 20 -2 20 -5 0 -2 -9 -9 -20
-15 -16 -9 -20 -8 -20 5 0 8 9 15 20 15z m282 -11 c4 0 14 -6 22 -15 9 -8 16
-19 16 -24 0 -5 -3 -15 -6 -24 -3 -9 -12 -16 -20 -16 -8 0 -11 6 -8 15 5 12
-3 15 -39 15 -25 0 -48 4 -51 9 -3 5 0 13 7 19 6 6 26 12 42 15 17 2 33 5 37
6z m-85 -289 c13 0 14 -3 6 -11 -6 -6 -9 -18 -6 -25 3 -8 0 -14 -6 -14 -6 0
-11 11 -11 25 0 17 6 25 17 25z m78 -395 c11 -3 33 -5 49 -5 27 0 28 -1 22
-42 -3 -24 -8 -60 -12 -80 -3 -21 -8 -38 -10 -38 -3 0 -15 7 -28 16 -13 8 -27
26 -30 39 -6 22 -11 24 -56 22 -27 -1 -54 3 -61 10 -6 6 -9 19 -6 27 4 10 18
16 36 16 16 0 39 9 52 20 14 11 33 18 44 15z"/>
<path d="M1037 740 c-31 0 -38 -3 -35 -17 2 -10 21 -27 43 -38 22 -12 53 -30
70 -40 16 -11 38 -28 47 -37 10 -10 26 -18 37 -18 10 0 33 3 50 6 30 6 31 9
31 55 0 49 0 49 -51 49 -29 0 -70 5 -93 12 -22 6 -45 15 -50 20 -6 4 -27 8
-49 8z"/>
<path d="M352 348 c-17 3 -22 -2 -22 -17 0 -16 6 -21 26 -21 19 0 25 5 22 18
-2 9 -13 18 -26 20z"/>
</g>
</svg>
