<?xml version="1.0" standalone="no"?>
<!DOCTYPE svg PUBLIC "-//W3C//DTD SVG 20010904//EN"
 "http://www.w3.org/TR/2001/REC-SVG-20010904/DTD/svg10.dtd">
<svg version="1.0" xmlns="http://www.w3.org/2000/svg"
 width="128.000000pt" height="128.000000pt" viewBox="0 0 128.000000 128.000000"
 preserveAspectRatio="xMidYMid meet">
<metadata>
Created by potrace 1.16, written by Peter Selinger 2001-2019
</metadata>
<g transform="translate(0.000000,128.000000) scale(0.100000,-0.100000)"
fill="#000000" stroke="none">
<path d="M180 1280 c-136 0 -160 -2 -160 -15 0 -8 3 -15 8 -15 4 0 44 -3 90
-6 45 -2 94 -9 108 -14 14 -6 40 -10 58 -10 17 0 37 5 44 12 7 7 12 20 12 30
0 17 -13 18 -160 18z"/>
<path d="M455 1280 c-44 0 -75 -4 -75 -10 0 -6 15 -19 33 -30 17 -11 38 -20
45 -20 7 0 26 10 42 22 17 12 30 25 30 30 0 4 -34 8 -75 8z"/>
<path d="M668 1279 c-13 0 -35 -15 -52 -35 -16 -19 -27 -36 -25 -38 2 -1 30
-9 61 -18 53 -14 59 -14 73 2 8 9 15 24 15 34 0 9 -11 22 -25 28 -14 6 -25 15
-25 20 0 4 -10 8 -22 7z"/>
<path d="M800 1280 c-11 0 -20 -4 -20 -10 0 -5 9 -10 20 -10 11 0 20 5 20 10
0 6 -9 10 -20 10z"/>
<path d="M920 1280 c-11 0 -20 -4 -20 -9 0 -5 6 -11 14 -14 8 -3 17 -3 20 0 3
4 6 10 6 15 0 4 -9 8 -20 8z"/>
<path d="M1125 1280 c-85 0 -155 -4 -155 -9 0 -5 21 -14 48 -21 26 -7 52 -12
57 -11 6 2 24 4 40 5 17 2 60 4 98 5 52 1 67 4 67 16 0 13 -24 15 -155 15z"/>
<path d="M408 1189 c-13 0 -33 -4 -46 -9 -13 -6 -38 -22 -57 -36 -19 -15 -35
-30 -35 -34 0 -4 29 -26 65 -49 60 -37 65 -43 65 -76 0 -31 -9 -45 -54 -91
-30 -29 -56 -64 -58 -76 -2 -14 -19 -30 -52 -47 -28 -14 -52 -31 -54 -38 -2
-6 5 -16 15 -21 10 -5 36 -13 59 -16 35 -6 45 -3 71 18 16 13 41 28 56 31 22
6 28 3 36 -18 5 -14 14 -28 19 -31 5 -3 7 -17 4 -31 -3 -17 -19 -36 -46 -52
-22 -14 -60 -41 -84 -61 -31 -24 -57 -36 -88 -40 -36 -4 -50 -11 -71 -38 -16
-21 -39 -38 -63 -44 -21 -6 -49 -19 -62 -29 -19 -16 -21 -22 -10 -33 7 -7 29
-12 50 -12 22 0 68 15 112 36 41 21 101 52 134 70 56 31 59 31 72 13 8 -10 14
-35 15 -54 0 -20 4 -45 8 -56 5 -12 3 -25 -6 -33 -7 -7 -13 -26 -13 -42 0 -16
-5 -32 -11 -35 -7 -5 -5 -15 6 -31 9 -14 15 -35 13 -47 -2 -14 3 -23 14 -25
10 -2 28 7 41 20 14 14 27 42 31 66 4 25 2 51 -4 63 -6 10 -8 24 -4 30 3 6 8
54 11 107 4 84 7 101 29 130 14 18 24 42 22 55 -2 16 -9 21 -25 19 -14 -2 -26
4 -33 18 -6 12 -9 26 -7 33 2 7 0 20 -4 29 -6 10 -4 27 3 44 10 22 10 28 -6
39 -15 11 -25 11 -58 -1 -22 -8 -47 -14 -54 -14 -8 0 -14 7 -14 15 0 8 9 24
20 35 14 14 33 20 62 20 31 0 49 6 68 25 23 22 29 23 60 14 27 -8 45 -7 79 5
25 8 48 13 53 10 4 -3 8 -12 8 -20 0 -8 -6 -14 -13 -14 -8 0 -40 -24 -72 -53
-40 -36 -56 -57 -51 -66 5 -7 24 -19 42 -27 19 -8 34 -18 34 -24 0 -5 -13 -17
-30 -27 -16 -9 -30 -23 -30 -30 0 -8 6 -16 13 -18 7 -3 30 4 52 15 21 11 47
20 57 20 10 0 21 -7 25 -17 3 -9 -1 -28 -10 -42 -8 -14 -25 -46 -37 -71 -11
-25 -30 -55 -42 -67 -11 -12 -17 -26 -13 -32 3 -6 17 -11 31 -11 13 0 24 -3
25 -7 0 -5 2 -27 4 -49 3 -34 -1 -46 -21 -63 -13 -11 -24 -26 -24 -32 0 -6
-11 -25 -26 -41 -15 -19 -24 -40 -22 -55 2 -17 -4 -27 -22 -36 -20 -11 -24
-19 -22 -47 1 -19 5 -45 7 -56 3 -12 14 -24 26 -27 11 -3 26 -3 32 -1 7 3 25
31 40 62 16 31 32 73 36 92 5 27 15 39 41 52 34 18 34 18 70 -17 19 -19 41
-52 48 -74 6 -23 12 -51 12 -63 0 -13 4 -29 9 -37 6 -10 26 -14 62 -12 29 1
63 8 75 16 14 9 29 36 38 69 9 30 16 61 16 70 0 9 11 33 24 54 15 22 27 60 31
95 7 52 5 61 -19 97 -14 22 -33 40 -41 40 -9 0 -15 10 -15 25 0 15 -10 31 -25
41 -23 15 -32 15 -83 4 -31 -8 -72 -20 -90 -27 -26 -11 -37 -11 -48 -2 -8 6
-14 17 -14 25 0 7 11 33 25 58 24 44 25 46 8 80 -16 34 -16 37 3 58 11 13 27
39 36 59 11 24 14 51 11 82 -4 29 -1 52 6 61 7 8 27 18 44 22 18 3 38 11 45
16 6 6 12 21 12 34 0 16 -8 28 -25 36 -20 9 -29 7 -51 -8 -15 -10 -33 -23 -40
-29 -10 -7 -22 -5 -41 7 -24 15 -27 21 -24 68 1 29 -3 57 -9 66 -7 7 -25 14
-39 14 -15 0 -36 -6 -47 -14 -18 -14 -18 -16 -3 -61 15 -41 15 -49 2 -76 -14
-28 -19 -30 -61 -27 -42 3 -47 6 -50 29 -2 14 -23 47 -48 73 -24 26 -47 59
-50 72 -4 14 -14 29 -24 34 -10 6 -29 10 -42 9z m571 -799 c3 0 16 -3 29 -6
12 -4 29 -19 37 -35 15 -27 14 -29 -14 -44 -17 -8 -36 -24 -45 -36 -11 -16
-12 -28 -4 -49 8 -23 5 -35 -16 -69 -15 -23 -30 -41 -34 -41 -5 0 -18 9 -30
20 -12 12 -22 26 -22 33 0 7 -9 29 -20 50 -11 20 -20 43 -20 51 0 7 -7 19 -15
26 -8 6 -23 9 -33 5 -11 -3 -22 -15 -25 -26 -4 -16 -12 -20 -39 -17 -18 2 -33
7 -33 13 0 5 14 14 30 20 17 5 38 19 47 30 10 11 17 25 18 32 0 7 9 17 19 23
11 5 49 9 85 8 36 -1 69 1 73 5 3 4 9 7 12 7z"/>
<path d="M1125 850 c-23 0 -38 -6 -42 -15 -3 -9 -4 -17 -2 -18 2 -2 22 -15 45
-30 22 -15 44 -27 49 -27 5 0 16 -7 26 -16 10 -9 25 -14 34 -11 8 4 15 13 15
20 0 8 -20 33 -45 56 -35 32 -52 41 -80 41z"/>
<path d="M1210 694 c-9 3 -21 1 -28 -6 -7 -7 -12 -16 -12 -20 0 -5 10 -22 22
-38 12 -17 29 -30 37 -30 9 0 24 7 34 14 9 7 17 25 17 38 0 20 -6 27 -27 30
-16 3 -35 8 -43 12z"/>
</g>
</svg>
