<?xml version="1.0" standalone="no"?>
<!DOCTYPE svg PUBLIC "-//W3C//DTD SVG 20010904//EN"
 "http://www.w3.org/TR/2001/REC-SVG-20010904/DTD/svg10.dtd">
<svg version="1.0" xmlns="http://www.w3.org/2000/svg"
 width="56.000000pt" height="56.000000pt" viewBox="0 0 56.000000 56.000000"
 preserveAspectRatio="xMidYMid meet">
<metadata>
Created by potrace 1.16, written by Peter Selinger 2001-2019
</metadata>
<g transform="translate(0.000000,56.000000) scale(0.100000,-0.100000)"
fill="#000000" stroke="none">
<path d="M277 520 c-13 0 -15 -7 -10 -37 4 -21 7 -45 7 -53 1 -12 -12 -15 -59
-15 -53 0 -60 -2 -60 -20 0 -17 6 -20 43 -17 23 2 42 -1 42 -6 0 -4 -11 -19
-25 -32 -14 -13 -25 -31 -25 -40 0 -9 5 -21 12 -28 8 -8 -12 -22 -84 -55 -52
-25 -98 -49 -100 -53 -3 -5 -9 -23 -12 -41 -6 -27 -4 -32 15 -38 17 -6 30 1
61 35 34 36 44 41 69 36 17 -3 45 -17 64 -32 35 -26 35 -26 89 10 30 20 66 36
80 36 15 0 42 -10 61 -22 19 -13 34 -30 33 -38 -2 -8 -27 -31 -55 -50 -30 -19
-49 -38 -44 -43 5 -5 32 -3 62 3 30 6 69 14 87 17 29 5 32 9 32 39 0 19 -3 34
-8 34 -4 0 -16 15 -26 34 -12 23 -30 37 -56 46 -24 8 -61 11 -95 7 -43 -4 -57
-2 -62 9 -3 8 -2 25 1 39 5 18 15 27 36 32 19 3 30 12 30 23 0 9 -8 24 -18 33
-10 10 -26 17 -36 17 -11 0 -16 6 -14 18 2 11 14 18 36 20 18 2 40 -2 48 -9
11 -9 18 -9 26 -1 8 8 8 15 -2 27 -7 8 -23 15 -36 15 -19 0 -24 5 -24 24 0 17
-12 34 -33 50 -19 15 -41 26 -50 26z"/>
</g>
</svg>
