<?xml version="1.0" standalone="no"?>
<!DOCTYPE svg PUBLIC "-//W3C//DTD SVG 20010904//EN"
 "http://www.w3.org/TR/2001/REC-SVG-20010904/DTD/svg10.dtd">
<svg version="1.0" xmlns="http://www.w3.org/2000/svg"
 width="56.000000pt" height="56.000000pt" viewBox="0 0 56.000000 56.000000"
 preserveAspectRatio="xMidYMid meet">
<metadata>
Created by potrace 1.16, written by Peter Selinger 2001-2019
</metadata>
<g transform="translate(0.000000,56.000000) scale(0.100000,-0.100000)"
fill="#000000" stroke="none">
<path d="M281 560 c-65 0 -81 -3 -81 -15 0 -8 6 -15 14 -15 8 0 18 -22 26 -61
10 -48 11 -80 2 -154 -7 -52 -12 -144 -12 -204 0 -104 1 -111 20 -111 13 0 25
11 34 33 7 17 10 39 6 47 -4 8 -6 67 -4 130 1 63 5 142 9 176 6 51 3 66 -15
98 -11 21 -18 41 -15 45 4 3 25 6 47 6 24 0 43 5 45 13 4 9 -16 12 -76 12z"/>
</g>
</svg>
