<?xml version="1.0" standalone="no"?>
<!DOCTYPE svg PUBLIC "-//W3C//DTD SVG 20010904//EN"
 "http://www.w3.org/TR/2001/REC-SVG-20010904/DTD/svg10.dtd">
<svg version="1.0" xmlns="http://www.w3.org/2000/svg"
 width="56.000000pt" height="56.000000pt" viewBox="0 0 56.000000 56.000000"
 preserveAspectRatio="xMidYMid meet">
<metadata>
Created by potrace 1.16, written by Peter Selinger 2001-2019
</metadata>
<g transform="translate(0.000000,56.000000) scale(0.100000,-0.100000)"
fill="#000000" stroke="none">
<path d="M282 560 c-5 0 -13 -15 -20 -33 -7 -18 -12 -70 -12 -114 0 -44 -5
-95 -11 -112 -9 -25 -9 -42 2 -74 7 -23 15 -82 18 -132 5 -72 9 -90 22 -93 10
-2 21 8 29 27 8 20 10 52 6 93 -3 35 -10 99 -14 143 -5 46 -4 109 1 148 7 49
6 80 -2 108 -7 21 -15 39 -19 39z"/>
</g>
</svg>
