<?xml version="1.0" standalone="no"?>
<!DOCTYPE svg PUBLIC "-//W3C//DTD SVG 20010904//EN"
 "http://www.w3.org/TR/2001/REC-SVG-20010904/DTD/svg10.dtd">
<svg version="1.0" xmlns="http://www.w3.org/2000/svg"
 width="56.000000pt" height="56.000000pt" viewBox="0 0 56.000000 56.000000"
 preserveAspectRatio="xMidYMid meet">
<metadata>
Created by potrace 1.16, written by Peter Selinger 2001-2019
</metadata>
<g transform="translate(0.000000,56.000000) scale(0.100000,-0.100000)"
fill="#000000" stroke="none">
<path d="M261 560 c-5 0 -14 -7 -22 -16 -7 -9 -12 -34 -10 -60 2 -41 1 -44
-22 -44 -14 0 -27 6 -30 13 -3 9 -16 12 -36 9 -17 -2 -31 -9 -31 -15 0 -5 8
-16 18 -23 9 -7 34 -14 55 -14 36 0 37 -1 37 -40 0 -32 5 -42 25 -53 25 -12
25 -14 8 -29 -10 -9 -51 -40 -90 -70 -40 -29 -84 -61 -98 -71 -14 -10 -23 -22
-20 -28 4 -5 23 -9 43 -9 24 -1 51 -11 76 -29 39 -28 39 -28 100 2 34 16 70
34 82 39 12 5 31 8 43 6 19 -3 16 -9 -34 -63 -37 -41 -50 -61 -40 -63 8 -2 30
8 48 22 19 14 41 26 50 26 10 0 17 4 17 10 0 5 16 20 35 32 19 13 35 28 35 34
0 6 -19 23 -41 37 -41 27 -41 27 -118 1 -42 -14 -80 -29 -84 -34 -5 -4 -27 -2
-50 5 -23 7 -42 18 -42 26 0 8 32 31 70 51 39 21 74 39 80 41 5 2 8 19 7 37
-1 19 -12 45 -24 57 -17 18 -19 25 -9 37 7 9 21 18 32 21 10 4 19 14 19 24 0
10 -10 22 -23 28 -15 7 -26 26 -35 57 -6 25 -16 46 -21 46z"/>
</g>
</svg>
