<?xml version="1.0" standalone="no"?>
<!DOCTYPE svg PUBLIC "-//W3C//DTD SVG 20010904//EN"
 "http://www.w3.org/TR/2001/REC-SVG-20010904/DTD/svg10.dtd">
<svg version="1.0" xmlns="http://www.w3.org/2000/svg"
 width="56.000000pt" height="56.000000pt" viewBox="0 0 56.000000 56.000000"
 preserveAspectRatio="xMidYMid meet">
<metadata>
Created by potrace 1.16, written by Peter Selinger 2001-2019
</metadata>
<g transform="translate(0.000000,56.000000) scale(0.100000,-0.100000)"
fill="#000000" stroke="none">
<path d="M259 560 c-17 0 -19 -4 -12 -22 4 -13 8 -93 8 -178 0 -85 5 -194 9
-241 6 -62 6 -88 -3 -93 -6 -4 -11 -11 -11 -17 0 -5 9 -9 19 -9 11 0 23 5 26
10 4 6 6 120 6 253 -1 142 -6 246 -11 251 -6 6 -10 18 -10 28 0 12 -7 18 -21
18z"/>
</g>
</svg>
