<?xml version="1.0" standalone="no"?>
<!DOCTYPE svg PUBLIC "-//W3C//DTD SVG 20010904//EN"
 "http://www.w3.org/TR/2001/REC-SVG-20010904/DTD/svg10.dtd">
<svg version="1.0" xmlns="http://www.w3.org/2000/svg"
 width="56.000000pt" height="56.000000pt" viewBox="0 0 56.000000 56.000000"
 preserveAspectRatio="xMidYMid meet">
<metadata>
Created by potrace 1.16, written by Peter Selinger 2001-2019
</metadata>
<g transform="translate(0.000000,56.000000) scale(0.100000,-0.100000)"
fill="#000000" stroke="none">
<path d="M272 558 c-13 2 -22 -2 -22 -10 0 -8 5 -19 11 -25 7 -7 9 -87 6 -244
-2 -129 -7 -244 -11 -256 -6 -17 -5 -23 6 -23 8 0 20 10 26 23 6 13 12 115 15
252 2 127 1 241 -2 255 -4 16 -15 26 -29 28z"/>
</g>
</svg>
