<?xml version="1.0" standalone="no"?>
<!DOCTYPE svg PUBLIC "-//W3C//DTD SVG 20010904//EN"
 "http://www.w3.org/TR/2001/REC-SVG-20010904/DTD/svg10.dtd">
<svg version="1.0" xmlns="http://www.w3.org/2000/svg"
 width="56.000000pt" height="56.000000pt" viewBox="0 0 56.000000 56.000000"
 preserveAspectRatio="xMidYMid meet">
<metadata>
Created by potrace 1.16, written by Peter Selinger 2001-2019
</metadata>
<g transform="translate(0.000000,56.000000) scale(0.100000,-0.100000)"
fill="#000000" stroke="none">
<path d="M288 559 c-10 1 -19 -10 -23 -29 -4 -16 -11 -33 -16 -36 -6 -3 -19 2
-30 12 -13 12 -23 14 -30 7 -6 -6 -6 -18 0 -35 5 -15 20 -28 35 -32 14 -3 26
-12 26 -19 0 -7 -4 -17 -9 -23 -4 -5 -17 -37 -27 -72 -17 -60 -20 -64 -72 -90
-30 -15 -68 -40 -83 -55 -16 -16 -29 -37 -29 -48 0 -16 7 -19 43 -19 31 0 64
-10 110 -35 51 -27 73 -34 94 -29 16 4 58 27 95 51 37 23 76 43 87 43 16 0 21
-6 21 -29 0 -17 -13 -45 -35 -72 -35 -44 -35 -44 -9 -47 14 -2 32 2 40 9 8 6
22 28 31 47 9 20 17 51 17 69 0 18 -5 38 -11 44 -6 6 -36 12 -65 13 -46 1 -60
-4 -94 -29 -30 -23 -49 -30 -84 -30 -25 0 -60 8 -79 18 -19 9 -43 17 -53 17
-13 0 -18 6 -16 17 2 9 17 24 33 34 17 10 38 18 48 18 10 1 30 9 45 18 15 10
31 23 35 30 4 7 21 13 36 13 16 0 34 7 41 15 6 8 9 19 5 25 -3 5 -17 10 -31
10 -14 0 -34 -5 -46 -11 -11 -6 -22 -8 -26 -5 -3 4 1 19 10 34 8 15 18 42 22
61 3 19 18 44 32 58 25 23 25 23 2 53 -13 16 -31 29 -40 29z"/>
</g>
</svg>
