<?xml version="1.0" standalone="no"?>
<!DOCTYPE svg PUBLIC "-//W3C//DTD SVG 20010904//EN"
 "http://www.w3.org/TR/2001/REC-SVG-20010904/DTD/svg10.dtd">
<svg version="1.0" xmlns="http://www.w3.org/2000/svg"
 width="56.000000pt" height="56.000000pt" viewBox="0 0 56.000000 56.000000"
 preserveAspectRatio="xMidYMid meet">
<metadata>
Created by potrace 1.16, written by Peter Selinger 2001-2019
</metadata>
<g transform="translate(0.000000,56.000000) scale(0.100000,-0.100000)"
fill="#000000" stroke="none">
<path d="M274 560 c-16 0 -24 -6 -24 -18 0 -10 4 -22 10 -28 5 -5 10 -50 11
-100 1 -70 -4 -105 -22 -157 -20 -60 -21 -70 -9 -109 7 -24 17 -47 22 -52 4
-6 8 -30 8 -54 0 -39 2 -43 22 -40 13 2 24 11 26 22 2 11 -2 38 -9 60 -7 23
-16 46 -19 51 -4 6 -10 23 -14 39 -5 19 1 49 19 97 22 57 26 79 21 126 -4 32
-9 82 -12 111 -5 47 -8 52 -30 52z"/>
</g>
</svg>
