<?xml version="1.0" standalone="no"?>
<!DOCTYPE svg PUBLIC "-//W3C//DTD SVG 20010904//EN"
 "http://www.w3.org/TR/2001/REC-SVG-20010904/DTD/svg10.dtd">
<svg version="1.0" xmlns="http://www.w3.org/2000/svg"
 width="56.000000pt" height="56.000000pt" viewBox="0 0 56.000000 56.000000"
 preserveAspectRatio="xMidYMid meet">
<metadata>
Created by potrace 1.16, written by Peter Selinger 2001-2019
</metadata>
<g transform="translate(0.000000,56.000000) scale(0.100000,-0.100000)"
fill="#000000" stroke="none">
<path d="M250 540 c-6 0 -13 -7 -16 -15 -4 -8 -1 -22 6 -30 6 -8 9 -18 6 -24
-3 -5 -27 -16 -53 -25 -26 -9 -57 -16 -70 -16 -13 0 -26 -7 -29 -15 -4 -8 -1
-22 6 -30 7 -8 24 -15 39 -15 15 0 36 7 48 15 13 9 24 11 28 5 3 -5 -1 -23
-10 -39 -8 -17 -15 -39 -15 -50 0 -13 -30 -43 -84 -86 -62 -49 -87 -75 -91
-97 -5 -21 -2 -35 11 -49 9 -10 26 -19 38 -19 11 0 37 17 58 37 38 37 38 37
66 10 20 -19 39 -27 63 -27 28 0 43 8 74 41 22 22 61 54 88 71 39 25 50 28 62
18 8 -7 15 -18 15 -25 0 -7 -32 -39 -71 -71 -40 -33 -84 -69 -98 -81 -26 -22
-26 -22 2 -23 15 0 58 15 96 34 37 19 82 51 99 70 20 23 29 42 26 53 -3 10
-11 29 -17 43 -6 14 -20 37 -30 53 -10 15 -27 27 -37 27 -10 0 -60 -38 -111
-85 -52 -47 -99 -85 -105 -85 -5 0 -23 13 -38 29 -16 17 -26 36 -23 44 3 8 17
17 32 21 15 4 40 16 56 28 15 12 30 27 33 34 3 7 -6 33 -19 57 -24 42 -24 44
-7 77 14 29 24 36 59 42 23 4 51 12 63 18 11 6 20 15 20 21 0 6 -6 17 -14 25
-8 8 -25 14 -38 14 -13 0 -33 -6 -43 -14 -17 -12 -22 -11 -42 10 -12 13 -27
24 -33 24z"/>
</g>
</svg>
