<?xml version="1.0" standalone="no"?>
<!DOCTYPE svg PUBLIC "-//W3C//DTD SVG 20010904//EN"
 "http://www.w3.org/TR/2001/REC-SVG-20010904/DTD/svg10.dtd">
<svg version="1.0" xmlns="http://www.w3.org/2000/svg"
 width="56.000000pt" height="56.000000pt" viewBox="0 0 56.000000 56.000000"
 preserveAspectRatio="xMidYMid meet">
<metadata>
Created by potrace 1.16, written by Peter Selinger 2001-2019
</metadata>
<g transform="translate(0.000000,56.000000) scale(0.100000,-0.100000)"
fill="#000000" stroke="none">
<path d="M321 560 c-12 0 -22 -9 -26 -22 -4 -13 -16 -43 -27 -68 -12 -25 -25
-54 -29 -65 -4 -11 -10 -38 -14 -60 -4 -22 -8 -62 -11 -90 -2 -27 0 -68 5 -90
5 -22 15 -66 22 -99 7 -32 19 -60 27 -63 8 -3 18 0 23 8 5 8 9 35 9 61 0 26
-4 58 -10 72 -5 14 -10 65 -12 114 -2 49 2 99 8 113 6 13 20 54 32 91 12 37
22 74 22 82 0 9 -8 16 -19 16z"/>
</g>
</svg>
