<?xml version="1.0" standalone="no"?>
<!DOCTYPE svg PUBLIC "-//W3C//DTD SVG 20010904//EN"
 "http://www.w3.org/TR/2001/REC-SVG-20010904/DTD/svg10.dtd">
<svg version="1.0" xmlns="http://www.w3.org/2000/svg"
 width="56.000000pt" height="56.000000pt" viewBox="0 0 56.000000 56.000000"
 preserveAspectRatio="xMidYMid meet">
<metadata>
Created by potrace 1.16, written by Peter Selinger 2001-2019
</metadata>
<g transform="translate(0.000000,56.000000) scale(0.100000,-0.100000)"
fill="#000000" stroke="none">
<path d="M256 560 c-54 0 -54 0 -75 -43 -15 -31 -19 -53 -15 -75 4 -22 12 -32
25 -32 13 0 23 15 36 56 17 54 18 55 47 50 17 -4 36 -12 42 -19 7 -6 17 -28
22 -48 7 -25 6 -50 -2 -80 -7 -24 -17 -56 -23 -70 -6 -14 -30 -47 -52 -73 -23
-26 -46 -56 -51 -67 -9 -15 -7 -19 7 -19 10 0 42 21 70 46 35 30 62 66 82 108
28 57 29 67 21 123 -4 33 -13 69 -18 79 -6 11 -22 29 -36 42 -20 17 -39 22
-80 22z"/>
<path d="M41 540 c-5 0 -11 -6 -13 -12 -3 -7 -4 -104 -2 -215 2 -179 4 -207
21 -235 11 -18 37 -43 59 -55 21 -13 54 -23 72 -23 18 0 67 9 110 21 42 11 90
27 106 35 16 8 35 14 43 14 7 0 21 4 31 9 9 5 25 12 35 15 9 3 17 15 17 26 0
11 -7 20 -15 20 -8 0 -15 -5 -15 -11 0 -6 -6 -9 -14 -6 -8 3 -22 -1 -33 -8
-10 -8 -32 -15 -48 -15 -17 0 -55 -9 -85 -20 -31 -11 -80 -20 -112 -20 -31 0
-68 5 -82 11 -14 7 -28 19 -31 27 -3 9 -8 103 -11 211 -3 107 -9 203 -15 213
-5 10 -14 18 -18 18z"/>
</g>
</svg>
