<?xml version="1.0" standalone="no"?>
<!DOCTYPE svg PUBLIC "-//W3C//DTD SVG 20010904//EN"
 "http://www.w3.org/TR/2001/REC-SVG-20010904/DTD/svg10.dtd">
<svg version="1.0" xmlns="http://www.w3.org/2000/svg"
 width="56.000000pt" height="56.000000pt" viewBox="0 0 56.000000 56.000000"
 preserveAspectRatio="xMidYMid meet">
<metadata>
Created by potrace 1.16, written by Peter Selinger 2001-2019
</metadata>
<g transform="translate(0.000000,56.000000) scale(0.100000,-0.100000)"
fill="#000000" stroke="none">
<path d="M312 560 c-11 0 -22 -8 -26 -17 -3 -10 -11 -31 -17 -48 -6 -16 -15
-48 -20 -70 -5 -22 -14 -71 -18 -110 -6 -45 -6 -88 1 -120 6 -27 13 -81 17
-120 5 -61 9 -70 26 -70 17 0 20 8 23 52 2 29 -2 62 -8 74 -7 13 -12 65 -11
126 0 57 5 122 11 144 5 21 15 58 21 82 5 23 13 50 15 60 4 12 0 17 -14 17z"/>
</g>
</svg>
