<?xml version="1.0" standalone="no"?>
<!DOCTYPE svg PUBLIC "-//W3C//DTD SVG 20010904//EN"
 "http://www.w3.org/TR/2001/REC-SVG-20010904/DTD/svg10.dtd">
<svg version="1.0" xmlns="http://www.w3.org/2000/svg"
 width="56.000000pt" height="56.000000pt" viewBox="0 0 56.000000 56.000000"
 preserveAspectRatio="xMidYMid meet">
<metadata>
Created by potrace 1.16, written by Peter Selinger 2001-2019
</metadata>
<g transform="translate(0.000000,56.000000) scale(0.100000,-0.100000)"
fill="#000000" stroke="none">
<path d="M275 560 c-12 0 -14 -13 -13 -62 1 -35 -6 -116 -17 -181 -15 -96 -16
-125 -7 -151 7 -18 12 -51 12 -74 0 -22 5 -53 12 -67 6 -14 17 -25 23 -25 6 0
18 17 25 39 9 28 9 43 1 59 -6 11 -11 48 -11 82 0 34 -4 69 -9 78 -5 10 -3 46
5 92 8 41 17 91 20 111 4 24 1 47 -10 67 -9 18 -23 32 -31 32z"/>
</g>
</svg>
