<?xml version="1.0" standalone="no"?>
<!DOCTYPE svg PUBLIC "-//W3C//DTD SVG 20010904//EN"
 "http://www.w3.org/TR/2001/REC-SVG-20010904/DTD/svg10.dtd">
<svg version="1.0" xmlns="http://www.w3.org/2000/svg"
 width="56.000000pt" height="56.000000pt" viewBox="0 0 56.000000 56.000000"
 preserveAspectRatio="xMidYMid meet">
<metadata>
Created by potrace 1.16, written by Peter Selinger 2001-2019
</metadata>
<g transform="translate(0.000000,56.000000) scale(0.100000,-0.100000)"
fill="#000000" stroke="none">
<path d="M309 560 c-14 0 -20 -13 -29 -57 -6 -32 -15 -76 -21 -98 -6 -22 -15
-54 -20 -71 -5 -17 -9 -64 -9 -105 0 -53 7 -95 23 -140 12 -35 26 -70 30 -76
5 -7 15 -13 24 -13 11 0 13 5 8 18 -5 9 -12 42 -17 72 -5 30 -12 89 -15 130
-2 41 0 90 6 110 5 19 14 55 20 80 5 25 12 69 14 98 4 45 2 52 -14 52z"/>
</g>
</svg>
