<?xml version="1.0" standalone="no"?>
<!DOCTYPE svg PUBLIC "-//W3C//DTD SVG 20010904//EN"
 "http://www.w3.org/TR/2001/REC-SVG-20010904/DTD/svg10.dtd">
<svg version="1.0" xmlns="http://www.w3.org/2000/svg"
 width="56.000000pt" height="56.000000pt" viewBox="0 0 56.000000 56.000000"
 preserveAspectRatio="xMidYMid meet">
<metadata>
Created by potrace 1.16, written by Peter Selinger 2001-2019
</metadata>
<g transform="translate(0.000000,56.000000) scale(0.100000,-0.100000)"
fill="#000000" stroke="none">
<path d="M316 560 c-19 0 -25 -6 -28 -32 -3 -18 -13 -55 -23 -83 -10 -27 -21
-59 -26 -70 -4 -11 -11 -33 -15 -50 -4 -16 -7 -59 -7 -95 0 -36 4 -90 10 -120
6 -30 15 -67 21 -82 6 -16 16 -28 22 -28 5 0 10 23 10 51 0 27 -5 71 -11 96
-9 34 -9 62 0 116 7 40 21 99 32 132 11 33 24 74 29 91 6 17 10 40 10 52 0 17
-6 22 -24 22z"/>
</g>
</svg>
