<?xml version="1.0" standalone="no"?>
<!DOCTYPE svg PUBLIC "-//W3C//DTD SVG 20010904//EN"
 "http://www.w3.org/TR/2001/REC-SVG-20010904/DTD/svg10.dtd">
<svg version="1.0" xmlns="http://www.w3.org/2000/svg"
 width="56.000000pt" height="56.000000pt" viewBox="0 0 56.000000 56.000000"
 preserveAspectRatio="xMidYMid meet">
<metadata>
Created by potrace 1.16, written by Peter Selinger 2001-2019
</metadata>
<g transform="translate(0.000000,56.000000) scale(0.100000,-0.100000)"
fill="#000000" stroke="none">
<path d="M317 560 c-20 0 -26 -10 -46 -77 -12 -43 -27 -95 -33 -115 -7 -24 -8
-84 -4 -170 5 -110 4 -138 -9 -162 -8 -15 -15 -30 -15 -32 0 -2 10 -4 23 -4
16 0 28 12 46 45 19 37 22 53 17 92 -3 27 -9 76 -13 110 -3 39 -1 81 7 110 7
27 21 75 31 107 11 33 19 68 19 78 0 12 -7 18 -23 18z"/>
</g>
</svg>
