<?xml version="1.0" standalone="no"?>
<!DOCTYPE svg PUBLIC "-//W3C//DTD SVG 20010904//EN"
 "http://www.w3.org/TR/2001/REC-SVG-20010904/DTD/svg10.dtd">
<svg version="1.0" xmlns="http://www.w3.org/2000/svg"
 width="56.000000pt" height="56.000000pt" viewBox="0 0 56.000000 56.000000"
 preserveAspectRatio="xMidYMid meet">
<metadata>
Created by potrace 1.16, written by Peter Selinger 2001-2019
</metadata>
<g transform="translate(0.000000,56.000000) scale(0.100000,-0.100000)"
fill="#000000" stroke="none">
<path d="M311 560 c-26 0 -31 -4 -31 -24 0 -14 -11 -55 -24 -93 -13 -37 -29
-94 -36 -125 -10 -44 -10 -70 -1 -114 6 -32 11 -85 11 -119 0 -34 -5 -66 -12
-73 -9 -9 -6 -12 14 -12 14 0 31 7 38 15 7 8 12 41 13 72 0 32 -1 96 -2 143
-1 53 5 106 14 140 9 30 21 71 26 90 6 19 13 50 16 68 5 30 4 32 -26 32z"/>
</g>
</svg>
