<?xml version="1.0" standalone="no"?>
<!DOCTYPE svg PUBLIC "-//W3C//DTD SVG 20010904//EN"
 "http://www.w3.org/TR/2001/REC-SVG-20010904/DTD/svg10.dtd">
<svg version="1.0" xmlns="http://www.w3.org/2000/svg"
 width="56.000000pt" height="56.000000pt" viewBox="0 0 56.000000 56.000000"
 preserveAspectRatio="xMidYMid meet">
<metadata>
Created by potrace 1.16, written by Peter Selinger 2001-2019
</metadata>
<g transform="translate(0.000000,56.000000) scale(0.100000,-0.100000)"
fill="#000000" stroke="none">
<path d="M126 560 c-9 0 -16 -4 -16 -10 0 -5 9 -19 19 -29 18 -18 20 -37 22
-187 2 -121 -1 -169 -9 -172 -7 -2 -12 -10 -12 -18 0 -8 4 -14 9 -14 6 0 16
-21 23 -46 10 -37 21 -51 48 -65 27 -15 56 -19 133 -19 63 0 96 4 92 10 -3 6
-36 10 -73 10 -48 1 -80 7 -112 23 -40 20 -45 26 -45 57 0 31 5 37 50 61 28
15 58 28 67 28 10 1 32 -7 50 -17 18 -10 43 -21 55 -24 13 -4 26 -2 29 4 3 5
-2 18 -12 29 -9 10 -27 19 -40 19 -13 0 -26 5 -29 10 -3 6 -19 10 -36 10 -16
0 -49 -10 -74 -21 -25 -12 -48 -25 -51 -30 -3 -5 -9 -9 -14 -9 -5 0 -7 6 -4
14 3 8 31 30 62 49 31 19 76 54 100 77 23 23 42 45 42 49 0 4 -11 18 -24 30
-14 13 -22 30 -19 38 3 8 0 25 -6 37 -11 19 -9 29 8 60 12 20 21 39 21 41 0 3
-15 5 -34 5 -19 0 -37 -6 -40 -12 -5 -10 -7 -10 -12 0 -3 6 -14 12 -24 12 -10
0 -20 -10 -24 -22 -3 -13 0 -29 7 -36 11 -10 19 -10 42 2 16 9 31 14 33 11 2
-2 -4 -15 -14 -30 -14 -21 -15 -31 -6 -45 6 -10 8 -27 5 -38 -3 -14 2 -25 16
-34 12 -7 21 -18 21 -25 0 -6 -5 -15 -10 -18 -6 -4 -17 -2 -24 4 -10 8 -16 8
-25 -3 -6 -7 -9 -20 -6 -28 4 -9 -10 -29 -35 -52 -22 -20 -45 -34 -51 -31 -6
4 -7 51 -3 123 5 95 3 124 -10 152 -9 19 -22 43 -29 53 -8 9 -22 17 -31 17z"/>
<path d="M452 274 c-4 2 -19 -2 -35 -10 -15 -8 -27 -17 -27 -19 0 -2 9 -9 19
-14 15 -9 22 -6 35 14 9 13 12 26 8 29z"/>
</g>
</svg>
