<?xml version="1.0" standalone="no"?>
<!DOCTYPE svg PUBLIC "-//W3C//DTD SVG 20010904//EN"
 "http://www.w3.org/TR/2001/REC-SVG-20010904/DTD/svg10.dtd">
<svg version="1.0" xmlns="http://www.w3.org/2000/svg"
 width="56.000000pt" height="56.000000pt" viewBox="0 0 56.000000 56.000000"
 preserveAspectRatio="xMidYMid meet">
<metadata>
Created by potrace 1.16, written by Peter Selinger 2001-2019
</metadata>
<g transform="translate(0.000000,56.000000) scale(0.100000,-0.100000)"
fill="#000000" stroke="none">
<path d="M265 520 c-6 0 -15 -3 -18 -7 -4 -3 1 -15 10 -25 13 -15 15 -23 6
-36 -6 -9 -19 -16 -29 -15 -11 1 -32 3 -49 5 -21 2 -30 -1 -30 -12 0 -11 12
-15 50 -15 38 0 50 -4 53 -16 2 -9 -8 -26 -22 -37 -15 -11 -26 -25 -26 -31 0
-6 -6 -11 -13 -11 -7 0 -28 -13 -47 -30 -19 -16 -42 -29 -51 -30 -9 0 -33 -19
-52 -43 -19 -24 -38 -59 -42 -79 -5 -27 -3 -37 8 -41 9 -3 27 5 41 18 14 13
26 31 26 39 0 8 -5 18 -10 21 -6 4 16 26 48 49 32 24 87 52 123 64 35 11 78
23 96 27 17 3 37 13 43 21 10 11 9 15 -1 18 -8 3 -25 6 -39 8 -17 2 -26 10
-28 24 -2 16 8 28 43 49 34 20 44 30 36 38 -6 6 -26 11 -45 10 -22 -1 -41 6
-52 18 -9 10 -22 19 -29 19z"/>
<path d="M429 236 c-29 0 -55 -5 -70 -16 -13 -10 -37 -20 -54 -24 -16 -3 -48
-8 -69 -11 -22 -3 -44 -9 -49 -14 -7 -7 0 -14 18 -21 16 -6 48 -8 72 -4 24 3
54 15 67 25 13 11 33 19 43 19 10 0 24 5 29 10 6 6 25 7 43 4 29 -6 32 -10 26
-33 -3 -14 -13 -30 -22 -36 -9 -5 -29 -21 -44 -33 -16 -13 -29 -30 -29 -37 0
-7 6 -15 13 -18 7 -3 26 -3 41 0 15 3 48 24 72 47 36 34 44 48 44 77 0 33 -3
37 -42 50 -24 7 -64 14 -89 15z"/>
<path d="M350 60 c-10 0 -25 -6 -32 -14 -8 -8 -23 -16 -34 -20 -10 -3 -1 -3
21 0 22 3 48 7 58 10 9 3 15 10 12 15 -4 5 -15 9 -25 9z"/>
</g>
</svg>
