<?xml version="1.0" standalone="no"?>
<!DOCTYPE svg PUBLIC "-//W3C//DTD SVG 20010904//EN"
 "http://www.w3.org/TR/2001/REC-SVG-20010904/DTD/svg10.dtd">
<svg version="1.0" xmlns="http://www.w3.org/2000/svg"
 width="56.000000pt" height="56.000000pt" viewBox="0 0 56.000000 56.000000"
 preserveAspectRatio="xMidYMid meet">
<metadata>
Created by potrace 1.16, written by Peter Selinger 2001-2019
</metadata>
<g transform="translate(0.000000,56.000000) scale(0.100000,-0.100000)"
fill="#000000" stroke="none">
<path d="M274 560 c-22 0 -23 -2 -14 -21 7 -13 9 -50 5 -102 -3 -45 -8 -162
-11 -260 -4 -150 -3 -177 9 -177 8 0 20 7 27 15 9 11 10 34 5 82 -4 38 -7 97
-8 133 0 36 4 99 10 140 6 41 12 80 14 85 2 6 0 31 -5 58 -6 41 -10 47 -32 47z"/>
</g>
</svg>
