<?xml version="1.0" standalone="no"?>
<!DOCTYPE svg PUBLIC "-//W3C//DTD SVG 20010904//EN"
 "http://www.w3.org/TR/2001/REC-SVG-20010904/DTD/svg10.dtd">
<svg version="1.0" xmlns="http://www.w3.org/2000/svg"
 width="56.000000pt" height="56.000000pt" viewBox="0 0 56.000000 56.000000"
 preserveAspectRatio="xMidYMid meet">
<metadata>
Created by potrace 1.16, written by Peter Selinger 2001-2019
</metadata>
<g transform="translate(0.000000,56.000000) scale(0.100000,-0.100000)"
fill="#000000" stroke="none">
<path d="M311 560 c-17 0 -21 -6 -21 -29 0 -17 -4 -33 -10 -36 -5 -3 -10 -17
-10 -30 0 -13 -4 -27 -10 -30 -5 -3 -10 -16 -10 -29 0 -12 -5 -27 -11 -33 -7
-7 -9 -39 -6 -84 2 -41 11 -123 18 -182 11 -87 16 -107 29 -105 12 3 15 18 13
83 -1 44 -5 129 -9 189 -4 73 -2 112 5 119 6 6 11 20 11 32 0 12 4 25 10 31 5
5 13 31 16 57 6 43 5 47 -15 47z"/>
</g>
</svg>
