<?xml version="1.0" standalone="no"?>
<!DOCTYPE svg PUBLIC "-//W3C//DTD SVG 20010904//EN"
 "http://www.w3.org/TR/2001/REC-SVG-20010904/DTD/svg10.dtd">
<svg version="1.0" xmlns="http://www.w3.org/2000/svg"
 width="56.000000pt" height="56.000000pt" viewBox="0 0 56.000000 56.000000"
 preserveAspectRatio="xMidYMid meet">
<metadata>
Created by potrace 1.16, written by Peter Selinger 2001-2019
</metadata>
<g transform="translate(0.000000,56.000000) scale(0.100000,-0.100000)"
fill="#000000" stroke="none">
<path d="M297 560 c-17 0 -28 -8 -36 -27 -6 -16 -13 -46 -14 -69 -2 -23 -7
-45 -10 -50 -3 -5 -1 -29 3 -54 5 -25 9 -116 10 -202 0 -134 2 -158 15 -158 8
0 15 9 15 19 0 11 5 23 11 27 8 5 9 56 4 178 -4 94 -7 182 -7 196 0 14 4 41
10 60 6 19 14 45 17 58 6 19 4 22 -18 22z"/>
</g>
</svg>
