<?xml version="1.0" standalone="no"?>
<!DOCTYPE svg PUBLIC "-//W3C//DTD SVG 20010904//EN"
 "http://www.w3.org/TR/2001/REC-SVG-20010904/DTD/svg10.dtd">
<svg version="1.0" xmlns="http://www.w3.org/2000/svg"
 width="56.000000pt" height="56.000000pt" viewBox="0 0 56.000000 56.000000"
 preserveAspectRatio="xMidYMid meet">
<metadata>
Created by potrace 1.16, written by Peter Selinger 2001-2019
</metadata>
<g transform="translate(0.000000,56.000000) scale(0.100000,-0.100000)"
fill="#000000" stroke="none">
<path d="M295 560 c-25 0 -45 -4 -45 -10 0 -5 9 -10 20 -10 12 0 20 -7 20 -18
0 -9 -12 -49 -26 -87 -14 -39 -30 -88 -36 -110 -6 -24 -7 -91 -3 -165 4 -69
11 -133 16 -142 6 -10 16 -18 23 -18 8 0 17 12 21 27 3 15 3 75 0 133 -6 91
-4 119 15 200 13 52 27 99 31 105 5 5 9 28 9 52 0 43 0 43 -45 43z"/>
</g>
</svg>
