<?xml version="1.0" standalone="no"?>
<!DOCTYPE svg PUBLIC "-//W3C//DTD SVG 20010904//EN"
 "http://www.w3.org/TR/2001/REC-SVG-20010904/DTD/svg10.dtd">
<svg version="1.0" xmlns="http://www.w3.org/2000/svg"
 width="56.000000pt" height="56.000000pt" viewBox="0 0 56.000000 56.000000"
 preserveAspectRatio="xMidYMid meet">
<metadata>
Created by potrace 1.16, written by Peter Selinger 2001-2019
</metadata>
<g transform="translate(0.000000,56.000000) scale(0.100000,-0.100000)"
fill="#000000" stroke="none">
<path d="M315 560 c-20 0 -26 -7 -35 -42 -7 -24 -21 -70 -32 -103 -11 -33 -21
-93 -23 -133 -1 -40 2 -92 7 -115 5 -23 13 -62 18 -87 4 -25 11 -53 15 -62 4
-10 13 -18 20 -18 7 0 15 10 19 23 3 13 3 52 0 88 -3 35 -10 84 -14 109 -5 24
-5 51 0 60 4 8 8 44 9 80 1 36 10 88 21 118 11 29 20 59 20 67 0 9 -10 15 -25
15z"/>
</g>
</svg>
