<?xml version="1.0" standalone="no"?>
<!DOCTYPE svg PUBLIC "-//W3C//DTD SVG 20010904//EN"
 "http://www.w3.org/TR/2001/REC-SVG-20010904/DTD/svg10.dtd">
<svg version="1.0" xmlns="http://www.w3.org/2000/svg"
 width="56.000000pt" height="56.000000pt" viewBox="0 0 56.000000 56.000000"
 preserveAspectRatio="xMidYMid meet">
<metadata>
Created by potrace 1.16, written by Peter Selinger 2001-2019
</metadata>
<g transform="translate(0.000000,56.000000) scale(0.100000,-0.100000)"
fill="#000000" stroke="none">
<path d="M224 560 c-13 0 -14 -3 -5 -14 6 -7 15 -46 20 -87 6 -41 10 -152 10
-247 1 -99 6 -182 11 -193 6 -10 17 -19 24 -19 8 0 17 23 23 68 6 37 8 96 6
132 -2 36 -5 118 -6 183 -2 117 -2 117 -34 147 -18 17 -39 30 -49 30z"/>
</g>
</svg>
