<?xml version="1.0" standalone="no"?>
<!DOCTYPE svg PUBLIC "-//W3C//DTD SVG 20010904//EN"
 "http://www.w3.org/TR/2001/REC-SVG-20010904/DTD/svg10.dtd">
<svg version="1.0" xmlns="http://www.w3.org/2000/svg"
 width="56.000000pt" height="56.000000pt" viewBox="0 0 56.000000 56.000000"
 preserveAspectRatio="xMidYMid meet">
<metadata>
Created by potrace 1.16, written by Peter Selinger 2001-2019
</metadata>
<g transform="translate(0.000000,56.000000) scale(0.100000,-0.100000)"
fill="#000000" stroke="none">
<path d="M318 560 c-15 0 -31 -13 -46 -36 -13 -20 -32 -52 -44 -72 -17 -32
-19 -48 -15 -122 3 -47 13 -121 21 -165 9 -44 16 -99 16 -122 0 -36 3 -43 20
-43 13 0 22 10 29 35 5 20 8 48 6 63 -2 15 -8 56 -14 92 -6 36 -11 99 -12 140
-1 56 4 90 20 132 12 32 27 60 32 63 5 4 9 13 9 21 0 8 -10 14 -22 14z"/>
</g>
</svg>
