<?xml version="1.0" standalone="no"?>
<!DOCTYPE svg PUBLIC "-//W3C//DTD SVG 20010904//EN"
 "http://www.w3.org/TR/2001/REC-SVG-20010904/DTD/svg10.dtd">
<svg version="1.0" xmlns="http://www.w3.org/2000/svg"
 width="56.000000pt" height="56.000000pt" viewBox="0 0 56.000000 56.000000"
 preserveAspectRatio="xMidYMid meet">
<metadata>
Created by potrace 1.16, written by Peter Selinger 2001-2019
</metadata>
<g transform="translate(0.000000,56.000000) scale(0.100000,-0.100000)"
fill="#000000" stroke="none">
<path d="M283 560 c-27 0 -28 -1 -30 -64 -2 -35 -7 -76 -13 -91 -5 -14 -10
-59 -10 -98 0 -40 6 -101 14 -137 8 -36 19 -89 26 -117 9 -43 16 -53 32 -53
18 0 19 5 15 43 -3 23 -12 71 -21 107 -8 36 -15 85 -15 110 -1 25 6 81 14 125
8 44 14 101 15 128 0 45 -1 47 -27 47z"/>
</g>
</svg>
