<?xml version="1.0" standalone="no"?>
<!DOCTYPE svg PUBLIC "-//W3C//DTD SVG 20010904//EN"
 "http://www.w3.org/TR/2001/REC-SVG-20010904/DTD/svg10.dtd">
<svg version="1.0" xmlns="http://www.w3.org/2000/svg"
 width="128.000000pt" height="128.000000pt" viewBox="0 0 128.000000 128.000000"
 preserveAspectRatio="xMidYMid meet">
<metadata>
Created by potrace 1.16, written by Peter Selinger 2001-2019
</metadata>
<g transform="translate(0.000000,128.000000) scale(0.100000,-0.100000)"
fill="#000000" stroke="none">
<path d="M276 1280 c-38 0 -44 -3 -48 -24 -3 -14 -2 -30 2 -36 4 -7 20 -4 48
11 23 13 42 29 42 36 0 9 -14 13 -44 13z"/>
<path d="M1020 1280 c-21 0 -30 -4 -27 -12 2 -7 14 -13 27 -13 13 0 25 6 28
13 2 8 -7 12 -28 12z"/>
<path d="M688 1238 c-14 2 -29 -1 -32 -7 -4 -5 -4 -28 0 -50 4 -27 2 -46 -6
-56 -7 -8 -25 -15 -41 -15 -18 0 -29 -5 -29 -13 0 -8 8 -21 18 -30 10 -10 31
-17 46 -17 26 0 27 -2 24 -42 -3 -40 -5 -43 -33 -46 -27 -3 -33 2 -48 33 -9
19 -23 35 -31 35 -8 0 -17 -13 -21 -28 -4 -19 3 -55 19 -103 22 -65 23 -76 10
-89 -12 -13 -18 -12 -50 5 -19 10 -42 31 -49 45 -7 14 -16 46 -20 72 -4 26
-20 68 -36 93 -16 25 -36 45 -45 45 -13 0 -15 -8 -11 -47 3 -27 9 -75 13 -108
5 -41 17 -74 39 -110 18 -28 40 -57 49 -64 9 -7 16 -18 16 -23 0 -5 -6 -16
-14 -23 -8 -8 -38 -24 -68 -36 -29 -12 -67 -25 -85 -30 -22 -7 -34 -18 -42
-41 -6 -17 -11 -43 -11 -58 0 -15 7 -33 15 -40 8 -7 25 -10 37 -6 13 3 37 15
53 26 17 11 39 25 50 32 11 7 43 28 72 46 30 17 56 32 59 32 2 0 18 10 33 21
16 12 34 18 40 15 6 -4 11 -14 11 -22 0 -8 -8 -18 -17 -21 -9 -4 -50 -40 -90
-80 -40 -40 -76 -86 -80 -101 -4 -15 -8 -56 -8 -92 0 -63 1 -65 26 -68 19 -2
33 4 48 24 11 15 21 35 21 45 0 9 20 37 44 61 24 24 79 61 122 82 44 22 89 49
101 59 21 19 23 19 29 2 5 -12 -2 -24 -25 -42 -25 -20 -31 -32 -31 -62 0 -20
-6 -45 -12 -54 -7 -9 -51 -32 -98 -52 -47 -20 -99 -51 -117 -68 -18 -18 -33
-41 -33 -52 0 -12 5 -26 12 -33 7 -7 20 -12 29 -12 9 0 43 11 75 25 33 14 67
30 76 35 10 6 25 10 33 10 8 0 15 -7 15 -15 0 -8 -5 -15 -11 -15 -6 0 -29 -15
-52 -34 -23 -18 -82 -55 -132 -81 -49 -26 -92 -49 -94 -51 -2 -2 2 -11 9 -20
11 -12 25 -14 74 -9 34 4 78 11 100 17 21 5 80 14 130 19 50 5 120 9 156 9 39
-1 72 4 82 12 12 9 16 21 12 35 -4 13 -21 32 -40 43 -33 21 -33 21 -73 0 -22
-11 -53 -20 -69 -20 -15 0 -32 -4 -38 -9 -5 -5 -26 -12 -46 -15 -30 -5 -38 -4
-38 8 0 8 22 27 49 41 27 15 54 38 60 51 6 13 15 24 21 24 5 0 10 6 10 13 0 7
-13 23 -30 35 -16 13 -30 29 -30 37 0 9 24 26 56 40 41 18 55 29 52 42 -2 10
-14 23 -28 30 -14 7 -29 14 -33 16 -5 1 -5 10 -2 19 4 9 32 34 63 56 31 22 68
52 81 66 19 21 22 28 12 40 -7 8 -36 20 -65 27 -52 11 -55 11 -117 -23 -35
-19 -74 -37 -86 -40 -13 -3 -27 0 -33 7 -8 10 -3 19 23 39 19 14 39 26 45 26
7 0 12 4 12 9 0 5 47 33 105 61 62 29 105 56 105 65 0 8 -13 21 -30 30 -16 8
-44 15 -62 15 -18 0 -46 -7 -62 -15 -15 -8 -37 -15 -48 -15 -13 0 -18 6 -16
17 2 9 26 29 53 43 36 19 52 34 59 55 4 17 21 56 37 88 16 32 29 66 29 76 0
10 -9 26 -20 36 -14 13 -43 21 -91 24 -69 6 -70 6 -92 46 -16 28 -30 41 -49
43z m108 -148 c18 0 36 -5 39 -10 4 -6 1 -26 -5 -45 -6 -19 -24 -44 -40 -55
-15 -11 -31 -20 -34 -20 -3 0 -6 26 -6 58 0 32 3 62 7 65 3 4 21 7 39 7z
m-153 -301 c12 1 17 -7 17 -24 0 -18 -11 -31 -37 -48 -21 -13 -67 -38 -103
-55 -36 -18 -70 -32 -77 -32 -7 0 -13 3 -13 6 0 4 17 23 38 43 20 21 57 51 82
68 25 16 52 33 60 36 8 3 23 6 33 6z m23 -199 c8 0 14 -2 14 -5 0 -2 -9 -9
-20 -15 -16 -9 -18 -8 -14 5 4 8 12 15 20 15z"/>
</g>
</svg>
