<?xml version="1.0" standalone="no"?>
<!DOCTYPE svg PUBLIC "-//W3C//DTD SVG 20010904//EN"
 "http://www.w3.org/TR/2001/REC-SVG-20010904/DTD/svg10.dtd">
<svg version="1.0" xmlns="http://www.w3.org/2000/svg"
 width="128.000000pt" height="128.000000pt" viewBox="0 0 128.000000 128.000000"
 preserveAspectRatio="xMidYMid meet">
<metadata>
Created by potrace 1.16, written by Peter Selinger 2001-2019
</metadata>
<g transform="translate(0.000000,128.000000) scale(0.100000,-0.100000)"
fill="#000000" stroke="none">
<path d="M595 1000 c-15 0 -25 -6 -25 -14 0 -8 7 -17 16 -20 9 -3 20 -6 25 -6
5 0 9 9 9 20 0 15 -7 20 -25 20z"/>
<path d="M681 950 c-4 0 -12 -5 -18 -11 -6 -6 -9 -18 -6 -25 3 -9 -2 -14 -16
-14 -14 0 -25 -11 -36 -36 -8 -20 -15 -46 -15 -58 0 -12 6 -30 13 -40 7 -9 26
-18 42 -19 17 -1 29 -6 28 -10 -2 -4 -3 -13 -3 -21 0 -9 -7 -12 -19 -9 -12 3
-23 -2 -29 -14 -5 -10 -13 -42 -17 -71 -6 -47 -11 -56 -41 -74 -19 -11 -34
-28 -34 -37 0 -10 5 -44 11 -77 6 -32 22 -83 36 -112 26 -52 26 -53 67 -50 40
3 41 4 58 55 9 28 19 100 22 160 3 59 10 162 15 228 6 66 8 129 5 140 -3 11
-17 37 -31 58 -14 20 -29 37 -32 37z"/>
<path d="M952 820 c-4 0 -13 -5 -20 -12 -7 -7 -12 -19 -12 -29 0 -9 26 -34 58
-56 57 -39 57 -40 55 -86 -3 -42 0 -47 18 -47 11 0 29 4 39 10 13 7 24 5 41
-9 16 -13 39 -18 70 -17 28 0 52 8 62 18 9 9 17 28 17 42 0 19 -5 26 -20 26
-11 0 -40 15 -64 34 -33 25 -51 32 -71 28 -21 -3 -35 3 -63 31 -20 19 -51 42
-69 51 -18 9 -36 16 -41 16z"/>
<path d="M32 732 c-8 8 -13 7 -18 -6 -4 -10 -2 -22 4 -28 8 -8 13 -7 18 6 4
10 2 22 -4 28z"/>
<path d="M426 670 c-8 0 -19 -7 -26 -15 -7 -8 -10 -22 -6 -30 3 -8 16 -15 30
-15 14 0 28 4 31 10 3 5 1 19 -5 30 -6 11 -17 20 -24 20z"/>
<path d="M315 598 c-19 -1 -40 -5 -47 -9 -7 -5 -23 -9 -34 -9 -12 0 -33 -9
-48 -21 -15 -11 -38 -20 -54 -18 -15 1 -34 -1 -42 -4 -8 -4 -24 -5 -35 -4 -17
2 -21 -6 -26 -58 -4 -33 -10 -78 -13 -100 -6 -31 -2 -47 13 -72 12 -18 28 -33
38 -33 10 0 36 7 60 16 23 9 45 25 48 34 3 10 19 23 36 29 20 7 35 22 44 46
10 23 22 35 35 35 14 0 30 17 51 55 17 30 39 57 50 60 10 4 19 15 19 26 0 10
-6 19 -13 19 -7 0 -18 -5 -25 -12 -9 -9 -13 -7 -18 5 -4 11 -17 16 -39 15z"/>
<path d="M470 350 c-5 0 -12 -5 -16 -11 -3 -6 -1 -16 5 -22 8 -8 14 -8 22 0 6
6 8 16 5 22 -4 6 -11 11 -16 11z"/>
</g>
</svg>
