<?xml version="1.0" standalone="no"?>
<!DOCTYPE svg PUBLIC "-//W3C//DTD SVG 20010904//EN"
 "http://www.w3.org/TR/2001/REC-SVG-20010904/DTD/svg10.dtd">
<svg version="1.0" xmlns="http://www.w3.org/2000/svg"
 width="128.000000pt" height="128.000000pt" viewBox="0 0 128.000000 128.000000"
 preserveAspectRatio="xMidYMid meet">
<metadata>
Created by potrace 1.16, written by Peter Selinger 2001-2019
</metadata>
<g transform="translate(0.000000,128.000000) scale(0.100000,-0.100000)"
fill="#000000" stroke="none">
<path d="M649 1160 c-14 0 -46 -13 -72 -30 -26 -16 -50 -37 -54 -46 -3 -9 4
-36 17 -59 16 -30 36 -48 70 -64 48 -23 48 -23 43 -104 -4 -68 -9 -85 -27
-100 -11 -10 -29 -24 -38 -32 -10 -8 -46 -39 -80 -70 -35 -30 -76 -65 -91 -78
-16 -12 -49 -41 -73 -65 -26 -24 -55 -42 -68 -42 -13 0 -31 -9 -40 -19 -10
-11 -31 -23 -46 -26 -16 -4 -38 -1 -49 5 -11 5 -25 28 -31 49 -5 21 -19 50
-31 65 -11 14 -29 26 -39 26 -10 0 -21 -8 -24 -17 -2 -10 -3 -36 -1 -58 1 -22
12 -75 24 -117 11 -43 21 -90 21 -106 0 -15 6 -37 14 -48 14 -18 16 -18 48 12
18 17 48 37 65 44 18 7 62 41 98 76 36 35 69 64 73 64 4 0 13 -9 19 -20 7 -10
31 -24 53 -31 23 -7 42 -20 46 -31 3 -10 17 -26 31 -35 14 -9 29 -27 34 -41 5
-13 18 -26 30 -29 11 -3 31 -27 44 -54 14 -27 34 -53 45 -59 11 -6 30 -8 42
-4 13 3 40 31 62 66 37 57 38 62 31 111 -5 29 -9 90 -9 136 -1 75 -3 85 -23
98 -20 14 -21 17 -8 37 8 12 15 42 15 66 0 25 -2 68 -6 95 -3 28 -10 55 -14
60 -5 6 -5 31 0 56 5 26 5 62 0 85 -5 21 -6 49 -3 62 3 14 -1 30 -11 41 -12
13 -15 27 -10 45 5 20 0 32 -22 56 -18 18 -39 30 -55 30z m-40 -560 c31 0 41
-4 46 -20 3 -11 3 -30 -2 -42 -4 -13 -8 -59 -8 -103 0 -80 0 -80 -28 -83 -17
-2 -56 11 -102 35 -52 26 -75 43 -75 56 0 10 12 29 26 42 15 14 30 25 34 25 3
0 20 20 38 45 28 40 36 45 71 45z"/>
<path d="M940 759 c-3 0 -11 -3 -17 -6 -7 -2 -13 -13 -13 -22 0 -10 9 -30 21
-45 11 -14 29 -26 39 -26 11 0 29 -10 42 -23 13 -13 63 -61 111 -107 88 -84
88 -84 122 -47 20 22 35 49 35 63 0 13 -12 38 -27 54 -14 17 -34 30 -43 30
-10 0 -35 14 -56 31 -22 17 -55 38 -74 46 -19 8 -57 24 -85 34 -27 11 -52 19
-55 18z"/>
</g>
</svg>
