<?xml version="1.0" standalone="no"?>
<!DOCTYPE svg PUBLIC "-//W3C//DTD SVG 20010904//EN"
 "http://www.w3.org/TR/2001/REC-SVG-20010904/DTD/svg10.dtd">
<svg version="1.0" xmlns="http://www.w3.org/2000/svg"
 width="128.000000pt" height="128.000000pt" viewBox="0 0 128.000000 128.000000"
 preserveAspectRatio="xMidYMid meet">
<metadata>
Created by potrace 1.16, written by Peter Selinger 2001-2019
</metadata>
<g transform="translate(0.000000,128.000000) scale(0.100000,-0.100000)"
fill="#000000" stroke="none">
<path d="M495 1060 c-13 0 -27 -5 -30 -10 -4 -6 0 -22 9 -35 9 -13 27 -32 42
-42 14 -10 40 -30 59 -45 30 -26 33 -32 34 -95 1 -68 1 -68 -58 -85 -33 -10
-66 -25 -74 -33 -9 -8 -26 -15 -38 -15 -12 0 -32 -11 -45 -26 -13 -14 -24 -32
-24 -42 0 -12 -3 -13 -12 -4 -7 7 -30 12 -51 12 -30 0 -40 -4 -44 -19 -3 -11
-15 -22 -26 -25 -12 -3 -34 -6 -48 -6 -14 0 -29 3 -32 7 -4 3 0 17 8 30 9 13
14 23 13 24 -2 0 -13 2 -26 3 -12 2 -29 11 -36 22 -13 17 -15 16 -30 -20 -9
-21 -28 -47 -42 -59 -26 -20 -26 -23 -22 -111 3 -60 10 -102 21 -123 10 -19
25 -33 35 -33 10 0 30 6 45 13 15 6 27 17 27 24 0 6 -5 13 -12 15 -7 3 16 32
49 66 34 34 67 62 73 62 6 0 19 17 28 38 16 35 20 37 61 36 36 0 48 -6 66 -28
12 -15 28 -26 36 -24 8 1 40 -24 71 -57 32 -33 58 -67 58 -75 0 -8 7 -23 14
-33 8 -10 20 -15 30 -11 12 4 16 0 16 -15 0 -13 6 -21 16 -21 12 0 15 -6 10
-23 -5 -21 -2 -24 24 -25 21 0 33 6 41 21 7 12 35 43 63 69 28 27 56 48 63 48
7 0 27 18 44 40 18 22 51 51 73 65 23 13 74 56 114 94 39 38 72 75 72 82 0 8
10 19 22 24 13 6 26 24 31 44 4 18 5 41 2 50 -6 14 -7 14 -16 -1 -6 -10 -19
-18 -29 -18 -10 0 -21 4 -24 9 -4 5 -24 12 -46 16 -25 4 -40 12 -40 21 0 8 -7
17 -16 21 -10 4 -22 -1 -29 -11 -10 -13 -34 -18 -106 -22 -52 -3 -101 -10
-111 -15 -9 -5 -30 -9 -47 -9 -22 0 -31 5 -33 18 -1 9 -2 24 -3 32 -1 8 -6 25
-13 37 -7 12 -12 33 -12 47 0 13 -6 31 -13 38 -8 7 -31 22 -53 33 -21 11 -41
22 -44 25 -3 3 -18 11 -33 18 -15 6 -39 12 -52 12z m392 -286 c59 0 97 -5 107
-14 9 -7 16 -18 16 -26 0 -7 9 -22 20 -32 20 -18 19 -19 -30 -69 -28 -28 -50
-54 -50 -58 0 -3 -47 -53 -105 -112 -58 -58 -108 -103 -111 -101 -2 3 1 19 7
36 7 22 7 36 -1 51 -6 12 -20 21 -30 21 -11 0 -20 2 -20 4 0 2 3 11 6 20 3 9
14 16 24 16 11 0 21 4 25 9 3 5 6 39 6 75 1 44 -4 74 -14 90 -11 16 -14 32 -8
52 5 22 15 30 37 34 16 3 70 5 121 4z m-282 -45 c6 1 16 -13 24 -30 11 -26 11
-38 1 -70 -8 -22 -21 -41 -32 -45 -11 -3 -48 -1 -82 6 -34 6 -68 15 -75 19 -7
5 -10 18 -6 33 5 18 20 31 48 43 23 10 58 24 77 31 19 6 40 12 45 13z"/>
<path d="M251 924 c-5 3 -11 -1 -15 -9 -3 -9 0 -15 9 -15 8 0 15 4 15 9 0 6
-4 12 -9 15z"/>
<path d="M325 920 c-8 0 -15 -6 -15 -14 0 -8 -3 -23 -7 -33 -6 -17 -5 -17 15
1 12 11 22 25 22 33 0 7 -7 13 -15 13z"/>
<path d="M394 870 c-9 0 -14 -5 -12 -12 2 -6 10 -14 16 -16 7 -2 12 3 12 12 0
9 -7 16 -16 16z"/>
<path d="M1254 780 c-16 0 -24 -5 -22 -12 3 -7 14 -14 26 -16 15 -2 22 2 22
12 0 11 -9 16 -26 16z"/>
<path d="M620 260 c-5 0 -12 -5 -15 -11 -4 -6 -4 -13 -1 -16 3 -3 12 -3 21 1
9 3 13 10 10 16 -3 5 -10 10 -15 10z"/>
<path d="M576 220 c-8 0 -17 -4 -21 -9 -3 -5 -1 -12 5 -16 5 -3 15 -3 20 0 6
3 10 10 10 16 0 5 -6 9 -14 9z"/>
</g>
</svg>
