<?xml version="1.0" standalone="no"?>
<!DOCTYPE svg PUBLIC "-//W3C//DTD SVG 20010904//EN"
 "http://www.w3.org/TR/2001/REC-SVG-20010904/DTD/svg10.dtd">
<svg version="1.0" xmlns="http://www.w3.org/2000/svg"
 width="128.000000pt" height="128.000000pt" viewBox="0 0 128.000000 128.000000"
 preserveAspectRatio="xMidYMid meet">
<metadata>
Created by potrace 1.16, written by Peter Selinger 2001-2019
</metadata>
<g transform="translate(0.000000,128.000000) scale(0.100000,-0.100000)"
fill="#000000" stroke="none">
<path d="M493 1220 c-10 0 -26 -5 -36 -11 -9 -5 -24 -23 -32 -39 -14 -27 -14
-30 7 -44 12 -9 42 -16 66 -16 24 0 52 -5 63 -10 10 -6 19 -18 19 -27 0 -9 11
-39 25 -68 23 -50 24 -60 25 -276 1 -123 2 -235 2 -249 1 -14 0 -59 -2 -100
-1 -42 -8 -85 -16 -97 -8 -12 -23 -27 -33 -32 -15 -8 -31 -4 -75 19 -30 17
-65 30 -77 30 -12 0 -28 8 -35 17 -7 10 -14 30 -14 45 0 18 9 33 30 48 19 14
30 30 30 46 0 17 -5 24 -20 24 -11 0 -33 -12 -50 -26 -16 -15 -41 -44 -56 -66
-17 -23 -52 -53 -89 -73 -34 -19 -69 -35 -78 -35 -9 0 -19 10 -21 23 -2 12
-12 63 -21 114 -9 50 -23 109 -32 131 -8 23 -22 43 -30 46 -8 4 -19 4 -23 1
-5 -3 -7 -49 -4 -103 3 -53 6 -117 8 -142 2 -25 18 -83 35 -130 18 -47 36 -92
40 -100 5 -8 19 -15 32 -15 23 0 24 3 21 53 -4 53 -4 53 31 50 19 -1 46 6 61
15 14 10 32 33 40 52 8 19 19 35 25 35 5 0 27 -10 48 -22 21 -12 52 -33 68
-48 17 -15 44 -36 60 -48 17 -11 46 -43 65 -71 19 -28 43 -50 52 -51 9 0 25
11 36 25 11 14 18 34 15 44 -3 12 8 38 28 68 19 26 40 64 47 83 7 19 15 55 17
79 2 25 0 52 -6 62 -5 10 -11 57 -14 106 -3 49 -1 102 3 118 5 17 5 66 1 110
-6 70 -4 88 17 148 13 38 24 82 24 98 0 17 -5 40 -11 52 -6 12 -37 45 -67 74
-45 42 -68 55 -119 67 -34 9 -70 16 -80 16z"/>
<path d="M951 720 c-3 0 -15 -6 -26 -13 -11 -6 -38 -16 -59 -22 -22 -5 -41
-15 -43 -22 -3 -7 10 -22 29 -33 18 -11 50 -23 72 -27 21 -3 53 -18 70 -33 17
-15 38 -31 48 -36 9 -5 33 -34 53 -64 27 -39 38 -67 39 -96 0 -22 7 -48 15
-57 7 -10 20 -17 28 -17 8 0 27 12 42 28 17 17 30 43 34 68 5 31 2 54 -14 89
-12 27 -47 80 -79 120 -47 57 -67 74 -102 84 -24 7 -56 17 -72 22 -16 5 -32 9
-35 9z"/>
<path d="M10 95 c-6 4 -10 -5 -10 -20 0 -15 4 -24 10 -20 5 3 10 12 10 20 0 8
-4 17 -10 20z"/>
</g>
</svg>
