<?xml version="1.0" standalone="no"?>
<!DOCTYPE svg PUBLIC "-//W3C//DTD SVG 20010904//EN"
 "http://www.w3.org/TR/2001/REC-SVG-20010904/DTD/svg10.dtd">
<svg version="1.0" xmlns="http://www.w3.org/2000/svg"
 width="128.000000pt" height="128.000000pt" viewBox="0 0 128.000000 128.000000"
 preserveAspectRatio="xMidYMid meet">
<metadata>
Created by potrace 1.16, written by Peter Selinger 2001-2019
</metadata>
<g transform="translate(0.000000,128.000000) scale(0.100000,-0.100000)"
fill="#000000" stroke="none">
<path d="M1221 1200 c-33 0 -62 -4 -65 -8 -3 -5 7 -20 22 -34 15 -14 44 -29
65 -32 37 -7 37 -7 37 34 0 40 0 40 -59 40z"/>
<path d="M546 1160 c-17 0 -43 -11 -58 -23 -15 -12 -38 -30 -52 -40 -14 -10
-26 -23 -26 -28 0 -6 29 -23 64 -39 51 -24 68 -37 82 -65 13 -28 14 -38 4 -50
-8 -9 -11 -30 -8 -53 3 -21 2 -63 -3 -93 -5 -30 -12 -94 -15 -144 -2 -49 -7
-108 -11 -130 -3 -22 -10 -46 -16 -53 -7 -9 -13 -9 -23 -1 -8 6 -14 19 -14 28
0 9 -13 32 -30 51 -16 19 -29 39 -30 45 0 5 19 28 41 51 29 30 40 48 35 59 -5
13 -14 16 -36 11 -17 -3 -47 -23 -68 -43 -21 -21 -51 -46 -66 -56 -21 -14 -24
-22 -16 -32 6 -7 7 -16 3 -18 -5 -3 -15 -2 -23 3 -8 5 -34 6 -59 3 -46 -5 -46
-5 -50 53 -2 33 -4 71 -5 87 -2 15 -3 43 -4 62 -1 22 -8 38 -17 42 -9 3 -36
-5 -60 -18 -34 -18 -46 -31 -51 -54 -3 -16 -6 -52 -6 -80 -1 -31 7 -72 22
-110 12 -33 29 -69 36 -80 8 -11 14 -34 14 -51 0 -17 8 -38 18 -47 10 -10 29
-17 43 -16 15 0 35 14 53 35 18 22 29 46 28 64 -1 25 3 28 33 32 28 3 38 -1
53 -22 10 -14 25 -43 32 -65 7 -22 29 -56 49 -76 20 -20 43 -46 51 -59 8 -13
24 -35 36 -49 12 -14 27 -43 35 -63 13 -38 13 -38 97 -38 78 0 87 2 108 26 13
14 24 29 24 35 0 5 6 9 14 9 8 0 33 15 56 32 23 18 64 54 92 81 28 26 56 47
62 47 5 0 36 18 67 40 32 22 61 40 67 40 5 0 17 9 26 19 10 11 30 23 46 26 15
3 41 22 59 41 28 33 31 42 31 105 0 38 -4 69 -9 69 -5 0 -18 23 -30 50 -12 28
-46 74 -76 105 -36 35 -66 56 -87 60 -18 3 -62 5 -98 3 -51 -2 -65 -6 -65 -19
0 -9 20 -33 45 -55 25 -22 69 -65 99 -96 35 -38 53 -66 52 -80 0 -13 -2 -34
-3 -48 -2 -16 -10 -26 -23 -28 -11 -2 -30 -13 -42 -25 -13 -11 -23 -28 -23
-38 0 -9 9 -19 21 -22 12 -3 19 -12 17 -22 -1 -9 -7 -16 -13 -17 -5 0 -14 9
-20 21 -5 11 -17 21 -27 21 -9 0 -20 -5 -23 -10 -4 -6 -23 -21 -43 -34 -21
-13 -61 -48 -90 -77 -29 -30 -71 -73 -95 -97 -23 -23 -50 -45 -60 -48 -10 -3
-24 0 -32 6 -10 9 -13 32 -11 93 2 45 10 98 18 117 10 23 13 55 10 91 -2 31 4
122 13 203 17 142 17 148 -1 167 -16 17 -16 22 -4 29 8 6 18 10 23 10 4 0 7
12 7 26 0 14 -5 34 -10 45 -8 14 -7 25 5 42 8 14 13 32 9 41 -3 9 -14 16 -23
16 -9 0 -38 16 -65 35 -31 22 -61 35 -80 35z m14 -60 c3 0 11 -4 19 -9 9 -6
10 -11 2 -15 -6 -4 -21 -4 -32 -1 -17 6 -19 9 -8 16 8 5 16 9 19 9z m-467
-459 c6 -6 8 -13 4 -17 -3 -3 -11 -3 -16 1 -6 3 -8 11 -5 17 4 6 10 6 17 -1z"/>
</g>
</svg>
