<?xml version="1.0" standalone="no"?>
<!DOCTYPE svg PUBLIC "-//W3C//DTD SVG 20010904//EN"
 "http://www.w3.org/TR/2001/REC-SVG-20010904/DTD/svg10.dtd">
<svg version="1.0" xmlns="http://www.w3.org/2000/svg"
 width="128.000000pt" height="128.000000pt" viewBox="0 0 128.000000 128.000000"
 preserveAspectRatio="xMidYMid meet">
<metadata>
Created by potrace 1.16, written by Peter Selinger 2001-2019
</metadata>
<g transform="translate(0.000000,128.000000) scale(0.100000,-0.100000)"
fill="#000000" stroke="none">
<path d="M442 1170 c-5 0 -16 -6 -27 -13 -10 -8 -15 -19 -11 -25 4 -7 21 -12
39 -12 21 0 38 -8 52 -25 13 -17 36 -28 69 -34 26 -5 58 -18 69 -29 19 -19 21
-34 22 -199 1 -126 -2 -187 -12 -210 -7 -17 -21 -34 -32 -38 -10 -3 -27 -13
-37 -23 -11 -9 -26 -31 -34 -47 -12 -23 -25 -31 -53 -36 -27 -4 -52 -20 -85
-52 -26 -25 -65 -57 -86 -71 -21 -14 -47 -26 -57 -26 -10 0 -25 -13 -34 -29
-8 -16 -27 -39 -41 -50 -15 -12 -31 -21 -35 -21 -5 0 -12 12 -15 28 -4 15 -17
48 -30 74 -13 26 -28 49 -33 52 -5 3 -14 -1 -21 -9 -9 -11 -9 -22 -1 -48 9
-26 9 -41 0 -60 -8 -18 -8 -37 1 -73 6 -27 15 -66 19 -86 5 -21 14 -44 21 -53
7 -8 26 -15 43 -15 25 0 42 12 90 63 32 34 72 79 87 100 16 22 47 58 68 81 22
24 47 46 55 49 9 3 28 24 42 46 14 22 25 45 25 51 0 6 15 17 34 25 18 8 36 21
39 29 3 8 18 23 32 32 23 15 28 15 36 3 4 -8 7 -76 4 -153 -2 -80 -8 -143 -14
-149 -8 -8 -21 -8 -44 1 -18 7 -45 12 -58 12 -14 0 -30 -5 -36 -11 -9 -9 -7
-24 8 -62 11 -27 31 -69 45 -93 26 -44 26 -44 110 -44 84 0 84 0 84 35 0 20
10 55 22 78 19 37 22 57 22 172 -1 72 -4 158 -9 193 -5 42 -4 71 5 91 8 21 9
35 1 49 -6 11 -8 27 -6 35 3 7 20 20 37 29 27 12 37 13 71 1 27 -9 67 -41 119
-94 43 -44 85 -93 93 -108 8 -16 21 -31 30 -34 8 -4 15 -14 15 -24 0 -10 5
-35 11 -55 9 -35 13 -38 48 -38 27 0 44 7 61 25 13 14 19 25 13 25 -6 0 -15
12 -21 28 -6 15 -18 55 -26 90 -14 54 -23 70 -72 117 -31 30 -61 55 -66 55 -6
0 -36 12 -67 26 -47 23 -64 26 -117 21 -44 -4 -65 -2 -73 6 -5 7 -9 28 -9 47
1 19 -1 70 -5 112 -3 42 -12 87 -19 100 -7 13 -21 32 -31 44 -9 11 -45 33 -80
49 -34 15 -71 32 -83 37 -11 5 -42 8 -70 6 -36 -2 -53 1 -66 15 -10 9 -22 17
-26 17z"/>
</g>
</svg>
