<?xml version="1.0" standalone="no"?>
<!DOCTYPE svg PUBLIC "-//W3C//DTD SVG 20010904//EN"
 "http://www.w3.org/TR/2001/REC-SVG-20010904/DTD/svg10.dtd">
<svg version="1.0" xmlns="http://www.w3.org/2000/svg"
 width="128.000000pt" height="128.000000pt" viewBox="0 0 128.000000 128.000000"
 preserveAspectRatio="xMidYMid meet">
<metadata>
Created by potrace 1.16, written by Peter Selinger 2001-2019
</metadata>
<g transform="translate(0.000000,128.000000) scale(0.100000,-0.100000)"
fill="#000000" stroke="none">
<path d="M418 1020 c-8 0 -19 -5 -26 -12 -7 -7 -12 -22 -12 -34 0 -12 6 -26
13 -32 7 -6 25 -37 39 -69 15 -32 35 -83 47 -113 16 -44 19 -74 17 -155 -2
-55 -8 -124 -13 -153 -5 -29 -15 -58 -21 -64 -7 -7 -12 -29 -12 -49 0 -21 -5
-41 -11 -44 -7 -5 -4 -14 7 -26 9 -10 22 -19 28 -18 6 0 35 17 65 37 30 20 63
48 73 62 10 14 20 39 21 55 2 17 11 42 19 55 9 14 19 39 23 55 5 17 7 42 6 57
-1 15 3 36 9 47 8 16 6 37 -11 93 -12 40 -37 101 -57 136 -19 35 -44 67 -56
72 -12 4 -28 16 -36 25 -8 9 -33 30 -56 46 -24 16 -49 29 -56 29z"/>
<path d="M1008 738 c-29 1 -49 -4 -60 -14 -15 -15 -14 -19 3 -49 11 -18 26
-36 34 -39 9 -3 15 -19 15 -39 0 -28 8 -41 41 -68 22 -19 53 -53 70 -77 16
-24 29 -51 29 -61 0 -11 12 -24 30 -31 28 -12 33 -10 55 10 14 13 25 31 25 41
0 10 7 24 15 33 8 8 15 20 15 26 0 6 -7 18 -15 26 -8 9 -15 23 -15 32 0 9 -21
40 -48 67 -26 28 -70 71 -99 96 -43 38 -59 46 -95 47z"/>
<path d="M413 619 c-10 0 -45 -18 -78 -40 -33 -21 -75 -45 -94 -54 -18 -8 -53
-15 -78 -15 -24 0 -55 7 -69 17 -23 15 -26 15 -42 0 -9 -9 -21 -31 -27 -49
-10 -30 -8 -35 18 -60 16 -16 49 -37 74 -48 25 -11 54 -20 63 -20 10 0 32 8
49 18 17 9 36 30 42 45 7 16 33 50 58 76 25 26 61 59 80 73 23 17 32 31 28 42
-4 9 -14 16 -24 15z"/>
</g>
</svg>
