<?xml version="1.0" standalone="no"?>
<!DOCTYPE svg PUBLIC "-//W3C//DTD SVG 20010904//EN"
 "http://www.w3.org/TR/2001/REC-SVG-20010904/DTD/svg10.dtd">
<svg version="1.0" xmlns="http://www.w3.org/2000/svg"
 width="128.000000pt" height="128.000000pt" viewBox="0 0 128.000000 128.000000"
 preserveAspectRatio="xMidYMid meet">
<metadata>
Created by potrace 1.16, written by Peter Selinger 2001-2019
</metadata>
<g transform="translate(0.000000,128.000000) scale(0.100000,-0.100000)"
fill="#000000" stroke="none">
<path d="M1027 1115 c-54 0 -102 -4 -107 -9 -6 -6 -10 -27 -10 -48 0 -24 7
-45 20 -58 16 -16 28 -18 72 -13 29 3 63 13 76 21 12 8 22 20 22 27 0 7 7 16
16 19 10 4 14 15 12 33 -3 28 -3 28 -101 28z"/>
<path d="M390 1100 c-9 0 -19 -3 -23 -6 -3 -3 6 -28 19 -55 14 -26 35 -55 47
-64 21 -15 22 -20 21 -193 -1 -97 -5 -215 -10 -262 -9 -85 -9 -85 -42 -88 -21
-2 -41 4 -58 17 -15 12 -33 21 -40 21 -8 0 -14 -7 -14 -15 0 -8 15 -35 34 -59
19 -25 51 -77 72 -116 26 -47 50 -77 72 -90 18 -11 40 -20 48 -20 8 0 25 7 38
15 14 9 29 34 36 61 10 36 11 59 1 115 -7 38 -12 124 -11 191 1 68 1 161 1
208 -1 47 -7 103 -14 125 -6 22 -21 53 -32 69 -11 16 -44 55 -74 87 -30 33
-62 59 -71 59z"/>
<path d="M116 850 c-8 0 -18 -5 -22 -11 -3 -6 -2 -15 4 -21 6 -6 15 -7 21 -4
6 4 11 14 11 22 0 8 -6 14 -14 14z"/>
<path d="M1083 840 c-7 0 -13 -9 -13 -19 0 -11 4 -23 10 -26 5 -3 25 -38 43
-78 19 -40 38 -83 41 -97 4 -14 14 -42 23 -62 8 -20 22 -39 30 -42 8 -3 25 2
38 12 21 14 24 26 25 74 0 31 -4 58 -8 60 -5 2 -15 16 -23 33 -8 16 -45 55
-83 87 -38 32 -75 58 -83 58z"/>
<path d="M60 740 c-4 0 -12 -6 -17 -12 -6 -7 -16 -35 -23 -61 -8 -32 -11 -72
-6 -120 4 -42 17 -93 31 -124 16 -36 30 -53 43 -53 10 0 30 12 44 28 14 15 28
43 32 62 4 19 22 59 41 87 19 29 35 57 35 63 0 5 -6 10 -13 10 -7 0 -23 -10
-34 -22 -11 -13 -30 -31 -42 -40 -12 -10 -27 -18 -34 -18 -7 0 -21 25 -31 55
-9 29 -17 74 -18 100 0 25 -4 45 -8 45z"/>
<path d="M840 380 c-5 0 -11 -4 -15 -9 -3 -5 -1 -12 5 -16 5 -3 15 -3 20 0 6
4 8 11 5 16 -4 5 -10 9 -15 9z"/>
</g>
</svg>
