<?xml version="1.0" standalone="no"?>
<!DOCTYPE svg PUBLIC "-//W3C//DTD SVG 20010904//EN"
 "http://www.w3.org/TR/2001/REC-SVG-20010904/DTD/svg10.dtd">
<svg version="1.0" xmlns="http://www.w3.org/2000/svg"
 width="128.000000pt" height="128.000000pt" viewBox="0 0 128.000000 128.000000"
 preserveAspectRatio="xMidYMid meet">
<metadata>
Created by potrace 1.16, written by Peter Selinger 2001-2019
</metadata>
<g transform="translate(0.000000,128.000000) scale(0.100000,-0.100000)"
fill="#000000" stroke="none">
<path d="M568 1220 c-29 -1 -65 -8 -80 -16 -16 -8 -28 -21 -28 -29 0 -7 5 -17
12 -21 6 -4 28 -7 48 -6 24 1 42 -4 51 -16 8 -9 20 -33 27 -53 8 -24 12 -95
11 -210 -1 -96 -1 -271 0 -389 2 -215 2 -215 -24 -237 -14 -13 -33 -23 -41
-23 -8 0 -27 6 -42 14 -15 8 -50 17 -77 21 -28 4 -75 18 -105 32 -30 14 -58
31 -63 37 -4 6 -5 22 -2 35 3 13 20 41 37 62 17 21 49 51 72 66 22 15 60 43
84 61 23 19 42 41 42 49 0 7 -7 16 -14 19 -8 3 -34 -7 -58 -23 -24 -16 -54
-35 -68 -41 -14 -7 -39 -21 -56 -30 -17 -9 -51 -39 -76 -65 -33 -35 -52 -48
-69 -45 -12 2 -25 10 -30 18 -4 8 -14 39 -23 69 -9 29 -16 64 -16 76 0 13 -7
26 -16 29 -9 4 -19 5 -21 2 -2 -2 -6 -66 -9 -142 -5 -131 -4 -142 21 -210 15
-40 34 -75 43 -79 11 -4 26 4 44 27 16 18 31 46 35 61 3 16 12 31 19 34 7 2
23 -1 36 -8 13 -6 30 -18 38 -25 8 -8 29 -25 45 -38 17 -13 47 -31 68 -40 21
-8 72 -43 112 -76 49 -39 84 -60 101 -60 15 0 42 9 60 21 19 11 40 31 46 42 8
15 13 118 14 332 2 171 5 333 8 360 2 28 5 88 5 134 0 46 -2 87 -4 92 -3 4 -1
18 4 31 7 18 5 34 -6 56 -8 17 -35 47 -58 67 -38 30 -50 35 -97 35z"/>
<path d="M936 646 c-33 5 -46 3 -46 -5 0 -7 5 -21 10 -32 6 -10 16 -19 24 -19
7 0 39 -13 71 -30 32 -16 66 -30 75 -30 9 0 26 -10 38 -23 12 -13 22 -27 22
-31 0 -4 8 -20 19 -34 10 -15 26 -48 36 -74 10 -26 23 -52 30 -58 9 -7 21 -7
39 1 24 11 26 17 26 69 0 54 -2 58 -28 69 -16 7 -39 30 -51 51 -12 21 -52 62
-89 89 -47 36 -76 51 -98 51 -17 0 -52 3 -78 6z"/>
</g>
</svg>
