<?xml version="1.0" standalone="no"?>
<!DOCTYPE svg PUBLIC "-//W3C//DTD SVG 20010904//EN"
 "http://www.w3.org/TR/2001/REC-SVG-20010904/DTD/svg10.dtd">
<svg version="1.0" xmlns="http://www.w3.org/2000/svg"
 width="128.000000pt" height="128.000000pt" viewBox="0 0 128.000000 128.000000"
 preserveAspectRatio="xMidYMid meet">
<metadata>
Created by potrace 1.16, written by Peter Selinger 2001-2019
</metadata>
<g transform="translate(0.000000,128.000000) scale(0.100000,-0.100000)"
fill="#000000" stroke="none">
<path d="M291 1280 c-40 0 -61 -4 -61 -12 0 -6 -12 -40 -26 -76 -15 -39 -23
-74 -20 -88 4 -13 19 -35 34 -49 15 -14 34 -25 44 -25 11 0 22 19 36 63 11 34
25 83 31 108 6 26 13 54 17 63 5 14 -3 16 -55 16z"/>
<path d="M765 1260 c-12 0 -26 -5 -33 -12 -7 -7 -12 -20 -12 -30 0 -9 10 -23
23 -29 12 -7 25 -17 29 -22 4 -6 0 -26 -8 -45 -8 -19 -30 -52 -49 -73 -19 -22
-35 -44 -35 -50 0 -6 5 -19 10 -30 6 -10 19 -19 29 -19 10 0 32 -7 49 -16 18
-8 32 -23 32 -32 0 -9 -9 -32 -20 -49 -11 -18 -23 -33 -28 -33 -5 0 -36 -24
-70 -53 -33 -29 -73 -59 -87 -67 -15 -8 -29 -10 -34 -4 -5 5 -4 31 2 61 6 29
8 55 4 59 -4 4 -13 1 -22 -6 -8 -7 -15 -20 -15 -29 0 -10 -9 -35 -19 -57 -11
-22 -26 -67 -35 -100 -9 -34 -23 -77 -31 -98 -8 -20 -18 -36 -21 -36 -2 0 -22
9 -44 20 -39 20 -39 20 -59 -6 -12 -15 -21 -35 -21 -44 0 -10 25 -48 55 -85
30 -36 55 -73 55 -80 0 -8 -5 -24 -11 -37 -5 -13 -25 -33 -43 -46 -18 -12 -39
-22 -48 -22 -8 0 -27 -9 -42 -21 -17 -13 -37 -19 -58 -17 -28 3 -33 7 -32 28
1 14 7 50 13 80 7 30 16 73 20 95 5 22 13 52 19 67 6 16 9 41 6 57 -4 17 1 43
11 65 10 21 31 44 49 52 17 9 48 34 69 57 30 33 37 48 37 82 0 24 -6 47 -12
52 -7 6 -38 18 -68 29 -30 10 -62 24 -71 31 -8 7 -25 13 -37 13 -18 0 -22 -6
-22 -30 0 -24 8 -35 41 -57 22 -14 53 -26 70 -26 16 0 29 -3 29 -7 0 -3 -16
-23 -35 -43 -19 -20 -35 -42 -35 -47 0 -5 -17 -28 -37 -51 -24 -26 -46 -67
-61 -113 -13 -39 -31 -105 -39 -146 -8 -41 -18 -100 -23 -132 -4 -31 -10 -61
-14 -66 -3 -6 -2 -22 3 -36 6 -14 24 -32 40 -41 17 -8 51 -15 76 -15 31 0 47
5 51 15 4 8 14 15 24 15 10 0 32 11 48 25 17 14 34 25 39 25 5 0 37 27 72 60
64 60 64 60 55 118 -4 31 -8 77 -7 102 0 25 8 74 18 110 9 36 19 75 22 88 3
12 10 25 15 28 5 3 17 -1 27 -10 10 -9 26 -34 36 -56 11 -25 25 -40 36 -40 10
0 32 21 51 48 18 26 41 61 50 77 10 17 27 50 38 75 13 27 36 54 58 69 20 13
60 31 87 41 28 9 56 15 63 13 6 -3 12 -11 12 -19 0 -8 -25 -48 -55 -89 -30
-41 -61 -78 -68 -82 -7 -4 -28 -28 -47 -53 -19 -25 -42 -51 -52 -58 -9 -7 -40
-47 -68 -90 -29 -42 -61 -99 -71 -125 -13 -32 -19 -72 -19 -120 1 -43 6 -82
15 -97 8 -14 14 -35 15 -48 0 -13 11 -34 25 -47 14 -15 36 -25 53 -25 29 0 29
0 36 88 3 48 12 103 19 122 7 19 26 58 42 85 15 28 52 69 81 93 31 25 63 42
78 42 19 0 26 -5 26 -19 0 -11 -10 -32 -23 -48 -13 -15 -37 -50 -55 -77 -18
-27 -32 -54 -32 -59 0 -5 13 -21 28 -35 16 -15 58 -38 93 -50 35 -13 88 -30
117 -38 29 -8 55 -14 57 -14 3 0 5 16 5 35 0 20 -7 49 -15 65 -9 17 -23 30
-31 30 -9 0 -38 10 -65 22 -27 13 -49 27 -49 33 0 6 18 32 40 59 26 31 40 58
40 77 0 17 -12 42 -31 64 -17 19 -37 35 -45 35 -8 0 -42 -9 -76 -21 -34 -11
-78 -29 -99 -40 -21 -10 -40 -23 -44 -29 -3 -5 -13 -10 -21 -10 -8 0 -14 7
-14 15 0 8 12 34 28 58 15 23 45 65 67 92 22 27 60 67 83 89 24 22 57 50 74
63 17 12 41 38 54 57 14 20 24 50 24 70 0 19 -6 41 -14 49 -9 9 -37 14 -77 15
-43 1 -75 -5 -102 -19 -23 -10 -44 -19 -49 -19 -4 0 -8 18 -8 40 0 23 -7 54
-15 70 -9 17 -20 30 -25 30 -6 0 -10 8 -10 18 0 10 11 29 25 42 14 13 29 40
35 59 5 20 10 39 10 43 0 4 -24 23 -52 43 -29 19 -62 35 -73 35z"/>
</g>
</svg>
