<?xml version="1.0" standalone="no"?>
<!DOCTYPE svg PUBLIC "-//W3C//DTD SVG 20010904//EN"
 "http://www.w3.org/TR/2001/REC-SVG-20010904/DTD/svg10.dtd">
<svg version="1.0" xmlns="http://www.w3.org/2000/svg"
 width="128.000000pt" height="128.000000pt" viewBox="0 0 128.000000 128.000000"
 preserveAspectRatio="xMidYMid meet">
<metadata>
Created by potrace 1.16, written by Peter Selinger 2001-2019
</metadata>
<g transform="translate(0.000000,128.000000) scale(0.100000,-0.100000)"
fill="#000000" stroke="none">
<path d="M355 1250 c-8 0 -24 -9 -35 -20 -16 -16 -20 -33 -20 -79 0 -33 5 -63
10 -66 6 -3 10 -14 10 -24 0 -10 -15 -34 -32 -53 -18 -20 -49 -53 -69 -74 -20
-22 -55 -55 -77 -74 -24 -21 -47 -53 -57 -80 -9 -25 -20 -53 -26 -62 -5 -10
-9 -26 -9 -36 0 -11 8 -26 18 -34 9 -9 38 -19 64 -22 26 -4 49 -13 52 -21 3
-8 1 -65 -5 -126 -5 -62 -12 -124 -15 -138 -3 -14 -15 -48 -26 -76 -16 -38
-19 -62 -15 -104 3 -30 14 -66 25 -80 10 -14 23 -26 29 -28 6 -2 25 11 43 29
17 18 38 45 46 60 8 15 13 31 12 35 -1 4 2 26 6 48 4 22 21 81 37 132 16 50
29 97 29 104 0 7 12 28 27 48 16 20 27 40 25 44 -1 4 18 49 44 100 25 51 66
130 91 177 25 47 53 91 61 98 9 6 24 12 34 12 10 0 18 -4 18 -10 0 -5 -6 -10
-14 -10 -8 0 -17 -7 -20 -16 -3 -9 -6 -18 -6 -20 0 -2 11 -4 23 -4 13 0 32 9
42 20 14 16 29 20 59 18 38 -3 41 -5 44 -35 3 -27 -3 -39 -34 -67 -21 -19 -44
-32 -53 -29 -10 2 -23 -3 -30 -11 -8 -9 -18 -16 -23 -16 -6 0 -23 -9 -39 -21
-16 -11 -34 -29 -39 -40 -9 -16 -7 -19 9 -19 11 0 36 16 55 35 22 21 46 35 61
35 14 0 25 -6 25 -14 0 -7 -16 -33 -35 -57 -18 -24 -42 -47 -52 -50 -10 -4
-23 -8 -29 -8 -7 -1 -14 8 -17 19 -3 12 -14 20 -26 20 -11 0 -24 -8 -30 -17
-5 -10 -21 -53 -36 -97 -18 -53 -24 -81 -17 -88 6 -6 22 -8 36 -4 14 3 52 32
83 64 32 32 75 70 95 85 28 21 36 33 35 55 -2 21 3 28 21 30 13 2 25 -3 28
-13 5 -11 -6 -29 -34 -55 -31 -30 -46 -57 -66 -119 -14 -44 -26 -99 -26 -123
0 -28 11 -66 30 -105 27 -55 35 -63 65 -69 22 -4 41 -2 50 6 10 8 15 29 14 59
0 25 0 55 1 65 0 11 10 41 21 66 13 30 30 52 49 61 15 8 61 31 101 52 40 20
76 37 81 37 4 0 8 -8 7 -17 0 -10 -27 -40 -60 -67 -32 -27 -59 -54 -59 -61 0
-6 11 -26 25 -45 14 -19 46 -51 71 -72 25 -21 56 -38 69 -38 12 0 29 8 37 18
8 9 18 28 21 42 5 20 -2 32 -38 66 -25 23 -45 49 -45 58 0 9 16 22 36 31 20 8
44 15 53 15 9 1 32 14 51 30 19 17 40 30 47 30 8 0 13 11 12 28 0 20 -12 35
-47 61 -32 24 -57 34 -80 34 -18 -1 -43 -8 -57 -17 -13 -9 -29 -16 -35 -16 -6
0 -37 -12 -68 -26 -31 -15 -66 -35 -77 -44 -11 -10 -37 -27 -58 -38 -20 -11
-46 -30 -56 -43 -10 -13 -26 -39 -35 -57 -9 -17 -21 -32 -26 -32 -4 0 -15 12
-22 28 -11 21 -11 38 -3 77 5 28 18 62 29 78 10 15 27 27 37 27 10 0 33 13 51
28 18 15 65 47 103 70 39 22 87 48 107 57 21 8 49 15 62 15 14 0 42 8 63 17
21 9 48 26 61 37 12 11 22 26 22 33 0 8 7 16 15 19 8 4 15 15 15 25 0 10 -8
27 -18 37 -10 9 -33 27 -50 40 -29 20 -36 21 -99 12 -37 -5 -90 -16 -118 -25
-27 -8 -62 -15 -77 -15 -18 0 -29 7 -33 20 -3 11 -18 29 -32 40 -14 11 -38 20
-52 20 -15 0 -32 5 -39 12 -7 7 -12 24 -12 39 0 15 5 40 11 56 9 25 7 31 -16
50 -14 13 -30 23 -35 23 -5 0 -22 -11 -38 -25 -17 -14 -34 -40 -37 -58 -4 -17
-15 -41 -25 -52 -9 -11 -35 -47 -56 -80 -21 -33 -45 -69 -51 -80 -7 -11 -26
-47 -42 -80 -15 -33 -34 -78 -42 -100 -7 -22 -19 -47 -26 -56 -8 -9 -23 -41
-34 -70 -12 -30 -24 -66 -27 -81 -4 -14 -20 -41 -37 -60 -30 -33 -30 -33 -35
88 -3 85 -9 126 -19 138 -8 10 -34 27 -58 38 -24 11 -46 24 -48 29 -3 4 11 24
31 43 21 20 41 36 46 36 4 0 31 16 58 35 27 19 55 35 62 35 7 0 25 15 40 34
15 18 29 48 33 67 5 25 -1 49 -19 92 -14 32 -26 66 -26 75 0 10 5 23 11 29 7
7 9 19 6 27 -4 9 -13 16 -22 16z m733 -341 c1 0 2 -7 2 -16 0 -12 -30 -36 -88
-69 -48 -29 -98 -55 -111 -59 -15 -5 -26 -3 -31 5 -4 7 -3 27 2 44 6 17 15 37
21 43 5 7 27 18 48 23 21 6 65 14 96 19 32 5 59 9 61 10z"/>
<path d="M1057 180 c-7 0 -21 -6 -32 -12 -11 -6 -35 -27 -52 -45 -22 -23 -33
-44 -33 -63 0 -20 6 -31 20 -35 11 -3 24 -3 30 0 5 3 10 19 10 35 0 16 7 36
16 44 8 9 19 16 24 16 5 0 20 -4 34 -10 20 -7 26 -17 26 -39 0 -15 7 -34 15
-41 8 -7 21 -10 28 -7 7 2 18 16 26 29 11 23 10 29 -10 61 -13 20 -39 43 -57
51 -18 9 -38 16 -45 16z"/>
</g>
</svg>
