<?xml version="1.0" standalone="no"?>
<!DOCTYPE svg PUBLIC "-//W3C//DTD SVG 20010904//EN"
 "http://www.w3.org/TR/2001/REC-SVG-20010904/DTD/svg10.dtd">
<svg version="1.0" xmlns="http://www.w3.org/2000/svg"
 width="128.000000pt" height="128.000000pt" viewBox="0 0 128.000000 128.000000"
 preserveAspectRatio="xMidYMid meet">
<metadata>
Created by potrace 1.16, written by Peter Selinger 2001-2019
</metadata>
<g transform="translate(0.000000,128.000000) scale(0.100000,-0.100000)"
fill="#000000" stroke="none">
<path d="M667 1240 c-12 0 -30 -7 -39 -14 -10 -7 -18 -20 -18 -29 0 -9 9 -22
20 -30 12 -8 23 -30 26 -49 4 -22 1 -38 -8 -44 -7 -6 -33 -16 -58 -22 -42 -11
-46 -10 -68 13 -13 14 -27 25 -33 25 -5 0 -14 -10 -18 -22 -7 -18 -4 -28 16
-45 13 -12 44 -30 69 -40 27 -11 44 -24 44 -34 0 -9 -27 -36 -60 -60 -47 -35
-60 -50 -60 -71 0 -14 3 -33 6 -42 3 -9 14 -16 24 -16 11 0 34 9 52 19 18 10
48 22 66 26 26 5 32 3 32 -10 0 -9 -13 -29 -29 -43 -15 -15 -47 -44 -69 -64
-22 -21 -45 -38 -50 -38 -4 0 -18 -9 -30 -20 -12 -12 -22 -27 -22 -35 0 -9 9
-15 22 -15 13 0 47 12 76 27 49 25 54 25 69 10 15 -15 14 -17 -11 -27 -15 -5
-31 -10 -35 -10 -5 0 -45 -36 -90 -79 -48 -48 -81 -88 -81 -100 0 -11 -5 -23
-11 -26 -6 -5 -8 -23 -4 -49 4 -22 12 -49 17 -59 5 -10 24 -27 41 -37 18 -11
43 -20 57 -20 14 0 36 7 49 16 19 14 22 23 18 50 -4 26 -1 35 15 46 13 9 18
19 14 26 -4 7 -16 12 -27 12 -11 0 -34 -13 -51 -30 -16 -17 -33 -30 -37 -30
-5 0 -11 16 -14 36 -4 22 -1 50 8 70 8 19 36 56 64 84 28 27 57 50 66 50 8 0
15 4 15 8 0 4 17 14 38 22 20 8 59 17 87 20 35 3 51 10 53 21 2 11 -15 25 -52
44 -30 15 -59 24 -64 21 -6 -3 -13 -2 -16 3 -4 5 -2 12 4 16 5 3 10 17 10 30
0 15 10 31 26 42 14 10 37 28 52 40 27 21 27 21 2 47 -13 15 -44 32 -69 40
-25 7 -46 17 -48 23 -2 5 7 25 20 44 12 18 34 39 47 46 14 7 25 20 25 30 0 10
5 18 10 18 6 0 27 -6 48 -14 30 -10 41 -10 52 -1 8 7 15 19 15 27 0 8 -11 25
-25 38 -13 14 -30 25 -37 25 -8 0 -19 -14 -25 -31 -7 -18 -17 -29 -25 -27 -9
4 -12 23 -10 69 3 63 3 64 -28 82 -17 9 -41 17 -53 17z"/>
<path d="M767 510 c-7 0 -28 -11 -47 -25 -19 -14 -39 -25 -45 -25 -6 0 -28
-18 -50 -40 -32 -33 -36 -40 -22 -46 10 -4 28 4 48 20 23 19 42 26 74 26 34 0
47 -5 59 -22 9 -12 16 -35 16 -51 0 -15 -7 -42 -16 -60 -9 -18 -39 -53 -67
-80 -29 -26 -57 -47 -63 -47 -6 0 -21 -11 -34 -25 -13 -14 -29 -25 -36 -25 -7
0 -33 -16 -58 -35 -26 -19 -50 -35 -54 -35 -4 0 -18 -9 -32 -20 -25 -20 -25
-20 15 -20 27 0 53 9 80 26 22 15 49 35 61 46 11 10 36 27 55 36 19 10 45 24
59 32 14 8 46 32 71 52 25 21 57 42 71 47 22 8 27 17 30 58 3 37 -2 62 -23
111 -16 34 -34 62 -41 62 -7 0 -19 9 -26 20 -7 11 -18 20 -25 20z"/>
</g>
</svg>
