<?xml version="1.0" standalone="no"?>
<!DOCTYPE svg PUBLIC "-//W3C//DTD SVG 20010904//EN"
 "http://www.w3.org/TR/2001/REC-SVG-20010904/DTD/svg10.dtd">
<svg version="1.0" xmlns="http://www.w3.org/2000/svg"
 width="128.000000pt" height="128.000000pt" viewBox="0 0 128.000000 128.000000"
 preserveAspectRatio="xMidYMid meet">
<metadata>
Created by potrace 1.16, written by Peter Selinger 2001-2019
</metadata>
<g transform="translate(0.000000,128.000000) scale(0.100000,-0.100000)"
fill="#000000" stroke="none">
<path d="M740 1259 c-3 0 -29 -12 -57 -25 -35 -17 -53 -31 -53 -43 0 -10 11
-23 25 -29 14 -6 25 -20 25 -30 0 -10 4 -22 9 -27 5 -6 19 -39 31 -75 12 -36
26 -69 31 -75 5 -5 9 -17 9 -27 0 -11 9 -31 20 -46 11 -16 18 -40 17 -58 -2
-26 -18 -46 -92 -113 -49 -44 -95 -81 -101 -81 -6 0 -19 -9 -28 -19 -10 -11
-15 -25 -11 -31 4 -6 18 -16 32 -21 18 -7 34 -5 56 6 16 8 41 15 54 15 12 0
23 -4 23 -9 0 -5 -11 -23 -25 -39 -20 -23 -25 -41 -25 -81 0 -39 4 -53 16 -58
12 -4 26 5 45 28 16 19 29 42 29 51 0 9 5 20 10 23 6 3 10 18 10 33 0 15 9 38
20 52 11 14 20 33 20 43 0 13 6 17 23 15 17 -2 23 -11 25 -38 2 -19 8 -39 13
-44 5 -6 9 -29 9 -53 0 -35 -6 -50 -34 -81 -19 -20 -47 -52 -62 -70 -14 -18
-40 -40 -58 -49 -17 -9 -45 -33 -63 -53 -18 -20 -61 -56 -96 -80 -36 -23 -70
-54 -76 -67 -7 -14 -9 -28 -6 -31 3 -3 29 5 57 19 29 13 85 45 124 71 40 25
106 80 148 122 42 42 82 76 90 76 8 0 24 -30 39 -78 14 -42 31 -106 37 -142 6
-35 18 -77 26 -92 12 -23 18 -27 33 -19 10 6 23 23 29 38 6 15 13 45 17 66 5
30 1 49 -19 88 -14 27 -26 57 -26 68 0 10 -7 24 -15 31 -8 7 -15 19 -15 27 0
8 -10 28 -21 45 -18 24 -21 39 -16 79 6 48 6 49 -21 49 -20 0 -23 3 -13 9 8 5
20 7 26 5 7 -3 26 8 43 23 26 22 32 35 32 69 0 24 -6 47 -14 54 -8 6 -25 10
-37 8 -16 -2 -26 -15 -37 -50 -8 -27 -19 -48 -24 -48 -5 0 -11 14 -15 30 -3
17 -10 33 -14 36 -5 3 -9 14 -9 24 0 10 15 29 33 41 17 13 38 31 45 41 7 10
18 18 25 18 6 0 24 12 39 27 15 15 28 35 28 45 0 9 -9 22 -21 28 -11 7 -31 9
-44 6 -13 -3 -26 -2 -30 4 -3 5 7 34 23 64 21 39 27 57 19 65 -6 6 -17 11 -25
11 -8 0 -27 11 -44 25 -16 14 -35 25 -42 25 -7 0 -21 -9 -32 -21 -15 -16 -16
-23 -6 -37 7 -9 15 -23 19 -31 3 -7 -1 -32 -9 -55 -10 -28 -21 -41 -34 -41
-14 0 -20 8 -22 35 -2 19 -8 39 -13 45 -5 5 -9 32 -9 61 0 28 -9 86 -19 129
-11 43 -26 82 -33 86 -7 5 -15 8 -18 8z m203 -390 c4 1 10 -6 14 -15 4 -10 -6
-27 -26 -47 -28 -29 -32 -30 -47 -15 -13 13 -14 20 -4 37 6 12 21 26 33 31 12
5 26 9 30 9z"/>
<path d="M395 1140 c-6 0 -19 -6 -29 -13 -15 -11 -17 -22 -13 -58 4 -24 11
-71 17 -104 6 -33 12 -71 13 -84 2 -19 -4 -26 -27 -32 -15 -4 -36 -15 -45 -23
-9 -8 -38 -20 -65 -26 -27 -6 -57 -15 -67 -21 -11 -5 -19 -16 -19 -23 0 -8 7
-19 15 -26 8 -7 26 -13 39 -12 14 0 38 9 55 21 19 14 42 21 58 19 23 -2 28 -7
25 -27 -1 -13 -11 -30 -21 -38 -11 -7 -38 -41 -61 -75 -22 -34 -50 -68 -61
-75 -11 -9 -19 -26 -19 -44 0 -16 6 -32 14 -35 8 -3 38 11 68 32 29 21 63 47
75 57 13 11 26 17 30 13 4 -3 1 -37 -7 -74 -7 -37 -13 -110 -13 -164 0 -53 3
-108 7 -122 3 -14 13 -26 21 -26 8 0 22 11 31 25 9 14 23 60 30 102 8 43 15
112 16 153 0 41 4 85 9 97 5 13 6 29 3 37 -3 8 -14 16 -25 18 -11 2 -20 8 -21
13 0 6 9 14 20 20 12 5 26 21 31 35 5 14 13 39 16 56 4 20 0 46 -9 69 -9 20
-13 41 -10 46 3 5 21 9 39 9 24 0 38 6 45 20 8 14 8 26 0 40 -6 11 -13 20 -16
20 -3 0 -19 -8 -34 -17 -25 -14 -31 -15 -46 -3 -14 12 -15 26 -10 89 7 71 6
75 -20 102 -15 16 -33 29 -39 29z m11 -410 c8 0 14 -6 14 -14 0 -8 -5 -18 -11
-22 -6 -3 -15 -2 -21 4 -6 6 -7 15 -4 21 4 6 14 11 22 11z"/>
<path d="M714 915 c-20 4 -36 -1 -51 -14 -13 -11 -23 -24 -23 -29 0 -5 7 -13
16 -16 9 -3 26 -6 40 -6 14 0 30 10 40 25 9 14 15 28 12 30 -2 3 -18 7 -34 10z"/>
</g>
</svg>
