<?xml version="1.0" standalone="no"?>
<!DOCTYPE svg PUBLIC "-//W3C//DTD SVG 20010904//EN"
 "http://www.w3.org/TR/2001/REC-SVG-20010904/DTD/svg10.dtd">
<svg version="1.0" xmlns="http://www.w3.org/2000/svg"
 width="56.000000pt" height="56.000000pt" viewBox="0 0 56.000000 56.000000"
 preserveAspectRatio="xMidYMid meet">
<metadata>
Created by potrace 1.16, written by Peter Selinger 2001-2019
</metadata>
<g transform="translate(0.000000,56.000000) scale(0.100000,-0.100000)"
fill="#000000" stroke="none">
<path d="M66 560 c-26 0 -36 -4 -36 -16 0 -11 8 -14 32 -12 17 2 33 9 36 16 2
8 -8 12 -32 12z"/>
<path d="M303 560 c-11 0 -13 -7 -8 -29 5 -22 2 -32 -11 -39 -15 -8 -16 -20
-10 -88 3 -44 9 -103 12 -131 6 -44 4 -54 -11 -59 -10 -4 -30 0 -45 10 -17 9
-50 16 -83 16 -50 0 -58 -3 -86 -35 -17 -20 -31 -37 -31 -40 0 -2 9 -23 19
-48 11 -24 33 -54 49 -66 17 -11 35 -21 41 -21 6 0 11 5 11 12 0 7 -11 24 -25
38 -19 20 -26 39 -28 71 -2 44 -2 44 48 41 28 -2 69 -10 93 -19 24 -9 47 -24
53 -34 7 -14 2 -26 -21 -53 -18 -20 -45 -38 -66 -43 -20 -4 -37 -12 -37 -18
-1 -5 19 -14 45 -19 43 -8 50 -7 82 18 20 15 39 39 42 54 4 15 9 31 11 35 3 4
17 0 31 -9 15 -10 36 -29 47 -43 11 -14 28 -34 38 -44 14 -14 22 -15 37 -7 11
6 20 16 20 22 0 6 -19 29 -43 52 -24 22 -62 56 -84 73 -38 30 -42 38 -48 90
-4 32 -13 85 -21 118 -8 35 -10 63 -4 69 5 5 26 -10 51 -38 23 -25 51 -46 61
-46 10 0 21 7 24 15 4 8 -1 31 -10 50 -9 18 -28 43 -42 54 -14 11 -34 23 -44
26 -10 3 -23 19 -30 35 -7 17 -19 30 -27 30z"/>
</g>
</svg>
