<?xml version="1.0" standalone="no"?>
<!DOCTYPE svg PUBLIC "-//W3C//DTD SVG 20010904//EN"
 "http://www.w3.org/TR/2001/REC-SVG-20010904/DTD/svg10.dtd">
<svg version="1.0" xmlns="http://www.w3.org/2000/svg"
 width="56.000000pt" height="56.000000pt" viewBox="0 0 56.000000 56.000000"
 preserveAspectRatio="xMidYMid meet">
<metadata>
Created by potrace 1.16, written by Peter Selinger 2001-2019
</metadata>
<g transform="translate(0.000000,56.000000) scale(0.100000,-0.100000)"
fill="#000000" stroke="none">
<path d="M250 560 c-11 0 -20 -5 -20 -11 0 -6 10 -24 21 -41 19 -26 20 -34 10
-68 -6 -20 -11 -82 -11 -136 0 -99 0 -99 -30 -112 -17 -8 -30 -21 -30 -31 0
-10 11 -28 24 -40 16 -15 22 -29 18 -44 -3 -12 -14 -34 -24 -49 -19 -28 -19
-28 9 -28 24 0 33 8 58 55 24 44 28 58 19 72 -8 12 -8 26 -2 43 6 14 8 74 4
138 -3 62 -3 119 1 127 4 12 9 13 19 4 8 -6 21 -9 29 -5 8 3 15 16 15 29 0 13
-8 30 -17 38 -10 8 -30 21 -45 29 -16 7 -28 17 -28 22 0 4 -9 8 -20 8z"/>
</g>
</svg>
