<?xml version="1.0" standalone="no"?>
<!DOCTYPE svg PUBLIC "-//W3C//DTD SVG 20010904//EN"
 "http://www.w3.org/TR/2001/REC-SVG-20010904/DTD/svg10.dtd">
<svg version="1.0" xmlns="http://www.w3.org/2000/svg"
 width="56.000000pt" height="56.000000pt" viewBox="0 0 56.000000 56.000000"
 preserveAspectRatio="xMidYMid meet">
<metadata>
Created by potrace 1.16, written by Peter Selinger 2001-2019
</metadata>
<g transform="translate(0.000000,56.000000) scale(0.100000,-0.100000)"
fill="#000000" stroke="none">
<path d="M344 560 c-34 0 -47 -5 -58 -22 -10 -16 -14 -54 -15 -120 0 -54 -3
-110 -7 -125 -3 -16 -8 -36 -11 -45 -2 -10 -10 -18 -17 -18 -7 0 -33 -16 -58
-36 -25 -19 -49 -45 -52 -57 -3 -12 -1 -38 5 -57 6 -20 19 -47 29 -60 17 -23
19 -23 45 -6 14 9 38 37 53 61 15 23 32 51 38 61 11 18 12 18 33 0 12 -11 21
-31 21 -46 0 -15 3 -42 6 -59 6 -28 10 -31 44 -31 38 0 38 0 33 48 -2 26 -13
66 -24 88 -10 23 -31 54 -46 69 -27 26 -28 30 -25 118 2 51 8 100 13 109 5 10
21 18 34 18 18 0 25 5 25 19 0 10 -7 24 -16 32 -9 7 -14 22 -11 36 4 21 1 23
-39 23z m-112 -390 c10 0 18 -4 18 -9 0 -5 -7 -17 -16 -25 -8 -9 -22 -16 -30
-16 -8 0 -14 6 -14 13 0 7 5 18 12 25 7 7 20 12 30 12z"/>
</g>
</svg>
