<?xml version="1.0" standalone="no"?>
<!DOCTYPE svg PUBLIC "-//W3C//DTD SVG 20010904//EN"
 "http://www.w3.org/TR/2001/REC-SVG-20010904/DTD/svg10.dtd">
<svg version="1.0" xmlns="http://www.w3.org/2000/svg"
 width="56.000000pt" height="56.000000pt" viewBox="0 0 56.000000 56.000000"
 preserveAspectRatio="xMidYMid meet">
<metadata>
Created by potrace 1.16, written by Peter Selinger 2001-2019
</metadata>
<g transform="translate(0.000000,56.000000) scale(0.100000,-0.100000)"
fill="#000000" stroke="none">
<path d="M239 560 c-16 0 -29 -2 -29 -4 0 -2 7 -17 15 -32 10 -21 15 -61 15
-136 0 -59 -4 -109 -8 -112 -5 -3 -19 2 -31 10 -21 15 -21 15 1 34 18 15 20
21 11 31 -10 10 -18 10 -38 -1 -13 -7 -27 -22 -31 -32 -4 -13 2 -28 16 -43 12
-13 36 -30 54 -39 29 -14 32 -14 48 7 10 13 18 40 18 65 0 23 4 42 10 42 5 0
20 -5 34 -12 14 -6 28 -19 32 -30 3 -10 3 -32 -1 -48 -4 -16 -17 -51 -30 -77
-12 -26 -43 -76 -69 -109 -25 -34 -46 -65 -46 -68 0 -3 10 -6 23 -5 12 0 32
13 44 28 12 16 45 67 72 115 28 47 53 102 57 121 5 26 1 43 -16 70 -12 20 -34
41 -48 46 -13 5 -33 7 -44 3 -17 -5 -19 -1 -16 38 3 41 4 43 38 46 19 1 41 5
49 8 11 3 11 7 0 20 -7 9 -22 14 -33 11 -12 -2 -29 -8 -38 -12 -14 -5 -18 -2
-18 13 0 11 -3 27 -6 36 -4 10 -18 16 -35 16z"/>
</g>
</svg>
