<?xml version="1.0" standalone="no"?>
<!DOCTYPE svg PUBLIC "-//W3C//DTD SVG 20010904//EN"
 "http://www.w3.org/TR/2001/REC-SVG-20010904/DTD/svg10.dtd">
<svg version="1.0" xmlns="http://www.w3.org/2000/svg"
 width="56.000000pt" height="56.000000pt" viewBox="0 0 56.000000 56.000000"
 preserveAspectRatio="xMidYMid meet">
<metadata>
Created by potrace 1.16, written by Peter Selinger 2001-2019
</metadata>
<g transform="translate(0.000000,56.000000) scale(0.100000,-0.100000)"
fill="#000000" stroke="none">
<path d="M264 560 c-12 0 -26 -11 -34 -25 -13 -24 -11 -28 29 -69 42 -43 42
-43 14 -96 -21 -41 -29 -71 -31 -127 -4 -73 -4 -73 -46 -91 -22 -10 -46 -25
-53 -33 -6 -8 -16 -26 -22 -41 -7 -18 -6 -31 2 -42 8 -10 29 -16 61 -18 42 -1
52 3 70 24 12 14 26 33 32 43 7 14 17 16 38 11 27 -7 27 -7 2 -51 -25 -45 -25
-45 17 -45 41 0 42 1 41 33 -1 17 -2 39 -2 48 -1 9 -13 29 -27 45 -14 16 -33
37 -41 46 -11 11 -15 27 -11 45 3 15 11 51 17 78 7 28 18 55 26 61 8 6 24 9
37 7 12 -2 31 2 42 10 16 13 18 18 7 41 -6 14 -29 37 -51 51 -23 14 -44 25
-49 25 -5 0 -17 16 -28 35 -12 23 -26 35 -40 35z"/>
</g>
</svg>
