<?xml version="1.0" standalone="no"?>
<!DOCTYPE svg PUBLIC "-//W3C//DTD SVG 20010904//EN"
 "http://www.w3.org/TR/2001/REC-SVG-20010904/DTD/svg10.dtd">
<svg version="1.0" xmlns="http://www.w3.org/2000/svg"
 width="56.000000pt" height="56.000000pt" viewBox="0 0 56.000000 56.000000"
 preserveAspectRatio="xMidYMid meet">
<metadata>
Created by potrace 1.16, written by Peter Selinger 2001-2019
</metadata>
<g transform="translate(0.000000,56.000000) scale(0.100000,-0.100000)"
fill="#000000" stroke="none">
<path d="M211 560 c-34 0 -39 -3 -44 -27 -3 -15 -1 -36 4 -45 5 -10 14 -18 20
-18 5 0 21 7 34 16 17 11 25 26 25 45 0 27 -3 29 -39 29z"/>
<path d="M350 560 c-21 0 -30 -5 -31 -17 -1 -10 -3 -34 -4 -53 -1 -20 -15 -56
-31 -80 -27 -41 -29 -51 -33 -164 -1 -67 -8 -127 -13 -133 -7 -9 -15 -10 -30
-2 -15 8 -24 7 -40 -8 -11 -10 -24 -26 -30 -36 -5 -11 -7 -30 -4 -43 6 -22 11
-24 75 -24 69 0 69 0 74 38 3 20 10 55 17 77 7 22 16 95 19 162 4 68 11 127
17 133 7 7 20 6 42 -2 17 -7 35 -9 39 -5 4 4 7 23 7 42 0 22 -8 43 -22 58 -12
13 -22 31 -22 40 0 12 -9 17 -30 17z"/>
</g>
</svg>
