<?xml version="1.0" standalone="no"?>
<!DOCTYPE svg PUBLIC "-//W3C//DTD SVG 20010904//EN"
 "http://www.w3.org/TR/2001/REC-SVG-20010904/DTD/svg10.dtd">
<svg version="1.0" xmlns="http://www.w3.org/2000/svg"
 width="56.000000pt" height="56.000000pt" viewBox="0 0 56.000000 56.000000"
 preserveAspectRatio="xMidYMid meet">
<metadata>
Created by potrace 1.16, written by Peter Selinger 2001-2019
</metadata>
<g transform="translate(0.000000,56.000000) scale(0.100000,-0.100000)"
fill="#000000" stroke="none">
<path d="M367 560 c-22 0 -36 -7 -45 -21 -10 -16 -20 -20 -41 -16 -22 5 -34 0
-51 -18 -20 -22 -22 -31 -17 -107 3 -46 12 -110 21 -143 8 -33 15 -72 16 -87
0 -25 -4 -28 -32 -28 -18 -1 -53 -6 -78 -13 -25 -7 -51 -16 -59 -21 -9 -6 -11
-20 -8 -43 4 -19 14 -41 23 -48 11 -7 56 -13 120 -14 86 -1 103 1 98 13 -3 7
7 26 21 41 16 15 34 24 42 21 8 -3 19 -6 24 -6 5 0 9 -6 9 -13 0 -8 8 -21 18
-29 11 -11 24 -13 38 -8 12 5 25 13 28 19 4 6 1 19 -5 29 -7 11 -28 28 -48 38
-20 10 -38 22 -41 26 -3 3 -23 8 -45 10 -39 3 -39 3 -52 68 -8 36 -18 85 -23
110 -6 25 -13 74 -16 110 -7 65 -7 65 15 45 13 -11 30 -32 38 -46 11 -19 28
-30 52 -34 20 -4 42 -12 49 -17 8 -8 16 -8 23 -1 6 6 6 19 0 36 -6 15 -17 27
-24 27 -8 0 -28 7 -45 16 -22 10 -32 23 -32 38 0 15 9 25 30 33 17 6 30 16 30
22 0 6 -15 11 -33 11z m-116 -467 c10 -3 19 -9 19 -13 0 -4 -6 -20 -14 -35 -8
-14 -17 -22 -20 -17 -3 5 -21 13 -40 16 -18 4 -41 15 -50 25 -16 18 -15 18 30
19 26 1 49 3 51 6 2 2 13 2 24 -1z"/>
</g>
</svg>
