<?xml version="1.0" standalone="no"?>
<!DOCTYPE svg PUBLIC "-//W3C//DTD SVG 20010904//EN"
 "http://www.w3.org/TR/2001/REC-SVG-20010904/DTD/svg10.dtd">
<svg version="1.0" xmlns="http://www.w3.org/2000/svg"
 width="56.000000pt" height="56.000000pt" viewBox="0 0 56.000000 56.000000"
 preserveAspectRatio="xMidYMid meet">
<metadata>
Created by potrace 1.16, written by Peter Selinger 2001-2019
</metadata>
<g transform="translate(0.000000,56.000000) scale(0.100000,-0.100000)"
fill="#000000" stroke="none">
<path d="M225 559 c-5 -1 -25 -9 -42 -17 -18 -9 -33 -21 -33 -28 0 -7 15 -23
33 -35 17 -12 38 -29 45 -37 7 -10 12 -45 12 -87 0 -66 -2 -72 -29 -96 -26
-22 -29 -31 -22 -55 4 -16 15 -30 24 -32 9 -2 24 4 33 13 9 9 21 14 28 12 6
-2 10 -18 10 -34 -1 -20 -19 -53 -54 -97 -52 -66 -52 -66 -7 -66 40 0 48 4 79
42 19 24 38 52 41 63 4 11 2 37 -3 59 -4 21 -19 50 -33 65 -23 24 -24 31 -18
101 6 73 7 74 36 80 17 4 40 12 53 19 12 6 22 20 22 30 0 11 -7 22 -16 25 -9
3 -26 6 -39 6 -13 0 -27 -4 -30 -10 -3 -5 -12 -10 -18 -10 -7 0 -23 20 -37 45
-14 25 -29 44 -35 44z"/>
</g>
</svg>
