<?xml version="1.0" standalone="no"?>
<!DOCTYPE svg PUBLIC "-//W3C//DTD SVG 20010904//EN"
 "http://www.w3.org/TR/2001/REC-SVG-20010904/DTD/svg10.dtd">
<svg version="1.0" xmlns="http://www.w3.org/2000/svg"
 width="56.000000pt" height="56.000000pt" viewBox="0 0 56.000000 56.000000"
 preserveAspectRatio="xMidYMid meet">
<metadata>
Created by potrace 1.16, written by Peter Selinger 2001-2019
</metadata>
<g transform="translate(0.000000,56.000000) scale(0.100000,-0.100000)"
fill="#000000" stroke="none">
<path d="M265 560 c-10 0 -15 -10 -15 -33 0 -18 -4 -37 -10 -43 -6 -6 -6 -34
1 -79 5 -39 14 -92 19 -120 6 -40 5 -54 -7 -67 -8 -9 -27 -18 -42 -20 -14 -2
-25 -6 -23 -11 1 -4 -4 -20 -13 -37 -8 -16 -15 -31 -15 -34 0 -3 9 -14 21 -25
12 -11 28 -17 38 -14 9 3 31 20 49 36 17 17 32 37 32 44 0 7 6 13 13 13 8 0
16 -2 19 -5 2 -3 1 -30 -3 -61 -4 -31 -12 -61 -17 -66 -6 -6 -17 -1 -31 13
-11 12 -23 20 -27 17 -3 -4 2 -20 11 -37 13 -26 21 -31 53 -31 35 0 40 4 60
44 14 27 22 62 22 93 0 35 -5 55 -17 65 -10 9 -27 18 -38 20 -15 2 -21 14 -26
48 -4 25 -14 71 -23 103 -9 32 -16 63 -16 69 0 7 15 -2 33 -20 18 -18 40 -32
49 -32 8 0 22 7 29 16 12 15 7 23 -41 65 -30 27 -58 49 -62 49 -5 0 -8 9 -8
20 0 11 -7 20 -15 20z"/>
</g>
</svg>
