<?xml version="1.0" standalone="no"?>
<!DOCTYPE svg PUBLIC "-//W3C//DTD SVG 20010904//EN"
 "http://www.w3.org/TR/2001/REC-SVG-20010904/DTD/svg10.dtd">
<svg version="1.0" xmlns="http://www.w3.org/2000/svg"
 width="56.000000pt" height="56.000000pt" viewBox="0 0 56.000000 56.000000"
 preserveAspectRatio="xMidYMid meet">
<metadata>
Created by potrace 1.16, written by Peter Selinger 2001-2019
</metadata>
<g transform="translate(0.000000,56.000000) scale(0.100000,-0.100000)"
fill="#000000" stroke="none">
<path d="M253 560 c-22 0 -25 -3 -20 -27 3 -16 11 -48 17 -73 7 -25 12 -91 12
-147 0 -68 -4 -108 -12 -118 -7 -8 -19 -15 -26 -15 -8 0 -32 -11 -54 -25 -25
-16 -40 -33 -40 -45 0 -11 4 -20 8 -20 5 0 27 -16 49 -35 23 -19 46 -35 52
-35 7 0 21 16 32 35 12 19 25 35 30 35 5 0 9 -20 9 -45 0 -43 1 -45 30 -45 17
0 30 3 30 8 0 4 -5 36 -10 71 -6 43 -16 72 -32 90 -21 23 -23 34 -20 103 3 64
7 78 22 83 9 3 34 21 54 41 20 19 36 44 36 56 0 11 -12 31 -27 44 -16 13 -32
24 -37 24 -4 0 -5 -11 -2 -25 4 -14 2 -34 -4 -45 -6 -11 -15 -20 -20 -20 -4 0
-11 15 -15 33 -4 17 -14 47 -22 65 -11 23 -22 32 -40 32z m-15 -421 c6 1 12
-7 12 -16 0 -10 -4 -24 -9 -32 -5 -8 -16 -11 -25 -8 -9 4 -16 15 -16 26 0 11
6 22 13 24 6 3 18 6 25 6z"/>
</g>
</svg>
