<?xml version="1.0" standalone="no"?>
<!DOCTYPE svg PUBLIC "-//W3C//DTD SVG 20010904//EN"
 "http://www.w3.org/TR/2001/REC-SVG-20010904/DTD/svg10.dtd">
<svg version="1.0" xmlns="http://www.w3.org/2000/svg"
 width="56.000000pt" height="56.000000pt" viewBox="0 0 56.000000 56.000000"
 preserveAspectRatio="xMidYMid meet">
<metadata>
Created by potrace 1.16, written by Peter Selinger 2001-2019
</metadata>
<g transform="translate(0.000000,56.000000) scale(0.100000,-0.100000)"
fill="#000000" stroke="none">
<path d="M260 505 c-18 17 -20 17 -26 1 -4 -10 -2 -41 4 -69 6 -29 14 -89 17
-133 4 -64 2 -83 -9 -87 -7 -3 -35 -9 -62 -12 -27 -4 -55 -12 -61 -17 -7 -6
-13 -19 -13 -29 0 -11 4 -19 9 -19 5 0 14 7 21 15 7 8 19 15 27 15 7 0 16 7
19 15 4 8 14 15 24 15 11 0 21 -4 24 -9 4 -5 3 -16 0 -24 -3 -9 -20 -21 -37
-27 -19 -7 -26 -14 -19 -17 7 -3 27 -2 45 1 18 3 45 13 60 21 25 13 29 13 34
-1 4 -10 -10 -31 -37 -59 -24 -25 -59 -52 -77 -60 -18 -9 -33 -18 -33 -20 0
-3 15 -5 33 -5 22 0 53 13 93 40 32 21 69 47 80 57 12 10 27 28 33 40 10 19 8
26 -9 43 -11 11 -29 20 -40 20 -11 0 -22 6 -24 12 -2 7 -9 53 -15 102 -11 81
-10 89 6 102 10 7 25 14 33 14 8 0 24 7 34 15 16 12 18 19 8 40 -6 14 -17 25
-24 25 -7 0 -29 -16 -48 -35 -19 -19 -38 -35 -42 -35 -4 0 -9 6 -9 13 -1 6 -1
17 0 23 1 6 -8 19 -19 29z"/>
</g>
</svg>
