<?xml version="1.0" standalone="no"?>
<!DOCTYPE svg PUBLIC "-//W3C//DTD SVG 20010904//EN"
 "http://www.w3.org/TR/2001/REC-SVG-20010904/DTD/svg10.dtd">
<svg version="1.0" xmlns="http://www.w3.org/2000/svg"
 width="56.000000pt" height="56.000000pt" viewBox="0 0 56.000000 56.000000"
 preserveAspectRatio="xMidYMid meet">
<metadata>
Created by potrace 1.16, written by Peter Selinger 2001-2019
</metadata>
<g transform="translate(0.000000,56.000000) scale(0.100000,-0.100000)"
fill="#000000" stroke="none">
<path d="M271 534 c-4 3 -11 3 -15 -1 -3 -3 -6 -15 -6 -26 0 -11 11 -35 25
-53 16 -21 31 -31 40 -28 8 4 15 10 15 16 0 5 -11 19 -25 32 -14 13 -25 30
-25 39 0 9 -4 18 -9 21z"/>
<path d="M314 400 c-8 8 -15 6 -24 -5 -7 -9 -18 -39 -23 -68 -6 -29 -11 -73
-11 -99 -1 -33 -7 -53 -23 -70 -13 -13 -23 -36 -23 -50 0 -15 9 -32 23 -41 19
-13 20 -18 10 -36 -7 -11 -13 -23 -13 -26 0 -3 6 -5 14 -5 8 0 24 12 35 26 19
24 21 40 21 162 0 80 5 149 12 169 8 23 9 36 2 43z"/>
</g>
</svg>
