<?xml version="1.0" standalone="no"?>
<!DOCTYPE svg PUBLIC "-//W3C//DTD SVG 20010904//EN"
 "http://www.w3.org/TR/2001/REC-SVG-20010904/DTD/svg10.dtd">
<svg version="1.0" xmlns="http://www.w3.org/2000/svg"
 width="56.000000pt" height="56.000000pt" viewBox="0 0 56.000000 56.000000"
 preserveAspectRatio="xMidYMid meet">
<metadata>
Created by potrace 1.16, written by Peter Selinger 2001-2019
</metadata>
<g transform="translate(0.000000,56.000000) scale(0.100000,-0.100000)"
fill="#000000" stroke="none">
<path d="M263 540 c-16 14 -22 15 -37 5 -15 -11 -16 -19 -7 -52 6 -21 11 -57
11 -80 0 -36 3 -43 19 -43 11 0 22 4 26 10 3 5 19 1 38 -10 18 -11 44 -20 58
-20 14 0 29 3 32 7 4 3 0 15 -10 25 -9 10 -29 18 -44 18 -15 0 -31 5 -34 11
-4 6 -13 8 -21 5 -8 -3 -15 0 -15 7 -1 7 -1 32 1 55 1 32 -3 48 -17 62z"/>
<path d="M238 230 c-12 0 -38 -8 -55 -16 -21 -11 -33 -24 -33 -37 0 -11 11
-35 26 -54 14 -18 30 -33 36 -33 6 0 20 8 30 17 12 11 22 13 28 7 7 -7 5 -27
-5 -60 -8 -27 -15 -50 -15 -51 0 -2 11 -3 24 -3 19 0 27 8 35 33 5 17 13 53
16 78 7 44 5 49 -28 83 -21 21 -45 36 -59 36z"/>
</g>
</svg>
