<?xml version="1.0" standalone="no"?>
<!DOCTYPE svg PUBLIC "-//W3C//DTD SVG 20010904//EN"
 "http://www.w3.org/TR/2001/REC-SVG-20010904/DTD/svg10.dtd">
<svg version="1.0" xmlns="http://www.w3.org/2000/svg"
 width="56.000000pt" height="56.000000pt" viewBox="0 0 56.000000 56.000000"
 preserveAspectRatio="xMidYMid meet">
<metadata>
Created by potrace 1.16, written by Peter Selinger 2001-2019
</metadata>
<g transform="translate(0.000000,56.000000) scale(0.100000,-0.100000)"
fill="#000000" stroke="none">
<path d="M240 560 c-6 0 -10 -5 -10 -11 0 -6 4 -18 9 -27 5 -10 11 -53 14 -97
3 -44 2 -113 -2 -153 -6 -74 -6 -74 -57 -95 -28 -12 -58 -28 -67 -35 -10 -9
-15 -26 -13 -48 1 -19 13 -45 25 -58 19 -20 30 -24 55 -19 17 3 39 13 48 21
10 8 23 30 30 48 7 19 16 34 20 34 5 0 13 -12 18 -26 6 -14 10 -41 10 -60 0
-31 3 -34 30 -34 23 0 31 5 36 25 4 16 -1 45 -12 73 -9 26 -30 58 -46 72 -27
24 -28 27 -28 122 0 55 4 98 9 98 6 0 26 -9 45 -21 19 -11 45 -19 58 -17 13 2
24 10 25 18 2 8 -9 28 -23 44 -24 27 -28 28 -38 13 -9 -11 -20 -14 -37 -10
-13 3 -27 11 -31 17 -4 6 -8 27 -8 47 0 25 -7 42 -25 57 -14 12 -30 22 -35 22z
m-23 -410 c6 0 15 -4 18 -10 3 -5 -1 -23 -10 -40 -12 -23 -22 -30 -38 -28 -14
2 -23 11 -25 25 -2 13 5 27 20 37 12 9 28 16 35 16z"/>
</g>
</svg>
