<?xml version="1.0" standalone="no"?>
<!DOCTYPE svg PUBLIC "-//W3C//DTD SVG 20010904//EN"
 "http://www.w3.org/TR/2001/REC-SVG-20010904/DTD/svg10.dtd">
<svg version="1.0" xmlns="http://www.w3.org/2000/svg"
 width="56.000000pt" height="56.000000pt" viewBox="0 0 56.000000 56.000000"
 preserveAspectRatio="xMidYMid meet">
<metadata>
Created by potrace 1.16, written by Peter Selinger 2001-2019
</metadata>
<g transform="translate(0.000000,56.000000) scale(0.100000,-0.100000)"
fill="#000000" stroke="none">
<path d="M264 540 c-8 0 -14 -4 -14 -9 0 -6 5 -13 10 -16 6 -3 10 -17 10 -30
0 -22 3 -24 29 -19 16 4 32 1 35 -5 4 -6 12 -9 17 -6 5 4 9 14 9 24 0 10 -17
26 -41 39 -22 12 -47 22 -55 22z"/>
<path d="M265 340 c-3 0 -7 -6 -10 -12 -2 -7 -6 -31 -10 -53 -3 -22 -8 -69
-12 -104 -5 -59 -9 -68 -46 -102 -33 -32 -38 -41 -27 -54 7 -8 19 -15 27 -15
9 0 30 16 48 36 27 29 38 35 66 32 27 -2 37 -10 49 -35 8 -18 17 -33 20 -33 3
0 6 12 7 28 1 15 -7 36 -20 50 -12 12 -32 22 -48 22 -15 0 -31 6 -35 12 -5 7
-7 61 -6 120 2 60 0 108 -3 108z"/>
</g>
</svg>
