<?xml version="1.0" standalone="no"?>
<!DOCTYPE svg PUBLIC "-//W3C//DTD SVG 20010904//EN"
 "http://www.w3.org/TR/2001/REC-SVG-20010904/DTD/svg10.dtd">
<svg version="1.0" xmlns="http://www.w3.org/2000/svg"
 width="56.000000pt" height="56.000000pt" viewBox="0 0 56.000000 56.000000"
 preserveAspectRatio="xMidYMid meet">
<metadata>
Created by potrace 1.16, written by Peter Selinger 2001-2019
</metadata>
<g transform="translate(0.000000,56.000000) scale(0.100000,-0.100000)"
fill="#000000" stroke="none">
<path d="M305 560 c-11 0 -15 -12 -15 -50 0 -38 7 -61 26 -90 15 -23 35 -40
45 -40 14 0 19 7 19 25 0 13 -13 46 -30 72 -16 26 -30 55 -30 65 0 10 -7 18
-15 18z"/>
<path d="M283 417 c-6 2 -17 -6 -24 -18 -7 -15 -9 -40 -4 -73 4 -28 8 -67 8
-86 2 -31 -2 -37 -36 -54 -21 -10 -43 -29 -49 -42 -8 -18 -8 -28 0 -36 7 -7
19 -7 43 1 17 6 36 11 41 11 6 0 8 -19 6 -42 -3 -24 -8 -51 -13 -61 -6 -16 -4
-18 14 -15 17 2 27 16 42 58 13 36 17 64 12 80 -4 14 -8 52 -9 85 -1 33 -6 89
-10 124 -5 36 -14 66 -21 68z"/>
</g>
</svg>
