<?xml version="1.0" standalone="no"?>
<!DOCTYPE svg PUBLIC "-//W3C//DTD SVG 20010904//EN"
 "http://www.w3.org/TR/2001/REC-SVG-20010904/DTD/svg10.dtd">
<svg version="1.0" xmlns="http://www.w3.org/2000/svg"
 width="56.000000pt" height="56.000000pt" viewBox="0 0 56.000000 56.000000"
 preserveAspectRatio="xMidYMid meet">
<metadata>
Created by potrace 1.16, written by Peter Selinger 2001-2019
</metadata>
<g transform="translate(0.000000,56.000000) scale(0.100000,-0.100000)"
fill="#000000" stroke="none">
<path d="M280 560 c-13 0 -22 -9 -26 -27 -4 -16 -10 -32 -14 -38 -4 -5 -10
-23 -13 -40 -3 -16 1 -83 9 -148 8 -64 12 -128 8 -142 -4 -18 -1 -27 10 -31 9
-3 16 -12 16 -20 0 -8 -5 -14 -10 -14 -6 0 -13 7 -16 15 -4 8 -12 15 -19 15
-7 0 -16 -7 -19 -16 -3 -9 -6 -18 -6 -20 0 -2 12 -4 28 -5 27 0 27 0 2 -11
-25 -10 -25 -10 -1 -19 16 -6 28 -6 35 1 5 5 16 10 24 10 11 0 13 -9 9 -35 -5
-33 -4 -35 22 -35 28 0 28 2 26 47 -1 27 -3 51 -4 55 0 4 -13 13 -28 21 -16 7
-26 20 -24 28 2 8 6 33 9 57 3 26 0 53 -8 67 -11 20 -11 27 0 40 10 12 10 16
-1 20 -8 3 -13 18 -13 38 1 17 2 38 3 46 1 10 8 8 26 -9 18 -17 28 -21 36 -13
6 6 9 21 7 34 -2 15 -11 25 -24 27 -12 2 -27 14 -35 28 -10 20 -11 29 -1 44 7
11 12 22 12 25 0 3 -9 5 -20 5z"/>
</g>
</svg>
