<?xml version="1.0" standalone="no"?>
<!DOCTYPE svg PUBLIC "-//W3C//DTD SVG 20010904//EN"
 "http://www.w3.org/TR/2001/REC-SVG-20010904/DTD/svg10.dtd">
<svg version="1.0" xmlns="http://www.w3.org/2000/svg"
 width="56.000000pt" height="56.000000pt" viewBox="0 0 56.000000 56.000000"
 preserveAspectRatio="xMidYMid meet">
<metadata>
Created by potrace 1.16, written by Peter Selinger 2001-2019
</metadata>
<g transform="translate(0.000000,56.000000) scale(0.100000,-0.100000)"
fill="#000000" stroke="none">
<path d="M224 557 c-6 2 -16 -8 -24 -22 -10 -19 -11 -30 -2 -47 6 -13 16 -40
22 -60 6 -21 9 -41 6 -46 -2 -4 -1 -44 3 -88 4 -43 6 -85 3 -92 -2 -6 -14 -12
-26 -12 -12 0 -32 -9 -44 -20 -12 -12 -22 -28 -22 -38 0 -9 16 -27 35 -40 19
-12 41 -22 49 -22 7 0 21 16 30 35 9 19 21 37 26 40 5 3 14 -3 19 -14 6 -11
11 -45 11 -75 0 -52 2 -56 23 -56 19 0 25 8 35 46 11 41 10 51 -6 83 -10 20
-33 45 -50 56 -31 20 -31 20 -32 112 0 53 4 95 10 98 6 4 16 3 23 -2 7 -5 28
-10 47 -11 19 -1 42 2 50 7 12 8 11 13 -5 31 -17 19 -28 21 -72 18 -52 -5 -53
-4 -53 22 0 15 -10 42 -22 60 -13 19 -28 35 -34 37z"/>
</g>
</svg>
