<?xml version="1.0" standalone="no"?>
<!DOCTYPE svg PUBLIC "-//W3C//DTD SVG 20010904//EN"
 "http://www.w3.org/TR/2001/REC-SVG-20010904/DTD/svg10.dtd">
<svg version="1.0" xmlns="http://www.w3.org/2000/svg"
 width="56.000000pt" height="56.000000pt" viewBox="0 0 56.000000 56.000000"
 preserveAspectRatio="xMidYMid meet">
<metadata>
Created by potrace 1.16, written by Peter Selinger 2001-2019
</metadata>
<g transform="translate(0.000000,56.000000) scale(0.100000,-0.100000)"
fill="#000000" stroke="none">
<path d="M170 560 c-11 0 -20 -6 -20 -13 0 -7 8 -17 18 -24 14 -8 21 -30 27
-85 4 -40 8 -108 9 -150 1 -57 -3 -79 -12 -83 -8 -3 -22 -5 -32 -5 -10 0 -25
-11 -34 -25 -9 -13 -16 -26 -16 -29 0 -3 21 -15 46 -28 26 -12 49 -29 52 -37
3 -9 -10 -27 -34 -48 -39 -33 -39 -33 -3 -33 26 0 47 8 70 28 18 15 52 44 76
66 23 21 43 46 43 54 0 9 -12 29 -27 44 -15 15 -35 28 -45 28 -10 0 -18 -4
-18 -9 0 -6 5 -13 10 -16 6 -3 10 -17 10 -30 0 -13 -10 -31 -22 -40 -22 -15
-23 -14 -32 11 -5 16 -4 40 3 63 6 20 14 76 17 124 5 57 10 84 18 80 5 -4 31
-11 56 -16 25 -4 59 -9 75 -10 25 -2 30 2 33 24 2 14 -4 31 -11 38 -11 9 -31
9 -77 2 -35 -6 -66 -8 -71 -6 -4 3 -10 18 -14 34 -3 16 -21 43 -40 60 -19 17
-44 31 -55 31z"/>
</g>
</svg>
