<?xml version="1.0" standalone="no"?>
<!DOCTYPE svg PUBLIC "-//W3C//DTD SVG 20010904//EN"
 "http://www.w3.org/TR/2001/REC-SVG-20010904/DTD/svg10.dtd">
<svg version="1.0" xmlns="http://www.w3.org/2000/svg"
 width="56.000000pt" height="56.000000pt" viewBox="0 0 56.000000 56.000000"
 preserveAspectRatio="xMidYMid meet">
<metadata>
Created by potrace 1.16, written by Peter Selinger 2001-2019
</metadata>
<g transform="translate(0.000000,56.000000) scale(0.100000,-0.100000)"
fill="#000000" stroke="none">
<path d="M267 540 c-4 0 -10 -7 -14 -16 -3 -8 -1 -26 5 -39 6 -14 12 -68 13
-121 1 -72 -2 -99 -12 -105 -8 -5 -27 -9 -44 -10 -16 -1 -36 -1 -42 0 -7 1
-13 -5 -13 -13 0 -8 5 -18 10 -21 6 -4 8 -22 4 -43 -3 -20 -8 -44 -10 -52 -3
-12 6 -16 39 -17 28 -1 49 4 64 16 12 10 25 30 28 44 4 15 13 31 20 37 10 8
17 6 27 -8 7 -11 13 -39 12 -63 -1 -24 -5 -63 -9 -86 -8 -43 -8 -43 24 -43 31
0 31 0 31 70 0 39 -4 78 -9 88 -6 9 -12 30 -16 45 -3 15 -13 31 -23 34 -9 4
-19 10 -22 14 -3 4 -5 40 -5 80 0 68 1 72 24 76 13 2 30 11 37 21 8 9 13 24
11 32 -1 8 -19 19 -39 25 -20 5 -47 20 -60 33 -14 12 -28 22 -31 22z"/>
</g>
</svg>
