<?xml version="1.0" standalone="no"?>
<!DOCTYPE svg PUBLIC "-//W3C//DTD SVG 20010904//EN"
 "http://www.w3.org/TR/2001/REC-SVG-20010904/DTD/svg10.dtd">
<svg version="1.0" xmlns="http://www.w3.org/2000/svg"
 width="56.000000pt" height="56.000000pt" viewBox="0 0 56.000000 56.000000"
 preserveAspectRatio="xMidYMid meet">
<metadata>
Created by potrace 1.16, written by Peter Selinger 2001-2019
</metadata>
<g transform="translate(0.000000,56.000000) scale(0.100000,-0.100000)"
fill="#000000" stroke="none">
<path d="M258 527 c-28 4 -38 2 -38 -8 0 -7 11 -22 25 -34 23 -19 24 -26 25
-120 1 -55 1 -105 1 -111 -1 -7 -17 -15 -36 -18 -19 -4 -48 -18 -65 -33 -17
-14 -37 -38 -45 -53 -13 -25 -13 -30 3 -49 15 -19 23 -20 81 -13 40 4 67 13
73 22 4 8 15 32 23 53 11 25 22 37 35 37 15 0 20 -7 20 -25 0 -15 -7 -40 -16
-58 -8 -18 -36 -51 -62 -74 -47 -43 -47 -43 -2 -43 40 0 51 5 83 38 20 21 37
41 37 46 0 4 9 19 20 33 11 14 20 36 20 49 0 13 -14 40 -32 59 -21 24 -37 35
-50 32 -10 -3 -20 -2 -22 2 -3 4 -7 44 -11 89 -6 79 -6 82 14 82 12 0 31 5 44
12 12 6 29 14 37 18 8 4 16 14 18 23 2 10 -7 21 -21 28 -21 10 -30 8 -56 -11
-31 -22 -31 -22 -49 -1 -9 12 -34 24 -54 28z m-22 -337 c8 0 17 -7 20 -15 4
-8 1 -22 -6 -30 -7 -8 -21 -15 -31 -15 -10 0 -20 4 -23 8 -3 5 2 18 10 30 8
12 22 22 30 22z"/>
</g>
</svg>
