<?xml version="1.0" standalone="no"?>
<!DOCTYPE svg PUBLIC "-//W3C//DTD SVG 20010904//EN"
 "http://www.w3.org/TR/2001/REC-SVG-20010904/DTD/svg10.dtd">
<svg version="1.0" xmlns="http://www.w3.org/2000/svg"
 width="56.000000pt" height="56.000000pt" viewBox="0 0 56.000000 56.000000"
 preserveAspectRatio="xMidYMid meet">
<metadata>
Created by potrace 1.16, written by Peter Selinger 2001-2019
</metadata>
<g transform="translate(0.000000,56.000000) scale(0.100000,-0.100000)"
fill="#000000" stroke="none">
<path d="M233 560 c-6 0 -15 -9 -18 -21 -5 -14 -1 -25 11 -33 10 -7 23 -33 31
-57 7 -24 13 -67 13 -94 0 -28 -5 -56 -12 -63 -7 -7 -20 -12 -30 -12 -11 0
-30 -11 -43 -25 -16 -15 -25 -35 -25 -56 0 -23 9 -40 36 -66 31 -29 36 -39 31
-66 -3 -18 -8 -40 -12 -49 -6 -14 -2 -18 16 -18 20 0 28 10 47 58 12 33 22 81
23 112 0 30 4 89 8 130 4 41 4 92 1 113 -7 37 -7 37 36 37 23 0 46 5 49 10 4
6 1 18 -6 26 -9 12 -23 14 -49 10 -33 -5 -40 -2 -66 29 -16 19 -34 35 -41 35z
m2 -320 c8 0 15 -6 15 -14 0 -7 -6 -19 -14 -25 -10 -9 -16 -9 -21 -1 -4 6 -4
17 -1 25 3 8 12 15 21 15z"/>
</g>
</svg>
