<?xml version="1.0" standalone="no"?>
<!DOCTYPE svg PUBLIC "-//W3C//DTD SVG 20010904//EN"
 "http://www.w3.org/TR/2001/REC-SVG-20010904/DTD/svg10.dtd">
<svg version="1.0" xmlns="http://www.w3.org/2000/svg"
 width="56.000000pt" height="56.000000pt" viewBox="0 0 56.000000 56.000000"
 preserveAspectRatio="xMidYMid meet">
<metadata>
Created by potrace 1.16, written by Peter Selinger 2001-2019
</metadata>
<g transform="translate(0.000000,56.000000) scale(0.100000,-0.100000)"
fill="#000000" stroke="none">
<path d="M215 560 c-15 0 -25 -6 -25 -14 0 -8 5 -18 11 -22 6 -3 19 -26 29
-50 14 -32 19 -71 21 -156 2 -113 2 -113 -40 -141 -22 -16 -41 -35 -41 -43 0
-8 7 -28 15 -44 9 -17 20 -30 26 -30 5 0 26 16 46 35 20 19 42 35 50 35 7 0
13 -6 13 -13 0 -7 -20 -33 -45 -58 -24 -24 -45 -47 -45 -51 0 -5 8 -8 18 -8
10 0 33 17 52 38 19 20 41 47 48 59 6 13 12 34 12 49 0 17 -6 28 -20 31 -10 3
-25 15 -32 27 -8 13 -13 54 -13 106 0 84 0 84 39 95 24 7 42 19 47 32 4 11 3
26 -1 34 -7 11 -15 10 -45 -4 -35 -17 -35 -17 -65 30 -17 26 -30 51 -30 55 0
4 -11 8 -25 8z"/>
</g>
</svg>
