<?xml version="1.0" standalone="no"?>
<!DOCTYPE svg PUBLIC "-//W3C//DTD SVG 20010904//EN"
 "http://www.w3.org/TR/2001/REC-SVG-20010904/DTD/svg10.dtd">
<svg version="1.0" xmlns="http://www.w3.org/2000/svg"
 width="56.000000pt" height="56.000000pt" viewBox="0 0 56.000000 56.000000"
 preserveAspectRatio="xMidYMid meet">
<metadata>
Created by potrace 1.16, written by Peter Selinger 2001-2019
</metadata>
<g transform="translate(0.000000,56.000000) scale(0.100000,-0.100000)"
fill="#000000" stroke="none">
<path d="M290 560 c-15 0 -20 -7 -20 -25 0 -14 -4 -25 -8 -25 -4 0 -9 -57 -11
-126 -1 -76 -7 -134 -14 -145 -6 -10 -17 -19 -23 -19 -7 0 -15 -7 -18 -16 -3
-9 -6 -24 -6 -34 0 -10 7 -20 15 -24 8 -3 22 -3 30 1 9 3 23 19 31 35 8 16 20
28 27 25 6 -2 16 -20 20 -41 8 -30 13 -37 31 -34 17 2 21 9 19 37 -1 22 -11
44 -31 65 -27 28 -31 40 -36 111 -3 44 -8 100 -12 124 -6 44 -6 44 24 23 16
-12 35 -22 41 -22 6 0 11 11 11 25 0 17 -8 29 -25 37 -14 6 -25 15 -25 20 0 4
-9 8 -20 8z"/>
<path d="M316 100 c-3 0 -6 -12 -6 -27 0 -16 -3 -38 -6 -50 -5 -19 -2 -23 19
-23 14 0 28 7 31 16 3 9 6 26 6 39 0 14 -9 29 -19 35 -11 5 -22 10 -25 10z"/>
</g>
</svg>
