<?xml version="1.0" standalone="no"?>
<!DOCTYPE svg PUBLIC "-//W3C//DTD SVG 20010904//EN"
 "http://www.w3.org/TR/2001/REC-SVG-20010904/DTD/svg10.dtd">
<svg version="1.0" xmlns="http://www.w3.org/2000/svg"
 width="56.000000pt" height="56.000000pt" viewBox="0 0 56.000000 56.000000"
 preserveAspectRatio="xMidYMid meet">
<metadata>
Created by potrace 1.16, written by Peter Selinger 2001-2019
</metadata>
<g transform="translate(0.000000,56.000000) scale(0.100000,-0.100000)"
fill="#000000" stroke="none">
<path d="M298 560 c-19 0 -27 -9 -38 -37 -11 -28 -14 -76 -13 -179 2 -141 2
-141 -62 -183 -36 -23 -65 -48 -65 -57 0 -8 5 -24 10 -35 6 -10 21 -19 34 -19
13 0 43 18 69 40 25 22 50 40 56 40 6 0 18 -11 27 -25 11 -18 15 -38 11 -65
-5 -40 -5 -40 39 -40 42 0 44 2 44 28 0 15 -12 51 -26 80 -15 31 -39 60 -60
72 -19 12 -34 29 -33 38 0 9 6 48 12 86 7 42 18 72 27 76 8 4 27 13 43 21 15
7 27 17 27 24 0 6 -15 16 -33 23 -18 7 -41 12 -51 12 -15 0 -17 6 -12 36 4 19
10 42 13 50 3 10 -2 14 -19 14z"/>
</g>
</svg>
