<?xml version="1.0" standalone="no"?>
<!DOCTYPE svg PUBLIC "-//W3C//DTD SVG 20010904//EN"
 "http://www.w3.org/TR/2001/REC-SVG-20010904/DTD/svg10.dtd">
<svg version="1.0" xmlns="http://www.w3.org/2000/svg"
 width="56.000000pt" height="56.000000pt" viewBox="0 0 56.000000 56.000000"
 preserveAspectRatio="xMidYMid meet">
<metadata>
Created by potrace 1.16, written by Peter Selinger 2001-2019
</metadata>
<g transform="translate(0.000000,56.000000) scale(0.100000,-0.100000)"
fill="#000000" stroke="none">
<path d="M184 533 c-20 17 -22 16 -47 -4 -15 -11 -27 -27 -27 -35 0 -7 17 -21
37 -29 21 -9 48 -26 60 -37 17 -16 23 -33 23 -64 0 -24 4 -46 10 -49 5 -3 7
-20 3 -38 -3 -18 -10 -38 -16 -45 -6 -7 -24 -19 -42 -26 -17 -7 -43 -28 -58
-45 -15 -18 -30 -44 -33 -58 -4 -14 -3 -42 2 -62 8 -30 14 -36 39 -39 27 -2
36 5 79 64 49 67 49 67 68 44 10 -12 18 -37 18 -54 0 -18 -5 -37 -12 -44 -9
-9 -5 -12 19 -12 27 0 32 4 39 32 5 18 7 53 5 78 -2 34 -9 50 -28 66 -24 20
-25 26 -25 124 0 75 3 105 13 111 8 5 28 9 45 9 17 0 46 3 63 6 21 4 37 16 46
34 12 23 12 30 1 39 -7 6 -26 14 -43 17 -22 4 -39 -1 -68 -20 -21 -15 -49 -29
-62 -33 -18 -4 -33 2 -56 24 -18 16 -41 36 -53 46z"/>
</g>
</svg>
