<?xml version="1.0" standalone="no"?>
<!DOCTYPE svg PUBLIC "-//W3C//DTD SVG 20010904//EN"
 "http://www.w3.org/TR/2001/REC-SVG-20010904/DTD/svg10.dtd">
<svg version="1.0" xmlns="http://www.w3.org/2000/svg"
 width="56.000000pt" height="56.000000pt" viewBox="0 0 56.000000 56.000000"
 preserveAspectRatio="xMidYMid meet">
<metadata>
Created by potrace 1.16, written by Peter Selinger 2001-2019
</metadata>
<g transform="translate(0.000000,56.000000) scale(0.100000,-0.100000)"
fill="#000000" stroke="none">
<path d="M171 560 c-17 0 -31 -3 -31 -7 0 -4 11 -23 25 -43 14 -20 34 -61 44
-91 11 -30 22 -89 26 -131 7 -78 7 -78 -26 -95 -18 -10 -43 -29 -56 -42 -15
-15 -23 -36 -23 -57 0 -24 6 -37 21 -44 15 -9 28 -9 49 0 15 6 38 22 51 36 12
13 27 24 32 24 6 0 7 -22 3 -55 -6 -55 -6 -55 29 -55 29 0 36 4 41 26 4 14 4
43 1 65 -3 22 -17 57 -31 78 -18 25 -28 56 -32 98 -4 34 -4 68 -1 77 5 12 12
13 41 4 26 -8 42 -8 61 0 19 9 25 19 25 42 0 31 0 31 -69 24 -69 -6 -69 -6
-76 37 -5 28 -18 54 -40 76 -23 24 -41 33 -64 33z"/>
</g>
</svg>
