<?xml version="1.0" standalone="no"?>
<!DOCTYPE svg PUBLIC "-//W3C//DTD SVG 20010904//EN"
 "http://www.w3.org/TR/2001/REC-SVG-20010904/DTD/svg10.dtd">
<svg version="1.0" xmlns="http://www.w3.org/2000/svg"
 width="56.000000pt" height="56.000000pt" viewBox="0 0 56.000000 56.000000"
 preserveAspectRatio="xMidYMid meet">
<metadata>
Created by potrace 1.16, written by Peter Selinger 2001-2019
</metadata>
<g transform="translate(0.000000,56.000000) scale(0.100000,-0.100000)"
fill="#000000" stroke="none">
<path d="M263 560 c-8 0 -13 -12 -13 -31 0 -17 6 -37 14 -45 8 -8 20 -14 26
-14 6 0 13 7 16 14 3 8 -2 29 -12 45 -10 17 -24 31 -31 31z"/>
<path d="M201 440 c-6 0 -11 -5 -11 -10 0 -6 4 -18 9 -28 5 -9 12 -25 15 -35
3 -10 10 -15 16 -12 5 3 10 17 10 31 0 14 -6 32 -14 40 -8 8 -19 14 -25 14z"/>
<path d="M238 338 c-9 2 -19 -2 -23 -7 -3 -6 -3 -16 0 -21 4 -6 11 -40 16 -77
8 -56 7 -69 -7 -85 -10 -10 -22 -18 -29 -18 -7 0 -19 -8 -28 -18 -10 -10 -17
-30 -17 -45 0 -16 8 -30 19 -37 11 -5 29 -10 39 -10 11 0 32 14 46 31 14 17
26 39 26 49 0 9 6 22 13 28 10 9 19 7 35 -4 12 -8 22 -21 22 -28 0 -8 -16 -21
-35 -30 -19 -9 -35 -22 -35 -27 0 -6 18 -9 43 -6 23 2 50 8 60 12 9 4 17 18
17 30 0 15 -14 35 -37 54 -21 17 -43 31 -49 31 -6 0 -17 6 -23 14 -7 8 -18 47
-24 88 -9 53 -17 74 -29 76z"/>
</g>
</svg>
