<?xml version="1.0" standalone="no"?>
<!DOCTYPE svg PUBLIC "-//W3C//DTD SVG 20010904//EN"
 "http://www.w3.org/TR/2001/REC-SVG-20010904/DTD/svg10.dtd">
<svg version="1.0" xmlns="http://www.w3.org/2000/svg"
 width="56.000000pt" height="56.000000pt" viewBox="0 0 56.000000 56.000000"
 preserveAspectRatio="xMidYMid meet">
<metadata>
Created by potrace 1.16, written by Peter Selinger 2001-2019
</metadata>
<g transform="translate(0.000000,56.000000) scale(0.100000,-0.100000)"
fill="#000000" stroke="none">
<path d="M205 560 c-8 0 -15 -7 -15 -15 0 -9 9 -28 20 -43 17 -24 20 -47 23
-186 3 -158 3 -158 -28 -172 -17 -7 -37 -24 -43 -39 -7 -14 -12 -28 -12 -30 0
-2 15 -20 34 -39 29 -31 40 -36 80 -36 25 0 46 5 46 10 0 6 15 20 33 30 19 11
39 31 44 43 9 18 7 31 -4 55 -8 17 -25 35 -37 39 -11 3 -31 6 -43 4 -22 -2
-23 1 -23 58 0 33 5 71 11 84 8 17 25 28 60 37 27 8 49 19 49 25 0 6 -10 17
-23 24 -13 7 -36 11 -53 9 -28 -3 -29 -1 -30 37 0 22 -2 46 -2 53 -1 6 -9 12
-17 12 -8 0 -24 9 -35 20 -11 11 -27 20 -35 20z m97 -430 c10 0 18 -7 18 -17
0 -9 -7 -25 -17 -35 -9 -10 -22 -18 -30 -18 -7 0 -13 10 -13 23 0 13 5 28 12
35 7 7 20 12 30 12z"/>
</g>
</svg>
