<?xml version="1.0" standalone="no"?>
<!DOCTYPE svg PUBLIC "-//W3C//DTD SVG 20010904//EN"
 "http://www.w3.org/TR/2001/REC-SVG-20010904/DTD/svg10.dtd">
<svg version="1.0" xmlns="http://www.w3.org/2000/svg"
 width="56.000000pt" height="56.000000pt" viewBox="0 0 56.000000 56.000000"
 preserveAspectRatio="xMidYMid meet">
<metadata>
Created by potrace 1.16, written by Peter Selinger 2001-2019
</metadata>
<g transform="translate(0.000000,56.000000) scale(0.100000,-0.100000)"
fill="#000000" stroke="none">
<path d="M253 560 c-13 0 -23 -4 -23 -9 0 -5 -10 -11 -22 -14 -23 -6 -23 -6 0
-27 13 -13 22 -33 22 -51 0 -17 -7 -71 -16 -120 -11 -59 -21 -89 -30 -89 -7 0
-28 -9 -46 -20 -18 -10 -41 -32 -50 -47 -9 -15 -17 -44 -18 -63 -1 -19 -2 -41
-1 -48 1 -7 13 -17 28 -23 15 -5 37 -8 49 -5 13 4 30 21 40 39 9 17 26 49 37
70 11 21 27 37 37 37 9 0 31 -5 47 -11 23 -7 32 -18 37 -41 3 -17 6 -45 6 -64
0 -18 -4 -36 -10 -39 -5 -3 -10 -13 -10 -21 0 -9 11 -14 35 -14 30 0 37 5 45
27 6 16 15 38 22 50 6 12 8 45 6 74 -4 37 -12 58 -26 69 -11 10 -44 20 -73 23
-29 4 -57 11 -62 16 -5 5 -5 17 2 29 5 10 12 34 15 53 2 19 8 44 11 57 4 12 2
28 -4 35 -6 8 -8 17 -4 20 3 4 18 7 32 7 14 0 50 -11 79 -25 30 -14 57 -25 62
-25 4 0 13 14 20 31 11 25 11 33 -1 44 -9 10 -44 16 -98 19 -78 3 -85 5 -100
30 -9 16 -25 26 -38 26z"/>
</g>
</svg>
