<?xml version="1.0" standalone="no"?>
<!DOCTYPE svg PUBLIC "-//W3C//DTD SVG 20010904//EN"
 "http://www.w3.org/TR/2001/REC-SVG-20010904/DTD/svg10.dtd">
<svg version="1.0" xmlns="http://www.w3.org/2000/svg"
 width="56.000000pt" height="56.000000pt" viewBox="0 0 56.000000 56.000000"
 preserveAspectRatio="xMidYMid meet">
<metadata>
Created by potrace 1.16, written by Peter Selinger 2001-2019
</metadata>
<g transform="translate(0.000000,56.000000) scale(0.100000,-0.100000)"
fill="#000000" stroke="none">
<path d="M247 560 c-9 0 -18 -9 -22 -19 -4 -13 3 -28 19 -45 15 -18 25 -42 28
-69 1 -23 2 -61 0 -84 -3 -41 -5 -43 -35 -43 -21 0 -45 -11 -70 -31 -26 -22
-37 -38 -36 -57 0 -15 6 -54 13 -87 9 -43 18 -61 30 -63 10 -2 28 -1 40 2 12
3 28 17 34 31 7 15 17 23 23 19 6 -3 9 -14 6 -23 -3 -9 -12 -33 -21 -53 -16
-38 -16 -38 8 -38 18 0 27 9 39 43 9 23 21 62 26 87 7 31 7 58 -1 85 -6 22
-10 60 -9 85 0 25 2 60 3 78 2 18 10 37 18 42 8 5 29 10 47 10 17 0 35 5 38
11 4 5 4 22 0 36 -5 21 -10 24 -33 20 -15 -3 -39 -9 -54 -13 -23 -5 -29 -2
-37 17 -6 13 -17 32 -24 42 -8 9 -21 17 -30 17z m-14 -311 c4 1 10 -6 14 -15
3 -8 0 -33 -6 -55 -7 -23 -18 -39 -27 -39 -8 0 -19 11 -24 25 -6 15 -6 34 0
49 5 13 15 26 22 29 7 3 17 6 21 6z"/>
</g>
</svg>
