<?xml version="1.0" standalone="no"?>
<!DOCTYPE svg PUBLIC "-//W3C//DTD SVG 20010904//EN"
 "http://www.w3.org/TR/2001/REC-SVG-20010904/DTD/svg10.dtd">
<svg version="1.0" xmlns="http://www.w3.org/2000/svg"
 width="56.000000pt" height="56.000000pt" viewBox="0 0 56.000000 56.000000"
 preserveAspectRatio="xMidYMid meet">
<metadata>
Created by potrace 1.16, written by Peter Selinger 2001-2019
</metadata>
<g transform="translate(0.000000,56.000000) scale(0.100000,-0.100000)"
fill="#000000" stroke="none">
<path d="M251 560 c-5 0 -11 -6 -14 -14 -3 -8 1 -20 9 -27 8 -7 20 -21 26 -32
7 -14 6 -28 -5 -51 -8 -17 -20 -58 -26 -92 -6 -33 -11 -95 -11 -137 0 -67 -2
-78 -21 -88 -18 -9 -20 -16 -13 -47 4 -21 7 -45 8 -54 0 -13 9 -18 33 -18 24
0 37 7 50 27 14 21 18 50 19 127 1 56 2 131 3 168 1 64 2 67 36 87 22 13 35
28 35 41 0 12 -15 35 -32 51 -18 17 -45 33 -60 36 -16 3 -28 9 -28 14 0 5 -4
9 -9 9z"/>
</g>
</svg>
