<?xml version="1.0" standalone="no"?>
<!DOCTYPE svg PUBLIC "-//W3C//DTD SVG 20010904//EN"
 "http://www.w3.org/TR/2001/REC-SVG-20010904/DTD/svg10.dtd">
<svg version="1.0" xmlns="http://www.w3.org/2000/svg"
 width="56.000000pt" height="56.000000pt" viewBox="0 0 56.000000 56.000000"
 preserveAspectRatio="xMidYMid meet">
<metadata>
Created by potrace 1.16, written by Peter Selinger 2001-2019
</metadata>
<g transform="translate(0.000000,56.000000) scale(0.100000,-0.100000)"
fill="#000000" stroke="none">
<path d="M292 560 c-9 0 -22 -8 -29 -18 -6 -10 -16 -69 -23 -131 -6 -62 -9
-119 -6 -127 3 -8 -5 -24 -19 -36 -14 -12 -25 -32 -25 -45 0 -16 6 -23 18 -23
10 0 27 7 38 15 10 8 29 15 42 15 14 0 23 -6 24 -17 0 -10 0 -29 0 -43 -1 -14
-7 -43 -14 -65 -7 -22 -18 -50 -26 -62 -13 -21 -13 -23 6 -23 16 0 28 16 51
63 16 34 34 79 39 100 8 30 7 40 -5 52 -8 9 -30 22 -49 30 -34 14 -34 14 -34
121 0 106 0 106 27 101 15 -3 36 -1 45 4 10 5 18 18 18 27 0 10 -5 23 -12 30
-7 7 -20 12 -30 12 -10 0 -18 5 -18 10 0 6 -8 10 -18 10z"/>
</g>
</svg>
