<?xml version="1.0" standalone="no"?>
<!DOCTYPE svg PUBLIC "-//W3C//DTD SVG 20010904//EN"
 "http://www.w3.org/TR/2001/REC-SVG-20010904/DTD/svg10.dtd">
<svg version="1.0" xmlns="http://www.w3.org/2000/svg"
 width="128.000000pt" height="128.000000pt" viewBox="0 0 128.000000 128.000000"
 preserveAspectRatio="xMidYMid meet">
<metadata>
Created by potrace 1.16, written by Peter Selinger 2001-2019
</metadata>
<g transform="translate(0.000000,128.000000) scale(0.100000,-0.100000)"
fill="#000000" stroke="none">
<path d="M545 1260 c-7 0 -20 -9 -29 -19 -10 -11 -15 -24 -12 -29 3 -5 25 -17
50 -26 40 -16 44 -20 49 -59 4 -23 4 -55 2 -71 -2 -16 -7 -32 -12 -36 -4 -3
-32 -12 -61 -18 -30 -7 -82 -12 -118 -12 -51 0 -64 -3 -64 -15 0 -9 8 -18 18
-22 9 -3 31 -16 47 -28 17 -12 38 -24 48 -28 9 -4 28 -2 41 3 21 8 24 6 28
-21 3 -20 -3 -40 -19 -61 -13 -18 -23 -37 -23 -42 0 -6 -6 -23 -14 -38 -8 -14
-19 -42 -25 -61 -9 -27 -23 -41 -55 -56 -23 -12 -61 -21 -84 -21 -28 0 -42 -4
-42 -13 0 -8 17 -19 39 -25 36 -11 39 -16 45 -56 4 -24 4 -56 1 -70 -3 -14 -7
-37 -10 -50 -3 -14 -13 -27 -23 -31 -11 -3 -30 -32 -45 -66 -24 -56 -25 -63
-12 -89 8 -15 22 -31 32 -34 13 -5 29 5 60 38 23 25 46 46 50 46 5 0 13 -4 19
-8 6 -4 21 -23 33 -42 11 -19 21 -42 21 -52 0 -9 10 -34 21 -56 21 -40 21 -40
-2 -63 -24 -24 -24 -24 39 -27 57 -3 65 0 82 21 10 13 65 54 121 92 57 38 143
102 191 144 48 41 88 78 88 81 0 3 -13 27 -29 52 -17 26 -41 54 -55 62 -14 9
-37 23 -51 31 -25 15 -25 15 -4 67 11 29 18 62 15 74 -4 14 -1 24 9 28 8 3 15
17 15 31 0 15 -7 28 -17 32 -10 3 -28 15 -40 26 -21 19 -22 19 -65 -11 -24
-17 -68 -51 -98 -76 -30 -25 -61 -46 -68 -46 -7 0 -30 12 -52 26 -22 15 -40
31 -40 36 0 6 8 26 17 46 9 21 32 58 50 84 18 26 33 52 33 58 0 5 8 13 18 18
9 5 49 13 87 16 39 4 78 9 87 12 9 3 22 20 28 39 10 29 8 40 -7 67 -10 18 -28
45 -41 60 -20 22 -30 25 -58 21 -24 -4 -35 -1 -38 8 -2 8 -7 31 -11 52 -6 35
-11 40 -77 72 -39 19 -77 35 -83 35z m183 -261 c23 1 42 -2 42 -6 0 -5 -27
-21 -60 -36 -33 -15 -65 -25 -70 -22 -6 3 -10 12 -10 20 0 8 12 20 28 28 15 8
46 15 70 16z m-246 -379 c4 0 9 -4 13 -9 3 -5 1 -12 -4 -15 -5 -3 -17 -3 -26
0 -13 5 -14 8 -3 15 7 5 16 9 20 9z m303 -3 c5 -2 11 -14 13 -26 2 -13 -7 -52
-19 -87 -23 -64 -23 -64 26 -114 45 -45 48 -51 37 -75 -6 -14 -17 -25 -23 -25
-7 0 -38 -25 -70 -55 -32 -30 -65 -55 -73 -55 -11 0 -16 9 -16 29 0 15 10 41
22 56 14 18 23 47 26 80 2 31 -3 80 -12 119 -13 49 -14 71 -6 86 6 11 27 31
48 45 20 14 41 24 47 22z m-303 -37 c7 0 22 -10 35 -22 13 -12 23 -27 23 -34
0 -7 -10 -20 -22 -28 -12 -9 -28 -16 -35 -16 -7 0 -13 11 -13 24 0 14 -5 28
-10 31 -7 4 -7 13 0 26 6 10 16 19 22 19z m131 -127 c4 -2 7 -28 7 -58 0 -30
-4 -56 -9 -59 -5 -3 -12 -23 -16 -43 -4 -21 -11 -44 -17 -50 -6 -7 -21 -13
-34 -13 -14 0 -32 12 -48 33 -15 19 -26 43 -26 55 0 11 5 24 11 28 6 3 17 22
25 41 11 25 27 39 57 52 23 10 45 17 50 14z m9 -293 c10 0 18 -6 18 -14 0 -8
-14 -26 -31 -40 -17 -14 -35 -26 -40 -26 -5 0 -9 8 -9 17 0 9 10 27 22 40 12
13 30 23 40 23z"/>
</g>
</svg>
