<?xml version="1.0" standalone="no"?>
<!DOCTYPE svg PUBLIC "-//W3C//DTD SVG 20010904//EN"
 "http://www.w3.org/TR/2001/REC-SVG-20010904/DTD/svg10.dtd">
<svg version="1.0" xmlns="http://www.w3.org/2000/svg"
 width="128.000000pt" height="128.000000pt" viewBox="0 0 128.000000 128.000000"
 preserveAspectRatio="xMidYMid meet">
<metadata>
Created by potrace 1.16, written by Peter Selinger 2001-2019
</metadata>
<g transform="translate(0.000000,128.000000) scale(0.100000,-0.100000)"
fill="#000000" stroke="none">
<path d="M235 1280 c-45 0 -45 0 -45 -45 0 -33 4 -47 17 -52 11 -4 25 4 45 27
15 19 28 42 28 52 0 15 -8 18 -45 18z"/>
<path d="M417 1240 c-10 0 -20 -7 -23 -15 -3 -8 -3 -18 0 -23 3 -5 18 -12 34
-15 15 -3 40 -15 55 -27 15 -12 27 -28 27 -35 0 -7 -11 -27 -25 -43 -14 -16
-50 -41 -80 -56 -31 -14 -66 -26 -78 -26 -17 0 -28 10 -40 35 -14 30 -20 34
-35 26 -10 -5 -24 -17 -31 -25 -7 -9 -11 -23 -7 -31 3 -8 12 -15 20 -15 9 0
20 -8 25 -18 6 -12 3 -34 -10 -72 -10 -30 -24 -65 -30 -76 -8 -15 -8 -27 -1
-40 6 -11 19 -28 30 -38 12 -10 26 -16 32 -14 7 2 20 28 31 58 10 30 19 64 19
76 0 11 18 40 41 62 22 23 45 42 50 42 5 0 18 5 29 10 11 6 30 15 43 22 12 6
58 17 102 24 43 7 81 11 84 9 2 -3 -4 -14 -14 -25 -11 -12 -62 -52 -114 -90
-53 -37 -114 -84 -136 -103 -40 -35 -40 -35 -16 -68 18 -24 21 -36 14 -48 -5
-9 -28 -29 -51 -46 -22 -16 -52 -38 -66 -48 -14 -10 -26 -27 -26 -38 0 -12 10
-23 25 -29 18 -7 38 -5 71 6 24 8 68 14 96 12 36 -2 54 -8 62 -21 9 -16 4 -25
-37 -63 -27 -24 -57 -44 -67 -44 -10 0 -31 11 -47 24 -15 12 -47 26 -71 29
-35 4 -44 2 -48 -11 -3 -10 -10 -24 -15 -32 -5 -8 -13 -24 -18 -35 -5 -11 -11
-49 -14 -85 -4 -44 -1 -78 9 -105 7 -22 14 -46 14 -52 0 -7 16 -34 34 -60 19
-27 51 -60 70 -76 19 -15 41 -27 49 -27 7 0 33 13 58 28 24 16 64 48 89 71 25
23 63 59 85 80 23 22 55 42 75 46 19 4 59 21 90 37 30 17 57 33 60 37 3 3 35
21 71 39 36 18 83 35 105 39 21 3 45 10 51 15 9 8 10 16 2 32 -6 11 -21 29
-33 38 -14 12 -39 18 -76 18 -31 0 -61 5 -68 12 -7 7 -8 17 -2 28 5 10 16 37
24 61 8 24 22 70 30 102 14 53 14 61 0 83 -9 13 -24 24 -33 24 -10 0 -26 7
-37 15 -10 8 -25 15 -33 15 -7 0 -47 -33 -88 -72 -41 -40 -83 -87 -94 -105
-12 -18 -30 -38 -41 -44 -15 -8 -29 -6 -61 10 -23 11 -50 22 -60 25 -15 5 -10
13 28 49 34 33 45 51 45 73 0 17 -5 35 -11 41 -7 7 -9 18 -6 26 3 8 38 41 77
74 39 32 85 68 103 81 17 12 39 35 49 50 10 15 18 37 18 48 0 12 -7 27 -15 34
-8 6 -41 14 -73 17 -39 4 -62 2 -66 -6 -4 -6 -14 -11 -22 -11 -8 0 -20 13 -25
29 -6 16 -21 37 -34 45 -13 9 -48 25 -77 36 -29 11 -61 20 -71 20z m400 -520
c6 0 16 -7 23 -15 8 -10 11 -34 8 -69 -2 -30 -16 -78 -32 -110 -15 -30 -24
-60 -21 -66 4 -6 25 -22 46 -36 22 -14 39 -30 37 -36 -3 -7 -40 -33 -84 -60
-43 -26 -85 -48 -92 -48 -7 0 -17 12 -22 26 -6 14 -10 49 -10 77 -1 29 -5 72
-10 97 -6 33 -5 53 6 75 8 17 43 60 77 98 35 37 68 67 74 67z m-247 -240 c3 0
11 -5 18 -12 7 -7 12 -38 12 -69 0 -35 -8 -75 -20 -103 -10 -25 -35 -61 -55
-81 -20 -19 -49 -37 -63 -40 -15 -3 -40 -10 -57 -15 -26 -9 -32 -7 -48 12 -10
13 -26 32 -36 43 -14 15 -20 40 -22 95 -4 67 -2 75 15 78 10 2 31 -5 47 -17
19 -14 43 -21 74 -21 34 0 47 4 52 18 4 9 16 31 27 47 11 17 27 38 35 48 8 9
17 17 21 17z"/>
</g>
</svg>
