<?xml version="1.0" standalone="no"?>
<!DOCTYPE svg PUBLIC "-//W3C//DTD SVG 20010904//EN"
 "http://www.w3.org/TR/2001/REC-SVG-20010904/DTD/svg10.dtd">
<svg version="1.0" xmlns="http://www.w3.org/2000/svg"
 width="128.000000pt" height="128.000000pt" viewBox="0 0 128.000000 128.000000"
 preserveAspectRatio="xMidYMid meet">
<metadata>
Created by potrace 1.16, written by Peter Selinger 2001-2019
</metadata>
<g transform="translate(0.000000,128.000000) scale(0.100000,-0.100000)"
fill="#000000" stroke="none">
<path d="M280 1280 c-36 0 -39 -2 -38 -27 1 -16 0 -35 -3 -43 -3 -10 5 -16 23
-18 23 -3 30 2 43 34 8 20 15 40 15 45 0 5 -18 9 -40 9z"/>
<path d="M588 1279 c-1 0 -13 -11 -24 -25 -13 -15 -20 -33 -17 -44 3 -11 9
-20 13 -20 4 0 13 -13 20 -29 6 -16 17 -54 24 -83 10 -44 15 -52 31 -50 11 2
40 5 65 8 25 2 52 4 60 4 8 1 35 -3 60 -7 41 -8 45 -10 55 -50 5 -23 12 -44
15 -46 3 -2 19 -7 35 -10 17 -3 37 -2 45 3 12 7 11 13 -6 32 -12 13 -24 35
-28 50 -4 19 -11 26 -21 22 -8 -4 -15 -2 -15 4 0 5 -18 21 -40 36 -30 20 -47
25 -68 20 -15 -4 -33 -11 -39 -17 -9 -6 -14 -5 -15 4 -1 8 -2 23 -3 34 -1 11
-3 30 -4 42 0 12 -13 35 -27 52 -14 17 -34 31 -44 31 -9 0 -29 9 -43 20 -14
11 -27 20 -29 19z m24 -67 c6 -6 7 -15 3 -21 -3 -6 -10 -9 -15 -6 -5 3 -6 13
-3 21 4 10 9 12 15 6z m40 -132 c4 0 8 -7 8 -15 0 -8 -4 -15 -9 -15 -6 0 -12
4 -15 9 -3 4 -3 11 1 15 3 3 10 6 15 6z"/>
<path d="M964 1280 c-35 0 -64 -4 -64 -8 0 -5 8 -16 19 -26 10 -9 25 -14 34
-11 8 4 18 2 22 -4 3 -6 14 -11 24 -11 10 0 24 6 30 14 6 7 9 21 5 30 -5 12
-20 16 -70 16z"/>
<path d="M260 1162 c-20 17 -20 17 -19 -25 0 -23 3 -35 6 -27 4 8 12 20 20 25
11 8 10 13 -7 27z"/>
<path d="M566 1050 c-7 0 -19 -6 -25 -14 -10 -12 -8 -17 7 -25 11 -6 22 -7 26
-4 3 3 6 15 6 25 0 10 -6 18 -14 18z"/>
<path d="M298 1040 c-4 0 -8 -9 -8 -19 0 -11 9 -22 19 -26 12 -3 21 -18 24
-38 3 -18 -1 -39 -7 -47 -7 -8 -21 -43 -31 -77 -18 -62 -18 -62 11 -92 16 -17
34 -31 41 -31 7 0 17 9 23 19 5 11 10 30 9 43 0 13 4 42 9 65 5 24 24 60 43
82 19 22 44 43 57 47 12 3 27 15 33 25 7 15 6 21 -5 25 -8 3 -24 1 -35 -6 -12
-6 -21 -15 -21 -20 0 -6 -15 -10 -34 -10 -18 0 -39 7 -46 15 -7 8 -26 21 -43
30 -16 8 -34 15 -39 15z"/>
<path d="M789 980 c-10 0 -19 -7 -19 -15 0 -10 10 -15 29 -15 17 0 32 4 35 9
3 5 -1 12 -10 15 -9 3 -24 6 -35 6z"/>
<path d="M705 960 c-13 0 -28 -7 -32 -15 -5 -8 -36 -24 -68 -36 -33 -11 -64
-27 -68 -35 -4 -7 -23 -21 -42 -30 -19 -9 -35 -22 -35 -29 0 -6 11 -17 24 -23
20 -9 29 -7 50 9 14 11 26 30 27 42 0 22 0 22 11 -1 9 -18 7 -31 -12 -67 -13
-24 -52 -73 -88 -107 -36 -35 -76 -73 -89 -85 -13 -13 -28 -23 -33 -23 -5 0
-14 -9 -20 -19 -5 -11 -10 -24 -10 -30 0 -6 9 -11 20 -11 14 0 20 -7 20 -23 0
-13 -13 -42 -29 -63 -15 -21 -40 -50 -55 -63 -14 -14 -26 -34 -26 -46 0 -12 9
-30 20 -40 20 -18 21 -18 45 5 13 13 29 38 35 56 7 19 16 34 21 34 5 0 9 9 9
20 0 13 7 20 19 20 10 0 21 6 24 14 3 7 19 18 37 24 25 9 32 8 36 -3 3 -8 -10
-48 -30 -89 -20 -41 -36 -81 -36 -90 0 -8 -15 -30 -33 -48 -19 -18 -37 -41
-40 -51 -5 -13 2 -27 21 -45 16 -15 33 -39 40 -55 6 -15 23 -32 36 -38 20 -10
30 -8 55 10 17 12 31 28 31 34 0 7 13 20 30 29 17 9 37 35 48 60 11 24 29 66
40 93 11 28 23 85 26 128 4 66 3 78 -9 73 -8 -3 -15 -2 -15 3 0 4 8 15 18 23
9 8 45 27 80 41 35 15 68 25 73 21 5 -3 9 -20 9 -37 0 -18 -7 -59 -15 -92 -9
-32 -13 -71 -10 -87 4 -15 17 -43 30 -63 24 -35 24 -35 2 -47 -12 -6 -47 -25
-78 -41 -40 -20 -72 -48 -108 -93 -28 -36 -51 -67 -51 -69 0 -3 11 -5 25 -5
15 0 44 18 76 47 29 27 62 57 73 68 13 12 32 19 48 17 14 -2 43 6 64 17 21 12
55 21 74 21 20 0 41 5 48 12 7 7 12 22 12 34 0 12 -9 33 -20 46 -11 14 -37 33
-57 41 -21 9 -49 25 -63 36 -24 19 -24 19 14 96 38 75 38 78 23 110 -13 27
-22 33 -61 38 -25 4 -59 4 -75 1 -16 -4 -40 -17 -52 -30 -12 -13 -31 -24 -42
-24 -11 0 -45 15 -76 34 -31 18 -71 36 -88 39 -26 5 -33 3 -33 -10 0 -9 18
-31 40 -50 26 -22 41 -45 46 -68 4 -24 1 -41 -13 -59 -10 -14 -22 -24 -28 -22
-5 1 -11 15 -12 31 -1 15 -5 35 -8 43 -4 12 -17 13 -60 8 -44 -5 -55 -3 -55 8
0 8 5 18 10 21 6 3 10 19 10 36 0 18 5 29 14 29 8 0 24 13 35 29 12 16 21 39
21 50 0 12 4 21 8 21 4 0 13 -5 20 -12 9 -9 23 1 62 41 27 28 50 56 50 61 0 5
14 30 31 55 27 40 30 50 20 71 -6 14 -11 29 -11 33 0 5 11 12 25 15 14 4 25
11 25 16 0 6 -11 10 -25 10z m-123 -570 c10 0 18 -9 20 -22 2 -13 -2 -45 -10
-73 -8 -27 -27 -75 -42 -106 -16 -30 -35 -61 -44 -68 -9 -8 -16 -20 -16 -27 0
-8 -5 -14 -11 -14 -6 0 -19 4 -29 10 -11 6 -21 26 -25 51 -6 36 -4 44 23 72
16 18 36 44 43 58 8 14 28 46 44 72 17 25 38 47 47 47z"/>
</g>
</svg>
