<?xml version="1.0" standalone="no"?>
<!DOCTYPE svg PUBLIC "-//W3C//DTD SVG 20010904//EN"
 "http://www.w3.org/TR/2001/REC-SVG-20010904/DTD/svg10.dtd">
<svg version="1.0" xmlns="http://www.w3.org/2000/svg"
 width="128.000000pt" height="128.000000pt" viewBox="0 0 128.000000 128.000000"
 preserveAspectRatio="xMidYMid meet">
<metadata>
Created by potrace 1.16, written by Peter Selinger 2001-2019
</metadata>
<g transform="translate(0.000000,128.000000) scale(0.100000,-0.100000)"
fill="#000000" stroke="none">
<path d="M1164 1280 c-28 0 -35 -4 -32 -17 2 -9 18 -26 36 -36 21 -12 41 -17
58 -13 17 5 24 12 22 24 -2 9 -13 18 -26 20 -12 2 -22 8 -22 13 0 5 -16 9 -36
9z"/>
<path d="M734 1258 c-16 -1 -46 -3 -66 -5 -20 -2 -42 -11 -48 -19 -7 -8 -17
-14 -22 -14 -6 0 -39 -20 -75 -45 -52 -36 -69 -44 -91 -38 -15 3 -40 14 -56
24 -16 10 -33 16 -37 13 -5 -3 1 -21 13 -42 11 -20 34 -56 50 -79 23 -34 35
-43 58 -43 27 0 31 5 45 53 8 28 25 63 38 77 12 14 36 33 54 43 17 9 43 17 56
17 14 0 29 5 32 10 3 6 11 10 17 10 6 0 8 -10 4 -27 -4 -14 -20 -45 -35 -67
-16 -23 -56 -69 -90 -104 -34 -35 -75 -68 -91 -74 -19 -6 -43 -29 -65 -63 -31
-45 -35 -60 -35 -114 0 -48 4 -63 17 -68 10 -4 23 2 35 17 10 13 17 29 14 36
-3 7 8 14 26 18 17 3 34 4 37 1 2 -3 -1 -22 -8 -43 -8 -20 -29 -56 -48 -80
-19 -23 -33 -48 -30 -55 2 -6 -2 -24 -9 -39 -10 -20 -13 -68 -10 -193 2 -133
0 -170 -11 -181 -8 -8 -25 -14 -37 -14 -13 0 -36 10 -51 22 -24 19 -41 22
-124 22 -53 1 -98 5 -101 11 -3 5 26 26 63 47 37 20 87 39 110 42 23 2 50 8
60 11 10 4 24 20 33 36 11 22 12 34 4 49 -6 11 -22 23 -35 26 -14 3 -35 6 -47
7 -13 0 -46 -3 -74 -7 -40 -7 -54 -5 -67 8 -12 13 -15 32 -12 89 2 39 4 82 5
95 0 12 0 30 0 40 0 9 2 89 6 177 3 88 10 168 15 177 5 9 9 26 9 37 0 15 -6
21 -23 21 -21 0 -24 -7 -35 -78 -7 -42 -12 -104 -12 -137 0 -33 -4 -109 -10
-170 -5 -60 -11 -135 -13 -165 -2 -30 1 -80 7 -110 10 -52 13 -55 46 -60 22
-3 36 -11 38 -21 2 -11 -15 -27 -51 -48 -34 -19 -61 -44 -73 -66 -17 -31 -17
-37 -4 -45 8 -5 43 -10 77 -10 39 0 90 -9 135 -24 40 -13 99 -36 131 -50 36
-16 75 -26 105 -26 27 0 52 -4 58 -9 5 -5 38 -11 74 -14 36 -2 135 -10 220
-16 85 -6 197 -16 248 -23 83 -9 97 -9 133 7 30 14 39 23 37 39 -2 12 -20 30
-42 42 -31 17 -45 20 -70 13 -17 -5 -73 -11 -124 -14 -51 -2 -97 -7 -102 -10
-5 -3 -12 0 -15 6 -4 6 7 37 25 70 31 60 31 60 25 172 -4 61 -8 172 -10 246
-3 134 -3 134 -34 164 -24 25 -40 31 -79 34 -40 2 -57 -3 -86 -22 -20 -14 -47
-25 -59 -25 -12 0 -35 -7 -51 -15 -15 -8 -39 -15 -52 -15 -16 0 -24 6 -24 18
0 9 17 31 38 48 21 17 52 35 70 39 18 3 45 17 60 29 15 12 43 30 64 39 20 9
44 17 53 17 9 0 25 5 36 10 10 6 19 19 19 29 0 12 -17 29 -46 45 -26 14 -53
26 -60 26 -8 0 -44 -21 -81 -46 -38 -25 -74 -51 -81 -56 -9 -8 -9 -14 -1 -24
6 -8 8 -21 5 -30 -4 -10 -13 -14 -26 -11 -14 4 -20 0 -20 -12 0 -10 -9 -26
-19 -35 -10 -10 -21 -14 -23 -9 -2 4 -4 24 -4 43 1 27 5 35 19 35 10 0 23 8
28 18 9 15 7 16 -15 7 -17 -6 -27 -6 -32 1 -3 6 3 13 14 16 11 3 23 15 26 28
3 13 14 26 24 30 9 3 48 35 87 71 38 36 82 72 97 80 15 8 32 23 38 33 5 11 10
26 10 35 0 8 -15 31 -34 50 -25 27 -41 36 -62 34z m-275 -418 c4 0 10 -3 14
-6 3 -3 3 -12 0 -20 -3 -8 -11 -14 -19 -14 -8 0 -14 2 -14 4 0 2 3 11 6 20 3
9 9 16 13 16z m313 -111 c19 1 33 -7 44 -24 8 -13 13 -29 9 -35 -3 -5 1 -13
10 -16 14 -6 14 -8 0 -24 -13 -14 -14 -44 -9 -211 5 -162 3 -197 -9 -207 -11
-9 -25 -6 -70 19 -31 17 -59 35 -63 40 -3 6 2 19 11 29 12 14 25 18 41 14 19
-5 24 -2 24 14 0 12 -4 23 -9 27 -5 3 -12 1 -16 -5 -3 -5 -13 -10 -20 -10 -9
0 -12 6 -9 15 4 9 0 15 -9 15 -8 0 -20 -12 -25 -27 -10 -28 -10 -28 -11 0 -1
15 4 27 10 27 6 0 9 8 7 18 -2 9 9 27 24 40 16 13 28 27 28 30 0 4 -18 16 -41
26 -22 11 -43 24 -46 29 -3 4 5 19 17 32 14 15 28 21 42 17 16 -4 19 -1 16 19
-2 16 -10 24 -23 25 -11 0 -27 4 -36 8 -8 4 -28 2 -43 -4 -21 -8 -26 -15 -21
-28 4 -9 10 -27 12 -38 3 -12 0 -25 -6 -28 -6 -4 -11 -18 -11 -31 0 -14 9 -29
20 -35 11 -6 20 -19 20 -30 0 -10 -4 -21 -9 -24 -4 -3 -11 -22 -14 -42 -5 -27
-1 -43 15 -65 12 -16 48 -47 80 -69 32 -22 63 -40 68 -40 5 0 23 -13 41 -30
32 -29 32 -30 14 -50 -14 -16 -26 -19 -45 -14 -14 4 -40 6 -59 5 -18 -1 -39 3
-46 9 -7 6 -53 12 -101 13 -49 1 -100 -2 -114 -6 -20 -6 -22 -6 -7 3 9 6 17
18 17 27 0 9 8 25 18 36 11 13 17 35 16 66 0 27 -8 58 -18 74 -10 15 -25 27
-32 27 -8 0 -14 5 -14 10 0 6 6 10 14 10 8 0 16 -5 18 -12 2 -6 10 -8 17 -4 9
6 11 41 7 143 -3 74 -2 141 1 149 3 8 19 14 39 14 18 0 62 14 96 31 35 17 74
35 88 39 14 5 37 9 52 9z m-317 -269 c8 0 15 -4 15 -10 0 -5 -7 -10 -15 -10
-8 0 -15 5 -15 10 0 6 7 10 15 10z m421 -20 c9 0 14 -5 12 -12 -2 -6 -10 -14
-16 -16 -7 -2 -12 3 -12 12 0 9 7 16 16 16z m-630 -60 c2 0 4 -10 4 -22 0 -16
-3 -19 -11 -11 -6 6 -8 16 -5 22 4 6 9 11 12 11z"/>
<path d="M750 638 c-9 1 -19 0 -22 -3 -3 -3 -1 -17 6 -30 6 -14 17 -25 24 -25
9 0 12 10 10 27 -2 15 -10 29 -18 31z"/>
<path d="M1201 1168 c-44 3 -44 3 -27 -24 14 -20 17 -38 12 -78 -5 -35 -3 -56
6 -68 7 -9 23 -19 36 -23 15 -4 24 -2 28 10 4 10 -2 25 -16 40 -21 22 -21 24
-5 48 9 15 15 40 13 59 -3 31 -5 33 -47 36z"/>
<path d="M1242 920 c-4 0 -22 -15 -39 -34 -18 -18 -33 -38 -33 -45 0 -6 6 -11
13 -11 6 0 27 16 45 36 18 19 30 39 27 45 -4 5 -9 9 -13 9z"/>
<path d="M1130 797 c-9 2 -21 -2 -28 -9 -6 -6 -12 -34 -12 -61 0 -40 3 -50 20
-54 11 -3 21 -10 21 -17 1 -6 2 -42 4 -79 1 -37 7 -73 13 -79 8 -8 19 -3 39
18 15 16 39 37 53 46 20 13 23 19 13 29 -10 10 -16 10 -25 1 -7 -7 -20 -12
-29 -12 -13 0 -18 11 -21 46 -2 29 1 49 10 56 7 6 17 20 23 30 8 15 4 20 -31
34 -26 11 -39 22 -38 32 2 9 -4 18 -12 19z"/>
</g>
</svg>
