<?xml version="1.0" standalone="no"?>
<!DOCTYPE svg PUBLIC "-//W3C//DTD SVG 20010904//EN"
 "http://www.w3.org/TR/2001/REC-SVG-20010904/DTD/svg10.dtd">
<svg version="1.0" xmlns="http://www.w3.org/2000/svg"
 width="128.000000pt" height="128.000000pt" viewBox="0 0 128.000000 128.000000"
 preserveAspectRatio="xMidYMid meet">
<metadata>
Created by potrace 1.16, written by Peter Selinger 2001-2019
</metadata>
<g transform="translate(0.000000,128.000000) scale(0.100000,-0.100000)"
fill="#000000" stroke="none">
<path d="M430 1254 c-6 6 -12 2 -16 -8 -4 -10 -1 -42 6 -72 8 -34 21 -59 32
-65 11 -6 18 -18 17 -27 -1 -9 -1 -29 0 -44 1 -16 9 -32 21 -38 15 -8 23 -7
37 7 10 10 50 33 88 51 39 18 77 37 85 42 8 5 30 16 48 25 18 8 45 16 59 17
14 2 28 -2 30 -8 2 -6 -18 -35 -45 -66 -27 -31 -69 -86 -95 -124 -25 -38 -57
-80 -71 -93 -14 -14 -26 -28 -26 -33 0 -4 7 -8 15 -8 8 0 15 -8 15 -17 0 -15
-2 -16 -10 -3 -8 12 -13 11 -33 -8 -13 -13 -36 -48 -51 -79 -20 -39 -25 -58
-17 -66 8 -8 32 0 86 28 58 30 77 37 87 27 9 -9 8 -21 -2 -54 -8 -24 -25 -65
-38 -93 -13 -27 -39 -68 -57 -90 -17 -22 -39 -53 -47 -70 -10 -19 -16 -62 -17
-115 -1 -47 -5 -96 -8 -108 -5 -20 -10 -23 -32 -18 -14 4 -44 9 -66 12 -22 4
-44 12 -50 18 -5 7 -21 20 -35 29 -14 10 -43 17 -71 17 -26 0 -61 3 -78 6 -17
4 -31 12 -31 20 0 7 25 29 55 50 34 22 66 54 81 80 21 36 26 57 26 114 0 53
-5 79 -21 106 -17 28 -21 52 -21 114 0 57 6 91 20 126 17 39 19 53 10 75 -7
15 -20 36 -31 48 -10 11 -25 18 -33 15 -8 -3 -16 -22 -19 -42 -3 -20 -10 -57
-16 -82 -6 -25 -15 -70 -22 -100 -6 -30 -11 -82 -11 -114 1 -33 9 -79 18 -102
11 -29 14 -56 10 -81 -4 -21 -14 -54 -23 -74 -9 -19 -43 -55 -74 -80 -44 -33
-58 -50 -58 -70 -1 -15 6 -32 14 -39 9 -7 33 -12 53 -12 22 1 68 -11 112 -29
41 -17 100 -42 130 -54 30 -13 78 -27 105 -30 28 -4 64 -16 82 -26 24 -15 51
-20 121 -20 67 -1 96 3 113 14 19 14 24 14 36 2 11 -12 51 -14 200 -11 187 3
187 3 206 28 13 18 18 34 13 51 -3 13 -15 35 -25 48 -20 24 -20 24 -61 1 -23
-13 -65 -28 -93 -33 -29 -6 -67 -13 -85 -16 -19 -3 -38 0 -47 7 -8 7 -15 19
-15 28 0 8 -7 24 -17 34 -15 17 -15 18 10 18 16 0 28 7 31 18 2 9 7 37 11 62
3 25 11 68 17 95 5 28 15 59 21 70 6 11 16 55 22 98 11 71 10 79 -6 87 -10 6
-25 7 -35 3 -10 -4 -21 0 -28 9 -6 8 -21 20 -33 26 -12 7 -31 12 -42 12 -12 0
-21 6 -21 13 0 6 22 38 49 71 27 32 51 70 54 85 3 14 1 34 -4 43 -5 10 -21 21
-35 24 -18 5 -34 0 -54 -15 -16 -11 -36 -21 -44 -21 -8 0 -18 -4 -21 -10 -3
-5 -27 -19 -52 -30 -31 -13 -50 -17 -56 -11 -7 7 -1 23 16 48 14 21 80 94 146
163 76 80 120 133 121 147 0 13 -14 33 -37 52 -21 17 -44 31 -52 31 -7 0 -35
-13 -61 -29 -27 -16 -66 -36 -88 -43 -22 -8 -55 -25 -73 -38 -18 -14 -41 -33
-51 -42 -10 -10 -28 -20 -41 -23 -21 -6 -28 1 -58 52 -18 32 -39 69 -47 83 -7
14 -17 29 -22 34z m430 -658 c12 -1 15 -17 13 -81 -1 -44 -5 -102 -8 -130 -4
-27 -8 -61 -10 -75 -2 -14 -4 -28 -4 -32 -1 -5 -9 -8 -20 -8 -10 0 -24 7 -31
15 -7 8 -17 15 -22 15 -6 0 -7 -14 -3 -32 4 -18 19 -55 34 -83 15 -27 30 -58
34 -67 4 -12 -3 -21 -24 -32 -20 -10 -36 -12 -47 -6 -9 4 -51 14 -92 21 -41 7
-85 16 -97 20 -13 5 -23 13 -23 20 0 6 14 42 31 81 17 39 47 96 66 127 19 31
44 68 54 83 10 15 19 31 19 36 0 4 26 35 58 69 31 34 64 60 72 59z"/>
</g>
</svg>
