<?xml version="1.0" standalone="no"?>
<!DOCTYPE svg PUBLIC "-//W3C//DTD SVG 20010904//EN"
 "http://www.w3.org/TR/2001/REC-SVG-20010904/DTD/svg10.dtd">
<svg version="1.0" xmlns="http://www.w3.org/2000/svg"
 width="128.000000pt" height="128.000000pt" viewBox="0 0 128.000000 128.000000"
 preserveAspectRatio="xMidYMid meet">
<metadata>
Created by potrace 1.16, written by Peter Selinger 2001-2019
</metadata>
<g transform="translate(0.000000,128.000000) scale(0.100000,-0.100000)"
fill="#000000" stroke="none">
<path d="M802 1241 c-20 20 -20 20 -42 -8 -12 -15 -34 -35 -48 -43 -15 -8 -52
-42 -83 -75 -31 -33 -59 -68 -62 -77 -4 -10 -10 -18 -15 -18 -5 0 -26 20 -46
45 -21 25 -46 45 -57 45 -13 0 -19 -7 -19 -23 0 -12 4 -37 9 -55 7 -23 6 -41
-2 -59 -10 -23 -8 -28 18 -49 17 -14 36 -29 43 -35 10 -8 10 -14 1 -25 -6 -8
-22 -14 -36 -14 -14 0 -37 -13 -54 -29 -17 -17 -29 -40 -29 -55 0 -15 8 -30
19 -36 11 -5 27 -10 35 -10 8 0 31 14 49 30 19 16 43 30 53 30 11 0 26 4 34
10 9 5 19 5 27 -2 8 -6 11 -20 7 -32 -3 -12 -24 -59 -46 -105 -22 -46 -49
-123 -60 -170 -11 -47 -25 -106 -32 -131 -10 -36 -17 -46 -36 -49 -14 -1 -50
2 -80 9 -30 6 -68 15 -85 19 -16 4 -31 14 -33 22 -2 10 12 22 40 35 24 10 62
34 86 53 23 20 42 39 42 45 0 5 -22 33 -50 62 -50 53 -50 53 -50 123 0 64 -3
73 -30 104 -17 19 -30 41 -30 48 0 7 12 25 26 39 14 14 36 42 50 63 13 21 24
48 24 61 0 13 -7 40 -15 59 -8 20 -25 41 -36 48 -12 6 -37 9 -55 6 -24 -4 -40
0 -58 14 -14 11 -30 17 -36 14 -5 -3 -10 -15 -10 -25 0 -10 27 -43 61 -73 60
-54 60 -56 51 -91 -6 -20 -20 -48 -31 -62 -12 -15 -21 -32 -21 -39 0 -6 -9
-20 -19 -29 -11 -10 -22 -29 -26 -43 -3 -14 -1 -31 5 -37 6 -6 32 -16 58 -21
47 -10 47 -10 47 -92 0 -71 3 -84 23 -105 22 -25 22 -25 -25 -54 -27 -17 -76
-47 -110 -67 -33 -20 -64 -37 -68 -37 -4 0 -20 -9 -36 -21 -17 -12 -29 -28
-27 -37 3 -14 22 -16 128 -17 125 -1 125 -1 245 -48 66 -26 125 -47 131 -47 6
0 17 -6 23 -14 7 -8 38 -22 69 -32 31 -9 77 -27 103 -40 25 -12 63 -25 85 -29
21 -4 68 -16 103 -26 35 -10 88 -19 118 -19 31 0 84 -5 119 -12 48 -9 70 -9
89 0 20 9 25 19 25 51 0 37 -1 39 -41 45 -22 4 -62 4 -88 0 -32 -4 -58 -1 -85
10 -21 9 -45 16 -53 16 -9 0 -35 12 -59 27 -24 16 -43 34 -44 41 0 8 14 46 32
85 20 45 31 87 31 112 -1 22 -5 105 -8 184 -7 143 -7 143 -47 184 -26 27 -49
41 -66 42 -21 0 -28 5 -29 25 -2 14 6 36 17 49 15 17 27 22 47 18 14 -3 60 1
102 8 49 9 80 20 88 31 7 10 12 23 10 29 -2 5 -18 20 -37 33 -18 12 -47 22
-65 22 -17 0 -54 -11 -81 -25 -27 -14 -55 -25 -61 -25 -7 0 -13 6 -13 13 0 6
17 30 38 52 21 22 53 52 70 68 18 15 32 31 32 37 0 5 -21 25 -46 45 -26 19
-53 35 -60 35 -7 0 -22 9 -32 21z m-65 -81 c10 0 29 -7 41 -16 12 -8 22 -21
22 -29 0 -7 -10 -29 -22 -49 -15 -23 -31 -35 -45 -36 -15 0 -28 -11 -38 -30
-9 -16 -19 -30 -24 -30 -5 0 -11 -9 -14 -20 -3 -11 -12 -20 -21 -20 -9 0 -16
8 -16 19 0 11 4 23 10 26 5 3 16 20 24 38 8 18 26 58 39 90 18 39 32 57 44 57z
m-83 -260 c8 0 18 -5 21 -10 4 -6 4 -18 1 -27 -5 -12 -9 -13 -21 -3 -8 7 -15
19 -15 26 0 8 6 14 14 14z m101 -163 c80 -2 80 -2 83 -60 3 -59 3 -59 -30 -57
-18 1 -49 2 -69 1 -20 -1 -46 -9 -58 -18 -17 -14 -23 -32 -27 -85 -4 -59 -1
-75 25 -130 16 -35 41 -74 56 -88 15 -14 42 -46 61 -72 32 -45 33 -48 14 -58
-10 -5 -24 -10 -30 -10 -6 0 -42 18 -81 40 -39 22 -82 40 -95 40 -14 0 -40 15
-60 33 -36 33 -36 33 -7 63 16 16 34 38 40 49 5 11 10 36 11 55 1 19 7 71 13
115 6 44 18 99 27 123 8 23 22 47 31 52 9 5 52 9 96 7z m19 -197 c23 0 50 -6
60 -13 11 -8 22 -34 27 -66 5 -35 4 -64 -4 -89 -7 -20 -19 -37 -27 -37 -8 0
-36 34 -62 75 -26 41 -51 81 -54 88 -3 7 -1 19 6 27 7 9 29 15 54 15z"/>
<path d="M1271 1040 c-6 0 -25 -13 -43 -30 -18 -16 -36 -30 -40 -30 -4 0 -12
-10 -19 -21 -11 -21 -10 -22 25 -16 19 3 47 14 60 24 16 11 25 28 26 46 0 15
-4 27 -9 27z"/>
<path d="M1257 700 c-13 0 -32 -9 -42 -20 -9 -10 -15 -26 -12 -35 4 -9 19 -15
42 -15 33 0 35 2 35 35 0 30 -3 35 -23 35z"/>
<path d="M1261 380 c-11 0 -27 -10 -35 -22 -9 -12 -16 -28 -16 -34 0 -6 7 -17
15 -24 8 -6 23 -9 35 -5 16 5 20 15 20 46 0 32 -3 39 -19 39z"/>
</g>
</svg>
