<?xml version="1.0" standalone="no"?>
<!DOCTYPE svg PUBLIC "-//W3C//DTD SVG 20010904//EN"
 "http://www.w3.org/TR/2001/REC-SVG-20010904/DTD/svg10.dtd">
<svg version="1.0" xmlns="http://www.w3.org/2000/svg"
 width="128.000000pt" height="128.000000pt" viewBox="0 0 128.000000 128.000000"
 preserveAspectRatio="xMidYMid meet">
<metadata>
Created by potrace 1.16, written by Peter Selinger 2001-2019
</metadata>
<g transform="translate(0.000000,128.000000) scale(0.100000,-0.100000)"
fill="#000000" stroke="none">
<path d="M686 1220 c-8 0 -18 -5 -21 -10 -4 -6 -1 -17 5 -25 7 -8 16 -12 21
-9 5 3 9 14 9 25 0 10 -6 19 -14 19z"/>
<path d="M632 1160 c-4 0 -12 -4 -18 -8 -6 -4 -19 -23 -29 -42 -10 -19 -21
-37 -25 -40 -4 -3 -12 -20 -18 -37 -10 -30 -9 -33 8 -33 13 0 22 9 26 25 3 14
14 31 24 38 9 6 25 27 34 45 9 18 14 37 11 42 -3 6 -9 10 -13 10z"/>
<path d="M770 1060 c-11 0 -24 -12 -31 -29 -7 -17 -21 -32 -30 -34 -9 -2 -18
-16 -21 -31 -4 -17 -1 -26 8 -26 7 0 19 3 28 6 9 3 16 13 16 21 0 8 14 28 31
44 17 16 28 33 24 39 -3 5 -15 10 -25 10z"/>
<path d="M247 1000 c-7 0 -20 -7 -30 -14 -12 -9 -19 -29 -20 -57 -2 -39 1 -44
21 -47 14 -2 24 3 28 15 3 10 11 30 18 44 9 17 10 32 4 43 -5 9 -14 16 -21 16z"/>
<path d="M959 1000 c-11 0 -22 -6 -25 -14 -3 -8 -4 -27 -2 -43 2 -16 10 -29
20 -31 9 -2 22 6 28 18 7 12 9 33 6 46 -4 15 -14 24 -27 24z"/>
<path d="M617 810 c-8 0 -20 -7 -27 -15 -7 -8 -10 -22 -6 -30 3 -8 12 -15 19
-15 8 0 20 7 27 15 7 8 10 22 6 30 -3 8 -12 15 -19 15z"/>
<path d="M948 798 c-9 2 -19 -1 -22 -7 -3 -5 -3 -16 0 -25 3 -9 15 -16 26 -16
14 0 19 6 16 22 -2 13 -10 24 -20 26z"/>
<path d="M213 790 c-24 0 -34 -8 -53 -42 -13 -24 -23 -53 -22 -66 1 -13 -5
-34 -14 -48 -9 -13 -18 -46 -20 -72 -2 -26 -5 -73 -8 -104 -2 -31 -7 -61 -10
-67 -4 -6 0 -24 8 -40 10 -18 13 -41 10 -60 -5 -24 -3 -31 10 -31 9 0 16 5 16
10 0 6 4 10 9 10 5 0 11 -10 13 -22 2 -18 11 -24 36 -26 17 -2 32 -7 32 -12 0
-5 -9 -12 -20 -15 -11 -3 -20 -12 -20 -19 0 -6 5 -17 11 -23 7 -7 9 -19 6 -27
-4 -9 -15 -16 -26 -16 -11 0 -23 -5 -26 -10 -3 -6 8 -33 26 -60 32 -49 32 -49
83 -45 28 2 66 7 84 11 18 3 38 16 43 27 7 11 8 41 4 72 -6 52 -6 53 34 87 23
19 41 43 41 53 0 10 -8 24 -17 31 -17 12 -16 13 4 14 12 0 28 8 35 19 7 10 13
40 13 66 0 27 -5 50 -11 52 -7 2 -19 -3 -28 -12 -10 -10 -14 -25 -10 -40 4
-17 1 -25 -13 -29 -10 -3 -31 -33 -48 -67 -16 -33 -42 -72 -58 -85 -16 -13
-36 -24 -46 -24 -10 0 -25 8 -34 18 -11 12 -17 36 -17 66 0 26 -5 56 -10 67
-6 10 -12 42 -14 71 -1 28 3 72 11 97 8 25 13 76 11 113 -2 52 2 71 15 86 16
17 16 21 2 32 -9 8 -13 21 -9 36 5 21 3 24 -23 24z"/>
<path d="M910 670 c-3 -1 -13 -5 -22 -11 -10 -5 -18 -19 -18 -30 0 -16 6 -20
26 -17 15 2 32 11 38 21 8 14 8 20 -4 27 -8 5 -17 10 -20 10z"/>
<path d="M1093 643 c-5 2 -14 2 -20 0 -7 -3 -13 -9 -13 -14 0 -5 9 -9 20 -9
11 0 20 4 20 9 0 6 -3 12 -7 14z"/>
<path d="M1190 595 c-6 3 -13 -1 -16 -9 -3 -8 -3 -20 1 -26 3 -5 10 -10 16
-10 5 0 9 9 9 19 0 11 -5 23 -10 26z"/>
<path d="M550 585 c-6 4 -26 -10 -45 -31 -19 -21 -35 -43 -35 -49 0 -7 8 -19
18 -28 10 -10 26 -17 35 -17 11 0 17 8 17 24 0 14 5 28 10 31 6 3 10 19 10 35
0 16 -5 32 -10 35z"/>
<path d="M1030 590 c-13 0 -20 -5 -17 -12 2 -7 10 -13 17 -13 7 0 15 6 18 13
2 7 -5 12 -18 12z"/>
<path d="M966 580 c-18 0 -38 -6 -44 -13 -6 -6 -13 -24 -17 -40 -6 -23 -4 -27
14 -27 12 0 35 15 52 32 16 18 29 36 29 40 0 5 -15 8 -34 8z"/>
<path d="M1186 530 c-1 0 -12 -10 -24 -23 -12 -13 -22 -29 -22 -36 0 -7 4 -9
10 -6 5 3 19 1 31 -6 17 -9 23 -8 30 2 5 8 9 24 9 35 0 12 -7 25 -16 28 -9 3
-17 6 -18 6z"/>
<path d="M806 510 c-3 0 -8 -5 -11 -10 -4 -6 -5 -30 -3 -53 3 -39 1 -42 -25
-45 -15 -2 -27 -7 -27 -12 0 -5 -9 -18 -20 -28 -12 -11 -22 -32 -23 -47 -1
-16 5 -32 14 -38 12 -7 23 -5 42 9 15 10 27 27 27 36 0 9 4 19 9 22 5 3 12 22
15 42 5 25 16 41 37 52 16 9 29 23 29 29 0 7 -13 19 -30 28 -16 8 -31 15 -34
15z"/>
<path d="M1199 435 c-6 6 -9 6 -10 0 -1 -6 0 -18 1 -28 1 -16 -1 -17 -20 -7
-18 10 -26 8 -43 -8 -12 -10 -30 -22 -39 -25 -10 -4 -18 -10 -18 -15 0 -4 6
-15 13 -24 6 -9 29 -18 50 -21 32 -5 43 -2 63 18 21 21 24 31 18 62 -3 21 -10
42 -15 48z"/>
<path d="M971 280 c-15 0 -35 -8 -44 -18 -10 -10 -17 -31 -17 -45 0 -18 5 -27
15 -27 9 0 27 7 40 16 14 9 21 22 18 30 -3 7 2 17 11 20 9 3 13 10 10 15 -3 5
-18 9 -33 9z"/>
<path d="M1021 68 c-3 0 -24 -4 -46 -7 -22 -4 -56 -14 -75 -23 -19 -9 -44 -20
-55 -25 -12 -5 27 -9 104 -11 82 -2 128 1 137 9 8 6 11 15 8 20 -3 5 -16 9
-30 9 -14 0 -27 7 -30 15 -4 8 -9 14 -13 13z"/>
</g>
</svg>
