<?xml version="1.0" standalone="no"?>
<!DOCTYPE svg PUBLIC "-//W3C//DTD SVG 20010904//EN"
 "http://www.w3.org/TR/2001/REC-SVG-20010904/DTD/svg10.dtd">
<svg version="1.0" xmlns="http://www.w3.org/2000/svg"
 width="128.000000pt" height="128.000000pt" viewBox="0 0 128.000000 128.000000"
 preserveAspectRatio="xMidYMid meet">
<metadata>
Created by potrace 1.16, written by Peter Selinger 2001-2019
</metadata>
<g transform="translate(0.000000,128.000000) scale(0.100000,-0.100000)"
fill="#000000" stroke="none">
<path d="M725 1280 c-7 0 -17 -9 -20 -20 -4 -11 -24 -41 -45 -65 -22 -25 -44
-62 -50 -83 -5 -20 -10 -46 -10 -56 0 -11 -9 -30 -21 -42 -11 -12 -25 -37 -29
-56 -5 -18 -18 -67 -29 -108 -16 -56 -19 -90 -15 -135 4 -34 15 -72 26 -88 11
-15 25 -27 32 -27 6 0 35 -22 64 -48 43 -40 52 -54 52 -83 0 -19 -9 -67 -20
-108 -11 -40 -25 -80 -31 -87 -6 -7 -11 -41 -11 -75 0 -58 -1 -60 -21 -54 -12
3 -29 7 -37 8 -12 2 -14 -9 -12 -54 2 -32 -1 -67 -8 -79 -11 -21 -11 -21 86
-18 97 3 97 3 112 46 7 23 22 47 33 52 12 7 19 21 19 38 0 15 8 39 17 52 10
14 21 50 26 80 5 30 8 69 8 85 0 17 -2 55 -4 85 -3 30 -12 71 -21 90 -9 19
-25 51 -36 71 -10 20 -34 48 -52 63 -18 15 -41 40 -50 54 -10 15 -24 39 -32
53 -13 23 -14 36 -2 97 7 39 23 83 35 98 11 15 21 38 21 51 0 13 7 37 15 53
10 20 13 42 9 70 -5 29 -2 47 11 66 10 16 14 35 11 50 -4 13 -13 24 -21 24z"/>
<path d="M435 310 c-9 0 -18 -7 -22 -16 -3 -8 -3 -45 1 -82 4 -36 12 -72 18
-79 6 -7 22 -13 37 -13 14 0 31 4 37 8 6 4 14 22 18 41 3 19 4 48 0 65 -3 21
-17 39 -40 54 -18 12 -41 22 -49 22z"/>
</g>
</svg>
