<?xml version="1.0" standalone="no"?>
<!DOCTYPE svg PUBLIC "-//W3C//DTD SVG 20010904//EN"
 "http://www.w3.org/TR/2001/REC-SVG-20010904/DTD/svg10.dtd">
<svg version="1.0" xmlns="http://www.w3.org/2000/svg"
 width="128.000000pt" height="128.000000pt" viewBox="0 0 128.000000 128.000000"
 preserveAspectRatio="xMidYMid meet">
<metadata>
Created by potrace 1.16, written by Peter Selinger 2001-2019
</metadata>
<g transform="translate(0.000000,128.000000) scale(0.100000,-0.100000)"
fill="#000000" stroke="none">
<path d="M474 1280 c-105 0 -105 0 -120 -35 -10 -26 -12 -41 -4 -55 5 -10 10
-30 10 -43 0 -14 -7 -30 -15 -37 -8 -7 -15 -18 -15 -24 0 -6 9 -19 20 -29 11
-9 20 -28 20 -42 0 -17 -9 -29 -30 -40 -16 -9 -30 -20 -30 -25 0 -5 7 -16 16
-25 11 -11 25 -14 44 -10 25 5 32 1 54 -32 14 -21 26 -33 26 -28 0 6 5 17 10
25 7 12 13 11 35 -10 27 -25 27 -25 47 0 16 20 19 32 12 65 -5 22 -8 87 -8
145 0 76 5 118 17 148 9 23 17 45 17 47 0 3 -47 5 -106 5z m-79 -170 c7 0 18
-6 24 -14 10 -12 8 -17 -8 -25 -11 -6 -24 -11 -30 -11 -6 0 -11 8 -11 18 0 10
3 22 7 25 3 4 12 7 18 7z"/>
<path d="M407 850 c-13 0 -28 -5 -35 -12 -7 -7 -12 -17 -12 -24 0 -6 -9 -23
-20 -37 -17 -21 -20 -35 -15 -74 3 -26 7 -117 9 -202 3 -151 3 -154 28 -172
14 -10 37 -37 53 -59 15 -22 32 -40 37 -40 5 0 35 -18 66 -41 31 -22 64 -53
72 -68 8 -16 29 -40 46 -55 18 -14 42 -26 54 -26 12 0 31 -5 42 -11 16 -9 24
-7 36 5 14 14 14 21 4 48 -8 21 -8 36 -2 42 7 7 14 6 21 -1 6 -6 12 -30 13
-52 1 -24 10 -49 19 -59 16 -15 20 -15 45 -2 15 9 36 31 46 51 13 24 17 44 12
63 -4 16 -23 42 -42 59 -18 17 -34 36 -34 43 0 7 4 15 10 19 5 3 18 0 29 -7
15 -9 23 -10 32 -1 8 8 5 19 -12 43 -23 30 -26 31 -75 25 -45 -5 -52 -4 -56
13 -4 14 -16 21 -42 24 -20 2 -42 0 -49 -4 -6 -4 -24 -8 -39 -8 -17 0 -28 5
-28 14 0 7 7 19 15 26 8 7 15 23 15 35 0 13 -7 26 -15 29 -9 3 -23 23 -31 43
-8 21 -22 53 -31 72 -11 25 -13 46 -7 90 5 31 9 63 9 71 0 9 -9 15 -24 15 -19
0 -26 7 -33 33 -5 19 -15 32 -24 32 -11 0 -15 -8 -12 -32 2 -24 -1 -34 -13
-36 -9 -1 -20 8 -27 23 -7 14 -12 44 -12 65 0 35 -3 40 -23 40z"/>
</g>
</svg>
