<?xml version="1.0" standalone="no"?>
<!DOCTYPE svg PUBLIC "-//W3C//DTD SVG 20010904//EN"
 "http://www.w3.org/TR/2001/REC-SVG-20010904/DTD/svg10.dtd">
<svg version="1.0" xmlns="http://www.w3.org/2000/svg"
 width="128.000000pt" height="128.000000pt" viewBox="0 0 128.000000 128.000000"
 preserveAspectRatio="xMidYMid meet">
<metadata>
Created by potrace 1.16, written by Peter Selinger 2001-2019
</metadata>
<g transform="translate(0.000000,128.000000) scale(0.100000,-0.100000)"
fill="#000000" stroke="none">
<path d="M755 1280 c-38 0 -45 -3 -45 -20 0 -13 7 -20 19 -20 10 0 24 -7 31
-15 7 -8 18 -15 26 -15 7 0 16 5 19 11 4 5 4 21 1 35 -6 21 -12 24 -51 24z"/>
<path d="M647 1230 c-8 0 -24 -9 -36 -19 -16 -14 -21 -26 -16 -40 3 -12 11
-21 16 -21 5 0 18 9 29 20 11 11 20 29 20 40 0 11 -6 20 -13 20z"/>
<path d="M579 1076 c-33 4 -48 2 -57 -8 -8 -10 -9 -24 -2 -49 6 -18 10 -43 10
-55 0 -12 -8 -24 -17 -26 -11 -3 -23 -23 -32 -51 -13 -45 -12 -48 14 -79 27
-32 28 -33 7 -36 -15 -2 -25 -14 -32 -40 -5 -20 -10 -47 -10 -60 0 -12 8 -35
17 -50 9 -15 28 -37 42 -49 15 -12 31 -22 37 -23 7 0 14 -9 17 -21 5 -17 9
-19 26 -10 11 6 23 11 27 11 5 0 3 -5 -3 -11 -8 -8 -7 -21 4 -47 8 -21 25 -42
41 -50 14 -6 32 -12 39 -12 8 0 13 12 13 29 0 17 -4 33 -10 36 -5 3 -7 18 -4
34 4 21 1 30 -11 35 -9 3 -21 4 -26 0 -5 -3 -9 6 -9 20 0 14 -8 33 -18 43 -10
10 -24 37 -32 60 -7 24 -21 45 -31 48 -11 4 -21 20 -25 40 -4 21 0 53 11 85 9
28 18 68 19 88 1 20 6 44 11 52 6 8 15 31 22 50 7 19 11 36 9 37 -1 2 -23 6
-47 9z"/>
<path d="M668 380 c-4 0 -14 -13 -23 -30 -8 -16 -15 -38 -15 -50 0 -13 -9 -24
-25 -30 -14 -5 -25 -12 -25 -15 0 -4 9 -4 19 0 13 4 23 0 30 -12 10 -16 14
-15 41 16 16 19 32 48 36 64 5 23 2 34 -12 44 -10 7 -21 13 -26 13z"/>
<path d="M581 220 c-4 0 -15 -6 -26 -13 -10 -8 -15 -19 -11 -25 4 -7 14 -12
22 -12 10 0 14 -13 14 -45 0 -39 -4 -47 -24 -55 -13 -5 -26 -15 -28 -22 -3 -7
-20 -13 -39 -13 -24 0 -35 -5 -37 -17 -3 -15 4 -18 50 -18 48 0 55 3 73 31 11
16 19 34 18 39 -2 5 9 21 23 35 20 20 25 33 22 63 -2 28 -7 36 -20 34 -9 -1
-19 2 -23 8 -3 5 -10 10 -14 10z"/>
</g>
</svg>
