<?xml version="1.0" standalone="no"?>
<!DOCTYPE svg PUBLIC "-//W3C//DTD SVG 20010904//EN"
 "http://www.w3.org/TR/2001/REC-SVG-20010904/DTD/svg10.dtd">
<svg version="1.0" xmlns="http://www.w3.org/2000/svg"
 width="128.000000pt" height="128.000000pt" viewBox="0 0 128.000000 128.000000"
 preserveAspectRatio="xMidYMid meet">
<metadata>
Created by potrace 1.16, written by Peter Selinger 2001-2019
</metadata>
<g transform="translate(0.000000,128.000000) scale(0.100000,-0.100000)"
fill="#000000" stroke="none">
<path d="M629 1277 c-4 2 -9 -3 -13 -12 -3 -9 -6 -25 -6 -35 0 -10 14 -30 30
-43 21 -18 30 -35 30 -56 0 -16 -4 -32 -9 -35 -4 -3 -12 -20 -16 -38 -3 -18
-9 -62 -11 -97 -3 -35 -12 -78 -20 -94 -9 -16 -14 -41 -11 -54 2 -14 -4 -48
-15 -76 -10 -29 -18 -71 -16 -93 1 -28 -4 -47 -15 -58 -9 -10 -19 -29 -23 -44
-3 -15 -9 -34 -15 -42 -5 -8 -20 -39 -34 -69 -14 -29 -25 -60 -25 -67 0 -8
-11 -24 -25 -36 -14 -12 -25 -30 -25 -40 0 -10 -8 -30 -17 -44 -10 -16 -19
-59 -23 -112 -4 -48 -5 -92 -3 -99 3 -7 20 -17 39 -23 18 -6 38 -9 43 -6 5 3
18 24 30 46 12 22 21 47 21 55 0 8 11 35 25 61 14 26 25 58 25 71 0 13 8 27
17 30 11 4 22 -1 31 -15 8 -12 20 -22 27 -22 7 0 25 -13 38 -30 14 -16 33 -30
42 -30 9 0 21 -13 26 -30 6 -16 12 -30 13 -30 1 0 28 -5 60 -11 43 -8 61 -7
72 2 8 6 14 23 14 38 0 14 -13 49 -28 76 -24 43 -32 50 -58 50 -22 0 -38 9
-56 30 -24 28 -28 29 -52 16 -14 -8 -26 -19 -25 -25 1 -6 1 -17 0 -23 0 -7 -5
-13 -11 -13 -5 0 -10 9 -10 19 0 11 5 23 10 26 6 3 10 21 10 38 0 20 -8 39
-20 50 -14 11 -20 29 -20 55 0 21 5 43 10 48 6 6 19 41 30 78 10 37 17 80 14
95 -5 21 1 35 21 57 21 23 25 35 21 60 -4 18 0 46 9 67 8 19 19 39 25 42 6 4
8 20 5 39 -4 21 1 53 14 91 12 33 21 65 21 72 0 7 -20 44 -46 83 -32 50 -56
75 -82 87 -20 9 -40 18 -43 20z m-39 -747 c6 0 10 -3 10 -7 0 -5 -5 -15 -10
-23 -8 -12 -10 -11 -10 8 0 12 5 22 10 22z m168 -300 c2 -12 -1 -27 -7 -33 -7
-7 -12 -5 -17 6 -3 10 0 25 7 34 13 15 14 14 17 -7z"/>
</g>
</svg>
