<?xml version="1.0" standalone="no"?>
<!DOCTYPE svg PUBLIC "-//W3C//DTD SVG 20010904//EN"
 "http://www.w3.org/TR/2001/REC-SVG-20010904/DTD/svg10.dtd">
<svg version="1.0" xmlns="http://www.w3.org/2000/svg"
 width="56.000000pt" height="56.000000pt" viewBox="0 0 56.000000 56.000000"
 preserveAspectRatio="xMidYMid meet">
<metadata>
Created by potrace 1.16, written by Peter Selinger 2001-2019
</metadata>
<g transform="translate(0.000000,56.000000) scale(0.100000,-0.100000)"
fill="#000000" stroke="none">
<path d="M214 560 c-8 0 -14 -3 -14 -8 0 -4 4 -23 10 -42 8 -27 6 -39 -7 -59
-9 -14 -24 -34 -33 -44 -9 -9 -22 -35 -28 -56 -7 -21 -12 -64 -12 -95 0 -32 7
-70 16 -88 15 -30 17 -30 72 -24 32 4 68 8 82 9 17 1 26 -4 28 -17 3 -12 -16
-38 -57 -77 -60 -59 -60 -59 -13 -59 44 0 50 3 105 60 50 52 57 65 57 99 0 30
-5 43 -19 51 -11 5 -39 10 -63 10 -24 0 -61 -5 -83 -10 -31 -7 -43 -6 -54 5
-8 8 -16 39 -19 69 -3 39 1 66 12 90 9 19 33 49 53 65 21 17 46 31 56 31 13 0
18 6 15 22 -2 15 -15 27 -43 37 -22 8 -41 19 -43 23 -2 4 -10 8 -18 8z"/>
</g>
</svg>
