<?xml version="1.0" standalone="no"?>
<!DOCTYPE svg PUBLIC "-//W3C//DTD SVG 20010904//EN"
 "http://www.w3.org/TR/2001/REC-SVG-20010904/DTD/svg10.dtd">
<svg version="1.0" xmlns="http://www.w3.org/2000/svg"
 width="56.000000pt" height="56.000000pt" viewBox="0 0 56.000000 56.000000"
 preserveAspectRatio="xMidYMid meet">
<metadata>
Created by potrace 1.16, written by Peter Selinger 2001-2019
</metadata>
<g transform="translate(0.000000,56.000000) scale(0.100000,-0.100000)"
fill="#000000" stroke="none">
<path d="M137 558 c-21 2 -27 -1 -27 -17 0 -11 16 -32 37 -48 32 -25 45 -28
101 -26 63 1 64 1 59 -23 -2 -14 0 -27 4 -30 5 -3 24 5 42 17 17 12 37 29 44
37 6 7 9 20 6 28 -3 8 -18 21 -32 29 -20 10 -38 11 -67 5 -21 -5 -54 -10 -71
-10 -18 0 -41 8 -51 18 -10 9 -30 18 -45 20z"/>
<path d="M115 145 c-13 20 -14 20 -21 1 -4 -12 0 -42 12 -75 19 -55 20 -56 61
-59 28 -2 51 3 70 15 15 10 43 24 63 30 19 7 45 13 57 13 12 0 28 -3 37 -6 10
-4 16 -18 16 -35 0 -24 4 -29 25 -29 22 0 25 4 25 35 0 26 -7 43 -28 62 -24
23 -33 25 -88 20 -34 -2 -77 -12 -95 -21 -17 -9 -44 -16 -58 -16 -15 0 -34 10
-44 23 -10 12 -24 31 -32 42z"/>
</g>
</svg>
