<?xml version="1.0" standalone="no"?>
<!DOCTYPE svg PUBLIC "-//W3C//DTD SVG 20010904//EN"
 "http://www.w3.org/TR/2001/REC-SVG-20010904/DTD/svg10.dtd">
<svg version="1.0" xmlns="http://www.w3.org/2000/svg"
 width="56.000000pt" height="56.000000pt" viewBox="0 0 56.000000 56.000000"
 preserveAspectRatio="xMidYMid meet">
<metadata>
Created by potrace 1.16, written by Peter Selinger 2001-2019
</metadata>
<g transform="translate(0.000000,56.000000) scale(0.100000,-0.100000)"
fill="#000000" stroke="none">
<path d="M148 560 c-8 0 -19 -15 -26 -33 -7 -18 -12 -52 -12 -75 0 -22 4 -51
9 -65 8 -19 2 -36 -31 -93 -22 -38 -47 -86 -54 -108 -8 -21 -14 -53 -14 -70 0
-24 7 -36 29 -49 18 -11 50 -17 88 -17 32 0 68 -3 81 -7 17 -4 22 -11 19 -24
-5 -17 1 -19 49 -19 30 0 62 4 72 9 9 6 51 22 92 37 41 15 79 31 84 35 4 4 0
21 -10 38 -11 18 -32 35 -52 42 -27 9 -35 8 -45 -5 -9 -12 -49 -18 -176 -26
-142 -10 -166 -9 -179 4 -13 13 -12 19 11 58 14 24 41 59 61 77 20 19 36 45
36 57 0 12 6 26 13 32 6 5 28 12 47 16 19 3 67 11 105 17 39 6 74 14 79 19 5
5 6 21 2 35 -4 15 -16 29 -26 32 -11 3 -20 9 -20 14 0 5 -8 9 -19 9 -10 0 -38
-7 -62 -16 -24 -8 -63 -19 -87 -23 -28 -6 -45 -5 -49 2 -4 6 -6 30 -4 54 2 31
-1 43 -11 43z"/>
</g>
</svg>
