<?xml version="1.0" standalone="no"?>
<!DOCTYPE svg PUBLIC "-//W3C//DTD SVG 20010904//EN"
 "http://www.w3.org/TR/2001/REC-SVG-20010904/DTD/svg10.dtd">
<svg version="1.0" xmlns="http://www.w3.org/2000/svg"
 width="56.000000pt" height="56.000000pt" viewBox="0 0 56.000000 56.000000"
 preserveAspectRatio="xMidYMid meet">
<metadata>
Created by potrace 1.16, written by Peter Selinger 2001-2019
</metadata>
<g transform="translate(0.000000,56.000000) scale(0.100000,-0.100000)"
fill="#000000" stroke="none">
<path d="M422 530 c-6 0 -14 -4 -17 -10 -3 -5 -21 -10 -38 -10 -18 0 -41 -6
-52 -14 -12 -8 -64 -16 -129 -20 -60 -4 -118 -12 -129 -18 -20 -10 -20 -11 4
-29 13 -11 34 -22 46 -25 13 -3 23 -10 23 -15 0 -5 -11 -14 -25 -19 -14 -5
-28 -18 -32 -27 -3 -10 -17 -30 -30 -44 -21 -22 -25 -38 -26 -92 -2 -52 2 -71
19 -94 11 -15 34 -35 50 -43 16 -8 72 -18 124 -22 52 -4 135 -10 184 -14 72
-5 95 -3 127 12 22 9 35 20 30 23 -5 4 -14 19 -20 34 -6 16 -18 27 -29 27 -11
0 -39 -7 -63 -16 -30 -10 -81 -15 -159 -15 -63 -1 -124 2 -135 6 -11 4 -27 10
-35 14 -8 4 -21 19 -27 32 -7 13 -13 41 -13 62 0 21 10 55 22 78 19 31 39 47
103 78 44 22 94 44 112 51 22 8 37 9 51 1 14 -8 30 -8 54 0 18 6 47 17 65 25
21 10 30 20 27 29 -3 8 -21 24 -39 35 -18 11 -37 20 -43 20z"/>
</g>
</svg>
