<?xml version="1.0" standalone="no"?>
<!DOCTYPE svg PUBLIC "-//W3C//DTD SVG 20010904//EN"
 "http://www.w3.org/TR/2001/REC-SVG-20010904/DTD/svg10.dtd">
<svg version="1.0" xmlns="http://www.w3.org/2000/svg"
 width="56.000000pt" height="56.000000pt" viewBox="0 0 56.000000 56.000000"
 preserveAspectRatio="xMidYMid meet">
<metadata>
Created by potrace 1.16, written by Peter Selinger 2001-2019
</metadata>
<g transform="translate(0.000000,56.000000) scale(0.100000,-0.100000)"
fill="#000000" stroke="none">
<path d="M301 539 c-3 -1 -33 -9 -66 -19 -33 -10 -77 -19 -97 -19 -20 -1 -40
-6 -43 -11 -4 -6 -2 -17 4 -24 7 -8 50 -15 120 -20 60 -3 116 -3 125 0 9 3 16
17 16 29 0 14 -11 33 -26 44 -15 12 -29 20 -33 20z"/>
<path d="M64 200 c-8 0 -15 -3 -15 -7 -1 -5 0 -17 1 -28 1 -11 11 -32 21 -46
10 -15 40 -40 66 -57 27 -17 57 -32 68 -33 11 -2 46 1 78 5 36 5 70 3 91 -4
26 -8 46 -8 75 0 23 6 41 17 41 24 0 7 -12 24 -27 38 -18 17 -45 29 -75 33
-28 4 -61 2 -82 -5 -24 -8 -40 -8 -53 -1 -10 6 -40 20 -68 31 -27 11 -63 27
-78 35 -16 8 -35 15 -43 15z"/>
</g>
</svg>
