<?xml version="1.0" standalone="no"?>
<!DOCTYPE svg PUBLIC "-//W3C//DTD SVG 20010904//EN"
 "http://www.w3.org/TR/2001/REC-SVG-20010904/DTD/svg10.dtd">
<svg version="1.0" xmlns="http://www.w3.org/2000/svg"
 width="56.000000pt" height="56.000000pt" viewBox="0 0 56.000000 56.000000"
 preserveAspectRatio="xMidYMid meet">
<metadata>
Created by potrace 1.16, written by Peter Selinger 2001-2019
</metadata>
<g transform="translate(0.000000,56.000000) scale(0.100000,-0.100000)"
fill="#000000" stroke="none">
<path d="M274 560 c-7 0 -15 -14 -19 -30 -7 -30 -7 -30 -58 -24 -29 3 -63 13
-76 21 -21 13 -25 13 -38 0 -14 -13 -12 -20 18 -56 18 -23 44 -44 58 -47 14
-3 41 -10 59 -16 32 -10 34 -12 27 -47 -3 -20 -13 -42 -20 -50 -8 -8 -51 -27
-96 -43 -46 -15 -93 -38 -106 -50 -13 -12 -23 -30 -23 -40 0 -11 7 -32 14 -47
8 -15 32 -43 52 -61 21 -18 52 -39 70 -46 19 -8 45 -14 59 -14 18 0 29 8 38
28 6 15 27 48 45 75 19 26 42 52 52 57 10 6 26 10 36 10 9 0 32 -11 51 -26 26
-20 33 -32 33 -59 0 -18 -7 -40 -15 -49 -8 -8 -24 -18 -35 -21 -11 -3 -20 -11
-20 -16 0 -5 22 -9 49 -9 45 0 53 3 75 33 15 19 26 44 26 56 0 12 7 24 15 27
8 4 15 12 15 19 0 7 -6 16 -12 19 -10 5 -10 7 0 12 7 3 12 24 12 50 0 24 -4
44 -8 44 -5 0 -14 -10 -20 -22 -8 -16 -11 -18 -11 -7 -1 13 -13 17 -58 18 -32
0 -65 3 -75 6 -9 4 -34 -5 -56 -18 -21 -14 -62 -55 -92 -91 -29 -36 -57 -66
-62 -66 -5 0 -28 10 -51 21 -23 12 -52 31 -64 42 -13 11 -23 24 -23 29 0 5 16
16 36 24 20 9 47 13 59 10 12 -3 50 0 86 8 63 13 64 13 72 52 4 21 11 58 16
81 4 23 14 49 21 58 8 9 31 25 52 36 25 13 38 26 38 39 0 14 -7 21 -22 22 -13
0 -30 1 -39 0 -9 -1 -29 12 -44 28 -16 17 -34 30 -41 30z"/>
<path d="M550 540 c-5 0 -10 -7 -10 -15 0 -8 5 -15 10 -15 6 0 10 7 10 15 0 8
-4 15 -10 15z"/>
</g>
</svg>
