<?xml version="1.0" standalone="no"?>
<!DOCTYPE svg PUBLIC "-//W3C//DTD SVG 20010904//EN"
 "http://www.w3.org/TR/2001/REC-SVG-20010904/DTD/svg10.dtd">
<svg version="1.0" xmlns="http://www.w3.org/2000/svg"
 width="56.000000pt" height="56.000000pt" viewBox="0 0 56.000000 56.000000"
 preserveAspectRatio="xMidYMid meet">
<metadata>
Created by potrace 1.16, written by Peter Selinger 2001-2019
</metadata>
<g transform="translate(0.000000,56.000000) scale(0.100000,-0.100000)"
fill="#000000" stroke="none">
<path d="M224 518 c-16 37 -21 43 -27 29 -4 -10 -7 -37 -7 -58 0 -22 5 -50 12
-62 6 -12 18 -27 26 -33 12 -9 10 -15 -10 -40 -13 -16 -29 -41 -37 -55 -7 -14
-11 -39 -9 -55 2 -16 8 -29 13 -29 6 0 11 13 13 28 2 19 8 27 20 25 9 -2 18 6
21 17 3 11 13 30 21 43 8 12 22 22 32 22 9 0 28 14 42 31 14 17 26 38 26 48 0
9 -12 29 -27 43 -16 15 -40 30 -55 33 -23 6 -26 4 -21 -14 3 -12 1 -21 -3 -21
-5 0 -18 22 -30 48z"/>
<path d="M146 480 c-3 0 -8 -5 -12 -11 -3 -6 -1 -16 5 -22 8 -8 11 -5 11 11 0
12 -2 22 -4 22z"/>
<path d="M125 380 c-8 0 -15 -6 -15 -14 0 -8 7 -17 16 -20 9 -4 19 -4 22 -2 2
3 2 12 -1 21 -4 8 -13 15 -22 15z"/>
<path d="M156 193 c-9 4 -18 2 -21 -3 -4 -6 -3 -31 1 -56 3 -25 16 -57 29 -72
12 -15 24 -35 28 -44 3 -10 11 -18 17 -18 5 0 10 4 10 9 0 5 31 7 71 5 42 -3
85 0 105 8 18 6 36 18 38 25 3 8 0 22 -6 33 -7 10 -22 24 -34 31 -18 9 -31 9
-64 -5 -22 -9 -50 -16 -63 -16 -12 0 -36 9 -53 19 -20 12 -33 30 -37 49 -3 16
-13 32 -21 35z"/>
</g>
</svg>
