<?xml version="1.0" standalone="no"?>
<!DOCTYPE svg PUBLIC "-//W3C//DTD SVG 20010904//EN"
 "http://www.w3.org/TR/2001/REC-SVG-20010904/DTD/svg10.dtd">
<svg version="1.0" xmlns="http://www.w3.org/2000/svg"
 width="56.000000pt" height="56.000000pt" viewBox="0 0 56.000000 56.000000"
 preserveAspectRatio="xMidYMid meet">
<metadata>
Created by potrace 1.16, written by Peter Selinger 2001-2019
</metadata>
<g transform="translate(0.000000,56.000000) scale(0.100000,-0.100000)"
fill="#000000" stroke="none">
<path d="M150 560 c-52 0 -60 -2 -60 -19 0 -14 10 -21 37 -26 21 -4 50 -13 65
-21 15 -8 32 -23 38 -33 8 -16 5 -26 -15 -49 -14 -17 -25 -35 -25 -41 0 -6 -9
-11 -19 -11 -11 0 -29 -13 -40 -29 -16 -22 -21 -44 -21 -92 0 -43 7 -76 21
-105 11 -24 36 -57 55 -74 20 -17 49 -33 65 -37 16 -3 32 -10 35 -14 3 -5 34
-9 70 -9 36 0 74 5 84 10 16 9 18 14 8 35 -7 15 -27 30 -56 40 -25 8 -65 15
-89 15 -37 0 -50 6 -89 42 -25 23 -52 54 -60 69 -8 16 -14 41 -14 56 1 16 13
41 28 59 15 17 50 38 77 49 28 10 58 25 68 33 9 8 17 22 17 31 0 9 -9 29 -19
44 -10 16 -31 35 -46 43 -15 8 -34 14 -41 14 -8 0 -14 5 -14 10 0 6 -27 10
-60 10z"/>
</g>
</svg>
