<?xml version="1.0" standalone="no"?>
<!DOCTYPE svg PUBLIC "-//W3C//DTD SVG 20010904//EN"
 "http://www.w3.org/TR/2001/REC-SVG-20010904/DTD/svg10.dtd">
<svg version="1.0" xmlns="http://www.w3.org/2000/svg"
 width="56.000000pt" height="56.000000pt" viewBox="0 0 56.000000 56.000000"
 preserveAspectRatio="xMidYMid meet">
<metadata>
Created by potrace 1.16, written by Peter Selinger 2001-2019
</metadata>
<g transform="translate(0.000000,56.000000) scale(0.100000,-0.100000)"
fill="#000000" stroke="none">
<path d="M80 530 c-10 0 -23 -7 -30 -15 -7 -8 -10 -21 -7 -29 3 -8 24 -20 46
-27 22 -7 55 -25 73 -40 33 -29 33 -29 3 -54 -16 -13 -37 -31 -45 -40 -8 -9
-27 -28 -41 -43 -14 -15 -31 -47 -38 -71 -9 -31 -9 -47 -2 -54 6 -6 11 -20 11
-32 0 -11 12 -32 27 -45 16 -14 54 -39 86 -54 44 -21 66 -26 90 -21 18 4 80 8
139 9 71 1 112 6 120 14 9 9 10 17 2 30 -6 9 -23 23 -39 31 -22 10 -39 11 -84
2 -35 -7 -68 -8 -87 -2 -17 5 -51 7 -75 4 -24 -2 -49 0 -55 4 -6 4 -23 26 -38
47 -17 26 -26 52 -26 78 0 29 6 45 23 59 12 10 32 18 44 19 12 0 32 11 45 24
13 13 41 29 63 36 22 7 47 18 55 26 8 7 28 17 43 23 15 6 30 18 34 27 4 10 0
22 -10 29 -9 7 -63 15 -119 19 -67 5 -118 14 -147 27 -24 10 -51 19 -61 19z"/>
</g>
</svg>
