<?xml version="1.0" standalone="no"?>
<!DOCTYPE svg PUBLIC "-//W3C//DTD SVG 20010904//EN"
 "http://www.w3.org/TR/2001/REC-SVG-20010904/DTD/svg10.dtd">
<svg version="1.0" xmlns="http://www.w3.org/2000/svg"
 width="56.000000pt" height="56.000000pt" viewBox="0 0 56.000000 56.000000"
 preserveAspectRatio="xMidYMid meet">
<metadata>
Created by potrace 1.16, written by Peter Selinger 2001-2019
</metadata>
<g transform="translate(0.000000,56.000000) scale(0.100000,-0.100000)"
fill="#000000" stroke="none">
<path d="M185 560 c-8 0 -19 -9 -25 -20 -8 -15 -7 -30 2 -58 7 -20 18 -44 23
-52 6 -8 24 -24 40 -36 17 -11 42 -23 57 -26 17 -3 32 0 39 8 6 8 20 14 30 14
11 0 19 7 19 15 0 9 -12 20 -27 25 -16 6 -37 15 -48 20 -11 5 -31 12 -45 16
-14 3 -31 11 -37 16 -7 6 -13 26 -13 44 0 23 -5 34 -15 34z"/>
<path d="M334 560 c-9 0 -14 -5 -12 -12 2 -6 10 -14 16 -16 7 -2 12 3 12 12 0
9 -7 16 -16 16z"/>
<path d="M340 479 c-7 2 -11 -2 -8 -8 2 -7 7 -12 11 -12 4 1 7 4 8 8 0 4 -5 9
-11 12z"/>
<path d="M358 318 c-10 2 -18 0 -18 -5 0 -5 5 -14 12 -21 9 -9 7 -12 -9 -12
-12 0 -24 -4 -28 -9 -3 -5 -1 -12 5 -16 5 -3 19 -1 30 5 14 8 26 8 40 0 14 -7
20 -7 20 0 0 5 -6 10 -14 10 -8 0 -16 10 -18 22 -2 13 -11 24 -20 26z"/>
<path d="M208 309 c-2 0 -9 -3 -15 -6 -7 -2 -20 -21 -29 -41 -9 -20 -20 -45
-25 -54 -6 -11 -6 -25 0 -35 6 -10 12 -30 15 -44 3 -14 15 -38 27 -52 11 -15
27 -27 35 -27 9 0 30 -11 48 -25 22 -16 46 -25 70 -25 21 0 44 6 51 14 12 12
11 18 -10 40 -13 14 -29 26 -36 26 -8 0 -8 4 -2 13 7 8 6 24 -2 47 -6 19 -18
35 -26 35 -9 0 -13 -9 -11 -25 2 -14 8 -30 13 -36 6 -8 2 -13 -13 -17 -13 -4
-29 0 -39 9 -13 11 -19 12 -24 3 -5 -7 -17 7 -31 37 -13 27 -24 57 -24 66 0 9
5 20 11 23 6 4 8 14 5 22 -3 8 -1 23 4 34 6 10 9 19 8 18z"/>
</g>
</svg>
