<?xml version="1.0" standalone="no"?>
<!DOCTYPE svg PUBLIC "-//W3C//DTD SVG 20010904//EN"
 "http://www.w3.org/TR/2001/REC-SVG-20010904/DTD/svg10.dtd">
<svg version="1.0" xmlns="http://www.w3.org/2000/svg"
 width="56.000000pt" height="56.000000pt" viewBox="0 0 56.000000 56.000000"
 preserveAspectRatio="xMidYMid meet">
<metadata>
Created by potrace 1.16, written by Peter Selinger 2001-2019
</metadata>
<g transform="translate(0.000000,56.000000) scale(0.100000,-0.100000)"
fill="#000000" stroke="none">
<path d="M162 560 c-16 0 -24 -11 -36 -54 -9 -30 -16 -63 -16 -73 0 -11 6 -27
13 -37 7 -9 44 -28 82 -42 39 -14 85 -29 104 -35 29 -9 37 -8 53 9 17 17 18
22 6 43 -7 13 -20 29 -28 35 -8 7 -38 17 -67 24 -37 8 -60 20 -77 41 -19 23
-24 37 -19 59 5 26 2 30 -15 30z"/>
<path d="M105 250 c-7 0 -15 -6 -18 -14 -3 -7 -1 -47 4 -87 5 -44 17 -84 28
-99 15 -20 28 -26 72 -28 30 -2 58 -7 63 -13 6 -5 45 -9 87 -9 55 0 80 4 89
15 10 12 5 23 -25 60 -21 25 -41 45 -46 45 -4 0 -13 -6 -20 -13 -8 -8 -32 -10
-79 -7 -48 4 -75 11 -91 25 -13 11 -27 24 -31 29 -3 5 -9 29 -13 53 -4 26 -12
43 -20 43z"/>
</g>
</svg>
