<?xml version="1.0" standalone="no"?>
<!DOCTYPE svg PUBLIC "-//W3C//DTD SVG 20010904//EN"
 "http://www.w3.org/TR/2001/REC-SVG-20010904/DTD/svg10.dtd">
<svg version="1.0" xmlns="http://www.w3.org/2000/svg"
 width="56.000000pt" height="56.000000pt" viewBox="0 0 56.000000 56.000000"
 preserveAspectRatio="xMidYMid meet">
<metadata>
Created by potrace 1.16, written by Peter Selinger 2001-2019
</metadata>
<g transform="translate(0.000000,56.000000) scale(0.100000,-0.100000)"
fill="#000000" stroke="none">
<path d="M346 560 c-6 0 -16 -8 -22 -17 -8 -12 -26 -18 -60 -20 -27 -1 -82 -2
-122 -2 -54 0 -72 -3 -72 -14 0 -7 11 -24 24 -37 17 -15 32 -21 48 -17 13 3
41 12 63 20 26 10 43 12 50 6 7 -7 -3 -21 -28 -42 -20 -18 -62 -55 -93 -82
-45 -42 -56 -58 -61 -91 -5 -36 -2 -43 33 -78 39 -38 39 -38 112 -31 59 5 72
3 72 -9 0 -8 -19 -28 -42 -45 -23 -17 -46 -31 -52 -31 -5 0 -23 -10 -40 -23
-17 -13 -40 -27 -51 -32 -16 -8 -13 -10 21 -13 33 -2 57 5 120 38 43 23 86 48
95 56 8 8 23 14 32 14 9 0 19 5 22 10 3 6 16 10 29 10 13 0 31 9 41 20 17 19
18 22 2 55 -9 19 -20 35 -25 35 -4 0 -25 -9 -47 -20 -29 -15 -59 -20 -117 -20
-42 0 -80 5 -83 10 -3 6 -15 10 -25 10 -10 0 -32 11 -47 24 -15 13 -26 26 -23
28 3 2 25 20 50 40 25 20 70 48 100 63 30 15 64 35 75 45 11 10 37 24 58 31
27 9 37 19 37 34 0 11 -14 33 -31 48 -17 15 -36 27 -43 27z"/>
</g>
</svg>
