<?xml version="1.0" standalone="no"?>
<!DOCTYPE svg PUBLIC "-//W3C//DTD SVG 20010904//EN"
 "http://www.w3.org/TR/2001/REC-SVG-20010904/DTD/svg10.dtd">
<svg version="1.0" xmlns="http://www.w3.org/2000/svg"
 width="56.000000pt" height="56.000000pt" viewBox="0 0 56.000000 56.000000"
 preserveAspectRatio="xMidYMid meet">
<metadata>
Created by potrace 1.16, written by Peter Selinger 2001-2019
</metadata>
<g transform="translate(0.000000,56.000000) scale(0.100000,-0.100000)"
fill="#000000" stroke="none">
<path d="M139 560 c-9 0 -19 -7 -23 -15 -3 -8 11 -41 32 -74 20 -32 46 -62 56
-67 11 -5 21 -15 24 -21 2 -7 -7 -18 -20 -23 -13 -6 -35 -28 -48 -48 -14 -20
-37 -48 -52 -63 -22 -20 -28 -35 -27 -65 0 -21 6 -55 13 -74 8 -20 21 -36 32
-38 10 -2 23 -8 28 -12 5 -5 16 -4 26 2 13 9 24 6 49 -12 24 -19 34 -21 43
-12 7 7 27 12 44 12 18 0 36 -5 39 -10 4 -6 1 -17 -5 -25 -11 -13 -6 -15 29
-15 23 0 54 8 69 18 15 10 36 23 47 28 11 6 21 18 23 26 2 9 -4 23 -13 32 -13
13 -29 15 -73 10 -31 -3 -68 -9 -82 -13 -14 -4 -56 -5 -95 -1 -58 7 -73 12
-92 34 -15 18 -23 40 -23 65 0 24 7 44 18 54 10 10 22 17 27 17 5 0 26 8 47
17 21 9 40 25 43 34 3 10 20 21 38 24 18 4 49 18 69 32 29 20 41 23 52 14 11
-9 17 -6 31 15 15 24 15 27 0 44 -10 11 -38 21 -67 25 -41 6 -53 4 -60 -9 -6
-10 -22 -16 -44 -16 -23 0 -50 10 -75 28 -21 15 -45 39 -51 55 -7 15 -20 27
-29 27z"/>
<path d="M45 440 c-9 0 -18 -7 -21 -15 -4 -9 -1 -28 6 -45 7 -18 17 -27 26
-23 8 3 14 11 14 18 0 7 7 16 16 19 8 3 12 11 9 16 -5 8 -11 7 -21 -1 -11 -9
-14 -7 -14 10 0 12 -6 21 -15 21z"/>
<path d="M130 415 c-5 3 -10 2 -13 -2 -2 -5 -4 -20 -5 -35 -1 -15 3 -30 8 -33
6 -3 10 -3 11 2 0 4 2 20 4 35 2 15 0 30 -5 33z"/>
<path d="M389 290 c-4 0 -14 -11 -22 -24 -13 -19 -14 -31 -6 -60 5 -20 14 -36
18 -36 5 0 16 23 26 51 13 43 14 53 3 60 -7 5 -16 9 -19 9z"/>
</g>
</svg>
