<?xml version="1.0" standalone="no"?>
<!DOCTYPE svg PUBLIC "-//W3C//DTD SVG 20010904//EN"
 "http://www.w3.org/TR/2001/REC-SVG-20010904/DTD/svg10.dtd">
<svg version="1.0" xmlns="http://www.w3.org/2000/svg"
 width="56.000000pt" height="56.000000pt" viewBox="0 0 56.000000 56.000000"
 preserveAspectRatio="xMidYMid meet">
<metadata>
Created by potrace 1.16, written by Peter Selinger 2001-2019
</metadata>
<g transform="translate(0.000000,56.000000) scale(0.100000,-0.100000)"
fill="#000000" stroke="none">
<path d="M278 559 c-43 -1 -57 -6 -76 -26 -13 -14 -30 -40 -39 -58 -9 -18 -13
-40 -10 -49 4 -9 17 -16 29 -17 13 -1 32 -2 43 -3 11 0 21 -8 23 -18 2 -9 -15
-40 -37 -70 -23 -29 -50 -73 -62 -97 -11 -24 -22 -62 -24 -83 -2 -24 2 -43 11
-53 9 -8 25 -15 37 -16 12 0 53 -2 91 -2 50 -2 71 -6 77 -17 4 -8 10 -23 13
-32 4 -13 16 -18 41 -18 33 0 35 2 35 35 0 24 -9 45 -30 69 -17 19 -45 39 -63
45 -18 5 -51 15 -74 21 -33 8 -43 15 -43 32 0 11 10 37 21 57 12 20 44 68 70
108 27 39 49 80 49 91 0 11 -7 25 -15 32 -8 7 -15 25 -15 41 0 28 -1 29 -52
28z"/>
</g>
</svg>
