<?xml version="1.0" standalone="no"?>
<!DOCTYPE svg PUBLIC "-//W3C//DTD SVG 20010904//EN"
 "http://www.w3.org/TR/2001/REC-SVG-20010904/DTD/svg10.dtd">
<svg version="1.0" xmlns="http://www.w3.org/2000/svg"
 width="56.000000pt" height="56.000000pt" viewBox="0 0 56.000000 56.000000"
 preserveAspectRatio="xMidYMid meet">
<metadata>
Created by potrace 1.16, written by Peter Selinger 2001-2019
</metadata>
<g transform="translate(0.000000,56.000000) scale(0.100000,-0.100000)"
fill="#000000" stroke="none">
<path d="M104 470 c-7 0 -20 -10 -28 -22 -9 -12 -16 -28 -16 -35 0 -7 5 -22
12 -32 10 -16 7 -26 -13 -58 -14 -21 -31 -53 -37 -71 -7 -19 -9 -59 -5 -97 5
-53 10 -66 26 -71 11 -3 65 -6 121 -6 55 0 133 3 172 6 39 2 95 8 125 12 30 4
64 14 76 23 12 9 23 24 23 33 0 10 -9 20 -22 22 -13 3 -39 7 -58 10 -19 2 -90
-4 -158 -15 -68 -11 -128 -16 -134 -13 -6 4 -29 7 -52 8 -40 1 -41 1 -40 37 1
20 10 54 20 75 16 33 27 41 76 55 31 9 83 20 115 24 32 4 66 14 76 22 9 9 17
26 17 39 0 13 -8 25 -18 28 -9 3 -35 1 -57 -5 -22 -5 -44 -11 -50 -12 -5 -1
-41 2 -78 7 -44 5 -70 13 -74 22 -3 8 -11 14 -19 14z"/>
</g>
</svg>
