<?xml version="1.0" standalone="no"?>
<!DOCTYPE svg PUBLIC "-//W3C//DTD SVG 20010904//EN"
 "http://www.w3.org/TR/2001/REC-SVG-20010904/DTD/svg10.dtd">
<svg version="1.0" xmlns="http://www.w3.org/2000/svg"
 width="56.000000pt" height="56.000000pt" viewBox="0 0 56.000000 56.000000"
 preserveAspectRatio="xMidYMid meet">
<metadata>
Created by potrace 1.16, written by Peter Selinger 2001-2019
</metadata>
<g transform="translate(0.000000,56.000000) scale(0.100000,-0.100000)"
fill="#000000" stroke="none">
<path d="M265 529 c-16 -1 -41 -4 -55 -6 -14 -3 -45 -11 -70 -19 -24 -9 -50
-20 -57 -26 -7 -6 -13 -15 -13 -20 0 -5 54 -9 123 -8 67 0 132 0 145 -1 13 0
32 7 43 17 10 9 19 25 19 34 0 13 -12 19 -52 24 -29 3 -66 5 -83 5z"/>
<path d="M73 220 c-12 0 -24 -3 -26 -7 -3 -5 -1 -17 4 -28 4 -11 21 -38 37
-60 15 -22 50 -52 77 -67 28 -15 64 -30 80 -33 17 -4 36 -12 43 -18 8 -6 45
-8 99 -4 56 4 92 12 101 21 8 8 12 22 9 30 -4 9 -19 21 -34 27 -15 5 -54 8
-86 5 -45 -4 -70 -1 -101 13 -23 9 -53 21 -68 24 -14 4 -46 27 -70 52 -25 26
-52 45 -65 45z"/>
</g>
</svg>
