<?xml version="1.0" standalone="no"?>
<!DOCTYPE svg PUBLIC "-//W3C//DTD SVG 20010904//EN"
 "http://www.w3.org/TR/2001/REC-SVG-20010904/DTD/svg10.dtd">
<svg version="1.0" xmlns="http://www.w3.org/2000/svg"
 width="56.000000pt" height="56.000000pt" viewBox="0 0 56.000000 56.000000"
 preserveAspectRatio="xMidYMid meet">
<metadata>
Created by potrace 1.16, written by Peter Selinger 2001-2019
</metadata>
<g transform="translate(0.000000,56.000000) scale(0.100000,-0.100000)"
fill="#000000" stroke="none">
<path d="M189 560 c-26 0 -30 -3 -24 -17 4 -10 11 -34 17 -53 5 -19 16 -53 24
-75 9 -24 28 -49 47 -61 18 -12 51 -25 73 -28 28 -5 44 -3 51 6 6 7 14 23 17
36 5 14 3 23 -6 26 -7 2 -35 10 -62 18 -34 9 -57 24 -77 48 -19 22 -29 46 -29
67 0 30 -3 33 -31 33z"/>
<path d="M156 278 c-9 2 -19 -4 -22 -13 -4 -9 -2 -27 4 -40 8 -16 8 -26 1 -31
-6 -4 -6 -11 2 -20 6 -8 12 -38 13 -67 1 -50 2 -52 31 -55 17 -1 39 -7 50 -12
11 -5 37 -11 58 -15 20 -3 37 -10 37 -15 0 -6 15 -10 33 -10 25 0 35 6 45 27
6 15 12 35 12 45 0 11 -14 23 -36 33 -20 8 -46 15 -58 15 -12 0 -26 -4 -32
-10 -6 -6 -25 -5 -52 2 -40 10 -42 12 -42 47 0 20 -7 54 -14 76 -8 22 -21 41
-30 43z"/>
</g>
</svg>
