<?xml version="1.0" standalone="no"?>
<!DOCTYPE svg PUBLIC "-//W3C//DTD SVG 20010904//EN"
 "http://www.w3.org/TR/2001/REC-SVG-20010904/DTD/svg10.dtd">
<svg version="1.0" xmlns="http://www.w3.org/2000/svg"
 width="56.000000pt" height="56.000000pt" viewBox="0 0 56.000000 56.000000"
 preserveAspectRatio="xMidYMid meet">
<metadata>
Created by potrace 1.16, written by Peter Selinger 2001-2019
</metadata>
<g transform="translate(0.000000,56.000000) scale(0.100000,-0.100000)"
fill="#000000" stroke="none">
<path d="M242 526 c-16 31 -20 34 -31 20 -7 -9 -10 -24 -6 -38 4 -13 13 -33
21 -45 13 -20 12 -24 -8 -43 -12 -11 -27 -20 -33 -20 -6 0 -27 -17 -46 -37
-20 -21 -43 -51 -53 -67 -12 -19 -16 -40 -13 -65 3 -20 9 -52 13 -71 4 -19 13
-45 21 -57 8 -12 21 -19 29 -16 8 3 22 2 32 -2 9 -4 28 -8 42 -9 14 -2 28 2
32 8 5 8 8 7 8 -1 0 -6 16 -21 36 -32 24 -14 34 -27 30 -36 -4 -11 2 -15 23
-15 15 0 31 3 35 8 4 4 25 7 47 8 21 0 39 -3 39 -8 0 -4 7 -8 15 -8 8 0 15 7
15 15 0 8 -7 15 -15 15 -8 0 -15 5 -15 12 0 6 7 19 15 28 9 10 13 24 10 33 -4
8 -20 21 -36 27 -22 9 -32 10 -43 1 -7 -6 -45 -12 -82 -13 -38 0 -87 3 -109 8
-34 8 -43 16 -62 54 -13 25 -23 59 -23 76 0 25 12 44 59 91 37 37 63 57 69 51
6 -6 15 -1 25 12 14 20 18 21 52 9 30 -11 37 -11 44 0 5 8 11 9 15 3 3 -5 23
-9 43 -9 25 1 39 7 41 17 1 8 -10 31 -26 50 -29 34 -29 34 -81 22 -29 -7 -66
-12 -82 -12 -23 0 -32 7 -47 36z"/>
</g>
</svg>
