<?xml version="1.0" standalone="no"?>
<!DOCTYPE svg PUBLIC "-//W3C//DTD SVG 20010904//EN"
 "http://www.w3.org/TR/2001/REC-SVG-20010904/DTD/svg10.dtd">
<svg version="1.0" xmlns="http://www.w3.org/2000/svg"
 width="56.000000pt" height="56.000000pt" viewBox="0 0 56.000000 56.000000"
 preserveAspectRatio="xMidYMid meet">
<metadata>
Created by potrace 1.16, written by Peter Selinger 2001-2019
</metadata>
<g transform="translate(0.000000,56.000000) scale(0.100000,-0.100000)"
fill="#000000" stroke="none">
<path d="M200 540 c-14 0 -26 -14 -40 -46 -21 -46 -21 -46 5 -86 27 -40 27
-40 -11 -78 -36 -35 -38 -41 -39 -99 0 -34 3 -65 7 -67 4 -3 8 -18 8 -34 0
-16 11 -42 26 -59 17 -21 23 -37 19 -51 -5 -16 -2 -20 15 -20 11 0 31 7 44 16
13 8 35 14 48 13 12 -1 38 -1 56 -1 21 1 32 7 32 17 0 8 -8 15 -17 16 -13 0
-11 3 7 10 20 8 22 12 10 19 -8 5 -41 10 -73 10 -44 0 -67 5 -89 21 -17 12
-36 36 -43 54 -8 18 -11 48 -8 73 3 23 10 42 15 42 4 0 13 11 19 24 7 14 34
34 68 50 31 14 62 26 69 26 7 0 12 5 12 10 0 6 7 10 15 10 8 0 15 4 15 10 0 5
-10 15 -22 21 -13 7 -49 13 -80 14 -32 1 -61 5 -65 9 -4 4 -2 16 5 26 7 11 12
27 12 35 0 8 -9 15 -20 15z"/>
<path d="M408 100 c-5 0 -11 -7 -14 -15 -3 -8 -3 -19 1 -25 3 -5 15 -10 26
-10 10 0 19 6 19 13 0 7 -5 18 -12 25 -7 7 -16 12 -20 12z"/>
</g>
</svg>
