<?xml version="1.0" standalone="no"?>
<!DOCTYPE svg PUBLIC "-//W3C//DTD SVG 20010904//EN"
 "http://www.w3.org/TR/2001/REC-SVG-20010904/DTD/svg10.dtd">
<svg version="1.0" xmlns="http://www.w3.org/2000/svg"
 width="56.000000pt" height="56.000000pt" viewBox="0 0 56.000000 56.000000"
 preserveAspectRatio="xMidYMid meet">
<metadata>
Created by potrace 1.16, written by Peter Selinger 2001-2019
</metadata>
<g transform="translate(0.000000,56.000000) scale(0.100000,-0.100000)"
fill="#000000" stroke="none">
<path d="M277 539 c-25 0 -42 -11 -75 -47 -24 -26 -48 -54 -53 -62 -5 -8 -9
-20 -9 -26 0 -7 9 -14 20 -17 11 -3 20 -12 20 -21 0 -8 -22 -30 -50 -48 -27
-17 -57 -47 -67 -65 -10 -19 -28 -41 -40 -49 -17 -10 -23 -24 -23 -49 0 -19 9
-52 20 -72 16 -30 28 -39 67 -50 31 -8 123 -12 261 -13 212 0 212 0 212 30 0
25 -4 30 -24 30 -14 0 -27 4 -30 9 -3 4 -36 11 -72 14 -57 6 -72 4 -101 -14
-20 -13 -40 -18 -53 -14 -13 4 -31 0 -45 -9 -13 -9 -27 -16 -30 -16 -3 0 -10
11 -15 25 -6 16 -17 25 -30 25 -12 0 -35 7 -53 16 -17 9 -37 23 -45 31 -12 12
-9 20 22 57 20 25 53 58 74 74 34 28 45 30 142 36 58 4 129 9 158 12 29 4 55
11 59 17 4 6 -2 16 -12 21 -10 6 -34 26 -53 43 -32 29 -42 32 -89 31 -36 -2
-58 3 -68 13 -14 14 -14 18 5 42 12 15 18 31 15 37 -3 5 -21 10 -38 9z"/>
</g>
</svg>
