<?xml version="1.0" standalone="no"?>
<!DOCTYPE svg PUBLIC "-//W3C//DTD SVG 20010904//EN"
 "http://www.w3.org/TR/2001/REC-SVG-20010904/DTD/svg10.dtd">
<svg version="1.0" xmlns="http://www.w3.org/2000/svg"
 width="56.000000pt" height="56.000000pt" viewBox="0 0 56.000000 56.000000"
 preserveAspectRatio="xMidYMid meet">
<metadata>
Created by potrace 1.16, written by Peter Selinger 2001-2019
</metadata>
<g transform="translate(0.000000,56.000000) scale(0.100000,-0.100000)"
fill="#000000" stroke="none">
<path d="M339 485 c-40 3 -83 1 -95 -4 -11 -5 -47 -12 -80 -16 -32 -4 -76 -11
-97 -16 -28 -7 -37 -15 -35 -27 2 -9 14 -22 27 -29 20 -9 31 -9 55 1 17 7 61
19 98 25 37 7 72 11 78 9 7 -2 -15 -23 -48 -46 -34 -23 -68 -56 -76 -74 -9
-17 -16 -39 -16 -49 0 -10 -5 -30 -12 -44 -9 -19 -9 -28 0 -37 7 -7 12 -22 12
-34 0 -13 17 -37 40 -58 36 -32 46 -36 98 -36 31 0 90 -5 130 -10 61 -8 77 -7
98 6 13 9 24 22 24 30 0 7 -4 15 -9 19 -5 3 -36 7 -68 9 -32 2 -89 9 -128 16
-38 7 -81 19 -95 28 -13 8 -32 25 -42 36 -10 12 -17 29 -18 39 0 10 7 31 15
48 9 16 32 45 53 63 20 19 55 40 77 47 22 6 55 18 73 26 18 8 36 21 39 30 3 8
-1 21 -9 29 -9 9 -43 16 -89 19z"/>
</g>
</svg>
