<?xml version="1.0" standalone="no"?>
<!DOCTYPE svg PUBLIC "-//W3C//DTD SVG 20010904//EN"
 "http://www.w3.org/TR/2001/REC-SVG-20010904/DTD/svg10.dtd">
<svg version="1.0" xmlns="http://www.w3.org/2000/svg"
 width="56.000000pt" height="56.000000pt" viewBox="0 0 56.000000 56.000000"
 preserveAspectRatio="xMidYMid meet">
<metadata>
Created by potrace 1.16, written by Peter Selinger 2001-2019
</metadata>
<g transform="translate(0.000000,56.000000) scale(0.100000,-0.100000)"
fill="#000000" stroke="none">
<path d="M121 542 c-19 16 -20 16 -26 -2 -3 -10 1 -33 10 -49 8 -17 24 -35 34
-41 11 -5 27 -7 35 -4 9 3 16 2 16 -2 0 -5 -21 -29 -46 -55 -28 -28 -49 -60
-54 -82 -5 -25 -3 -44 6 -63 8 -14 14 -34 14 -44 0 -9 8 -24 18 -33 10 -10 32
-17 48 -17 17 0 34 4 40 9 5 5 37 12 72 16 52 6 62 5 62 -8 0 -9 -9 -32 -21
-51 -12 -20 -25 -36 -29 -36 -5 0 -23 -18 -40 -40 -32 -40 -32 -40 4 -40 29 0
39 5 47 24 7 14 21 27 33 30 11 3 42 25 68 48 41 38 48 49 50 88 3 45 3 45
-72 44 -41 0 -112 -4 -158 -9 -70 -7 -83 -6 -81 6 2 8 -1 25 -5 38 -5 15 -2
36 10 63 12 26 30 46 53 57 20 10 61 24 91 31 30 7 65 16 78 21 12 5 22 17 22
29 0 12 -12 26 -31 35 -18 10 -38 13 -47 9 -10 -4 -22 -6 -28 -5 -7 1 -38 -5
-70 -12 -33 -8 -65 -12 -71 -10 -7 3 -13 12 -13 22 0 9 -9 24 -19 33z"/>
</g>
</svg>
