<?xml version="1.0" standalone="no"?>
<!DOCTYPE svg PUBLIC "-//W3C//DTD SVG 20010904//EN"
 "http://www.w3.org/TR/2001/REC-SVG-20010904/DTD/svg10.dtd">
<svg version="1.0" xmlns="http://www.w3.org/2000/svg"
 width="56.000000pt" height="56.000000pt" viewBox="0 0 56.000000 56.000000"
 preserveAspectRatio="xMidYMid meet">
<metadata>
Created by potrace 1.16, written by Peter Selinger 2001-2019
</metadata>
<g transform="translate(0.000000,56.000000) scale(0.100000,-0.100000)"
fill="#000000" stroke="none">
<path d="M151 560 c-5 0 -11 -6 -13 -12 -3 -7 -3 -19 -1 -25 3 -7 14 -13 25
-13 11 0 39 -10 62 -22 22 -12 47 -26 54 -31 9 -7 3 -19 -24 -49 -19 -22 -34
-42 -31 -44 2 -3 16 0 30 5 14 5 35 20 47 33 15 16 33 23 57 23 20 0 38 5 40
12 3 7 -16 27 -42 45 -25 18 -65 37 -88 41 -23 4 -57 10 -74 13 -18 4 -33 10
-33 15 0 5 -4 9 -9 9z"/>
<path d="M78 190 c-5 0 -8 -7 -8 -16 0 -8 6 -21 13 -28 6 -6 29 -20 50 -30 21
-9 61 -24 90 -33 29 -8 79 -17 112 -18 33 -1 67 -6 76 -9 9 -4 21 -18 27 -32
7 -14 20 -24 32 -24 14 0 20 7 20 21 0 12 -13 33 -28 47 -16 15 -40 32 -53 38
-13 6 -40 16 -60 23 -19 6 -54 11 -76 11 -23 0 -65 5 -95 12 -29 6 -62 18 -73
25 -11 7 -23 13 -27 13z"/>
</g>
</svg>
