<?xml version="1.0" standalone="no"?>
<!DOCTYPE svg PUBLIC "-//W3C//DTD SVG 20010904//EN"
 "http://www.w3.org/TR/2001/REC-SVG-20010904/DTD/svg10.dtd">
<svg version="1.0" xmlns="http://www.w3.org/2000/svg"
 width="56.000000pt" height="56.000000pt" viewBox="0 0 56.000000 56.000000"
 preserveAspectRatio="xMidYMid meet">
<metadata>
Created by potrace 1.16, written by Peter Selinger 2001-2019
</metadata>
<g transform="translate(0.000000,56.000000) scale(0.100000,-0.100000)"
fill="#000000" stroke="none">
<path d="M190 559 c-3 0 -13 -10 -22 -24 -11 -14 -30 -25 -48 -27 -30 -3 -30
-3 -5 -32 14 -16 25 -36 25 -44 0 -9 -14 -27 -31 -41 -31 -26 -31 -26 -9 -53
20 -26 20 -29 5 -59 -16 -29 -16 -32 4 -53 12 -12 21 -26 21 -31 0 -4 -18 -32
-40 -61 -25 -34 -40 -64 -40 -82 0 -16 6 -35 14 -41 11 -10 21 -9 43 2 15 8
35 23 44 33 9 11 22 37 29 59 7 22 12 55 12 74 -1 22 11 57 34 99 20 37 31 69
26 74 -5 5 -25 -17 -46 -52 -30 -48 -41 -59 -51 -50 -11 9 -9 18 11 47 13 20
27 47 31 61 3 13 0 29 -6 35 -6 6 -11 19 -11 29 0 9 14 31 30 48 31 31 31 31
8 60 -13 16 -25 29 -28 29z"/>
<path d="M416 540 c-25 0 -48 -5 -51 -10 -4 -6 7 -13 25 -16 17 -4 32 -10 35
-14 2 -4 -5 -16 -15 -28 -11 -12 -20 -32 -20 -45 0 -14 7 -37 15 -53 13 -25
12 -31 -5 -60 -11 -17 -20 -37 -20 -45 0 -7 12 -26 28 -42 27 -28 27 -29 7
-43 -11 -9 -26 -19 -34 -23 -8 -5 -11 -13 -7 -20 4 -6 23 -11 42 -11 24 0 43
8 59 25 14 13 25 29 25 36 0 6 -16 26 -35 45 -19 18 -35 37 -35 42 0 4 11 19
25 32 14 13 25 31 25 41 0 10 -14 26 -30 36 -20 12 -30 24 -28 37 2 11 20 28
41 39 23 11 37 26 37 38 0 10 -9 23 -19 29 -11 5 -40 10 -65 10z"/>
<path d="M322 80 c-14 0 -27 -11 -36 -29 -11 -21 -12 -31 -3 -40 6 -6 22 -11
35 -11 13 0 32 5 43 10 10 6 19 17 19 24 0 7 -8 20 -18 29 -10 10 -28 17 -40
17z"/>
</g>
</svg>
