<?xml version="1.0" standalone="no"?>
<!DOCTYPE svg PUBLIC "-//W3C//DTD SVG 20010904//EN"
 "http://www.w3.org/TR/2001/REC-SVG-20010904/DTD/svg10.dtd">
<svg version="1.0" xmlns="http://www.w3.org/2000/svg"
 width="56.000000pt" height="56.000000pt" viewBox="0 0 56.000000 56.000000"
 preserveAspectRatio="xMidYMid meet">
<metadata>
Created by potrace 1.16, written by Peter Selinger 2001-2019
</metadata>
<g transform="translate(0.000000,56.000000) scale(0.100000,-0.100000)"
fill="#000000" stroke="none">
<path d="M302 539 c-4 0 -19 -4 -34 -9 -14 -4 -53 -22 -87 -39 -34 -17 -63
-26 -66 -21 -3 6 -15 10 -26 10 -10 0 -19 -6 -19 -13 0 -7 7 -23 16 -35 12
-18 25 -22 65 -22 27 0 65 7 85 15 29 12 36 12 40 0 3 -7 -2 -25 -11 -38 -10
-16 -15 -41 -13 -69 3 -43 3 -43 60 -40 31 2 66 1 77 -3 17 -5 21 -15 21 -46
0 -25 -9 -54 -25 -78 -13 -22 -29 -42 -34 -45 -5 -4 -17 1 -25 10 -9 8 -16 20
-16 25 0 5 -15 9 -33 9 -18 0 -41 -6 -50 -13 -9 -6 -21 -26 -26 -43 -6 -21 -4
-41 5 -62 11 -27 18 -32 46 -32 18 0 51 7 73 14 21 8 41 19 43 25 2 6 8 11 14
11 6 0 24 12 42 26 17 15 36 36 43 48 7 11 12 39 13 61 0 21 -7 59 -17 83 -12
32 -26 48 -54 63 -21 10 -45 19 -53 19 -8 0 -17 4 -21 9 -3 6 0 30 6 55 6 25
9 57 5 70 -3 14 -13 32 -22 40 -8 9 -18 16 -22 15z"/>
</g>
</svg>
