<?xml version="1.0" standalone="no"?>
<!DOCTYPE svg PUBLIC "-//W3C//DTD SVG 20010904//EN"
 "http://www.w3.org/TR/2001/REC-SVG-20010904/DTD/svg10.dtd">
<svg version="1.0" xmlns="http://www.w3.org/2000/svg"
 width="56.000000pt" height="56.000000pt" viewBox="0 0 56.000000 56.000000"
 preserveAspectRatio="xMidYMid meet">
<metadata>
Created by potrace 1.16, written by Peter Selinger 2001-2019
</metadata>
<g transform="translate(0.000000,56.000000) scale(0.100000,-0.100000)"
fill="#000000" stroke="none">
<path d="M468 520 c-27 0 -52 -17 -133 -86 -54 -47 -117 -95 -138 -105 -21
-11 -55 -34 -75 -52 -20 -18 -50 -39 -65 -47 -16 -8 -32 -21 -37 -30 -4 -8
-11 -29 -14 -46 -5 -23 -1 -37 15 -57 21 -28 21 -28 72 22 29 27 79 72 112
100 33 28 75 56 94 62 28 10 40 8 75 -10 24 -11 48 -32 56 -45 10 -20 10 -31
0 -55 -7 -17 -19 -36 -26 -42 -12 -10 -21 -6 -47 19 -18 18 -42 32 -52 32 -11
0 -25 -4 -31 -8 -5 -4 -16 -22 -24 -41 -14 -34 -13 -35 26 -68 35 -31 43 -33
83 -28 24 3 63 16 85 29 23 13 48 32 57 42 8 11 22 37 30 59 12 31 13 48 5 77
-6 20 -22 48 -36 63 -13 14 -46 33 -72 43 -26 9 -50 22 -52 29 -3 7 24 38 59
69 36 31 65 60 65 65 0 5 -15 9 -32 9z"/>
</g>
</svg>
