<?xml version="1.0" standalone="no"?>
<!DOCTYPE svg PUBLIC "-//W3C//DTD SVG 20010904//EN"
 "http://www.w3.org/TR/2001/REC-SVG-20010904/DTD/svg10.dtd">
<svg version="1.0" xmlns="http://www.w3.org/2000/svg"
 width="56.000000pt" height="56.000000pt" viewBox="0 0 56.000000 56.000000"
 preserveAspectRatio="xMidYMid meet">
<metadata>
Created by potrace 1.16, written by Peter Selinger 2001-2019
</metadata>
<g transform="translate(0.000000,56.000000) scale(0.100000,-0.100000)"
fill="#000000" stroke="none">
<path d="M216 540 c-8 0 -24 -12 -35 -26 -18 -23 -19 -29 -6 -53 7 -15 21 -33
29 -40 9 -8 16 -21 16 -30 0 -10 -11 -28 -25 -41 -14 -13 -25 -28 -25 -34 0
-6 32 -41 72 -78 55 -51 69 -70 61 -80 -6 -7 -13 -24 -15 -38 -2 -21 -8 -25
-38 -25 -19 0 -41 -4 -47 -8 -7 -5 -13 -26 -13 -48 0 -38 1 -39 34 -39 19 0
38 4 41 10 3 5 13 10 21 10 9 0 21 6 28 13 6 6 23 28 38 47 14 19 28 49 31 65
5 25 -4 44 -51 114 -51 74 -55 84 -40 95 9 7 20 24 23 39 6 21 0 33 -30 64
-21 21 -41 48 -46 61 -5 12 -15 22 -23 22z"/>
</g>
</svg>
