<?xml version="1.0" standalone="no"?>
<!DOCTYPE svg PUBLIC "-//W3C//DTD SVG 20010904//EN"
 "http://www.w3.org/TR/2001/REC-SVG-20010904/DTD/svg10.dtd">
<svg version="1.0" xmlns="http://www.w3.org/2000/svg"
 width="56.000000pt" height="56.000000pt" viewBox="0 0 56.000000 56.000000"
 preserveAspectRatio="xMidYMid meet">
<metadata>
Created by potrace 1.16, written by Peter Selinger 2001-2019
</metadata>
<g transform="translate(0.000000,56.000000) scale(0.100000,-0.100000)"
fill="#000000" stroke="none">
<path d="M148 560 c-7 0 -22 -15 -34 -33 -11 -17 -26 -47 -33 -65 -10 -24 -12
-58 -7 -125 3 -51 9 -135 12 -187 3 -52 11 -107 17 -123 7 -16 18 -26 27 -24
12 2 14 18 12 82 -2 44 1 119 7 166 5 49 18 101 29 120 10 19 26 35 35 37 13
3 17 -4 17 -32 0 -28 6 -38 30 -53 17 -9 30 -25 30 -35 0 -10 -16 -26 -40 -38
-24 -12 -40 -28 -40 -38 0 -9 7 -42 15 -72 8 -32 24 -62 37 -72 13 -10 29 -18
37 -18 8 0 30 10 48 22 18 13 40 37 48 55 8 17 15 47 15 66 0 20 -10 49 -26
72 -17 26 -24 46 -20 61 4 16 14 24 27 24 18 0 20 -5 17 -37 -3 -37 -2 -38 31
-41 20 -2 37 2 42 10 5 7 9 21 9 31 0 10 -12 29 -26 42 -14 13 -40 27 -57 31
-26 5 -34 2 -54 -22 -22 -28 -24 -28 -49 -14 -15 8 -32 22 -37 31 -5 9 -7 27
-3 42 3 14 22 35 41 47 19 12 35 28 35 35 0 8 -9 19 -21 25 -16 9 -26 8 -45
-5 -13 -8 -24 -21 -24 -28 0 -7 -21 -32 -46 -57 -25 -24 -53 -61 -61 -82 -8
-21 -20 -35 -25 -32 -7 4 -8 29 -5 64 4 31 16 78 27 104 11 26 20 52 20 57 0
5 -6 9 -12 9z m196 -313 c6 -2 12 -21 14 -43 2 -29 -3 -48 -18 -67 -12 -15
-25 -27 -30 -27 -5 0 -18 10 -30 22 -11 12 -20 25 -20 30 0 4 16 26 36 48 21
23 42 39 48 37z"/>
</g>
</svg>
