<?xml version="1.0" standalone="no"?>
<!DOCTYPE svg PUBLIC "-//W3C//DTD SVG 20010904//EN"
 "http://www.w3.org/TR/2001/REC-SVG-20010904/DTD/svg10.dtd">
<svg version="1.0" xmlns="http://www.w3.org/2000/svg"
 width="56.000000pt" height="56.000000pt" viewBox="0 0 56.000000 56.000000"
 preserveAspectRatio="xMidYMid meet">
<metadata>
Created by potrace 1.16, written by Peter Selinger 2001-2019
</metadata>
<g transform="translate(0.000000,56.000000) scale(0.100000,-0.100000)"
fill="#000000" stroke="none">
<path d="M248 559 c-13 -1 -41 -19 -63 -40 -22 -22 -52 -50 -67 -63 -16 -14
-28 -32 -28 -41 0 -9 9 -19 19 -22 19 -5 19 -6 1 -36 -17 -27 -17 -33 -5 -57
8 -15 30 -37 50 -48 21 -13 35 -29 35 -40 0 -11 -6 -25 -14 -31 -9 -8 -16 -8
-20 -2 -4 6 -13 8 -20 5 -11 -4 -13 -20 -9 -67 4 -38 13 -73 25 -89 11 -16 28
-28 39 -28 11 0 30 5 41 11 11 6 23 7 27 3 3 -5 30 -10 59 -12 28 -1 52 -1 52
2 0 3 -7 12 -16 20 -8 9 -27 16 -41 16 -16 0 -23 4 -19 13 2 6 10 28 17 49 6
20 9 48 5 62 -3 14 -22 41 -42 60 -33 32 -36 39 -31 73 4 21 14 44 24 51 11 8
29 10 48 6 16 -3 36 -11 43 -17 7 -6 11 -16 8 -23 -3 -7 11 -27 30 -43 19 -17
38 -31 42 -31 4 0 13 4 21 9 9 6 11 16 6 32 -4 13 -16 36 -27 52 -11 15 -38
37 -60 48 -29 15 -50 19 -74 15 -18 -4 -43 -19 -56 -34 -13 -15 -30 -39 -39
-52 -16 -25 -17 -25 -38 -6 -11 11 -21 28 -21 38 0 10 8 21 18 24 9 3 28 11
41 17 13 7 31 22 39 35 14 21 14 26 -2 54 -18 29 -17 30 3 52 12 12 21 25 21
29 0 4 -10 6 -22 6z m-58 -109 c13 0 18 -5 14 -15 -4 -8 -12 -15 -20 -15 -8 0
-14 7 -14 15 0 8 9 15 20 15z m45 -260 c7 0 16 -7 19 -16 3 -9 6 -30 6 -47 0
-18 -9 -40 -22 -54 -12 -13 -29 -23 -39 -23 -10 0 -20 4 -24 9 -3 6 3 15 14
21 14 7 22 25 27 60 4 30 12 50 19 50z"/>
</g>
</svg>
