<?xml version="1.0" standalone="no"?>
<!DOCTYPE svg PUBLIC "-//W3C//DTD SVG 20010904//EN"
 "http://www.w3.org/TR/2001/REC-SVG-20010904/DTD/svg10.dtd">
<svg version="1.0" xmlns="http://www.w3.org/2000/svg"
 width="56.000000pt" height="56.000000pt" viewBox="0 0 56.000000 56.000000"
 preserveAspectRatio="xMidYMid meet">
<metadata>
Created by potrace 1.16, written by Peter Selinger 2001-2019
</metadata>
<g transform="translate(0.000000,56.000000) scale(0.100000,-0.100000)"
fill="#000000" stroke="none">
<path d="M321 530 c-12 6 -22 6 -26 1 -3 -5 -1 -12 5 -16 5 -3 10 -17 10 -30
0 -15 -9 -30 -22 -39 -13 -7 -41 -17 -63 -21 -22 -3 -52 -18 -67 -33 -16 -14
-28 -34 -28 -44 0 -10 6 -18 14 -18 7 0 16 8 18 18 4 12 25 25 62 36 31 10 60
15 63 12 4 -4 1 -12 -5 -18 -7 -7 -12 -21 -12 -31 0 -10 8 -31 19 -45 10 -15
21 -41 24 -58 6 -30 3 -33 -43 -56 -48 -24 -49 -24 -68 -5 -16 16 -23 17 -41
8 -12 -7 -21 -21 -21 -36 0 -13 -3 -30 -6 -39 -4 -10 1 -18 11 -22 10 -4 27
-1 38 5 17 11 22 10 30 -5 6 -10 21 -28 34 -40 13 -12 33 -24 44 -27 12 -3 29
3 44 16 20 18 26 36 32 97 8 75 8 75 48 72 22 -2 48 -11 58 -19 9 -9 17 -28
17 -43 0 -15 -10 -40 -22 -56 -13 -16 -28 -35 -35 -42 -7 -7 -13 -18 -13 -23
0 -6 9 -7 23 -3 12 4 40 22 61 40 22 19 43 34 48 34 4 0 8 9 8 20 0 11 -4 20
-10 20 -5 0 -10 7 -10 16 0 9 -9 29 -20 44 -11 16 -34 35 -50 44 -27 13 -33
13 -62 -1 -30 -15 -33 -15 -42 2 -6 9 -21 33 -33 52 -13 18 -23 46 -23 61 0
15 7 38 16 50 11 16 25 22 53 22 22 0 44 6 51 15 6 8 9 19 5 25 -3 5 -21 10
-38 10 -21 0 -36 7 -44 20 -7 10 -21 24 -32 30z m-10 -350 c5 0 12 -7 15 -15
3 -8 1 -30 -6 -49 -6 -20 -16 -38 -21 -42 -6 -3 -21 2 -34 10 -14 9 -25 23
-25 30 0 8 14 26 31 40 17 14 35 26 40 26z"/>
<path d="M57 480 c-13 0 -15 -8 -10 -47 3 -30 -1 -71 -11 -108 -9 -33 -19
-106 -23 -162 -5 -91 -4 -103 10 -103 10 0 19 11 22 27 4 16 13 40 21 55 8 14
14 33 14 42 0 8 9 31 19 50 11 18 21 44 23 56 2 13 -3 25 -9 27 -7 3 -17 -7
-23 -22 -5 -14 -19 -45 -30 -68 -13 -26 -19 -33 -16 -17 3 14 10 50 17 80 6
30 18 67 25 82 8 15 14 37 14 50 0 13 -7 31 -14 41 -7 9 -20 17 -29 17z"/>
</g>
</svg>
