<?xml version="1.0" standalone="no"?>
<!DOCTYPE svg PUBLIC "-//W3C//DTD SVG 20010904//EN"
 "http://www.w3.org/TR/2001/REC-SVG-20010904/DTD/svg10.dtd">
<svg version="1.0" xmlns="http://www.w3.org/2000/svg"
 width="56.000000pt" height="56.000000pt" viewBox="0 0 56.000000 56.000000"
 preserveAspectRatio="xMidYMid meet">
<metadata>
Created by potrace 1.16, written by Peter Selinger 2001-2019
</metadata>
<g transform="translate(0.000000,56.000000) scale(0.100000,-0.100000)"
fill="#000000" stroke="none">
<path d="M380 560 c-22 0 -40 -3 -40 -8 0 -4 -18 -29 -40 -56 -22 -26 -40 -54
-40 -62 0 -7 -29 -42 -65 -78 -36 -35 -65 -71 -65 -79 0 -8 7 -20 15 -27 11
-9 22 -6 54 20 21 18 41 40 44 51 3 10 14 19 24 19 10 0 24 5 30 11 7 7 19 9
28 5 14 -5 16 -14 10 -54 -4 -26 -16 -57 -28 -70 -11 -12 -32 -22 -48 -22 -14
0 -32 -7 -39 -15 -11 -13 -9 -21 8 -45 12 -16 22 -34 22 -40 0 -6 9 -14 20
-18 17 -6 13 -12 -30 -42 -27 -19 -49 -38 -50 -42 0 -5 11 -8 24 -8 14 0 28 5
31 11 4 5 18 14 31 19 13 5 24 17 24 25 0 9 8 25 19 36 10 11 21 37 25 57 3
21 14 42 25 49 11 7 27 36 36 65 8 28 15 56 15 61 0 5 -20 29 -45 54 -39 38
-44 47 -34 64 6 12 26 38 45 59 19 20 34 43 34 49 0 6 -17 11 -40 11z"/>
</g>
</svg>
