<?xml version="1.0" standalone="no"?>
<!DOCTYPE svg PUBLIC "-//W3C//DTD SVG 20010904//EN"
 "http://www.w3.org/TR/2001/REC-SVG-20010904/DTD/svg10.dtd">
<svg version="1.0" xmlns="http://www.w3.org/2000/svg"
 width="56.000000pt" height="56.000000pt" viewBox="0 0 56.000000 56.000000"
 preserveAspectRatio="xMidYMid meet">
<metadata>
Created by potrace 1.16, written by Peter Selinger 2001-2019
</metadata>
<g transform="translate(0.000000,56.000000) scale(0.100000,-0.100000)"
fill="#000000" stroke="none">
<path d="M398 559 c-46 0 -56 -4 -78 -30 -14 -16 -42 -39 -63 -51 -21 -13 -60
-35 -85 -49 -26 -14 -53 -36 -59 -50 -7 -13 -13 -39 -13 -56 0 -27 4 -33 21
-33 12 0 35 12 53 27 17 14 49 34 71 44 22 10 54 19 72 19 17 0 38 -7 46 -15
9 -8 20 -30 27 -49 6 -19 9 -52 6 -75 -3 -22 -10 -49 -16 -61 -6 -11 -15 -20
-21 -20 -5 0 -21 7 -34 16 -13 8 -34 14 -47 12 -12 -2 -28 -14 -36 -28 -7 -14
-11 -42 -8 -63 2 -21 10 -44 16 -52 7 -8 27 -15 46 -15 18 0 36 5 39 10 4 6
12 10 18 8 7 -1 21 1 33 5 12 4 28 22 37 40 9 17 30 77 47 132 25 81 29 106
21 127 -6 15 -28 39 -51 53 -22 14 -40 31 -40 38 0 6 5 28 10 49 6 20 17 39
25 42 8 3 15 10 15 16 0 6 -23 10 -52 9z"/>
</g>
</svg>
