<?xml version="1.0" standalone="no"?>
<!DOCTYPE svg PUBLIC "-//W3C//DTD SVG 20010904//EN"
 "http://www.w3.org/TR/2001/REC-SVG-20010904/DTD/svg10.dtd">
<svg version="1.0" xmlns="http://www.w3.org/2000/svg"
 width="56.000000pt" height="56.000000pt" viewBox="0 0 56.000000 56.000000"
 preserveAspectRatio="xMidYMid meet">
<metadata>
Created by potrace 1.16, written by Peter Selinger 2001-2019
</metadata>
<g transform="translate(0.000000,56.000000) scale(0.100000,-0.100000)"
fill="#000000" stroke="none">
<path d="M315 560 c-24 0 -35 -5 -35 -14 0 -8 -8 -17 -17 -20 -10 -3 -30 -16
-44 -28 -14 -13 -28 -31 -32 -40 -3 -10 -2 -18 3 -18 4 0 22 11 38 25 17 14
36 25 43 25 8 0 29 14 47 30 17 16 32 32 32 35 0 3 -16 5 -35 5z"/>
<path d="M174 430 c-7 7 -16 5 -27 -8 -9 -10 -17 -26 -17 -36 0 -14 7 -17 33
-14 29 3 32 1 35 -28 2 -21 -9 -54 -32 -100 -20 -38 -36 -74 -36 -81 0 -7 5
-13 10 -13 6 0 10 -7 10 -16 0 -9 5 -14 12 -12 6 2 16 17 21 34 6 16 19 40 29
54 11 14 29 30 41 37 12 7 37 12 55 13 20 0 35 -6 38 -15 4 -8 3 -26 0 -40 -4
-14 -12 -25 -19 -25 -7 0 -25 -6 -39 -12 -14 -7 -31 -21 -37 -30 -9 -14 -7
-21 9 -35 19 -17 19 -17 -16 -60 -35 -43 -35 -43 -1 -43 32 0 40 7 106 96 54
73 71 103 71 128 0 21 -9 43 -25 60 -13 14 -32 26 -42 26 -10 0 -35 -5 -57
-11 -25 -7 -42 -7 -48 -1 -6 6 -6 12 1 16 6 4 11 27 11 51 0 30 -5 45 -16 49
-9 3 -26 6 -38 6 -12 0 -27 5 -32 10z"/>
</g>
</svg>
