<?xml version="1.0" standalone="no"?>
<!DOCTYPE svg PUBLIC "-//W3C//DTD SVG 20010904//EN"
 "http://www.w3.org/TR/2001/REC-SVG-20010904/DTD/svg10.dtd">
<svg version="1.0" xmlns="http://www.w3.org/2000/svg"
 width="56.000000pt" height="56.000000pt" viewBox="0 0 56.000000 56.000000"
 preserveAspectRatio="xMidYMid meet">
<metadata>
Created by potrace 1.16, written by Peter Selinger 2001-2019
</metadata>
<g transform="translate(0.000000,56.000000) scale(0.100000,-0.100000)"
fill="#000000" stroke="none">
<path d="M200 560 c-20 0 -29 -6 -33 -22 -3 -12 -2 -29 4 -39 5 -10 21 -24 37
-31 20 -11 27 -20 25 -40 -1 -15 -18 -51 -37 -80 -20 -29 -36 -61 -36 -70 0
-13 8 -17 35 -16 21 1 40 8 44 17 8 12 12 13 25 2 13 -11 14 -15 1 -35 -8 -13
-12 -26 -8 -29 3 -4 19 -7 33 -7 24 0 28 -5 34 -42 5 -33 3 -45 -8 -54 -9 -6
-19 -26 -22 -44 -6 -28 -4 -32 12 -28 10 2 23 13 29 26 5 12 18 22 27 22 11 0
18 7 18 18 0 10 3 22 6 25 4 4 7 23 8 44 1 31 -7 45 -48 90 -37 40 -57 53 -78
53 -15 0 -28 4 -28 10 0 5 5 22 12 37 7 15 23 41 35 56 13 16 23 37 23 47 0
10 -15 27 -35 39 -20 11 -38 27 -41 36 -4 8 -18 15 -34 15z"/>
<path d="M205 123 c-11 4 -28 2 -37 -4 -10 -5 -18 -20 -18 -31 0 -12 10 -37
23 -55 17 -25 29 -33 53 -33 17 0 37 7 44 15 7 8 10 22 6 30 -3 8 -17 15 -31
15 -15 0 -25 6 -25 14 0 8 6 16 13 19 8 3 9 8 2 15 -5 5 -19 12 -30 15z"/>
</g>
</svg>
