<?xml version="1.0" standalone="no"?>
<!DOCTYPE svg PUBLIC "-//W3C//DTD SVG 20010904//EN"
 "http://www.w3.org/TR/2001/REC-SVG-20010904/DTD/svg10.dtd">
<svg version="1.0" xmlns="http://www.w3.org/2000/svg"
 width="56.000000pt" height="56.000000pt" viewBox="0 0 56.000000 56.000000"
 preserveAspectRatio="xMidYMid meet">
<metadata>
Created by potrace 1.16, written by Peter Selinger 2001-2019
</metadata>
<g transform="translate(0.000000,56.000000) scale(0.100000,-0.100000)"
fill="#000000" stroke="none">
<path d="M167 560 c-29 0 -36 -6 -55 -41 -12 -22 -22 -49 -22 -59 0 -11 4 -21
9 -24 4 -3 27 3 49 14 23 11 51 21 64 23 21 2 23 -4 33 -70 5 -39 13 -75 17
-78 3 -4 16 -1 28 5 12 6 34 8 51 5 19 -4 35 -17 45 -37 13 -26 14 -37 4 -75
-7 -24 -17 -46 -22 -49 -6 -4 -23 7 -38 24 -15 17 -40 34 -55 38 -14 3 -41 2
-58 -3 -19 -5 -42 -24 -59 -48 -15 -22 -27 -52 -28 -67 0 -15 5 -39 12 -53 6
-15 29 -35 51 -45 35 -17 43 -18 72 -6 18 8 36 19 39 25 4 6 14 11 22 11 8 0
35 17 60 37 31 26 48 50 56 78 6 22 14 58 19 80 6 31 3 49 -13 83 -11 24 -32
50 -45 60 -14 9 -44 18 -67 22 -38 5 -42 8 -51 46 -5 23 -16 48 -24 58 -7 9
-24 16 -37 16 -15 0 -24 6 -24 15 0 10 -10 15 -33 15z m61 -370 c3 0 16 -10
29 -22 13 -12 23 -28 23 -36 0 -8 -8 -21 -17 -28 -10 -7 -28 -14 -41 -14 -12
0 -25 6 -28 14 -3 8 2 31 11 50 10 20 20 36 23 36z"/>
</g>
</svg>
