<?xml version="1.0" standalone="no"?>
<!DOCTYPE svg PUBLIC "-//W3C//DTD SVG 20010904//EN"
 "http://www.w3.org/TR/2001/REC-SVG-20010904/DTD/svg10.dtd">
<svg version="1.0" xmlns="http://www.w3.org/2000/svg"
 width="56.000000pt" height="56.000000pt" viewBox="0 0 56.000000 56.000000"
 preserveAspectRatio="xMidYMid meet">
<metadata>
Created by potrace 1.16, written by Peter Selinger 2001-2019
</metadata>
<g transform="translate(0.000000,56.000000) scale(0.100000,-0.100000)"
fill="#000000" stroke="none">
<path d="M287 560 c-8 0 -41 -29 -75 -64 -34 -35 -62 -70 -62 -78 0 -8 -5 -19
-11 -25 -6 -6 -10 -51 -10 -109 0 -53 5 -111 10 -128 5 -17 12 -43 15 -58 4
-19 13 -28 26 -28 18 0 20 7 20 69 0 68 1 70 37 100 27 23 48 31 75 31 21 0
38 -4 38 -10 0 -5 -9 -24 -20 -42 -11 -18 -20 -47 -20 -65 0 -17 6 -33 13 -36
6 -2 9 -8 5 -12 -4 -4 -14 -2 -23 5 -8 7 -22 10 -30 6 -8 -3 -15 -15 -15 -26
0 -11 7 -20 15 -20 8 0 15 -6 15 -13 0 -7 -9 -21 -21 -30 -11 -10 -18 -21 -15
-24 3 -3 18 2 33 12 15 10 33 23 39 29 7 6 30 26 53 45 33 26 41 39 39 60 -2
15 -9 26 -18 26 -9 0 -14 -7 -12 -17 2 -10 -2 -27 -8 -39 -11 -20 -12 -20 -25
-2 -8 10 -14 29 -14 43 -1 14 8 36 19 50 11 14 20 31 20 39 0 7 6 11 15 8 8
-4 17 -2 20 3 3 5 -6 20 -19 35 -13 14 -31 36 -38 47 -9 13 -19 18 -27 14 -8
-5 -10 -18 -7 -32 6 -22 3 -24 -25 -24 -21 0 -47 -12 -75 -32 -23 -18 -47 -42
-53 -53 -7 -15 -10 -3 -10 53 -1 40 5 91 12 114 8 28 31 61 70 99 31 31 57 62
57 68 0 6 -6 11 -13 11z"/>
</g>
</svg>
