<?xml version="1.0" standalone="no"?>
<!DOCTYPE svg PUBLIC "-//W3C//DTD SVG 20010904//EN"
 "http://www.w3.org/TR/2001/REC-SVG-20010904/DTD/svg10.dtd">
<svg version="1.0" xmlns="http://www.w3.org/2000/svg"
 width="56.000000pt" height="56.000000pt" viewBox="0 0 56.000000 56.000000"
 preserveAspectRatio="xMidYMid meet">
<metadata>
Created by potrace 1.16, written by Peter Selinger 2001-2019
</metadata>
<g transform="translate(0.000000,56.000000) scale(0.100000,-0.100000)"
fill="#000000" stroke="none">
<path d="M390 560 c-35 0 -50 -4 -50 -13 0 -7 -50 -65 -110 -128 -61 -62 -112
-121 -115 -129 -3 -8 -1 -28 3 -45 5 -16 16 -31 25 -33 9 -2 38 18 67 47 33
33 59 51 75 51 14 0 29 -8 35 -19 5 -11 10 -33 10 -50 0 -16 -3 -36 -6 -45 -4
-11 -19 -16 -45 -16 -32 0 -41 -5 -51 -25 -8 -18 -8 -32 -1 -48 8 -18 7 -31
-8 -57 -10 -19 -18 -38 -19 -42 0 -5 13 -8 28 -8 18 0 38 10 54 27 14 16 47
62 72 103 33 54 46 85 46 112 0 20 -5 47 -11 60 -5 13 -24 31 -40 41 -17 9
-37 17 -45 17 -8 0 -14 3 -14 8 0 4 15 23 34 42 19 19 53 50 75 69 27 22 41
42 41 57 0 22 -4 24 -50 24z"/>
</g>
</svg>
