<?xml version="1.0" standalone="no"?>
<!DOCTYPE svg PUBLIC "-//W3C//DTD SVG 20010904//EN"
 "http://www.w3.org/TR/2001/REC-SVG-20010904/DTD/svg10.dtd">
<svg version="1.0" xmlns="http://www.w3.org/2000/svg"
 width="56.000000pt" height="56.000000pt" viewBox="0 0 56.000000 56.000000"
 preserveAspectRatio="xMidYMid meet">
<metadata>
Created by potrace 1.16, written by Peter Selinger 2001-2019
</metadata>
<g transform="translate(0.000000,56.000000) scale(0.100000,-0.100000)"
fill="#000000" stroke="none">
<path d="M196 560 c-18 0 -26 -6 -27 -17 -1 -10 0 -29 1 -43 1 -14 10 -40 21
-59 15 -26 20 -50 18 -103 -1 -37 1 -72 5 -76 4 -4 34 -5 66 -4 48 3 62 0 79
-17 12 -12 21 -34 21 -51 0 -17 -12 -48 -26 -70 -21 -32 -30 -38 -40 -29 -8 6
-14 17 -14 25 0 7 -9 22 -21 33 -11 10 -34 21 -49 23 -16 3 -43 -1 -59 -8 -16
-7 -39 -22 -50 -33 -13 -13 -21 -34 -21 -55 0 -25 7 -40 26 -55 17 -13 41 -21
65 -21 21 0 76 14 123 31 46 17 96 41 109 55 14 13 27 38 31 55 3 18 6 46 6
63 0 20 -10 44 -28 65 -23 28 -39 36 -92 46 -65 11 -65 11 -62 56 1 25 -4 61
-12 80 -8 19 -24 43 -35 53 -13 12 -19 26 -15 38 4 14 0 18 -20 18z m18 -442
c25 -2 32 -8 34 -29 2 -15 -3 -29 -10 -31 -7 -3 -27 -3 -45 -1 -17 3 -34 11
-37 19 -3 7 2 21 11 29 9 10 28 15 47 13z"/>
</g>
</svg>
