<?xml version="1.0" standalone="no"?>
<!DOCTYPE svg PUBLIC "-//W3C//DTD SVG 20010904//EN"
 "http://www.w3.org/TR/2001/REC-SVG-20010904/DTD/svg10.dtd">
<svg version="1.0" xmlns="http://www.w3.org/2000/svg"
 width="56.000000pt" height="56.000000pt" viewBox="0 0 56.000000 56.000000"
 preserveAspectRatio="xMidYMid meet">
<metadata>
Created by potrace 1.16, written by Peter Selinger 2001-2019
</metadata>
<g transform="translate(0.000000,56.000000) scale(0.100000,-0.100000)"
fill="#000000" stroke="none">
<path d="M338 540 c-7 0 -40 -14 -73 -31 -60 -30 -60 -30 -69 -4 -8 19 -15 24
-30 19 -12 -3 -38 -24 -58 -46 -21 -23 -38 -51 -38 -64 0 -13 8 -27 17 -33 13
-7 27 -2 58 19 22 15 54 35 72 44 18 9 43 16 57 16 14 0 27 -4 31 -9 3 -6 -3
-32 -14 -60 -10 -28 -36 -73 -56 -101 -21 -29 -55 -60 -79 -72 -22 -11 -44
-26 -48 -32 -4 -6 -8 -20 -8 -31 0 -11 4 -27 10 -35 8 -12 13 -12 45 3 19 9
54 34 78 55 23 22 52 44 64 51 12 6 33 11 48 11 17 0 29 -8 36 -24 9 -18 8
-31 -3 -52 -8 -19 -22 -30 -38 -32 -14 -1 -43 -8 -65 -14 -22 -6 -46 -18 -52
-27 -7 -8 -13 -25 -13 -36 0 -12 8 -29 18 -38 12 -11 36 -17 68 -17 47 0 54 4
105 53 37 34 60 66 69 94 7 23 10 53 6 69 -4 15 -23 43 -42 62 -32 32 -36 34
-84 27 -31 -4 -50 -3 -50 3 0 6 20 37 45 70 24 32 51 65 60 72 8 7 15 23 15
37 0 18 -9 28 -35 39 -19 7 -40 14 -47 14z"/>
</g>
</svg>
