<?xml version="1.0" standalone="no"?>
<!DOCTYPE svg PUBLIC "-//W3C//DTD SVG 20010904//EN"
 "http://www.w3.org/TR/2001/REC-SVG-20010904/DTD/svg10.dtd">
<svg version="1.0" xmlns="http://www.w3.org/2000/svg"
 width="56.000000pt" height="56.000000pt" viewBox="0 0 56.000000 56.000000"
 preserveAspectRatio="xMidYMid meet">
<metadata>
Created by potrace 1.16, written by Peter Selinger 2001-2019
</metadata>
<g transform="translate(0.000000,56.000000) scale(0.100000,-0.100000)"
fill="#000000" stroke="none">
<path d="M173 560 c-33 -1 -42 -7 -69 -44 -18 -23 -45 -67 -60 -97 -28 -52
-29 -59 -27 -180 1 -97 6 -136 21 -175 16 -39 24 -49 43 -49 21 0 24 5 23 35
-1 19 -5 71 -9 115 -7 73 -5 83 16 120 13 22 31 49 39 60 8 11 25 28 37 38 21
19 22 18 38 -13 9 -17 27 -36 40 -42 14 -6 25 -16 25 -23 0 -6 -20 -31 -45
-55 -35 -34 -45 -51 -45 -76 0 -18 4 -44 9 -57 5 -13 25 -31 44 -40 19 -10 38
-17 42 -17 3 0 5 12 3 28 -2 18 -8 26 -19 24 -9 -1 -19 4 -23 13 -3 8 -3 22 0
30 4 8 15 15 25 15 15 0 19 7 19 33 0 18 7 42 15 53 15 19 15 19 30 0 9 -12
15 -41 15 -72 0 -33 -5 -56 -14 -64 -8 -6 -13 -17 -10 -25 3 -7 14 -11 25 -8
11 3 27 16 36 29 11 17 14 41 11 89 -4 53 -9 69 -26 81 -12 8 -22 21 -22 28 0
8 11 21 25 30 13 9 32 16 42 16 10 0 26 -13 36 -29 15 -26 15 -30 1 -35 -8 -3
-13 -10 -10 -15 4 -5 20 -12 36 -16 16 -4 39 -4 50 0 11 3 20 13 20 21 0 8 -3
14 -7 14 -5 0 -16 18 -27 39 -10 21 -28 44 -40 50 -11 6 -33 15 -47 20 -20 7
-34 5 -60 -11 -19 -11 -38 -27 -42 -34 -4 -8 -16 -14 -26 -14 -10 0 -25 8 -34
18 -10 10 -17 27 -17 38 1 10 19 37 41 59 36 36 38 41 22 52 -9 7 -25 13 -34
13 -10 0 -24 -8 -31 -19 -7 -10 -50 -57 -94 -105 -45 -47 -87 -86 -94 -86 -8
0 -10 9 -5 27 3 15 16 41 27 57 12 17 43 57 70 88 26 31 48 59 48 62 0 3 -17
6 -37 6z"/>
<path d="M493 121 c-21 4 -39 1 -53 -8 -11 -8 -20 -22 -20 -32 0 -10 9 -30 21
-45 13 -17 30 -26 47 -26 15 0 37 3 50 6 15 4 22 14 22 30 0 13 -3 24 -8 24
-4 0 -12 10 -17 22 -6 14 -23 25 -42 29z m-3 -36 c5 -3 10 -15 10 -26 0 -10
-4 -19 -9 -19 -6 0 -13 5 -16 10 -4 6 -4 18 -1 26 3 8 10 12 16 9z"/>
<path d="M205 20 c-13 0 -27 -4 -30 -10 -4 -6 8 -10 30 -10 22 0 34 4 30 10
-3 5 -17 10 -30 10z"/>
</g>
</svg>
