<?xml version="1.0" standalone="no"?>
<!DOCTYPE svg PUBLIC "-//W3C//DTD SVG 20010904//EN"
 "http://www.w3.org/TR/2001/REC-SVG-20010904/DTD/svg10.dtd">
<svg version="1.0" xmlns="http://www.w3.org/2000/svg"
 width="56.000000pt" height="56.000000pt" viewBox="0 0 56.000000 56.000000"
 preserveAspectRatio="xMidYMid meet">
<metadata>
Created by potrace 1.16, written by Peter Selinger 2001-2019
</metadata>
<g transform="translate(0.000000,56.000000) scale(0.100000,-0.100000)"
fill="#000000" stroke="none">
<path d="M132 560 c-16 0 -32 -8 -40 -20 -10 -17 -10 -21 3 -26 8 -4 26 1 40
10 14 9 25 21 25 26 0 6 -12 10 -28 10z"/>
<path d="M296 520 c-12 0 -27 -5 -34 -12 -7 -7 -12 -24 -12 -40 0 -15 -6 -40
-12 -55 -7 -15 -33 -59 -59 -98 -25 -38 -49 -86 -53 -106 -3 -20 -4 -44 0 -53
3 -9 15 -16 27 -16 11 0 51 21 89 47 37 25 68 52 68 59 0 6 -11 15 -25 18 -14
4 -25 14 -25 23 0 8 10 32 22 52 12 20 30 46 41 58 13 15 20 35 19 59 -1 20
-7 43 -13 50 -6 8 -21 14 -33 14z"/>
<path d="M114 500 c-6 0 -19 -9 -29 -20 -9 -10 -15 -26 -12 -35 4 -8 14 -15
24 -15 10 0 36 7 58 14 22 8 41 21 43 29 2 10 -9 16 -35 21 -21 3 -43 6 -49 6z"/>
<path d="M394 309 c-11 -1 -27 -3 -36 -6 -10 -2 -18 -10 -18 -18 0 -7 11 -20
25 -29 18 -12 25 -25 25 -49 0 -18 -5 -38 -11 -44 -6 -6 -17 -22 -23 -35 -10
-19 -19 -22 -50 -20 -22 2 -48 -3 -62 -13 -13 -8 -24 -22 -24 -31 0 -8 12 -26
26 -39 15 -14 33 -25 40 -25 8 0 44 14 81 31 38 17 78 40 91 52 19 17 22 31
22 88 0 63 -2 70 -34 103 -18 20 -42 35 -52 35z"/>
</g>
</svg>
