<?xml version="1.0" standalone="no"?>
<!DOCTYPE svg PUBLIC "-//W3C//DTD SVG 20010904//EN"
 "http://www.w3.org/TR/2001/REC-SVG-20010904/DTD/svg10.dtd">
<svg version="1.0" xmlns="http://www.w3.org/2000/svg"
 width="56.000000pt" height="56.000000pt" viewBox="0 0 56.000000 56.000000"
 preserveAspectRatio="xMidYMid meet">
<metadata>
Created by potrace 1.16, written by Peter Selinger 2001-2019
</metadata>
<g transform="translate(0.000000,56.000000) scale(0.100000,-0.100000)"
fill="#000000" stroke="none">
<path d="M253 559 c-19 0 -40 -13 -65 -41 -21 -22 -38 -47 -38 -54 0 -8 10
-14 24 -14 13 0 29 6 35 14 7 8 22 14 34 14 12 -1 28 -6 35 -11 6 -5 12 -16
12 -23 0 -8 -13 -28 -29 -46 -28 -31 -31 -32 -43 -15 -13 18 -14 18 -30 0 -8
-10 -18 -31 -22 -46 -4 -16 -23 -44 -43 -62 -32 -30 -34 -33 -18 -43 12 -6 28
-6 47 0 16 6 40 7 53 4 14 -4 25 -14 25 -22 0 -9 -10 -29 -22 -44 -13 -15 -28
-36 -34 -46 -11 -18 -13 -18 -43 4 -18 13 -39 21 -47 18 -8 -3 -14 -12 -14
-19 0 -8 27 -39 60 -70 38 -37 68 -57 84 -57 14 0 40 16 63 39 26 25 43 51 47
75 5 28 2 47 -14 79 -13 27 -36 51 -61 65 -22 13 -39 29 -37 37 2 7 25 28 53
47 34 22 54 45 63 70 8 20 12 48 8 62 -3 14 -18 31 -34 38 -16 9 -26 20 -24
31 2 13 -4 17 -25 16z m-4 -389 c5 0 12 -7 15 -16 3 -9 6 -26 6 -39 0 -13 -11
-37 -24 -52 -22 -25 -26 -27 -40 -13 -15 14 -14 21 9 68 14 29 29 52 34 52z"/>
<path d="M404 310 c-5 0 -15 -4 -22 -9 -10 -6 -6 -20 17 -63 17 -31 31 -63 31
-71 0 -9 4 -18 9 -21 5 -4 16 -3 25 0 11 4 16 19 16 48 0 34 -7 49 -34 79 -18
20 -38 37 -42 37z"/>
</g>
</svg>
