<?xml version="1.0" standalone="no"?>
<!DOCTYPE svg PUBLIC "-//W3C//DTD SVG 20010904//EN"
 "http://www.w3.org/TR/2001/REC-SVG-20010904/DTD/svg10.dtd">
<svg version="1.0" xmlns="http://www.w3.org/2000/svg"
 width="56.000000pt" height="56.000000pt" viewBox="0 0 56.000000 56.000000"
 preserveAspectRatio="xMidYMid meet">
<metadata>
Created by potrace 1.16, written by Peter Selinger 2001-2019
</metadata>
<g transform="translate(0.000000,56.000000) scale(0.100000,-0.100000)"
fill="#000000" stroke="none">
<path d="M293 560 c-10 -1 -23 -6 -28 -13 -6 -7 -20 -32 -31 -57 -12 -25 -27
-60 -34 -77 -7 -18 -9 -40 -6 -49 4 -9 12 -14 21 -10 9 3 18 0 21 -7 3 -8 0
-40 -7 -73 -6 -32 -12 -76 -12 -96 -1 -21 3 -38 8 -38 6 -1 12 7 14 17 1 10
14 33 28 51 13 17 28 32 34 32 5 0 9 -15 9 -32 0 -18 -9 -44 -20 -58 -12 -16
-20 -41 -20 -67 0 -24 -4 -43 -10 -43 -5 0 -10 -9 -10 -20 0 -11 6 -20 13 -20
7 0 18 5 25 12 7 7 12 22 12 34 0 13 4 26 10 29 6 3 10 16 10 28 0 12 9 37 20
55 11 18 20 45 20 61 0 16 -8 38 -17 50 -17 20 -20 20 -47 6 -16 -8 -31 -13
-34 -10 -3 3 0 20 6 38 7 19 12 43 12 55 0 12 -9 27 -20 34 -11 7 -20 21 -20
30 0 10 9 34 21 55 12 21 27 45 35 54 8 8 14 19 14 22 0 4 -8 7 -17 7z"/>
</g>
</svg>
