<?xml version="1.0" standalone="no"?>
<!DOCTYPE svg PUBLIC "-//W3C//DTD SVG 20010904//EN"
 "http://www.w3.org/TR/2001/REC-SVG-20010904/DTD/svg10.dtd">
<svg version="1.0" xmlns="http://www.w3.org/2000/svg"
 width="56.000000pt" height="56.000000pt" viewBox="0 0 56.000000 56.000000"
 preserveAspectRatio="xMidYMid meet">
<metadata>
Created by potrace 1.16, written by Peter Selinger 2001-2019
</metadata>
<g transform="translate(0.000000,56.000000) scale(0.100000,-0.100000)"
fill="#000000" stroke="none">
<path d="M336 560 c-14 0 -26 -4 -26 -9 0 -5 -23 -47 -52 -93 -28 -46 -66
-101 -84 -124 -19 -22 -37 -55 -40 -71 -3 -17 -1 -40 5 -52 7 -11 18 -21 25
-21 8 0 22 12 32 27 9 15 38 49 62 75 25 27 51 48 58 48 7 0 19 -10 25 -22 7
-14 9 -45 6 -86 -4 -35 -11 -70 -17 -77 -6 -7 -41 -16 -78 -20 -37 -4 -70 -12
-74 -19 -4 -6 -8 -24 -8 -40 0 -17 -10 -40 -22 -53 -21 -23 -21 -23 15 -23 20
0 38 4 41 8 3 5 31 14 63 21 32 7 69 18 82 24 13 7 33 25 45 40 17 24 21 44
22 119 1 49 -3 106 -9 125 -9 28 -20 39 -54 54 -24 10 -43 25 -43 32 0 8 6 20
14 26 8 6 16 24 19 39 3 15 8 37 12 50 6 19 4 22 -19 22z"/>
</g>
</svg>
