<?xml version="1.0" standalone="no"?>
<!DOCTYPE svg PUBLIC "-//W3C//DTD SVG 20010904//EN"
 "http://www.w3.org/TR/2001/REC-SVG-20010904/DTD/svg10.dtd">
<svg version="1.0" xmlns="http://www.w3.org/2000/svg"
 width="56.000000pt" height="56.000000pt" viewBox="0 0 56.000000 56.000000"
 preserveAspectRatio="xMidYMid meet">
<metadata>
Created by potrace 1.16, written by Peter Selinger 2001-2019
</metadata>
<g transform="translate(0.000000,56.000000) scale(0.100000,-0.100000)"
fill="#000000" stroke="none">
<path d="M319 560 c-38 0 -41 -2 -35 -22 3 -13 0 -39 -7 -58 -6 -19 -23 -57
-38 -85 -14 -27 -38 -72 -53 -100 -15 -27 -33 -57 -40 -65 -7 -8 -16 -23 -19
-33 -4 -10 -4 -29 -1 -43 4 -14 13 -24 24 -24 10 0 34 24 56 56 21 31 56 84
77 118 20 33 41 70 46 81 5 11 14 41 20 68 6 26 11 61 11 77 0 28 -2 30 -41
30z"/>
<path d="M351 319 c-14 0 -32 -3 -38 -6 -7 -2 -13 -11 -13 -18 0 -7 11 -20 24
-28 20 -13 23 -23 22 -59 -2 -24 -6 -58 -10 -75 -5 -18 -15 -38 -22 -44 -11
-9 -21 -8 -44 1 -16 7 -36 10 -45 6 -8 -3 -15 -11 -15 -18 0 -7 14 -28 30 -45
24 -27 37 -33 70 -33 22 0 40 4 40 9 0 5 6 16 13 23 6 7 19 27 28 43 9 17 22
54 28 83 6 29 11 68 11 87 0 24 -7 39 -26 54 -15 12 -38 21 -53 20z"/>
</g>
</svg>
