<?xml version="1.0" standalone="no"?>
<!DOCTYPE svg PUBLIC "-//W3C//DTD SVG 20010904//EN"
 "http://www.w3.org/TR/2001/REC-SVG-20010904/DTD/svg10.dtd">
<svg version="1.0" xmlns="http://www.w3.org/2000/svg"
 width="56.000000pt" height="56.000000pt" viewBox="0 0 56.000000 56.000000"
 preserveAspectRatio="xMidYMid meet">
<metadata>
Created by potrace 1.16, written by Peter Selinger 2001-2019
</metadata>
<g transform="translate(0.000000,56.000000) scale(0.100000,-0.100000)"
fill="#000000" stroke="none">
<path d="M491 520 c-64 0 -71 -2 -93 -28 -13 -16 -39 -35 -58 -42 -19 -8 -53
-27 -75 -44 -22 -16 -48 -38 -58 -48 -10 -10 -27 -18 -38 -18 -11 0 -37 -9
-58 -20 -21 -10 -52 -31 -69 -45 -26 -22 -30 -31 -28 -71 1 -32 6 -50 18 -58
14 -8 23 -5 46 18 16 15 60 43 98 62 37 19 75 34 83 34 9 0 31 9 49 20 21 13
50 20 81 20 34 0 53 -5 64 -18 10 -10 17 -35 17 -54 0 -20 -6 -40 -12 -46 -7
-5 -35 -12 -63 -15 -27 -2 -78 -10 -112 -17 -41 -8 -63 -17 -63 -26 0 -8 18
-32 40 -55 40 -41 40 -41 102 -34 35 4 71 11 81 16 9 6 17 16 17 24 0 7 13 16
29 20 15 3 38 17 50 31 13 15 21 38 21 59 0 19 -4 35 -10 35 -5 0 -13 12 -16
27 -4 15 -16 42 -26 59 -11 18 -31 41 -46 51 -15 10 -40 20 -56 23 -16 3 -31
10 -33 16 -2 5 34 29 79 52 46 23 89 42 96 42 6 0 12 7 12 15 0 12 -14 15 -69
15z"/>
</g>
</svg>
