<?xml version="1.0" standalone="no"?>
<!DOCTYPE svg PUBLIC "-//W3C//DTD SVG 20010904//EN"
 "http://www.w3.org/TR/2001/REC-SVG-20010904/DTD/svg10.dtd">
<svg version="1.0" xmlns="http://www.w3.org/2000/svg"
 width="56.000000pt" height="56.000000pt" viewBox="0 0 56.000000 56.000000"
 preserveAspectRatio="xMidYMid meet">
<metadata>
Created by potrace 1.16, written by Peter Selinger 2001-2019
</metadata>
<g transform="translate(0.000000,56.000000) scale(0.100000,-0.100000)"
fill="#000000" stroke="none">
<path d="M211 539 c-20 0 -43 -4 -51 -9 -8 -5 -23 -11 -33 -14 -10 -3 -15 -10
-12 -16 3 -5 28 -10 55 -10 34 0 50 -4 54 -16 3 -9 6 -30 6 -47 0 -18 -7 -54
-15 -82 -9 -27 -13 -55 -11 -62 3 -7 22 -13 42 -13 21 0 53 -5 71 -12 26 -10
36 -20 44 -50 7 -26 7 -50 0 -76 -6 -21 -20 -48 -31 -60 -12 -12 -27 -22 -35
-22 -7 0 -17 15 -20 33 -4 17 -12 38 -17 45 -6 6 -25 12 -43 12 -18 0 -39 -8
-48 -18 -10 -10 -17 -24 -17 -31 0 -7 9 -24 20 -38 16 -21 18 -29 8 -40 -11
-13 -2 -14 67 -8 44 4 93 15 109 24 17 9 42 37 57 61 19 31 28 60 28 90 1 40
-4 50 -36 82 -26 25 -52 39 -83 45 -45 9 -45 9 -41 101 3 78 0 96 -14 112 -12
13 -31 20 -54 19z m4 -449 c8 0 15 -7 15 -16 0 -14 -3 -14 -15 -4 -8 7 -15 14
-15 16 0 2 7 4 15 4z"/>
</g>
</svg>
