<?xml version="1.0" standalone="no"?>
<!DOCTYPE svg PUBLIC "-//W3C//DTD SVG 20010904//EN"
 "http://www.w3.org/TR/2001/REC-SVG-20010904/DTD/svg10.dtd">
<svg version="1.0" xmlns="http://www.w3.org/2000/svg"
 width="56.000000pt" height="56.000000pt" viewBox="0 0 56.000000 56.000000"
 preserveAspectRatio="xMidYMid meet">
<metadata>
Created by potrace 1.16, written by Peter Selinger 2001-2019
</metadata>
<g transform="translate(0.000000,56.000000) scale(0.100000,-0.100000)"
fill="#000000" stroke="none">
<path d="M235 560 c-7 0 -20 -18 -29 -41 -9 -22 -14 -45 -10 -50 3 -5 21 -16
39 -24 33 -13 34 -15 23 -47 -6 -18 -15 -37 -19 -42 -5 -6 -9 -18 -9 -28 0
-10 25 -48 55 -83 52 -62 54 -66 43 -97 -6 -18 -14 -36 -18 -41 -3 -4 -23 -1
-43 8 -20 8 -49 15 -65 15 -16 0 -35 -7 -42 -15 -6 -8 -10 -22 -8 -32 2 -9 14
-23 28 -30 14 -6 33 -14 44 -18 15 -4 16 -8 6 -20 -11 -13 -6 -15 30 -15 31 0
47 6 61 23 10 12 18 28 19 35 0 6 5 12 10 12 6 0 19 9 30 20 14 14 20 33 20
63 0 24 -7 59 -16 78 -9 19 -26 41 -37 50 -19 15 -20 21 -10 60 6 24 13 51 17
59 4 10 -11 34 -44 70 -27 30 -52 63 -56 73 -3 9 -11 17 -19 17z"/>
</g>
</svg>
