<?xml version="1.0" standalone="no"?>
<!DOCTYPE svg PUBLIC "-//W3C//DTD SVG 20010904//EN"
 "http://www.w3.org/TR/2001/REC-SVG-20010904/DTD/svg10.dtd">
<svg version="1.0" xmlns="http://www.w3.org/2000/svg"
 width="56.000000pt" height="56.000000pt" viewBox="0 0 56.000000 56.000000"
 preserveAspectRatio="xMidYMid meet">
<metadata>
Created by potrace 1.16, written by Peter Selinger 2001-2019
</metadata>
<g transform="translate(0.000000,56.000000) scale(0.100000,-0.100000)"
fill="#000000" stroke="none">
<path d="M401 560 c-21 0 -41 -3 -44 -7 -4 -3 -7 -15 -7 -25 0 -10 6 -18 14
-18 8 0 18 -5 22 -11 3 -6 1 -16 -5 -22 -6 -6 -11 -17 -11 -24 0 -7 5 -13 11
-13 7 0 18 8 26 18 7 9 21 27 29 39 9 13 13 30 9 43 -5 15 -15 20 -44 20z"/>
<path d="M162 529 c-4 0 -17 -4 -29 -9 -13 -5 -23 -16 -23 -24 0 -8 5 -27 12
-42 11 -24 10 -28 -15 -46 -15 -11 -27 -25 -27 -32 0 -7 11 -23 25 -36 19 -18
25 -33 25 -68 0 -35 -8 -55 -41 -102 -38 -55 -40 -61 -30 -93 6 -18 21 -43 32
-55 11 -12 31 -22 44 -22 14 0 25 6 25 13 0 7 9 30 20 52 11 22 20 50 20 63 0
14 -5 42 -11 62 -9 30 -9 45 2 69 8 17 17 31 20 31 4 0 14 15 23 34 9 19 16
40 16 47 0 7 -14 -6 -31 -29 -17 -23 -35 -42 -39 -42 -5 0 -3 15 5 34 13 30
13 38 -1 65 -14 28 -14 34 0 63 9 17 16 37 16 43 0 7 -7 16 -16 19 -9 3 -19 6
-22 5z m-10 -352 c4 -7 7 -36 6 -65 -1 -33 -7 -60 -16 -69 -14 -14 -17 -13
-25 8 -4 13 -6 41 -3 62 4 21 12 46 18 57 9 14 14 16 20 7z"/>
<path d="M280 440 c-4 0 -11 -7 -14 -16 -3 -9 -6 -18 -6 -20 0 -3 9 0 20 6 11
6 18 15 15 21 -4 5 -10 9 -15 9z"/>
<path d="M363 420 c-7 0 -13 -7 -13 -15 0 -9 7 -27 16 -41 14 -20 15 -33 6
-76 -5 -29 -8 -58 -5 -65 3 -7 13 -13 23 -13 9 0 25 -8 34 -19 12 -13 15 -27
10 -45 -4 -19 -2 -26 8 -26 7 0 24 7 36 16 12 8 22 26 22 38 0 16 -15 36 -44
60 -42 34 -44 38 -35 68 5 18 6 42 3 53 -4 11 -16 30 -27 43 -11 12 -26 22
-34 22z"/>
</g>
</svg>
