<?xml version="1.0" standalone="no"?>
<!DOCTYPE svg PUBLIC "-//W3C//DTD SVG 20010904//EN"
 "http://www.w3.org/TR/2001/REC-SVG-20010904/DTD/svg10.dtd">
<svg version="1.0" xmlns="http://www.w3.org/2000/svg"
 width="56.000000pt" height="56.000000pt" viewBox="0 0 56.000000 56.000000"
 preserveAspectRatio="xMidYMid meet">
<metadata>
Created by potrace 1.16, written by Peter Selinger 2001-2019
</metadata>
<g transform="translate(0.000000,56.000000) scale(0.100000,-0.100000)"
fill="#000000" stroke="none">
<path d="M360 560 c-35 0 -40 -3 -46 -27 -4 -16 -12 -35 -19 -43 -7 -8 -20
-31 -29 -50 -10 -19 -42 -58 -73 -85 -42 -39 -57 -60 -63 -90 -4 -22 -11 -48
-15 -57 -5 -14 0 -20 21 -29 27 -10 31 -8 54 23 13 18 44 52 68 75 24 23 53
45 63 48 11 4 26 1 34 -5 9 -8 15 -30 15 -56 0 -23 -4 -54 -9 -67 -5 -14 -30
-40 -56 -58 -25 -18 -48 -44 -52 -57 -3 -13 -1 -35 6 -48 6 -14 18 -27 27 -31
8 -3 26 0 40 7 13 8 24 19 24 26 0 6 6 14 13 17 6 2 28 38 49 78 29 58 36 86
37 132 1 32 -4 67 -9 77 -6 11 -32 26 -58 33 -41 12 -47 17 -44 38 2 13 16 50
32 82 17 31 30 59 30 62 0 3 -18 5 -40 5z"/>
</g>
</svg>
