<?xml version="1.0" standalone="no"?>
<!DOCTYPE svg PUBLIC "-//W3C//DTD SVG 20010904//EN"
 "http://www.w3.org/TR/2001/REC-SVG-20010904/DTD/svg10.dtd">
<svg version="1.0" xmlns="http://www.w3.org/2000/svg"
 width="56.000000pt" height="56.000000pt" viewBox="0 0 56.000000 56.000000"
 preserveAspectRatio="xMidYMid meet">
<metadata>
Created by potrace 1.16, written by Peter Selinger 2001-2019
</metadata>
<g transform="translate(0.000000,56.000000) scale(0.100000,-0.100000)"
fill="#000000" stroke="none">
<path d="M278 559 c-14 0 -38 -17 -58 -41 -19 -22 -43 -57 -52 -76 -10 -20
-18 -45 -18 -58 0 -12 7 -28 16 -35 14 -12 19 -10 38 14 12 15 25 27 29 27 4
0 7 -20 7 -45 0 -37 6 -52 35 -84 19 -21 35 -42 35 -47 0 -5 9 -20 20 -34 11
-14 20 -37 20 -51 0 -17 -9 -32 -25 -43 -13 -9 -33 -16 -43 -16 -10 0 -24 11
-30 25 -7 14 -20 25 -31 25 -11 0 -32 -5 -46 -12 -19 -9 -25 -19 -25 -43 0
-18 8 -39 18 -48 12 -11 36 -17 69 -17 28 0 65 6 82 13 17 7 42 28 56 47 14
18 27 48 31 65 3 19 -1 47 -9 68 -9 20 -39 58 -67 85 -42 41 -50 53 -45 74 3
13 -1 44 -9 69 -9 24 -16 51 -16 60 0 8 9 25 20 37 11 12 20 26 20 32 0 5 -10
10 -22 9z"/>
</g>
</svg>
