<?xml version="1.0" standalone="no"?>
<!DOCTYPE svg PUBLIC "-//W3C//DTD SVG 20010904//EN"
 "http://www.w3.org/TR/2001/REC-SVG-20010904/DTD/svg10.dtd">
<svg version="1.0" xmlns="http://www.w3.org/2000/svg"
 width="128.000000pt" height="128.000000pt" viewBox="0 0 128.000000 128.000000"
 preserveAspectRatio="xMidYMid meet">
<metadata>
Created by potrace 1.16, written by Peter Selinger 2001-2019
</metadata>
<g transform="translate(0.000000,128.000000) scale(0.100000,-0.100000)"
fill="#000000" stroke="none">
<path d="M670 1253 c-8 3 -21 3 -27 0 -7 -2 -13 -9 -13 -15 0 -6 17 -26 39
-44 21 -19 41 -42 44 -54 3 -11 -9 -48 -29 -87 -19 -38 -52 -92 -73 -122 -22
-30 -42 -65 -46 -79 -3 -13 -1 -30 6 -38 10 -12 17 -11 48 8 20 12 48 35 62
51 24 29 26 30 51 13 13 -9 30 -27 36 -40 8 -18 7 -38 -2 -78 -7 -29 -25 -75
-40 -103 -15 -27 -39 -84 -53 -125 -14 -41 -29 -79 -33 -85 -4 -5 -17 -37 -30
-70 -13 -33 -30 -66 -38 -74 -8 -9 -11 -24 -7 -40 4 -14 10 -30 15 -34 4 -5
17 1 28 13 11 12 28 42 38 68 11 32 40 69 86 115 68 66 69 67 97 52 16 -8 46
-38 67 -66 22 -29 48 -66 60 -83 11 -17 26 -51 34 -76 8 -25 30 -62 49 -82 20
-23 42 -38 56 -38 13 0 31 7 39 16 9 8 16 28 16 43 0 16 -5 42 -11 59 -5 16
-19 32 -30 35 -10 3 -21 11 -23 19 -2 7 -10 33 -17 58 -10 34 -31 62 -87 116
-47 46 -87 75 -111 83 -21 6 -45 11 -53 11 -8 0 -19 5 -25 11 -8 8 -6 19 6 40
9 16 24 32 33 34 9 3 27 33 40 67 14 36 31 64 43 68 11 5 34 11 50 15 18 4 50
28 82 62 36 39 53 66 58 93 4 26 1 48 -10 70 -9 17 -30 40 -48 51 -22 14 -42
18 -66 15 -19 -3 -43 -14 -55 -24 -12 -10 -36 -25 -54 -32 -29 -11 -36 -11
-49 2 -13 14 -13 18 0 39 9 13 21 44 27 68 10 39 9 46 -8 63 -14 15 -36 20
-88 23 -38 1 -76 5 -84 8z m268 -236 c20 1 47 -5 60 -13 12 -8 22 -21 22 -28
0 -8 -25 -39 -56 -70 -43 -44 -59 -55 -69 -46 -7 6 -16 23 -20 38 -4 15 -13
34 -21 43 -8 9 -12 24 -8 33 3 9 17 22 31 29 13 7 41 14 61 14z"/>
<path d="M193 1071 c-7 7 -13 7 -17 1 -3 -6 -3 -17 0 -26 3 -9 10 -16 15 -16
5 0 17 -17 28 -38 11 -21 27 -44 35 -52 14 -11 15 -16 3 -34 -8 -12 -17 -47
-21 -79 -4 -32 -18 -81 -30 -110 -13 -29 -27 -67 -30 -84 -4 -18 -12 -35 -17
-38 -5 -4 -9 -20 -9 -36 0 -17 -5 -39 -11 -51 -6 -11 -11 -79 -12 -157 -1
-132 0 -138 28 -194 23 -44 34 -57 52 -57 20 0 23 -5 21 -32 -3 -27 1 -33 17
-33 13 0 22 8 25 25 3 14 20 51 38 82 18 32 34 72 36 90 1 18 10 47 19 65 9
18 17 42 17 55 0 13 10 42 22 65 17 32 20 45 11 54 -6 6 -18 9 -27 6 -8 -3
-20 -25 -27 -49 -6 -24 -29 -79 -50 -123 -21 -45 -39 -86 -39 -93 0 -7 -6 -12
-14 -12 -8 0 -22 7 -30 16 -9 8 -16 28 -16 44 0 16 -4 40 -9 53 -7 17 -5 63 5
138 8 62 12 119 10 126 -3 7 3 21 14 30 11 10 20 21 20 26 0 5 7 23 15 40 8
18 27 70 43 117 16 47 35 100 43 117 11 27 11 39 0 70 -7 21 -20 48 -27 61
-12 18 -23 22 -67 22 -29 0 -58 5 -64 11z"/>
<path d="M484 677 c-6 2 -15 -2 -20 -9 -6 -7 -16 -30 -23 -51 -7 -21 -10 -41
-7 -45 3 -3 20 8 37 24 20 19 29 36 27 53 -2 13 -8 26 -14 28z"/>
<path d="M704 20 c-13 0 -24 -4 -24 -10 0 -5 14 -10 31 -10 17 0 28 4 24 10
-3 5 -17 10 -31 10z"/>
</g>
</svg>
