<?xml version="1.0" standalone="no"?>
<!DOCTYPE svg PUBLIC "-//W3C//DTD SVG 20010904//EN"
 "http://www.w3.org/TR/2001/REC-SVG-20010904/DTD/svg10.dtd">
<svg version="1.0" xmlns="http://www.w3.org/2000/svg"
 width="56.000000pt" height="56.000000pt" viewBox="0 0 56.000000 56.000000"
 preserveAspectRatio="xMidYMid meet">
<metadata>
Created by potrace 1.16, written by Peter Selinger 2001-2019
</metadata>
<g transform="translate(0.000000,56.000000) scale(0.100000,-0.100000)"
fill="#000000" stroke="none">
<path d="M196 520 c-6 0 -26 -14 -43 -31 -18 -16 -33 -38 -33 -47 0 -9 14 -25
30 -34 17 -9 30 -24 30 -32 0 -8 -16 -19 -37 -26 -21 -6 -47 -15 -58 -20 -11
-5 -32 -11 -46 -14 -15 -3 -30 -13 -33 -23 -4 -9 -2 -21 3 -26 7 -7 15 -7 23
0 7 6 31 13 53 16 22 2 47 6 55 8 11 3 14 -3 12 -20 -1 -13 -19 -49 -40 -80
-20 -31 -41 -56 -47 -56 -5 0 -14 19 -20 42 -5 23 -14 45 -18 50 -4 4 -11 2
-15 -4 -4 -7 -5 -41 -2 -77 3 -38 12 -72 20 -80 13 -13 18 -12 41 8 14 12 44
49 67 83 22 33 50 86 60 118 19 56 22 59 86 90 37 18 69 29 71 25 3 -4 18 -10
34 -13 15 -3 45 -21 65 -40 29 -27 36 -42 36 -71 0 -20 -7 -52 -14 -71 -8 -19
-27 -40 -41 -47 -23 -10 -29 -8 -60 22 -34 33 -34 33 -68 17 -21 -10 -41 -31
-51 -51 -12 -25 -14 -41 -7 -59 8 -21 19 -26 62 -32 43 -6 55 -4 64 9 7 9 27
16 47 16 24 0 43 8 60 25 13 13 33 41 44 62 10 21 22 40 27 41 4 2 7 21 7 43
0 21 -3 39 -8 39 -4 0 -17 22 -29 49 -13 26 -28 53 -35 59 -7 5 -30 19 -51 31
-21 12 -49 21 -62 21 -14 0 -25 -4 -25 -10 0 -5 -14 -10 -30 -10 -17 0 -39 -5
-49 -11 -14 -10 -24 -7 -49 11 -18 13 -32 29 -32 35 0 6 7 20 15 31 8 12 11
24 8 28 -3 3 -11 6 -17 6z m123 -368 c9 -3 19 -10 23 -16 4 -6 2 -14 -5 -18
-7 -4 -22 -8 -34 -8 -13 0 -23 6 -23 13 0 7 5 18 11 24 6 6 19 9 28 5z"/>
</g>
</svg>
