<?xml version="1.0" standalone="no"?>
<!DOCTYPE svg PUBLIC "-//W3C//DTD SVG 20010904//EN"
 "http://www.w3.org/TR/2001/REC-SVG-20010904/DTD/svg10.dtd">
<svg version="1.0" xmlns="http://www.w3.org/2000/svg"
 width="56.000000pt" height="56.000000pt" viewBox="0 0 56.000000 56.000000"
 preserveAspectRatio="xMidYMid meet">
<metadata>
Created by potrace 1.16, written by Peter Selinger 2001-2019
</metadata>
<g transform="translate(0.000000,56.000000) scale(0.100000,-0.100000)"
fill="#000000" stroke="none">
<path d="M113 511 c-9 8 -19 4 -37 -15 -13 -15 -27 -38 -31 -53 -3 -14 -4 -28
-1 -31 3 -3 28 9 56 26 27 17 58 32 67 34 15 3 18 -6 21 -60 3 -60 2 -64 -29
-90 -18 -14 -53 -47 -79 -72 -25 -25 -54 -54 -63 -66 -16 -19 -16 -24 -2 -57
10 -24 22 -37 34 -37 11 0 29 -12 40 -26 13 -16 27 -24 36 -20 9 3 25 27 36
53 12 27 32 81 45 122 13 40 31 82 41 93 10 11 37 33 61 49 24 16 56 29 72 29
16 0 41 -5 55 -12 15 -6 33 -27 41 -46 8 -19 14 -53 14 -76 0 -29 -7 -49 -21
-64 -18 -21 -22 -21 -42 -7 -13 9 -43 15 -75 15 -38 0 -62 -6 -82 -20 -16 -11
-36 -35 -44 -52 -9 -17 -16 -40 -16 -50 0 -11 8 -33 17 -49 12 -21 25 -29 45
-29 15 0 29 4 32 8 3 5 18 7 34 4 16 -2 33 1 36 7 4 6 17 11 30 11 12 0 36 15
53 33 17 17 43 57 57 88 19 40 26 72 26 115 0 56 -3 63 -47 117 -45 54 -50 57
-93 57 -25 0 -61 -6 -80 -13 -19 -7 -40 -15 -46 -19 -6 -4 -14 -5 -18 -1 -3 3
-6 23 -6 43 0 23 -7 43 -18 53 -10 10 -32 17 -48 17 -16 0 -36 -4 -44 -10 -9
-5 -19 -5 -27 1z m56 -272 c2 -7 -9 -36 -24 -65 -16 -30 -34 -54 -42 -54 -7 0
-13 7 -13 16 0 8 5 25 11 37 6 12 23 35 38 50 15 17 27 23 30 16z m161 -80
c20 0 45 -8 58 -18 12 -11 22 -26 22 -34 0 -8 -13 -27 -30 -40 -16 -14 -39
-29 -51 -32 -11 -4 -36 -4 -54 -1 -30 6 -34 10 -30 34 2 15 8 39 13 53 6 15
17 29 24 32 7 3 29 6 48 6z"/>
</g>
</svg>
