<?xml version="1.0" standalone="no"?>
<!DOCTYPE svg PUBLIC "-//W3C//DTD SVG 20010904//EN"
 "http://www.w3.org/TR/2001/REC-SVG-20010904/DTD/svg10.dtd">
<svg version="1.0" xmlns="http://www.w3.org/2000/svg"
 width="128.000000pt" height="128.000000pt" viewBox="0 0 128.000000 128.000000"
 preserveAspectRatio="xMidYMid meet">
<metadata>
Created by potrace 1.16, written by Peter Selinger 2001-2019
</metadata>
<g transform="translate(0.000000,128.000000) scale(0.100000,-0.100000)"
fill="#000000" stroke="none">
<path d="M825 1278 c-11 -1 -42 -24 -70 -51 -27 -27 -67 -61 -89 -74 -21 -14
-51 -38 -67 -54 -16 -16 -29 -36 -29 -44 0 -8 -4 -15 -9 -15 -5 0 -13 9 -16
21 -4 11 -20 34 -36 50 -19 20 -40 31 -60 31 -16 1 -35 -4 -41 -10 -7 -7 -19
-12 -28 -12 -8 0 -21 -4 -29 -9 -12 -8 -12 -12 -2 -25 8 -9 26 -16 40 -16 15
0 35 -6 46 -13 16 -12 16 -18 7 -47 -7 -18 -12 -44 -12 -56 0 -13 -5 -24 -11
-24 -6 0 -19 4 -29 10 -10 5 -37 43 -59 85 -40 73 -42 75 -80 75 -21 0 -52 -7
-69 -16 -19 -9 -32 -23 -32 -35 0 -11 7 -19 16 -19 8 0 49 -34 91 -75 66 -66
74 -78 68 -102 -3 -15 -18 -42 -33 -60 -15 -18 -51 -59 -80 -90 -29 -32 -55
-68 -59 -81 -4 -17 2 -31 23 -53 15 -16 36 -29 45 -29 10 0 25 -3 34 -6 14 -6
14 -9 -5 -29 -20 -22 -20 -22 20 -72 22 -28 47 -53 55 -57 8 -3 15 -15 15 -26
0 -12 11 -31 24 -43 13 -12 35 -46 50 -75 15 -29 34 -56 42 -59 8 -3 17 -3 20
0 4 3 12 41 20 83 7 43 10 82 6 88 -4 6 -7 20 -7 31 0 15 -8 21 -30 23 -16 2
-34 8 -40 13 -7 7 -4 15 8 24 12 9 17 20 13 33 -5 15 4 29 35 56 24 20 53 36
65 36 13 0 35 -10 50 -23 26 -23 26 -23 55 4 16 15 29 31 29 36 0 4 4 14 9 22
7 11 15 11 43 1 22 -8 41 -25 51 -44 9 -17 15 -42 13 -56 -2 -14 -6 -36 -10
-50 -3 -14 -8 -62 -11 -107 -2 -46 0 -95 6 -109 7 -21 6 -31 -6 -45 -13 -13
-15 -28 -10 -63 5 -30 18 -58 42 -85 30 -35 40 -41 75 -41 28 0 39 4 35 13 -2
6 -10 37 -17 67 -8 30 -23 65 -33 77 -19 21 -19 24 -5 40 9 10 16 32 16 48 0
17 -7 41 -15 53 -12 20 -12 29 -3 53 7 16 9 40 6 55 -5 18 -2 32 10 45 9 11
25 19 34 19 10 0 23 7 30 15 6 8 9 19 5 25 -3 5 -15 10 -25 10 -10 0 -22 -5
-25 -11 -4 -5 -12 -8 -18 -6 -7 2 -13 21 -13 43 -1 21 -5 49 -9 62 -6 18 0 29
28 56 19 18 50 36 69 39 18 3 43 9 56 13 21 6 22 4 22 -45 0 -37 4 -53 15 -57
8 -4 31 1 50 10 34 16 35 19 35 73 0 51 -3 58 -39 94 -24 24 -48 39 -63 39
-14 0 -40 -11 -59 -25 -19 -14 -58 -41 -86 -60 -29 -19 -64 -35 -78 -35 -14 0
-28 6 -30 13 -2 6 -5 21 -7 31 -2 13 4 22 17 25 11 3 30 13 43 21 12 8 22 23
22 33 0 10 5 28 12 40 6 12 22 32 35 45 19 17 24 30 21 60 -3 37 -3 37 -117
33 -114 -4 -114 -4 -108 35 4 29 17 49 46 75 26 24 55 39 81 43 22 3 57 3 79
0 25 -4 41 -2 46 6 4 7 -13 30 -46 61 -32 29 -61 48 -74 47z m-298 -288 c1 0
0 -7 -3 -15 -4 -8 -14 -15 -23 -15 -14 1 -13 3 3 15 11 8 21 15 23 15z m-12
-54 c6 -2 11 -10 13 -19 2 -10 -7 -21 -22 -28 -13 -6 -32 -9 -40 -6 -9 4 -16
11 -16 16 0 6 12 16 28 24 15 8 32 14 37 13z m146 4 c10 0 19 -7 19 -15 0 -8
9 -19 19 -25 11 -5 31 -10 45 -10 14 0 26 -5 26 -11 0 -6 -5 -20 -11 -31 -6
-12 -27 -36 -45 -55 -19 -18 -34 -38 -34 -44 0 -6 -14 -30 -30 -55 -17 -24
-37 -44 -45 -44 -7 0 -22 11 -33 25 -11 14 -23 49 -27 78 -4 28 -15 57 -24 64
-15 12 -14 14 3 28 10 8 24 24 30 37 7 14 25 25 46 29 19 4 36 12 38 18 2 6
12 11 23 11z m-225 -190 c11 0 13 -7 7 -27 -4 -16 -7 -44 -6 -63 2 -19 -2 -62
-8 -95 -6 -32 -17 -72 -25 -87 -15 -29 -15 -29 -44 -6 -16 13 -29 31 -29 40
-1 9 -5 20 -11 23 -5 3 -14 24 -20 45 -6 23 -7 53 -3 71 7 26 18 35 58 51 28
11 54 26 58 34 4 8 15 14 23 14z"/>
<path d="M1009 608 c-8 1 -23 -6 -33 -17 -10 -11 -16 -27 -13 -36 4 -8 15 -15
25 -15 11 0 25 7 32 15 6 8 10 22 8 32 -2 10 -10 19 -19 21z"/>
<path d="M540 30 c-9 0 -20 -3 -23 -7 -4 -3 -7 -10 -7 -15 0 -4 19 -8 43 -8
39 1 41 2 23 15 -11 8 -27 15 -36 15z"/>
<path d="M670 20 c-21 0 -42 -4 -45 -10 -4 -6 13 -10 45 -10 32 0 49 4 45 10
-3 6 -24 10 -45 10z"/>
</g>
</svg>
