<?xml version="1.0" standalone="no"?>
<!DOCTYPE svg PUBLIC "-//W3C//DTD SVG 20010904//EN"
 "http://www.w3.org/TR/2001/REC-SVG-20010904/DTD/svg10.dtd">
<svg version="1.0" xmlns="http://www.w3.org/2000/svg"
 width="128.000000pt" height="128.000000pt" viewBox="0 0 128.000000 128.000000"
 preserveAspectRatio="xMidYMid meet">
<metadata>
Created by potrace 1.16, written by Peter Selinger 2001-2019
</metadata>
<g transform="translate(0.000000,128.000000) scale(0.100000,-0.100000)"
fill="#000000" stroke="none">
<path d="M667 1228 c-6 0 -27 -3 -44 -5 -18 -2 -33 -9 -33 -15 0 -6 11 -21 25
-33 22 -21 23 -27 13 -57 -6 -18 -13 -48 -15 -66 -4 -24 -12 -34 -29 -38 -15
-4 -27 -16 -31 -33 -3 -14 -19 -43 -35 -63 -16 -21 -33 -51 -38 -68 -7 -25 -5
-32 13 -45 12 -8 29 -15 38 -15 9 0 22 6 28 14 7 8 24 17 38 21 15 3 32 13 38
22 7 9 17 13 24 9 8 -5 9 -12 3 -19 -5 -7 -13 -27 -17 -45 -4 -18 -17 -45 -30
-60 -12 -15 -44 -69 -70 -120 -29 -57 -55 -97 -68 -102 -12 -5 -33 -18 -46
-28 -24 -19 -25 -19 -40 -1 -13 16 -22 17 -54 10 -21 -5 -41 -12 -44 -15 -3
-3 3 -20 14 -38 11 -18 26 -32 34 -31 8 1 26 5 41 9 21 5 29 2 34 -10 4 -11
-2 -26 -16 -40 -18 -21 -21 -31 -15 -72 4 -27 14 -54 22 -61 12 -10 23 -9 51
3 24 9 64 14 119 13 46 -2 86 -6 89 -10 2 -5 17 -17 33 -28 28 -20 29 -20 51
-1 13 11 27 20 31 20 4 0 11 -4 14 -10 3 -5 21 -10 39 -10 20 0 40 -8 51 -20
10 -11 26 -20 36 -20 10 0 23 8 28 18 8 15 3 27 -20 56 -17 20 -48 45 -70 56
-38 20 -38 20 -5 78 18 31 36 66 40 78 4 12 22 27 44 35 20 8 55 13 77 12 22
-2 56 -4 75 -6 19 -2 46 -7 60 -10 14 -3 49 -8 78 -12 52 -6 52 -6 52 28 0 28
-5 35 -33 45 -18 7 -47 12 -63 13 -27 0 -28 1 -7 9 15 6 21 15 17 25 -3 8 -11
15 -18 16 -6 1 -22 0 -36 -1 -14 -1 -34 -7 -45 -14 -11 -7 -41 -16 -67 -20
-40 -6 -48 -4 -57 12 -7 13 -7 31 -1 53 6 19 10 50 10 70 0 34 -4 39 -52 66
-51 29 -53 29 -98 15 -25 -8 -55 -16 -67 -19 -18 -4 -23 -1 -23 15 0 12 4 23
8 26 5 3 8 20 8 38 -1 18 -5 38 -9 45 -4 6 -27 22 -52 34 -37 19 -47 20 -60 9
-10 -9 -19 -10 -26 -3 -6 6 0 18 16 33 14 13 25 31 25 41 0 9 3 19 8 21 4 2
19 18 35 36 15 19 27 45 27 58 0 14 -9 43 -20 64 -11 22 -26 39 -33 38z m58
-518 c13 -5 47 -7 76 -5 30 2 59 -1 66 -7 10 -8 12 -27 7 -72 -4 -34 -11 -67
-17 -73 -5 -7 -20 -13 -33 -13 -18 0 -25 8 -33 38 -6 20 -11 43 -11 49 0 7
-20 22 -45 33 -25 11 -45 26 -45 34 0 7 3 15 6 19 3 3 17 2 29 -3z m-62 -90
c18 0 19 -5 12 -55 -5 -47 -4 -55 10 -55 9 0 15 -6 13 -12 -3 -7 -16 -14 -30
-16 -22 -3 -31 -14 -51 -65 -24 -61 -26 -62 -63 -62 -39 0 -39 0 -38 48 0 26
-3 47 -8 47 -4 0 -8 9 -8 20 0 15 7 20 29 20 24 0 34 8 56 48 15 26 35 55 43
65 8 9 24 17 35 17z m119 -121 c4 1 14 -6 23 -15 14 -15 14 -19 -4 -47 -10
-18 -24 -48 -30 -68 -7 -20 -20 -39 -29 -41 -9 -3 -31 -1 -48 4 -18 4 -34 15
-38 23 -3 9 11 33 34 60 22 26 40 51 40 56 0 5 10 14 23 19 12 5 25 9 29 9z"/>
<path d="M1256 1230 c-17 0 -30 -11 -45 -36 -12 -19 -21 -44 -21 -54 0 -10 3
-25 6 -34 3 -9 17 -16 31 -16 16 0 27 7 30 20 3 11 9 20 14 20 5 0 9 23 9 50
0 46 -2 50 -24 50z"/>
<path d="M240 1189 c-8 -1 -26 -4 -40 -6 -14 -3 -31 -10 -37 -15 -7 -6 -13
-16 -13 -22 0 -7 15 -16 32 -21 26 -8 33 -16 35 -37 1 -15 7 -37 13 -48 7 -12
9 -33 5 -47 -3 -14 -3 -39 0 -55 4 -18 16 -33 32 -39 13 -5 23 -14 21 -21 -2
-6 -10 -14 -17 -16 -7 -2 -15 5 -18 17 -3 12 -12 21 -21 21 -8 0 -33 -9 -56
-19 -23 -11 -70 -26 -106 -33 -50 -11 -66 -19 -68 -34 -1 -11 7 -25 20 -33 13
-8 32 -20 44 -28 18 -12 24 -11 47 7 16 13 40 20 66 20 39 0 41 -1 41 -31 0
-17 -5 -40 -11 -52 -7 -12 -12 -29 -13 -38 -1 -10 -30 -48 -66 -86 -36 -37
-74 -81 -85 -98 -11 -16 -26 -42 -34 -57 -10 -19 -12 -46 -8 -88 3 -34 8 -64
12 -68 3 -3 14 -1 23 5 11 6 17 24 18 49 0 32 4 39 20 39 12 0 24 12 33 32 8
18 20 33 27 33 7 0 15 -4 19 -9 3 -6 0 -40 -6 -78 -8 -49 -8 -75 0 -93 6 -14
15 -32 20 -40 6 -8 12 -27 16 -42 3 -15 16 -35 29 -43 13 -9 31 -12 40 -9 14
5 16 13 11 33 -4 14 -7 91 -7 170 0 109 3 147 14 157 10 11 12 29 8 69 -3 30
-4 71 -2 90 3 26 11 39 32 50 15 8 35 27 46 42 10 15 26 44 36 63 10 19 18 40
18 48 0 8 7 27 17 42 15 26 15 30 -4 61 -17 30 -24 34 -58 32 -38 -3 -38 -3
-32 70 6 73 6 73 -36 115 -24 23 -49 41 -57 41z m155 -332 c6 -5 4 -13 -6 -20
-9 -7 -28 -31 -42 -54 -15 -24 -31 -43 -36 -43 -5 0 -14 6 -20 14 -8 10 -6 24
9 59 17 39 25 46 53 49 17 2 37 0 42 -5z"/>
<path d="M1270 190 c-6 0 -13 -6 -16 -14 -3 -8 -4 -31 -2 -52 2 -20 9 -39 16
-42 8 -3 12 12 12 52 0 32 -4 56 -10 56z"/>
<path d="M662 170 c-22 0 -67 -15 -112 -36 -41 -20 -80 -44 -87 -53 -7 -9 -8
-20 -3 -25 5 -5 20 -4 37 2 15 6 48 14 72 17 24 4 63 16 86 26 24 10 46 26 49
35 3 9 4 20 0 25 -3 5 -22 9 -42 9z"/>
</g>
</svg>
