<?xml version="1.0" standalone="no"?>
<!DOCTYPE svg PUBLIC "-//W3C//DTD SVG 20010904//EN"
 "http://www.w3.org/TR/2001/REC-SVG-20010904/DTD/svg10.dtd">
<svg version="1.0" xmlns="http://www.w3.org/2000/svg"
 width="128.000000pt" height="128.000000pt" viewBox="0 0 128.000000 128.000000"
 preserveAspectRatio="xMidYMid meet">
<metadata>
Created by potrace 1.16, written by Peter Selinger 2001-2019
</metadata>
<g transform="translate(0.000000,128.000000) scale(0.100000,-0.100000)"
fill="#000000" stroke="none">
<path d="M702 1260 c-12 0 -24 -5 -28 -11 -4 -7 2 -19 13 -28 15 -11 22 -32
26 -71 2 -30 0 -66 -5 -81 -7 -21 -17 -28 -48 -32 -22 -3 -56 -1 -76 3 -20 5
-46 18 -58 29 -12 12 -27 21 -32 21 -6 0 -15 -5 -21 -11 -9 -9 -9 -18 2 -38 7
-14 27 -39 44 -54 26 -24 31 -36 31 -72 0 -33 -12 -67 -45 -132 -25 -48 -48
-100 -50 -114 -4 -19 4 -37 25 -64 27 -34 30 -45 30 -109 0 -67 -2 -74 -40
-123 -21 -29 -44 -71 -50 -93 -9 -34 -14 -39 -25 -30 -8 7 -19 9 -25 5 -5 -3
-10 -13 -10 -22 0 -8 -8 -25 -17 -36 -10 -13 -27 -21 -39 -19 -11 2 -27 -5
-36 -15 -9 -10 -18 -29 -20 -43 -3 -23 0 -25 32 -24 19 1 55 10 80 22 25 11
54 30 64 41 11 12 26 21 35 21 9 0 29 14 44 31 15 17 27 34 27 38 0 3 -9 12
-20 19 -11 7 -20 20 -20 30 0 10 3 22 6 25 4 3 15 2 25 -4 10 -5 27 -24 36
-42 10 -18 22 -46 29 -64 6 -17 22 -46 35 -63 13 -17 43 -53 67 -79 23 -27 42
-53 42 -60 0 -6 4 -11 9 -11 5 0 11 6 13 12 3 7 6 60 7 117 2 57 7 115 12 129
5 14 17 31 27 39 16 12 15 13 -5 19 -14 4 -23 16 -27 37 -3 18 -8 66 -11 107
-3 41 -10 102 -15 134 -5 32 -6 64 -2 70 4 6 8 22 9 36 1 14 5 53 9 87 4 37 2
75 -5 94 -8 24 -8 36 2 47 6 8 12 36 12 61 0 45 0 45 45 54 25 5 51 15 59 22
7 7 11 20 8 27 -3 8 -19 13 -40 13 -32 -1 -36 2 -41 29 -4 17 -9 43 -13 59 -3
15 -18 36 -33 47 -16 11 -37 20 -48 20z m-27 -274 c6 -1 18 -20 29 -41 14 -30
16 -43 7 -57 -6 -10 -11 -51 -11 -92 0 -43 -5 -78 -11 -81 -6 -4 -21 3 -33 14
-17 16 -30 20 -50 15 -21 -5 -26 -3 -26 13 0 11 14 39 30 61 17 24 30 54 30
71 0 16 -7 34 -15 41 -8 7 -15 16 -15 21 0 5 12 15 28 23 15 8 32 14 37 12z
m-62 -296 c17 0 19 -5 13 -43 -6 -41 -6 -43 26 -55 33 -11 33 -11 36 -130 3
-108 1 -120 -17 -137 -17 -14 -27 -16 -53 -9 -26 8 -36 18 -46 49 -11 35 -11
42 6 65 10 14 29 47 40 74 12 26 19 52 16 57 -3 5 -12 9 -19 9 -8 0 -17 -11
-21 -26 -4 -16 -12 -24 -23 -22 -12 2 -17 17 -19 62 -3 49 0 62 19 82 12 13
31 24 42 24z m49 -419 c17 -6 24 -17 26 -45 3 -31 0 -37 -13 -34 -9 1 -24 15
-32 29 -9 15 -13 34 -10 43 5 12 12 14 29 7z"/>
<path d="M869 320 c-4 0 -11 -5 -14 -10 -4 -6 -2 -17 4 -24 7 -8 27 -17 46
-20 19 -4 39 -16 45 -26 6 -11 7 -32 4 -47 -4 -16 -17 -46 -29 -68 -13 -22
-26 -51 -30 -65 -4 -14 -14 -33 -23 -42 -14 -17 -13 -18 6 -18 13 0 22 6 22
14 0 8 12 21 27 28 15 7 37 27 48 45 11 17 31 36 43 42 18 8 22 16 17 29 -5 9
-8 24 -8 32 0 8 3 25 7 37 5 15 0 28 -16 45 -15 16 -43 29 -82 36 -33 7 -63
12 -67 12z"/>
</g>
</svg>
