<?xml version="1.0" standalone="no"?>
<!DOCTYPE svg PUBLIC "-//W3C//DTD SVG 20010904//EN"
 "http://www.w3.org/TR/2001/REC-SVG-20010904/DTD/svg10.dtd">
<svg version="1.0" xmlns="http://www.w3.org/2000/svg"
 width="56.000000pt" height="56.000000pt" viewBox="0 0 56.000000 56.000000"
 preserveAspectRatio="xMidYMid meet">
<metadata>
Created by potrace 1.16, written by Peter Selinger 2001-2019
</metadata>
<g transform="translate(0.000000,56.000000) scale(0.100000,-0.100000)"
fill="#000000" stroke="none">
<path d="M322 478 c-13 2 -25 -3 -28 -12 -3 -8 -3 -19 0 -25 3 -5 3 -17 0 -25
-4 -9 -18 -23 -33 -30 -14 -8 -79 -67 -144 -131 -87 -87 -116 -122 -112 -135
3 -10 13 -24 21 -31 14 -11 22 -6 57 34 42 47 42 47 135 58 59 8 101 18 115
29 15 13 23 33 27 71 3 29 10 54 17 56 6 2 25 -10 42 -28 17 -17 38 -49 48
-70 9 -21 22 -40 29 -43 7 -3 24 1 38 7 14 7 26 20 26 29 0 9 -4 18 -9 20 -4
2 -42 33 -82 69 -41 37 -85 76 -98 86 -13 11 -25 31 -26 44 -1 16 -8 25 -23
27z m-27 -132 c6 -1 14 -15 20 -30 8 -24 6 -31 -13 -46 -12 -10 -43 -26 -68
-36 -32 -12 -48 -14 -56 -6 -8 8 -4 19 11 39 12 15 39 40 59 55 20 15 42 26
47 24z"/>
<path d="M293 160 c-7 0 -17 -9 -23 -19 -8 -16 -4 -24 21 -45 17 -14 41 -26
54 -26 13 0 27 5 31 11 4 7 -9 26 -32 45 -21 19 -44 34 -51 34z"/>
</g>
</svg>
