<?xml version="1.0" standalone="no"?>
<!DOCTYPE svg PUBLIC "-//W3C//DTD SVG 20010904//EN"
 "http://www.w3.org/TR/2001/REC-SVG-20010904/DTD/svg10.dtd">
<svg version="1.0" xmlns="http://www.w3.org/2000/svg"
 width="56.000000pt" height="56.000000pt" viewBox="0 0 56.000000 56.000000"
 preserveAspectRatio="xMidYMid meet">
<metadata>
Created by potrace 1.16, written by Peter Selinger 2001-2019
</metadata>
<g transform="translate(0.000000,56.000000) scale(0.100000,-0.100000)"
fill="#000000" stroke="none">
<path d="M385 500 c-32 0 -35 -3 -46 -42 -8 -31 -8 -51 -1 -72 7 -18 8 -35 2
-46 -5 -10 -22 -21 -37 -25 -15 -3 -56 -23 -92 -44 -36 -21 -88 -48 -115 -60
-27 -11 -57 -21 -67 -21 -12 0 -21 -10 -25 -25 -4 -16 0 -34 10 -50 9 -14 24
-25 32 -25 9 0 47 28 84 63 68 63 68 63 154 63 54 1 91 6 101 14 8 7 15 23 15
35 0 12 6 28 14 34 11 10 22 6 50 -20 20 -17 36 -40 36 -50 0 -11 -16 -29 -40
-44 -22 -14 -70 -39 -107 -55 -38 -17 -79 -37 -93 -45 -14 -7 -25 -17 -25 -22
0 -4 15 -9 34 -11 24 -3 47 5 83 27 27 17 56 31 64 31 7 0 35 6 61 13 26 6 56
20 65 30 11 10 18 32 18 52 0 19 -4 35 -10 35 -5 0 -10 7 -10 15 0 8 -21 30
-46 50 -26 19 -55 35 -64 35 -10 0 -25 12 -35 26 -15 23 -16 32 -5 65 7 22 17
39 22 39 4 0 8 7 8 15 0 10 -11 15 -35 15z"/>
</g>
</svg>
