<?xml version="1.0" standalone="no"?>
<!DOCTYPE svg PUBLIC "-//W3C//DTD SVG 20010904//EN"
 "http://www.w3.org/TR/2001/REC-SVG-20010904/DTD/svg10.dtd">
<svg version="1.0" xmlns="http://www.w3.org/2000/svg"
 width="56.000000pt" height="56.000000pt" viewBox="0 0 56.000000 56.000000"
 preserveAspectRatio="xMidYMid meet">
<metadata>
Created by potrace 1.16, written by Peter Selinger 2001-2019
</metadata>
<g transform="translate(0.000000,56.000000) scale(0.100000,-0.100000)"
fill="#000000" stroke="none">
<path d="M389 560 c-2 -1 -8 -5 -14 -10 -5 -4 -38 -34 -72 -66 -35 -31 -64
-53 -64 -48 -1 5 -2 22 -3 39 -1 18 -7 31 -17 33 -12 2 -18 -8 -22 -45 -4 -26
-11 -65 -17 -87 -7 -24 -15 -35 -21 -29 -5 5 -14 36 -19 68 -5 32 -15 62 -22
66 -7 4 -16 5 -20 3 -4 -3 -8 -22 -8 -42 0 -20 7 -61 14 -90 15 -54 15 -54
-20 -91 -20 -23 -34 -49 -34 -64 0 -14 3 -32 6 -41 3 -9 11 -16 17 -16 6 0 23
12 38 26 28 26 28 26 43 -10 8 -20 22 -43 30 -51 8 -8 19 -15 25 -15 6 0 11
16 11 36 0 21 -12 57 -27 84 -27 48 -27 48 -8 86 11 21 52 71 91 111 39 40 76
73 81 73 6 0 13 -10 17 -22 3 -13 6 -33 6 -46 0 -20 2 -21 22 -11 18 10 24 8
35 -7 7 -10 13 -32 13 -48 0 -17 -9 -46 -20 -63 -11 -18 -23 -33 -28 -33 -5 0
-19 11 -31 24 -16 17 -20 30 -16 48 4 17 1 31 -10 42 -10 9 -22 15 -29 13 -6
-2 -11 -19 -11 -38 0 -23 -7 -40 -23 -54 -15 -13 -24 -33 -25 -54 -2 -32 1
-35 43 -49 25 -8 48 -20 52 -26 4 -5 4 -24 1 -41 -3 -16 -14 -48 -24 -69 -11
-22 -19 -41 -19 -43 0 -2 13 -3 29 -3 26 0 30 5 45 49 9 28 16 68 16 90 0 33
6 44 34 68 18 15 41 42 50 60 9 18 16 55 16 82 0 28 -5 61 -11 75 -7 13 -25
30 -40 37 -21 8 -29 18 -29 38 0 14 -7 34 -14 44 -7 9 -15 17 -17 17z"/>
</g>
</svg>
