<?xml version="1.0" standalone="no"?>
<!DOCTYPE svg PUBLIC "-//W3C//DTD SVG 20010904//EN"
 "http://www.w3.org/TR/2001/REC-SVG-20010904/DTD/svg10.dtd">
<svg version="1.0" xmlns="http://www.w3.org/2000/svg"
 width="56.000000pt" height="56.000000pt" viewBox="0 0 56.000000 56.000000"
 preserveAspectRatio="xMidYMid meet">
<metadata>
Created by potrace 1.16, written by Peter Selinger 2001-2019
</metadata>
<g transform="translate(0.000000,56.000000) scale(0.100000,-0.100000)"
fill="#000000" stroke="none">
<path d="M358 488 c-9 2 -19 -2 -23 -8 -4 -6 -5 -54 -4 -106 3 -96 3 -96 -47
-118 -28 -11 -62 -29 -77 -38 -14 -10 -30 -18 -35 -18 -5 0 -15 -7 -22 -15 -8
-9 -30 -15 -60 -15 -33 0 -52 -5 -63 -18 -9 -10 -20 -33 -23 -50 -5 -26 -3
-32 11 -32 9 0 30 9 46 21 16 11 44 23 63 26 21 3 36 12 39 23 2 10 32 34 66
54 34 20 69 36 77 36 12 0 12 -4 4 -20 -6 -11 -33 -29 -60 -41 -27 -12 -47
-25 -44 -30 3 -5 16 -9 29 -9 13 0 27 5 30 10 3 6 14 10 24 10 9 0 29 12 43
28 14 15 32 41 39 57 8 17 23 31 34 33 11 1 34 -6 50 -16 17 -10 37 -31 45
-46 10 -20 11 -32 4 -44 -6 -9 -28 -19 -48 -22 -20 -3 -38 -9 -39 -15 -1 -6
29 -11 71 -13 72 -3 72 -3 72 42 0 31 -7 52 -22 71 -13 15 -34 38 -47 51 -18
18 -35 24 -67 24 -43 0 -43 0 -46 92 -3 77 -6 93 -20 96z"/>
</g>
</svg>
