<?xml version="1.0" standalone="no"?>
<!DOCTYPE svg PUBLIC "-//W3C//DTD SVG 20010904//EN"
 "http://www.w3.org/TR/2001/REC-SVG-20010904/DTD/svg10.dtd">
<svg version="1.0" xmlns="http://www.w3.org/2000/svg"
 width="56.000000pt" height="56.000000pt" viewBox="0 0 56.000000 56.000000"
 preserveAspectRatio="xMidYMid meet">
<metadata>
Created by potrace 1.16, written by Peter Selinger 2001-2019
</metadata>
<g transform="translate(0.000000,56.000000) scale(0.100000,-0.100000)"
fill="#000000" stroke="none">
<path d="M300 450 c-9 0 -20 -3 -23 -7 -4 -3 -7 -17 -7 -30 0 -14 4 -33 10
-43 5 -10 12 -43 16 -73 6 -55 6 -55 -31 -80 -21 -15 -42 -24 -47 -21 -5 3 -4
12 3 20 9 11 8 15 -2 19 -8 3 -41 -9 -74 -26 -33 -17 -71 -37 -85 -44 -14 -7
-33 -16 -42 -19 -10 -3 -18 -12 -18 -21 0 -10 10 -15 33 -15 18 0 38 5 44 11
6 6 41 11 77 10 37 0 78 4 92 9 14 6 45 26 69 45 40 34 42 37 38 79 -3 24 -1
46 3 49 5 3 27 -11 49 -31 22 -21 46 -49 53 -63 8 -14 26 -33 40 -42 19 -11
32 -13 45 -6 9 6 17 15 17 22 0 6 -26 36 -57 65 -32 29 -74 60 -93 68 -19 9
-42 19 -50 23 -8 5 -16 17 -18 27 -2 10 -8 31 -14 47 -6 15 -18 27 -28 27z"/>
</g>
</svg>
