<?xml version="1.0" standalone="no"?>
<!DOCTYPE svg PUBLIC "-//W3C//DTD SVG 20010904//EN"
 "http://www.w3.org/TR/2001/REC-SVG-20010904/DTD/svg10.dtd">
<svg version="1.0" xmlns="http://www.w3.org/2000/svg"
 width="56.000000pt" height="56.000000pt" viewBox="0 0 56.000000 56.000000"
 preserveAspectRatio="xMidYMid meet">
<metadata>
Created by potrace 1.16, written by Peter Selinger 2001-2019
</metadata>
<g transform="translate(0.000000,56.000000) scale(0.100000,-0.100000)"
fill="#000000" stroke="none">
<path d="M260 510 c-9 0 -20 -3 -23 -7 -4 -3 -7 -15 -7 -26 0 -11 11 -35 26
-54 17 -22 22 -38 16 -48 -4 -9 -33 -35 -63 -58 -31 -23 -85 -66 -121 -95 -41
-32 -70 -65 -77 -84 -6 -17 -11 -35 -11 -39 0 -5 9 -9 19 -9 11 0 21 4 23 8 1
4 24 23 51 42 38 27 58 34 105 36 31 2 62 3 67 4 6 0 24 -2 40 -6 26 -5 34 -1
54 27 13 18 24 40 23 48 0 9 1 26 4 38 2 12 13 27 25 33 19 11 20 9 14 -27 -5
-33 -4 -35 6 -15 7 12 21 22 31 22 10 0 21 -7 24 -15 4 -9 -15 -38 -50 -76
-31 -33 -56 -66 -56 -74 0 -8 -18 -29 -40 -46 -22 -18 -40 -38 -40 -46 0 -8
13 -13 35 -13 24 0 42 7 55 22 12 13 27 30 35 39 8 9 15 20 15 24 0 5 8 18 18
29 10 12 27 41 37 66 10 25 25 52 32 61 7 8 13 30 13 47 0 18 5 32 10 32 6 0
10 6 10 13 0 7 -22 27 -49 45 -28 17 -58 32 -68 32 -11 0 -28 -7 -39 -15 -10
-8 -27 -15 -37 -15 -10 0 -20 8 -24 18 -3 9 -20 32 -36 50 -17 17 -38 32 -47
32z m47 -190 c10 0 13 -10 11 -32 -2 -26 -8 -34 -27 -36 -13 -2 -28 1 -34 7
-8 8 -4 18 13 36 13 14 30 25 37 25z"/>
</g>
</svg>
