<?xml version="1.0" standalone="no"?>
<!DOCTYPE svg PUBLIC "-//W3C//DTD SVG 20010904//EN"
 "http://www.w3.org/TR/2001/REC-SVG-20010904/DTD/svg10.dtd">
<svg version="1.0" xmlns="http://www.w3.org/2000/svg"
 width="56.000000pt" height="56.000000pt" viewBox="0 0 56.000000 56.000000"
 preserveAspectRatio="xMidYMid meet">
<metadata>
Created by potrace 1.16, written by Peter Selinger 2001-2019
</metadata>
<g transform="translate(0.000000,56.000000) scale(0.100000,-0.100000)"
fill="#000000" stroke="none">
<path d="M241 510 c-6 0 -13 -5 -16 -11 -4 -6 -4 -30 -1 -53 4 -24 13 -52 21
-62 8 -11 15 -29 15 -41 0 -12 -12 -30 -27 -41 -16 -11 -44 -22 -63 -25 -19
-3 -57 -13 -85 -22 -27 -10 -57 -21 -65 -25 -8 -4 -16 -23 -18 -44 -2 -21 1
-36 7 -36 6 0 11 4 11 8 0 5 26 15 58 22 31 8 75 13 97 11 22 -2 56 -12 75
-24 26 -14 44 -18 64 -13 16 4 41 20 57 36 23 22 29 38 29 69 0 31 4 41 16 41
8 0 25 -5 37 -11 12 -6 30 -18 39 -26 15 -14 16 -18 3 -43 -8 -15 -26 -42 -41
-60 -15 -18 -59 -47 -98 -65 -39 -18 -79 -35 -89 -39 -10 -3 -15 -10 -12 -16
3 -5 26 -10 50 -10 24 0 47 4 50 10 3 5 16 10 28 10 12 0 43 16 69 35 25 19
60 54 77 79 17 24 31 56 31 70 0 14 -8 36 -17 48 -10 12 -30 35 -45 51 -26 26
-32 28 -94 25 -60 -2 -67 0 -84 22 -11 14 -31 49 -45 78 -13 28 -29 52 -34 52z
m79 -214 c10 -1 15 -12 15 -31 0 -28 -3 -29 -62 -40 -34 -6 -68 -8 -75 -4 -7
4 -10 11 -6 14 3 3 30 19 59 34 30 16 61 28 69 27z"/>
</g>
</svg>
