<?xml version="1.0" standalone="no"?>
<!DOCTYPE svg PUBLIC "-//W3C//DTD SVG 20010904//EN"
 "http://www.w3.org/TR/2001/REC-SVG-20010904/DTD/svg10.dtd">
<svg version="1.0" xmlns="http://www.w3.org/2000/svg"
 width="56.000000pt" height="56.000000pt" viewBox="0 0 56.000000 56.000000"
 preserveAspectRatio="xMidYMid meet">
<metadata>
Created by potrace 1.16, written by Peter Selinger 2001-2019
</metadata>
<g transform="translate(0.000000,56.000000) scale(0.100000,-0.100000)"
fill="#000000" stroke="none">
<path d="M380 520 c-26 0 -33 -6 -49 -42 -10 -24 -23 -59 -29 -78 -6 -19 -8
-48 -5 -65 3 -16 9 -35 14 -41 4 -5 6 -20 3 -31 -3 -12 -15 -23 -25 -26 -18
-5 -19 -8 -7 -27 12 -19 10 -24 -17 -46 -16 -13 -38 -24 -48 -24 -14 0 -17 5
-12 20 4 12 2 20 -5 20 -7 0 -33 -17 -59 -38 -25 -22 -68 -45 -94 -53 -39 -11
-47 -17 -45 -34 2 -12 12 -21 26 -23 13 -2 37 2 52 8 16 7 36 23 44 35 9 13
24 24 33 24 10 0 41 4 68 9 28 4 60 13 72 20 12 7 31 24 42 38 12 15 21 39 21
55 0 27 1 28 33 17 17 -6 40 -18 50 -26 10 -9 25 -31 34 -49 13 -28 21 -33 49
-33 31 0 34 3 34 28 0 16 -8 36 -18 45 -10 10 -22 17 -26 17 -4 0 -28 14 -53
31 -38 27 -51 30 -84 25 -39 -6 -39 -6 -39 54 0 33 6 75 14 93 7 18 23 41 35
51 11 11 21 25 21 33 0 8 -12 13 -30 13z"/>
</g>
</svg>
