<?xml version="1.0" standalone="no"?>
<!DOCTYPE svg PUBLIC "-//W3C//DTD SVG 20010904//EN"
 "http://www.w3.org/TR/2001/REC-SVG-20010904/DTD/svg10.dtd">
<svg version="1.0" xmlns="http://www.w3.org/2000/svg"
 width="56.000000pt" height="56.000000pt" viewBox="0 0 56.000000 56.000000"
 preserveAspectRatio="xMidYMid meet">
<metadata>
Created by potrace 1.16, written by Peter Selinger 2001-2019
</metadata>
<g transform="translate(0.000000,56.000000) scale(0.100000,-0.100000)"
fill="#000000" stroke="none">
<path d="M350 500 c-15 0 -34 -8 -42 -17 -8 -10 -20 -26 -25 -37 -7 -12 -7
-29 0 -50 5 -17 17 -49 24 -71 14 -38 14 -40 -11 -60 -14 -11 -26 -24 -26 -28
0 -4 10 -7 23 -7 20 -1 19 -3 -12 -29 -19 -15 -31 -33 -28 -38 4 -6 18 -10 32
-10 13 0 36 11 50 25 14 13 25 35 25 48 0 21 5 24 40 24 30 0 47 -7 65 -25 14
-13 25 -31 25 -39 0 -8 -15 -26 -32 -39 -18 -13 -59 -30 -91 -37 -31 -7 -62
-19 -69 -27 -8 -10 -8 -17 0 -25 8 -8 22 -8 54 2 24 8 61 21 83 31 22 9 48 19
58 23 9 3 22 18 28 33 6 15 8 42 5 59 -4 17 -19 43 -36 59 -25 24 -35 27 -68
23 -22 -3 -44 -3 -49 1 -6 3 -19 31 -31 62 -21 57 -21 57 13 97 19 21 31 42
28 46 -3 3 -18 6 -33 6z"/>
<path d="M210 229 c-8 0 -35 -8 -60 -16 -25 -9 -60 -23 -78 -32 -19 -9 -41
-28 -50 -43 -12 -20 -13 -31 -6 -38 8 -8 25 -1 60 24 27 20 71 52 99 71 27 19
43 35 35 34z"/>
</g>
</svg>
