<?xml version="1.0" standalone="no"?>
<!DOCTYPE svg PUBLIC "-//W3C//DTD SVG 20010904//EN"
 "http://www.w3.org/TR/2001/REC-SVG-20010904/DTD/svg10.dtd">
<svg version="1.0" xmlns="http://www.w3.org/2000/svg"
 width="56.000000pt" height="56.000000pt" viewBox="0 0 56.000000 56.000000"
 preserveAspectRatio="xMidYMid meet">
<metadata>
Created by potrace 1.16, written by Peter Selinger 2001-2019
</metadata>
<g transform="translate(0.000000,56.000000) scale(0.100000,-0.100000)"
fill="#000000" stroke="none">
<path d="M129 520 c-8 0 -24 -23 -36 -51 -13 -28 -23 -70 -23 -94 0 -24 4 -55
9 -68 8 -21 5 -29 -21 -53 -16 -16 -36 -41 -44 -56 -8 -15 -14 -39 -14 -53 0
-15 10 -49 21 -76 17 -39 26 -49 46 -49 19 0 28 9 44 45 11 25 24 45 29 45 5
0 12 -9 15 -20 3 -11 13 -20 21 -20 8 0 14 4 14 9 0 5 -5 31 -11 58 -11 48
-10 52 29 129 22 43 43 88 46 99 3 12 30 35 59 53 29 18 56 32 60 32 4 0 7
-15 7 -34 0 -20 -15 -63 -34 -100 -30 -57 -32 -67 -20 -83 7 -10 14 -21 14
-25 0 -5 -10 -8 -23 -8 -12 0 -33 -7 -45 -16 -17 -12 -22 -25 -22 -60 0 -37 4
-46 23 -53 13 -5 29 -16 36 -25 9 -11 30 -16 70 -16 48 0 62 4 93 30 20 17 48
51 62 76 14 26 26 57 26 69 0 13 -3 25 -7 27 -5 2 -16 17 -25 33 -9 17 -32 36
-53 44 -29 11 -41 12 -56 3 -16 -10 -19 -9 -19 7 0 10 7 36 16 57 9 22 20 51
25 67 6 23 4 30 -17 44 -24 15 -28 15 -62 -4 -20 -11 -48 -26 -62 -34 -13 -8
-31 -20 -38 -27 -12 -11 -19 -10 -39 3 -14 9 -32 14 -40 10 -14 -5 -13 -9 6
-29 22 -23 22 -23 -21 -59 -40 -34 -44 -35 -56 -19 -7 9 -11 30 -9 47 3 17 10
46 15 65 6 19 14 45 17 58 5 15 3 22 -6 22z m63 -190 c4 0 1 -16 -7 -36 -8
-20 -15 -38 -15 -40 0 -2 -4 -4 -10 -4 -5 0 -10 10 -10 22 0 12 7 30 17 40 9
10 20 18 25 18z m241 -41 c4 1 17 -5 29 -11 13 -7 28 -20 35 -28 7 -8 12 -31
12 -50 1 -19 -8 -46 -18 -59 -18 -24 -18 -24 -55 5 -21 16 -45 45 -55 66 -10
20 -16 40 -12 45 3 5 17 14 31 20 14 6 28 12 33 12z m-339 -52 c6 -2 15 -18
20 -37 8 -27 5 -40 -14 -76 -12 -24 -28 -44 -35 -44 -6 0 -17 11 -23 25 -7 14
-12 33 -12 42 0 10 12 34 27 55 14 21 31 37 37 35z m229 -67 c4 0 3 -9 -4 -21
-8 -16 -14 -18 -22 -10 -9 9 -8 14 3 21 8 5 19 10 23 10z m51 -30 c6 0 22 -7
34 -16 12 -8 22 -21 22 -28 0 -7 -16 -18 -37 -24 -24 -7 -42 -8 -55 -1 -10 6
-16 15 -12 22 4 7 14 20 22 30 8 9 20 17 26 17z"/>
</g>
</svg>
