<?xml version="1.0" standalone="no"?>
<!DOCTYPE svg PUBLIC "-//W3C//DTD SVG 20010904//EN"
 "http://www.w3.org/TR/2001/REC-SVG-20010904/DTD/svg10.dtd">
<svg version="1.0" xmlns="http://www.w3.org/2000/svg"
 width="56.000000pt" height="56.000000pt" viewBox="0 0 56.000000 56.000000"
 preserveAspectRatio="xMidYMid meet">
<metadata>
Created by potrace 1.16, written by Peter Selinger 2001-2019
</metadata>
<g transform="translate(0.000000,56.000000) scale(0.100000,-0.100000)"
fill="#000000" stroke="none">
<path d="M416 540 c-14 0 -32 -10 -40 -22 -9 -12 -16 -30 -16 -38 0 -9 -5 -21
-11 -27 -6 -6 -12 -23 -14 -39 -2 -16 1 -34 7 -41 5 -7 8 -22 6 -35 -2 -17
-22 -32 -78 -61 -59 -31 -95 -60 -173 -140 -53 -56 -96 -106 -94 -112 2 -5 11
-11 20 -13 10 -2 37 18 67 51 48 52 52 55 90 50 34 -5 49 1 114 41 42 26 87
61 101 79 26 32 26 32 60 -8 18 -21 36 -54 40 -72 3 -18 10 -35 16 -39 6 -3
19 3 30 15 10 11 19 30 19 42 0 12 -13 37 -30 56 -16 18 -30 38 -30 43 0 4
-23 19 -51 31 -32 15 -55 33 -60 47 -5 13 -9 38 -9 56 0 20 8 40 20 51 11 10
20 26 20 36 0 10 5 21 10 24 6 3 10 10 10 16 0 5 -11 9 -24 9z m-88 -270 c6 0
12 -6 12 -13 0 -7 -12 -25 -27 -40 -16 -14 -45 -33 -67 -42 -21 -9 -41 -14
-44 -11 -2 3 1 13 9 22 8 10 34 32 59 50 25 19 51 34 58 34z"/>
</g>
</svg>
