<?xml version="1.0" standalone="no"?>
<!DOCTYPE svg PUBLIC "-//W3C//DTD SVG 20010904//EN"
 "http://www.w3.org/TR/2001/REC-SVG-20010904/DTD/svg10.dtd">
<svg version="1.0" xmlns="http://www.w3.org/2000/svg"
 width="56.000000pt" height="56.000000pt" viewBox="0 0 56.000000 56.000000"
 preserveAspectRatio="xMidYMid meet">
<metadata>
Created by potrace 1.16, written by Peter Selinger 2001-2019
</metadata>
<g transform="translate(0.000000,56.000000) scale(0.100000,-0.100000)"
fill="#000000" stroke="none">
<path d="M228 517 c-16 3 -28 2 -28 -2 0 -3 5 -15 10 -26 6 -10 16 -19 22 -19
7 0 22 -10 35 -21 22 -22 22 -22 -7 -56 -24 -26 -30 -43 -30 -78 0 -37 4 -47
30 -65 17 -12 30 -27 30 -34 0 -7 -22 -27 -49 -44 -27 -18 -54 -32 -60 -32 -5
0 -26 -14 -46 -31 -29 -26 -38 -29 -50 -19 -13 11 -19 9 -36 -8 -11 -12 -24
-22 -29 -22 -6 0 -10 -9 -10 -19 0 -11 4 -22 9 -26 5 -3 12 -1 15 4 3 5 34 12
68 16 35 3 90 13 122 21 33 8 74 26 92 39 18 14 42 25 53 25 16 0 21 6 21 25
0 22 4 25 39 25 22 0 46 -7 55 -15 9 -9 12 -23 9 -32 -4 -10 -18 -27 -32 -39
-14 -12 -38 -25 -53 -28 -16 -3 -28 -10 -28 -16 0 -5 8 -10 17 -10 9 0 32 -5
50 -12 32 -12 34 -11 63 22 16 19 29 41 30 48 0 6 5 12 10 12 6 0 10 7 10 15
0 8 -4 15 -10 15 -5 0 -10 6 -10 13 0 7 -15 27 -32 43 -18 17 -47 36 -65 43
-17 7 -40 10 -50 7 -12 -4 -36 5 -66 25 -30 20 -47 38 -47 51 0 11 9 33 21 49
11 16 27 29 36 29 9 0 22 8 29 18 7 9 14 23 14 30 0 7 -6 19 -12 25 -7 7 -35
20 -63 31 -27 10 -62 21 -77 23z m51 -357 c5 0 13 -5 17 -11 3 -6 -2 -19 -12
-29 -11 -9 -38 -24 -61 -33 -26 -10 -44 -13 -48 -7 -3 6 7 15 22 22 15 7 38
23 50 35 12 13 26 23 32 23z"/>
</g>
</svg>
