<?xml version="1.0" standalone="no"?>
<!DOCTYPE svg PUBLIC "-//W3C//DTD SVG 20010904//EN"
 "http://www.w3.org/TR/2001/REC-SVG-20010904/DTD/svg10.dtd">
<svg version="1.0" xmlns="http://www.w3.org/2000/svg"
 width="56.000000pt" height="56.000000pt" viewBox="0 0 56.000000 56.000000"
 preserveAspectRatio="xMidYMid meet">
<metadata>
Created by potrace 1.16, written by Peter Selinger 2001-2019
</metadata>
<g transform="translate(0.000000,56.000000) scale(0.100000,-0.100000)"
fill="#000000" stroke="none">
<path d="M299 460 c-10 0 -21 -5 -24 -10 -3 -6 3 -22 14 -36 12 -15 21 -40 21
-55 0 -26 -4 -29 -41 -35 -24 -4 -66 -25 -102 -50 -34 -24 -83 -53 -109 -65
-26 -12 -50 -30 -54 -41 -3 -12 1 -27 12 -39 9 -10 22 -19 29 -19 6 0 22 11
35 25 13 14 28 25 34 25 5 0 20 10 32 21 14 13 30 19 39 15 12 -4 14 -14 9
-41 -5 -30 -3 -36 18 -44 14 -5 40 -10 59 -11 19 -1 39 -2 46 -1 7 1 10 8 7
16 -3 8 -16 17 -27 21 -12 4 -35 16 -51 27 -27 19 -27 21 -9 31 11 6 26 17 34
24 8 7 30 23 49 35 23 15 36 32 38 50 2 15 8 27 13 27 5 0 24 -6 42 -14 18 -7
40 -21 50 -30 10 -11 17 -33 17 -57 0 -22 5 -49 10 -60 7 -12 21 -19 40 -19
29 0 30 1 30 50 0 28 -4 50 -10 50 -5 0 -10 6 -10 13 0 8 -7 27 -15 44 -10 21
-27 33 -54 41 -21 7 -54 12 -73 12 -30 0 -35 4 -47 38 -8 20 -18 43 -23 50 -6
6 -19 12 -29 12z"/>
</g>
</svg>
