<?xml version="1.0" standalone="no"?>
<!DOCTYPE svg PUBLIC "-//W3C//DTD SVG 20010904//EN"
 "http://www.w3.org/TR/2001/REC-SVG-20010904/DTD/svg10.dtd">
<svg version="1.0" xmlns="http://www.w3.org/2000/svg"
 width="56.000000pt" height="56.000000pt" viewBox="0 0 56.000000 56.000000"
 preserveAspectRatio="xMidYMid meet">
<metadata>
Created by potrace 1.16, written by Peter Selinger 2001-2019
</metadata>
<g transform="translate(0.000000,56.000000) scale(0.100000,-0.100000)"
fill="#000000" stroke="none">
<path d="M397 560 c-16 0 -28 -9 -37 -27 -7 -16 -18 -40 -26 -54 -7 -14 -20
-47 -30 -74 -12 -35 -14 -67 -10 -114 3 -36 9 -87 12 -112 4 -32 1 -56 -9 -76
-14 -26 -19 -28 -57 -25 -30 3 -39 7 -31 15 6 6 11 15 11 19 0 4 -5 8 -11 8
-5 0 -24 -13 -42 -30 -17 -16 -51 -39 -74 -51 -24 -12 -43 -26 -43 -31 0 -4
12 -8 26 -8 15 0 41 9 58 19 18 11 61 22 103 26 64 6 76 11 98 37 14 16 25 33
25 38 0 5 12 3 27 -5 14 -8 36 -25 47 -39 12 -14 30 -26 41 -28 16 -2 20 3 20
26 0 16 -7 32 -15 36 -8 4 -27 13 -42 19 -16 6 -39 16 -53 23 -14 6 -25 20
-25 30 0 11 -5 28 -11 39 -6 11 -11 50 -11 85 -1 37 3 69 10 76 7 7 12 19 12
27 0 9 14 43 30 76 17 33 30 63 30 67 0 5 -10 8 -23 8z"/>
</g>
</svg>
