<?xml version="1.0" standalone="no"?>
<!DOCTYPE svg PUBLIC "-//W3C//DTD SVG 20010904//EN"
 "http://www.w3.org/TR/2001/REC-SVG-20010904/DTD/svg10.dtd">
<svg version="1.0" xmlns="http://www.w3.org/2000/svg"
 width="56.000000pt" height="56.000000pt" viewBox="0 0 56.000000 56.000000"
 preserveAspectRatio="xMidYMid meet">
<metadata>
Created by potrace 1.16, written by Peter Selinger 2001-2019
</metadata>
<g transform="translate(0.000000,56.000000) scale(0.100000,-0.100000)"
fill="#000000" stroke="none">
<path d="M328 478 c-14 2 -29 -2 -33 -7 -3 -6 -2 -19 3 -28 5 -10 7 -23 5 -30
-2 -6 0 -14 5 -17 5 -3 7 -16 5 -30 -3 -13 -14 -26 -24 -29 -10 -3 -19 -12
-19 -21 0 -9 6 -19 13 -22 7 -2 13 -15 12 -27 0 -12 -7 -31 -15 -43 -8 -11
-27 -24 -42 -28 -16 -3 -28 -13 -28 -21 0 -7 4 -17 10 -20 5 -3 35 0 66 7 55
13 58 15 77 62 18 41 22 46 32 32 7 -9 17 -16 24 -16 6 0 11 -6 11 -14 0 -7 7
-19 15 -26 8 -7 21 -26 30 -43 8 -16 15 -36 15 -43 0 -7 5 -16 11 -19 5 -4 21
-4 35 -1 19 5 24 13 24 37 0 16 -6 37 -12 45 -7 9 -23 26 -34 37 -12 12 -23
31 -25 41 -2 11 -28 32 -59 48 -30 17 -59 34 -64 39 -6 5 -10 37 -10 71 -1 61
-2 63 -28 66z"/>
<path d="M246 320 c-7 0 -27 -10 -44 -22 -17 -13 -52 -38 -77 -55 -25 -18 -50
-33 -55 -33 -4 0 -20 -14 -34 -31 -14 -17 -29 -42 -32 -56 -4 -16 -1 -30 9
-40 14 -15 18 -15 41 0 13 9 51 48 83 87 32 39 73 80 91 92 18 11 32 28 32 39
0 10 -6 19 -14 19z"/>
</g>
</svg>
