<?xml version="1.0" standalone="no"?>
<!DOCTYPE svg PUBLIC "-//W3C//DTD SVG 20010904//EN"
 "http://www.w3.org/TR/2001/REC-SVG-20010904/DTD/svg10.dtd">
<svg version="1.0" xmlns="http://www.w3.org/2000/svg"
 width="56.000000pt" height="56.000000pt" viewBox="0 0 56.000000 56.000000"
 preserveAspectRatio="xMidYMid meet">
<metadata>
Created by potrace 1.16, written by Peter Selinger 2001-2019
</metadata>
<g transform="translate(0.000000,56.000000) scale(0.100000,-0.100000)"
fill="#000000" stroke="none">
<path d="M278 420 c-16 0 -28 -3 -28 -7 0 -3 8 -15 17 -25 16 -18 16 -21 0
-51 -9 -18 -16 -45 -14 -62 2 -29 1 -30 -83 -52 -47 -12 -103 -28 -125 -36
-32 -11 -41 -20 -43 -41 -3 -25 -1 -26 25 -20 15 4 33 10 38 14 6 3 30 13 55
21 26 8 81 14 130 13 51 -1 88 3 92 10 4 6 5 21 1 34 -4 18 -2 21 13 16 11 -3
33 -12 50 -20 17 -7 37 -20 44 -29 7 -8 20 -15 28 -15 13 0 12 -3 -4 -14 -16
-12 -16 -15 -4 -20 8 -2 32 -7 53 -11 36 -6 37 -5 37 25 0 18 -10 41 -25 59
-17 18 -44 32 -80 41 -29 7 -72 10 -95 7 -33 -4 -45 -1 -60 16 -11 11 -20 27
-20 34 0 8 8 16 18 20 9 3 25 13 34 20 10 9 14 22 10 31 -3 10 -13 22 -21 29
-9 7 -28 13 -43 13z"/>
</g>
</svg>
