<?xml version="1.0" standalone="no"?>
<!DOCTYPE svg PUBLIC "-//W3C//DTD SVG 20010904//EN"
 "http://www.w3.org/TR/2001/REC-SVG-20010904/DTD/svg10.dtd">
<svg version="1.0" xmlns="http://www.w3.org/2000/svg"
 width="56.000000pt" height="56.000000pt" viewBox="0 0 56.000000 56.000000"
 preserveAspectRatio="xMidYMid meet">
<metadata>
Created by potrace 1.16, written by Peter Selinger 2001-2019
</metadata>
<g transform="translate(0.000000,56.000000) scale(0.100000,-0.100000)"
fill="#000000" stroke="none">
<path d="M143 536 c-16 4 -25 1 -29 -9 -3 -9 -3 -21 1 -27 3 -5 24 -10 45 -10
29 0 42 5 50 20 10 18 8 20 -17 20 -15 0 -38 3 -50 6z"/>
<path d="M347 525 c-29 0 -53 -6 -60 -13 -8 -11 -7 -16 6 -23 9 -6 17 -14 17
-19 0 -5 -4 -20 -10 -35 -8 -22 -12 -24 -29 -13 -11 7 -24 9 -28 5 -4 -5 7
-19 25 -33 24 -19 32 -33 32 -58 0 -21 -8 -40 -22 -53 -13 -11 -45 -35 -73
-53 -27 -19 -52 -37 -55 -40 -3 -4 -38 -28 -77 -54 -60 -38 -73 -51 -73 -73 0
-23 3 -25 32 -19 17 3 55 24 83 46 35 27 62 40 83 40 18 0 53 5 79 11 27 6 64
17 83 23 28 10 34 17 32 34 -2 12 2 22 8 22 7 0 26 -15 43 -34 18 -19 41 -46
53 -61 15 -21 25 -26 42 -21 13 5 22 16 22 28 0 12 -16 42 -36 67 -20 25 -63
71 -95 101 -59 55 -59 55 -48 120 6 36 11 74 12 85 2 17 -4 20 -46 20z m-14
-264 c5 -5 4 -25 -3 -45 -8 -25 -17 -36 -31 -36 -11 0 -29 -5 -40 -10 -15 -8
-19 -7 -19 4 0 8 19 33 42 55 24 23 47 36 51 32z"/>
<path d="M455 470 c-9 0 -12 -6 -9 -15 4 -8 10 -15 15 -15 5 0 9 7 9 15 0 8
-7 15 -15 15z"/>
<path d="M428 408 c-14 2 -29 -2 -33 -9 -4 -6 -1 -15 6 -20 8 -5 23 -8 34 -7
11 2 20 10 20 18 0 9 -11 16 -27 18z"/>
<path d="M378 63 c-8 10 -18 14 -26 9 -7 -5 -10 -15 -7 -24 3 -8 27 -20 53
-26 26 -6 67 -8 90 -5 23 3 42 10 42 16 0 6 -26 8 -70 4 -38 -3 -70 -2 -70 2
0 4 -6 15 -12 24z"/>
<path d="M296 70 c-7 0 -16 -3 -19 -7 -4 -3 -7 -15 -7 -25 0 -13 8 -18 30 -18
17 0 30 3 30 6 0 3 -5 14 -10 25 -6 10 -17 19 -24 19z"/>
</g>
</svg>
