<?xml version="1.0" standalone="no"?>
<!DOCTYPE svg PUBLIC "-//W3C//DTD SVG 20010904//EN"
 "http://www.w3.org/TR/2001/REC-SVG-20010904/DTD/svg10.dtd">
<svg version="1.0" xmlns="http://www.w3.org/2000/svg"
 width="56.000000pt" height="56.000000pt" viewBox="0 0 56.000000 56.000000"
 preserveAspectRatio="xMidYMid meet">
<metadata>
Created by potrace 1.16, written by Peter Selinger 2001-2019
</metadata>
<g transform="translate(0.000000,56.000000) scale(0.100000,-0.100000)"
fill="#000000" stroke="none">
<path d="M360 560 c-9 0 -20 -3 -23 -7 -4 -3 -7 -50 -7 -104 0 -54 4 -109 9
-123 6 -13 11 -57 13 -97 3 -72 3 -72 -27 -81 -16 -5 -39 -13 -50 -17 -11 -5
-33 -14 -48 -22 -24 -11 -35 -10 -75 4 -45 17 -47 17 -72 -1 -14 -10 -31 -30
-39 -44 -8 -14 -11 -32 -8 -41 4 -11 18 -17 38 -17 18 0 51 11 75 25 35 20 50
24 87 19 25 -4 57 -4 72 0 14 4 41 22 60 41 20 21 43 35 57 35 13 0 29 -5 36
-12 7 -7 12 -22 12 -34 0 -14 -15 -35 -37 -53 -38 -31 -38 -31 -9 -31 16 0 44
13 67 31 32 25 38 35 35 61 -2 16 -11 37 -19 46 -9 8 -35 18 -58 21 -42 6 -42
6 -45 69 -2 35 -9 80 -15 100 -7 21 -13 81 -12 135 0 85 -2 97 -17 97z m-236
-482 c5 -4 8 -9 5 -12 -2 -2 -14 -7 -26 -10 -17 -5 -23 -3 -23 8 0 8 8 16 18
19 9 2 21 0 26 -5z"/>
</g>
</svg>
