<?xml version="1.0" standalone="no"?>
<!DOCTYPE svg PUBLIC "-//W3C//DTD SVG 20010904//EN"
 "http://www.w3.org/TR/2001/REC-SVG-20010904/DTD/svg10.dtd">
<svg version="1.0" xmlns="http://www.w3.org/2000/svg"
 width="56.000000pt" height="56.000000pt" viewBox="0 0 56.000000 56.000000"
 preserveAspectRatio="xMidYMid meet">
<metadata>
Created by potrace 1.16, written by Peter Selinger 2001-2019
</metadata>
<g transform="translate(0.000000,56.000000) scale(0.100000,-0.100000)"
fill="#000000" stroke="none">
<path d="M366 439 c-6 -1 -20 -11 -31 -23 -11 -12 -26 -34 -32 -49 -7 -16 -13
-44 -13 -63 0 -27 -5 -36 -24 -44 -13 -5 -27 -13 -30 -18 -3 -6 -32 -18 -64
-27 -31 -9 -66 -21 -77 -25 -11 -5 -28 -11 -37 -14 -11 -3 -15 -11 -12 -21 3
-8 1 -15 -5 -15 -6 0 -11 -9 -11 -20 0 -11 3 -20 8 -20 4 0 12 4 18 8 6 4 13
13 15 20 3 9 24 15 59 16 30 1 66 -2 80 -7 14 -5 47 -11 73 -13 47 -3 49 -3
63 32 14 33 14 40 -1 70 -9 19 -13 39 -9 45 4 7 25 9 57 5 28 -3 53 -9 56 -14
3 -4 13 -18 22 -30 10 -13 32 -25 53 -29 32 -5 36 -3 36 16 0 13 -6 29 -14 37
-8 7 -16 19 -18 25 -2 6 -26 16 -53 22 -28 6 -70 11 -95 12 -34 0 -46 5 -48
18 -2 9 10 35 27 56 17 21 28 41 24 45 -3 3 -11 6 -17 5z m-73 -208 c5 -5 7
-17 5 -27 -2 -14 -14 -20 -43 -22 -40 -3 -40 -3 -6 27 21 19 38 28 44 22z"/>
</g>
</svg>
