<?xml version="1.0" standalone="no"?>
<!DOCTYPE svg PUBLIC "-//W3C//DTD SVG 20010904//EN"
 "http://www.w3.org/TR/2001/REC-SVG-20010904/DTD/svg10.dtd">
<svg version="1.0" xmlns="http://www.w3.org/2000/svg"
 width="56.000000pt" height="56.000000pt" viewBox="0 0 56.000000 56.000000"
 preserveAspectRatio="xMidYMid meet">
<metadata>
Created by potrace 1.16, written by Peter Selinger 2001-2019
</metadata>
<g transform="translate(0.000000,56.000000) scale(0.100000,-0.100000)"
fill="#000000" stroke="none">
<path d="M332 560 c-45 0 -49 -2 -60 -33 -8 -23 -9 -55 -3 -112 5 -44 7 -83 5
-87 -3 -4 -26 -17 -52 -28 -26 -12 -60 -33 -76 -48 -16 -15 -35 -42 -43 -60
-7 -18 -29 -42 -48 -54 -28 -16 -35 -26 -35 -52 0 -18 6 -40 13 -49 8 -11 20
-15 35 -11 13 4 37 30 58 65 25 39 46 61 67 68 16 6 40 11 52 11 11 0 35 15
52 32 18 18 36 45 42 61 6 15 15 27 21 27 5 0 33 -22 62 -50 49 -47 50 -50 36
-72 -8 -13 -45 -44 -82 -69 -36 -26 -75 -54 -86 -64 -11 -10 -20 -22 -20 -27
0 -4 16 -8 35 -8 25 0 55 14 110 51 42 28 85 63 96 78 16 19 19 35 15 60 -3
23 -21 51 -53 83 -26 27 -56 48 -68 48 -11 0 -31 7 -43 16 -20 14 -22 24 -22
99 0 74 2 86 20 95 11 6 20 15 20 20 0 6 -22 10 -48 10z m-65 -311 c1 1 0 -5
-2 -12 -3 -7 -24 -22 -48 -35 -23 -12 -49 -22 -57 -22 -11 0 -10 5 5 20 11 11
38 26 60 34 22 8 41 15 42 15z"/>
</g>
</svg>
