<?xml version="1.0" standalone="no"?>
<!DOCTYPE svg PUBLIC "-//W3C//DTD SVG 20010904//EN"
 "http://www.w3.org/TR/2001/REC-SVG-20010904/DTD/svg10.dtd">
<svg version="1.0" xmlns="http://www.w3.org/2000/svg"
 width="56.000000pt" height="56.000000pt" viewBox="0 0 56.000000 56.000000"
 preserveAspectRatio="xMidYMid meet">
<metadata>
Created by potrace 1.16, written by Peter Selinger 2001-2019
</metadata>
<g transform="translate(0.000000,56.000000) scale(0.100000,-0.100000)"
fill="#000000" stroke="none">
<path d="M337 500 c-13 0 -27 -3 -30 -6 -4 -4 -4 -11 -1 -15 3 -5 16 -9 30 -9
15 0 24 6 24 15 0 9 -9 15 -23 15z"/>
<path d="M412 500 c-26 0 -28 -3 -46 -83 -11 -50 -15 -96 -11 -118 6 -35 6
-36 -37 -48 -24 -7 -70 -25 -103 -41 -33 -15 -87 -34 -120 -41 -33 -7 -65 -16
-72 -21 -6 -5 -15 -23 -18 -40 -5 -20 -2 -35 7 -45 13 -12 24 -8 82 27 62 38
78 43 170 52 84 9 104 14 116 32 8 11 20 30 26 41 7 14 19 19 38 18 16 -1 37
-10 47 -19 11 -9 19 -21 19 -25 0 -4 -17 -13 -37 -19 -21 -6 -43 -13 -50 -15
-9 -3 -9 -11 2 -32 12 -24 12 -29 0 -43 -8 -9 -15 -20 -15 -23 0 -4 15 -7 33
-7 18 0 38 5 45 12 7 7 12 20 12 30 0 10 -4 18 -10 18 -5 0 -10 6 -10 14 0 9
15 17 40 21 37 6 40 9 40 39 0 28 -5 35 -52 58 -29 14 -65 29 -80 32 -26 6
-28 10 -28 59 0 28 6 69 13 89 7 21 16 41 20 44 4 4 7 13 7 21 0 8 -11 13 -28
13z m-64 -271 c6 1 12 -3 12 -9 0 -5 -10 -16 -22 -24 -13 -7 -40 -17 -60 -20
-20 -4 -39 -2 -42 3 -3 5 9 14 27 21 17 6 41 16 52 20 11 5 26 9 33 9z"/>
</g>
</svg>
