<?xml version="1.0" standalone="no"?>
<!DOCTYPE svg PUBLIC "-//W3C//DTD SVG 20010904//EN"
 "http://www.w3.org/TR/2001/REC-SVG-20010904/DTD/svg10.dtd">
<svg version="1.0" xmlns="http://www.w3.org/2000/svg"
 width="56.000000pt" height="56.000000pt" viewBox="0 0 56.000000 56.000000"
 preserveAspectRatio="xMidYMid meet">
<metadata>
Created by potrace 1.16, written by Peter Selinger 2001-2019
</metadata>
<g transform="translate(0.000000,56.000000) scale(0.100000,-0.100000)"
fill="#000000" stroke="none">
<path d="M146 518 c-10 2 -16 -3 -16 -13 0 -10 7 -15 18 -13 9 2 16 8 15 13
-1 6 -9 11 -17 13z"/>
<path d="M349 518 c-15 2 -31 -4 -40 -15 -9 -10 -16 -31 -17 -46 -1 -15 8 -48
19 -72 21 -44 21 -44 -3 -73 -12 -16 -32 -29 -44 -29 -11 0 -43 -17 -70 -38
-27 -20 -53 -44 -57 -51 -4 -8 -13 -14 -18 -14 -6 0 -24 -13 -41 -30 -16 -16
-36 -30 -43 -30 -8 0 -18 -8 -23 -17 -5 -10 -7 -24 -5 -30 3 -7 13 -13 23 -13
10 0 21 -4 25 -10 4 -6 15 -5 30 2 13 6 25 18 28 28 3 10 16 26 30 35 15 9 57
23 94 30 37 7 78 16 91 20 13 4 31 25 42 48 11 22 20 50 20 62 0 12 3 25 7 28
3 4 12 2 19 -4 7 -6 18 -8 23 -4 7 4 5 15 -5 30 -9 13 -24 27 -35 30 -10 4
-19 11 -19 16 0 6 -13 24 -30 41 -16 16 -30 36 -30 43 0 7 14 19 30 27 17 7
29 17 27 23 -2 5 -15 11 -28 13z m-4 -228 c8 0 11 -8 8 -21 -4 -12 -28 -35
-55 -52 -26 -16 -48 -34 -48 -38 0 -5 -9 -9 -20 -9 -11 0 -20 -5 -20 -12 0 -9
-3 -9 -12 0 -8 8 -8 15 3 28 8 10 40 37 73 61 32 24 64 43 71 43z"/>
<path d="M466 290 c-8 0 -19 -7 -26 -16 -11 -13 -10 -16 8 -20 11 -4 19 -11
16 -18 -3 -7 2 -26 11 -42 8 -16 15 -37 15 -46 0 -9 5 -20 11 -24 6 -3 22 -1
35 7 13 7 24 21 24 31 0 10 -4 18 -9 18 -5 0 -16 17 -24 39 -9 21 -23 46 -32
55 -9 9 -22 16 -29 16z"/>
</g>
</svg>
