<?xml version="1.0" standalone="no"?>
<!DOCTYPE svg PUBLIC "-//W3C//DTD SVG 20010904//EN"
 "http://www.w3.org/TR/2001/REC-SVG-20010904/DTD/svg10.dtd">
<svg version="1.0" xmlns="http://www.w3.org/2000/svg"
 width="56.000000pt" height="56.000000pt" viewBox="0 0 56.000000 56.000000"
 preserveAspectRatio="xMidYMid meet">
<metadata>
Created by potrace 1.16, written by Peter Selinger 2001-2019
</metadata>
<g transform="translate(0.000000,56.000000) scale(0.100000,-0.100000)"
fill="#000000" stroke="none">
<path d="M338 480 c-18 0 -27 -8 -36 -33 -7 -18 -12 -52 -12 -75 0 -22 5 -44
10 -47 6 -3 10 -14 10 -25 0 -11 -12 -22 -31 -29 -18 -6 -39 -11 -47 -11 -8 0
-31 -12 -51 -27 -20 -16 -47 -34 -61 -42 -14 -7 -37 -20 -51 -27 -14 -8 -34
-23 -43 -33 -10 -11 -15 -25 -11 -30 3 -6 18 -11 32 -11 14 0 38 11 55 25 16
14 39 27 51 29 12 2 49 9 82 15 46 8 65 17 82 38 12 15 25 40 29 56 3 16 11
26 17 23 7 -4 19 -9 27 -12 8 -3 31 -26 50 -50 26 -33 41 -43 60 -41 20 2 24
7 22 27 -1 14 -15 35 -30 48 -15 12 -40 29 -56 38 -16 9 -38 13 -52 10 -20 -5
-26 -1 -35 21 -6 16 -8 46 -6 68 3 22 8 52 12 68 7 24 5 27 -17 27z"/>
</g>
</svg>
