<?xml version="1.0" standalone="no"?>
<!DOCTYPE svg PUBLIC "-//W3C//DTD SVG 20010904//EN"
 "http://www.w3.org/TR/2001/REC-SVG-20010904/DTD/svg10.dtd">
<svg version="1.0" xmlns="http://www.w3.org/2000/svg"
 width="56.000000pt" height="56.000000pt" viewBox="0 0 56.000000 56.000000"
 preserveAspectRatio="xMidYMid meet">
<metadata>
Created by potrace 1.16, written by Peter Selinger 2001-2019
</metadata>
<g transform="translate(0.000000,56.000000) scale(0.100000,-0.100000)"
fill="#000000" stroke="none">
<path d="M283 440 c-7 0 -13 -6 -13 -14 0 -8 13 -24 30 -36 18 -13 41 -20 57
-18 20 2 28 9 28 22 0 14 -12 22 -45 32 -25 8 -51 14 -57 14z"/>
<path d="M271 334 c-4 3 -11 3 -15 -1 -3 -3 -6 -13 -6 -22 0 -9 9 -27 19 -40
19 -25 19 -25 -4 -37 -12 -6 -51 -21 -86 -32 -35 -11 -84 -23 -109 -27 -25 -4
-51 -12 -57 -17 -7 -6 -13 -19 -13 -29 0 -15 7 -19 38 -19 21 0 42 4 48 8 5 4
32 16 59 25 28 9 79 18 115 19 36 1 84 -1 108 -6 37 -8 42 -6 42 10 0 10 -9
28 -21 40 -21 22 -21 22 0 34 12 6 38 10 59 8 24 -2 38 -9 40 -19 1 -8 -13
-35 -32 -59 -19 -24 -32 -48 -30 -52 3 -4 16 -8 29 -8 16 0 33 13 54 43 17 23
35 47 41 54 5 7 10 20 10 30 0 10 -12 26 -27 35 -16 9 -37 17 -48 19 -11 1
-33 -1 -50 -5 -16 -3 -52 -11 -78 -17 -43 -10 -50 -9 -62 7 -8 11 -15 27 -15
36 0 9 -4 19 -9 22z m37 -117 c7 -1 14 -6 15 -12 1 -5 -6 -11 -16 -13 -10 -2
-26 -1 -35 3 -15 6 -15 8 3 15 11 5 26 8 33 7z"/>
</g>
</svg>
