<?xml version="1.0" standalone="no"?>
<!DOCTYPE svg PUBLIC "-//W3C//DTD SVG 20010904//EN"
 "http://www.w3.org/TR/2001/REC-SVG-20010904/DTD/svg10.dtd">
<svg version="1.0" xmlns="http://www.w3.org/2000/svg"
 width="56.000000pt" height="56.000000pt" viewBox="0 0 56.000000 56.000000"
 preserveAspectRatio="xMidYMid meet">
<metadata>
Created by potrace 1.16, written by Peter Selinger 2001-2019
</metadata>
<g transform="translate(0.000000,56.000000) scale(0.100000,-0.100000)"
fill="#000000" stroke="none">
<path d="M320 500 c-13 0 -24 -10 -30 -26 -6 -14 -10 -32 -10 -39 0 -8 9 -37
20 -65 11 -28 20 -60 20 -70 0 -15 -17 -28 -61 -50 -34 -16 -67 -35 -75 -41
-8 -6 -51 -30 -97 -54 -59 -30 -83 -47 -85 -63 -3 -17 3 -22 33 -28 32 -6 41
-3 68 24 29 28 40 31 122 38 77 5 94 10 117 31 14 14 29 40 33 59 3 19 10 34
14 34 5 0 21 -16 35 -35 15 -19 39 -60 52 -90 14 -30 29 -57 33 -59 4 -3 17
-2 29 1 18 4 22 13 22 43 0 27 -8 48 -27 71 -16 18 -42 48 -59 66 -20 20 -42
33 -57 33 -13 0 -30 6 -37 14 -6 8 -18 39 -26 68 -7 29 -14 72 -14 96 0 35 -3
42 -20 42z m-38 -280 c4 0 9 -4 12 -9 3 -4 -5 -18 -18 -30 -14 -13 -32 -21
-42 -19 -16 3 -14 7 11 31 16 15 33 27 37 27z"/>
</g>
</svg>
