<?xml version="1.0" standalone="no"?>
<!DOCTYPE svg PUBLIC "-//W3C//DTD SVG 20010904//EN"
 "http://www.w3.org/TR/2001/REC-SVG-20010904/DTD/svg10.dtd">
<svg version="1.0" xmlns="http://www.w3.org/2000/svg"
 width="56.000000pt" height="56.000000pt" viewBox="0 0 56.000000 56.000000"
 preserveAspectRatio="xMidYMid meet">
<metadata>
Created by potrace 1.16, written by Peter Selinger 2001-2019
</metadata>
<g transform="translate(0.000000,56.000000) scale(0.100000,-0.100000)"
fill="#000000" stroke="none">
<path d="M382 500 c-10 0 -22 -3 -25 -7 -4 -3 -7 -38 -7 -77 0 -53 -5 -79 -20
-103 -10 -17 -28 -37 -40 -43 -12 -6 -26 -10 -31 -8 -6 2 4 22 20 46 28 38 29
42 11 42 -11 0 -31 -16 -47 -37 -15 -21 -45 -55 -67 -76 -21 -21 -62 -49 -91
-61 -29 -13 -60 -34 -69 -47 -9 -13 -16 -31 -16 -41 0 -9 9 -19 19 -23 13 -4
36 4 63 21 24 15 61 46 83 70 22 24 53 45 70 49 17 4 44 12 60 18 17 6 42 19
57 29 16 11 33 36 39 59 7 21 15 39 19 39 4 0 20 -10 36 -22 16 -12 44 -39 63
-60 19 -21 38 -38 43 -38 4 0 8 19 8 43 0 39 -3 44 -51 75 -27 18 -63 35 -79
39 -29 5 -30 8 -30 59 0 46 -3 54 -18 54z"/>
<path d="M379 119 c-8 0 -27 -9 -44 -20 -16 -10 -40 -19 -52 -19 -12 0 -28 -3
-37 -6 -9 -3 -13 -10 -10 -15 3 -5 50 -9 105 -9 75 0 99 3 99 13 0 8 -10 23
-23 35 -13 12 -30 22 -38 21z"/>
</g>
</svg>
