<?xml version="1.0" standalone="no"?>
<!DOCTYPE svg PUBLIC "-//W3C//DTD SVG 20010904//EN"
 "http://www.w3.org/TR/2001/REC-SVG-20010904/DTD/svg10.dtd">
<svg version="1.0" xmlns="http://www.w3.org/2000/svg"
 width="56.000000pt" height="56.000000pt" viewBox="0 0 56.000000 56.000000"
 preserveAspectRatio="xMidYMid meet">
<metadata>
Created by potrace 1.16, written by Peter Selinger 2001-2019
</metadata>
<g transform="translate(0.000000,56.000000) scale(0.100000,-0.100000)"
fill="#000000" stroke="none">
<path d="M323 490 c-6 0 -13 -6 -16 -12 -2 -7 3 -42 11 -78 15 -64 15 -64 -27
-100 -22 -20 -41 -41 -41 -48 0 -6 6 -12 14 -12 8 0 23 12 34 27 13 17 25 24
36 20 9 -4 16 -15 16 -26 0 -11 -4 -23 -10 -26 -5 -3 -10 -17 -10 -31 0 -16 6
-24 18 -24 9 0 23 4 30 8 7 5 14 29 15 55 1 31 7 47 17 50 9 2 26 0 38 -4 12
-5 22 -16 22 -25 0 -10 10 -31 23 -48 13 -17 26 -39 30 -48 3 -10 13 -18 22
-18 11 0 15 11 15 40 0 22 -4 40 -9 40 -5 0 -15 16 -21 35 -9 29 -20 37 -67
55 -30 11 -62 19 -71 18 -12 -2 -17 5 -18 22 -1 14 -10 49 -20 77 -11 29 -24
53 -31 53z"/>
<path d="M231 234 c-4 3 -16 -3 -25 -13 -12 -13 -14 -21 -6 -26 6 -4 17 -4 25
-1 8 3 15 12 15 20 0 8 -4 17 -9 20z"/>
<path d="M156 190 c-9 0 -19 -7 -22 -15 -4 -8 -4 -21 -1 -28 3 -9 17 -12 41
-9 20 2 36 9 36 14 0 6 -6 8 -14 5 -8 -3 -16 2 -19 14 -3 10 -12 19 -21 19z"/>
<path d="M298 189 c-13 0 -33 -4 -45 -9 -13 -5 -23 -16 -23 -25 0 -13 7 -15
38 -9 20 4 40 9 45 11 4 2 7 11 7 19 0 8 -9 14 -22 13z"/>
<path d="M91 160 c-10 0 -24 -7 -31 -15 -9 -10 -16 -12 -25 -5 -8 6 -15 6 -23
-2 -7 -7 -12 -16 -12 -20 0 -4 7 -8 16 -8 8 0 12 -5 9 -10 -4 -6 -11 -8 -16
-5 -5 4 -9 2 -9 -4 0 -5 14 -13 32 -16 23 -6 35 -3 43 9 7 8 15 12 19 8 4 -4
14 2 21 12 10 13 11 24 4 37 -5 11 -18 19 -28 19z"/>
</g>
</svg>
