<?xml version="1.0" standalone="no"?>
<!DOCTYPE svg PUBLIC "-//W3C//DTD SVG 20010904//EN"
 "http://www.w3.org/TR/2001/REC-SVG-20010904/DTD/svg10.dtd">
<svg version="1.0" xmlns="http://www.w3.org/2000/svg"
 width="56.000000pt" height="56.000000pt" viewBox="0 0 56.000000 56.000000"
 preserveAspectRatio="xMidYMid meet">
<metadata>
Created by potrace 1.16, written by Peter Selinger 2001-2019
</metadata>
<g transform="translate(0.000000,56.000000) scale(0.100000,-0.100000)"
fill="#000000" stroke="none">
<path d="M335 560 c-16 0 -25 -6 -25 -16 0 -8 4 -24 10 -34 5 -10 10 -31 11
-46 1 -16 -2 -44 -6 -61 -6 -26 -4 -33 7 -33 9 0 27 9 42 21 18 14 26 30 26
51 0 16 -9 41 -20 55 -11 14 -20 34 -20 44 0 14 -7 19 -25 19z"/>
<path d="M319 360 c-5 0 -12 -7 -16 -15 -3 -9 0 -36 7 -61 11 -40 11 -47 -6
-65 -10 -12 -55 -45 -99 -74 -44 -29 -99 -63 -122 -75 -23 -11 -44 -27 -46
-34 -3 -7 -2 -19 3 -26 5 -8 17 -10 32 -7 13 4 43 23 68 44 35 30 53 38 90 40
25 2 56 4 70 5 14 2 34 10 46 18 11 8 26 25 32 37 7 12 12 31 12 42 0 11 7 26
15 35 9 8 22 13 30 10 8 -4 15 -19 15 -35 0 -16 -10 -45 -21 -66 -12 -21 -39
-59 -61 -85 -40 -48 -40 -48 -10 -48 26 0 36 11 91 92 38 58 61 102 61 120 0
17 -5 28 -13 28 -8 0 -22 9 -32 20 -14 16 -29 20 -63 18 -45 -3 -45 -3 -59 40
-8 23 -19 42 -24 42z m3 -180 c4 0 9 -4 12 -9 3 -5 0 -13 -7 -19 -7 -6 -25
-15 -40 -21 -20 -8 -27 -7 -27 2 0 7 12 20 28 29 15 10 30 18 34 18z"/>
</g>
</svg>
