<?xml version="1.0" standalone="no"?>
<!DOCTYPE svg PUBLIC "-//W3C//DTD SVG 20010904//EN"
 "http://www.w3.org/TR/2001/REC-SVG-20010904/DTD/svg10.dtd">
<svg version="1.0" xmlns="http://www.w3.org/2000/svg"
 width="128.000000pt" height="128.000000pt" viewBox="0 0 128.000000 128.000000"
 preserveAspectRatio="xMidYMid meet">
<metadata>
Created by potrace 1.16, written by Peter Selinger 2001-2019
</metadata>
<g transform="translate(0.000000,128.000000) scale(0.100000,-0.100000)"
fill="#000000" stroke="none">
<path d="M901 1280 c-6 0 -12 -6 -12 -12 -1 -7 -3 -35 -5 -62 -2 -32 0 -46 7
-39 5 5 12 33 16 61 4 36 2 52 -6 52z"/>
<path d="M568 1260 c-10 0 -18 -4 -18 -10 0 -5 20 -21 45 -36 37 -21 43 -29
34 -40 -6 -8 -17 -14 -25 -14 -7 0 -18 -9 -23 -19 -8 -15 -7 -20 5 -25 9 -3
23 -6 32 -6 9 0 35 -15 57 -34 39 -33 39 -33 -4 -55 -24 -11 -60 -23 -80 -27
-20 -3 -46 -13 -58 -20 -13 -8 -23 -21 -23 -29 0 -9 9 -15 21 -15 12 0 48 14
81 30 32 17 68 30 79 30 11 0 44 7 72 16 29 8 60 20 70 25 13 7 23 6 33 -2 8
-6 14 -15 14 -20 0 -4 -10 -17 -22 -29 -12 -11 -30 -20 -40 -20 -10 0 -18 -7
-18 -16 0 -12 7 -15 26 -11 19 3 29 -2 41 -20 11 -17 18 -20 23 -12 4 6 13 8
19 5 6 -4 8 -18 5 -32 -5 -21 -3 -24 19 -24 14 0 28 4 32 9 3 6 -2 14 -11 19
-13 7 -14 13 -5 31 9 16 21 21 49 21 21 0 43 5 50 12 7 7 12 28 12 48 -1 27
-10 45 -45 83 -24 26 -50 47 -59 47 -8 0 -18 -5 -22 -11 -3 -6 -15 -8 -26 -6
-11 3 -34 -4 -53 -18 -19 -12 -55 -26 -81 -30 -25 -3 -48 -4 -51 -1 -3 3 0 12
7 21 8 10 11 32 7 61 -3 26 -13 54 -24 65 -10 11 -43 28 -73 39 -30 11 -63 20
-72 20z m388 -230 c8 0 14 -5 14 -10 0 -6 -7 -13 -15 -17 -9 -3 -18 -3 -21 0
-3 3 -3 10 1 16 3 6 13 11 21 11z"/>
<path d="M314 1120 c-8 0 -19 -12 -25 -27 -5 -14 -8 -32 -5 -40 3 -7 12 -13
19 -13 8 0 19 11 25 25 6 14 9 32 6 40 -4 8 -13 15 -20 15z"/>
<path d="M287 1020 c-7 0 -18 -5 -25 -12 -7 -7 -12 -19 -12 -28 0 -9 -8 -34
-19 -56 -16 -34 -17 -47 -7 -105 6 -36 19 -77 29 -92 9 -15 24 -27 31 -27 8 0
19 14 25 32 6 17 21 53 34 79 12 27 30 51 40 54 9 4 17 13 17 21 0 8 -9 14
-20 14 -10 0 -23 -6 -27 -14 -4 -7 -23 -26 -41 -41 -24 -20 -36 -25 -44 -17
-8 8 -8 27 2 69 7 32 17 62 22 68 4 5 8 19 8 32 0 13 -6 23 -13 23z"/>
<path d="M707 929 c-1 -1 -15 -4 -32 -6 -16 -3 -33 -10 -37 -16 -4 -7 -8 -18
-8 -25 0 -7 12 -17 27 -23 15 -6 31 -16 35 -22 4 -7 8 -28 8 -48 0 -19 -9 -78
-20 -130 -13 -59 -26 -98 -36 -104 -9 -5 -35 -25 -57 -43 -23 -19 -49 -32 -61
-30 -11 2 -22 10 -24 19 -2 9 9 30 23 47 16 20 25 42 25 65 0 28 -5 37 -22 42
-13 4 -33 18 -45 32 -13 16 -27 24 -37 20 -9 -4 -16 -14 -16 -23 0 -10 11 -31
24 -49 17 -22 22 -36 15 -46 -5 -8 -9 -26 -9 -40 0 -15 -7 -29 -15 -33 -8 -3
-15 -16 -15 -30 0 -14 -4 -28 -10 -31 -5 -3 -10 -21 -10 -39 0 -19 8 -40 18
-49 17 -16 22 -15 71 5 44 19 53 20 61 8 6 -9 2 -27 -12 -52 -12 -21 -25 -38
-30 -38 -4 0 -8 -6 -8 -14 0 -7 -26 -37 -57 -65 -32 -29 -68 -62 -80 -74 -15
-13 -23 -33 -23 -53 0 -17 7 -37 15 -44 8 -7 21 -10 28 -7 8 3 27 25 43 50 16
25 38 60 49 78 11 18 27 44 35 58 9 13 23 29 32 35 12 7 26 6 50 -5 18 -9 56
-22 83 -30 39 -11 63 -27 113 -78 34 -35 62 -71 62 -80 1 -9 9 -26 19 -38 14
-17 30 -23 60 -23 23 0 41 2 41 5 0 3 -9 23 -19 44 -11 21 -48 66 -81 99 -46
45 -80 68 -133 91 -40 16 -89 32 -109 36 -21 4 -42 13 -48 20 -8 9 -8 15 0 20
5 3 10 14 10 24 0 10 6 24 13 30 8 6 19 30 26 53 8 24 18 54 24 67 7 13 22 27
34 32 13 5 23 12 23 16 0 5 20 16 45 26 24 10 49 16 55 12 6 -4 22 1 36 9 13
9 33 36 43 59 11 23 22 61 26 83 6 39 5 42 -20 46 -23 5 -26 3 -21 -15 3 -11
-1 -35 -9 -53 -7 -18 -22 -37 -32 -42 -13 -6 -31 -4 -60 10 -36 16 -43 23 -43
48 0 16 5 32 10 35 6 3 10 17 10 30 0 13 -5 37 -11 52 -7 15 -18 43 -26 61 -8
17 -15 31 -16 31z m28 -259 c8 0 17 -10 20 -21 5 -14 1 -27 -9 -37 -11 -11
-19 -13 -26 -6 -6 6 -8 23 -4 38 3 14 12 26 19 26z"/>
<path d="M563 860 c-7 0 -13 -7 -13 -15 0 -8 9 -19 21 -26 21 -11 21 -11 -1
-34 -12 -13 -37 -25 -54 -27 -19 -2 -32 -9 -34 -19 -2 -9 4 -19 14 -23 9 -3
31 3 49 14 18 11 48 20 68 20 23 0 37 6 41 16 3 9 6 24 6 35 0 12 -15 26 -42
39 -23 11 -48 20 -55 20z"/>
<path d="M911 380 c-4 0 -11 -3 -14 -7 -4 -3 -7 -15 -7 -25 0 -10 4 -18 9 -18
5 0 14 7 21 15 6 8 9 19 5 25 -3 5 -10 10 -14 10z"/>
</g>
</svg>
