<?xml version="1.0" standalone="no"?>
<!DOCTYPE svg PUBLIC "-//W3C//DTD SVG 20010904//EN"
 "http://www.w3.org/TR/2001/REC-SVG-20010904/DTD/svg10.dtd">
<svg version="1.0" xmlns="http://www.w3.org/2000/svg"
 width="128.000000pt" height="128.000000pt" viewBox="0 0 128.000000 128.000000"
 preserveAspectRatio="xMidYMid meet">
<metadata>
Created by potrace 1.16, written by Peter Selinger 2001-2019
</metadata>
<g transform="translate(0.000000,128.000000) scale(0.100000,-0.100000)"
fill="#000000" stroke="none">
<path d="M571 1280 c-13 0 -16 -11 -16 -62 0 -63 0 -63 -70 -90 -38 -15 -83
-30 -98 -33 -20 -4 -27 -11 -25 -23 2 -11 27 -25 77 -40 73 -24 73 -24 66 -68
-3 -25 -13 -68 -21 -97 -7 -29 -19 -109 -26 -180 -10 -102 -10 -137 1 -174 6
-26 18 -51 24 -56 9 -6 7 -11 -7 -20 -11 -7 -26 -19 -35 -27 -9 -8 -24 -14
-34 -12 -10 2 -17 -3 -17 -12 0 -8 9 -20 20 -26 16 -9 20 -8 20 5 0 8 5 15 10
15 6 0 10 -11 10 -25 0 -17 -4 -23 -14 -19 -10 4 -16 -2 -18 -18 -2 -13 -10
-23 -18 -23 -8 0 -21 12 -28 27 -7 15 -21 29 -31 33 -12 3 -35 -5 -63 -24 -34
-23 -48 -41 -62 -82 -19 -51 -19 -52 -1 -66 11 -7 29 -13 41 -13 12 0 39 7 60
16 22 9 42 22 47 30 4 7 24 16 45 20 20 4 65 21 100 37 44 21 66 27 73 20 8
-8 -7 -30 -48 -73 -32 -34 -58 -72 -59 -84 -1 -11 -2 -25 -3 -30 0 -5 -8 -3
-17 4 -12 11 -18 11 -30 -2 -11 -11 -14 -25 -9 -50 4 -19 10 -40 15 -47 6 -10
26 1 78 43 39 30 85 76 104 102 30 43 35 45 68 40 19 -3 64 -8 100 -11 36 -4
79 -11 95 -17 17 -6 38 -18 48 -26 9 -8 17 -20 17 -26 0 -6 -20 -22 -45 -35
-25 -13 -44 -29 -42 -35 2 -6 13 -10 23 -8 10 1 43 5 72 9 48 5 56 10 79 44
14 21 23 45 20 52 -3 8 -26 31 -51 52 -28 23 -63 41 -89 46 -23 4 -68 8 -99 9
-31 0 -69 -5 -83 -12 -17 -8 -29 -8 -35 -2 -7 7 -4 26 10 56 20 45 20 45 107
52 49 4 104 7 123 7 19 0 51 7 70 17 24 12 36 25 38 43 2 14 -3 31 -10 37 -8
6 -36 15 -63 19 -50 8 -50 8 -48 127 2 65 0 123 -5 130 -4 6 -7 75 -7 152 0
125 -2 144 -19 163 -14 16 -31 21 -67 21 -26 0 -60 -5 -76 -11 -15 -6 -51 -28
-79 -50 -28 -21 -59 -39 -69 -39 -14 0 -16 6 -11 31 3 17 6 42 6 55 0 18 12
28 54 48 29 14 67 41 85 61 17 20 31 44 31 55 0 11 -12 27 -27 37 -16 10 -31
21 -34 26 -3 5 -20 -5 -37 -22 -17 -17 -35 -31 -40 -31 -5 0 -15 14 -22 30 -7
17 -20 30 -29 30z m232 -281 c27 1 27 1 27 -66 1 -38 3 -102 7 -143 3 -41 9
-83 14 -92 5 -9 9 -33 9 -52 0 -25 4 -36 15 -36 10 0 15 -9 14 -27 0 -27 -1
-27 -9 -5 -5 12 -14 22 -21 22 -6 0 -13 -9 -16 -20 -3 -11 -10 -20 -15 -20 -5
0 -25 17 -43 38 -19 20 -35 41 -35 46 0 5 -25 6 -55 3 -40 -4 -55 -2 -55 7 0
7 20 26 45 44 26 18 47 42 51 57 4 15 2 31 -5 38 -8 8 -19 8 -44 -2 -17 -7
-48 -16 -67 -21 -19 -4 -41 -9 -48 -11 -8 -2 -19 3 -25 12 -5 9 -7 24 -4 33 4
9 19 21 34 27 16 7 57 19 93 29 43 11 66 23 68 34 2 9 -4 19 -12 22 -9 3 -26
4 -39 0 -13 -3 -43 -19 -67 -35 -32 -22 -48 -27 -57 -19 -9 7 -10 15 -3 29 6
10 39 33 73 50 34 17 80 37 102 44 22 7 52 13 68 14z m-231 -263 c17 -3 37
-11 44 -17 11 -9 11 -16 -4 -41 -9 -16 -29 -39 -44 -49 -15 -11 -29 -16 -31
-12 -3 5 -8 22 -11 39 -4 17 -2 43 4 58 9 25 14 28 42 22z m30 -156 c25 0 38
-5 38 -13 0 -7 -12 -25 -27 -39 -16 -14 -38 -31 -50 -37 -12 -6 -24 -11 -26
-11 -3 0 -10 14 -16 30 -5 17 -17 30 -25 30 -9 0 -16 5 -16 10 0 6 3 10 8 11
4 0 20 2 36 4 15 2 31 6 34 9 3 3 23 6 44 6z m155 -80 c13 0 23 -4 23 -10 0
-5 6 -10 14 -10 8 0 18 -5 21 -11 4 -6 -1 -17 -11 -24 -11 -8 -31 -15 -45 -15
-22 0 -28 5 -31 30 -3 17 -2 32 0 35 3 3 16 5 29 5z m-129 -51 c9 1 12 -8 10
-25 -2 -21 -12 -29 -48 -41 -25 -8 -49 -19 -54 -24 -5 -5 -4 -14 3 -23 7 -8
10 -20 6 -26 -3 -5 -13 -10 -21 -10 -10 0 -13 7 -8 24 4 18 1 27 -15 36 -12 6
-21 15 -21 20 0 5 21 19 48 32 26 12 56 25 67 29 11 4 26 7 33 8z m14 -139 c4
0 8 -4 8 -9 0 -5 -7 -11 -15 -15 -8 -3 -15 -2 -15 3 0 4 3 11 7 14 3 4 10 7
15 7z"/>
<path d="M1061 1220 c-11 0 -23 -5 -27 -11 -3 -6 0 -18 9 -26 8 -9 20 -12 26
-9 6 4 11 16 11 27 0 12 -7 19 -19 19z"/>
<path d="M1063 799 c-10 0 -28 -13 -40 -29 -13 -15 -23 -35 -23 -43 0 -8 6
-20 13 -26 8 -6 17 -8 20 -4 4 3 7 17 7 29 0 13 9 28 20 34 11 6 20 17 20 25
0 8 -8 15 -17 14z"/>
</g>
</svg>
