<?xml version="1.0" standalone="no"?>
<!DOCTYPE svg PUBLIC "-//W3C//DTD SVG 20010904//EN"
 "http://www.w3.org/TR/2001/REC-SVG-20010904/DTD/svg10.dtd">
<svg version="1.0" xmlns="http://www.w3.org/2000/svg"
 width="128.000000pt" height="128.000000pt" viewBox="0 0 128.000000 128.000000"
 preserveAspectRatio="xMidYMid meet">
<metadata>
Created by potrace 1.16, written by Peter Selinger 2001-2019
</metadata>
<g transform="translate(0.000000,128.000000) scale(0.100000,-0.100000)"
fill="#000000" stroke="none">
<path d="M572 1263 c-12 11 -22 13 -28 7 -6 -6 -42 -13 -80 -16 -42 -3 -85
-14 -109 -27 -22 -11 -53 -20 -71 -19 -18 2 -41 -5 -55 -16 -13 -11 -43 -29
-66 -41 -28 -14 -43 -28 -43 -41 0 -10 4 -30 10 -44 5 -15 20 -28 36 -32 18
-5 39 0 67 16 23 13 55 34 70 47 16 13 37 23 47 23 9 0 23 7 30 15 7 8 26 15
42 15 16 0 31 6 34 15 4 8 11 15 16 15 6 0 7 -11 3 -27 -3 -15 -18 -41 -33
-58 -15 -17 -38 -50 -52 -73 -14 -23 -33 -44 -42 -47 -10 -4 -28 -20 -40 -38
-13 -17 -31 -40 -40 -49 -10 -10 -18 -27 -18 -38 0 -11 -7 -28 -16 -37 -8 -10
-26 -34 -39 -53 -13 -19 -45 -66 -71 -105 -29 -42 -52 -90 -58 -120 -6 -27
-11 -124 -11 -215 1 -134 4 -171 18 -196 9 -17 24 -35 33 -38 10 -4 23 -1 30
6 8 8 15 53 19 113 3 55 8 150 10 212 2 61 7 127 10 147 4 19 13 41 21 47 11
9 19 8 34 -6 11 -10 20 -30 20 -45 0 -14 5 -31 11 -37 8 -8 8 -20 0 -45 -7
-21 -7 -45 -1 -68 5 -19 15 -55 24 -80 8 -25 22 -71 32 -102 13 -44 14 -63 6
-85 -6 -15 -13 -48 -16 -72 -4 -27 -2 -49 5 -57 6 -8 26 -14 45 -14 18 0 36 5
39 10 3 6 25 10 48 10 23 0 80 12 127 26 47 15 108 28 135 29 28 2 85 9 128
16 50 7 81 17 84 26 3 7 -2 22 -11 32 -9 10 -16 24 -16 33 0 8 8 22 18 30 9 9
27 19 39 22 11 4 27 13 33 21 7 8 28 15 46 15 27 0 43 9 79 46 25 26 45 54 45
63 0 10 15 39 33 67 31 48 32 52 30 146 -2 68 -9 117 -24 160 -11 35 -25 69
-31 76 -6 6 -18 12 -27 12 -9 0 -29 -11 -45 -24 -30 -23 -30 -23 -12 -69 9
-25 24 -51 32 -57 7 -7 14 -26 14 -42 0 -16 7 -39 15 -51 10 -15 12 -35 8 -60
-4 -26 -15 -44 -34 -58 -16 -11 -29 -29 -29 -40 0 -11 -10 -23 -24 -29 -14 -5
-30 -18 -36 -29 -6 -12 -32 -30 -59 -42 -27 -11 -58 -31 -70 -45 -11 -13 -29
-24 -40 -24 -11 0 -48 -13 -84 -29 -36 -16 -68 -34 -71 -40 -4 -6 -27 -11 -51
-11 -28 0 -65 -10 -100 -27 -56 -28 -56 -28 -75 -3 -11 14 -20 31 -20 37 0 7
12 19 28 27 15 8 41 32 57 53 17 21 41 54 54 73 13 19 32 53 42 76 16 35 18
59 13 170 -3 71 -10 134 -16 141 -7 9 3 20 38 43 29 18 61 30 81 30 19 0 51 9
73 20 22 11 50 20 63 20 14 0 30 7 37 15 7 8 28 15 49 15 20 0 45 -7 55 -15
11 -8 37 -15 58 -15 33 0 38 3 38 24 0 13 -7 30 -17 37 -9 8 -40 14 -72 15
-31 0 -65 6 -77 14 -13 8 -32 10 -47 6 -15 -3 -27 -13 -27 -21 0 -8 -8 -18
-17 -23 -10 -5 -43 -12 -73 -15 -31 -4 -67 -15 -82 -27 -17 -13 -43 -20 -71
-20 -24 0 -52 -7 -63 -15 -10 -8 -29 -15 -40 -15 -12 0 -33 -9 -47 -20 -14
-11 -33 -20 -43 -20 -9 0 -25 -7 -34 -15 -10 -9 -39 -20 -66 -24 -27 -5 -57
-12 -66 -16 -11 -4 -18 -3 -18 3 0 6 12 23 26 39 14 15 28 40 31 56 3 16 16
35 29 44 13 8 24 21 24 29 0 7 9 18 20 24 11 6 26 23 35 39 8 16 26 32 40 35
16 4 32 20 42 41 9 19 24 37 33 40 9 3 27 16 39 29 13 13 27 43 32 67 8 35 7
44 -6 51 -8 5 -15 15 -15 22 0 7 -8 20 -18 29z m-105 -563 c39 0 45 -4 78 -47
29 -38 33 -48 21 -55 -10 -6 -13 -18 -9 -43 3 -21 1 -41 -7 -50 -7 -8 -18 -15
-25 -15 -7 0 -32 16 -56 35 -24 19 -49 35 -55 35 -7 0 -15 -7 -18 -17 -4 -9 4
-32 19 -54 14 -21 25 -43 25 -49 0 -6 11 -21 23 -34 20 -19 22 -27 13 -43 -6
-11 -23 -34 -38 -52 -15 -17 -34 -31 -43 -31 -8 0 -20 10 -25 22 -5 13 -17 57
-25 98 -9 41 -22 113 -31 159 -9 54 -11 88 -5 94 5 5 34 18 63 28 29 10 72 18
95 19z"/>
</g>
</svg>
