<?xml version="1.0" standalone="no"?>
<!DOCTYPE svg PUBLIC "-//W3C//DTD SVG 20010904//EN"
 "http://www.w3.org/TR/2001/REC-SVG-20010904/DTD/svg10.dtd">
<svg version="1.0" xmlns="http://www.w3.org/2000/svg"
 width="128.000000pt" height="128.000000pt" viewBox="0 0 128.000000 128.000000"
 preserveAspectRatio="xMidYMid meet">
<metadata>
Created by potrace 1.16, written by Peter Selinger 2001-2019
</metadata>
<g transform="translate(0.000000,128.000000) scale(0.100000,-0.100000)"
fill="#000000" stroke="none">
<path d="M835 1280 c-16 0 -25 -6 -25 -15 0 -8 -8 -15 -17 -15 -9 0 -47 -16
-84 -35 -38 -19 -75 -35 -83 -35 -9 0 -21 -9 -28 -20 -7 -11 -18 -20 -25 -20
-7 0 -13 -4 -13 -9 0 -5 7 -11 14 -14 8 -3 18 -23 22 -44 4 -21 14 -43 21 -48
12 -9 12 -16 1 -40 -7 -17 -17 -33 -23 -37 -5 -4 -27 -8 -47 -8 -28 0 -38 5
-43 20 -3 10 -3 35 1 54 3 20 4 47 0 60 -5 20 -14 24 -64 30 -32 4 -66 4 -75
0 -10 -3 -17 -12 -17 -20 0 -7 9 -18 19 -24 11 -5 30 -9 42 -7 22 2 23 -1 21
-53 -2 -30 -3 -75 -4 -100 -2 -45 -2 -45 34 -48 26 -2 49 5 78 23 23 14 49 25
58 23 13 -3 17 -15 18 -58 1 -49 -2 -59 -31 -91 -18 -20 -36 -47 -40 -60 -4
-13 -19 -37 -32 -53 -24 -28 -24 -31 -7 -43 10 -7 15 -16 11 -19 -4 -4 -14 -1
-23 7 -14 11 -23 5 -75 -51 -32 -36 -59 -70 -59 -77 0 -7 -11 -20 -25 -29 -14
-9 -25 -24 -25 -34 0 -10 7 -23 15 -30 9 -7 20 -32 26 -56 6 -24 16 -48 23
-53 6 -5 16 -7 21 -3 6 4 23 32 38 62 16 30 37 70 48 88 19 32 18 33 -1 52
-11 11 -20 25 -20 30 0 6 6 10 14 10 8 0 18 -9 21 -21 6 -19 8 -20 26 -3 14
12 16 21 9 35 -8 14 -4 24 15 43 14 15 34 26 45 26 10 0 23 -6 27 -14 5 -8 27
-16 53 -18 44 -3 45 -4 42 -35 -2 -22 1 -33 10 -34 7 0 3 -4 -9 -9 -13 -5 -23
-18 -23 -28 0 -11 7 -25 15 -32 11 -9 19 -10 26 -3 6 6 19 8 30 6 10 -3 19
-11 19 -18 0 -7 -6 -18 -14 -25 -8 -6 -16 -20 -18 -29 -2 -10 -30 -41 -63 -69
-60 -52 -60 -52 -68 -24 -4 15 -5 48 -1 74 3 26 3 56 -1 67 -3 11 -14 22 -23
24 -16 4 -16 5 1 6 10 1 17 9 17 20 0 10 -7 22 -16 25 -9 3 -20 3 -26 0 -5 -3
-7 -12 -4 -20 3 -8 -1 -17 -9 -20 -8 -3 -19 -22 -26 -41 -6 -19 -8 -49 -4 -66
3 -18 8 -54 11 -81 3 -28 10 -56 16 -63 6 -7 15 -13 21 -13 6 0 21 10 34 22
22 21 24 21 17 3 -4 -11 -14 -30 -22 -43 -10 -16 -12 -26 -5 -33 6 -6 19 -9
29 -7 11 2 20 13 22 26 2 12 18 38 36 57 19 19 38 35 45 35 6 0 11 -5 11 -11
0 -6 -16 -29 -35 -52 -19 -22 -35 -45 -35 -50 0 -5 -9 -16 -20 -25 -10 -10
-22 -29 -26 -44 -5 -25 -3 -28 19 -28 18 0 28 7 33 22 4 12 18 31 32 42 13 11
35 43 48 72 13 29 28 55 34 59 8 5 4 15 -11 31 -12 13 -19 30 -16 38 4 9 11
16 18 16 6 0 13 -8 16 -19 3 -13 11 -17 26 -13 12 3 32 11 45 18 13 6 39 30
58 52 19 22 34 48 34 59 0 10 -9 33 -20 50 -11 18 -28 33 -37 33 -10 0 -24 -4
-32 -9 -10 -6 -11 -21 -6 -57 3 -27 2 -61 -4 -75 -8 -22 -15 -26 -35 -22 -23
5 -26 10 -23 39 2 19 7 37 10 41 4 3 7 15 7 25 0 14 -5 18 -19 13 -10 -3 -25
-3 -34 1 -9 3 -13 12 -11 19 3 7 18 15 35 19 27 5 29 9 29 52 0 25 -8 59 -17
75 -10 16 -20 29 -23 29 -3 0 -11 4 -18 9 -11 6 -11 13 0 37 7 16 21 35 30 42
10 7 18 26 18 42 0 16 5 32 10 35 6 3 10 12 10 20 0 8 -15 28 -32 44 -18 17
-38 31 -44 31 -6 0 -35 -25 -64 -56 -51 -54 -53 -55 -47 -25 4 17 18 48 33 70
14 22 34 55 43 73 12 26 23 34 49 36 18 2 32 9 32 17 0 7 -14 18 -30 24 -30
10 -30 10 -8 56 12 25 26 45 30 45 4 0 8 9 8 19 0 11 -4 22 -8 25 -5 3 -20 -9
-33 -27 -13 -17 -31 -45 -39 -62 -8 -16 -22 -30 -30 -30 -9 0 -16 11 -18 26
-2 20 6 36 35 64 20 20 51 39 67 42 16 4 31 14 33 25 3 10 10 18 16 18 6 0 18
-7 27 -15 10 -9 25 -13 34 -9 9 3 16 12 16 20 0 8 -9 23 -20 34 -11 11 -20 25
-20 30 0 6 -11 10 -25 10z m-143 -566 c5 -3 8 -19 8 -36 0 -21 -6 -31 -20 -35
-12 -3 -20 -14 -20 -27 0 -11 -4 -28 -10 -36 -5 -8 -10 -12 -12 -10 -2 3 -8
14 -14 25 -6 12 -15 35 -19 53 -4 20 -3 32 4 32 5 0 13 -4 16 -10 3 -5 10 -10
16 -10 5 0 9 7 9 16 0 9 8 23 17 30 10 7 21 10 25 8z m32 -77 c6 -2 12 -11 14
-20 2 -10 -3 -17 -11 -17 -8 0 -17 6 -20 14 -3 8 -3 17 1 20 3 4 11 5 16 3z"/>
<path d="M514 30 c-5 0 -19 -7 -30 -15 -17 -13 -15 -14 36 -14 53 0 54 0 30
14 -14 8 -30 14 -36 15z"/>
</g>
</svg>
