<?xml version="1.0" standalone="no"?>
<!DOCTYPE svg PUBLIC "-//W3C//DTD SVG 20010904//EN"
 "http://www.w3.org/TR/2001/REC-SVG-20010904/DTD/svg10.dtd">
<svg version="1.0" xmlns="http://www.w3.org/2000/svg"
 width="128.000000pt" height="128.000000pt" viewBox="0 0 128.000000 128.000000"
 preserveAspectRatio="xMidYMid meet">
<metadata>
Created by potrace 1.16, written by Peter Selinger 2001-2019
</metadata>
<g transform="translate(0.000000,128.000000) scale(0.100000,-0.100000)"
fill="#000000" stroke="none">
<path d="M400 1280 c-67 0 -70 -1 -70 -24 0 -19 7 -26 29 -31 19 -4 41 1 70
15 22 12 41 26 41 31 0 5 -31 9 -70 9z"/>
<path d="M662 1250 c-22 0 -44 -6 -50 -13 -9 -10 -3 -21 22 -45 19 -17 38 -45
44 -61 8 -22 7 -36 -4 -56 -8 -16 -12 -36 -9 -46 4 -11 -1 -29 -9 -41 -9 -12
-16 -32 -16 -44 0 -16 -12 -27 -43 -42 -24 -11 -49 -27 -56 -36 -8 -9 -22 -16
-32 -16 -10 0 -46 9 -80 21 -41 14 -64 18 -71 11 -7 -7 -4 -15 9 -26 10 -9 40
-33 66 -52 49 -35 49 -35 91 -15 23 12 50 21 59 21 13 0 17 -9 17 -37 0 -21
-8 -60 -17 -86 -14 -40 -15 -51 -5 -68 10 -15 10 -24 2 -34 -6 -7 -27 -16 -48
-20 -20 -4 -46 -15 -57 -24 -11 -10 -45 -24 -75 -31 -30 -8 -90 -13 -133 -12
-43 0 -85 6 -92 12 -8 7 -19 9 -25 5 -5 -3 -10 -11 -10 -16 0 -5 15 -24 32
-42 18 -18 46 -40 62 -51 23 -15 41 -17 83 -13 30 3 61 11 68 17 8 6 12 17 9
25 -3 7 -1 16 5 20 6 3 11 1 11 -5 0 -6 7 -13 15 -16 8 -3 32 8 54 25 21 17
45 31 53 31 8 0 37 12 63 26 27 14 54 31 59 39 6 7 32 16 58 20 27 3 53 3 58
0 7 -4 -1 -21 -19 -43 -17 -20 -36 -43 -43 -50 -7 -7 -56 -54 -109 -105 -52
-51 -98 -100 -102 -109 -3 -9 -16 -18 -29 -20 -13 -2 -34 -21 -53 -48 -24 -36
-30 -56 -30 -100 0 -52 1 -55 31 -65 17 -5 38 -16 47 -23 13 -11 18 -8 37 18
12 16 26 30 31 30 5 0 8 -10 6 -22 -1 -16 2 -22 13 -19 8 2 26 6 40 7 14 2 39
6 55 10 17 3 39 9 50 13 11 5 34 13 52 18 17 6 43 8 57 6 20 -4 28 0 35 20 5
13 27 38 48 56 20 17 42 31 48 31 6 0 30 -25 54 -55 24 -30 51 -55 61 -55 9 0
29 13 44 29 16 17 26 36 23 43 -2 8 -40 38 -82 67 -76 53 -78 53 -133 48 -39
-4 -67 -15 -96 -35 -23 -17 -62 -35 -86 -41 -25 -7 -54 -16 -65 -21 -11 -4
-46 -11 -77 -14 -50 -4 -58 -2 -58 13 0 9 21 37 46 61 25 25 63 70 84 100 21
30 52 67 68 83 17 15 33 27 37 27 4 0 38 28 76 61 38 34 91 72 118 84 27 13
57 35 66 49 9 13 15 37 13 52 -2 18 -13 34 -33 45 -16 10 -42 18 -56 18 -14 1
-67 -19 -118 -44 -51 -25 -104 -45 -117 -45 -14 0 -34 -5 -44 -10 -16 -9 -21
-6 -26 14 -3 14 -3 34 1 45 3 12 15 21 25 21 10 0 26 10 34 22 9 12 16 30 16
39 0 9 9 27 19 40 10 14 21 35 23 48 2 18 13 27 41 35 22 6 59 29 83 50 28 25
44 48 44 62 0 16 -10 28 -29 38 -28 15 -29 15 -57 -25 -16 -23 -34 -39 -43
-37 -9 2 -18 14 -19 28 -2 13 2 41 8 61 7 21 9 50 6 65 -4 15 -24 45 -45 66
-32 31 -46 38 -79 38z m-45 -1130 c7 0 13 -6 13 -14 0 -8 -3 -21 -6 -30 -3 -9
-12 -16 -20 -16 -8 0 -14 10 -14 23 0 13 3 27 7 30 3 4 12 7 20 7z"/>
</g>
</svg>
