<?xml version="1.0" standalone="no"?>
<!DOCTYPE svg PUBLIC "-//W3C//DTD SVG 20010904//EN"
 "http://www.w3.org/TR/2001/REC-SVG-20010904/DTD/svg10.dtd">
<svg version="1.0" xmlns="http://www.w3.org/2000/svg"
 width="128.000000pt" height="128.000000pt" viewBox="0 0 128.000000 128.000000"
 preserveAspectRatio="xMidYMid meet">
<metadata>
Created by potrace 1.16, written by Peter Selinger 2001-2019
</metadata>
<g transform="translate(0.000000,128.000000) scale(0.100000,-0.100000)"
fill="#000000" stroke="none">
<path d="M817 1220 c-8 0 -20 -7 -27 -15 -7 -8 -16 -34 -21 -58 -4 -23 -12
-54 -18 -69 -9 -23 -17 -28 -43 -28 -20 0 -51 12 -78 30 -25 16 -48 30 -52 30
-5 0 -8 -7 -8 -15 0 -9 14 -42 30 -75 22 -44 37 -61 57 -66 14 -4 40 -2 58 5
17 6 34 11 38 11 4 0 7 -14 7 -30 0 -17 -7 -46 -14 -65 -13 -29 -20 -35 -48
-37 -18 0 -46 -2 -63 -4 -16 -2 -69 -5 -117 -8 -65 -3 -102 -11 -143 -30 -30
-14 -58 -32 -61 -41 -4 -9 -2 -21 4 -27 6 -6 27 -17 47 -24 25 -8 48 -9 78 -3
23 5 71 19 107 30 36 11 72 23 80 27 8 3 23 6 32 7 10 1 24 8 32 14 8 7 25 11
38 9 12 -2 24 -11 26 -20 2 -9 -25 -53 -59 -98 -35 -45 -107 -123 -160 -172
-53 -49 -126 -112 -161 -139 -34 -27 -92 -69 -128 -93 -36 -24 -80 -51 -97
-60 -18 -9 -33 -20 -33 -24 0 -5 -27 -6 -60 -4 -49 4 -60 2 -60 -11 0 -9 13
-25 29 -36 16 -12 34 -21 40 -21 6 0 17 11 26 24 11 16 22 22 39 19 13 -3 27
0 30 6 4 6 14 11 23 11 8 0 41 13 72 29 31 15 80 46 110 67 29 22 81 61 114
87 34 27 90 75 124 109 41 39 68 58 78 55 8 -4 15 -14 15 -24 0 -10 -7 -40
-15 -67 -8 -27 -15 -88 -15 -134 0 -47 5 -102 11 -121 7 -20 17 -52 24 -71 8
-22 20 -36 32 -38 14 -2 24 6 32 26 9 22 10 61 2 158 -5 71 -7 162 -4 203 6
74 6 74 -21 67 -20 -5 -26 -3 -26 10 0 12 6 14 30 9 19 -4 36 -2 45 5 12 10
18 10 29 1 8 -7 16 -31 20 -54 3 -23 7 -68 10 -99 3 -38 11 -67 25 -84 12 -15
21 -35 21 -45 0 -10 40 -60 88 -110 54 -57 93 -90 100 -85 6 4 23 27 37 51 21
35 28 65 36 152 5 59 16 160 23 223 12 108 11 117 -7 154 -10 21 -29 49 -42
62 -16 16 -36 24 -57 24 -19 0 -42 -6 -53 -14 -11 -7 -43 -21 -71 -30 -29 -9
-60 -26 -69 -36 -11 -12 -31 -20 -52 -20 -21 0 -36 6 -39 15 -4 10 11 33 39
64 24 26 48 62 51 79 4 17 13 35 19 40 7 5 34 10 61 11 26 1 53 4 60 8 6 4 33
11 61 15 27 4 70 11 95 14 25 3 57 10 73 16 22 8 27 17 27 42 0 28 -7 36 -52
63 -29 16 -79 44 -110 62 -57 31 -57 31 -85 -6 -15 -21 -65 -75 -109 -122 -58
-60 -86 -82 -98 -78 -12 5 -16 20 -16 60 0 54 0 54 75 107 48 34 78 62 82 78
3 15 1 28 -8 33 -8 5 -34 8 -59 7 -42 -3 -45 -1 -54 27 -5 17 -10 36 -12 43
-2 6 -10 12 -17 12z m4 -150 c5 0 9 -4 9 -9 0 -6 -5 -13 -11 -16 -6 -4 -13 -5
-16 -2 -3 3 -2 10 2 16 3 6 10 11 16 11z m261 -90 c9 0 20 -5 23 -11 4 -6 -1
-17 -11 -24 -11 -8 -29 -15 -41 -15 -13 0 -23 5 -23 11 0 7 8 18 18 25 9 7 25
14 34 14z m-26 -331 c26 1 34 -4 44 -30 10 -22 11 -62 5 -157 -5 -70 -9 -139
-10 -154 -2 -16 -3 -32 -4 -38 0 -5 -6 -10 -11 -10 -6 0 -51 40 -100 89 -50
49 -90 92 -90 96 0 3 10 19 21 35 18 23 20 36 15 74 -6 40 -5 46 16 58 13 7
37 18 53 24 17 6 44 12 61 13z"/>
</g>
</svg>
