<?xml version="1.0" standalone="no"?>
<!DOCTYPE svg PUBLIC "-//W3C//DTD SVG 20010904//EN"
 "http://www.w3.org/TR/2001/REC-SVG-20010904/DTD/svg10.dtd">
<svg version="1.0" xmlns="http://www.w3.org/2000/svg"
 width="128.000000pt" height="128.000000pt" viewBox="0 0 128.000000 128.000000"
 preserveAspectRatio="xMidYMid meet">
<metadata>
Created by potrace 1.16, written by Peter Selinger 2001-2019
</metadata>
<g transform="translate(0.000000,128.000000) scale(0.100000,-0.100000)"
fill="#000000" stroke="none">
<path d="M598 1279 c-64 0 -87 -4 -99 -17 -9 -9 -21 -27 -28 -39 -6 -12 -11
-29 -11 -38 0 -15 2 -15 22 -1 12 9 33 16 46 16 13 0 35 13 50 30 24 26 32 29
65 23 30 -4 37 -3 37 11 0 13 -13 16 -82 15z"/>
<path d="M438 1159 c-18 0 -39 -3 -45 -6 -7 -2 -13 -16 -13 -29 0 -13 15 -41
34 -62 31 -34 33 -39 20 -57 -8 -10 -14 -27 -14 -37 0 -11 7 -18 19 -18 11 0
23 5 26 10 4 6 22 17 41 25 25 10 34 20 34 38 0 14 -15 41 -35 63 -19 21 -35
46 -35 56 0 14 -8 18 -32 17z"/>
<path d="M405 940 c-6 0 -16 -5 -23 -12 -7 -7 -12 -22 -12 -35 0 -13 3 -23 8
-23 4 0 13 -14 21 -32 13 -30 13 -33 -7 -46 -12 -8 -22 -25 -22 -38 0 -17 -6
-24 -19 -24 -10 0 -24 -7 -31 -15 -7 -8 -18 -15 -24 -15 -6 -1 -29 -16 -50
-34 -38 -32 -39 -35 -27 -64 8 -19 22 -32 37 -35 13 -2 29 2 35 9 6 8 17 14
24 14 7 0 18 7 25 15 7 9 20 13 30 10 9 -3 29 4 44 16 22 17 30 19 36 9 4 -7
1 -28 -6 -47 -8 -18 -15 -50 -16 -71 0 -20 3 -47 7 -59 6 -20 2 -25 -39 -43
-25 -10 -46 -24 -46 -29 0 -5 -24 -23 -53 -39 -29 -16 -59 -37 -66 -46 -13
-15 -9 -22 24 -56 22 -22 44 -40 51 -40 6 0 17 -6 23 -14 9 -11 2 -22 -34 -54
-32 -28 -45 -47 -45 -66 0 -16 11 -37 26 -51 26 -24 32 -25 176 -25 81 0 156
4 166 10 9 5 45 19 79 30 34 11 78 20 96 20 19 0 40 6 46 14 7 8 11 30 9 48
-2 25 -8 34 -26 36 -12 2 -26 11 -31 20 -5 9 -8 63 -7 119 1 97 2 104 28 129
26 26 26 26 46 8 12 -11 42 -25 69 -33 26 -8 58 -23 70 -33 12 -11 31 -18 45
-16 17 2 24 10 26 32 2 15 1 38 -2 50 -3 12 -20 29 -38 37 -19 9 -48 14 -69
11 -21 -2 -40 1 -43 7 -4 6 -14 11 -23 11 -8 0 -45 -9 -82 -20 -51 -16 -71
-27 -83 -48 -9 -16 -14 -40 -11 -59 3 -18 2 -44 -1 -58 -4 -15 -11 -22 -20
-19 -8 3 -19 -4 -26 -16 -9 -17 -9 -25 0 -34 8 -8 15 -7 24 7 7 9 18 17 23 17
6 0 14 -19 17 -42 6 -35 4 -45 -11 -53 -9 -5 -29 -22 -43 -36 -20 -20 -33 -26
-53 -22 -15 3 -33 0 -41 -6 -7 -6 -53 -15 -102 -20 -49 -5 -93 -6 -98 -1 -5 5
-6 16 -2 25 3 9 15 19 25 22 11 3 21 15 23 27 2 13 9 20 19 18 9 -1 29 13 46
31 17 18 38 46 48 63 10 16 27 38 37 50 10 11 22 34 27 51 5 17 6 36 2 42 -4
6 -23 16 -42 21 -18 6 -45 10 -59 10 -14 0 -31 4 -39 9 -11 7 -11 13 -1 32 7
13 14 53 16 89 1 36 3 68 3 72 1 4 17 15 37 23 20 8 48 15 61 15 14 0 53 13
88 30 34 16 68 37 75 45 9 11 10 19 3 26 -6 6 -40 11 -76 12 -50 1 -70 -2 -84
-16 -11 -9 -42 -24 -70 -32 -28 -8 -56 -22 -63 -30 -7 -8 -19 -15 -27 -15 -8
0 -13 7 -11 17 2 9 17 24 33 33 24 13 31 24 33 53 3 30 -3 45 -35 82 -20 25
-42 45 -48 45z m-1 -603 c6 -2 12 -16 14 -30 3 -21 -1 -27 -16 -27 -11 0 -25
6 -31 14 -9 11 -8 18 5 30 9 9 21 15 28 13z"/>
<path d="M929 600 c-3 0 -19 -12 -34 -26 -15 -14 -24 -29 -19 -34 5 -4 26 -11
47 -14 36 -7 37 -6 37 22 0 15 -5 33 -12 40 -7 7 -15 12 -19 12z"/>
</g>
</svg>
