<?xml version="1.0" standalone="no"?>
<!DOCTYPE svg PUBLIC "-//W3C//DTD SVG 20010904//EN"
 "http://www.w3.org/TR/2001/REC-SVG-20010904/DTD/svg10.dtd">
<svg version="1.0" xmlns="http://www.w3.org/2000/svg"
 width="128.000000pt" height="128.000000pt" viewBox="0 0 128.000000 128.000000"
 preserveAspectRatio="xMidYMid meet">
<metadata>
Created by potrace 1.16, written by Peter Selinger 2001-2019
</metadata>
<g transform="translate(0.000000,128.000000) scale(0.100000,-0.100000)"
fill="#000000" stroke="none">
<path d="M530 1280 c-48 0 -60 -3 -60 -16 0 -9 16 -32 35 -51 19 -19 35 -42
35 -50 0 -12 11 -13 68 -8 44 5 73 13 86 25 17 16 17 21 6 35 -7 9 -26 23 -41
31 -16 8 -37 14 -49 14 -11 0 -20 5 -20 10 0 6 -27 10 -60 10z"/>
<path d="M528 1145 c-3 4 -9 1 -13 -5 -4 -6 -20 -8 -40 -4 -27 5 -35 2 -49
-17 -9 -13 -16 -32 -16 -43 0 -11 16 -34 36 -52 30 -28 34 -36 24 -54 -6 -11
-26 -28 -44 -38 -18 -9 -51 -29 -73 -43 -22 -15 -47 -39 -57 -54 -11 -17 -23
-24 -33 -21 -10 4 -26 -3 -40 -15 -15 -15 -23 -34 -23 -55 0 -17 7 -37 15 -44
9 -7 38 -15 65 -18 36 -3 60 1 93 17 24 11 49 21 56 21 8 0 29 9 47 21 19 11
38 18 44 14 6 -3 9 -38 9 -78 -1 -40 -6 -82 -10 -94 -4 -12 -17 -24 -27 -27
-11 -4 -37 -23 -58 -42 -32 -31 -42 -35 -72 -30 -19 3 -42 12 -52 21 -9 8 -31
15 -49 15 -28 0 -34 -5 -48 -37 -13 -32 -14 -47 -4 -98 8 -42 20 -67 37 -82
14 -13 31 -23 39 -23 7 0 24 13 37 29 13 15 35 36 50 46 16 10 35 14 47 10 11
-3 27 -18 35 -33 9 -15 18 -35 22 -45 4 -12 12 -16 23 -12 9 4 20 7 25 8 6 1
12 -6 14 -16 3 -16 -1 -18 -25 -13 -23 5 -41 -2 -93 -36 -35 -24 -80 -51 -99
-62 -20 -10 -39 -23 -43 -30 -4 -6 -5 -20 -2 -31 4 -11 13 -28 21 -37 8 -9 12
-21 9 -27 -4 -6 12 -15 35 -21 32 -9 53 -9 88 1 25 6 55 17 66 24 11 6 41 15
68 18 26 4 62 14 80 24 23 12 65 18 148 21 110 4 120 3 174 -22 32 -14 66 -26
76 -26 11 0 24 11 30 24 8 16 8 29 1 43 -6 10 -21 24 -34 30 -13 5 -49 20 -81
33 -36 14 -66 20 -80 15 -12 -4 -44 -11 -72 -15 -27 -5 -99 -19 -160 -33 -60
-13 -115 -23 -121 -20 -6 2 -39 -5 -72 -16 -34 -12 -64 -21 -67 -21 -3 0 -5 6
-5 14 0 8 23 29 51 48 28 18 66 41 83 50 17 10 38 27 48 38 9 11 28 20 42 20
13 0 27 4 30 9 3 4 24 11 47 15 24 4 64 23 97 46 30 22 66 40 80 40 13 0 35 9
49 20 14 11 32 20 40 20 7 0 30 9 51 19 20 10 46 28 56 40 19 21 19 22 -2 51
-12 16 -22 36 -22 45 0 8 -10 19 -22 24 -13 5 -32 18 -42 30 -12 13 -31 21
-50 21 -17 0 -54 -8 -81 -19 -28 -10 -58 -22 -67 -26 -12 -5 -30 6 -61 34 -24
23 -50 41 -57 41 -7 0 -10 -7 -7 -17 4 -10 19 -55 35 -101 23 -68 34 -87 60
-104 18 -11 29 -25 25 -31 -3 -7 -15 -24 -25 -40 -14 -19 -28 -27 -48 -27 -16
0 -41 -5 -55 -12 -17 -8 -29 -8 -36 -1 -5 5 -11 73 -13 151 -2 98 1 153 11
179 7 21 13 50 13 65 0 17 8 31 21 38 11 7 45 20 75 30 52 17 56 17 89 0 18
-9 37 -14 42 -9 4 4 24 9 43 11 28 2 36 8 38 26 3 16 -4 29 -20 40 -12 10 -43
25 -68 35 -38 15 -51 16 -85 6 -22 -7 -49 -21 -61 -31 -11 -10 -47 -25 -79
-33 -32 -9 -64 -20 -71 -26 -7 -6 -23 -9 -36 -7 -12 2 -24 10 -26 19 -2 9 10
30 27 46 16 17 45 37 63 46 18 9 44 25 57 36 22 17 23 23 15 52 -7 25 -16 35
-34 37 -14 2 -32 9 -40 16 -8 7 -23 16 -32 19 -10 4 -18 12 -18 20 0 7 5 18
12 25 6 6 9 14 6 17z m-83 -289 c6 -1 11 -14 13 -29 3 -21 -4 -31 -30 -47 -19
-11 -51 -20 -75 -20 -23 0 -44 4 -47 8 -3 5 -3 18 1 30 4 15 16 23 42 28 20 4
47 13 61 20 14 7 30 12 35 10z m428 -296 c24 0 52 -6 63 -14 15 -12 17 -19 8
-33 -6 -10 -26 -26 -46 -35 -19 -9 -40 -23 -47 -32 -8 -9 -26 -16 -42 -16 -16
0 -29 2 -29 5 0 2 6 19 14 37 8 18 19 45 25 61 9 24 16 27 54 27z m-385 -90
c4 0 8 -16 9 -35 1 -19 -3 -35 -8 -35 -5 0 -9 16 -9 35 0 19 4 35 8 35z m-200
-10 c5 0 15 -6 21 -14 6 -7 9 -21 5 -30 -3 -9 -13 -16 -20 -16 -8 0 -17 7 -20
15 -4 8 -4 22 0 30 3 8 9 15 14 15z"/>
</g>
</svg>
