<?xml version="1.0" standalone="no"?>
<!DOCTYPE svg PUBLIC "-//W3C//DTD SVG 20010904//EN"
 "http://www.w3.org/TR/2001/REC-SVG-20010904/DTD/svg10.dtd">
<svg version="1.0" xmlns="http://www.w3.org/2000/svg"
 width="128.000000pt" height="128.000000pt" viewBox="0 0 128.000000 128.000000"
 preserveAspectRatio="xMidYMid meet">
<metadata>
Created by potrace 1.16, written by Peter Selinger 2001-2019
</metadata>
<g transform="translate(0.000000,128.000000) scale(0.100000,-0.100000)"
fill="#000000" stroke="none">
<path d="M639 1259 c-19 -1 -46 -6 -61 -12 -16 -6 -28 -17 -28 -24 0 -7 8 -13
18 -13 11 0 27 -9 37 -20 10 -11 28 -20 40 -20 11 0 26 -5 32 -11 8 -8 15 -3
27 19 15 30 15 32 -8 56 -17 19 -33 26 -57 25z"/>
<path d="M643 1056 c-32 16 -46 17 -90 9 -28 -5 -54 -13 -57 -16 -3 -3 3 -14
14 -24 11 -10 20 -30 20 -45 0 -18 -15 -46 -40 -76 -22 -27 -40 -53 -40 -59 0
-6 -9 -21 -21 -34 -13 -14 -18 -28 -14 -39 5 -13 28 5 110 91 57 59 110 107
118 107 7 0 22 9 32 20 9 10 15 26 12 33 -3 8 -23 23 -44 33z"/>
<path d="M873 1000 c-18 0 -42 -13 -67 -35 -22 -19 -43 -35 -48 -35 -4 0 -16
-7 -25 -16 -10 -8 -55 -39 -101 -69 -46 -30 -99 -67 -117 -82 -19 -15 -52 -43
-72 -60 -21 -18 -50 -38 -66 -44 -24 -10 -30 -9 -42 7 -13 19 -14 19 -21 -1
-4 -11 -12 -23 -18 -27 -5 -3 -11 -19 -12 -35 -2 -15 -6 -38 -10 -50 -5 -19
-2 -23 14 -23 12 0 26 8 31 19 6 10 34 30 64 45 30 14 62 35 72 46 10 11 34
30 52 41 18 11 33 27 33 35 0 8 6 14 14 14 7 0 19 7 26 15 6 8 32 26 57 40 26
14 48 23 51 20 3 -3 -8 -40 -25 -83 -17 -42 -34 -97 -38 -122 -5 -25 -10 -76
-13 -115 -2 -38 -5 -94 -5 -123 0 -29 5 -58 11 -64 8 -8 8 -17 1 -30 -5 -10
-29 -30 -52 -45 -23 -14 -54 -40 -69 -56 -16 -16 -28 -35 -28 -42 0 -8 -5 -17
-10 -20 -6 -3 -10 -16 -10 -29 0 -12 3 -26 6 -29 4 -4 21 6 39 21 18 15 41 34
51 42 10 8 53 33 94 54 41 21 84 47 96 58 12 11 28 16 37 12 15 -5 14 -10 -5
-47 -11 -23 -48 -75 -80 -114 -54 -67 -57 -73 -36 -73 15 0 38 15 59 38 19 20
52 63 72 94 21 31 52 72 71 90 18 18 41 39 50 46 9 7 14 17 11 22 -3 5 -21 12
-40 16 -18 3 -51 0 -71 -6 -21 -7 -60 -26 -87 -42 -26 -15 -52 -26 -57 -23 -5
3 -7 12 -3 20 3 9 27 30 53 48 27 17 95 75 151 127 56 51 108 109 115 127 8
18 14 50 14 71 0 25 -7 45 -18 55 -10 10 -24 17 -30 17 -7 0 -20 -4 -30 -9 -9
-5 -36 -15 -59 -21 -23 -7 -59 -14 -80 -15 -21 -1 -39 -3 -41 -4 -2 0 6 -15
18 -31 18 -25 26 -29 48 -24 15 4 47 18 71 31 24 13 50 22 58 19 11 -5 13 -14
8 -38 -4 -18 -20 -49 -36 -69 -16 -20 -29 -42 -29 -48 0 -6 -8 -11 -18 -11
-10 0 -26 -14 -36 -30 -9 -17 -42 -49 -71 -71 -30 -22 -59 -38 -65 -34 -6 4
-10 51 -10 118 0 72 7 141 19 193 10 45 31 104 46 132 15 28 39 62 54 75 14
14 43 35 64 46 21 12 42 21 48 21 6 0 17 6 25 14 8 8 14 19 14 25 0 6 -9 15
-19 21 -11 5 -32 10 -48 10z"/>
<path d="M594 520 c-7 7 -16 4 -29 -10 -10 -11 -37 -30 -59 -43 -33 -18 -46
-21 -69 -13 -19 7 -31 6 -38 -1 -9 -9 -9 -19 0 -42 7 -16 31 -41 53 -56 38
-25 41 -26 59 -9 10 9 19 25 19 36 0 10 12 37 28 60 15 22 31 47 37 54 6 9 6
17 -1 24z"/>
</g>
</svg>
