<?xml version="1.0" standalone="no"?>
<!DOCTYPE svg PUBLIC "-//W3C//DTD SVG 20010904//EN"
 "http://www.w3.org/TR/2001/REC-SVG-20010904/DTD/svg10.dtd">
<svg version="1.0" xmlns="http://www.w3.org/2000/svg"
 width="128.000000pt" height="128.000000pt" viewBox="0 0 128.000000 128.000000"
 preserveAspectRatio="xMidYMid meet">
<metadata>
Created by potrace 1.16, written by Peter Selinger 2001-2019
</metadata>
<g transform="translate(0.000000,128.000000) scale(0.100000,-0.100000)"
fill="#000000" stroke="none">
<path d="M1018 1280 c-2 0 -9 -9 -16 -20 -6 -11 -12 -29 -12 -40 0 -16 -7 -20
-30 -20 -19 0 -30 -5 -30 -14 0 -7 6 -18 13 -24 6 -6 28 -12 47 -14 26 -2 38
-10 53 -36 20 -33 20 -33 -8 -62 -19 -19 -27 -39 -28 -65 -1 -28 5 -42 22 -57
13 -10 29 -17 35 -15 6 2 13 11 14 21 2 11 -4 19 -17 23 -12 3 -21 13 -21 23
0 9 9 25 20 35 19 17 20 29 18 123 -3 100 -4 105 -29 123 -15 10 -29 19 -31
19z"/>
<path d="M723 1250 c-10 0 -36 -11 -58 -25 -22 -13 -59 -27 -82 -31 -33 -5
-52 -1 -84 15 -31 17 -44 19 -55 10 -11 -9 -4 -22 39 -70 28 -32 58 -59 66
-59 8 0 33 11 55 24 23 13 53 26 67 29 18 5 31 2 39 -8 9 -11 8 -25 -4 -63 -9
-27 -30 -62 -46 -77 -26 -25 -33 -27 -55 -17 -14 7 -38 12 -53 12 -16 0 -33
-5 -40 -12 -7 -7 -12 -23 -12 -36 0 -13 5 -32 10 -42 8 -15 1 -32 -36 -85 -25
-36 -68 -90 -96 -120 -41 -45 -49 -60 -46 -87 2 -20 9 -34 19 -36 8 -1 47 22
85 53 38 30 83 61 99 69 23 12 33 12 42 3 6 -7 13 -50 15 -97 2 -80 1 -85 -19
-88 -14 -2 -23 3 -28 16 -3 11 -13 23 -21 26 -9 3 -23 2 -32 -3 -9 -5 -28 -21
-41 -35 -23 -24 -23 -26 -6 -52 16 -25 16 -28 -9 -83 -14 -32 -27 -69 -28 -82
-2 -18 2 -25 18 -27 13 -2 35 10 57 31 20 18 38 45 41 60 3 15 8 37 11 49 2
13 16 28 30 35 14 6 27 8 29 5 2 -4 6 -41 8 -82 3 -75 3 -75 -25 -78 -22 -3
-28 -8 -24 -20 3 -9 9 -27 12 -39 6 -17 1 -25 -24 -37 -16 -9 -41 -16 -55 -16
-14 0 -55 -7 -93 -15 -37 -9 -77 -17 -89 -20 -12 -3 -40 -22 -63 -44 -22 -21
-41 -48 -41 -59 0 -11 6 -25 14 -31 10 -8 47 -10 123 -6 59 3 178 14 263 26
103 13 206 19 307 18 84 0 157 2 162 6 6 3 11 18 11 33 0 21 -10 34 -42 55
-36 23 -50 27 -83 21 -22 -3 -48 -10 -57 -15 -9 -5 -26 -9 -38 -9 -11 0 -53
-11 -92 -25 -39 -14 -81 -25 -93 -25 -12 0 -24 3 -28 6 -3 4 0 19 8 35 8 15
15 39 15 53 0 19 6 27 23 30 12 2 49 10 82 16 40 8 70 21 88 39 16 14 35 38
43 53 12 24 12 32 0 60 -7 18 -25 43 -38 56 -26 23 -26 23 -7 83 11 34 19 75
19 93 0 21 -8 40 -23 54 -13 12 -30 22 -39 22 -9 0 -44 -22 -79 -50 -35 -27
-70 -50 -76 -50 -9 0 -13 16 -13 49 0 32 6 56 19 73 11 13 44 36 74 51 31 15
70 27 86 27 18 0 40 9 51 20 11 11 20 29 20 41 0 14 -11 25 -36 35 -20 9 -46
13 -58 10 -12 -3 -36 -19 -54 -36 -18 -16 -35 -30 -38 -30 -2 0 -20 -10 -39
-22 -19 -13 -33 -29 -30 -35 3 -8 -5 -13 -20 -13 -13 0 -36 -5 -51 -10 -18 -7
-31 -7 -37 -1 -6 6 0 27 19 58 15 26 36 64 45 84 14 27 27 38 58 47 22 7 53
24 70 37 16 14 41 46 56 70 14 25 28 67 31 93 3 26 1 52 -3 57 -4 6 -22 21
-40 33 -17 12 -39 22 -50 22z m35 -650 c7 0 15 -7 19 -16 3 -9 1 -36 -4 -60
-6 -27 -7 -65 -1 -101 5 -32 16 -69 25 -82 12 -19 13 -25 1 -36 -7 -7 -32 -22
-55 -35 -23 -13 -48 -20 -56 -17 -11 4 -15 36 -19 139 -4 77 -2 141 4 151 5
10 24 27 41 37 18 11 38 20 45 20z m-181 -437 c6 -3 14 -20 18 -40 3 -20 3
-39 -2 -44 -4 -4 -75 -13 -157 -19 -101 -7 -153 -7 -160 0 -7 7 -7 13 1 21 5
5 43 19 84 29 41 11 103 28 139 38 36 10 70 17 77 15z"/>
<path d="M1004 900 c-7 0 -15 -7 -18 -17 -4 -9 1 -25 13 -37 10 -12 29 -40 41
-63 12 -24 26 -43 31 -43 5 0 9 20 9 45 0 36 -6 51 -32 80 -18 19 -38 35 -44
35z"/>
<path d="M1026 715 c-12 8 -26 12 -29 8 -4 -3 -7 -14 -7 -23 0 -9 8 -24 18
-33 10 -10 31 -17 45 -17 22 0 27 5 27 25 0 16 -6 25 -15 25 -9 0 -26 7 -39
15z"/>
<path d="M1051 590 c-16 0 -34 -6 -40 -13 -6 -8 -8 -17 -4 -20 3 -4 21 -7 40
-7 26 0 33 4 33 20 0 15 -7 20 -29 20z"/>
<path d="M1050 460 c-4 0 -19 -9 -34 -21 -14 -11 -26 -27 -26 -35 0 -8 16 -32
36 -54 20 -22 40 -37 45 -34 5 3 9 17 9 30 0 15 -10 34 -22 45 -19 15 -20 18
-6 19 9 0 20 5 23 10 4 6 1 17 -5 25 -7 8 -16 15 -20 15z"/>
</g>
</svg>
