<?xml version="1.0" standalone="no"?>
<!DOCTYPE svg PUBLIC "-//W3C//DTD SVG 20010904//EN"
 "http://www.w3.org/TR/2001/REC-SVG-20010904/DTD/svg10.dtd">
<svg version="1.0" xmlns="http://www.w3.org/2000/svg"
 width="128.000000pt" height="128.000000pt" viewBox="0 0 128.000000 128.000000"
 preserveAspectRatio="xMidYMid meet">
<metadata>
Created by potrace 1.16, written by Peter Selinger 2001-2019
</metadata>
<g transform="translate(0.000000,128.000000) scale(0.100000,-0.100000)"
fill="#000000" stroke="none">
<path d="M890 1280 c-5 0 -10 -4 -10 -9 0 -5 -21 -14 -46 -20 -25 -7 -73 -29
-105 -50 -46 -30 -76 -41 -136 -50 -43 -7 -97 -18 -120 -24 -24 -6 -43 -17
-43 -24 0 -6 8 -14 18 -17 9 -3 57 -3 106 -1 49 2 112 12 139 21 28 9 67 33
89 55 22 22 49 39 59 39 10 0 21 -4 24 -10 3 -5 8 -97 11 -205 6 -191 5 -195
-14 -195 -12 0 -28 7 -36 16 -9 8 -16 26 -16 38 0 12 5 48 11 80 7 42 7 61 -1
71 -8 9 -22 12 -43 8 -18 -3 -40 -13 -49 -21 -10 -8 -18 -21 -18 -28 0 -7 -13
-28 -30 -47 -16 -19 -34 -55 -40 -82 -7 -32 -7 -52 -1 -58 7 -7 12 -4 16 9 4
10 15 38 26 62 10 23 23 42 28 42 6 0 15 -18 21 -39 6 -22 8 -60 5 -86 -4 -29
0 -67 10 -101 16 -55 16 -55 58 -52 33 2 42 -1 45 -14 2 -10 -10 -37 -27 -62
-17 -25 -31 -49 -31 -54 0 -6 -7 -12 -15 -16 -8 -3 -15 -14 -15 -25 0 -11 -4
-22 -9 -25 -4 -3 -16 3 -26 14 -9 10 -28 56 -41 101 -13 46 -24 99 -24 118 0
20 -3 47 -7 59 -4 18 -8 20 -14 10 -5 -7 -9 -38 -9 -68 0 -30 5 -86 10 -125 6
-38 20 -99 31 -135 12 -36 25 -75 30 -88 5 -13 9 -29 9 -37 0 -10 -10 -15 -29
-15 -20 0 -36 -8 -48 -25 -10 -13 -29 -41 -43 -61 -14 -20 -39 -53 -56 -73
-17 -20 -36 -46 -43 -59 -11 -21 -10 -22 21 -22 30 0 40 9 108 97 41 53 86
109 100 125 17 20 30 27 42 23 10 -4 20 -15 23 -25 3 -10 30 -41 61 -70 45
-43 57 -50 69 -40 9 7 25 33 37 59 14 30 21 66 21 106 0 36 -10 95 -25 147
-25 81 -25 88 -10 108 10 12 27 34 40 50 12 15 22 42 22 58 0 18 -11 43 -26
62 -27 31 -27 31 -20 263 6 176 5 239 -5 260 -6 14 -20 29 -31 32 -10 4 -18
11 -18 16 0 5 -4 9 -10 9z m-10 -840 c4 0 10 -14 14 -31 3 -17 6 -58 6 -90 0
-46 -3 -59 -15 -59 -8 0 -34 17 -57 38 -24 20 -46 42 -50 47 -4 6 -8 13 -8 17
0 4 15 14 33 21 17 8 41 24 51 36 11 11 22 21 26 21z"/>
<path d="M430 1055 c-5 3 -13 -1 -16 -10 -4 -9 -1 -43 5 -75 6 -33 16 -87 22
-120 8 -40 9 -107 5 -194 -4 -73 -16 -182 -27 -242 -11 -60 -25 -136 -31 -169
-6 -33 -17 -73 -26 -90 -15 -29 -15 -29 -36 -2 -12 15 -27 27 -34 27 -7 0 -12
-9 -12 -21 0 -11 9 -52 21 -90 16 -54 25 -69 40 -69 10 0 19 4 19 10 0 5 13
16 28 24 16 8 40 32 55 53 14 21 32 67 41 103 8 36 20 151 26 255 7 106 9 240
5 303 -3 63 -13 137 -21 165 -9 29 -24 71 -34 94 -11 23 -24 44 -30 48z"/>
<path d="M987 40 c-7 0 -18 -5 -25 -12 -7 -7 -12 -16 -12 -20 0 -4 11 -8 25
-8 18 0 25 5 25 20 0 11 -6 20 -13 20z"/>
</g>
</svg>
