<?xml version="1.0" standalone="no"?>
<!DOCTYPE svg PUBLIC "-//W3C//DTD SVG 20010904//EN"
 "http://www.w3.org/TR/2001/REC-SVG-20010904/DTD/svg10.dtd">
<svg version="1.0" xmlns="http://www.w3.org/2000/svg"
 width="128.000000pt" height="128.000000pt" viewBox="0 0 128.000000 128.000000"
 preserveAspectRatio="xMidYMid meet">
<metadata>
Created by potrace 1.16, written by Peter Selinger 2001-2019
</metadata>
<g transform="translate(0.000000,128.000000) scale(0.100000,-0.100000)"
fill="#000000" stroke="none">
<path d="M612 1268 c-7 10 -15 2 -29 -30 -11 -24 -24 -53 -27 -66 -4 -12 -20
-29 -36 -37 -16 -8 -31 -19 -35 -25 -3 -5 -1 -20 6 -32 6 -13 20 -32 29 -43
12 -13 21 -45 25 -91 7 -69 7 -72 -21 -98 -16 -14 -36 -26 -46 -26 -9 0 -27
-13 -41 -30 -14 -16 -31 -46 -37 -66 -10 -29 -10 -39 1 -50 8 -7 32 -13 54
-14 22 0 59 2 83 6 26 4 48 2 56 -5 10 -9 12 -22 6 -49 -5 -20 -13 -61 -19
-90 -6 -30 -11 -75 -11 -101 0 -27 4 -72 10 -100 5 -29 20 -74 32 -99 12 -26
24 -50 25 -53 2 -4 -19 -29 -47 -57 -28 -28 -57 -53 -65 -56 -8 -3 -15 -10
-15 -16 0 -5 8 -10 18 -10 9 1 28 7 42 15 14 8 40 14 58 15 24 0 40 8 59 30
17 21 34 30 55 30 30 0 30 -1 25 -37 -4 -21 -4 -48 -1 -60 5 -17 14 -23 33
-23 26 0 26 0 27 90 0 56 4 94 12 102 7 7 12 17 12 23 0 5 -4 16 -9 24 -8 12
-13 12 -24 3 -11 -10 -26 -7 -69 12 -29 13 -59 30 -65 37 -6 8 -14 30 -18 49
-5 19 -8 89 -8 155 0 119 0 119 38 152 21 18 47 34 57 35 10 0 24 1 31 2 6 1
17 -19 23 -44 7 -28 17 -46 27 -48 10 -2 17 3 17 10 0 8 -4 18 -9 24 -6 5 -4
22 7 44 9 19 20 37 24 38 4 2 8 12 8 22 0 10 -8 27 -17 38 -10 11 -33 25 -51
31 -24 7 -55 8 -110 0 -42 -6 -79 -14 -82 -18 -3 -5 -29 -11 -57 -15 -30 -4
-53 -3 -53 2 0 5 6 14 13 19 6 6 33 17 59 26 26 9 64 28 84 43 20 16 48 28 63
29 19 0 27 6 29 23 2 13 -2 30 -10 39 -7 9 -32 24 -55 34 -24 10 -43 23 -43
29 0 6 8 13 18 17 9 3 36 24 60 46 23 23 42 46 42 52 0 6 -10 21 -23 33 -14
13 -36 22 -55 22 -26 0 -35 6 -51 38 -11 20 -24 43 -29 50z"/>
<path d="M756 1280 c-22 0 -26 -4 -26 -31 0 -26 3 -30 23 -27 16 2 23 11 25
31 3 23 0 27 -22 27z"/>
<path d="M822 560 c-5 0 -12 -26 -15 -57 -3 -32 -5 -59 -3 -60 1 -1 13 -4 27
-5 19 -2 25 2 27 23 2 15 -4 43 -12 63 -8 20 -19 36 -24 36z"/>
<path d="M501 23 c-11 3 -22 2 -25 -1 -3 -3 -6 -9 -6 -14 0 -4 11 -8 25 -8 14
0 25 4 25 9 0 5 -9 11 -19 14z"/>
</g>
</svg>
