<?xml version="1.0" standalone="no"?>
<!DOCTYPE svg PUBLIC "-//W3C//DTD SVG 20010904//EN"
 "http://www.w3.org/TR/2001/REC-SVG-20010904/DTD/svg10.dtd">
<svg version="1.0" xmlns="http://www.w3.org/2000/svg"
 width="128.000000pt" height="128.000000pt" viewBox="0 0 128.000000 128.000000"
 preserveAspectRatio="xMidYMid meet">
<metadata>
Created by potrace 1.16, written by Peter Selinger 2001-2019
</metadata>
<g transform="translate(0.000000,128.000000) scale(0.100000,-0.100000)"
fill="#000000" stroke="none">
<path d="M767 1280 c-8 0 -19 -11 -27 -24 -7 -13 -10 -41 -8 -63 4 -31 0 -41
-19 -56 -13 -10 -23 -28 -23 -40 0 -12 7 -34 14 -49 8 -16 11 -28 6 -28 -5 0
-32 -21 -61 -46 -51 -45 -51 -45 -70 -25 -10 10 -42 24 -71 30 -29 6 -66 12
-83 13 -20 2 -30 -2 -32 -12 -2 -9 6 -26 18 -38 16 -18 30 -23 58 -21 20 2 42
-1 49 -5 7 -4 24 -5 37 -2 15 4 37 -2 60 -15 19 -12 40 -29 45 -39 7 -13 4
-22 -10 -35 -11 -10 -20 -24 -20 -32 0 -7 4 -21 9 -31 5 -9 12 -25 15 -34 3
-10 13 -18 23 -18 10 0 27 -7 38 -15 19 -15 19 -16 1 -48 -10 -17 -26 -38 -34
-44 -9 -7 -24 -13 -34 -13 -11 0 -41 -22 -67 -50 -26 -27 -62 -56 -80 -63 -17
-7 -48 -29 -69 -49 -20 -19 -52 -42 -69 -52 -18 -9 -39 -29 -48 -46 -12 -23
-24 -30 -61 -36 -37 -5 -43 -9 -30 -16 16 -9 16 -11 -3 -25 -12 -8 -21 -25
-21 -39 0 -14 11 -36 25 -49 13 -14 29 -25 34 -25 5 0 13 4 16 10 3 5 16 10
27 10 11 0 35 9 52 19 17 11 76 36 131 56 55 20 109 42 120 49 11 7 42 20 68
30 26 10 61 29 78 43 17 14 36 22 45 19 11 -4 13 -13 8 -28 -3 -13 -19 -41
-35 -62 -16 -22 -29 -48 -29 -57 0 -10 -5 -21 -10 -24 -6 -4 -17 -22 -25 -42
-8 -19 -15 -48 -15 -64 0 -22 7 -32 25 -41 14 -6 25 -17 25 -25 0 -7 12 -18
26 -23 14 -6 90 -10 170 -10 144 0 144 0 144 24 0 13 -6 28 -12 34 -9 6 -36 6
-80 1 -40 -6 -89 -6 -124 0 -32 5 -64 7 -70 4 -6 -2 -14 6 -18 19 -3 13 -6 46
-6 74 0 49 1 52 30 57 22 5 48 30 104 101 42 52 89 104 106 116 16 12 30 30
30 40 0 10 5 22 10 25 8 5 7 11 -1 21 -9 11 -26 13 -73 8 -35 -4 -71 -15 -85
-25 -13 -11 -34 -19 -46 -19 -12 0 -32 -11 -45 -25 -13 -14 -30 -25 -38 -25
-8 0 -29 -8 -46 -19 -17 -10 -48 -24 -68 -31 -21 -6 -38 -18 -38 -26 0 -8 -10
-14 -25 -14 -14 0 -42 -7 -62 -15 -19 -8 -50 -15 -68 -15 -17 0 -34 2 -37 5
-2 3 -3 18 0 34 3 25 9 30 40 34 21 3 51 9 67 13 17 4 49 23 73 43 23 19 42
41 42 47 0 7 12 22 26 33 15 12 33 21 41 21 8 0 29 11 46 24 18 13 43 27 57
31 14 4 41 21 60 38 19 17 43 41 53 53 14 19 15 27 5 49 -11 24 -16 26 -47 21
-20 -4 -63 -9 -97 -12 -49 -5 -64 -3 -77 11 -12 12 -16 30 -14 68 3 40 10 59
30 80 21 23 40 31 97 40 60 9 73 15 80 33 5 12 14 25 21 30 7 4 26 10 43 13
17 4 32 13 33 21 2 8 -1 21 -6 29 -7 12 -17 12 -57 2 -28 -7 -63 -26 -85 -46
-20 -18 -51 -36 -69 -40 -23 -5 -35 -3 -41 6 -5 8 -9 21 -9 30 0 9 7 22 15 29
8 7 15 21 15 32 0 11 5 28 10 39 6 10 18 19 26 19 13 0 14 8 9 43 -4 23 -11
46 -16 52 -5 5 -9 17 -9 27 0 10 -6 18 -13 18z"/>
<path d="M900 1280 c-42 0 -51 -3 -48 -16 2 -9 11 -22 21 -28 13 -8 24 -7 44
4 14 8 28 21 31 28 2 8 -11 12 -48 12z"/>
</g>
</svg>
