<?xml version="1.0" standalone="no"?>
<!DOCTYPE svg PUBLIC "-//W3C//DTD SVG 20010904//EN"
 "http://www.w3.org/TR/2001/REC-SVG-20010904/DTD/svg10.dtd">
<svg version="1.0" xmlns="http://www.w3.org/2000/svg"
 width="128.000000pt" height="128.000000pt" viewBox="0 0 128.000000 128.000000"
 preserveAspectRatio="xMidYMid meet">
<metadata>
Created by potrace 1.16, written by Peter Selinger 2001-2019
</metadata>
<g transform="translate(0.000000,128.000000) scale(0.100000,-0.100000)"
fill="#000000" stroke="none">
<path d="M527 1260 c-9 0 -23 -7 -32 -16 -15 -16 -14 -19 16 -50 32 -33 32
-33 -15 -126 -26 -51 -55 -108 -65 -125 -10 -18 -39 -56 -63 -85 -25 -29 -55
-71 -66 -92 -12 -22 -20 -42 -19 -45 2 -3 9 -18 17 -33 7 -16 19 -28 26 -28 7
0 43 19 81 42 37 24 73 48 78 53 6 6 22 19 37 28 15 9 32 17 38 17 5 0 10 -11
10 -25 0 -13 -7 -41 -16 -62 -9 -21 -21 -47 -25 -58 -5 -11 -13 -32 -18 -47
-6 -16 -20 -29 -33 -32 -13 -2 -45 -8 -72 -13 -27 -4 -51 -14 -54 -21 -2 -7
12 -19 32 -27 19 -8 40 -24 46 -34 5 -11 10 -22 10 -25 0 -3 -11 -6 -25 -6
-14 0 -39 -10 -54 -21 -21 -15 -57 -25 -123 -33 -52 -7 -99 -16 -106 -20 -7
-4 -12 -15 -12 -25 0 -10 16 -31 35 -45 33 -25 38 -26 73 -15 20 6 47 15 60
20 13 5 30 9 39 9 13 0 14 -8 9 -40 -3 -23 -20 -70 -37 -106 -17 -36 -40 -70
-50 -77 -10 -6 -19 -18 -19 -25 0 -7 11 -17 24 -23 18 -9 32 -7 67 10 24 12
86 44 138 71 52 28 106 50 122 50 15 0 31 -5 34 -10 3 -6 15 -10 25 -10 10 0
22 -5 25 -11 4 -5 -1 -19 -10 -29 -9 -10 -53 -37 -96 -60 -43 -23 -79 -45 -79
-51 0 -5 16 -9 35 -9 21 0 52 11 76 26 23 14 43 33 46 42 2 10 22 25 43 35 28
13 44 15 57 8 10 -5 41 -17 68 -27 28 -9 63 -28 78 -41 16 -12 39 -23 52 -23
13 0 31 7 39 16 9 8 16 28 16 43 0 15 -7 36 -15 47 -8 10 -15 26 -15 35 0 9
-11 24 -25 33 -16 11 -47 16 -93 16 -37 0 -73 5 -79 11 -6 6 -31 12 -55 14
-25 1 -54 8 -66 14 -16 9 -22 21 -22 46 0 19 7 53 16 75 15 37 19 40 53 40 20
0 47 -7 59 -16 12 -8 22 -23 22 -33 0 -10 -7 -24 -15 -31 -8 -7 -15 -22 -15
-34 0 -11 4 -27 9 -35 5 -8 16 -11 24 -8 9 3 21 24 28 47 7 22 18 45 26 52 10
8 28 8 71 -2 31 -7 73 -18 93 -25 31 -12 39 -12 58 1 20 14 24 14 46 0 13 -9
31 -16 40 -16 9 0 15 9 15 23 0 13 -8 31 -17 39 -10 9 -31 22 -48 30 -16 9
-61 21 -99 28 -40 7 -77 21 -87 31 -14 14 -19 34 -20 72 0 46 -4 55 -30 76
-29 23 -33 23 -87 11 -31 -6 -67 -16 -78 -20 -12 -5 -42 -12 -68 -15 -25 -4
-46 -3 -46 1 0 5 9 20 20 34 11 14 20 29 20 33 0 5 11 23 24 40 13 18 33 52
45 76 11 25 21 53 21 64 0 10 -9 32 -21 48 -11 16 -25 29 -31 29 -6 0 -32 -12
-57 -27 -25 -15 -70 -35 -99 -44 -32 -10 -54 -13 -58 -7 -3 5 3 20 15 32 12
12 21 27 21 32 0 5 8 14 19 21 10 6 39 39 64 72 26 33 58 83 72 111 15 30 23
59 20 70 -3 11 -28 35 -54 55 -27 19 -56 35 -64 35z m180 -720 c13 0 34 -7 48
-16 13 -8 26 -22 29 -29 3 -8 -2 -21 -10 -30 -9 -9 -33 -15 -60 -15 -31 0 -44
4 -44 14 0 7 3 28 6 45 5 24 12 31 31 31z m-107 -14 c8 -1 16 -12 18 -26 2
-17 -6 -34 -25 -52 -26 -25 -33 -27 -82 -21 -29 3 -55 12 -58 19 -3 7 5 27 16
43 18 25 30 31 69 34 26 2 54 3 62 3z m-42 -160 c9 -7 12 -22 8 -44 -3 -19
-12 -44 -20 -57 -9 -13 -37 -30 -65 -40 -28 -9 -55 -14 -61 -10 -5 3 -10 15
-10 26 0 11 7 42 16 68 15 47 17 49 67 58 34 6 57 6 65 -1z"/>
<path d="M149 195 c-8 9 -18 12 -22 9 -4 -4 -7 -20 -7 -36 0 -18 5 -28 12 -26
6 2 16 12 22 21 8 12 7 21 -5 32z"/>
<path d="M1114 150 c-8 0 -14 -9 -14 -20 0 -11 -5 -29 -12 -40 -7 -10 -9 -22
-6 -26 4 -3 18 2 32 13 14 10 28 24 31 32 3 7 0 20 -6 27 -6 8 -18 14 -25 14z"/>
<path d="M190 77 c-8 2 -21 -1 -28 -6 -11 -6 -10 -11 3 -25 10 -9 22 -15 29
-13 6 2 11 12 11 23 0 10 -7 20 -15 21z"/>
</g>
</svg>
