<?xml version="1.0" standalone="no"?>
<!DOCTYPE svg PUBLIC "-//W3C//DTD SVG 20010904//EN"
 "http://www.w3.org/TR/2001/REC-SVG-20010904/DTD/svg10.dtd">
<svg version="1.0" xmlns="http://www.w3.org/2000/svg"
 width="128.000000pt" height="128.000000pt" viewBox="0 0 128.000000 128.000000"
 preserveAspectRatio="xMidYMid meet">
<metadata>
Created by potrace 1.16, written by Peter Selinger 2001-2019
</metadata>
<g transform="translate(0.000000,128.000000) scale(0.100000,-0.100000)"
fill="#000000" stroke="none">
<path d="M1041 1280 c-11 0 -21 -6 -23 -12 -3 -9 -37 -15 -99 -20 -52 -3 -114
-10 -139 -16 -25 -5 -67 -19 -93 -31 -28 -12 -69 -21 -97 -21 -30 0 -52 -5
-60 -15 -7 -8 -22 -15 -35 -15 -12 0 -37 -8 -56 -17 -19 -9 -52 -18 -74 -19
-23 -2 -61 -14 -85 -28 -32 -18 -60 -26 -95 -26 -27 0 -56 -4 -64 -9 -11 -7
-12 -17 -5 -42 7 -24 17 -35 39 -41 17 -5 62 -3 105 3 41 6 87 17 102 25 15 8
43 14 63 14 35 0 35 0 35 -90 0 -50 -4 -98 -9 -108 -5 -9 -17 -40 -25 -69 -9
-28 -16 -67 -16 -85 0 -19 -6 -42 -14 -53 -7 -11 -21 -84 -30 -165 -10 -94
-13 -156 -7 -175 5 -16 17 -47 27 -67 9 -21 25 -40 34 -43 8 -3 21 -24 28 -48
7 -24 24 -56 38 -70 14 -15 35 -27 47 -27 12 0 27 4 32 8 6 4 17 25 24 48 12
37 11 45 -9 85 -12 24 -29 52 -37 61 -9 10 -12 25 -8 37 3 12 -1 36 -10 55
-15 31 -16 46 -5 123 6 48 13 89 15 91 2 2 21 6 42 9 32 4 42 1 63 -21 21 -23
22 -30 12 -46 -7 -11 -12 -27 -12 -35 0 -8 4 -15 10 -15 5 0 14 -9 20 -19 7
-15 4 -29 -15 -63 -17 -29 -25 -58 -25 -91 0 -27 7 -58 16 -72 9 -14 24 -25
33 -25 9 0 42 -16 75 -35 48 -29 63 -34 85 -27 14 5 32 21 39 35 11 23 16 25
33 16 11 -5 28 -8 38 -4 9 3 27 28 40 57 12 28 36 64 52 79 25 23 29 34 29 79
0 39 6 59 25 84 14 18 25 41 25 51 0 10 -7 26 -16 36 -11 12 -14 27 -10 44 4
15 22 42 41 61 19 19 35 41 35 49 0 8 -7 20 -16 27 -9 7 -28 25 -43 40 -15 15
-53 41 -86 58 -32 16 -64 30 -70 30 -7 0 -24 -9 -38 -20 -14 -11 -34 -20 -46
-20 -11 0 -40 -13 -64 -30 -25 -16 -49 -30 -54 -30 -5 0 -32 -15 -60 -34 -29
-19 -65 -37 -81 -41 -20 -4 -33 -1 -42 10 -9 11 -11 33 -7 71 3 31 13 66 21
79 8 13 15 43 15 67 0 23 4 78 9 121 6 57 14 84 29 98 14 15 38 22 84 26 35 3
74 12 87 20 13 8 69 18 135 23 62 4 123 8 137 7 14 0 51 0 83 1 42 1 59 6 64
18 3 9 -3 25 -16 37 -19 19 -24 20 -53 9 -27 -10 -34 -9 -49 6 -10 9 -25 23
-33 30 -8 6 -24 12 -35 12z m-80 -581 c14 1 30 -4 37 -11 7 -7 12 -22 12 -35
0 -12 7 -41 16 -63 13 -31 14 -43 4 -55 -6 -7 -18 -37 -25 -66 -8 -28 -12 -64
-9 -79 3 -15 -2 -44 -11 -66 -10 -21 -20 -55 -24 -74 -5 -30 -11 -36 -43 -44
-30 -8 -41 -6 -56 7 -13 12 -28 15 -50 11 -29 -6 -32 -4 -32 19 0 13 7 30 15
37 8 7 15 20 15 29 0 9 11 36 25 59 16 29 22 49 17 59 -5 8 -27 23 -49 33 -34
15 -43 16 -66 4 -14 -8 -33 -11 -41 -8 -9 3 -16 13 -16 21 0 8 16 34 37 58 23
28 57 53 95 70 32 15 73 42 91 60 19 20 42 34 58 34z m-518 -282 c6 -2 13 -9
15 -15 2 -7 -4 -15 -13 -18 -9 -4 -18 -4 -21 -2 -2 3 -2 13 2 22 4 9 11 15 17
13z m29 -140 c3 -5 1 -21 -5 -34 -5 -12 -16 -23 -24 -23 -7 0 -13 5 -13 11 0
5 8 21 18 34 10 14 20 19 24 12z"/>
<path d="M41 1060 c-10 0 -24 -6 -30 -14 -9 -10 -9 -20 0 -40 7 -14 20 -26 29
-26 12 0 20 11 24 31 3 17 3 35 0 40 -3 5 -13 9 -23 9z"/>
<path d="M754 67 c-5 2 -21 -8 -34 -22 -20 -21 -21 -25 -7 -31 9 -3 24 -4 34
-2 11 2 18 12 18 27 0 14 -5 26 -11 28z"/>
</g>
</svg>
