<?xml version="1.0" standalone="no"?>
<!DOCTYPE svg PUBLIC "-//W3C//DTD SVG 20010904//EN"
 "http://www.w3.org/TR/2001/REC-SVG-20010904/DTD/svg10.dtd">
<svg version="1.0" xmlns="http://www.w3.org/2000/svg"
 width="128.000000pt" height="128.000000pt" viewBox="0 0 128.000000 128.000000"
 preserveAspectRatio="xMidYMid meet">
<metadata>
Created by potrace 1.16, written by Peter Selinger 2001-2019
</metadata>
<g transform="translate(0.000000,128.000000) scale(0.100000,-0.100000)"
fill="#000000" stroke="none">
<path d="M1235 1170 c-40 0 -47 -3 -56 -26 -5 -15 -23 -44 -40 -65 -16 -21
-38 -63 -48 -94 -16 -49 -17 -58 -4 -70 11 -11 19 -12 34 -4 11 5 32 36 47 67
19 41 33 58 50 60 18 3 22 -1 22 -21 0 -18 -8 -29 -29 -38 -23 -11 -28 -17
-20 -30 5 -10 18 -21 29 -24 11 -4 20 -15 20 -27 0 -11 -8 -36 -17 -55 -12
-26 -14 -40 -6 -52 5 -9 22 -17 37 -19 26 -3 26 -3 26 137 0 119 -2 141 -15
141 -8 0 -15 8 -15 19 0 10 7 24 15 31 8 7 15 25 15 41 0 28 -2 29 -45 29z"/>
<path d="M705 1160 c-8 0 -15 -8 -15 -19 0 -10 17 -30 40 -45 40 -26 40 -26
24 -58 -9 -17 -41 -61 -72 -97 -30 -36 -56 -68 -58 -70 -2 -2 -19 10 -38 27
-35 30 -35 30 -73 11 -20 -10 -47 -19 -59 -19 -19 0 -23 7 -29 51 -5 39 -4 54
6 60 8 5 22 6 32 3 10 -3 24 0 32 6 8 7 15 19 15 27 0 7 -21 23 -47 34 -48 21
-48 21 -113 -2 -36 -13 -87 -27 -115 -31 -27 -5 -64 -11 -82 -14 -18 -4 -38
-13 -44 -20 -7 -9 -8 -18 -3 -23 5 -5 62 -4 127 1 65 5 124 7 132 4 11 -4 15
-21 15 -60 0 -49 -3 -57 -29 -75 -16 -12 -40 -21 -53 -21 -14 0 -33 13 -51 35
-15 19 -37 35 -48 35 -11 0 -22 -6 -25 -14 -3 -8 0 -24 6 -36 9 -16 9 -25 -1
-36 -6 -8 -25 -14 -40 -14 -22 0 -32 6 -39 25 -6 15 -17 25 -29 25 -17 0 -20
-9 -25 -67 -3 -38 -10 -98 -16 -136 -5 -37 -10 -81 -10 -97 0 -17 4 -30 10
-30 5 0 20 12 34 27 20 21 26 40 31 102 3 42 10 83 14 91 4 8 22 19 40 24 20
6 35 6 42 -1 5 -5 12 -26 15 -45 5 -29 1 -41 -25 -70 -17 -20 -31 -43 -31 -52
0 -9 7 -16 16 -16 8 0 36 8 62 19 26 10 63 23 82 29 19 6 63 13 98 17 39 4 62
12 62 19 0 7 -11 23 -25 36 -24 22 -28 23 -58 11 -18 -7 -42 -15 -54 -18 -16
-4 -23 -1 -23 10 0 9 16 28 35 43 19 14 45 43 56 64 20 35 26 39 77 45 40 5
58 3 68 -7 10 -11 11 -23 0 -68 -7 -30 -20 -72 -29 -92 -9 -21 -20 -38 -25
-38 -5 0 -9 -11 -9 -25 0 -14 -3 -29 -7 -32 -3 -3 -16 -1 -29 4 -20 9 -41 3
-134 -42 -61 -30 -130 -59 -154 -65 -24 -7 -67 -21 -96 -32 -39 -14 -53 -25
-53 -39 0 -11 9 -21 24 -25 14 -3 37 1 54 10 17 9 56 25 87 37 35 13 60 18 66
12 6 -6 4 -26 -5 -51 -9 -23 -35 -63 -58 -88 -24 -25 -48 -57 -55 -72 -7 -15
-12 -37 -13 -49 0 -12 4 -25 10 -28 5 -3 17 4 27 16 10 12 32 37 48 56 21 23
34 30 44 24 7 -5 19 -40 25 -77 9 -58 14 -69 32 -72 14 -2 24 5 32 23 8 17 10
51 7 93 -3 37 -8 80 -10 95 -3 18 0 30 10 33 9 4 37 -14 71 -45 30 -28 62 -51
70 -51 8 0 22 16 30 36 13 32 13 38 0 59 -11 17 -29 25 -63 30 -27 3 -63 13
-81 21 -18 7 -35 21 -38 29 -4 8 -3 26 0 40 4 17 17 27 44 35 20 5 68 13 105
17 44 4 71 11 74 20 3 7 -2 24 -11 38 -12 18 -14 30 -7 44 6 10 21 25 35 34
20 13 26 14 35 3 7 -8 11 -70 10 -170 -1 -110 2 -161 11 -171 7 -8 16 -15 20
-15 4 0 16 12 26 28 16 23 20 53 24 222 5 193 5 195 28 198 19 3 22 -1 23 -30
1 -18 4 -87 8 -153 5 -100 9 -120 23 -123 11 -2 19 8 27 30 5 18 10 80 11 136
0 57 3 109 6 114 4 6 7 24 6 39 0 16 3 31 8 34 4 3 17 -3 28 -13 19 -15 21
-30 24 -152 1 -74 8 -160 14 -190 6 -30 15 -62 18 -71 4 -9 18 -21 31 -27 13
-6 46 -14 72 -17 35 -5 66 -1 113 14 36 11 76 21 90 21 14 0 33 7 43 14 9 7
17 24 17 38 0 19 -10 29 -44 46 -24 12 -51 22 -60 22 -10 0 -26 -4 -36 -10
-10 -5 -41 -12 -70 -15 -28 -3 -56 -7 -60 -10 -5 -3 -24 8 -42 24 -33 29 -33
29 -30 191 2 111 -1 167 -9 176 -6 8 -24 14 -38 14 -15 0 -36 -6 -47 -14 -12
-10 -33 -13 -59 -9 -34 4 -44 1 -64 -21 -14 -14 -33 -26 -43 -26 -10 0 -21 7
-24 15 -4 8 -3 25 0 38 4 12 25 32 49 45 23 12 74 37 112 56 39 19 78 43 87
53 9 10 17 25 18 33 1 8 2 22 1 30 -1 8 -19 25 -41 38 -21 12 -47 22 -58 22
-10 0 -37 9 -60 20 -22 11 -48 20 -57 20z m-388 -341 c12 1 24 -3 27 -7 3 -5
-6 -25 -19 -44 -13 -19 -33 -38 -44 -41 -11 -2 -22 -2 -25 1 -3 3 -6 20 -6 37
0 23 6 35 23 43 12 6 32 11 44 11z"/>
<path d="M1265 640 c-12 0 -15 -14 -15 -62 0 -35 3 -73 6 -85 4 -13 10 -23 15
-23 5 0 9 38 9 85 0 69 -3 85 -15 85z"/>
<path d="M543 220 c-6 0 -15 -5 -18 -10 -4 -6 0 -22 9 -35 9 -13 16 -33 16
-45 0 -16 6 -20 35 -20 33 0 35 2 35 35 0 29 -6 39 -32 55 -18 11 -38 20 -45
20z"/>
</g>
</svg>
