<?xml version="1.0" standalone="no"?>
<!DOCTYPE svg PUBLIC "-//W3C//DTD SVG 20010904//EN"
 "http://www.w3.org/TR/2001/REC-SVG-20010904/DTD/svg10.dtd">
<svg version="1.0" xmlns="http://www.w3.org/2000/svg"
 width="128.000000pt" height="128.000000pt" viewBox="0 0 128.000000 128.000000"
 preserveAspectRatio="xMidYMid meet">
<metadata>
Created by potrace 1.16, written by Peter Selinger 2001-2019
</metadata>
<g transform="translate(0.000000,128.000000) scale(0.100000,-0.100000)"
fill="#000000" stroke="none">
<path d="M541 1229 c-14 8 -22 6 -34 -7 -8 -9 -23 -33 -32 -52 -10 -19 -45
-66 -78 -103 -33 -38 -87 -86 -119 -108 -37 -26 -58 -47 -58 -59 0 -13 16 -28
49 -44 27 -14 51 -34 54 -45 3 -11 0 -24 -7 -29 -6 -5 -28 -12 -49 -15 -20 -3
-51 -15 -67 -27 -17 -12 -30 -26 -30 -31 0 -5 7 -12 15 -15 8 -3 37 2 64 11
28 9 56 13 62 9 7 -4 9 -22 5 -50 -4 -32 -19 -61 -57 -109 -28 -36 -57 -65
-65 -65 -7 0 -16 10 -18 23 -3 12 -7 38 -11 57 -3 19 -12 43 -20 54 -8 11 -21
16 -30 13 -9 -4 -15 -19 -15 -37 0 -17 12 -56 26 -86 17 -36 24 -63 20 -80 -4
-14 -20 -39 -37 -57 -17 -18 -42 -46 -56 -63 -13 -18 -28 -47 -33 -65 -5 -18
-7 -43 -4 -56 5 -17 13 -23 34 -23 20 0 35 9 48 28 11 15 35 44 54 65 19 20
42 37 51 37 10 0 19 -11 23 -27 3 -16 10 -41 14 -58 5 -16 14 -59 20 -95 7
-35 16 -72 21 -82 7 -13 22 -18 49 -18 34 0 40 3 46 26 5 17 1 37 -11 56 -10
18 -14 38 -11 51 4 12 9 56 12 97 3 41 12 90 20 109 8 18 14 45 14 60 1 14 7
40 14 56 9 20 10 35 3 46 -6 9 -7 27 -4 40 5 17 31 37 89 69 50 27 84 52 86
64 3 16 -1 17 -35 11 -27 -4 -43 -2 -50 7 -6 7 -13 30 -17 50 -5 28 -13 39
-29 43 -12 2 -31 6 -42 7 -10 2 -22 14 -26 28 -4 14 -7 42 -8 62 -1 34 2 39
34 52 19 8 38 21 41 29 3 8 27 29 55 47 27 17 57 46 65 62 15 29 15 34 0 65
-9 18 -16 40 -16 48 0 8 -8 19 -19 24z m-250 -819 c5 0 14 -12 19 -26 7 -17 6
-40 -1 -70 -7 -26 -17 -44 -25 -44 -8 0 -24 21 -37 46 -22 46 -22 46 6 70 16
13 32 24 38 24z"/>
<path d="M648 704 c-16 4 -28 2 -28 -2 0 -5 7 -24 16 -43 10 -19 23 -41 30
-49 7 -8 24 -39 39 -67 21 -43 31 -53 51 -53 14 0 37 6 53 14 15 8 33 22 40
30 8 9 23 16 35 16 11 0 35 9 53 20 18 10 55 22 82 26 27 3 61 4 75 0 14 -3
33 -17 41 -29 13 -21 13 -29 -6 -81 -11 -32 -26 -68 -34 -80 -8 -11 -44 -46
-79 -76 -36 -30 -66 -60 -66 -66 0 -7 7 -14 15 -18 8 -3 27 -1 41 4 14 6 51
22 82 36 31 14 68 31 80 37 13 6 36 26 52 43 16 18 31 50 35 74 6 34 2 51 -21
96 -20 40 -39 62 -69 79 -22 12 -56 28 -75 35 -29 10 -43 10 -83 -4 -26 -9
-64 -16 -83 -16 -21 0 -50 -10 -72 -25 -20 -14 -42 -25 -48 -25 -6 0 -20 10
-32 23 -12 13 -22 29 -22 35 0 6 -17 23 -37 36 -21 13 -50 27 -65 30z"/>
</g>
</svg>
