<?xml version="1.0" standalone="no"?>
<!DOCTYPE svg PUBLIC "-//W3C//DTD SVG 20010904//EN"
 "http://www.w3.org/TR/2001/REC-SVG-20010904/DTD/svg10.dtd">
<svg version="1.0" xmlns="http://www.w3.org/2000/svg"
 width="128.000000pt" height="128.000000pt" viewBox="0 0 128.000000 128.000000"
 preserveAspectRatio="xMidYMid meet">
<metadata>
Created by potrace 1.16, written by Peter Selinger 2001-2019
</metadata>
<g transform="translate(0.000000,128.000000) scale(0.100000,-0.100000)"
fill="#000000" stroke="none">
<path d="M447 1260 c-24 0 -47 -3 -50 -6 -3 -4 3 -18 13 -32 11 -13 20 -32 20
-41 0 -9 -7 -27 -16 -39 -9 -13 -33 -30 -54 -38 -34 -14 -39 -20 -42 -52 -3
-34 -5 -36 -54 -47 -30 -7 -69 -25 -94 -46 -24 -19 -64 -56 -90 -83 -47 -49
-47 -49 -45 -130 1 -44 5 -91 9 -103 4 -13 22 -30 41 -38 28 -14 45 -15 110
-6 42 6 87 14 101 17 23 6 24 5 24 -55 0 -48 -4 -67 -20 -83 -11 -12 -20 -29
-20 -38 0 -9 -18 -36 -40 -60 -21 -23 -40 -46 -42 -50 -2 -4 -26 -27 -54 -51
-28 -24 -59 -48 -68 -54 -13 -8 -15 -15 -8 -34 5 -15 5 -42 0 -68 -7 -32 -6
-48 2 -58 7 -8 29 -15 50 -15 32 0 43 6 71 41 19 23 40 53 48 68 7 14 25 38
39 54 14 15 31 27 38 27 7 0 20 -14 29 -32 11 -23 14 -45 9 -75 -5 -34 -3 -44
10 -49 13 -5 15 -14 10 -39 -5 -27 -2 -34 13 -39 10 -3 36 -1 57 4 21 5 43 15
47 22 5 7 6 53 2 103 -3 50 -10 98 -14 107 -5 9 -9 36 -9 60 0 24 -5 49 -10
54 -7 7 -2 27 14 61 14 27 61 93 106 146 44 54 87 97 95 97 8 0 17 -5 20 -11
4 -5 -1 -19 -10 -29 -9 -10 -19 -38 -22 -62 -2 -24 -7 -50 -10 -58 -2 -8 -7
-51 -9 -95 -2 -44 -6 -119 -8 -166 -4 -84 -3 -88 25 -118 15 -17 34 -31 42
-31 8 0 22 -9 32 -20 11 -12 16 -29 13 -45 -5 -23 -3 -25 33 -25 22 0 39 5 39
10 0 6 11 10 24 10 13 0 45 9 72 21 27 11 61 27 76 35 14 7 37 14 51 14 17 0
32 10 44 27 11 16 24 41 31 56 7 15 12 38 12 51 0 13 -7 29 -15 36 -10 8 -13
21 -9 34 4 12 23 40 43 63 20 23 46 55 58 71 16 21 23 45 24 85 2 45 -2 61
-22 85 -13 17 -49 42 -80 56 -31 14 -71 26 -88 26 -19 0 -46 -10 -65 -25 -18
-14 -36 -25 -40 -25 -3 0 -24 -12 -46 -26 -21 -14 -44 -23 -49 -19 -6 3 -11
15 -11 26 0 12 10 54 21 94 22 73 22 73 0 109 -14 21 -35 39 -56 46 -27 9 -41
8 -62 -2 -15 -7 -38 -28 -50 -47 -13 -19 -21 -42 -18 -52 3 -10 -1 -19 -10
-23 -8 -3 -15 -10 -15 -15 0 -6 12 -8 30 -5 16 4 42 3 57 -1 28 -7 28 -7 3
-25 -20 -16 -39 -19 -99 -17 -46 2 -76 8 -79 15 -2 6 4 22 12 34 15 21 14 24
-11 50 -15 15 -32 28 -38 28 -6 0 -33 27 -61 60 -27 33 -59 67 -71 75 -13 9
-23 22 -23 30 0 9 15 28 33 44 19 18 48 32 72 35 29 5 48 15 66 39 14 18 34
47 43 66 17 32 17 34 -6 58 -13 14 -35 31 -50 39 -15 8 -47 14 -71 14z m-170
-360 c12 0 27 -9 33 -19 5 -11 10 -41 10 -68 0 -26 -4 -54 -9 -62 -5 -7 -46
-19 -92 -27 -46 -7 -97 -14 -112 -14 -16 0 -30 7 -34 16 -4 11 7 29 32 53 21
20 63 55 94 78 31 24 66 43 78 43z m113 -190 c19 0 21 -3 12 -12 -9 -9 -15 -9
-24 0 -9 9 -7 12 12 12z m117 -51 c6 1 18 -2 27 -5 9 -3 16 -12 16 -20 0 -7
-16 -25 -35 -40 -19 -14 -42 -24 -50 -20 -9 3 -15 18 -15 36 0 22 6 33 23 40
12 5 27 9 34 9z m538 -79 c14 0 29 -9 35 -21 9 -16 8 -24 -4 -38 -9 -10 -16
-22 -16 -28 0 -5 -15 -24 -32 -41 -18 -17 -48 -44 -66 -61 -23 -22 -32 -37
-27 -48 4 -11 -2 -23 -15 -33 -21 -16 -21 -17 -3 -52 10 -21 28 -39 41 -43 13
-3 20 -10 16 -16 -3 -6 -17 -15 -31 -20 -14 -5 -27 -18 -30 -29 -3 -11 -11
-20 -17 -20 -7 0 -27 -11 -46 -25 -19 -14 -44 -25 -57 -25 -13 0 -23 5 -23 11
0 6 5 20 12 32 7 14 11 58 9 121 -1 65 -7 106 -17 120 -13 21 -11 25 53 72 37
27 93 65 124 86 31 20 60 41 63 47 4 6 18 11 31 11z m-39 -240 c8 0 14 -4 14
-8 0 -5 -3 -11 -6 -15 -3 -3 -12 -3 -20 0 -8 3 -11 9 -8 14 3 5 12 9 20 9z
m-5 -200 c10 0 19 -4 19 -10 0 -5 -12 -10 -26 -10 -14 0 -23 4 -19 10 3 6 15
10 26 10z"/>
</g>
</svg>
