<?xml version="1.0" standalone="no"?>
<!DOCTYPE svg PUBLIC "-//W3C//DTD SVG 20010904//EN"
 "http://www.w3.org/TR/2001/REC-SVG-20010904/DTD/svg10.dtd">
<svg version="1.0" xmlns="http://www.w3.org/2000/svg"
 width="128.000000pt" height="128.000000pt" viewBox="0 0 128.000000 128.000000"
 preserveAspectRatio="xMidYMid meet">
<metadata>
Created by potrace 1.16, written by Peter Selinger 2001-2019
</metadata>
<g transform="translate(0.000000,128.000000) scale(0.100000,-0.100000)"
fill="#000000" stroke="none">
<path d="M550 1280 c-23 0 -30 -4 -30 -20 0 -10 6 -23 14 -27 7 -4 18 -17 24
-29 6 -12 9 -38 5 -58 -4 -26 -11 -36 -24 -36 -10 0 -30 5 -46 11 -15 6 -54
13 -85 16 -32 2 -66 -1 -77 -7 -12 -6 -21 -18 -21 -26 0 -8 20 -24 46 -35 45
-20 45 -20 38 -66 -7 -46 -7 -46 22 -39 16 4 51 19 78 33 47 24 50 24 63 7 7
-10 13 -35 13 -56 0 -30 -4 -38 -19 -38 -10 0 -30 -9 -44 -20 -14 -11 -35 -20
-46 -20 -12 0 -34 -9 -50 -21 -22 -16 -36 -19 -64 -14 -20 4 -41 13 -47 21 -7
7 -9 22 -5 34 3 11 11 18 16 14 6 -3 21 2 34 10 14 9 25 25 25 36 0 15 -7 20
-25 20 -17 0 -29 -8 -36 -24 -6 -13 -23 -30 -38 -37 -14 -7 -33 -13 -41 -14
-8 0 -21 -18 -29 -41 -13 -38 -13 -44 5 -74 10 -18 36 -42 56 -54 37 -20 39
-20 69 -3 17 9 43 17 59 17 16 0 30 -6 33 -12 2 -7 2 -38 -1 -68 -4 -42 -11
-59 -30 -74 -13 -10 -38 -50 -55 -87 -26 -55 -42 -74 -82 -102 -35 -24 -52
-42 -55 -62 -4 -21 -14 -30 -40 -39 -23 -7 -38 -20 -44 -38 -8 -22 -6 -32 9
-48 10 -11 29 -20 43 -20 14 0 34 8 44 18 11 9 29 26 41 37 12 12 40 29 63 39
23 10 52 16 65 14 16 -2 30 -16 44 -43 11 -22 42 -78 69 -125 27 -47 54 -88
60 -92 6 -4 25 -8 42 -8 17 0 37 6 43 14 6 7 11 45 10 87 -1 41 3 112 9 159 6
47 10 96 9 110 -2 19 3 26 21 28 13 2 26 10 29 18 3 8 16 14 30 14 20 0 24 4
21 23 -2 13 -9 21 -18 20 -8 -1 -25 -5 -37 -8 -16 -5 -25 -1 -38 18 -12 18
-17 58 -21 158 -3 100 -1 135 8 141 7 4 65 8 129 8 117 0 117 0 123 32 4 20 1
39 -8 53 -8 13 -12 25 -9 29 4 3 17 6 30 6 13 0 23 4 23 8 0 5 -8 16 -17 24
-10 8 -40 27 -67 41 -27 15 -54 27 -60 27 -7 0 -31 -9 -54 -20 -23 -11 -46
-29 -52 -40 -6 -11 -15 -20 -20 -20 -5 0 -12 10 -16 23 -4 12 -6 57 -5 101 0
43 -4 97 -10 118 -8 31 -18 43 -40 51 -16 6 -29 15 -29 19 0 4 -13 8 -30 8z
m250 -344 c10 -1 14 -11 12 -26 -1 -14 -12 -33 -23 -42 -12 -10 -31 -18 -44
-18 -12 0 -28 7 -35 15 -11 13 -9 20 10 40 12 13 32 26 44 28 11 3 28 4 36 3z
m-527 -65 c8 -8 8 -14 -1 -23 -6 -6 -14 -9 -17 -6 -3 3 -3 13 1 22 5 12 10 14
17 7z m296 -25 c5 -3 11 -20 15 -37 4 -20 0 -43 -9 -62 -8 -17 -15 -54 -15
-83 0 -29 5 -75 11 -103 9 -42 8 -54 -6 -75 -12 -18 -26 -26 -47 -26 -16 0
-42 -7 -58 -15 -16 -8 -36 -12 -44 -9 -9 3 -16 14 -16 23 0 9 11 33 25 53 14
20 25 41 25 46 0 5 8 20 19 33 10 13 29 67 41 119 12 52 29 105 37 118 7 12
18 20 22 18z m-9 -448 c12 -3 14 -16 12 -63 -2 -33 -6 -68 -8 -77 -3 -10 -14
-18 -24 -18 -10 0 -40 20 -68 45 -27 25 -55 45 -61 45 -6 0 -11 3 -11 8 0 4
15 14 33 23 24 12 38 14 51 7 14 -8 23 -5 40 11 11 12 28 20 36 19z"/>
<path d="M831 488 c-6 10 -10 10 -21 -2 -7 -9 -10 -23 -6 -31 3 -8 12 -15 21
-15 8 0 15 8 15 18 0 9 -4 23 -9 30z"/>
<path d="M895 475 c-26 2 -38 -1 -42 -12 -4 -9 -2 -23 4 -32 5 -9 24 -21 42
-27 18 -6 46 -24 63 -41 21 -21 28 -36 24 -49 -4 -11 -17 -31 -29 -45 -13 -14
-52 -46 -87 -71 -36 -25 -84 -63 -107 -84 -25 -24 -45 -54 -51 -77 -11 -38
-11 -38 21 -35 25 2 34 9 42 33 6 17 26 46 45 65 19 19 55 44 80 56 25 11 51
28 59 37 7 10 25 17 38 17 14 0 52 12 85 27 60 27 60 27 54 67 -5 30 -16 49
-44 73 -20 18 -55 38 -77 45 -22 6 -50 20 -61 30 -12 11 -38 21 -59 23z"/>
</g>
</svg>
