<?xml version="1.0" standalone="no"?>
<!DOCTYPE svg PUBLIC "-//W3C//DTD SVG 20010904//EN"
 "http://www.w3.org/TR/2001/REC-SVG-20010904/DTD/svg10.dtd">
<svg version="1.0" xmlns="http://www.w3.org/2000/svg"
 width="128.000000pt" height="128.000000pt" viewBox="0 0 128.000000 128.000000"
 preserveAspectRatio="xMidYMid meet">
<metadata>
Created by potrace 1.16, written by Peter Selinger 2001-2019
</metadata>
<g transform="translate(0.000000,128.000000) scale(0.100000,-0.100000)"
fill="#000000" stroke="none">
<path d="M375 1280 c-17 0 -25 -5 -22 -12 2 -7 12 -13 22 -13 10 0 20 6 23 13
2 7 -6 12 -23 12z"/>
<path d="M700 1280 c-16 0 -20 -7 -20 -30 0 -18 6 -33 15 -36 8 -4 15 -13 15
-20 0 -8 -12 -19 -26 -24 -14 -6 -34 -10 -45 -10 -10 0 -19 5 -19 12 0 6 10
22 22 35 17 19 19 26 9 36 -10 9 -16 7 -31 -10 -10 -13 -23 -23 -29 -23 -6 0
-18 -11 -27 -25 -13 -20 -20 -23 -35 -14 -11 5 -19 20 -19 35 0 22 -3 24 -22
19 -13 -4 -35 -20 -49 -36 -14 -16 -32 -29 -40 -29 -8 0 -25 9 -39 20 -14 11
-30 20 -36 20 -6 0 -17 -7 -24 -15 -10 -13 -9 -19 6 -36 10 -12 31 -27 46 -35
14 -7 33 -21 42 -29 9 -10 16 -33 16 -55 0 -21 3 -45 6 -54 4 -10 18 -16 40
-16 24 0 36 5 40 18 3 9 12 30 20 45 7 16 14 37 14 47 0 11 9 24 20 30 12 6
38 10 58 8 28 -2 38 -8 40 -23 2 -12 -12 -38 -33 -62 -19 -23 -35 -45 -35 -51
0 -5 -8 -20 -18 -33 -10 -13 -24 -44 -32 -68 -13 -40 -13 -44 5 -57 10 -8 24
-14 30 -14 5 0 15 10 20 22 6 12 18 26 27 32 9 6 20 7 23 4 4 -4 4 -16 0 -27
-3 -11 -25 -38 -47 -61 -23 -23 -54 -48 -70 -56 -15 -8 -28 -22 -28 -30 0 -9
-9 -27 -20 -41 -12 -16 -20 -41 -20 -64 0 -22 3 -39 7 -39 3 0 40 21 81 47 58
36 78 44 91 36 12 -8 15 -23 13 -64 -3 -39 -15 -76 -44 -130 -21 -43 -57 -101
-78 -130 -21 -30 -54 -74 -74 -100 -19 -25 -37 -61 -41 -80 -5 -28 -2 -38 14
-53 18 -16 23 -17 37 -5 10 8 59 65 111 127 56 67 101 112 112 112 10 0 25 -8
33 -17 9 -10 19 -33 23 -50 5 -26 12 -33 30 -33 18 0 23 4 18 16 -5 13 -2 15
18 9 13 -4 34 -13 47 -21 12 -8 22 -20 22 -27 0 -7 -9 -23 -20 -35 -12 -12
-24 -22 -29 -22 -4 0 -13 -11 -19 -24 -6 -13 -37 -39 -69 -57 -58 -34 -58 -34
0 -37 34 -2 65 2 73 9 8 6 25 8 40 5 17 -5 41 1 72 15 26 12 49 24 52 26 2 2
5 32 6 65 2 57 0 65 -29 99 -18 20 -40 48 -49 62 -11 16 -30 26 -57 31 -24 4
-55 19 -76 37 -30 26 -35 37 -35 73 0 30 6 48 20 61 11 10 22 25 25 34 2 9 23
22 44 28 22 7 47 10 56 7 8 -4 14 -14 11 -23 -2 -9 -7 -30 -11 -47 -4 -22 -1
-35 13 -47 18 -16 19 -15 40 27 12 24 22 51 22 60 0 9 -6 16 -12 16 -7 0 -3 6
8 14 18 13 21 26 21 90 0 42 -3 76 -7 76 -4 0 -30 18 -56 40 -29 24 -59 40
-74 40 -15 0 -35 -7 -46 -15 -10 -8 -27 -15 -36 -15 -10 0 -18 5 -18 10 0 6 4
18 9 28 5 9 17 34 26 55 9 21 14 49 11 62 -4 15 -18 27 -41 35 -19 6 -39 9
-44 6 -5 -4 -12 -2 -15 3 -4 5 -1 31 6 56 9 33 20 50 35 56 13 5 23 13 23 19
0 6 5 8 10 5 6 -4 16 -2 23 3 8 7 19 5 35 -8 12 -10 22 -25 22 -34 0 -9 7 -16
16 -16 9 0 18 9 21 19 3 14 15 21 37 23 23 2 32 8 34 26 2 14 -2 22 -11 22 -8
0 -25 9 -38 20 -24 20 -24 20 4 41 15 11 27 30 27 40 0 11 4 18 9 15 5 -4 16
-3 25 0 9 3 16 10 16 15 0 5 -23 9 -51 9 -36 0 -55 -5 -63 -16 -7 -9 -31 -20
-55 -24 -32 -6 -44 -4 -48 6 -3 8 -11 14 -19 14 -8 0 -14 5 -14 10 0 6 -9 10
-20 10z m-244 -222 c8 -2 16 -7 17 -13 1 -5 -6 -11 -15 -13 -11 -2 -18 3 -18
13 0 10 6 15 16 13z m343 -353 c24 -8 37 -19 39 -33 2 -12 -9 -34 -25 -52 -28
-32 -28 -32 -56 10 -15 23 -27 48 -27 55 0 8 8 18 17 23 11 6 29 5 52 -3z"/>
<path d="M831 1015 c-5 3 -12 -4 -16 -15 -3 -11 -3 -24 0 -30 4 -6 11 -8 16
-5 5 4 9 15 9 25 0 10 -4 21 -9 25z"/>
<path d="M819 930 c-5 0 -9 -17 -9 -39 0 -22 6 -44 15 -51 8 -6 18 -9 24 -6 6
4 6 17 0 34 -5 15 -12 35 -15 45 -4 9 -10 17 -15 17z"/>
<path d="M869 398 c-9 1 -21 -4 -28 -12 -7 -8 -10 -20 -6 -26 3 -5 17 -10 31
-10 21 0 25 4 22 22 -2 13 -10 24 -19 26z"/>
</g>
</svg>
