<?xml version="1.0" standalone="no"?>
<!DOCTYPE svg PUBLIC "-//W3C//DTD SVG 20010904//EN"
 "http://www.w3.org/TR/2001/REC-SVG-20010904/DTD/svg10.dtd">
<svg version="1.0" xmlns="http://www.w3.org/2000/svg"
 width="128.000000pt" height="128.000000pt" viewBox="0 0 128.000000 128.000000"
 preserveAspectRatio="xMidYMid meet">
<metadata>
Created by potrace 1.16, written by Peter Selinger 2001-2019
</metadata>
<g transform="translate(0.000000,128.000000) scale(0.100000,-0.100000)"
fill="#000000" stroke="none">
<path d="M819 1280 c-27 0 -49 -4 -49 -8 0 -5 8 -16 18 -25 9 -8 29 -20 45
-26 15 -6 27 -18 27 -26 0 -9 -7 -27 -16 -40 -8 -13 -21 -22 -29 -19 -7 3 -41
-8 -76 -25 -34 -16 -66 -28 -69 -26 -4 2 -12 22 -20 44 -7 22 -22 50 -32 61
-10 11 -25 20 -33 20 -9 0 -15 -10 -15 -24 0 -12 5 -37 11 -54 6 -17 19 -34
30 -37 10 -4 19 -13 19 -20 0 -8 10 -21 23 -30 21 -13 29 -13 83 5 32 12 68
25 79 30 11 5 29 10 40 12 11 2 22 14 25 28 6 25 6 25 12 1 6 -21 11 -23 40
-17 18 4 51 8 73 9 37 2 41 4 49 40 8 32 7 41 -11 58 -11 11 -38 24 -59 29
-21 5 -54 10 -72 10 -20 0 -35 6 -38 15 -4 11 -21 15 -55 15z"/>
<path d="M395 1064 c-9 3 -18 -1 -22 -10 -3 -8 -1 -20 5 -26 6 -6 15 -7 21 -4
6 4 11 13 11 21 0 7 -7 16 -15 19z"/>
<path d="M1017 1038 c-8 2 -18 -2 -22 -8 -3 -5 -18 -10 -33 -9 -15 0 -50 -6
-78 -14 -28 -8 -71 -26 -95 -40 -24 -14 -65 -31 -91 -37 -26 -7 -55 -21 -65
-32 -18 -21 -18 -21 35 -16 28 3 52 4 52 2 0 -2 -10 -12 -22 -24 -12 -11 -18
-23 -14 -27 4 -5 47 -11 94 -14 48 -3 96 -1 107 4 11 6 23 15 27 21 4 6 8 21
8 33 0 15 -7 23 -22 25 -13 2 -23 10 -23 18 0 8 8 16 17 18 9 2 41 -8 71 -23
30 -14 57 -31 60 -38 3 -8 2 -31 -2 -53 -4 -23 -22 -62 -40 -87 -17 -26 -34
-47 -37 -47 -3 0 -17 9 -31 20 -18 14 -41 20 -73 20 -30 0 -52 6 -60 15 -7 8
-23 15 -35 15 -13 0 -32 11 -43 25 -11 14 -25 25 -31 25 -6 0 -11 -6 -11 -14
0 -8 4 -26 10 -40 5 -15 17 -26 28 -26 10 0 33 -16 52 -35 30 -31 32 -37 22
-60 -9 -19 -9 -31 0 -50 6 -14 17 -25 23 -25 7 0 20 -9 29 -19 10 -11 18 -30
18 -43 0 -13 -3 -34 -7 -47 -8 -23 -7 -24 29 -17 29 6 43 3 57 -10 10 -9 19
-24 20 -33 0 -11 3 -9 9 6 8 19 16 22 54 19 26 -1 54 -10 65 -20 18 -17 19
-17 26 6 4 13 16 33 27 45 20 21 20 21 -1 42 -12 12 -21 26 -21 31 0 7 -38 10
-102 9 -87 -2 -103 1 -114 16 -9 13 -10 23 -3 36 5 11 20 19 32 19 12 0 37 9
55 20 17 11 32 24 32 30 0 5 4 10 10 10 5 0 25 17 45 38 19 20 35 47 35 59 0
17 7 22 33 25 26 2 33 8 35 28 2 14 8 29 13 34 5 6 9 20 9 33 0 13 -11 33 -25
45 -14 12 -40 27 -57 33 -17 5 -34 17 -38 25 -4 8 -11 24 -17 35 -6 11 -17 21
-26 23z m-182 -119 c6 -7 5 -13 -5 -19 -8 -5 -23 -10 -32 -10 -10 0 -18 5 -18
10 0 6 10 15 23 19 13 5 26 5 32 0z"/>
<path d="M514 890 c-6 0 -19 -9 -30 -21 -18 -20 -18 -21 4 -62 12 -23 22 -47
22 -52 0 -6 12 -22 28 -36 15 -14 37 -31 48 -37 12 -6 24 -8 28 -5 3 3 6 16 6
28 0 13 -10 30 -22 39 -22 15 -22 16 -5 29 9 8 17 19 17 26 0 6 -7 11 -15 11
-8 0 -15 4 -15 9 0 5 -12 23 -27 40 -15 17 -33 31 -39 31z"/>
<path d="M1169 600 c-5 0 -12 -7 -16 -16 -3 -8 -1 -20 4 -25 6 -6 14 -5 22 5
7 8 10 20 6 26 -3 5 -11 10 -16 10z"/>
<path d="M786 510 c-7 0 -23 -11 -36 -25 -19 -20 -30 -24 -55 -19 -24 4 -34 2
-38 -10 -4 -9 -4 -22 -2 -28 3 -8 26 -13 63 -13 55 0 57 1 60 28 2 15 8 25 13
22 5 -4 9 -15 9 -26 0 -10 5 -19 11 -19 8 0 9 12 4 37 -4 21 -9 41 -11 45 -3
5 -11 8 -18 8z"/>
<path d="M320 482 c-9 3 -42 -7 -74 -23 -32 -16 -66 -29 -77 -29 -10 0 -19 -4
-19 -10 0 -5 -11 -10 -23 -10 -13 0 -31 -8 -39 -17 -9 -10 -20 -28 -27 -40 -6
-12 -8 -29 -5 -37 3 -9 17 -19 30 -22 13 -3 46 -7 74 -7 38 -2 52 -6 56 -19 3
-10 12 -18 20 -18 12 0 14 7 9 30 -4 18 -2 30 3 30 6 0 17 -3 26 -6 11 -4 16
-19 16 -43 0 -20 4 -41 8 -47 4 -6 21 -15 37 -21 17 -6 64 -9 104 -6 53 3 81
9 98 23 24 18 27 18 57 3 17 -8 35 -22 39 -29 4 -8 19 -14 32 -14 14 0 25 -5
25 -10 0 -6 16 -20 35 -31 19 -12 35 -26 35 -32 0 -6 12 -22 27 -34 14 -13 32
-23 40 -23 7 0 13 7 13 15 0 8 9 23 20 32 11 9 22 36 26 60 4 27 2 48 -5 57
-10 11 -9 16 4 23 11 7 14 17 9 40 -3 17 -20 47 -36 68 -31 36 -31 36 -44 13
-7 -13 -16 -29 -20 -37 -4 -8 0 -27 9 -43 9 -17 17 -35 17 -43 0 -7 -12 -20
-26 -30 -17 -11 -36 -15 -53 -11 -14 4 -35 8 -46 10 -11 2 -23 4 -27 5 -3 0
-20 12 -37 27 -27 22 -29 28 -19 50 6 13 9 26 7 28 -2 2 -27 0 -56 -6 -29 -6
-72 -7 -97 -4 -25 4 -55 15 -67 25 -13 10 -19 23 -15 29 4 7 25 12 46 12 21 0
42 -5 45 -11 5 -7 11 -5 18 4 7 8 23 17 37 20 14 3 43 12 65 20 34 13 40 20
40 44 0 22 -5 29 -24 31 -15 3 -30 -3 -37 -13 -11 -14 -18 -15 -46 -7 -18 6
-62 9 -98 7 -41 -2 -70 2 -80 10 -8 6 -22 14 -30 17z m17 -152 c13 0 13 -3 3
-15 -7 -8 -19 -15 -27 -15 -13 0 -13 3 -3 15 7 8 19 15 27 15z"/>
<path d="M1002 316 c-21 14 -22 14 -22 -6 0 -11 10 -31 23 -43 12 -13 31 -29
43 -37 12 -8 29 -30 38 -47 9 -18 23 -33 31 -33 7 0 21 -10 29 -21 11 -16 12
-26 4 -39 -9 -14 -6 -25 11 -54 14 -22 30 -36 43 -36 17 0 19 5 15 33 -3 17
-10 50 -17 72 -6 22 -14 53 -17 68 -3 18 -14 32 -29 37 -13 5 -24 17 -24 27 0
10 -16 28 -35 41 -19 12 -43 22 -53 22 -9 0 -28 7 -40 16z"/>
</g>
</svg>
