<?xml version="1.0" standalone="no"?>
<!DOCTYPE svg PUBLIC "-//W3C//DTD SVG 20010904//EN"
 "http://www.w3.org/TR/2001/REC-SVG-20010904/DTD/svg10.dtd">
<svg version="1.0" xmlns="http://www.w3.org/2000/svg"
 width="128.000000pt" height="128.000000pt" viewBox="0 0 128.000000 128.000000"
 preserveAspectRatio="xMidYMid meet">
<metadata>
Created by potrace 1.16, written by Peter Selinger 2001-2019
</metadata>
<g transform="translate(0.000000,128.000000) scale(0.100000,-0.100000)"
fill="#000000" stroke="none">
<path d="M777 1259 c-7 0 -21 -4 -32 -9 -11 -5 -32 -9 -47 -9 -15 -1 -29 -5
-32 -10 -3 -5 6 -17 20 -26 15 -10 44 -20 65 -22 27 -4 40 -12 45 -25 3 -11 1
-25 -5 -31 -6 -6 -11 -21 -11 -33 0 -12 -7 -27 -15 -34 -8 -7 -19 -29 -25 -50
-6 -21 -17 -41 -25 -44 -9 -3 -15 -18 -15 -37 0 -22 -5 -32 -19 -36 -10 -3
-27 -20 -37 -38 -9 -18 -35 -44 -56 -58 -21 -13 -56 -48 -79 -76 -34 -42 -39
-54 -29 -66 10 -12 9 -15 -4 -15 -9 0 -16 -6 -16 -14 0 -8 -3 -21 -6 -29 -3
-8 2 -22 11 -30 14 -14 18 -14 44 0 15 9 33 30 39 46 6 15 9 34 6 41 -3 8 8
19 27 26 17 8 40 22 50 33 12 13 17 28 13 44 -5 17 -2 23 10 23 9 0 50 33 90
74 74 74 74 74 136 59 35 -8 76 -21 91 -28 15 -8 31 -19 34 -25 3 -5 21 -10
39 -10 22 0 40 -8 56 -25 13 -14 30 -25 37 -25 7 0 31 -11 53 -25 22 -14 51
-25 65 -25 23 0 25 4 25 45 0 25 -3 45 -8 45 -4 0 -29 17 -54 39 -33 27 -61
41 -92 45 -25 4 -48 12 -52 17 -3 6 -31 10 -62 9 -32 0 -86 3 -122 7 -53 7
-65 12 -68 27 -3 11 2 24 10 30 8 6 24 32 37 59 13 26 20 55 17 64 -4 11 4 25
24 42 28 23 30 29 21 54 -8 21 -17 27 -41 27 -22 0 -33 -6 -40 -22 -5 -13 -9
-18 -9 -12 -1 6 -12 16 -26 22 -14 7 -31 12 -38 11z"/>
<path d="M338 1186 c-7 1 -31 -1 -53 -5 -27 -4 -41 -12 -43 -24 -2 -9 4 -20
12 -23 9 -3 16 -12 16 -20 0 -7 11 -24 24 -39 15 -16 26 -43 30 -76 4 -28 4
-71 0 -96 -5 -33 -12 -47 -29 -53 -12 -5 -25 -16 -28 -24 -5 -11 -18 -15 -46
-14 -22 1 -46 5 -52 9 -10 6 -10 13 -1 33 8 17 9 41 3 71 -6 31 -22 61 -48 92
-21 26 -46 51 -54 56 -9 6 -28 7 -42 3 -15 -3 -27 -11 -27 -17 0 -6 14 -27 31
-47 32 -36 32 -36 26 -176 -6 -121 -5 -142 10 -158 9 -10 26 -18 37 -18 12 0
37 8 56 18 19 10 50 28 69 39 18 12 40 19 47 16 8 -3 13 -20 13 -41 -1 -21 1
-87 4 -149 2 -61 2 -141 -2 -177 -4 -36 -3 -72 1 -81 5 -8 17 -15 28 -15 13 0
28 19 51 65 27 55 31 72 26 110 -4 25 -14 59 -22 76 -10 19 -17 63 -19 122 -2
92 -2 92 38 132 26 26 41 50 43 70 1 17 3 38 3 48 1 9 5 17 10 17 4 0 11 -7
14 -16 3 -9 6 -24 6 -35 0 -10 6 -19 13 -19 7 0 28 16 46 37 18 21 31 45 29
56 -2 11 -11 25 -20 31 -13 8 -22 6 -37 -8 -11 -10 -27 -16 -36 -12 -9 3 -32
-1 -50 -8 -19 -8 -37 -11 -40 -6 -3 5 -3 46 0 92 4 58 1 95 -9 123 -8 22 -20
41 -28 41z"/>
<path d="M848 890 c-7 0 -24 -16 -37 -35 -16 -24 -21 -42 -17 -60 4 -14 11
-25 16 -25 6 0 10 -6 10 -13 0 -8 -12 -25 -27 -39 -16 -14 -33 -34 -40 -44
-10 -16 -14 -17 -21 -5 -7 9 -20 12 -43 7 -20 -4 -55 -26 -84 -53 -49 -45 -49
-45 -26 -64 13 -11 31 -19 40 -19 9 0 31 9 49 20 27 16 37 18 48 9 8 -6 14
-22 14 -34 0 -13 -8 -37 -17 -54 -17 -29 -17 -32 1 -66 11 -19 25 -35 32 -35
7 0 24 4 38 10 19 7 26 6 26 -3 0 -7 -9 -18 -19 -24 -11 -7 -22 -26 -26 -43
-4 -16 -15 -35 -26 -40 -10 -6 -19 -16 -19 -21 0 -6 -11 -24 -25 -41 -14 -16
-25 -35 -25 -42 0 -6 -14 -20 -31 -30 -17 -10 -41 -29 -53 -43 -11 -13 -23
-34 -26 -46 -4 -13 -17 -24 -38 -29 -18 -5 -32 -13 -32 -18 0 -6 16 -10 35
-10 25 0 35 5 35 15 0 11 9 15 28 13 20 -1 42 9 75 37 26 22 50 48 53 60 4 11
20 33 35 49 16 17 29 40 29 53 0 18 8 24 40 33 22 6 40 15 40 20 0 4 16 14 36
20 24 8 40 22 51 45 11 24 13 37 5 51 -6 10 -36 28 -69 40 -58 22 -58 22 -68
82 -5 33 -13 64 -17 68 -5 4 -8 15 -8 25 0 12 10 21 28 25 15 3 50 13 77 21
28 8 66 22 85 31 26 13 36 25 38 45 2 16 -2 35 -9 43 -6 8 -29 14 -53 14 -22
0 -48 -4 -56 -10 -9 -5 -19 -5 -27 2 -7 6 -13 32 -13 59 0 33 -4 49 -12 49z"/>
</g>
</svg>
