<?xml version="1.0" standalone="no"?>
<!DOCTYPE svg PUBLIC "-//W3C//DTD SVG 20010904//EN"
 "http://www.w3.org/TR/2001/REC-SVG-20010904/DTD/svg10.dtd">
<svg version="1.0" xmlns="http://www.w3.org/2000/svg"
 width="128.000000pt" height="128.000000pt" viewBox="0 0 128.000000 128.000000"
 preserveAspectRatio="xMidYMid meet">
<metadata>
Created by potrace 1.16, written by Peter Selinger 2001-2019
</metadata>
<g transform="translate(0.000000,128.000000) scale(0.100000,-0.100000)"
fill="#000000" stroke="none">
<path d="M428 1160 c-18 0 -32 -8 -40 -22 -7 -13 -13 -48 -15 -78 -2 -43 -7
-60 -25 -75 -13 -12 -39 -51 -58 -88 -19 -38 -52 -85 -72 -105 -21 -20 -38
-42 -38 -49 0 -6 -19 -33 -42 -60 -23 -26 -57 -81 -76 -122 -18 -40 -36 -88
-39 -105 -3 -22 0 -36 12 -46 12 -10 21 -11 32 -4 9 5 30 41 47 79 17 39 56
104 88 145 31 41 67 88 80 104 21 25 25 26 37 12 7 -9 26 -16 41 -16 15 0 42
7 61 17 19 9 45 25 58 35 13 10 30 29 37 43 8 16 9 27 3 31 -6 3 -26 3 -46 -1
-20 -3 -49 -19 -64 -34 -15 -16 -37 -31 -48 -34 -12 -3 -21 -1 -21 4 0 5 7 26
15 46 8 19 31 53 50 74 19 22 35 45 35 52 0 8 10 23 23 35 13 12 33 22 45 22
11 0 25 -8 31 -17 8 -14 12 -15 25 -4 9 7 16 19 16 27 0 7 14 21 30 31 20 11
30 25 30 41 0 22 -2 23 -52 18 -28 -3 -56 -10 -62 -16 -5 -5 -18 -10 -28 -10
-12 0 -18 8 -18 23 0 13 -5 28 -12 35 -7 7 -24 12 -40 12z"/>
<path d="M905 926 c-5 2 -30 -4 -55 -13 -31 -11 -64 -35 -108 -82 -35 -36 -75
-83 -88 -104 -14 -22 -24 -41 -21 -43 2 -2 20 11 40 30 21 19 37 39 37 45 0 6
7 11 15 11 9 0 27 12 40 28 24 27 24 27 25 3 0 -14 -9 -45 -21 -70 -11 -25
-43 -93 -72 -150 -29 -57 -57 -112 -63 -122 -6 -11 -20 -30 -32 -42 -11 -12
-30 -46 -42 -75 -16 -37 -20 -56 -12 -64 5 -5 15 -7 21 -3 6 3 20 23 30 44 11
20 32 50 48 67 16 16 42 52 58 79 15 28 44 70 63 95 19 25 58 69 86 97 27 29
47 55 44 59 -4 3 -18 -2 -32 -11 -14 -10 -26 -21 -26 -26 0 -5 -7 -9 -15 -9
-8 0 -15 3 -15 6 0 4 25 54 56 111 30 57 54 111 52 120 -2 9 -7 18 -13 19z"/>
<path d="M998 760 c-10 0 -21 -7 -25 -16 -3 -9 3 -23 16 -35 11 -11 21 -24 21
-29 0 -4 -7 -37 -16 -72 -8 -35 -23 -79 -33 -98 -9 -19 -25 -47 -35 -62 -17
-25 -24 -28 -78 -28 -38 0 -71 -6 -91 -17 -18 -10 -45 -29 -61 -43 -15 -14
-32 -34 -37 -45 -5 -11 -13 -27 -18 -35 -5 -8 -18 -34 -30 -57 -22 -42 -22
-42 2 -57 17 -12 31 -13 55 -7 17 5 41 19 53 30 13 12 30 21 40 21 9 0 44 27
78 59 41 40 71 61 91 63 21 2 39 -6 64 -28 19 -18 43 -34 52 -38 10 -4 14 -13
11 -26 -4 -17 0 -20 24 -20 19 0 42 -12 68 -35 21 -19 45 -35 52 -35 8 0 22 7
32 15 17 12 17 18 8 48 -7 19 -24 45 -39 58 -16 13 -41 33 -58 45 -16 12 -41
25 -54 29 -14 4 -32 13 -40 20 -8 7 -26 15 -39 17 -13 1 -28 10 -34 19 -8 12
-4 25 15 50 15 19 31 54 38 79 7 25 17 55 23 68 8 17 8 38 -1 79 -6 30 -17 61
-23 69 -6 8 -20 14 -31 14z m-143 -404 c19 -9 19 -9 -1 -16 -11 -5 -50 -29
-86 -54 -64 -45 -67 -46 -78 -26 -8 15 -8 26 1 43 7 12 22 29 33 37 12 8 41
17 66 20 25 3 54 1 65 -4z"/>
<path d="M580 727 c-8 1 -29 -5 -47 -13 -18 -7 -37 -23 -43 -34 -6 -11 -18
-20 -28 -21 -9 0 -33 -11 -52 -25 -19 -13 -63 -43 -98 -65 -34 -23 -62 -45
-62 -50 0 -5 7 -12 16 -16 10 -4 20 0 26 10 5 10 19 17 32 17 13 0 31 9 41 20
10 11 23 20 29 20 5 0 30 19 53 42 29 28 43 37 43 26 0 -9 -16 -44 -35 -78
-19 -34 -35 -66 -35 -71 0 -5 3 -9 8 -9 4 0 38 29 75 64 55 51 68 69 63 85 -3
12 -8 30 -11 40 -5 15 0 20 17 23 13 2 23 10 23 18 0 8 -7 16 -15 17z"/>
<path d="M324 487 c-6 2 -16 -3 -23 -11 -8 -10 -11 -64 -10 -179 1 -91 6 -189
12 -217 8 -39 16 -54 36 -64 14 -7 32 -11 39 -9 6 3 12 17 12 33 0 15 7 33 15
40 8 7 15 21 15 31 0 10 5 21 10 24 6 3 10 23 10 43 0 21 9 55 20 77 11 22 20
48 20 58 0 10 7 31 15 46 8 16 17 47 21 70 4 27 3 41 -5 41 -6 0 -21 -19 -33
-42 -12 -24 -21 -49 -20 -55 2 -7 -9 -32 -23 -56 -14 -24 -25 -53 -25 -63 0
-11 -11 -35 -24 -53 -15 -20 -27 -28 -31 -21 -4 6 -6 39 -5 73 1 34 1 69 1 77
-1 8 -4 46 -8 84 -5 38 -13 71 -19 73z"/>
</g>
</svg>
