<?xml version="1.0" standalone="no"?>
<!DOCTYPE svg PUBLIC "-//W3C//DTD SVG 20010904//EN"
 "http://www.w3.org/TR/2001/REC-SVG-20010904/DTD/svg10.dtd">
<svg version="1.0" xmlns="http://www.w3.org/2000/svg"
 width="128.000000pt" height="128.000000pt" viewBox="0 0 128.000000 128.000000"
 preserveAspectRatio="xMidYMid meet">
<metadata>
Created by potrace 1.16, written by Peter Selinger 2001-2019
</metadata>
<g transform="translate(0.000000,128.000000) scale(0.100000,-0.100000)"
fill="#000000" stroke="none">
<path d="M737 1257 c-29 2 -59 -1 -67 -6 -10 -7 -11 -14 -5 -20 6 -5 25 -20
44 -33 33 -22 34 -25 33 -87 0 -42 -5 -66 -13 -72 -8 -5 -23 -9 -34 -9 -11 0
-49 -7 -85 -15 -36 -8 -82 -17 -103 -21 -29 -4 -37 -9 -35 -22 3 -12 14 -17
40 -17 20 0 42 -5 48 -11 9 -9 8 -27 -5 -75 -8 -35 -19 -67 -24 -72 -4 -4 -31
13 -60 39 -36 32 -55 44 -62 37 -7 -7 -4 -24 10 -51 12 -23 21 -51 21 -62 0
-12 -11 -45 -25 -75 -21 -47 -23 -60 -15 -108 5 -31 18 -73 29 -96 12 -22 21
-51 21 -65 0 -15 -13 -35 -35 -55 -20 -17 -42 -31 -49 -31 -10 0 -14 37 -18
161 -3 88 -10 165 -16 171 -6 6 -12 6 -17 -2 -4 -6 -9 -66 -10 -133 -2 -67 -7
-151 -12 -187 -5 -36 -20 -87 -34 -115 -13 -27 -32 -51 -41 -53 -12 -2 -22 8
-33 34 -8 21 -15 65 -15 103 1 36 7 84 15 106 8 22 18 63 21 90 4 37 1 66 -14
110 -11 33 -18 71 -15 85 3 14 23 39 46 56 23 17 59 34 79 38 21 4 42 15 46
24 5 9 12 32 15 49 5 28 2 37 -26 63 -18 16 -40 30 -49 30 -10 0 -33 9 -53 20
-20 11 -42 20 -50 20 -8 0 -15 -9 -15 -20 0 -11 10 -26 23 -34 12 -8 31 -32
42 -52 20 -37 20 -37 -5 -53 -14 -9 -34 -26 -45 -39 -11 -12 -33 -36 -49 -53
-29 -30 -29 -30 -22 -172 5 -110 3 -167 -10 -255 -15 -96 -16 -123 -5 -180 7
-37 15 -74 17 -83 2 -8 21 -23 42 -32 21 -9 46 -17 54 -17 8 0 22 8 31 18 10
10 17 22 17 26 0 4 8 20 18 34 10 15 26 48 36 74 15 42 22 49 57 58 28 8 51 8
82 -1 23 -6 60 -19 82 -29 22 -10 48 -27 59 -38 10 -12 46 -34 80 -51 59 -28
66 -29 127 -20 35 5 85 12 112 16 37 5 47 3 47 -9 0 -8 -18 -24 -39 -36 -21
-12 -52 -29 -67 -37 -29 -15 -29 -15 14 -15 24 0 71 9 105 20 34 11 94 29 133
40 40 11 74 26 77 34 3 7 0 24 -7 37 -6 13 -37 36 -67 52 -56 29 -56 29 -105
12 -27 -10 -66 -19 -86 -22 -28 -3 -39 0 -46 14 -5 10 -6 71 -3 136 6 114 7
120 34 142 15 13 44 27 65 30 20 3 44 10 52 14 8 5 15 21 15 36 0 21 -8 33
-29 45 -16 8 -34 23 -40 32 -8 13 -3 32 22 82 20 40 32 79 32 104 0 32 -6 45
-26 61 -14 11 -34 23 -44 26 -11 3 -29 1 -40 -5 -11 -6 -29 -8 -40 -5 -10 3
-22 15 -25 26 -4 11 -1 26 5 34 8 9 31 15 61 15 30 0 53 6 63 16 9 8 16 20 16
25 0 6 -5 19 -10 30 -6 10 -25 26 -42 35 -21 11 -43 14 -69 10 -39 -6 -39 -6
-33 68 7 72 6 74 -21 92 -15 9 -50 19 -78 21z m-39 -300 c57 -2 57 -2 57 -51
0 -34 -5 -51 -15 -56 -8 -4 -36 -17 -62 -30 -26 -12 -54 -20 -63 -17 -11 5
-15 21 -15 55 0 34 6 57 20 75 18 23 27 26 78 24z m201 -107 c16 0 34 -6 40
-14 8 -9 8 -21 2 -37 -5 -13 -20 -35 -34 -47 -14 -13 -33 -22 -43 -20 -14 2
-20 14 -22 45 -2 27 3 46 13 57 9 9 29 16 44 16z m-154 -35 c6 -1 10 -28 10
-61 0 -59 0 -59 -59 -72 -44 -9 -62 -10 -72 -1 -8 6 -14 26 -14 45 0 18 6 36
13 41 6 4 35 17 62 29 28 12 55 21 60 19z m-213 -35 c4 0 9 -4 12 -8 2 -4 10
-45 16 -92 6 -46 22 -111 36 -144 13 -33 21 -68 18 -79 -5 -15 -12 -17 -32
-12 -15 3 -45 17 -68 30 -22 13 -46 30 -52 38 -7 8 -16 36 -21 63 -7 37 -6 57
5 83 8 19 29 54 47 78 17 23 35 43 39 43z m170 -130 c20 0 32 -7 39 -24 7 -14
9 -36 5 -50 -3 -13 -14 -27 -25 -31 -10 -3 -30 -1 -45 4 -21 9 -26 17 -26 44
0 18 5 38 12 45 7 7 25 12 40 12z m187 -36 c5 -5 11 -18 13 -28 1 -10 -3 -21
-9 -23 -7 -3 -16 2 -19 11 -3 9 -3 24 0 33 4 10 10 13 15 7z m-85 -47 c6 -2
12 -11 14 -20 2 -10 -3 -17 -11 -17 -8 0 -17 6 -20 14 -3 8 -3 17 1 20 3 4 11
5 16 3z m-33 -62 c5 -4 9 -13 9 -21 0 -8 -4 -14 -9 -14 -6 0 -13 5 -16 10 -3
6 -3 15 0 20 4 6 11 8 16 5z m-160 -86 c9 1 23 -7 31 -16 8 -10 25 -36 38 -58
13 -22 36 -64 51 -94 16 -29 26 -58 23 -62 -3 -5 -17 -9 -31 -9 -15 0 -55 22
-97 52 -39 28 -76 58 -82 66 -7 10 -23 13 -55 9 -24 -3 -53 -7 -64 -9 -14 -2
-20 3 -20 17 0 15 17 29 65 52 36 18 79 37 95 42 17 5 37 10 46 10z m161 -47
c6 -6 7 -16 3 -22 -5 -8 -11 -8 -17 -2 -6 6 -7 16 -3 22 5 8 11 8 17 2z"/>
<path d="M1161 1190 c-5 0 -13 -6 -19 -13 -7 -8 -6 -17 3 -30 7 -10 21 -17 31
-15 10 1 19 8 21 14 2 7 -3 19 -12 28 -9 9 -20 16 -24 16z"/>
<path d="M1177 880 c-8 0 -31 -25 -52 -56 -39 -56 -39 -56 -16 -75 13 -11 31
-19 40 -19 9 0 22 5 29 12 7 7 12 39 12 75 0 46 -4 63 -13 63z"/>
</g>
</svg>
