<?xml version="1.0" standalone="no"?>
<!DOCTYPE svg PUBLIC "-//W3C//DTD SVG 20010904//EN"
 "http://www.w3.org/TR/2001/REC-SVG-20010904/DTD/svg10.dtd">
<svg version="1.0" xmlns="http://www.w3.org/2000/svg"
 width="128.000000pt" height="128.000000pt" viewBox="0 0 128.000000 128.000000"
 preserveAspectRatio="xMidYMid meet">
<metadata>
Created by potrace 1.16, written by Peter Selinger 2001-2019
</metadata>
<g transform="translate(0.000000,128.000000) scale(0.100000,-0.100000)"
fill="#000000" stroke="none">
<path d="M627 1260 c-7 -1 -25 -7 -42 -14 -16 -7 -66 -21 -110 -30 -44 -10
-90 -22 -103 -27 -12 -5 -25 -16 -29 -25 -4 -11 1 -22 13 -31 11 -8 32 -13 49
-10 17 2 36 2 43 0 6 -3 12 -11 12 -19 0 -8 -6 -24 -12 -37 -7 -12 -26 -37
-42 -54 -17 -18 -34 -33 -40 -33 -5 0 -37 -28 -70 -62 -34 -35 -81 -80 -106
-102 -24 -21 -55 -56 -67 -78 -13 -22 -23 -55 -23 -74 0 -19 4 -42 9 -52 5 -9
12 -25 15 -35 3 -9 17 -22 30 -27 18 -6 40 -4 83 11 32 12 66 27 75 36 9 8 25
13 35 11 14 -3 18 -13 17 -44 0 -30 -14 -64 -47 -122 -26 -45 -47 -88 -47 -97
0 -8 -11 -20 -24 -26 -14 -7 -27 -21 -30 -33 -3 -11 -30 -39 -60 -60 -39 -28
-60 -52 -72 -80 -9 -23 -18 -65 -21 -93 -6 -53 -6 -53 23 -53 16 0 58 15 94
33 45 23 70 43 80 64 8 17 27 44 41 60 15 18 25 40 25 58 -1 27 2 30 29 28 26
-2 32 3 46 35 9 20 21 49 27 63 9 24 17 27 81 33 39 4 92 4 118 0 26 -4 84
-24 128 -44 44 -21 106 -58 139 -84 32 -25 71 -65 86 -89 16 -23 50 -66 77
-96 44 -49 53 -54 100 -58 51 -5 51 -5 58 41 6 40 4 51 -14 70 -11 12 -21 30
-21 40 0 10 -9 33 -20 51 -11 17 -31 37 -45 43 -14 6 -25 16 -25 22 0 5 -19
19 -42 31 -24 12 -62 37 -85 55 -23 19 -48 34 -56 34 -9 0 -30 12 -47 27 -29
24 -35 25 -62 15 -25 -9 -35 -8 -66 11 -29 17 -59 23 -132 27 -95 5 -95 5 -92
35 2 16 7 34 11 40 4 5 16 35 26 66 13 41 15 60 7 74 -8 16 -4 27 20 58 28 35
32 37 47 22 10 -8 22 -15 28 -15 6 0 16 7 23 15 9 11 23 14 46 9 21 -4 50 0
81 12 26 9 56 24 66 32 9 8 17 23 17 32 0 10 -7 23 -15 30 -9 8 -50 14 -98 16
-45 1 -85 3 -89 3 -3 1 -12 17 -18 36 -6 18 -27 48 -46 65 -20 17 -39 44 -44
60 -7 25 -5 29 15 34 13 3 27 16 31 29 4 12 17 33 30 46 14 13 24 36 24 51 0
16 -7 30 -16 34 -9 3 -21 6 -27 6z m-177 -312 c22 -3 25 -8 28 -50 2 -28 -3
-59 -12 -75 -10 -21 -44 -44 -119 -82 -62 -32 -111 -52 -121 -48 -9 4 -16 18
-16 31 0 16 14 39 35 60 19 20 35 40 35 45 0 6 11 13 24 17 13 3 45 28 72 55
37 38 55 49 74 47z"/>
</g>
</svg>
