<?xml version="1.0" standalone="no"?>
<!DOCTYPE svg PUBLIC "-//W3C//DTD SVG 20010904//EN"
 "http://www.w3.org/TR/2001/REC-SVG-20010904/DTD/svg10.dtd">
<svg version="1.0" xmlns="http://www.w3.org/2000/svg"
 width="128.000000pt" height="128.000000pt" viewBox="0 0 128.000000 128.000000"
 preserveAspectRatio="xMidYMid meet">
<metadata>
Created by potrace 1.16, written by Peter Selinger 2001-2019
</metadata>
<g transform="translate(0.000000,128.000000) scale(0.100000,-0.100000)"
fill="#000000" stroke="none">
<path d="M818 1260 c-7 0 -20 -4 -28 -9 -8 -4 -37 -14 -65 -21 -27 -7 -62 -24
-77 -38 -21 -19 -37 -24 -80 -25 -29 0 -58 -4 -64 -9 -6 -4 -33 -15 -60 -23
-27 -8 -64 -15 -81 -15 -21 0 -41 -8 -55 -22 -15 -15 -41 -25 -78 -29 -30 -4
-81 -8 -112 -8 -31 -1 -59 -5 -62 -10 -3 -4 2 -15 12 -23 9 -9 26 -20 38 -26
11 -6 59 -16 105 -23 74 -10 90 -9 120 4 19 9 48 18 65 22 25 5 38 1 59 -18
24 -20 26 -26 16 -44 -6 -12 -11 -44 -11 -72 0 -49 0 -49 -61 -90 -34 -23 -73
-41 -88 -41 -15 0 -80 -13 -145 -29 -65 -17 -120 -32 -123 -35 -3 -2 -2 -14 2
-25 3 -11 20 -24 38 -30 18 -5 63 -12 100 -15 51 -5 76 -3 101 9 19 9 49 15
68 13 31 -3 33 -5 30 -38 -3 -29 -18 -51 -73 -110 -51 -55 -69 -81 -69 -102 0
-18 -8 -31 -23 -40 -13 -7 -45 -37 -70 -65 -46 -53 -46 -53 -46 -140 0 -60 5
-95 15 -110 9 -14 25 -23 40 -23 19 0 28 8 39 32 8 18 34 54 59 79 25 26 67
87 95 135 27 49 53 103 57 119 4 17 11 36 17 43 5 6 18 12 28 12 10 0 23 -9
29 -20 6 -11 20 -20 32 -20 12 0 29 7 38 15 15 14 24 14 81 0 35 -8 85 -22
111 -31 26 -9 64 -24 85 -35 21 -11 61 -38 89 -62 32 -26 68 -71 95 -117 24
-41 59 -92 78 -112 19 -23 43 -38 56 -38 12 0 30 9 40 20 10 11 20 35 21 53 2
17 6 48 10 68 4 24 1 46 -9 65 -8 16 -35 50 -59 76 -23 25 -66 61 -94 80 -28
19 -66 40 -85 47 -19 7 -72 29 -117 47 -77 31 -93 34 -191 34 -80 0 -112 4
-129 16 -12 8 -27 24 -33 35 -9 17 -7 25 9 42 11 12 22 34 25 48 4 14 16 46
27 73 21 47 21 47 88 41 50 -5 76 -3 104 9 21 9 57 16 82 16 28 0 51 6 61 16
10 11 14 25 11 40 -4 13 -10 34 -15 47 -5 14 -23 34 -38 45 -16 11 -40 23 -54
27 -18 4 -37 -2 -69 -24 -25 -17 -56 -31 -70 -30 -18 0 -32 10 -48 36 -16 25
-22 47 -20 76 2 23 9 43 18 48 8 4 41 19 73 34 50 23 67 26 140 23 82 -3 82
-3 81 41 -1 38 -7 49 -37 78 -20 18 -42 33 -49 33z"/>
<path d="M1091 790 c-8 0 -10 -7 -6 -20 4 -12 1 -27 -5 -35 -9 -11 -7 -16 9
-24 15 -8 23 -7 35 5 9 8 16 21 16 28 0 7 -8 20 -18 29 -10 10 -24 17 -31 17z"/>
</g>
</svg>
