<?xml version="1.0" standalone="no"?>
<!DOCTYPE svg PUBLIC "-//W3C//DTD SVG 20010904//EN"
 "http://www.w3.org/TR/2001/REC-SVG-20010904/DTD/svg10.dtd">
<svg version="1.0" xmlns="http://www.w3.org/2000/svg"
 width="56.000000pt" height="56.000000pt" viewBox="0 0 56.000000 56.000000"
 preserveAspectRatio="xMidYMid meet">
<metadata>
Created by potrace 1.16, written by Peter Selinger 2001-2019
</metadata>
<g transform="translate(0.000000,56.000000) scale(0.100000,-0.100000)"
fill="#000000" stroke="none">
<path d="M435 525 c-22 3 -47 1 -55 -5 -8 -5 -49 -24 -90 -41 -41 -17 -91 -38
-110 -46 -19 -8 -43 -19 -52 -24 -10 -5 -26 -9 -37 -9 -13 0 -21 8 -23 22 -2
13 -10 24 -18 26 -9 1 -24 -4 -35 -12 -16 -12 -18 -19 -10 -51 6 -21 17 -43
26 -48 12 -8 31 -5 70 10 30 11 77 26 104 33 28 7 59 13 70 14 18 1 20 -7 25
-89 4 -59 12 -100 23 -120 10 -16 31 -48 48 -70 17 -22 39 -55 51 -73 11 -17
26 -32 34 -32 7 0 23 18 34 39 10 22 31 48 45 59 14 11 25 27 25 36 0 9 -4 16
-9 16 -5 0 -11 -7 -15 -15 -3 -8 -15 -15 -26 -15 -12 0 -43 21 -71 47 -37 34
-53 59 -64 97 -9 32 -12 62 -7 80 6 23 19 33 72 55 36 14 68 30 72 36 4 5 8
18 8 27 0 10 -10 24 -22 32 -13 8 -41 18 -63 21z"/>
<path d="M550 350 c-5 0 -10 -9 -10 -20 0 -11 5 -20 10 -20 6 0 10 9 10 20 0
11 -4 20 -10 20z"/>
</g>
</svg>
