<?xml version="1.0" standalone="no"?>
<!DOCTYPE svg PUBLIC "-//W3C//DTD SVG 20010904//EN"
 "http://www.w3.org/TR/2001/REC-SVG-20010904/DTD/svg10.dtd">
<svg version="1.0" xmlns="http://www.w3.org/2000/svg"
 width="56.000000pt" height="56.000000pt" viewBox="0 0 56.000000 56.000000"
 preserveAspectRatio="xMidYMid meet">
<metadata>
Created by potrace 1.16, written by Peter Selinger 2001-2019
</metadata>
<g transform="translate(0.000000,56.000000) scale(0.100000,-0.100000)"
fill="#000000" stroke="none">
<path d="M263 560 c-35 0 -47 -9 -137 -100 -97 -98 -98 -99 -92 -137 4 -21 15
-46 25 -56 16 -16 20 -17 47 -4 16 8 45 20 64 27 19 6 42 14 51 17 9 3 19 -3
23 -13 3 -9 1 -44 -5 -77 -6 -33 -8 -71 -4 -85 3 -14 25 -42 48 -63 23 -21 52
-38 63 -39 12 0 27 -7 34 -15 7 -8 25 -15 41 -15 18 0 29 5 29 14 0 7 -10 28
-22 46 -13 19 -47 50 -76 71 -30 20 -58 41 -62 45 -6 6 -3 30 5 59 9 27 22 59
30 72 8 12 40 41 71 64 31 23 71 45 90 51 24 6 36 16 40 34 4 17 1 31 -10 42
-13 13 -21 14 -44 5 -15 -6 -88 -38 -162 -70 -74 -33 -143 -62 -152 -66 -9 -3
-19 0 -22 8 -3 8 26 45 69 89 41 42 79 76 85 76 5 0 10 5 10 10 0 6 -17 10
-37 10z"/>
</g>
</svg>
