<?xml version="1.0" standalone="no"?>
<!DOCTYPE svg PUBLIC "-//W3C//DTD SVG 20010904//EN"
 "http://www.w3.org/TR/2001/REC-SVG-20010904/DTD/svg10.dtd">
<svg version="1.0" xmlns="http://www.w3.org/2000/svg"
 width="56.000000pt" height="56.000000pt" viewBox="0 0 56.000000 56.000000"
 preserveAspectRatio="xMidYMid meet">
<metadata>
Created by potrace 1.16, written by Peter Selinger 2001-2019
</metadata>
<g transform="translate(0.000000,56.000000) scale(0.100000,-0.100000)"
fill="#000000" stroke="none">
<path d="M180 560 c-11 0 -20 -3 -20 -7 0 -5 -16 -25 -36 -45 -20 -21 -36 -50
-37 -65 -2 -20 4 -28 24 -33 20 -6 48 3 118 36 51 24 96 44 101 44 5 0 -6 -30
-25 -67 -20 -40 -40 -103 -49 -153 -9 -47 -16 -97 -16 -112 0 -15 7 -49 16
-75 9 -26 23 -56 32 -65 10 -12 30 -18 60 -18 24 0 59 7 78 16 19 9 34 24 34
33 0 10 -3 21 -6 24 -4 4 -19 -2 -34 -13 -16 -11 -41 -20 -57 -20 -17 0 -37 8
-45 18 -9 9 -20 39 -26 66 -6 27 -7 60 -2 75 5 14 14 62 21 106 7 44 19 91 28
105 8 14 30 42 48 63 18 20 33 41 33 45 0 4 -9 15 -20 25 -11 9 -25 17 -30 17
-6 0 -10 -4 -10 -9 0 -5 -12 -12 -26 -15 -14 -4 -59 -23 -100 -42 -40 -20 -81
-34 -91 -32 -14 3 -11 10 20 44 20 23 37 44 37 48 0 3 -9 6 -20 6z"/>
</g>
</svg>
