<?xml version="1.0" standalone="no"?>
<!DOCTYPE svg PUBLIC "-//W3C//DTD SVG 20010904//EN"
 "http://www.w3.org/TR/2001/REC-SVG-20010904/DTD/svg10.dtd">
<svg version="1.0" xmlns="http://www.w3.org/2000/svg"
 width="56.000000pt" height="56.000000pt" viewBox="0 0 56.000000 56.000000"
 preserveAspectRatio="xMidYMid meet">
<metadata>
Created by potrace 1.16, written by Peter Selinger 2001-2019
</metadata>
<g transform="translate(0.000000,56.000000) scale(0.100000,-0.100000)"
fill="#000000" stroke="none">
<path d="M490 530 c-14 0 -56 -22 -95 -48 -38 -27 -95 -59 -124 -71 -30 -13
-78 -30 -105 -38 -28 -8 -62 -21 -74 -30 -21 -13 -26 -13 -41 1 -10 9 -25 14
-35 10 -9 -3 -16 -13 -16 -20 0 -8 9 -33 20 -55 12 -22 27 -42 35 -46 8 -3 34
7 57 21 24 15 52 32 63 39 11 6 32 20 47 30 14 9 30 17 36 17 5 0 12 -27 14
-59 3 -43 12 -71 31 -100 17 -25 46 -50 76 -66 27 -13 52 -29 56 -34 3 -5 0
-14 -7 -20 -7 -6 -26 -22 -43 -36 -30 -25 -30 -25 40 -23 65 3 71 5 83 31 7
15 22 33 33 40 10 6 19 15 19 19 0 4 -12 19 -26 34 -15 14 -54 35 -88 45 -43
14 -71 31 -93 56 -25 28 -33 46 -33 74 0 34 6 43 51 79 28 22 57 40 66 40 8 0
39 12 69 26 42 20 54 30 54 49 0 15 -7 25 -22 29 -13 3 -34 6 -48 6z"/>
</g>
</svg>
