<?xml version="1.0" standalone="no"?>
<!DOCTYPE svg PUBLIC "-//W3C//DTD SVG 20010904//EN"
 "http://www.w3.org/TR/2001/REC-SVG-20010904/DTD/svg10.dtd">
<svg version="1.0" xmlns="http://www.w3.org/2000/svg"
 width="56.000000pt" height="56.000000pt" viewBox="0 0 56.000000 56.000000"
 preserveAspectRatio="xMidYMid meet">
<metadata>
Created by potrace 1.16, written by Peter Selinger 2001-2019
</metadata>
<g transform="translate(0.000000,56.000000) scale(0.100000,-0.100000)"
fill="#000000" stroke="none">
<path d="M481 560 c-9 -1 -21 -7 -28 -14 -6 -7 -32 -17 -57 -20 -25 -4 -59
-14 -76 -22 -17 -9 -38 -13 -46 -10 -9 3 -25 1 -37 -6 -12 -6 -61 -15 -110
-19 -48 -5 -92 -11 -97 -14 -5 -3 -7 -12 -3 -20 3 -8 20 -22 39 -31 26 -13 40
-14 62 -6 15 6 52 16 82 23 30 7 65 19 77 27 13 8 30 12 38 8 13 -5 14 -10 4
-28 -6 -13 -22 -34 -34 -48 -13 -14 -27 -50 -34 -84 -6 -33 -11 -83 -11 -113
0 -38 7 -68 26 -103 14 -27 32 -54 40 -61 8 -6 46 -14 84 -17 60 -4 70 -2 70
11 0 9 -14 27 -31 39 -16 13 -44 23 -60 24 -16 1 -35 7 -43 13 -8 7 -20 35
-26 62 -10 40 -10 67 0 127 7 41 17 86 23 99 5 12 18 25 28 28 10 3 32 19 50
36 17 16 39 29 49 29 10 0 28 9 41 19 22 17 22 21 10 45 -8 14 -21 26 -30 26z"/>
</g>
</svg>
