<?xml version="1.0" standalone="no"?>
<!DOCTYPE svg PUBLIC "-//W3C//DTD SVG 20010904//EN"
 "http://www.w3.org/TR/2001/REC-SVG-20010904/DTD/svg10.dtd">
<svg version="1.0" xmlns="http://www.w3.org/2000/svg"
 width="56.000000pt" height="56.000000pt" viewBox="0 0 56.000000 56.000000"
 preserveAspectRatio="xMidYMid meet">
<metadata>
Created by potrace 1.16, written by Peter Selinger 2001-2019
</metadata>
<g transform="translate(0.000000,56.000000) scale(0.100000,-0.100000)"
fill="#000000" stroke="none">
<path d="M85 560 c-33 0 -35 -2 -35 -35 0 -23 6 -37 19 -44 15 -9 22 -6 35 14
9 13 16 33 16 45 0 16 -6 20 -35 20z"/>
<path d="M356 560 c-8 0 -16 -4 -18 -8 -1 -5 -28 -26 -58 -49 -30 -22 -95 -62
-144 -88 -89 -48 -89 -48 -65 -66 13 -10 32 -19 42 -19 10 0 40 18 66 40 26
22 51 40 57 40 5 0 9 -42 9 -94 0 -51 5 -104 12 -117 6 -13 14 -40 18 -61 4
-25 16 -44 40 -62 18 -14 37 -26 42 -26 4 0 19 -12 32 -25 18 -19 33 -25 67
-25 30 0 44 4 44 13 0 8 -8 21 -18 30 -10 10 -22 17 -25 17 -4 0 -31 17 -62
37 -39 26 -61 50 -76 83 -15 31 -24 71 -27 127 -4 82 -4 82 58 148 63 65 63
65 42 85 -12 11 -28 20 -36 20z"/>
<path d="M186 80 c-1 0 -6 -3 -9 -7 -4 -3 -7 -21 -7 -40 0 -29 3 -33 25 -33
14 0 25 4 25 8 0 5 -7 23 -16 40 -8 18 -17 32 -18 32z"/>
</g>
</svg>
