<?xml version="1.0" standalone="no"?>
<!DOCTYPE svg PUBLIC "-//W3C//DTD SVG 20010904//EN"
 "http://www.w3.org/TR/2001/REC-SVG-20010904/DTD/svg10.dtd">
<svg version="1.0" xmlns="http://www.w3.org/2000/svg"
 width="56.000000pt" height="56.000000pt" viewBox="0 0 56.000000 56.000000"
 preserveAspectRatio="xMidYMid meet">
<metadata>
Created by potrace 1.16, written by Peter Selinger 2001-2019
</metadata>
<g transform="translate(0.000000,56.000000) scale(0.100000,-0.100000)"
fill="#000000" stroke="none">
<path d="M450 560 c-22 0 -40 -4 -40 -9 0 -5 -18 -16 -39 -25 -22 -8 -55 -29
-74 -46 -19 -16 -38 -30 -41 -30 -4 0 -19 -9 -35 -21 -15 -11 -47 -25 -70 -30
-36 -8 -48 -6 -75 11 -18 11 -36 17 -39 13 -4 -3 -7 -14 -7 -23 0 -10 12 -30
27 -44 23 -23 34 -27 68 -23 22 2 55 10 72 18 21 8 36 10 42 4 5 -6 1 -40 -11
-88 -19 -78 -19 -78 2 -142 13 -38 34 -78 52 -95 25 -26 37 -30 84 -30 30 0
54 4 54 9 0 5 -17 28 -38 50 -21 23 -43 41 -48 41 -6 0 -18 16 -27 35 -10 21
-17 60 -17 95 0 39 7 76 21 107 12 27 24 54 28 61 3 7 22 22 41 32 19 10 50
24 68 30 18 7 37 22 43 32 6 11 8 31 5 44 -5 20 -12 24 -46 24z"/>
</g>
</svg>
