<?xml version="1.0" standalone="no"?>
<!DOCTYPE svg PUBLIC "-//W3C//DTD SVG 20010904//EN"
 "http://www.w3.org/TR/2001/REC-SVG-20010904/DTD/svg10.dtd">
<svg version="1.0" xmlns="http://www.w3.org/2000/svg"
 width="56.000000pt" height="56.000000pt" viewBox="0 0 56.000000 56.000000"
 preserveAspectRatio="xMidYMid meet">
<metadata>
Created by potrace 1.16, written by Peter Selinger 2001-2019
</metadata>
<g transform="translate(0.000000,56.000000) scale(0.100000,-0.100000)"
fill="#000000" stroke="none">
<path d="M347 560 c-29 0 -36 -4 -39 -22 -2 -15 -11 -24 -26 -26 -16 -3 -21
-9 -18 -20 3 -9 8 -29 12 -44 3 -16 12 -28 20 -28 8 0 14 -8 14 -18 0 -10 -16
-26 -37 -37 -20 -11 -47 -31 -60 -45 -13 -14 -23 -30 -23 -36 0 -6 -7 -26 -16
-44 -16 -32 -16 -33 7 -51 13 -10 30 -19 37 -19 7 0 29 -12 49 -27 19 -15 49
-51 65 -80 16 -29 37 -53 45 -53 12 0 14 7 9 32 -3 18 -10 34 -14 38 -4 3 -14
18 -22 35 -8 16 -32 45 -53 65 -21 19 -44 47 -52 61 -13 24 -11 27 26 62 22
21 51 42 64 47 14 5 26 17 27 27 0 10 2 47 3 83 0 36 5 73 9 83 7 14 3 17 -27
17z"/>
<path d="M253 411 c-7 7 -13 7 -17 1 -3 -6 -1 -14 5 -17 5 -4 13 -4 16 -1 4 4
2 11 -4 17z"/>
</g>
</svg>
