<?xml version="1.0" standalone="no"?>
<!DOCTYPE svg PUBLIC "-//W3C//DTD SVG 20010904//EN"
 "http://www.w3.org/TR/2001/REC-SVG-20010904/DTD/svg10.dtd">
<svg version="1.0" xmlns="http://www.w3.org/2000/svg"
 width="56.000000pt" height="56.000000pt" viewBox="0 0 56.000000 56.000000"
 preserveAspectRatio="xMidYMid meet">
<metadata>
Created by potrace 1.16, written by Peter Selinger 2001-2019
</metadata>
<g transform="translate(0.000000,56.000000) scale(0.100000,-0.100000)"
fill="#000000" stroke="none">
<path d="M467 540 c-23 0 -48 -11 -78 -33 -24 -18 -56 -40 -71 -50 -15 -9 -32
-17 -38 -17 -6 0 -29 -9 -52 -20 -23 -11 -71 -23 -106 -26 -65 -7 -65 -7 -59
49 4 45 3 57 -8 57 -8 0 -21 -13 -30 -30 -8 -16 -15 -47 -15 -68 0 -27 7 -45
20 -57 15 -13 37 -19 73 -19 43 -1 67 7 135 43 56 28 87 40 94 33 6 -6 6 -16
0 -28 -5 -11 -13 -42 -17 -69 -3 -28 -1 -82 5 -120 7 -39 23 -89 36 -112 13
-23 34 -49 46 -58 13 -8 35 -15 50 -15 16 0 28 5 28 11 0 6 -18 31 -39 55 -21
25 -47 61 -56 81 -14 28 -16 52 -12 104 4 43 15 85 32 118 20 40 37 58 80 82
36 20 55 37 55 50 0 10 -9 23 -19 29 -11 5 -35 10 -54 10z"/>
</g>
</svg>
