<?xml version="1.0" standalone="no"?>
<!DOCTYPE svg PUBLIC "-//W3C//DTD SVG 20010904//EN"
 "http://www.w3.org/TR/2001/REC-SVG-20010904/DTD/svg10.dtd">
<svg version="1.0" xmlns="http://www.w3.org/2000/svg"
 width="56.000000pt" height="56.000000pt" viewBox="0 0 56.000000 56.000000"
 preserveAspectRatio="xMidYMid meet">
<metadata>
Created by potrace 1.16, written by Peter Selinger 2001-2019
</metadata>
<g transform="translate(0.000000,56.000000) scale(0.100000,-0.100000)"
fill="#000000" stroke="none">
<path d="M195 560 c-38 0 -45 -3 -45 -20 0 -11 -9 -34 -20 -52 -11 -18 -20
-50 -20 -70 0 -26 6 -40 18 -47 13 -7 26 -5 43 4 13 8 34 20 47 26 12 7 24 10
26 8 2 -2 1 -22 -3 -44 -4 -22 -2 -62 5 -90 6 -27 18 -68 26 -90 8 -23 28 -61
45 -85 17 -25 43 -57 58 -72 15 -16 38 -28 51 -28 17 0 24 6 24 19 0 10 -12
32 -28 48 -15 17 -38 44 -51 59 -13 16 -29 38 -36 49 -8 11 -23 49 -34 84 -12
35 -21 80 -21 99 0 22 9 47 26 69 14 18 38 40 54 48 16 8 40 15 55 15 17 0 25
5 25 18 0 10 -9 25 -20 35 -11 9 -31 17 -45 17 -14 0 -25 -4 -25 -8 0 -5 -36
-32 -80 -60 -43 -29 -86 -55 -95 -58 -10 -4 -15 0 -15 10 0 10 6 29 14 44 8
15 26 34 40 42 14 7 26 17 26 22 0 4 -20 8 -45 8z"/>
</g>
</svg>
