<?xml version="1.0" standalone="no"?>
<!DOCTYPE svg PUBLIC "-//W3C//DTD SVG 20010904//EN"
 "http://www.w3.org/TR/2001/REC-SVG-20010904/DTD/svg10.dtd">
<svg version="1.0" xmlns="http://www.w3.org/2000/svg"
 width="56.000000pt" height="56.000000pt" viewBox="0 0 56.000000 56.000000"
 preserveAspectRatio="xMidYMid meet">
<metadata>
Created by potrace 1.16, written by Peter Selinger 2001-2019
</metadata>
<g transform="translate(0.000000,56.000000) scale(0.100000,-0.100000)"
fill="#000000" stroke="none">
<path d="M233 559 c-36 -1 -54 -7 -73 -25 -14 -13 -51 -47 -82 -75 -50 -45
-57 -55 -51 -78 3 -14 12 -39 20 -54 12 -24 19 -28 41 -22 14 3 38 15 52 25
15 10 45 25 68 33 31 11 44 12 51 3 6 -7 3 -31 -9 -66 -11 -30 -19 -75 -20
-101 0 -25 6 -51 12 -57 7 -7 13 -20 13 -29 0 -9 12 -20 26 -24 15 -3 40 -16
55 -28 16 -11 54 -28 84 -37 30 -8 68 -18 83 -21 24 -5 28 -2 25 12 -1 9 -27
30 -56 45 -29 15 -61 35 -70 43 -9 9 -30 19 -45 22 -22 6 -28 4 -25 -6 1 -8
-2 -14 -7 -14 -6 0 -11 16 -12 35 -1 19 -5 52 -9 73 -4 23 0 61 11 102 10 36
24 70 31 76 8 6 14 17 14 23 0 7 12 24 28 38 15 14 42 34 60 44 21 12 32 26
32 41 0 20 -5 23 -40 23 -34 0 -46 -6 -74 -37 -19 -21 -70 -57 -115 -80 -44
-24 -85 -43 -90 -43 -6 0 0 18 11 40 12 22 36 49 54 59 18 11 37 29 44 40 10
20 8 21 -37 20z"/>
</g>
</svg>
