<?xml version="1.0" standalone="no"?>
<!DOCTYPE svg PUBLIC "-//W3C//DTD SVG 20010904//EN"
 "http://www.w3.org/TR/2001/REC-SVG-20010904/DTD/svg10.dtd">
<svg version="1.0" xmlns="http://www.w3.org/2000/svg"
 width="56.000000pt" height="56.000000pt" viewBox="0 0 56.000000 56.000000"
 preserveAspectRatio="xMidYMid meet">
<metadata>
Created by potrace 1.16, written by Peter Selinger 2001-2019
</metadata>
<g transform="translate(0.000000,56.000000) scale(0.100000,-0.100000)"
fill="#000000" stroke="none">
<path d="M262 560 c-11 0 -33 -21 -54 -52 -19 -29 -38 -60 -41 -69 -3 -9 -1
-21 5 -27 7 -7 19 -7 34 -2 18 7 24 6 24 -4 0 -8 -7 -27 -15 -42 -8 -16 -18
-44 -21 -63 -4 -18 -1 -59 5 -90 7 -31 22 -76 35 -101 12 -24 38 -57 57 -72
19 -15 49 -30 67 -34 22 -4 32 -3 32 6 0 6 -28 40 -62 73 -44 43 -67 75 -75
104 -7 24 -13 57 -13 74 0 18 5 50 11 73 6 22 16 52 22 66 6 14 22 38 34 53
13 16 23 35 23 42 0 7 -6 15 -12 18 -7 2 -23 -3 -35 -11 -20 -13 -23 -13 -23
1 0 9 5 19 10 22 6 3 10 13 10 21 0 8 -8 14 -18 14z"/>
</g>
</svg>
