<?xml version="1.0" standalone="no"?>
<!DOCTYPE svg PUBLIC "-//W3C//DTD SVG 20010904//EN"
 "http://www.w3.org/TR/2001/REC-SVG-20010904/DTD/svg10.dtd">
<svg version="1.0" xmlns="http://www.w3.org/2000/svg"
 width="56.000000pt" height="56.000000pt" viewBox="0 0 56.000000 56.000000"
 preserveAspectRatio="xMidYMid meet">
<metadata>
Created by potrace 1.16, written by Peter Selinger 2001-2019
</metadata>
<g transform="translate(0.000000,56.000000) scale(0.100000,-0.100000)"
fill="#000000" stroke="none">
<path d="M308 554 c-5 7 -8 7 -8 -1 0 -9 -16 -13 -44 -13 -26 0 -48 -6 -56
-15 -6 -8 -9 -19 -5 -25 3 -5 22 -10 40 -10 33 0 34 -1 23 -26 -9 -20 -9 -30
1 -46 11 -17 10 -23 -7 -42 -10 -11 -28 -32 -40 -45 -12 -14 -22 -29 -22 -34
0 -5 21 -52 47 -105 26 -53 50 -117 53 -142 4 -36 9 -46 26 -48 16 -2 23 4 28
21 3 14 3 40 0 59 -4 18 -20 61 -36 94 -16 34 -38 70 -49 79 -10 10 -19 24
-19 31 0 7 25 32 55 55 30 22 57 50 61 61 4 13 -1 27 -15 42 -12 12 -21 27
-21 33 0 6 7 13 15 17 8 3 15 12 15 21 0 9 -8 19 -17 22 -10 4 -21 11 -25 17z"/>
</g>
</svg>
