<?xml version="1.0" standalone="no"?>
<!DOCTYPE svg PUBLIC "-//W3C//DTD SVG 20010904//EN"
 "http://www.w3.org/TR/2001/REC-SVG-20010904/DTD/svg10.dtd">
<svg version="1.0" xmlns="http://www.w3.org/2000/svg"
 width="56.000000pt" height="56.000000pt" viewBox="0 0 56.000000 56.000000"
 preserveAspectRatio="xMidYMid meet">
<metadata>
Created by potrace 1.16, written by Peter Selinger 2001-2019
</metadata>
<g transform="translate(0.000000,56.000000) scale(0.100000,-0.100000)"
fill="#000000" stroke="none">
<path d="M275 560 c-33 0 -45 -4 -45 -15 0 -8 -9 -20 -20 -27 -11 -7 -20 -18
-20 -23 0 -6 -30 -38 -66 -71 -42 -37 -76 -80 -95 -116 -16 -32 -29 -63 -29
-70 1 -7 9 -23 18 -34 10 -12 28 -24 40 -28 15 -5 26 -1 39 14 10 12 31 28 47
37 24 12 30 13 37 1 5 -7 9 -24 9 -39 0 -14 13 -45 28 -70 16 -24 38 -51 48
-60 10 -9 44 -24 75 -33 30 -8 88 -19 127 -22 45 -4 72 -3 72 3 0 5 -8 17 -17
25 -10 9 -31 19 -48 23 -16 4 -52 7 -78 6 -44 -1 -51 3 -92 44 -39 38 -45 50
-45 85 0 23 -4 50 -10 60 -7 13 -6 19 6 24 8 3 13 10 9 16 -3 5 0 18 7 29 7
12 28 23 50 26 21 4 41 11 44 16 3 6 29 21 57 35 29 13 59 29 67 34 8 5 27 11
43 15 15 3 27 9 27 14 0 5 -18 16 -40 25 -22 9 -48 16 -58 16 -9 0 -60 -36
-112 -79 -52 -44 -125 -97 -161 -119 -37 -22 -77 -41 -90 -42 -13 -1 -30 -2
-36 -1 -7 1 -13 7 -13 14 1 6 54 66 118 133 64 66 125 124 135 127 9 4 17 11
17 17 0 5 -20 10 -45 10z"/>
</g>
</svg>
