<?xml version="1.0" standalone="no"?>
<!DOCTYPE svg PUBLIC "-//W3C//DTD SVG 20010904//EN"
 "http://www.w3.org/TR/2001/REC-SVG-20010904/DTD/svg10.dtd">
<svg version="1.0" xmlns="http://www.w3.org/2000/svg"
 width="56.000000pt" height="56.000000pt" viewBox="0 0 56.000000 56.000000"
 preserveAspectRatio="xMidYMid meet">
<metadata>
Created by potrace 1.16, written by Peter Selinger 2001-2019
</metadata>
<g transform="translate(0.000000,56.000000) scale(0.100000,-0.100000)"
fill="#000000" stroke="none">
<path d="M222 560 c-9 0 -24 -10 -32 -22 -8 -13 -18 -31 -22 -40 -4 -10 -12
-18 -18 -18 -6 0 -30 -13 -54 -29 -29 -21 -46 -41 -55 -69 -8 -22 -10 -45 -7
-51 4 -6 18 -11 31 -11 13 0 36 11 52 24 15 13 66 42 112 65 45 23 86 40 89
36 3 -3 -2 -19 -11 -35 -10 -16 -14 -31 -10 -33 5 -3 44 19 88 49 44 29 88 54
98 54 10 0 20 7 24 15 3 9 -2 22 -13 30 -11 8 -31 15 -45 15 -14 0 -47 -11
-73 -25 -26 -14 -53 -25 -60 -25 -7 0 -44 -16 -82 -35 -37 -19 -74 -35 -81
-35 -9 0 -7 9 5 32 9 17 32 45 50 61 17 16 32 33 32 38 0 5 -8 9 -18 9z"/>
<path d="M288 360 c-2 7 -10 -1 -17 -16 -12 -27 -11 -28 4 -12 10 9 16 21 13
28z"/>
<path d="M243 290 c-4 0 -13 -4 -19 -8 -6 -4 -14 -27 -17 -52 -5 -38 -1 -56
21 -100 24 -48 35 -59 97 -92 54 -28 82 -37 123 -37 38 -1 52 3 52 13 0 7 -11
21 -25 30 -13 9 -35 16 -48 16 -13 0 -36 13 -52 30 -16 17 -36 30 -45 30 -9 0
-27 12 -41 28 -14 15 -31 39 -38 53 -8 16 -10 39 -6 58 4 17 3 31 -2 31z"/>
</g>
</svg>
