<?xml version="1.0" standalone="no"?>
<!DOCTYPE svg PUBLIC "-//W3C//DTD SVG 20010904//EN"
 "http://www.w3.org/TR/2001/REC-SVG-20010904/DTD/svg10.dtd">
<svg version="1.0" xmlns="http://www.w3.org/2000/svg"
 width="56.000000pt" height="56.000000pt" viewBox="0 0 56.000000 56.000000"
 preserveAspectRatio="xMidYMid meet">
<metadata>
Created by potrace 1.16, written by Peter Selinger 2001-2019
</metadata>
<g transform="translate(0.000000,56.000000) scale(0.100000,-0.100000)"
fill="#000000" stroke="none">
<path d="M283 559 c-21 0 -40 -14 -73 -53 -25 -29 -71 -75 -103 -102 -49 -42
-57 -53 -55 -79 2 -20 9 -31 22 -33 11 -2 29 7 43 23 14 14 32 25 41 23 12 -3
16 -13 15 -33 -1 -17 -3 -83 -4 -148 -1 -100 1 -121 16 -137 15 -16 31 -20 87
-20 57 0 72 4 90 22 21 21 21 23 5 26 -10 2 -36 -3 -58 -12 -30 -12 -45 -14
-60 -5 -11 5 -24 22 -30 37 -6 14 -7 56 -4 92 3 36 11 83 16 105 6 22 15 50
20 63 7 17 4 27 -11 42 -14 14 -27 18 -50 14 -19 -4 -30 -2 -30 5 0 6 34 44
75 86 41 41 75 77 75 80 0 3 -12 5 -27 4z"/>
<path d="M488 159 c-7 -1 -32 -22 -56 -46 -23 -24 -40 -49 -36 -54 3 -6 21 0
42 13 20 12 42 29 49 38 7 8 13 23 13 33 0 9 -6 16 -12 16z"/>
</g>
</svg>
