<?xml version="1.0" standalone="no"?>
<!DOCTYPE svg PUBLIC "-//W3C//DTD SVG 20010904//EN"
 "http://www.w3.org/TR/2001/REC-SVG-20010904/DTD/svg10.dtd">
<svg version="1.0" xmlns="http://www.w3.org/2000/svg"
 width="56.000000pt" height="56.000000pt" viewBox="0 0 56.000000 56.000000"
 preserveAspectRatio="xMidYMid meet">
<metadata>
Created by potrace 1.16, written by Peter Selinger 2001-2019
</metadata>
<g transform="translate(0.000000,56.000000) scale(0.100000,-0.100000)"
fill="#000000" stroke="none">
<path d="M65 560 c-12 0 -15 -13 -15 -60 0 -33 6 -76 14 -95 8 -18 24 -39 36
-45 19 -10 28 -8 65 18 30 21 46 27 53 20 8 -8 6 -20 -5 -42 -10 -17 -17 -55
-17 -87 -1 -46 4 -63 29 -100 16 -24 43 -56 60 -70 26 -23 28 -29 16 -43 -7
-9 -20 -16 -29 -16 -9 0 -31 -5 -49 -12 -18 -7 -33 -16 -33 -20 0 -4 13 -8 30
-8 16 0 50 5 74 12 35 9 56 9 97 0 48 -11 56 -11 79 6 14 11 25 28 25 38 0 15
-9 20 -50 24 -27 3 -57 9 -65 14 -8 5 -31 22 -51 37 -27 22 -42 45 -59 95 -14
42 -20 79 -17 100 3 19 21 53 39 76 18 23 41 51 51 62 9 11 17 26 17 33 0 7
-9 17 -21 23 -17 10 -27 7 -57 -13 -20 -13 -61 -38 -90 -56 -29 -17 -60 -31
-70 -31 -11 0 -23 12 -30 33 -7 18 -12 50 -12 70 0 26 -4 37 -15 37z"/>
<path d="M245 560 c-9 0 -15 -5 -13 -11 2 -6 8 -10 13 -10 5 0 11 4 13 10 2 6
-4 11 -13 11z"/>
</g>
</svg>
