<?xml version="1.0" standalone="no"?>
<!DOCTYPE svg PUBLIC "-//W3C//DTD SVG 20010904//EN"
 "http://www.w3.org/TR/2001/REC-SVG-20010904/DTD/svg10.dtd">
<svg version="1.0" xmlns="http://www.w3.org/2000/svg"
 width="56.000000pt" height="56.000000pt" viewBox="0 0 56.000000 56.000000"
 preserveAspectRatio="xMidYMid meet">
<metadata>
Created by potrace 1.16, written by Peter Selinger 2001-2019
</metadata>
<g transform="translate(0.000000,56.000000) scale(0.100000,-0.100000)"
fill="#000000" stroke="none">
<path d="M389 560 c-5 0 -9 -4 -9 -8 0 -5 -10 -13 -22 -19 -13 -5 -54 -15 -93
-22 -38 -7 -82 -16 -97 -20 -14 -5 -38 -6 -52 -4 -20 4 -26 1 -26 -13 0 -9 7
-25 16 -35 9 -10 23 -15 32 -12 10 2 26 8 37 13 11 4 38 12 60 18 22 6 57 15
78 20 36 10 37 10 37 -19 0 -16 -16 -54 -36 -86 -31 -47 -38 -68 -42 -124 -4
-59 -1 -76 21 -122 14 -29 41 -70 60 -91 31 -32 41 -37 74 -34 30 2 38 7 38
23 0 15 -17 28 -62 50 -44 21 -67 39 -77 60 -9 20 -12 49 -9 85 3 34 19 83 40
127 19 40 50 91 68 115 34 43 34 43 4 70 -17 16 -34 28 -40 28z"/>
</g>
</svg>
