<?xml version="1.0" standalone="no"?>
<!DOCTYPE svg PUBLIC "-//W3C//DTD SVG 20010904//EN"
 "http://www.w3.org/TR/2001/REC-SVG-20010904/DTD/svg10.dtd">
<svg version="1.0" xmlns="http://www.w3.org/2000/svg"
 width="56.000000pt" height="56.000000pt" viewBox="0 0 56.000000 56.000000"
 preserveAspectRatio="xMidYMid meet">
<metadata>
Created by potrace 1.16, written by Peter Selinger 2001-2019
</metadata>
<g transform="translate(0.000000,56.000000) scale(0.100000,-0.100000)"
fill="#000000" stroke="none">
<path d="M358 559 c-13 0 -41 -12 -63 -27 -22 -15 -44 -33 -48 -39 -4 -7 -12
-13 -17 -13 -5 0 -43 -23 -84 -50 -42 -28 -76 -54 -76 -58 0 -4 -13 -13 -30
-20 -16 -8 -30 -20 -30 -28 0 -8 10 -14 26 -14 17 0 28 6 31 19 3 12 36 35 87
60 45 23 103 58 128 79 26 20 59 45 73 55 14 10 25 22 25 27 0 6 -10 10 -22 9z"/>
<path d="M453 480 c-5 0 -20 -8 -35 -18 -14 -9 -41 -29 -60 -43 -18 -14 -58
-39 -88 -55 -30 -15 -67 -36 -82 -46 -14 -10 -32 -18 -40 -18 -7 0 -24 -9 -38
-20 -14 -11 -33 -20 -42 -20 -10 0 -22 9 -28 20 -6 11 -17 20 -25 20 -8 0 -15
-7 -15 -16 0 -9 9 -29 21 -45 11 -16 29 -29 39 -29 11 0 36 9 57 21 21 11 42
25 47 30 6 5 15 9 22 9 6 0 16 -12 22 -27 6 -16 13 -48 15 -72 4 -29 14 -53
33 -72 15 -16 31 -29 35 -29 4 0 41 -16 82 -35 41 -19 91 -35 110 -35 35 0 35
0 21 29 -10 20 -25 32 -45 36 -17 4 -60 21 -96 37 -35 17 -70 40 -77 52 -8 11
-16 44 -19 71 -3 28 -8 57 -12 66 -4 12 4 21 29 33 19 9 41 22 48 29 8 6 24
18 36 25 12 6 31 12 41 12 11 0 23 5 26 10 3 6 20 10 36 10 17 0 39 5 50 10
10 6 19 16 19 23 0 7 -18 18 -40 25 -22 6 -43 12 -47 12z"/>
</g>
</svg>
