<?xml version="1.0" standalone="no"?>
<!DOCTYPE svg PUBLIC "-//W3C//DTD SVG 20010904//EN"
 "http://www.w3.org/TR/2001/REC-SVG-20010904/DTD/svg10.dtd">
<svg version="1.0" xmlns="http://www.w3.org/2000/svg"
 width="56.000000pt" height="56.000000pt" viewBox="0 0 56.000000 56.000000"
 preserveAspectRatio="xMidYMid meet">
<metadata>
Created by potrace 1.16, written by Peter Selinger 2001-2019
</metadata>
<g transform="translate(0.000000,56.000000) scale(0.100000,-0.100000)"
fill="#000000" stroke="none">
<path d="M198 560 c-18 0 -32 -17 -66 -77 -37 -67 -42 -84 -40 -128 2 -39 7
-51 21 -53 11 -2 31 7 45 21 15 13 40 32 55 42 27 17 28 17 42 -1 13 -18 15
-16 34 29 11 26 26 49 33 51 7 2 32 9 56 16 23 7 43 17 44 22 0 4 1 13 2 19 1
7 -19 18 -43 25 -44 13 -44 13 -95 -35 -28 -26 -70 -61 -92 -79 -23 -18 -49
-32 -58 -32 -9 0 -16 2 -16 5 0 3 23 42 50 86 28 44 50 82 50 85 0 2 -10 4
-22 4z"/>
<path d="M251 325 c-5 3 -13 -5 -17 -17 -4 -13 -7 -60 -6 -105 0 -79 2 -85 36
-132 20 -27 44 -52 53 -56 10 -3 46 -9 80 -12 62 -6 63 -6 63 19 0 17 -9 32
-26 43 -14 9 -54 21 -88 27 -51 9 -64 14 -74 36 -7 14 -12 63 -12 108 0 46 -4
85 -9 89z"/>
</g>
</svg>
