<?xml version="1.0" standalone="no"?>
<!DOCTYPE svg PUBLIC "-//W3C//DTD SVG 20010904//EN"
 "http://www.w3.org/TR/2001/REC-SVG-20010904/DTD/svg10.dtd">
<svg version="1.0" xmlns="http://www.w3.org/2000/svg"
 width="56.000000pt" height="56.000000pt" viewBox="0 0 56.000000 56.000000"
 preserveAspectRatio="xMidYMid meet">
<metadata>
Created by potrace 1.16, written by Peter Selinger 2001-2019
</metadata>
<g transform="translate(0.000000,56.000000) scale(0.100000,-0.100000)"
fill="#000000" stroke="none">
<path d="M148 499 c-7 0 -23 -13 -35 -29 -13 -15 -23 -33 -23 -39 0 -6 -9 -15
-21 -21 -11 -7 -28 -19 -38 -29 -10 -10 -20 -27 -23 -39 -3 -12 -1 -28 6 -37
10 -13 15 -11 46 15 19 16 61 42 95 58 33 16 73 35 88 41 15 6 37 11 47 11 11
0 20 -2 20 -4 0 -2 -10 -24 -21 -48 -12 -23 -26 -53 -30 -65 -5 -13 -13 -33
-18 -45 -5 -13 -13 -32 -17 -43 -4 -11 -9 -33 -11 -50 -2 -16 2 -42 7 -56 6
-14 29 -36 52 -47 22 -12 55 -22 73 -22 19 0 37 5 40 10 3 6 17 10 31 10 13 0
24 5 24 10 0 6 8 10 18 10 10 0 37 20 60 45 23 25 42 50 42 55 0 6 -6 10 -13
10 -7 0 -21 -11 -31 -25 -10 -13 -41 -36 -69 -50 -35 -17 -67 -25 -101 -25
-28 0 -59 7 -68 14 -10 7 -18 26 -18 41 0 16 5 45 11 64 6 20 15 44 20 53 5
10 9 22 9 26 0 5 18 42 40 82 22 40 40 79 40 86 0 8 -10 14 -24 14 -13 0 -52
-7 -87 -16 -34 -9 -80 -25 -101 -36 -21 -11 -42 -18 -45 -14 -4 3 3 16 15 29
12 13 22 31 22 40 0 9 -6 17 -12 16z"/>
</g>
</svg>
