<?xml version="1.0" standalone="no"?>
<!DOCTYPE svg PUBLIC "-//W3C//DTD SVG 20010904//EN"
 "http://www.w3.org/TR/2001/REC-SVG-20010904/DTD/svg10.dtd">
<svg version="1.0" xmlns="http://www.w3.org/2000/svg"
 width="56.000000pt" height="56.000000pt" viewBox="0 0 56.000000 56.000000"
 preserveAspectRatio="xMidYMid meet">
<metadata>
Created by potrace 1.16, written by Peter Selinger 2001-2019
</metadata>
<g transform="translate(0.000000,56.000000) scale(0.100000,-0.100000)"
fill="#000000" stroke="none">
<path d="M328 559 c-26 -1 -42 -11 -77 -50 -24 -26 -58 -57 -77 -68 -34 -20
-34 -20 -34 4 0 13 -5 27 -11 31 -6 3 -15 2 -19 -2 -5 -5 -6 -24 -2 -42 4 -21
17 -39 34 -50 27 -16 28 -15 59 13 32 30 32 30 25 -20 -4 -27 -8 -63 -10 -80
-2 -16 0 -55 5 -85 5 -30 12 -65 14 -77 3 -12 23 -39 46 -60 22 -21 54 -46 72
-55 17 -10 44 -18 59 -18 23 0 28 4 28 24 0 14 -10 30 -22 38 -13 8 -35 18
-50 22 -16 4 -39 23 -57 50 -17 24 -35 63 -40 87 -6 24 -11 69 -11 101 0 44 7
70 31 118 18 33 40 65 50 71 11 5 19 19 19 29 0 16 -7 20 -32 19z"/>
</g>
</svg>
