<?xml version="1.0" standalone="no"?>
<!DOCTYPE svg PUBLIC "-//W3C//DTD SVG 20010904//EN"
 "http://www.w3.org/TR/2001/REC-SVG-20010904/DTD/svg10.dtd">
<svg version="1.0" xmlns="http://www.w3.org/2000/svg"
 width="56.000000pt" height="56.000000pt" viewBox="0 0 56.000000 56.000000"
 preserveAspectRatio="xMidYMid meet">
<metadata>
Created by potrace 1.16, written by Peter Selinger 2001-2019
</metadata>
<g transform="translate(0.000000,56.000000) scale(0.100000,-0.100000)"
fill="#000000" stroke="none">
<path d="M318 560 c-15 -1 -46 -26 -92 -75 -37 -41 -82 -101 -98 -134 -22 -42
-29 -66 -24 -85 4 -15 13 -29 21 -33 9 -3 47 14 85 37 39 24 73 40 77 36 3 -3
1 -17 -5 -31 -7 -14 -12 -48 -12 -75 0 -27 5 -61 11 -77 5 -15 31 -49 57 -75
37 -38 53 -48 79 -48 33 0 33 0 20 33 -8 19 -29 41 -52 54 -21 12 -47 36 -56
55 -13 24 -16 46 -12 78 3 25 12 57 19 71 7 15 27 38 44 53 18 14 37 26 45 26
7 0 15 10 18 22 4 12 5 23 4 24 -1 1 -13 5 -27 9 -16 4 -32 0 -45 -10 -11 -8
-47 -33 -81 -54 -34 -21 -77 -45 -97 -52 -20 -7 -39 -10 -43 -7 -3 4 2 24 12
45 10 21 34 56 54 78 19 22 54 60 78 84 23 24 42 46 42 48 0 1 -10 3 -22 3z"/>
</g>
</svg>
