<?xml version="1.0" standalone="no"?>
<!DOCTYPE svg PUBLIC "-//W3C//DTD SVG 20010904//EN"
 "http://www.w3.org/TR/2001/REC-SVG-20010904/DTD/svg10.dtd">
<svg version="1.0" xmlns="http://www.w3.org/2000/svg"
 width="56.000000pt" height="56.000000pt" viewBox="0 0 56.000000 56.000000"
 preserveAspectRatio="xMidYMid meet">
<metadata>
Created by potrace 1.16, written by Peter Selinger 2001-2019
</metadata>
<g transform="translate(0.000000,56.000000) scale(0.100000,-0.100000)"
fill="#000000" stroke="none">
<path d="M323 559 c-25 -1 -45 -9 -59 -23 -11 -11 -36 -33 -54 -47 -28 -21
-31 -27 -18 -32 10 -3 27 3 41 14 14 10 32 19 40 19 8 0 21 7 28 16 7 9 23 20
36 25 13 5 23 13 23 19 0 5 -17 10 -37 9z"/>
<path d="M149 450 c-10 0 -26 -11 -35 -25 -9 -14 -22 -25 -29 -25 -7 0 -15
-16 -18 -37 -4 -20 -4 -40 -1 -45 3 -4 31 -8 63 -8 37 0 63 -5 70 -13 8 -10 7
-22 -1 -44 -6 -17 -8 -38 -3 -49 4 -10 7 -31 6 -45 -2 -20 8 -37 37 -64 22
-20 46 -50 52 -66 12 -27 16 -29 67 -29 50 0 54 2 51 21 -2 12 -10 26 -18 30
-8 5 -33 16 -55 26 -21 10 -54 37 -72 61 -33 43 -33 43 -10 75 12 17 29 37 37
44 13 10 12 14 -7 35 -13 14 -23 27 -23 31 0 4 5 7 11 7 6 0 23 9 37 21 26 20
26 20 -43 13 -39 -3 -85 -6 -104 -5 -19 1 -37 4 -40 7 -3 3 8 18 26 32 17 15
29 33 26 40 -3 6 -13 12 -24 12z"/>
<path d="M452 430 c-10 0 -27 -7 -38 -15 -10 -8 -29 -15 -41 -15 -13 0 -23 -4
-23 -8 0 -5 7 -23 16 -40 8 -18 22 -32 29 -32 7 0 20 3 29 6 9 3 16 15 16 25
0 12 7 19 19 19 11 0 22 3 24 8 3 4 1 17 -4 30 -5 12 -17 22 -27 22z"/>
<path d="M470 20 c-11 0 -20 -4 -20 -10 0 -5 9 -10 20 -10 11 0 20 5 20 10 0
6 -9 10 -20 10z"/>
</g>
</svg>
