<?xml version="1.0" standalone="no"?>
<!DOCTYPE svg PUBLIC "-//W3C//DTD SVG 20010904//EN"
 "http://www.w3.org/TR/2001/REC-SVG-20010904/DTD/svg10.dtd">
<svg version="1.0" xmlns="http://www.w3.org/2000/svg"
 width="56.000000pt" height="56.000000pt" viewBox="0 0 56.000000 56.000000"
 preserveAspectRatio="xMidYMid meet">
<metadata>
Created by potrace 1.16, written by Peter Selinger 2001-2019
</metadata>
<g transform="translate(0.000000,56.000000) scale(0.100000,-0.100000)"
fill="#000000" stroke="none">
<path d="M177 560 c-14 0 -41 -20 -75 -55 -45 -48 -52 -61 -52 -95 0 -25 6
-42 16 -48 10 -6 32 -1 65 15 27 13 54 21 60 17 6 -4 8 -19 5 -36 -3 -16 -1
-50 5 -76 6 -26 16 -67 22 -91 8 -36 21 -52 69 -90 32 -25 82 -58 111 -73 28
-16 60 -28 69 -28 10 0 18 6 18 14 0 8 -11 27 -24 43 -13 16 -46 39 -72 52
-27 14 -59 36 -72 50 -14 14 -33 40 -43 56 -12 19 -19 49 -19 83 0 33 7 67 20
91 10 21 27 41 36 45 10 4 37 19 60 34 24 15 43 35 44 44 0 10 -8 22 -18 27
-13 7 -36 1 -87 -20 -39 -17 -99 -43 -135 -59 -37 -16 -69 -24 -74 -20 -5 5
-2 19 7 33 9 14 32 35 51 47 20 12 36 26 36 31 0 5 -10 9 -23 9z"/>
</g>
</svg>
