<?xml version="1.0" standalone="no"?>
<!DOCTYPE svg PUBLIC "-//W3C//DTD SVG 20010904//EN"
 "http://www.w3.org/TR/2001/REC-SVG-20010904/DTD/svg10.dtd">
<svg version="1.0" xmlns="http://www.w3.org/2000/svg"
 width="56.000000pt" height="56.000000pt" viewBox="0 0 56.000000 56.000000"
 preserveAspectRatio="xMidYMid meet">
<metadata>
Created by potrace 1.16, written by Peter Selinger 2001-2019
</metadata>
<g transform="translate(0.000000,56.000000) scale(0.100000,-0.100000)"
fill="#000000" stroke="none">
<path d="M261 560 c-17 0 -31 -4 -31 -9 0 -5 -13 -14 -30 -21 -16 -7 -30 -19
-30 -26 0 -8 6 -14 14 -14 8 0 28 8 44 17 25 14 32 15 46 4 9 -7 16 -20 16
-27 0 -8 4 -14 9 -14 5 0 11 -7 15 -15 3 -9 -3 -23 -16 -33 -12 -9 -38 -32
-59 -50 -21 -19 -45 -48 -54 -64 -15 -31 -14 -32 42 -116 32 -47 63 -102 70
-121 7 -20 13 -44 13 -53 0 -12 8 -18 25 -18 22 0 25 4 25 33 0 18 -11 56 -24
83 -13 28 -45 75 -70 104 -25 30 -46 60 -46 67 0 7 36 42 80 79 44 36 80 70
80 75 0 4 -13 18 -30 31 -16 12 -30 29 -30 37 0 9 -7 24 -14 34 -8 10 -26 17
-45 17z"/>
</g>
</svg>
