<?xml version="1.0" standalone="no"?>
<!DOCTYPE svg PUBLIC "-//W3C//DTD SVG 20010904//EN"
 "http://www.w3.org/TR/2001/REC-SVG-20010904/DTD/svg10.dtd">
<svg version="1.0" xmlns="http://www.w3.org/2000/svg"
 width="56.000000pt" height="56.000000pt" viewBox="0 0 56.000000 56.000000"
 preserveAspectRatio="xMidYMid meet">
<metadata>
Created by potrace 1.16, written by Peter Selinger 2001-2019
</metadata>
<g transform="translate(0.000000,56.000000) scale(0.100000,-0.100000)"
fill="#000000" stroke="none">
<path d="M428 559 c-7 0 -21 -8 -30 -17 -9 -9 -36 -27 -60 -39 -24 -12 -62
-31 -86 -42 -23 -11 -65 -21 -92 -22 -29 -2 -55 3 -65 11 -11 9 -19 10 -27 2
-7 -7 -7 -20 -1 -39 5 -15 20 -33 33 -40 17 -9 33 -8 66 2 23 7 56 22 72 34
17 11 39 21 49 21 15 0 19 -8 20 -40 2 -29 11 -52 34 -81 32 -40 32 -42 21
-100 -7 -37 -7 -70 -1 -92 5 -18 25 -52 45 -75 19 -23 44 -42 54 -42 10 0 21
7 24 16 4 9 -1 29 -10 43 -9 14 -26 36 -36 48 -16 17 -19 31 -15 70 3 26 8 62
12 78 5 26 -1 37 -40 79 -25 26 -45 56 -45 65 0 10 9 27 21 39 11 13 38 34 60
47 21 14 39 30 39 36 0 6 -6 17 -14 25 -8 8 -21 14 -28 13z"/>
</g>
</svg>
