<?xml version="1.0" standalone="no"?>
<!DOCTYPE svg PUBLIC "-//W3C//DTD SVG 20010904//EN"
 "http://www.w3.org/TR/2001/REC-SVG-20010904/DTD/svg10.dtd">
<svg version="1.0" xmlns="http://www.w3.org/2000/svg"
 width="56.000000pt" height="56.000000pt" viewBox="0 0 56.000000 56.000000"
 preserveAspectRatio="xMidYMid meet">
<metadata>
Created by potrace 1.16, written by Peter Selinger 2001-2019
</metadata>
<g transform="translate(0.000000,56.000000) scale(0.100000,-0.100000)"
fill="#000000" stroke="none">
<path d="M270 560 c-22 0 -40 -4 -40 -9 0 -5 -16 -15 -36 -21 -19 -7 -38 -18
-41 -26 -3 -8 -21 -18 -42 -24 -20 -5 -51 -19 -69 -30 -32 -20 -33 -22 -19
-43 8 -12 21 -23 29 -25 9 -2 40 9 71 23 31 14 67 25 81 25 13 0 26 -6 28 -12
3 -7 -3 -25 -11 -40 -9 -15 -26 -30 -38 -33 -13 -3 -23 -11 -23 -18 0 -6 9
-25 20 -42 11 -16 25 -48 31 -70 6 -22 35 -70 65 -106 47 -59 60 -69 116 -88
34 -12 72 -21 84 -21 12 0 32 9 45 19 20 16 22 23 13 38 -6 10 -22 18 -35 19
-13 0 -44 6 -69 13 -33 10 -60 29 -103 73 -31 33 -60 71 -63 85 -4 14 -1 43 6
65 6 23 21 54 33 69 11 16 35 33 52 39 18 6 58 15 90 20 33 5 65 16 73 23 7 8
15 23 16 33 2 10 -1 24 -6 31 -6 8 -31 10 -78 6 -47 -4 -74 -2 -84 6 -10 8
-16 9 -21 1 -3 -5 -13 -10 -21 -10 -8 0 -14 7 -14 15 0 11 -11 15 -40 15z
m-40 -50 c6 0 10 -7 10 -15 0 -8 -4 -15 -10 -15 -5 0 -10 7 -10 15 0 8 5 15
10 15z"/>
</g>
</svg>
