<?xml version="1.0" standalone="no"?>
<!DOCTYPE svg PUBLIC "-//W3C//DTD SVG 20010904//EN"
 "http://www.w3.org/TR/2001/REC-SVG-20010904/DTD/svg10.dtd">
<svg version="1.0" xmlns="http://www.w3.org/2000/svg"
 width="56.000000pt" height="56.000000pt" viewBox="0 0 56.000000 56.000000"
 preserveAspectRatio="xMidYMid meet">
<metadata>
Created by potrace 1.16, written by Peter Selinger 2001-2019
</metadata>
<g transform="translate(0.000000,56.000000) scale(0.100000,-0.100000)"
fill="#000000" stroke="none">
<path d="M350 560 c-9 0 -22 -6 -30 -14 -8 -8 -50 -33 -93 -56 -42 -23 -84
-39 -92 -36 -8 3 -15 15 -15 27 0 11 -5 19 -12 17 -6 -2 -18 -29 -25 -59 -7
-30 -10 -68 -8 -86 3 -18 10 -35 16 -39 5 -3 25 6 44 20 18 14 36 26 40 26 3
0 23 12 45 26 21 14 44 24 50 22 6 -2 -4 -34 -25 -76 -19 -41 -35 -86 -35
-100 0 -15 11 -47 24 -72 20 -40 27 -46 64 -51 23 -3 45 -9 49 -13 4 -4 3 -13
-2 -20 -6 -8 -20 -28 -33 -45 -23 -31 -23 -31 0 -31 15 0 38 14 59 36 18 20
51 47 72 60 25 17 37 32 37 48 0 13 -6 28 -12 34 -7 5 -40 13 -73 17 -33 4
-72 14 -86 21 -16 8 -29 25 -32 42 -3 15 -2 45 3 66 5 21 21 52 37 68 15 17
47 39 69 49 23 11 45 26 48 35 4 11 -6 28 -31 50 -20 19 -44 34 -53 34z"/>
</g>
</svg>
