<?xml version="1.0" standalone="no"?>
<!DOCTYPE svg PUBLIC "-//W3C//DTD SVG 20010904//EN"
 "http://www.w3.org/TR/2001/REC-SVG-20010904/DTD/svg10.dtd">
<svg version="1.0" xmlns="http://www.w3.org/2000/svg"
 width="56.000000pt" height="56.000000pt" viewBox="0 0 56.000000 56.000000"
 preserveAspectRatio="xMidYMid meet">
<metadata>
Created by potrace 1.16, written by Peter Selinger 2001-2019
</metadata>
<g transform="translate(0.000000,56.000000) scale(0.100000,-0.100000)"
fill="#000000" stroke="none">
<path d="M310 537 c-17 2 -44 -12 -83 -42 -38 -29 -84 -53 -130 -67 -40 -13
-78 -22 -85 -22 -7 1 -12 -5 -10 -15 2 -10 19 -19 50 -25 36 -7 52 -6 67 5 10
8 47 33 80 57 33 23 66 42 72 42 8 0 9 -28 4 -94 -5 -65 -4 -96 4 -100 6 -4
11 -18 11 -32 0 -13 4 -32 9 -42 4 -9 16 -33 26 -52 10 -19 29 -47 42 -62 14
-14 53 -40 88 -57 34 -17 72 -31 84 -31 13 0 21 6 21 16 0 9 -8 23 -17 30 -10
7 -26 14 -36 14 -10 0 -37 13 -60 29 -23 16 -54 42 -69 58 -15 15 -34 50 -43
77 -13 38 -16 70 -11 140 3 50 7 109 8 131 3 36 1 40 -22 42z"/>
</g>
</svg>
