<?xml version="1.0" standalone="no"?>
<!DOCTYPE svg PUBLIC "-//W3C//DTD SVG 20010904//EN"
 "http://www.w3.org/TR/2001/REC-SVG-20010904/DTD/svg10.dtd">
<svg version="1.0" xmlns="http://www.w3.org/2000/svg"
 width="56.000000pt" height="56.000000pt" viewBox="0 0 56.000000 56.000000"
 preserveAspectRatio="xMidYMid meet">
<metadata>
Created by potrace 1.16, written by Peter Selinger 2001-2019
</metadata>
<g transform="translate(0.000000,56.000000) scale(0.100000,-0.100000)"
fill="#000000" stroke="none">
<path d="M135 560 c-14 0 -25 -3 -25 -8 0 -4 -14 -13 -30 -21 -20 -8 -39 -30
-56 -64 -21 -40 -24 -56 -17 -81 8 -29 13 -31 58 -34 28 -2 81 2 119 8 56 10
70 10 77 -1 5 -8 1 -18 -10 -26 -10 -7 -24 -32 -30 -57 -6 -25 -11 -62 -11
-83 0 -31 8 -47 45 -86 24 -26 51 -47 59 -47 8 0 21 3 30 6 9 3 16 14 16 23 0
9 -17 34 -39 55 -21 20 -44 54 -50 74 -10 31 -10 42 3 67 9 17 16 37 16 46 0
9 7 19 15 23 8 3 15 13 15 23 0 13 3 14 12 5 8 -8 17 -8 37 4 14 8 55 20 90
27 39 8 68 19 75 30 7 11 8 22 1 33 -6 8 -22 23 -37 32 -26 15 -30 15 -73 -6
-25 -12 -54 -22 -64 -22 -10 0 -30 -9 -44 -20 -14 -11 -37 -20 -50 -20 -14 0
-29 -4 -32 -10 -3 -5 -17 -10 -30 -10 -13 0 -27 -5 -30 -10 -4 -6 -14 -9 -23
-6 -10 2 -38 7 -64 11 -37 5 -48 10 -48 24 0 10 10 27 23 39 12 11 34 25 49
31 15 5 32 19 38 31 9 18 8 20 -15 20z"/>
<path d="M406 120 c-6 0 -20 -15 -31 -33 -11 -17 -21 -35 -23 -39 -2 -5 2 -8
10 -8 7 0 25 7 41 14 15 8 27 11 27 5 0 -5 -4 -9 -10 -9 -5 0 -10 -9 -10 -20
0 -15 7 -20 29 -20 16 0 34 7 41 15 11 14 15 14 29 1 13 -12 19 -12 34 -2 9 7
17 18 17 23 0 6 -15 18 -34 27 -19 9 -45 16 -59 16 -13 0 -30 7 -37 15 -7 8
-18 15 -24 15z"/>
</g>
</svg>
