<?xml version="1.0" standalone="no"?>
<!DOCTYPE svg PUBLIC "-//W3C//DTD SVG 20010904//EN"
 "http://www.w3.org/TR/2001/REC-SVG-20010904/DTD/svg10.dtd">
<svg version="1.0" xmlns="http://www.w3.org/2000/svg"
 width="56.000000pt" height="56.000000pt" viewBox="0 0 56.000000 56.000000"
 preserveAspectRatio="xMidYMid meet">
<metadata>
Created by potrace 1.16, written by Peter Selinger 2001-2019
</metadata>
<g transform="translate(0.000000,56.000000) scale(0.100000,-0.100000)"
fill="#000000" stroke="none">
<path d="M497 540 c-24 0 -40 -5 -43 -15 -4 -8 -23 -22 -43 -31 -20 -9 -45
-19 -56 -24 -11 -4 -33 -13 -50 -20 -16 -7 -39 -16 -50 -20 -11 -4 -33 -13
-48 -19 -15 -6 -58 -11 -95 -11 -38 0 -73 5 -79 11 -8 8 -13 8 -17 0 -4 -6 -4
-15 -1 -21 3 -5 21 -17 40 -26 22 -10 49 -14 72 -11 21 3 54 9 73 14 19 6 67
25 105 44 39 18 74 35 78 37 5 2 -3 -13 -17 -34 -14 -22 -33 -55 -42 -74 -9
-19 -20 -44 -24 -55 -5 -11 -11 -46 -14 -78 -4 -31 -3 -75 0 -98 4 -25 18 -51
35 -68 24 -25 37 -29 106 -33 43 -3 80 -4 83 -1 2 2 -6 6 -18 10 -12 3 -22 9
-22 14 0 5 -24 9 -53 9 -43 0 -58 5 -75 23 -19 20 -22 35 -22 110 0 47 5 99
11 114 6 15 21 47 32 71 11 23 35 60 54 81 20 24 54 48 88 62 36 15 51 25 43
31 -7 4 -30 8 -51 8z"/>
</g>
</svg>
