<?xml version="1.0" standalone="no"?>
<!DOCTYPE svg PUBLIC "-//W3C//DTD SVG 20010904//EN"
 "http://www.w3.org/TR/2001/REC-SVG-20010904/DTD/svg10.dtd">
<svg version="1.0" xmlns="http://www.w3.org/2000/svg"
 width="56.000000pt" height="56.000000pt" viewBox="0 0 56.000000 56.000000"
 preserveAspectRatio="xMidYMid meet">
<metadata>
Created by potrace 1.16, written by Peter Selinger 2001-2019
</metadata>
<g transform="translate(0.000000,56.000000) scale(0.100000,-0.100000)"
fill="#000000" stroke="none">
<path d="M508 560 c-14 -1 -35 -15 -53 -37 -16 -19 -47 -46 -67 -59 -20 -13
-48 -26 -62 -30 -14 -3 -30 -12 -37 -20 -6 -8 -24 -14 -39 -14 -15 0 -33 -7
-40 -15 -7 -8 -24 -15 -39 -15 -14 0 -45 -3 -69 -6 -28 -4 -48 -2 -58 7 -12
10 -18 9 -31 -4 -15 -15 -15 -18 2 -37 10 -11 31 -20 46 -20 15 0 30 -4 34
-10 3 -5 39 3 86 20 45 17 90 37 102 45 12 8 29 15 39 15 10 0 18 -5 18 -10 0
-6 -16 -34 -35 -63 -31 -45 -35 -59 -35 -113 0 -62 0 -62 44 -88 25 -14 52
-33 60 -42 9 -8 16 -26 16 -40 0 -22 4 -24 50 -24 49 0 49 0 40 26 -6 14 -14
34 -20 43 -5 10 -37 41 -70 67 -33 27 -60 57 -60 66 0 9 13 42 29 73 16 31 49
78 73 103 24 26 63 64 86 84 23 21 42 45 42 54 0 8 -6 22 -14 30 -8 8 -25 14
-38 14z"/>
</g>
</svg>
