<?xml version="1.0" standalone="no"?>
<!DOCTYPE svg PUBLIC "-//W3C//DTD SVG 20010904//EN"
 "http://www.w3.org/TR/2001/REC-SVG-20010904/DTD/svg10.dtd">
<svg version="1.0" xmlns="http://www.w3.org/2000/svg"
 width="56.000000pt" height="56.000000pt" viewBox="0 0 56.000000 56.000000"
 preserveAspectRatio="xMidYMid meet">
<metadata>
Created by potrace 1.16, written by Peter Selinger 2001-2019
</metadata>
<g transform="translate(0.000000,56.000000) scale(0.100000,-0.100000)"
fill="#000000" stroke="none">
<path d="M280 560 c-10 0 -21 -8 -24 -17 -3 -10 -5 -57 -3 -104 1 -59 -2 -91
-11 -102 -7 -9 -12 -28 -10 -44 2 -22 12 -32 46 -47 27 -12 45 -28 48 -42 4
-14 -3 -35 -18 -57 -12 -19 -45 -53 -73 -77 -27 -23 -54 -49 -58 -56 -5 -9 -3
-14 6 -14 7 0 36 15 63 32 27 18 68 51 91 73 28 27 43 52 48 78 5 27 3 44 -9
62 -10 14 -34 33 -54 43 -20 9 -39 18 -41 19 -2 1 5 19 14 40 10 21 21 61 23
89 2 29 -1 68 -8 88 -8 24 -18 36 -30 36z"/>
<path d="M300 50 c-3 0 -11 -5 -18 -12 -7 -7 -12 -18 -12 -25 0 -8 13 -13 35
-13 19 0 35 2 35 5 0 3 -8 14 -17 25 -10 11 -20 20 -23 20z"/>
</g>
</svg>
