<?xml version="1.0" standalone="no"?>
<!DOCTYPE svg PUBLIC "-//W3C//DTD SVG 20010904//EN"
 "http://www.w3.org/TR/2001/REC-SVG-20010904/DTD/svg10.dtd">
<svg version="1.0" xmlns="http://www.w3.org/2000/svg"
 width="56.000000pt" height="56.000000pt" viewBox="0 0 56.000000 56.000000"
 preserveAspectRatio="xMidYMid meet">
<metadata>
Created by potrace 1.16, written by Peter Selinger 2001-2019
</metadata>
<g transform="translate(0.000000,56.000000) scale(0.100000,-0.100000)"
fill="#000000" stroke="none">
<path d="M238 560 c-10 0 -18 -6 -18 -12 0 -7 7 -26 15 -41 10 -20 12 -34 5
-47 -5 -10 -12 -36 -15 -58 -2 -23 -5 -45 -6 -49 -1 -4 -1 -17 0 -29 0 -12 12
-38 26 -58 25 -37 25 -37 -5 -82 -16 -25 -30 -47 -30 -50 0 -3 -13 -19 -30
-37 -16 -18 -30 -38 -30 -44 0 -7 -4 -13 -9 -13 -5 0 -11 -9 -14 -20 -3 -13 0
-20 8 -20 8 0 46 30 85 67 40 37 78 80 86 95 8 15 14 42 14 60 -1 22 -11 45
-30 68 -17 19 -30 45 -30 57 0 13 6 23 13 23 7 0 33 -20 57 -45 29 -30 52 -45
65 -43 13 2 21 12 23 29 2 19 -5 33 -29 53 -17 15 -45 30 -60 33 -17 3 -30 13
-31 22 -1 9 -2 25 -3 36 -1 11 -10 39 -21 62 -12 27 -26 43 -36 43z"/>
</g>
</svg>
