<?xml version="1.0" standalone="no"?>
<!DOCTYPE svg PUBLIC "-//W3C//DTD SVG 20010904//EN"
 "http://www.w3.org/TR/2001/REC-SVG-20010904/DTD/svg10.dtd">
<svg version="1.0" xmlns="http://www.w3.org/2000/svg"
 width="56.000000pt" height="56.000000pt" viewBox="0 0 56.000000 56.000000"
 preserveAspectRatio="xMidYMid meet">
<metadata>
Created by potrace 1.16, written by Peter Selinger 2001-2019
</metadata>
<g transform="translate(0.000000,56.000000) scale(0.100000,-0.100000)"
fill="#000000" stroke="none">
<path d="M318 558 c-13 0 -43 -20 -67 -44 -43 -41 -44 -43 -31 -74 7 -18 12
-51 11 -73 -1 -23 4 -64 11 -92 7 -27 22 -63 35 -78 13 -16 23 -33 23 -38 0
-5 -7 -26 -15 -45 -8 -20 -34 -54 -57 -75 -43 -39 -43 -39 -10 -39 26 0 45 11
88 51 31 30 54 61 54 72 0 11 -7 37 -16 57 -9 20 -26 40 -38 46 -18 8 -21 17
-19 59 1 28 2 66 3 85 1 19 -1 47 -5 63 -4 16 -2 39 5 57 7 16 21 32 31 35 10
4 19 13 19 21 0 8 -9 13 -22 12z"/>
</g>
</svg>
