<?xml version="1.0" standalone="no"?>
<!DOCTYPE svg PUBLIC "-//W3C//DTD SVG 20010904//EN"
 "http://www.w3.org/TR/2001/REC-SVG-20010904/DTD/svg10.dtd">
<svg version="1.0" xmlns="http://www.w3.org/2000/svg"
 width="56.000000pt" height="56.000000pt" viewBox="0 0 56.000000 56.000000"
 preserveAspectRatio="xMidYMid meet">
<metadata>
Created by potrace 1.16, written by Peter Selinger 2001-2019
</metadata>
<g transform="translate(0.000000,56.000000) scale(0.100000,-0.100000)"
fill="#000000" stroke="none">
<path d="M341 560 c-29 0 -42 -6 -54 -22 -8 -13 -24 -32 -34 -43 -11 -11 -28
-34 -39 -50 -10 -16 -24 -44 -30 -62 -10 -28 -9 -43 9 -91 11 -31 28 -72 39
-90 10 -18 18 -47 17 -65 -1 -18 -4 -42 -7 -55 -4 -12 -20 -36 -35 -52 -29
-30 -29 -30 6 -30 27 0 41 7 60 29 13 16 27 45 31 64 4 22 0 53 -9 83 -9 27
-24 65 -33 84 -8 19 -18 61 -20 93 -4 58 -4 58 67 126 39 38 71 72 71 75 0 3
-17 6 -39 6z"/>
</g>
</svg>
