<?xml version="1.0" standalone="no"?>
<!DOCTYPE svg PUBLIC "-//W3C//DTD SVG 20010904//EN"
 "http://www.w3.org/TR/2001/REC-SVG-20010904/DTD/svg10.dtd">
<svg version="1.0" xmlns="http://www.w3.org/2000/svg"
 width="56.000000pt" height="56.000000pt" viewBox="0 0 56.000000 56.000000"
 preserveAspectRatio="xMidYMid meet">
<metadata>
Created by potrace 1.16, written by Peter Selinger 2001-2019
</metadata>
<g transform="translate(0.000000,56.000000) scale(0.100000,-0.100000)"
fill="#000000" stroke="none">
<path d="M293 560 c-20 0 -23 -5 -23 -39 0 -22 5 -43 10 -46 6 -3 10 -20 10
-36 0 -17 -14 -51 -35 -82 -19 -28 -35 -59 -35 -67 0 -9 7 -26 16 -38 8 -12
12 -22 9 -22 -3 0 -1 -9 5 -20 6 -11 17 -20 26 -20 8 0 17 7 21 16 3 8 -2 32
-12 54 -17 38 -17 38 19 97 27 45 36 69 36 104 0 25 -6 57 -12 72 -9 17 -21
27 -35 27z"/>
<path d="M401 400 c-11 0 -22 -4 -26 -9 -3 -5 -1 -12 5 -16 5 -3 10 -14 10
-24 0 -10 9 -26 20 -36 19 -17 21 -17 40 0 11 10 20 22 20 27 0 5 -11 14 -25
20 -14 6 -25 17 -25 25 0 7 -9 13 -19 13z"/>
<path d="M300 177 c-8 1 -40 -23 -70 -55 -31 -31 -73 -66 -94 -77 -22 -11 -41
-26 -44 -33 -2 -8 7 -12 27 -12 16 0 32 4 35 9 3 4 27 16 53 26 26 10 63 30
80 44 27 22 33 32 30 61 -1 22 -8 36 -17 37z"/>
</g>
</svg>
