<?xml version="1.0" standalone="no"?>
<!DOCTYPE svg PUBLIC "-//W3C//DTD SVG 20010904//EN"
 "http://www.w3.org/TR/2001/REC-SVG-20010904/DTD/svg10.dtd">
<svg version="1.0" xmlns="http://www.w3.org/2000/svg"
 width="56.000000pt" height="56.000000pt" viewBox="0 0 56.000000 56.000000"
 preserveAspectRatio="xMidYMid meet">
<metadata>
Created by potrace 1.16, written by Peter Selinger 2001-2019
</metadata>
<g transform="translate(0.000000,56.000000) scale(0.100000,-0.100000)"
fill="#000000" stroke="none">
<path d="M311 560 c-27 0 -31 -5 -45 -54 -9 -30 -16 -75 -16 -101 0 -25 -5
-55 -10 -65 -7 -13 -6 -27 2 -47 7 -15 23 -41 35 -56 13 -16 23 -35 23 -42 0
-8 -7 -36 -16 -62 -9 -28 -33 -66 -57 -90 -41 -43 -41 -43 -14 -43 17 0 42 13
66 35 21 20 49 56 60 80 12 25 21 58 21 74 0 17 -13 53 -30 81 -26 44 -30 61
-30 126 0 55 5 86 20 116 11 23 20 43 20 45 0 2 -13 3 -29 3z"/>
</g>
</svg>
