<?xml version="1.0" standalone="no"?>
<!DOCTYPE svg PUBLIC "-//W3C//DTD SVG 20010904//EN"
 "http://www.w3.org/TR/2001/REC-SVG-20010904/DTD/svg10.dtd">
<svg version="1.0" xmlns="http://www.w3.org/2000/svg"
 width="56.000000pt" height="56.000000pt" viewBox="0 0 56.000000 56.000000"
 preserveAspectRatio="xMidYMid meet">
<metadata>
Created by potrace 1.16, written by Peter Selinger 2001-2019
</metadata>
<g transform="translate(0.000000,56.000000) scale(0.100000,-0.100000)"
fill="#000000" stroke="none">
<path d="M225 560 c-8 0 -15 -7 -15 -15 0 -8 7 -15 15 -15 8 0 15 7 15 15 0 8
-7 15 -15 15z"/>
<path d="M225 510 c-9 0 -15 -9 -15 -24 0 -14 5 -28 10 -31 6 -3 10 -17 10
-30 0 -13 -4 -27 -10 -30 -5 -3 -9 -34 -9 -68 1 -34 -2 -74 -6 -89 -4 -15 -4
-36 0 -47 3 -12 14 -21 23 -21 8 0 26 9 38 21 12 12 27 18 33 14 6 -3 11 -17
11 -30 0 -13 -10 -41 -22 -64 -12 -22 -19 -43 -16 -47 4 -3 15 -3 25 0 10 3
28 22 40 41 13 19 23 48 23 64 0 21 -10 38 -36 60 -28 26 -39 30 -50 20 -11
-9 -14 -8 -15 2 0 8 -2 42 -4 77 -3 53 -1 66 16 80 10 9 19 22 19 28 0 7 -11
21 -25 32 -14 11 -25 25 -25 31 0 6 -7 11 -15 11z"/>
</g>
</svg>
