<?xml version="1.0" standalone="no"?>
<!DOCTYPE svg PUBLIC "-//W3C//DTD SVG 20010904//EN"
 "http://www.w3.org/TR/2001/REC-SVG-20010904/DTD/svg10.dtd">
<svg version="1.0" xmlns="http://www.w3.org/2000/svg"
 width="56.000000pt" height="56.000000pt" viewBox="0 0 56.000000 56.000000"
 preserveAspectRatio="xMidYMid meet">
<metadata>
Created by potrace 1.16, written by Peter Selinger 2001-2019
</metadata>
<g transform="translate(0.000000,56.000000) scale(0.100000,-0.100000)"
fill="#000000" stroke="none">
<path d="M326 560 c-8 0 -17 -8 -20 -18 -4 -10 -2 -39 3 -65 4 -26 5 -64 0
-84 -4 -21 -11 -50 -14 -64 -5 -20 0 -32 29 -61 26 -26 34 -41 29 -55 -4 -10
-32 -42 -62 -70 -31 -29 -79 -70 -108 -90 -29 -21 -52 -41 -53 -45 0 -5 7 -8
15 -8 8 0 31 11 51 25 20 14 46 25 57 25 11 0 48 24 82 53 35 28 71 66 81 84
17 30 17 34 1 67 -9 19 -30 42 -47 51 -23 12 -30 21 -25 33 4 9 11 33 16 52 5
19 6 54 3 78 -4 23 -10 45 -15 48 -5 3 -9 14 -9 25 0 10 -6 19 -14 19z"/>
</g>
</svg>
