<?xml version="1.0" standalone="no"?>
<!DOCTYPE svg PUBLIC "-//W3C//DTD SVG 20010904//EN"
 "http://www.w3.org/TR/2001/REC-SVG-20010904/DTD/svg10.dtd">
<svg version="1.0" xmlns="http://www.w3.org/2000/svg"
 width="56.000000pt" height="56.000000pt" viewBox="0 0 56.000000 56.000000"
 preserveAspectRatio="xMidYMid meet">
<metadata>
Created by potrace 1.16, written by Peter Selinger 2001-2019
</metadata>
<g transform="translate(0.000000,56.000000) scale(0.100000,-0.100000)"
fill="#000000" stroke="none">
<path d="M247 560 c-27 0 -34 -5 -46 -32 -8 -18 -24 -48 -36 -66 -20 -30 -22
-42 -17 -125 3 -50 11 -106 18 -124 8 -17 17 -34 22 -37 5 -3 30 6 57 19 27
14 58 25 70 25 12 0 24 -3 28 -6 3 -4 -3 -24 -14 -46 -13 -25 -26 -38 -37 -36
-11 2 -18 -5 -20 -21 -2 -13 -12 -39 -23 -58 -10 -18 -19 -38 -19 -43 0 -6 11
-10 25 -10 15 0 31 9 41 25 9 14 22 25 29 25 6 0 26 7 43 16 18 8 32 19 32 24
0 4 -6 13 -14 20 -13 10 -12 17 6 51 17 32 19 45 10 64 -6 13 -25 31 -43 40
-29 16 -34 15 -85 -6 -30 -12 -57 -19 -60 -17 -2 3 -7 30 -11 59 -3 30 -9 59
-13 64 -4 6 -10 25 -13 42 -5 26 -2 35 13 43 10 5 29 9 42 7 20 -2 23 3 26 33
2 19 8 39 13 45 5 5 9 13 9 17 0 4 -15 8 -33 8z"/>
</g>
</svg>
