<?xml version="1.0" standalone="no"?>
<!DOCTYPE svg PUBLIC "-//W3C//DTD SVG 20010904//EN"
 "http://www.w3.org/TR/2001/REC-SVG-20010904/DTD/svg10.dtd">
<svg version="1.0" xmlns="http://www.w3.org/2000/svg"
 width="56.000000pt" height="56.000000pt" viewBox="0 0 56.000000 56.000000"
 preserveAspectRatio="xMidYMid meet">
<metadata>
Created by potrace 1.16, written by Peter Selinger 2001-2019
</metadata>
<g transform="translate(0.000000,56.000000) scale(0.100000,-0.100000)"
fill="#000000" stroke="none">
<path d="M177 560 c-5 0 -6 -8 -2 -17 4 -10 9 -34 12 -54 5 -33 3 -37 -25 -47
-17 -6 -37 -21 -46 -34 -13 -20 -13 -31 -1 -88 8 -36 14 -102 15 -147 0 -45 4
-85 10 -88 5 -3 22 8 37 24 16 17 44 50 63 73 19 23 46 52 59 65 13 13 29 23
35 23 7 0 17 -5 24 -12 7 -7 12 -25 12 -41 0 -21 -14 -42 -58 -85 -32 -31 -78
-74 -102 -94 -45 -37 -45 -37 -17 -37 16 -1 43 9 60 20 18 12 67 58 109 103
57 60 78 88 78 108 0 17 -13 40 -34 62 -28 31 -40 36 -78 36 -38 0 -49 -5 -75
-35 -17 -19 -40 -35 -50 -35 -16 0 -21 12 -29 65 -6 43 -6 69 0 75 6 6 25 10
44 10 18 0 42 5 53 10 10 6 19 17 19 25 0 8 -23 37 -52 65 -28 27 -56 50 -61
50z"/>
</g>
</svg>
