<?xml version="1.0" standalone="no"?>
<!DOCTYPE svg PUBLIC "-//W3C//DTD SVG 20010904//EN"
 "http://www.w3.org/TR/2001/REC-SVG-20010904/DTD/svg10.dtd">
<svg version="1.0" xmlns="http://www.w3.org/2000/svg"
 width="56.000000pt" height="56.000000pt" viewBox="0 0 56.000000 56.000000"
 preserveAspectRatio="xMidYMid meet">
<metadata>
Created by potrace 1.16, written by Peter Selinger 2001-2019
</metadata>
<g transform="translate(0.000000,56.000000) scale(0.100000,-0.100000)"
fill="#000000" stroke="none">
<path d="M296 560 c-19 0 -25 -10 -39 -67 -10 -38 -20 -89 -23 -116 -4 -44 -2
-50 26 -73 25 -22 30 -33 30 -70 0 -24 -4 -52 -9 -62 -5 -9 -14 -28 -20 -42
-5 -14 -24 -49 -40 -77 -17 -29 -26 -53 -22 -53 5 0 16 3 25 6 9 3 16 12 16
18 0 7 12 23 26 37 14 13 34 42 44 64 10 22 25 57 34 79 9 21 16 45 16 53 0 9
-18 37 -41 64 -36 43 -39 50 -28 71 7 13 18 50 25 82 7 33 10 65 7 73 -3 7
-15 13 -27 13z"/>
</g>
</svg>
