<?xml version="1.0" standalone="no"?>
<!DOCTYPE svg PUBLIC "-//W3C//DTD SVG 20010904//EN"
 "http://www.w3.org/TR/2001/REC-SVG-20010904/DTD/svg10.dtd">
<svg version="1.0" xmlns="http://www.w3.org/2000/svg"
 width="56.000000pt" height="56.000000pt" viewBox="0 0 56.000000 56.000000"
 preserveAspectRatio="xMidYMid meet">
<metadata>
Created by potrace 1.16, written by Peter Selinger 2001-2019
</metadata>
<g transform="translate(0.000000,56.000000) scale(0.100000,-0.100000)"
fill="#000000" stroke="none">
<path d="M280 560 c-4 0 -12 -11 -18 -25 -10 -21 -8 -31 8 -57 14 -24 18 -42
13 -70 -3 -24 -19 -53 -39 -75 -19 -20 -34 -42 -34 -49 0 -6 18 -28 39 -47 22
-20 54 -43 70 -52 17 -8 31 -22 31 -30 0 -8 -5 -15 -10 -15 -6 0 -33 -16 -61
-35 -28 -19 -67 -37 -87 -41 -20 -4 -48 -15 -61 -25 -13 -11 -30 -19 -37 -19
-8 0 -14 -4 -14 -10 0 -5 21 -10 48 -10 26 0 56 7 66 15 11 8 29 15 40 15 12
0 50 11 86 24 36 13 81 30 100 37 19 6 41 13 48 15 6 2 12 16 12 32 0 18 -10
38 -28 55 -16 15 -50 35 -78 45 -27 10 -59 24 -71 32 -13 8 -23 20 -23 25 0 6
23 37 50 70 30 35 50 69 50 83 0 16 -16 39 -47 68 -26 24 -50 44 -53 44z"/>
</g>
</svg>
