<?xml version="1.0" standalone="no"?>
<!DOCTYPE svg PUBLIC "-//W3C//DTD SVG 20010904//EN"
 "http://www.w3.org/TR/2001/REC-SVG-20010904/DTD/svg10.dtd">
<svg version="1.0" xmlns="http://www.w3.org/2000/svg"
 width="56.000000pt" height="56.000000pt" viewBox="0 0 56.000000 56.000000"
 preserveAspectRatio="xMidYMid meet">
<metadata>
Created by potrace 1.16, written by Peter Selinger 2001-2019
</metadata>
<g transform="translate(0.000000,56.000000) scale(0.100000,-0.100000)"
fill="#000000" stroke="none">
<path d="M304 560 c-44 0 -44 0 -38 -42 4 -24 11 -51 15 -60 5 -9 6 -31 3 -50
-4 -18 -12 -40 -18 -48 -7 -8 -18 -28 -24 -43 -7 -15 -12 -39 -12 -52 0 -16
10 -31 28 -42 15 -10 30 -22 34 -28 4 -5 5 -20 3 -32 -3 -13 -7 -34 -10 -48
-3 -14 -23 -45 -45 -68 -40 -42 -40 -42 6 -45 37 -3 52 2 80 23 34 26 34 26
34 111 0 72 -4 91 -21 116 -22 30 -22 31 -5 102 10 39 20 86 23 104 3 17 2 48
-1 67 -7 34 -8 35 -52 35z"/>
</g>
</svg>
