<?xml version="1.0" standalone="no"?>
<!DOCTYPE svg PUBLIC "-//W3C//DTD SVG 20010904//EN"
 "http://www.w3.org/TR/2001/REC-SVG-20010904/DTD/svg10.dtd">
<svg version="1.0" xmlns="http://www.w3.org/2000/svg"
 width="56.000000pt" height="56.000000pt" viewBox="0 0 56.000000 56.000000"
 preserveAspectRatio="xMidYMid meet">
<metadata>
Created by potrace 1.16, written by Peter Selinger 2001-2019
</metadata>
<g transform="translate(0.000000,56.000000) scale(0.100000,-0.100000)"
fill="#000000" stroke="none">
<path d="M311 560 c-27 0 -29 -3 -44 -72 -8 -40 -20 -109 -25 -153 -10 -80
-10 -80 26 -154 36 -74 36 -74 -21 -128 -56 -51 -57 -53 -30 -53 16 0 46 12
68 26 22 15 48 36 57 48 10 11 18 32 18 45 0 13 -11 38 -23 55 -13 17 -31 44
-39 60 -14 27 -14 33 5 74 16 38 18 58 13 117 -5 58 -4 75 9 85 8 7 15 21 15
31 0 14 -7 19 -29 19z"/>
</g>
</svg>
