<?xml version="1.0" standalone="no"?>
<!DOCTYPE svg PUBLIC "-//W3C//DTD SVG 20010904//EN"
 "http://www.w3.org/TR/2001/REC-SVG-20010904/DTD/svg10.dtd">
<svg version="1.0" xmlns="http://www.w3.org/2000/svg"
 width="56.000000pt" height="56.000000pt" viewBox="0 0 56.000000 56.000000"
 preserveAspectRatio="xMidYMid meet">
<metadata>
Created by potrace 1.16, written by Peter Selinger 2001-2019
</metadata>
<g transform="translate(0.000000,56.000000) scale(0.100000,-0.100000)"
fill="#000000" stroke="none">
<path d="M311 560 c-11 0 -23 -9 -26 -20 -3 -11 -10 -20 -15 -20 -5 0 -16 -14
-24 -32 -9 -17 -16 -39 -16 -49 0 -10 5 -30 12 -44 9 -19 9 -28 0 -37 -7 -7
-12 -31 -12 -54 0 -24 -4 -46 -10 -49 -5 -3 -10 -17 -10 -30 0 -13 6 -37 12
-52 7 -15 25 -41 41 -57 20 -20 27 -35 23 -50 -3 -12 -9 -31 -12 -44 -5 -18
-2 -22 19 -22 13 0 30 6 36 14 7 8 10 37 9 67 -3 47 -6 54 -26 57 -12 2 -26
11 -31 20 -5 9 -12 32 -16 51 -4 18 -3 43 3 55 5 11 14 37 21 57 6 19 11 47
11 62 0 14 -4 29 -10 32 -5 3 -10 12 -10 20 0 8 11 31 25 51 14 20 25 45 25
55 0 12 -7 19 -19 19z"/>
</g>
</svg>
