<?xml version="1.0" standalone="no"?>
<!DOCTYPE svg PUBLIC "-//W3C//DTD SVG 20010904//EN"
 "http://www.w3.org/TR/2001/REC-SVG-20010904/DTD/svg10.dtd">
<svg version="1.0" xmlns="http://www.w3.org/2000/svg"
 width="56.000000pt" height="56.000000pt" viewBox="0 0 56.000000 56.000000"
 preserveAspectRatio="xMidYMid meet">
<metadata>
Created by potrace 1.16, written by Peter Selinger 2001-2019
</metadata>
<g transform="translate(0.000000,56.000000) scale(0.100000,-0.100000)"
fill="#000000" stroke="none">
<path d="M283 560 c-33 0 -42 -6 -66 -40 -28 -40 -28 -40 12 -78 40 -37 40
-37 26 -102 -13 -61 -12 -68 7 -107 12 -24 32 -53 45 -65 13 -12 23 -26 23
-33 0 -6 -12 -18 -27 -27 -16 -9 -45 -33 -67 -52 -21 -20 -42 -36 -47 -36 -4
0 -11 -5 -15 -11 -5 -9 7 -10 42 -4 27 4 54 10 60 13 6 4 37 30 68 58 57 52
58 52 47 90 -6 21 -29 56 -52 80 -37 38 -41 46 -34 76 4 18 7 50 7 71 0 25 -7
46 -21 61 -12 12 -21 32 -21 44 0 15 9 26 25 32 14 5 25 14 25 20 0 5 -17 10
-37 10z"/>
</g>
</svg>
