<?xml version="1.0" standalone="no"?>
<!DOCTYPE svg PUBLIC "-//W3C//DTD SVG 20010904//EN"
 "http://www.w3.org/TR/2001/REC-SVG-20010904/DTD/svg10.dtd">
<svg version="1.0" xmlns="http://www.w3.org/2000/svg"
 width="56.000000pt" height="56.000000pt" viewBox="0 0 56.000000 56.000000"
 preserveAspectRatio="xMidYMid meet">
<metadata>
Created by potrace 1.16, written by Peter Selinger 2001-2019
</metadata>
<g transform="translate(0.000000,56.000000) scale(0.100000,-0.100000)"
fill="#000000" stroke="none">
<path d="M272 560 c-24 0 -33 -7 -46 -34 -10 -21 -16 -60 -16 -99 0 -36 -4
-69 -10 -72 -5 -3 -10 -21 -10 -39 0 -24 11 -45 38 -77 21 -24 46 -57 55 -72
14 -21 17 -39 12 -75 -3 -26 -8 -57 -11 -69 -4 -20 0 -23 25 -23 24 0 30 5 36
33 3 17 9 50 11 72 3 25 -1 54 -11 79 -9 21 -37 60 -62 87 -46 49 -46 49 -29
100 9 28 16 72 16 98 0 26 7 56 16 69 15 21 14 22 -14 22z"/>
</g>
</svg>
