<?xml version="1.0" standalone="no"?>
<!DOCTYPE svg PUBLIC "-//W3C//DTD SVG 20010904//EN"
 "http://www.w3.org/TR/2001/REC-SVG-20010904/DTD/svg10.dtd">
<svg version="1.0" xmlns="http://www.w3.org/2000/svg"
 width="56.000000pt" height="56.000000pt" viewBox="0 0 56.000000 56.000000"
 preserveAspectRatio="xMidYMid meet">
<metadata>
Created by potrace 1.16, written by Peter Selinger 2001-2019
</metadata>
<g transform="translate(0.000000,56.000000) scale(0.100000,-0.100000)"
fill="#000000" stroke="none">
<path d="M411 560 c-25 0 -32 -5 -36 -27 -4 -16 -11 -47 -17 -71 -6 -23 -15
-45 -19 -48 -5 -3 -9 -19 -9 -37 0 -17 7 -51 16 -74 15 -40 15 -46 0 -86 -9
-23 -33 -60 -53 -81 -20 -21 -56 -51 -79 -67 -24 -16 -50 -29 -58 -29 -8 0
-20 -9 -26 -20 -10 -18 -8 -20 20 -20 17 0 39 9 50 20 11 11 27 20 36 20 9 0
18 -9 21 -20 3 -13 14 -20 28 -20 13 0 35 14 52 33 16 18 45 45 66 61 20 16
37 34 37 42 0 7 -4 16 -10 19 -5 3 -34 -17 -63 -44 -30 -28 -62 -51 -73 -51
-13 0 -2 16 43 63 33 34 66 72 72 84 6 12 11 39 11 61 0 26 -6 45 -20 57 -11
10 -20 29 -20 42 0 13 8 40 19 61 10 20 21 51 24 67 3 17 9 38 12 48 6 14 2
17 -24 17z"/>
</g>
</svg>
