<?xml version="1.0" standalone="no"?>
<!DOCTYPE svg PUBLIC "-//W3C//DTD SVG 20010904//EN"
 "http://www.w3.org/TR/2001/REC-SVG-20010904/DTD/svg10.dtd">
<svg version="1.0" xmlns="http://www.w3.org/2000/svg"
 width="56.000000pt" height="56.000000pt" viewBox="0 0 56.000000 56.000000"
 preserveAspectRatio="xMidYMid meet">
<metadata>
Created by potrace 1.16, written by Peter Selinger 2001-2019
</metadata>
<g transform="translate(0.000000,56.000000) scale(0.100000,-0.100000)"
fill="#000000" stroke="none">
<path d="M270 560 c-23 0 -30 -5 -35 -30 -4 -16 -1 -47 6 -67 6 -21 18 -48 26
-59 12 -18 12 -28 -1 -65 -8 -24 -17 -58 -21 -76 -5 -26 -2 -37 17 -55 13 -13
32 -28 43 -33 16 -10 16 -14 5 -35 -7 -14 -26 -41 -41 -61 -16 -20 -45 -44
-64 -53 -19 -9 -35 -19 -35 -21 0 -2 36 -3 79 -2 60 1 77 4 70 13 -6 8 -2 21
14 40 12 16 28 42 35 57 7 15 12 46 12 67 0 35 -4 42 -40 62 -22 13 -40 26
-40 30 0 4 9 23 20 43 11 20 20 52 20 71 0 20 -9 49 -21 65 -12 17 -20 45 -21
69 0 37 -2 40 -28 40z"/>
</g>
</svg>
