<?xml version="1.0" standalone="no"?>
<!DOCTYPE svg PUBLIC "-//W3C//DTD SVG 20010904//EN"
 "http://www.w3.org/TR/2001/REC-SVG-20010904/DTD/svg10.dtd">
<svg version="1.0" xmlns="http://www.w3.org/2000/svg"
 width="56.000000pt" height="56.000000pt" viewBox="0 0 56.000000 56.000000"
 preserveAspectRatio="xMidYMid meet">
<metadata>
Created by potrace 1.16, written by Peter Selinger 2001-2019
</metadata>
<g transform="translate(0.000000,56.000000) scale(0.100000,-0.100000)"
fill="#000000" stroke="none">
<path d="M296 560 c-26 0 -26 0 -26 -99 0 -56 -4 -103 -10 -106 -5 -3 -10 -21
-10 -38 1 -18 6 -53 13 -79 7 -26 16 -50 20 -54 4 -4 7 -24 7 -44 0 -23 -11
-53 -30 -83 -17 -26 -30 -50 -30 -52 0 -3 10 -5 23 -5 13 0 33 10 45 23 11 12
26 43 33 70 12 42 11 53 -6 95 -14 33 -19 67 -18 117 2 39 5 112 8 163 6 92 6
92 -19 92z"/>
</g>
</svg>
