<?xml version="1.0" standalone="no"?>
<!DOCTYPE svg PUBLIC "-//W3C//DTD SVG 20010904//EN"
 "http://www.w3.org/TR/2001/REC-SVG-20010904/DTD/svg10.dtd">
<svg version="1.0" xmlns="http://www.w3.org/2000/svg"
 width="56.000000pt" height="56.000000pt" viewBox="0 0 56.000000 56.000000"
 preserveAspectRatio="xMidYMid meet">
<metadata>
Created by potrace 1.16, written by Peter Selinger 2001-2019
</metadata>
<g transform="translate(0.000000,56.000000) scale(0.100000,-0.100000)"
fill="#000000" stroke="none">
<path d="M285 560 c-25 0 -35 -4 -35 -16 0 -8 5 -24 10 -34 6 -11 12 -44 15
-74 3 -42 0 -56 -11 -60 -9 -3 -14 -12 -11 -19 2 -6 -3 -20 -11 -30 -14 -16
-12 -21 32 -66 41 -41 46 -52 38 -68 -6 -11 -33 -38 -59 -61 -26 -23 -55 -49
-64 -57 -9 -8 -20 -15 -25 -15 -5 0 -21 -12 -36 -25 -16 -13 -28 -27 -28 -31
0 -3 14 -4 31 0 17 3 43 15 59 26 15 11 32 20 38 20 5 0 15 7 22 15 7 9 35 28
61 43 27 15 52 34 55 42 3 8 8 36 10 62 4 43 2 49 -26 69 -17 13 -37 34 -46
47 -8 13 -13 30 -10 38 4 10 19 5 67 -21 33 -19 65 -35 70 -35 5 0 9 11 9 24
0 16 -11 32 -29 45 -16 12 -36 21 -44 21 -9 0 -19 5 -23 12 -4 7 -7 31 -5 54
1 23 -2 45 -8 49 -6 3 -11 15 -11 26 0 15 -7 19 -35 19z"/>
</g>
</svg>
