<?xml version="1.0" standalone="no"?>
<!DOCTYPE svg PUBLIC "-//W3C//DTD SVG 20010904//EN"
 "http://www.w3.org/TR/2001/REC-SVG-20010904/DTD/svg10.dtd">
<svg version="1.0" xmlns="http://www.w3.org/2000/svg"
 width="56.000000pt" height="56.000000pt" viewBox="0 0 56.000000 56.000000"
 preserveAspectRatio="xMidYMid meet">
<metadata>
Created by potrace 1.16, written by Peter Selinger 2001-2019
</metadata>
<g transform="translate(0.000000,56.000000) scale(0.100000,-0.100000)"
fill="#000000" stroke="none">
<path d="M276 560 c-29 0 -29 0 -23 -69 3 -38 2 -97 -3 -132 -5 -34 -6 -75 -3
-91 3 -17 17 -35 34 -45 16 -10 29 -23 29 -31 0 -7 -8 -25 -17 -40 -10 -15
-37 -53 -60 -84 -24 -31 -43 -59 -43 -62 0 -3 13 -6 28 -6 18 0 44 13 69 35
23 20 51 51 64 71 16 27 20 45 16 76 -4 27 -16 51 -38 74 -29 30 -31 36 -24
71 5 21 8 57 7 81 0 23 -2 67 -4 97 -2 54 -3 55 -32 55z"/>
</g>
</svg>
