<?xml version="1.0" standalone="no"?>
<!DOCTYPE svg PUBLIC "-//W3C//DTD SVG 20010904//EN"
 "http://www.w3.org/TR/2001/REC-SVG-20010904/DTD/svg10.dtd">
<svg version="1.0" xmlns="http://www.w3.org/2000/svg"
 width="56.000000pt" height="56.000000pt" viewBox="0 0 56.000000 56.000000"
 preserveAspectRatio="xMidYMid meet">
<metadata>
Created by potrace 1.16, written by Peter Selinger 2001-2019
</metadata>
<g transform="translate(0.000000,56.000000) scale(0.100000,-0.100000)"
fill="#000000" stroke="none">
<path d="M222 560 c-7 0 -14 -10 -17 -22 -2 -13 -4 -32 -2 -43 1 -15 -8 -23
-38 -33 -22 -7 -45 -20 -52 -28 -6 -9 -15 -46 -19 -82 -3 -37 -10 -71 -14 -77
-4 -5 -11 -36 -15 -68 -5 -45 -3 -63 9 -83 11 -16 26 -24 45 -24 20 0 47 14
81 43 28 23 68 54 88 69 20 14 47 29 60 31 13 2 30 -2 38 -10 8 -8 14 -20 14
-27 0 -6 -16 -41 -35 -77 -19 -36 -44 -74 -55 -84 -11 -10 -20 -24 -20 -32 0
-8 12 -13 31 -13 23 0 40 9 63 33 17 18 38 47 46 63 8 16 25 44 38 63 12 19
22 46 22 62 0 15 -4 39 -10 53 -5 14 -21 33 -35 42 -18 12 -45 17 -81 16 -30
-1 -67 -8 -82 -16 -15 -8 -47 -24 -71 -36 -27 -13 -47 -18 -53 -12 -6 6 -2 32
9 71 10 33 22 61 27 61 4 0 21 -11 38 -25 16 -14 33 -25 37 -25 4 0 15 6 26
14 11 8 18 25 17 44 0 16 -9 47 -20 69 -11 21 -29 48 -40 61 -11 12 -24 22
-30 22z"/>
</g>
</svg>
