<?xml version="1.0" standalone="no"?>
<!DOCTYPE svg PUBLIC "-//W3C//DTD SVG 20010904//EN"
 "http://www.w3.org/TR/2001/REC-SVG-20010904/DTD/svg10.dtd">
<svg version="1.0" xmlns="http://www.w3.org/2000/svg"
 width="56.000000pt" height="56.000000pt" viewBox="0 0 56.000000 56.000000"
 preserveAspectRatio="xMidYMid meet">
<metadata>
Created by potrace 1.16, written by Peter Selinger 2001-2019
</metadata>
<g transform="translate(0.000000,56.000000) scale(0.100000,-0.100000)"
fill="#000000" stroke="none">
<path d="M213 560 c-16 0 -23 -6 -23 -20 0 -11 9 -34 20 -52 11 -18 20 -50 20
-70 0 -21 -11 -62 -25 -92 -14 -30 -25 -62 -25 -71 0 -9 17 -32 38 -50 20 -19
42 -35 49 -35 6 0 14 -9 18 -20 3 -10 -1 -34 -10 -52 -9 -18 -33 -48 -53 -65
-37 -33 -37 -33 -4 -33 27 0 45 11 93 57 32 31 59 63 59 72 0 9 -6 27 -13 41
-7 14 -30 34 -51 45 -22 11 -44 28 -50 37 -8 13 -5 30 13 70 13 29 26 74 29
101 3 42 0 53 -30 92 -21 29 -41 44 -55 45z"/>
</g>
</svg>
