<?xml version="1.0" standalone="no"?>
<!DOCTYPE svg PUBLIC "-//W3C//DTD SVG 20010904//EN"
 "http://www.w3.org/TR/2001/REC-SVG-20010904/DTD/svg10.dtd">
<svg version="1.0" xmlns="http://www.w3.org/2000/svg"
 width="56.000000pt" height="56.000000pt" viewBox="0 0 56.000000 56.000000"
 preserveAspectRatio="xMidYMid meet">
<metadata>
Created by potrace 1.16, written by Peter Selinger 2001-2019
</metadata>
<g transform="translate(0.000000,56.000000) scale(0.100000,-0.100000)"
fill="#000000" stroke="none">
<path d="M297 560 c-15 0 -29 -9 -37 -25 -11 -21 -12 -34 -2 -71 12 -43 11
-49 -17 -101 -25 -45 -28 -59 -20 -80 5 -14 27 -47 49 -73 22 -26 40 -58 40
-70 0 -14 -22 -44 -61 -81 -50 -48 -57 -59 -40 -59 12 0 38 7 59 16 20 8 49
27 65 41 22 22 27 35 27 75 0 41 -7 59 -45 116 -45 68 -45 68 -20 116 14 26
25 58 25 71 0 13 -5 36 -12 50 -9 21 -9 31 0 46 7 10 12 21 12 24 0 3 -10 5
-23 5z"/>
</g>
</svg>
