<?xml version="1.0" standalone="no"?>
<!DOCTYPE svg PUBLIC "-//W3C//DTD SVG 20010904//EN"
 "http://www.w3.org/TR/2001/REC-SVG-20010904/DTD/svg10.dtd">
<svg version="1.0" xmlns="http://www.w3.org/2000/svg"
 width="56.000000pt" height="56.000000pt" viewBox="0 0 56.000000 56.000000"
 preserveAspectRatio="xMidYMid meet">
<metadata>
Created by potrace 1.16, written by Peter Selinger 2001-2019
</metadata>
<g transform="translate(0.000000,56.000000) scale(0.100000,-0.100000)"
fill="#000000" stroke="none">
<path d="M275 560 c-24 0 -25 -3 -25 -60 0 -42 -7 -76 -26 -117 -18 -41 -23
-67 -19 -90 4 -24 15 -37 39 -48 18 -9 43 -25 55 -36 11 -11 21 -26 21 -34 0
-9 -9 -23 -20 -32 -11 -10 -20 -23 -20 -29 0 -7 -26 -35 -57 -63 -58 -51 -58
-51 -21 -51 33 0 45 8 108 72 38 40 70 81 70 90 0 9 -5 29 -12 43 -6 14 -33
41 -60 60 -26 19 -48 41 -48 48 0 7 9 36 19 66 11 29 21 65 22 79 1 15 1 44 1
65 -2 32 -5 37 -27 37z"/>
</g>
</svg>
