<?xml version="1.0" standalone="no"?>
<!DOCTYPE svg PUBLIC "-//W3C//DTD SVG 20010904//EN"
 "http://www.w3.org/TR/2001/REC-SVG-20010904/DTD/svg10.dtd">
<svg version="1.0" xmlns="http://www.w3.org/2000/svg"
 width="56.000000pt" height="56.000000pt" viewBox="0 0 56.000000 56.000000"
 preserveAspectRatio="xMidYMid meet">
<metadata>
Created by potrace 1.16, written by Peter Selinger 2001-2019
</metadata>
<g transform="translate(0.000000,56.000000) scale(0.100000,-0.100000)"
fill="#000000" stroke="none">
<path d="M235 560 c-22 0 -25 -3 -19 -24 3 -13 1 -56 -5 -96 -8 -63 -7 -78 7
-102 9 -15 19 -28 23 -28 4 0 17 -21 29 -47 15 -32 20 -57 16 -80 -3 -18 -9
-49 -12 -68 -3 -19 -10 -38 -15 -41 -5 -3 -9 -15 -9 -28 0 -12 -5 -27 -12 -34
-9 -9 -9 -12 3 -12 9 0 25 10 37 23 12 13 22 28 22 35 0 6 9 27 20 47 13 23
20 54 20 88 0 42 -5 58 -26 82 -14 17 -38 45 -52 63 -23 30 -24 36 -13 71 6
21 11 64 11 95 0 53 -1 56 -25 56z"/>
</g>
</svg>
