<?xml version="1.0" standalone="no"?>
<!DOCTYPE svg PUBLIC "-//W3C//DTD SVG 20010904//EN"
 "http://www.w3.org/TR/2001/REC-SVG-20010904/DTD/svg10.dtd">
<svg version="1.0" xmlns="http://www.w3.org/2000/svg"
 width="56.000000pt" height="56.000000pt" viewBox="0 0 56.000000 56.000000"
 preserveAspectRatio="xMidYMid meet">
<metadata>
Created by potrace 1.16, written by Peter Selinger 2001-2019
</metadata>
<g transform="translate(0.000000,56.000000) scale(0.100000,-0.100000)"
fill="#000000" stroke="none">
<path d="M303 560 c-23 0 -35 -11 -66 -60 -38 -58 -39 -60 -23 -91 9 -18 16
-41 16 -51 0 -11 -13 -39 -30 -63 -16 -24 -30 -55 -30 -69 0 -14 4 -27 9 -30
5 -3 11 -20 15 -38 3 -18 2 -46 -2 -62 -6 -21 -22 -36 -67 -60 -60 -31 -60
-31 -27 -34 22 -2 54 6 88 23 39 19 56 34 60 52 4 15 2 54 -5 87 -7 34 -9 70
-5 81 4 11 20 39 36 62 15 23 28 44 28 48 0 3 -14 24 -31 45 -31 39 -31 39 15
92 25 29 46 56 46 60 0 5 -12 8 -27 8z"/>
<path d="M361 300 c-6 0 -11 -8 -11 -17 1 -10 15 -35 33 -56 28 -33 37 -37 60
-32 15 4 27 12 27 19 0 6 -8 18 -17 26 -10 9 -32 25 -50 38 -17 12 -36 22 -42
22z"/>
</g>
</svg>
