<?xml version="1.0" standalone="no"?>
<!DOCTYPE svg PUBLIC "-//W3C//DTD SVG 20010904//EN"
 "http://www.w3.org/TR/2001/REC-SVG-20010904/DTD/svg10.dtd">
<svg version="1.0" xmlns="http://www.w3.org/2000/svg"
 width="56.000000pt" height="56.000000pt" viewBox="0 0 56.000000 56.000000"
 preserveAspectRatio="xMidYMid meet">
<metadata>
Created by potrace 1.16, written by Peter Selinger 2001-2019
</metadata>
<g transform="translate(0.000000,56.000000) scale(0.100000,-0.100000)"
fill="#000000" stroke="none">
<path d="M271 560 c-21 0 -30 -6 -35 -22 -3 -13 -6 -32 -6 -43 0 -12 9 -38 20
-60 11 -22 20 -53 20 -70 -1 -16 -9 -55 -20 -85 -11 -30 -19 -60 -20 -67 0 -6
16 -26 35 -44 19 -19 35 -39 35 -45 0 -7 -11 -25 -24 -41 -13 -16 -46 -40 -72
-53 -49 -25 -49 -25 -15 -28 24 -3 58 8 117 37 53 26 85 48 89 62 4 11 4 31 1
44 -3 13 -21 33 -39 44 -18 11 -39 31 -46 45 -12 21 -11 28 9 56 12 17 24 48
27 68 4 28 -2 51 -27 97 -20 39 -29 67 -25 82 5 20 2 23 -24 23z"/>
</g>
</svg>
