<?xml version="1.0" standalone="no"?>
<!DOCTYPE svg PUBLIC "-//W3C//DTD SVG 20010904//EN"
 "http://www.w3.org/TR/2001/REC-SVG-20010904/DTD/svg10.dtd">
<svg version="1.0" xmlns="http://www.w3.org/2000/svg"
 width="56.000000pt" height="56.000000pt" viewBox="0 0 56.000000 56.000000"
 preserveAspectRatio="xMidYMid meet">
<metadata>
Created by potrace 1.16, written by Peter Selinger 2001-2019
</metadata>
<g transform="translate(0.000000,56.000000) scale(0.100000,-0.100000)"
fill="#000000" stroke="none">
<path d="M276 560 c-29 0 -33 -3 -29 -20 3 -11 16 -29 29 -39 18 -14 24 -29
24 -58 0 -22 -7 -48 -15 -59 -8 -10 -15 -33 -15 -50 0 -16 6 -37 13 -45 6 -9
31 -22 55 -29 23 -7 42 -15 42 -17 0 -2 -7 -18 -16 -35 -9 -18 -39 -56 -67
-85 -27 -29 -54 -53 -59 -53 -4 0 -26 -11 -48 -25 -22 -14 -46 -25 -54 -25 -8
0 -18 -5 -22 -11 -5 -8 8 -10 47 -7 32 2 84 18 126 37 58 27 76 41 101 80 16
25 34 56 41 68 6 12 11 34 11 48 0 14 -5 35 -10 46 -6 10 -26 26 -46 34 -19 8
-37 22 -41 31 -3 9 -1 25 5 35 7 10 12 36 12 57 0 28 -7 45 -25 62 -14 13 -25
32 -25 42 0 14 -8 18 -34 18z"/>
</g>
</svg>
