<?xml version="1.0" standalone="no"?>
<!DOCTYPE svg PUBLIC "-//W3C//DTD SVG 20010904//EN"
 "http://www.w3.org/TR/2001/REC-SVG-20010904/DTD/svg10.dtd">
<svg version="1.0" xmlns="http://www.w3.org/2000/svg"
 width="56.000000pt" height="56.000000pt" viewBox="0 0 56.000000 56.000000"
 preserveAspectRatio="xMidYMid meet">
<metadata>
Created by potrace 1.16, written by Peter Selinger 2001-2019
</metadata>
<g transform="translate(0.000000,56.000000) scale(0.100000,-0.100000)"
fill="#000000" stroke="none">
<path d="M289 550 c-4 0 -19 -15 -33 -33 -15 -19 -26 -41 -26 -49 0 -8 7 -29
15 -45 9 -17 22 -36 30 -43 8 -7 15 -20 15 -30 0 -9 -9 -29 -20 -43 -11 -14
-20 -29 -20 -34 0 -4 -9 -19 -20 -33 -11 -14 -20 -33 -20 -42 0 -9 5 -20 12
-24 7 -4 28 -10 47 -13 28 -5 34 -11 37 -35 2 -16 -2 -39 -8 -50 -6 -12 -20
-27 -30 -35 -13 -8 -16 -17 -10 -23 5 -5 26 -6 46 -3 23 5 43 17 56 35 11 16
20 42 20 58 0 17 -4 34 -10 37 -5 3 -10 15 -10 26 0 10 -11 29 -25 41 -14 12
-25 31 -25 43 0 12 7 30 15 41 8 10 15 36 15 58 0 27 -6 44 -20 56 -12 10 -25
32 -30 48 -6 25 -4 34 11 48 14 13 16 20 8 31 -6 7 -15 13 -20 13z"/>
</g>
</svg>
