<?xml version="1.0" standalone="no"?>
<!DOCTYPE svg PUBLIC "-//W3C//DTD SVG 20010904//EN"
 "http://www.w3.org/TR/2001/REC-SVG-20010904/DTD/svg10.dtd">
<svg version="1.0" xmlns="http://www.w3.org/2000/svg"
 width="128.000000pt" height="128.000000pt" viewBox="0 0 128.000000 128.000000"
 preserveAspectRatio="xMidYMid meet">
<metadata>
Created by potrace 1.16, written by Peter Selinger 2001-2019
</metadata>
<g transform="translate(0.000000,128.000000) scale(0.100000,-0.100000)"
fill="#000000" stroke="none">
<path d="M1228 1119 c-29 0 -64 -5 -77 -10 -13 -5 -30 -17 -37 -27 -7 -9 -10
-20 -8 -24 3 -5 25 -8 49 -8 24 0 50 -3 59 -6 9 -3 16 -17 16 -30 0 -14 -9
-41 -19 -62 -11 -20 -29 -47 -40 -59 -12 -12 -21 -29 -21 -38 0 -8 5 -15 10
-15 6 0 24 10 39 21 16 12 34 19 39 15 6 -3 14 -31 17 -61 4 -30 4 -62 1 -71
-6 -15 -9 -15 -29 5 -13 11 -29 21 -36 21 -10 0 -12 -9 -7 -30 4 -21 2 -30 -8
-30 -7 0 -22 -10 -34 -23 -12 -13 -22 -28 -22 -33 0 -6 -11 -21 -24 -33 -25
-23 -25 -23 -78 2 -29 14 -80 41 -112 61 -33 20 -106 58 -162 86 -55 27 -107
56 -114 64 -7 10 -10 29 -5 53 5 32 13 42 48 61 23 12 62 24 87 28 25 4 53 11
63 16 18 9 18 11 2 29 -10 10 -36 28 -59 39 -23 11 -56 20 -74 20 -17 0 -43 5
-57 12 -17 8 -29 8 -36 1 -6 -6 -1 -18 17 -36 15 -15 32 -27 39 -27 7 0 17 -6
23 -13 8 -9 -1 -25 -36 -62 -25 -28 -54 -67 -64 -88 -9 -20 -39 -67 -65 -105
-26 -37 -97 -117 -158 -178 -60 -61 -141 -136 -179 -167 -39 -31 -78 -57 -88
-57 -10 0 -21 7 -25 16 -3 8 0 27 6 40 7 17 8 31 2 42 -8 15 -10 15 -15 2 -2
-8 -12 -42 -21 -75 -9 -33 -21 -65 -27 -72 -5 -7 -7 -27 -3 -45 4 -18 9 -36
12 -40 2 -4 36 9 76 30 57 29 99 64 199 165 70 70 132 127 138 127 5 0 10 -15
10 -33 0 -19 -9 -60 -21 -93 -12 -32 -25 -76 -29 -98 -6 -30 -2 -53 18 -108
18 -49 30 -68 41 -66 9 2 28 30 44 63 20 41 27 68 23 90 -3 16 -8 45 -12 62
-5 29 -2 37 27 64 19 18 65 47 104 65 38 19 79 34 91 34 12 0 29 -3 38 -6 9
-3 16 -14 16 -23 0 -9 -10 -28 -23 -42 -12 -15 -49 -48 -82 -75 -33 -26 -68
-60 -78 -76 -9 -16 -17 -35 -17 -44 0 -8 7 -17 15 -20 8 -4 46 0 83 7 37 7 74
12 83 11 9 -2 28 2 42 7 19 8 27 18 27 35 0 19 -8 28 -35 37 -19 7 -35 16 -35
20 0 4 23 26 50 49 28 24 58 59 67 79 9 20 17 47 17 61 1 14 8 26 17 28 9 2
57 -17 106 -42 49 -25 125 -62 169 -82 43 -21 82 -40 87 -42 4 -2 7 18 7 45 0
43 -3 50 -33 68 -17 11 -45 27 -61 35 -16 8 -31 21 -34 29 -3 8 7 25 23 39 29
25 29 25 60 -12 16 -20 33 -36 38 -36 4 0 7 70 7 156 0 134 -2 159 -16 169
-13 9 -15 20 -10 48 4 21 11 37 16 37 6 0 10 29 10 65 0 65 0 65 -52 64z
m-603 -369 c11 0 31 -8 45 -17 13 -10 42 -27 65 -38 26 -13 40 -27 40 -39 0
-15 -11 -22 -50 -31 -27 -7 -75 -24 -105 -38 -30 -14 -67 -34 -82 -44 -27 -17
-28 -17 -50 4 -19 20 -20 24 -7 51 8 16 39 57 68 90 34 39 63 62 76 62z"/>
<path d="M408 1040 c-16 0 -28 -3 -28 -6 0 -3 5 -14 11 -26 6 -11 8 -30 5 -43
-3 -13 -29 -48 -57 -77 -45 -47 -50 -56 -47 -93 3 -35 6 -40 31 -43 19 -2 42
7 77 33 27 20 60 50 74 66 14 16 30 48 36 69 8 29 8 46 0 60 -6 12 -26 30 -43
40 -18 11 -44 20 -59 20z"/>
</g>
</svg>
