<?xml version="1.0" standalone="no"?>
<!DOCTYPE svg PUBLIC "-//W3C//DTD SVG 20010904//EN"
 "http://www.w3.org/TR/2001/REC-SVG-20010904/DTD/svg10.dtd">
<svg version="1.0" xmlns="http://www.w3.org/2000/svg"
 width="128.000000pt" height="128.000000pt" viewBox="0 0 128.000000 128.000000"
 preserveAspectRatio="xMidYMid meet">
<metadata>
Created by potrace 1.16, written by Peter Selinger 2001-2019
</metadata>
<g transform="translate(0.000000,128.000000) scale(0.100000,-0.100000)"
fill="#000000" stroke="none">
<path d="M804 1245 c-22 2 -59 -4 -84 -13 -25 -10 -72 -33 -105 -51 -33 -19
-75 -41 -93 -50 -19 -9 -31 -22 -30 -31 2 -8 17 -17 33 -20 17 -3 31 -12 33
-21 2 -10 -21 -37 -58 -68 -55 -45 -59 -51 -36 -51 13 0 27 -4 30 -9 3 -5 -1
-11 -9 -15 -8 -3 -15 -10 -15 -17 0 -6 16 -29 35 -52 19 -22 35 -50 35 -62 0
-12 -10 -35 -22 -50 -21 -27 -21 -28 -3 -41 10 -8 25 -14 32 -14 7 0 13 -8 13
-19 0 -10 -29 -47 -64 -83 -35 -35 -81 -73 -102 -83 -22 -10 -42 -23 -46 -29
-4 -6 -8 -17 -8 -23 0 -7 21 -23 46 -35 45 -21 47 -21 80 -3 27 15 36 16 49 5
11 -9 13 -24 9 -54 -3 -22 -13 -61 -21 -86 -9 -25 -30 -63 -47 -85 -17 -22
-48 -57 -69 -77 -22 -22 -37 -45 -35 -55 2 -10 14 -19 26 -21 17 -3 37 10 73
45 27 26 61 67 75 91 14 23 29 42 34 42 5 0 23 -28 40 -61 17 -34 43 -77 58
-96 24 -32 30 -35 65 -30 32 4 50 18 108 79 38 40 69 81 69 90 0 9 4 19 9 22
5 3 15 30 22 58 7 29 12 60 10 70 -1 9 3 19 9 23 5 3 10 22 10 41 0 19 -6 52
-12 75 -7 22 -27 54 -45 71 -22 21 -46 33 -77 38 -33 5 -60 2 -101 -13 -54
-18 -57 -18 -76 -1 -10 9 -19 22 -19 28 0 6 15 23 33 37 17 14 47 34 65 43 29
15 32 19 19 29 -9 7 -17 21 -19 32 -2 15 -14 21 -45 26 -24 3 -45 8 -48 10 -3
3 10 28 27 55 18 27 40 55 49 61 9 7 24 34 33 60 9 25 16 59 16 73 0 20 -10
34 -37 52 -21 13 -46 28 -57 31 -18 7 -18 8 -1 27 10 11 49 30 87 42 52 17 73
20 86 12 12 -8 19 -32 25 -85 4 -45 3 -99 -4 -139 -6 -36 -13 -78 -16 -94 -3
-17 -21 -51 -39 -77 -19 -25 -34 -51 -34 -58 0 -6 5 -11 11 -11 6 0 36 23 66
50 30 28 58 50 63 50 4 0 11 10 15 23 4 12 9 46 10 75 2 42 8 57 25 69 19 14
21 22 17 80 -3 43 -11 73 -24 91 -11 15 -41 37 -65 50 -25 13 -63 25 -84 27z
m-157 -205 c8 0 18 -11 23 -25 6 -17 5 -37 -6 -68 -8 -25 -24 -53 -34 -62 -10
-9 -24 -14 -29 -10 -6 3 -11 21 -11 40 0 19 5 37 10 40 6 3 10 19 10 34 0 15
5 32 12 39 7 7 18 12 25 12z m-106 -80 c4 0 11 -5 15 -11 3 -6 -1 -18 -10 -27
-12 -12 -19 -13 -28 -4 -8 8 -8 15 2 27 7 8 16 15 21 15z m221 -442 c42 -3 84
-10 92 -17 8 -7 18 -37 22 -68 5 -39 2 -73 -10 -115 -9 -33 -28 -82 -41 -108
-13 -27 -38 -58 -55 -70 -31 -22 -31 -22 -73 -1 -23 11 -49 26 -58 33 -8 7
-24 25 -33 40 -14 21 -16 38 -11 65 3 21 13 48 21 61 8 13 12 32 9 43 -4 11 2
33 14 53 12 18 21 40 21 48 0 8 6 20 13 27 8 9 34 12 89 9z"/>
<path d="M363 1220 c-7 0 -13 -10 -13 -22 0 -12 -7 -29 -15 -38 -10 -11 -18
-55 -24 -133 -6 -65 -12 -121 -15 -126 -3 -5 1 -43 9 -85 8 -43 27 -97 41
-122 16 -28 33 -44 45 -44 12 0 23 10 29 25 7 18 4 49 -10 108 -10 45 -22 114
-26 152 -4 39 -7 118 -7 178 -1 82 -4 107 -14 107z"/>
</g>
</svg>
