<?xml version="1.0" standalone="no"?>
<!DOCTYPE svg PUBLIC "-//W3C//DTD SVG 20010904//EN"
 "http://www.w3.org/TR/2001/REC-SVG-20010904/DTD/svg10.dtd">
<svg version="1.0" xmlns="http://www.w3.org/2000/svg"
 width="128.000000pt" height="128.000000pt" viewBox="0 0 128.000000 128.000000"
 preserveAspectRatio="xMidYMid meet">
<metadata>
Created by potrace 1.16, written by Peter Selinger 2001-2019
</metadata>
<g transform="translate(0.000000,128.000000) scale(0.100000,-0.100000)"
fill="#000000" stroke="none">
<path d="M962 1226 c-61 4 -72 3 -72 -10 0 -9 -6 -16 -14 -16 -8 0 -18 4 -21
10 -4 6 -17 5 -35 -5 -15 -8 -37 -29 -48 -47 -11 -18 -22 -53 -25 -78 -4 -35
-13 -51 -38 -72 -18 -16 -39 -28 -45 -28 -7 0 -44 -32 -84 -72 -39 -39 -86
-92 -103 -117 -17 -25 -36 -51 -42 -57 -5 -6 -19 -27 -30 -47 -10 -20 -16 -39
-13 -42 3 -4 19 0 35 8 15 8 48 39 73 68 25 30 71 80 104 111 32 32 64 58 70
58 7 0 19 12 26 26 8 14 30 32 49 40 30 13 37 12 57 -1 15 -10 25 -11 29 -4 5
7 11 6 21 -2 8 -6 14 -20 14 -30 0 -10 -5 -21 -11 -25 -8 -5 -6 -10 5 -16 9
-5 14 -13 11 -19 -4 -5 -15 -9 -26 -9 -10 0 -19 -5 -19 -10 0 -6 12 -15 26
-20 17 -7 24 -15 20 -25 -3 -8 -2 -15 3 -15 4 0 13 -12 20 -26 9 -20 9 -30 0
-40 -6 -8 -22 -14 -35 -14 -17 0 -33 15 -59 55 -21 30 -39 55 -41 55 -3 0 -16
-12 -30 -27 -17 -18 -22 -32 -17 -42 4 -9 8 -97 9 -196 0 -103 6 -204 13 -237
7 -31 19 -62 28 -70 13 -11 18 -9 30 7 7 11 29 44 49 73 19 29 37 67 41 85 3
17 10 38 16 45 6 8 6 16 -1 25 -9 10 -4 17 19 31 17 10 37 34 45 53 8 18 21
36 29 40 8 3 15 11 15 18 0 7 7 16 16 19 9 3 18 6 20 6 2 0 4 -7 4 -15 0 -9
-7 -18 -15 -21 -10 -4 -15 -20 -15 -51 0 -34 9 -60 36 -104 19 -33 39 -59 44
-59 5 0 14 -10 21 -21 10 -19 6 -27 -35 -65 -25 -24 -50 -44 -57 -44 -6 0 -23
-9 -37 -19 -15 -10 -64 -38 -109 -61 -46 -23 -83 -46 -83 -50 0 -5 -22 -24
-50 -44 -27 -20 -50 -43 -50 -52 0 -13 7 -15 29 -11 16 4 56 23 88 44 32 21
67 43 78 49 11 6 36 20 56 31 20 12 45 25 55 30 11 6 30 16 43 23 14 7 54 23
90 35 51 18 71 31 93 61 15 22 32 44 38 51 5 7 10 23 10 36 0 16 -9 28 -26 36
-15 6 -53 32 -86 57 -33 26 -63 56 -67 68 -5 12 -3 39 5 66 8 25 14 60 14 78
0 18 -5 42 -10 53 -7 12 -21 19 -39 19 -16 0 -36 -9 -47 -21 -10 -12 -29 -25
-41 -30 -18 -7 -23 -16 -23 -46 0 -21 -4 -43 -8 -49 -4 -6 -15 -13 -24 -17
-11 -4 -18 -17 -18 -32 0 -15 -6 -25 -15 -25 -8 0 -22 -12 -31 -26 -14 -21
-19 -23 -30 -12 -9 8 -14 41 -15 87 -1 52 2 76 12 82 8 5 28 7 44 5 20 -4 37
1 53 13 16 14 22 30 22 60 0 22 -4 42 -9 45 -4 3 -11 25 -14 48 -4 24 -15 61
-27 83 -11 21 -20 50 -20 63 0 15 14 37 36 57 20 18 55 38 79 44 23 6 47 16
52 23 6 7 13 27 16 44 4 23 1 36 -12 48 -11 10 -44 18 -89 22z m-63 -78 c9 -2
16 -12 16 -22 0 -11 -5 -21 -11 -23 -6 -2 -14 8 -16 22 -4 20 -2 25 11 23z
m-80 -98 c12 0 21 -6 21 -16 0 -9 -7 -14 -17 -12 -9 2 -18 9 -21 16 -2 7 5 12
17 12z"/>
<path d="M265 1183 c-18 3 -29 -1 -36 -14 -6 -13 -6 -25 1 -38 8 -16 13 -18
35 -8 15 7 25 20 25 33 0 15 -8 23 -25 27z"/>
<path d="M252 1062 c-9 9 -12 7 -12 -12 0 -19 3 -21 12 -12 9 9 9 15 0 24z"/>
<path d="M277 1060 c-4 0 -7 -10 -6 -22 1 -13 1 -46 1 -75 -2 -46 -4 -51 -22
-46 -16 4 -20 0 -20 -17 0 -12 -14 -35 -30 -50 -22 -20 -43 -30 -73 -32 -29
-2 -42 -8 -42 -18 0 -9 33 -31 78 -54 66 -34 77 -43 77 -65 0 -14 -20 -66 -45
-114 -24 -49 -56 -103 -70 -120 -15 -18 -42 -59 -62 -92 -19 -33 -40 -86 -46
-118 -7 -36 -7 -61 -1 -67 6 -6 18 -5 33 3 14 7 51 44 82 82 32 39 69 91 84
117 16 30 22 49 15 53 -6 4 -8 21 -4 43 4 20 8 38 9 40 2 2 17 -4 34 -13 17
-8 31 -22 31 -29 0 -7 -7 -19 -15 -26 -8 -7 -13 -22 -10 -34 3 -11 7 -73 10
-136 2 -63 11 -137 18 -165 10 -36 19 -50 32 -50 13 0 23 16 37 55 15 45 18
75 14 165 -3 61 -8 139 -12 175 -4 36 -12 72 -19 80 -7 8 -16 56 -19 105 -4
50 -10 151 -14 225 -5 75 -15 149 -22 168 -8 17 -18 32 -23 32z m53 -760 c5 0
12 -5 16 -11 3 -6 1 -16 -5 -22 -8 -8 -14 -8 -22 0 -6 6 -8 16 -5 22 4 6 11
11 16 11z"/>
<path d="M439 1000 c-10 0 -19 -6 -19 -12 1 -7 16 -23 35 -35 30 -19 34 -19
40 -5 4 11 -2 23 -15 34 -12 10 -31 18 -41 18z"/>
<path d="M1171 100 c-5 0 -14 -7 -21 -15 -10 -12 -10 -19 -1 -28 9 -9 14 -9
21 3 5 8 10 21 10 28 0 6 -4 12 -9 12z"/>
</g>
</svg>
