<?xml version="1.0" standalone="no"?>
<!DOCTYPE svg PUBLIC "-//W3C//DTD SVG 20010904//EN"
 "http://www.w3.org/TR/2001/REC-SVG-20010904/DTD/svg10.dtd">
<svg version="1.0" xmlns="http://www.w3.org/2000/svg"
 width="128.000000pt" height="128.000000pt" viewBox="0 0 128.000000 128.000000"
 preserveAspectRatio="xMidYMid meet">
<metadata>
Created by potrace 1.16, written by Peter Selinger 2001-2019
</metadata>
<g transform="translate(0.000000,128.000000) scale(0.100000,-0.100000)"
fill="#000000" stroke="none">
<path d="M650 1280 c-56 0 -70 -3 -70 -15 0 -9 9 -15 24 -15 18 0 27 -9 40
-43 9 -23 16 -48 16 -54 0 -6 -9 -14 -19 -18 -11 -3 -31 -3 -45 1 -16 4 -32 1
-41 -6 -8 -7 -15 -19 -15 -27 0 -8 14 -22 31 -31 26 -15 30 -21 25 -50 -4 -26
0 -35 20 -48 13 -9 24 -24 24 -33 0 -9 9 -29 20 -46 11 -16 20 -38 20 -48 0
-10 -7 -20 -15 -24 -9 -3 -23 -19 -32 -36 -9 -17 -26 -39 -39 -49 -12 -10 -28
-34 -34 -53 -9 -27 -17 -35 -36 -35 -14 0 -27 -7 -30 -15 -4 -8 -11 -15 -16
-15 -6 0 -17 -8 -24 -17 -7 -10 -14 -30 -14 -45 0 -23 6 -29 35 -37 28 -7 48
-6 92 9 31 10 62 16 70 13 11 -4 12 -18 6 -67 -4 -33 -7 -89 -6 -124 1 -45 6
-69 19 -83 11 -13 30 -19 58 -19 30 0 47 7 68 27 15 15 28 37 28 49 0 13 4 25
10 29 5 3 18 0 28 -6 15 -10 24 -9 43 4 13 10 26 17 30 17 3 0 18 -18 32 -39
15 -22 34 -63 44 -93 10 -29 28 -69 40 -88 12 -19 27 -48 33 -64 9 -26 14 -28
46 -23 20 4 45 14 55 23 11 9 19 22 19 29 0 7 -9 20 -20 30 -11 10 -20 31 -20
47 0 15 -4 28 -8 28 -4 0 -21 20 -37 45 -16 26 -33 49 -39 53 -6 4 -24 26 -39
50 -15 23 -33 55 -39 70 -6 15 -14 54 -17 87 -6 57 -8 61 -43 78 -21 9 -38 23
-38 31 0 8 16 33 35 56 19 23 35 53 35 67 0 13 -5 33 -10 44 -9 16 -18 18 -48
13 -27 -4 -41 -2 -51 9 -10 13 -6 28 24 87 26 52 35 80 30 98 -6 23 -9 24 -54
19 -27 -3 -58 -3 -70 0 -12 3 -21 13 -21 24 0 10 7 24 16 31 8 7 23 21 32 31
9 9 25 17 35 17 11 0 34 15 53 34 23 23 32 40 28 51 -6 14 -15 16 -53 10 -25
-4 -53 -13 -62 -21 -8 -8 -20 -14 -26 -14 -6 0 -14 12 -18 28 -4 15 -15 35
-25 45 -15 13 -36 17 -90 17z m82 -470 c7 0 21 -14 31 -31 9 -17 17 -36 17
-43 0 -7 -13 -25 -30 -41 -24 -23 -32 -26 -45 -15 -8 7 -15 17 -15 23 0 6 8
19 17 29 10 11 16 32 15 49 -1 18 2 29 10 29z m69 -180 c20 0 30 -6 35 -22 3
-13 15 -35 25 -50 11 -14 19 -33 19 -42 0 -9 -11 -21 -25 -26 -14 -5 -33 -25
-42 -44 -10 -21 -26 -37 -41 -41 -14 -3 -29 -2 -35 4 -5 5 -6 28 -3 53 4 23 9
66 12 93 4 28 11 56 16 63 6 6 23 12 39 12z"/>
<path d="M372 1119 c-15 -1 -51 -5 -80 -9 -29 -4 -62 -15 -75 -24 -12 -8 -34
-26 -50 -39 -28 -23 -28 -23 24 -72 42 -40 50 -53 46 -74 -3 -14 -10 -43 -15
-63 -6 -22 -6 -38 -1 -38 5 0 9 -7 9 -16 0 -13 -3 -14 -14 -5 -12 10 -18 7
-31 -13 -9 -13 -23 -53 -31 -88 -15 -61 -14 -63 7 -81 16 -13 25 -15 35 -6 7
6 16 19 19 30 4 10 11 19 17 19 6 0 20 8 31 17 18 17 20 17 34 -2 11 -15 13
-34 9 -74 -4 -30 -12 -61 -18 -68 -6 -7 -18 -13 -28 -13 -10 0 -23 7 -30 15
-7 8 -24 15 -38 15 -13 0 -45 -10 -70 -22 -25 -13 -51 -33 -59 -45 -8 -13 -18
-37 -22 -55 -4 -18 -3 -49 1 -68 5 -19 11 -95 13 -168 2 -86 8 -139 16 -148 7
-9 25 -14 42 -12 17 2 35 12 41 23 6 10 20 27 31 36 17 15 18 20 7 44 -11 23
-10 30 4 46 9 10 26 21 36 25 13 4 34 36 58 88 21 44 40 103 44 130 3 27 13
57 22 67 9 10 18 36 21 59 5 33 2 45 -11 52 -9 5 -16 18 -16 28 0 11 6 20 14
20 8 0 17 -7 20 -16 6 -15 8 -15 26 1 11 10 20 31 20 46 0 15 -4 39 -9 52 -7
17 -21 27 -43 32 -18 4 -38 12 -45 17 -8 6 -15 3 -21 -9 -6 -10 -14 -15 -17
-11 -4 4 -2 22 4 41 7 19 21 43 31 52 11 10 20 28 20 39 0 12 6 30 14 41 7 11
17 31 21 45 4 14 16 36 26 49 11 13 19 33 19 45 0 12 -7 32 -16 44 -10 14 -25
22 -42 21z m-233 -669 c3 -1 22 -9 41 -18 28 -14 36 -24 38 -50 2 -21 -7 -54
-27 -94 -17 -34 -31 -77 -31 -97 0 -20 -5 -43 -10 -51 -7 -12 -13 -13 -27 -4
-10 7 -16 20 -14 30 2 11 3 36 3 57 -1 20 -2 72 -4 116 -2 55 1 83 11 95 7 9
16 16 20 16z"/>
<path d="M1044 1035 c-13 4 -25 1 -33 -9 -9 -11 -10 -20 -2 -35 6 -11 29 -25
50 -31 21 -5 44 -17 51 -25 8 -9 10 -28 6 -49 -4 -23 -2 -37 6 -43 7 -4 27 -8
43 -9 17 -1 42 3 58 8 24 9 27 16 27 53 0 28 -7 51 -21 69 -12 15 -33 32 -48
38 -14 5 -46 13 -71 18 -25 5 -54 11 -66 15z"/>
<path d="M724 45 c-29 1 -50 -6 -70 -22 -29 -23 -29 -23 74 -23 56 0 102 2
102 5 0 2 -15 12 -32 22 -18 10 -52 18 -74 18z"/>
</g>
</svg>
