<?xml version="1.0" standalone="no"?>
<!DOCTYPE svg PUBLIC "-//W3C//DTD SVG 20010904//EN"
 "http://www.w3.org/TR/2001/REC-SVG-20010904/DTD/svg10.dtd">
<svg version="1.0" xmlns="http://www.w3.org/2000/svg"
 width="128.000000pt" height="128.000000pt" viewBox="0 0 128.000000 128.000000"
 preserveAspectRatio="xMidYMid meet">
<metadata>
Created by potrace 1.16, written by Peter Selinger 2001-2019
</metadata>
<g transform="translate(0.000000,128.000000) scale(0.100000,-0.100000)"
fill="#000000" stroke="none">
<path d="M890 1233 c-25 3 -60 0 -77 -6 -18 -7 -34 -16 -35 -22 -2 -5 22 -12
52 -15 50 -5 55 -7 58 -30 2 -14 -9 -47 -23 -73 -15 -26 -40 -56 -56 -68 -16
-11 -29 -28 -29 -37 0 -9 14 -25 30 -34 17 -9 30 -24 30 -33 0 -9 -25 -41 -56
-72 -41 -41 -58 -53 -67 -44 -6 6 -12 32 -14 58 -1 27 -6 73 -11 103 -4 31
-18 68 -31 86 -13 18 -33 36 -46 42 -12 6 -42 13 -67 17 -39 6 -48 3 -75 -19
-17 -14 -39 -26 -49 -26 -9 0 -53 -21 -96 -46 -43 -26 -92 -47 -110 -48 -26
-1 -36 5 -52 32 -20 31 -23 32 -66 26 -25 -3 -55 -12 -67 -20 -13 -8 -23 -23
-23 -33 0 -14 12 -23 43 -33 42 -13 42 -13 42 -163 0 -135 3 -154 23 -195 12
-25 29 -56 37 -70 8 -14 15 -34 15 -46 0 -11 8 -28 18 -37 10 -10 23 -17 29
-17 6 0 14 7 17 16 3 9 6 30 6 49 0 18 7 38 15 45 8 6 32 14 53 17 39 5 39 5
45 -34 4 -22 3 -53 -1 -69 -4 -16 -6 -42 -5 -59 1 -16 -3 -73 -9 -125 -6 -52
-8 -108 -5 -122 5 -18 16 -30 32 -34 14 -3 31 -1 39 5 11 9 13 55 12 221 -2
186 0 212 15 226 9 8 40 19 69 23 40 6 53 5 57 -5 3 -7 0 -37 -6 -65 -10 -43
-9 -55 3 -67 11 -11 18 -12 36 -2 12 6 26 25 32 40 6 18 28 41 56 58 26 16 72
54 103 84 31 31 66 61 77 67 11 6 26 11 32 11 7 0 10 -20 8 -57 -3 -58 -3 -58
47 -57 28 1 59 4 70 8 15 5 31 -2 62 -29 24 -20 52 -57 64 -83 12 -26 21 -64
20 -85 0 -20 -5 -45 -10 -55 -5 -9 -14 -30 -20 -45 -6 -15 -19 -30 -28 -34
-10 -3 -32 -19 -49 -35 -31 -29 -31 -29 -75 8 -24 20 -47 42 -52 49 -4 8 -21
21 -39 29 -17 9 -38 16 -46 16 -9 0 -29 -12 -44 -27 -15 -15 -28 -30 -28 -34
0 -5 -11 -24 -24 -44 -19 -28 -23 -44 -19 -73 3 -23 16 -47 34 -64 15 -15 45
-30 65 -34 20 -4 72 -2 116 4 57 9 99 22 150 49 66 34 71 40 100 102 25 55 31
82 35 167 5 98 4 105 -23 153 -15 28 -41 62 -58 75 -17 13 -42 27 -56 31 -14
4 -40 21 -58 39 -19 17 -42 43 -53 57 -19 27 -19 27 35 82 30 30 64 58 74 62
14 4 25 -1 36 -17 9 -12 16 -28 16 -35 0 -7 -18 -30 -41 -52 -22 -23 -38 -45
-34 -51 3 -6 18 -7 33 -4 15 4 34 13 43 20 8 8 20 14 25 14 5 0 32 10 61 22
29 12 53 28 53 35 0 7 -15 26 -32 43 -18 16 -51 36 -73 45 -22 10 -48 21 -57
26 -10 5 -23 9 -30 9 -7 0 -21 -9 -33 -20 -11 -11 -51 -44 -90 -75 -38 -30
-81 -60 -95 -67 -14 -7 -30 -19 -36 -27 -6 -8 -20 -12 -32 -9 -13 4 -27 -1
-38 -13 -9 -10 -21 -19 -26 -19 -4 0 -8 7 -8 15 0 9 7 18 16 22 9 3 35 26 58
50 22 25 47 58 54 74 6 16 17 29 24 29 6 0 31 21 55 48 24 26 43 53 43 60 0 7
-5 22 -10 33 -6 10 -19 19 -29 19 -11 0 -22 7 -25 16 -4 9 1 27 9 40 9 13 19
24 24 24 4 0 13 11 19 25 7 14 12 32 12 40 0 8 -10 21 -22 29 -13 7 -43 16
-68 19z m-336 -206 c10 -1 27 -13 37 -27 10 -14 23 -56 28 -94 8 -55 7 -76 -5
-104 -7 -19 -14 -42 -14 -51 0 -9 -15 -39 -32 -68 -29 -45 -38 -52 -75 -58
-24 -3 -47 -3 -53 0 -5 3 -10 30 -10 59 0 38 5 57 18 68 9 8 25 18 35 21 11 4
17 14 15 24 -2 12 -14 19 -38 21 -19 2 -41 8 -47 14 -7 6 -13 21 -13 33 0 12
-9 34 -20 48 -11 14 -20 30 -20 36 0 6 12 13 28 17 15 3 38 10 52 16 14 5 41
18 60 28 19 10 44 17 54 17z m-271 -98 c18 1 30 -5 34 -16 3 -10 15 -25 26
-34 15 -12 18 -23 13 -47 -4 -17 -13 -35 -20 -41 -7 -6 -46 -11 -86 -12 -60
-1 -76 2 -87 16 -8 12 -11 32 -7 59 4 23 9 44 13 48 3 4 24 12 46 17 22 5 53
9 68 10z m-72 -189 c28 0 59 -5 70 -10 10 -6 19 -16 19 -23 0 -6 -9 -20 -20
-32 -11 -11 -31 -33 -45 -50 -25 -30 -25 -30 -45 -7 -11 13 -24 42 -30 63 -6
22 -8 44 -5 49 3 6 29 10 56 10z m112 -70 c7 0 18 -5 25 -12 7 -7 12 -22 12
-35 0 -13 -10 -29 -23 -38 -13 -8 -37 -18 -55 -21 -22 -4 -32 -3 -32 5 0 7 14
32 30 57 17 24 37 44 43 44z m476 -440 c10 0 39 -16 65 -36 35 -26 46 -42 44
-57 -2 -18 -11 -22 -49 -25 -34 -2 -49 2 -62 16 -9 10 -17 27 -18 38 -1 10 -1
29 -1 42 1 14 8 22 21 22z"/>
</g>
</svg>
