<?xml version="1.0" standalone="no"?>
<!DOCTYPE svg PUBLIC "-//W3C//DTD SVG 20010904//EN"
 "http://www.w3.org/TR/2001/REC-SVG-20010904/DTD/svg10.dtd">
<svg version="1.0" xmlns="http://www.w3.org/2000/svg"
 width="128.000000pt" height="128.000000pt" viewBox="0 0 128.000000 128.000000"
 preserveAspectRatio="xMidYMid meet">
<metadata>
Created by potrace 1.16, written by Peter Selinger 2001-2019
</metadata>
<g transform="translate(0.000000,128.000000) scale(0.100000,-0.100000)"
fill="#000000" stroke="none">
<path d="M1136 1249 c-12 0 -36 -6 -55 -13 -19 -7 -39 -20 -45 -28 -7 -11 -6
-30 3 -60 7 -23 17 -53 22 -66 5 -12 13 -91 19 -175 6 -99 7 -164 0 -186 -5
-19 -6 -40 -1 -50 5 -9 8 -126 7 -261 -1 -244 -1 -244 -26 -256 -14 -7 -38
-16 -54 -21 -16 -4 -34 -15 -39 -24 -8 -13 -3 -26 22 -57 17 -23 40 -43 49
-46 10 -3 32 -2 49 3 17 5 44 23 60 41 28 31 28 31 26 223 0 106 -3 218 -6
250 -2 31 -1 60 4 63 5 2 8 82 9 177 0 95 4 224 9 287 5 63 7 126 4 140 -3 14
-13 33 -21 43 -8 9 -25 17 -36 16z"/>
<path d="M570 1180 c-11 0 -23 -7 -26 -15 -3 -8 -21 -24 -39 -35 -18 -11 -62
-30 -97 -41 -34 -12 -71 -28 -80 -36 -11 -10 -26 -13 -42 -9 -13 3 -36 2 -51
-4 -19 -7 -26 -17 -25 -33 1 -12 2 -26 1 -31 -1 -4 -12 -1 -26 8 -13 9 -31 16
-39 16 -8 0 -19 -7 -24 -16 -6 -11 -3 -28 8 -53 10 -20 28 -70 40 -111 13 -41
27 -81 32 -87 6 -7 26 -15 45 -19 25 -5 53 0 101 19 37 14 83 28 103 31 21 4
48 15 62 26 14 11 33 43 42 70 9 28 20 50 25 50 5 0 12 10 15 23 4 12 20 43
36 70 16 26 29 61 29 78 0 25 -6 32 -35 45 -23 9 -35 21 -35 34 0 13 -7 20
-20 20z m-95 -160 c8 0 18 -7 23 -16 5 -9 4 -35 -4 -66 -8 -28 -20 -61 -29
-74 -8 -13 -33 -28 -56 -34 -23 -6 -53 -9 -66 -5 -13 3 -27 13 -30 23 -3 9
-19 29 -35 44 -15 15 -28 35 -28 45 0 15 19 22 100 42 55 13 103 27 106 32 3
5 11 9 19 9z"/>
<path d="M960 1180 c-5 0 -12 -5 -16 -11 -3 -6 -1 -16 5 -22 8 -8 14 -8 22 0
6 6 8 16 5 22 -4 6 -11 11 -16 11z"/>
<path d="M788 980 c-3 0 -13 -9 -23 -20 -10 -12 -18 -35 -18 -53 0 -17 5 -77
11 -132 7 -65 18 -114 31 -140 12 -21 21 -45 21 -52 0 -7 7 -13 15 -13 8 0 21
13 30 30 8 16 15 36 15 45 0 9 7 29 15 45 8 15 20 61 26 101 11 73 11 73 -27
107 -22 19 -51 45 -65 58 -14 13 -28 24 -31 24z"/>
<path d="M585 645 c-16 9 -34 9 -85 -2 -36 -8 -86 -18 -112 -23 -27 -5 -53
-12 -59 -16 -6 -4 -45 -13 -87 -20 -51 -9 -81 -10 -94 -3 -12 6 -24 6 -36 0
-10 -5 -24 -16 -30 -24 -7 -8 -10 -21 -7 -29 4 -9 17 -20 30 -26 13 -6 40 -8
59 -5 23 3 42 1 52 -8 11 -9 14 -22 9 -48 -4 -22 -26 -56 -61 -95 -30 -32 -54
-65 -54 -71 0 -6 -11 -22 -25 -35 -14 -13 -25 -32 -25 -42 0 -9 11 -25 25 -34
24 -16 27 -15 45 1 11 10 22 26 25 36 4 11 11 19 17 19 5 0 23 9 38 20 16 11
35 17 44 14 9 -3 21 -25 27 -48 6 -22 29 -69 51 -104 31 -47 46 -62 64 -62 14
0 41 17 68 45 25 24 51 55 57 67 7 12 14 36 16 53 1 16 11 57 22 90 10 33 21
85 25 115 3 30 13 76 23 102 13 36 14 56 7 84 -5 20 -18 42 -29 49z m-160
-105 c13 0 37 -8 55 -17 31 -18 31 -19 27 -83 -2 -37 -15 -96 -30 -135 -20
-54 -31 -71 -48 -73 -12 -2 -26 1 -32 7 -6 6 -20 11 -31 11 -11 0 -33 12 -48
27 -16 15 -28 37 -28 51 0 13 14 40 30 59 17 18 30 41 30 50 0 9 11 36 25 60
19 31 32 43 50 43z"/>
</g>
</svg>
