<?xml version="1.0" standalone="no"?>
<!DOCTYPE svg PUBLIC "-//W3C//DTD SVG 20010904//EN"
 "http://www.w3.org/TR/2001/REC-SVG-20010904/DTD/svg10.dtd">
<svg version="1.0" xmlns="http://www.w3.org/2000/svg"
 width="56.000000pt" height="56.000000pt" viewBox="0 0 56.000000 56.000000"
 preserveAspectRatio="xMidYMid meet">
<metadata>
Created by potrace 1.16, written by Peter Selinger 2001-2019
</metadata>
<g transform="translate(0.000000,56.000000) scale(0.100000,-0.100000)"
fill="#000000" stroke="none">
<path d="M267 535 c-7 2 -17 1 -24 -1 -6 -3 -23 -36 -38 -74 -20 -53 -34 -73
-63 -92 -20 -14 -45 -27 -54 -31 -10 -3 -25 -4 -33 -1 -8 4 -15 15 -15 25 0
10 -6 19 -14 19 -8 0 -17 -7 -20 -16 -3 -9 -6 -29 -6 -45 0 -19 8 -34 24 -44
23 -15 28 -15 75 9 28 15 52 22 56 16 3 -5 3 -32 -1 -60 -6 -48 -6 -50 17 -50
14 0 34 7 46 15 11 8 32 19 45 24 14 5 30 6 36 2 8 -5 7 -19 -4 -51 -9 -25
-21 -58 -28 -75 -7 -16 -18 -43 -25 -58 -6 -15 -11 -33 -11 -38 0 -6 12 -9 27
-7 24 3 30 11 47 63 10 33 30 91 45 129 25 66 28 70 71 84 25 8 61 20 80 26
24 8 36 19 38 34 2 12 8 22 13 22 5 0 9 7 9 15 0 8 -4 15 -9 15 -5 0 -12 13
-16 29 -3 16 -14 36 -23 44 -9 8 -32 17 -50 20 -17 4 -43 2 -56 -3 -20 -7 -27
-5 -40 14 -9 14 -29 26 -51 30 -20 4 -42 9 -48 11z m24 -35 c3 0 10 -5 17 -12
7 -7 12 -15 12 -19 0 -4 -18 -16 -40 -28 -21 -11 -41 -17 -44 -12 -3 4 7 22
22 39 15 18 29 32 33 32z m141 -64 c17 -3 40 -13 49 -22 12 -11 15 -22 10 -37
-5 -12 -24 -25 -50 -33 -37 -11 -42 -10 -51 6 -6 10 -10 23 -10 29 0 5 5 22
10 37 9 23 14 26 42 20z m-107 -40 c5 -1 12 -13 15 -27 4 -13 2 -34 -3 -45 -5
-12 -23 -28 -41 -36 -17 -9 -46 -19 -64 -22 -31 -7 -32 -6 -32 22 0 17 3 38 7
47 3 10 29 28 57 41 28 12 55 22 61 20z"/>
</g>
</svg>
