<?xml version="1.0" standalone="no"?>
<!DOCTYPE svg PUBLIC "-//W3C//DTD SVG 20010904//EN"
 "http://www.w3.org/TR/2001/REC-SVG-20010904/DTD/svg10.dtd">
<svg version="1.0" xmlns="http://www.w3.org/2000/svg"
 width="56.000000pt" height="56.000000pt" viewBox="0 0 56.000000 56.000000"
 preserveAspectRatio="xMidYMid meet">
<metadata>
Created by potrace 1.16, written by Peter Selinger 2001-2019
</metadata>
<g transform="translate(0.000000,56.000000) scale(0.100000,-0.100000)"
fill="#000000" stroke="none">
<path d="M338 440 c-14 0 -33 -10 -44 -22 -16 -19 -16 -21 -1 -9 14 11 23 11
42 3 16 -7 23 -17 19 -26 -3 -8 -19 -18 -36 -22 -23 -5 -33 -2 -40 10 -5 10
-14 13 -21 9 -7 -5 -34 -13 -62 -18 -50 -11 -50 -11 -50 -59 0 -48 -1 -49 -50
-77 -27 -15 -60 -28 -72 -28 -17 -1 -23 -7 -23 -25 0 -14 7 -32 16 -40 8 -9
19 -16 23 -16 4 0 40 22 80 50 40 28 79 50 86 50 7 0 27 -16 44 -36 18 -20 39
-34 49 -32 9 2 18 12 20 22 2 10 -10 32 -28 51 -18 18 -29 38 -26 44 4 6 15
11 26 11 10 0 20 6 23 14 3 8 44 27 90 42 46 15 92 24 100 21 10 -4 14 -13 11
-21 -3 -8 -25 -24 -47 -35 -23 -11 -66 -23 -96 -27 -41 -5 -50 -9 -36 -17 9
-5 42 -9 74 -9 31 0 67 6 81 14 14 7 35 20 48 28 12 9 22 25 22 39 0 13 -10
32 -22 43 -12 10 -32 21 -46 25 -13 3 -35 0 -48 -6 -14 -6 -29 -11 -34 -11 -6
0 -10 6 -10 13 0 8 -8 21 -18 30 -10 10 -30 17 -44 17z m-119 -90 c5 0 16 -3
25 -6 9 -3 16 -14 16 -24 0 -10 -8 -21 -17 -24 -9 -4 -23 0 -31 8 -8 8 -12 22
-9 30 4 9 11 16 16 16z"/>
</g>
</svg>
