<?xml version="1.0" standalone="no"?>
<!DOCTYPE svg PUBLIC "-//W3C//DTD SVG 20010904//EN"
 "http://www.w3.org/TR/2001/REC-SVG-20010904/DTD/svg10.dtd">
<svg version="1.0" xmlns="http://www.w3.org/2000/svg"
 width="56.000000pt" height="56.000000pt" viewBox="0 0 56.000000 56.000000"
 preserveAspectRatio="xMidYMid meet">
<metadata>
Created by potrace 1.16, written by Peter Selinger 2001-2019
</metadata>
<g transform="translate(0.000000,56.000000) scale(0.100000,-0.100000)"
fill="#000000" stroke="none">
<path d="M244 507 c-26 4 -35 0 -53 -25 -11 -17 -21 -37 -21 -45 0 -9 5 -19
10 -22 6 -3 23 8 39 26 27 29 32 31 48 19 10 -8 24 -21 31 -29 6 -8 12 -27 12
-42 0 -15 -4 -30 -9 -34 -5 -3 -33 -10 -63 -16 -29 -6 -75 -15 -103 -20 -27
-5 -67 -11 -88 -13 -21 -2 -40 -6 -43 -9 -3 -3 -3 -10 1 -16 3 -6 28 -11 56
-11 47 0 49 -1 49 -28 0 -16 -9 -37 -20 -47 -13 -12 -20 -29 -18 -44 3 -23 7
-26 38 -23 19 2 45 10 57 18 12 7 41 17 64 20 42 7 42 7 35 -22 -4 -16 -10
-45 -13 -65 -3 -22 0 -39 6 -44 7 -4 18 -1 26 5 8 7 15 29 15 50 0 28 8 46 29
69 16 17 39 31 51 31 13 0 58 10 101 22 70 19 79 24 79 45 0 12 -4 23 -9 23
-5 0 -19 16 -31 36 -13 19 -34 40 -49 46 -14 6 -42 12 -61 12 -34 1 -35 3 -37
40 0 21 -6 43 -12 49 -6 6 -27 17 -48 25 -21 8 -52 16 -69 19z m152 -167 c12
0 29 -3 37 -6 9 -3 13 -13 10 -24 -3 -10 -22 -32 -43 -49 -21 -16 -40 -27 -44
-24 -3 4 -6 23 -6 43 0 20 5 41 12 48 7 7 22 12 34 12z m-108 -28 c6 -2 12
-20 12 -39 0 -29 -5 -36 -35 -49 -19 -7 -51 -14 -71 -14 -37 0 -37 0 -31 36 3
20 8 39 11 41 2 3 26 10 53 17 26 7 54 11 61 8z"/>
</g>
</svg>
