<?xml version="1.0" standalone="no"?>
<!DOCTYPE svg PUBLIC "-//W3C//DTD SVG 20010904//EN"
 "http://www.w3.org/TR/2001/REC-SVG-20010904/DTD/svg10.dtd">
<svg version="1.0" xmlns="http://www.w3.org/2000/svg"
 width="56.000000pt" height="56.000000pt" viewBox="0 0 56.000000 56.000000"
 preserveAspectRatio="xMidYMid meet">
<metadata>
Created by potrace 1.16, written by Peter Selinger 2001-2019
</metadata>
<g transform="translate(0.000000,56.000000) scale(0.100000,-0.100000)"
fill="#000000" stroke="none">
<path d="M311 560 c-10 0 -23 -11 -29 -24 -6 -13 -43 -58 -83 -100 -40 -42
-78 -76 -85 -76 -7 0 -22 -12 -33 -26 -12 -15 -21 -41 -21 -60 0 -18 5 -36 10
-39 6 -4 24 5 41 19 24 21 34 24 49 16 11 -6 46 -33 79 -60 35 -29 74 -74 95
-109 19 -32 36 -67 38 -77 2 -10 12 -20 22 -22 17 -4 18 1 13 42 -5 33 -19 63
-48 101 -23 31 -40 57 -38 58 2 2 15 8 29 14 14 6 46 14 71 18 26 3 54 12 64
19 16 12 16 15 1 42 -8 16 -21 36 -28 45 -7 9 -22 21 -34 27 -11 6 -40 8 -65
6 -24 -3 -56 -10 -71 -16 -15 -6 -25 -14 -22 -19 3 -5 45 -9 95 -9 49 0 89 -4
89 -9 0 -4 -9 -19 -19 -32 -13 -17 -38 -29 -80 -38 -53 -12 -66 -12 -88 0 -15
8 -31 27 -37 42 -10 26 -14 28 -48 24 -21 -3 -38 -2 -38 2 0 4 14 20 30 36 17
16 30 34 30 39 0 6 12 17 28 24 15 7 47 30 71 52 36 33 42 44 37 65 -4 15 -13
25 -25 25z"/>
</g>
</svg>
