<?xml version="1.0" standalone="no"?>
<!DOCTYPE svg PUBLIC "-//W3C//DTD SVG 20010904//EN"
 "http://www.w3.org/TR/2001/REC-SVG-20010904/DTD/svg10.dtd">
<svg version="1.0" xmlns="http://www.w3.org/2000/svg"
 width="56.000000pt" height="56.000000pt" viewBox="0 0 56.000000 56.000000"
 preserveAspectRatio="xMidYMid meet">
<metadata>
Created by potrace 1.16, written by Peter Selinger 2001-2019
</metadata>
<g transform="translate(0.000000,56.000000) scale(0.100000,-0.100000)"
fill="#000000" stroke="none">
<path d="M144 460 c-6 0 -14 -3 -17 -7 -4 -3 -7 -12 -7 -19 0 -8 11 -16 25
-20 14 -3 25 -10 25 -16 0 -5 -12 -20 -27 -34 -16 -13 -49 -35 -74 -49 -33
-17 -50 -34 -58 -56 -6 -17 -8 -35 -5 -40 3 -5 14 -9 25 -9 11 0 30 5 42 11
12 6 34 23 49 37 27 25 27 25 92 -22 35 -25 76 -50 90 -56 14 -5 26 -16 26
-24 0 -9 -14 -23 -30 -31 -17 -9 -28 -20 -25 -25 4 -6 35 -10 70 -10 35 0 70
3 79 6 9 3 16 14 16 23 0 10 -12 29 -27 43 -16 14 -38 29 -51 33 -13 4 -21 12
-19 18 2 7 37 14 88 17 55 3 92 11 107 22 23 16 23 17 7 42 -17 26 -17 26 -41
7 -14 -11 -43 -20 -71 -21 -27 -1 -84 -3 -128 -4 -64 -1 -80 2 -83 14 -2 10
12 19 39 28 23 7 77 16 121 19 65 5 78 9 76 22 -3 13 -20 17 -93 19 -49 2 -92
5 -94 8 -2 2 2 16 10 31 7 16 15 31 17 36 2 4 -11 7 -28 7 -23 0 -33 -5 -37
-20 -3 -11 -10 -20 -17 -20 -6 0 -22 9 -36 20 -14 11 -30 20 -36 20z"/>
</g>
</svg>
