<?xml version="1.0" standalone="no"?>
<!DOCTYPE svg PUBLIC "-//W3C//DTD SVG 20010904//EN"
 "http://www.w3.org/TR/2001/REC-SVG-20010904/DTD/svg10.dtd">
<svg version="1.0" xmlns="http://www.w3.org/2000/svg"
 width="56.000000pt" height="56.000000pt" viewBox="0 0 56.000000 56.000000"
 preserveAspectRatio="xMidYMid meet">
<metadata>
Created by potrace 1.16, written by Peter Selinger 2001-2019
</metadata>
<g transform="translate(0.000000,56.000000) scale(0.100000,-0.100000)"
fill="#000000" stroke="none">
<path d="M333 510 c-5 0 -16 -12 -26 -25 -17 -24 -17 -24 -50 -5 -17 11 -49
20 -70 20 -27 0 -37 -4 -35 -12 3 -7 19 -20 36 -28 32 -16 32 -16 -5 -52 -21
-20 -55 -43 -75 -52 -21 -8 -38 -20 -38 -25 0 -6 -7 -11 -15 -11 -8 0 -15 -3
-15 -7 0 -4 12 -17 27 -29 27 -21 27 -21 -21 -49 -30 -18 -46 -33 -44 -44 2
-9 15 -17 29 -19 20 -2 33 6 60 41 33 44 33 44 119 -26 47 -39 101 -87 120
-108 20 -22 43 -39 53 -39 12 0 17 8 17 32 0 25 -11 41 -62 87 -34 31 -76 66
-94 79 -18 12 -40 22 -49 22 -11 0 -15 7 -13 23 2 15 13 25 35 32 17 6 40 18
51 28 16 15 34 17 103 15 82 -3 84 -3 87 -29 2 -19 -4 -32 -21 -45 -14 -11
-39 -27 -57 -36 -17 -10 -28 -22 -25 -28 3 -5 26 -10 50 -10 24 0 47 5 50 10
3 6 15 10 25 10 10 0 28 12 39 28 12 15 25 32 31 39 5 7 10 18 10 25 -1 7 -19
31 -40 53 -40 40 -40 40 -130 40 -64 0 -90 3 -90 12 0 7 9 17 20 23 12 6 20
21 20 35 0 14 -3 25 -7 25z m-145 -141 c6 0 12 -2 12 -7 0 -4 -12 -20 -26 -36
-23 -24 -28 -26 -41 -14 -7 8 -11 22 -8 31 4 9 16 18 28 20 12 2 28 5 35 6z"/>
</g>
</svg>
