<?xml version="1.0" standalone="no"?>
<!DOCTYPE svg PUBLIC "-//W3C//DTD SVG 20010904//EN"
 "http://www.w3.org/TR/2001/REC-SVG-20010904/DTD/svg10.dtd">
<svg version="1.0" xmlns="http://www.w3.org/2000/svg"
 width="56.000000pt" height="56.000000pt" viewBox="0 0 56.000000 56.000000"
 preserveAspectRatio="xMidYMid meet">
<metadata>
Created by potrace 1.16, written by Peter Selinger 2001-2019
</metadata>
<g transform="translate(0.000000,56.000000) scale(0.100000,-0.100000)"
fill="#000000" stroke="none">
<path d="M328 560 c-7 0 -21 -12 -31 -25 -16 -22 -23 -24 -62 -18 -41 5 -45 4
-45 -15 0 -18 -7 -21 -47 -24 -39 -2 -49 -7 -51 -23 -2 -12 8 -31 23 -45 14
-13 25 -28 25 -33 0 -5 -11 -18 -25 -29 -14 -11 -25 -30 -25 -42 0 -12 3 -25
6 -29 4 -3 26 7 49 23 43 30 43 30 83 -23 21 -28 53 -77 69 -107 17 -30 39
-71 51 -91 11 -20 26 -46 33 -58 8 -11 24 -21 36 -21 18 0 23 6 23 26 0 14
-13 43 -28 63 -16 20 -31 43 -34 51 -3 8 -35 54 -71 103 -66 87 -66 87 36 87
67 0 107 4 115 12 7 7 12 19 12 29 0 9 -9 28 -20 41 -12 15 -34 28 -56 31 -24
4 -53 0 -85 -12 -27 -11 -51 -16 -53 -12 -3 4 15 32 40 62 24 29 44 60 44 66
0 7 -6 13 -12 13z m-131 -101 c6 0 14 -3 17 -8 3 -4 -3 -16 -14 -26 -16 -15
-22 -15 -35 -5 -8 7 -15 16 -15 20 0 5 8 11 18 13 9 3 22 5 29 6z m164 -49
c15 0 29 -6 32 -14 3 -8 0 -19 -6 -24 -7 -6 -44 -13 -83 -17 -49 -5 -74 -4
-78 4 -4 6 -6 11 -4 11 2 0 28 9 58 20 30 10 67 19 81 20z"/>
</g>
</svg>
