<?xml version="1.0" standalone="no"?>
<!DOCTYPE svg PUBLIC "-//W3C//DTD SVG 20010904//EN"
 "http://www.w3.org/TR/2001/REC-SVG-20010904/DTD/svg10.dtd">
<svg version="1.0" xmlns="http://www.w3.org/2000/svg"
 width="56.000000pt" height="56.000000pt" viewBox="0 0 56.000000 56.000000"
 preserveAspectRatio="xMidYMid meet">
<metadata>
Created by potrace 1.16, written by Peter Selinger 2001-2019
</metadata>
<g transform="translate(0.000000,56.000000) scale(0.100000,-0.100000)"
fill="#000000" stroke="none">
<path d="M246 510 c-13 0 -37 -10 -53 -23 -15 -13 -41 -32 -57 -42 -16 -11
-39 -27 -52 -36 -14 -9 -38 -34 -54 -55 -16 -21 -30 -47 -30 -58 0 -16 5 -17
46 -11 26 3 58 12 71 18 21 9 27 8 38 -6 7 -9 18 -52 24 -95 7 -42 17 -94 23
-115 9 -30 16 -37 32 -35 17 2 22 11 24 46 2 25 -5 67 -18 103 -12 33 -19 63
-16 67 4 3 34 1 67 -4 36 -6 86 -7 120 -2 35 4 72 17 89 30 16 12 32 30 36 40
3 10 10 18 15 18 5 0 9 8 9 18 0 11 -12 22 -32 30 -23 8 -52 9 -93 3 -33 -5
-77 -12 -97 -16 -34 -7 -39 -5 -58 26 -15 24 -19 43 -15 67 5 29 4 32 -19 32z
m-23 -87 c9 -9 17 -22 17 -29 0 -7 -8 -17 -17 -22 -10 -5 -39 -12 -65 -15 -27
-4 -48 -3 -48 2 0 5 21 25 48 44 43 33 48 34 65 20z m204 -64 c12 0 25 -4 28
-9 4 -6 -17 -21 -47 -35 -45 -21 -65 -24 -122 -20 -37 2 -74 9 -82 16 -7 6
-11 15 -8 20 3 5 29 9 57 10 29 0 75 4 102 9 28 4 60 8 72 9z"/>
<path d="M548 169 c-7 0 -20 -3 -28 -6 -8 -3 -27 -17 -42 -31 -20 -18 -28 -36
-28 -58 0 -18 6 -34 13 -37 6 -2 18 -2 25 1 6 2 12 17 12 33 0 20 8 33 30 46
17 9 30 25 30 35 0 10 -6 18 -12 17z"/>
</g>
</svg>
