<?xml version="1.0" standalone="no"?>
<!DOCTYPE svg PUBLIC "-//W3C//DTD SVG 20010904//EN"
 "http://www.w3.org/TR/2001/REC-SVG-20010904/DTD/svg10.dtd">
<svg version="1.0" xmlns="http://www.w3.org/2000/svg"
 width="56.000000pt" height="56.000000pt" viewBox="0 0 56.000000 56.000000"
 preserveAspectRatio="xMidYMid meet">
<metadata>
Created by potrace 1.16, written by Peter Selinger 2001-2019
</metadata>
<g transform="translate(0.000000,56.000000) scale(0.100000,-0.100000)"
fill="#000000" stroke="none">
<path d="M296 500 c-7 0 -38 -38 -69 -85 -39 -57 -65 -87 -82 -91 -13 -3 -27
-15 -30 -25 -4 -10 -4 -28 0 -38 4 -15 -9 -34 -55 -79 -51 -50 -61 -64 -58
-88 2 -18 10 -30 21 -32 10 -2 42 20 80 57 35 34 67 61 72 61 4 0 37 -25 72
-56 44 -39 67 -54 75 -46 5 5 7 18 4 28 -4 11 -29 36 -56 57 -28 21 -50 43
-50 48 0 6 37 28 83 49 45 21 106 42 135 46 47 6 52 5 52 -13 0 -11 -11 -30
-26 -44 -19 -18 -44 -26 -102 -34 -77 -11 -77 -11 -28 -28 27 -9 59 -17 72
-17 12 0 41 11 66 25 24 13 54 36 66 50 12 14 22 35 22 48 0 14 -12 30 -33 45
-20 13 -47 22 -68 21 -19 0 -43 -4 -54 -8 -16 -6 -24 -2 -37 20 -10 16 -26 29
-37 29 -11 0 -27 -3 -35 -6 -12 -5 -14 -10 -6 -19 8 -10 5 -17 -12 -29 -12 -9
-30 -16 -40 -16 -9 0 -19 4 -22 9 -3 4 9 23 28 42 18 19 43 49 55 66 12 18 19
37 16 43 -3 5 -12 10 -19 10z m-79 -190 c7 0 13 -6 13 -13 0 -8 -11 -19 -25
-25 -18 -8 -26 -8 -31 0 -4 6 1 17 11 25 11 7 25 13 32 13z"/>
</g>
</svg>
