<?xml version="1.0" standalone="no"?>
<!DOCTYPE svg PUBLIC "-//W3C//DTD SVG 20010904//EN"
 "http://www.w3.org/TR/2001/REC-SVG-20010904/DTD/svg10.dtd">
<svg version="1.0" xmlns="http://www.w3.org/2000/svg"
 width="56.000000pt" height="56.000000pt" viewBox="0 0 56.000000 56.000000"
 preserveAspectRatio="xMidYMid meet">
<metadata>
Created by potrace 1.16, written by Peter Selinger 2001-2019
</metadata>
<g transform="translate(0.000000,56.000000) scale(0.100000,-0.100000)"
fill="#000000" stroke="none">
<path d="M450 560 c-11 0 -20 -4 -20 -9 0 -5 7 -15 17 -22 9 -8 25 -33 35 -56
10 -24 24 -43 31 -43 7 0 20 7 30 14 9 7 17 22 16 32 0 10 -20 34 -45 52 -24
17 -53 32 -64 32z"/>
<path d="M140 520 c-6 0 -13 -6 -15 -12 -2 -7 -6 -31 -7 -53 -3 -37 -1 -40 24
-43 15 -2 37 2 48 8 12 6 24 9 28 6 3 -3 -17 -38 -44 -77 -27 -40 -77 -105
-112 -146 -56 -65 -63 -78 -60 -110 2 -20 8 -38 14 -40 6 -2 28 19 48 47 20
27 40 50 45 50 5 0 37 -24 70 -52 34 -29 61 -59 61 -65 0 -7 9 -13 20 -13 10
0 31 -5 45 -12 20 -9 40 -9 88 1 34 7 72 19 85 27 12 8 22 25 22 37 0 13 -4
27 -9 33 -5 5 -16 29 -24 54 -8 24 -20 46 -26 48 -7 2 -11 -14 -11 -46 0 -28
-6 -54 -12 -60 -7 -5 -30 -15 -50 -23 -24 -8 -41 -10 -48 -3 -6 6 7 36 35 84
25 41 45 84 45 95 0 12 -11 32 -26 45 -17 17 -23 31 -20 46 4 13 -2 29 -15 42
-11 12 -29 22 -39 22 -11 0 -20 4 -20 9 0 4 9 20 21 35 11 14 19 34 17 44 -2
10 -14 18 -32 20 -16 2 -39 -1 -50 -6 -12 -6 -33 -13 -47 -16 -19 -4 -29 -1
-33 9 -3 8 -10 15 -16 15z m119 -182 c9 -2 18 -14 19 -28 2 -14 11 -29 19 -33
13 -8 12 -11 -4 -22 -10 -7 -42 -19 -72 -28 -30 -9 -58 -14 -63 -11 -4 3 -4
13 1 22 5 9 26 36 46 60 22 25 44 42 54 40z m39 -109 c12 1 22 -4 22 -10 0 -7
-9 -27 -21 -45 -11 -19 -31 -37 -44 -40 -12 -3 -37 1 -54 10 -18 10 -28 22
-25 29 3 8 26 23 52 35 26 11 57 21 70 21z"/>
</g>
</svg>
