<?xml version="1.0" standalone="no"?>
<!DOCTYPE svg PUBLIC "-//W3C//DTD SVG 20010904//EN"
 "http://www.w3.org/TR/2001/REC-SVG-20010904/DTD/svg10.dtd">
<svg version="1.0" xmlns="http://www.w3.org/2000/svg"
 width="56.000000pt" height="56.000000pt" viewBox="0 0 56.000000 56.000000"
 preserveAspectRatio="xMidYMid meet">
<metadata>
Created by potrace 1.16, written by Peter Selinger 2001-2019
</metadata>
<g transform="translate(0.000000,56.000000) scale(0.100000,-0.100000)"
fill="#000000" stroke="none">
<path d="M279 530 c-10 0 -27 -9 -37 -21 -16 -17 -27 -19 -57 -13 -37 7 -38 6
-31 -17 4 -13 10 -34 13 -46 3 -14 1 -23 -6 -23 -6 0 -41 -23 -76 -51 -36 -28
-70 -59 -75 -69 -6 -10 -10 -23 -10 -29 0 -6 7 -11 17 -11 9 0 32 12 50 26 35
26 35 26 63 -1 16 -15 42 -55 58 -89 16 -33 39 -82 51 -109 18 -41 25 -47 51
-47 28 0 30 3 30 35 0 19 -5 47 -12 62 -7 15 -23 42 -35 58 -13 17 -28 36 -34
43 -5 7 -7 16 -4 21 3 5 36 13 73 16 37 4 73 12 80 18 9 7 16 7 24 -1 7 -7 35
-12 62 -12 28 0 59 7 69 14 9 7 17 23 17 35 0 12 -4 27 -10 34 -5 7 -23 29
-40 49 -23 27 -46 41 -86 53 -43 12 -63 13 -95 5 -23 -6 -44 -9 -47 -5 -3 3 2
18 11 34 9 15 14 31 10 35 -3 3 -14 6 -24 6z m41 -122 c30 0 71 -4 90 -10 19
-6 38 -16 42 -22 4 -6 8 -17 8 -24 0 -7 -12 -18 -27 -24 -16 -6 -37 -10 -48
-9 -11 2 -24 7 -30 11 -5 4 -28 10 -50 12 -22 3 -32 3 -22 1 9 -2 17 -8 17
-13 0 -4 -7 -11 -16 -14 -9 -3 -21 -3 -27 1 -6 3 -27 7 -46 7 -26 1 -37 6 -39
19 -2 10 4 20 15 24 10 4 23 12 28 19 6 7 19 14 30 17 11 2 45 5 75 5z"/>
<path d="M410 200 c-4 0 -10 -3 -13 -7 -4 -3 0 -15 9 -25 13 -13 14 -21 5 -31
-9 -11 -8 -17 5 -28 14 -11 18 -10 30 6 8 10 14 22 14 27 0 4 -10 19 -22 33
-12 14 -25 25 -28 25z"/>
</g>
</svg>
