<?xml version="1.0" standalone="no"?>
<!DOCTYPE svg PUBLIC "-//W3C//DTD SVG 20010904//EN"
 "http://www.w3.org/TR/2001/REC-SVG-20010904/DTD/svg10.dtd">
<svg version="1.0" xmlns="http://www.w3.org/2000/svg"
 width="56.000000pt" height="56.000000pt" viewBox="0 0 56.000000 56.000000"
 preserveAspectRatio="xMidYMid meet">
<metadata>
Created by potrace 1.16, written by Peter Selinger 2001-2019
</metadata>
<g transform="translate(0.000000,56.000000) scale(0.100000,-0.100000)"
fill="#000000" stroke="none">
<path d="M285 536 c-5 2 -24 -5 -41 -14 -18 -9 -71 -60 -118 -112 -65 -73 -90
-108 -105 -151 -13 -38 -16 -61 -9 -72 8 -15 13 -14 51 11 23 16 56 37 74 46
31 15 33 15 51 -4 10 -11 31 -44 46 -73 15 -29 37 -70 50 -92 12 -22 30 -41
39 -43 12 -2 17 3 17 18 0 12 -5 31 -11 43 -7 12 -23 35 -35 50 -13 16 -24 32
-24 37 0 5 28 8 63 7 34 -1 83 4 109 12 27 7 64 28 83 47 23 21 35 42 35 59 0
14 -9 35 -19 46 -11 12 -32 27 -46 35 -15 8 -44 14 -64 14 -20 0 -41 -4 -46
-9 -6 -4 -22 -11 -37 -15 -15 -3 -30 -2 -33 4 -3 5 -17 10 -31 10 -14 0 -34
-5 -45 -10 -10 -6 -19 -19 -19 -30 0 -11 -10 -26 -23 -35 -13 -8 -37 -18 -55
-21 -26 -5 -32 -3 -32 11 0 9 16 39 35 65 19 26 54 63 77 82 24 19 51 38 61
41 10 4 17 14 15 24 -2 9 -7 18 -13 19z m147 -187 c38 1 49 -3 59 -20 9 -19 7
-26 -20 -52 -27 -27 -40 -32 -108 -38 -58 -6 -85 -4 -112 7 -35 15 -35 15 -6
39 17 13 55 33 85 44 30 11 76 20 102 20z"/>
</g>
</svg>
