<?xml version="1.0" standalone="no"?>
<!DOCTYPE svg PUBLIC "-//W3C//DTD SVG 20010904//EN"
 "http://www.w3.org/TR/2001/REC-SVG-20010904/DTD/svg10.dtd">
<svg version="1.0" xmlns="http://www.w3.org/2000/svg"
 width="56.000000pt" height="56.000000pt" viewBox="0 0 56.000000 56.000000"
 preserveAspectRatio="xMidYMid meet">
<metadata>
Created by potrace 1.16, written by Peter Selinger 2001-2019
</metadata>
<g transform="translate(0.000000,56.000000) scale(0.100000,-0.100000)"
fill="#000000" stroke="none">
<path d="M363 498 c-25 3 -39 -5 -74 -37 -23 -23 -49 -41 -57 -41 -8 0 -32 5
-53 11 -20 7 -45 9 -55 5 -15 -6 -15 -9 7 -32 20 -21 21 -27 9 -34 -8 -5 -22
-10 -31 -10 -9 0 -21 -6 -27 -13 -9 -10 -5 -23 14 -51 20 -30 23 -40 14 -52
-7 -7 -30 -19 -51 -24 -21 -6 -44 -20 -49 -31 -8 -14 -8 -30 0 -54 6 -19 17
-35 24 -35 7 0 27 16 44 36 18 20 32 44 32 53 0 9 5 22 12 29 7 7 20 12 30 12
9 0 21 -6 25 -14 4 -8 39 -48 77 -90 48 -52 77 -76 92 -76 13 0 25 4 28 8 3 5
-7 25 -22 46 -20 29 -24 41 -16 54 7 11 30 19 64 22 30 3 55 11 58 18 2 7 19
12 37 12 24 0 37 7 49 25 9 13 16 31 16 40 0 8 -7 23 -15 32 -8 10 -21 26 -28
36 -9 14 -27 19 -63 21 -27 1 -64 -2 -82 -5 -23 -5 -37 -3 -47 8 -8 8 -15 20
-15 26 0 7 21 25 46 40 30 18 44 33 42 45 -2 11 -14 18 -35 20z m-152 -128 c5
0 9 -4 9 -9 0 -6 -5 -13 -11 -16 -6 -4 -13 -5 -16 -2 -3 3 -2 10 2 16 3 6 10
11 16 11z m112 -56 c61 0 126 -1 143 -2 25 -2 33 -7 36 -26 3 -13 -1 -30 -7
-39 -9 -12 -28 -16 -78 -16 -37 1 -82 -4 -101 -11 -27 -9 -41 -8 -70 4 -32 13
-36 19 -36 53 0 38 0 38 113 37z"/>
</g>
</svg>
