<?xml version="1.0" standalone="no"?>
<!DOCTYPE svg PUBLIC "-//W3C//DTD SVG 20010904//EN"
 "http://www.w3.org/TR/2001/REC-SVG-20010904/DTD/svg10.dtd">
<svg version="1.0" xmlns="http://www.w3.org/2000/svg"
 width="56.000000pt" height="56.000000pt" viewBox="0 0 56.000000 56.000000"
 preserveAspectRatio="xMidYMid meet">
<metadata>
Created by potrace 1.16, written by Peter Selinger 2001-2019
</metadata>
<g transform="translate(0.000000,56.000000) scale(0.100000,-0.100000)"
fill="#000000" stroke="none">
<path d="M478 529 c-24 -1 -61 -5 -83 -9 -22 -5 -55 -15 -74 -23 -29 -12 -37
-12 -62 0 -16 8 -38 12 -48 8 -11 -3 -25 -20 -31 -38 -8 -25 -28 -42 -87 -77
-42 -25 -81 -53 -87 -62 -7 -12 -7 -21 0 -28 8 -8 38 2 108 37 98 48 98 48
122 18 14 -16 40 -57 59 -91 19 -33 35 -70 35 -81 0 -12 14 -47 31 -79 16 -33
40 -67 52 -76 12 -10 28 -18 35 -18 6 0 12 6 12 14 0 8 -3 16 -7 18 -5 2 -18
23 -29 48 -12 25 -27 61 -34 80 -7 19 -18 49 -26 65 -7 17 -31 54 -53 84 -23
30 -41 61 -41 68 0 8 25 26 56 40 31 14 72 29 90 33 20 5 34 4 34 -1 0 -6 -18
-27 -40 -48 -30 -28 -40 -46 -40 -69 0 -21 7 -36 22 -46 12 -9 37 -16 55 -16
17 0 39 7 47 16 9 8 16 24 16 34 0 11 -10 29 -22 40 -21 19 -23 20 -35 4 -7
-10 -15 -15 -19 -12 -3 4 -1 16 6 28 6 11 36 32 66 47 43 20 54 30 54 49 0 13
-9 28 -19 34 -11 5 -39 10 -63 9z"/>
</g>
</svg>
