<?xml version="1.0" standalone="no"?>
<!DOCTYPE svg PUBLIC "-//W3C//DTD SVG 20010904//EN"
 "http://www.w3.org/TR/2001/REC-SVG-20010904/DTD/svg10.dtd">
<svg version="1.0" xmlns="http://www.w3.org/2000/svg"
 width="56.000000pt" height="56.000000pt" viewBox="0 0 56.000000 56.000000"
 preserveAspectRatio="xMidYMid meet">
<metadata>
Created by potrace 1.16, written by Peter Selinger 2001-2019
</metadata>
<g transform="translate(0.000000,56.000000) scale(0.100000,-0.100000)"
fill="#000000" stroke="none">
<path d="M307 510 c-8 0 -22 -9 -32 -20 -11 -12 -31 -20 -51 -20 -29 0 -36 -5
-48 -33 -7 -18 -31 -47 -52 -63 -22 -17 -53 -36 -70 -43 -17 -7 -36 -24 -43
-37 -6 -14 -11 -34 -11 -44 0 -13 7 -20 18 -20 10 0 34 16 52 35 25 26 42 35
60 33 20 -2 27 -11 35 -45 6 -23 14 -45 18 -50 5 -4 19 -8 30 -8 19 0 22 -5
19 -35 -2 -19 -10 -47 -18 -62 -8 -15 -14 -32 -14 -38 0 -5 16 -10 35 -10 30
0 35 4 41 27 3 16 12 42 19 58 8 17 16 37 18 46 3 10 35 23 89 37 47 11 94 19
105 16 16 -4 22 0 27 20 3 14 11 26 16 26 6 0 10 9 10 19 0 10 -7 22 -16 25
-12 4 -14 14 -9 37 5 23 3 34 -11 44 -15 11 -20 11 -29 -1 -8 -12 -16 -12 -43
-3 -19 6 -51 9 -72 6 -36 -5 -40 -3 -51 27 -6 17 -11 41 -10 54 2 13 -3 22
-12 22z m-57 -70 c3 0 14 -6 25 -13 10 -8 15 -19 11 -25 -4 -7 -20 -12 -37
-12 -17 0 -29 5 -29 13 0 7 5 18 12 25 7 7 15 12 18 12z m137 -80 c13 0 37 -7
53 -15 17 -9 30 -22 30 -31 0 -8 -19 -24 -42 -34 -24 -11 -53 -20 -65 -20 -20
0 -23 5 -23 38 0 21 5 43 12 50 7 7 23 12 35 12z m-108 -26 c9 -8 11 -22 6
-44 -4 -19 -16 -35 -31 -42 -17 -8 -27 -8 -39 2 -8 7 -15 22 -15 34 0 12 6 29
13 38 6 9 21 18 32 20 11 3 26 -1 34 -8z"/>
<path d="M420 460 c-11 6 -20 7 -20 2 0 -5 6 -15 14 -21 9 -8 16 -8 20 -2 4 6
-3 15 -14 21z"/>
<path d="M446 190 c-6 0 -20 -6 -30 -12 -17 -9 -17 -12 -5 -22 9 -6 18 -19 22
-28 3 -10 11 -18 17 -18 6 0 15 11 22 25 8 19 8 28 -2 40 -7 8 -18 15 -24 15z"/>
</g>
</svg>
