<?xml version="1.0" standalone="no"?>
<!DOCTYPE svg PUBLIC "-//W3C//DTD SVG 20010904//EN"
 "http://www.w3.org/TR/2001/REC-SVG-20010904/DTD/svg10.dtd">
<svg version="1.0" xmlns="http://www.w3.org/2000/svg"
 width="56.000000pt" height="56.000000pt" viewBox="0 0 56.000000 56.000000"
 preserveAspectRatio="xMidYMid meet">
<metadata>
Created by potrace 1.16, written by Peter Selinger 2001-2019
</metadata>
<g transform="translate(0.000000,56.000000) scale(0.100000,-0.100000)"
fill="#000000" stroke="none">
<path d="M59 560 c-12 0 -19 -5 -17 -12 3 -7 15 -18 29 -25 13 -7 24 -18 24
-25 0 -7 -10 -17 -23 -23 -12 -5 -25 -17 -27 -26 -3 -9 2 -35 11 -58 9 -23 20
-41 25 -41 5 0 9 -12 8 -27 -1 -28 -1 -28 -11 0 -5 15 -15 26 -21 24 -7 -2
-20 -18 -31 -36 -10 -18 -21 -49 -23 -69 -2 -22 1 -38 9 -43 7 -5 23 -9 35 -9
12 0 34 10 50 23 15 12 41 28 57 35 27 12 30 11 68 -30 21 -24 45 -58 53 -77
8 -18 15 -39 15 -47 0 -7 -11 -25 -25 -40 -14 -15 -25 -33 -25 -40 0 -9 12
-14 30 -14 17 0 45 7 63 16 18 9 40 23 50 32 9 8 17 23 17 32 0 9 -10 25 -21
36 -12 10 -34 38 -50 61 -16 23 -29 44 -29 47 0 3 31 6 70 6 38 0 90 5 114 12
37 10 46 17 51 40 4 15 11 28 16 28 5 0 9 14 9 30 0 17 -4 30 -10 30 -5 0 -17
16 -26 35 -9 20 -31 43 -48 52 -16 9 -64 18 -106 22 -75 6 -75 6 -78 44 -3 31
-7 37 -27 37 -12 0 -25 -7 -29 -15 -3 -8 -16 -15 -29 -15 -13 0 -27 3 -31 7
-4 4 -27 6 -51 4 -27 -1 -45 2 -45 8 0 6 -9 11 -21 11z m62 -120 c12 0 19 -7
19 -19 0 -11 -5 -23 -11 -27 -6 -3 -18 0 -26 9 -9 8 -12 20 -9 26 4 6 16 11
27 11z m280 -31 c8 1 26 -11 40 -25 24 -26 24 -26 -4 -50 -15 -13 -51 -30 -79
-39 -28 -8 -60 -15 -70 -15 -11 0 -30 11 -43 25 -14 13 -25 29 -25 34 0 6 20
20 45 31 24 11 61 24 82 29 21 5 45 9 54 10z"/>
</g>
</svg>
