<?xml version="1.0" standalone="no"?>
<!DOCTYPE svg PUBLIC "-//W3C//DTD SVG 20010904//EN"
 "http://www.w3.org/TR/2001/REC-SVG-20010904/DTD/svg10.dtd">
<svg version="1.0" xmlns="http://www.w3.org/2000/svg"
 width="56.000000pt" height="56.000000pt" viewBox="0 0 56.000000 56.000000"
 preserveAspectRatio="xMidYMid meet">
<metadata>
Created by potrace 1.16, written by Peter Selinger 2001-2019
</metadata>
<g transform="translate(0.000000,56.000000) scale(0.100000,-0.100000)"
fill="#000000" stroke="none">
<path d="M348 400 c-18 0 -34 -10 -52 -32 -21 -27 -36 -35 -83 -43 -53 -9 -58
-12 -61 -38 -2 -15 -11 -31 -20 -36 -9 -4 -32 -11 -50 -14 -17 -4 -43 -2 -57
3 -19 7 -25 6 -25 -4 0 -7 8 -20 18 -29 10 -10 32 -17 48 -17 16 0 44 9 62 20
18 11 44 20 58 20 15 0 43 -10 64 -21 21 -12 41 -30 43 -40 3 -13 14 -19 31
-19 21 0 28 6 32 29 6 26 9 29 55 30 27 0 62 7 77 15 15 8 37 26 50 40 12 14
22 36 22 49 0 14 -13 30 -35 45 -27 19 -42 23 -72 18 -27 -5 -44 -2 -58 8 -11
9 -32 16 -47 16z m112 -61 c14 0 31 -3 38 -8 8 -5 12 -17 10 -27 -2 -11 -21
-29 -43 -41 -22 -12 -57 -22 -78 -22 -21 -1 -47 4 -58 9 -10 6 -19 19 -19 30
0 11 9 24 20 30 12 6 40 15 63 20 23 4 53 8 67 9z m-190 -59 c4 0 15 -9 25
-20 18 -19 17 -20 -2 -20 -11 0 -26 6 -32 13 -6 8 -8 17 -4 20 3 4 9 7 13 7z"/>
</g>
</svg>
