<?xml version="1.0" standalone="no"?>
<!DOCTYPE svg PUBLIC "-//W3C//DTD SVG 20010904//EN"
 "http://www.w3.org/TR/2001/REC-SVG-20010904/DTD/svg10.dtd">
<svg version="1.0" xmlns="http://www.w3.org/2000/svg"
 width="56.000000pt" height="56.000000pt" viewBox="0 0 56.000000 56.000000"
 preserveAspectRatio="xMidYMid meet">
<metadata>
Created by potrace 1.16, written by Peter Selinger 2001-2019
</metadata>
<g transform="translate(0.000000,56.000000) scale(0.100000,-0.100000)"
fill="#000000" stroke="none">
<path d="M241 560 c-12 0 -21 -4 -21 -8 0 -5 11 -14 25 -20 14 -6 25 -20 25
-30 0 -10 -20 -37 -44 -61 -29 -29 -50 -42 -60 -38 -9 4 -23 4 -31 1 -8 -4
-15 -14 -15 -24 0 -9 9 -25 20 -35 11 -10 17 -22 14 -27 -3 -5 -14 -6 -24 -3
-10 3 -21 1 -25 -5 -4 -6 3 -19 15 -28 22 -18 22 -19 5 -53 -10 -19 -31 -51
-48 -71 -17 -22 -27 -43 -24 -52 4 -9 12 -16 19 -16 8 0 21 9 30 19 9 10 19
28 23 40 3 12 13 21 22 21 12 0 14 -8 10 -36 -3 -20 -9 -39 -12 -42 -3 -4 -11
0 -16 8 -8 11 -9 9 -4 -10 3 -14 11 -38 17 -53 7 -17 17 -27 27 -25 13 3 17
23 21 116 5 113 5 113 40 142 19 16 45 34 57 41 13 7 26 9 30 5 4 -3 1 -28 -6
-54 -7 -26 -24 -73 -38 -104 -15 -35 -23 -64 -18 -75 6 -17 8 -16 23 5 10 12
24 33 33 45 17 21 17 21 59 -8 23 -16 55 -44 70 -63 19 -23 34 -33 44 -29 9 4
16 14 16 23 0 10 -11 31 -24 48 -13 17 -48 42 -77 56 -30 13 -56 25 -58 27 -2
1 2 15 8 31 7 16 27 36 45 45 19 8 50 30 70 47 20 18 36 40 36 49 0 10 -10 27
-23 39 -13 12 -29 22 -35 22 -7 0 -22 -5 -35 -12 -12 -6 -31 -16 -42 -21 -11
-6 -53 -28 -92 -49 -73 -39 -73 -39 -73 -14 0 18 18 45 60 88 38 38 60 70 60
84 0 14 -12 31 -29 43 -16 12 -39 21 -50 21z m197 -181 c6 0 12 -6 12 -13 0
-8 -16 -27 -35 -41 -19 -15 -39 -24 -45 -20 -5 3 -10 14 -10 24 0 10 6 23 13
29 6 5 21 12 32 15 11 2 26 5 33 6z"/>
<path d="M235 20 c-8 0 -17 -4 -20 -10 -4 -6 5 -10 20 -10 15 0 24 4 20 10 -3
5 -12 10 -20 10z"/>
</g>
</svg>
