<?xml version="1.0" standalone="no"?>
<!DOCTYPE svg PUBLIC "-//W3C//DTD SVG 20010904//EN"
 "http://www.w3.org/TR/2001/REC-SVG-20010904/DTD/svg10.dtd">
<svg version="1.0" xmlns="http://www.w3.org/2000/svg"
 width="56.000000pt" height="56.000000pt" viewBox="0 0 56.000000 56.000000"
 preserveAspectRatio="xMidYMid meet">
<metadata>
Created by potrace 1.16, written by Peter Selinger 2001-2019
</metadata>
<g transform="translate(0.000000,56.000000) scale(0.100000,-0.100000)"
fill="#000000" stroke="none">
<path d="M353 560 c-22 0 -34 -10 -52 -40 -14 -22 -31 -42 -39 -45 -7 -3 -22
5 -31 17 -12 14 -22 18 -32 13 -7 -5 -25 -9 -39 -9 -14 -1 -26 -8 -28 -17 -2
-10 6 -19 20 -23 23 -7 23 -7 1 -18 -13 -6 -23 -15 -23 -20 0 -4 16 -8 35 -8
24 0 35 -5 35 -14 0 -8 -10 -22 -22 -30 -12 -9 -29 -16 -37 -16 -8 0 -25 10
-38 21 -18 18 -25 20 -38 9 -8 -7 -15 -18 -15 -24 0 -6 9 -17 20 -24 11 -7 20
-22 20 -34 0 -11 -16 -40 -36 -64 -19 -24 -36 -56 -37 -70 -1 -15 3 -28 8 -30
6 -2 21 13 35 34 14 20 35 45 47 55 12 10 25 26 28 37 6 20 7 20 44 0 21 -10
41 -26 44 -35 4 -8 13 -15 21 -15 7 0 16 -10 20 -22 3 -13 19 -37 36 -55 16
-18 30 -37 30 -43 0 -5 6 -19 13 -31 10 -17 9 -22 -13 -39 -25 -20 -25 -20 7
-20 17 0 43 4 57 10 15 5 26 17 26 28 0 10 -13 34 -30 52 -16 18 -30 39 -30
46 0 7 -13 23 -28 36 -16 13 -40 44 -55 69 -14 25 -33 51 -41 59 -9 7 -16 18
-16 24 0 6 28 24 61 40 47 22 70 27 100 23 22 -3 51 -13 66 -22 23 -16 24 -18
9 -33 -10 -10 -46 -21 -88 -27 -39 -5 -73 -15 -75 -21 -2 -7 23 -15 64 -21 37
-6 83 -10 102 -9 28 1 38 7 53 35 13 23 17 43 12 63 -3 18 -14 33 -25 35 -10
3 -19 9 -19 14 0 4 -16 16 -35 25 -27 12 -51 15 -95 11 -33 -3 -60 -2 -60 1 0
4 20 27 45 52 24 25 44 51 45 58 0 7 -12 12 -27 12z"/>
</g>
</svg>
