<?xml version="1.0" standalone="no"?>
<!DOCTYPE svg PUBLIC "-//W3C//DTD SVG 20010904//EN"
 "http://www.w3.org/TR/2001/REC-SVG-20010904/DTD/svg10.dtd">
<svg version="1.0" xmlns="http://www.w3.org/2000/svg"
 width="56.000000pt" height="56.000000pt" viewBox="0 0 56.000000 56.000000"
 preserveAspectRatio="xMidYMid meet">
<metadata>
Created by potrace 1.16, written by Peter Selinger 2001-2019
</metadata>
<g transform="translate(0.000000,56.000000) scale(0.100000,-0.100000)"
fill="#000000" stroke="none">
<path d="M213 483 c-37 3 -53 0 -57 -9 -3 -9 8 -17 34 -24 22 -6 40 -15 40
-20 0 -4 -16 -14 -36 -20 -20 -7 -51 -13 -68 -14 -29 -2 -31 -5 -28 -35 1 -19
-3 -40 -9 -47 -6 -8 -23 -14 -38 -14 -15 0 -32 -5 -39 -12 -7 -7 -12 -27 -12
-45 0 -27 4 -33 21 -33 12 0 38 13 59 30 21 17 40 30 43 30 3 0 28 -24 56 -52
28 -29 62 -77 76 -105 14 -30 31 -53 40 -53 9 0 20 11 25 25 5 14 7 39 3 57
-4 21 -27 51 -70 92 -34 33 -63 64 -63 68 0 5 6 11 14 14 8 3 38 -11 66 -30
37 -25 65 -37 94 -38 22 -1 59 -1 81 0 27 2 49 11 67 29 16 15 28 33 28 40 0
7 5 13 10 13 6 0 10 8 10 17 0 9 -18 33 -39 53 -22 21 -59 42 -85 50 -38 10
-53 10 -90 -2 -43 -14 -45 -14 -63 8 -13 17 -31 23 -70 27z m155 -94 c44 1 73
-4 93 -16 16 -10 29 -22 29 -28 0 -6 -16 -19 -35 -28 -21 -10 -60 -17 -93 -17
-39 0 -67 6 -89 20 -21 12 -31 25 -27 34 3 8 18 19 32 25 15 5 56 10 90 10z"/>
</g>
</svg>
