<?xml version="1.0" standalone="no"?>
<!DOCTYPE svg PUBLIC "-//W3C//DTD SVG 20010904//EN"
 "http://www.w3.org/TR/2001/REC-SVG-20010904/DTD/svg10.dtd">
<svg version="1.0" xmlns="http://www.w3.org/2000/svg"
 width="56.000000pt" height="56.000000pt" viewBox="0 0 56.000000 56.000000"
 preserveAspectRatio="xMidYMid meet">
<metadata>
Created by potrace 1.16, written by Peter Selinger 2001-2019
</metadata>
<g transform="translate(0.000000,56.000000) scale(0.100000,-0.100000)"
fill="#000000" stroke="none">
<path d="M214 435 c-40 5 -53 3 -64 -10 -8 -9 -40 -37 -71 -61 -32 -24 -60
-52 -63 -62 -2 -9 -7 -32 -11 -50 -5 -25 -3 -33 11 -39 10 -4 38 4 68 20 28
15 55 27 59 27 4 0 7 -6 7 -14 0 -7 18 -28 39 -46 37 -32 38 -35 24 -56 -10
-16 -11 -24 -3 -29 7 -4 21 1 32 12 19 19 20 19 75 1 31 -11 63 -16 72 -13 9
4 36 8 60 10 35 2 50 9 77 38 19 20 34 38 34 42 0 3 -6 13 -12 22 -7 9 -31 35
-53 58 -34 36 -49 44 -90 50 -28 3 -55 8 -62 10 -7 2 -19 20 -27 39 -8 19 -22
36 -33 39 -10 3 -41 8 -69 12z m-11 -55 c12 0 32 -3 45 -6 12 -4 22 -13 22
-20 0 -8 -6 -16 -12 -18 -7 -2 -30 -9 -50 -15 -21 -7 -42 -9 -48 -6 -6 4 -4
17 5 36 10 19 23 29 38 29z m-88 -50 c8 0 15 -4 15 -9 0 -5 -7 -14 -15 -21 -9
-7 -18 -10 -21 -7 -4 3 -4 13 -1 22 4 8 13 15 22 15z m143 -31 c12 1 25 -5 27
-11 2 -7 1 -28 -3 -47 -4 -19 -12 -36 -18 -38 -6 -2 -26 7 -45 20 -18 12 -35
29 -37 38 -1 9 9 20 25 26 15 6 38 11 51 12z m102 -9 c14 0 43 -9 65 -19 22
-10 49 -26 59 -34 19 -14 18 -16 -22 -36 -29 -15 -60 -21 -103 -21 -54 0 -60
2 -54 18 3 9 12 34 18 55 10 30 17 37 37 37z"/>
</g>
</svg>
