<?xml version="1.0" standalone="no"?>
<!DOCTYPE svg PUBLIC "-//W3C//DTD SVG 20010904//EN"
 "http://www.w3.org/TR/2001/REC-SVG-20010904/DTD/svg10.dtd">
<svg version="1.0" xmlns="http://www.w3.org/2000/svg"
 width="56.000000pt" height="56.000000pt" viewBox="0 0 56.000000 56.000000"
 preserveAspectRatio="xMidYMid meet">
<metadata>
Created by potrace 1.16, written by Peter Selinger 2001-2019
</metadata>
<g transform="translate(0.000000,56.000000) scale(0.100000,-0.100000)"
fill="#000000" stroke="none">
<path d="M134 560 c-8 0 -14 -4 -14 -8 0 -5 7 -17 15 -28 8 -10 15 -29 15 -41
0 -13 -8 -24 -20 -28 -11 -3 -20 -11 -20 -16 0 -6 -5 -7 -11 -4 -5 4 -19 -1
-30 -11 -10 -9 -19 -24 -19 -32 0 -8 12 -30 26 -49 20 -26 24 -41 19 -61 -4
-15 -14 -35 -23 -45 -16 -18 -15 -20 11 -43 16 -13 32 -24 37 -24 6 0 16 16
24 35 8 19 22 35 30 35 9 0 16 -4 16 -10 0 -5 32 -41 71 -79 70 -70 70 -70 32
-108 -36 -37 -37 -38 -14 -41 13 -2 42 4 65 14 23 10 46 24 52 31 6 7 9 25 6
39 -2 14 -24 45 -47 67 -23 23 -58 63 -79 89 -22 28 -33 49 -26 53 5 3 16 3
22 -1 7 -5 44 -9 83 -11 38 -2 86 -6 106 -9 33 -5 37 -3 43 21 5 20 0 38 -23
73 -16 26 -45 61 -63 79 -18 17 -46 37 -62 43 -24 9 -28 15 -24 40 4 27 2 30
-24 30 -21 0 -28 -5 -28 -19 0 -11 -3 -26 -6 -35 -3 -9 -17 -16 -29 -16 -13 0
-40 16 -61 35 -20 19 -43 35 -50 35z m10 -130 c19 0 38 -5 42 -11 3 -6 -5 -22
-18 -36 -24 -24 -25 -24 -48 -5 -15 12 -21 25 -17 35 4 11 18 17 41 17z m206
-26 c14 -3 34 -14 44 -24 10 -10 16 -25 13 -33 -3 -8 -20 -18 -37 -22 -18 -4
-52 -4 -76 0 -25 3 -44 12 -44 19 0 7 10 22 23 33 12 11 29 23 37 26 8 3 26 4
40 1z m-178 -110 c6 -4 6 -10 -1 -17 -6 -6 -13 -8 -17 -4 -3 3 -3 11 1 16 3 6
11 8 17 5z"/>
</g>
</svg>
