<?xml version="1.0" standalone="no"?>
<!DOCTYPE svg PUBLIC "-//W3C//DTD SVG 20010904//EN"
 "http://www.w3.org/TR/2001/REC-SVG-20010904/DTD/svg10.dtd">
<svg version="1.0" xmlns="http://www.w3.org/2000/svg"
 width="56.000000pt" height="56.000000pt" viewBox="0 0 56.000000 56.000000"
 preserveAspectRatio="xMidYMid meet">
<metadata>
Created by potrace 1.16, written by Peter Selinger 2001-2019
</metadata>
<g transform="translate(0.000000,56.000000) scale(0.100000,-0.100000)"
fill="#000000" stroke="none">
<path d="M284 480 c-8 0 -14 -6 -14 -14 0 -8 5 -18 10 -21 6 -3 10 -9 10 -13
0 -4 -28 -5 -62 -1 -51 6 -68 4 -88 -11 -14 -9 -26 -27 -28 -39 -2 -12 3 -24
12 -27 9 -3 16 -12 16 -20 0 -10 -14 -14 -47 -14 -27 0 -56 -7 -67 -15 -10 -7
-15 -18 -11 -24 3 -6 21 -11 40 -11 19 0 36 4 39 9 3 5 17 11 31 14 21 3 31
-3 51 -29 17 -22 32 -62 43 -116 12 -59 21 -84 33 -86 8 -2 23 5 33 14 12 13
15 26 10 51 -3 19 -8 40 -11 48 -4 10 10 14 58 18 35 3 86 9 115 14 28 5 58
15 67 22 11 9 16 30 16 66 0 40 -5 56 -21 71 -16 15 -36 19 -90 19 -64 0 -69
2 -69 22 0 11 -14 33 -31 47 -17 14 -37 26 -45 26z m-72 -81 c14 1 33 -2 42
-5 9 -3 16 -12 16 -18 0 -7 -15 -17 -33 -24 -18 -7 -38 -12 -44 -12 -5 0 -15
11 -21 24 -8 19 -8 26 1 30 7 2 24 5 39 5z m174 -50 c50 1 84 -3 92 -11 7 -7
12 -19 12 -28 0 -9 -8 -24 -17 -32 -10 -8 -37 -22 -60 -31 -24 -9 -67 -20 -96
-23 -52 -6 -52 -6 -76 36 -17 31 -20 45 -12 53 6 6 26 16 43 23 18 6 69 12
114 13z"/>
</g>
</svg>
