<?xml version="1.0" standalone="no"?>
<!DOCTYPE svg PUBLIC "-//W3C//DTD SVG 20010904//EN"
 "http://www.w3.org/TR/2001/REC-SVG-20010904/DTD/svg10.dtd">
<svg version="1.0" xmlns="http://www.w3.org/2000/svg"
 width="56.000000pt" height="56.000000pt" viewBox="0 0 56.000000 56.000000"
 preserveAspectRatio="xMidYMid meet">
<metadata>
Created by potrace 1.16, written by Peter Selinger 2001-2019
</metadata>
<g transform="translate(0.000000,56.000000) scale(0.100000,-0.100000)"
fill="#000000" stroke="none">
<path d="M394 420 c-42 0 -44 -1 -44 -30 0 -17 6 -31 13 -31 6 -1 23 -3 37 -4
14 -1 30 0 37 2 6 3 14 12 17 20 4 9 1 22 -5 29 -7 8 -30 14 -55 14z"/>
<path d="M185 380 c-14 0 -16 -6 -11 -32 3 -18 2 -39 -3 -47 -5 -7 -30 -17
-56 -22 -33 -6 -52 -5 -62 2 -7 6 -13 19 -13 28 0 9 5 22 12 29 9 9 7 13 -7
18 -12 5 -23 1 -32 -12 -10 -12 -13 -34 -10 -63 3 -23 11 -50 20 -58 12 -13
26 -13 88 -3 41 6 78 15 84 21 6 6 15 -14 25 -58 12 -55 19 -68 35 -68 12 0
21 9 25 25 4 15 1 37 -9 55 -9 16 -22 35 -30 41 -12 9 -11 12 3 17 9 4 16 12
16 19 0 8 -15 21 -33 31 -28 16 -33 23 -29 48 3 22 0 29 -13 29z"/>
<path d="M467 339 c-23 0 -57 -7 -76 -15 -18 -8 -40 -13 -47 -10 -7 3 -27 -2
-44 -10 -16 -9 -28 -20 -25 -25 4 -5 19 -9 34 -9 15 0 31 4 37 9 5 4 30 11 56
14 27 4 50 2 53 -3 4 -6 4 -23 0 -39 -4 -19 -18 -34 -43 -47 -20 -11 -38 -28
-40 -37 -3 -13 4 -17 30 -17 18 1 42 6 54 13 11 7 40 28 62 48 23 20 42 43 42
52 0 10 -4 17 -8 17 -4 0 -16 14 -25 30 -16 26 -24 30 -60 29z"/>
</g>
</svg>
