<?xml version="1.0" standalone="no"?>
<!DOCTYPE svg PUBLIC "-//W3C//DTD SVG 20010904//EN"
 "http://www.w3.org/TR/2001/REC-SVG-20010904/DTD/svg10.dtd">
<svg version="1.0" xmlns="http://www.w3.org/2000/svg"
 width="56.000000pt" height="56.000000pt" viewBox="0 0 56.000000 56.000000"
 preserveAspectRatio="xMidYMid meet">
<metadata>
Created by potrace 1.16, written by Peter Selinger 2001-2019
</metadata>
<g transform="translate(0.000000,56.000000) scale(0.100000,-0.100000)"
fill="#000000" stroke="none">
<path d="M230 540 c-5 0 -17 -11 -27 -25 -10 -14 -26 -37 -36 -51 -11 -13 -25
-23 -32 -22 -8 2 -20 -6 -28 -17 -8 -10 -28 -20 -43 -21 -16 -1 -37 -3 -46 -3
-12 -1 -18 -9 -18 -23 0 -15 15 -34 40 -52 23 -17 40 -38 40 -50 0 -10 -14
-40 -30 -66 -18 -28 -28 -54 -24 -64 3 -9 14 -16 24 -16 10 0 32 22 51 52 19
28 39 53 44 55 6 2 40 -25 76 -60 36 -34 74 -75 84 -90 13 -21 15 -31 6 -40
-6 -6 -11 -17 -11 -24 0 -8 13 -13 33 -13 18 0 43 7 55 16 12 8 22 23 22 32 0
10 -17 38 -37 63 -21 24 -57 62 -81 83 -24 22 -39 43 -35 47 5 5 62 10 128 13
67 2 132 9 148 17 21 10 27 19 27 46 0 18 -3 33 -8 33 -4 0 -16 16 -26 35 -15
26 -29 38 -60 46 -29 8 -50 8 -78 -1 -21 -6 -43 -8 -48 -5 -6 3 -10 10 -10 15
0 5 20 23 45 40 25 17 45 35 45 40 0 6 -13 10 -28 10 -19 0 -41 -13 -70 -40
-22 -22 -44 -40 -47 -40 -3 0 -5 8 -5 18 0 10 -7 28 -16 40 -8 12 -19 22 -24
22z m-32 -111 c12 0 22 -5 22 -11 0 -7 -16 -30 -36 -51 -26 -28 -40 -36 -55
-32 -11 4 -27 18 -36 31 -8 14 -14 26 -12 27 2 1 24 10 49 19 25 8 55 16 68
17z m202 -30 c3 0 16 -6 28 -15 12 -8 22 -21 22 -28 0 -8 -6 -19 -14 -25 -8
-7 -38 -16 -68 -22 -29 -5 -74 -12 -100 -16 -43 -5 -48 -4 -48 14 0 12 16 32
41 49 23 16 62 31 88 35 25 3 48 7 51 8z"/>
</g>
</svg>
