<?xml version="1.0" standalone="no"?>
<!DOCTYPE svg PUBLIC "-//W3C//DTD SVG 20010904//EN"
 "http://www.w3.org/TR/2001/REC-SVG-20010904/DTD/svg10.dtd">
<svg version="1.0" xmlns="http://www.w3.org/2000/svg"
 width="56.000000pt" height="56.000000pt" viewBox="0 0 56.000000 56.000000"
 preserveAspectRatio="xMidYMid meet">
<metadata>
Created by potrace 1.16, written by Peter Selinger 2001-2019
</metadata>
<g transform="translate(0.000000,56.000000) scale(0.100000,-0.100000)"
fill="#000000" stroke="none">
<path d="M187 510 c-13 0 -28 -5 -34 -11 -7 -7 -7 -29 2 -74 8 -44 9 -67 1
-75 -5 -5 -15 -10 -22 -10 -6 0 -17 -7 -24 -15 -7 -8 -26 -21 -43 -30 -16 -8
-33 -15 -37 -15 -4 0 -12 10 -18 23 -10 20 -11 18 -9 -18 2 -37 5 -41 40 -49
36 -9 39 -8 82 34 25 24 48 41 51 37 4 -4 11 -33 17 -65 5 -31 12 -91 15 -132
6 -67 9 -75 29 -78 17 -2 24 4 33 33 8 23 8 40 2 48 -5 7 -12 26 -15 42 -2 17
-14 62 -25 100 -11 39 -24 94 -29 122 -5 29 -6 58 -1 65 6 10 13 7 28 -11 16
-18 18 -27 9 -37 -6 -8 -8 -21 -5 -30 6 -15 8 -15 24 -2 9 9 42 23 74 32 31 9
72 16 91 16 20 0 46 -9 61 -21 14 -11 26 -26 26 -33 0 -7 -10 -22 -23 -34 -19
-18 -35 -22 -86 -22 -41 0 -76 7 -101 19 -22 11 -40 16 -40 13 0 -3 18 -23 41
-44 35 -33 47 -38 88 -38 27 0 63 5 82 11 19 6 46 24 62 40 16 17 27 39 27 56
0 16 -11 40 -25 55 -14 15 -37 31 -51 34 -14 4 -51 4 -82 0 -57 -6 -58 -6 -69
24 -7 20 -18 30 -32 30 -11 0 -22 -4 -26 -10 -3 -5 0 -18 7 -29 7 -11 9 -23 6
-26 -3 -4 -16 -2 -27 4 -11 7 -28 25 -36 41 -10 20 -23 30 -38 30z"/>
</g>
</svg>
