<?xml version="1.0" standalone="no"?>
<!DOCTYPE svg PUBLIC "-//W3C//DTD SVG 20010904//EN"
 "http://www.w3.org/TR/2001/REC-SVG-20010904/DTD/svg10.dtd">
<svg version="1.0" xmlns="http://www.w3.org/2000/svg"
 width="56.000000pt" height="56.000000pt" viewBox="0 0 56.000000 56.000000"
 preserveAspectRatio="xMidYMid meet">
<metadata>
Created by potrace 1.16, written by Peter Selinger 2001-2019
</metadata>
<g transform="translate(0.000000,56.000000) scale(0.100000,-0.100000)"
fill="#000000" stroke="none">
<path d="M265 490 c-15 0 -25 -6 -25 -14 0 -8 6 -16 13 -18 6 -3 18 -3 25 -1
6 3 12 11 12 19 0 8 -10 14 -25 14z"/>
<path d="M435 479 c-22 -1 -56 -7 -75 -15 -19 -7 -42 -13 -51 -13 -8 -1 -30
-12 -49 -26 -19 -14 -40 -25 -47 -25 -7 0 -13 11 -13 25 0 17 -8 29 -25 37
-21 10 -30 8 -53 -9 -15 -11 -44 -25 -64 -32 -30 -10 -38 -18 -38 -37 0 -13 9
-33 20 -44 11 -11 20 -26 20 -33 0 -8 -11 -24 -25 -37 -14 -13 -25 -34 -25
-47 0 -13 2 -23 4 -23 2 0 11 -3 20 -6 9 -3 32 11 61 37 46 43 46 43 78 11 18
-18 55 -63 82 -100 33 -44 59 -68 74 -70 13 -2 27 0 32 5 5 5 -4 28 -23 54
-17 24 -43 57 -57 72 -21 23 -23 29 -11 37 8 5 46 14 85 21 38 7 90 22 115 34
28 13 50 33 59 51 8 16 18 31 23 32 4 2 8 8 8 12 0 5 -19 27 -42 49 -36 34
-49 40 -83 40z m-24 -70 c30 1 60 -4 67 -11 7 -7 8 -17 1 -30 -5 -10 -15 -18
-22 -18 -7 0 -25 -7 -42 -16 -16 -8 -65 -27 -108 -42 -59 -20 -82 -24 -95 -16
-9 6 -18 20 -20 31 -2 15 9 28 43 47 25 15 63 33 83 41 20 7 62 14 93 14z
m-284 -10 c12 1 25 -4 28 -9 4 -6 1 -17 -5 -25 -7 -8 -25 -15 -41 -15 -22 0
-29 5 -29 19 0 11 6 22 13 24 6 3 22 6 34 6z"/>
</g>
</svg>
