<?xml version="1.0" standalone="no"?>
<!DOCTYPE svg PUBLIC "-//W3C//DTD SVG 20010904//EN"
 "http://www.w3.org/TR/2001/REC-SVG-20010904/DTD/svg10.dtd">
<svg version="1.0" xmlns="http://www.w3.org/2000/svg"
 width="56.000000pt" height="56.000000pt" viewBox="0 0 56.000000 56.000000"
 preserveAspectRatio="xMidYMid meet">
<metadata>
Created by potrace 1.16, written by Peter Selinger 2001-2019
</metadata>
<g transform="translate(0.000000,56.000000) scale(0.100000,-0.100000)"
fill="#000000" stroke="none">
<path d="M208 540 c-8 0 -19 -5 -26 -12 -7 -7 -12 -28 -12 -47 0 -20 7 -44 14
-53 7 -10 18 -18 23 -18 5 0 19 10 31 23 12 13 22 29 22 36 0 7 9 11 23 9 21
-3 22 -7 25 -119 2 -101 0 -117 -14 -123 -9 -4 -26 -4 -36 0 -12 3 -17 12 -14
21 3 8 2 23 -4 33 -6 12 -17 16 -30 13 -18 -5 -19 -12 -16 -110 3 -105 3 -105
35 -125 29 -19 31 -22 16 -38 -8 -9 -12 -20 -8 -23 3 -4 27 -7 53 -7 40 0 49
4 69 30 12 17 21 41 19 53 -2 17 -14 23 -61 33 -32 6 -63 16 -69 22 -6 6 -8
18 -5 26 4 11 19 16 42 16 25 0 44 8 60 25 24 23 25 29 25 160 0 75 -5 145
-10 156 -6 10 -18 19 -28 19 -9 0 -37 -11 -60 -25 -24 -14 -48 -23 -52 -20 -4
3 -6 14 -3 25 4 13 0 20 -9 20z"/>
</g>
</svg>
