<?xml version="1.0" standalone="no"?>
<!DOCTYPE svg PUBLIC "-//W3C//DTD SVG 20010904//EN"
 "http://www.w3.org/TR/2001/REC-SVG-20010904/DTD/svg10.dtd">
<svg version="1.0" xmlns="http://www.w3.org/2000/svg"
 width="56.000000pt" height="56.000000pt" viewBox="0 0 56.000000 56.000000"
 preserveAspectRatio="xMidYMid meet">
<metadata>
Created by potrace 1.16, written by Peter Selinger 2001-2019
</metadata>
<g transform="translate(0.000000,56.000000) scale(0.100000,-0.100000)"
fill="#000000" stroke="none">
<path d="M345 560 c-8 0 -15 -4 -15 -10 0 -5 -11 -10 -24 -10 -14 0 -27 -4
-30 -9 -3 -5 -30 -11 -60 -13 -30 -3 -62 -10 -71 -18 -14 -12 -14 -15 2 -32
10 -11 26 -24 37 -30 14 -8 25 -5 45 9 14 10 45 27 69 37 23 11 44 17 47 14 3
-2 -2 -36 -9 -74 -8 -38 -19 -82 -24 -99 -7 -23 -14 -29 -30 -28 -12 2 -22 -1
-22 -7 0 -5 5 -20 11 -34 7 -14 19 -28 28 -31 10 -4 23 2 34 16 9 12 20 33 23
48 3 14 9 35 14 46 4 11 17 44 29 74 12 29 21 64 21 76 0 12 -8 29 -18 38 -10
10 -24 17 -30 17 -7 0 -12 5 -12 10 0 6 -7 10 -15 10z"/>
<path d="M199 350 c-4 0 -9 -8 -11 -17 -2 -10 -3 -67 -3 -128 0 -110 0 -110
68 -113 44 -2 67 -7 67 -15 0 -7 -7 -25 -15 -41 -8 -15 -15 -30 -15 -32 0 -2
15 -4 34 -4 29 0 36 5 50 35 10 19 14 45 11 58 -4 14 -16 29 -28 35 -12 6 -41
13 -65 15 -24 3 -46 8 -50 12 -3 3 -5 40 -3 81 2 61 -1 80 -15 95 -9 10 -21
19 -25 19z"/>
</g>
</svg>
