<?xml version="1.0" standalone="no"?>
<!DOCTYPE svg PUBLIC "-//W3C//DTD SVG 20010904//EN"
 "http://www.w3.org/TR/2001/REC-SVG-20010904/DTD/svg10.dtd">
<svg version="1.0" xmlns="http://www.w3.org/2000/svg"
 width="56.000000pt" height="56.000000pt" viewBox="0 0 56.000000 56.000000"
 preserveAspectRatio="xMidYMid meet">
<metadata>
Created by potrace 1.16, written by Peter Selinger 2001-2019
</metadata>
<g transform="translate(0.000000,56.000000) scale(0.100000,-0.100000)"
fill="#000000" stroke="none">
<path d="M294 560 c-20 0 -37 -10 -57 -33 -15 -17 -30 -42 -34 -55 -3 -13 -1
-34 5 -47 10 -21 14 -23 46 -13 19 6 41 8 49 5 10 -4 16 -29 20 -87 3 -44 1
-96 -4 -115 -6 -20 -16 -35 -25 -35 -12 0 -13 11 -8 63 5 50 3 65 -9 76 -13
10 -24 10 -51 1 -20 -6 -45 -24 -56 -40 -11 -15 -20 -42 -20 -58 0 -21 9 -38
29 -55 27 -22 30 -30 28 -79 -1 -34 3 -61 12 -71 7 -10 28 -17 45 -17 17 0 53
8 80 18 27 9 51 22 53 28 2 6 -9 17 -25 23 -22 9 -35 9 -64 -4 -20 -8 -44 -12
-52 -9 -11 4 -14 14 -10 33 4 14 8 29 11 33 2 3 20 12 41 19 20 6 42 16 48 20
6 5 15 28 18 52 4 23 8 81 8 129 0 53 -4 93 -11 102 -6 8 -32 17 -56 21 -25 3
-45 11 -45 18 0 6 14 26 32 44 32 33 32 33 2 33z m-58 -280 c7 0 16 -4 19 -10
3 -5 1 -28 -5 -50 -8 -30 -16 -40 -28 -38 -9 2 -21 15 -26 30 -8 22 -6 32 9
48 10 11 24 20 31 20z"/>
</g>
</svg>
