<?xml version="1.0" standalone="no"?>
<!DOCTYPE svg PUBLIC "-//W3C//DTD SVG 20010904//EN"
 "http://www.w3.org/TR/2001/REC-SVG-20010904/DTD/svg10.dtd">
<svg version="1.0" xmlns="http://www.w3.org/2000/svg"
 width="56.000000pt" height="56.000000pt" viewBox="0 0 56.000000 56.000000"
 preserveAspectRatio="xMidYMid meet">
<metadata>
Created by potrace 1.16, written by Peter Selinger 2001-2019
</metadata>
<g transform="translate(0.000000,56.000000) scale(0.100000,-0.100000)"
fill="#000000" stroke="none">
<path d="M316 560 c-8 0 -16 -4 -18 -8 -1 -4 -19 -18 -39 -30 -20 -12 -49 -22
-65 -22 -16 0 -35 -4 -43 -9 -12 -8 -12 -13 -3 -24 7 -8 31 -17 53 -20 30 -4
50 0 72 13 23 14 34 16 44 8 9 -7 13 -44 13 -129 0 -94 -3 -121 -16 -133 -8
-9 -20 -13 -26 -10 -7 4 -8 31 -4 73 6 59 4 70 -14 94 -13 17 -31 27 -47 27
-25 0 -25 0 -8 -26 11 -18 15 -39 12 -68 -2 -22 -11 -67 -20 -98 -11 -37 -14
-74 -10 -103 3 -25 10 -48 15 -51 4 -3 28 2 53 11 24 10 52 15 61 11 12 -4 15
-15 12 -36 -4 -28 -2 -30 28 -30 26 0 34 6 44 29 7 18 9 43 5 63 -4 18 -16 48
-28 67 -19 32 -20 39 -9 135 7 55 12 124 12 151 0 30 -7 60 -16 73 -8 12 -22
22 -30 22 -8 0 -14 5 -14 10 0 6 -6 10 -14 10z"/>
</g>
</svg>
