<?xml version="1.0" standalone="no"?>
<!DOCTYPE svg PUBLIC "-//W3C//DTD SVG 20010904//EN"
 "http://www.w3.org/TR/2001/REC-SVG-20010904/DTD/svg10.dtd">
<svg version="1.0" xmlns="http://www.w3.org/2000/svg"
 width="56.000000pt" height="56.000000pt" viewBox="0 0 56.000000 56.000000"
 preserveAspectRatio="xMidYMid meet">
<metadata>
Created by potrace 1.16, written by Peter Selinger 2001-2019
</metadata>
<g transform="translate(0.000000,56.000000) scale(0.100000,-0.100000)"
fill="#000000" stroke="none">
<path d="M416 499 c-12 0 -41 -16 -66 -34 -25 -19 -66 -50 -92 -70 -26 -19
-53 -35 -59 -35 -6 0 -9 14 -8 33 2 17 -1 44 -5 60 -6 20 -15 27 -32 27 -13 0
-24 -5 -24 -10 0 -6 7 -22 16 -35 9 -13 13 -28 10 -34 -3 -5 -29 -12 -56 -16
-27 -4 -52 -11 -55 -16 -3 -4 11 -17 31 -27 38 -19 38 -19 -14 -74 -40 -43
-52 -62 -52 -87 0 -20 6 -34 16 -38 10 -4 31 9 59 37 38 37 45 41 51 26 4 -10
2 -35 -5 -56 -8 -26 -8 -46 -1 -64 5 -14 16 -26 24 -26 8 0 18 6 23 12 4 7 8
42 9 78 1 36 2 81 3 101 1 33 7 41 70 87 39 28 90 58 116 66 25 9 56 16 70 16
15 0 26 -7 30 -21 4 -12 4 -45 0 -75 -4 -36 -18 -71 -43 -111 -21 -32 -44 -77
-51 -100 -8 -23 -11 -49 -8 -57 4 -10 18 -16 37 -16 16 0 30 3 31 8 1 4 3 25
5 47 2 22 24 81 51 132 26 51 51 93 55 93 5 0 8 15 8 34 0 21 -6 36 -15 40 -8
3 -15 12 -15 20 0 8 -21 31 -46 51 -26 19 -56 35 -68 34z"/>
</g>
</svg>
