<?xml version="1.0" standalone="no"?>
<!DOCTYPE svg PUBLIC "-//W3C//DTD SVG 20010904//EN"
 "http://www.w3.org/TR/2001/REC-SVG-20010904/DTD/svg10.dtd">
<svg version="1.0" xmlns="http://www.w3.org/2000/svg"
 width="56.000000pt" height="56.000000pt" viewBox="0 0 56.000000 56.000000"
 preserveAspectRatio="xMidYMid meet">
<metadata>
Created by potrace 1.16, written by Peter Selinger 2001-2019
</metadata>
<g transform="translate(0.000000,56.000000) scale(0.100000,-0.100000)"
fill="#000000" stroke="none">
<path d="M347 539 c-23 -1 -75 -7 -116 -13 -41 -6 -76 -16 -78 -22 -2 -7 8
-21 23 -33 15 -12 37 -21 50 -21 13 0 39 9 59 20 20 11 42 20 50 20 8 0 17
-10 20 -22 3 -13 5 -66 3 -118 -3 -95 -3 -95 -38 -112 -19 -9 -47 -17 -61 -18
-22 0 -28 6 -32 30 -4 16 -16 39 -27 50 -12 12 -33 20 -55 20 -20 0 -35 -5
-35 -12 0 -7 11 -28 25 -48 25 -36 25 -36 4 -101 -12 -35 -21 -75 -20 -88 0
-13 6 -30 13 -38 10 -12 30 -14 110 -8 86 6 98 5 98 -9 0 -13 11 -16 50 -16
42 0 50 3 50 18 0 10 -11 29 -24 41 -21 20 -31 22 -126 19 -86 -3 -104 0 -113
13 -8 12 -5 24 12 48 21 29 26 31 59 25 21 -4 42 -11 48 -16 7 -5 22 -5 36 1
14 5 36 23 50 40 15 17 29 47 32 68 4 21 9 54 12 73 3 19 8 59 11 87 5 47 2
57 -21 88 -24 31 -32 35 -69 34z"/>
</g>
</svg>
