<?xml version="1.0" standalone="no"?>
<!DOCTYPE svg PUBLIC "-//W3C//DTD SVG 20010904//EN"
 "http://www.w3.org/TR/2001/REC-SVG-20010904/DTD/svg10.dtd">
<svg version="1.0" xmlns="http://www.w3.org/2000/svg"
 width="56.000000pt" height="56.000000pt" viewBox="0 0 56.000000 56.000000"
 preserveAspectRatio="xMidYMid meet">
<metadata>
Created by potrace 1.16, written by Peter Selinger 2001-2019
</metadata>
<g transform="translate(0.000000,56.000000) scale(0.100000,-0.100000)"
fill="#000000" stroke="none">
<path d="M189 540 c-4 0 -11 -5 -14 -11 -4 -5 8 -25 27 -44 20 -21 43 -35 57
-35 14 0 37 12 52 26 15 14 32 23 37 20 5 -3 10 -54 11 -113 1 -59 6 -112 11
-117 7 -7 14 -6 21 1 6 6 12 54 14 107 2 55 -1 98 -6 102 -5 3 -7 14 -4 23 3
10 0 23 -7 29 -7 6 -30 9 -52 7 -21 -2 -46 -11 -55 -19 -10 -9 -24 -16 -33
-16 -8 0 -23 9 -33 20 -10 11 -22 20 -26 20z"/>
<path d="M153 293 c-7 5 -16 0 -22 -11 -6 -11 -7 -22 -4 -26 3 -3 14 -6 24 -6
10 0 24 -10 30 -22 7 -12 11 -45 10 -74 -1 -28 3 -64 9 -80 6 -16 21 -39 32
-51 19 -20 31 -23 105 -23 46 0 83 4 83 9 0 4 -34 14 -76 21 -59 10 -79 18
-90 36 -9 12 -14 38 -12 56 3 31 6 33 57 43 39 8 56 16 62 30 4 11 8 26 8 33
1 6 -6 12 -14 12 -8 0 -30 -9 -50 -20 -20 -11 -42 -20 -50 -20 -7 0 -16 9 -20
19 -3 11 -20 30 -38 43 -18 14 -37 28 -44 31z"/>
</g>
</svg>
