<?xml version="1.0" standalone="no"?>
<!DOCTYPE svg PUBLIC "-//W3C//DTD SVG 20010904//EN"
 "http://www.w3.org/TR/2001/REC-SVG-20010904/DTD/svg10.dtd">
<svg version="1.0" xmlns="http://www.w3.org/2000/svg"
 width="56.000000pt" height="56.000000pt" viewBox="0 0 56.000000 56.000000"
 preserveAspectRatio="xMidYMid meet">
<metadata>
Created by potrace 1.16, written by Peter Selinger 2001-2019
</metadata>
<g transform="translate(0.000000,56.000000) scale(0.100000,-0.100000)"
fill="#000000" stroke="none">
<path d="M219 516 c-16 14 -18 13 -33 -17 -9 -18 -16 -40 -16 -49 0 -9 11 -22
25 -28 21 -10 30 -9 50 4 14 9 32 14 40 10 12 -4 14 -28 13 -132 -2 -94 -6
-130 -16 -141 -8 -8 -13 -15 -11 -16 2 -2 12 -9 22 -16 15 -12 20 -10 42 13
24 26 25 33 25 154 0 70 -1 144 -4 166 -2 21 -10 42 -17 47 -7 4 -21 3 -30 -2
-10 -5 -30 -9 -45 -9 -15 0 -35 7 -45 16z"/>
<path d="M156 290 c-9 0 -19 -7 -23 -15 -3 -9 2 -24 10 -33 14 -15 15 -28 6
-87 -6 -39 -11 -79 -13 -90 -1 -11 -6 -28 -11 -38 -4 -10 -5 -20 -2 -23 3 -3
23 0 44 7 21 6 43 19 49 27 9 13 15 13 41 2 18 -8 29 -19 26 -27 -4 -9 5 -13
26 -13 17 0 31 5 31 10 0 6 18 17 40 26 22 9 45 25 51 36 9 16 6 25 -12 44
-12 13 -29 24 -37 24 -8 0 -26 -9 -41 -19 -15 -11 -45 -23 -66 -26 -22 -4 -47
-11 -56 -16 -9 -5 -19 -6 -21 -3 -3 2 0 19 6 37 6 18 14 37 18 43 4 6 10 29
14 51 6 38 4 41 -29 62 -19 11 -42 21 -51 21z"/>
</g>
</svg>
