<?xml version="1.0" standalone="no"?>
<!DOCTYPE svg PUBLIC "-//W3C//DTD SVG 20010904//EN"
 "http://www.w3.org/TR/2001/REC-SVG-20010904/DTD/svg10.dtd">
<svg version="1.0" xmlns="http://www.w3.org/2000/svg"
 width="56.000000pt" height="56.000000pt" viewBox="0 0 56.000000 56.000000"
 preserveAspectRatio="xMidYMid meet">
<metadata>
Created by potrace 1.16, written by Peter Selinger 2001-2019
</metadata>
<g transform="translate(0.000000,56.000000) scale(0.100000,-0.100000)"
fill="#000000" stroke="none">
<path d="M300 539 c-14 -1 -36 -4 -50 -9 -14 -4 -51 -5 -84 -2 -48 4 -58 2
-54 -9 2 -8 21 -23 40 -34 35 -19 38 -19 90 -2 30 9 62 17 71 17 10 0 20 -14
26 -37 6 -21 11 -51 11 -67 0 -16 -5 -57 -12 -92 -11 -64 -11 -64 -64 -64 -50
0 -53 1 -56 27 -2 20 -11 30 -30 37 -15 5 -31 7 -35 3 -4 -4 -6 -28 -4 -53 1
-25 -8 -76 -20 -116 -16 -51 -20 -75 -12 -86 5 -9 28 -22 50 -28 23 -7 95 -15
162 -19 107 -7 121 -6 121 8 0 9 -14 26 -30 39 -27 19 -41 22 -113 19 -45 -1
-94 2 -109 8 -16 6 -28 16 -28 23 0 7 5 29 10 48 6 19 14 41 18 48 7 10 20 10
63 2 30 -6 64 -13 76 -16 14 -3 29 4 43 18 18 20 20 35 20 149 0 128 0 128
-37 158 -22 18 -48 31 -63 30z"/>
</g>
</svg>
