<?xml version="1.0" standalone="no"?>
<!DOCTYPE svg PUBLIC "-//W3C//DTD SVG 20010904//EN"
 "http://www.w3.org/TR/2001/REC-SVG-20010904/DTD/svg10.dtd">
<svg version="1.0" xmlns="http://www.w3.org/2000/svg"
 width="56.000000pt" height="56.000000pt" viewBox="0 0 56.000000 56.000000"
 preserveAspectRatio="xMidYMid meet">
<metadata>
Created by potrace 1.16, written by Peter Selinger 2001-2019
</metadata>
<g transform="translate(0.000000,56.000000) scale(0.100000,-0.100000)"
fill="#000000" stroke="none">
<path d="M286 560 c-19 0 -27 -8 -36 -34 -6 -19 -22 -42 -36 -50 -14 -10 -24
-26 -24 -41 0 -14 8 -29 21 -35 15 -8 24 -8 34 0 8 7 19 9 25 5 5 -3 10 -16
10 -28 0 -12 -4 -28 -9 -36 -5 -7 -14 -11 -19 -7 -6 4 -15 -2 -21 -12 -5 -10
-13 -42 -17 -71 -5 -36 -3 -61 7 -79 7 -15 20 -35 27 -44 10 -12 23 -16 37
-12 13 3 25 2 28 -3 3 -5 0 -21 -8 -36 -7 -14 -23 -36 -35 -49 -21 -23 -21
-23 2 -27 17 -2 32 7 55 35 18 20 33 46 33 56 0 11 -7 32 -15 47 -8 16 -22 31
-31 35 -14 5 -15 17 -10 74 3 37 9 93 14 126 7 53 6 62 -15 93 -21 31 -22 36
-8 56 8 12 15 25 15 29 0 5 -11 8 -24 8z"/>
</g>
</svg>
