<?xml version="1.0" standalone="no"?>
<!DOCTYPE svg PUBLIC "-//W3C//DTD SVG 20010904//EN"
 "http://www.w3.org/TR/2001/REC-SVG-20010904/DTD/svg10.dtd">
<svg version="1.0" xmlns="http://www.w3.org/2000/svg"
 width="56.000000pt" height="56.000000pt" viewBox="0 0 56.000000 56.000000"
 preserveAspectRatio="xMidYMid meet">
<metadata>
Created by potrace 1.16, written by Peter Selinger 2001-2019
</metadata>
<g transform="translate(0.000000,56.000000) scale(0.100000,-0.100000)"
fill="#000000" stroke="none">
<path d="M258 559 c-20 0 -42 -9 -55 -22 -16 -16 -23 -35 -23 -60 0 -24 5 -40
15 -43 8 -4 26 1 40 10 13 9 33 16 43 16 11 0 24 -6 30 -12 5 -7 10 -51 11
-97 0 -61 -5 -92 -16 -113 -10 -15 -23 -30 -29 -32 -7 -3 -15 3 -18 12 -2 9
-7 31 -11 49 -3 17 -13 34 -21 37 -9 3 -24 2 -34 -4 -10 -5 -20 -16 -23 -24
-3 -8 0 -20 8 -26 8 -6 18 -35 24 -63 5 -29 12 -69 15 -89 4 -34 2 -39 -30
-57 -19 -11 -34 -25 -34 -31 0 -5 12 -10 28 -10 15 0 45 6 66 14 29 10 48 11
68 4 16 -6 40 -7 53 -4 18 5 25 13 25 30 0 13 -10 36 -21 51 -20 24 -26 26
-65 20 -42 -6 -44 -5 -44 19 0 14 6 27 13 27 6 1 19 3 27 4 8 1 20 3 26 4 6 0
20 19 33 41 19 34 22 53 20 132 -1 51 -4 109 -6 129 -4 31 -11 39 -44 54 -21
10 -39 22 -39 27 0 4 -15 8 -32 7z"/>
</g>
</svg>
