<?xml version="1.0" standalone="no"?>
<!DOCTYPE svg PUBLIC "-//W3C//DTD SVG 20010904//EN"
 "http://www.w3.org/TR/2001/REC-SVG-20010904/DTD/svg10.dtd">
<svg version="1.0" xmlns="http://www.w3.org/2000/svg"
 width="56.000000pt" height="56.000000pt" viewBox="0 0 56.000000 56.000000"
 preserveAspectRatio="xMidYMid meet">
<metadata>
Created by potrace 1.16, written by Peter Selinger 2001-2019
</metadata>
<g transform="translate(0.000000,56.000000) scale(0.100000,-0.100000)"
fill="#000000" stroke="none">
<path d="M224 560 c-8 0 -14 -4 -14 -10 0 -5 -10 -10 -23 -10 -13 0 -26 -3
-30 -6 -3 -3 -1 -15 6 -25 10 -16 24 -19 78 -19 63 0 67 -1 73 -25 4 -14 4
-49 1 -78 -4 -29 -11 -64 -17 -79 -6 -16 -15 -28 -21 -28 -5 0 -16 8 -23 17
-10 14 -17 16 -31 7 -14 -9 -18 -26 -20 -70 -1 -33 -5 -76 -9 -97 -4 -24 -2
-43 6 -52 7 -8 24 -15 39 -15 14 0 37 -6 51 -13 18 -9 24 -19 22 -36 -3 -20 0
-22 29 -19 26 2 34 9 40 31 4 15 3 41 -2 57 -7 18 -21 32 -40 39 -16 5 -29 17
-29 26 0 8 4 23 10 33 5 9 17 37 26 62 8 25 22 72 30 105 10 38 13 79 9 112
-4 29 -15 61 -26 74 -17 20 -23 21 -39 11 -11 -7 -31 -12 -44 -12 -14 0 -28 5
-31 10 -3 6 -13 10 -21 10z"/>
<path d="M170 400 c-15 0 -20 -5 -18 -17 2 -10 10 -18 18 -18 8 0 16 8 18 18
2 12 -3 17 -18 17z"/>
</g>
</svg>
