<?xml version="1.0" standalone="no"?>
<!DOCTYPE svg PUBLIC "-//W3C//DTD SVG 20010904//EN"
 "http://www.w3.org/TR/2001/REC-SVG-20010904/DTD/svg10.dtd">
<svg version="1.0" xmlns="http://www.w3.org/2000/svg"
 width="56.000000pt" height="56.000000pt" viewBox="0 0 56.000000 56.000000"
 preserveAspectRatio="xMidYMid meet">
<metadata>
Created by potrace 1.16, written by Peter Selinger 2001-2019
</metadata>
<g transform="translate(0.000000,56.000000) scale(0.100000,-0.100000)"
fill="#000000" stroke="none">
<path d="M229 560 c-4 0 -10 -7 -13 -16 -3 -9 -6 -23 -6 -33 0 -10 10 -27 23
-39 13 -12 33 -22 45 -22 11 0 27 -9 35 -21 12 -16 12 -28 4 -54 -5 -19 -25
-49 -44 -67 -29 -28 -36 -31 -53 -20 -18 11 -23 8 -45 -28 -16 -25 -25 -54
-25 -78 0 -24 9 -52 23 -73 16 -24 33 -35 62 -41 22 -5 52 -13 67 -19 15 -6
30 -20 33 -30 5 -14 16 -19 44 -19 36 0 37 1 33 30 -3 20 -15 36 -36 49 -17
10 -49 24 -70 30 -21 5 -49 20 -62 32 -14 13 -24 34 -24 50 0 23 5 29 33 34
17 4 44 14 60 21 15 8 27 20 27 26 0 6 8 21 18 32 10 12 24 40 30 62 10 34 9
48 -3 78 -8 19 -25 42 -38 50 -12 8 -37 17 -55 21 -18 4 -38 15 -45 26 -6 10
-15 19 -18 19z"/>
</g>
</svg>
