<?xml version="1.0" standalone="no"?>
<!DOCTYPE svg PUBLIC "-//W3C//DTD SVG 20010904//EN"
 "http://www.w3.org/TR/2001/REC-SVG-20010904/DTD/svg10.dtd">
<svg version="1.0" xmlns="http://www.w3.org/2000/svg"
 width="56.000000pt" height="56.000000pt" viewBox="0 0 56.000000 56.000000"
 preserveAspectRatio="xMidYMid meet">
<metadata>
Created by potrace 1.16, written by Peter Selinger 2001-2019
</metadata>
<g transform="translate(0.000000,56.000000) scale(0.100000,-0.100000)"
fill="#000000" stroke="none">
<path d="M181 560 c-6 0 -11 -5 -11 -10 0 -6 7 -25 16 -43 9 -18 22 -35 27
-39 6 -4 19 -2 30 4 10 5 20 8 22 6 1 -2 5 -47 9 -100 6 -79 5 -98 -6 -98 -8
0 -19 20 -26 45 -7 25 -20 49 -32 55 -14 8 -26 8 -40 0 -11 -6 -20 -17 -20
-24 0 -8 7 -19 15 -26 9 -7 15 -29 15 -51 0 -30 5 -42 25 -55 18 -12 39 -15
71 -11 31 3 47 1 50 -7 3 -7 -13 -39 -34 -72 -22 -32 -42 -76 -46 -96 -7 -37
-6 -38 24 -38 23 0 30 5 30 19 0 10 6 34 14 52 8 19 30 54 50 79 20 25 36 54
36 66 0 11 -8 28 -18 37 -10 10 -27 17 -38 17 -18 0 -19 8 -19 121 0 114 -1
122 -23 139 -19 16 -28 17 -54 8 -26 -9 -33 -8 -43 5 -7 10 -17 17 -24 17z"/>
</g>
</svg>
