<?xml version="1.0" standalone="no"?>
<!DOCTYPE svg PUBLIC "-//W3C//DTD SVG 20010904//EN"
 "http://www.w3.org/TR/2001/REC-SVG-20010904/DTD/svg10.dtd">
<svg version="1.0" xmlns="http://www.w3.org/2000/svg"
 width="56.000000pt" height="56.000000pt" viewBox="0 0 56.000000 56.000000"
 preserveAspectRatio="xMidYMid meet">
<metadata>
Created by potrace 1.16, written by Peter Selinger 2001-2019
</metadata>
<g transform="translate(0.000000,56.000000) scale(0.100000,-0.100000)"
fill="#000000" stroke="none">
<path d="M345 560 c-19 0 -35 -4 -35 -10 0 -5 11 -12 24 -16 14 -3 30 -3 35 1
6 3 11 10 11 16 0 5 -16 9 -35 9z"/>
<path d="M208 538 c-36 0 -39 -2 -36 -27 2 -20 9 -27 30 -29 25 -3 27 -7 33
-67 4 -35 4 -68 1 -73 -3 -6 -16 -8 -27 -5 -20 6 -21 3 -15 -23 4 -16 10 -45
12 -64 3 -19 10 -45 16 -57 6 -13 20 -23 30 -23 10 0 18 -4 18 -10 0 -5 -18
-33 -40 -62 -22 -29 -40 -63 -40 -75 0 -18 6 -23 25 -23 19 0 25 5 25 21 0 14
26 47 70 90 39 37 70 72 70 77 0 5 -9 17 -19 26 -11 10 -30 16 -43 14 -23 -3
-23 -3 -19 98 2 64 -1 116 -9 140 -7 22 -19 47 -27 56 -10 11 -29 17 -55 16z"/>
</g>
</svg>
