<?xml version="1.0" standalone="no"?>
<!DOCTYPE svg PUBLIC "-//W3C//DTD SVG 20010904//EN"
 "http://www.w3.org/TR/2001/REC-SVG-20010904/DTD/svg10.dtd">
<svg version="1.0" xmlns="http://www.w3.org/2000/svg"
 width="56.000000pt" height="56.000000pt" viewBox="0 0 56.000000 56.000000"
 preserveAspectRatio="xMidYMid meet">
<metadata>
Created by potrace 1.16, written by Peter Selinger 2001-2019
</metadata>
<g transform="translate(0.000000,56.000000) scale(0.100000,-0.100000)"
fill="#000000" stroke="none">
<path d="M295 560 c-8 0 -15 -4 -15 -9 0 -4 -20 -14 -45 -21 -25 -7 -45 -15
-45 -19 0 -3 11 -19 25 -34 17 -18 36 -27 55 -27 29 0 30 -2 30 -45 0 -29 -5
-45 -12 -46 -7 -1 -24 0 -36 1 -13 1 -37 -4 -53 -10 -23 -10 -29 -19 -29 -41
0 -19 11 -41 30 -61 17 -17 28 -36 26 -42 -3 -6 -10 -28 -17 -48 -10 -30 -9
-40 1 -53 7 -9 29 -15 51 -15 25 0 39 -5 39 -12 0 -7 -9 -28 -20 -45 -20 -33
-20 -33 10 -33 23 0 35 9 61 47 32 46 32 46 9 90 -24 45 -24 45 -6 136 10 51
20 121 23 157 5 65 5 65 -31 98 -19 17 -42 32 -51 32z m-52 -230 c10 0 17 -7
17 -17 0 -10 -4 -24 -9 -32 -5 -8 -16 -11 -25 -8 -9 4 -19 14 -23 23 -3 9 0
20 8 25 8 5 22 9 32 9z"/>
</g>
</svg>
