<?xml version="1.0" standalone="no"?>
<!DOCTYPE svg PUBLIC "-//W3C//DTD SVG 20010904//EN"
 "http://www.w3.org/TR/2001/REC-SVG-20010904/DTD/svg10.dtd">
<svg version="1.0" xmlns="http://www.w3.org/2000/svg"
 width="56.000000pt" height="56.000000pt" viewBox="0 0 56.000000 56.000000"
 preserveAspectRatio="xMidYMid meet">
<metadata>
Created by potrace 1.16, written by Peter Selinger 2001-2019
</metadata>
<g transform="translate(0.000000,56.000000) scale(0.100000,-0.100000)"
fill="#000000" stroke="none">
<path d="M281 560 c-21 0 -30 -6 -35 -22 -3 -13 -6 -34 -6 -47 0 -13 11 -36
25 -53 14 -16 25 -35 25 -41 0 -7 -4 -27 -9 -44 -6 -20 -6 -44 1 -65 6 -23 6
-42 -1 -61 -6 -16 -16 -25 -22 -22 -6 4 -8 17 -5 29 3 13 -1 31 -9 42 -11 15
-17 17 -32 8 -11 -7 -18 -22 -17 -40 1 -16 5 -58 9 -94 5 -36 15 -75 23 -88 8
-12 25 -25 38 -28 13 -3 28 -12 35 -20 6 -8 20 -14 31 -14 10 0 21 7 25 16 3
8 0 26 -7 38 -6 13 -25 30 -41 37 -29 14 -29 14 -3 51 20 28 27 52 31 105 3
37 4 84 4 103 -1 19 -5 38 -10 43 -5 5 -4 23 2 42 8 27 6 41 -7 68 -9 19 -16
40 -16 46 0 6 -13 11 -29 11z"/>
</g>
</svg>
