<?xml version="1.0" standalone="no"?>
<!DOCTYPE svg PUBLIC "-//W3C//DTD SVG 20010904//EN"
 "http://www.w3.org/TR/2001/REC-SVG-20010904/DTD/svg10.dtd">
<svg version="1.0" xmlns="http://www.w3.org/2000/svg"
 width="128.000000pt" height="128.000000pt" viewBox="0 0 128.000000 128.000000"
 preserveAspectRatio="xMidYMid meet">
<metadata>
Created by potrace 1.16, written by Peter Selinger 2001-2019
</metadata>
<g transform="translate(0.000000,128.000000) scale(0.100000,-0.100000)"
fill="#000000" stroke="none">
<path d="M95 1158 c-95 3 -95 3 -95 -43 0 -32 4 -45 14 -45 8 0 18 5 21 10 3
6 13 10 21 10 8 0 31 8 52 17 20 9 48 20 62 23 14 3 24 10 23 15 -2 6 -46 11
-98 13z"/>
<path d="M643 1144 c-19 5 -34 3 -38 -4 -4 -7 -23 -18 -42 -26 -18 -8 -37 -22
-40 -31 -4 -11 3 -23 23 -37 16 -11 42 -34 57 -50 26 -27 28 -34 21 -80 -3
-28 -10 -61 -15 -73 -5 -14 -17 -23 -31 -23 -12 0 -35 -4 -52 -9 -17 -5 -51
-15 -76 -22 -25 -7 -74 -12 -110 -10 -54 2 -69 6 -87 27 -12 13 -27 24 -33 24
-5 0 -10 -21 -10 -48 0 -40 5 -53 29 -76 17 -16 38 -34 49 -40 11 -6 31 -20
46 -30 26 -18 30 -18 86 -2 33 9 69 16 80 16 16 0 20 -7 20 -34 0 -24 -12 -50
-39 -87 -22 -30 -56 -75 -76 -101 -20 -27 -42 -48 -49 -48 -7 0 -30 -13 -52
-30 -21 -16 -44 -30 -49 -30 -6 0 -32 -18 -59 -40 -44 -36 -53 -40 -106 -40
-43 0 -59 -4 -64 -16 -3 -8 -2 -23 3 -32 5 -9 35 -25 68 -34 42 -12 71 -14
106 -9 26 4 57 17 70 27 12 11 41 32 63 48 23 15 53 40 68 57 14 16 32 29 39
29 6 0 32 -14 57 -30 25 -16 49 -30 54 -30 5 0 27 -16 50 -35 22 -20 56 -50
74 -67 30 -29 34 -30 70 -20 20 6 47 14 59 17 12 3 25 14 28 24 3 10 -1 34 -9
53 -11 25 -24 38 -43 42 -15 4 -47 16 -71 28 -24 11 -80 25 -125 30 -45 6 -90
14 -100 19 -9 5 -17 13 -17 18 0 4 16 28 35 52 19 24 35 49 35 55 0 6 8 18 19
28 10 9 33 21 52 26 26 8 46 6 84 -6 27 -10 92 -39 145 -67 52 -27 102 -55
110 -62 8 -7 31 -21 50 -30 19 -10 46 -26 60 -37 14 -10 56 -44 93 -73 48 -38
78 -55 98 -55 28 0 29 1 29 50 0 28 -4 50 -9 50 -5 0 -12 11 -15 24 -4 15 -37
47 -84 83 -42 32 -93 66 -112 77 -19 10 -40 24 -45 31 -6 7 -28 21 -50 33 -26
13 -71 23 -120 27 -44 3 -85 11 -92 17 -7 6 -34 11 -61 12 -47 1 -47 1 -44 34
2 18 9 47 17 65 7 18 24 41 37 53 12 11 52 37 88 56 36 20 93 50 128 68 35 18
70 43 78 56 9 13 14 31 12 41 -3 14 -17 20 -68 25 -61 7 -67 6 -101 -20 -20
-15 -53 -40 -74 -56 -29 -23 -40 -27 -53 -19 -15 9 -16 26 -14 115 3 78 1 107
-10 115 -7 6 -27 14 -45 17z"/>
</g>
</svg>
