<?xml version="1.0" standalone="no"?>
<!DOCTYPE svg PUBLIC "-//W3C//DTD SVG 20010904//EN"
 "http://www.w3.org/TR/2001/REC-SVG-20010904/DTD/svg10.dtd">
<svg version="1.0" xmlns="http://www.w3.org/2000/svg"
 width="128.000000pt" height="128.000000pt" viewBox="0 0 128.000000 128.000000"
 preserveAspectRatio="xMidYMid meet">
<metadata>
Created by potrace 1.16, written by Peter Selinger 2001-2019
</metadata>
<g transform="translate(0.000000,128.000000) scale(0.100000,-0.100000)"
fill="#000000" stroke="none">
<path d="M717 1280 c-21 0 -36 -7 -44 -19 -6 -10 -15 -51 -19 -90 -6 -66 -9
-72 -27 -67 -10 2 -28 -1 -38 -7 -16 -10 -23 -7 -49 21 -16 18 -35 30 -41 27
-6 -4 -16 1 -23 11 -8 11 -20 15 -30 11 -14 -6 -16 -14 -11 -39 3 -18 13 -55
22 -83 11 -34 28 -62 57 -87 22 -20 51 -37 63 -38 12 0 24 -4 27 -9 3 -5 -3
-20 -14 -34 -14 -18 -19 -34 -14 -51 4 -18 2 -28 -9 -32 -9 -3 -20 -19 -26
-36 -9 -25 -13 -28 -25 -19 -12 10 -17 6 -25 -27 -6 -22 -18 -45 -25 -52 -12
-9 -20 -8 -40 5 -22 15 -27 15 -54 1 -16 -8 -32 -13 -35 -9 -4 3 -20 -6 -37
-21 -17 -14 -36 -26 -42 -26 -7 0 -8 -16 -4 -45 4 -25 3 -45 -1 -45 -5 0 -17
10 -27 22 -19 21 -19 21 -38 -16 -10 -20 -30 -41 -43 -46 -23 -9 -25 -14 -25
-83 0 -41 5 -87 10 -103 10 -27 14 -29 50 -26 30 3 50 14 79 42 22 21 50 44
63 52 13 7 28 14 33 14 6 1 15 2 21 3 7 0 19 19 28 42 13 32 19 39 30 30 9 -8
22 -8 43 -1 16 6 37 24 46 40 16 26 20 28 38 17 16 -10 21 -9 29 3 5 8 10 25
10 37 0 12 -4 25 -10 28 -5 3 -10 23 -9 43 0 33 1 34 10 14 5 -13 13 -20 19
-17 5 3 10 13 10 21 0 8 -7 26 -16 40 -14 20 -15 30 -6 49 7 14 18 25 25 25 8
0 13 -10 13 -22 -1 -16 5 -23 17 -23 13 0 23 13 33 40 7 22 14 48 14 58 0 10
7 20 15 23 8 4 15 17 15 30 0 23 -3 24 -40 18 -32 -5 -41 -3 -46 10 -4 10 -1
23 5 29 9 9 20 7 47 -8 36 -19 36 -19 60 10 16 21 31 29 47 27 12 -2 39 4 60
13 24 10 37 22 37 34 0 10 6 23 13 29 7 6 23 9 34 6 17 -5 25 1 37 25 15 28
15 34 1 61 -9 17 -21 30 -28 30 -7 0 -18 9 -25 20 -7 11 -20 20 -30 20 -10 0
-23 -5 -30 -12 -9 -9 -16 -8 -30 5 -10 9 -24 17 -30 17 -7 0 -12 7 -12 15 0 8
-11 22 -25 31 -14 9 -25 23 -25 30 0 9 -11 14 -33 14z m109 -190 c9 0 14 -11
14 -29 0 -16 -6 -34 -14 -40 -9 -7 -17 -8 -20 -3 -3 6 -3 24 0 41 4 17 13 31
20 31z m-465 -520 c5 0 9 -4 9 -9 0 -6 -5 -13 -11 -16 -6 -4 -13 -5 -16 -2 -3
3 -2 10 2 16 3 6 10 11 16 11z m-127 -80 c2 0 16 -4 31 -10 22 -8 24 -13 15
-31 -6 -11 -17 -18 -23 -16 -7 2 -12 10 -12 18 0 8 -4 20 -8 27 -5 6 -6 12 -3
12z"/>
<path d="M821 650 c-14 0 -33 -5 -41 -10 -8 -5 -38 -10 -67 -10 -34 0 -57 -5
-68 -16 -9 -9 -14 -23 -11 -31 3 -8 6 -17 6 -20 0 -3 11 2 25 11 22 14 25 15
25 1 0 -11 11 -15 39 -15 22 0 43 -4 46 -10 3 -5 15 -10 26 -10 13 0 19 7 19
23 0 12 9 30 20 40 11 9 17 23 14 32 -4 8 -18 15 -33 15z"/>
<path d="M931 640 c-3 0 -21 -12 -38 -26 -22 -17 -33 -34 -33 -51 0 -18 4 -24
15 -19 12 4 15 -3 15 -30 0 -25 -8 -42 -27 -60 -16 -14 -35 -32 -44 -40 -9 -8
-27 -14 -41 -14 -14 0 -33 -9 -43 -20 -10 -11 -16 -22 -14 -24 2 -2 14 -8 25
-14 18 -10 27 -8 49 10 16 12 46 23 72 25 25 2 57 10 72 17 14 7 51 13 81 14
30 1 66 8 81 14 18 8 29 22 33 41 3 16 6 38 6 47 0 10 -22 34 -50 54 -50 36
-50 36 -60 11 -5 -14 -17 -25 -25 -25 -13 0 -15 7 -9 36 6 33 5 36 -13 30 -12
-4 -25 -1 -33 9 -7 8 -15 15 -19 15z m84 -140 c8 -7 15 -19 15 -27 0 -13 -3
-13 -15 -3 -8 7 -15 19 -15 27 0 13 3 13 15 3z m-62 -9 c7 -7 7 -18 -3 -35 -7
-14 -20 -28 -28 -31 -8 -3 -17 -4 -19 -1 -2 2 6 20 18 40 15 26 25 34 32 27z"/>
<path d="M631 310 c-6 0 -13 -4 -16 -10 -3 -5 -3 -15 0 -20 4 -6 11 -8 16 -5
5 4 9 13 9 21 0 8 -4 14 -9 14z"/>
<path d="M610 237 c-8 1 -21 -1 -27 -4 -7 -2 -13 -18 -13 -34 0 -17 5 -29 13
-29 9 0 12 -9 9 -29 -3 -23 2 -33 27 -50 31 -22 31 -22 31 -2 0 14 6 21 20 21
15 0 21 -9 26 -40 4 -23 12 -40 19 -40 7 0 25 14 38 30 14 16 28 30 31 30 3 0
3 -20 -1 -45 -6 -45 -6 -45 62 -45 67 0 67 0 60 27 -3 16 -14 36 -22 46 -9 9
-21 17 -28 17 -6 0 -17 11 -25 24 -9 18 -21 24 -42 24 -24 -1 -30 -6 -35 -29
-3 -16 -11 -33 -18 -39 -11 -9 -13 -1 -12 37 2 40 -1 48 -18 51 -11 2 -24 10
-28 18 -4 8 -16 14 -27 14 -12 0 -20 8 -22 22 -2 13 -10 24 -18 25z"/>
</g>
</svg>
