<?xml version="1.0" standalone="no"?>
<!DOCTYPE svg PUBLIC "-//W3C//DTD SVG 20010904//EN"
 "http://www.w3.org/TR/2001/REC-SVG-20010904/DTD/svg10.dtd">
<svg version="1.0" xmlns="http://www.w3.org/2000/svg"
 width="128.000000pt" height="128.000000pt" viewBox="0 0 128.000000 128.000000"
 preserveAspectRatio="xMidYMid meet">
<metadata>
Created by potrace 1.16, written by Peter Selinger 2001-2019
</metadata>
<g transform="translate(0.000000,128.000000) scale(0.100000,-0.100000)"
fill="#000000" stroke="none">
<path d="M698 1250 c-21 0 -41 -13 -77 -50 -27 -27 -56 -50 -65 -50 -9 0 -31
-8 -49 -17 -18 -9 -63 -22 -102 -29 -38 -7 -96 -10 -127 -7 -49 5 -58 3 -58
-10 0 -9 12 -28 28 -42 15 -14 56 -40 92 -57 36 -18 73 -38 83 -46 9 -8 17
-22 17 -30 0 -9 -16 -47 -36 -86 -20 -39 -46 -84 -57 -100 -14 -20 -25 -62
-35 -135 -7 -58 -14 -122 -15 -141 -2 -25 3 -35 14 -38 9 -1 36 13 60 32 24
19 70 51 102 71 32 19 63 35 68 35 6 0 25 10 42 23 18 13 60 38 95 56 37 19
73 31 90 29 22 -2 28 -9 30 -34 2 -25 -7 -41 -55 -94 -32 -35 -72 -78 -89 -95
-16 -16 -56 -52 -88 -80 -31 -27 -68 -59 -81 -70 -13 -11 -28 -38 -33 -60 -6
-22 -13 -61 -16 -86 -6 -39 -3 -49 18 -72 14 -15 36 -27 49 -27 14 0 55 9 92
21 37 11 73 18 81 15 8 -3 14 -10 14 -16 0 -6 -11 -22 -25 -35 -24 -25 -24
-25 30 -25 42 0 55 4 55 15 0 8 26 31 58 51 31 20 80 46 107 57 28 10 60 24
71 29 12 6 27 21 33 35 6 13 11 28 11 32 0 5 -25 29 -55 54 -54 45 -54 45
-112 31 -32 -8 -86 -14 -120 -14 -34 0 -65 4 -68 10 -3 5 -1 18 4 29 6 11 27
29 46 41 20 12 47 32 61 43 15 12 43 36 63 53 20 17 67 52 106 78 38 26 73 53
77 59 4 7 8 40 8 75 0 35 -5 72 -11 83 -5 11 -28 33 -51 49 -23 17 -51 30 -63
30 -12 0 -49 -13 -82 -29 -34 -17 -64 -35 -68 -40 -3 -6 -13 -11 -22 -11 -9 0
-26 -8 -37 -18 -12 -10 -49 -30 -83 -45 -35 -15 -70 -24 -78 -21 -9 4 -15 19
-15 35 0 16 4 37 10 47 5 9 19 45 30 79 11 34 20 71 20 81 0 10 8 26 18 34 9
9 28 19 42 23 14 4 49 26 78 48 29 22 58 49 64 60 5 11 8 38 5 60 -4 26 -16
51 -38 73 -22 23 -42 34 -61 34z"/>
</g>
</svg>
