<?xml version="1.0" standalone="no"?>
<!DOCTYPE svg PUBLIC "-//W3C//DTD SVG 20010904//EN"
 "http://www.w3.org/TR/2001/REC-SVG-20010904/DTD/svg10.dtd">
<svg version="1.0" xmlns="http://www.w3.org/2000/svg"
 width="128.000000pt" height="128.000000pt" viewBox="0 0 128.000000 128.000000"
 preserveAspectRatio="xMidYMid meet">
<metadata>
Created by potrace 1.16, written by Peter Selinger 2001-2019
</metadata>
<g transform="translate(0.000000,128.000000) scale(0.100000,-0.100000)"
fill="#000000" stroke="none">
<path d="M189 1280 c-79 0 -90 -2 -85 -16 3 -9 6 -17 6 -20 0 -2 14 -11 30
-19 18 -9 40 -13 53 -9 12 3 37 16 54 28 18 11 33 24 33 29 0 4 -41 7 -91 7z"/>
<path d="M483 1280 c-110 -1 -119 -2 -137 -23 -10 -13 -24 -33 -30 -45 -7 -13
-37 -43 -67 -68 -30 -24 -62 -47 -72 -50 -11 -3 -16 -12 -13 -20 3 -8 1 -14
-3 -14 -5 0 -34 -20 -65 -46 -41 -33 -56 -52 -56 -70 0 -13 7 -41 15 -61 14
-32 14 -39 0 -59 -8 -13 -15 -33 -15 -44 0 -11 7 -23 16 -27 11 -4 14 -14 11
-32 -3 -15 1 -34 9 -45 8 -11 14 -28 14 -38 0 -10 9 -36 20 -57 10 -21 26 -41
35 -45 9 -3 36 -6 59 -6 32 0 54 8 92 35 35 25 60 35 87 35 21 0 54 8 75 19
20 10 62 21 92 25 30 5 64 9 75 9 16 2 19 -3 17 -23 -1 -14 -4 -53 -6 -87 -3
-34 -12 -73 -20 -85 -9 -12 -16 -30 -16 -38 0 -9 -10 -26 -22 -37 -13 -12 -46
-33 -75 -47 -29 -14 -64 -26 -78 -26 -14 0 -25 -5 -25 -11 0 -5 -21 -29 -46
-52 -25 -23 -50 -50 -55 -60 -7 -12 -6 -30 2 -55 7 -20 26 -51 42 -69 17 -18
44 -34 66 -39 20 -4 77 -6 126 -5 70 2 96 6 117 22 21 15 32 17 53 9 15 -6 40
-10 56 -10 16 0 40 7 52 15 18 11 39 13 91 8 64 -6 70 -8 80 -35 7 -18 17 -28
31 -28 14 0 27 11 38 34 13 28 21 34 43 33 21 -2 33 7 60 47 19 26 34 59 34
72 0 14 -9 28 -22 35 -13 6 -33 24 -45 39 -13 16 -41 32 -68 40 -38 11 -52 10
-88 -3 -23 -8 -76 -18 -116 -22 -41 -4 -84 -13 -94 -20 -11 -7 -26 -11 -33 -8
-8 3 -14 11 -14 18 0 7 7 18 16 25 8 8 22 29 30 48 8 19 14 41 14 49 0 7 9 26
20 41 11 15 22 42 24 60 2 19 13 47 25 63 13 17 21 43 21 67 0 27 7 45 21 58
11 10 29 40 41 66 11 26 28 49 37 52 9 2 58 4 108 4 86 0 96 2 129 27 35 27
36 29 30 78 -4 28 -9 54 -12 59 -3 4 -13 8 -24 8 -11 0 -20 10 -24 25 -5 21
-12 25 -43 25 -20 0 -44 -7 -54 -16 -12 -11 -41 -17 -87 -19 -70 -2 -70 -2
-101 42 -17 24 -31 46 -31 49 0 3 -21 30 -47 61 -48 55 -48 55 -108 50 -33 -3
-68 -9 -79 -13 -14 -5 -17 -14 -12 -37 4 -17 12 -38 19 -46 8 -9 19 -35 25
-57 7 -23 12 -52 12 -66 0 -14 -8 -32 -18 -41 -10 -10 -45 -26 -78 -36 -32
-11 -90 -25 -129 -31 -38 -7 -95 -18 -124 -26 -30 -8 -59 -18 -65 -24 -5 -5
-25 -10 -43 -10 -21 0 -36 6 -39 15 -3 8 6 29 20 46 14 17 26 39 26 50 0 11
15 36 33 55 17 19 48 51 67 70 19 19 55 55 80 79 25 24 59 50 76 59 17 8 34
22 37 29 3 8 21 17 41 21 20 4 40 15 46 26 5 10 10 21 10 24 0 3 -53 6 -117 6z
m566 -326 c9 -4 33 -6 54 -5 35 1 37 0 27 -19 -9 -17 -17 -19 -53 -14 -23 4
-46 10 -51 14 -4 5 -5 13 -1 20 4 6 14 8 24 4z m-263 -24 c11 0 33 -11 48 -25
14 -13 26 -29 26 -35 0 -7 -25 -49 -55 -95 -31 -46 -63 -86 -72 -89 -9 -4 -25
0 -37 8 -12 8 -31 24 -43 35 -13 12 -23 28 -23 36 0 8 14 31 32 52 17 21 48
55 67 76 19 20 45 37 57 37z m-295 -126 c5 -3 9 -9 9 -15 0 -5 -7 -9 -15 -9
-8 0 -15 4 -15 8 0 5 3 12 6 15 4 4 11 4 15 1z m-68 -17 c6 -2 12 -8 14 -14 2
-6 -4 -13 -12 -17 -9 -3 -21 -3 -26 0 -6 3 -5 11 2 20 7 8 17 13 22 11z m-52
-47 c4 0 10 -4 13 -9 3 -5 0 -14 -8 -20 -10 -9 -15 -8 -19 3 -3 8 -3 17 0 20
4 3 10 6 14 6z m-110 -21 c11 -5 19 -18 19 -28 0 -11 -7 -22 -16 -25 -9 -3
-20 -4 -25 0 -5 3 -9 15 -9 28 0 12 3 26 6 29 4 3 15 2 25 -4z m383 -478 c11
-5 22 -16 24 -25 2 -9 -1 -16 -7 -16 -6 0 -11 -4 -11 -9 0 -5 9 -11 20 -14 15
-4 20 -14 20 -36 0 -27 -4 -31 -25 -31 -14 0 -36 7 -48 15 -19 12 -29 12 -53
3 -17 -6 -42 -8 -56 -5 -14 4 -28 13 -31 22 -4 8 1 22 10 30 12 13 27 15 64
10 33 -5 49 -3 49 4 0 6 -5 11 -12 11 -6 0 -1 11 11 24 18 19 28 23 45 17z
m225 -11 c10 0 24 -7 31 -15 10 -12 9 -20 -4 -40 -10 -16 -26 -25 -41 -25 -19
0 -25 5 -25 21 0 11 5 29 10 40 6 10 19 19 29 19z"/>
</g>
</svg>
