<?xml version="1.0" standalone="no"?>
<!DOCTYPE svg PUBLIC "-//W3C//DTD SVG 20010904//EN"
 "http://www.w3.org/TR/2001/REC-SVG-20010904/DTD/svg10.dtd">
<svg version="1.0" xmlns="http://www.w3.org/2000/svg"
 width="128.000000pt" height="128.000000pt" viewBox="0 0 128.000000 128.000000"
 preserveAspectRatio="xMidYMid meet">
<metadata>
Created by potrace 1.16, written by Peter Selinger 2001-2019
</metadata>
<g transform="translate(0.000000,128.000000) scale(0.100000,-0.100000)"
fill="#000000" stroke="none">
<path d="M623 1250 c-10 0 -30 -7 -45 -14 -15 -8 -42 -16 -59 -18 -18 -2 -37
-11 -43 -20 -7 -13 -7 -21 0 -28 6 -6 38 -14 70 -17 32 -3 74 -14 92 -25 18
-11 39 -30 47 -42 11 -17 12 -37 5 -96 -8 -57 -15 -79 -31 -92 -12 -10 -31
-18 -43 -18 -11 0 -37 -6 -56 -13 -19 -7 -54 -23 -77 -36 -24 -14 -43 -28 -43
-32 0 -4 -7 -10 -16 -13 -8 -3 -24 -1 -35 4 -14 8 -25 7 -40 -3 -11 -8 -29
-13 -40 -10 -10 3 -26 0 -34 -7 -11 -9 -37 -11 -95 -6 -44 4 -94 12 -112 17
-18 5 -41 6 -50 3 -12 -3 -18 -15 -18 -33 0 -15 8 -35 18 -43 9 -8 44 -29 76
-47 53 -30 65 -32 110 -26 28 3 85 17 126 31 41 14 87 31 101 39 15 8 59 19
99 25 39 6 80 15 90 20 10 5 25 7 33 4 8 -3 17 -22 20 -42 3 -20 2 -57 -3 -81
-4 -25 -6 -51 -3 -58 3 -7 -3 -25 -13 -41 -10 -15 -21 -45 -24 -67 -4 -31 -11
-43 -32 -53 -21 -10 -28 -20 -28 -42 0 -20 -8 -35 -25 -46 -14 -9 -31 -28 -38
-43 -10 -21 -20 -27 -52 -29 -22 -1 -64 -9 -92 -18 -33 -10 -62 -27 -77 -45
-14 -16 -28 -45 -32 -63 -3 -19 -4 -42 -2 -53 2 -12 12 -18 30 -18 14 -1 33
-7 42 -14 12 -10 22 -10 49 0 19 7 48 24 65 39 17 14 50 34 74 44 24 10 55 24
70 32 14 8 44 14 66 14 22 0 57 6 78 13 22 8 80 17 130 20 50 4 99 9 108 13 9
3 16 12 16 20 0 7 15 25 34 40 34 28 34 28 9 47 -20 16 -34 19 -80 14 -31 -3
-65 -1 -79 5 -20 9 -30 6 -66 -17 -30 -20 -56 -29 -87 -29 -25 -1 -46 4 -48
11 -2 6 8 22 23 36 21 20 25 31 20 51 -5 19 -1 29 14 38 14 9 20 24 20 48 0
19 9 50 20 68 14 23 21 56 24 110 3 42 8 92 12 110 4 22 15 37 30 42 12 5 28
22 36 37 9 20 22 29 44 31 19 2 36 -3 44 -12 7 -9 17 -16 23 -16 6 0 18 7 27
15 13 12 16 27 13 59 -3 24 -1 52 5 62 9 16 12 12 22 -24 6 -23 8 -47 5 -52
-4 -6 1 -13 10 -17 10 -3 30 1 45 11 16 9 41 16 57 16 17 0 33 8 40 19 7 11
28 24 47 31 27 9 36 17 36 34 0 16 -12 29 -39 44 -26 15 -56 22 -92 22 -38 0
-58 -5 -73 -19 -12 -11 -64 -42 -116 -70 -52 -28 -110 -58 -128 -66 -18 -9
-37 -27 -42 -40 -7 -18 -17 -25 -35 -25 -17 0 -25 5 -25 18 0 9 21 35 46 56
41 35 45 43 40 70 -4 17 -18 52 -31 78 -14 26 -25 56 -25 66 0 10 -5 23 -12
30 -7 7 -20 12 -30 12 -10 0 -23 11 -28 24 -5 14 -18 30 -29 35 -11 6 -28 11
-38 11z m-213 -1090 c6 0 10 -7 10 -15 0 -8 -4 -15 -10 -15 -5 0 -10 7 -10 15
0 8 5 15 10 15z"/>
<path d="M10 1040 c-5 0 -10 -12 -10 -26 0 -14 4 -23 10 -19 5 3 10 15 10 26
0 10 -4 19 -10 19z"/>
<path d="M1115 320 c-13 0 -27 -6 -33 -12 -5 -7 -12 -24 -14 -38 -2 -20 -9
-26 -35 -28 -21 -2 -33 -9 -33 -18 0 -8 3 -14 8 -15 4 0 32 -2 62 -5 30 -2 67
1 82 7 15 6 29 17 31 24 3 7 -6 29 -20 49 -17 23 -34 36 -48 36z"/>
</g>
</svg>
