<?xml version="1.0" standalone="no"?>
<!DOCTYPE svg PUBLIC "-//W3C//DTD SVG 20010904//EN"
 "http://www.w3.org/TR/2001/REC-SVG-20010904/DTD/svg10.dtd">
<svg version="1.0" xmlns="http://www.w3.org/2000/svg"
 width="128.000000pt" height="128.000000pt" viewBox="0 0 128.000000 128.000000"
 preserveAspectRatio="xMidYMid meet">
<metadata>
Created by potrace 1.16, written by Peter Selinger 2001-2019
</metadata>
<g transform="translate(0.000000,128.000000) scale(0.100000,-0.100000)"
fill="#000000" stroke="none">
<path d="M712 979 c-48 54 -48 54 -73 24 -21 -25 -25 -38 -21 -69 2 -22 5 -86
7 -144 1 -58 0 -110 -2 -116 -3 -7 -32 -17 -66 -23 -34 -5 -80 -13 -102 -16
-22 -4 -50 -13 -62 -21 -18 -11 -27 -12 -48 -2 -21 9 -31 9 -46 0 -10 -7 -51
-12 -91 -12 -40 0 -90 -6 -110 -13 -21 -7 -40 -16 -44 -19 -3 -4 -3 -15 0 -26
4 -11 14 -23 23 -26 8 -4 66 -1 127 5 63 7 121 18 134 27 17 11 40 13 95 9 43
-3 80 -1 92 5 10 6 33 14 52 18 23 6 38 4 47 -5 10 -10 12 -44 10 -137 -2 -68
-4 -126 -4 -130 0 -4 -12 -8 -27 -8 -16 0 -57 0 -92 0 -36 1 -75 -4 -88 -11
-18 -10 -26 -9 -39 2 -12 9 -36 13 -78 11 -34 -2 -65 -8 -70 -13 -6 -5 -5 -18
2 -34 10 -23 17 -25 69 -25 33 0 66 7 76 14 11 8 33 12 60 9 23 -3 56 1 72 8
18 7 70 12 127 11 70 -1 99 3 108 13 8 10 8 15 -2 22 -7 4 -22 13 -33 18 -14
8 -19 20 -18 40 1 17 2 58 3 92 1 40 6 66 16 74 13 10 13 15 -1 35 -14 22 -14
24 9 39 17 11 35 14 59 10 21 -4 37 -3 41 4 4 6 20 11 35 11 16 0 34 7 41 15
6 8 9 19 5 25 -4 7 -24 9 -53 5 -26 -4 -62 -12 -79 -18 -25 -8 -36 -8 -45 1
-9 9 -8 21 1 52 8 27 9 46 2 58 -7 14 -3 31 16 69 14 29 22 60 19 70 -3 10
-28 42 -54 72z"/>
<path d="M1176 728 c-6 -1 -31 -3 -55 -5 -25 -3 -54 -11 -65 -19 -13 -9 -32
-12 -51 -8 -22 4 -35 1 -45 -11 -8 -9 -9 -19 -4 -24 5 -5 37 -11 71 -15 37 -3
65 -2 68 4 4 6 21 10 38 9 18 -1 47 -6 66 -11 24 -8 40 -7 57 3 24 12 24 12
-23 46 -25 18 -51 32 -57 31z"/>
<path d="M955 364 c-27 2 -59 2 -70 0 -11 -3 -32 -10 -47 -16 -20 -7 -28 -18
-28 -34 0 -17 6 -24 19 -24 11 0 23 5 26 10 5 8 12 7 22 -2 9 -7 30 -13 47
-13 17 -1 41 -4 52 -8 15 -5 27 -2 38 9 11 10 14 24 10 38 -3 11 -9 24 -13 28
-3 4 -28 9 -56 12z"/>
<path d="M1272 340 c-5 0 -12 -3 -15 -7 -4 -3 -7 -15 -7 -25 0 -10 7 -18 15
-18 9 0 15 9 15 25 0 14 -4 25 -8 25z"/>
</g>
</svg>
