<?xml version="1.0" standalone="no"?>
<!DOCTYPE svg PUBLIC "-//W3C//DTD SVG 20010904//EN"
 "http://www.w3.org/TR/2001/REC-SVG-20010904/DTD/svg10.dtd">
<svg version="1.0" xmlns="http://www.w3.org/2000/svg"
 width="128.000000pt" height="128.000000pt" viewBox="0 0 128.000000 128.000000"
 preserveAspectRatio="xMidYMid meet">
<metadata>
Created by potrace 1.16, written by Peter Selinger 2001-2019
</metadata>
<g transform="translate(0.000000,128.000000) scale(0.100000,-0.100000)"
fill="#000000" stroke="none">
<path d="M565 969 c-11 0 -39 -8 -62 -19 -24 -10 -43 -23 -43 -28 0 -5 9 -17
20 -27 11 -10 29 -36 40 -59 11 -23 20 -54 20 -69 0 -21 -8 -31 -39 -47 -33
-16 -45 -18 -68 -9 -16 6 -50 8 -82 4 -29 -4 -71 -13 -93 -21 -22 -8 -53 -14
-67 -14 -15 0 -31 -4 -36 -9 -6 -6 -39 -15 -75 -20 -36 -6 -68 -11 -72 -11 -5
0 -8 -11 -8 -23 0 -19 8 -26 43 -37 23 -8 58 -22 77 -32 19 -10 55 -18 81 -18
34 0 57 8 93 32 26 17 73 38 104 45 32 8 69 17 85 20 15 3 34 0 42 -7 10 -8
15 -31 15 -64 0 -42 -5 -57 -23 -74 -13 -13 -36 -22 -53 -22 -17 0 -39 -7 -50
-15 -10 -8 -40 -17 -65 -21 -26 -3 -52 -10 -59 -14 -7 -4 -10 -15 -7 -23 3 -8
35 -22 71 -32 50 -14 85 -16 146 -12 44 4 94 14 111 23 20 10 43 14 61 10 19
-4 40 0 57 10 25 15 31 15 57 1 16 -8 61 -17 99 -21 60 -5 76 -3 114 16 25 13
49 31 55 40 7 12 5 26 -9 51 -12 23 -35 43 -69 60 -39 19 -67 25 -120 26 -38
0 -86 -3 -106 -8 -20 -4 -45 -4 -57 0 -17 6 -22 18 -24 59 -2 29 -1 57 3 62 3
6 33 15 66 19 33 5 80 16 104 24 26 10 102 20 193 25 83 5 158 12 168 15 9 4
17 14 17 22 0 7 -11 24 -24 36 -13 12 -51 40 -85 61 -62 39 -62 39 -114 12
-29 -14 -64 -26 -79 -26 -14 0 -39 -7 -54 -15 -16 -8 -41 -15 -56 -15 -15 0
-30 -4 -33 -10 -3 -5 -14 -10 -24 -10 -10 0 -23 11 -29 25 -7 14 -12 36 -12
48 0 12 -9 33 -19 46 -11 14 -34 26 -62 32 -24 4 -53 8 -64 8z"/>
<path d="M1278 329 c-2 0 -13 -4 -26 -10 -13 -5 -20 -13 -17 -19 3 -5 15 -10
26 -10 12 0 19 7 19 20 0 11 -1 20 -2 19z"/>
</g>
</svg>
