<?xml version="1.0" standalone="no"?>
<!DOCTYPE svg PUBLIC "-//W3C//DTD SVG 20010904//EN"
 "http://www.w3.org/TR/2001/REC-SVG-20010904/DTD/svg10.dtd">
<svg version="1.0" xmlns="http://www.w3.org/2000/svg"
 width="56.000000pt" height="56.000000pt" viewBox="0 0 56.000000 56.000000"
 preserveAspectRatio="xMidYMid meet">
<metadata>
Created by potrace 1.16, written by Peter Selinger 2001-2019
</metadata>
<g transform="translate(0.000000,56.000000) scale(0.100000,-0.100000)"
fill="#000000" stroke="none">
<path d="M285 560 c-9 0 -15 -19 -19 -67 -2 -38 -9 -108 -15 -158 -7 -61 -7
-129 1 -210 5 -66 12 -122 14 -124 2 -2 11 -1 20 3 14 5 15 16 9 74 -4 37 -8
112 -8 167 0 55 5 134 12 175 6 41 9 90 6 108 -3 18 -12 32 -20 32z"/>
</g>
</svg>
