<?xml version="1.0" standalone="no"?>
<!DOCTYPE svg PUBLIC "-//W3C//DTD SVG 20010904//EN"
 "http://www.w3.org/TR/2001/REC-SVG-20010904/DTD/svg10.dtd">
<svg version="1.0" xmlns="http://www.w3.org/2000/svg"
 width="56.000000pt" height="56.000000pt" viewBox="0 0 56.000000 56.000000"
 preserveAspectRatio="xMidYMid meet">
<metadata>
Created by potrace 1.16, written by Peter Selinger 2001-2019
</metadata>
<g transform="translate(0.000000,56.000000) scale(0.100000,-0.100000)"
fill="#000000" stroke="none">
<path d="M254 518 c-16 2 -33 0 -37 -4 -4 -4 -7 -11 -7 -15 0 -4 9 -11 20 -14
15 -5 20 -15 20 -40 0 -20 -6 -35 -15 -39 -8 -3 -29 -3 -46 1 -27 5 -31 3 -27
-13 2 -10 17 -25 33 -34 17 -8 33 -19 37 -25 4 -5 8 -32 8 -60 0 -48 -3 -53
-70 -123 -39 -41 -70 -77 -70 -82 0 -4 6 -12 13 -18 9 -8 24 -6 54 8 41 18 41
18 79 -7 36 -25 39 -25 63 -10 14 9 41 24 59 34 23 12 35 14 43 6 8 -8 4 -21
-16 -47 -26 -34 -26 -36 -7 -36 11 0 34 8 51 17 16 10 35 28 40 41 6 13 11 33
11 46 0 13 -9 31 -20 41 -19 17 -25 17 -58 5 -20 -7 -50 -23 -65 -36 -16 -13
-40 -27 -53 -30 -18 -5 -32 0 -50 17 -13 12 -24 26 -24 31 0 5 27 34 60 65 33
32 60 63 60 70 0 8 -12 13 -30 13 -27 0 -30 3 -30 34 0 18 6 38 13 44 6 6 26
12 42 14 22 2 30 8 30 23 0 12 -9 21 -24 25 -13 3 -27 12 -31 20 -4 8 -12 29
-17 45 -6 24 -15 31 -39 33z"/>
</g>
</svg>
