<?xml version="1.0" standalone="no"?>
<!DOCTYPE svg PUBLIC "-//W3C//DTD SVG 20010904//EN"
 "http://www.w3.org/TR/2001/REC-SVG-20010904/DTD/svg10.dtd">
<svg version="1.0" xmlns="http://www.w3.org/2000/svg"
 width="56.000000pt" height="56.000000pt" viewBox="0 0 56.000000 56.000000"
 preserveAspectRatio="xMidYMid meet">
<metadata>
Created by potrace 1.16, written by Peter Selinger 2001-2019
</metadata>
<g transform="translate(0.000000,56.000000) scale(0.100000,-0.100000)"
fill="#000000" stroke="none">
<path d="M315 507 c-26 8 -33 6 -48 -11 -16 -20 -17 -20 -31 -3 -13 17 -14 17
-19 -2 -3 -13 -17 -21 -45 -26 -23 -4 -50 -4 -62 0 -13 4 -20 2 -20 -7 0 -8
12 -26 27 -40 16 -14 38 -29 50 -33 13 -3 26 -17 29 -31 5 -18 0 -32 -17 -50
-12 -13 -28 -24 -36 -24 -7 0 -13 -4 -13 -10 0 -5 -5 -10 -11 -10 -6 0 -24 -9
-40 -21 -24 -17 -29 -28 -29 -60 0 -28 4 -39 15 -39 8 0 15 7 15 15 0 8 7 15
15 15 8 0 23 -4 33 -9 9 -5 29 -14 43 -21 18 -8 54 -10 105 -7 44 2 89 8 102
12 15 5 22 3 22 -6 0 -7 -21 -32 -46 -56 -25 -25 -44 -47 -41 -49 3 -3 21 4
40 15 20 11 61 37 92 57 30 21 54 42 52 48 -2 6 -19 19 -38 28 -19 9 -45 17
-60 18 -14 0 -30 -5 -36 -11 -7 -7 -50 -12 -105 -13 -63 -1 -103 4 -125 14
-18 8 -33 21 -33 28 0 7 12 18 28 24 15 7 46 25 69 40 26 18 55 28 77 28 26 0
36 4 36 16 0 9 -17 22 -40 31 -22 9 -39 21 -37 27 2 6 22 16 44 22 22 7 54 19
72 28 19 11 31 23 29 33 -2 9 -10 19 -18 23 -8 4 -29 12 -45 17z"/>
</g>
</svg>
