<?xml version="1.0" standalone="no"?>
<!DOCTYPE svg PUBLIC "-//W3C//DTD SVG 20010904//EN"
 "http://www.w3.org/TR/2001/REC-SVG-20010904/DTD/svg10.dtd">
<svg version="1.0" xmlns="http://www.w3.org/2000/svg"
 width="56.000000pt" height="56.000000pt" viewBox="0 0 56.000000 56.000000"
 preserveAspectRatio="xMidYMid meet">
<metadata>
Created by potrace 1.16, written by Peter Selinger 2001-2019
</metadata>
<g transform="translate(0.000000,56.000000) scale(0.100000,-0.100000)"
fill="#000000" stroke="none">
<path d="M284 560 c-8 0 -12 -21 -11 -62 1 -41 -7 -87 -22 -131 -19 -56 -22
-82 -18 -145 3 -42 10 -101 16 -130 5 -29 13 -62 16 -72 4 -11 13 -20 21 -20
8 0 19 12 25 27 7 20 5 46 -11 106 -11 45 -20 102 -20 128 0 27 7 74 16 106 9
32 19 75 21 95 3 21 -1 51 -8 68 -8 16 -19 30 -25 30z"/>
</g>
</svg>
