<?xml version="1.0" standalone="no"?>
<!DOCTYPE svg PUBLIC "-//W3C//DTD SVG 20010904//EN"
 "http://www.w3.org/TR/2001/REC-SVG-20010904/DTD/svg10.dtd">
<svg version="1.0" xmlns="http://www.w3.org/2000/svg"
 width="56.000000pt" height="56.000000pt" viewBox="0 0 56.000000 56.000000"
 preserveAspectRatio="xMidYMid meet">
<metadata>
Created by potrace 1.16, written by Peter Selinger 2001-2019
</metadata>
<g transform="translate(0.000000,56.000000) scale(0.100000,-0.100000)"
fill="#000000" stroke="none">
<path d="M327 560 c-7 0 -19 -17 -26 -37 -8 -21 -28 -67 -45 -103 -31 -65 -31
-66 -29 -219 1 -84 4 -164 7 -177 4 -16 14 -24 27 -24 20 0 21 4 15 62 -3 35
-9 94 -12 132 -4 44 -2 89 6 125 8 31 22 76 33 101 10 25 23 53 28 62 5 10 9
31 9 48 0 18 -5 30 -13 30z"/>
</g>
</svg>
