<?xml version="1.0" standalone="no"?>
<!DOCTYPE svg PUBLIC "-//W3C//DTD SVG 20010904//EN"
 "http://www.w3.org/TR/2001/REC-SVG-20010904/DTD/svg10.dtd">
<svg version="1.0" xmlns="http://www.w3.org/2000/svg"
 width="56.000000pt" height="56.000000pt" viewBox="0 0 56.000000 56.000000"
 preserveAspectRatio="xMidYMid meet">
<metadata>
Created by potrace 1.16, written by Peter Selinger 2001-2019
</metadata>
<g transform="translate(0.000000,56.000000) scale(0.100000,-0.100000)"
fill="#000000" stroke="none">
<path d="M143 560 c-7 0 -13 -6 -13 -13 0 -7 4 -17 10 -23 6 -6 6 -62 0 -154
-5 -80 -10 -187 -10 -238 0 -79 3 -95 20 -112 17 -17 33 -20 101 -20 51 0 78
4 74 10 -3 5 -18 9 -33 8 -15 -1 -42 -1 -60 0 -17 1 -42 12 -53 23 -21 21 -22
28 -16 148 4 69 10 170 13 224 5 72 4 104 -6 122 -7 14 -19 25 -27 25z"/>
<path d="M308 560 c-7 -1 -18 -6 -23 -13 -6 -7 -21 -27 -34 -45 -22 -32 -22
-34 -6 -53 10 -10 31 -19 47 -19 18 0 28 -5 28 -15 0 -11 -12 -15 -44 -15 -26
0 -48 -6 -56 -15 -6 -8 -9 -19 -5 -25 3 -5 17 -10 31 -10 17 0 24 -5 24 -19 0
-11 -4 -23 -10 -26 -5 -3 -10 -15 -10 -26 0 -11 -13 -40 -30 -64 -22 -32 -30
-55 -30 -88 0 -30 6 -49 18 -60 10 -10 25 -17 34 -17 8 0 24 10 35 22 12 13
30 40 42 61 12 21 21 46 21 57 0 11 7 20 15 20 9 0 15 -9 15 -25 0 -13 5 -36
12 -50 6 -14 17 -25 25 -25 8 0 13 11 13 28 0 15 -4 32 -9 37 -4 6 -14 31 -21
58 -8 32 -18 47 -29 47 -11 0 -22 -18 -34 -52 -10 -29 -25 -67 -33 -84 -7 -17
-20 -37 -29 -44 -8 -7 -22 -10 -30 -6 -8 3 -15 18 -15 33 0 15 10 44 21 63 12
19 31 41 41 49 17 12 20 23 16 78 -3 54 -2 63 12 57 8 -3 23 -9 33 -11 16 -5
17 1 14 59 -2 35 -7 70 -11 76 -4 7 -16 12 -27 12 -12 0 -19 -7 -19 -19 0 -11
-5 -23 -11 -27 -6 -3 -16 -1 -22 5 -8 8 -2 19 21 42 18 17 32 35 32 40 0 5 -6
9 -12 9z"/>
<path d="M411 300 c-6 0 -13 -4 -16 -10 -3 -5 -3 -15 0 -20 4 -6 11 -8 16 -5
5 4 9 13 9 21 0 8 -4 14 -9 14z"/>
<path d="M388 38 c-13 1 -30 -2 -38 -7 -12 -9 -12 -11 2 -16 9 -4 27 -5 40 -3
13 2 22 8 21 13 -1 6 -13 11 -25 13z"/>
</g>
</svg>
