<?xml version="1.0" standalone="no"?>
<!DOCTYPE svg PUBLIC "-//W3C//DTD SVG 20010904//EN"
 "http://www.w3.org/TR/2001/REC-SVG-20010904/DTD/svg10.dtd">
<svg version="1.0" xmlns="http://www.w3.org/2000/svg"
 width="56.000000pt" height="56.000000pt" viewBox="0 0 56.000000 56.000000"
 preserveAspectRatio="xMidYMid meet">
<metadata>
Created by potrace 1.16, written by Peter Selinger 2001-2019
</metadata>
<g transform="translate(0.000000,56.000000) scale(0.100000,-0.100000)"
fill="#000000" stroke="none">
<path d="M103 560 c-5 0 -9 -126 -10 -280 -2 -246 0 -280 13 -280 13 0 15 13
14 67 -1 38 -2 74 -1 81 1 6 7 12 15 12 8 0 32 -21 54 -47 35 -41 42 -46 56
-34 9 7 16 22 16 32 0 11 11 37 25 59 14 23 33 40 43 40 10 0 26 -6 37 -13 13
-10 16 -21 11 -40 -4 -17 -32 -46 -81 -82 -41 -30 -75 -60 -75 -65 0 -6 9 -10
21 -10 11 0 35 11 53 25 18 14 38 25 45 25 6 0 19 4 29 9 9 6 29 12 43 15 17
4 29 14 33 30 3 13 3 39 0 58 -4 18 -16 43 -27 56 -15 16 -32 22 -65 22 -36 0
-52 -7 -89 -37 -34 -28 -48 -35 -61 -27 -8 6 -20 17 -25 26 -7 11 -5 22 9 40
10 14 44 37 75 52 32 15 60 34 64 44 4 11 -1 23 -15 34 -16 13 -27 15 -46 8
-13 -5 -24 -6 -24 -1 0 5 7 14 15 21 8 7 15 21 15 32 0 14 5 18 18 14 9 -2 31
-7 49 -11 18 -4 34 -2 38 5 4 6 1 17 -5 25 -6 8 -28 15 -48 17 -26 2 -38 8
-42 23 -3 11 -11 29 -17 40 -13 20 -13 20 -25 0 -7 -11 -11 -35 -9 -52 2 -28
-1 -33 -21 -34 -13 -1 -34 -2 -48 -2 -15 -1 -25 -8 -25 -17 0 -8 9 -16 20 -18
11 -2 26 -5 33 -8 9 -3 6 -11 -12 -26 -14 -13 -28 -35 -32 -50 -5 -22 -3 -28
11 -28 14 0 15 -3 5 -15 -7 -8 -18 -15 -26 -15 -7 0 -15 8 -19 19 -3 10 -5 60
-4 112 1 52 1 106 0 122 0 15 -4 27 -8 27z m95 -214 c9 -8 13 -19 9 -22 -4 -4
-13 -1 -22 6 -8 7 -12 17 -9 22 4 6 13 4 22 -6z"/>
</g>
</svg>
