<?xml version="1.0" standalone="no"?>
<!DOCTYPE svg PUBLIC "-//W3C//DTD SVG 20010904//EN"
 "http://www.w3.org/TR/2001/REC-SVG-20010904/DTD/svg10.dtd">
<svg version="1.0" xmlns="http://www.w3.org/2000/svg"
 width="56.000000pt" height="56.000000pt" viewBox="0 0 56.000000 56.000000"
 preserveAspectRatio="xMidYMid meet">
<metadata>
Created by potrace 1.16, written by Peter Selinger 2001-2019
</metadata>
<g transform="translate(0.000000,56.000000) scale(0.100000,-0.100000)"
fill="#000000" stroke="none">
<path d="M315 560 c-18 0 -25 -5 -25 -19 0 -11 -4 -23 -10 -26 -5 -3 -10 -16
-10 -29 0 -12 -5 -27 -11 -33 -7 -7 -9 -42 -5 -99 3 -49 9 -140 12 -202 5 -99
4 -116 -12 -133 -16 -18 -16 -19 10 -19 22 0 30 7 42 37 9 20 13 45 9 57 -4
12 -11 66 -16 121 -5 55 -12 129 -15 164 -4 39 -2 67 5 74 6 6 11 19 11 29 0
11 9 28 20 40 11 12 20 25 20 30 0 4 -11 8 -25 8z"/>
</g>
</svg>
