<?xml version="1.0" standalone="no"?>
<!DOCTYPE svg PUBLIC "-//W3C//DTD SVG 20010904//EN"
 "http://www.w3.org/TR/2001/REC-SVG-20010904/DTD/svg10.dtd">
<svg version="1.0" xmlns="http://www.w3.org/2000/svg"
 width="56.000000pt" height="56.000000pt" viewBox="0 0 56.000000 56.000000"
 preserveAspectRatio="xMidYMid meet">
<metadata>
Created by potrace 1.16, written by Peter Selinger 2001-2019
</metadata>
<g transform="translate(0.000000,56.000000) scale(0.100000,-0.100000)"
fill="#000000" stroke="none">
<path d="M266 560 c-14 0 -26 -2 -26 -5 0 -3 5 -14 12 -24 8 -14 8 -38 -2
-102 -6 -46 -13 -118 -13 -159 -1 -41 4 -97 11 -125 7 -27 16 -71 19 -97 4
-37 10 -48 23 -48 10 0 20 10 24 23 3 12 1 37 -4 55 -6 17 -15 47 -20 66 -6
19 -11 81 -11 139 0 82 4 113 21 151 11 26 20 57 20 69 0 12 -7 30 -14 40 -7
9 -25 17 -40 17z"/>
</g>
</svg>
