<?xml version="1.0" standalone="no"?>
<!DOCTYPE svg PUBLIC "-//W3C//DTD SVG 20010904//EN"
 "http://www.w3.org/TR/2001/REC-SVG-20010904/DTD/svg10.dtd">
<svg version="1.0" xmlns="http://www.w3.org/2000/svg"
 width="56.000000pt" height="56.000000pt" viewBox="0 0 56.000000 56.000000"
 preserveAspectRatio="xMidYMid meet">
<metadata>
Created by potrace 1.16, written by Peter Selinger 2001-2019
</metadata>
<g transform="translate(0.000000,56.000000) scale(0.100000,-0.100000)"
fill="#000000" stroke="none">
<path d="M256 560 c-9 0 -16 -3 -16 -7 0 -3 7 -14 16 -24 13 -15 14 -35 3
-181 -10 -136 -10 -181 1 -257 9 -56 18 -91 26 -91 6 0 17 6 23 14 8 10 8 21
1 40 -6 16 -10 123 -10 252 0 182 -3 228 -14 240 -8 8 -22 14 -30 14z"/>
</g>
</svg>
