<?xml version="1.0" standalone="no"?>
<!DOCTYPE svg PUBLIC "-//W3C//DTD SVG 20010904//EN"
 "http://www.w3.org/TR/2001/REC-SVG-20010904/DTD/svg10.dtd">
<svg version="1.0" xmlns="http://www.w3.org/2000/svg"
 width="56.000000pt" height="56.000000pt" viewBox="0 0 56.000000 56.000000"
 preserveAspectRatio="xMidYMid meet">
<metadata>
Created by potrace 1.16, written by Peter Selinger 2001-2019
</metadata>
<g transform="translate(0.000000,56.000000) scale(0.100000,-0.100000)"
fill="#000000" stroke="none">
<path d="M305 560 c-25 0 -45 -4 -45 -9 0 -6 -15 -11 -32 -13 -21 -2 -33 -8
-33 -18 0 -11 13 -16 48 -18 28 -2 50 -9 53 -16 3 -8 -2 -42 -11 -77 -9 -35
-16 -86 -16 -114 1 -27 3 -61 5 -75 2 -14 9 -61 15 -105 7 -44 14 -88 17 -97
3 -10 11 -18 18 -18 7 0 18 11 24 25 7 14 12 40 12 58 0 18 -7 55 -16 82 -9
28 -18 65 -20 84 -3 18 5 89 16 158 12 69 19 131 16 139 -4 9 -21 14 -51 14z"/>
<path d="M202 93 c-10 10 -22 14 -25 10 -4 -3 -7 -23 -7 -44 0 -21 5 -41 10
-44 6 -4 17 -1 25 5 8 7 15 22 15 35 0 12 -8 29 -18 38z"/>
</g>
</svg>
