<?xml version="1.0" standalone="no"?>
<!DOCTYPE svg PUBLIC "-//W3C//DTD SVG 20010904//EN"
 "http://www.w3.org/TR/2001/REC-SVG-20010904/DTD/svg10.dtd">
<svg version="1.0" xmlns="http://www.w3.org/2000/svg"
 width="56.000000pt" height="56.000000pt" viewBox="0 0 56.000000 56.000000"
 preserveAspectRatio="xMidYMid meet">
<metadata>
Created by potrace 1.16, written by Peter Selinger 2001-2019
</metadata>
<g transform="translate(0.000000,56.000000) scale(0.100000,-0.100000)"
fill="#000000" stroke="none">
<path d="M240 560 c-11 0 -20 -6 -20 -14 0 -8 7 -21 15 -30 8 -8 15 -21 15
-29 0 -8 -11 -22 -25 -31 -13 -9 -35 -18 -47 -20 -13 -3 -29 -5 -35 -5 -7 -1
-13 -8 -13 -16 0 -8 11 -22 25 -31 14 -9 25 -21 25 -27 0 -6 -23 -33 -51 -59
-48 -45 -51 -50 -40 -74 10 -22 16 -25 42 -19 31 7 31 7 15 -18 -9 -13 -39
-43 -66 -66 -35 -30 -50 -50 -50 -67 0 -14 6 -27 13 -30 7 -2 30 2 50 11 21 8
47 25 59 37 22 22 22 22 59 -20 20 -23 42 -42 48 -42 5 0 25 13 43 29 18 15
57 40 86 55 29 15 57 24 62 21 6 -4 10 -15 10 -25 0 -10 -13 -29 -29 -42 -15
-12 -37 -28 -47 -35 -17 -10 -15 -12 17 -12 20 -1 52 5 71 13 19 8 40 22 48
30 9 11 9 20 2 28 -5 7 -12 24 -14 37 -2 16 -18 32 -50 50 -42 23 -50 25 -70
12 -12 -8 -47 -27 -77 -42 -54 -28 -54 -28 -88 -8 -18 11 -33 24 -33 29 0 5
23 25 50 45 28 20 53 48 56 61 4 14 1 31 -6 39 -7 8 -19 15 -26 15 -8 0 -14 8
-14 19 0 10 15 41 33 67 25 38 32 59 32 94 0 42 -2 45 -27 48 -16 2 -28 8 -28
13 0 5 -9 9 -20 9z"/>
</g>
</svg>
