<?xml version="1.0" standalone="no"?>
<!DOCTYPE svg PUBLIC "-//W3C//DTD SVG 20010904//EN"
 "http://www.w3.org/TR/2001/REC-SVG-20010904/DTD/svg10.dtd">
<svg version="1.0" xmlns="http://www.w3.org/2000/svg"
 width="56.000000pt" height="56.000000pt" viewBox="0 0 56.000000 56.000000"
 preserveAspectRatio="xMidYMid meet">
<metadata>
Created by potrace 1.16, written by Peter Selinger 2001-2019
</metadata>
<g transform="translate(0.000000,56.000000) scale(0.100000,-0.100000)"
fill="#000000" stroke="none">
<path d="M286 560 c-11 0 -16 -22 -21 -92 -3 -51 -8 -177 -11 -280 -4 -156 -2
-188 9 -188 8 0 19 17 26 37 9 28 10 67 3 148 -4 61 -5 123 0 140 4 16 8 76 8
132 0 83 -3 103 -14 103z"/>
</g>
</svg>
