<?xml version="1.0" standalone="no"?>
<!DOCTYPE svg PUBLIC "-//W3C//DTD SVG 20010904//EN"
 "http://www.w3.org/TR/2001/REC-SVG-20010904/DTD/svg10.dtd">
<svg version="1.0" xmlns="http://www.w3.org/2000/svg"
 width="56.000000pt" height="56.000000pt" viewBox="0 0 56.000000 56.000000"
 preserveAspectRatio="xMidYMid meet">
<metadata>
Created by potrace 1.16, written by Peter Selinger 2001-2019
</metadata>
<g transform="translate(0.000000,56.000000) scale(0.100000,-0.100000)"
fill="#000000" stroke="none">
<path d="M245 560 c-8 0 -15 -8 -15 -17 0 -9 8 -25 18 -36 12 -13 17 -35 16
-71 0 -28 -6 -82 -13 -121 -7 -40 -10 -102 -6 -145 3 -41 8 -96 11 -123 5 -39
9 -47 26 -47 21 0 21 3 15 138 -3 79 -2 156 4 182 6 25 13 70 16 101 4 41 1
64 -11 87 -9 18 -23 32 -31 32 -8 0 -15 5 -15 10 0 6 -7 10 -15 10z"/>
</g>
</svg>
