<?xml version="1.0" standalone="no"?>
<!DOCTYPE svg PUBLIC "-//W3C//DTD SVG 20010904//EN"
 "http://www.w3.org/TR/2001/REC-SVG-20010904/DTD/svg10.dtd">
<svg version="1.0" xmlns="http://www.w3.org/2000/svg"
 width="56.000000pt" height="56.000000pt" viewBox="0 0 56.000000 56.000000"
 preserveAspectRatio="xMidYMid meet">
<metadata>
Created by potrace 1.16, written by Peter Selinger 2001-2019
</metadata>
<g transform="translate(0.000000,56.000000) scale(0.100000,-0.100000)"
fill="#000000" stroke="none">
<path d="M312 560 c-27 0 -31 -4 -41 -42 -5 -24 -18 -72 -28 -108 -10 -36 -23
-72 -28 -80 -5 -8 -8 -64 -8 -124 1 -60 7 -131 13 -157 9 -35 17 -49 29 -49
15 0 17 17 16 163 0 159 1 163 33 252 19 50 36 102 39 118 5 25 3 27 -25 27z"/>
</g>
</svg>
