<?xml version="1.0" standalone="no"?>
<!DOCTYPE svg PUBLIC "-//W3C//DTD SVG 20010904//EN"
 "http://www.w3.org/TR/2001/REC-SVG-20010904/DTD/svg10.dtd">
<svg version="1.0" xmlns="http://www.w3.org/2000/svg"
 width="56.000000pt" height="56.000000pt" viewBox="0 0 56.000000 56.000000"
 preserveAspectRatio="xMidYMid meet">
<metadata>
Created by potrace 1.16, written by Peter Selinger 2001-2019
</metadata>
<g transform="translate(0.000000,56.000000) scale(0.100000,-0.100000)"
fill="#000000" stroke="none">
<path d="M294 560 c-8 0 -14 -6 -15 -12 0 -7 -4 -58 -9 -113 -5 -55 -15 -122
-22 -150 -7 -27 -13 -86 -13 -130 0 -44 4 -97 8 -118 5 -21 14 -37 22 -37 11
0 14 31 18 148 2 81 11 183 20 227 9 44 17 97 17 117 0 20 -3 43 -6 52 -3 9
-12 16 -20 16z"/>
</g>
</svg>
