<?xml version="1.0" standalone="no"?>
<!DOCTYPE svg PUBLIC "-//W3C//DTD SVG 20010904//EN"
 "http://www.w3.org/TR/2001/REC-SVG-20010904/DTD/svg10.dtd">
<svg version="1.0" xmlns="http://www.w3.org/2000/svg"
 width="56.000000pt" height="56.000000pt" viewBox="0 0 56.000000 56.000000"
 preserveAspectRatio="xMidYMid meet">
<metadata>
Created by potrace 1.16, written by Peter Selinger 2001-2019
</metadata>
<g transform="translate(0.000000,56.000000) scale(0.100000,-0.100000)"
fill="#000000" stroke="none">
<path d="M265 560 c-11 0 -15 -11 -15 -41 0 -22 5 -50 11 -61 8 -14 8 -37 0
-82 -6 -33 -11 -113 -13 -176 -1 -63 -1 -134 0 -157 2 -36 5 -43 22 -43 20 0
20 5 16 119 -2 65 0 141 6 167 5 27 9 85 9 128 0 44 -5 84 -11 90 -5 5 -10 20
-10 33 0 14 -6 23 -15 23z"/>
</g>
</svg>
