<?xml version="1.0" standalone="no"?>
<!DOCTYPE svg PUBLIC "-//W3C//DTD SVG 20010904//EN"
 "http://www.w3.org/TR/2001/REC-SVG-20010904/DTD/svg10.dtd">
<svg version="1.0" xmlns="http://www.w3.org/2000/svg"
 width="56.000000pt" height="56.000000pt" viewBox="0 0 56.000000 56.000000"
 preserveAspectRatio="xMidYMid meet">
<metadata>
Created by potrace 1.16, written by Peter Selinger 2001-2019
</metadata>
<g transform="translate(0.000000,56.000000) scale(0.100000,-0.100000)"
fill="#000000" stroke="none">
<path d="M282 560 c-17 0 -22 -8 -27 -42 -4 -24 -4 -124 -1 -223 3 -99 7 -193
9 -210 2 -16 5 -42 5 -57 1 -19 8 -28 19 -28 15 0 15 12 7 133 -4 72 -8 166
-8 207 -1 41 3 108 8 148 8 69 8 72 -12 72z"/>
</g>
</svg>
