<?xml version="1.0" standalone="no"?>
<!DOCTYPE svg PUBLIC "-//W3C//DTD SVG 20010904//EN"
 "http://www.w3.org/TR/2001/REC-SVG-20010904/DTD/svg10.dtd">
<svg version="1.0" xmlns="http://www.w3.org/2000/svg"
 width="56.000000pt" height="56.000000pt" viewBox="0 0 56.000000 56.000000"
 preserveAspectRatio="xMidYMid meet">
<metadata>
Created by potrace 1.16, written by Peter Selinger 2001-2019
</metadata>
<g transform="translate(0.000000,56.000000) scale(0.100000,-0.100000)"
fill="#000000" stroke="none">
<path d="M336 460 c-8 0 -16 -10 -18 -22 -3 -20 -10 -23 -50 -26 -27 -2 -48
-7 -48 -13 0 -5 0 -12 0 -16 -1 -5 14 -10 32 -13 18 -3 33 -11 33 -18 0 -6
-16 -20 -34 -30 -19 -9 -42 -30 -51 -47 -10 -17 -40 -42 -76 -62 -32 -17 -69
-32 -81 -32 -12 -1 -27 -10 -33 -22 -7 -11 -9 -27 -6 -35 3 -8 12 -14 19 -14
8 0 20 6 26 14 7 8 33 21 57 30 43 14 48 14 90 -5 24 -12 47 -25 50 -30 3 -5
28 -9 55 -9 47 0 54 4 96 45 24 25 50 45 56 44 7 0 22 -13 34 -28 23 -29 23
-29 -2 -45 -14 -9 -23 -21 -20 -26 4 -6 26 -10 51 -10 41 0 44 2 44 26 0 16
-13 38 -35 60 -20 19 -42 34 -50 34 -8 0 -15 5 -15 10 0 6 -5 10 -12 10 -6 0
-40 -14 -75 -32 -61 -30 -66 -31 -106 -19 -23 7 -56 14 -74 14 -17 1 -35 5
-39 10 -4 4 -1 7 6 7 7 0 42 14 77 30 36 17 85 32 110 34 25 2 50 9 56 15 8 8
4 19 -16 39 -15 15 -27 33 -27 39 0 6 14 16 30 22 17 5 30 14 30 18 0 4 -16
18 -35 31 -19 12 -41 22 -49 22z"/>
</g>
</svg>
