<?xml version="1.0" standalone="no"?>
<!DOCTYPE svg PUBLIC "-//W3C//DTD SVG 20010904//EN"
 "http://www.w3.org/TR/2001/REC-SVG-20010904/DTD/svg10.dtd">
<svg version="1.0" xmlns="http://www.w3.org/2000/svg"
 width="56.000000pt" height="56.000000pt" viewBox="0 0 56.000000 56.000000"
 preserveAspectRatio="xMidYMid meet">
<metadata>
Created by potrace 1.16, written by Peter Selinger 2001-2019
</metadata>
<g transform="translate(0.000000,56.000000) scale(0.100000,-0.100000)"
fill="#000000" stroke="none">
<path d="M279 560 c-35 0 -39 -3 -44 -32 -3 -18 -6 -46 -6 -63 0 -16 -1 -60
-3 -97 -1 -37 -5 -70 -8 -73 -3 -3 -3 -38 0 -78 2 -40 8 -76 12 -81 5 -5 3
-17 -3 -28 -10 -15 -9 -25 6 -49 9 -17 17 -37 17 -45 0 -8 8 -14 19 -14 15 0
20 10 26 46 3 25 8 93 10 152 2 59 10 136 18 172 10 51 11 80 3 128 -10 62
-10 62 -47 62z"/>
</g>
</svg>
