<?xml version="1.0" standalone="no"?>
<!DOCTYPE svg PUBLIC "-//W3C//DTD SVG 20010904//EN"
 "http://www.w3.org/TR/2001/REC-SVG-20010904/DTD/svg10.dtd">
<svg version="1.0" xmlns="http://www.w3.org/2000/svg"
 width="56.000000pt" height="56.000000pt" viewBox="0 0 56.000000 56.000000"
 preserveAspectRatio="xMidYMid meet">
<metadata>
Created by potrace 1.16, written by Peter Selinger 2001-2019
</metadata>
<g transform="translate(0.000000,56.000000) scale(0.100000,-0.100000)"
fill="#000000" stroke="none">
<path d="M287 560 c-33 0 -37 -3 -41 -32 -3 -18 -7 -61 -9 -94 -3 -34 2 -113
10 -175 8 -63 17 -142 20 -177 3 -44 9 -62 19 -62 8 0 14 9 14 19 0 11 5 23
11 27 8 5 9 24 3 63 -4 31 -8 130 -8 221 0 91 3 175 8 188 8 20 5 22 -27 22z"/>
</g>
</svg>
