<?xml version="1.0" standalone="no"?>
<!DOCTYPE svg PUBLIC "-//W3C//DTD SVG 20010904//EN"
 "http://www.w3.org/TR/2001/REC-SVG-20010904/DTD/svg10.dtd">
<svg version="1.0" xmlns="http://www.w3.org/2000/svg"
 width="56.000000pt" height="56.000000pt" viewBox="0 0 56.000000 56.000000"
 preserveAspectRatio="xMidYMid meet">
<metadata>
Created by potrace 1.16, written by Peter Selinger 2001-2019
</metadata>
<g transform="translate(0.000000,56.000000) scale(0.100000,-0.100000)"
fill="#000000" stroke="none">
<path d="M315 560 c-17 0 -25 -5 -25 -18 0 -10 -4 -22 -9 -27 -5 -6 -18 -26
-28 -45 -11 -19 -25 -56 -32 -81 -7 -26 -11 -74 -8 -110 2 -35 10 -82 17 -104
7 -22 15 -70 17 -108 3 -43 9 -67 17 -67 7 0 17 5 24 12 7 7 12 26 12 42 0 17
-7 64 -16 105 -8 41 -17 78 -20 82 -2 5 0 47 6 96 8 59 20 106 41 147 16 34
29 64 29 68 0 5 -11 8 -25 8z"/>
</g>
</svg>
