<?xml version="1.0" standalone="no"?>
<!DOCTYPE svg PUBLIC "-//W3C//DTD SVG 20010904//EN"
 "http://www.w3.org/TR/2001/REC-SVG-20010904/DTD/svg10.dtd">
<svg version="1.0" xmlns="http://www.w3.org/2000/svg"
 width="56.000000pt" height="56.000000pt" viewBox="0 0 56.000000 56.000000"
 preserveAspectRatio="xMidYMid meet">
<metadata>
Created by potrace 1.16, written by Peter Selinger 2001-2019
</metadata>
<g transform="translate(0.000000,56.000000) scale(0.100000,-0.100000)"
fill="#000000" stroke="none">
<path d="M297 560 c-21 0 -25 -9 -45 -87 -18 -70 -22 -114 -21 -213 1 -69 4
-154 8 -190 4 -49 10 -66 23 -68 14 -3 17 20 20 225 4 181 8 237 21 272 9 24
17 47 17 52 0 5 -10 9 -23 9z"/>
</g>
</svg>
