<?xml version="1.0" standalone="no"?>
<!DOCTYPE svg PUBLIC "-//W3C//DTD SVG 20010904//EN"
 "http://www.w3.org/TR/2001/REC-SVG-20010904/DTD/svg10.dtd">
<svg version="1.0" xmlns="http://www.w3.org/2000/svg"
 width="56.000000pt" height="56.000000pt" viewBox="0 0 56.000000 56.000000"
 preserveAspectRatio="xMidYMid meet">
<metadata>
Created by potrace 1.16, written by Peter Selinger 2001-2019
</metadata>
<g transform="translate(0.000000,56.000000) scale(0.100000,-0.100000)"
fill="#000000" stroke="none">
<path d="M166 560 c-9 0 -16 -7 -16 -15 0 -8 5 -15 11 -15 9 0 10 -41 5 -152
-3 -84 -9 -189 -12 -233 -5 -69 -2 -84 15 -112 21 -33 21 -33 116 -33 75 0 95
3 95 14 0 11 -12 13 -59 9 -39 -4 -69 -1 -89 8 -17 7 -33 22 -36 34 -3 11 -6
32 -6 47 0 14 3 33 6 42 3 9 12 16 18 16 7 0 21 8 32 18 10 9 31 23 46 31 18
9 41 12 67 7 37 -6 41 -4 41 14 0 17 -7 20 -50 20 -28 0 -60 -6 -72 -12 -12
-7 -31 -21 -42 -31 -11 -9 -24 -16 -30 -14 -5 2 -8 37 -7 78 1 41 6 93 11 114
5 22 9 58 9 80 0 24 -7 49 -18 63 -11 12 -26 22 -35 22z"/>
<path d="M310 560 c-22 0 -40 -4 -40 -9 0 -5 7 -14 15 -21 12 -10 21 -10 40
-2 14 7 25 16 25 22 0 5 -18 10 -40 10z"/>
<path d="M390 560 c-5 0 -10 -3 -10 -7 0 -5 -16 -26 -35 -47 -19 -22 -32 -43
-29 -48 3 -4 12 -8 20 -8 8 0 14 -6 14 -13 0 -8 8 -21 18 -30 10 -10 22 -14
25 -10 4 3 7 21 7 39 0 21 -6 37 -17 43 -17 9 -17 10 0 28 9 11 17 27 17 36 0
9 -4 17 -10 17z"/>
<path d="M359 358 c-26 1 -42 -4 -46 -14 -3 -8 -3 -21 1 -29 3 -8 14 -15 23
-15 10 0 29 7 41 16 12 8 22 21 22 28 0 9 -14 14 -41 14z"/>
</g>
</svg>
