<?xml version="1.0" standalone="no"?>
<!DOCTYPE svg PUBLIC "-//W3C//DTD SVG 20010904//EN"
 "http://www.w3.org/TR/2001/REC-SVG-20010904/DTD/svg10.dtd">
<svg version="1.0" xmlns="http://www.w3.org/2000/svg"
 width="56.000000pt" height="56.000000pt" viewBox="0 0 56.000000 56.000000"
 preserveAspectRatio="xMidYMid meet">
<metadata>
Created by potrace 1.16, written by Peter Selinger 2001-2019
</metadata>
<g transform="translate(0.000000,56.000000) scale(0.100000,-0.100000)"
fill="#000000" stroke="none">
<path d="M273 560 c-13 0 -23 -2 -23 -5 0 -3 5 -14 10 -25 6 -11 14 -28 19
-39 6 -12 5 -44 -2 -87 -7 -38 -16 -76 -22 -84 -5 -8 -10 -44 -11 -80 0 -36 3
-96 7 -135 7 -65 6 -71 -14 -87 -22 -17 -21 -18 22 -18 43 0 43 0 37 48 -4 26
-9 72 -12 102 -4 30 -1 87 6 125 6 39 20 89 31 112 10 24 19 52 19 63 0 11
-10 40 -22 65 -17 33 -29 45 -45 45z"/>
</g>
</svg>
