<?xml version="1.0" standalone="no"?>
<!DOCTYPE svg PUBLIC "-//W3C//DTD SVG 20010904//EN"
 "http://www.w3.org/TR/2001/REC-SVG-20010904/DTD/svg10.dtd">
<svg version="1.0" xmlns="http://www.w3.org/2000/svg"
 width="56.000000pt" height="56.000000pt" viewBox="0 0 56.000000 56.000000"
 preserveAspectRatio="xMidYMid meet">
<metadata>
Created by potrace 1.16, written by Peter Selinger 2001-2019
</metadata>
<g transform="translate(0.000000,56.000000) scale(0.100000,-0.100000)"
fill="#000000" stroke="none">
<path d="M309 560 c-8 0 -20 -9 -27 -20 -6 -11 -12 -30 -12 -43 0 -13 -4 -27
-9 -32 -5 -6 -12 -32 -16 -60 -4 -27 -7 -88 -7 -135 1 -47 4 -116 7 -154 5
-44 3 -72 -4 -79 -6 -6 -11 -17 -11 -24 0 -7 5 -13 11 -13 7 0 18 8 25 18 8
10 13 45 14 90 0 40 -4 81 -9 90 -5 10 -4 57 3 117 7 55 15 107 18 115 4 8 9
29 13 45 3 17 9 42 12 58 4 19 1 27 -8 27z"/>
</g>
</svg>
