<?xml version="1.0" standalone="no"?>
<!DOCTYPE svg PUBLIC "-//W3C//DTD SVG 20010904//EN"
 "http://www.w3.org/TR/2001/REC-SVG-20010904/DTD/svg10.dtd">
<svg version="1.0" xmlns="http://www.w3.org/2000/svg"
 width="56.000000pt" height="56.000000pt" viewBox="0 0 56.000000 56.000000"
 preserveAspectRatio="xMidYMid meet">
<metadata>
Created by potrace 1.16, written by Peter Selinger 2001-2019
</metadata>
<g transform="translate(0.000000,56.000000) scale(0.100000,-0.100000)"
fill="#000000" stroke="none">
<path d="M310 560 c-22 0 -30 -5 -30 -18 0 -10 -14 -44 -30 -76 -17 -32 -31
-75 -32 -95 -1 -20 5 -83 12 -141 6 -58 13 -127 14 -155 1 -27 -2 -56 -7 -63
-7 -9 -2 -12 17 -12 22 0 26 4 26 29 0 17 4 32 9 35 5 4 7 48 5 99 -3 50 -5
123 -5 160 1 45 10 94 26 143 14 41 25 79 25 84 0 6 -13 10 -30 10z"/>
</g>
</svg>
