<?xml version="1.0" standalone="no"?>
<!DOCTYPE svg PUBLIC "-//W3C//DTD SVG 20010904//EN"
 "http://www.w3.org/TR/2001/REC-SVG-20010904/DTD/svg10.dtd">
<svg version="1.0" xmlns="http://www.w3.org/2000/svg"
 width="56.000000pt" height="56.000000pt" viewBox="0 0 56.000000 56.000000"
 preserveAspectRatio="xMidYMid meet">
<metadata>
Created by potrace 1.16, written by Peter Selinger 2001-2019
</metadata>
<g transform="translate(0.000000,56.000000) scale(0.100000,-0.100000)"
fill="#000000" stroke="none">
<path d="M280 560 c-9 0 -10 -8 -5 -27 4 -16 8 -48 9 -73 0 -25 -7 -61 -16
-80 -8 -19 -21 -49 -28 -67 -8 -21 -10 -59 -6 -110 3 -43 9 -105 13 -138 7
-52 11 -60 31 -63 17 -3 22 1 22 21 0 13 -5 50 -11 83 -7 32 -16 63 -20 69 -5
5 -9 20 -9 34 0 13 4 38 10 55 5 17 19 58 30 92 11 33 20 85 20 115 0 30 -7
62 -14 72 -7 9 -19 17 -26 17z"/>
</g>
</svg>
