<?xml version="1.0" standalone="no"?>
<!DOCTYPE svg PUBLIC "-//W3C//DTD SVG 20010904//EN"
 "http://www.w3.org/TR/2001/REC-SVG-20010904/DTD/svg10.dtd">
<svg version="1.0" xmlns="http://www.w3.org/2000/svg"
 width="56.000000pt" height="56.000000pt" viewBox="0 0 56.000000 56.000000"
 preserveAspectRatio="xMidYMid meet">
<metadata>
Created by potrace 1.16, written by Peter Selinger 2001-2019
</metadata>
<g transform="translate(0.000000,56.000000) scale(0.100000,-0.100000)"
fill="#000000" stroke="none">
<path d="M303 560 c-10 0 -13 -26 -13 -98 0 -54 -4 -102 -10 -108 -5 -5 -13
-51 -18 -102 -5 -56 -4 -96 2 -102 5 -5 4 -20 -4 -39 -7 -17 -10 -38 -6 -46 4
-10 -4 -25 -22 -40 -27 -24 -27 -24 0 -25 17 0 35 10 52 31 14 17 26 34 27 37
1 4 2 76 4 160 1 98 6 157 14 165 6 6 11 34 11 62 0 28 -6 63 -12 78 -7 15
-19 27 -25 27z"/>
</g>
</svg>
