<?xml version="1.0" standalone="no"?>
<!DOCTYPE svg PUBLIC "-//W3C//DTD SVG 20010904//EN"
 "http://www.w3.org/TR/2001/REC-SVG-20010904/DTD/svg10.dtd">
<svg version="1.0" xmlns="http://www.w3.org/2000/svg"
 width="56.000000pt" height="56.000000pt" viewBox="0 0 56.000000 56.000000"
 preserveAspectRatio="xMidYMid meet">
<metadata>
Created by potrace 1.16, written by Peter Selinger 2001-2019
</metadata>
<g transform="translate(0.000000,56.000000) scale(0.100000,-0.100000)"
fill="#000000" stroke="none">
<path d="M265 560 c-8 0 -12 -47 -14 -162 -2 -90 -3 -174 -4 -188 0 -14 0 -67
1 -117 2 -74 5 -93 17 -93 8 0 19 10 26 21 7 14 11 76 10 168 -1 80 3 161 8
179 7 22 7 54 0 90 -5 31 -15 67 -21 80 -6 12 -17 22 -23 22z"/>
</g>
</svg>
