<?xml version="1.0" standalone="no"?>
<!DOCTYPE svg PUBLIC "-//W3C//DTD SVG 20010904//EN"
 "http://www.w3.org/TR/2001/REC-SVG-20010904/DTD/svg10.dtd">
<svg version="1.0" xmlns="http://www.w3.org/2000/svg"
 width="56.000000pt" height="56.000000pt" viewBox="0 0 56.000000 56.000000"
 preserveAspectRatio="xMidYMid meet">
<metadata>
Created by potrace 1.16, written by Peter Selinger 2001-2019
</metadata>
<g transform="translate(0.000000,56.000000) scale(0.100000,-0.100000)"
fill="#000000" stroke="none">
<path d="M315 560 c-21 0 -25 -5 -25 -32 0 -17 -5 -48 -11 -67 -7 -20 -16 -46
-20 -58 -5 -13 -13 -33 -18 -45 -6 -13 -13 -43 -16 -68 -3 -25 -8 -65 -11 -89
-4 -24 -2 -60 4 -80 6 -20 14 -54 19 -76 6 -32 13 -41 32 -43 22 -4 23 -2 15
35 -5 21 -9 90 -9 153 0 66 6 134 13 160 7 25 18 59 23 76 5 18 10 48 11 68 1
20 5 39 10 42 4 3 8 9 8 15 0 5 -11 9 -25 9z"/>
</g>
</svg>
