<?xml version="1.0" standalone="no"?>
<!DOCTYPE svg PUBLIC "-//W3C//DTD SVG 20010904//EN"
 "http://www.w3.org/TR/2001/REC-SVG-20010904/DTD/svg10.dtd">
<svg version="1.0" xmlns="http://www.w3.org/2000/svg"
 width="56.000000pt" height="56.000000pt" viewBox="0 0 56.000000 56.000000"
 preserveAspectRatio="xMidYMid meet">
<metadata>
Created by potrace 1.16, written by Peter Selinger 2001-2019
</metadata>
<g transform="translate(0.000000,56.000000) scale(0.100000,-0.100000)"
fill="#000000" stroke="none">
<path d="M310 560 c-25 0 -32 -6 -45 -36 -8 -20 -15 -42 -15 -50 0 -7 -4 -16
-10 -19 -6 -4 -10 -92 -10 -231 0 -190 2 -224 15 -224 8 0 19 9 25 20 6 11 11
53 12 93 1 39 0 128 -2 197 -4 124 -3 126 28 188 32 62 32 62 2 62z"/>
</g>
</svg>
