<?xml version="1.0" standalone="no"?>
<!DOCTYPE svg PUBLIC "-//W3C//DTD SVG 20010904//EN"
 "http://www.w3.org/TR/2001/REC-SVG-20010904/DTD/svg10.dtd">
<svg version="1.0" xmlns="http://www.w3.org/2000/svg"
 width="56.000000pt" height="56.000000pt" viewBox="0 0 56.000000 56.000000"
 preserveAspectRatio="xMidYMid meet">
<metadata>
Created by potrace 1.16, written by Peter Selinger 2001-2019
</metadata>
<g transform="translate(0.000000,56.000000) scale(0.100000,-0.100000)"
fill="#000000" stroke="none">
<path d="M250 560 c-5 0 -10 -2 -10 -5 0 -2 7 -23 16 -46 15 -36 15 -53 5
-134 -6 -52 -11 -121 -11 -154 0 -33 5 -63 10 -66 6 -3 10 -15 10 -27 0 -11
-9 -32 -19 -47 -11 -15 -23 -39 -26 -54 -6 -24 -4 -27 19 -27 14 0 26 5 26 11
0 5 15 24 34 42 35 32 35 32 15 72 -15 30 -19 54 -16 95 2 30 10 98 17 151 10
80 10 101 -1 125 -8 16 -24 33 -37 39 -12 5 -22 13 -22 17 0 5 -4 8 -10 8z"/>
</g>
</svg>
