<?xml version="1.0" standalone="no"?>
<!DOCTYPE svg PUBLIC "-//W3C//DTD SVG 20010904//EN"
 "http://www.w3.org/TR/2001/REC-SVG-20010904/DTD/svg10.dtd">
<svg version="1.0" xmlns="http://www.w3.org/2000/svg"
 width="56.000000pt" height="56.000000pt" viewBox="0 0 56.000000 56.000000"
 preserveAspectRatio="xMidYMid meet">
<metadata>
Created by potrace 1.16, written by Peter Selinger 2001-2019
</metadata>
<g transform="translate(0.000000,56.000000) scale(0.100000,-0.100000)"
fill="#000000" stroke="none">
<path d="M327 560 c-8 0 -19 -11 -25 -25 -7 -14 -12 -37 -12 -50 0 -13 -4 -27
-10 -30 -5 -3 -10 -17 -10 -30 0 -13 -4 -27 -10 -30 -5 -3 -10 -16 -10 -29 0
-12 -5 -27 -12 -34 -8 -8 -12 -60 -13 -159 0 -82 -4 -154 -9 -161 -6 -10 -2
-13 15 -10 24 3 24 5 30 148 4 80 10 160 14 178 4 18 11 35 16 38 5 3 9 16 9
29 0 13 5 27 10 30 6 3 10 24 10 45 0 21 5 42 10 45 6 3 10 15 10 26 0 10 -6
19 -13 19z"/>
</g>
</svg>
