<?xml version="1.0" standalone="no"?>
<!DOCTYPE svg PUBLIC "-//W3C//DTD SVG 20010904//EN"
 "http://www.w3.org/TR/2001/REC-SVG-20010904/DTD/svg10.dtd">
<svg version="1.0" xmlns="http://www.w3.org/2000/svg"
 width="56.000000pt" height="56.000000pt" viewBox="0 0 56.000000 56.000000"
 preserveAspectRatio="xMidYMid meet">
<metadata>
Created by potrace 1.16, written by Peter Selinger 2001-2019
</metadata>
<g transform="translate(0.000000,56.000000) scale(0.100000,-0.100000)"
fill="#000000" stroke="none">
<path d="M349 460 c-6 0 -18 -18 -27 -41 -15 -39 -17 -40 -50 -34 -34 6 -34 6
-28 -22 4 -15 16 -37 27 -49 15 -16 18 -26 10 -46 -6 -16 -22 -28 -49 -36 -21
-7 -56 -12 -76 -12 -20 0 -48 -7 -61 -16 -14 -9 -22 -21 -19 -26 3 -5 13 -6
23 -2 9 4 54 11 101 15 47 5 127 11 178 15 75 5 95 10 102 25 8 14 5 21 -12
33 -12 9 -33 16 -46 16 -12 0 -25 -7 -28 -15 -5 -12 -9 -12 -28 0 -17 11 -21
22 -18 44 3 20 13 33 37 44 19 9 38 25 44 35 9 17 5 24 -29 46 -22 14 -45 26
-51 26z"/>
<path d="M490 179 c-14 -1 -38 -9 -55 -18 -22 -12 -49 -15 -100 -13 -38 2 -95
3 -125 3 -30 0 -82 -3 -114 -6 -51 -6 -58 -5 -53 9 4 10 1 16 -8 16 -8 0 -19
-9 -25 -19 -5 -11 -10 -29 -10 -40 0 -15 7 -21 23 -23 12 0 35 0 52 1 16 2 42
9 57 17 15 8 46 14 70 14 24 0 55 -6 70 -14 15 -8 41 -17 58 -21 24 -5 44 0
91 25 33 17 64 28 69 25 6 -4 3 -16 -6 -31 -11 -17 -13 -24 -4 -24 7 0 27 7
46 16 19 9 34 23 34 31 0 8 -10 23 -22 34 -13 10 -34 18 -48 18z"/>
</g>
</svg>
