<?xml version="1.0" standalone="no"?>
<!DOCTYPE svg PUBLIC "-//W3C//DTD SVG 20010904//EN"
 "http://www.w3.org/TR/2001/REC-SVG-20010904/DTD/svg10.dtd">
<svg version="1.0" xmlns="http://www.w3.org/2000/svg"
 width="56.000000pt" height="56.000000pt" viewBox="0 0 56.000000 56.000000"
 preserveAspectRatio="xMidYMid meet">
<metadata>
Created by potrace 1.16, written by Peter Selinger 2001-2019
</metadata>
<g transform="translate(0.000000,56.000000) scale(0.100000,-0.100000)"
fill="#000000" stroke="none">
<path d="M291 560 c-5 0 -16 -19 -24 -42 -9 -24 -16 -52 -16 -63 0 -11 -1 -42
-1 -70 -1 -27 -6 -57 -11 -67 -6 -11 -5 -42 2 -85 6 -38 10 -105 10 -150 -2
-81 -1 -83 22 -83 20 0 25 6 30 33 3 19 4 49 2 68 -2 19 -4 130 -5 247 0 116
-5 212 -9 212z"/>
</g>
</svg>
