<?xml version="1.0" standalone="no"?>
<!DOCTYPE svg PUBLIC "-//W3C//DTD SVG 20010904//EN"
 "http://www.w3.org/TR/2001/REC-SVG-20010904/DTD/svg10.dtd">
<svg version="1.0" xmlns="http://www.w3.org/2000/svg"
 width="56.000000pt" height="56.000000pt" viewBox="0 0 56.000000 56.000000"
 preserveAspectRatio="xMidYMid meet">
<metadata>
Created by potrace 1.16, written by Peter Selinger 2001-2019
</metadata>
<g transform="translate(0.000000,56.000000) scale(0.100000,-0.100000)"
fill="#000000" stroke="none">
<path d="M296 560 c-22 0 -25 -4 -29 -57 -3 -32 -13 -89 -22 -128 -16 -60 -17
-81 -7 -155 6 -47 14 -116 18 -153 5 -55 9 -67 23 -65 13 3 16 16 14 83 -1 44
-3 132 -5 195 -1 85 2 124 13 150 9 19 16 56 18 83 2 44 0 47 -23 47z"/>
</g>
</svg>
