<?xml version="1.0" standalone="no"?>
<!DOCTYPE svg PUBLIC "-//W3C//DTD SVG 20010904//EN"
 "http://www.w3.org/TR/2001/REC-SVG-20010904/DTD/svg10.dtd">
<svg version="1.0" xmlns="http://www.w3.org/2000/svg"
 width="56.000000pt" height="56.000000pt" viewBox="0 0 56.000000 56.000000"
 preserveAspectRatio="xMidYMid meet">
<metadata>
Created by potrace 1.16, written by Peter Selinger 2001-2019
</metadata>
<g transform="translate(0.000000,56.000000) scale(0.100000,-0.100000)"
fill="#000000" stroke="none">
<path d="M251 560 c-21 0 -22 -3 -16 -27 4 -16 9 -104 11 -198 2 -93 3 -207 4
-253 0 -74 2 -83 17 -80 10 2 26 19 36 38 14 28 16 50 12 115 -3 44 -7 103 -9
130 -2 28 -1 70 3 95 3 25 2 63 -3 85 -5 22 -14 52 -20 68 -8 19 -18 27 -35
27z"/>
</g>
</svg>
