<?xml version="1.0" standalone="no"?>
<!DOCTYPE svg PUBLIC "-//W3C//DTD SVG 20010904//EN"
 "http://www.w3.org/TR/2001/REC-SVG-20010904/DTD/svg10.dtd">
<svg version="1.0" xmlns="http://www.w3.org/2000/svg"
 width="56.000000pt" height="56.000000pt" viewBox="0 0 56.000000 56.000000"
 preserveAspectRatio="xMidYMid meet">
<metadata>
Created by potrace 1.16, written by Peter Selinger 2001-2019
</metadata>
<g transform="translate(0.000000,56.000000) scale(0.100000,-0.100000)"
fill="#000000" stroke="none">
<path d="M264 560 c-9 0 -14 -11 -14 -33 0 -18 -5 -38 -11 -44 -8 -8 -9 -33
-5 -75 3 -35 10 -97 16 -138 5 -41 12 -119 16 -172 5 -68 10 -98 19 -98 7 0
18 7 25 15 9 11 11 40 7 102 -4 49 -12 113 -18 143 -6 30 -13 110 -16 178 -3
98 -7 122 -19 122z"/>
</g>
</svg>
