<?xml version="1.0" standalone="no"?>
<!DOCTYPE svg PUBLIC "-//W3C//DTD SVG 20010904//EN"
 "http://www.w3.org/TR/2001/REC-SVG-20010904/DTD/svg10.dtd">
<svg version="1.0" xmlns="http://www.w3.org/2000/svg"
 width="56.000000pt" height="56.000000pt" viewBox="0 0 56.000000 56.000000"
 preserveAspectRatio="xMidYMid meet">
<metadata>
Created by potrace 1.16, written by Peter Selinger 2001-2019
</metadata>
<g transform="translate(0.000000,56.000000) scale(0.100000,-0.100000)"
fill="#000000" stroke="none">
<path d="M308 560 c-11 0 -18 -7 -18 -19 0 -11 -4 -22 -9 -25 -5 -3 -11 -20
-14 -38 -3 -18 -11 -53 -17 -78 -7 -25 -14 -100 -17 -167 -3 -72 0 -145 7
-178 8 -38 16 -55 27 -55 14 0 15 16 9 133 -3 75 -2 158 4 192 5 33 15 80 20
105 6 25 15 64 19 88 7 37 6 42 -11 42z"/>
</g>
</svg>
