<?xml version="1.0" standalone="no"?>
<!DOCTYPE svg PUBLIC "-//W3C//DTD SVG 20010904//EN"
 "http://www.w3.org/TR/2001/REC-SVG-20010904/DTD/svg10.dtd">
<svg version="1.0" xmlns="http://www.w3.org/2000/svg"
 width="56.000000pt" height="56.000000pt" viewBox="0 0 56.000000 56.000000"
 preserveAspectRatio="xMidYMid meet">
<metadata>
Created by potrace 1.16, written by Peter Selinger 2001-2019
</metadata>
<g transform="translate(0.000000,56.000000) scale(0.100000,-0.100000)"
fill="#000000" stroke="none">
<path d="M302 560 c-26 0 -30 -4 -35 -37 -4 -21 -12 -58 -18 -83 -6 -25 -14
-81 -16 -125 -3 -44 0 -118 7 -165 6 -47 15 -98 19 -115 4 -17 14 -31 25 -33
17 -4 18 2 11 75 -4 43 -8 134 -8 203 -1 93 3 140 16 185 10 33 20 68 23 78 4
13 -1 17 -24 17z"/>
</g>
</svg>
