<?xml version="1.0" standalone="no"?>
<!DOCTYPE svg PUBLIC "-//W3C//DTD SVG 20010904//EN"
 "http://www.w3.org/TR/2001/REC-SVG-20010904/DTD/svg10.dtd">
<svg version="1.0" xmlns="http://www.w3.org/2000/svg"
 width="56.000000pt" height="56.000000pt" viewBox="0 0 56.000000 56.000000"
 preserveAspectRatio="xMidYMid meet">
<metadata>
Created by potrace 1.16, written by Peter Selinger 2001-2019
</metadata>
<g transform="translate(0.000000,56.000000) scale(0.100000,-0.100000)"
fill="#000000" stroke="none">
<path d="M295 560 c-8 0 -21 -13 -30 -30 -8 -16 -15 -33 -15 -39 0 -5 -17 -27
-39 -48 -21 -21 -53 -50 -70 -65 -19 -16 -31 -35 -30 -50 0 -12 6 -38 13 -57
7 -19 17 -36 22 -38 6 -2 36 22 67 53 52 52 59 56 90 50 29 -5 36 -12 46 -47
10 -34 10 -44 -3 -62 -9 -12 -24 -33 -33 -47 -9 -14 -33 -43 -53 -66 -19 -22
-47 -56 -62 -75 -27 -34 -27 -34 8 -37 29 -3 40 3 66 30 17 18 42 48 56 66 13
17 30 32 36 32 7 0 21 12 33 27 11 16 27 42 36 60 10 18 17 45 17 61 0 26 -8
35 -62 66 -38 23 -71 36 -87 34 -21 -2 -27 2 -29 20 -2 13 3 31 11 40 7 9 19
31 26 49 7 17 10 41 6 52 -3 12 -13 21 -20 21z"/>
<path d="M331 30 c-10 5 -21 6 -25 3 -3 -3 -6 -12 -6 -20 0 -8 12 -13 31 -13
17 0 28 4 24 10 -3 5 -14 14 -24 20z"/>
</g>
</svg>
