<?xml version="1.0" standalone="no"?>
<!DOCTYPE svg PUBLIC "-//W3C//DTD SVG 20010904//EN"
 "http://www.w3.org/TR/2001/REC-SVG-20010904/DTD/svg10.dtd">
<svg version="1.0" xmlns="http://www.w3.org/2000/svg"
 width="56.000000pt" height="56.000000pt" viewBox="0 0 56.000000 56.000000"
 preserveAspectRatio="xMidYMid meet">
<metadata>
Created by potrace 1.16, written by Peter Selinger 2001-2019
</metadata>
<g transform="translate(0.000000,56.000000) scale(0.100000,-0.100000)"
fill="#000000" stroke="none">
<path d="M213 560 c-35 0 -36 0 -30 -36 4 -20 1 -46 -5 -58 -6 -12 -30 -42
-54 -68 -24 -26 -45 -53 -45 -60 -1 -7 0 -17 1 -23 2 -5 6 -26 9 -45 4 -23 13
-36 25 -38 11 -2 33 10 55 31 20 19 53 40 73 45 37 10 40 9 97 -40 52 -43 59
-54 56 -81 -1 -18 -12 -56 -23 -86 -12 -30 -31 -64 -43 -77 -22 -24 -22 -24
47 -24 69 0 69 0 85 38 9 20 19 56 23 79 4 30 0 57 -14 97 -15 38 -33 65 -65
90 -24 20 -47 36 -52 36 -5 0 -19 10 -31 23 -13 14 -22 36 -22 54 0 17 7 36
15 43 8 7 15 21 15 31 0 11 -7 19 -15 19 -9 0 -27 11 -41 25 -17 17 -36 25
-61 25z"/>
</g>
</svg>
