<?xml version="1.0" standalone="no"?>
<!DOCTYPE svg PUBLIC "-//W3C//DTD SVG 20010904//EN"
 "http://www.w3.org/TR/2001/REC-SVG-20010904/DTD/svg10.dtd">
<svg version="1.0" xmlns="http://www.w3.org/2000/svg"
 width="56.000000pt" height="56.000000pt" viewBox="0 0 56.000000 56.000000"
 preserveAspectRatio="xMidYMid meet">
<metadata>
Created by potrace 1.16, written by Peter Selinger 2001-2019
</metadata>
<g transform="translate(0.000000,56.000000) scale(0.100000,-0.100000)"
fill="#000000" stroke="none">
<path d="M223 560 c-9 0 -13 -16 -13 -49 0 -28 -4 -53 -10 -56 -5 -3 -10 -23
-10 -45 0 -24 5 -40 15 -44 8 -3 27 -1 41 4 17 7 32 7 44 0 11 -6 25 -20 31
-31 7 -14 8 -29 2 -43 -6 -11 -22 -46 -36 -76 -14 -30 -38 -77 -53 -105 -14
-27 -33 -62 -40 -77 -8 -14 -14 -29 -14 -32 0 -3 9 -6 19 -6 12 0 29 16 45 43
13 24 38 70 55 101 16 32 36 65 44 75 8 9 20 32 26 51 10 28 10 43 -2 75 -11
32 -24 45 -63 66 -45 23 -49 28 -46 59 1 18 -3 46 -10 61 -7 16 -19 29 -25 29z"/>
</g>
</svg>
