<?xml version="1.0" standalone="no"?>
<!DOCTYPE svg PUBLIC "-//W3C//DTD SVG 20010904//EN"
 "http://www.w3.org/TR/2001/REC-SVG-20010904/DTD/svg10.dtd">
<svg version="1.0" xmlns="http://www.w3.org/2000/svg"
 width="56.000000pt" height="56.000000pt" viewBox="0 0 56.000000 56.000000"
 preserveAspectRatio="xMidYMid meet">
<metadata>
Created by potrace 1.16, written by Peter Selinger 2001-2019
</metadata>
<g transform="translate(0.000000,56.000000) scale(0.100000,-0.100000)"
fill="#000000" stroke="none">
<path d="M195 560 c-58 0 -65 -2 -65 -20 0 -12 21 -35 55 -61 41 -31 55 -48
53 -63 -2 -11 -29 -39 -63 -63 -33 -24 -77 -55 -98 -69 -21 -13 -43 -36 -49
-50 -8 -17 -8 -34 -2 -52 5 -15 16 -28 25 -30 8 -1 44 16 79 40 36 23 77 49
93 57 15 9 44 28 65 43 20 14 51 29 67 32 24 5 36 1 64 -24 30 -28 32 -35 27
-68 -4 -22 -18 -46 -34 -60 -15 -12 -47 -34 -71 -47 -24 -14 -53 -25 -65 -25
-11 0 -48 -14 -81 -30 -33 -17 -72 -30 -87 -30 -15 0 -38 -4 -52 -10 -14 -5
-26 -14 -26 -20 0 -6 37 -10 98 -10 67 0 126 8 192 24 53 13 110 31 128 40 19
10 34 27 39 44 3 15 15 39 26 54 18 24 19 37 13 114 -3 48 -11 93 -17 100 -6
7 -23 12 -37 12 -15 -1 -44 5 -65 13 -30 11 -40 21 -49 52 -6 21 -25 49 -42
63 -17 13 -36 29 -43 34 -7 6 -42 10 -78 10z"/>
</g>
</svg>
