<?xml version="1.0" standalone="no"?>
<!DOCTYPE svg PUBLIC "-//W3C//DTD SVG 20010904//EN"
 "http://www.w3.org/TR/2001/REC-SVG-20010904/DTD/svg10.dtd">
<svg version="1.0" xmlns="http://www.w3.org/2000/svg"
 width="56.000000pt" height="56.000000pt" viewBox="0 0 56.000000 56.000000"
 preserveAspectRatio="xMidYMid meet">
<metadata>
Created by potrace 1.16, written by Peter Selinger 2001-2019
</metadata>
<g transform="translate(0.000000,56.000000) scale(0.100000,-0.100000)"
fill="#000000" stroke="none">
<path d="M330 560 c-36 0 -60 -4 -60 -11 0 -6 -13 -29 -29 -52 -16 -23 -38
-51 -50 -62 -11 -11 -43 -36 -70 -55 -47 -32 -51 -38 -51 -76 0 -27 6 -47 18
-57 10 -10 23 -17 28 -17 6 0 28 18 49 40 21 22 43 40 49 40 5 0 17 7 26 15
15 13 22 14 46 3 16 -6 39 -21 52 -32 14 -13 22 -31 22 -52 0 -26 -12 -44 -62
-96 -35 -35 -84 -76 -109 -90 -25 -15 -51 -34 -59 -42 -11 -14 -5 -16 58 -16
39 0 74 5 77 10 3 6 13 10 21 10 8 0 29 10 46 22 17 13 52 42 77 65 25 24 49
43 54 43 4 0 7 7 7 15 0 9 7 26 15 39 15 22 14 24 -11 40 -23 16 -24 19 -9 30
15 10 11 17 -32 57 -30 29 -66 51 -96 59 -31 10 -47 20 -47 31 0 8 16 36 36
62 19 25 42 48 50 51 8 3 14 10 14 16 0 6 -25 10 -60 10z"/>
</g>
</svg>
