<?xml version="1.0" standalone="no"?>
<!DOCTYPE svg PUBLIC "-//W3C//DTD SVG 20010904//EN"
 "http://www.w3.org/TR/2001/REC-SVG-20010904/DTD/svg10.dtd">
<svg version="1.0" xmlns="http://www.w3.org/2000/svg"
 width="56.000000pt" height="56.000000pt" viewBox="0 0 56.000000 56.000000"
 preserveAspectRatio="xMidYMid meet">
<metadata>
Created by potrace 1.16, written by Peter Selinger 2001-2019
</metadata>
<g transform="translate(0.000000,56.000000) scale(0.100000,-0.100000)"
fill="#000000" stroke="none">
<path d="M233 530 c-5 0 -16 -6 -25 -12 -9 -7 -23 -40 -31 -73 -8 -33 -12 -66
-9 -73 3 -9 12 -11 26 -7 11 4 37 9 56 12 26 3 43 -1 60 -15 23 -19 25 -26 22
-94 -1 -40 -7 -86 -13 -103 -6 -16 -18 -46 -26 -65 -8 -19 -21 -48 -29 -64 -8
-16 -14 -31 -14 -33 0 -1 11 -3 24 -3 18 0 28 10 41 38 10 20 28 58 41 85 13
28 25 78 29 122 6 66 5 78 -15 109 -12 20 -48 52 -80 72 -56 34 -58 37 -53 70
3 19 1 34 -4 34z"/>
</g>
</svg>
