<?xml version="1.0" standalone="no"?>
<!DOCTYPE svg PUBLIC "-//W3C//DTD SVG 20010904//EN"
 "http://www.w3.org/TR/2001/REC-SVG-20010904/DTD/svg10.dtd">
<svg version="1.0" xmlns="http://www.w3.org/2000/svg"
 width="56.000000pt" height="56.000000pt" viewBox="0 0 56.000000 56.000000"
 preserveAspectRatio="xMidYMid meet">
<metadata>
Created by potrace 1.16, written by Peter Selinger 2001-2019
</metadata>
<g transform="translate(0.000000,56.000000) scale(0.100000,-0.100000)"
fill="#000000" stroke="none">
<path d="M460 559 c-8 0 -37 -14 -64 -31 -41 -27 -51 -29 -68 -19 -11 7 -22
10 -25 7 -3 -3 1 -24 8 -47 8 -24 19 -44 26 -46 6 -2 32 17 57 42 25 26 50 44
56 40 5 -3 10 -14 10 -23 0 -10 -16 -49 -37 -87 -20 -39 -61 -96 -92 -128 -31
-32 -58 -63 -61 -70 -3 -7 -21 -37 -40 -67 -20 -30 -41 -68 -48 -83 -6 -15
-12 -32 -12 -37 0 -6 12 -10 28 -10 23 0 32 10 69 78 23 42 61 100 83 127 22
28 59 75 83 105 23 30 50 71 59 90 10 19 17 50 18 68 0 19 -8 47 -17 63 -10
16 -24 29 -33 28z"/>
<path d="M118 540 c-4 0 -12 -9 -18 -19 -5 -11 -10 -28 -10 -38 -1 -15 -5 -13
-24 11 -14 17 -26 24 -30 17 -4 -5 5 -33 19 -61 17 -33 32 -50 44 -50 10 0 24
-7 31 -15 7 -8 9 -23 5 -32 -6 -17 -7 -17 -19 0 -7 9 -19 17 -26 17 -9 0 -10
-10 -5 -37 4 -21 15 -49 25 -63 10 -14 30 -36 44 -49 26 -25 27 -25 45 -5 10
10 28 46 39 79 15 42 19 73 15 102 -3 25 -15 51 -29 64 -20 19 -26 20 -39 9
-14 -12 -18 -11 -26 1 -5 8 -9 21 -9 30 0 8 -5 20 -12 27 -7 7 -15 12 -20 12z
m72 -182 c6 -10 7 -25 1 -40 -9 -20 -10 -18 -10 17 0 31 2 36 9 23z"/>
</g>
</svg>
