<?xml version="1.0" standalone="no"?>
<!DOCTYPE svg PUBLIC "-//W3C//DTD SVG 20010904//EN"
 "http://www.w3.org/TR/2001/REC-SVG-20010904/DTD/svg10.dtd">
<svg version="1.0" xmlns="http://www.w3.org/2000/svg"
 width="56.000000pt" height="56.000000pt" viewBox="0 0 56.000000 56.000000"
 preserveAspectRatio="xMidYMid meet">
<metadata>
Created by potrace 1.16, written by Peter Selinger 2001-2019
</metadata>
<g transform="translate(0.000000,56.000000) scale(0.100000,-0.100000)"
fill="#000000" stroke="none">
<path d="M71 518 c-23 4 -24 2 -17 -47 4 -29 4 -56 0 -62 -4 -7 -15 -2 -30 12
-24 22 -24 22 -24 0 0 -13 16 -39 35 -58 31 -31 35 -41 35 -89 0 -30 4 -54 8
-54 4 0 13 5 20 12 8 8 14 4 22 -18 6 -16 13 -35 15 -42 3 -8 13 -12 22 -10 9
2 36 26 58 54 36 43 43 61 49 112 4 36 3 69 -3 80 -6 11 -22 27 -37 37 -25 16
-29 16 -61 1 -18 -9 -40 -16 -48 -16 -9 0 -15 14 -17 43 -3 36 -7 43 -27 45z
m125 -109 c7 0 14 -14 16 -31 3 -18 1 -40 -3 -48 -5 -8 -15 -32 -23 -52 -8
-21 -19 -38 -24 -38 -5 0 -15 7 -23 16 -10 12 -10 20 -1 35 7 10 12 24 12 31
0 9 -3 8 -10 -2 -5 -8 -11 -12 -13 -10 -2 3 -7 17 -11 32 -5 23 -1 29 32 46
20 11 42 20 48 21z"/>
<path d="M279 500 c-12 0 -19 -5 -17 -12 3 -7 13 -15 23 -17 10 -2 27 -13 36
-25 10 -11 18 -25 19 -30 0 -5 7 -18 16 -27 16 -18 18 -18 46 6 16 14 36 25
44 25 8 0 14 -9 13 -22 0 -13 -14 -43 -30 -68 -16 -25 -33 -54 -38 -65 -5 -11
-26 -36 -47 -55 -22 -20 -65 -64 -96 -98 -32 -34 -58 -66 -58 -72 0 -5 6 -10
14 -10 8 0 91 75 185 167 143 139 171 171 171 195 0 16 -9 39 -20 50 -14 16
-31 22 -58 21 -20 -1 -52 -4 -70 -8 -22 -5 -38 -3 -50 6 -9 8 -27 20 -39 27
-13 6 -32 12 -44 12z"/>
</g>
</svg>
