<?xml version="1.0" standalone="no"?>
<!DOCTYPE svg PUBLIC "-//W3C//DTD SVG 20010904//EN"
 "http://www.w3.org/TR/2001/REC-SVG-20010904/DTD/svg10.dtd">
<svg version="1.0" xmlns="http://www.w3.org/2000/svg"
 width="56.000000pt" height="56.000000pt" viewBox="0 0 56.000000 56.000000"
 preserveAspectRatio="xMidYMid meet">
<metadata>
Created by potrace 1.16, written by Peter Selinger 2001-2019
</metadata>
<g transform="translate(0.000000,56.000000) scale(0.100000,-0.100000)"
fill="#000000" stroke="none">
<path d="M196 544 c-16 1 -42 -4 -57 -11 -16 -7 -29 -16 -29 -21 0 -6 21 -28
47 -49 47 -40 47 -40 33 -74 -8 -19 -40 -63 -73 -99 -59 -65 -59 -65 -52 -115
3 -27 10 -54 14 -58 5 -5 24 -7 42 -5 29 2 38 10 59 49 14 25 39 62 55 81 17
19 38 45 48 57 13 16 26 21 50 19 28 -3 33 -8 45 -48 9 -32 10 -50 2 -62 -5
-10 -10 -24 -10 -32 0 -8 -11 -23 -25 -34 -14 -11 -25 -25 -25 -31 0 -7 -8
-15 -17 -19 -10 -4 -35 -18 -56 -31 -22 -13 -37 -31 -37 -42 0 -16 8 -19 53
-19 45 0 61 5 98 32 24 18 58 40 74 49 17 9 38 31 49 48 18 32 18 32 -8 69
-14 21 -26 43 -26 49 0 7 9 18 20 26 20 14 20 15 -10 53 -17 21 -45 44 -63 51
-18 7 -40 12 -49 12 -9 1 -20 6 -24 13 -4 7 -7 27 -6 45 2 18 -5 44 -13 57 -9
14 -31 28 -48 32 -18 4 -45 7 -61 8z"/>
</g>
</svg>
