<?xml version="1.0" standalone="no"?>
<!DOCTYPE svg PUBLIC "-//W3C//DTD SVG 20010904//EN"
 "http://www.w3.org/TR/2001/REC-SVG-20010904/DTD/svg10.dtd">
<svg version="1.0" xmlns="http://www.w3.org/2000/svg"
 width="56.000000pt" height="56.000000pt" viewBox="0 0 56.000000 56.000000"
 preserveAspectRatio="xMidYMid meet">
<metadata>
Created by potrace 1.16, written by Peter Selinger 2001-2019
</metadata>
<g transform="translate(0.000000,56.000000) scale(0.100000,-0.100000)"
fill="#000000" stroke="none">
<path d="M198 560 c-25 0 -29 -3 -23 -17 4 -10 10 -30 12 -44 3 -16 -6 -43
-24 -75 -16 -27 -32 -57 -36 -67 -3 -9 -2 -29 3 -43 8 -20 14 -24 33 -19 12 4
27 13 33 21 6 8 18 14 26 14 8 0 17 3 21 6 3 3 1 14 -5 24 -6 9 -8 29 -4 43 3
15 12 27 19 27 6 0 26 -9 43 -19 17 -10 38 -34 47 -53 11 -22 14 -48 11 -74
-3 -21 -12 -63 -21 -92 -8 -29 -22 -58 -32 -65 -9 -6 -25 -25 -35 -42 -10 -16
-30 -42 -44 -58 -26 -27 -26 -27 31 -27 51 0 57 2 57 21 0 11 11 35 25 53 14
18 25 38 25 45 0 6 12 29 26 51 14 21 23 43 20 49 -4 5 -2 12 4 16 5 3 10 34
10 67 0 50 -5 67 -25 94 -13 17 -40 42 -60 54 -25 16 -43 20 -65 15 -28 -6
-30 -5 -30 22 0 15 -3 38 -6 51 -5 16 -14 22 -36 22z"/>
</g>
</svg>
