<?xml version="1.0" standalone="no"?>
<!DOCTYPE svg PUBLIC "-//W3C//DTD SVG 20010904//EN"
 "http://www.w3.org/TR/2001/REC-SVG-20010904/DTD/svg10.dtd">
<svg version="1.0" xmlns="http://www.w3.org/2000/svg"
 width="56.000000pt" height="56.000000pt" viewBox="0 0 56.000000 56.000000"
 preserveAspectRatio="xMidYMid meet">
<metadata>
Created by potrace 1.16, written by Peter Selinger 2001-2019
</metadata>
<g transform="translate(0.000000,56.000000) scale(0.100000,-0.100000)"
fill="#000000" stroke="none">
<path d="M347 560 c-41 0 -43 -2 -80 -60 -20 -33 -37 -63 -37 -67 0 -5 -9 -19
-20 -33 -11 -14 -20 -37 -20 -51 0 -15 7 -32 16 -40 12 -10 22 -10 50 0 27 10
38 10 49 1 9 -7 15 -30 15 -54 0 -26 -11 -64 -27 -97 -15 -29 -51 -78 -79
-107 -53 -52 -53 -52 -4 -52 46 0 51 3 95 52 25 29 57 76 70 103 20 41 24 63
22 122 -2 66 -5 75 -34 105 -18 19 -33 39 -33 44 0 6 13 35 30 65 16 30 30 57
30 62 0 4 -19 7 -43 7z"/>
</g>
</svg>
