<?xml version="1.0" standalone="no"?>
<!DOCTYPE svg PUBLIC "-//W3C//DTD SVG 20010904//EN"
 "http://www.w3.org/TR/2001/REC-SVG-20010904/DTD/svg10.dtd">
<svg version="1.0" xmlns="http://www.w3.org/2000/svg"
 width="56.000000pt" height="56.000000pt" viewBox="0 0 56.000000 56.000000"
 preserveAspectRatio="xMidYMid meet">
<metadata>
Created by potrace 1.16, written by Peter Selinger 2001-2019
</metadata>
<g transform="translate(0.000000,56.000000) scale(0.100000,-0.100000)"
fill="#000000" stroke="none">
<path d="M268 530 c-13 0 -29 -4 -37 -9 -8 -5 -11 -17 -7 -28 4 -12 -2 -33
-17 -54 -12 -19 -39 -42 -58 -51 -19 -9 -41 -23 -48 -32 -7 -8 -11 -25 -9 -38
2 -19 10 -24 40 -26 20 -2 51 4 67 13 17 8 31 21 31 29 0 7 11 19 25 26 22 12
27 11 39 -5 8 -12 19 -16 31 -11 11 4 25 0 36 -10 13 -12 19 -31 19 -62 0 -25
-6 -53 -14 -61 -8 -9 -23 -33 -35 -54 -12 -21 -21 -44 -21 -52 0 -8 -11 -17
-25 -21 -14 -3 -31 -14 -38 -24 -6 -9 -22 -22 -34 -29 -13 -6 -23 -16 -23 -21
0 -6 29 -10 65 -10 58 0 65 2 65 20 0 13 7 20 20 20 12 0 25 10 32 25 6 13 18
27 27 30 9 2 22 15 30 27 8 13 20 54 27 91 12 63 12 72 -5 106 -11 20 -28 46
-38 58 -11 12 -32 27 -46 32 -21 8 -27 17 -27 41 0 19 -9 40 -25 55 -13 14
-34 25 -47 25z m12 -51 c6 -3 11 -8 11 -12 -1 -4 -4 -7 -8 -8 -4 0 -9 5 -11
12 -3 6 1 10 8 8z"/>
</g>
</svg>
