<?xml version="1.0" standalone="no"?>
<!DOCTYPE svg PUBLIC "-//W3C//DTD SVG 20010904//EN"
 "http://www.w3.org/TR/2001/REC-SVG-20010904/DTD/svg10.dtd">
<svg version="1.0" xmlns="http://www.w3.org/2000/svg"
 width="56.000000pt" height="56.000000pt" viewBox="0 0 56.000000 56.000000"
 preserveAspectRatio="xMidYMid meet">
<metadata>
Created by potrace 1.16, written by Peter Selinger 2001-2019
</metadata>
<g transform="translate(0.000000,56.000000) scale(0.100000,-0.100000)"
fill="#000000" stroke="none">
<path d="M358 559 c-53 -1 -54 -2 -142 -89 -49 -48 -86 -92 -82 -98 3 -6 1
-14 -4 -17 -7 -4 -8 -20 -4 -38 3 -18 11 -38 17 -45 6 -7 19 -12 30 -10 12 2
32 27 53 68 19 35 40 68 46 71 7 4 16 5 20 3 5 -3 19 -26 32 -52 22 -43 23
-53 14 -112 -6 -36 -18 -76 -27 -90 -10 -14 -25 -49 -34 -79 -9 -29 -17 -57
-17 -62 0 -5 18 -9 40 -9 28 0 40 4 40 15 0 7 7 18 16 23 8 5 21 26 29 48 8
21 14 55 15 75 0 21 7 42 16 50 13 10 15 26 10 77 -5 49 -12 71 -29 87 -12 13
-32 34 -44 48 -13 14 -23 29 -23 34 0 5 18 27 40 48 22 21 40 43 40 47 0 4
-24 8 -52 7z"/>
</g>
</svg>
