<?xml version="1.0" standalone="no"?>
<!DOCTYPE svg PUBLIC "-//W3C//DTD SVG 20010904//EN"
 "http://www.w3.org/TR/2001/REC-SVG-20010904/DTD/svg10.dtd">
<svg version="1.0" xmlns="http://www.w3.org/2000/svg"
 width="56.000000pt" height="56.000000pt" viewBox="0 0 56.000000 56.000000"
 preserveAspectRatio="xMidYMid meet">
<metadata>
Created by potrace 1.16, written by Peter Selinger 2001-2019
</metadata>
<g transform="translate(0.000000,56.000000) scale(0.100000,-0.100000)"
fill="#000000" stroke="none">
<path d="M418 475 c-27 2 -53 -2 -70 -11 -16 -8 -28 -22 -28 -30 0 -11 15 -14
69 -14 52 0 74 -4 92 -19 23 -18 23 -18 -11 -72 -19 -30 -53 -74 -76 -99 -22
-25 -46 -59 -51 -76 -8 -23 -7 -37 4 -57 9 -17 22 -27 37 -27 12 0 25 3 28 6
3 3 -1 19 -9 36 -11 22 -13 35 -5 51 5 12 36 52 69 88 32 37 66 76 76 88 9 12
17 30 17 42 0 11 -8 28 -17 38 -10 10 -33 26 -50 35 -18 9 -52 18 -75 21z"/>
<path d="M102 458 c-31 2 -42 0 -42 -11 0 -8 10 -17 23 -21 12 -3 27 -14 34
-24 6 -10 8 -24 4 -31 -6 -9 -19 -9 -51 -2 -24 5 -50 7 -57 3 -10 -6 -10 -12
3 -31 15 -21 22 -22 70 -16 44 5 54 4 54 -9 0 -8 5 -27 10 -42 11 -28 11 -28
32 -7 18 18 19 26 10 52 -11 31 -11 31 22 31 22 0 36 -6 40 -16 3 -8 1 -25 -6
-37 -6 -12 -27 -43 -47 -69 -19 -27 -40 -48 -46 -48 -5 0 -31 23 -57 52 -25
29 -50 50 -54 45 -4 -4 2 -26 14 -50 12 -23 31 -57 42 -76 11 -19 27 -42 35
-50 15 -15 18 -14 38 10 12 14 50 60 85 102 34 41 62 84 62 96 0 11 -16 36
-35 56 -30 32 -39 37 -67 32 -29 -5 -35 -2 -53 26 -17 27 -27 33 -63 35z"/>
</g>
</svg>
