<?xml version="1.0" standalone="no"?>
<!DOCTYPE svg PUBLIC "-//W3C//DTD SVG 20010904//EN"
 "http://www.w3.org/TR/2001/REC-SVG-20010904/DTD/svg10.dtd">
<svg version="1.0" xmlns="http://www.w3.org/2000/svg"
 width="56.000000pt" height="56.000000pt" viewBox="0 0 56.000000 56.000000"
 preserveAspectRatio="xMidYMid meet">
<metadata>
Created by potrace 1.16, written by Peter Selinger 2001-2019
</metadata>
<g transform="translate(0.000000,56.000000) scale(0.100000,-0.100000)"
fill="#000000" stroke="none">
<path d="M157 540 c-12 0 -34 -8 -49 -17 -23 -15 -30 -15 -52 -3 -14 7 -29 10
-32 7 -4 -4 5 -24 19 -46 20 -30 25 -48 21 -70 -4 -16 -19 -41 -34 -56 -20
-19 -26 -33 -22 -51 2 -14 11 -28 19 -31 8 -3 26 0 40 8 22 12 26 11 35 -5 6
-10 23 -32 38 -49 25 -28 31 -30 56 -22 21 8 33 23 47 60 10 28 19 76 19 108
1 50 -2 61 -25 85 -15 16 -27 33 -27 39 0 7 -7 19 -16 27 -8 9 -25 16 -37 16z
m30 -120 c6 0 14 -13 18 -30 4 -16 3 -40 0 -52 -4 -13 -14 -31 -23 -41 -15
-16 -17 -16 -39 5 -13 12 -23 27 -23 33 0 7 12 28 28 48 15 20 32 36 39 37z"/>
<path d="M378 490 c-8 0 -18 -3 -21 -7 -4 -3 -7 -11 -7 -17 0 -6 17 -19 38
-28 20 -9 52 -30 70 -47 23 -21 32 -39 32 -61 0 -18 -13 -56 -29 -85 -16 -29
-54 -90 -85 -136 -31 -46 -56 -90 -56 -97 0 -9 11 -12 32 -10 24 2 36 11 51
38 10 19 31 51 45 70 15 19 35 48 45 65 9 16 25 46 35 65 9 19 20 37 25 38 4
2 7 24 7 48 0 36 -6 51 -31 79 -17 18 -55 45 -83 59 -29 14 -60 26 -68 26z"/>
</g>
</svg>
