<?xml version="1.0" standalone="no"?>
<!DOCTYPE svg PUBLIC "-//W3C//DTD SVG 20010904//EN"
 "http://www.w3.org/TR/2001/REC-SVG-20010904/DTD/svg10.dtd">
<svg version="1.0" xmlns="http://www.w3.org/2000/svg"
 width="56.000000pt" height="56.000000pt" viewBox="0 0 56.000000 56.000000"
 preserveAspectRatio="xMidYMid meet">
<metadata>
Created by potrace 1.16, written by Peter Selinger 2001-2019
</metadata>
<g transform="translate(0.000000,56.000000) scale(0.100000,-0.100000)"
fill="#000000" stroke="none">
<path d="M266 540 c-13 0 -34 -8 -45 -18 -21 -16 -21 -20 -10 -64 13 -47 13
-47 -38 -93 -30 -26 -57 -61 -63 -81 -7 -19 -9 -41 -6 -49 3 -8 13 -15 21 -15
9 0 40 10 68 22 29 12 59 27 68 35 8 7 25 13 36 13 11 0 24 -10 30 -23 8 -17
6 -37 -8 -83 -15 -47 -29 -70 -69 -108 -28 -26 -48 -52 -45 -57 4 -5 19 -9 34
-9 16 0 49 12 74 26 26 14 58 39 72 56 14 17 32 46 40 65 8 20 15 58 15 86 0
49 -2 53 -57 104 -53 49 -58 57 -58 96 0 24 -8 56 -18 70 -11 17 -27 27 -41
27z"/>
</g>
</svg>
