<?xml version="1.0" standalone="no"?>
<!DOCTYPE svg PUBLIC "-//W3C//DTD SVG 20010904//EN"
 "http://www.w3.org/TR/2001/REC-SVG-20010904/DTD/svg10.dtd">
<svg version="1.0" xmlns="http://www.w3.org/2000/svg"
 width="56.000000pt" height="56.000000pt" viewBox="0 0 56.000000 56.000000"
 preserveAspectRatio="xMidYMid meet">
<metadata>
Created by potrace 1.16, written by Peter Selinger 2001-2019
</metadata>
<g transform="translate(0.000000,56.000000) scale(0.100000,-0.100000)"
fill="#000000" stroke="none">
<path d="M431 560 c-29 0 -53 -5 -58 -12 -4 -7 -17 -19 -28 -26 -11 -7 -34
-21 -51 -32 -17 -11 -36 -31 -42 -44 -6 -15 -23 -27 -41 -31 -17 -4 -34 -12
-38 -19 -5 -6 -20 -19 -35 -29 -16 -10 -28 -23 -28 -30 0 -6 -14 -29 -30 -50
-16 -22 -26 -45 -23 -53 3 -8 8 -12 12 -10 4 3 26 7 49 10 24 2 49 10 57 16 8
6 15 24 17 38 3 24 7 27 36 24 26 -2 35 2 39 16 2 11 22 28 43 40 38 20 39 20
56 1 9 -10 25 -44 36 -74 17 -52 17 -57 2 -88 -9 -17 -34 -52 -55 -76 -22 -24
-39 -47 -39 -51 0 -5 -13 -13 -30 -19 -16 -5 -30 -12 -30 -15 0 -3 9 -10 21
-16 15 -9 34 -8 72 1 29 8 71 28 94 47 30 24 46 46 54 76 6 22 9 69 6 104 -3
38 -11 70 -21 81 -9 10 -16 23 -16 29 0 6 -10 23 -23 39 -13 15 -26 35 -30 45
-3 9 0 23 6 32 7 9 23 22 37 29 14 7 26 20 28 30 3 14 -5 17 -47 17z m-106
-130 c9 0 12 -6 9 -15 -4 -8 -10 -12 -15 -9 -5 3 -9 9 -9 15 0 5 7 9 15 9z"/>
<path d="M214 20 c-13 0 -24 -4 -24 -10 0 -5 14 -10 31 -10 17 0 28 4 24 10
-3 5 -17 10 -31 10z"/>
</g>
</svg>
