<?xml version="1.0" standalone="no"?>
<!DOCTYPE svg PUBLIC "-//W3C//DTD SVG 20010904//EN"
 "http://www.w3.org/TR/2001/REC-SVG-20010904/DTD/svg10.dtd">
<svg version="1.0" xmlns="http://www.w3.org/2000/svg"
 width="56.000000pt" height="56.000000pt" viewBox="0 0 56.000000 56.000000"
 preserveAspectRatio="xMidYMid meet">
<metadata>
Created by potrace 1.16, written by Peter Selinger 2001-2019
</metadata>
<g transform="translate(0.000000,56.000000) scale(0.100000,-0.100000)"
fill="#000000" stroke="none">
<path d="M245 525 c-20 35 -20 35 -48 -11 -21 -35 -26 -53 -22 -78 6 -32 6
-32 73 -29 37 1 72 -3 79 -9 7 -6 13 -24 13 -40 0 -16 -6 -43 -13 -61 -8 -18
-18 -50 -22 -72 -5 -22 -8 -45 -7 -51 1 -6 -9 -21 -23 -34 -14 -13 -25 -34
-25 -47 0 -14 -6 -23 -15 -23 -9 0 -18 -7 -22 -16 -3 -8 -12 -13 -19 -10 -8 3
-14 -1 -14 -9 0 -8 -4 -15 -10 -15 -5 0 -10 -4 -10 -10 0 -5 20 -10 45 -10 39
0 47 4 57 25 6 14 15 25 19 25 4 0 20 26 36 57 15 31 40 70 56 87 15 17 27 36
27 42 0 6 9 19 19 28 10 10 22 33 25 52 4 18 1 52 -5 74 -7 23 -27 54 -46 70
-27 24 -43 30 -81 30 -43 0 -49 3 -67 35z"/>
</g>
</svg>
