<?xml version="1.0" standalone="no"?>
<!DOCTYPE svg PUBLIC "-//W3C//DTD SVG 20010904//EN"
 "http://www.w3.org/TR/2001/REC-SVG-20010904/DTD/svg10.dtd">
<svg version="1.0" xmlns="http://www.w3.org/2000/svg"
 width="56.000000pt" height="56.000000pt" viewBox="0 0 56.000000 56.000000"
 preserveAspectRatio="xMidYMid meet">
<metadata>
Created by potrace 1.16, written by Peter Selinger 2001-2019
</metadata>
<g transform="translate(0.000000,56.000000) scale(0.100000,-0.100000)"
fill="#000000" stroke="none">
<path d="M285 560 c-8 0 -15 -7 -15 -16 0 -9 -11 -29 -24 -44 -13 -16 -40 -58
-60 -95 -21 -36 -36 -76 -34 -88 2 -15 11 -23 28 -24 21 -2 31 7 63 58 26 42
43 59 55 57 9 -2 24 -17 32 -33 8 -17 14 -55 14 -85 0 -30 -8 -100 -17 -155
-10 -55 -20 -108 -23 -117 -4 -15 1 -18 30 -18 33 0 35 2 41 38 4 20 11 50 16
66 5 16 9 75 9 131 0 80 -4 110 -19 141 -11 23 -34 55 -50 73 -24 25 -31 42
-31 72 0 28 -4 39 -15 39z"/>
</g>
</svg>
