<?xml version="1.0" standalone="no"?>
<!DOCTYPE svg PUBLIC "-//W3C//DTD SVG 20010904//EN"
 "http://www.w3.org/TR/2001/REC-SVG-20010904/DTD/svg10.dtd">
<svg version="1.0" xmlns="http://www.w3.org/2000/svg"
 width="56.000000pt" height="56.000000pt" viewBox="0 0 56.000000 56.000000"
 preserveAspectRatio="xMidYMid meet">
<metadata>
Created by potrace 1.16, written by Peter Selinger 2001-2019
</metadata>
<g transform="translate(0.000000,56.000000) scale(0.100000,-0.100000)"
fill="#000000" stroke="none">
<path d="M181 509 c-3 -1 -14 -3 -23 -6 -10 -2 -18 -11 -18 -19 0 -7 11 -21
25 -30 14 -9 25 -25 25 -35 0 -11 -14 -28 -32 -39 -18 -11 -47 -20 -65 -20
-17 0 -34 -4 -38 -9 -3 -6 3 -15 14 -20 11 -6 29 -11 40 -11 11 0 22 -4 25 -8
2 -4 -16 -36 -42 -70 -26 -34 -52 -62 -59 -62 -7 0 -17 -9 -23 -19 -5 -11 -10
-22 -10 -25 0 -3 9 -6 21 -6 11 0 37 11 57 25 20 14 42 25 49 25 7 0 24 -22
38 -50 14 -27 32 -50 41 -50 8 0 26 7 39 16 16 11 30 35 41 73 9 31 20 66 25
79 5 13 9 33 9 46 0 12 -10 32 -23 44 -13 12 -34 22 -47 22 -22 0 -23 2 -17
55 5 50 3 56 -20 75 -14 11 -28 19 -32 19z m45 -180 c15 1 24 -7 28 -25 4 -14
1 -52 -5 -85 -11 -58 -13 -60 -38 -54 -14 3 -36 13 -49 21 -22 15 -22 15 10
79 25 48 38 64 54 64z"/>
<path d="M394 400 c-6 0 -13 -2 -16 -5 -3 -3 19 -31 48 -61 30 -30 54 -61 54
-68 0 -7 -13 -31 -29 -53 -16 -21 -48 -55 -72 -74 -24 -19 -57 -47 -72 -64
-28 -30 -28 -30 8 -33 30 -3 43 3 78 35 23 21 53 47 67 58 14 11 39 41 55 67
17 27 33 48 38 48 4 0 7 8 7 17 0 9 -18 34 -41 55 -22 21 -46 38 -52 38 -7 0
-23 9 -37 20 -14 11 -30 20 -36 20z"/>
</g>
</svg>
