<?xml version="1.0" standalone="no"?>
<!DOCTYPE svg PUBLIC "-//W3C//DTD SVG 20010904//EN"
 "http://www.w3.org/TR/2001/REC-SVG-20010904/DTD/svg10.dtd">
<svg version="1.0" xmlns="http://www.w3.org/2000/svg"
 width="56.000000pt" height="56.000000pt" viewBox="0 0 56.000000 56.000000"
 preserveAspectRatio="xMidYMid meet">
<metadata>
Created by potrace 1.16, written by Peter Selinger 2001-2019
</metadata>
<g transform="translate(0.000000,56.000000) scale(0.100000,-0.100000)"
fill="#000000" stroke="none">
<path d="M263 528 c-10 5 -25 7 -33 4 -8 -3 -21 -12 -28 -21 -7 -9 -10 -28 -8
-42 4 -20 0 -29 -18 -37 -16 -7 -25 -22 -29 -44 -3 -18 -1 -37 4 -42 5 -6 9
-14 9 -18 0 -4 -13 -8 -30 -8 -19 0 -33 -7 -40 -19 -8 -16 -6 -23 11 -35 17
-11 27 -12 48 -3 14 6 42 25 62 42 20 16 49 40 64 53 15 12 36 22 48 22 12 0
27 -4 33 -8 6 -4 21 -26 34 -49 23 -42 23 -42 -8 -107 -20 -41 -57 -93 -103
-140 -72 -76 -72 -76 -30 -76 34 0 43 4 50 23 5 12 35 50 67 83 33 34 70 76
83 93 16 22 24 48 26 82 2 37 -2 57 -19 82 -12 17 -44 47 -71 65 -27 17 -57
32 -66 32 -10 0 -21 13 -27 29 -6 16 -19 34 -29 39z"/>
<path d="M328 278 c-9 2 -19 -2 -23 -7 -3 -6 -3 -15 0 -21 3 -5 15 -10 26 -10
14 0 19 6 17 17 -2 10 -11 19 -20 21z"/>
</g>
</svg>
