<?xml version="1.0" standalone="no"?>
<!DOCTYPE svg PUBLIC "-//W3C//DTD SVG 20010904//EN"
 "http://www.w3.org/TR/2001/REC-SVG-20010904/DTD/svg10.dtd">
<svg version="1.0" xmlns="http://www.w3.org/2000/svg"
 width="56.000000pt" height="56.000000pt" viewBox="0 0 56.000000 56.000000"
 preserveAspectRatio="xMidYMid meet">
<metadata>
Created by potrace 1.16, written by Peter Selinger 2001-2019
</metadata>
<g transform="translate(0.000000,56.000000) scale(0.100000,-0.100000)"
fill="#000000" stroke="none">
<path d="M252 560 c-9 -1 -23 -8 -30 -16 -12 -13 -10 -19 12 -39 14 -13 26
-27 26 -30 0 -4 -17 -27 -37 -51 -20 -25 -49 -52 -65 -60 -16 -8 -38 -24 -49
-35 -11 -11 -19 -33 -19 -52 0 -20 8 -41 18 -50 10 -10 28 -17 40 -17 12 0 38
18 59 40 21 21 58 46 82 55 24 8 49 15 56 15 6 0 17 -12 24 -26 6 -15 9 -41 5
-60 -3 -19 -10 -37 -15 -40 -5 -3 -9 -15 -9 -28 0 -13 -18 -39 -43 -64 -23
-23 -50 -42 -59 -42 -9 0 -20 -5 -24 -11 -3 -6 -23 -18 -43 -28 -36 -16 -36
-16 14 -19 31 -2 64 3 85 13 19 9 52 28 72 43 21 15 49 42 63 61 22 30 25 45
25 111 0 75 -1 76 -38 113 -39 38 -39 38 -85 25 -26 -6 -49 -9 -53 -5 -4 3 5
22 19 40 14 19 28 50 32 69 6 30 3 40 -20 62 -14 14 -34 26 -43 26z"/>
</g>
</svg>
