<?xml version="1.0" standalone="no"?>
<!DOCTYPE svg PUBLIC "-//W3C//DTD SVG 20010904//EN"
 "http://www.w3.org/TR/2001/REC-SVG-20010904/DTD/svg10.dtd">
<svg version="1.0" xmlns="http://www.w3.org/2000/svg"
 width="56.000000pt" height="56.000000pt" viewBox="0 0 56.000000 56.000000"
 preserveAspectRatio="xMidYMid meet">
<metadata>
Created by potrace 1.16, written by Peter Selinger 2001-2019
</metadata>
<g transform="translate(0.000000,56.000000) scale(0.100000,-0.100000)"
fill="#000000" stroke="none">
<path d="M415 502 c-22 3 -50 3 -62 1 -13 -3 -23 -11 -23 -19 0 -8 8 -14 19
-14 10 0 35 -7 54 -15 20 -8 52 -36 71 -61 20 -26 36 -51 36 -55 0 -5 11 -9
25 -9 20 0 25 5 25 25 0 14 -5 31 -11 38 -5 7 -19 26 -29 44 -11 18 -29 38
-42 46 -13 8 -41 17 -63 19z"/>
<path d="M150 487 c-8 1 -25 -2 -37 -7 -12 -5 -29 -23 -38 -40 -13 -24 -20
-29 -39 -24 -13 3 -27 1 -30 -5 -4 -6 5 -32 19 -58 14 -26 25 -57 25 -69 0
-11 9 -50 21 -85 11 -35 32 -78 45 -96 13 -17 31 -38 40 -47 8 -9 23 -16 32
-16 9 0 40 30 67 66 28 37 58 79 67 94 9 16 22 46 28 68 10 32 10 44 -4 70 -9
18 -30 39 -46 47 -17 9 -45 16 -64 17 -28 1 -36 7 -52 42 -10 23 -26 42 -34
43z m-13 -61 c8 -15 12 -34 9 -42 -3 -8 -15 -14 -26 -14 -11 0 -23 7 -26 15
-4 8 2 27 11 42 18 26 18 26 32 -1z m119 -76 c28 0 35 -4 40 -25 4 -15 -1 -44
-11 -70 -9 -25 -36 -66 -60 -92 -43 -48 -43 -48 -65 -28 -12 11 -30 36 -40 55
-9 19 -20 52 -23 72 -5 31 -2 40 16 53 12 8 27 15 34 15 9 0 13 -15 13 -44 0
-26 6 -48 14 -55 12 -10 17 -8 25 8 6 11 11 30 11 43 0 13 3 33 6 46 5 17 14
22 40 22z"/>
<path d="M355 70 c-7 0 -18 -6 -24 -13 -6 -8 -8 -17 -4 -20 3 -4 16 -7 28 -7
12 0 25 3 28 7 4 3 2 12 -4 20 -6 7 -17 13 -24 13z"/>
</g>
</svg>
