<?xml version="1.0" standalone="no"?>
<!DOCTYPE svg PUBLIC "-//W3C//DTD SVG 20010904//EN"
 "http://www.w3.org/TR/2001/REC-SVG-20010904/DTD/svg10.dtd">
<svg version="1.0" xmlns="http://www.w3.org/2000/svg"
 width="56.000000pt" height="56.000000pt" viewBox="0 0 56.000000 56.000000"
 preserveAspectRatio="xMidYMid meet">
<metadata>
Created by potrace 1.16, written by Peter Selinger 2001-2019
</metadata>
<g transform="translate(0.000000,56.000000) scale(0.100000,-0.100000)"
fill="#000000" stroke="none">
<path d="M285 534 c-12 7 -42 10 -74 6 -30 -3 -56 -11 -59 -17 -2 -7 3 -16 12
-19 9 -3 16 -15 16 -26 0 -11 -17 -43 -37 -72 -21 -28 -49 -61 -63 -72 -21
-19 -23 -26 -15 -50 6 -16 21 -34 33 -40 19 -9 30 -8 54 4 17 8 43 29 59 46
15 17 36 48 45 69 10 21 24 37 34 37 9 0 31 -17 49 -37 18 -21 37 -49 43 -62
5 -14 6 -43 2 -66 -3 -22 -19 -58 -34 -80 -15 -22 -46 -55 -68 -73 -23 -17
-52 -36 -66 -42 -15 -5 -26 -16 -26 -25 0 -12 12 -15 55 -15 35 0 71 8 100 21
24 11 61 39 81 61 20 22 42 55 50 74 8 18 14 57 14 86 -1 29 -7 70 -14 91 -8
21 -22 47 -32 58 -9 10 -28 19 -41 19 -13 0 -39 6 -58 14 -30 13 -34 19 -37
57 -2 29 -9 45 -23 53z"/>
</g>
</svg>
