<?xml version="1.0" standalone="no"?>
<!DOCTYPE svg PUBLIC "-//W3C//DTD SVG 20010904//EN"
 "http://www.w3.org/TR/2001/REC-SVG-20010904/DTD/svg10.dtd">
<svg version="1.0" xmlns="http://www.w3.org/2000/svg"
 width="56.000000pt" height="56.000000pt" viewBox="0 0 56.000000 56.000000"
 preserveAspectRatio="xMidYMid meet">
<metadata>
Created by potrace 1.16, written by Peter Selinger 2001-2019
</metadata>
<g transform="translate(0.000000,56.000000) scale(0.100000,-0.100000)"
fill="#000000" stroke="none">
<path d="M245 560 c-26 0 -27 -2 -22 -37 4 -24 16 -45 31 -56 17 -12 22 -23
18 -40 -3 -12 -14 -28 -24 -35 -13 -10 -18 -23 -16 -44 2 -25 10 -33 42 -46
37 -15 39 -14 55 7 13 17 19 19 29 9 6 -6 12 -22 12 -35 0 -13 -5 -23 -10 -23
-6 0 -24 -22 -40 -49 -17 -27 -37 -52 -45 -55 -9 -3 -20 -17 -25 -31 -5 -14
-14 -25 -20 -25 -6 0 -22 -13 -36 -30 -14 -16 -31 -27 -38 -24 -8 3 -26 -6
-41 -20 -28 -26 -28 -26 1 -26 16 0 38 7 48 15 11 8 30 15 41 15 12 0 30 9 40
20 10 11 26 20 35 20 10 0 30 18 45 41 23 33 33 39 52 34 16 -4 25 -1 29 9 3
9 14 18 24 21 11 3 20 19 23 40 4 21 0 50 -9 71 -10 24 -20 34 -30 30 -10 -4
-14 2 -14 18 0 13 -7 27 -16 30 -9 3 -27 6 -40 6 -17 0 -27 8 -34 26 -7 19 -7
31 1 40 9 11 7 22 -5 49 -9 19 -23 35 -31 35 -8 0 -11 7 -8 20 4 16 0 20 -22
20z"/>
<path d="M189 300 c-14 0 -19 -7 -19 -30 0 -19 5 -30 14 -30 7 0 19 6 25 14 6
7 9 21 5 30 -3 9 -15 16 -25 16z"/>
</g>
</svg>
