<?xml version="1.0" standalone="no"?>
<!DOCTYPE svg PUBLIC "-//W3C//DTD SVG 20010904//EN"
 "http://www.w3.org/TR/2001/REC-SVG-20010904/DTD/svg10.dtd">
<svg version="1.0" xmlns="http://www.w3.org/2000/svg"
 width="56.000000pt" height="56.000000pt" viewBox="0 0 56.000000 56.000000"
 preserveAspectRatio="xMidYMid meet">
<metadata>
Created by potrace 1.16, written by Peter Selinger 2001-2019
</metadata>
<g transform="translate(0.000000,56.000000) scale(0.100000,-0.100000)"
fill="#000000" stroke="none">
<path d="M313 560 c-25 -1 -32 -9 -57 -65 -15 -35 -37 -73 -47 -83 -12 -13
-26 -18 -40 -15 -12 4 -25 0 -30 -8 -5 -8 -9 -25 -9 -39 0 -14 -8 -48 -19 -77
-10 -28 -15 -57 -11 -64 7 -10 14 -10 38 0 17 7 52 35 78 63 42 44 51 49 78
44 17 -3 42 -18 55 -33 19 -22 23 -35 19 -78 -3 -30 -14 -67 -27 -88 -15 -24
-39 -44 -72 -59 -27 -13 -49 -26 -49 -29 0 -3 16 -11 36 -17 25 -7 44 -7 67 0
18 6 42 20 55 31 12 12 34 45 48 74 21 42 25 61 19 90 -4 21 -14 49 -22 63 -8
14 -29 34 -46 46 -18 11 -51 26 -74 32 -24 7 -43 18 -43 25 0 7 12 33 28 58
15 24 33 57 40 72 6 15 12 34 12 42 0 10 -10 15 -27 15z"/>
</g>
</svg>
