<?xml version="1.0" standalone="no"?>
<!DOCTYPE svg PUBLIC "-//W3C//DTD SVG 20010904//EN"
 "http://www.w3.org/TR/2001/REC-SVG-20010904/DTD/svg10.dtd">
<svg version="1.0" xmlns="http://www.w3.org/2000/svg"
 width="56.000000pt" height="56.000000pt" viewBox="0 0 56.000000 56.000000"
 preserveAspectRatio="xMidYMid meet">
<metadata>
Created by potrace 1.16, written by Peter Selinger 2001-2019
</metadata>
<g transform="translate(0.000000,56.000000) scale(0.100000,-0.100000)"
fill="#000000" stroke="none">
<path d="M441 560 c-51 0 -61 -3 -66 -20 -3 -11 -11 -20 -16 -20 -6 0 -38 -24
-72 -52 -33 -29 -78 -70 -99 -91 -28 -29 -38 -47 -38 -70 0 -23 9 -41 30 -61
31 -28 31 -28 71 0 22 15 42 31 45 36 3 4 14 8 24 8 10 0 25 -9 33 -20 7 -10
25 -24 40 -29 15 -6 27 -17 27 -24 0 -7 -6 -21 -12 -30 -7 -9 -33 -27 -58 -40
-25 -13 -55 -29 -65 -34 -11 -6 -37 -19 -57 -29 -21 -10 -38 -24 -38 -32 0
-10 -5 -10 -21 -1 -15 8 -24 8 -32 0 -6 -6 -19 -11 -29 -11 -10 0 -32 -9 -50
-21 -33 -21 -33 -21 67 -16 55 2 111 9 125 15 14 6 50 18 81 27 38 11 67 27
91 53 19 20 42 48 52 62 9 13 16 40 16 60 0 27 -9 45 -40 78 -25 27 -48 42
-63 42 -14 0 -35 8 -48 18 -22 19 -22 19 11 60 18 23 42 45 54 48 12 4 38 24
59 44 20 21 37 40 37 44 0 3 -27 6 -59 6z"/>
</g>
</svg>
