<?xml version="1.0" standalone="no"?>
<!DOCTYPE svg PUBLIC "-//W3C//DTD SVG 20010904//EN"
 "http://www.w3.org/TR/2001/REC-SVG-20010904/DTD/svg10.dtd">
<svg version="1.0" xmlns="http://www.w3.org/2000/svg"
 width="56.000000pt" height="56.000000pt" viewBox="0 0 56.000000 56.000000"
 preserveAspectRatio="xMidYMid meet">
<metadata>
Created by potrace 1.16, written by Peter Selinger 2001-2019
</metadata>
<g transform="translate(0.000000,56.000000) scale(0.100000,-0.100000)"
fill="#000000" stroke="none">
<path d="M140 560 c-5 0 -10 -8 -10 -17 0 -10 -5 -50 -10 -88 -6 -45 -22 -99
-44 -147 -20 -42 -36 -83 -36 -92 0 -9 8 -20 17 -23 12 -5 36 14 88 70 52 55
79 77 96 77 13 0 41 -11 60 -24 20 -14 50 -47 68 -74 17 -27 31 -61 31 -76 0
-21 -13 -40 -52 -76 -40 -37 -64 -51 -107 -60 -31 -7 -60 -17 -66 -22 -6 -6
24 -7 75 -4 47 2 96 5 109 5 13 1 41 6 62 11 21 6 47 22 58 37 13 16 21 41 21
64 0 21 -9 63 -21 93 -11 31 -36 75 -56 98 -19 24 -52 52 -72 62 -23 13 -57
20 -96 20 -60 1 -60 1 -57 56 2 47 -1 59 -22 83 -14 15 -30 27 -36 27z"/>
</g>
</svg>
