<?xml version="1.0" standalone="no"?>
<!DOCTYPE svg PUBLIC "-//W3C//DTD SVG 20010904//EN"
 "http://www.w3.org/TR/2001/REC-SVG-20010904/DTD/svg10.dtd">
<svg version="1.0" xmlns="http://www.w3.org/2000/svg"
 width="56.000000pt" height="56.000000pt" viewBox="0 0 56.000000 56.000000"
 preserveAspectRatio="xMidYMid meet">
<metadata>
Created by potrace 1.16, written by Peter Selinger 2001-2019
</metadata>
<g transform="translate(0.000000,56.000000) scale(0.100000,-0.100000)"
fill="#000000" stroke="none">
<path d="M231 540 c-4 0 -11 -3 -14 -7 -4 -3 -7 -25 -7 -47 0 -23 -6 -57 -13
-76 -7 -19 -20 -49 -30 -67 -9 -18 -17 -41 -17 -53 0 -11 7 -23 15 -26 9 -4
30 7 51 26 33 28 38 30 53 16 9 -8 25 -38 35 -67 16 -42 18 -67 12 -145 -6
-94 -6 -94 34 -94 38 0 40 2 42 33 1 17 3 59 4 92 1 33 -4 79 -12 103 -8 24
-21 58 -30 75 -9 18 -31 46 -50 64 -28 26 -34 39 -34 73 0 23 -7 54 -15 70 -9
17 -19 30 -24 30z"/>
</g>
</svg>
