<?xml version="1.0" standalone="no"?>
<!DOCTYPE svg PUBLIC "-//W3C//DTD SVG 20010904//EN"
 "http://www.w3.org/TR/2001/REC-SVG-20010904/DTD/svg10.dtd">
<svg version="1.0" xmlns="http://www.w3.org/2000/svg"
 width="56.000000pt" height="56.000000pt" viewBox="0 0 56.000000 56.000000"
 preserveAspectRatio="xMidYMid meet">
<metadata>
Created by potrace 1.16, written by Peter Selinger 2001-2019
</metadata>
<g transform="translate(0.000000,56.000000) scale(0.100000,-0.100000)"
fill="#000000" stroke="none">
<path d="M158 450 c-3 0 -10 -6 -16 -13 -7 -7 -9 -29 -6 -49 4 -21 2 -38 -5
-42 -6 -4 -20 -2 -31 4 -14 8 -26 8 -40 0 -11 -6 -20 -17 -20 -24 0 -8 7 -17
16 -20 9 -3 24 -6 35 -6 12 0 19 -7 19 -18 0 -11 -9 -27 -20 -37 -11 -10 -20
-24 -20 -30 0 -7 -9 -24 -20 -38 -11 -14 -20 -35 -20 -46 0 -14 6 -21 18 -21
12 0 25 14 36 38 9 20 28 57 41 82 14 25 25 53 25 62 0 10 9 22 19 28 11 5 29
10 40 10 16 0 21 -6 21 -29 0 -16 -11 -53 -24 -83 -14 -31 -37 -64 -52 -75
-18 -14 -25 -26 -21 -37 4 -9 14 -16 24 -15 10 0 30 15 45 33 15 19 41 59 58
91 16 31 30 70 30 85 0 15 -6 33 -13 39 -8 6 -28 14 -45 17 -27 5 -32 11 -32
34 0 15 -8 34 -18 43 -10 10 -21 17 -24 17z"/>
<path d="M428 360 c-3 0 -8 -3 -11 -7 -4 -3 -7 -13 -7 -22 0 -9 14 -22 30 -29
20 -9 30 -21 30 -36 0 -12 -10 -32 -23 -44 -13 -12 -27 -22 -32 -22 -4 0 -30
-17 -57 -37 -39 -30 -48 -43 -46 -63 2 -17 9 -25 23 -25 14 0 21 8 23 27 2 16
7 28 11 28 5 0 35 15 67 34 33 19 68 41 78 48 16 12 18 22 12 59 -6 41 -11 48
-50 67 -24 12 -45 22 -48 22z"/>
</g>
</svg>
