<?xml version="1.0" standalone="no"?>
<!DOCTYPE svg PUBLIC "-//W3C//DTD SVG 20010904//EN"
 "http://www.w3.org/TR/2001/REC-SVG-20010904/DTD/svg10.dtd">
<svg version="1.0" xmlns="http://www.w3.org/2000/svg"
 width="56.000000pt" height="56.000000pt" viewBox="0 0 56.000000 56.000000"
 preserveAspectRatio="xMidYMid meet">
<metadata>
Created by potrace 1.16, written by Peter Selinger 2001-2019
</metadata>
<g transform="translate(0.000000,56.000000) scale(0.100000,-0.100000)"
fill="#000000" stroke="none">
<path d="M472 518 c-9 -1 -34 -3 -54 -5 -27 -3 -38 -9 -38 -21 0 -9 -8 -30
-19 -47 -10 -16 -43 -56 -74 -88 -45 -46 -61 -57 -77 -52 -12 4 -31 0 -44 -9
-14 -8 -26 -29 -30 -48 -5 -25 -15 -38 -43 -53 -20 -11 -50 -31 -65 -43 -15
-13 -28 -32 -28 -43 0 -13 7 -19 24 -19 14 0 53 16 86 36 45 26 69 34 88 30
15 -3 41 -8 57 -11 24 -5 36 -18 55 -53 17 -32 32 -48 48 -50 21 -3 23 0 20
35 -3 38 -3 38 60 43 53 4 67 9 83 30 10 14 23 30 29 37 5 7 10 19 10 28 0 8
-11 28 -25 44 -14 15 -44 34 -67 42 -38 12 -46 11 -117 -14 -42 -15 -80 -27
-85 -27 -4 0 -6 6 -4 14 2 7 26 32 53 56 28 23 80 71 117 107 37 36 65 69 62
74 -3 5 -13 8 -22 7z m-32 -259 c14 0 31 -3 38 -8 8 -4 12 -19 10 -32 -2 -17
-17 -31 -48 -46 -24 -13 -58 -23 -75 -23 -23 0 -34 7 -47 30 -15 26 -15 31 -2
45 9 8 25 17 37 20 12 2 31 6 42 8 11 3 31 5 45 6z m-196 -69 c9 0 19 -7 23
-15 3 -9 3 -18 1 -20 -3 -3 -13 4 -23 15 -17 18 -17 20 -1 20z"/>
<path d="M120 507 c-33 1 -62 -3 -65 -7 -3 -5 -2 -16 1 -27 4 -10 15 -37 26
-60 10 -24 25 -43 33 -43 8 0 26 20 40 43 14 24 25 55 25 69 0 24 -3 25 -60
25z"/>
<path d="M230 99 c-8 0 -21 -3 -28 -6 -9 -3 2 -14 28 -29 23 -13 46 -24 51
-24 5 0 9 6 9 14 0 8 -10 22 -22 30 -12 9 -29 16 -38 15z"/>
</g>
</svg>
