<?xml version="1.0" standalone="no"?>
<!DOCTYPE svg PUBLIC "-//W3C//DTD SVG 20010904//EN"
 "http://www.w3.org/TR/2001/REC-SVG-20010904/DTD/svg10.dtd">
<svg version="1.0" xmlns="http://www.w3.org/2000/svg"
 width="56.000000pt" height="56.000000pt" viewBox="0 0 56.000000 56.000000"
 preserveAspectRatio="xMidYMid meet">
<metadata>
Created by potrace 1.16, written by Peter Selinger 2001-2019
</metadata>
<g transform="translate(0.000000,56.000000) scale(0.100000,-0.100000)"
fill="#000000" stroke="none">
<path d="M311 560 c-5 0 -14 -6 -20 -14 -7 -8 -37 -27 -68 -42 -56 -29 -56
-29 -84 6 -16 18 -31 31 -34 28 -4 -3 3 -23 14 -45 10 -21 25 -46 33 -56 13
-17 15 -16 47 8 19 13 37 23 39 20 3 -3 -1 -13 -9 -22 -8 -10 -22 -32 -31 -49
-15 -27 -15 -34 -4 -50 12 -16 17 -17 39 -5 14 8 29 20 32 29 3 8 0 21 -6 29
-10 11 -5 22 26 53 22 22 47 42 57 46 10 3 18 12 18 21 0 8 -9 17 -20 20 -11
3 -20 9 -20 14 0 5 -4 9 -9 9z"/>
<path d="M501 420 c-11 0 -22 -4 -25 -9 -3 -4 3 -16 13 -25 9 -9 21 -13 24 -9
4 3 7 15 7 25 0 11 -7 18 -19 18z"/>
<path d="M330 410 c-4 0 -10 -3 -13 -7 -4 -3 -7 -21 -7 -39 0 -24 -4 -31 -17
-30 -13 1 -19 -8 -21 -31 -2 -20 -12 -39 -25 -48 -12 -8 -29 -15 -38 -15 -12
0 -16 10 -15 41 1 24 -4 44 -11 46 -7 3 -15 -10 -18 -31 -4 -19 -13 -37 -21
-40 -8 -3 -14 -14 -14 -24 0 -16 10 -21 52 -26 42 -6 55 -4 64 8 6 9 16 16 23
16 6 0 11 -4 11 -10 0 -5 -4 -10 -10 -10 -5 0 -10 -7 -10 -15 0 -9 7 -18 15
-21 8 -4 15 -12 15 -20 0 -8 3 -14 8 -14 4 0 13 -4 20 -8 9 -7 10 -15 3 -35
-7 -17 -18 -27 -31 -27 -11 0 -20 -6 -20 -14 0 -8 -5 -18 -11 -22 -7 -4 -16 1
-21 10 -5 9 -21 16 -36 17 -27 1 -27 1 -2 10 14 5 35 24 48 42 12 18 22 37 22
41 0 5 -11 6 -24 2 -16 -4 -29 0 -41 14 -9 10 -31 22 -48 26 -23 5 -34 2 -43
-11 -8 -10 -11 -21 -9 -26 3 -4 -5 -27 -18 -51 -14 -24 -22 -48 -20 -54 2 -6
-3 -17 -12 -24 -8 -7 -15 -16 -15 -21 0 -5 8 -9 19 -9 10 0 24 7 31 15 8 10
30 15 65 15 35 0 57 -5 65 -15 7 -8 21 -15 31 -15 11 0 19 4 19 9 0 6 24 11
53 13 45 3 52 6 55 25 2 14 -4 27 -17 35 -12 7 -21 16 -21 20 0 3 19 9 41 13
23 4 61 16 84 26 24 10 45 26 49 34 3 8 -1 18 -9 22 -7 5 -17 23 -22 42 -5 19
-20 43 -34 53 -21 16 -30 17 -55 7 -20 -8 -25 -13 -14 -17 8 -3 29 -17 47 -33
25 -22 29 -30 20 -42 -7 -7 -29 -24 -49 -36 -38 -22 -38 -22 -47 1 -5 13 -12
31 -15 41 -4 12 -12 16 -24 13 -16 -5 -18 -1 -16 36 0 24 2 46 3 50 0 3 10 4
21 1 16 -4 20 0 20 18 1 22 2 22 11 6 8 -14 14 -16 25 -6 8 6 14 17 14 24 0 8
-12 23 -26 34 -15 12 -30 21 -34 21z m-149 -255 c23 -28 23 -28 -7 -51 -16
-13 -33 -24 -39 -24 -5 0 -10 14 -11 30 -1 18 4 30 11 30 7 0 15 10 18 22 6
21 7 21 28 -7z"/>
<path d="M352 280 c-5 0 -12 -3 -15 -6 -4 -4 -4 -11 -1 -15 3 -5 9 -9 15 -9 5
0 9 7 9 15 0 8 -4 15 -8 15z"/>
</g>
</svg>
