<?xml version="1.0" standalone="no"?>
<!DOCTYPE svg PUBLIC "-//W3C//DTD SVG 20010904//EN"
 "http://www.w3.org/TR/2001/REC-SVG-20010904/DTD/svg10.dtd">
<svg version="1.0" xmlns="http://www.w3.org/2000/svg"
 width="56.000000pt" height="56.000000pt" viewBox="0 0 56.000000 56.000000"
 preserveAspectRatio="xMidYMid meet">
<metadata>
Created by potrace 1.16, written by Peter Selinger 2001-2019
</metadata>
<g transform="translate(0.000000,56.000000) scale(0.100000,-0.100000)"
fill="#000000" stroke="none">
<path d="M281 460 c-4 0 -25 -15 -47 -32 -21 -18 -53 -43 -69 -56 -17 -12 -48
-36 -69 -52 -22 -17 -50 -46 -63 -65 -13 -19 -26 -48 -29 -65 -6 -27 -4 -30
18 -30 14 0 36 9 50 20 14 10 45 26 69 34 41 14 45 14 64 -4 12 -11 35 -20 53
-20 18 0 32 -5 32 -11 0 -5 -13 -24 -30 -42 -16 -18 -30 -35 -30 -39 0 -5 10
-8 23 -7 15 0 32 15 52 46 31 46 32 47 110 60 44 8 93 17 110 21 16 5 31 15
33 24 2 9 -5 26 -15 39 -10 12 -26 30 -35 41 -13 12 -32 18 -64 18 -25 0 -54
5 -65 10 -10 6 -19 18 -19 27 0 8 -16 31 -36 49 -19 19 -39 34 -43 34z m3 -70
c7 0 22 -10 34 -23 12 -12 18 -27 14 -33 -4 -6 -22 -16 -41 -22 -19 -7 -40
-12 -47 -12 -8 0 -14 4 -14 9 0 6 9 26 21 45 12 20 26 36 33 36z m-76 -41 c6
1 12 -8 12 -20 0 -11 -4 -29 -10 -39 -6 -11 -34 -26 -66 -35 -31 -9 -61 -14
-66 -13 -6 2 18 27 53 55 35 29 70 52 77 52z m211 -45 c20 -4 39 -9 44 -11 4
-2 7 -7 7 -11 0 -4 -13 -15 -29 -25 -16 -9 -39 -17 -50 -17 -16 0 -21 6 -21
28 0 16 3 32 7 35 4 4 23 4 42 1z m-101 -14 c15 0 22 -6 22 -18 0 -10 -5 -23
-12 -30 -7 -7 -28 -12 -47 -12 -20 0 -42 4 -50 9 -11 7 -5 14 25 30 21 11 49
20 62 21z"/>
</g>
</svg>
