<?xml version="1.0" standalone="no"?>
<!DOCTYPE svg PUBLIC "-//W3C//DTD SVG 20010904//EN"
 "http://www.w3.org/TR/2001/REC-SVG-20010904/DTD/svg10.dtd">
<svg version="1.0" xmlns="http://www.w3.org/2000/svg"
 width="56.000000pt" height="56.000000pt" viewBox="0 0 56.000000 56.000000"
 preserveAspectRatio="xMidYMid meet">
<metadata>
Created by potrace 1.16, written by Peter Selinger 2001-2019
</metadata>
<g transform="translate(0.000000,56.000000) scale(0.100000,-0.100000)"
fill="#000000" stroke="none">
<path d="M290 499 c-3 -1 -17 -8 -32 -16 -16 -8 -28 -20 -28 -26 0 -7 -9 -18
-20 -25 -11 -6 -27 -29 -35 -49 -9 -21 -23 -45 -32 -55 -9 -10 -27 -18 -40
-18 -14 0 -23 6 -23 15 0 8 9 30 20 50 11 20 20 38 20 40 0 3 -5 5 -10 5 -6 0
-24 -12 -40 -27 -17 -14 -30 -31 -30 -38 0 -6 -9 -28 -20 -50 -11 -22 -20 -50
-20 -62 0 -13 6 -26 13 -29 7 -2 40 11 72 31 33 19 64 34 70 32 5 -2 12 -19
15 -38 5 -34 5 -34 63 -32 48 2 57 -1 57 -16 0 -9 -13 -38 -30 -64 -17 -26
-30 -54 -30 -62 0 -10 10 -15 28 -15 22 0 34 9 55 40 14 22 31 57 38 77 8 21
14 39 15 41 1 1 34 11 75 22 41 11 84 26 97 32 12 6 22 20 22 30 0 10 -16 33
-36 51 -20 18 -50 40 -67 49 -17 10 -40 15 -51 12 -17 -4 -24 2 -33 25 -6 17
-26 39 -44 50 -19 12 -36 20 -39 20z m11 -59 c3 0 10 -5 17 -12 7 -7 12 -18
12 -25 0 -8 -10 -17 -22 -22 -13 -5 -38 -12 -56 -16 -31 -6 -33 -5 -30 16 2
16 15 30 38 41 19 9 37 17 41 18z m132 -76 c7 -4 22 -16 35 -27 12 -11 22 -26
22 -33 0 -7 -8 -15 -17 -18 -10 -3 -36 -8 -57 -12 -39 -7 -39 -7 -32 22 4 16
14 39 22 52 9 13 20 20 27 16z m-110 -25 c21 1 27 -4 27 -19 0 -12 -7 -34 -15
-50 -14 -28 -18 -29 -75 -27 -58 1 -60 2 -60 29 0 15 6 30 13 35 6 4 28 13 47
19 19 7 47 12 63 13z"/>
</g>
</svg>
