<?xml version="1.0" standalone="no"?>
<!DOCTYPE svg PUBLIC "-//W3C//DTD SVG 20010904//EN"
 "http://www.w3.org/TR/2001/REC-SVG-20010904/DTD/svg10.dtd">
<svg version="1.0" xmlns="http://www.w3.org/2000/svg"
 width="56.000000pt" height="56.000000pt" viewBox="0 0 56.000000 56.000000"
 preserveAspectRatio="xMidYMid meet">
<metadata>
Created by potrace 1.16, written by Peter Selinger 2001-2019
</metadata>
<g transform="translate(0.000000,56.000000) scale(0.100000,-0.100000)"
fill="#000000" stroke="none">
<path d="M333 420 c-16 0 -30 -11 -43 -32 -11 -18 -20 -36 -20 -39 0 -3 -59
-12 -130 -19 -72 -7 -133 -16 -135 -20 -3 -4 3 -14 13 -22 9 -8 27 -18 39 -21
13 -3 40 -1 60 5 21 5 54 13 73 17 20 4 40 6 46 4 6 -2 9 -15 6 -28 -4 -23 -1
-25 34 -25 22 0 44 -4 49 -8 6 -4 10 -27 10 -51 0 -35 4 -45 21 -51 11 -5 26
-5 33 0 10 6 10 12 0 28 -10 15 -10 29 -3 49 8 25 15 28 59 31 28 1 65 4 83 7
22 4 32 11 32 24 0 9 -13 30 -29 45 -18 17 -44 30 -69 33 -28 4 -50 15 -73 39
-19 19 -43 34 -56 34z m-1 -42 c6 -2 13 -9 15 -15 2 -6 -3 -13 -12 -16 -10 -5
-15 0 -15 14 0 12 5 19 12 17z m18 -61 c18 -2 25 -8 25 -22 0 -17 -7 -20 -40
-20 -29 0 -41 4 -43 17 -2 9 5 18 15 21 10 3 29 4 43 4z m100 3 c5 0 12 -5 16
-11 3 -6 2 -15 -4 -21 -5 -5 -20 -8 -33 -6 -22 3 -22 4 -5 21 10 9 21 17 26
17z"/>
</g>
</svg>
