<?xml version="1.0" standalone="no"?>
<!DOCTYPE svg PUBLIC "-//W3C//DTD SVG 20010904//EN"
 "http://www.w3.org/TR/2001/REC-SVG-20010904/DTD/svg10.dtd">
<svg version="1.0" xmlns="http://www.w3.org/2000/svg"
 width="56.000000pt" height="56.000000pt" viewBox="0 0 56.000000 56.000000"
 preserveAspectRatio="xMidYMid meet">
<metadata>
Created by potrace 1.16, written by Peter Selinger 2001-2019
</metadata>
<g transform="translate(0.000000,56.000000) scale(0.100000,-0.100000)"
fill="#000000" stroke="none">
<path d="M253 480 c-16 -1 -38 -6 -51 -13 -13 -7 -30 -26 -39 -43 -9 -16 -16
-42 -17 -59 -1 -26 -6 -30 -41 -37 -22 -5 -44 -13 -49 -18 -6 -6 -18 -10 -27
-10 -10 0 -21 -5 -25 -11 -3 -6 1 -18 10 -27 11 -12 35 -16 83 -17 66 0 67 -1
75 -30 6 -25 16 -33 55 -45 42 -13 48 -18 45 -40 -1 -14 -7 -26 -12 -28 -6 -2
-10 -12 -10 -23 0 -14 7 -19 29 -19 22 0 35 9 55 38 14 21 26 45 26 54 0 9 4
19 8 22 5 3 37 10 73 15 47 8 69 16 81 33 10 13 22 28 28 35 5 7 10 21 10 33
0 11 -6 20 -13 20 -8 0 -24 11 -37 25 -13 14 -31 25 -40 25 -9 0 -20 -3 -23
-7 -4 -3 7 -19 25 -33 32 -27 32 -27 0 -59 -23 -24 -39 -32 -59 -29 -28 3 -28
3 -29 82 0 53 -4 81 -12 84 -7 2 -12 10 -12 18 0 7 -18 25 -40 39 -22 14 -52
25 -67 25z m-13 -60 c9 0 31 -7 49 -16 17 -8 29 -20 26 -25 -4 -5 -13 -9 -21
-9 -8 0 -23 -5 -33 -12 -10 -6 -26 -8 -35 -5 -9 4 -16 17 -16 30 0 13 3 27 7
30 3 4 14 7 23 7z m66 -110 c7 0 15 -3 17 -7 3 -5 2 -26 -2 -48 -4 -27 -12
-41 -24 -43 -10 -2 -27 4 -38 14 -10 9 -19 22 -19 28 0 6 12 21 27 33 14 13
32 23 39 23z"/>
</g>
</svg>
