<?xml version="1.0" standalone="no"?>
<!DOCTYPE svg PUBLIC "-//W3C//DTD SVG 20010904//EN"
 "http://www.w3.org/TR/2001/REC-SVG-20010904/DTD/svg10.dtd">
<svg version="1.0" xmlns="http://www.w3.org/2000/svg"
 width="56.000000pt" height="56.000000pt" viewBox="0 0 56.000000 56.000000"
 preserveAspectRatio="xMidYMid meet">
<metadata>
Created by potrace 1.16, written by Peter Selinger 2001-2019
</metadata>
<g transform="translate(0.000000,56.000000) scale(0.100000,-0.100000)"
fill="#000000" stroke="none">
<path d="M132 470 c-7 19 -9 19 -27 6 -11 -9 -28 -16 -37 -16 -10 0 -18 -6
-18 -13 0 -8 3 -17 7 -20 3 -4 16 -1 28 7 21 14 23 13 34 -10 6 -14 11 -31 11
-38 0 -8 -16 -16 -37 -19 -26 -5 -42 -2 -53 8 -9 8 -22 15 -28 15 -7 0 -12 -6
-12 -14 0 -7 9 -25 20 -38 11 -14 31 -26 45 -27 14 -1 35 -2 48 -2 12 -1 34 2
48 6 24 6 29 2 48 -37 11 -24 21 -50 21 -57 0 -6 9 -31 20 -53 11 -23 20 -46
20 -50 0 -5 8 -20 17 -34 16 -25 17 -25 30 -8 7 10 13 30 13 45 0 14 -9 38
-20 52 -11 14 -20 31 -20 37 0 9 10 10 33 5 17 -4 50 -9 72 -12 22 -3 48 -5
58 -5 10 1 38 11 63 22 37 18 44 26 44 51 0 16 -4 29 -8 29 -5 0 -14 11 -20
25 -6 13 -31 33 -56 45 -25 11 -52 20 -60 20 -9 0 -16 9 -16 20 0 12 -12 32
-26 45 -20 19 -37 25 -68 24 -23 -1 -52 -4 -66 -8 -18 -5 -24 -14 -23 -29 2
-12 -5 -26 -16 -31 -15 -8 -20 -5 -29 14 -7 14 -16 25 -22 25 -6 0 -14 9 -18
20z m135 -45 c21 -4 41 -9 46 -12 4 -2 5 -9 2 -14 -4 -5 -24 -9 -46 -9 -33 0
-39 3 -39 21 0 19 4 21 37 14z m89 -76 c39 1 85 -4 103 -10 24 -9 31 -16 29
-33 -2 -11 -16 -27 -33 -35 -16 -8 -57 -17 -90 -19 -55 -4 -64 -1 -93 23 -18
15 -32 33 -32 41 0 8 10 19 23 24 12 5 54 9 93 9z"/>
</g>
</svg>
