<?xml version="1.0" standalone="no"?>
<!DOCTYPE svg PUBLIC "-//W3C//DTD SVG 20010904//EN"
 "http://www.w3.org/TR/2001/REC-SVG-20010904/DTD/svg10.dtd">
<svg version="1.0" xmlns="http://www.w3.org/2000/svg"
 width="56.000000pt" height="56.000000pt" viewBox="0 0 56.000000 56.000000"
 preserveAspectRatio="xMidYMid meet">
<metadata>
Created by potrace 1.16, written by Peter Selinger 2001-2019
</metadata>
<g transform="translate(0.000000,56.000000) scale(0.100000,-0.100000)"
fill="#000000" stroke="none">
<path d="M259 560 c-23 0 -38 -6 -44 -18 -6 -10 -19 -33 -30 -51 -11 -19 -43
-57 -71 -85 -29 -28 -67 -63 -85 -77 -33 -26 -33 -26 13 -47 25 -11 48 -25 52
-31 4 -6 11 -37 16 -68 7 -42 16 -62 32 -73 12 -8 36 -15 52 -15 27 0 31 -3
28 -25 -2 -14 -5 -32 -5 -40 -2 -10 7 -15 28 -15 23 0 33 6 43 30 7 17 21 45
30 64 12 24 28 37 57 46 22 7 54 15 72 18 17 4 50 19 72 34 22 15 40 36 41 45
0 9 -17 35 -39 57 -33 33 -47 40 -95 46 -30 4 -66 5 -79 1 -20 -5 -28 2 -51
37 -21 31 -26 50 -23 72 3 16 9 45 13 63 6 31 6 32 -27 32z m-38 -260 c9 0 22
-6 28 -14 7 -8 11 -36 9 -63 -3 -42 -6 -49 -31 -58 -24 -8 -31 -6 -40 10 -7
11 -17 37 -23 58 -11 36 -11 38 14 52 15 8 34 14 43 15z m136 0 c13 0 37 -7
52 -15 16 -8 31 -21 34 -29 4 -9 -1 -20 -11 -25 -9 -5 -33 -13 -54 -19 -25 -7
-39 -7 -47 1 -6 6 -11 25 -11 42 0 18 3 35 7 38 3 4 17 7 30 7z"/>
</g>
</svg>
