<?xml version="1.0" standalone="no"?>
<!DOCTYPE svg PUBLIC "-//W3C//DTD SVG 20010904//EN"
 "http://www.w3.org/TR/2001/REC-SVG-20010904/DTD/svg10.dtd">
<svg version="1.0" xmlns="http://www.w3.org/2000/svg"
 width="56.000000pt" height="56.000000pt" viewBox="0 0 56.000000 56.000000"
 preserveAspectRatio="xMidYMid meet">
<metadata>
Created by potrace 1.16, written by Peter Selinger 2001-2019
</metadata>
<g transform="translate(0.000000,56.000000) scale(0.100000,-0.100000)"
fill="#000000" stroke="none">
<path d="M292 460 c-41 0 -54 -4 -66 -22 -9 -12 -16 -37 -16 -54 0 -17 -6 -36
-13 -42 -6 -6 -25 -14 -42 -18 -16 -4 -47 -20 -69 -35 -29 -19 -45 -24 -53
-17 -7 5 -17 7 -23 3 -5 -3 -10 -12 -10 -19 0 -7 8 -20 18 -28 9 -9 32 -16 51
-16 19 0 47 8 62 19 15 10 31 19 36 19 5 0 14 -5 20 -11 9 -9 9 -16 0 -30 -8
-12 -8 -22 -1 -29 6 -6 29 -6 64 -1 30 5 59 6 63 1 5 -4 2 -23 -6 -43 -9 -19
-13 -38 -9 -41 3 -3 12 -6 21 -6 9 0 27 17 41 38 14 20 28 44 31 52 4 9 32 21
69 28 34 7 71 19 81 25 11 7 19 17 19 24 0 6 -24 34 -52 62 -29 29 -69 59 -90
68 -21 9 -38 20 -38 23 0 4 -8 17 -19 28 -14 17 -30 22 -69 22z m-25 -52 c9
-2 29 -25 44 -53 16 -27 28 -59 29 -69 0 -11 -7 -28 -17 -38 -11 -12 -30 -18
-59 -18 -38 0 -43 3 -52 29 -8 24 -7 31 5 35 8 3 25 6 38 6 12 0 26 7 29 16 3
9 6 20 6 25 0 5 -9 9 -20 9 -11 0 -23 7 -26 15 -4 8 -3 22 0 31 3 8 13 14 23
12z m143 -88 c4 0 25 -7 46 -16 39 -16 39 -16 15 -35 -13 -10 -34 -19 -47 -19
-12 0 -25 4 -29 10 -3 5 -3 21 1 35 3 14 10 25 14 25z"/>
</g>
</svg>
