<?xml version="1.0" standalone="no"?>
<!DOCTYPE svg PUBLIC "-//W3C//DTD SVG 20010904//EN"
 "http://www.w3.org/TR/2001/REC-SVG-20010904/DTD/svg10.dtd">
<svg version="1.0" xmlns="http://www.w3.org/2000/svg"
 width="56.000000pt" height="56.000000pt" viewBox="0 0 56.000000 56.000000"
 preserveAspectRatio="xMidYMid meet">
<metadata>
Created by potrace 1.16, written by Peter Selinger 2001-2019
</metadata>
<g transform="translate(0.000000,56.000000) scale(0.100000,-0.100000)"
fill="#000000" stroke="none">
<path d="M351 519 c-3 0 -18 -8 -32 -17 -14 -9 -46 -30 -71 -47 -25 -16 -61
-39 -79 -50 -18 -11 -45 -28 -59 -37 -14 -9 -39 -24 -56 -33 -17 -9 -36 -27
-43 -41 -6 -14 -11 -31 -11 -39 0 -8 4 -15 9 -15 5 0 25 7 45 15 36 15 36 15
99 -42 35 -32 77 -74 95 -93 17 -19 40 -46 51 -60 16 -20 22 -23 32 -13 10 10
10 16 1 25 -7 7 -12 20 -12 30 0 10 -6 28 -12 41 -7 12 -19 30 -26 39 -8 9
-11 22 -7 28 4 6 21 10 39 9 17 -2 60 0 96 5 36 4 73 10 83 12 9 3 17 12 17
20 0 8 11 20 25 26 16 7 25 19 25 35 0 12 -3 23 -8 23 -4 0 -12 10 -17 22 -6
12 -29 36 -53 52 -34 24 -46 28 -60 20 -12 -8 -22 -8 -34 -1 -12 8 -24 7 -43
-3 -18 -10 -28 -11 -36 -3 -8 8 -1 21 25 45 20 19 33 37 29 41 -3 4 -9 7 -12
6z m56 -130 c12 0 25 -3 28 -9 3 -5 14 -10 25 -10 10 0 21 -7 24 -16 3 -9 6
-24 6 -35 0 -10 -1 -19 -3 -19 -1 0 -27 -9 -57 -20 -30 -11 -71 -22 -91 -25
-20 -2 -49 -9 -64 -15 -18 -7 -25 -15 -21 -25 3 -9 0 -15 -9 -15 -9 0 -15 9
-15 23 0 15 -11 28 -38 42 -20 11 -37 27 -37 35 0 8 9 16 20 18 11 2 32 15 46
29 20 19 43 26 95 32 38 5 79 9 91 10z"/>
</g>
</svg>
