<?xml version="1.0" standalone="no"?>
<!DOCTYPE svg PUBLIC "-//W3C//DTD SVG 20010904//EN"
 "http://www.w3.org/TR/2001/REC-SVG-20010904/DTD/svg10.dtd">
<svg version="1.0" xmlns="http://www.w3.org/2000/svg"
 width="56.000000pt" height="56.000000pt" viewBox="0 0 56.000000 56.000000"
 preserveAspectRatio="xMidYMid meet">
<metadata>
Created by potrace 1.16, written by Peter Selinger 2001-2019
</metadata>
<g transform="translate(0.000000,56.000000) scale(0.100000,-0.100000)"
fill="#000000" stroke="none">
<path d="M372 470 c-15 0 -37 -10 -49 -22 -21 -21 -25 -21 -125 -10 -75 8
-104 8 -109 0 -4 -6 -5 -18 -1 -27 3 -9 21 -35 40 -59 35 -43 35 -43 -1 -76
-25 -22 -37 -43 -37 -60 0 -14 4 -26 10 -26 5 0 26 9 46 20 27 16 39 18 49 10
8 -6 21 -32 29 -58 9 -25 26 -56 38 -69 12 -13 27 -23 34 -23 7 0 16 5 20 11
3 6 2 21 -4 32 -5 12 -18 40 -27 62 -9 22 -23 53 -31 69 -10 22 -11 32 -3 42
6 8 22 14 35 14 12 0 25 4 28 9 3 4 32 14 64 21 45 9 64 9 81 1 11 -7 21 -16
21 -21 0 -5 -10 -15 -22 -21 -13 -7 -50 -15 -83 -18 -60 -6 -60 -6 -33 -25 15
-10 44 -18 63 -18 20 0 50 6 68 13 18 7 40 19 50 27 9 9 17 29 17 47 0 21 -9
40 -27 57 -16 15 -47 31 -70 38 -36 9 -43 15 -43 35 0 21 -5 25 -28 25z m-181
-74 c17 -3 38 -6 46 -6 9 0 13 -8 11 -22 -2 -14 -14 -26 -30 -32 -23 -8 -31
-6 -43 10 -8 10 -15 27 -15 38 0 15 5 17 31 12z"/>
</g>
</svg>
