<?xml version="1.0" standalone="no"?>
<!DOCTYPE svg PUBLIC "-//W3C//DTD SVG 20010904//EN"
 "http://www.w3.org/TR/2001/REC-SVG-20010904/DTD/svg10.dtd">
<svg version="1.0" xmlns="http://www.w3.org/2000/svg"
 width="56.000000pt" height="56.000000pt" viewBox="0 0 56.000000 56.000000"
 preserveAspectRatio="xMidYMid meet">
<metadata>
Created by potrace 1.16, written by Peter Selinger 2001-2019
</metadata>
<g transform="translate(0.000000,56.000000) scale(0.100000,-0.100000)"
fill="#000000" stroke="none">
<path d="M292 469 c-9 0 -23 -3 -29 -6 -7 -2 -13 -19 -13 -38 0 -18 -7 -38
-15 -45 -13 -11 -20 -9 -43 12 -15 14 -34 28 -43 31 -9 3 -22 0 -28 -6 -9 -9
-6 -16 10 -28 22 -17 22 -17 -19 -40 -23 -13 -44 -34 -47 -46 -3 -12 0 -34 7
-49 10 -22 10 -28 -3 -38 -8 -6 -28 -21 -43 -33 -16 -13 -26 -30 -24 -40 2
-10 10 -19 18 -21 9 -1 42 15 75 37 33 21 65 36 72 32 6 -3 33 -27 60 -52 27
-26 63 -50 79 -53 22 -5 35 -2 43 8 11 13 4 21 -39 52 -38 27 -48 39 -40 49 7
9 7 15 -2 23 -7 5 -21 11 -31 13 -10 2 -19 9 -19 14 -1 6 23 27 54 47 53 35
57 36 94 25 21 -7 63 -25 92 -42 49 -26 52 -30 36 -42 -12 -8 -50 -13 -111
-13 -54 0 -93 -4 -93 -10 0 -5 10 -12 23 -14 12 -3 59 -7 104 -10 47 -3 95 -1
113 5 25 9 30 16 29 42 0 26 -10 41 -57 79 -57 48 -57 48 -139 48 -46 0 -83 2
-83 5 0 3 5 14 10 25 6 11 14 28 18 38 5 9 7 23 5 30 -3 6 -12 12 -21 11z
m-94 -110 c7 1 15 -5 18 -13 3 -8 -2 -26 -12 -41 -9 -14 -26 -31 -36 -36 -16
-9 -25 -6 -44 12 -13 13 -20 27 -16 31 5 5 24 17 43 28 19 10 40 19 47 19z"/>
</g>
</svg>
