<?xml version="1.0" standalone="no"?>
<!DOCTYPE svg PUBLIC "-//W3C//DTD SVG 20010904//EN"
 "http://www.w3.org/TR/2001/REC-SVG-20010904/DTD/svg10.dtd">
<svg version="1.0" xmlns="http://www.w3.org/2000/svg"
 width="56.000000pt" height="56.000000pt" viewBox="0 0 56.000000 56.000000"
 preserveAspectRatio="xMidYMid meet">
<metadata>
Created by potrace 1.16, written by Peter Selinger 2001-2019
</metadata>
<g transform="translate(0.000000,56.000000) scale(0.100000,-0.100000)"
fill="#000000" stroke="none">
<path d="M138 535 c-33 0 -62 -3 -64 -6 -2 -3 4 -15 12 -27 12 -17 21 -21 41
-16 26 7 26 6 20 -37 -3 -24 -13 -66 -21 -94 -9 -27 -29 -97 -47 -155 -17 -58
-34 -112 -39 -120 -4 -8 -5 -30 -2 -48 3 -23 9 -32 20 -30 10 2 26 41 47 113
17 61 42 129 54 153 12 24 42 70 65 102 43 59 43 59 85 16 22 -23 41 -49 41
-58 0 -9 -7 -29 -15 -44 -15 -29 -15 -29 -15 -1 0 15 -7 30 -15 33 -8 4 -27 3
-42 -1 -15 -3 -44 -23 -65 -44 -22 -22 -38 -48 -38 -62 0 -12 7 -31 17 -41 13
-15 14 -23 5 -44 -7 -13 -12 -38 -12 -55 0 -16 6 -32 13 -35 7 -2 34 7 60 21
26 13 66 42 88 62 23 21 45 46 50 56 5 9 8 17 5 17 -3 0 -20 -14 -38 -30 -18
-17 -53 -40 -77 -51 -24 -10 -46 -17 -49 -14 -3 3 0 16 6 29 6 13 44 49 85 80
41 31 78 63 81 72 3 9 6 29 6 45 0 17 -11 47 -25 67 -14 20 -25 46 -25 59 0
12 -3 28 -6 37 -3 9 -16 16 -28 16 -11 0 -31 -8 -43 -18 -13 -9 -38 -42 -58
-72 -19 -30 -35 -48 -35 -40 0 8 8 45 17 82 9 37 14 71 9 75 -4 4 -35 8 -68 8z
m103 -255 c4 0 11 -4 14 -10 3 -5 -1 -23 -10 -40 -8 -16 -22 -30 -31 -30 -8 0
-17 7 -21 16 -3 8 4 25 17 40 13 13 27 24 31 24z"/>
<path d="M491 217 c-16 12 -31 19 -35 16 -3 -3 -6 -30 -6 -59 0 -51 -1 -53
-57 -103 -32 -28 -64 -51 -70 -51 -7 0 -13 -4 -13 -10 0 -5 8 -10 17 -10 9 0
41 14 72 31 31 17 64 39 74 47 10 9 25 32 33 51 8 18 14 41 13 50 0 9 -13 26
-28 38z"/>
</g>
</svg>
