<?xml version="1.0" standalone="no"?>
<!DOCTYPE svg PUBLIC "-//W3C//DTD SVG 20010904//EN"
 "http://www.w3.org/TR/2001/REC-SVG-20010904/DTD/svg10.dtd">
<svg version="1.0" xmlns="http://www.w3.org/2000/svg"
 width="56.000000pt" height="56.000000pt" viewBox="0 0 56.000000 56.000000"
 preserveAspectRatio="xMidYMid meet">
<metadata>
Created by potrace 1.16, written by Peter Selinger 2001-2019
</metadata>
<g transform="translate(0.000000,56.000000) scale(0.100000,-0.100000)"
fill="#000000" stroke="none">
<path d="M472 499 c-9 -1 -44 -5 -77 -9 -40 -5 -78 -17 -113 -38 -29 -18 -56
-32 -60 -32 -4 0 -18 -9 -32 -20 -14 -11 -33 -20 -42 -20 -9 0 -33 -10 -51
-22 -19 -13 -49 -31 -66 -40 -21 -12 -31 -25 -31 -41 0 -14 9 -28 23 -35 17
-9 36 -9 85 1 62 14 62 14 62 -12 0 -15 7 -37 16 -49 14 -20 21 -22 66 -16 50
7 50 7 29 -32 -12 -21 -21 -47 -21 -57 0 -12 6 -17 17 -15 9 2 20 12 23 23 3
11 14 34 24 51 17 28 26 33 79 39 32 3 69 12 81 18 11 7 25 18 29 25 4 6 17
12 27 12 14 0 20 7 20 23 -1 13 -15 33 -37 50 -22 16 -49 27 -69 27 -19 0 -34
-6 -38 -15 -4 -11 1 -15 18 -15 14 0 31 -3 40 -6 9 -3 16 -14 16 -24 0 -11
-15 -23 -43 -34 -23 -9 -46 -16 -50 -16 -4 0 -7 24 -7 53 0 34 -7 63 -20 85
-11 18 -20 39 -20 47 0 7 14 21 32 29 17 9 37 16 45 16 8 0 27 7 44 15 16 9
27 20 24 25 -4 6 -14 9 -23 9z m-200 -110 c9 1 24 -9 32 -21 9 -12 16 -26 16
-31 0 -4 -16 -15 -35 -23 -19 -7 -46 -14 -61 -14 -21 0 -25 3 -19 18 4 9 8 26
10 36 1 11 10 23 21 27 10 4 27 8 36 8z m-104 -72 c2 -16 2 -30 0 -32 -2 -1
-22 -5 -45 -9 -23 -3 -45 -1 -48 3 -2 5 8 17 23 27 15 10 36 23 47 29 18 10
20 7 23 -18z m145 -28 c24 1 27 -3 27 -29 0 -24 -6 -33 -27 -41 -16 -6 -42
-13 -58 -16 -22 -3 -35 0 -45 12 -10 12 -11 21 -3 33 5 10 25 22 44 29 19 7
46 12 62 12z"/>
</g>
</svg>
