<?xml version="1.0" standalone="no"?>
<!DOCTYPE svg PUBLIC "-//W3C//DTD SVG 20010904//EN"
 "http://www.w3.org/TR/2001/REC-SVG-20010904/DTD/svg10.dtd">
<svg version="1.0" xmlns="http://www.w3.org/2000/svg"
 width="56.000000pt" height="56.000000pt" viewBox="0 0 56.000000 56.000000"
 preserveAspectRatio="xMidYMid meet">
<metadata>
Created by potrace 1.16, written by Peter Selinger 2001-2019
</metadata>
<g transform="translate(0.000000,56.000000) scale(0.100000,-0.100000)"
fill="#000000" stroke="none">
<path d="M202 500 c-10 0 -42 -31 -74 -72 -31 -40 -65 -82 -75 -93 -10 -11
-26 -31 -36 -45 -9 -13 -17 -34 -17 -47 0 -12 4 -25 10 -28 5 -3 29 7 52 23
24 16 62 39 86 51 42 21 42 21 43 -46 1 -38 2 -79 3 -93 1 -14 6 -42 10 -62 4
-22 13 -38 20 -38 8 0 16 10 19 21 3 12 1 73 -4 136 -5 62 -7 118 -4 124 5 7
11 6 21 -2 11 -9 15 -8 20 4 3 9 22 21 42 27 21 6 44 14 52 17 8 4 35 12 60
19 40 11 47 11 63 -5 18 -18 18 -19 -1 -58 -11 -21 -38 -51 -59 -66 -22 -15
-51 -27 -65 -27 -16 0 -39 12 -57 31 -24 24 -32 27 -37 16 -3 -8 2 -29 10 -46
9 -17 25 -35 35 -41 11 -5 30 -10 43 -9 13 1 50 15 83 32 38 21 69 46 87 72
15 22 27 52 28 66 0 15 -11 36 -28 52 -20 19 -39 27 -64 27 -19 0 -52 -7 -71
-15 -20 -8 -41 -15 -47 -15 -5 0 -10 11 -10 24 0 14 -7 32 -16 40 -8 9 -22 16
-31 16 -11 0 -13 -7 -8 -29 6 -29 5 -30 -33 -29 -22 0 -45 -3 -51 -6 -6 -4
-11 -24 -11 -44 -1 -35 -4 -38 -65 -69 -36 -18 -65 -28 -65 -22 0 6 36 51 80
99 44 48 80 93 80 99 0 6 -8 11 -18 11z m34 -102 c8 -2 16 -7 17 -13 1 -5 -6
-11 -15 -13 -11 -2 -18 3 -18 13 0 10 6 15 16 13z"/>
</g>
</svg>
