<?xml version="1.0" standalone="no"?>
<!DOCTYPE svg PUBLIC "-//W3C//DTD SVG 20010904//EN"
 "http://www.w3.org/TR/2001/REC-SVG-20010904/DTD/svg10.dtd">
<svg version="1.0" xmlns="http://www.w3.org/2000/svg"
 width="56.000000pt" height="56.000000pt" viewBox="0 0 56.000000 56.000000"
 preserveAspectRatio="xMidYMid meet">
<metadata>
Created by potrace 1.16, written by Peter Selinger 2001-2019
</metadata>
<g transform="translate(0.000000,56.000000) scale(0.100000,-0.100000)"
fill="#000000" stroke="none">
<path d="M398 528 c-13 -1 -58 -4 -100 -5 -75 -4 -78 -5 -78 -28 0 -14 -2 -25
-5 -25 -2 0 -19 9 -37 20 -18 11 -39 20 -45 20 -7 0 -13 -6 -13 -14 0 -7 7
-19 15 -26 8 -7 15 -18 15 -24 0 -6 -24 -22 -52 -35 -29 -14 -59 -31 -65 -40
-7 -8 -13 -20 -13 -27 0 -7 16 -21 35 -33 19 -11 33 -26 31 -33 -3 -7 -7 -25
-10 -41 -4 -15 -12 -27 -19 -27 -8 0 -24 -11 -36 -24 -19 -20 -21 -29 -13 -57
4 -19 15 -35 23 -37 8 -1 32 9 55 24 22 14 53 47 69 72 16 26 30 49 31 51 2 2
28 -18 59 -45 31 -26 70 -67 86 -91 20 -29 28 -50 24 -63 -6 -18 -2 -20 38
-20 27 0 49 6 57 14 6 8 10 25 8 38 -2 14 -29 44 -71 77 -37 30 -63 57 -58 61
6 3 34 5 63 3 29 -1 71 0 94 3 36 5 43 11 57 43 10 21 17 52 17 70 0 22 -8 39
-22 52 -13 11 -38 26 -57 34 -18 8 -48 15 -67 15 -18 0 -36 5 -40 11 -3 6 6
23 20 38 14 15 26 32 26 39 0 7 -10 11 -22 10z m-143 -48 c18 0 25 -5 25 -20
0 -11 -4 -20 -9 -20 -5 0 -16 3 -25 6 -9 3 -16 12 -16 20 0 8 10 14 25 14z
m196 -60 c5 0 9 -4 9 -8 0 -5 -3 -12 -6 -15 -4 -4 -11 -4 -16 -1 -4 3 -6 10
-3 15 4 5 10 9 16 9z m-308 -42 c23 -2 33 -9 35 -23 1 -11 -6 -25 -17 -32 -16
-10 -22 -8 -41 12 -12 13 -19 29 -15 35 4 6 21 10 38 8z m298 1 c4 0 12 -5 18
-12 6 -8 14 -28 17 -45 6 -28 3 -33 -20 -42 -15 -5 -66 -11 -114 -12 -82 -3
-87 -2 -90 18 -2 17 8 27 50 50 29 15 71 31 93 35 22 3 43 7 46 8z"/>
</g>
</svg>
