<?xml version="1.0" standalone="no"?>
<!DOCTYPE svg PUBLIC "-//W3C//DTD SVG 20010904//EN"
 "http://www.w3.org/TR/2001/REC-SVG-20010904/DTD/svg10.dtd">
<svg version="1.0" xmlns="http://www.w3.org/2000/svg"
 width="56.000000pt" height="56.000000pt" viewBox="0 0 56.000000 56.000000"
 preserveAspectRatio="xMidYMid meet">
<metadata>
Created by potrace 1.16, written by Peter Selinger 2001-2019
</metadata>
<g transform="translate(0.000000,56.000000) scale(0.100000,-0.100000)"
fill="#000000" stroke="none">
<path d="M268 480 c-21 0 -39 -3 -39 -7 -1 -5 -1 -15 0 -25 1 -9 -2 -19 -8
-22 -5 -4 -36 -11 -68 -17 -32 -6 -64 -15 -71 -21 -6 -6 -12 -23 -12 -39 0
-22 -8 -34 -35 -51 -19 -13 -35 -29 -35 -35 0 -7 7 -13 15 -13 9 0 25 9 37 20
12 11 32 20 44 20 17 0 43 -25 97 -92 40 -51 76 -101 80 -110 4 -11 17 -18 31
-18 14 0 27 4 30 8 3 5 -11 35 -30 66 -20 31 -34 59 -31 62 2 3 49 7 103 9 81
3 102 7 123 25 14 11 34 23 44 27 11 3 17 16 17 34 0 16 -8 38 -17 50 -10 12
-31 37 -47 55 -26 32 -32 34 -90 34 -50 0 -67 4 -81 20 -12 13 -31 20 -57 20z
m89 -72 c23 1 55 -3 70 -10 15 -7 40 -20 56 -31 16 -11 27 -27 27 -41 0 -13
-6 -28 -13 -34 -7 -6 -35 -16 -62 -23 -28 -6 -63 -16 -79 -22 -17 -6 -48 -10
-70 -8 -27 2 -50 11 -66 26 -14 13 -33 38 -43 54 -18 30 -18 30 13 46 16 8 30
20 30 25 0 5 21 11 48 13 26 2 66 4 89 5z"/>
</g>
</svg>
