<?xml version="1.0" standalone="no"?>
<!DOCTYPE svg PUBLIC "-//W3C//DTD SVG 20010904//EN"
 "http://www.w3.org/TR/2001/REC-SVG-20010904/DTD/svg10.dtd">
<svg version="1.0" xmlns="http://www.w3.org/2000/svg"
 width="56.000000pt" height="56.000000pt" viewBox="0 0 56.000000 56.000000"
 preserveAspectRatio="xMidYMid meet">
<metadata>
Created by potrace 1.16, written by Peter Selinger 2001-2019
</metadata>
<g transform="translate(0.000000,56.000000) scale(0.100000,-0.100000)"
fill="#000000" stroke="none">
<path d="M433 530 c-10 0 -26 -5 -35 -11 -10 -5 -18 -17 -18 -24 0 -8 -4 -15
-9 -15 -5 0 -13 9 -16 20 -4 14 -15 20 -34 20 -16 0 -52 -5 -81 -10 -30 -6
-56 -13 -59 -16 -3 -3 5 -14 19 -25 25 -19 25 -19 -14 -54 -21 -19 -52 -40
-67 -47 -16 -7 -29 -17 -29 -21 0 -5 9 -20 19 -34 11 -13 18 -30 15 -36 -2 -7
-31 -34 -64 -61 -33 -28 -60 -56 -60 -63 0 -7 12 -16 27 -19 14 -4 33 -3 42 3
9 5 25 23 36 40 11 17 38 40 59 53 33 19 41 20 50 9 6 -8 22 -19 36 -25 14 -7
49 -31 78 -55 28 -23 52 -46 52 -51 0 -4 -21 -21 -47 -37 -40 -25 -45 -31 -29
-37 10 -4 35 -1 55 6 20 7 51 19 68 27 24 10 33 20 33 37 0 16 -13 32 -41 52
-22 15 -47 37 -55 48 -13 18 -11 21 17 33 17 7 44 13 59 13 15 0 44 11 64 25
20 14 41 25 46 25 6 0 10 4 10 8 0 5 -12 15 -27 23 -16 8 -34 21 -40 30 -7 9
-29 20 -49 24 -20 3 -41 2 -46 -3 -6 -6 3 -21 22 -41 25 -24 29 -35 21 -45 -6
-7 -37 -16 -69 -19 -32 -4 -71 -2 -88 2 -21 7 -23 10 -9 10 11 1 40 20 64 43
39 37 42 43 27 53 -9 7 -16 17 -16 23 0 5 23 30 50 55 28 25 50 50 50 56 0 6
-8 11 -17 11z m-163 -113 c8 -1 17 -13 18 -27 4 -21 2 -22 -12 -10 -15 11 -21
9 -46 -15 -17 -17 -35 -25 -44 -22 -9 4 -16 11 -16 16 0 5 19 21 43 35 23 15
49 25 57 23z"/>
</g>
</svg>
