<?xml version="1.0" standalone="no"?>
<!DOCTYPE svg PUBLIC "-//W3C//DTD SVG 20010904//EN"
 "http://www.w3.org/TR/2001/REC-SVG-20010904/DTD/svg10.dtd">
<svg version="1.0" xmlns="http://www.w3.org/2000/svg"
 width="56.000000pt" height="56.000000pt" viewBox="0 0 56.000000 56.000000"
 preserveAspectRatio="xMidYMid meet">
<metadata>
Created by potrace 1.16, written by Peter Selinger 2001-2019
</metadata>
<g transform="translate(0.000000,56.000000) scale(0.100000,-0.100000)"
fill="#000000" stroke="none">
<path d="M173 480 c-4 0 -16 -7 -25 -14 -10 -7 -18 -26 -18 -43 0 -19 9 -38
25 -53 14 -13 25 -28 25 -34 0 -6 -15 -18 -32 -25 -18 -8 -53 -27 -76 -42 -24
-15 -51 -25 -59 -22 -11 4 -14 -1 -11 -22 2 -16 8 -30 15 -32 6 -2 27 10 46
26 19 17 38 31 42 31 3 0 27 14 51 31 25 17 51 28 58 26 7 -3 32 -33 55 -67
27 -42 41 -73 41 -96 0 -18 -4 -36 -10 -39 -5 -3 -10 -13 -10 -21 0 -10 8 -14
22 -12 14 2 25 13 30 33 5 17 6 48 3 70 -3 21 -16 53 -29 70 -13 16 -33 41
-45 54 -16 18 -18 27 -10 38 6 7 20 13 31 13 10 0 29 -7 41 -15 13 -8 45 -22
73 -30 27 -8 59 -15 71 -15 12 0 35 8 52 17 21 12 31 26 31 42 0 13 -12 34
-27 48 -25 21 -35 23 -93 19 -36 -2 -81 -8 -102 -11 -32 -6 -44 -2 -97 34 -33
23 -64 41 -68 41z m7 -50 c7 0 28 -9 46 -21 19 -11 34 -27 34 -35 0 -11 -8
-14 -25 -12 -16 2 -34 15 -46 36 -14 21 -17 32 -9 32z m256 -41 c35 1 56 -4
64 -14 9 -11 10 -19 3 -26 -6 -6 -27 -11 -48 -11 -20 0 -49 5 -66 12 -16 7
-29 16 -29 20 0 5 6 11 13 13 6 3 35 6 63 6z"/>
<path d="M418 480 c-9 0 -19 -4 -23 -9 -3 -6 10 -17 29 -26 19 -9 40 -14 47
-9 8 5 4 12 -12 25 -13 10 -32 19 -41 19z"/>
</g>
</svg>
