<?xml version="1.0" standalone="no"?>
<!DOCTYPE svg PUBLIC "-//W3C//DTD SVG 20010904//EN"
 "http://www.w3.org/TR/2001/REC-SVG-20010904/DTD/svg10.dtd">
<svg version="1.0" xmlns="http://www.w3.org/2000/svg"
 width="56.000000pt" height="56.000000pt" viewBox="0 0 56.000000 56.000000"
 preserveAspectRatio="xMidYMid meet">
<metadata>
Created by potrace 1.16, written by Peter Selinger 2001-2019
</metadata>
<g transform="translate(0.000000,56.000000) scale(0.100000,-0.100000)"
fill="#000000" stroke="none">
<path d="M255 560 c-17 0 -25 -5 -22 -12 2 -7 12 -13 22 -13 10 0 20 6 23 13
2 7 -6 12 -23 12z"/>
<path d="M310 560 c-6 0 -10 -5 -10 -11 0 -6 -21 -31 -47 -55 -45 -42 -47 -46
-30 -58 14 -11 17 -25 15 -67 -3 -54 -3 -54 -50 -61 -26 -3 -51 -9 -57 -12 -6
-4 -4 -24 6 -54 8 -26 26 -87 39 -136 13 -50 28 -94 33 -99 5 -5 17 -7 27 -5
16 3 19 13 19 73 0 70 0 70 48 73 40 3 47 0 47 -15 0 -11 -16 -43 -34 -73 -20
-31 -30 -57 -24 -59 6 -2 35 22 64 52 30 31 54 63 54 71 0 9 -9 25 -20 36 -11
11 -38 23 -60 26 -30 5 -40 11 -38 22 2 9 19 20 39 25 20 5 51 24 69 42 33 34
33 34 2 65 -31 30 -32 30 -68 15 -20 -8 -42 -15 -50 -15 -9 0 -11 10 -7 38 2
20 10 53 15 72 6 19 18 40 26 46 10 7 13 19 8 37 -3 15 -11 27 -16 27z m33
-241 c10 1 17 -4 15 -11 -2 -6 -15 -20 -29 -30 -15 -11 -32 -16 -42 -12 -10 3
-17 14 -15 22 2 9 14 19 28 23 14 4 33 7 43 8z m-125 -39 c7 0 12 -14 12 -39
0 -23 -6 -44 -15 -51 -10 -8 -19 -9 -24 -4 -5 5 -12 23 -16 41 -5 24 -2 34 12
42 10 6 24 11 31 11z"/>
</g>
</svg>
