<?xml version="1.0" standalone="no"?>
<!DOCTYPE svg PUBLIC "-//W3C//DTD SVG 20010904//EN"
 "http://www.w3.org/TR/2001/REC-SVG-20010904/DTD/svg10.dtd">
<svg version="1.0" xmlns="http://www.w3.org/2000/svg"
 width="56.000000pt" height="56.000000pt" viewBox="0 0 56.000000 56.000000"
 preserveAspectRatio="xMidYMid meet">
<metadata>
Created by potrace 1.16, written by Peter Selinger 2001-2019
</metadata>
<g transform="translate(0.000000,56.000000) scale(0.100000,-0.100000)"
fill="#000000" stroke="none">
<path d="M290 539 c-3 -1 -19 -4 -36 -8 -17 -4 -36 -11 -42 -15 -7 -4 -12 -13
-12 -20 0 -7 -13 -12 -33 -12 -23 0 -49 -12 -87 -42 -30 -23 -61 -47 -68 -52
-6 -6 -12 -20 -12 -30 0 -14 7 -20 23 -20 12 0 50 6 85 14 46 9 65 10 72 1 5
-6 7 -21 4 -32 -3 -12 2 -37 11 -57 10 -20 24 -36 32 -36 8 0 19 14 24 30 6
17 16 30 22 31 7 0 54 0 105 -1 66 -1 106 4 138 16 44 17 44 17 44 70 0 54 0
54 -50 55 -27 1 -76 2 -107 3 -32 1 -64 5 -71 10 -8 4 -12 17 -9 27 3 10 1 22
-4 25 -5 3 -6 10 -3 16 4 6 0 14 -7 19 -8 5 -16 8 -19 8z m-12 -67 c6 -9 12
-31 12 -49 0 -19 5 -33 13 -34 6 -1 47 0 90 1 48 1 77 -2 77 -9 0 -5 -15 -21
-32 -35 -26 -19 -46 -25 -93 -26 -33 -1 -65 -1 -71 -1 -7 1 -15 17 -18 37 -6
30 -10 33 -22 23 -11 -9 -18 -8 -33 5 -11 10 -28 17 -38 16 -10 -1 -24 -2 -30
-1 -7 0 -13 8 -13 16 0 8 8 15 18 15 9 1 42 14 72 30 50 26 56 27 68 12z"/>
<path d="M228 221 c-26 7 -28 5 -28 -22 0 -16 5 -29 11 -29 6 0 9 -7 5 -15 -3
-8 0 -29 5 -47 6 -18 16 -43 22 -56 5 -12 17 -22 25 -22 11 0 13 8 8 38 -4 20
-10 61 -14 91 -6 49 -10 55 -34 62z"/>
</g>
</svg>
