<?xml version="1.0" standalone="no"?>
<!DOCTYPE svg PUBLIC "-//W3C//DTD SVG 20010904//EN"
 "http://www.w3.org/TR/2001/REC-SVG-20010904/DTD/svg10.dtd">
<svg version="1.0" xmlns="http://www.w3.org/2000/svg"
 width="56.000000pt" height="56.000000pt" viewBox="0 0 56.000000 56.000000"
 preserveAspectRatio="xMidYMid meet">
<metadata>
Created by potrace 1.16, written by Peter Selinger 2001-2019
</metadata>
<g transform="translate(0.000000,56.000000) scale(0.100000,-0.100000)"
fill="#000000" stroke="none">
<path d="M360 440 c-23 0 -42 -11 -76 -45 -24 -25 -52 -45 -61 -45 -9 0 -42
-4 -72 -10 -31 -5 -77 -12 -103 -16 -27 -3 -48 -10 -48 -16 0 -6 8 -17 17 -24
10 -7 29 -13 43 -13 14 0 52 8 84 19 33 11 65 20 73 20 10 0 12 -10 7 -42 -7
-41 -7 -41 59 -35 46 4 67 3 67 -5 0 -6 -16 -33 -35 -60 -29 -39 -32 -50 -20
-54 8 -4 21 -4 28 -1 7 3 27 32 45 65 32 59 32 59 90 65 37 3 68 12 81 23 11
10 21 23 21 28 0 5 -11 19 -25 32 -13 12 -32 25 -42 27 -10 3 -29 8 -43 11
-17 3 -32 18 -43 41 -14 29 -22 35 -47 35z m-14 -50 c15 0 24 -6 24 -15 0 -11
-11 -15 -36 -15 -31 0 -35 2 -24 15 7 8 23 15 36 15z m22 -51 c9 1 12 -9 10
-31 -3 -32 -4 -33 -55 -36 -40 -2 -53 0 -53 11 0 7 6 21 13 29 6 9 26 19 42
21 17 2 36 5 43 6z m78 -9 c7 0 19 -3 28 -6 9 -3 16 -12 16 -19 0 -7 -7 -16
-16 -19 -9 -3 -24 -6 -35 -6 -12 0 -19 7 -19 18 0 10 3 22 7 25 3 4 12 7 19 7z"/>
</g>
</svg>
