<?xml version="1.0" standalone="no"?>
<!DOCTYPE svg PUBLIC "-//W3C//DTD SVG 20010904//EN"
 "http://www.w3.org/TR/2001/REC-SVG-20010904/DTD/svg10.dtd">
<svg version="1.0" xmlns="http://www.w3.org/2000/svg"
 width="56.000000pt" height="56.000000pt" viewBox="0 0 56.000000 56.000000"
 preserveAspectRatio="xMidYMid meet">
<metadata>
Created by potrace 1.16, written by Peter Selinger 2001-2019
</metadata>
<g transform="translate(0.000000,56.000000) scale(0.100000,-0.100000)"
fill="#000000" stroke="none">
<path d="M117 517 c-29 4 -37 2 -37 -9 0 -8 22 -27 49 -41 45 -25 49 -30 54
-74 3 -27 3 -50 0 -53 -2 -3 -10 3 -17 13 -7 9 -19 17 -25 17 -7 0 -32 -11
-56 -25 -23 -14 -45 -34 -48 -45 -3 -11 1 -24 9 -31 8 -6 14 -17 14 -25 0 -7
-11 -24 -25 -38 -14 -14 -25 -37 -25 -51 0 -15 5 -35 10 -46 6 -10 16 -19 23
-19 7 0 34 22 61 49 27 27 45 54 42 60 -4 6 -2 11 4 11 6 0 38 -27 72 -60 58
-58 60 -61 43 -80 -9 -10 -15 -23 -12 -27 3 -5 27 -8 54 -7 26 1 51 2 55 3 4
0 5 16 1 34 -3 17 -20 49 -36 69 -25 31 -28 40 -17 53 11 13 7 15 -33 15 -25
0 -49 5 -53 11 -3 6 9 23 27 39 19 15 61 37 94 49 43 14 70 18 90 12 17 -4 30
-14 30 -21 0 -8 -17 -24 -38 -35 -20 -12 -34 -25 -30 -28 3 -4 33 -7 65 -7 33
0 68 5 79 10 10 6 19 20 19 30 0 11 -4 20 -9 20 -5 0 -14 14 -21 30 -7 17 -24
40 -38 50 -14 12 -40 20 -61 20 -22 0 -66 -14 -110 -36 -40 -20 -75 -33 -79
-30 -3 4 4 19 16 34 12 15 28 39 36 53 8 14 16 43 18 65 3 34 0 39 -20 42 -14
2 -24 -3 -28 -15 -3 -10 -8 -24 -10 -30 -2 -9 -18 -5 -51 13 -27 13 -65 27
-86 31z"/>
<path d="M340 230 c-19 0 -21 -3 -12 -12 9 -9 15 -9 24 0 9 9 7 12 -12 12z"/>
</g>
</svg>
