<?xml version="1.0" standalone="no"?>
<!DOCTYPE svg PUBLIC "-//W3C//DTD SVG 20010904//EN"
 "http://www.w3.org/TR/2001/REC-SVG-20010904/DTD/svg10.dtd">
<svg version="1.0" xmlns="http://www.w3.org/2000/svg"
 width="56.000000pt" height="56.000000pt" viewBox="0 0 56.000000 56.000000"
 preserveAspectRatio="xMidYMid meet">
<metadata>
Created by potrace 1.16, written by Peter Selinger 2001-2019
</metadata>
<g transform="translate(0.000000,56.000000) scale(0.100000,-0.100000)"
fill="#000000" stroke="none">
<path d="M308 460 c-10 0 -18 -7 -18 -15 0 -8 7 -15 16 -15 8 0 22 -6 30 -14
8 -8 14 -21 14 -28 0 -8 5 -19 11 -25 7 -7 9 -18 7 -25 -3 -7 -27 -19 -54 -27
-27 -8 -56 -18 -64 -22 -8 -4 -35 -15 -60 -24 -25 -10 -64 -23 -87 -30 -38
-11 -42 -11 -46 6 -4 15 -10 17 -29 10 -16 -6 -22 -16 -20 -32 1 -12 7 -28 13
-36 6 -7 26 -13 44 -13 17 0 74 17 126 39 52 21 111 48 132 60 21 12 42 19 46
17 4 -3 6 -19 3 -35 -3 -24 -10 -31 -36 -37 -30 -7 -30 -7 -8 -17 14 -6 22
-19 22 -34 0 -13 -5 -33 -10 -43 -7 -13 -7 -21 0 -25 6 -4 17 -1 25 5 9 7 15
29 15 51 0 32 3 39 20 39 11 0 40 9 64 21 24 11 55 33 70 49 14 17 26 36 26
43 0 7 -13 20 -28 29 -21 13 -42 16 -84 11 -56 -6 -56 -6 -63 28 -4 19 -19 46
-33 62 -14 15 -34 27 -44 27z m147 -150 c30 0 55 -4 55 -8 0 -5 -10 -18 -22
-29 -13 -11 -38 -27 -56 -36 -24 -12 -34 -13 -37 -4 -3 7 -3 21 -1 32 3 11 5
26 5 33 1 8 19 12 56 12z"/>
</g>
</svg>
