<?xml version="1.0" standalone="no"?>
<!DOCTYPE svg PUBLIC "-//W3C//DTD SVG 20010904//EN"
 "http://www.w3.org/TR/2001/REC-SVG-20010904/DTD/svg10.dtd">
<svg version="1.0" xmlns="http://www.w3.org/2000/svg"
 width="56.000000pt" height="56.000000pt" viewBox="0 0 56.000000 56.000000"
 preserveAspectRatio="xMidYMid meet">
<metadata>
Created by potrace 1.16, written by Peter Selinger 2001-2019
</metadata>
<g transform="translate(0.000000,56.000000) scale(0.100000,-0.100000)"
fill="#000000" stroke="none">
<path d="M222 518 c-11 2 -23 -1 -26 -6 -3 -5 1 -24 10 -41 9 -18 14 -37 11
-44 -2 -7 -48 -25 -101 -42 -53 -16 -96 -35 -96 -42 0 -7 13 -22 30 -35 16
-12 30 -28 30 -35 0 -8 -8 -16 -17 -20 -10 -3 -26 -13 -35 -21 -10 -8 -18 -23
-18 -33 0 -10 7 -22 16 -27 9 -5 27 -7 40 -4 13 2 29 10 35 18 6 8 15 14 20
14 4 0 20 -12 34 -27 14 -15 25 -39 25 -53 0 -14 7 -36 16 -48 8 -12 19 -22
24 -22 5 0 14 9 19 19 8 14 6 33 -4 68 -8 26 -15 52 -15 57 0 4 21 -9 47 -30
35 -29 54 -38 81 -37 20 1 41 8 47 16 6 9 29 19 50 22 22 4 52 19 68 33 21 20
27 35 27 68 0 34 -6 49 -27 69 -25 22 -35 25 -83 21 -30 -2 -65 -7 -77 -11
-13 -4 -23 -3 -23 2 0 5 10 19 23 31 12 11 34 24 49 27 16 4 42 26 62 53 19
26 32 50 30 54 -3 5 -21 8 -39 8 -29 0 -39 -6 -59 -39 -14 -22 -41 -52 -61
-67 -20 -15 -37 -25 -38 -23 -2 2 -11 24 -21 49 -10 25 -21 52 -26 60 -4 8
-16 16 -28 18z m-7 -149 c50 0 50 0 6 -39 -24 -22 -50 -40 -58 -40 -8 0 -27 7
-43 15 -17 9 -30 22 -30 29 0 8 17 18 38 24 20 5 60 10 87 11z m180 -57 c28
-3 58 -9 68 -14 9 -5 17 -17 17 -26 0 -10 -12 -30 -27 -44 -16 -14 -37 -30
-48 -36 -11 -5 -42 -13 -70 -16 -49 -7 -51 -6 -74 28 -13 20 -21 42 -17 51 3
8 15 15 27 15 12 0 23 8 26 19 3 11 15 22 27 24 11 2 44 1 71 -1z"/>
</g>
</svg>
