<?xml version="1.0" standalone="no"?>
<!DOCTYPE svg PUBLIC "-//W3C//DTD SVG 20010904//EN"
 "http://www.w3.org/TR/2001/REC-SVG-20010904/DTD/svg10.dtd">
<svg version="1.0" xmlns="http://www.w3.org/2000/svg"
 width="56.000000pt" height="56.000000pt" viewBox="0 0 56.000000 56.000000"
 preserveAspectRatio="xMidYMid meet">
<metadata>
Created by potrace 1.16, written by Peter Selinger 2001-2019
</metadata>
<g transform="translate(0.000000,56.000000) scale(0.100000,-0.100000)"
fill="#000000" stroke="none">
<path d="M356 560 c-26 0 -46 -5 -49 -13 -2 -7 -31 -26 -63 -42 -33 -15 -67
-36 -77 -44 -10 -9 -49 -32 -85 -52 -47 -25 -67 -42 -67 -55 0 -13 8 -20 27
-22 15 -2 33 -11 40 -21 7 -9 38 -34 68 -54 30 -20 79 -59 108 -87 28 -28 70
-77 93 -110 25 -38 48 -60 60 -60 10 0 24 10 30 22 10 19 8 25 -12 42 -13 12
-48 49 -76 82 -29 33 -53 66 -53 72 0 8 23 12 68 12 43 0 81 6 100 16 18 8 32
19 32 23 0 5 14 11 30 15 18 3 30 12 30 21 0 8 -8 15 -17 15 -16 1 -16 2 -2
13 9 7 12 16 8 22 -5 6 -23 27 -41 48 -17 20 -40 37 -49 37 -10 0 -21 -5 -24
-11 -4 -6 2 -13 14 -16 12 -3 21 -11 21 -19 0 -7 8 -18 19 -23 10 -6 21 -20
24 -31 3 -12 0 -20 -8 -20 -7 0 -19 -9 -26 -20 -11 -15 -28 -21 -74 -24 -33
-2 -79 -10 -102 -17 -39 -12 -44 -11 -66 9 -13 12 -28 22 -33 22 -5 0 -25 13
-44 28 -34 29 -34 29 11 49 24 12 57 26 72 32 15 6 45 11 66 11 21 0 52 7 70
16 17 8 29 20 26 25 -4 5 -15 9 -25 9 -11 0 -40 -5 -65 -12 -24 -7 -47 -9 -51
-5 -4 4 1 16 10 26 10 11 42 31 72 46 30 15 54 31 54 36 0 5 -20 9 -44 9z"/>
</g>
</svg>
