<?xml version="1.0" standalone="no"?>
<!DOCTYPE svg PUBLIC "-//W3C//DTD SVG 20010904//EN"
 "http://www.w3.org/TR/2001/REC-SVG-20010904/DTD/svg10.dtd">
<svg version="1.0" xmlns="http://www.w3.org/2000/svg"
 width="56.000000pt" height="56.000000pt" viewBox="0 0 56.000000 56.000000"
 preserveAspectRatio="xMidYMid meet">
<metadata>
Created by potrace 1.16, written by Peter Selinger 2001-2019
</metadata>
<g transform="translate(0.000000,56.000000) scale(0.100000,-0.100000)"
fill="#000000" stroke="none">
<path d="M305 508 c-14 7 -26 7 -40 -1 -11 -6 -35 -26 -52 -46 -18 -19 -33
-45 -33 -58 0 -16 -8 -27 -27 -34 -16 -6 -36 -15 -45 -20 -10 -5 -24 -9 -32
-9 -8 0 -28 -12 -45 -26 -31 -25 -31 -27 -31 -120 0 -61 4 -93 10 -89 6 3 10
15 10 26 0 11 16 35 35 53 22 21 35 43 35 59 0 14 4 28 9 32 5 3 12 1 16 -5 3
-5 13 -10 21 -10 8 0 14 7 14 16 0 9 7 14 16 12 9 -2 20 -10 24 -18 4 -8 17
-36 28 -61 11 -26 18 -56 15 -68 -4 -15 -1 -21 10 -21 9 0 18 -4 21 -8 2 -4
-4 -27 -14 -50 -19 -42 -19 -42 8 -42 15 0 32 4 38 8 6 4 25 32 42 63 31 55
33 57 84 63 29 4 63 14 75 21 11 8 27 31 33 52 7 21 17 44 23 51 5 6 5 12 1
12 -5 0 -15 14 -23 30 -9 21 -29 39 -62 55 -27 13 -51 19 -55 14 -3 -5 -13 -5
-23 1 -10 5 -22 25 -25 43 -4 19 -14 41 -24 49 -9 9 -26 20 -37 26z m-32 -70
c14 -2 23 -11 25 -25 3 -17 -2 -23 -17 -23 -11 0 -23 -5 -27 -11 -4 -7 -10 -7
-16 -1 -5 5 -5 19 2 36 7 20 16 27 33 24z m14 -125 c6 -3 14 -10 16 -18 3 -7
4 -21 2 -31 -2 -11 -4 -25 -4 -32 -1 -7 -8 -15 -16 -19 -9 -3 -25 3 -35 12
-11 10 -20 30 -20 45 0 18 7 30 23 37 12 6 27 8 34 6z m128 -9 c17 -3 34 -10
39 -15 6 -5 4 -18 -4 -34 -7 -14 -29 -34 -47 -45 -19 -11 -39 -17 -45 -14 -6
4 -8 25 -4 52 3 25 12 50 19 54 6 4 26 5 42 2z"/>
</g>
</svg>
