<?xml version="1.0" standalone="no"?>
<!DOCTYPE svg PUBLIC "-//W3C//DTD SVG 20010904//EN"
 "http://www.w3.org/TR/2001/REC-SVG-20010904/DTD/svg10.dtd">
<svg version="1.0" xmlns="http://www.w3.org/2000/svg"
 width="56.000000pt" height="56.000000pt" viewBox="0 0 56.000000 56.000000"
 preserveAspectRatio="xMidYMid meet">
<metadata>
Created by potrace 1.16, written by Peter Selinger 2001-2019
</metadata>
<g transform="translate(0.000000,56.000000) scale(0.100000,-0.100000)"
fill="#000000" stroke="none">
<path d="M216 490 c-8 0 -19 -7 -27 -16 -7 -9 -15 -34 -19 -57 -5 -42 -5 -42
-82 -39 -42 1 -79 -2 -82 -7 -4 -5 6 -24 21 -41 25 -30 30 -32 74 -27 47 6 47
6 48 -81 1 -48 8 -105 15 -127 10 -27 20 -40 33 -40 14 0 17 6 15 30 -2 17 -6
72 -9 124 -2 52 -2 104 1 117 4 16 17 26 43 33 36 10 40 9 78 -28 22 -21 50
-44 62 -50 12 -6 38 -11 57 -11 20 0 36 3 36 8 0 4 18 26 40 50 22 24 40 49
40 57 0 8 -9 15 -19 15 -11 0 -23 5 -26 11 -5 7 -43 9 -112 5 -104 -5 -104 -5
-115 25 -6 17 -21 35 -35 40 -13 5 -30 9 -37 9z m18 -63 c6 -2 11 -10 11 -18
0 -7 -8 -15 -17 -17 -10 -2 -18 3 -18 11 0 7 3 17 7 21 4 3 12 5 17 3z m171
-47 c24 0 47 -5 51 -12 4 -6 -1 -17 -11 -25 -11 -7 -31 -13 -46 -13 -14 0 -32
7 -39 15 -6 8 -9 19 -5 25 3 5 26 10 50 10z"/>
</g>
</svg>
