<?xml version="1.0" standalone="no"?>
<!DOCTYPE svg PUBLIC "-//W3C//DTD SVG 20010904//EN"
 "http://www.w3.org/TR/2001/REC-SVG-20010904/DTD/svg10.dtd">
<svg version="1.0" xmlns="http://www.w3.org/2000/svg"
 width="56.000000pt" height="56.000000pt" viewBox="0 0 56.000000 56.000000"
 preserveAspectRatio="xMidYMid meet">
<metadata>
Created by potrace 1.16, written by Peter Selinger 2001-2019
</metadata>
<g transform="translate(0.000000,56.000000) scale(0.100000,-0.100000)"
fill="#000000" stroke="none">
<path d="M262 543 c-16 14 -20 12 -63 -28 -37 -35 -55 -44 -97 -50 -34 -4 -52
-12 -52 -21 0 -7 18 -18 40 -24 23 -6 50 -8 60 -5 12 4 20 2 20 -5 0 -6 -8
-28 -18 -48 -10 -20 -34 -64 -52 -97 -18 -33 -48 -89 -66 -125 -19 -36 -34
-69 -34 -75 0 -5 5 -17 10 -25 8 -12 14 -10 40 15 16 16 30 38 30 50 0 11 4
25 9 31 5 5 21 32 36 59 15 28 44 75 63 105 20 30 47 65 61 78 13 12 28 22 32
22 5 0 9 -8 9 -19 0 -10 -11 -39 -25 -65 -14 -26 -25 -54 -25 -62 0 -7 8 -14
19 -14 10 0 24 7 31 15 7 8 16 15 21 15 4 0 11 -9 14 -21 4 -13 0 -28 -11 -40
-11 -12 -26 -18 -38 -15 -10 3 -32 -2 -48 -10 -25 -13 -28 -20 -23 -43 5 -22
1 -30 -21 -41 -14 -8 -30 -24 -34 -35 -5 -15 -1 -26 17 -43 25 -23 25 -23 94
-6 38 9 69 19 69 23 0 3 25 7 57 8 31 1 60 6 66 12 6 6 -2 26 -22 55 -17 25
-36 48 -41 51 -5 3 -12 -12 -16 -34 -5 -31 -12 -42 -33 -50 -14 -5 -47 -12
-73 -16 -27 -3 -48 -3 -48 0 0 4 15 24 33 45 19 24 41 40 54 40 11 0 33 14 47
31 14 17 26 37 26 46 0 8 -16 34 -36 58 -35 44 -35 44 -10 82 14 21 26 42 26
48 0 6 -6 20 -14 30 -13 18 -14 18 -41 -3 -15 -12 -34 -22 -41 -22 -8 0 -14 4
-14 8 0 5 7 17 15 28 8 10 15 31 15 45 0 14 -8 33 -18 42z"/>
<path d="M547 430 c-8 0 -17 -3 -20 -7 -4 -3 -7 -12 -7 -20 0 -7 9 -13 20 -13
13 0 20 7 20 20 0 11 -6 20 -13 20z"/>
<path d="M458 376 c-21 4 -28 2 -28 -9 0 -8 12 -30 28 -50 15 -20 35 -48 45
-62 10 -14 27 -25 37 -25 16 0 20 7 20 33 -1 23 -11 42 -38 69 -20 20 -49 40
-64 44z"/>
</g>
</svg>
