<?xml version="1.0" standalone="no"?>
<!DOCTYPE svg PUBLIC "-//W3C//DTD SVG 20010904//EN"
 "http://www.w3.org/TR/2001/REC-SVG-20010904/DTD/svg10.dtd">
<svg version="1.0" xmlns="http://www.w3.org/2000/svg"
 width="56.000000pt" height="56.000000pt" viewBox="0 0 56.000000 56.000000"
 preserveAspectRatio="xMidYMid meet">
<metadata>
Created by potrace 1.16, written by Peter Selinger 2001-2019
</metadata>
<g transform="translate(0.000000,56.000000) scale(0.100000,-0.100000)"
fill="#000000" stroke="none">
<path d="M278 453 c-20 3 -39 3 -42 0 -3 -4 -6 -10 -6 -15 0 -5 16 -16 35 -24
19 -8 35 -21 35 -29 0 -8 -11 -17 -25 -20 -14 -3 -37 -8 -52 -11 -16 -3 -38
-12 -50 -20 -14 -8 -23 -25 -23 -39 0 -15 -9 -29 -22 -37 -13 -7 -39 -18 -58
-25 -19 -7 -43 -13 -52 -13 -11 0 -18 -8 -18 -19 0 -10 7 -22 16 -25 9 -3 27
-6 41 -6 14 0 48 16 74 35 27 19 51 35 54 35 2 0 30 -34 61 -75 36 -48 63 -75
73 -73 9 2 17 12 19 24 2 12 -16 41 -48 78 -27 31 -50 63 -50 70 0 8 6 18 13
24 6 5 50 26 98 44 47 19 97 38 111 41 15 4 29 3 32 -2 4 -5 -11 -23 -31 -40
-21 -17 -43 -31 -50 -31 -7 0 -13 -7 -13 -15 0 -8 7 -15 15 -15 8 0 39 11 69
25 30 14 60 25 65 25 6 0 11 11 11 25 0 14 -10 36 -22 50 -12 14 -32 25 -44
25 -13 0 -26 -4 -29 -10 -3 -5 -17 -10 -31 -10 -14 0 -35 -5 -47 -11 -16 -9
-22 -9 -25 0 -2 7 -14 23 -26 36 -11 13 -37 25 -58 28z"/>
</g>
</svg>
