<?xml version="1.0" standalone="no"?>
<!DOCTYPE svg PUBLIC "-//W3C//DTD SVG 20010904//EN"
 "http://www.w3.org/TR/2001/REC-SVG-20010904/DTD/svg10.dtd">
<svg version="1.0" xmlns="http://www.w3.org/2000/svg"
 width="56.000000pt" height="56.000000pt" viewBox="0 0 56.000000 56.000000"
 preserveAspectRatio="xMidYMid meet">
<metadata>
Created by potrace 1.16, written by Peter Selinger 2001-2019
</metadata>
<g transform="translate(0.000000,56.000000) scale(0.100000,-0.100000)"
fill="#000000" stroke="none">
<path d="M198 542 c-25 16 -27 16 -34 0 -4 -9 -6 -25 -5 -34 1 -12 -17 -26
-63 -48 -49 -23 -66 -36 -66 -50 0 -12 10 -25 25 -32 14 -6 28 -22 31 -35 5
-17 1 -28 -12 -38 -11 -7 -29 -21 -42 -31 -13 -11 -24 -32 -25 -49 -2 -26 2
-30 25 -33 20 -2 34 6 59 32 18 20 41 36 52 36 11 0 46 -29 83 -67 44 -47 64
-76 64 -94 0 -15 -9 -38 -20 -52 -11 -14 -20 -30 -20 -36 0 -6 8 -11 18 -11
10 0 30 12 44 28 14 15 30 37 36 48 8 14 8 32 2 53 -5 18 -29 53 -54 79 -24
26 -54 60 -66 75 -12 15 -20 33 -17 40 2 7 22 21 43 33 22 11 48 25 59 31 11
6 43 18 72 27 29 9 63 14 78 10 15 -4 25 -13 25 -25 0 -10 -20 -35 -45 -56
-28 -23 -41 -41 -35 -47 5 -5 21 -4 42 4 18 8 50 25 70 39 21 14 38 31 38 37
0 6 -10 31 -23 55 -22 42 -27 45 -80 53 -51 8 -60 7 -111 -19 -31 -16 -59 -25
-63 -21 -4 4 -1 21 6 39 7 18 15 42 18 55 4 15 1 22 -10 22 -8 0 -20 -13 -27
-30 -7 -16 -16 -30 -21 -30 -4 0 -12 6 -16 13 -4 7 -20 20 -35 29z m35 -69 c4
-2 2 -13 -3 -24 -6 -10 -23 -27 -38 -36 -15 -10 -29 -21 -32 -25 -3 -4 -23 0
-43 9 -20 10 -37 20 -37 24 0 4 8 9 18 12 9 3 42 15 72 25 30 11 58 18 63 15z"/>
</g>
</svg>
