<?xml version="1.0" standalone="no"?>
<!DOCTYPE svg PUBLIC "-//W3C//DTD SVG 20010904//EN"
 "http://www.w3.org/TR/2001/REC-SVG-20010904/DTD/svg10.dtd">
<svg version="1.0" xmlns="http://www.w3.org/2000/svg"
 width="56.000000pt" height="56.000000pt" viewBox="0 0 56.000000 56.000000"
 preserveAspectRatio="xMidYMid meet">
<metadata>
Created by potrace 1.16, written by Peter Selinger 2001-2019
</metadata>
<g transform="translate(0.000000,56.000000) scale(0.100000,-0.100000)"
fill="#000000" stroke="none">
<path d="M291 538 c-3 0 -21 -3 -39 -5 -18 -2 -30 -8 -27 -13 3 -5 0 -18 -7
-30 -8 -13 -19 -18 -32 -14 -10 3 -30 1 -45 -6 -14 -7 -37 -17 -51 -24 -14 -6
-26 -21 -28 -33 -2 -11 3 -27 11 -34 7 -8 18 -23 24 -33 9 -15 6 -27 -11 -53
-11 -18 -36 -38 -53 -45 -18 -7 -33 -18 -33 -25 0 -8 12 -13 31 -13 19 0 48
13 76 32 45 33 45 33 81 -8 21 -23 60 -68 87 -100 35 -41 50 -67 51 -89 1 -26
5 -30 34 -33 18 -2 43 -1 56 2 18 5 24 13 24 34 0 21 -16 45 -60 91 -33 34
-73 80 -90 101 -18 23 -26 41 -20 45 5 3 10 10 10 15 0 4 -11 11 -25 14 -21 5
-24 10 -15 25 5 10 30 31 55 45 24 15 49 35 55 46 10 19 11 19 30 0 11 -11 29
-20 39 -20 11 0 31 -15 45 -32 24 -31 24 -33 8 -51 -14 -16 -27 -18 -67 -15
-27 3 -61 2 -75 -2 -25 -7 -25 -7 0 -18 14 -6 60 -16 103 -22 78 -12 78 -12
103 15 14 15 24 38 24 56 0 22 -10 38 -36 62 -20 18 -53 40 -73 50 -20 11 -58
20 -86 22 -27 2 -52 4 -54 4 -3 1 0 6 7 13 9 9 8 16 -5 30 -9 10 -19 17 -22
16z m-89 -90 c18 -1 30 -8 34 -21 3 -10 1 -24 -5 -30 -6 -6 -11 -19 -11 -29 0
-10 -6 -21 -14 -24 -8 -3 -26 2 -40 11 -17 11 -26 26 -26 43 0 13 8 31 18 38
9 7 29 12 44 12z"/>
</g>
</svg>
