<?xml version="1.0" standalone="no"?>
<!DOCTYPE svg PUBLIC "-//W3C//DTD SVG 20010904//EN"
 "http://www.w3.org/TR/2001/REC-SVG-20010904/DTD/svg10.dtd">
<svg version="1.0" xmlns="http://www.w3.org/2000/svg"
 width="56.000000pt" height="56.000000pt" viewBox="0 0 56.000000 56.000000"
 preserveAspectRatio="xMidYMid meet">
<metadata>
Created by potrace 1.16, written by Peter Selinger 2001-2019
</metadata>
<g transform="translate(0.000000,56.000000) scale(0.100000,-0.100000)"
fill="#000000" stroke="none">
<path d="M276 520 c-7 0 -21 -9 -31 -20 -11 -13 -33 -20 -66 -22 -27 -2 -49
-7 -50 -13 0 -5 9 -11 21 -13 11 -2 20 -8 20 -13 0 -5 -12 -14 -27 -19 -16 -6
-35 -14 -43 -18 -8 -5 -18 -26 -22 -48 -6 -27 -20 -49 -45 -71 -34 -29 -36
-34 -27 -60 5 -15 16 -29 25 -31 9 -1 34 16 56 38 40 42 40 42 107 -34 36 -42
66 -80 66 -85 0 -5 -10 -15 -23 -24 -12 -8 -51 -18 -85 -22 -45 -5 -62 -11
-62 -22 0 -12 19 -14 128 -9 70 3 130 5 135 6 4 0 7 8 7 19 0 10 -25 46 -55
80 -30 34 -55 67 -55 73 0 6 -8 17 -17 24 -15 11 -2 13 87 14 105 0 105 0 163
41 31 22 57 47 57 55 0 8 5 14 10 14 6 0 10 14 10 30 0 17 -9 40 -19 52 -11
11 -30 22 -43 24 -13 2 -42 8 -65 14 -36 8 -52 7 -95 -10 -29 -11 -56 -20 -60
-20 -5 0 -8 6 -8 14 0 7 7 19 15 26 8 7 12 16 9 21 -3 5 -11 9 -18 9z m154
-81 c14 1 35 -2 48 -5 12 -4 22 -14 22 -24 0 -10 -12 -32 -26 -49 -14 -17 -41
-38 -59 -47 -19 -9 -55 -17 -82 -19 -26 -2 -67 -6 -90 -9 -23 -3 -47 -7 -54
-8 -8 -2 -15 6 -17 18 -2 14 8 29 33 49 20 15 73 42 118 61 45 18 93 33 107
33z"/>
</g>
</svg>
