<?xml version="1.0" standalone="no"?>
<!DOCTYPE svg PUBLIC "-//W3C//DTD SVG 20010904//EN"
 "http://www.w3.org/TR/2001/REC-SVG-20010904/DTD/svg10.dtd">
<svg version="1.0" xmlns="http://www.w3.org/2000/svg"
 width="56.000000pt" height="56.000000pt" viewBox="0 0 56.000000 56.000000"
 preserveAspectRatio="xMidYMid meet">
<metadata>
Created by potrace 1.16, written by Peter Selinger 2001-2019
</metadata>
<g transform="translate(0.000000,56.000000) scale(0.100000,-0.100000)"
fill="#000000" stroke="none">
<path d="M336 520 c-17 0 -40 -19 -77 -63 -30 -35 -72 -76 -94 -92 -22 -16
-65 -46 -96 -66 -31 -21 -59 -45 -63 -54 -3 -9 -6 -25 -6 -36 0 -10 6 -20 13
-20 6 -1 18 0 26 1 8 1 30 13 49 28 34 26 34 26 50 5 10 -11 38 -45 65 -75 26
-31 47 -58 47 -60 0 -3 -9 -8 -20 -11 -11 -3 -20 -9 -20 -14 0 -5 20 -15 45
-22 25 -7 52 -11 60 -7 9 3 18 13 22 21 3 9 1 27 -5 40 -6 13 -43 48 -82 77
-38 29 -70 56 -70 61 0 5 17 6 38 3 20 -3 66 -8 103 -12 49 -4 75 -2 105 10
21 9 60 31 86 49 40 26 48 37 48 63 0 25 -6 33 -37 48 -21 11 -53 22 -71 26
-20 5 -51 3 -80 -5 -26 -7 -55 -16 -64 -20 -12 -5 -18 -3 -18 5 0 7 18 33 40
57 23 24 38 48 35 53 -3 6 -17 10 -29 10z m82 -141 c2 0 16 -6 32 -14 17 -9
30 -22 30 -30 0 -8 -11 -22 -25 -31 -14 -9 -51 -23 -83 -30 -31 -8 -85 -14
-119 -14 -48 0 -63 3 -63 14 0 8 30 31 68 51 37 20 87 40 112 45 25 4 46 8 48
9z"/>
</g>
</svg>
