<?xml version="1.0" standalone="no"?>
<!DOCTYPE svg PUBLIC "-//W3C//DTD SVG 20010904//EN"
 "http://www.w3.org/TR/2001/REC-SVG-20010904/DTD/svg10.dtd">
<svg version="1.0" xmlns="http://www.w3.org/2000/svg"
 width="128.000000pt" height="128.000000pt" viewBox="0 0 128.000000 128.000000"
 preserveAspectRatio="xMidYMid meet">
<metadata>
Created by potrace 1.16, written by Peter Selinger 2001-2019
</metadata>
<g transform="translate(0.000000,128.000000) scale(0.100000,-0.100000)"
fill="#000000" stroke="none">
<path d="M900 1279 c-8 0 -20 -6 -27 -13 -7 -8 -18 -16 -25 -19 -10 -3 -11 -8
0 -26 6 -11 12 -28 12 -36 0 -9 -43 -59 -96 -111 -66 -65 -96 -101 -96 -117 1
-12 4 -36 7 -53 6 -25 3 -33 -12 -38 -10 -4 -30 -13 -45 -22 -15 -8 -42 -35
-59 -60 -30 -45 -30 -45 5 -108 20 -36 36 -68 36 -74 0 -5 -27 -30 -60 -56
-46 -36 -62 -56 -70 -87 -6 -22 -8 -44 -5 -49 3 -6 13 -10 21 -10 8 0 49 33
90 74 71 69 78 74 112 69 33 -4 42 1 80 37 26 26 48 40 57 36 8 -3 15 -13 15
-23 0 -10 -11 -36 -23 -58 -15 -27 -31 -41 -47 -43 -14 -2 -38 -16 -55 -31
-16 -15 -51 -42 -76 -61 -25 -19 -61 -54 -80 -78 -19 -25 -37 -53 -41 -62 -3
-10 -1 -36 6 -59 6 -22 17 -46 23 -52 9 -9 20 -6 46 10 19 12 60 49 90 84 30
34 69 78 86 98 22 27 31 47 31 73 0 25 5 36 15 36 7 0 19 8 24 18 7 11 10 13
11 3 0 -8 7 -11 18 -9 16 5 18 1 12 -36 -4 -23 -16 -63 -28 -90 -12 -27 -22
-55 -22 -62 0 -8 5 -14 11 -14 6 0 22 9 36 20 14 11 40 20 58 20 18 0 39 -8
48 -18 10 -10 17 -26 17 -35 0 -9 -14 -43 -31 -76 -16 -34 -53 -85 -81 -116
-50 -55 -50 -55 10 -55 60 0 60 0 121 65 34 36 68 82 76 102 8 19 15 50 15 67
0 17 -10 51 -23 76 -19 38 -30 48 -75 64 -54 19 -54 19 -48 60 4 25 1 51 -7
66 -7 14 -22 26 -34 28 -12 2 -26 9 -32 16 -7 9 -3 29 14 72 14 32 25 64 25
70 0 6 -11 16 -24 22 -14 6 -41 8 -60 5 -25 -4 -36 -2 -36 7 0 7 14 28 31 48
17 20 38 50 45 68 8 19 14 40 14 48 0 8 -12 18 -27 24 -18 6 -36 6 -50 -1 -13
-5 -25 -18 -28 -27 -3 -10 -4 -24 -3 -31 2 -8 -7 -15 -19 -17 -16 -2 -23 2
-23 12 0 9 7 16 16 16 11 0 14 5 9 18 -4 9 -10 25 -13 35 -3 13 11 35 46 70
28 29 75 85 106 126 42 56 55 80 50 95 -4 12 -16 33 -28 48 -12 15 -28 27 -36
27z m-205 -462 c28 -2 30 -4 27 -37 -1 -20 -15 -50 -31 -70 -15 -19 -37 -36
-49 -38 -12 -2 -26 6 -36 20 -9 12 -16 28 -16 36 0 7 17 30 38 52 28 30 44 38
67 37z m80 -127 c10 0 15 -10 15 -27 0 -26 -1 -26 -15 -7 -8 10 -15 22 -15 27
0 4 7 7 15 7z m-73 -340 c4 0 8 -6 8 -14 0 -7 -7 -19 -15 -26 -12 -10 -15 -9
-15 7 0 11 3 23 7 26 3 4 10 7 15 7z"/>
<path d="M324 1054 c-46 1 -87 -1 -90 -6 -3 -4 10 -22 28 -38 18 -17 42 -33
53 -36 11 -4 32 -15 46 -25 14 -10 44 -21 65 -25 31 -4 45 -1 67 16 15 12 27
25 27 30 0 5 -10 18 -21 29 -12 11 -37 27 -56 36 -20 10 -67 17 -119 19z"/>
<path d="M298 660 c-7 -1 -24 -10 -37 -20 -14 -13 -38 -20 -62 -20 -25 0 -42
-5 -45 -14 -3 -8 9 -33 27 -56 25 -31 42 -42 72 -47 39 -6 39 -6 32 -52 -4
-25 -20 -86 -37 -135 -30 -88 -30 -88 -13 -152 9 -35 21 -67 26 -70 5 -3 22 4
38 16 17 11 32 28 35 38 3 9 15 71 26 137 11 66 24 132 29 146 5 14 6 56 2 94
-7 61 -11 71 -44 101 -20 19 -42 34 -49 34z"/>
</g>
</svg>
