<?xml version="1.0" standalone="no"?>
<!DOCTYPE svg PUBLIC "-//W3C//DTD SVG 20010904//EN"
 "http://www.w3.org/TR/2001/REC-SVG-20010904/DTD/svg10.dtd">
<svg version="1.0" xmlns="http://www.w3.org/2000/svg"
 width="128.000000pt" height="128.000000pt" viewBox="0 0 128.000000 128.000000"
 preserveAspectRatio="xMidYMid meet">
<metadata>
Created by potrace 1.16, written by Peter Selinger 2001-2019
</metadata>
<g transform="translate(0.000000,128.000000) scale(0.100000,-0.100000)"
fill="#000000" stroke="none">
<path d="M819 1280 c-5 0 -8 -21 -8 -47 1 -27 -2 -67 -6 -91 -5 -30 -18 -51
-42 -72 -18 -17 -40 -30 -47 -30 -7 0 -21 -9 -31 -20 -10 -11 -28 -20 -40 -20
-12 0 -44 -10 -71 -21 -27 -12 -59 -31 -71 -42 -15 -14 -39 -21 -73 -23 -28
-1 -58 -8 -67 -16 -9 -7 -37 -14 -62 -14 -25 -1 -50 2 -56 6 -5 4 -27 10 -48
13 -27 4 -40 2 -43 -8 -3 -7 2 -26 12 -41 10 -15 33 -33 51 -40 18 -8 61 -14
97 -14 36 0 68 5 71 10 3 6 23 10 43 10 20 0 53 8 72 18 19 9 39 27 45 40 5
12 13 22 17 22 4 0 10 -9 13 -20 3 -11 15 -20 25 -20 11 0 24 9 30 20 6 11 16
20 22 20 7 0 31 10 56 21 24 12 47 18 52 13 4 -5 4 -34 0 -64 -4 -30 -6 -125
-4 -210 2 -85 6 -173 9 -195 3 -22 7 -101 8 -175 2 -130 1 -135 -18 -132 -11
2 -40 4 -64 5 -25 1 -46 7 -49 15 -2 6 -15 12 -29 12 -14 0 -39 11 -57 25 -17
14 -36 29 -42 34 -6 5 -8 26 -5 52 5 35 10 44 26 45 11 1 38 8 59 15 22 8 48
25 58 39 16 22 17 30 7 58 -6 17 -16 32 -21 32 -6 0 -23 13 -39 29 -19 21 -34
28 -48 24 -12 -3 -28 0 -36 7 -11 9 -22 8 -54 -6 -22 -9 -49 -30 -60 -45 -13
-17 -19 -40 -18 -61 1 -19 10 -43 20 -52 9 -10 19 -29 22 -44 3 -15 9 -38 13
-52 4 -15 20 -31 39 -39 25 -11 33 -21 35 -45 2 -24 8 -32 26 -34 13 -2 26
-11 30 -20 3 -9 15 -25 27 -34 11 -10 28 -17 37 -18 9 0 21 -6 25 -13 4 -7 21
-23 37 -35 19 -14 43 -22 69 -22 26 0 44 -6 52 -17 7 -9 19 -14 29 -10 9 4 16
16 16 28 0 13 7 30 15 39 9 10 16 42 18 81 2 35 0 107 -4 159 -5 52 -11 170
-13 261 -3 91 -10 178 -16 193 -6 17 -8 59 -4 108 6 67 12 88 38 127 24 36 38
47 62 49 18 2 40 12 50 23 9 10 26 19 36 19 11 0 32 15 49 32 16 18 29 38 29
44 0 6 -9 19 -20 29 -18 16 -25 17 -54 7 -18 -7 -47 -12 -64 -12 -20 0 -40 9
-57 26 -17 17 -32 23 -45 19 -13 -4 -24 1 -36 20 -9 14 -20 25 -25 25z m-53
-1160 c8 0 14 -6 14 -13 0 -8 -3 -17 -7 -20 -3 -4 -12 -2 -19 4 -8 6 -11 15
-8 20 3 5 12 9 20 9z"/>
</g>
</svg>
