<?xml version="1.0" standalone="no"?>
<!DOCTYPE svg PUBLIC "-//W3C//DTD SVG 20010904//EN"
 "http://www.w3.org/TR/2001/REC-SVG-20010904/DTD/svg10.dtd">
<svg version="1.0" xmlns="http://www.w3.org/2000/svg"
 width="56.000000pt" height="56.000000pt" viewBox="0 0 56.000000 56.000000"
 preserveAspectRatio="xMidYMid meet">
<metadata>
Created by potrace 1.16, written by Peter Selinger 2001-2019
</metadata>
<g transform="translate(0.000000,56.000000) scale(0.100000,-0.100000)"
fill="#000000" stroke="none">
<path d="M251 560 c-7 0 -9 -26 -4 -77 3 -46 14 -94 26 -118 11 -22 28 -52 38
-67 11 -14 19 -33 19 -42 0 -10 -9 -16 -22 -17 -13 0 -48 0 -79 1 -47 1 -61
-3 -78 -21 -12 -13 -21 -34 -21 -49 0 -19 12 -35 48 -62 26 -19 58 -41 70 -48
18 -9 23 -18 19 -36 -4 -23 -2 -24 44 -24 40 0 49 3 49 18 0 9 -9 32 -20 50
-11 17 -26 32 -33 32 -8 0 -29 8 -48 17 -19 9 -39 24 -46 32 -7 9 -13 23 -13
32 0 13 10 15 58 12 31 -3 78 -8 104 -12 35 -6 51 -5 59 5 6 7 8 23 3 36 -4
13 -25 49 -46 81 -34 51 -41 69 -47 134 -5 54 -12 78 -24 84 -9 5 -23 16 -31
24 -8 8 -19 15 -25 15z"/>
</g>
</svg>
