<?xml version="1.0" standalone="no"?>
<!DOCTYPE svg PUBLIC "-//W3C//DTD SVG 20010904//EN"
 "http://www.w3.org/TR/2001/REC-SVG-20010904/DTD/svg10.dtd">
<svg version="1.0" xmlns="http://www.w3.org/2000/svg"
 width="56.000000pt" height="56.000000pt" viewBox="0 0 56.000000 56.000000"
 preserveAspectRatio="xMidYMid meet">
<metadata>
Created by potrace 1.16, written by Peter Selinger 2001-2019
</metadata>
<g transform="translate(0.000000,56.000000) scale(0.100000,-0.100000)"
fill="#000000" stroke="none">
<path d="M363 527 c-6 2 -21 -6 -33 -19 -17 -19 -20 -30 -15 -63 4 -22 20 -69
36 -104 16 -35 29 -67 29 -72 0 -5 -9 -9 -20 -9 -11 0 -47 9 -79 20 -54 18
-62 18 -95 5 -24 -10 -36 -22 -36 -35 0 -11 4 -20 8 -20 4 0 16 -15 27 -32 10
-18 41 -57 69 -86 37 -39 49 -60 49 -83 0 -27 3 -30 31 -27 25 2 32 9 40 37 9
32 8 35 -30 65 -21 17 -59 49 -83 72 -27 25 -41 46 -37 53 5 7 20 9 44 5 20
-3 41 -10 46 -15 6 -5 20 -9 32 -9 13 0 25 -4 28 -9 3 -5 17 -11 30 -13 13 -3
31 -1 40 4 9 5 16 15 16 21 0 7 -13 37 -28 67 -16 30 -34 80 -40 110 -7 30
-13 73 -15 94 -1 22 -7 41 -14 43z"/>
</g>
</svg>
