<?xml version="1.0" standalone="no"?>
<!DOCTYPE svg PUBLIC "-//W3C//DTD SVG 20010904//EN"
 "http://www.w3.org/TR/2001/REC-SVG-20010904/DTD/svg10.dtd">
<svg version="1.0" xmlns="http://www.w3.org/2000/svg"
 width="56.000000pt" height="56.000000pt" viewBox="0 0 56.000000 56.000000"
 preserveAspectRatio="xMidYMid meet">
<metadata>
Created by potrace 1.16, written by Peter Selinger 2001-2019
</metadata>
<g transform="translate(0.000000,56.000000) scale(0.100000,-0.100000)"
fill="#000000" stroke="none">
<path d="M243 560 c-7 0 -13 -4 -13 -8 0 -5 7 -23 16 -40 8 -17 19 -53 24 -79
5 -26 12 -61 15 -78 4 -16 11 -40 17 -52 8 -16 8 -26 0 -36 -7 -8 -24 -12 -41
-9 -20 3 -40 -3 -60 -18 -17 -12 -31 -30 -31 -40 0 -10 14 -30 31 -44 17 -14
41 -26 54 -26 12 0 28 -7 35 -15 9 -11 3 -23 -36 -65 -30 -33 -41 -50 -31 -50
9 0 44 27 79 61 63 61 63 61 39 80 -13 10 -33 19 -45 19 -12 0 -34 6 -49 13
-17 8 -27 20 -27 35 0 17 6 22 28 24 15 1 48 0 74 -1 37 -2 49 1 54 13 4 9 0
24 -8 34 -9 9 -27 58 -42 107 -15 50 -37 109 -48 133 -12 23 -27 42 -35 42z"/>
</g>
</svg>
