<?xml version="1.0" standalone="no"?>
<!DOCTYPE svg PUBLIC "-//W3C//DTD SVG 20010904//EN"
 "http://www.w3.org/TR/2001/REC-SVG-20010904/DTD/svg10.dtd">
<svg version="1.0" xmlns="http://www.w3.org/2000/svg"
 width="56.000000pt" height="56.000000pt" viewBox="0 0 56.000000 56.000000"
 preserveAspectRatio="xMidYMid meet">
<metadata>
Created by potrace 1.16, written by Peter Selinger 2001-2019
</metadata>
<g transform="translate(0.000000,56.000000) scale(0.100000,-0.100000)"
fill="#000000" stroke="none">
<path d="M370 560 c-16 0 -30 -5 -30 -10 0 -6 10 -14 23 -19 12 -5 25 -7 30
-4 4 2 7 11 7 19 0 9 -11 14 -30 14z"/>
<path d="M265 540 c-12 0 -15 -15 -15 -79 0 -44 5 -83 10 -86 6 -3 10 -16 10
-29 0 -12 9 -41 20 -64 11 -22 20 -45 20 -50 0 -5 -24 -7 -53 -4 -49 4 -56 2
-75 -23 -12 -15 -22 -33 -22 -41 0 -7 14 -23 31 -36 17 -13 42 -33 55 -45 13
-12 27 -36 30 -53 5 -25 11 -30 35 -30 25 0 29 4 29 26 0 14 -9 38 -19 53 -11
15 -38 40 -60 56 -23 15 -41 34 -41 42 0 11 8 14 33 10 17 -3 51 -9 74 -12 36
-6 44 -5 49 10 4 10 1 27 -6 39 -8 11 -26 45 -42 75 -17 31 -28 69 -28 91 0
22 -4 42 -10 45 -5 3 -10 28 -10 56 0 37 -4 49 -15 49z"/>
</g>
</svg>
