<?xml version="1.0" standalone="no"?>
<!DOCTYPE svg PUBLIC "-//W3C//DTD SVG 20010904//EN"
 "http://www.w3.org/TR/2001/REC-SVG-20010904/DTD/svg10.dtd">
<svg version="1.0" xmlns="http://www.w3.org/2000/svg"
 width="56.000000pt" height="56.000000pt" viewBox="0 0 56.000000 56.000000"
 preserveAspectRatio="xMidYMid meet">
<metadata>
Created by potrace 1.16, written by Peter Selinger 2001-2019
</metadata>
<g transform="translate(0.000000,56.000000) scale(0.100000,-0.100000)"
fill="#000000" stroke="none">
<path d="M227 473 c-2 6 -3 -1 -1 -18 3 -16 13 -39 24 -50 11 -12 20 -26 20
-31 0 -6 8 -19 18 -30 9 -10 23 -31 31 -46 7 -15 11 -34 8 -42 -4 -9 -13 -16
-22 -16 -8 0 -15 -7 -15 -15 0 -9 9 -15 21 -15 11 0 27 6 35 14 8 8 14 28 14
45 0 17 -4 31 -10 31 -5 0 -10 5 -10 10 0 6 -21 42 -46 80 -26 39 -50 70 -55
70 -4 0 -10 6 -12 13z"/>
<path d="M205 240 c-8 0 -15 -5 -15 -11 0 -7 12 -22 28 -35 15 -13 32 -24 38
-24 7 0 15 -7 18 -16 3 -9 6 -19 6 -24 0 -4 -18 -27 -41 -51 -22 -24 -45 -52
-50 -61 -7 -13 -6 -18 3 -18 8 0 29 16 47 36 19 19 45 42 58 51 13 9 23 25 23
38 0 13 -16 39 -36 59 -20 20 -42 36 -50 36 -8 0 -14 5 -14 10 0 6 -7 10 -15
10z"/>
</g>
</svg>
