<?xml version="1.0" standalone="no"?>
<!DOCTYPE svg PUBLIC "-//W3C//DTD SVG 20010904//EN"
 "http://www.w3.org/TR/2001/REC-SVG-20010904/DTD/svg10.dtd">
<svg version="1.0" xmlns="http://www.w3.org/2000/svg"
 width="56.000000pt" height="56.000000pt" viewBox="0 0 56.000000 56.000000"
 preserveAspectRatio="xMidYMid meet">
<metadata>
Created by potrace 1.16, written by Peter Selinger 2001-2019
</metadata>
<g transform="translate(0.000000,56.000000) scale(0.100000,-0.100000)"
fill="#000000" stroke="none">
<path d="M299 560 c-11 0 -19 -7 -19 -16 0 -8 9 -36 21 -62 11 -26 27 -58 34
-72 7 -14 19 -38 28 -54 8 -16 13 -35 10 -42 -3 -8 -14 -14 -24 -14 -10 0 -19
-4 -19 -9 0 -4 -10 -6 -23 -4 -13 3 -41 -2 -62 -11 -20 -9 -47 -16 -60 -16
-12 0 -29 -8 -37 -17 -9 -10 -20 -27 -25 -38 -6 -11 -13 -41 -16 -66 -6 -46
-6 -46 36 -59 23 -8 46 -17 51 -21 5 -4 15 -5 22 -2 8 3 21 0 30 -8 8 -7 33
-12 55 -11 33 2 42 -2 46 -18 4 -14 14 -20 33 -20 20 0 29 6 34 22 3 13 6 33
6 44 0 12 -11 29 -25 38 -14 9 -46 16 -77 16 -31 0 -71 9 -95 20 -24 10 -43
25 -43 32 0 7 16 23 35 35 19 13 41 23 49 23 8 0 18 5 21 10 3 5 26 10 51 10
24 0 62 6 84 12 22 7 40 19 40 27 0 8 -9 24 -19 35 -10 12 -29 39 -42 61 -12
22 -30 56 -40 75 -9 19 -23 50 -29 68 -8 20 -19 32 -31 32z"/>
</g>
</svg>
