<?xml version="1.0" standalone="no"?>
<!DOCTYPE svg PUBLIC "-//W3C//DTD SVG 20010904//EN"
 "http://www.w3.org/TR/2001/REC-SVG-20010904/DTD/svg10.dtd">
<svg version="1.0" xmlns="http://www.w3.org/2000/svg"
 width="56.000000pt" height="56.000000pt" viewBox="0 0 56.000000 56.000000"
 preserveAspectRatio="xMidYMid meet">
<metadata>
Created by potrace 1.16, written by Peter Selinger 2001-2019
</metadata>
<g transform="translate(0.000000,56.000000) scale(0.100000,-0.100000)"
fill="#000000" stroke="none">
<path d="M249 560 c-29 0 -30 -1 -24 -32 4 -17 25 -50 45 -72 21 -23 52 -59
69 -80 18 -22 30 -44 28 -49 -2 -6 -16 -11 -33 -12 -16 -1 -69 -10 -119 -20
-50 -10 -102 -27 -117 -37 -21 -15 -28 -28 -28 -53 0 -19 4 -36 8 -39 4 -2 44
5 88 17 44 11 88 18 97 14 10 -4 25 -23 33 -43 12 -29 13 -45 6 -73 -6 -20
-14 -46 -17 -59 -7 -20 -4 -22 29 -22 21 0 46 4 56 10 10 5 20 20 24 34 3 13
1 48 -4 77 -8 43 -17 61 -46 86 -22 19 -34 38 -31 47 4 9 18 13 44 11 21 -1
50 -7 65 -13 21 -9 29 -8 42 7 9 10 16 31 16 48 0 20 -9 39 -27 57 -16 14 -44
41 -63 59 -19 18 -52 52 -72 77 -21 24 -38 48 -38 52 0 4 -14 8 -31 8z"/>
</g>
</svg>
