<?xml version="1.0" standalone="no"?>
<!DOCTYPE svg PUBLIC "-//W3C//DTD SVG 20010904//EN"
 "http://www.w3.org/TR/2001/REC-SVG-20010904/DTD/svg10.dtd">
<svg version="1.0" xmlns="http://www.w3.org/2000/svg"
 width="56.000000pt" height="56.000000pt" viewBox="0 0 56.000000 56.000000"
 preserveAspectRatio="xMidYMid meet">
<metadata>
Created by potrace 1.16, written by Peter Selinger 2001-2019
</metadata>
<g transform="translate(0.000000,56.000000) scale(0.100000,-0.100000)"
fill="#000000" stroke="none">
<path d="M226 560 c-3 0 -4 -11 0 -25 3 -14 7 -33 8 -43 0 -9 -9 -21 -21 -27
-13 -5 -25 -16 -28 -24 -3 -7 -4 -15 -2 -17 2 -2 28 10 58 26 29 16 60 29 67
30 6 0 12 -4 12 -10 0 -5 -16 -28 -36 -49 -19 -22 -55 -51 -78 -65 -24 -14
-51 -37 -60 -51 -10 -15 -15 -33 -12 -41 4 -11 18 -6 60 21 30 19 62 35 71 35
14 0 16 -12 13 -85 -3 -46 -7 -88 -11 -91 -4 -4 -7 -2 -7 4 0 7 -9 12 -19 12
-11 0 -23 5 -26 11 -4 6 2 19 14 30 12 11 21 22 21 24 0 3 -6 5 -14 5 -8 0
-27 -11 -43 -24 -28 -24 -28 -24 5 -64 23 -30 32 -51 32 -79 0 -21 4 -44 9
-51 5 -9 26 -12 67 -10 55 3 59 4 59 28 0 20 -7 27 -33 35 -31 9 -33 12 -27
40 4 16 9 72 12 124 5 87 7 96 31 115 14 12 34 23 45 26 10 3 18 10 18 15 0 6
-6 14 -14 19 -10 6 -28 2 -56 -12 -23 -12 -46 -22 -51 -22 -6 0 -10 4 -10 10
0 5 18 22 40 36 22 15 43 38 47 52 4 18 1 29 -12 38 -10 8 -30 11 -47 7 -24
-5 -34 -1 -53 21 -12 14 -25 26 -29 26z"/>
</g>
</svg>
