<?xml version="1.0" standalone="no"?>
<!DOCTYPE svg PUBLIC "-//W3C//DTD SVG 20010904//EN"
 "http://www.w3.org/TR/2001/REC-SVG-20010904/DTD/svg10.dtd">
<svg version="1.0" xmlns="http://www.w3.org/2000/svg"
 width="56.000000pt" height="56.000000pt" viewBox="0 0 56.000000 56.000000"
 preserveAspectRatio="xMidYMid meet">
<metadata>
Created by potrace 1.16, written by Peter Selinger 2001-2019
</metadata>
<g transform="translate(0.000000,56.000000) scale(0.100000,-0.100000)"
fill="#000000" stroke="none">
<path d="M213 560 c-19 0 -23 -5 -23 -34 0 -29 9 -42 56 -84 31 -28 54 -55 50
-60 -3 -5 -34 -12 -70 -14 -35 -3 -74 -12 -86 -21 -12 -8 -28 -27 -36 -42 -8
-15 -14 -49 -14 -76 0 -29 9 -68 21 -94 11 -24 35 -55 52 -68 18 -13 51 -34
74 -46 27 -13 61 -21 93 -21 36 0 50 4 50 14 0 7 -17 30 -37 50 -30 29 -45 36
-76 36 -21 0 -50 6 -65 14 -15 8 -35 22 -44 32 -9 11 -19 35 -23 55 -5 25 -2
46 9 68 9 17 29 37 44 45 15 7 49 17 75 20 36 6 62 2 107 -13 33 -11 66 -18
75 -15 8 3 15 17 15 29 0 17 -19 37 -72 77 -40 30 -85 61 -99 70 -15 10 -33
31 -40 48 -10 21 -21 30 -36 30z"/>
</g>
</svg>
