<?xml version="1.0" standalone="no"?>
<!DOCTYPE svg PUBLIC "-//W3C//DTD SVG 20010904//EN"
 "http://www.w3.org/TR/2001/REC-SVG-20010904/DTD/svg10.dtd">
<svg version="1.0" xmlns="http://www.w3.org/2000/svg"
 width="56.000000pt" height="56.000000pt" viewBox="0 0 56.000000 56.000000"
 preserveAspectRatio="xMidYMid meet">
<metadata>
Created by potrace 1.16, written by Peter Selinger 2001-2019
</metadata>
<g transform="translate(0.000000,56.000000) scale(0.100000,-0.100000)"
fill="#000000" stroke="none">
<path d="M287 558 c-14 3 -17 -4 -17 -42 0 -25 5 -48 10 -51 6 -3 10 -15 10
-27 0 -11 14 -47 30 -80 29 -57 30 -61 14 -79 -12 -14 -31 -19 -65 -19 -31 0
-51 -5 -56 -14 -4 -8 -16 -14 -27 -13 -10 1 -27 -9 -38 -23 -11 -15 -16 -33
-12 -43 3 -9 22 -21 43 -26 20 -5 48 -12 64 -15 22 -5 27 -12 27 -37 0 -17 -9
-44 -21 -60 -20 -29 -20 -29 3 -29 14 0 38 14 56 33 18 18 32 41 32 51 0 10
-9 31 -21 47 -13 19 -37 34 -67 42 -28 9 -48 21 -50 31 -3 12 5 16 35 18 21 0
67 2 103 2 65 1 65 1 63 48 -1 34 -9 59 -31 90 -16 24 -34 59 -40 78 -6 19
-15 53 -20 75 -5 25 -14 41 -25 43z"/>
</g>
</svg>
