<?xml version="1.0" standalone="no"?>
<!DOCTYPE svg PUBLIC "-//W3C//DTD SVG 20010904//EN"
 "http://www.w3.org/TR/2001/REC-SVG-20010904/DTD/svg10.dtd">
<svg version="1.0" xmlns="http://www.w3.org/2000/svg"
 width="56.000000pt" height="56.000000pt" viewBox="0 0 56.000000 56.000000"
 preserveAspectRatio="xMidYMid meet">
<metadata>
Created by potrace 1.16, written by Peter Selinger 2001-2019
</metadata>
<g transform="translate(0.000000,56.000000) scale(0.100000,-0.100000)"
fill="#000000" stroke="none">
<path d="M320 560 c-16 0 -30 -5 -30 -11 0 -6 -9 -24 -21 -40 -11 -16 -21 -42
-21 -59 -1 -17 9 -43 24 -62 14 -18 51 -58 82 -88 35 -34 56 -63 56 -76 0 -13
-12 -32 -26 -43 -15 -12 -37 -21 -49 -21 -12 0 -38 -6 -56 -14 -19 -7 -65 -17
-104 -21 -40 -4 -77 -14 -87 -22 -10 -9 -18 -29 -18 -45 0 -15 5 -28 12 -28 6
0 32 10 57 22 24 12 63 22 85 22 38 1 40 -1 49 -36 8 -33 13 -38 38 -38 16 0
29 2 29 5 0 2 -8 20 -17 40 -16 34 -16 36 3 50 10 8 37 18 58 21 22 4 53 19
69 34 21 19 30 36 30 58 0 23 -12 44 -55 89 -31 32 -67 72 -81 89 -14 17 -29
42 -32 57 -5 18 0 40 14 67 12 22 21 43 21 45 0 3 -13 5 -30 5z"/>
</g>
</svg>
