<?xml version="1.0" standalone="no"?>
<!DOCTYPE svg PUBLIC "-//W3C//DTD SVG 20010904//EN"
 "http://www.w3.org/TR/2001/REC-SVG-20010904/DTD/svg10.dtd">
<svg version="1.0" xmlns="http://www.w3.org/2000/svg"
 width="56.000000pt" height="56.000000pt" viewBox="0 0 56.000000 56.000000"
 preserveAspectRatio="xMidYMid meet">
<metadata>
Created by potrace 1.16, written by Peter Selinger 2001-2019
</metadata>
<g transform="translate(0.000000,56.000000) scale(0.100000,-0.100000)"
fill="#000000" stroke="none">
<path d="M292 560 c-5 0 -12 -9 -15 -19 -2 -10 -1 -25 4 -32 5 -8 9 -45 9 -83
0 -53 6 -79 26 -120 14 -28 34 -72 44 -99 10 -26 14 -49 10 -52 -4 -3 -30 2
-56 11 -27 9 -57 21 -66 25 -10 5 -32 9 -50 8 -18 0 -46 -8 -62 -18 -16 -9
-34 -24 -40 -34 -9 -14 -4 -24 29 -55 22 -20 64 -49 94 -64 30 -16 64 -28 77
-28 13 0 24 4 24 8 0 5 -8 16 -17 25 -10 8 -44 27 -76 42 -32 15 -62 36 -68
47 -5 10 -7 23 -4 29 4 6 25 7 53 4 26 -4 71 -15 100 -26 29 -10 64 -26 78
-35 20 -14 30 -15 49 -6 18 9 25 19 25 41 0 16 -13 53 -29 82 -16 30 -43 79
-60 109 -17 30 -31 70 -31 88 0 18 4 42 10 52 7 13 6 26 -3 43 -7 13 -20 31
-29 40 -9 10 -21 17 -26 17z"/>
</g>
</svg>
