<?xml version="1.0" standalone="no"?>
<!DOCTYPE svg PUBLIC "-//W3C//DTD SVG 20010904//EN"
 "http://www.w3.org/TR/2001/REC-SVG-20010904/DTD/svg10.dtd">
<svg version="1.0" xmlns="http://www.w3.org/2000/svg"
 width="56.000000pt" height="56.000000pt" viewBox="0 0 56.000000 56.000000"
 preserveAspectRatio="xMidYMid meet">
<metadata>
Created by potrace 1.16, written by Peter Selinger 2001-2019
</metadata>
<g transform="translate(0.000000,56.000000) scale(0.100000,-0.100000)"
fill="#000000" stroke="none">
<path d="M236 560 c-9 0 -16 -3 -16 -6 0 -3 11 -30 25 -60 14 -30 25 -57 25
-59 0 -3 16 -39 35 -81 19 -42 33 -79 31 -83 -3 -4 -33 -8 -67 -9 -34 -1 -67
-6 -74 -12 -6 -5 -14 -7 -18 -4 -3 3 -15 3 -26 -1 -14 -4 -21 -15 -21 -30 0
-13 -4 -27 -10 -30 -5 -3 -10 -17 -10 -31 0 -14 5 -34 10 -45 9 -15 22 -19 70
-19 32 0 61 4 65 10 3 5 12 7 20 3 8 -3 15 -14 15 -24 0 -10 -6 -19 -12 -19
-7 0 -29 -14 -48 -30 -31 -27 -33 -30 -13 -30 11 0 43 12 70 26 26 14 62 34
78 43 17 10 31 24 33 33 2 9 -9 20 -28 28 -20 8 -50 10 -89 6 -35 -4 -70 -2
-87 4 -16 6 -32 17 -36 23 -4 7 -8 17 -8 23 0 6 11 16 25 22 14 7 50 12 80 12
37 0 65 -7 89 -21 19 -11 47 -19 63 -17 17 2 29 10 31 20 2 10 -10 37 -26 60
-16 24 -43 70 -60 103 -17 33 -40 81 -51 106 -12 25 -21 49 -21 53 0 4 -6 14
-14 22 -8 8 -22 14 -30 14z"/>
</g>
</svg>
