<?xml version="1.0" standalone="no"?>
<!DOCTYPE svg PUBLIC "-//W3C//DTD SVG 20010904//EN"
 "http://www.w3.org/TR/2001/REC-SVG-20010904/DTD/svg10.dtd">
<svg version="1.0" xmlns="http://www.w3.org/2000/svg"
 width="56.000000pt" height="56.000000pt" viewBox="0 0 56.000000 56.000000"
 preserveAspectRatio="xMidYMid meet">
<metadata>
Created by potrace 1.16, written by Peter Selinger 2001-2019
</metadata>
<g transform="translate(0.000000,56.000000) scale(0.100000,-0.100000)"
fill="#000000" stroke="none">
<path d="M378 520 c-9 0 -21 -8 -26 -17 -6 -10 -13 -32 -16 -49 -6 -27 -2 -38
22 -65 16 -19 44 -56 61 -83 17 -28 31 -56 31 -64 0 -12 -12 -14 -63 -9 -34 3
-84 15 -111 26 -26 12 -61 21 -76 21 -16 0 -32 5 -35 10 -3 6 -19 10 -34 10
-15 0 -31 -3 -34 -7 -4 -3 0 -15 10 -25 9 -10 24 -18 35 -18 10 0 26 -4 36 -9
9 -5 42 -19 72 -30 38 -15 83 -22 146 -24 78 -2 95 1 113 17 12 11 21 31 21
49 0 20 -19 58 -55 112 -30 45 -55 93 -55 106 0 14 -5 30 -12 37 -7 7 -20 12
-30 12z"/>
<path d="M56 160 c-19 0 -37 -4 -40 -9 -3 -5 3 -20 14 -34 13 -17 37 -29 71
-36 27 -6 84 -11 124 -11 60 0 75 3 75 15 0 12 -14 15 -70 15 -40 0 -70 4 -70
10 0 6 -6 10 -13 10 -7 0 -23 9 -35 20 -13 12 -35 20 -56 20z"/>
</g>
</svg>
