<?xml version="1.0" standalone="no"?>
<!DOCTYPE svg PUBLIC "-//W3C//DTD SVG 20010904//EN"
 "http://www.w3.org/TR/2001/REC-SVG-20010904/DTD/svg10.dtd">
<svg version="1.0" xmlns="http://www.w3.org/2000/svg"
 width="56.000000pt" height="56.000000pt" viewBox="0 0 56.000000 56.000000"
 preserveAspectRatio="xMidYMid meet">
<metadata>
Created by potrace 1.16, written by Peter Selinger 2001-2019
</metadata>
<g transform="translate(0.000000,56.000000) scale(0.100000,-0.100000)"
fill="#000000" stroke="none">
<path d="M358 560 c-26 0 -27 -1 -17 -32 6 -18 14 -42 18 -53 5 -11 14 -42 20
-70 12 -49 12 -51 -15 -73 -22 -19 -34 -22 -58 -17 -17 4 -49 11 -71 16 -22 4
-55 8 -72 9 -24 0 -37 -7 -49 -26 -16 -24 -16 -27 2 -51 10 -14 47 -36 80 -50
34 -13 71 -33 84 -45 18 -17 21 -28 16 -59 -3 -21 -15 -55 -26 -74 -20 -35
-20 -35 16 -35 32 0 36 4 54 46 11 25 20 60 20 78 0 23 -9 40 -32 63 -18 16
-59 40 -90 52 -32 13 -63 29 -69 37 -7 8 -9 17 -5 21 3 4 30 -1 60 -10 29 -9
74 -17 100 -17 26 0 57 5 69 12 12 6 27 18 34 27 7 9 13 33 13 55 0 21 -12 74
-27 117 -25 73 -30 79 -55 79z"/>
</g>
</svg>
