<?xml version="1.0" standalone="no"?>
<!DOCTYPE svg PUBLIC "-//W3C//DTD SVG 20010904//EN"
 "http://www.w3.org/TR/2001/REC-SVG-20010904/DTD/svg10.dtd">
<svg version="1.0" xmlns="http://www.w3.org/2000/svg"
 width="56.000000pt" height="56.000000pt" viewBox="0 0 56.000000 56.000000"
 preserveAspectRatio="xMidYMid meet">
<metadata>
Created by potrace 1.16, written by Peter Selinger 2001-2019
</metadata>
<g transform="translate(0.000000,56.000000) scale(0.100000,-0.100000)"
fill="#000000" stroke="none">
<path d="M310 560 c-16 0 -30 -5 -30 -11 0 -6 15 -37 33 -68 18 -31 38 -67 44
-81 6 -14 16 -39 23 -57 7 -17 9 -36 6 -42 -4 -6 -23 -15 -42 -20 -20 -5 -42
-7 -50 -4 -8 3 -21 3 -29 -1 -11 -4 -13 -11 -6 -23 5 -10 14 -30 21 -45 7 -15
10 -39 6 -55 -4 -15 -11 -44 -16 -63 -5 -19 -12 -47 -16 -62 -5 -21 -3 -28 9
-28 9 0 22 7 30 15 8 8 23 39 32 68 16 50 16 57 1 85 -9 17 -16 33 -16 37 0 3
9 5 20 5 12 0 35 7 53 16 18 9 40 23 50 32 13 12 16 24 11 50 -4 20 -20 60
-35 89 -16 30 -38 67 -49 83 -11 15 -20 40 -20 54 0 22 -4 26 -30 26z"/>
<path d="M119 280 c-9 0 -20 -7 -23 -16 -3 -9 -4 -20 -1 -24 3 -5 12 -7 19 -4
7 3 16 -2 19 -10 4 -9 15 -16 26 -16 11 0 23 4 26 10 3 5 -6 21 -22 35 -15 13
-35 25 -44 25z"/>
</g>
</svg>
