<?xml version="1.0" standalone="no"?>
<!DOCTYPE svg PUBLIC "-//W3C//DTD SVG 20010904//EN"
 "http://www.w3.org/TR/2001/REC-SVG-20010904/DTD/svg10.dtd">
<svg version="1.0" xmlns="http://www.w3.org/2000/svg"
 width="56.000000pt" height="56.000000pt" viewBox="0 0 56.000000 56.000000"
 preserveAspectRatio="xMidYMid meet">
<metadata>
Created by potrace 1.16, written by Peter Selinger 2001-2019
</metadata>
<g transform="translate(0.000000,56.000000) scale(0.100000,-0.100000)"
fill="#000000" stroke="none">
<path d="M192 560 c-13 0 -22 -9 -28 -27 -4 -16 -8 -31 -9 -35 -2 -5 -3 -12
-4 -18 0 -5 -13 -10 -28 -10 -14 0 -35 7 -45 17 -10 9 -21 13 -24 10 -4 -4 -1
-20 6 -37 7 -16 20 -31 29 -31 9 -1 23 -2 31 -3 11 -1 14 -12 13 -41 -1 -22
-7 -71 -13 -110 -7 -38 -21 -98 -31 -132 -10 -34 -19 -77 -19 -96 0 -18 3 -37
6 -40 4 -3 15 -2 24 3 10 5 21 17 25 27 4 10 11 47 16 83 5 36 15 103 24 150
8 47 15 102 15 122 0 34 4 40 40 58 23 12 40 28 40 38 0 9 -11 29 -24 45 -13
15 -32 27 -44 27z m7 -40 c4 0 10 -3 14 -6 3 -3 3 -12 0 -20 -4 -11 -9 -12
-19 -3 -8 6 -11 15 -8 20 3 5 9 9 13 9z"/>
<path d="M431 459 c-20 0 -49 -8 -65 -18 -16 -9 -31 -22 -33 -27 -2 -7 22 -10
71 -8 41 1 80 5 86 9 8 5 6 13 -6 26 -11 12 -30 19 -53 18z"/>
<path d="M338 260 c-5 0 -8 -7 -8 -15 0 -8 5 -15 10 -15 6 0 10 -6 10 -13 0
-8 10 -23 23 -35 13 -12 33 -22 45 -22 11 0 24 -4 27 -10 3 -5 -8 -31 -26 -57
-18 -27 -41 -58 -52 -71 -20 -22 -20 -22 5 -22 18 0 38 13 65 44 21 24 48 61
58 81 20 36 20 36 -13 66 -23 21 -39 28 -55 24 -16 -4 -32 2 -52 19 -17 14
-33 26 -37 26z"/>
</g>
</svg>
