<?xml version="1.0" standalone="no"?>
<!DOCTYPE svg PUBLIC "-//W3C//DTD SVG 20010904//EN"
 "http://www.w3.org/TR/2001/REC-SVG-20010904/DTD/svg10.dtd">
<svg version="1.0" xmlns="http://www.w3.org/2000/svg"
 width="56.000000pt" height="56.000000pt" viewBox="0 0 56.000000 56.000000"
 preserveAspectRatio="xMidYMid meet">
<metadata>
Created by potrace 1.16, written by Peter Selinger 2001-2019
</metadata>
<g transform="translate(0.000000,56.000000) scale(0.100000,-0.100000)"
fill="#000000" stroke="none">
<path d="M203 560 c-8 0 -13 -14 -13 -39 0 -36 5 -44 57 -88 32 -26 63 -53 70
-59 7 -7 24 -32 38 -57 14 -25 25 -52 25 -60 0 -8 -19 -22 -41 -31 -31 -13
-56 -15 -101 -10 -53 6 -61 4 -83 -16 -18 -17 -25 -34 -25 -60 0 -25 7 -43 22
-57 13 -12 45 -35 72 -52 28 -17 60 -31 73 -31 16 0 23 6 23 19 0 11 -12 29
-26 40 -15 12 -31 21 -37 21 -6 0 -25 11 -44 26 -19 14 -33 34 -33 46 0 20 4
20 83 15 69 -4 87 -2 114 15 18 10 35 28 38 38 3 11 6 37 7 58 0 26 -9 52 -27
80 -15 23 -50 59 -79 81 -28 22 -62 58 -76 80 -14 23 -30 41 -37 41z"/>
<path d="M338 560 c-13 0 -29 -9 -36 -21 -7 -12 -11 -24 -7 -27 3 -4 18 0 32
8 15 8 28 21 31 28 2 7 -5 12 -20 12z"/>
</g>
</svg>
