<?xml version="1.0" standalone="no"?>
<!DOCTYPE svg PUBLIC "-//W3C//DTD SVG 20010904//EN"
 "http://www.w3.org/TR/2001/REC-SVG-20010904/DTD/svg10.dtd">
<svg version="1.0" xmlns="http://www.w3.org/2000/svg"
 width="56.000000pt" height="56.000000pt" viewBox="0 0 56.000000 56.000000"
 preserveAspectRatio="xMidYMid meet">
<metadata>
Created by potrace 1.16, written by Peter Selinger 2001-2019
</metadata>
<g transform="translate(0.000000,56.000000) scale(0.100000,-0.100000)"
fill="#000000" stroke="none">
<path d="M238 540 c-5 0 -8 -8 -8 -17 0 -9 10 -27 22 -40 22 -23 22 -23 0 -62
-12 -21 -22 -45 -22 -53 0 -8 -13 -27 -30 -43 -16 -16 -30 -39 -30 -52 0 -14
6 -23 15 -23 8 0 27 18 41 40 15 22 30 40 34 40 4 0 12 -6 18 -13 8 -9 4 -23
-13 -51 -17 -28 -21 -45 -15 -61 4 -12 5 -26 2 -31 -4 -6 -23 -18 -43 -27 -22
-10 -41 -29 -49 -46 -10 -24 -9 -34 5 -61 17 -32 17 -32 46 -4 24 23 38 28 81
29 37 0 57 -4 65 -15 6 -8 15 -11 19 -7 5 4 3 22 -4 39 -8 21 -8 36 -2 42 6 6
10 22 10 37 0 15 -4 39 -10 54 -5 14 -24 32 -41 39 -19 8 -27 16 -20 20 6 4
11 18 11 31 0 13 -11 32 -26 44 -25 20 -25 21 -10 52 9 18 16 45 16 61 0 19
-9 37 -27 53 -16 13 -31 25 -35 25z m75 -320 c7 0 18 -5 25 -12 7 -7 12 -25
12 -40 0 -16 -5 -28 -12 -28 -7 0 -21 7 -32 15 -13 10 -17 21 -12 39 3 15 12
26 19 26z m-12 -100 c11 -6 17 -15 14 -21 -4 -5 -12 -9 -20 -9 -8 0 -17 5 -20
10 -3 6 -3 15 0 20 4 7 13 7 26 0z m-72 -6 c2 -2 1 -10 -2 -19 -4 -8 -11 -15
-17 -15 -5 0 -10 6 -10 14 0 8 6 16 13 19 6 2 14 3 16 1z"/>
</g>
</svg>
