<?xml version="1.0" standalone="no"?>
<!DOCTYPE svg PUBLIC "-//W3C//DTD SVG 20010904//EN"
 "http://www.w3.org/TR/2001/REC-SVG-20010904/DTD/svg10.dtd">
<svg version="1.0" xmlns="http://www.w3.org/2000/svg"
 width="56.000000pt" height="56.000000pt" viewBox="0 0 56.000000 56.000000"
 preserveAspectRatio="xMidYMid meet">
<metadata>
Created by potrace 1.16, written by Peter Selinger 2001-2019
</metadata>
<g transform="translate(0.000000,56.000000) scale(0.100000,-0.100000)"
fill="#000000" stroke="none">
<path d="M259 560 c-15 0 -19 -5 -15 -15 3 -9 2 -23 -3 -33 -5 -9 -15 -43 -22
-75 -7 -32 -16 -60 -21 -63 -4 -3 -8 -21 -8 -39 0 -24 6 -38 19 -45 17 -9 21
-4 37 43 9 28 21 58 27 65 5 6 14 12 19 12 6 0 8 -16 5 -37 -3 -21 -9 -52 -12
-69 -5 -21 -2 -34 8 -43 13 -10 19 -8 35 9 12 13 29 20 43 18 15 -2 25 -12 30
-30 5 -19 1 -40 -13 -67 -11 -23 -22 -41 -24 -41 -2 0 -14 11 -28 25 -14 14
-34 25 -46 25 -15 0 -20 6 -20 26 0 19 -5 25 -17 22 -11 -2 -19 -14 -21 -30
-2 -18 -14 -34 -35 -47 -18 -11 -45 -33 -60 -49 -23 -24 -28 -37 -25 -68 2
-28 8 -40 21 -42 11 -2 32 9 49 25 17 15 41 45 54 65 13 21 24 44 24 53 0 9 9
15 24 15 13 0 27 -7 30 -16 3 -9 6 -29 6 -44 0 -16 -5 -32 -11 -35 -5 -4 -20
1 -31 12 -21 18 -21 18 -15 -16 4 -18 7 -42 7 -52 0 -13 7 -19 24 -19 16 0 37
15 63 44 21 24 43 54 49 67 6 13 19 57 29 97 14 57 15 79 7 98 -7 13 -17 24
-24 25 -7 1 -28 0 -47 -1 -31 -2 -33 0 -27 22 3 12 9 43 13 67 6 44 6 44 -28
39 -19 -3 -42 -8 -52 -13 -15 -6 -16 -4 -7 20 5 14 10 42 10 61 0 28 -4 34
-21 34z m-52 -424 c2 -2 -2 -15 -8 -29 -6 -14 -18 -28 -25 -31 -9 -3 -14 2
-14 14 0 10 10 26 22 34 12 9 23 14 25 12z"/>
</g>
</svg>
