<?xml version="1.0" standalone="no"?>
<!DOCTYPE svg PUBLIC "-//W3C//DTD SVG 20010904//EN"
 "http://www.w3.org/TR/2001/REC-SVG-20010904/DTD/svg10.dtd">
<svg version="1.0" xmlns="http://www.w3.org/2000/svg"
 width="56.000000pt" height="56.000000pt" viewBox="0 0 56.000000 56.000000"
 preserveAspectRatio="xMidYMid meet">
<metadata>
Created by potrace 1.16, written by Peter Selinger 2001-2019
</metadata>
<g transform="translate(0.000000,56.000000) scale(0.100000,-0.100000)"
fill="#000000" stroke="none">
<path d="M239 560 c-20 0 -21 -3 -14 -57 4 -32 13 -70 21 -85 8 -15 23 -32 34
-38 11 -6 20 -17 20 -25 0 -8 14 -28 30 -45 17 -17 30 -39 30 -50 0 -13 -12
-22 -37 -31 -21 -6 -42 -15 -48 -19 -5 -4 -35 -13 -66 -19 -31 -7 -65 -21 -74
-31 -10 -11 -15 -26 -12 -34 3 -8 16 -22 29 -30 13 -8 39 -18 58 -21 19 -3 40
-11 47 -17 7 -6 13 -21 13 -34 0 -19 5 -24 25 -24 16 0 25 6 25 15 0 8 -5 25
-12 38 -6 12 -14 29 -18 37 -4 8 -24 24 -44 34 -30 16 -34 22 -24 32 7 7 33
16 58 19 25 3 68 9 95 13 49 7 50 8 53 44 3 33 -4 45 -61 112 -37 44 -69 93
-77 118 -7 24 -17 47 -22 53 -4 5 -8 17 -8 27 0 12 -7 18 -21 18z"/>
</g>
</svg>
