<?xml version="1.0" standalone="no"?>
<!DOCTYPE svg PUBLIC "-//W3C//DTD SVG 20010904//EN"
 "http://www.w3.org/TR/2001/REC-SVG-20010904/DTD/svg10.dtd">
<svg version="1.0" xmlns="http://www.w3.org/2000/svg"
 width="56.000000pt" height="56.000000pt" viewBox="0 0 56.000000 56.000000"
 preserveAspectRatio="xMidYMid meet">
<metadata>
Created by potrace 1.16, written by Peter Selinger 2001-2019
</metadata>
<g transform="translate(0.000000,56.000000) scale(0.100000,-0.100000)"
fill="#000000" stroke="none">
<path d="M228 559 c-9 1 -18 -7 -20 -16 -2 -10 0 -25 5 -34 6 -9 7 -32 3 -52
-5 -28 -13 -38 -32 -43 -14 -4 -41 -4 -60 -1 -19 3 -43 16 -53 28 -10 13 -23
19 -29 15 -7 -4 -12 -18 -12 -30 0 -16 13 -32 41 -51 30 -20 49 -25 70 -21 15
3 31 1 34 -4 3 -5 -4 -28 -15 -52 -12 -24 -27 -53 -33 -65 -7 -12 -29 -46 -49
-76 -21 -29 -40 -67 -43 -83 -3 -16 -1 -35 4 -43 6 -9 18 -11 35 -7 14 3 38
25 56 50 16 25 30 52 30 61 0 10 9 34 19 54 10 20 24 56 30 81 7 25 17 57 22
71 7 18 22 30 50 38 21 6 39 17 39 22 0 6 -9 22 -19 35 -11 14 -17 33 -14 44
3 11 -4 31 -18 49 -13 16 -32 30 -41 30z"/>
<path d="M407 360 c-50 0 -69 -4 -73 -15 -3 -8 -3 -19 1 -26 5 -7 23 -9 52 -5
33 4 45 2 49 -9 4 -9 -12 -35 -40 -66 -25 -28 -46 -55 -46 -59 0 -5 4 -11 9
-15 5 -3 18 5 28 17 10 13 44 39 76 58 40 24 57 40 57 55 0 12 -10 31 -23 43
-19 18 -35 22 -90 22z"/>
<path d="M345 150 c-10 0 -15 -10 -15 -29 0 -21 8 -35 28 -48 15 -10 36 -23
47 -29 11 -7 19 -19 19 -28 -1 -12 7 -16 31 -16 28 0 32 3 28 20 -3 11 -18 29
-33 40 -16 11 -33 20 -39 20 -6 0 -11 4 -11 9 0 5 -9 13 -20 16 -11 3 -20 15
-20 26 0 10 -7 19 -15 19z"/>
</g>
</svg>
