<?xml version="1.0" standalone="no"?>
<!DOCTYPE svg PUBLIC "-//W3C//DTD SVG 20010904//EN"
 "http://www.w3.org/TR/2001/REC-SVG-20010904/DTD/svg10.dtd">
<svg version="1.0" xmlns="http://www.w3.org/2000/svg"
 width="56.000000pt" height="56.000000pt" viewBox="0 0 56.000000 56.000000"
 preserveAspectRatio="xMidYMid meet">
<metadata>
Created by potrace 1.16, written by Peter Selinger 2001-2019
</metadata>
<g transform="translate(0.000000,56.000000) scale(0.100000,-0.100000)"
fill="#000000" stroke="none">
<path d="M370 560 c-23 0 -31 -5 -36 -25 -3 -14 0 -45 7 -70 8 -25 31 -69 52
-96 21 -28 37 -58 35 -66 -2 -9 -14 -24 -28 -35 -22 -16 -33 -17 -105 -8 -43
6 -102 8 -130 5 -27 -3 -59 -10 -70 -16 -12 -6 -27 -20 -34 -31 -12 -19 -11
-23 5 -35 10 -7 25 -10 34 -7 8 4 52 9 97 12 80 4 83 3 94 -21 8 -18 8 -41 1
-79 -5 -29 -13 -61 -17 -70 -6 -15 -2 -18 23 -18 25 0 31 6 46 43 9 23 16 61
16 83 0 22 -7 49 -15 61 -9 13 -11 24 -5 28 5 3 23 -1 39 -10 17 -8 43 -15 60
-15 20 0 35 8 45 22 9 12 16 42 16 67 0 31 -7 53 -24 75 -13 17 -35 54 -50 83
-14 29 -26 68 -26 88 0 32 -2 35 -30 35z"/>
</g>
</svg>
