<?xml version="1.0" standalone="no"?>
<!DOCTYPE svg PUBLIC "-//W3C//DTD SVG 20010904//EN"
 "http://www.w3.org/TR/2001/REC-SVG-20010904/DTD/svg10.dtd">
<svg version="1.0" xmlns="http://www.w3.org/2000/svg"
 width="56.000000pt" height="56.000000pt" viewBox="0 0 56.000000 56.000000"
 preserveAspectRatio="xMidYMid meet">
<metadata>
Created by potrace 1.16, written by Peter Selinger 2001-2019
</metadata>
<g transform="translate(0.000000,56.000000) scale(0.100000,-0.100000)"
fill="#000000" stroke="none">
<path d="M378 560 c-15 0 -31 -12 -45 -35 -16 -23 -23 -50 -23 -82 0 -34 11
-69 40 -129 22 -46 40 -89 40 -96 0 -7 -18 -19 -39 -25 -29 -9 -54 -10 -90 -3
-30 6 -70 6 -97 1 -25 -5 -49 -13 -54 -17 -4 -5 -10 -18 -14 -29 -3 -12 2 -33
14 -52 10 -17 34 -38 52 -47 18 -8 55 -22 81 -30 26 -9 64 -16 84 -16 34 0 35
1 21 21 -10 15 -38 27 -93 41 -50 12 -87 27 -97 40 -10 11 -18 27 -18 36 0 13
18 14 133 9 74 -3 138 -2 143 1 5 4 17 19 27 35 18 27 18 28 -33 128 -29 58
-50 114 -50 133 0 18 6 44 13 59 6 15 15 27 20 27 4 0 7 7 7 15 0 9 -9 15 -22
15z"/>
</g>
</svg>
