<?xml version="1.0" standalone="no"?>
<!DOCTYPE svg PUBLIC "-//W3C//DTD SVG 20010904//EN"
 "http://www.w3.org/TR/2001/REC-SVG-20010904/DTD/svg10.dtd">
<svg version="1.0" xmlns="http://www.w3.org/2000/svg"
 width="56.000000pt" height="56.000000pt" viewBox="0 0 56.000000 56.000000"
 preserveAspectRatio="xMidYMid meet">
<metadata>
Created by potrace 1.16, written by Peter Selinger 2001-2019
</metadata>
<g transform="translate(0.000000,56.000000) scale(0.100000,-0.100000)"
fill="#000000" stroke="none">
<path d="M131 510 c-6 0 -11 -17 -13 -37 -3 -37 -4 -38 -45 -41 -27 -2 -43 -8
-43 -16 0 -8 6 -18 12 -24 7 -6 30 -13 50 -17 20 -4 39 -12 41 -19 3 -6 -2
-32 -10 -56 -9 -25 -33 -70 -55 -101 -33 -48 -39 -63 -36 -100 2 -23 8 -44 15
-46 6 -2 29 22 50 54 21 32 44 71 51 86 7 15 12 36 12 46 0 10 9 46 21 82 12
35 30 69 40 77 10 7 19 22 19 32 0 11 -9 24 -19 30 -11 5 -28 10 -38 10 -10 0
-24 9 -31 20 -7 11 -16 20 -21 20z"/>
<path d="M461 479 c-3 0 -20 -7 -37 -14 -17 -8 -36 -21 -43 -29 -7 -9 -11 -23
-7 -31 3 -10 19 -15 45 -15 31 0 44 6 60 27 20 24 20 27 5 45 -10 10 -20 18
-23 17z"/>
<path d="M356 240 c-9 0 -16 -3 -16 -6 0 -4 9 -21 20 -38 10 -18 42 -53 71
-79 28 -26 60 -47 69 -47 10 0 23 7 30 15 7 8 10 25 7 37 -4 13 -23 32 -44 43
-21 11 -57 32 -79 48 -23 15 -49 27 -58 27z"/>
</g>
</svg>
