<?xml version="1.0" standalone="no"?>
<!DOCTYPE svg PUBLIC "-//W3C//DTD SVG 20010904//EN"
 "http://www.w3.org/TR/2001/REC-SVG-20010904/DTD/svg10.dtd">
<svg version="1.0" xmlns="http://www.w3.org/2000/svg"
 width="56.000000pt" height="56.000000pt" viewBox="0 0 56.000000 56.000000"
 preserveAspectRatio="xMidYMid meet">
<metadata>
Created by potrace 1.16, written by Peter Selinger 2001-2019
</metadata>
<g transform="translate(0.000000,56.000000) scale(0.100000,-0.100000)"
fill="#000000" stroke="none">
<path d="M141 560 c-26 0 -41 -5 -45 -16 -3 -9 -6 -29 -6 -45 0 -16 3 -29 8
-29 4 0 24 16 45 35 20 20 37 40 37 45 0 6 -18 10 -39 10z"/>
<path d="M291 560 c-10 0 -22 -13 -29 -33 -7 -18 -12 -53 -12 -78 0 -24 7 -65
15 -91 8 -27 22 -65 31 -85 10 -21 26 -50 36 -66 11 -15 18 -37 16 -50 -3 -21
-8 -22 -84 -23 -45 -1 -95 -5 -111 -8 -17 -4 -39 -16 -48 -26 -15 -16 -15 -22
-5 -35 7 -8 23 -15 37 -15 13 0 37 -7 53 -15 17 -9 30 -20 30 -25 0 -6 16 -10
35 -10 24 0 35 5 35 15 0 8 -10 23 -21 34 -13 12 -19 26 -15 36 3 10 13 14 23
12 10 -3 44 -13 76 -23 45 -13 63 -15 82 -6 20 9 25 19 25 48 0 24 -9 48 -28
73 -16 20 -52 73 -80 118 -52 82 -52 82 -48 167 3 76 2 86 -13 86z"/>
<path d="M369 420 c-5 0 -12 -7 -16 -16 -3 -8 -1 -20 4 -25 6 -6 14 -5 22 5 7
8 10 20 6 26 -3 5 -11 10 -16 10z"/>
</g>
</svg>
