<?xml version="1.0" standalone="no"?>
<!DOCTYPE svg PUBLIC "-//W3C//DTD SVG 20010904//EN"
 "http://www.w3.org/TR/2001/REC-SVG-20010904/DTD/svg10.dtd">
<svg version="1.0" xmlns="http://www.w3.org/2000/svg"
 width="56.000000pt" height="56.000000pt" viewBox="0 0 56.000000 56.000000"
 preserveAspectRatio="xMidYMid meet">
<metadata>
Created by potrace 1.16, written by Peter Selinger 2001-2019
</metadata>
<g transform="translate(0.000000,56.000000) scale(0.100000,-0.100000)"
fill="#000000" stroke="none">
<path d="M291 560 c-88 0 -88 0 -83 -26 2 -14 11 -28 18 -31 7 -3 23 2 36 11
12 9 30 16 40 16 10 0 18 -7 18 -15 0 -9 -11 -43 -25 -77 -14 -34 -25 -81 -25
-106 0 -39 5 -48 45 -85 25 -24 45 -46 45 -50 0 -4 -25 -7 -55 -7 -41 0 -55
-4 -55 -14 0 -8 20 -24 44 -36 25 -11 63 -22 86 -23 29 -1 45 3 53 14 5 9 7
28 3 43 -3 14 -26 45 -49 67 -23 23 -50 53 -59 68 -13 19 -16 36 -11 61 3 19
16 50 27 67 12 18 27 33 35 33 8 0 11 6 7 16 -3 9 -6 29 -6 45 0 29 0 29 -89
29z"/>
<path d="M216 193 c-8 3 -18 2 -21 -3 -3 -5 -2 -11 3 -14 4 -2 14 -1 21 3 10
6 9 10 -3 14z"/>
<path d="M166 180 c-7 0 -17 -5 -24 -12 -7 -7 -12 -24 -12 -39 0 -14 9 -38 20
-52 11 -14 40 -37 64 -51 26 -15 60 -26 80 -26 25 0 36 5 36 15 0 8 -12 21
-27 28 -16 8 -39 17 -53 21 -14 3 -36 15 -49 27 -18 15 -25 30 -24 55 1 20 -4
34 -11 34z"/>
</g>
</svg>
