<?xml version="1.0" standalone="no"?>
<!DOCTYPE svg PUBLIC "-//W3C//DTD SVG 20010904//EN"
 "http://www.w3.org/TR/2001/REC-SVG-20010904/DTD/svg10.dtd">
<svg version="1.0" xmlns="http://www.w3.org/2000/svg"
 width="56.000000pt" height="56.000000pt" viewBox="0 0 56.000000 56.000000"
 preserveAspectRatio="xMidYMid meet">
<metadata>
Created by potrace 1.16, written by Peter Selinger 2001-2019
</metadata>
<g transform="translate(0.000000,56.000000) scale(0.100000,-0.100000)"
fill="#000000" stroke="none">
<path d="M237 513 c-34 45 -37 47 -41 25 -3 -12 -7 -34 -8 -48 -2 -18 -10 -26
-27 -28 -21 -3 -23 -1 -19 32 3 25 0 36 -9 36 -7 0 -17 -9 -23 -19 -5 -11 -10
-33 -10 -50 0 -22 8 -35 31 -52 27 -19 30 -25 24 -58 -3 -20 -15 -61 -27 -91
-12 -30 -25 -59 -30 -65 -4 -5 -8 -28 -8 -52 0 -31 4 -43 14 -43 8 0 24 13 35
29 12 16 21 37 21 48 0 10 6 47 14 83 7 36 22 85 31 110 10 25 23 51 28 58 9
11 12 10 19 -2 5 -9 13 -16 18 -16 5 0 12 10 15 21 4 12 3 24 -2 28 -5 3 -26
28 -46 54z"/>
<path d="M362 560 c-12 0 -23 -13 -31 -36 -7 -19 -11 -37 -9 -39 1 -2 10 2 19
8 9 7 21 22 27 34 7 12 12 24 12 27 0 3 -8 6 -18 6z"/>
<path d="M453 523 c-5 3 -17 1 -28 -3 -11 -5 -47 -30 -79 -57 -33 -26 -61 -53
-63 -60 -3 -8 6 -11 23 -10 28 2 28 2 28 -68 1 -70 1 -70 35 -75 19 -3 38 -12
44 -21 7 -11 6 -25 -5 -45 -8 -16 -21 -40 -29 -54 -8 -14 -16 -27 -19 -30 -3
-3 -20 -24 -37 -47 -18 -23 -33 -44 -33 -47 0 -3 11 -6 25 -6 14 0 25 4 25 8
0 5 8 17 18 28 9 10 31 37 47 59 17 22 38 57 48 78 9 21 17 50 17 65 0 16 -6
36 -12 44 -7 9 -29 21 -48 25 -28 7 -36 15 -38 36 -2 15 6 42 17 60 11 18 31
43 45 56 14 14 26 32 26 42 0 10 -3 20 -7 22z"/>
</g>
</svg>
