<?xml version="1.0" standalone="no"?>
<!DOCTYPE svg PUBLIC "-//W3C//DTD SVG 20010904//EN"
 "http://www.w3.org/TR/2001/REC-SVG-20010904/DTD/svg10.dtd">
<svg version="1.0" xmlns="http://www.w3.org/2000/svg"
 width="56.000000pt" height="56.000000pt" viewBox="0 0 56.000000 56.000000"
 preserveAspectRatio="xMidYMid meet">
<metadata>
Created by potrace 1.16, written by Peter Selinger 2001-2019
</metadata>
<g transform="translate(0.000000,56.000000) scale(0.100000,-0.100000)"
fill="#000000" stroke="none">
<path d="M147 540 c-8 0 -17 -3 -20 -6 -4 -4 -4 -11 -1 -15 3 -5 12 -9 20 -9
8 0 14 7 14 15 0 8 -6 15 -13 15z"/>
<path d="M194 500 c-25 0 -26 -2 -21 -39 3 -22 0 -44 -6 -50 -6 -6 -23 -11
-38 -11 -15 0 -35 7 -43 16 -9 8 -16 20 -16 25 0 5 -4 9 -10 9 -5 0 -10 -18
-10 -39 0 -23 7 -46 16 -55 8 -9 29 -16 45 -16 17 0 29 -5 29 -13 0 -7 -7 -23
-16 -35 -9 -13 -14 -29 -11 -36 3 -7 -10 -34 -28 -60 -18 -26 -43 -55 -54 -65
-12 -10 -21 -23 -21 -29 0 -6 9 -16 20 -22 17 -9 26 -5 58 27 21 21 44 53 51
71 11 26 19 32 43 32 28 0 29 2 23 33 -4 17 -7 34 -8 37 0 3 3 25 7 50 7 41
12 48 52 70 29 15 44 29 42 39 -2 11 -12 15 -29 13 -19 -2 -28 3 -37 23 -8 18
-19 25 -38 25z"/>
<path d="M368 377 c-20 4 -29 0 -38 -16 -10 -19 -8 -22 20 -27 17 -4 33 -11
36 -15 3 -5 -15 -29 -40 -54 -26 -25 -51 -57 -57 -72 -6 -15 -8 -42 -4 -60 4
-21 18 -42 39 -58 18 -14 40 -25 49 -25 9 0 42 -7 74 -15 31 -8 66 -15 76 -15
13 0 17 6 15 21 -2 12 -10 25 -18 29 -8 5 -46 13 -84 18 -46 7 -76 18 -92 33
-19 18 -21 25 -12 43 6 11 25 40 42 63 17 23 37 43 44 43 7 0 17 12 22 26 6
14 10 32 10 40 0 8 -12 19 -27 25 -16 6 -40 13 -55 16z"/>
</g>
</svg>
