<?xml version="1.0" standalone="no"?>
<!DOCTYPE svg PUBLIC "-//W3C//DTD SVG 20010904//EN"
 "http://www.w3.org/TR/2001/REC-SVG-20010904/DTD/svg10.dtd">
<svg version="1.0" xmlns="http://www.w3.org/2000/svg"
 width="56.000000pt" height="56.000000pt" viewBox="0 0 56.000000 56.000000"
 preserveAspectRatio="xMidYMid meet">
<metadata>
Created by potrace 1.16, written by Peter Selinger 2001-2019
</metadata>
<g transform="translate(0.000000,56.000000) scale(0.100000,-0.100000)"
fill="#000000" stroke="none">
<path d="M287 560 c-3 0 -8 -7 -11 -16 -3 -9 -6 -24 -6 -34 0 -10 -8 -21 -17
-23 -17 -4 -17 -5 0 -6 9 0 17 -5 17 -10 0 -5 -9 -11 -20 -14 -11 -3 -20 -13
-20 -22 0 -13 6 -16 24 -11 21 5 25 1 36 -38 7 -25 27 -59 46 -78 18 -18 34
-37 34 -43 0 -5 17 -30 38 -54 27 -32 43 -43 55 -38 14 5 17 20 17 74 0 67 0
67 -59 124 -32 31 -68 77 -80 102 -12 25 -21 49 -21 52 0 4 -6 13 -14 21 -8 8
-17 14 -19 14z"/>
<path d="M480 410 c-12 6 -20 7 -20 1 0 -5 3 -16 6 -25 3 -9 12 -16 20 -16 8
0 14 7 14 15 0 8 -9 19 -20 25z"/>
<path d="M156 340 c-8 0 -17 -4 -21 -9 -3 -5 -1 -12 5 -16 5 -3 15 -3 20 0 6
3 10 10 10 16 0 5 -6 9 -14 9z"/>
<path d="M82 257 c-12 15 -22 26 -23 23 -1 -3 -3 -16 -5 -30 -2 -14 -5 -63 -6
-109 -2 -63 0 -85 10 -89 7 -2 16 5 19 17 3 12 12 21 20 21 8 0 27 -8 41 -18
15 -10 35 -22 45 -25 11 -4 21 -16 24 -27 3 -11 8 -20 11 -20 2 0 22 5 43 12
33 9 39 15 39 39 0 21 -6 29 -30 38 -17 5 -47 25 -66 44 -33 31 -35 36 -24 57
11 20 10 25 -6 37 -11 8 -30 11 -45 8 -21 -5 -31 0 -47 22z"/>
</g>
</svg>
