<?xml version="1.0" standalone="no"?>
<!DOCTYPE svg PUBLIC "-//W3C//DTD SVG 20010904//EN"
 "http://www.w3.org/TR/2001/REC-SVG-20010904/DTD/svg10.dtd">
<svg version="1.0" xmlns="http://www.w3.org/2000/svg"
 width="56.000000pt" height="56.000000pt" viewBox="0 0 56.000000 56.000000"
 preserveAspectRatio="xMidYMid meet">
<metadata>
Created by potrace 1.16, written by Peter Selinger 2001-2019
</metadata>
<g transform="translate(0.000000,56.000000) scale(0.100000,-0.100000)"
fill="#000000" stroke="none">
<path d="M368 559 c-22 0 -42 -10 -59 -27 -14 -15 -34 -41 -43 -59 -9 -18 -16
-39 -16 -47 0 -8 9 -20 19 -26 11 -5 25 -10 31 -10 8 0 9 10 5 30 -6 26 -1 35
44 79 28 27 51 52 51 55 0 3 -15 6 -32 5z"/>
<path d="M329 362 c-27 5 -27 5 7 -42 19 -26 34 -52 34 -59 0 -6 -15 -12 -32
-13 -18 0 -40 0 -48 1 -8 1 -31 3 -51 5 -21 1 -44 8 -52 15 -9 7 -28 11 -44 9
-20 -2 -29 -9 -31 -25 -3 -18 4 -24 40 -33 30 -9 47 -9 59 -1 13 7 20 7 27 -2
6 -7 13 -33 17 -59 5 -32 3 -55 -7 -75 -8 -15 -22 -41 -33 -56 -18 -29 -18
-29 15 -25 20 2 37 11 44 23 6 11 19 32 29 47 9 14 17 39 17 55 0 17 -9 38
-20 48 -11 10 -20 22 -20 27 0 5 29 7 65 6 54 -3 66 0 79 17 9 11 16 27 16 35
0 9 -19 34 -42 57 -24 22 -55 43 -69 45z"/>
</g>
</svg>
