<?xml version="1.0" standalone="no"?>
<!DOCTYPE svg PUBLIC "-//W3C//DTD SVG 20010904//EN"
 "http://www.w3.org/TR/2001/REC-SVG-20010904/DTD/svg10.dtd">
<svg version="1.0" xmlns="http://www.w3.org/2000/svg"
 width="56.000000pt" height="56.000000pt" viewBox="0 0 56.000000 56.000000"
 preserveAspectRatio="xMidYMid meet">
<metadata>
Created by potrace 1.16, written by Peter Selinger 2001-2019
</metadata>
<g transform="translate(0.000000,56.000000) scale(0.100000,-0.100000)"
fill="#000000" stroke="none">
<path d="M307 560 c-7 0 -18 -23 -25 -52 -11 -49 -11 -53 15 -87 15 -20 44
-54 63 -76 20 -22 47 -55 59 -73 17 -24 20 -37 13 -44 -7 -7 -42 -8 -99 -4
-48 4 -113 6 -143 6 -41 -1 -64 -8 -95 -28 -33 -23 -41 -34 -43 -64 -2 -23 3
-41 13 -52 11 -11 34 -16 71 -16 30 0 75 5 100 11 34 9 48 9 59 -1 8 -7 17
-27 21 -46 6 -32 9 -34 44 -34 38 0 38 1 30 29 -4 15 -13 38 -19 50 -7 11 -23
28 -36 37 -21 13 -42 15 -119 10 -82 -5 -95 -3 -100 11 -4 9 -2 21 3 26 5 5
22 10 38 10 15 0 93 -5 173 -11 101 -7 148 -7 157 0 7 6 13 32 13 59 0 35 -7
61 -24 88 -14 21 -43 54 -67 74 -23 20 -53 55 -66 78 -12 23 -23 54 -23 70 0
17 -5 29 -13 29z"/>
</g>
</svg>
