<?xml version="1.0" standalone="no"?>
<!DOCTYPE svg PUBLIC "-//W3C//DTD SVG 20010904//EN"
 "http://www.w3.org/TR/2001/REC-SVG-20010904/DTD/svg10.dtd">
<svg version="1.0" xmlns="http://www.w3.org/2000/svg"
 width="128.000000pt" height="128.000000pt" viewBox="0 0 128.000000 128.000000"
 preserveAspectRatio="xMidYMid meet">
<metadata>
Created by potrace 1.16, written by Peter Selinger 2001-2019
</metadata>
<g transform="translate(0.000000,128.000000) scale(0.100000,-0.100000)"
fill="#000000" stroke="none">
<path d="M766 1258 c-6 -1 -28 -3 -48 -5 -27 -3 -38 -9 -38 -20 0 -9 13 -28
30 -42 29 -25 29 -28 19 -71 -6 -25 -8 -56 -6 -69 3 -14 1 -36 -4 -49 -6 -15
-5 -31 2 -43 8 -15 7 -24 -3 -36 -7 -9 -17 -50 -23 -92 -8 -63 -14 -77 -33
-87 -13 -6 -34 -26 -47 -44 -13 -18 -22 -37 -19 -41 3 -5 14 -3 24 4 15 9 25
9 37 1 13 -8 17 -22 14 -57 -1 -25 2 -54 8 -65 7 -14 6 -25 -5 -40 -12 -18
-13 -29 -4 -62 7 -28 8 -46 0 -59 -5 -11 -10 -33 -10 -50 0 -18 5 -31 13 -31
6 0 26 17 42 37 25 32 32 52 40 125 6 50 7 97 2 110 -5 14 -4 38 4 63 7 22 15
43 19 48 3 4 16 -4 29 -17 12 -13 29 -41 36 -63 11 -32 18 -38 41 -38 23 0 29
6 38 40 9 29 17 41 34 43 12 2 31 16 42 32 11 15 20 36 20 47 0 10 4 23 8 28
4 6 16 15 27 21 15 8 21 23 23 58 2 31 8 46 17 46 8 0 17 5 21 11 3 6 1 21 -5
32 -6 12 -15 34 -21 50 -5 15 -17 27 -27 28 -10 1 -34 0 -53 -1 -19 -1 -42 -6
-51 -11 -9 -4 -36 -24 -60 -44 -24 -19 -50 -40 -56 -45 -7 -6 -13 -22 -13 -35
0 -19 -5 -25 -21 -25 -19 0 -20 4 -16 53 2 28 14 98 25 155 19 93 20 106 6
145 -8 23 -22 48 -31 55 -9 6 -22 11 -27 10z m209 -361 c27 -2 30 -5 27 -32
-2 -16 -12 -39 -21 -50 -10 -11 -30 -41 -44 -67 -15 -26 -32 -50 -37 -53 -5
-3 -18 0 -29 7 -12 7 -23 18 -25 24 -2 6 -8 32 -11 58 -7 42 -5 46 13 46 11 0
27 11 36 26 10 14 27 29 39 34 12 5 36 8 52 7z"/>
<path d="M247 1150 c-8 0 -17 -6 -20 -14 -3 -8 1 -22 8 -33 8 -10 15 -26 15
-36 0 -9 -5 -26 -12 -36 -9 -14 -8 -23 5 -42 10 -13 17 -29 17 -36 0 -7 -11
-22 -24 -35 -17 -17 -25 -37 -29 -77 -3 -36 -10 -57 -21 -63 -10 -6 -16 -22
-16 -46 0 -20 -3 -47 -6 -59 -4 -13 -12 -23 -19 -23 -6 0 -19 -8 -27 -17 -8
-10 -21 -38 -28 -63 -7 -25 -12 -64 -11 -87 1 -31 -5 -49 -25 -72 -14 -17 -24
-37 -21 -45 3 -7 20 -16 39 -20 24 -5 36 -2 44 9 6 8 16 15 22 15 8 0 10 -31
8 -97 -2 -54 -9 -125 -15 -158 -6 -33 -13 -72 -17 -88 -5 -25 -4 -27 30 -27
27 0 36 4 36 16 0 14 3 14 15 4 10 -8 19 -9 24 -4 5 5 16 47 25 94 12 61 15
117 12 195 -3 61 -10 126 -17 145 -6 19 -21 42 -32 51 -18 15 -19 20 -8 48 8
17 11 42 9 56 -4 17 2 33 17 49 13 15 25 43 29 73 4 34 14 57 31 73 14 13 25
34 25 47 0 13 12 60 27 104 27 80 27 80 5 123 -13 23 -36 50 -51 59 -16 9 -36
17 -44 17z m-32 -776 c8 -4 15 -12 15 -20 0 -8 -7 -14 -15 -14 -8 0 -15 9 -15
20 0 13 5 18 15 14z"/>
<path d="M480 810 c-8 0 -26 -12 -39 -26 -20 -20 -22 -29 -14 -47 6 -12 16
-35 22 -50 6 -15 11 -38 11 -51 0 -13 -8 -30 -18 -39 -10 -10 -29 -17 -41 -17
-12 0 -33 -7 -46 -16 -14 -9 -25 -22 -25 -29 0 -8 13 -23 29 -34 16 -12 42
-21 58 -21 15 0 34 -4 42 -9 8 -5 17 -39 22 -82 5 -41 12 -91 15 -111 4 -27
18 -49 50 -78 24 -22 48 -40 54 -40 6 0 13 7 17 16 3 9 0 33 -7 53 -7 20 -21
45 -31 57 -12 13 -18 34 -18 60 1 21 -4 76 -10 122 -8 62 -8 88 0 104 8 14 9
47 5 96 -6 60 -12 81 -34 108 -15 19 -34 34 -42 34z m35 -144 c8 -11 15 -38
15 -59 0 -34 -2 -38 -15 -27 -9 8 -15 29 -15 59 1 43 2 45 15 27z"/>
<path d="M644 240 c0 0 -4 -3 -7 -7 -4 -3 -7 -21 -7 -40 0 -23 5 -35 18 -39 9
-3 24 -9 32 -13 8 -4 21 -20 28 -35 12 -23 11 -31 -2 -51 -9 -14 -35 -30 -58
-37 -43 -13 -43 -13 11 -16 30 -2 59 2 64 7 6 6 21 11 32 11 12 0 49 14 83 31
55 27 62 34 59 57 -1 15 3 28 8 29 6 1 9 -9 8 -23 -2 -22 1 -24 20 -17 12 4
38 8 57 9 19 1 40 2 45 4 6 1 37 4 70 5 33 2 71 5 85 7 14 2 31 7 38 11 6 5
12 18 12 31 0 13 -9 31 -20 41 -13 11 -25 15 -37 10 -10 -5 -28 -7 -40 -6 -14
1 -24 -5 -28 -18 -3 -12 -14 -21 -23 -21 -10 0 -22 10 -27 23 -9 19 -17 22
-55 20 -25 -1 -70 -4 -100 -7 -30 -2 -61 0 -67 6 -7 6 -22 8 -32 5 -11 -3 -53
1 -93 9 -40 8 -73 14 -74 14z"/>
</g>
</svg>
