<?xml version="1.0" standalone="no"?>
<!DOCTYPE svg PUBLIC "-//W3C//DTD SVG 20010904//EN"
 "http://www.w3.org/TR/2001/REC-SVG-20010904/DTD/svg10.dtd">
<svg version="1.0" xmlns="http://www.w3.org/2000/svg"
 width="128.000000pt" height="128.000000pt" viewBox="0 0 128.000000 128.000000"
 preserveAspectRatio="xMidYMid meet">
<metadata>
Created by potrace 1.16, written by Peter Selinger 2001-2019
</metadata>
<g transform="translate(0.000000,128.000000) scale(0.100000,-0.100000)"
fill="#000000" stroke="none">
<path d="M663 1256 c-30 2 -60 -3 -77 -11 -16 -8 -36 -15 -45 -15 -9 0 -25 -7
-35 -15 -11 -8 -31 -15 -44 -15 -13 0 -47 -9 -75 -21 -29 -12 -62 -26 -74 -31
-12 -6 -24 -17 -27 -24 -3 -8 -3 -20 0 -28 3 -8 20 -16 37 -18 26 -2 31 -7 29
-23 -2 -11 -8 -62 -13 -113 -5 -51 -13 -100 -18 -110 -4 -9 -12 -44 -15 -77
-4 -33 -20 -87 -36 -120 -16 -33 -31 -78 -34 -100 -2 -22 -11 -66 -18 -97 -7
-31 -23 -67 -34 -80 -12 -13 -27 -40 -33 -60 -7 -20 -17 -38 -23 -40 -6 -2
-15 -29 -19 -59 -4 -30 -11 -74 -14 -99 -4 -25 -2 -57 4 -72 7 -20 18 -28 34
-28 19 0 28 10 45 53 12 29 22 61 22 71 0 11 6 27 14 35 7 9 23 44 34 79 13
37 19 75 16 92 -4 19 0 37 12 54 11 14 26 26 36 26 10 0 27 -23 47 -66 17 -37
47 -93 67 -125 23 -39 42 -59 55 -59 13 0 26 15 40 45 16 34 20 55 15 92 -4
27 -2 73 4 103 6 30 15 75 20 100 8 41 6 47 -15 63 -20 15 -22 22 -14 41 7 15
26 26 57 35 33 8 56 23 78 48 21 25 36 34 47 30 15 -6 17 -22 16 -111 -2 -100
-3 -104 -26 -115 -13 -6 -41 -11 -61 -11 -21 0 -43 -5 -50 -12 -7 -7 -12 -17
-12 -23 0 -6 17 -19 38 -28 21 -9 48 -17 60 -17 12 0 22 -3 23 -7 0 -5 2 -65
4 -136 2 -84 7 -133 16 -143 7 -8 21 -20 32 -26 11 -6 49 -14 84 -18 51 -7 72
-5 113 11 28 10 69 19 91 19 29 0 55 9 90 32 39 25 49 37 49 59 0 21 -7 32
-29 44 -16 8 -32 23 -35 32 -3 10 -20 33 -38 52 -17 18 -45 39 -62 46 -17 7
-34 11 -38 9 -5 -3 -8 -15 -8 -28 0 -12 14 -35 30 -51 17 -16 30 -36 30 -45 0
-9 -10 -26 -22 -37 -16 -14 -42 -22 -90 -26 -37 -4 -76 -12 -88 -19 -17 -11
-22 -11 -31 2 -5 8 -7 37 -4 65 3 28 6 55 7 60 1 6 -2 28 -6 49 -7 39 -7 39
37 33 28 -4 48 -2 55 5 7 7 12 25 12 40 0 22 -7 31 -27 39 -16 6 -45 19 -65
28 -21 9 -38 19 -38 24 0 4 11 24 23 45 13 20 29 53 35 72 6 19 12 61 14 94 3
53 1 60 -23 78 -26 20 -28 20 -80 3 -30 -10 -71 -28 -93 -40 -38 -22 -38 -22
-62 2 -13 13 -30 23 -38 23 -9 0 -20 -9 -27 -21 -6 -12 -9 -50 -7 -87 3 -67 3
-67 -31 -83 -19 -9 -46 -29 -60 -46 -14 -16 -39 -35 -54 -41 -23 -10 -29 -9
-34 4 -3 8 -3 46 -1 84 3 38 14 87 26 111 11 24 25 60 31 79 6 19 15 77 20
129 5 52 5 106 1 122 -6 20 -4 31 8 42 10 8 35 22 56 31 31 13 41 14 47 4 5
-7 5 -24 2 -37 -3 -14 -11 -34 -17 -45 -6 -12 -20 -33 -30 -49 -18 -26 -18
-28 -1 -47 10 -11 34 -24 54 -30 20 -5 64 -10 98 -10 34 0 73 4 88 10 14 5 28
17 31 25 4 8 3 26 0 39 -4 16 -21 29 -56 44 -29 12 -50 27 -50 36 0 8 6 19 13
23 7 4 27 30 45 56 18 26 32 58 32 70 0 12 -4 28 -9 36 -5 7 -31 15 -58 17z
m-200 -759 c7 -2 13 -19 15 -38 2 -18 1 -52 -3 -75 -3 -23 -11 -49 -18 -58 -8
-10 -19 -15 -29 -11 -9 4 -20 21 -24 38 -4 18 -13 42 -21 54 -13 20 -12 23 14
40 15 10 34 26 41 36 8 10 19 16 25 14z"/>
</g>
</svg>
