<?xml version="1.0" standalone="no"?>
<!DOCTYPE svg PUBLIC "-//W3C//DTD SVG 20010904//EN"
 "http://www.w3.org/TR/2001/REC-SVG-20010904/DTD/svg10.dtd">
<svg version="1.0" xmlns="http://www.w3.org/2000/svg"
 width="56.000000pt" height="56.000000pt" viewBox="0 0 56.000000 56.000000"
 preserveAspectRatio="xMidYMid meet">
<metadata>
Created by potrace 1.16, written by Peter Selinger 2001-2019
</metadata>
<g transform="translate(0.000000,56.000000) scale(0.100000,-0.100000)"
fill="#000000" stroke="none">
<path d="M150 560 c-11 0 -20 -3 -20 -7 0 -5 9 -23 20 -41 11 -18 31 -37 45
-42 14 -5 25 -14 25 -19 0 -5 -18 -31 -41 -58 -22 -26 -56 -65 -76 -85 -26
-27 -34 -44 -31 -65 2 -20 9 -29 25 -31 14 -2 26 4 33 18 8 15 19 20 38 18 15
-2 28 -10 29 -18 1 -8 5 -64 8 -123 7 -103 8 -108 29 -105 15 2 22 11 24 33 2
17 9 36 15 43 5 7 14 34 19 60 5 26 11 59 15 74 3 16 11 28 19 28 7 0 25 -10
39 -23 26 -22 26 -22 -9 -98 -20 -42 -36 -82 -36 -88 0 -8 5 -9 18 -2 11 6 38
35 61 65 24 30 51 58 62 61 10 4 19 12 19 19 0 7 -16 31 -36 54 -20 24 -49 49
-65 57 -15 8 -40 15 -54 15 -14 0 -28 -7 -31 -15 -4 -8 -14 -15 -23 -15 -10 0
-26 15 -36 33 -18 33 -18 34 6 67 13 18 37 46 53 63 28 31 28 31 1 54 -14 13
-34 23 -45 23 -10 0 -32 8 -49 18 -17 9 -31 20 -31 25 0 4 -9 7 -20 7z"/>
</g>
</svg>
