<?xml version="1.0" standalone="no"?>
<!DOCTYPE svg PUBLIC "-//W3C//DTD SVG 20010904//EN"
 "http://www.w3.org/TR/2001/REC-SVG-20010904/DTD/svg10.dtd">
<svg version="1.0" xmlns="http://www.w3.org/2000/svg"
 width="56.000000pt" height="56.000000pt" viewBox="0 0 56.000000 56.000000"
 preserveAspectRatio="xMidYMid meet">
<metadata>
Created by potrace 1.16, written by Peter Selinger 2001-2019
</metadata>
<g transform="translate(0.000000,56.000000) scale(0.100000,-0.100000)"
fill="#000000" stroke="none">
<path d="M153 536 c-15 4 -30 -2 -48 -21 -23 -22 -26 -32 -21 -63 3 -20 8 -53
12 -73 5 -34 3 -39 -40 -75 -35 -29 -46 -45 -46 -66 0 -16 7 -31 15 -34 9 -4
40 21 88 72 65 69 76 76 100 70 15 -3 33 -18 40 -34 8 -15 17 -58 20 -97 3
-38 2 -93 -2 -122 -4 -29 -3 -59 1 -68 5 -8 17 -15 27 -15 12 0 27 15 40 40
12 23 21 59 21 83 0 23 -5 60 -11 82 -5 22 -13 47 -16 55 -4 8 -14 37 -23 65
-15 47 -18 50 -60 58 -25 5 -46 10 -48 12 -1 1 7 24 18 51 20 46 20 49 4 61
-10 7 -25 13 -33 13 -9 0 -26 3 -38 6z"/>
<path d="M411 460 c-12 0 -21 -6 -21 -12 0 -7 12 -26 26 -43 14 -16 32 -41 39
-55 7 -14 16 -40 20 -58 3 -18 15 -37 26 -43 11 -5 29 -7 39 -4 16 5 20 15 20
51 0 25 -6 52 -12 60 -7 8 -27 30 -43 48 -17 18 -40 38 -52 44 -12 7 -31 12
-42 12z"/>
<path d="M64 100 c-9 0 -14 -5 -12 -12 2 -6 10 -14 16 -16 7 -2 12 3 12 12 0
9 -7 16 -16 16z"/>
</g>
</svg>
