<?xml version="1.0" standalone="no"?>
<!DOCTYPE svg PUBLIC "-//W3C//DTD SVG 20010904//EN"
 "http://www.w3.org/TR/2001/REC-SVG-20010904/DTD/svg10.dtd">
<svg version="1.0" xmlns="http://www.w3.org/2000/svg"
 width="56.000000pt" height="56.000000pt" viewBox="0 0 56.000000 56.000000"
 preserveAspectRatio="xMidYMid meet">
<metadata>
Created by potrace 1.16, written by Peter Selinger 2001-2019
</metadata>
<g transform="translate(0.000000,56.000000) scale(0.100000,-0.100000)"
fill="#000000" stroke="none">
<path d="M220 560 c-15 0 -30 -6 -33 -13 -3 -9 -31 -16 -78 -21 -40 -3 -75 -9
-78 -12 -3 -3 0 -13 6 -22 6 -11 23 -17 44 -16 19 0 42 4 52 8 13 6 17 4 17
-10 0 -11 -7 -28 -15 -38 -8 -11 -15 -28 -15 -37 0 -10 -18 -33 -40 -51 -23
-18 -50 -50 -60 -70 -11 -21 -20 -46 -20 -58 0 -12 7 -20 17 -20 10 0 50 35
89 77 45 49 75 74 83 69 8 -5 10 -23 6 -54 -3 -26 -11 -72 -16 -103 -10 -48
-8 -65 7 -110 10 -30 17 -60 16 -66 -2 -9 10 -13 33 -13 30 0 39 5 53 31 9 17
27 44 39 59 12 15 57 50 100 78 43 28 85 58 93 66 8 8 21 21 28 30 6 8 12 20
12 26 0 5 -5 10 -10 10 -6 0 -6 7 1 18 9 15 7 26 -13 58 -14 21 -34 47 -45 57
-11 10 -43 20 -70 24 -49 5 -50 5 -101 -46 -29 -29 -57 -49 -62 -46 -6 3 -10
11 -10 17 0 7 -9 22 -21 34 -21 22 -21 22 4 66 13 23 22 51 20 61 -3 11 -14
17 -33 17z m188 -159 c10 -5 24 -17 31 -25 6 -8 14 -30 18 -49 5 -32 0 -39
-96 -136 -71 -72 -103 -98 -107 -87 -3 8 1 38 9 68 8 29 22 78 31 108 11 40
26 65 56 93 32 30 44 36 58 28z"/>
</g>
</svg>
