<?xml version="1.0" standalone="no"?>
<!DOCTYPE svg PUBLIC "-//W3C//DTD SVG 20010904//EN"
 "http://www.w3.org/TR/2001/REC-SVG-20010904/DTD/svg10.dtd">
<svg version="1.0" xmlns="http://www.w3.org/2000/svg"
 width="56.000000pt" height="56.000000pt" viewBox="0 0 56.000000 56.000000"
 preserveAspectRatio="xMidYMid meet">
<metadata>
Created by potrace 1.16, written by Peter Selinger 2001-2019
</metadata>
<g transform="translate(0.000000,56.000000) scale(0.100000,-0.100000)"
fill="#000000" stroke="none">
<path d="M84 560 c-8 0 -14 -7 -14 -16 0 -9 9 -29 21 -45 17 -24 20 -40 16
-87 -2 -31 -14 -91 -25 -132 -11 -41 -24 -84 -27 -96 -4 -11 1 -45 9 -75 9
-30 27 -67 41 -82 14 -15 32 -27 39 -27 8 0 16 6 18 12 3 7 3 32 0 55 -2 24
-8 43 -13 43 -4 0 -12 -8 -18 -17 -8 -16 -11 -14 -21 12 -6 17 -10 46 -7 65 2
19 14 71 26 115 12 44 24 107 27 140 5 56 4 62 -26 98 -17 20 -38 37 -46 37z"/>
<path d="M391 560 c-5 0 -12 -7 -15 -16 -3 -9 -12 -14 -20 -11 -8 3 -22 -3
-31 -13 -11 -13 -13 -20 -5 -25 6 -4 19 0 28 8 9 7 25 17 35 20 9 4 17 13 17
22 0 8 -4 15 -9 15z"/>
<path d="M426 560 c-11 0 -16 -14 -18 -52 -2 -42 -7 -55 -25 -63 -12 -6 -33
-20 -47 -30 -17 -13 -26 -29 -26 -46 0 -15 6 -32 14 -38 9 -8 28 -10 50 -5 28
5 36 3 36 -8 0 -8 -5 -29 -11 -45 -5 -17 -28 -45 -50 -62 -30 -25 -39 -39 -39
-62 0 -17 5 -39 10 -50 6 -10 19 -19 29 -19 10 0 25 8 34 18 8 9 21 32 29 49
10 24 17 30 27 24 10 -7 14 -32 15 -90 1 -77 2 -81 24 -81 20 0 22 4 22 63 0
48 -7 75 -30 122 -20 41 -30 75 -30 108 0 39 5 52 26 72 16 15 24 31 20 40 -3
8 -12 15 -20 15 -8 0 -24 -13 -35 -29 -16 -22 -26 -27 -46 -23 -15 2 -25 11
-25 21 0 9 8 21 18 26 10 6 35 21 55 34 21 13 42 32 48 43 9 17 7 25 -15 44
-14 13 -32 24 -40 24z m-55 -370 c5 0 9 -6 9 -12 0 -7 -4 -19 -9 -27 -5 -8
-11 -9 -15 -3 -3 6 -3 17 0 26 3 9 10 16 15 16z"/>
</g>
</svg>
