<?xml version="1.0" standalone="no"?>
<!DOCTYPE svg PUBLIC "-//W3C//DTD SVG 20010904//EN"
 "http://www.w3.org/TR/2001/REC-SVG-20010904/DTD/svg10.dtd">
<svg version="1.0" xmlns="http://www.w3.org/2000/svg"
 width="56.000000pt" height="56.000000pt" viewBox="0 0 56.000000 56.000000"
 preserveAspectRatio="xMidYMid meet">
<metadata>
Created by potrace 1.16, written by Peter Selinger 2001-2019
</metadata>
<g transform="translate(0.000000,56.000000) scale(0.100000,-0.100000)"
fill="#000000" stroke="none">
<path d="M252 539 c-9 -1 -28 -4 -42 -8 -14 -4 -47 -17 -73 -29 -27 -12 -55
-22 -63 -22 -8 0 -17 -7 -21 -15 -3 -10 8 -28 33 -50 39 -33 39 -33 61 -12 13
11 26 17 30 14 3 -4 -3 -17 -15 -30 -12 -13 -22 -28 -22 -34 0 -6 -25 -33 -55
-60 -36 -31 -59 -61 -66 -83 -6 -20 -9 -49 -7 -65 2 -25 7 -30 30 -30 23 0 35
11 70 65 24 35 48 63 53 62 6 -1 10 -15 9 -30 0 -15 -6 -54 -12 -87 -10 -60
-10 -60 22 -93 30 -31 33 -32 80 -23 27 5 53 16 58 25 5 9 15 16 22 16 7 0 21
8 32 18 10 10 45 35 77 55 31 20 60 37 62 37 3 0 14 9 25 20 13 13 20 33 20
58 0 26 -10 51 -35 84 -20 27 -50 54 -70 62 -21 9 -49 13 -72 9 -21 -3 -55
-15 -76 -27 -22 -11 -44 -31 -51 -44 -11 -20 -14 -21 -31 -8 -19 14 -19 15 11
53 17 21 36 48 42 60 7 12 12 34 12 48 0 14 -5 35 -10 46 -6 10 -18 18 -28 18z
m185 -200 c6 1 21 -12 32 -28 12 -16 21 -38 21 -50 0 -14 -12 -27 -37 -40 -21
-10 -48 -30 -59 -43 -12 -12 -43 -43 -69 -68 -47 -45 -47 -45 -72 -15 -22 27
-24 36 -18 90 4 33 12 69 20 81 8 13 43 31 92 47 43 14 83 26 90 26z"/>
</g>
</svg>
