<?xml version="1.0" standalone="no"?>
<!DOCTYPE svg PUBLIC "-//W3C//DTD SVG 20010904//EN"
 "http://www.w3.org/TR/2001/REC-SVG-20010904/DTD/svg10.dtd">
<svg version="1.0" xmlns="http://www.w3.org/2000/svg"
 width="56.000000pt" height="56.000000pt" viewBox="0 0 56.000000 56.000000"
 preserveAspectRatio="xMidYMid meet">
<metadata>
Created by potrace 1.16, written by Peter Selinger 2001-2019
</metadata>
<g transform="translate(0.000000,56.000000) scale(0.100000,-0.100000)"
fill="#000000" stroke="none">
<path d="M261 540 c-6 0 -16 -11 -21 -25 -8 -21 -14 -24 -37 -19 -16 3 -40 10
-55 16 -15 6 -35 7 -44 4 -15 -6 -12 -12 16 -41 19 -19 42 -35 51 -35 10 0 21
-5 24 -10 4 -6 -5 -27 -20 -46 -15 -20 -46 -48 -69 -64 -22 -16 -54 -39 -69
-51 -22 -17 -27 -28 -25 -53 2 -19 9 -32 20 -34 9 -2 35 18 62 46 25 27 64 57
87 68 41 18 41 18 61 -6 16 -20 18 -33 12 -94 -4 -39 -10 -80 -14 -91 -5 -13
-1 -33 13 -58 11 -20 26 -37 33 -37 6 0 16 6 22 12 5 7 12 56 14 108 3 64 10
106 22 128 10 19 31 39 50 47 18 8 42 11 54 8 12 -3 23 -16 26 -32 3 -14 8
-45 11 -68 4 -23 13 -47 21 -54 12 -10 19 -8 34 9 13 14 20 35 20 62 0 22 -4
40 -8 40 -5 0 -15 12 -22 28 -8 15 -21 35 -29 45 -10 12 -29 17 -63 17 -39 0
-59 -7 -95 -31 -45 -31 -45 -31 -74 -3 -16 15 -29 34 -29 42 0 7 12 29 27 49
15 19 37 39 50 44 13 5 23 13 23 18 0 6 -15 21 -33 35 -19 15 -39 26 -46 26z"/>
</g>
</svg>
