<?xml version="1.0" standalone="no"?>
<!DOCTYPE svg PUBLIC "-//W3C//DTD SVG 20010904//EN"
 "http://www.w3.org/TR/2001/REC-SVG-20010904/DTD/svg10.dtd">
<svg version="1.0" xmlns="http://www.w3.org/2000/svg"
 width="56.000000pt" height="56.000000pt" viewBox="0 0 56.000000 56.000000"
 preserveAspectRatio="xMidYMid meet">
<metadata>
Created by potrace 1.16, written by Peter Selinger 2001-2019
</metadata>
<g transform="translate(0.000000,56.000000) scale(0.100000,-0.100000)"
fill="#000000" stroke="none">
<path d="M193 540 c-5 0 -25 -16 -47 -36 -27 -25 -35 -39 -28 -46 6 -6 7 -18
3 -27 -5 -9 -19 -36 -31 -61 -13 -25 -38 -66 -57 -91 -18 -26 -33 -54 -33 -63
0 -9 6 -19 14 -22 7 -3 40 13 72 34 32 22 73 47 91 56 18 9 37 16 43 16 6 0
10 -25 10 -62 0 -35 -6 -79 -13 -98 -7 -19 -16 -41 -20 -48 -5 -7 -4 -19 3
-27 7 -8 18 -15 24 -15 6 0 26 22 44 48 18 26 49 68 70 93 20 26 51 58 67 71
17 14 40 28 52 32 17 5 26 1 39 -19 15 -23 15 -31 4 -65 -7 -21 -27 -54 -45
-73 -17 -18 -38 -36 -46 -39 -8 -3 -33 -20 -56 -37 -24 -17 -43 -36 -43 -41 0
-6 12 -10 26 -10 16 0 46 18 81 48 31 26 68 59 82 73 14 14 34 35 44 47 9 12
17 36 17 52 0 20 -11 42 -31 65 -18 19 -40 37 -50 40 -10 3 -32 -1 -48 -10
-17 -8 -54 -38 -82 -65 -28 -28 -55 -50 -59 -50 -4 0 -10 21 -13 47 -4 35 -12
53 -32 70 -14 13 -29 23 -34 23 -4 0 -17 -8 -30 -17 -13 -10 -31 -26 -39 -35
-9 -10 -20 -18 -24 -18 -5 0 -8 7 -8 15 0 9 11 38 25 65 22 44 28 49 62 52 35
3 38 6 41 35 2 24 -2 35 -17 45 -12 7 -21 21 -21 30 0 10 -3 18 -7 18z"/>
</g>
</svg>
