<?xml version="1.0" standalone="no"?>
<!DOCTYPE svg PUBLIC "-//W3C//DTD SVG 20010904//EN"
 "http://www.w3.org/TR/2001/REC-SVG-20010904/DTD/svg10.dtd">
<svg version="1.0" xmlns="http://www.w3.org/2000/svg"
 width="56.000000pt" height="56.000000pt" viewBox="0 0 56.000000 56.000000"
 preserveAspectRatio="xMidYMid meet">
<metadata>
Created by potrace 1.16, written by Peter Selinger 2001-2019
</metadata>
<g transform="translate(0.000000,56.000000) scale(0.100000,-0.100000)"
fill="#000000" stroke="none">
<path d="M206 535 c-17 0 -52 -1 -78 -3 -27 -2 -48 -9 -51 -17 -3 -7 3 -21 14
-31 17 -16 24 -16 55 -5 20 7 38 11 40 8 3 -2 -13 -27 -36 -55 -22 -28 -40
-55 -40 -59 0 -5 -16 -23 -35 -40 -19 -18 -35 -36 -35 -41 0 -5 -7 -15 -16
-22 -9 -8 -14 -25 -12 -44 2 -23 9 -32 24 -34 14 -2 32 10 55 36 19 21 44 50
56 65 13 15 27 27 32 27 6 0 12 -4 16 -9 3 -6 -2 -42 -11 -81 -9 -39 -13 -86
-10 -103 3 -18 12 -44 20 -58 8 -16 10 -32 5 -40 -5 -8 -9 -17 -9 -21 0 -5 11
-8 24 -8 14 0 28 5 31 10 3 6 38 31 77 58 39 26 78 52 87 57 9 6 40 28 69 49
29 21 55 49 58 62 4 14 1 45 -6 69 -9 31 -27 58 -61 90 -35 33 -56 45 -79 45
-22 0 -33 -6 -39 -22 -5 -13 -17 -31 -28 -40 -10 -10 -29 -29 -43 -43 -13 -14
-27 -25 -30 -25 -4 0 -16 13 -28 30 -22 29 -22 30 -5 67 10 20 26 45 36 55 9
10 17 24 17 32 0 7 -7 20 -16 27 -9 7 -30 14 -48 14z m171 -145 c7 0 28 -14
48 -31 19 -17 35 -40 35 -50 0 -11 -18 -44 -40 -74 -22 -30 -56 -71 -76 -90
-19 -19 -46 -42 -60 -51 -17 -12 -28 -14 -35 -7 -7 7 -4 35 11 89 11 44 26 93
33 109 6 17 25 47 41 67 17 21 36 38 43 38z"/>
</g>
</svg>
