<?xml version="1.0" standalone="no"?>
<!DOCTYPE svg PUBLIC "-//W3C//DTD SVG 20010904//EN"
 "http://www.w3.org/TR/2001/REC-SVG-20010904/DTD/svg10.dtd">
<svg version="1.0" xmlns="http://www.w3.org/2000/svg"
 width="56.000000pt" height="56.000000pt" viewBox="0 0 56.000000 56.000000"
 preserveAspectRatio="xMidYMid meet">
<metadata>
Created by potrace 1.16, written by Peter Selinger 2001-2019
</metadata>
<g transform="translate(0.000000,56.000000) scale(0.100000,-0.100000)"
fill="#000000" stroke="none">
<path d="M98 560 c-4 0 -8 -15 -8 -34 0 -18 5 -47 11 -64 7 -21 27 -42 60 -62
50 -30 50 -30 29 -60 -11 -16 -36 -38 -55 -50 -20 -12 -42 -35 -50 -50 -8 -16
-12 -36 -9 -44 3 -9 12 -16 19 -16 8 0 23 13 35 30 12 16 30 30 40 30 11 0 23
-8 28 -17 4 -10 7 -43 6 -73 -1 -30 -5 -77 -9 -103 -6 -46 -5 -48 16 -45 18 2
25 14 35 52 7 28 11 53 8 57 -2 4 1 30 6 59 7 35 6 58 0 71 -6 10 -16 19 -23
19 -7 0 -18 5 -24 11 -9 9 -4 23 18 56 17 24 29 51 27 60 -2 9 -27 35 -56 57
-29 23 -63 58 -75 79 -11 20 -25 37 -29 37z"/>
<path d="M356 260 c-9 0 -16 -4 -16 -9 0 -4 13 -25 29 -45 17 -21 28 -43 25
-50 -2 -6 -17 -19 -32 -28 -15 -9 -42 -32 -61 -52 -19 -20 -31 -39 -27 -43 4
-4 19 1 34 10 15 9 51 29 80 44 30 14 60 36 69 49 8 13 12 32 8 43 -3 12 -26
34 -50 51 -24 16 -51 30 -59 30z"/>
</g>
</svg>
