<?xml version="1.0" standalone="no"?>
<!DOCTYPE svg PUBLIC "-//W3C//DTD SVG 20010904//EN"
 "http://www.w3.org/TR/2001/REC-SVG-20010904/DTD/svg10.dtd">
<svg version="1.0" xmlns="http://www.w3.org/2000/svg"
 width="56.000000pt" height="56.000000pt" viewBox="0 0 56.000000 56.000000"
 preserveAspectRatio="xMidYMid meet">
<metadata>
Created by potrace 1.16, written by Peter Selinger 2001-2019
</metadata>
<g transform="translate(0.000000,56.000000) scale(0.100000,-0.100000)"
fill="#000000" stroke="none">
<path d="M237 511 c-10 14 -17 17 -22 9 -4 -6 1 -27 11 -46 14 -26 16 -36 6
-46 -7 -7 -24 -12 -39 -13 -22 0 -29 -6 -37 -33 -6 -21 -6 -36 1 -43 6 -6 21
-4 41 7 24 12 46 14 85 9 29 -4 60 -14 70 -23 12 -11 17 -30 17 -73 0 -32 -4
-61 -10 -64 -6 -3 -10 -13 -10 -21 0 -9 -13 -34 -29 -57 -16 -23 -39 -53 -52
-66 -19 -20 -28 -23 -70 -18 -42 5 -50 3 -59 -13 -10 -19 -7 -20 55 -20 66 0
67 0 110 46 25 25 55 69 69 97 13 29 30 68 37 88 10 32 10 42 -5 72 -9 20 -29
45 -45 56 -16 12 -39 21 -50 21 -12 0 -21 4 -21 9 0 5 16 19 35 31 19 12 35
25 35 30 0 4 -18 15 -40 24 -22 9 -47 16 -55 16 -7 0 -20 9 -28 21z"/>
</g>
</svg>
