<?xml version="1.0" standalone="no"?>
<!DOCTYPE svg PUBLIC "-//W3C//DTD SVG 20010904//EN"
 "http://www.w3.org/TR/2001/REC-SVG-20010904/DTD/svg10.dtd">
<svg version="1.0" xmlns="http://www.w3.org/2000/svg"
 width="56.000000pt" height="56.000000pt" viewBox="0 0 56.000000 56.000000"
 preserveAspectRatio="xMidYMid meet">
<metadata>
Created by potrace 1.16, written by Peter Selinger 2001-2019
</metadata>
<g transform="translate(0.000000,56.000000) scale(0.100000,-0.100000)"
fill="#000000" stroke="none">
<path d="M131 560 c-3 0 -13 -13 -22 -29 -16 -28 -16 -30 13 -65 16 -20 36
-36 44 -36 8 0 29 7 45 16 17 8 33 13 36 10 3 -3 0 -18 -6 -34 -7 -16 -32 -49
-57 -73 -24 -24 -44 -49 -44 -56 0 -7 -6 -13 -14 -13 -8 0 -17 -15 -20 -35 -4
-20 -4 -45 -1 -55 4 -11 11 -20 17 -20 5 0 36 18 68 41 32 23 64 39 71 37 7
-2 2 -14 -15 -32 -14 -16 -26 -38 -26 -49 0 -11 -6 -28 -14 -36 -11 -13 -12
-23 -2 -51 7 -23 19 -36 36 -41 14 -4 40 -7 58 -8 22 -1 32 -6 32 -17 0 -12 9
-14 43 -12 36 3 42 6 45 27 3 15 -3 30 -14 38 -10 7 -39 13 -65 13 -26 0 -54
3 -63 6 -9 3 -16 17 -16 30 0 15 17 40 48 70 26 25 71 57 100 70 28 13 52 28
52 34 0 5 -12 24 -28 41 -27 30 -27 30 -63 6 -20 -13 -57 -27 -83 -31 -48 -8
-48 -8 -30 26 11 18 24 37 30 43 6 5 19 24 29 41 16 27 16 34 3 60 -11 23 -19
29 -43 27 -17 -1 -47 -5 -67 -9 -35 -6 -38 -4 -55 30 -9 20 -19 36 -22 36z"/>
</g>
</svg>
