<?xml version="1.0" standalone="no"?>
<!DOCTYPE svg PUBLIC "-//W3C//DTD SVG 20010904//EN"
 "http://www.w3.org/TR/2001/REC-SVG-20010904/DTD/svg10.dtd">
<svg version="1.0" xmlns="http://www.w3.org/2000/svg"
 width="56.000000pt" height="56.000000pt" viewBox="0 0 56.000000 56.000000"
 preserveAspectRatio="xMidYMid meet">
<metadata>
Created by potrace 1.16, written by Peter Selinger 2001-2019
</metadata>
<g transform="translate(0.000000,56.000000) scale(0.100000,-0.100000)"
fill="#000000" stroke="none">
<path d="M239 539 c-13 0 -44 -13 -68 -29 -24 -15 -48 -36 -54 -45 -6 -12 -5
-22 6 -33 14 -14 18 -13 42 2 14 9 30 28 35 41 5 12 13 26 19 29 6 4 19 1 30
-6 12 -7 23 -19 26 -27 3 -7 -4 -32 -15 -55 -11 -23 -44 -70 -74 -105 -41 -47
-54 -70 -52 -90 3 -22 8 -25 30 -23 20 3 28 -2 36 -23 5 -14 10 -36 10 -48 1
-12 9 -32 19 -44 11 -13 23 -23 28 -23 5 0 22 -13 38 -30 22 -23 38 -30 66
-30 34 0 39 4 59 45 12 25 19 52 16 60 -3 8 -17 17 -31 21 -14 3 -33 3 -42 -2
-10 -4 -42 -13 -70 -19 -53 -11 -53 -11 -53 14 0 14 6 43 14 64 9 28 24 45 56
63 23 13 49 24 57 24 7 0 27 7 43 15 17 9 30 24 30 34 0 9 -11 24 -25 31 -21
11 -29 11 -52 -1 -16 -8 -47 -26 -69 -41 -23 -16 -45 -28 -48 -28 -3 0 -6 7
-6 16 0 9 10 34 22 55 12 22 25 39 30 39 4 0 8 8 8 18 0 9 7 26 15 36 8 11 15
28 15 37 0 10 -15 27 -34 38 -18 12 -44 21 -57 20z"/>
</g>
</svg>
