<?xml version="1.0" standalone="no"?>
<!DOCTYPE svg PUBLIC "-//W3C//DTD SVG 20010904//EN"
 "http://www.w3.org/TR/2001/REC-SVG-20010904/DTD/svg10.dtd">
<svg version="1.0" xmlns="http://www.w3.org/2000/svg"
 width="56.000000pt" height="56.000000pt" viewBox="0 0 56.000000 56.000000"
 preserveAspectRatio="xMidYMid meet">
<metadata>
Created by potrace 1.16, written by Peter Selinger 2001-2019
</metadata>
<g transform="translate(0.000000,56.000000) scale(0.100000,-0.100000)"
fill="#000000" stroke="none">
<path d="M240 534 c-19 3 -46 1 -60 -4 -14 -4 -37 -11 -52 -14 -16 -4 -28 -10
-28 -14 0 -4 4 -13 9 -21 6 -10 26 -14 60 -12 40 1 51 -2 51 -14 0 -9 -7 -30
-16 -47 -9 -17 -32 -53 -51 -80 -18 -27 -38 -60 -43 -72 -5 -13 -6 -33 -3 -45
3 -12 13 -21 24 -21 10 0 34 8 54 17 19 9 38 14 41 10 4 -4 2 -18 -4 -32 -7
-14 -12 -46 -12 -71 0 -41 3 -46 31 -56 25 -9 30 -15 26 -35 -4 -23 -2 -24 42
-21 36 2 47 7 49 22 3 12 -10 31 -37 55 -22 20 -41 43 -42 51 -1 8 2 30 6 47
6 26 24 45 81 85 52 37 74 59 74 74 0 17 -8 23 -34 27 -27 4 -49 -2 -100 -29
-57 -31 -67 -33 -72 -19 -4 9 2 25 14 38 12 13 28 42 37 66 8 24 15 54 15 66
0 12 -6 27 -12 33 -7 6 -29 13 -48 16z"/>
</g>
</svg>
