<?xml version="1.0" standalone="no"?>
<!DOCTYPE svg PUBLIC "-//W3C//DTD SVG 20010904//EN"
 "http://www.w3.org/TR/2001/REC-SVG-20010904/DTD/svg10.dtd">
<svg version="1.0" xmlns="http://www.w3.org/2000/svg"
 width="56.000000pt" height="56.000000pt" viewBox="0 0 56.000000 56.000000"
 preserveAspectRatio="xMidYMid meet">
<metadata>
Created by potrace 1.16, written by Peter Selinger 2001-2019
</metadata>
<g transform="translate(0.000000,56.000000) scale(0.100000,-0.100000)"
fill="#000000" stroke="none">
<path d="M305 560 c-8 0 -15 -4 -15 -9 0 -5 -12 -13 -28 -19 -15 -5 -34 -21
-41 -36 -13 -24 -12 -28 10 -52 22 -24 23 -27 8 -52 -10 -17 -23 -27 -37 -26
-16 0 -22 -5 -22 -21 0 -12 6 -29 12 -38 7 -9 18 -17 24 -19 7 -2 25 14 42 35
17 21 35 60 41 88 8 37 8 54 -1 69 -10 15 -9 22 5 38 9 10 17 24 17 30 0 7 -7
12 -15 12z"/>
<path d="M340 390 c-9 0 -20 -3 -23 -7 -4 -3 -7 -14 -7 -23 0 -9 -16 -35 -35
-58 -36 -41 -36 -41 -21 -112 15 -72 15 -72 -14 -109 -16 -20 -39 -43 -50 -51
-11 -8 -20 -18 -20 -22 0 -5 18 -7 40 -6 31 2 40 8 45 26 3 13 11 22 18 19 6
-2 16 6 22 17 6 12 21 22 33 24 14 2 27 14 33 28 5 14 9 27 9 28 0 2 -10 1
-23 -1 -17 -3 -26 2 -36 21 -9 15 -12 44 -9 79 4 48 9 59 41 87 30 26 35 35
26 46 -6 8 -19 14 -29 14z"/>
<path d="M331 40 c-4 0 -10 -3 -14 -6 -3 -3 -3 -12 0 -20 3 -8 16 -14 29 -14
14 0 24 6 24 14 0 8 -7 17 -16 20 -9 3 -19 6 -23 6z"/>
</g>
</svg>
