<?xml version="1.0" standalone="no"?>
<!DOCTYPE svg PUBLIC "-//W3C//DTD SVG 20010904//EN"
 "http://www.w3.org/TR/2001/REC-SVG-20010904/DTD/svg10.dtd">
<svg version="1.0" xmlns="http://www.w3.org/2000/svg"
 width="56.000000pt" height="56.000000pt" viewBox="0 0 56.000000 56.000000"
 preserveAspectRatio="xMidYMid meet">
<metadata>
Created by potrace 1.16, written by Peter Selinger 2001-2019
</metadata>
<g transform="translate(0.000000,56.000000) scale(0.100000,-0.100000)"
fill="#000000" stroke="none">
<path d="M198 560 c-25 0 -38 -7 -53 -30 -11 -16 -23 -30 -27 -30 -4 0 -19
-11 -34 -25 -16 -15 -24 -31 -20 -40 3 -8 12 -15 21 -15 8 0 23 4 33 9 9 4 33
14 52 21 19 6 45 14 58 17 15 4 22 1 22 -9 0 -8 -11 -30 -25 -49 -14 -19 -48
-65 -75 -103 -28 -38 -50 -79 -50 -92 0 -17 6 -24 20 -24 12 0 32 7 45 16 23
15 25 15 31 -1 4 -9 -1 -32 -10 -51 -9 -19 -16 -45 -16 -57 0 -12 4 -28 8 -35
5 -7 40 -21 78 -31 38 -11 108 -22 157 -25 81 -6 87 -5 87 13 0 10 -6 23 -12
29 -7 5 -48 10 -92 11 -51 1 -91 8 -115 19 -35 17 -36 19 -35 70 2 49 6 57 45
96 24 23 59 48 78 54 19 7 43 12 55 12 12 0 32 9 45 19 25 19 25 19 -9 50 -19
17 -42 31 -51 31 -10 0 -26 -11 -36 -24 -10 -13 -40 -36 -67 -50 -27 -15 -53
-23 -57 -19 -5 5 3 26 18 47 14 22 28 58 31 82 4 38 1 46 -31 78 -27 27 -45
36 -69 36z"/>
</g>
</svg>
