<?xml version="1.0" standalone="no"?>
<!DOCTYPE svg PUBLIC "-//W3C//DTD SVG 20010904//EN"
 "http://www.w3.org/TR/2001/REC-SVG-20010904/DTD/svg10.dtd">
<svg version="1.0" xmlns="http://www.w3.org/2000/svg"
 width="56.000000pt" height="56.000000pt" viewBox="0 0 56.000000 56.000000"
 preserveAspectRatio="xMidYMid meet">
<metadata>
Created by potrace 1.16, written by Peter Selinger 2001-2019
</metadata>
<g transform="translate(0.000000,56.000000) scale(0.100000,-0.100000)"
fill="#000000" stroke="none">
<path d="M174 560 c-6 0 -15 -7 -18 -16 -3 -9 -6 -24 -6 -35 0 -10 5 -19 10
-19 6 0 10 -6 10 -13 0 -7 9 -20 20 -30 20 -16 20 -18 3 -45 -9 -15 -28 -39
-41 -54 -24 -26 -24 -28 -8 -53 12 -17 24 -25 34 -22 10 3 27 9 40 13 13 4 22
2 22 -4 0 -6 -7 -17 -15 -26 -8 -8 -19 -26 -25 -41 -5 -14 -10 -49 -10 -77 0
-33 7 -63 22 -90 16 -28 27 -38 40 -35 10 3 20 1 23 -3 3 -5 26 -8 53 -9 26 0
55 2 65 5 9 3 17 10 17 15 0 6 -6 17 -14 25 -8 8 -26 14 -40 14 -15 0 -34 -5
-44 -11 -15 -9 -24 -8 -44 5 -14 9 -28 30 -32 48 -3 17 -6 41 -6 55 0 13 11
46 25 74 15 29 42 61 65 77 22 15 39 34 40 44 0 9 -13 20 -30 26 -26 9 -34 8
-59 -14 -16 -13 -38 -24 -50 -24 -12 0 -21 4 -21 9 0 5 18 28 40 51 23 24 39
47 37 53 -2 6 -17 18 -33 27 -16 9 -35 30 -43 48 -8 18 -20 32 -27 32z"/>
</g>
</svg>
