<?xml version="1.0" standalone="no"?>
<!DOCTYPE svg PUBLIC "-//W3C//DTD SVG 20010904//EN"
 "http://www.w3.org/TR/2001/REC-SVG-20010904/DTD/svg10.dtd">
<svg version="1.0" xmlns="http://www.w3.org/2000/svg"
 width="56.000000pt" height="56.000000pt" viewBox="0 0 56.000000 56.000000"
 preserveAspectRatio="xMidYMid meet">
<metadata>
Created by potrace 1.16, written by Peter Selinger 2001-2019
</metadata>
<g transform="translate(0.000000,56.000000) scale(0.100000,-0.100000)"
fill="#000000" stroke="none">
<path d="M278 539 c-13 -1 -45 -9 -73 -19 -27 -10 -69 -24 -92 -31 -24 -7 -43
-18 -43 -26 0 -9 14 -13 46 -13 25 0 55 5 66 11 16 8 24 8 35 -4 14 -13 13
-20 -3 -64 -12 -33 -42 -73 -95 -128 -55 -57 -76 -84 -70 -94 7 -11 20 -7 65
18 31 18 56 29 57 24 1 -4 0 -37 -1 -73 -1 -60 1 -67 29 -94 17 -17 47 -32 73
-37 24 -4 61 -8 84 -9 33 0 43 5 54 24 7 14 10 32 6 41 -5 13 -19 15 -78 14
-56 -2 -79 1 -100 15 -14 9 -29 23 -32 31 -2 7 4 33 16 56 11 23 30 51 42 60
11 10 25 18 30 19 5 0 42 16 83 35 40 19 84 37 98 41 13 3 30 13 36 21 10 11
7 20 -18 45 -26 25 -35 29 -62 23 -17 -4 -54 -22 -82 -41 -28 -19 -60 -34 -70
-34 -10 0 -19 3 -19 8 0 4 7 21 16 37 9 17 19 56 21 88 4 54 3 57 -19 56z"/>
</g>
</svg>
