<?xml version="1.0" standalone="no"?>
<!DOCTYPE svg PUBLIC "-//W3C//DTD SVG 20010904//EN"
 "http://www.w3.org/TR/2001/REC-SVG-20010904/DTD/svg10.dtd">
<svg version="1.0" xmlns="http://www.w3.org/2000/svg"
 width="56.000000pt" height="56.000000pt" viewBox="0 0 56.000000 56.000000"
 preserveAspectRatio="xMidYMid meet">
<metadata>
Created by potrace 1.16, written by Peter Selinger 2001-2019
</metadata>
<g transform="translate(0.000000,56.000000) scale(0.100000,-0.100000)"
fill="#000000" stroke="none">
<path d="M165 560 c-10 0 -15 -10 -15 -30 0 -18 6 -33 15 -36 8 -4 26 -7 40
-8 14 0 28 -8 30 -17 3 -9 1 -29 -5 -45 -6 -16 -21 -38 -35 -49 -13 -11 -26
-32 -30 -46 -5 -22 -2 -27 17 -33 13 -3 35 -6 49 -6 15 0 37 8 50 19 13 10 44
25 69 33 32 10 46 21 48 35 3 18 -4 22 -47 28 -51 7 -51 7 -51 49 0 29 -7 49
-20 64 -15 16 -33 22 -60 22 -22 0 -40 5 -40 10 0 6 -7 10 -15 10z"/>
<path d="M230 254 c-4 4 -13 -2 -20 -13 -6 -12 -10 -31 -8 -42 2 -11 7 -20 13
-20 5 0 13 15 17 33 4 18 3 37 -2 42z"/>
<path d="M225 160 c-8 0 -15 -7 -15 -15 0 -8 4 -15 9 -15 5 0 11 -10 14 -21 5
-17 11 -20 32 -17 14 3 28 1 31 -4 3 -5 12 -7 19 -4 8 3 19 -2 26 -10 10 -12
10 -23 2 -45 -11 -28 -11 -29 22 -29 21 0 35 6 39 16 3 9 6 30 6 48 0 18 -5
37 -12 44 -7 7 -22 12 -34 12 -13 0 -26 5 -29 10 -3 6 -26 10 -51 10 -24 0
-44 5 -44 10 0 6 -7 10 -15 10z"/>
</g>
</svg>
