<?xml version="1.0" standalone="no"?>
<!DOCTYPE svg PUBLIC "-//W3C//DTD SVG 20010904//EN"
 "http://www.w3.org/TR/2001/REC-SVG-20010904/DTD/svg10.dtd">
<svg version="1.0" xmlns="http://www.w3.org/2000/svg"
 width="56.000000pt" height="56.000000pt" viewBox="0 0 56.000000 56.000000"
 preserveAspectRatio="xMidYMid meet">
<metadata>
Created by potrace 1.16, written by Peter Selinger 2001-2019
</metadata>
<g transform="translate(0.000000,56.000000) scale(0.100000,-0.100000)"
fill="#000000" stroke="none">
<path d="M298 560 c-4 0 -8 -4 -10 -8 -1 -5 -25 -16 -53 -25 -43 -14 -51 -14
-58 -1 -5 8 -12 12 -18 9 -5 -4 -9 -24 -9 -47 0 -41 0 -41 60 -34 47 6 60 4
60 -7 0 -7 -22 -38 -50 -69 -27 -30 -65 -63 -84 -72 -24 -11 -36 -25 -41 -46
-4 -16 -4 -34 0 -40 3 -5 19 -10 35 -10 25 0 36 9 70 62 22 34 40 65 40 68 0
3 14 14 30 23 17 10 30 23 30 28 0 6 11 27 25 47 14 20 25 46 25 58 0 11 -10
30 -23 42 -13 12 -26 22 -29 22z"/>
<path d="M425 386 c-16 1 -43 0 -60 -3 -16 -2 -36 -6 -44 -9 -11 -4 -9 -8 7
-20 12 -8 22 -22 22 -31 0 -9 -12 -26 -27 -39 -16 -13 -31 -24 -35 -24 -4 0
-14 -13 -23 -30 -8 -16 -15 -49 -15 -74 0 -38 4 -48 30 -66 16 -12 30 -27 30
-33 0 -7 -13 -12 -30 -13 -16 -1 -42 -10 -57 -20 -28 -19 -28 -19 56 -22 67
-2 87 0 102 14 11 9 19 24 19 32 0 8 -21 37 -46 64 -36 38 -44 53 -38 71 4 12
12 25 18 29 6 3 22 15 34 27 13 11 27 21 30 23 4 2 17 18 30 36 13 18 24 45
25 60 2 23 -2 27 -28 28z"/>
</g>
</svg>
