<?xml version="1.0" standalone="no"?>
<!DOCTYPE svg PUBLIC "-//W3C//DTD SVG 20010904//EN"
 "http://www.w3.org/TR/2001/REC-SVG-20010904/DTD/svg10.dtd">
<svg version="1.0" xmlns="http://www.w3.org/2000/svg"
 width="56.000000pt" height="56.000000pt" viewBox="0 0 56.000000 56.000000"
 preserveAspectRatio="xMidYMid meet">
<metadata>
Created by potrace 1.16, written by Peter Selinger 2001-2019
</metadata>
<g transform="translate(0.000000,56.000000) scale(0.100000,-0.100000)"
fill="#000000" stroke="none">
<path d="M247 560 c-36 0 -46 -4 -56 -24 -7 -13 -11 -32 -9 -42 2 -10 16 -25
32 -32 21 -11 27 -19 22 -35 -3 -12 -6 -28 -6 -34 0 -7 -6 -13 -13 -13 -7 0
-25 -12 -39 -27 -15 -16 -30 -40 -33 -54 -4 -15 -2 -30 4 -33 6 -4 20 -2 32 4
11 6 27 9 35 6 13 -5 13 -10 -4 -33 -10 -16 -24 -43 -31 -60 -11 -27 -11 -39
-1 -65 8 -18 20 -41 28 -50 8 -9 45 -29 83 -44 38 -14 76 -23 84 -20 8 3 15
11 15 19 0 7 -10 23 -22 34 -13 12 -43 31 -68 42 -25 12 -53 33 -63 46 -10 14
-13 25 -8 25 6 0 17 15 25 33 7 19 33 50 57 69 24 20 53 37 63 39 10 2 24 12
30 22 9 15 7 22 -13 38 -16 13 -32 18 -45 14 -12 -3 -28 -7 -36 -8 -10 -1 -14
5 -12 18 2 11 6 35 9 54 5 30 1 38 -23 57 -24 20 -26 24 -11 30 9 3 17 10 17
15 0 5 -19 9 -43 9z"/>
</g>
</svg>
