<?xml version="1.0" standalone="no"?>
<!DOCTYPE svg PUBLIC "-//W3C//DTD SVG 20010904//EN"
 "http://www.w3.org/TR/2001/REC-SVG-20010904/DTD/svg10.dtd">
<svg version="1.0" xmlns="http://www.w3.org/2000/svg"
 width="56.000000pt" height="56.000000pt" viewBox="0 0 56.000000 56.000000"
 preserveAspectRatio="xMidYMid meet">
<metadata>
Created by potrace 1.16, written by Peter Selinger 2001-2019
</metadata>
<g transform="translate(0.000000,56.000000) scale(0.100000,-0.100000)"
fill="#000000" stroke="none">
<path d="M280 534 c-22 14 -40 22 -40 17 0 -5 -12 -14 -27 -20 -16 -7 -41 -23
-56 -37 -17 -14 -27 -31 -23 -39 3 -8 11 -15 19 -15 7 0 28 11 47 25 19 14 37
25 41 25 4 0 10 -11 13 -24 3 -13 -3 -49 -15 -82 -11 -33 -23 -67 -26 -76 -3
-10 -2 -25 1 -34 4 -11 10 -13 19 -7 6 6 22 13 34 16 13 3 25 2 27 -2 3 -4 -1
-25 -9 -47 -8 -21 -14 -62 -15 -90 0 -40 5 -55 23 -72 12 -11 34 -25 50 -31
15 -6 27 -17 27 -26 0 -10 10 -15 30 -15 29 0 30 2 30 45 0 40 -3 47 -27 56
-16 6 -39 16 -53 23 -19 9 -26 21 -28 47 -3 31 4 44 53 98 30 34 55 68 55 77
0 8 -6 17 -14 20 -8 3 -36 -4 -61 -15 -26 -12 -51 -19 -55 -16 -5 3 -2 21 6
40 8 19 14 56 14 83 0 46 -2 51 -40 76z"/>
</g>
</svg>
