<?xml version="1.0" standalone="no"?>
<!DOCTYPE svg PUBLIC "-//W3C//DTD SVG 20010904//EN"
 "http://www.w3.org/TR/2001/REC-SVG-20010904/DTD/svg10.dtd">
<svg version="1.0" xmlns="http://www.w3.org/2000/svg"
 width="56.000000pt" height="56.000000pt" viewBox="0 0 56.000000 56.000000"
 preserveAspectRatio="xMidYMid meet">
<metadata>
Created by potrace 1.16, written by Peter Selinger 2001-2019
</metadata>
<g transform="translate(0.000000,56.000000) scale(0.100000,-0.100000)"
fill="#000000" stroke="none">
<path d="M285 560 c-8 0 -15 -4 -15 -9 0 -5 -10 -11 -21 -14 -14 -4 -20 -11
-16 -21 3 -8 2 -18 -2 -21 -5 -2 -11 4 -14 14 -3 14 -11 18 -26 14 -12 -3 -28
0 -36 7 -8 7 -25 10 -40 6 -17 -4 -25 -13 -25 -29 0 -12 4 -27 8 -33 4 -6 17
-16 29 -23 12 -6 35 -11 52 -11 16 0 33 -4 36 -10 3 -5 1 -18 -4 -29 -9 -15
-7 -20 9 -24 13 -3 20 -14 20 -30 0 -14 -4 -29 -10 -32 -5 -3 -12 6 -16 20 -4
18 -11 24 -21 21 -8 -3 -18 -6 -23 -6 -5 0 -22 -11 -39 -25 -16 -14 -37 -40
-45 -56 -14 -28 -14 -33 0 -55 9 -13 22 -24 30 -24 7 0 16 5 19 11 4 5 18 14
31 19 13 5 29 21 34 35 6 15 17 25 30 25 11 0 20 5 20 10 0 6 7 10 15 10 8 0
15 -8 15 -17 0 -10 -4 -22 -8 -28 -4 -5 -28 -27 -54 -48 -30 -24 -49 -48 -53
-68 -4 -17 -1 -50 6 -74 10 -32 21 -47 40 -55 21 -9 32 -8 48 2 17 10 25 10
41 0 11 -6 43 -12 72 -12 29 0 61 7 71 14 9 7 17 21 17 30 0 10 -18 35 -41 57
-22 21 -49 39 -59 39 -9 0 -23 -7 -30 -15 -7 -8 -27 -15 -44 -14 -17 0 -39 3
-48 7 -10 4 -14 12 -10 18 4 7 16 13 27 15 12 3 21 14 23 28 2 14 15 33 29 44
13 11 22 26 19 33 -3 9 4 16 19 19 14 3 35 7 48 10 12 2 37 18 55 34 26 24 32
38 32 69 0 24 -6 45 -16 53 -13 10 -21 10 -47 0 -18 -7 -49 -18 -69 -24 -24
-7 -41 -8 -47 -2 -6 6 -7 25 -1 49 5 22 16 44 25 49 15 8 15 11 -4 28 -11 10
-27 19 -36 19z m15 -460 c5 0 11 -4 15 -9 3 -5 1 -12 -5 -16 -5 -3 -15 -3 -20
0 -6 4 -8 11 -5 16 4 5 10 9 15 9z m-56 -10 c9 0 16 -7 16 -16 0 -9 -5 -14
-12 -12 -6 2 -14 10 -16 16 -2 7 3 12 12 12z"/>
</g>
</svg>
