<?xml version="1.0" standalone="no"?>
<!DOCTYPE svg PUBLIC "-//W3C//DTD SVG 20010904//EN"
 "http://www.w3.org/TR/2001/REC-SVG-20010904/DTD/svg10.dtd">
<svg version="1.0" xmlns="http://www.w3.org/2000/svg"
 width="56.000000pt" height="56.000000pt" viewBox="0 0 56.000000 56.000000"
 preserveAspectRatio="xMidYMid meet">
<metadata>
Created by potrace 1.16, written by Peter Selinger 2001-2019
</metadata>
<g transform="translate(0.000000,56.000000) scale(0.100000,-0.100000)"
fill="#000000" stroke="none">
<path d="M276 540 c-6 0 -39 -16 -74 -34 -36 -20 -71 -32 -82 -29 -11 3 -36
-2 -55 -11 -35 -17 -35 -17 -8 -51 16 -19 31 -35 35 -35 4 0 30 14 58 30 28
17 57 30 65 30 8 0 15 -9 15 -20 0 -10 -11 -36 -25 -57 -14 -21 -41 -54 -60
-74 -21 -22 -35 -47 -35 -62 0 -13 6 -30 14 -36 7 -6 21 -9 29 -5 9 3 19 14
22 25 4 11 15 19 29 19 12 0 37 16 56 35 19 19 40 35 47 35 7 0 13 -5 13 -11
0 -6 -11 -25 -25 -43 -14 -17 -36 -42 -49 -56 -13 -14 -29 -35 -35 -47 -6 -13
-9 -34 -5 -48 3 -14 14 -30 24 -35 10 -6 34 -10 53 -10 19 0 40 -7 47 -15 6
-8 9 -19 5 -25 -3 -6 3 -10 16 -10 17 0 20 4 15 23 -4 12 -9 35 -13 50 -3 17
-15 32 -29 38 -13 4 -24 11 -24 13 0 3 11 26 25 53 14 26 33 55 42 65 9 10 22
18 30 18 7 0 13 7 13 15 0 8 9 15 20 15 11 0 23 7 26 15 3 8 14 17 25 20 10 4
19 14 19 24 0 9 5 22 10 27 7 7 1 21 -18 42 -16 18 -36 32 -45 32 -8 0 -29
-11 -45 -25 -17 -14 -39 -25 -50 -25 -11 0 -22 6 -24 12 -3 7 0 25 6 40 9 24
7 31 -19 58 -16 16 -34 30 -39 30z m94 -190 c10 0 22 -5 26 -11 3 -6 -3 -20
-14 -31 -20 -20 -20 -20 -31 1 -7 12 -9 26 -6 31 3 6 15 10 25 10z"/>
<path d="M440 109 c-3 0 -11 -3 -17 -6 -7 -2 -13 -11 -13 -19 0 -8 -7 -14 -16
-14 -13 0 -14 -2 0 -21 8 -12 12 -28 9 -36 -4 -11 1 -13 23 -7 16 3 40 17 54
31 25 24 25 24 -5 49 -16 13 -32 24 -35 23z"/>
</g>
</svg>
