<?xml version="1.0" standalone="no"?>
<!DOCTYPE svg PUBLIC "-//W3C//DTD SVG 20010904//EN"
 "http://www.w3.org/TR/2001/REC-SVG-20010904/DTD/svg10.dtd">
<svg version="1.0" xmlns="http://www.w3.org/2000/svg"
 width="56.000000pt" height="56.000000pt" viewBox="0 0 56.000000 56.000000"
 preserveAspectRatio="xMidYMid meet">
<metadata>
Created by potrace 1.16, written by Peter Selinger 2001-2019
</metadata>
<g transform="translate(0.000000,56.000000) scale(0.100000,-0.100000)"
fill="#000000" stroke="none">
<path d="M183 560 c-10 0 -26 -13 -36 -29 -9 -16 -17 -39 -17 -50 0 -12 7 -24
16 -28 9 -3 25 -1 36 6 11 7 22 10 25 7 3 -2 2 -23 -2 -45 -5 -28 -20 -56 -50
-89 -25 -28 -48 -66 -55 -91 -6 -24 -9 -49 -6 -57 3 -8 12 -14 21 -14 9 0 26
9 38 21 12 11 39 30 60 40 21 11 43 19 48 17 5 -2 0 -21 -12 -43 -16 -29 -22
-58 -22 -104 0 -55 3 -67 22 -82 13 -11 36 -19 53 -19 29 0 29 0 -7 46 -26 35
-35 57 -35 85 0 31 8 48 36 79 33 36 41 40 84 40 31 0 52 5 60 15 11 13 8 21
-15 45 -16 17 -36 30 -45 30 -9 0 -20 -4 -26 -9 -5 -5 -37 -20 -71 -34 -34
-13 -64 -22 -67 -20 -2 2 11 38 30 78 19 41 34 85 34 99 0 15 -15 40 -39 65
-22 23 -48 41 -58 41z"/>
</g>
</svg>
