<?xml version="1.0" standalone="no"?>
<!DOCTYPE svg PUBLIC "-//W3C//DTD SVG 20010904//EN"
 "http://www.w3.org/TR/2001/REC-SVG-20010904/DTD/svg10.dtd">
<svg version="1.0" xmlns="http://www.w3.org/2000/svg"
 width="56.000000pt" height="56.000000pt" viewBox="0 0 56.000000 56.000000"
 preserveAspectRatio="xMidYMid meet">
<metadata>
Created by potrace 1.16, written by Peter Selinger 2001-2019
</metadata>
<g transform="translate(0.000000,56.000000) scale(0.100000,-0.100000)"
fill="#000000" stroke="none">
<path d="M241 540 c-15 0 -31 -3 -34 -7 -4 -3 -17 -7 -30 -9 -12 -1 -32 -3
-44 -3 -13 -1 -23 -7 -23 -14 0 -8 9 -22 20 -32 19 -18 22 -18 56 -2 19 9 41
17 49 17 8 0 15 -2 15 -5 0 -2 -8 -24 -17 -47 -10 -25 -38 -62 -65 -87 -27
-24 -55 -56 -63 -72 -8 -15 -15 -37 -15 -48 0 -11 4 -23 10 -26 5 -3 19 -1 30
5 12 6 47 34 78 62 34 31 58 46 60 39 2 -7 -6 -41 -17 -76 -17 -49 -19 -69
-12 -84 6 -11 11 -31 11 -44 0 -18 15 -38 47 -67 44 -39 50 -41 102 -38 40 2
56 7 56 17 0 8 -21 26 -46 40 -25 14 -59 36 -76 48 -22 16 -32 34 -37 63 -4
28 -1 50 9 70 8 16 26 46 40 66 14 20 31 42 39 48 7 6 16 19 19 29 4 11 1 17
-8 17 -8 0 -15 4 -15 9 0 6 5 13 10 16 6 3 10 13 10 21 0 8 -4 14 -10 14 -5 0
-27 -12 -49 -27 -21 -16 -45 -40 -54 -55 -9 -16 -25 -28 -36 -28 -11 0 -23 5
-26 10 -4 6 5 24 20 41 14 17 33 45 41 61 14 27 14 32 -1 54 -10 16 -25 24
-44 24z"/>
</g>
</svg>
