<?xml version="1.0" standalone="no"?>
<!DOCTYPE svg PUBLIC "-//W3C//DTD SVG 20010904//EN"
 "http://www.w3.org/TR/2001/REC-SVG-20010904/DTD/svg10.dtd">
<svg version="1.0" xmlns="http://www.w3.org/2000/svg"
 width="56.000000pt" height="56.000000pt" viewBox="0 0 56.000000 56.000000"
 preserveAspectRatio="xMidYMid meet">
<metadata>
Created by potrace 1.16, written by Peter Selinger 2001-2019
</metadata>
<g transform="translate(0.000000,56.000000) scale(0.100000,-0.100000)"
fill="#000000" stroke="none">
<path d="M215 560 c-3 0 -5 -4 -5 -9 0 -6 -17 -11 -37 -13 -20 -2 -38 -8 -40
-13 -2 -6 10 -19 27 -28 16 -10 30 -25 30 -34 0 -8 -18 -37 -40 -63 -24 -28
-40 -58 -40 -73 0 -14 8 -30 17 -35 12 -7 24 -5 40 5 23 16 23 16 17 -38 -6
-53 -5 -55 35 -98 23 -24 41 -49 41 -55 0 -6 -21 -32 -47 -58 -42 -42 -45 -48
-25 -48 13 0 44 12 71 27 26 16 67 45 90 65 27 23 41 43 39 54 -2 11 -22 25
-52 36 -27 9 -59 27 -72 39 -13 12 -24 27 -24 33 0 7 13 28 30 47 20 26 40 38
66 42 20 3 52 16 70 29 19 13 34 27 34 31 0 4 -7 19 -16 32 -9 14 -25 25 -35
25 -10 0 -21 -5 -24 -10 -4 -6 -36 -24 -71 -41 -36 -16 -73 -29 -81 -27 -12 2
-9 10 13 34 16 17 34 45 40 62 11 28 9 33 -17 56 -16 14 -31 26 -34 26z"/>
</g>
</svg>
