<?xml version="1.0" standalone="no"?>
<!DOCTYPE svg PUBLIC "-//W3C//DTD SVG 20010904//EN"
 "http://www.w3.org/TR/2001/REC-SVG-20010904/DTD/svg10.dtd">
<svg version="1.0" xmlns="http://www.w3.org/2000/svg"
 width="56.000000pt" height="56.000000pt" viewBox="0 0 56.000000 56.000000"
 preserveAspectRatio="xMidYMid meet">
<metadata>
Created by potrace 1.16, written by Peter Selinger 2001-2019
</metadata>
<g transform="translate(0.000000,56.000000) scale(0.100000,-0.100000)"
fill="#000000" stroke="none">
<path d="M253 559 c-20 0 -42 -16 -77 -52 -47 -49 -49 -51 -35 -76 11 -19 22
-25 40 -23 13 2 37 8 52 14 23 9 31 8 37 -2 5 -8 1 -25 -10 -42 -9 -15 -28
-41 -42 -56 -14 -15 -46 -47 -72 -71 -25 -24 -46 -50 -46 -58 0 -7 6 -16 14
-19 7 -3 29 3 47 14 19 10 46 22 61 25 24 6 28 4 34 -18 3 -14 4 -39 0 -55 -3
-17 -3 -43 0 -59 3 -16 19 -38 35 -50 18 -13 51 -24 89 -28 40 -4 60 -2 60 5
0 6 -13 20 -30 32 -16 11 -43 26 -60 31 -22 8 -30 17 -30 34 0 13 -4 27 -10
30 -5 3 -10 16 -10 28 0 12 7 31 15 41 8 11 15 26 15 33 0 8 -14 13 -39 13
-22 0 -43 5 -46 11 -4 5 6 28 22 50 15 23 45 66 65 97 20 32 37 60 37 63 1 4
-14 10 -32 13 -18 3 -48 1 -66 -5 -17 -6 -35 -9 -38 -5 -3 3 6 21 21 40 14 19
26 37 26 40 0 3 -12 6 -27 5z"/>
</g>
</svg>
