<?xml version="1.0" standalone="no"?>
<!DOCTYPE svg PUBLIC "-//W3C//DTD SVG 20010904//EN"
 "http://www.w3.org/TR/2001/REC-SVG-20010904/DTD/svg10.dtd">
<svg version="1.0" xmlns="http://www.w3.org/2000/svg"
 width="56.000000pt" height="56.000000pt" viewBox="0 0 56.000000 56.000000"
 preserveAspectRatio="xMidYMid meet">
<metadata>
Created by potrace 1.16, written by Peter Selinger 2001-2019
</metadata>
<g transform="translate(0.000000,56.000000) scale(0.100000,-0.100000)"
fill="#000000" stroke="none">
<path d="M188 560 c-16 0 -29 -10 -41 -29 -9 -16 -17 -48 -17 -70 0 -38 2 -41
28 -41 16 0 31 -3 35 -6 3 -3 -6 -27 -20 -52 -15 -26 -44 -63 -65 -82 -40 -35
-40 -35 -27 -85 6 -27 13 -51 15 -53 1 -2 21 6 44 18 31 16 45 18 55 10 7 -6
15 -39 17 -75 2 -41 10 -71 20 -81 13 -13 24 -14 78 -4 44 8 66 8 73 1 6 -6
28 -11 48 -11 24 0 39 5 43 16 3 9 6 31 6 50 0 31 -3 34 -27 33 -16 0 -50 -4
-78 -9 -27 -4 -62 -6 -77 -3 -16 3 -28 10 -28 15 0 6 26 39 57 75 31 35 74 73
95 84 20 10 42 28 48 38 5 11 10 28 10 39 0 11 -15 30 -35 43 -19 13 -35 28
-35 32 0 4 -9 3 -20 -3 -11 -6 -20 -19 -20 -30 0 -12 -15 -26 -44 -40 -39 -20
-47 -21 -72 -9 -15 8 -29 20 -32 27 -3 9 3 13 14 12 11 -1 27 -2 38 -1 13 1
17 6 13 21 -3 13 0 20 8 20 7 0 23 15 34 34 12 18 21 38 21 43 0 5 -6 17 -13
27 -11 14 -17 15 -42 6 -16 -6 -44 -9 -61 -5 -26 4 -31 9 -27 25 4 16 0 20
-19 20z"/>
</g>
</svg>
