<?xml version="1.0" standalone="no"?>
<!DOCTYPE svg PUBLIC "-//W3C//DTD SVG 20010904//EN"
 "http://www.w3.org/TR/2001/REC-SVG-20010904/DTD/svg10.dtd">
<svg version="1.0" xmlns="http://www.w3.org/2000/svg"
 width="56.000000pt" height="56.000000pt" viewBox="0 0 56.000000 56.000000"
 preserveAspectRatio="xMidYMid meet">
<metadata>
Created by potrace 1.16, written by Peter Selinger 2001-2019
</metadata>
<g transform="translate(0.000000,56.000000) scale(0.100000,-0.100000)"
fill="#000000" stroke="none">
<path d="M140 560 c-5 0 -10 -7 -10 -15 0 -8 16 -30 35 -49 24 -25 35 -44 35
-65 0 -17 -11 -42 -25 -59 -17 -20 -25 -42 -25 -66 0 -27 4 -36 17 -36 9 0 43
21 76 46 39 31 62 43 69 36 6 -6 5 -20 -6 -40 -9 -17 -16 -50 -16 -74 0 -27 8
-52 20 -68 11 -14 20 -32 20 -41 0 -9 -13 -30 -28 -45 -16 -16 -44 -41 -62
-56 -34 -28 -34 -28 9 -28 33 0 55 8 97 37 30 21 57 48 60 60 4 15 -6 41 -32
84 -38 61 -38 61 -1 171 29 85 35 113 26 124 -6 8 -16 14 -22 14 -5 0 -30 -18
-54 -41 -24 -22 -49 -38 -56 -36 -7 2 -11 14 -9 26 2 12 -4 33 -12 47 -9 13
-22 24 -29 24 -7 0 -24 11 -39 25 -15 14 -32 25 -38 25z"/>
<path d="M255 560 c-33 0 -45 -4 -42 -12 2 -8 20 -13 42 -13 22 0 40 5 43 13
2 8 -10 12 -43 12z"/>
</g>
</svg>
