<?xml version="1.0" standalone="no"?>
<!DOCTYPE svg PUBLIC "-//W3C//DTD SVG 20010904//EN"
 "http://www.w3.org/TR/2001/REC-SVG-20010904/DTD/svg10.dtd">
<svg version="1.0" xmlns="http://www.w3.org/2000/svg"
 width="56.000000pt" height="56.000000pt" viewBox="0 0 56.000000 56.000000"
 preserveAspectRatio="xMidYMid meet">
<metadata>
Created by potrace 1.16, written by Peter Selinger 2001-2019
</metadata>
<g transform="translate(0.000000,56.000000) scale(0.100000,-0.100000)"
fill="#000000" stroke="none">
<path d="M320 542 c-10 10 -22 14 -24 9 -3 -4 -37 -14 -75 -21 -58 -11 -73
-11 -86 0 -10 9 -19 10 -26 3 -6 -6 -2 -19 11 -36 15 -19 31 -27 52 -27 16 0
42 7 58 16 15 10 35 14 45 11 15 -6 14 -10 -6 -38 -12 -17 -40 -43 -62 -58
-22 -14 -55 -40 -73 -57 -19 -18 -34 -40 -34 -49 0 -14 6 -16 38 -10 20 4 42
10 47 15 6 4 36 17 68 29 32 11 62 21 67 21 6 0 10 -6 10 -14 0 -7 -7 -19 -15
-26 -9 -7 -28 -38 -42 -69 -18 -40 -25 -71 -25 -109 1 -33 8 -61 19 -77 10
-13 26 -25 36 -25 10 0 32 -7 48 -16 17 -8 41 -14 54 -12 23 3 24 5 12 28 -8
17 -23 26 -42 28 -16 2 -41 12 -54 21 -22 17 -24 24 -22 96 1 43 7 85 13 94 5
9 32 31 59 49 27 17 54 32 60 32 6 0 9 10 7 22 -2 15 -13 24 -37 31 -27 7 -43
3 -87 -18 -30 -15 -59 -25 -66 -23 -6 2 12 30 40 61 31 34 52 67 52 80 0 12
-9 30 -20 39z"/>
</g>
</svg>
