<?xml version="1.0" standalone="no"?>
<!DOCTYPE svg PUBLIC "-//W3C//DTD SVG 20010904//EN"
 "http://www.w3.org/TR/2001/REC-SVG-20010904/DTD/svg10.dtd">
<svg version="1.0" xmlns="http://www.w3.org/2000/svg"
 width="56.000000pt" height="56.000000pt" viewBox="0 0 56.000000 56.000000"
 preserveAspectRatio="xMidYMid meet">
<metadata>
Created by potrace 1.16, written by Peter Selinger 2001-2019
</metadata>
<g transform="translate(0.000000,56.000000) scale(0.100000,-0.100000)"
fill="#000000" stroke="none">
<path d="M193 560 c-15 0 -23 -6 -23 -18 0 -10 5 -23 11 -29 6 -6 8 -20 4 -31
-3 -12 -26 -47 -50 -78 -25 -32 -45 -63 -45 -70 0 -6 7 -17 15 -24 12 -10 22
-8 55 14 22 14 47 26 56 26 11 0 14 -5 9 -17 -4 -10 -14 -37 -23 -59 -13 -35
-13 -48 -3 -87 10 -36 26 -57 70 -95 31 -27 75 -59 98 -71 23 -11 49 -21 58
-21 10 0 15 10 15 29 0 19 -10 40 -29 58 -16 16 -47 35 -69 41 -23 7 -52 26
-67 44 -15 18 -31 41 -35 53 -4 12 -6 33 -3 48 3 14 15 37 28 49 13 13 44 29
70 37 26 7 49 21 53 29 3 9 -7 26 -26 43 -31 28 -31 28 -78 3 -29 -16 -51 -21
-56 -16 -6 6 -4 21 5 38 8 16 12 36 10 44 -3 8 -9 25 -15 38 -7 13 -20 22 -35
22z"/>
</g>
</svg>
