<?xml version="1.0" standalone="no"?>
<!DOCTYPE svg PUBLIC "-//W3C//DTD SVG 20010904//EN"
 "http://www.w3.org/TR/2001/REC-SVG-20010904/DTD/svg10.dtd">
<svg version="1.0" xmlns="http://www.w3.org/2000/svg"
 width="128.000000pt" height="128.000000pt" viewBox="0 0 128.000000 128.000000"
 preserveAspectRatio="xMidYMid meet">
<metadata>
Created by potrace 1.16, written by Peter Selinger 2001-2019
</metadata>
<g transform="translate(0.000000,128.000000) scale(0.100000,-0.100000)"
fill="#000000" stroke="none">
<path d="M776 1259 c-12 0 -39 -7 -61 -15 -22 -7 -52 -21 -67 -29 -14 -8 -30
-15 -36 -15 -5 0 -26 -7 -47 -16 -35 -14 -37 -17 -21 -32 14 -14 37 -17 129
-17 94 0 117 3 145 20 17 10 32 28 32 38 0 10 -12 29 -26 42 -15 14 -36 25
-48 24z"/>
<path d="M439 1130 c-4 0 -11 -6 -17 -13 -9 -10 -4 -35 18 -96 27 -74 30 -96
30 -196 0 -62 -3 -121 -6 -130 -4 -8 -43 -34 -87 -55 -63 -31 -93 -40 -133
-40 -34 0 -59 -6 -73 -17 -15 -13 -22 -30 -23 -58 0 -22 4 -52 10 -67 8 -19
19 -28 33 -28 12 0 36 10 53 23 17 13 47 31 66 41 19 10 46 24 60 32 14 7 33
14 43 14 9 0 17 -7 17 -15 0 -8 -9 -38 -19 -67 -11 -29 -27 -82 -36 -118 -11
-41 -15 -84 -12 -118 3 -29 14 -68 25 -86 11 -18 25 -49 31 -69 7 -19 19 -41
28 -48 13 -11 17 -10 28 4 7 9 17 17 23 17 6 0 37 16 69 35 32 19 76 53 98 75
21 22 44 40 50 40 5 0 34 24 63 53 28 30 52 61 52 71 0 9 12 28 28 41 15 13
37 25 50 25 13 0 33 -5 45 -11 12 -6 45 -35 73 -66 45 -50 53 -54 72 -44 12 6
26 20 32 30 7 14 6 28 -3 50 -7 16 -32 44 -56 61 -24 18 -61 38 -84 46 -22 8
-46 19 -52 24 -7 6 -34 13 -61 16 -27 4 -57 11 -66 16 -10 5 -18 13 -18 19 0
5 10 13 23 18 12 5 40 25 61 45 30 28 37 39 28 48 -7 7 -12 19 -12 28 0 12 16
19 60 28 33 6 72 17 87 24 24 11 28 19 25 48 -1 19 -3 46 -3 60 0 14 -8 33
-16 42 -9 10 -35 25 -59 34 -41 16 -45 15 -76 -3 -24 -14 -38 -33 -51 -70 -16
-44 -23 -52 -55 -61 -20 -6 -56 -15 -80 -20 -23 -6 -44 -6 -47 -2 -3 5 9 20
27 33 18 14 51 35 73 47 22 12 48 29 58 38 9 8 17 20 17 27 0 6 -15 18 -32 26
-26 11 -33 20 -34 44 0 17 -1 38 -2 47 -1 10 -16 25 -33 33 -19 10 -41 14 -60
10 -16 -4 -32 -11 -35 -16 -3 -6 1 -18 10 -28 13 -14 14 -24 7 -43 -5 -14 -9
-45 -9 -70 1 -25 -6 -55 -14 -66 -8 -12 -33 -35 -56 -52 -23 -16 -44 -30 -46
-30 -2 0 -9 14 -15 31 -7 21 -7 61 -1 130 6 66 6 108 -1 126 -6 16 -27 45 -47
66 -20 20 -39 37 -43 37z m359 -451 c7 0 15 -6 18 -14 3 -8 -5 -27 -18 -43
-12 -16 -36 -38 -53 -48 -16 -10 -43 -28 -61 -39 -17 -11 -65 -42 -107 -68
-42 -27 -84 -47 -94 -45 -15 3 -18 16 -21 86 -3 83 -3 83 35 98 21 8 57 24 80
35 24 10 60 19 80 20 21 0 58 4 83 8 25 5 51 9 58 10z m-53 -233 c28 -1 56 -5
63 -9 6 -5 12 -16 12 -25 0 -10 -27 -43 -60 -75 -33 -32 -60 -63 -60 -68 0 -5
-9 -9 -19 -9 -11 0 -31 -10 -46 -22 -15 -13 -46 -39 -69 -59 -22 -20 -49 -39
-59 -42 -13 -5 -27 2 -47 22 -16 15 -32 45 -36 65 -6 33 -3 41 27 73 19 19 52
47 74 61 22 14 69 40 105 58 50 24 77 32 115 30z m-253 -354 c6 -6 7 -16 3
-22 -6 -9 -9 -9 -16 1 -4 7 -5 17 -2 22 3 5 10 4 15 -1z"/>
<path d="M978 54 c-7 3 -38 -7 -68 -22 -55 -27 -55 -27 59 -30 62 -1 116 0
119 2 3 3 0 12 -7 20 -6 7 -29 16 -50 20 -22 3 -45 8 -53 10z"/>
</g>
</svg>
