<?xml version="1.0" standalone="no"?>
<!DOCTYPE svg PUBLIC "-//W3C//DTD SVG 20010904//EN"
 "http://www.w3.org/TR/2001/REC-SVG-20010904/DTD/svg10.dtd">
<svg version="1.0" xmlns="http://www.w3.org/2000/svg"
 width="128.000000pt" height="128.000000pt" viewBox="0 0 128.000000 128.000000"
 preserveAspectRatio="xMidYMid meet">
<metadata>
Created by potrace 1.16, written by Peter Selinger 2001-2019
</metadata>
<g transform="translate(0.000000,128.000000) scale(0.100000,-0.100000)"
fill="#000000" stroke="none">
<path d="M479 1040 c-10 0 -25 -10 -33 -21 -8 -13 -21 -19 -29 -16 -9 3 -21
-2 -29 -11 -7 -9 -21 -33 -31 -53 -12 -24 -19 -59 -19 -105 0 -38 3 -94 7
-125 7 -54 6 -58 -17 -70 -14 -8 -53 -29 -88 -47 -35 -17 -69 -32 -77 -32 -7
0 -13 3 -14 8 0 4 -2 20 -4 36 -2 15 -12 37 -21 47 -9 10 -25 19 -34 19 -9 0
-21 -5 -28 -12 -7 -7 -12 -43 -12 -90 0 -78 0 -78 37 -77 21 0 45 0 53 0 8 0
36 2 63 5 46 6 47 5 47 -20 0 -18 8 -30 25 -38 14 -6 38 -35 55 -65 17 -29 37
-53 44 -53 8 0 18 6 22 12 5 7 8 31 9 53 0 37 2 40 30 43 17 2 36 9 44 15 7 6
17 20 21 32 7 18 16 20 91 20 83 0 83 0 91 44 4 24 10 71 13 105 3 33 6 71 7
82 2 12 11 31 21 41 9 11 17 23 17 27 0 5 11 21 25 37 20 24 24 39 22 83 -1
29 -9 61 -16 70 -10 12 -27 16 -60 14 -46 -3 -46 -3 -47 -73 0 -44 -6 -84 -18
-108 -14 -33 -21 -38 -40 -33 -15 4 -33 -1 -47 -12 -13 -10 -48 -24 -77 -31
-30 -7 -57 -9 -61 -5 -4 5 -13 34 -20 65 -11 52 -10 60 10 98 11 23 25 44 30
47 5 3 9 14 9 25 0 10 6 19 13 19 8 0 21 8 30 18 10 10 14 22 10 25 -3 4 -14
7 -24 7z m87 -330 c17 0 24 -6 24 -19 0 -11 -6 -26 -13 -33 -7 -7 -19 -28 -26
-45 -7 -18 -19 -33 -26 -33 -7 0 -20 11 -29 25 -9 13 -16 31 -16 39 0 8 14 26
31 40 17 14 41 26 55 26z m-188 -111 c12 1 22 -3 22 -9 0 -5 14 -25 30 -43 17
-19 30 -42 30 -50 0 -8 -19 -25 -43 -36 -24 -12 -51 -21 -60 -21 -9 0 -19 5
-22 11 -4 5 -18 14 -31 19 -14 6 -27 17 -31 25 -3 11 10 31 38 60 24 24 54 44
67 44z"/>
<path d="M828 798 c-20 2 -39 -2 -43 -8 -3 -5 -3 -19 0 -30 4 -11 10 -20 15
-20 4 0 18 -17 31 -37 13 -21 27 -46 31 -55 4 -10 14 -18 22 -18 8 0 45 18 84
40 38 22 78 40 89 40 11 0 27 -8 36 -18 10 -10 17 -21 17 -25 0 -3 -27 -32
-61 -64 -39 -38 -77 -63 -107 -74 -26 -8 -65 -26 -88 -40 -22 -13 -58 -36 -80
-50 -22 -15 -54 -30 -73 -34 -18 -4 -60 -23 -93 -44 -33 -20 -80 -47 -105 -61
-25 -14 -44 -30 -42 -35 2 -6 32 -10 66 -9 39 0 70 6 87 17 14 9 32 17 39 17
8 0 22 9 31 19 10 10 34 22 54 26 20 4 47 16 59 27 12 11 73 38 135 59 62 22
115 45 117 51 2 6 12 19 22 29 11 11 28 19 40 19 11 0 30 5 42 11 12 7 29 21
38 33 10 12 22 40 28 63 6 23 8 48 5 57 -3 8 -15 18 -25 21 -11 4 -26 17 -34
29 -9 13 -32 28 -53 35 -36 12 -41 11 -87 -18 -28 -17 -61 -36 -75 -42 -20 -8
-27 -7 -35 6 -5 10 -19 31 -30 49 -16 24 -29 32 -57 34z"/>
</g>
</svg>
