<?xml version="1.0" standalone="no"?>
<!DOCTYPE svg PUBLIC "-//W3C//DTD SVG 20010904//EN"
 "http://www.w3.org/TR/2001/REC-SVG-20010904/DTD/svg10.dtd">
<svg version="1.0" xmlns="http://www.w3.org/2000/svg"
 width="128.000000pt" height="128.000000pt" viewBox="0 0 128.000000 128.000000"
 preserveAspectRatio="xMidYMid meet">
<metadata>
Created by potrace 1.16, written by Peter Selinger 2001-2019
</metadata>
<g transform="translate(0.000000,128.000000) scale(0.100000,-0.100000)"
fill="#000000" stroke="none">
<path d="M708 1224 c-24 4 -39 3 -44 -6 -4 -7 1 -17 14 -26 15 -10 22 -25 22
-46 0 -21 -15 -55 -43 -98 -24 -36 -63 -90 -86 -119 -23 -29 -62 -94 -87 -145
-24 -51 -52 -119 -60 -151 -11 -41 -13 -77 -9 -123 4 -36 16 -81 26 -100 10
-19 31 -50 47 -69 27 -32 32 -34 63 -25 22 6 42 23 58 46 19 29 37 41 84 58
34 11 81 20 105 20 24 0 59 7 78 16 18 9 54 41 79 71 25 30 45 59 45 65 0 5
10 22 21 37 12 16 18 34 15 40 -4 6 -2 20 4 31 9 17 4 34 -28 98 -40 77 -40
77 -91 85 -38 6 -66 4 -108 -8 -32 -9 -87 -32 -123 -51 -35 -19 -72 -34 -82
-34 -10 0 -18 6 -18 14 0 8 20 45 45 83 29 44 59 77 87 94 23 14 50 38 59 55
10 16 20 52 24 80 6 49 5 51 -27 76 -18 14 -50 28 -70 32z m158 -415 c56 1 62
-1 72 -24 7 -14 12 -43 12 -63 0 -20 -7 -46 -15 -56 -8 -11 -15 -28 -15 -38 0
-11 -21 -41 -46 -68 -26 -28 -55 -50 -66 -50 -11 0 -28 5 -38 10 -13 7 -27 6
-45 -2 -19 -9 -28 -9 -37 0 -8 8 -9 20 -2 39 6 19 19 29 44 35 19 5 47 14 63
20 15 6 27 17 27 24 0 8 -24 25 -52 38 -29 13 -63 35 -76 49 -19 19 -21 27
-10 33 7 5 38 19 68 30 32 13 80 22 116 23z m-263 -51 c31 -3 32 -5 35 -55 2
-42 -1 -54 -15 -61 -10 -5 -37 -13 -60 -17 -34 -5 -43 -4 -43 7 0 8 16 27 35
43 33 26 35 29 19 46 -9 10 -13 23 -9 29 4 6 21 10 38 8z m-55 -170 c15 -7 33
-16 40 -21 6 -5 12 -19 12 -32 0 -12 -9 -30 -20 -40 -10 -9 -25 -15 -32 -12
-7 2 -19 26 -26 51 -7 26 -10 51 -7 56 3 5 18 4 33 -2z"/>
<path d="M587 1218 c-11 2 -20 -6 -27 -23 -5 -14 -10 -30 -10 -34 0 -5 -16
-34 -35 -66 -19 -32 -41 -65 -50 -75 -8 -9 -15 -22 -15 -28 0 -7 11 -12 25
-12 16 0 42 15 68 39 24 22 53 62 66 89 21 45 22 52 10 78 -8 16 -22 30 -32
32z"/>
<path d="M1172 1100 c-33 0 -54 -5 -63 -16 -9 -11 -10 -20 -2 -32 5 -10 26
-18 46 -20 36 -3 36 -3 39 -90 2 -49 7 -87 13 -87 6 0 11 49 13 123 3 122 3
122 -46 122z"/>
<path d="M1208 769 c-7 0 -37 -15 -65 -32 -48 -28 -53 -34 -53 -67 1 -19 11
-60 25 -90 13 -30 37 -72 55 -92 17 -21 35 -38 41 -38 5 0 9 25 9 56 0 45 -5
62 -25 86 -14 16 -25 38 -25 49 0 11 11 35 25 53 14 18 25 43 25 54 0 12 -6
22 -12 21z"/>
<path d="M975 389 c-11 0 -27 -3 -35 -6 -8 -3 -26 -16 -40 -29 -14 -12 -56
-38 -95 -56 -59 -28 -81 -33 -140 -32 -38 0 -89 4 -112 8 -23 5 -53 6 -67 2
-14 -3 -26 -13 -26 -20 0 -8 15 -19 33 -25 17 -7 49 -23 69 -36 21 -14 51 -25
68 -25 16 0 64 9 106 21 42 11 92 30 112 42 21 11 50 31 65 44 16 13 41 23 56
23 17 0 49 -16 84 -44 31 -24 68 -58 83 -75 14 -17 30 -29 35 -25 5 3 9 34 9
68 0 45 -4 67 -15 76 -9 7 -51 30 -93 52 -42 21 -86 38 -97 37z"/>
<path d="M188 340 c-7 -1 -23 -9 -36 -20 -12 -10 -27 -20 -33 -22 -5 -2 -15
-35 -21 -74 -11 -71 -11 -72 21 -128 18 -31 44 -64 56 -72 13 -9 33 -13 43 -9
11 3 31 17 46 31 16 17 28 42 32 72 5 36 15 55 42 80 20 17 42 32 49 32 7 0
13 6 13 14 0 8 -7 17 -16 20 -9 3 -34 6 -56 6 -30 0 -50 -8 -79 -31 -22 -17
-46 -28 -54 -25 -9 3 -15 19 -15 40 0 19 5 38 10 41 6 3 10 15 10 26 0 10 -6
19 -12 19z"/>
</g>
</svg>
