<?xml version="1.0" standalone="no"?>
<!DOCTYPE svg PUBLIC "-//W3C//DTD SVG 20010904//EN"
 "http://www.w3.org/TR/2001/REC-SVG-20010904/DTD/svg10.dtd">
<svg version="1.0" xmlns="http://www.w3.org/2000/svg"
 width="128.000000pt" height="128.000000pt" viewBox="0 0 128.000000 128.000000"
 preserveAspectRatio="xMidYMid meet">
<metadata>
Created by potrace 1.16, written by Peter Selinger 2001-2019
</metadata>
<g transform="translate(0.000000,128.000000) scale(0.100000,-0.100000)"
fill="#000000" stroke="none">
<path d="M825 1280 c-8 0 -15 -6 -15 -14 0 -7 -31 -41 -70 -75 -38 -34 -82
-74 -98 -89 -15 -15 -58 -56 -95 -91 -40 -38 -66 -69 -63 -77 3 -8 19 -14 35
-14 17 0 34 6 38 14 4 7 24 23 43 35 19 11 43 21 52 21 10 0 30 20 47 46 18
30 31 42 36 34 5 -8 19 -10 41 -5 29 5 34 3 34 -13 0 -10 -13 -37 -28 -58 -16
-22 -58 -64 -93 -95 -35 -30 -82 -67 -105 -82 -22 -15 -50 -27 -62 -27 -12 0
-26 -10 -33 -21 -6 -12 -26 -35 -45 -52 -23 -20 -34 -37 -32 -51 3 -18 9 -20
38 -17 19 1 44 8 55 13 11 6 39 27 61 47 23 20 75 57 115 82 41 25 92 53 114
61 22 9 62 22 89 29 44 11 50 11 62 -6 8 -10 14 -24 14 -31 0 -7 -9 -33 -20
-58 -14 -33 -25 -46 -39 -46 -11 0 -23 5 -27 11 -4 7 -26 9 -63 4 -31 -3 -66
-9 -79 -12 -13 -3 -28 -16 -33 -30 -5 -14 -26 -31 -54 -43 -25 -11 -45 -26
-45 -34 0 -8 -5 -16 -10 -18 -6 -2 -11 -21 -13 -43 -2 -40 -2 -40 53 -41 43 0
54 -3 52 -15 -2 -7 -18 -25 -35 -39 -18 -14 -40 -33 -49 -43 -10 -9 -21 -17
-26 -17 -4 0 -23 -13 -43 -29 -19 -16 -57 -41 -85 -57 -27 -15 -71 -44 -98
-65 -27 -22 -55 -39 -62 -39 -7 0 -23 -13 -36 -30 -15 -21 -30 -30 -50 -30
-21 0 -29 -6 -34 -25 -3 -14 -19 -34 -35 -46 -18 -13 -29 -29 -29 -45 0 -16 6
-24 17 -24 9 0 33 6 52 12 20 7 56 23 81 37 25 13 60 32 79 42 19 10 39 23 45
29 5 5 19 10 29 10 10 0 58 20 106 45 48 25 90 45 94 45 4 0 7 -7 7 -15 0 -8
-21 -55 -46 -104 -39 -75 -44 -92 -35 -110 8 -14 17 -19 25 -14 8 5 44 46 81
92 68 84 68 84 137 77 38 -3 76 -10 86 -15 9 -5 29 -14 43 -21 15 -7 36 -29
47 -49 12 -20 30 -46 42 -56 13 -12 44 -22 83 -26 40 -5 66 -4 75 3 7 6 12 25
10 42 -2 24 -11 36 -43 53 -22 12 -65 33 -95 48 -30 15 -64 31 -75 35 -11 5
-41 13 -67 19 -25 6 -66 8 -91 5 -30 -4 -47 -2 -52 6 -4 7 5 24 24 42 16 16
38 47 47 68 15 34 27 43 98 74 45 19 100 38 124 41 23 4 55 13 71 21 15 8 36
23 45 33 10 11 15 25 11 31 -5 7 -21 10 -44 6 -20 -3 -58 -10 -86 -15 -27 -6
-70 -14 -95 -19 -25 -4 -51 -12 -58 -16 -7 -4 -10 -11 -7 -16 3 -5 -2 -16 -12
-25 -15 -16 -18 -14 -50 20 -18 20 -33 42 -33 50 0 7 7 20 14 27 8 7 41 33 73
58 33 25 81 72 108 104 28 32 60 75 72 95 13 21 23 52 23 74 0 34 -4 40 -34
52 -25 11 -53 13 -98 9 -35 -4 -71 -11 -82 -16 -12 -7 -22 -6 -29 1 -8 8 -5
17 11 34 12 12 47 49 77 82 30 33 54 64 52 70 -2 5 -18 19 -37 29 -29 17 -38
18 -79 7 -25 -6 -58 -20 -72 -31 -15 -10 -29 -16 -33 -13 -3 4 5 21 19 39 14
18 25 37 25 43 0 6 14 23 30 38 17 14 30 35 30 45 0 10 -7 18 -15 18z m-53
-590 c4 0 10 -5 13 -11 4 -5 4 -21 1 -33 -3 -13 -13 -27 -22 -30 -8 -3 -24 -1
-35 4 -10 6 -19 16 -19 23 0 7 12 20 28 29 15 10 30 18 34 18z m-39 -197 c4
-2 4 -9 1 -15 -4 -6 -9 -29 -11 -51 -2 -22 -8 -46 -14 -54 -6 -7 -20 -13 -31
-13 -10 0 -21 -7 -24 -15 -4 -8 -14 -15 -23 -15 -10 0 -37 -9 -62 -20 -24 -11
-55 -27 -69 -35 -14 -8 -45 -25 -71 -39 -25 -13 -63 -27 -85 -31 -39 -6 -39
-6 -14 15 14 11 45 33 70 47 25 15 63 41 85 59 22 17 58 41 80 53 22 12 67 43
100 70 33 27 63 46 68 44z"/>
</g>
</svg>
