<?xml version="1.0" standalone="no"?>
<!DOCTYPE svg PUBLIC "-//W3C//DTD SVG 20010904//EN"
 "http://www.w3.org/TR/2001/REC-SVG-20010904/DTD/svg10.dtd">
<svg version="1.0" xmlns="http://www.w3.org/2000/svg"
 width="128.000000pt" height="128.000000pt" viewBox="0 0 128.000000 128.000000"
 preserveAspectRatio="xMidYMid meet">
<metadata>
Created by potrace 1.16, written by Peter Selinger 2001-2019
</metadata>
<g transform="translate(0.000000,128.000000) scale(0.100000,-0.100000)"
fill="#000000" stroke="none">
<path d="M909 1255 c-18 5 -33 0 -50 -14 -13 -12 -40 -31 -59 -44 -20 -13 -40
-38 -49 -60 -10 -28 -11 -41 -3 -49 8 -8 15 -8 26 2 9 7 23 10 31 6 11 -4 14
-13 9 -31 -4 -16 0 -34 10 -50 9 -14 23 -25 31 -25 8 0 27 14 42 30 20 23 35
30 64 30 24 0 39 -5 43 -16 3 -8 0 -30 -8 -47 -7 -18 -16 -59 -21 -92 -4 -32
-14 -69 -22 -82 -11 -16 -22 -22 -35 -18 -12 5 -33 -6 -66 -32 -26 -21 -59
-47 -74 -56 -15 -10 -37 -36 -49 -60 -12 -23 -30 -53 -40 -66 -15 -18 -19 -41
-19 -100 0 -42 6 -94 13 -117 6 -23 28 -60 47 -84 19 -23 70 -77 113 -120 42
-43 77 -83 77 -88 0 -6 14 -22 31 -36 17 -14 39 -26 49 -26 10 0 28 8 40 18
13 10 25 36 30 62 6 31 4 62 -5 100 -8 32 -13 97 -12 156 1 72 -3 106 -12 118
-11 13 -11 19 0 32 10 12 25 14 78 8 36 -4 82 -8 101 -8 31 -1 35 2 35 24 0
18 -11 31 -45 51 -40 24 -51 26 -98 20 -39 -6 -55 -4 -58 4 -3 7 5 51 16 99
18 72 20 92 10 116 -6 16 -9 37 -6 48 4 11 2 23 -4 27 -8 5 -9 29 -4 74 4 40
14 75 25 90 11 13 19 32 19 41 0 10 -6 22 -13 28 -7 6 -33 12 -57 14 -45 3
-45 3 -50 48 -4 35 -10 47 -30 57 -14 6 -37 14 -51 18z m29 -536 c16 1 22 -5
22 -19 0 -12 -9 -40 -20 -62 -11 -23 -20 -52 -20 -65 0 -12 6 -40 14 -60 7
-21 19 -72 25 -114 6 -41 9 -101 5 -133 -4 -32 -12 -60 -19 -62 -6 -3 -22 1
-36 8 -14 7 -38 27 -54 45 -17 17 -44 51 -61 75 -18 24 -39 57 -48 75 -9 18
-16 38 -16 46 0 7 16 45 35 83 20 38 42 80 50 94 8 13 33 39 57 56 24 18 53
33 66 33z"/>
<path d="M195 1200 c-18 0 -24 -7 -30 -37 -5 -30 -3 -40 10 -48 9 -5 24 -15
33 -21 10 -8 17 -32 20 -73 3 -48 -1 -77 -21 -134 -14 -39 -33 -101 -42 -137
-8 -36 -33 -110 -54 -165 -21 -55 -49 -129 -61 -165 -12 -36 -25 -82 -27 -103
-3 -21 0 -51 7 -67 6 -16 19 -31 27 -34 9 -4 22 -1 29 5 8 6 14 15 14 20 0 5
14 29 32 53 27 39 31 53 30 102 -1 44 4 66 23 99 14 23 25 49 25 59 0 9 9 45
21 79 12 34 27 85 35 113 7 29 25 69 39 89 14 21 25 41 25 45 0 3 14 17 32 30
31 23 31 23 24 -11 -3 -19 -16 -58 -27 -86 -13 -32 -19 -62 -15 -77 3 -14 24
-46 47 -72 35 -40 39 -51 33 -78 -4 -17 -19 -60 -33 -96 -15 -36 -36 -80 -47
-99 -10 -18 -29 -49 -41 -68 -13 -18 -23 -46 -23 -61 0 -15 3 -37 6 -49 3 -12
12 -24 20 -27 8 -3 27 -3 43 0 20 4 33 16 45 40 9 19 16 44 16 55 0 11 6 30
14 42 7 12 16 45 19 74 3 29 19 80 36 115 16 35 33 81 37 103 4 22 17 54 29
70 13 17 31 50 42 75 11 25 27 51 36 59 10 7 17 22 17 33 0 10 14 32 32 48 21
20 32 39 33 62 1 18 5 43 9 55 4 13 5 27 1 32 -3 6 -12 8 -21 4 -8 -3 -24 -26
-35 -52 -12 -25 -37 -67 -56 -93 -19 -26 -37 -64 -40 -85 -3 -21 -17 -57 -32
-80 -14 -24 -30 -43 -34 -43 -4 0 -21 7 -37 15 -22 12 -30 23 -30 43 0 15 6
36 14 47 7 11 25 40 39 65 13 25 28 56 32 70 4 14 16 35 27 47 20 21 20 22 2
46 -11 14 -34 30 -53 36 -29 9 -40 7 -65 -9 -17 -10 -40 -35 -50 -54 -11 -20
-26 -36 -34 -36 -10 0 -12 6 -7 23 4 12 9 36 12 53 3 18 -2 44 -11 62 -10 19
-28 35 -50 42 -18 6 -42 20 -51 30 -10 11 -28 20 -40 20z"/>
<path d="M94 1190 c-9 0 -14 -5 -12 -12 2 -6 10 -14 16 -16 7 -2 12 3 12 12 0
9 -7 16 -16 16z"/>
<path d="M530 30 c-15 0 -33 -7 -40 -15 -11 -13 -5 -15 40 -15 45 0 51 2 40
15 -7 8 -25 15 -40 15z"/>
</g>
</svg>
