<?xml version="1.0" standalone="no"?>
<!DOCTYPE svg PUBLIC "-//W3C//DTD SVG 20010904//EN"
 "http://www.w3.org/TR/2001/REC-SVG-20010904/DTD/svg10.dtd">
<svg version="1.0" xmlns="http://www.w3.org/2000/svg"
 width="128.000000pt" height="128.000000pt" viewBox="0 0 128.000000 128.000000"
 preserveAspectRatio="xMidYMid meet">
<metadata>
Created by potrace 1.16, written by Peter Selinger 2001-2019
</metadata>
<g transform="translate(0.000000,128.000000) scale(0.100000,-0.100000)"
fill="#000000" stroke="none">
<path d="M465 1125 c-5 1 -28 -3 -51 -9 -35 -9 -40 -14 -33 -31 4 -11 8 -32 8
-47 1 -16 18 -47 46 -79 25 -29 45 -62 45 -73 0 -11 -12 -31 -27 -43 -15 -13
-34 -21 -43 -18 -10 3 -34 6 -54 7 -25 1 -44 -6 -59 -20 -19 -18 -34 -22 -92
-21 -41 1 -74 6 -82 14 -7 7 -35 16 -63 20 -28 4 -54 4 -58 1 -3 -4 -1 -18 4
-33 5 -15 27 -40 49 -55 28 -20 48 -26 67 -22 14 3 29 0 33 -6 5 -9 31 -10 88
-5 45 4 91 14 103 21 11 8 38 15 60 17 39 2 39 2 38 -43 -1 -25 -2 -60 -3 -77
-1 -19 -10 -42 -22 -54 -11 -11 -33 -40 -48 -64 -15 -24 -42 -58 -60 -74 -24
-23 -32 -37 -29 -58 2 -23 8 -28 29 -26 16 1 48 22 85 57 32 30 64 60 69 66 6
7 22 25 38 40 15 15 27 35 27 44 0 9 8 16 18 16 10 0 27 -7 38 -15 10 -8 31
-15 45 -15 15 0 32 -7 39 -15 11 -13 8 -26 -16 -78 -16 -34 -47 -79 -69 -99
-22 -20 -47 -37 -56 -38 -8 0 -30 16 -49 35 -18 19 -37 32 -42 29 -4 -3 -8
-13 -8 -22 0 -9 16 -48 35 -86 19 -39 47 -83 62 -98 15 -15 36 -28 48 -28 12
0 29 8 38 18 10 10 17 28 17 40 0 16 15 30 53 52 28 16 58 39 65 50 7 12 10
30 7 41 -4 10 -2 19 2 19 5 0 17 16 26 35 9 20 17 57 17 84 0 32 -5 53 -16 61
-8 8 -19 21 -25 31 -6 13 -4 31 7 59 9 22 20 40 24 40 5 0 29 15 53 34 30 23
64 38 103 46 33 6 73 15 89 20 17 4 54 13 83 20 28 7 55 16 58 21 3 5 16 9 28
9 13 0 29 7 36 15 10 13 10 23 -5 55 -11 25 -25 40 -36 40 -10 0 -22 -6 -26
-14 -4 -7 -22 -20 -39 -29 -17 -9 -34 -14 -36 -11 -3 3 -24 -2 -46 -11 -22 -9
-51 -15 -64 -13 -12 2 -24 11 -26 20 -2 10 4 32 12 50 9 17 16 41 16 54 0 17
-9 25 -35 34 -29 10 -35 16 -35 41 0 24 -4 29 -24 29 -19 0 -26 -7 -31 -30 -4
-16 -12 -30 -18 -30 -7 0 -30 6 -51 14 -21 7 -47 11 -57 9 -11 -3 -19 -11 -19
-19 0 -7 17 -25 37 -39 21 -14 45 -25 55 -25 9 0 24 -7 32 -16 9 -8 13 -21 9
-27 -4 -6 -9 -27 -13 -47 -4 -30 -9 -35 -36 -38 -20 -2 -36 4 -49 18 -10 11
-29 20 -41 20 -17 0 -31 12 -49 40 -14 22 -31 41 -38 42 -6 1 -25 2 -42 2 -28
1 -30 4 -36 45 -4 28 -13 49 -28 60 -12 9 -28 28 -34 41 -7 13 -16 24 -22 25z
m195 -347 c65 3 81 1 86 -12 3 -8 -7 -39 -23 -68 -27 -49 -31 -53 -65 -52 -20
1 -50 11 -67 23 -24 17 -31 30 -31 55 0 17 4 36 10 42 5 5 45 10 90 12z m41
-368 c4 0 14 -11 23 -25 9 -13 16 -29 16 -35 0 -5 -9 -10 -19 -10 -10 0 -29 9
-42 20 -24 20 -24 20 -5 35 11 8 23 15 27 15z"/>
<path d="M1260 760 c-11 0 -20 -6 -20 -13 0 -7 5 -18 12 -25 7 -7 16 -12 20
-12 4 0 8 11 8 25 0 18 -5 25 -20 25z"/>
<path d="M1087 670 c-17 0 -50 -8 -72 -18 -22 -10 -58 -17 -80 -15 -22 2 -52
6 -67 9 -24 5 -28 3 -28 -14 0 -12 23 -44 55 -75 55 -54 55 -54 49 -118 -4
-35 -11 -70 -16 -76 -6 -7 -8 -20 -4 -28 3 -9 22 -23 43 -31 32 -14 50 -14
133 -3 52 7 110 18 128 26 20 8 32 20 32 33 0 11 -10 24 -21 31 -12 6 -58 13
-101 15 -44 2 -87 9 -94 15 -8 6 -14 22 -14 34 0 12 16 43 35 68 19 25 35 49
35 53 0 4 7 15 16 25 11 12 14 27 10 44 -5 20 -12 25 -39 25z"/>
<path d="M230 340 c-10 0 -22 -5 -25 -11 -4 -5 -31 -21 -61 -35 -30 -13 -54
-29 -54 -34 0 -6 0 -13 0 -17 0 -5 12 -11 27 -15 19 -5 34 -1 55 15 16 12 43
34 60 48 18 15 28 31 24 37 -4 7 -16 12 -26 12z"/>
<path d="M1214 290 c-8 0 -14 -9 -14 -20 0 -13 7 -20 18 -20 10 0 22 3 25 7 4
3 2 12 -4 20 -6 7 -18 13 -25 13z"/>
<path d="M721 200 c-15 0 -36 -6 -47 -14 -15 -12 -17 -18 -8 -33 8 -13 24 -18
60 -18 43 0 49 2 46 20 -2 11 -9 26 -14 33 -6 6 -23 12 -37 12z"/>
<path d="M1041 199 c-14 -1 -41 -5 -59 -9 -18 -4 -42 -16 -52 -25 -11 -10 -17
-22 -14 -26 3 -5 47 -9 99 -9 52 0 96 4 99 9 3 5 -6 20 -21 35 -15 16 -36 26
-52 25z"/>
</g>
</svg>
