<?xml version="1.0" standalone="no"?>
<!DOCTYPE svg PUBLIC "-//W3C//DTD SVG 20010904//EN"
 "http://www.w3.org/TR/2001/REC-SVG-20010904/DTD/svg10.dtd">
<svg version="1.0" xmlns="http://www.w3.org/2000/svg"
 width="56.000000pt" height="56.000000pt" viewBox="0 0 56.000000 56.000000"
 preserveAspectRatio="xMidYMid meet">
<metadata>
Created by potrace 1.16, written by Peter Selinger 2001-2019
</metadata>
<g transform="translate(0.000000,56.000000) scale(0.100000,-0.100000)"
fill="#000000" stroke="none">
<path d="M240 560 c-5 0 -14 -13 -22 -30 -9 -20 -20 -30 -35 -30 -12 0 -24 -4
-28 -9 -3 -5 7 -19 21 -30 15 -12 41 -21 58 -21 26 -1 36 -8 59 -44 15 -24 27
-49 27 -55 0 -6 -5 -11 -11 -11 -6 0 -19 4 -29 10 -10 5 -26 7 -34 4 -9 -3
-16 -12 -16 -19 0 -8 11 -22 24 -33 22 -16 31 -18 75 -9 38 8 53 8 65 -2 10
-9 16 -30 16 -60 0 -46 0 -46 -54 -44 -30 0 -58 3 -63 6 -4 2 -25 7 -45 11
-21 4 -39 2 -43 -3 -3 -6 9 -17 28 -24 18 -8 60 -16 92 -17 33 -2 82 -3 108
-2 27 0 55 6 63 13 8 6 14 21 14 34 0 12 -12 44 -26 71 -15 28 -21 50 -15 52
5 2 21 12 35 23 15 12 26 31 26 44 0 13 -10 31 -22 40 -21 14 -24 14 -33 -1
-5 -10 -22 -31 -37 -48 -28 -31 -28 -31 -75 18 -46 48 -46 49 -24 57 14 6 21
15 19 26 -3 14 -12 17 -41 16 -33 -2 -38 1 -53 32 -9 19 -20 35 -24 35z"/>
<path d="M54 190 c-8 0 -19 -12 -24 -26 -6 -14 -10 -27 -10 -28 0 -2 15 -22
33 -45 18 -23 48 -51 65 -61 20 -12 50 -20 77 -20 38 0 45 3 45 19 0 11 -10
27 -22 35 -12 9 -30 16 -38 16 -9 0 -35 16 -58 35 -22 20 -44 44 -47 55 -4 11
-13 20 -21 20z"/>
</g>
</svg>
