<?xml version="1.0" standalone="no"?>
<!DOCTYPE svg PUBLIC "-//W3C//DTD SVG 20010904//EN"
 "http://www.w3.org/TR/2001/REC-SVG-20010904/DTD/svg10.dtd">
<svg version="1.0" xmlns="http://www.w3.org/2000/svg"
 width="56.000000pt" height="56.000000pt" viewBox="0 0 56.000000 56.000000"
 preserveAspectRatio="xMidYMid meet">
<metadata>
Created by potrace 1.16, written by Peter Selinger 2001-2019
</metadata>
<g transform="translate(0.000000,56.000000) scale(0.100000,-0.100000)"
fill="#000000" stroke="none">
<path d="M247 560 c-12 0 -29 -10 -37 -22 -8 -13 -19 -41 -23 -63 -4 -22 -10
-53 -13 -70 -3 -20 2 -41 15 -62 17 -26 27 -32 63 -35 36 -3 44 -7 52 -30 5
-15 7 -31 3 -34 -4 -4 -29 -9 -57 -12 -27 -2 -55 -10 -61 -18 -6 -7 -9 -25 -7
-41 2 -16 12 -32 25 -39 13 -6 32 -19 43 -29 11 -10 20 -24 20 -32 0 -8 -7
-27 -15 -43 -16 -30 -16 -30 19 -30 22 0 36 6 40 16 3 9 6 33 6 54 0 26 -8 48
-25 68 -14 17 -25 35 -25 40 0 6 24 14 53 19 47 7 52 11 55 36 2 18 -5 38 -22
58 -14 17 -26 38 -26 47 0 9 5 24 10 32 6 10 4 20 -7 32 -9 10 -25 18 -35 18
-13 0 -24 -11 -31 -30 -7 -18 -19 -30 -29 -30 -13 0 -18 8 -18 26 0 14 10 40
22 56 18 26 20 35 11 59 -8 22 -8 29 3 33 8 3 14 10 14 16 0 5 -10 10 -23 10z"/>
</g>
</svg>
