<?xml version="1.0" standalone="no"?>
<!DOCTYPE svg PUBLIC "-//W3C//DTD SVG 20010904//EN"
 "http://www.w3.org/TR/2001/REC-SVG-20010904/DTD/svg10.dtd">
<svg version="1.0" xmlns="http://www.w3.org/2000/svg"
 width="56.000000pt" height="56.000000pt" viewBox="0 0 56.000000 56.000000"
 preserveAspectRatio="xMidYMid meet">
<metadata>
Created by potrace 1.16, written by Peter Selinger 2001-2019
</metadata>
<g transform="translate(0.000000,56.000000) scale(0.100000,-0.100000)"
fill="#000000" stroke="none">
<path d="M228 560 c-15 0 -18 -5 -13 -22 4 -13 16 -38 27 -56 16 -26 26 -32
47 -30 15 2 27 10 29 20 2 11 -12 33 -34 53 -20 19 -45 35 -56 35z"/>
<path d="M231 384 c-4 3 -11 3 -15 -1 -3 -3 -6 -31 -6 -60 0 -50 2 -55 28 -64
17 -6 32 -21 39 -40 7 -17 10 -36 7 -43 -3 -7 -20 -20 -39 -29 -19 -9 -42 -28
-51 -42 -17 -26 -17 -27 27 -65 24 -22 54 -39 67 -40 12 0 22 6 22 14 0 8 -11
28 -25 44 -14 17 -25 37 -25 45 0 8 7 18 16 21 9 3 31 6 50 6 22 0 37 6 41 15
3 9 -1 23 -9 33 -7 9 -20 28 -27 42 -7 15 -13 41 -13 58 -1 21 -8 37 -20 43
-10 6 -28 7 -38 4 -17 -5 -20 -2 -20 24 0 16 -4 32 -9 35z"/>
</g>
</svg>
