<?xml version="1.0" standalone="no"?>
<!DOCTYPE svg PUBLIC "-//W3C//DTD SVG 20010904//EN"
 "http://www.w3.org/TR/2001/REC-SVG-20010904/DTD/svg10.dtd">
<svg version="1.0" xmlns="http://www.w3.org/2000/svg"
 width="56.000000pt" height="56.000000pt" viewBox="0 0 56.000000 56.000000"
 preserveAspectRatio="xMidYMid meet">
<metadata>
Created by potrace 1.16, written by Peter Selinger 2001-2019
</metadata>
<g transform="translate(0.000000,56.000000) scale(0.100000,-0.100000)"
fill="#000000" stroke="none">
<path d="M235 560 c-8 0 -15 -3 -15 -7 1 -5 11 -30 24 -58 24 -50 24 -50 -33
-60 -40 -8 -57 -15 -59 -28 -3 -13 4 -17 27 -17 16 0 32 4 35 9 3 5 18 11 33
14 16 3 34 1 41 -5 6 -6 12 -18 12 -28 0 -12 -11 -20 -32 -24 -18 -4 -48 -9
-65 -13 -19 -3 -33 -11 -33 -19 0 -10 14 -14 48 -14 26 0 53 5 59 11 6 6 21 9
34 7 13 -2 30 -17 41 -37 11 -18 18 -43 16 -55 -3 -18 -9 -21 -51 -18 -27 1
-73 -5 -103 -14 -39 -11 -61 -25 -79 -48 -14 -18 -25 -44 -25 -57 0 -14 5 -30
12 -37 7 -7 42 -12 88 -12 75 0 75 0 45 -25 -29 -24 -29 -24 -7 -25 13 0 38 6
55 14 18 7 45 18 60 25 16 6 27 17 25 23 -3 7 -15 15 -29 19 -13 4 -58 8 -99
8 -41 1 -82 6 -90 11 -12 8 -10 14 15 40 26 27 34 30 94 30 37 0 80 -4 97 -9
18 -5 37 -5 47 1 10 5 17 19 17 31 -1 12 -9 38 -20 57 -10 19 -24 46 -30 60
-8 18 -9 30 -1 42 6 10 11 20 11 22 0 2 -13 7 -29 11 -16 3 -32 14 -36 23 -4
9 -9 29 -10 44 -1 16 -10 39 -19 52 -8 14 -25 27 -36 31 -11 3 -20 11 -20 16
0 5 -7 9 -15 9z"/>
<path d="M315 560 c-14 0 -25 -4 -25 -9 0 -6 4 -12 9 -15 5 -4 16 -3 25 0 9 3
16 10 16 15 0 5 -11 9 -25 9z"/>
</g>
</svg>
