<?xml version="1.0" standalone="no"?>
<!DOCTYPE svg PUBLIC "-//W3C//DTD SVG 20010904//EN"
 "http://www.w3.org/TR/2001/REC-SVG-20010904/DTD/svg10.dtd">
<svg version="1.0" xmlns="http://www.w3.org/2000/svg"
 width="56.000000pt" height="56.000000pt" viewBox="0 0 56.000000 56.000000"
 preserveAspectRatio="xMidYMid meet">
<metadata>
Created by potrace 1.16, written by Peter Selinger 2001-2019
</metadata>
<g transform="translate(0.000000,56.000000) scale(0.100000,-0.100000)"
fill="#000000" stroke="none">
<path d="M135 560 c-18 0 -25 -5 -25 -20 0 -11 12 -27 28 -37 15 -9 29 -18 31
-20 2 -1 -8 -22 -22 -46 -14 -24 -33 -49 -41 -57 -9 -7 -16 -25 -16 -41 0 -27
3 -29 40 -29 29 0 40 -4 40 -15 0 -8 -19 -50 -41 -92 -23 -43 -45 -80 -50 -83
-4 -3 -7 -30 -6 -60 2 -42 6 -56 18 -58 12 -2 27 15 47 53 17 31 36 73 43 93
7 21 23 55 37 76 16 26 27 35 31 27 5 -7 6 -34 3 -60 -3 -33 0 -50 10 -59 8
-6 58 -13 116 -16 96 -3 102 -3 108 17 5 15 0 26 -17 39 -16 14 -32 18 -58 13
-20 -3 -53 -7 -73 -10 -21 -2 -40 0 -44 6 -3 5 0 32 6 60 8 31 20 53 33 60 11
6 42 9 69 7 27 -3 51 -1 54 4 4 6 0 22 -7 36 -7 15 -20 35 -28 45 -9 10 -20
33 -26 50 -9 28 -15 32 -48 35 -29 3 -42 -2 -58 -20 -11 -13 -28 -41 -38 -63
-18 -40 -19 -40 -65 -37 -25 2 -46 6 -46 8 0 3 23 27 50 55 28 27 50 55 50 62
0 7 -7 23 -16 35 -8 12 -26 22 -40 22 -13 0 -24 5 -24 10 0 6 -11 10 -25 10z
m199 -140 c7 0 17 -5 24 -12 7 -7 12 -21 12 -33 0 -15 -13 -27 -44 -42 -24
-12 -46 -19 -49 -16 -3 3 -2 16 3 29 5 13 17 35 26 49 9 14 22 25 28 25z"/>
<path d="M482 100 c-4 0 -13 -5 -20 -12 -7 -7 -12 -29 -12 -50 0 -31 4 -38 20
-38 17 0 20 7 20 50 0 28 -4 50 -8 50z"/>
</g>
</svg>
