<?xml version="1.0" standalone="no"?>
<!DOCTYPE svg PUBLIC "-//W3C//DTD SVG 20010904//EN"
 "http://www.w3.org/TR/2001/REC-SVG-20010904/DTD/svg10.dtd">
<svg version="1.0" xmlns="http://www.w3.org/2000/svg"
 width="56.000000pt" height="56.000000pt" viewBox="0 0 56.000000 56.000000"
 preserveAspectRatio="xMidYMid meet">
<metadata>
Created by potrace 1.16, written by Peter Selinger 2001-2019
</metadata>
<g transform="translate(0.000000,56.000000) scale(0.100000,-0.100000)"
fill="#000000" stroke="none">
<path d="M246 560 c-7 0 -18 -11 -26 -24 -8 -15 -10 -37 -6 -58 4 -18 8 -46 9
-63 2 -27 -2 -31 -40 -45 -24 -8 -43 -20 -43 -27 0 -7 8 -13 18 -13 10 0 23
-5 30 -12 9 -9 5 -23 -15 -60 -20 -37 -24 -51 -15 -60 9 -9 25 -6 67 15 30 15
55 32 55 38 0 7 -12 9 -35 5 -21 -4 -35 -3 -35 3 0 5 10 26 21 46 12 20 27 34
33 33 6 -2 25 -33 43 -68 18 -36 31 -74 30 -85 -2 -17 -9 -20 -47 -18 -25 1
-69 0 -97 -3 -31 -3 -53 -10 -53 -17 0 -7 10 -17 23 -22 19 -9 22 -17 21 -68
-1 -57 -1 -57 32 -57 28 0 33 4 39 29 3 17 2 39 -4 50 -6 11 -11 25 -11 31 0
9 24 11 82 9 82 -4 82 -4 92 24 8 21 5 36 -12 72 -21 42 -21 47 -6 70 9 13 13
29 9 35 -4 6 -22 8 -46 4 -29 -5 -39 -3 -39 7 0 8 -9 36 -19 64 -11 27 -25 76
-31 108 -7 33 -17 57 -24 57z"/>
</g>
</svg>
