<?xml version="1.0" standalone="no"?>
<!DOCTYPE svg PUBLIC "-//W3C//DTD SVG 20010904//EN"
 "http://www.w3.org/TR/2001/REC-SVG-20010904/DTD/svg10.dtd">
<svg version="1.0" xmlns="http://www.w3.org/2000/svg"
 width="56.000000pt" height="56.000000pt" viewBox="0 0 56.000000 56.000000"
 preserveAspectRatio="xMidYMid meet">
<metadata>
Created by potrace 1.16, written by Peter Selinger 2001-2019
</metadata>
<g transform="translate(0.000000,56.000000) scale(0.100000,-0.100000)"
fill="#000000" stroke="none">
<path d="M217 560 c-14 0 -31 -11 -43 -27 -11 -16 -23 -35 -27 -45 -3 -9 -1
-32 5 -52 10 -32 8 -42 -22 -102 -28 -54 -31 -67 -19 -75 8 -5 19 -9 25 -9 7
0 14 -6 17 -14 3 -8 0 -38 -7 -68 -7 -29 -19 -64 -27 -78 -8 -14 -20 -33 -28
-42 -7 -10 -11 -24 -8 -33 4 -8 16 -15 27 -15 16 0 35 30 96 153 45 92 89 167
111 190 21 20 43 37 50 37 8 0 13 -12 13 -30 0 -26 -3 -30 -29 -30 -16 0 -33
-6 -39 -12 -6 -7 -13 -49 -17 -93 -6 -70 -5 -83 11 -102 11 -12 46 -31 79 -41
40 -13 66 -16 78 -10 9 5 17 15 17 23 0 7 -13 23 -29 34 -16 12 -43 21 -59 21
-17 0 -38 8 -47 17 -14 13 -16 28 -11 66 3 27 8 52 11 55 3 4 19 1 36 -5 27
-10 31 -9 45 13 10 15 14 35 11 52 -3 15 -10 39 -16 55 -6 15 -22 32 -36 39
-22 10 -29 7 -65 -28 -23 -21 -53 -59 -67 -84 -15 -25 -31 -51 -36 -57 -7 -10
-14 -7 -28 11 -11 13 -19 29 -19 36 0 6 11 36 25 66 14 30 25 57 25 61 0 4 -7
14 -16 24 -15 16 -14 20 10 52 14 19 26 37 26 40 0 4 -10 7 -23 7z"/>
<path d="M271 70 c-5 0 -19 -16 -30 -36 -22 -36 -22 -36 6 -30 15 4 35 7 43 7
8 0 31 -3 50 -6 35 -6 35 -6 10 14 -14 11 -32 21 -41 21 -9 0 -19 7 -23 15 -3
8 -10 15 -15 15z"/>
</g>
</svg>
