<?xml version="1.0" standalone="no"?>
<!DOCTYPE svg PUBLIC "-//W3C//DTD SVG 20010904//EN"
 "http://www.w3.org/TR/2001/REC-SVG-20010904/DTD/svg10.dtd">
<svg version="1.0" xmlns="http://www.w3.org/2000/svg"
 width="56.000000pt" height="56.000000pt" viewBox="0 0 56.000000 56.000000"
 preserveAspectRatio="xMidYMid meet">
<metadata>
Created by potrace 1.16, written by Peter Selinger 2001-2019
</metadata>
<g transform="translate(0.000000,56.000000) scale(0.100000,-0.100000)"
fill="#000000" stroke="none">
<path d="M257 560 c-4 0 -12 -12 -18 -26 -7 -20 -6 -32 6 -50 15 -23 14 -25
-10 -34 -15 -6 -40 -10 -56 -10 -17 0 -29 -5 -29 -13 0 -7 16 -19 35 -26 19
-7 49 -9 69 -6 33 7 36 5 55 -34 12 -22 21 -45 21 -50 0 -5 -17 -11 -37 -13
-26 -2 -38 -8 -38 -18 0 -11 15 -16 54 -20 55 -5 55 -5 67 -60 7 -30 11 -57 9
-58 -2 -2 -21 2 -42 9 -21 8 -60 26 -86 41 -29 17 -63 28 -86 28 -27 0 -44 -7
-60 -24 -21 -23 -22 -27 -10 -61 8 -21 35 -59 62 -86 26 -27 55 -49 63 -49 8
0 17 7 20 15 4 8 4 25 0 38 -3 12 -19 30 -36 40 -16 10 -37 32 -46 49 -8 16
-13 32 -10 35 2 3 36 -4 73 -16 38 -12 85 -33 105 -46 21 -14 44 -25 52 -25 9
0 29 12 46 28 29 25 30 29 19 62 -6 19 -19 52 -29 72 -18 37 -18 37 11 70 15
18 28 43 29 56 0 13 -6 22 -15 22 -8 0 -25 -16 -37 -35 -13 -19 -26 -35 -30
-35 -3 0 -14 14 -22 32 -9 17 -16 35 -16 39 0 5 14 16 31 25 17 9 27 19 23 24
-5 5 -27 10 -49 12 -33 2 -41 7 -45 28 -3 14 -12 35 -20 48 -8 12 -18 22 -23
22z"/>
</g>
</svg>
