<?xml version="1.0" standalone="no"?>
<!DOCTYPE svg PUBLIC "-//W3C//DTD SVG 20010904//EN"
 "http://www.w3.org/TR/2001/REC-SVG-20010904/DTD/svg10.dtd">
<svg version="1.0" xmlns="http://www.w3.org/2000/svg"
 width="56.000000pt" height="56.000000pt" viewBox="0 0 56.000000 56.000000"
 preserveAspectRatio="xMidYMid meet">
<metadata>
Created by potrace 1.16, written by Peter Selinger 2001-2019
</metadata>
<g transform="translate(0.000000,56.000000) scale(0.100000,-0.100000)"
fill="#000000" stroke="none">
<path d="M258 560 c-10 0 -18 -4 -18 -10 0 -5 -14 -10 -30 -10 -17 0 -45 -7
-62 -16 -21 -11 -27 -19 -20 -26 6 -6 30 -8 54 -5 23 3 59 9 78 12 19 4 42 9
50 11 12 4 9 10 -10 24 -14 11 -33 20 -42 20z"/>
<path d="M341 480 c-6 0 -14 -13 -17 -29 -4 -20 -13 -31 -27 -33 -11 -2 -22
-7 -24 -13 -1 -5 2 -17 7 -25 8 -12 13 -13 29 -3 17 11 21 8 36 -30 9 -23 30
-59 47 -80 17 -22 27 -42 22 -47 -5 -5 -46 -12 -92 -16 -45 -4 -85 -11 -88
-16 -3 -5 -3 -12 1 -16 4 -4 61 -10 128 -13 74 -4 127 -2 135 4 6 5 12 19 12
31 0 13 -11 33 -24 45 -14 13 -36 47 -50 76 -14 28 -26 57 -26 63 0 6 12 19
26 29 26 19 26 19 -28 46 -30 15 -60 27 -67 27z"/>
<path d="M186 398 c-45 0 -68 -4 -77 -14 -10 -12 -9 -18 3 -30 12 -12 28 -14
71 -9 31 4 61 13 68 21 6 7 8 17 5 22 -3 6 -35 10 -70 10z"/>
<path d="M151 200 c-32 0 -60 -3 -64 -6 -3 -3 -3 -12 0 -20 3 -10 22 -14 57
-14 28 0 57 4 65 9 7 5 10 14 7 20 -4 6 -33 11 -65 11z"/>
<path d="M71 154 c-5 3 -16 -5 -25 -19 -9 -13 -16 -35 -16 -48 0 -13 8 -31 18
-40 14 -13 47 -18 133 -23 63 -3 138 -10 168 -15 30 -5 72 -9 94 -9 35 0 38 2
27 16 -8 8 -23 20 -34 26 -12 7 -85 15 -162 18 -110 5 -147 10 -168 23 -16 11
-26 27 -26 42 0 13 -4 26 -9 29z"/>
</g>
</svg>
