<?xml version="1.0" standalone="no"?>
<!DOCTYPE svg PUBLIC "-//W3C//DTD SVG 20010904//EN"
 "http://www.w3.org/TR/2001/REC-SVG-20010904/DTD/svg10.dtd">
<svg version="1.0" xmlns="http://www.w3.org/2000/svg"
 width="56.000000pt" height="56.000000pt" viewBox="0 0 56.000000 56.000000"
 preserveAspectRatio="xMidYMid meet">
<metadata>
Created by potrace 1.16, written by Peter Selinger 2001-2019
</metadata>
<g transform="translate(0.000000,56.000000) scale(0.100000,-0.100000)"
fill="#000000" stroke="none">
<path d="M99 560 c-22 0 -29 -5 -29 -19 0 -10 9 -39 20 -64 20 -45 20 -45 -14
-97 -20 -30 -32 -59 -29 -70 3 -10 20 -29 39 -42 19 -13 37 -33 40 -46 5 -16
-5 -38 -31 -77 -22 -32 -35 -60 -32 -69 5 -11 0 -16 -13 -16 -11 0 -23 -8 -28
-17 -5 -10 -7 -24 -5 -30 3 -7 19 -13 37 -13 18 0 37 5 44 12 7 7 12 20 12 30
0 9 11 29 24 44 13 14 31 35 41 46 9 11 33 45 54 76 21 31 61 97 90 145 29 48
50 94 47 102 -3 9 0 15 9 15 8 0 21 -10 29 -22 8 -13 16 -39 18 -58 2 -28 -1
-35 -17 -38 -11 -2 -32 -8 -46 -13 -15 -6 -33 -25 -42 -42 -8 -18 -22 -54 -31
-82 -9 -27 -16 -57 -16 -66 0 -9 9 -24 21 -35 12 -11 58 -27 108 -37 47 -10
97 -19 111 -20 15 -1 26 4 28 14 1 9 -6 26 -16 39 -14 17 -34 25 -82 32 -35 4
-74 15 -87 23 -22 15 -22 16 -6 58 9 23 23 48 31 55 9 6 35 12 58 12 24 0 47
6 53 14 9 11 9 20 2 35 -6 11 -11 31 -11 45 0 14 -5 28 -10 31 -6 4 -8 14 -6
23 3 10 -3 32 -14 50 -11 17 -28 32 -37 32 -10 0 -28 3 -40 6 -20 5 -23 2 -23
-21 0 -15 -10 -41 -22 -58 -13 -18 -35 -54 -49 -82 -14 -27 -36 -69 -48 -92
-12 -23 -28 -47 -36 -53 -10 -9 -15 -6 -20 12 -3 13 -10 32 -14 43 -5 11 -13
31 -18 45 -8 20 -5 37 13 79 13 29 24 61 24 71 0 9 -9 25 -20 35 -11 10 -22
26 -25 36 -4 13 -16 19 -36 19z"/>
</g>
</svg>
