<?xml version="1.0" standalone="no"?>
<!DOCTYPE svg PUBLIC "-//W3C//DTD SVG 20010904//EN"
 "http://www.w3.org/TR/2001/REC-SVG-20010904/DTD/svg10.dtd">
<svg version="1.0" xmlns="http://www.w3.org/2000/svg"
 width="56.000000pt" height="56.000000pt" viewBox="0 0 56.000000 56.000000"
 preserveAspectRatio="xMidYMid meet">
<metadata>
Created by potrace 1.16, written by Peter Selinger 2001-2019
</metadata>
<g transform="translate(0.000000,56.000000) scale(0.100000,-0.100000)"
fill="#000000" stroke="none">
<path d="M301 560 c-26 0 -31 -4 -31 -25 0 -18 5 -25 20 -25 11 0 20 -4 20 -8
0 -5 -8 -17 -17 -28 -10 -10 -28 -39 -40 -62 -13 -24 -23 -59 -23 -76 0 -20 8
-40 19 -50 15 -14 24 -15 40 -7 11 6 22 11 25 11 2 0 11 -12 18 -27 8 -16 19
-37 25 -48 6 -11 17 -32 24 -48 8 -17 9 -31 3 -37 -5 -5 -28 -10 -52 -12 -23
-2 -43 -7 -45 -13 -1 -5 15 -14 36 -19 23 -6 48 -6 65 0 23 8 27 16 30 53 2
24 -2 49 -7 54 -6 6 -11 21 -11 34 0 13 -7 26 -16 30 -8 3 -20 17 -25 30 -6
15 -5 31 1 43 5 10 7 26 4 34 -3 9 -12 16 -20 16 -7 0 -21 -11 -30 -25 -9 -14
-19 -25 -23 -25 -3 0 -12 4 -20 9 -13 8 -11 17 9 58 14 26 37 64 52 83 15 19
28 38 28 43 0 5 -6 15 -14 23 -8 8 -28 14 -45 14z"/>
<path d="M181 180 c-10 0 -25 -8 -34 -18 -10 -10 -17 -30 -17 -45 0 -18 14
-41 45 -72 39 -38 51 -45 85 -45 22 0 40 4 40 8 0 5 -12 15 -27 22 -16 8 -43
25 -60 38 -19 13 -33 32 -33 44 0 18 4 20 41 14 26 -4 38 -3 34 4 -3 5 -12 10
-18 10 -7 0 -18 9 -25 20 -7 11 -20 20 -31 20z"/>
</g>
</svg>
