<?xml version="1.0" standalone="no"?>
<!DOCTYPE svg PUBLIC "-//W3C//DTD SVG 20010904//EN"
 "http://www.w3.org/TR/2001/REC-SVG-20010904/DTD/svg10.dtd">
<svg version="1.0" xmlns="http://www.w3.org/2000/svg"
 width="56.000000pt" height="56.000000pt" viewBox="0 0 56.000000 56.000000"
 preserveAspectRatio="xMidYMid meet">
<metadata>
Created by potrace 1.16, written by Peter Selinger 2001-2019
</metadata>
<g transform="translate(0.000000,56.000000) scale(0.100000,-0.100000)"
fill="#000000" stroke="none">
<path d="M263 560 c-29 0 -53 -4 -53 -9 0 -5 12 -19 26 -30 21 -16 23 -23 15
-40 -6 -11 -17 -25 -23 -33 -7 -7 -19 -26 -27 -43 -7 -16 -17 -38 -22 -47 -5
-10 -9 -24 -9 -33 0 -8 11 -22 25 -31 18 -12 36 -15 68 -10 43 7 43 7 64 -41
11 -26 23 -57 26 -68 2 -11 8 -28 12 -37 5 -13 2 -18 -10 -18 -9 0 -45 14 -80
31 -37 18 -75 29 -91 27 -21 -2 -30 -10 -35 -32 -5 -16 -5 -42 -2 -58 3 -16
18 -42 33 -58 21 -22 37 -30 62 -30 33 1 33 1 -3 33 -19 18 -41 45 -47 60 -7
15 -12 34 -12 42 0 8 8 15 18 15 10 0 22 -4 27 -9 6 -5 27 -18 48 -30 20 -11
56 -24 78 -27 30 -5 43 -3 50 7 5 8 6 28 3 44 -3 17 -10 44 -16 60 -5 17 -14
39 -18 50 -4 11 -13 33 -19 49 -8 20 -8 32 -1 41 6 7 8 19 5 28 -4 8 -17 17
-30 20 -19 3 -26 -1 -31 -17 -4 -12 -12 -24 -18 -28 -6 -4 -21 -8 -33 -8 -12
0 -25 5 -28 10 -4 6 5 34 20 63 14 28 31 59 38 68 7 8 24 23 39 33 23 15 25
20 15 37 -9 15 -23 19 -64 19z"/>
</g>
</svg>
