<?xml version="1.0" standalone="no"?>
<!DOCTYPE svg PUBLIC "-//W3C//DTD SVG 20010904//EN"
 "http://www.w3.org/TR/2001/REC-SVG-20010904/DTD/svg10.dtd">
<svg version="1.0" xmlns="http://www.w3.org/2000/svg"
 width="56.000000pt" height="56.000000pt" viewBox="0 0 56.000000 56.000000"
 preserveAspectRatio="xMidYMid meet">
<metadata>
Created by potrace 1.16, written by Peter Selinger 2001-2019
</metadata>
<g transform="translate(0.000000,56.000000) scale(0.100000,-0.100000)"
fill="#000000" stroke="none">
<path d="M207 560 c-7 0 -18 -9 -25 -21 -10 -16 -10 -27 -1 -53 7 -18 20 -38
30 -44 12 -8 24 -8 43 1 14 7 26 20 26 30 0 10 -13 26 -30 35 -16 9 -30 25
-30 35 0 9 -6 17 -13 17z"/>
<path d="M242 369 c-4 0 -18 -5 -32 -10 -25 -10 -25 -10 0 -29 14 -11 34 -20
44 -22 11 -2 27 -16 36 -33 10 -16 27 -47 39 -68 11 -21 21 -40 21 -42 0 -3
-13 -5 -30 -5 -18 0 -30 -5 -30 -13 0 -7 12 -23 26 -36 14 -12 33 -21 42 -19
12 2 18 15 20 46 2 24 -3 56 -10 73 -7 16 -16 29 -20 29 -5 0 -8 6 -8 13 0 7
-9 23 -20 35 -11 12 -20 30 -20 42 0 13 -10 24 -26 30 -14 6 -28 10 -32 9z"/>
<path d="M199 101 c-8 11 -17 17 -22 13 -4 -4 -7 -17 -7 -29 0 -12 8 -29 18
-38 10 -10 26 -17 35 -17 9 0 32 -8 52 -17 19 -9 38 -13 42 -9 5 4 -10 23 -31
42 -22 19 -47 34 -56 34 -10 0 -24 9 -31 21z"/>
</g>
</svg>
