<?xml version="1.0" standalone="no"?>
<!DOCTYPE svg PUBLIC "-//W3C//DTD SVG 20010904//EN"
 "http://www.w3.org/TR/2001/REC-SVG-20010904/DTD/svg10.dtd">
<svg version="1.0" xmlns="http://www.w3.org/2000/svg"
 width="56.000000pt" height="56.000000pt" viewBox="0 0 56.000000 56.000000"
 preserveAspectRatio="xMidYMid meet">
<metadata>
Created by potrace 1.16, written by Peter Selinger 2001-2019
</metadata>
<g transform="translate(0.000000,56.000000) scale(0.100000,-0.100000)"
fill="#000000" stroke="none">
<path d="M275 560 c-25 0 -45 -3 -45 -7 0 -4 9 -16 20 -28 19 -20 19 -21 -22
-102 -24 -49 -38 -89 -34 -98 5 -13 16 -16 51 -13 25 2 45 3 45 3 0 0 11 -31
25 -69 14 -38 25 -73 25 -77 0 -5 -12 -9 -28 -9 -15 0 -42 4 -61 10 -26 7 -38
6 -57 -8 -19 -13 -23 -25 -22 -52 3 -29 11 -40 57 -72 32 -22 66 -38 83 -38
15 0 28 4 28 8 0 5 -10 18 -23 30 -13 12 -28 22 -33 22 -5 0 -26 14 -47 31
-20 17 -37 37 -37 45 0 8 10 14 26 14 14 0 33 -4 42 -9 9 -5 38 -12 64 -16 45
-7 47 -6 53 18 4 15 0 41 -10 64 -9 21 -22 48 -28 60 -5 13 -11 44 -11 70 -1
35 -5 49 -17 51 -8 1 -26 -7 -39 -18 -14 -12 -27 -17 -33 -11 -5 5 0 26 13 52
13 24 31 56 41 71 11 14 19 38 19 52 0 24 -3 26 -45 26z"/>
</g>
</svg>
