<?xml version="1.0" standalone="no"?>
<!DOCTYPE svg PUBLIC "-//W3C//DTD SVG 20010904//EN"
 "http://www.w3.org/TR/2001/REC-SVG-20010904/DTD/svg10.dtd">
<svg version="1.0" xmlns="http://www.w3.org/2000/svg"
 width="56.000000pt" height="56.000000pt" viewBox="0 0 56.000000 56.000000"
 preserveAspectRatio="xMidYMid meet">
<metadata>
Created by potrace 1.16, written by Peter Selinger 2001-2019
</metadata>
<g transform="translate(0.000000,56.000000) scale(0.100000,-0.100000)"
fill="#000000" stroke="none">
<path d="M243 559 c-20 -1 -40 -14 -68 -46 -22 -25 -46 -54 -54 -65 -10 -14
-11 -26 -3 -42 7 -17 5 -31 -9 -61 -11 -21 -19 -47 -19 -57 0 -10 6 -29 14
-41 8 -12 17 -31 20 -43 4 -14 -6 -36 -34 -74 -30 -41 -40 -63 -40 -92 0 -27
4 -38 15 -38 9 0 28 20 43 44 15 24 45 74 67 110 22 37 69 110 104 164 35 53
73 105 85 114 15 12 24 14 33 6 7 -6 13 -28 13 -48 0 -21 -3 -45 -6 -54 -3 -9
-12 -16 -19 -16 -7 0 -27 -13 -44 -29 -26 -24 -31 -36 -31 -76 0 -25 5 -55 10
-66 6 -10 24 -26 40 -34 22 -11 44 -13 85 -9 30 4 55 11 55 17 0 5 -12 20 -27
33 -16 13 -31 24 -35 24 -4 0 -18 -4 -32 -10 -19 -7 -29 -5 -41 7 -9 8 -14 22
-11 30 3 8 6 25 6 38 0 18 7 25 38 32 28 6 41 17 54 43 10 19 18 55 18 80 0
25 -7 56 -16 68 -10 14 -26 22 -44 22 -16 0 -35 -6 -42 -14 -7 -7 -29 -33 -49
-57 -20 -24 -59 -73 -85 -108 -27 -36 -54 -66 -61 -68 -6 -3 -19 7 -28 21 -16
24 -16 28 9 72 14 26 26 59 26 74 0 15 11 39 24 53 13 14 33 39 45 55 11 17
21 33 21 36 0 3 -12 6 -27 5z"/>
<path d="M275 70 c-6 0 -15 -3 -18 -7 -4 -3 -7 -19 -7 -35 0 -23 4 -28 24 -28
16 0 27 7 31 20 4 12 1 27 -5 35 -7 8 -18 15 -25 15z"/>
</g>
</svg>
