<?xml version="1.0" standalone="no"?>
<!DOCTYPE svg PUBLIC "-//W3C//DTD SVG 20010904//EN"
 "http://www.w3.org/TR/2001/REC-SVG-20010904/DTD/svg10.dtd">
<svg version="1.0" xmlns="http://www.w3.org/2000/svg"
 width="56.000000pt" height="56.000000pt" viewBox="0 0 56.000000 56.000000"
 preserveAspectRatio="xMidYMid meet">
<metadata>
Created by potrace 1.16, written by Peter Selinger 2001-2019
</metadata>
<g transform="translate(0.000000,56.000000) scale(0.100000,-0.100000)"
fill="#000000" stroke="none">
<path d="M308 559 c-13 -1 -34 -7 -48 -15 -14 -7 -29 -15 -33 -17 -5 -1 -5
-10 -2 -20 4 -9 16 -17 27 -17 10 0 32 7 48 15 18 9 30 24 30 35 0 14 -6 20
-22 19z"/>
<path d="M328 364 c-7 3 -19 2 -25 -1 -7 -2 -13 -17 -13 -32 0 -20 -7 -31 -24
-39 -17 -7 -27 -7 -35 1 -8 8 -14 8 -22 0 -8 -8 -8 -17 0 -32 7 -12 17 -21 24
-21 7 0 25 7 42 16 27 14 30 14 42 -2 7 -10 13 -27 13 -39 0 -12 6 -27 13 -34
10 -10 8 -15 -7 -27 -11 -8 -37 -14 -58 -14 -22 0 -53 -7 -70 -16 -22 -12 -27
-19 -19 -27 8 -8 20 -8 44 1 18 7 56 12 83 12 28 0 59 6 69 14 17 12 18 16 3
47 -9 19 -19 45 -23 59 -3 14 -11 35 -17 48 -9 17 -9 25 0 34 7 7 12 20 12 30
0 10 -4 18 -9 18 -5 0 -15 2 -23 4z"/>
<path d="M179 71 c-15 7 -21 6 -25 -5 -3 -8 -1 -24 6 -35 9 -18 20 -21 68 -21
31 0 75 -3 97 -6 40 -6 40 -6 14 19 -19 17 -44 26 -84 31 -31 3 -66 11 -76 17z"/>
</g>
</svg>
