<?xml version="1.0" standalone="no"?>
<!DOCTYPE svg PUBLIC "-//W3C//DTD SVG 20010904//EN"
 "http://www.w3.org/TR/2001/REC-SVG-20010904/DTD/svg10.dtd">
<svg version="1.0" xmlns="http://www.w3.org/2000/svg"
 width="56.000000pt" height="56.000000pt" viewBox="0 0 56.000000 56.000000"
 preserveAspectRatio="xMidYMid meet">
<metadata>
Created by potrace 1.16, written by Peter Selinger 2001-2019
</metadata>
<g transform="translate(0.000000,56.000000) scale(0.100000,-0.100000)"
fill="#000000" stroke="none">
<path d="M213 560 c-30 0 -34 -3 -28 -17 5 -10 10 -33 13 -52 4 -29 -1 -38
-39 -73 -24 -22 -53 -43 -64 -48 -18 -8 -17 -9 7 -9 15 -1 30 -6 33 -12 4 -5
18 -14 31 -19 14 -6 27 -17 31 -25 3 -9 -4 -26 -17 -40 -13 -14 -20 -31 -17
-39 4 -9 18 -16 32 -16 15 0 49 7 76 16 50 17 50 17 80 -12 16 -15 29 -36 29
-45 0 -13 -11 -20 -37 -24 -21 -4 -45 -7 -53 -8 -8 -1 -15 -11 -15 -22 0 -16
6 -19 30 -17 17 2 59 6 94 10 44 5 67 12 75 24 8 13 6 24 -10 45 -11 15 -26
38 -33 50 -10 20 -8 24 19 38 17 9 30 22 27 28 -2 7 -26 14 -53 17 -49 5 -49
5 -86 75 -21 39 -38 78 -38 87 0 9 16 30 35 45 19 15 35 31 35 36 0 4 -13 7
-29 7 -16 0 -31 -6 -35 -15 -3 -8 -15 -15 -26 -15 -11 0 -23 7 -26 15 -4 9
-19 15 -41 15z m27 -140 c19 0 30 -5 30 -14 0 -7 -6 -18 -12 -24 -7 -5 -24 -9
-38 -7 -14 1 -26 3 -28 4 -1 0 2 10 8 21 7 13 21 20 40 20z m45 -70 c9 0 18
-7 21 -15 4 -8 3 -26 0 -39 -3 -13 -16 -26 -28 -29 -13 -4 -27 -2 -32 3 -6 6
-4 23 7 45 9 19 24 35 32 35z"/>
<path d="M222 120 c-15 0 -38 -7 -50 -16 -17 -12 -22 -25 -22 -60 0 -44 0 -44
145 -44 137 0 145 1 145 19 0 11 -4 22 -8 25 -5 3 -52 0 -105 -6 -76 -8 -100
-8 -112 2 -8 7 -15 19 -15 27 0 8 13 19 30 24 16 6 27 15 24 20 -3 5 -17 9
-32 9z"/>
</g>
</svg>
