<?xml version="1.0" standalone="no"?>
<!DOCTYPE svg PUBLIC "-//W3C//DTD SVG 20010904//EN"
 "http://www.w3.org/TR/2001/REC-SVG-20010904/DTD/svg10.dtd">
<svg version="1.0" xmlns="http://www.w3.org/2000/svg"
 width="56.000000pt" height="56.000000pt" viewBox="0 0 56.000000 56.000000"
 preserveAspectRatio="xMidYMid meet">
<metadata>
Created by potrace 1.16, written by Peter Selinger 2001-2019
</metadata>
<g transform="translate(0.000000,56.000000) scale(0.100000,-0.100000)"
fill="#000000" stroke="none">
<path d="M206 560 c-25 0 -36 -4 -36 -15 0 -8 -7 -15 -16 -15 -9 0 -38 -10
-63 -22 -25 -12 -54 -29 -63 -37 -10 -8 -18 -22 -18 -32 0 -10 15 -29 33 -43
28 -23 31 -28 20 -46 -7 -11 -13 -30 -13 -43 0 -13 8 -31 18 -40 10 -10 23
-17 29 -17 6 0 14 -7 17 -16 3 -9 -3 -32 -15 -50 -11 -19 -37 -53 -58 -75 -20
-23 -36 -45 -35 -50 1 -5 2 -16 2 -24 1 -8 11 -15 21 -15 11 0 36 19 55 44 20
23 36 46 36 50 0 4 22 39 49 79 27 40 83 105 124 145 56 54 81 72 102 72 15 0
34 -8 41 -17 7 -10 14 -34 14 -54 0 -24 -7 -42 -21 -55 -11 -10 -39 -24 -62
-29 -31 -8 -44 -18 -51 -37 -7 -19 -5 -40 4 -70 7 -24 17 -47 22 -53 5 -5 25
-14 45 -20 20 -6 38 -16 40 -22 3 -7 -11 -20 -29 -30 -33 -18 -33 -18 0 -21
22 -2 49 6 87 28 30 17 55 38 55 46 0 7 -11 21 -25 30 -19 12 -37 15 -70 11
-40 -6 -47 -4 -61 18 -8 13 -14 36 -12 52 2 21 10 30 35 38 18 6 46 21 63 33
24 18 30 30 30 61 0 21 -7 54 -15 73 -8 19 -25 42 -39 52 -14 9 -32 16 -41 16
-8 0 -32 -11 -53 -25 -21 -14 -66 -56 -101 -95 -34 -38 -70 -70 -80 -70 -10 0
-24 7 -31 15 -7 8 -23 15 -37 15 -18 0 -23 4 -20 18 3 9 8 29 11 45 5 20 12
27 31 27 13 0 26 4 29 9 3 4 -6 19 -19 31 -14 13 -25 29 -25 35 0 6 15 22 33
36 17 13 45 26 61 29 16 3 31 11 34 18 2 8 -8 12 -32 12z"/>
</g>
</svg>
