<?xml version="1.0" standalone="no"?>
<!DOCTYPE svg PUBLIC "-//W3C//DTD SVG 20010904//EN"
 "http://www.w3.org/TR/2001/REC-SVG-20010904/DTD/svg10.dtd">
<svg version="1.0" xmlns="http://www.w3.org/2000/svg"
 width="56.000000pt" height="56.000000pt" viewBox="0 0 56.000000 56.000000"
 preserveAspectRatio="xMidYMid meet">
<metadata>
Created by potrace 1.16, written by Peter Selinger 2001-2019
</metadata>
<g transform="translate(0.000000,56.000000) scale(0.100000,-0.100000)"
fill="#000000" stroke="none">
<path d="M190 560 c-9 0 -22 -12 -29 -26 -10 -23 -9 -28 7 -40 12 -8 22 -32
27 -61 4 -27 11 -56 17 -67 7 -12 6 -22 -1 -29 -8 -8 -11 -5 -11 10 0 14 -9
24 -30 32 -28 9 -30 8 -30 -13 0 -13 7 -29 15 -36 11 -9 14 -22 9 -46 -5 -30
-4 -34 14 -34 12 0 24 5 27 10 3 6 12 10 19 10 8 0 16 -11 18 -24 3 -14 0 -30
-5 -35 -6 -6 -21 -11 -32 -11 -12 0 -29 -8 -38 -18 -10 -10 -17 -26 -17 -35 0
-10 8 -17 18 -17 9 0 26 7 36 15 11 8 23 15 27 15 4 0 10 -11 13 -25 4 -15 0
-37 -8 -54 -9 -16 -23 -31 -31 -35 -9 -3 -25 -6 -36 -6 -12 0 -19 -7 -19 -20
0 -16 7 -20 32 -20 21 0 41 9 59 26 27 26 27 26 39 4 6 -11 16 -20 22 -18 6 2
13 40 15 86 2 45 0 90 -5 99 -8 13 -11 11 -17 -15 -3 -18 -11 -32 -16 -32 -5
0 -9 9 -9 20 0 11 16 50 36 87 19 38 40 72 45 78 5 5 21 9 37 10 17 0 27 5 27
15 0 8 -10 16 -22 18 -12 2 -33 -4 -47 -13 -14 -10 -33 -14 -42 -11 -15 6 -15
8 1 26 9 10 14 24 10 29 -3 6 -11 11 -17 11 -7 0 -22 -10 -35 -22 -23 -21 -23
-21 -23 3 0 13 -7 54 -16 92 -13 50 -21 67 -34 67z m95 -250 c8 0 15 -4 15 -8
0 -5 -8 -16 -18 -25 -10 -10 -21 -14 -25 -11 -3 4 -2 15 4 25 5 11 16 19 24
19z"/>
</g>
</svg>
