<?xml version="1.0" standalone="no"?>
<!DOCTYPE svg PUBLIC "-//W3C//DTD SVG 20010904//EN"
 "http://www.w3.org/TR/2001/REC-SVG-20010904/DTD/svg10.dtd">
<svg version="1.0" xmlns="http://www.w3.org/2000/svg"
 width="56.000000pt" height="56.000000pt" viewBox="0 0 56.000000 56.000000"
 preserveAspectRatio="xMidYMid meet">
<metadata>
Created by potrace 1.16, written by Peter Selinger 2001-2019
</metadata>
<g transform="translate(0.000000,56.000000) scale(0.100000,-0.100000)"
fill="#000000" stroke="none">
<path d="M190 560 c-14 0 -20 -7 -20 -22 0 -13 9 -34 20 -48 11 -14 20 -31 20
-38 0 -8 -9 -27 -21 -43 -11 -16 -19 -39 -17 -52 3 -19 9 -22 55 -23 42 -1 57
-6 73 -25 11 -13 19 -33 17 -43 -1 -12 -14 -23 -32 -29 -16 -5 -54 -10 -84
-12 -30 -2 -59 -9 -64 -14 -7 -7 -5 -26 3 -58 10 -33 29 -63 65 -100 37 -38
59 -53 78 -53 18 0 27 5 27 15 0 9 -19 35 -43 59 -23 24 -49 55 -56 70 -8 14
-11 29 -7 33 3 4 22 7 41 6 19 -1 58 -9 86 -19 51 -18 51 -18 70 6 10 14 19
32 19 41 0 9 -7 23 -16 30 -9 8 -25 33 -36 58 -17 41 -17 44 -1 56 15 11 15
17 5 39 -6 14 -18 26 -26 26 -8 0 -28 -8 -45 -17 -16 -10 -33 -15 -37 -11 -3
4 -4 13 0 20 3 7 13 23 22 35 16 22 15 24 -30 68 -26 25 -56 45 -66 45z"/>
</g>
</svg>
