<?xml version="1.0" standalone="no"?>
<!DOCTYPE svg PUBLIC "-//W3C//DTD SVG 20010904//EN"
 "http://www.w3.org/TR/2001/REC-SVG-20010904/DTD/svg10.dtd">
<svg version="1.0" xmlns="http://www.w3.org/2000/svg"
 width="56.000000pt" height="56.000000pt" viewBox="0 0 56.000000 56.000000"
 preserveAspectRatio="xMidYMid meet">
<metadata>
Created by potrace 1.16, written by Peter Selinger 2001-2019
</metadata>
<g transform="translate(0.000000,56.000000) scale(0.100000,-0.100000)"
fill="#000000" stroke="none">
<path d="M260 560 c-11 0 -20 -4 -20 -10 0 -5 -11 -20 -23 -32 -13 -13 -27
-36 -30 -50 -4 -15 -4 -34 -1 -42 3 -9 15 -16 25 -16 10 0 19 -4 19 -10 0 -5
4 -10 9 -10 6 0 30 14 55 31 26 17 46 34 46 39 0 5 -11 17 -24 25 -23 15 -27
15 -51 -1 -16 -11 -30 -13 -36 -7 -6 6 2 20 21 38 16 16 30 32 30 37 0 4 -9 8
-20 8z"/>
<path d="M328 358 c-19 2 -30 -3 -38 -17 -6 -12 -25 -28 -42 -37 -20 -10 -42
-14 -65 -9 -34 6 -34 6 -31 -32 3 -36 5 -38 35 -37 17 1 45 11 61 23 17 12 37
21 45 21 8 0 24 -15 36 -32 19 -31 19 -34 4 -45 -9 -7 -25 -13 -35 -13 -10 0
-30 -7 -44 -16 -14 -9 -30 -26 -35 -36 -8 -14 -7 -29 2 -51 7 -18 21 -42 32
-54 13 -15 32 -23 53 -23 17 0 42 9 55 19 23 19 24 19 5 40 -11 12 -27 21 -37
21 -10 0 -30 5 -44 12 -16 7 -25 19 -25 34 0 18 7 24 33 29 17 3 50 4 72 3 31
-2 40 1 43 15 2 10 -8 36 -22 57 -14 22 -26 56 -28 81 -3 39 -6 44 -30 47z"/>
</g>
</svg>
