<?xml version="1.0" standalone="no"?>
<!DOCTYPE svg PUBLIC "-//W3C//DTD SVG 20010904//EN"
 "http://www.w3.org/TR/2001/REC-SVG-20010904/DTD/svg10.dtd">
<svg version="1.0" xmlns="http://www.w3.org/2000/svg"
 width="56.000000pt" height="56.000000pt" viewBox="0 0 56.000000 56.000000"
 preserveAspectRatio="xMidYMid meet">
<metadata>
Created by potrace 1.16, written by Peter Selinger 2001-2019
</metadata>
<g transform="translate(0.000000,56.000000) scale(0.100000,-0.100000)"
fill="#000000" stroke="none">
<path d="M174 468 c-17 2 -33 0 -37 -4 -4 -4 -7 -17 -7 -29 0 -18 -7 -24 -40
-29 -22 -3 -52 -3 -65 0 -15 4 -25 2 -25 -5 0 -6 9 -20 21 -32 16 -16 28 -19
62 -15 38 5 44 3 66 -24 16 -22 21 -38 17 -55 -3 -13 -31 -49 -62 -79 -48 -47
-55 -58 -52 -87 2 -25 8 -35 23 -36 14 -2 33 14 65 58 25 33 50 68 55 76 6 8
24 29 40 47 17 18 49 56 73 84 24 29 48 52 53 52 6 0 19 -10 30 -22 10 -13 18
-26 19 -30 0 -4 -25 -26 -55 -48 -30 -22 -61 -53 -68 -68 -8 -15 -11 -38 -8
-52 5 -18 19 -29 56 -42 30 -11 78 -18 122 -18 39 0 78 3 87 6 9 3 16 15 16
25 0 15 -7 19 -32 19 -18 0 -63 2 -99 4 -37 2 -72 7 -78 10 -6 4 -11 17 -11
29 0 12 4 27 8 32 4 6 20 18 35 28 15 10 31 16 36 13 5 -3 16 3 26 14 16 17
16 24 4 66 -8 25 -25 55 -38 65 -13 11 -36 19 -51 19 -20 0 -40 -16 -85 -66
-58 -66 -58 -66 -78 -39 -11 14 -32 31 -46 37 -26 11 -26 11 8 18 18 5 41 15
49 24 13 13 14 20 6 34 -6 9 -24 18 -40 20z"/>
</g>
</svg>
