<?xml version="1.0" standalone="no"?>
<!DOCTYPE svg PUBLIC "-//W3C//DTD SVG 20010904//EN"
 "http://www.w3.org/TR/2001/REC-SVG-20010904/DTD/svg10.dtd">
<svg version="1.0" xmlns="http://www.w3.org/2000/svg"
 width="56.000000pt" height="56.000000pt" viewBox="0 0 56.000000 56.000000"
 preserveAspectRatio="xMidYMid meet">
<metadata>
Created by potrace 1.16, written by Peter Selinger 2001-2019
</metadata>
<g transform="translate(0.000000,56.000000) scale(0.100000,-0.100000)"
fill="#000000" stroke="none">
<path d="M218 560 c-15 0 -27 -10 -35 -27 -7 -15 -13 -37 -13 -48 0 -12 -3
-25 -7 -29 -4 -3 -13 -23 -20 -44 -7 -20 -13 -47 -13 -60 0 -15 8 -26 25 -32
14 -5 28 -17 31 -25 4 -8 -1 -34 -11 -58 -9 -23 -24 -58 -33 -77 -9 -19 -24
-42 -34 -52 -11 -9 -21 -31 -24 -50 -4 -23 -1 -38 9 -46 12 -11 20 -6 44 25
16 21 48 65 70 98 22 33 54 83 71 110 32 50 32 50 32 -21 0 -56 4 -74 20 -92
11 -11 37 -26 57 -31 21 -6 48 -11 61 -11 15 0 22 6 22 18 0 11 -8 26 -18 35
-10 10 -33 17 -52 17 -19 0 -38 7 -46 18 -7 9 -14 34 -14 54 0 32 3 37 27 40
21 2 32 14 51 51 22 45 23 51 9 85 -11 27 -21 38 -40 40 -17 2 -33 -4 -46 -20
-11 -13 -40 -63 -65 -111 -25 -48 -53 -96 -63 -105 -16 -16 -16 -16 -9 8 5 14
11 44 13 66 4 34 1 45 -17 62 -17 16 -21 27 -16 47 4 15 18 50 31 78 14 28 25
59 25 69 0 12 -7 18 -22 18z m154 -150 c4 0 10 -9 13 -20 4 -11 4 -34 0 -50
-4 -16 -10 -32 -15 -35 -5 -3 -13 10 -20 29 -9 27 -8 39 2 55 7 12 16 21 20
21z"/>
<path d="M267 38 c-13 12 -27 19 -30 15 -4 -3 -7 -17 -7 -30 0 -19 5 -23 30
-23 17 0 30 4 30 8 0 5 -10 18 -23 30z"/>
</g>
</svg>
