<?xml version="1.0" standalone="no"?>
<!DOCTYPE svg PUBLIC "-//W3C//DTD SVG 20010904//EN"
 "http://www.w3.org/TR/2001/REC-SVG-20010904/DTD/svg10.dtd">
<svg version="1.0" xmlns="http://www.w3.org/2000/svg"
 width="56.000000pt" height="56.000000pt" viewBox="0 0 56.000000 56.000000"
 preserveAspectRatio="xMidYMid meet">
<metadata>
Created by potrace 1.16, written by Peter Selinger 2001-2019
</metadata>
<g transform="translate(0.000000,56.000000) scale(0.100000,-0.100000)"
fill="#000000" stroke="none">
<path d="M229 560 c-15 0 -29 -7 -33 -16 -3 -9 -6 -24 -6 -35 0 -10 4 -19 9
-19 6 0 13 5 16 10 3 6 10 10 15 10 5 0 18 -19 29 -42 12 -27 16 -47 10 -52
-5 -6 -25 -10 -44 -9 -19 1 -35 -3 -35 -8 0 -5 11 -15 25 -21 25 -11 25 -11 0
-36 -14 -14 -25 -32 -25 -42 0 -9 7 -31 15 -48 9 -17 30 -38 47 -47 17 -8 50
-15 74 -15 24 0 45 -4 48 -9 4 -5 2 -21 -4 -35 -5 -14 -16 -26 -24 -26 -9 0
-20 -9 -27 -21 -10 -20 -9 -21 23 -14 18 4 33 8 34 9 0 0 10 15 21 31 11 17
23 53 27 81 6 49 5 53 -24 78 -17 14 -42 51 -56 83 -13 32 -28 67 -33 78 -5
11 -19 41 -31 68 -19 39 -28 47 -51 47z m62 -190 c4 0 22 -29 38 -64 17 -35
31 -69 31 -75 0 -6 -7 -11 -15 -11 -8 0 -35 5 -59 12 -30 8 -48 19 -55 35 -6
13 -11 29 -11 34 0 6 14 24 31 40 17 16 35 29 40 29z"/>
<path d="M123 140 c-7 0 -13 -6 -13 -14 0 -8 5 -18 10 -21 6 -3 10 -14 10 -23
0 -9 14 -32 31 -49 21 -23 39 -33 60 -33 29 0 29 0 -28 70 -32 39 -63 70 -70
70z"/>
</g>
</svg>
