<?xml version="1.0" standalone="no"?>
<!DOCTYPE svg PUBLIC "-//W3C//DTD SVG 20010904//EN"
 "http://www.w3.org/TR/2001/REC-SVG-20010904/DTD/svg10.dtd">
<svg version="1.0" xmlns="http://www.w3.org/2000/svg"
 width="56.000000pt" height="56.000000pt" viewBox="0 0 56.000000 56.000000"
 preserveAspectRatio="xMidYMid meet">
<metadata>
Created by potrace 1.16, written by Peter Selinger 2001-2019
</metadata>
<g transform="translate(0.000000,56.000000) scale(0.100000,-0.100000)"
fill="#000000" stroke="none">
<path d="M247 560 c-4 0 -10 -7 -14 -16 -3 -8 0 -27 7 -42 7 -15 16 -35 21
-44 5 -10 9 -27 9 -39 0 -19 -4 -21 -37 -15 -21 3 -53 9 -70 12 -30 6 -33 4
-33 -19 0 -18 7 -27 25 -31 14 -4 48 -4 75 0 38 5 51 3 55 -7 2 -8 6 -25 7
-39 3 -23 0 -25 -31 -22 -19 1 -41 7 -48 13 -9 8 -14 7 -19 -5 -3 -9 -4 -23 0
-31 3 -10 19 -15 48 -15 24 0 48 -4 53 -8 6 -4 12 -21 13 -39 1 -17 -3 -35
-10 -39 -7 -4 -33 -12 -58 -16 -25 -5 -57 -11 -72 -15 -15 -3 -33 -12 -39 -19
-8 -10 -9 -24 -3 -46 6 -19 22 -39 39 -50 17 -9 60 -20 97 -24 58 -6 68 -4 74
10 4 10 2 22 -5 29 -6 6 -41 13 -79 15 -37 2 -73 9 -79 14 -7 6 -13 16 -13 23
0 7 14 18 31 24 18 6 58 11 89 11 38 0 62 5 70 14 8 10 9 33 5 70 -7 56 -7 56
29 71 20 8 36 22 36 29 0 8 -22 30 -50 50 -27 20 -50 44 -50 53 0 10 -6 34
-13 55 -7 20 -22 48 -32 62 -11 14 -23 26 -28 26z m92 -210 c5 0 14 -7 21 -15
10 -13 9 -15 -9 -15 -12 0 -21 6 -21 15 0 8 4 15 9 15z"/>
</g>
</svg>
