<?xml version="1.0" standalone="no"?>
<!DOCTYPE svg PUBLIC "-//W3C//DTD SVG 20010904//EN"
 "http://www.w3.org/TR/2001/REC-SVG-20010904/DTD/svg10.dtd">
<svg version="1.0" xmlns="http://www.w3.org/2000/svg"
 width="56.000000pt" height="56.000000pt" viewBox="0 0 56.000000 56.000000"
 preserveAspectRatio="xMidYMid meet">
<metadata>
Created by potrace 1.16, written by Peter Selinger 2001-2019
</metadata>
<g transform="translate(0.000000,56.000000) scale(0.100000,-0.100000)"
fill="#000000" stroke="none">
<path d="M185 560 c-8 0 -15 -5 -15 -10 0 -6 13 -19 30 -28 16 -9 30 -23 30
-30 0 -7 -7 -26 -15 -42 -8 -16 -25 -30 -37 -32 -13 -2 -24 -11 -26 -20 -2
-10 2 -18 8 -18 6 0 21 11 34 25 13 14 30 25 37 25 8 0 36 20 63 44 26 24 45
49 42 55 -4 6 -16 11 -26 11 -10 0 -22 5 -25 10 -3 6 -17 10 -31 10 -13 0 -24
-4 -24 -10 0 -5 -7 -10 -15 -10 -8 0 -15 5 -15 10 0 6 -7 10 -15 10z"/>
<path d="M334 420 c-16 0 -24 -6 -24 -18 0 -10 -5 -23 -12 -30 -8 -8 -45 -12
-100 -12 -50 0 -88 -4 -88 -10 0 -5 13 -16 30 -25 23 -12 39 -13 72 -6 24 5
58 12 75 15 28 5 36 1 58 -28 14 -18 25 -40 25 -49 0 -11 -17 -19 -57 -28 -32
-7 -74 -12 -93 -11 -19 1 -49 -5 -67 -13 -18 -9 -38 -26 -45 -38 -6 -12 -13
-31 -14 -42 -1 -12 15 -35 39 -58 22 -20 47 -37 56 -37 9 0 34 -7 56 -15 22
-8 62 -14 88 -15 34 0 49 4 54 15 3 9 3 18 0 21 -3 3 -40 14 -83 25 -42 10
-82 18 -88 17 -6 -1 -26 6 -44 16 -27 14 -33 22 -28 39 3 12 6 25 6 28 0 4 14
12 31 19 19 8 71 12 143 11 89 -1 116 2 126 14 10 12 7 20 -19 46 -18 17 -31
41 -31 55 0 13 -4 24 -10 24 -5 0 -10 4 -10 9 0 5 9 11 20 14 11 3 20 10 20
16 0 7 -8 15 -17 18 -10 4 -24 13 -31 20 -7 7 -24 13 -38 13z"/>
</g>
</svg>
