<?xml version="1.0" standalone="no"?>
<!DOCTYPE svg PUBLIC "-//W3C//DTD SVG 20010904//EN"
 "http://www.w3.org/TR/2001/REC-SVG-20010904/DTD/svg10.dtd">
<svg version="1.0" xmlns="http://www.w3.org/2000/svg"
 width="56.000000pt" height="56.000000pt" viewBox="0 0 56.000000 56.000000"
 preserveAspectRatio="xMidYMid meet">
<metadata>
Created by potrace 1.16, written by Peter Selinger 2001-2019
</metadata>
<g transform="translate(0.000000,56.000000) scale(0.100000,-0.100000)"
fill="#000000" stroke="none">
<path d="M313 559 c-5 0 -15 -9 -24 -19 -9 -9 -23 -20 -30 -22 -12 -5 -12 -9
-1 -28 11 -18 12 -27 1 -46 -10 -19 -9 -26 1 -39 7 -8 20 -15 30 -15 10 0 25
-17 38 -42 11 -24 25 -60 32 -81 8 -26 9 -42 2 -49 -7 -7 -26 -6 -59 2 -26 6
-65 14 -86 17 -31 4 -43 1 -63 -18 -16 -15 -24 -33 -24 -56 0 -22 11 -51 30
-78 16 -24 45 -53 64 -64 18 -12 46 -21 60 -21 21 0 27 4 24 18 -2 9 -13 18
-24 20 -12 2 -40 19 -62 38 -28 24 -43 46 -48 70 -4 22 -2 40 7 50 9 11 22 14
43 9 17 -4 47 -8 66 -10 19 -1 47 -6 62 -10 15 -4 36 -4 47 0 11 3 23 15 26
26 4 12 -7 46 -29 92 -20 40 -36 80 -36 89 0 9 5 20 10 23 7 4 7 13 0 26 -6
10 -19 19 -30 19 -10 0 -23 -7 -28 -17 -6 -10 -16 -14 -27 -9 -15 5 -14 9 10
28 25 19 26 23 11 33 -10 7 -14 19 -10 29 3 9 10 16 15 16 5 0 9 5 9 10 0 6
-3 10 -7 9z"/>
</g>
</svg>
