<?xml version="1.0" standalone="no"?>
<!DOCTYPE svg PUBLIC "-//W3C//DTD SVG 20010904//EN"
 "http://www.w3.org/TR/2001/REC-SVG-20010904/DTD/svg10.dtd">
<svg version="1.0" xmlns="http://www.w3.org/2000/svg"
 width="56.000000pt" height="56.000000pt" viewBox="0 0 56.000000 56.000000"
 preserveAspectRatio="xMidYMid meet">
<metadata>
Created by potrace 1.16, written by Peter Selinger 2001-2019
</metadata>
<g transform="translate(0.000000,56.000000) scale(0.100000,-0.100000)"
fill="#000000" stroke="none">
<path d="M170 560 c-11 0 -20 -6 -20 -13 0 -7 8 -22 18 -33 9 -10 29 -34 45
-52 15 -19 27 -40 27 -48 0 -8 -9 -14 -19 -14 -11 0 -23 5 -26 10 -3 6 -11 10
-16 10 -6 0 -9 -10 -7 -22 2 -15 18 -27 58 -42 30 -12 61 -25 68 -29 6 -5 12
-12 12 -18 0 -5 -8 -9 -18 -9 -10 0 -23 5 -30 12 -8 8 -15 9 -22 2 -8 -8 -1
-18 22 -36 18 -13 41 -27 51 -31 9 -3 17 -12 17 -19 0 -7 -6 -20 -13 -29 -7
-9 -21 -19 -32 -22 -11 -4 -38 -7 -60 -8 -22 -1 -50 -8 -62 -15 -12 -8 -24
-22 -28 -33 -3 -11 1 -34 10 -51 9 -17 30 -40 48 -50 18 -11 47 -20 65 -20 17
0 32 3 32 8 0 4 -4 12 -8 18 -4 6 -22 16 -40 22 -18 6 -39 18 -47 26 -8 8 -15
24 -15 35 0 15 6 21 23 21 13 0 32 6 42 14 13 9 27 11 42 5 13 -5 31 -6 40 -2
10 3 26 13 36 21 9 8 17 28 17 44 0 16 7 36 15 44 8 9 15 19 15 24 0 5 -13 16
-29 25 -16 8 -31 20 -33 27 -3 7 2 18 11 24 13 10 13 14 2 28 -7 9 -19 16 -26
16 -7 0 -21 13 -32 29 -10 16 -40 52 -66 80 -26 28 -57 51 -67 51z"/>
</g>
</svg>
