<?xml version="1.0" standalone="no"?>
<!DOCTYPE svg PUBLIC "-//W3C//DTD SVG 20010904//EN"
 "http://www.w3.org/TR/2001/REC-SVG-20010904/DTD/svg10.dtd">
<svg version="1.0" xmlns="http://www.w3.org/2000/svg"
 width="56.000000pt" height="56.000000pt" viewBox="0 0 56.000000 56.000000"
 preserveAspectRatio="xMidYMid meet">
<metadata>
Created by potrace 1.16, written by Peter Selinger 2001-2019
</metadata>
<g transform="translate(0.000000,56.000000) scale(0.100000,-0.100000)"
fill="#000000" stroke="none">
<path d="M235 560 c-14 0 -25 -2 -25 -3 0 -2 7 -17 15 -34 8 -16 26 -35 39
-41 18 -8 28 -8 41 2 9 7 16 21 14 32 -3 12 -14 20 -32 22 -15 2 -27 8 -27 13
0 5 -11 9 -25 9z"/>
<path d="M285 400 c-7 0 -17 -9 -20 -20 -4 -12 -15 -20 -29 -20 -12 0 -25 -3
-29 -6 -3 -3 -3 -12 0 -20 3 -8 18 -21 34 -30 16 -8 29 -23 29 -33 0 -10 -11
-26 -25 -35 -14 -9 -25 -23 -25 -31 0 -8 6 -15 14 -15 8 0 18 5 21 10 3 6 14
10 24 10 10 0 23 11 31 24 7 14 10 34 7 46 -3 12 -1 34 4 47 7 19 6 32 -6 49
-8 13 -22 24 -30 24z"/>
<path d="M224 177 c-6 2 -16 -3 -22 -10 -9 -11 -7 -24 9 -58 12 -24 32 -59 46
-77 20 -27 31 -33 56 -30 24 2 32 8 32 23 0 13 -13 27 -40 40 -21 11 -46 26
-55 34 -8 8 -15 28 -15 44 0 17 -5 32 -11 34z"/>
</g>
</svg>
