<?xml version="1.0" standalone="no"?>
<!DOCTYPE svg PUBLIC "-//W3C//DTD SVG 20010904//EN"
 "http://www.w3.org/TR/2001/REC-SVG-20010904/DTD/svg10.dtd">
<svg version="1.0" xmlns="http://www.w3.org/2000/svg"
 width="56.000000pt" height="56.000000pt" viewBox="0 0 56.000000 56.000000"
 preserveAspectRatio="xMidYMid meet">
<metadata>
Created by potrace 1.16, written by Peter Selinger 2001-2019
</metadata>
<g transform="translate(0.000000,56.000000) scale(0.100000,-0.100000)"
fill="#000000" stroke="none">
<path d="M210 360 c-19 0 -45 -7 -58 -15 -12 -9 -36 -21 -53 -27 -27 -9 -34
-8 -45 6 -11 15 -14 14 -28 -15 -11 -21 -14 -44 -10 -70 7 -39 7 -39 49 -4 24
19 64 44 90 55 26 11 54 20 63 20 10 0 44 -14 77 -30 33 -17 67 -34 75 -39 8
-5 40 -18 70 -29 30 -12 62 -22 70 -23 8 -1 23 -1 33 0 9 0 17 9 17 19 0 11
-16 23 -48 35 -26 10 -65 26 -87 36 -22 11 -67 29 -100 41 -33 13 -64 27 -70
32 -5 4 -25 8 -45 8z"/>
</g>
</svg>
