<?xml version="1.0" standalone="no"?>
<!DOCTYPE svg PUBLIC "-//W3C//DTD SVG 20010904//EN"
 "http://www.w3.org/TR/2001/REC-SVG-20010904/DTD/svg10.dtd">
<svg version="1.0" xmlns="http://www.w3.org/2000/svg"
 width="56.000000pt" height="56.000000pt" viewBox="0 0 56.000000 56.000000"
 preserveAspectRatio="xMidYMid meet">
<metadata>
Created by potrace 1.16, written by Peter Selinger 2001-2019
</metadata>
<g transform="translate(0.000000,56.000000) scale(0.100000,-0.100000)"
fill="#000000" stroke="none">
<path d="M174 402 c-56 2 -115 0 -132 -4 -24 -7 -31 -15 -37 -44 -3 -20 -4
-38 -1 -41 2 -3 35 5 73 18 39 13 92 22 126 22 31 0 67 -4 80 -10 12 -6 35
-17 51 -24 16 -8 68 -51 115 -96 47 -46 91 -83 98 -83 7 0 13 8 13 18 0 9 -19
37 -43 62 -23 25 -61 61 -83 80 -22 19 -51 41 -64 49 -14 8 -41 22 -60 32 -23
11 -68 18 -136 21z"/>
</g>
</svg>
