<?xml version="1.0" standalone="no"?>
<!DOCTYPE svg PUBLIC "-//W3C//DTD SVG 20010904//EN"
 "http://www.w3.org/TR/2001/REC-SVG-20010904/DTD/svg10.dtd">
<svg version="1.0" xmlns="http://www.w3.org/2000/svg"
 width="56.000000pt" height="56.000000pt" viewBox="0 0 56.000000 56.000000"
 preserveAspectRatio="xMidYMid meet">
<metadata>
Created by potrace 1.16, written by Peter Selinger 2001-2019
</metadata>
<g transform="translate(0.000000,56.000000) scale(0.100000,-0.100000)"
fill="#000000" stroke="none">
<path d="M277 458 c-9 2 -19 -2 -21 -10 -2 -7 -7 -26 -11 -42 -3 -16 -21 -42
-38 -59 -18 -16 -51 -38 -75 -48 -24 -11 -52 -19 -62 -19 -11 0 -31 -5 -45
-12 -16 -7 -25 -19 -25 -35 0 -19 5 -23 28 -23 16 0 55 14 88 32 32 17 61 34
64 37 3 3 19 7 37 9 17 2 34 -2 38 -8 3 -5 17 -7 29 -4 20 5 37 -8 97 -69 41
-40 88 -83 106 -95 17 -12 41 -22 52 -22 14 0 21 6 21 19 0 12 -11 23 -29 29
-16 6 -59 39 -96 73 -37 35 -82 74 -100 86 -19 13 -43 23 -54 23 -12 0 -21 3
-21 6 0 3 9 19 21 35 13 18 19 41 17 61 -2 22 -9 34 -21 36z"/>
<path d="M360 137 c-8 1 -28 -5 -44 -13 -18 -10 -25 -19 -18 -26 5 -5 25 -8
43 -6 26 2 34 8 34 23 0 11 -7 21 -15 22z"/>
</g>
</svg>
