<?xml version="1.0" standalone="no"?>
<!DOCTYPE svg PUBLIC "-//W3C//DTD SVG 20010904//EN"
 "http://www.w3.org/TR/2001/REC-SVG-20010904/DTD/svg10.dtd">
<svg version="1.0" xmlns="http://www.w3.org/2000/svg"
 width="56.000000pt" height="56.000000pt" viewBox="0 0 56.000000 56.000000"
 preserveAspectRatio="xMidYMid meet">
<metadata>
Created by potrace 1.16, written by Peter Selinger 2001-2019
</metadata>
<g transform="translate(0.000000,56.000000) scale(0.100000,-0.100000)"
fill="#000000" stroke="none">
<path d="M35 380 c-8 7 -16 11 -16 9 -1 -2 -4 -24 -6 -49 -2 -25 -5 -62 -5
-83 0 -20 3 -44 6 -52 4 -12 14 -11 58 7 29 12 64 32 76 45 19 20 30 23 55 17
18 -4 48 -20 67 -35 24 -20 46 -29 70 -29 20 0 58 -11 86 -24 27 -14 60 -25
74 -26 14 -1 33 -2 43 -1 9 1 17 8 17 16 0 8 -12 18 -27 21 -16 4 -43 16 -61
26 -18 10 -41 18 -52 18 -10 0 -21 4 -24 9 -3 5 -18 12 -33 16 -15 3 -46 15
-69 25 -22 11 -47 26 -54 35 -7 8 -23 15 -36 15 -13 0 -27 -6 -31 -13 -4 -7
-28 -20 -52 -30 -32 -12 -48 -14 -63 -6 -16 9 -19 17 -14 43 5 23 2 37 -9 46z"/>
</g>
</svg>
