<?xml version="1.0" standalone="no"?>
<!DOCTYPE svg PUBLIC "-//W3C//DTD SVG 20010904//EN"
 "http://www.w3.org/TR/2001/REC-SVG-20010904/DTD/svg10.dtd">
<svg version="1.0" xmlns="http://www.w3.org/2000/svg"
 width="56.000000pt" height="56.000000pt" viewBox="0 0 56.000000 56.000000"
 preserveAspectRatio="xMidYMid meet">
<metadata>
Created by potrace 1.16, written by Peter Selinger 2001-2019
</metadata>
<g transform="translate(0.000000,56.000000) scale(0.100000,-0.100000)"
fill="#000000" stroke="none">
<path d="M9 429 c-5 20 -7 13 -8 -29 -1 -36 5 -64 15 -79 15 -21 22 -22 63
-17 25 3 64 13 86 20 22 8 55 12 75 9 19 -3 67 -21 105 -39 39 -19 88 -52 110
-74 21 -22 35 -43 31 -47 -4 -5 -18 -8 -29 -8 -12 0 -24 -4 -27 -10 -2 -5 16
-20 40 -32 25 -12 55 -22 68 -22 18 -1 22 4 22 29 0 16 -8 40 -17 52 -10 13
-41 46 -69 73 -28 28 -75 62 -105 76 -30 15 -73 32 -96 39 -24 7 -62 10 -90 7
-26 -4 -69 -9 -95 -13 -41 -6 -47 -4 -58 17 -7 12 -16 34 -21 48z"/>
</g>
</svg>
