<?xml version="1.0" standalone="no"?>
<!DOCTYPE svg PUBLIC "-//W3C//DTD SVG 20010904//EN"
 "http://www.w3.org/TR/2001/REC-SVG-20010904/DTD/svg10.dtd">
<svg version="1.0" xmlns="http://www.w3.org/2000/svg"
 width="56.000000pt" height="56.000000pt" viewBox="0 0 56.000000 56.000000"
 preserveAspectRatio="xMidYMid meet">
<metadata>
Created by potrace 1.16, written by Peter Selinger 2001-2019
</metadata>
<g transform="translate(0.000000,56.000000) scale(0.100000,-0.100000)"
fill="#000000" stroke="none">
<path d="M165 460 c-6 0 -16 -5 -23 -12 -7 -7 -12 -16 -12 -21 0 -4 -13 -27
-28 -50 -15 -23 -45 -74 -65 -113 -20 -40 -37 -83 -37 -97 0 -13 7 -31 16 -38
14 -11 22 -10 53 9 20 12 72 40 116 62 75 37 83 39 120 29 22 -6 53 -22 68
-35 16 -13 34 -24 40 -24 6 0 30 -19 53 -41 35 -34 47 -40 68 -35 19 5 26 13
26 30 0 14 -9 27 -22 34 -13 7 -37 20 -53 30 -17 9 -44 28 -60 41 -17 12 -45
29 -64 37 -18 8 -56 14 -83 14 -27 0 -63 -7 -80 -16 -16 -8 -50 -22 -74 -29
-26 -8 -46 -9 -50 -4 -3 5 1 22 8 37 8 15 21 38 29 52 8 14 17 27 20 30 4 3
18 26 32 51 15 26 23 49 20 53 -4 3 -11 6 -18 6z"/>
</g>
</svg>
