<?xml version="1.0" standalone="no"?>
<!DOCTYPE svg PUBLIC "-//W3C//DTD SVG 20010904//EN"
 "http://www.w3.org/TR/2001/REC-SVG-20010904/DTD/svg10.dtd">
<svg version="1.0" xmlns="http://www.w3.org/2000/svg"
 width="56.000000pt" height="56.000000pt" viewBox="0 0 56.000000 56.000000"
 preserveAspectRatio="xMidYMid meet">
<metadata>
Created by potrace 1.16, written by Peter Selinger 2001-2019
</metadata>
<g transform="translate(0.000000,56.000000) scale(0.100000,-0.100000)"
fill="#000000" stroke="none">
<path d="M207 380 c-12 -1 -38 -12 -57 -26 -19 -14 -59 -37 -87 -51 -29 -14
-53 -32 -53 -39 0 -8 9 -14 20 -14 12 0 31 6 43 14 12 8 56 17 98 21 44 4 103
2 140 -5 35 -6 78 -16 94 -22 17 -6 51 -29 76 -50 25 -20 49 -35 53 -31 3 3 6
19 6 33 0 15 -6 32 -12 38 -7 5 -29 19 -48 30 -20 10 -67 27 -105 37 -39 10
-89 18 -112 19 -24 0 -43 4 -43 8 0 4 5 10 10 13 6 4 8 11 5 16 -4 5 -16 9
-28 9z"/>
<path d="M213 220 c-5 0 -16 -7 -25 -14 -10 -7 -18 -18 -18 -25 0 -6 11 -11
25 -11 20 0 25 5 25 25 0 14 -3 25 -7 25z"/>
<path d="M358 198 c-25 2 -49 -2 -53 -8 -3 -5 0 -13 8 -16 8 -3 32 -4 53 -2
22 2 39 8 39 13 0 6 -21 11 -47 13z"/>
</g>
</svg>
