<?xml version="1.0" standalone="no"?>
<!DOCTYPE svg PUBLIC "-//W3C//DTD SVG 20010904//EN"
 "http://www.w3.org/TR/2001/REC-SVG-20010904/DTD/svg10.dtd">
<svg version="1.0" xmlns="http://www.w3.org/2000/svg"
 width="56.000000pt" height="56.000000pt" viewBox="0 0 56.000000 56.000000"
 preserveAspectRatio="xMidYMid meet">
<metadata>
Created by potrace 1.16, written by Peter Selinger 2001-2019
</metadata>
<g transform="translate(0.000000,56.000000) scale(0.100000,-0.100000)"
fill="#000000" stroke="none">
<path d="M235 470 c-21 0 -44 -9 -63 -25 -17 -14 -33 -25 -37 -25 -4 0 -24
-14 -45 -30 -21 -17 -48 -50 -59 -73 -12 -24 -21 -53 -21 -64 0 -11 6 -25 13
-30 6 -6 25 -13 40 -17 22 -5 45 2 100 30 40 20 80 41 89 45 12 6 38 0 83 -21
36 -17 69 -30 74 -30 5 0 15 -7 22 -16 11 -14 10 -18 -6 -31 -11 -8 -33 -17
-48 -20 -16 -3 -45 -22 -65 -42 -37 -36 -37 -36 -5 -39 17 -2 45 4 62 12 16 9
36 16 44 16 7 0 31 9 53 19 22 11 52 23 67 26 18 5 27 14 27 27 0 10 -8 27
-17 37 -10 11 -56 33 -103 51 -47 17 -94 35 -105 40 -11 5 -37 14 -58 20 -35
11 -43 9 -105 -23 -37 -19 -77 -37 -89 -41 -17 -5 -23 -3 -23 7 0 8 17 30 38
48 20 19 65 54 99 78 34 23 64 49 67 57 4 10 -4 14 -29 14z"/>
<path d="M528 350 c-4 0 -10 -5 -14 -11 -3 -6 -1 -16 4 -21 8 -8 16 -7 27 2
13 11 13 15 3 21 -7 5 -16 9 -20 9z"/>
</g>
</svg>
