<?xml version="1.0" standalone="no"?>
<!DOCTYPE svg PUBLIC "-//W3C//DTD SVG 20010904//EN"
 "http://www.w3.org/TR/2001/REC-SVG-20010904/DTD/svg10.dtd">
<svg version="1.0" xmlns="http://www.w3.org/2000/svg"
 width="56.000000pt" height="56.000000pt" viewBox="0 0 56.000000 56.000000"
 preserveAspectRatio="xMidYMid meet">
<metadata>
Created by potrace 1.16, written by Peter Selinger 2001-2019
</metadata>
<g transform="translate(0.000000,56.000000) scale(0.100000,-0.100000)"
fill="#000000" stroke="none">
<path d="M195 426 c-5 1 -44 -15 -85 -37 -41 -21 -83 -51 -94 -65 -17 -23 -17
-30 -6 -67 6 -23 17 -48 22 -54 6 -7 29 -13 52 -13 35 0 52 8 104 50 34 28 65
50 69 50 3 0 22 -12 42 -27 20 -16 72 -51 116 -78 44 -28 88 -54 98 -58 9 -3
24 -4 32 -1 9 4 15 19 15 40 0 19 -5 34 -11 34 -6 0 -43 15 -83 34 -40 19 -84
46 -97 60 -13 14 -30 26 -38 26 -8 0 -11 7 -8 18 2 9 6 24 8 32 3 10 -3 15
-16 15 -13 0 -21 -8 -23 -22 -2 -16 -10 -23 -25 -23 -12 0 -44 -14 -72 -30
-27 -17 -58 -36 -68 -43 -16 -10 -21 -8 -38 12 -11 13 -19 31 -17 40 2 9 32
30 68 47 36 18 65 37 65 45 0 7 -4 13 -10 15z"/>
</g>
</svg>
