<?xml version="1.0" standalone="no"?>
<!DOCTYPE svg PUBLIC "-//W3C//DTD SVG 20010904//EN"
 "http://www.w3.org/TR/2001/REC-SVG-20010904/DTD/svg10.dtd">
<svg version="1.0" xmlns="http://www.w3.org/2000/svg"
 width="56.000000pt" height="56.000000pt" viewBox="0 0 56.000000 56.000000"
 preserveAspectRatio="xMidYMid meet">
<metadata>
Created by potrace 1.16, written by Peter Selinger 2001-2019
</metadata>
<g transform="translate(0.000000,56.000000) scale(0.100000,-0.100000)"
fill="#000000" stroke="none">
<path d="M280 440 c-10 0 -21 -4 -25 -10 -3 -5 -11 -7 -18 -4 -7 2 -23 -4 -36
-13 -13 -10 -32 -26 -42 -35 -11 -10 -22 -18 -25 -18 -3 0 -35 -25 -70 -56
-51 -45 -64 -62 -64 -85 0 -19 5 -29 15 -29 8 0 28 11 43 24 15 13 51 45 81
70 30 25 61 46 68 46 7 0 39 -14 71 -32 31 -17 77 -45 101 -62 25 -17 65 -52
90 -79 28 -30 53 -47 68 -47 19 0 23 5 23 33 -1 26 -9 38 -48 68 -26 20 -67
47 -92 61 -25 14 -61 34 -81 46 -20 11 -46 26 -58 33 -11 8 -21 18 -21 22 0 5
11 18 25 29 14 11 23 24 20 29 -4 5 -15 9 -25 9z"/>
</g>
</svg>
