<?xml version="1.0" standalone="no"?>
<!DOCTYPE svg PUBLIC "-//W3C//DTD SVG 20010904//EN"
 "http://www.w3.org/TR/2001/REC-SVG-20010904/DTD/svg10.dtd">
<svg version="1.0" xmlns="http://www.w3.org/2000/svg"
 width="56.000000pt" height="56.000000pt" viewBox="0 0 56.000000 56.000000"
 preserveAspectRatio="xMidYMid meet">
<metadata>
Created by potrace 1.16, written by Peter Selinger 2001-2019
</metadata>
<g transform="translate(0.000000,56.000000) scale(0.100000,-0.100000)"
fill="#000000" stroke="none">
<path d="M106 500 c-7 0 -33 -25 -56 -56 -25 -34 -44 -71 -47 -93 -3 -24 0
-41 9 -48 11 -10 26 0 74 45 33 32 74 68 91 80 26 19 34 20 45 9 7 -8 33 -38
58 -67 25 -30 61 -72 80 -95 19 -22 53 -65 74 -95 22 -30 51 -67 65 -82 13
-16 33 -28 43 -28 12 0 18 7 18 24 0 13 -15 42 -34 63 -18 21 -74 85 -124 143
-50 58 -110 124 -133 148 -22 23 -49 42 -60 42 -10 0 -51 -27 -90 -60 -40 -33
-74 -58 -77 -55 -3 3 10 24 28 48 19 23 38 44 42 45 4 2 8 10 8 18 0 8 -6 14
-14 14z"/>
<path d="M273 210 c-7 0 -28 -20 -45 -45 -22 -31 -39 -45 -54 -45 -13 0 -26 5
-29 10 -3 6 -13 10 -21 10 -8 0 -14 -5 -14 -11 0 -7 12 -22 28 -36 18 -16 37
-23 57 -21 24 2 34 11 50 43 11 22 21 42 23 45 2 2 7 -2 13 -10 5 -8 8 -26 5
-40 -2 -14 0 -33 5 -42 6 -10 16 -15 25 -11 13 5 15 16 9 62 -4 31 -14 64 -22
74 -9 9 -22 17 -30 17z"/>
</g>
</svg>
