<?xml version="1.0" standalone="no"?>
<!DOCTYPE svg PUBLIC "-//W3C//DTD SVG 20010904//EN"
 "http://www.w3.org/TR/2001/REC-SVG-20010904/DTD/svg10.dtd">
<svg version="1.0" xmlns="http://www.w3.org/2000/svg"
 width="56.000000pt" height="56.000000pt" viewBox="0 0 56.000000 56.000000"
 preserveAspectRatio="xMidYMid meet">
<metadata>
Created by potrace 1.16, written by Peter Selinger 2001-2019
</metadata>
<g transform="translate(0.000000,56.000000) scale(0.100000,-0.100000)"
fill="#000000" stroke="none">
<path d="M215 420 c-31 0 -52 -9 -91 -39 -28 -21 -68 -45 -88 -52 -26 -10 -36
-19 -36 -35 0 -14 8 -24 22 -28 18 -4 30 2 53 27 17 18 52 48 78 66 48 33 48
33 100 8 29 -13 76 -44 105 -68 29 -24 81 -72 114 -106 34 -35 67 -63 75 -63
7 0 13 9 13 19 0 10 -16 35 -34 53 -19 19 -72 67 -118 105 -46 39 -99 80 -118
92 -20 12 -52 21 -75 21z"/>
<path d="M214 270 c-8 0 -14 -3 -14 -7 0 -5 7 -21 16 -38 14 -28 14 -30 -8
-47 -13 -10 -26 -18 -30 -18 -5 0 -8 -7 -8 -16 0 -9 7 -14 17 -12 10 2 22 12
28 23 8 16 18 19 58 17 41 -3 47 -1 47 17 0 13 -12 26 -35 36 -19 9 -39 23
-46 31 -6 8 -18 14 -25 14z"/>
<path d="M112 222 c-6 6 -12 6 -17 -2 -4 -6 -3 -16 3 -22 6 -6 12 -6 17 2 4 6
3 16 -3 22z"/>
</g>
</svg>
