<?xml version="1.0" standalone="no"?>
<!DOCTYPE svg PUBLIC "-//W3C//DTD SVG 20010904//EN"
 "http://www.w3.org/TR/2001/REC-SVG-20010904/DTD/svg10.dtd">
<svg version="1.0" xmlns="http://www.w3.org/2000/svg"
 width="56.000000pt" height="56.000000pt" viewBox="0 0 56.000000 56.000000"
 preserveAspectRatio="xMidYMid meet">
<metadata>
Created by potrace 1.16, written by Peter Selinger 2001-2019
</metadata>
<g transform="translate(0.000000,56.000000) scale(0.100000,-0.100000)"
fill="#000000" stroke="none">
<path d="M196 349 c0 -1 -10 -4 -21 -6 -11 -3 -32 -14 -47 -25 -15 -10 -44
-25 -65 -32 -28 -10 -37 -18 -35 -32 2 -11 6 -21 8 -23 2 -2 16 -4 31 -4 16 0
49 14 74 31 26 18 51 32 57 32 5 0 20 -8 33 -18 13 -10 44 -24 69 -31 25 -7
56 -17 69 -22 13 -6 54 -12 91 -14 49 -4 71 -1 79 9 8 10 7 17 -7 28 -9 9 -42
19 -72 22 -30 4 -82 15 -115 24 -33 9 -62 19 -65 23 -3 4 -22 14 -44 23 -21 9
-39 15 -40 15z"/>
</g>
</svg>
