<?xml version="1.0" standalone="no"?>
<!DOCTYPE svg PUBLIC "-//W3C//DTD SVG 20010904//EN"
 "http://www.w3.org/TR/2001/REC-SVG-20010904/DTD/svg10.dtd">
<svg version="1.0" xmlns="http://www.w3.org/2000/svg"
 width="56.000000pt" height="56.000000pt" viewBox="0 0 56.000000 56.000000"
 preserveAspectRatio="xMidYMid meet">
<metadata>
Created by potrace 1.16, written by Peter Selinger 2001-2019
</metadata>
<g transform="translate(0.000000,56.000000) scale(0.100000,-0.100000)"
fill="#000000" stroke="none">
<path d="M177 400 c-13 0 -28 -5 -35 -12 -7 -7 -12 -18 -12 -24 0 -7 -9 -16
-20 -19 -11 -3 -20 -13 -20 -21 0 -8 -10 -18 -22 -23 -13 -5 -33 -23 -45 -40
-13 -16 -23 -42 -23 -56 0 -14 3 -25 7 -25 4 0 35 28 68 63 49 51 69 65 110
75 28 6 79 10 115 8 36 -1 79 -6 95 -10 17 -4 42 -12 57 -18 15 -5 29 -16 32
-23 3 -9 -11 -17 -45 -26 -27 -7 -49 -15 -49 -19 0 -3 -13 -14 -30 -23 -17
-10 -30 -27 -30 -38 0 -12 7 -19 18 -19 11 0 26 8 35 18 10 10 17 24 17 30 0
7 6 13 13 13 6 1 14 1 17 1 3 0 33 -3 68 -6 62 -7 62 -7 62 24 0 17 -8 39 -18
48 -9 10 -46 32 -82 49 -36 17 -92 35 -125 39 -33 4 -71 7 -85 7 -14 -1 -38
-4 -55 -8 -24 -5 -27 -4 -12 5 9 6 17 15 17 20 0 6 -10 10 -23 10z"/>
<path d="M100 198 c-15 9 -23 8 -41 -7 -12 -10 -19 -23 -15 -29 4 -7 13 -12
20 -12 7 0 22 8 34 18 20 17 20 18 2 30z"/>
</g>
</svg>
