<?xml version="1.0" standalone="no"?>
<!DOCTYPE svg PUBLIC "-//W3C//DTD SVG 20010904//EN"
 "http://www.w3.org/TR/2001/REC-SVG-20010904/DTD/svg10.dtd">
<svg version="1.0" xmlns="http://www.w3.org/2000/svg"
 width="56.000000pt" height="56.000000pt" viewBox="0 0 56.000000 56.000000"
 preserveAspectRatio="xMidYMid meet">
<metadata>
Created by potrace 1.16, written by Peter Selinger 2001-2019
</metadata>
<g transform="translate(0.000000,56.000000) scale(0.100000,-0.100000)"
fill="#000000" stroke="none">
<path d="M222 420 c-15 0 -35 -5 -44 -10 -9 -6 -35 -11 -58 -12 -30 -1 -45 -7
-55 -22 -7 -12 -15 -35 -18 -53 -4 -20 -1 -35 7 -42 9 -8 23 -3 52 18 21 15
58 35 81 44 31 12 50 14 74 7 18 -5 50 -27 72 -47 21 -21 59 -68 83 -104 24
-37 53 -69 64 -72 10 -3 27 1 37 8 14 10 15 17 6 36 -6 13 -26 42 -44 64 -19
22 -56 63 -83 92 -27 29 -55 53 -62 53 -7 0 -29 9 -49 20 -20 11 -48 20 -63
20z"/>
<path d="M280 220 c-9 0 -20 -3 -23 -7 -4 -3 -7 -16 -7 -28 0 -12 5 -36 11
-54 7 -19 18 -31 29 -31 11 0 22 5 25 10 4 6 1 33 -6 60 -9 35 -18 50 -29 50z"/>
</g>
</svg>
