<?xml version="1.0" standalone="no"?>
<!DOCTYPE svg PUBLIC "-//W3C//DTD SVG 20010904//EN"
 "http://www.w3.org/TR/2001/REC-SVG-20010904/DTD/svg10.dtd">
<svg version="1.0" xmlns="http://www.w3.org/2000/svg"
 width="56.000000pt" height="56.000000pt" viewBox="0 0 56.000000 56.000000"
 preserveAspectRatio="xMidYMid meet">
<metadata>
Created by potrace 1.16, written by Peter Selinger 2001-2019
</metadata>
<g transform="translate(0.000000,56.000000) scale(0.100000,-0.100000)"
fill="#000000" stroke="none">
<path d="M253 413 c-5 2 -23 0 -40 -5 -18 -5 -40 -20 -49 -33 -9 -14 -22 -25
-29 -25 -6 0 -20 -9 -30 -20 -10 -11 -38 -33 -62 -48 -23 -15 -43 -31 -43 -37
0 -5 14 -26 30 -45 26 -30 32 -33 43 -20 7 8 27 25 45 38 18 13 55 30 83 38
27 8 54 12 59 9 5 -3 37 -11 71 -16 34 -5 75 -17 92 -25 22 -12 26 -18 17 -24
-7 -5 -20 -6 -27 -3 -8 3 -26 0 -41 -7 -15 -7 -34 -16 -42 -20 -8 -4 -15 -13
-15 -21 0 -8 7 -12 15 -10 8 2 31 6 50 9 19 2 40 8 46 13 7 6 23 3 40 -6 16
-8 38 -15 49 -15 11 0 27 5 35 10 13 9 13 12 -3 21 -9 5 -24 23 -32 40 -9 16
-35 41 -58 56 -28 18 -64 30 -107 35 -36 5 -74 8 -85 8 -11 1 -40 -2 -65 -6
-45 -6 -45 -6 -2 31 24 21 47 46 53 56 5 10 6 20 2 22z"/>
</g>
</svg>
