<?xml version="1.0" standalone="no"?>
<!DOCTYPE svg PUBLIC "-//W3C//DTD SVG 20010904//EN"
 "http://www.w3.org/TR/2001/REC-SVG-20010904/DTD/svg10.dtd">
<svg version="1.0" xmlns="http://www.w3.org/2000/svg"
 width="56.000000pt" height="56.000000pt" viewBox="0 0 56.000000 56.000000"
 preserveAspectRatio="xMidYMid meet">
<metadata>
Created by potrace 1.16, written by Peter Selinger 2001-2019
</metadata>
<g transform="translate(0.000000,56.000000) scale(0.100000,-0.100000)"
fill="#000000" stroke="none">
<path d="M124 400 c-11 0 -43 -24 -72 -54 -29 -31 -52 -63 -52 -75 0 -13 6
-21 17 -21 9 0 31 11 49 25 19 14 55 32 81 40 27 8 63 15 82 15 18 0 52 -5 75
-11 22 -6 55 -18 72 -25 18 -8 46 -30 63 -50 25 -28 30 -39 20 -50 -9 -11 -7
-15 7 -20 11 -3 27 -10 36 -15 10 -5 27 -9 38 -9 16 0 20 7 20 30 0 17 -3 30
-8 30 -4 0 -40 29 -80 64 -40 35 -97 76 -126 90 -46 23 -58 25 -107 17 -30 -5
-66 -12 -81 -16 -23 -6 -26 -4 -21 14 4 16 1 21 -13 21z"/>
<path d="M108 240 c-5 0 -16 -16 -24 -36 -10 -23 -12 -40 -6 -46 5 -5 20 -8
33 -6 15 2 27 13 34 31 8 24 6 31 -10 43 -10 8 -23 14 -27 14z"/>
</g>
</svg>
