<?xml version="1.0" standalone="no"?>
<!DOCTYPE svg PUBLIC "-//W3C//DTD SVG 20010904//EN"
 "http://www.w3.org/TR/2001/REC-SVG-20010904/DTD/svg10.dtd">
<svg version="1.0" xmlns="http://www.w3.org/2000/svg"
 width="56.000000pt" height="56.000000pt" viewBox="0 0 56.000000 56.000000"
 preserveAspectRatio="xMidYMid meet">
<metadata>
Created by potrace 1.16, written by Peter Selinger 2001-2019
</metadata>
<g transform="translate(0.000000,56.000000) scale(0.100000,-0.100000)"
fill="#000000" stroke="none">
<path d="M163 389 c-5 -1 -20 -4 -34 -6 -18 -3 -46 -26 -79 -64 -52 -60 -52
-60 -29 -85 12 -13 28 -24 36 -24 7 0 43 16 80 36 38 20 85 42 107 49 22 8 45
10 55 5 9 -4 36 -17 61 -29 25 -11 58 -25 73 -31 16 -5 26 -14 22 -19 -3 -5
-21 -15 -40 -21 -20 -7 -35 -18 -35 -27 0 -12 7 -14 31 -9 17 3 58 6 90 6 59
0 59 0 59 33 0 30 -5 36 -37 50 -21 9 -49 19 -63 23 -14 3 -62 24 -108 46 -59
27 -87 36 -100 29 -9 -4 -45 -18 -80 -30 -34 -13 -68 -21 -75 -18 -6 2 7 16
31 32 23 15 42 34 42 41 0 8 -3 13 -7 13z"/>
</g>
</svg>
