<?xml version="1.0" standalone="no"?>
<!DOCTYPE svg PUBLIC "-//W3C//DTD SVG 20010904//EN"
 "http://www.w3.org/TR/2001/REC-SVG-20010904/DTD/svg10.dtd">
<svg version="1.0" xmlns="http://www.w3.org/2000/svg"
 width="56.000000pt" height="56.000000pt" viewBox="0 0 56.000000 56.000000"
 preserveAspectRatio="xMidYMid meet">
<metadata>
Created by potrace 1.16, written by Peter Selinger 2001-2019
</metadata>
<g transform="translate(0.000000,56.000000) scale(0.100000,-0.100000)"
fill="#000000" stroke="none">
<path d="M233 560 c-10 0 -27 -13 -38 -28 -11 -15 -26 -38 -33 -52 -7 -13 -12
-38 -10 -55 2 -23 9 -31 26 -33 13 -2 32 4 43 14 13 11 23 14 29 8 6 -6 -7
-38 -36 -89 -25 -44 -59 -103 -74 -130 -21 -38 -26 -55 -19 -68 6 -9 14 -17
19 -17 6 0 22 18 37 41 27 41 27 41 45 19 13 -16 15 -27 8 -40 -5 -10 -7 -33
-3 -51 5 -28 2 -36 -23 -56 -26 -21 -27 -23 -8 -23 12 0 51 16 88 35 37 19 78
35 91 35 12 0 26 8 29 17 4 9 2 21 -4 27 -7 7 -21 4 -45 -7 -20 -9 -43 -17
-53 -17 -9 0 -23 4 -31 9 -12 7 -8 18 20 58 20 26 38 56 42 66 3 9 13 17 20
17 8 0 19 10 24 22 11 23 11 23 18 -6 6 -20 3 -39 -10 -62 -11 -21 -32 -39
-56 -48 -22 -9 -39 -19 -39 -22 0 -4 19 -4 42 0 23 4 57 18 75 32 29 22 33 31
33 70 0 34 -6 51 -25 69 -13 14 -33 25 -44 25 -17 0 -19 5 -14 35 4 27 2 35
-9 35 -8 0 -23 -9 -33 -20 -10 -11 -24 -20 -32 -20 -7 0 -13 3 -13 8 0 4 15
25 33 47 17 23 42 52 55 65 12 13 22 32 22 42 0 13 -8 18 -25 18 -14 0 -42
-15 -62 -32 -21 -18 -48 -39 -60 -45 -13 -7 -30 -13 -38 -13 -8 0 -15 2 -15 5
0 4 6 18 14 33 8 15 23 36 35 46 12 11 21 23 21 28 0 4 -8 8 -17 8z m93 -210
c2 0 4 -7 4 -15 0 -8 -7 -15 -16 -15 -14 0 -14 3 -4 15 7 8 14 15 16 15z m-29
-70 c7 0 13 -4 13 -9 0 -5 -7 -11 -15 -14 -8 -4 -17 -2 -19 2 -3 5 -3 11 1 15
3 3 12 6 20 6z m-52 -20 c8 0 15 -7 15 -15 0 -8 -7 -15 -15 -15 -8 0 -15 7
-15 15 0 8 7 15 15 15z m47 -36 c4 -3 8 -12 8 -19 0 -8 -9 -19 -20 -25 -17 -9
-20 -8 -20 8 0 10 5 23 12 30 6 6 15 9 20 6z"/>
</g>
</svg>
