<?xml version="1.0" standalone="no"?>
<!DOCTYPE svg PUBLIC "-//W3C//DTD SVG 20010904//EN"
 "http://www.w3.org/TR/2001/REC-SVG-20010904/DTD/svg10.dtd">
<svg version="1.0" xmlns="http://www.w3.org/2000/svg"
 width="56.000000pt" height="56.000000pt" viewBox="0 0 56.000000 56.000000"
 preserveAspectRatio="xMidYMid meet">
<metadata>
Created by potrace 1.16, written by Peter Selinger 2001-2019
</metadata>
<g transform="translate(0.000000,56.000000) scale(0.100000,-0.100000)"
fill="#000000" stroke="none">
<path d="M305 342 c-44 3 -102 3 -130 1 -27 -2 -55 -9 -62 -14 -6 -6 -25 -10
-40 -9 -15 1 -36 2 -45 1 -10 -1 -20 -12 -24 -27 -4 -17 -2 -29 7 -34 8 -5 22
-1 37 11 14 10 34 19 46 19 12 0 27 5 33 11 7 7 55 11 126 11 64 -1 124 -5
134 -11 10 -5 35 -17 55 -25 20 -9 46 -28 56 -41 11 -14 29 -25 41 -25 15 0
21 6 21 24 0 14 -7 26 -17 29 -10 3 -31 13 -48 23 -16 9 -38 21 -47 26 -10 4
-26 8 -37 8 -11 0 -21 4 -23 9 -1 4 -39 10 -83 13z"/>
<path d="M239 230 c-15 8 -21 7 -25 -4 -3 -8 -3 -20 1 -26 3 -5 28 -10 56 -10
37 0 49 4 49 15 0 10 -10 15 -31 15 -17 0 -39 5 -50 10z"/>
</g>
</svg>
