<?xml version="1.0" standalone="no"?>
<!DOCTYPE svg PUBLIC "-//W3C//DTD SVG 20010904//EN"
 "http://www.w3.org/TR/2001/REC-SVG-20010904/DTD/svg10.dtd">
<svg version="1.0" xmlns="http://www.w3.org/2000/svg"
 width="56.000000pt" height="56.000000pt" viewBox="0 0 56.000000 56.000000"
 preserveAspectRatio="xMidYMid meet">
<metadata>
Created by potrace 1.16, written by Peter Selinger 2001-2019
</metadata>
<g transform="translate(0.000000,56.000000) scale(0.100000,-0.100000)"
fill="#000000" stroke="none">
<path d="M297 449 c-12 0 -29 -3 -37 -6 -8 -3 -42 -24 -75 -47 -33 -22 -87
-55 -120 -72 -41 -21 -61 -38 -63 -53 -2 -12 2 -21 9 -21 7 0 29 6 48 13 20 6
45 20 56 30 11 11 38 27 60 36 22 10 53 23 68 30 25 10 34 8 61 -8 18 -11 61
-50 96 -85 35 -36 77 -84 92 -108 16 -24 34 -43 39 -42 5 1 14 2 19 3 6 0 10
17 10 36 0 30 -11 46 -83 118 -48 47 -104 93 -130 105 -26 12 -52 22 -58 22
-8 0 -8 4 1 15 7 8 19 15 27 15 8 0 11 5 8 10 -3 6 -16 10 -28 9z"/>
<path d="M327 219 c-7 0 -19 -4 -27 -9 -8 -4 -32 -16 -52 -25 -21 -8 -56 -22
-79 -30 -23 -9 -44 -13 -47 -10 -3 2 1 11 7 19 7 8 10 20 6 26 -5 8 -19 0 -41
-21 -19 -18 -34 -39 -34 -46 0 -10 26 -13 110 -13 61 0 110 4 110 9 0 5 13 14
28 20 20 8 36 9 55 2 21 -8 27 -8 27 3 0 8 -12 28 -26 45 -14 17 -31 31 -37
30z"/>
</g>
</svg>
