<?xml version="1.0" standalone="no"?>
<!DOCTYPE svg PUBLIC "-//W3C//DTD SVG 20010904//EN"
 "http://www.w3.org/TR/2001/REC-SVG-20010904/DTD/svg10.dtd">
<svg version="1.0" xmlns="http://www.w3.org/2000/svg"
 width="56.000000pt" height="56.000000pt" viewBox="0 0 56.000000 56.000000"
 preserveAspectRatio="xMidYMid meet">
<metadata>
Created by potrace 1.16, written by Peter Selinger 2001-2019
</metadata>
<g transform="translate(0.000000,56.000000) scale(0.100000,-0.100000)"
fill="#000000" stroke="none">
<path d="M215 480 c-11 0 -27 -5 -35 -10 -8 -5 -52 -10 -97 -10 -71 0 -83 -2
-83 -17 0 -9 7 -24 16 -34 14 -16 27 -17 94 -12 43 3 89 3 103 -1 17 -4 32
-19 43 -41 9 -19 24 -37 34 -40 10 -3 55 -46 101 -96 46 -50 92 -104 102 -120
12 -19 27 -29 43 -29 22 0 24 4 24 50 0 28 -4 50 -10 50 -5 0 -10 10 -10 22 0
11 -21 44 -47 72 -27 29 -60 66 -76 84 -15 18 -33 32 -40 32 -7 0 -26 14 -42
30 -16 17 -34 30 -39 30 -6 0 -22 9 -36 20 -14 11 -34 20 -45 20z"/>
<path d="M123 155 c-38 4 -64 2 -68 -4 -3 -6 7 -25 23 -43 25 -26 39 -32 86
-36 31 -2 56 0 56 5 0 4 -9 16 -20 26 -11 9 -32 17 -46 17 -14 0 -23 4 -19 10
3 6 18 10 32 10 15 0 24 2 21 5 -2 3 -32 7 -65 10z"/>
</g>
</svg>
