<?xml version="1.0" standalone="no"?>
<!DOCTYPE svg PUBLIC "-//W3C//DTD SVG 20010904//EN"
 "http://www.w3.org/TR/2001/REC-SVG-20010904/DTD/svg10.dtd">
<svg version="1.0" xmlns="http://www.w3.org/2000/svg"
 width="56.000000pt" height="56.000000pt" viewBox="0 0 56.000000 56.000000"
 preserveAspectRatio="xMidYMid meet">
<metadata>
Created by potrace 1.16, written by Peter Selinger 2001-2019
</metadata>
<g transform="translate(0.000000,56.000000) scale(0.100000,-0.100000)"
fill="#000000" stroke="none">
<path d="M21 520 c-4 0 -11 -3 -14 -7 -4 -3 -7 -17 -7 -30 0 -18 5 -23 25 -23
15 0 28 7 32 17 5 14 8 13 14 -5 7 -18 16 -22 53 -22 26 0 68 -10 98 -24 35
-15 75 -47 118 -92 47 -50 80 -99 119 -176 46 -90 59 -108 78 -108 18 0 23 6
23 25 0 14 -4 25 -10 25 -5 0 -10 6 -10 13 0 7 -17 46 -38 87 -22 41 -53 96
-70 121 -17 25 -60 70 -96 100 -43 36 -81 58 -113 66 -26 7 -69 13 -95 13 -26
0 -50 5 -53 10 -5 8 -11 8 -20 0 -9 -8 -15 -8 -20 0 -3 5 -10 10 -14 10z"/>
<path d="M327 180 c-7 0 -23 -9 -37 -20 -14 -10 -46 -29 -70 -42 -25 -13 -45
-28 -44 -33 0 -6 12 -14 25 -19 21 -7 34 -2 77 29 52 37 52 37 52 -9 0 -41 2
-46 23 -46 13 0 28 5 35 12 7 7 12 21 12 33 0 11 -14 37 -31 58 -17 20 -36 37
-42 37z"/>
<path d="M59 140 c-11 0 -22 -7 -25 -15 -3 -8 -4 -20 -1 -27 2 -7 0 -23 -4
-35 -8 -21 -6 -23 26 -23 24 0 37 6 45 20 8 15 7 27 -5 50 -9 18 -23 30 -36
30z"/>
</g>
</svg>
