<?xml version="1.0" standalone="no"?>
<!DOCTYPE svg PUBLIC "-//W3C//DTD SVG 20010904//EN"
 "http://www.w3.org/TR/2001/REC-SVG-20010904/DTD/svg10.dtd">
<svg version="1.0" xmlns="http://www.w3.org/2000/svg"
 width="56.000000pt" height="56.000000pt" viewBox="0 0 56.000000 56.000000"
 preserveAspectRatio="xMidYMid meet">
<metadata>
Created by potrace 1.16, written by Peter Selinger 2001-2019
</metadata>
<g transform="translate(0.000000,56.000000) scale(0.100000,-0.100000)"
fill="#000000" stroke="none">
<path d="M17 530 c-16 0 -18 -5 -12 -27 3 -16 13 -39 22 -51 9 -16 21 -22 33
-19 10 3 44 -1 76 -9 32 -7 70 -18 86 -25 15 -6 28 -17 28 -24 0 -8 11 -22 25
-33 14 -11 25 -22 25 -25 0 -4 10 -21 23 -39 12 -18 34 -49 49 -68 14 -19 33
-51 42 -70 9 -19 26 -52 36 -72 11 -20 30 -42 42 -49 18 -10 24 -8 34 7 7 11
18 24 24 31 5 7 10 19 10 27 0 8 -3 16 -7 18 -5 2 -20 18 -36 36 -15 19 -27
45 -27 59 0 17 -25 52 -77 111 -43 48 -84 95 -93 106 -8 10 -31 28 -50 41 -20
12 -51 26 -70 30 -19 4 -48 7 -64 7 -16 0 -45 8 -65 19 -19 10 -44 19 -54 19z"/>
<path d="M206 320 c-8 0 -18 -4 -21 -10 -3 -5 3 -10 14 -10 12 0 21 5 21 10 0
6 -6 10 -14 10z"/>
<path d="M218 199 c-7 0 -21 -3 -30 -7 -12 -5 -15 -11 -8 -22 7 -11 14 -12 27
-4 9 6 19 16 21 22 2 7 -2 12 -10 11z"/>
<path d="M225 136 c-5 2 -18 -3 -29 -11 -11 -8 -16 -20 -12 -30 3 -10 15 -15
28 -13 17 2 23 10 23 27 0 13 -4 26 -10 27z"/>
</g>
</svg>
