<?xml version="1.0" standalone="no"?>
<!DOCTYPE svg PUBLIC "-//W3C//DTD SVG 20010904//EN"
 "http://www.w3.org/TR/2001/REC-SVG-20010904/DTD/svg10.dtd">
<svg version="1.0" xmlns="http://www.w3.org/2000/svg"
 width="56.000000pt" height="56.000000pt" viewBox="0 0 56.000000 56.000000"
 preserveAspectRatio="xMidYMid meet">
<metadata>
Created by potrace 1.16, written by Peter Selinger 2001-2019
</metadata>
<g transform="translate(0.000000,56.000000) scale(0.100000,-0.100000)"
fill="#000000" stroke="none">
<path d="M299 450 c-12 0 -19 -5 -17 -12 3 -7 12 -14 21 -16 10 -2 17 3 17 12
0 10 -9 16 -21 16z"/>
<path d="M20 412 c-20 22 -20 22 -20 -14 0 -20 4 -48 9 -61 5 -13 17 -27 25
-30 9 -4 28 -1 41 5 26 12 26 12 -5 31 -16 10 -30 25 -30 33 0 8 -9 24 -20 36z"/>
<path d="M320 383 c-21 11 -40 11 -117 -1 -79 -12 -93 -17 -93 -33 0 -12 7
-19 18 -19 10 0 22 4 28 9 5 6 35 11 67 12 32 1 62 -2 65 -8 4 -6 22 -18 41
-28 19 -9 58 -41 87 -71 29 -29 65 -71 80 -94 15 -23 35 -40 45 -40 14 0 19 7
19 30 0 22 -11 40 -39 68 -21 20 -46 52 -55 70 -10 18 -27 37 -39 43 -12 5
-35 18 -52 29 -16 11 -41 25 -55 33z"/>
<path d="M120 130 c-5 0 -10 -7 -10 -15 0 -8 5 -15 10 -15 6 0 10 7 10 15 0 8
-4 15 -10 15z"/>
</g>
</svg>
