<?xml version="1.0" standalone="no"?>
<!DOCTYPE svg PUBLIC "-//W3C//DTD SVG 20010904//EN"
 "http://www.w3.org/TR/2001/REC-SVG-20010904/DTD/svg10.dtd">
<svg version="1.0" xmlns="http://www.w3.org/2000/svg"
 width="56.000000pt" height="56.000000pt" viewBox="0 0 56.000000 56.000000"
 preserveAspectRatio="xMidYMid meet">
<metadata>
Created by potrace 1.16, written by Peter Selinger 2001-2019
</metadata>
<g transform="translate(0.000000,56.000000) scale(0.100000,-0.100000)"
fill="#000000" stroke="none">
<path d="M255 401 c-16 2 -55 1 -85 -3 -30 -4 -81 -13 -113 -20 -32 -7 -57
-18 -57 -25 0 -7 14 -20 31 -28 25 -13 37 -14 67 -4 20 6 41 15 47 20 5 5 32
9 61 9 44 0 61 -6 115 -42 35 -23 66 -45 69 -48 3 -3 31 -25 62 -48 31 -24 58
-48 60 -54 2 -6 13 -8 26 -4 17 6 22 15 22 39 0 29 -9 38 -93 94 -50 34 -101
66 -112 69 -11 4 -31 15 -45 24 -14 10 -38 19 -55 21z"/>
</g>
</svg>
