<?xml version="1.0" standalone="no"?>
<!DOCTYPE svg PUBLIC "-//W3C//DTD SVG 20010904//EN"
 "http://www.w3.org/TR/2001/REC-SVG-20010904/DTD/svg10.dtd">
<svg version="1.0" xmlns="http://www.w3.org/2000/svg"
 width="56.000000pt" height="56.000000pt" viewBox="0 0 56.000000 56.000000"
 preserveAspectRatio="xMidYMid meet">
<metadata>
Created by potrace 1.16, written by Peter Selinger 2001-2019
</metadata>
<g transform="translate(0.000000,56.000000) scale(0.100000,-0.100000)"
fill="#000000" stroke="none">
<path d="M202 440 c-10 0 -27 -8 -38 -18 -10 -9 -52 -42 -91 -71 -44 -32 -73
-61 -73 -72 0 -10 10 -30 23 -45 20 -23 26 -25 44 -15 12 6 61 11 109 11 48 0
101 -4 118 -9 17 -6 56 -17 86 -26 30 -8 60 -19 67 -23 7 -4 9 -13 5 -19 -4
-6 -16 -12 -27 -14 -11 -3 -19 -9 -18 -14 2 -6 26 -11 55 -13 28 -2 62 -1 75
3 13 3 23 13 23 21 0 9 -12 26 -27 38 -15 11 -37 26 -48 31 -11 6 -40 17 -65
24 -25 7 -55 17 -68 22 -13 5 -78 12 -145 15 -67 3 -133 8 -146 10 -24 5 -24
5 3 30 15 14 37 31 49 38 12 6 41 25 64 41 23 17 42 36 43 43 0 6 -8 12 -18
12z"/>
</g>
</svg>
