<?xml version="1.0" standalone="no"?>
<!DOCTYPE svg PUBLIC "-//W3C//DTD SVG 20010904//EN"
 "http://www.w3.org/TR/2001/REC-SVG-20010904/DTD/svg10.dtd">
<svg version="1.0" xmlns="http://www.w3.org/2000/svg"
 width="56.000000pt" height="56.000000pt" viewBox="0 0 56.000000 56.000000"
 preserveAspectRatio="xMidYMid meet">
<metadata>
Created by potrace 1.16, written by Peter Selinger 2001-2019
</metadata>
<g transform="translate(0.000000,56.000000) scale(0.100000,-0.100000)"
fill="#000000" stroke="none">
<path d="M285 460 c-13 0 -27 -5 -30 -10 -4 -6 -40 -33 -80 -60 -41 -28 -81
-50 -90 -50 -8 0 -15 -4 -15 -10 0 -5 -16 -20 -35 -32 -19 -13 -35 -31 -35
-40 0 -9 9 -20 20 -23 13 -4 30 1 46 14 15 12 33 21 40 21 7 0 15 8 18 18 3
10 20 26 36 36 22 12 40 15 63 10 17 -3 47 -17 67 -29 19 -12 51 -37 70 -54
19 -17 47 -39 63 -48 15 -10 27 -21 27 -25 0 -4 7 -8 15 -8 8 0 22 -12 32 -28
10 -15 22 -30 28 -34 5 -4 16 -8 23 -8 7 0 12 15 12 40 0 23 -5 40 -11 40 -6
0 -26 12 -44 28 -18 15 -62 48 -97 73 -35 26 -87 59 -116 75 -28 16 -50 34
-49 39 2 6 20 18 40 28 20 10 35 23 31 28 -3 5 -16 9 -29 9z"/>
<path d="M372 120 c-32 0 -62 -3 -65 -6 -4 -4 -4 -11 -1 -15 3 -5 32 -9 65 -9
46 0 59 3 59 15 0 12 -13 15 -58 15z"/>
</g>
</svg>
