<?xml version="1.0" standalone="no"?>
<!DOCTYPE svg PUBLIC "-//W3C//DTD SVG 20010904//EN"
 "http://www.w3.org/TR/2001/REC-SVG-20010904/DTD/svg10.dtd">
<svg version="1.0" xmlns="http://www.w3.org/2000/svg"
 width="56.000000pt" height="56.000000pt" viewBox="0 0 56.000000 56.000000"
 preserveAspectRatio="xMidYMid meet">
<metadata>
Created by potrace 1.16, written by Peter Selinger 2001-2019
</metadata>
<g transform="translate(0.000000,56.000000) scale(0.100000,-0.100000)"
fill="#000000" stroke="none">
<path d="M235 440 c-18 0 -38 -6 -42 -12 -4 -7 -19 -19 -33 -27 -14 -8 -50
-27 -81 -42 -31 -15 -61 -35 -68 -43 -8 -9 -11 -26 -7 -40 3 -13 13 -27 22
-30 9 -4 22 -2 28 3 6 4 36 22 66 38 30 17 72 33 92 36 25 4 38 1 42 -8 2 -7
19 -16 37 -20 17 -4 45 -19 62 -34 17 -14 62 -54 99 -89 61 -56 70 -61 88 -50
11 7 20 20 20 28 0 8 -21 30 -48 47 -26 18 -58 43 -72 56 -14 12 -45 36 -70
53 -25 16 -56 35 -70 41 -14 6 -37 14 -52 17 -16 4 -28 12 -28 20 0 7 11 18
25 24 14 6 25 16 25 22 0 5 -16 10 -35 10z"/>
</g>
</svg>
