<?xml version="1.0" standalone="no"?>
<!DOCTYPE svg PUBLIC "-//W3C//DTD SVG 20010904//EN"
 "http://www.w3.org/TR/2001/REC-SVG-20010904/DTD/svg10.dtd">
<svg version="1.0" xmlns="http://www.w3.org/2000/svg"
 width="56.000000pt" height="56.000000pt" viewBox="0 0 56.000000 56.000000"
 preserveAspectRatio="xMidYMid meet">
<metadata>
Created by potrace 1.16, written by Peter Selinger 2001-2019
</metadata>
<g transform="translate(0.000000,56.000000) scale(0.100000,-0.100000)"
fill="#000000" stroke="none">
<path d="M230 364 c-16 3 -49 -7 -89 -26 -57 -28 -68 -30 -103 -21 -33 9 -38
8 -38 -6 0 -9 7 -27 16 -39 8 -12 25 -22 37 -21 12 0 36 9 52 19 17 11 44 26
62 34 17 8 46 16 65 17 20 2 53 -6 83 -21 28 -13 53 -28 56 -33 3 -4 18 -14
32 -22 15 -7 29 -10 32 -5 3 5 1 11 -5 15 -5 3 -10 15 -10 26 0 14 -7 19 -27
19 -16 0 -33 4 -39 8 -7 4 -13 16 -15 27 -3 16 -13 21 -44 22 -22 1 -51 5 -65
7z"/>
<path d="M503 260 c-10 0 -26 -7 -37 -15 -11 -8 -16 -21 -13 -30 4 -8 11 -15
17 -15 6 0 18 -7 26 -15 9 -8 26 -15 40 -15 20 0 24 5 24 29 0 21 -6 32 -20
36 -11 3 -20 11 -20 16 0 5 -8 9 -17 9z"/>
<path d="M213 240 c-13 0 -23 -6 -23 -13 0 -8 8 -21 18 -30 10 -10 26 -17 34
-17 9 0 21 6 27 14 10 11 7 17 -11 30 -12 9 -33 16 -45 16z"/>
</g>
</svg>
