<?xml version="1.0" standalone="no"?>
<!DOCTYPE svg PUBLIC "-//W3C//DTD SVG 20010904//EN"
 "http://www.w3.org/TR/2001/REC-SVG-20010904/DTD/svg10.dtd">
<svg version="1.0" xmlns="http://www.w3.org/2000/svg"
 width="56.000000pt" height="56.000000pt" viewBox="0 0 56.000000 56.000000"
 preserveAspectRatio="xMidYMid meet">
<metadata>
Created by potrace 1.16, written by Peter Selinger 2001-2019
</metadata>
<g transform="translate(0.000000,56.000000) scale(0.100000,-0.100000)"
fill="#000000" stroke="none">
<path d="M190 344 c-95 1 -173 -1 -175 -4 -1 -3 -6 -20 -10 -37 -6 -29 -4 -33
14 -33 12 0 21 4 21 8 0 5 17 14 39 20 21 7 86 12 144 12 60 0 109 -4 112 -10
3 -5 15 -10 26 -10 12 0 53 -22 93 -50 40 -28 80 -50 89 -50 10 0 17 8 17 18
0 11 -27 36 -71 65 -39 26 -79 47 -88 47 -9 0 -22 5 -29 12 -7 7 -67 12 -182
12z"/>
</g>
</svg>
