<?xml version="1.0" standalone="no"?>
<!DOCTYPE svg PUBLIC "-//W3C//DTD SVG 20010904//EN"
 "http://www.w3.org/TR/2001/REC-SVG-20010904/DTD/svg10.dtd">
<svg version="1.0" xmlns="http://www.w3.org/2000/svg"
 width="56.000000pt" height="56.000000pt" viewBox="0 0 56.000000 56.000000"
 preserveAspectRatio="xMidYMid meet">
<metadata>
Created by potrace 1.16, written by Peter Selinger 2001-2019
</metadata>
<g transform="translate(0.000000,56.000000) scale(0.100000,-0.100000)"
fill="#000000" stroke="none">
<path d="M135 380 c-7 0 -22 -10 -34 -22 -11 -13 -35 -43 -53 -67 -18 -24 -37
-49 -42 -56 -5 -7 -6 -20 -3 -29 4 -9 13 -16 20 -16 8 0 41 16 72 35 32 19 81
41 109 49 28 8 78 19 110 25 33 6 74 11 92 11 17 0 37 -6 43 -13 8 -11 5 -17
-17 -28 -15 -7 -44 -24 -64 -38 -21 -13 -38 -30 -38 -37 0 -7 4 -15 10 -19 5
-3 33 10 62 29 29 19 64 37 78 40 14 3 37 7 53 11 18 3 27 12 27 24 0 13 -19
28 -64 50 -36 17 -76 31 -90 31 -14 0 -28 -5 -31 -10 -4 -6 -10 -8 -14 -6 -4
3 -30 1 -57 -3 -27 -5 -76 -16 -108 -25 -33 -9 -66 -15 -74 -14 -10 2 -7 11
12 32 13 17 23 33 20 38 -3 4 -11 8 -19 8z"/>
</g>
</svg>
