<?xml version="1.0" standalone="no"?>
<!DOCTYPE svg PUBLIC "-//W3C//DTD SVG 20010904//EN"
 "http://www.w3.org/TR/2001/REC-SVG-20010904/DTD/svg10.dtd">
<svg version="1.0" xmlns="http://www.w3.org/2000/svg"
 width="56.000000pt" height="56.000000pt" viewBox="0 0 56.000000 56.000000"
 preserveAspectRatio="xMidYMid meet">
<metadata>
Created by potrace 1.16, written by Peter Selinger 2001-2019
</metadata>
<g transform="translate(0.000000,56.000000) scale(0.100000,-0.100000)"
fill="#000000" stroke="none">
<path d="M97 400 c-1 0 -11 -6 -22 -12 -11 -6 -32 -22 -47 -36 -21 -19 -28
-35 -28 -64 0 -23 5 -38 13 -39 6 -1 19 0 27 1 8 1 33 10 54 21 22 10 54 21
73 25 28 5 33 3 33 -12 -1 -11 -7 -30 -15 -44 -8 -14 -14 -37 -15 -52 0 -22 5
-28 20 -28 13 0 24 10 30 26 6 15 11 47 13 73 1 25 6 49 12 53 5 4 30 4 55 1
25 -3 63 -14 86 -25 23 -10 51 -28 63 -39 17 -16 20 -24 10 -35 -9 -11 -7 -15
7 -20 11 -3 27 -10 36 -15 10 -5 27 -9 38 -9 11 0 20 7 20 15 0 8 -10 27 -22
42 -13 14 -35 40 -49 57 -15 17 -45 41 -68 53 -24 13 -68 24 -108 28 -52 5
-86 1 -143 -14 -41 -11 -76 -18 -79 -15 -2 2 6 15 18 28 19 21 20 24 6 30 -9
3 -17 6 -18 6z"/>
<path d="M330 280 c-13 0 -24 -10 -30 -26 -6 -14 -10 -31 -10 -38 0 -7 -11
-18 -25 -24 -14 -6 -25 -16 -25 -21 0 -5 25 -11 56 -13 31 -1 60 0 65 3 5 3 1
13 -10 23 -16 14 -18 23 -10 43 5 13 9 31 9 39 0 8 -9 14 -20 14z"/>
</g>
</svg>
