<?xml version="1.0" standalone="no"?>
<!DOCTYPE svg PUBLIC "-//W3C//DTD SVG 20010904//EN"
 "http://www.w3.org/TR/2001/REC-SVG-20010904/DTD/svg10.dtd">
<svg version="1.0" xmlns="http://www.w3.org/2000/svg"
 width="128.000000pt" height="128.000000pt" viewBox="0 0 128.000000 128.000000"
 preserveAspectRatio="xMidYMid meet">
<metadata>
Created by potrace 1.16, written by Peter Selinger 2001-2019
</metadata>
<g transform="translate(0.000000,128.000000) scale(0.100000,-0.100000)"
fill="#000000" stroke="none">
<path d="M435 1236 c-29 40 -30 41 -49 23 -16 -16 -17 -23 -8 -41 6 -13 14
-33 17 -45 3 -12 19 -36 35 -52 21 -24 37 -31 64 -31 30 0 36 4 36 21 0 11
-15 35 -32 52 -18 18 -46 50 -63 73z"/>
<path d="M1004 1280 c-24 0 -44 -4 -44 -9 0 -5 14 -14 31 -20 18 -6 35 -11 39
-11 4 0 10 9 13 20 5 18 0 20 -39 20z"/>
<path d="M745 1198 c-16 0 -47 -7 -68 -15 -21 -9 -36 -20 -34 -26 2 -6 24 -15
51 -22 26 -7 53 -18 59 -24 8 -8 11 -47 10 -119 -1 -59 -7 -143 -13 -187 -6
-44 -17 -91 -24 -105 -6 -14 -21 -26 -31 -28 -11 -2 -30 -13 -42 -24 -12 -11
-19 -26 -16 -34 3 -8 13 -14 23 -14 11 0 22 -5 25 -10 4 -6 -3 -26 -14 -44
-12 -19 -34 -38 -49 -43 -15 -6 -44 -16 -64 -22 -32 -10 -41 -10 -60 3 -12 9
-30 16 -39 16 -9 0 -20 -7 -23 -16 -3 -8 -10 -13 -15 -10 -6 4 -5 19 1 39 6
17 15 41 20 53 5 11 11 31 13 45 2 13 6 38 10 55 6 26 3 36 -15 54 -19 19 -30
22 -73 17 -40 -5 -54 -3 -75 13 -13 11 -33 20 -42 20 -10 0 -20 -6 -22 -12 -3
-7 -1 -49 4 -92 4 -44 11 -82 14 -85 3 -3 25 5 50 18 31 17 48 21 55 14 8 -8
6 -29 -6 -69 -10 -33 -28 -87 -42 -121 -25 -63 -25 -63 2 -108 14 -26 34 -49
42 -52 10 -4 26 5 45 25 15 18 28 38 28 46 0 8 24 23 53 35 28 11 76 28 105
36 32 10 52 21 52 30 0 8 5 15 11 15 6 0 23 -12 38 -28 15 -15 33 -37 39 -49
7 -12 12 -32 12 -45 0 -13 9 -41 20 -63 11 -22 20 -47 20 -56 0 -9 -9 -24 -20
-34 -11 -10 -28 -15 -39 -12 -11 3 -28 -1 -38 -9 -10 -7 -30 -14 -45 -14 -15
0 -60 -20 -100 -45 -40 -25 -86 -56 -103 -70 -30 -24 -30 -24 36 -25 57 0 69
3 88 24 13 14 29 22 35 20 7 -3 46 10 87 27 59 25 94 33 173 39 86 6 101 10
118 29 10 13 18 29 18 37 0 8 -28 40 -62 72 -61 59 -61 59 -51 101 11 40 10
42 -26 70 -20 15 -46 33 -58 40 -13 6 -23 16 -23 22 0 5 8 12 18 15 9 3 34 13
55 22 21 8 42 24 48 33 5 10 30 24 56 31 35 10 54 23 70 47 13 19 23 49 23 67
0 21 -8 41 -21 53 -11 10 -36 22 -55 26 -20 3 -51 1 -70 -5 -19 -7 -42 -9 -50
-6 -11 4 -14 12 -9 24 4 9 11 33 14 52 5 27 12 36 30 38 13 2 47 18 75 35 28
17 59 38 69 47 9 8 17 22 17 31 0 9 -25 35 -56 59 -45 34 -62 41 -92 38 -37
-3 -37 -3 -37 47 0 49 0 49 -40 57 -22 4 -53 7 -70 6z m109 -148 c7 0 22 -9
34 -20 12 -12 22 -23 22 -26 0 -3 -12 -21 -26 -40 -15 -19 -33 -34 -40 -34
-10 0 -14 13 -14 44 0 24 3 51 6 60 3 9 12 16 18 16z m17 -360 c10 0 21 -5 24
-10 4 -6 -1 -23 -11 -38 -10 -15 -25 -32 -33 -39 -9 -7 -24 -13 -35 -13 -16 0
-18 5 -12 33 3 17 16 40 27 50 12 9 29 17 40 17z"/>
<path d="M564 960 c-8 0 -17 -6 -20 -14 -3 -8 0 -24 6 -35 6 -12 8 -26 5 -31
-3 -5 4 -38 16 -75 12 -39 26 -65 35 -65 7 0 21 14 29 31 12 22 14 43 9 75 -3
25 -13 48 -20 51 -8 3 -14 15 -14 28 0 13 -7 26 -16 29 -9 3 -22 6 -30 6z"/>
<path d="M573 609 c-4 0 -14 -3 -21 -6 -7 -3 -22 -23 -33 -44 -17 -34 -18 -40
-4 -45 8 -3 22 -4 29 -1 8 3 22 20 31 37 9 18 14 38 11 46 -3 8 -9 14 -13 13z"/>
</g>
</svg>
