<?xml version="1.0" standalone="no"?>
<!DOCTYPE svg PUBLIC "-//W3C//DTD SVG 20010904//EN"
 "http://www.w3.org/TR/2001/REC-SVG-20010904/DTD/svg10.dtd">
<svg version="1.0" xmlns="http://www.w3.org/2000/svg"
 width="128.000000pt" height="128.000000pt" viewBox="0 0 128.000000 128.000000"
 preserveAspectRatio="xMidYMid meet">
<metadata>
Created by potrace 1.16, written by Peter Selinger 2001-2019
</metadata>
<g transform="translate(0.000000,128.000000) scale(0.100000,-0.100000)"
fill="#000000" stroke="none">
<path d="M713 1259 c-6 1 -15 -3 -18 -9 -3 -5 -17 -10 -30 -10 -16 0 -35 -13
-55 -39 -17 -21 -40 -54 -50 -72 -10 -19 -26 -49 -35 -67 -8 -18 -24 -41 -35
-52 -11 -11 -24 -20 -29 -20 -5 0 -21 14 -35 32 -21 27 -26 30 -31 16 -4 -9
-1 -42 5 -74 10 -49 10 -59 -4 -72 -13 -13 -35 -16 -102 -14 -82 1 -85 1 -82
-20 2 -14 15 -25 37 -33 25 -8 48 -8 80 -1 25 6 72 25 104 43 32 18 74 34 94
35 28 2 38 -1 41 -14 2 -9 -13 -38 -32 -65 -20 -26 -45 -65 -56 -86 -16 -29
-25 -37 -38 -31 -9 3 -26 7 -37 8 -11 1 -21 -6 -23 -17 -2 -12 4 -20 17 -24
12 -3 21 -9 21 -13 0 -4 -6 -19 -13 -33 -7 -14 -41 -47 -75 -74 -37 -28 -64
-58 -68 -73 -3 -14 -10 -38 -16 -53 -8 -20 -8 -31 0 -39 8 -8 26 2 64 36 29
25 56 46 61 46 4 0 10 -6 13 -14 3 -8 -20 -67 -51 -132 -31 -65 -65 -129 -75
-142 -11 -13 -22 -39 -26 -57 -3 -18 -3 -43 1 -54 4 -15 15 -21 34 -21 16 0
35 7 42 16 8 9 21 44 29 78 10 40 20 62 31 64 11 2 24 -12 38 -41 11 -24 21
-49 21 -55 0 -7 6 -12 14 -12 7 0 33 15 57 32 25 18 53 38 63 43 10 6 27 33
38 60 10 28 22 68 26 90 3 22 6 97 7 167 0 123 -1 128 -25 153 -23 23 -28 24
-63 13 -25 -8 -41 -8 -47 -2 -7 7 0 24 20 52 16 23 30 44 30 46 0 3 10 20 23
38 13 18 35 47 50 63 14 17 39 45 55 64 28 33 31 34 101 33 40 0 78 -5 84 -11
6 -6 20 -11 32 -11 12 0 30 6 40 14 19 14 19 15 1 35 -11 12 -31 21 -46 21
-14 0 -31 5 -38 12 -9 9 -17 9 -36 -1 -18 -10 -29 -10 -45 -2 -12 7 -21 21
-21 34 0 12 10 40 23 62 16 29 21 50 17 79 -4 31 -12 43 -35 57 -16 10 -35 18
-42 18z m-24 -39 c4 0 15 -6 25 -13 14 -10 17 -23 13 -53 -2 -21 -16 -66 -30
-99 -22 -51 -32 -62 -67 -77 -22 -10 -53 -19 -68 -20 -25 -3 -27 0 -25 28 2
17 9 44 18 60 8 16 15 36 15 45 0 8 25 41 56 72 31 31 59 57 63 57z m-153
-630 c16 0 24 -8 28 -27 3 -16 2 -66 -3 -113 -6 -61 -17 -104 -39 -153 -17
-37 -38 -70 -46 -73 -9 -3 -31 4 -51 16 -19 12 -35 28 -35 36 0 8 9 43 20 77
12 34 24 71 29 82 5 11 13 36 20 56 6 19 11 43 11 52 0 9 10 23 22 31 12 9 32
16 44 16z"/>
<path d="M951 579 c-20 0 -43 -4 -51 -8 -8 -5 -26 -13 -40 -19 -14 -6 -54 -15
-89 -21 -36 -6 -69 -15 -74 -20 -6 -6 -1 -23 13 -45 12 -20 26 -36 32 -36 6 0
24 11 40 26 17 14 52 36 77 48 25 13 56 26 67 30 18 5 26 0 44 -28 21 -36 21
-36 -3 -68 -13 -18 -27 -46 -31 -62 -4 -16 -43 -68 -87 -117 -43 -49 -79 -93
-79 -98 0 -5 -11 -13 -24 -18 -13 -4 -54 -36 -90 -70 -36 -35 -66 -65 -66 -68
0 -3 15 -5 33 -5 26 0 45 11 90 52 32 29 122 117 202 196 131 130 145 147 145
178 0 19 -7 49 -17 67 -9 18 -25 44 -36 60 -16 21 -29 27 -56 26z"/>
</g>
</svg>
