<?xml version="1.0" standalone="no"?>
<!DOCTYPE svg PUBLIC "-//W3C//DTD SVG 20010904//EN"
 "http://www.w3.org/TR/2001/REC-SVG-20010904/DTD/svg10.dtd">
<svg version="1.0" xmlns="http://www.w3.org/2000/svg"
 width="128.000000pt" height="128.000000pt" viewBox="0 0 128.000000 128.000000"
 preserveAspectRatio="xMidYMid meet">
<metadata>
Created by potrace 1.16, written by Peter Selinger 2001-2019
</metadata>
<g transform="translate(0.000000,128.000000) scale(0.100000,-0.100000)"
fill="#000000" stroke="none">
<path d="M455 1259 c-16 0 -41 -5 -55 -11 -14 -6 -62 -20 -108 -32 -46 -11
-84 -25 -84 -31 -1 -5 19 -20 43 -32 27 -13 73 -24 119 -28 41 -3 86 -11 99
-16 20 -8 29 -5 52 17 16 15 29 38 29 51 0 14 -13 36 -32 54 -22 19 -43 29
-63 28z"/>
<path d="M795 1220 c-12 0 -30 -9 -39 -19 -10 -11 -33 -27 -52 -36 -19 -9 -34
-22 -34 -30 0 -8 5 -15 10 -15 6 0 22 7 35 16 13 8 34 14 47 12 18 -2 22 -9
20 -28 -1 -14 -3 -38 -5 -55 -2 -16 -13 -50 -25 -75 -12 -25 -22 -50 -22 -56
0 -7 -11 -19 -24 -27 -21 -14 -26 -14 -36 -2 -7 8 -19 15 -26 15 -8 0 -14 -9
-14 -20 0 -11 7 -20 15 -20 8 0 15 -9 15 -20 0 -12 -11 -31 -24 -43 -12 -12
-29 -46 -36 -75 -10 -36 -11 -55 -3 -63 6 -6 24 -11 42 -11 20 -1 40 7 56 22
24 23 24 23 70 -19 25 -23 56 -46 70 -51 14 -5 25 -14 25 -20 0 -6 -12 -39
-26 -73 -15 -34 -26 -76 -26 -94 1 -18 -3 -35 -8 -38 -6 -3 -10 -17 -10 -30 0
-12 7 -25 15 -29 10 -4 13 -14 9 -34 -5 -23 -1 -30 19 -39 14 -7 28 -9 31 -6
3 3 3 17 0 29 -4 13 -3 24 0 24 4 0 17 -12 30 -27 13 -15 28 -23 34 -19 7 4
12 14 12 22 0 8 -13 23 -30 32 -26 15 -30 22 -30 63 0 25 5 50 10 55 6 6 24
49 40 95 20 58 26 89 19 100 -5 10 -21 27 -35 38 -15 12 -41 21 -58 21 -17 0
-46 9 -63 20 -18 11 -33 24 -33 30 0 5 15 17 33 26 17 9 50 29 72 43 22 15 56
32 75 39 19 8 51 18 70 24 19 5 43 17 53 26 10 9 17 25 15 36 -2 11 -18 31
-37 43 -19 13 -44 23 -56 23 -14 0 -27 -10 -35 -27 -8 -16 -14 -44 -14 -63 -1
-25 -6 -36 -18 -38 -15 -3 -18 4 -18 32 0 20 -4 36 -10 36 -5 0 -17 -11 -26
-26 -11 -16 -24 -24 -37 -22 -18 3 -21 11 -22 76 -1 43 3 76 9 80 6 3 20 6 31
7 17 0 20 8 23 54 3 47 0 57 -24 82 -15 16 -37 29 -49 29z m-67 -358 c15 -3
30 -10 34 -16 4 -6 8 -17 8 -23 0 -7 -6 -13 -12 -12 -7 0 -23 13 -35 28 -22
28 -22 28 5 23z m82 -2 c6 0 10 -7 10 -15 0 -8 -4 -15 -10 -15 -5 0 -10 7 -10
15 0 8 5 15 10 15z"/>
<path d="M1243 1147 c-6 2 -14 -1 -18 -7 -3 -5 -3 -19 0 -30 4 -11 13 -20 21
-20 11 0 14 8 12 27 -2 14 -8 28 -15 30z"/>
<path d="M544 1009 c-5 -1 -29 -9 -54 -18 -25 -9 -51 -20 -58 -25 -7 -4 -17
-18 -22 -30 -7 -17 -9 -17 -9 -3 -1 10 -9 17 -20 17 -10 0 -32 -7 -47 -15 -16
-8 -39 -15 -50 -15 -12 0 -39 -7 -60 -16 -22 -9 -50 -21 -63 -26 -22 -8 -23
-10 -9 -24 10 -10 43 -18 88 -22 41 -4 75 -12 77 -18 2 -6 -14 -29 -35 -51
-21 -21 -58 -53 -83 -69 -27 -19 -52 -46 -66 -74 -12 -25 -22 -48 -22 -53 -1
-4 8 -15 19 -25 12 -9 35 -17 53 -17 30 0 32 -2 31 -35 -1 -19 -8 -52 -16 -73
-8 -20 -40 -61 -71 -91 -31 -29 -57 -61 -57 -70 0 -9 7 -19 16 -23 8 -3 13
-12 10 -19 -3 -9 1 -14 12 -14 10 0 28 7 40 16 12 8 22 22 22 30 0 8 -9 14
-20 14 -11 0 -20 6 -20 13 0 7 5 18 12 25 7 7 19 12 28 12 9 0 27 11 39 24 12
13 31 51 41 86 10 34 17 67 14 74 -2 6 9 25 26 41 16 16 30 32 30 37 0 4 -8 8
-18 8 -10 0 -27 7 -38 15 -19 14 -19 14 3 15 12 0 25 -5 29 -11 3 -6 16 -8 28
-5 11 3 27 1 34 -3 10 -6 8 -10 -10 -14 -21 -6 -22 -7 -6 -23 14 -14 20 -15
32 -5 9 8 16 8 20 2 4 -6 4 -22 0 -36 -6 -24 -7 -25 -21 -8 -13 16 -13 15 -8
-14 4 -21 3 -33 -4 -33 -6 0 -11 -9 -11 -20 0 -11 4 -20 9 -20 6 0 7 -16 4
-35 -4 -23 -2 -35 6 -35 6 0 11 -7 11 -16 0 -11 -6 -15 -17 -11 -10 2 -22 6
-28 8 -5 2 -11 1 -12 -3 -2 -5 -3 -17 -3 -28 0 -17 3 -19 19 -10 11 5 22 10
25 10 3 0 6 -11 6 -25 0 -16 -6 -25 -16 -25 -13 0 -14 -3 -5 -13 6 -8 8 -17 4
-20 -3 -4 -9 -27 -13 -52 -5 -31 -3 -45 5 -45 6 0 16 5 22 11 9 9 9 17 0 31
-10 16 -9 22 4 31 9 7 19 28 23 47 4 19 11 44 15 55 5 11 13 32 19 46 6 15 8
36 5 47 -2 11 3 31 12 45 11 18 16 44 14 89 -1 34 -7 72 -14 84 -8 12 -30 29
-50 38 -25 12 -48 16 -73 12 -21 -4 -49 -9 -64 -12 -18 -4 -28 -1 -28 6 0 6
32 41 71 78 39 36 77 79 85 94 11 21 12 33 4 48 -6 11 -17 20 -25 20 -8 0 -15
5 -15 10 0 6 4 10 9 10 4 0 22 -5 40 -11 23 -8 31 -17 31 -35 0 -24 0 -24 83
-18 45 4 87 12 94 18 6 6 12 25 14 41 1 17 1 38 1 47 -1 9 -17 26 -36 37 -18
12 -37 20 -42 20z"/>
<path d="M1247 940 c-8 0 -17 -8 -20 -17 -4 -10 -16 -30 -29 -46 -16 -19 -19
-30 -11 -38 6 -6 23 -9 39 -7 27 3 29 6 32 56 2 40 0 52 -11 52z"/>
<path d="M1252 594 c-4 2 -19 -4 -32 -15 -14 -10 -31 -19 -37 -19 -7 0 -13 -9
-13 -20 0 -10 9 -24 20 -30 11 -6 20 -16 20 -23 0 -8 -16 -21 -36 -30 -29 -14
-35 -22 -32 -45 3 -25 6 -27 47 -25 24 1 51 5 59 8 12 4 12 8 2 20 -10 12 -10
21 -1 41 6 14 11 49 11 79 0 30 -4 56 -8 59z"/>
<path d="M608 520 c-15 0 -18 -10 -18 -69 0 -39 -4 -73 -10 -76 -5 -3 -10 -26
-10 -51 0 -25 -7 -61 -15 -81 -9 -21 -18 -54 -20 -74 -3 -24 0 -41 10 -49 8
-6 19 -9 25 -5 5 3 10 21 10 39 0 17 5 37 12 44 6 6 13 42 16 79 3 37 5 89 4
116 -1 45 1 47 27 47 15 0 35 -8 44 -18 10 -10 17 -22 17 -26 0 -4 14 -21 31
-38 23 -23 33 -28 42 -19 8 8 7 15 -5 27 -12 12 -14 23 -8 40 5 13 7 30 4 38
-3 8 -23 18 -44 24 -27 7 -42 6 -51 -2 -9 -8 -10 -5 -7 16 4 21 0 28 -16 32
-12 3 -29 6 -38 6z"/>
<path d="M1220 310 c-5 0 -16 -7 -25 -16 -12 -13 -14 -27 -9 -63 3 -25 10 -50
14 -54 4 -4 19 8 33 27 15 19 27 41 27 48 0 8 -7 24 -16 36 -8 12 -19 22 -24
22z"/>
<path d="M722 280 c-15 0 -40 -12 -55 -26 -17 -14 -27 -31 -23 -39 3 -8 12
-15 20 -15 9 0 20 9 26 19 6 12 17 17 28 14 10 -2 24 2 31 11 7 8 10 20 6 26
-3 5 -18 10 -33 10z"/>
<path d="M965 250 c-5 -1 -22 -8 -37 -16 -16 -8 -28 -18 -28 -23 0 -5 7 -14
16 -22 12 -10 20 -10 35 -1 17 11 21 9 31 -13 6 -14 16 -25 22 -25 6 0 5 -5
-2 -12 -9 -9 -5 -18 16 -41 15 -16 40 -43 56 -58 15 -16 33 -29 38 -29 5 0 15
13 21 30 6 17 17 30 23 30 7 0 14 -6 17 -14 3 -8 -1 -20 -9 -26 -8 -7 -14 -16
-14 -21 0 -5 22 -9 49 -9 33 0 51 5 54 14 3 8 0 22 -8 32 -11 15 -15 16 -29 5
-14 -12 -16 -11 -16 8 0 13 -18 38 -42 61 -24 22 -51 40 -60 40 -10 0 -18 4
-18 10 0 5 -24 25 -52 45 -29 19 -57 35 -63 35z m127 -162 c7 -3 15 -13 16
-22 3 -12 -1 -17 -10 -14 -7 3 -15 13 -16 22 -3 12 1 17 10 14z"/>
<path d="M305 240 c-9 0 -17 -6 -20 -12 -2 -7 -5 -22 -7 -33 -3 -17 -11 -20
-46 -18 -34 1 -42 -2 -42 -15 0 -9 6 -34 13 -55 8 -21 19 -43 25 -49 9 -9 23
-7 57 10 25 12 45 25 45 29 0 5 -7 26 -14 48 -9 26 -11 46 -5 57 5 9 9 21 9
27 0 6 -7 11 -15 11z"/>
<path d="M44 230 c-6 0 -17 -6 -23 -14 -7 -8 -11 -32 -9 -53 3 -34 6 -38 27
-35 14 1 33 10 42 18 14 13 16 21 8 42 -6 15 -16 30 -22 34 -7 4 -17 8 -23 8z"/>
</g>
</svg>
