<?xml version="1.0" standalone="no"?>
<!DOCTYPE svg PUBLIC "-//W3C//DTD SVG 20010904//EN"
 "http://www.w3.org/TR/2001/REC-SVG-20010904/DTD/svg10.dtd">
<svg version="1.0" xmlns="http://www.w3.org/2000/svg"
 width="128.000000pt" height="128.000000pt" viewBox="0 0 128.000000 128.000000"
 preserveAspectRatio="xMidYMid meet">
<metadata>
Created by potrace 1.16, written by Peter Selinger 2001-2019
</metadata>
<g transform="translate(0.000000,128.000000) scale(0.100000,-0.100000)"
fill="#000000" stroke="none">
<path d="M742 1260 c-18 0 -32 -5 -32 -12 0 -6 7 -19 16 -29 14 -16 14 -21 -5
-64 -11 -25 -37 -69 -58 -97 -21 -28 -49 -62 -63 -77 -14 -15 -40 -38 -59 -53
-26 -20 -32 -30 -26 -44 4 -11 10 -39 12 -64 2 -25 9 -57 16 -72 6 -16 16 -28
21 -28 5 0 15 8 22 18 7 9 14 22 14 29 0 7 15 27 33 46 17 19 40 37 50 41 10
3 17 12 15 19 -3 6 -27 14 -54 17 -35 4 -50 10 -52 21 -2 11 13 26 44 43 25
14 50 26 55 26 5 0 16 -14 24 -31 9 -17 14 -33 11 -36 -3 -3 4 -17 14 -31 11
-13 20 -32 20 -41 0 -9 7 -26 15 -37 8 -12 12 -24 8 -27 -3 -4 -5 -26 -5 -51
1 -43 -1 -46 -41 -68 -23 -13 -43 -31 -45 -39 -2 -9 4 -24 14 -33 15 -15 18
-15 40 -1 13 8 31 15 40 15 14 0 15 -7 8 -47 -5 -27 -8 -70 -7 -98 1 -27 -2
-79 -8 -115 -6 -35 -14 -69 -19 -75 -4 -5 -11 -25 -15 -43 -4 -18 -13 -36 -20
-38 -7 -3 -16 -21 -19 -39 -5 -26 -18 -42 -51 -65 -25 -17 -45 -38 -45 -47 0
-11 7 -14 28 -10 15 3 36 7 47 9 14 2 20 -2 19 -14 -1 -11 5 -18 15 -17 9 0
24 4 34 7 10 4 24 20 32 36 8 15 15 35 15 44 0 8 -8 21 -17 29 -16 13 -15 14
15 9 32 -5 32 -5 32 44 0 44 3 50 21 50 19 0 20 4 15 78 -3 42 -6 82 -6 87 -1
6 1 55 3 110 3 55 8 108 12 118 4 9 11 17 16 17 5 0 18 9 29 20 12 12 26 18
32 14 6 -4 43 -8 82 -10 39 -1 94 3 121 8 28 5 56 17 63 26 6 9 12 24 12 34 0
14 -8 18 -34 18 -25 0 -35 5 -39 20 -4 16 -13 20 -44 20 -21 0 -56 -7 -78 -15
-22 -7 -58 -22 -79 -33 -22 -11 -48 -17 -58 -14 -11 2 -24 16 -30 31 -6 18 -6
37 3 63 6 20 18 39 25 42 8 3 11 12 8 21 -4 9 1 17 10 21 10 4 25 -1 35 -11
18 -15 22 -15 50 -1 16 9 37 16 46 16 8 0 16 8 17 18 0 9 0 28 -1 41 -1 13
-16 41 -33 62 -21 26 -45 43 -70 50 -21 5 -43 7 -48 4 -6 -4 0 -19 15 -37 14
-16 25 -35 25 -41 0 -7 -16 -33 -35 -59 -20 -27 -40 -48 -45 -48 -6 0 -13 7
-16 15 -4 9 -31 32 -61 52 -30 20 -57 42 -60 49 -3 8 9 31 26 52 17 22 35 51
41 66 5 15 10 44 10 65 0 24 -7 44 -18 54 -10 10 -33 17 -50 17z m110 -540
c10 0 18 -7 18 -15 0 -8 -9 -15 -19 -15 -11 0 -22 4 -25 9 -3 4 -3 11 1 15 3
3 15 6 25 6z"/>
<path d="M354 1060 c-12 0 -37 -15 -55 -32 -18 -18 -37 -32 -41 -30 -5 1 -31
-5 -59 -14 -27 -9 -61 -25 -74 -36 -17 -13 -25 -29 -25 -51 0 -18 -11 -77 -25
-132 -14 -55 -25 -127 -25 -159 0 -58 1 -60 51 -107 27 -27 57 -49 65 -49 11
0 15 11 14 43 0 23 2 69 5 102 3 33 9 63 13 66 4 3 29 14 55 23 26 10 61 29
77 43 17 14 35 23 42 21 7 -3 20 10 30 29 10 18 18 40 18 49 0 9 8 38 17 65
15 40 15 53 5 69 -6 11 -12 25 -12 32 0 6 -12 25 -27 40 -15 15 -37 28 -49 28z
m-5 -131 c10 1 11 -6 6 -26 -3 -16 -9 -44 -12 -64 -4 -30 -13 -41 -57 -67 -29
-18 -56 -32 -61 -32 -4 0 -17 -8 -28 -17 -18 -17 -19 -17 -33 2 -8 11 -14 42
-13 74 0 31 -1 67 -3 81 -3 25 -2 25 60 22 34 -2 68 0 75 6 7 5 21 12 32 15
11 2 26 5 34 6z"/>
<path d="M627 620 c-1 0 -10 -5 -19 -11 -10 -5 -18 -19 -18 -29 0 -11 -3 -20
-6 -20 -3 0 -14 5 -24 10 -13 7 -21 7 -25 0 -3 -5 -13 -10 -21 -10 -7 0 -43
-13 -77 -30 -35 -16 -69 -30 -74 -30 -6 0 -17 -8 -24 -18 -8 -10 -44 -31 -81
-46 -41 -17 -68 -34 -68 -43 0 -11 -7 -13 -30 -8 -16 4 -43 4 -60 0 -17 -4
-30 -13 -30 -20 0 -8 34 -37 75 -64 42 -28 84 -51 95 -51 15 0 20 7 20 25 0
14 11 37 25 50 13 14 33 25 45 25 11 0 20 7 20 15 0 8 12 26 28 40 15 14 33
23 39 20 7 -2 18 5 23 16 9 16 18 18 44 14 22 -5 36 -2 45 8 7 9 11 24 9 34
-3 15 6 19 52 23 30 3 65 11 78 18 12 7 22 17 22 23 0 5 -7 12 -15 15 -8 4
-15 12 -15 19 0 7 -7 16 -16 19 -9 3 -16 6 -17 6z"/>
</g>
</svg>
