<?xml version="1.0" standalone="no"?>
<!DOCTYPE svg PUBLIC "-//W3C//DTD SVG 20010904//EN"
 "http://www.w3.org/TR/2001/REC-SVG-20010904/DTD/svg10.dtd">
<svg version="1.0" xmlns="http://www.w3.org/2000/svg"
 width="128.000000pt" height="128.000000pt" viewBox="0 0 128.000000 128.000000"
 preserveAspectRatio="xMidYMid meet">
<metadata>
Created by potrace 1.16, written by Peter Selinger 2001-2019
</metadata>
<g transform="translate(0.000000,128.000000) scale(0.100000,-0.100000)"
fill="#000000" stroke="none">
<path d="M643 1239 c-65 1 -114 -3 -118 -9 -3 -6 3 -14 15 -18 12 -5 48 -5 80
-1 32 4 78 3 101 -1 29 -5 52 -18 70 -38 25 -28 26 -33 17 -83 -9 -51 -9 -53
21 -76 30 -24 30 -24 9 -58 -11 -19 -24 -35 -29 -35 -4 0 -13 -9 -20 -21 -7
-13 -7 -25 -1 -31 5 -5 34 -3 77 8 67 17 67 17 92 -15 14 -18 34 -31 47 -31
12 0 33 11 46 25 13 14 31 25 41 25 10 0 25 10 33 22 9 12 16 30 16 39 0 9 -6
19 -13 22 -8 3 -43 8 -79 12 -44 5 -68 3 -72 -4 -4 -6 -18 -11 -31 -11 -24 0
-24 0 -19 126 2 70 6 130 9 134 3 4 -37 10 -88 13 -50 3 -142 6 -204 6z"/>
<path d="M370 1200 c-5 0 -19 -13 -32 -30 -12 -16 -27 -30 -34 -30 -7 0 -16
-5 -19 -10 -4 -6 3 -31 15 -55 18 -37 21 -55 15 -95 -7 -50 -6 -51 24 -61 22
-8 30 -16 28 -31 -1 -14 8 -23 36 -33 20 -7 44 -18 52 -25 7 -6 15 -23 17 -38
2 -16 13 -32 30 -42 25 -13 30 -13 55 2 22 13 29 25 31 59 2 23 -1 46 -7 52
-7 7 -15 6 -25 -3 -13 -10 -22 -7 -51 19 -20 17 -44 31 -55 31 -10 0 -21 3
-23 8 -3 4 0 33 5 64 7 41 7 67 -1 90 -10 27 -8 34 10 54 21 22 21 22 -20 48
-22 14 -45 26 -51 26z"/>
<path d="M220 834 c-39 5 -60 3 -73 -6 -18 -13 -17 -15 2 -40 12 -15 24 -40
27 -57 5 -21 14 -33 29 -37 12 -3 36 -20 52 -37 17 -18 36 -47 43 -65 10 -26
10 -44 0 -94 -9 -40 -22 -70 -40 -88 -14 -14 -41 -35 -60 -45 -19 -10 -52 -27
-72 -37 -20 -11 -53 -39 -72 -63 -28 -34 -36 -52 -36 -85 0 -22 9 -59 20 -80
13 -26 27 -40 40 -40 12 0 21 8 24 23 3 12 7 31 8 42 2 12 14 22 33 26 17 4
45 15 64 24 24 13 39 15 50 8 9 -5 20 -32 25 -59 4 -27 10 -55 12 -61 2 -10
35 -13 117 -13 63 0 117 3 121 7 4 4 -8 13 -26 19 -19 6 -34 19 -37 30 -1 10
-9 26 -16 34 -6 8 -17 47 -24 85 -7 39 -14 90 -16 115 -2 28 1 53 10 66 7 12
38 38 69 58 30 20 58 41 62 47 3 6 -1 18 -10 28 -12 13 -13 20 -4 29 7 7 24
12 38 12 14 0 42 11 62 25 21 14 42 34 48 44 8 16 6 20 -10 23 -12 2 -22 8
-23 13 -1 6 14 11 33 13 19 1 45 5 57 7 16 4 23 14 25 38 2 24 8 32 22 32 15
0 20 -9 23 -39 2 -21 7 -55 11 -75 7 -33 11 -36 43 -35 18 0 41 4 51 8 11 5
18 2 22 -12 4 -11 18 -23 33 -27 14 -3 39 -3 55 0 20 5 35 2 48 -10 13 -12 20
-38 25 -102 7 -85 7 -85 44 -80 21 2 44 -1 54 -8 9 -6 14 -15 10 -18 -3 -4
-32 -7 -64 -7 -48 0 -60 -4 -69 -20 -7 -13 -21 -20 -40 -20 -19 0 -30 -5 -30
-14 0 -7 -9 -25 -21 -39 -12 -17 -28 -26 -42 -24 -18 2 -22 -3 -20 -23 1 -24
-2 -25 -32 -22 -30 4 -34 8 -37 36 -3 30 -4 31 -56 32 -43 1 -59 -3 -83 -23
-25 -22 -29 -31 -29 -76 0 -29 4 -58 9 -65 7 -11 19 -11 67 -1 32 7 106 14
163 16 77 2 111 7 134 21 18 10 34 30 39 47 4 18 20 38 37 48 16 9 38 17 49
17 11 0 30 12 41 26 12 15 21 39 21 55 0 15 -4 31 -10 34 -6 4 -3 17 7 33 10
15 21 29 25 32 4 3 -3 28 -17 55 -17 36 -21 53 -13 62 7 9 7 22 -2 44 -8 17
-27 40 -44 50 -17 10 -37 19 -44 19 -7 0 -31 14 -54 30 -25 19 -48 28 -59 25
-10 -4 -27 -1 -38 4 -11 6 -22 25 -26 42 -7 29 -10 31 -40 26 -21 -3 -55 2
-90 15 -52 18 -58 19 -74 4 -10 -9 -25 -14 -35 -10 -10 4 -25 -2 -39 -15 -12
-12 -36 -34 -54 -49 -18 -15 -40 -42 -50 -61 -14 -25 -31 -39 -61 -49 -28 -9
-54 -29 -78 -58 -20 -24 -44 -44 -54 -44 -15 0 -17 7 -14 53 3 28 6 76 8 105
2 40 8 58 27 75 24 22 24 22 -10 25 -21 2 -40 -2 -49 -12 -13 -13 -18 -13 -44
0 -15 8 -28 21 -28 29 0 7 -3 16 -7 18 -5 3 -33 7 -63 11z m957 -221 c8 -3 13
-15 11 -27 -2 -11 -10 -22 -20 -24 -10 -2 -19 6 -23 19 -5 13 -2 24 6 29 6 5
18 6 26 3z m9 -113 c8 0 14 -10 14 -24 0 -14 -5 -28 -11 -32 -6 -3 -18 1 -27
9 -13 13 -13 19 -2 31 7 9 19 16 26 16z m-207 -270 c10 0 21 -7 24 -15 4 -8 2
-17 -3 -20 -4 -3 -15 -2 -24 1 -9 3 -16 12 -16 20 0 8 9 14 19 14z"/>
<path d="M613 70 c-28 0 -34 -3 -23 -10 8 -5 23 -10 32 -10 9 0 20 5 23 10 4
6 -9 10 -32 10z"/>
</g>
</svg>
