<?xml version="1.0" standalone="no"?>
<!DOCTYPE svg PUBLIC "-//W3C//DTD SVG 20010904//EN"
 "http://www.w3.org/TR/2001/REC-SVG-20010904/DTD/svg10.dtd">
<svg version="1.0" xmlns="http://www.w3.org/2000/svg"
 width="128.000000pt" height="128.000000pt" viewBox="0 0 128.000000 128.000000"
 preserveAspectRatio="xMidYMid meet">
<metadata>
Created by potrace 1.16, written by Peter Selinger 2001-2019
</metadata>
<g transform="translate(0.000000,128.000000) scale(0.100000,-0.100000)"
fill="#000000" stroke="none">
<path d="M224 1280 c-47 0 -55 -3 -52 -17 2 -12 14 -19 35 -21 18 -2 41 2 53
8 11 6 20 15 20 20 0 6 -25 10 -56 10z"/>
<path d="M609 1280 c-9 0 -19 -7 -23 -15 -3 -8 -22 -22 -43 -32 -21 -10 -38
-25 -38 -32 0 -9 19 -20 50 -27 30 -8 59 -23 73 -39 18 -21 22 -37 21 -83 -1
-31 -4 -70 -8 -87 -5 -23 -13 -31 -41 -37 -19 -5 -62 -13 -94 -18 -45 -7 -67
-16 -90 -39 -18 -17 -39 -31 -48 -31 -9 0 -28 14 -41 30 -15 18 -35 30 -49 30
-14 0 -39 -14 -56 -31 -18 -17 -32 -35 -32 -39 0 -4 7 -13 15 -20 8 -6 23 -9
33 -5 12 3 26 -1 36 -10 9 -9 16 -22 17 -28 0 -7 2 -25 4 -42 1 -16 -4 -111
-11 -210 -8 -99 -22 -220 -31 -269 -14 -80 -14 -93 -1 -120 9 -17 20 -43 26
-58 7 -16 18 -28 26 -28 7 0 19 7 26 15 9 11 9 22 1 46 -6 18 -11 57 -11 88 1
31 7 97 15 146 8 50 17 104 20 120 4 17 18 91 32 165 14 74 32 152 40 173 10
23 22 37 33 37 10 0 45 8 79 19 45 14 63 16 70 7 6 -7 3 -32 -10 -71 -10 -33
-26 -83 -35 -112 -14 -43 -15 -55 -4 -68 7 -8 19 -15 27 -15 8 0 26 6 41 14
15 7 41 17 58 20 24 5 33 3 38 -9 3 -9 -1 -29 -8 -44 -8 -15 -33 -43 -54 -62
-22 -19 -57 -48 -78 -66 -22 -17 -67 -50 -100 -72 -34 -23 -67 -48 -74 -55 -9
-12 -3 -24 31 -61 24 -26 78 -73 122 -106 43 -32 85 -59 93 -59 8 0 60 -16
115 -35 56 -19 110 -35 122 -35 11 0 35 -5 52 -11 25 -9 38 -9 61 2 16 8 36
29 45 46 9 18 23 40 30 50 11 12 14 53 12 182 -1 91 -7 234 -13 316 -6 83 -13
182 -16 220 -4 48 -11 76 -24 90 -10 11 -22 32 -25 48 -4 15 -16 32 -26 37
-10 6 -37 13 -61 16 -27 4 -64 0 -100 -11 -32 -9 -60 -21 -63 -26 -4 -5 -14
-9 -25 -9 -10 0 -20 6 -23 13 -2 7 0 35 6 62 5 28 7 72 3 100 -7 42 -15 57
-54 92 -26 24 -54 43 -63 43z m306 -337 c17 -2 33 -7 36 -11 3 -4 13 -32 22
-62 9 -30 21 -82 26 -115 5 -33 11 -125 12 -205 1 -80 -3 -198 -8 -262 -7 -75
-16 -126 -26 -141 -13 -19 -28 -26 -76 -31 -37 -4 -68 -3 -80 4 -11 5 -27 10
-36 10 -10 0 -30 11 -47 25 -16 14 -37 25 -47 25 -9 0 -26 7 -37 15 -10 8 -27
15 -37 15 -10 0 -38 9 -62 20 -25 11 -52 32 -61 45 -13 20 -14 28 -5 39 7 8
31 24 54 35 23 12 54 29 68 39 14 9 59 40 98 67 40 28 85 57 99 66 22 13 28
24 30 61 3 42 0 48 -35 77 -21 17 -56 36 -78 42 -22 6 -45 13 -52 15 -9 2 -5
23 12 75 14 40 25 81 25 91 0 11 11 23 27 29 15 5 54 16 88 23 33 7 74 11 90
9z"/>
</g>
</svg>
