<?xml version="1.0" standalone="no"?>
<!DOCTYPE svg PUBLIC "-//W3C//DTD SVG 20010904//EN"
 "http://www.w3.org/TR/2001/REC-SVG-20010904/DTD/svg10.dtd">
<svg version="1.0" xmlns="http://www.w3.org/2000/svg"
 width="128.000000pt" height="128.000000pt" viewBox="0 0 128.000000 128.000000"
 preserveAspectRatio="xMidYMid meet">
<metadata>
Created by potrace 1.16, written by Peter Selinger 2001-2019
</metadata>
<g transform="translate(0.000000,128.000000) scale(0.100000,-0.100000)"
fill="#000000" stroke="none">
<path d="M534 1280 c-19 0 -34 -4 -34 -9 0 -5 -13 -14 -29 -21 -18 -7 -45 -36
-70 -76 -28 -44 -40 -72 -36 -85 4 -10 12 -19 20 -19 7 0 32 27 54 60 23 33
41 62 41 64 0 2 12 18 27 35 15 17 31 31 35 31 3 0 5 -29 3 -65 -1 -36 1 -81
5 -101 5 -20 11 -38 14 -42 4 -3 12 0 18 6 7 7 16 12 20 12 4 0 8 -7 8 -15 0
-11 -11 -15 -39 -15 -22 0 -44 -6 -51 -15 -7 -8 -23 -15 -37 -15 -13 0 -35 -8
-50 -17 -25 -16 -26 -16 -45 10 -19 26 -21 27 -44 12 -22 -14 -26 -14 -53 6
-16 12 -34 18 -40 15 -6 -4 -11 -3 -11 1 0 5 -14 17 -31 27 -22 13 -34 15 -41
8 -8 -8 -7 -16 2 -27 7 -8 27 -19 44 -23 31 -8 31 -8 29 -117 -2 -80 1 -113
11 -124 7 -9 15 -23 18 -31 2 -8 -5 -28 -16 -45 -15 -21 -27 -68 -39 -155 -10
-69 -22 -134 -27 -145 -5 -11 -12 -42 -16 -70 -3 -27 -6 -72 -6 -100 0 -27 1
-67 2 -89 0 -21 10 -56 21 -77 11 -22 26 -39 33 -39 8 0 16 7 20 15 3 8 3 22
-1 31 -3 9 3 23 16 35 11 11 21 30 21 43 0 13 5 37 11 55 6 17 17 31 24 31 7
0 25 -16 39 -35 15 -19 32 -35 39 -35 7 0 29 -9 50 -20 20 -11 48 -20 61 -20
14 0 28 -4 31 -10 3 -5 13 -10 21 -10 8 0 23 -9 34 -20 12 -12 33 -20 54 -20
19 0 38 -5 42 -11 3 -6 20 -9 37 -6 21 3 55 -6 99 -24 52 -23 82 -29 136 -29
53 0 72 4 84 18 9 9 24 33 34 52 13 25 18 57 18 115 0 44 -6 117 -14 163 -9
53 -20 88 -32 99 -10 9 -18 24 -18 33 0 9 5 21 11 27 7 7 9 33 6 69 -3 33 -8
88 -11 124 -2 36 -8 123 -12 194 -6 113 -10 133 -30 164 -14 20 -43 44 -67 55
-23 10 -72 22 -109 24 -62 5 -69 4 -98 -21 -18 -14 -36 -24 -41 -20 -5 3 -9
18 -9 35 0 16 -5 39 -12 52 -6 12 -14 29 -18 37 -4 8 -20 22 -36 30 -16 8 -30
18 -32 23 -2 4 -19 7 -38 7z m59 -132 c6 -3 12 -11 12 -18 0 -7 -6 -15 -12
-17 -8 -3 -13 4 -13 17 0 13 5 20 13 18z m231 -88 c12 -4 26 -23 33 -41 6 -19
16 -61 22 -94 7 -33 17 -78 22 -100 6 -22 15 -74 20 -115 5 -41 9 -95 9 -119
-1 -25 -3 -48 -5 -51 -3 -4 0 -22 5 -40 6 -19 6 -38 1 -44 -5 -6 -9 -30 -9
-53 -1 -24 3 -45 9 -48 5 -4 9 -17 9 -30 0 -13 4 -27 10 -30 5 -3 7 -18 4 -34
-4 -17 1 -41 10 -59 9 -17 16 -40 16 -52 0 -13 -7 -20 -18 -20 -10 0 -23 -5
-29 -11 -6 -6 -35 -12 -64 -14 -30 -1 -58 0 -63 3 -6 3 -31 6 -57 7 -27 1 -55
8 -64 15 -9 8 -42 24 -73 38 -31 13 -73 28 -92 32 -19 5 -55 15 -80 22 -25 7
-61 24 -82 36 -20 13 -39 33 -42 45 -3 12 -1 49 3 82 5 35 5 67 -1 78 -5 9 -6
22 -3 27 3 5 15 6 28 1 14 -5 30 -5 40 0 9 6 14 16 10 25 -4 11 -13 14 -29 10
-20 -5 -24 -2 -25 16 -1 13 -1 74 -1 137 0 63 6 126 12 142 7 16 10 35 7 44
-4 8 6 33 20 55 22 33 31 39 47 33 12 -4 37 -8 56 -8 35 -1 35 -1 32 -44 -2
-24 -8 -55 -13 -69 -7 -19 -5 -35 11 -67 11 -23 29 -50 40 -60 11 -10 20 -24
20 -32 0 -7 -4 -13 -10 -13 -5 0 -24 -13 -42 -28 -18 -15 -46 -33 -61 -40 -15
-6 -30 -19 -33 -27 -4 -8 -1 -22 6 -30 7 -8 16 -15 21 -15 4 0 19 11 32 24 13
13 40 29 60 35 19 7 48 21 62 33 14 11 29 18 32 14 3 -3 18 4 34 14 15 11 33
36 39 54 6 19 19 36 30 39 13 3 20 14 20 30 0 13 -9 32 -21 42 -19 19 -21 19
-56 0 -35 -19 -35 -19 -60 9 -22 26 -23 30 -8 46 8 9 22 47 29 83 8 36 17 70
21 76 3 6 14 11 23 11 9 0 25 7 35 15 11 7 25 11 32 8 8 -2 22 0 31 5 10 6 27
7 38 2z"/>
</g>
</svg>
