<?xml version="1.0" standalone="no"?>
<!DOCTYPE svg PUBLIC "-//W3C//DTD SVG 20010904//EN"
 "http://www.w3.org/TR/2001/REC-SVG-20010904/DTD/svg10.dtd">
<svg version="1.0" xmlns="http://www.w3.org/2000/svg"
 width="128.000000pt" height="128.000000pt" viewBox="0 0 128.000000 128.000000"
 preserveAspectRatio="xMidYMid meet">
<metadata>
Created by potrace 1.16, written by Peter Selinger 2001-2019
</metadata>
<g transform="translate(0.000000,128.000000) scale(0.100000,-0.100000)"
fill="#000000" stroke="none">
<path d="M599 1240 c-15 0 -30 -4 -33 -9 -3 -4 2 -33 11 -64 8 -31 13 -62 10
-69 -2 -8 -31 -22 -63 -33 -33 -10 -63 -18 -68 -16 -6 1 -20 0 -33 -4 -13 -3
-23 -13 -23 -24 0 -10 9 -26 20 -36 20 -18 23 -18 100 8 44 15 82 27 85 27 3
0 5 -31 5 -69 0 -69 0 -69 -47 -96 -27 -14 -59 -29 -73 -32 -14 -2 -36 -12
-49 -22 -23 -17 -23 -17 2 -34 25 -16 28 -15 79 8 29 14 58 25 65 25 6 0 14
-4 17 -9 4 -5 4 -15 1 -23 -3 -8 -20 -21 -38 -30 -17 -9 -40 -18 -50 -20 -10
-2 -18 -7 -18 -13 0 -5 22 -12 48 -15 48 -5 48 -5 48 -65 0 -60 0 -60 -33 -63
-30 -3 -40 4 -95 62 -34 36 -75 81 -90 101 -16 19 -38 35 -48 35 -11 0 -22 -7
-25 -15 -3 -8 2 -39 11 -69 10 -30 29 -66 44 -79 14 -14 45 -35 69 -47 23 -12
42 -28 42 -36 0 -8 -8 -31 -19 -52 -10 -20 -21 -48 -24 -62 -4 -14 -42 -64
-87 -110 -76 -81 -80 -87 -80 -130 0 -25 3 -55 6 -67 4 -14 14 -23 25 -23 11
0 30 17 45 40 15 22 42 56 60 75 18 19 37 35 43 35 6 0 19 -19 28 -42 10 -24
24 -63 33 -88 13 -40 18 -45 45 -45 25 0 36 8 62 47 17 26 34 67 38 90 3 24
11 62 18 85 6 24 14 43 18 43 4 0 26 -7 49 -15 23 -8 60 -15 82 -15 27 0 41
-5 45 -17 4 -10 -2 -23 -15 -34 -12 -9 -27 -19 -33 -21 -5 -2 -7 -11 -4 -20 4
-11 27 -21 61 -28 29 -6 56 -16 59 -21 4 -5 21 -9 39 -9 17 0 37 5 44 12 7 7
12 35 12 64 0 46 -3 54 -27 69 -16 10 -39 28 -53 40 -18 17 -50 27 -114 38
-64 11 -97 12 -118 5 -16 -6 -32 -7 -36 -4 -3 4 -7 33 -8 64 0 31 -4 67 -8 78
-7 19 -3 22 28 28 20 4 51 20 69 35 17 16 47 36 66 46 19 9 49 33 68 53 19 21
50 69 69 107 26 52 34 78 29 100 -3 16 -15 49 -26 72 -12 24 -29 48 -39 53
-10 6 -30 10 -45 10 -14 0 -36 -7 -48 -15 -13 -8 -50 -24 -83 -35 -32 -11 -65
-20 -71 -20 -9 0 -13 19 -13 64 0 63 0 63 76 92 46 17 83 38 91 52 12 18 13
25 3 37 -8 9 -30 15 -58 15 -34 0 -52 -6 -70 -22 -23 -23 -24 -23 -38 -4 -8
11 -14 27 -14 36 0 9 -5 21 -12 28 -7 7 -24 12 -39 12z m254 -330 c12 0 17 -8
17 -27 0 -16 -7 -50 -16 -78 -9 -27 -22 -66 -28 -85 -7 -19 -21 -39 -31 -45
-11 -6 -32 -18 -47 -28 -15 -10 -37 -17 -50 -15 -20 3 -23 9 -23 43 0 39 1 40
45 47 25 4 51 16 58 25 10 14 9 21 -8 37 -17 17 -23 19 -40 8 -11 -6 -27 -12
-35 -12 -8 0 -21 15 -28 33 -8 17 -12 37 -10 43 2 7 25 14 51 18 26 3 65 13
87 21 22 8 48 14 58 15z m-274 -432 c12 -2 17 -18 19 -56 3 -49 1 -53 -24 -63
-15 -5 -39 -9 -53 -7 -17 2 -25 8 -22 18 2 8 6 27 9 43 2 15 16 36 30 48 14
11 33 18 41 17z m-34 -178 c18 -4 31 -13 33 -24 2 -10 1 -28 -2 -42 -5 -18
-13 -24 -33 -24 -15 0 -37 10 -50 22 -13 12 -23 32 -23 44 0 16 7 24 23 26 12
2 35 1 52 -2z"/>
</g>
</svg>
