<?xml version="1.0" standalone="no"?>
<!DOCTYPE svg PUBLIC "-//W3C//DTD SVG 20010904//EN"
 "http://www.w3.org/TR/2001/REC-SVG-20010904/DTD/svg10.dtd">
<svg version="1.0" xmlns="http://www.w3.org/2000/svg"
 width="128.000000pt" height="128.000000pt" viewBox="0 0 128.000000 128.000000"
 preserveAspectRatio="xMidYMid meet">
<metadata>
Created by potrace 1.16, written by Peter Selinger 2001-2019
</metadata>
<g transform="translate(0.000000,128.000000) scale(0.100000,-0.100000)"
fill="#000000" stroke="none">
<path d="M206 1280 c-114 0 -136 -2 -136 -15 0 -8 1 -15 3 -15 2 0 28 -4 58
-10 39 -7 75 -6 128 3 41 7 76 18 79 25 3 9 -31 12 -132 12z"/>
<path d="M546 1280 c-8 0 -16 -8 -18 -17 -2 -10 0 -25 6 -35 7 -11 5 -23 -7
-41 -10 -15 -36 -31 -64 -41 -26 -8 -86 -18 -131 -22 -59 -5 -85 -11 -89 -21
-3 -8 -1 -19 5 -25 7 -7 7 -16 -1 -29 -9 -15 -9 -24 1 -39 6 -11 12 -29 12
-40 0 -11 -7 -23 -16 -27 -9 -3 -29 -35 -45 -70 -21 -47 -29 -81 -29 -122 0
-35 6 -65 15 -77 8 -10 15 -32 15 -49 0 -16 9 -41 20 -55 11 -14 20 -31 20
-38 0 -7 7 -15 15 -18 8 -4 15 -15 15 -25 0 -10 20 -38 45 -61 26 -24 45 -52
45 -64 0 -11 -9 -29 -21 -40 -12 -10 -27 -31 -35 -46 -8 -15 -28 -31 -47 -37
-19 -6 -47 -25 -62 -41 -16 -17 -34 -30 -41 -30 -6 0 -23 -9 -36 -20 -16 -12
-28 -34 -32 -59 -3 -22 -3 -46 0 -54 3 -9 12 -18 20 -21 8 -3 33 3 56 13 24
10 54 30 67 45 14 14 30 26 36 26 7 0 20 9 30 20 10 11 24 20 31 20 7 0 16 9
19 21 4 11 18 25 33 30 14 5 32 7 39 5 11 -5 11 -10 3 -26 -10 -18 -7 -24 17
-43 15 -12 56 -46 90 -74 34 -29 71 -53 82 -53 10 0 22 8 26 18 4 9 9 31 11
47 2 17 6 48 9 70 2 22 8 58 12 80 7 31 13 41 32 43 12 2 37 -2 54 -9 18 -7
57 -32 87 -56 30 -24 60 -43 67 -43 6 0 24 -11 40 -24 15 -12 63 -39 105 -59
42 -20 84 -34 93 -31 8 4 18 18 22 33 4 14 7 53 8 86 0 59 0 59 -50 93 -30 19
-58 31 -69 28 -11 -3 -47 2 -80 11 -34 9 -80 25 -104 35 -23 11 -49 17 -57 14
-8 -3 -15 -12 -15 -20 0 -9 -9 -20 -21 -26 -11 -7 -27 -9 -36 -6 -9 4 -13 14
-10 26 3 11 1 22 -4 25 -4 3 -6 12 -2 21 4 12 0 14 -20 9 -14 -4 -34 -2 -45 4
-12 6 -20 20 -19 31 1 11 7 20 14 20 7 0 22 13 35 30 13 19 31 30 46 30 13 0
32 5 43 11 15 8 18 14 9 24 -8 9 -6 14 6 19 8 3 26 6 39 6 16 0 25 7 29 24 3
13 35 54 71 90 61 62 65 68 66 113 0 27 2 57 4 68 2 11 7 32 11 47 4 20 2 29
-9 34 -9 3 -13 13 -10 25 3 11 -2 28 -11 38 -9 10 -34 24 -56 31 -28 9 -47 10
-67 3 -15 -6 -47 -17 -71 -24 -24 -7 -48 -21 -53 -31 -5 -10 -20 -18 -33 -18
-13 0 -31 -9 -42 -21 -13 -15 -26 -19 -46 -15 -21 4 -36 -1 -62 -24 -18 -17
-57 -37 -85 -47 -33 -10 -63 -29 -82 -50 -20 -23 -29 -43 -27 -63 1 -17 -6
-37 -16 -49 -11 -12 -23 -21 -27 -21 -4 0 -10 9 -14 19 -3 11 -15 23 -26 26
-20 7 -20 7 -2 20 15 11 18 29 19 119 1 70 5 110 14 121 10 12 10 21 2 41 -9
19 -9 26 1 29 6 2 53 11 102 20 50 8 99 15 110 15 15 0 25 -10 33 -32 6 -18 9
-43 6 -54 -3 -12 -1 -25 5 -28 5 -4 19 -1 30 6 18 11 20 21 16 74 -4 55 -2 62
18 72 12 5 30 13 40 16 9 3 17 10 17 16 0 5 -11 10 -24 10 -13 0 -26 7 -30 15
-4 10 2 15 17 17 12 0 27 1 32 1 6 0 31 -3 56 -6 31 -4 52 -2 64 7 17 12 15
15 -24 42 -43 28 -43 28 -61 3 -19 -24 -19 -24 -33 -4 -13 17 -17 18 -32 5
-15 -13 -19 -12 -31 5 -7 11 -18 25 -24 32 -5 7 -17 10 -25 7 -8 -4 -15 -1
-15 5 0 6 -6 11 -14 11z m333 -342 c34 -3 36 -5 42 -48 5 -35 2 -50 -13 -69
-10 -13 -21 -42 -24 -63 -5 -30 -17 -47 -51 -75 -24 -20 -51 -49 -58 -64 -9
-17 -31 -33 -60 -45 -43 -16 -46 -16 -65 1 -11 10 -20 31 -20 47 0 17 9 38 23
51 13 12 49 40 80 62 32 22 57 45 57 51 0 6 -10 14 -22 18 -13 3 -36 6 -53 6
-16 0 -36 4 -43 9 -9 6 -1 18 32 44 24 21 54 37 66 37 12 0 34 9 48 20 18 14
37 20 61 18z m-335 -121 c13 -1 23 -13 28 -34 6 -21 15 -33 26 -33 14 0 13 -2
-4 -13 -12 -6 -40 -22 -63 -35 -22 -12 -41 -30 -41 -38 0 -12 6 -15 25 -10 14
4 36 4 50 0 18 -5 23 -10 16 -18 -6 -7 -13 -37 -17 -68 -4 -31 -9 -60 -13 -65
-3 -5 -36 -21 -73 -36 -54 -21 -75 -25 -105 -19 -23 5 -38 14 -38 22 0 10 12
16 33 18 28 3 33 7 29 23 -3 12 0 22 9 26 8 3 14 15 14 27 0 12 -5 27 -12 34
-9 9 -4 13 20 18 18 4 32 10 32 15 0 5 -9 9 -20 9 -11 0 -20 7 -20 15 0 9 6
31 14 49 8 19 32 52 53 75 22 23 46 39 57 38z m27 -393 c4 -2 7 -19 7 -37 0
-17 -7 -44 -14 -58 -7 -15 -34 -39 -60 -53 -26 -14 -57 -26 -70 -26 -13 0 -24
4 -24 9 0 6 9 26 21 45 12 20 25 36 30 36 5 0 12 12 15 26 5 18 20 32 47 44
23 10 44 17 48 14z m-159 -30 c5 -3 6 -9 3 -14 -3 -5 -13 -6 -21 -3 -12 4 -13
8 -3 14 7 4 17 5 21 3z m164 -121 c8 -3 14 -14 14 -24 0 -11 5 -28 12 -38 9
-15 9 -25 0 -46 -6 -14 -19 -28 -27 -31 -8 -4 -26 1 -40 10 -14 9 -25 26 -25
37 0 11 5 30 11 42 6 12 18 30 26 39 8 9 21 14 29 11z"/>
<path d="M1120 1280 c-22 0 -40 -4 -40 -9 0 -5 5 -11 12 -13 6 -2 24 -2 40 0
15 2 28 8 28 13 0 5 -18 9 -40 9z"/>
</g>
</svg>
