<?xml version="1.0" standalone="no"?>
<!DOCTYPE svg PUBLIC "-//W3C//DTD SVG 20010904//EN"
 "http://www.w3.org/TR/2001/REC-SVG-20010904/DTD/svg10.dtd">
<svg version="1.0" xmlns="http://www.w3.org/2000/svg"
 width="128.000000pt" height="128.000000pt" viewBox="0 0 128.000000 128.000000"
 preserveAspectRatio="xMidYMid meet">
<metadata>
Created by potrace 1.16, written by Peter Selinger 2001-2019
</metadata>
<g transform="translate(0.000000,128.000000) scale(0.100000,-0.100000)"
fill="#000000" stroke="none">
<path d="M360 1280 c-5 0 -14 -9 -20 -20 -8 -15 -4 -29 20 -66 25 -41 29 -56
27 -101 -2 -38 -10 -60 -25 -76 -21 -23 -27 -23 -126 -19 -97 4 -105 3 -115
-16 -6 -11 -9 -27 -6 -34 3 -7 15 -20 28 -28 14 -9 52 -14 109 -14 47 -1 89
-4 92 -7 4 -3 -3 -41 -13 -83 -11 -43 -26 -85 -34 -94 -8 -10 -22 -41 -31 -70
-8 -29 -13 -59 -9 -67 3 -8 10 -15 16 -15 6 0 23 15 38 33 27 32 28 32 56 15
26 -16 28 -21 26 -78 -2 -34 -10 -91 -19 -128 -9 -37 -18 -98 -20 -137 -2 -38
-7 -105 -10 -148 -5 -62 -3 -82 10 -102 10 -15 26 -25 40 -25 19 0 28 10 46
52 14 33 30 107 42 198 10 80 24 176 29 215 5 38 15 87 20 110 6 22 13 57 16
79 3 21 16 54 29 73 12 19 27 48 32 66 6 18 18 58 27 89 10 32 24 63 31 69 9
7 30 9 58 5 24 -4 49 -13 55 -20 7 -8 6 -21 -5 -42 -8 -16 -27 -38 -41 -49
-17 -14 -24 -28 -21 -45 1 -14 13 -29 25 -35 13 -5 24 -22 27 -41 4 -17 2 -42
-3 -55 -5 -13 -22 -35 -36 -49 -15 -13 -38 -47 -51 -75 -13 -27 -36 -66 -49
-85 -16 -20 -25 -45 -23 -60 3 -22 8 -25 45 -28 26 -2 57 4 80 15 21 10 59 31
84 48 26 17 81 39 123 49 71 18 78 18 93 3 9 -9 24 -37 33 -64 10 -30 26 -53
42 -62 22 -13 29 -13 42 -2 10 9 16 29 16 57 0 23 -4 54 -9 67 -5 14 -35 45
-66 70 -54 45 -57 46 -108 40 -29 -3 -56 -9 -62 -13 -5 -4 -24 -12 -42 -18
-25 -8 -34 -8 -43 3 -6 7 -8 25 -4 39 3 14 12 30 19 36 8 6 17 36 20 65 6 46
4 60 -15 89 -22 36 -22 36 5 46 14 5 35 10 46 10 11 0 23 9 27 19 4 11 32 46
62 78 30 32 65 72 77 88 13 17 30 45 39 64 15 33 15 36 -13 90 -27 54 -30 56
-72 59 -25 2 -50 -2 -60 -10 -9 -7 -26 -19 -38 -25 -13 -7 -35 -13 -50 -13
-21 0 -33 8 -45 30 -10 17 -25 30 -36 30 -11 0 -22 -6 -25 -13 -3 -7 13 -49
34 -93 21 -43 38 -86 39 -95 0 -9 -7 -23 -17 -30 -9 -8 -39 -14 -68 -14 -53 0
-53 0 -48 56 5 48 2 59 -19 84 -15 17 -31 26 -40 23 -9 -4 -20 -30 -27 -65 -6
-33 -17 -67 -24 -76 -6 -9 -34 -22 -60 -29 -36 -9 -52 -10 -65 -1 -9 6 -15 17
-13 25 2 7 8 35 13 62 5 27 7 58 4 70 -3 12 -14 30 -24 41 -11 11 -33 32 -50
48 -18 15 -36 27 -42 27z m637 -118 c7 -2 15 -12 18 -22 3 -9 1 -28 -4 -41 -6
-13 -23 -39 -39 -58 -22 -26 -33 -32 -50 -27 -14 5 -22 16 -22 30 0 13 -7 29
-15 36 -8 7 -15 23 -15 36 0 12 6 26 13 31 6 4 32 10 57 13 25 3 50 4 57 2z
m-412 -213 c2 -3 -2 -27 -10 -54 -8 -27 -24 -63 -34 -81 -10 -17 -22 -47 -26
-65 -4 -19 -14 -49 -22 -66 -8 -18 -19 -33 -24 -33 -5 0 -24 17 -44 38 -19 20
-37 44 -40 53 -3 9 6 45 19 80 17 45 32 69 52 81 16 9 50 20 77 24 26 3 47 11
47 17 0 6 2 8 5 6z"/>
<path d="M1056 300 c-7 0 -17 -5 -24 -12 -7 -7 -12 -19 -12 -27 0 -9 -14 -36
-30 -60 -16 -24 -39 -52 -51 -62 -12 -10 -28 -19 -35 -19 -8 0 -23 18 -34 40
-11 21 -20 51 -20 65 0 14 -7 28 -15 31 -9 4 -29 1 -46 -6 -16 -7 -36 -25 -44
-41 -8 -15 -15 -38 -15 -49 0 -12 9 -33 20 -47 11 -14 20 -33 20 -43 0 -9 -9
-25 -20 -35 -11 -10 -20 -22 -20 -27 0 -4 23 -8 50 -8 38 0 61 7 90 26 27 18
52 26 81 26 23 -1 59 8 79 18 21 11 41 27 46 37 4 10 9 52 10 93 1 41 -2 81
-8 87 -6 7 -16 13 -22 13z"/>
</g>
</svg>
