<?xml version="1.0" standalone="no"?>
<!DOCTYPE svg PUBLIC "-//W3C//DTD SVG 20010904//EN"
 "http://www.w3.org/TR/2001/REC-SVG-20010904/DTD/svg10.dtd">
<svg version="1.0" xmlns="http://www.w3.org/2000/svg"
 width="128.000000pt" height="128.000000pt" viewBox="0 0 128.000000 128.000000"
 preserveAspectRatio="xMidYMid meet">
<metadata>
Created by potrace 1.16, written by Peter Selinger 2001-2019
</metadata>
<g transform="translate(0.000000,128.000000) scale(0.100000,-0.100000)"
fill="#000000" stroke="none">
<path d="M498 1280 c-7 -1 -18 -6 -25 -13 -7 -7 -19 -18 -28 -25 -14 -12 -10
-19 35 -59 34 -31 50 -53 50 -70 0 -13 -15 -58 -34 -99 -19 -41 -40 -74 -46
-74 -6 0 -28 12 -50 26 -22 15 -46 24 -55 20 -9 -3 -21 -19 -26 -36 -6 -16
-17 -30 -24 -30 -7 0 -24 -18 -39 -40 -14 -22 -31 -40 -36 -40 -6 0 -10 -6
-10 -14 0 -8 5 -18 11 -22 6 -4 28 -10 48 -15 32 -7 38 -5 57 18 21 27 21 27
20 3 -1 -17 6 -25 24 -30 24 -6 25 -10 26 -80 1 -74 0 -76 -40 -123 -23 -26
-48 -49 -57 -52 -9 -3 -31 -27 -49 -53 -26 -39 -42 -51 -78 -62 -26 -7 -59
-14 -75 -15 -15 -1 -35 -9 -44 -18 -9 -9 -17 -28 -18 -44 -1 -15 -5 -42 -9
-59 -5 -23 -3 -36 9 -48 9 -9 32 -16 51 -16 19 0 43 5 53 12 10 6 26 8 34 5 9
-3 28 -25 43 -49 15 -24 49 -69 75 -101 27 -32 49 -63 49 -68 0 -5 13 -9 30
-9 23 0 33 7 45 30 9 17 15 47 14 68 -1 20 4 116 11 212 6 96 14 178 17 183 2
4 8 34 13 66 4 32 16 69 27 82 10 13 45 52 78 87 33 35 68 68 78 73 14 8 24 3
49 -21 17 -18 42 -39 55 -47 20 -13 28 -14 47 -3 13 7 37 38 52 69 16 31 48
90 71 131 24 41 61 94 82 118 21 23 44 42 50 42 6 0 13 -11 17 -25 3 -14 -2
-47 -12 -77 -10 -29 -27 -68 -37 -85 -11 -18 -23 -33 -27 -33 -5 0 -12 -10
-15 -21 -4 -12 -41 -57 -83 -100 -63 -67 -75 -85 -74 -112 0 -24 10 -40 40
-67 39 -34 40 -37 40 -96 0 -33 6 -80 13 -105 7 -24 21 -55 32 -69 10 -13 39
-35 63 -47 25 -13 50 -23 57 -23 6 0 20 -8 31 -19 12 -10 36 -23 55 -30 19 -6
45 -11 57 -11 21 0 24 5 24 35 0 20 -7 49 -15 64 -9 18 -32 36 -66 50 -28 13
-67 25 -86 28 -27 5 -37 13 -48 40 -13 30 -13 39 0 70 8 19 15 46 15 58 0 13
-9 44 -19 68 -12 29 -30 50 -48 59 -16 7 -29 23 -31 35 -2 14 10 37 35 65 22
24 57 66 80 93 22 28 64 94 92 147 28 53 51 106 51 117 0 11 -9 28 -19 38 -11
10 -40 24 -64 31 -39 12 -49 11 -74 -2 -17 -8 -43 -30 -59 -49 -16 -19 -40
-49 -54 -67 -14 -18 -37 -47 -51 -64 -14 -17 -35 -48 -47 -69 -12 -21 -22 -44
-22 -52 0 -8 -5 -17 -12 -21 -6 -4 -22 7 -38 26 -26 32 -28 32 -64 20 -20 -6
-57 -30 -83 -53 -25 -23 -64 -59 -85 -79 -22 -21 -43 -38 -47 -38 -5 0 -11 32
-15 72 -6 70 -6 72 24 102 16 17 56 64 89 105 41 51 60 84 64 110 2 20 0 44
-5 54 -5 10 -24 32 -41 47 -18 16 -44 34 -59 41 -16 6 -28 15 -28 20 0 5 -6 9
-12 9z m-142 -820 c7 0 15 -18 19 -40 4 -21 4 -44 0 -50 -3 -5 -8 -36 -11 -67
-3 -32 -7 -76 -8 -98 -1 -22 -9 -52 -19 -65 -15 -21 -17 -22 -17 -6 0 11 -27
45 -60 77 -33 31 -60 63 -60 69 0 6 12 28 27 48 16 20 39 49 53 64 14 14 34
36 44 47 11 12 25 21 32 21z"/>
<path d="M767 1280 c-43 0 -43 0 -39 -62 2 -35 5 -69 7 -75 3 -7 15 -13 29
-13 14 0 28 5 32 11 3 6 8 40 10 75 4 64 4 64 -39 64z"/>
<path d="M860 119 c-14 -1 -35 -6 -47 -13 -13 -6 -23 -16 -23 -23 0 -7 23 -20
51 -30 28 -10 55 -26 60 -35 7 -14 23 -18 64 -18 30 0 55 2 55 5 0 4 -7 20
-16 36 -10 20 -33 39 -67 55 -29 13 -63 23 -77 23z"/>
</g>
</svg>
