<?xml version="1.0" standalone="no"?>
<!DOCTYPE svg PUBLIC "-//W3C//DTD SVG 20010904//EN"
 "http://www.w3.org/TR/2001/REC-SVG-20010904/DTD/svg10.dtd">
<svg version="1.0" xmlns="http://www.w3.org/2000/svg"
 width="128.000000pt" height="128.000000pt" viewBox="0 0 128.000000 128.000000"
 preserveAspectRatio="xMidYMid meet">
<metadata>
Created by potrace 1.16, written by Peter Selinger 2001-2019
</metadata>
<g transform="translate(0.000000,128.000000) scale(0.100000,-0.100000)"
fill="#000000" stroke="none">
<path d="M848 1260 c-18 0 -48 -9 -67 -21 -19 -11 -61 -47 -93 -80 -33 -32
-64 -59 -68 -59 -5 0 -14 9 -20 20 -6 11 -23 26 -38 34 -15 8 -38 15 -52 16
-14 2 -44 -1 -68 -5 -25 -4 -47 -15 -52 -26 -6 -10 -10 -23 -10 -28 0 -8 18
-9 55 -5 42 5 60 3 80 -10 15 -10 25 -26 25 -41 0 -19 -17 -37 -81 -82 -44
-32 -98 -70 -119 -85 -21 -16 -49 -29 -61 -30 -14 -2 -24 3 -26 13 -2 8 21 52
52 97 30 44 55 88 55 96 0 9 -7 16 -15 16 -8 0 -27 -16 -42 -37 -15 -20 -42
-52 -59 -71 -25 -29 -35 -34 -56 -29 -15 4 -35 22 -47 42 -11 19 -27 35 -35
35 -8 0 -17 -9 -21 -20 -3 -10 1 -33 10 -50 9 -16 21 -58 28 -93 9 -44 18 -63
30 -65 9 -2 29 6 43 17 15 11 30 18 35 16 4 -3 19 -31 33 -61 14 -31 26 -65
26 -76 0 -11 -4 -28 -10 -38 -5 -10 -26 -28 -46 -41 -21 -13 -67 -42 -103 -65
-42 -26 -68 -49 -72 -65 -4 -13 -7 -48 -8 -76 -1 -29 2 -53 5 -53 3 0 39 23
80 50 41 28 78 50 82 50 5 0 18 11 31 24 12 12 40 29 62 36 26 9 43 10 49 4 7
-7 -12 -39 -55 -95 -36 -46 -76 -100 -90 -121 -13 -20 -62 -66 -109 -103 -70
-54 -86 -72 -92 -101 -4 -21 -2 -40 6 -49 7 -8 21 -15 30 -15 10 0 58 38 106
84 68 66 92 83 104 76 9 -5 32 -34 51 -65 19 -31 45 -70 57 -86 14 -16 33 -29
46 -29 12 0 43 13 67 29 24 17 60 50 78 75 19 25 42 67 51 94 14 38 16 70 12
145 -3 64 -9 97 -16 97 -7 0 -17 -5 -24 -12 -7 -7 -12 -34 -12 -60 0 -33 -11
-74 -32 -124 -18 -42 -42 -81 -53 -86 -11 -6 -31 -20 -43 -32 -24 -21 -24 -21
-47 6 -12 15 -24 30 -26 35 -2 4 -22 20 -45 35 -22 16 -45 28 -52 28 -7 0 -12
10 -12 23 0 16 30 52 98 118 53 52 116 110 139 127 23 18 40 39 37 46 -3 7
-22 20 -43 29 -21 9 -44 17 -52 17 -8 0 -34 -12 -59 -26 -25 -14 -76 -34 -115
-44 -38 -11 -71 -18 -72 -16 -2 2 -1 10 3 19 3 9 39 42 79 72 40 30 85 59 99
65 15 5 29 17 32 25 4 8 -1 26 -10 40 -11 17 -26 25 -45 25 -25 0 -31 5 -36
32 -6 25 -4 35 10 43 9 5 46 29 81 52 35 24 92 57 125 74 34 17 70 28 80 26
10 -3 23 1 29 8 6 7 10 17 9 21 -1 5 -1 17 0 26 0 9 27 46 58 83 31 36 74 75
95 86 21 11 44 17 50 13 6 -4 8 -27 5 -61 -4 -38 -14 -65 -36 -95 -17 -23 -31
-45 -31 -49 0 -4 -18 -37 -40 -73 -26 -42 -40 -78 -40 -99 0 -19 5 -48 11 -66
6 -17 14 -31 18 -31 4 0 18 12 32 28 13 15 38 45 55 67 16 22 40 56 52 77 12
20 29 38 36 41 8 3 19 22 26 42 9 26 16 35 27 31 9 -4 21 -2 28 4 7 5 32 13
57 16 42 6 47 4 63 -20 13 -20 16 -39 12 -75 -3 -27 -13 -65 -21 -86 -16 -37
-16 -37 -41 -17 -14 11 -44 23 -67 27 -33 6 -44 4 -54 -9 -8 -12 -9 -30 -2
-64 5 -26 15 -58 22 -72 7 -14 16 -37 20 -51 4 -21 2 -28 -13 -32 -14 -3 -17
-11 -14 -31 4 -19 1 -26 -10 -26 -8 0 -17 -10 -21 -22 -3 -13 -6 -31 -6 -40 0
-9 -11 -34 -25 -54 -14 -20 -25 -47 -25 -59 0 -12 -9 -30 -20 -40 -11 -10 -20
-24 -20 -32 0 -7 -6 -16 -14 -19 -7 -3 -22 -24 -32 -47 -9 -23 -31 -56 -46
-73 -25 -26 -29 -38 -26 -75 2 -30 8 -45 18 -47 9 -1 54 35 101 82 79 78 89
84 137 91 29 4 83 4 121 0 61 -6 71 -10 91 -37 17 -23 20 -37 15 -64 -3 -20
-22 -53 -42 -75 -19 -21 -44 -39 -54 -39 -11 0 -22 -7 -26 -16 -3 -8 -1 -20 5
-26 6 -6 25 -8 44 -4 19 3 45 14 58 24 13 9 36 29 52 44 15 14 28 36 28 47 0
12 5 21 10 21 6 0 10 20 10 45 0 25 -4 45 -10 45 -5 0 -28 16 -50 36 -22 20
-43 34 -47 30 -3 -3 -15 2 -26 11 -16 15 -37 18 -124 17 -93 -2 -104 0 -100
15 3 9 12 39 20 66 8 28 23 68 34 90 11 22 37 83 57 136 22 58 50 111 70 132
18 20 42 55 54 79 11 24 26 61 32 83 10 34 9 48 -9 95 -12 30 -24 60 -29 66
-4 6 -17 16 -29 23 -12 6 -36 11 -53 11 -21 0 -46 -12 -75 -36 -24 -20 -49
-33 -55 -29 -5 3 -10 13 -10 22 0 9 9 30 20 49 14 21 19 41 14 58 -3 13 -23
36 -45 50 -22 15 -53 26 -71 26z"/>
<path d="M616 750 c-9 0 -18 -6 -21 -12 -2 -7 -7 -26 -10 -43 -4 -16 -7 -48
-7 -70 1 -22 4 -64 8 -92 4 -36 11 -53 20 -53 11 0 14 23 14 113 0 61 3 122 6
135 5 16 2 22 -10 22z"/>
</g>
</svg>
