<?xml version="1.0" standalone="no"?>
<!DOCTYPE svg PUBLIC "-//W3C//DTD SVG 20010904//EN"
 "http://www.w3.org/TR/2001/REC-SVG-20010904/DTD/svg10.dtd">
<svg version="1.0" xmlns="http://www.w3.org/2000/svg"
 width="128.000000pt" height="128.000000pt" viewBox="0 0 128.000000 128.000000"
 preserveAspectRatio="xMidYMid meet">
<metadata>
Created by potrace 1.16, written by Peter Selinger 2001-2019
</metadata>
<g transform="translate(0.000000,128.000000) scale(0.100000,-0.100000)"
fill="#000000" stroke="none">
<path d="M738 1279 c-7 0 -21 -8 -30 -18 -10 -10 -18 -22 -18 -27 0 -5 -22
-17 -50 -27 -37 -13 -55 -15 -69 -7 -11 5 -24 10 -30 10 -6 0 -11 -8 -11 -18
0 -11 10 -27 21 -38 12 -10 25 -29 30 -41 5 -13 12 -23 17 -23 5 0 29 29 55
65 26 36 53 65 59 65 7 0 20 -4 27 -9 13 -8 13 -14 -1 -43 -8 -18 -28 -60 -44
-93 -16 -33 -53 -89 -81 -125 -29 -36 -53 -68 -53 -73 0 -4 -47 -54 -105 -112
-105 -104 -106 -106 -99 -143 4 -20 9 -40 11 -44 2 -5 13 -8 23 -8 11 0 45 10
76 21 31 12 82 43 113 70 31 27 69 60 85 74 16 14 39 25 52 25 13 0 49 18 80
39 31 22 63 37 70 34 7 -3 16 -21 20 -40 5 -26 1 -46 -14 -75 -11 -22 -41 -58
-67 -79 -26 -21 -55 -39 -64 -39 -9 0 -22 5 -28 11 -7 7 -25 9 -48 5 -20 -4
-39 -14 -42 -22 -3 -8 0 -21 7 -29 7 -8 10 -23 8 -33 -3 -11 0 -30 7 -43 11
-20 11 -28 -3 -51 -11 -19 -25 -28 -41 -28 -16 0 -39 -16 -68 -48 -25 -26 -51
-60 -60 -76 -9 -18 -13 -40 -9 -61 4 -20 28 -57 61 -94 30 -34 55 -64 55 -67
0 -3 -15 -18 -32 -35 -32 -29 -32 -29 20 -29 42 0 62 6 95 29 24 16 58 36 78
44 19 8 58 37 85 64 27 27 64 59 82 72 17 12 32 30 32 38 0 9 8 25 17 35 13
14 14 21 5 30 -7 7 -12 19 -12 28 0 8 -11 27 -24 41 -13 15 -32 32 -44 38 -11
6 -45 11 -75 11 -35 0 -59 5 -66 14 -7 8 -11 36 -9 62 3 45 5 49 38 60 19 7
47 15 62 18 14 3 49 24 77 46 31 25 60 58 72 86 15 31 20 55 16 81 -4 19 -16
51 -29 70 -13 18 -33 36 -45 39 -12 3 -49 -4 -83 -15 -33 -12 -67 -21 -75 -21
-8 0 -15 -4 -15 -9 0 -5 -15 -14 -32 -21 -18 -6 -41 -16 -51 -21 -10 -5 -22
-7 -28 -3 -7 4 -4 13 8 25 10 10 23 24 28 31 6 7 27 34 48 59 20 25 37 55 37
66 0 11 11 30 25 43 15 14 23 30 20 41 -4 12 2 18 20 23 15 4 27 16 31 31 4
15 1 32 -6 41 -9 10 -22 13 -43 8 -23 -5 -29 -3 -24 7 3 8 8 22 12 31 5 13 0
21 -19 29 -14 7 -26 16 -26 21 0 4 -6 8 -12 7z m-75 -931 c7 -3 14 -33 17 -84
3 -43 2 -89 -2 -101 -4 -13 -16 -23 -27 -23 -10 0 -24 7 -31 15 -7 8 -18 15
-26 15 -7 0 -24 15 -38 33 -15 19 -26 39 -26 45 0 5 17 24 38 40 20 16 47 32
60 36 12 4 22 12 22 18 0 5 6 8 13 6z m146 -2 c18 -3 42 -13 52 -22 11 -9 19
-24 19 -33 0 -10 -22 -41 -49 -70 -32 -35 -55 -52 -67 -49 -13 2 -19 13 -20
33 -1 17 -3 50 -5 74 -2 34 1 47 16 58 13 9 32 12 54 9z"/>
<path d="M327 1130 c-9 0 -18 -4 -21 -8 -3 -5 -3 -25 1 -46 3 -20 10 -39 14
-42 5 -3 9 -13 9 -23 0 -10 9 -26 19 -35 14 -13 26 -15 51 -9 18 5 39 20 48
36 13 20 14 32 6 45 -6 9 -25 24 -43 34 -18 9 -40 23 -50 32 -10 9 -25 16 -34
16z"/>
</g>
</svg>
