<?xml version="1.0" standalone="no"?>
<!DOCTYPE svg PUBLIC "-//W3C//DTD SVG 20010904//EN"
 "http://www.w3.org/TR/2001/REC-SVG-20010904/DTD/svg10.dtd">
<svg version="1.0" xmlns="http://www.w3.org/2000/svg"
 width="128.000000pt" height="128.000000pt" viewBox="0 0 128.000000 128.000000"
 preserveAspectRatio="xMidYMid meet">
<metadata>
Created by potrace 1.16, written by Peter Selinger 2001-2019
</metadata>
<g transform="translate(0.000000,128.000000) scale(0.100000,-0.100000)"
fill="#000000" stroke="none">
<path d="M971 1280 c-5 0 -11 -3 -13 -7 -1 -5 -23 -15 -47 -23 -24 -8 -49 -23
-55 -32 -7 -12 -4 -29 13 -65 17 -38 21 -58 16 -89 -4 -21 -18 -74 -32 -116
-20 -64 -28 -78 -45 -78 -12 0 -39 -15 -62 -33 -23 -18 -63 -46 -91 -62 -27
-15 -66 -40 -85 -54 -19 -14 -43 -33 -54 -41 -10 -8 -24 -21 -30 -28 -6 -7
-19 -21 -30 -30 -10 -9 -32 -29 -50 -45 -17 -15 -39 -30 -49 -33 -10 -3 -21
-3 -24 0 -3 3 11 27 31 54 20 28 47 53 60 56 19 5 26 17 40 71 10 41 33 90 61
132 25 37 45 71 45 75 0 5 4 14 10 21 5 7 37 45 70 85 34 39 67 72 75 72 8 0
19 9 25 21 7 11 9 27 6 35 -3 8 -17 19 -31 24 -14 5 -36 12 -49 16 -21 5 -24
0 -36 -43 -8 -26 -25 -62 -39 -80 -14 -18 -48 -76 -76 -130 -29 -57 -56 -98
-65 -98 -10 0 -18 21 -27 74 -7 41 -10 78 -7 82 2 5 -2 35 -11 68 -8 32 -15
73 -15 90 0 20 -9 41 -24 56 -13 13 -36 27 -51 31 -14 4 -31 2 -37 -4 -7 -7
-4 -19 10 -39 14 -19 22 -52 26 -106 4 -43 9 -84 12 -92 3 -7 -7 -26 -23 -42
-15 -15 -37 -34 -48 -41 -11 -6 -26 -15 -33 -18 -7 -4 -21 1 -31 10 -17 16
-19 15 -33 -6 -9 -13 -16 -50 -17 -86 -1 -46 2 -64 13 -68 8 -3 26 2 40 11 14
10 26 22 26 27 0 6 7 26 16 46 9 21 19 44 23 51 4 8 19 24 34 35 15 11 29 17
32 15 2 -3 9 -41 15 -85 6 -43 15 -97 21 -119 10 -40 9 -43 -43 -120 -30 -44
-66 -100 -80 -125 -15 -25 -49 -68 -76 -95 -27 -28 -57 -65 -66 -83 -10 -19
-16 -49 -14 -70 2 -20 8 -37 15 -37 6 0 28 16 50 36 21 20 72 72 113 116 41
43 94 98 117 123 24 25 66 66 95 92 29 26 69 60 88 76 19 15 57 44 84 63 26
19 64 44 83 57 18 12 38 20 42 17 5 -3 7 -15 3 -28 -3 -12 -11 -31 -17 -42 -7
-11 -15 -32 -19 -47 -3 -15 -19 -48 -34 -72 -15 -25 -51 -79 -80 -121 -29 -42
-60 -95 -68 -118 -9 -23 -15 -55 -15 -71 1 -16 7 -36 13 -43 6 -7 19 -13 30
-13 10 0 21 8 24 18 4 9 13 32 21 50 8 19 33 52 54 73 22 22 51 44 65 50 15 5
54 6 88 3 33 -4 86 -18 116 -33 38 -18 56 -33 58 -47 2 -15 -10 -35 -35 -60
-22 -22 -58 -55 -82 -74 -23 -19 -52 -43 -64 -52 -12 -10 -35 -28 -52 -41 -16
-14 -38 -26 -47 -28 -10 -2 -42 -22 -73 -44 -30 -22 -55 -43 -55 -47 0 -5 16
-8 35 -8 20 0 52 10 73 23 20 13 86 47 146 77 60 30 128 65 150 76 23 12 48
29 55 38 7 9 23 16 36 16 12 0 30 9 41 21 15 16 18 33 16 82 -3 49 -9 67 -30
92 -18 21 -43 36 -77 45 -27 7 -57 16 -65 20 -8 4 -31 12 -50 18 -19 6 -67 8
-107 6 -39 -3 -74 -1 -77 4 -3 5 1 15 9 22 8 7 15 17 15 22 0 5 29 69 64 141
35 73 73 140 84 150 11 10 39 21 61 24 23 3 51 15 64 27 13 11 40 34 60 49 28
21 37 35 37 57 0 16 -5 32 -10 35 -6 4 -33 1 -60 -5 -43 -10 -53 -9 -79 6 -22
13 -31 26 -31 44 0 15 5 52 11 83 6 30 9 67 5 81 -3 14 -10 26 -15 26z m-6
-300 c8 0 15 -6 15 -14 0 -7 -6 -19 -14 -25 -10 -9 -16 -9 -21 -1 -4 6 -4 17
-1 25 3 8 12 15 21 15z"/>
<path d="M1117 787 c-15 15 -17 15 -23 -1 -4 -9 -2 -22 5 -29 8 -8 14 -8 23 1
10 10 8 16 -5 29z"/>
</g>
</svg>
