<?xml version="1.0" standalone="no"?>
<!DOCTYPE svg PUBLIC "-//W3C//DTD SVG 20010904//EN"
 "http://www.w3.org/TR/2001/REC-SVG-20010904/DTD/svg10.dtd">
<svg version="1.0" xmlns="http://www.w3.org/2000/svg"
 width="128.000000pt" height="128.000000pt" viewBox="0 0 128.000000 128.000000"
 preserveAspectRatio="xMidYMid meet">
<metadata>
Created by potrace 1.16, written by Peter Selinger 2001-2019
</metadata>
<g transform="translate(0.000000,128.000000) scale(0.100000,-0.100000)"
fill="#000000" stroke="none">
<path d="M861 1187 c-45 1 -84 -3 -87 -8 -3 -6 5 -24 18 -42 13 -18 34 -49 46
-70 12 -21 22 -46 22 -56 0 -10 -12 -24 -27 -31 -16 -8 -44 -19 -63 -27 -19
-7 -56 -16 -82 -19 -26 -4 -52 -12 -58 -19 -8 -10 -5 -19 12 -35 12 -11 34
-23 48 -26 14 -3 36 -10 50 -16 14 -5 61 -12 104 -13 48 -2 84 -9 92 -17 8 -7
52 -108 99 -223 47 -116 90 -226 95 -245 5 -20 16 -44 23 -55 14 -18 15 -18
40 7 16 16 29 46 37 83 11 54 10 62 -16 129 -15 39 -49 123 -76 186 -27 63
-48 126 -46 139 2 20 18 33 72 61 45 24 78 49 92 71 13 19 23 40 23 47 1 8 -9
23 -21 33 -13 11 -37 27 -55 34 -17 8 -34 19 -38 25 -3 5 -21 10 -39 10 -19 0
-49 -6 -68 -14 -33 -14 -35 -14 -56 12 -12 15 -30 39 -41 53 -18 24 -26 26
-100 26z m84 -137 c9 0 15 -5 13 -11 -2 -6 -8 -10 -13 -10 -5 0 -11 4 -13 10
-2 6 4 11 13 11z m94 -90 c5 0 14 -7 21 -15 7 -9 10 -18 7 -21 -3 -3 -15 -1
-26 6 -12 6 -19 15 -16 21 4 5 10 9 14 9z"/>
<path d="M40 870 c-18 23 -19 24 -26 6 -4 -11 -2 -65 4 -120 7 -56 12 -155 11
-221 0 -66 0 -136 0 -155 0 -19 2 -75 4 -124 4 -88 5 -90 38 -119 19 -16 48
-35 66 -43 18 -8 45 -14 61 -14 15 0 66 16 112 36 47 20 96 39 109 42 14 3 40
16 59 29 19 12 41 23 48 23 7 0 39 12 71 27 32 14 72 29 88 33 21 4 36 17 52
45 12 22 24 57 28 77 7 36 6 37 -43 62 -28 14 -53 30 -57 36 -3 5 -19 10 -34
10 -15 0 -35 -8 -44 -18 -9 -10 -37 -28 -62 -41 -24 -12 -47 -27 -51 -32 -3
-5 -32 -23 -64 -39 -42 -21 -59 -36 -62 -52 -2 -16 -11 -24 -28 -26 -14 -2
-29 -7 -35 -12 -5 -4 -29 -11 -53 -15 -34 -5 -47 -3 -63 11 -13 12 -19 30 -19
60 0 24 -4 45 -8 48 -5 3 -7 73 -5 156 4 150 4 150 -37 228 -22 42 -49 88 -60
102z m441 -510 c5 0 12 -7 16 -16 3 -8 1 -20 -4 -25 -6 -6 -14 -5 -22 5 -7 8
-10 20 -6 26 3 5 11 10 16 10z m-194 -122 c10 -2 19 -10 21 -18 1 -9 -4 -24
-11 -34 -14 -19 -15 -19 -26 3 -7 12 -10 29 -7 38 3 8 14 13 23 11z"/>
</g>
</svg>
