<?xml version="1.0" standalone="no"?>
<!DOCTYPE svg PUBLIC "-//W3C//DTD SVG 20010904//EN"
 "http://www.w3.org/TR/2001/REC-SVG-20010904/DTD/svg10.dtd">
<svg version="1.0" xmlns="http://www.w3.org/2000/svg"
 width="128.000000pt" height="128.000000pt" viewBox="0 0 128.000000 128.000000"
 preserveAspectRatio="xMidYMid meet">
<metadata>
Created by potrace 1.16, written by Peter Selinger 2001-2019
</metadata>
<g transform="translate(0.000000,128.000000) scale(0.100000,-0.100000)"
fill="#000000" stroke="none">
<path d="M742 1249 c-9 0 -47 -13 -84 -28 -36 -15 -73 -33 -82 -40 -9 -7 -16
-20 -16 -27 0 -7 11 -21 25 -30 20 -13 28 -14 40 -4 11 9 22 10 42 2 16 -6 46
-13 68 -17 22 -4 52 -18 68 -33 16 -15 27 -36 27 -51 0 -14 8 -47 17 -73 17
-48 17 -48 -14 -90 -27 -37 -38 -44 -89 -56 -33 -7 -79 -17 -104 -22 -25 -4
-61 -13 -81 -19 -19 -6 -45 -20 -57 -31 -12 -12 -22 -29 -22 -39 0 -10 7 -24
15 -31 8 -7 15 -24 15 -39 0 -14 7 -35 15 -45 8 -11 15 -28 15 -39 0 -10 9
-21 20 -24 14 -4 20 -14 20 -32 0 -14 9 -39 20 -56 11 -16 20 -33 20 -37 0 -4
-9 -12 -21 -18 -11 -6 -45 -18 -74 -26 -30 -7 -61 -11 -69 -8 -8 3 -39 -1 -70
-10 -30 -9 -91 -16 -140 -16 -74 0 -87 3 -96 19 -6 12 -7 29 -1 43 4 13 14 39
20 59 6 19 11 39 11 42 0 4 -11 5 -24 1 -13 -3 -26 -2 -29 3 -3 5 -2 15 3 23
8 12 13 13 29 3 17 -11 20 -9 26 17 4 16 2 37 -4 47 -8 14 -4 24 15 44 17 17
30 52 44 115 11 49 20 97 20 106 0 9 -23 42 -51 72 -32 35 -59 56 -73 56 -12
0 -32 -7 -44 -16 -12 -8 -22 -21 -22 -28 0 -7 12 -36 26 -66 17 -35 24 -64 21
-84 -2 -17 -10 -65 -17 -106 -8 -41 -20 -81 -27 -88 -7 -7 -13 -20 -13 -27 0
-8 -8 -29 -19 -47 -11 -20 -19 -58 -21 -98 -2 -36 -3 -85 -4 -110 -1 -37 2
-45 19 -48 11 -3 32 -13 47 -24 23 -16 43 -19 125 -18 54 1 118 7 143 12 25 6
68 12 95 14 28 1 71 5 96 7 26 3 71 17 101 31 30 14 62 26 71 26 9 0 23 15 32
33 8 18 16 50 17 70 1 28 -5 44 -25 65 -15 16 -27 36 -27 46 0 10 -13 44 -30
75 -16 31 -31 67 -32 81 -3 22 1 25 27 26 17 0 49 11 72 23 23 13 47 20 54 16
6 -4 28 1 50 11 24 10 43 14 48 8 5 -5 21 -31 36 -59 15 -27 35 -72 45 -100
10 -27 21 -62 24 -77 5 -22 12 -28 34 -28 15 0 33 -4 40 -8 9 -6 6 -12 -12
-22 -14 -7 -27 -19 -30 -26 -3 -7 4 -29 14 -49 10 -20 24 -42 30 -50 6 -8 13
-40 14 -72 1 -32 10 -70 18 -83 9 -14 19 -41 22 -61 4 -21 12 -42 19 -47 7 -6
32 -17 57 -26 25 -9 51 -16 58 -16 9 0 12 14 10 52 -3 48 -5 52 -33 60 -16 4
-36 17 -43 28 -7 11 -10 25 -6 31 3 6 17 14 30 19 13 5 24 14 24 20 0 5 -13
10 -29 10 -17 0 -33 5 -36 10 -4 6 -2 17 4 23 5 7 9 29 8 47 -2 19 -15 54 -30
77 -15 24 -27 57 -27 74 0 19 -10 43 -25 61 -14 16 -25 38 -25 49 0 11 -15 33
-34 49 -18 17 -36 43 -39 60 -5 21 -12 30 -27 30 -11 0 -20 6 -20 13 0 6 25
29 55 50 31 20 60 37 65 37 5 0 12 5 15 10 4 6 1 18 -6 26 -6 8 -9 18 -5 22 4
4 18 -6 30 -21 20 -24 24 -26 30 -12 3 9 6 34 6 56 0 35 -4 41 -41 61 -23 13
-53 29 -66 37 -19 10 -31 11 -50 2 -13 -6 -28 -11 -34 -11 -6 0 -23 15 -40 33
-16 17 -34 49 -40 70 -5 21 -21 44 -35 54 -14 9 -34 33 -44 53 -11 21 -26 40
-35 44 -9 3 -24 6 -33 5z"/>
</g>
</svg>
