<?xml version="1.0" standalone="no"?>
<!DOCTYPE svg PUBLIC "-//W3C//DTD SVG 20010904//EN"
 "http://www.w3.org/TR/2001/REC-SVG-20010904/DTD/svg10.dtd">
<svg version="1.0" xmlns="http://www.w3.org/2000/svg"
 width="128.000000pt" height="128.000000pt" viewBox="0 0 128.000000 128.000000"
 preserveAspectRatio="xMidYMid meet">
<metadata>
Created by potrace 1.16, written by Peter Selinger 2001-2019
</metadata>
<g transform="translate(0.000000,128.000000) scale(0.100000,-0.100000)"
fill="#000000" stroke="none">
<path d="M756 1221 c-6 3 -35 -6 -63 -20 -34 -16 -53 -32 -53 -43 0 -9 10 -24
22 -32 12 -9 34 -16 48 -16 14 0 36 -7 48 -16 14 -9 22 -26 22 -43 0 -15 9
-36 20 -46 11 -10 20 -24 20 -32 0 -7 17 -39 37 -69 37 -56 37 -56 10 -80 -16
-13 -39 -24 -51 -24 -13 0 -29 -6 -35 -14 -8 -10 -28 -12 -74 -9 -49 4 -72 0
-109 -17 -27 -11 -48 -25 -48 -31 0 -5 11 -14 24 -19 13 -5 33 -6 44 -4 14 4
26 -3 41 -24 11 -17 21 -38 21 -49 0 -10 16 -64 35 -121 19 -56 35 -110 35
-120 0 -9 -11 -34 -25 -55 -14 -20 -32 -37 -39 -37 -8 0 -38 -7 -67 -16 -30
-9 -72 -23 -94 -33 -22 -9 -42 -15 -45 -15 -3 1 -17 4 -31 7 -19 5 -41 -3 -85
-31 -49 -31 -68 -37 -112 -37 -54 0 -54 0 -76 65 -21 61 -22 68 -8 120 8 32
12 75 9 102 -4 34 -2 50 9 58 8 7 14 18 14 26 0 7 -6 19 -14 27 -12 12 -10 18
14 41 16 14 32 36 35 46 4 14 -2 30 -17 49 -13 16 -31 41 -40 57 -10 16 -23
38 -30 49 -7 11 -19 30 -26 43 -10 18 -16 21 -27 12 -7 -6 -15 -32 -17 -58 -3
-26 -1 -57 3 -69 4 -12 3 -34 -3 -50 -6 -16 -8 -41 -4 -56 6 -24 9 -25 33 -16
20 7 30 6 41 -5 8 -8 11 -19 8 -25 -4 -6 -22 -11 -40 -11 -31 0 -33 -2 -44
-51 -7 -28 -12 -59 -12 -70 0 -11 6 -22 14 -25 12 -5 11 -11 -5 -37 -10 -18
-19 -41 -19 -52 0 -11 -7 -31 -16 -43 -10 -14 -14 -35 -12 -54 3 -17 -1 -53
-9 -79 -14 -48 -14 -49 18 -89 18 -22 35 -40 38 -40 3 0 11 4 17 8 6 4 16 17
23 29 6 12 27 35 47 50 33 24 37 26 48 11 7 -9 24 -20 39 -23 15 -4 32 -16 38
-27 6 -12 19 -18 32 -16 19 3 22 8 19 40 -2 24 1 38 8 38 6 0 20 -5 31 -10 11
-6 19 -21 19 -35 0 -18 7 -26 24 -31 14 -3 30 -3 36 1 6 3 49 17 96 30 47 13
92 29 101 37 9 7 42 13 77 14 38 0 83 9 119 23 52 20 61 28 78 68 10 25 22 56
25 69 5 20 1 26 -23 35 -17 5 -35 20 -40 32 -6 12 -38 78 -71 147 -34 69 -62
137 -62 151 0 14 6 33 13 43 8 10 26 18 41 19 16 0 32 -7 37 -14 5 -9 28 -14
63 -14 39 -1 61 -6 75 -20 12 -10 21 -25 21 -32 0 -8 9 -26 20 -40 11 -14 20
-34 20 -44 0 -10 4 -20 9 -23 5 -3 23 -31 40 -61 17 -30 31 -61 31 -68 0 -8
18 -42 40 -76 22 -34 40 -65 40 -70 0 -4 9 -16 19 -25 15 -14 24 -15 40 -6 18
9 21 20 21 70 0 32 -5 60 -10 62 -6 2 -17 28 -25 58 -8 30 -24 67 -35 82 -12
16 -30 57 -41 91 -11 34 -31 78 -44 97 -13 19 -29 48 -36 64 -13 27 -12 30 34
68 29 25 47 48 47 62 0 13 -19 36 -53 64 -28 23 -70 47 -92 54 -22 6 -49 19
-60 28 -11 9 -45 33 -76 53 -31 20 -71 53 -89 74 -18 21 -38 41 -44 44z m261
-271 c13 0 13 -3 3 -15 -7 -8 -16 -12 -21 -9 -5 3 -7 10 -4 15 4 5 13 9 22 9z
m-907 -580 c5 0 10 -6 10 -14 0 -8 -5 -18 -11 -21 -6 -4 -13 -4 -16 -1 -3 3
-3 12 0 21 4 8 11 15 17 15z m600 -160 c6 0 10 -7 10 -15 0 -8 -4 -15 -10 -15
-5 0 -10 7 -10 15 0 8 5 15 10 15z m-656 -70 c8 0 17 -4 21 -9 3 -5 -2 -17
-11 -26 -11 -11 -20 -13 -27 -6 -5 5 -7 17 -4 25 4 9 13 16 21 16z"/>
<path d="M929 140 c-5 0 -15 -11 -24 -24 -8 -13 -13 -31 -9 -40 4 -11 15 -16
33 -14 18 2 27 10 29 26 2 13 -2 30 -8 38 -7 7 -16 14 -21 14z"/>
</g>
</svg>
