<?xml version="1.0" standalone="no"?>
<!DOCTYPE svg PUBLIC "-//W3C//DTD SVG 20010904//EN"
 "http://www.w3.org/TR/2001/REC-SVG-20010904/DTD/svg10.dtd">
<svg version="1.0" xmlns="http://www.w3.org/2000/svg"
 width="128.000000pt" height="128.000000pt" viewBox="0 0 128.000000 128.000000"
 preserveAspectRatio="xMidYMid meet">
<metadata>
Created by potrace 1.16, written by Peter Selinger 2001-2019
</metadata>
<g transform="translate(0.000000,128.000000) scale(0.100000,-0.100000)"
fill="#000000" stroke="none">
<path d="M867 1230 c-24 0 -47 -3 -50 -7 -4 -3 -7 -15 -7 -26 0 -11 11 -30 25
-43 14 -13 25 -28 25 -34 0 -5 -4 -10 -10 -10 -5 0 -10 -14 -10 -31 0 -27 2
-30 15 -19 8 7 15 21 15 31 0 11 5 19 10 19 6 0 10 -6 10 -13 0 -8 11 -24 25
-37 14 -13 25 -33 25 -46 0 -12 -7 -27 -16 -35 -13 -10 -17 -10 -24 1 -4 7
-15 10 -24 7 -9 -4 -16 -18 -16 -32 0 -14 -6 -28 -12 -30 -7 -3 -49 -7 -93 -8
-44 -2 -92 -9 -107 -15 -17 -7 -28 -19 -28 -31 0 -11 10 -32 23 -46 12 -14 39
-43 60 -64 23 -24 37 -47 37 -64 0 -14 5 -29 10 -32 6 -3 10 -30 10 -60 0 -29
-3 -60 -6 -69 -4 -9 -18 -16 -33 -16 -15 0 -42 -12 -60 -28 -23 -20 -30 -32
-25 -45 4 -12 12 -16 23 -11 9 3 25 8 36 10 11 2 30 6 41 9 12 4 24 3 28 -3 3
-5 0 -16 -7 -24 -7 -9 -53 -34 -103 -57 -50 -22 -98 -41 -106 -41 -9 0 -21 -6
-27 -14 -6 -7 -25 -16 -42 -20 -22 -4 -38 -19 -61 -56 -31 -49 -31 -49 -56
-30 -13 11 -32 20 -41 20 -10 0 -22 -5 -29 -12 -9 -9 -25 -7 -69 7 -32 10 -65
27 -74 37 -14 14 -15 25 -7 60 5 23 17 56 27 73 10 16 22 47 25 67 4 20 15 56
26 80 10 24 24 66 31 93 7 28 19 55 28 61 10 8 17 37 22 83 4 52 13 81 29 102
14 20 25 56 32 101 8 58 7 73 -5 85 -8 8 -36 15 -65 16 -41 2 -54 7 -71 29
-12 14 -21 38 -21 51 0 14 -4 28 -9 31 -5 3 -14 0 -19 -7 -7 -8 -9 -36 -4 -77
6 -55 11 -66 32 -77 21 -10 24 -17 21 -60 -1 -26 -9 -60 -17 -75 -8 -15 -14
-40 -14 -55 -1 -15 -7 -39 -15 -53 -8 -14 -14 -34 -15 -46 0 -11 -9 -38 -19
-60 -10 -21 -25 -59 -32 -83 -12 -42 -12 -45 9 -59 12 -8 22 -20 22 -27 0 -7
-7 -19 -16 -26 -9 -8 -22 -14 -28 -15 -6 0 -16 -2 -22 -2 -6 -1 -18 -28 -27
-60 -8 -31 -21 -84 -27 -117 -6 -33 -13 -71 -16 -85 -3 -17 5 -44 26 -82 17
-32 36 -60 41 -64 5 -3 25 0 44 6 22 7 40 8 52 2 10 -6 28 -6 41 -1 12 5 27
20 32 34 5 14 16 25 24 25 7 0 19 -7 26 -15 11 -13 16 -13 43 2 18 9 45 16 62
15 19 -1 39 8 57 25 22 21 33 24 59 19 24 -5 43 0 76 20 24 14 54 27 66 29 12
3 45 10 72 17 28 7 64 23 82 36 22 16 38 21 56 17 19 -5 30 -1 44 14 13 15 29
21 60 21 24 0 43 -5 43 -10 0 -6 8 -14 18 -18 10 -4 33 -23 50 -43 17 -20 36
-56 41 -80 6 -24 17 -62 25 -84 10 -30 20 -41 38 -43 21 -3 26 4 41 53 13 42
16 75 11 128 -3 40 -12 93 -21 119 -8 26 -30 64 -48 85 -30 34 -32 39 -17 47
9 5 20 14 24 20 4 5 0 25 -8 44 -8 19 -14 44 -14 56 0 12 -7 31 -15 42 -8 10
-15 33 -15 50 0 18 -7 45 -15 60 -8 16 -15 40 -15 54 0 14 -7 33 -15 43 -7 11
-11 25 -9 32 3 7 38 23 77 35 40 12 87 29 105 38 27 13 32 20 32 52 0 35 -2
37 -53 53 -30 9 -62 17 -73 17 -10 0 -32 -7 -48 -15 -15 -8 -35 -15 -42 -15
-9 0 -14 11 -14 30 0 17 -8 43 -17 58 -10 15 -27 35 -38 45 -11 10 -34 25 -52
33 -18 7 -52 14 -76 14z m98 -373 c6 -2 12 -17 13 -33 2 -16 10 -37 19 -46 12
-14 13 -23 3 -52 -9 -30 -8 -40 9 -75 12 -22 21 -46 21 -53 0 -7 12 -41 27
-75 15 -35 33 -63 40 -63 7 0 13 -4 13 -8 0 -5 -7 -17 -15 -28 -8 -10 -15 -31
-15 -45 0 -14 -7 -34 -15 -45 -15 -19 -15 -19 -35 5 -13 15 -20 38 -20 66 0
23 -3 57 -6 74 -5 22 -22 43 -58 71 -28 22 -62 50 -76 63 -14 13 -38 31 -53
41 -15 9 -31 25 -34 34 -4 9 -15 29 -26 44 -14 18 -18 34 -13 53 4 14 18 31
32 37 18 8 28 8 35 1 7 -7 27 -9 48 -5 20 3 50 14 66 24 17 10 35 16 40 15z
m-152 -337 c8 0 20 -7 27 -15 9 -11 17 -12 30 -5 10 6 32 10 49 10 25 0 32 -5
36 -25 3 -14 7 -36 10 -50 4 -17 1 -25 -9 -25 -8 0 -16 6 -18 12 -3 9 -27 12
-81 9 -77 -3 -77 -3 -71 31 3 18 7 39 10 46 2 6 10 12 17 12z"/>
<path d="M948 779 c-2 0 -9 -3 -15 -6 -7 -2 -13 -11 -13 -19 0 -8 7 -14 15
-14 8 0 15 9 15 20 0 11 -1 20 -2 19z"/>
<path d="M585 1060 c-22 0 -26 -3 -20 -17 4 -10 10 -31 14 -48 5 -23 13 -31
34 -33 25 -3 27 0 27 30 0 18 -7 41 -14 51 -7 9 -26 17 -41 17z"/>
<path d="M705 1050 c-7 0 -23 -12 -34 -26 -12 -15 -21 -35 -21 -44 0 -10 7
-20 15 -24 8 -3 21 -3 28 0 8 3 19 21 25 41 6 20 9 40 6 45 -3 4 -11 8 -19 8z"/>
<path d="M810 1040 c-22 0 -28 -4 -24 -15 4 -8 17 -15 30 -15 15 0 24 6 24 15
0 10 -10 15 -30 15z"/>
</g>
</svg>
