<?xml version="1.0" standalone="no"?>
<!DOCTYPE svg PUBLIC "-//W3C//DTD SVG 20010904//EN"
 "http://www.w3.org/TR/2001/REC-SVG-20010904/DTD/svg10.dtd">
<svg version="1.0" xmlns="http://www.w3.org/2000/svg"
 width="128.000000pt" height="128.000000pt" viewBox="0 0 128.000000 128.000000"
 preserveAspectRatio="xMidYMid meet">
<metadata>
Created by potrace 1.16, written by Peter Selinger 2001-2019
</metadata>
<g transform="translate(0.000000,128.000000) scale(0.100000,-0.100000)"
fill="#000000" stroke="none">
<path d="M1010 1079 c-3 0 -21 -5 -40 -11 -19 -5 -41 -14 -47 -20 -7 -5 -24
-34 -38 -64 -14 -30 -30 -54 -35 -54 -5 0 -11 -8 -14 -18 -5 -15 -25 -21 -111
-31 -58 -6 -110 -9 -115 -6 -5 3 -21 -5 -36 -20 -18 -18 -23 -31 -19 -46 4
-11 1 -26 -5 -34 -8 -10 -10 -28 -5 -52 4 -21 19 -67 35 -103 15 -36 30 -76
33 -90 5 -21 -2 -34 -41 -73 -26 -26 -72 -63 -102 -82 -30 -19 -72 -44 -94
-55 -22 -13 -47 -19 -60 -16 -11 3 -55 34 -96 69 -54 45 -78 73 -88 101 -10
32 -10 41 3 59 8 12 15 35 15 52 0 16 6 47 13 67 7 21 16 41 20 44 4 4 7 15 7
24 0 9 9 43 20 76 11 32 23 74 26 93 4 28 -1 40 -23 63 -15 15 -35 28 -45 28
-9 0 -24 -11 -33 -24 -14 -21 -14 -29 1 -86 16 -62 16 -64 -5 -79 -11 -9 -28
-34 -37 -56 -9 -22 -25 -80 -35 -130 -11 -49 -19 -113 -19 -142 0 -36 8 -66
26 -102 15 -29 34 -51 43 -51 9 0 25 -10 37 -23 11 -12 26 -32 33 -44 6 -12
26 -29 44 -37 17 -8 49 -17 70 -21 20 -3 37 -10 37 -15 0 -6 30 -10 68 -10 37
0 72 4 78 8 6 4 16 17 23 30 6 12 20 22 30 22 11 0 38 16 61 35 23 19 48 35
56 35 7 0 21 12 30 26 15 22 22 25 51 19 21 -4 53 0 81 9 26 9 76 21 112 27
36 6 93 12 128 15 35 2 82 10 105 18 23 7 46 21 52 30 7 11 5 28 -7 58 -9 24
-27 69 -40 100 -13 31 -41 77 -62 103 -21 25 -49 66 -62 91 -13 25 -24 52 -24
60 0 8 7 25 15 37 8 12 33 31 57 41 24 11 55 34 71 52 25 29 26 34 11 48 -8 9
-32 16 -52 16 -20 0 -50 9 -67 20 -16 11 -32 19 -35 19z m-158 -249 c4 0 18
-5 32 -11 14 -7 36 -28 49 -48 13 -20 27 -49 31 -66 4 -16 26 -57 47 -90 32
-47 38 -63 31 -80 -6 -14 -41 -33 -103 -57 -52 -20 -118 -44 -146 -53 -29 -10
-59 -15 -67 -12 -11 4 -13 19 -9 64 4 48 1 68 -21 118 -15 33 -43 84 -63 113
-32 46 -35 54 -22 67 9 10 37 16 74 16 32 1 81 10 109 20 28 10 54 18 58 19z"/>
</g>
</svg>
