<?xml version="1.0" standalone="no"?>
<!DOCTYPE svg PUBLIC "-//W3C//DTD SVG 20010904//EN"
 "http://www.w3.org/TR/2001/REC-SVG-20010904/DTD/svg10.dtd">
<svg version="1.0" xmlns="http://www.w3.org/2000/svg"
 width="128.000000pt" height="128.000000pt" viewBox="0 0 128.000000 128.000000"
 preserveAspectRatio="xMidYMid meet">
<metadata>
Created by potrace 1.16, written by Peter Selinger 2001-2019
</metadata>
<g transform="translate(0.000000,128.000000) scale(0.100000,-0.100000)"
fill="#000000" stroke="none">
<path d="M866 1179 c-6 0 -32 -23 -58 -50 -27 -28 -48 -54 -48 -58 0 -4 16
-40 37 -80 24 -48 33 -75 26 -82 -6 -6 -41 -14 -79 -19 -38 -5 -95 -15 -126
-21 -48 -10 -60 -17 -72 -40 -11 -22 -12 -38 -5 -66 5 -21 16 -56 24 -78 7
-22 16 -56 19 -76 4 -22 24 -56 50 -87 25 -29 48 -61 51 -72 4 -13 -6 -38 -31
-75 -20 -31 -51 -67 -69 -80 -17 -14 -37 -25 -43 -25 -6 0 -19 -11 -28 -24 -8
-14 -30 -30 -47 -35 -18 -6 -56 -13 -84 -17 -35 -4 -64 -2 -85 7 -18 7 -49 24
-70 37 -20 13 -40 35 -46 50 -5 15 -15 44 -21 64 -9 29 -9 47 0 80 6 24 17 70
24 103 7 33 29 121 48 195 21 78 33 147 30 163 -4 20 -1 27 10 27 9 0 23 10
31 22 14 20 14 24 -2 41 -9 10 -30 26 -45 34 -21 10 -32 11 -41 4 -7 -6 -16
-31 -19 -56 -4 -25 -15 -62 -25 -83 -11 -20 -25 -62 -31 -92 -7 -30 -19 -72
-27 -93 -8 -20 -14 -47 -14 -59 0 -12 -8 -31 -18 -42 -10 -12 -24 -51 -30 -87
-7 -37 -12 -94 -12 -128 0 -42 6 -74 20 -101 11 -22 20 -47 20 -57 0 -10 9
-31 19 -48 10 -16 28 -40 40 -52 19 -20 32 -23 99 -22 42 0 100 4 127 9 28 6
75 13 105 16 30 4 69 15 86 25 27 16 33 17 43 5 10 -12 4 -19 -33 -41 -25 -15
-43 -31 -40 -36 3 -5 23 -9 45 -9 27 0 70 15 132 44 51 25 114 50 142 56 27 6
55 16 63 23 8 6 24 17 36 24 11 7 49 26 84 43 35 17 65 37 68 45 5 11 11 12
25 5 13 -8 28 -6 51 3 18 8 42 24 52 36 17 19 18 23 4 39 -9 9 -19 33 -23 52
-4 19 -11 40 -15 45 -4 6 -15 31 -25 57 -9 25 -30 59 -46 74 -16 15 -29 33
-29 40 0 7 -11 25 -23 41 -13 15 -27 42 -30 60 -4 18 -22 54 -41 82 -19 27
-32 52 -29 55 4 3 14 6 23 6 9 0 40 16 70 35 30 19 64 35 75 35 11 0 35 9 53
20 19 12 32 28 32 40 0 14 -19 32 -57 57 -46 29 -75 39 -140 49 -46 7 -97 19
-114 28 -18 9 -37 16 -43 15z m83 -126 c25 -3 52 -11 60 -19 12 -11 12 -17 -3
-39 -9 -14 -29 -31 -43 -38 -23 -10 -28 -8 -49 16 -13 16 -24 38 -24 51 0 12
3 26 6 29 4 3 27 4 53 0z m-68 -155 c6 -2 12 -28 13 -58 1 -41 8 -65 28 -95
15 -22 30 -52 33 -68 4 -15 11 -30 16 -33 5 -3 9 -16 9 -29 0 -13 5 -27 11
-30 5 -4 22 -32 36 -63 15 -32 32 -73 39 -92 9 -23 10 -38 3 -46 -6 -7 -34
-20 -62 -29 -29 -9 -65 -23 -82 -32 -16 -9 -33 -22 -37 -29 -5 -7 -27 -21 -50
-32 -24 -11 -60 -27 -81 -36 -21 -10 -45 -15 -53 -12 -13 5 -13 9 0 29 9 13
29 32 44 44 20 14 36 42 51 87 12 36 20 75 16 86 -3 10 -29 36 -56 56 -41 29
-58 52 -90 118 -21 44 -39 91 -39 104 0 16 9 26 33 36 17 8 68 25 112 38 60
19 81 30 83 44 2 10 5 25 8 32 2 8 9 12 15 10z"/>
</g>
</svg>
