<?xml version="1.0" standalone="no"?>
<!DOCTYPE svg PUBLIC "-//W3C//DTD SVG 20010904//EN"
 "http://www.w3.org/TR/2001/REC-SVG-20010904/DTD/svg10.dtd">
<svg version="1.0" xmlns="http://www.w3.org/2000/svg"
 width="128.000000pt" height="128.000000pt" viewBox="0 0 128.000000 128.000000"
 preserveAspectRatio="xMidYMid meet">
<metadata>
Created by potrace 1.16, written by Peter Selinger 2001-2019
</metadata>
<g transform="translate(0.000000,128.000000) scale(0.100000,-0.100000)"
fill="#000000" stroke="none">
<path d="M926 1098 c-34 2 -48 -1 -52 -12 -3 -8 2 -28 10 -45 9 -16 16 -37 16
-46 0 -9 7 -27 16 -40 8 -13 14 -34 12 -47 -3 -21 -8 -23 -48 -20 -25 2 -85
17 -134 33 -62 21 -92 27 -99 20 -7 -7 -8 -20 -1 -38 6 -19 18 -29 34 -31 14
-2 32 -10 40 -17 8 -7 34 -21 58 -30 31 -13 58 -16 95 -12 29 4 57 3 63 -1 6
-4 21 -28 33 -54 11 -26 21 -56 21 -67 0 -12 18 -78 41 -148 22 -71 54 -159
69 -198 16 -38 32 -80 35 -92 4 -14 14 -23 26 -23 13 0 26 14 40 45 15 32 19
53 14 77 -4 18 -14 56 -22 83 -9 28 -20 54 -24 59 -5 6 -9 21 -9 33 0 13 -16
70 -35 127 -19 57 -35 120 -35 139 0 26 6 40 22 51 13 9 44 16 73 16 34 1 57
7 73 19 12 11 22 26 22 35 0 9 -6 16 -14 16 -7 0 -30 14 -51 30 -21 17 -49 30
-63 30 -14 0 -35 -9 -46 -19 -12 -11 -32 -21 -45 -23 -21 -3 -27 4 -44 47 -10
28 -25 61 -32 75 -11 20 -22 26 -59 28z"/>
<path d="M140 1063 c-8 3 -30 1 -49 -3 -18 -4 -37 -14 -42 -21 -5 -9 5 -26 31
-53 32 -31 40 -47 40 -74 0 -20 -4 -49 -9 -66 -6 -17 -15 -65 -22 -106 -6 -41
-22 -109 -35 -150 -13 -41 -28 -122 -33 -180 -6 -58 -7 -130 -3 -160 7 -55 7
-55 182 -54 127 1 190 5 230 17 30 9 99 31 153 51 53 19 105 41 114 48 9 7 34
31 56 52 21 22 48 53 58 70 10 17 19 40 19 52 0 11 -9 29 -21 40 -11 10 -31
41 -44 69 -12 27 -32 73 -43 100 -12 28 -24 67 -28 87 -3 21 -12 42 -20 49
-11 9 -15 8 -19 -3 -3 -8 -5 -87 -3 -174 2 -87 7 -166 11 -175 6 -12 -4 -21
-50 -40 -31 -13 -76 -37 -99 -52 -27 -18 -61 -30 -96 -33 -29 -4 -73 -13 -97
-21 -43 -13 -47 -13 -102 14 -40 19 -62 37 -70 56 -8 19 -9 35 -2 50 6 12 18
45 27 72 9 28 16 60 16 73 0 12 7 33 14 45 8 12 20 47 25 77 6 30 15 80 21
110 7 30 15 75 20 99 7 41 5 47 -26 81 -19 21 -46 40 -62 43 -15 3 -34 8 -42
10z m12 -755 c15 -2 24 -11 26 -26 2 -13 -3 -25 -13 -28 -9 -4 -23 0 -32 9 -9
9 -13 23 -9 32 3 10 15 15 28 13z"/>
</g>
</svg>
