<?xml version="1.0" standalone="no"?>
<!DOCTYPE svg PUBLIC "-//W3C//DTD SVG 20010904//EN"
 "http://www.w3.org/TR/2001/REC-SVG-20010904/DTD/svg10.dtd">
<svg version="1.0" xmlns="http://www.w3.org/2000/svg"
 width="128.000000pt" height="128.000000pt" viewBox="0 0 128.000000 128.000000"
 preserveAspectRatio="xMidYMid meet">
<metadata>
Created by potrace 1.16, written by Peter Selinger 2001-2019
</metadata>
<g transform="translate(0.000000,128.000000) scale(0.100000,-0.100000)"
fill="#000000" stroke="none">
<path d="M540 1280 c-5 0 -10 -4 -10 -9 0 -5 -9 -13 -20 -16 -11 -3 -20 -12
-20 -20 0 -7 14 -18 30 -24 17 -5 30 -14 30 -19 0 -5 -11 -14 -25 -20 -14 -7
-43 -12 -63 -12 -21 0 -48 -7 -60 -16 -15 -10 -22 -25 -22 -49 0 -19 -5 -37
-11 -41 -7 -4 -27 -41 -47 -83 -19 -42 -43 -87 -53 -100 -11 -13 -19 -38 -19
-55 0 -17 7 -39 14 -48 7 -10 23 -18 34 -18 14 0 30 14 46 39 14 22 33 45 43
53 10 7 31 30 46 51 23 30 32 36 42 27 8 -7 19 -9 25 -5 5 3 10 22 10 40 0 25
6 37 22 46 12 7 52 16 88 21 36 5 82 11 103 15 21 3 43 1 49 -5 6 -6 1 -16
-16 -30 -18 -14 -22 -21 -13 -25 7 -3 37 0 66 6 37 7 67 7 101 -1 30 -7 59 -8
81 -2 19 5 46 12 62 15 16 3 27 12 27 22 0 9 -27 42 -59 75 -33 32 -63 67 -66
78 -3 10 -15 22 -25 25 -10 3 -32 0 -47 -8 -15 -8 -63 -25 -105 -38 -59 -18
-78 -28 -78 -41 0 -10 -2 -18 -5 -18 -2 0 -16 5 -30 12 -14 6 -25 15 -25 19 0
5 9 13 21 19 18 10 20 17 14 53 -4 23 -13 45 -19 49 -6 5 -23 5 -38 2 -19 -4
-33 1 -47 15 -12 12 -25 21 -31 21z m-15 -155 c30 -2 59 -6 65 -10 5 -3 10
-13 10 -20 0 -8 -12 -17 -27 -20 -16 -4 -43 -13 -61 -21 -18 -8 -44 -11 -57
-8 -14 3 -25 12 -25 19 0 7 9 24 20 38 18 22 26 25 75 22z"/>
<path d="M682 970 c-15 0 -33 -5 -40 -12 -7 -7 -8 -16 -3 -22 5 -6 10 -20 12
-31 1 -11 -1 -28 -5 -37 -5 -11 -1 -27 13 -44 12 -15 21 -31 21 -37 0 -5 -12
-21 -27 -35 -16 -15 -43 -34 -61 -43 -28 -15 -34 -15 -39 -3 -3 8 -3 29 0 47
4 17 9 46 13 64 5 26 1 37 -20 58 -14 14 -30 24 -35 20 -5 -3 -12 -20 -16 -38
-4 -17 -21 -57 -37 -87 -22 -39 -31 -67 -30 -95 2 -32 -3 -43 -21 -54 -12 -8
-37 -22 -55 -31 -18 -9 -62 -49 -97 -90 -51 -57 -65 -80 -65 -105 0 -17 5 -36
12 -43 7 -7 20 -12 30 -12 9 0 66 20 127 45 60 25 117 45 125 45 9 0 16 -9 16
-20 0 -11 -8 -35 -18 -53 -10 -17 -30 -51 -45 -73 -21 -31 -28 -52 -25 -79 2
-23 10 -42 20 -49 14 -8 22 -6 36 9 10 11 24 39 30 61 7 23 21 53 33 68 16 21
26 25 47 20 15 -4 31 -11 37 -15 5 -5 18 -9 30 -9 11 0 31 -9 44 -19 19 -14
22 -24 17 -45 -3 -14 -12 -26 -20 -26 -7 0 -47 -26 -87 -59 -41 -32 -83 -61
-94 -65 -11 -3 -38 -22 -60 -41 -40 -34 -40 -34 17 -35 49 0 60 3 73 23 8 13
32 33 52 44 21 12 51 35 67 52 17 17 35 31 41 31 6 0 21 14 34 31 20 26 27 29
54 24 18 -4 41 -16 53 -26 11 -11 36 -24 55 -29 19 -6 42 -10 51 -10 13 0 18
8 18 28 0 19 -11 36 -36 57 -29 24 -35 36 -30 52 4 12 47 57 96 100 82 72 90
81 90 115 0 20 -3 43 -6 52 -3 8 -31 34 -61 57 -49 36 -58 40 -80 30 -13 -6
-34 -11 -46 -11 -12 0 -30 -7 -39 -14 -10 -7 -18 -18 -18 -25 0 -6 17 -11 40
-11 21 0 55 -8 75 -17 19 -9 35 -24 35 -33 0 -10 -10 -31 -22 -48 -13 -17 -42
-55 -65 -86 -24 -30 -47 -57 -52 -60 -5 -4 -38 -7 -73 -7 -35 -1 -89 7 -121
16 -32 9 -61 23 -64 31 -3 8 1 38 9 67 14 52 14 52 77 68 35 8 76 26 93 40 25
20 29 29 23 52 -5 18 -14 27 -27 27 -11 0 -31 -9 -45 -20 -14 -11 -31 -20 -38
-20 -7 0 -15 17 -18 38 -3 20 -9 47 -13 59 -5 19 0 25 37 42 24 11 65 29 91
40 26 12 59 21 73 21 15 0 28 7 32 17 4 11 -5 27 -30 50 -24 21 -47 33 -65 33
-17 0 -37 9 -50 23 -12 13 -22 33 -22 45 0 17 -6 22 -28 22z m-147 -353 c23
-1 29 -6 27 -21 -2 -10 -12 -28 -23 -39 -10 -11 -35 -26 -56 -33 -20 -7 -40
-11 -45 -8 -4 3 -8 13 -8 22 0 9 17 32 37 49 28 24 46 32 68 30z"/>
</g>
</svg>
