<?xml version="1.0" standalone="no"?>
<!DOCTYPE svg PUBLIC "-//W3C//DTD SVG 20010904//EN"
 "http://www.w3.org/TR/2001/REC-SVG-20010904/DTD/svg10.dtd">
<svg version="1.0" xmlns="http://www.w3.org/2000/svg"
 width="128.000000pt" height="128.000000pt" viewBox="0 0 128.000000 128.000000"
 preserveAspectRatio="xMidYMid meet">
<metadata>
Created by potrace 1.16, written by Peter Selinger 2001-2019
</metadata>
<g transform="translate(0.000000,128.000000) scale(0.100000,-0.100000)"
fill="#000000" stroke="none">
<path d="M417 1245 c-31 13 -38 13 -50 0 -13 -13 -13 -20 0 -57 9 -24 16 -65
17 -92 1 -43 -2 -51 -34 -78 -19 -16 -48 -35 -65 -42 -16 -8 -43 -27 -59 -44
-24 -26 -27 -34 -16 -47 7 -9 28 -15 51 -15 35 0 39 3 60 46 13 25 27 48 32
51 5 3 13 -1 18 -8 5 -8 8 -38 7 -66 -1 -37 4 -58 15 -71 9 -10 17 -25 17 -33
0 -9 -13 -28 -30 -44 -21 -20 -30 -38 -30 -60 0 -17 5 -36 12 -43 7 -7 24 -12
38 -12 14 0 53 7 85 15 33 8 92 31 130 50 39 19 97 41 130 50 33 9 79 23 101
31 27 9 56 12 83 8 33 -5 47 -15 72 -48 16 -22 37 -66 45 -96 9 -30 22 -74 31
-97 9 -25 13 -57 10 -80 -3 -21 -14 -69 -25 -108 -10 -38 -27 -86 -37 -104
-10 -19 -44 -61 -77 -93 -33 -32 -68 -58 -78 -58 -10 0 -22 4 -25 10 -3 5 -24
10 -46 10 -23 0 -66 13 -105 31 -48 23 -69 28 -77 20 -8 -8 -7 -15 3 -26 8 -7
31 -25 50 -39 19 -14 60 -38 90 -52 43 -20 59 -23 72 -15 10 6 33 11 52 11 19
0 38 4 41 10 3 6 17 10 30 10 16 0 31 10 42 28 9 15 29 41 45 57 15 17 43 56
61 87 28 46 36 73 47 154 7 55 12 135 12 179 1 69 -3 87 -26 127 -15 25 -45
63 -66 82 -22 20 -49 36 -60 36 -12 0 -32 7 -45 16 -19 12 -37 14 -77 9 -29
-4 -75 -16 -103 -27 -27 -11 -66 -22 -85 -24 -19 -3 -61 -14 -93 -25 -32 -11
-65 -18 -73 -15 -8 3 -14 10 -14 16 0 6 17 28 38 49 20 21 60 63 87 93 28 31
74 81 103 113 28 32 52 65 52 74 0 9 -13 32 -29 51 -26 31 -32 34 -50 23 -11
-7 -30 -13 -41 -13 -11 0 -23 -7 -27 -16 -3 -9 -1 -25 5 -35 7 -10 12 -24 12
-31 0 -7 -30 -47 -66 -88 -36 -41 -71 -87 -79 -101 -8 -15 -21 -29 -29 -32 -8
-3 -20 1 -26 8 -7 8 -12 25 -11 37 0 13 5 57 10 98 5 41 10 105 10 141 1 44
-4 70 -12 78 -8 6 -30 17 -50 26z"/>
<path d="M790 620 c-35 0 -47 -6 -82 -42 -41 -42 -41 -42 -72 -5 -19 23 -40
37 -54 37 -12 0 -25 -7 -29 -16 -3 -10 -1 -31 6 -48 7 -17 15 -38 18 -47 3
-12 -10 -20 -54 -34 -32 -10 -75 -26 -95 -37 -26 -12 -38 -25 -38 -39 0 -14
10 -24 28 -31 24 -9 31 -20 41 -68 7 -31 11 -67 9 -80 -2 -15 -19 -34 -48 -52
-25 -15 -49 -29 -55 -32 -5 -2 -39 -9 -75 -16 -36 -7 -76 -14 -90 -14 -25 -1
-25 -1 -23 119 2 66 8 138 14 160 6 22 16 50 22 62 7 16 6 31 -3 52 -10 24
-19 31 -41 31 -15 0 -31 -5 -34 -10 -3 -6 -8 -36 -10 -68 -2 -31 -8 -100 -13
-152 -6 -52 -13 -108 -17 -125 -4 -19 1 -51 14 -85 11 -30 26 -59 33 -63 8 -6
59 6 135 32 67 23 128 41 136 41 8 0 40 11 70 25 31 13 61 33 66 44 6 11 11
28 11 38 0 10 -9 36 -20 58 -11 21 -32 52 -47 68 -28 29 -28 29 -1 52 15 13
50 31 78 40 41 14 54 15 66 4 9 -7 25 -31 36 -53 12 -23 39 -69 61 -103 22
-35 46 -63 53 -63 6 0 15 7 18 16 3 9 6 29 6 46 0 16 -16 59 -36 94 -20 35
-40 66 -45 70 -5 3 -9 14 -9 25 0 11 25 45 55 75 30 31 55 65 55 75 0 16 -7
19 -40 19z"/>
</g>
</svg>
