<?xml version="1.0" standalone="no"?>
<!DOCTYPE svg PUBLIC "-//W3C//DTD SVG 20010904//EN"
 "http://www.w3.org/TR/2001/REC-SVG-20010904/DTD/svg10.dtd">
<svg version="1.0" xmlns="http://www.w3.org/2000/svg"
 width="128.000000pt" height="128.000000pt" viewBox="0 0 128.000000 128.000000"
 preserveAspectRatio="xMidYMid meet">
<metadata>
Created by potrace 1.16, written by Peter Selinger 2001-2019
</metadata>
<g transform="translate(0.000000,128.000000) scale(0.100000,-0.100000)"
fill="#000000" stroke="none">
<path d="M254 1280 c-30 0 -54 -3 -54 -8 0 -4 7 -17 15 -29 10 -14 12 -24 5
-28 -6 -3 -20 -3 -32 1 -19 6 -21 4 -15 -30 5 -31 3 -37 -21 -49 -22 -10 -27
-19 -25 -46 1 -21 9 -38 22 -47 12 -9 21 -22 21 -30 0 -8 6 -14 13 -14 6 0 19
5 27 10 10 6 20 4 32 -7 17 -15 21 -15 51 2 33 17 33 17 4 46 -15 16 -26 33
-22 39 3 5 13 10 21 10 8 0 14 7 14 16 0 9 10 30 22 46 20 29 20 32 4 57 -10
14 -20 34 -23 44 -4 13 -17 17 -59 17z"/>
<path d="M842 1248 c-32 0 -60 -6 -80 -18 -17 -11 -34 -30 -36 -42 -3 -13 -7
-39 -10 -58 -3 -19 -8 -51 -12 -70 -3 -19 -12 -42 -19 -50 -7 -8 -16 -25 -19
-37 -4 -13 -15 -23 -26 -23 -10 0 -20 -6 -23 -12 -3 -10 -7 -10 -20 1 -10 7
-17 22 -17 33 0 10 -12 30 -26 43 -22 20 -37 25 -83 25 -35 0 -65 -6 -79 -16
-12 -8 -34 -38 -48 -67 -15 -28 -41 -67 -60 -86 -19 -20 -34 -39 -34 -43 0 -5
-7 -8 -14 -8 -8 0 -27 16 -42 35 -14 19 -31 32 -36 29 -6 -4 -7 -20 -3 -38 3
-17 10 -58 15 -91 5 -33 12 -77 16 -97 5 -33 2 -42 -37 -87 -44 -51 -44 -51
-44 -151 0 -77 3 -100 13 -100 7 0 22 5 34 11 11 6 29 32 40 57 12 26 28 58
38 72 9 14 22 45 29 70 7 25 14 80 15 122 1 63 6 83 24 108 13 17 30 49 37 71
8 22 25 54 37 70 13 17 34 43 48 59 22 26 27 28 43 16 14 -11 17 -30 18 -99 1
-46 -1 -90 -5 -96 -4 -5 -10 -45 -13 -88 -4 -43 -7 -184 -6 -314 0 -226 1
-238 22 -266 12 -16 19 -36 16 -45 -3 -8 -27 -27 -53 -41 -47 -27 -47 -27 1
-27 45 0 50 3 109 65 34 36 70 65 79 65 9 0 35 20 57 44 22 24 45 52 51 63 6
12 24 23 42 25 27 4 34 0 56 -34 14 -21 30 -38 35 -38 5 0 11 8 15 17 3 10 13
26 20 35 8 9 12 22 8 27 -3 6 -12 11 -19 11 -7 0 -18 11 -24 25 -8 18 -9 33
-1 52 6 16 19 37 29 48 10 11 21 31 25 45 3 14 16 44 28 67 21 40 21 44 5 71
-11 18 -14 33 -8 42 6 8 10 31 10 50 0 19 -8 45 -18 56 -9 12 -29 29 -44 39
-23 14 -28 24 -28 59 0 22 7 59 14 81 13 36 19 41 56 48 28 6 46 5 53 -2 6 -6
19 -11 28 -11 9 0 20 -8 24 -17 4 -10 9 -74 12 -142 3 -88 9 -131 20 -148 12
-17 13 -35 8 -70 -5 -27 -9 -66 -10 -88 0 -22 3 -66 7 -99 6 -38 5 -62 -2 -71
-8 -9 -7 -17 5 -28 8 -9 15 -21 15 -27 0 -7 -10 -20 -22 -30 -20 -16 -21 -22
-10 -39 6 -11 12 -34 12 -51 0 -19 -5 -30 -14 -30 -8 0 -17 4 -20 9 -4 5 -7
22 -8 38 -2 15 -9 36 -18 46 -8 10 -23 23 -33 29 -14 7 -23 6 -35 -6 -10 -8
-27 -24 -39 -36 -13 -11 -23 -24 -23 -30 0 -5 18 -21 40 -35 22 -14 47 -36 56
-50 9 -14 25 -30 35 -36 13 -7 26 -6 40 2 16 8 27 8 46 -2 20 -11 26 -10 39 3
14 14 14 23 4 70 -11 47 -10 59 4 86 9 17 16 42 16 56 0 14 -5 28 -11 31 -7 5
-8 55 -5 153 3 81 9 202 12 268 6 120 6 122 -16 129 -22 7 -22 7 -1 29 12 12
21 31 21 43 0 11 -5 34 -11 52 -7 20 -20 33 -35 37 -13 4 -28 14 -34 23 -7 12
-13 14 -27 5 -10 -6 -24 -9 -30 -7 -7 3 -13 13 -13 23 0 10 -3 21 -8 23 -4 3
-19 3 -34 0 -17 -3 -35 -18 -48 -40 -11 -19 -25 -31 -30 -28 -6 3 -10 21 -10
40 0 19 5 46 12 60 8 19 8 31 0 50 -9 19 -9 31 0 50 8 18 8 28 0 38 -7 8 -33
14 -60 15z m-38 -91 c7 -2 11 -33 11 -77 0 -74 0 -74 -34 -83 -21 -5 -37 -5
-43 1 -7 7 -2 32 12 74 12 34 26 69 32 76 6 7 16 11 22 9z m-11 -247 c4 0 7
-28 6 -62 -1 -35 3 -74 9 -88 5 -14 22 -37 37 -53 16 -15 26 -30 22 -33 -3 -3
-1 -20 4 -37 6 -20 5 -44 -2 -67 -7 -19 -16 -46 -22 -60 -5 -14 -15 -36 -23
-50 -7 -14 -18 -25 -25 -25 -6 0 -19 19 -28 43 -10 24 -21 44 -27 45 -5 1 -10
-13 -12 -31 -2 -18 6 -61 17 -95 12 -33 21 -65 21 -69 0 -4 -11 -8 -24 -8 -16
0 -32 -12 -51 -40 -15 -22 -39 -43 -51 -46 -14 -4 -24 -14 -24 -24 0 -9 -8
-24 -18 -33 -17 -15 -19 -15 -35 3 -9 11 -17 27 -17 36 0 8 7 28 15 43 8 17
11 38 7 54 -4 14 -4 106 0 204 4 98 10 208 14 246 5 56 3 67 -10 67 -8 0 -18
-5 -21 -10 -4 -6 -11 -8 -16 -5 -5 4 -9 15 -9 26 0 10 5 19 10 19 6 0 10 9 10
20 0 11 3 20 7 20 4 0 17 -10 30 -22 20 -19 27 -20 43 -10 10 6 21 8 24 4 3
-5 12 -28 20 -53 9 -24 16 -59 16 -76 0 -18 5 -54 11 -80 6 -27 15 -58 20 -70
5 -13 13 -23 19 -23 5 0 10 8 10 18 -1 9 -7 35 -15 57 -8 21 -11 44 -6 50 4 5
7 24 6 40 -1 17 -5 50 -9 74 -8 43 -7 46 25 73 19 15 38 28 42 28z m183 -737
c8 -3 14 -8 14 -12 0 -4 -5 -12 -12 -19 -7 -7 -16 -12 -20 -12 -4 0 -8 8 -8
18 0 10 3 21 6 25 3 3 12 3 20 0z"/>
<path d="M109 100 c-4 0 -5 -17 -2 -37 3 -21 12 -44 21 -50 9 -7 27 -13 40
-13 19 0 22 4 17 23 -4 12 -21 34 -38 50 -17 15 -35 27 -38 27z"/>
<path d="M675 22 c-19 2 -45 -2 -57 -9 -21 -11 -16 -12 40 -13 35 0 61 4 58 9
-3 5 -22 11 -41 13z"/>
</g>
</svg>
