<?xml version="1.0" standalone="no"?>
<!DOCTYPE svg PUBLIC "-//W3C//DTD SVG 20010904//EN"
 "http://www.w3.org/TR/2001/REC-SVG-20010904/DTD/svg10.dtd">
<svg version="1.0" xmlns="http://www.w3.org/2000/svg"
 width="128.000000pt" height="128.000000pt" viewBox="0 0 128.000000 128.000000"
 preserveAspectRatio="xMidYMid meet">
<metadata>
Created by potrace 1.16, written by Peter Selinger 2001-2019
</metadata>
<g transform="translate(0.000000,128.000000) scale(0.100000,-0.100000)"
fill="#000000" stroke="none">
<path d="M258 1238 c-46 0 -70 -4 -79 -14 -8 -10 -9 -35 -4 -81 4 -38 11 -76
16 -85 6 -10 18 -18 29 -18 12 0 30 16 46 42 15 23 33 58 41 77 7 20 18 44 23
53 5 9 6 19 2 21 -4 2 -37 4 -74 5z"/>
<path d="M689 1240 c-23 0 -33 -8 -51 -40 -13 -22 -28 -40 -33 -40 -6 0 -27
16 -48 36 -20 20 -43 34 -51 31 -7 -3 -17 -18 -20 -33 -6 -22 -3 -32 13 -44
11 -8 32 -23 46 -34 21 -15 25 -23 20 -45 -3 -14 -25 -55 -48 -91 -23 -36 -61
-90 -85 -120 -24 -30 -50 -64 -58 -75 -8 -11 -36 -47 -63 -80 -26 -33 -50 -66
-52 -73 -3 -7 -27 -44 -54 -82 -28 -38 -55 -69 -62 -69 -6 -1 -16 13 -22 29
-5 17 -14 30 -19 30 -5 0 -14 -6 -20 -13 -6 -6 -14 -26 -18 -42 -4 -17 -20
-56 -35 -87 -16 -32 -29 -64 -29 -73 0 -8 6 -15 14 -15 7 0 24 6 37 12 14 7
40 24 59 37 19 13 68 57 107 98 40 40 91 100 113 133 22 33 48 60 57 60 12 0
14 -7 10 -35 -3 -19 -1 -37 4 -41 6 -3 39 9 75 27 47 23 68 29 76 21 8 -8 2
-26 -19 -64 -17 -29 -40 -81 -52 -116 -13 -38 -21 -87 -21 -126 0 -48 7 -81
27 -128 14 -35 31 -69 37 -77 6 -8 29 -27 50 -43 21 -15 49 -28 62 -28 13 0
25 4 28 9 4 5 -6 23 -20 41 -16 18 -26 42 -26 58 1 15 2 45 3 67 1 24 -7 56
-20 80 -13 24 -21 57 -21 85 1 42 3 47 42 70 23 14 63 42 89 63 27 20 71 46
99 57 40 16 56 18 71 9 12 -6 18 -17 15 -25 -3 -8 -25 -39 -48 -68 -24 -29
-60 -61 -82 -71 -21 -11 -42 -30 -48 -44 -5 -14 -8 -41 -6 -60 2 -29 8 -37 26
-39 13 -2 60 4 105 13 45 9 90 18 100 21 11 3 17 15 17 33 0 15 -9 36 -20 46
-11 10 -20 26 -20 36 0 9 23 37 50 62 38 34 50 52 50 74 0 16 -7 39 -16 51 -8
12 -28 29 -44 37 -16 8 -45 15 -65 15 -21 0 -67 -15 -110 -36 -40 -20 -81 -45
-91 -55 -10 -11 -38 -29 -62 -39 -24 -11 -48 -17 -53 -14 -5 3 -9 13 -9 23 0
10 11 44 25 75 19 43 30 57 52 62 16 3 47 12 71 20 23 8 51 14 62 14 10 0 31
5 45 12 14 6 25 15 25 20 0 5 -16 29 -36 54 -23 28 -34 50 -30 60 5 14 18 15
89 9 45 -4 114 -13 154 -20 40 -8 81 -18 91 -24 11 -6 41 -15 68 -21 37 -8 54
-8 71 1 13 7 23 19 23 28 0 9 -16 27 -34 39 -19 13 -61 34 -93 48 -32 13 -74
26 -93 30 -19 3 -87 29 -150 56 -63 27 -127 56 -142 64 -15 8 -30 13 -35 12
-4 -1 -20 9 -34 22 -27 24 -27 24 2 75 16 29 26 55 22 58 -3 4 -19 7 -34 7z
m-24 -190 c13 0 30 -6 37 -13 7 -8 27 -21 43 -30 17 -9 48 -25 71 -36 23 -10
44 -26 47 -35 4 -9 -1 -19 -11 -24 -9 -5 -34 -12 -54 -15 -20 -3 -52 -12 -70
-20 -18 -8 -41 -17 -50 -21 -10 -3 -18 -11 -18 -17 0 -7 12 -9 35 -5 27 5 35
4 35 -8 0 -8 -12 -24 -26 -35 -15 -12 -31 -21 -37 -21 -6 0 -18 -6 -26 -14 -9
-7 -38 -21 -65 -31 -29 -12 -52 -27 -59 -42 -10 -23 -10 -23 -29 8 -18 30 -18
31 3 57 18 23 19 27 5 30 -9 2 -16 10 -16 19 0 8 22 49 49 91 27 43 64 96 81
120 21 29 38 42 55 42z"/>
<path d="M1273 1220 c-5 0 -21 -16 -36 -35 -16 -20 -27 -43 -25 -53 2 -11 14
-18 36 -20 32 -3 32 -3 32 52 0 31 -3 56 -7 56z"/>
<path d="M1255 1040 c-16 0 -25 -6 -25 -15 0 -9 9 -15 25 -15 16 0 25 6 25 15
0 9 -9 15 -25 15z"/>
<path d="M1272 630 c-5 0 -16 -8 -25 -18 -10 -10 -17 -28 -17 -40 0 -17 6 -22
25 -22 23 0 25 4 25 40 0 22 -4 40 -8 40z"/>
<path d="M1270 320 c-5 0 -14 -9 -20 -20 -6 -11 -34 -38 -63 -59 -29 -22 -63
-60 -77 -85 -17 -32 -21 -49 -14 -56 7 -7 28 2 69 29 43 29 62 37 71 30 7 -6
14 -34 16 -62 2 -29 8 -52 16 -55 9 -3 12 29 12 137 0 84 -4 141 -10 141z"/>
</g>
</svg>
