<?xml version="1.0" standalone="no"?>
<!DOCTYPE svg PUBLIC "-//W3C//DTD SVG 20010904//EN"
 "http://www.w3.org/TR/2001/REC-SVG-20010904/DTD/svg10.dtd">
<svg version="1.0" xmlns="http://www.w3.org/2000/svg"
 width="128.000000pt" height="128.000000pt" viewBox="0 0 128.000000 128.000000"
 preserveAspectRatio="xMidYMid meet">
<metadata>
Created by potrace 1.16, written by Peter Selinger 2001-2019
</metadata>
<g transform="translate(0.000000,128.000000) scale(0.100000,-0.100000)"
fill="#000000" stroke="none">
<path d="M442 1279 c-4 0 -20 -13 -36 -29 -30 -29 -30 -29 -5 -39 14 -5 33
-21 42 -35 9 -14 17 -29 17 -34 0 -5 -11 -14 -24 -20 -17 -7 -25 -22 -30 -52
-3 -22 -18 -64 -31 -92 -14 -29 -25 -64 -25 -79 0 -19 -13 -40 -39 -66 -21
-21 -44 -49 -51 -63 -7 -13 -37 -57 -66 -96 -30 -40 -58 -76 -64 -79 -6 -4 -8
-11 -5 -16 4 -5 13 -9 21 -9 8 0 40 25 72 56 31 31 74 80 95 108 20 28 46 69
57 91 10 22 30 50 44 62 14 12 30 40 36 62 6 22 17 47 26 55 13 14 19 14 42 2
15 -8 44 -31 64 -52 20 -22 57 -54 81 -71 24 -18 49 -33 55 -33 6 0 12 -10 14
-22 2 -14 26 -37 68 -65 36 -23 72 -49 80 -57 8 -7 43 -45 77 -84 36 -40 81
-79 106 -91 25 -12 63 -21 90 -21 34 0 47 4 47 15 0 8 -20 28 -44 45 -25 16
-49 30 -54 30 -5 0 -31 24 -58 53 -27 28 -61 66 -75 82 -14 17 -38 39 -54 51
-17 11 -48 29 -70 40 -22 10 -58 35 -80 55 -22 21 -65 59 -95 86 -30 27 -72
61 -92 76 -20 15 -44 27 -52 27 -12 0 -15 9 -12 38 2 21 11 50 21 65 9 15 15
34 11 42 -3 8 -15 15 -26 15 -12 0 -32 11 -46 25 -14 14 -28 25 -32 24z"/>
<path d="M569 679 c-8 -1 -39 -11 -69 -23 -30 -11 -62 -25 -70 -31 -8 -5 -37
-12 -64 -15 -27 -3 -51 -10 -53 -16 -2 -6 4 -21 14 -32 13 -15 31 -22 63 -23
25 -1 91 2 147 6 71 6 112 14 133 26 16 10 30 27 30 37 0 12 -19 26 -59 45
-32 15 -65 26 -72 26z"/>
<path d="M97 570 c-8 0 -22 -9 -31 -19 -10 -11 -15 -25 -11 -30 3 -6 14 -11
24 -11 10 0 24 7 31 15 7 8 10 22 6 30 -3 8 -12 15 -19 15z"/>
<path d="M825 560 c-10 0 -15 -6 -13 -16 2 -8 7 -16 13 -17 5 -1 11 6 13 16 2
10 -3 17 -13 17z"/>
<path d="M770 440 c-3 0 -14 -6 -24 -12 -11 -6 -40 -13 -65 -15 -25 -2 -75
-10 -111 -19 -36 -8 -87 -24 -115 -35 -27 -10 -70 -20 -95 -21 -32 -1 -55 -9
-77 -27 -18 -14 -33 -30 -33 -34 0 -4 20 -16 44 -26 24 -11 46 -26 49 -33 3
-8 8 -61 12 -116 7 -89 10 -102 26 -102 10 0 25 10 33 22 9 12 16 30 16 39 0
9 7 22 15 29 9 7 58 14 122 17 60 2 151 8 203 11 95 7 95 7 95 117 1 73 -4
119 -13 138 -7 15 -27 37 -45 47 -18 11 -34 20 -37 20z m-37 -72 c19 -3 22
-10 25 -53 1 -27 -4 -61 -11 -75 -7 -13 -25 -28 -42 -32 -17 -4 -73 -19 -125
-33 -52 -15 -105 -29 -117 -32 -14 -3 -24 1 -31 14 -5 10 -14 34 -20 54 -9 34
-8 37 25 59 21 14 59 27 96 32 45 6 66 14 76 28 9 14 25 20 52 20 21 0 41 5
44 11 4 5 17 9 28 7z m79 -20 c6 -2 14 -10 16 -16 2 -7 -3 -12 -12 -12 -9 0
-16 7 -16 16 0 9 5 14 12 12z"/>
<path d="M1197 218 c-9 2 -20 -4 -23 -13 -4 -9 -2 -21 4 -27 6 -6 18 -8 27 -4
9 3 15 14 13 23 -2 10 -11 19 -21 21z"/>
<path d="M1188 59 c-13 0 -33 -5 -45 -11 -13 -6 -23 -17 -23 -25 0 -7 6 -16
14 -19 8 -3 27 0 43 8 15 7 29 21 31 31 3 12 -3 17 -20 16z"/>
</g>
</svg>
