<?xml version="1.0" standalone="no"?>
<!DOCTYPE svg PUBLIC "-//W3C//DTD SVG 20010904//EN"
 "http://www.w3.org/TR/2001/REC-SVG-20010904/DTD/svg10.dtd">
<svg version="1.0" xmlns="http://www.w3.org/2000/svg"
 width="128.000000pt" height="128.000000pt" viewBox="0 0 128.000000 128.000000"
 preserveAspectRatio="xMidYMid meet">
<metadata>
Created by potrace 1.16, written by Peter Selinger 2001-2019
</metadata>
<g transform="translate(0.000000,128.000000) scale(0.100000,-0.100000)"
fill="#000000" stroke="none">
<path d="M553 1280 c-5 -1 -14 -8 -21 -16 -10 -10 -23 -13 -43 -9 -22 5 -31 2
-36 -11 -4 -11 1 -23 15 -35 12 -9 27 -19 33 -21 6 -2 15 -21 20 -43 4 -22 13
-63 20 -92 11 -51 11 -52 -22 -92 -19 -22 -44 -61 -57 -88 -13 -26 -29 -57
-35 -69 -7 -11 -25 -42 -42 -68 -16 -26 -58 -82 -91 -124 -34 -42 -73 -88 -87
-101 -16 -14 -40 -24 -59 -25 -28 -1 -33 -5 -33 -26 0 -20 6 -26 27 -28 15 -2
38 4 51 13 24 15 27 14 103 -35 72 -46 83 -50 119 -44 22 4 49 13 60 20 11 8
29 14 42 14 12 0 37 8 55 19 18 10 59 22 91 25 36 4 66 2 79 -5 18 -10 24 -8
39 12 10 13 19 33 19 45 0 11 -15 34 -32 51 -18 17 -47 33 -64 36 -24 5 -36 1
-49 -13 -10 -11 -26 -20 -36 -20 -9 0 -48 -13 -85 -29 -38 -16 -87 -30 -109
-31 -22 -2 -59 -2 -83 -2 -24 0 -48 4 -54 10 -7 7 -4 14 11 21 12 7 32 34 46
61 14 27 36 57 50 66 13 9 27 24 30 35 3 10 26 38 50 63 23 25 49 62 55 83 7
21 17 44 23 51 5 6 25 12 43 12 26 0 39 -7 56 -31 13 -17 60 -60 105 -96 45
-35 89 -75 97 -87 8 -13 29 -26 45 -29 17 -4 56 -22 86 -42 31 -19 67 -35 81
-35 15 0 38 12 55 29 16 16 29 36 29 44 0 8 -13 20 -29 27 -16 6 -38 9 -49 6
-11 -4 -23 -2 -27 4 -3 5 -12 10 -20 10 -7 0 -52 24 -100 53 -49 29 -109 75
-136 105 -27 29 -54 65 -61 80 -7 15 -23 28 -35 30 -12 2 -26 9 -32 15 -6 8
-7 27 -1 52 5 22 10 55 10 73 0 18 7 47 16 63 11 22 12 34 4 44 -6 7 -37 23
-70 35 -33 12 -60 26 -60 31 0 5 -3 9 -7 9z"/>
<path d="M800 359 c-8 -1 -51 -10 -95 -21 -44 -11 -114 -29 -155 -40 -46 -13
-100 -20 -140 -19 -53 2 -71 -2 -92 -19 -15 -11 -30 -29 -33 -40 -4 -14 6 -30
40 -61 25 -23 45 -49 45 -58 0 -10 7 -26 15 -37 8 -10 15 -29 15 -41 0 -23 3
-23 114 -23 66 0 117 4 121 10 3 5 37 10 74 10 37 0 72 -5 78 -11 8 -8 17 -8
31 0 11 6 32 11 46 11 14 0 26 -4 26 -10 0 -6 32 -10 76 -10 47 0 73 4 69 10
-3 6 -36 10 -72 10 -51 0 -69 4 -79 18 -9 12 -11 35 -7 77 3 33 10 68 15 78 7
14 3 36 -13 78 -12 33 -31 66 -43 74 -11 8 -27 15 -36 14z m-152 -134 c90 0
105 -2 117 -19 10 -13 11 -24 4 -37 -5 -11 -17 -19 -27 -19 -9 0 -30 -9 -47
-20 -16 -11 -37 -20 -46 -20 -9 0 -30 -7 -45 -15 -16 -8 -43 -15 -60 -15 -17
0 -43 9 -58 21 -17 14 -28 34 -33 62 -3 23 -6 44 -5 47 1 3 23 7 49 10 27 3
94 5 151 5z"/>
</g>
</svg>
