<?xml version="1.0" standalone="no"?>
<!DOCTYPE svg PUBLIC "-//W3C//DTD SVG 20010904//EN"
 "http://www.w3.org/TR/2001/REC-SVG-20010904/DTD/svg10.dtd">
<svg version="1.0" xmlns="http://www.w3.org/2000/svg"
 width="128.000000pt" height="128.000000pt" viewBox="0 0 128.000000 128.000000"
 preserveAspectRatio="xMidYMid meet">
<metadata>
Created by potrace 1.16, written by Peter Selinger 2001-2019
</metadata>
<g transform="translate(0.000000,128.000000) scale(0.100000,-0.100000)"
fill="#000000" stroke="none">
<path d="M310 1187 c-36 1 -72 -1 -80 -4 -8 -3 -24 -14 -35 -24 -11 -9 -38
-19 -60 -21 -32 -2 -40 -7 -40 -23 0 -15 8 -21 32 -23 24 -2 35 2 45 17 10 17
23 21 63 21 27 0 70 6 95 14 25 7 45 19 45 27 0 10 -17 15 -65 16z"/>
<path d="M520 1180 c-19 0 -33 -7 -40 -20 -6 -11 -8 -26 -4 -33 4 -6 16 -18
26 -25 10 -7 18 -20 18 -28 0 -8 -4 -14 -10 -14 -5 0 -18 -17 -29 -37 -10 -21
-31 -49 -45 -62 -14 -14 -26 -34 -26 -45 0 -12 -15 -32 -35 -46 -19 -14 -49
-47 -67 -75 -17 -27 -31 -55 -30 -62 2 -7 -13 -19 -33 -27 -19 -8 -35 -20 -35
-25 0 -6 -8 -20 -17 -32 -10 -12 -28 -33 -40 -47 -13 -14 -23 -30 -23 -35 0
-6 -16 -26 -36 -44 -20 -18 -40 -33 -44 -33 -4 0 -13 -6 -19 -14 -6 -8 -13
-53 -14 -102 -2 -89 -2 -89 24 -92 23 -3 31 5 57 51 17 29 42 61 56 70 14 10
26 22 26 28 0 6 10 19 23 29 19 16 20 22 9 39 -6 11 -12 25 -12 30 0 5 13 11
29 14 16 4 38 18 48 33 10 15 33 43 52 61 32 33 33 34 12 40 -11 3 -21 9 -21
13 0 5 13 11 30 15 16 4 32 15 35 26 4 10 11 19 16 19 5 0 13 8 16 18 4 9 17
31 30 48 13 17 23 36 23 43 0 6 21 31 46 55 44 41 48 42 74 30 14 -8 41 -29
58 -49 18 -20 38 -32 46 -29 9 4 16 -4 20 -24 4 -16 24 -45 44 -65 20 -20 49
-40 63 -46 14 -5 33 -24 42 -43 11 -23 31 -40 68 -58 29 -13 54 -32 57 -42 2
-10 12 -18 22 -18 9 0 25 9 35 20 15 16 15 22 5 35 -7 8 -19 15 -26 15 -8 0
-24 6 -36 13 -12 6 -34 23 -50 36 -15 13 -28 30 -28 37 0 8 -12 21 -27 31 -16
9 -49 37 -75 62 -26 25 -58 56 -72 68 -14 12 -35 27 -46 33 -11 6 -20 18 -21
28 0 9 -8 31 -18 47 -13 22 -24 29 -41 27 -20 -3 -22 -1 -16 25 3 15 8 33 9
40 2 7 6 16 10 19 4 4 7 15 7 24 0 9 -16 24 -35 33 -20 9 -49 17 -65 17z"/>
<path d="M1270 800 c-6 0 -13 -6 -16 -14 -3 -8 -4 -23 -2 -32 1 -10 9 -19 16
-22 8 -2 12 8 12 32 0 20 -5 36 -10 36z"/>
<path d="M606 780 c-1 0 -6 -3 -9 -7 -4 -3 -33 -8 -65 -9 -31 -1 -71 -5 -88
-9 -25 -6 -34 -15 -44 -46 -10 -31 -11 -42 -1 -52 9 -9 16 -9 31 1 11 6 29 12
40 12 11 0 24 8 27 18 4 9 11 20 17 24 6 4 17 8 24 8 6 0 12 -11 12 -25 0 -15
-6 -25 -14 -25 -8 0 -16 -7 -20 -15 -3 -8 4 -23 15 -34 17 -16 18 -19 5 -24
-9 -4 -18 -2 -21 3 -4 6 -12 10 -19 10 -7 0 -22 -19 -32 -42 -10 -24 -41 -72
-68 -108 -27 -36 -55 -78 -62 -95 -7 -16 -22 -43 -34 -60 -11 -16 -20 -38 -20
-47 0 -10 13 -27 29 -39 16 -12 32 -33 36 -48 4 -14 12 -29 18 -33 7 -4 22 -8
34 -8 12 0 31 12 42 26 13 17 19 34 15 49 -3 13 -1 26 4 29 6 3 8 15 5 26 -3
13 0 20 8 20 8 0 25 17 39 36 23 32 31 36 74 38 41 2 53 7 72 31 13 17 24 35
24 41 0 6 -11 17 -25 24 -22 12 -28 11 -48 -8 -15 -14 -36 -22 -60 -22 -20 0
-37 5 -37 10 0 6 4 18 9 28 5 9 14 35 21 57 7 22 24 53 37 69 19 23 23 37 19
59 -4 21 -1 36 10 49 10 10 30 18 46 18 17 0 28 5 28 14 0 8 -16 23 -36 35
-19 12 -36 21 -38 21z m-100 -390 c27 0 27 0 4 -25 -15 -16 -27 -22 -33 -16
-5 5 -7 17 -4 25 4 9 18 16 33 16z"/>
<path d="M1113 600 c-5 0 -19 -9 -33 -20 -25 -19 -25 -19 20 -64 25 -25 52
-46 60 -46 9 0 21 -5 28 -12 7 -7 30 -13 52 -13 37 -1 40 1 40 26 0 21 -7 29
-32 40 -18 7 -37 19 -41 26 -5 8 -26 25 -47 38 -22 14 -43 25 -47 25z"/>
<path d="M783 502 c-10 2 -33 -6 -52 -19 -33 -22 -33 -23 -11 -31 13 -5 34 -7
46 -4 13 2 28 10 35 18 6 7 8 17 5 22 -3 5 -14 12 -23 14z"/>
<path d="M816 440 c-13 0 -30 -8 -40 -19 -9 -10 -14 -25 -11 -34 4 -10 -1 -17
-14 -22 -12 -3 -21 -14 -21 -24 0 -9 -13 -30 -30 -46 -16 -16 -30 -35 -30 -43
0 -7 7 -20 15 -28 8 -9 15 -20 15 -25 0 -5 -9 -9 -19 -9 -11 0 -23 5 -26 10
-3 5 -14 10 -24 10 -10 0 -24 -6 -30 -14 -10 -12 -9 -20 4 -40 10 -14 24 -26
32 -26 7 0 24 -6 36 -14 12 -8 45 -16 72 -17 28 -1 61 3 73 10 17 9 21 18 16
29 -3 9 -6 25 -6 35 1 11 -7 17 -20 17 -11 0 -27 8 -34 18 -7 9 -14 24 -14 33
0 9 18 30 41 49 31 24 38 35 28 41 -9 5 -13 21 -10 41 1 18 9 37 17 41 8 5 12
12 9 18 -4 5 -16 9 -29 9z"/>
</g>
</svg>
