<?xml version="1.0" standalone="no"?>
<!DOCTYPE svg PUBLIC "-//W3C//DTD SVG 20010904//EN"
 "http://www.w3.org/TR/2001/REC-SVG-20010904/DTD/svg10.dtd">
<svg version="1.0" xmlns="http://www.w3.org/2000/svg"
 width="56.000000pt" height="56.000000pt" viewBox="0 0 56.000000 56.000000"
 preserveAspectRatio="xMidYMid meet">
<metadata>
Created by potrace 1.16, written by Peter Selinger 2001-2019
</metadata>
<g transform="translate(0.000000,56.000000) scale(0.100000,-0.100000)"
fill="#000000" stroke="none">
<path d="M328 420 c-48 0 -90 -4 -93 -10 -3 -5 -14 -10 -23 -10 -10 0 -23 -9
-29 -20 -8 -11 -9 -21 -3 -25 5 -3 19 0 32 6 13 7 31 16 40 21 10 4 36 8 59 8
24 0 58 -9 80 -22 21 -12 45 -36 54 -54 8 -17 15 -37 15 -42 0 -6 -12 -19 -27
-30 -15 -11 -23 -24 -19 -30 4 -7 24 -12 45 -12 30 0 43 7 69 36 18 20 32 45
32 55 0 11 -16 34 -36 52 -20 18 -53 42 -73 54 -30 19 -50 23 -123 23z"/>
<path d="M79 375 c-16 4 -30 2 -34 -4 -3 -6 1 -14 9 -17 9 -3 16 -14 16 -24 0
-10 -16 -41 -35 -70 -25 -37 -35 -63 -35 -91 0 -35 3 -39 25 -39 17 0 28 7 34
23 5 13 16 29 26 37 9 7 22 25 29 39 8 14 17 44 20 66 6 33 3 44 -11 57 -10 9
-30 19 -44 23z"/>
<path d="M287 289 c-12 -1 -32 -4 -45 -6 -13 -3 -25 -10 -28 -17 -3 -8 4 -29
15 -49 11 -19 21 -48 23 -63 3 -25 7 -29 33 -29 23 0 31 6 36 25 4 14 7 42 8
63 1 21 -4 47 -9 58 -6 11 -20 18 -33 18z"/>
</g>
</svg>
