<?xml version="1.0" standalone="no"?>
<!DOCTYPE svg PUBLIC "-//W3C//DTD SVG 20010904//EN"
 "http://www.w3.org/TR/2001/REC-SVG-20010904/DTD/svg10.dtd">
<svg version="1.0" xmlns="http://www.w3.org/2000/svg"
 width="56.000000pt" height="56.000000pt" viewBox="0 0 56.000000 56.000000"
 preserveAspectRatio="xMidYMid meet">
<metadata>
Created by potrace 1.16, written by Peter Selinger 2001-2019
</metadata>
<g transform="translate(0.000000,56.000000) scale(0.100000,-0.100000)"
fill="#000000" stroke="none">
<path d="M255 560 c-22 0 -25 -4 -25 -40 0 -26 5 -40 13 -40 7 0 18 15 25 33
7 18 12 36 12 40 0 4 -11 7 -25 7z"/>
<path d="M157 538 c-9 2 -19 -2 -21 -10 -2 -7 -9 -35 -15 -63 -7 -27 -15 -86
-18 -130 -3 -44 -5 -92 -4 -107 0 -15 14 -61 31 -101 17 -41 37 -82 44 -92 8
-12 19 -16 31 -12 13 6 16 14 11 40 -4 17 -9 70 -12 117 -5 72 -4 88 10 99 9
8 35 17 58 21 22 4 53 4 68 -2 25 -8 28 -14 34 -85 3 -42 6 -89 6 -105 0 -15
-4 -28 -10 -28 -5 0 -12 17 -16 38 -4 20 -11 45 -16 56 -9 16 -12 17 -25 4
-12 -13 -13 -25 -4 -73 9 -49 8 -62 -5 -83 -16 -24 -16 -24 43 -17 32 4 62 10
66 12 5 3 7 62 6 131 -3 121 -3 125 19 133 12 5 22 11 22 13 0 3 -9 22 -21 43
-12 21 -26 44 -31 51 -6 6 -17 12 -24 12 -8 0 -14 -9 -14 -19 0 -12 -11 -23
-31 -30 -18 -6 -44 -11 -59 -11 -15 0 -41 -7 -58 -16 -22 -11 -34 -26 -42 -52
-5 -20 -10 -50 -11 -67 0 -28 -1 -29 -11 -8 -7 15 -7 60 1 150 6 70 12 141 13
158 2 21 -2 30 -15 33z"/>
</g>
</svg>
