<?xml version="1.0" standalone="no"?>
<!DOCTYPE svg PUBLIC "-//W3C//DTD SVG 20010904//EN"
 "http://www.w3.org/TR/2001/REC-SVG-20010904/DTD/svg10.dtd">
<svg version="1.0" xmlns="http://www.w3.org/2000/svg"
 width="56.000000pt" height="56.000000pt" viewBox="0 0 56.000000 56.000000"
 preserveAspectRatio="xMidYMid meet">
<metadata>
Created by potrace 1.16, written by Peter Selinger 2001-2019
</metadata>
<g transform="translate(0.000000,56.000000) scale(0.100000,-0.100000)"
fill="#000000" stroke="none">
<path d="M263 560 c-7 0 -13 -6 -13 -13 0 -7 5 -18 11 -24 7 -7 9 -19 6 -27
-4 -9 -13 -16 -22 -16 -9 0 -28 8 -43 18 -27 17 -27 17 -11 -8 9 -14 28 -31
43 -38 14 -7 26 -19 26 -26 0 -7 -7 -21 -15 -32 -8 -10 -15 -28 -15 -39 0 -12
-4 -25 -9 -30 -5 -6 -19 -27 -30 -48 -12 -21 -21 -44 -21 -52 0 -9 10 -15 24
-15 14 0 28 5 31 10 3 6 10 10 16 10 5 0 9 -12 9 -28 0 -15 7 -37 15 -49 12
-17 22 -21 44 -17 16 3 32 1 35 -5 4 -5 -11 -27 -34 -48 -22 -21 -40 -43 -40
-49 0 -7 -10 -15 -22 -19 -23 -7 -23 -8 -2 -12 12 -2 32 5 49 19 15 13 42 37
61 55 19 17 34 40 34 51 0 10 -8 26 -17 35 -10 8 -31 17 -47 19 -25 2 -31 9
-39 38 -5 19 -13 39 -18 45 -5 5 -9 19 -9 31 0 13 4 25 9 28 4 3 14 26 21 51
7 25 17 48 21 51 5 3 9 13 9 22 0 10 9 23 20 30 11 7 20 19 20 27 0 10 -10 15
-28 15 -16 0 -34 8 -42 20 -8 11 -20 20 -27 20z"/>
</g>
</svg>
