<?xml version="1.0" standalone="no"?>
<!DOCTYPE svg PUBLIC "-//W3C//DTD SVG 20010904//EN"
 "http://www.w3.org/TR/2001/REC-SVG-20010904/DTD/svg10.dtd">
<svg version="1.0" xmlns="http://www.w3.org/2000/svg"
 width="56.000000pt" height="56.000000pt" viewBox="0 0 56.000000 56.000000"
 preserveAspectRatio="xMidYMid meet">
<metadata>
Created by potrace 1.16, written by Peter Selinger 2001-2019
</metadata>
<g transform="translate(0.000000,56.000000) scale(0.100000,-0.100000)"
fill="#000000" stroke="none">
<path d="M385 420 c-47 0 -66 -4 -78 -18 -10 -10 -17 -22 -17 -27 0 -4 23 -5
51 -1 50 7 52 6 92 -35 22 -24 51 -67 64 -96 17 -37 30 -53 44 -53 17 0 19 7
19 60 0 59 0 60 -57 115 -57 55 -57 55 -118 55z"/>
<path d="M96 400 c-8 0 -20 -9 -26 -20 -9 -16 -6 -22 19 -35 16 -8 32 -19 36
-25 3 -5 1 -19 -5 -31 -7 -11 -31 -30 -55 -40 -34 -15 -46 -27 -55 -55 -9 -27
-9 -38 0 -49 7 -8 18 -15 25 -15 7 0 42 13 78 30 56 25 67 35 77 65 7 20 9 47
6 60 -5 20 -1 27 24 40 16 9 30 20 30 25 0 6 -5 10 -10 10 -6 0 -19 -6 -31
-12 -17 -11 -22 -10 -30 5 -6 9 -23 24 -39 32 -16 8 -36 15 -44 15z"/>
</g>
</svg>
