<?xml version="1.0" standalone="no"?>
<!DOCTYPE svg PUBLIC "-//W3C//DTD SVG 20010904//EN"
 "http://www.w3.org/TR/2001/REC-SVG-20010904/DTD/svg10.dtd">
<svg version="1.0" xmlns="http://www.w3.org/2000/svg"
 width="56.000000pt" height="56.000000pt" viewBox="0 0 56.000000 56.000000"
 preserveAspectRatio="xMidYMid meet">
<metadata>
Created by potrace 1.16, written by Peter Selinger 2001-2019
</metadata>
<g transform="translate(0.000000,56.000000) scale(0.100000,-0.100000)"
fill="#000000" stroke="none">
<path d="M219 560 c-18 0 -19 -2 -9 -15 7 -8 16 -12 21 -9 5 3 9 9 9 15 0 5
-10 9 -21 9z"/>
<path d="M375 560 c-8 0 -15 -9 -15 -20 0 -11 7 -23 15 -26 9 -4 15 -19 15
-38 0 -26 -7 -36 -47 -61 -26 -16 -56 -32 -68 -35 -11 -3 -20 -12 -20 -20 0
-11 9 -14 35 -12 19 2 47 12 61 23 15 10 31 19 37 19 5 0 12 -39 16 -87 4 -49
8 -97 9 -108 2 -17 -3 -20 -32 -17 -19 2 -54 1 -78 -3 -36 -5 -46 -12 -54 -33
-7 -16 -7 -37 -2 -52 5 -14 19 -27 33 -30 14 -4 49 -1 77 5 29 7 60 18 68 25
13 11 20 9 43 -13 16 -15 35 -27 44 -27 9 0 19 4 23 10 3 5 -11 27 -30 49 -34
37 -37 47 -51 148 -7 59 -14 123 -14 141 0 25 4 32 20 32 13 0 20 7 20 19 0
12 -9 21 -25 25 -17 4 -25 13 -25 29 0 12 -9 30 -20 40 -11 9 -27 17 -35 17z
m-31 -420 c17 0 37 -4 45 -9 11 -7 10 -11 -7 -20 -11 -6 -34 -11 -51 -11 -19
0 -31 5 -31 13 0 8 3 17 7 20 3 4 20 7 37 7z"/>
<path d="M65 440 c-14 0 -25 -4 -25 -9 0 -5 6 -14 13 -20 12 -9 12 -26 1 -98
-7 -49 -18 -103 -24 -121 -8 -20 -10 -52 -6 -79 3 -26 17 -61 32 -80 14 -18
31 -33 38 -33 10 0 12 12 9 48 -3 26 -7 54 -10 62 -4 12 -7 12 -19 -4 -10 -15
-14 -16 -14 -5 0 8 9 53 21 100 12 46 25 88 30 93 5 6 9 24 9 42 0 17 -7 48
-15 68 -12 28 -21 36 -40 36z"/>
</g>
</svg>
