<?xml version="1.0" standalone="no"?>
<!DOCTYPE svg PUBLIC "-//W3C//DTD SVG 20010904//EN"
 "http://www.w3.org/TR/2001/REC-SVG-20010904/DTD/svg10.dtd">
<svg version="1.0" xmlns="http://www.w3.org/2000/svg"
 width="56.000000pt" height="56.000000pt" viewBox="0 0 56.000000 56.000000"
 preserveAspectRatio="xMidYMid meet">
<metadata>
Created by potrace 1.16, written by Peter Selinger 2001-2019
</metadata>
<g transform="translate(0.000000,56.000000) scale(0.100000,-0.100000)"
fill="#000000" stroke="none">
<path d="M269 560 c-17 0 -29 -5 -29 -13 0 -7 -11 -29 -25 -49 -14 -20 -25
-44 -25 -53 0 -9 9 -19 19 -22 11 -3 22 -12 26 -21 4 -12 -5 -26 -29 -47 -20
-16 -36 -37 -36 -45 0 -9 7 -26 16 -38 14 -20 22 -22 84 -19 60 2 73 6 98 30
15 15 33 27 40 27 7 0 12 9 12 20 0 13 -10 24 -25 30 -14 5 -30 21 -37 35 -6
13 -19 27 -29 30 -10 4 -28 1 -39 -5 -16 -9 -25 -8 -36 1 -8 6 -14 19 -14 29
0 10 15 25 35 34 19 9 35 23 35 31 0 7 -3 20 -6 29 -4 10 -18 16 -35 16z m30
-170 c11 0 28 -14 40 -32 20 -33 20 -33 -1 -55 -12 -13 -25 -23 -30 -23 -5 0
-6 11 -2 24 3 14 -1 37 -10 55 -16 30 -16 31 3 31z"/>
<path d="M375 232 c-5 2 -26 2 -46 -2 -20 -3 -57 -16 -82 -28 -26 -12 -63 -22
-82 -22 -32 0 -35 -2 -35 -30 0 -17 6 -33 14 -36 8 -3 25 0 38 7 13 7 39 25
58 40 19 15 52 30 72 33 20 4 39 2 42 -3 4 -5 -1 -16 -9 -24 -8 -9 -15 -26
-15 -38 0 -12 5 -38 12 -56 10 -27 10 -38 0 -53 -11 -19 -9 -20 28 -20 26 0
43 5 46 14 3 8 -8 35 -26 61 -17 25 -28 50 -25 56 4 5 18 14 31 19 14 6 24 18
24 28 0 10 -8 26 -17 34 -10 8 -22 17 -28 20z"/>
</g>
</svg>
