<?xml version="1.0" standalone="no"?>
<!DOCTYPE svg PUBLIC "-//W3C//DTD SVG 20010904//EN"
 "http://www.w3.org/TR/2001/REC-SVG-20010904/DTD/svg10.dtd">
<svg version="1.0" xmlns="http://www.w3.org/2000/svg"
 width="56.000000pt" height="56.000000pt" viewBox="0 0 56.000000 56.000000"
 preserveAspectRatio="xMidYMid meet">
<metadata>
Created by potrace 1.16, written by Peter Selinger 2001-2019
</metadata>
<g transform="translate(0.000000,56.000000) scale(0.100000,-0.100000)"
fill="#000000" stroke="none">
<path d="M305 440 c-7 0 -16 -7 -19 -16 -4 -12 14 -36 64 -82 43 -39 80 -85
97 -118 15 -30 32 -54 38 -54 6 0 21 18 33 41 21 38 21 41 4 46 -10 2 -24 17
-31 34 -8 17 -20 29 -32 29 -10 0 -19 6 -19 13 0 7 -28 34 -61 60 -34 26 -68
47 -74 47z"/>
<path d="M66 320 c-9 0 -16 -6 -16 -14 0 -7 7 -19 15 -26 8 -7 15 -19 15 -26
0 -8 -16 -32 -37 -55 -25 -27 -36 -50 -36 -70 0 -16 5 -35 11 -41 8 -8 20 0
46 28 20 22 36 44 36 51 0 7 9 17 20 23 15 8 20 21 20 50 0 31 -5 43 -29 59
-16 12 -36 21 -45 21z"/>
</g>
</svg>
