<?xml version="1.0" standalone="no"?>
<!DOCTYPE svg PUBLIC "-//W3C//DTD SVG 20010904//EN"
 "http://www.w3.org/TR/2001/REC-SVG-20010904/DTD/svg10.dtd">
<svg version="1.0" xmlns="http://www.w3.org/2000/svg"
 width="56.000000pt" height="56.000000pt" viewBox="0 0 56.000000 56.000000"
 preserveAspectRatio="xMidYMid meet">
<metadata>
Created by potrace 1.16, written by Peter Selinger 2001-2019
</metadata>
<g transform="translate(0.000000,56.000000) scale(0.100000,-0.100000)"
fill="#000000" stroke="none">
<path d="M355 420 c-15 0 -25 -6 -25 -14 0 -7 20 -36 45 -62 25 -27 63 -80 86
-117 22 -38 46 -66 52 -64 7 2 16 13 22 25 5 12 13 22 17 22 5 0 8 14 8 30 0
18 -9 40 -22 54 -13 13 -53 46 -90 75 -40 30 -78 51 -93 51z"/>
<path d="M125 340 c-13 0 -15 -10 -13 -52 3 -52 3 -52 -46 -85 -28 -18 -54
-39 -58 -47 -7 -12 -2 -17 17 -22 14 -3 38 -4 53 -1 15 3 41 9 57 13 17 4 36
11 43 17 7 6 20 23 28 38 10 21 11 35 4 54 -6 15 -23 40 -39 56 -16 16 -37 29
-46 29z"/>
</g>
</svg>
