<?xml version="1.0" standalone="no"?>
<!DOCTYPE svg PUBLIC "-//W3C//DTD SVG 20010904//EN"
 "http://www.w3.org/TR/2001/REC-SVG-20010904/DTD/svg10.dtd">
<svg version="1.0" xmlns="http://www.w3.org/2000/svg"
 width="56.000000pt" height="56.000000pt" viewBox="0 0 56.000000 56.000000"
 preserveAspectRatio="xMidYMid meet">
<metadata>
Created by potrace 1.16, written by Peter Selinger 2001-2019
</metadata>
<g transform="translate(0.000000,56.000000) scale(0.100000,-0.100000)"
fill="#000000" stroke="none">
<path d="M281 531 c-18 29 -18 29 -29 6 -6 -12 -12 -33 -14 -47 -3 -23 -7 -25
-48 -25 -33 0 -45 -4 -45 -15 0 -10 12 -16 33 -18 21 -2 32 -9 32 -19 0 -9
-16 -35 -35 -59 -20 -24 -42 -62 -50 -85 -8 -23 -15 -48 -15 -56 0 -7 7 -16
15 -20 9 -3 25 3 36 13 20 18 21 18 35 -1 8 -10 14 -27 14 -37 0 -10 6 -28 13
-41 6 -12 18 -30 26 -39 9 -12 28 -18 54 -18 39 0 39 0 33 -35 -7 -35 -7 -35
29 -35 29 0 39 6 55 33 11 17 19 39 17 47 -1 8 -22 26 -47 39 -25 13 -61 27
-80 30 -32 6 -35 10 -40 46 -3 22 -17 59 -30 82 -24 43 -24 43 8 87 18 24 32
51 32 60 0 12 10 16 34 16 19 0 37 4 41 9 3 5 -9 19 -26 32 -17 12 -39 35 -48
50z"/>
</g>
</svg>
