<?xml version="1.0" standalone="no"?>
<!DOCTYPE svg PUBLIC "-//W3C//DTD SVG 20010904//EN"
 "http://www.w3.org/TR/2001/REC-SVG-20010904/DTD/svg10.dtd">
<svg version="1.0" xmlns="http://www.w3.org/2000/svg"
 width="56.000000pt" height="56.000000pt" viewBox="0 0 56.000000 56.000000"
 preserveAspectRatio="xMidYMid meet">
<metadata>
Created by potrace 1.16, written by Peter Selinger 2001-2019
</metadata>
<g transform="translate(0.000000,56.000000) scale(0.100000,-0.100000)"
fill="#000000" stroke="none">
<path d="M264 448 c-74 1 -78 0 -106 -30 -27 -29 -29 -36 -24 -83 5 -38 2 -58
-12 -85 -11 -19 -36 -45 -57 -57 -21 -12 -42 -28 -47 -36 -4 -9 -5 -22 -2 -31
4 -9 17 -16 33 -16 14 0 46 11 71 23 34 18 50 35 68 71 12 26 23 57 23 69 0
12 -3 48 -7 80 -7 57 -7 57 32 58 21 1 52 4 68 8 16 3 31 11 33 17 3 8 -21 12
-73 12z"/>
<path d="M410 361 c-14 2 -40 3 -57 1 -18 -2 -33 -9 -33 -15 0 -7 21 -19 48
-27 40 -13 50 -22 69 -60 13 -25 27 -58 33 -73 6 -19 15 -27 27 -25 10 2 24
15 31 30 11 23 10 32 -2 55 -8 15 -31 47 -53 69 -21 23 -49 43 -63 45z"/>
</g>
</svg>
