<?xml version="1.0" standalone="no"?>
<!DOCTYPE svg PUBLIC "-//W3C//DTD SVG 20010904//EN"
 "http://www.w3.org/TR/2001/REC-SVG-20010904/DTD/svg10.dtd">
<svg version="1.0" xmlns="http://www.w3.org/2000/svg"
 width="56.000000pt" height="56.000000pt" viewBox="0 0 56.000000 56.000000"
 preserveAspectRatio="xMidYMid meet">
<metadata>
Created by potrace 1.16, written by Peter Selinger 2001-2019
</metadata>
<g transform="translate(0.000000,56.000000) scale(0.100000,-0.100000)"
fill="#000000" stroke="none">
<path d="M390 380 c-19 0 -63 -13 -96 -28 -34 -15 -69 -34 -78 -41 -14 -12
-24 -12 -50 -3 -18 7 -39 12 -48 12 -8 0 -23 9 -33 20 -10 11 -28 20 -41 20
-13 0 -28 -9 -34 -20 -9 -16 -4 -22 33 -45 24 -14 52 -34 62 -45 10 -11 24
-20 32 -20 7 0 13 -4 13 -10 0 -5 14 -25 31 -45 18 -21 40 -35 54 -35 12 0 27
6 34 13 6 8 8 34 5 63 -3 27 -1 54 3 59 4 6 20 18 35 28 15 9 39 17 53 17 17
0 43 -16 76 -47 28 -26 57 -60 65 -75 13 -25 17 -26 34 -16 13 9 20 24 20 45
0 18 -4 33 -10 33 -5 0 -15 11 -22 24 -7 14 -33 40 -58 60 -32 26 -55 36 -80
36z"/>
<path d="M84 187 c-5 2 -13 0 -17 -3 -4 -4 -7 -14 -7 -21 0 -8 8 -13 18 -11 9
2 17 10 17 17 0 8 -5 16 -11 18z"/>
</g>
</svg>
