<?xml version="1.0" standalone="no"?>
<!DOCTYPE svg PUBLIC "-//W3C//DTD SVG 20010904//EN"
 "http://www.w3.org/TR/2001/REC-SVG-20010904/DTD/svg10.dtd">
<svg version="1.0" xmlns="http://www.w3.org/2000/svg"
 width="56.000000pt" height="56.000000pt" viewBox="0 0 56.000000 56.000000"
 preserveAspectRatio="xMidYMid meet">
<metadata>
Created by potrace 1.16, written by Peter Selinger 2001-2019
</metadata>
<g transform="translate(0.000000,56.000000) scale(0.100000,-0.100000)"
fill="#000000" stroke="none">
<path d="M278 560 c-9 0 -19 -12 -22 -26 -6 -24 -10 -26 -44 -21 -20 3 -48 9
-61 13 -19 6 -22 4 -19 -12 2 -12 19 -25 46 -34 23 -8 42 -20 42 -28 0 -7 -16
-39 -36 -70 -20 -31 -41 -58 -45 -60 -5 -2 -9 -10 -9 -18 0 -8 6 -14 14 -14 8
0 18 4 21 10 3 6 13 10 21 10 8 0 14 -7 14 -15 0 -9 9 -33 20 -55 11 -22 29
-44 39 -50 11 -5 28 -10 38 -10 10 0 24 -4 31 -8 10 -7 4 -23 -23 -67 -19 -32
-45 -69 -57 -82 -21 -23 -21 -23 15 -23 20 0 37 3 37 8 0 4 27 43 60 86 33 44
60 89 60 100 0 12 -8 26 -18 33 -14 8 -29 8 -61 0 -40 -11 -44 -10 -62 12 -10
13 -19 36 -19 52 0 16 -7 32 -17 38 -15 8 -15 13 10 50 15 22 27 50 27 62 0
12 11 30 25 41 14 11 25 25 25 32 0 7 -8 20 -18 29 -10 10 -26 17 -34 17z"/>
</g>
</svg>
