<?xml version="1.0" standalone="no"?>
<!DOCTYPE svg PUBLIC "-//W3C//DTD SVG 20010904//EN"
 "http://www.w3.org/TR/2001/REC-SVG-20010904/DTD/svg10.dtd">
<svg version="1.0" xmlns="http://www.w3.org/2000/svg"
 width="56.000000pt" height="56.000000pt" viewBox="0 0 56.000000 56.000000"
 preserveAspectRatio="xMidYMid meet">
<metadata>
Created by potrace 1.16, written by Peter Selinger 2001-2019
</metadata>
<g transform="translate(0.000000,56.000000) scale(0.100000,-0.100000)"
fill="#000000" stroke="none">
<path d="M232 540 c-7 20 -10 21 -15 6 -4 -10 -7 -40 -7 -68 0 -41 3 -51 20
-55 11 -3 20 -8 20 -12 0 -4 -13 -33 -30 -64 -17 -32 -30 -62 -30 -67 0 -4
-16 -42 -35 -84 -25 -53 -34 -82 -29 -101 3 -14 10 -27 14 -30 5 -3 14 -3 22
0 7 3 31 32 52 66 25 38 45 59 55 57 8 -2 21 -14 28 -28 7 -14 13 -43 13 -66
0 -31 6 -46 28 -67 16 -16 39 -27 55 -27 15 0 27 3 27 7 0 4 -16 21 -35 39
-30 27 -35 38 -35 75 0 24 -6 55 -13 69 -8 16 -26 28 -57 35 -30 8 -44 17 -42
26 1 8 12 39 23 69 11 30 28 71 37 90 9 19 26 36 37 38 11 2 26 9 33 14 6 6
12 18 12 28 0 9 -13 28 -28 42 -29 25 -29 25 -60 -8 -23 -24 -33 -29 -41 -20
-6 7 -14 23 -19 36z"/>
</g>
</svg>
