<?xml version="1.0" standalone="no"?>
<!DOCTYPE svg PUBLIC "-//W3C//DTD SVG 20010904//EN"
 "http://www.w3.org/TR/2001/REC-SVG-20010904/DTD/svg10.dtd">
<svg version="1.0" xmlns="http://www.w3.org/2000/svg"
 width="56.000000pt" height="56.000000pt" viewBox="0 0 56.000000 56.000000"
 preserveAspectRatio="xMidYMid meet">
<metadata>
Created by potrace 1.16, written by Peter Selinger 2001-2019
</metadata>
<g transform="translate(0.000000,56.000000) scale(0.100000,-0.100000)"
fill="#000000" stroke="none">
<path d="M303 560 c-10 0 -26 -12 -36 -25 -14 -19 -24 -24 -42 -19 -13 3 -29
3 -34 -1 -8 -4 -8 -12 -1 -26 6 -10 17 -19 25 -19 9 0 15 -9 15 -21 0 -12 -15
-46 -32 -76 -18 -30 -41 -69 -50 -86 -9 -18 -17 -42 -18 -54 0 -14 6 -23 14
-23 8 0 34 23 57 50 23 28 48 50 54 50 7 0 18 -27 25 -62 7 -35 19 -74 26 -88
6 -14 23 -36 37 -48 25 -24 25 -24 -3 -65 -29 -42 -29 -42 -2 -45 20 -3 33 4
54 29 17 20 28 45 28 62 0 19 -13 45 -40 77 -22 26 -44 59 -50 74 -5 15 -10
45 -10 67 0 27 -6 45 -20 56 -11 10 -20 28 -20 40 0 16 13 31 40 48 22 14 40
33 40 43 -1 9 -9 27 -19 40 -11 12 -27 22 -38 22z"/>
</g>
</svg>
