<?xml version="1.0" standalone="no"?>
<!DOCTYPE svg PUBLIC "-//W3C//DTD SVG 20010904//EN"
 "http://www.w3.org/TR/2001/REC-SVG-20010904/DTD/svg10.dtd">
<svg version="1.0" xmlns="http://www.w3.org/2000/svg"
 width="56.000000pt" height="56.000000pt" viewBox="0 0 56.000000 56.000000"
 preserveAspectRatio="xMidYMid meet">
<metadata>
Created by potrace 1.16, written by Peter Selinger 2001-2019
</metadata>
<g transform="translate(0.000000,56.000000) scale(0.100000,-0.100000)"
fill="#000000" stroke="none">
<path d="M318 499 c-13 -1 -41 -5 -63 -8 -22 -4 -66 -24 -98 -44 -31 -21 -65
-40 -75 -44 -9 -3 -25 -13 -34 -21 -10 -8 -18 -25 -18 -37 0 -11 16 -36 35
-55 19 -19 35 -44 35 -56 0 -12 -7 -27 -15 -34 -8 -7 -15 -18 -15 -26 0 -7
-12 -14 -27 -16 -22 -2 -29 -10 -35 -38 -5 -24 -3 -39 7 -49 8 -8 23 -11 38
-7 14 3 48 34 79 72 29 37 68 91 86 120 18 30 39 54 46 54 8 0 27 7 42 15 16
8 37 15 46 15 9 0 27 -17 40 -37 13 -21 34 -69 48 -107 14 -38 32 -74 41 -79
12 -7 26 -6 48 3 22 9 31 19 31 36 0 13 -4 24 -9 24 -5 0 -16 21 -25 47 -9 26
-16 53 -16 61 0 8 -17 36 -37 61 -21 25 -44 51 -53 58 -8 7 -28 12 -45 12 -16
1 -52 -5 -80 -12 -43 -11 -54 -20 -82 -62 -18 -26 -39 -55 -47 -63 -12 -13
-18 -9 -41 26 -15 23 -24 46 -20 51 3 6 11 11 17 11 6 0 38 12 72 27 33 15 80
40 104 55 23 16 42 33 42 38 0 6 -10 9 -22 9z"/>
</g>
</svg>
