<?xml version="1.0" standalone="no"?>
<!DOCTYPE svg PUBLIC "-//W3C//DTD SVG 20010904//EN"
 "http://www.w3.org/TR/2001/REC-SVG-20010904/DTD/svg10.dtd">
<svg version="1.0" xmlns="http://www.w3.org/2000/svg"
 width="56.000000pt" height="56.000000pt" viewBox="0 0 56.000000 56.000000"
 preserveAspectRatio="xMidYMid meet">
<metadata>
Created by potrace 1.16, written by Peter Selinger 2001-2019
</metadata>
<g transform="translate(0.000000,56.000000) scale(0.100000,-0.100000)"
fill="#000000" stroke="none">
<path d="M280 560 c-3 0 -10 -4 -15 -9 -6 -5 -21 -11 -35 -13 -14 -1 -24 -7
-23 -13 1 -5 10 -12 20 -14 10 -2 23 -7 29 -12 6 -5 9 -21 6 -35 -2 -14 -10
-27 -16 -29 -6 -1 -30 -8 -53 -14 -27 -7 -43 -18 -43 -27 0 -8 15 -21 34 -29
19 -8 37 -18 40 -23 3 -5 -1 -26 -9 -48 -8 -21 -14 -45 -15 -51 0 -7 6 -13 14
-13 8 0 23 18 35 40 12 22 21 49 21 59 0 10 7 24 15 31 8 6 22 9 32 7 10 -3
41 2 68 11 39 13 51 22 53 40 2 15 -5 33 -19 48 -15 16 -34 24 -56 24 -23 0
-36 6 -40 18 -3 9 -13 25 -21 35 -8 9 -18 17 -22 17z"/>
<path d="M185 220 c-7 0 -16 -8 -20 -18 -3 -11 -17 -24 -30 -30 -14 -6 -25
-18 -25 -27 0 -8 -7 -15 -15 -15 -9 0 -27 -12 -40 -27 -13 -16 -25 -36 -25
-45 0 -9 3 -19 8 -21 4 -2 21 3 37 13 17 9 37 29 45 45 8 16 32 46 53 67 21
21 35 43 32 48 -4 6 -12 10 -20 10z"/>
<path d="M260 220 c-18 0 -20 -6 -20 -63 0 -34 -4 -78 -10 -96 -6 -23 -6 -39
0 -47 7 -8 46 -11 127 -10 114 1 116 1 136 28 21 28 21 28 -3 53 -17 18 -30
23 -49 19 -14 -3 -54 -15 -88 -27 -35 -11 -66 -18 -70 -14 -3 4 -1 30 5 57 8
33 8 58 2 75 -6 15 -17 25 -30 25z"/>
</g>
</svg>
