<?xml version="1.0" standalone="no"?>
<!DOCTYPE svg PUBLIC "-//W3C//DTD SVG 20010904//EN"
 "http://www.w3.org/TR/2001/REC-SVG-20010904/DTD/svg10.dtd">
<svg version="1.0" xmlns="http://www.w3.org/2000/svg"
 width="56.000000pt" height="56.000000pt" viewBox="0 0 56.000000 56.000000"
 preserveAspectRatio="xMidYMid meet">
<metadata>
Created by potrace 1.16, written by Peter Selinger 2001-2019
</metadata>
<g transform="translate(0.000000,56.000000) scale(0.100000,-0.100000)"
fill="#000000" stroke="none">
<path d="M401 400 c-4 0 -10 -3 -13 -6 -3 -3 -4 -14 -1 -25 3 -10 9 -19 14
-19 5 0 23 -21 39 -47 17 -27 30 -61 30 -79 0 -17 7 -37 15 -44 9 -7 26 -9 45
-5 26 6 30 11 30 40 0 20 -6 35 -15 39 -8 3 -15 11 -15 18 0 8 -13 27 -29 43
-16 17 -43 42 -60 58 -17 15 -35 27 -40 27z"/>
<path d="M75 360 c-8 0 -18 -8 -23 -17 -5 -10 -19 -49 -31 -88 -22 -66 -22
-70 -5 -82 10 -7 26 -13 35 -13 10 0 29 15 43 33 13 17 30 45 36 61 9 25 7 34
-15 68 -14 21 -32 38 -40 38z"/>
</g>
</svg>
