<?xml version="1.0" standalone="no"?>
<!DOCTYPE svg PUBLIC "-//W3C//DTD SVG 20010904//EN"
 "http://www.w3.org/TR/2001/REC-SVG-20010904/DTD/svg10.dtd">
<svg version="1.0" xmlns="http://www.w3.org/2000/svg"
 width="56.000000pt" height="56.000000pt" viewBox="0 0 56.000000 56.000000"
 preserveAspectRatio="xMidYMid meet">
<metadata>
Created by potrace 1.16, written by Peter Selinger 2001-2019
</metadata>
<g transform="translate(0.000000,56.000000) scale(0.100000,-0.100000)"
fill="#000000" stroke="none">
<path d="M296 460 c-16 0 -26 -6 -26 -14 0 -7 16 -26 36 -41 20 -15 55 -54 79
-86 24 -33 49 -76 56 -97 6 -20 17 -40 22 -44 6 -3 20 0 33 8 12 8 27 28 34
44 7 17 16 30 21 30 5 0 9 6 9 14 0 7 -11 34 -25 58 -15 27 -43 56 -72 75 -27
16 -69 35 -95 42 -26 6 -58 11 -72 11z"/>
<path d="M57 390 c-8 0 -17 -6 -20 -14 -3 -7 -1 -18 5 -24 6 -6 11 -28 10 -49
0 -21 -9 -60 -21 -86 -12 -27 -21 -62 -21 -78 0 -19 6 -32 17 -36 12 -5 28 6
54 37 25 29 42 61 49 93 5 26 10 65 10 86 0 34 -4 41 -34 55 -19 9 -41 16 -49
16z"/>
</g>
</svg>
