<?xml version="1.0" standalone="no"?>
<!DOCTYPE svg PUBLIC "-//W3C//DTD SVG 20010904//EN"
 "http://www.w3.org/TR/2001/REC-SVG-20010904/DTD/svg10.dtd">
<svg version="1.0" xmlns="http://www.w3.org/2000/svg"
 width="56.000000pt" height="56.000000pt" viewBox="0 0 56.000000 56.000000"
 preserveAspectRatio="xMidYMid meet">
<metadata>
Created by potrace 1.16, written by Peter Selinger 2001-2019
</metadata>
<g transform="translate(0.000000,56.000000) scale(0.100000,-0.100000)"
fill="#000000" stroke="none">
<path d="M108 480 c-24 0 -38 -5 -38 -13 0 -7 5 -18 12 -25 7 -7 19 -12 28
-12 9 0 24 8 33 18 10 10 14 22 10 25 -3 4 -24 7 -45 7z"/>
<path d="M334 440 c-29 0 -44 -4 -44 -13 0 -7 33 -28 73 -47 54 -26 73 -41 75
-57 2 -13 -7 -38 -19 -55 -12 -18 -46 -63 -76 -100 -29 -37 -53 -72 -53 -79 0
-8 13 -10 41 -6 28 4 50 15 73 39 18 18 45 41 59 51 15 10 38 35 52 57 19 30
23 47 19 72 -4 18 -21 48 -38 67 -17 18 -50 42 -74 52 -24 10 -64 19 -88 19z"/>
<path d="M83 380 c-7 0 -13 -6 -13 -12 0 -7 -14 -40 -30 -72 -17 -32 -30 -71
-30 -87 0 -15 7 -35 16 -44 9 -9 26 -15 38 -13 15 2 28 20 48 71 27 68 27 68
6 112 -12 25 -28 45 -35 45z"/>
</g>
</svg>
