<?xml version="1.0" standalone="no"?>
<!DOCTYPE svg PUBLIC "-//W3C//DTD SVG 20010904//EN"
 "http://www.w3.org/TR/2001/REC-SVG-20010904/DTD/svg10.dtd">
<svg version="1.0" xmlns="http://www.w3.org/2000/svg"
 width="56.000000pt" height="56.000000pt" viewBox="0 0 56.000000 56.000000"
 preserveAspectRatio="xMidYMid meet">
<metadata>
Created by potrace 1.16, written by Peter Selinger 2001-2019
</metadata>
<g transform="translate(0.000000,56.000000) scale(0.100000,-0.100000)"
fill="#000000" stroke="none">
<path d="M348 424 c-35 2 -71 0 -79 -5 -12 -8 -12 -10 1 -19 8 -5 30 -10 47
-10 25 0 44 -11 79 -44 39 -38 44 -47 35 -64 -6 -12 -11 -23 -11 -26 0 -3 21
-17 46 -32 46 -27 46 -27 70 -1 13 14 24 37 24 51 0 14 -16 42 -37 66 -21 23
-54 50 -74 61 -20 10 -65 20 -101 23z"/>
<path d="M72 360 c-12 0 -22 -6 -22 -13 0 -7 4 -17 10 -23 7 -7 -2 -28 -25
-64 -21 -32 -35 -67 -35 -85 0 -17 5 -36 12 -43 7 -7 22 -12 34 -12 12 0 29
11 38 24 8 14 25 41 36 61 11 19 20 53 20 74 0 26 -7 44 -23 59 -13 12 -33 22
-45 22z"/>
</g>
</svg>
