<?xml version="1.0" standalone="no"?>
<!DOCTYPE svg PUBLIC "-//W3C//DTD SVG 20010904//EN"
 "http://www.w3.org/TR/2001/REC-SVG-20010904/DTD/svg10.dtd">
<svg version="1.0" xmlns="http://www.w3.org/2000/svg"
 width="56.000000pt" height="56.000000pt" viewBox="0 0 56.000000 56.000000"
 preserveAspectRatio="xMidYMid meet">
<metadata>
Created by potrace 1.16, written by Peter Selinger 2001-2019
</metadata>
<g transform="translate(0.000000,56.000000) scale(0.100000,-0.100000)"
fill="#000000" stroke="none">
<path d="M52 504 c-4 2 -15 0 -25 -5 -9 -6 -17 -18 -17 -28 0 -10 9 -40 19
-67 10 -27 24 -67 30 -89 5 -22 9 -58 7 -80 -2 -22 -4 -43 -5 -46 0 -3 -12
-18 -26 -33 -19 -20 -25 -38 -25 -71 0 -24 4 -46 9 -49 5 -3 20 9 34 28 14 18
39 39 56 46 17 7 32 20 35 29 2 9 8 36 11 59 4 24 21 68 38 97 19 33 44 61 67
74 21 12 47 21 59 21 12 0 33 -11 46 -25 12 -14 37 -61 53 -103 17 -42 32 -86
34 -97 2 -11 11 -21 20 -23 10 -2 33 13 53 32 19 19 35 45 35 56 0 12 -5 26
-11 33 -6 7 -25 39 -43 71 -18 33 -45 69 -60 80 -20 15 -46 21 -99 24 -72 3
-72 3 -142 -68 -38 -38 -77 -70 -86 -70 -11 0 -20 15 -29 48 -6 26 -16 57 -21
70 -5 13 -9 36 -9 52 0 16 -3 31 -8 34z"/>
</g>
</svg>
