<?xml version="1.0" standalone="no"?>
<!DOCTYPE svg PUBLIC "-//W3C//DTD SVG 20010904//EN"
 "http://www.w3.org/TR/2001/REC-SVG-20010904/DTD/svg10.dtd">
<svg version="1.0" xmlns="http://www.w3.org/2000/svg"
 width="56.000000pt" height="56.000000pt" viewBox="0 0 56.000000 56.000000"
 preserveAspectRatio="xMidYMid meet">
<metadata>
Created by potrace 1.16, written by Peter Selinger 2001-2019
</metadata>
<g transform="translate(0.000000,56.000000) scale(0.100000,-0.100000)"
fill="#000000" stroke="none">
<path d="M236 560 c-3 0 -9 -12 -12 -27 -4 -15 -1 -40 6 -57 7 -17 14 -43 17
-57 4 -20 -6 -38 -47 -84 -41 -48 -50 -65 -48 -90 3 -25 7 -30 28 -28 14 1 35
0 48 -3 19 -4 22 -10 22 -58 0 -38 5 -57 18 -68 9 -8 29 -19 45 -26 15 -6 27
-18 27 -26 0 -8 -8 -20 -17 -25 -15 -9 -13 -10 14 -11 26 0 36 6 48 30 13 24
13 33 3 50 -7 11 -30 28 -50 38 -36 16 -37 19 -38 68 0 40 -5 55 -24 73 -23
22 -23 22 12 94 20 40 42 76 49 80 7 4 13 21 13 36 0 15 -9 36 -19 45 -18 16
-21 16 -44 1 -24 -15 -25 -15 -35 15 -6 16 -13 30 -16 30z"/>
</g>
</svg>
