<?xml version="1.0" standalone="no"?>
<!DOCTYPE svg PUBLIC "-//W3C//DTD SVG 20010904//EN"
 "http://www.w3.org/TR/2001/REC-SVG-20010904/DTD/svg10.dtd">
<svg version="1.0" xmlns="http://www.w3.org/2000/svg"
 width="56.000000pt" height="56.000000pt" viewBox="0 0 56.000000 56.000000"
 preserveAspectRatio="xMidYMid meet">
<metadata>
Created by potrace 1.16, written by Peter Selinger 2001-2019
</metadata>
<g transform="translate(0.000000,56.000000) scale(0.100000,-0.100000)"
fill="#000000" stroke="none">
<path d="M427 525 c-24 7 -50 9 -57 5 -10 -6 0 -22 38 -61 41 -42 52 -60 52
-86 0 -28 -15 -49 -89 -131 -49 -53 -119 -126 -155 -161 -36 -36 -63 -68 -60
-73 3 -4 14 -8 24 -8 10 0 47 27 82 61 35 33 79 71 98 84 19 13 72 59 118 103
76 75 82 83 82 121 0 23 -4 41 -9 41 -5 0 -14 13 -19 29 -6 16 -22 37 -36 46
-14 9 -45 23 -69 30z"/>
<path d="M57 400 c-9 0 -19 -4 -22 -10 -3 -5 -3 -14 0 -20 3 -5 -4 -30 -15
-56 -13 -28 -19 -56 -16 -70 4 -13 12 -24 19 -24 6 1 21 8 32 18 11 9 30 31
43 49 12 17 22 37 22 45 0 7 -11 25 -24 41 -13 15 -30 27 -39 27z"/>
</g>
</svg>
