<?xml version="1.0" standalone="no"?>
<!DOCTYPE svg PUBLIC "-//W3C//DTD SVG 20010904//EN"
 "http://www.w3.org/TR/2001/REC-SVG-20010904/DTD/svg10.dtd">
<svg version="1.0" xmlns="http://www.w3.org/2000/svg"
 width="56.000000pt" height="56.000000pt" viewBox="0 0 56.000000 56.000000"
 preserveAspectRatio="xMidYMid meet">
<metadata>
Created by potrace 1.16, written by Peter Selinger 2001-2019
</metadata>
<g transform="translate(0.000000,56.000000) scale(0.100000,-0.100000)"
fill="#000000" stroke="none">
<path d="M273 560 c-16 -1 -34 -8 -42 -16 -7 -8 -11 -18 -8 -21 3 -3 22 0 41
7 20 6 36 16 36 21 0 5 -12 9 -27 9z"/>
<path d="M151 540 c-15 0 -31 -3 -34 -6 -4 -4 5 -20 19 -37 21 -26 24 -36 18
-71 -3 -22 -10 -47 -15 -56 -5 -8 -22 -57 -39 -109 -20 -63 -30 -114 -30 -155
0 -49 4 -67 20 -84 12 -12 28 -22 37 -22 13 0 15 10 9 70 -4 42 -3 92 4 123 8
41 21 64 58 103 26 28 64 57 84 65 24 8 41 10 47 4 5 -6 15 -39 22 -74 13 -62
13 -64 -10 -82 -14 -12 -37 -19 -55 -17 -17 1 -41 -4 -54 -11 -15 -8 -22 -20
-20 -34 2 -15 16 -26 48 -37 25 -9 75 -24 112 -34 51 -14 71 -15 87 -7 12 7
21 20 21 31 0 11 -9 24 -19 29 -13 7 -37 7 -76 0 -31 -6 -63 -8 -71 -5 -8 3
-14 16 -14 28 0 21 4 23 44 20 35 -3 46 0 54 15 6 11 7 52 1 113 -9 95 -9 95
23 122 29 24 31 29 18 42 -8 8 -31 17 -50 18 -31 3 -35 0 -40 -26 -3 -21 -13
-32 -31 -36 -14 -4 -49 -24 -77 -45 -29 -21 -56 -35 -59 -31 -3 3 -1 23 6 44
7 20 14 53 16 72 1 19 -4 45 -11 58 -10 14 -24 22 -43 22z"/>
</g>
</svg>
