<?xml version="1.0" standalone="no"?>
<!DOCTYPE svg PUBLIC "-//W3C//DTD SVG 20010904//EN"
 "http://www.w3.org/TR/2001/REC-SVG-20010904/DTD/svg10.dtd">
<svg version="1.0" xmlns="http://www.w3.org/2000/svg"
 width="56.000000pt" height="56.000000pt" viewBox="0 0 56.000000 56.000000"
 preserveAspectRatio="xMidYMid meet">
<metadata>
Created by potrace 1.16, written by Peter Selinger 2001-2019
</metadata>
<g transform="translate(0.000000,56.000000) scale(0.100000,-0.100000)"
fill="#000000" stroke="none">
<path d="M492 380 c-11 0 -24 -4 -27 -10 -3 -5 5 -21 19 -34 17 -15 26 -34 26
-55 0 -17 4 -31 9 -31 5 0 16 3 25 6 9 3 16 17 16 30 0 13 -4 24 -10 24 -5 0
-10 8 -10 18 0 9 -7 25 -14 35 -7 9 -23 17 -34 17z"/>
<path d="M168 370 c-3 0 -8 -3 -11 -7 -4 -3 -7 -21 -7 -39 0 -27 -8 -39 -44
-66 -24 -18 -51 -37 -59 -43 -9 -5 -19 -22 -23 -37 -5 -21 -2 -28 9 -28 8 0
35 12 61 26 25 14 59 42 76 62 19 23 30 48 30 67 0 16 -7 38 -14 48 -7 9 -15
17 -18 17z"/>
</g>
</svg>
