<?xml version="1.0" standalone="no"?>
<!DOCTYPE svg PUBLIC "-//W3C//DTD SVG 20010904//EN"
 "http://www.w3.org/TR/2001/REC-SVG-20010904/DTD/svg10.dtd">
<svg version="1.0" xmlns="http://www.w3.org/2000/svg"
 width="56.000000pt" height="56.000000pt" viewBox="0 0 56.000000 56.000000"
 preserveAspectRatio="xMidYMid meet">
<metadata>
Created by potrace 1.16, written by Peter Selinger 2001-2019
</metadata>
<g transform="translate(0.000000,56.000000) scale(0.100000,-0.100000)"
fill="#000000" stroke="none">
<path d="M126 560 c-6 0 -22 -28 -36 -62 -23 -58 -25 -76 -25 -215 0 -108 4
-156 13 -165 6 -6 12 -22 12 -33 0 -12 9 -30 20 -40 17 -15 22 -16 36 -4 12
10 14 22 9 48 -4 20 -7 65 -7 101 0 36 7 85 16 109 10 26 13 48 8 53 -6 6 -18
-5 -30 -24 -22 -33 -22 -33 -22 34 0 37 4 69 9 72 4 3 11 26 14 50 4 25 4 52
1 61 -4 8 -11 15 -18 15z"/>
<path d="M401 500 c-6 0 -13 -6 -16 -12 -2 -7 -5 -22 -7 -33 -3 -17 -14 -21
-65 -27 -34 -4 -75 -14 -92 -23 -17 -8 -31 -20 -31 -26 0 -7 31 -10 93 -8 92
4 92 4 95 -78 2 -46 0 -83 -4 -83 -4 0 -15 7 -25 16 -11 10 -25 13 -38 9 -12
-3 -21 -15 -21 -25 0 -10 6 -25 13 -32 7 -7 18 -32 25 -56 11 -36 11 -48 -2
-74 -9 -17 -16 -35 -16 -40 0 -4 6 -8 13 -8 8 0 19 11 25 25 8 17 20 25 37 25
15 0 28 7 32 17 4 11 -1 22 -15 31 -12 8 -22 19 -22 24 0 6 6 6 14 -1 11 -10
15 -8 19 6 2 10 5 70 7 133 1 63 4 118 6 122 3 5 21 8 40 8 19 0 34 5 34 11 0
7 -20 31 -44 55 -24 24 -49 44 -55 44z"/>
</g>
</svg>
