<?xml version="1.0" standalone="no"?>
<!DOCTYPE svg PUBLIC "-//W3C//DTD SVG 20010904//EN"
 "http://www.w3.org/TR/2001/REC-SVG-20010904/DTD/svg10.dtd">
<svg version="1.0" xmlns="http://www.w3.org/2000/svg"
 width="56.000000pt" height="56.000000pt" viewBox="0 0 56.000000 56.000000"
 preserveAspectRatio="xMidYMid meet">
<metadata>
Created by potrace 1.16, written by Peter Selinger 2001-2019
</metadata>
<g transform="translate(0.000000,56.000000) scale(0.100000,-0.100000)"
fill="#000000" stroke="none">
<path d="M391 409 c-3 -1 -16 -4 -28 -6 -13 -2 -23 -11 -23 -19 0 -8 5 -14 11
-14 5 0 35 -23 65 -52 30 -28 64 -66 75 -85 11 -18 25 -33 31 -33 5 0 16 6 24
14 8 8 14 26 14 41 0 17 -11 36 -32 53 -17 15 -54 44 -82 65 -27 20 -52 36
-55 36z"/>
<path d="M124 350 c-6 0 -17 -6 -23 -14 -8 -10 -9 -16 -1 -21 5 -3 10 -19 10
-35 0 -22 -12 -39 -55 -75 -30 -26 -55 -54 -55 -61 0 -8 4 -14 9 -14 6 0 27
10 48 22 21 12 40 26 41 30 2 4 10 8 17 8 8 0 25 15 39 33 15 20 26 47 26 65
0 21 -7 36 -22 46 -12 9 -28 16 -34 16z"/>
<path d="M266 158 c-10 2 -16 -3 -16 -13 0 -10 7 -15 18 -13 9 2 16 8 15 13
-1 6 -9 11 -17 13z"/>
</g>
</svg>
