<?xml version="1.0" standalone="no"?>
<!DOCTYPE svg PUBLIC "-//W3C//DTD SVG 20010904//EN"
 "http://www.w3.org/TR/2001/REC-SVG-20010904/DTD/svg10.dtd">
<svg version="1.0" xmlns="http://www.w3.org/2000/svg"
 width="56.000000pt" height="56.000000pt" viewBox="0 0 56.000000 56.000000"
 preserveAspectRatio="xMidYMid meet">
<metadata>
Created by potrace 1.16, written by Peter Selinger 2001-2019
</metadata>
<g transform="translate(0.000000,56.000000) scale(0.100000,-0.100000)"
fill="#000000" stroke="none">
<path d="M347 420 c-22 0 -37 -5 -37 -12 0 -6 25 -36 56 -66 37 -36 68 -79 91
-128 19 -40 41 -75 48 -78 7 -2 23 -2 34 1 15 4 21 13 21 34 0 16 -4 29 -10
29 -5 0 -10 16 -10 35 0 31 -9 45 -62 97 -35 34 -70 67 -79 75 -9 7 -32 13
-52 13z"/>
<path d="M55 400 c-11 0 -15 -6 -11 -17 2 -10 7 -28 11 -40 4 -15 -5 -45 -24
-88 -17 -37 -31 -73 -31 -81 0 -8 2 -14 4 -14 3 0 16 4 30 10 15 5 38 31 55
62 21 35 31 67 31 94 0 33 -5 45 -25 58 -13 9 -32 16 -40 16z"/>
</g>
</svg>
