<?xml version="1.0" standalone="no"?>
<!DOCTYPE svg PUBLIC "-//W3C//DTD SVG 20010904//EN"
 "http://www.w3.org/TR/2001/REC-SVG-20010904/DTD/svg10.dtd">
<svg version="1.0" xmlns="http://www.w3.org/2000/svg"
 width="56.000000pt" height="56.000000pt" viewBox="0 0 56.000000 56.000000"
 preserveAspectRatio="xMidYMid meet">
<metadata>
Created by potrace 1.16, written by Peter Selinger 2001-2019
</metadata>
<g transform="translate(0.000000,56.000000) scale(0.100000,-0.100000)"
fill="#000000" stroke="none">
<path d="M320 460 c-21 0 -41 -4 -44 -8 -3 -5 -25 -19 -50 -32 -25 -12 -53
-34 -61 -46 -9 -13 -22 -24 -31 -24 -8 0 -24 16 -35 35 -12 19 -27 35 -33 35
-7 0 -19 -11 -26 -25 -13 -24 -11 -28 19 -59 31 -32 33 -37 22 -67 -6 -17 -24
-54 -41 -80 -16 -27 -30 -60 -30 -74 0 -21 5 -25 30 -25 26 0 32 6 55 55 14
31 25 61 25 69 0 7 21 45 46 84 30 47 52 72 64 72 10 0 22 9 25 20 3 11 12 20
20 20 7 0 33 -8 57 -19 24 -10 55 -31 70 -46 15 -15 41 -55 58 -88 16 -33 30
-66 30 -73 0 -7 4 -15 10 -19 5 -3 21 -3 35 1 18 4 25 13 25 30 0 13 -3 24 -8
24 -4 0 -15 17 -25 38 -9 20 -26 52 -36 70 -10 18 -44 55 -76 82 -47 42 -63
50 -95 50z"/>
</g>
</svg>
