<?xml version="1.0" standalone="no"?>
<!DOCTYPE svg PUBLIC "-//W3C//DTD SVG 20010904//EN"
 "http://www.w3.org/TR/2001/REC-SVG-20010904/DTD/svg10.dtd">
<svg version="1.0" xmlns="http://www.w3.org/2000/svg"
 width="56.000000pt" height="56.000000pt" viewBox="0 0 56.000000 56.000000"
 preserveAspectRatio="xMidYMid meet">
<metadata>
Created by potrace 1.16, written by Peter Selinger 2001-2019
</metadata>
<g transform="translate(0.000000,56.000000) scale(0.100000,-0.100000)"
fill="#000000" stroke="none">
<path d="M213 560 c-13 0 -23 -12 -32 -35 -7 -19 -13 -49 -13 -67 -1 -22 5
-36 20 -46 12 -8 22 -19 22 -24 0 -6 -18 -30 -40 -55 -26 -30 -40 -55 -40 -73
0 -15 6 -33 14 -39 12 -10 20 -9 39 3 13 9 29 27 35 41 6 14 18 25 26 25 9 0
20 -18 28 -47 10 -34 21 -51 43 -64 17 -9 29 -22 27 -28 -1 -7 -14 -31 -28
-54 -15 -23 -38 -54 -52 -70 -26 -27 -26 -27 9 -27 30 0 41 9 90 68 31 37 59
76 63 86 4 13 -1 27 -15 43 -13 12 -30 23 -39 23 -9 0 -24 8 -33 18 -10 10
-17 28 -17 40 0 11 -12 30 -27 42 -15 11 -32 19 -40 16 -7 -3 -15 -1 -18 4 -3
5 6 31 21 57 14 26 35 54 45 61 10 7 19 19 19 27 0 8 -5 17 -11 21 -7 4 -28 7
-48 8 -31 1 -36 4 -33 24 2 16 -2 22 -15 22z"/>
</g>
</svg>
