<?xml version="1.0" standalone="no"?>
<!DOCTYPE svg PUBLIC "-//W3C//DTD SVG 20010904//EN"
 "http://www.w3.org/TR/2001/REC-SVG-20010904/DTD/svg10.dtd">
<svg version="1.0" xmlns="http://www.w3.org/2000/svg"
 width="56.000000pt" height="56.000000pt" viewBox="0 0 56.000000 56.000000"
 preserveAspectRatio="xMidYMid meet">
<metadata>
Created by potrace 1.16, written by Peter Selinger 2001-2019
</metadata>
<g transform="translate(0.000000,56.000000) scale(0.100000,-0.100000)"
fill="#000000" stroke="none">
<path d="M124 410 c-6 0 -17 -7 -25 -16 -10 -13 -8 -19 14 -40 15 -14 27 -29
27 -33 0 -5 -9 -20 -21 -35 -11 -14 -40 -39 -64 -56 -25 -17 -45 -40 -49 -56
-4 -14 -5 -29 -2 -31 3 -3 24 -7 46 -9 35 -3 46 1 81 33 22 20 47 49 55 64 8
16 14 42 14 59 0 16 -6 40 -12 53 -7 12 -22 32 -32 45 -11 12 -25 22 -32 22z"/>
<path d="M367 407 c-31 3 -51 -1 -75 -17 -18 -11 -30 -25 -26 -31 3 -6 24 -9
48 -7 22 3 52 1 67 -4 16 -6 38 -31 62 -72 20 -35 39 -75 43 -90 4 -15 13 -30
21 -33 8 -3 23 4 34 15 10 12 19 33 19 47 0 14 -5 31 -10 38 -6 7 -23 31 -39
53 -17 23 -46 54 -65 69 -22 17 -53 29 -79 32z"/>
</g>
</svg>
