<?xml version="1.0" standalone="no"?>
<!DOCTYPE svg PUBLIC "-//W3C//DTD SVG 20010904//EN"
 "http://www.w3.org/TR/2001/REC-SVG-20010904/DTD/svg10.dtd">
<svg version="1.0" xmlns="http://www.w3.org/2000/svg"
 width="56.000000pt" height="56.000000pt" viewBox="0 0 56.000000 56.000000"
 preserveAspectRatio="xMidYMid meet">
<metadata>
Created by potrace 1.16, written by Peter Selinger 2001-2019
</metadata>
<g transform="translate(0.000000,56.000000) scale(0.100000,-0.100000)"
fill="#000000" stroke="none">
<path d="M108 470 c-18 0 -49 -8 -68 -18 -25 -12 -36 -25 -38 -43 -3 -23 4
-29 53 -53 49 -23 55 -29 49 -49 -4 -12 -17 -38 -30 -57 -13 -19 -24 -48 -24
-65 0 -17 5 -36 12 -43 7 -7 17 -12 23 -12 6 0 18 15 27 33 9 17 51 70 94 117
43 47 87 87 97 88 12 2 35 -11 60 -35 24 -23 55 -71 78 -121 22 -45 39 -91 39
-102 0 -17 7 -20 40 -20 38 0 40 2 40 30 0 17 -4 30 -10 30 -5 0 -10 8 -10 18
0 11 -9 27 -20 37 -11 10 -20 28 -20 40 0 11 -13 41 -28 66 -16 24 -51 63 -79
87 -40 33 -59 42 -89 42 -32 0 -46 -7 -82 -42 -43 -43 -43 -43 -72 -8 -21 26
-26 39 -19 52 5 9 9 19 9 22 0 3 -15 6 -32 6z"/>
</g>
</svg>
