<?xml version="1.0" standalone="no"?>
<!DOCTYPE svg PUBLIC "-//W3C//DTD SVG 20010904//EN"
 "http://www.w3.org/TR/2001/REC-SVG-20010904/DTD/svg10.dtd">
<svg version="1.0" xmlns="http://www.w3.org/2000/svg"
 width="128.000000pt" height="128.000000pt" viewBox="0 0 128.000000 128.000000"
 preserveAspectRatio="xMidYMid meet">
<metadata>
Created by potrace 1.16, written by Peter Selinger 2001-2019
</metadata>
<g transform="translate(0.000000,128.000000) scale(0.100000,-0.100000)"
fill="#000000" stroke="none">
<path d="M457 1260 c-9 0 -18 -4 -21 -8 -3 -5 21 -34 53 -64 38 -36 60 -67 64
-87 4 -17 2 -41 -3 -54 -5 -12 -11 -34 -14 -49 -3 -14 -44 -73 -90 -130 -47
-56 -99 -117 -117 -134 -32 -31 -32 -31 -10 -53 11 -11 29 -21 39 -21 11 0 37
13 58 29 21 16 62 53 90 82 29 30 58 68 65 84 12 25 24 33 72 45 50 12 59 12
67 0 6 -10 -2 -29 -26 -62 -19 -26 -34 -54 -34 -62 0 -8 9 -17 19 -21 11 -3
25 -12 31 -20 9 -11 8 -26 -5 -67 -9 -29 -23 -68 -31 -85 -8 -18 -18 -33 -23
-33 -4 0 -17 11 -29 25 -12 14 -26 25 -32 25 -5 0 -19 9 -31 21 -16 16 -28 19
-52 14 -18 -4 -62 -26 -98 -51 -36 -24 -70 -44 -75 -44 -5 0 -15 -9 -21 -19
-7 -10 -9 -22 -6 -25 4 -3 15 -6 26 -6 11 0 51 23 89 50 69 50 69 50 113 19
24 -17 46 -38 50 -47 3 -8 -4 -26 -17 -40 -13 -14 -57 -59 -98 -101 -42 -42
-103 -98 -137 -124 -34 -26 -65 -47 -68 -47 -4 0 -28 -15 -54 -33 -25 -19 -54
-37 -64 -40 -11 -4 -20 -1 -24 9 -3 8 2 34 11 57 9 24 16 50 16 60 0 9 -4 17
-8 17 -5 0 -16 -8 -25 -18 -10 -10 -17 -25 -17 -33 0 -7 -16 -45 -35 -84 -20
-38 -41 -78 -48 -87 -9 -14 -8 -20 8 -32 11 -9 34 -16 52 -16 17 0 35 5 38 10
3 6 16 10 28 10 12 0 46 9 75 19 30 11 59 24 65 29 7 5 48 38 92 74 44 36 99
82 121 104 23 21 58 58 79 81 36 42 37 44 21 68 -9 14 -14 30 -11 35 4 6 17 7
31 4 13 -4 31 -1 39 6 12 10 21 6 52 -21 20 -19 48 -45 62 -59 14 -14 42 -37
61 -50 19 -14 42 -30 50 -37 8 -6 50 -42 94 -78 43 -36 90 -73 105 -82 14 -9
57 -37 94 -61 37 -24 74 -41 82 -38 10 3 15 19 15 44 0 35 -5 42 -40 66 -23
15 -46 37 -52 51 -9 19 -6 29 16 58 18 23 38 37 61 41 35 7 35 7 35 61 0 30
-4 55 -9 55 -5 0 -26 -15 -45 -34 -20 -18 -36 -37 -36 -41 0 -5 -11 -23 -26
-42 -14 -18 -33 -33 -42 -33 -9 0 -54 27 -100 60 -46 33 -85 60 -87 60 -2 0
-40 24 -83 53 -44 28 -94 60 -112 70 -32 17 -32 17 5 67 20 27 47 76 61 109
13 33 24 72 24 86 0 18 -11 32 -40 51 -27 18 -40 34 -40 49 0 13 8 33 19 46
15 19 26 22 70 20 39 -1 59 3 81 19 17 12 35 30 40 41 8 13 7 25 0 39 -6 11
-33 31 -60 45 -27 14 -63 25 -79 25 -22 0 -35 -8 -51 -30 -12 -17 -46 -46 -76
-65 -29 -19 -60 -32 -67 -29 -12 4 -12 11 -1 42 7 20 13 45 14 55 0 10 -10 41
-21 68 -17 39 -36 60 -84 95 -35 24 -70 44 -78 44z"/>
<path d="M1149 1120 c-3 0 -9 -3 -12 -7 -4 -3 -7 -12 -7 -19 0 -7 20 -25 43
-39 24 -14 58 -25 75 -25 29 0 32 3 32 30 0 24 -5 31 -27 36 -16 3 -44 10 -63
15 -19 5 -38 9 -41 9z"/>
<path d="M62 900 c-10 0 -22 -3 -25 -7 -4 -3 -7 -15 -7 -25 0 -10 5 -18 11
-18 6 0 17 6 25 14 8 8 14 19 14 25 0 6 -8 11 -18 11z"/>
<path d="M1199 890 c-19 0 -39 -3 -42 -7 -4 -3 -7 -12 -7 -20 0 -7 8 -13 18
-13 10 0 27 -10 38 -22 11 -13 28 -36 38 -51 14 -23 15 -34 7 -59 -6 -17 -11
-45 -11 -62 0 -18 5 -37 12 -44 7 -7 16 -12 20 -12 4 0 8 58 8 129 0 123 -1
131 -22 145 -12 9 -39 16 -59 16z"/>
<path d="M26 840 c-8 0 -17 -7 -20 -16 -3 -9 -6 -25 -6 -37 0 -21 1 -21 20 3
11 14 20 31 20 38 0 6 -6 12 -14 12z"/>
<path d="M87 640 c-7 0 -17 -3 -20 -7 -4 -3 -7 -17 -7 -30 0 -18 5 -24 18 -21
10 2 18 14 20 31 2 18 -1 27 -11 27z"/>
<path d="M158 630 c-4 0 -9 -3 -11 -8 -3 -4 5 -19 18 -35 13 -15 33 -27 43
-27 11 0 22 -7 26 -15 3 -8 16 -15 28 -15 13 0 29 4 36 9 8 5 12 17 10 27 -2
12 -13 20 -32 22 -16 2 -33 -1 -38 -6 -6 -6 -21 1 -41 19 -17 16 -35 29 -39
29z"/>
</g>
</svg>
