<?xml version="1.0" standalone="no"?>
<!DOCTYPE svg PUBLIC "-//W3C//DTD SVG 20010904//EN"
 "http://www.w3.org/TR/2001/REC-SVG-20010904/DTD/svg10.dtd">
<svg version="1.0" xmlns="http://www.w3.org/2000/svg"
 width="128.000000pt" height="128.000000pt" viewBox="0 0 128.000000 128.000000"
 preserveAspectRatio="xMidYMid meet">
<metadata>
Created by potrace 1.16, written by Peter Selinger 2001-2019
</metadata>
<g transform="translate(0.000000,128.000000) scale(0.100000,-0.100000)"
fill="#000000" stroke="none">
<path d="M761 1157 c-39 2 -73 -2 -76 -7 -3 -5 4 -14 15 -20 12 -7 30 -8 43
-3 12 4 36 8 52 8 17 0 31 5 33 10 1 6 -27 11 -67 12z"/>
<path d="M470 1140 c-11 0 -24 -9 -30 -19 -5 -11 -10 -31 -10 -45 0 -13 -14
-67 -31 -120 -16 -52 -37 -100 -45 -107 -8 -7 -21 -26 -28 -43 -7 -17 -31 -52
-52 -77 -21 -24 -48 -61 -59 -82 -14 -27 -16 -40 -8 -48 6 -6 26 -10 44 -9 19
2 80 3 136 4 91 0 105 -2 132 -22 17 -12 34 -22 39 -22 5 0 18 -10 30 -23 12
-13 22 -28 22 -34 0 -6 -29 -40 -65 -77 -40 -40 -83 -73 -114 -86 -27 -12 -57
-30 -67 -41 -9 -10 -23 -19 -29 -19 -7 0 -18 -7 -25 -15 -8 -10 -31 -15 -69
-15 -32 0 -83 -10 -120 -23 -34 -12 -61 -26 -60 -32 2 -5 31 -11 64 -13 33 -1
82 -3 108 -3 26 0 70 7 98 16 32 11 63 14 87 10 30 -5 44 -2 64 14 14 12 29
21 33 21 3 0 26 13 49 30 31 20 45 38 50 61 4 21 10 29 20 26 8 -3 23 4 33 16
11 12 23 30 26 39 4 11 12 15 21 12 8 -3 18 -15 22 -27 4 -11 36 -49 73 -84
36 -35 92 -79 125 -99 44 -28 71 -37 110 -39 28 -2 63 -6 77 -10 16 -4 30 -2
33 4 4 6 18 11 31 11 13 0 27 4 30 10 3 5 -1 10 -9 10 -8 0 -18 5 -22 11 -4 7
1 16 10 21 9 5 16 13 16 18 0 6 -9 19 -20 30 -16 16 -24 18 -41 10 -14 -8 -29
-8 -52 -1 -18 6 -54 18 -80 26 -26 8 -56 15 -66 15 -11 0 -28 15 -40 35 -11
19 -27 35 -35 35 -8 0 -28 11 -44 25 -16 13 -42 29 -57 35 -20 7 -24 14 -17
23 5 6 20 41 32 77 13 36 29 74 36 85 8 11 14 34 14 53 0 18 7 46 15 62 14 27
14 33 1 58 -8 16 -22 34 -30 41 -9 8 -16 19 -16 26 0 7 7 15 15 19 8 3 22 3
30 0 8 -4 21 -2 28 4 6 5 37 17 67 27 31 10 94 20 143 21 48 2 92 6 97 9 6 3
10 19 10 35 0 24 -7 33 -39 49 -21 11 -41 18 -44 15 -2 -3 -24 5 -47 17 -42
22 -42 22 -111 0 -38 -12 -95 -37 -127 -55 -31 -17 -86 -43 -122 -56 -36 -13
-74 -29 -85 -36 -11 -7 -42 -20 -68 -29 -27 -9 -52 -14 -55 -10 -4 3 2 21 12
38 11 18 25 46 33 62 8 17 18 38 24 47 5 10 9 25 9 33 0 9 -9 15 -24 15 -16 0
-32 11 -46 30 -12 17 -30 30 -40 30z m474 -130 c13 0 29 -7 36 -15 11 -13 7
-15 -24 -15 -25 0 -36 4 -36 15 0 9 9 15 24 15z m-232 -151 c3 0 13 -2 22 -5
12 -4 16 -20 16 -55 0 -27 -9 -74 -19 -105 -11 -30 -23 -75 -27 -100 -3 -24
-11 -44 -18 -44 -6 0 -38 20 -71 45 -33 25 -70 45 -82 45 -12 0 -41 7 -63 16
-22 9 -61 17 -88 18 -40 1 -47 4 -50 23 -2 13 4 25 15 31 10 5 37 13 60 17 24
4 45 11 48 16 3 4 24 13 47 19 22 6 50 22 62 35 15 16 40 26 81 33 33 5 63 10
67 11z"/>
</g>
</svg>
