<?xml version="1.0" standalone="no"?>
<!DOCTYPE svg PUBLIC "-//W3C//DTD SVG 20010904//EN"
 "http://www.w3.org/TR/2001/REC-SVG-20010904/DTD/svg10.dtd">
<svg version="1.0" xmlns="http://www.w3.org/2000/svg"
 width="128.000000pt" height="128.000000pt" viewBox="0 0 128.000000 128.000000"
 preserveAspectRatio="xMidYMid meet">
<metadata>
Created by potrace 1.16, written by Peter Selinger 2001-2019
</metadata>
<g transform="translate(0.000000,128.000000) scale(0.100000,-0.100000)"
fill="#000000" stroke="none">
<path d="M628 1260 c-12 -1 -34 -7 -48 -15 -14 -7 -23 -17 -21 -22 2 -4 18
-12 35 -18 19 -6 49 -35 83 -79 29 -38 53 -73 53 -77 0 -4 -12 -16 -27 -27
-16 -10 -45 -22 -66 -25 -21 -3 -52 -13 -69 -21 -17 -9 -41 -16 -52 -16 -12 0
-26 -4 -32 -8 -7 -4 -19 -24 -27 -44 -9 -21 -23 -38 -31 -38 -9 0 -25 9 -37
21 -15 15 -20 29 -16 49 4 15 16 44 29 64 13 19 34 52 47 73 13 21 24 53 25
72 1 29 -5 38 -44 67 -25 18 -53 33 -62 33 -11 1 -18 -6 -18 -16 0 -9 12 -34
27 -56 25 -36 26 -41 14 -75 -7 -20 -42 -86 -76 -147 -35 -60 -67 -122 -70
-137 -6 -22 -4 -28 10 -28 9 0 37 14 61 32 24 17 47 28 51 24 5 -4 7 -59 6
-122 -2 -93 1 -114 12 -114 8 0 19 9 25 21 6 11 20 54 31 95 11 41 29 94 41
119 18 36 29 47 58 55 19 5 50 20 67 33 20 14 48 24 72 25 21 1 50 6 63 11 15
6 30 6 39 0 11 -7 1 -22 -47 -68 -34 -33 -78 -67 -99 -75 -20 -9 -48 -27 -63
-41 -15 -14 -43 -33 -62 -44 -29 -15 -35 -24 -35 -52 0 -24 5 -35 18 -37 10
-2 29 -15 42 -28 14 -14 25 -29 25 -35 0 -5 -4 -17 -10 -27 -5 -9 -27 -55 -49
-102 -21 -47 -67 -122 -101 -168 -39 -53 -60 -90 -58 -104 2 -11 10 -26 19
-31 13 -8 29 4 85 62 37 40 80 79 95 87 16 8 46 14 68 14 23 0 55 -9 75 -21
20 -12 36 -24 36 -27 0 -4 -4 -12 -8 -17 -4 -6 -20 -20 -37 -32 -16 -11 -41
-24 -55 -28 -14 -4 -36 -18 -50 -30 -14 -13 -54 -36 -90 -51 -36 -15 -78 -38
-94 -51 -15 -13 -45 -31 -65 -41 -36 -17 -36 -17 43 -20 70 -3 80 -1 93 18 8
11 22 20 31 20 10 0 26 6 37 13 11 7 45 19 75 26 30 7 71 20 90 29 19 9 55 29
78 45 24 16 56 32 70 36 21 6 28 14 30 40 2 22 -5 45 -21 70 -14 21 -38 43
-54 48 -15 6 -51 18 -80 27 -28 9 -59 16 -67 16 -8 0 -30 -9 -48 -19 -18 -10
-43 -22 -55 -26 -16 -4 -23 -2 -23 8 0 8 9 24 20 37 11 12 33 44 50 70 26 40
39 50 85 65 30 9 69 26 86 38 20 13 38 39 47 64 14 36 14 46 1 78 -8 21 -21
43 -31 48 -12 8 -35 5 -87 -10 -39 -11 -71 -17 -71 -13 0 4 7 21 16 38 8 18
22 32 30 32 8 0 29 7 47 16 18 9 41 24 52 34 11 10 30 21 41 24 19 6 24 -2 53
-86 18 -51 39 -103 47 -116 13 -20 22 -23 62 -20 32 2 48 8 50 18 1 9 -7 25
-18 37 -11 12 -20 26 -20 30 0 4 -20 42 -45 83 -25 41 -45 85 -45 97 0 15 17
36 53 64 28 23 55 47 59 54 4 6 4 35 -1 64 -5 29 -17 65 -28 79 -11 15 -28 28
-37 30 -10 2 -16 -3 -16 -16 0 -11 7 -25 15 -32 8 -7 15 -20 15 -29 0 -9 -7
-25 -15 -35 -13 -17 -18 -18 -41 -7 -15 6 -41 9 -60 5 -32 -6 -34 -4 -78 62
-24 38 -58 77 -74 87 -17 9 -41 17 -54 17z m110 -551 c6 1 12 -9 12 -21 0 -13
-4 -28 -8 -34 -4 -6 -22 -18 -41 -27 -19 -9 -39 -17 -46 -17 -7 0 -20 9 -29
19 -10 11 -16 25 -14 32 2 7 29 20 59 30 29 10 60 18 67 18z"/>
<path d="M636 60 c-8 0 -17 -4 -21 -10 -3 -5 0 -18 7 -30 10 -16 23 -20 67
-20 49 0 52 2 40 17 -8 9 -28 22 -46 30 -18 7 -39 13 -47 13z"/>
</g>
</svg>
