<?xml version="1.0" standalone="no"?>
<!DOCTYPE svg PUBLIC "-//W3C//DTD SVG 20010904//EN"
 "http://www.w3.org/TR/2001/REC-SVG-20010904/DTD/svg10.dtd">
<svg version="1.0" xmlns="http://www.w3.org/2000/svg"
 width="128.000000pt" height="128.000000pt" viewBox="0 0 128.000000 128.000000"
 preserveAspectRatio="xMidYMid meet">
<metadata>
Created by potrace 1.16, written by Peter Selinger 2001-2019
</metadata>
<g transform="translate(0.000000,128.000000) scale(0.100000,-0.100000)"
fill="#000000" stroke="none">
<path d="M483 1257 c-15 3 -25 0 -29 -11 -4 -10 11 -31 48 -65 29 -28 66 -56
82 -62 27 -12 31 -11 52 16 20 25 21 32 10 54 -10 18 -30 30 -77 43 -35 11
-74 22 -86 25z"/>
<path d="M825 1087 c-23 4 -35 2 -35 -6 0 -6 12 -30 27 -52 24 -37 27 -49 31
-174 2 -74 1 -146 -2 -160 -4 -14 -11 -25 -17 -25 -6 0 -27 12 -47 28 -20 15
-71 54 -112 87 -41 33 -78 64 -82 70 -4 5 -8 13 -8 16 0 3 18 25 40 49 22 24
40 49 40 55 0 7 -6 17 -12 22 -7 6 -24 13 -38 16 -17 4 -44 -3 -86 -23 -33
-17 -74 -30 -90 -31 -16 -1 -55 -6 -86 -12 -45 -7 -58 -14 -58 -28 0 -10 14
-27 30 -39 25 -18 42 -21 91 -18 60 3 60 3 54 -22 -3 -14 -14 -37 -25 -51 -10
-15 -25 -43 -34 -63 -8 -20 -17 -36 -20 -36 -3 0 -29 14 -57 32 -42 26 -56 29
-78 22 -14 -5 -26 -17 -26 -27 0 -9 16 -25 35 -36 26 -13 36 -26 38 -47 2 -23
-9 -42 -49 -89 -29 -33 -61 -67 -73 -75 -11 -8 -34 -19 -50 -25 -16 -5 -34
-18 -40 -27 -6 -9 -7 -20 -3 -24 4 -4 26 -7 49 -8 36 0 52 7 104 46 33 26 66
54 73 62 7 9 17 13 22 10 5 -3 9 -17 9 -32 0 -15 -8 -68 -18 -117 -10 -50 -35
-127 -54 -172 -30 -69 -34 -85 -23 -100 12 -16 14 -16 38 0 15 9 32 27 38 39
7 13 27 40 45 61 20 21 35 49 35 65 1 15 4 81 8 147 6 120 6 120 54 122 27 1
68 9 90 18 23 9 57 33 74 53 33 36 33 37 13 56 -19 19 -20 19 -57 0 -21 -10
-58 -32 -82 -48 -33 -22 -48 -27 -60 -19 -9 6 -17 27 -19 48 -3 30 3 45 27 76
17 21 31 42 31 48 0 6 11 18 25 27 14 9 32 13 45 9 11 -4 40 -23 64 -43 24
-20 82 -64 129 -97 83 -57 86 -60 69 -78 -9 -11 -38 -30 -64 -43 -26 -13 -49
-28 -53 -34 -3 -5 -16 -10 -28 -10 -13 0 -33 -7 -45 -16 -12 -8 -53 -26 -90
-39 -37 -13 -71 -30 -77 -39 -6 -10 -6 -19 0 -25 6 -5 39 -12 75 -16 65 -6 65
-6 141 52 42 32 93 77 115 101 35 40 39 42 51 26 8 -11 13 -48 13 -93 0 -42
-5 -128 -11 -191 -6 -63 -13 -117 -15 -120 -3 -2 -29 -4 -58 -4 -29 1 -75 7
-103 13 -42 10 -59 10 -103 -3 -28 -8 -67 -25 -86 -36 -18 -12 -43 -33 -54
-47 -11 -14 -20 -30 -20 -34 0 -5 29 -9 64 -9 57 0 64 2 59 18 -2 10 3 25 12
32 10 9 50 15 103 18 70 3 99 0 151 -18 64 -21 65 -21 90 -2 17 12 28 33 33
58 4 21 7 123 8 226 1 151 4 189 16 199 12 10 22 9 50 -4 20 -10 59 -17 93
-17 32 0 72 5 89 11 17 6 33 17 36 25 3 8 3 21 0 29 -5 11 -20 15 -58 13 -28
-1 -69 2 -91 6 -22 4 -60 17 -84 29 -43 22 -43 22 -37 135 3 61 11 131 18 155
6 24 8 54 5 68 -3 13 -27 41 -52 62 -25 22 -61 41 -80 44z"/>
<path d="M1198 1088 c-10 2 -18 2 -19 0 -1 -2 -3 -24 -5 -49 -3 -33 0 -50 11
-59 8 -6 19 -9 25 -5 6 4 9 29 8 58 -2 40 -7 53 -20 55z"/>
<path d="M1168 439 c-7 0 -23 -7 -35 -16 -13 -8 -23 -20 -23 -25 0 -6 -9 -23
-20 -38 -12 -17 -21 -48 -22 -77 -3 -45 -1 -48 22 -51 16 -1 43 11 73 33 28
22 47 43 47 55 0 12 -7 20 -18 20 -9 0 -23 -9 -30 -20 -7 -11 -19 -20 -27 -20
-9 0 -15 9 -15 23 0 13 13 41 30 63 16 21 30 42 30 47 0 4 -6 7 -12 6z"/>
<path d="M1078 138 c-8 2 -21 -5 -28 -14 -12 -14 -10 -23 15 -70 29 -54 29
-54 82 -54 38 0 53 4 53 14 0 7 3 28 6 45 5 23 3 31 -8 31 -8 0 -23 -9 -33
-20 -12 -14 -22 -17 -33 -11 -9 5 -21 24 -28 43 -6 18 -18 34 -26 36z"/>
</g>
</svg>
