<?xml version="1.0" standalone="no"?>
<!DOCTYPE svg PUBLIC "-//W3C//DTD SVG 20010904//EN"
 "http://www.w3.org/TR/2001/REC-SVG-20010904/DTD/svg10.dtd">
<svg version="1.0" xmlns="http://www.w3.org/2000/svg"
 width="128.000000pt" height="128.000000pt" viewBox="0 0 128.000000 128.000000"
 preserveAspectRatio="xMidYMid meet">
<metadata>
Created by potrace 1.16, written by Peter Selinger 2001-2019
</metadata>
<g transform="translate(0.000000,128.000000) scale(0.100000,-0.100000)"
fill="#000000" stroke="none">
<path d="M617 1280 c-13 -1 -30 -13 -42 -32 -11 -17 -29 -36 -40 -42 -11 -6
-41 -28 -66 -48 -26 -21 -54 -38 -63 -38 -8 0 -21 10 -27 22 -12 22 -12 22
-31 -2 -12 -14 -18 -35 -16 -54 2 -23 10 -33 29 -40 22 -7 33 -4 65 20 22 16
45 37 52 46 7 10 17 18 23 18 5 0 9 -5 9 -11 0 -6 -12 -26 -27 -45 -16 -18
-39 -47 -53 -63 -13 -17 -30 -31 -36 -31 -7 0 -15 -4 -18 -9 -3 -5 -1 -23 5
-40 8 -23 17 -31 35 -31 13 0 24 -2 24 -5 0 -3 -4 -13 -9 -23 -6 -9 -12 -29
-16 -44 -4 -22 -11 -28 -30 -28 -18 0 -28 -8 -35 -25 -5 -14 -14 -25 -20 -25
-5 0 -36 -25 -67 -55 -50 -46 -56 -57 -47 -72 8 -12 21 -17 40 -15 16 2 43 14
59 26 17 13 44 26 62 30 17 4 37 14 44 22 6 8 20 14 30 14 11 0 19 4 19 10 0
5 20 23 44 40 25 16 48 30 53 30 4 0 13 -10 19 -23 6 -12 19 -37 29 -56 18
-33 18 -33 -29 -73 -25 -22 -46 -47 -46 -56 0 -8 5 -30 11 -47 7 -18 9 -44 5
-58 -4 -18 -14 -27 -33 -29 -18 -2 -35 -15 -50 -37 -13 -19 -22 -39 -20 -45 2
-6 21 -12 43 -14 22 -2 49 -12 62 -24 12 -12 22 -27 22 -35 0 -7 -18 -22 -40
-33 -21 -11 -45 -20 -53 -20 -8 0 -24 -9 -37 -20 -13 -11 -29 -20 -37 -20 -8
0 -25 -12 -40 -26 -14 -14 -31 -23 -39 -20 -8 3 -14 19 -14 35 0 17 5 42 12
56 9 20 9 28 -1 38 -10 9 -18 5 -42 -23 -16 -19 -39 -54 -50 -77 -20 -38 -21
-46 -9 -87 7 -24 18 -47 25 -50 7 -2 28 1 46 7 19 7 55 27 81 45 26 17 49 32
52 32 3 0 27 -19 54 -42 27 -24 59 -51 71 -61 12 -9 26 -17 32 -17 6 0 17 7
25 15 8 8 30 37 48 64 25 37 35 63 38 107 3 32 1 76 -5 98 -5 23 -17 50 -27
61 -9 11 -27 34 -39 52 -22 32 -22 32 24 77 25 25 45 49 45 54 0 5 -16 16 -35
25 -19 9 -35 22 -35 29 0 7 9 24 19 37 19 24 19 24 46 3 15 -12 36 -22 47 -22
10 0 30 7 43 16 23 15 25 23 25 91 0 74 0 74 54 98 30 13 57 32 60 43 4 11 25
27 47 38 23 10 52 33 67 51 19 25 22 37 14 45 -8 8 -21 9 -45 1 -20 -6 -41 -7
-50 -2 -11 6 -19 2 -31 -16 -9 -13 -32 -40 -51 -60 -20 -19 -39 -35 -43 -35
-4 0 -15 -14 -24 -30 -9 -17 -23 -30 -31 -30 -8 0 -22 -9 -32 -20 -10 -11 -26
-20 -35 -20 -9 0 -26 9 -38 20 -12 12 -22 30 -22 40 0 16 7 20 36 20 29 0 44
8 76 40 33 33 37 41 24 46 -9 4 -39 4 -67 2 -27 -3 -58 -13 -68 -23 -11 -9
-25 -14 -30 -10 -6 3 -11 15 -11 25 0 11 8 24 19 29 10 6 24 24 31 40 7 17 9
38 6 47 -4 12 -13 15 -31 10 -14 -3 -36 -9 -50 -12 -18 -5 -27 -2 -31 10 -4
11 3 24 21 37 14 12 31 32 35 45 5 13 16 24 24 24 7 0 21 11 30 25 9 13 16 32
16 42 0 10 -9 26 -20 36 -11 9 -30 17 -43 17z m-111 -420 c8 0 14 -3 14 -7 0
-5 -7 -16 -15 -26 -7 -10 -21 -17 -30 -15 -14 3 -14 5 0 26 9 12 23 22 31 22z
m71 -620 c7 0 15 -11 19 -25 3 -14 3 -35 0 -47 -3 -13 -14 -33 -23 -45 -15
-19 -23 -21 -47 -15 -16 4 -34 16 -40 25 -9 14 -3 25 34 62 25 24 51 44 57 45z"/>
<path d="M871 350 c-5 0 -14 -7 -21 -15 -7 -8 -25 -15 -41 -15 -18 0 -29 -5
-29 -14 0 -7 24 -21 55 -31 30 -9 58 -21 61 -26 3 -5 2 -18 -1 -29 -4 -11 -23
-27 -43 -35 -31 -14 -34 -17 -21 -30 12 -12 30 -13 109 -5 69 8 98 15 108 27
6 9 12 20 12 25 0 4 -9 17 -20 28 -11 11 -20 24 -20 28 0 5 -13 18 -30 30 -20
15 -38 20 -53 17 -18 -5 -28 0 -41 19 -9 14 -20 26 -25 26z"/>
</g>
</svg>
