<?xml version="1.0" standalone="no"?>
<!DOCTYPE svg PUBLIC "-//W3C//DTD SVG 20010904//EN"
 "http://www.w3.org/TR/2001/REC-SVG-20010904/DTD/svg10.dtd">
<svg version="1.0" xmlns="http://www.w3.org/2000/svg"
 width="128.000000pt" height="128.000000pt" viewBox="0 0 128.000000 128.000000"
 preserveAspectRatio="xMidYMid meet">
<metadata>
Created by potrace 1.16, written by Peter Selinger 2001-2019
</metadata>
<g transform="translate(0.000000,128.000000) scale(0.100000,-0.100000)"
fill="#000000" stroke="none">
<path d="M1206 1220 c-41 0 -77 -4 -80 -9 -3 -5 1 -12 10 -15 9 -3 29 -6 44
-6 16 0 32 -4 35 -10 3 -5 19 -10 36 -10 24 0 29 4 29 25 0 24 -2 25 -74 25z"/>
<path d="M1082 1140 c-9 -1 -37 -12 -62 -26 -25 -15 -52 -32 -61 -40 -8 -8
-23 -14 -33 -14 -9 0 -34 -9 -54 -20 -20 -10 -52 -26 -69 -35 -18 -8 -46 -22
-62 -30 -16 -8 -35 -13 -42 -10 -8 4 -24 22 -36 41 -13 20 -23 41 -23 48 0 7
-11 23 -24 36 -16 14 -31 20 -42 16 -14 -5 -15 -16 -9 -81 7 -75 7 -75 -29
-76 -20 -1 -55 -2 -78 -2 -42 -2 -43 -1 -50 38 -5 22 -18 53 -31 68 -22 28
-22 28 -60 12 -37 -15 -38 -17 -32 -53 5 -30 0 -50 -21 -93 -16 -29 -49 -81
-76 -114 -30 -38 -65 -69 -95 -84 -27 -14 -56 -31 -65 -39 -10 -9 -18 -23 -18
-33 0 -10 8 -20 19 -24 10 -3 31 -1 46 5 15 6 44 27 64 46 29 28 41 34 64 30
16 -3 44 -13 62 -22 23 -11 36 -25 40 -45 4 -18 2 -36 -5 -44 -7 -9 -30 -15
-54 -15 -22 0 -47 -4 -54 -9 -11 -6 -7 -13 13 -29 15 -12 25 -27 22 -34 -2 -7
-33 -21 -68 -31 -35 -10 -70 -20 -77 -22 -6 -3 -12 -11 -12 -19 0 -8 25 -32
56 -52 57 -38 57 -38 93 2 20 22 44 51 54 63 10 12 23 21 30 18 8 -3 11 -28 9
-82 -3 -70 -7 -83 -33 -117 -17 -21 -43 -41 -57 -44 -15 -3 -37 -10 -50 -15
-13 -5 -34 -9 -47 -9 -13 0 -27 -5 -30 -10 -4 -6 -2 -17 4 -24 6 -7 40 -25 76
-41 57 -24 69 -26 95 -15 16 7 41 22 54 35 14 13 51 43 83 68 32 25 71 58 86
75 16 17 37 40 48 52 11 11 24 18 29 15 6 -4 10 -21 10 -38 0 -18 7 -61 16
-97 9 -36 26 -78 39 -95 21 -26 27 -28 52 -19 26 9 28 14 33 78 5 68 5 68 49
83 25 8 61 27 80 43 20 15 51 36 69 46 23 13 37 16 48 9 8 -6 26 -37 40 -70
13 -33 24 -61 24 -62 0 -2 -6 -3 -14 -3 -8 0 -31 10 -51 21 -27 16 -39 19 -47
11 -8 -8 -8 -18 0 -38 7 -14 33 -50 59 -80 30 -34 54 -54 67 -53 13 0 44 28
82 72 33 40 68 90 78 112 9 22 21 48 26 57 6 10 10 32 10 49 0 16 5 40 11 52
7 12 17 25 23 30 8 5 7 10 -3 16 -7 5 -16 38 -21 80 -7 68 -10 73 -51 111 -24
21 -49 39 -56 40 -7 0 -16 7 -21 16 -5 10 -3 33 6 62 7 26 21 63 29 82 9 19
20 43 24 52 5 10 9 33 9 52 0 20 -9 60 -21 91 -15 40 -28 59 -46 66 -13 5 -32
9 -41 9z m-76 -110 c6 0 17 -7 24 -15 8 -10 13 -55 14 -133 1 -80 -3 -127 -13
-150 -8 -20 -28 -40 -50 -52 -20 -10 -67 -41 -104 -68 -38 -29 -75 -48 -83
-45 -8 3 -14 9 -14 13 0 5 25 35 55 67 30 32 55 61 55 65 0 4 18 28 40 53 22
25 40 50 40 54 0 5 -6 13 -12 18 -7 6 -32 20 -56 33 -42 24 -42 24 -80 5 -20
-10 -52 -24 -70 -31 -29 -10 -34 -10 -43 7 -8 16 -4 22 23 39 18 11 38 20 44
20 6 0 27 11 46 23 19 13 54 32 79 41 24 9 55 26 69 36 14 11 30 20 36 20z
m-627 -110 c3 0 28 -11 55 -25 27 -14 62 -25 77 -25 15 0 39 -4 54 -10 14 -5
27 -15 29 -22 2 -7 9 -40 16 -73 7 -33 24 -97 37 -142 14 -46 23 -89 20 -97
-3 -8 -21 -16 -39 -18 -31 -3 -33 -5 -36 -48 -2 -24 -8 -50 -14 -57 -6 -7 -20
-13 -32 -13 -12 0 -41 -14 -64 -31 -25 -18 -51 -29 -64 -27 -17 2 -24 11 -26
34 -3 28 1 32 37 44 23 7 60 34 88 62 48 49 48 49 15 79 -18 16 -36 29 -40 29
-4 0 -13 -19 -20 -42 -8 -24 -25 -55 -39 -70 -14 -15 -30 -25 -35 -22 -4 3 -8
30 -8 59 0 46 4 57 23 70 13 8 37 17 53 19 16 2 46 13 67 26 20 12 37 28 37
35 0 7 -14 18 -30 25 -24 10 -37 10 -56 1 -14 -6 -36 -11 -49 -11 -16 0 -26 7
-31 22 -5 17 0 27 22 45 16 13 32 23 37 23 4 0 7 7 7 15 0 8 -9 19 -19 25 -14
7 -29 6 -53 -4 -18 -8 -52 -17 -74 -21 -26 -4 -44 -2 -48 4 -4 6 17 40 45 76
29 36 55 65 58 65z m366 -120 c33 0 35 -2 35 -35 0 -20 -6 -48 -14 -64 -8 -15
-21 -33 -30 -40 -12 -10 -16 -9 -25 7 -6 11 -9 41 -6 68 2 27 4 52 4 57 1 4
17 7 36 7z m326 -160 c20 0 44 -7 52 -15 9 -8 18 -32 22 -53 3 -21 1 -68 -5
-105 -5 -36 -15 -78 -20 -92 -6 -15 -17 -25 -29 -25 -11 0 -30 15 -42 33 -12
17 -34 44 -47 60 -14 15 -31 27 -37 27 -7 0 -52 -27 -101 -60 -49 -33 -93 -60
-98 -60 -5 0 -20 -10 -34 -22 -23 -23 -24 -23 -38 -3 -8 11 -12 26 -9 33 3 8
5 26 5 42 0 26 9 34 94 79 51 28 99 58 107 67 7 8 31 25 53 36 23 11 52 29 65
39 14 11 40 19 62 19z"/>
<path d="M1270 880 c-6 0 -13 -6 -16 -14 -3 -8 -4 -23 -2 -32 1 -10 9 -19 16
-22 8 -2 12 8 12 32 0 20 -5 36 -10 36z"/>
</g>
</svg>
