<?xml version="1.0" standalone="no"?>
<!DOCTYPE svg PUBLIC "-//W3C//DTD SVG 20010904//EN"
 "http://www.w3.org/TR/2001/REC-SVG-20010904/DTD/svg10.dtd">
<svg version="1.0" xmlns="http://www.w3.org/2000/svg"
 width="128.000000pt" height="128.000000pt" viewBox="0 0 128.000000 128.000000"
 preserveAspectRatio="xMidYMid meet">
<metadata>
Created by potrace 1.16, written by Peter Selinger 2001-2019
</metadata>
<g transform="translate(0.000000,128.000000) scale(0.100000,-0.100000)"
fill="#000000" stroke="none">
<path d="M1086 1249 c-1 -1 -14 -5 -31 -9 -16 -5 -57 -14 -90 -20 -33 -7 -80
-18 -105 -25 -25 -7 -71 -16 -104 -19 -32 -4 -67 -11 -77 -17 -14 -7 -19 -21
-19 -49 0 -21 -4 -41 -10 -45 -5 -3 -32 7 -60 22 -45 24 -54 26 -82 15 -17 -6
-35 -9 -40 -6 -5 4 -7 17 -3 31 3 14 3 33 0 44 -4 11 -22 23 -45 29 -21 6 -57
8 -79 4 -24 -4 -41 -12 -41 -20 0 -7 14 -22 30 -34 17 -12 30 -30 30 -41 0
-10 -26 -45 -58 -77 -34 -34 -88 -74 -128 -95 -38 -19 -77 -38 -86 -41 -10 -3
-18 -9 -18 -14 0 -5 11 -14 24 -22 14 -7 44 -13 68 -13 24 0 55 -6 70 -13 15
-8 38 -14 51 -14 12 0 28 -5 35 -12 7 -7 12 -35 12 -64 0 -32 -5 -56 -14 -63
-9 -7 -68 -13 -156 -15 -78 -2 -146 -8 -152 -14 -5 -5 -8 -20 -6 -33 3 -22 8
-24 77 -29 65 -4 72 -7 58 -19 -10 -7 -17 -17 -17 -22 0 -5 18 -47 40 -94 28
-57 45 -82 54 -79 8 3 17 15 20 27 3 12 6 41 6 64 0 35 -6 50 -35 82 -35 39
-35 39 -8 49 16 6 42 13 59 17 22 4 37 1 54 -13 21 -17 23 -28 26 -108 1 -49
-2 -106 -8 -126 -8 -28 -8 -41 2 -53 10 -11 10 -18 1 -29 -7 -8 -47 -27 -89
-42 -42 -15 -86 -33 -96 -40 -10 -7 -31 -11 -45 -8 -14 3 -38 1 -54 -5 -15 -6
-27 -17 -27 -24 0 -8 25 -24 59 -36 32 -11 64 -21 72 -21 8 0 45 11 83 25 37
14 83 34 101 45 18 11 39 20 47 20 9 0 55 13 104 29 49 16 92 27 97 24 5 -3 7
-50 6 -105 -2 -89 0 -102 16 -114 11 -8 24 -13 30 -11 5 1 22 27 36 57 15 29
30 72 34 94 4 23 9 66 11 96 2 30 -4 114 -12 186 -9 72 -14 143 -12 159 3 25
9 30 53 42 28 7 67 13 88 13 20 0 54 9 74 20 21 11 48 20 61 20 13 0 35 6 50
14 15 7 37 17 50 20 19 6 25 2 37 -28 11 -25 15 -85 17 -230 2 -175 0 -197
-16 -215 -10 -11 -38 -28 -62 -38 -24 -10 -44 -23 -44 -29 0 -6 32 -35 70 -64
39 -28 77 -49 84 -47 8 3 22 32 32 64 9 32 21 76 26 98 5 22 13 60 16 85 5 33
13 48 30 55 14 6 22 18 22 35 0 17 -8 29 -22 35 -22 10 -23 17 -29 155 -3 82
-11 155 -17 167 -7 13 -30 28 -52 34 -35 11 -40 16 -40 43 0 17 7 53 15 81 9
27 14 54 11 60 -2 6 2 42 10 80 7 39 13 82 14 97 0 23 -8 31 -42 48 -23 11
-42 20 -42 19z m-128 -132 c35 -3 68 -9 74 -15 5 -5 10 -68 11 -141 0 -113 -2
-134 -18 -151 -10 -11 -23 -20 -30 -20 -7 0 -20 9 -30 20 -14 16 -15 24 -6 51
6 17 13 59 17 93 5 47 3 64 -8 73 -11 9 -33 6 -98 -13 -47 -13 -101 -23 -120
-22 -29 3 -35 7 -38 28 -1 14 2 31 7 39 5 7 43 21 86 32 43 10 80 21 84 25 3
3 35 4 69 1z m-519 -67 c10 0 40 -16 67 -35 27 -19 61 -35 75 -35 15 0 36 -8
48 -17 15 -13 21 -30 22 -58 0 -22 -1 -66 -1 -97 -1 -44 -7 -63 -26 -85 -13
-15 -24 -31 -24 -35 0 -5 -4 -8 -10 -8 -5 0 -19 9 -31 21 -18 18 -28 20 -78
14 -48 -5 -59 -4 -64 9 -4 9 -9 38 -13 65 -6 50 -6 50 32 56 22 4 45 8 52 10
6 3 12 10 12 18 0 7 -16 21 -36 30 -22 11 -41 14 -48 9 -6 -5 -34 -16 -63 -25
-28 -10 -61 -17 -72 -17 -11 0 -22 4 -25 9 -4 5 16 25 43 45 27 20 65 56 85
81 21 25 45 45 55 45z m386 -112 c50 -3 50 -3 50 -93 0 -90 0 -90 -58 -99 -40
-7 -61 -6 -69 2 -6 6 -13 44 -16 85 -4 69 -3 75 19 91 17 11 40 16 74 14z
m-413 -286 c9 -7 46 -11 99 -9 84 2 84 2 87 -33 3 -35 3 -35 -87 -38 -49 -1
-92 1 -94 5 -2 5 -8 26 -11 47 -6 34 -5 38 6 28z m33 -132 c13 0 28 -6 34 -14
6 -7 8 -21 5 -30 -3 -9 -15 -21 -24 -26 -14 -7 -23 -6 -34 6 -9 8 -16 23 -16
33 0 10 3 21 7 24 3 4 16 7 28 7z m139 -23 c6 -2 12 -31 14 -65 3 -61 3 -61
-45 -82 -26 -11 -54 -19 -62 -18 -9 2 -17 12 -19 22 -2 11 7 29 22 43 14 13
26 28 26 33 0 4 12 22 26 40 15 17 32 29 38 27z"/>
<path d="M1003 629 c-21 0 -47 -4 -58 -9 -11 -5 -31 -9 -45 -9 -13 -1 -44 -9
-68 -18 -41 -15 -43 -18 -38 -47 3 -17 8 -61 12 -98 4 -38 12 -72 18 -78 7 -5
35 -6 71 0 33 4 72 13 87 19 19 7 30 21 37 48 5 21 15 66 22 100 6 34 9 69 6
78 -4 10 -19 15 -44 14z m-88 -99 c18 0 41 -7 49 -16 9 -8 16 -23 16 -32 0 -9
-4 -23 -8 -30 -5 -7 -22 -16 -40 -21 -21 -7 -34 -6 -40 2 -5 7 -13 22 -16 35
-4 12 -4 31 -1 42 5 15 15 20 40 20z"/>
</g>
</svg>
