<?xml version="1.0" standalone="no"?>
<!DOCTYPE svg PUBLIC "-//W3C//DTD SVG 20010904//EN"
 "http://www.w3.org/TR/2001/REC-SVG-20010904/DTD/svg10.dtd">
<svg version="1.0" xmlns="http://www.w3.org/2000/svg"
 width="56.000000pt" height="56.000000pt" viewBox="0 0 56.000000 56.000000"
 preserveAspectRatio="xMidYMid meet">
<metadata>
Created by potrace 1.16, written by Peter Selinger 2001-2019
</metadata>
<g transform="translate(0.000000,56.000000) scale(0.100000,-0.100000)"
fill="#000000" stroke="none">
<path d="M245 560 c-32 0 -33 -1 -28 -37 4 -34 1 -41 -30 -65 -25 -21 -34 -36
-35 -60 0 -17 6 -45 15 -62 9 -17 17 -33 19 -35 2 -2 28 7 59 20 56 23 57 23
71 4 8 -10 14 -30 14 -44 0 -14 -10 -59 -22 -100 -18 -63 -30 -82 -70 -120
-26 -25 -48 -49 -48 -53 0 -4 13 -8 28 -8 22 0 42 15 92 69 35 38 70 84 76
102 7 19 13 52 13 75 1 22 -6 55 -15 73 -8 17 -31 43 -51 58 -32 24 -38 26
-75 16 -32 -9 -41 -8 -45 4 -3 7 3 23 12 33 13 14 31 20 61 20 32 0 46 5 53
18 7 14 6 25 -5 40 -8 12 -22 22 -30 22 -8 0 -17 7 -20 15 -4 9 -19 15 -39 15z"/>
</g>
</svg>
