<?xml version="1.0" standalone="no"?>
<!DOCTYPE svg PUBLIC "-//W3C//DTD SVG 20010904//EN"
 "http://www.w3.org/TR/2001/REC-SVG-20010904/DTD/svg10.dtd">
<svg version="1.0" xmlns="http://www.w3.org/2000/svg"
 width="56.000000pt" height="56.000000pt" viewBox="0 0 56.000000 56.000000"
 preserveAspectRatio="xMidYMid meet">
<metadata>
Created by potrace 1.16, written by Peter Selinger 2001-2019
</metadata>
<g transform="translate(0.000000,56.000000) scale(0.100000,-0.100000)"
fill="#000000" stroke="none">
<path d="M264 560 c-22 0 -24 -3 -19 -22 4 -13 19 -34 34 -48 15 -14 31 -33
35 -44 6 -18 7 -18 26 -1 11 10 20 23 20 29 0 6 -16 28 -35 49 -23 24 -44 37
-61 37z"/>
<path d="M308 420 c-7 0 -24 -16 -38 -36 -13 -20 -37 -50 -52 -66 -15 -17 -28
-39 -28 -49 0 -10 5 -19 10 -19 6 0 18 4 28 9 9 5 34 14 56 21 30 9 43 10 61
0 18 -10 28 -9 54 4 27 14 30 20 21 36 -8 15 -21 20 -55 20 -24 0 -47 -5 -51
-11 -4 -7 -10 -7 -16 -1 -7 7 -5 21 6 43 9 18 16 36 16 41 0 4 -6 8 -12 8z"/>
<path d="M263 80 c-11 0 -28 -8 -39 -19 -11 -10 -37 -24 -57 -32 -20 -7 -37
-17 -37 -22 0 -6 18 -7 42 -3 24 4 56 15 73 25 16 9 31 25 33 34 2 11 -3 17
-15 17z"/>
<path d="M310 20 c-5 0 -12 -4 -15 -10 -3 -5 3 -10 15 -10 12 0 18 5 15 10 -3
6 -10 10 -15 10z"/>
</g>
</svg>
