<?xml version="1.0" standalone="no"?>
<!DOCTYPE svg PUBLIC "-//W3C//DTD SVG 20010904//EN"
 "http://www.w3.org/TR/2001/REC-SVG-20010904/DTD/svg10.dtd">
<svg version="1.0" xmlns="http://www.w3.org/2000/svg"
 width="56.000000pt" height="56.000000pt" viewBox="0 0 56.000000 56.000000"
 preserveAspectRatio="xMidYMid meet">
<metadata>
Created by potrace 1.16, written by Peter Selinger 2001-2019
</metadata>
<g transform="translate(0.000000,56.000000) scale(0.100000,-0.100000)"
fill="#000000" stroke="none">
<path d="M294 541 c-9 20 -10 19 -24 -13 -13 -28 -20 -33 -49 -33 -21 0 -38
-6 -44 -17 -8 -12 -7 -24 3 -42 7 -14 19 -26 27 -26 7 0 22 5 32 12 10 6 26 8
35 5 9 -4 25 -27 36 -53 14 -32 20 -68 20 -122 0 -42 -7 -99 -15 -127 -9 -27
-27 -67 -40 -87 -21 -31 -22 -38 -9 -38 9 0 28 13 44 30 15 16 33 44 39 62 7
18 17 41 22 50 5 10 9 52 9 93 0 41 -6 94 -12 117 -7 23 -28 57 -46 75 -21 21
-42 33 -59 33 -25 0 -26 1 -11 16 14 15 21 15 47 4 17 -7 38 -9 47 -6 15 6 15
8 -1 26 -10 11 -23 20 -30 20 -7 0 -16 9 -21 21z"/>
</g>
</svg>
