<?xml version="1.0" standalone="no"?>
<!DOCTYPE svg PUBLIC "-//W3C//DTD SVG 20010904//EN"
 "http://www.w3.org/TR/2001/REC-SVG-20010904/DTD/svg10.dtd">
<svg version="1.0" xmlns="http://www.w3.org/2000/svg"
 width="56.000000pt" height="56.000000pt" viewBox="0 0 56.000000 56.000000"
 preserveAspectRatio="xMidYMid meet">
<metadata>
Created by potrace 1.16, written by Peter Selinger 2001-2019
</metadata>
<g transform="translate(0.000000,56.000000) scale(0.100000,-0.100000)"
fill="#000000" stroke="none">
<path d="M277 560 c-14 0 -17 -7 -15 -36 2 -33 -3 -41 -45 -78 -44 -38 -47
-44 -47 -90 0 -48 0 -48 54 -42 34 5 63 3 75 -3 12 -7 23 -26 27 -46 4 -24 -1
-59 -15 -108 -12 -39 -26 -86 -31 -103 -6 -17 -10 -36 -10 -42 0 -7 7 -12 15
-12 8 0 27 19 43 43 15 23 34 66 40 95 7 30 12 77 12 107 0 29 -7 69 -15 88
-8 20 -25 43 -37 51 -12 9 -40 16 -61 16 -26 0 -37 4 -35 13 3 6 24 18 49 26
24 8 50 16 58 18 11 3 10 8 -3 26 -9 12 -22 34 -29 50 -6 15 -19 27 -30 27z"/>
</g>
</svg>
