<?xml version="1.0" standalone="no"?>
<!DOCTYPE svg PUBLIC "-//W3C//DTD SVG 20010904//EN"
 "http://www.w3.org/TR/2001/REC-SVG-20010904/DTD/svg10.dtd">
<svg version="1.0" xmlns="http://www.w3.org/2000/svg"
 width="56.000000pt" height="56.000000pt" viewBox="0 0 56.000000 56.000000"
 preserveAspectRatio="xMidYMid meet">
<metadata>
Created by potrace 1.16, written by Peter Selinger 2001-2019
</metadata>
<g transform="translate(0.000000,56.000000) scale(0.100000,-0.100000)"
fill="#000000" stroke="none">
<path d="M345 560 c-19 0 -35 -4 -35 -8 0 -5 -12 -15 -27 -22 -16 -8 -38 -23
-50 -34 -13 -11 -23 -28 -23 -38 0 -11 7 -26 15 -34 8 -8 12 -20 9 -27 -2 -7
-18 -21 -34 -30 -26 -16 -29 -22 -23 -50 3 -18 11 -35 16 -38 5 -4 23 -3 40 2
16 5 34 6 40 2 5 -3 7 -28 4 -58 -3 -29 -10 -61 -15 -71 -5 -11 -24 -48 -41
-82 -18 -35 -30 -66 -27 -70 3 -3 17 0 30 6 14 6 33 26 42 44 9 18 30 50 46
71 25 31 30 47 31 98 1 50 -2 63 -18 76 -11 8 -32 17 -47 20 -15 3 -32 11 -38
19 -9 9 -6 15 9 23 11 6 28 11 39 11 11 0 30 8 42 18 23 19 23 19 -16 48 -21
16 -42 33 -46 38 -3 5 -1 17 5 27 6 10 15 15 20 12 5 -3 19 -1 30 5 12 6 30
13 40 16 9 3 17 10 17 16 0 5 -16 10 -35 10z"/>
</g>
</svg>
