<?xml version="1.0" standalone="no"?>
<!DOCTYPE svg PUBLIC "-//W3C//DTD SVG 20010904//EN"
 "http://www.w3.org/TR/2001/REC-SVG-20010904/DTD/svg10.dtd">
<svg version="1.0" xmlns="http://www.w3.org/2000/svg"
 width="56.000000pt" height="56.000000pt" viewBox="0 0 56.000000 56.000000"
 preserveAspectRatio="xMidYMid meet">
<metadata>
Created by potrace 1.16, written by Peter Selinger 2001-2019
</metadata>
<g transform="translate(0.000000,56.000000) scale(0.100000,-0.100000)"
fill="#000000" stroke="none">
<path d="M318 560 c-16 0 -30 -10 -41 -29 -17 -29 -17 -29 21 -28 33 2 37 5
40 30 3 23 0 27 -20 27z"/>
<path d="M241 500 c-5 0 -14 -7 -21 -15 -10 -12 -10 -19 1 -32 7 -10 26 -30
43 -45 28 -24 30 -31 29 -88 -1 -33 -7 -75 -12 -93 -6 -18 -21 -66 -33 -107
-12 -41 -28 -85 -36 -97 -13 -22 -13 -23 10 -23 19 0 28 9 42 43 10 23 22 52
27 65 5 12 13 32 18 45 5 12 12 31 16 42 4 11 13 51 20 89 8 49 9 81 2 109 -8
33 -17 42 -48 55 -21 8 -41 23 -44 33 -4 11 -10 19 -14 19z"/>
</g>
</svg>
