<?xml version="1.0" standalone="no"?>
<!DOCTYPE svg PUBLIC "-//W3C//DTD SVG 20010904//EN"
 "http://www.w3.org/TR/2001/REC-SVG-20010904/DTD/svg10.dtd">
<svg version="1.0" xmlns="http://www.w3.org/2000/svg"
 width="56.000000pt" height="56.000000pt" viewBox="0 0 56.000000 56.000000"
 preserveAspectRatio="xMidYMid meet">
<metadata>
Created by potrace 1.16, written by Peter Selinger 2001-2019
</metadata>
<g transform="translate(0.000000,56.000000) scale(0.100000,-0.100000)"
fill="#000000" stroke="none">
<path d="M244 560 c-13 0 -15 -9 -11 -57 3 -32 9 -75 12 -96 4 -22 3 -43 -3
-50 -7 -8 -7 -18 -2 -27 6 -8 10 -27 10 -41 0 -14 9 -35 20 -47 16 -17 20 -35
20 -85 0 -39 -6 -77 -16 -96 -9 -18 -22 -35 -30 -38 -8 -3 -14 -9 -14 -14 0
-5 10 -9 23 -9 13 0 32 10 43 23 11 13 26 44 33 70 7 25 11 59 8 74 -3 15 -9
42 -13 58 -4 17 -15 42 -25 57 -15 20 -19 44 -19 101 0 42 -4 79 -10 82 -5 3
-10 26 -10 51 0 34 -4 44 -16 44z"/>
</g>
</svg>
