<?xml version="1.0" standalone="no"?>
<!DOCTYPE svg PUBLIC "-//W3C//DTD SVG 20010904//EN"
 "http://www.w3.org/TR/2001/REC-SVG-20010904/DTD/svg10.dtd">
<svg version="1.0" xmlns="http://www.w3.org/2000/svg"
 width="56.000000pt" height="56.000000pt" viewBox="0 0 56.000000 56.000000"
 preserveAspectRatio="xMidYMid meet">
<metadata>
Created by potrace 1.16, written by Peter Selinger 2001-2019
</metadata>
<g transform="translate(0.000000,56.000000) scale(0.100000,-0.100000)"
fill="#000000" stroke="none">
<path d="M265 560 c-8 0 -15 -7 -15 -16 0 -8 5 -24 11 -35 9 -17 4 -27 -30
-64 -23 -25 -41 -54 -41 -65 0 -12 12 -32 26 -45 15 -14 35 -25 44 -25 10 0
23 -7 30 -15 7 -9 9 -27 5 -47 -4 -18 -15 -58 -25 -88 -10 -30 -21 -68 -24
-85 -3 -16 -8 -40 -12 -53 -6 -22 -4 -23 26 -20 33 3 34 5 53 78 10 41 23 100
28 130 5 30 6 73 2 95 -7 34 -15 43 -53 63 -27 13 -45 29 -45 40 0 11 9 18 28
20 16 2 34 -1 41 -7 9 -7 16 -7 24 1 7 7 12 17 12 23 0 6 -16 28 -35 49 -19
21 -35 45 -35 52 0 8 -7 14 -15 14z"/>
</g>
</svg>
