<?xml version="1.0" standalone="no"?>
<!DOCTYPE svg PUBLIC "-//W3C//DTD SVG 20010904//EN"
 "http://www.w3.org/TR/2001/REC-SVG-20010904/DTD/svg10.dtd">
<svg version="1.0" xmlns="http://www.w3.org/2000/svg"
 width="56.000000pt" height="56.000000pt" viewBox="0 0 56.000000 56.000000"
 preserveAspectRatio="xMidYMid meet">
<metadata>
Created by potrace 1.16, written by Peter Selinger 2001-2019
</metadata>
<g transform="translate(0.000000,56.000000) scale(0.100000,-0.100000)"
fill="#000000" stroke="none">
<path d="M250 560 c-13 0 -20 -7 -20 -19 0 -10 7 -24 15 -31 8 -7 15 -20 15
-29 0 -9 -7 -29 -15 -45 -8 -16 -18 -47 -22 -68 -6 -40 -6 -40 58 -37 59 4 64
3 61 -16 -1 -11 -5 -38 -8 -60 -3 -22 -11 -53 -17 -70 -6 -16 -22 -47 -35 -68
-14 -20 -30 -37 -37 -37 -7 0 -32 -18 -56 -40 -42 -37 -43 -39 -19 -40 14 0
42 11 62 25 20 14 41 25 46 25 4 0 24 21 42 48 19 26 40 57 47 70 6 12 14 44
16 71 2 26 7 52 10 58 4 6 2 26 -5 44 -6 19 -15 40 -21 47 -7 9 -24 10 -58 6
-28 -4 -49 -3 -49 3 0 5 15 23 33 40 17 16 41 33 52 37 19 8 19 9 -5 24 -14
10 -35 27 -48 40 -13 12 -32 22 -42 22z"/>
</g>
</svg>
