<?xml version="1.0" standalone="no"?>
<!DOCTYPE svg PUBLIC "-//W3C//DTD SVG 20010904//EN"
 "http://www.w3.org/TR/2001/REC-SVG-20010904/DTD/svg10.dtd">
<svg version="1.0" xmlns="http://www.w3.org/2000/svg"
 width="56.000000pt" height="56.000000pt" viewBox="0 0 56.000000 56.000000"
 preserveAspectRatio="xMidYMid meet">
<metadata>
Created by potrace 1.16, written by Peter Selinger 2001-2019
</metadata>
<g transform="translate(0.000000,56.000000) scale(0.100000,-0.100000)"
fill="#000000" stroke="none">
<path d="M253 535 c-10 30 -10 30 -18 -8 -5 -25 -3 -53 6 -79 10 -31 10 -46 1
-72 -7 -18 -12 -55 -12 -83 0 -27 3 -53 7 -57 4 -3 13 -23 20 -44 7 -20 13
-59 13 -85 0 -34 -7 -58 -21 -78 -20 -29 -20 -29 0 -29 13 0 29 15 46 43 17
30 25 59 25 90 0 25 -4 48 -9 51 -5 3 -18 26 -30 51 -11 25 -21 58 -21 74 0
17 5 33 10 36 6 3 10 17 10 31 0 14 5 34 10 44 8 14 5 27 -8 52 -10 18 -23 47
-29 63z"/>
</g>
</svg>
