<?xml version="1.0" standalone="no"?>
<!DOCTYPE svg PUBLIC "-//W3C//DTD SVG 20010904//EN"
 "http://www.w3.org/TR/2001/REC-SVG-20010904/DTD/svg10.dtd">
<svg version="1.0" xmlns="http://www.w3.org/2000/svg"
 width="56.000000pt" height="56.000000pt" viewBox="0 0 56.000000 56.000000"
 preserveAspectRatio="xMidYMid meet">
<metadata>
Created by potrace 1.16, written by Peter Selinger 2001-2019
</metadata>
<g transform="translate(0.000000,56.000000) scale(0.100000,-0.100000)"
fill="#000000" stroke="none">
<path d="M296 530 c-9 0 -16 -7 -16 -15 0 -8 -15 -28 -34 -46 -19 -17 -40 -44
-46 -60 -10 -23 -10 -32 0 -44 7 -8 18 -15 25 -15 8 0 27 8 44 18 28 15 33 15
41 2 5 -8 12 -35 16 -59 4 -26 2 -58 -5 -76 -6 -17 -11 -39 -11 -49 0 -10 -13
-37 -30 -61 -16 -24 -30 -48 -30 -53 0 -6 -3 -12 -7 -14 -5 -2 -19 -15 -32
-31 -21 -23 -22 -27 -7 -27 10 0 37 21 62 46 24 26 59 77 76 113 22 45 33 85
36 127 4 57 2 63 -29 98 -25 30 -37 36 -56 31 -13 -3 -29 -3 -35 1 -7 4 -6 9
3 15 8 5 30 9 50 9 22 0 42 7 52 18 10 10 17 21 17 24 0 4 -15 16 -34 27 -18
12 -41 21 -50 21z"/>
<path d="M355 70 c-8 0 -32 -16 -53 -35 -34 -32 -35 -34 -14 -35 13 0 36 10
52 22 17 12 30 28 30 35 0 7 -7 13 -15 13z"/>
</g>
</svg>
