<?xml version="1.0" standalone="no"?>
<!DOCTYPE svg PUBLIC "-//W3C//DTD SVG 20010904//EN"
 "http://www.w3.org/TR/2001/REC-SVG-20010904/DTD/svg10.dtd">
<svg version="1.0" xmlns="http://www.w3.org/2000/svg"
 width="56.000000pt" height="56.000000pt" viewBox="0 0 56.000000 56.000000"
 preserveAspectRatio="xMidYMid meet">
<metadata>
Created by potrace 1.16, written by Peter Selinger 2001-2019
</metadata>
<g transform="translate(0.000000,56.000000) scale(0.100000,-0.100000)"
fill="#000000" stroke="none">
<path d="M281 560 c-5 0 -11 -10 -14 -21 -3 -12 2 -38 13 -59 10 -20 15 -41
12 -46 -4 -6 -32 -22 -62 -37 -30 -15 -62 -33 -71 -40 -8 -6 -23 -27 -32 -46
-13 -26 -14 -37 -5 -48 8 -10 24 -13 57 -9 29 4 55 2 71 -7 22 -11 25 -19 25
-67 0 -30 -7 -83 -16 -117 -17 -63 -17 -63 21 -63 27 0 39 5 43 17 3 10 12 42
21 72 12 43 13 65 5 105 -6 28 -17 61 -25 73 -8 13 -32 32 -54 43 -22 11 -40
24 -40 29 0 5 33 20 73 35 39 14 87 29 105 32 22 5 32 12 32 25 0 12 -23 32
-69 58 -38 22 -71 47 -75 56 -3 8 -9 15 -15 15z"/>
</g>
</svg>
