<?xml version="1.0" standalone="no"?>
<!DOCTYPE svg PUBLIC "-//W3C//DTD SVG 20010904//EN"
 "http://www.w3.org/TR/2001/REC-SVG-20010904/DTD/svg10.dtd">
<svg version="1.0" xmlns="http://www.w3.org/2000/svg"
 width="56.000000pt" height="56.000000pt" viewBox="0 0 56.000000 56.000000"
 preserveAspectRatio="xMidYMid meet">
<metadata>
Created by potrace 1.16, written by Peter Selinger 2001-2019
</metadata>
<g transform="translate(0.000000,56.000000) scale(0.100000,-0.100000)"
fill="#000000" stroke="none">
<path d="M255 560 c-14 0 -26 -8 -30 -19 -3 -11 3 -34 15 -54 17 -29 19 -39 9
-61 -7 -14 -15 -26 -19 -26 -4 0 -19 -18 -34 -40 -14 -22 -26 -48 -26 -59 0
-11 4 -22 9 -26 6 -3 28 -1 50 4 26 6 43 5 50 -2 6 -6 11 -32 11 -57 0 -26 -7
-67 -16 -92 -8 -26 -22 -49 -31 -52 -9 -4 -22 -1 -30 5 -7 7 -14 10 -16 8 -1
-2 -8 -14 -15 -26 -7 -13 -10 -23 -7 -23 3 0 14 6 25 12 15 10 22 10 32 0 9
-9 9 -15 0 -24 -7 -7 -12 -15 -12 -19 0 -4 26 -7 58 -6 57 0 57 0 58 73 1 55
6 81 23 110 20 34 21 42 11 86 -7 26 -9 55 -6 64 3 8 1 24 -4 35 -6 11 -21 19
-35 19 -14 0 -25 5 -25 11 0 6 9 13 20 16 18 5 21 12 18 57 -3 45 -6 51 -26
54 -13 2 -26 10 -29 18 -3 8 -16 14 -28 14z"/>
</g>
</svg>
