<?xml version="1.0" standalone="no"?>
<!DOCTYPE svg PUBLIC "-//W3C//DTD SVG 20010904//EN"
 "http://www.w3.org/TR/2001/REC-SVG-20010904/DTD/svg10.dtd">
<svg version="1.0" xmlns="http://www.w3.org/2000/svg"
 width="56.000000pt" height="56.000000pt" viewBox="0 0 56.000000 56.000000"
 preserveAspectRatio="xMidYMid meet">
<metadata>
Created by potrace 1.16, written by Peter Selinger 2001-2019
</metadata>
<g transform="translate(0.000000,56.000000) scale(0.100000,-0.100000)"
fill="#000000" stroke="none">
<path d="M200 560 c-23 0 -30 -4 -30 -20 0 -11 7 -23 16 -27 11 -4 22 1 30 12
8 10 14 22 14 27 0 4 -13 8 -30 8z"/>
<path d="M338 560 c-13 0 -29 -9 -36 -20 -6 -11 -12 -28 -12 -37 0 -10 -16
-38 -36 -63 -20 -25 -44 -53 -55 -63 -10 -10 -19 -22 -19 -28 0 -5 7 -12 16
-16 10 -3 30 -1 46 5 27 10 30 9 40 -16 6 -17 8 -66 4 -130 -4 -63 -13 -116
-23 -137 -12 -24 -19 -31 -25 -23 -4 7 -8 40 -8 73 0 33 -3 70 -6 82 -4 13
-13 23 -20 23 -8 0 -15 -6 -15 -12 -1 -7 -2 -55 -3 -105 -2 -93 -2 -93 42 -93
33 0 49 6 63 23 11 12 27 38 36 57 11 24 15 68 15 154 0 120 0 120 -31 148
-32 29 -32 29 2 71 19 23 38 57 42 75 6 29 4 32 -17 32z"/>
</g>
</svg>
