<?xml version="1.0" standalone="no"?>
<!DOCTYPE svg PUBLIC "-//W3C//DTD SVG 20010904//EN"
 "http://www.w3.org/TR/2001/REC-SVG-20010904/DTD/svg10.dtd">
<svg version="1.0" xmlns="http://www.w3.org/2000/svg"
 width="56.000000pt" height="56.000000pt" viewBox="0 0 56.000000 56.000000"
 preserveAspectRatio="xMidYMid meet">
<metadata>
Created by potrace 1.16, written by Peter Selinger 2001-2019
</metadata>
<g transform="translate(0.000000,56.000000) scale(0.100000,-0.100000)"
fill="#000000" stroke="none">
<path d="M321 559 c-9 -1 -29 -15 -45 -31 -25 -24 -28 -33 -19 -47 9 -15 4
-27 -33 -73 -31 -40 -42 -61 -37 -75 3 -10 11 -21 17 -25 6 -4 27 -5 46 -2 19
4 39 10 44 15 6 5 15 9 21 9 6 0 16 -15 23 -33 7 -18 12 -40 12 -48 0 -9 -14
-42 -30 -74 -17 -32 -40 -69 -52 -82 -12 -13 -45 -38 -72 -56 -50 -31 -50 -32
-23 -35 18 -2 43 6 65 21 21 13 56 43 80 66 23 23 52 56 62 74 12 20 20 50 20
79 0 41 -5 52 -38 88 -27 27 -47 40 -65 40 -16 0 -27 6 -27 13 0 7 15 28 34
46 31 30 35 39 34 82 -1 38 -5 49 -17 48z"/>
<path d="M367 19 c-12 0 -31 -4 -42 -9 -15 -6 -8 -9 28 -9 30 -1 46 3 42 9 -3
5 -16 10 -28 9z"/>
</g>
</svg>
