<?xml version="1.0" standalone="no"?>
<!DOCTYPE svg PUBLIC "-//W3C//DTD SVG 20010904//EN"
 "http://www.w3.org/TR/2001/REC-SVG-20010904/DTD/svg10.dtd">
<svg version="1.0" xmlns="http://www.w3.org/2000/svg"
 width="56.000000pt" height="56.000000pt" viewBox="0 0 56.000000 56.000000"
 preserveAspectRatio="xMidYMid meet">
<metadata>
Created by potrace 1.16, written by Peter Selinger 2001-2019
</metadata>
<g transform="translate(0.000000,56.000000) scale(0.100000,-0.100000)"
fill="#000000" stroke="none">
<path d="M300 560 c-50 0 -50 0 -50 -45 0 -24 5 -55 11 -69 9 -20 8 -32 -10
-68 -11 -25 -21 -48 -21 -52 0 -4 9 -20 20 -35 10 -16 24 -49 30 -75 7 -33 7
-59 0 -85 -5 -21 -28 -56 -50 -79 -22 -22 -40 -43 -40 -46 0 -3 12 -6 28 -6
15 0 40 9 56 19 16 11 40 32 53 47 23 27 24 32 17 124 -5 73 -12 102 -28 123
-20 28 -20 28 12 53 17 14 32 33 32 42 0 9 -14 35 -30 56 -17 22 -30 48 -30
58 0 13 7 18 25 18 14 0 25 5 25 10 0 6 -22 10 -50 10z"/>
</g>
</svg>
