<?xml version="1.0" standalone="no"?>
<!DOCTYPE svg PUBLIC "-//W3C//DTD SVG 20010904//EN"
 "http://www.w3.org/TR/2001/REC-SVG-20010904/DTD/svg10.dtd">
<svg version="1.0" xmlns="http://www.w3.org/2000/svg"
 width="56.000000pt" height="56.000000pt" viewBox="0 0 56.000000 56.000000"
 preserveAspectRatio="xMidYMid meet">
<metadata>
Created by potrace 1.16, written by Peter Selinger 2001-2019
</metadata>
<g transform="translate(0.000000,56.000000) scale(0.100000,-0.100000)"
fill="#000000" stroke="none">
<path d="M279 560 c-17 0 -20 -4 -14 -28 5 -25 1 -31 -32 -53 -29 -18 -39 -32
-41 -56 -3 -29 0 -33 37 -44 29 -8 43 -20 52 -41 7 -17 10 -57 7 -106 -4 -54
-14 -99 -36 -152 -26 -65 -28 -76 -14 -79 9 -2 25 7 36 20 10 13 35 57 54 98
31 67 34 81 30 146 -3 69 -5 73 -51 128 -47 54 -48 56 -25 61 12 3 34 7 48 8
15 2 26 10 28 21 2 10 -4 27 -14 38 -9 10 -23 19 -31 19 -7 0 -13 5 -13 10 0
6 -9 10 -21 10z"/>
</g>
</svg>
