<?xml version="1.0" standalone="no"?>
<!DOCTYPE svg PUBLIC "-//W3C//DTD SVG 20010904//EN"
 "http://www.w3.org/TR/2001/REC-SVG-20010904/DTD/svg10.dtd">
<svg version="1.0" xmlns="http://www.w3.org/2000/svg"
 width="56.000000pt" height="56.000000pt" viewBox="0 0 56.000000 56.000000"
 preserveAspectRatio="xMidYMid meet">
<metadata>
Created by potrace 1.16, written by Peter Selinger 2001-2019
</metadata>
<g transform="translate(0.000000,56.000000) scale(0.100000,-0.100000)"
fill="#000000" stroke="none">
<path d="M275 560 c-18 0 -25 -5 -25 -18 0 -11 9 -27 20 -37 19 -17 19 -18 -5
-64 -13 -26 -31 -53 -39 -60 -9 -8 -16 -22 -16 -32 0 -13 7 -19 21 -19 11 0
29 10 39 23 12 14 22 19 28 12 5 -5 14 -38 20 -72 8 -44 8 -71 0 -95 -6 -18
-17 -47 -24 -64 -7 -17 -27 -46 -44 -65 -17 -19 -35 -42 -41 -51 -8 -15 -6
-18 10 -18 11 0 37 18 57 40 21 22 44 55 52 73 7 17 18 40 23 49 5 10 9 44 9
75 0 32 -6 78 -14 103 -7 24 -21 49 -32 55 -10 5 -21 11 -23 12 -1 1 9 18 24
37 27 35 27 35 6 65 -12 16 -21 34 -21 40 0 6 -11 11 -25 11z"/>
</g>
</svg>
