<?xml version="1.0" standalone="no"?>
<!DOCTYPE svg PUBLIC "-//W3C//DTD SVG 20010904//EN"
 "http://www.w3.org/TR/2001/REC-SVG-20010904/DTD/svg10.dtd">
<svg version="1.0" xmlns="http://www.w3.org/2000/svg"
 width="56.000000pt" height="56.000000pt" viewBox="0 0 56.000000 56.000000"
 preserveAspectRatio="xMidYMid meet">
<metadata>
Created by potrace 1.16, written by Peter Selinger 2001-2019
</metadata>
<g transform="translate(0.000000,56.000000) scale(0.100000,-0.100000)"
fill="#000000" stroke="none">
<path d="M269 560 c-15 0 -19 -7 -19 -36 0 -26 -7 -41 -24 -55 -13 -10 -27
-30 -30 -44 -4 -16 0 -34 10 -51 12 -17 20 -22 27 -15 6 6 16 11 23 11 6 0 15
-8 19 -17 4 -10 13 -49 19 -86 7 -37 9 -70 4 -73 -4 -3 -8 -16 -8 -30 0 -14
-5 -35 -12 -47 -6 -12 -26 -40 -45 -61 -18 -22 -33 -44 -33 -49 0 -5 13 -7 29
-4 16 3 41 17 55 30 14 13 26 27 26 31 0 3 11 29 25 58 18 36 25 68 25 107 0
43 -8 72 -34 126 -19 38 -32 73 -30 77 3 5 12 8 19 8 8 0 22 11 31 25 17 25
16 27 -21 60 -21 19 -46 35 -56 35z"/>
</g>
</svg>
