<?xml version="1.0" standalone="no"?>
<!DOCTYPE svg PUBLIC "-//W3C//DTD SVG 20010904//EN"
 "http://www.w3.org/TR/2001/REC-SVG-20010904/DTD/svg10.dtd">
<svg version="1.0" xmlns="http://www.w3.org/2000/svg"
 width="56.000000pt" height="56.000000pt" viewBox="0 0 56.000000 56.000000"
 preserveAspectRatio="xMidYMid meet">
<metadata>
Created by potrace 1.16, written by Peter Selinger 2001-2019
</metadata>
<g transform="translate(0.000000,56.000000) scale(0.100000,-0.100000)"
fill="#000000" stroke="none">
<path d="M203 557 c-28 4 -33 2 -32 -13 0 -11 8 -32 18 -49 10 -16 27 -31 39
-33 12 -2 22 -7 22 -10 0 -4 -23 -18 -51 -32 -28 -13 -56 -34 -61 -46 -6 -13
-8 -30 -5 -38 4 -9 18 -21 32 -28 23 -10 29 -8 60 22 20 20 40 30 49 27 8 -3
23 -21 32 -39 9 -18 21 -46 25 -63 4 -16 12 -44 17 -62 10 -30 7 -37 -29 -82
-22 -27 -60 -61 -84 -76 -25 -14 -45 -28 -45 -30 0 -3 22 -5 50 -5 46 0 53 4
99 49 27 26 56 62 65 78 8 17 15 41 14 54 0 13 -11 56 -25 96 -23 66 -29 75
-79 108 -30 20 -54 39 -54 42 0 4 14 19 32 33 29 25 31 30 21 52 -8 17 -23 28
-45 32 -18 4 -48 9 -65 13z"/>
</g>
</svg>
