<?xml version="1.0" standalone="no"?>
<!DOCTYPE svg PUBLIC "-//W3C//DTD SVG 20010904//EN"
 "http://www.w3.org/TR/2001/REC-SVG-20010904/DTD/svg10.dtd">
<svg version="1.0" xmlns="http://www.w3.org/2000/svg"
 width="56.000000pt" height="56.000000pt" viewBox="0 0 56.000000 56.000000"
 preserveAspectRatio="xMidYMid meet">
<metadata>
Created by potrace 1.16, written by Peter Selinger 2001-2019
</metadata>
<g transform="translate(0.000000,56.000000) scale(0.100000,-0.100000)"
fill="#000000" stroke="none">
<path d="M265 560 c-18 0 -26 -7 -31 -25 -4 -17 -1 -32 11 -45 9 -10 14 -26
11 -37 -3 -10 -19 -26 -36 -35 -21 -12 -30 -25 -30 -43 0 -17 5 -25 18 -25 10
0 23 5 30 12 9 9 15 9 25 -1 8 -8 12 -44 12 -109 -1 -77 -5 -105 -21 -137 -12
-22 -31 -57 -43 -77 -23 -38 -23 -38 2 -38 18 0 37 14 65 48 22 26 47 69 56
95 9 26 16 75 16 108 0 40 -7 73 -20 98 -10 21 -26 41 -35 44 -8 4 -15 11 -15
17 0 7 12 11 28 10 15 -1 33 -2 40 -1 6 1 12 12 12 25 0 15 -12 33 -35 50 -19
15 -35 36 -35 47 0 14 -7 19 -25 19z"/>
</g>
</svg>
