<?xml version="1.0" standalone="no"?>
<!DOCTYPE svg PUBLIC "-//W3C//DTD SVG 20010904//EN"
 "http://www.w3.org/TR/2001/REC-SVG-20010904/DTD/svg10.dtd">
<svg version="1.0" xmlns="http://www.w3.org/2000/svg"
 width="56.000000pt" height="56.000000pt" viewBox="0 0 56.000000 56.000000"
 preserveAspectRatio="xMidYMid meet">
<metadata>
Created by potrace 1.16, written by Peter Selinger 2001-2019
</metadata>
<g transform="translate(0.000000,56.000000) scale(0.100000,-0.100000)"
fill="#000000" stroke="none">
<path d="M233 560 c-10 0 -24 -9 -31 -20 -6 -11 -12 -25 -12 -31 0 -7 11 -22
25 -35 25 -23 25 -24 9 -64 -9 -22 -14 -46 -11 -54 3 -9 -4 -21 -19 -30 -16
-11 -24 -26 -24 -46 0 -17 5 -30 11 -30 6 0 25 16 43 35 19 19 40 35 49 35 9
0 25 -13 36 -28 14 -21 19 -40 16 -73 -1 -24 -6 -53 -10 -64 -4 -11 -12 -31
-18 -45 -6 -14 -24 -44 -40 -67 -26 -40 -26 -43 -8 -43 11 0 37 16 59 36 27
24 43 48 48 72 4 20 8 44 9 52 2 8 6 35 10 60 5 32 2 56 -9 82 -9 21 -26 42
-37 49 -12 6 -34 8 -50 5 -16 -3 -29 -1 -29 4 0 6 16 28 36 50 22 24 34 46 30
55 -3 8 -14 15 -24 15 -10 0 -27 9 -36 19 -11 13 -15 27 -11 40 5 16 2 21 -12
21z"/>
</g>
</svg>
