<?xml version="1.0" standalone="no"?>
<!DOCTYPE svg PUBLIC "-//W3C//DTD SVG 20010904//EN"
 "http://www.w3.org/TR/2001/REC-SVG-20010904/DTD/svg10.dtd">
<svg version="1.0" xmlns="http://www.w3.org/2000/svg"
 width="56.000000pt" height="56.000000pt" viewBox="0 0 56.000000 56.000000"
 preserveAspectRatio="xMidYMid meet">
<metadata>
Created by potrace 1.16, written by Peter Selinger 2001-2019
</metadata>
<g transform="translate(0.000000,56.000000) scale(0.100000,-0.100000)"
fill="#000000" stroke="none">
<path d="M290 511 c-45 49 -50 51 -50 29 1 -14 7 -41 14 -61 12 -35 12 -37
-14 -52 -15 -9 -38 -37 -51 -62 -21 -39 -22 -47 -9 -55 8 -6 24 -8 35 -5 11 3
29 8 41 11 14 4 31 -3 50 -19 27 -24 29 -29 27 -92 -3 -56 -8 -74 -35 -113
-17 -26 -40 -54 -50 -63 -10 -9 -18 -19 -18 -23 0 -3 10 -6 23 -6 14 0 37 17
65 49 23 28 47 62 52 76 6 14 10 55 10 90 0 52 -4 69 -23 90 -12 15 -45 35
-72 44 -27 9 -50 21 -52 27 -2 6 7 15 19 21 13 6 38 16 56 23 17 7 32 18 32
25 0 7 -22 36 -50 66z"/>
</g>
</svg>
