<?xml version="1.0" standalone="no"?>
<!DOCTYPE svg PUBLIC "-//W3C//DTD SVG 20010904//EN"
 "http://www.w3.org/TR/2001/REC-SVG-20010904/DTD/svg10.dtd">
<svg version="1.0" xmlns="http://www.w3.org/2000/svg"
 width="56.000000pt" height="56.000000pt" viewBox="0 0 56.000000 56.000000"
 preserveAspectRatio="xMidYMid meet">
<metadata>
Created by potrace 1.16, written by Peter Selinger 2001-2019
</metadata>
<g transform="translate(0.000000,56.000000) scale(0.100000,-0.100000)"
fill="#000000" stroke="none">
<path d="M305 560 c-8 0 -15 -9 -15 -20 0 -11 -15 -30 -36 -44 -20 -13 -47
-41 -61 -61 -13 -20 -22 -43 -19 -50 3 -8 24 -15 53 -17 44 -3 49 -6 64 -38
11 -22 15 -52 13 -85 -2 -27 -6 -67 -10 -88 -3 -20 -10 -40 -15 -43 -5 -3 -9
-16 -9 -30 0 -13 -4 -24 -10 -24 -5 0 -10 -9 -10 -21 0 -12 5 -19 13 -17 6 3
17 15 23 27 6 12 21 31 33 42 11 11 21 28 21 37 0 10 5 23 11 29 6 6 12 47 13
91 1 67 -3 85 -20 109 -11 15 -39 37 -62 48 -23 11 -41 26 -42 32 0 7 10 15
23 18 12 3 42 5 67 3 39 -3 45 0 47 17 2 11 -11 35 -27 53 -16 17 -37 32 -45
32z"/>
<path d="M184 40 c-8 0 -14 -9 -14 -20 0 -13 7 -20 19 -20 14 0 18 5 14 20 -3
11 -12 20 -19 20z"/>
<path d="M340 20 c-16 0 -32 -4 -35 -10 -4 -6 10 -10 35 -10 25 0 39 4 35 10
-3 6 -19 10 -35 10z"/>
</g>
</svg>
