<?xml version="1.0" standalone="no"?>
<!DOCTYPE svg PUBLIC "-//W3C//DTD SVG 20010904//EN"
 "http://www.w3.org/TR/2001/REC-SVG-20010904/DTD/svg10.dtd">
<svg version="1.0" xmlns="http://www.w3.org/2000/svg"
 width="128.000000pt" height="128.000000pt" viewBox="0 0 128.000000 128.000000"
 preserveAspectRatio="xMidYMid meet">
<metadata>
Created by potrace 1.16, written by Peter Selinger 2001-2019
</metadata>
<g transform="translate(0.000000,128.000000) scale(0.100000,-0.100000)"
fill="#000000" stroke="none">
<path d="M638 1259 c-13 19 -14 19 -41 -1 -15 -11 -27 -26 -27 -34 0 -7 17
-24 38 -38 20 -13 58 -43 85 -68 46 -43 47 -46 47 -102 0 -32 -7 -88 -17 -124
-9 -37 -32 -105 -50 -152 -19 -47 -48 -114 -65 -149 -16 -35 -37 -89 -46 -120
-10 -33 -16 -86 -16 -128 2 -66 5 -76 43 -132 23 -34 48 -61 55 -61 7 0 19 12
26 26 10 17 14 56 13 119 -1 55 -8 107 -16 127 -12 30 -13 40 -1 74 8 21 14
57 14 78 0 21 12 63 26 92 14 29 33 59 41 66 8 7 45 13 82 13 38 1 79 8 96 17
17 8 44 18 60 22 17 4 45 19 63 32 18 14 42 24 54 22 16 -2 26 -15 38 -48 11
-32 15 -83 15 -180 -1 -123 -3 -141 -29 -205 -15 -38 -31 -77 -36 -85 -5 -11
-20 -14 -51 -12 -24 2 -50 8 -56 14 -7 6 -19 24 -28 41 -8 16 -15 36 -15 44 0
8 9 26 21 42 12 16 22 50 26 82 5 48 2 58 -18 82 -19 22 -34 27 -71 29 -29 1
-56 -5 -72 -15 -17 -12 -23 -22 -19 -35 4 -9 17 -30 30 -45 13 -16 25 -39 28
-53 3 -13 7 -34 10 -47 2 -12 -2 -35 -10 -51 -8 -16 -15 -48 -15 -73 0 -33 6
-49 23 -64 12 -10 54 -48 92 -84 39 -35 78 -65 87 -65 9 0 32 19 50 43 19 23
45 69 58 102 13 33 32 72 42 87 10 15 24 44 31 65 8 24 14 105 16 223 2 185 2
185 -26 222 -15 20 -49 49 -75 63 -41 22 -53 25 -83 16 -20 -5 -51 -22 -70
-38 -19 -15 -47 -38 -63 -50 -16 -12 -41 -28 -56 -34 -19 -9 -30 -9 -37 -2 -8
8 -8 31 0 81 6 39 11 109 11 156 0 86 0 86 -34 100 -18 8 -37 19 -41 25 -3 6
-33 25 -65 41 -32 16 -65 38 -72 49z"/>
<path d="M346 1040 c-18 0 -39 -6 -45 -14 -9 -10 -7 -25 9 -61 11 -25 20 -53
20 -61 0 -9 -16 -36 -35 -61 -19 -25 -35 -52 -35 -60 0 -7 -12 -36 -26 -63
-15 -28 -35 -55 -45 -61 -11 -5 -19 -15 -19 -22 0 -7 -38 -52 -84 -101 -47
-49 -82 -95 -79 -102 3 -7 14 -16 25 -20 11 -3 35 -3 54 0 20 4 41 17 51 32
10 14 30 41 46 59 15 18 27 38 27 43 0 6 9 16 20 22 16 9 22 8 26 -4 3 -9 3
-37 -1 -63 -3 -27 -7 -77 -9 -113 -1 -36 -10 -87 -19 -115 -8 -27 -18 -71 -22
-96 -5 -40 -2 -51 20 -77 14 -16 25 -40 25 -53 0 -13 4 -30 9 -37 5 -8 17 -12
26 -10 10 1 22 16 27 33 5 17 6 58 3 91 -4 34 -1 90 5 125 7 35 13 151 15 257
3 189 3 193 29 226 14 19 37 55 51 82 15 28 25 63 25 89 0 28 -9 55 -30 88
-26 41 -34 47 -64 47z"/>
</g>
</svg>
