<?xml version="1.0" standalone="no"?>
<!DOCTYPE svg PUBLIC "-//W3C//DTD SVG 20010904//EN"
 "http://www.w3.org/TR/2001/REC-SVG-20010904/DTD/svg10.dtd">
<svg version="1.0" xmlns="http://www.w3.org/2000/svg"
 width="56.000000pt" height="56.000000pt" viewBox="0 0 56.000000 56.000000"
 preserveAspectRatio="xMidYMid meet">
<metadata>
Created by potrace 1.16, written by Peter Selinger 2001-2019
</metadata>
<g transform="translate(0.000000,56.000000) scale(0.100000,-0.100000)"
fill="#000000" stroke="none">
<path d="M200 560 c-16 0 -30 -5 -30 -10 0 -6 16 -18 35 -27 19 -9 37 -25 40
-34 4 -10 1 -35 -4 -56 -6 -21 -11 -59 -11 -86 0 -26 -4 -56 -10 -67 -5 -11
-14 -29 -20 -40 -5 -11 -10 -27 -10 -36 0 -8 13 -34 28 -57 16 -23 32 -50 35
-60 4 -10 0 -31 -8 -47 -8 -16 -15 -31 -15 -35 0 -3 13 -5 29 -5 19 0 34 8 45
25 9 13 16 40 16 59 0 27 -6 40 -26 52 -14 9 -32 30 -40 45 -7 15 -14 35 -14
44 0 9 15 34 33 57 17 22 44 46 60 54 18 10 27 22 27 39 0 19 -5 25 -22 25
-12 0 -30 -8 -41 -17 -20 -18 -20 -17 -14 44 4 35 2 74 -3 88 -6 15 -17 25
-30 25 -11 0 -20 5 -20 10 0 6 -13 10 -30 10z"/>
</g>
</svg>
