<?xml version="1.0" standalone="no"?>
<!DOCTYPE svg PUBLIC "-//W3C//DTD SVG 20010904//EN"
 "http://www.w3.org/TR/2001/REC-SVG-20010904/DTD/svg10.dtd">
<svg version="1.0" xmlns="http://www.w3.org/2000/svg"
 width="56.000000pt" height="56.000000pt" viewBox="0 0 56.000000 56.000000"
 preserveAspectRatio="xMidYMid meet">
<metadata>
Created by potrace 1.16, written by Peter Selinger 2001-2019
</metadata>
<g transform="translate(0.000000,56.000000) scale(0.100000,-0.100000)"
fill="#000000" stroke="none">
<path d="M251 560 c-29 0 -29 0 -36 -105 -4 -58 -5 -119 -1 -136 4 -23 -1 -42
-19 -73 -14 -24 -25 -58 -25 -79 0 -30 6 -40 40 -64 22 -15 40 -33 40 -40 0
-6 -25 -19 -55 -29 -31 -9 -57 -20 -59 -23 -2 -3 48 -6 112 -6 93 0 120 3 129
15 7 8 13 25 13 36 0 12 -12 34 -27 49 -16 15 -44 37 -63 49 -26 16 -36 30
-38 53 -3 26 5 37 50 77 29 25 57 46 63 46 5 0 21 9 34 19 17 13 22 23 16 40
-4 12 -18 27 -33 32 -22 9 -33 5 -76 -25 -41 -29 -52 -33 -54 -20 -2 9 1 44 7
78 6 35 11 72 11 84 0 18 -6 22 -29 22z"/>
</g>
</svg>
