<?xml version="1.0" standalone="no"?>
<!DOCTYPE svg PUBLIC "-//W3C//DTD SVG 20010904//EN"
 "http://www.w3.org/TR/2001/REC-SVG-20010904/DTD/svg10.dtd">
<svg version="1.0" xmlns="http://www.w3.org/2000/svg"
 width="56.000000pt" height="56.000000pt" viewBox="0 0 56.000000 56.000000"
 preserveAspectRatio="xMidYMid meet">
<metadata>
Created by potrace 1.16, written by Peter Selinger 2001-2019
</metadata>
<g transform="translate(0.000000,56.000000) scale(0.100000,-0.100000)"
fill="#000000" stroke="none">
<path d="M277 560 c-22 0 -26 -6 -32 -41 -4 -22 -18 -52 -31 -67 -24 -27 -24
-27 -45 1 -11 15 -25 25 -30 21 -5 -3 -9 -19 -9 -35 0 -17 -5 -40 -11 -51 -9
-16 -7 -24 6 -37 16 -15 18 -15 28 1 10 15 15 13 51 -19 39 -36 39 -36 58 -13
15 19 17 33 12 90 -5 45 -3 69 5 74 6 4 16 -4 23 -18 6 -14 15 -26 20 -26 5 0
19 7 32 16 18 11 26 12 31 4 4 -7 -14 -32 -45 -60 -49 -45 -52 -51 -45 -82 4
-18 8 -74 9 -124 2 -74 6 -95 23 -120 15 -21 19 -35 12 -45 -5 -7 -9 -17 -9
-21 0 -5 10 -8 23 -8 13 0 28 5 35 12 7 7 12 24 12 39 0 18 -8 34 -22 44 -21
14 -23 23 -21 92 2 42 -1 81 -6 87 -5 6 -12 25 -16 43 -6 30 -3 34 44 65 29
18 54 43 57 56 4 15 0 30 -11 42 -13 15 -31 20 -65 20 -28 0 -52 6 -59 14 -6
7 -9 21 -5 30 5 12 0 16 -19 16z m-53 -123 c6 -2 12 -20 14 -40 2 -27 -1 -37
-11 -37 -8 0 -20 7 -27 15 -11 13 -11 20 0 41 8 13 18 23 24 21z"/>
</g>
</svg>
