<?xml version="1.0" standalone="no"?>
<!DOCTYPE svg PUBLIC "-//W3C//DTD SVG 20010904//EN"
 "http://www.w3.org/TR/2001/REC-SVG-20010904/DTD/svg10.dtd">
<svg version="1.0" xmlns="http://www.w3.org/2000/svg"
 width="56.000000pt" height="56.000000pt" viewBox="0 0 56.000000 56.000000"
 preserveAspectRatio="xMidYMid meet">
<metadata>
Created by potrace 1.16, written by Peter Selinger 2001-2019
</metadata>
<g transform="translate(0.000000,56.000000) scale(0.100000,-0.100000)"
fill="#000000" stroke="none">
<path d="M281 560 c-13 0 -16 -14 -16 -77 -1 -43 -5 -102 -9 -130 -5 -29 -12
-53 -16 -53 -5 0 -17 -16 -29 -36 -12 -19 -21 -50 -21 -68 0 -24 9 -41 35 -66
35 -34 35 -34 12 -59 -12 -15 -28 -36 -35 -49 -11 -19 -10 -22 7 -22 10 0 36
17 57 38 22 21 52 48 67 59 20 15 27 29 25 45 -2 18 -10 24 -38 26 -19 1 -45
5 -57 7 -17 4 -23 12 -23 34 0 17 10 39 28 56 15 15 37 34 50 42 12 9 22 22
22 30 0 8 -9 17 -21 20 -16 5 -19 11 -13 27 3 11 9 45 11 75 3 33 0 63 -8 77
-7 13 -20 24 -28 24z"/>
</g>
</svg>
