<?xml version="1.0" standalone="no"?>
<!DOCTYPE svg PUBLIC "-//W3C//DTD SVG 20010904//EN"
 "http://www.w3.org/TR/2001/REC-SVG-20010904/DTD/svg10.dtd">
<svg version="1.0" xmlns="http://www.w3.org/2000/svg"
 width="56.000000pt" height="56.000000pt" viewBox="0 0 56.000000 56.000000"
 preserveAspectRatio="xMidYMid meet">
<metadata>
Created by potrace 1.16, written by Peter Selinger 2001-2019
</metadata>
<g transform="translate(0.000000,56.000000) scale(0.100000,-0.100000)"
fill="#000000" stroke="none">
<path d="M173 560 c-23 0 -43 -4 -43 -9 0 -6 8 -16 19 -23 12 -8 20 -30 24
-58 2 -25 10 -88 16 -140 12 -95 12 -95 -39 -140 -36 -32 -49 -50 -45 -61 4
-10 2 -20 -4 -24 -6 -3 -11 -14 -11 -23 1 -9 17 -29 37 -44 24 -19 43 -26 58
-22 13 3 26 1 29 -4 4 -6 20 -7 44 -1 24 5 53 5 73 -1 19 -6 48 -10 66 -10 17
0 38 3 47 6 9 3 16 12 16 18 0 7 -17 22 -39 34 -28 16 -48 20 -72 16 -19 -4
-39 -11 -45 -15 -6 -5 -24 -7 -40 -4 -16 2 -45 7 -66 10 -20 3 -39 12 -42 21
-3 8 -1 25 5 36 6 12 23 32 36 44 14 13 35 26 47 30 11 4 31 17 43 30 14 15
33 24 52 24 16 0 33 5 36 10 3 6 -2 13 -12 17 -10 3 -25 12 -34 20 -9 7 -31
12 -50 11 -34 -3 -34 -3 -37 47 -1 27 -6 53 -11 58 -5 5 -5 22 1 39 8 22 7 40
-2 69 -13 37 -15 39 -57 39z"/>
</g>
</svg>
