<?xml version="1.0" standalone="no"?>
<!DOCTYPE svg PUBLIC "-//W3C//DTD SVG 20010904//EN"
 "http://www.w3.org/TR/2001/REC-SVG-20010904/DTD/svg10.dtd">
<svg version="1.0" xmlns="http://www.w3.org/2000/svg"
 width="56.000000pt" height="56.000000pt" viewBox="0 0 56.000000 56.000000"
 preserveAspectRatio="xMidYMid meet">
<metadata>
Created by potrace 1.16, written by Peter Selinger 2001-2019
</metadata>
<g transform="translate(0.000000,56.000000) scale(0.100000,-0.100000)"
fill="#000000" stroke="none">
<path d="M143 559 c-13 1 -23 -6 -25 -16 -2 -10 1 -27 8 -38 7 -11 17 -46 24
-78 6 -32 9 -70 6 -83 -4 -13 -11 -24 -16 -24 -5 0 -22 -19 -38 -42 -16 -24
-32 -55 -35 -69 -4 -14 -2 -42 4 -62 5 -20 22 -51 37 -68 14 -18 51 -43 81
-56 47 -21 63 -23 119 -17 49 5 71 13 89 30 13 13 23 32 23 44 0 14 -6 20 -24
20 -13 0 -39 -6 -58 -14 -23 -10 -45 -12 -69 -7 -19 4 -53 18 -76 30 -24 11
-49 34 -58 51 -8 16 -15 33 -15 37 0 5 12 21 26 36 24 27 27 27 50 13 13 -9
30 -16 38 -16 8 0 18 6 23 12 4 7 10 33 13 57 5 44 5 44 75 67 39 13 82 21 96
18 16 -3 30 1 38 10 7 8 9 25 5 41 -4 15 -23 37 -44 51 -37 25 -37 25 -86 7
-43 -16 -49 -22 -46 -44 2 -19 -3 -28 -23 -37 -14 -7 -30 -12 -35 -12 -4 0
-11 18 -15 40 -4 22 -21 58 -38 79 -19 24 -41 40 -54 40z"/>
</g>
</svg>
