<?xml version="1.0" standalone="no"?>
<!DOCTYPE svg PUBLIC "-//W3C//DTD SVG 20010904//EN"
 "http://www.w3.org/TR/2001/REC-SVG-20010904/DTD/svg10.dtd">
<svg version="1.0" xmlns="http://www.w3.org/2000/svg"
 width="56.000000pt" height="56.000000pt" viewBox="0 0 56.000000 56.000000"
 preserveAspectRatio="xMidYMid meet">
<metadata>
Created by potrace 1.16, written by Peter Selinger 2001-2019
</metadata>
<g transform="translate(0.000000,56.000000) scale(0.100000,-0.100000)"
fill="#000000" stroke="none">
<path d="M264 560 c-9 0 -15 -12 -16 -32 -1 -18 -2 -44 -2 -58 -1 -14 -5 -31
-9 -38 -5 -6 -5 -32 -2 -56 5 -32 2 -54 -10 -80 -10 -21 -15 -48 -12 -63 3
-16 11 -46 18 -68 6 -22 14 -68 16 -102 4 -59 6 -63 29 -63 22 0 24 4 24 54 0
32 -8 73 -20 100 -10 25 -21 58 -22 73 -3 26 0 28 28 25 17 -2 35 3 41 10 6 7
13 26 17 41 4 17 2 35 -5 43 -6 8 -20 14 -31 14 -17 0 -19 7 -17 63 1 34 -2
79 -6 100 -4 21 -13 37 -21 37z"/>
</g>
</svg>
