<?xml version="1.0" standalone="no"?>
<!DOCTYPE svg PUBLIC "-//W3C//DTD SVG 20010904//EN"
 "http://www.w3.org/TR/2001/REC-SVG-20010904/DTD/svg10.dtd">
<svg version="1.0" xmlns="http://www.w3.org/2000/svg"
 width="56.000000pt" height="56.000000pt" viewBox="0 0 56.000000 56.000000"
 preserveAspectRatio="xMidYMid meet">
<metadata>
Created by potrace 1.16, written by Peter Selinger 2001-2019
</metadata>
<g transform="translate(0.000000,56.000000) scale(0.100000,-0.100000)"
fill="#000000" stroke="none">
<path d="M365 560 c-8 0 -15 -4 -15 -9 0 -5 -10 -11 -22 -14 -17 -5 -19 -9
-10 -20 7 -8 30 -22 52 -32 22 -10 40 -21 40 -25 0 -4 -8 -14 -17 -22 -10 -8
-42 -29 -71 -47 -54 -32 -54 -32 -88 6 -19 21 -49 56 -67 77 -24 27 -39 37
-50 33 -10 -4 -17 -15 -17 -26 0 -11 17 -40 38 -65 20 -25 45 -48 54 -51 9 -3
20 -15 23 -26 5 -15 -5 -30 -44 -65 -28 -25 -55 -60 -61 -80 -7 -19 -9 -45 -6
-57 3 -13 21 -41 41 -64 19 -23 35 -48 35 -57 0 -13 11 -16 54 -16 30 0 57 4
60 9 3 4 35 11 72 14 36 4 73 12 80 18 8 6 14 19 14 29 0 9 -9 25 -20 35 -18
16 -25 17 -82 5 -35 -7 -68 -17 -75 -22 -7 -6 -30 -7 -52 -3 -25 4 -42 13 -45
23 -2 9 -8 36 -11 60 -6 34 -3 47 11 63 9 10 23 19 29 19 7 0 20 -11 29 -25 9
-14 23 -25 31 -25 7 0 17 5 20 10 4 6 1 26 -5 45 -7 22 -8 40 -2 51 5 9 24 19
42 21 18 2 44 10 59 18 14 7 36 19 49 24 19 9 22 18 22 75 0 39 -5 68 -13 74
-6 6 -24 13 -40 17 -15 4 -27 11 -27 16 0 5 -7 9 -15 9z"/>
</g>
</svg>
