<?xml version="1.0" standalone="no"?>
<!DOCTYPE svg PUBLIC "-//W3C//DTD SVG 20010904//EN"
 "http://www.w3.org/TR/2001/REC-SVG-20010904/DTD/svg10.dtd">
<svg version="1.0" xmlns="http://www.w3.org/2000/svg"
 width="56.000000pt" height="56.000000pt" viewBox="0 0 56.000000 56.000000"
 preserveAspectRatio="xMidYMid meet">
<metadata>
Created by potrace 1.16, written by Peter Selinger 2001-2019
</metadata>
<g transform="translate(0.000000,56.000000) scale(0.100000,-0.100000)"
fill="#000000" stroke="none">
<path d="M254 560 c-13 0 -24 -8 -27 -20 -3 -13 1 -21 14 -25 13 -5 19 -16 19
-38 0 -18 2 -63 5 -102 4 -70 4 -70 -35 -110 -25 -26 -39 -50 -40 -70 -1 -16
-2 -36 -1 -44 1 -8 22 -33 48 -57 46 -42 46 -43 29 -68 -16 -25 -16 -26 6 -26
12 0 35 12 50 27 15 15 28 35 28 45 0 11 -10 20 -27 24 -16 4 -43 18 -61 32
-24 19 -31 30 -27 46 4 11 11 33 16 47 5 14 24 33 42 44 18 10 42 27 54 38 17
15 20 24 12 38 -5 11 -16 19 -23 19 -8 0 -18 13 -24 28 -7 21 -6 33 4 47 8 10
14 26 14 35 0 9 -12 33 -27 53 -17 21 -37 36 -49 37z"/>
</g>
</svg>
