<?xml version="1.0" standalone="no"?>
<!DOCTYPE svg PUBLIC "-//W3C//DTD SVG 20010904//EN"
 "http://www.w3.org/TR/2001/REC-SVG-20010904/DTD/svg10.dtd">
<svg version="1.0" xmlns="http://www.w3.org/2000/svg"
 width="56.000000pt" height="56.000000pt" viewBox="0 0 56.000000 56.000000"
 preserveAspectRatio="xMidYMid meet">
<metadata>
Created by potrace 1.16, written by Peter Selinger 2001-2019
</metadata>
<g transform="translate(0.000000,56.000000) scale(0.100000,-0.100000)"
fill="#000000" stroke="none">
<path d="M228 560 c-17 0 -18 -6 -13 -67 3 -38 8 -92 10 -121 5 -51 4 -53 -17
-50 -15 2 -24 11 -26 26 -2 12 -6 22 -8 22 -3 0 -20 -11 -38 -25 -29 -22 -35
-23 -46 -10 -7 8 -19 15 -26 15 -9 0 -14 -11 -14 -28 0 -16 9 -37 19 -46 12
-11 27 -15 40 -11 11 3 23 15 26 26 4 10 10 19 15 19 6 0 30 -15 54 -32 25
-18 45 -37 45 -42 1 -6 -9 -20 -21 -33 -21 -23 -22 -25 -5 -56 9 -18 18 -58
19 -89 3 -58 3 -58 54 -58 32 0 56 5 63 14 10 11 7 17 -11 30 -12 9 -28 16
-35 16 -7 0 -15 11 -19 25 -4 14 -4 29 0 32 3 3 -2 19 -11 34 -16 27 -16 29 5
52 19 20 21 28 13 50 -6 15 -18 27 -27 27 -15 0 -16 13 -12 118 3 67 1 126 -5
140 -6 12 -19 22 -29 22z"/>
<path d="M411 440 c-4 0 -17 -9 -29 -20 -12 -11 -26 -20 -32 -20 -5 0 -10 -7
-10 -15 0 -9 7 -18 15 -21 8 -4 22 -1 29 5 9 8 16 9 20 2 4 -6 -2 -16 -14 -23
-11 -7 -20 -18 -20 -24 0 -7 7 -15 16 -18 9 -3 22 -6 30 -6 8 0 31 17 49 38
19 20 35 43 35 49 0 7 -12 16 -27 19 -15 4 -34 13 -41 21 -7 7 -17 13 -21 13z"/>
<path d="M345 320 c-8 0 -15 -7 -15 -15 0 -8 7 -15 15 -15 8 0 15 7 15 15 0 8
-7 15 -15 15z"/>
</g>
</svg>
