<?xml version="1.0" standalone="no"?>
<!DOCTYPE svg PUBLIC "-//W3C//DTD SVG 20010904//EN"
 "http://www.w3.org/TR/2001/REC-SVG-20010904/DTD/svg10.dtd">
<svg version="1.0" xmlns="http://www.w3.org/2000/svg"
 width="56.000000pt" height="56.000000pt" viewBox="0 0 56.000000 56.000000"
 preserveAspectRatio="xMidYMid meet">
<metadata>
Created by potrace 1.16, written by Peter Selinger 2001-2019
</metadata>
<g transform="translate(0.000000,56.000000) scale(0.100000,-0.100000)"
fill="#000000" stroke="none">
<path d="M64 560 c-8 0 -14 -10 -14 -25 0 -13 10 -34 23 -47 13 -13 40 -48 60
-79 20 -31 43 -59 52 -63 8 -3 15 -12 15 -21 0 -8 -14 -24 -31 -34 -17 -10
-37 -28 -45 -40 -9 -12 -15 -44 -16 -72 0 -40 5 -56 24 -76 12 -14 55 -41 95
-60 70 -33 74 -33 135 -23 40 7 73 20 91 35 15 13 27 29 27 35 0 6 -17 18 -37
27 -30 12 -57 14 -130 9 -91 -7 -91 -7 -117 21 -15 15 -29 36 -32 46 -3 9 3
28 15 43 11 14 36 36 56 49 20 14 42 25 50 25 8 0 16 4 19 9 3 4 37 18 76 30
41 13 74 30 80 41 6 10 10 30 10 43 0 13 -9 32 -21 43 -12 11 -50 24 -88 31
-36 6 -90 12 -118 12 -29 1 -53 -3 -53 -8 0 -5 31 -21 69 -36 38 -14 72 -33
75 -41 3 -9 3 -21 0 -27 -4 -7 -16 -22 -27 -34 -19 -22 -19 -22 -48 -1 -15 12
-51 50 -79 84 -33 40 -60 64 -72 64 -11 0 -22 8 -25 20 -3 11 -12 20 -19 20z"/>
</g>
</svg>
