<?xml version="1.0" standalone="no"?>
<!DOCTYPE svg PUBLIC "-//W3C//DTD SVG 20010904//EN"
 "http://www.w3.org/TR/2001/REC-SVG-20010904/DTD/svg10.dtd">
<svg version="1.0" xmlns="http://www.w3.org/2000/svg"
 width="56.000000pt" height="56.000000pt" viewBox="0 0 56.000000 56.000000"
 preserveAspectRatio="xMidYMid meet">
<metadata>
Created by potrace 1.16, written by Peter Selinger 2001-2019
</metadata>
<g transform="translate(0.000000,56.000000) scale(0.100000,-0.100000)"
fill="#000000" stroke="none">
<path d="M186 560 c-2 0 -8 -10 -11 -21 -4 -12 -3 -24 2 -28 5 -3 14 -24 20
-46 7 -22 14 -81 17 -130 5 -79 3 -94 -15 -120 -11 -17 -29 -49 -39 -72 -11
-23 -20 -55 -20 -72 0 -21 8 -35 29 -50 22 -16 44 -21 93 -20 34 0 83 8 108
17 25 10 45 24 45 32 0 12 -18 15 -97 15 -55 0 -101 5 -108 11 -7 7 -4 26 12
65 13 30 32 66 43 80 11 13 40 38 65 55 33 22 45 36 45 54 0 20 -6 26 -27 28
-15 2 -37 -2 -48 -8 -12 -6 -24 -10 -26 -7 -3 2 -9 39 -13 82 -8 69 -13 82
-40 107 -16 15 -32 28 -35 28z"/>
</g>
</svg>
