<?xml version="1.0" standalone="no"?>
<!DOCTYPE svg PUBLIC "-//W3C//DTD SVG 20010904//EN"
 "http://www.w3.org/TR/2001/REC-SVG-20010904/DTD/svg10.dtd">
<svg version="1.0" xmlns="http://www.w3.org/2000/svg"
 width="56.000000pt" height="56.000000pt" viewBox="0 0 56.000000 56.000000"
 preserveAspectRatio="xMidYMid meet">
<metadata>
Created by potrace 1.16, written by Peter Selinger 2001-2019
</metadata>
<g transform="translate(0.000000,56.000000) scale(0.100000,-0.100000)"
fill="#000000" stroke="none">
<path d="M190 560 c-15 0 -20 -7 -20 -24 0 -14 5 -28 10 -31 6 -3 15 6 20 20
6 14 10 28 10 31 0 2 -9 4 -20 4z"/>
<path d="M254 560 c-23 0 -24 -3 -24 -67 0 -38 5 -85 11 -106 9 -34 7 -43 -26
-103 -32 -57 -35 -71 -28 -102 6 -26 18 -41 43 -55 19 -10 45 -28 58 -40 14
-13 22 -32 22 -54 0 -28 4 -33 24 -33 13 0 28 6 34 13 8 10 8 24 1 53 -8 25
-26 51 -52 74 -23 19 -50 43 -59 53 -10 9 -18 31 -18 47 0 17 5 30 10 30 6 0
10 7 10 15 0 9 25 40 57 69 41 39 54 58 49 71 -4 12 -12 15 -29 10 -12 -3 -29
-9 -38 -11 -12 -4 -18 2 -22 23 -3 15 -4 47 -2 71 3 39 2 42 -21 42z"/>
</g>
</svg>
