<?xml version="1.0" standalone="no"?>
<!DOCTYPE svg PUBLIC "-//W3C//DTD SVG 20010904//EN"
 "http://www.w3.org/TR/2001/REC-SVG-20010904/DTD/svg10.dtd">
<svg version="1.0" xmlns="http://www.w3.org/2000/svg"
 width="56.000000pt" height="56.000000pt" viewBox="0 0 56.000000 56.000000"
 preserveAspectRatio="xMidYMid meet">
<metadata>
Created by potrace 1.16, written by Peter Selinger 2001-2019
</metadata>
<g transform="translate(0.000000,56.000000) scale(0.100000,-0.100000)"
fill="#000000" stroke="none">
<path d="M176 560 c-16 0 -26 -6 -26 -14 0 -8 5 -16 10 -18 6 -2 12 -28 14
-58 2 -30 7 -77 11 -105 4 -27 12 -60 18 -73 9 -19 6 -28 -22 -60 -17 -20 -38
-50 -45 -67 -8 -16 -17 -40 -20 -51 -5 -15 1 -31 19 -52 14 -17 40 -34 58 -38
17 -5 51 -7 74 -6 23 1 45 -3 48 -8 3 -6 33 -10 66 -10 51 0 60 3 57 16 -2 9
-14 25 -28 34 -20 14 -38 16 -97 11 -68 -6 -74 -5 -105 20 -31 26 -32 28 -18
55 8 16 30 42 49 59 19 16 52 47 73 67 21 21 38 41 38 46 0 5 -12 15 -26 23
-23 12 -27 11 -39 -4 -7 -9 -20 -17 -29 -17 -14 0 -16 14 -16 103 -1 85 -4
106 -19 125 -11 12 -30 22 -45 22z"/>
</g>
</svg>
