<?xml version="1.0" standalone="no"?>
<!DOCTYPE svg PUBLIC "-//W3C//DTD SVG 20010904//EN"
 "http://www.w3.org/TR/2001/REC-SVG-20010904/DTD/svg10.dtd">
<svg version="1.0" xmlns="http://www.w3.org/2000/svg"
 width="56.000000pt" height="56.000000pt" viewBox="0 0 56.000000 56.000000"
 preserveAspectRatio="xMidYMid meet">
<metadata>
Created by potrace 1.16, written by Peter Selinger 2001-2019
</metadata>
<g transform="translate(0.000000,56.000000) scale(0.100000,-0.100000)"
fill="#000000" stroke="none">
<path d="M219 560 c-29 0 -39 -5 -44 -21 -4 -12 -2 -26 3 -31 7 -7 17 -3 32
12 18 18 24 20 31 9 5 -8 9 -51 9 -96 0 -64 -4 -87 -17 -103 -9 -11 -23 -39
-30 -62 -7 -24 -13 -52 -13 -63 0 -11 21 -61 46 -112 33 -66 52 -93 65 -93 10
0 21 5 24 10 4 6 -5 34 -20 62 -15 28 -33 81 -41 119 -8 37 -11 75 -8 83 4 10
18 16 40 16 25 0 38 7 49 24 9 14 15 37 13 53 -3 24 -8 28 -33 28 -30 1 -30 2
-38 69 -4 38 -12 75 -18 83 -6 7 -29 13 -50 13z m92 -200 c5 0 9 -4 9 -8 0 -5
-3 -12 -6 -15 -4 -4 -11 -4 -16 -1 -4 3 -6 10 -3 15 4 5 10 9 16 9z"/>
</g>
</svg>
