<?xml version="1.0" standalone="no"?>
<!DOCTYPE svg PUBLIC "-//W3C//DTD SVG 20010904//EN"
 "http://www.w3.org/TR/2001/REC-SVG-20010904/DTD/svg10.dtd">
<svg version="1.0" xmlns="http://www.w3.org/2000/svg"
 width="56.000000pt" height="56.000000pt" viewBox="0 0 56.000000 56.000000"
 preserveAspectRatio="xMidYMid meet">
<metadata>
Created by potrace 1.16, written by Peter Selinger 2001-2019
</metadata>
<g transform="translate(0.000000,56.000000) scale(0.100000,-0.100000)"
fill="#000000" stroke="none">
<path d="M245 560 c-30 0 -45 -5 -49 -16 -3 -9 -6 -19 -6 -24 0 -4 14 -10 31
-14 31 -6 31 -6 28 -63 -2 -32 0 -63 4 -70 4 -7 4 -25 1 -40 -4 -15 -15 -42
-25 -59 -9 -17 -23 -41 -30 -52 -11 -18 -11 -28 0 -58 7 -19 31 -65 54 -100
35 -55 45 -64 67 -62 19 2 24 8 22 23 -2 11 -17 34 -33 51 -28 28 -29 33 -15
47 9 9 16 18 16 21 0 3 -11 6 -25 6 -14 0 -26 6 -26 13 -1 6 0 17 1 22 1 6 3
17 4 25 1 8 10 28 20 43 10 15 32 35 47 43 16 8 29 23 29 33 0 10 -11 26 -23
34 -20 13 -25 27 -31 84 -3 37 -9 78 -12 91 -5 18 -13 22 -49 22z"/>
</g>
</svg>
