<?xml version="1.0" standalone="no"?>
<!DOCTYPE svg PUBLIC "-//W3C//DTD SVG 20010904//EN"
 "http://www.w3.org/TR/2001/REC-SVG-20010904/DTD/svg10.dtd">
<svg version="1.0" xmlns="http://www.w3.org/2000/svg"
 width="56.000000pt" height="56.000000pt" viewBox="0 0 56.000000 56.000000"
 preserveAspectRatio="xMidYMid meet">
<metadata>
Created by potrace 1.16, written by Peter Selinger 2001-2019
</metadata>
<g transform="translate(0.000000,56.000000) scale(0.100000,-0.100000)"
fill="#000000" stroke="none">
<path d="M238 560 c-28 0 -30 -2 -23 -27 4 -16 10 -75 14 -132 6 -103 6 -103
-36 -160 -24 -31 -46 -72 -49 -91 -5 -24 -2 -44 12 -70 11 -21 35 -43 59 -55
26 -13 67 -21 118 -23 42 -2 77 0 77 4 0 5 -4 14 -8 20 -4 6 -17 16 -29 23
-12 6 -36 11 -54 11 -18 0 -47 5 -65 12 -17 6 -39 24 -48 40 -10 15 -15 36
-12 46 4 10 30 39 59 63 28 25 69 53 90 62 20 10 37 24 37 31 0 7 -9 21 -19
30 -11 10 -30 16 -43 14 -22 -3 -23 -1 -23 67 0 39 -6 85 -14 103 -11 26 -19
32 -43 32z"/>
</g>
</svg>
