<?xml version="1.0" standalone="no"?>
<!DOCTYPE svg PUBLIC "-//W3C//DTD SVG 20010904//EN"
 "http://www.w3.org/TR/2001/REC-SVG-20010904/DTD/svg10.dtd">
<svg version="1.0" xmlns="http://www.w3.org/2000/svg"
 width="56.000000pt" height="56.000000pt" viewBox="0 0 56.000000 56.000000"
 preserveAspectRatio="xMidYMid meet">
<metadata>
Created by potrace 1.16, written by Peter Selinger 2001-2019
</metadata>
<g transform="translate(0.000000,56.000000) scale(0.100000,-0.100000)"
fill="#000000" stroke="none">
<path d="M232 538 c-14 2 -22 -2 -22 -12 0 -8 4 -17 8 -20 5 -3 8 -57 7 -120
-2 -87 -6 -121 -19 -140 -11 -17 -16 -47 -16 -94 0 -62 3 -73 31 -108 28 -36
35 -39 86 -42 51 -2 54 -1 51 19 -2 12 -10 25 -18 30 -8 4 -29 13 -46 19 -22
8 -37 24 -50 53 -10 22 -17 52 -15 66 1 14 8 33 15 41 6 8 18 29 26 45 8 17
18 32 21 35 4 3 9 14 11 25 2 15 -3 21 -20 23 -23 3 -23 6 -18 60 4 31 3 71
-2 87 -5 20 -16 31 -30 33z"/>
</g>
</svg>
