<?xml version="1.0" standalone="no"?>
<!DOCTYPE svg PUBLIC "-//W3C//DTD SVG 20010904//EN"
 "http://www.w3.org/TR/2001/REC-SVG-20010904/DTD/svg10.dtd">
<svg version="1.0" xmlns="http://www.w3.org/2000/svg"
 width="56.000000pt" height="56.000000pt" viewBox="0 0 56.000000 56.000000"
 preserveAspectRatio="xMidYMid meet">
<metadata>
Created by potrace 1.16, written by Peter Selinger 2001-2019
</metadata>
<g transform="translate(0.000000,56.000000) scale(0.100000,-0.100000)"
fill="#000000" stroke="none">
<path d="M225 560 c-8 0 -15 -9 -15 -19 0 -11 5 -23 10 -26 6 -3 10 -19 10
-35 0 -16 5 -32 10 -35 6 -4 8 -25 4 -54 -4 -29 -2 -51 4 -55 6 -3 7 -18 3
-34 -4 -15 -19 -33 -35 -40 -15 -8 -31 -25 -36 -38 -5 -13 -14 -24 -19 -24 -5
0 -23 -20 -40 -46 -17 -25 -31 -54 -31 -64 0 -11 13 -34 29 -52 28 -32 28 -32
129 -31 55 1 115 4 134 8 18 4 43 13 56 21 12 8 22 19 22 24 0 6 -11 15 -25
20 -15 6 -33 6 -43 1 -9 -5 -44 -14 -77 -21 -33 -6 -76 -14 -96 -17 -29 -4
-40 -1 -56 16 -11 12 -20 33 -20 47 0 16 5 24 16 24 10 0 27 11 39 25 12 14
22 30 22 35 0 5 24 24 54 40 30 17 60 37 66 45 9 11 7 22 -9 49 -12 19 -26 36
-31 38 -6 2 -13 39 -16 83 -5 59 -11 85 -25 98 -10 9 -25 17 -34 17z"/>
<path d="M410 560 c-16 0 -30 -4 -30 -9 0 -5 7 -12 16 -15 9 -3 22 -6 30 -6 8
0 14 7 14 15 0 10 -10 15 -30 15z"/>
</g>
</svg>
