<?xml version="1.0" standalone="no"?>
<!DOCTYPE svg PUBLIC "-//W3C//DTD SVG 20010904//EN"
 "http://www.w3.org/TR/2001/REC-SVG-20010904/DTD/svg10.dtd">
<svg version="1.0" xmlns="http://www.w3.org/2000/svg"
 width="56.000000pt" height="56.000000pt" viewBox="0 0 56.000000 56.000000"
 preserveAspectRatio="xMidYMid meet">
<metadata>
Created by potrace 1.16, written by Peter Selinger 2001-2019
</metadata>
<g transform="translate(0.000000,56.000000) scale(0.100000,-0.100000)"
fill="#000000" stroke="none">
<path d="M174 544 c-7 3 -16 1 -19 -5 -4 -5 -1 -26 6 -47 6 -20 15 -41 19 -47
4 -5 10 -32 14 -60 4 -27 12 -72 18 -99 9 -42 8 -54 -7 -83 -15 -27 -16 -39
-8 -66 6 -17 17 -46 24 -64 12 -29 11 -33 -12 -53 -24 -21 -24 -21 16 -16 22
2 57 9 78 14 21 6 41 13 44 15 3 3 2 15 -2 26 -3 12 -15 21 -25 21 -10 0 -32
16 -49 35 -17 20 -31 40 -31 45 0 5 14 25 31 45 18 20 53 48 78 62 25 15 49
32 53 38 4 5 8 20 8 33 0 16 -6 22 -22 22 -13 0 -41 -14 -62 -30 -21 -16 -43
-27 -47 -24 -5 2 -11 21 -14 42 -3 20 -11 55 -17 77 -7 22 -23 57 -36 77 -13
20 -30 39 -38 42z"/>
</g>
</svg>
