<?xml version="1.0" standalone="no"?>
<!DOCTYPE svg PUBLIC "-//W3C//DTD SVG 20010904//EN"
 "http://www.w3.org/TR/2001/REC-SVG-20010904/DTD/svg10.dtd">
<svg version="1.0" xmlns="http://www.w3.org/2000/svg"
 width="56.000000pt" height="56.000000pt" viewBox="0 0 56.000000 56.000000"
 preserveAspectRatio="xMidYMid meet">
<metadata>
Created by potrace 1.16, written by Peter Selinger 2001-2019
</metadata>
<g transform="translate(0.000000,56.000000) scale(0.100000,-0.100000)"
fill="#000000" stroke="none">
<path d="M187 560 c-86 0 -98 -2 -95 -16 2 -9 11 -22 20 -28 13 -8 23 -8 38 2
11 6 32 12 48 12 28 0 28 0 30 -127 1 -127 1 -127 -42 -168 -23 -22 -50 -52
-59 -67 -9 -15 -17 -37 -17 -48 0 -12 6 -33 14 -49 14 -26 22 -28 148 -49 74
-12 141 -22 151 -22 9 0 17 6 17 13 0 8 -8 21 -17 29 -10 9 -43 19 -73 22 -30
4 -67 7 -82 6 -15 0 -39 11 -55 24 -25 22 -26 26 -14 49 7 13 24 36 37 51 16
16 48 33 86 43 33 9 63 23 66 31 3 8 -5 23 -19 33 -13 10 -39 19 -57 19 -34 0
-34 0 -30 120 3 120 3 120 -95 120z"/>
<path d="M431 560 c-11 0 -21 -4 -21 -9 0 -6 4 -12 9 -15 5 -3 14 1 21 9 10
13 9 15 -9 15z"/>
</g>
</svg>
