<?xml version="1.0" standalone="no"?>
<!DOCTYPE svg PUBLIC "-//W3C//DTD SVG 20010904//EN"
 "http://www.w3.org/TR/2001/REC-SVG-20010904/DTD/svg10.dtd">
<svg version="1.0" xmlns="http://www.w3.org/2000/svg"
 width="56.000000pt" height="56.000000pt" viewBox="0 0 56.000000 56.000000"
 preserveAspectRatio="xMidYMid meet">
<metadata>
Created by potrace 1.16, written by Peter Selinger 2001-2019
</metadata>
<g transform="translate(0.000000,56.000000) scale(0.100000,-0.100000)"
fill="#000000" stroke="none">
<path d="M177 529 c-1 0 -8 -3 -14 -6 -7 -2 -13 -14 -13 -25 0 -11 9 -32 19
-46 10 -15 20 -47 22 -71 4 -44 4 -44 -75 -85 -44 -23 -83 -48 -86 -56 -4 -8
-12 -25 -18 -37 -7 -13 -12 -32 -12 -42 0 -11 4 -22 8 -25 5 -3 46 -5 93 -6
46 -1 109 2 139 6 30 4 61 11 68 17 9 7 19 5 33 -9 11 -11 17 -27 14 -35 -3
-8 -22 -26 -43 -40 -20 -14 -50 -29 -66 -33 -23 -6 -27 -9 -15 -17 7 -5 29 -9
47 -9 21 0 45 10 68 27 18 16 34 34 34 42 0 10 3 11 14 2 8 -7 17 -8 20 -3 3
5 28 12 56 16 30 4 53 13 57 21 3 8 11 15 19 15 9 0 14 11 14 28 0 26 -4 29
-62 42 -35 8 -79 13 -98 11 -19 -1 -43 -11 -52 -22 -15 -15 -29 -17 -87 -14
-39 3 -82 10 -96 15 -14 5 -23 14 -20 20 3 6 59 35 123 66 64 31 132 63 151
72 19 10 43 29 54 44 13 17 18 34 13 51 -5 20 -14 26 -43 30 -21 2 -41 2 -46
0 -4 -2 -2 -13 4 -24 8 -15 7 -26 -4 -43 -8 -12 -33 -29 -56 -38 -23 -9 -43
-12 -47 -7 -3 5 4 21 14 37 11 15 29 36 41 46 12 11 21 23 21 28 0 4 -8 8 -18
8 -10 0 -33 -18 -51 -40 -26 -33 -35 -39 -47 -29 -8 6 -14 20 -14 31 0 10 -7
32 -15 47 -8 16 -22 31 -30 35 -9 3 -17 6 -18 5z m237 -352 c6 -2 11 -10 11
-18 0 -7 -8 -15 -17 -17 -10 -2 -18 3 -18 11 0 7 3 17 7 21 4 3 12 5 17 3z"/>
</g>
</svg>
