<?xml version="1.0" standalone="no"?>
<!DOCTYPE svg PUBLIC "-//W3C//DTD SVG 20010904//EN"
 "http://www.w3.org/TR/2001/REC-SVG-20010904/DTD/svg10.dtd">
<svg version="1.0" xmlns="http://www.w3.org/2000/svg"
 width="56.000000pt" height="56.000000pt" viewBox="0 0 56.000000 56.000000"
 preserveAspectRatio="xMidYMid meet">
<metadata>
Created by potrace 1.16, written by Peter Selinger 2001-2019
</metadata>
<g transform="translate(0.000000,56.000000) scale(0.100000,-0.100000)"
fill="#000000" stroke="none">
<path d="M225 560 c-9 0 -15 -9 -15 -24 0 -13 6 -26 13 -28 8 -3 16 -45 23
-124 5 -65 9 -123 7 -129 -2 -5 -20 -21 -39 -35 -20 -13 -49 -36 -64 -50 -16
-15 -31 -43 -35 -62 -4 -20 -2 -45 4 -56 7 -13 25 -21 57 -26 26 -3 53 -11 59
-16 8 -6 52 -10 106 -8 86 3 94 5 97 24 2 11 -6 29 -18 39 -20 18 -23 18 -88
2 -58 -15 -73 -16 -111 -5 -24 7 -49 22 -55 32 -9 14 -7 20 8 30 10 6 39 27
65 47 25 19 61 41 79 49 21 8 32 19 30 29 -2 8 -17 24 -33 36 -26 17 -30 26
-28 60 1 22 4 69 7 103 4 62 4 64 -25 80 -16 10 -29 20 -29 25 0 4 -7 7 -15 7z"/>
</g>
</svg>
