<?xml version="1.0" standalone="no"?>
<!DOCTYPE svg PUBLIC "-//W3C//DTD SVG 20010904//EN"
 "http://www.w3.org/TR/2001/REC-SVG-20010904/DTD/svg10.dtd">
<svg version="1.0" xmlns="http://www.w3.org/2000/svg"
 width="56.000000pt" height="56.000000pt" viewBox="0 0 56.000000 56.000000"
 preserveAspectRatio="xMidYMid meet">
<metadata>
Created by potrace 1.16, written by Peter Selinger 2001-2019
</metadata>
<g transform="translate(0.000000,56.000000) scale(0.100000,-0.100000)"
fill="#000000" stroke="none">
<path d="M181 485 c-19 35 -19 35 -25 10 -4 -14 -2 -34 4 -45 5 -10 10 -35 10
-54 0 -20 4 -44 9 -54 5 -9 14 -29 21 -44 9 -18 10 -46 6 -87 -5 -47 -3 -69
10 -96 9 -19 31 -44 48 -55 18 -10 41 -28 51 -40 10 -11 24 -20 32 -20 7 0 13
7 13 14 0 8 -17 28 -37 43 -21 15 -48 38 -60 50 -18 17 -23 33 -23 71 0 46 2
49 35 60 18 7 45 27 59 45 14 18 35 42 46 54 11 12 20 31 20 43 0 12 -6 20
-17 20 -10 0 -29 -9 -43 -20 -14 -11 -30 -20 -37 -20 -7 0 -22 -13 -35 -30
-12 -16 -26 -30 -30 -30 -5 0 -16 16 -24 35 -7 19 -14 53 -14 75 0 22 -8 56
-19 75z"/>
</g>
</svg>
