<?xml version="1.0" standalone="no"?>
<!DOCTYPE svg PUBLIC "-//W3C//DTD SVG 20010904//EN"
 "http://www.w3.org/TR/2001/REC-SVG-20010904/DTD/svg10.dtd">
<svg version="1.0" xmlns="http://www.w3.org/2000/svg"
 width="56.000000pt" height="56.000000pt" viewBox="0 0 56.000000 56.000000"
 preserveAspectRatio="xMidYMid meet">
<metadata>
Created by potrace 1.16, written by Peter Selinger 2001-2019
</metadata>
<g transform="translate(0.000000,56.000000) scale(0.100000,-0.100000)"
fill="#000000" stroke="none">
<path d="M156 560 c-9 0 -16 -2 -16 -5 0 -3 20 -32 45 -66 25 -34 45 -67 45
-75 0 -8 14 -45 31 -83 31 -70 31 -70 10 -92 -12 -13 -22 -34 -23 -48 -1 -14
-1 -39 0 -54 1 -15 10 -40 19 -55 9 -15 28 -39 42 -55 17 -19 34 -27 58 -27
18 0 33 5 33 10 0 6 -7 22 -16 35 -9 14 -34 43 -56 65 -34 34 -39 44 -33 67 3
16 11 34 17 40 6 7 18 13 27 14 9 0 29 8 45 18 16 9 31 22 34 29 2 6 -22 24
-53 38 -43 21 -59 35 -70 62 -8 19 -15 42 -15 51 0 9 -24 43 -54 74 -29 31
-60 57 -70 57z"/>
<path d="M363 560 c-21 0 -33 -5 -33 -13 0 -8 7 -28 16 -45 8 -18 19 -32 22
-32 4 0 12 20 18 45 10 45 10 45 -23 45z"/>
</g>
</svg>
