<?xml version="1.0" standalone="no"?>
<!DOCTYPE svg PUBLIC "-//W3C//DTD SVG 20010904//EN"
 "http://www.w3.org/TR/2001/REC-SVG-20010904/DTD/svg10.dtd">
<svg version="1.0" xmlns="http://www.w3.org/2000/svg"
 width="56.000000pt" height="56.000000pt" viewBox="0 0 56.000000 56.000000"
 preserveAspectRatio="xMidYMid meet">
<metadata>
Created by potrace 1.16, written by Peter Selinger 2001-2019
</metadata>
<g transform="translate(0.000000,56.000000) scale(0.100000,-0.100000)"
fill="#000000" stroke="none">
<path d="M347 527 c-20 3 -37 1 -41 -6 -4 -6 -4 -15 -1 -21 3 -5 14 -10 24
-10 10 0 26 -10 37 -21 10 -12 30 -26 44 -32 25 -10 25 -10 -5 -16 -16 -3 -41
-13 -55 -23 -14 -9 -40 -19 -59 -23 -31 -7 -37 -3 -79 41 -36 39 -46 45 -49
32 -3 -10 5 -43 16 -73 12 -31 21 -65 21 -75 0 -11 6 -20 13 -20 7 0 29 -9 50
-20 21 -11 42 -18 47 -15 6 4 10 15 10 25 0 11 -9 24 -20 30 -11 6 -20 15 -20
20 0 6 5 10 10 10 6 0 30 9 53 20 23 11 65 23 94 27 29 3 58 12 64 19 8 10 6
22 -10 48 -13 20 -40 44 -66 56 -24 11 -59 24 -78 27z"/>
<path d="M121 270 c-13 0 -29 -12 -41 -32 -11 -18 -20 -39 -20 -46 0 -7 11
-37 24 -65 15 -33 38 -61 60 -76 23 -15 59 -26 103 -31 38 -4 80 -11 94 -14
17 -5 32 -2 47 11 13 11 23 32 24 53 3 33 1 35 -27 33 -16 -1 -43 -2 -60 -3
-16 0 -63 0 -103 0 -57 1 -71 4 -63 14 7 8 4 20 -9 41 -14 22 -18 39 -13 72 5
39 4 43 -16 43z"/>
</g>
</svg>
