<?xml version="1.0" standalone="no"?>
<!DOCTYPE svg PUBLIC "-//W3C//DTD SVG 20010904//EN"
 "http://www.w3.org/TR/2001/REC-SVG-20010904/DTD/svg10.dtd">
<svg version="1.0" xmlns="http://www.w3.org/2000/svg"
 width="56.000000pt" height="56.000000pt" viewBox="0 0 56.000000 56.000000"
 preserveAspectRatio="xMidYMid meet">
<metadata>
Created by potrace 1.16, written by Peter Selinger 2001-2019
</metadata>
<g transform="translate(0.000000,56.000000) scale(0.100000,-0.100000)"
fill="#000000" stroke="none">
<path d="M330 540 c-10 0 -22 -5 -25 -11 -4 -6 -5 -11 -4 -13 2 -1 21 -14 41
-29 21 -15 43 -37 49 -48 9 -18 4 -27 -41 -70 -29 -27 -60 -54 -70 -59 -14 -7
-29 4 -81 57 -35 36 -74 69 -87 74 -13 5 -32 9 -43 9 -14 0 -19 -7 -19 -25 0
-13 7 -28 15 -32 8 -5 37 -37 65 -71 27 -34 50 -66 50 -71 0 -5 -9 -13 -21
-16 -11 -4 -33 -25 -50 -47 -16 -23 -29 -49 -29 -58 0 -10 7 -23 15 -30 9 -7
39 -14 68 -16 29 -1 58 -3 65 -3 7 -1 20 -10 29 -21 10 -11 25 -20 34 -20 9 0
28 -9 42 -20 18 -14 40 -20 76 -20 34 0 51 4 51 13 0 6 -9 27 -20 45 -14 22
-41 42 -87 64 -38 17 -78 36 -90 41 -13 6 -26 7 -30 4 -3 -4 -12 -2 -20 4 -7
6 -13 19 -13 29 0 13 14 23 46 34 25 8 67 33 93 55 26 22 59 45 72 51 13 5 31
14 39 19 8 5 23 12 33 15 9 3 17 13 17 23 0 10 -21 41 -47 69 -27 28 -61 56
-76 62 -15 7 -36 12 -47 12z"/>
</g>
</svg>
