<?xml version="1.0" standalone="no"?>
<!DOCTYPE svg PUBLIC "-//W3C//DTD SVG 20010904//EN"
 "http://www.w3.org/TR/2001/REC-SVG-20010904/DTD/svg10.dtd">
<svg version="1.0" xmlns="http://www.w3.org/2000/svg"
 width="56.000000pt" height="56.000000pt" viewBox="0 0 56.000000 56.000000"
 preserveAspectRatio="xMidYMid meet">
<metadata>
Created by potrace 1.16, written by Peter Selinger 2001-2019
</metadata>
<g transform="translate(0.000000,56.000000) scale(0.100000,-0.100000)"
fill="#000000" stroke="none">
<path d="M169 540 c-5 0 -12 -7 -15 -15 -4 -9 -2 -28 4 -43 6 -15 14 -46 17
-70 4 -23 14 -48 23 -55 11 -8 17 -26 16 -52 0 -22 -6 -53 -13 -70 -7 -16 -17
-57 -21 -90 -7 -47 -6 -65 6 -82 11 -17 24 -23 54 -23 21 0 50 -4 64 -10 21
-8 28 -5 46 17 11 15 19 31 17 37 -2 7 -26 10 -60 8 -48 -3 -57 -1 -67 18 -8
16 -9 34 -1 71 6 28 16 60 23 72 6 12 25 39 42 59 17 21 37 38 44 38 6 0 12
11 12 25 0 22 -4 25 -33 25 -23 0 -41 -8 -57 -25 -13 -14 -28 -25 -33 -25 -5
0 -7 9 -4 20 3 11 1 23 -4 26 -5 3 -9 15 -9 27 0 12 -6 38 -13 57 -7 19 -16
41 -20 48 -5 6 -13 12 -18 12z"/>
</g>
</svg>
