<?xml version="1.0" standalone="no"?>
<!DOCTYPE svg PUBLIC "-//W3C//DTD SVG 20010904//EN"
 "http://www.w3.org/TR/2001/REC-SVG-20010904/DTD/svg10.dtd">
<svg version="1.0" xmlns="http://www.w3.org/2000/svg"
 width="56.000000pt" height="56.000000pt" viewBox="0 0 56.000000 56.000000"
 preserveAspectRatio="xMidYMid meet">
<metadata>
Created by potrace 1.16, written by Peter Selinger 2001-2019
</metadata>
<g transform="translate(0.000000,56.000000) scale(0.100000,-0.100000)"
fill="#000000" stroke="none">
<path d="M343 560 c-11 0 -23 -3 -26 -7 -4 -3 -7 -26 -7 -49 0 -24 -4 -46 -10
-49 -5 -3 -10 -26 -10 -50 0 -27 -8 -59 -21 -82 -12 -21 -35 -63 -50 -94 -19
-37 -29 -72 -29 -101 0 -37 5 -49 33 -75 17 -18 45 -37 60 -42 16 -6 39 -11
52 -11 15 0 26 7 30 21 5 14 0 28 -16 45 -12 13 -30 24 -38 24 -9 0 -29 11
-45 23 -29 24 -29 24 -12 67 10 24 29 59 44 76 15 18 38 50 51 71 21 34 22 41
10 68 -7 17 -12 46 -12 65 1 19 4 50 8 68 6 27 5 32 -12 32z"/>
</g>
</svg>
