<?xml version="1.0" standalone="no"?>
<!DOCTYPE svg PUBLIC "-//W3C//DTD SVG 20010904//EN"
 "http://www.w3.org/TR/2001/REC-SVG-20010904/DTD/svg10.dtd">
<svg version="1.0" xmlns="http://www.w3.org/2000/svg"
 width="56.000000pt" height="56.000000pt" viewBox="0 0 56.000000 56.000000"
 preserveAspectRatio="xMidYMid meet">
<metadata>
Created by potrace 1.16, written by Peter Selinger 2001-2019
</metadata>
<g transform="translate(0.000000,56.000000) scale(0.100000,-0.100000)"
fill="#000000" stroke="none">
<path d="M434 534 c-16 2 -50 -1 -76 -7 -26 -7 -52 -17 -59 -24 -6 -6 -8 -16
-5 -22 5 -8 13 -8 26 -1 10 5 28 10 39 10 11 0 23 -5 26 -10 4 -6 -4 -20 -17
-31 -13 -10 -41 -29 -62 -40 -39 -21 -41 -21 -124 -5 -47 9 -87 14 -90 11 -4
-3 -1 -14 4 -23 6 -9 22 -20 35 -23 13 -3 34 -9 47 -14 12 -4 22 -9 22 -12 0
-2 -18 -23 -40 -46 -22 -22 -47 -54 -55 -70 -8 -17 -14 -54 -14 -86 1 -31 8
-68 15 -83 8 -15 24 -33 35 -39 13 -6 81 -12 160 -13 110 -2 139 0 139 10 0 8
-16 21 -36 29 -20 8 -60 15 -90 15 -29 0 -55 -4 -59 -10 -4 -6 -15 -6 -31 0
-14 6 -36 10 -49 10 -13 0 -27 5 -31 11 -3 6 -6 43 -6 82 1 41 6 73 11 75 6 2
11 9 11 15 0 6 14 26 31 43 29 29 34 31 53 19 11 -7 31 -16 44 -20 15 -4 24
-2 28 9 3 8 -4 29 -16 46 -21 30 -21 30 3 30 13 0 32 9 42 20 10 11 28 20 40
20 11 0 25 4 30 9 6 5 26 13 45 18 27 7 36 15 38 34 2 15 -5 32 -16 42 -10 9
-32 19 -48 21z"/>
<path d="M225 500 c-8 0 -17 -5 -20 -10 -3 -6 1 -13 9 -16 8 -3 20 -3 26 1 6
3 8 11 5 16 -4 5 -12 9 -20 9z"/>
</g>
</svg>
