<?xml version="1.0" standalone="no"?>
<!DOCTYPE svg PUBLIC "-//W3C//DTD SVG 20010904//EN"
 "http://www.w3.org/TR/2001/REC-SVG-20010904/DTD/svg10.dtd">
<svg version="1.0" xmlns="http://www.w3.org/2000/svg"
 width="56.000000pt" height="56.000000pt" viewBox="0 0 56.000000 56.000000"
 preserveAspectRatio="xMidYMid meet">
<metadata>
Created by potrace 1.16, written by Peter Selinger 2001-2019
</metadata>
<g transform="translate(0.000000,56.000000) scale(0.100000,-0.100000)"
fill="#000000" stroke="none">
<path d="M148 540 c-15 0 -28 -5 -28 -11 0 -6 13 -26 29 -44 19 -21 31 -49 36
-81 4 -27 13 -61 21 -76 8 -15 14 -34 14 -43 0 -9 -18 -33 -40 -52 -22 -20
-40 -45 -40 -55 0 -11 5 -28 10 -39 6 -10 24 -26 40 -34 17 -9 30 -22 30 -31
0 -8 -11 -26 -25 -40 -14 -14 -25 -27 -25 -29 0 -3 8 -5 17 -5 9 0 45 19 80
41 63 41 63 41 45 71 -9 17 -31 37 -49 44 -17 8 -35 19 -38 25 -4 6 8 26 26
45 19 19 64 54 101 77 50 31 68 48 68 64 0 12 -9 27 -20 33 -15 8 -28 5 -60
-11 -22 -12 -42 -25 -45 -30 -3 -4 -12 -6 -20 -2 -9 3 -15 19 -15 40 0 19 -5
44 -11 56 -6 12 -25 37 -42 55 -21 21 -40 32 -59 32z"/>
<path d="M430 528 c-9 1 -29 -11 -45 -28 -22 -23 -26 -33 -17 -42 9 -9 20 -8
48 5 27 13 35 22 32 40 -2 12 -10 23 -18 25z"/>
<path d="M410 20 c-16 0 -32 -4 -35 -10 -4 -6 10 -10 35 -10 25 0 39 4 35 10
-3 6 -19 10 -35 10z"/>
</g>
</svg>
