<?xml version="1.0" standalone="no"?>
<!DOCTYPE svg PUBLIC "-//W3C//DTD SVG 20010904//EN"
 "http://www.w3.org/TR/2001/REC-SVG-20010904/DTD/svg10.dtd">
<svg version="1.0" xmlns="http://www.w3.org/2000/svg"
 width="56.000000pt" height="56.000000pt" viewBox="0 0 56.000000 56.000000"
 preserveAspectRatio="xMidYMid meet">
<metadata>
Created by potrace 1.16, written by Peter Selinger 2001-2019
</metadata>
<g transform="translate(0.000000,56.000000) scale(0.100000,-0.100000)"
fill="#000000" stroke="none">
<path d="M255 560 c-9 0 -14 -3 -12 -7 2 -5 11 -24 19 -43 13 -28 14 -46 6
-90 -5 -30 -10 -71 -11 -90 -1 -19 -12 -49 -24 -66 -13 -18 -32 -52 -42 -78
-20 -45 -20 -45 19 -86 21 -22 44 -53 52 -70 11 -26 18 -30 51 -30 35 0 38 2
31 23 -4 12 -21 39 -40 59 -18 20 -40 48 -49 62 -17 25 -17 28 8 65 14 21 41
46 61 55 22 10 38 26 42 42 4 14 1 31 -6 39 -7 8 -19 15 -26 15 -11 0 -13 17
-12 74 1 67 -1 76 -25 100 -14 14 -33 26 -42 26z"/>
</g>
</svg>
