<?xml version="1.0" standalone="no"?>
<!DOCTYPE svg PUBLIC "-//W3C//DTD SVG 20010904//EN"
 "http://www.w3.org/TR/2001/REC-SVG-20010904/DTD/svg10.dtd">
<svg version="1.0" xmlns="http://www.w3.org/2000/svg"
 width="56.000000pt" height="56.000000pt" viewBox="0 0 56.000000 56.000000"
 preserveAspectRatio="xMidYMid meet">
<metadata>
Created by potrace 1.16, written by Peter Selinger 2001-2019
</metadata>
<g transform="translate(0.000000,56.000000) scale(0.100000,-0.100000)"
fill="#000000" stroke="none">
<path d="M291 540 c-11 0 -33 -11 -49 -25 -17 -14 -33 -39 -37 -55 -4 -16 -11
-32 -16 -35 -5 -4 -29 8 -53 25 -24 18 -49 29 -55 26 -6 -4 -11 -17 -11 -30 0
-12 20 -46 46 -76 25 -29 54 -70 65 -91 19 -39 19 -39 57 -23 20 9 55 23 77
32 22 8 74 22 115 31 75 16 75 16 74 64 0 34 -6 53 -23 71 -12 13 -56 38 -96
55 -41 17 -83 31 -94 31z m-2 -66 c14 -4 52 -18 84 -32 31 -13 57 -30 57 -37
0 -7 -36 -22 -80 -35 -43 -12 -86 -20 -95 -17 -11 5 -15 20 -15 55 0 26 5 53
12 60 6 6 23 9 37 6z"/>
<path d="M139 270 c-11 0 -37 -19 -59 -42 -36 -36 -40 -45 -34 -72 4 -17 16
-43 28 -58 11 -15 26 -29 32 -31 6 -3 65 0 132 5 66 6 128 8 137 4 14 -5 14
-8 0 -35 -8 -17 -15 -32 -15 -36 0 -3 16 -5 35 -5 30 0 37 5 55 37 11 21 26
46 33 55 9 13 9 23 1 35 -6 10 -30 24 -54 32 -39 12 -47 12 -94 -7 -35 -14
-70 -19 -111 -18 -33 1 -70 8 -82 15 -14 7 -23 21 -23 36 0 15 6 25 14 25 8 0
22 7 31 16 12 12 13 19 4 30 -6 8 -20 14 -30 14z"/>
</g>
</svg>
