<?xml version="1.0" standalone="no"?>
<!DOCTYPE svg PUBLIC "-//W3C//DTD SVG 20010904//EN"
 "http://www.w3.org/TR/2001/REC-SVG-20010904/DTD/svg10.dtd">
<svg version="1.0" xmlns="http://www.w3.org/2000/svg"
 width="56.000000pt" height="56.000000pt" viewBox="0 0 56.000000 56.000000"
 preserveAspectRatio="xMidYMid meet">
<metadata>
Created by potrace 1.16, written by Peter Selinger 2001-2019
</metadata>
<g transform="translate(0.000000,56.000000) scale(0.100000,-0.100000)"
fill="#000000" stroke="none">
<path d="M214 560 c-23 0 -23 0 -4 -46 15 -33 20 -68 20 -130 0 -46 5 -93 11
-103 10 -15 6 -26 -20 -64 -24 -36 -31 -56 -31 -94 1 -41 6 -54 36 -86 28 -30
41 -38 65 -35 29 3 29 3 -15 58 -38 48 -43 60 -38 90 3 19 12 45 20 57 8 13
36 39 64 58 27 20 48 41 45 48 -2 7 -14 13 -28 15 -13 1 -33 5 -44 7 -19 4
-21 10 -17 68 3 50 0 73 -18 110 -17 36 -27 47 -46 47z"/>
</g>
</svg>
