<?xml version="1.0" standalone="no"?>
<!DOCTYPE svg PUBLIC "-//W3C//DTD SVG 20010904//EN"
 "http://www.w3.org/TR/2001/REC-SVG-20010904/DTD/svg10.dtd">
<svg version="1.0" xmlns="http://www.w3.org/2000/svg"
 width="56.000000pt" height="56.000000pt" viewBox="0 0 56.000000 56.000000"
 preserveAspectRatio="xMidYMid meet">
<metadata>
Created by potrace 1.16, written by Peter Selinger 2001-2019
</metadata>
<g transform="translate(0.000000,56.000000) scale(0.100000,-0.100000)"
fill="#000000" stroke="none">
<path d="M241 560 c-10 0 -22 -7 -25 -16 -3 -8 2 -26 10 -40 15 -21 15 -35 5
-116 -7 -51 -18 -99 -25 -108 -7 -8 -23 -37 -35 -64 -17 -37 -21 -58 -15 -89
4 -26 17 -51 34 -67 16 -14 55 -34 89 -43 33 -9 72 -17 86 -17 15 0 25 6 25
14 0 8 -7 21 -15 30 -9 8 -32 18 -53 21 -20 4 -48 10 -62 14 -14 4 -27 18 -31
32 -4 13 -7 45 -8 72 -1 42 3 51 37 85 21 20 49 42 62 49 14 6 33 14 43 17 9
3 17 15 17 26 0 15 -7 20 -26 20 -14 0 -34 -5 -46 -11 -11 -6 -21 -9 -23 -7
-1 2 2 28 7 58 9 49 8 61 -11 98 -14 27 -28 42 -40 42z"/>
</g>
</svg>
