<?xml version="1.0" standalone="no"?>
<!DOCTYPE svg PUBLIC "-//W3C//DTD SVG 20010904//EN"
 "http://www.w3.org/TR/2001/REC-SVG-20010904/DTD/svg10.dtd">
<svg version="1.0" xmlns="http://www.w3.org/2000/svg"
 width="56.000000pt" height="56.000000pt" viewBox="0 0 56.000000 56.000000"
 preserveAspectRatio="xMidYMid meet">
<metadata>
Created by potrace 1.16, written by Peter Selinger 2001-2019
</metadata>
<g transform="translate(0.000000,56.000000) scale(0.100000,-0.100000)"
fill="#000000" stroke="none">
<path d="M196 560 c-15 0 -26 -4 -26 -8 0 -5 14 -19 31 -31 31 -23 31 -25 25
-85 -3 -33 -1 -78 5 -99 8 -30 7 -44 -5 -69 -9 -17 -16 -41 -16 -54 0 -13 6
-47 14 -76 8 -29 17 -62 22 -73 4 -11 16 -30 27 -42 11 -13 29 -23 39 -23 15
0 17 5 12 27 -4 15 -16 43 -28 62 -15 25 -20 53 -20 107 -1 67 1 74 28 99 16
14 39 31 52 36 13 4 24 13 24 18 0 4 -7 14 -15 21 -13 11 -23 9 -56 -9 -22
-13 -42 -21 -44 -20 -2 2 2 39 8 82 11 78 11 78 -20 108 -18 16 -43 29 -57 29z"/>
</g>
</svg>
