<?xml version="1.0" standalone="no"?>
<!DOCTYPE svg PUBLIC "-//W3C//DTD SVG 20010904//EN"
 "http://www.w3.org/TR/2001/REC-SVG-20010904/DTD/svg10.dtd">
<svg version="1.0" xmlns="http://www.w3.org/2000/svg"
 width="56.000000pt" height="56.000000pt" viewBox="0 0 56.000000 56.000000"
 preserveAspectRatio="xMidYMid meet">
<metadata>
Created by potrace 1.16, written by Peter Selinger 2001-2019
</metadata>
<g transform="translate(0.000000,56.000000) scale(0.100000,-0.100000)"
fill="#000000" stroke="none">
<path d="M304 530 c-49 0 -66 -4 -71 -15 -3 -9 2 -22 13 -30 11 -8 30 -15 42
-15 13 0 37 -8 53 -17 16 -10 29 -24 29 -33 0 -8 -21 -29 -48 -47 -26 -17 -57
-36 -70 -43 -20 -9 -26 -8 -43 12 -11 13 -27 37 -35 53 -9 17 -32 47 -52 68
-20 20 -40 37 -44 37 -4 0 -8 -12 -8 -27 0 -16 3 -45 6 -66 5 -25 21 -53 51
-84 38 -42 43 -51 33 -71 -5 -13 -10 -42 -10 -66 0 -23 7 -63 16 -89 9 -26 29
-58 45 -71 25 -21 34 -23 61 -15 18 5 50 7 70 3 21 -3 46 0 60 7 13 6 26 17
30 22 4 6 2 19 -4 30 -5 10 -25 25 -43 33 -18 7 -54 12 -79 10 -38 -3 -49 1
-70 23 -14 15 -28 40 -31 56 -3 17 0 37 7 46 7 9 36 30 63 47 28 16 65 33 82
37 18 3 35 11 38 16 4 5 15 9 26 9 10 0 28 9 39 20 13 13 20 33 20 58 0 20 -4
42 -8 47 -4 6 -28 20 -55 33 -34 16 -66 22 -113 22z"/>
</g>
</svg>
