<?xml version="1.0" standalone="no"?>
<!DOCTYPE svg PUBLIC "-//W3C//DTD SVG 20010904//EN"
 "http://www.w3.org/TR/2001/REC-SVG-20010904/DTD/svg10.dtd">
<svg version="1.0" xmlns="http://www.w3.org/2000/svg"
 width="56.000000pt" height="56.000000pt" viewBox="0 0 56.000000 56.000000"
 preserveAspectRatio="xMidYMid meet">
<metadata>
Created by potrace 1.16, written by Peter Selinger 2001-2019
</metadata>
<g transform="translate(0.000000,56.000000) scale(0.100000,-0.100000)"
fill="#000000" stroke="none">
<path d="M385 560 c-11 0 -15 -7 -13 -22 2 -13 8 -23 13 -23 6 0 11 10 13 23
2 15 -2 22 -13 22z"/>
<path d="M246 520 c-7 0 -15 -2 -18 -5 -3 -4 -4 -54 -2 -113 3 -59 9 -124 16
-144 10 -34 8 -43 -20 -97 -18 -32 -32 -73 -32 -90 0 -25 7 -36 33 -51 20 -12
50 -20 80 -20 40 0 47 3 47 20 0 13 -7 20 -20 20 -11 0 -36 7 -55 14 -23 10
-35 22 -35 35 0 11 20 50 45 87 25 36 45 73 45 81 0 8 -5 23 -10 34 -6 10 -17
19 -24 19 -10 0 -15 25 -21 91 -4 51 -9 98 -12 105 -3 8 -11 14 -17 14z"/>
</g>
</svg>
