<?xml version="1.0" standalone="no"?>
<!DOCTYPE svg PUBLIC "-//W3C//DTD SVG 20010904//EN"
 "http://www.w3.org/TR/2001/REC-SVG-20010904/DTD/svg10.dtd">
<svg version="1.0" xmlns="http://www.w3.org/2000/svg"
 width="56.000000pt" height="56.000000pt" viewBox="0 0 56.000000 56.000000"
 preserveAspectRatio="xMidYMid meet">
<metadata>
Created by potrace 1.16, written by Peter Selinger 2001-2019
</metadata>
<g transform="translate(0.000000,56.000000) scale(0.100000,-0.100000)"
fill="#000000" stroke="none">
<path d="M199 560 c-7 0 -9 -53 -5 -156 5 -129 3 -159 -9 -177 -8 -12 -15 -36
-15 -54 0 -24 10 -44 38 -75 20 -23 55 -54 76 -70 21 -15 47 -28 58 -28 14 0
18 8 18 39 0 35 -5 43 -49 75 -27 20 -54 49 -61 65 -10 25 -9 35 6 68 10 21
42 63 71 92 34 35 53 64 53 79 0 13 -5 32 -10 43 -6 10 -20 19 -31 19 -14 0
-25 -13 -39 -45 -11 -25 -26 -45 -34 -45 -7 0 -17 7 -20 16 -3 9 -6 37 -6 63
0 26 -7 56 -16 69 -8 12 -20 22 -25 22z"/>
</g>
</svg>
