<?xml version="1.0" standalone="no"?>
<!DOCTYPE svg PUBLIC "-//W3C//DTD SVG 20010904//EN"
 "http://www.w3.org/TR/2001/REC-SVG-20010904/DTD/svg10.dtd">
<svg version="1.0" xmlns="http://www.w3.org/2000/svg"
 width="56.000000pt" height="56.000000pt" viewBox="0 0 56.000000 56.000000"
 preserveAspectRatio="xMidYMid meet">
<metadata>
Created by potrace 1.16, written by Peter Selinger 2001-2019
</metadata>
<g transform="translate(0.000000,56.000000) scale(0.100000,-0.100000)"
fill="#000000" stroke="none">
<path d="M277 560 c-40 0 -46 -3 -51 -26 -5 -17 -1 -35 9 -50 9 -15 15 -47 15
-86 0 -47 5 -69 20 -88 11 -14 20 -31 20 -37 0 -7 -6 -13 -14 -13 -7 0 -30
-15 -50 -33 -20 -18 -36 -41 -36 -50 0 -9 -5 -19 -10 -22 -6 -3 -10 -19 -10
-34 0 -22 12 -39 54 -75 49 -42 59 -46 105 -46 28 0 51 4 51 8 0 4 -5 13 -12
20 -7 7 -20 12 -29 12 -10 0 -35 10 -56 22 -21 12 -48 30 -60 41 -13 11 -23
26 -23 32 0 6 30 39 68 73 37 34 75 68 85 77 14 12 15 20 7 35 -6 12 -21 20
-35 20 -20 0 -25 5 -25 28 -1 15 -7 54 -15 87 -8 33 -15 63 -15 67 0 4 10 8
22 10 12 2 23 9 26 16 2 8 -10 12 -41 12z"/>
</g>
</svg>
