<?xml version="1.0" standalone="no"?>
<!DOCTYPE svg PUBLIC "-//W3C//DTD SVG 20010904//EN"
 "http://www.w3.org/TR/2001/REC-SVG-20010904/DTD/svg10.dtd">
<svg version="1.0" xmlns="http://www.w3.org/2000/svg"
 width="56.000000pt" height="56.000000pt" viewBox="0 0 56.000000 56.000000"
 preserveAspectRatio="xMidYMid meet">
<metadata>
Created by potrace 1.16, written by Peter Selinger 2001-2019
</metadata>
<g transform="translate(0.000000,56.000000) scale(0.100000,-0.100000)"
fill="#000000" stroke="none">
<path d="M327 518 c-57 3 -76 1 -86 -12 -7 -8 -10 -20 -6 -26 3 -5 37 -10 76
-10 60 0 69 -2 69 -18 0 -10 -5 -23 -12 -30 -7 -7 -17 -12 -24 -12 -7 0 -36
-16 -66 -35 -48 -32 -54 -34 -63 -19 -5 9 -23 32 -39 51 -15 18 -33 33 -40 33
-6 0 -20 14 -29 30 -10 17 -27 30 -38 30 -10 0 -19 -7 -19 -15 0 -8 5 -15 10
-15 6 0 10 -9 10 -20 0 -10 5 -30 11 -44 6 -13 22 -27 34 -30 13 -3 25 -13 29
-21 3 -8 -4 -23 -14 -33 -17 -16 -19 -27 -14 -80 5 -46 13 -67 30 -83 13 -12
24 -33 24 -45 0 -12 13 -33 30 -48 17 -14 47 -29 68 -33 20 -4 84 -8 142 -8
89 0 105 2 108 16 2 9 -5 20 -15 23 -9 4 -53 9 -98 12 -44 3 -107 15 -140 26
-33 11 -65 25 -72 30 -6 5 -9 16 -7 23 3 7 -8 23 -25 36 -21 16 -31 31 -30 48
0 14 3 34 7 43 6 15 13 13 52 -18 32 -26 52 -34 74 -32 19 2 32 9 34 19 2 9
-4 24 -13 32 -8 9 -15 23 -15 31 0 13 10 16 43 15 23 -1 54 4 67 11 14 8 41
16 60 19 33 6 35 9 38 49 3 37 0 43 -21 51 -14 6 -32 20 -41 33 -14 19 -27 23
-89 26z"/>
</g>
</svg>
