<?xml version="1.0" standalone="no"?>
<!DOCTYPE svg PUBLIC "-//W3C//DTD SVG 20010904//EN"
 "http://www.w3.org/TR/2001/REC-SVG-20010904/DTD/svg10.dtd">
<svg version="1.0" xmlns="http://www.w3.org/2000/svg"
 width="128.000000pt" height="128.000000pt" viewBox="0 0 128.000000 128.000000"
 preserveAspectRatio="xMidYMid meet">
<metadata>
Created by potrace 1.16, written by Peter Selinger 2001-2019
</metadata>
<g transform="translate(0.000000,128.000000) scale(0.100000,-0.100000)"
fill="#000000" stroke="none">
<path d="M474 1210 c-13 0 -14 -3 -4 -15 10 -12 9 -16 -4 -21 -9 -3 -16 -12
-16 -18 0 -7 -12 -28 -26 -47 -14 -19 -34 -52 -44 -74 -10 -22 -40 -63 -67
-92 -27 -28 -66 -74 -88 -101 -22 -27 -54 -60 -72 -72 -18 -12 -35 -31 -38
-41 -4 -10 -12 -19 -19 -19 -7 0 -25 -9 -40 -21 -14 -11 -24 -25 -21 -30 4 -5
19 -9 34 -9 16 0 35 7 42 16 9 11 23 14 47 10 28 -4 38 0 59 22 14 15 43 51
65 80 21 28 45 52 53 52 7 0 28 24 45 53 17 28 43 68 56 87 14 19 30 37 35 39
6 1 18 -4 29 -14 10 -9 51 -27 90 -41 40 -13 93 -37 117 -52 24 -15 60 -40 81
-55 20 -16 74 -63 119 -105 46 -42 102 -93 125 -113 24 -20 74 -58 112 -84 37
-25 74 -44 81 -41 7 2 15 19 19 38 4 18 7 41 7 51 0 11 -7 30 -16 43 -8 13
-32 32 -53 42 -20 10 -59 31 -87 47 -27 16 -68 42 -90 59 -22 17 -49 40 -60
52 -11 12 -38 26 -60 33 -32 9 -46 21 -70 61 -19 31 -41 53 -60 60 -16 7 -49
20 -73 31 -23 10 -58 19 -78 19 -19 0 -44 5 -55 10 -16 9 -17 14 -8 32 9 17 6
28 -20 65 -17 24 -31 48 -31 53 0 6 -7 10 -16 10z"/>
<path d="M557 760 c-7 -1 -24 -8 -39 -16 -16 -8 -28 -21 -28 -29 0 -7 4 -16 9
-20 6 -3 10 -24 9 -48 0 -31 -9 -55 -35 -93 -19 -29 -33 -60 -31 -70 2 -10 13
-23 24 -29 12 -6 34 -26 50 -44 22 -27 27 -42 26 -81 0 -27 -7 -61 -15 -77 -8
-15 -18 -43 -22 -62 -5 -21 -26 -52 -55 -82 -26 -26 -45 -50 -42 -53 3 -3 24
-6 48 -6 38 0 46 5 93 56 28 30 51 62 51 69 0 7 16 37 35 66 19 30 35 63 35
74 0 11 -9 47 -19 80 -13 43 -31 73 -60 102 -23 22 -41 46 -41 51 0 6 9 16 19
22 11 5 22 23 26 40 4 17 15 35 26 40 10 6 19 19 19 29 0 9 -16 32 -36 49 -20
18 -41 32 -47 32z"/>
<path d="M788 78 c-20 2 -39 -2 -43 -8 -3 -5 0 -13 9 -16 8 -3 27 -4 43 -2 15
2 28 8 28 13 0 6 -16 11 -37 13z"/>
</g>
</svg>
