<?xml version="1.0" standalone="no"?>
<!DOCTYPE svg PUBLIC "-//W3C//DTD SVG 20010904//EN"
 "http://www.w3.org/TR/2001/REC-SVG-20010904/DTD/svg10.dtd">
<svg version="1.0" xmlns="http://www.w3.org/2000/svg"
 width="128.000000pt" height="128.000000pt" viewBox="0 0 128.000000 128.000000"
 preserveAspectRatio="xMidYMid meet">
<metadata>
Created by potrace 1.16, written by Peter Selinger 2001-2019
</metadata>
<g transform="translate(0.000000,128.000000) scale(0.100000,-0.100000)"
fill="#000000" stroke="none">
<path d="M501 1265 c-27 13 -31 13 -51 -3 -22 -18 -22 -18 4 -35 14 -10 26
-24 26 -33 0 -8 7 -17 15 -20 8 -3 17 -16 21 -27 3 -12 18 -31 32 -43 26 -21
26 -21 4 -33 -12 -6 -22 -18 -22 -26 0 -8 -21 -42 -47 -76 -27 -33 -60 -79
-75 -102 -16 -22 -28 -49 -28 -59 0 -10 -4 -26 -8 -36 -5 -9 -21 -42 -37 -72
-15 -30 -45 -87 -67 -127 -21 -40 -44 -75 -49 -79 -6 -3 -17 3 -25 15 -8 12
-22 21 -30 21 -10 0 -14 -12 -14 -44 0 -25 -5 -57 -10 -72 -8 -21 -7 -33 8
-58 10 -17 26 -32 36 -34 9 -2 32 8 50 22 19 14 45 47 58 73 13 26 31 59 41
73 9 14 17 40 19 58 1 18 8 38 15 44 7 6 13 19 13 30 0 10 7 21 15 24 8 4 26
-1 39 -9 13 -9 41 -17 62 -19 30 -2 40 -8 42 -23 1 -13 -23 -47 -73 -100 -42
-44 -83 -95 -91 -114 -8 -18 -14 -44 -14 -56 0 -12 7 -28 16 -36 12 -10 22
-10 52 0 20 7 53 24 72 36 19 13 53 31 75 41 22 10 58 26 81 36 22 10 45 18
50 18 6 0 20 -11 33 -24 20 -21 21 -25 8 -52 -8 -16 -22 -47 -32 -69 -9 -22
-21 -47 -26 -55 -5 -8 -13 -24 -18 -35 -5 -12 -16 -27 -25 -34 -9 -7 -16 -21
-17 -30 0 -9 -27 -38 -61 -66 -61 -50 -61 -50 -4 -53 53 -3 60 0 99 33 23 20
52 38 64 41 17 5 27 19 38 57 8 28 15 55 15 61 0 6 9 17 20 24 11 7 20 19 20
27 0 8 -8 15 -19 15 -10 0 -24 7 -32 16 -10 13 -10 17 2 25 8 5 26 6 42 3 27
-6 27 -6 27 54 0 56 -3 63 -35 94 -20 18 -43 36 -53 39 -9 3 -37 4 -62 2 -25
-3 -52 -9 -62 -14 -9 -5 -28 -9 -42 -9 -14 0 -27 4 -30 9 -3 4 14 28 38 53 33
34 53 47 85 52 23 3 44 13 47 21 4 8 3 27 0 41 -5 18 -20 31 -53 46 -41 18
-53 19 -116 10 -46 -7 -77 -8 -89 -1 -10 5 -18 16 -18 23 0 7 11 28 25 47 13
19 33 51 44 71 12 20 25 40 31 43 6 4 36 -11 68 -32 31 -21 68 -49 82 -61 14
-13 52 -49 85 -80 33 -31 92 -84 130 -118 39 -33 77 -63 85 -66 8 -4 32 -13
52 -22 36 -15 39 -15 59 5 17 17 19 28 14 62 -4 23 -13 45 -19 49 -6 4 -29 8
-51 8 -29 0 -55 10 -96 38 -31 20 -77 55 -103 77 -25 22 -85 77 -133 123 -84
81 -87 85 -89 132 -1 32 3 53 12 61 8 6 14 17 14 24 0 7 -13 24 -30 38 -16 14
-32 37 -36 52 -4 18 -17 30 -35 37 -16 5 -29 16 -29 24 0 7 -13 20 -29 29z"/>
</g>
</svg>
