<?xml version="1.0" standalone="no"?>
<!DOCTYPE svg PUBLIC "-//W3C//DTD SVG 20010904//EN"
 "http://www.w3.org/TR/2001/REC-SVG-20010904/DTD/svg10.dtd">
<svg version="1.0" xmlns="http://www.w3.org/2000/svg"
 width="128.000000pt" height="128.000000pt" viewBox="0 0 128.000000 128.000000"
 preserveAspectRatio="xMidYMid meet">
<metadata>
Created by potrace 1.16, written by Peter Selinger 2001-2019
</metadata>
<g transform="translate(0.000000,128.000000) scale(0.100000,-0.100000)"
fill="#000000" stroke="none">
<path d="M325 1190 c-37 0 -55 -4 -56 -12 -1 -7 0 -22 1 -33 1 -11 8 -32 16
-47 8 -16 19 -28 23 -28 5 0 23 14 40 31 21 20 31 40 31 60 0 29 -1 29 -55 29z"/>
<path d="M1183 1190 c-13 0 -29 -10 -37 -23 -12 -18 -13 -31 -4 -67 6 -25 16
-51 21 -58 6 -7 22 -12 36 -10 14 1 31 -1 38 -5 6 -4 18 -4 27 -1 13 5 16 22
16 79 0 72 0 72 -37 79 -21 3 -48 6 -60 6z"/>
<path d="M765 1179 c-11 0 -35 -7 -52 -15 -18 -8 -33 -20 -33 -28 0 -8 14 -17
31 -21 28 -6 30 -10 24 -34 -3 -14 -9 -38 -12 -53 -5 -28 -7 -28 -82 -29 -42
-1 -87 -4 -101 -9 -20 -6 -22 -9 -9 -14 9 -4 31 -8 50 -9 19 -1 40 -6 47 -10
9 -6 9 -13 0 -30 -6 -12 -94 -104 -195 -204 -101 -101 -188 -183 -193 -183 -6
0 -10 -13 -10 -30 0 -16 -3 -30 -7 -30 -5 0 -15 4 -22 9 -9 6 -22 6 -33 0 -10
-5 -18 -19 -18 -30 0 -14 -5 -19 -14 -16 -8 3 -19 0 -25 -7 -6 -8 -29 -16 -50
-20 -21 -3 -44 -12 -50 -20 -10 -11 -8 -25 10 -65 12 -28 26 -51 30 -51 5 0
28 12 52 27 23 15 62 44 86 65 24 21 50 38 59 38 8 0 40 26 71 58 31 31 74 80
96 107 21 28 69 82 105 122 36 39 92 103 125 142 34 40 60 79 59 91 -1 17 4
20 20 16 12 -3 57 -22 101 -42 75 -34 78 -37 56 -49 -23 -12 -23 -12 0 -18 13
-4 38 -7 54 -7 17 0 57 -11 90 -25 33 -13 68 -25 78 -25 10 0 43 -11 72 -25
30 -13 66 -27 80 -31 23 -6 25 -4 25 31 0 31 -8 44 -52 86 -29 27 -61 49 -70
49 -9 0 -19 4 -22 9 -3 4 -31 17 -63 28 -32 11 -80 26 -108 33 -27 7 -71 19
-97 27 -25 8 -49 20 -52 28 -3 8 6 30 20 51 14 20 24 46 22 58 -2 12 -17 28
-38 38 -19 9 -44 17 -55 17z"/>
<path d="M807 859 c-12 0 -35 -6 -50 -13 -16 -7 -39 -25 -53 -41 -15 -17 -24
-41 -24 -61 0 -18 5 -44 11 -57 8 -18 8 -30 0 -46 -7 -11 -18 -21 -26 -21 -7
0 -27 -12 -44 -26 -26 -21 -31 -33 -31 -69 0 -24 6 -48 14 -54 8 -7 28 -16 45
-21 22 -6 42 -5 66 6 19 8 45 14 59 14 20 0 28 -9 42 -46 9 -25 17 -64 18 -87
1 -32 -8 -57 -36 -102 -31 -50 -46 -65 -97 -90 -40 -20 -61 -36 -61 -48 0 -16
6 -17 51 -11 29 4 71 17 94 30 22 13 60 41 82 61 30 29 45 53 58 98 14 50 16
72 7 133 -7 52 -17 82 -37 107 -26 35 -26 35 -136 35 -86 0 -109 3 -109 14 0
7 13 19 30 26 16 7 41 10 55 8 13 -3 46 0 72 7 31 8 49 18 51 29 2 10 -5 27
-15 38 -10 11 -35 29 -56 39 -21 11 -43 31 -49 44 -8 18 -8 28 1 39 7 8 32 23
57 32 24 9 41 20 38 25 -3 5 -15 9 -27 8z"/>
</g>
</svg>
