<?xml version="1.0" standalone="no"?>
<!DOCTYPE svg PUBLIC "-//W3C//DTD SVG 20010904//EN"
 "http://www.w3.org/TR/2001/REC-SVG-20010904/DTD/svg10.dtd">
<svg version="1.0" xmlns="http://www.w3.org/2000/svg"
 width="128.000000pt" height="128.000000pt" viewBox="0 0 128.000000 128.000000"
 preserveAspectRatio="xMidYMid meet">
<metadata>
Created by potrace 1.16, written by Peter Selinger 2001-2019
</metadata>
<g transform="translate(0.000000,128.000000) scale(0.100000,-0.100000)"
fill="#000000" stroke="none">
<path d="M1065 1280 c-60 0 -65 -2 -65 -21 0 -20 -4 -21 -52 -16 -29 3 -74 9
-100 13 -29 4 -48 3 -48 -3 0 -5 30 -30 68 -56 37 -25 76 -49 87 -53 11 -4 32
-16 47 -26 14 -10 35 -18 45 -18 11 0 27 8 36 18 9 10 23 34 32 55 8 20 15 52
15 72 0 35 0 35 -65 35z"/>
<path d="M555 1255 c-17 3 -41 0 -55 -8 -18 -9 -24 -19 -22 -38 2 -13 -5 -42
-14 -64 -9 -22 -24 -51 -34 -65 -9 -14 -21 -36 -25 -50 -4 -14 -21 -40 -36
-58 -16 -18 -36 -46 -45 -64 -9 -17 -25 -40 -35 -51 -10 -12 -19 -24 -19 -29
0 -4 -6 -8 -13 -8 -7 0 -31 -18 -52 -40 -21 -22 -46 -40 -55 -40 -10 0 -25 9
-35 20 -10 11 -24 20 -31 20 -6 0 -18 -24 -25 -52 -7 -29 -13 -90 -13 -135 -1
-54 3 -86 12 -95 9 -9 17 -10 30 -2 9 6 23 23 30 37 7 15 17 27 22 27 4 0 19
17 31 38 13 20 50 64 82 97 33 33 84 95 116 138 31 43 70 98 86 121 17 24 38
51 48 60 9 10 17 26 17 37 0 11 7 22 16 26 8 3 25 0 37 -6 12 -6 37 -23 56
-36 18 -14 77 -66 130 -117 53 -51 113 -107 132 -124 20 -17 39 -36 43 -42 4
-7 -6 -18 -25 -28 -30 -15 -31 -17 -13 -27 10 -6 37 -14 59 -19 22 -5 49 -9
60 -9 11 1 36 -7 55 -15 19 -9 48 -23 63 -30 16 -8 42 -14 58 -14 17 0 32 6
35 15 4 9 1 37 -6 63 -6 26 -19 55 -27 65 -10 10 -31 17 -52 17 -20 0 -50 8
-67 18 -17 9 -58 35 -90 56 -33 22 -90 73 -129 114 -38 41 -86 85 -106 97 -20
13 -60 26 -91 30 -30 4 -61 11 -68 15 -11 7 -9 19 9 61 21 51 21 54 4 71 -10
10 -32 20 -48 23z"/>
<path d="M448 840 c-4 0 -9 -4 -12 -9 -3 -5 11 -42 31 -82 36 -73 36 -73 -13
-116 -27 -23 -54 -43 -61 -43 -6 0 -17 -15 -23 -34 -6 -19 -8 -51 -4 -70 5
-29 11 -36 30 -36 13 0 52 16 88 35 35 19 82 37 104 41 41 6 41 6 49 -32 4
-22 7 -79 7 -129 0 -49 -4 -112 -9 -140 -4 -27 -21 -73 -37 -101 -16 -29 -31
-68 -33 -88 -4 -31 -2 -36 16 -36 11 0 36 12 54 26 19 14 37 36 41 47 3 12 17
45 30 72 13 28 31 81 38 119 11 52 12 82 5 125 -6 31 -19 76 -31 101 -11 25
-31 60 -45 78 -18 23 -32 32 -54 32 -16 0 -46 -7 -66 -15 -20 -9 -43 -13 -50
-11 -7 3 -13 12 -13 20 0 8 28 36 63 63 34 27 81 55 105 62 31 9 42 17 42 32
0 14 -13 25 -46 39 -25 11 -69 20 -97 20 -29 1 -63 7 -77 15 -14 8 -28 14 -32
15z"/>
</g>
</svg>
