<?xml version="1.0" standalone="no"?>
<!DOCTYPE svg PUBLIC "-//W3C//DTD SVG 20010904//EN"
 "http://www.w3.org/TR/2001/REC-SVG-20010904/DTD/svg10.dtd">
<svg version="1.0" xmlns="http://www.w3.org/2000/svg"
 width="56.000000pt" height="56.000000pt" viewBox="0 0 56.000000 56.000000"
 preserveAspectRatio="xMidYMid meet">
<metadata>
Created by potrace 1.16, written by Peter Selinger 2001-2019
</metadata>
<g transform="translate(0.000000,56.000000) scale(0.100000,-0.100000)"
fill="#000000" stroke="none">
<path d="M184 560 c-19 0 -34 -6 -38 -15 -3 -8 -17 -20 -31 -27 -20 -9 -25
-18 -23 -37 2 -21 8 -25 26 -23 15 2 22 -2 22 -13 0 -9 -13 -43 -30 -77 -16
-33 -30 -65 -30 -70 0 -6 -10 -18 -23 -28 -15 -12 -23 -29 -22 -47 0 -23 4
-28 25 -28 20 0 30 10 52 55 14 30 38 66 51 79 14 12 30 20 36 17 6 -4 13 -23
17 -42 3 -19 2 -56 -4 -82 -5 -26 -17 -71 -25 -101 -13 -49 -13 -57 0 -78 8
-13 21 -23 28 -23 6 0 17 18 24 40 7 23 16 85 20 138 5 53 7 99 5 101 -2 2 19
14 46 28 46 23 50 23 79 8 17 -8 35 -24 41 -34 5 -11 10 -31 10 -44 0 -14 -20
-51 -47 -87 -27 -34 -56 -74 -65 -88 -9 -15 -29 -39 -45 -54 -28 -28 -28 -28
13 -28 36 0 45 5 68 35 15 20 38 45 50 58 12 12 40 43 60 69 29 36 38 57 40
88 1 28 -5 47 -17 57 -9 9 -17 21 -17 28 0 7 -8 19 -18 28 -10 10 -26 17 -35
17 -10 0 -25 5 -35 11 -14 9 -29 6 -72 -16 -54 -27 -54 -27 -82 6 -15 19 -28
42 -28 51 0 9 4 19 9 22 4 3 11 19 15 36 3 18 0 39 -7 50 -8 13 -23 20 -43 20z"/>
</g>
</svg>
