<?xml version="1.0" standalone="no"?>
<!DOCTYPE svg PUBLIC "-//W3C//DTD SVG 20010904//EN"
 "http://www.w3.org/TR/2001/REC-SVG-20010904/DTD/svg10.dtd">
<svg version="1.0" xmlns="http://www.w3.org/2000/svg"
 width="56.000000pt" height="56.000000pt" viewBox="0 0 56.000000 56.000000"
 preserveAspectRatio="xMidYMid meet">
<metadata>
Created by potrace 1.16, written by Peter Selinger 2001-2019
</metadata>
<g transform="translate(0.000000,56.000000) scale(0.100000,-0.100000)"
fill="#000000" stroke="none">
<path d="M72 535 c-30 26 -30 26 -38 3 -5 -17 1 -29 28 -54 19 -17 41 -33 48
-36 10 -3 9 -11 -5 -34 -10 -16 -31 -43 -47 -60 -23 -25 -26 -33 -16 -42 8 -6
27 -13 43 -16 15 -3 32 -11 37 -18 4 -7 8 -44 8 -82 0 -38 -5 -85 -11 -106
-10 -31 -9 -41 6 -64 10 -14 24 -26 33 -26 8 0 21 8 28 17 8 12 14 48 14 98 0
44 7 101 14 126 8 26 22 61 30 77 10 20 12 33 6 37 -6 3 -18 -7 -28 -24 -9
-17 -23 -31 -29 -31 -7 0 -13 7 -13 15 0 9 -6 18 -14 21 -8 3 -17 12 -20 19
-3 8 11 34 30 59 19 25 34 54 34 65 0 11 -9 25 -21 32 -12 6 -36 8 -54 5 -26
-5 -39 -1 -63 19z"/>
<path d="M355 400 c-18 0 -36 -4 -40 -10 -3 -5 20 -22 52 -38 41 -20 59 -35
61 -50 3 -19 -1 -22 -32 -22 -19 0 -38 -5 -41 -10 -4 -6 9 -17 29 -25 19 -8
51 -15 70 -15 19 0 42 7 50 16 9 8 16 26 16 38 0 12 -12 34 -27 48 -16 14 -45
36 -66 47 -21 12 -53 21 -72 21z"/>
</g>
</svg>
