<?xml version="1.0" standalone="no"?>
<!DOCTYPE svg PUBLIC "-//W3C//DTD SVG 20010904//EN"
 "http://www.w3.org/TR/2001/REC-SVG-20010904/DTD/svg10.dtd">
<svg version="1.0" xmlns="http://www.w3.org/2000/svg"
 width="56.000000pt" height="56.000000pt" viewBox="0 0 56.000000 56.000000"
 preserveAspectRatio="xMidYMid meet">
<metadata>
Created by potrace 1.16, written by Peter Selinger 2001-2019
</metadata>
<g transform="translate(0.000000,56.000000) scale(0.100000,-0.100000)"
fill="#000000" stroke="none">
<path d="M198 530 c-13 0 -18 -10 -20 -42 -3 -38 -6 -43 -28 -43 -20 0 -26 6
-30 30 -4 22 -11 30 -25 30 -15 0 -21 -8 -23 -32 -2 -23 5 -40 28 -67 21 -24
30 -42 26 -54 -4 -11 -24 -33 -45 -50 -24 -19 -42 -44 -46 -63 -4 -18 -3 -35
3 -41 8 -8 33 10 84 57 40 37 83 74 95 82 12 8 27 12 33 8 6 -4 16 -19 22 -33
11 -26 12 -26 15 -5 3 12 -4 34 -14 47 -10 14 -23 26 -28 26 -6 0 -16 5 -22
11 -9 9 -6 20 13 44 13 17 24 39 24 48 0 9 -10 23 -22 31 -12 9 -30 16 -40 16z"/>
<path d="M432 480 c-10 0 -27 -10 -38 -22 -10 -13 -25 -33 -31 -45 -7 -13 -13
-32 -13 -43 0 -11 4 -20 9 -20 5 0 18 17 28 38 15 27 27 38 48 40 15 2 31 -2
36 -9 4 -7 5 -27 2 -43 -4 -17 -24 -65 -46 -106 -21 -41 -50 -86 -63 -100 -24
-25 -24 -25 -24 25 0 28 4 65 10 84 5 19 6 40 1 48 -6 11 -14 6 -34 -21 -17
-21 -30 -54 -34 -83 -3 -26 -12 -60 -19 -75 -8 -15 -14 -40 -14 -56 0 -16 3
-44 6 -61 5 -24 12 -31 30 -31 17 0 24 6 24 20 0 11 8 35 18 53 9 17 43 58 75
90 31 31 57 63 57 69 0 6 8 21 18 32 11 12 26 40 35 64 10 23 17 55 17 71 0
22 -9 34 -40 55 -22 14 -48 26 -58 26z"/>
</g>
</svg>
