<?xml version="1.0" standalone="no"?>
<!DOCTYPE svg PUBLIC "-//W3C//DTD SVG 20010904//EN"
 "http://www.w3.org/TR/2001/REC-SVG-20010904/DTD/svg10.dtd">
<svg version="1.0" xmlns="http://www.w3.org/2000/svg"
 width="56.000000pt" height="56.000000pt" viewBox="0 0 56.000000 56.000000"
 preserveAspectRatio="xMidYMid meet">
<metadata>
Created by potrace 1.16, written by Peter Selinger 2001-2019
</metadata>
<g transform="translate(0.000000,56.000000) scale(0.100000,-0.100000)"
fill="#000000" stroke="none">
<path d="M108 518 c-9 2 -21 -6 -27 -17 -6 -11 -11 -36 -11 -55 0 -25 6 -38
20 -46 11 -6 24 -9 28 -6 4 3 14 1 21 -4 10 -6 -7 -27 -63 -81 -65 -62 -76
-77 -76 -106 0 -23 5 -33 16 -33 8 0 36 18 62 39 26 21 70 51 99 65 33 16 54
22 58 15 4 -5 1 -33 -5 -62 -7 -29 -19 -64 -26 -79 -8 -15 -14 -40 -14 -56 0
-16 9 -37 20 -47 19 -17 20 -17 35 18 8 20 15 44 15 54 1 10 7 29 15 43 8 14
14 34 15 45 0 11 7 33 15 49 15 27 14 31 -7 55 -13 14 -29 31 -36 38 -10 9
-22 8 -48 -3 -19 -8 -34 -13 -34 -11 0 3 14 21 30 42 17 21 30 46 30 55 0 10
-7 21 -16 24 -9 3 -28 6 -42 6 -15 0 -34 5 -42 10 -8 5 -15 17 -15 27 0 10 -8
19 -17 21z"/>
<path d="M470 442 c-14 3 -35 3 -46 -1 -12 -3 -33 -15 -48 -26 -14 -11 -26
-28 -26 -37 0 -10 5 -18 10 -18 6 0 19 9 30 20 11 11 31 20 45 20 14 0 34 -9
46 -21 17 -17 20 -28 14 -57 -4 -20 -24 -57 -45 -82 -21 -25 -57 -63 -79 -85
-31 -29 -41 -47 -41 -70 0 -17 5 -36 12 -43 7 -7 25 -12 40 -12 16 0 28 5 28
13 0 7 -7 22 -15 33 -8 10 -14 26 -15 34 0 8 15 25 34 38 18 12 59 49 90 81
49 52 56 64 56 100 0 23 -4 41 -10 41 -5 0 -10 6 -10 13 0 8 -10 23 -22 34
-13 11 -34 23 -48 25z"/>
</g>
</svg>
