<?xml version="1.0" standalone="no"?>
<!DOCTYPE svg PUBLIC "-//W3C//DTD SVG 20010904//EN"
 "http://www.w3.org/TR/2001/REC-SVG-20010904/DTD/svg10.dtd">
<svg version="1.0" xmlns="http://www.w3.org/2000/svg"
 width="56.000000pt" height="56.000000pt" viewBox="0 0 56.000000 56.000000"
 preserveAspectRatio="xMidYMid meet">
<metadata>
Created by potrace 1.16, written by Peter Selinger 2001-2019
</metadata>
<g transform="translate(0.000000,56.000000) scale(0.100000,-0.100000)"
fill="#000000" stroke="none">
<path d="M256 560 c-25 0 -39 -7 -50 -22 -9 -12 -16 -32 -17 -43 0 -11 -3 -14
-6 -7 -2 6 -11 12 -18 12 -8 0 -23 -13 -34 -29 -17 -23 -18 -31 -8 -40 8 -6
29 -8 50 -4 37 6 37 6 37 -40 0 -34 -10 -66 -40 -123 -22 -43 -44 -80 -48 -83
-5 -4 -14 -20 -21 -38 -7 -17 -10 -37 -6 -42 3 -6 12 -11 20 -11 8 0 25 15 39
33 15 19 26 40 26 47 0 7 12 24 26 37 14 13 29 22 31 19 3 -3 0 -25 -6 -48 -7
-24 -17 -68 -22 -98 -6 -30 -15 -60 -21 -67 -8 -10 -2 -13 28 -12 37 0 37 1
14 11 -25 10 -25 10 -2 19 17 6 21 14 17 31 -3 13 1 42 9 66 9 24 25 55 36 69
15 19 17 30 9 44 -5 11 -20 19 -34 19 -13 0 -27 5 -30 10 -4 6 0 22 9 35 9 13
16 33 16 43 0 10 -5 23 -11 29 -8 8 -8 17 -1 30 9 14 6 23 -14 44 -25 26 -25
26 15 61 23 19 41 38 41 41 0 4 -15 7 -34 7z"/>
<path d="M350 280 c-6 0 -13 -7 -17 -16 -4 -10 2 -23 15 -33 11 -9 28 -34 38
-56 10 -22 21 -53 24 -70 3 -21 12 -31 26 -33 16 -2 23 3 26 21 3 14 3 39 0
56 -2 19 -22 49 -53 81 -26 27 -53 50 -59 50z"/>
</g>
</svg>
