<?xml version="1.0" standalone="no"?>
<!DOCTYPE svg PUBLIC "-//W3C//DTD SVG 20010904//EN"
 "http://www.w3.org/TR/2001/REC-SVG-20010904/DTD/svg10.dtd">
<svg version="1.0" xmlns="http://www.w3.org/2000/svg"
 width="56.000000pt" height="56.000000pt" viewBox="0 0 56.000000 56.000000"
 preserveAspectRatio="xMidYMid meet">
<metadata>
Created by potrace 1.16, written by Peter Selinger 2001-2019
</metadata>
<g transform="translate(0.000000,56.000000) scale(0.100000,-0.100000)"
fill="#000000" stroke="none">
<path d="M285 520 c-8 0 -15 -4 -15 -10 0 -5 -7 -7 -15 -4 -8 4 -22 0 -31 -7
-9 -7 -46 -15 -82 -17 -37 -2 -69 -5 -71 -8 -3 -3 -1 -12 5 -21 6 -10 22 -26
36 -36 26 -20 27 -20 54 2 14 11 31 21 35 21 5 0 9 -5 9 -10 0 -6 -19 -30 -42
-54 -24 -24 -68 -70 -99 -103 -43 -44 -58 -68 -63 -99 -5 -29 -3 -44 7 -52 11
-9 19 -6 39 16 14 15 41 52 62 82 20 30 43 64 52 75 15 20 15 20 35 -4 12 -15
19 -39 19 -67 0 -23 -5 -66 -11 -94 -9 -43 -8 -55 5 -75 12 -18 26 -25 47 -25
16 0 32 6 35 14 3 8 39 30 79 50 41 20 77 36 82 36 4 0 19 9 33 20 14 11 35
20 48 20 17 0 22 6 22 25 0 14 -3 25 -8 25 -4 0 -14 15 -21 33 -8 17 -28 49
-44 70 -17 20 -36 37 -44 37 -7 0 -13 -5 -13 -11 0 -5 11 -27 25 -47 14 -20
25 -46 25 -58 0 -15 -10 -26 -30 -34 -17 -7 -34 -19 -38 -26 -4 -8 -32 -29
-62 -48 -30 -19 -59 -31 -63 -27 -4 4 -3 30 4 57 6 27 16 60 22 74 6 14 9 29
8 34 -1 5 13 23 32 40 18 17 36 39 40 50 5 11 13 16 23 12 10 -4 14 -1 12 6
-3 7 -13 15 -22 16 -10 2 -28 -5 -39 -16 -12 -10 -30 -22 -39 -25 -10 -4 -18
-13 -18 -22 0 -9 -10 -29 -22 -45 -11 -16 -25 -27 -30 -24 -4 3 -8 14 -8 24 0
10 -9 22 -20 25 -16 5 -19 12 -13 33 3 15 13 38 22 52 8 14 18 27 22 30 3 3
13 20 22 39 9 19 17 38 17 43 0 4 -7 8 -15 8z"/>
</g>
</svg>
