<?xml version="1.0" standalone="no"?>
<!DOCTYPE svg PUBLIC "-//W3C//DTD SVG 20010904//EN"
 "http://www.w3.org/TR/2001/REC-SVG-20010904/DTD/svg10.dtd">
<svg version="1.0" xmlns="http://www.w3.org/2000/svg"
 width="56.000000pt" height="56.000000pt" viewBox="0 0 56.000000 56.000000"
 preserveAspectRatio="xMidYMid meet">
<metadata>
Created by potrace 1.16, written by Peter Selinger 2001-2019
</metadata>
<g transform="translate(0.000000,56.000000) scale(0.100000,-0.100000)"
fill="#000000" stroke="none">
<path d="M244 538 c-16 4 -65 6 -109 4 -44 -1 -86 -5 -94 -7 -11 -4 -10 -9 4
-25 11 -12 31 -20 51 -20 18 0 35 4 38 8 3 5 21 9 41 10 26 1 35 -3 35 -15 0
-9 -13 -37 -30 -62 -16 -26 -43 -60 -60 -76 -16 -16 -30 -33 -30 -37 0 -5 -16
-23 -35 -41 -19 -17 -35 -37 -35 -44 0 -6 4 -14 9 -18 6 -3 27 4 48 16 21 11
48 30 61 42 16 15 25 18 33 10 6 -6 15 -46 20 -89 5 -44 6 -103 2 -131 -5 -45
-3 -54 12 -59 13 -5 27 3 52 31 28 32 33 43 28 69 -4 17 -11 45 -15 61 -5 17
-14 55 -20 86 -6 32 -19 64 -30 74 -11 10 -20 23 -20 30 0 7 13 30 28 51 16
21 31 46 35 54 4 8 12 23 19 32 9 12 9 21 2 28 -6 6 -24 14 -40 18z"/>
<path d="M383 300 c-12 0 -25 -4 -28 -10 -3 -5 13 -21 35 -35 23 -14 43 -32
47 -41 3 -8 -2 -24 -10 -37 -9 -12 -27 -35 -41 -51 -14 -16 -26 -33 -26 -38 0
-4 6 -8 13 -8 6 0 41 19 77 43 58 37 65 46 68 78 2 25 -3 40 -18 54 -11 10
-38 25 -58 32 -20 7 -47 13 -59 13z"/>
</g>
</svg>
