<?xml version="1.0" standalone="no"?>
<!DOCTYPE svg PUBLIC "-//W3C//DTD SVG 20010904//EN"
 "http://www.w3.org/TR/2001/REC-SVG-20010904/DTD/svg10.dtd">
<svg version="1.0" xmlns="http://www.w3.org/2000/svg"
 width="56.000000pt" height="56.000000pt" viewBox="0 0 56.000000 56.000000"
 preserveAspectRatio="xMidYMid meet">
<metadata>
Created by potrace 1.16, written by Peter Selinger 2001-2019
</metadata>
<g transform="translate(0.000000,56.000000) scale(0.100000,-0.100000)"
fill="#000000" stroke="none">
<path d="M83 535 c-13 3 -23 3 -23 -1 0 -3 9 -21 20 -39 20 -32 20 -35 4 -75
-13 -31 -23 -42 -44 -47 -18 -3 -30 -13 -34 -27 -3 -11 -6 -35 -6 -53 0 -24 4
-31 14 -27 8 3 41 41 75 84 33 43 70 81 80 85 11 3 29 1 41 -5 13 -7 21 -22
22 -43 1 -18 0 -70 -1 -116 -3 -66 -8 -89 -22 -105 -11 -11 -19 -25 -19 -31 0
-6 5 -16 11 -22 9 -9 9 -20 0 -44 -6 -17 -11 -36 -11 -41 0 -5 10 -8 22 -6 16
2 24 12 30 38 4 19 13 73 19 120 6 47 14 102 16 124 3 21 0 57 -8 80 -7 22
-19 49 -27 59 -8 9 -21 17 -29 17 -7 0 -13 4 -13 8 0 5 -21 20 -47 34 -27 14
-58 29 -70 33z"/>
<path d="M459 480 c-19 0 -29 -5 -29 -14 0 -9 12 -16 33 -18 25 -2 36 -11 51
-39 18 -33 19 -41 7 -80 -7 -24 -17 -52 -22 -61 -5 -10 -9 -27 -9 -37 0 -11
-4 -23 -10 -26 -5 -3 -10 -21 -10 -40 0 -19 -4 -37 -10 -40 -5 -3 -10 -33 -10
-66 0 -46 3 -59 15 -59 11 0 15 12 15 49 0 28 5 53 10 56 6 3 10 18 10 32 0
14 10 55 22 92 13 36 26 68 30 69 5 2 8 29 8 60 0 51 -3 58 -36 89 -24 21 -47
33 -65 33z"/>
</g>
</svg>
