<?xml version="1.0" standalone="no"?>
<!DOCTYPE svg PUBLIC "-//W3C//DTD SVG 20010904//EN"
 "http://www.w3.org/TR/2001/REC-SVG-20010904/DTD/svg10.dtd">
<svg version="1.0" xmlns="http://www.w3.org/2000/svg"
 width="56.000000pt" height="56.000000pt" viewBox="0 0 56.000000 56.000000"
 preserveAspectRatio="xMidYMid meet">
<metadata>
Created by potrace 1.16, written by Peter Selinger 2001-2019
</metadata>
<g transform="translate(0.000000,56.000000) scale(0.100000,-0.100000)"
fill="#000000" stroke="none">
<path d="M265 560 c-9 0 -15 -5 -13 -11 2 -6 8 -10 13 -10 5 0 11 4 13 10 2 6
-4 11 -13 11z"/>
<path d="M403 539 c-4 0 -24 -7 -43 -16 -19 -8 -38 -20 -42 -26 -4 -6 -4 -15
-2 -19 3 -4 17 -8 31 -8 15 0 37 -10 50 -22 22 -21 23 -21 43 -3 11 10 20 28
20 40 0 13 -11 30 -25 39 -13 9 -28 16 -32 15z"/>
<path d="M101 528 c-7 2 -11 -11 -11 -37 0 -22 5 -43 10 -46 6 -3 10 -21 10
-38 -1 -18 -8 -61 -16 -97 -8 -36 -20 -83 -25 -105 -5 -22 -12 -61 -16 -86 -3
-26 0 -63 7 -83 10 -32 16 -37 38 -34 23 3 31 13 53 73 15 39 31 86 37 105 6
19 14 51 17 70 7 35 7 35 -14 8 -11 -14 -21 -32 -22 -40 0 -7 -8 -26 -18 -42
-9 -16 -23 -32 -30 -34 -11 -4 -13 4 -8 30 3 20 17 66 32 103 22 55 26 76 21
117 -4 27 -17 68 -30 91 -13 22 -29 43 -35 45z"/>
<path d="M461 394 c-28 13 -53 21 -55 18 -2 -4 -6 -19 -10 -34 -4 -16 -13 -28
-22 -28 -9 0 -29 8 -45 17 -21 12 -32 14 -40 6 -8 -8 -3 -18 18 -37 16 -15 39
-26 57 -26 25 0 28 -3 22 -22 -3 -13 -6 -33 -6 -45 0 -13 -12 -29 -32 -41 -18
-12 -48 -45 -65 -74 -18 -30 -33 -65 -33 -79 0 -14 5 -30 12 -37 7 -7 23 -12
36 -12 15 0 38 14 58 35 18 19 37 35 43 35 7 0 7 -8 1 -26 -6 -14 -10 -30 -10
-35 0 -5 7 -9 16 -9 8 0 22 16 30 35 7 19 14 53 14 76 0 22 -7 53 -16 68 -14
24 -15 33 -2 77 12 42 18 50 43 54 24 4 31 11 33 32 3 24 -3 30 -47 52z m-100
-264 c4 0 11 -4 14 -10 3 -5 -2 -22 -12 -37 -10 -15 -22 -31 -27 -35 -6 -4
-14 -4 -18 -2 -4 3 -8 14 -8 24 0 11 10 28 22 40 12 11 25 20 29 20z"/>
</g>
</svg>
