<?xml version="1.0" standalone="no"?>
<!DOCTYPE svg PUBLIC "-//W3C//DTD SVG 20010904//EN"
 "http://www.w3.org/TR/2001/REC-SVG-20010904/DTD/svg10.dtd">
<svg version="1.0" xmlns="http://www.w3.org/2000/svg"
 width="56.000000pt" height="56.000000pt" viewBox="0 0 56.000000 56.000000"
 preserveAspectRatio="xMidYMid meet">
<metadata>
Created by potrace 1.16, written by Peter Selinger 2001-2019
</metadata>
<g transform="translate(0.000000,56.000000) scale(0.100000,-0.100000)"
fill="#000000" stroke="none">
<path d="M116 542 c-12 16 -14 16 -24 -8 -7 -14 -12 -35 -12 -47 1 -12 7 -40
15 -61 13 -37 13 -41 -11 -69 -13 -15 -27 -40 -30 -54 -4 -13 -2 -29 3 -34 7
-7 22 -4 45 7 22 10 46 14 61 10 14 -3 27 -14 29 -23 2 -10 0 -45 -5 -78 -4
-33 -10 -88 -13 -123 -5 -50 -4 -62 8 -62 8 0 25 19 36 43 13 24 26 75 31 122
8 76 7 82 -16 113 -13 17 -37 39 -54 47 -16 9 -29 18 -29 21 0 3 9 17 20 31
11 14 20 31 20 38 0 7 -13 29 -30 50 -16 21 -30 43 -30 49 0 6 -7 19 -14 28z"/>
<path d="M420 445 c-19 4 -39 3 -43 -1 -4 -4 -7 -12 -7 -18 0 -6 13 -18 28
-27 16 -9 36 -33 46 -53 12 -25 23 -36 34 -34 11 2 18 15 20 38 2 25 -4 43
-20 62 -14 16 -38 30 -58 33z"/>
<path d="M304 70 c-8 0 -14 -9 -14 -19 0 -11 3 -26 6 -35 3 -9 17 -16 31 -16
21 0 23 3 17 23 -3 12 -11 28 -16 35 -6 6 -17 12 -24 12z"/>
</g>
</svg>
