<?xml version="1.0" standalone="no"?>
<!DOCTYPE svg PUBLIC "-//W3C//DTD SVG 20010904//EN"
 "http://www.w3.org/TR/2001/REC-SVG-20010904/DTD/svg10.dtd">
<svg version="1.0" xmlns="http://www.w3.org/2000/svg"
 width="56.000000pt" height="56.000000pt" viewBox="0 0 56.000000 56.000000"
 preserveAspectRatio="xMidYMid meet">
<metadata>
Created by potrace 1.16, written by Peter Selinger 2001-2019
</metadata>
<g transform="translate(0.000000,56.000000) scale(0.100000,-0.100000)"
fill="#000000" stroke="none">
<path d="M287 560 c-133 0 -133 0 -146 -48 -9 -38 -9 -55 0 -75 10 -21 9 -32
-5 -62 -10 -20 -16 -43 -14 -53 2 -9 10 -16 18 -16 8 1 27 5 41 9 18 4 31 1
43 -10 9 -9 16 -32 16 -53 -1 -20 -11 -66 -24 -102 -21 -60 -22 -68 -9 -108 8
-23 21 -42 29 -42 7 0 20 12 27 28 8 15 17 63 21 107 4 44 13 118 21 165 7 47
17 93 20 103 4 9 11 17 16 17 4 0 14 -10 20 -22 9 -16 10 -69 6 -188 -4 -91
-10 -175 -13 -188 -6 -20 -3 -22 28 -22 35 0 35 0 41 188 5 116 3 201 -3 223
-6 20 -19 44 -29 53 -11 10 -31 16 -48 14 -24 -3 -31 -11 -52 -66 -23 -59 -27
-63 -50 -57 -15 4 -30 11 -36 16 -6 6 -5 16 3 29 6 11 12 27 12 35 0 8 -9 23
-20 32 -11 10 -20 30 -20 45 0 28 0 28 120 28 73 0 120 4 120 10 0 6 -51 10
-133 10z"/>
</g>
</svg>
