<?xml version="1.0" standalone="no"?>
<!DOCTYPE svg PUBLIC "-//W3C//DTD SVG 20010904//EN"
 "http://www.w3.org/TR/2001/REC-SVG-20010904/DTD/svg10.dtd">
<svg version="1.0" xmlns="http://www.w3.org/2000/svg"
 width="56.000000pt" height="56.000000pt" viewBox="0 0 56.000000 56.000000"
 preserveAspectRatio="xMidYMid meet">
<metadata>
Created by potrace 1.16, written by Peter Selinger 2001-2019
</metadata>
<g transform="translate(0.000000,56.000000) scale(0.100000,-0.100000)"
fill="#000000" stroke="none">
<path d="M455 538 c-16 5 -37 7 -45 4 -8 -3 -25 -13 -38 -23 -12 -9 -18 -20
-13 -24 6 -3 22 -3 36 1 14 3 36 3 50 0 23 -6 25 -11 25 -57 0 -49 1 -50 27
-47 18 2 32 12 40 29 10 19 10 34 2 56 -5 17 -20 35 -32 41 -12 6 -35 15 -52
20z"/>
<path d="M170 520 c-5 0 -16 -13 -25 -30 -9 -16 -22 -30 -31 -30 -8 0 -26 7
-40 17 -22 14 -27 14 -39 2 -12 -12 -12 -19 2 -48 9 -19 25 -36 35 -39 10 -2
18 -6 18 -9 0 -2 -5 -14 -11 -25 -6 -12 -27 -36 -45 -55 -23 -23 -34 -43 -34
-63 0 -17 4 -30 9 -30 5 0 23 13 40 29 17 16 31 34 31 40 0 6 6 11 13 11 7 0
28 16 47 35 23 23 43 35 62 35 24 0 29 -6 38 -41 7 -26 9 -80 5 -143 -3 -55
-8 -116 -12 -134 -5 -29 -9 -33 -29 -28 -12 3 -26 2 -29 -4 -4 -6 14 -10 48
-10 35 0 59 5 66 14 9 10 12 56 11 143 -1 70 -3 144 -4 163 -2 19 -3 49 -4 65
-2 21 -5 26 -11 16 -7 -10 -18 -11 -47 -4 -38 9 -39 10 -39 53 0 25 -4 51 -8
58 -5 6 -12 12 -17 12z"/>
</g>
</svg>
