<?xml version="1.0" standalone="no"?>
<!DOCTYPE svg PUBLIC "-//W3C//DTD SVG 20010904//EN"
 "http://www.w3.org/TR/2001/REC-SVG-20010904/DTD/svg10.dtd">
<svg version="1.0" xmlns="http://www.w3.org/2000/svg"
 width="56.000000pt" height="56.000000pt" viewBox="0 0 56.000000 56.000000"
 preserveAspectRatio="xMidYMid meet">
<metadata>
Created by potrace 1.16, written by Peter Selinger 2001-2019
</metadata>
<g transform="translate(0.000000,56.000000) scale(0.100000,-0.100000)"
fill="#000000" stroke="none">
<path d="M262 560 c-9 0 -23 -9 -30 -20 -7 -12 -24 -26 -37 -32 -16 -7 -25
-19 -25 -34 0 -16 7 -24 23 -26 17 -2 21 -9 19 -28 -1 -14 -11 -34 -22 -45
-11 -11 -31 -34 -45 -51 -14 -18 -25 -36 -25 -41 0 -6 9 -18 19 -27 11 -10 25
-15 30 -11 6 3 11 14 11 23 0 10 10 23 21 30 18 12 24 11 37 -2 14 -13 14 -24
5 -68 -6 -29 -7 -60 -3 -68 5 -9 4 -24 -2 -33 -5 -10 -7 -29 -4 -42 3 -13 1
-27 -5 -30 -7 -5 -4 -14 7 -26 9 -10 21 -19 25 -19 5 0 15 13 24 30 8 16 15
46 15 68 0 21 -5 43 -11 49 -8 8 -8 17 0 31 6 11 11 36 11 56 0 19 4 46 10 60
6 18 17 26 32 26 16 0 29 -10 40 -32 9 -18 20 -48 23 -65 4 -18 11 -35 16 -39
6 -3 16 0 24 6 8 7 15 29 15 49 -1 27 -10 46 -38 77 -20 23 -47 45 -58 48 -16
5 -27 0 -42 -19 -11 -14 -24 -25 -29 -25 -5 0 -20 11 -33 25 -22 23 -22 25 -6
59 9 19 16 41 16 49 0 9 -7 22 -15 30 -12 13 -12 17 5 32 11 10 20 22 20 27 0
4 -8 8 -18 8z"/>
</g>
</svg>
