<?xml version="1.0" standalone="no"?>
<!DOCTYPE svg PUBLIC "-//W3C//DTD SVG 20010904//EN"
 "http://www.w3.org/TR/2001/REC-SVG-20010904/DTD/svg10.dtd">
<svg version="1.0" xmlns="http://www.w3.org/2000/svg"
 width="56.000000pt" height="56.000000pt" viewBox="0 0 56.000000 56.000000"
 preserveAspectRatio="xMidYMid meet">
<metadata>
Created by potrace 1.16, written by Peter Selinger 2001-2019
</metadata>
<g transform="translate(0.000000,56.000000) scale(0.100000,-0.100000)"
fill="#000000" stroke="none">
<path d="M162 560 c-4 -1 -11 -5 -17 -11 -5 -5 -20 -17 -33 -27 -23 -17 -23
-17 -3 -44 12 -14 21 -34 21 -45 0 -10 -14 -45 -31 -78 -16 -33 -38 -69 -48
-80 -10 -11 -24 -30 -30 -42 -6 -12 -11 -29 -11 -38 0 -8 7 -18 16 -22 10 -4
24 4 40 23 13 16 23 33 24 37 0 4 15 23 32 41 18 18 45 36 60 40 23 5 31 1 53
-31 14 -21 25 -46 25 -57 0 -11 -14 -31 -31 -46 -30 -24 -31 -27 -21 -64 6
-21 19 -44 29 -52 10 -7 26 -14 36 -14 9 0 17 -7 17 -15 0 -8 5 -15 11 -15 7
0 18 8 25 18 7 9 14 21 14 26 0 4 -9 6 -21 3 -19 -5 -20 -2 -16 63 3 37 10 77
16 88 6 11 27 30 46 42 24 15 44 20 60 16 18 -5 25 -13 25 -32 0 -14 -7 -38
-15 -53 -8 -16 -21 -31 -30 -34 -8 -4 -15 -16 -15 -27 0 -11 5 -20 12 -20 6 0
31 9 54 20 23 11 49 29 59 40 13 14 16 28 11 53 -3 19 -17 44 -31 57 -14 13
-44 26 -69 30 -36 5 -51 2 -83 -17 -21 -12 -44 -23 -50 -23 -7 0 -15 11 -19
25 -3 14 -20 36 -36 50 -16 14 -36 25 -44 25 -8 0 -14 7 -14 15 0 8 9 30 20
50 11 20 20 45 20 57 0 11 -11 31 -26 44 -14 13 -28 24 -32 24z"/>
</g>
</svg>
