<?xml version="1.0" standalone="no"?>
<!DOCTYPE svg PUBLIC "-//W3C//DTD SVG 20010904//EN"
 "http://www.w3.org/TR/2001/REC-SVG-20010904/DTD/svg10.dtd">
<svg version="1.0" xmlns="http://www.w3.org/2000/svg"
 width="56.000000pt" height="56.000000pt" viewBox="0 0 56.000000 56.000000"
 preserveAspectRatio="xMidYMid meet">
<metadata>
Created by potrace 1.16, written by Peter Selinger 2001-2019
</metadata>
<g transform="translate(0.000000,56.000000) scale(0.100000,-0.100000)"
fill="#000000" stroke="none">
<path d="M60 560 c-6 0 -10 -8 -10 -19 0 -10 7 -34 15 -52 8 -19 21 -41 27
-50 9 -13 8 -22 -5 -40 -9 -13 -30 -43 -46 -66 -17 -23 -31 -48 -32 -55 -1 -7
-1 -19 0 -25 0 -7 9 -13 20 -13 10 0 24 7 31 15 6 8 21 17 33 21 11 4 29 16
38 28 17 20 18 20 38 2 16 -14 18 -23 10 -38 -6 -10 -7 -27 -4 -38 3 -11 -1
-49 -10 -84 -16 -64 -16 -66 5 -96 12 -16 27 -30 34 -30 8 0 16 17 20 37 3 21
6 86 6 144 0 93 -3 110 -21 133 -14 17 -30 26 -50 26 -25 0 -28 3 -19 18 5 9
16 36 23 58 9 27 11 48 5 58 -5 9 -18 16 -29 16 -11 0 -31 11 -45 25 -14 14
-29 25 -34 25z"/>
<path d="M496 560 c-21 0 -26 -5 -26 -26 0 -21 4 -25 23 -22 14 2 23 11 25 26
3 18 -1 22 -22 22z"/>
<path d="M403 383 c-26 3 -56 3 -65 0 -10 -2 -18 -10 -18 -17 0 -7 30 -17 75
-25 64 -12 75 -17 75 -34 0 -11 -18 -44 -40 -73 -22 -29 -53 -79 -70 -112 -16
-33 -30 -74 -30 -91 0 -19 5 -31 13 -31 8 0 26 29 42 65 15 35 45 85 66 109
22 25 55 50 74 56 30 10 35 16 35 41 0 22 -9 38 -32 57 -17 15 -41 32 -54 38
-12 7 -44 14 -71 17z"/>
</g>
</svg>
