<?xml version="1.0" standalone="no"?>
<!DOCTYPE svg PUBLIC "-//W3C//DTD SVG 20010904//EN"
 "http://www.w3.org/TR/2001/REC-SVG-20010904/DTD/svg10.dtd">
<svg version="1.0" xmlns="http://www.w3.org/2000/svg"
 width="56.000000pt" height="56.000000pt" viewBox="0 0 56.000000 56.000000"
 preserveAspectRatio="xMidYMid meet">
<metadata>
Created by potrace 1.16, written by Peter Selinger 2001-2019
</metadata>
<g transform="translate(0.000000,56.000000) scale(0.100000,-0.100000)"
fill="#000000" stroke="none">
<path d="M210 560 c-11 0 -20 -4 -20 -8 0 -5 3 -11 6 -15 3 -3 12 -3 20 0 8 3
14 9 14 14 0 5 -9 9 -20 9z"/>
<path d="M181 530 c-5 0 -20 -10 -35 -21 -15 -12 -32 -33 -37 -46 -7 -18 -5
-34 7 -58 15 -33 15 -35 -16 -91 -17 -32 -41 -71 -52 -86 -11 -16 -17 -35 -14
-43 3 -8 16 -15 29 -15 16 0 39 17 69 49 24 27 57 53 73 57 21 5 31 3 42 -11
7 -11 14 -37 15 -59 1 -23 2 -50 2 -61 0 -11 -3 -48 -7 -83 -7 -62 -7 -62 23
-62 26 0 30 4 31 28 1 15 2 80 4 145 2 116 2 118 -24 138 -20 16 -34 19 -65
14 -22 -3 -46 -11 -53 -17 -7 -6 -13 -8 -13 -4 0 4 12 25 27 49 14 23 39 54
55 69 23 21 27 32 22 52 -4 16 -13 26 -24 26 -9 0 -25 -9 -35 -20 -10 -12 -22
-17 -27 -12 -5 5 -4 20 1 35 6 15 7 27 2 27z"/>
<path d="M425 460 c-14 0 -36 -14 -54 -35 -17 -20 -32 -39 -32 -43 -1 -4 -3
-19 -5 -34 -2 -19 2 -28 12 -28 8 0 14 10 14 23 0 12 11 36 25 52 25 30 25 30
43 9 10 -12 27 -26 39 -32 11 -6 28 -27 37 -47 10 -19 21 -33 27 -30 5 4 9 26
9 51 0 25 -5 54 -10 65 -6 10 -27 26 -47 34 -19 8 -46 15 -58 15z"/>
<path d="M31 73 c-5 5 -11 5 -15 -2 -4 -6 -3 -18 2 -27 8 -15 10 -14 16 2 4 9
3 21 -3 27z"/>
<path d="M112 60 c-4 0 -21 -13 -37 -30 -29 -30 -29 -30 18 -30 26 0 47 2 47
4 0 3 -4 16 -10 30 -5 14 -13 26 -18 26z"/>
</g>
</svg>
