<?xml version="1.0" standalone="no"?>
<!DOCTYPE svg PUBLIC "-//W3C//DTD SVG 20010904//EN"
 "http://www.w3.org/TR/2001/REC-SVG-20010904/DTD/svg10.dtd">
<svg version="1.0" xmlns="http://www.w3.org/2000/svg"
 width="56.000000pt" height="56.000000pt" viewBox="0 0 56.000000 56.000000"
 preserveAspectRatio="xMidYMid meet">
<metadata>
Created by potrace 1.16, written by Peter Selinger 2001-2019
</metadata>
<g transform="translate(0.000000,56.000000) scale(0.100000,-0.100000)"
fill="#000000" stroke="none">
<path d="M371 560 c-14 0 -19 -5 -15 -15 4 -8 12 -15 20 -15 11 0 14 -23 14
-109 0 -110 0 -110 -27 -95 -16 7 -49 14 -75 14 -27 0 -48 -4 -48 -10 0 -5 10
-15 23 -22 12 -7 39 -13 60 -14 21 -1 45 -5 53 -8 7 -3 14 -12 14 -21 0 -8
-18 -33 -41 -54 -39 -39 -40 -41 -24 -64 15 -24 17 -24 46 -10 17 8 33 13 35
10 3 -3 1 -14 -5 -25 -6 -10 -23 -24 -38 -31 -15 -6 -39 -27 -52 -46 -13 -20
-21 -38 -18 -41 3 -4 14 -4 23 0 9 3 18 15 21 25 3 11 23 26 48 36 24 9 50 27
59 40 9 13 16 28 16 32 0 4 -11 21 -25 37 -21 24 -24 36 -19 65 3 20 8 44 11
54 2 10 14 17 29 17 17 0 24 5 24 20 0 13 -7 20 -19 20 -13 0 -21 9 -26 30 -4
18 -1 41 7 58 11 21 12 34 4 53 -6 13 -21 34 -33 47 -12 12 -31 22 -42 22z"/>
<path d="M140 490 c-16 0 -20 -7 -20 -33 0 -17 -5 -48 -11 -67 -6 -19 -16 -62
-21 -95 -5 -33 -12 -94 -14 -135 -4 -55 -1 -85 11 -113 12 -28 21 -37 40 -37
13 0 26 4 30 9 3 6 -3 14 -13 20 -15 8 -19 23 -21 92 -1 50 3 87 10 95 7 8 10
32 7 57 -3 28 0 50 8 62 8 11 14 45 14 82 0 56 -2 63 -20 63z"/>
<path d="M327 428 c-1 -1 -27 -4 -57 -7 -30 -3 -55 -10 -55 -16 0 -5 20 -15
45 -21 27 -7 50 -8 57 -2 7 5 14 5 18 -2 3 -6 11 -8 16 -5 5 4 9 14 9 25 0 10
-7 21 -16 24 -9 3 -16 5 -17 4z"/>
</g>
</svg>
